A SER - 170 360.0 -25.3 N 40.73 CA 38.12 C 36.79 O 35.23 CB 40.04 OG 41.18
A HIS - 182 -62.4 -44.7 N 35.28 CA 34.12 C 33.17 O 32.87 CB 34.27 CG 33.81 ND1 33.84 CD2 33.98 CE1 32.76 NE2 33.47
A MET S 152 -85.8 136.7 N 31.82 CA 31.33 C 28.88 O 28.35 CB 33.75 CG 36.96 SD 41.89 CE 41.25
A PRO - 93 -74.7 152.6 N 26.68 CA 26.27 C 25.5 O 24.64 CB 26.26 CG 27.51 CD 26.87
A ILE - 181 -71.2 124.7 N 24.24 CA 23.96 C 24.86 O 24.88 CB 23.16 CG1 22.13 CG2 22.54 CD1 24.68
A GLN - 154 -142.3 140.0 N 24.56 CA 25.62 C 25.09 O 24.92 CB 27.5 CG 32.45 CD 35.02 OE1 36.71 NE2 36.4
A VAL - 137 -58.9 141.9 N 23.79 CA 25.37 C 25.71 O 24.67 CB 26.24 CG1 26.88 CG2 27.17
A LEU - 84 -79.6 142.5 N 25.37 CA 25.62 C 27.0 O 26.34 CB 25.02 CG 23.83 CD1 25.21 CD2 24.32
A PRO - 60 -57.6 145.5 N 27.82 CA 28.08 C 28.09 O 28.22 CB 27.92 CG 28.24 CD 28.15
A PRO H 49 -47.1 -58.6 N 27.06 CA 26.86 C 26.18 O 25.42 CB 26.9 CG 27.79 CD 27.98
A GLN H 44 -53.5 -47.2 N 26.85 CA 27.23 C 26.27 O 26.1 CB 28.86 CG 32.42 CD 33.93 OE1 35.93 NE2 35.41
A LEU H 74 -63.6 -41.4 N 24.56 CA 24.03 C 23.11 O 21.14 CB 24.68 CG 24.59 CD1 26.07 CD2 25.37
A ALA H 16 -59.0 -43.2 N 22.33 CA 22.7 C 21.46 O 21.93 CB 20.53
A ASN H 4 -65.9 -32.6 N 22.38 CA 22.51 C 22.21 O 21.08 CB 23.61 CG 27.16 OD1 26.79 ND2 26.53
A GLN H 24 -70.9 -34.1 N 20.9 CA 20.3 C 20.33 O 21.09 CB 20.82 CG 21.17 CD 21.79 OE1 22.33 NE2 22.34
A ILE H 77 -66.2 -39.2 N 18.42 CA 20.08 C 19.96 O 21.2 CB 21.16 CG1 21.61 CG2 20.06 CD1 20.79
A ALA H 10 -68.8 -40.7 N 19.35 CA 19.04 C 18.7 O 19.59 CB 18.2
A ALA H 0 -62.5 -32.4 N 18.95 CA 19.54 C 19.27 O 19.45 CB 20.05
A GLY H 39 -66.0 -23.2 N 18.57 CA 18.33 C 18.68 O 17.82
A GLU H 112 -93.0 -18.2 N 19.53 CA 21.22 C 22.84 O 22.09 CB 22.09 CG 23.16 CD 24.01 OE1 25.73 OE2 23.19
A VAL H 9 -115.6 -27.3 N 23.28 CA 25.71 C 26.28 O 26.53 CB 26.42 CG1 26.93 CG2 29.36
A VAL - 3 -112.9 95.9 N 26.78 CA 29.24 C 30.39 O 31.67 CB 29.97 CG1 31.77 CG2 30.96
A GLU S 123 -92.3 -27.7 N 31.49 CA 33.82 C 33.03 O 34.68 CB 36.0 CG 39.69 CD 42.22 OE1 45.86 OE2 42.95
A ARG S 42 -161.6 174.5 N 31.4 CA 29.76 C 27.83 O 26.88 CB 30.04 CG 30.67 CD 32.03 NE 32.32 CZ 32.64 NH1 32.99 NH2 32.07
A PRO H 0 -46.8 -44.5 N 26.42 CA 26.08 C 25.78 O 25.91 CB 26.26 CG 26.44 CD 26.69
A ALA H 5 -54.4 -30.7 N 25.3 CA 24.87 C 24.37 O 25.26 CB 24.96
A SER H 16 -68.8 -42.7 N 24.05 CA 24.13 C 23.71 O 24.3 CB 23.87 OG 26.35
A VAL H 0 -62.1 -41.2 N 23.24 CA 22.49 C 23.09 O 23.23 CB 22.59 CG1 21.94 CG2 21.67
A VAL H 0 -62.7 -44.2 N 22.3 CA 21.84 C 21.78 O 22.32 CB 21.11 CG1 20.91 CG2 21.83
A LYS H 12 -55.5 -55.0 N 21.81 CA 20.82 C 20.73 O 19.26 CB 20.98 CG 21.42 CD 20.71 CE 21.51 NZ 19.05
A GLU H 3 -60.1 -42.7 N 20.09 CA 20.61 C 20.31 O 19.56 CB 21.46 CG 20.51 CD 22.29 OE1 21.18 OE2 24.29
A LEU H 3 -70.5 -41.2 N 20.31 CA 22.07 C 22.68 O 21.4 CB 23.03 CG 24.63 CD1 24.93 CD2 23.57
A VAL H 1 -66.0 -39.6 N 22.45 CA 23.19 C 23.58 O 22.63 CB 22.76 CG1 20.42 CG2 23.73
A GLU H 8 -63.4 -31.0 N 23.4 CA 23.09 C 23.25 O 22.45 CB 21.85 CG 22.28 CD 23.4 OE1 23.62 OE2 24.03
A ASN H 40 -66.8 -40.7 N 22.59 CA 23.05 C 23.3 O 23.53 CB 23.59 CG 23.09 OD1 22.47 ND2 21.87
A SER H 5 -63.3 -39.5 N 23.17 CA 23.88 C 24.3 O 24.46 CB 23.91 OG 24.16
A LEU H 15 -66.3 -45.1 N 24.99 CA 24.74 C 25.03 O 25.29 CB 23.9 CG 23.49 CD1 22.93 CD2 21.27
A ASP H 48 -61.4 -26.9 N 25.16 CA 24.27 C 23.99 O 22.49 CB 25.14 CG 25.59 OD1 24.88 OD2 25.81
A ALA T 28 -81.2 2.4 N 23.94 CA 24.96 C 26.03 O 26.22 CB 22.59
A GLY T 57 83.7 16.1 N 27.93 CA 27.94 C 28.97 O 28.09
A ALA - 1 -60.5 141.7 N 29.62 CA 30.2 C 32.09 O 32.7 CB 30.04
A THR S 65 -110.3 -24.7 N 31.89 CA 33.28 C 33.03 O 32.46 CB 33.35 OG1 34.42 CG2 36.21
A ARG E 90 -134.0 131.1 N 32.38 CA 33.3 C 32.87 O 32.04 CB 35.38 CG 39.44 CD 43.01 NE 46.66 CZ 47.81 NH1 48.4 NH2 47.97
A ILE E 0 -130.7 121.2 N 32.49 CA 32.04 C 31.96 O 33.59 CB 30.69 CG1 30.54 CG2 29.87 CD1 30.56
A ASP E 26 -108.8 122.0 N 31.84 CA 32.46 C 32.03 O 31.98 CB 33.91 CG 35.35 OD1 34.45 OD2 38.56
A ILE E 1 -115.7 124.3 N 31.43 CA 31.02 C 31.15 O 31.72 CB 30.05 CG1 29.21 CG2 30.38 CD1 27.66
A ASP E 50 -116.2 126.5 N 31.39 CA 31.86 C 30.89 O 29.73 CB 33.25 CG 35.86 OD1 37.02 OD2 37.72
A ILE E 2 -121.8 141.1 N 29.94 CA 29.43 C 30.24 O 28.59 CB 29.33 CG1 28.8 CG2 29.16 CD1 27.91
A GLU E 58 -125.7 136.5 N 30.85 CA 33.15 C 33.23 O 32.29 CB 34.49 CG 37.75 CD 39.46 OE1 39.14 OE2 42.98
A ARG G 161 45.1 56.7 N 34.42 CA 34.94 C 33.55 O 34.18 CB 38.61 CG 43.65 CD 48.79 NE 52.64 CZ 54.55 NH1 55.13 NH2 55.02
A GLY G 0 63.8 1.5 N 31.11 CA 30.24 C 28.93 O 29.47
A GLY G 1 106.5 -11.4 N 28.18 CA 27.14 C 26.64 O 27.67
A ALA T 34 -76.8 -17.7 N 26.5 CA 27.55 C 28.22 O 27.52 CB 28.89
A LYS S 71 -99.3 -52.6 N 28.79 CA 29.9 C 28.85 O 28.99 CB 32.16 CG 35.97 CD 39.68 CE 42.29 NZ 44.79
A LEU E 8 -155.8 142.8 N 27.72 CA 27.85 C 26.9 O 26.14 CB 28.63 CG 30.22 CD1 29.97 CD2 29.03
A ILE E 0 -135.1 116.4 N 26.48 CA 26.05 C 26.49 O 26.8 CB 26.23 CG1 26.07 CG2 25.2 CD1 26.61
A ARG E 70 -123.8 126.9 N 26.96 CA 27.41 C 27.55 O 27.63 CB 27.73 CG 30.37 CD 30.2 NE 32.98 CZ 33.16 NH1 33.76 NH2 34.23
A ILE E 2 -129.8 120.3 N 27.4 CA 26.95 C 26.67 O 25.0 CB 26.23 CG1 27.0 CG2 25.98 CD1 27.03
A ARG E 85 -119.4 145.3 N 28.23 CA 29.53 C 28.98 O 28.76 CB 32.39 CG 36.36 CD 40.0 NE 44.19 CZ 46.88 NH1 48.85 NH2 47.85
A ASP E 12 -140.8 164.9 N 27.5 CA 27.28 C 27.45 O 27.19 CB 26.35 CG 28.04 OD1 27.04 OD2 26.66
A ASN - 67 -106.1 36.3 N 28.18 CA 28.7 C 28.92 O 27.86 CB 31.19 CG 31.25 OD1 31.83 ND2 33.07
A GLY S 4 -73.1 -171.8 N 28.36 CA 27.9 C 27.13 O 27.25
A CYS - 85 -70.6 -18.8 N 26.99 CA 27.46 C 27.0 O 27.01 CB 28.2 SG 34.6
A GLY - 14 86.2 178.7 N 26.36 CA 24.71 C 24.82 O 22.73
A ILE - 36 -125.2 129.1 N 23.93 CA 24.69 C 25.58 O 24.87 CB 24.17 CG1 24.89 CG2 24.56 CD1 23.72
A LYS - 97 -63.1 138.1 N 26.56 CA 28.24 C 28.07 O 27.07 CB 30.93 CG 34.51 CD 34.98 CE 36.82 NZ 39.57
A LYS G 91 -44.8 -47.5 N 27.84 CA 29.11 C 28.42 O 28.61 CB 29.55 CG 31.4 CD 32.11 CE 32.04 NZ 32.12
A ASP G 112 -73.4 1.9 N 29.04 CA 29.4 C 28.3 O 26.11 CB 33.28 CG 37.16 OD1 40.76 OD2 39.17
A GLU G 78 -117.1 -0.1 N 27.2 CA 27.65 C 26.83 O 27.26 CB 26.98 CG 29.75 CD 30.17 OE1 30.03 OE2 31.29
A LEU H 1 -57.0 -46.4 N 26.78 CA 25.74 C 24.77 O 24.07 CB 27.54 CG 29.2 CD1 29.3 CD2 28.41
A ALA H 43 -65.1 -42.5 N 24.65 CA 23.41 C 24.19 O 23.9 CB 22.46
A LEU H 97 -58.5 -36.1 N 23.13 CA 22.58 C 21.74 O 22.86 CB 23.34 CG 24.06 CD1 25.64 CD2 24.72
A ALA H 28 -63.9 -24.1 N 20.83 CA 21.52 C 21.64 O 22.01 CB 21.47
A LEU H 7 -96.9 -5.3 N 21.75 CA 22.22 C 22.62 O 23.09 CB 22.19 CG 21.66 CD1 22.51 CD2 20.95
A ALA S 37 -81.0 164.0 N 22.98 CA 23.5 C 23.1 O 22.61 CB 23.52
A ARG T 87 -82.4 154.3 N 22.59 CA 22.64 C 21.21 O 21.39 CB 20.54 CG 21.96 CD 21.98 NE 20.57 CZ 21.51 NH1 21.55 NH2 19.61
A HIS T 131 45.7 36.1 N 20.29 CA 20.21 C 20.16 O 18.29 CB 19.41 CG 21.37 ND1 22.56 CD2 20.14 CE1 21.96 NE2 23.12
A ALA - 30 -123.4 126.5 N 20.28 CA 21.19 C 20.2 O 21.41 CB 19.89
A THR - 56 -148.8 160.5 N 19.9 CA 19.09 C 20.02 O 21.03 CB 19.25 OG1 20.47 CG2 19.48
A SER S 110 -110.0 0.1 N 20.18 CA 22.23 C 22.6 O 23.51 CB 21.59 OG 23.94
A LYS S 61 -87.5 -23.1 N 21.38 CA 21.58 C 21.39 O 20.47 CB 20.25 CG 20.48 CD 20.39 CE 20.81 NZ 21.85
A ILE - 35 -148.5 161.7 N 20.93 CA 20.51 C 21.51 O 22.07 CB 20.6 CG1 20.08 CG2 20.49 CD1 20.71
A ALA - 96 -150.4 0.2 N 21.05 CA 21.3 C 20.95 O 21.65 CB 20.73
A SER S 51 -149.9 169.3 N 21.14 CA 22.45 C 23.64 O 24.23 CB 21.24 OG 22.23
A LEU H 108 -66.3 -39.2 N 24.27 CA 25.61 C 25.99 O 25.46 CB 26.03 CG 28.24 CD1 26.14 CD2 27.55
A ASP H 120 -56.1 -43.4 N 26.29 CA 27.5 C 26.43 O 26.3 CB 29.54 CG 33.01 OD1 36.29 OD2 36.16
A ASP H 71 -61.3 -41.5 N 25.32 CA 26.22 C 25.17 O 26.15 CB 27.63 CG 29.84 OD1 30.5 OD2 29.25
A LEU H 40 -64.5 -39.9 N 26.52 CA 26.26 C 27.49 O 27.66 CB 25.49 CG 24.63 CD1 24.77 CD2 23.66
A GLU H 113 -75.8 -7.6 N 28.2 CA 29.79 C 29.64 O 31.13 CB 31.02 CG 34.34 CD 37.67 OE1 36.74 OE2 39.27
A ALA T 20 -131.2 47.9 N 29.43 CA 29.4 C 29.83 O 30.01 CB 29.05
A ILE - 19 -49.9 126.9 N 31.08 CA 32.39 C 32.94 O 33.47 CB 33.38 CG1 34.6 CG2 33.88 CD1 35.25
A ILE - 152 -130.6 27.2 N 33.55 CA 34.44 C 33.36 O 34.12 CB 35.92 CG1 38.04 CG2 37.98 CD1 39.3
A SER S 26 -150.1 157.5 N 29.82 CA 27.57 C 24.49 O 22.01 CB 27.81 OG 30.0
A LEU S 22 -66.1 -43.5 N 24.02 CA 22.63 C 21.93 O 20.48 CB 22.81 CG 23.85 CD1 24.37 CD2 23.42
A GLY - 10 -100.4 158.3 N 21.9 CA 20.92 C 20.63 O 19.07
A PHE - 11 -167.7 -7.0 N 19.13 CA 19.14 C 18.41 O 19.85 CB 19.02 CG 19.52 CD1 19.58 CD2 18.47 CE1 17.31 CE2 18.93 CZ 18.27
A ARG S 81 -84.9 -21.8 N 17.75 CA 17.22 C 16.91 O 18.17 CB 18.8 CG 19.4 CD 20.74 NE 22.89 CZ 25.29 NH1 24.13 NH2 25.9
A GLY S 18 65.4 28.3 N 16.1 CA 17.5 C 19.29 O 20.33
A GLU - 4 -118.9 -29.2 N 19.79 CA 19.76 C 19.6 O 19.89 CB 19.79 CG 21.39 CD 23.17 OE1 22.65 OE2 24.98
A ALA H 16 -46.4 -53.3 N 19.37 CA 18.85 C 19.44 O 18.27 CB 21.07
A LEU H 19 -64.0 -44.0 N 18.25 CA 18.31 C 16.9 O 17.79 CB 17.61 CG 19.48 CD1 18.73 CD2 17.44
A ALA H 2 -62.0 -45.9 N 18.19 CA 19.45 C 20.42 O 21.1 CB 19.15
A SER H 0 -56.5 -50.0 N 19.97 CA 20.17 C 20.2 O 18.31 CB 19.86 OG 20.82
A ILE H 0 -65.9 -38.7 N 19.11 CA 19.85 C 20.32 O 20.44 CB 19.74 CG1 21.02 CG2 20.82 CD1 21.55
A SER H 8 -65.8 -21.0 N 20.42 CA 21.81 C 21.87 O 21.63 CB 21.98 OG 26.11
A SER T 0 -77.9 -14.2 N 21.03 CA 21.15 C 21.43 O 21.68 CB 21.11 OG 18.59
A VAL T 0 -125.3 26.4 N 20.49 CA 21.03 C 21.08 O 22.14 CB 20.25 CG1 20.25 CG2 20.71
A SER S 4 -168.8 -177.6 N 21.16 CA 21.36 C 21.41 O 20.08 CB 22.14 OG 23.32
A ARG E 121 -105.3 93.2 N 22.64 CA 23.65 C 22.94 O 22.46 CB 27.08 CG 30.28 CD 32.85 NE 35.62 CZ 35.68 NH1 35.23 NH2 35.72
A LEU E 7 -100.1 132.8 N 22.64 CA 22.66 C 22.49 O 21.5 CB 21.83 CG 23.06 CD1 20.64 CD2 21.57
A THR E 28 -123.4 132.8 N 23.28 CA 24.79 C 24.96 O 25.51 CB 24.48 OG1 25.95 CG2 24.03
A LEU E 0 -114.8 118.7 N 25.29 CA 26.1 C 26.23 O 25.69 CB 26.04 CG 28.02 CD1 28.91 CD2 27.73
A THR E 8 -120.9 131.7 N 26.71 CA 26.73 C 27.31 O 27.4 CB 27.22 OG1 26.78 CG2 27.43
A SER E 1 -161.4 156.8 N 26.72 CA 26.31 C 25.87 O 25.18 CB 25.09 OG 24.79
A ARG E 53 -149.8 137.4 N 25.45 CA 25.98 C 25.76 O 25.68 CB 26.37 CG 25.74 CD 26.53 NE 25.46 CZ 28.53 NH1 28.05 NH2 30.74
A THR - 13 -97.7 163.1 N 25.73 CA 26.43 C 26.64 O 25.73 CB 26.76 OG1 25.54 CG2 27.06
A ALA T 70 -58.1 -26.9 N 26.89 CA 27.59 C 28.1 O 29.08 CB 28.58
A GLU T 166 -83.1 -10.7 N 28.73 CA 30.08 C 30.53 O 30.53 CB 30.48 CG 32.03 CD 32.74 OE1 32.24 OE2 32.33
A GLN - 32 -102.5 136.7 N 29.6 CA 30.63 C 30.97 O 31.36 CB 29.62 CG 26.9 CD 26.57 OE1 25.33 NE2 23.6
A GLN S 182 -88.2 -28.2 N 32.7 CA 34.31 C 33.19 O 33.52 CB 37.05 CG 40.67 CD 43.51 OE1 45.0 NE2 43.02
A GLU S 119 -97.7 141.8 N 32.03 CA 32.28 C 30.73 O 28.8 CB 32.91 CG 36.7 CD 39.27 OE1 41.58 OE2 40.03
A ALA E 4 -107.4 153.8 N 29.16 CA 28.11 C 27.53 O 25.8 CB 27.77
A TRP E 47 -134.7 161.6 N 26.7 CA 27.12 C 28.22 O 28.13 CB 26.64 CG 26.68 CD1 27.34 CD2 27.03 NE1 27.59 CE2 27.34 CE3 27.47 CZ2 28.16 CZ3 28.24 CH2 27.67
A GLN E 47 -133.1 141.8 N 28.26 CA 29.06 C 28.04 O 27.85 CB 31.32 CG 35.95 CD 38.01 OE1 39.85 NE2 38.1
A ALA E 0 -142.1 154.3 N 26.79 CA 26.46 C 26.74 O 24.99 CB 25.58
A TYR E 54 -161.2 151.4 N 27.64 CA 29.98 C 31.33 O 31.65 CB 31.42 CG 33.45 CD1 34.91 CD2 34.69 CE1 36.89 CE2 37.26 CZ 38.43 OH 41.11
A ALA E 19 -103.1 152.3 N 32.73 CA 35.47 C 37.43 O 37.47 CB 35.03
A GLU E 90 -149.2 162.8 N 40.05 CA 42.5 C 43.77 O 43.53 CB 43.48 CG 45.06 CD 45.92 OE1 46.12 OE2 45.79
A GLY T 42 69.2 162.4 N 45.05 CA 46.86 C 48.92 O 49.19
A ARG T 191 -48.9 -26.0 N 49.62 CA 51.13 C 50.75 O 50.68 CB 52.71 CG 56.11 CD 58.71 NE 61.06 CZ 62.01 NH1 62.73 NH2 62.33
A ASP T 107 -97.7 -0.6 N 50.46 CA 50.31 C 48.57 O 48.25 CB 51.96 CG 53.65 OD1 54.9 OD2 55.45
A MET T 26 57.9 50.6 N 47.0 CA 45.61 C 44.62 O 44.0 CB 45.68 CG 46.29 SD 47.57 CE 47.5
A ASN E 107 -70.6 139.5 N 43.35 CA 42.25 C 40.48 O 39.78 CB 44.31 CG 46.21 OD1 47.64 ND2 47.28
A VAL E 50 -104.5 137.0 N 37.84 CA 36.1 C 36.63 O 37.45 CB 35.41 CG1 32.75 CG2 32.88
A THR E 48 -119.6 138.6 N 35.87 CA 35.07 C 33.93 O 33.48 CB 34.88 OG1 39.64 CG2 36.05
A VAL E 61 -118.6 133.7 N 32.4 CA 31.64 C 31.53 O 30.81 CB 31.64 CG1 31.41 CG2 30.4
A LYS E 85 -143.7 161.3 N 30.61 CA 30.44 C 29.14 O 29.88 CB 31.38 CG 32.96 CD 36.27 CE 35.98 NZ 37.21
A PRO E 95 -61.2 156.4 N 28.76 CA 29.49 C 30.11 O 31.33 CB 28.89 CG 29.43 CD 28.13
A ALA E 29 -166.0 166.2 N 29.38 CA 29.3 C 29.25 O 29.82 CB 29.52
A ALA - 96 -108.5 131.3 N 30.13 CA 30.79 C 30.82 O 30.92 CB 31.57
A HIS - 25 -172.9 137.5 N 29.52 CA 28.11 C 28.57 O 27.28 CB 27.89 CG 27.24 ND1 25.64 CD2 26.85 CE1 26.4 NE2 26.0
A PRO - 75 -69.7 -176.6 N 29.25 CA 29.1 C 29.45 O 29.44 CB 29.69 CG 30.44 CD 29.86
A VAL S 60 -67.1 125.9 N 28.48 CA 28.62 C 28.16 O 28.71 CB 28.3 CG1 28.73 CG2 28.07
A GLY E 0 133.8 -161.1 N 28.93 CA 27.27 C 27.41 O 25.56
A THR E 8 -140.3 154.5 N 26.65 CA 26.84 C 26.38 O 25.84 CB 27.24 OG1 27.78 CG2 28.97
A THR E 9 -135.3 131.5 N 25.79 CA 24.16 C 24.32 O 23.31 CB 24.51 OG1 22.85 CG2 25.07
A LEU E 13 -117.3 132.2 N 22.82 CA 23.4 C 23.85 O 24.21 CB 22.87 CG 22.53 CD1 20.94 CD2 19.64
A GLU E 45 -124.0 121.1 N 25.18 CA 26.28 C 25.34 O 25.16 CB 28.46 CG 32.63 CD 35.24 OE1 34.14 OE2 37.47
A VAL E 1 -120.5 113.5 N 24.53 CA 23.8 C 24.6 O 24.11 CB 23.64 CG1 21.71 CG2 21.69
A LEU E 54 -114.1 155.3 N 25.1 CA 26.88 C 26.47 O 26.78 CB 27.6 CG 29.63 CD1 30.27 CD2 30.05
A ASP S 77 45.7 52.7 N 27.84 CA 27.54 C 26.12 O 25.85 CB 30.57 CG 33.79 OD1 37.04 OD2 35.38
A LEU T 2 -53.0 128.7 N 25.35 CA 24.92 C 24.89 O 25.18 CB 23.89 CG 25.54 CD1 24.98 CD2 24.5
A PHE T 5 70.7 16.8 N 24.21 CA 23.55 C 24.76 O 24.41 CB 22.38 CG 22.04 CD1 21.04 CD2 21.28 CE1 21.4 CE2 22.08 CZ 20.59
A TYR T 79 -62.0 -27.0 N 23.79 CA 24.54 C 24.56 O 25.06 CB 23.68 CG 24.86 CD1 24.47 CD2 25.85 CE1 24.32 CE2 25.54 CZ 25.36 OH 24.39
A ASN T 40 -107.4 9.7 N 24.13 CA 24.41 C 24.5 O 24.63 CB 23.67 CG 24.04 OD1 24.45 ND2 25.15
A THR - 13 -133.3 82.3 N 25.97 CA 27.54 C 29.0 O 28.0 CB 27.87 OG1 28.62 CG2 28.75
A PRO H 80 -48.2 -49.5 N 30.81 CA 32.03 C 32.08 O 32.33 CB 32.06 CG 33.19 CD 32.25
A ALA H 65 -61.6 -40.7 N 32.02 CA 32.26 C 31.91 O 31.09 CB 32.66
A ARG H 68 -73.2 -35.9 N 31.19 CA 30.95 C 30.05 O 27.83 CB 31.3 CG 32.73 CD 32.68 NE 33.04 CZ 32.12 NH1 28.77 NH2 34.41
A ARG H 109 -60.9 -30.6 N 29.69 CA 31.99 C 32.18 O 31.5 CB 33.42 CG 35.65 CD 39.45 NE 42.42 CZ 43.91 NH1 45.29 NH2 44.6
A LYS H 173 -56.3 -37.0 N 33.39 CA 34.88 C 34.63 O 34.52 CB 37.13 CG 39.87 CD 41.97 CE 42.86 NZ 44.28
A PHE T 164 -69.1 -12.7 N 33.47 CA 33.11 C 33.47 O 33.46 CB 32.46 CG 32.83 CD1 32.94 CD2 33.6 CE1 32.1 CE2 32.97 CZ 32.28
A LEU - 37 -61.7 133.3 N 33.6 CA 33.93 C 34.9 O 34.55 CB 34.14 CG 34.1 CD1 34.59 CD2 32.1
A ARG - 178 -89.2 -164.1 N 35.64 CA 37.13 C 37.2 O 37.6 CB 38.23 CG 41.79 CD 44.93 NE 47.51 CZ 49.15 NH1 49.34 NH2 49.98
A THR - 85 -69.1 156.6 N 37.0 CA 37.3 C 38.05 O 38.13 CB 36.51 OG1 36.72 CG2 36.63
A GLU H 93 -50.1 -45.6 N 38.39 CA 39.79 C 39.77 O 39.29 CB 41.02 CG 42.92 CD 43.89 OE1 45.47 OE2 43.69
A LYS H 151 -61.9 -52.7 N 39.95 CA 39.4 C 38.35 O 38.56 CB 41.0 CG 43.43 CD 45.74 CE 47.71 NZ 49.48
A THR H 52 -55.2 -55.8 N 37.34 CA 35.71 C 34.31 O 34.76 CB 36.69 OG1 38.12 CG2 36.24
A GLU H 5 -56.4 -41.6 N 32.42 CA 30.85 C 31.34 O 31.27 CB 29.46 CG 29.92 CD 30.97 OE1 30.39 OE2 30.67
A PHE H 15 -64.9 -39.7 N 30.69 CA 31.15 C 31.39 O 31.55 CB 31.87 CG 31.64 CD1 30.58 CD2 31.91 CE1 31.14 CE2 30.95 CZ 31.13
A ASN H 84 -54.9 -41.4 N 31.36 CA 31.19 C 29.51 O 29.97 CB 33.67 CG 36.68 OD1 38.48 ND2 37.91
A HIS H 73 -65.0 -38.9 N 28.19 CA 26.83 C 25.75 O 23.95 CB 28.2 CG 29.46 ND1 29.48 CD2 29.76 CE1 29.9 NE2 30.85
A ILE H 0 -59.6 -49.6 N 25.96 CA 27.0 C 27.55 O 27.3 CB 26.45 CG1 25.84 CG2 26.01 CD1 27.52
A ASP H 17 -57.3 -42.4 N 28.39 CA 28.51 C 29.53 O 29.36 CB 30.11 CG 30.67 OD1 30.51 OD2 32.03
A GLU H 59 -64.9 -39.8 N 29.63 CA 29.9 C 29.89 O 29.3 CB 30.65 CG 32.85 CD 34.68 OE1 35.74 OE2 34.04
A ILE H 23 -63.0 -45.6 N 30.09 CA 31.5 C 31.01 O 30.15 CB 33.13 CG1 34.19 CG2 34.08 CD1 34.39
A ILE H 1 -62.4 -36.6 N 31.59 CA 32.19 C 32.35 O 32.77 CB 31.93 CG1 31.93 CG2 32.79 CD1 33.7
A ARG H 49 -53.5 -57.4 N 32.84 CA 33.77 C 33.22 O 32.27 CB 37.05 CG 41.47 CD 45.33 NE 48.45 CZ 49.45 NH1 49.74 NH2 49.24
A ARG H 32 -59.9 -42.4 N 31.98 CA 31.93 C 31.49 O 30.37 CB 31.6 CG 32.04 CD 32.7 NE 32.92 CZ 33.37 NH1 33.97 NH2 32.61
A ILE H 7 -66.8 -39.6 N 31.0 CA 31.38 C 30.8 O 31.22 CB 30.91 CG1 30.93 CG2 30.77 CD1 31.05
A ALA H 0 -60.6 -35.8 N 30.58 CA 31.38 C 31.68 O 31.31 CB 31.43
A LEU H 0 -76.4 -16.8 N 32.42 CA 32.85 C 32.68 O 32.41 CB 34.09 CG 35.2 CD1 34.6 CD2 35.84
A ALA H 18 -80.7 -35.4 N 31.66 CA 31.55 C 31.17 O 30.91 CB 32.16
A ARG - 77 -127.0 94.7 N 31.45 CA 32.15 C 32.37 O 32.61 CB 32.61 CG 31.31 CD 31.85 NE 32.0 CZ 33.12 NH1 31.94 NH2 34.22
A PHE T 17 -70.9 -21.9 N 32.58 CA 33.15 C 32.93 O 33.17 CB 35.27 CG 35.95 CD1 37.81 CD2 36.4 CE1 37.78 CE2 37.63 CZ 38.03
A ASP T 74 -82.7 11.9 N 32.88 CA 32.66 C 32.54 O 34.57 CB 33.53 CG 33.46 OD1 31.88 OD2 35.32
A VAL - 0 -124.1 129.6 N 31.82 CA 31.26 C 31.74 O 31.21 CB 30.82 CG1 29.54 CG2 29.38
A THR E 1 -84.5 131.0 N 32.31 CA 33.44 C 33.81 O 33.53 CB 33.62 OG1 34.35 CG2 34.38
A ILE E 1 -132.1 128.1 N 34.03 CA 34.06 C 34.35 O 36.12 CB 34.33 CG1 32.93 CG2 33.52 CD1 34.03
A ASN E 28 -118.5 132.8 N 34.07 CA 33.83 C 33.03 O 32.74 CB 34.96 CG 36.4 OD1 36.9 ND2 36.76
A LEU E 0 -125.3 127.6 N 32.28 CA 32.05 C 32.44 O 32.27 CB 31.47 CG 31.55 CD1 28.75 CD2 30.28
A SER E 14 -127.3 152.0 N 32.74 CA 33.33 C 33.32 O 32.39 CB 33.51 OG 36.17
A HIS E 24 -133.1 127.1 N 33.51 CA 34.01 C 35.8 O 36.08 CB 33.34 CG 32.89 ND1 32.84 CD2 32.78 CE1 32.75 NE2 32.94
A ASN T 73 49.7 46.8 N 36.94 CA 39.5 C 40.77 O 40.68 CB 38.85 CG 39.54 OD1 39.55 ND2 39.39
A GLY T 77 78.4 5.9 N 41.75 CA 42.67 C 43.47 O 44.02
A LYS E 155 -124.4 135.3 N 44.3 CA 44.22 C 44.11 O 43.8 CB 45.53 CG 48.23 CD 49.99 CE 51.09 NZ 52.4
A ILE E 96 -70.4 125.4 N 43.46 CA 43.29 C 43.64 O 43.53 CB 43.08 CG1 43.47 CG2 43.45 CD1 44.52
A VAL E 55 -100.9 -34.2 N 43.21 CA 43.07 C 43.4 O 43.17 CB 43.32 CG1 42.38 CG2 41.85
A ARG E 66 -166.4 158.5 N 43.74 CA 44.77 C 44.88 O 44.71 CB 45.73 CG 45.73 CD 47.08 NE 47.92 CZ 48.32 NH1 50.38 NH2 48.9
A GLN E 119 -152.2 113.8 N 45.03 CA 45.7 C 45.49 O 45.6 CB 45.76 CG 45.93 CD 46.24 OE1 45.47 NE2 46.01
A TYR E 17 -100.9 103.8 N 45.25 CA 46.31 C 46.98 O 47.67 CB 46.05 CG 46.01 CD1 46.06 CD2 46.39 CE1 45.71 CE2 45.47 CZ 45.91 OH 45.25
A ARG - 140 -72.7 142.0 N 47.71 CA 48.57 C 47.54 O 47.63 CB 50.87 CG 53.64 CD 55.49 NE 56.89 CZ 57.5 NH1 58.04 NH2 58.3
A ALA - 24 -61.1 147.7 N 46.8 CA 46.54 C 46.6 O 46.09 CB 46.16
A VAL - 22 -91.5 120.0 N 47.23 CA 47.7 C 49.11 O 48.19 CB 47.25 CG1 46.75 CG2 46.38
A PRO - 88 -59.3 178.6 N 50.84 CA 52.31 C 53.55 O 53.42 CB 52.08 CG 52.18 CD 51.25
A GLU T 193 -56.3 126.3 N 55.58 CA 57.31 C 57.58 O 58.02 CB 58.77 CG 60.94 CD 62.46 OE1 63.0 OE2 63.6
A GLY T 87 57.7 2.9 N 57.5 CA 57.03 C 56.99 O 57.21
A GLY - 22 -52.5 171.9 N 56.3 CA 55.04 C 54.37 O 54.19
A GLN - 103 -82.9 111.7 N 54.08 CA 53.74 C 52.58 O 52.49 CB 55.59 CG 58.61 CD 60.09 OE1 60.73 NE2 60.53
A LYS T 105 -69.5 -33.8 N 50.85 CA 49.31 C 48.94 O 47.95 CB 48.44 CG 47.2 CD 46.16 CE 45.72 NZ 45.54
A GLU H 59 -43.3 -35.7 N 48.85 CA 49.26 C 48.61 O 48.1 CB 50.81 CG 53.19 CD 54.9 OE1 54.52 OE2 55.97
A ARG H 171 -53.2 -59.0 N 48.26 CA 47.94 C 46.38 O 46.55 CB 50.42 CG 53.27 CD 55.91 NE 57.94 CZ 59.33 NH1 60.24 NH2 60.12
A ARG H 10 -65.3 -42.9 N 45.16 CA 43.29 C 42.12 O 41.7 CB 43.36 CG 43.53 CD 43.23 NE 41.91 CZ 41.17 NH1 41.05 NH2 39.98
A LEU H 0 -52.3 -49.5 N 41.1 CA 40.28 C 39.97 O 40.36 CB 39.49 CG 39.4 CD1 38.91 CD2 39.92
A GLY H 13 -66.2 -34.5 N 39.82 CA 39.63 C 40.07 O 40.19
A ALA H 76 -69.6 -31.3 N 40.28 CA 40.71 C 41.5 O 42.62 CB 40.48
A ILE H 8 -90.9 -49.5 N 41.48 CA 41.62 C 41.94 O 42.36 CB 41.25 CG1 41.14 CG2 41.61 CD1 40.26
A CYS H 21 -90.1 -17.7 N 41.76 CA 41.48 C 42.65 O 42.84 CB 41.33 SG 39.24
A GLY - 27 104.6 154.1 N 43.07 CA 43.21 C 43.75 O 43.85
A THR H 99 -63.2 -31.3 N 43.94 CA 43.8 C 42.94 O 43.12 CB 44.36 OG1 45.89 CG2 44.08
A ALA H 52 -60.1 -43.6 N 42.28 CA 41.92 C 41.27 O 41.32 CB 41.63
A PHE H 0 -67.0 -44.4 N 40.67 CA 39.71 C 40.2 O 40.58 CB 37.94 CG 36.57 CD1 35.73 CD2 35.96 CE1 35.92 CE2 35.64 CZ 35.36
A LEU H 62 -58.0 -37.1 N 40.77 CA 42.02 C 42.9 O 42.84 CB 41.42 CG 42.48 CD1 41.71 CD2 41.79
A GLU H 149 -71.0 -24.8 N 43.98 CA 44.79 C 44.53 O 44.64 CB 46.24 CG 49.24 CD 50.82 OE1 51.92 OE2 52.0
A GLN H 52 -106.8 1.0 N 44.03 CA 43.52 C 43.31 O 42.65 CB 43.81 CG 43.87 CD 44.72 OE1 44.43 NE2 46.0
A ALA E 22 -70.8 119.4 N 43.14 CA 43.19 C 42.96 O 43.86 CB 43.22
A LEU E 57 -104.4 114.4 N 42.79 CA 42.4 C 42.88 O 42.59 CB 41.61 CG 42.12 CD1 42.05 CD2 41.05
A ALA E 60 -64.1 135.4 N 42.72 CA 43.46 C 43.5 O 43.58 CB 43.22
A ILE E 4 -117.7 136.7 N 43.46 CA 43.26 C 43.7 O 42.12 CB 43.82 CG1 44.33 CG2 42.44 CD1 45.6
A GLU E 172 -143.1 100.0 N 45.1 CA 47.27 C 47.25 O 47.49 CB 49.14 CG 52.94 CD 54.97 OE1 55.53 OE2 56.22
A TRP E 85 -139.5 130.6 N 47.06 CA 46.96 C 48.03 O 47.34 CB 46.24 CG 45.9 CD1 45.7 CD2 45.54 NE1 46.75 CE2 46.21 CE3 45.72 CZ2 45.9 CZ3 45.07 CH2 45.49
A GLN E 132 -143.4 157.2 N 49.12 CA 51.35 C 52.3 O 52.42 CB 51.95 CG 54.53 CD 56.27 OE1 57.87 NE2 56.7
A HIS E 140 -166.0 95.3 N 54.08 CA 55.49 C 56.01 O 56.25 CB 57.39 CG 59.48 ND1 60.62 CD2 60.11 CE1 60.68 NE2 61.07
A GLY T 59 68.7 -129.3 N 55.96 CA 55.91 C 56.29 O 56.03
A ASP T 110 -68.5 -33.3 N 56.28 CA 55.84 C 53.43 O 54.15 CB 58.7 CG 61.29 OD1 62.94 OD2 62.75
A LEU E 17 -67.6 135.9 N 50.11 CA 47.47 C 46.5 O 45.94 CB 46.0 CG 45.68 CD1 44.35 CD2 44.57
A THR E 12 -152.5 134.3 N 44.88 CA 43.34 C 41.97 O 41.05 CB 43.75 OG1 46.14 CG2 44.28
A LEU E 3 -121.4 122.4 N 39.95 CA 39.45 C 39.43 O 38.81 CB 39.44 CG 39.74 CD1 39.54 CD2 39.19
A ARG E 145 -132.0 163.7 N 39.09 CA 39.12 C 38.27 O 37.59 CB 41.34 CG 45.1 CD 48.76 NE 52.98 CZ 54.67 NH1 55.98 NH2 55.53
A GLY E 8 127.6 -152.1 N 36.9 CA 36.27 C 35.99 O 35.36
A TRP E 22 -141.2 143.4 N 35.65 CA 35.78 C 35.84 O 36.35 CB 35.26 CG 35.77 CD1 36.26 CD2 36.44 NE1 37.03 CE2 36.91 CE3 35.5 CZ2 37.06 CZ3 36.0 CH2 36.76
A VAL E 2 -130.7 129.8 N 36.04 CA 36.09 C 36.29 O 36.83 CB 36.6 CG1 36.68 CG2 37.63
A ALA E 0 -74.2 142.8 N 35.94 CA 35.01 C 35.38 O 34.84 CB 35.57
A ASP - 44 -58.5 121.4 N 35.52 CA 35.78 C 35.02 O 34.71 CB 37.01 CG 37.86 OD1 38.15 OD2 39.97
A PRO G 4 -57.3 -35.2 N 35.29 CA 35.36 C 35.92 O 35.37 CB 35.5 CG 35.83 CD 35.26
A ASN G 108 -66.7 -19.8 N 35.81 CA 35.88 C 35.56 O 34.77 CB 37.77 CG 39.6 OD1 39.97 ND2 40.55
A HIS G 96 -120.8 27.4 N 35.14 CA 35.97 C 35.57 O 35.63 CB 36.59 CG 37.32 ND1 37.97 CD2 37.73 CE1 38.48 NE2 37.99
A THR - 18 -97.2 133.6 N 35.5 CA 35.35 C 35.38 O 35.14 CB 34.89 OG1 33.75 CG2 35.33
A THR - 67 -110.6 165.2 N 35.68 CA 35.93 C 35.83 O 35.36 CB 36.79 OG1 37.53 CG2 36.52
A PRO T 118 -57.0 -38.2 N 35.94 CA 35.81 C 35.68 O 37.13 CB 35.73 CG 36.3 CD 36.28
A ALA T 60 -63.3 -43.8 N 35.69 CA 36.04 C 35.61 O 36.13 CB 35.38
A LEU G 15 -68.0 -35.1 N 34.91 CA 33.89 C 33.63 O 33.43 CB 33.56 CG 34.02 CD1 33.55 CD2 33.38
A ALA G 13 -61.3 -10.1 N 32.91 CA 33.62 C 34.15 O 33.76 CB 33.44
A GLU G 147 -72.1 -13.3 N 35.29 CA 37.12 C 36.73 O 36.3 CB 39.24 CG 43.24 CD 45.76 OE1 47.82 OE2 47.74
A ILE - 14 -99.4 92.1 N 36.31 CA 35.75 C 35.97 O 36.32 CB 35.88 CG1 34.82 CG2 34.91 CD1 36.35
A GLN E 32 -132.0 65.4 N 35.49 CA 36.01 C 35.8 O 36.56 CB 37.17 CG 37.23 CD 38.08 OE1 37.85 NE2 38.63
A TYR E 13 -91.8 118.8 N 34.82 CA 33.8 C 33.86 O 32.62 CB 33.29 CG 35.31 CD1 35.42 CD2 36.43 CE1 37.31 CE2 37.51 CZ 37.54 OH 38.09
A CYS E 4 -122.7 144.3 N 32.96 CA 33.23 C 31.77 O 31.93 CB 34.47 SG 43.75
A TYR E 1 -134.1 143.3 N 30.27 CA 28.61 C 27.75 O 27.78 CB 27.34 CG 26.5 CD1 25.08 CD2 25.58 CE1 24.63 CE2 25.86 CZ 25.22 OH 25.69
A VAL E 6 -124.3 112.0 N 26.31 CA 26.03 C 26.12 O 25.4 CB 25.88 CG1 22.93 CG2 23.66
A ASN T 52 52.6 42.1 N 25.92 CA 25.74 C 25.49 O 25.7 CB 25.68 CG 27.4 OD1 28.5 ND2 25.0
A GLY T 27 84.4 -10.6 N 23.79 CA 24.66 C 24.72 O 25.53
A ARG E 16 -92.9 128.5 N 24.35 CA 24.67 C 24.63 O 22.52 CB 24.98 CG 24.89 CD 23.86 NE 23.62 CZ 23.11 NH1 19.78 NH2 22.95
A MET E 18 -61.1 140.0 N 25.66 CA 27.91 C 29.1 O 27.7 CB 29.53 CG 31.04 SD 34.98 CE 34.22
A MET - 3 -157.2 140.7 N 30.34 CA 32.53 C 34.05 O 33.91 CB 31.69 CG 31.63 SD 31.55 CE 31.96
A ARG - 129 -113.5 102.5 N 36.4 CA 39.43 C 40.5 O 41.91 CB 40.99 CG 44.42 CD 47.36 NE 49.97 CZ 50.48 NH1 51.72 NH2 49.57
A ASP - 23 -116.6 130.5 N 40.66 CA 41.4 C 41.09 O 40.05 CB 43.61 CG 45.08 OD1 47.86 OD2 46.46
A ARG H 198 -66.6 -34.3 N 40.95 CA 41.54 C 40.78 O 40.41 CB 43.04 CG 46.71 CD 48.79 NE 51.0 CZ 52.0 NH1 52.17 NH2 51.27
A LEU H 35 -61.3 -54.0 N 40.25 CA 39.62 C 39.27 O 38.67 CB 40.06 CG 40.44 CD1 41.67 CD2 41.09
A ILE H 4 -58.6 -52.1 N 38.5 CA 37.92 C 37.95 O 36.95 CB 38.03 CG1 37.12 CG2 37.74 CD1 36.49
A ASN H 21 -57.7 -37.5 N 37.36 CA 37.62 C 37.37 O 36.4 CB 38.98 CG 40.62 OD1 42.05 ND2 41.23
A HIS H 100 -62.0 -48.1 N 37.39 CA 37.8 C 37.7 O 38.26 CB 38.79 CG 39.38 ND1 40.59 CD2 38.94 CE1 40.0 NE2 39.66
A ALA H 0 -57.6 -49.2 N 36.96 CA 36.59 C 36.8 O 36.48 CB 35.86
A ILE H 0 -56.5 -54.5 N 36.52 CA 36.71 C 38.28 O 37.82 CB 35.92 CG1 34.69 CG2 34.84 CD1 34.37
A ARG H 62 -59.6 -38.5 N 40.21 CA 43.18 C 43.91 O 44.55 CB 44.64 CG 48.2 CD 51.15 NE 53.99 CZ 55.02 NH1 56.45 NH2 55.84
A GLN H 58 -63.8 -43.4 N 44.8 CA 45.6 C 45.63 O 44.95 CB 46.92 CG 49.74 CD 51.34 OE1 52.8 NE2 51.79
A ALA H 0 -59.5 -43.1 N 45.71 CA 46.38 C 46.97 O 47.32 CB 45.95
A CYS H 4 -68.2 -40.5 N 47.23 CA 48.47 C 50.16 O 50.27 CB 46.95 SG 43.46
A GLU H 82 -63.7 -50.7 N 52.27 CA 54.65 C 55.74 O 56.3 CB 55.86 CG 57.39 CD 58.28 OE1 58.58 OE2 59.38
A ASP H 87 -62.5 -18.7 N 56.81 CA 58.06 C 58.8 O 58.66 CB 58.4 CG 58.55 OD1 58.74 OD2 59.31
A LYS H 98 -96.2 -60.8 N 59.8 CA 60.87 C 61.05 O 60.68 CB 61.63 CG 62.93 CD 63.73 CE 64.2 NZ 64.87
A LEU S 40 -64.1 -177.2 N 61.75 CA 62.22 C 62.93 O 62.87 CB 62.27 CG 62.32 CD1 62.24 CD2 62.24
A GLY S 77 -84.1 -42.7 N 63.43 CA 64.35 C 64.83 O 64.98
A ALA S 63 -120.5 179.6 N 64.74 CA 64.58 C 64.32 O 64.17 CB 64.68
A ASP - 88 -99.7 138.1 N 63.9 CA 63.14 C 61.61 O 61.3 CB 64.93 CG 66.41 OD1 67.46 OD2 67.37
A GLN - 65 -155.7 -173.8 N 59.41 CA 57.13 C 54.98 O 54.71 CB 57.74 CG 58.67 CD 59.04 OE1 59.64 NE2 59.35
A GLN - 80 -90.1 112.8 N 52.02 CA 49.18 C 46.47 O 46.74 CB 49.78 CG 51.13 CD 52.24 OE1 52.14 NE2 52.35
A PRO - 1 -72.0 166.8 N 43.5 CA 41.29 C 39.53 O 39.25 CB 41.46 CG 42.25 CD 43.06
A ALA - 0 -120.1 130.4 N 37.41 CA 35.06 C 33.82 O 33.34 CB 34.29
A PHE E 0 -168.5 159.8 N 32.72 CA 32.21 C 31.71 O 31.05 CB 31.48 CG 32.28 CD1 31.86 CD2 32.54 CE1 31.38 CE2 32.54 CZ 31.2
A VAL E 0 -139.5 96.7 N 31.07 CA 29.69 C 30.28 O 29.38 CB 29.83 CG1 28.13 CG2 28.38
A LEU E 2 -118.4 150.9 N 30.71 CA 31.41 C 31.48 O 31.48 CB 32.42 CG 33.61 CD1 34.14 CD2 34.39
A TYR E 26 -127.2 117.5 N 31.11 CA 30.44 C 31.25 O 31.07 CB 29.97 CG 29.04 CD1 28.19 CD2 28.47 CE1 28.34 CE2 28.71 CZ 28.76 OH 27.8
A LEU E 3 -103.9 125.8 N 30.78 CA 31.13 C 32.35 O 32.88 CB 30.4 CG 31.41 CD1 30.55 CD2 31.02
A GLU E 79 -113.0 131.1 N 32.98 CA 34.78 C 34.53 O 35.52 CB 36.21 CG 39.74 CD 42.01 OE1 42.93 OE2 45.02
A ILE - 13 -149.1 154.8 N 33.59 CA 33.04 C 33.98 O 34.03 CB 32.14 CG1 30.96 CG2 30.97 CD1 29.77
A ASP - 45 -55.9 121.2 N 34.67 CA 35.31 C 34.66 O 33.31 CB 37.47 CG 40.03 OD1 40.86 OD2 42.63
A PRO G 31 -49.9 -30.4 N 34.68 CA 35.42 C 35.74 O 34.59 CB 35.53 CG 37.22 CD 35.29
A HIS G 114 -68.5 -16.4 N 36.34 CA 37.24 C 36.34 O 37.69 CB 39.81 CG 41.25 ND1 43.57 CD2 42.88 CE1 44.06 NE2 43.44
A GLN G 53 -94.1 2.0 N 34.7 CA 32.9 C 31.9 O 31.08 CB 33.48 CG 35.15 CD 35.99 OE1 35.63 NE2 37.56
A VAL E 11 -140.4 134.6 N 30.25 CA 28.94 C 28.03 O 26.77 CB 28.35 CG1 28.26 CG2 29.3
A ASP E 71 -94.8 116.1 N 27.62 CA 27.13 C 26.33 O 26.64 CB 27.42 CG 28.07 OD1 25.74 OD2 28.71
A VAL - 15 -104.5 -2.9 N 26.49 CA 26.18 C 24.37 O 23.54 CB 26.85 CG1 29.52 CG2 29.86
A ASN T 87 -95.3 66.6 N 23.41 CA 23.34 C 23.18 O 24.0 CB 21.75 CG 22.67 OD1 22.82 ND2 22.93
A VAL T 32 -126.3 -31.8 N 23.32 CA 23.56 C 24.08 O 25.06 CB 23.78 CG1 24.94 CG2 22.52
A HIS S 48 -132.1 137.3 N 23.8 CA 23.07 C 21.99 O 21.77 CB 24.03 CG 25.27 ND1 26.14 CD2 25.27 CE1 26.99 NE2 27.87
A PRO T 34 -54.1 -31.3 N 21.62 CA 20.68 C 19.69 O 19.49 CB 21.05 CG 22.12 CD 21.32
A ALA T 1 -100.5 7.5 N 18.8 CA 19.24 C 20.4 O 20.55 CB 18.9
A LYS - 12 60.2 32.1 N 20.48 CA 21.68 C 22.37 O 23.72 CB 21.55 CG 20.14 CD 19.79 CE 19.92 NZ 19.24
A HIS - 87 -75.9 -5.1 N 23.58 CA 24.75 C 25.58 O 25.58 CB 24.29 CG 24.6 ND1 26.88 CD2 25.22 CE1 25.44 NE2 26.61
A GLU - 80 -144.6 158.7 N 25.7 CA 26.33 C 26.36 O 26.3 CB 28.78 CG 34.49 CD 37.98 OE1 40.64 OE2 38.83
A VAL - 12 -142.4 168.2 N 25.65 CA 26.61 C 27.41 O 25.62 CB 26.51 CG1 26.74 CG2 26.22
A ARG E 150 -140.9 123.1 N 29.92 CA 32.64 C 32.33 O 32.06 CB 35.28 CG 40.73 CD 43.93 NE 46.46 CZ 47.17 NH1 47.33 NH2 48.18
A PHE E 19 -89.4 137.9 N 32.06 CA 32.29 C 33.22 O 32.16 CB 30.87 CG 29.84 CD1 29.93 CD2 30.22 CE1 29.63 CE2 30.75 CZ 29.44
A HIS T 155 -67.0 -50.0 N 35.31 CA 38.76 C 39.0 O 39.7 CB 41.08 CG 45.48 ND1 47.11 CD2 47.22 CE1 47.63 NE2 47.98
A GLN T 92 -98.9 71.5 N 38.87 CA 39.36 C 39.5 O 39.37 CB 39.42 CG 40.18 CD 41.02 OE1 40.96 NE2 41.35
A SER H 54 -52.5 -58.8 N 39.68 CA 40.27 C 40.55 O 40.21 CB 40.26 OG 43.45
A ARG H 231 -53.4 -40.9 N 40.93 CA 41.17 C 40.52 O 40.73 CB 42.31 CG 44.47 CD 47.15 NE 49.82 CZ 50.38 NH1 49.23 NH2 50.82
A LEU H 88 -62.4 -57.9 N 40.13 CA 39.53 C 39.59 O 39.82 CB 40.54 CG 41.81 CD1 42.88 CD2 42.77
A VAL H 4 -53.7 -42.6 N 38.46 CA 36.89 C 36.5 O 36.82 CB 35.81 CG1 35.26 CG2 33.83
A HIS H 27 -60.4 -40.0 N 36.7 CA 36.74 C 36.52 O 35.87 CB 37.61 CG 38.15 ND1 39.09 CD2 38.97 CE1 39.57 NE2 39.06
A ASP H 82 -72.3 -32.2 N 36.49 CA 36.66 C 35.9 O 36.73 CB 37.34 CG 38.83 OD1 39.04 OD2 39.64
A PHE H 12 -60.7 -50.7 N 35.22 CA 34.93 C 34.96 O 34.23 CB 34.97 CG 35.93 CD1 36.12 CD2 36.26 CE1 36.23 CE2 36.89 CZ 36.69
A ILE H 1 -65.8 -42.2 N 34.12 CA 34.65 C 35.48 O 34.27 CB 34.55 CG1 34.11 CG2 33.97 CD1 34.09
A TYR H 27 -56.1 -57.4 N 36.29 CA 37.62 C 38.13 O 38.74 CB 38.47 CG 39.35 CD1 40.41 CD2 40.76 CE1 41.48 CE2 41.98 CZ 42.06 OH 43.5
A GLN H 69 -58.2 -46.3 N 38.99 CA 40.2 C 40.33 O 40.46 CB 41.28 CG 42.26 CD 43.75 OE1 44.28 NE2 44.66
A GLY H 0 -53.4 -50.7 N 40.08 CA 39.63 C 40.31 O 39.77
A VAL H 0 -69.1 -48.7 N 39.79 CA 40.33 C 41.66 O 41.32 CB 39.36 CG1 37.38 CG2 37.75
A LEU H 28 -54.6 -36.3 N 43.23 CA 44.8 C 46.01 O 46.72 CB 44.33 CG 44.51 CD1 44.85 CD2 43.94
A SER H 51 -59.0 -46.3 N 47.22 CA 48.91 C 49.85 O 49.78 CB 49.29 OG 49.94
A VAL H 39 -72.7 -31.8 N 51.46 CA 53.17 C 54.05 O 53.93 CB 53.64 CG1 53.82 CG2 54.01
A LEU T 18 -66.6 -0.8 N 55.35 CA 56.91 C 58.47 O 58.59 CB 56.75 CG 56.61 CD1 56.0 CD2 56.38
A GLN - 186 -146.7 360.0 N 60.14 CA 61.56 C 62.02 O 62.55 CB 62.39 CG 64.35 CD 65.29 OE1 65.54 NE2 66.25 OXT 62.36
