A CYS - 4 360.0 143.5 N 46.76 CA 46.97 C 45.61 O 43.3 CB 50.97 SG 59.86
A ILE E 1 -130.8 163.3 N 41.96 CA 39.06 C 36.51 O 34.1 CB 40.74 CG1 37.98 CG2 40.98 CD1 36.39
A ASP E 10 -55.3 141.2 N 35.38 CA 33.41 C 34.89 O 34.83 CB 37.93 CG 37.16 OD1 41.9 OD2 43.3
A GLY T 1 -61.2 -16.9 N 31.32 CA 34.18 C 31.12 O 32.94
A LYS T 101 -83.6 -7.2 N 33.13 CA 33.98 C 31.7 O 31.81 CB 34.95 CG 45.98 CD 52.0 CE 58.38 NZ 63.05
A ALA - 7 -65.1 139.8 N 30.68 CA 27.13 C 25.54 O 20.27 CB 21.96
A LYS E 21 -86.5 150.1 N 23.71 CA 25.46 C 27.25 O 20.49 CB 32.57 CG 37.88 CD 44.02 CE 49.71 NZ 55.56
A ILE E 0 -147.8 144.4 N 23.38 CA 25.73 C 25.51 O 30.44 CB 22.17 CG1 24.14 CG2 23.96 CD1 25.39
A ILE E 11 -110.8 131.6 N 20.77 CA 24.33 C 23.51 O 20.09 CB 28.75 CG1 28.2 CG2 31.07 CD1 35.65
A PHE E 4 -147.0 163.0 N 25.24 CA 24.76 C 30.75 O 30.97 CB 23.9 CG 22.05 CD1 26.35 CD2 22.12 CE1 23.68 CE2 19.72 CZ 20.93
A GLU E 32 -131.2 161.9 N 30.64 CA 38.37 C 40.91 O 37.06 CB 37.85 CG 45.57 CD 51.25 OE1 53.66 OE2 53.72
A ASN S 27 -116.2 -101.6 N 47.65 CA 54.97 C 60.74 O 61.66 CB 56.17 CG 59.19 OD1 62.24 ND2 61.23
A GLU S 169 -92.2 58.8 N 65.43 CA 68.73 C 67.27 O 70.82 CB 72.39 CG 79.54 CD 84.29 OE1 86.6 OE2 85.2
A GLY S 47 79.5 -6.6 N 64.26 CA 59.77 C 55.77 O 56.18
A GLU - 70 -86.8 114.0 N 51.05 CA 45.22 C 40.76 O 39.37 CB 43.13 CG 53.8 CD 54.56 OE1 53.17 OE2 60.54
A GLU E 11 -88.5 154.1 N 33.37 CA 31.91 C 28.09 O 31.11 CB 31.55 CG 38.01 CD 38.78 OE1 34.31 OE2 46.12
A HIS E 26 -139.2 156.4 N 27.55 CA 27.92 C 27.41 O 26.85 CB 28.41 CG 31.91 ND1 30.04 CD2 28.09 CE1 30.04 NE2 32.09
A LEU E 16 -139.2 109.9 N 25.6 CA 30.09 C 31.03 O 30.54 CB 32.62 CG 36.28 CD1 37.59 CD2 36.79
A THR E 29 -147.9 178.0 N 30.7 CA 29.45 C 27.9 O 26.26 CB 32.5 OG1 32.06 CG2 36.38
A THR E 16 -86.3 170.7 N 28.1 CA 27.67 C 28.39 O 30.3 CB 30.53 OG1 29.55 CG2 25.41
A MET H 2 -64.6 -38.2 N 29.75 CA 29.83 C 29.56 O 27.28 CB 28.35 CG 25.9 SD 31.5 CE 20.87
A GLU H 81 -57.9 -56.8 N 29.43 CA 34.36 C 33.39 O 34.76 CB 38.6 CG 47.25 CD 54.82 OE1 56.27 OE2 59.79
A GLU H 107 -56.0 -32.1 N 31.9 CA 34.84 C 32.38 O 31.37 CB 38.74 CG 45.89 CD 51.62 OE1 54.06 OE2 55.61
A MET H 1 -68.3 -38.0 N 30.68 CA 29.51 C 29.93 O 30.16 CB 28.8 CG 28.47 SD 33.2 CE 33.48
A TYR H 0 -68.0 -51.4 N 30.7 CA 32.24 C 32.07 O 25.7 CB 34.35 CG 36.67 CD1 38.5 CD2 37.1 CE1 40.52 CE2 39.04 CZ 43.25 OH 44.64
A GLU H 99 -55.8 -31.6 N 35.25 CA 37.75 C 40.1 O 41.34 CB 41.41 CG 48.33 CD 56.43 OE1 57.03 OE2 59.93
A ARG H 109 -70.4 -26.4 N 40.07 CA 41.27 C 40.57 O 37.47 CB 49.27 CG 54.56 CD 63.22 NE 68.67 CZ 70.47 NH1 69.89 NH2 69.2
A TYR H 13 -116.9 10.2 N 37.72 CA 37.94 C 37.59 O 36.03 CB 39.31 CG 43.71 CD1 43.76 CD2 44.79 CE1 43.58 CE2 46.24 CZ 44.12 OH 47.56
A LYS G 62 -57.3 -37.0 N 36.08 CA 40.85 C 42.42 O 40.34 CB 42.06 CG 50.31 CD 52.24 CE 57.36 NZ 54.98
A HIS G 146 -54.9 -28.0 N 41.3 CA 42.85 C 40.82 O 40.92 CB 44.15 CG 47.52 ND1 47.25 CD2 45.47 CE1 47.32 NE2 48.53
A LEU G 78 -66.7 -3.9 N 41.07 CA 42.02 C 43.65 O 41.47 CB 43.77 CG 43.93 CD1 40.9 CD2 43.55
A GLY - 43 90.7 125.4 N 43.53 CA 46.01 C 47.34 O 48.69
A GLU E 64 -108.8 137.6 N 46.71 CA 49.21 C 49.36 O 50.95 CB 50.24 CG 51.65 CD 55.24 OE1 53.62 OE2 57.25
A PHE E 88 -107.9 151.5 N 46.89 CA 44.74 C 45.42 O 44.51 CB 41.95 CG 40.22 CD1 36.22 CD2 36.8 CE1 32.74 CE2 37.39 CZ 37.33
A TYR E 85 -102.5 124.5 N 44.14 CA 42.21 C 39.06 O 40.57 CB 40.07 CG 45.33 CD1 46.49 CD2 43.75 CE1 45.32 CE2 45.25 CZ 47.47 OH 46.66
A ASP E 33 -92.1 89.3 N 38.16 CA 37.78 C 41.65 O 36.8 CB 39.56 CG 43.25 OD1 41.94 OD2 42.63
A GLU T 161 -50.7 -40.0 N 43.56 CA 47.34 C 44.53 O 46.47 CB 51.33 CG 60.37 CD 66.66 OE1 68.95 OE2 71.53
A GLU T 171 -61.8 -44.8 N 43.72 CA 41.79 C 42.26 O 41.83 CB 39.15 CG 44.9 CD 48.59 OE1 48.51 OE2 51.31
A TYR T 145 -103.1 13.0 N 41.72 CA 37.78 C 34.37 O 35.12 CB 38.34 CG 36.96 CD1 35.88 CD2 37.1 CE1 34.71 CE2 39.54 CZ 37.15 OH 37.35
A ASN T 88 42.9 49.8 N 33.21 CA 36.56 C 36.61 O 37.39 CB 42.5 CG 47.51 OD1 53.48 ND2 54.32
A ARG E 47 -136.0 152.7 N 30.34 CA 33.49 C 35.07 O 31.82 CB 34.92 CG 36.7 CD 37.2 NE 42.58 CZ 44.62 NH1 46.78 NH2 45.06
A TRP E 100 -101.4 139.2 N 32.78 CA 36.39 C 34.93 O 39.43 CB 37.79 CG 42.19 CD1 44.93 CD2 43.98 NE1 45.46 CE2 44.32 CE3 44.93 CZ2 47.92 CZ3 50.6 CH2 48.13
A GLY E 0 -130.0 173.5 N 32.13 CA 32.35 C 39.01 O 38.58
A ILE E 0 -149.6 120.2 N 38.52 CA 39.51 C 39.4 O 35.97 CB 39.51 CG1 38.79 CG2 42.16 CD1 41.56
A ASP E 74 -84.0 116.2 N 40.69 CA 41.97 C 43.06 O 45.26 CB 44.79 CG 49.79 OD1 50.76 OD2 58.8
A VAL - 0 -120.8 17.9 N 39.87 CA 39.97 C 42.65 O 41.96 CB 39.1 CG1 33.03 CG2 33.55
A SER T 34 -56.3 -33.5 N 44.06 CA 48.83 C 51.34 O 52.63 CB 50.24 OG 56.97
A ASN T 144 -85.5 -18.8 N 55.78 CA 58.63 C 57.8 O 59.17 CB 61.93 CG 66.84 OD1 65.51 ND2 68.83
A VAL S 37 -90.6 115.8 N 55.57 CA 54.36 C 54.19 O 56.12 CB 53.73 CG1 50.97 CG2 56.01
A PRO - 56 -63.6 100.5 N 51.8 CA 48.45 C 45.46 O 50.35 CB 48.0 CG 50.36 CD 50.92
A ILE - 0 -122.9 126.1 N 39.11 CA 35.08 C 31.66 O 29.92 CB 36.62 CG1 37.71 CG2 34.22 CD1 37.62
A TYR E 76 -125.2 143.3 N 30.41 CA 30.69 C 30.97 O 29.64 CB 34.0 CG 41.42 CD1 43.67 CD2 43.57 CE1 45.56 CE2 45.35 CZ 47.05 OH 45.24
A VAL E 5 -125.3 173.0 N 25.71 CA 22.6 C 22.48 O 24.09 CB 24.04 CG1 14.11 CG2 20.17
A LYS E 33 -88.6 123.4 N 22.17 CA 23.51 C 21.41 O 20.07 CB 24.53 CG 30.32 CD 36.63 CE 41.72 NZ 42.43
A SER E 0 -122.2 152.4 N 22.74 CA 22.53 C 23.23 O 25.54 CB 18.28 OG 17.82
A PHE E 0 -102.3 131.6 N 24.04 CA 20.89 C 25.07 O 24.85 CB 23.47 CG 22.44 CD1 24.5 CD2 23.35 CE1 28.92 CE2 21.07 CZ 21.23
A ASP E 24 -103.2 100.7 N 25.66 CA 29.03 C 28.16 O 27.67 CB 32.22 CG 34.66 OD1 35.41 OD2 36.07
A PRO T 41 -54.3 -30.8 N 31.06 CA 36.64 C 40.27 O 42.92 CB 36.75 CG 39.19 CD 32.18
A GLU T 169 -65.3 -69.1 N 43.89 CA 48.21 C 46.41 O 46.72 CB 53.66 CG 60.94 CD 66.98 OE1 69.94 OE2 67.71
A SER T 30 -79.4 -10.7 N 43.64 CA 41.15 C 42.69 O 41.76 CB 42.44 OG 41.55
A LYS T 78 63.3 42.9 N 40.84 CA 42.95 C 43.39 O 45.8 CB 47.73 CG 50.3 CD 54.32 CE 54.84 NZ 56.51
A ARG E 121 -138.9 169.7 N 41.81 CA 39.93 C 38.82 O 35.11 CB 44.73 CG 48.86 CD 53.54 NE 59.12 CZ 62.32 NH1 63.18 NH2 61.6
A VAL E 19 -90.0 127.4 N 33.85 CA 31.24 C 30.04 O 30.57 CB 30.7 CG1 19.11 CG2 29.67
A VAL E 18 -126.3 168.9 N 29.84 CA 28.85 C 29.59 O 26.19 CB 28.66 CG1 25.87 CG2 29.74
A LYS E 110 -89.6 122.0 N 30.73 CA 32.52 C 31.5 O 31.14 CB 35.69 CG 45.72 CD 52.83 CE 55.67 NZ 62.93
A GLY E 0 -108.0 134.0 N 31.65 CA 29.72 C 30.29 O 30.18
A LYS E 42 -79.8 125.2 N 28.3 CA 27.22 C 25.7 O 29.58 CB 32.87 CG 39.48 CD 43.97 CE 48.21 NZ 48.46
A VAL E 0 -92.4 134.3 N 22.35 CA 25.3 C 29.02 O 31.98 CB 23.88 CG1 22.99 CG2 25.3
A ASN E 31 -112.9 -27.7 N 28.19 CA 28.73 C 26.71 O 32.31 CB 33.59 CG 38.36 OD1 39.64 ND2 35.77
A VAL E 23 -148.5 138.5 N 26.98 CA 26.74 C 27.41 O 30.67 CB 28.58 CG1 25.48 CG2 25.36
A ILE E 2 -108.3 123.9 N 25.87 CA 24.69 C 30.29 O 28.5 CB 26.03 CG1 28.74 CG2 26.5 CD1 29.97
A TRP E 20 -105.8 152.5 N 30.07 CA 30.18 C 29.53 O 31.26 CB 31.65 CG 33.78 CD1 36.23 CD2 33.57 NE1 35.37 CE2 34.89 CE3 31.43 CZ2 33.51 CZ3 32.64 CH2 33.52
A LYS E 40 -131.4 127.5 N 29.54 CA 31.61 C 34.95 O 36.78 CB 30.37 CG 34.24 CD 38.24 CE 41.77 NZ 47.61
A TYR E 38 -121.6 160.0 N 38.5 CA 41.49 C 45.15 O 48.31 CB 40.69 CG 39.14 CD1 38.02 CD2 40.88 CE1 36.27 CE2 40.21 CZ 36.89 OH 39.91
A GLU E 98 -128.5 101.4 N 50.38 CA 54.54 C 55.78 O 58.11 CB 58.19 CG 64.47 CD 67.45 OE1 69.49 OE2 70.71
A LEU E 24 -101.8 130.7 N 58.53 CA 59.89 C 62.69 O 64.72 CB 56.45 CG 55.71 CD1 52.2 CD2 51.96
A GLY - 26 -109.5 -172.8 N 64.09 CA 63.66 C 63.74 O 62.44
A LYS T 154 -58.2 -5.3 N 63.14 CA 61.61 C 60.72 O 58.09 CB 64.91 CG 66.69 CD 70.26 CE 69.72 NZ 72.12
A ASP T 146 -77.5 -13.1 N 61.18 CA 64.17 C 62.36 O 62.33 CB 67.15 CG 70.33 OD1 72.55 OD2 74.12
A VAL S 27 -128.1 134.0 N 60.43 CA 59.19 C 55.95 O 50.23 CB 59.84 CG1 58.57 CG2 60.39
A THR - 62 -88.4 123.1 N 54.86 CA 57.45 C 56.41 O 55.64 CB 59.91 OG1 61.46 CG2 58.97
A LYS E 0 -83.7 141.3 N 54.33 CA 53.78 C 51.32 O 49.97 CB 54.46 CG 59.67 CD 61.04 CE 62.2 NZ 62.6
A TYR E 48 -108.1 118.1 N 47.24 CA 44.1 C 41.82 O 42.0 CB 45.36 CG 46.9 CD1 49.36 CD2 48.76 CE1 50.1 CE2 46.84 CZ 48.69 OH 51.4
A GLU E 59 -95.8 124.2 N 40.8 CA 36.82 C 38.04 O 31.7 CB 40.81 CG 45.3 CD 51.07 OE1 56.5 OE2 53.55
A ILE E 1 -117.9 126.3 N 35.78 CA 34.15 C 31.06 O 35.69 CB 34.23 CG1 38.61 CG2 32.21 CD1 40.54
A ILE E 32 -120.9 130.3 N 32.81 CA 30.96 C 30.05 O 30.37 CB 35.93 CG1 39.02 CG2 32.83 CD1 46.2
A THR E 3 -94.8 175.8 N 26.53 CA 23.3 C 25.42 O 22.42 CB 18.26 OG1 23.09 CG2 17.84
A ASN T 59 -59.9 -34.0 N 26.55 CA 27.68 C 31.3 O 30.96 CB 31.44 CG 40.4 OD1 25.41 ND2 45.58
A LYS T 5 -72.4 -15.2 N 26.88 CA 32.84 C 30.58 O 31.66 CB 30.07 CG 35.35 CD 30.57 CE 21.21 NZ 25.25
A GLY - 16 102.0 -6.4 N 29.33 CA 28.67 C 32.08 O 34.72
A THR - 0 -56.8 132.1 N 31.63 CA 27.92 C 28.14 O 22.27 CB 27.24 OG1 26.69 CG2 23.25
A LYS E 55 -116.1 132.9 N 23.55 CA 26.19 C 23.92 O 27.44 CB 29.46 CG 38.84 CD 46.75 CE 49.84 NZ 50.27
A ILE E 4 -137.4 108.8 N 25.69 CA 30.26 C 31.76 O 30.16 CB 31.71 CG1 33.84 CG2 35.1 CD1 32.95
A LEU E 11 -100.3 119.5 N 30.95 CA 32.74 C 30.28 O 32.9 CB 34.64 CG 37.72 CD1 34.78 CD2 40.74
A THR E 0 -141.6 -171.6 N 30.01 CA 28.68 C 30.38 O 29.24 CB 27.36 OG1 32.94 CG2 23.45
A SER - 0 -93.3 158.2 N 33.93 CA 35.87 C 34.6 O 35.37 CB 36.12 OG 42.92
A PRO T 11 -55.1 -36.5 N 36.81 CA 34.01 C 34.04 O 33.02 CB 37.2 CG 40.77 CD 37.67
A TRP T 109 -90.7 -10.9 N 30.56 CA 34.7 C 33.88 O 37.33 CB 31.4 CG 32.74 CD1 34.39 CD2 31.8 NE1 34.54 CE2 32.5 CE3 33.06 CZ2 35.41 CZ3 41.85 CH2 38.71
A HIS - 0 -59.4 118.6 N 34.34 CA 33.09 C 30.01 O 31.23 CB 38.73 CG 43.09 ND1 45.74 CD2 45.8 CE1 48.41 NE2 48.97
A PRO E 20 -89.2 148.6 N 25.68 CA 29.79 C 29.51 O 29.83 CB 27.82 CG 28.3 CD 26.35
A PHE E 2 -121.1 157.6 N 31.12 CA 28.37 C 27.52 O 29.6 CB 29.71 CG 30.01 CD1 32.46 CD2 34.35 CE1 31.44 CE2 37.63 CZ 35.98
A PHE E 5 -84.9 123.3 N 19.89 CA 23.11 C 27.11 O 23.74 CB 22.45 CG 24.93 CD1 24.2 CD2 31.26 CE1 32.21 CE2 29.33 CZ 31.97
A VAL E 4 -118.7 137.0 N 24.48 CA 23.56 C 22.82 O 23.3 CB 25.25 CG1 29.15 CG2 25.86
A LEU E 5 -98.3 121.1 N 19.41 CA 21.46 C 21.28 O 22.75 CB 21.9 CG 22.95 CD1 23.22 CD2 23.45
A THR - 31 -86.8 162.5 N 24.12 CA 23.46 C 22.55 O 22.99 CB 22.82 OG1 20.31 CG2 24.06
A PRO T 54 -50.3 -33.4 N 23.34 CA 23.85 C 24.83 O 27.65 CB 23.43 CG 24.45 CD 21.48
A ASP T 88 -84.6 16.3 N 25.75 CA 29.66 C 28.19 O 27.1 CB 38.83 CG 49.45 OD1 55.95 OD2 55.52
A PHE S 27 62.9 38.5 N 26.97 CA 26.56 C 30.49 O 33.06 CB 25.29 CG 26.31 CD1 24.18 CD2 22.49 CE1 26.39 CE2 26.85 CZ 26.08
A LYS - 135 -114.9 140.4 N 33.22 CA 34.35 C 32.05 O 30.68 CB 36.62 CG 40.78 CD 48.44 CE 53.94 NZ 57.41
A ILE E 39 -95.4 124.8 N 29.27 CA 27.27 C 27.57 O 29.25 CB 30.37 CG1 25.6 CG2 31.34 CD1 34.17
A VAL E 58 -136.5 159.8 N 25.46 CA 28.53 C 32.42 O 31.77 CB 27.99 CG1 25.7 CG2 25.34
A GLU E 108 -99.9 132.5 N 35.12 CA 37.11 C 35.43 O 39.13 CB 41.98 CG 45.72 CD 51.15 OE1 52.59 OE2 51.49
A LYS E 49 -135.9 135.8 N 32.69 CA 32.32 C 34.23 O 31.36 CB 36.71 CG 40.8 CD 48.7 CE 49.8 NZ 52.29
A ARG E 94 -72.6 157.9 N 34.17 CA 34.91 C 34.44 O 35.29 CB 37.57 CG 40.33 CD 42.32 NE 41.45 CZ 38.51 NH1 31.06 NH2 34.42
A ALA T 0 -53.0 -34.8 N 34.05 CA 34.93 C 36.53 O 38.54 CB 35.22
A ASP T 56 -77.9 -8.9 N 36.67 CA 39.94 C 37.96 O 42.18 CB 40.81 CG 44.68 OD1 50.47 OD2 51.08
A GLU T 96 -95.1 -17.5 N 37.09 CA 38.07 C 37.86 O 37.99 CB 41.3 CG 46.52 CD 47.57 OE1 41.42 OE2 54.84
A LEU - 11 -64.9 153.5 N 39.11 CA 38.9 C 40.92 O 43.8 CB 34.26 CG 38.48 CD1 34.18 CD2 30.43
A LYS - 118 -147.8 152.3 N 41.09 CA 41.31 C 38.96 O 34.58 CB 43.18 CG 49.52 CD 58.58 CE 61.62 NZ 67.33
A GLU T 140 -47.8 134.5 N 35.39 CA 36.11 C 34.89 O 31.71 CB 38.69 CG 48.57 CD 55.67 OE1 59.67 OE2 60.79
A GLY T 31 97.4 -7.5 N 31.23 CA 25.33 C 24.54 O 27.1
A ASP - 26 -73.2 146.2 N 20.94 CA 24.08 C 24.65 O 21.46 CB 31.45 CG 36.05 OD1 39.75 OD2 42.53
A ILE E 4 -94.0 115.4 N 24.52 CA 21.37 C 23.24 O 22.81 CB 22.14 CG1 19.51 CG2 16.79 CD1 22.97
A LEU E 0 -97.1 146.4 N 19.55 CA 19.77 C 20.55 O 19.59 CB 22.85 CG 26.03 CD1 24.84 CD2 28.25
A ILE - 2 -83.4 115.3 N 20.79 CA 21.21 C 21.57 O 17.88 CB 20.96 CG1 22.89 CG2 16.95 CD1 21.68
A GLY B 0 -115.8 -172.6 N 20.48 CA 21.14 C 16.35 O 14.44
A GLY - 0 -50.0 131.0 N 18.36 CA 20.29 C 21.14 O 21.15
A MET - 7 -138.4 158.8 N 19.57 CA 23.94 C 21.53 O 17.75 CB 27.68 CG 34.93 SD 35.0 CE 31.63
A PRO - 4 -67.0 156.7 N 22.44 CA 25.46 C 30.43 O 27.81 CB 21.98 CG 25.72 CD 21.05
A ASP - 33 -108.7 0.8 N 34.97 CA 40.83 C 41.36 O 46.7 CB 38.13 CG 41.67 OD1 36.55 OD2 45.54
A GLY - 19 63.3 -10.5 N 47.37 CA 52.78 C 58.27 O 60.38
A GLU - 116 -55.0 173.9 N 60.2 CA 61.29 C 60.19 O 61.17 CB 63.6 CG 69.48 CD 72.38 OE1 75.72 OE2 72.99
A ASP - 157 -93.6 151.0 N 59.18 CA 58.02 C 54.82 O 55.96 CB 63.02 CG 64.98 OD1 66.63 OD2 69.43
A TYR - 42 -131.0 146.1 N 51.29 CA 48.85 C 44.22 O 45.46 CB 51.53 CG 55.66 CD1 58.82 CD2 57.96 CE1 57.58 CE2 58.12 CZ 57.05 OH 59.56
A LYS - 149 -112.2 139.3 N 40.77 CA 41.55 C 37.08 O 37.24 CB 44.08 CG 50.86 CD 56.59 CE 62.42 NZ 61.92
A PHE - 63 -89.0 127.0 N 30.12 CA 24.84 C 24.33 O 20.63 CB 23.29 CG 22.55 CD1 18.78 CD2 25.03 CE1 17.06 CE2 23.44 CZ 21.17
A ILE - 60 -119.6 112.7 N 19.17 CA 22.63 C 21.99 O 23.62 CB 19.55 CG1 22.35 CG2 20.32 CD1 26.42
A PHE H 35 -57.4 -37.8 N 17.37 CA 18.52 C 12.74 O 16.01 CB 17.85 CG 16.14 CD1 20.31 CD2 20.3 CE1 21.23 CE2 25.38 CZ 26.45
A ASP H 26 -54.4 -44.3 N 13.57 CA 15.97 C 19.38 O 14.52 CB 18.6 CG 20.98 OD1 21.68 OD2 22.43
A TYR H 37 -75.3 -26.9 N 15.26 CA 17.15 C 17.09 O 15.09 CB 21.38 CG 16.9 CD1 18.41 CD2 16.88 CE1 18.85 CE2 21.84 CZ 19.18 OH 18.82
A TRP H 1 -65.3 -47.7 N 13.1 CA 9.19 C 10.64 O 14.58 CB 12.13 CG 12.89 CD1 16.11 CD2 16.54 NE1 16.29 CE2 13.49 CE3 17.57 CZ2 17.18 CZ3 16.99 CH2 18.95
A LEU H 2 -59.9 -36.7 N 11.49 CA 13.15 C 12.31 O 13.71 CB 14.42 CG 15.09 CD1 13.59 CD2 22.77
A ALA H 0 -64.3 -39.1 N 14.26 CA 15.18 C 13.29 O 15.56 CB 16.11
A GLY H 0 -70.1 -37.1 N 14.48 CA 9.94 C 17.59 O 17.78
A PHE H 1 -67.3 -41.2 N 13.92 CA 16.7 C 15.11 O 15.27 CB 14.89 CG 19.02 CD1 18.06 CD2 19.15 CE1 22.51 CE2 22.22 CZ 24.69
A ILE H 4 -63.7 -40.0 N 17.75 CA 17.98 C 19.64 O 19.14 CB 16.09 CG1 18.89 CG2 18.34 CD1 16.7
A ALA H 28 -55.4 -31.6 N 20.6 CA 22.76 C 20.78 O 19.61 CB 16.12
A GLY H 23 -94.3 -45.6 N 22.07 CA 22.57 C 25.7 O 29.61
A ASP H 29 -119.5 20.2 N 25.88 CA 25.27 C 24.71 O 24.02 CB 32.74 CG 32.1 OD1 34.27 OD2 36.0
A GLY E 25 -107.5 160.0 N 20.98 CA 23.97 C 25.5 O 25.19
A CYS E 65 -143.6 124.0 N 23.53 CA 25.27 C 26.1 O 23.2 CB 30.99 SG 49.66
A PHE E 62 -103.4 141.4 N 23.36 CA 21.27 C 22.77 O 18.75 CB 20.06 CG 24.18 CD1 14.85 CD2 19.32 CE1 19.68 CE2 19.74 CZ 17.53
A ASP E 60 -161.4 -175.9 N 19.48 CA 21.57 C 24.63 O 21.83 CB 22.64 CG 31.17 OD1 35.21 OD2 37.98
A LYS E 119 -108.4 129.7 N 23.93 CA 27.19 C 30.13 O 32.98 CB 29.4 CG 33.28 CD 37.35 CE 37.87 NZ 37.71
A TYR E 84 -107.5 122.3 N 26.41 CA 27.56 C 25.03 O 26.75 CB 25.78 CG 30.21 CD1 30.18 CD2 31.68 CE1 34.66 CE2 33.3 CZ 36.72 OH 44.52
A HIS E 83 -104.1 111.5 N 26.71 CA 29.72 C 31.82 O 35.18 CB 28.52 CG 30.98 ND1 32.93 CD2 30.83 CE1 33.74 NE2 27.72
A SER - 25 -61.1 -48.0 N 37.09 CA 40.36 C 43.34 O 45.5 CB 40.14 OG 47.56
A HIS - 143 66.8 15.0 N 42.04 CA 45.37 C 46.59 O 48.55 CB 42.79 CG 42.91 ND1 41.46 CD2 37.86 CE1 41.79 NE2 32.33
A VAL B 80 -85.3 139.0 N 45.22 CA 46.32 C 46.37 O 44.62 CB 47.02 CG1 46.52 CG2 48.68
A LYS T 169 -61.7 132.6 N 49.14 CA 50.47 C 50.76 O 52.7 CB 55.0 CG 58.05 CD 60.93 CE 62.95 NZ 64.32
A GLY T 56 78.9 -3.8 N 48.16 CA 46.09 C 45.9 O 44.83
A HIS B 114 -140.7 32.3 N 44.93 CA 44.11 C 44.86 O 44.04 CB 43.81 CG 42.76 ND1 42.38 CD2 42.39 CE1 44.59 NE2 41.63
A GLU - 117 -75.5 82.4 N 46.23 CA 49.44 C 48.98 O 53.25 CB 53.35 CG 63.19 CD 66.79 OE1 70.07 OE2 69.5
A TYR - 134 -127.1 159.3 N 46.67 CA 43.32 C 37.84 O 37.95 CB 49.48 CG 53.61 CD1 55.56 CD2 55.99 CE1 58.17 CE2 59.5 CZ 59.21 OH 63.01
A ILE E 99 -111.9 116.3 N 30.44 CA 27.1 C 27.37 O 25.98 CB 27.48 CG1 31.61 CG2 27.98 CD1 32.47
A TYR E 71 -113.1 154.2 N 27.07 CA 29.15 C 27.97 O 26.2 CB 32.67 CG 40.1 CD1 44.83 CD2 43.32 CE1 48.48 CE2 47.86 CZ 50.17 OH 56.85
A ASP E 34 -78.3 137.2 N 25.95 CA 23.62 C 19.43 O 18.62 CB 24.19 CG 20.83 OD1 21.93 OD2 25.43
A ARG E 42 -124.6 132.7 N 22.55 CA 24.7 C 21.62 O 21.97 CB 22.61 CG 27.05 CD 28.75 NE 33.66 CZ 31.7 NH1 35.9 NH2 33.74
A LEU E 1 -116.0 118.4 N 18.8 CA 20.16 C 20.31 O 21.24 CB 19.41 CG 19.93 CD1 16.52 CD2 19.48
A ARG E 57 -115.2 128.9 N 21.12 CA 23.11 C 21.22 O 21.51 CB 25.12 CG 31.98 CD 37.4 NE 42.98 CZ 41.93 NH1 36.07 NH2 43.16
A ILE E 1 -112.6 129.0 N 20.85 CA 23.59 C 26.55 O 28.86 CB 23.83 CG1 19.11 CG2 26.73 CD1 18.06
A TYR E 73 -116.7 149.4 N 24.88 CA 26.32 C 29.19 O 31.0 CB 27.9 CG 31.1 CD1 29.13 CD2 31.52 CE1 30.63 CE2 31.12 CZ 32.86 OH 38.3
A ASP E 10 -166.3 156.1 N 30.36 CA 31.43 C 34.84 O 32.66 CB 27.72 CG 30.54 OD1 31.97 OD2 29.86
A TYR S 104 -85.4 -8.6 N 34.82 CA 38.33 C 37.78 O 40.3 CB 44.7 CG 54.2 CD1 58.42 CD2 58.13 CE1 62.43 CE2 60.09 CZ 63.09 OH 61.81
A ARG - 37 -115.5 137.9 N 36.16 CA 35.38 C 34.9 O 35.77 CB 33.46 CG 43.05 CD 42.58 NE 48.61 CZ 48.31 NH1 50.05 NH2 48.95
A ILE H 57 -78.9 -24.0 N 32.92 CA 29.17 C 27.42 O 23.93 CB 35.43 CG1 35.95 CG2 35.39 CD1 40.53
A GLU H 81 -59.2 -35.5 N 24.76 CA 27.82 C 24.69 O 22.45 CB 33.75 CG 37.99 CD 43.85 OE1 39.64 OE2 51.94
A THR H 6 -57.7 -45.0 N 23.32 CA 23.34 C 24.22 O 26.66 CB 24.3 OG1 27.8 CG2 22.88
A PHE H 0 -72.6 -20.5 N 19.8 CA 24.62 C 22.99 O 24.66 CB 17.51 CG 24.25 CD1 25.73 CD2 21.84 CE1 25.85 CE2 22.45 CZ 23.17
A GLU H 115 -75.3 -28.8 N 21.05 CA 24.26 C 23.82 O 21.9 CB 30.26 CG 41.56 CD 46.62 OE1 45.72 OE2 54.03
A ILE H 54 -76.8 -43.4 N 24.44 CA 23.7 C 20.73 O 20.81 CB 26.56 CG1 29.66 CG2 32.95 CD1 31.87
A ILE H 0 -63.8 -48.2 N 16.82 CA 16.75 C 21.09 O 25.98 CB 17.01 CG1 15.29 CG2 9.01 CD1 17.53
A ASN H 21 -56.6 -41.1 N 17.38 CA 22.64 C 22.43 O 25.35 CB 19.78 CG 23.76 OD1 25.93 ND2 24.79
A ASP H 101 -61.0 -36.4 N 20.3 CA 27.11 C 28.92 O 26.2 CB 33.97 CG 42.67 OD1 47.29 OD2 48.92
A TYR H 37 -76.5 -44.9 N 27.39 CA 23.08 C 22.59 O 22.63 CB 25.83 CG 25.88 CD1 27.17 CD2 22.39 CE1 28.28 CE2 18.29 CZ 25.44 OH 23.67
A LEU H 2 -62.5 -36.5 N 21.17 CA 24.39 C 27.46 O 24.24 CB 21.48 CG 23.02 CD1 18.64 CD2 20.97
A GLU H 95 -68.3 -40.9 N 31.42 CA 37.35 C 37.63 O 40.08 CB 38.66 CG 49.58 CD 50.84 OE1 52.83 OE2 52.57
A LYS H 162 -83.2 -24.3 N 36.71 CA 36.37 C 34.77 O 33.59 CB 42.18 CG 52.81 CD 60.63 CE 66.15 NZ 69.96
A THR H 59 -93.2 -35.6 N 32.0 CA 29.73 C 30.93 O 31.55 CB 29.46 OG1 30.82 CG2 30.93
A PHE H 31 -124.0 2.7 N 31.74 CA 30.0 C 33.34 O 37.05 CB 28.9 CG 26.28 CD1 25.7 CD2 24.25 CE1 27.14 CE2 26.71 CZ 24.36
A GLY S 56 56.7 45.6 N 32.83 CA 37.65 C 38.9 O 38.52
A ARG - 104 -150.1 137.4 N 36.81 CA 35.39 C 33.82 O 32.21 CB 38.39 CG 46.89 CD 54.7 NE 57.36 CZ 62.77 NH1 66.05 NH2 62.31
A LYS - 140 -135.6 157.2 N 30.37 CA 32.71 C 31.17 O 32.33 CB 39.15 CG 49.49 CD 54.61 CE 56.37 NZ 56.58
A TYR - 37 -128.2 141.1 N 26.34 CA 27.83 C 30.75 O 31.99 CB 25.77 CG 23.58 CD1 24.6 CD2 25.81 CE1 24.19 CE2 20.8 CZ 22.21 OH 26.49
A SER - 96 -69.2 136.8 N 29.87 CA 30.58 C 29.46 O 31.42 CB 26.18 OG 34.82
A ILE - 50 -81.8 115.2 N 28.31 CA 28.37 C 32.98 O 33.67 CB 23.94 CG1 22.4 CG2 24.78 CD1 19.25
A GLN E 70 -91.8 164.8 N 31.93 CA 31.85 C 34.46 O 35.54 CB 29.13 CG 34.94 CD 37.7 OE1 38.58 NE2 41.14
A LYS E 118 -137.2 140.3 N 39.14 CA 43.97 C 47.43 O 50.85 CB 41.39 CG 44.12 CD 49.92 CE 52.66 NZ 50.58
A ASP S 74 -142.6 72.0 N 50.91 CA 54.91 C 55.17 O 57.28 CB 58.44 CG 62.85 OD1 60.63 OD2 65.92
A ARG S 190 69.5 73.9 N 57.43 CA 58.44 C 57.11 O 59.24 CB 61.27 CG 65.47 CD 70.91 NE 74.61 CZ 75.38 NH1 77.72 NH2 74.12
A ASN S 144 79.9 -9.4 N 53.29 CA 53.28 C 51.0 O 50.67 CB 57.74 CG 65.14 OD1 66.04 ND2 67.69
A ILE - 50 -121.6 136.8 N 48.64 CA 44.75 C 39.72 O 39.35 CB 47.09 CG1 49.45 CG2 47.95 CD1 54.23
A TYR E 52 -100.3 157.4 N 33.2 CA 31.74 C 28.69 O 29.46 CB 27.16 CG 35.9 CD1 38.36 CD2 37.94 CE1 39.4 CE2 38.08 CZ 42.67 OH 45.65
A TYR E 21 -171.2 157.4 N 27.14 CA 25.65 C 23.94 O 23.85 CB 26.99 CG 32.7 CD1 28.98 CD2 31.62 CE1 32.71 CE2 30.95 CZ 31.54 OH 39.89
A ILE E 0 -121.7 148.0 N 21.13 CA 17.85 C 22.18 O 21.87 CB 17.85 CG1 16.0 CG2 21.13 CD1 14.11
A ASP E 19 -113.2 115.8 N 26.97 CA 26.21 C 24.18 O 25.55 CB 30.29 CG 33.69 OD1 35.58 OD2 40.11
A ILE E 2 -114.0 128.1 N 22.45 CA 22.24 C 25.56 O 23.52 CB 23.46 CG1 24.51 CG2 21.31 CD1 19.25
A LYS - 72 -129.1 7.5 N 22.21 CA 26.26 C 25.7 O 30.57 CB 27.94 CG 30.41 CD 36.99 CE 33.73 NZ 31.92
A ALA - 13 -67.5 124.8 N 25.42 CA 23.79 C 27.09 O 23.01 CB 27.19
A ARG H 149 -57.5 -40.8 N 27.64 CA 31.09 C 30.24 O 28.99 CB 31.83 CG 44.55 CD 50.08 NE 59.19 CZ 63.43 NH1 65.9 NH2 64.35
A ASN H 73 -68.4 -32.0 N 26.61 CA 26.4 C 21.94 O 25.97 CB 23.69 CG 31.0 OD1 33.34 ND2 31.38
A ILE H 1 -78.4 -44.5 N 21.08 CA 22.86 C 22.25 O 19.08 CB 24.07 CG1 27.26 CG2 15.23 CD1 24.78
A THR H 3 -63.8 -44.9 N 18.57 CA 21.83 C 20.9 O 14.72 CB 20.52 OG1 22.27 CG2 18.09
A SER H 41 -66.9 -36.0 N 19.25 CA 22.36 C 18.37 O 22.21 CB 21.01 OG 26.7
A HIS H 56 -56.7 -51.1 N 17.82 CA 13.73 C 17.74 O 20.72 CB 14.29 CG 18.4 ND1 18.89 CD2 10.85 CE1 13.76 NE2 15.0
A TYR H 0 -78.4 -26.1 N 16.42 CA 14.49 C 18.31 O 14.4 CB 12.51 CG 21.62 CD1 15.78 CD2 18.36 CE1 19.21 CE2 15.71 CZ 22.01 OH 21.16
A LEU H 59 -65.2 -44.4 N 14.62 CA 17.24 C 23.4 O 20.98 CB 15.6 CG 21.87 CD1 22.2 CD2 14.22
A LYS H 136 -65.7 -31.8 N 19.0 CA 23.76 C 21.53 O 21.26 CB 24.57 CG 31.5 CD 39.8 CE 44.78 NZ 45.91
A LEU H 19 -73.1 -32.2 N 22.3 CA 19.46 C 19.69 O 21.22 CB 20.71 CG 19.19 CD1 13.94 CD2 20.87
A LEU H 18 -96.0 2.2 N 20.24 CA 20.86 C 21.32 O 18.84 CB 21.41 CG 20.71 CD1 19.52 CD2 23.8
A GLU T 139 -58.3 122.4 N 22.57 CA 28.82 C 27.26 O 22.11 CB 32.63 CG 46.29 CD 51.76 OE1 55.5 OE2 58.03
A GLY T 35 99.8 -1.7 N 26.14 CA 24.72 C 25.61 O 28.35
A ILE G 35 -52.3 -23.4 N 27.39 CA 27.97 C 30.92 O 24.92 CB 28.84 CG1 28.09 CG2 24.69 CD1 28.26
A ASP G 126 -67.8 -26.3 N 30.6 CA 33.75 C 34.22 O 32.86 CB 38.12 CG 48.54 OD1 50.15 OD2 54.54
A ASN G 125 -108.1 16.3 N 32.3 CA 35.0 C 36.03 O 35.6 CB 38.97 CG 50.0 OD1 52.81 ND2 52.56
A GLY S 1 132.0 -159.4 N 32.85 CA 29.22 C 24.14 O 28.63
A ILE S 6 -65.7 132.4 N 24.05 CA 20.19 C 21.2 O 25.81 CB 19.85 CG1 21.59 CG2 15.5 CD1 20.02
A PRO - 0 -55.3 133.6 N 18.73 CA 22.15 C 21.68 O 21.44 CB 20.85 CG 20.58 CD 15.3
A PRO H 74 -55.5 -38.7 N 24.44 CA 24.16 C 21.94 O 21.44 CB 22.92 CG 23.27 CD 25.82
A GLN H 90 -60.8 -30.7 N 23.51 CA 22.58 C 18.7 O 23.43 CB 25.77 CG 34.49 CD 40.45 OE1 35.51 NE2 41.95
A ILE H 0 -83.9 -56.8 N 16.68 CA 19.98 C 20.93 O 20.0 CB 19.44 CG1 18.83 CG2 21.09 CD1 23.83
A LEU H 14 -50.1 -46.3 N 22.9 CA 23.65 C 24.12 O 24.67 CB 26.6 CG 29.15 CD1 26.12 CD2 32.33
A LYS T 54 -61.0 -22.3 N 25.73 CA 27.31 C 29.51 O 30.52 CB 29.4 CG 26.43 CD 29.74 CE 28.29 NZ 34.13
A GLU T 95 -80.6 -4.5 N 27.52 CA 26.47 C 25.18 O 24.3 CB 28.55 CG 30.45 CD 34.59 OE1 35.31 OE2 35.07
A GLY - 9 89.4 -178.4 N 21.09 CA 20.57 C 23.91 O 20.67
A LYS H 43 -43.1 -54.5 N 25.95 CA 30.22 C 26.42 O 27.77 CB 34.21 CG 46.99 CD 52.89 CE 58.65 NZ 63.82
A ASN H 50 -55.0 -41.1 N 25.38 CA 23.57 C 21.3 O 19.94 CB 23.45 CG 27.78 OD1 32.65 ND2 26.96
A ALA H 1 -73.8 -45.6 N 16.06 CA 19.88 C 18.82 O 19.91 CB 14.0
A VAL H 0 -64.8 -45.0 N 17.41 CA 19.46 C 18.73 O 16.18 CB 17.17 CG1 15.39 CG2 18.64
A LEU H 7 -65.0 -41.4 N 19.73 CA 16.91 C 15.49 O 20.75 CB 22.28 CG 26.63 CD1 24.31 CD2 21.86
A SER H 2 -61.8 -39.8 N 16.49 CA 18.24 C 14.54 O 16.99 CB 16.35 OG 22.78
A PHE H 0 -63.1 -44.5 N 17.67 CA 15.59 C 18.92 O 17.19 CB 13.32 CG 15.05 CD1 18.75 CD2 16.89 CE1 19.3 CE2 19.41 CZ 20.87
A ILE H 2 -63.8 -40.7 N 17.12 CA 14.26 C 11.12 O 14.01 CB 13.21 CG1 13.89 CG2 9.11 CD1 18.0
A ALA H 1 -58.1 -41.5 N 10.9 CA 14.07 C 14.08 O 16.27 CB 16.34
A GLY H 0 -66.3 -32.8 N 12.6 CA 13.28 C 16.88 O 20.37
A LEU H 0 -69.9 -41.9 N 22.52 CA 20.95 C 20.34 O 16.68 CB 26.16 CG 30.8 CD1 33.95 CD2 29.51
A PHE H 3 -69.6 -41.9 N 19.63 CA 19.07 C 17.38 O 18.35 CB 20.6 CG 27.97 CD1 22.54 CD2 30.21 CE1 25.29 CE2 24.29 CZ 23.39
A ASP H 1 -54.6 -39.6 N 15.91 CA 17.44 C 18.05 O 20.33 CB 14.98 CG 18.23 OD1 15.49 OD2 14.85
A ALA H 8 -74.4 -50.2 N 19.2 CA 23.59 C 26.53 O 26.51 CB 15.72
A GLU H 84 -124.8 -2.0 N 28.68 CA 25.7 C 27.81 O 30.15 CB 28.38 CG 35.11 CD 41.78 OE1 46.13 OE2 48.99
A GLY - 4 -66.9 151.9 N 23.57 CA 20.92 C 22.52 O 24.27
A HIS E 92 -134.5 134.2 N 24.41 CA 29.32 C 28.35 O 24.93 CB 37.54 CG 46.39 ND1 51.28 CD2 50.22 CE1 50.21 NE2 54.51
A VAL E 5 -105.3 124.8 N 26.31 CA 26.64 C 27.9 O 26.69 CB 25.7 CG1 30.6 CG2 26.76
A SER E 20 -105.1 173.5 N 30.25 CA 33.83 C 38.28 O 40.33 CB 31.32 OG 30.01
A ASN T 137 -95.3 12.7 N 40.76 CA 44.08 C 42.75 O 46.17 CB 46.26 CG 50.38 OD1 49.83 ND2 53.8
A LYS T 126 -57.6 -41.8 N 44.19 CA 46.24 C 45.62 O 49.23 CB 50.0 CG 56.49 CD 65.52 CE 69.21 NZ 73.1
A PRO T 6 -90.5 174.4 N 43.66 CA 38.67 C 34.24 O 32.65 CB 40.76 CG 44.35 CD 44.52
A GLY E 2 167.7 176.5 N 32.02 CA 25.8 C 25.24 O 29.11
A ILE E 1 -127.2 150.0 N 22.03 CA 25.7 C 25.74 O 21.06 CB 28.59 CG1 28.51 CG2 24.25 CD1 31.8
A GLU E 65 -137.7 145.1 N 22.86 CA 24.37 C 25.8 O 21.65 CB 28.75 CG 37.45 CD 41.88 OE1 45.12 OE2 44.02
A LEU E 4 -140.3 105.3 N 23.74 CA 28.42 C 27.79 O 23.52 CB 28.22 CG 32.95 CD1 28.63 CD2 36.12
A GLY E 25 -115.0 142.6 N 27.97 CA 28.22 C 32.69 O 35.8
A MET E 30 -155.8 161.5 N 32.85 CA 33.83 C 35.72 O 31.11 CB 38.21 CG 42.15 SD 44.75 CE 42.84
A VAL S 93 -84.6 -9.4 N 36.82 CA 34.25 C 32.09 O 32.02 CB 39.92 CG1 41.61 CG2 39.43
A ASN - 32 -81.1 82.2 N 28.26 CA 26.74 C 29.03 O 26.87 CB 26.04 CG 24.28 OD1 25.65 ND2 24.04
A LYS H 79 -47.8 -50.1 N 26.18 CA 26.6 C 24.38 O 22.3 CB 32.18 CG 36.71 CD 42.78 CE 46.69 NZ 51.73
A ARG H 73 -59.2 -40.0 N 24.78 CA 24.52 C 28.34 O 26.21 CB 28.93 CG 37.35 CD 40.85 NE 48.89 CZ 44.53 NH1 45.26 NH2 48.93
A LEU H 0 -67.5 -44.6 N 25.43 CA 23.02 C 18.28 O 18.98 CB 17.67 CG 20.61 CD1 16.89 CD2 23.47
A ILE H 1 -63.2 -41.5 N 20.67 CA 19.87 C 24.49 O 27.89 CB 22.57 CG1 26.75 CG2 17.56 CD1 24.1
A GLU H 32 -60.2 -48.1 N 19.69 CA 20.15 C 15.69 O 16.5 CB 25.29 CG 36.63 CD 35.47 OE1 43.35 OE2 41.66
A ASP H 6 -60.6 -45.5 N 15.01 CA 14.13 C 18.83 O 20.39 CB 22.01 CG 25.53 OD1 25.88 OD2 26.69
A VAL H 0 -63.5 -42.3 N 20.58 CA 20.0 C 16.07 O 19.42 CB 17.03 CG1 18.3 CG2 23.07
A THR H 0 -58.8 -49.4 N 19.24 CA 16.07 C 19.8 O 20.25 CB 23.0 OG1 22.38 CG2 18.61
A HIS H 8 -66.4 -33.2 N 18.05 CA 19.92 C 15.16 O 14.41 CB 17.7 CG 27.09 ND1 29.41 CD2 27.92 CE1 30.16 NE2 35.98
A TYR H 4 -69.6 -39.0 N 15.56 CA 13.9 C 13.41 O 18.56 CB 16.68 CG 14.8 CD1 14.48 CD2 19.6 CE1 15.46 CE2 18.61 CZ 21.22 OH 22.63
A LEU H 1 -66.9 -44.1 N 14.15 CA 15.52 C 16.31 O 19.02 CB 16.48 CG 22.49 CD1 21.19 CD2 19.07
A ASN H 1 -58.4 -37.3 N 17.55 CA 16.47 C 17.56 O 16.7 CB 16.76 CG 24.8 OD1 22.12 ND2 17.16
A ALA T 3 -68.5 -15.9 N 21.27 CA 19.55 C 20.98 O 21.09 CB 19.61
A LEU T 3 -101.3 4.8 N 19.99 CA 20.76 C 22.69 O 22.04 CB 22.62 CG 29.21 CD1 34.29 CD2 33.18
A GLY T 0 99.8 1.4 N 20.01 CA 20.8 C 26.56 O 24.06
A ILE - 0 -99.5 108.8 N 22.88 CA 22.17 C 24.49 O 24.4 CB 21.46 CG1 20.7 CG2 14.43 CD1 28.8
A LYS - 4 -69.7 86.1 N 20.51 CA 24.89 C 25.1 O 34.39 CB 17.55 CG 19.1 CD 18.66 CE 22.22 NZ 14.22
A ALA - 0 -106.0 157.3 N 25.33 CA 21.27 C 22.18 O 22.39 CB 21.91
A ARG E 67 -144.4 161.6 N 24.98 CA 33.38 C 34.03 O 30.48 CB 33.83 CG 39.14 CD 38.08 NE 40.78 CZ 41.89 NH1 36.53 NH2 37.73
A ILE E 38 -106.9 141.5 N 33.9 CA 34.31 C 36.28 O 38.94 CB 35.86 CG1 34.6 CG2 37.06 CD1 36.24
A ARG E 84 -133.3 142.9 N 36.53 CA 41.73 C 43.45 O 40.57 CB 45.77 CG 56.07 CD 62.51 NE 64.81 CZ 67.01 NH1 66.36 NH2 66.25
A GLU E 128 -95.9 127.5 N 44.42 CA 45.62 C 47.49 O 47.96 CB 47.77 CG 49.48 CD 54.56 OE1 57.1 OE2 55.47
A LYS E 120 -109.5 110.6 N 49.54 CA 52.72 C 55.58 O 55.47 CB 53.52 CG 58.41 CD 64.6 CE 67.2 NZ 71.18
A LEU E 153 -59.2 118.0 N 57.18 CA 58.72 C 61.26 O 57.72 CB 58.91 CG 59.09 CD1 58.33 CD2 61.13
A ARG - 108 -112.0 -174.9 N 66.6 CA 72.9 C 74.81 O 74.96 CB 76.6 CG 79.83 CD 82.32 NE 85.85 CZ 87.47 NH1 89.03 NH2 87.33
A LYS S 193 -63.2 -76.3 N 77.22 CA 79.17 C 79.89 O 80.28 CB 80.49 CG 82.1 CD 83.42 CE 84.22 NZ 85.15
A ASP S 145 -88.4 -0.2 N 81.18 CA 81.58 C 79.53 O 80.43 CB 85.35 CG 89.15 OD1 91.12 OD2 90.19
A GLY S 31 -170.7 -156.2 N 76.12 CA 72.14 C 68.45 O 67.48
A ILE E 62 -122.7 139.8 N 65.24 CA 61.14 C 57.2 O 55.87 CB 62.0 CG1 62.53 CG2 59.03 CD1 63.7
A ASP E 34 -107.4 130.6 N 53.39 CA 50.63 C 44.94 O 40.99 CB 55.07 CG 59.12 OD1 65.59 OD2 60.32
A TYR E 41 -92.7 112.0 N 40.56 CA 37.2 C 33.38 O 30.56 CB 39.15 CG 44.16 CD1 43.86 CD2 44.78 CE1 46.19 CE2 49.31 CZ 47.79 OH 52.95
A VAL E 11 -108.3 120.6 N 28.85 CA 29.93 C 31.55 O 32.27 CB 31.03 CG1 28.74 CG2 28.45
A LEU E 4 -81.7 133.5 N 27.6 CA 26.72 C 23.91 O 20.62 CB 26.01 CG 32.82 CD1 34.34 CD2 33.13
A HIS E 24 -124.8 143.4 N 24.88 CA 27.4 C 24.93 O 31.1 CB 33.52 CG 34.27 ND1 41.12 CD2 37.29 CE1 40.41 NE2 40.45
A VAL E 0 -137.9 112.0 N 27.22 CA 27.77 C 28.4 O 29.11 CB 23.75 CG1 28.32 CG2 27.0
A GLU - 42 -125.0 -18.8 N 30.03 CA 34.3 C 33.02 O 39.19 CB 42.99 CG 53.05 CD 60.4 OE1 62.03 OE2 65.54
A GLU - 52 -65.1 123.1 N 32.29 CA 29.03 C 26.24 O 27.1 CB 32.26 CG 42.28 CD 46.94 OE1 47.04 OE2 36.49
A TYR H 28 -47.6 -51.3 N 20.37 CA 21.95 C 21.9 O 19.05 CB 22.3 CG 27.19 CD1 31.2 CD2 30.2 CE1 34.61 CE2 38.95 CZ 40.36 OH 50.11
A SER H 2 -60.9 -35.3 N 21.18 CA 18.72 C 21.0 O 18.63 CB 19.86 OG 28.16
A SER H 1 -72.1 -35.5 N 19.72 CA 21.39 C 16.92 O 17.32 CB 19.2 OG 19.36
A LEU H 0 -65.7 -43.1 N 18.73 CA 19.46 C 19.61 O 22.56 CB 23.47 CG 33.18 CD1 35.54 CD2 30.45
A LEU H 26 -61.6 -42.6 N 22.05 CA 24.11 C 22.72 O 22.14 CB 32.64 CG 41.5 CD1 42.59 CD2 41.83
A ARG H 21 -69.3 -37.8 N 23.89 CA 20.82 C 24.44 O 24.67 CB 26.79 CG 33.0 CD 35.06 NE 25.82 CZ 30.85 NH1 28.43 NH2 23.32
A PHE H 3 -61.5 -40.6 N 22.6 CA 21.58 C 21.7 O 21.79 CB 19.32 CG 24.53 CD1 21.05 CD2 24.8 CE1 25.6 CE2 24.85 CZ 24.75
A TYR H 54 -63.2 -41.9 N 20.84 CA 23.36 C 24.09 O 28.54 CB 20.59 CG 23.65 CD1 25.55 CD2 29.98 CE1 27.44 CE2 28.87 CZ 30.98 OH 38.12
A GLU H 64 -70.9 -28.4 N 27.88 CA 30.36 C 30.51 O 30.29 CB 30.81 CG 40.78 CD 44.51 OE1 48.39 OE2 46.19
A LEU H 18 -98.3 -31.5 N 29.72 CA 27.96 C 29.71 O 31.49 CB 28.82 CG 33.3 CD1 33.33 CD2 36.28
A ILE T 0 -124.2 -50.6 N 26.21 CA 23.45 C 25.16 O 25.89 CB 24.61 CG1 22.42 CG2 28.18 CD1 33.41
A GLY G 0 -47.7 -48.2 N 25.07 CA 22.76 C 23.52 O 23.72
A LYS G 97 -66.6 -16.0 N 19.53 CA 23.59 C 25.84 O 28.27 CB 20.38 CG 32.35 CD 36.6 CE 41.66 NZ 50.32
A ASN G 36 -96.5 4.9 N 20.82 CA 22.37 C 19.97 O 21.79 CB 24.01 CG 26.77 OD1 30.15 ND2 28.25
A LEU - 1 -65.6 139.4 N 19.21 CA 20.31 C 21.62 O 21.55 CB 21.02 CG 21.01 CD1 21.18 CD2 18.78
A GLN S 50 -88.4 -25.8 N 22.96 CA 26.15 C 26.32 O 28.12 CB 25.27 CG 27.44 CD 28.89 OE1 30.03 NE2 27.9
A ASN - 3 -82.1 99.2 N 26.82 CA 28.07 C 27.75 O 25.31 CB 26.02 CG 27.03 OD1 27.2 ND2 25.74
A GLU H 103 -56.9 -24.0 N 32.72 CA 36.43 C 34.12 O 33.71 CB 36.71 CG 52.84 CD 59.57 OE1 63.94 OE2 62.55
A GLU H 116 -71.7 -41.5 N 32.93 CA 33.21 C 31.9 O 28.01 CB 39.29 CG 46.94 CD 49.16 OE1 49.04 OE2 52.4
A LYS H 34 -75.0 -36.1 N 29.81 CA 27.95 C 23.57 O 23.39 CB 25.15 CG 29.61 CD 25.13 CE 24.81 NZ 24.81
A ARG H 54 -62.3 -46.5 N 27.88 CA 30.5 C 31.16 O 30.77 CB 30.41 CG 34.37 CD 36.3 NE 39.77 CZ 41.41 NH1 41.39 NH2 42.46
A GLU H 77 -65.1 -40.0 N 32.05 CA 34.29 C 33.29 O 32.83 CB 37.45 CG 42.71 CD 46.54 OE1 48.75 OE2 47.0
A LYS H 93 -63.4 -39.1 N 32.63 CA 32.86 C 31.88 O 31.2 CB 34.32 CG 36.87 CD 40.96 CE 42.24 NZ 44.83
A LEU H 0 -64.3 -39.7 N 25.75 CA 24.36 C 26.16 O 27.52 CB 23.29 CG 27.16 CD1 29.9 CD2 25.68
A GLU H 69 -65.7 -35.4 N 29.06 CA 34.45 C 33.75 O 35.91 CB 34.75 CG 40.66 CD 45.64 OE1 50.48 OE2 43.48
A LYS H 118 -71.3 -48.3 N 34.03 CA 37.16 C 36.65 O 36.99 CB 40.82 CG 50.11 CD 58.16 CE 60.66 NZ 64.73
A VAL H 15 -63.4 -24.5 N 35.37 CA 35.65 C 37.81 O 37.52 CB 34.96 CG1 36.26 CG2 36.69
A LEU H 12 -76.6 -45.6 N 36.22 CA 38.34 C 45.16 O 44.88 CB 33.45 CG 31.2 CD1 25.53 CD2 35.11
A SER H 90 -71.1 -4.7 N 49.4 CA 55.82 C 58.13 O 60.74 CB 56.21 OG 61.4
A ASN S 117 -129.9 70.6 N 61.19 CA 65.45 C 67.92 O 70.62 CB 67.47 CG 71.47 OD1 72.7 ND2 71.55
A HIS - 30 -112.5 123.0 N 70.36 CA 73.86 C 74.63 O 73.87 CB 75.7 CG 77.29 ND1 78.46 CD2 78.3 CE1 78.68 NE2 79.19
A LYS - 163 -66.1 -47.4 N 76.72 CA 79.71 C 80.42 O 81.4 CB 82.16 CG 85.43 CD 87.33 CE 88.59 NZ 88.92
A GLY - 19 135.3 126.4 N 80.88 CA 80.35 C 79.64 O 79.89
A GLY - 38 -79.0 117.5 N 78.41 CA 76.21 C 74.24 O 75.81
A ASN - 154 -75.5 -14.7 N 72.5 CA 71.34 C 67.3 O 66.82 CB 75.55 CG 78.23 OD1 80.72 ND2 81.48
A PHE - 102 -62.7 109.4 N 60.75 CA 56.72 C 50.14 O 43.34 CB 62.51 CG 67.51 CD1 68.4 CD2 69.06 CE1 70.3 CE2 72.18 CZ 72.06
A GLY E 13 -86.0 134.9 N 40.12 CA 37.3 C 36.43 O 37.81
A LEU E 3 -84.9 135.2 N 30.37 CA 25.57 C 25.38 O 21.27 CB 21.92 CG 26.28 CD1 22.92 CD2 27.94
A PRO - 31 -77.1 88.0 N 25.81 CA 23.48 C 20.97 O 28.09 CB 23.69 CG 26.74 CD 23.64
A LEU - 0 -129.1 141.0 N 23.29 CA 23.97 C 28.81 O 28.56 CB 22.9 CG 21.75 CD1 23.14 CD2 18.59
A ASN - 44 -82.3 127.7 N 26.78 CA 27.78 C 24.55 O 24.34 CB 32.31 CG 43.22 OD1 42.99 ND2 47.96
A PHE H 13 -63.6 -42.4 N 20.78 CA 19.59 C 21.62 O 19.68 CB 14.04 CG 20.11 CD1 14.24 CD2 16.36 CE1 20.06 CE2 20.49 CZ 18.25
A ASN H 109 -60.1 -36.6 N 19.92 CA 26.57 C 25.52 O 25.12 CB 28.48 CG 39.07 OD1 45.38 ND2 44.64
A ALA H 22 -64.1 -45.4 N 21.58 CA 22.91 C 26.61 O 23.72 CB 20.41
A PHE H 2 -65.0 -38.1 N 24.38 CA 23.86 C 26.61 O 23.13 CB 24.22 CG 23.82 CD1 25.2 CD2 24.36 CE1 21.2 CE2 25.7 CZ 24.99
A LYS H 80 -57.9 -48.1 N 27.33 CA 30.05 C 31.68 O 30.71 CB 32.04 CG 34.17 CD 38.78 CE 43.64 NZ 46.9
A GLU H 144 -55.7 -52.3 N 35.86 CA 39.8 C 39.82 O 40.0 CB 43.72 CG 57.8 CD 65.87 OE1 71.6 OE2 70.26
A TRP H 46 -58.3 -50.6 N 37.59 CA 36.22 C 36.19 O 39.12 CB 36.06 CG 38.01 CD1 42.01 CD2 37.52 NE1 38.97 CE2 35.59 CE3 31.9 CZ2 32.14 CZ3 33.62 CH2 29.0
A ALA H 0 -66.1 -24.0 N 31.9 CA 32.44 C 36.48 O 38.16 CB 32.28
A SER H 67 -61.7 -34.4 N 37.31 CA 39.81 C 37.56 O 34.96 CB 39.58 OG 46.29
A GLU T 135 -52.7 -20.5 N 36.37 CA 37.46 C 36.41 O 33.12 CB 41.67 CG 49.83 CD 49.32 OE1 47.29 OE2 54.97
A TYR T 46 -101.8 1.4 N 31.81 CA 29.08 C 30.92 O 34.19 CB 29.96 CG 25.01 CD1 19.11 CD2 23.17 CE1 17.94 CE2 27.91 CZ 24.1 OH 26.45
A GLY T 59 85.0 13.3 N 29.67 CA 30.28 C 34.7 O 32.98
A VAL - 13 -70.9 126.9 N 34.27 CA 35.15 C 33.39 O 33.37 CB 32.57 CG1 32.92 CG2 36.2
A GLU E 129 -100.2 145.7 N 33.95 CA 39.01 C 36.68 O 34.18 CB 43.35 CG 54.27 CD 57.8 OE1 61.91 OE2 61.79
A PHE E 38 -122.2 140.9 N 33.83 CA 32.56 C 33.01 O 31.66 CB 31.88 CG 32.75 CD1 31.1 CD2 29.24 CE1 32.89 CE2 32.35 CZ 30.46
A LYS E 101 -134.6 162.8 N 30.73 CA 30.47 C 30.9 O 26.46 CB 28.53 CG 40.86 CD 47.83 CE 53.92 NZ 56.25
A THR E 94 -127.6 155.8 N 28.12 CA 27.82 C 28.61 O 26.46 CB 25.8 OG1 31.76 CG2 29.49
A ASN E 108 -141.7 89.1 N 25.91 CA 25.88 C 27.01 O 25.66 CB 30.81 CG 37.27 OD1 38.92 ND2 42.9
A GLY T 61 65.3 -130.3 N 21.43 CA 21.45 C 19.73 O 22.46
A SER T 54 -80.7 -3.9 N 17.5 CA 18.23 C 19.54 O 20.13 CB 17.21 OG 18.05
A GLN E 71 -89.6 140.1 N 17.39 CA 24.82 C 22.75 O 24.44 CB 20.85 CG 34.52 CD 42.94 OE1 48.55 NE2 42.39
A THR E 0 -106.4 139.2 N 21.77 CA 20.33 C 25.08 O 22.68 CB 17.62 OG1 21.77 CG2 18.7
A ILE E 16 -131.2 136.5 N 27.42 CA 27.8 C 24.84 O 26.53 CB 30.55 CG1 30.32 CG2 34.02 CD1 35.96
A ALA E 0 -111.3 140.6 N 23.92 CA 24.25 C 28.29 O 25.83 CB 27.42
A ILE E 20 -116.5 116.4 N 30.18 CA 30.53 C 29.76 O 28.65 CB 32.41 CG1 35.61 CG2 34.72 CD1 38.81
A ILE E 13 -126.8 111.8 N 39.96 CA 40.74 C 43.0 O 43.37 CB 39.8 CG1 39.39 CG2 39.01 CD1 37.81
A ASN T 134 58.2 52.0 N 46.14 CA 48.49 C 49.79 O 49.51 CB 50.35 CG 51.69 OD1 53.45 ND2 53.05
A ASP T 159 68.7 -19.9 N 50.16 CA 51.42 C 51.18 O 51.8 CB 52.44 CG 54.08 OD1 55.6 OD2 54.89
A GLU E 94 -77.5 143.3 N 53.18 CA 51.57 C 47.28 O 44.92 CB 53.29 CG 59.42 CD 63.02 OE1 65.22 OE2 66.29
A ARG E 147 -100.4 124.4 N 43.0 CA 40.71 C 37.16 O 35.68 CB 41.7 CG 45.37 CD 53.89 NE 59.56 CZ 60.98 NH1 59.83 NH2 62.2
A ILE E 19 -122.3 124.7 N 32.95 CA 29.97 C 28.41 O 25.91 CB 32.38 CG1 32.81 CG2 31.87 CD1 41.99
A SER E 58 -77.1 133.8 N 27.68 CA 27.53 C 26.69 O 32.51 CB 30.01 OG 35.35
A LEU - 1 -114.7 31.0 N 24.17 CA 22.57 C 23.66 O 24.41 CB 22.82 CG 23.75 CD1 22.41 CD2 21.2
A GLY T 28 61.7 -145.0 N 19.6 CA 20.15 C 20.13 O 23.45
A GLN T 95 -102.1 39.2 N 18.17 CA 20.05 C 20.93 O 25.28 CB 16.76 CG 16.9 CD 22.44 OE1 23.09 NE2 17.07
A TRP H 0 -53.8 -57.8 N 21.11 CA 21.68 C 15.9 O 18.86 CB 14.44 CG 17.45 CD1 18.25 CD2 17.37 NE1 17.72 CE2 19.41 CE3 18.6 CZ2 18.81 CZ3 22.13 CH2 17.0
A HIS H 56 -61.2 -11.2 N 17.35 CA 20.27 C 23.09 O 26.98 CB 20.47 CG 23.46 ND1 19.57 CD2 18.09 CE1 25.55 NE2 17.51
A THR H 78 -112.7 -19.9 N 22.96 CA 22.87 C 24.3 O 23.25 CB 23.61 OG1 38.39 CG2 15.66
A ARG H 142 -111.7 -15.2 N 21.67 CA 23.7 C 22.96 O 25.99 CB 23.61 CG 32.03 CD 31.35 NE 31.88 CZ 40.29 NH1 41.74 NH2 42.87
A ASN S 63 55.4 37.3 N 21.34 CA 25.76 C 25.15 O 27.4 CB 25.33 CG 29.65 OD1 26.93 ND2 32.5
A ARG - 102 -143.2 139.2 N 20.8 CA 22.76 C 19.78 O 20.92 CB 26.03 CG 34.11 CD 45.04 NE 51.96 CZ 56.89 NH1 59.43 NH2 58.31
A VAL E 7 -148.9 142.8 N 19.88 CA 18.22 C 21.08 O 23.81 CB 18.73 CG1 17.48 CG2 15.22
A SER E 19 -79.2 141.7 N 20.81 CA 24.72 C 21.25 O 18.91 CB 21.93 OG 29.52
A LYS H 16 -51.6 -42.2 N 15.87 CA 20.85 C 19.6 O 18.32 CB 16.91 CG 19.54 CD 21.68 CE 21.13 NZ 19.18
A ALA H 8 -57.7 -51.7 N 19.2 CA 23.02 C 25.78 O 21.94 CB 23.73
A VAL H 34 -60.6 -43.5 N 21.13 CA 24.09 C 21.06 O 25.79 CB 21.54 CG1 22.24 CG2 20.26
A LEU H 1 -69.9 -36.0 N 22.92 CA 23.07 C 24.64 O 24.64 CB 21.09 CG 24.48 CD1 18.67 CD2 24.72
A VAL H 0 -66.8 -38.8 N 22.96 CA 22.28 C 22.63 O 21.38 CB 20.93 CG1 20.64 CG2 16.25
A LYS H 73 -63.2 -43.7 N 23.95 CA 24.63 C 26.0 O 23.25 CB 25.51 CG 34.42 CD 38.04 CE 43.24 NZ 51.32
A MET H 0 -65.7 -42.1 N 23.26 CA 24.26 C 19.3 O 20.63 CB 21.13 CG 27.88 SD 41.9 CE 36.01
A LEU H 0 -68.8 -30.0 N 20.81 CA 20.54 C 23.47 O 19.77 CB 24.42 CG 22.51 CD1 17.45 CD2 18.15
A ARG H 39 -70.2 -32.6 N 19.62 CA 26.7 C 27.87 O 28.31 CB 26.14 CG 27.83 CD 34.3 NE 36.5 CZ 39.47 NH1 38.38 NH2 30.71
A LYS H 84 -72.9 -43.4 N 24.53 CA 27.58 C 27.09 O 28.52 CB 29.45 CG 34.56 CD 43.04 CE 45.86 NZ 51.42
A LEU H 2 -62.4 -37.6 N 27.09 CA 26.95 C 29.18 O 29.72 CB 25.29 CG 27.06 CD1 26.25 CD2 28.93
A TYR H 43 -70.3 -40.4 N 26.37 CA 31.6 C 34.2 O 35.97 CB 28.7 CG 32.73 CD1 35.95 CD2 33.36 CE1 34.7 CE2 36.29 CZ 39.19 OH 39.27
A GLU H 119 -61.7 -29.6 N 36.85 CA 43.57 C 44.17 O 45.31 CB 46.47 CG 59.0 CD 65.94 OE1 72.73 OE2 68.95
A ALA H 46 -88.9 -20.7 N 41.44 CA 37.57 C 37.11 O 40.11 CB 34.86
A THR H 47 -116.0 -29.4 N 33.2 CA 30.15 C 32.18 O 31.66 CB 32.52 OG1 30.75 CG2 30.82
A LYS - 135 60.1 23.9 N 33.19 CA 35.71 C 35.81 O 39.05 CB 41.72 CG 47.86 CD 50.42 CE 56.31 NZ 56.15
A ASP - 68 -88.9 126.7 N 32.02 CA 28.79 C 29.61 O 30.04 CB 28.49 CG 31.91 OD1 30.19 OD2 34.76
A GLU H 100 -56.0 -31.5 N 27.28 CA 29.79 C 30.87 O 24.84 CB 32.24 CG 45.85 CD 50.37 OE1 48.84 OE2 53.54
A GLU H 91 -64.2 -39.9 N 24.79 CA 28.33 C 25.25 O 24.49 CB 27.39 CG 32.95 CD 33.73 OE1 37.78 OE2 35.8
A VAL H 0 -66.0 -44.1 N 23.58 CA 21.48 C 26.62 O 26.03 CB 24.76 CG1 21.37 CG2 27.11
A LYS H 48 -60.2 -35.4 N 25.06 CA 25.38 C 23.85 O 22.87 CB 29.97 CG 37.81 CD 45.16 CE 53.17 NZ 57.7
A ARG H 85 -68.6 -45.5 N 24.58 CA 26.63 C 24.14 O 25.23 CB 28.41 CG 39.42 CD 46.5 NE 52.6 CZ 57.31 NH1 57.3 NH2 61.91
A MET H 16 -55.4 -42.1 N 22.07 CA 24.8 C 25.28 O 26.43 CB 23.24 CG 32.79 SD 38.95 CE 39.29
A LEU H 7 -58.7 -50.5 N 20.64 CA 23.06 C 20.89 O 22.88 CB 22.42 CG 19.16 CD1 18.73 CD2 22.66
A HIS H 14 -62.2 -39.5 N 21.57 CA 20.49 C 19.08 O 18.1 CB 23.82 CG 24.07 ND1 23.12 CD2 26.23 CE1 24.27 NE2 28.24
A LEU H 4 -57.8 -48.2 N 21.46 CA 20.1 C 19.46 O 17.68 CB 21.57 CG 25.21 CD1 26.18 CD2 30.0
A ILE H 0 -63.2 -44.5 N 16.96 CA 18.02 C 16.78 O 17.3 CB 19.67 CG1 17.8 CG2 19.37 CD1 19.23
A GLU H 2 -56.3 -34.8 N 14.91 CA 14.19 C 12.53 O 16.77 CB 13.27 CG 10.02 CD 28.32 OE1 22.38 OE2 35.32
A GLY H 1 -82.6 -11.6 N 12.35 CA 9.47 C 16.14 O 14.21
A LEU - 2 -58.8 139.6 N 15.52 CA 16.71 C 20.58 O 21.35 CB 15.04 CG 16.47 CD1 16.07 CD2 18.58
A GLU E 2 -131.5 159.4 N 18.54 CA 20.96 C 20.67 O 19.47 CB 16.92 CG 18.51 CD 21.76 OE1 21.38 OE2 17.64
A VAL E 9 -122.0 134.4 N 21.34 CA 24.19 C 24.59 O 26.81 CB 26.11 CG1 26.08 CG2 29.46
A VAL E 2 -63.5 124.3 N 26.74 CA 24.51 C 28.39 O 26.7 CB 27.53 CG1 21.51 CG2 25.84
A ARG E 152 -107.9 -47.3 N 26.68 CA 35.38 C 38.29 O 39.93 CB 37.23 CG 46.19 CD 55.88 NE 65.01 CZ 69.38 NH1 72.42 NH2 73.62
A HIS E 77 -127.6 146.5 N 40.78 CA 43.66 C 44.15 O 39.08 CB 49.13 CG 53.95 ND1 56.65 CD2 56.85 CE1 59.38 NE2 59.2
A ILE E 46 -141.7 111.2 N 44.9 CA 47.22 C 51.14 O 50.18 CB 46.72 CG1 42.97 CG2 46.32 CD1 44.8
A THR E 71 -122.0 170.1 N 52.79 CA 54.69 C 55.66 O 55.33 CB 53.17 OG1 58.37 CG2 54.35
A THR E 88 -125.5 171.5 N 55.85 CA 57.16 C 60.55 O 61.69 CB 54.49 OG1 58.52 CG2 49.61
A THR E 38 -174.2 161.6 N 63.4 CA 64.76 C 67.62 O 67.79 CB 66.0 OG1 64.97 CG2 65.87
A ASN - 56 -131.0 13.9 N 69.85 CA 69.87 C 69.7 O 70.61 CB 70.16 CG 71.64 OD1 72.1 ND2 73.79
A GLU S 122 -63.8 157.5 N 70.72 CA 72.92 C 73.02 O 72.73 CB 74.67 CG 79.2 CD 82.07 OE1 82.79 OE2 82.65
A PRO - 111 -52.3 111.1 N 72.59 CA 70.38 C 66.36 O 65.9 CB 70.92 CG 72.38 CD 73.09
A ARG E 69 -136.5 127.4 N 62.65 CA 58.46 C 54.45 O 53.52 CB 61.29 CG 64.02 CD 67.79 NE 71.44 CZ 73.2 NH1 72.43 NH2 73.97
A THR E 42 -103.1 114.1 N 50.86 CA 47.21 C 45.02 O 45.08 CB 47.61 OG1 51.05 CG2 49.43
A PHE E 0 -102.6 160.9 N 41.68 CA 37.31 C 36.06 O 33.25 CB 35.92 CG 38.14 CD1 40.87 CD2 39.78 CE1 40.71 CE2 40.23 CZ 35.08
A TYR E 11 -131.9 160.9 N 31.54 CA 27.61 C 27.59 O 27.04 CB 26.97 CG 24.13 CD1 25.68 CD2 27.37 CE1 28.34 CE2 24.01 CZ 28.21 OH 28.93
A ASP E 9 -155.4 163.8 N 26.33 CA 26.51 C 23.31 O 22.44 CB 33.16 CG 38.27 OD1 39.88 OD2 47.59
A LEU E 0 -130.2 134.7 N 23.4 CA 24.11 C 28.45 O 34.82 CB 24.11 CG 21.26 CD1 25.16 CD2 26.08
A THR E 52 -93.1 112.2 N 27.15 CA 29.33 C 28.51 O 25.17 CB 32.3 OG1 34.3 CG2 30.56
A VAL E 2 -102.8 125.0 N 26.92 CA 28.64 C 31.32 O 30.73 CB 27.01 CG1 26.4 CG2 22.53
A GLU T 108 -61.6 126.7 N 32.64 CA 34.6 C 36.25 O 31.53 CB 41.91 CG 50.36 CD 55.4 OE1 57.56 OE2 59.39
A ASN T 116 76.9 -61.7 N 35.9 CA 38.14 C 39.05 O 38.8 CB 46.6 CG 56.01 OD1 59.36 ND2 60.22
A TYR T 62 -76.5 -29.2 N 36.19 CA 32.47 C 30.34 O 34.18 CB 35.99 CG 34.67 CD1 36.41 CD2 35.77 CE1 35.0 CE2 39.02 CZ 35.56 OH 38.63
A GLN - 98 55.9 39.3 N 28.2 CA 31.66 C 29.95 O 30.18 CB 36.12 CG 43.18 CD 53.08 OE1 54.31 NE2 54.7
A ASN E 0 -165.7 156.0 N 25.86 CA 24.94 C 22.27 O 21.37 CB 25.37 CG 27.88 OD1 31.6 ND2 28.43
A TYR E 0 -147.0 163.9 N 19.98 CA 20.8 C 21.21 O 21.21 CB 17.14 CG 18.99 CD1 21.3 CD2 20.87 CE1 23.73 CE2 23.22 CZ 27.85 OH 28.05
A LEU E 3 -91.7 125.9 N 20.69 CA 21.28 C 17.72 O 21.67 CB 17.21 CG 21.78 CD1 23.48 CD2 23.57
A ALA E 0 -169.3 170.7 N 19.4 CA 20.31 C 22.58 O 21.29 CB 19.44
A GLY E 0 152.6 177.0 N 21.07 CA 23.59 C 24.96 O 26.4
A GLU B 47 -111.9 130.3 N 27.83 CA 31.42 C 31.37 O 26.38 CB 32.39 CG 38.56 CD 43.72 OE1 43.78 OE2 48.41
A ASN S 43 54.8 35.9 N 29.8 CA 31.93 C 30.41 O 26.75 CB 39.57 CG 45.76 OD1 43.93 ND2 47.25
A GLY S 0 157.7 171.5 N 28.47 CA 23.84 C 22.26 O 24.22
A MET - 2 -131.2 128.9 N 23.74 CA 25.86 C 20.63 O 23.46 CB 18.5 CG 29.64 SD 33.31 CE 29.14
A ILE E 2 -138.8 149.1 N 21.15 CA 25.31 C 25.7 O 25.96 CB 26.77 CG1 26.77 CG2 30.18 CD1 34.0
A PHE E 1 -78.4 110.9 N 25.39 CA 26.94 C 27.85 O 31.22 CB 22.42 CG 21.77 CD1 23.06 CD2 19.73 CE1 21.38 CE2 19.75 CZ 22.92
A VAL E 0 -98.2 132.6 N 27.29 CA 31.43 C 31.58 O 32.35 CB 30.35 CG1 33.12 CG2 38.93
A HIS E 18 -93.9 150.6 N 36.35 CA 37.26 C 38.74 O 40.27 CB 36.71 CG 39.26 ND1 39.39 CD2 36.79 CE1 36.9 NE2 38.86
A ASN - 55 -67.0 360.0 N 43.63 CA 44.6 C 46.53 O 49.64 CB 43.09 CG 43.75 OD1 42.25 ND2 42.59 OXT 47.86
