A CYS - 105 360.0 66.7 N 61.15 CA 60.2 C 59.91 O 59.98 CB 60.16 SG 56.15
A GLU - 126 -69.8 109.8 N 59.42 CA 58.69 C 56.23 O 56.19 CB 61.1 CG 65.39 CD 67.68 OE1 68.94 OE2 68.96
A MET - 62 -79.7 121.1 N 53.16 CA 50.7 C 48.0 O 47.44 CB 51.28 CG 52.7 SD 53.92 CE 52.9
A LYS E 86 -115.1 151.3 N 44.59 CA 41.48 C 39.81 O 37.56 CB 41.45 CG 42.99 CD 43.78 CE 45.37 NZ 46.96
A ARG E 143 -136.1 153.5 N 37.13 CA 35.63 C 34.18 O 33.04 CB 37.6 CG 41.52 CD 45.58 NE 49.58 CZ 51.85 NH1 52.57 NH2 53.16
A THR E 9 -151.9 156.2 N 31.3 CA 29.24 C 29.33 O 28.52 CB 29.64 OG1 28.64 CG2 30.25
A THR E 41 -121.7 143.6 N 27.99 CA 27.83 C 28.05 O 26.88 CB 28.01 OG1 29.8 CG2 27.48
A LEU E 5 -131.1 124.8 N 27.36 CA 26.83 C 27.75 O 27.03 CB 26.64 CG 26.98 CD1 26.63 CD2 27.13
A ASP - 80 -75.0 148.2 N 28.04 CA 28.82 C 27.87 O 25.72 CB 34.08 CG 39.46 OD1 42.79 OD2 43.3
A SER - 19 -159.7 169.7 N 25.43 CA 25.75 C 26.44 O 24.43 CB 25.3 OG 24.29
A PRO T 33 -55.8 -24.0 N 26.63 CA 27.08 C 27.6 O 26.9 CB 28.14 CG 28.89 CD 26.48
A LEU T 10 -91.6 5.6 N 27.31 CA 27.97 C 28.44 O 28.82 CB 28.13 CG 29.57 CD1 28.47 CD2 28.04
A GLY S 20 99.9 -171.7 N 27.78 CA 28.34 C 29.54 O 28.59
A LYS - 91 -68.0 135.6 N 29.6 CA 30.5 C 29.0 O 29.25 CB 32.29 CG 36.36 CD 39.51 CE 40.68 NZ 42.53
A LEU E 0 -115.2 125.2 N 26.59 CA 25.76 C 26.81 O 26.1 CB 24.86 CG 25.26 CD1 24.1 CD2 23.43
A GLU E 43 -99.7 120.9 N 26.01 CA 27.01 C 26.08 O 26.25 CB 29.11 CG 33.49 CD 37.38 OE1 40.08 OE2 39.14
A LEU E 0 -105.4 133.2 N 24.57 CA 25.46 C 26.23 O 26.98 CB 23.13 CG 23.38 CD1 21.77 CD2 21.76
A SER E 5 -135.0 142.9 N 26.38 CA 27.5 C 28.41 O 26.55 CB 28.15 OG 31.74
A GLY E 0 -178.0 -176.9 N 28.45 CA 30.77 C 32.47 O 32.94
A CYS E 2 -138.5 -171.9 N 32.95 CA 35.1 C 36.14 O 34.71 CB 35.31 SG 36.87
A GLU T 137 -57.7 -39.0 N 37.62 CA 39.27 C 39.11 O 39.24 CB 42.24 CG 46.95 CD 50.16 OE1 51.99 OE2 52.11
A GLN T 126 -70.9 -22.5 N 39.36 CA 38.7 C 36.8 O 36.91 CB 40.98 CG 45.18 CD 47.66 OE1 48.51 NE2 48.52
A GLY E 0 160.3 171.8 N 34.38 CA 31.14 C 29.43 O 29.24
A LEU E 0 -74.3 136.0 N 27.4 CA 25.64 C 25.88 O 24.77 CB 24.75 CG 24.29 CD1 23.17 CD2 20.67
A HIS E 19 -99.5 -46.2 N 26.79 CA 27.29 C 27.41 O 27.45 CB 30.75 CG 34.93 ND1 37.05 CD2 36.55 CE1 38.63 NE2 39.02
A GLU E 62 -158.5 151.7 N 26.55 CA 26.15 C 25.14 O 23.8 CB 28.32 CG 32.81 CD 35.64 OE1 37.87 OE2 36.34
A ILE E 3 -124.4 115.8 N 23.72 CA 23.5 C 25.28 O 25.16 CB 22.3 CG1 21.73 CG2 20.5 CD1 20.41
A LYS E 101 -115.0 125.9 N 27.29 CA 29.54 C 29.75 O 28.56 CB 32.3 CG 38.14 CD 41.27 CE 44.63 NZ 46.57
A LEU E 46 -85.4 111.2 N 30.07 CA 32.05 C 33.58 O 34.14 CB 32.65 CG 33.23 CD1 32.29 CD2 33.94
A LEU - 88 -83.0 -14.1 N 34.66 CA 36.38 C 37.53 O 38.67 CB 36.01 CG 36.53 CD1 37.35 CD2 36.09
A GLY - 85 101.6 360.0 N 39.26 CA 40.35 C 41.35 O 42.93
A GLU - 217 360.0 -20.8 N 45.5 CA 44.79 C 42.35 O 42.39 CB 48.42 CG 53.37 CD 56.06 OE1 58.08 OE2 58.44
A VAL - 125 -112.3 116.3 N 37.75 CA 33.27 C 30.71 O 30.66 CB 33.25 CG1 31.98 CG2 31.48
A PRO - 73 -57.0 132.5 N 28.07 CA 26.21 C 26.06 O 25.76 CB 26.11 CG 26.65 CD 26.38
A ALA - 27 -119.4 157.8 N 26.01 CA 24.9 C 24.6 O 24.16 CB 25.98
A PRO - 100 -95.0 163.9 N 24.55 CA 23.5 C 24.28 O 24.03 CB 24.29 CG 23.61 CD 23.61
A ALA B 7 -71.4 139.9 N 24.48 CA 25.58 C 26.14 O 26.19 CB 25.33
A ALA S 72 -58.2 -35.5 N 25.58 CA 26.82 C 26.73 O 26.59 CB 27.35
A VAL S 94 -122.2 115.7 N 25.99 CA 25.52 C 26.47 O 25.59 CB 25.17 CG1 24.89 CG2 25.58
A LEU - 139 -84.5 166.5 N 26.02 CA 27.25 C 27.93 O 26.74 CB 26.84 CG 28.27 CD1 27.9 CD2 29.16
A GLY - 41 96.8 175.4 N 28.74 CA 30.76 C 32.64 O 33.25
A GLY - 45 -56.8 -174.5 N 33.21 CA 32.66 C 32.63 O 32.3
A PRO S 5 -62.8 154.0 N 31.02 CA 29.79 C 30.13 O 29.02 CB 30.57 CG 30.5 CD 31.16
A GLU H 125 -43.4 -44.2 N 28.67 CA 29.92 C 28.69 O 28.09 CB 32.09 CG 37.63 CD 41.42 OE1 44.06 OE2 42.86
A PRO H 5 -56.7 -35.6 N 28.52 CA 27.52 C 27.29 O 27.24 CB 27.81 CG 28.97 CD 27.74
A LEU H 6 -68.7 -42.7 N 26.18 CA 26.0 C 25.15 O 23.7 CB 26.77 CG 29.27 CD1 30.73 CD2 30.35
A MET H 85 -66.6 -37.8 N 25.18 CA 25.71 C 23.29 O 22.72 CB 28.77 CG 33.73 SD 39.98 CE 38.84
A GLN H 50 -67.4 -37.9 N 21.48 CA 20.86 C 18.45 O 17.54 CB 21.28 CG 23.84 CD 25.88 OE1 29.98 NE2 26.27
A CYS H 0 -68.1 -39.5 N 17.48 CA 17.87 C 18.61 O 16.8 CB 17.59 SG 21.37
A THR H 26 -64.2 -44.7 N 17.57 CA 17.42 C 16.99 O 16.28 CB 19.95 OG1 21.73 CG2 20.81
A ALA H 38 -66.0 -36.7 N 15.38 CA 14.92 C 14.85 O 15.41 CB 14.66
A TRP H 18 -66.5 -46.2 N 15.83 CA 16.9 C 16.23 O 18.0 CB 16.89 CG 17.92 CD1 18.32 CD2 18.05 NE1 17.66 CE2 19.14 CE3 18.83 CZ2 18.16 CZ3 18.9 CH2 18.57
A LEU H 0 -64.9 -41.6 N 17.07 CA 17.13 C 17.59 O 16.68 CB 17.66 CG 18.24 CD1 17.48 CD2 18.22
A ASN H 59 -58.3 -44.6 N 18.06 CA 18.47 C 17.5 O 17.1 CB 20.2 CG 22.29 OD1 22.54 ND2 21.09
A ALA H 0 -66.5 -43.3 N 17.1 CA 15.57 C 16.44 O 16.74 CB 15.88
A TYR H 0 -54.9 -50.0 N 15.36 CA 17.87 C 17.99 O 18.31 CB 16.06 CG 18.34 CD1 19.0 CD2 17.97 CE1 19.52 CE2 18.61 CZ 19.85 OH 19.04
A PHE H 13 -78.5 -39.3 N 18.09 CA 19.72 C 21.29 O 20.33 CB 20.17 CG 20.7 CD1 20.74 CD2 20.28 CE1 21.15 CE2 20.68 CZ 21.66
A HIS H 61 -111.1 -11.0 N 20.48 CA 22.08 C 22.68 O 23.2 CB 21.93 CG 22.28 ND1 23.47 CD2 22.88 CE1 21.69 NE2 23.15
A GLN - 105 -145.5 54.2 N 22.13 CA 24.84 C 22.36 O 22.16 CB 26.64 CG 32.25 CD 35.39 OE1 36.43 NE2 37.24
A PRO G 38 -53.2 -30.0 N 21.93 CA 22.4 C 21.91 O 21.75 CB 20.28 CG 21.94 CD 21.9
A GLU G 191 -66.2 -18.0 N 22.98 CA 23.99 C 22.91 O 24.43 CB 26.63 CG 30.85 CD 34.19 OE1 34.45 OE2 36.46
A ALA G 9 -109.4 10.2 N 21.11 CA 21.01 C 20.92 O 21.86 CB 22.06
A ILE G 11 -54.3 -35.7 N 19.63 CA 19.94 C 20.22 O 18.72 CB 19.0 CG1 17.38 CG2 19.21 CD1 18.95
A GLU G 149 -66.7 -16.9 N 22.75 CA 23.69 C 25.0 O 25.65 CB 25.85 CG 29.14 CD 32.05 OE1 33.36 OE2 34.14
A GLU G 154 -75.4 -23.0 N 24.87 CA 26.18 C 26.45 O 27.33 CB 28.27 CG 30.97 CD 33.17 OE1 33.08 OE2 33.89
A PHE S 50 -88.4 122.5 N 23.96 CA 22.64 C 23.48 O 24.33 CB 22.47 CG 21.87 CD1 21.04 CD2 22.59 CE1 21.36 CE2 21.59 CZ 20.8
A PRO - 78 -62.7 138.7 N 22.49 CA 22.91 C 22.33 O 21.15 CB 23.64 CG 25.48 CD 23.28
A VAL - 67 -80.5 129.2 N 21.18 CA 20.51 C 21.78 O 20.33 CB 21.4 CG1 20.78 CG2 20.97
A PRO - 4 -68.6 162.1 N 22.77 CA 24.69 C 26.64 O 25.16 CB 25.14 CG 23.97 CD 23.15
A ALA - 59 -66.1 146.0 N 27.3 CA 28.18 C 27.96 O 27.31 CB 29.01
A LEU B 31 -108.4 135.0 N 28.28 CA 29.12 C 30.88 O 30.76 CB 28.6 CG 28.41 CD1 28.17 CD2 26.96
A HIS - 21 -128.7 15.3 N 32.81 CA 35.31 C 36.5 O 37.89 CB 35.97 CG 37.98 ND1 38.98 CD2 38.31 CE1 39.64 NE2 39.65
A HIS S 46 -67.1 145.2 N 37.6 CA 38.26 C 39.07 O 40.16 CB 37.35 CG 35.86 ND1 35.13 CD2 35.8 CE1 35.23 NE2 35.84
A PRO H 54 -49.5 -28.6 N 39.93 CA 40.57 C 40.05 O 40.39 CB 41.26 CG 41.43 CD 40.92
A VAL H 29 -64.0 -22.7 N 38.74 CA 37.73 C 37.92 O 37.26 CB 37.22 CG1 35.68 CG2 37.15
A PHE H 11 -94.5 -9.5 N 38.09 CA 39.96 C 42.32 O 42.64 CB 36.57 CG 34.79 CD1 33.28 CD2 33.34 CE1 33.27 CE2 33.22 CZ 32.13
A GLN H 108 -83.3 -19.0 N 45.62 CA 48.65 C 50.08 O 51.49 CB 49.93 CG 52.31 CD 54.25 OE1 55.13 NE2 55.0
A GLN S 132 -120.3 156.6 N 51.36 CA 52.05 C 51.57 O 51.4 CB 53.9 CG 56.75 CD 58.35 OE1 59.67 NE2 58.9
A GLU - 127 -86.9 125.2 N 50.48 CA 49.61 C 47.72 O 48.39 CB 50.71 CG 52.64 CD 54.12 OE1 55.22 OE2 54.6
A SER - 45 -158.5 169.1 N 44.61 CA 41.5 C 39.05 O 38.65 CB 41.65 OG 42.36
A PHE H 66 -64.6 -39.2 N 36.4 CA 34.81 C 33.08 O 32.53 CB 33.77 CG 32.93 CD1 33.62 CD2 33.24 CE1 33.42 CE2 32.69 CZ 32.9
A THR H 43 -59.0 -48.9 N 32.49 CA 32.84 C 33.11 O 32.47 CB 32.72 OG1 34.85 CG2 32.34
A ARG H 32 -61.4 -41.7 N 33.62 CA 34.32 C 33.7 O 34.17 CB 35.44 CG 37.19 CD 40.01 NE 42.28 CZ 43.41 NH1 42.15 NH2 42.98
A GLN H 68 -62.9 -42.7 N 33.18 CA 33.38 C 31.06 O 30.29 CB 37.53 CG 43.84 CD 48.06 OE1 51.03 NE2 48.87
A VAL H 0 -60.2 -54.6 N 28.46 CA 27.4 C 26.84 O 26.33 CB 26.94 CG1 25.63 CG2 26.79
A LEU H 0 -57.0 -42.3 N 27.16 CA 27.86 C 28.5 O 27.2 CB 28.11 CG 30.41 CD1 29.5 CD2 29.57
A TRP H 114 -70.7 -34.2 N 29.24 CA 30.54 C 30.02 O 29.59 CB 33.62 CG 37.86 CD1 39.03 CD2 40.16 NE1 40.9 CE2 40.93 CE3 41.41 CZ2 42.77 CZ3 42.6 CH2 43.62
A LYS H 86 -67.5 -44.5 N 29.18 CA 29.26 C 27.73 O 25.64 CB 32.22 CG 37.04 CD 40.14 CE 42.35 NZ 44.55
A LEU H 0 -57.8 -54.2 N 26.21 CA 26.65 C 26.71 O 26.66 CB 25.42 CG 25.53 CD1 23.68 CD2 25.97
A LEU H 49 -54.5 -38.9 N 27.59 CA 29.53 C 30.8 O 31.23 CB 29.86 CG 30.27 CD1 29.12 CD2 29.3
A LYS H 188 -78.8 -42.2 N 31.29 CA 32.46 C 31.51 O 30.67 CB 35.05 CG 40.08 CD 43.31 CE 46.3 NZ 46.38
A VAL H 67 -87.3 -50.9 N 30.02 CA 28.75 C 28.79 O 28.25 CB 29.52 CG1 30.56 CG2 29.74
A VAL - 6 -79.3 104.0 N 27.79 CA 26.27 C 27.04 O 27.06 CB 25.95 CG1 26.31 CG2 23.52
A LYS - 117 -82.4 176.4 N 27.62 CA 28.91 C 26.52 O 24.71 CB 32.6 CG 39.18 CD 42.77 CE 46.01 NZ 48.47
A PHE T 59 -60.0 126.7 N 24.34 CA 23.56 C 22.33 O 22.06 CB 21.54 CG 20.08 CD1 20.71 CD2 20.38 CE1 20.28 CE2 18.59 CZ 20.63
A GLY T 27 90.9 -13.1 N 21.67 CA 22.1 C 22.99 O 22.41
A GLU - 75 -98.4 156.9 N 22.72 CA 24.24 C 22.6 O 21.18 CB 26.81 CG 32.76 CD 35.86 OE1 35.01 OE2 39.23
A VAL - 64 -131.5 161.1 N 22.4 CA 21.25 C 21.88 O 20.58 CB 21.25 CG1 19.57 CG2 20.18
A ILE E 11 -143.3 146.0 N 20.11 CA 20.58 C 20.19 O 20.09 CB 20.49 CG1 21.96 CG2 20.59 CD1 22.06
A SER E 14 -85.2 159.1 N 19.19 CA 18.34 C 18.33 O 18.19 CB 18.36 OG 17.78
A TYR H 40 -54.8 -41.2 N 18.39 CA 19.41 C 19.85 O 20.92 CB 20.85 CG 21.11 CD1 22.07 CD2 20.52 CE1 21.83 CE2 22.96 CZ 23.18 OH 23.12
A GLN H 83 -66.0 -41.9 N 20.08 CA 19.83 C 20.36 O 20.07 CB 20.88 CG 22.21 CD 23.18 OE1 24.7 NE2 24.22
A GLN H 112 -63.8 -38.3 N 21.22 CA 22.56 C 23.23 O 24.21 CB 23.19 CG 23.36 CD 24.35 OE1 23.51 NE2 23.37
A LEU H 0 -68.8 -37.6 N 23.45 CA 24.34 C 25.34 O 25.28 CB 23.53 CG 24.3 CD1 22.57 CD2 24.31
A ALA H 0 -64.4 -41.7 N 26.1 CA 26.84 C 27.28 O 27.05 CB 26.71
A ALA H 48 -62.9 -44.2 N 28.13 CA 30.22 C 31.32 O 32.24 CB 28.54
A LEU H 72 -59.6 -35.2 N 31.64 CA 33.18 C 33.53 O 34.31 CB 33.36 CG 33.23 CD1 33.72 CD2 33.71
A ALA T 4 -84.0 11.3 N 34.03 CA 35.15 C 35.71 O 36.23 CB 34.59
A GLY T 62 93.6 -4.2 N 36.57 CA 37.41 C 38.11 O 39.53
A ASN - 75 -142.1 94.9 N 37.31 CA 36.72 C 35.61 O 34.21 CB 37.6 CG 39.79 OD1 39.67 ND2 40.23
A PRO T 90 -53.4 -20.1 N 35.45 CA 35.3 C 35.09 O 35.21 CB 35.34 CG 36.51 CD 35.97
A LYS T 199 -98.1 3.1 N 34.31 CA 35.86 C 34.65 O 34.86 CB 38.51 CG 41.76 CD 45.48 CE 47.3 NZ 48.86
A ALA - 15 -97.2 34.1 N 32.72 CA 30.7 C 28.98 O 28.65 CB 30.43
A ALA H 25 -57.9 -38.3 N 27.12 CA 26.09 C 25.34 O 23.73 CB 25.37
A ARG H 231 -66.7 -38.3 N 24.44 CA 25.2 C 24.98 O 25.25 CB 24.67 CG 24.48 CD 24.23 NE 24.93 CZ 25.74 NH1 23.89 NH2 23.78
A ALA H 50 -65.3 -36.1 N 26.28 CA 27.49 C 27.29 O 28.39 CB 26.73
A VAL H 0 -64.2 -44.0 N 26.52 CA 26.34 C 28.42 O 27.27 CB 26.13 CG1 25.44 CG2 24.92
A GLY H 20 -58.0 -44.4 N 27.81 CA 30.38 C 32.44 O 33.07
A GLY H 39 -63.2 -39.7 N 32.76 CA 35.6 C 36.41 O 36.81
A ALA H 3 -61.4 -29.7 N 37.49 CA 38.54 C 40.35 O 41.0 CB 38.12
A MET T 16 -63.2 -20.2 N 41.68 CA 43.1 C 45.75 O 46.0 CB 42.14 CG 41.44 SD 40.18 CE 39.41
A ARG T 173 -95.4 -22.3 N 47.4 CA 48.28 C 47.0 O 48.38 CB 51.8 CG 54.74 CD 58.23 NE 59.67 CZ 60.0 NH1 60.61 NH2 59.95
A GLY S 40 -78.5 -0.2 N 44.28 CA 40.45 C 37.79 O 38.51
A ASN - 14 -73.7 106.5 N 33.37 CA 29.71 C 26.74 O 25.81 CB 26.02 CG 25.26 OD1 23.76 ND2 22.85
A PRO S 10 -75.1 -17.7 N 25.98 CA 26.0 C 24.93 O 25.26 CB 24.53 CG 26.1 CD 26.21
A VAL S 0 -122.7 67.7 N 22.93 CA 21.91 C 21.37 O 21.42 CB 21.38 CG1 19.38 CG2 21.14
A PRO B 11 -58.4 158.7 N 21.51 CA 20.88 C 21.97 O 22.31 CB 21.44 CG 21.4 CD 20.46
A ILE T 0 75.7 -57.4 N 20.18 CA 21.19 C 22.06 O 21.15 CB 21.7 CG1 22.44 CG2 21.12 CD1 23.18
A LEU T 3 -60.9 -50.3 N 20.84 CA 20.67 C 21.57 O 21.41 CB 20.44 CG 20.41 CD1 18.62 CD2 19.41
A ILE B 0 -99.2 107.6 N 20.65 CA 20.07 C 21.03 O 19.97 CB 21.52 CG1 20.42 CG2 20.22 CD1 20.45
A PRO - 3 -64.7 60.9 N 21.8 CA 21.38 C 22.82 O 21.47 CB 21.76 CG 21.78 CD 21.46
A CYS G 4 -63.4 -18.0 N 21.72 CA 23.16 C 22.54 O 22.91 CB 24.06 SG 27.33
A HIS G 0 -74.7 -9.7 N 21.61 CA 20.66 C 20.36 O 20.33 CB 20.64 CG 20.54 ND1 20.86 CD2 21.63 CE1 20.44 NE2 21.36
A ARG G 16 -92.7 -0.7 N 18.71 CA 18.96 C 18.69 O 18.5 CB 18.7 CG 18.27 CD 19.32 NE 20.52 CZ 21.11 NH1 20.47 NH2 20.39
A VAL E 1 -94.7 111.0 N 17.5 CA 17.39 C 18.3 O 15.74 CB 19.83 CG1 19.08 CG2 18.74
A VAL E 18 -126.3 -179.1 N 17.56 CA 15.98 C 17.67 O 15.46 CB 17.21 CG1 16.92 CG2 15.84
A CYS - 35 -79.1 144.3 N 17.76 CA 18.2 C 18.8 O 18.82 CB 19.16 SG 22.51
A SER T 88 -66.4 -17.0 N 20.07 CA 20.21 C 20.13 O 20.49 CB 20.07 OG 17.59
A SER T 96 -78.1 -13.3 N 21.41 CA 22.13 C 22.58 O 22.41 CB 24.16 OG 23.07
A GLY S 67 104.3 -12.9 N 20.56 CA 20.45 C 21.23 O 20.3
A ALA - 48 -69.9 147.1 N 21.41 CA 21.04 C 21.55 O 19.82 CB 21.49
A VAL - 22 -60.1 -41.8 N 22.08 CA 22.32 C 22.43 O 21.76 CB 23.91 CG1 24.65 CG2 23.54
A GLY - 18 88.2 172.7 N 21.7 CA 22.01 C 23.3 O 22.78
A ASN - 105 -70.8 164.3 N 23.64 CA 24.26 C 25.91 O 23.69 CB 23.81 CG 25.96 OD1 25.65 ND2 23.41
A TYR - 12 -154.9 128.8 N 26.34 CA 28.36 C 31.03 O 30.22 CB 26.92 CG 27.09 CD1 25.51 CD2 26.96 CE1 26.6 CE2 27.06 CZ 26.91 OH 25.0
A SER T 74 -50.5 -40.7 N 33.32 CA 36.65 C 36.98 O 38.16 CB 38.51 OG 41.48
A GLY T 36 -86.3 14.8 N 36.54 CA 35.0 C 34.43 O 34.33
A GLY - 32 96.7 146.2 N 33.05 CA 31.48 C 31.61 O 30.41
A LEU H 87 -56.9 -45.7 N 29.91 CA 28.43 C 27.62 O 26.07 CB 29.17 CG 30.33 CD1 30.17 CD2 31.06
A ALA H 36 -54.8 -39.5 N 26.43 CA 25.19 C 24.78 O 24.66 CB 25.64
A VAL H 15 -65.9 -45.2 N 22.93 CA 23.94 C 22.52 O 20.89 CB 23.93 CG1 23.25 CG2 24.69
A LYS H 1 -58.4 -44.0 N 21.65 CA 22.01 C 21.54 O 20.64 CB 21.78 CG 22.75 CD 21.84 CE 21.35 NZ 21.01
A GLU H 57 -65.8 -39.2 N 21.86 CA 23.39 C 22.99 O 22.88 CB 27.25 CG 31.71 CD 36.58 OE1 38.57 OE2 39.14
A TRP H 23 -60.6 -47.0 N 22.35 CA 21.94 C 20.18 O 20.55 CB 23.45 CG 26.28 CD1 27.13 CD2 26.22 NE1 27.81 CE2 27.04 CE3 25.48 CZ2 26.46 CZ3 25.87 CH2 26.03
A LEU H 0 -62.9 -46.8 N 20.18 CA 19.49 C 19.54 O 18.98 CB 19.06 CG 18.71 CD1 17.86 CD2 19.42
A LEU H 5 -63.3 -39.1 N 18.69 CA 18.97 C 18.03 O 19.17 CB 17.91 CG 18.46 CD1 20.07 CD2 19.44
A ALA H 17 -64.4 -38.3 N 18.69 CA 20.22 C 20.55 O 21.94 CB 19.7
A HIS H 30 -61.8 -32.3 N 20.21 CA 19.63 C 19.96 O 19.02 CB 20.05 CG 19.91 ND1 19.66 CD2 18.27 CE1 20.53 NE2 20.73
A GLU T 11 -90.8 17.3 N 20.41 CA 19.98 C 20.98 O 21.0 CB 20.31 CG 19.84 CD 21.0 OE1 19.27 OE2 20.47
A GLY T 65 99.0 -8.8 N 21.06 CA 22.05 C 23.74 O 23.43
A HIS - 57 -71.6 147.5 N 23.13 CA 25.2 C 26.92 O 27.15 CB 22.84 CG 21.33 ND1 20.84 CD2 19.6 CE1 20.54 NE2 18.99
A ARG S 255 -73.1 60.7 N 27.65 CA 29.93 C 31.48 O 30.5 CB 30.8 CG 33.49 CD 35.05 NE 38.43 CZ 38.88 NH1 38.93 NH2 41.46
A LEU S 66 -128.9 151.3 N 33.55 CA 37.32 C 40.14 O 40.77 CB 37.25 CG 39.93 CD1 38.76 CD2 39.44
A GLY - 62 -88.5 145.0 N 43.04 CA 46.69 C 48.99 O 48.81
A LYS - 107 -72.4 112.9 N 50.85 CA 53.16 C 54.67 O 54.74 CB 52.98 CG 53.17 CD 53.39 CE 53.2 NZ 52.66
A PRO - 37 -66.2 170.9 N 56.25 CA 58.01 C 60.04 O 60.1 CB 57.23 CG 56.57 CD 55.98
A GLY - 83 -80.9 113.6 N 61.99 CA 64.07 C 65.47 O 65.69
A LEU - 107 -131.6 360.0 N 66.84 CA 68.38 C 69.59 O 70.42 CB 67.72 CG 67.44 CD1 67.17 CD2 67.49
