A ALA - 53 360.0 -137.3 N 88.96 CA 91.47 C 89.06 O 85.54 CB 68.18
A ASN - 87 -169.3 154.2 N 90.71 CA 96.44 C 101.84 O 110.81 CB 80.06 CG 79.94 OD1 63.28 ND2 72.46
A TYR - 15 -143.2 143.6 N 96.55 CA 95.12 C 104.83 O 101.24 CB 79.42 CG 78.15 CD1 69.51 CD2 87.09 CE1 84.14 CE2 86.24 CZ 92.98 OH 95.85
A LEU E 23 -108.6 118.9 N 115.99 CA 120.79 C 124.28 O 122.62 CB 125.48 CG 122.26 CD1 105.61 CD2 126.85
A ALA E 0 -114.6 145.1 N 117.76 CA 110.77 C 105.15 O 94.31 CB 117.74
A ALA E 0 -128.7 141.9 N 99.56 CA 109.48 C 114.42 O 110.69 CB 121.64
A ILE E 1 -126.0 112.7 N 114.77 CA 116.12 C 116.91 O 112.65 CB 125.09 CG1 133.61 CG2 137.77 CD1 132.02
A ALA E 0 -121.7 152.2 N 123.23 CA 129.48 C 135.83 O 136.41 CB 130.71
A THR E 27 -103.0 162.9 N 143.53 CA 140.81 C 142.84 O 142.11 CB 134.39 OG1 111.34 CG2 126.89
A GLY S 29 126.1 101.9 N 136.72 CA 139.12 C 141.68 O 145.71
A ASP S 157 59.4 49.1 N 143.25 CA 139.48 C 135.81 O 123.62 CB 140.68 CG 147.77 OD1 147.75 OD2 153.12
A GLY S 24 118.6 -172.3 N 137.01 CA 134.74 C 140.07 O 138.92
A TRP E 51 -116.0 114.1 N 145.19 CA 145.07 C 139.46 O 131.35 CB 145.78 CG 146.93 CD1 152.34 CD2 155.75 NE1 158.57 CE2 158.68 CE3 165.9 CZ2 164.16 CZ3 172.81 CH2 168.64
A GLY E 0 -71.9 120.3 N 135.31 CA 125.09 C 114.93 O 104.08
A LEU E 1 -125.6 114.8 N 113.05 CA 110.0 C 101.33 O 80.97 CB 117.69 CG 106.63 CD1 90.29 CD2 113.46
A ALA E 1 -119.2 123.3 N 101.04 CA 104.91 C 103.6 O 81.95 CB 121.85
A PHE E 0 -114.8 126.2 N 108.53 CA 118.8 C 120.61 O 115.24 CB 116.56 CG 98.66 CD1 80.34 CD2 92.25 CE1 90.65 CE2 75.36 CZ 91.26
A LEU E 2 -141.7 144.7 N 121.87 CA 131.39 C 136.8 O 133.36 CB 135.82 CG 140.25 CD1 146.38 CD2 136.12
A ASP E 9 -133.0 112.8 N 145.75 CA 147.56 C 143.74 O 136.59 CB 152.41 CG 151.98 OD1 141.81 OD2 151.7
A VAL T 73 -50.2 -51.7 N 139.08 CA 133.47 C 134.35 O 138.13 CB 127.32 CG1 107.15 CG2 95.53
A SER T 96 -43.1 -70.7 N 120.61 CA 112.82 C 115.1 O 121.76 CB 105.9 OG 104.43
A THR T 18 -83.0 -1.9 N 118.01 CA 125.2 C 124.4 O 111.3 CB 130.23 OG1 138.05 CG2 131.76
A GLY T 2 56.7 28.2 N 128.43 CA 133.55 C 136.62 O 138.83
A GLU E 44 -72.8 129.0 N 140.93 CA 137.71 C 133.46 O 121.05 CB 138.87 CG 138.54 CD 138.26 OE1 139.99 OE2 125.77
A PHE E 12 -128.9 108.6 N 129.98 CA 130.62 C 131.65 O 129.55 CB 135.67 CG 134.42 CD1 127.18 CD2 135.95 CE1 129.83 CE2 140.86 CZ 139.79
A LYS E 3 -152.5 142.3 N 128.86 CA 120.39 C 114.91 O 103.99 CB 125.25 CG 137.22 CD 143.33 CE 141.29 NZ 146.74
A GLY E 0 -147.9 -177.4 N 113.49 CA 107.45 C 108.29 O 111.59
A THR E 3 -171.9 163.6 N 108.21 CA 113.63 C 121.13 O 115.89 CB 101.54 OG1 76.53 CG2 86.86
A VAL E 26 -115.8 118.5 N 130.51 CA 131.76 C 134.05 O 123.79 CB 130.2 CG1 132.2 CG2 130.85
A LEU E 4 -111.1 150.7 N 133.93 CA 133.03 C 132.56 O 128.14 CB 133.53 CG 131.86 CD1 132.12 CD2 135.94
A LYS S 146 -93.7 -50.4 N 133.44 CA 123.12 C 111.26 O 109.71 CB 127.3 CG 137.47 CD 138.19 CE 145.9 NZ 147.96
A SER - 47 -80.3 111.8 N 88.28 CA 90.96 C 87.94 O 90.89 CB 101.57 OG 117.79
A LYS H 78 -48.4 -24.4 N 86.07 CA 88.78 C 92.18 O 89.26 CB 82.46 CG 89.16 CD 102.13 CE 113.55 NZ 111.94
A SER H 74 -65.8 -57.9 N 101.63 CA 109.45 C 102.61 O 90.62 CB 119.92 OG 112.12
A ALA H 31 -60.9 -29.5 N 97.63 CA 99.4 C 99.54 O 91.01 CB 74.15
A LEU H 0 -61.1 -79.5 N 93.12 CA 81.07 C 76.5 O 87.62 CB 80.81 CG 88.63 CD1 96.45 CD2 78.28
A TYR H 10 -38.5 -23.6 N 70.14 CA 76.25 C 87.75 O 88.79 CB 77.88 CG 63.6 CD1 74.29 CD2 65.01 CE1 98.1 CE2 86.29 CZ 104.38 OH 115.23
A ASP H 28 -76.5 -54.2 N 99.96 CA 111.71 C 114.76 O 117.26 CB 116.78 CG 120.8 OD1 121.52 OD2 116.4
A GLU H 7 -61.2 -32.1 N 112.78 CA 110.63 C 98.71 O 98.14 CB 120.22 CG 135.35 CD 146.07 OE1 153.12 OE2 153.81
A LEU H 20 -68.2 -29.8 N 80.63 CA 79.63 C 87.36 O 82.47 CB 80.77 CG 73.59 CD1 45.88 CD2 94.32
A PHE H 22 -78.7 -36.3 N 107.79 CA 109.72 C 101.12 O 92.56 CB 110.61 CG 122.55 CD1 129.44 CD2 122.13 CE1 131.24 CE2 123.03 CZ 120.94
A ARG H 9 -65.3 -45.7 N 94.65 CA 104.11 C 116.35 O 129.18 CB 86.29 CG 82.47 CD 82.65 NE 116.85 CZ 124.45 NH1 113.78 NH2 133.24
A HIS S 8 -83.6 1.1 N 110.63 CA 87.04 C 83.79 O 92.42 CB 54.22 CG 58.75 ND1 59.3 CD2 68.9 CE1 52.72 NE2 67.43
A ARG - 131 20.7 67.9 N 91.5 CA 106.95 C 109.45 O 109.94 CB 123.53 CG 140.55 CD 147.2 NE 150.51 CZ 150.04 NH1 151.89 NH2 148.39
A PRO - 10 -68.4 146.8 N 112.29 CA 115.83 C 116.39 O 98.31 CB 115.2 CG 106.56 CD 114.0
A ALA S 84 -88.4 -16.1 N 113.73 CA 102.72 C 101.21 O 86.16 CB 98.91
A GLU E 75 -146.5 121.8 N 111.29 CA 124.64 C 129.66 O 118.11 CB 145.93 CG 160.11 CD 166.88 OE1 172.54 OE2 170.82
A VAL E 36 -111.6 135.4 N 135.1 CA 139.85 C 140.52 O 138.79 CB 138.39 CG1 142.87 CG2 135.84
A LEU E 0 -110.3 114.8 N 137.33 CA 135.63 C 135.89 O 131.59 CB 134.1 CG 131.66 CD1 131.42 CD2 106.2
A LEU E 13 -94.9 139.9 N 139.52 CA 144.21 C 146.54 O 143.5 CB 135.36 CG 130.1 CD1 111.0 CD2 113.34
A ALA - 0 -63.1 163.6 N 150.82 CA 154.07 C 155.04 O 161.19 CB 138.31
A PRO H 57 -54.5 -48.4 N 155.29 CA 154.65 C 152.97 O 155.9 CB 158.38 CG 156.44 CD 153.69
A GLU H 57 -44.2 -75.4 N 140.66 CA 118.75 C 112.22 O 101.86 CB 108.23 CG 106.78 CD 106.82 OE1 95.78 OE2 99.28
A LEU H 11 -43.5 -41.9 N 105.63 CA 104.48 C 104.99 O 104.6 CB 104.28 CG 103.99 CD1 114.61 CD2 109.26
A LEU H 58 -60.4 -40.1 N 116.82 CA 131.94 C 141.91 O 145.02 CB 126.87 CG 119.3 CD1 109.1 CD2 109.83
A GLU H 153 -73.0 -47.2 N 152.76 CA 159.87 C 160.68 O 160.67 CB 163.72 CG 166.37 CD 168.31 OE1 166.05 OE2 171.63
A ASN - 84 -46.9 86.3 N 158.24 CA 155.91 C 158.42 O 166.15 CB 145.15 CG 134.9 OD1 124.26 ND2 127.93
A GLY H 46 -47.1 -35.9 N 153.85 CA 141.44 C 140.54 O 137.98
A ALA H 78 -73.4 -57.6 N 136.78 CA 132.98 C 137.33 O 141.33 CB 131.47
A PHE H 15 -53.2 -37.5 N 133.48 CA 131.39 C 130.38 O 125.2 CB 126.48 CG 125.34 CD1 133.96 CD2 119.22 CE1 128.63 CE2 116.7 CZ 118.68
A LEU H 33 -60.0 -55.0 N 135.31 CA 143.07 C 147.56 O 147.4 CB 137.84 CG 132.6 CD1 133.06 CD2 117.32
A ASP H 78 -72.4 -11.0 N 147.37 CA 150.91 C 153.1 O 157.3 CB 153.34 CG 162.45 OD1 163.33 OD2 171.1
A GLU H 66 -84.8 -38.1 N 150.83 CA 151.78 C 157.44 O 160.03 CB 145.05 CG 152.18 CD 157.08 OE1 163.81 OE2 149.28
A PHE H 41 -68.4 -36.3 N 158.25 CA 151.61 C 148.78 O 147.47 CB 144.13 CG 145.72 CD1 143.01 CD2 142.38 CE1 137.88 CE2 135.34 CZ 135.07
A ARG T 152 -72.6 -17.3 N 145.77 CA 145.89 C 141.32 O 133.28 CB 152.56 CG 167.77 CD 177.72 NE 184.83 CZ 185.64 NH1 181.8 NH2 185.74
A LYS T 164 -91.5 -34.1 N 138.79 CA 134.49 C 134.56 O 133.47 CB 125.61 CG 119.9 CD 120.64 CE 115.27 NZ 120.03
A ARG - 147 -99.6 360.0 N 133.9 CA 139.57 C 142.28 O 151.58 CB 141.59 CG 153.3 CD 166.78 NE 170.05 CZ 164.03 NH1 158.49 NH2 158.26
A SER - 82 360.0 145.2 N 136.14 CA 133.75 C 137.32 O 134.78 CB 133.15 OG 117.96
A GLU - 159 -70.7 146.9 N 139.87 CA 144.02 C 145.62 O 147.32 CB 145.06 CG 150.27 CD 150.42 OE1 151.9 OE2 144.09
A ALA - 16 -175.4 139.9 N 143.81 CA 141.48 C 140.82 O 146.85 CB 135.84
A PRO - 79 -69.0 142.1 N 137.26 CA 133.49 C 127.19 O 129.22 CB 135.83 CG 140.83 CD 140.96
A PHE - 8 -107.9 70.2 N 122.64 CA 124.09 C 124.82 O 134.13 CB 125.66 CG 129.24 CD1 131.16 CD2 129.27 CE1 132.1 CE2 139.34 CZ 137.51
A GLU - 140 -81.8 110.1 N 120.1 CA 116.65 C 108.44 O 89.3 CB 127.86 CG 140.83 CD 147.31 OE1 139.47 OE2 148.19
A PRO - 56 -43.0 108.1 N 116.58 CA 127.29 C 134.55 O 139.16 CB 132.57 CG 136.5 CD 126.06
A GLU - 77 -115.9 153.3 N 144.64 CA 154.12 C 157.45 O 161.8 CB 158.48 CG 170.58 CD 175.1 OE1 175.94 OE2 179.61
A GLY S 37 65.2 -170.9 N 159.86 CA 160.58 C 165.52 O 169.8
A GLU S 172 -110.6 153.7 N 168.59 CA 175.47 C 179.22 O 179.52 CB 174.78 CG 180.31 CD 186.14 OE1 189.85 OE2 191.1
A GLY S 33 132.7 167.6 N 179.81 CA 176.31 C 171.78 O 175.17
A PRO - 61 -39.0 126.7 N 161.55 CA 150.33 C 142.92 O 129.29 CB 156.27 CG 156.54 CD 157.8
A LEU H 72 -31.8 -76.5 N 137.42 CA 135.05 C 137.13 O 133.24 CB 129.11 CG 128.25 CD1 118.32 CD2 120.0
A ALA H 0 -44.5 -28.6 N 139.34 CA 129.08 C 119.92 O 103.9 CB 124.12
A LEU H 2 -72.5 -55.1 N 121.7 CA 128.04 C 133.18 O 130.68 CB 128.79 CG 134.48 CD1 129.5 CD2 147.82
A ARG H 67 -58.8 -44.1 N 133.16 CA 123.81 C 117.64 O 119.08 CB 117.48 CG 106.35 CD 100.78 NE 99.73 CZ 99.39 NH1 87.37 NH2 87.16
A ARG H 39 -54.9 -43.0 N 110.19 CA 112.67 C 117.01 O 119.78 CB 115.89 CG 115.97 CD 119.53 NE 126.49 CZ 138.78 NH1 140.77 NH2 143.59
A ALA H 0 -78.0 -44.7 N 120.62 CA 127.08 C 128.59 O 123.21 CB 137.07
A ARG H 22 -51.6 -47.1 N 126.38 CA 121.08 C 122.29 O 123.33 CB 108.75 CG 90.14 CD 90.88 NE 80.46 CZ 88.03 NH1 83.57 NH2 85.69
A GLY H 6 -70.7 -25.9 N 122.28 CA 128.2 C 128.12 O 135.69
A ALA H 0 -59.8 -32.5 N 123.79 CA 130.22 C 134.49 O 137.03 CB 128.45
A LEU H 0 -70.3 -63.2 N 133.26 CA 124.28 C 119.4 O 112.84 CB 119.68 CG 116.18 CD1 114.71 CD2 99.71
A LEU H 22 -39.0 -78.3 N 106.65 CA 88.26 C 87.07 O 82.92 CB 83.49 CG 94.52 CD1 81.0 CD2 77.42
A ALA H 42 -38.5 -25.3 N 83.75 CA 85.37 C 80.39 O 65.96 CB 88.89
A TYR H 33 -88.3 -48.0 N 90.25 CA 105.4 C 110.65 O 109.7 CB 96.59 CG 101.97 CD1 101.68 CD2 108.61 CE1 103.75 CE2 108.24 CZ 108.54 OH 93.88
A ALA H 0 -64.7 -49.2 N 114.34 CA 116.66 C 121.21 O 115.11 CB 115.87
A GLN T 93 -50.1 -33.6 N 122.39 CA 120.64 C 122.22 O 140.96 CB 118.38 CG 134.51 CD 139.93 OE1 135.88 NE2 139.41
A ARG T 186 -94.8 -0.1 N 111.65 CA 112.06 C 111.61 O 92.19 CB 124.93 CG 136.78 CD 142.82 NE 158.01 CZ 161.04 NH1 164.24 NH2 158.22
A THR T 84 -119.5 2.5 N 126.52 CA 143.36 C 153.78 O 155.29 CB 141.03 OG1 132.78 CG2 125.2
A GLN S 30 -113.4 -4.8 N 161.84 CA 162.6 C 161.72 O 164.9 CB 163.03 CG 165.64 CD 172.72 OE1 176.29 NE2 170.25
A GLY S 83 72.1 -5.6 N 155.3 CA 144.3 C 141.18 O 147.72
A GLY S 32 177.9 -172.8 N 128.11 CA 121.17 C 120.33 O 119.06
A ALA - 79 -39.4 163.8 N 126.29 CA 130.51 C 134.3 O 124.66 CB 125.44
A LEU - 31 -122.5 151.5 N 145.79 CA 152.72 C 148.84 O 137.87 CB 162.55 CG 165.29 CD1 162.01 CD2 161.28
A SER - 14 -100.8 118.7 N 143.53 CA 133.99 C 130.27 O 115.99 CB 132.06 OG 117.84
A LEU - 58 -128.3 153.3 N 130.65 CA 128.98 C 131.21 O 129.6 CB 117.67 CG 114.96 CD1 113.23 CD2 92.12
A GLN - 50 -94.1 163.4 N 128.72 CA 126.52 C 128.1 O 124.01 CB 131.05 CG 124.8 CD 124.47 OE1 94.47 NE2 135.4
A PRO - 123 -56.5 100.7 N 136.43 CA 148.62 C 159.55 O 169.54 CB 143.88 CG 135.37 CD 133.52
A PHE - 46 -31.8 126.0 N 159.46 CA 153.79 C 157.06 O 148.25 CB 153.04 CG 152.16 CD1 148.19 CD2 149.32 CE1 139.23 CE2 150.42 CZ 147.89
A ARG E 116 -113.2 120.8 N 164.38 CA 167.42 C 166.28 O 153.38 CB 166.48 CG 165.67 CD 165.49 NE 175.15 CZ 176.31 NH1 171.71 NH2 175.12
A PHE E 102 -89.7 115.1 N 170.15 CA 171.59 C 169.97 O 173.44 CB 178.7 CG 183.09 CD1 183.78 CD2 184.03 CE1 186.56 CE2 180.46 CZ 186.15
A TYR - 8 -109.6 141.3 N 160.41 CA 146.49 C 142.56 O 138.29 CB 135.58 CG 131.24 CD1 131.45 CD2 138.24 CE1 134.47 CE2 133.57 CZ 130.26 OH 123.74
A ASP - 82 -113.7 96.9 N 140.7 CA 140.36 C 132.78 O 131.85 CB 149.88 CG 160.36 OD1 168.6 OD2 167.44
A PRO G 17 -55.7 -11.2 N 123.1 CA 114.33 C 104.01 O 95.53 CB 106.94 CG 113.47 CD 109.45
A GLY G 30 -76.7 0.0 N 93.05 CA 98.75 C 107.52 O 104.72
A ALA G 54 -106.9 6.2 N 116.68 CA 123.31 C 128.97 O 123.75 CB 124.4
A PHE S 56 -127.0 -169.8 N 136.71 CA 135.28 C 133.82 O 140.8 CB 127.65 CG 125.32 CD1 125.31 CD2 127.93 CE1 133.8 CE2 134.07 CZ 137.75
A ARG B 73 -60.9 157.4 N 109.09 CA 101.15 C 88.69 O 84.35 CB 115.13 CG 130.74 CD 142.38 NE 155.54 CZ 163.92 NH1 167.87 NH2 167.1
A LEU - 2 -166.7 83.3 N 68.4 CA 67.95 C 59.36 O 65.9 CB 71.72 CG 67.08 CD1 83.42 CD2 60.24
A PRO - 24 -52.5 165.7 N 60.19 CA 59.21 C 50.1 O 31.17 CB 86.78 CG 95.15 CD 84.15
A GLU H 44 -59.4 -56.0 N 57.01 CA 73.7 C 81.44 O 80.76 CB 88.61 CG 112.66 CD 128.52 OE1 138.98 OE2 139.02
A ALA H 37 -55.0 -44.6 N 92.21 CA 88.12 C 81.92 O 75.72 CB 79.03
A THR H 0 -54.3 -57.2 N 57.35 CA 46.85 C 66.49 O 77.88 CB 36.95 OG1 25.88 CG2 10.71
A LEU H 10 -47.2 -41.0 N 73.88 CA 71.4 C 71.07 O 79.35 CB 90.29 CG 97.95 CD1 78.66 CD2 86.16
A ARG H 115 -69.1 -48.3 N 59.91 CA 77.14 C 83.59 O 86.46 CB 80.58 CG 99.76 CD 107.06 NE 115.85 CZ 123.11 NH1 119.07 NH2 113.06
A ALA H 12 -57.2 -51.3 N 84.36 CA 79.9 C 76.77 O 87.43 CB 81.54
A LEU T 1 -73.2 -1.9 N 59.48 CA 54.1 C 73.0 O 81.26 CB 43.66 CG 38.97 CD1 47.92 CD2 47.47
A GLU T 33 55.3 44.6 N 79.8 CA 79.48 C 86.83 O 83.57 CB 83.12 CG 83.6 CD 93.78 OE1 79.94 OE2 94.9
A VAL S 1 -63.9 -67.7 N 92.69 CA 89.38 C 89.17 O 93.59 CB 86.23 CG1 87.07 CG2 84.07
A PHE S 52 -94.2 -52.5 N 83.27 CA 80.81 C 85.1 O 93.34 CB 61.71 CG 55.04 CD1 53.11 CD2 56.77 CE1 69.34 CE2 47.96 CZ 48.51
A GLU S 102 -100.8 154.3 N 87.8 CA 97.4 C 109.99 O 115.0 CB 98.77 CG 132.69 CD 146.76 OE1 156.25 OE2 138.97
A PRO - 50 -97.3 138.2 N 112.95 CA 114.45 C 117.79 O 107.11 CB 114.56 CG 113.36 CD 115.51
A LEU S 92 -57.1 -61.4 N 121.53 CA 120.25 C 123.98 O 124.25 CB 101.21 CG 109.35 CD1 119.64 CD2 105.94
A ARG S 234 -146.6 125.8 N 132.14 CA 148.53 C 152.62 O 155.21 CB 153.8 CG 161.5 CD 167.44 NE 180.12 CZ 184.59 NH1 186.28 NH2 187.99
A GLY S 36 130.8 -142.8 N 149.64 CA 137.37 C 134.81 O 139.05
A GLN S 143 -126.4 -51.1 N 127.29 CA 121.93 C 110.68 O 115.83 CB 142.57 CG 154.21 CD 167.32 OE1 178.85 NE2 167.14
A ASP - 40 -74.9 165.6 N 94.69 CA 90.98 C 76.3 O 73.15 CB 100.79 CG 100.4 OD1 110.35 OD2 87.4
A THR - 9 -155.6 168.7 N 54.51 CA 54.74 C 54.46 O 61.39 CB 60.62 OG1 82.51 CG2 60.72
A LEU H 0 -59.0 -31.9 N 69.68 CA 76.14 C 88.61 O 80.2 CB 66.49 CG 74.11 CD1 70.76 CD2 91.84
A PHE H 21 -65.1 -59.1 N 99.22 CA 107.65 C 106.86 O 108.88 CB 111.81 CG 118.03 CD1 122.99 CD2 109.59 CE1 118.46 CE2 111.65 CZ 116.23
A SER H 45 -47.0 -54.0 N 91.81 CA 84.56 C 80.09 O 73.0 CB 76.06 OG 92.8
A VAL H 5 -55.4 -34.0 N 85.13 CA 94.61 C 102.06 O 100.88 CB 95.47 CG1 70.94 CG2 87.83
A LEU H 1 -92.0 -19.8 N 102.65 CA 110.98 C 115.64 O 127.6 CB 103.84 CG 100.2 CD1 106.14 CD2 91.84
A ASP - 45 -59.1 87.2 N 109.81 CA 111.59 C 115.59 O 108.22 CB 109.0 CG 105.11 OD1 103.48 OD2 101.57
A GLU - 44 -131.7 13.1 N 122.18 CA 121.84 C 133.08 O 134.21 CB 107.56 CG 105.24 CD 107.16 OE1 125.36 OE2 83.35
A THR - 20 -72.5 142.2 N 143.21 CA 147.26 C 147.06 O 142.83 CB 147.69 OG1 163.91 CG2 147.99
A ARG - 95 -99.7 -8.1 N 142.78 CA 140.92 C 137.69 O 145.2 CB 139.56 CG 148.27 CD 153.79 NE 150.28 CZ 147.42 NH1 134.18 NH2 144.88
A THR S 32 -127.1 147.6 N 122.25 CA 116.95 C 119.89 O 127.79 CB 112.19 OG1 96.76 CG2 109.75
A ALA H 63 -56.3 -37.5 N 116.94 CA 107.57 C 108.9 O 108.97 CB 84.26
A PRO H 42 -60.9 -52.7 N 118.07 CA 128.35 C 133.28 O 138.44 CB 123.14 CG 126.68 CD 118.78
A GLY H 0 -54.1 -54.1 N 133.17 CA 122.83 C 111.53 O 107.61
A ARG H 108 -51.9 -38.7 N 99.98 CA 99.91 C 103.72 O 107.63 CB 82.73 CG 83.85 CD 82.04 NE 108.91 CZ 116.4 NH1 107.36 NH2 123.22
A ARG H 81 -70.5 -29.3 N 111.6 CA 115.23 C 109.12 O 110.12 CB 127.93 CG 133.79 CD 141.38 NE 146.5 CZ 150.18 NH1 155.95 NH2 147.6
A LEU H 39 -74.7 -46.6 N 101.38 CA 110.41 C 113.65 O 104.71 CB 109.52 CG 110.49 CD1 102.1 CD2 113.87
A LEU H 4 -58.3 -53.1 N 117.55 CA 110.17 C 106.03 O 111.59 CB 105.23 CG 98.09 CD1 99.36 CD2 76.08
A GLN H 53 -50.0 -36.7 N 97.89 CA 91.44 C 88.22 O 102.05 CB 81.8 CG 94.78 CD 111.71 OE1 132.18 NE2 106.71
A SER H 29 -62.3 -58.5 N 92.8 CA 106.66 C 114.41 O 122.05 CB 106.38 OG 94.75
A TRP H 29 -46.5 -41.4 N 112.26 CA 107.6 C 99.95 O 92.47 CB 105.17 CG 99.35 CD1 101.22 CD2 95.97 NE1 107.22 CE2 100.82 CE3 89.18 CZ2 96.74 CZ3 77.66 CH2 96.27
A LEU H 2 -62.8 -61.3 N 84.17 CA 82.75 C 87.92 O 92.32 CB 59.58 CG 63.97 CD1 33.3 CD2 53.78
A ARG H 13 -57.3 -13.0 N 85.1 CA 74.91 C 82.76 O 88.78 CB 71.3 CG 77.59 CD 85.07 NE 112.96 CZ 123.65 NH1 127.86 NH2 117.66
A HIS S 16 -142.4 82.3 N 78.21 CA 91.44 C 92.61 O 99.08 CB 106.27 CG 120.8 ND1 132.47 CD2 121.86 CE1 130.48 NE2 106.87
A PRO - 0 -65.4 169.8 N 96.14 CA 99.96 C 99.65 O 108.22 CB 112.64 CG 110.53 CD 107.53
A LEU - 12 -97.6 -177.5 N 98.82 CA 101.93 C 95.27 O 100.83 CB 116.04 CG 126.11 CD1 117.75 CD2 115.43
A LEU - 44 -137.0 -56.7 N 84.32 CA 87.94 C 94.82 O 106.43 CB 78.67 CG 77.76 CD1 78.35 CD2 82.44
A ASP - 118 -67.4 143.7 N 104.45 CA 110.19 C 115.0 O 121.05 CB 105.44 CG 109.84 OD1 109.74 OD2 111.49
A ARG H 112 -70.6 -38.6 N 114.57 CA 118.74 C 117.73 O 108.87 CB 130.75 CG 141.17 CD 144.73 NE 141.11 CZ 141.2 NH1 136.49 NH2 136.37
A GLY H 55 -45.9 -51.7 N 119.92 CA 118.31 C 112.7 O 112.66
A PRO H 57 -69.1 -44.8 N 106.28 CA 105.81 C 108.13 O 100.75 CB 107.45 CG 98.19 CD 103.03
A LEU H 0 -56.9 -51.6 N 110.14 CA 116.19 C 118.68 O 113.93 CB 124.26 CG 124.76 CD1 132.97 CD2 112.03
A GLU H 31 -50.6 -53.8 N 119.55 CA 120.08 C 124.15 O 120.7 CB 116.63 CG 122.88 CD 125.69 OE1 119.17 OE2 121.12
A ALA H 49 -46.3 -42.3 N 126.93 CA 120.24 C 116.76 O 112.76 CB 109.04
A ARG H 38 -72.3 -45.4 N 118.27 CA 119.07 C 121.68 O 116.51 CB 117.24 CG 107.94 CD 115.62 NE 120.16 CZ 125.28 NH1 121.56 NH2 127.02
A LEU H 0 -66.5 -29.8 N 118.86 CA 122.88 C 120.29 O 116.4 CB 125.47 CG 135.79 CD1 143.82 CD2 127.74
A ASP H 89 -66.3 -48.1 N 123.89 CA 128.8 C 128.45 O 126.74 CB 134.78 CG 145.01 OD1 150.77 OD2 143.53
A ARG H 103 -60.3 -53.8 N 131.7 CA 129.49 C 122.62 O 124.07 CB 143.26 CG 150.73 CD 157.18 NE 166.34 CZ 165.82 NH1 167.02 NH2 159.85
A VAL H 0 -54.6 -37.4 N 109.33 CA 108.2 C 109.22 O 94.93 CB 103.75 CG1 100.01 CG2 91.87
A GLU H 27 -67.5 -17.6 N 119.39 CA 126.58 C 128.48 O 133.89 CB 133.83 CG 142.68 CD 148.51 OE1 149.21 OE2 150.88
A GLY H 30 -66.3 -65.8 N 128.34 CA 125.29 C 124.41 O 121.28
A PHE H 18 -63.8 0.3 N 116.82 CA 114.24 C 108.98 O 106.94 CB 123.48 CG 136.17 CD1 137.43 CD2 136.47 CE1 136.42 CE2 139.4 CZ 138.62
A VAL H 47 -98.0 -39.1 N 107.5 CA 117.21 C 118.48 O 113.02 CB 121.78 CG1 114.11 CG2 120.03
A ARG H 166 -83.6 1.1 N 126.58 CA 135.37 C 135.97 O 132.06 CB 137.05 CG 136.9 CD 144.12 NE 153.64 CZ 152.62 NH1 146.97 NH2 147.69
A GLU T 106 -130.4 51.1 N 136.81 CA 136.1 C 132.77 O 122.97 CB 139.27 CG 142.42 CD 147.79 OE1 151.55 OE2 147.71
A GLY H 30 -30.2 -63.2 N 131.43 CA 134.09 C 133.39 O 123.23
A ALA H 81 -51.6 -47.7 N 136.19 CA 136.48 C 137.88 O 136.04 CB 130.62
A LEU H 96 -53.9 -44.0 N 135.86 CA 139.5 C 142.21 O 138.66 CB 136.91 CG 135.36 CD1 127.39 CD2 125.7
A ARG H 10 -70.2 -36.3 N 142.58 CA 138.92 C 142.11 O 137.22 CB 122.38 CG 92.52 CD 79.86 NE 66.09 CZ 79.35 NH1 68.17 NH2 58.88
A GLU H 64 -54.9 -45.5 N 142.85 CA 142.44 C 140.67 O 141.37 CB 145.84 CG 161.58 CD 173.63 OE1 179.15 OE2 181.86
A GLY H 23 -57.7 -75.7 N 134.03 CA 138.31 C 133.28 O 130.09
A VAL H 33 -45.4 -42.9 N 124.19 CA 120.02 C 117.22 O 99.12 CB 123.38 CG1 110.59 CG2 115.04
A ARG H 7 -59.9 -50.5 N 129.32 CA 135.39 C 134.53 O 123.73 CB 131.94 CG 126.03 CD 128.93 NE 131.62 CZ 131.09 NH1 114.34 NH2 125.73
A ARG H 152 -64.5 -32.0 N 137.02 CA 138.05 C 141.51 O 144.54 CB 133.76 CG 139.44 CD 150.79 NE 166.5 CZ 172.02 NH1 172.15 NH2 170.89
A LEU H 135 -74.6 -48.4 N 139.14 CA 137.54 C 141.04 O 143.33 CB 124.56 CG 128.17 CD1 122.23 CD2 124.07
A LEU H 38 -58.7 -21.0 N 143.49 CA 138.94 C 134.21 O 119.03 CB 142.6 CG 145.68 CD1 137.88 CD2 155.69
A TYR - 214 -60.7 360.0 N 136.9 CA 139.19 C 134.85 O 134.02 CB 140.43 CG 139.33 CD1 137.5 CD2 136.26 CE1 124.51 CE2 127.15 CZ 122.09 OH 110.74
A GLU - 180 360.0 0.9 N 130.54 CA 137.36 C 140.92 O 143.02 CB 135.0 CG 133.73 CD 132.63 OE1 137.55 OE2 121.07
A LEU - 56 -107.4 5.0 N 144.27 CA 148.91 C 148.05 O 144.65 CB 153.4 CG 147.51 CD1 142.13 CD2 137.83
A GLY S 76 49.7 66.5 N 146.99 CA 147.54 C 147.39 O 150.93
A ARG - 161 -157.7 7.0 N 139.54 CA 136.36 C 133.24 O 131.11 CB 135.64 CG 138.25 CD 154.85 NE 164.72 CZ 170.39 NH1 175.45 NH2 167.63
A ALA - 81 -75.3 82.5 N 130.79 CA 131.03 C 136.03 O 135.06 CB 122.37
A SER - 55 -49.7 174.1 N 142.91 CA 147.48 C 146.93 O 144.97 CB 148.65 OG 156.49
A PRO H 108 -67.1 -41.8 N 145.81 CA 147.1 C 144.3 O 143.19 CB 151.0 CG 150.54 CD 142.32
A LYS H 172 -54.8 -42.9 N 137.97 CA 137.02 C 139.95 O 133.67 CB 127.63 CG 125.47 CD 120.13 CE 118.7 NZ 120.37
A ASP H 91 -55.1 -41.2 N 142.26 CA 139.92 C 140.97 O 145.13 CB 135.24 CG 135.52 OD1 136.78 OD2 135.34
A LEU H 115 -64.6 -36.7 N 140.86 CA 140.23 C 138.91 O 127.62 CB 144.84 CG 143.89 CD1 145.25 CD2 136.65
A GLY H 66 -51.5 -47.5 N 138.97 CA 138.26 C 140.67 O 136.1
A ALA H 94 -65.3 -55.0 N 145.15 CA 142.09 C 138.34 O 132.63 CB 124.01
A LEU - 176 -57.6 360.0 N 131.76 CA 122.78 C 120.38 O 121.31 CB 112.67 CG 114.4 CD1 99.89 CD2 104.2
A ARG - 118 360.0 -104.9 N 124.92 CA 121.27 C 119.22 O 112.9 CB 122.57 CG 128.12 CD 120.92 NE 117.29 CZ 121.98 NH1 118.95 NH2 116.7
A GLU H 135 -0.8 -77.9 N 119.54 CA 129.07 C 136.81 O 144.78 CB 127.38 CG 137.73 CD 141.68 OE1 147.27 OE2 141.99
A ALA H 61 -46.8 -53.0 N 138.64 CA 138.54 C 137.72 O 131.9 CB 141.34
A ALA H 42 -49.5 -44.6 N 138.94 CA 132.15 C 121.17 O 110.8 CB 131.94
A ARG H 129 -62.1 -32.4 N 118.22 CA 121.55 C 125.03 O 135.37 CB 111.55 CG 116.15 CD 126.79 NE 145.55 CZ 152.39 NH1 154.3 NH2 146.75
A ILE H 86 -91.4 -2.5 N 113.47 CA 101.18 C 107.06 O 92.91 CB 90.66 CG1 82.73 CG2 77.06 CD1 94.1
A LEU H 81 -93.0 -49.7 N 120.28 CA 136.49 C 139.7 O 143.44 CB 146.59 CG 160.03 CD1 166.6 CD2 160.31
A ALA H 4 -59.4 -34.6 N 140.99 CA 131.28 C 120.68 O 113.86 CB 131.95
A GLU H 63 -62.4 -40.4 N 119.22 CA 120.15 C 121.81 O 112.67 CB 122.27 CG 131.46 CD 136.9 OE1 132.24 OE2 133.55
A LEU H 40 -82.0 -29.7 N 131.94 CA 136.34 C 135.27 O 138.78 CB 134.47 CG 129.84 CD1 125.71 CD2 126.3
A ASP H 0 -68.2 -14.3 N 128.59 CA 128.04 C 128.63 O 116.46 CB 133.2 CG 135.9 OD1 137.86 OD2 127.27
A VAL H 3 -107.0 -36.1 N 135.46 CA 137.68 C 137.49 O 147.98 CB 143.52 CG1 143.45 CG2 129.1
A TYR H 12 -49.5 -34.2 N 135.12 CA 142.34 C 146.33 O 134.89 CB 145.33 CG 151.94 CD1 158.91 CD2 157.22 CE1 164.01 CE2 166.19 CZ 166.96 OH 170.35
A ALA H 0 -86.0 -43.0 N 155.66 CA 160.1 C 158.83 O 158.36 CB 157.32
A ALA H 1 -47.4 -56.6 N 156.49 CA 148.38 C 144.91 O 140.88 CB 146.84
A LEU H 5 -51.0 -54.4 N 138.22 CA 129.99 C 131.78 O 133.46 CB 119.61 CG 115.82 CD1 90.04 CD2 108.61
A ALA H 0 -58.5 -28.1 N 128.76 CA 117.57 C 108.54 O 96.35 CB 121.38
A GLU H 20 -76.9 -22.3 N 102.99 CA 111.32 C 124.3 O 126.22 CB 98.79 CG 68.44 CD 75.98 OE1 43.18 OE2 49.87
A VAL H 0 -82.1 -49.2 N 133.65 CA 129.43 C 124.5 O 119.01 CB 119.55 CG1 115.48 CG2 124.68
A ALA H 9 -62.7 -16.0 N 120.3 CA 118.68 C 119.54 O 128.2 CB 106.41
A VAL H 74 -97.5 -47.8 N 119.01 CA 125.06 C 126.71 O 124.82 CB 126.42 CG1 134.23 CG2 125.27
A ARG H 136 -69.0 -38.1 N 122.34 CA 127.1 C 130.58 O 127.31 CB 126.33 CG 141.92 CD 145.85 NE 168.35 CZ 177.77 NH1 178.47 NH2 181.58
A TYR T 69 -103.4 3.8 N 131.05 CA 117.07 C 104.99 O 90.89 CB 115.37 CG 108.89 CD1 114.08 CD2 104.96 CE1 110.74 CE2 96.75 CZ 102.28 OH 78.79
A GLY T 34 51.9 70.4 N 97.34 CA 97.23 C 100.72 O 99.49
A TYR - 16 -99.4 -178.0 N 106.68 CA 105.91 C 113.22 O 111.78 CB 91.21 CG 84.42 CD1 81.9 CD2 76.85 CE1 77.0 CE2 71.08 CZ 68.42 OH 61.85
A VAL B 33 -140.5 157.8 N 120.61 CA 128.34 C 133.1 O 131.77 CB 129.06 CG1 125.12 CG2 132.9
A ARG - 21 -82.3 128.8 N 139.12 CA 141.76 C 135.96 O 131.88 CB 150.52 CG 165.37 CD 172.12 NE 177.36 CZ 179.61 NH1 184.19 NH2 176.63
A PRO - 1 -92.5 116.1 N 128.6 CA 118.81 C 111.39 O 102.39 CB 126.73 CG 129.99 CD 129.69
A ARG E 102 -77.7 148.1 N 114.57 CA 122.31 C 123.47 O 118.62 CB 128.55 CG 143.27 CD 154.02 NE 145.3 CZ 133.16 NH1 131.81 NH2 121.09
A PHE E 14 -98.2 173.8 N 130.62 CA 132.68 C 136.59 O 135.86 CB 126.22 CG 126.36 CD1 121.01 CD2 119.21 CE1 108.21 CE2 107.84 CZ 99.83
A GLY E 32 165.6 -149.9 N 139.07 CA 141.41 C 145.71 O 147.62
A ASP S 79 -106.8 -17.1 N 150.57 CA 155.09 C 150.32 O 144.46 CB 161.15 CG 161.55 OD1 156.7 OD2 161.91
A ARG S 147 -106.2 146.0 N 143.43 CA 137.47 C 132.21 O 133.29 CB 137.56 CG 148.24 CD 155.96 NE 156.27 CZ 147.26 NH1 144.96 NH2 136.08
A LEU E 1 -105.7 107.7 N 122.86 CA 103.48 C 97.64 O 97.75 CB 88.13 CG 69.91 CD1 65.45 CD2 34.47
A GLN E 57 -128.9 121.0 N 90.8 CA 93.16 C 95.41 O 106.57 CB 91.39 CG 109.75 CD 114.08 OE1 117.47 NE2 100.89
A ILE E 6 -117.6 96.2 N 96.03 CA 91.99 C 90.72 O 91.09 CB 94.87 CG1 92.56 CG2 97.17 CD1 102.09
A ARG E 122 -74.2 100.0 N 84.03 CA 84.88 C 90.31 O 104.43 CB 98.17 CG 114.7 CD 117.0 NE 130.88 CZ 137.3 NH1 133.45 NH2 142.11
A ALA E 15 55.3 66.2 N 95.52 CA 101.02 C 90.83 O 89.98 CB 110.16
A GLY E 0 -85.4 178.0 N 82.45 CA 74.43 C 65.74 O 56.29
A ARG - 42 -152.3 163.5 N 46.86 CA 48.44 C 57.51 O 60.91 CB 72.23 CG 85.49 CD 72.63 NE 87.48 CZ 90.95 NH1 103.63 NH2 100.96
A HIS - 7 -93.4 93.3 N 50.02 CA 71.5 C 86.9 O 88.68 CB 67.16 CG 63.95 ND1 68.52 CD2 48.59 CE1 59.95 NE2 35.92
A PRO H 0 -43.9 -32.0 N 85.48 CA 73.37 C 69.13 O 74.88 CB 58.54 CG 64.24 CD 75.19
A VAL H 3 -69.2 -67.5 N 44.5 CA 70.73 C 80.25 O 78.74 CB 76.52 CG1 64.72 CG2 73.42
A VAL H 55 -65.5 -23.2 N 95.57 CA 89.99 C 83.72 O 66.96 CB 94.64 CG1 91.62 CG2 90.76
A GLU H 8 -53.4 -38.4 N 78.73 CA 73.67 C 84.7 O 86.91 CB 54.66 CG 41.52 CD 78.35 OE1 83.01 OE2 58.61
A ARG T 78 -84.9 36.3 N 102.76 CA 103.23 C 104.8 O 107.85 CB 97.12 CG 102.54 CD 104.06 NE 116.46 CZ 123.87 NH1 120.84 NH2 120.01
A ARG T 111 -147.3 -6.3 N 111.92 CA 124.26 C 125.88 O 125.5 CB 139.25 CG 158.7 CD 164.88 NE 170.24 CZ 169.8 NH1 171.85 NH2 167.4
A THR S 101 -178.3 170.4 N 123.5 CA 115.78 C 111.82 O 108.85 CB 118.39 OG1 110.69 CG2 113.04
A GLU - 195 -57.6 142.1 N 109.38 CA 108.08 C 103.73 O 95.44 CB 101.84 CG 97.69 CD 92.41 OE1 70.61 OE2 73.3
A PHE - 45 -133.4 103.9 N 97.89 CA 94.58 C 92.79 O 69.99 CB 87.51 CG 84.08 CD1 89.01 CD2 83.8 CE1 84.97 CE2 82.39 CZ 87.35
A VAL - 59 -69.0 109.8 N 90.57 CA 79.64 C 61.21 O 62.63 CB 85.05 CG1 73.73 CG2 81.92
A PRO - 51 -60.8 -179.6 N 27.0 CA 45.29 C 52.84 O 62.15 CB 44.7 CG 26.9 CD 34.55
A ASN E 14 -151.4 176.8 N 68.97 CA 74.11 C 82.79 O 83.87 CB 78.52 CG 100.99 OD1 113.63 ND2 102.86
A ASP E 93 -131.2 159.7 N 90.65 CA 104.68 C 100.68 O 102.49 CB 114.67 CG 118.04 OD1 127.98 OD2 96.21
A LEU E 8 -163.5 138.3 N 92.91 CA 88.49 C 91.93 O 94.52 CB 75.13 CG 80.32 CD1 89.61 CD2 91.45
A GLU E 116 -137.1 130.2 N 95.11 CA 105.51 C 108.57 O 113.56 CB 104.05 CG 122.34 CD 138.68 OE1 146.97 OE2 137.34
A ALA S 25 -168.3 75.3 N 107.36 CA 105.7 C 102.72 O 93.59 CB 105.68
A HIS S 35 62.4 27.4 N 108.42 CA 115.11 C 121.4 O 132.86 CB 100.38 CG 93.34 ND1 95.4 CD2 95.59 CE1 92.66 NE2 92.4
A GLU - 33 -101.7 175.4 N 112.3 CA 104.49 C 94.63 O 102.78 CB 116.29 CG 130.4 CD 125.59 OE1 119.22 OE2 111.54
A LEU E 2 -113.0 117.7 N 70.03 CA 60.91 C 64.96 O 83.93 CB 49.1 CG 66.44 CD1 55.02 CD2 67.04
A VAL E 0 -115.2 103.8 N 50.91 CA 45.91 C 49.67 O 60.37 CB 53.45 CG1 60.43 CG2 71.68
A LEU E 2 -70.6 153.9 N 37.31 CA 43.61 C 38.98 O 28.19 CB 60.79 CG 69.83 CD1 66.28 CD2 83.25
A ILE E 0 -134.8 103.0 N 6.05 CA 29.06 C 39.04 O 36.71 CB 48.38 CG1 44.41 CG2 31.22 CD1 35.37
A THR E 2 -103.0 -162.8 N 61.86 CA 63.69 C 76.33 O 91.52 CB 50.28 OG1 79.36 CG2 56.07
A GLY S 12 100.1 -174.6 N 72.5 CA 64.43 C 69.87 O 83.96
A PRO - 9 -84.7 176.1 N 74.32 CA 77.18 C 82.71 O 85.24 CB 49.49 CG 78.03 CD 75.71
A ASN S 25 -85.1 -165.5 N 94.79 CA 99.09 C 96.3 O 113.44 CB 110.89 CG 121.54 OD1 115.86 ND2 112.86
A ALA S 0 -130.7 16.3 N 72.43 CA 84.36 C 97.77 O 95.4 CB 90.51
A GLY S 17 106.4 -18.3 N 103.07 CA 102.54 C 99.46 O 108.5
A LYS H 4 -37.2 -74.5 N 88.41 CA 75.92 C 74.06 O 71.78 CB 67.1 CG 62.59 CD 66.32 CE 84.46 NZ 88.85
A SER H 28 -49.5 -67.0 N 70.57 CA 75.2 C 69.49 O 56.75 CB 78.17 OG 93.2
A THR H 42 -47.5 -31.5 N 52.58 CA 45.71 C 45.74 O 60.43 CB 43.06 OG1 65.39 CG2 39.46
A PHE H 5 -68.4 -32.8 N 35.4 CA 29.09 C 34.15 O 24.4 CB 43.86 CG 45.98 CD1 42.57 CD2 25.21 CE1 55.99 CE2 44.7 CZ 31.55
A LEU H 0 -70.3 -50.9 N 45.64 CA 67.83 C 74.77 O 78.66 CB 60.02 CG 56.41 CD1 40.24 CD2 30.81
A ARG H 45 -57.7 -54.3 N 69.9 CA 45.23 C 46.83 O 35.32 CB 28.43 CG 55.94 CD 60.83 NE 81.39 CZ 92.53 NH1 79.31 NH2 93.1
A GLN H 6 -40.4 -27.6 N 48.64 CA 58.72 C 60.98 O 78.18 CB 63.82 CG 73.05 CD 80.39 OE1 87.65 NE2 85.8
A THR H 5 -85.4 -46.6 N 47.13 CA 67.44 C 72.91 O 67.12 CB 75.78 OG1 67.22 CG2 63.14
A ALA H 0 -53.4 -57.3 N 81.49 CA 87.92 C 87.0 O 88.55 CB 81.23
A LEU H 0 -45.7 -60.7 N 68.76 CA 56.75 C 56.92 O 66.5 CB 30.68 CG 58.5 CD1 50.96 CD2 45.63
A ILE H 0 -46.3 -47.3 N 52.75 CA 56.19 C 57.54 O 74.63 CB 63.97 CG1 55.79 CG2 47.28 CD1 74.76
A ALA H 1 -56.2 -54.3 N 59.62 CA 71.81 C 68.25 O 60.37 CB 96.06
A LEU H 2 -58.8 -54.8 N 68.82 CA 66.63 C 72.81 O 75.85 CB 57.99 CG 56.53 CD1 57.64 CD2 50.29
A LEU H 0 -50.4 -35.3 N 66.49 CA 52.1 C 57.88 O 76.37 CB 41.17 CG 65.26 CD1 75.25 CD2 57.49
A ALA H 0 -75.1 -49.5 N 50.61 CA 62.07 C 75.69 O 85.41 CB 56.76
A GLN H 0 -69.9 -6.3 N 90.94 CA 94.5 C 98.03 O 105.71 CB 93.59 CG 94.29 CD 97.78 OE1 100.03 NE2 78.72
A VAL H 2 -95.4 -25.8 N 92.02 CA 91.3 C 96.17 O 109.81 CB 79.53 CG1 84.2 CG2 67.05
A GLY T 2 112.1 33.7 N 103.28 CA 109.02 C 112.27 O 117.66
A SER - 1 -125.8 170.4 N 101.2 CA 98.15 C 96.96 O 93.87 CB 89.34 OG 85.44
A PHE - 13 -86.5 152.1 N 99.91 CA 105.06 C 106.35 O 98.9 CB 105.6 CG 103.81 CD1 95.48 CD2 107.46 CE1 96.5 CE2 106.48 CZ 98.87
A VAL B 0 -111.8 165.9 N 105.23 CA 99.27 C 87.56 O 92.25 CB 100.26 CG1 98.43 CG2 92.49
A PRO S 0 -76.5 90.0 N 76.17 CA 81.56 C 84.28 O 78.59 CB 77.57 CG 82.65 CD 77.93
A ALA S 11 -155.7 -151.1 N 90.87 CA 90.93 C 95.17 O 94.05 CB 81.15
A GLU S 112 -128.7 -59.3 N 94.84 CA 94.22 C 90.66 O 102.23 CB 103.72 CG 110.39 CD 115.92 OE1 102.71 OE2 115.86
A GLU E 78 -133.3 161.6 N 83.44 CA 92.43 C 101.62 O 103.92 CB 78.27 CG 97.23 CD 112.15 OE1 126.9 OE2 91.87
A ALA E 1 -168.9 115.4 N 108.39 CA 106.92 C 106.84 O 115.8 CB 93.05
A HIS E 58 -111.1 113.2 N 108.56 CA 114.12 C 119.07 O 126.23 CB 105.17 CG 104.99 ND1 106.5 CD2 111.98 CE1 114.31 NE2 115.75
A LEU E 3 -116.5 155.1 N 113.19 CA 105.02 C 109.66 O 121.86 CB 103.68 CG 108.86 CD1 102.71 CD2 114.72
A PRO E 4 -92.7 -179.4 N 108.48 CA 107.91 C 107.97 O 99.45 CB 106.36 CG 110.05 CD 111.75
A LEU - 42 -97.3 79.3 N 108.78 CA 114.51 C 115.23 O 117.69 CB 119.37 CG 115.51 CD1 119.96 CD2 100.76
A PHE - 2 -50.4 135.7 N 108.2 CA 99.1 C 96.58 O 92.35 CB 99.34 CG 98.36 CD1 94.09 CD2 93.08 CE1 83.93 CE2 88.43 CZ 94.75
A ASP S 33 -83.9 -33.7 N 94.57 CA 96.58 C 92.31 O 95.94 CB 103.75 CG 120.7 OD1 136.76 OD2 124.56
A GLY B 0 -153.9 161.4 N 79.35 CA 73.36 C 63.01 O 73.3
A ILE E 1 -132.3 84.8 N 41.6 CA 40.48 C 57.08 O 21.24 CB 40.58 CG1 47.38 CG2 60.27 CD1 54.23
A TYR E 9 -90.3 147.9 N 73.83 CA 66.51 C 61.39 O 59.51 CB 55.58 CG 55.66 CD1 34.04 CD2 52.4 CE1 41.18 CE2 51.86 CZ 65.65 OH 83.87
A THR - 6 -125.9 -169.7 N 44.08 CA 55.88 C 63.51 O 75.29 CB 63.87 OG1 82.28 CG2 58.94
A ARG - 0 -179.9 68.0 N 67.76 CA 66.39 C 60.52 O 57.92 CB 33.34 CG 32.38 CD 22.28 NE 28.55 CZ 53.9 NH1 72.55 NH2 38.14
A ILE - 13 -116.8 152.3 N 57.75 CA 36.01 C 30.8 O 62.47 CB 17.49 CG1 22.51 CG2 13.14 CD1 59.54
A GLY - 26 36.3 -146.0 N 29.64 CA 50.69 C 63.96 O 44.87
A ALA - 120 63.0 360.0 N 77.7 CA 86.83 C 87.94 O 74.21 CB 83.12
A GLY - 124 360.0 -107.5 N 113.21 CA 110.41 C 113.96 O 113.49
A LYS - 116 -88.3 -175.2 N 112.35 CA 107.3 C 99.88 O 96.08 CB 109.95 CG 113.06 CD 115.06 CE 106.15 NZ 109.85
A SER - 21 -114.7 160.5 N 86.74 CA 71.65 C 60.3 O 34.18 CB 89.75 OG 114.45
A THR H 78 -40.5 -49.6 N 31.9 CA 42.13 C 68.5 O 74.79 CB 59.4 OG1 56.33 CG2 49.85
A PHE H 11 -50.6 -65.0 N 71.93 CA 70.11 C 63.54 O 67.49 CB 78.84 CG 77.03 CD1 67.28 CD2 75.5 CE1 78.24 CE2 76.15 CZ 78.99
A VAL H 58 -40.4 -65.3 N 70.02 CA 54.72 C 50.85 O 40.93 CB 47.15 CG1 33.17 CG2 28.17
A GLU H 8 -50.0 -36.9 N 46.14 CA 58.44 C 57.89 O 58.77 CB 53.51 CG 75.57 CD 93.85 OE1 85.86 OE2 78.39
A GLU H 73 -44.8 -41.4 N 74.34 CA 83.32 C 81.36 O 77.57 CB 84.68 CG 108.3 CD 106.69 OE1 110.76 OE2 117.69
A GLU H 37 -53.1 -58.4 N 65.23 CA 61.38 C 61.56 O 55.52 CB 73.61 CG 93.02 CD 103.8 OE1 107.16 OE2 105.28
A VAL H 1 -58.0 -40.9 N 59.67 CA 48.18 C 52.79 O 45.41 CB 48.96 CG1 51.94 CG2 42.71
A ALA H 5 -47.8 -55.8 N 39.95 CA 47.04 C 59.22 O 34.8 CB 52.12
A LEU H 89 -50.0 -56.2 N 64.75 CA 61.68 C 63.34 O 57.54 CB 56.42 CG 88.69 CD1 92.95 CD2 92.57
A ILE H 2 -48.4 -54.5 N 52.76 CA 58.0 C 67.25 O 65.02 CB 59.25 CG1 58.96 CG2 42.11 CD1 64.8
A LEU H 8 -58.5 -33.5 N 73.72 CA 64.82 C 69.54 O 65.38 CB 73.28 CG 78.32 CD1 59.31 CD2 74.97
A LYS T 123 -91.4 12.1 N 64.96 CA 76.77 C 75.63 O 72.6 CB 84.59 CG 89.1 CD 100.1 CE 88.6 NZ 73.05
A GLU T 98 -148.1 -26.8 N 73.29 CA 73.54 C 80.27 O 68.79 CB 66.71 CG 96.34 CD 104.84 OE1 121.01 OE2 95.97
A ALA - 7 -59.7 148.2 N 95.19 CA 89.44 C 92.32 O 88.95 CB 87.25
A THR - 43 -139.8 -174.6 N 99.2 CA 106.37 C 105.77 O 104.4 CB 105.87 OG1 104.97 CG2 95.34
A GLU T 108 -66.0 -8.4 N 103.28 CA 107.72 C 109.72 O 115.9 CB 109.43 CG 115.09 CD 122.77 OE1 124.34 OE2 133.21
A ASN T 63 -116.3 -13.2 N 101.2 CA 87.5 C 78.78 O 80.38 CB 96.95 CG 104.14 OD1 110.75 ND2 94.69
A SER - 0 -61.7 153.1 N 63.85 CA 81.38 C 79.52 O 88.57 CB 91.64 OG 107.37
A LEU E 1 -111.9 127.6 N 63.27 CA 75.98 C 83.21 O 91.61 CB 87.68 CG 103.61 CD1 98.38 CD2 104.1
A VAL E 0 -129.8 136.4 N 78.17 CA 64.22 C 64.6 O 54.94 CB 52.16 CG1 55.8 CG2 57.15
A LEU E 0 -122.1 117.9 N 46.63 CA 56.23 C 67.67 O 67.84 CB 51.13 CG 62.7 CD1 64.04 CD2 48.81
A LEU E 0 -115.2 148.6 N 66.72 CA 54.01 C 45.78 O 51.93 CB 58.86 CG 65.39 CD1 60.61 CD2 67.43
A ASP E 10 -139.7 111.7 N 25.09 CA 49.91 C 55.53 O 68.39 CB 33.4 CG 72.2 OD1 56.5 OD2 76.79
A GLU S 19 55.7 25.6 N 29.5 CA 34.37 C 44.79 O 23.08 CB 0.0 CG 15.01 CD 63.0 OE1 39.2 OE2 66.79
A VAL - 1 -48.9 129.6 N 42.73 CA 40.75 C 27.15 O 37.3 CB 51.66 CG1 57.17 CG2 32.41
A GLY S 2 79.3 58.0 N 48.57 CA 61.79 C 62.04 O 56.81
A ARG - 49 -121.1 -165.3 N 57.62 CA 53.94 C 42.53 O 45.79 CB 61.48 CG 91.77 CD 101.47 NE 113.41 CZ 111.21 NH1 105.7 NH2 104.62
A GLY S 19 44.0 58.6 N 34.83 CA 39.9 C 46.52 O 54.96
A THR S 22 -173.2 158.6 N 66.93 CA 59.44 C 67.78 O 64.82 CB 62.11 OG1 21.03 CG2 37.17
A SER - 8 -55.3 148.3 N 72.0 CA 57.1 C 66.12 O 57.24 CB 55.51 OG 28.37
A SER H 28 -20.0 -90.9 N 77.04 CA 79.77 C 77.29 O 71.45 CB 82.35 OG 70.52
A LEU H 70 -45.3 -66.4 N 65.56 CA 75.02 C 78.23 O 89.05 CB 80.62 CG 91.87 CD1 82.2 CD2 93.38
A ASP H 2 -33.5 -43.5 N 71.37 CA 64.84 C 61.59 O 46.98 CB 68.93 CG 82.66 OD1 78.26 OD2 60.6
A GLY H 0 -58.0 -75.7 N 65.68 CA 55.53 C 58.02 O 47.14
A VAL H 6 -53.2 -22.4 N 54.38 CA 45.42 C 40.75 O 33.49 CB 44.0 CG1 47.42 CG2 48.63
A ALA H 0 -67.8 -79.5 N 37.18 CA 45.55 C 63.04 O 64.64 CB 41.01
A ILE H 4 -35.7 -52.6 N 70.65 CA 61.28 C 60.03 O 50.56 CB 48.59 CG1 55.36 CG2 49.39 CD1 73.11
A ALA H 0 -40.9 -52.2 N 45.39 CA 57.46 C 61.45 O 68.96 CB 55.49
A THR H 11 -60.1 -47.0 N 65.88 CA 65.03 C 58.56 O 44.27 CB 75.38 OG1 64.39 CG2 88.26
A ALA H 2 -58.1 -58.8 N 45.72 CA 58.75 C 69.62 O 62.87 CB 48.77
A VAL H 0 -46.6 -50.2 N 80.5 CA 71.72 C 71.02 O 73.37 CB 67.55 CG1 69.48 CG2 41.92
A ALA H 2 -52.4 -75.6 N 53.69 CA 50.29 C 53.72 O 63.13 CB 39.54
A GLU H 34 -42.8 -42.5 N 57.51 CA 59.15 C 54.35 O 37.05 CB 76.51 CG 81.53 CD 94.68 OE1 92.35 OE2 109.86
A ALA H 23 -51.2 -52.3 N 52.68 CA 73.11 C 73.55 O 74.31 CB 67.5
A LEU H 1 -71.8 -44.2 N 62.26 CA 60.26 C 70.32 O 65.5 CB 58.36 CG 73.16 CD1 59.64 CD2 59.81
A HIS H 4 -46.9 -49.8 N 79.11 CA 78.88 C 76.86 O 72.26 CB 80.72 CG 93.66 ND1 93.04 CD2 102.27 CE1 95.88 NE2 104.36
A GLU H 119 -64.8 -31.5 N 76.72 CA 86.97 C 82.57 O 83.89 CB 103.4 CG 122.34 CD 131.93 OE1 132.04 OE2 123.2
A ARG H 87 -66.1 -20.6 N 83.69 CA 88.96 C 86.91 O 78.74 CB 86.06 CG 89.04 CD 81.5 NE 78.52 CZ 87.74 NH1 80.67 NH2 92.51
A ARG T 134 61.6 32.1 N 88.77 CA 86.55 C 77.86 O 64.61 CB 84.33 CG 99.36 CD 105.45 NE 120.61 CZ 123.63 NH1 127.86 NH2 123.91
A ALA - 2 -96.8 141.0 N 78.24 CA 81.78 C 84.92 O 83.63 CB 68.37
A TYR E 4 -55.5 104.0 N 85.41 CA 81.14 C 83.94 O 92.1 CB 82.78 CG 108.05 CD1 113.22 CD2 117.87 CE1 119.8 CE2 121.97 CZ 122.84 OH 119.0
A THR E 0 -121.6 119.5 N 73.13 CA 68.37 C 69.25 O 73.76 CB 66.1 OG1 75.76 CG2 84.74
A LEU E 0 -104.2 84.4 N 65.23 CA 56.38 C 55.95 O 49.73 CB 50.58 CG 62.72 CD1 73.09 CD2 72.96
A PHE E 0 -86.9 122.8 N 59.77 CA 61.23 C 51.44 O 47.7 CB 65.89 CG 56.82 CD1 45.21 CD2 41.43 CE1 54.32 CE2 66.8 CZ 66.48
A ALA E 1 -114.0 121.6 N 40.91 CA 51.82 C 62.63 O 50.95 CB 38.41
A THR - 5 -143.2 173.8 N 69.79 CA 57.13 C 50.21 O 75.18 CB 38.86 OG1 17.62 CG2 11.22
A HIS S 13 -111.9 -5.4 N 57.09 CA 74.03 C 79.11 O 78.1 CB 58.4 CG 50.79 ND1 48.69 CD2 61.4 CE1 80.96 NE2 70.75
A TYR - 25 -73.5 98.3 N 71.76 CA 50.68 C 62.81 O 67.55 CB 28.3 CG 18.12 CD1 26.3 CD2 6.53 CE1 34.01 CE2 26.96 CZ 33.55 OH 63.73
A PHE H 59 -57.2 -56.9 N 62.23 CA 48.53 C 51.44 O 47.09 CB 35.85 CG 37.26 CD1 32.6 CD2 24.53 CE1 36.74 CE2 25.05 CZ 38.95
A GLU H 67 -32.3 -50.2 N 10.61 CA 38.02 C 48.26 O 68.08 CB 21.4 CG 42.06 CD 51.53 OE1 44.89 OE2 39.0
A LEU H 0 -53.6 -46.3 N 45.14 CA 53.1 C 54.38 O 58.32 CB 72.22 CG 83.86 CD1 72.42 CD2 60.93
A THR H 19 -55.4 -28.7 N 43.12 CA 52.23 C 57.07 O 49.65 CB 63.2 OG1 28.96 CG2 34.65
A ALA S 82 -105.8 71.2 N 76.16 CA 78.86 C 78.65 O 65.15 CB 82.46
A LEU - 46 -126.2 36.3 N 72.63 CA 75.42 C 80.01 O 90.65 CB 87.14 CG 95.23 CD1 105.38 CD2 93.35
A GLY - 86 1.5 79.3 N 84.93 CA 94.4 C 96.9 O 101.38
A LEU - 37 -118.2 147.3 N 83.68 CA 60.16 C 63.93 O 63.9 CB 64.34 CG 59.85 CD1 67.59 CD2 71.68
A PRO T 114 -53.9 -40.4 N 75.72 CA 87.99 C 94.18 O 102.25 CB 89.39 CG 93.44 CD 77.07
A ARG T 39 -99.8 18.7 N 87.75 CA 86.33 C 86.11 O 90.33 CB 83.23 CG 92.93 CD 92.55 NE 88.44 CZ 94.95 NH1 95.93 NH2 93.1
A LEU - 25 -75.8 -179.4 N 77.41 CA 69.89 C 82.25 O 88.14 CB 60.14 CG 67.49 CD1 74.39 CD2 75.45
A LYS - 59 -177.8 144.6 N 76.32 CA 70.22 C 72.45 O 75.27 CB 68.44 CG 100.73 CD 97.91 CE 102.07 NZ 104.61
A ASN E 29 -128.3 131.5 N 60.31 CA 73.95 C 79.25 O 87.6 CB 72.64 CG 68.99 OD1 65.41 ND2 68.56
A LEU E 17 -133.9 144.3 N 68.23 CA 60.86 C 71.09 O 66.15 CB 44.34 CG 43.44 CD1 41.83 CD2 57.94
A HIS E 36 -138.0 159.8 N 62.0 CA 61.34 C 62.1 O 71.48 CB 62.86 CG 77.67 ND1 70.09 CD2 63.28 CE1 62.91 NE2 67.93
A VAL - 1 -120.8 149.1 N 33.31 CA 43.1 C 54.64 O 50.12 CB 42.09 CG1 37.24 CG2 6.79
A ALA - 30 -110.9 154.7 N 87.71 CA 100.99 C 104.57 O 110.47 CB 113.55
A ALA - 1 -114.0 158.7 N 109.32 CA 116.77 C 126.31 O 122.26 CB 91.37
A ARG - 151 -142.0 110.1 N 130.55 CA 136.94 C 132.97 O 134.04 CB 151.51 CG 165.13 CD 182.22 NE 193.26 CZ 194.01 NH1 194.01 NH2 194.01
A GLU - 95 -67.7 65.3 N 136.96 CA 148.13 C 151.65 O 148.58 CB 157.62 CG 172.52 CD 178.77 OE1 183.99 OE2 181.47
A GLU - 87 -93.7 -166.5 N 157.48 CA 152.08 C 147.32 O 141.47 CB 152.73 CG 144.96 CD 141.37 OE1 147.22 OE2 132.84
A ALA S 116 -14.6 -55.1 N 143.67 CA 148.29 C 151.43 O 142.33 CB 150.86
A GLY S 73 -73.7 -75.9 N 159.03 CA 169.42 C 174.36 O 178.47
A GLY S 31 -160.6 -32.2 N 173.05 CA 159.91 C 155.43 O 152.54
A LEU - 9 -163.2 170.2 N 152.4 CA 140.64 C 125.17 O 113.93 CB 139.82 CG 129.43 CD1 86.33 CD2 116.27
A VAL - 47 -153.1 74.2 N 108.1 CA 95.7 C 105.9 O 90.02 CB 86.51 CG1 86.89 CG2 60.3
A PHE - 43 -47.0 136.5 N 120.03 CA 113.04 C 107.59 O 96.99 CB 105.91 CG 100.4 CD1 86.19 CD2 87.76 CE1 67.04 CE2 55.66 CZ 38.05
A TYR - 90 -112.8 119.1 N 116.94 CA 133.58 C 142.02 O 141.16 CB 133.64 CG 142.26 CD1 145.87 CD2 146.5 CE1 163.36 CE2 162.69 CZ 170.21 OH 178.01
A HIS - 93 -71.7 47.2 N 140.19 CA 124.02 C 111.5 O 74.51 CB 132.24 CG 142.93 ND1 150.79 CD2 139.79 CE1 153.79 NE2 145.17
A GLN - 59 -125.1 137.8 N 107.28 CA 105.93 C 90.29 O 86.81 CB 123.99 CG 136.26 CD 153.04 OE1 162.74 NE2 156.13
A VAL - 16 -116.1 94.9 N 70.21 CA 50.58 C 75.64 O 67.81 CB 36.86 CG1 25.07 CG2 32.78
A LEU E 100 -94.5 153.3 N 83.71 CA 73.47 C 65.55 O 74.5 CB 60.73 CG 67.16 CD1 63.05 CD2 56.66
A PRO E 98 -68.9 156.4 N 56.0 CA 58.25 C 53.06 O 27.28 CB 50.84 CG 54.7 CD 58.32
A GLY S 31 80.2 138.9 N 49.66 CA 46.96 C 43.49 O 31.69
A PRO - 59 -56.7 161.3 N 49.1 CA 53.94 C 48.49 O 70.96 CB 54.36 CG 65.95 CD 55.88
A ALA - 7 -72.1 133.3 N 47.69 CA 62.76 C 63.41 O 61.61 CB 62.32
A SER S 108 -71.6 -60.8 N 74.9 CA 81.91 C 69.48 O 68.5 CB 89.44 OG 92.04
A LYS S 114 -90.2 -178.3 N 60.32 CA 68.33 C 68.44 O 80.3 CB 80.19 CG 90.99 CD 87.67 CE 85.55 NZ 69.49
A SER - 25 -113.8 143.7 N 51.98 CA 72.38 C 75.37 O 68.16 CB 91.91 OG 103.56
A TYR - 40 -111.3 0.8 N 80.98 CA 80.17 C 80.91 O 79.63 CB 78.03 CG 116.69 CD1 122.12 CD2 123.15 CE1 107.67 CE2 114.58 CZ 108.91 OH 104.06
A GLY H 6 -42.0 -86.3 N 70.91 CA 64.78 C 71.19 O 56.51
A VAL H 0 -38.0 -36.4 N 78.51 CA 76.19 C 78.07 O 74.22 CB 56.93 CG1 24.49 CG2 44.26
A GLU H 17 -59.2 -75.5 N 76.11 CA 83.95 C 87.72 O 83.46 CB 88.87 CG 99.41 CD 105.32 OE1 108.81 OE2 97.48
A VAL H 7 -36.8 -56.3 N 70.12 CA 56.36 C 52.29 O 51.83 CB 38.15 CG1 51.83 CG2 26.89
A ALA H 0 -44.1 -63.6 N 41.02 CA 26.4 C 27.15 O 37.35 CB 39.4
A ALA H 21 -49.4 -53.8 N 65.16 CA 79.6 C 77.58 O 74.87 CB 70.54
A ALA H 11 -40.3 -34.6 N 68.81 CA 50.53 C 59.06 O 68.86 CB 68.01
A GLY T 22 139.7 5.7 N 60.53 CA 76.07 C 83.89 O 74.37
A LEU - 11 -52.5 142.6 N 83.04 CA 65.0 C 68.64 O 74.83 CB 34.46 CG 50.57 CD1 6.61 CD2 31.42
A PRO - 14 -62.7 134.7 N 82.09 CA 91.4 C 90.38 O 85.8 CB 96.97 CG 98.5 CD 85.16
A LYS H 177 -50.6 -38.8 N 84.66 CA 75.53 C 75.33 O 73.47 CB 73.45 CG 93.12 CD 96.26 CE 82.0 NZ 91.82
A GLU H 130 -65.5 -46.2 N 70.84 CA 68.77 C 74.48 O 77.02 CB 73.16 CG 99.11 CD 115.72 OE1 129.91 OE2 126.17
A VAL H 13 -56.5 -46.9 N 75.05 CA 65.49 C 63.43 O 52.0 CB 41.05 CG1 54.78 CG2 23.46
A VAL H 7 -58.6 -45.4 N 57.1 CA 62.92 C 82.17 O 83.28 CB 58.58 CG1 47.15 CG2 66.15
A ALA H 47 -56.3 -67.3 N 89.04 CA 81.56 C 86.1 O 81.18 CB 88.68
A ARG H 99 -48.2 -17.2 N 77.43 CA 76.01 C 70.88 O 56.78 CB 76.19 CG 76.17 CD 89.14 NE 98.16 CZ 104.22 NH1 93.52 NH2 104.08
A ALA H 2 -86.6 -56.8 N 63.34 CA 62.3 C 51.02 O 49.07 CB 80.54
A ARG H 105 -55.4 -38.0 N 55.34 CA 75.56 C 81.46 O 61.81 CB 72.2 CG 65.41 CD 67.15 NE 87.29 CZ 92.18 NH1 88.28 NH2 93.23
A ALA H 49 -60.2 -74.0 N 76.2 CA 52.99 C 51.22 O 39.97 CB 44.78
A LEU H 24 -40.6 -30.7 N 34.87 CA 31.27 C 37.52 O 45.04 CB 21.52 CG 64.71 CD1 63.26 CD2 80.79
A LEU H 21 -65.9 -66.6 N 46.37 CA 62.12 C 69.97 O 49.35 CB 50.13 CG 46.55 CD1 43.14 CD2 47.32
A GLN H 142 -40.4 -56.0 N 75.85 CA 73.72 C 75.06 O 69.89 CB 80.87 CG 105.09 CD 125.48 OE1 131.55 NE2 132.42
A ALA H 61 -38.4 -77.6 N 60.13 CA 47.96 C 62.38 O 58.71 CB 46.56
A ALA H 55 -59.5 -58.7 N 70.59 CA 86.26 C 98.91 O 101.01 CB 89.74
A ALA T 91 -86.3 47.2 N 109.27 CA 114.66 C 121.22 O 111.09 CB 120.94
A ARG - 258 55.9 360.0 N 132.24 CA 136.49 C 130.53 O 121.66 CB 148.09 CG 158.81 CD 165.17 NE 176.4 CZ 181.72 NH1 191.71 NH2 178.81
B THR - 41 360.0 125.9 N 108.91 CA 109.74 C 104.11 O 106.15 CB 114.06 OG1 115.51 CG2 117.95
B PRO T 64 -59.4 -9.5 N 95.67 CA 97.94 C 100.78 O 98.92 CB 87.51 CG 81.36 CD 82.11
B GLY T 0 -104.2 -13.3 N 95.03 CA 96.56 C 100.26 O 94.46
B THR T 8 -112.0 3.9 N 108.89 CA 107.73 C 109.36 O 110.23 CB 95.4 OG1 94.59 CG2 102.05
B LEU - 46 -57.5 112.9 N 102.78 CA 98.42 C 102.66 O 112.11 CB 85.7 CG 86.87 CD1 77.91 CD2 93.66
B LEU - 11 -102.0 -11.3 N 95.75 CA 88.1 C 93.08 O 88.01 CB 71.73 CG 75.35 CD1 81.55 CD2 62.07
B GLN - 86 -74.1 116.9 N 104.53 CA 114.65 C 113.22 O 101.37 CB 121.87 CG 134.92 CD 144.29 OE1 146.41 NE2 143.84
B GLU T 79 -51.0 -8.1 N 114.53 CA 116.57 C 119.34 O 120.37 CB 120.46 CG 117.66 CD 126.15 OE1 123.94 OE2 127.49
B SER T 99 -97.0 11.6 N 121.45 CA 124.01 C 129.13 O 122.12 CB 121.68 OG 121.92
B LEU S 105 -147.3 38.6 N 134.17 CA 134.68 C 134.82 O 135.14 CB 127.88 CG 121.53 CD1 108.99 CD2 103.03
B LEU - 16 -148.8 121.8 N 135.82 CA 133.91 C 137.85 O 134.58 CB 125.83 CG 117.51 CD1 116.71 CD2 128.84
B PRO - 53 -73.6 164.2 N 137.93 CA 132.06 C 126.9 O 125.8 CB 125.75 CG 134.1 CD 134.92
B ARG S 123 -54.1 -16.1 N 126.15 CA 129.77 C 135.18 O 138.09 CB 120.47 CG 110.93 CD 108.47 NE 112.39 CZ 115.84 NH1 108.69 NH2 108.93
B GLU S 54 -83.6 163.0 N 137.26 CA 133.11 C 131.78 O 138.69 CB 120.8 CG 114.87 CD 112.99 OE1 103.29 OE2 98.71
B ALA - 25 -81.0 163.3 N 124.18 CA 110.21 C 105.01 O 106.16 CB 106.69
B ASN - 30 -133.0 156.3 N 95.99 CA 94.5 C 95.6 O 88.88 CB 100.99 CG 113.77 OD1 116.32 ND2 118.44
B TYR - 10 -144.1 142.7 N 96.23 CA 88.34 C 92.87 O 87.58 CB 84.34 CG 64.0 CD1 52.76 CD2 64.34 CE1 55.01 CE2 33.94 CZ 55.2 OH 65.95
B LEU E 0 -107.0 119.3 N 94.06 CA 109.32 C 113.35 O 107.38 CB 117.66 CG 117.56 CD1 110.42 CD2 111.6
B ALA E 0 -114.5 144.7 N 116.18 CA 112.24 C 116.7 O 111.48 CB 110.31
B ALA E 0 -128.7 142.7 N 117.07 CA 120.35 C 123.07 O 110.71 CB 112.94
B ILE E 0 -126.8 111.7 N 130.42 CA 129.77 C 131.14 O 128.77 CB 128.6 CG1 126.88 CG2 137.0 CD1 137.53
B ALA E 0 -120.3 151.0 N 129.3 CA 136.36 C 141.33 O 141.89 CB 132.7
B THR E 28 -102.1 163.2 N 146.51 CA 144.3 C 142.75 O 137.38 CB 145.87 OG1 141.49 CG2 140.07
B GLY S 26 126.2 101.3 N 146.44 CA 150.48 C 155.05 O 158.17
B ASP S 156 60.0 49.9 N 150.3 CA 142.13 C 137.48 O 126.24 CB 142.2 CG 141.12 OD1 147.42 OD2 144.93
B GLY S 25 118.0 -171.8 N 135.93 CA 141.78 C 145.77 O 147.77
B TRP E 54 -116.9 113.0 N 144.69 CA 138.62 C 134.45 O 130.7 CB 143.53 CG 159.77 CD1 166.67 CD2 172.33 NE1 177.11 CE2 177.52 CE3 177.58 CZ2 180.52 CZ3 177.91 CH2 178.29
B GLY E 0 -70.1 120.8 N 137.04 CA 134.89 C 128.92 O 124.24
B LEU E 1 -124.9 113.5 N 119.99 CA 114.58 C 110.61 O 92.04 CB 110.51 CG 109.41 CD1 93.36 CD2 111.06
B ALA E 2 -117.5 120.9 N 114.02 CA 112.75 C 112.64 O 110.17 CB 114.85
B PHE E 0 -113.7 126.4 N 106.34 CA 106.62 C 113.0 O 113.49 CB 94.06 CG 92.3 CD1 81.07 CD2 98.63 CE1 93.29 CE2 97.98 CZ 93.58
B LEU E 0 -141.2 145.3 N 121.21 CA 123.31 C 126.22 O 117.14 CB 131.52 CG 137.24 CD1 139.23 CD2 145.43
B ASP E 0 -135.0 110.7 N 133.78 CA 139.36 C 136.34 O 122.98 CB 148.86 CG 161.4 OD1 166.65 OD2 162.82
B VAL T 9 -50.2 -49.0 N 134.09 CA 128.06 C 125.69 O 123.53 CB 131.13 CG1 131.38 CG2 129.58
B SER T 2 -42.8 -71.2 N 115.9 CA 103.17 C 104.41 O 102.61 CB 102.98 OG 100.64
B THR T 1 -82.5 -4.8 N 118.58 CA 127.69 C 131.55 O 127.75 CB 123.62 OG1 120.5 CG2 123.93
B GLY T 0 59.6 25.5 N 134.91 CA 142.31 C 147.02 O 150.03
B GLU E 41 -70.8 128.9 N 146.14 CA 137.29 C 134.0 O 130.49 CB 137.99 CG 133.1 CD 135.55 OE1 119.53 OE2 135.2
B PHE E 10 -129.4 109.4 N 127.76 CA 127.34 C 123.39 O 119.77 CB 125.27 CG 123.5 CD1 114.97 CD2 122.76 CE1 110.39 CE2 125.25 CZ 119.77
B LYS E 3 -152.5 142.3 N 114.95 CA 106.69 C 106.15 O 106.04 CB 108.87 CG 117.77 CD 121.37 CE 138.08 NZ 155.19
B GLY E 1 -147.4 -179.0 N 112.33 CA 116.85 C 120.44 O 117.16
B THR E 2 -170.0 163.0 N 119.88 CA 120.61 C 129.05 O 127.92 CB 116.92 OG1 116.84 CG2 103.17
B VAL E 28 -116.0 117.4 N 136.68 CA 133.5 C 127.67 O 114.6 CB 132.16 CG1 132.17 CG2 140.95
B LEU E 2 -110.6 150.7 N 128.14 CA 128.41 C 128.17 O 126.92 CB 125.74 CG 114.02 CD1 130.78 CD2 116.39
B LYS S 141 -93.8 -49.9 N 125.11 CA 116.64 C 106.86 O 110.96 CB 120.95 CG 128.85 CD 134.71 CE 137.23 NZ 137.51
B SER - 48 -81.3 115.8 N 97.69 CA 108.96 C 107.68 O 100.13 CB 121.28 OG 137.26
B LYS H 85 -50.8 -25.5 N 110.82 CA 110.26 C 108.0 O 110.77 CB 113.05 CG 112.52 CD 114.8 CE 115.11 NZ 133.04
B SER H 82 -66.2 -56.1 N 113.13 CA 116.12 C 109.04 O 102.43 CB 116.86 OG 120.46
B ALA H 28 -61.0 -32.7 N 99.15 CA 98.24 C 102.87 O 100.88 CB 79.81
B LEU H 0 -60.1 -77.7 N 103.81 CA 90.92 C 84.56 O 80.37 CB 90.4 CG 92.75 CD1 93.47 CD2 95.54
B TYR H 46 -37.8 -26.3 N 70.33 CA 83.31 C 93.97 O 103.36 CB 84.74 CG 87.34 CD1 92.35 CD2 89.13 CE1 102.78 CE2 108.61 CZ 112.88 OH 104.85
B ASP H 35 -74.4 -54.3 N 102.71 CA 109.31 C 107.86 O 108.11 CB 104.01 CG 93.96 OD1 90.33 OD2 92.65
B GLU H 6 -61.6 -31.9 N 109.18 CA 110.09 C 100.8 O 91.82 CB 121.05 CG 133.28 CD 134.61 OE1 138.69 OE2 131.43
B LEU H 16 -68.3 -31.1 N 94.26 CA 90.67 C 97.24 O 114.54 CB 90.3 CG 98.63 CD1 87.29 CD2 99.07
B PHE H 23 -78.3 -32.8 N 101.72 CA 99.98 C 98.65 O 92.34 CB 105.52 CG 114.92 CD1 130.43 CD2 106.89 CE1 136.77 CE2 107.9 CZ 127.29
B ARG H 11 -69.8 -43.7 N 100.77 CA 110.38 C 118.25 O 129.33 CB 116.14 CG 109.26 CD 92.67 NE 104.71 CZ 124.22 NH1 132.24 NH2 118.87
B HIS S 7 -84.7 3.2 N 109.0 CA 104.91 C 99.82 O 95.56 CB 106.6 CG 105.13 ND1 115.84 CD2 103.79 CE1 100.09 NE2 95.88
B ARG - 136 19.0 69.3 N 99.64 CA 105.4 C 113.11 O 127.66 CB 105.49 CG 128.46 CD 134.09 NE 134.77 CZ 131.83 NH1 128.4 NH2 131.88
B PRO - 9 -69.6 148.3 N 113.37 CA 112.63 C 118.45 O 116.32 CB 107.95 CG 109.98 CD 112.05
B ALA S 62 -88.1 -17.5 N 120.99 CA 120.62 C 118.1 O 111.17 CB 114.89
B GLU E 18 -145.2 121.1 N 117.3 CA 123.43 C 123.05 O 102.93 CB 134.85 CG 143.23 CD 143.28 OE1 143.87 OE2 144.76
B VAL E 15 -109.5 134.5 N 130.87 CA 134.85 C 137.04 O 142.19 CB 140.14 CG1 146.68 CG2 141.32
B LEU E 0 -109.2 108.7 N 134.55 CA 136.8 C 142.98 O 146.38 CB 127.7 CG 118.7 CD1 92.21 CD2 105.03
B LEU E 4 -90.2 146.0 N 144.97 CA 142.25 C 148.98 O 155.05 CB 122.16 CG 115.86 CD1 97.35 CD2 113.41
B ALA - 0 -71.4 161.3 N 151.29 CA 160.51 C 165.98 O 165.82 CB 161.26
B PRO H 59 -57.0 -30.3 N 170.96 CA 168.49 C 166.66 O 166.83 CB 172.62 CG 170.39 CD 172.87
B GLU H 55 -64.2 -40.3 N 162.72 CA 156.26 C 153.3 O 138.78 CB 149.82 CG 131.41 CD 114.99 OE1 108.55 OE2 97.85
B LEU H 8 -76.6 -35.9 N 155.23 CA 162.04 C 166.93 O 164.69 CB 165.2 CG 167.31 CD1 172.62 CD2 169.85
B LEU H 51 -64.6 -46.9 N 171.71 CA 169.21 C 169.73 O 171.65 CB 161.65 CG 159.28 CD1 156.29 CD2 151.49
B GLU H 155 -64.6 -36.5 N 168.19 CA 167.05 C 168.6 O 168.38 CB 160.54 CG 151.18 CD 145.27 OE1 140.06 OE2 131.01
B ASN - 72 -62.6 75.6 N 163.89 CA 158.11 C 154.15 O 154.78 CB 157.05 CG 159.24 OD1 155.69 ND2 158.51
B GLY H 35 -53.3 -29.3 N 149.97 CA 145.25 C 142.63 O 132.79
B ALA H 85 -68.3 -47.4 N 148.64 CA 155.81 C 162.52 O 166.28 CB 143.92
B PHE H 14 -72.1 -34.4 N 165.78 CA 167.84 C 166.44 O 165.4 CB 168.19 CG 170.72 CD1 171.77 CD2 173.54 CE1 171.09 CE2 177.67 CZ 174.21
B LEU H 26 -60.2 -52.2 N 162.35 CA 153.55 C 145.16 O 137.1 CB 160.75 CG 165.63 CD1 168.96 CD2 161.35
B ASP H 77 -66.9 -25.1 N 141.1 CA 138.69 C 139.15 O 133.56 CB 139.57 CG 137.13 OD1 144.16 OD2 128.92
B GLU H 85 -76.7 -40.4 N 144.41 CA 151.13 C 148.51 O 142.19 CB 160.91 CG 168.3 CD 171.78 OE1 169.55 OE2 168.12
B PHE H 41 -65.8 -31.9 N 147.24 CA 141.15 C 143.32 O 140.25 CB 122.79 CG 110.42 CD1 109.72 CD2 119.23 CE1 108.92 CE2 119.44 CZ 96.56
B ARG - 138 -76.9 -19.1 N 148.61 CA 143.38 C 141.12 O 137.74 CB 143.23 CG 147.72 CD 153.13 NE 150.07 CZ 150.84 NH1 138.57 NH2 150.88
B LYS - 197 -95.9 360.0 N 135.72 CA 126.37 C 115.38 O 101.49 CB 132.56 CG 132.98 CD 132.29 CE 133.54 NZ 138.59
B LEU - 103 360.0 120.3 N 121.43 CA 130.8 C 133.34 O 136.48 CB 133.24 CG 137.99 CD1 141.46 CD2 133.37
B SER - 41 -120.0 134.2 N 130.56 CA 124.02 C 121.38 O 112.47 CB 124.88 OG 131.49
B GLU - 160 -68.7 133.5 N 125.46 CA 138.02 C 142.62 O 137.01 CB 142.01 CG 145.06 CD 152.27 OE1 155.0 OE2 149.56
B ALA - 21 -162.4 150.3 N 150.8 CA 153.94 C 158.35 O 161.32 CB 151.55
B PRO - 80 -77.3 133.6 N 162.07 CA 165.35 C 165.2 O 161.09 CB 165.94 CG 168.38 CD 165.06
B PHE - 11 -97.3 74.3 N 166.44 CA 163.62 C 154.7 O 150.19 CB 172.27 CG 175.02 CD1 177.68 CD2 171.06 CE1 177.87 CE2 173.12 CZ 174.78
B GLU - 140 -89.7 105.5 N 146.04 CA 144.5 C 136.7 O 129.51 CB 149.28 CG 151.83 CD 149.96 OE1 144.24 OE2 146.74
B PRO - 56 -39.2 109.4 N 135.35 CA 134.96 C 132.66 O 122.35 CB 136.49 CG 139.64 CD 139.5
B GLU - 89 -113.6 154.4 N 139.75 CA 147.43 C 154.0 O 154.2 CB 142.16 CG 136.84 CD 135.54 OE1 135.92 OE2 121.92
B GLY S 32 67.3 -164.3 N 158.75 CA 154.69 C 151.53 O 149.32
B GLU S 168 -120.0 148.4 N 151.98 CA 157.22 C 163.83 O 166.39 CB 147.67 CG 142.01 CD 137.61 OE1 136.07 OE2 140.61
B GLY S 37 138.1 -178.9 N 167.94 CA 166.87 C 161.8 O 157.59
B PRO - 60 -47.5 127.7 N 162.43 CA 162.86 C 160.91 O 158.54 CB 163.66 CG 165.17 CD 162.48
B LEU H 72 -37.2 -66.3 N 162.11 CA 165.07 C 161.77 O 166.51 CB 168.94 CG 175.81 CD1 175.44 CD2 174.43
B ALA H 0 -53.1 -7.6 N 144.4 CA 128.43 C 120.54 O 107.78 CB 118.02
B LEU H 7 -92.9 -52.2 N 117.73 CA 117.99 C 124.7 O 130.84 CB 102.73 CG 95.98 CD1 73.39 CD2 67.4
B ARG H 68 -65.3 -26.1 N 118.7 CA 118.22 C 117.08 O 100.64 CB 116.08 CG 118.94 CD 117.7 NE 120.58 CZ 124.27 NH1 122.83 NH2 123.04
B ARG H 32 -68.6 -49.9 N 125.34 CA 134.74 C 140.33 O 146.48 CB 131.31 CG 121.43 CD 114.93 NE 131.13 CZ 132.3 NH1 131.25 NH2 131.01
B ALA H 0 -74.9 -37.8 N 143.71 CA 146.75 C 142.94 O 142.41 CB 155.8
B ARG H 23 -57.5 -58.1 N 134.05 CA 138.39 C 143.76 O 152.25 CB 128.51 CG 128.13 CD 122.87 NE 120.92 CZ 123.26 NH1 109.45 NH2 129.23
B GLY H 5 -61.9 -33.3 N 138.48 CA 129.79 C 125.62 O 121.65
B ALA H 0 -51.3 -32.1 N 125.24 CA 135.57 C 143.0 O 151.7 CB 130.1
B LEU H 0 -74.9 -56.2 N 144.88 CA 143.7 C 143.93 O 148.81 CB 141.21 CG 134.26 CD1 124.58 CD2 136.83
B LEU H 18 -42.2 -66.2 N 137.19 CA 131.9 C 129.2 O 128.13 CB 123.44 CG 117.32 CD1 118.22 CD2 116.46
B ALA H 45 -60.1 -13.3 N 123.61 CA 120.63 C 117.39 O 119.11 CB 133.09
B TYR H 14 -96.3 -32.3 N 108.17 CA 109.07 C 121.06 O 126.93 CB 74.91 CG 57.18 CD1 47.45 CD2 55.06 CE1 59.27 CE2 54.95 CZ 63.89 OH 73.36
B ALA H 0 -78.5 -44.2 N 130.54 CA 137.17 C 141.81 O 144.78 CB 135.46
B GLN G 91 -62.0 -25.0 N 147.41 CA 149.59 C 148.32 O 146.13 CB 149.15 CG 150.07 CD 149.74 OE1 138.18 NE2 141.18
B ARG G 181 -88.6 -13.9 N 143.32 CA 144.79 C 147.94 O 148.1 CB 144.93 CG 147.49 CD 146.07 NE 136.9 CZ 142.65 NH1 152.9 NH2 134.31
B THR G 45 -120.5 27.2 N 150.41 CA 154.89 C 156.47 O 155.15 CB 152.45 OG1 152.03 CG2 148.64
B GLN S 16 -132.2 -4.4 N 158.44 CA 164.27 C 166.14 O 165.88 CB 171.44 CG 179.99 CD 185.28 OE1 185.14 NE2 188.41
B GLY S 85 68.9 -9.1 N 170.04 CA 171.58 C 173.36 O 175.12
B GLY S 35 -163.7 -147.6 N 172.99 CA 176.12 C 181.28 O 182.95
B ALA - 75 -77.4 170.5 N 185.79 CA 188.42 C 187.37 O 189.76 CB 187.54
B LEU - 36 -118.0 160.9 N 178.87 CA 168.2 C 161.34 O 147.31 CB 170.01 CG 172.85 CD1 167.42 CD2 168.76
B SER - 11 -110.1 104.9 N 159.77 CA 154.47 C 151.88 O 152.53 CB 147.51 OG 128.11
B LEU - 65 -111.4 157.7 N 137.81 CA 121.24 C 123.87 O 112.83 CB 106.01 CG 111.93 CD1 119.16 CD2 100.23
B GLN - 41 -98.1 150.4 N 136.1 CA 144.81 C 147.5 O 152.42 CB 149.59 CG 149.38 CD 153.15 OE1 158.3 NE2 154.66
B PRO - 126 -47.7 113.2 N 142.17 CA 141.79 C 146.54 O 148.16 CB 135.83 CG 135.73 CD 138.34
B PHE - 52 -48.3 119.6 N 147.24 CA 144.2 C 142.36 O 135.58 CB 138.12 CG 131.11 CD1 131.83 CD2 127.9 CE1 130.99 CE2 130.7 CZ 134.7
B ARG E 112 -100.5 154.7 N 145.53 CA 145.79 C 145.89 O 150.54 CB 149.6 CG 153.38 CD 166.86 NE 175.73 CZ 178.37 NH1 176.23 NH2 173.24
B PHE E 106 -123.0 117.1 N 144.73 CA 146.03 C 143.88 O 141.44 CB 146.97 CG 142.72 CD1 148.24 CD2 139.5 CE1 145.83 CE2 143.24 CZ 139.87
B TYR - 7 -110.1 151.2 N 138.67 CA 130.89 C 135.76 O 131.59 CB 103.31 CG 93.39 CD1 87.93 CD2 85.16 CE1 70.83 CE2 77.55 CZ 72.11 OH 56.92
B ASP - 82 -120.1 115.9 N 139.07 CA 137.53 C 129.96 O 127.22 CB 143.1 CG 151.05 OD1 149.71 OD2 155.12
B PRO T 16 -66.4 31.3 N 127.36 CA 125.4 C 112.46 O 94.0 CB 129.27 CG 127.54 CD 122.22
B GLY T 23 -134.0 -16.0 N 100.5 CA 88.7 C 80.16 O 92.21
B ALA S 57 -90.9 14.2 N 56.35 CA 39.99 C 35.45 O 33.78 CB 24.75
B PHE S 49 -134.6 154.7 N 12.33 CA 41.56 C 36.23 O 39.61 CB 61.01 CG 43.28 CD1 51.53 CD2 33.47 CE1 60.5 CE2 50.74 CZ 61.74
B ARG B 80 -66.2 154.5 N 44.24 CA 60.6 C 54.98 O 38.46 CB 78.86 CG 105.26 CD 131.97 NE 152.58 CZ 166.24 NH1 169.7 NH2 170.7
B LEU - 2 -160.7 92.8 N 59.12 CA 58.81 C 53.64 O 54.75 CB 45.71 CG 62.88 CD1 77.9 CD2 55.93
B PRO - 25 -69.9 169.7 N 65.36 CA 77.36 C 73.82 O 50.43 CB 83.76 CG 80.28 CD 76.09
B GLU H 66 -56.0 -69.1 N 85.04 CA 97.94 C 93.14 O 101.52 CB 111.03 CG 129.44 CD 138.5 OE1 144.96 OE2 144.04
B ALA H 36 -42.0 -46.4 N 82.65 CA 78.77 C 66.46 O 67.88 CB 91.64
B THR H 1 -55.1 -61.2 N 57.08 CA 50.08 C 53.97 O 68.04 CB 57.12 OG1 43.5 CG2 41.59
B LEU H 11 -41.9 -43.8 N 48.9 CA 59.18 C 73.82 O 80.74 CB 61.52 CG 63.47 CD1 46.34 CD2 72.18
B ARG H 118 -67.8 -48.4 N 68.57 CA 68.92 C 79.63 O 93.87 CB 84.3 CG 102.31 CD 115.5 NE 117.24 CZ 122.69 NH1 120.1 NH2 120.45
B ALA H 10 -57.1 -49.2 N 84.89 CA 83.25 C 77.92 O 79.42 CB 88.31
B LEU T 1 -75.0 -3.6 N 61.28 CA 62.67 C 70.58 O 80.55 CB 44.65 CG 22.12 CD1 43.37 CD2 35.93
B GLU T 33 54.6 52.5 N 70.1 CA 50.94 C 43.61 O 45.25 CB 35.34 CG 52.96 CD 74.9 OE1 70.7 OE2 78.27
B VAL S 2 -70.4 -62.6 N 42.62 CA 61.48 C 70.42 O 71.14 CB 59.16 CG1 37.71 CG2 82.16
B PHE S 51 -99.2 -52.2 N 78.35 CA 67.86 C 75.58 O 84.92 CB 29.56 CG 28.47 CD1 19.91 CD2 15.45 CE1 30.18 CE2 33.8 CZ 23.21
B GLU S 102 -103.5 152.7 N 74.37 CA 85.73 C 88.55 O 101.73 CB 104.66 CG 123.02 CD 129.01 OE1 126.69 OE2 129.71
B PRO - 48 -94.8 136.2 N 83.06 CA 86.4 C 87.35 O 71.83 CB 88.11 CG 98.73 CD 93.59
B LEU S 94 -57.9 -58.0 N 109.1 CA 124.54 C 128.48 O 128.86 CB 117.45 CG 107.62 CD1 110.08 CD2 84.25
B ARG S 233 -148.9 126.2 N 135.04 CA 144.6 C 146.62 O 140.39 CB 146.68 CG 163.32 CD 172.54 NE 177.79 CZ 181.47 NH1 180.23 NH2 185.08
B GLY S 38 130.3 -145.0 N 149.15 CA 137.04 C 123.27 O 123.04
B GLN S 149 -124.1 -49.8 N 116.15 CA 109.25 C 93.31 O 95.01 CB 132.69 CG 151.85 CD 161.52 OE1 171.54 NE2 163.66
B ASP - 42 -75.9 165.5 N 73.57 CA 71.64 C 60.93 O 50.89 CB 91.52 CG 100.53 OD1 110.47 OD2 86.4
B THR - 8 -154.4 164.6 N 48.61 CA 54.33 C 71.11 O 67.79 CB 51.57 OG1 52.29 CG2 24.93
B LEU H 1 -56.4 -31.4 N 84.86 CA 88.55 C 98.1 O 109.81 CB 67.59 CG 69.07 CD1 34.79 CD2 51.28
B PHE H 15 -66.7 -56.1 N 85.46 CA 85.2 C 80.06 O 65.14 CB 94.69 CG 102.04 CD1 107.12 CD2 108.8 CE1 103.97 CE2 114.98 CZ 107.46
B SER H 41 -49.3 -49.5 N 76.03 CA 73.08 C 72.47 O 75.47 CB 68.77 OG 73.5
B VAL H 9 -61.4 -28.2 N 66.44 CA 53.04 C 59.54 O 62.24 CB 40.96 CG1 34.56 CG2 24.19
B LEU H 2 -96.3 -21.5 N 62.41 CA 71.91 C 85.21 O 89.89 CB 80.62 CG 60.75 CD1 68.42 CD2 76.44
B ASP - 45 -56.4 90.4 N 95.33 CA 96.57 C 87.6 O 88.78 CB 119.31 CG 125.39 OD1 126.92 OD2 111.49
B GLU - 39 -136.2 15.7 N 73.73 CA 75.92 C 101.45 O 104.71 CB 56.27 CG 76.28 CD 80.29 OE1 91.62 OE2 72.14
B THR - 21 -73.5 142.5 N 116.98 CA 126.99 C 128.61 O 127.21 CB 137.12 OG1 159.21 CG2 136.22
B ARG - 92 -101.5 -6.9 N 123.77 CA 116.52 C 114.43 O 123.5 CB 111.83 CG 107.63 CD 114.84 NE 100.26 CZ 100.84 NH1 67.68 NH2 112.09
B THR S 10 -127.6 149.0 N 97.53 CA 96.5 C 104.17 O 107.73 CB 88.77 OG1 97.85 CG2 85.55
B ALA H 18 -56.6 -42.0 N 112.14 CA 103.24 C 99.41 O 104.08 CB 107.66
B PRO H 10 -57.2 -53.6 N 101.51 CA 110.3 C 111.57 O 112.13 CB 111.7 CG 110.95 CD 102.22
B GLY H 0 -51.8 -59.6 N 107.96 CA 88.46 C 79.42 O 97.68
B ARG H 19 -49.2 -38.4 N 69.17 CA 65.48 C 70.09 O 91.4 CB 61.21 CG 69.97 CD 64.54 NE 79.31 CZ 93.46 NH1 114.74 NH2 92.67
B ARG H 20 -68.7 -31.0 N 73.43 CA 90.93 C 89.49 O 90.24 CB 107.4 CG 108.97 CD 107.87 NE 110.44 CZ 115.12 NH1 122.0 NH2 120.17
B LEU H 37 -72.9 -49.9 N 81.83 CA 85.85 C 80.77 O 86.63 CB 81.44 CG 65.11 CD1 80.43 CD2 78.31
B LEU H 4 -55.7 -50.3 N 76.47 CA 68.91 C 69.97 O 93.81 CB 54.6 CG 51.46 CD1 81.69 CD2 44.97
B GLN H 25 -53.0 -36.7 N 65.41 CA 76.71 C 79.0 O 89.74 CB 89.57 CG 108.38 CD 126.43 OE1 130.57 NE2 128.87
B SER H 30 -61.5 -60.7 N 83.97 CA 83.65 C 84.54 O 84.48 CB 86.57 OG 77.28
B TRP H 23 -43.2 -45.9 N 75.88 CA 63.9 C 62.71 O 70.63 CB 49.5 CG 60.48 CD1 67.42 CD2 52.47 NE1 74.56 CE2 60.49 CE3 54.74 CZ2 61.18 CZ3 65.42 CH2 67.46
B LEU H 4 -62.8 -52.1 N 39.61 CA 52.49 C 63.8 O 74.87 CB 49.95 CG 49.8 CD1 49.87 CD2 57.77
B ARG H 13 -64.2 -12.9 N 70.45 CA 72.14 C 74.28 O 67.0 CB 70.9 CG 73.87 CD 82.43 NE 98.77 CZ 99.24 NH1 109.59 NH2 85.53
B HIS S 11 -139.5 81.8 N 67.24 CA 78.15 C 76.47 O 73.32 CB 93.39 CG 113.12 ND1 116.46 CD2 126.51 CE1 126.73 NE2 117.84
B PRO - 0 -66.5 165.7 N 68.65 CA 66.94 C 79.88 O 92.8 CB 61.67 CG 28.44 CD 64.04
B LEU - 14 -93.5 177.8 N 77.18 CA 78.95 C 78.99 O 82.34 CB 71.04 CG 76.73 CD1 77.19 CD2 80.68
B LEU - 49 -133.1 -57.4 N 74.75 CA 67.12 C 68.35 O 74.0 CB 45.3 CG 51.58 CD1 34.83 CD2 46.64
B ASP - 119 -67.8 141.2 N 59.75 CA 78.85 C 84.34 O 91.58 CB 94.57 CG 120.6 OD1 138.82 OD2 129.51
B ARG H 107 -69.4 -37.3 N 91.36 CA 82.62 C 78.16 O 73.79 CB 94.79 CG 110.46 CD 116.33 NE 107.45 CZ 105.55 NH1 118.37 NH2 95.05
B GLY H 55 -46.4 -48.8 N 87.16 CA 81.5 C 78.45 O 87.94
B PRO H 54 -68.1 -54.3 N 73.87 CA 83.59 C 87.49 O 97.45 CB 86.91 CG 67.87 CD 84.02
B LEU H 0 -49.9 -52.7 N 80.03 CA 75.82 C 86.18 O 107.29 CB 68.81 CG 63.91 CD1 83.29 CD2 72.27
B GLU H 27 -51.2 -54.0 N 89.4 CA 94.37 C 96.1 O 93.52 CB 95.79 CG 78.34 CD 89.82 OE1 89.05 OE2 101.27
B ALA H 47 -46.6 -41.8 N 100.33 CA 97.8 C 90.2 O 93.41 CB 98.27
B ARG H 32 -71.4 -47.1 N 80.41 CA 81.89 C 84.58 O 97.39 CB 67.49 CG 69.51 CD 64.51 NE 65.77 CZ 76.18 NH1 79.25 NH2 84.0
B LEU H 0 -65.9 -28.7 N 76.26 CA 78.41 C 80.9 O 68.27 CB 96.58 CG 97.34 CD1 97.42 CD2 111.67
B ASP H 82 -67.0 -48.5 N 89.0 CA 103.3 C 115.06 O 125.1 CB 107.56 CG 118.07 OD1 118.55 OD2 118.3
B ARG H 95 -59.1 -56.8 N 110.65 CA 92.39 C 78.5 O 76.59 CB 106.05 CG 133.27 CD 150.15 NE 166.05 CZ 165.01 NH1 161.57 NH2 160.07
B VAL H 0 -52.1 -37.4 N 58.41 CA 56.43 C 70.44 O 72.69 CB 56.75 CG1 42.82 CG2 52.58
B GLU H 28 -67.0 -18.8 N 95.46 CA 108.4 C 113.27 O 122.62 CB 117.03 CG 122.47 CD 122.91 OE1 126.5 OE2 117.23
B GLY H 30 -64.0 -66.7 N 107.78 CA 87.22 C 77.34 O 70.95
B PHE H 5 -64.2 -0.3 N 76.88 CA 81.47 C 83.49 O 98.01 CB 86.43 CG 108.08 CD1 125.08 CD2 120.88 CE1 128.42 CE2 124.71 CZ 124.69
B VAL H 40 -98.0 -35.3 N 73.69 CA 78.16 C 86.29 O 77.87 CB 69.97 CG1 63.34 CG2 51.51
B ARG H 175 -87.0 1.8 N 96.89 CA 101.74 C 96.73 O 84.1 CB 117.35 CG 124.03 CD 132.43 NE 137.31 CZ 141.35 NH1 151.81 NH2 129.71
B GLU T 104 -130.1 52.1 N 102.99 CA 111.27 C 116.88 O 128.68 CB 121.13 CG 135.71 CD 141.71 OE1 148.12 OE2 142.66
B GLY H 31 -30.8 -64.0 N 113.24 CA 115.45 C 118.91 O 119.09
B ALA H 83 -51.0 -47.5 N 120.14 CA 119.67 C 119.51 O 123.9 CB 126.36
B LEU H 43 -53.1 -44.4 N 114.93 CA 113.04 C 112.53 O 112.16 CB 109.79 CG 111.81 CD1 115.95 CD2 83.4
B ARG H 17 -69.7 -36.3 N 111.04 CA 114.57 C 125.62 O 125.84 CB 98.61 CG 82.2 CD 68.24 NE 61.96 CZ 69.39 NH1 42.55 NH2 62.53
B GLU H 75 -55.2 -45.5 N 135.51 CA 135.18 C 135.62 O 137.67 CB 138.33 CG 158.15 CD 167.84 OE1 168.14 OE2 174.66
B GLY H 11 -59.9 -72.1 N 130.02 CA 125.19 C 122.19 O 126.19
B VAL H 1 -46.5 -44.2 N 116.56 CA 108.39 C 109.26 O 107.72 CB 100.24 CG1 95.45 CG2 94.35
B ARG H 10 -60.4 -48.4 N 110.74 CA 114.97 C 121.98 O 119.94 CB 107.01 CG 67.49 CD 75.92 NE 61.59 CZ 70.39 NH1 28.97 NH2 38.57
B ARG H 151 -65.0 -34.8 N 128.05 CA 128.47 C 121.23 O 119.44 CB 132.86 CG 141.45 CD 146.34 NE 148.51 CZ 151.59 NH1 151.1 NH2 152.06
B LEU H 34 -73.3 -48.7 N 115.87 CA 111.67 C 117.09 O 124.88 CB 95.87 CG 103.1 CD1 97.58 CD2 106.8
B LEU H 3 -57.3 -28.4 N 119.25 CA 119.94 C 123.24 O 123.3 CB 115.16 CG 100.54 CD1 79.08 CD2 104.0
B TYR T 128 -53.9 126.4 N 130.8 CA 136.91 C 146.35 O 147.09 CB 131.7 CG 141.97 CD1 146.34 CD2 151.11 CE1 153.11 CE2 155.4 CZ 156.3 OH 152.45
B ARG T 179 82.5 -10.2 N 154.35 CA 159.96 C 161.87 O 167.19 CB 163.44 CG 163.46 CD 170.78 NE 175.04 CZ 171.62 NH1 166.05 NH2 162.04
B LEU - 12 -51.1 126.8 N 156.29 CA 140.97 C 131.96 O 121.52 CB 139.92 CG 136.69 CD1 146.87 CD2 125.63
B ALA - 20 -54.2 166.3 N 126.78 CA 126.19 C 118.87 O 118.45 CB 124.03
B ASP - 13 -86.6 59.5 N 102.71 CA 80.16 C 75.26 O 72.14 CB 79.83 CG 80.0 OD1 70.48 OD2 71.64
B LEU H 2 -36.3 -27.3 N 63.11 CA 64.47 C 74.28 O 86.78 CB 64.29 CG 86.83 CD1 95.53 CD2 89.45
B GLU H 44 -77.9 -53.2 N 83.1 CA 88.12 C 86.65 O 90.58 CB 103.58 CG 116.12 CD 117.23 OE1 114.78 OE2 119.09
B ARG H 2 -68.2 -29.2 N 83.56 CA 89.66 C 98.57 O 107.9 CB 85.88 CG 78.14 CD 68.19 NE 94.48 CZ 103.82 NH1 104.41 NH2 102.22
B LEU H 8 -64.1 -65.3 N 103.52 CA 101.94 C 105.55 O 106.7 CB 96.6 CG 95.34 CD1 95.03 CD2 105.73
B ALA H 0 -47.5 -42.8 N 108.57 CA 109.84 C 109.65 O 99.98 CB 109.85
B THR H 0 -50.5 -42.8 N 117.96 CA 124.95 C 131.53 O 140.91 CB 121.01 OG1 118.13 CG2 115.74
B ARG H 31 -70.8 -26.1 N 128.96 CA 124.31 C 127.81 O 134.62 CB 117.46 CG 129.68 CD 135.75 NE 141.17 CZ 145.78 NH1 143.5 NH2 145.88
B LEU H 1 -66.7 -40.1 N 132.48 CA 138.15 C 138.83 O 137.02 CB 137.77 CG 131.06 CD1 131.78 CD2 128.17
B GLU T 58 -81.3 2.4 N 140.57 CA 142.2 C 138.81 O 139.83 CB 147.81 CG 160.14 CD 167.19 OE1 166.41 OE2 173.85
B LEU T 25 -112.6 -7.2 N 131.54 CA 131.9 C 132.75 O 132.32 CB 129.02 CG 129.02 CD1 132.1 CD2 126.48
B GLY T 48 59.3 67.2 N 129.91 CA 122.32 C 117.71 O 122.2
B ARG - 123 -164.0 6.1 N 100.02 CA 94.28 C 98.72 O 89.71 CB 85.35 CG 88.64 CD 116.55 NE 129.19 CZ 132.26 NH1 120.17 NH2 128.67
B ALA - 0 -73.2 88.4 N 107.1 CA 121.38 C 126.34 O 124.91 CB 127.91
B SER - 44 -52.4 169.8 N 135.1 CA 139.97 C 139.63 O 133.89 CB 143.73 OG 150.94
B PRO H 45 -59.8 -51.4 N 141.73 CA 138.61 C 133.62 O 127.32 CB 138.58 CG 135.05 CD 139.18
B LYS H 130 -47.9 -45.6 N 130.85 CA 131.25 C 132.01 O 129.4 CB 128.19 CG 135.74 CD 139.13 CE 151.06 NZ 153.01
B ASP H 28 -52.6 -39.5 N 127.91 CA 119.4 C 117.55 O 127.12 CB 109.55 CG 107.71 OD1 98.93 OD2 110.42
B LEU H 1 -69.5 -26.6 N 109.15 CA 102.8 C 93.51 O 80.34 CB 114.17 CG 131.5 CD1 142.97 CD2 136.25
B GLY H 7 -61.5 -59.6 N 83.61 CA 93.86 C 103.37 O 103.29
B ALA H 37 -56.9 -48.0 N 110.15 CA 101.26 C 92.36 O 93.27 CB 81.33
B LEU H 0 -56.4 -45.5 N 68.04 CA 68.91 C 83.4 O 87.71 CB 52.05 CG 59.55 CD1 56.73 CD2 65.22
B ARG H 34 -59.7 -52.2 N 101.29 CA 119.71 C 120.22 O 109.95 CB 132.5 CG 143.08 CD 133.01 NE 132.93 CZ 134.54 NH1 143.0 NH2 123.78
B ARG H 70 -48.7 -39.0 N 121.35 CA 122.97 C 116.01 O 110.38 CB 132.95 CG 150.3 CD 165.71 NE 182.14 CZ 192.61 NH1 194.01 NH2 193.85
B SER H 0 -68.8 -67.3 N 105.28 CA 94.2 C 95.84 O 99.63 CB 86.68 OG 94.31
B LEU H 2 -41.3 -22.1 N 97.44 CA 108.01 C 119.19 O 120.92 CB 110.38 CG 116.58 CD1 113.21 CD2 126.35
B GLN H 63 -78.2 -30.2 N 128.65 CA 132.12 C 130.02 O 131.52 CB 143.18 CG 154.39 CD 157.65 OE1 155.32 NE2 162.15
B ILE H 18 -79.2 -29.1 N 127.63 CA 123.24 C 123.79 O 123.72 CB 117.2 CG1 123.53 CG2 111.92 CD1 116.33
B LEU H 12 -43.2 -46.6 N 124.04 CA 129.08 C 135.17 O 132.45 CB 123.19 CG 115.32 CD1 105.74 CD2 117.91
B PRO H 64 -66.4 -36.6 N 143.31 CA 145.28 C 143.36 O 138.66 CB 151.14 CG 153.95 CD 148.41
B GLU H 106 -66.8 -49.6 N 142.93 CA 143.06 C 136.9 O 127.12 CB 148.44 CG 151.49 CD 157.51 OE1 156.49 OE2 163.97
B LEU H 3 -57.7 -39.7 N 130.41 CA 123.02 C 124.44 O 125.68 CB 108.84 CG 114.71 CD1 105.73 CD2 124.25
B ARG H 74 -66.7 -23.2 N 130.57 CA 131.28 C 134.83 O 135.31 CB 125.87 CG 118.95 CD 120.31 NE 125.22 CZ 124.13 NH1 118.69 NH2 122.61
B ALA H 81 -86.6 -2.8 N 137.2 CA 140.35 C 140.85 O 134.69 CB 131.17
B LEU H 81 -110.4 -17.6 N 136.9 CA 125.61 C 119.36 O 116.8 CB 116.28 CG 108.34 CD1 104.1 CD2 95.91
B LEU H 47 -103.2 -57.9 N 111.48 CA 105.94 C 120.5 O 119.46 CB 77.71 CG 74.28 CD1 73.62 CD2 80.21
B GLY - 27 128.5 169.7 N 131.38 CA 138.84 C 145.54 O 142.19
B GLU T 160 -65.4 23.2 N 153.27 CA 158.92 C 155.44 O 150.98 CB 167.54 CG 178.97 CD 184.62 OE1 185.53 OE2 187.52
B GLU T 190 -98.8 -27.3 N 151.99 CA 149.96 C 144.98 O 148.25 CB 151.37 CG 164.61 CD 171.03 OE1 171.8 OE2 170.7
B VAL S 26 -63.9 -20.6 N 136.21 CA 131.65 C 144.09 O 139.44 CB 118.6 CG1 98.43 CG2 113.23
B GLY - 50 87.6 -19.4 N 151.76 CA 159.96 C 166.26 O 169.85
B LEU - 7 -31.1 120.8 N 167.25 CA 163.43 C 166.42 O 163.87 CB 156.95 CG 154.9 CD1 148.89 CD2 148.12
B PRO - 35 -55.7 173.0 N 170.34 CA 173.64 C 176.36 O 178.7 CB 169.35 CG 167.4 CD 167.73
B ASP - 115 -113.2 86.8 N 174.51 CA 170.17 C 162.73 O 159.68 CB 172.94 CG 174.96 OD1 177.03 OD2 175.99
B LEU - 9 -96.8 35.0 N 150.7 CA 140.35 C 147.25 O 157.43 CB 117.44 CG 94.28 CD1 71.57 CD2 84.88
B SER H 37 -67.5 -40.3 N 149.09 CA 145.01 C 141.7 O 133.07 CB 140.37 OG 133.42
B PRO H 69 -50.3 -55.5 N 139.43 CA 132.89 C 127.45 O 133.32 CB 132.89 CG 136.07 CD 143.53
B LEU H 9 -62.0 -35.4 N 119.39 CA 124.91 C 129.43 O 130.59 CB 122.73 CG 125.07 CD1 124.62 CD2 133.78
B LYS H 40 -63.6 -56.8 N 133.52 CA 139.42 C 146.14 O 145.73 CB 128.71 CG 125.23 CD 135.0 CE 145.79 NZ 145.18
B GLU H 105 -54.9 -43.5 N 150.38 CA 146.03 C 143.75 O 144.72 CB 141.06 CG 131.39 CD 128.02 OE1 125.78 OE2 113.68
B GLU H 89 -50.7 -68.1 N 139.92 CA 141.23 C 143.31 O 141.27 CB 136.31 CG 141.76 CD 148.39 OE1 143.42 OE2 148.51
B LEU H 0 -45.1 -49.5 N 147.0 CA 149.6 C 155.1 O 160.34 CB 145.21 CG 136.93 CD1 134.16 CD2 130.7
B GLU H 78 -41.6 -48.8 N 156.85 CA 156.31 C 155.12 O 156.6 CB 151.66 CG 153.08 CD 158.37 OE1 155.23 OE2 163.92
B ALA H 86 -74.4 -67.2 N 148.22 CA 137.66 C 129.23 O 128.6 CB 138.09
B ALA H 50 -53.7 0.3 N 117.19 CA 112.31 C 108.04 O 102.39 CB 110.35
B LEU S 33 -130.0 151.8 N 107.83 CA 117.8 C 120.96 O 117.41 CB 124.66 CG 127.39 CD1 125.72 CD2 126.77
B VAL - 91 -84.5 131.9 N 129.4 CA 139.15 C 140.02 O 144.32 CB 146.24 CG1 148.84 CG2 147.46
B GLU S 164 -38.6 -23.3 N 138.52 CA 139.92 C 136.18 O 146.71 CB 148.79 CG 164.96 CD 172.6 OE1 178.69 OE2 172.41
B ASP S 129 -141.1 76.6 N 125.37 CA 127.52 C 131.71 O 135.82 CB 134.28 CG 146.51 OD1 146.78 OD2 153.41
B PRO - 9 -52.1 119.0 N 140.71 CA 146.13 C 144.64 O 140.89 CB 150.74 CG 156.61 CD 149.5
B PRO - 153 -76.4 360.0 N 143.83 CA 139.89 C 131.1 O 121.95 CB 145.81 CG 147.96 CD 149.9
B ARG - 183 360.0 -35.6 N 124.13 CA 137.45 C 145.73 O 154.18 CB 132.83 CG 134.41 CD 139.99 NE 137.75 CZ 134.36 NH1 117.82 NH2 131.36
B GLU H 167 -58.3 -34.0 N 152.21 CA 149.91 C 145.74 O 146.77 CB 152.48 CG 154.35 CD 160.65 OE1 158.3 OE2 162.53
B GLU H 151 -75.5 -33.1 N 137.24 CA 125.45 C 122.53 O 129.58 CB 118.93 CG 127.22 CD 136.64 OE1 136.66 OE2 132.73
B GLU H 120 -68.5 -33.6 N 124.42 CA 132.64 C 131.97 O 127.67 CB 145.65 CG 152.44 CD 156.12 OE1 154.61 OE2 151.82
B VAL H 49 -80.8 -29.6 N 131.91 CA 135.61 C 135.98 O 140.94 CB 143.58 CG1 135.63 CG2 145.57
B PHE H 42 -64.5 -52.5 N 135.85 CA 136.53 C 134.89 O 134.3 CB 137.1 CG 136.42 CD1 132.2 CD2 135.69 CE1 130.94 CE2 132.55 CZ 136.04
B LEU H 73 -68.8 -21.0 N 127.99 CA 123.11 C 123.43 O 127.01 CB 123.35 CG 131.08 CD1 127.6 CD2 131.81
B GLU H 79 -68.2 -37.1 N 132.21 CA 138.29 C 136.34 O 138.15 CB 153.06 CG 162.33 CD 168.44 OE1 168.15 OE2 177.48
B VAL H 13 -74.0 -44.6 N 137.02 CA 143.92 C 144.91 O 144.91 CB 147.55 CG1 148.93 CG2 152.44
B ARG H 46 -50.6 -55.0 N 140.19 CA 128.7 C 126.29 O 126.48 CB 120.18 CG 116.0 CD 119.43 NE 120.7 CZ 117.99 NH1 116.6 NH2 106.57
B GLU H 84 -51.0 -50.0 N 127.29 CA 131.8 C 136.07 O 139.75 CB 130.69 CG 131.3 CD 133.37 OE1 134.49 OE2 115.05
B ARG H 95 -55.4 -33.9 N 140.46 CA 146.04 C 144.16 O 142.51 CB 150.63 CG 166.67 CD 167.86 NE 163.0 CZ 157.35 NH1 154.44 NH2 156.96
B ALA H 1 -75.3 -62.2 N 136.29 CA 128.94 C 124.63 O 126.08 CB 121.15
B LYS H 66 -52.6 -5.6 N 113.85 CA 108.7 C 110.27 O 100.85 CB 102.92 CG 101.6 CD 102.18 CE 115.61 NZ 121.5
B ARG T 151 -77.5 -5.0 N 116.26 CA 125.55 C 126.58 O 122.54 CB 136.05 CG 140.86 CD 148.84 NE 155.98 CZ 159.06 NH1 156.39 NH2 159.47
B GLN T 73 -122.8 43.0 N 125.08 CA 121.01 C 123.57 O 115.4 CB 115.61 CG 115.6 CD 119.9 OE1 128.52 NE2 121.11
B ALA H 15 -61.3 -46.0 N 128.8 CA 130.46 C 129.9 O 129.17 CB 133.99
B GLU H 104 -79.2 -45.0 N 129.62 CA 125.17 C 120.76 O 126.48 CB 124.53 CG 131.07 CD 138.46 OE1 147.72 OE2 136.24
B ALA H 28 -51.4 -22.1 N 111.35 CA 103.41 C 100.93 O 100.52 CB 112.48
B LEU H 0 -79.5 -58.4 N 100.45 CA 109.38 C 107.29 O 107.01 CB 108.97 CG 101.24 CD1 93.0 CD2 87.48
B ARG H 22 -50.5 -36.8 N 105.91 CA 106.34 C 106.03 O 101.06 CB 96.37 CG 89.51 CD 87.53 NE 97.9 CZ 98.33 NH1 89.93 NH2 100.43
B GLU H 64 -54.1 -52.9 N 104.98 CA 101.64 C 99.46 O 92.68 CB 107.43 CG 129.27 CD 143.43 OE1 157.96 OE2 143.32
B ALA H 2 -55.5 -64.6 N 105.15 CA 103.83 C 101.65 O 97.88 CB 100.05
B ALA H 3 -36.0 -59.1 N 106.46 CA 108.31 C 111.91 O 108.55 CB 92.22
B ARG H 125 -52.3 -67.5 N 113.67 CA 103.97 C 98.4 O 96.97 CB 100.79 CG 95.52 CD 99.78 NE 91.02 CZ 90.58 NH1 82.05 NH2 74.36
B ILE H 21 -54.7 -26.0 N 81.95 CA 70.47 C 81.74 O 88.87 CB 77.37 CG1 78.75 CG2 61.38 CD1 84.26
B LEU H 9 -76.4 -57.4 N 95.8 CA 99.28 C 95.95 O 86.88 CB 103.44 CG 112.96 CD1 110.99 CD2 97.07
B ALA H 6 -43.3 -43.4 N 101.82 CA 106.94 C 101.54 O 106.12 CB 101.15
B GLU H 59 -47.4 -68.2 N 93.16 CA 88.61 C 82.75 O 77.83 CB 93.0 CG 102.38 CD 106.92 OE1 112.39 OE2 113.54
B LEU H 5 -47.7 -46.7 N 71.6 CA 62.33 C 63.61 O 60.76 CB 34.76 CG 48.98 CD1 49.06 CD2 37.28
B ASP H 1 -45.5 -55.4 N 67.3 CA 66.08 C 73.92 O 73.95 CB 58.8 CG 71.16 OD1 57.9 OD2 64.43
B VAL H 0 -68.2 -55.2 N 79.48 CA 77.64 C 76.73 O 68.03 CB 68.72 CG1 72.63 CG2 78.96
B TYR H 16 -47.2 -38.3 N 67.81 CA 62.65 C 74.17 O 78.96 CB 49.3 CG 55.93 CD1 56.49 CD2 66.08 CE1 70.38 CE2 58.63 CZ 74.42 OH 86.88
B ALA H 1 -88.9 -38.5 N 83.32 CA 76.23 C 71.08 O 67.67 CB 71.13
B ALA H 4 -50.6 -72.6 N 60.26 CA 77.8 C 78.55 O 65.27 CB 90.34
B LEU H 5 -41.6 -68.3 N 81.16 CA 66.51 C 60.38 O 37.59 CB 56.28 CG 54.13 CD1 52.0 CD2 23.6
B ALA H 0 -33.8 -49.0 N 27.83 CA 48.1 C 52.32 O 55.31 CB 20.4
B GLU H 18 -53.6 -64.5 N 70.0 CA 71.94 C 65.65 O 47.42 CB 67.73 CG 78.91 CD 93.09 OE1 90.1 OE2 103.39
B VAL H 1 -38.5 -69.1 N 54.57 CA 51.78 C 70.12 O 77.48 CB 44.73 CG1 54.24 CG2 49.66
B ALA H 2 -34.1 -64.7 N 76.97 CA 54.53 C 41.54 O 45.08 CB 32.27
B VAL H 72 -56.9 -45.9 N 32.13 CA 40.49 C 57.02 O 62.34 CB 26.31 CG1 18.59 CG2 29.29
B ARG H 120 -61.2 -30.4 N 67.55 CA 68.23 C 64.71 O 54.31 CB 69.53 CG 87.9 CD 89.88 NE 95.2 CZ 85.55 NH1 60.09 NH2 91.21
B TYR H 62 -113.9 4.4 N 66.05 CA 72.51 C 66.32 O 52.19 CB 85.28 CG 83.88 CD1 71.92 CD2 90.36 CE1 79.73 CE2 87.37 CZ 73.54 OH 65.85
B GLY T 40 73.4 59.7 N 66.95 CA 66.28 C 62.54 O 60.17
B TYR E 14 -101.9 127.5 N 67.21 CA 63.68 C 69.6 O 67.55 CB 46.72 CG 20.36 CD1 12.82 CD2 26.87 CE1 19.58 CE2 1.38 CZ 5.19 OH 21.31
B VAL E 42 -91.2 127.7 N 67.37 CA 46.58 C 26.31 O 38.98 CB 53.65 CG1 61.32 CG2 60.66
B ARG - 28 -60.9 115.0 N 20.45 CA 29.52 C 57.27 O 93.04 CB 22.2 CG 27.51 CD 35.84 NE 28.53 CZ 48.06 NH1 35.33 NH2 24.99
B PRO - 1 -65.6 145.4 N 54.52 CA 57.52 C 70.86 O 63.32 CB 46.35 CG 71.03 CD 54.54
B ARG E 111 -115.6 124.9 N 83.76 CA 87.05 C 86.06 O 85.04 CB 106.05 CG 138.18 CD 153.23 NE 160.21 CZ 166.59 NH1 174.41 NH2 168.06
B PHE E 17 -88.6 154.6 N 82.1 CA 80.94 C 84.49 O 74.38 CB 88.44 CG 92.19 CD1 88.44 CD2 75.24 CE1 64.85 CE2 53.31 CZ 57.39
B GLY S 47 -174.9 -136.1 N 96.8 CA 104.75 C 100.37 O 96.42
B ASP S 91 -125.9 6.7 N 92.6 CA 85.82 C 85.14 O 79.09 CB 106.49 CG 129.01 OD1 139.15 OD2 140.9
B ARG S 147 -123.9 146.9 N 95.32 CA 102.68 C 92.7 O 100.6 CB 115.93 CG 136.86 CD 151.86 NE 158.05 CZ 161.66 NH1 153.4 NH2 158.3
B LEU E 2 -105.1 108.3 N 76.01 CA 71.42 C 77.15 O 65.51 CB 73.66 CG 73.05 CD1 70.45 CD2 50.58
B GLN E 57 -128.9 121.0 N 84.66 CA 90.23 C 90.92 O 86.11 CB 91.82 CG 93.31 CD 97.4 OE1 100.0 NE2 82.97
B ILE E 8 -117.9 97.1 N 75.96 CA 74.69 C 70.7 O 70.63 CB 90.73 CG1 81.51 CG2 102.09 CD1 96.96
B ARG E 122 -75.1 98.9 N 67.53 CA 68.27 C 74.08 O 81.28 CB 75.56 CG 101.02 CD 118.08 NE 133.86 CZ 127.96 NH1 116.12 NH2 130.38
B ALA E 16 55.1 67.5 N 80.43 CA 82.21 C 82.17 O 76.89 CB 88.26
B GLY E 0 -87.9 176.1 N 82.56 CA 78.73 C 72.4 O 77.63
B ARG - 42 -149.1 163.7 N 63.77 CA 53.57 C 60.45 O 55.02 CB 51.32 CG 57.51 CD 42.78 NE 53.25 CZ 41.88 NH1 70.92 NH2 41.78
B HIS - 6 -92.4 92.6 N 56.01 CA 68.52 C 80.22 O 99.95 CB 55.73 CG 36.9 ND1 50.69 CD2 58.06 CE1 36.85 NE2 58.11
B PRO H 0 -43.8 -29.7 N 77.19 CA 72.92 C 73.66 O 69.38 CB 51.96 CG 55.73 CD 74.67
B VAL H 3 -71.3 -67.1 N 75.87 CA 75.47 C 75.98 O 95.0 CB 78.89 CG1 70.1 CG2 91.51
B VAL H 55 -66.8 -21.8 N 51.78 CA 43.12 C 48.8 O 60.44 CB 45.18 CG1 39.83 CG2 60.57
B GLU H 9 -55.0 -37.9 N 66.9 CA 75.73 C 81.72 O 85.57 CB 53.62 CG 45.54 CD 70.49 OE1 71.58 OE2 73.88
B ARG T 85 -84.9 35.2 N 78.53 CA 83.92 C 98.96 O 114.64 CB 75.15 CG 98.57 CD 107.01 NE 119.78 CZ 128.9 NH1 130.5 NH2 128.46
B ARG T 111 -146.0 -5.9 N 106.82 CA 109.56 C 108.81 O 109.98 CB 122.13 CG 147.29 CD 166.53 NE 172.84 CZ 171.96 NH1 173.13 NH2 162.72
B THR S 99 -178.5 171.1 N 109.8 CA 113.17 C 112.15 O 116.33 CB 118.98 OG1 114.41 CG2 125.07
B GLU - 194 -58.8 142.4 N 111.4 CA 100.62 C 98.28 O 88.0 CB 93.26 CG 92.56 CD 86.99 OE1 85.54 OE2 44.68
B PHE - 46 -134.4 103.9 N 94.14 CA 81.69 C 88.65 O 88.45 CB 61.01 CG 43.45 CD1 49.6 CD2 57.64 CE1 46.63 CE2 57.1 CZ 59.89
B VAL - 60 -68.2 110.4 N 86.38 CA 68.46 C 53.61 O 47.17 CB 75.69 CG1 88.41 CG2 75.69
B PRO - 55 -62.3 177.2 N 21.61 CA 41.25 C 58.37 O 74.16 CB 34.74 CG 21.57 CD 23.11
B ASN E 14 -148.4 176.5 N 59.11 CA 56.55 C 70.8 O 69.46 CB 66.12 CG 97.03 OD1 105.36 ND2 114.58
B ASP E 92 -129.8 159.7 N 79.34 CA 78.48 C 69.68 O 74.29 CB 84.73 CG 93.57 OD1 104.87 OD2 81.75
B LEU E 7 -163.7 138.0 N 66.42 CA 68.66 C 73.43 O 47.4 CB 63.0 CG 51.22 CD1 77.2 CD2 39.22
B GLU E 117 -136.6 129.7 N 76.2 CA 82.22 C 71.18 O 73.28 CB 88.85 CG 109.91 CD 111.18 OE1 111.79 OE2 99.62
B ALA S 24 -168.1 76.8 N 82.94 CA 77.95 C 77.4 O 89.44 CB 92.88
B HIS S 34 61.0 27.2 N 81.84 CA 74.18 C 71.86 O 77.62 CB 38.58 CG 45.86 ND1 52.39 CD2 65.35 CE1 56.81 NE2 59.28
B GLU - 35 -101.8 175.7 N 61.12 CA 61.6 C 58.39 O 72.72 CB 66.8 CG 66.77 CD 70.51 OE1 66.1 OE2 72.44
B LEU B 1 -114.6 116.5 N 55.82 CA 51.65 C 55.15 O 69.87 CB 18.18 CG 45.82 CD1 48.16 CD2 46.82
B VAL - 0 -113.9 103.2 N 41.23 CA 25.3 C 21.52 O 55.95 CB 34.83 CG1 43.7 CG2 46.11
B LEU E 1 -69.1 155.3 N 28.08 CA 35.9 C 49.51 O 43.37 CB 35.05 CG 50.99 CD1 59.39 CD2 76.65
B ILE E 0 -137.0 102.4 N 46.06 CA 28.45 C 40.41 O 61.36 CB 19.37 CG1 34.43 CG2 24.9 CD1 34.09
B THR E 1 -103.0 -165.3 N 48.86 CA 62.18 C 64.51 O 78.84 CB 70.25 OG1 85.0 CG2 64.41
B GLY S 14 100.3 -172.2 N 59.57 CA 76.07 C 88.92 O 96.99
B PRO - 10 -86.3 175.8 N 87.53 CA 84.54 C 89.5 O 77.49 CB 61.33 CG 82.03 CD 78.57
B ASN S 30 -85.1 -166.0 N 93.68 CA 100.86 C 100.27 O 96.4 CB 105.99 CG 106.92 OD1 101.7 ND2 83.56
B ALA S 1 -130.5 15.9 N 94.9 CA 93.98 C 88.13 O 83.07 CB 93.59
B GLY S 19 106.8 -18.5 N 80.6 CA 75.44 C 74.45 O 71.52
B LYS H 5 -38.2 -75.4 N 60.8 CA 41.51 C 46.57 O 41.89 CB 42.97 CG 53.07 CD 39.44 CE 16.82 NZ 54.34
B SER H 28 -48.7 -64.9 N 57.33 CA 65.72 C 67.28 O 59.33 CB 55.21 OG 62.36
B THR H 45 -48.3 -32.0 N 62.61 CA 65.0 C 66.14 O 51.84 CB 51.55 OG1 70.05 CG2 47.95
B PHE H 6 -67.6 -34.6 N 64.16 CA 65.2 C 52.87 O 14.83 CB 61.4 CG 52.06 CD1 46.36 CD2 48.36 CE1 57.0 CE2 61.69 CZ 51.75
B LEU H 1 -69.2 -50.8 N 49.12 CA 57.15 C 56.79 O 58.4 CB 58.59 CG 48.02 CD1 64.11 CD2 45.11
B ARG H 45 -59.0 -53.0 N 55.68 CA 39.45 C 38.35 O 26.39 CB 17.72 CG 35.23 CD 49.71 NE 63.31 CZ 79.98 NH1 61.68 NH2 79.65
B GLN H 8 -40.9 -28.0 N 7.47 CA 17.17 C 32.65 O 35.59 CB 17.94 CG 37.86 CD 69.48 OE1 68.83 NE2 46.27
B THR H 5 -85.0 -46.0 N 54.73 CA 46.36 C 42.98 O 24.22 CB 49.61 OG1 17.9 CG2 19.46
B ALA H 0 -53.2 -56.9 N 41.05 CA 57.01 C 58.17 O 50.3 CB 55.52
B LEU H 0 -47.0 -57.1 N 58.99 CA 53.03 C 49.44 O 37.27 CB 43.96 CG 58.13 CD1 63.35 CD2 53.55
B ILE H 0 -48.9 -47.7 N 41.16 CA 49.1 C 48.07 O 20.45 CB 47.89 CG1 43.94 CG2 24.37 CD1 36.55
B ALA H 1 -54.0 -57.3 N 25.09 CA 31.91 C 44.19 O 36.49 CB 56.99
B LEU H 4 -56.0 -53.6 N 59.53 CA 42.66 C 29.84 O 18.67 CB 20.22 CG 31.89 CD1 15.86 CD2 12.56
B LEU H 0 -52.8 -35.4 N 14.33 CA 27.16 C 27.11 O 35.3 CB 41.97 CG 57.32 CD1 60.89 CD2 43.99
B ALA H 0 -74.4 -49.3 N 32.99 CA 37.39 C 48.83 O 29.8 CB 57.8
B GLN H 1 -70.5 -4.6 N 64.33 CA 75.34 C 73.31 O 77.99 CB 75.96 CG 66.08 CD 70.1 OE1 74.93 NE2 93.57
B VAL H 2 -96.0 -27.2 N 71.95 CA 60.95 C 58.56 O 57.08 CB 33.58 CG1 47.14 CG2 38.61
B GLY T 0 114.1 31.4 N 60.94 CA 61.29 C 67.7 O 91.32
B SER - 2 -123.5 170.8 N 41.19 CA 50.22 C 53.99 O 80.62 CB 45.48 OG 29.74
B PHE - 17 -86.0 153.7 N 48.39 CA 56.03 C 63.53 O 67.88 CB 42.29 CG 7.82 CD1 0.0 CD2 3.2 CE1 0.0 CE2 11.97 CZ 0.0
B VAL E 0 -112.0 167.6 N 66.57 CA 62.68 C 49.78 O 64.09 CB 73.21 CG1 71.28 CG2 76.49
B PRO E 0 -77.6 90.6 N 21.73 CA 41.36 C 69.35 O 81.14 CB 47.02 CG 34.88 CD 23.21
B ALA S 12 -155.2 -150.3 N 76.59 CA 70.66 C 74.24 O 85.2 CB 67.31
B GLU S 109 -129.5 -57.1 N 79.16 CA 70.75 C 69.44 O 55.18 CB 92.28 CG 101.21 CD 106.44 OE1 96.68 OE2 99.94
B GLU E 74 -135.1 160.2 N 69.24 CA 76.73 C 75.93 O 68.02 CB 86.06 CG 97.91 CD 101.72 OE1 110.48 OE2 83.68
B ALA E 3 -167.5 117.0 N 63.58 CA 55.78 C 62.54 O 70.27 CB 18.26
B HIS E 61 -111.9 113.0 N 66.06 CA 81.41 C 82.21 O 82.53 CB 92.5 CG 82.94 ND1 90.48 CD2 96.05 CE1 93.39 NE2 85.1
B LEU E 3 -116.6 155.3 N 80.36 CA 75.13 C 73.32 O 76.57 CB 87.47 CG 92.47 CD1 92.32 CD2 112.54
B PRO - 3 -92.6 -178.6 N 58.76 CA 63.87 C 79.01 O 89.11 CB 71.16 CG 65.15 CD 65.95
B LEU - 57 -98.2 78.6 N 85.31 CA 87.96 C 85.2 O 100.34 CB 100.42 CG 95.67 CD1 111.39 CD2 83.55
B PHE - 2 -48.7 137.2 N 74.0 CA 68.73 C 66.37 O 78.16 CB 67.89 CG 80.08 CD1 82.6 CD2 65.01 CE1 83.06 CE2 63.94 CZ 62.57
B ASP S 43 -85.9 -34.6 N 74.32 CA 83.38 C 82.03 O 89.9 CB 93.0 CG 93.65 OD1 73.09 OD2 95.8
B GLY B 0 -152.6 158.7 N 68.43 CA 61.51 C 53.62 O 66.08
B ILE E 1 -129.5 84.4 N 42.41 CA 37.35 C 49.37 O 67.03 CB 27.13 CG1 23.92 CG2 32.37 CD1 36.73
B TYR E 12 -90.0 150.4 N 58.84 CA 53.49 C 53.34 O 39.97 CB 39.49 CG 37.01 CD1 31.41 CD2 44.74 CE1 58.15 CE2 50.18 CZ 69.9 OH 88.81
B THR - 6 -128.0 -169.8 N 54.23 CA 63.61 C 48.05 O 70.67 CB 79.94 OG1 79.2 CG2 60.01
B ARG - 0 -179.7 66.3 N 33.91 CA 34.17 C 50.24 O 32.89 CB 13.74 CG 40.19 CD 39.15 NE 59.41 CZ 62.2 NH1 70.99 NH2 55.87
B ILE - 14 -113.5 152.2 N 71.74 CA 61.59 C 59.4 O 50.99 CB 37.64 CG1 30.68 CG2 41.48 CD1 27.87
B GLY - 27 34.6 -143.8 N 56.49 CA 61.5 C 68.07 O 68.61
B ALA - 120 62.1 360.0 N 80.97 CA 84.12 C 85.47 O 74.98 CB 89.58
B GLY - 125 360.0 -107.7 N 116.38 CA 120.91 C 122.85 O 119.81
B LYS - 112 -87.2 -175.2 N 118.48 CA 107.89 C 100.28 O 100.91 CB 108.98 CG 103.16 CD 108.76 CE 113.29 NZ 121.49
B SER - 20 -114.6 161.0 N 88.36 CA 73.94 C 74.01 O 65.39 CB 74.73 OG 100.46
B THR H 77 -40.2 -50.4 N 64.64 CA 60.57 C 77.62 O 90.54 CB 60.34 OG1 57.17 CG2 68.83
B PHE H 14 -49.7 -66.8 N 67.75 CA 50.44 C 52.1 O 52.63 CB 60.86 CG 76.19 CD1 69.35 CD2 76.36 CE1 78.42 CE2 75.75 CZ 82.81
B VAL H 60 -40.5 -65.3 N 62.17 CA 59.86 C 61.44 O 59.54 CB 56.26 CG1 45.84 CG2 33.8
B GLU H 8 -49.9 -39.6 N 73.48 CA 75.72 C 69.59 O 75.28 CB 71.62 CG 72.68 CD 79.82 OE1 90.97 OE2 61.91
B GLU H 74 -42.9 -39.9 N 55.9 CA 63.79 C 63.52 O 67.52 CB 78.0 CG 111.37 CD 111.13 OE1 113.33 OE2 111.88
B GLU H 36 -54.5 -60.0 N 50.08 CA 60.09 C 54.3 O 24.27 CB 81.15 CG 88.6 CD 99.15 OE1 103.43 OE2 95.9
B VAL H 1 -55.8 -41.8 N 41.93 CA 39.33 C 49.36 O 44.02 CB 18.62 CG1 38.22 CG2 24.6
B ALA H 5 -47.2 -55.7 N 25.54 CA 31.96 C 34.73 O 35.84 CB 30.98
B LEU H 90 -50.6 -53.6 N 49.18 CA 68.53 C 72.48 O 57.0 CB 69.63 CG 98.85 CD1 111.33 CD2 97.22
B ILE H 3 -51.3 -53.3 N 63.25 CA 54.43 C 62.88 O 63.35 CB 62.65 CG1 56.46 CG2 56.03 CD1 53.55
B LEU H 6 -58.7 -33.3 N 40.31 CA 44.19 C 48.59 O 65.68 CB 19.51 CG 40.48 CD1 0.0 CD2 46.41
B LYS T 119 -91.8 12.9 N 44.79 CA 34.0 C 54.14 O 45.42 CB 47.61 CG 79.72 CD 99.31 CE 100.82 NZ 109.64
B GLU T 102 -149.4 -26.2 N 59.68 CA 60.63 C 62.83 O 57.83 CB 64.3 CG 79.2 CD 92.56 OE1 104.97 OE2 106.11
B ALA - 7 -60.5 149.7 N 63.25 CA 58.49 C 70.55 O 84.86 CB 51.77
B THR - 42 -140.7 -174.6 N 70.83 CA 64.75 C 63.89 O 51.17 CB 62.32 OG1 111.36 CG2 81.15
B GLU S 108 -66.7 -9.0 N 89.39 CA 101.51 C 98.21 O 106.03 CB 114.55 CG 121.17 CD 121.56 OE1 121.21 OE2 122.56
B ASN S 57 -115.3 -14.2 N 87.09 CA 81.77 C 75.82 O 81.83 CB 80.2 CG 96.38 OD1 110.23 ND2 96.2
B SER - 0 -60.5 153.2 N 60.62 CA 46.5 C 59.37 O 73.16 CB 48.31 OG 79.64
B LEU E 0 -112.4 129.7 N 50.89 CA 44.54 C 37.37 O 56.73 CB 52.58 CG 65.49 CD1 55.22 CD2 56.92
B VAL E 0 -132.3 136.7 N 10.05 CA 1.73 C 31.21 O 50.83 CB 1.59 CG1 4.77 CG2 0.0
B LEU E 0 -122.6 118.3 N 31.05 CA 46.72 C 46.71 O 62.45 CB 47.55 CG 60.31 CD1 71.97 CD2 51.35
B LEU E 0 -115.6 150.8 N 39.7 CA 48.26 C 46.05 O 42.11 CB 60.93 CG 64.68 CD1 74.31 CD2 51.16
B ASP E 11 -141.7 112.3 N 43.41 CA 43.86 C 37.96 O 60.69 CB 63.04 CG 93.01 OD1 103.2 OD2 95.09
B GLU S 18 54.9 27.2 N 43.2 CA 42.02 C 54.01 O 53.49 CB 24.8 CG 53.29 CD 84.91 OE1 51.98 OE2 82.68
B VAL - 2 -50.3 130.4 N 53.3 CA 50.72 C 42.66 O 37.57 CB 55.32 CG1 55.25 CG2 58.36
B GLY S 2 78.5 57.5 N 57.34 CA 66.96 C 67.37 O 56.7
B ARG - 52 -120.9 -165.2 N 69.07 CA 57.48 C 65.33 O 55.73 CB 73.76 CG 92.16 CD 95.79 NE 89.77 CZ 60.75 NH1 65.01 NH2 50.58
B GLY S 18 45.0 57.1 N 81.44 CA 83.95 C 81.75 O 80.73
B THR S 22 -171.3 161.9 N 76.1 CA 66.62 C 64.72 O 69.62 CB 66.82 OG1 23.54 CG2 46.58
B SER - 8 -58.5 151.5 N 67.57 CA 58.57 C 64.97 O 43.93 CB 35.41 OG 42.36
B SER H 28 -23.6 -90.6 N 63.31 CA 67.49 C 75.17 O 84.98 CB 65.37 OG 35.5
B LEU H 74 -45.3 -65.7 N 62.78 CA 66.45 C 72.5 O 77.63 CB 75.12 CG 76.91 CD1 59.65 CD2 59.7
B ASP H 2 -34.5 -42.5 N 61.47 CA 41.8 C 48.3 O 30.64 CB 57.99 CG 72.36 OD1 71.54 OD2 62.88
B GLY H 0 -56.4 -77.1 N 38.75 CA 33.19 C 46.54 O 36.43
B VAL H 10 -53.2 -23.5 N 50.12 CA 44.18 C 41.64 O 25.92 CB 42.27 CG1 55.82 CG2 46.1
B ALA H 0 -66.6 -80.1 N 46.63 CA 47.5 C 55.19 O 56.57 CB 33.21
B ILE H 3 -35.3 -51.6 N 62.41 CA 63.59 C 68.56 O 48.14 CB 51.65 CG1 57.86 CG2 45.52 CD1 60.09
B ALA H 0 -42.2 -50.5 N 56.21 CA 48.29 C 66.95 O 49.79 CB 33.18
B THR H 6 -60.9 -50.0 N 76.95 CA 58.71 C 51.8 O 30.24 CB 50.22 OG1 43.57 CG2 77.76
B ALA H 2 -55.4 -58.7 N 35.09 CA 39.67 C 52.02 O 34.49 CB 28.16
B VAL H 0 -48.1 -48.8 N 63.61 CA 65.64 C 63.21 O 54.35 CB 72.77 CG1 69.43 CG2 60.07
B ALA H 2 -52.1 -76.2 N 47.16 CA 51.09 C 63.89 O 54.62 CB 34.72
B GLU H 29 -41.0 -46.1 N 69.0 CA 51.2 C 55.57 O 34.52 CB 53.67 CG 65.94 CD 79.59 OE1 78.14 OE2 67.78
B ALA H 20 -49.0 -53.3 N 59.4 CA 48.54 C 53.57 O 46.63 CB 42.99
B LEU H 1 -71.8 -42.4 N 49.12 CA 56.76 C 65.46 O 68.0 CB 60.03 CG 48.83 CD1 32.59 CD2 34.19
B HIS H 5 -48.3 -49.9 N 70.14 CA 75.68 C 72.33 O 71.69 CB 75.18 CG 93.2 ND1 102.53 CD2 98.27 CE1 99.57 NE2 101.43
B GLU H 121 -64.3 -31.6 N 50.82 CA 50.68 C 54.08 O 59.18 CB 72.6 CG 115.32 CD 131.42 OE1 135.98 OE2 124.29
B ARG H 83 -66.6 -20.6 N 74.17 CA 75.13 C 64.23 O 49.52 CB 81.29 CG 73.53 CD 63.45 NE 60.56 CZ 57.23 NH1 71.39 NH2 68.56
B ARG T 132 60.9 34.3 N 56.42 CA 77.44 C 78.13 O 59.16 CB 94.77 CG 104.16 CD 112.24 NE 125.49 CZ 139.34 NH1 140.27 NH2 138.3
B ALA - 2 -98.9 140.5 N 79.65 CA 69.13 C 65.78 O 67.87 CB 52.69
B TYR E 2 -56.0 106.9 N 64.61 CA 57.21 C 56.01 O 53.79 CB 63.38 CG 65.6 CD1 65.9 CD2 53.17 CE1 60.71 CE2 44.08 CZ 60.02 OH 75.44
B THR E 0 -124.8 119.1 N 50.96 CA 44.59 C 64.0 O 83.29 CB 39.93 OG1 54.27 CG2 59.9
B LEU E 0 -102.7 83.9 N 62.39 CA 51.27 C 39.74 O 66.4 CB 45.47 CG 61.52 CD1 64.01 CD2 72.56
B PHE E 0 -87.6 122.7 N 32.22 CA 37.94 C 38.66 O 44.94 CB 37.19 CG 37.55 CD1 10.55 CD2 29.47 CE1 41.03 CE2 59.31 CZ 47.34
B ALA E 1 -112.6 121.1 N 56.92 CA 52.56 C 46.05 O 55.9 CB 32.77
B THR - 5 -142.0 176.7 N 34.05 CA 34.35 C 21.71 O 43.57 CB 41.21 OG1 19.83 CG2 42.35
B HIS S 15 -114.6 -5.0 N 14.18 CA 60.96 C 77.24 O 78.47 CB 78.22 CG 80.5 ND1 70.07 CD2 82.55 CE1 88.37 NE2 88.57
B TYR - 27 -72.9 98.1 N 81.08 CA 60.6 C 63.94 O 62.63 CB 50.38 CG 34.72 CD1 29.9 CD2 19.81 CE1 22.79 CE2 18.44 CZ 35.1 OH 45.0
B PHE H 60 -57.6 -59.4 N 64.52 CA 53.59 C 61.2 O 48.12 CB 36.51 CG 43.17 CD1 45.02 CD2 39.27 CE1 55.26 CE2 23.22 CZ 32.83
B GLU H 74 -28.9 -52.9 N 38.57 CA 44.2 C 57.46 O 66.94 CB 41.6 CG 18.57 CD 46.01 OE1 31.79 OE2 57.82
B LEU H 0 -51.3 -47.2 N 54.34 CA 55.56 C 54.05 O 62.67 CB 74.56 CG 86.85 CD1 101.82 CD2 87.59
B THR H 20 -54.4 -30.4 N 56.78 CA 61.07 C 73.43 O 75.25 CB 64.01 OG1 41.86 CG2 38.14
B ALA S 84 -104.8 72.7 N 86.5 CA 89.83 C 84.34 O 77.76 CB 93.65
B LEU - 47 -128.2 34.6 N 62.53 CA 66.63 C 76.2 O 72.56 CB 80.87 CG 92.99 CD1 99.61 CD2 95.86
B GLY - 86 2.9 79.2 N 78.73 CA 90.59 C 84.49 O 98.32
B LEU - 37 -117.3 148.4 N 55.21 CA 56.72 C 57.22 O 46.98 CB 67.87 CG 71.11 CD1 75.53 CD2 77.99
B PRO T 115 -53.8 -40.7 N 65.77 CA 76.79 C 89.72 O 92.74 CB 78.18 CG 78.18 CD 60.66
B ARG T 40 -99.8 18.5 N 89.51 CA 74.33 C 59.87 O 64.76 CB 62.51 CG 65.95 CD 95.19 NE 97.71 CZ 95.32 NH1 96.65 NH2 106.5
B LEU - 26 -75.8 -179.2 N 49.43 CA 50.4 C 62.95 O 75.28 CB 55.05 CG 61.27 CD1 80.36 CD2 57.52
B LYS - 59 -178.7 145.0 N 63.07 CA 62.68 C 56.67 O 62.17 CB 53.61 CG 87.6 CD 86.23 CE 95.32 NZ 96.96
B ASN E 29 -129.4 130.6 N 44.89 CA 56.87 C 69.18 O 78.47 CB 57.84 CG 58.02 OD1 45.01 ND2 65.68
B LEU E 18 -133.3 143.7 N 62.89 CA 40.39 C 51.21 O 65.67 CB 0.0 CG 31.47 CD1 29.5 CD2 51.97
B HIS E 34 -137.7 161.4 N 47.01 CA 60.93 C 57.46 O 47.27 CB 66.99 CG 73.83 ND1 61.22 CD2 58.59 CE1 30.98 NE2 47.11
B VAL E 0 -122.5 149.1 N 53.8 CA 62.7 C 83.32 O 82.32 CB 43.13 CG1 16.86 CG2 24.13
B ALA - 25 -112.3 161.2 N 101.06 CA 110.13 C 111.17 O 120.21 CB 95.85
B ALA - 0 -116.0 -173.0 N 110.63 CA 112.66 C 116.67 O 111.76 CB 101.34
B ARG - 157 -172.0 94.0 N 116.29 CA 119.63 C 127.15 O 128.86 CB 123.7 CG 113.39 CD 118.3 NE 149.98 CZ 165.19 NH1 178.74 NH2 163.65
B GLU - 99 -49.1 65.6 N 132.09 CA 136.31 C 143.03 O 142.24 CB 135.8 CG 129.26 CD 127.18 OE1 135.29 OE2 93.43
B GLU - 131 -79.9 -132.4 N 155.12 CA 165.9 C 160.96 O 153.47 CB 175.28 CG 187.46 CD 188.92 OE1 187.36 OE2 182.04
B ALA S 110 -78.6 -14.5 N 156.51 CA 160.58 C 164.37 O 168.76 CB 160.87
B GLY S 78 -99.6 -36.6 N 162.44 CA 154.18 C 150.68 O 142.86
B GLY S 29 156.4 -26.8 N 152.14 CA 134.34 C 118.34 O 109.83
B LEU - 11 -167.8 172.8 N 110.69 CA 98.18 C 87.99 O 84.62 CB 98.36 CG 99.15 CD1 92.85 CD2 105.09
B VAL - 33 -153.7 69.1 N 74.39 CA 75.88 C 79.35 O 39.29 CB 76.88 CG1 76.11 CG2 77.15
B PHE - 40 -54.8 142.5 N 97.48 CA 108.74 C 101.16 O 83.72 CB 117.81 CG 131.52 CD1 143.76 CD2 130.8 CE1 140.87 CE2 139.38 CZ 136.55
B TYR - 109 -117.6 133.7 N 110.13 CA 118.9 C 127.06 O 137.49 CB 117.29 CG 110.16 CD1 107.75 CD2 91.25 CE1 118.45 CE2 97.34 CZ 116.48 OH 128.94
B HIS S 90 -76.3 47.6 N 124.82 CA 121.18 C 115.63 O 96.83 CB 131.76 CG 150.47 ND1 157.56 CD2 157.9 CE1 161.56 NE2 164.75
B GLN - 51 -122.6 130.5 N 110.1 CA 102.16 C 95.92 O 92.21 CB 109.46 CG 128.94 CD 149.74 OE1 160.63 NE2 160.54
B VAL E 14 -100.2 107.0 N 97.02 CA 92.61 C 93.37 O 68.77 CB 92.8 CG1 87.4 CG2 98.72
B LEU E 89 -103.8 142.1 N 99.74 CA 93.16 C 94.34 O 94.43 CB 78.02 CG 70.05 CD1 35.16 CD2 52.42
B PRO E 103 -59.5 156.4 N 87.26 CA 75.49 C 64.32 O 60.36 CB 62.11 CG 66.44 CD 83.48
B GLY S 31 80.9 137.2 N 47.06 CA 56.8 C 49.79 O 64.46
B PRO - 62 -54.1 162.8 N 54.27 CA 65.51 C 53.59 O 66.38 CB 66.89 CG 63.47 CD 69.03
B ALA - 8 -74.6 132.7 N 68.79 CA 75.43 C 83.64 O 78.76 CB 79.82
B SER S 112 -71.1 -59.3 N 84.04 CA 91.86 C 85.7 O 84.26 CB 109.08 OG 131.63
B LYS S 112 -92.4 179.3 N 80.15 CA 82.5 C 83.73 O 81.33 CB 80.55 CG 97.62 CD 101.32 CE 97.11 NZ 100.58
B SER - 26 -111.7 143.2 N 85.83 CA 95.51 C 92.54 O 90.13 CB 110.19 OG 120.23
B TYR - 35 -110.7 1.2 N 86.13 CA 88.9 C 75.0 O 70.1 CB 105.03 CG 126.98 CD1 130.6 CD2 121.71 CE1 124.4 CE2 115.32 CZ 116.2 OH 102.73
B GLY H 6 -42.3 -87.4 N 60.13 CA 47.43 C 38.85 O 41.16
B VAL H 0 -37.8 -35.6 N 40.18 CA 52.9 C 69.43 O 71.48 CB 63.27 CG1 36.23 CG2 75.37
B GLU H 17 -58.8 -76.0 N 80.48 CA 86.13 C 77.71 O 51.38 CB 92.53 CG 94.86 CD 103.12 OE1 104.91 OE2 93.91
B VAL H 7 -37.1 -56.5 N 71.09 CA 64.72 C 64.57 O 66.21 CB 67.69 CG1 72.09 CG2 64.43
B ALA H 1 -44.7 -61.8 N 53.3 CA 50.0 C 45.95 O 49.57 CB 68.08
B ALA H 22 -50.8 -52.4 N 65.68 CA 78.7 C 83.5 O 78.52 CB 70.11
B ALA H 11 -37.8 -35.1 N 71.04 CA 54.98 C 57.55 O 69.35 CB 61.75
B GLY T 26 138.5 8.4 N 54.76 CA 65.64 C 65.93 O 65.04
B LEU - 14 -55.9 143.1 N 69.99 CA 56.88 C 59.48 O 71.99 CB 46.95 CG 45.96 CD1 18.29 CD2 27.49
B PRO - 18 -62.8 133.8 N 57.38 CA 69.02 C 77.36 O 76.53 CB 65.7 CG 74.93 CD 62.84
B LYS H 177 -50.0 -36.9 N 88.79 CA 91.86 C 84.55 O 95.2 CB 103.16 CG 120.28 CD 122.25 CE 111.78 NZ 105.19
B GLU H 130 -67.3 -45.6 N 67.99 CA 77.54 C 76.44 O 84.77 CB 81.96 CG 115.97 CD 132.75 OE1 140.12 OE2 147.18
B VAL H 16 -57.5 -47.2 N 75.49 CA 83.33 C 83.53 O 81.25 CB 74.19 CG1 77.33 CG2 73.46
B VAL H 7 -58.3 -44.4 N 81.06 CA 81.31 C 92.91 O 109.94 CB 78.63 CG1 70.86 CG2 81.99
B ALA H 45 -57.2 -68.1 N 82.25 CA 73.3 C 71.17 O 80.21 CB 61.67
B ARG H 101 -48.1 -15.8 N 62.36 CA 68.2 C 64.79 O 60.0 CB 82.57 CG 84.97 CD 89.72 NE 99.19 CZ 99.42 NH1 116.12 NH2 88.0
B ALA H 2 -87.9 -56.9 N 62.13 CA 59.19 C 66.78 O 68.89 CB 60.98
B ARG H 102 -54.0 -38.8 N 78.71 CA 82.09 C 79.38 O 89.92 CB 77.05 CG 65.96 CD 87.37 NE 90.61 CZ 98.72 NH1 92.99 NH2 99.38
B ALA H 47 -60.5 -74.8 N 59.79 CA 63.73 C 62.4 O 58.77 CB 39.71
B LEU H 30 -39.3 -32.6 N 64.19 CA 58.7 C 64.33 O 67.5 CB 44.01 CG 46.8 CD1 50.17 CD2 74.37
B LEU H 29 -64.4 -64.4 N 59.53 CA 73.62 C 88.72 O 88.74 CB 61.18 CG 69.47 CD1 72.69 CD2 59.73
B GLN H 168 -43.2 -55.6 N 95.58 CA 94.18 C 102.76 O 103.64 CB 84.21 CG 103.14 CD 114.12 OE1 115.14 NE2 113.07
B ALA T 84 -59.0 16.7 N 107.79 CA 104.17 C 101.19 O 98.67 CB 101.43
