A ASN S 55 -120.8 -56.0 N 8.38 CA 8.09 C 7.88 O 8.59 CB 8.1 CG 8.37 OD1 10.07 ND2 8.22
B ASN S 109 -115.4 -57.7 N 8.72 CA 8.44 C 7.52 O 9.27 CB 11.77 CG 19.27 OD1 24.95 ND2 21.72
C ASN - 1 -105.5 -55.0 N 5.37 CA 5.8 C 5.61 O 6.49 CB 5.9 CG 6.56 OD1 9.22 ND2 7.49
D LYS - 103 360.0 142.6 N 17.25 CA 13.54 C 9.78 O 9.61 CB 18.34 CG 21.79
E LYS - 148 360.0 42.8 N 5.88 CA 5.8 C 5.36 O 5.94 CB 6.24 CG 7.41 CD 8.28 CE 8.96 NZ 10.4
F LYS - 181 360.0 152.4 N 9.8 CA 7.73 C 6.82 O 7.2 CB 8.41 CG 10.17 CD 14.15 CE 17.6 NZ 27.75
