A LYS - 195 360.0 144.4 N 32.93 CA 31.28 C 28.82 O 28.35 CB 34.33 CG 36.46 CD 38.47 CE 39.67 NZ 41.58
A ILE - 15 -67.7 150.0 N 26.27 CA 24.46 C 22.68 O 22.61 CB 25.28 CG1 25.97 CG2 25.89 CD1 26.52
A PRO - 11 -63.2 150.2 N 20.81 CA 19.99 C 19.89 O 19.94 CB 19.61 CG 18.75 CD 20.41
A PRO T 83 -72.1 145.4 N 19.9 CA 19.46 C 18.36 O 18.82 CB 20.13 CG 22.84 CD 21.39
A ARG T 73 67.1 19.6 N 17.8 CA 18.93 C 18.8 O 21.67 CB 20.57 CG 24.35 CD 27.54 NE 30.51 CZ 32.54 NH1 34.5 NH2 34.35
A TRP - 0 -92.9 -38.4 N 17.3 CA 16.12 C 17.54 O 16.67 CB 13.28 CG 13.53 CD1 13.39 CD2 11.73 NE1 10.78 CE2 12.42 CE3 12.62 CZ2 11.99 CZ3 14.06 CH2 14.35
A LEU T 61 -55.6 -36.0 N 18.54 CA 22.9 C 25.17 O 27.56 CB 23.87 CG 25.4 CD1 27.23 CD2 26.4
A ASN T 71 -91.7 -7.8 N 25.86 CA 27.6 C 25.21 O 25.63 CB 31.18 CG 33.38 OD1 35.47 ND2 34.98
A CYS S 5 -80.4 130.5 N 22.2 CA 18.54 C 17.33 O 14.68 CB 18.11 SG 14.37
A PRO - 61 -57.8 142.5 N 16.5 CA 14.72 C 13.53 O 12.11 CB 16.49 CG 18.91 CD 19.13
A ARG S 78 -65.7 -38.6 N 11.64 CA 10.59 C 10.28 O 12.0 CB 12.05 CG 12.22 CD 12.35 NE 13.94 CZ 14.9 NH1 16.23 NH2 14.89
A ARG B 110 -142.6 156.2 N 12.36 CA 12.45 C 11.88 O 13.05 CB 15.88 CG 18.08 CD 21.14 NE 24.15 CZ 23.82 NH1 23.2 NH2 25.66
A GLY - 7 -96.9 -179.5 N 10.89 CA 10.59 C 11.09 O 13.53
A GLN - 132 -75.9 159.1 N 10.19 CA 12.37 C 12.63 O 12.14 CB 13.94 CG 20.41 CD 24.91 OE1 26.91 NE2 28.4
A PRO - 71 -66.9 145.8 N 11.97 CA 13.32 C 12.43 O 13.86 CB 14.37 CG 16.33 CD 15.25
A VAL B 0 -110.3 127.6 N 10.43 CA 11.43 C 12.83 O 12.08 CB 11.87 CG1 11.63 CG2 13.23
A ALA T 32 56.5 27.2 N 11.04 CA 13.87 C 13.61 O 16.69 CB 14.42
A GLY T 68 61.9 17.5 N 14.61 CA 16.32 C 17.97 O 19.18
A ARG T 62 -134.5 -38.7 N 16.16 CA 18.26 C 16.69 O 16.36 CB 23.31 CG 29.18 CD 33.72 NE 36.31 CZ 37.51 NH1 37.47 NH2 38.89
A PHE E 0 -107.5 135.4 N 12.13 CA 11.19 C 11.77 O 13.74 CB 10.58 CG 10.8 CD1 11.54 CD2 12.75 CE1 12.19 CE2 13.38 CZ 13.33
A LEU E 8 -112.1 105.9 N 9.59 CA 9.47 C 10.08 O 9.59 CB 12.1 CG 10.62 CD1 13.73 CD2 12.39
A PRO E 0 -76.2 133.5 N 10.18 CA 9.7 C 11.09 O 10.49 CB 11.28 CG 12.03 CD 9.86
A LEU E 0 -136.3 155.2 N 9.63 CA 11.28 C 9.62 O 9.06 CB 12.28 CG 15.34 CD1 18.31 CD2 15.74
A LYS - 3 -82.2 168.3 N 10.06 CA 8.3 C 10.16 O 9.08 CB 7.86 CG 9.92 CD 9.96 CE 9.85 NZ 11.0
A THR - 0 -65.1 141.6 N 8.18 CA 9.31 C 9.65 O 8.97 CB 8.9 OG1 8.96 CG2 8.42
A MET - 0 -70.6 160.7 N 9.37 CA 8.87 C 10.17 O 9.3 CB 10.45 CG 10.14 SD 11.58 CE 12.7
A LEU - 4 -130.7 121.0 N 10.08 CA 10.88 C 11.1 O 12.8 CB 11.17 CG 12.03 CD1 12.09 CD2 11.55
A GLY - 2 -73.7 177.7 N 8.94 CA 10.79 C 13.42 O 13.24
A PRO G 72 -52.2 -22.5 N 13.47 CA 15.56 C 14.69 O 16.43 CB 15.41 CG 15.01 CD 14.4
A ARG G 133 -56.3 -27.0 N 15.7 CA 17.49 C 18.9 O 20.34 CB 18.11 CG 18.56 CD 18.59 NE 19.0 CZ 20.8 NH1 22.38 NH2 20.85
A TYR G 20 -98.2 9.0 N 16.96 CA 17.24 C 17.2 O 16.74 CB 16.8 CG 18.32 CD1 20.08 CD2 17.8 CE1 21.19 CE2 18.36 CZ 21.2 OH 22.71
A ASP T 43 -61.0 -24.8 N 15.92 CA 18.88 C 20.89 O 21.5 CB 21.06 CG 23.58 OD1 22.07 OD2 26.13
A SER T 119 -73.6 -17.2 N 23.79 CA 25.82 C 26.58 O 27.9 CB 26.94 OG 29.59
A GLN T 80 -102.5 -8.0 N 25.01 CA 25.1 C 25.22 O 25.71 CB 25.78 CG 27.24 CD 27.54 OE1 28.85 NE2 28.95
A VAL S 5 -128.6 116.6 N 23.66 CA 23.06 C 23.08 O 22.94 CB 21.38 CG1 19.8 CG2 22.75
A ALA - 44 -60.9 150.2 N 23.63 CA 24.16 C 24.71 O 22.27 CB 24.97
A GLU G 139 -48.7 -45.2 N 24.78 CA 27.57 C 26.12 O 24.97 CB 31.57 CG 37.74 CD 41.99 OE1 44.36 OE2 44.14
A GLU G 122 -63.8 -19.2 N 25.12 CA 25.66 C 22.08 O 23.54 CB 29.17 CG 33.85 CD 36.7 OE1 37.04 OE2 38.4
A ASN G 52 -104.6 4.6 N 21.2 CA 19.86 C 18.11 O 17.7 CB 21.2 CG 23.69 OD1 25.38 ND2 25.41
A ARG - 69 -73.9 155.0 N 15.67 CA 14.46 C 12.12 O 13.51 CB 15.4 CG 16.89 CD 19.16 NE 21.43 CZ 24.13 NH1 25.73 NH2 24.36
A PHE - 6 -147.7 67.8 N 9.99 CA 8.53 C 9.42 O 9.19 CB 10.64 CG 10.22 CD1 9.73 CD2 9.06 CE1 11.12 CE2 10.1 CZ 9.79
A HIS - 38 -74.0 156.6 N 10.57 CA 10.65 C 10.67 O 11.96 CB 13.47 CG 14.22 ND1 17.15 CD2 15.57 CE1 16.1 NE2 15.59
A PRO H 0 -52.0 -37.6 N 10.46 CA 11.16 C 12.37 O 12.08 CB 10.42 CG 10.24 CD 10.63
A SER H 53 -54.9 -33.0 N 12.22 CA 13.76 C 13.92 O 13.95 CB 14.16 OG 18.21
A MET H 80 -64.7 -39.5 N 13.12 CA 13.39 C 12.91 O 13.39 CB 13.89 CG 17.08 SD 18.5 CE 22.8
A LEU H 5 -68.8 -45.7 N 12.28 CA 12.33 C 13.04 O 12.23 CB 13.52 CG 13.95 CD1 14.36 CD2 13.54
A SER H 6 -72.3 -32.4 N 11.82 CA 12.69 C 11.92 O 11.88 CB 15.37 OG 16.98
A ASN H 96 -65.3 -36.0 N 11.49 CA 12.52 C 12.89 O 12.26 CB 13.93 CG 15.96 OD1 19.19 ND2 17.93
A TYR H 82 -65.1 -49.5 N 11.57 CA 11.63 C 11.98 O 12.13 CB 14.31 CG 16.88 CD1 20.33 CD2 20.17 CE1 22.06 CE2 20.82 CZ 22.44 OH 26.37
A LEU H 9 -59.1 -43.9 N 10.22 CA 13.08 C 11.82 O 10.4 CB 15.88 CG 19.54 CD1 22.18 CD2 20.14
A LYS H 112 -58.5 -37.8 N 11.25 CA 11.64 C 12.61 O 12.43 CB 13.39 CG 16.78 CD 19.66 CE 22.19 NZ 24.84
A SER H 83 -65.1 -23.6 N 11.36 CA 12.74 C 13.8 O 15.17 CB 14.16 OG 16.72
A LEU T 94 -101.2 3.6 N 11.35 CA 11.23 C 11.12 O 11.61 CB 12.39 CG 13.98 CD1 16.45 CD2 14.38
A LYS T 201 59.7 43.4 N 10.88 CA 12.26 C 12.89 O 13.98 CB 11.07 CG 12.68 CD 14.18 CE 16.38 NZ 18.64
A VAL - 52 -122.2 138.7 N 12.77 CA 14.76 C 13.73 O 13.52 CB 15.49 CG1 16.97 CG2 16.57
A LYS - 145 -109.0 146.9 N 13.46 CA 15.74 C 11.24 O 13.37 CB 19.6 CG 24.74 CD 29.55 CE 32.36 NZ 35.09
A MET E 8 -102.6 122.9 N 12.21 CA 10.79 C 10.8 O 10.89 CB 11.08 CG 11.34 SD 10.76 CE 12.86
A SER E 11 -77.0 -35.1 N 8.93 CA 9.62 C 9.58 O 10.57 CB 9.19 OG 6.97
A LEU E 0 -154.2 144.1 N 10.82 CA 9.92 C 8.11 O 9.02 CB 9.42 CG 9.34 CD1 9.11 CD2 10.68
A LEU E 0 -120.0 118.8 N 8.2 CA 8.56 C 8.33 O 9.32 CB 10.27 CG 11.93 CD1 12.2 CD2 14.78
A VAL E 0 -102.7 116.3 N 8.27 CA 8.19 C 9.0 O 10.14 CB 9.95 CG1 10.09 CG2 10.59
A ASP E 3 -99.4 115.7 N 8.45 CA 9.07 C 11.9 O 10.94 CB 9.23 CG 11.52 OD1 11.94 OD2 12.06
A LEU - 0 -102.2 13.6 N 9.68 CA 11.02 C 14.59 O 14.77 CB 10.68 CG 9.12 CD1 9.07 CD2 10.3
A THR S 12 -81.7 -15.5 N 14.84 CA 15.78 C 18.77 O 19.73 CB 14.51 OG1 13.6 CG2 12.27
A ASN S 44 62.2 27.4 N 19.35 CA 22.09 C 22.82 O 23.75 CB 23.8 CG 24.5 OD1 25.47 ND2 25.08
A THR - 24 -150.5 156.0 N 21.04 CA 20.9 C 19.84 O 19.98 CB 21.8 OG1 22.0 CG2 22.14
A SER S 83 -114.4 13.1 N 18.69 CA 19.67 C 18.92 O 18.67 CB 20.53 OG 23.51
A ARG S 137 -80.9 -9.8 N 18.16 CA 18.8 C 17.44 O 17.34 CB 21.23 CG 24.61 CD 28.77 NE 31.61 CZ 34.13 NH1 34.79 NH2 35.27
A PHE S 3 -86.3 -45.6 N 14.68 CA 13.5 C 11.29 O 12.67 CB 13.03 CG 12.97 CD1 14.51 CD2 13.11 CE1 14.56 CE2 14.9 CZ 14.92
A TYR S 10 -154.3 171.3 N 10.8 CA 10.08 C 11.13 O 12.56 CB 10.81 CG 8.91 CD1 10.27 CD2 10.91 CE1 9.56 CE2 11.55 CZ 11.52 OH 11.2
A ASP - 76 -91.1 119.7 N 12.0 CA 10.74 C 10.59 O 10.49 CB 12.6 CG 15.93 OD1 15.66 OD2 18.76
A ARG T 115 -59.7 -25.9 N 10.13 CA 11.31 C 9.97 O 9.52 CB 12.8 CG 15.6 CD 18.79 NE 20.11 CZ 23.37 NH1 26.61 NH2 23.2
A ASN H 83 -63.0 -24.5 N 9.34 CA 11.04 C 9.88 O 9.59 CB 11.61 CG 15.08 OD1 15.26 ND2 13.16
A ASP H 43 -66.0 -24.3 N 8.59 CA 10.19 C 10.46 O 12.14 CB 11.71 CG 14.77 OD1 15.75 OD2 16.11
A ILE H 0 -88.1 -48.2 N 10.33 CA 10.01 C 10.67 O 9.82 CB 11.67 CG1 13.37 CG2 11.82 CD1 16.55
A GLU H 70 -67.4 -29.4 N 9.4 CA 11.79 C 11.15 O 12.82 CB 13.28 CG 14.85 CD 16.74 OE1 18.14 OE2 18.31
A LYS T 117 -66.6 -18.7 N 11.65 CA 11.84 C 14.42 O 15.93 CB 12.68 CG 13.46 CD 15.64 CE 17.5 NZ 18.65
A GLU T 61 -91.5 4.0 N 13.44 CA 14.98 C 16.73 O 18.81 CB 16.77 CG 18.38 CD 23.13 OE1 25.38 OE2 25.85
A GLY T 68 83.3 15.6 N 15.44 CA 16.16 C 14.27 O 15.78
A ILE - 11 -96.8 129.7 N 10.98 CA 11.48 C 11.58 O 13.22 CB 11.5 CG1 12.66 CG2 12.73 CD1 12.27
A LYS E 77 -70.6 137.5 N 10.97 CA 11.75 C 12.49 O 12.51 CB 14.15 CG 16.65 CD 17.47 CE 18.57 NZ 17.6
A TYR E 12 -117.5 132.2 N 11.21 CA 10.74 C 11.99 O 12.15 CB 13.05 CG 13.44 CD1 15.22 CD2 14.81 CE1 16.8 CE2 15.64 CZ 17.61 OH 19.82
A ILE E 49 -134.8 130.7 N 9.34 CA 10.22 C 12.22 O 12.16 CB 11.16 CG1 13.32 CG2 11.2 CD1 12.97
A LYS E 57 -98.1 105.9 N 12.64 CA 13.61 C 13.66 O 14.6 CB 16.54 CG 21.8 CD 26.11 CE 29.93 NZ 31.71
A LEU - 7 -100.3 105.0 N 13.71 CA 13.79 C 16.63 O 15.53 CB 14.93 CG 14.69 CD1 15.39 CD2 16.55
A GLN - 115 -70.8 126.9 N 18.43 CA 20.89 C 18.55 O 18.31 CB 24.92 CG 32.92 CD 36.4 OE1 39.36 NE2 38.58
A CYS - 7 -111.3 156.3 N 17.44 CA 18.05 C 18.06 O 17.54 CB 19.13 SG 18.46
A LYS - 64 -50.3 132.1 N 19.66 CA 23.66 C 25.9 O 22.88 CB 25.93 CG 30.76 CD 34.22 CE 36.41 NZ 37.99
A GLY - 25 -92.8 -157.8 N 26.57 CA 32.93 C 38.16 O 38.47
A HIS T 171 66.5 20.3 N 42.1 CA 45.45 C 45.46 O 47.15 CB 48.35 CG 50.94 ND1 52.24 CD2 51.98 CE1 52.65 NE2 52.9
A GLY T 40 78.4 -1.1 N 43.99 CA 41.93 C 39.49 O 40.72
A GLU - 101 -74.9 154.2 N 35.8 CA 32.46 C 27.49 O 25.5 CB 36.59 CG 41.64 CD 44.51 OE1 46.39 OE2 46.86
A CYS - 19 -76.5 162.4 N 22.9 CA 20.45 C 17.55 O 18.01 CB 20.39 SG 15.06
A PRO - 0 -50.6 142.0 N 16.43 CA 13.92 C 14.85 O 14.73 CB 12.33 CG 14.95 CD 15.3
A THR - 36 -77.6 173.9 N 14.42 CA 15.68 C 15.5 O 14.37 CB 15.89 OG1 15.42 CG2 16.46
A THR H 77 -63.8 -33.3 N 16.73 CA 17.85 C 17.62 O 16.25 CB 19.65 OG1 21.7 CG2 18.47
A GLU H 121 -65.8 -40.9 N 18.46 CA 19.98 C 17.05 O 15.5 CB 22.88 CG 27.42 CD 28.84 OE1 29.87 OE2 34.05
A ASN H 22 -62.7 -41.8 N 15.86 CA 15.19 C 14.82 O 13.09 CB 15.76 CG 17.09 OD1 18.32 ND2 13.57
A THR H 4 -65.5 -40.5 N 14.15 CA 16.01 C 16.38 O 14.42 CB 18.18 OG1 25.89 CG2 19.14
A GLU H 129 -63.5 -39.2 N 16.11 CA 16.64 C 15.32 O 15.04 CB 21.62 CG 29.62 CD 35.14 OE1 37.0 OE2 38.11
A THR H 46 -61.9 -45.9 N 13.53 CA 13.58 C 14.4 O 13.96 CB 14.68 OG1 15.44 CG2 15.95
A PHE H 0 -59.4 -45.8 N 13.31 CA 13.8 C 13.67 O 12.84 CB 13.09 CG 13.62 CD1 13.52 CD2 13.28 CE1 13.76 CE2 13.56 CZ 14.24
A ILE H 13 -65.6 -44.0 N 13.44 CA 16.67 C 16.82 O 17.52 CB 17.92 CG1 18.28 CG2 19.44 CD1 20.03
A ARG H 113 -56.3 -42.6 N 17.04 CA 19.38 C 18.92 O 19.3 CB 21.31 CG 26.97 CD 28.82 NE 30.58 CZ 30.88 NH1 30.84 NH2 29.26
A LEU H 6 -68.3 -54.6 N 14.7 CA 14.25 C 13.61 O 14.3 CB 12.52 CG 11.38 CD1 13.2 CD2 12.45
A CYS H 0 -68.4 -29.8 N 13.6 CA 15.92 C 18.49 O 17.74 CB 15.45 SG 14.48
A GLU T 98 -65.7 -16.8 N 19.77 CA 21.92 C 22.52 O 24.81 CB 24.92 CG 29.17 CD 31.72 OE1 34.37 OE2 33.76
A ARG T 148 -78.6 -12.9 N 21.5 CA 23.57 C 24.46 O 22.34 CB 24.86 CG 27.79 CD 30.74 NE 33.19 CZ 32.6 NH1 32.45 NH2 34.7
A PHE - 85 -114.0 360.0 N 23.65 CA 26.81 C 29.15 O 32.49 CB 25.87 CG 26.52 CD1 26.35 CD2 25.94 CE1 26.77 CE2 27.7 CZ 27.23
A PRO - 177 360.0 145.1 N 27.03 CA 26.38 C 25.35 O 24.03 CB 26.72 CG 28.14 CD 28.4
A GLU - 92 -140.8 150.3 N 22.71 CA 21.54 C 20.18 O 20.37 CB 23.4 CG 26.28 CD 29.69 OE1 30.6 OE2 30.71
A LEU E 28 -89.3 157.3 N 17.41 CA 14.28 C 13.18 O 12.15 CB 16.29 CG 19.32 CD1 20.26 CD2 19.49
A ILE E 0 -109.6 117.7 N 10.38 CA 8.63 C 8.77 O 9.76 CB 8.98 CG1 10.76 CG2 9.64 CD1 11.18
A GLY E 0 -82.0 142.7 N 7.8 CA 8.28 C 8.95 O 9.94
A VAL E 0 -135.8 127.7 N 8.47 CA 8.52 C 8.7 O 8.27 CB 9.58 CG1 7.81 CG2 9.88
A HIS E 0 -143.4 149.8 N 7.23 CA 8.45 C 9.8 O 10.47 CB 9.25 CG 9.38 ND1 10.19 CD2 10.6 CE1 10.11 NE2 10.48
A CYS - 11 -116.5 -151.0 N 10.38 CA 9.65 C 11.61 O 11.47 CB 11.59 SG 9.11
A THR S 33 -71.8 -45.4 N 8.99 CA 9.92 C 10.21 O 9.06 CB 10.9 OG1 13.08 CG2 10.84
A HIS S 27 -106.1 -17.1 N 11.07 CA 11.7 C 11.42 O 11.12 CB 13.55 CG 15.43 ND1 17.23 CD2 16.54 CE1 16.34 NE2 15.81
A GLY S 0 87.0 22.9 N 11.15 CA 11.4 C 9.99 O 10.24
A PHE S 4 -121.3 -60.0 N 8.57 CA 8.1 C 8.29 O 9.71 CB 9.6 CG 9.54 CD1 10.6 CD2 10.75 CE1 10.97 CE2 10.33 CZ 10.31
A ASN H 12 -80.5 -62.1 N 9.3 CA 8.33 C 9.2 O 9.26 CB 9.87 CG 10.92 OD1 11.42 ND2 12.72
A ARG H 43 -61.2 -44.6 N 9.83 CA 9.07 C 8.96 O 8.29 CB 9.45 CG 12.95 CD 13.88 NE 15.54 CZ 16.93 NH1 17.24 NH2 18.7
A THR H 0 -57.1 -53.0 N 7.78 CA 8.99 C 9.58 O 8.01 CB 8.73 OG1 10.07 CG2 9.84
A GLY H 0 -65.5 -38.8 N 6.12 CA 7.87 C 8.02 O 7.72
A PHE H 0 -58.5 -48.9 N 8.93 CA 8.27 C 8.98 O 8.71 CB 9.28 CG 9.22 CD1 10.99 CD2 10.47 CE1 10.79 CE2 11.68 CZ 11.24
A LEU H 0 -71.0 -39.3 N 8.56 CA 8.96 C 9.27 O 9.2 CB 11.2 CG 12.56 CD1 13.33 CD2 13.92
A ILE H 0 -62.1 -45.6 N 8.62 CA 8.62 C 8.89 O 9.56 CB 8.5 CG1 8.72 CG2 11.04 CD1 10.58
A CYS H 0 -61.7 -40.1 N 8.61 CA 9.42 C 8.97 O 11.29 CB 10.65 SG 10.57
A ALA H 1 -62.7 -40.3 N 9.15 CA 10.62 C 10.93 O 11.98 CB 10.99
A PHE H 0 -63.2 -46.1 N 11.05 CA 12.69 C 11.8 O 11.79 CB 11.93 CG 12.96 CD1 13.28 CD2 13.73 CE1 14.8 CE2 14.5 CZ 13.26
A LEU H 0 -59.3 -39.3 N 10.44 CA 12.57 C 13.97 O 14.65 CB 13.01 CG 17.15 CD1 17.84 CD2 20.08
A VAL H 23 -75.5 -51.6 N 11.72 CA 12.2 C 13.47 O 15.65 CB 12.69 CG1 13.02 CG2 12.77
A GLU H 97 -73.2 -37.0 N 13.16 CA 14.37 C 15.47 O 16.54 CB 14.81 CG 16.79 CD 20.07 OE1 23.29 OE2 20.3
A LYS H 81 -105.9 -30.1 N 16.11 CA 18.48 C 19.24 O 19.45 CB 21.8 CG 25.24 CD 29.72 CE 32.23 NZ 35.43
A MET H 63 -102.2 -1.4 N 16.65 CA 16.82 C 16.87 O 18.76 CB 17.23 CG 18.52 SD 18.63 CE 21.12
A ASP - 144 63.1 35.6 N 18.81 CA 20.69 C 20.05 O 19.36 CB 25.21 CG 29.3 OD1 32.15 OD2 32.3
A TRP - 69 -85.8 160.3 N 16.86 CA 15.16 C 13.4 O 13.79 CB 16.18 CG 18.18 CD1 18.28 CD2 20.28 NE1 19.72 CE2 21.11 CE3 21.8 CZ2 22.03 CZ3 22.16 CH2 22.25
A SER - 57 -80.0 158.1 N 11.33 CA 10.74 C 11.07 O 10.87 CB 11.6 OG 12.24
A ILE H 3 -71.9 -30.4 N 9.74 CA 9.74 C 10.21 O 9.44 CB 9.23 CG1 9.99 CG2 11.11 CD1 9.85
A GLU H 93 -59.7 -45.7 N 10.02 CA 10.23 C 10.62 O 10.63 CB 11.46 CG 12.01 CD 13.91 OE1 13.09 OE2 13.89
A ALA H 37 -67.3 -39.8 N 10.33 CA 10.74 C 10.86 O 10.46 CB 11.49
A ALA H 0 -63.4 -51.6 N 8.74 CA 9.7 C 9.9 O 9.46 CB 10.64
A VAL H 21 -62.8 -44.2 N 10.12 CA 8.83 C 9.13 O 9.81 CB 10.46 CG1 11.35 CG2 11.04
A ALA H 51 -66.5 -38.7 N 9.25 CA 10.01 C 8.92 O 9.91 CB 10.54
A THR H 47 -67.3 -38.9 N 8.97 CA 10.08 C 11.26 O 10.26 CB 12.36 OG1 16.35 CG2 14.93
A PHE H 1 -66.8 -37.1 N 9.74 CA 8.84 C 9.39 O 10.26 CB 8.99 CG 8.15 CD1 8.18 CD2 8.32 CE1 9.32 CE2 9.36 CZ 9.08
A ALA H 34 -63.8 -37.1 N 8.87 CA 9.86 C 10.96 O 13.22 CB 10.55
A GLN H 159 -77.8 -36.2 N 10.4 CA 12.3 C 12.58 O 14.02 CB 15.0 CG 21.94 CD 25.4 OE1 30.47 NE2 28.86
A ALA H 9 -71.2 -33.2 N 10.38 CA 10.26 C 10.26 O 11.55 CB 9.65
A ARG S 4 -139.2 65.4 N 9.17 CA 10.41 C 11.51 O 12.2 CB 11.36 CG 13.2 CD 12.29 NE 12.8 CZ 12.2 NH1 11.89 NH2 11.51
A PRO T 81 -61.1 138.7 N 12.55 CA 13.66 C 14.23 O 14.4 CB 14.84 CG 16.43 CD 13.88
A PRO T 23 -90.7 17.6 N 14.09 CA 15.77 C 13.79 O 14.66 CB 16.04 CG 16.83 CD 16.46
A GLY - 0 81.5 -159.5 N 12.04 CA 12.5 C 9.89 O 11.14
A ILE - 9 -63.7 128.6 N 9.16 CA 9.78 C 10.99 O 12.07 CB 10.45 CG1 9.92 CG2 11.17 CD1 12.45
A TYR - 39 -120.4 2.9 N 11.06 CA 13.02 C 13.76 O 14.47 CB 11.71 CG 13.7 CD1 13.65 CD2 15.23 CE1 16.22 CE2 16.23 CZ 18.7 OH 22.13
A LYS - 72 -91.1 119.9 N 13.01 CA 14.25 C 14.21 O 13.03 CB 16.34 CG 20.23 CD 22.59 CE 25.88 NZ 27.39
A GLY H 22 -58.8 -36.4 N 14.36 CA 14.66 C 14.36 O 14.77
A ASP H 89 -68.7 -28.8 N 16.21 CA 17.04 C 14.34 O 13.98 CB 22.89 CG 28.34 OD1 31.93 OD2 32.66
A TYR H 4 -70.0 -44.3 N 10.84 CA 10.77 C 9.99 O 10.5 CB 11.67 CG 11.61 CD1 14.1 CD2 12.28 CE1 15.19 CE2 12.94 CZ 14.92 OH 18.08
A LEU H 5 -62.8 -41.5 N 10.0 CA 9.96 C 11.24 O 12.69 CB 11.55 CG 11.57 CD1 12.98 CD2 11.73
A LYS H 109 -63.9 -39.5 N 12.83 CA 14.0 C 12.47 O 13.13 CB 16.59 CG 21.96 CD 26.13 CE 28.63 NZ 31.53
A GLU H 37 -70.9 -33.0 N 11.79 CA 12.55 C 12.63 O 11.91 CB 13.75 CG 16.21 CD 18.36 OE1 19.83 OE2 18.82
A LEU H 0 -66.3 -40.5 N 10.26 CA 11.49 C 11.24 O 10.95 CB 9.95 CG 10.42 CD1 9.18 CD2 10.74
A PHE H 7 -69.4 -35.7 N 10.87 CA 11.05 C 12.47 O 13.47 CB 11.04 CG 11.09 CD1 12.2 CD2 10.78 CE1 11.15 CE2 11.26 CZ 12.53
A ARG H 134 -63.4 -43.7 N 12.36 CA 13.71 C 13.15 O 13.89 CB 15.2 CG 17.28 CD 18.12 NE 22.08 CZ 24.12 NH1 24.46 NH2 24.41
A ARG H 55 -70.6 -42.9 N 12.02 CA 12.71 C 14.09 O 14.06 CB 13.02 CG 11.61 CD 12.83 NE 14.05 CZ 14.16 NH1 14.06 NH2 17.63
A TYR H 49 -117.4 -5.1 N 12.61 CA 12.7 C 12.88 O 13.39 CB 12.0 CG 11.76 CD1 11.74 CD2 12.3 CE1 13.04 CE2 14.15 CZ 15.33 OH 17.0
A GLY S 43 -148.2 -130.2 N 11.84 CA 12.91 C 14.36 O 14.75
A ASP - 68 -113.3 118.3 N 12.54 CA 12.77 C 13.97 O 14.7 CB 14.33 CG 14.5 OD1 15.69 OD2 17.23
A ILE G 74 -55.4 -34.1 N 13.84 CA 16.16 C 17.08 O 17.15 CB 16.8 CG1 17.89 CG2 16.44 CD1 20.45
A GLU G 171 -64.7 -17.2 N 16.98 CA 20.51 C 19.84 O 21.7 CB 23.14 CG 28.25 CD 32.64 OE1 35.77 OE2 34.59
A GLU G 120 -99.0 4.0 N 17.41 CA 17.47 C 15.99 O 15.95 CB 19.48 CG 21.83 CD 25.8 OE1 25.35 OE2 26.86
A ALA - 17 -61.3 136.0 N 14.67 CA 14.69 C 14.92 O 17.24 CB 14.89
A PRO - 45 -76.5 152.7 N 16.96 CA 18.44 C 18.73 O 17.49 CB 17.48 CG 18.63 CD 16.98
A PRO - 104 -69.3 161.9 N 20.3 CA 19.1 C 17.92 O 18.18 CB 20.34 CG 20.74 CD 20.98
A PRO - 63 -62.8 149.4 N 18.96 CA 19.28 C 19.16 O 18.49 CB 20.73 CG 21.03 CD 19.93
A PRO - 48 -71.8 157.8 N 18.23 CA 18.48 C 17.84 O 18.99 CB 18.48 CG 18.41 CD 18.59
A VAL - 141 -74.1 137.1 N 21.11 CA 22.24 C 22.27 O 22.03 CB 23.45 CG1 25.98 CG2 24.64
A LEU - 52 -85.7 146.9 N 21.49 CA 22.93 C 26.32 O 27.4 CB 20.43 CG 21.02 CD1 21.8 CD2 18.98
A PRO - 44 -68.9 154.9 N 26.31 CA 27.65 C 27.59 O 23.92 CB 27.72 CG 28.05 CD 27.98
A ASP G 147 -58.6 -28.5 N 29.61 CA 32.06 C 31.13 O 31.94 CB 35.75 CG 38.43 OD1 39.66 OD2 39.36
A TRP G 62 -62.8 -25.0 N 30.48 CA 29.51 C 28.32 O 26.61 CB 28.98 CG 29.71 CD1 29.71 CD2 28.46 NE1 29.71 CE2 29.2 CE3 28.91 CZ2 28.34 CZ3 29.21 CH2 27.26
A CYS G 7 -53.3 -36.6 N 27.91 CA 27.03 C 28.49 O 29.85 CB 26.76 SG 25.95
A PHE G 104 -114.6 22.7 N 28.32 CA 29.57 C 28.7 O 29.61 CB 31.34 CG 32.61 CD1 33.39 CD2 33.63 CE1 33.6 CE2 35.3 CZ 34.37
A GLU T 132 -63.9 -26.9 N 26.43 CA 24.67 C 23.94 O 23.93 CB 25.82 CG 26.81 CD 27.83 OE1 28.76 OE2 29.42
A ASP T 82 -100.6 10.5 N 22.39 CA 21.71 C 21.23 O 21.09 CB 21.46 CG 22.84 OD1 22.98 OD2 21.64
A GLU - 138 -60.2 -35.3 N 19.67 CA 19.56 C 18.67 O 17.83 CB 20.41 CG 21.52 CD 22.51 OE1 22.28 OE2 23.48
A ASP - 188 -99.4 360.0 N 18.45 CA 17.28 C 19.67 O 22.11 CB 16.62 CG 14.94 OD1 14.07 OD2 14.39
