A ALA - 121 360.0 158.3 N 36.11 CA 28.94 C 25.62 O 26.26 CB 28.58
A ALA T 116 -53.3 -41.7 N 24.96 CA 23.11 C 22.55 O 20.66 CB 20.93
A SER T 39 -98.1 11.4 N 23.18 CA 18.72 C 17.95 O 18.72 CB 19.41 OG 24.18
A HIS H 107 -58.8 -48.8 N 15.12 CA 15.36 C 13.48 O 17.58 CB 18.03 CG 26.36 ND1 27.25 CD2 26.26 CE1 29.03 NE2 27.9
A GLU H 136 -59.1 -47.4 N 13.61 CA 13.72 C 15.25 O 16.15 CB 10.98 CG 12.9 CD 17.45 OE1 18.91 OE2 19.53
A GLU H 125 -55.8 -50.3 N 11.75 CA 15.89 C 15.44 O 15.92 CB 19.77 CG 24.51 CD 33.63 OE1 43.26 OE2 42.8
A ARG H 154 -65.6 -38.4 N 14.94 CA 16.41 C 16.78 O 11.97 CB 21.15 CG 21.93 CD 29.13 NE 38.35 CZ 41.75 NH1 46.14 NH2 43.08
A MET H 63 -63.9 -39.6 N 15.28 CA 14.04 C 11.67 O 13.04 CB 13.34 CG 15.56 SD 22.28 CE 13.52
A ASN H 16 -75.0 -29.3 N 12.27 CA 13.02 C 11.32 O 11.8 CB 12.44 CG 17.2 OD1 12.96 ND2 15.26
A ASN H 80 -61.9 -41.5 N 10.09 CA 14.14 C 12.82 O 11.32 CB 15.81 CG 19.13 OD1 38.78 ND2 16.68
A TYR H 140 -60.4 -50.0 N 14.3 CA 11.16 C 8.81 O 10.81 CB 14.33 CG 14.9 CD1 18.01 CD2 17.42 CE1 18.63 CE2 17.39 CZ 17.66 OH 17.91
A ARG H 57 -57.1 -44.8 N 8.87 CA 9.22 C 10.81 O 13.83 CB 8.1 CG 9.98 CD 9.08 NE 10.27 CZ 11.79 NH1 7.13 NH2 11.55
A LYS H 77 -65.3 -36.4 N 8.65 CA 9.9 C 8.52 O 12.05 CB 13.7 CG 17.12 CD 22.62 CE 30.44 NZ 40.13
A ARG H 189 -66.9 -53.6 N 10.82 CA 14.05 C 11.42 O 10.91 CB 16.26 CG 15.94 CD 20.77 NE 26.61 CZ 31.1 NH1 26.77 NH2 31.87
A VAL H 27 -70.8 -25.4 N 12.21 CA 9.91 C 11.28 O 10.71 CB 10.12 CG1 13.24 CG2 14.88
A GLY H 4 -70.6 -40.0 N 9.55 CA 10.59 C 11.33 O 12.24
A ARG H 169 -66.1 -39.4 N 9.99 CA 14.15 C 12.55 O 13.27 CB 12.4 CG 14.47 CD 15.86 NE 16.2 CZ 16.86 NH1 18.02 NH2 21.28
A LEU H 91 -55.2 -50.0 N 11.08 CA 13.95 C 12.21 O 14.51 CB 13.51 CG 15.68 CD1 20.58 CD2 16.58
A PHE H 17 -53.9 -51.7 N 11.86 CA 11.84 C 14.33 O 17.15 CB 8.88 CG 10.2 CD1 13.0 CD2 11.48 CE1 11.64 CE2 12.41 CZ 11.67
A MET H 24 -63.3 -40.9 N 7.43 CA 10.78 C 14.99 O 17.84 CB 9.65 CG 10.7 SD 12.53 CE 8.04
A GLU H 104 -70.1 -40.4 N 16.25 CA 16.11 C 14.81 O 19.63 CB 15.78 CG 14.42 CD 19.37 OE1 24.64 OE2 25.22
A GLN H 112 -64.6 -38.4 N 16.91 CA 18.51 C 21.41 O 18.88 CB 21.23 CG 23.76 CD 26.59 OE1 34.58 NE2 24.35
A LYS H 55 -68.1 -37.4 N 18.07 CA 17.69 C 17.11 O 23.07 CB 22.56 CG 25.5 CD 27.32 CE 28.72 NZ 29.6
A ALA H 33 -69.3 -26.2 N 15.32 CA 13.92 C 14.64 O 24.83 CB 23.34
A ALA H 80 -74.4 -17.4 N 15.63 CA 15.57 C 21.88 O 18.74 CB 12.36
A GLN S 58 -55.5 129.1 N 19.56 CA 19.68 C 19.34 O 16.78 CB 16.73 CG 19.71 CD 25.04 OE1 30.76 NE2 26.28
A PRO T 137 -63.0 -27.7 N 18.83 CA 23.76 C 22.99 O 31.77 CB 24.02 CG 21.1 CD 21.83
A ASP T 81 -100.1 5.4 N 17.38 CA 21.11 C 20.89 O 19.78 CB 21.87 CG 27.74 OD1 30.14 OD2 36.44
A ALA E 16 -80.3 141.8 N 18.4 CA 14.87 C 19.64 O 29.0 CB 14.02
A VAL E 4 -116.2 125.8 N 17.54 CA 18.39 C 16.87 O 16.42 CB 20.13 CG1 26.47 CG2 24.23
A LYS E 137 -102.8 124.6 N 18.61 CA 18.92 C 19.37 O 21.52 CB 19.89 CG 25.08 CD 30.22 CE 30.32 NZ 42.25
A LEU - 7 -90.6 158.5 N 12.47 CA 14.4 C 13.78 O 16.84 CB 17.32 CG 19.36 CD1 21.03 CD2 19.35
A PRO T 130 -53.3 -31.7 N 17.78 CA 19.09 C 17.5 O 16.55 CB 21.59 CG 21.25 CD 17.54
A SER T 44 -64.2 -24.8 N 15.49 CA 16.19 C 12.98 O 18.15 CB 19.82 OG 13.07
A GLY S 15 113.1 -15.9 N 11.11 CA 13.85 C 12.57 O 12.8
A LEU - 0 -64.1 135.9 N 13.63 CA 11.02 C 15.79 O 14.38 CB 10.23 CG 12.21 CD1 9.68 CD2 11.02
A VAL E 1 -119.5 138.6 N 12.26 CA 10.29 C 13.19 O 13.13 CB 10.63 CG1 11.37 CG2 11.69
A PHE E 0 -138.8 159.6 N 11.77 CA 11.41 C 12.95 O 13.9 CB 11.08 CG 15.08 CD1 17.35 CD2 18.12 CE1 18.58 CE2 20.01 CZ 21.2
A GLN E 13 -132.1 127.6 N 13.15 CA 12.27 C 14.26 O 17.64 CB 22.99 CG 26.42 CD 27.8 OE1 16.86 NE2 24.35
A ARG E 48 -83.8 133.5 N 11.54 CA 12.42 C 17.11 O 19.31 CB 10.01 CG 11.43 CD 15.02 NE 16.34 CZ 19.44 NH1 22.76 NH2 15.0
A ILE E 65 -98.7 -40.2 N 15.03 CA 13.74 C 14.35 O 15.33 CB 13.09 CG1 10.38 CG2 17.34 CD1 10.52
A ALA E 43 -147.2 144.9 N 12.67 CA 13.0 C 16.14 O 12.73 CB 16.7
A ARG - 165 -98.7 124.6 N 10.92 CA 12.73 C 17.42 O 17.36 CB 12.82 CG 18.59 CD 24.52 NE 22.45 CZ 21.87 NH1 22.27 NH2 20.18
A GLY - 16 -87.0 165.2 N 14.81 CA 11.5 C 16.26 O 20.21
A SER - 122 -103.2 5.4 N 16.08 CA 21.67 C 18.68 O 17.41 CB 25.0 OG 42.53
A GLY - 13 -61.5 152.4 N 15.68 CA 12.97 C 17.55 O 16.53
A LYS S 173 -95.6 -17.1 N 14.12 CA 16.3 C 17.45 O 14.9 CB 21.13 CG 19.13 CD 19.13 CE 19.13 NZ 19.13
A ARG B 93 -139.5 142.9 N 17.09 CA 14.07 C 10.79 O 16.74 CB 17.05 CG 23.13 CD 25.77 NE 28.45 CZ 34.56 NH1 51.67 NH2 26.21
A ALA - 0 -86.8 155.0 N 11.51 CA 9.76 C 11.15 O 11.68 CB 8.32
A PRO - 1 -67.1 145.1 N 11.47 CA 8.33 C 12.47 O 10.6 CB 8.75 CG 8.79 CD 10.4
A ALA - 21 -71.3 168.8 N 14.16 CA 11.13 C 11.34 O 13.22 CB 11.57
A ILE T 68 -57.9 -26.9 N 13.58 CA 17.85 C 13.93 O 14.51 CB 19.37 CG1 25.33 CG2 24.91 CD1 29.23
A ASP T 95 -110.6 12.7 N 13.85 CA 14.12 C 12.42 O 12.07 CB 16.04 CG 20.06 OD1 19.15 OD2 26.1
A ASP - 18 -79.5 140.1 N 13.5 CA 14.31 C 10.08 O 12.6 CB 13.34 CG 16.47 OD1 16.12 OD2 16.11
A LYS - 68 -77.7 124.4 N 12.11 CA 14.47 C 15.25 O 19.79 CB 17.46 CG 19.24 CD 23.41 CE 23.41 NZ 23.41
A CYS E 0 -112.0 142.1 N 11.82 CA 10.35 C 16.02 O 16.15 CB 10.81 SG 14.15
A GLU E 47 -92.6 120.4 N 11.59 CA 12.46 C 9.42 O 13.02 CB 13.25 CG 16.07 CD 18.95 OE1 26.65 OE2 20.4
A VAL E 0 -129.2 130.5 N 8.43 CA 8.58 C 11.33 O 13.76 CB 13.73 CG1 14.32 CG2 11.89
A HIS E 27 -100.4 129.8 N 8.34 CA 6.18 C 9.52 O 12.04 CB 8.62 CG 10.15 ND1 10.11 CD2 11.96 CE1 14.17 NE2 14.57
A TYR E 6 -149.9 160.4 N 8.7 CA 9.5 C 8.79 O 10.88 CB 9.23 CG 8.41 CD1 9.49 CD2 11.41 CE1 12.86 CE2 8.35 CZ 10.91 OH 15.42
A THR E 25 -132.2 132.1 N 7.52 CA 6.69 C 7.39 O 7.6 CB 13.15 OG1 12.2 CG2 9.69
A GLY E 0 -111.9 127.7 N 9.56 CA 8.52 C 6.99 O 10.29
A ARG E 109 -124.7 151.6 N 6.05 CA 10.55 C 10.73 O 11.58 CB 14.42 CG 17.33 CD 17.2 NE 17.41 CZ 14.73 NH1 15.11 NH2 10.21
A LEU - 25 -77.9 174.4 N 8.22 CA 7.42 C 9.71 O 12.02 CB 7.97 CG 9.0 CD1 13.92 CD2 11.58
A ARG T 100 -56.9 -25.6 N 10.58 CA 9.73 C 9.79 O 12.01 CB 10.79 CG 8.73 CD 10.36 NE 13.31 CZ 13.55 NH1 11.57 NH2 10.92
A ASP T 110 -96.4 6.6 N 7.49 CA 11.96 C 10.7 O 14.67 CB 14.61 CG 17.21 OD1 10.35 OD2 23.35
A GLY S 24 98.9 -13.5 N 9.67 CA 10.5 C 9.8 O 11.2
A THR - 57 -59.3 120.8 N 8.64 CA 12.16 C 10.48 O 9.04 CB 16.76 OG1 19.61 CG2 21.13
A VAL E 47 -77.5 124.2 N 11.2 CA 12.5 C 16.62 O 13.47 CB 10.6 CG1 12.62 CG2 8.16
A PHE E 32 -103.9 -12.1 N 13.24 CA 9.25 C 11.31 O 10.46 CB 11.53 CG 10.0 CD1 9.11 CD2 10.24 CE1 10.16 CE2 12.66 CZ 8.66
A ASP E 57 -166.0 142.0 N 8.83 CA 11.82 C 12.15 O 12.73 CB 9.04 CG 13.51 OD1 16.82 OD2 14.33
A SER E 8 -162.0 123.8 N 11.89 CA 13.55 C 11.92 O 12.15 CB 15.72 OG 14.68
A SER H 0 -72.4 -27.2 N 10.08 CA 9.96 C 11.54 O 9.96 CB 13.11 OG 12.19
A ARG H 89 -66.2 -33.9 N 10.56 CA 13.3 C 15.35 O 13.62 CB 13.78 CG 13.68 CD 17.29 NE 12.83 CZ 13.15 NH1 16.87 NH2 11.41
A GLU H 151 -67.7 -21.0 N 11.0 CA 12.46 C 12.67 O 13.42 CB 11.87 CG 12.17 CD 11.42 OE1 12.69 OE2 11.63
A ARG H 117 -89.5 -7.8 N 13.19 CA 12.77 C 11.3 O 18.38 CB 11.91 CG 16.4 CD 19.98 NE 17.38 CZ 17.83 NH1 14.23 NH2 15.85
A GLY T 66 74.2 15.1 N 13.08 CA 19.03 C 22.83 O 26.9
A LYS S 143 -160.6 153.6 N 14.19 CA 16.01 C 15.56 O 11.12 CB 17.62 CG 16.13 CD 16.12 CE 16.12 NZ 16.13
A PRO - 51 -64.2 161.5 N 14.3 CA 14.52 C 12.66 O 12.52 CB 14.78 CG 18.34 CD 18.43
A THR E 34 -110.9 146.2 N 10.86 CA 11.64 C 12.92 O 14.67 CB 12.98 OG1 19.08 CG2 14.13
A THR E 55 -92.9 127.4 N 12.88 CA 13.03 C 15.73 O 14.96 CB 14.8 OG1 21.16 CG2 18.76
A PHE E 33 -133.2 143.4 N 16.04 CA 12.01 C 11.42 O 11.5 CB 9.63 CG 13.08 CD1 14.13 CD2 15.72 CE1 17.97 CE2 14.89 CZ 16.54
A ARG - 95 -94.9 141.6 N 11.89 CA 11.1 C 14.06 O 13.23 CB 13.51 CG 15.59 CD 19.34 NE 20.88 CZ 24.08 NH1 21.11 NH2 22.57
A PRO G 0 -54.2 -31.3 N 13.39 CA 10.97 C 11.31 O 17.62 CB 11.69 CG 13.28 CD 12.08
A ASN G 85 -79.6 2.6 N 9.42 CA 14.71 C 15.88 O 17.42 CB 15.7 CG 17.41 OD1 26.46 ND2 16.38
A GLU G 101 -99.1 -17.1 N 9.14 CA 11.0 C 15.31 O 19.07 CB 14.15 CG 13.79 CD 19.28 OE1 19.47 OE2 24.66
A VAL S 30 -110.1 175.8 N 12.54 CA 12.27 C 11.95 O 13.6 CB 14.62 CG1 14.16 CG2 13.15
A ILE - 24 -60.8 156.1 N 9.03 CA 8.17 C 10.45 O 8.31 CB 10.27 CG1 9.85 CG2 10.59 CD1 13.17
A LYS H 145 -52.7 -40.6 N 11.83 CA 13.63 C 13.47 O 12.87 CB 19.17 CG 21.86 CD 23.62 CE 28.21 NZ 36.24
A GLY H 0 -62.3 -40.0 N 12.4 CA 9.34 C 12.36 O 9.2
A TRP H 6 -66.9 -43.6 N 10.33 CA 12.07 C 13.14 O 11.08 CB 10.14 CG 11.47 CD1 17.62 CD2 12.5 NE1 13.89 CE2 11.3 CE3 16.72 CZ2 14.06 CZ3 18.08 CH2 13.25
A THR H 26 -56.1 -44.2 N 13.4 CA 11.3 C 9.06 O 11.44 CB 9.62 OG1 9.41 CG2 12.44
A GLU H 55 -66.2 -48.6 N 9.75 CA 10.76 C 8.41 O 8.9 CB 16.0 CG 14.74 CD 15.73 OE1 14.06 OE2 18.13
A ALA H 1 -65.0 -45.4 N 7.88 CA 8.1 C 8.67 O 10.67 CB 13.27
A LEU H 1 -60.0 -36.4 N 7.92 CA 7.66 C 9.83 O 8.82 CB 9.22 CG 8.11 CD1 12.28 CD2 5.98
A GLN T 45 -73.6 1.5 N 8.19 CA 10.11 C 11.68 O 11.86 CB 9.18 CG 10.19 CD 12.61 OE1 13.86 NE2 11.46
A LEU T 5 -118.3 11.0 N 9.6 CA 8.55 C 11.6 O 12.55 CB 7.8 CG 11.32 CD1 13.67 CD2 11.0
A MET - 0 -116.7 144.0 N 9.87 CA 9.69 C 12.36 O 11.95 CB 6.89 CG 8.81 SD 10.54 CE 8.87
A ARG - 24 -112.7 167.6 N 13.31 CA 9.49 C 8.2 O 9.78 CB 11.88 CG 14.22 CD 18.79 NE 21.79 CZ 24.45 NH1 25.12 NH2 18.58
A GLU T 98 -51.1 127.8 N 12.96 CA 9.37 C 12.83 O 13.88 CB 14.72 CG 18.1 CD 22.36 OE1 26.04 OE2 29.92
A GLY T 29 93.9 -14.5 N 12.2 CA 9.74 C 11.49 O 12.64
A ASP - 5 -66.7 140.9 N 9.5 CA 8.55 C 8.41 O 10.97 CB 9.21 CG 11.78 OD1 14.21 OD2 14.17
A ARG E 65 -133.5 121.6 N 7.45 CA 7.9 C 12.57 O 12.05 CB 8.84 CG 8.85 CD 10.5 NE 9.86 CZ 12.85 NH1 14.28 NH2 12.09
A TRP E 2 -127.0 146.2 N 11.92 CA 7.91 C 9.54 O 10.36 CB 9.1 CG 11.27 CD1 11.81 CD2 10.24 NE1 12.29 CE2 11.19 CE3 12.91 CZ2 12.58 CZ3 15.91 CH2 12.66
A ARG E 78 -94.1 124.5 N 9.48 CA 13.89 C 14.38 O 13.69 CB 17.61 CG 23.03 CD 23.06 NE 27.14 CZ 32.14 NH1 34.98 NH2 30.87
A LEU E 1 -105.6 135.3 N 10.81 CA 7.56 C 9.57 O 9.18 CB 10.21 CG 8.34 CD1 14.21 CD2 8.23
A PHE E 0 -113.9 113.3 N 5.91 CA 8.15 C 8.01 O 12.45 CB 10.71 CG 10.44 CD1 14.0 CD2 14.96 CE1 17.05 CE2 13.82 CZ 12.45
A ILE E 0 -112.5 115.2 N 6.11 CA 9.53 C 10.1 O 9.18 CB 9.87 CG1 10.91 CG2 6.5 CD1 8.5
A PRO - 16 -70.1 157.9 N 12.1 CA 9.96 C 8.16 O 8.08 CB 10.94 CG 13.04 CD 13.22
A TYR G 79 -55.4 -35.4 N 12.11 CA 11.52 C 8.35 O 11.52 CB 11.51 CG 7.08 CD1 13.0 CD2 12.9 CE1 16.49 CE2 14.44 CZ 15.94 OH 23.39
A ASP G 88 -69.8 -15.4 N 11.26 CA 14.41 C 13.99 O 12.36 CB 17.27 CG 18.72 OD1 19.67 OD2 31.71
A LEU G 19 -107.1 11.9 N 9.0 CA 10.82 C 12.1 O 12.33 CB 14.32 CG 15.28 CD1 11.06 CD2 14.23
A ALA T 17 -122.1 -114.6 N 9.89 CA 8.5 C 9.72 O 13.53 CB 6.74
A TYR T 103 -106.0 8.6 N 9.6 CA 9.03 C 10.8 O 10.32 CB 8.89 CG 10.23 CD1 10.91 CD2 10.01 CE1 12.42 CE2 10.83 CZ 15.08 OH 14.7
A GLY T 16 61.4 -146.7 N 11.07 CA 11.99 C 10.69 O 9.39
A VAL T 82 -67.9 -36.7 N 11.81 CA 7.1 C 12.34 O 12.83 CB 10.25 CG1 12.25 CG2 12.75
A THR T 118 -82.3 -30.2 N 10.71 CA 15.12 C 15.53 O 19.89 CB 19.19 OG1 18.23 CG2 16.69
A GLY - 6 87.8 177.7 N 10.77 CA 12.82 C 16.43 O 18.06
A GLY S 43 -74.3 -7.6 N 18.73 CA 21.44 C 28.66 O 34.63
A GLY S 78 88.0 -5.6 N 30.12 CA 33.88 C 34.89 O 32.54
A GLY S 68 -133.1 -92.2 N 34.17 CA 33.41 C 31.08 O 28.79
A MET S 104 -102.7 6.5 N 22.0 CA 23.94 C 14.34 O 17.49 CB 28.76 CG 28.97 SD 16.95 CE 12.89
A ILE S 15 -110.6 103.9 N 10.85 CA 10.32 C 9.33 O 10.32 CB 9.96 CG1 10.81 CG2 17.32 CD1 14.52
A PRO - 43 -74.4 168.3 N 10.47 CA 9.94 C 12.54 O 8.93 CB 13.52 CG 14.32 CD 14.62
A PRO T 25 -44.2 144.2 N 10.4 CA 8.37 C 8.9 O 9.11 CB 10.31 CG 12.76 CD 8.84
A TYR T 36 59.5 40.0 N 9.09 CA 9.16 C 11.51 O 11.9 CB 11.79 CG 11.95 CD1 15.11 CD2 13.64 CE1 13.46 CE2 13.09 CZ 14.71 OH 16.28
A SER - 13 -97.9 122.3 N 9.14 CA 10.08 C 8.57 O 11.16 CB 11.32 OG 10.15
A PRO - 5 -74.9 156.2 N 7.18 CA 9.22 C 10.35 O 9.25 CB 8.1 CG 11.06 CD 7.14
A LEU E 0 -122.6 144.5 N 7.55 CA 7.1 C 9.76 O 11.44 CB 8.74 CG 6.19 CD1 10.5 CD2 7.93
A GLU E 32 -110.9 129.0 N 9.13 CA 9.6 C 9.72 O 10.33 CB 9.29 CG 10.6 CD 17.07 OE1 14.21 OE2 32.38
A PHE E 7 -124.9 143.0 N 7.39 CA 7.96 C 12.49 O 12.13 CB 9.66 CG 10.83 CD1 9.81 CD2 9.35 CE1 10.69 CE2 10.9 CZ 12.31
A ASP E 27 -102.3 109.3 N 10.07 CA 10.76 C 7.66 O 10.41 CB 10.2 CG 16.24 OD1 10.71 OD2 15.14
A VAL E 1 -116.0 118.3 N 9.3 CA 10.05 C 7.87 O 11.86 CB 8.39 CG1 8.82 CG2 13.96
A GLU E 47 -108.9 120.0 N 8.72 CA 9.22 C 8.97 O 9.5 CB 8.0 CG 10.29 CD 15.49 OE1 16.49 OE2 21.01
A LEU E 0 -87.4 104.2 N 11.44 CA 6.48 C 9.74 O 14.11 CB 10.71 CG 14.97 CD1 13.09 CD2 12.15
A ILE E 53 -80.5 -45.7 N 9.33 CA 14.45 C 15.25 O 15.23 CB 14.74 CG1 13.25 CG2 15.97 CD1 13.81
A SER E 40 -164.4 165.1 N 12.24 CA 10.76 C 13.11 O 13.26 CB 14.49 OG 16.7
A ILE E 13 -133.5 137.2 N 11.96 CA 15.59 C 15.13 O 12.06 CB 13.79 CG1 12.75 CG2 10.55 CD1 13.96
A LYS G 96 -55.7 129.3 N 14.07 CA 18.83 C 18.31 O 16.37 CB 22.35 CG 25.77 CD 34.26 CE 39.68 NZ 50.39
A ASP G 138 65.4 17.0 N 18.05 CA 22.22 C 24.09 O 30.27 CB 27.26 CG 31.94 OD1 36.96 OD2 40.13
A GLY G 46 78.8 -0.4 N 21.49 CA 22.08 C 21.08 O 19.98
A GLY - 8 101.2 132.5 N 19.78 CA 17.47 C 18.71 O 20.21
A LYS - 108 -124.2 18.7 N 17.89 CA 18.94 C 19.97 O 21.98 CB 20.86 CG 30.02 CD 34.55 CE 34.7 NZ 36.78
A GLY S 15 -95.5 -145.2 N 15.62 CA 12.51 C 17.38 O 21.41
A ARG - 95 -59.4 153.9 N 14.52 CA 15.19 C 19.49 O 17.24 CB 17.26 CG 19.22 CD 17.08 NE 19.3 CZ 19.01 NH1 13.15 NH2 25.9
A THR B 34 -82.1 159.6 N 15.38 CA 13.26 C 14.21 O 16.51 CB 12.79 OG1 20.36 CG2 16.11
A ALA H 9 -51.8 -41.1 N 16.62 CA 18.37 C 16.25 O 13.27 CB 20.95
A GLU H 139 -65.9 -39.1 N 18.66 CA 23.52 C 25.26 O 28.26 CB 26.45 CG 30.08 CD 31.01 OE1 24.59 OE2 38.76
A GLU H 104 -63.8 -48.1 N 23.21 CA 19.57 C 18.57 O 18.48 CB 19.45 CG 21.65 CD 20.79 OE1 20.11 OE2 27.6
A VAL H 2 -54.7 -49.9 N 16.47 CA 16.31 C 17.87 O 15.44 CB 14.11 CG1 15.16 CG2 22.04
A ASP H 62 -64.5 -31.8 N 18.86 CA 17.8 C 19.51 O 21.4 CB 19.17 CG 22.96 OD1 23.34 OD2 24.03
A GLU H 76 -73.1 -37.8 N 18.52 CA 23.26 C 23.08 O 21.76 CB 25.8 CG 32.57 CD 36.4 OE1 41.94 OE2 44.35
A ILE H 66 -60.7 -43.7 N 20.42 CA 19.74 C 17.75 O 18.97 CB 16.64 CG1 18.45 CG2 15.02 CD1 20.02
A LEU H 1 -65.8 -42.2 N 14.51 CA 15.4 C 21.67 O 22.63 CB 14.33 CG 13.41 CD1 19.34 CD2 24.18
A ARG H 116 -58.1 -43.1 N 24.1 CA 25.58 C 25.07 O 25.56 CB 28.21 CG 32.73 CD 32.11 NE 34.76 CZ 35.81 NH1 24.99 NH2 32.67
A LYS H 100 -69.6 -38.5 N 24.48 CA 24.03 C 21.22 O 21.14 CB 25.06 CG 28.02 CD 35.31 CE 40.5 NZ 51.31
A ALA H 16 -60.6 -43.8 N 17.55 CA 19.35 C 19.43 O 22.9 CB 17.49
A GLU H 96 -60.6 -45.4 N 21.95 CA 25.69 C 23.05 O 22.34 CB 27.02 CG 36.07 CD 39.32 OE1 31.75 OE2 45.94
A GLU H 114 -71.1 -26.1 N 26.96 CA 32.87 C 35.82 O 30.46 CB 36.8 CG 41.22 CD 48.59 OE1 60.69 OE2 54.13
A ASP - 153 -82.5 360.0 N 36.83 CA 37.37 C 40.44 O 43.99 CB 36.63 CG 40.54 OD1 34.04 OD2 52.77
