A TRP - 60 360.0 143.7 N 14.73 CA 14.22 C 15.57 O 15.79 CB 13.99 CG 15.26 CD1 15.48 CD2 15.22 NE1 17.76 CE2 16.92 CE3 16.75 CZ2 16.8 CZ3 17.29 CH2 17.16
A SER E 53 -152.0 168.3 N 14.3 CA 15.83 C 16.14 O 15.04 CB 17.1 OG 18.78
A LEU E 15 -123.9 113.6 N 16.56 CA 15.84 C 17.49 O 17.96 CB 15.34 CG 13.86 CD1 12.8 CD2 13.56
A ARG E 125 -95.4 125.8 N 16.09 CA 16.83 C 16.48 O 15.27 CB 21.15 CG 27.09 CD 31.49 NE 36.17 CZ 39.23 NH1 41.22 NH2 41.1
A TRP E 56 -140.2 163.0 N 15.28 CA 15.32 C 14.84 O 17.18 CB 15.59 CG 15.1 CD1 15.77 CD2 16.71 NE1 15.59 CE2 15.83 CE3 17.18 CZ2 17.11 CZ3 18.5 CH2 16.82
A ARG E 107 -147.0 147.5 N 16.07 CA 18.35 C 18.95 O 20.29 CB 21.29 CG 23.75 CD 27.57 NE 30.05 CZ 31.61 NH1 31.69 NH2 32.35
A MET E 43 -88.0 123.2 N 19.3 CA 20.62 C 22.29 O 23.36 CB 22.32 CG 20.14 SD 21.17 CE 17.18
A GLN E 114 -81.8 -37.5 N 22.86 CA 26.25 C 26.19 O 27.66 CB 28.07 CG 33.33 CD 36.62 OE1 39.9 NE2 38.77
A LYS E 118 -139.7 120.1 N 27.01 CA 27.75 C 27.31 O 25.83 CB 29.55 CG 33.29 CD 36.65 CE 38.96 NZ 42.89
A SER E 82 -110.4 142.9 N 28.43 CA 29.41 C 29.87 O 31.6 CB 30.32 OG 33.47
A THR - 28 -138.6 173.0 N 29.64 CA 29.51 C 30.02 O 29.9 CB 28.16 OG1 27.34 CG2 29.05
A THR - 130 -119.3 13.3 N 31.45 CA 32.86 C 32.39 O 33.59 CB 34.11 OG1 35.26 CG2 35.25
A ILE - 74 -75.2 115.1 N 31.23 CA 30.02 C 29.34 O 28.87 CB 29.86 CG1 30.66 CG2 29.35 CD1 31.91
A ALA - 67 -100.1 1.3 N 28.47 CA 27.35 C 26.74 O 28.12 CB 28.52
A ALA - 40 -67.2 82.6 N 25.73 CA 24.86 C 24.53 O 25.37 CB 25.55
A ILE B 12 -128.5 131.7 N 22.17 CA 20.42 C 19.59 O 18.81 CB 20.08 CG1 20.99 CG2 18.39 CD1 22.05
A ALA - 20 -65.8 156.4 N 18.19 CA 17.32 C 15.98 O 14.57 CB 17.06
A GLY - 55 -78.1 -179.8 N 14.57 CA 15.27 C 15.53 O 16.22
A CYS - 53 -151.4 176.7 N 14.79 CA 16.05 C 17.34 O 17.75 CB 12.77 SG 16.81
A SER S 38 -100.2 144.9 N 16.99 CA 17.31 C 17.2 O 18.41 CB 19.33 OG 22.38
A GLY S 36 62.8 41.8 N 16.32 CA 16.97 C 17.47 O 18.26
A ALA - 25 -52.4 136.1 N 15.31 CA 14.41 C 14.55 O 13.76 CB 10.82
A ALA - 7 -66.2 142.3 N 14.55 CA 14.57 C 14.96 O 14.32 CB 13.77
A THR - 111 -116.4 -1.0 N 16.5 CA 20.84 C 23.39 O 26.14 CB 19.44 OG1 20.55 CG2 20.16
A PHE G 35 -74.2 171.4 N 22.45 CA 24.05 C 25.51 O 25.33 CB 22.58 CG 19.59 CD1 20.65 CD2 19.68 CE1 18.81 CE2 20.14 CZ 18.7
A GLY G 51 47.7 32.7 N 29.14 CA 31.14 C 32.99 O 34.76
A GLY G 77 75.1 18.6 N 33.99 CA 34.13 C 34.36 O 35.46
A LEU - 14 -81.2 142.3 N 33.05 CA 32.85 C 31.93 O 32.97 CB 32.28 CG 33.56 CD1 33.04 CD2 32.69
A ALA - 104 -96.1 43.4 N 31.73 CA 30.72 C 28.9 O 28.8 CB 31.91
A GLY S 14 59.2 -138.6 N 25.46 CA 20.68 C 18.83 O 19.81
A GLY H 45 68.9 -167.7 N 17.25 CA 17.52 C 17.33 O 16.49
A ILE H 58 -59.7 -43.2 N 17.85 CA 17.76 C 18.39 O 17.14 CB 19.69 CG1 19.29 CG2 21.25 CD1 18.23
A VAL H 41 -62.7 -40.2 N 18.55 CA 17.27 C 17.12 O 17.1 CB 19.47 CG1 20.69 CG2 21.5
A GLY H 0 -65.8 -35.1 N 15.27 CA 14.78 C 13.61 O 13.19
A CYS H 4 -63.8 -44.6 N 13.46 CA 13.32 C 13.39 O 13.4 CB 12.54 SG 15.95
A ILE H 0 -64.1 -47.3 N 12.96 CA 13.32 C 14.55 O 13.91 CB 13.76 CG1 14.04 CG2 14.87 CD1 14.78
A ALA H 0 -58.3 -42.1 N 12.53 CA 12.34 C 12.5 O 13.02 CB 11.54
A ALA H 26 -64.0 -34.4 N 11.95 CA 12.73 C 11.83 O 12.21 CB 14.66
A GLY H 0 -69.6 -43.8 N 10.69 CA 11.34 C 10.31 O 12.21
A ILE H 0 -65.1 -44.2 N 11.0 CA 11.65 C 13.12 O 11.02 CB 12.07 CG1 11.75 CG2 11.29 CD1 12.43
A LEU H 13 -58.1 -45.2 N 12.55 CA 12.25 C 12.72 O 12.86 CB 13.67 CG 17.15 CD1 17.72 CD2 17.86
A ALA H 32 -64.5 -40.3 N 10.24 CA 11.51 C 11.3 O 12.31 CB 10.77
A ILE H 3 -64.1 -48.0 N 11.95 CA 12.69 C 12.67 O 12.61 CB 15.01 CG1 15.55 CG2 14.66 CD1 16.71
A LEU H 0 -56.7 -44.9 N 11.06 CA 12.53 C 13.44 O 11.73 CB 12.0 CG 12.98 CD1 14.23 CD2 13.87
A GLN H 79 -62.7 -39.4 N 13.28 CA 14.48 C 14.07 O 15.2 CB 16.95 CG 21.28 CD 25.37 OE1 27.95 NE2 28.81
A GLY H 23 -61.3 -43.4 N 13.77 CA 13.12 C 13.71 O 13.42
A PHE H 0 -67.1 -15.0 N 11.65 CA 14.16 C 14.87 O 14.45 CB 12.95 CG 12.27 CD1 11.35 CD2 9.91 CE1 9.57 CE2 11.61 CZ 11.77
A GLU H 39 -52.5 -40.9 N 13.87 CA 15.27 C 14.98 O 14.84 CB 15.45 CG 18.02 CD 19.99 OE1 20.21 OE2 21.46
A VAL H 39 -60.3 -31.0 N 14.98 CA 14.62 C 14.9 O 15.08 CB 16.24 CG1 15.14 CG2 14.77
A ASN H 6 -81.1 -27.0 N 13.55 CA 14.75 C 15.0 O 14.58 CB 14.08 CG 16.78 OD1 16.52 ND2 15.06
A TRP H 0 -85.5 -26.9 N 14.22 CA 13.76 C 15.01 O 16.07 CB 14.78 CG 14.94 CD1 14.31 CD2 13.37 NE1 14.1 CE2 15.69 CE3 14.69 CZ2 14.67 CZ3 15.32 CH2 15.45
A HIS H 38 -69.5 -40.2 N 14.11 CA 15.67 C 15.89 O 16.46 CB 14.79 CG 13.49 ND1 15.58 CD2 13.73 CE1 15.43 NE2 15.45
A ASN H 86 -124.1 -1.0 N 16.09 CA 17.31 C 16.58 O 18.12 CB 18.21 CG 20.54 OD1 22.96 ND2 19.31
A GLY - 12 90.2 172.9 N 15.08 CA 14.83 C 14.71 O 14.93
A GLY - 38 102.2 164.5 N 13.33 CA 13.39 C 14.52 O 13.82
A GLY - 43 -132.2 -170.9 N 16.79 CA 18.71 C 17.47 O 20.29
A GLY E 22 155.6 178.4 N 17.06 CA 15.97 C 14.59 O 15.05
A ASP E 41 -115.9 120.7 N 14.13 CA 14.32 C 12.88 O 12.49 CB 16.24 CG 18.62 OD1 21.24 OD2 22.46
A ARG E 22 -120.3 143.9 N 12.75 CA 11.67 C 12.41 O 11.71 CB 11.79 CG 13.56 CD 14.4 NE 14.98 CZ 17.76 NH1 17.4 NH2 16.44
A SER E 13 -128.6 164.7 N 11.87 CA 12.87 C 12.58 O 12.97 CB 12.62 OG 14.69
A ASN E 23 -156.3 138.8 N 13.69 CA 13.29 C 12.82 O 11.95 CB 13.13 CG 14.71 OD1 14.56 ND2 14.68
A PRO E 27 -61.0 143.7 N 13.26 CA 13.84 C 14.6 O 15.24 CB 13.67 CG 14.27 CD 12.8
A VAL - 5 -135.6 360.0 N 14.99 CA 16.25 C 16.5 O 16.81 CB 18.06 CG1 20.27 CG2 21.31 OXT 16.71
B GLY - 74 360.0 -178.5 N 39.6 CA 39.75 C 39.89 O 40.24
B GLU - 101 -74.1 -53.1 N 38.71 CA 37.4 C 34.1 O 34.99 CB 39.78 CG 43.11 CD 45.53 OE1 48.35 OE2 47.36
B ALA B 0 -69.1 126.4 N 30.16 CA 26.4 C 24.91 O 24.68 CB 25.97
B THR - 58 -121.5 -13.0 N 21.42 CA 19.81 C 18.26 O 16.27 CB 22.3 OG1 23.49 CG2 23.25
B THR E 11 -140.1 148.1 N 15.82 CA 16.04 C 14.84 O 16.36 CB 16.02 OG1 20.44 CG2 17.62
B ILE E 0 -113.4 141.5 N 13.09 CA 12.83 C 12.88 O 11.98 CB 12.37 CG1 13.35 CG2 12.46 CD1 15.06
B TRP E 8 -123.8 147.7 N 13.62 CA 13.37 C 13.32 O 12.94 CB 15.13 CG 16.16 CD1 16.27 CD2 16.49 NE1 15.94 CE2 16.97 CE3 17.54 CZ2 16.25 CZ3 15.63 CH2 18.13
B GLY E 0 -127.1 123.1 N 11.9 CA 12.88 C 12.7 O 13.74
B VAL E 1 -111.8 112.1 N 12.49 CA 12.1 C 10.82 O 10.17 CB 15.0 CG1 15.79 CG2 16.49
B GLY E 4 -123.9 161.3 N 10.08 CA 10.59 C 9.74 O 10.71
B ALA E 32 -150.9 146.5 N 10.91 CA 11.73 C 11.03 O 12.1 CB 9.77
B ASP E 42 -80.7 134.5 N 11.41 CA 12.21 C 13.36 O 13.1 CB 13.02 CG 14.32 OD1 15.49 OD2 15.01
B GLU S 58 -95.5 -48.5 N 13.09 CA 14.29 C 14.25 O 15.16 CB 13.74 CG 13.38 CD 15.89 OE1 19.93 OE2 17.58
B ALA S 32 -143.6 147.6 N 12.67 CA 13.14 C 13.3 O 12.42 CB 13.93
B ILE - 86 -75.2 135.2 N 13.19 CA 14.67 C 14.12 O 15.03 CB 15.32 CG1 15.36 CG2 15.48 CD1 17.27
B ASP - 10 -143.6 116.8 N 14.97 CA 13.92 C 14.46 O 13.65 CB 13.39 CG 14.56 OD1 14.58 OD2 13.34
B LYS - 145 -80.5 -5.4 N 14.53 CA 16.46 C 16.37 O 16.52 CB 17.79 CG 18.82 CD 22.43 CE 24.02 NZ 26.39
B GLY - 28 -77.0 167.8 N 16.13 CA 15.79 C 15.23 O 15.08
B THR - 73 -142.3 128.2 N 16.75 CA 17.15 C 16.54 O 16.59 CB 19.6 OG1 19.87 CG2 19.52
B PRO - 5 -65.7 145.1 N 16.52 CA 16.48 C 16.0 O 15.5 CB 16.65 CG 18.35 CD 16.55
B SER - 60 -73.0 166.6 N 16.99 CA 16.12 C 15.61 O 14.5 CB 14.89 OG 14.96
B LYS H 106 -58.5 -43.9 N 17.51 CA 18.37 C 17.59 O 17.38 CB 23.36 CG 30.67 CD 35.14 CE 38.01 NZ 40.82
B ASN H 120 -53.9 -45.9 N 16.24 CA 15.05 C 14.99 O 14.5 CB 16.32 CG 18.62 OD1 22.06 ND2 19.42
B ASP H 60 -66.7 -45.0 N 14.87 CA 13.52 C 12.66 O 11.42 CB 14.59 CG 16.9 OD1 15.32 OD2 18.8
B LEU H 4 -61.5 -41.2 N 13.68 CA 14.31 C 13.94 O 13.61 CB 16.54 CG 17.93 CD1 20.58 CD2 18.5
B GLN H 41 -62.7 -41.7 N 14.51 CA 14.45 C 14.87 O 15.38 CB 15.74 CG 16.07 CD 20.71 OE1 23.47 NE2 20.4
B ASN H 112 -64.2 -44.1 N 14.42 CA 15.89 C 14.21 O 14.07 CB 18.85 CG 24.71 OD1 27.19 ND2 25.85
B MET H 6 -58.2 -48.9 N 14.81 CA 15.18 C 15.14 O 15.25 CB 17.84 CG 21.63 SD 27.24 CE 27.01
B SER H 0 -62.0 -51.7 N 13.22 CA 12.72 C 13.09 O 11.93 CB 14.1 OG 17.45
B ALA H 3 -61.5 -41.2 N 14.53 CA 13.81 C 14.96 O 14.42 CB 15.8
B ASP H 52 -59.2 -51.6 N 14.84 CA 15.77 C 15.02 O 13.95 CB 18.0 CG 20.51 OD1 22.12 OD2 23.68
B LEU I 0 -59.6 -45.9 N 14.69 CA 14.47 C 13.75 O 15.19 CB 16.03 CG 19.42 CD1 15.6 CD2 17.09
B ALA I 0 -62.2 -53.8 N 15.0 CA 16.04 C 17.1 O 18.68 CB 13.27
B LYS I 86 -72.2 -47.5 N 17.84 CA 19.14 C 19.55 O 19.49 CB 20.83 CG 27.57 CD 31.02 CE 33.09 NZ 37.61
B ASN I 75 -95.2 -19.4 N 18.07 CA 18.82 C 19.18 O 19.41 CB 19.67 CG 23.17 OD1 24.51 ND2 21.41
B GLY I 2 -97.9 -69.8 N 18.83 CA 18.05 C 18.16 O 19.25
B PHE I 4 -66.1 -39.4 N 17.75 CA 18.06 C 19.41 O 19.43 CB 17.87 CG 17.13 CD1 17.35 CD2 17.77 CE1 17.45 CE2 17.93 CZ 17.73
B LYS T 121 54.6 39.3 N 21.24 CA 22.8 C 23.4 O 23.86 CB 24.77 CG 27.46 CD 31.43 CE 33.57 NZ 36.8
B GLY T 12 69.1 19.9 N 23.1 CA 21.66 C 22.05 O 23.03
B HIS S 53 -124.2 164.5 N 21.95 CA 21.65 C 21.29 O 20.1 CB 24.48 CG 27.68 ND1 29.66 CD2 29.08 CE1 30.33 NE2 29.61
B GLN - 11 -68.2 154.1 N 20.52 CA 20.16 C 20.59 O 21.37 CB 20.86 CG 21.64 CD 22.09 OE1 24.33 NE2 23.05
B GLY E 2 168.9 -175.0 N 18.97 CA 18.24 C 16.62 O 15.85
B VAL E 19 -136.5 128.4 N 17.49 CA 17.03 C 16.01 O 15.93 CB 17.53 CG1 16.87 CG2 16.92
B ALA E 0 -119.4 142.1 N 15.89 CA 14.79 C 13.48 O 15.01 CB 14.51
B CYS E 0 -110.9 131.4 N 15.04 CA 13.97 C 13.67 O 14.78 CB 15.41 SG 18.06
B SER E 0 -149.0 162.4 N 12.35 CA 12.26 C 11.76 O 12.87 CB 14.09 OG 12.71
B THR E 0 -133.5 125.9 N 11.46 CA 11.88 C 11.6 O 11.19 CB 10.51 OG1 12.0 CG2 10.93
B VAL E 0 -80.6 126.2 N 11.31 CA 11.48 C 12.13 O 12.64 CB 9.89 CG1 12.84 CG2 13.87
B LYS E 37 -116.9 151.5 N 11.08 CA 12.14 C 14.09 O 12.3 CB 14.32 CG 17.31 CD 20.87 CE 23.5 NZ 28.0
B ASP E 46 -118.7 90.6 N 13.3 CA 13.9 C 14.68 O 14.88 CB 13.74 CG 16.21 OD1 14.81 OD2 16.01
B GLY T 48 69.5 -130.5 N 13.98 CA 13.68 C 14.18 O 13.17
B ASN T 157 -83.9 -10.4 N 14.36 CA 15.19 C 14.87 O 17.22 CB 14.49 CG 14.11 OD1 15.33 ND2 16.7
B LYS E 101 -76.2 131.0 N 15.35 CA 15.54 C 15.41 O 14.92 CB 17.84 CG 22.06 CD 26.19 CE 28.56 NZ 33.0
B ASP E 51 -88.8 116.4 N 13.02 CA 14.03 C 14.12 O 15.94 CB 14.38 CG 18.81 OD1 20.1 OD2 19.46
B VAL E 0 -105.0 -49.9 N 12.08 CA 12.54 C 11.96 O 12.11 CB 12.99 CG1 12.33 CG2 12.95
B TYR E 0 -142.6 140.5 N 11.34 CA 10.89 C 11.97 O 14.03 CB 10.37 CG 10.09 CD1 9.3 CD2 9.49 CE1 8.45 CE2 9.23 CZ 11.22 OH 12.82
B MET E 44 -108.5 136.0 N 10.61 CA 12.46 C 12.27 O 12.34 CB 13.14 CG 14.12 SD 18.52 CE 16.67
B ILE E 0 -140.0 131.6 N 12.4 CA 12.27 C 11.76 O 14.03 CB 12.86 CG1 11.9 CG2 12.28 CD1 14.08
B LYS E 30 -97.1 120.6 N 12.51 CA 13.2 C 12.91 O 13.2 CB 15.01 CG 17.27 CD 20.68 CE 23.44 NZ 27.93
B PHE E 0 -102.1 123.7 N 12.82 CA 12.88 C 13.45 O 15.92 CB 11.19 CG 9.69 CD1 10.18 CD2 10.62 CE1 11.62 CE2 10.52 CZ 10.67
B SER E 13 -122.7 128.4 N 14.04 CA 16.02 C 16.08 O 14.84 CB 16.11 OG 21.48
B LEU E 1 -126.5 101.8 N 17.32 CA 18.38 C 19.24 O 18.91 CB 19.66 CG 22.5 CD1 20.59 CD2 21.27
B ALA - 38 -137.8 166.5 N 21.31 CA 24.99 C 27.38 O 28.28 CB 24.04
B GLY S 21 -53.1 -43.7 N 30.29 CA 33.51 C 36.28 O 38.2
B GLY - 51 -62.5 122.1 N 38.14 CA 41.63 C 43.61 O 45.09
B SER - 44 -77.3 -15.9 N 44.53 CA 45.29 C 45.5 O 45.86 CB 46.26 OG 47.68
B ASN S 76 -75.3 152.4 N 44.75 CA 43.57 C 41.47 O 41.53 CB 45.95 CG 47.85 OD1 48.86 ND2 48.13
B ASP - 36 -59.2 118.5 N 38.7 CA 36.59 C 35.25 O 36.06 CB 36.03 CG 35.44 OD1 35.43 OD2 35.56
B PRO - 60 -68.9 -19.2 N 34.18 CA 33.53 C 33.32 O 33.73 CB 33.73 CG 33.81 CD 33.61
B GLY - 20 60.2 -143.2 N 31.95 CA 31.51 C 30.63 O 30.84
B GLY S 61 82.4 -167.1 N 29.65 CA 26.39 C 25.34 O 26.89
B SER - 89 -106.3 148.8 N 23.78 CA 23.34 C 20.88 O 21.42 CB 23.92 OG 28.74
B PRO - 39 -59.8 155.5 N 18.49 CA 17.92 C 17.35 O 17.95 CB 17.47 CG 17.74 CD 18.3
B CYS - 20 -132.8 158.4 N 17.03 CA 16.17 C 16.4 O 15.8 CB 16.65 SG 18.12
B SER - 34 -132.3 177.8 N 15.15 CA 14.21 C 14.24 O 15.05 CB 14.64 OG 14.98
B ASP - 27 -151.3 65.2 N 14.8 CA 15.86 C 16.86 O 16.24 CB 18.22 CG 20.65 OD1 21.35 OD2 22.39
B ASP - 88 -61.1 360.0 N 16.27 CA 17.97 C 18.44 O 19.93 CB 17.86 CG 20.16 OD1 18.09 OD2 21.8 OXT 23.16
C TRP - 60 360.0 140.8 N 21.73 CA 22.09 C 22.19 O 23.71 CB 20.55 CG 21.07 CD1 20.86 CD2 20.92 NE1 21.75 CE2 21.57 CE3 19.5 CZ2 19.87 CZ3 20.25 CH2 20.38
C SER E 56 -151.1 168.0 N 20.27 CA 19.4 C 18.93 O 18.89 CB 20.35 OG 22.92
C LEU E 15 -121.7 115.0 N 17.87 CA 17.92 C 18.47 O 18.73 CB 17.09 CG 16.59 CD1 15.25 CD2 15.73
C ARG E 123 -96.7 123.0 N 18.06 CA 18.59 C 17.69 O 17.51 CB 20.62 CG 24.87 CD 28.15 NE 31.58 CZ 33.82 NH1 35.73 NH2 35.83
C TRP E 53 -138.9 160.7 N 16.96 CA 16.24 C 15.54 O 15.55 CB 16.37 CG 15.33 CD1 15.7 CD2 17.24 NE1 18.54 CE2 17.64 CE3 17.64 CZ2 19.61 CZ3 19.68 CH2 17.42
C ARG E 97 -143.5 141.3 N 16.0 CA 18.26 C 17.78 O 18.64 CB 19.17 CG 21.91 CD 24.95 NE 28.52 CZ 30.43 NH1 31.61 NH2 29.86
C MET E 49 -82.6 128.1 N 19.92 CA 19.28 C 20.58 O 21.41 CB 18.49 CG 17.95 SD 20.05 CE 20.72
C GLN E 118 -87.8 -36.5 N 21.27 CA 23.18 C 23.87 O 23.23 CB 25.83 CG 30.17 CD 33.8 OE1 36.4 NE2 36.05
C LYS E 79 -143.4 119.3 N 24.3 CA 25.82 C 26.37 O 24.93 CB 28.18 CG 31.43 CD 34.4 CE 36.66 NZ 38.06
C SER E 83 -114.4 138.4 N 27.52 CA 28.54 C 29.1 O 28.94 CB 28.06 OG 32.96
C THR - 29 -135.3 176.4 N 29.67 CA 30.39 C 31.23 O 31.97 CB 28.39 OG1 26.42 CG2 28.59
C THR - 127 -115.5 7.6 N 32.84 CA 33.81 C 33.64 O 35.49 CB 34.97 OG1 35.88 CG2 34.95
C ILE - 81 -68.5 112.7 N 32.51 CA 30.33 C 30.36 O 29.12 CB 29.69 CG1 29.52 CG2 29.33 CD1 30.47
C ALA - 63 -102.5 14.5 N 28.9 CA 27.75 C 27.1 O 28.87 CB 29.21
C ALA - 43 -76.6 86.5 N 25.82 CA 24.66 C 24.65 O 25.37 CB 24.78
C ILE B 12 -135.1 130.7 N 24.02 CA 23.41 C 23.42 O 24.34 CB 22.82 CG1 22.43 CG2 21.34 CD1 23.24
C ALA - 18 -60.4 159.6 N 22.64 CA 22.98 C 22.34 O 21.17 CB 23.0
C GLY - 59 -83.4 176.8 N 22.23 CA 22.38 C 22.16 O 23.5
C CYS - 51 -151.9 174.7 N 22.13 CA 22.89 C 23.84 O 23.99 CB 20.73 SG 21.69
C SER S 34 -99.7 145.3 N 24.64 CA 26.31 C 26.92 O 27.01 CB 27.25 OG 30.64
C GLY S 38 59.0 46.2 N 26.99 CA 27.55 C 27.54 O 28.65
C ALA - 28 -59.2 138.6 N 26.4 CA 24.73 C 25.12 O 25.19 CB 25.34
C ALA - 7 -64.8 141.8 N 23.73 CA 22.53 C 22.86 O 23.35 CB 22.76
C THR - 109 -124.9 10.7 N 23.4 CA 23.67 C 25.12 O 23.81 CB 23.2 OG1 24.64 CG2 22.54
C PHE - 39 -88.0 170.5 N 25.15 CA 25.27 C 26.11 O 25.26 CB 24.5 CG 23.63 CD1 23.15 CD2 22.97 CE1 22.89 CE2 23.46 CZ 22.57
C GLY T 30 51.7 36.2 N 27.06 CA 28.69 C 29.52 O 30.61
C GLY T 73 77.0 14.3 N 29.18 CA 29.27 C 29.31 O 30.38
C LEU - 15 -88.2 161.4 N 28.43 CA 28.53 C 28.6 O 28.89 CB 26.87 CG 27.59 CD1 26.49 CD2 27.16
C ALA - 96 -129.8 48.7 N 29.11 CA 29.47 C 28.88 O 30.62 CB 31.23
C GLY S 15 67.8 -151.1 N 26.91 CA 25.94 C 25.38 O 26.46
C GLY H 50 73.6 -172.2 N 24.96 CA 24.96 C 25.82 O 25.15
C ILE H 49 -55.1 -43.8 N 25.37 CA 26.13 C 24.94 O 25.2 CB 27.43 CG1 29.26 CG2 26.95 CD1 32.32
C VAL H 40 -60.6 -42.7 N 23.34 CA 21.82 C 20.85 O 19.03 CB 22.89 CG1 22.85 CG2 24.73
C GLY H 0 -61.5 -40.7 N 19.47 CA 18.78 C 18.22 O 18.07
C CYS H 5 -63.3 -45.2 N 17.03 CA 17.31 C 18.18 O 17.6 CB 19.59 SG 20.27
C ILE H 0 -63.2 -44.5 N 16.9 CA 17.73 C 17.74 O 18.05 CB 19.13 CG1 20.22 CG2 19.45 CD1 20.79
C ALA H 0 -60.1 -43.3 N 17.04 CA 17.25 C 17.29 O 17.31 CB 17.68
C ALA H 28 -61.4 -39.4 N 16.91 CA 16.35 C 15.63 O 15.54 CB 15.2
C GLY H 0 -65.9 -46.8 N 15.09 CA 15.56 C 15.25 O 16.31
C ILE H 0 -61.0 -47.0 N 14.94 CA 14.49 C 15.25 O 15.18 CB 13.89 CG1 12.74 CG2 12.06 CD1 14.88
C LEU H 14 -53.9 -48.1 N 15.28 CA 14.71 C 14.68 O 14.19 CB 18.72 CG 21.11 CD1 24.21 CD2 23.26
C ALA H 32 -62.7 -36.0 N 12.71 CA 12.57 C 11.81 O 14.61 CB 12.13
C ILE H 1 -72.3 -41.9 N 10.51 CA 12.71 C 14.09 O 14.3 CB 13.05 CG1 13.49 CG2 13.65 CD1 13.86
C LEU H 0 -62.5 -41.5 N 13.9 CA 14.91 C 14.87 O 14.8 CB 14.38 CG 17.16 CD1 16.29 CD2 17.74
C GLN H 83 -67.4 -35.4 N 14.66 CA 15.5 C 15.46 O 14.72 CB 18.85 CG 24.96 CD 28.72 OE1 30.55 NE2 31.41
C GLY H 21 -62.4 -43.7 N 13.08 CA 14.25 C 13.81 O 11.97
C PHE T 0 -71.1 -8.4 N 13.67 CA 13.47 C 13.35 O 13.14 CB 12.11 CG 13.08 CD1 11.92 CD2 12.43 CE1 13.29 CE2 11.76 CZ 14.02
C GLU H 39 -52.5 -43.9 N 13.96 CA 16.02 C 16.39 O 16.2 CB 16.56 CG 18.23 CD 20.23 OE1 20.15 OE2 22.27
C VAL H 41 -57.4 -35.0 N 16.49 CA 18.24 C 17.59 O 17.4 CB 17.61 CG1 18.76 CG2 18.97
C ASN H 5 -75.4 -28.9 N 15.31 CA 15.95 C 16.07 O 17.23 CB 14.29 CG 16.17 OD1 18.38 ND2 15.98
C TRP H 0 -88.3 -21.7 N 15.2 CA 14.51 C 15.05 O 15.63 CB 15.46 CG 15.43 CD1 15.8 CD2 14.57 NE1 15.28 CE2 15.49 CE3 15.66 CZ2 16.38 CZ3 16.36 CH2 15.17
C HIS H 38 -75.3 -39.8 N 15.64 CA 15.37 C 16.16 O 16.72 CB 14.73 CG 15.05 ND1 15.95 CD2 13.15 CE1 14.26 NE2 14.95
C ASN H 93 -118.4 -12.5 N 16.14 CA 17.15 C 16.41 O 16.41 CB 19.99 CG 22.12 OD1 23.95 ND2 26.69
C GLY - 12 100.1 173.9 N 15.9 CA 16.92 C 16.5 O 18.24
C GLY - 41 95.8 -178.9 N 16.35 CA 17.16 C 17.31 O 18.61
C GLY - 40 -160.0 -166.2 N 18.77 CA 19.23 C 19.68 O 20.83
C GLY E 23 158.4 -173.6 N 18.99 CA 17.28 C 16.09 O 14.42
C ASP E 42 -109.3 123.2 N 15.96 CA 15.07 C 13.31 O 14.56 CB 18.26 CG 20.3 OD1 21.56 OD2 23.2
C ARG E 24 -121.0 149.0 N 13.09 CA 12.47 C 13.56 O 13.31 CB 12.38 CG 14.25 CD 14.49 NE 17.62 CZ 19.09 NH1 19.42 NH2 18.39
C SER E 11 -133.3 168.7 N 13.23 CA 14.0 C 13.82 O 14.85 CB 11.33 OG 15.05
C ASN E 23 -158.8 137.9 N 13.74 CA 13.6 C 15.01 O 13.42 CB 14.56 CG 14.75 OD1 14.31 ND2 16.01
C PRO E 27 -61.2 147.6 N 16.5 CA 17.21 C 17.67 O 18.0 CB 18.39 CG 18.54 CD 16.63
C VAL - 5 -142.4 360.0 N 18.82 CA 18.67 C 20.14 O 18.72 CB 20.37 CG1 21.11 CG2 22.14 OXT 19.37
D GLY - 77 360.0 167.9 N 42.42 CA 41.19 C 40.9 O 42.1
D GLU - 110 -85.0 -49.9 N 39.82 CA 38.01 C 35.38 O 35.62 CB 39.92 CG 41.81 CD 43.3 OE1 43.04 OE2 44.71
D ALA B 0 -80.6 126.0 N 32.35 CA 29.11 C 26.67 O 26.79 CB 28.18
D THR - 56 -120.7 -6.6 N 24.53 CA 22.33 C 20.94 O 20.17 CB 23.58 OG1 22.52 CG2 22.87
D THR E 11 -142.5 148.0 N 20.75 CA 19.41 C 18.42 O 19.43 CB 21.34 OG1 22.15 CG2 18.41
D ILE E 0 -113.6 139.3 N 16.32 CA 13.59 C 13.82 O 13.04 CB 13.47 CG1 15.83 CG2 12.65 CD1 16.22
D TRP E 6 -117.6 146.7 N 13.09 CA 13.7 C 12.95 O 13.53 CB 14.39 CG 16.36 CD1 16.41 CD2 17.12 NE1 16.82 CE2 16.49 CE3 17.46 CZ2 17.81 CZ3 17.43 CH2 18.93
D GLY E 0 -130.0 121.5 N 11.98 CA 12.06 C 11.64 O 12.18
D VAL E 3 -105.9 111.4 N 13.19 CA 13.88 C 12.62 O 11.52 CB 14.66 CG1 17.5 CG2 16.43
D GLY E 6 -123.5 163.9 N 11.68 CA 12.24 C 11.29 O 12.86
D ALA E 32 -151.7 148.6 N 11.04 CA 11.39 C 12.07 O 11.66 CB 11.74
D ASP E 42 -80.7 139.5 N 13.34 CA 13.97 C 14.27 O 15.67 CB 16.35 CG 18.87 OD1 16.4 OD2 20.93
D GLU S 59 -104.5 -41.7 N 13.57 CA 15.81 C 16.08 O 17.83 CB 15.57 CG 16.53 CD 19.46 OE1 24.0 OE2 20.08
D ALA S 25 -144.8 150.8 N 16.15 CA 16.45 C 15.75 O 15.65 CB 15.32
D ILE - 82 -79.7 135.5 N 14.7 CA 15.81 C 16.68 O 16.9 CB 16.39 CG1 16.51 CG2 14.53 CD1 18.81
D ASP - 15 -147.2 116.4 N 16.81 CA 18.13 C 17.88 O 17.58 CB 18.41 CG 19.18 OD1 19.04 OD2 18.7
D LYS - 142 -79.9 -6.7 N 18.12 CA 20.4 C 20.74 O 21.87 CB 22.47 CG 25.34 CD 27.13 CE 30.18 NZ 32.06
D GLY - 28 -76.9 164.8 N 20.08 CA 20.51 C 20.39 O 19.09
D THR - 71 -141.1 130.2 N 20.33 CA 20.82 C 22.09 O 22.49 CB 22.44 OG1 24.55 CG2 23.55
D PRO - 7 -62.8 148.9 N 21.79 CA 21.88 C 21.13 O 21.07 CB 21.83 CG 23.17 CD 21.63
D SER - 57 -71.6 165.3 N 22.09 CA 22.73 C 24.34 O 22.66 CB 22.51 OG 24.09
D LYS H 113 -57.8 -40.5 N 25.27 CA 27.71 C 26.47 O 27.07 CB 30.83 CG 35.03 CD 38.04 CE 40.09 NZ 41.01
D ASN H 92 -61.9 -45.9 N 26.9 CA 27.87 C 26.39 O 25.25 CB 32.97 CG 37.3 OD1 40.41 ND2 38.39
D ASP H 48 -58.1 -47.8 N 24.5 CA 23.11 C 20.35 O 22.19 CB 25.89 CG 27.79 OD1 28.44 OD2 29.7
D LEU H 4 -60.6 -42.7 N 19.65 CA 19.22 C 19.18 O 19.37 CB 20.82 CG 21.51 CD1 23.04 CD2 22.64
D GLN H 44 -64.7 -44.6 N 19.49 CA 20.47 C 19.09 O 18.97 CB 20.5 CG 21.98 CD 24.37 OE1 24.85 NE2 24.51
D ASN H 79 -64.5 -40.5 N 20.14 CA 21.29 C 21.02 O 21.75 CB 24.0 CG 26.73 OD1 30.57 ND2 28.98
D MET H 10 -62.6 -47.6 N 20.46 CA 18.95 C 18.02 O 19.01 CB 21.13 CG 22.67 SD 28.73 CE 28.5
D SER H 0 -62.7 -50.3 N 17.15 CA 15.79 C 17.33 O 17.07 CB 16.96 OG 20.49
D ALA H 3 -59.6 -41.4 N 17.85 CA 18.57 C 18.23 O 19.24 CB 18.23
D ASP H 62 -58.7 -55.3 N 18.5 CA 19.7 C 18.9 O 17.85 CB 22.4 CG 25.98 OD1 27.64 OD2 25.83
D LEU I 0 -61.5 -45.1 N 19.06 CA 18.24 C 17.72 O 17.78 CB 18.69 CG 19.82 CD1 17.8 CD2 19.27
D ALA I 0 -60.9 -51.3 N 18.44 CA 18.41 C 18.82 O 20.55 CB 16.1
D LYS I 78 -74.1 -53.5 N 20.98 CA 22.59 C 22.61 O 23.37 CB 24.58 CG 27.88 CD 31.2 CE 33.33 NZ 37.44
D ASN I 76 -88.1 -21.9 N 21.78 CA 21.69 C 21.73 O 22.31 CB 22.34 CG 25.36 OD1 27.63 ND2 23.39
D GLY I 2 -95.6 -73.2 N 20.71 CA 20.49 C 21.33 O 21.69
D PHE I 3 -64.7 -39.5 N 20.13 CA 20.99 C 21.85 O 21.33 CB 19.56 CG 18.9 CD1 18.65 CD2 19.42 CE1 19.49 CE2 17.72 CZ 17.61
D LYS T 119 54.7 39.4 N 22.78 CA 24.52 C 24.82 O 25.37 CB 24.64 CG 28.03 CD 30.55 CE 31.76 NZ 35.81
D GLY T 9 71.2 18.7 N 24.09 CA 24.17 C 24.28 O 25.64
D HIS S 47 -126.8 168.5 N 24.42 CA 23.53 C 23.91 O 23.72 CB 25.96 CG 28.18 ND1 29.1 CD2 28.25 CE1 30.38 NE2 29.96
D GLN - 11 -69.2 158.0 N 22.75 CA 21.56 C 21.26 O 19.56 CB 23.11 CG 24.28 CD 23.99 OE1 24.54 NE2 24.79
D GLY E 0 166.7 -177.6 N 20.09 CA 18.71 C 16.98 O 16.05
D VAL E 24 -133.0 131.6 N 16.33 CA 16.36 C 15.22 O 15.72 CB 16.46 CG1 16.93 CG2 17.98
D ALA E 0 -120.6 147.8 N 14.69 CA 13.16 C 13.03 O 14.02 CB 15.1
D CYS E 1 -112.4 135.0 N 13.77 CA 13.34 C 13.44 O 14.64 CB 13.88 SG 16.95
D SER E 0 -153.9 163.8 N 12.19 CA 12.06 C 12.43 O 12.85 CB 11.4 OG 12.98
D THR E 0 -133.8 127.5 N 12.0 CA 12.43 C 13.02 O 14.96 CB 11.71 OG1 11.22 CG2 10.68
D VAL E 1 -79.1 125.9 N 13.2 CA 13.68 C 14.04 O 12.62 CB 13.53 CG1 13.72 CG2 12.95
D LYS E 30 -118.7 142.9 N 15.98 CA 17.57 C 18.72 O 19.02 CB 18.57 CG 20.99 CD 22.02 CE 23.34 NZ 25.69
D ASP E 54 -117.6 89.5 N 17.85 CA 18.4 C 19.41 O 19.77 CB 18.42 CG 19.45 OD1 19.28 OD2 20.33
D GLY T 53 72.3 -132.2 N 20.22 CA 20.99 C 21.93 O 22.02
D ASN T 155 -86.2 0.4 N 22.76 CA 23.14 C 22.1 O 22.15 CB 27.72 CG 31.83 OD1 35.59 ND2 34.6
D LYS E 92 -80.2 125.5 N 19.6 CA 18.7 C 18.14 O 16.51 CB 21.58 CG 26.47 CD 30.22 CE 33.55 NZ 34.67
D ASP E 51 -81.6 110.4 N 16.62 CA 13.86 C 14.11 O 13.08 CB 13.8 CG 16.3 OD1 17.66 OD2 18.1
D VAL E 0 -97.5 -54.2 N 12.25 CA 12.22 C 12.79 O 12.25 CB 11.32 CG1 12.21 CG2 12.64
D TYR E 0 -138.3 139.8 N 12.5 CA 12.89 C 12.57 O 13.28 CB 13.13 CG 13.66 CD1 11.72 CD2 10.31 CE1 12.12 CE2 10.79 CZ 12.92 OH 13.46
D MET E 40 -111.5 139.2 N 11.42 CA 12.45 C 10.72 O 12.12 CB 14.28 CG 17.92 SD 23.02 CE 21.81
D ILE E 0 -141.8 131.1 N 11.06 CA 10.75 C 9.87 O 11.8 CB 11.27 CG1 10.83 CG2 10.35 CD1 13.22
D LYS E 37 -94.2 121.1 N 11.89 CA 13.58 C 13.17 O 14.37 CB 15.6 CG 16.46 CD 17.52 CE 19.96 NZ 23.18
D PHE E 0 -100.9 125.4 N 13.43 CA 13.62 C 13.97 O 14.68 CB 14.54 CG 12.98 CD1 14.06 CD2 13.88 CE1 14.54 CE2 15.67 CZ 13.66
D SER E 13 -125.5 126.1 N 14.62 CA 16.27 C 17.04 O 16.91 CB 18.11 OG 23.22
D LEU E 0 -127.5 104.1 N 19.08 CA 20.51 C 20.8 O 20.66 CB 21.62 CG 22.46 CD1 22.5 CD2 19.88
D ALA - 29 -140.6 170.9 N 23.42 CA 27.4 C 29.23 O 29.57 CB 26.49
D GLY S 21 -62.0 -39.5 N 31.84 CA 34.84 C 37.26 O 38.45
D GLY - 52 -57.2 116.4 N 39.32 CA 42.29 C 43.63 O 45.1
D SER - 45 -68.9 -37.1 N 44.12 CA 43.73 C 43.07 O 42.65 CB 45.56 OG 46.77
D ASN S 73 -61.5 156.8 N 41.5 CA 39.94 C 36.58 O 34.35 CB 43.59 CG 47.34 OD1 48.6 ND2 48.51
D ASP - 33 -62.2 118.7 N 33.96 CA 31.24 C 30.5 O 31.83 CB 30.78 CG 30.06 OD1 31.22 OD2 32.02
D PRO - 59 -64.1 -23.5 N 28.75 CA 28.85 C 28.53 O 29.43 CB 29.01 CG 28.49 CD 28.9
D GLY - 18 60.6 -145.0 N 27.57 CA 27.08 C 26.2 O 26.43
D GLY S 66 76.9 -162.7 N 25.52 CA 24.62 C 24.03 O 23.96
D SER - 90 -106.5 158.7 N 23.12 CA 21.92 C 20.35 O 20.08 CB 21.76 OG 27.52
D PRO - 35 -72.1 163.9 N 19.6 CA 18.13 C 17.5 O 18.52 CB 19.82 CG 20.74 CD 20.05
D CYS - 28 -136.5 166.0 N 16.53 CA 15.84 C 15.19 O 15.97 CB 15.54 SG 16.47
D SER - 29 -139.2 179.4 N 13.66 CA 14.65 C 14.69 O 14.3 CB 15.38 OG 14.9
D ASP - 27 -151.4 72.8 N 14.52 CA 17.37 C 17.99 O 16.99 CB 18.58 CG 21.16 OD1 21.32 OD2 21.25
D ASP - 81 -61.4 360.0 N 17.71 CA 18.66 C 19.32 O 20.76 CB 14.89 CG 15.65 OD1 16.23 OD2 15.22 OXT 21.93
