C DG H 83 -79.6 -30.4 O5' 75.67 C5' 75.12 C4' 75.05 O4' 74.7 C3' 74.85 O3' 74.84 C2' 74.39 C1' 73.97 N9 73.03 C8 72.83 N7 72.48 C5 72.22 C6 71.84 O6 71.6 N1 71.92 C2 71.74 N2 71.52 N3 72.03 C4 72.55
C DT H 9 -78.9 -34.9 P 75.11 OP1 74.77 OP2 74.95 O5' 74.21 C5' 72.44 C4' 71.08 O4' 70.52 C3' 70.15 O3' 68.79 C2' 70.02 C1' 69.74 N1 69.19 C2 69.0 O2 68.67 N3 68.62 C4 68.5 O4 67.81 C5 68.52 C7 68.79 C6 68.97
C DC H 48 -47.5 -54.2 P 67.87 OP1 67.65 OP2 67.49 O5' 64.91 C5' 59.29 C4' 55.67 O4' 53.95 C3' 53.5 O3' 50.63 C2' 52.99 C1' 52.45 N1 50.67 C2 49.67 O2 49.58 N3 49.23 C4 49.34 N4 49.04 C5 49.44 C6 50.35
C DC H 87 -66.2 -19.3 P 49.36 OP1 48.85 OP2 48.07 O5' 45.36 C5' 40.89 C4' 37.65 O4' 38.84 C3' 35.19 O3' 27.88 C2' 36.56 C1' 37.42 N1 35.05 C2 33.89 O2 32.95 N3 34.94 C4 34.66 N4 35.12 C5 35.23 C6 34.78
C DA H 79 -80.9 -11.9 P 25.07 OP1 26.19 OP2 25.11 O5' 22.11 C5' 22.4 C4' 21.87 O4' 23.36 C3' 21.29 O3' 18.41 C2' 23.61 C1' 23.73 N9 20.74 C8 21.33 N7 21.69 C5 20.17 C6 19.9 N6 19.88 N1 19.64 C2 20.14 N3 20.02 C4 20.32
C DG T 69 -59.5 132.8 P 15.01 OP1 13.63 OP2 16.44 O5' 15.22 C5' 14.83 C4' 16.26 O4' 16.36 C3' 17.07 O3' 19.6 C2' 16.76 C1' 18.39 N9 20.02 C8 20.63 N7 22.78 C5 21.52 C6 21.64 O6 22.16 N1 20.96 C2 20.24 N2 20.38 N3 18.67 C4 19.73
C DT T 49 91.1 -6.4 P 22.46 OP1 22.72 OP2 22.69 O5' 25.39 C5' 31.56 C4' 32.15 O4' 32.08 C3' 35.57 O3' 41.29 C2' 34.58 C1' 32.44 N1 30.19 C2 28.65 O2 29.25 N3 28.78 C4 27.16 O4 27.94 C5 28.57 C7 28.34 C6 29.49
C DC - 54 -87.4 148.2 P 44.47 OP1 46.38 OP2 45.06 O5' 47.52 C5' 51.62 C4' 54.02 O4' 54.0 C3' 56.14 O3' 59.75 C2' 55.43 C1' 54.24 N1 53.51 C2 53.3 O2 53.76 N3 52.78 C4 52.11 N4 52.57 C5 52.05 C6 52.1
C DT B 39 -108.1 132.9 P 62.29 OP1 62.21 OP2 61.07 O5' 63.17 C5' 65.78 C4' 67.28 O4' 67.1 C3' 68.61 O3' 71.19 C2' 68.02 C1' 66.81 N1 65.18 C2 64.94 O2 64.73 N3 64.24 C4 63.84 O4 63.26 C5 64.1 C7 63.3 C6 64.48
C DA E 7 -74.2 128.9 P 72.76 OP1 73.34 OP2 73.19 O5' 74.16 C5' 76.04 C4' 77.61 O4' 77.86 C3' 78.45 O3' 80.23 C2' 78.1 C1' 77.74 N9 77.27 C8 77.15 N7 76.96 C5 76.76 C6 76.69 N6 77.11 N1 76.66 C2 76.63 N3 76.41 C4 76.82
C DC E 122 -106.1 -30.7 P 81.29 OP1 81.35 OP2 81.4 O5' 81.45 C5' 81.84 C4' 81.91 O4' 81.94 C3' 81.89 O3' 81.87 C2' 81.97 C1' 81.95 N1 81.69 C2 81.46 O2 81.68 N3 81.1 C4 80.93 N4 80.4 C5 81.05 C6 81.47
