E DC S 64 -147.1 -154.0 O5' 53.39 C5' 52.73 C4' 51.58 O4' 50.49 C3' 51.89 O3' 51.52 C2' 51.36 C1' 50.2 N1 48.61 C2 47.34 O2 45.72 N3 46.63 C4 46.42 N4 47.03 C5 46.81 C6 47.27
E DT S 39 -97.2 14.9 P 51.19 OP1 52.38 OP2 50.33 O5' 49.33 C5' 47.88 C4' 45.68 O4' 44.65 C3' 46.01 O3' 48.11 C2' 44.49 C1' 43.12 N1 40.96 C2 39.41 O2 40.62 N3 38.67 C4 38.16 O4 37.76 C5 38.97 C7 39.79 C6 39.82
E DA S 121 -73.3 -22.2 P 49.78 OP1 50.59 OP2 50.53 O5' 49.13 C5' 46.41 C4' 44.52 O4' 42.49 C3' 44.15 O3' 46.54 C2' 42.84 C1' 40.6 N9 37.73 C8 36.86 N7 36.34 C5 34.55 C6 33.48 N6 31.84 N1 34.06 C2 33.38 N3 35.92 C4 36.17
E DT S 51 -122.3 150.8 P 48.81 OP1 49.07 OP2 49.68 O5' 49.22 C5' 47.33 C4' 45.59 O4' 45.05 C3' 45.72 O3' 46.73 C2' 45.19 C1' 43.49 N1 41.29 C2 39.98 O2 40.4 N3 37.61 C4 37.34 O4 33.72 C5 38.02 C7 39.31 C6 39.7
E DC H 93 -67.2 -41.9 P 48.39 OP1 47.42 OP2 48.51 O5' 47.6 C5' 45.55 C4' 43.92 O4' 42.85 C3' 44.69 O3' 46.24 C2' 42.53 C1' 41.01 N1 38.08 C2 37.34 O2 36.74 N3 36.1 C4 35.91 N4 34.1 C5 35.89 C6 36.88
E DT H 40 -64.2 -38.5 P 48.36 OP1 48.39 OP2 47.56 O5' 45.68 C5' 44.36 C4' 43.17 O4' 41.77 C3' 42.51 O3' 42.61 C2' 40.94 C1' 40.07 N1 36.18 C2 34.88 O2 34.2 N3 33.49 C4 32.61 O4 33.01 C5 33.7 C7 32.68 C6 34.71
E DG H 3 -66.9 -44.1 P 44.34 OP1 42.43 OP2 43.21 O5' 40.43 C5' 38.03 C4' 35.92 O4' 33.74 C3' 35.62 O3' 39.12 C2' 34.33 C1' 31.38 N9 27.51 C8 26.49 N7 24.96 C5 24.81 C6 24.12 O6 23.57 N1 22.15 C2 24.83 N2 25.02 N3 24.91 C4 25.45
E DA H 0 -57.6 -49.1 P 40.6 OP1 41.4 OP2 42.12 O5' 41.88 C5' 44.24 C4' 46.37 O4' 45.29 C3' 47.55 O3' 52.24 C2' 46.62 C1' 44.51 N9 42.39 C8 41.3 N7 39.3 C5 39.98 C6 38.62 N6 37.56 N1 38.11 C2 37.77 N3 40.83 C4 40.99
E DG H 21 -58.8 -42.6 P 54.34 OP1 55.47 OP2 54.67 O5' 56.03 C5' 56.53 C4' 57.05 O4' 55.66 C3' 58.95 O3' 62.44 C2' 56.79 C1' 54.84 N9 53.11 C8 51.25 N7 50.64 C5 50.06 C6 48.93 O6 45.38 N1 49.19 C2 51.04 N2 50.85 N3 51.06 C4 51.59
E DT H 0 -62.7 -42.6 P 66.97 OP1 66.66 OP2 65.51 O5' 67.75 C5' 69.05 C4' 69.72 O4' 69.42 C3' 70.02 O3' 70.69 C2' 69.39 C1' 69.16 N1 68.43 C2 68.0 O2 68.46 N3 66.45 C4 65.84 O4 64.14 C5 66.1 C7 65.65 C6 67.52
E DA H 2 -68.1 -42.4 P 71.56 OP1 71.6 OP2 71.22 O5' 70.71 C5' 68.95 C4' 68.0 O4' 66.39 C3' 68.67 O3' 70.41 C2' 66.85 C1' 65.15 N9 62.56 C8 61.98 N7 60.38 C5 58.66 C6 56.91 N6 55.38 N1 55.58 C2 56.91 N3 57.99 C4 60.0
E DT H 27 -62.3 -37.8 P 72.07 OP1 72.86 OP2 72.62 O5' 73.08 C5' 73.19 C4' 73.36 O4' 72.71 C3' 73.69 O3' 74.83 C2' 72.95 C1' 72.13 N1 70.58 C2 69.46 O2 69.35 N3 68.39 C4 68.56 O4 67.49 C5 68.88 C7 68.54 C6 69.75
E DC H 3 -68.1 -40.5 P 75.96 OP1 75.01 OP2 75.84 O5' 74.82 C5' 73.03 C4' 71.83 O4' 71.2 C3' 71.38 O3' 71.24 C2' 70.94 C1' 70.59 N1 69.93 C2 69.59 O2 69.44 N3 69.36 C4 69.28 N4 69.13 C5 69.35 C6 69.62
F DC S 54 -142.0 -153.0 O5' 55.0 C5' 53.44 C4' 51.71 O4' 50.33 C3' 51.78 O3' 52.96 C2' 50.37 C1' 47.98 N1 44.22 C2 43.02 O2 40.73 N3 40.3 C4 40.03 N4 37.78 C5 41.48 C6 43.39
F DT S 41 -101.9 14.6 P 54.79 OP1 55.24 OP2 53.58 O5' 52.67 C5' 51.46 C4' 50.05 O4' 48.29 C3' 50.32 O3' 52.29 C2' 48.35 C1' 46.13 N1 44.07 C2 42.4 O2 42.12 N3 41.65 C4 41.17 O4 40.5 C5 42.01 C7 42.48 C6 42.9
F DA S 126 -68.9 -24.4 P 54.03 OP1 54.6 OP2 53.68 O5' 53.51 C5' 51.99 C4' 51.0 O4' 48.37 C3' 51.39 O3' 52.76 C2' 49.46 C1' 47.91 N9 45.08 C8 44.23 N7 43.76 C5 43.46 C6 42.7 N6 42.61 N1 43.42 C2 43.56 N3 44.11 C4 43.94
F DT S 52 -121.8 152.7 P 54.34 OP1 54.67 OP2 54.32 O5' 52.52 C5' 51.56 C4' 50.24 O4' 49.02 C3' 50.34 O3' 52.41 C2' 49.18 C1' 47.82 N1 45.64 C2 44.76 O2 43.44 N3 43.67 C4 44.32 O4 43.09 C5 44.06 C7 45.39 C6 44.95
F DC H 96 -64.2 -45.4 P 53.88 OP1 53.28 OP2 54.64 O5' 52.95 C5' 52.77 C4' 51.56 O4' 50.85 C3' 51.41 O3' 52.25 C2' 49.76 C1' 48.64 N1 46.18 C2 45.28 O2 44.33 N3 44.37 C4 44.09 N4 42.86 C5 43.75 C6 44.95
F DT H 38 -61.1 -43.7 P 52.93 OP1 54.16 OP2 52.83 O5' 51.52 C5' 49.22 C4' 47.75 O4' 46.38 C3' 47.11 O3' 46.79 C2' 45.74 C1' 44.48 N1 42.06 C2 40.85 O2 39.32 N3 39.0 C4 39.42 O4 39.29 C5 39.37 C7 38.28 C6 40.91
F DG H 3 -64.2 -45.0 P 48.84 OP1 47.62 OP2 46.42 O5' 45.59 C5' 41.3 C4' 38.58 O4' 36.04 C3' 39.05 O3' 42.53 C2' 35.97 C1' 33.78 N9 30.02 C8 27.94 N7 26.87 C5 26.82 C6 24.59 O6 25.52 N1 25.43 C2 26.63 N2 22.46 N3 27.02 C4 27.88
F DA H 0 -57.6 -52.1 P 45.22 OP1 44.89 OP2 46.4 O5' 45.82 C5' 47.62 C4' 49.03 O4' 48.14 C3' 50.38 O3' 54.11 C2' 49.22 C1' 45.89 N9 42.24 C8 41.13 N7 39.99 C5 39.0 C6 38.73 N6 37.6 N1 36.97 C2 36.78 N3 38.33 C4 39.52
F DG H 23 -57.4 -38.4 P 56.95 OP1 56.91 OP2 56.77 O5' 55.5 C5' 53.55 C4' 52.42 O4' 51.24 C3' 52.36 O3' 54.34 C2' 49.98 C1' 48.11 N9 43.7 C8 42.62 N7 39.95 C5 39.42 C6 38.1 O6 35.24 N1 36.23 C2 37.96 N2 36.3 N3 38.04 C4 41.13
F DT H 0 -67.3 -42.9 P 56.01 OP1 56.19 OP2 55.22 O5' 55.54 C5' 54.86 C4' 54.21 O4' 53.59 C3' 54.51 O3' 55.9 C2' 53.22 C1' 51.43 N1 49.54 C2 47.65 O2 47.5 N3 46.03 C4 45.58 O4 42.55 C5 46.23 C7 44.8 C6 47.99
F DA H 2 -67.1 -41.9 P 56.92 OP1 56.88 OP2 56.48 O5' 57.09 C5' 57.92 C4' 58.12 O4' 57.11 C3' 59.14 O3' 62.5 C2' 57.48 C1' 55.04 N9 51.68 C8 49.96 N7 49.0 C5 49.17 C6 48.5 N6 49.47 N1 48.51 C2 48.92 N3 48.73 C4 49.8
F DT H 34 -61.2 -44.0 P 64.76 OP1 65.44 OP2 64.95 O5' 63.83 C5' 63.51 C4' 62.7 O4' 60.9 C3' 62.95 O3' 65.32 C2' 61.23 C1' 58.13 N1 54.25 C2 51.93 O2 51.89 N3 50.06 C4 49.62 O4 48.68 C5 51.02 C7 50.79 C6 52.19
F DC H 3 -64.1 -40.4 P 67.33 OP1 67.39 OP2 66.63 O5' 66.51 C5' 65.37 C4' 63.78 O4' 62.55 C3' 63.24 O3' 63.16 C2' 62.17 C1' 61.21 N1 58.73 C2 57.36 O2 56.04 N3 56.14 C4 56.67 N4 56.73 C5 57.15 C6 58.13
