C DT - 43 360.0 129.4 O5' 26.6 C5' 28.61 C4' 28.62 O4' 28.27 C3' 28.33 O3' 28.36 C2' 26.72 C1' 25.94 N1 24.6 C2 24.36 O2 26.45 N3 21.98 C4 23.1 O4 26.02 C5 23.34 C7 23.2 C6 23.97
C DG B 69 -101.4 176.7 P 30.43 OP1 29.4 OP2 28.19 O5' 26.99 C5' 25.09 C4' 23.57 O4' 23.37 C3' 23.13 O3' 23.34 C2' 22.87 C1' 22.85 N9 23.31 C8 22.76 N7 21.98 C5 23.69 C6 25.62 O6 24.7 N1 26.36 C2 25.91 N2 26.67 N3 24.2 C4 23.99
C DC H 42 -50.2 -56.0 P 26.17 OP1 23.87 OP2 26.45 O5' 22.84 C5' 22.68 C4' 22.62 O4' 22.6 C3' 23.49 O3' 25.95 C2' 23.42 C1' 21.98 N1 22.48 C2 23.89 O2 23.18 N3 24.37 C4 22.86 N4 21.0 C5 21.08 C6 21.88
C DA H 37 -48.2 -52.9 P 27.77 OP1 27.83 OP2 25.83 O5' 26.74 C5' 23.98 C4' 23.99 O4' 22.83 C3' 23.28 O3' 23.49 C2' 22.8 C1' 22.44 N9 23.11 C8 22.72 N7 23.01 C5 21.82 C6 20.6 N6 19.72 N1 19.81 C2 20.68 N3 20.69 C4 21.25
C DT H 97 -61.2 -41.2 P 25.35 OP1 24.42 OP2 22.52 O5' 25.85 C5' 23.53 C4' 22.1 O4' 23.43 C3' 21.7 O3' 22.96 C2' 20.89 C1' 20.95 N1 20.82 C2 18.97 O2 18.74 N3 17.55 C4 17.94 O4 20.0 C5 19.83 C7 19.81 C6 19.49
C DA H 0 -59.7 -51.6 P 24.25 OP1 24.63 OP2 19.78 O5' 23.68 C5' 21.02 C4' 20.71 O4' 21.65 C3' 17.78 O3' 17.76 C2' 19.56 C1' 19.74 N9 19.92 C8 19.22 N7 19.42 C5 17.42 C6 17.62 N6 15.49 N1 19.76 C2 17.21 N3 17.15 C4 17.66
C DT H 6 -50.2 -49.6 P 18.46 OP1 17.36 OP2 15.59 O5' 19.93 C5' 21.8 C4' 24.16 O4' 25.14 C3' 25.03 O3' 24.53 C2' 26.3 C1' 25.72 N1 25.49 C2 27.57 O2 27.63 N3 27.29 C4 27.85 O4 30.0 C5 26.43 C7 26.16 C6 25.95
C DC H 63 -51.0 -56.0 P 25.2 OP1 25.01 OP2 26.5 O5' 26.73 C5' 22.42 C4' 21.01 O4' 20.04 C3' 21.01 O3' 23.21 C2' 19.37 C1' 18.61 N1 19.96 C2 18.68 O2 21.48 N3 18.86 C4 19.15 N4 18.38 C5 17.22 C6 19.02
C DA H 25 -57.8 -36.0 P 27.13 OP1 26.81 OP2 26.77 O5' 27.93 C5' 27.08 C4' 24.95 O4' 23.72 C3' 23.38 O3' 25.24 C2' 22.39 C1' 22.38 N9 20.73 C8 18.41 N7 18.78 C5 18.79 C6 18.33 N6 16.71 N1 18.19 C2 18.02 N3 20.0 C4 19.14
C DA H 2 -72.0 -51.6 P 28.75 OP1 25.81 OP2 26.48 O5' 27.24 C5' 24.4 C4' 23.47 O4' 24.49 C3' 23.63 O3' 23.22 C2' 22.53 C1' 22.64 N9 23.68 C8 24.55 N7 22.64 C5 23.68 C6 21.53 N6 22.74 N1 21.7 C2 24.29 N3 23.87 C4 24.11
C DT I 13 -44.0 -37.1 P 24.51 OP1 18.62 OP2 25.96 O5' 21.07 C5' 22.86 C4' 23.25 O4' 23.02 C3' 23.84 O3' 24.39 C2' 24.2 C1' 23.43 N1 23.05 C2 22.7 O2 21.35 N3 22.61 C4 21.56 O4 21.79 C5 24.16 C7 22.89 C6 22.2
C DT I 156 -73.2 -47.4 P 24.23 OP1 24.39 OP2 23.79 O5' 24.24 C5' 24.74 C4' 24.33 O4' 25.19 C3' 24.01 O3' 24.77 C2' 24.05 C1' 25.17 N1 24.32 C2 24.25 O2 25.17 N3 22.05 C4 23.56 O4 26.38 C5 24.13 C7 21.97 C6 24.02
C DT I 107 -68.5 -36.8 P 25.3 OP1 24.61 OP2 24.39 O5' 25.52 C5' 24.4 C4' 23.05 O4' 23.07 C3' 22.2 O3' 23.79 C2' 23.72 C1' 22.58 N1 23.33 C2 23.52 O2 27.0 N3 22.5 C4 22.31 O4 22.21 C5 21.75 C7 21.56 C6 22.56
C DG I 30 -101.0 -30.6 P 29.6 OP1 31.3 OP2 28.3 O5' 28.96 C5' 24.41 C4' 23.71 O4' 22.98 C3' 22.13 O3' 21.59 C2' 22.59 C1' 21.13 N9 21.68 C8 21.48 N7 18.89 C5 19.75 C6 19.69 O6 20.45 N1 17.25 C2 17.62 N2 14.6 N3 18.65 C4 20.02
C DT I 92 82.8 80.3 P 25.37 OP1 26.28 OP2 25.82 O5' 24.36 C5' 22.0 C4' 20.99 O4' 18.54 C3' 20.02 O3' 24.19 C2' 19.46 C1' 18.85 N1 20.54 C2 20.99 O2 20.67 N3 19.58 C4 18.23 O4 12.4 C5 20.41 C7 21.09 C6 19.83
C DT - 32 -144.4 -163.4 P 24.91 OP1 25.09 OP2 24.02 O5' 23.02 C5' 22.34 C4' 22.68 O4' 23.07 C3' 22.82 O3' 22.9 C2' 22.17 C1' 22.16 N1 22.39 C2 20.74 O2 19.03 N3 20.49 C4 21.33 O4 23.9 C5 22.92 C7 25.02 C6 23.52
C DG - 80 -97.1 156.3 P 25.39 OP1 24.5 OP2 25.58 O5' 23.61 C5' 24.24 C4' 24.29 O4' 23.87 C3' 25.8 O3' 26.42 C2' 24.98 C1' 24.1 N9 23.06 C8 23.95 N7 23.65 C5 21.82 C6 21.41 O6 21.48 N1 21.46 C2 20.27 N2 20.51 N3 18.75 C4 21.74
C DC H 129 -53.0 -57.1 P 28.32 OP1 27.48 OP2 26.66 O5' 27.77 C5' 27.54 C4' 26.72 O4' 28.21 C3' 26.33 O3' 26.63 C2' 24.75 C1' 26.75 N1 26.25 C2 25.41 O2 25.07 N3 24.61 C4 23.72 N4 23.13 C5 24.91 C6 25.78
C DA H 187 -50.6 -41.0 P 27.95 OP1 27.61 OP2 27.45 O5' 28.12 C5' 27.76 C4' 26.85 O4' 26.27 C3' 26.15 O3' 27.51 C2' 25.57 C1' 24.19 N9 23.84 C8 22.76 N7 22.08 C5 21.84 C6 20.75 N6 20.25 N1 20.55 C2 21.71 N3 22.77 C4 22.95
C DC H 69 -69.5 -65.3 P 29.22 OP1 28.72 OP2 30.03 O5' 28.46
D DT - 53 360.0 143.8 O5' 27.23 C5' 25.1 C4' 24.96 O4' 24.03 C3' 25.7 O3' 26.11 C2' 25.38 C1' 24.25 N1 23.36 C2 23.67 O2 25.09 N3 23.49 C4 23.57 O4 24.51 C5 22.67 C7 21.97 C6 22.62
D DG - 65 -122.4 171.0 P 26.95 OP1 27.44 OP2 26.15 O5' 26.85 C5' 25.68 C4' 25.15 O4' 24.74 C3' 25.11 O3' 25.68 C2' 23.78 C1' 24.1 N9 21.9 C8 22.44 N7 23.29 C5 22.3 C6 22.58 O6 23.71 N1 22.08 C2 22.07 N2 22.72 N3 21.77 C4 21.92
D DC H 50 -45.8 -56.0 P 28.37 OP1 26.66 OP2 27.29 O5' 26.58 C5' 25.72 C4' 25.02 O4' 24.82 C3' 24.29 O3' 23.91 C2' 24.16 C1' 23.75 N1 23.11 C2 22.53 O2 22.12 N3 22.39 C4 22.58 N4 22.1 C5 22.83 C6 22.9
D DA H 34 -52.8 -46.8 P 26.75 OP1 26.09 OP2 26.56 O5' 24.8 C5' 24.85 C4' 24.99 O4' 24.44 C3' 25.89 O3' 27.24 C2' 25.36 C1' 25.04 N9 26.02 C8 25.12 N7 24.44 C5 23.17 C6 23.31 N6 22.05 N1 24.52 C2 24.87 N3 24.44 C4 24.28
D DT H 93 -67.7 -39.3 P 30.88 OP1 26.73 OP2 28.86 O5' 29.98 C5' 28.37 C4' 27.82 O4' 26.45 C3' 28.27 O3' 35.18 C2' 26.0 C1' 23.87 N1 21.13 C2 19.96 O2 18.01 N3 17.29 C4 18.93 O4 18.7 C5 17.21 C7 16.1 C6 18.86
D DA H 0 -61.8 -44.0 P 44.64 OP1 46.06 OP2 45.12 O5' 42.7 C5' 42.52 C4' 40.09 O4' 39.47 C3' 40.49 O3' 40.62 C2' 38.94 C1' 39.69 N9 39.46 C8 37.8 N7 38.92 C5 37.06 C6 35.24 N6 35.63 N1 34.14 C2 37.09 N3 35.74 C4 37.9
D DT H 5 -56.6 -53.7 P 40.82 OP1 38.24 OP2 40.5 O5' 42.41 C5' 42.52 C4' 44.62 O4' 45.83 C3' 44.04 O3' 45.67 C2' 43.64 C1' 45.72 N1 48.11 C2 50.24 O2 52.19 N3 48.84 C4 48.61 O4 50.14 C5 47.06 C7 46.51 C6 46.2
D DC H 65 -54.1 -49.0 P 46.96 OP1 47.73 OP2 46.3 O5' 44.54 C5' 43.59 C4' 42.15 O4' 39.1 C3' 43.68 O3' 47.75 C2' 40.94 C1' 39.48 N1 37.06 C2 35.56 O2 34.2 N3 35.68 C4 35.87 N4 32.82 C5 37.18 C6 36.96
D DA H 28 -64.2 -38.5 P 51.81 OP1 53.03 OP2 48.82 O5' 49.02 C5' 47.63 C4' 46.02 O4' 45.27 C3' 46.49 O3' 52.16 C2' 44.96 C1' 43.98 N9 40.89 C8 40.37 N7 39.31 C5 39.15 C6 38.73 N6 39.95 N1 38.76 C2 38.1 N3 38.86 C4 38.47
D DA H 1 -69.6 -44.1 P 53.39 OP1 51.49 OP2 56.35 O5' 54.17 C5' 55.19 C4' 54.23 O4' 52.84 C3' 53.4 O3' 55.46 C2' 50.22 C1' 48.65 N9 44.82 C8 45.36 N7 43.33 C5 41.68 C6 39.19 N6 42.08 N1 40.09 C2 42.67 N3 44.37 C4 43.81
D DT H 8 -49.4 -38.6 P 57.52 OP1 53.02 OP2 52.62 O5' 50.62 C5' 49.08 C4' 46.95 O4' 47.39 C3' 47.2 O3' 46.76 C2' 47.09 C1' 46.34 N1 41.97 C2 43.91 O2 46.43 N3 40.93 C4 40.57 O4 40.51 C5 36.82 C7 33.46 C6 37.79
D DT H 160 -74.5 -57.1 P 47.65 OP1 48.07 OP2 44.6 O5' 44.83 C5' 43.65 C4' 42.63 O4' 41.88 C3' 42.9 O3' 45.93 C2' 39.91 C1' 40.85 N1 40.29 C2 40.11 O2 40.98 N3 37.91 C4 37.67 O4 38.34 C5 36.44 C7 33.74 C6 37.52
D DT H 117 -50.8 -45.5 P 48.99 OP1 49.99 OP2 45.76 O5' 44.09 C5' 43.19 C4' 42.6 O4' 42.56 C3' 43.08 O3' 43.89 C2' 41.6 C1' 41.6 N1 40.58 C2 38.04 O2 38.36 N3 35.83 C4 38.35 O4 39.29 C5 38.29 C7 37.28 C6 40.2
D DG H 27 -95.0 -11.7 P 45.51 OP1 45.9 OP2 44.7 O5' 44.45 C5' 43.06 C4' 42.7 O4' 42.46 C3' 42.53 O3' 42.42 C2' 42.05 C1' 41.24 N9 39.01 C8 39.19 N7 38.9 C5 36.4 C6 35.0 O6 35.27 N1 34.74 C2 35.11 N2 30.78 N3 35.82 C4 37.64
D DT T 103 72.0 70.8 P 41.91 OP1 44.08 OP2 42.94 O5' 44.26 C5' 40.41 C4' 39.23 O4' 40.54 C3' 37.37 O3' 34.92 C2' 37.75 C1' 38.03 N1 37.7 C2 36.15 O2 36.22 N3 33.75 C4 35.54 O4 34.27 C5 37.45 C7 39.15 C6 37.32
D DT - 30 -135.8 -164.6 P 25.76 OP1 27.55 OP2 22.17 O5' 24.59 C5' 21.74 C4' 21.8 O4' 21.2 C3' 21.47 O3' 21.59 C2' 21.22 C1' 22.25 N1 24.77 C2 24.8 O2 25.37 N3 24.12 C4 23.11 O4 21.5 C5 22.84 C7 21.92 C6 22.78
D DG - 68 -97.0 164.6 P 23.51 OP1 23.37 OP2 24.37 O5' 22.76 C5' 24.4 C4' 23.53 O4' 23.77 C3' 22.95 O3' 24.31 C2' 23.45 C1' 22.71 N9 22.82 C8 21.73 N7 19.81 C5 20.0 C6 19.83 O6 21.16 N1 19.09 C2 21.29 N2 20.45 N3 21.52 C4 21.59
D DC H 120 -72.3 -39.1 P 26.05 OP1 25.33 OP2 24.77 O5' 24.72 C5' 22.34 C4' 21.4 O4' 20.16 C3' 21.99 O3' 21.87 C2' 22.21 C1' 21.24 N1 20.13 C2 18.68 O2 18.18 N3 17.24 C4 18.63 N4 17.88 C5 19.71 C6 20.26
D DA H 154 -68.1 -35.4 P 20.07 OP1 21.05 OP2 24.53 O5' 21.46 C5' 20.99 C4' 22.54 O4' 22.78 C3' 22.63 O3' 23.62 C2' 21.92 C1' 22.73 N9 22.58 C8 22.87 N7 24.06 C5 22.99 C6 22.91 N6 23.03 N1 24.7 C2 24.04 N3 23.32 C4 23.12
D DC H 60 -66.8 -71.6 P 26.14 OP1 25.68 OP2 27.18 O5' 28.09 C5' 29.24 C4' 30.17 O4' 28.55 C3' 33.46 O3' 42.11 C2' 29.97 C1' 28.16 N1 27.64 C2 26.73 O2 26.13 N3 29.65 C4 29.5 N4 30.68 C5 27.86 C6 28.38
D DC H 0 -43.0 -46.9 P 53.95 OP1 49.65 OP2 46.81 O5' 51.65 C5' 52.56 C4' 52.92 O4' 52.03 C3' 54.17 O3' 56.98 C2' 54.44 C1' 52.61 N1 49.55 C2 50.65 O2 50.37 N3 49.24 C4 49.08 N4 49.75 C5 49.6 C6 49.17
