A ALA - 13 360.0 -46.2 N 81.44 CA 78.19 C 71.13 O 69.63 CB 81.5
A GLN E 15 -150.9 148.4 N 59.66 CA 42.08 C 38.17 O 39.43 CB 32.17 CG 23.26 CD 30.65 OE1 34.08 NE2 36.12
A SER E 34 -148.4 137.3 N 36.21 CA 30.27 C 25.97 O 26.99 CB 31.46 OG 34.22
A LEU E 4 -137.9 131.6 N 22.8 CA 19.06 C 21.92 O 28.88 CB 16.52 CG 16.92 CD1 19.57 CD2 16.95
A SER E 32 -145.4 130.0 N 20.82 CA 23.55 C 22.89 O 28.63 CB 27.67 OG 44.21
A PHE E 3 -141.2 148.9 N 19.01 CA 15.07 C 9.66 O 15.85 CB 15.77 CG 17.69 CD1 19.6 CD2 20.61 CE1 27.26 CE2 27.61 CZ 29.19
A SER E 30 -135.7 139.3 N 6.12 CA 8.89 C 14.98 O 19.39 CB 7.3 OG 21.35
A PHE E 1 -124.4 136.8 N 16.49 CA 15.94 C 18.51 O 22.48 CB 14.37 CG 18.75 CD1 23.4 CD2 25.51 CE1 25.47 CE2 30.95 CZ 26.07
A THR S 79 -131.1 -6.0 N 18.12 CA 21.42 C 23.7 O 29.42 CB 19.87 OG1 26.94 CG2 19.73
A LYS S 19 -153.6 157.4 N 22.34 CA 26.33 C 30.41 O 37.29 CB 24.65
A PHE - 1 -121.7 106.2 N 31.51 CA 37.32 C 46.83 O 50.3 CB 34.07 CG 31.84 CD1 33.68 CD2 31.56 CE1 31.28 CE2 32.53 CZ 31.7
A ASP - 4 -65.8 149.6 N 57.94 CA 67.24 C 66.78 O 64.8 CB 78.6 CG 87.4 OD1 93.47 OD2 83.81
A PRO S 104 -57.9 -43.0 N 68.25 CA 69.87 C 72.27 O 69.95 CB 72.06 CG 74.97 CD 71.04
A ASN S 96 -105.5 83.0 N 78.25 CA 81.49 C 75.91 O 75.77 CB 91.67 CG 0.6 OD1 0.73 ND2 0.96
A GLN - 8 -90.7 75.1 N 66.51 CA 57.6 C 53.79 O 54.08 CB 55.88 CG 56.06 CD 57.46 OE1 50.91 NE2 63.01
A GLU T 86 -49.5 -22.0 N 49.16 CA 44.62 C 37.61 O 31.56 CB 53.7 CG 62.9 CD 71.96 OE1 74.25 OE2 78.7
A ASP T 1 -101.2 28.3 N 32.39 CA 31.7 C 33.09 O 36.51 CB 29.62 CG 29.85 OD1 13.94 OD2 30.89
A LEU E 12 -139.5 154.9 N 33.77 CA 29.62 C 33.23 O 39.15 CB 22.21 CG 25.56 CD1 20.25 CD2 25.52
A ILE E 56 -113.3 139.8 N 36.3 CA 41.16 C 46.46 O 48.44 CB 37.56 CG1 39.07 CG2 37.93 CD1 41.87
A PHE E 76 -116.0 133.5 N 49.15 CA 53.19 C 55.5 O 57.15 CB 52.37 CG 51.09 CD1 52.97 CD2 51.83 CE1 53.09 CE2 48.28 CZ 48.14
A GLN E 28 -136.3 133.3 N 54.95 CA 54.54 C 55.96 O 57.04 CB 51.09 CG 49.44 CD 50.46 OE1 52.24 NE2 51.87
A GLY E 50 80.6 -152.4 N 54.82 CA 54.84 C 54.16 O 53.33
A HIS T 94 -82.4 8.0 N 56.23 CA 59.56 C 58.6 O 57.24 CB 66.38 CG 69.56 ND1 70.27 CD2 70.09 CE1 72.59 NE2 73.84
A ALA - 3 -64.5 137.3 N 56.32 CA 52.32 C 50.6 O 48.13 CB 53.33
A THR E 67 -156.0 -167.4 N 51.45 CA 56.57 C 58.58 O 57.94 CB 58.5 OG1 59.13 CG2 60.7
A SER E 11 -154.0 135.2 N 60.9 CA 63.64 C 64.24 O 66.95 CB 63.43 OG 68.83
A THR E 71 -156.4 157.6 N 64.0 CA 66.77 C 65.81 O 66.03 CB 69.46 OG1 71.94 CG2 70.17
A ASN T 143 51.5 30.6 N 66.39 CA 66.03 C 60.27 O 56.49 CB 76.97 CG 88.0 OD1 95.74 ND2 92.24
A ASN T 99 71.1 12.8 N 57.28 CA 55.06 C 48.16 O 47.2 CB 63.66 CG 69.07 OD1 72.15 ND2 71.73
A VAL E 29 -122.7 166.7 N 42.0 CA 37.27 C 36.28 O 34.12 CB 33.14 CG1 33.28 CG2 37.99
A LEU E 0 -98.5 116.7 N 37.13 CA 38.95 C 42.48 O 47.17 CB 36.23 CG 34.03 CD1 37.31 CD2 32.81
A GLN E 21 -104.1 85.3 N 42.34 CA 43.76 C 45.99 O 46.42 CB 44.05 CG 42.7 CD 40.39 OE1 38.96 NE2 39.49
A VAL - 0 -67.5 -8.9 N 44.05 CA 43.64 C 47.45 O 46.63 CB 42.01 CG1 36.61 CG2 43.23
A THR S 0 -126.6 136.4 N 53.79 CA 56.19 C 61.31 O 66.6 CB 51.36 OG1 46.64 CG2 51.53
A LYS - 21 -46.3 157.1 N 61.77 CA 61.66 C 62.08 O 58.15 CB 56.92
A LEU B 61 -139.0 144.6 N 67.07 CA 73.33 C 78.52 O 78.97 CB 73.45 CG 73.44 CD1 73.99 CD2 75.77
A ASP - 64 -66.5 135.4 N 82.66 CA 84.04 C 83.07 O 80.66 CB 90.51 CG 96.98 OD1 0.01 OD2 0.62
A SER T 135 -53.6 0.6 N 83.59 CA 83.57 C 80.09 O 77.3 CB 85.61 OG 89.19
A ALA T 75 -110.0 -8.5 N 77.91 CA 78.87 C 79.64 O 79.77 CB 82.14
A GLY S 28 98.3 26.6 N 78.92 CA 79.4 C 77.85 O 77.65
A ASN - 40 -112.7 144.9 N 75.31 CA 72.77 C 67.62 O 68.68 CB 77.7 CG 81.27 OD1 79.58 ND2 82.71
A PRO B 5 -63.8 145.2 N 62.51 CA 60.85 C 60.38 O 61.51 CB 61.06 CG 62.94 CD 61.16
A VAL - 57 -109.9 173.1 N 62.63 CA 65.38 C 68.62 O 70.64 CB 64.82 CG1 67.74 CG2 65.65
A SER S 59 -100.8 156.0 N 71.64 CA 71.34 C 68.66 O 65.92 CB 76.21 OG 82.96
A SER S 64 58.3 46.9 N 69.52 CA 74.5 C 76.05 O 75.86 CB 76.79 OG 81.11
A SER - 2 -114.9 144.7 N 76.63 CA 74.88 C 73.03 O 71.58 CB 75.07 OG 71.26
A ALA E 7 -138.6 126.8 N 68.68 CA 62.99 C 60.42 O 60.27 CB 63.07
A GLY E 0 -138.4 138.5 N 57.92 CA 52.7 C 49.8 O 49.89
A ARG E 4 -139.0 148.5 N 48.02 CA 45.96 C 46.84 O 46.62 CB 44.63 CG 42.45 CD 42.29 NE 38.73 CZ 37.87 NH1 38.3 NH2 36.26
A VAL E 0 -132.5 136.6 N 44.25 CA 39.41 C 37.93 O 37.67 CB 37.19 CG1 40.69 CG2 40.82
A LEU E 3 -130.1 137.3 N 34.62 CA 31.75 C 35.92 O 39.45 CB 26.27 CG 25.23 CD1 25.33 CD2 27.75
A TYR E 1 -69.6 129.2 N 37.28 CA 36.12 C 33.37 O 34.26 CB 35.11 CG 33.1 CD1 32.58 CD2 30.62 CE1 35.82 CE2 30.83 CZ 37.48 OH 41.32
A SER S 20 -38.3 -60.5 N 29.99 CA 30.96 C 27.62 O 27.38 CB 34.76 OG 49.71
A ALA S 2 -69.4 142.9 N 23.12 CA 20.78 C 21.48 O 24.8 CB 26.5
A PRO - 4 -74.2 164.7 N 20.53 CA 20.39 C 23.54 O 29.6 CB 14.86 CG 22.24 CD 21.15
A LEU E 10 -135.9 131.0 N 24.65 CA 23.52 C 24.89 O 26.96 CB 20.54 CG 22.78 CD1 36.33 CD2 24.73
A ARG E 15 -80.0 123.1 N 27.82 CA 34.38 C 38.01 O 40.61 CB 38.09 CG 47.05 CD 53.14 NE 57.02 CZ 57.74 NH1 59.79 NH2 61.67
A LEU - 1 -101.3 -30.3 N 36.52 CA 35.6 C 36.85 O 33.97 CB 40.09 CG 38.89 CD1 44.27 CD2 38.78
A TRP - 47 -157.7 165.1 N 40.91 CA 44.37 C 44.37 O 40.29 CB 50.74 CG 57.09 CD1 59.72 CD2 59.94 NE1 63.68 CE2 61.98 CE3 62.38 CZ2 63.98 CZ3 63.72 CH2 63.07
A GLU - 29 -160.7 141.7 N 50.26 CA 57.05 C 60.2 O 58.19 CB 60.01 CG 65.51 CD 67.24 OE1 65.12 OE2 71.12
A ASP T 139 -34.5 -70.5 N 65.21 CA 70.44 C 69.39 O 71.37 CB 78.4 CG 88.08 OD1 92.46 OD2 92.86
A SER T 64 -90.9 64.8 N 68.35 CA 71.45 C 66.69 O 71.81 CB 78.94 OG 87.12
A ALA E 1 -139.3 135.5 N 58.18 CA 50.74 C 43.77 O 39.81 CB 54.64
A VAL E 33 -139.7 70.1 N 39.32 CA 39.87 C 36.66 O 40.88 CB 48.12 CG1 59.83 CG2 34.97
A LEU E 5 162.6 129.6 N 23.3 CA 21.3 C 22.41 O 21.05 CB 22.29 CG 21.11 CD1 21.54 CD2 22.4
A THR E 0 -145.2 135.8 N 21.54 CA 21.02 C 21.11 O 23.54 CB 19.48 OG1 28.79 CG2 27.13
A SER E 12 -148.8 145.2 N 20.42 CA 23.55 C 25.72 O 30.57 CB 23.19 OG 24.06
A PHE E 7 -143.4 144.2 N 24.7 CA 23.94 C 23.09 O 25.06 CB 21.85 CG 20.91 CD1 21.4 CD2 23.24 CE1 23.43 CE2 21.63 CZ 28.05
A ASP E 57 -135.6 134.7 N 24.23 CA 25.48 C 24.4 O 30.09 CB 30.74 CG 46.63 OD1 50.77 OD2 54.75
A THR E 2 -143.7 142.4 N 20.7 CA 15.51 C 16.24 O 19.17 CB 13.76 OG1 18.13 CG2 19.81
A ILE E 36 -122.7 141.9 N 16.59 CA 19.94 C 20.78 O 17.16 CB 19.64 CG1 33.71 CG2 15.18 CD1 46.13
A ILE E 5 -133.8 140.8 N 21.53 CA 19.6 C 22.18 O 25.8 CB 14.3 CG1 14.84 CG2 12.09 CD1 18.87
A ASN E 29 -123.2 121.2 N 24.04 CA 28.92 C 36.26 O 41.12 CB 25.56 CG 28.18 OD1 33.13 ND2 32.1
A PHE E 1 -140.6 160.9 N 38.87 CA 37.23 C 35.69 O 31.16 CB 38.32 CG 42.19 CD1 44.67 CD2 45.16 CE1 45.51 CE2 48.78 CZ 45.68
A GLU E 42 -134.6 123.5 N 37.19 CA 42.66 C 44.3 O 44.65 CB 44.76 CG 50.77 CD 55.25 OE1 58.72 OE2 58.08
A ILE E 0 -112.5 116.4 N 45.31 CA 44.2 C 46.93 O 43.12 CB 40.24 CG1 41.09 CG2 31.56 CD1 49.74
A SER E 5 -139.7 161.8 N 50.7 CA 55.94 C 58.99 O 57.25 CB 57.15 OG 60.81
A THR - 12 -152.5 132.8 N 61.31 CA 59.55 C 62.65 O 57.2 CB 57.1 OG1 55.35 CG2 57.52
A PRO S 60 -79.4 -32.5 N 70.58 CA 77.78 C 82.69 O 84.86 CB 77.41 CG 74.1 CD 71.02
A TYR S 110 -65.7 -179.8 N 84.19 CA 85.77 C 88.92 O 87.69 CB 84.21 CG 84.56 CD1 85.16 CD2 86.17 CE1 86.08 CE2 86.71 CZ 86.7 OH 82.44
A THR S 152 -117.7 -0.4 N 92.92 CA 92.29 C 88.0 O 85.45 CB 95.19 OG1 95.24 CG2 94.18
A SER S 60 -75.2 -177.2 N 83.34 CA 80.0 C 78.67 O 80.53 CB 77.95 OG 73.84
A ARG - 52 -73.3 150.8 N 75.09 CA 72.17 C 72.01 O 71.1 CB 68.52
A ILE - 22 -100.7 140.8 N 70.38 CA 64.83 C 63.49 O 60.4 CB 64.34 CG1 59.79 CG2 61.91 CD1 63.02
A ALA - 0 -145.7 155.3 N 64.1 CA 65.92 C 66.19 O 69.48 CB 66.66
A ASP - 6 -119.5 -61.8 N 62.4 CA 61.42 C 62.27 O 60.02 CB 62.16 CG 63.93 OD1 63.86 OD2 59.35
A GLY E 0 -155.3 162.1 N 64.01 CA 61.73 C 56.73 O 54.16
A LEU E 5 -128.1 135.4 N 53.42 CA 47.08 C 42.82 O 40.57 CB 47.3 CG 39.56 CD1 40.2 CD2 38.62
A ALA E 2 -140.5 151.4 N 39.72 CA 41.45 C 41.85 O 45.27 CB 40.22
A PHE E 4 -116.3 127.9 N 38.2 CA 32.51 C 30.47 O 29.14 CB 26.63 CG 29.36 CD1 30.31 CD2 31.27 CE1 29.27 CE2 27.44 CZ 24.85
A PHE E 0 -138.6 155.2 N 28.01 CA 29.41 C 32.62 O 37.97 CB 27.66 CG 23.57 CD1 23.76 CD2 19.19 CE1 23.32 CE2 18.64 CZ 17.18
A ILE E 6 -129.1 123.8 N 32.35 CA 31.43 C 30.55 O 32.57 CB 30.18 CG1 32.34 CG2 25.88 CD1 46.73
A ALA E 1 -144.5 157.2 N 32.56 CA 34.15 C 36.84 O 41.68 CB 30.37
A PRO - 26 -49.0 140.4 N 39.12 CA 41.77 C 43.77 O 44.56 CB 42.28 CG 45.62 CD 42.17
A PRO T 22 -38.7 -40.3 N 44.1 CA 46.31 C 49.83 O 48.84 CB 46.01 CG 45.25 CD 42.54
A ASP T 129 -86.9 8.3 N 55.0 CA 59.61 C 55.86 O 53.7 CB 69.01 CG 78.44 OD1 81.67 OD2 84.67
A SER - 25 -52.6 140.0 N 54.92 CA 54.53 C 53.26 O 50.3 CB 54.97 OG 56.02
A VAL - 104 -124.8 150.8 N 56.42 CA 60.7 C 62.95 O 65.54 CB 59.82 CG1 61.24 CG2 64.31
A ILE - 55 -53.3 142.0 N 62.45 CA 61.78 C 63.81 O 64.8 CB 61.24 CG1 60.31 CG2 63.88 CD1 60.77
A SER - 27 -112.6 -164.2 N 65.42 CA 67.21 C 69.66 O 70.51 CB 64.87 OG 68.61
A TYR - 151 -59.6 152.8 N 72.03 CA 73.78 C 66.31 O 64.77 CB 84.1 CG 97.32 CD1 0.77 CD2 0.88 CE1 0.42 CE2 0.93 CZ 0.12 OH 0.93
A HIS - 74 -87.2 -147.1 N 62.03 CA 60.03 C 54.94 O 51.92 CB 69.0 CG 79.51 ND1 83.94 CD2 83.65 CE1 87.27 NE2 90.15
A GLY G 14 67.1 -145.1 N 51.43 CA 49.81 C 47.97 O 51.14
A GLY G 3 -73.9 14.5 N 46.74 CA 43.77 C 42.49 O 38.79
A PHE G 18 -93.9 -19.9 N 42.95 CA 50.89 C 50.24 O 50.53 CB 58.85 CG 66.18 CD1 67.27 CD2 70.28 CE1 69.95 CE2 70.56 CZ 70.89
A LEU T 0 59.3 36.1 N 46.16 CA 41.65 C 44.68 O 47.6 CB 34.94 CG 27.62 CD1 25.29 CD2 26.36
A GLY T 0 47.6 24.8 N 47.41 CA 45.49 C 43.59 O 43.34
A LEU T 4 -107.3 -40.1 N 43.96 CA 45.75 C 49.64 O 51.41 CB 41.32 CG 40.05 CD1 41.3 CD2 40.4
A PHE - 4 -128.2 152.9 N 51.35 CA 50.42 C 54.69 O 50.99 CB 47.16 CG 42.09 CD1 41.84 CD2 40.65 CE1 40.72 CE2 41.37 CZ 42.29
A PRO S 50 -82.8 -42.5 N 60.19 CA 65.7 C 69.41 O 70.41 CB 64.7 CG 63.1 CD 59.13
A ASN S 76 -116.4 -143.2 N 70.81 CA 72.98 C 74.18 O 73.17 CB 76.89 CG 78.38 OD1 80.67 ND2 78.61
A ALA - 23 -141.5 32.3 N 76.55 CA 78.34 C 78.25 O 76.58 CB 75.57
A ASN - 148 -74.6 360.0 N 81.75 CA 85.95 C 85.55 O 84.21 CB 92.58 CG 98.96 OD1 0.37 ND2 97.34
B ALA - 12 360.0 -46.3 N 81.44 CA 78.19 C 71.13 O 69.63 CB 81.5
B GLN E 14 -150.9 148.5 N 59.66 CA 42.08 C 38.17 O 39.43 CB 32.17 CG 23.26 CD 30.65 OE1 34.08 NE2 36.12
B SER E 34 -148.4 137.3 N 36.21 CA 30.27 C 25.97 O 26.99 CB 31.46 OG 34.22
B LEU E 4 -137.9 131.6 N 22.8 CA 19.06 C 21.92 O 28.88 CB 16.52 CG 16.92 CD1 19.57 CD2 16.95
B SER E 31 -145.4 130.0 N 20.82 CA 23.55 C 22.89 O 28.63 CB 27.67 OG 44.21
B PHE E 2 -141.1 148.9 N 19.01 CA 15.07 C 9.66 O 15.85 CB 15.77 CG 17.69 CD1 19.6 CD2 20.61 CE1 27.26 CE2 27.61 CZ 29.19
B SER E 29 -135.7 139.2 N 6.12 CA 8.89 C 14.98 O 19.39 CB 7.3 OG 21.35
B PHE E 1 -124.4 136.8 N 16.49 CA 15.94 C 18.51 O 22.48 CB 14.37 CG 18.75 CD1 23.4 CD2 25.51 CE1 25.47 CE2 30.95 CZ 26.07
B THR S 78 -131.1 -6.0 N 18.12 CA 21.42 C 23.7 O 29.42 CB 19.87 OG1 26.94 CG2 19.73
B LYS S 20 -153.7 157.5 N 22.34 CA 26.33 C 30.41 O 37.29 CB 24.65
B PHE - 1 -121.7 106.1 N 31.51 CA 37.32 C 46.83 O 50.3 CB 34.07 CG 31.84 CD1 33.68 CD2 31.56 CE1 31.28 CE2 32.53 CZ 31.7
B ASP - 4 -65.8 149.5 N 57.94 CA 67.24 C 66.78 O 64.8 CB 78.6 CG 87.4 OD1 93.47 OD2 83.81
B PRO S 103 -57.9 -43.0 N 68.25 CA 69.87 C 72.27 O 69.95 CB 72.06 CG 74.97 CD 71.04
B ASN S 97 -105.5 83.0 N 78.25 CA 81.49 C 75.91 O 75.77 CB 91.67 CG 0.6 OD1 0.73 ND2 0.96
B GLN - 8 -90.7 75.1 N 66.51 CA 57.6 C 53.79 O 54.08 CB 55.88 CG 56.06 CD 57.46 OE1 50.91 NE2 63.01
B GLU T 88 -49.5 -21.9 N 49.16 CA 44.62 C 37.61 O 31.56 CB 53.7 CG 62.9 CD 71.96 OE1 74.25 OE2 78.7
B ASP T 1 -101.2 28.2 N 32.39 CA 31.7 C 33.09 O 36.51 CB 29.62 CG 29.85 OD1 13.94 OD2 30.89
B LEU E 12 -139.5 154.9 N 33.77 CA 29.62 C 33.23 O 39.15 CB 22.21 CG 25.56 CD1 20.25 CD2 25.52
B ILE E 57 -113.3 139.8 N 36.3 CA 41.16 C 46.46 O 48.44 CB 37.56 CG1 39.07 CG2 37.93 CD1 41.87
B PHE E 75 -116.0 133.5 N 49.15 CA 53.19 C 55.5 O 57.15 CB 52.37 CG 51.09 CD1 52.97 CD2 51.83 CE1 53.09 CE2 48.28 CZ 48.14
B GLN E 26 -136.3 133.3 N 54.95 CA 54.54 C 55.96 O 57.04 CB 51.09 CG 49.44 CD 50.46 OE1 52.24 NE2 51.87
B GLY E 50 80.6 -152.4 N 54.82 CA 54.84 C 54.16 O 53.33
B HIS T 95 -82.4 8.0 N 56.23 CA 59.56 C 58.6 O 57.24 CB 66.38 CG 69.56 ND1 70.27 CD2 70.09 CE1 72.59 NE2 73.84
B ALA - 4 -64.5 137.4 N 56.32 CA 52.32 C 50.6 O 48.13 CB 53.33
B THR E 66 -156.1 -167.4 N 51.45 CA 56.57 C 58.58 O 57.94 CB 58.5 OG1 59.13 CG2 60.7
B SER E 12 -154.0 135.2 N 60.9 CA 63.64 C 64.24 O 66.95 CB 63.43 OG 68.83
B THR E 70 -156.5 157.6 N 64.0 CA 66.77 C 65.81 O 66.03 CB 69.46 OG1 71.94 CG2 70.17
B ASN T 143 51.4 30.7 N 66.39 CA 66.03 C 60.27 O 56.49 CB 76.97 CG 88.0 OD1 95.74 ND2 92.24
B ASN T 99 71.1 12.7 N 57.28 CA 55.06 C 48.16 O 47.2 CB 63.66 CG 69.07 OD1 72.15 ND2 71.73
B VAL E 28 -122.6 166.7 N 42.0 CA 37.27 C 36.28 O 34.12 CB 33.14 CG1 33.28 CG2 37.99
B LEU E 0 -98.6 116.7 N 37.13 CA 38.95 C 42.48 O 47.17 CB 36.23 CG 34.03 CD1 37.31 CD2 32.81
B GLN E 22 -104.1 85.3 N 42.34 CA 43.76 C 45.99 O 46.42 CB 44.05 CG 42.7 CD 40.39 OE1 38.96 NE2 39.49
B VAL - 0 -67.5 -8.9 N 44.05 CA 43.64 C 47.45 O 46.63 CB 42.01 CG1 36.61 CG2 43.23
B THR S 1 -126.6 136.4 N 53.79 CA 56.19 C 61.31 O 66.6 CB 51.36 OG1 46.64 CG2 51.53
B LYS - 21 -46.3 157.1 N 61.77 CA 61.66 C 62.08 O 58.15 CB 56.92
B LEU B 62 -139.0 144.6 N 67.07 CA 73.33 C 78.52 O 78.97 CB 73.45 CG 73.44 CD1 73.99 CD2 75.77
B ASP - 62 -66.5 135.3 N 82.66 CA 84.04 C 83.07 O 80.66 CB 90.51 CG 96.98 OD1 0.01 OD2 0.62
B SER T 134 -53.6 0.6 N 83.59 CA 83.57 C 80.09 O 77.3 CB 85.61 OG 89.19
B ALA T 76 -110.1 -8.5 N 77.91 CA 78.87 C 79.64 O 79.77 CB 82.14
B GLY S 27 98.3 26.6 N 78.92 CA 79.4 C 77.85 O 77.65
B ASN - 41 -112.7 144.9 N 75.31 CA 72.77 C 67.62 O 68.68 CB 77.7 CG 81.27 OD1 79.58 ND2 82.71
B PRO B 4 -63.8 145.2 N 62.51 CA 60.85 C 60.38 O 61.51 CB 61.06 CG 62.94 CD 61.16
B VAL - 60 -109.9 173.1 N 62.63 CA 65.38 C 68.62 O 70.64 CB 64.82 CG1 67.74 CG2 65.65
B SER S 61 -100.7 156.0 N 71.64 CA 71.34 C 68.66 O 65.92 CB 76.21 OG 82.96
B SER S 66 58.2 46.9 N 69.52 CA 74.5 C 76.05 O 75.86 CB 76.79 OG 81.11
B SER - 1 -114.9 144.7 N 76.63 CA 74.88 C 73.03 O 71.58 CB 75.07 OG 71.26
B ALA E 9 -138.6 126.7 N 68.68 CA 62.99 C 60.42 O 60.27 CB 63.07
B GLY E 0 -138.4 138.5 N 57.92 CA 52.7 C 49.8 O 49.89
B ARG E 4 -139.0 148.4 N 48.02 CA 45.96 C 46.84 O 46.62 CB 44.63 CG 42.45 CD 42.29 NE 38.73 CZ 37.87 NH1 38.3 NH2 36.26
B VAL E 0 -132.5 136.6 N 44.25 CA 39.41 C 37.93 O 37.67 CB 37.19 CG1 40.69 CG2 40.82
B LEU E 3 -130.1 137.3 N 34.62 CA 31.75 C 35.92 O 39.45 CB 26.27 CG 25.23 CD1 25.33 CD2 27.75
B TYR E 3 -69.6 129.2 N 37.28 CA 36.12 C 33.37 O 34.26 CB 35.11 CG 33.1 CD1 32.58 CD2 30.62 CE1 35.82 CE2 30.83 CZ 37.48 OH 41.32
B SER S 19 -38.4 -60.6 N 29.99 CA 30.96 C 27.62 O 27.38 CB 34.76 OG 49.71
B ALA S 2 -69.4 142.9 N 23.12 CA 20.78 C 21.48 O 24.8 CB 26.5
B PRO - 5 -74.2 164.8 N 20.53 CA 20.39 C 23.54 O 29.6 CB 14.86 CG 22.24 CD 21.15
B LEU E 10 -135.9 131.0 N 24.65 CA 23.52 C 24.89 O 26.96 CB 20.54 CG 22.78 CD1 36.33 CD2 24.73
B ARG E 16 -80.0 123.1 N 27.82 CA 34.38 C 38.01 O 40.61 CB 38.09 CG 47.05 CD 53.14 NE 57.02 CZ 57.74 NH1 59.79 NH2 61.67
B LEU - 2 -101.3 -30.3 N 36.52 CA 35.6 C 36.85 O 33.97 CB 40.09 CG 38.89 CD1 44.27 CD2 38.78
B TRP - 48 -157.7 165.1 N 40.91 CA 44.37 C 44.37 O 40.29 CB 50.74 CG 57.09 CD1 59.72 CD2 59.94 NE1 63.68 CE2 61.98 CE3 62.38 CZ2 63.98 CZ3 63.72 CH2 63.07
B GLU - 30 -160.7 141.7 N 50.26 CA 57.05 C 60.2 O 58.19 CB 60.01 CG 65.51 CD 67.24 OE1 65.12 OE2 71.12
B ASP T 140 -34.5 -70.5 N 65.21 CA 70.44 C 69.39 O 71.37 CB 78.4 CG 88.08 OD1 92.46 OD2 92.86
B SER T 64 -90.9 64.8 N 68.35 CA 71.45 C 66.69 O 71.81 CB 78.94 OG 87.12
B ALA E 1 -139.3 135.4 N 58.18 CA 50.74 C 43.77 O 39.81 CB 54.64
B VAL E 36 -139.7 70.1 N 39.32 CA 39.87 C 36.66 O 40.88 CB 48.12 CG1 59.83 CG2 34.97
B LEU E 5 162.6 129.6 N 25.2 CA 23.14 C 23.94 O 23.12 CB 23.4 CG 23.4 CD1 25.55 CD2 24.33
B THR E 0 -145.2 135.8 N 21.54 CA 21.02 C 21.11 O 23.54 CB 19.48 OG1 28.79 CG2 27.13
B SER E 13 -148.7 145.2 N 20.42 CA 23.55 C 25.72 O 30.57 CB 23.19 OG 24.06
B PHE E 6 -143.4 144.3 N 24.7 CA 23.94 C 23.09 O 25.06 CB 21.85 CG 20.91 CD1 21.4 CD2 23.24 CE1 23.43 CE2 21.63 CZ 28.05
B ASP E 60 -135.6 134.7 N 24.23 CA 25.48 C 24.4 O 30.09 CB 30.74 CG 46.63 OD1 50.77 OD2 54.75
B THR E 2 -143.7 142.4 N 20.7 CA 15.51 C 16.24 O 19.17 CB 13.76 OG1 18.13 CG2 19.81
B ILE E 37 -122.7 141.8 N 16.59 CA 19.94 C 20.78 O 17.16 CB 19.64 CG1 33.71 CG2 15.18 CD1 46.13
B ILE E 5 -133.7 140.8 N 21.53 CA 19.6 C 22.18 O 25.8 CB 14.3 CG1 14.84 CG2 12.09 CD1 18.87
B ASN E 28 -123.2 121.2 N 24.04 CA 28.92 C 36.26 O 41.12 CB 25.56 CG 28.18 OD1 33.13 ND2 32.1
B PHE E 1 -140.6 160.8 N 38.87 CA 37.23 C 35.69 O 31.16 CB 38.32 CG 42.19 CD1 44.67 CD2 45.16 CE1 45.51 CE2 48.78 CZ 45.68
B GLU E 44 -134.6 123.5 N 37.19 CA 42.66 C 44.3 O 44.65 CB 44.76 CG 50.77 CD 55.25 OE1 58.72 OE2 58.08
B ILE E 0 -112.5 116.5 N 45.31 CA 44.2 C 46.93 O 43.12 CB 40.24 CG1 41.09 CG2 31.56 CD1 49.74
B SER E 4 -139.7 161.8 N 50.7 CA 55.94 C 58.99 O 57.25 CB 57.15 OG 60.81
B THR - 13 -152.5 132.7 N 61.31 CA 59.55 C 62.65 O 57.2 CB 57.1 OG1 55.35 CG2 57.52
B PRO S 60 -79.5 -32.5 N 70.58 CA 77.78 C 82.69 O 84.86 CB 77.41 CG 74.1 CD 71.02
B TYR S 108 -65.7 -179.7 N 84.19 CA 85.77 C 88.92 O 87.69 CB 84.21 CG 84.56 CD1 85.16 CD2 86.17 CE1 86.08 CE2 86.71 CZ 86.7 OH 82.44
B THR S 149 -117.7 -0.3 N 92.92 CA 92.29 C 88.0 O 85.45 CB 95.19 OG1 95.24 CG2 94.18
B SER S 62 -75.3 -177.2 N 83.34 CA 80.0 C 78.67 O 80.53 CB 77.95 OG 73.84
B ARG - 51 -73.2 150.9 N 75.09 CA 72.17 C 72.01 O 71.1 CB 68.52
B ILE - 22 -100.7 140.8 N 70.38 CA 64.83 C 63.49 O 60.4 CB 64.34 CG1 59.79 CG2 61.91 CD1 63.02
B ALA - 0 -145.7 155.3 N 64.1 CA 65.92 C 66.19 O 69.48 CB 66.66
B ASP - 5 -119.4 -61.9 N 62.4 CA 61.42 C 62.27 O 60.02 CB 62.16 CG 63.93 OD1 63.86 OD2 59.35
B GLY E 0 -155.2 162.1 N 64.01 CA 61.73 C 56.73 O 54.16
B LEU E 4 -128.1 135.4 N 53.42 CA 47.08 C 42.82 O 40.57 CB 47.3 CG 39.56 CD1 40.2 CD2 38.62
B ALA E 1 -140.4 151.5 N 39.72 CA 41.45 C 41.85 O 45.27 CB 40.22
B PHE E 4 -116.3 127.8 N 38.2 CA 32.51 C 30.47 O 29.14 CB 26.63 CG 29.36 CD1 30.31 CD2 31.27 CE1 29.27 CE2 27.44 CZ 24.85
B PHE E 0 -138.6 155.2 N 28.01 CA 29.41 C 32.62 O 37.97 CB 27.66 CG 23.57 CD1 23.76 CD2 19.19 CE1 23.32 CE2 18.64 CZ 17.18
B ILE E 5 -129.1 123.8 N 32.35 CA 31.43 C 30.55 O 32.57 CB 30.18 CG1 32.34 CG2 25.88 CD1 46.73
B ALA E 2 -144.6 157.2 N 32.56 CA 34.15 C 36.84 O 41.68 CB 30.37
B PRO - 29 -49.0 140.4 N 39.12 CA 41.77 C 43.77 O 44.56 CB 42.28 CG 45.62 CD 42.17
B PRO T 21 -38.7 -40.3 N 44.1 CA 46.31 C 49.83 O 48.84 CB 46.01 CG 45.25 CD 42.54
B ASP T 131 -86.8 8.3 N 55.0 CA 59.61 C 55.86 O 53.7 CB 69.01 CG 78.44 OD1 81.67 OD2 84.67
B SER - 25 -52.6 140.0 N 54.92 CA 54.53 C 53.26 O 50.3 CB 54.97 OG 56.02
B VAL - 108 -124.8 150.7 N 56.42 CA 60.7 C 62.95 O 65.54 CB 59.82 CG1 61.24 CG2 64.31
B ILE - 54 -53.3 141.9 N 62.45 CA 61.78 C 63.81 O 64.8 CB 61.24 CG1 60.31 CG2 63.88 CD1 60.77
B SER - 31 -112.5 -164.2 N 65.42 CA 67.21 C 69.66 O 70.51 CB 64.87 OG 68.61
B TYR - 148 -59.6 152.9 N 72.03 CA 73.78 C 66.31 O 64.77 CB 84.1 CG 97.32 CD1 0.77 CD2 0.88 CE1 0.42 CE2 0.93 CZ 0.12 OH 0.93
B HIS - 71 -87.3 -147.1 N 62.03 CA 60.03 C 54.94 O 51.92 CB 69.0 CG 79.51 ND1 83.94 CD2 83.65 CE1 87.27 NE2 90.15
B GLY G 14 67.1 -145.1 N 51.43 CA 49.81 C 47.97 O 51.14
B GLY G 4 -74.0 14.5 N 46.74 CA 43.77 C 42.49 O 38.79
B PHE G 18 -93.9 -19.9 N 42.95 CA 50.89 C 50.24 O 50.53 CB 58.85 CG 66.18 CD1 67.27 CD2 70.28 CE1 69.95 CE2 70.56 CZ 70.89
B LEU T 0 59.3 36.1 N 46.16 CA 41.65 C 44.68 O 47.6 CB 34.94 CG 27.62 CD1 25.29 CD2 26.36
B GLY T 0 47.6 24.8 N 47.41 CA 45.49 C 43.59 O 43.34
B LEU T 3 -107.2 -40.1 N 43.96 CA 45.75 C 49.64 O 51.41 CB 41.32 CG 40.05 CD1 41.3 CD2 40.4
B PHE - 5 -128.3 152.9 N 51.35 CA 50.42 C 54.69 O 50.99 CB 47.16 CG 42.09 CD1 41.84 CD2 40.65 CE1 40.72 CE2 41.37 CZ 42.29
B PRO S 50 -82.8 -42.5 N 60.19 CA 65.7 C 69.41 O 70.41 CB 64.7 CG 63.1 CD 59.13
B ASN S 77 -116.5 -143.2 N 70.81 CA 72.98 C 74.18 O 73.17 CB 76.89 CG 78.38 OD1 80.67 ND2 78.61
B ALA - 22 -141.5 32.3 N 76.55 CA 78.34 C 78.25 O 76.58 CB 75.57
B ASN - 149 -74.6 360.0 N 81.75 CA 85.95 C 85.55 O 84.21 CB 92.58 CG 98.96 OD1 0.37 ND2 97.34
C ALA - 13 360.0 -46.3 N 81.44 CA 78.19 C 71.13 O 69.63 CB 81.5
C GLN E 15 -150.9 148.5 N 59.66 CA 42.08 C 38.17 O 39.43 CB 32.17 CG 23.26 CD 30.65 OE1 34.08 NE2 36.12
C SER E 34 -148.5 137.3 N 36.21 CA 30.27 C 25.97 O 26.99 CB 31.46 OG 34.22
C LEU E 4 -137.9 131.6 N 22.8 CA 19.06 C 21.92 O 28.88 CB 16.52 CG 16.92 CD1 19.57 CD2 16.95
C SER E 31 -145.4 129.9 N 20.82 CA 23.55 C 22.89 O 28.63 CB 27.67 OG 44.21
C PHE E 3 -141.1 148.9 N 19.01 CA 15.07 C 9.66 O 15.85 CB 15.77 CG 17.69 CD1 19.6 CD2 20.61 CE1 27.26 CE2 27.61 CZ 29.19
C SER E 30 -135.7 139.2 N 6.12 CA 8.89 C 14.98 O 19.39 CB 7.3 OG 21.35
C PHE E 1 -124.4 136.8 N 16.49 CA 15.94 C 18.51 O 22.48 CB 14.37 CG 18.75 CD1 23.4 CD2 25.51 CE1 25.47 CE2 30.95 CZ 26.07
C THR S 78 -131.0 -6.1 N 18.12 CA 21.42 C 23.7 O 29.42 CB 19.87 OG1 26.94 CG2 19.73
C LYS S 19 -153.7 157.4 N 22.34 CA 26.33 C 30.41 O 37.29 CB 24.65
C PHE - 1 -121.7 106.2 N 31.51 CA 37.32 C 46.83 O 50.3 CB 34.07 CG 31.84 CD1 33.68 CD2 31.56 CE1 31.28 CE2 32.53 CZ 31.7
C ASP - 4 -65.8 149.6 N 57.94 CA 67.24 C 66.78 O 64.8 CB 78.6 CG 87.4 OD1 93.47 OD2 83.81
C PRO S 104 -58.0 -43.0 N 68.25 CA 69.87 C 72.27 O 69.95 CB 72.06 CG 74.97 CD 71.04
C ASN S 96 -105.5 83.0 N 78.25 CA 81.49 C 75.91 O 75.77 CB 91.67 CG 0.6 OD1 0.73 ND2 0.96
C GLN - 8 -90.7 75.1 N 66.51 CA 57.6 C 53.79 O 54.08 CB 55.88 CG 56.06 CD 57.46 OE1 50.91 NE2 63.01
C GLU T 86 -49.6 -21.9 N 49.16 CA 44.62 C 37.61 O 31.56 CB 53.7 CG 62.9 CD 71.96 OE1 74.25 OE2 78.7
C ASP T 1 -101.2 28.3 N 32.39 CA 31.7 C 33.09 O 36.51 CB 29.62 CG 29.85 OD1 13.94 OD2 30.89
C LEU E 12 -139.5 154.9 N 33.77 CA 29.62 C 33.23 O 39.15 CB 22.21 CG 25.56 CD1 20.25 CD2 25.52
C ILE E 56 -113.3 139.8 N 36.3 CA 41.16 C 46.46 O 48.44 CB 37.56 CG1 39.07 CG2 37.93 CD1 41.87
C PHE E 76 -116.0 133.5 N 49.15 CA 53.19 C 55.5 O 57.15 CB 52.37 CG 51.09 CD1 52.97 CD2 51.83 CE1 53.09 CE2 48.28 CZ 48.14
C GLN E 27 -136.3 133.3 N 54.95 CA 54.54 C 55.96 O 57.04 CB 51.09 CG 49.44 CD 50.46 OE1 52.24 NE2 51.87
C GLY E 50 80.6 -152.3 N 54.82 CA 54.84 C 54.16 O 53.33
C HIS T 94 -82.5 8.0 N 56.23 CA 59.56 C 58.6 O 57.24 CB 66.38 CG 69.56 ND1 70.27 CD2 70.09 CE1 72.59 NE2 73.84
C ALA - 3 -64.5 137.4 N 56.32 CA 52.32 C 50.6 O 48.13 CB 53.33
C THR E 67 -156.0 -167.3 N 51.45 CA 56.57 C 58.58 O 57.94 CB 58.5 OG1 59.13 CG2 60.7
C SER E 11 -154.1 135.2 N 60.9 CA 63.64 C 64.24 O 66.95 CB 63.43 OG 68.83
C THR E 71 -156.4 157.6 N 64.0 CA 66.77 C 65.81 O 66.03 CB 69.46 OG1 71.94 CG2 70.17
C ASN T 144 51.5 30.6 N 66.39 CA 66.03 C 60.27 O 56.49 CB 76.97 CG 88.0 OD1 95.74 ND2 92.24
C ASN T 99 71.1 12.8 N 57.28 CA 55.06 C 48.16 O 47.2 CB 63.66 CG 69.07 OD1 72.15 ND2 71.73
C VAL E 28 -122.8 166.7 N 42.0 CA 37.27 C 36.28 O 34.12 CB 33.14 CG1 33.28 CG2 37.99
C LEU E 0 -98.5 116.8 N 37.13 CA 38.95 C 42.48 O 47.17 CB 36.23 CG 34.03 CD1 37.31 CD2 32.81
C GLN E 21 -104.1 85.3 N 42.34 CA 43.76 C 45.99 O 46.42 CB 44.05 CG 42.7 CD 40.39 OE1 38.96 NE2 39.49
C VAL - 0 -67.5 -8.9 N 44.05 CA 43.64 C 47.45 O 46.63 CB 42.01 CG1 36.61 CG2 43.23
C THR S 1 -126.6 136.4 N 53.79 CA 56.19 C 61.31 O 66.6 CB 51.36 OG1 46.64 CG2 51.53
C LYS - 21 -46.3 157.2 N 61.77 CA 61.66 C 62.08 O 58.15 CB 56.92
C LEU B 61 -139.0 144.7 N 67.07 CA 73.33 C 78.52 O 78.97 CB 73.45 CG 73.44 CD1 73.99 CD2 75.77
C ASP - 64 -66.5 135.4 N 82.66 CA 84.04 C 83.07 O 80.66 CB 90.51 CG 96.98 OD1 0.01 OD2 0.62
C SER T 135 -53.7 0.6 N 83.59 CA 83.57 C 80.09 O 77.3 CB 85.61 OG 89.19
C ALA T 75 -110.0 -8.5 N 77.91 CA 78.87 C 79.64 O 79.77 CB 82.14
C GLY S 28 98.3 26.7 N 78.92 CA 79.4 C 77.85 O 77.65
C ASN - 40 -112.7 144.9 N 75.31 CA 72.77 C 67.62 O 68.68 CB 77.7 CG 81.27 OD1 79.58 ND2 82.71
C PRO B 5 -63.8 145.2 N 62.51 CA 60.85 C 60.38 O 61.51 CB 61.06 CG 62.94 CD 61.16
C VAL - 57 -110.0 173.1 N 62.63 CA 65.38 C 68.62 O 70.64 CB 64.82 CG1 67.74 CG2 65.65
C SER S 59 -100.7 156.0 N 71.64 CA 71.34 C 68.66 O 65.92 CB 76.21 OG 82.96
C SER S 64 58.2 46.8 N 69.52 CA 74.5 C 76.05 O 75.86 CB 76.79 OG 81.11
C SER - 2 -115.0 144.7 N 76.63 CA 74.88 C 73.03 O 71.58 CB 75.07 OG 71.26
C ALA E 7 -138.6 126.7 N 68.68 CA 62.99 C 60.42 O 60.27 CB 63.07
C GLY E 0 -138.4 138.4 N 57.92 CA 52.7 C 49.8 O 49.89
C ARG E 4 -139.0 148.4 N 48.02 CA 45.96 C 46.84 O 46.62 CB 44.63 CG 42.45 CD 42.29 NE 38.73 CZ 37.87 NH1 38.3 NH2 36.26
C VAL E 0 -132.5 136.6 N 44.25 CA 39.41 C 37.93 O 37.67 CB 37.19 CG1 40.69 CG2 40.82
C LEU E 3 -130.1 137.3 N 34.62 CA 31.75 C 35.92 O 39.45 CB 26.27 CG 25.23 CD1 25.33 CD2 27.75
C TYR E 2 -69.6 129.3 N 37.28 CA 36.12 C 33.37 O 34.26 CB 35.11 CG 33.1 CD1 32.58 CD2 30.62 CE1 35.82 CE2 30.83 CZ 37.48 OH 41.32
C SER S 20 -38.3 -60.6 N 29.99 CA 30.96 C 27.62 O 27.38 CB 34.76 OG 49.71
C ALA S 2 -69.4 143.0 N 23.12 CA 20.78 C 21.48 O 24.8 CB 26.5
C PRO - 4 -74.2 164.8 N 20.53 CA 20.39 C 23.54 O 29.6 CB 14.86 CG 22.24 CD 21.15
C LEU E 10 -136.0 131.0 N 24.65 CA 23.52 C 24.89 O 26.96 CB 20.54 CG 22.78 CD1 36.33 CD2 24.73
C ARG E 15 -80.0 123.1 N 27.82 CA 34.38 C 38.01 O 40.61 CB 38.09 CG 47.05 CD 53.14 NE 57.02 CZ 57.74 NH1 59.79 NH2 61.67
C LEU - 1 -101.4 -30.3 N 36.52 CA 35.6 C 36.85 O 33.97 CB 40.09 CG 38.89 CD1 44.27 CD2 38.78
C TRP - 47 -157.7 165.1 N 40.91 CA 44.37 C 44.37 O 40.29 CB 50.74 CG 57.09 CD1 59.72 CD2 59.94 NE1 63.68 CE2 61.98 CE3 62.38 CZ2 63.98 CZ3 63.72 CH2 63.07
C GLU - 29 -160.7 141.7 N 50.26 CA 57.05 C 60.2 O 58.19 CB 60.01 CG 65.51 CD 67.24 OE1 65.12 OE2 71.12
C ASP T 138 -34.5 -70.5 N 65.21 CA 70.44 C 69.39 O 71.37 CB 78.4 CG 88.08 OD1 92.46 OD2 92.86
C SER T 64 -90.9 64.7 N 68.35 CA 71.45 C 66.69 O 71.81 CB 78.94 OG 87.12
C ALA E 1 -139.3 135.5 N 58.18 CA 50.74 C 43.77 O 39.81 CB 54.64
C VAL E 34 -139.7 70.2 N 39.32 CA 39.87 C 36.66 O 40.88 CB 48.12 CG1 59.83 CG2 34.97
C LEU E 4 162.6 129.6 N 25.2 CA 23.14 C 23.94 O 23.12 CB 23.4 CG 23.4 CD1 25.55 CD2 24.33
C THR E 0 -145.2 135.9 N 21.54 CA 21.02 C 21.11 O 23.54 CB 19.48 OG1 28.79 CG2 27.13
C SER E 12 -148.8 145.2 N 20.42 CA 23.55 C 25.72 O 30.57 CB 23.19 OG 24.06
C PHE E 7 -143.4 144.2 N 24.7 CA 23.94 C 23.09 O 25.06 CB 21.85 CG 20.91 CD1 21.4 CD2 23.24 CE1 23.43 CE2 21.63 CZ 28.05
C ASP E 57 -135.6 134.7 N 24.23 CA 25.48 C 24.4 O 30.09 CB 30.74 CG 46.63 OD1 50.77 OD2 54.75
C THR E 2 -143.7 142.4 N 20.7 CA 15.51 C 16.24 O 19.17 CB 13.76 OG1 18.13 CG2 19.81
C ILE E 36 -122.7 141.9 N 16.59 CA 19.94 C 20.78 O 17.16 CB 19.64 CG1 33.71 CG2 15.18 CD1 46.13
C ILE E 5 -133.8 140.9 N 21.53 CA 19.6 C 22.18 O 25.8 CB 14.3 CG1 14.84 CG2 12.09 CD1 18.87
C ASN E 29 -123.2 121.2 N 24.04 CA 28.92 C 36.26 O 41.12 CB 25.56 CG 28.18 OD1 33.13 ND2 32.1
C PHE E 1 -140.7 160.8 N 38.87 CA 37.23 C 35.69 O 31.16 CB 38.32 CG 42.19 CD1 44.67 CD2 45.16 CE1 45.51 CE2 48.78 CZ 45.68
C GLU E 42 -134.6 123.5 N 37.19 CA 42.66 C 44.3 O 44.65 CB 44.76 CG 50.77 CD 55.25 OE1 58.72 OE2 58.08
C ILE E 0 -112.5 116.4 N 45.31 CA 44.2 C 46.93 O 43.12 CB 40.24 CG1 41.09 CG2 31.56 CD1 49.74
C SER E 5 -139.7 161.8 N 50.7 CA 55.94 C 58.99 O 57.25 CB 57.15 OG 60.81
C THR - 12 -152.4 132.8 N 61.31 CA 59.55 C 62.65 O 57.2 CB 57.1 OG1 55.35 CG2 57.52
C PRO S 60 -79.4 -32.5 N 70.58 CA 77.78 C 82.69 O 84.86 CB 77.41 CG 74.1 CD 71.02
C TYR S 110 -65.6 -179.8 N 84.19 CA 85.77 C 88.92 O 87.69 CB 84.21 CG 84.56 CD1 85.16 CD2 86.17 CE1 86.08 CE2 86.71 CZ 86.7 OH 82.44
C THR S 152 -117.7 -0.3 N 92.92 CA 92.29 C 88.0 O 85.45 CB 95.19 OG1 95.24 CG2 94.18
C SER S 60 -75.3 -177.2 N 83.34 CA 80.0 C 78.67 O 80.53 CB 77.95 OG 73.84
C ARG - 52 -73.2 150.9 N 75.09 CA 72.17 C 72.01 O 71.1 CB 68.52
C ILE - 22 -100.7 140.8 N 70.38 CA 64.83 C 63.49 O 60.4 CB 64.34 CG1 59.79 CG2 61.91 CD1 63.02
C ALA - 0 -145.7 155.3 N 64.1 CA 65.92 C 66.19 O 69.48 CB 66.66
C ASP - 6 -119.5 -61.7 N 62.4 CA 61.42 C 62.27 O 60.02 CB 62.16 CG 63.93 OD1 63.86 OD2 59.35
C GLY E 0 -155.3 162.0 N 64.01 CA 61.73 C 56.73 O 54.16
C LEU E 5 -128.1 135.4 N 53.42 CA 47.08 C 42.82 O 40.57 CB 47.3 CG 39.56 CD1 40.2 CD2 38.62
C ALA E 2 -140.5 151.4 N 39.72 CA 41.45 C 41.85 O 45.27 CB 40.22
C PHE E 4 -116.2 127.9 N 38.2 CA 32.51 C 30.47 O 29.14 CB 26.63 CG 29.36 CD1 30.31 CD2 31.27 CE1 29.27 CE2 27.44 CZ 24.85
C PHE E 0 -138.6 155.1 N 28.01 CA 29.41 C 32.62 O 37.97 CB 27.66 CG 23.57 CD1 23.76 CD2 19.19 CE1 23.32 CE2 18.64 CZ 17.18
C ILE E 6 -129.0 123.9 N 32.35 CA 31.43 C 30.55 O 32.57 CB 30.18 CG1 32.34 CG2 25.88 CD1 46.73
C ALA E 1 -144.6 157.2 N 32.56 CA 34.15 C 36.84 O 41.68 CB 30.37
C PRO - 26 -49.1 140.5 N 39.12 CA 41.77 C 43.77 O 44.56 CB 42.28 CG 45.62 CD 42.17
C PRO T 22 -38.7 -40.3 N 44.1 CA 46.31 C 49.83 O 48.84 CB 46.01 CG 45.25 CD 42.54
C ASP T 129 -86.8 8.3 N 55.0 CA 59.61 C 55.86 O 53.7 CB 69.01 CG 78.44 OD1 81.67 OD2 84.67
C SER - 25 -52.7 140.1 N 54.92 CA 54.53 C 53.26 O 50.3 CB 54.97 OG 56.02
C VAL - 104 -124.8 150.8 N 56.42 CA 60.7 C 62.95 O 65.54 CB 59.82 CG1 61.24 CG2 64.31
C ILE - 55 -53.4 142.0 N 62.45 CA 61.78 C 63.81 O 64.8 CB 61.24 CG1 60.31 CG2 63.88 CD1 60.77
C SER - 26 -112.6 -164.3 N 65.42 CA 67.21 C 69.66 O 70.51 CB 64.87 OG 68.61
C TYR - 151 -59.6 152.8 N 72.03 CA 73.78 C 66.31 O 64.77 CB 84.1 CG 97.32 CD1 0.77 CD2 0.88 CE1 0.42 CE2 0.93 CZ 0.12 OH 0.93
C HIS - 73 -87.2 -147.1 N 62.03 CA 60.03 C 54.94 O 51.92 CB 69.0 CG 79.51 ND1 83.94 CD2 83.65 CE1 87.27 NE2 90.15
C GLY G 14 67.0 -145.0 N 51.43 CA 49.81 C 47.97 O 51.14
C GLY G 3 -74.0 14.5 N 46.74 CA 43.77 C 42.49 O 38.79
C PHE G 18 -93.9 -19.9 N 42.95 CA 50.89 C 50.24 O 50.53 CB 58.85 CG 66.18 CD1 67.27 CD2 70.28 CE1 69.95 CE2 70.56 CZ 70.89
C LEU T 0 59.2 36.2 N 46.16 CA 41.65 C 44.68 O 47.6 CB 34.94 CG 27.62 CD1 25.29 CD2 26.36
C GLY T 0 47.6 24.8 N 47.41 CA 45.49 C 43.59 O 43.34
C LEU T 4 -107.2 -40.1 N 43.96 CA 45.75 C 49.64 O 51.41 CB 41.32 CG 40.05 CD1 41.3 CD2 40.4
C PHE - 4 -128.3 152.9 N 51.35 CA 50.42 C 54.69 O 50.99 CB 47.16 CG 42.09 CD1 41.84 CD2 40.65 CE1 40.72 CE2 41.37 CZ 42.29
C PRO S 50 -82.8 -42.5 N 60.19 CA 65.7 C 69.41 O 70.41 CB 64.7 CG 63.1 CD 59.13
C ASN S 76 -116.4 -143.2 N 70.81 CA 72.98 C 74.18 O 73.17 CB 76.89 CG 78.38 OD1 80.67 ND2 78.61
C ALA - 23 -141.4 32.3 N 76.55 CA 78.34 C 78.25 O 76.58 CB 75.57
C ASN - 148 -74.6 360.0 N 81.75 CA 85.95 C 85.55 O 84.21 CB 92.58 CG 98.96 OD1 0.37 ND2 97.34
D ALA - 12 360.0 -46.3 N 81.44 CA 78.19 C 71.13 O 69.63 CB 81.5
D GLN E 14 -150.9 148.4 N 59.66 CA 42.08 C 38.17 O 39.43 CB 32.17 CG 23.26 CD 30.65 OE1 34.08 NE2 36.12
D SER E 34 -148.5 137.3 N 36.21 CA 30.27 C 25.97 O 26.99 CB 31.46 OG 34.22
D LEU E 4 -137.9 131.7 N 22.8 CA 19.06 C 21.92 O 28.88 CB 16.52 CG 16.92 CD1 19.57 CD2 16.95
D SER E 32 -145.5 129.9 N 20.82 CA 23.55 C 22.89 O 28.63 CB 27.67 OG 44.21
D PHE E 2 -141.2 148.9 N 19.01 CA 15.07 C 9.66 O 15.85 CB 15.77 CG 17.69 CD1 19.6 CD2 20.61 CE1 27.26 CE2 27.61 CZ 29.19
D SER E 29 -135.8 139.3 N 6.12 CA 8.89 C 14.98 O 19.39 CB 7.3 OG 21.35
D PHE E 1 -124.3 136.8 N 16.49 CA 15.94 C 18.51 O 22.48 CB 14.37 CG 18.75 CD1 23.4 CD2 25.51 CE1 25.47 CE2 30.95 CZ 26.07
D THR S 78 -131.1 -6.0 N 18.12 CA 21.42 C 23.7 O 29.42 CB 19.87 OG1 26.94 CG2 19.73
D LYS S 20 -153.7 157.4 N 22.34 CA 26.33 C 30.41 O 37.29 CB 24.65
D PHE - 1 -121.7 106.2 N 31.51 CA 37.32 C 46.83 O 50.3 CB 34.07 CG 31.84 CD1 33.68 CD2 31.56 CE1 31.28 CE2 32.53 CZ 31.7
D ASP - 4 -65.8 149.6 N 57.94 CA 67.24 C 66.78 O 64.8 CB 78.6 CG 87.4 OD1 93.47 OD2 83.81
D PRO S 103 -57.9 -43.0 N 68.25 CA 69.87 C 72.27 O 69.95 CB 72.06 CG 74.97 CD 71.04
D ASN S 96 -105.5 83.0 N 78.25 CA 81.49 C 75.91 O 75.77 CB 91.67 CG 0.6 OD1 0.73 ND2 0.96
D GLN - 8 -90.6 75.1 N 66.51 CA 57.6 C 53.79 O 54.08 CB 55.88 CG 56.06 CD 57.46 OE1 50.91 NE2 63.01
D GLU T 88 -49.4 -22.0 N 49.16 CA 44.62 C 37.61 O 31.56 CB 53.7 CG 62.9 CD 71.96 OE1 74.25 OE2 78.7
D ASP T 1 -101.2 28.3 N 32.39 CA 31.7 C 33.09 O 36.51 CB 29.62 CG 29.85 OD1 13.94 OD2 30.89
D LEU E 12 -139.5 154.8 N 33.77 CA 29.62 C 33.23 O 39.15 CB 22.21 CG 25.56 CD1 20.25 CD2 25.52
D ILE E 57 -113.2 139.7 N 36.3 CA 41.16 C 46.46 O 48.44 CB 37.56 CG1 39.07 CG2 37.93 CD1 41.87
D PHE E 74 -116.0 133.6 N 49.15 CA 53.19 C 55.5 O 57.15 CB 52.37 CG 51.09 CD1 52.97 CD2 51.83 CE1 53.09 CE2 48.28 CZ 48.14
D GLN E 26 -136.3 133.3 N 54.95 CA 54.54 C 55.96 O 57.04 CB 51.09 CG 49.44 CD 50.46 OE1 52.24 NE2 51.87
D GLY E 50 80.6 -152.3 N 54.82 CA 54.84 C 54.16 O 53.33
D HIS T 95 -82.5 8.0 N 56.23 CA 59.56 C 58.6 O 57.24 CB 66.38 CG 69.56 ND1 70.27 CD2 70.09 CE1 72.59 NE2 73.84
D ALA - 4 -64.5 137.3 N 56.32 CA 52.32 C 50.6 O 48.13 CB 53.33
D THR E 66 -156.0 -167.4 N 51.45 CA 56.57 C 58.58 O 57.94 CB 58.5 OG1 59.13 CG2 60.7
D SER E 12 -154.0 135.2 N 60.9 CA 63.64 C 64.24 O 66.95 CB 63.43 OG 68.83
D THR E 71 -156.5 157.5 N 64.0 CA 66.77 C 65.81 O 66.03 CB 69.46 OG1 71.94 CG2 70.17
D ASN T 144 51.5 30.6 N 66.39 CA 66.03 C 60.27 O 56.49 CB 76.97 CG 88.0 OD1 95.74 ND2 92.24
D ASN T 99 71.1 12.8 N 57.28 CA 55.06 C 48.16 O 47.2 CB 63.66 CG 69.07 OD1 72.15 ND2 71.73
D VAL E 28 -122.7 166.7 N 42.0 CA 37.27 C 36.28 O 34.12 CB 33.14 CG1 33.28 CG2 37.99
D LEU E 0 -98.5 116.8 N 37.13 CA 38.95 C 42.48 O 47.17 CB 36.23 CG 34.03 CD1 37.31 CD2 32.81
D GLN E 22 -104.1 85.3 N 42.34 CA 43.76 C 45.99 O 46.42 CB 44.05 CG 42.7 CD 40.39 OE1 38.96 NE2 39.49
D VAL - 0 -67.5 -8.9 N 44.05 CA 43.64 C 47.45 O 46.63 CB 42.01 CG1 36.61 CG2 43.23
D THR S 1 -126.5 136.4 N 53.79 CA 56.19 C 61.31 O 66.6 CB 51.36 OG1 46.64 CG2 51.53
D LYS - 22 -46.3 157.1 N 61.77 CA 61.66 C 62.08 O 58.15 CB 56.92
D LEU B 62 -138.9 144.7 N 67.07 CA 73.33 C 78.52 O 78.97 CB 73.45 CG 73.44 CD1 73.99 CD2 75.77
D ASP - 62 -66.5 135.4 N 82.66 CA 84.04 C 83.07 O 80.66 CB 90.51 CG 96.98 OD1 0.01 OD2 0.62
D SER T 133 -53.7 0.6 N 83.59 CA 83.57 C 80.09 O 77.3 CB 85.61 OG 89.19
D ALA T 76 -110.0 -8.5 N 77.91 CA 78.87 C 79.64 O 79.77 CB 82.14
D GLY S 27 98.3 26.7 N 78.92 CA 79.4 C 77.85 O 77.65
D ASN - 41 -112.8 144.9 N 75.31 CA 72.77 C 67.62 O 68.68 CB 77.7 CG 81.27 OD1 79.58 ND2 82.71
D PRO B 4 -63.8 145.2 N 62.51 CA 60.85 C 60.38 O 61.51 CB 61.06 CG 62.94 CD 61.16
D VAL - 60 -109.9 173.1 N 62.63 CA 65.38 C 68.62 O 70.64 CB 64.82 CG1 67.74 CG2 65.65
D SER S 61 -100.8 156.0 N 71.64 CA 71.34 C 68.66 O 65.92 CB 76.21 OG 82.96
D SER S 66 58.2 46.8 N 69.52 CA 74.5 C 76.05 O 75.86 CB 76.79 OG 81.11
D SER - 1 -114.9 144.7 N 76.63 CA 74.88 C 73.03 O 71.58 CB 75.07 OG 71.26
D ALA E 9 -138.6 126.8 N 68.68 CA 62.99 C 60.42 O 60.27 CB 63.07
D GLY E 0 -138.5 138.4 N 57.92 CA 52.7 C 49.8 O 49.89
D ARG E 4 -139.0 148.4 N 48.02 CA 45.96 C 46.84 O 46.62 CB 44.63 CG 42.45 CD 42.29 NE 38.73 CZ 37.87 NH1 38.3 NH2 36.26
D VAL E 0 -132.5 136.6 N 44.25 CA 39.41 C 37.93 O 37.67 CB 37.19 CG1 40.69 CG2 40.82
D LEU E 3 -130.2 137.3 N 34.62 CA 31.75 C 35.92 O 39.45 CB 26.27 CG 25.23 CD1 25.33 CD2 27.75
D TYR E 3 -69.6 129.2 N 37.28 CA 36.12 C 33.37 O 34.26 CB 35.11 CG 33.1 CD1 32.58 CD2 30.62 CE1 35.82 CE2 30.83 CZ 37.48 OH 41.32
D SER S 19 -38.4 -60.5 N 29.99 CA 30.96 C 27.62 O 27.38 CB 34.76 OG 49.71
D ALA S 2 -69.4 143.0 N 23.12 CA 20.78 C 21.48 O 24.8 CB 26.5
D PRO - 4 -74.3 164.8 N 20.53 CA 20.39 C 23.54 O 29.6 CB 14.86 CG 22.24 CD 21.15
D LEU E 10 -135.9 131.0 N 24.65 CA 23.52 C 24.89 O 26.96 CB 20.54 CG 22.78 CD1 36.33 CD2 24.73
D ARG E 16 -80.0 123.0 N 27.82 CA 34.38 C 38.01 O 40.61 CB 38.09 CG 47.05 CD 53.14 NE 57.02 CZ 57.74 NH1 59.79 NH2 61.67
D LEU - 1 -101.3 -30.3 N 36.52 CA 35.6 C 36.85 O 33.97 CB 40.09 CG 38.89 CD1 44.27 CD2 38.78
D TRP - 48 -157.7 165.1 N 40.91 CA 44.37 C 44.37 O 40.29 CB 50.74 CG 57.09 CD1 59.72 CD2 59.94 NE1 63.68 CE2 61.98 CE3 62.38 CZ2 63.98 CZ3 63.72 CH2 63.07
D GLU - 30 -160.7 141.7 N 50.26 CA 57.05 C 60.2 O 58.19 CB 60.01 CG 65.51 CD 67.24 OE1 65.12 OE2 71.12
D ASP T 140 -34.4 -70.6 N 65.21 CA 70.44 C 69.39 O 71.37 CB 78.4 CG 88.08 OD1 92.46 OD2 92.86
D SER T 64 -90.9 64.8 N 68.35 CA 71.45 C 66.69 O 71.81 CB 78.94 OG 87.12
D ALA E 1 -139.3 135.5 N 58.18 CA 50.74 C 43.77 O 39.81 CB 54.64
D VAL E 36 -139.7 70.2 N 39.32 CA 39.87 C 36.66 O 40.88 CB 48.12 CG1 59.83 CG2 34.97
D LEU E 5 162.6 129.6 N 25.2 CA 23.14 C 23.94 O 23.12 CB 23.4 CG 23.4 CD1 25.55 CD2 24.33
D THR E 0 -145.2 135.9 N 21.54 CA 21.02 C 21.11 O 23.54 CB 19.48 OG1 28.79 CG2 27.13
D SER E 13 -148.8 145.2 N 20.42 CA 23.55 C 25.72 O 30.57 CB 23.19 OG 24.06
D PHE E 6 -143.4 144.2 N 24.7 CA 23.94 C 23.09 O 25.06 CB 21.85 CG 20.91 CD1 21.4 CD2 23.24 CE1 23.43 CE2 21.63 CZ 28.05
D ASP E 60 -135.5 134.7 N 24.23 CA 25.48 C 24.4 O 30.09 CB 30.74 CG 46.63 OD1 50.77 OD2 54.75
D THR E 2 -143.7 142.4 N 20.7 CA 15.51 C 16.24 O 19.17 CB 13.76 OG1 18.13 CG2 19.81
D ILE E 37 -122.7 141.9 N 16.59 CA 19.94 C 20.78 O 17.16 CB 19.64 CG1 33.71 CG2 15.18 CD1 46.13
D ILE E 5 -133.8 140.9 N 21.53 CA 19.6 C 22.18 O 25.8 CB 14.3 CG1 14.84 CG2 12.09 CD1 18.87
D ASN E 28 -123.2 121.2 N 24.04 CA 28.92 C 36.26 O 41.12 CB 25.56 CG 28.18 OD1 33.13 ND2 32.1
D PHE E 1 -140.6 160.8 N 38.87 CA 37.23 C 35.69 O 31.16 CB 38.32 CG 42.19 CD1 44.67 CD2 45.16 CE1 45.51 CE2 48.78 CZ 45.68
D GLU E 44 -134.6 123.5 N 37.19 CA 42.66 C 44.3 O 44.65 CB 44.76 CG 50.77 CD 55.25 OE1 58.72 OE2 58.08
D ILE E 0 -112.6 116.5 N 45.31 CA 44.2 C 46.93 O 43.12 CB 40.24 CG1 41.09 CG2 31.56 CD1 49.74
D SER E 4 -139.7 161.7 N 50.7 CA 55.94 C 58.99 O 57.25 CB 57.15 OG 60.81
D THR - 13 -152.5 132.8 N 61.31 CA 59.55 C 62.65 O 57.2 CB 57.1 OG1 55.35 CG2 57.52
D PRO S 60 -79.4 -32.5 N 70.58 CA 77.78 C 82.69 O 84.86 CB 77.41 CG 74.1 CD 71.02
D TYR S 107 -65.7 -179.7 N 84.19 CA 85.77 C 88.92 O 87.69 CB 84.21 CG 84.56 CD1 85.16 CD2 86.17 CE1 86.08 CE2 86.71 CZ 86.7 OH 82.44
D THR S 149 -117.7 -0.4 N 92.92 CA 92.29 C 88.0 O 85.45 CB 95.19 OG1 95.24 CG2 94.18
D SER S 62 -75.2 -177.1 N 83.34 CA 80.0 C 78.67 O 80.53 CB 77.95 OG 73.84
D ARG - 51 -73.3 150.8 N 75.09 CA 72.17 C 72.01 O 71.1 CB 68.52
D ILE - 22 -100.7 140.8 N 70.38 CA 64.83 C 63.49 O 60.4 CB 64.34 CG1 59.79 CG2 61.91 CD1 63.02
D ALA - 0 -145.7 155.3 N 64.1 CA 65.92 C 66.19 O 69.48 CB 66.66
D ASP - 5 -119.4 -61.7 N 62.4 CA 61.42 C 62.27 O 60.02 CB 62.16 CG 63.93 OD1 63.86 OD2 59.35
D GLY E 0 -155.3 162.1 N 64.01 CA 61.73 C 56.73 O 54.16
D LEU E 4 -128.1 135.4 N 53.42 CA 47.08 C 42.82 O 40.57 CB 47.3 CG 39.56 CD1 40.2 CD2 38.62
D ALA E 1 -140.5 151.5 N 39.72 CA 41.45 C 41.85 O 45.27 CB 40.22
D PHE E 4 -116.2 127.9 N 38.2 CA 32.51 C 30.47 O 29.14 CB 26.63 CG 29.36 CD1 30.31 CD2 31.27 CE1 29.27 CE2 27.44 CZ 24.85
D PHE E 0 -138.6 155.2 N 28.01 CA 29.41 C 32.62 O 37.97 CB 27.66 CG 23.57 CD1 23.76 CD2 19.19 CE1 23.32 CE2 18.64 CZ 17.18
D ILE E 5 -129.1 123.7 N 32.35 CA 31.43 C 30.55 O 32.57 CB 30.18 CG1 32.34 CG2 25.88 CD1 46.73
D ALA E 2 -144.5 157.2 N 32.56 CA 34.15 C 36.84 O 41.68 CB 30.37
D PRO - 29 -49.0 140.4 N 39.12 CA 41.77 C 43.77 O 44.56 CB 42.28 CG 45.62 CD 42.17
D PRO T 22 -38.7 -40.3 N 44.1 CA 46.31 C 49.83 O 48.84 CB 46.01 CG 45.25 CD 42.54
D ASP T 131 -86.9 8.4 N 55.0 CA 59.61 C 55.86 O 53.7 CB 69.01 CG 78.44 OD1 81.67 OD2 84.67
D SER - 25 -52.6 140.1 N 54.92 CA 54.53 C 53.26 O 50.3 CB 54.97 OG 56.02
D VAL - 108 -124.8 150.8 N 56.42 CA 60.7 C 62.95 O 65.54 CB 59.82 CG1 61.24 CG2 64.31
D ILE - 54 -53.4 142.0 N 62.45 CA 61.78 C 63.81 O 64.8 CB 61.24 CG1 60.31 CG2 63.88 CD1 60.77
D SER - 31 -112.6 -164.2 N 65.42 CA 67.21 C 69.66 O 70.51 CB 64.87 OG 68.61
D TYR - 148 -59.6 152.9 N 72.03 CA 73.78 C 66.31 O 64.77 CB 84.1 CG 97.32 CD1 0.77 CD2 0.88 CE1 0.42 CE2 0.93 CZ 0.12 OH 0.93
D HIS - 71 -87.3 -147.1 N 62.03 CA 60.03 C 54.94 O 51.92 CB 69.0 CG 79.51 ND1 83.94 CD2 83.65 CE1 87.27 NE2 90.15
D GLY G 14 67.1 -145.1 N 51.43 CA 49.81 C 47.97 O 51.14
D GLY G 4 -73.9 14.5 N 46.74 CA 43.77 C 42.49 O 38.79
D PHE G 18 -93.9 -20.0 N 42.95 CA 50.89 C 50.24 O 50.53 CB 58.85 CG 66.18 CD1 67.27 CD2 70.28 CE1 69.95 CE2 70.56 CZ 70.89
D LEU T 0 59.4 36.1 N 46.16 CA 41.65 C 44.68 O 47.6 CB 34.94 CG 27.62 CD1 25.29 CD2 26.36
D GLY T 0 47.6 24.8 N 47.41 CA 45.49 C 43.59 O 43.34
D LEU T 3 -107.2 -40.0 N 43.96 CA 45.75 C 49.64 O 51.41 CB 41.32 CG 40.05 CD1 41.3 CD2 40.4
D PHE - 5 -128.3 152.9 N 51.35 CA 50.42 C 54.69 O 50.99 CB 47.16 CG 42.09 CD1 41.84 CD2 40.65 CE1 40.72 CE2 41.37 CZ 42.29
D PRO S 51 -82.8 -42.5 N 60.19 CA 65.7 C 69.41 O 70.41 CB 64.7 CG 63.1 CD 59.13
D ASN S 77 -116.4 -143.2 N 70.81 CA 72.98 C 74.18 O 73.17 CB 76.89 CG 78.38 OD1 80.67 ND2 78.61
D ALA - 22 -141.5 32.3 N 76.55 CA 78.34 C 78.25 O 76.58 CB 75.57
D ASN - 149 -74.7 360.0 N 81.75 CA 85.95 C 85.55 O 84.21 CB 92.58 CG 98.96 OD1 0.37 ND2 97.34
E SER - 98 360.0 118.7 N 88.1 CA 87.81 C 85.11 O 87.22 CB 89.18 OG 89.34
E ASN - 62 -99.1 129.6 N 77.61 CA 65.85 C 54.15 O 52.15 CB 69.02 CG 69.4 OD1 70.11 ND2 69.92
E VAL - 4 177.0 154.3 N 41.21 CA 32.96 C 28.78 O 33.93 CB 31.21 CG1 34.26 CG2 28.5
E VAL E 3 -129.2 129.2 N 23.33 CA 18.14 C 21.71 O 24.63 CB 13.42 CG1 10.77 CG2 6.76
E ALA E 1 -142.2 153.2 N 22.46 CA 21.68 C 21.84 O 23.83 CB 12.7
E VAL E 4 -117.3 132.6 N 22.56 CA 24.93 C 32.98 O 36.17 CB 18.56 CG1 11.78 CG2 12.65
E GLU E 0 -127.9 147.5 N 36.66 CA 37.14 C 36.04 O 29.82 CB 39.5 CG 44.97 CD 49.16 OE1 51.02 OE2 53.94
E PHE E 2 -120.0 110.9 N 37.53 CA 40.9 C 45.97 O 43.74 CB 39.09 CG 39.43 CD1 36.95 CD2 37.49 CE1 32.66 CE2 36.17 CZ 35.08
E ASP E 0 -104.5 123.8 N 50.65 CA 48.34 C 49.17 O 47.54 CB 44.03 CG 48.0 OD1 51.17 OD2 48.22
E THR - 5 -102.1 -30.6 N 51.92 CA 58.24 C 61.66 O 62.03 CB 59.96 OG1 60.75 CG2 59.95
E TYR S 90 -106.7 130.4 N 65.94 CA 67.12 C 63.53 O 56.47 CB 76.62 CG 85.4 CD1 91.8 CD2 87.68 CE1 97.17 CE2 93.27 CZ 96.55 OH 96.52
E LEU - 66 -85.4 132.7 N 61.27 CA 59.49 C 61.21 O 61.57 CB 52.03 CG 48.42 CD1 48.89 CD2 47.4
E ASN - 16 -132.5 83.1 N 62.58 CA 65.68 C 70.06 O 71.77 CB 65.12 CG 68.47 OD1 73.04 ND2 70.31
E PRO G 102 -54.1 -31.1 N 71.88 CA 71.14 C 70.72 O 69.25 CB 71.2 CG 70.51 CD 70.69
E ASP G 111 -71.4 -20.1 N 71.71 CA 76.39 C 75.81 O 75.59 CB 82.55 CG 87.96 OD1 86.47 OD2 90.93
E TYR G 54 -97.2 -5.9 N 74.41 CA 70.21 C 66.5 O 67.81 CB 70.23 CG 70.9 CD1 73.16 CD2 70.28 CE1 76.39 CE2 73.02 CZ 75.75 OH 75.21
E GLY T 40 107.7 -23.8 N 62.02 CA 56.18 C 53.57 O 48.86
E ASP - 9 -45.5 125.8 N 54.74 CA 58.12 C 58.47 O 60.23 CB 57.18 CG 60.24 OD1 62.41 OD2 57.06
E PRO - 30 -66.1 176.2 N 58.63 CA 62.27 C 68.01 O 67.76 CB 59.92 CG 56.91 CD 58.73
E ASN S 144 -87.2 65.8 N 76.54 CA 84.84 C 83.85 O 85.21 CB 94.11 CG 0.74 OD1 0.72 ND2 0.53
E TYR S 89 172.3 149.4 N 80.52 CA 77.39 C 74.6 O 75.66 CB 77.11 CG 73.27 CD1 73.7 CD2 72.98 CE1 76.19 CE2 74.4 CZ 75.78 OH 73.14
E ILE - 60 -50.9 122.4 N 69.47 CA 63.3 C 58.13 O 55.37 CB 65.98 CG1 65.9 CG2 69.7 CD1 71.2
E HIS E 1 -138.8 164.1 N 53.74 CA 50.78 C 51.07 O 53.64 CB 47.52 CG 45.04 ND1 40.29 CD2 46.1 CE1 42.82 NE2 41.01
E ILE E 1 -118.2 137.8 N 46.05 CA 40.96 C 40.03 O 40.57 CB 37.14 CG1 33.16 CG2 41.94 CD1 32.81
E GLY E 0 -136.8 155.5 N 38.73 CA 35.1 C 33.11 O 35.67
E ILE E 0 -109.8 127.1 N 28.06 CA 25.28 C 25.44 O 28.44 CB 22.64 CG1 28.06 CG2 23.25 CD1 36.21
E ASP E 0 -124.9 135.8 N 26.89 CA 31.3 C 36.75 O 41.71 CB 29.36 CG 32.65 OD1 32.94 OD2 31.06
E VAL E 16 -126.1 102.6 N 38.25 CA 36.88 C 42.76 O 44.81 CB 33.25 CG1 33.11 CG2 20.64
E ASN S 70 67.7 3.4 N 49.64 CA 54.84 C 55.84 O 58.87 CB 60.62 CG 65.36 OD1 73.23 ND2 60.41
E SER S 14 -160.4 146.0 N 55.37 CA 57.75 C 55.7 O 56.72 CB 61.75 OG 69.76
E ILE S 1 -64.3 -10.1 N 51.9 CA 52.1 C 52.64 O 52.76 CB 52.54 CG1 57.2 CG2 53.37 CD1 58.76
E ARG S 106 -81.7 89.7 N 54.46 CA 58.29 C 53.67 O 53.26 CB 70.04 CG 86.22 CD 94.91 NE 99.05 CZ 99.4 NH1 0.06 NH2 98.57
E SER - 31 -48.0 137.2 N 48.88 CA 48.52 C 46.6 O 48.39 CB 51.45 OG 53.18
E LYS S 111 -77.7 -37.1 N 43.21 CA 41.04 C 40.46 O 44.51 CB 37.36 CG 44.72 CD 53.61 CE 59.73 NZ 61.6
E VAL E 43 -142.0 150.7 N 39.61 CA 43.17 C 43.02 O 43.11 CB 45.5 CG1 51.01 CG2 51.82
E THR E 52 -146.2 149.6 N 43.25 CA 42.47 C 42.13 O 46.11 CB 41.9 OG1 52.99 CG2 45.15
E ALA E 20 -139.7 146.1 N 41.65 CA 46.23 C 49.42 O 49.88 CB 48.22
E LYS E 125 -64.9 122.4 N 51.22 CA 52.16 C 49.69 O 49.37 CB 59.2 CG 69.96 CD 73.3 CE 76.01 NZ 79.71
E TRP - 5 -114.5 124.6 N 45.03 CA 44.04 C 45.74 O 46.5 CB 39.7 CG 33.55 CD1 33.44 CD2 27.84 NE1 31.02 CE2 28.12 CE3 28.19 CZ2 27.23 CZ3 30.21 CH2 28.31
E ASP - 115 -86.2 74.5 N 46.98 CA 52.36 C 50.14 O 51.27 CB 63.96 CG 75.78 OD1 79.53 OD2 79.47
E TRP - 59 -47.8 158.6 N 48.68 CA 52.06 C 53.71 O 58.84 CB 53.56 CG 53.96 CD1 56.68 CD2 55.31 NE1 56.64 CE2 57.08 CE3 58.52 CZ2 59.09 CZ3 62.29 CH2 59.6
E GLN - 87 -150.9 105.3 N 52.79 CA 54.25 C 56.46 O 60.19 CB 51.9 CG 60.15 CD 68.02 OE1 68.45 NE2 72.28
E ASN T 79 -55.2 136.1 N 59.63 CA 60.21 C 59.59 O 59.1 CB 61.57 CG 61.5 OD1 60.35 ND2 65.31
E GLY T 37 86.5 -41.5 N 57.34 CA 58.83 C 58.42 O 60.7
E LYS S 35 -76.7 172.9 N 55.89 CA 50.15 C 49.05 O 45.25 CB 43.52
E ILE - 67 -117.4 146.8 N 51.61 CA 54.99 C 50.71 O 51.83 CB 60.15 CG1 68.77 CG2 62.03 CD1 76.56
E ALA E 0 -115.7 148.5 N 45.42 CA 43.51 C 44.45 O 48.21 CB 43.93
E THR E 24 -120.1 131.5 N 41.19 CA 36.04 C 32.3 O 33.88 CB 38.72 OG1 46.38 CG2 37.88
E ALA E 0 -133.7 139.2 N 30.32 CA 26.4 C 22.13 O 24.23 CB 26.34
E HIS E 5 -121.6 137.2 N 14.57 CA 18.38 C 21.1 O 26.39 CB 21.86 CG 29.01 ND1 33.23 CD2 32.22 CE1 34.57 NE2 34.93
E ILE E 0 -130.5 134.6 N 20.72 CA 18.89 C 21.34 O 22.67 CB 14.74 CG1 11.62 CG2 16.87 CD1 21.79
E SER E 9 -137.7 144.2 N 21.95 CA 23.27 C 26.63 O 32.08 CB 23.07 OG 31.81
E TYR E 5 -134.5 150.6 N 30.67 CA 29.12 C 27.55 O 28.09 CB 26.56 CG 31.41 CD1 31.74 CD2 32.65 CE1 29.64 CE2 33.49 CZ 32.49 OH 44.03
E ASN E 17 -149.6 116.3 N 23.6 CA 23.31 C 26.6 O 29.88 CB 22.11 CG 26.22 OD1 28.85 ND2 31.49
E SER T 9 -60.4 -19.5 N 27.59 CA 25.96 C 24.66 O 30.87 CB 31.08 OG 34.72
E VAL T 16 -90.8 -46.6 N 18.93 CA 18.45 C 23.0 O 28.38 CB 17.14 CG1 15.38 CG2 15.85
E SER T 6 -78.7 7.1 N 24.93 CA 28.81 C 28.1 O 27.31 CB 33.04 OG 37.52
E LYS T 89 34.4 41.0 N 29.01 CA 31.04 C 29.12 O 33.28 CB 35.85 CG 49.83 CD 62.08 CE 71.62 NZ 75.78
E ARG E 36 -129.6 143.7 N 26.88 CA 29.88 C 28.9 O 34.99 CB 36.05 CG 52.53 CD 64.49 NE 73.76 CZ 78.09 NH1 82.91 NH2 78.67
E LEU E 4 -122.3 130.7 N 22.35 CA 18.03 C 18.08 O 26.64 CB 10.98 CG 12.57 CD1 9.84 CD2 16.29
E SER E 3 -134.9 148.6 N 19.18 CA 22.44 C 21.56 O 22.0 CB 27.07 OG 32.98
E VAL E 1 -132.1 142.9 N 21.51 CA 20.26 C 20.38 O 28.62 CB 14.47 CG1 14.68 CG2 16.76
E THR E 4 -143.6 132.5 N 19.23 CA 19.02 C 20.83 O 24.18 CB 17.53 OG1 13.95 CG2 22.17
E SER E 2 -138.7 126.8 N 23.22 CA 26.04 C 31.23 O 38.95 CB 16.77 OG 16.09
E TYR E 21 -122.3 -179.8 N 34.25 CA 39.03 C 40.3 O 38.2 CB 41.68 CG 45.59 CD1 51.42 CD2 49.28 CE1 56.12 CE2 52.52 CZ 54.91 OH 55.03
E TYR - 7 -131.3 21.3 N 39.03 CA 37.52 C 42.5 O 49.83 CB 33.16 CG 26.27 CD1 24.58 CD2 30.1 CE1 32.48 CE2 28.33 CZ 31.88 OH 32.64
E ALA S 74 63.4 91.6 N 44.8 CA 47.81 C 51.28 O 52.77 CB 38.28
E GLY S 74 112.4 -29.7 N 58.41 CA 65.82 C 69.13 O 71.01
E SER S 48 -107.1 -178.9 N 69.44 CA 69.78 C 67.05 O 66.02 CB 71.87 OG 81.15
E LYS - 189 -79.6 147.3 N 64.39 CA 58.47 C 49.83 O 46.0 CB 69.33 CG 83.21 CD 93.65 CE 98.49 NZ 99.02
E PRO - 50 -80.7 177.8 N 43.53 CA 38.91 C 37.24 O 39.08 CB 39.31 CG 41.57 CD 41.85
E ALA E 12 -129.0 135.3 N 38.58 CA 40.91 C 39.75 O 43.32 CB 43.26
E THR E 81 -131.0 139.0 N 37.56 CA 38.94 C 39.49 O 45.32 CB 41.46 OG1 48.34 CG2 40.55
E LEU E 16 -142.3 134.9 N 38.41 CA 38.32 C 36.68 O 35.69 CB 40.26 CG 45.15 CD1 47.34 CD2 45.35
E SER E 33 -135.9 139.9 N 38.23 CA 42.66 C 44.92 O 57.17 CB 42.99 OG 49.64
E TYR E 61 -140.1 134.9 N 42.01 CA 43.61 C 46.13 O 53.06 CB 42.87 CG 47.94 CD1 52.57 CD2 51.76 CE1 58.97 CE2 59.77 CZ 62.66 OH 68.29
E ASP E 75 -85.0 121.4 N 46.76 CA 45.8 C 44.43 O 47.71 CB 48.35 CG 54.78 OD1 61.45 OD2 53.46
E ILE - 16 -143.0 167.7 N 41.29 CA 40.64 C 41.27 O 40.25 CB 39.19 CG1 44.69 CG2 34.17 CD1 55.37
E GLU - 82 -126.3 69.4 N 42.73 CA 45.02 C 41.96 O 46.39 CB 52.04 CG 62.73 CD 69.53 OE1 72.81 OE2 71.61
E LEU G 1 -24.5 -42.6 N 36.01 CA 36.49 C 40.37 O 38.3 CB 31.96 CG 28.99 CD1 31.84 CD2 32.28
E HIS G 51 -68.7 5.4 N 45.72 CA 50.3 C 49.94 O 53.27 CB 55.89 CG 58.56 ND1 61.42 CD2 58.86 CE1 66.61 NE2 64.75
E THR G 96 -105.7 -22.7 N 48.24 CA 46.31 C 45.78 O 47.97 CB 45.85 OG1 47.77 CG2 45.48
E VAL T 24 -95.3 -38.7 N 42.19 CA 39.61 C 39.06 O 38.91 CB 40.37 CG1 45.07 CG2 43.5
E LEU S 8 -113.2 160.5 N 37.8 CA 35.45 C 38.27 O 42.67 CB 29.54 CG 29.42 CD1 29.44 CD2 24.45
E PRO - 54 -74.2 -174.5 N 36.39 CA 40.29 C 45.15 O 47.5 CB 39.7 CG 38.06 CD 32.31
E GLU S 73 -77.0 -21.5 N 48.1 CA 47.95 C 45.03 O 41.45 CB 52.43 CG 61.68 CD 67.19 OE1 70.35 OE2 70.59
E TRP E 23 -125.8 128.3 N 42.34 CA 41.16 C 39.59 O 42.29 CB 46.24 CG 47.23 CD1 46.16 CD2 47.69 NE1 43.33 CE2 45.49 CE3 51.56 CZ2 50.58 CZ3 54.33 CH2 52.11
E VAL E 0 -137.1 164.0 N 39.06 CA 40.57 C 39.6 O 45.44 CB 43.0 CG1 44.7 CG2 45.58
E ARG E 46 -126.8 148.3 N 38.6 CA 39.15 C 35.6 O 33.83 CB 42.7 CG 56.25 CD 60.69 NE 60.61 CZ 60.54 NH1 61.33 NH2 63.71
E VAL E 6 -114.7 138.7 N 32.71 CA 30.01 C 30.21 O 34.34 CB 27.23 CG1 23.45 CG2 31.25
E GLY E 0 -145.8 168.5 N 29.35 CA 30.45 C 30.56 O 29.24
E LEU E 2 -118.8 138.8 N 31.53 CA 35.37 C 41.16 O 44.49 CB 30.45 CG 28.03 CD1 26.89 CD2 26.67
E SER E 0 -139.4 141.0 N 43.33 CA 41.22 C 39.67 O 38.39 CB 39.8 OG 41.59
E ALA E 0 -141.9 147.4 N 40.13 CA 46.92 C 51.22 O 54.02 CB 48.51
E SER E 0 -149.3 165.5 N 55.08 CA 56.46 C 57.3 O 57.25 CB 58.42 OG 52.13
E THR - 0 -143.0 173.5 N 58.81 CA 62.5 C 71.07 O 73.92 CB 55.66 OG1 50.58 CG2 52.58
E GLY S 6 -149.2 -128.7 N 77.33 CA 82.51 C 84.3 O 85.15
E GLN S 187 -55.6 -35.2 N 85.31 CA 86.69 C 81.49 O 79.49 CB 95.19 CG 0.14 CD 0.93 OE1 0.71 NE2 0.64
E ASP S 40 -106.2 150.3 N 77.7 CA 78.43 C 76.71 O 75.51 CB 80.68 CG 83.81 OD1 82.23 OD2 86.72
E LYS - 6 -113.9 172.8 N 74.17 CA 70.02 C 69.41 O 69.08 CB 66.29
E GLU - 0 -176.9 149.6 N 68.54 CA 63.63 C 62.26 O 60.21 CB 61.94 CG 63.69 CD 62.99 OE1 63.27 OE2 62.45
E ARG E 59 -83.5 129.5 N 61.02 CA 60.34 C 61.56 O 61.65 CB 59.73 CG 60.64 CD 65.11 NE 68.66 CZ 71.44 NH1 68.81 NH2 72.94
E ASN E 0 -113.9 101.0 N 60.57 CA 55.82 C 51.82 O 49.62 CB 59.38 CG 60.86 OD1 62.75 ND2 62.59
E THR E 2 -127.6 144.9 N 44.68 CA 39.48 C 39.13 O 37.58 CB 35.07 OG1 38.67 CG2 31.2
E VAL E 1 -123.3 140.1 N 37.65 CA 29.46 C 32.52 O 36.59 CB 21.93 CG1 13.21 CG2 21.58
E HIS E 54 -113.4 -151.8 N 34.61 CA 36.12 C 39.56 O 49.55 CB 38.73 CG 42.26 ND1 44.52 CD2 41.59 CE1 43.13 NE2 42.4
E SER E 28 -63.2 144.1 N 37.04 CA 37.19 C 32.65 O 36.51 CB 46.49 OG 49.13
E TRP E 0 -129.3 128.3 N 28.14 CA 26.06 C 28.83 O 30.69 CB 17.12 CG 7.83 CD1 7.1 CD2 2.0 NE1 4.67 CE2 2.0 CE3 2.0 CZ2 2.0 CZ3 2.0 CH2 2.0
E SER E 33 -132.3 131.6 N 29.92 CA 32.79 C 32.19 O 38.13 CB 33.54 OG 49.47
E PHE E 1 -138.7 138.4 N 27.04 CA 25.04 C 23.75 O 31.18 CB 24.1 CG 28.13 CD1 26.22 CD2 32.34 CE1 31.54 CE2 28.53 CZ 25.5
E THR E 55 -143.8 139.9 N 21.26 CA 21.3 C 22.51 O 22.35 CB 21.26 OG1 18.38 CG2 29.34
E SER E 3 -139.0 145.8 N 26.99 CA 28.2 C 28.99 O 33.6 CB 24.37 OG 39.54
E SER E 29 -137.5 144.7 N 29.04 CA 30.54 C 32.1 O 38.64 CB 33.48 OG 46.42
E LEU E 4 -136.4 138.4 N 32.55 CA 28.07 C 29.78 O 33.34 CB 24.69 CG 24.72 CD1 24.96 CD2 28.95
E TRP E 92 -128.8 133.4 N 31.89 CA 34.58 C 36.97 O 39.66 CB 36.14 CG 41.82 CD1 47.35 CD2 44.77 NE1 43.51 CE2 49.42 CE3 48.53 CZ2 57.43 CZ3 56.21 CH2 60.58
E THR E 34 -112.9 -170.5 N 40.78 CA 44.23 C 47.0 O 46.11 CB 45.55 OG1 54.12 CG2 44.35
E ASN - 70 -142.4 360.0 N 51.66 CA 54.02 C 55.25 O 56.67 CB 53.69 CG 57.45 OD1 54.71 ND2 66.81
F SER - 94 360.0 118.7 N 88.1 CA 87.81 C 85.11 O 87.22 CB 89.18 OG 89.34
F ASN - 62 -99.1 129.6 N 77.61 CA 65.85 C 54.15 O 52.15 CB 69.02 CG 69.4 OD1 70.11 ND2 69.92
F VAL - 4 176.9 154.3 N 41.21 CA 32.96 C 28.78 O 33.93 CB 31.21 CG1 34.26 CG2 28.5
F VAL E 3 -129.2 129.2 N 23.33 CA 18.14 C 21.71 O 24.63 CB 13.42 CG1 10.77 CG2 6.76
F ALA E 1 -142.2 153.2 N 22.46 CA 21.68 C 21.84 O 23.83 CB 12.7
F VAL E 3 -117.3 132.6 N 22.56 CA 24.93 C 32.98 O 36.17 CB 18.56 CG1 11.78 CG2 12.65
F GLU E 0 -127.9 147.5 N 36.66 CA 37.14 C 36.04 O 29.82 CB 39.5 CG 44.97 CD 49.16 OE1 51.02 OE2 53.94
F PHE E 2 -119.9 110.9 N 37.53 CA 40.9 C 45.97 O 43.74 CB 39.09 CG 39.43 CD1 36.95 CD2 37.49 CE1 32.66 CE2 36.17 CZ 35.08
F ASP E 0 -104.5 123.9 N 50.65 CA 48.34 C 49.17 O 47.54 CB 44.03 CG 48.0 OD1 51.17 OD2 48.22
F THR - 6 -102.1 -30.7 N 51.92 CA 58.24 C 61.66 O 62.03 CB 59.96 OG1 60.75 CG2 59.95
F TYR S 90 -106.7 130.3 N 65.94 CA 67.12 C 63.53 O 56.47 CB 76.62 CG 85.4 CD1 91.8 CD2 87.68 CE1 97.17 CE2 93.27 CZ 96.55 OH 96.52
F LEU - 65 -85.4 132.6 N 61.27 CA 59.49 C 61.21 O 61.57 CB 52.03 CG 48.42 CD1 48.89 CD2 47.4
F ASN - 15 -132.5 83.1 N 62.58 CA 65.68 C 70.06 O 71.77 CB 65.12 CG 68.47 OD1 73.04 ND2 70.31
F PRO G 103 -54.0 -31.0 N 71.88 CA 71.14 C 70.72 O 69.25 CB 71.2 CG 70.51 CD 70.69
F ASP G 111 -71.4 -20.1 N 71.71 CA 76.39 C 75.81 O 75.59 CB 82.55 CG 87.96 OD1 86.47 OD2 90.93
F TYR G 55 -97.2 -5.9 N 74.41 CA 70.21 C 66.5 O 67.81 CB 70.23 CG 70.9 CD1 73.16 CD2 70.28 CE1 76.39 CE2 73.02 CZ 75.75 OH 75.21
F GLY T 43 107.7 -23.8 N 62.02 CA 56.18 C 53.57 O 48.86
F ASP - 6 -45.4 125.8 N 54.74 CA 58.12 C 58.47 O 60.23 CB 57.18 CG 60.24 OD1 62.41 OD2 57.06
F PRO - 30 -66.1 176.2 N 58.63 CA 62.27 C 68.01 O 67.76 CB 59.92 CG 56.91 CD 58.73
F ASN S 144 -87.2 65.8 N 76.54 CA 84.84 C 83.85 O 85.21 CB 94.11 CG 0.74 OD1 0.72 ND2 0.53
F TYR S 86 172.3 149.5 N 80.52 CA 77.39 C 74.6 O 75.66 CB 77.11 CG 73.27 CD1 73.7 CD2 72.98 CE1 76.19 CE2 74.4 CZ 75.78 OH 73.14
F ILE - 59 -50.9 122.5 N 69.47 CA 63.3 C 58.13 O 55.37 CB 65.98 CG1 65.9 CG2 69.7 CD1 71.2
F HIS E 1 -138.9 164.1 N 53.74 CA 50.78 C 51.07 O 53.64 CB 47.52 CG 45.04 ND1 40.29 CD2 46.1 CE1 42.82 NE2 41.01
F ILE E 1 -118.1 137.8 N 46.05 CA 40.96 C 40.03 O 40.57 CB 37.14 CG1 33.16 CG2 41.94 CD1 32.81
F GLY E 0 -136.9 155.5 N 38.73 CA 35.1 C 33.11 O 35.67
F ILE E 0 -109.7 127.1 N 28.06 CA 25.28 C 25.44 O 28.44 CB 22.64 CG1 28.06 CG2 23.25 CD1 36.21
F ASP E 0 -124.9 135.8 N 26.89 CA 31.3 C 36.75 O 41.71 CB 29.36 CG 32.65 OD1 32.94 OD2 31.06
F VAL E 16 -126.1 102.6 N 38.25 CA 36.88 C 42.76 O 44.81 CB 33.25 CG1 33.11 CG2 20.64
F ASN S 70 67.6 3.4 N 49.64 CA 54.84 C 55.84 O 58.87 CB 60.62 CG 65.36 OD1 73.23 ND2 60.41
F SER S 14 -160.4 146.0 N 55.37 CA 57.75 C 55.7 O 56.72 CB 61.75 OG 69.76
F ILE S 2 -64.3 -10.0 N 51.9 CA 52.1 C 52.64 O 52.76 CB 52.54 CG1 57.2 CG2 53.37 CD1 58.76
F ARG S 105 -81.7 89.7 N 54.46 CA 58.29 C 53.67 O 53.26 CB 70.04 CG 86.22 CD 94.91 NE 99.05 CZ 99.4 NH1 0.06 NH2 98.57
F SER - 30 -48.0 137.1 N 48.88 CA 48.52 C 46.6 O 48.39 CB 51.45 OG 53.18
F LYS S 114 -77.7 -37.1 N 43.21 CA 41.04 C 40.46 O 44.51 CB 37.36 CG 44.72 CD 53.61 CE 59.73 NZ 61.6
F VAL E 42 -142.0 150.7 N 39.61 CA 43.17 C 43.02 O 43.11 CB 45.5 CG1 51.01 CG2 51.82
F THR E 52 -146.2 149.6 N 43.25 CA 42.47 C 42.13 O 46.11 CB 41.9 OG1 52.99 CG2 45.15
F ALA E 20 -139.7 146.1 N 41.65 CA 46.23 C 49.42 O 49.88 CB 48.22
F LYS E 123 -64.9 122.4 N 51.22 CA 52.16 C 49.69 O 49.37 CB 59.2 CG 69.96 CD 73.3 CE 76.01 NZ 79.71
F TRP - 6 -114.5 124.5 N 45.03 CA 44.04 C 45.74 O 46.5 CB 39.7 CG 33.55 CD1 33.44 CD2 27.84 NE1 31.02 CE2 28.12 CE3 28.19 CZ2 27.23 CZ3 30.21 CH2 28.31
F ASP - 113 -86.2 74.5 N 46.98 CA 52.36 C 50.14 O 51.27 CB 63.96 CG 75.78 OD1 79.53 OD2 79.47
F TRP - 58 -47.8 158.6 N 48.68 CA 52.06 C 53.71 O 58.84 CB 53.56 CG 53.96 CD1 56.68 CD2 55.31 NE1 56.64 CE2 57.08 CE3 58.52 CZ2 59.09 CZ3 62.29 CH2 59.6
F GLN - 88 -150.9 105.2 N 52.79 CA 54.25 C 56.46 O 60.19 CB 51.9 CG 60.15 CD 68.02 OE1 68.45 NE2 72.28
F ASN T 77 -55.1 136.1 N 59.63 CA 60.21 C 59.59 O 59.1 CB 61.57 CG 61.5 OD1 60.35 ND2 65.31
F GLY T 40 86.5 -41.6 N 57.34 CA 58.83 C 58.42 O 60.7
F LYS S 34 -76.8 172.9 N 55.89 CA 50.15 C 49.05 O 45.25 CB 43.52
F ILE - 68 -117.4 146.8 N 51.61 CA 54.99 C 50.71 O 51.83 CB 60.15 CG1 68.77 CG2 62.03 CD1 76.56
F ALA E 0 -115.7 148.6 N 45.42 CA 43.51 C 44.45 O 48.21 CB 43.93
F THR E 24 -120.1 131.4 N 41.19 CA 36.04 C 32.3 O 33.88 CB 38.72 OG1 46.38 CG2 37.88
F ALA E 0 -133.7 139.3 N 30.32 CA 26.4 C 22.13 O 24.23 CB 26.34
F HIS E 7 -121.7 137.2 N 14.57 CA 18.38 C 21.1 O 26.39 CB 21.86 CG 29.01 ND1 33.23 CD2 32.22 CE1 34.57 NE2 34.93
F ILE E 1 -130.5 134.6 N 20.72 CA 18.89 C 21.34 O 22.67 CB 14.74 CG1 11.62 CG2 16.87 CD1 21.79
F SER E 9 -137.7 144.2 N 21.95 CA 23.27 C 26.63 O 32.08 CB 23.07 OG 31.81
F TYR E 4 -134.5 150.6 N 30.67 CA 29.12 C 27.55 O 28.09 CB 26.56 CG 31.41 CD1 31.74 CD2 32.65 CE1 29.64 CE2 33.49 CZ 32.49 OH 44.03
F ASN E 16 -149.6 116.3 N 23.6 CA 23.31 C 26.6 O 29.88 CB 22.11 CG 26.22 OD1 28.85 ND2 31.49
F SER T 9 -60.4 -19.5 N 27.59 CA 25.96 C 24.66 O 30.87 CB 31.08 OG 34.72
F VAL T 17 -90.9 -46.6 N 18.93 CA 18.45 C 23.0 O 28.38 CB 17.14 CG1 15.38 CG2 15.85
F SER T 6 -78.7 7.1 N 24.93 CA 28.81 C 28.1 O 27.31 CB 33.04 OG 37.52
F LYS T 90 34.4 41.0 N 29.01 CA 31.04 C 29.12 O 33.28 CB 35.85 CG 49.83 CD 62.08 CE 71.62 NZ 75.78
F ARG E 37 -129.6 143.7 N 26.88 CA 29.88 C 28.9 O 34.99 CB 36.05 CG 52.53 CD 64.49 NE 73.76 CZ 78.09 NH1 82.91 NH2 78.67
F LEU E 4 -122.4 130.7 N 22.35 CA 18.03 C 18.08 O 26.64 CB 10.98 CG 12.57 CD1 9.84 CD2 16.29
F SER E 4 -134.9 148.6 N 19.18 CA 22.44 C 21.56 O 22.0 CB 27.07 OG 32.98
F VAL E 0 -132.1 142.9 N 21.51 CA 20.26 C 20.38 O 28.62 CB 14.47 CG1 14.68 CG2 16.76
F THR E 4 -143.6 132.5 N 19.23 CA 19.02 C 20.83 O 24.18 CB 17.53 OG1 13.95 CG2 22.17
F SER E 2 -138.7 126.8 N 23.22 CA 26.04 C 31.23 O 38.95 CB 16.77 OG 16.09
F TYR E 23 -122.3 -179.8 N 34.25 CA 39.03 C 40.3 O 38.2 CB 41.68 CG 45.59 CD1 51.42 CD2 49.28 CE1 56.12 CE2 52.52 CZ 54.91 OH 55.03
F TYR - 9 -131.3 21.2 N 39.03 CA 37.52 C 42.5 O 49.83 CB 33.16 CG 26.27 CD1 24.58 CD2 30.1 CE1 32.48 CE2 28.33 CZ 31.88 OH 32.64
F ALA S 76 63.4 91.6 N 44.8 CA 47.81 C 51.28 O 52.77 CB 38.28
F GLY S 72 112.4 -29.7 N 58.41 CA 65.82 C 69.13 O 71.01
F SER S 52 -107.0 -178.8 N 69.44 CA 69.78 C 67.05 O 66.02 CB 71.87 OG 81.15
F LYS - 188 -79.6 147.3 N 64.39 CA 58.47 C 49.83 O 46.0 CB 69.33 CG 83.21 CD 93.65 CE 98.49 NZ 99.02
F PRO - 45 -80.6 177.8 N 43.53 CA 38.91 C 37.24 O 39.08 CB 39.31 CG 41.57 CD 41.85
F ALA E 12 -129.0 135.3 N 38.58 CA 40.91 C 39.75 O 43.32 CB 43.26
F THR E 83 -131.0 139.0 N 37.56 CA 38.94 C 39.49 O 45.32 CB 41.46 OG1 48.34 CG2 40.55
F LEU E 16 -142.3 134.9 N 38.41 CA 38.32 C 36.68 O 35.69 CB 40.26 CG 45.15 CD1 47.34 CD2 45.35
F SER E 33 -136.0 139.9 N 38.23 CA 42.66 C 44.92 O 57.17 CB 42.99 OG 49.64
F TYR E 62 -140.1 134.9 N 42.01 CA 43.61 C 46.13 O 53.06 CB 42.87 CG 47.94 CD1 52.57 CD2 51.76 CE1 58.97 CE2 59.77 CZ 62.66 OH 68.29
F ASP E 74 -84.9 121.4 N 46.76 CA 45.8 C 44.43 O 47.71 CB 48.35 CG 54.78 OD1 61.45 OD2 53.46
F ILE - 16 -143.0 167.6 N 41.29 CA 40.64 C 41.27 O 40.25 CB 39.19 CG1 44.69 CG2 34.17 CD1 55.37
F GLU - 83 -126.2 69.3 N 42.73 CA 45.02 C 41.96 O 46.39 CB 52.04 CG 62.73 CD 69.53 OE1 72.81 OE2 71.61
F LEU G 1 -24.5 -42.6 N 36.01 CA 36.49 C 40.37 O 38.3 CB 31.96 CG 28.99 CD1 31.84 CD2 32.28
F HIS G 51 -68.8 5.5 N 45.72 CA 50.3 C 49.94 O 53.27 CB 55.89 CG 58.56 ND1 61.42 CD2 58.86 CE1 66.61 NE2 64.75
F THR G 99 -105.7 -22.8 N 48.24 CA 46.31 C 45.78 O 47.97 CB 45.85 OG1 47.77 CG2 45.48
F VAL T 23 -95.3 -38.6 N 42.19 CA 39.61 C 39.06 O 38.91 CB 40.37 CG1 45.07 CG2 43.5
F LEU S 9 -113.2 160.5 N 37.8 CA 35.45 C 38.27 O 42.67 CB 29.54 CG 29.42 CD1 29.44 CD2 24.45
F PRO - 53 -74.1 -174.4 N 36.39 CA 40.29 C 45.15 O 47.5 CB 39.7 CG 38.06 CD 32.31
F GLU S 70 -77.0 -21.5 N 48.1 CA 47.95 C 45.03 O 41.45 CB 52.43 CG 61.68 CD 67.19 OE1 70.35 OE2 70.59
F TRP E 22 -125.8 128.3 N 42.34 CA 41.16 C 39.59 O 42.29 CB 46.24 CG 47.23 CD1 46.16 CD2 47.69 NE1 43.33 CE2 45.49 CE3 51.56 CZ2 50.58 CZ3 54.33 CH2 52.11
F VAL E 0 -137.1 164.0 N 39.06 CA 40.57 C 39.6 O 45.44 CB 43.0 CG1 44.7 CG2 45.58
F ARG E 45 -126.7 148.4 N 38.6 CA 39.15 C 35.6 O 33.83 CB 42.7 CG 56.25 CD 60.69 NE 60.61 CZ 60.54 NH1 61.33 NH2 63.71
F VAL E 8 -114.7 138.7 N 32.71 CA 30.01 C 30.21 O 34.34 CB 27.23 CG1 23.45 CG2 31.25
F GLY E 0 -145.8 168.5 N 29.35 CA 30.45 C 30.56 O 29.24
F LEU E 2 -118.8 138.7 N 31.53 CA 35.37 C 41.16 O 44.49 CB 30.45 CG 28.03 CD1 26.89 CD2 26.67
F SER E 0 -139.4 141.0 N 43.33 CA 41.22 C 39.67 O 38.39 CB 39.8 OG 41.59
F ALA E 0 -141.9 147.5 N 40.13 CA 46.92 C 51.22 O 54.02 CB 48.51
F SER E 0 -149.3 165.4 N 55.08 CA 56.46 C 57.3 O 57.25 CB 58.42 OG 52.13
F THR - 0 -142.9 173.5 N 58.81 CA 62.5 C 71.07 O 73.92 CB 55.66 OG1 50.58 CG2 52.58
F GLY S 6 -149.2 -128.7 N 77.33 CA 82.51 C 84.3 O 85.15
F GLN S 186 -55.6 -35.1 N 85.31 CA 86.69 C 81.49 O 79.49 CB 95.19 CG 0.14 CD 0.93 OE1 0.71 NE2 0.64
F ASP S 40 -106.2 150.3 N 77.7 CA 78.43 C 76.71 O 75.51 CB 80.68 CG 83.81 OD1 82.23 OD2 86.72
F LYS - 6 -113.9 172.8 N 74.17 CA 70.02 C 69.41 O 69.08 CB 66.29
F GLU - 0 -176.9 149.6 N 68.54 CA 63.63 C 62.26 O 60.21 CB 61.94 CG 63.69 CD 62.99 OE1 63.27 OE2 62.45
F ARG E 59 -83.5 129.5 N 61.02 CA 60.34 C 61.56 O 61.65 CB 59.73 CG 60.64 CD 65.11 NE 68.66 CZ 71.44 NH1 68.81 NH2 72.94
F ASN E 0 -113.9 101.0 N 60.57 CA 55.82 C 51.82 O 49.62 CB 59.38 CG 60.86 OD1 62.75 ND2 62.59
F THR E 1 -127.6 145.0 N 44.68 CA 39.48 C 39.13 O 37.58 CB 35.07 OG1 38.67 CG2 31.2
F VAL E 0 -123.4 140.1 N 37.65 CA 29.46 C 32.52 O 36.59 CB 21.93 CG1 13.21 CG2 21.58
F HIS E 55 -113.3 -151.8 N 34.61 CA 36.12 C 39.56 O 49.55 CB 38.73 CG 42.26 ND1 44.52 CD2 41.59 CE1 43.13 NE2 42.4
F SER E 28 -63.2 144.1 N 37.04 CA 37.19 C 32.65 O 36.51 CB 46.49 OG 49.13
F TRP E 0 -129.2 128.3 N 28.14 CA 26.06 C 28.83 O 30.69 CB 17.12 CG 7.83 CD1 7.1 CD2 2.0 NE1 4.67 CE2 2.0 CE3 2.0 CZ2 2.0 CZ3 2.0 CH2 2.0
F SER E 33 -132.3 131.6 N 29.92 CA 32.79 C 32.19 O 38.13 CB 33.54 OG 49.47
F PHE E 1 -138.7 138.4 N 27.04 CA 25.04 C 23.75 O 31.18 CB 24.1 CG 28.13 CD1 26.22 CD2 32.34 CE1 31.54 CE2 28.53 CZ 25.5
F THR E 54 -143.8 139.9 N 21.26 CA 21.3 C 22.51 O 22.35 CB 21.26 OG1 18.38 CG2 29.34
F SER E 4 -139.0 145.8 N 26.99 CA 28.2 C 28.99 O 33.6 CB 24.37 OG 39.54
F SER E 27 -137.5 144.7 N 29.04 CA 30.54 C 32.1 O 38.64 CB 33.48 OG 46.42
F LEU E 3 -136.4 138.4 N 32.55 CA 28.07 C 29.78 O 33.34 CB 24.69 CG 24.72 CD1 24.96 CD2 28.95
F TRP E 95 -128.8 133.4 N 31.89 CA 34.58 C 36.97 O 39.66 CB 36.14 CG 41.82 CD1 47.35 CD2 44.77 NE1 43.51 CE2 49.42 CE3 48.53 CZ2 57.43 CZ3 56.21 CH2 60.58
F THR E 34 -112.8 -170.5 N 40.78 CA 44.23 C 47.0 O 46.11 CB 45.55 OG1 54.12 CG2 44.35
F ASN - 70 -142.3 360.0 N 51.66 CA 54.02 C 55.25 O 56.67 CB 53.69 CG 57.45 OD1 54.71 ND2 66.81
G SER - 97 360.0 118.8 N 88.1 CA 87.81 C 85.11 O 87.22 CB 89.18 OG 89.34
G ASN - 62 -99.1 129.6 N 77.61 CA 65.85 C 54.15 O 52.15 CB 69.02 CG 69.4 OD1 70.11 ND2 69.92
G VAL - 4 177.0 154.3 N 41.21 CA 32.96 C 28.78 O 33.93 CB 31.21 CG1 34.26 CG2 28.5
G VAL E 3 -129.2 129.2 N 23.33 CA 18.14 C 21.71 O 24.63 CB 13.42 CG1 10.77 CG2 6.76
G ALA E 1 -142.1 153.2 N 22.46 CA 21.68 C 21.84 O 23.83 CB 12.7
G VAL E 4 -117.3 132.6 N 22.56 CA 24.93 C 32.98 O 36.17 CB 18.56 CG1 11.78 CG2 12.65
G GLU E 0 -127.9 147.5 N 36.66 CA 37.14 C 36.04 O 29.82 CB 39.5 CG 44.97 CD 49.16 OE1 51.02 OE2 53.94
G PHE E 2 -120.0 110.9 N 37.53 CA 40.9 C 45.97 O 43.74 CB 39.09 CG 39.43 CD1 36.95 CD2 37.49 CE1 32.66 CE2 36.17 CZ 35.08
G ASP E 0 -104.5 123.8 N 50.65 CA 48.34 C 49.17 O 47.54 CB 44.03 CG 48.0 OD1 51.17 OD2 48.22
G THR - 5 -102.0 -30.6 N 51.92 CA 58.24 C 61.66 O 62.03 CB 59.96 OG1 60.75 CG2 59.95
G TYR S 90 -106.7 130.4 N 65.94 CA 67.12 C 63.53 O 56.47 CB 76.62 CG 85.4 CD1 91.8 CD2 87.68 CE1 97.17 CE2 93.27 CZ 96.55 OH 96.52
G LEU - 66 -85.4 132.6 N 61.27 CA 59.49 C 61.21 O 61.57 CB 52.03 CG 48.42 CD1 48.89 CD2 47.4
G ASN - 16 -132.5 83.1 N 62.58 CA 65.68 C 70.06 O 71.77 CB 65.12 CG 68.47 OD1 73.04 ND2 70.31
G PRO G 102 -54.1 -31.1 N 71.88 CA 71.14 C 70.72 O 69.25 CB 71.2 CG 70.51 CD 70.69
G ASP G 111 -71.4 -20.2 N 71.71 CA 76.39 C 75.81 O 75.59 CB 82.55 CG 87.96 OD1 86.47 OD2 90.93
G TYR G 54 -97.2 -5.9 N 74.41 CA 70.21 C 66.5 O 67.81 CB 70.23 CG 70.9 CD1 73.16 CD2 70.28 CE1 76.39 CE2 73.02 CZ 75.75 OH 75.21
G GLY T 40 107.7 -23.7 N 62.02 CA 56.18 C 53.57 O 48.86
G ASP - 9 -45.5 125.9 N 54.74 CA 58.12 C 58.47 O 60.23 CB 57.18 CG 60.24 OD1 62.41 OD2 57.06
G PRO - 30 -66.1 176.2 N 58.63 CA 62.27 C 68.01 O 67.76 CB 59.92 CG 56.91 CD 58.73
G ASN S 144 -87.2 65.8 N 76.54 CA 84.84 C 83.85 O 85.21 CB 94.11 CG 0.74 OD1 0.72 ND2 0.53
G TYR S 89 172.3 149.5 N 80.52 CA 77.39 C 74.6 O 75.66 CB 77.11 CG 73.27 CD1 73.7 CD2 72.98 CE1 76.19 CE2 74.4 CZ 75.78 OH 73.14
G ILE - 60 -50.8 122.4 N 69.47 CA 63.3 C 58.13 O 55.37 CB 65.98 CG1 65.9 CG2 69.7 CD1 71.2
G HIS E 1 -138.8 164.1 N 53.74 CA 50.78 C 51.07 O 53.64 CB 47.52 CG 45.04 ND1 40.29 CD2 46.1 CE1 42.82 NE2 41.01
G ILE E 1 -118.1 137.8 N 46.05 CA 40.96 C 40.03 O 40.57 CB 37.14 CG1 33.16 CG2 41.94 CD1 32.81
G GLY E 0 -136.8 155.4 N 38.73 CA 35.1 C 33.11 O 35.67
G ILE E 0 -109.8 127.1 N 28.06 CA 25.28 C 25.44 O 28.44 CB 22.64 CG1 28.06 CG2 23.25 CD1 36.21
G ASP E 0 -124.8 135.8 N 26.89 CA 31.3 C 36.75 O 41.71 CB 29.36 CG 32.65 OD1 32.94 OD2 31.06
G VAL E 16 -126.1 102.6 N 38.25 CA 36.88 C 42.76 O 44.81 CB 33.25 CG1 33.11 CG2 20.64
G ASN S 70 67.6 3.5 N 49.64 CA 54.84 C 55.84 O 58.87 CB 60.62 CG 65.36 OD1 73.23 ND2 60.41
G SER S 14 -160.4 146.0 N 55.37 CA 57.75 C 55.7 O 56.72 CB 61.75 OG 69.76
G ILE S 1 -64.2 -10.1 N 51.9 CA 52.1 C 52.64 O 52.76 CB 52.54 CG1 57.2 CG2 53.37 CD1 58.76
G ARG S 106 -81.7 89.7 N 54.46 CA 58.29 C 53.67 O 53.26 CB 70.04 CG 86.22 CD 94.91 NE 99.05 CZ 99.4 NH1 0.06 NH2 98.57
G SER - 31 -48.0 137.2 N 48.88 CA 48.52 C 46.6 O 48.39 CB 51.45 OG 53.18
G LYS S 111 -77.8 -37.1 N 43.21 CA 41.04 C 40.46 O 44.51 CB 37.36 CG 44.72 CD 53.61 CE 59.73 NZ 61.6
G VAL E 43 -142.0 150.7 N 39.61 CA 43.17 C 43.02 O 43.11 CB 45.5 CG1 51.01 CG2 51.82
G THR E 52 -146.2 149.6 N 43.25 CA 42.47 C 42.13 O 46.11 CB 41.9 OG1 52.99 CG2 45.15
G ALA E 20 -139.8 146.2 N 41.65 CA 46.23 C 49.42 O 49.88 CB 48.22
G LYS E 125 -64.9 122.4 N 51.22 CA 52.16 C 49.69 O 49.37 CB 59.2 CG 69.96 CD 73.3 CE 76.01 NZ 79.71
G TRP - 5 -114.5 124.6 N 45.03 CA 44.04 C 45.74 O 46.5 CB 39.7 CG 33.55 CD1 33.44 CD2 27.84 NE1 31.02 CE2 28.12 CE3 28.19 CZ2 27.23 CZ3 30.21 CH2 28.31
G ASP - 115 -86.1 74.5 N 46.98 CA 52.36 C 50.14 O 51.27 CB 63.96 CG 75.78 OD1 79.53 OD2 79.47
G TRP - 58 -47.8 158.6 N 48.68 CA 52.06 C 53.71 O 58.84 CB 53.56 CG 53.96 CD1 56.68 CD2 55.31 NE1 56.64 CE2 57.08 CE3 58.52 CZ2 59.09 CZ3 62.29 CH2 59.6
G GLN - 87 -150.9 105.2 N 52.79 CA 54.25 C 56.46 O 60.19 CB 51.9 CG 60.15 CD 68.02 OE1 68.45 NE2 72.28
G ASN T 78 -55.1 136.1 N 59.63 CA 60.21 C 59.59 O 59.1 CB 61.57 CG 61.5 OD1 60.35 ND2 65.31
G GLY T 37 86.5 -41.5 N 57.34 CA 58.83 C 58.42 O 60.7
G LYS S 35 -76.8 172.9 N 55.89 CA 50.15 C 49.05 O 45.25 CB 43.52
G ILE - 67 -117.5 146.8 N 51.61 CA 54.99 C 50.71 O 51.83 CB 60.15 CG1 68.77 CG2 62.03 CD1 76.56
G ALA E 0 -115.7 148.6 N 45.42 CA 43.51 C 44.45 O 48.21 CB 43.93
G THR E 24 -120.0 131.5 N 41.19 CA 36.04 C 32.3 O 33.88 CB 38.72 OG1 46.38 CG2 37.88
G ALA E 0 -133.7 139.2 N 30.32 CA 26.4 C 22.13 O 24.23 CB 26.34
G HIS E 4 -121.6 137.2 N 14.57 CA 18.38 C 21.1 O 26.39 CB 21.86 CG 29.01 ND1 33.23 CD2 32.22 CE1 34.57 NE2 34.93
G ILE E 0 -130.5 134.7 N 20.72 CA 18.89 C 21.34 O 22.67 CB 14.74 CG1 11.62 CG2 16.87 CD1 21.79
G SER E 7 -137.7 144.1 N 21.95 CA 23.27 C 26.63 O 32.08 CB 23.07 OG 31.81
G TYR E 5 -134.5 150.6 N 30.67 CA 29.12 C 27.55 O 28.09 CB 26.56 CG 31.41 CD1 31.74 CD2 32.65 CE1 29.64 CE2 33.49 CZ 32.49 OH 44.03
G ASN E 16 -149.7 116.4 N 23.6 CA 23.31 C 26.6 O 29.88 CB 22.11 CG 26.22 OD1 28.85 ND2 31.49
G SER T 9 -60.4 -19.5 N 27.59 CA 25.96 C 24.66 O 30.87 CB 31.08 OG 34.72
G VAL T 17 -90.8 -46.6 N 18.93 CA 18.45 C 23.0 O 28.38 CB 17.14 CG1 15.38 CG2 15.85
G SER T 6 -78.7 7.1 N 24.93 CA 28.81 C 28.1 O 27.31 CB 33.04 OG 37.52
G LYS T 89 34.4 41.0 N 29.01 CA 31.04 C 29.12 O 33.28 CB 35.85 CG 49.83 CD 62.08 CE 71.62 NZ 75.78
G ARG E 36 -129.6 143.6 N 26.88 CA 29.88 C 28.9 O 34.99 CB 36.05 CG 52.53 CD 64.49 NE 73.76 CZ 78.09 NH1 82.91 NH2 78.67
G LEU E 4 -122.3 130.8 N 22.35 CA 18.03 C 18.08 O 26.64 CB 10.98 CG 12.57 CD1 9.84 CD2 16.29
G SER E 4 -134.9 148.6 N 19.18 CA 22.44 C 21.56 O 22.0 CB 27.07 OG 32.98
G VAL E 1 -132.2 142.9 N 21.51 CA 20.26 C 20.38 O 28.62 CB 14.47 CG1 14.68 CG2 16.76
G THR E 3 -143.6 132.5 N 19.23 CA 19.02 C 20.83 O 24.18 CB 17.53 OG1 13.95 CG2 22.17
G SER E 2 -138.8 126.8 N 23.22 CA 26.04 C 31.23 O 38.95 CB 16.77 OG 16.09
G TYR E 21 -122.3 -179.8 N 34.25 CA 39.03 C 40.3 O 38.2 CB 41.68 CG 45.59 CD1 51.42 CD2 49.28 CE1 56.12 CE2 52.52 CZ 54.91 OH 55.03
G TYR - 7 -131.4 21.3 N 39.03 CA 37.52 C 42.5 O 49.83 CB 33.16 CG 26.27 CD1 24.58 CD2 30.1 CE1 32.48 CE2 28.33 CZ 31.88 OH 32.64
G ALA S 75 63.3 91.6 N 44.8 CA 47.81 C 51.28 O 52.77 CB 38.28
G GLY S 74 112.3 -29.6 N 58.41 CA 65.82 C 69.13 O 71.01
G SER S 48 -107.1 -178.8 N 69.44 CA 69.78 C 67.05 O 66.02 CB 71.87 OG 81.15
G LYS - 189 -79.6 147.3 N 64.39 CA 58.47 C 49.83 O 46.0 CB 69.33 CG 83.21 CD 93.65 CE 98.49 NZ 99.02
G PRO - 49 -80.7 177.7 N 43.53 CA 38.91 C 37.24 O 39.08 CB 39.31 CG 41.57 CD 41.85
G ALA E 12 -129.0 135.4 N 38.58 CA 40.91 C 39.75 O 43.32 CB 43.26
G THR E 81 -131.0 139.0 N 37.56 CA 38.94 C 39.49 O 45.32 CB 41.46 OG1 48.34 CG2 40.55
G LEU E 16 -142.3 134.9 N 38.41 CA 38.32 C 36.68 O 35.69 CB 40.26 CG 45.15 CD1 47.34 CD2 45.35
G SER E 33 -136.0 139.9 N 38.23 CA 42.66 C 44.92 O 57.17 CB 42.99 OG 49.64
G TYR E 61 -140.1 134.9 N 42.01 CA 43.61 C 46.13 O 53.06 CB 42.87 CG 47.94 CD1 52.57 CD2 51.76 CE1 58.97 CE2 59.77 CZ 62.66 OH 68.29
G ASP E 76 -84.9 121.5 N 46.76 CA 45.8 C 44.43 O 47.71 CB 48.35 CG 54.78 OD1 61.45 OD2 53.46
G ILE - 16 -143.0 167.6 N 41.29 CA 40.64 C 41.27 O 40.25 CB 39.19 CG1 44.69 CG2 34.17 CD1 55.37
G GLU - 82 -126.3 69.3 N 42.73 CA 45.02 C 41.96 O 46.39 CB 52.04 CG 62.73 CD 69.53 OE1 72.81 OE2 71.61
G LEU G 1 -24.5 -42.6 N 36.01 CA 36.49 C 40.37 O 38.3 CB 31.96 CG 28.99 CD1 31.84 CD2 32.28
G HIS G 51 -68.7 5.5 N 45.72 CA 50.3 C 49.94 O 53.27 CB 55.89 CG 58.56 ND1 61.42 CD2 58.86 CE1 66.61 NE2 64.75
G THR G 96 -105.8 -22.7 N 48.24 CA 46.31 C 45.78 O 47.97 CB 45.85 OG1 47.77 CG2 45.48
G VAL T 23 -95.3 -38.7 N 42.19 CA 39.61 C 39.06 O 38.91 CB 40.37 CG1 45.07 CG2 43.5
G LEU S 8 -113.2 160.5 N 37.8 CA 35.45 C 38.27 O 42.67 CB 29.54 CG 29.42 CD1 29.44 CD2 24.45
G PRO - 54 -74.2 -174.4 N 36.39 CA 40.29 C 45.15 O 47.5 CB 39.7 CG 38.06 CD 32.31
G GLU S 72 -77.0 -21.5 N 48.1 CA 47.95 C 45.03 O 41.45 CB 52.43 CG 61.68 CD 67.19 OE1 70.35 OE2 70.59
G TRP E 22 -125.8 128.3 N 42.34 CA 41.16 C 39.59 O 42.29 CB 46.24 CG 47.23 CD1 46.16 CD2 47.69 NE1 43.33 CE2 45.49 CE3 51.56 CZ2 50.58 CZ3 54.33 CH2 52.11
G VAL E 0 -137.1 164.0 N 39.06 CA 40.57 C 39.6 O 45.44 CB 43.0 CG1 44.7 CG2 45.58
G ARG E 46 -126.8 148.4 N 38.6 CA 39.15 C 35.6 O 33.83 CB 42.7 CG 56.25 CD 60.69 NE 60.61 CZ 60.54 NH1 61.33 NH2 63.71
G VAL E 6 -114.7 138.6 N 32.71 CA 30.01 C 30.21 O 34.34 CB 27.23 CG1 23.45 CG2 31.25
G GLY E 0 -145.8 168.5 N 29.35 CA 30.45 C 30.56 O 29.24
G LEU E 2 -118.7 138.8 N 31.53 CA 35.37 C 41.16 O 44.49 CB 30.45 CG 28.03 CD1 26.89 CD2 26.67
G SER E 0 -139.4 141.0 N 43.33 CA 41.22 C 39.67 O 38.39 CB 39.8 OG 41.59
G ALA E 0 -141.9 147.4 N 40.13 CA 46.92 C 51.22 O 54.02 CB 48.51
G SER E 0 -149.3 165.4 N 55.08 CA 56.46 C 57.3 O 57.25 CB 58.42 OG 52.13
G THR - 0 -142.9 173.5 N 58.81 CA 62.5 C 71.07 O 73.92 CB 55.66 OG1 50.58 CG2 52.58
G GLY S 6 -149.2 -128.7 N 77.33 CA 82.51 C 84.3 O 85.15
G GLN S 187 -55.6 -35.1 N 85.31 CA 86.69 C 81.49 O 79.49 CB 95.19 CG 0.14 CD 0.93 OE1 0.71 NE2 0.64
G ASP S 40 -106.2 150.3 N 77.7 CA 78.43 C 76.71 O 75.51 CB 80.68 CG 83.81 OD1 82.23 OD2 86.72
G LYS - 6 -114.0 172.9 N 74.17 CA 70.02 C 69.41 O 69.08 CB 66.29
G GLU - 0 -176.9 149.6 N 68.54 CA 63.63 C 62.26 O 60.21 CB 61.94 CG 63.69 CD 62.99 OE1 63.27 OE2 62.45
G ARG E 58 -83.5 129.5 N 61.02 CA 60.34 C 61.56 O 61.65 CB 59.73 CG 60.64 CD 65.11 NE 68.66 CZ 71.44 NH1 68.81 NH2 72.94
G ASN E 0 -113.8 101.0 N 60.57 CA 55.82 C 51.82 O 49.62 CB 59.38 CG 60.86 OD1 62.75 ND2 62.59
G THR E 2 -127.6 144.9 N 44.68 CA 39.48 C 39.13 O 37.58 CB 35.07 OG1 38.67 CG2 31.2
G VAL E 1 -123.3 140.1 N 37.65 CA 29.46 C 32.52 O 36.59 CB 21.93 CG1 13.21 CG2 21.58
G HIS E 54 -113.4 -151.9 N 34.61 CA 36.12 C 39.56 O 49.55 CB 38.73 CG 42.26 ND1 44.52 CD2 41.59 CE1 43.13 NE2 42.4
G SER E 28 -63.2 144.1 N 37.04 CA 37.19 C 32.65 O 36.51 CB 46.49 OG 49.13
G TRP E 0 -129.3 128.3 N 28.14 CA 26.06 C 28.83 O 30.69 CB 17.12 CG 7.83 CD1 7.1 CD2 2.0 NE1 4.67 CE2 2.0 CE3 2.0 CZ2 2.0 CZ3 2.0 CH2 2.0
G SER E 33 -132.2 131.5 N 29.92 CA 32.79 C 32.19 O 38.13 CB 33.54 OG 49.47
G PHE E 1 -138.7 138.4 N 27.04 CA 25.04 C 23.75 O 31.18 CB 24.1 CG 28.13 CD1 26.22 CD2 32.34 CE1 31.54 CE2 28.53 CZ 25.5
G THR E 55 -143.8 140.0 N 21.26 CA 21.3 C 22.51 O 22.35 CB 21.26 OG1 18.38 CG2 29.34
G SER E 3 -139.0 145.9 N 26.99 CA 28.2 C 28.99 O 33.6 CB 24.37 OG 39.54
G SER E 29 -137.6 144.7 N 29.04 CA 30.54 C 32.1 O 38.64 CB 33.48 OG 46.42
G LEU E 4 -136.4 138.4 N 32.55 CA 28.07 C 29.78 O 33.34 CB 24.69 CG 24.72 CD1 24.96 CD2 28.95
G TRP E 94 -128.7 133.4 N 31.89 CA 34.58 C 36.97 O 39.66 CB 36.14 CG 41.82 CD1 47.35 CD2 44.77 NE1 43.51 CE2 49.42 CE3 48.53 CZ2 57.43 CZ3 56.21 CH2 60.58
G THR E 35 -112.8 -170.4 N 40.78 CA 44.23 C 47.0 O 46.11 CB 45.55 OG1 54.12 CG2 44.35
G ASN - 71 -142.3 360.0 N 51.66 CA 54.02 C 55.25 O 56.67 CB 53.69 CG 57.45 OD1 54.71 ND2 66.81
H SER - 94 360.0 118.7 N 88.1 CA 87.81 C 85.11 O 87.22 CB 89.18 OG 89.34
H ASN - 62 -99.0 129.6 N 77.61 CA 65.85 C 54.15 O 52.15 CB 69.02 CG 69.4 OD1 70.11 ND2 69.92
H VAL - 4 176.9 154.3 N 41.21 CA 32.96 C 28.78 O 33.93 CB 31.21 CG1 34.26 CG2 28.5
H VAL E 3 -129.2 129.2 N 23.33 CA 18.14 C 21.71 O 24.63 CB 13.42 CG1 10.77 CG2 6.76
H ALA E 2 -142.2 153.2 N 22.46 CA 21.68 C 21.84 O 23.83 CB 12.7
H VAL E 3 -117.3 132.6 N 22.56 CA 24.93 C 32.98 O 36.17 CB 18.56 CG1 11.78 CG2 12.65
H GLU E 0 -127.9 147.5 N 36.66 CA 37.14 C 36.04 O 29.82 CB 39.5 CG 44.97 CD 49.16 OE1 51.02 OE2 53.94
H PHE E 2 -120.0 111.0 N 37.53 CA 40.9 C 45.97 O 43.74 CB 39.09 CG 39.43 CD1 36.95 CD2 37.49 CE1 32.66 CE2 36.17 CZ 35.08
H ASP E 0 -104.5 123.8 N 50.65 CA 48.34 C 49.17 O 47.54 CB 44.03 CG 48.0 OD1 51.17 OD2 48.22
H THR - 6 -102.1 -30.6 N 51.92 CA 58.24 C 61.66 O 62.03 CB 59.96 OG1 60.75 CG2 59.95
H TYR S 90 -106.8 130.4 N 65.94 CA 67.12 C 63.53 O 56.47 CB 76.62 CG 85.4 CD1 91.8 CD2 87.68 CE1 97.17 CE2 93.27 CZ 96.55 OH 96.52
H LEU - 65 -85.4 132.7 N 61.27 CA 59.49 C 61.21 O 61.57 CB 52.03 CG 48.42 CD1 48.89 CD2 47.4
H ASN - 15 -132.5 83.1 N 62.58 CA 65.68 C 70.06 O 71.77 CB 65.12 CG 68.47 OD1 73.04 ND2 70.31
H PRO G 103 -54.1 -31.1 N 71.88 CA 71.14 C 70.72 O 69.25 CB 71.2 CG 70.51 CD 70.69
H ASP G 110 -71.5 -20.1 N 71.71 CA 76.39 C 75.81 O 75.59 CB 82.55 CG 87.96 OD1 86.47 OD2 90.93
H TYR G 55 -97.2 -5.9 N 74.41 CA 70.21 C 66.5 O 67.81 CB 70.23 CG 70.9 CD1 73.16 CD2 70.28 CE1 76.39 CE2 73.02 CZ 75.75 OH 75.21
H GLY T 43 107.7 -23.7 N 62.02 CA 56.18 C 53.57 O 48.86
H ASP - 6 -45.5 125.8 N 54.74 CA 58.12 C 58.47 O 60.23 CB 57.18 CG 60.24 OD1 62.41 OD2 57.06
H PRO - 30 -66.0 176.1 N 58.63 CA 62.27 C 68.01 O 67.76 CB 59.92 CG 56.91 CD 58.73
H ASN S 144 -87.1 65.8 N 76.54 CA 84.84 C 83.85 O 85.21 CB 94.11 CG 0.74 OD1 0.72 ND2 0.53
H TYR S 86 172.3 149.5 N 80.52 CA 77.39 C 74.6 O 75.66 CB 77.11 CG 73.27 CD1 73.7 CD2 72.98 CE1 76.19 CE2 74.4 CZ 75.78 OH 73.14
H ILE - 58 -50.9 122.4 N 69.47 CA 63.3 C 58.13 O 55.37 CB 65.98 CG1 65.9 CG2 69.7 CD1 71.2
H HIS E 1 -138.8 164.1 N 53.74 CA 50.78 C 51.07 O 53.64 CB 47.52 CG 45.04 ND1 40.29 CD2 46.1 CE1 42.82 NE2 41.01
H ILE E 1 -118.2 137.9 N 46.05 CA 40.96 C 40.03 O 40.57 CB 37.14 CG1 33.16 CG2 41.94 CD1 32.81
H GLY E 0 -136.8 155.4 N 38.73 CA 35.1 C 33.11 O 35.67
H ILE E 0 -109.8 127.1 N 28.06 CA 25.28 C 25.44 O 28.44 CB 22.64 CG1 28.06 CG2 23.25 CD1 36.21
H ASP E 0 -124.9 135.8 N 26.89 CA 31.3 C 36.75 O 41.71 CB 29.36 CG 32.65 OD1 32.94 OD2 31.06
H VAL E 16 -126.1 102.6 N 38.25 CA 36.88 C 42.76 O 44.81 CB 33.25 CG1 33.11 CG2 20.64
H ASN S 70 67.6 3.4 N 49.64 CA 54.84 C 55.84 O 58.87 CB 60.62 CG 65.36 OD1 73.23 ND2 60.41
H SER S 14 -160.4 146.0 N 55.37 CA 57.75 C 55.7 O 56.72 CB 61.75 OG 69.76
H ILE S 2 -64.3 -10.1 N 51.9 CA 52.1 C 52.64 O 52.76 CB 52.54 CG1 57.2 CG2 53.37 CD1 58.76
H ARG S 106 -81.7 89.7 N 54.46 CA 58.29 C 53.67 O 53.26 CB 70.04 CG 86.22 CD 94.91 NE 99.05 CZ 99.4 NH1 0.06 NH2 98.57
H SER - 30 -48.0 137.2 N 48.88 CA 48.52 C 46.6 O 48.39 CB 51.45 OG 53.18
H LYS S 114 -77.7 -37.1 N 43.21 CA 41.04 C 40.46 O 44.51 CB 37.36 CG 44.72 CD 53.61 CE 59.73 NZ 61.6
H VAL E 43 -142.1 150.7 N 39.61 CA 43.17 C 43.02 O 43.11 CB 45.5 CG1 51.01 CG2 51.82
H THR E 52 -146.2 149.6 N 43.25 CA 42.47 C 42.13 O 46.11 CB 41.9 OG1 52.99 CG2 45.15
H ALA E 20 -139.7 146.1 N 41.65 CA 46.23 C 49.42 O 49.88 CB 48.22
H LYS E 124 -64.9 122.4 N 51.22 CA 52.16 C 49.69 O 49.37 CB 59.2 CG 69.96 CD 73.3 CE 76.01 NZ 79.71
H TRP - 6 -114.5 124.6 N 45.03 CA 44.04 C 45.74 O 46.5 CB 39.7 CG 33.55 CD1 33.44 CD2 27.84 NE1 31.02 CE2 28.12 CE3 28.19 CZ2 27.23 CZ3 30.21 CH2 28.31
H ASP - 113 -86.1 74.4 N 46.98 CA 52.36 C 50.14 O 51.27 CB 63.96 CG 75.78 OD1 79.53 OD2 79.47
H TRP - 58 -47.7 158.6 N 48.68 CA 52.06 C 53.71 O 58.84 CB 53.56 CG 53.96 CD1 56.68 CD2 55.31 NE1 56.64 CE2 57.08 CE3 58.52 CZ2 59.09 CZ3 62.29 CH2 59.6
H GLN - 88 -150.9 105.3 N 52.79 CA 54.25 C 56.46 O 60.19 CB 51.9 CG 60.15 CD 68.02 OE1 68.45 NE2 72.28
H ASN T 77 -55.2 136.1 N 59.63 CA 60.21 C 59.59 O 59.1 CB 61.57 CG 61.5 OD1 60.35 ND2 65.31
H GLY T 40 86.5 -41.5 N 57.34 CA 58.83 C 58.42 O 60.7
H LYS S 34 -76.7 172.9 N 55.89 CA 50.15 C 49.05 O 45.25 CB 43.52
H ILE - 68 -117.4 146.9 N 51.61 CA 54.99 C 50.71 O 51.83 CB 60.15 CG1 68.77 CG2 62.03 CD1 76.56
H ALA E 0 -115.8 148.6 N 45.42 CA 43.51 C 44.45 O 48.21 CB 43.93
H THR E 24 -120.1 131.4 N 41.19 CA 36.04 C 32.3 O 33.88 CB 38.72 OG1 46.38 CG2 37.88
H ALA E 0 -133.7 139.2 N 30.32 CA 26.4 C 22.13 O 24.23 CB 26.34
H HIS E 7 -121.6 137.2 N 14.57 CA 18.38 C 21.1 O 26.39 CB 21.86 CG 29.01 ND1 33.23 CD2 32.22 CE1 34.57 NE2 34.93
H ILE E 1 -130.5 134.5 N 20.72 CA 18.89 C 21.34 O 22.67 CB 14.74 CG1 11.62 CG2 16.87 CD1 21.79
H SER E 9 -137.7 144.2 N 21.95 CA 23.27 C 26.63 O 32.08 CB 23.07 OG 31.81
H TYR E 4 -134.5 150.5 N 30.67 CA 29.12 C 27.55 O 28.09 CB 26.56 CG 31.41 CD1 31.74 CD2 32.65 CE1 29.64 CE2 33.49 CZ 32.49 OH 44.03
H ASN E 16 -149.6 116.4 N 23.6 CA 23.31 C 26.6 O 29.88 CB 22.11 CG 26.22 OD1 28.85 ND2 31.49
H SER T 9 -60.4 -19.6 N 27.59 CA 25.96 C 24.66 O 30.87 CB 31.08 OG 34.72
H VAL T 17 -90.8 -46.6 N 18.93 CA 18.45 C 23.0 O 28.38 CB 17.14 CG1 15.38 CG2 15.85
H SER T 6 -78.7 7.1 N 24.93 CA 28.81 C 28.1 O 27.31 CB 33.04 OG 37.52
H LYS T 91 34.4 41.0 N 29.01 CA 31.04 C 29.12 O 33.28 CB 35.85 CG 49.83 CD 62.08 CE 71.62 NZ 75.78
H ARG E 38 -129.5 143.6 N 26.88 CA 29.88 C 28.9 O 34.99 CB 36.05 CG 52.53 CD 64.49 NE 73.76 CZ 78.09 NH1 82.91 NH2 78.67
H LEU E 4 -122.3 130.7 N 22.35 CA 18.03 C 18.08 O 26.64 CB 10.98 CG 12.57 CD1 9.84 CD2 16.29
H SER E 4 -134.9 148.6 N 19.18 CA 22.44 C 21.56 O 22.0 CB 27.07 OG 32.98
H VAL E 0 -132.1 143.0 N 21.51 CA 20.26 C 20.38 O 28.62 CB 14.47 CG1 14.68 CG2 16.76
H THR E 4 -143.7 132.5 N 19.23 CA 19.02 C 20.83 O 24.18 CB 17.53 OG1 13.95 CG2 22.17
H SER E 2 -138.7 126.8 N 23.22 CA 26.04 C 31.23 O 38.95 CB 16.77 OG 16.09
H TYR E 23 -122.4 -179.8 N 34.25 CA 39.03 C 40.3 O 38.2 CB 41.68 CG 45.59 CD1 51.42 CD2 49.28 CE1 56.12 CE2 52.52 CZ 54.91 OH 55.03
H TYR - 9 -131.3 21.3 N 39.03 CA 37.52 C 42.5 O 49.83 CB 33.16 CG 26.27 CD1 24.58 CD2 30.1 CE1 32.48 CE2 28.33 CZ 31.88 OH 32.64
H ALA S 75 63.3 91.6 N 44.8 CA 47.81 C 51.28 O 52.77 CB 38.28
H GLY S 72 112.4 -29.7 N 58.41 CA 65.82 C 69.13 O 71.01
H SER S 52 -107.1 -178.8 N 69.44 CA 69.78 C 67.05 O 66.02 CB 71.87 OG 81.15
H LYS - 188 -79.6 147.3 N 64.39 CA 58.47 C 49.83 O 46.0 CB 69.33 CG 83.21 CD 93.65 CE 98.49 NZ 99.02
H PRO - 46 -80.7 177.8 N 43.53 CA 38.91 C 37.24 O 39.08 CB 39.31 CG 41.57 CD 41.85
H ALA E 12 -129.0 135.3 N 38.58 CA 40.91 C 39.75 O 43.32 CB 43.26
H THR E 83 -131.0 139.0 N 37.56 CA 38.94 C 39.49 O 45.32 CB 41.46 OG1 48.34 CG2 40.55
H LEU E 16 -142.3 134.9 N 38.41 CA 38.32 C 36.68 O 35.69 CB 40.26 CG 45.15 CD1 47.34 CD2 45.35
H SER E 32 -135.9 139.9 N 38.23 CA 42.66 C 44.92 O 57.17 CB 42.99 OG 49.64
H TYR E 62 -140.1 134.9 N 42.01 CA 43.61 C 46.13 O 53.06 CB 42.87 CG 47.94 CD1 52.57 CD2 51.76 CE1 58.97 CE2 59.77 CZ 62.66 OH 68.29
H ASP E 74 -85.0 121.5 N 46.76 CA 45.8 C 44.43 O 47.71 CB 48.35 CG 54.78 OD1 61.45 OD2 53.46
H ILE - 16 -143.0 167.6 N 41.29 CA 40.64 C 41.27 O 40.25 CB 39.19 CG1 44.69 CG2 34.17 CD1 55.37
H GLU - 83 -126.3 69.4 N 42.73 CA 45.02 C 41.96 O 46.39 CB 52.04 CG 62.73 CD 69.53 OE1 72.81 OE2 71.61
H LEU G 1 -24.6 -42.6 N 36.01 CA 36.49 C 40.37 O 38.3 CB 31.96 CG 28.99 CD1 31.84 CD2 32.28
H HIS G 50 -68.7 5.4 N 45.72 CA 50.3 C 49.94 O 53.27 CB 55.89 CG 58.56 ND1 61.42 CD2 58.86 CE1 66.61 NE2 64.75
H THR G 99 -105.7 -22.8 N 48.24 CA 46.31 C 45.78 O 47.97 CB 45.85 OG1 47.77 CG2 45.48
H VAL T 23 -95.3 -38.7 N 42.19 CA 39.61 C 39.06 O 38.91 CB 40.37 CG1 45.07 CG2 43.5
H LEU S 9 -113.2 160.5 N 37.8 CA 35.45 C 38.27 O 42.67 CB 29.54 CG 29.42 CD1 29.44 CD2 24.45
H PRO - 53 -74.2 -174.4 N 36.39 CA 40.29 C 45.15 O 47.5 CB 39.7 CG 38.06 CD 32.31
H GLU S 70 -77.1 -21.5 N 48.1 CA 47.95 C 45.03 O 41.45 CB 52.43 CG 61.68 CD 67.19 OE1 70.35 OE2 70.59
H TRP E 22 -125.8 128.3 N 42.34 CA 41.16 C 39.59 O 42.29 CB 46.24 CG 47.23 CD1 46.16 CD2 47.69 NE1 43.33 CE2 45.49 CE3 51.56 CZ2 50.58 CZ3 54.33 CH2 52.11
H VAL E 0 -137.1 164.1 N 39.06 CA 40.57 C 39.6 O 45.44 CB 43.0 CG1 44.7 CG2 45.58
H ARG E 45 -126.7 148.3 N 38.6 CA 39.15 C 35.6 O 33.83 CB 42.7 CG 56.25 CD 60.69 NE 60.61 CZ 60.54 NH1 61.33 NH2 63.71
H VAL E 8 -114.7 138.7 N 32.71 CA 30.01 C 30.21 O 34.34 CB 27.23 CG1 23.45 CG2 31.25
H GLY E 0 -145.8 168.5 N 29.35 CA 30.45 C 30.56 O 29.24
H LEU E 2 -118.8 138.7 N 31.53 CA 35.37 C 41.16 O 44.49 CB 30.45 CG 28.03 CD1 26.89 CD2 26.67
H SER E 0 -139.4 141.1 N 43.33 CA 41.22 C 39.67 O 38.39 CB 39.8 OG 41.59
H ALA E 0 -141.9 147.4 N 40.13 CA 46.92 C 51.22 O 54.02 CB 48.51
H SER E 0 -149.3 165.4 N 55.08 CA 56.46 C 57.3 O 57.25 CB 58.42 OG 52.13
H THR - 0 -143.0 173.4 N 58.81 CA 62.5 C 71.07 O 73.92 CB 55.66 OG1 50.58 CG2 52.58
H GLY S 6 -149.1 -128.7 N 77.33 CA 82.51 C 84.3 O 85.15
H GLN S 186 -55.6 -35.2 N 85.31 CA 86.69 C 81.49 O 79.49 CB 95.19 CG 0.14 CD 0.93 OE1 0.71 NE2 0.64
H ASP S 40 -106.2 150.3 N 77.7 CA 78.43 C 76.71 O 75.51 CB 80.68 CG 83.81 OD1 82.23 OD2 86.72
H LYS - 6 -114.0 172.8 N 74.17 CA 70.02 C 69.41 O 69.08 CB 66.29
H GLU - 0 -176.9 149.6 N 68.54 CA 63.63 C 62.26 O 60.21 CB 61.94 CG 63.69 CD 62.99 OE1 63.27 OE2 62.45
H ARG E 59 -83.5 129.5 N 61.02 CA 60.34 C 61.56 O 61.65 CB 59.73 CG 60.64 CD 65.11 NE 68.66 CZ 71.44 NH1 68.81 NH2 72.94
H ASN E 0 -113.9 101.0 N 60.57 CA 55.82 C 51.82 O 49.62 CB 59.38 CG 60.86 OD1 62.75 ND2 62.59
H THR E 1 -127.6 144.9 N 44.68 CA 39.48 C 39.13 O 37.58 CB 35.07 OG1 38.67 CG2 31.2
H VAL E 0 -123.2 140.1 N 37.65 CA 29.46 C 32.52 O 36.59 CB 21.93 CG1 13.21 CG2 21.58
H HIS E 54 -113.4 -151.8 N 34.61 CA 36.12 C 39.56 O 49.55 CB 38.73 CG 42.26 ND1 44.52 CD2 41.59 CE1 43.13 NE2 42.4
H SER E 29 -63.2 144.2 N 37.04 CA 37.19 C 32.65 O 36.51 CB 46.49 OG 49.13
H TRP E 0 -129.3 128.3 N 28.14 CA 26.06 C 28.83 O 30.69 CB 17.12 CG 7.83 CD1 7.1 CD2 2.0 NE1 4.67 CE2 2.0 CE3 2.0 CZ2 2.0 CZ3 2.0 CH2 2.0
H SER E 34 -132.3 131.6 N 29.92 CA 32.79 C 32.19 O 38.13 CB 33.54 OG 49.47
H PHE E 1 -138.7 138.3 N 27.04 CA 25.04 C 23.75 O 31.18 CB 24.1 CG 28.13 CD1 26.22 CD2 32.34 CE1 31.54 CE2 28.53 CZ 25.5
H THR E 54 -143.7 139.9 N 21.26 CA 21.3 C 22.51 O 22.35 CB 21.26 OG1 18.38 CG2 29.34
H SER E 4 -139.0 145.8 N 26.99 CA 28.2 C 28.99 O 33.6 CB 24.37 OG 39.54
H SER E 27 -137.6 144.7 N 29.04 CA 30.54 C 32.1 O 38.64 CB 33.48 OG 46.42
H LEU E 3 -136.4 138.4 N 32.55 CA 28.07 C 29.78 O 33.34 CB 24.69 CG 24.72 CD1 24.96 CD2 28.95
H TRP E 95 -128.7 133.5 N 31.89 CA 34.58 C 36.97 O 39.66 CB 36.14 CG 41.82 CD1 47.35 CD2 44.77 NE1 43.51 CE2 49.42 CE3 48.53 CZ2 57.43 CZ3 56.21 CH2 60.58
H THR E 34 -112.9 -170.5 N 40.78 CA 44.23 C 47.0 O 46.11 CB 45.55 OG1 54.12 CG2 44.35
H ASN - 71 -142.4 360.0 N 51.66 CA 54.02 C 55.25 O 56.67 CB 53.69 CG 57.45 OD1 54.71 ND2 66.81
