A LYS - 155 360.0 19.2 N 42.32 CA 41.05 C 38.96 O 38.16 CB 42.71 CG 43.47 CD 43.95 CE 44.75 NZ 44.72
A HIS - 42 -134.1 66.4 N 37.36 CA 35.65 C 33.87 O 33.13 CB 35.83 CG 36.15 ND1 35.96 CD2 35.43 CE1 35.72 NE2 35.58
A PRO T 59 -54.5 -31.7 N 33.27 CA 33.12 C 33.16 O 33.75 CB 33.35 CG 33.97 CD 31.85
A SER T 6 -66.9 -25.8 N 32.34 CA 30.69 C 30.15 O 31.4 CB 29.39 OG 27.03
A GLY S 54 84.2 7.6 N 29.39 CA 28.67 C 27.49 O 28.33
A ILE - 41 -116.9 131.3 N 27.18 CA 25.41 C 23.59 O 24.66 CB 25.42 CG1 26.86 CG2 24.68 CD1 26.43
A VAL - 74 -111.1 116.3 N 22.81 CA 22.57 C 21.4 O 19.81 CB 23.19 CG1 21.65 CG2 24.29
A PRO - 3 -57.7 136.6 N 21.29 CA 19.92 C 19.54 O 19.53 CB 20.21 CG 19.65 CD 19.82
A THR E 81 -88.5 127.4 N 19.13 CA 18.93 C 18.43 O 18.52 CB 20.13 OG1 22.35 CG2 19.2
A LEU E 17 -73.5 129.0 N 17.59 CA 17.59 C 17.2 O 17.86 CB 17.92 CG 15.82 CD1 15.76 CD2 16.5
A GLN E 68 -113.0 -23.8 N 16.85 CA 17.29 C 16.41 O 17.73 CB 17.47 CG 16.96 CD 18.11 OE1 20.18 NE2 18.58
A ASN E 51 -159.4 141.1 N 16.3 CA 16.69 C 17.02 O 16.8 CB 15.75 CG 13.76 OD1 15.54 ND2 13.15
A ILE E 0 -130.7 133.6 N 16.78 CA 17.3 C 17.12 O 18.76 CB 16.08 CG1 16.91 CG2 14.76 CD1 16.66
A VAL E 32 -116.6 129.8 N 16.99 CA 16.27 C 17.04 O 18.39 CB 15.83 CG1 13.92 CG2 14.9
A SER E 0 -138.0 166.2 N 17.26 CA 18.58 C 19.38 O 18.12 CB 20.08 OG 20.0
A THR E 40 -136.7 155.8 N 20.48 CA 21.39 C 22.72 O 22.4 CB 22.21 OG1 22.37 CG2 21.84
A VAL E 4 -155.8 152.5 N 23.16 CA 23.15 C 24.19 O 23.62 CB 22.12 CG1 22.45 CG2 23.31
A ASN E 22 -106.1 114.9 N 26.08 CA 27.87 C 28.85 O 29.55 CB 27.73 CG 28.13 OD1 28.22 ND2 28.58
A LEU - 0 -68.8 -15.8 N 30.14 CA 31.74 C 33.38 O 33.38 CB 32.34 CG 32.36 CD1 32.44 CD2 32.89
A ASP - 84 65.0 36.6 N 34.88 CA 36.7 C 37.21 O 37.79 CB 38.82 CG 41.38 OD1 43.59 OD2 42.16
A CYS S 23 -166.9 146.0 N 37.2 CA 36.93 C 36.93 O 38.73 CB 36.79 SG 38.58
A LYS - 157 -67.8 136.6 N 35.47 CA 35.38 C 33.26 O 33.98 CB 37.77 CG 43.92 CD 47.14 CE 47.75 NZ 48.45
A LEU - 10 -114.3 144.8 N 30.09 CA 28.39 C 29.4 O 30.16 CB 25.23 CG 23.99 CD1 22.33 CD2 22.36
A ASP - 89 -96.2 100.6 N 30.03 CA 30.65 C 29.65 O 28.86 CB 32.67 CG 34.02 OD1 33.83 OD2 36.6
A LEU H 9 -59.3 -42.9 N 29.29 CA 28.49 C 29.69 O 27.6 CB 26.88 CG 25.87 CD1 24.54 CD2 25.39
A LYS H 99 -68.6 -34.6 N 32.53 CA 34.37 C 34.11 O 35.9 CB 36.38 CG 40.76 CD 41.88 CE 43.51 NZ 44.37
A ALA H 27 -64.1 -38.9 N 32.94 CA 32.22 C 32.4 O 33.08 CB 31.72
A ILE H 0 -67.9 -50.1 N 31.03 CA 29.85 C 28.92 O 27.9 CB 29.68 CG1 28.02 CG2 28.17 CD1 29.12
A ALA H 13 -57.8 -36.4 N 28.9 CA 29.61 C 30.85 O 30.45 CB 29.19
A LEU H 131 -75.0 -36.3 N 31.92 CA 33.01 C 33.48 O 32.94 CB 34.2 CG 34.99 CD1 35.42 CD2 34.56
A GLN H 114 -81.7 -44.1 N 33.75 CA 34.55 C 35.91 O 36.3 CB 33.93 CG 32.06 CD 31.47 OE1 31.2 NE2 31.08
A ALA - 17 -65.9 154.7 N 38.13 CA 40.02 C 42.58 O 44.41 CB 38.44
A ARG S 87 -76.1 -86.7 N 44.29 CA 45.73 C 46.11 O 47.06 CB 46.26
A ASN S 123 -85.5 65.9 N 46.47 CA 47.87 C 47.12 O 48.28 CB 50.29 CG 52.56 OD1 52.58 ND2 53.6
A ALA E 22 -130.3 127.6 N 44.71 CA 42.45 C 41.17 O 41.68 CB 40.88
A GLU E 79 -114.1 151.5 N 39.79 CA 38.79 C 36.96 O 34.27 CB 41.26 CG 44.76 CD 48.97 OE1 51.34 OE2 49.46
A TYR - 59 -158.9 104.9 N 35.37 CA 34.45 C 35.28 O 36.44 CB 31.97 CG 30.45 CD1 29.95 CD2 30.27 CE1 30.57 CE2 30.76 CZ 31.21 OH 32.05
A ASN - 72 -126.5 96.3 N 35.08 CA 34.51 C 33.21 O 30.65 CB 36.59 CG 39.48 OD1 40.92 ND2 41.53
A PRO T 69 -50.2 -37.6 N 33.42 CA 34.09 C 35.02 O 35.7 CB 33.2 CG 32.36 CD 33.13
A LYS T 191 -70.3 -13.5 N 36.33 CA 37.2 C 37.24 O 39.03 CB 39.01 CG 41.62 CD 44.54 CE 45.46 NZ 46.9
A ARG T 176 -103.2 -42.5 N 36.65 CA 35.67 C 33.37 O 32.45 CB 37.6 CG 40.2 CD 42.43 NE 43.73 CZ 45.52 NH1 45.1 NH2 45.18
A PHE - 100 -165.8 141.2 N 30.26 CA 28.18 C 27.08 O 27.43 CB 26.76 CG 24.63 CD1 24.15 CD2 24.57 CE1 24.42 CE2 24.1 CZ 24.24
A ALA S 65 -83.6 52.9 N 25.89 CA 25.54 C 24.58 O 25.36 CB 26.09
A ALA S 1 -152.2 148.5 N 23.35 CA 21.47 C 20.68 O 21.09 CB 21.2
A VAL E 0 -85.8 129.5 N 20.03 CA 19.41 C 19.83 O 19.02 CB 19.53 CG1 20.25 CG2 19.02
A ILE E 23 -103.6 120.2 N 19.64 CA 20.44 C 21.08 O 20.47 CB 20.54 CG1 22.35 CG2 20.51 CD1 24.68
A MET E 6 -129.4 150.6 N 20.81 CA 20.83 C 20.78 O 19.83 CB 22.5 CG 26.07 SD 30.38 CE 27.75
A ARG E 116 -133.1 144.9 N 20.39 CA 20.97 C 22.23 O 23.0 CB 20.84 CG 20.26 CD 21.54 NE 23.34 CZ 24.8 NH1 23.99 NH2 25.02
A ILE E 28 -123.3 154.9 N 21.76 CA 22.31 C 22.69 O 21.41 CB 22.96 CG1 21.48 CG2 21.9 CD1 22.14
A ARG E 211 -81.3 -32.1 N 22.85 CA 23.95 C 24.03 O 23.93 CB 26.22 CG 29.65 CD 33.09 NE 36.23 CZ 38.15 NH1 37.29 NH2 38.45
A GLU T 130 -141.7 114.6 N 24.11 CA 25.07 C 23.49 O 25.79 CB 29.57 CG 35.98 CD 41.69 OE1 43.55 OE2 44.13
A PRO T 14 -73.0 139.1 N 21.57 CA 20.14 C 19.0 O 19.52 CB 19.53 CG 20.84 CD 20.04
A LYS E 167 -56.6 110.8 N 18.68 CA 19.13 C 19.69 O 18.8 CB 19.81 CG 20.89 CD 22.78 CE 24.58 NZ 27.81
A THR E 6 -150.2 172.4 N 19.4 CA 18.7 C 18.17 O 19.52 CB 18.11 OG1 18.58 CG2 16.24
A THR E 31 -132.7 134.8 N 17.17 CA 16.77 C 16.21 O 17.09 CB 17.16 OG1 18.54 CG2 16.55
A ALA E 0 -115.5 143.6 N 16.58 CA 16.56 C 17.19 O 17.96 CB 14.82
A LEU E 38 -114.5 111.0 N 16.78 CA 17.51 C 18.2 O 18.75 CB 17.01 CG 16.77 CD1 17.5 CD2 17.43
A ILE E 0 -104.2 122.8 N 18.73 CA 18.55 C 18.81 O 18.42 CB 17.64 CG1 19.73 CG2 19.34 CD1 17.48
A PHE - 48 -105.0 156.8 N 19.38 CA 19.74 C 20.41 O 20.65 CB 19.07 CG 18.22 CD1 17.24 CD2 17.46 CE1 17.03 CE2 17.46 CZ 17.43
A ALA T 41 -58.6 -32.7 N 21.11 CA 21.58 C 22.59 O 23.94 CB 19.34
A SER T 50 -59.6 -26.1 N 24.05 CA 24.66 C 26.07 O 27.99 CB 24.81 OG 25.02
A GLY S 0 106.5 -9.5 N 25.04 CA 24.1 C 23.37 O 21.38
A LYS E 120 -76.3 152.7 N 23.26 CA 24.83 C 23.39 O 21.6 CB 26.38 CG 28.93 CD 30.57 CE 32.28 NZ 33.76
A MET E 2 -144.8 138.5 N 23.32 CA 22.28 C 20.76 O 20.68 CB 23.92 CG 25.48 SD 29.6 CE 28.48
A VAL E 32 -108.6 130.0 N 18.4 CA 18.15 C 18.34 O 18.37 CB 17.03 CG1 16.94 CG2 17.47
A CYS E 1 -112.8 125.5 N 16.45 CA 16.0 C 15.04 O 15.5 CB 18.49 SG 19.98
A THR E 37 -126.4 161.5 N 14.36 CA 15.32 C 15.74 O 16.87 CB 15.65 OG1 18.64 CG2 16.81
A GLY E 30 88.1 -11.1 N 15.93 CA 15.59 C 17.23 O 18.78
A ALA E 2 -66.8 157.6 N 17.75 CA 17.2 C 17.92 O 17.82 CB 16.79
A LYS S 108 -93.1 -8.3 N 19.36 CA 20.36 C 19.77 O 20.37 CB 20.98 CG 22.61 CD 24.22 CE 25.81 NZ 25.99
A SER S 18 -152.6 167.3 N 19.86 CA 20.92 C 21.35 O 23.18 CB 21.08 OG 22.78
A GLU H 36 -65.0 -42.6 N 21.82 CA 22.13 C 21.65 O 21.65 CB 23.05 CG 23.35 CD 23.29 OE1 22.79 OE2 25.73
A ASP H 116 -65.0 -44.7 N 22.87 CA 23.63 C 22.56 O 23.26 CB 25.51 CG 27.05 OD1 26.24 OD2 29.3
A PHE H 95 -59.7 -40.7 N 21.77 CA 20.78 C 20.17 O 19.7 CB 19.77 CG 20.57 CD1 20.9 CD2 20.58 CE1 20.38 CE2 20.72 CZ 20.32
A SER H 0 -63.2 -41.9 N 20.44 CA 20.27 C 20.73 O 19.66 CB 19.04 OG 18.59
A LYS H 97 -67.9 -41.3 N 21.83 CA 23.14 C 23.12 O 23.24 CB 24.54 CG 27.31 CD 30.05 CE 32.16 NZ 35.78
A MET H 87 -63.0 -46.4 N 23.69 CA 24.18 C 23.45 O 22.65 CB 26.41 CG 30.59 SD 37.76 CE 36.07
A ALA H 0 -59.0 -49.1 N 21.06 CA 19.92 C 20.55 O 21.88 CB 18.3
A ALA H 1 -56.8 -38.6 N 21.08 CA 21.37 C 22.04 O 19.89 CB 20.43
A ARG H 156 -65.5 -37.3 N 23.16 CA 26.11 C 26.5 O 27.01 CB 28.96 CG 35.47 CD 41.55 NE 47.73 CZ 49.82 NH1 51.19 NH2 51.07
A LYS H 101 -64.9 -42.1 N 27.01 CA 27.03 C 26.61 O 27.47 CB 27.38 CG 29.5 CD 31.96 CE 33.79 NZ 35.3
A TYR H 0 -65.0 -39.9 N 24.85 CA 23.22 C 23.94 O 24.58 CB 20.38 CG 19.47 CD1 18.52 CD2 18.72 CE1 18.42 CE2 17.83 CZ 18.01 OH 16.35
A ALA H 4 -60.6 -39.8 N 25.18 CA 25.63 C 26.76 O 27.45 CB 25.04
A ARG H 131 -68.4 -41.0 N 27.8 CA 29.35 C 28.27 O 29.41 CB 32.11 CG 38.41 CD 43.83 NE 48.35 CZ 49.84 NH1 50.58 NH2 51.15
A ILE H 54 -59.9 -47.8 N 26.12 CA 25.89 C 27.36 O 27.47 CB 24.71 CG1 23.88 CG2 23.09 CD1 22.08
A VAL H 0 -60.8 -38.2 N 28.13 CA 28.15 C 30.45 O 30.58 CB 26.4 CG1 25.46 CG2 25.77
A GLN H 59 -64.9 -49.3 N 31.72 CA 33.43 C 34.24 O 35.36 CB 34.18 CG 37.63 CD 39.87 OE1 41.27 NE2 40.89
A LYS H 171 -63.1 -20.3 N 34.71 CA 34.97 C 34.86 O 35.54 CB 37.03 CG 38.64 CD 40.46 CE 42.6 NZ 43.63
A LEU T 33 -78.9 -11.1 N 33.47 CA 32.49 C 32.89 O 35.7 CB 31.65 CG 31.11 CD1 30.39 CD2 30.12
A GLY T 63 116.1 2.6 N 32.64 CA 32.19 C 32.6 O 34.51
A PHE - 36 -103.9 134.8 N 32.07 CA 30.79 C 32.04 O 33.0 CB 27.58 CG 26.19 CD1 24.55 CD2 24.96 CE1 24.71 CE2 25.85 CZ 24.82
A PRO - 90 -75.0 65.0 N 33.95 CA 34.7 C 35.08 O 36.04 CB 34.84 CG 34.59 CD 34.36
A ALA - 1 -73.3 145.7 N 35.29 CA 35.11 C 35.91 O 37.39 CB 34.99
A LYS - 121 -115.6 -156.0 N 36.28 CA 35.3 C 34.11 O 33.97 CB 36.44 CG 39.77 CD 41.16 CE 41.68 NZ 41.97
A PHE - 62 -149.7 74.1 N 33.42 CA 32.16 C 32.08 O 32.96 CB 30.3 CG 29.26 CD1 28.78 CD2 27.77 CE1 28.44 CE2 27.57 CZ 27.29
A LYS E 82 -100.0 142.9 N 31.57 CA 32.89 C 32.94 O 33.23 CB 33.66 CG 35.35 CD 37.32 CE 38.31 NZ 39.87
A ASP E 110 52.2 36.3 N 32.57 CA 31.77 C 30.0 O 29.94 CB 33.44 CG 36.68 OD1 38.13 OD2 37.58
A PHE E 46 -55.1 134.0 N 29.82 CA 28.11 C 28.25 O 27.82 CB 27.05 CG 26.55 CD1 25.71 CD2 24.66 CE1 24.51 CE2 24.99 CZ 25.86
A LYS E 91 -151.6 136.3 N 25.82 CA 25.14 C 23.75 O 24.68 CB 26.14 CG 29.65 CD 32.77 CE 34.52 NZ 37.47
A ILE E 29 -77.9 123.1 N 23.08 CA 22.4 C 21.84 O 19.94 CB 22.64 CG1 21.98 CG2 20.96 CD1 23.25
A GLN E 51 -102.1 -31.0 N 20.83 CA 19.94 C 20.32 O 20.77 CB 21.12 CG 20.86 CD 24.13 OE1 24.56 NE2 21.27
A ASN E 39 -156.5 141.4 N 19.12 CA 18.2 C 18.08 O 17.97 CB 18.25 CG 18.89 OD1 18.37 ND2 16.75
A ILE E 0 -129.4 126.0 N 18.19 CA 17.61 C 16.41 O 17.22 CB 17.61 CG1 17.27 CG2 18.59 CD1 18.97
A VAL E 27 -112.6 126.1 N 15.57 CA 14.91 C 14.94 O 16.13 CB 14.46 CG1 12.44 CG2 13.58
A GLY E 0 -127.2 164.3 N 14.71 CA 14.57 C 14.66 O 16.11
A SER E 32 -151.1 154.9 N 15.93 CA 17.14 C 17.71 O 17.38 CB 18.0 OG 18.79
A CYS E 16 -158.3 179.5 N 18.14 CA 20.57 C 20.87 O 19.95 CB 22.24 SG 28.09
A ASP E 45 -137.5 119.3 N 21.12 CA 22.18 C 22.33 O 24.02 CB 21.76 CG 22.53 OD1 22.95 OD2 23.05
A VAL - 8 -84.6 -4.8 N 22.54 CA 22.38 C 24.67 O 25.96 CB 21.07 CG1 19.36 CG2 19.6
A LYS S 175 63.2 28.6 N 26.15 CA 26.86 C 26.42 O 27.59 CB 29.02 CG 31.22 CD 34.09 CE 37.96 NZ 41.47
A PHE S 30 -152.6 147.8 N 24.72 CA 23.11 C 22.69 O 21.25 CB 22.12 CG 20.98 CD1 21.01 CD2 20.21 CE1 18.84 CE2 20.67 CZ 20.69
A PRO - 54 -71.3 154.4 N 22.36 CA 21.7 C 21.47 O 20.33 CB 22.03 CG 21.1 CD 21.94
A ILE B 0 -120.2 143.1 N 21.48 CA 19.98 C 20.35 O 21.52 CB 19.16 CG1 17.74 CG2 18.04 CD1 18.8
A ARG - 37 -92.5 89.6 N 20.54 CA 20.9 C 19.98 O 20.67 CB 21.15 CG 24.47 CD 26.87 NE 30.22 CZ 32.15 NH1 32.95 NH2 32.62
A LEU H 4 -58.5 -46.7 N 20.39 CA 20.66 C 20.82 O 20.6 CB 21.07 CG 21.57 CD1 20.31 CD2 20.46
A GLU H 149 -60.9 -42.7 N 21.78 CA 23.52 C 22.41 O 22.97 CB 26.66 CG 34.59 CD 38.91 OE1 41.02 OE2 42.37
A GLY H 15 -64.7 -44.3 N 22.33 CA 21.58 C 21.58 O 21.86
A LEU H 0 -61.7 -43.5 N 21.65 CA 21.79 C 22.12 O 23.32 CB 20.89 CG 22.4 CD1 22.84 CD2 21.74
A ALA H 14 -65.4 -43.1 N 22.01 CA 23.27 C 23.91 O 25.08 CB 23.06
A TYR H 164 -62.3 -38.4 N 26.48 CA 28.83 C 28.29 O 29.44 CB 32.41 CG 38.47 CD1 40.81 CD2 39.73 CE1 42.82 CE2 41.36 CZ 41.95 OH 44.02
A SER H 43 -81.7 -7.6 N 28.11 CA 28.01 C 27.28 O 26.74 CB 27.62 OG 28.62
A HIS T 35 -138.0 51.0 N 27.29 CA 26.15 C 26.46 O 26.34 CB 25.59 CG 25.26 ND1 24.83 CD2 25.27 CE1 27.52 NE2 26.57
A ALA T 78 -54.8 -37.7 N 26.82 CA 27.33 C 28.16 O 29.28 CB 27.72
A ALA T 97 -69.1 -15.9 N 28.84 CA 29.02 C 28.72 O 28.89 CB 29.7
A PHE T 68 -115.4 -26.9 N 28.14 CA 27.6 C 26.28 O 26.16 CB 27.99 CG 30.77 CD1 31.24 CD2 30.86 CE1 32.72 CE2 31.97 CZ 32.64
A SER E 16 -95.7 145.8 N 25.25 CA 23.8 C 23.27 O 23.07 CB 24.47 OG 26.21
A SER E 53 -133.2 113.8 N 22.85 CA 22.21 C 22.0 O 21.31 CB 22.94 OG 26.55
A TYR - 52 -132.6 104.4 N 21.68 CA 21.76 C 22.48 O 22.64 CB 21.29 CG 20.33 CD1 20.01 CD2 20.02 CE1 21.62 CE2 21.19 CZ 21.7 OH 21.0
A GLU - 135 -132.1 80.6 N 22.13 CA 23.09 C 22.36 O 21.61 CB 24.74 CG 29.64 CD 34.54 OE1 35.28 OE2 37.18
A PRO T 67 -52.0 -24.0 N 22.34 CA 22.1 C 23.11 O 22.75 CB 21.34 CG 21.46 CD 22.18
A GLU T 200 -75.3 -23.2 N 23.68 CA 24.63 C 24.41 O 24.59 CB 25.5 CG 27.54 CD 27.98 OE1 29.84 OE2 30.06
A LEU T 155 -95.7 -43.1 N 25.08 CA 25.57 C 23.97 O 23.42 CB 28.75 CG 31.94 CD1 33.04 CD2 33.34
A PHE - 91 -150.5 134.9 N 21.67 CA 19.91 C 18.66 O 18.07 CB 18.41 CG 17.88 CD1 17.32 CD2 15.89 CE1 16.94 CE2 15.9 CZ 15.42
A PRO S 86 -64.9 -22.4 N 18.48 CA 18.54 C 18.29 O 18.53 CB 18.76 CG 19.76 CD 17.18
A GLY S 1 -94.1 147.6 N 17.95 CA 17.67 C 17.38 O 17.01
A LEU E 0 -83.2 131.6 N 17.48 CA 16.96 C 16.34 O 15.75 CB 17.33 CG 16.77 CD1 16.97 CD2 15.87
A ILE E 30 -96.5 108.7 N 17.04 CA 16.67 C 16.29 O 16.97 CB 17.21 CG1 18.55 CG2 14.52 CD1 18.93
A TYR E 14 -102.0 110.5 N 16.91 CA 17.42 C 17.79 O 18.09 CB 17.44 CG 18.85 CD1 18.01 CD2 17.78 CE1 17.27 CE2 16.09 CZ 17.22 OH 20.46
A ARG E 130 -97.6 91.9 N 18.31 CA 20.33 C 20.15 O 20.41 CB 20.32 CG 22.06 CD 25.33 NE 27.05 CZ 28.64 NH1 30.08 NH2 28.6
A MET E 15 -72.7 140.9 N 20.07 CA 21.44 C 23.14 O 23.21 CB 21.45 CG 21.81 SD 22.67 CE 19.49
A LYS T 128 -92.5 -37.0 N 24.0 CA 25.58 C 24.6 O 23.5 CB 29.3 CG 33.18 CD 37.54 CE 39.55 NZ 39.08
A VAL T 117 -132.4 106.1 N 24.01 CA 23.77 C 22.35 O 23.87 CB 25.18 CG1 25.55 CG2 26.35
A PRO T 21 -77.7 165.7 N 21.8 CA 20.75 C 21.25 O 21.08 CB 20.51 CG 20.51 CD 19.89
A LYS T 155 -78.4 89.0 N 20.84 CA 20.63 C 20.46 O 20.3 CB 21.0 CG 22.34 CD 23.37 CE 24.96 NZ 27.49
A ILE E 2 -137.4 148.2 N 19.92 CA 19.02 C 18.76 O 17.85 CB 18.02 CG1 17.55 CG2 15.75 CD1 18.29
A VAL E 43 -109.0 130.4 N 17.25 CA 17.34 C 16.2 O 17.53 CB 17.26 CG1 17.34 CG2 17.73
A LEU E 0 -118.4 136.2 N 15.67 CA 16.37 C 16.12 O 17.06 CB 16.92 CG 17.53 CD1 17.11 CD2 18.19
A LEU E 35 -105.1 116.4 N 15.93 CA 15.84 C 15.27 O 17.32 CB 13.8 CG 15.1 CD1 15.65 CD2 13.85
A ILE E 0 -109.1 123.2 N 15.5 CA 16.19 C 15.75 O 16.69 CB 16.57 CG1 16.04 CG2 15.57 CD1 16.23
A PHE - 44 -110.9 156.5 N 16.44 CA 17.34 C 18.46 O 18.53 CB 15.91 CG 14.81 CD1 14.04 CD2 14.07 CE1 15.57 CE2 13.87 CZ 14.07
A VAL T 61 -55.0 -34.5 N 19.08 CA 19.9 C 20.11 O 20.3 CB 19.66 CG1 20.06 CG2 21.06
A SER T 67 -64.2 -17.7 N 19.89 CA 19.44 C 19.37 O 19.19 CB 19.35 OG 16.68
A GLY S 0 98.0 -2.8 N 19.03 CA 17.67 C 17.84 O 17.73
A LYS E 111 -77.6 138.1 N 17.99 CA 17.84 C 17.67 O 17.0 CB 20.35 CG 22.3 CD 24.42 CE 26.77 NZ 28.68
A ILE E 1 -133.4 136.8 N 16.65 CA 17.15 C 16.84 O 18.59 CB 15.8 CG1 15.08 CG2 15.02 CD1 14.82
A VAL E 40 -115.2 132.6 N 15.74 CA 15.24 C 15.03 O 14.7 CB 15.01 CG1 15.08 CG2 15.2
A ILE E 0 -120.9 119.6 N 15.34 CA 15.25 C 14.7 O 16.41 CB 16.12 CG1 15.35 CG2 14.71 CD1 18.72
A THR E 36 -138.9 160.9 N 13.48 CA 14.27 C 14.37 O 15.96 CB 14.76 OG1 14.48 CG2 14.64
A GLY E 38 104.1 -3.3 N 14.7 CA 15.32 C 16.21 O 18.48
A ALA E 0 -81.2 143.9 N 15.81 CA 16.81 C 18.97 O 19.26 CB 15.29
A LYS S 89 -104.6 -6.4 N 20.49 CA 21.86 C 23.26 O 24.23 CB 22.6 CG 24.59 CD 27.14 CE 27.61 NZ 31.31
A MET S 113 -137.8 137.1 N 23.26 CA 24.3 C 23.52 O 23.65 CB 27.72 CG 33.76 SD 40.92 CE 41.24
A ARG H 90 -59.2 -21.4 N 22.55 CA 22.9 C 23.78 O 21.98 CB 23.43 CG 23.69 CD 24.5 NE 26.1 CZ 27.17 NH1 29.42 NH2 28.27
A ASP H 93 -67.4 -30.1 N 24.14 CA 25.07 C 24.13 O 23.76 CB 28.5 CG 33.23 OD1 35.14 OD2 36.45
A GLU H 69 -67.4 -39.6 N 22.56 CA 22.31 C 21.62 O 19.66 CB 24.12 CG 28.19 CD 31.1 OE1 31.16 OE2 34.64
A THR H 0 -60.8 -45.2 N 20.93 CA 19.63 C 19.93 O 18.64 CB 18.08 OG1 18.16 CG2 18.65
A TYR H 15 -68.5 -44.5 N 20.49 CA 21.01 C 21.54 O 22.46 CB 21.29 CG 23.72 CD1 24.03 CD2 24.79 CE1 24.49 CE2 24.58 CZ 25.35 OH 27.72
A LYS H 109 -61.8 -43.3 N 22.84 CA 24.3 C 24.19 O 24.48 CB 26.02 CG 29.56 CD 34.04 CE 36.62 NZ 38.48
A ALA H 0 -62.0 -41.3 N 22.56 CA 21.82 C 21.3 O 22.46 CB 19.55
A PHE H 0 -63.8 -49.4 N 21.35 CA 20.82 C 21.8 O 21.24 CB 19.88 CG 19.35 CD1 19.24 CD2 18.96 CE1 19.02 CE2 18.67 CZ 19.83
A GLU H 19 -58.8 -39.3 N 22.46 CA 22.93 C 22.6 O 23.37 CB 22.58 CG 24.69 CD 25.25 OE1 27.25 OE2 24.11
A ASN H 56 -62.7 -40.4 N 22.04 CA 21.42 C 20.85 O 21.06 CB 20.78 CG 22.68 OD1 24.7 ND2 21.89
A ILE H 1 -82.6 -24.7 N 20.85 CA 20.0 C 19.94 O 20.26 CB 20.1 CG1 19.3 CG2 18.35 CD1 19.14
A TYR H 18 -48.3 -49.9 N 20.02 CA 19.13 C 18.61 O 18.11 CB 20.1 CG 20.28 CD1 20.73 CD2 21.24 CE1 22.27 CE2 21.36 CZ 22.0 OH 24.14
A PRO H 34 -62.9 -31.8 N 19.39 CA 19.17 C 19.36 O 20.48 CB 19.38 CG 19.73 CD 18.63
A VAL H 20 -70.4 -42.9 N 18.73 CA 18.63 C 18.35 O 18.74 CB 19.68 CG1 19.72 CG2 19.55
A LEU H 0 -60.0 -41.3 N 18.64 CA 18.25 C 18.83 O 18.57 CB 17.87 CG 19.52 CD1 17.78 CD2 19.39
A SER H 5 -63.6 -39.4 N 19.76 CA 21.03 C 19.7 O 20.13 CB 21.07 OG 24.46
A GLU H 19 -63.0 -26.7 N 20.3 CA 21.39 C 22.8 O 22.24 CB 22.66 CG 23.84 CD 26.01 OE1 27.5 OE2 27.28
A PHE T 4 -114.0 28.7 N 22.94 CA 22.29 C 23.26 O 23.16 CB 21.24 CG 21.41 CD1 21.52 CD2 20.48 CE1 20.3 CE2 22.34 CZ 20.72
A ARG B 70 -63.7 134.6 N 24.19 CA 25.11 C 27.28 O 26.83 CB 26.05 CG 26.65 CD 31.59 NE 34.56 CZ 35.98 NH1 37.63 NH2 35.01
A LYS - 81 -80.9 118.6 N 28.97 CA 30.73 C 31.84 O 32.07 CB 31.28 CG 33.53 CD 35.3 CE 38.19 NZ 40.06
A ILE - 122 -104.2 360.0 N 33.71 CA 35.49 C 36.85 O 40.35 CB 36.09 CG1 35.42 CG2 36.18 CD1 37.28
B VAL - 109 360.0 139.4 N 37.61 CA 36.34 C 36.78 O 37.35 CB 35.57 CG1 33.19 CG2 35.28
B ASP - 78 -93.7 110.7 N 37.54 CA 38.13 C 38.16 O 36.94 CB 39.62 CG 40.55 OD1 43.16 OD2 41.55
B LEU T 13 -62.2 -16.4 N 37.25 CA 36.27 C 36.21 O 35.8 CB 35.94 CG 35.71 CD1 35.54 CD2 34.99
B SER T 73 -61.4 -43.3 N 36.27 CA 36.48 C 35.38 O 36.39 CB 36.88 OG 39.75
B LYS T 86 -95.9 -28.3 N 34.65 CA 33.87 C 31.66 O 31.8 CB 37.01 CG 41.23 CD 44.25 CE 45.18 NZ 46.28
B HIS - 11 -129.0 76.5 N 28.72 CA 26.01 C 24.35 O 24.55 CB 24.76 CG 26.17 ND1 26.93 CD2 25.24 CE1 26.12 NE2 26.75
B PRO T 31 -48.0 -41.8 N 23.93 CA 23.33 C 22.04 O 20.38 CB 24.99 CG 25.75 CD 24.16
B SER T 5 -61.8 -27.1 N 21.3 CA 21.3 C 21.02 O 21.07 CB 21.05 OG 20.45
B GLY S 25 87.6 4.8 N 21.07 CA 20.72 C 21.03 O 21.57
B ILE - 34 -115.6 127.5 N 20.29 CA 19.83 C 19.41 O 19.16 CB 19.86 CG1 20.66 CG2 20.01 CD1 20.24
B VAL - 54 -114.7 113.6 N 19.66 CA 18.92 C 18.12 O 17.21 CB 19.73 CG1 17.57 CG2 20.41
B PRO - 3 -57.0 136.7 N 17.67 CA 18.27 C 17.72 O 18.07 CB 18.37 CG 16.99 CD 17.66
B THR E 82 -85.8 127.4 N 17.39 CA 16.57 C 15.67 O 15.35 CB 17.7 OG1 19.62 CG2 17.37
B LEU E 18 -75.9 128.3 N 14.97 CA 15.28 C 16.24 O 17.45 CB 15.29 CG 14.06 CD1 14.05 CD2 13.33
B GLN E 69 -111.7 -25.0 N 15.4 CA 16.33 C 16.05 O 17.26 CB 15.79 CG 15.67 CD 17.61 OE1 17.89 NE2 17.42
B ASN E 50 -157.3 142.1 N 15.55 CA 14.64 C 13.58 O 15.53 CB 13.71 CG 14.54 OD1 16.96 ND2 13.97
B ILE E 0 -129.2 138.2 N 12.99 CA 14.87 C 15.98 O 17.9 CB 14.6 CG1 16.7 CG2 14.61 CD1 15.85
B VAL E 31 -119.3 127.3 N 15.67 CA 15.24 C 17.44 O 19.22 CB 14.03 CG1 13.91 CG2 15.26
B SER E 0 -136.7 165.1 N 17.49 CA 18.58 C 19.34 O 19.62 CB 18.81 OG 19.12
B THR E 41 -133.3 156.9 N 20.73 CA 21.19 C 22.13 O 21.03 CB 21.48 OG1 22.03 CG2 21.39
B VAL E 5 -154.8 150.4 N 22.93 CA 24.02 C 25.35 O 24.32 CB 24.07 CG1 23.83 CG2 24.33
B ASN E 27 -106.0 111.4 N 27.61 CA 28.66 C 29.07 O 29.35 CB 29.89 CG 32.4 OD1 32.35 ND2 32.25
B LEU - 0 -69.8 -10.6 N 29.76 CA 30.61 C 31.77 O 32.38 CB 28.63 CG 28.78 CD1 27.49 CD2 26.46
B ASP - 62 66.4 37.4 N 34.16 CA 37.52 C 37.83 O 39.02 CB 40.1 CG 43.76 OD1 46.29 OD2 44.91
B CYS S 24 -172.5 149.2 N 37.83 CA 37.8 C 36.78 O 37.73 CB 38.2 SG 39.88
B LYS - 192 -64.8 142.9 N 36.28 CA 35.17 C 33.17 O 32.0 CB 36.9 CG 40.4 CD 43.7 CE 44.94 NZ 46.61
B LEU - 11 -122.5 135.4 N 31.03 CA 30.3 C 30.2 O 30.1 CB 28.24 CG 27.16 CD1 25.57 CD2 25.66
B ASP - 83 -91.1 103.7 N 30.38 CA 30.38 C 29.85 O 28.86 CB 32.52 CG 33.95 OD1 32.9 OD2 37.3
B LEU H 9 -67.0 -46.6 N 29.87 CA 29.89 C 31.49 O 30.25 CB 28.17 CG 27.24 CD1 26.18 CD2 26.08
B LYS H 113 -55.4 -46.1 N 32.96 CA 34.29 C 34.68 O 35.1 CB 35.17 CG 38.86 CD 41.26 CE 40.07 NZ 40.41
B ALA H 30 -63.4 -42.5 N 34.5 CA 33.85 C 34.26 O 34.89 CB 33.68
B ILE H 0 -63.2 -48.4 N 33.05 CA 31.98 C 30.98 O 30.0 CB 31.48 CG1 29.98 CG2 30.32 CD1 29.93
B ALA H 16 -58.8 -28.0 N 30.16 CA 31.4 C 32.86 O 32.0 CB 30.75
B LEU H 125 -83.2 -44.1 N 33.87 CA 35.63 C 37.19 O 36.86 CB 36.04 CG 37.26 CD1 37.15 CD2 36.16
B GLN H 138 -76.3 -17.8 N 38.74 CA 40.21 C 41.52 O 40.87 CB 40.56 CG 43.4 CD 45.18 OE1 46.08 NE2 46.15
B ALA T 15 -131.6 68.4 N 43.14 CA 44.71 C 46.3 O 47.31 CB 43.92
B ARG T 86 -56.7 -8.1 N 48.33 CA 48.96 C 48.95 O 48.96 CB 49.98
B ASN T 86 -67.8 -5.4 N 49.23 CA 48.66 C 48.64 O 49.56 CB 47.79
B ALA E 9 -117.2 152.3 N 47.34 CA 45.47 C 45.16 O 46.42 CB 45.69
B GLU E 107 -111.1 145.4 N 43.96 CA 41.86 C 39.44 O 37.36 CB 43.59 CG 46.08 CD 48.25 OE1 48.41 OE2 49.96
B TYR - 58 -151.2 101.2 N 36.68 CA 34.93 C 35.38 O 35.55 CB 32.78 CG 31.32 CD1 30.0 CD2 31.66 CE1 29.61 CE2 31.07 CZ 31.01 OH 31.38
B ASN - 90 -128.0 92.1 N 35.71 CA 36.53 C 36.23 O 34.67 CB 38.26 CG 40.59 OD1 41.58 ND2 41.06
B PRO T 48 -53.4 -33.0 N 36.7 CA 37.73 C 39.17 O 40.82 CB 37.7 CG 38.09 CD 37.6
B LYS T 187 -67.0 -26.4 N 40.04 CA 39.83 C 39.2 O 39.67 CB 41.0 CG 44.01 CD 45.24 CE 46.67 NZ 46.24
B ARG T 188 -87.3 -47.4 N 38.23 CA 38.08 C 36.46 O 35.09 CB 40.77 CG 42.83 CD 45.73 NE 46.56 CZ 47.26 NH1 49.23 NH2 47.89
B PHE - 99 -162.3 140.7 N 33.94 CA 30.67 C 28.95 O 29.7 CB 29.89 CG 30.63 CD1 30.55 CD2 31.1 CE1 30.48 CE2 30.83 CZ 30.29
B ALA S 63 -76.0 48.6 N 26.72 CA 26.61 C 26.16 O 26.75 CB 25.77
B ALA S 1 -154.1 152.7 N 24.73 CA 23.32 C 23.49 O 22.99 CB 22.11
B VAL E 0 -87.3 122.3 N 23.17 CA 22.78 C 23.01 O 23.13 CB 22.83 CG1 22.55 CG2 22.4
B ILE E 23 -96.7 116.4 N 22.14 CA 22.37 C 23.36 O 23.29 CB 22.95 CG1 24.59 CG2 22.06 CD1 26.08
B MET E 5 -124.6 151.5 N 22.43 CA 22.39 C 22.94 O 22.43 CB 23.32 CG 25.86 SD 29.28 CE 28.55
B ARG E 126 -137.2 146.7 N 21.79 CA 21.62 C 21.84 O 22.43 CB 21.14 CG 20.76 CD 21.93 NE 24.87 CZ 24.29 NH1 24.08 NH2 23.93
B ILE E 30 -127.0 153.1 N 21.56 CA 21.05 C 22.39 O 23.78 CB 21.02 CG1 18.67 CG2 19.76 CD1 17.56
B ARG T 222 -77.9 -34.7 N 23.35 CA 24.16 C 24.09 O 23.5 CB 27.71 CG 30.99 CD 34.38 NE 35.33 CZ 35.87 NH1 35.44 NH2 36.61
B GLU T 152 -138.7 114.4 N 24.71 CA 25.75 C 24.05 O 25.11 CB 29.61 CG 36.87 CD 39.94 OE1 42.83 OE2 42.84
B PRO T 14 -71.6 142.9 N 21.95 CA 20.5 C 19.57 O 19.43 CB 19.57 CG 21.8 CD 21.34
B LYS T 152 -60.6 113.9 N 19.07 CA 19.79 C 19.92 O 20.11 CB 20.52 CG 23.63 CD 26.77 CE 28.93 NZ 33.78
B THR E 3 -154.2 172.5 N 19.4 CA 18.41 C 18.55 O 18.71 CB 17.18 OG1 19.62 CG2 16.8
B THR E 25 -131.7 131.4 N 18.15 CA 17.04 C 16.87 O 18.66 CB 17.0 OG1 16.91 CG2 16.78
B ALA E 0 -113.0 146.0 N 16.03 CA 16.27 C 17.1 O 18.64 CB 14.74
B LEU E 40 -115.2 116.2 N 17.23 CA 17.84 C 18.25 O 18.13 CB 18.18 CG 18.54 CD1 17.88 CD2 18.53
B ILE E 0 -109.4 126.8 N 19.06 CA 19.14 C 19.69 O 19.9 CB 19.43 CG1 18.0 CG2 18.52 CD1 20.19
B PHE - 43 -109.3 156.7 N 20.48 CA 20.71 C 22.01 O 20.17 CB 19.98 CG 18.86 CD1 18.12 CD2 18.71 CE1 16.21 CE2 18.83 CZ 17.38
B ALA T 53 -56.1 -30.9 N 22.62 CA 23.81 C 24.69 O 26.11 CB 22.65
B SER T 74 -69.4 -12.0 N 26.37 CA 26.18 C 26.5 O 28.2 CB 26.45 OG 27.42
B GLY S 0 95.9 -10.1 N 25.05 CA 24.21 C 23.53 O 22.55
B LYS E 119 -80.8 150.0 N 23.41 CA 24.63 C 24.33 O 22.82 CB 26.29 CG 26.57 CD 30.86 CE 33.14 NZ 35.43
B MET E 1 -139.3 143.0 N 23.95 CA 23.17 C 21.9 O 20.78 CB 24.08 CG 27.65 SD 30.86 CE 32.76
B VAL E 33 -109.6 131.5 N 19.69 CA 18.03 C 18.05 O 17.24 CB 17.1 CG1 14.56 CG2 16.05
B CYS E 2 -116.3 128.1 N 16.58 CA 15.79 C 15.85 O 17.15 CB 16.82 SG 19.26
B THR E 37 -128.8 160.7 N 15.46 CA 15.71 C 16.4 O 17.36 CB 15.86 OG1 18.77 CG2 16.7
B GLY E 29 97.3 -24.3 N 15.7 CA 15.95 C 15.85 O 17.86
B ALA E 1 -57.8 157.7 N 16.22 CA 15.41 C 16.98 O 18.38 CB 13.88
B LYS S 110 -92.2 -8.4 N 17.53 CA 18.4 C 18.42 O 18.74 CB 19.31 CG 22.46 CD 25.93 CE 27.55 NZ 26.61
B SER S 19 -155.1 166.7 N 18.48 CA 19.33 C 19.17 O 20.65 CB 19.85 OG 22.35
B GLU H 35 -64.5 -40.8 N 18.6 CA 18.48 C 19.04 O 18.93 CB 19.47 CG 19.98 CD 20.15 OE1 19.87 OE2 20.35
B ASP H 133 -62.7 -45.9 N 18.82 CA 19.99 C 18.83 O 18.68 CB 19.68 CG 20.73 OD1 20.49 OD2 21.33
B PHE H 106 -63.4 -37.0 N 18.16 CA 18.34 C 18.7 O 19.99 CB 18.29 CG 18.38 CD1 18.19 CD2 19.02 CE1 18.39 CE2 18.35 CZ 19.42
B SER H 0 -64.8 -42.0 N 17.73 CA 18.59 C 20.3 O 19.35 CB 17.59 OG 17.72
B LYS H 80 -70.9 -39.0 N 21.63 CA 23.28 C 23.44 O 23.14 CB 25.28 CG 26.02 CD 27.89 CE 30.63 NZ 33.78
B MET H 73 -60.3 -49.4 N 24.29 CA 26.22 C 24.99 O 23.7 CB 30.25 CG 32.05 SD 35.8 CE 34.06
B ALA H 0 -58.9 -47.1 N 22.11 CA 21.11 C 20.46 O 21.22 CB 19.46
B ALA H 0 -56.3 -41.8 N 19.97 CA 20.55 C 22.3 O 21.73 CB 19.18
B ARG H 112 -62.8 -38.3 N 23.77 CA 26.14 C 26.4 O 26.4 CB 27.44 CG 31.53 CD 35.7 NE 40.34 CZ 42.2 NH1 42.38 NH2 42.94
B LYS H 85 -63.7 -42.0 N 27.06 CA 27.77 C 27.53 O 28.17 CB 30.57 CG 36.54 CD 43.07 CE 45.17 NZ 46.45
B TYR H 0 -64.1 -43.3 N 26.04 CA 24.4 C 25.17 O 24.05 CB 20.66 CG 17.51 CD1 17.0 CD2 16.69 CE1 16.04 CE2 15.43 CZ 14.92 OH 16.84
B ALA H 5 -60.1 -37.7 N 26.8 CA 28.48 C 30.81 O 31.17 CB 28.86
B ARG H 98 -68.7 -44.8 N 31.66 CA 31.63 C 30.74 O 31.38 CB 33.81 CG 38.77 CD 43.02 NE 46.89 CZ 47.64 NH1 48.57 NH2 49.32
B ILE H 39 -54.9 -55.7 N 29.12 CA 28.45 C 29.21 O 29.34 CB 26.34 CG1 24.96 CG2 26.48 CD1 24.45
B VAL H 0 -55.1 -41.1 N 30.19 CA 30.83 C 32.15 O 30.27 CB 29.79 CG1 30.08 CG2 28.47
B GLN H 76 -57.7 -54.9 N 33.8 CA 35.43 C 35.79 O 36.85 CB 36.34 CG 37.77 CD 38.79 OE1 40.41 NE2 41.42
B LYS H 113 -60.8 -13.2 N 35.81 CA 35.94 C 35.97 O 36.59 CB 36.71 CG 38.28 CD 39.95 CE 41.99 NZ 41.23
B LEU T 47 -83.2 -5.0 N 34.65 CA 34.6 C 34.54 O 35.17 CB 33.92 CG 34.01 CD1 33.02 CD2 33.28
B GLY T 69 108.6 1.5 N 34.19 CA 34.12 C 34.46 O 35.79
B PHE S 36 -105.3 136.6 N 34.23 CA 32.85 C 33.14 O 34.2 CB 31.83 CG 32.43 CD1 31.8 CD2 32.16 CE1 32.31 CE2 32.79 CZ 32.26
B PRO - 97 -70.2 65.3 N 32.83 CA 32.95 C 33.1 O 32.93 CB 33.5 CG 33.19 CD 32.28
B ALA - 7 -72.6 132.5 N 33.4 CA 33.29 C 33.4 O 34.46 CB 32.95
B LYS - 121 -113.1 -168.6 N 34.08 CA 34.12 C 33.22 O 32.09 CB 36.23 CG 39.27 CD 42.15 CE 43.54 NZ 44.17
B PHE - 65 -139.6 79.4 N 32.62 CA 31.27 C 30.71 O 30.72 CB 29.83 CG 28.6 CD1 27.8 CD2 27.39 CE1 27.25 CE2 28.5 CZ 27.04
B LYS E 91 -103.5 142.6 N 31.49 CA 32.34 C 32.94 O 32.15 CB 34.23 CG 37.52 CD 39.41 CE 40.7 NZ 44.13
B ASP E 112 48.8 47.2 N 32.96 CA 32.57 C 30.82 O 28.96 CB 34.67 CG 37.14 OD1 36.77 OD2 37.95
B PHE E 47 -61.4 135.4 N 29.0 CA 28.33 C 28.78 O 29.77 CB 27.22 CG 26.96 CD1 26.57 CD2 26.21 CE1 27.38 CE2 27.34 CZ 27.27
B LYS E 109 -147.7 133.5 N 27.02 CA 25.59 C 24.52 O 24.86 CB 27.69 CG 31.72 CD 35.34 CE 37.31 NZ 40.23
B ILE E 27 -78.9 123.1 N 22.54 CA 20.25 C 20.13 O 20.84 CB 19.95 CG1 17.68 CG2 18.0 CD1 18.84
B GLN E 54 -100.6 -25.3 N 19.15 CA 18.07 C 17.09 O 16.75 CB 19.31 CG 19.48 CD 21.28 OE1 20.65 NE2 20.85
B ASN E 40 -162.1 139.5 N 16.98 CA 16.74 C 15.83 O 16.92 CB 17.19 CG 18.02 OD1 18.66 ND2 16.31
B ILE E 0 -124.0 129.9 N 15.33 CA 14.3 C 13.81 O 15.61 CB 13.84 CG1 14.44 CG2 14.23 CD1 11.68
B VAL E 25 -115.9 129.0 N 13.78 CA 13.82 C 15.22 O 16.64 CB 14.29 CG1 15.16 CG2 11.84
B GLY E 1 -134.8 171.7 N 15.19 CA 16.03 C 17.09 O 16.92
B SER E 32 -152.5 159.5 N 17.57 CA 18.95 C 19.84 O 19.62 CB 19.2 OG 18.94
B CYS E 16 -164.3 178.2 N 19.95 CA 21.77 C 21.38 O 20.83 CB 23.13 SG 29.35
B ASP E 47 -132.8 121.0 N 21.1 CA 22.19 C 21.94 O 22.97 CB 22.35 CG 24.19 OD1 25.76 OD2 25.31
B VAL - 5 -80.3 -10.6 N 22.66 CA 22.54 C 24.92 O 26.51 CB 22.81 CG1 22.47 CG2 19.94
B LYS S 177 70.6 28.8 N 25.82 CA 27.41 C 27.18 O 27.65 CB 29.54 CG 32.67 CD 36.1 CE 39.26 NZ 42.78
B PHE S 15 -156.0 145.9 N 26.41 CA 25.39 C 25.56 O 26.8 CB 23.76 CG 23.69 CD1 22.97 CD2 22.18 CE1 22.39 CE2 21.89 CZ 21.36
B PRO - 47 -68.4 156.1 N 24.78 CA 24.38 C 23.77 O 24.54 CB 25.58 CG 25.21 CD 24.1
B ILE B 1 -127.4 139.3 N 22.74 CA 22.16 C 23.59 O 22.61 CB 21.07 CG1 19.21 CG2 18.7 CD1 20.29
B ARG - 111 -89.0 86.5 N 24.74 CA 26.3 C 24.91 O 23.93 CB 28.83 CG 31.23 CD 33.26 NE 36.03 CZ 35.93 NH1 35.34 NH2 36.02
B LEU H 4 -60.1 -41.2 N 25.07 CA 24.66 C 25.9 O 26.51 CB 22.87 CG 19.79 CD1 17.53 CD2 17.92
B GLU H 152 -59.5 -37.1 N 28.27 CA 29.78 C 29.27 O 29.53 CB 33.22 CG 39.99 CD 45.08 OE1 46.4 OE2 46.54
B GLY H 14 -71.4 -38.1 N 28.7 CA 28.22 C 27.88 O 27.33
B LEU H 0 -65.0 -45.3 N 27.22 CA 26.43 C 26.56 O 26.01 CB 26.95 CG 27.36 CD1 27.61 CD2 26.79
B ALA H 19 -60.4 -43.9 N 27.56 CA 28.85 C 28.97 O 29.14 CB 27.54
B TYR H 207 -64.9 -44.3 N 31.06 CA 33.44 C 32.82 O 32.88 CB 37.22 CG 41.43 CD1 43.35 CD2 43.52 CE1 44.65 CE2 45.35 CZ 45.99 OH 48.97
B SER H 61 -77.2 -13.8 N 32.31 CA 32.39 C 32.1 O 33.37 CB 32.31 OG 34.87
B HIS T 39 -133.0 51.1 N 31.14 CA 30.73 C 30.49 O 29.65 CB 29.47 CG 28.07 ND1 28.09 CD2 27.26 CE1 26.43 NE2 27.5
B ALA T 76 -57.1 -33.2 N 31.66 CA 32.22 C 32.19 O 32.16 CB 32.03
B ALA T 76 -61.9 -24.9 N 32.62 CA 32.66 C 32.4 O 32.69 CB 32.86
B PHE T 64 -121.6 -11.4 N 31.49 CA 31.19 C 29.59 O 28.58 CB 31.43 CG 32.36 CD1 33.12 CD2 33.17 CE1 33.85 CE2 32.84 CZ 33.55
B SER E 21 -95.8 153.9 N 28.22 CA 28.32 C 27.79 O 30.01 CB 26.25 OG 26.77
B SER E 53 -148.9 104.0 N 27.28 CA 26.5 C 26.12 O 26.61 CB 28.11 OG 32.46
B TYR - 52 -131.8 106.5 N 25.28 CA 25.08 C 25.7 O 26.07 CB 23.44 CG 21.8 CD1 20.63 CD2 20.56 CE1 19.35 CE2 19.51 CZ 19.35 OH 20.3
B GLU - 113 -129.6 83.7 N 24.79 CA 24.88 C 23.64 O 23.62 CB 26.53 CG 31.96 CD 34.45 OE1 35.55 OE2 37.14
B PRO T 67 -49.3 -31.4 N 22.54 CA 22.78 C 23.2 O 24.35 CB 22.17 CG 22.01 CD 21.38
B GLU T 189 -68.7 -21.4 N 24.21 CA 25.48 C 26.23 O 27.34 CB 25.01 CG 27.42 CD 27.48 OE1 27.94 OE2 28.6
B LEU T 145 -94.9 -45.5 N 26.65 CA 27.03 C 26.03 O 27.44 CB 28.3 CG 31.38 CD1 30.27 CD2 30.95
B PHE - 96 -152.6 130.8 N 24.52 CA 22.42 C 21.26 O 22.77 CB 21.52 CG 20.33 CD1 18.02 CD2 20.93 CE1 18.49 CE2 19.48 CZ 18.7
B PRO S 84 -64.0 -10.1 N 20.07 CA 19.76 C 20.42 O 19.45 CB 19.93 CG 20.0 CD 20.04
B GLY S 2 -102.3 148.5 N 20.92 CA 20.9 C 20.68 O 20.67
B LEU E 0 -86.7 127.3 N 19.44 CA 19.01 C 19.15 O 19.07 CB 18.45 CG 19.53 CD1 17.79 CD2 20.74
B ILE E 32 -91.6 116.4 N 19.6 CA 19.19 C 19.09 O 20.38 CB 18.25 CG1 17.87 CG2 17.31 CD1 19.64
B TYR E 15 -110.5 114.5 N 19.2 CA 18.75 C 20.02 O 20.09 CB 18.7 CG 18.22 CD1 18.03 CD2 17.95 CE1 19.29 CE2 19.35 CZ 20.0 OH 21.57
B ARG E 140 -99.3 90.9 N 19.99 CA 19.59 C 19.51 O 20.16 CB 19.31 CG 20.6 CD 23.31 NE 25.84 CZ 26.05 NH1 27.95 NH2 26.02
B MET E 18 -70.5 142.6 N 19.69 CA 21.74 C 22.52 O 22.47 CB 22.05 CG 20.29 SD 22.35 CE 19.93
B LYS T 129 -86.1 -42.9 N 23.62 CA 25.13 C 24.53 O 24.34 CB 27.41 CG 31.29 CD 33.33 CE 35.25 NZ 38.61
B VAL T 117 -132.6 103.9 N 23.8 CA 24.3 C 22.74 O 25.4 CB 24.13 CG1 25.05 CG2 24.26
B PRO T 19 -69.7 162.6 N 21.59 CA 21.58 C 21.39 O 21.46 CB 20.41 CG 22.78 CD 21.18
B LYS T 173 -81.0 90.8 N 22.28 CA 22.21 C 20.85 O 21.0 CB 23.19 CG 25.75 CD 27.46 CE 30.51 NZ 33.29
B ILE E 2 -139.0 150.9 N 19.76 CA 18.09 C 17.68 O 17.42 CB 17.74 CG1 17.57 CG2 17.21 CD1 17.43
B VAL E 41 -111.4 128.0 N 18.77 CA 17.75 C 16.86 O 16.68 CB 18.01 CG1 18.58 CG2 18.72
B LEU E 0 -113.5 136.2 N 16.21 CA 16.47 C 17.26 O 17.99 CB 15.97 CG 15.47 CD1 15.09 CD2 15.48
B LEU E 36 -105.6 113.3 N 16.73 CA 16.55 C 16.82 O 17.21 CB 17.16 CG 17.5 CD1 19.25 CD2 19.18
B ILE E 0 -107.5 128.9 N 16.49 CA 16.85 C 16.43 O 16.3 CB 15.46 CG1 16.76 CG2 14.66 CD1 15.63
B PHE - 42 -113.7 155.1 N 16.68 CA 17.67 C 19.11 O 17.71 CB 16.71 CG 16.71 CD1 15.53 CD2 16.06 CE1 13.58 CE2 14.3 CZ 14.99
B VAL T 51 -55.6 -34.5 N 20.56 CA 21.69 C 21.85 O 24.47 CB 21.98 CG1 22.07 CG2 23.33
B SER T 65 -60.5 -27.1 N 22.21 CA 21.21 C 21.63 O 21.45 CB 21.24 OG 19.54
B GLY S 0 104.5 1.0 N 21.76 CA 20.11 C 19.87 O 20.17
B LYS E 106 -84.1 141.1 N 19.84 CA 19.36 C 18.86 O 17.71 CB 21.34 CG 22.79 CD 26.72 CE 27.75 NZ 30.1
B ILE E 1 -133.3 141.0 N 18.26 CA 17.15 C 17.12 O 18.47 CB 16.79 CG1 17.72 CG2 16.49 CD1 18.3
B VAL E 42 -115.7 129.8 N 17.32 CA 16.77 C 16.67 O 17.54 CB 16.7 CG1 16.48 CG2 15.4
B ILE E 0 -117.9 118.8 N 16.11 CA 15.71 C 13.46 O 13.6 CB 16.32 CG1 15.73 CG2 14.97 CD1 18.04
B THR E 36 -136.3 161.4 N 14.0 CA 15.35 C 16.55 O 17.01 CB 15.58 OG1 16.32 CG2 13.6
B GLY E 38 104.6 -10.0 N 16.94 CA 17.26 C 17.71 O 18.07
B ALA E 0 -76.2 147.4 N 18.33 CA 17.53 C 19.04 O 19.17 CB 17.84
B LYS S 82 -106.8 -9.1 N 19.48 CA 19.39 C 19.55 O 19.59 CB 20.62 CG 22.0 CD 24.07 CE 24.62 NZ 28.79
B MET S 132 -136.2 135.5 N 18.95 CA 19.76 C 18.81 O 19.01 CB 22.32 CG 27.7 SD 34.46 CE 35.5
B ARG H 91 -58.5 -29.2 N 17.38 CA 17.83 C 19.47 O 18.79 CB 18.16 CG 17.84 CD 18.32 NE 19.54 CZ 20.67 NH1 21.86 NH2 22.24
B ASP H 87 -63.6 -25.9 N 21.5 CA 23.26 C 22.31 O 22.12 CB 26.39 CG 30.54 OD1 32.19 OD2 33.16
B GLU H 57 -69.7 -40.5 N 20.89 CA 20.35 C 19.3 O 19.29 CB 21.96 CG 25.75 CD 29.34 OE1 35.03 OE2 28.77
B THR H 0 -58.6 -48.1 N 18.19 CA 17.31 C 18.08 O 17.07 CB 16.19 OG1 16.29 CG2 14.85
B TYR H 17 -65.2 -43.6 N 17.52 CA 18.43 C 19.2 O 21.57 CB 18.25 CG 19.06 CD1 17.87 CD2 18.39 CE1 18.4 CE2 19.47 CZ 20.02 OH 20.87
B LYS H 117 -60.2 -47.2 N 20.25 CA 20.02 C 19.8 O 19.29 CB 21.92 CG 24.56 CD 26.58 CE 29.05 NZ 31.1
B ALA H 0 -59.0 -41.8 N 18.2 CA 18.11 C 18.03 O 19.23 CB 17.4
B PHE H 0 -65.3 -48.0 N 18.11 CA 17.48 C 18.07 O 17.04 CB 17.49 CG 18.09 CD1 18.26 CD2 17.51 CE1 18.75 CE2 16.84 CZ 18.74
B GLU H 17 -60.2 -34.5 N 17.6 CA 18.0 C 18.73 O 19.0 CB 17.15 CG 20.14 CD 21.15 OE1 21.74 OE2 20.84
B ASN H 41 -67.2 -46.0 N 18.61 CA 18.35 C 19.16 O 19.98 CB 17.98 CG 18.86 OD1 19.31 ND2 17.38
B ILE H 0 -75.1 -29.5 N 18.98 CA 18.1 C 17.64 O 18.59 CB 17.56 CG1 17.09 CG2 15.98 CD1 16.22
B TYR H 13 -50.6 -54.7 N 17.93 CA 17.43 C 18.67 O 18.26 CB 16.82 CG 18.47 CD1 18.6 CD2 16.7 CE1 19.4 CE2 17.52 CZ 18.27 OH 22.29
B PRO H 2 -70.1 -10.6 N 20.32 CA 20.8 C 21.77 O 23.59 CB 19.67 CG 20.99 CD 19.73
B VAL H 11 -83.7 -41.6 N 22.63 CA 22.5 C 22.42 O 22.89 CB 23.02 CG1 22.18 CG2 22.19
B LEU H 0 -62.6 -38.1 N 21.9 CA 21.71 C 22.53 O 21.17 CB 21.03 CG 20.87 CD1 19.85 CD2 20.68
B SER G 7 -62.3 -24.5 N 23.56 CA 25.07 C 26.11 O 25.1 CB 24.78 OG 24.89
B GLU G 79 -73.9 -16.5 N 27.42 CA 29.67 C 29.41 O 29.19 CB 33.24 CG 38.59 CD 42.25 OE1 45.02 OE2 45.86
B PHE G 27 -122.6 35.0 N 28.84 CA 28.35 C 28.99 O 27.54 CB 27.26 CG 27.08 CD1 27.95 CD2 27.65 CE1 26.74 CE2 27.06 CZ 27.96
B ARG B 56 -64.5 148.7 N 31.21 CA 34.01 C 35.92 O 37.29 CB 34.76 CG 36.78 CD 40.22 NE 44.42 CZ 45.42 NH1 45.71 NH2 46.58
B LYS - 103 -99.1 128.8 N 37.25 CA 39.72 C 41.49 O 42.27 CB 39.88 CG 42.57 CD 43.47 CE 45.71 NZ 45.5
B ILE - 163 -117.8 360.0 N 43.83 CA 45.4 C 45.98 O 47.89 CB 45.95 CG1 45.85 CG2 46.79 CD1 46.13
