C DG H 29 -80.8 -24.9 O5' 78.91 C5' 78.6 C4' 78.46 O4' 78.29 C3' 78.13 O3' 77.59 C2' 78.05 C1' 77.86 N9 77.31 C8 77.13 N7 76.77 C5 76.62 C6 76.47 O6 76.04 N1 76.5 C2 76.67 N2 76.73 N3 76.78 C4 76.92
C DT H 0 -85.1 -35.9 P 77.07 OP1 77.04 OP2 77.03 O5' 75.82 C5' 73.54 C4' 72.04 O4' 71.62 C3' 70.81 O3' 68.62 C2' 71.0 C1' 71.25 N1 71.07 C2 71.04 O2 71.13 N3 70.79 C4 70.79 O4 70.26 C5 70.71 C7 70.93 C6 70.9
C DC H 47 -47.0 -54.1 P 67.09 OP1 66.93 OP2 67.21 O5' 64.53 C5' 59.95 C4' 56.19 O4' 55.16 C3' 54.33 O3' 51.77 C2' 53.89 C1' 53.42 N1 51.39 C2 50.19 O2 50.29 N3 49.32 C4 49.26 N4 48.5 C5 49.83 C6 50.77
C DC H 88 -63.6 -20.7 P 49.46 OP1 50.04 OP2 49.18 O5' 46.42 C5' 41.37 C4' 37.36 O4' 37.06 C3' 34.64 O3' 28.51 C2' 35.98 C1' 36.06 N1 33.82 C2 31.54 O2 32.12 N3 32.09 C4 32.58 N4 34.02 C5 33.42 C6 33.43
C DA H 61 -83.3 -10.7 P 23.73 OP1 25.8 OP2 25.0 O5' 22.47 C5' 20.92 C4' 21.37 O4' 23.55 C3' 20.81 O3' 18.47 C2' 23.86 C1' 23.7 N9 22.3 C8 22.8 N7 22.23 C5 21.39 C6 20.53 N6 22.6 N1 20.37 C2 20.53 N3 20.03 C4 20.15
C DG T 71 -57.4 133.3 P 15.2 OP1 15.47 OP2 16.51 O5' 15.58 C5' 15.71 C4' 19.02 O4' 19.41 C3' 20.14 O3' 21.85 C2' 20.34 C1' 20.39 N9 21.4 C8 23.23 N7 24.28 C5 23.44 C6 24.42 O6 26.18 N1 22.65 C2 21.64 N2 22.02 N3 20.34 C4 20.63
C DT T 50 87.0 -4.7 P 23.04 OP1 28.67 OP2 28.66 O5' 29.74 C5' 35.34 C4' 40.36 O4' 40.58 C3' 44.53 O3' 50.19 C2' 42.51 C1' 41.43 N1 38.73 C2 39.19 O2 38.86 N3 37.44 C4 38.41 O4 35.85 C5 37.29 C7 39.27 C6 38.82
C DC - 42 -87.4 147.6 P 55.6 OP1 55.54 OP2 54.56 O5' 59.03 C5' 64.64 C4' 68.69 O4' 68.88 C3' 71.14 O3' 75.63 C2' 70.47 C1' 69.54 N1 69.18 C2 69.16 O2 69.37 N3 68.9 C4 68.56 N4 68.27 C5 68.75 C6 69.07
C DT B 38 -106.7 131.4 P 78.79 OP1 79.01 OP2 78.56 O5' 80.73 C5' 84.06 C4' 86.53 O4' 87.07 C3' 88.16 O3' 90.52 C2' 87.96 C1' 87.29 N1 87.13 C2 87.08 O2 87.0 N3 87.03 C4 87.02 O4 87.31 C5 87.03 C7 87.04 C6 87.07
C DA E 6 -74.2 127.7 P 91.88 OP1 91.89 OP2 92.11 O5' 93.37 C5' 96.07 C4' 97.99 O4' 98.58 C3' 98.98 O3' 100.11 C2' 99.15 C1' 99.06 N9 99.19 C8 99.2 N7 99.11 C5 99.17 C6 99.25 N6 99.38 N1 99.38 C2 99.34 N3 99.21 C4 99.17
C DC E 119 -106.0 -27.5 P 100.92 OP1 101.01 OP2 100.81 O5' 101.11 C5' 101.53 C4' 101.78 O4' 101.97 C3' 101.86 O3' 101.79 C2' 101.88 C1' 102.01 N1 102.04 C2 102.01 O2 102.07 N3 101.87 C4 101.81 N4 101.73 C5 101.84 C6 101.93
