A MET - 213 360.0 154.4 N 16.28 CA 14.67 C 14.81 O 14.61 CB 16.34 CG 15.04 SD 15.17 CE 13.14
A GLU - 133 -84.8 129.6 N 13.81 CA 13.57 C 12.92 O 12.12 CB 15.05 CG 20.06 CD 25.21 OE1 27.16 OE2 29.85
A ILE - 130 -145.7 137.0 N 13.02 CA 13.28 C 13.2 O 13.99 CB 16.93 CG1 18.41 CG2 19.56 CD1 20.18
A LYS - 101 -140.2 150.4 N 12.28 CA 13.69 C 14.73 O 14.47 CB 15.31 CG 18.66 CD 20.22 CE 20.53 NZ 21.65
A ASP - 77 -99.0 103.6 N 14.99 CA 15.1 C 14.84 O 15.49 CB 16.68 CG 19.45 OD1 19.71 OD2 20.85
A LEU H 41 -57.1 -28.7 N 14.3 CA 15.61 C 15.74 O 16.43 CB 16.05 CG 20.02 CD1 22.26 CD2 20.51
A LYS H 165 -62.3 -35.1 N 16.26 CA 18.96 C 18.44 O 21.3 CB 20.08 CG 24.64 CD 26.67 CE 27.69 NZ 26.32
A ARG H 183 -74.8 -35.6 N 16.64 CA 17.57 C 16.84 O 18.94 CB 19.46 CG 25.05 CD 29.1 NE 33.83 CZ 36.03 NH1 36.85 NH2 37.47
A LEU H 31 -71.3 -24.7 N 13.39 CA 13.36 C 13.5 O 13.61 CB 12.92 CG 14.78 CD1 15.5 CD2 18.5
A ALA - 33 -51.9 132.9 N 14.1 CA 15.51 C 15.47 O 16.04 CB 16.6
A ARG - 120 -161.2 159.8 N 14.22 CA 14.05 C 14.28 O 14.19 CB 14.2 CG 13.88 CD 14.82 NE 14.99 CZ 16.7 NH1 15.66 NH2 18.34
A TYR - 81 -122.6 160.2 N 14.15 CA 14.54 C 14.42 O 15.46 CB 15.43 CG 17.0 CD1 18.77 CD2 19.59 CE1 21.08 CE2 21.6 CZ 21.61 OH 24.94
A ASN - 46 -128.1 122.0 N 14.12 CA 15.19 C 15.72 O 15.72 CB 15.54 CG 16.31 OD1 19.05 ND2 17.13
A PRO S 120 -69.2 -21.0 N 15.52 CA 17.32 C 17.16 O 20.68 CB 19.07 CG 19.67 CD 16.68
A GLU S 162 -82.0 -39.5 N 18.55 CA 20.68 C 20.66 O 21.08 CB 22.89 CG 27.01 CD 29.44 OE1 30.93 OE2 32.23
A LYS S 142 -164.9 172.4 N 19.18 CA 18.61 C 16.62 O 15.56 CB 20.82 CG 24.8 CD 29.29 CE 31.48 NZ 34.75
A MET - 17 -55.8 135.8 N 14.62 CA 13.72 C 12.9 O 14.86 CB 13.11 CG 13.31 SD 15.4 CE 19.67
A ALA E 3 -90.4 132.5 N 10.89 CA 11.91 C 11.78 O 12.92 CB 12.85
A LYS E 91 -111.3 115.3 N 13.15 CA 14.32 C 14.57 O 15.08 CB 18.07 CG 22.42 CD 26.68 CE 29.96 NZ 32.75
A ILE E 8 -110.5 105.3 N 12.68 CA 12.63 C 12.83 O 12.94 CB 13.31 CG1 14.27 CG2 14.35 CD1 15.24
A PRO E 75 -68.4 132.0 N 12.89 CA 14.07 C 14.19 O 16.99 CB 15.72 CG 14.58 CD 14.3
A VAL E 9 -103.7 -60.0 N 12.18 CA 12.83 C 13.11 O 14.9 CB 12.18 CG1 12.81 CG2 12.44
A PHE E 58 -135.6 154.2 N 12.88 CA 15.15 C 17.5 O 17.76 CB 13.68 CG 12.46 CD1 12.09 CD2 11.82 CE1 12.84 CE2 12.69 CZ 12.9
A GLN E 96 -155.8 145.0 N 20.08 CA 22.15 C 22.21 O 23.91 CB 24.89 CG 29.63 CD 32.69 OE1 35.19 NE2 34.53
A SER E 36 -159.5 172.0 N 21.54 CA 21.21 C 21.73 O 20.68 CB 22.24 OG 23.48
A GLU T 93 -65.0 -20.5 N 21.92 CA 21.42 C 20.48 O 20.74 CB 23.81 CG 26.01 CD 26.35 OE1 26.82 OE2 26.83
A ARG T 161 -83.5 -24.4 N 19.4 CA 18.06 C 15.93 O 16.47 CB 19.83 CG 24.51 CD 27.72 NE 33.36 CZ 35.35 NH1 37.34 NH2 37.31
A MET E 84 -170.1 157.1 N 15.14 CA 16.66 C 15.97 O 17.01 CB 18.99 CG 20.43 SD 24.05 CE 22.04
A LEU E 36 -112.8 130.3 N 15.75 CA 15.02 C 13.28 O 13.5 CB 16.62 CG 19.68 CD1 22.37 CD2 22.09
A TYR E 68 -124.4 101.5 N 11.87 CA 10.14 C 10.47 O 10.26 CB 11.44 CG 10.63 CD1 10.63 CD2 11.48 CE1 10.57 CE2 11.67 CZ 10.84 OH 11.4
A ASP E 4 -125.6 167.4 N 9.62 CA 10.47 C 10.88 O 10.88 CB 12.6 CG 15.91 OD1 15.92 OD2 19.93
A LEU E 0 -115.6 135.0 N 11.25 CA 11.34 C 12.1 O 13.82 CB 13.52 CG 15.03 CD1 17.81 CD2 18.21
A TYR E 5 -112.8 126.6 N 10.89 CA 10.97 C 11.65 O 12.65 CB 11.03 CG 11.75 CD1 11.74 CD2 12.73 CE1 12.59 CE2 14.3 CZ 13.96 OH 16.05
A ALA E 0 -115.6 115.3 N 10.5 CA 10.69 C 11.02 O 10.99 CB 11.08
A LEU E 0 -116.2 121.4 N 10.52 CA 11.55 C 10.9 O 11.44 CB 12.23 CG 12.35 CD1 15.87 CD2 15.53
A LEU - 47 -82.5 163.2 N 12.2 CA 13.55 C 14.51 O 13.44 CB 14.94 CG 15.03 CD1 16.99 CD2 15.8
A PRO T 59 -52.2 132.0 N 15.51 CA 16.25 C 17.02 O 16.93 CB 17.19 CG 17.65 CD 17.6
A GLY T 63 91.3 -13.9 N 17.04 CA 17.41 C 16.97 O 19.74
A GLN - 23 -84.1 164.1 N 14.58 CA 13.43 C 13.46 O 12.79 CB 12.73 CG 13.57 CD 13.47 OE1 12.88 NE2 14.72
A ALA E 40 -167.3 164.2 N 12.19 CA 13.3 C 13.07 O 14.38 CB 16.58
A GLN E 22 -102.1 116.6 N 12.18 CA 11.75 C 10.99 O 11.46 CB 12.73 CG 13.5 CD 14.09 OE1 14.91 NE2 14.93
A LYS E 182 -58.2 151.1 N 6.19 CA 6.82 C 6.39 O 6.19 CB 8.97 CG 12.23 CD 14.57 CE 16.15 NZ 17.55
A VAL E 73 -63.5 134.2 N 10.03 CA 11.9 C 12.91 O 13.18 CB 11.48 CG1 12.64 CG2 13.37
A HIS E 51 -156.3 174.0 N 13.34 CA 15.02 C 13.92 O 12.56 CB 19.11 CG 20.14 ND1 24.63 CD2 21.56 CE1 23.39 NE2 25.0
A VAL - 76 -125.4 132.7 N 13.74 CA 15.26 C 17.19 O 17.33 CB 16.56 CG1 17.15 CG2 16.05
A HIS - 32 -105.2 117.3 N 17.21 CA 19.75 C 21.34 O 22.61 CB 20.63 CG 24.01 ND1 25.27 CD2 25.63 CE1 25.83 NE2 26.51
A GLU S 192 -56.1 -42.0 N 22.36 CA 23.74 C 23.19 O 24.87 CB 25.36 CG 25.97 CD 25.69 OE1 25.71 OE2 25.71
A GLY S 45 -136.8 31.2 N 21.19 CA 20.54 C 19.72 O 20.85
A SER - 8 -130.5 140.3 N 17.69 CA 16.52 C 16.1 O 16.64 CB 16.87 OG 17.92
A ASP E 68 -98.0 152.5 N 15.0 CA 14.19 C 13.54 O 13.68 CB 16.53 CG 18.5 OD1 19.47 OD2 23.75
A LYS E 2 -136.6 143.8 N 12.5 CA 12.65 C 12.17 O 11.93 CB 14.31 CG 14.4 CD 17.12 CE 17.59 NZ 16.42
A VAL E 50 -130.1 128.9 N 11.22 CA 10.62 C 9.46 O 10.26 CB 10.02 CG1 11.7 CG2 12.49
A TYR E 0 -103.4 132.9 N 9.26 CA 10.06 C 9.66 O 9.88 CB 10.66 CG 11.33 CD1 11.21 CD2 13.54 CE1 11.75 CE2 14.4 CZ 13.34 OH 15.58
A TYR E 89 -128.8 126.8 N 8.79 CA 9.17 C 8.9 O 8.83 CB 9.77 CG 9.72 CD1 11.28 CD2 12.3 CE1 11.85 CE2 13.34 CZ 12.13 OH 14.45
A ALA E 0 -83.3 118.1 N 8.42 CA 8.96 C 9.94 O 10.77 CB 10.21
A LEU E 59 -91.5 -42.7 N 10.76 CA 11.39 C 12.59 O 14.26 CB 12.03 CG 11.98 CD1 13.88 CD2 15.32
A GLU E 108 -145.8 145.1 N 13.43 CA 15.02 C 14.36 O 14.54 CB 18.67 CG 25.38 CD 29.57 OE1 32.65 OE2 33.13
A GLY S 28 74.2 -170.9 N 14.23 CA 14.7 C 14.63 O 15.18
A GLU - 101 -137.9 144.0 N 15.89 CA 16.54 C 15.61 O 16.57 CB 20.21 CG 25.89 CD 29.31 OE1 31.85 OE2 31.4
A VAL E 2 -134.2 161.6 N 13.37 CA 12.6 C 12.12 O 12.3 CB 11.65 CG1 13.35 CG2 14.01
A VAL E 18 -101.8 116.4 N 11.65 CA 12.37 C 12.08 O 13.69 CB 13.35 CG1 14.47 CG2 16.02
A VAL E 4 -100.7 135.6 N 10.64 CA 10.8 C 11.19 O 11.82 CB 10.49 CG1 13.15 CG2 9.25
A ARG E 84 -116.5 128.4 N 10.42 CA 10.58 C 10.45 O 11.18 CB 11.98 CG 13.44 CD 16.02 NE 16.76 CZ 16.33 NH1 17.44 NH2 15.4
A VAL E 32 -139.8 115.9 N 10.37 CA 11.69 C 12.23 O 13.27 CB 11.77 CG1 13.05 CG2 12.97
A GLY T 21 64.6 -130.5 N 12.6 CA 13.39 C 14.37 O 14.72
A GLU T 207 -99.8 24.0 N 15.13 CA 17.02 C 17.28 O 19.12 CB 19.55 CG 22.62 CD 25.62 OE1 28.62 OE2 25.94
A GLU E 145 -132.4 150.2 N 14.65 CA 12.62 C 11.76 O 12.47 CB 14.28 CG 16.07 CD 18.19 OE1 17.8 OE2 19.11
A GLU E 105 -126.8 153.0 N 10.83 CA 11.81 C 11.41 O 12.33 CB 14.03 CG 16.7 CD 20.61 OE1 23.24 OE2 23.24
A ALA E 42 -145.2 153.1 N 11.33 CA 10.96 C 11.25 O 12.55 CB 12.41
A LEU E 117 -95.9 111.3 N 11.05 CA 12.03 C 12.01 O 12.68 CB 14.01 CG 15.97 CD1 16.93 CD2 16.85
A LEU E 4 -95.2 108.5 N 11.86 CA 13.58 C 13.24 O 14.85 CB 15.39 CG 15.85 CD1 18.24 CD2 17.22
A ALA - 33 -100.8 165.2 N 12.83 CA 13.55 C 13.17 O 11.31 CB 16.39
A PRO T 79 -48.6 129.0 N 12.93 CA 12.91 C 12.91 O 13.01 CB 13.87 CG 15.13 CD 14.06
A GLY T 48 97.1 -8.4 N 11.25 CA 11.79 C 10.35 O 11.83
A MET - 91 -99.9 146.1 N 10.5 CA 10.57 C 10.47 O 10.21 CB 11.6 CG 13.23 SD 13.43 CE 15.13
A ALA E 63 -130.3 146.0 N 9.91 CA 9.66 C 9.92 O 11.07 CB 11.59
A ALA E 20 -130.2 138.0 N 9.54 CA 9.13 C 8.81 O 8.91 CB 11.24
A PHE E 111 -102.6 128.7 N 9.18 CA 10.04 C 10.52 O 11.8 CB 13.14 CG 14.92 CD1 20.39 CD2 21.3 CE1 22.1 CE2 23.26 CZ 22.09
A ALA E 1 -117.3 99.4 N 10.59 CA 11.43 C 12.67 O 12.11 CB 12.07
A PRO - 52 -69.5 152.3 N 14.0 CA 15.09 C 15.32 O 15.17 CB 16.27 CG 19.26 CD 15.69
A ALA T 40 -51.1 136.2 N 16.32 CA 18.01 C 17.93 O 18.97 CB 18.94
A GLY T 45 95.1 -19.7 N 18.19 CA 18.56 C 19.29 O 20.92
A ALA S 18 -89.4 131.4 N 17.72 CA 16.52 C 15.64 O 15.14 CB 17.82
A PRO - 51 -66.8 133.4 N 14.46 CA 13.67 C 13.28 O 14.5 CB 14.76 CG 15.91 CD 16.12
A HIS E 3 -148.3 153.8 N 11.3 CA 10.67 C 10.25 O 10.61 CB 11.03 CG 10.26 ND1 12.32 CD2 12.26 CE1 12.99 NE2 14.19
A GLY E 2 -166.7 176.4 N 9.94 CA 10.59 C 10.69 O 10.66
A VAL E 0 -145.5 140.2 N 9.84 CA 10.58 C 10.83 O 11.55 CB 11.73 CG1 11.54 CG2 12.08
A ARG E 79 -131.8 138.3 N 11.98 CA 13.63 C 13.11 O 14.12 CB 16.28 CG 20.44 CD 22.92 NE 27.3 CZ 27.91 NH1 29.5 NH2 28.69
A ASN - 0 -97.3 101.1 N 12.17 CA 12.67 C 13.69 O 15.03 CB 12.77 CG 12.4 OD1 14.26 ND2 13.68
A GLU - 124 -100.9 12.0 N 14.88 CA 18.43 C 19.14 O 21.51 CB 20.66 CG 25.62 CD 29.19 OE1 32.41 OE2 32.3
A SER S 30 -92.5 -177.5 N 18.64 CA 18.59 C 19.51 O 20.81 CB 17.35 OG 16.65
A ALA S 94 -103.8 14.1 N 20.75 CA 21.33 C 21.59 O 22.37 CB 22.32
A SER S 69 -135.9 160.2 N 19.73 CA 18.85 C 16.89 O 16.31 CB 20.71 OG 23.77
A PRO - 58 -66.5 161.5 N 16.3 CA 15.43 C 14.03 O 14.89 CB 16.68 CG 17.78 CD 16.9
A ALA E 0 -138.4 145.6 N 12.2 CA 11.12 C 11.37 O 11.09 CB 12.22
A LEU E 10 -129.4 129.1 N 11.03 CA 10.81 C 9.99 O 10.19 CB 11.4 CG 10.15 CD1 11.18 CD2 11.99
A LEU E 1 -124.2 148.4 N 8.96 CA 8.96 C 8.86 O 9.89 CB 9.18 CG 10.03 CD1 10.75 CD2 10.81
A LEU E 25 -102.5 120.4 N 8.18 CA 9.3 C 8.58 O 9.07 CB 10.35 CG 13.71 CD1 17.25 CD2 18.03
A VAL E 0 -122.7 127.4 N 10.19 CA 10.08 C 10.28 O 12.03 CB 10.44 CG1 12.1 CG2 11.37
A VAL E 43 -118.8 130.9 N 10.32 CA 11.32 C 11.33 O 11.85 CB 12.95 CG1 15.83 CG2 13.44
A THR E 2 -126.0 130.9 N 11.86 CA 13.33 C 13.32 O 14.04 CB 13.7 OG1 14.39 CG2 15.06
A ALA E 40 -148.3 131.0 N 13.62 CA 13.11 C 14.71 O 14.23 CB 14.8
A PRO S 65 -78.2 -177.7 N 16.38 CA 17.08 C 18.16 O 17.55 CB 19.56 CG 19.02 CD 16.92
A ARG - 115 -64.0 128.4 N 19.9 CA 22.69 C 24.19 O 24.96 CB 23.36 CG 25.69 CD 28.05 NE 31.33 CZ 32.34 NH1 33.49 NH2 33.23
A PRO - 112 -59.0 360.0 N 25.21 CA 27.15 C 28.84 O 30.4 CB 27.01 CG 25.82 CD 25.14 OXT 31.27
