C U - 60 360.0 154.8 P 87.69 OP1 87.89 OP2 87.4 O5' 87.43 C5' 87.04 C4' 86.3 O4' 87.05 C3' 85.28 O3' 82.19 C2' 86.14 O2' 86.07 C1' 87.33 N1 88.61 C2 89.27 O2 89.37 N3 89.86 C4 89.91 O4 90.16 C5 89.59 C6 89.0
C U B 30 -68.4 134.1 P 79.7 OP1 79.96 OP2 79.75 O5' 76.74 C5' 70.98 C4' 66.72 O4' 67.05 C3' 63.19 O3' 55.51 C2' 64.57 O2' 66.02 C1' 66.3 N1 67.09 C2 67.73 O2 68.0 N3 68.19 C4 68.48 O4 69.14 C5 68.22 C6 67.46
C A - 39 -80.0 121.2 P 49.59 OP1 50.42 OP2 49.82 O5' 44.43 C5' 33.5 C4' 29.69 O4' 26.24 C3' 27.23 O3' 28.64 C2' 24.99 O2' 23.05 C1' 23.75 N9 21.78 C8 20.95 N7 21.75 C5 21.35 C6 23.5 N6 23.25 N1 22.99 C2 21.08 N3 21.05 C4 22.25
C G G 162 -46.4 -40.7 P 31.54 OP1 30.84 OP2 30.7 O5' 30.86 C5' 32.26 C4' 33.92 O4' 31.11 C3' 36.57 O3' 43.1 C2' 35.94 O2' 40.56 C1' 31.82 N9 28.12 C8 26.4 N7 25.88 C5 23.4 C6 23.25 O6 22.62 N1 20.5 C2 22.58 N2 19.83 N3 22.31 C4 25.89
C U G 157 -88.3 3.1 P 48.2 OP1 48.3 OP2 49.65 O5' 51.94 C5' 58.05 C4' 62.06 O4' 63.6 C3' 63.88 O3' 64.69 C2' 64.93 O2' 65.41 C1' 65.65 N1 67.83 C2 68.99 O2 69.38 N3 70.13 C4 70.28 O4 71.36 C5 69.89 C6 68.53
C U G 105 -129.7 31.5 P 65.3 OP1 65.19 OP2 64.85 O5' 64.34 C5' 63.02 C4' 61.68 O4' 60.46 C3' 61.23 O3' 62.36 C2' 60.83 O2' 61.77 C1' 58.88 N1 56.47 C2 54.93 O2 53.32 N3 53.88 C4 54.29 O4 53.26 C5 54.32 C6 55.18
D U - 64 360.0 151.8 P 84.96 OP1 85.01 OP2 84.72 O5' 84.77 C5' 84.53 C4' 83.99 O4' 84.82 C3' 83.05 O3' 80.02 C2' 84.09 O2' 83.74 C1' 85.27 N1 86.67 C2 87.52 O2 88.06 N3 87.98 C4 88.01 O4 88.17 C5 87.61 C6 86.99
D U B 28 -68.2 126.9 P 77.79 OP1 77.92 OP2 77.8 O5' 75.15 C5' 69.59 C4' 65.57 O4' 65.8 C3' 62.32 O3' 55.1 C2' 63.62 O2' 65.25 C1' 65.43 N1 66.35 C2 66.95 O2 67.04 N3 67.66 C4 68.07 O4 68.42 C5 67.82 C6 67.07
D A - 36 -72.1 119.1 P 49.41 OP1 50.49 OP2 49.81 O5' 44.53 C5' 33.99 C4' 30.13 O4' 26.44 C3' 28.18 O3' 29.06 C2' 25.7 O2' 23.68 C1' 24.36 N9 23.41 C8 21.89 N7 22.42 C5 22.65 C6 24.01 N6 23.64 N1 23.3 C2 21.74 N3 22.28 C4 23.07
D G T 145 -50.9 -29.3 P 31.79 OP1 31.76 OP2 31.33 O5' 30.13 C5' 32.1 C4' 33.34 O4' 30.71 C3' 35.74 O3' 41.8 C2' 35.24 O2' 39.93 C1' 30.83 N9 27.7 C8 25.01 N7 23.73 C5 23.02 C6 22.78 O6 23.27 N1 21.23 C2 22.06 N2 19.67 N3 21.98 C4 24.94
D U T 144 -102.7 9.5 P 46.61 OP1 46.71 OP2 48.4 O5' 50.92 C5' 57.23 C4' 61.43 O4' 63.18 C3' 63.52 O3' 64.41 C2' 64.59 O2' 65.14 C1' 65.2 N1 66.99 C2 68.19 O2 68.45 N3 69.23 C4 69.24 O4 70.18 C5 69.03 C6 67.79
D U - 107 -128.8 31.1 P 65.17 OP1 65.21 OP2 65.15 O5' 63.92 C5' 62.32 C4' 60.75 O4' 59.32 C3' 60.29 O3' 61.31 C2' 59.69 O2' 60.58 C1' 57.52 N1 54.9 C2 53.18 O2 51.0 N3 52.14 C4 52.97 O4 52.25 C5 53.0 C6 53.56
