A ASN - 144 360.0 -90.8 N 39.71 CA 40.69 C 38.39 O 39.84 CB 43.89 CG 46.5 OD1 48.45 ND2 46.24
A ALA T 63 -69.7 -30.4 N 35.65 CA 31.69 C 30.73 O 29.98 CB 30.97
A MET T 67 -86.0 -5.4 N 27.72 CA 24.64 C 24.06 O 24.05 CB 23.45 CG 21.17 SD 19.07 CE 19.22
A ALA E 9 -83.3 121.6 N 21.75 CA 21.99 C 21.31 O 22.45 CB 20.39
A ILE E 4 -137.0 155.6 N 21.07 CA 22.51 C 20.69 O 21.06 CB 23.56 CG1 27.02 CG2 24.94 CD1 25.88
A HIS E 3 -96.9 152.9 N 18.75 CA 18.79 C 19.35 O 17.65 CB 18.73 CG 20.38 ND1 21.27 CD2 20.28 CE1 18.66 NE2 21.68
A VAL E 0 -124.5 137.2 N 20.43 CA 18.11 C 19.43 O 18.66 CB 20.51 CG1 17.96 CG2 20.13
A GLY E 0 -140.3 158.0 N 19.28 CA 18.89 C 17.86 O 18.66
A ILE E 1 -108.6 117.3 N 19.05 CA 20.81 C 21.5 O 20.03 CB 20.73 CG1 21.66 CG2 18.48 CD1 24.47
A ILE - 0 -62.1 139.1 N 22.18 CA 22.62 C 24.11 O 23.46 CB 23.55 CG1 22.39 CG2 23.29 CD1 22.63
A ASP - 33 -140.0 -168.3 N 24.69 CA 23.45 C 23.92 O 20.83 CB 24.95 CG 25.83 OD1 26.65 OD2 25.95
A GLN S 142 -77.9 -15.0 N 25.03 CA 28.13 C 26.94 O 26.9 CB 32.79 CG 39.59 CD 43.62 OE1 45.76 NE2 43.65
A ASP S 18 -126.8 79.8 N 24.34 CA 23.08 C 22.08 O 22.02 CB 23.04 CG 24.84 OD1 29.72 OD2 25.85
A PRO - 2 -97.4 23.3 N 22.53 CA 21.23 C 20.57 O 20.62 CB 22.13 CG 21.6 CD 22.63
A VAL H 6 -57.4 -35.0 N 17.64 CA 16.24 C 15.49 O 15.56 CB 18.04 CG1 18.05 CG2 18.97
A ARG H 35 -76.9 -3.5 N 15.73 CA 16.19 C 17.67 O 20.09 CB 15.3 CG 14.15 CD 15.52 NE 16.11 CZ 17.8 NH1 19.15 NH2 18.71
A LEU H 0 -85.6 -18.3 N 17.47 CA 18.58 C 19.35 O 20.82 CB 19.18 CG 17.79 CD1 19.69 CD2 18.16
A VAL H 0 -96.4 -43.5 N 16.67 CA 16.16 C 18.25 O 20.11 CB 15.31 CG1 12.98 CG2 16.02
A THR H 1 -60.4 -38.9 N 17.62 CA 17.61 C 19.97 O 22.01 CB 16.54 OG1 14.82 CG2 15.6
A PRO H 1 -53.7 -36.7 N 19.44 CA 19.06 C 18.49 O 19.46 CB 19.72 CG 18.51 CD 18.01
A LEU H 9 -76.2 -19.6 N 17.04 CA 15.39 C 15.8 O 16.96 CB 15.26 CG 16.33 CD1 12.7 CD2 16.58
A LEU H 15 -86.0 -12.7 N 15.16 CA 15.92 C 16.68 O 17.35 CB 16.92 CG 17.8 CD1 17.58 CD2 16.79
A ASP S 9 -72.1 133.9 N 16.14 CA 14.56 C 15.66 O 16.94 CB 14.58 CG 12.5 OD1 13.24 OD2 13.69
A HIS T 137 -67.3 -18.3 N 17.61 CA 16.59 C 17.35 O 17.89 CB 13.18 CG 15.29 ND1 17.91 CD2 14.97 CE1 19.03 NE2 19.37
A ARG T 125 -80.2 -16.4 N 17.42 CA 18.14 C 18.83 O 17.66 CB 18.67 CG 20.95 CD 22.46 NE 22.38 CZ 24.24 NH1 25.09 NH2 20.12
A THR - 41 -78.9 128.5 N 19.28 CA 18.43 C 21.51 O 24.51 CB 18.69 OG1 19.01 CG2 17.15
A VAL - 90 -75.1 -47.7 N 21.68 CA 23.4 C 22.49 O 19.96 CB 25.17 CG1 27.17 CG2 25.91
A SER - 5 -51.2 133.3 N 21.35 CA 22.22 C 22.48 O 23.98 CB 20.89 OG 25.28
A ARG - 130 -125.3 29.4 N 22.82 CA 25.51 C 23.26 O 20.85 CB 28.69 CG 34.45 CD 36.1 NE 41.67 CZ 43.22 NH1 43.92 NH2 43.72
A HIS E 30 -147.3 144.0 N 23.22 CA 21.9 C 20.47 O 17.38 CB 25.88 CG 30.48 ND1 31.82 CD2 31.08 CE1 31.51 NE2 31.52
A ILE E 0 -143.3 143.2 N 19.93 CA 17.4 C 19.04 O 20.14 CB 17.65 CG1 15.52 CG2 16.73 CD1 14.13
A ILE E 10 -111.3 122.0 N 17.62 CA 18.26 C 19.63 O 17.98 CB 17.84 CG1 14.52 CG2 15.88 CD1 17.03
A PHE E 0 -93.1 137.8 N 19.44 CA 19.39 C 18.25 O 17.93 CB 17.65 CG 17.59 CD1 16.84 CD2 16.91 CE1 19.64 CE2 18.28 CZ 18.8
A ILE E 0 -104.1 133.2 N 18.39 CA 18.43 C 18.42 O 19.49 CB 17.75 CG1 19.48 CG2 15.9 CD1 17.93
A GLY E 0 -164.9 171.7 N 18.24 CA 16.66 C 19.8 O 18.42
A ASP - 14 -92.8 171.4 N 19.21 CA 19.84 C 19.65 O 19.58 CB 19.76 CG 22.19 OD1 24.09 OD2 23.27
A HIS G 124 -56.1 -39.6 N 20.05 CA 20.53 C 20.57 O 23.26 CB 19.51 CG 20.89 ND1 21.24 CD2 21.16 CE1 21.05 NE2 22.25
A THR G 111 -67.3 -7.4 N 21.31 CA 21.59 C 22.6 O 23.02 CB 23.13 OG1 26.66 CG2 20.88
A GLN G 7 -98.9 7.8 N 20.24 CA 20.18 C 19.4 O 19.21 CB 17.43 CG 17.89 CD 19.73 OE1 18.57 NE2 19.0
A THR H 34 -49.2 -39.9 N 20.19 CA 22.39 C 22.13 O 21.1 CB 24.08 OG1 23.53 CG2 25.54
A VAL H 64 -69.3 -42.1 N 20.61 CA 22.26 C 21.73 O 18.01 CB 23.42 CG1 23.64 CG2 24.09
A ILE H 12 -58.1 -49.5 N 21.68 CA 19.9 C 18.84 O 19.24 CB 20.56 CG1 23.43 CG2 18.13 CD1 23.59
A TYR H 48 -47.9 -50.2 N 18.57 CA 18.28 C 18.77 O 20.31 CB 19.15 CG 20.33 CD1 21.25 CD2 20.41 CE1 20.01 CE2 19.71 CZ 21.57 OH 22.68
A GLN H 103 -58.7 -42.6 N 18.08 CA 21.68 C 21.09 O 19.31 CB 23.3 CG 26.74 CD 26.86 OE1 29.25 NE2 29.11
A ARG H 76 -66.2 -47.2 N 20.95 CA 19.97 C 20.85 O 20.83 CB 16.97 CG 17.83 CD 21.59 NE 23.57 CZ 26.21 NH1 25.76 NH2 25.21
A LEU H 1 -53.8 -43.1 N 18.18 CA 18.38 C 18.04 O 16.65 CB 16.33 CG 17.6 CD1 16.29 CD2 18.3
A SER H 7 -66.8 -36.7 N 18.75 CA 19.99 C 21.32 O 20.84 CB 19.59 OG 20.33
A ASP H 94 -57.4 -45.5 N 23.0 CA 24.48 C 22.56 O 24.4 CB 27.92 CG 31.9 OD1 33.43 OD2 34.25
A VAL H 0 -67.4 -48.9 N 19.13 CA 20.46 C 19.42 O 20.4 CB 19.53 CG1 19.54 CG2 18.8
A LEU H 0 -74.3 -43.2 N 19.23 CA 20.14 C 20.55 O 19.77 CB 18.19 CG 17.2 CD1 16.44 CD2 15.36
A ASN H 81 -57.1 -36.4 N 20.13 CA 23.87 C 26.8 O 26.43 CB 22.3 CG 22.88 OD1 23.1 ND2 20.01
A LYS H 141 -45.5 -40.0 N 28.42 CA 31.85 C 30.02 O 27.13 CB 33.11 CG 36.53 CD 36.98 CE 41.04 NZ 42.58
A ARG T 75 -93.6 12.8 N 30.32 CA 30.77 C 30.87 O 32.3 CB 32.27 CG 34.2 CD 33.44 NE 36.04 CZ 37.56 NH1 38.13 NH2 36.98
A ASN T 138 66.4 22.3 N 30.24 CA 29.87 C 28.33 O 28.86 CB 32.12 CG 34.04 OD1 34.21 ND2 33.63
A ILE - 13 -92.5 123.3 N 25.61 CA 22.61 C 21.85 O 21.64 CB 22.56 CG1 21.96 CG2 20.82 CD1 24.11
A SER E 49 -84.7 158.2 N 20.73 CA 22.06 C 18.71 O 18.49 CB 23.3 OG 26.59
A THR E 10 -141.8 150.7 N 17.45 CA 17.72 C 18.94 O 16.52 CB 16.95 OG1 19.24 CG2 13.6
A ASP E 77 -142.7 160.6 N 20.35 CA 21.84 C 20.45 O 18.94 CB 29.41 CG 35.13 OD1 37.92 OD2 38.36
A PHE E 44 -123.5 123.7 N 19.0 CA 20.36 C 21.47 O 20.7 CB 19.49 CG 21.02 CD1 21.46 CD2 21.42 CE1 21.8 CE2 22.31 CZ 20.32
A PHE E 51 -116.8 119.8 N 23.6 CA 21.96 C 23.27 O 21.36 CB 22.77 CG 24.53 CD1 23.12 CD2 25.49 CE1 22.54 CE2 24.91 CZ 23.46
A GLU E 88 -93.7 125.2 N 24.91 CA 24.92 C 24.22 O 22.9 CB 26.23 CG 28.19 CD 29.38 OE1 29.9 OE2 30.11
A ILE - 5 -95.8 164.8 N 22.41 CA 21.68 C 22.26 O 24.44 CB 21.71 CG1 22.59 CG2 21.59 CD1 24.52
A PRO - 63 -70.4 156.8 N 23.57 CA 22.34 C 20.64 O 20.2 CB 22.17 CG 23.28 CD 22.78
A ALA S 60 -88.1 -20.9 N 20.41 CA 21.57 C 20.8 O 22.65 CB 19.93
A GLY S 48 -60.3 172.4 N 20.99 CA 22.21 C 23.42 O 27.08
A SER S 97 -85.9 -7.5 N 22.64 CA 23.9 C 24.78 O 26.86 CB 25.06 OG 25.6
A ASN - 98 -58.9 110.1 N 24.83 CA 24.32 C 24.24 O 24.48 CB 23.64 CG 24.96 OD1 22.74 ND2 24.6
A THR H 58 -86.3 -24.3 N 24.86 CA 23.78 C 25.31 O 23.82 CB 23.35 OG1 21.33 CG2 21.58
A SER H 85 -70.7 -29.4 N 25.65 CA 24.62 C 23.37 O 22.4 CB 26.36 OG 28.08
A ALA H 39 -71.8 -42.5 N 21.38 CA 19.88 C 19.42 O 19.99 CB 16.75
A ILE H 0 -59.1 -50.8 N 20.61 CA 21.67 C 23.3 O 25.66 CB 23.32 CG1 21.22 CG2 21.12 CD1 23.67
A LYS H 59 -59.1 -39.4 N 22.01 CA 23.52 C 25.9 O 25.09 CB 24.29 CG 25.84 CD 25.48 CE 26.58 NZ 27.18
A SER H 69 -60.3 -46.1 N 26.53 CA 25.88 C 24.73 O 24.79 CB 25.01 OG 26.96
A ALA H 18 -62.4 -42.9 N 22.91 CA 22.59 C 21.89 O 21.62 CB 23.88
A ILE H 0 -73.0 -33.2 N 21.65 CA 21.88 C 24.3 O 26.01 CB 21.64 CG1 21.35 CG2 18.42 CD1 21.66
A ARG H 94 -66.6 -37.7 N 24.81 CA 26.99 C 27.0 O 25.81 CB 28.23 CG 32.12 CD 35.16 NE 37.61 CZ 37.76 NH1 37.4 NH2 35.52
A GLU H 138 -56.5 -49.4 N 27.92 CA 30.48 C 27.47 O 26.03 CB 31.43 CG 35.21 CD 37.29 OE1 38.4 OE2 39.9
A LEU H 17 -55.7 -48.1 N 26.22 CA 23.83 C 24.27 O 24.78 CB 23.87 CG 23.46 CD1 22.97 CD2 24.43
A ALA H 0 -62.1 -38.3 N 22.23 CA 20.97 C 24.16 O 23.06 CB 18.91
A GLU H 113 -72.0 -40.2 N 26.29 CA 28.85 C 27.78 O 27.85 CB 31.72 CG 36.32 CD 39.24 OE1 39.07 OE2 40.51
A THR H 71 -61.4 -38.1 N 28.01 CA 26.66 C 25.74 O 25.52 CB 28.97 OG1 29.95 CG2 28.66
A LEU H 1 -72.2 -44.7 N 22.42 CA 22.44 C 22.36 O 22.38 CB 20.31 CG 20.83 CD1 18.14 CD2 20.62
A LYS H 112 -57.6 -41.1 N 22.84 CA 25.74 C 26.33 O 24.95 CB 27.99 CG 31.18 CD 34.6 CE 37.36 NZ 38.81
A ALA H 91 -65.4 -28.0 N 24.5 CA 25.14 C 24.35 O 20.56 CB 25.1
A ARG H 143 -84.5 -11.5 N 25.08 CA 25.95 C 25.55 O 26.48 CB 29.11 CG 32.59 CD 34.53 NE 36.98 CZ 39.15 NH1 38.24 NH2 40.29
A GLY T 40 79.8 22.9 N 25.69 CA 26.19 C 27.17 O 27.16
A GLU - 23 -60.7 134.9 N 26.0 CA 27.49 C 26.87 O 25.19 CB 29.92 CG 31.49 CD 33.86 OE1 33.94 OE2 34.87
A GLU E 116 -95.1 84.6 N 27.09 CA 26.81 C 25.9 O 25.28 CB 27.02 CG 31.25 CD 32.23 OE1 32.88 OE2 34.05
A VAL E 1 -76.0 137.9 N 23.38 CA 23.94 C 23.31 O 23.21 CB 23.72 CG1 21.81 CG2 25.82
A LYS E 73 -128.4 129.8 N 19.94 CA 20.17 C 20.51 O 19.62 CB 21.18 CG 24.58 CD 27.26 CE 28.13 NZ 27.9
A PHE E 0 -99.6 116.0 N 20.23 CA 18.32 C 17.0 O 14.66 CB 18.1 CG 20.84 CD1 20.84 CD2 20.09 CE1 22.13 CE2 20.89 CZ 21.19
A ASN E 0 -88.7 104.3 N 13.79 CA 16.29 C 17.43 O 16.97 CB 16.29 CG 18.61 OD1 18.32 ND2 16.03
A ALA - 9 -94.6 22.7 N 15.19 CA 17.37 C 16.98 O 18.7 CB 15.22
A SER S 12 -68.6 -28.8 N 17.14 CA 17.01 C 18.09 O 17.97 CB 16.11 OG 15.04
A CYS S 3 -130.1 163.3 N 16.69 CA 18.88 C 19.64 O 20.42 CB 19.64 SG 23.02
A GLY S 10 115.7 148.5 N 19.93 CA 17.26 C 16.98 O 19.08
A LEU - 97 -54.8 143.8 N 16.79 CA 17.04 C 17.52 O 16.92 CB 14.72 CG 18.07 CD1 18.02 CD2 18.06
A ARG H 195 -63.7 -31.9 N 17.29 CA 19.33 C 18.34 O 20.81 CB 18.76 CG 18.71 CD 17.86 NE 18.7 CZ 19.92 NH1 18.78 NH2 17.4
A HIS H 57 -62.9 -46.7 N 18.25 CA 20.46 C 20.02 O 20.87 CB 20.93 CG 25.64 ND1 25.58 CD2 27.16 CE1 25.74 NE2 25.47
A ARG H 15 -67.7 -42.7 N 19.76 CA 19.48 C 18.52 O 19.88 CB 18.25 CG 19.84 CD 21.44 NE 22.44 CZ 22.38 NH1 26.37 NH2 20.11
A LEU H 31 -56.7 -49.0 N 17.29 CA 18.79 C 18.22 O 18.74 CB 17.24 CG 19.13 CD1 19.17 CD2 18.58
A LEU H 108 -74.2 -24.5 N 18.7 CA 18.58 C 18.39 O 19.07 CB 19.38 CG 20.64 CD1 18.69 CD2 20.34
A SER H 3 -69.4 -49.8 N 17.05 CA 17.92 C 18.94 O 20.55 CB 19.75 OG 19.72
A ALA H 0 -58.9 -43.2 N 16.45 CA 18.47 C 19.78 O 20.16 CB 15.35
A TYR H 77 -53.5 -46.3 N 21.15 CA 20.63 C 22.22 O 17.87 CB 24.12 CG 25.02 CD1 25.98 CD2 26.19 CE1 25.58 CE2 26.15 CZ 25.86 OH 27.95
A GLU H 93 -60.3 -48.6 N 22.63 CA 27.49 C 24.85 O 25.1 CB 26.49 CG 32.67 CD 35.49 OE1 40.24 OE2 38.43
A VAL H 0 -61.8 -53.3 N 23.33 CA 23.62 C 23.17 O 21.09 CB 23.39 CG1 20.88 CG2 22.66
A PHE H 0 -67.9 -37.7 N 22.52 CA 22.79 C 23.48 O 22.16 CB 20.57 CG 20.88 CD1 22.83 CD2 19.05 CE1 24.77 CE2 20.21 CZ 22.23
A ARG H 89 -60.2 -36.0 N 22.4 CA 24.51 C 25.05 O 25.84 CB 24.9 CG 27.42 CD 28.73 NE 29.98 CZ 29.85 NH1 32.24 NH2 29.78
A SER H 58 -67.4 -24.8 N 24.42 CA 24.74 C 24.68 O 23.05 CB 24.06 OG 24.53
A TYR T 26 -84.2 0.2 N 25.59 CA 23.97 C 23.83 O 23.0 CB 25.71 CG 26.94 CD1 26.17 CD2 26.23 CE1 27.17 CE2 27.01 CZ 27.56 OH 28.74
A HIS T 124 63.3 27.0 N 24.09 CA 26.48 C 25.37 O 24.87 CB 31.02 CG 35.32 ND1 37.89 CD2 37.8 CE1 38.35 NE2 39.06
A TRP - 21 -86.9 140.3 N 22.36 CA 22.11 C 20.64 O 22.38 CB 21.88 CG 22.37 CD1 23.32 CD2 21.97 NE1 22.83 CE2 22.52 CE3 23.45 CZ2 21.27 CZ3 22.36 CH2 22.59
A PRO - 33 -61.8 148.3 N 19.91 CA 18.41 C 18.44 O 18.19 CB 18.42 CG 21.03 CD 20.43
A ILE E 0 -135.1 131.1 N 18.19 CA 15.41 C 14.95 O 16.16 CB 15.42 CG1 14.03 CG2 11.81 CD1 14.56
A PHE E 2 -137.5 162.5 N 14.94 CA 14.73 C 15.81 O 17.1 CB 15.02 CG 17.08 CD1 18.29 CD2 17.21 CE1 17.4 CE2 18.12 CZ 16.21
A VAL E 37 -135.3 135.2 N 16.53 CA 15.59 C 15.43 O 13.66 CB 16.97 CG1 15.05 CG2 16.8
A VAL E 0 -87.7 110.4 N 16.42 CA 15.76 C 16.63 O 16.24 CB 13.65 CG1 15.69 CG2 12.65
A GLU - 65 -68.2 124.9 N 18.69 CA 20.72 C 20.74 O 21.17 CB 20.06 CG 21.68 CD 20.97 OE1 21.01 OE2 18.39
A PRO T 29 -70.8 -28.5 N 19.42 CA 20.31 C 21.69 O 24.09 CB 19.77 CG 16.97 CD 17.38
A ASN T 98 -74.6 -47.2 N 20.88 CA 21.07 C 19.99 O 18.52 CB 23.12 CG 26.56 OD1 25.36 ND2 29.15
A SER T 38 -83.3 -26.0 N 16.29 CA 16.92 C 15.64 O 19.19 CB 16.73 OG 15.86
A ASP - 5 67.1 20.8 N 14.83 CA 14.04 C 14.1 O 13.38 CB 15.8 CG 16.74 OD1 21.42 OD2 14.29
A CYS E 40 -81.6 133.5 N 15.37 CA 14.6 C 14.07 O 16.34 CB 15.77 SG 23.44
A LEU E 13 -83.3 123.8 N 13.26 CA 14.13 C 16.22 O 16.42 CB 13.37 CG 16.03 CD1 17.23 CD2 13.2
A CYS E 36 -119.3 126.3 N 14.8 CA 18.13 C 17.25 O 15.11 CB 22.3 SG 30.27
A TRP E 25 -87.1 113.4 N 15.45 CA 18.31 C 18.45 O 20.41 CB 17.49 CG 18.08 CD1 16.89 CD2 18.92 NE1 15.2 CE2 17.41 CE3 18.42 CZ2 17.6 CZ3 17.55 CH2 18.49
A LEU E 69 -82.2 -30.8 N 19.07 CA 20.72 C 21.54 O 22.37 CB 21.3 CG 24.19 CD1 24.67 CD2 22.47
A TYR E 53 -157.2 125.1 N 23.46 CA 25.06 C 24.84 O 22.8 CB 28.24 CG 28.95 CD1 28.79 CD2 29.21 CE1 30.96 CE2 30.76 CZ 30.6 OH 31.92
A PRO S 49 -76.0 138.9 N 27.1 CA 28.25 C 28.41 O 27.14 CB 27.74 CG 27.92 CD 26.51
A GLU T 137 -60.3 -17.7 N 29.22 CA 30.32 C 30.26 O 28.66 CB 31.1 CG 30.66 CD 31.26 OE1 34.48 OE2 26.78
A GLY T 67 -64.6 -22.8 N 29.15 CA 28.5 C 29.12 O 30.92
A ASN S 59 -64.9 154.4 N 27.85 CA 27.36 C 26.95 O 26.36 CB 29.05 CG 30.38 OD1 29.76 ND2 29.08
A ASN - 133 -94.9 125.7 N 27.04 CA 27.58 C 24.77 O 25.22 CB 28.96 CG 32.74 OD1 34.33 ND2 34.31
A ASP - 85 -66.5 146.2 N 23.31 CA 22.86 C 21.72 O 19.16 CB 22.96 CG 24.4 OD1 24.93 OD2 24.37
A THR E 55 -135.4 163.2 N 19.46 CA 20.16 C 18.65 O 20.33 CB 19.75 OG1 20.66 CG2 20.83
A GLN E 52 -88.0 125.4 N 17.04 CA 15.89 C 15.65 O 16.82 CB 15.74 CG 16.55 CD 13.3 OE1 17.35 NE2 12.56
A VAL - 0 -62.6 135.2 N 15.9 CA 14.92 C 16.97 O 17.59 CB 16.59 CG1 12.09 CG2 11.68
A GLN - 47 -68.1 166.1 N 16.35 CA 16.94 C 17.66 O 18.05 CB 16.83 CG 17.18 CD 17.93 OE1 18.71 NE2 17.41
A ASP - 31 -110.0 92.9 N 16.15 CA 16.3 C 17.31 O 16.44 CB 15.9 CG 15.34 OD1 14.58 OD2 13.33
A ARG - 105 -124.9 -37.4 N 19.46 CA 19.17 C 20.24 O 20.92 CB 20.12 CG 19.06 CD 18.72 NE 20.01 CZ 19.13 NH1 16.56 NH2 19.23
A ILE - 1 -55.6 141.7 N 21.5 CA 19.13 C 21.58 O 20.96 CB 19.39 CG1 18.16 CG2 16.47 CD1 20.37
A THR - 41 -101.4 168.5 N 21.77 CA 20.55 C 20.06 O 21.36 CB 19.22 OG1 19.9 CG2 18.9
A ILE H 0 -53.7 -42.5 N 20.22 CA 19.37 C 19.14 O 18.14 CB 18.17 CG1 18.37 CG2 20.47 CD1 16.29
A ALA H 29 -61.4 -42.9 N 21.09 CA 22.27 C 23.65 O 25.01 CB 22.49
A ASP H 2 -66.9 -40.1 N 25.15 CA 22.89 C 23.18 O 24.28 CB 24.54 CG 26.75 OD1 28.89 OD2 28.28
A TYR H 4 -61.2 -45.9 N 21.34 CA 19.99 C 20.44 O 20.43 CB 19.97 CG 19.99 CD1 19.86 CD2 20.19 CE1 19.32 CE2 18.61 CZ 18.46 OH 19.17
A LEU H 0 -63.6 -43.3 N 19.66 CA 19.6 C 20.2 O 23.36 CB 19.79 CG 21.18 CD1 18.48 CD2 19.93
A THR H 32 -57.1 -50.3 N 17.8 CA 19.26 C 19.43 O 22.25 CB 20.46 OG1 23.84 CG2 19.87
A ILE H 3 -50.9 -41.1 N 19.3 CA 21.61 C 23.32 O 23.43 CB 20.76 CG1 20.7 CG2 19.43 CD1 21.34
A PHE T 33 -94.6 15.2 N 23.44 CA 23.93 C 24.33 O 26.57 CB 21.66 CG 22.55 CD1 21.49 CD2 22.33 CE1 21.92 CE2 20.39 CZ 20.57
A GLY T 26 89.2 19.7 N 24.9 CA 24.24 C 26.78 O 27.73
A ALA - 9 -126.5 170.4 N 25.25 CA 29.1 C 30.56 O 33.12 CB 25.46
A ARG E 116 -143.4 136.7 N 31.86 CA 32.96 C 32.86 O 32.54 CB 33.91 CG 36.94 CD 38.93 NE 39.67 CZ 41.26 NH1 41.03 NH2 41.87
A GLY E 17 -106.0 149.0 N 32.95 CA 31.48 C 32.01 O 32.3
A GLU E 87 -111.9 131.2 N 31.84 CA 32.85 C 31.08 O 29.69 CB 33.59 CG 36.18 CD 37.82 OE1 40.22 OE2 40.66
A PHE - 83 -116.0 136.0 N 30.28 CA 32.17 C 35.04 O 34.49 CB 30.55 CG 29.48 CD1 29.31 CD2 28.91 CE1 27.97 CE2 26.66 CZ 28.31
A ASN - 167 10.5 360.0 N 38.69 CA 42.16 C 43.79 O 44.87 CB 44.11 CG 46.51 OD1 47.92 ND2 46.45
A SER - 104 360.0 -62.0 N 49.01 CA 48.83 C 47.93 O 47.73 CB 49.25 OG 50.58
A PRO H 108 -58.0 -37.7 N 47.02 CA 46.38 C 45.52 O 45.98 CB 46.5 CG 47.0 CD 47.6
A GLN H 160 -76.5 -40.1 N 43.21 CA 42.1 C 39.8 O 38.15 CB 42.73 CG 44.57 CD 44.58 OE1 45.76 NE2 44.55
A LEU H 38 -60.4 -48.9 N 37.68 CA 36.04 C 33.86 O 33.71 CB 36.49 CG 37.03 CD1 35.75 CD2 37.23
A ASP H 74 -55.4 -41.2 N 32.21 CA 31.99 C 28.78 O 27.43 CB 33.23 CG 36.57 OD1 38.58 OD2 37.54
A GLN H 100 -72.6 -42.6 N 25.98 CA 24.89 C 22.04 O 20.91 CB 24.99 CG 24.94 CD 25.9 OE1 27.37 NE2 23.82
A GLN H 58 -55.9 -45.3 N 21.56 CA 21.96 C 22.33 O 21.82 CB 23.32 CG 23.34 CD 24.6 OE1 27.18 NE2 19.06
A LEU H 7 -68.4 -36.0 N 20.33 CA 21.0 C 20.99 O 21.29 CB 19.99 CG 20.99 CD1 20.83 CD2 17.96
A TYR H 38 -64.6 -47.5 N 19.81 CA 20.23 C 20.72 O 17.79 CB 24.97 CG 26.09 CD1 25.48 CD2 27.42 CE1 28.17 CE2 27.7 CZ 28.32 OH 28.95
A GLN H 78 -72.2 -33.6 N 20.12 CA 21.82 C 22.67 O 23.07 CB 22.77 CG 24.64 CD 26.05 OE1 26.55 NE2 26.92
A LEU H 9 -59.4 -45.1 N 21.82 CA 21.74 C 21.0 O 20.34 CB 23.89 CG 27.39 CD1 29.03 CD2 26.14
A GLY H 0 -60.3 -44.6 N 21.38 CA 20.46 C 19.04 O 18.44
A GLU H 81 -52.4 -45.1 N 20.63 CA 26.33 C 24.7 O 24.96 CB 27.44 CG 32.49 CD 34.45 OE1 37.36 OE2 39.24
A ARG H 125 -65.4 -45.7 N 22.5 CA 24.07 C 21.68 O 20.38 CB 25.65 CG 29.28 CD 32.71 NE 36.98 CZ 39.43 NH1 37.74 NH2 39.59
A TRP H 0 -69.6 -40.8 N 21.52 CA 21.83 C 21.32 O 19.86 CB 20.93 CG 21.34 CD1 20.77 CD2 20.46 NE1 22.22 CE2 21.21 CE3 20.95 CZ2 21.35 CZ3 21.06 CH2 22.63
A ALA H 3 -65.1 -37.4 N 20.96 CA 20.84 C 20.43 O 22.0 CB 20.66
A SER H 30 -85.5 -9.8 N 20.38 CA 22.41 C 21.72 O 21.23 CB 22.71 OG 24.19
A ASN T 47 -124.5 40.2 N 20.42 CA 20.35 C 19.78 O 21.14 CB 21.12 CG 23.09 OD1 24.77 ND2 24.51
A ALA H 1 -61.7 -43.1 N 16.8 CA 17.99 C 17.91 O 17.86 CB 15.17
A LEU H 89 -68.3 -38.7 N 20.14 CA 23.4 C 25.17 O 27.86 CB 23.89 CG 25.31 CD1 25.1 CD2 25.68
A GLU H 91 -60.7 -34.7 N 26.25 CA 26.99 C 26.47 O 24.63 CB 27.71 CG 28.17 CD 28.38 OE1 25.99 OE2 31.16
A LEU H 7 -97.9 -7.1 N 26.35 CA 25.93 C 25.96 O 26.29 CB 25.97 CG 24.65 CD1 26.29 CD2 23.02
A GLY H 3 -30.9 -81.8 N 26.79 CA 27.49 C 28.14 O 27.84
A PRO H 80 -48.0 -40.8 N 29.55 CA 28.18 C 26.07 O 27.51 CB 30.17 CG 30.23 CD 29.67
A GLY H 2 -64.2 -32.9 N 23.01 CA 23.58 C 23.36 O 21.61
A LEU H 10 -78.6 -34.5 N 23.51 CA 22.86 C 24.67 O 26.83 CB 25.01 CG 24.43 CD1 24.6 CD2 25.02
A ALA H 35 -52.2 -45.4 N 22.69 CA 23.97 C 25.11 O 25.55 CB 23.84
A THR H 27 -69.7 -39.0 N 23.53 CA 21.03 C 21.4 O 22.66 CB 22.19 OG1 25.29 CG2 19.96
A LEU H 0 -62.6 -43.2 N 20.79 CA 22.58 C 24.0 O 24.36 CB 21.79 CG 23.4 CD1 21.26 CD2 22.26
A ASN H 44 -55.1 -48.2 N 22.25 CA 23.13 C 23.64 O 24.08 CB 23.51 CG 26.23 OD1 26.74 ND2 24.87
A TYR H 137 -58.4 -44.3 N 25.39 CA 27.23 C 25.27 O 25.49 CB 31.86 CG 34.51 CD1 34.66 CD2 35.23 CE1 34.41 CE2 35.03 CZ 34.14 OH 35.2
A LEU H 1 -61.2 -49.7 N 22.82 CA 23.39 C 23.41 O 24.57 CB 21.62 CG 23.29 CD1 22.81 CD2 21.2
A ALA H 0 -56.7 -40.3 N 23.65 CA 23.34 C 23.62 O 22.88 CB 18.07
A THR H 24 -65.2 -39.2 N 24.45 CA 23.25 C 24.3 O 23.33 CB 22.0 OG1 23.76 CG2 20.21
A THR H 28 -57.8 -44.0 N 24.33 CA 26.01 C 25.9 O 23.85 CB 28.35 OG1 30.57 CG2 29.51
A CYS H 0 -61.5 -50.5 N 22.8 CA 24.86 C 24.14 O 24.23 CB 25.24 SG 27.7
A ARG H 107 -51.9 -52.7 N 24.57 CA 24.96 C 25.19 O 24.25 CB 27.33 CG 29.61 CD 32.86 NE 34.52 CZ 35.95 NH1 36.14 NH2 36.62
A LYS H 157 -64.5 -28.3 N 25.41 CA 27.33 C 27.45 O 25.99 CB 28.98 CG 32.7 CD 33.72 CE 33.97 NZ 36.54
A GLU H 112 -91.8 -8.2 N 26.43 CA 26.57 C 24.29 O 17.85 CB 30.76 CG 35.03 CD 38.21 OE1 39.17 OE2 40.81
A GLN T 173 59.9 42.6 N 22.02 CA 24.8 C 25.05 O 25.08 CB 25.52 CG 26.28 CD 29.82 OE1 31.01 NE2 30.01
A LYS - 70 -136.6 177.6 N 26.06 CA 26.83 C 26.14 O 28.94 CB 28.28 CG 29.65 CD 33.36 CE 35.5 NZ 38.02
A LEU S 48 -116.6 7.5 N 23.66 CA 24.51 C 24.39 O 24.95 CB 24.54 CG 25.48 CD1 26.0 CD2 25.99
A ASP E 70 -127.5 153.1 N 23.84 CA 26.0 C 24.19 O 24.5 CB 29.03 CG 33.18 OD1 37.02 OD2 36.27
A VAL E 12 -158.0 132.2 N 23.4 CA 22.68 C 24.1 O 25.22 CB 22.15 CG1 18.65 CG2 20.79
A GLU E 144 -91.0 129.2 N 25.33 CA 27.14 C 25.13 O 24.24 CB 27.41 CG 30.31 CD 31.34 OE1 30.47 OE2 35.62
A LEU - 5 -82.1 144.0 N 23.14 CA 22.43 C 24.0 O 22.63 CB 21.91 CG 21.57 CD1 20.74 CD2 20.57
A SER - 57 -65.4 168.7 N 23.75 CA 25.02 C 24.91 O 25.39 CB 24.84 OG 25.19
A ASP H 138 -68.5 -33.0 N 25.03 CA 28.72 C 28.59 O 28.42 CB 32.6 CG 36.23 OD1 37.89 OD2 39.38
A LYS H 152 -60.1 -52.4 N 27.25 CA 27.48 C 27.17 O 25.32 CB 30.97 CG 34.41 CD 35.21 CE 36.37 NZ 36.72
A GLN H 24 -54.1 -35.7 N 24.27 CA 23.79 C 23.27 O 22.39 CB 23.71 CG 23.61 CD 23.7 OE1 24.15 NE2 25.17
A GLN H 60 -67.8 -21.9 N 21.36 CA 22.58 C 21.73 O 21.27 CB 21.89 CG 22.59 CD 23.42 OE1 22.9 NE2 23.17
A GLY T 62 -93.4 -1.9 N 19.29 CA 19.59 C 22.8 O 22.18
A TYR - 96 -72.1 121.0 N 24.68 CA 27.64 C 27.95 O 25.5 CB 27.88 CG 30.22 CD1 30.23 CD2 30.35 CE1 30.19 CE2 29.81 CZ 30.07 OH 29.67
A ARG H 172 -49.8 -65.8 N 30.12 CA 33.07 C 31.26 O 31.47 CB 34.38 CG 38.15 CD 39.74 NE 45.58 CZ 48.42 NH1 49.31 NH2 49.29
A GLU H 24 -64.5 -36.8 N 31.38 CA 31.3 C 28.42 O 28.08 CB 34.94 CG 40.2 CD 44.58 OE1 47.08 OE2 47.17
A LEU H 0 -54.2 -48.0 N 25.02 CA 22.55 C 21.53 O 20.9 CB 20.81 CG 22.1 CD1 19.17 CD2 20.25
A ASN H 52 -61.5 -37.5 N 21.49 CA 23.81 C 21.77 O 21.29 CB 25.64 CG 28.85 OD1 29.26 ND2 30.96
A LEU H 69 -53.8 -47.0 N 20.41 CA 22.46 C 23.86 O 25.16 CB 21.37 CG 22.39 CD1 22.25 CD2 21.73
A LEU H 0 -66.2 -46.2 N 22.45 CA 22.88 C 23.0 O 25.82 CB 21.95 CG 19.93 CD1 20.51 CD2 21.9
A LEU H 1 -59.2 -42.8 N 23.28 CA 24.99 C 23.07 O 22.85 CB 24.78 CG 26.58 CD1 25.34 CD2 25.81
A SER H 64 -73.2 -21.1 N 21.68 CA 24.34 C 24.17 O 24.62 CB 25.18 OG 32.0
A ASP H 42 -69.9 -44.5 N 23.79 CA 25.37 C 25.22 O 25.43 CB 27.65 CG 30.46 OD1 31.67 OD2 32.57
A LEU H 0 -54.4 -44.3 N 23.55 CA 23.77 C 22.91 O 23.38 CB 24.48 CG 24.12 CD1 22.9 CD2 23.17
A VAL H 61 -65.4 -53.1 N 20.46 CA 21.16 C 21.87 O 23.17 CB 18.83 CG1 16.36 CG2 20.5
A GLU H 154 -53.5 -40.3 N 23.51 CA 23.34 C 23.01 O 20.81 CB 26.37 CG 32.01 CD 34.4 OE1 36.25 OE2 36.82
A ALA T 7 -73.7 -2.1 N 21.87 CA 24.16 C 25.0 O 26.9 CB 20.94
A LYS T 175 57.5 25.6 N 24.44 CA 25.9 C 24.29 O 21.05 CB 26.57 CG 29.49 CD 29.27 CE 30.46 NZ 31.01
A ILE S 2 -104.2 -0.9 N 22.79 CA 22.72 C 22.18 O 19.72 CB 22.92 CG1 22.84 CG2 21.53 CD1 25.48
A ALA E 7 -153.0 158.0 N 23.17 CA 21.69 C 23.15 O 22.31 CB 23.17
A SER E 55 -111.6 151.2 N 23.0 CA 22.13 C 23.37 O 21.59 CB 23.25 OG 25.25
A TYR E 48 -140.0 112.6 N 23.41 CA 25.17 C 27.6 O 26.9 CB 24.11 CG 24.75 CD1 24.09 CD2 24.06 CE1 24.09 CE2 24.83 CZ 24.9 OH 24.37
A GLU E 127 -152.2 125.1 N 28.02 CA 30.21 C 29.34 O 26.38 CB 33.72 CG 39.92 CD 43.4 OE1 45.26 OE2 45.17
A ASN T 148 58.2 39.7 N 27.81 CA 27.75 C 25.91 O 24.97 CB 27.83 CG 29.35 OD1 30.31 ND2 28.45
A GLY T 3 71.4 7.0 N 24.02 CA 22.03 C 22.05 O 20.21
A ILE E 57 -104.1 123.8 N 22.58 CA 21.4 C 21.57 O 20.48 CB 21.77 CG1 21.47 CG2 19.91 CD1 23.14
A LEU E 0 -100.7 122.8 N 21.53 CA 21.23 C 22.05 O 22.97 CB 22.29 CG 23.36 CD1 23.33 CD2 23.33
A THR E 46 -121.7 119.7 N 21.82 CA 22.6 C 23.88 O 24.81 CB 23.66 OG1 21.95 CG2 21.93
A PHE E 3 -75.6 143.2 N 23.34 CA 25.05 C 26.62 O 26.07 CB 23.37 CG 23.28 CD1 23.5 CD2 22.16 CE1 23.13 CE2 21.73 CZ 21.19
A ILE S 89 -66.0 -28.5 N 26.84 CA 28.05 C 27.71 O 27.11 CB 29.45 CG1 30.27 CG2 30.93 CD1 31.82
A ASN S 56 -165.1 178.0 N 26.17 CA 27.49 C 26.62 O 25.94 CB 27.9 CG 29.55 OD1 30.57 ND2 28.02
A GLU H 91 -62.6 -38.7 N 27.94 CA 29.66 C 27.59 O 25.73 CB 32.26 CG 38.64 CD 41.48 OE1 42.45 OE2 41.94
A GLU H 68 -65.1 -35.7 N 28.12 CA 27.6 C 24.55 O 22.48 CB 30.43 CG 35.47 CD 39.16 OE1 42.77 OE2 40.44
A ALA H 0 -70.8 -40.7 N 23.56 CA 21.77 C 21.59 O 23.27 CB 20.07
A ARG H 17 -60.9 -45.9 N 22.85 CA 23.51 C 22.94 O 23.14 CB 24.45 CG 26.23 CD 28.3 NE 29.84 CZ 29.71 NH1 26.18 NH2 28.91
A ARG H 96 -61.2 -34.5 N 24.73 CA 26.13 C 23.54 O 22.84 CB 28.06 CG 31.03 CD 30.73 NE 34.37 CZ 35.17 NH1 35.43 NH2 35.52
A PHE I 2 -64.7 -49.0 N 21.68 CA 22.26 C 22.86 O 23.55 CB 21.91 CG 23.71 CD1 22.71 CD2 23.14 CE1 23.16 CE2 24.6 CZ 23.29
A ALA I 1 -72.1 -22.0 N 22.07 CA 21.82 C 23.61 O 23.48 CB 20.28
A ASN I 19 -69.4 -19.7 N 25.78 CA 28.37 C 28.16 O 31.25 CB 29.86 CG 33.7 OD1 33.53 ND2 36.51
A GLY I 15 137.9 -11.3 N 26.53 CA 24.2 C 24.2 O 23.43
A GLU I 62 -68.9 -6.8 N 24.19 CA 22.85 C 20.78 O 19.76 CB 26.31 CG 30.33 CD 33.97 OE1 34.37 OE2 36.16
A TRP H 4 -54.4 -35.4 N 19.94 CA 18.06 C 17.79 O 19.57 CB 15.85 CG 15.84 CD1 16.0 CD2 15.76 NE1 16.6 CE2 15.69 CE3 15.76 CZ2 16.28 CZ3 15.11 CH2 15.27
A LEU H 1 -78.4 -37.5 N 18.77 CA 18.97 C 18.65 O 21.1 CB 17.27 CG 17.7 CD1 15.48 CD2 19.17
A GLU H 16 -74.8 -36.4 N 17.78 CA 19.98 C 18.68 O 18.89 CB 18.52 CG 22.61 CD 24.32 OE1 29.72 OE2 27.5
A THR H 27 -59.2 -45.9 N 17.84 CA 18.55 C 17.16 O 18.44 CB 20.11 OG1 21.05 CG2 21.84
A LEU H 6 -60.3 -46.6 N 15.67 CA 16.22 C 16.01 O 14.17 CB 17.17 CG 19.26 CD1 16.29 CD2 19.22
A VAL H 0 -64.2 -44.1 N 16.69 CA 16.47 C 17.89 O 20.08 CB 16.9 CG1 13.71 CG2 15.46
A HIS H 28 -59.7 -45.4 N 16.33 CA 18.0 C 18.1 O 17.66 CB 19.59 CG 20.67 ND1 21.62 CD2 19.94 CE1 21.09 NE2 22.65
A SER H 31 -62.5 -37.5 N 17.9 CA 18.26 C 20.05 O 21.03 CB 18.25 OG 17.91
A THR H 4 -68.5 -41.3 N 19.06 CA 20.98 C 21.57 O 22.98 CB 21.31 OG1 18.52 CG2 18.09
A VAL H 0 -58.8 -43.0 N 20.57 CA 19.54 C 20.12 O 20.44 CB 19.77 CG1 16.07 CG2 18.5
A LYS H 106 -61.8 -41.3 N 18.6 CA 22.23 C 22.35 O 18.01 CB 25.61 CG 29.55 CD 32.4 CE 34.14 NZ 34.86
A GLN H 66 -58.3 -46.4 N 21.98 CA 24.96 C 24.18 O 26.55 CB 27.38 CG 32.75 CD 36.94 OE1 38.51 NE2 37.11
A ILE H 5 -64.1 -35.7 N 23.38 CA 20.74 C 21.84 O 24.28 CB 20.19 CG1 15.61 CG2 17.52 CD1 17.59
A GLN H 44 -67.3 -27.8 N 22.44 CA 23.39 C 23.98 O 25.19 CB 21.32 CG 24.97 CD 25.7 OE1 28.23 NE2 24.58
A ASP T 118 -54.3 -31.2 N 25.82 CA 27.21 C 26.27 O 23.82 CB 31.1 CG 33.96 OD1 35.38 OD2 36.22
A ASP T 139 -115.1 1.6 N 25.65 CA 26.1 C 25.38 O 23.9 CB 30.36 CG 33.74 OD1 35.59 OD2 37.55
A MET - 26 -128.9 83.1 N 22.66 CA 24.06 C 23.33 O 23.49 CB 25.16 CG 27.14 SD 23.16 CE 17.96
A PRO T 101 -59.0 -14.2 N 23.87 CA 23.37 C 20.09 O 20.6 CB 23.31 CG 23.82 CD 24.44
A THR T 7 -64.9 -16.6 N 19.81 CA 17.83 C 19.17 O 17.34 CB 20.26 OG1 19.65 CG2 18.53
A ILE E 3 -87.5 105.0 N 18.15 CA 17.99 C 18.32 O 21.68 CB 17.28 CG1 17.69 CG2 18.79 CD1 18.98
A GLN E 35 -105.1 -12.2 N 18.32 CA 17.87 C 20.48 O 22.8 CB 14.9 CG 18.15 CD 15.46 OE1 18.28 NE2 13.59
A ASP E 44 -158.9 150.9 N 21.2 CA 23.07 C 22.58 O 24.57 CB 23.58 CG 26.15 OD1 29.88 OD2 26.44
A ARG E 69 -157.8 151.1 N 21.97 CA 23.97 C 23.31 O 23.7 CB 24.71 CG 26.37 CD 28.68 NE 31.6 CZ 33.73 NH1 35.82 NH2 33.93
A SER E 16 -155.2 158.1 N 22.09 CA 22.52 C 22.21 O 23.79 CB 24.43 OG 29.46
A LEU E 25 -113.6 124.4 N 21.03 CA 19.3 C 19.1 O 21.0 CB 18.52 CG 18.31 CD1 18.11 CD2 19.19
A ASN E 22 55.5 53.6 N 21.38 CA 23.51 C 24.63 O 24.32 CB 24.87 CG 27.79 OD1 29.19 ND2 26.23
A VAL E 0 -66.9 124.6 N 22.6 CA 22.34 C 23.09 O 21.21 CB 21.69 CG1 21.0 CG2 21.44
A GLN E 39 -83.2 129.0 N 23.99 CA 24.74 C 24.33 O 23.49 CB 27.34 CG 27.88 CD 30.1 OE1 30.84 NE2 31.23
A VAL E 0 -123.6 127.2 N 24.68 CA 24.32 C 26.36 O 27.18 CB 23.09 CG1 21.29 CG2 24.14
A TYR E 46 -118.2 137.9 N 24.57 CA 27.5 C 28.6 O 26.45 CB 27.87 CG 28.62 CD1 29.12 CD2 29.61 CE1 29.33 CE2 30.39 CZ 29.31 OH 29.5
A ARG E 33 -132.3 125.3 N 30.29 CA 32.2 C 32.02 O 32.0 CB 33.22 CG 34.33 CD 35.33 NE 36.55 CZ 37.66 NH1 38.61 NH2 38.19
A GLN E 113 -87.0 135.2 N 30.1 CA 31.66 C 31.12 O 29.72 CB 34.7 CG 39.01 CD 41.59 OE1 43.76 NE2 41.95
A LEU E 77 -127.2 97.5 N 30.57 CA 31.24 C 30.61 O 31.4 CB 30.77 CG 32.56 CD1 32.31 CD2 32.87
A GLY T 67 56.5 -132.8 N 30.4 CA 30.75 C 30.37 O 29.99
A GLU T 197 -77.0 -3.0 N 30.74 CA 30.39 C 29.91 O 28.36 CB 30.25 CG 30.31 CD 30.36 OE1 28.23 OE2 30.29
A ARG E 167 -102.1 168.5 N 30.46 CA 32.81 C 33.33 O 32.86 CB 33.13 CG 34.02 CD 34.5 NE 35.79 CZ 35.99 NH1 34.7 NH2 36.32
A GLU E 98 -144.3 140.0 N 33.86 CA 36.82 C 36.65 O 36.07 CB 39.38 CG 41.76 CD 43.96 OE1 46.08 OE2 45.19
A VAL E 53 -112.9 124.2 N 35.68 CA 35.31 C 35.11 O 32.94 CB 35.02 CG1 33.93 CG2 35.63
A ARG E 123 -106.1 135.3 N 36.11 CA 36.59 C 34.92 O 34.35 CB 39.02 CG 40.18 CD 42.85 NE 46.3 CZ 46.58 NH1 46.4 NH2 45.23
A ASN E 13 -134.2 163.7 N 33.41 CA 31.02 C 28.95 O 27.24 CB 32.54 CG 34.17 OD1 33.35 ND2 31.24
A GLU E 67 -127.6 130.9 N 27.97 CA 26.94 C 24.0 O 22.83 CB 30.87 CG 33.91 CD 37.73 OE1 37.83 OE2 39.61
A LEU E 1 -100.4 111.6 N 22.05 CA 19.21 C 20.21 O 21.08 CB 17.98 CG 17.56 CD1 17.64 CD2 18.2
A ASP E 19 -56.2 -57.4 N 19.96 CA 20.38 C 20.77 O 21.15 CB 21.28 CG 23.0 OD1 22.45 OD2 24.2
A VAL E 0 -132.8 124.7 N 18.94 CA 19.49 C 19.59 O 22.07 CB 19.44 CG1 19.76 CG2 15.69
A ALA E 0 -116.1 137.7 N 18.73 CA 19.14 C 19.02 O 17.92 CB 18.07
A THR E 0 -132.8 161.7 N 19.66 CA 22.44 C 20.84 O 21.07 CB 22.34 OG1 25.53 CG2 21.19
A VAL E 0 -116.2 135.2 N 19.61 CA 16.12 C 18.13 O 17.01 CB 15.77 CG1 13.15 CG2 13.73
A VAL E 0 -139.2 127.3 N 15.86 CA 14.73 C 16.03 O 14.8 CB 15.76 CG1 12.17 CG2 17.18
A ASN T 0 48.8 44.8 N 14.64 CA 16.7 C 15.83 O 14.92 CB 17.3 CG 16.05 OD1 19.96 ND2 13.73
A ASN T 4 61.5 13.5 N 14.54 CA 14.25 C 16.65 O 12.87 CB 13.6 CG 12.99 OD1 13.68 ND2 12.71
A LYS E 16 -110.2 131.3 N 16.96 CA 15.32 C 16.39 O 12.13 CB 15.08 CG 15.54 CD 15.34 CE 17.55 NZ 19.36
A LEU E 0 -69.2 126.2 N 17.2 CA 16.52 C 16.39 O 17.22 CB 14.88 CG 16.64 CD1 14.78 CD2 13.46
A HIS E 0 -118.4 119.1 N 16.23 CA 17.11 C 19.12 O 18.33 CB 19.18 CG 20.21 ND1 22.2 CD2 20.98 CE1 22.44 NE2 22.16
A ILE E 4 -110.2 135.4 N 19.22 CA 21.08 C 19.64 O 18.94 CB 21.96 CG1 21.47 CG2 23.13 CD1 25.14
A ILE E 0 -121.2 121.0 N 20.41 CA 20.84 C 22.82 O 20.69 CB 19.57 CG1 18.57 CG2 18.41 CD1 18.01
A GLU E 40 -95.2 130.0 N 21.55 CA 22.59 C 22.51 O 21.5 CB 26.36 CG 32.07 CD 36.39 OE1 38.32 OE2 38.96
A CYS E 16 -102.0 125.0 N 21.71 CA 25.08 C 25.01 O 27.97 CB 21.66 SG 26.46
A LYS E 42 -113.2 133.2 N 24.62 CA 27.66 C 27.88 O 23.66 CB 28.2 CG 29.49 CD 29.09 CE 30.02 NZ 30.25
A THR S 34 -103.3 -11.0 N 30.07 CA 31.83 C 32.61 O 30.24 CB 31.95 OG1 33.41 CG2 29.77
A LYS S 98 -109.9 167.2 N 34.5 CA 38.3 C 41.25 O 40.49 CB 41.81 CG 43.67 CD 46.58 CE 44.7 NZ 47.29
A GLY - 43 -80.4 157.9 N 43.35 CA 45.11 C 48.05 O 47.69
A MET - 20 -82.1 127.6 N 50.35 CA 52.57 C 54.14 O 53.55 CB 51.88 CG 51.37 SD 51.6 CE 52.14
A ARG - 167 -59.8 360.0 N 56.78 CA 59.41 C 59.43 O 60.39 CB 60.2 CG 61.37 CD 61.77 NE 63.26 CZ 63.95 NH1 63.88 NH2 63.63
A ASP - 100 360.0 28.2 N 51.3 CA 50.62 C 49.75 O 50.37 CB 50.81
A GLY - 72 54.0 46.4 N 48.18 CA 45.89 C 45.33 O 45.89
A ASP - 13 -79.2 137.0 N 43.97 CA 42.02 C 40.03 O 37.86 CB 41.87 CG 43.38 OD1 41.61 OD2 42.76
A ASP - 96 -97.6 -4.8 N 39.76 CA 39.09 C 36.63 O 36.58 CB 40.29 CG 42.46 OD1 42.99 OD2 43.84
A THR H 9 -50.4 -50.3 N 32.42 CA 28.38 C 25.12 O 22.92 CB 27.08 OG1 28.41 CG2 24.24
A LEU H 2 -79.3 -40.7 N 22.6 CA 24.42 C 25.6 O 25.28 CB 22.17 CG 24.09 CD1 23.32 CD2 22.56
A TYR H 116 -62.0 -42.1 N 23.8 CA 24.11 C 23.55 O 23.11 CB 24.41 CG 24.47 CD1 25.1 CD2 25.27 CE1 25.35 CE2 25.64 CZ 25.56 OH 28.05
A LYS H 80 -66.6 -44.4 N 21.26 CA 21.14 C 22.33 O 22.54 CB 20.82 CG 23.51 CD 26.19 CE 29.02 NZ 33.69
A LEU H 2 -58.8 -51.1 N 23.25 CA 22.45 C 21.4 O 21.67 CB 22.43 CG 23.0 CD1 19.86 CD2 20.87
A GLU H 50 -55.2 -36.0 N 22.33 CA 26.57 C 26.55 O 23.62 CB 29.79 CG 36.5 CD 40.76 OE1 44.56 OE2 43.3
A SER H 48 -72.2 -38.6 N 25.72 CA 25.62 C 25.72 O 26.01 CB 27.32 OG 31.47
A LEU H 10 -62.9 -46.2 N 24.64 CA 26.92 C 27.93 O 28.92 CB 27.64 CG 27.43 CD1 29.8 CD2 26.23
A ARG H 29 -49.8 -60.3 N 27.73 CA 28.32 C 28.02 O 25.64 CB 25.93 CG 28.01 CD 28.37 NE 28.85 CZ 30.77 NH1 32.91 NH2 31.57
A ASP H 66 -50.1 -55.8 N 29.09 CA 29.91 C 29.14 O 31.19 CB 32.21 CG 35.59 OD1 36.24 OD2 35.05
A LEU H 94 -71.4 -24.3 N 27.45 CA 24.48 C 22.62 O 18.34 CB 29.56 CG 32.39 CD1 33.23 CD2 34.88
A LEU H 0 -103.1 -17.1 N 20.71 CA 19.44 C 17.54 O 16.92 CB 19.03 CG 20.87 CD1 18.94 CD2 21.04
A GLY H 0 -142.7 4.2 N 19.45 CA 20.25 C 22.02 O 23.25
A GLY G 8 70.8 -154.8 N 20.87 CA 19.59 C 20.42 O 20.6
A LEU G 144 -71.2 -25.5 N 19.75 CA 21.7 C 20.88 O 22.08 CB 24.47 CG 28.52 CD1 27.68 CD2 29.05
A GLN G 33 -93.3 -6.3 N 20.57 CA 20.39 C 19.98 O 16.67 CB 23.91 CG 26.03 CD 28.38 OE1 30.46 NE2 27.2
A ALA - 7 -67.1 149.3 N 17.48 CA 15.82 C 15.28 O 14.67 CB 15.01
A ARG E 60 -128.9 149.1 N 17.16 CA 17.98 C 16.48 O 15.6 CB 19.48 CG 25.55 CD 26.56 NE 28.29 CZ 25.82 NH1 25.17 NH2 21.37
A ALA E 1 -140.4 148.0 N 15.99 CA 16.36 C 16.72 O 17.51 CB 14.47
A MET E 4 -129.6 145.1 N 17.74 CA 15.39 C 15.67 O 14.94 CB 14.71 CG 14.71 SD 12.29 CE 9.07
A LEU E 0 -110.6 122.2 N 16.57 CA 16.48 C 15.52 O 13.57 CB 16.2 CG 17.44 CD1 18.04 CD2 18.81
A VAL E 0 -99.6 123.0 N 17.56 CA 18.26 C 20.1 O 20.08 CB 16.9 CG1 12.74 CG2 17.32
A SER E 2 -124.3 126.1 N 19.54 CA 22.37 C 23.96 O 23.11 CB 23.53 OG 27.08
A PHE S 3 -73.3 -30.4 N 25.1 CA 24.1 C 24.55 O 23.77 CB 26.99 CG 26.72 CD1 28.74 CD2 26.09 CE1 28.74 CE2 27.86 CZ 27.89
A ARG S 73 -99.7 154.2 N 23.21 CA 25.72 C 25.97 O 25.73 CB 29.68 CG 32.25 CD 35.87 NE 38.56 CZ 39.38 NH1 40.64 NH2 37.44
A PRO - 74 -52.3 149.4 N 27.44 CA 28.51 C 30.34 O 28.83 CB 27.9 CG 27.65 CD 26.87
A LEU - 35 -107.8 125.9 N 34.01 CA 36.26 C 36.07 O 36.35 CB 38.79 CG 39.64 CD1 39.73 CD2 38.88
A ARG - 108 -61.4 152.7 N 36.46 CA 37.64 C 36.69 O 34.9 CB 41.07 CG 45.85 CD 48.63 NE 51.69 CZ 53.33 NH1 53.02 NH2 52.97
A HIS H 138 -62.2 -33.7 N 35.06 CA 36.13 C 36.26 O 35.02 CB 36.93 CG 40.02 ND1 42.84 CD2 40.88 CE1 42.85 NE2 41.85
A ASN H 109 -44.5 -50.1 N 35.68 CA 37.73 C 37.56 O 37.88 CB 40.54 CG 44.21 OD1 46.52 ND2 44.77
A ASP H 8 -80.8 -27.6 N 35.89 CA 36.94 C 34.99 O 34.23 CB 39.41 CG 42.32 OD1 41.83 OD2 45.44
A ILE H 56 -64.2 -55.4 N 31.42 CA 29.91 C 29.21 O 29.39 CB 27.1 CG1 27.55 CG2 27.05 CD1 26.93
A THR H 79 -57.1 -37.0 N 28.98 CA 27.44 C 27.08 O 28.76 CB 27.74 OG1 24.62 CG2 29.28
A ARG H 60 -70.3 -43.1 N 25.5 CA 24.28 C 25.88 O 24.13 CB 25.07 CG 29.04 CD 33.23 NE 38.37 CZ 38.36 NH1 39.55 NH2 39.45
A ALA H 1 -57.4 -43.2 N 24.06 CA 24.36 C 25.71 O 25.89 CB 22.28
A GLU H 155 -61.3 -49.4 N 27.17 CA 31.86 C 32.77 O 33.23 CB 32.99 CG 37.21 CD 38.16 OE1 40.78 OE2 40.66
A ASP H 135 -51.5 -47.0 N 33.73 CA 32.67 C 29.99 O 26.42 CB 36.3 CG 39.66 OD1 39.91 OD2 40.56
A LEU H 24 -79.6 -6.8 N 25.53 CA 24.56 C 22.41 O 21.47 CB 23.08 CG 27.22 CD1 26.2 CD2 24.87
A GLY T 53 72.7 32.1 N 21.53 CA 19.21 C 21.63 O 23.83
A LEU - 11 -102.6 137.8 N 21.27 CA 20.32 C 19.07 O 19.45 CB 19.56 CG 21.22 CD1 21.65 CD2 20.06
A ALA E 26 -83.7 156.3 N 19.2 CA 16.49 C 18.29 O 16.07 CB 17.48
A LEU E 39 -130.4 141.8 N 20.56 CA 24.3 C 23.71 O 22.11 CB 23.82 CG 25.64 CD1 26.98 CD2 24.83
A ILE E 2 -126.6 112.2 N 22.68 CA 22.4 C 22.11 O 22.88 CB 21.23 CG1 21.49 CG2 20.76 CD1 19.41
A GLY - 0 -99.9 -174.4 N 21.0 CA 22.62 C 24.64 O 20.76
A PRO G 8 -55.2 -37.8 N 26.98 CA 26.45 C 27.24 O 28.96 CB 25.68 CG 25.5 CD 25.52
A ASP G 112 -64.3 -36.3 N 30.64 CA 32.67 C 34.94 O 37.49 CB 33.28 CG 35.77 OD1 36.04 OD2 36.71
A GLU G 71 -95.8 -3.0 N 32.21 CA 31.31 C 27.05 O 24.74 CB 34.19 CG 39.12 CD 42.09 OE1 43.39 OE2 42.69
A LEU G 3 -61.5 -27.3 N 22.76 CA 21.58 C 20.55 O 19.99 CB 21.07 CG 19.94 CD1 21.2 CD2 18.78
A LYS G 119 -70.1 -13.9 N 21.8 CA 26.84 C 27.26 O 27.98 CB 29.61 CG 34.36 CD 39.07 CE 39.83 NZ 39.51
A ASP G 84 -115.3 39.7 N 26.13 CA 24.08 C 22.53 O 22.32 CB 25.76 CG 29.14 OD1 30.77 OD2 30.52
A LEU H 10 -57.9 -44.5 N 21.05 CA 20.96 C 20.51 O 21.62 CB 16.63 CG 18.52 CD1 18.84 CD2 18.89
A LYS H 85 -69.1 -39.6 N 20.74 CA 20.03 C 20.17 O 20.06 CB 19.57 CG 22.75 CD 26.27 CE 29.3 NZ 31.61
A THR H 72 -65.3 -45.7 N 19.82 CA 21.86 C 22.65 O 21.75 CB 23.36 OG1 26.48 CG2 22.42
A HIS H 43 -66.3 -36.0 N 21.45 CA 19.12 C 16.75 O 18.68 CB 20.17 CG 22.69 ND1 24.55 CD2 23.16 CE1 24.79 NE2 22.51
A LEU H 0 -67.4 -40.3 N 16.76 CA 16.6 C 18.65 O 21.06 CB 15.1 CG 15.58 CD1 11.08 CD2 14.21
A THR H 25 -60.6 -49.8 N 18.56 CA 19.98 C 19.05 O 22.72 CB 19.74 OG1 19.42 CG2 19.89
A GLN H 107 -54.0 -43.5 N 19.06 CA 19.57 C 19.09 O 19.74 CB 19.12 CG 22.84 CD 24.03 OE1 25.6 NE2 23.29
A TRP H 21 -65.4 -43.0 N 16.75 CA 15.34 C 17.19 O 15.01 CB 14.16 CG 11.7 CD1 10.47 CD2 12.13 NE1 10.91 CE2 11.22 CE3 11.27 CZ2 11.9 CZ3 10.96 CH2 11.4
A PHE H 0 -72.1 -32.1 N 16.52 CA 17.42 C 19.35 O 19.55 CB 16.85 CG 19.12 CD1 18.12 CD2 17.76 CE1 18.77 CE2 18.27 CZ 16.94
A LYS H 137 -62.2 -43.8 N 20.73 CA 21.48 C 20.93 O 21.46 CB 21.94 CG 27.88 CD 30.29 CE 32.57 NZ 33.33
A ALA T 72 -57.0 -18.5 N 19.54 CA 19.99 C 19.57 O 22.52 CB 18.84
A ALA T 0 -66.1 -14.1 N 18.83 CA 18.01 C 19.86 O 17.85 CB 17.39
A GLY - 28 74.1 -168.2 N 20.95 CA 20.12 C 20.29 O 19.66
A GLY - 15 103.9 -4.5 N 21.58 CA 24.37 C 28.43 O 27.51
A ASN - 187 -86.2 360.0 N 33.92 CA 40.29 C 42.93 O 45.24 CB 44.21 CG 48.39 OD1 49.68 ND2 49.14
