A SER - 162 360.0 -73.8 N 61.2 CA 64.66 C 64.68 O 64.72 CB 65.76 OG 72.86
A THR - 83 -138.3 118.4 N 61.04 CA 59.98 C 55.15 O 55.04 CB 61.37 OG1 57.93 CG2 75.0
A ILE - 63 -56.2 127.3 N 47.38 CA 36.34 C 37.17 O 34.66 CB 33.17 CG1 41.37 CG2 34.41 CD1 41.11
A PRO T 104 -50.8 124.7 N 37.36 CA 36.17 C 32.29 O 34.48 CB 37.93 CG 46.95 CD 39.24
A GLY T 40 86.4 -10.7 N 27.66 CA 25.74 C 23.07 O 24.49
A SER - 4 -73.0 144.1 N 20.14 CA 22.71 C 23.34 O 28.66 CB 21.72 OG 20.95
A ALA S 2 -92.4 6.0 N 20.97 CA 22.66 C 22.27 O 25.41 CB 18.97
A ALA E 3 -128.9 149.7 N 22.99 CA 22.47 C 20.48 O 20.72 CB 20.94
A THR E 43 -143.2 145.5 N 23.57 CA 24.42 C 22.07 O 22.7 CB 35.68 OG1 53.55 CG2 33.75
A LEU E 27 -67.1 130.8 N 20.39 CA 28.88 C 26.56 O 29.92 CB 26.24 CG 33.49 CD1 33.11 CD2 25.34
A ASN - 41 -81.4 87.0 N 25.65 CA 24.97 C 28.53 O 28.91 CB 28.31 CG 39.01 OD1 30.62 ND2 39.99
A THR T 92 -71.5 -6.0 N 31.52 CA 36.44 C 37.32 O 35.28 CB 35.92 OG1 34.1 CG2 42.51
A SER T 86 -73.5 -18.9 N 32.53 CA 35.63 C 34.7 O 33.62 CB 32.07 OG 39.82
A ILE - 45 -86.3 73.4 N 26.99 CA 23.18 C 24.22 O 20.94 CB 22.33 CG1 32.73 CG2 22.07 CD1 39.56
A THR T 90 -64.5 -24.4 N 21.16 CA 24.26 C 20.94 O 24.96 CB 27.48 OG1 25.5 CG2 34.64
A LYS T 34 -58.2 -32.7 N 19.03 CA 17.37 C 21.38 O 17.02 CB 16.66 CG 17.87 CD 22.65 CE 17.94 NZ 17.21
A ASN T 13 -114.5 -20.8 N 19.35 CA 18.21 C 19.24 O 21.29 CB 14.68 CG 19.97 OD1 21.22 ND2 13.83
A ILE E 6 -121.0 118.2 N 18.62 CA 23.5 C 23.74 O 28.86 CB 23.36 CG1 21.87 CG2 26.42 CD1 25.37
A GLN E 80 -141.2 134.6 N 23.16 CA 25.17 C 26.05 O 24.5 CB 23.67 CG 34.02 CD 38.07 OE1 51.28 NE2 32.26
A ASN T 143 52.3 33.6 N 29.51 CA 33.97 C 28.51 O 23.52 CB 35.97 CG 48.42 OD1 58.45 ND2 40.1
A GLY T 37 73.5 8.5 N 29.31 CA 27.03 C 26.75 O 23.26
A ASN E 62 -108.7 157.8 N 22.0 CA 21.5 C 22.52 O 26.08 CB 19.2 CG 35.03 OD1 25.98 ND2 30.09
A ALA E 0 -104.3 152.3 N 18.97 CA 16.0 C 14.23 O 16.61 CB 14.19
A TYR E 29 -140.2 139.8 N 13.58 CA 16.99 C 14.29 O 18.62 CB 16.87 CG 20.8 CD1 17.48 CD2 22.94 CE1 17.86 CE2 20.1 CZ 25.08 OH 30.06
A ILE E 0 -137.7 129.9 N 14.84 CA 12.54 C 19.13 O 16.09 CB 14.59 CG1 13.57 CG2 18.07 CD1 17.41
A ASP E 0 -101.2 119.0 N 18.19 CA 16.84 C 11.63 O 18.16 CB 13.87 CG 18.37 OD1 20.52 OD2 14.69
A LEU H 1 -60.9 -23.6 N 13.73 CA 18.74 C 20.48 O 17.31 CB 19.59 CG 13.8 CD1 26.18 CD2 16.58
A TYR H 74 -55.7 -46.7 N 18.82 CA 17.62 C 18.36 O 21.4 CB 13.25 CG 17.41 CD1 20.3 CD2 24.28 CE1 20.53 CE2 27.24 CZ 24.62 OH 25.17
A ASP H 5 -67.3 -40.6 N 15.29 CA 16.76 C 23.47 O 22.52 CB 22.66 CG 21.42 OD1 25.43 OD2 27.32
A VAL H 13 -59.0 -46.6 N 20.36 CA 21.21 C 27.04 O 24.02 CB 19.18 CG1 22.64 CG2 20.88
A LYS H 122 -64.5 -24.6 N 24.84 CA 26.91 C 27.36 O 32.71 CB 26.36 CG 35.42 CD 36.66 CE 37.87 NZ 42.81
A LEU T 102 -85.0 5.0 N 23.13 CA 27.94 C 32.25 O 31.4 CB 23.8 CG 40.81 CD1 29.86 CD2 30.93
A GLY T 67 60.2 27.8 N 30.54 CA 28.34 C 27.98 O 33.75
A LYS - 126 -85.7 -8.9 N 20.57 CA 20.31 C 20.56 O 18.98 CB 24.29 CG 43.5 CD 41.35 CE 48.95 NZ 47.69
A ILE - 20 -112.9 118.0 N 23.0 CA 17.92 C 13.55 O 22.93 CB 17.81 CG1 15.57 CG2 21.04 CD1 12.6
A ASP - 62 -117.2 103.4 N 23.17 CA 20.42 C 13.39 O 17.79 CB 21.68 CG 30.59 OD1 24.59 OD2 18.23
A PRO G 1 -56.3 -28.1 N 16.75 CA 16.15 C 12.06 O 14.13 CB 18.15 CG 14.72 CD 13.39
A LEU G 71 -64.2 -22.5 N 17.87 CA 19.22 C 21.32 O 18.96 CB 19.57 CG 22.48 CD1 21.53 CD2 21.31
A GLN G 126 -78.0 -5.6 N 24.68 CA 23.48 C 26.58 O 24.32 CB 25.91 CG 30.65 CD 56.61 OE1 54.26 NE2 55.64
A LEU G 4 -90.1 -1.1 N 19.87 CA 18.02 C 28.22 O 25.55 CB 17.6 CG 18.66 CD1 21.42 CD2 26.49
A ILE E 13 -129.0 157.0 N 30.07 CA 24.12 C 29.28 O 28.19 CB 25.95 CG1 22.48 CG2 30.93 CD1 32.41
A VAL E 76 -113.7 126.9 N 26.39 CA 31.46 C 26.91 O 28.91 CB 31.7 CG1 32.73 CG2 33.69
A LEU E 62 -110.1 138.9 N 26.54 CA 25.23 C 29.27 O 29.12 CB 29.83 CG 34.55 CD1 23.87 CD2 28.12
A GLU - 114 -64.0 148.8 N 29.4 CA 28.81 C 32.65 O 30.41 CB 26.5 CG 50.15 CD 64.55 OE1 42.85 OE2 52.31
A GLN T 173 -56.2 138.2 N 32.85 CA 32.89 C 23.41 O 23.1 CB 38.98 CG 56.64 CD 73.54 OE1 76.18 NE2 73.24
A GLY T 25 92.1 -2.7 N 25.12 CA 28.5 C 30.84 O 30.11
A PHE - 50 -122.1 148.6 N 20.43 CA 16.36 C 20.7 O 21.16 CB 16.63 CG 18.41 CD1 26.15 CD2 16.72 CE1 21.87 CE2 15.5 CZ 25.13
A THR E 84 -123.1 165.3 N 18.7 CA 21.52 C 24.6 O 22.17 CB 26.23 OG1 22.28 CG2 28.24
A ALA E 14 -131.0 144.2 N 16.77 CA 14.1 C 16.79 O 19.36 CB 13.48
A LYS E 125 -125.5 129.0 N 16.67 CA 17.78 C 19.74 O 19.78 CB 19.75 CG 41.52 CD 44.87 CE 26.09 NZ 47.67
A TYR E 28 -90.1 153.7 N 15.89 CA 13.27 C 12.39 O 14.34 CB 10.73 CG 11.06 CD1 14.78 CD2 11.09 CE1 15.99 CE2 15.64 CZ 18.17 OH 19.33
A VAL E 32 -143.7 129.8 N 13.28 CA 11.24 C 10.76 O 12.94 CB 15.83 CG1 14.62 CG2 25.87
A PHE E 0 -97.9 147.0 N 11.43 CA 14.96 C 11.53 O 15.14 CB 14.24 CG 17.48 CD1 13.94 CD2 13.18 CE1 14.8 CE2 12.96 CZ 11.26
A ARG E 84 -124.8 125.7 N 10.91 CA 10.98 C 18.03 O 15.84 CB 13.49 CG 16.88 CD 16.71 NE 17.2 CZ 14.78 NH1 14.0 NH2 16.27
A GLN E 22 -146.8 128.9 N 14.57 CA 17.91 C 18.14 O 17.41 CB 15.23 CG 19.42 CD 28.79 OE1 23.23 NE2 28.2
A GLY T 66 61.6 -127.5 N 21.19 CA 26.65 C 20.9 O 24.5
A THR T 123 -106.3 21.2 N 21.26 CA 16.69 C 23.8 O 23.83 CB 26.2 OG1 25.47 CG2 32.94
A LYS E 127 -126.0 145.9 N 17.21 CA 19.86 C 16.97 O 14.22 CB 22.87 CG 38.85 CD 54.97 CE 75.5 NZ 63.18
A TYR E 163 -98.3 146.5 N 11.49 CA 9.99 C 16.13 O 15.5 CB 13.33 CG 12.43 CD1 12.1 CD2 14.92 CE1 9.43 CE2 13.2 CZ 12.71 OH 13.34
A TYR E 48 -131.9 129.8 N 17.7 CA 18.6 C 13.88 O 17.68 CB 15.87 CG 18.74 CD1 30.03 CD2 24.47 CE1 30.98 CE2 27.8 CZ 39.63 OH 31.45
A GLY S 33 -99.1 -2.1 N 14.03 CA 11.82 C 17.0 O 15.78
A ASP S 71 -134.9 119.3 N 17.91 CA 18.76 C 14.13 O 16.83 CB 18.18 CG 32.62 OD1 31.88 OD2 54.67
A VAL G 12 -50.8 -32.7 N 15.36 CA 18.53 C 23.35 O 18.82 CB 22.53 CG1 22.8 CG2 16.8
A SER G 60 -61.5 -16.2 N 18.09 CA 24.3 C 25.95 O 25.39 CB 26.6 OG 36.49
A GLN G 88 -80.6 -13.9 N 20.26 CA 21.51 C 20.56 O 20.6 CB 20.21 CG 17.82 CD 31.5 OE1 20.45 NE2 39.73
A LEU - 0 -66.6 126.2 N 19.69 CA 18.8 C 19.9 O 20.47 CB 17.14 CG 18.38 CD1 16.83 CD2 22.53
A GLN - 119 -136.3 -7.5 N 18.52 CA 25.36 C 25.11 O 25.46 CB 26.75 CG 44.19 CD 60.08 OE1 61.12 NE2 48.4
A SER S 73 -124.8 144.3 N 19.43 CA 24.17 C 25.37 O 20.88 CB 28.25 OG 37.17
A THR - 61 -88.6 164.9 N 21.32 CA 20.87 C 22.06 O 25.4 CB 25.1 OG1 20.27 CG2 26.19
A GLY E 33 128.6 -170.4 N 18.09 CA 20.02 C 20.39 O 20.77
A ARG E 203 -83.8 145.3 N 21.54 CA 23.34 C 21.67 O 20.73 CB 31.92 CG 42.1 CD 63.96 NE 58.88 CZ 60.58 NH1 63.29 NH2 43.72
A ALA E 14 -157.9 -171.1 N 19.75 CA 16.05 C 9.37 O 15.82 CB 13.68
A SER E 40 -133.8 156.8 N 12.65 CA 14.19 C 12.55 O 14.43 CB 17.55 OG 16.82
A LEU E 0 -128.4 125.7 N 15.6 CA 15.15 C 15.71 O 17.38 CB 14.94 CG 19.08 CD1 14.64 CD2 23.08
A THR E 24 -129.2 139.7 N 13.27 CA 11.0 C 11.41 O 13.26 CB 16.67 OG1 13.05 CG2 10.99
A TYR E 0 -108.9 118.4 N 12.47 CA 16.9 C 14.56 O 15.78 CB 17.08 CG 17.09 CD1 16.4 CD2 16.63 CE1 14.03 CE2 17.47 CZ 16.67 OH 15.43
A ASN E 48 -91.1 130.6 N 14.78 CA 13.83 C 12.12 O 15.41 CB 14.81 CG 16.21 OD1 19.36 ND2 15.5
A ILE E 1 -108.4 134.0 N 12.29 CA 11.38 C 13.06 O 13.04 CB 11.4 CG1 13.88 CG2 12.62 CD1 14.55
A PHE E 48 -126.3 141.1 N 13.08 CA 10.69 C 15.68 O 15.93 CB 13.36 CG 11.67 CD1 21.32 CD2 14.22 CE1 18.88 CE2 22.88 CZ 16.97
A GLY - 15 -77.4 179.6 N 12.55 CA 11.51 C 15.15 O 16.22
A GLU T 170 -58.9 -23.5 N 16.31 CA 20.9 C 18.15 O 15.48 CB 17.88 CG 30.7 CD 46.75 OE1 38.05 OE2 42.88
A ASP T 120 -82.5 0.7 N 15.68 CA 14.0 C 13.32 O 13.93 CB 14.24 CG 28.22 OD1 14.76 OD2 14.65
A GLY S 51 86.3 0.9 N 15.89 CA 12.36 C 8.88 O 15.53
A LEU S 109 -97.4 154.7 N 12.7 CA 13.11 C 13.42 O 13.3 CB 14.75 CG 22.01 CD1 17.53 CD2 18.49
A PRO B 62 -54.7 141.1 N 16.51 CA 14.93 C 17.58 O 17.45 CB 12.72 CG 17.12 CD 13.16
A HIS - 37 -71.0 129.1 N 14.24 CA 14.0 C 18.51 O 19.6 CB 14.04 CG 24.07 ND1 22.06 CD2 22.18 CE1 26.17 NE2 22.79
A VAL B 80 -103.7 129.8 N 12.22 CA 19.58 C 20.32 O 20.1 CB 24.24 CG1 19.35 CG2 21.48
A LYS - 18 -79.2 168.0 N 19.66 CA 19.05 C 20.93 O 19.13 CB 17.65 CG 19.19 CD 16.18 CE 19.69 NZ 22.4
A THR T 143 -48.0 -40.8 N 20.84 CA 24.14 C 28.89 O 27.3 CB 26.33 OG1 41.31 CG2 54.08
A ASP T 84 -76.2 3.3 N 24.34 CA 20.64 C 23.04 O 26.8 CB 22.81 CG 33.02 OD1 26.2 OD2 21.81
A GLY S 60 85.5 12.4 N 21.68 CA 19.96 C 18.95 O 19.51
A GLN S 113 -114.0 145.1 N 19.73 CA 19.93 C 12.79 O 14.27 CB 15.87 CG 24.35 CD 28.9 OE1 20.58 NE2 34.17
A ILE B 88 -61.6 135.5 N 11.85 CA 15.79 C 18.96 O 16.67 CB 14.16 CG1 26.44 CG2 23.46 CD1 27.22
A ASP - 0 -77.1 99.8 N 11.87 CA 16.01 C 17.75 O 13.87 CB 15.13 CG 17.18 OD1 15.86 OD2 15.77
A ILE E 69 -128.4 149.9 N 15.83 CA 13.58 C 13.73 O 16.39 CB 15.94 CG1 22.23 CG2 12.59 CD1 28.22
A VAL E 11 -119.9 111.8 N 15.3 CA 15.72 C 18.25 O 13.78 CB 19.59 CG1 15.89 CG2 26.3
A SER E 84 -99.7 132.9 N 12.38 CA 21.91 C 23.2 O 21.14 CB 26.86 OG 38.07
A VAL E 8 -129.8 128.7 N 20.54 CA 19.82 C 17.55 O 16.98 CB 24.9 CG1 27.1 CG2 19.83
A ALA E 48 -63.0 140.7 N 18.89 CA 15.27 C 14.44 O 17.37 CB 19.59
A LEU E 2 -129.8 133.7 N 16.79 CA 19.03 C 18.61 O 19.11 CB 16.95 CG 17.04 CD1 14.32 CD2 15.41
A THR E 27 -114.4 121.9 N 15.21 CA 12.85 C 13.45 O 17.94 CB 19.1 OG1 20.59 CG2 16.77
A ILE E 1 -104.9 133.9 N 13.87 CA 15.15 C 17.04 O 18.37 CB 16.12 CG1 16.34 CG2 13.67 CD1 20.9
A TYR E 0 -139.9 175.9 N 17.19 CA 14.89 C 18.37 O 14.91 CB 15.27 CG 19.18 CD1 12.01 CD2 22.21 CE1 15.58 CE2 16.23 CZ 12.97 OH 14.39
A ASP - 38 -147.9 111.9 N 12.25 CA 14.36 C 17.4 O 16.84 CB 17.48 CG 16.16 OD1 20.23 OD2 21.63
A SER - 0 -88.0 5.7 N 13.57 CA 16.29 C 17.71 O 15.97 CB 11.62 OG 15.07
A THR H 39 -54.0 -50.8 N 17.95 CA 17.91 C 19.72 O 16.73 CB 20.84 OG1 17.42 CG2 19.65
A THR H 94 -69.6 -41.4 N 18.74 CA 23.45 C 20.91 O 18.8 CB 20.94 OG1 25.81 CG2 24.59
A LEU H 0 -53.9 -46.7 N 16.56 CA 15.55 C 17.28 O 16.0 CB 12.55 CG 14.35 CD1 10.75 CD2 12.13
A ARG H 19 -65.8 -38.0 N 14.2 CA 16.86 C 17.32 O 16.45 CB 16.53 CG 11.8 CD 14.87 NE 21.71 CZ 18.62 NH1 15.39 NH2 20.65
A ASP H 85 -63.6 -47.0 N 14.8 CA 17.33 C 17.72 O 15.55 CB 23.62 CG 31.28 OD1 35.54 OD2 37.25
A LYS H 37 -57.1 -45.6 N 13.75 CA 20.31 C 16.34 O 13.68 CB 19.74 CG 35.68 CD 34.97 CE 54.26 NZ 50.27
A ILE H 0 -57.9 -43.4 N 14.0 CA 15.11 C 16.46 O 14.51 CB 10.89 CG1 9.15 CG2 9.2 CD1 10.57
A GLU H 87 -68.4 -33.9 N 13.04 CA 12.82 C 14.24 O 13.15 CB 15.71 CG 21.61 CD 40.42 OE1 26.88 OE2 26.45
A GLU H 116 -65.8 -42.3 N 16.54 CA 16.86 C 16.71 O 14.0 CB 19.22 CG 21.3 CD 30.32 OE1 33.77 OE2 24.99
A VAL H 0 -69.9 -39.6 N 14.44 CA 17.6 C 16.18 O 14.16 CB 15.84 CG1 13.68 CG2 10.24
A ARG H 47 -56.6 -46.6 N 10.98 CA 11.62 C 15.73 O 17.35 CB 8.29 CG 24.19 CD 19.12 NE 30.01 CZ 38.02 NH1 30.31 NH2 24.88
A THR H 103 -63.4 -47.1 N 13.16 CA 15.03 C 17.22 O 15.39 CB 20.74 OG1 18.0 CG2 17.19
A ASN H 45 -56.9 -51.0 N 10.96 CA 15.18 C 17.06 O 13.18 CB 10.09 CG 20.65 OD1 18.05 ND2 13.65
A ALA H 0 -58.8 -30.6 N 15.43 CA 17.89 C 18.6 O 13.87 CB 12.18
A ASN T 87 -76.4 -5.9 N 13.05 CA 14.24 C 11.86 O 12.63 CB 16.5 CG 23.67 OD1 21.36 ND2 23.69
A ASP S 62 -64.5 125.1 N 12.04 CA 14.23 C 11.95 O 12.62 CB 12.34 CG 16.51 OD1 12.74 OD2 12.65
A PRO T 88 -62.1 -5.8 N 13.05 CA 15.08 C 13.92 O 16.96 CB 22.25 CG 21.76 CD 15.37
A LYS T 104 -69.7 -19.3 N 10.2 CA 10.33 C 14.81 O 11.35 CB 13.17 CG 14.64 CD 10.17 CE 12.39 NZ 12.65
A TRP B 36 -87.8 145.5 N 12.2 CA 11.2 C 7.51 O 12.56 CB 12.5 CG 9.73 CD1 4.93 CD2 11.64 NE1 10.39 CE2 12.48 CE3 10.9 CZ2 15.62 CZ3 13.4 CH2 15.7
A THR - 14 -56.7 145.9 N 8.21 CA 13.83 C 12.74 O 13.22 CB 16.12 OG1 14.01 CG2 12.0
A GLU H 125 -61.4 -37.9 N 11.34 CA 15.9 C 13.75 O 17.03 CB 17.86 CG 30.74 CD 42.92 OE1 30.32 OE2 38.31
A GLU H 139 -63.0 -43.8 N 15.38 CA 15.35 C 20.44 O 18.18 CB 24.33 CG 39.16 CD 58.24 OE1 25.11 OE2 46.07
A SER H 6 -69.3 -41.5 N 13.69 CA 15.09 C 13.36 O 13.06 CB 16.96 OG 13.37
A ARG H 33 -52.7 -48.2 N 10.56 CA 13.0 C 12.17 O 9.95 CB 11.99 CG 15.43 CD 15.78 NE 27.16 CZ 41.05 NH1 26.62 NH2 39.54
A THR H 73 -64.7 -40.8 N 10.59 CA 14.09 C 12.93 O 9.4 CB 14.62 OG1 12.0 CG2 10.88
A GLU H 108 -65.2 -41.8 N 8.69 CA 10.85 C 12.13 O 11.96 CB 14.82 CG 16.31 CD 38.87 OE1 26.45 OE2 24.54
A VAL H 0 -65.8 -47.1 N 6.96 CA 10.84 C 10.17 O 13.04 CB 12.23 CG1 12.22 CG2 12.65
A LEU H 31 -63.6 -32.9 N 8.99 CA 8.55 C 11.03 O 11.7 CB 11.16 CG 15.92 CD1 12.07 CD2 23.44
A THR H 81 -61.6 -43.3 N 8.16 CA 9.85 C 12.98 O 13.99 CB 14.75 OG1 10.64 CG2 17.07
A GLY H 15 -67.9 -43.3 N 12.14 CA 16.99 C 15.3 O 14.35
A LEU H 0 -59.5 -43.8 N 10.68 CA 12.08 C 12.54 O 10.82 CB 10.19 CG 12.97 CD1 15.11 CD2 13.3
A ASP H 73 -60.2 -38.7 N 13.3 CA 15.42 C 13.38 O 11.76 CB 12.43 CG 19.37 OD1 18.12 OD2 18.19
A THR H 93 -63.3 -47.7 N 14.43 CA 17.65 C 14.53 O 15.01 CB 17.33 OG1 18.28 CG2 23.93
A ILE H 10 -61.8 -45.6 N 13.43 CA 12.12 C 16.22 O 15.12 CB 13.0 CG1 12.67 CG2 19.29 CD1 12.45
A LYS H 64 -64.5 -43.3 N 14.88 CA 16.71 C 16.84 O 15.67 CB 16.43 CG 22.09 CD 27.98 CE 34.79 NZ 27.5
A THR H 80 -57.2 -42.6 N 12.1 CA 13.05 C 19.67 O 16.02 CB 20.6 OG1 18.89 CG2 23.55
A ASP H 37 -62.2 -49.9 N 14.94 CA 16.09 C 18.33 O 20.39 CB 15.91 CG 24.75 OD1 19.67 OD2 15.31
A ILE H 0 -74.7 -22.6 N 14.27 CA 12.97 C 15.27 O 13.82 CB 16.46 CG1 12.53 CG2 16.49 CD1 14.61
A ASP H 53 -71.8 -34.3 N 10.26 CA 18.24 C 19.19 O 14.62 CB 16.64 CG 20.34 OD1 23.89 OD2 17.61
A ASN H 91 -101.5 -26.9 N 16.28 CA 20.05 C 21.65 O 20.43 CB 15.25 CG 22.41 OD1 27.18 ND2 23.61
A ASN S 66 -127.0 136.8 N 13.95 CA 17.5 C 16.36 O 17.0 CB 14.51 CG 22.49 OD1 18.38 ND2 17.44
A PRO - 9 -71.7 150.3 N 16.78 CA 16.11 C 15.01 O 18.26 CB 18.64 CG 23.84 CD 22.85
A LYS - 28 -133.4 163.6 N 15.02 CA 16.67 C 19.9 O 21.21 CB 21.1 CG 16.76 CD 21.27 CE 18.94 NZ 19.09
A THR - 61 -86.6 161.8 N 18.81 CA 18.34 C 19.59 O 18.38 CB 22.67 OG1 22.92 CG2 26.67
A GLN H 44 -60.8 -34.3 N 14.58 CA 19.74 C 24.39 O 19.59 CB 21.12 CG 15.34 CD 26.66 OE1 21.41 NE2 20.99
A THR H 112 -57.4 -45.9 N 20.74 CA 24.84 C 23.79 O 20.1 CB 27.4 OG1 30.94 CG2 31.89
A ASP H 52 -63.1 -47.5 N 17.89 CA 23.02 C 19.48 O 18.97 CB 20.39 CG 43.77 OD1 34.63 OD2 55.96
A ILE H 1 -49.5 -51.8 N 17.43 CA 18.27 C 21.45 O 17.25 CB 16.9 CG1 18.33 CG2 19.92 CD1 14.54
A ASP H 84 -60.9 -36.7 N 17.24 CA 23.65 C 19.15 O 25.15 CB 26.08 CG 28.31 OD1 42.59 OD2 43.99
A SER H 47 -66.0 -33.6 N 18.89 CA 19.7 C 24.81 O 20.21 CB 22.79 OG 38.2
A LYS H 15 -71.8 -29.1 N 18.09 CA 17.13 C 17.0 O 15.49 CB 12.47 CG 19.41 CD 23.65 CE 22.68 NZ 24.21
A ILE H 34 -63.1 -42.4 N 13.98 CA 18.76 C 19.86 O 17.87 CB 18.84 CG1 17.74 CG2 15.68 CD1 21.36
A VAL H 83 -62.1 -46.8 N 17.88 CA 21.55 C 21.7 O 17.43 CB 23.17 CG1 20.3 CG2 25.43
A GLU H 96 -54.7 -39.1 N 15.37 CA 19.26 C 14.96 O 16.87 CB 14.93 CG 24.13 CD 35.59 OE1 32.82 OE2 49.26
A VAL H 0 -69.3 -43.0 N 15.4 CA 13.55 C 19.3 O 13.37 CB 10.31 CG1 13.48 CG2 11.9
A ASN H 53 -58.6 -41.9 N 14.37 CA 15.63 C 13.49 O 18.16 CB 19.39 CG 25.89 OD1 39.06 ND2 45.29
A GLU H 96 -66.0 -44.2 N 14.71 CA 19.67 C 21.25 O 16.29 CB 19.2 CG 26.48 CD 29.36 OE1 30.83 OE2 32.01
A LEU H 30 -53.6 -43.7 N 16.74 CA 12.72 C 14.43 O 14.07 CB 16.92 CG 16.28 CD1 14.62 CD2 14.73
A GLU H 57 -59.7 -32.7 N 11.57 CA 11.8 C 15.61 O 13.22 CB 14.44 CG 14.42 CD 18.48 OE1 15.25 OE2 19.03
A LYS T 146 -67.9 -9.3 N 14.5 CA 18.34 C 19.52 O 19.13 CB 15.6 CG 21.25 CD 25.97 CE 25.34 NZ 30.76
A LEU T 72 -80.7 -9.6 N 11.98 CA 15.64 C 15.77 O 11.81 CB 12.02 CG 17.83 CD1 20.69 CD2 27.67
A LEU - 17 -65.5 137.7 N 12.78 CA 11.01 C 11.31 O 15.21 CB 11.71 CG 10.13 CD1 13.6 CD2 8.49
A VAL - 55 -124.2 129.5 N 12.48 CA 15.16 C 13.71 O 14.06 CB 13.23 CG1 17.88 CG2 17.41
A LEU B 66 -66.7 136.8 N 12.73 CA 12.66 C 12.8 O 17.88 CB 13.7 CG 17.46 CD1 15.9 CD2 15.13
A LYS H 105 -52.4 -37.0 N 12.08 CA 14.4 C 16.39 O 17.42 CB 16.98 CG 14.43 CD 20.35 CE 20.86 NZ 22.33
A LEU H 118 -57.3 -49.1 N 17.53 CA 17.32 C 22.21 O 19.75 CB 15.92 CG 38.47 CD1 28.76 CD2 27.89
A ALA H 38 -63.2 -44.7 N 17.82 CA 20.94 C 25.27 O 24.98 CB 17.59
A ALA H 31 -63.9 -36.6 N 21.37 CA 20.82 C 27.72 O 29.1 CB 19.3
A ALA H 66 -68.4 -32.0 N 22.5 CA 25.23 C 34.41 O 41.2 CB 21.1
A LEU H 122 -86.8 -19.8 N 31.84 CA 30.69 C 40.37 O 40.25 CB 29.68 CG 27.16 CD1 30.67 CD2 32.42
A GLU H 150 -72.6 -33.6 N 36.02 CA 43.23 C 54.76 O 62.87 CB 37.91 CG 38.14 CD 40.43 OE1 38.79 OE2 37.11
A HIS S 173 -72.8 -2.6 N 50.07 CA 46.74 C 45.91 O 45.6 CB 44.26 CG 37.34 ND1 46.0 CD2 46.46 CE1 50.67 NE2 47.86
A HIS - 117 -88.1 150.5 N 46.62 CA 43.18 C 46.14 O 47.61 CB 38.06 CG 11.69 ND1 16.81 CD2 16.45 CE1 19.84 NE2 30.8
A HIS - 173 -130.5 133.0 N 44.75 CA 46.88 C 47.97 O 43.04 CB 50.16 CG 48.43 ND1 52.33 CD2 57.54 CE1 52.15 NE2 48.29
A HIS - 206 -100.4 360.0 N 49.54 CA 48.74 C 51.56 O 53.37 CB 45.31 CG 31.52 ND1 24.01 CD2 32.6 CE1 40.48 NE2 19.62
