A ASN - 114 360.0 162.0 N 37.86 CA 37.52 C 35.43 O 32.44 CB 39.78 CG 42.91 OD1 51.3 ND2 44.45
A TYR H 91 -51.6 -53.2 N 32.93 CA 31.88 C 31.48 O 27.87 CB 32.95 CG 35.4 CD1 37.57 CD2 36.36 CE1 37.62 CE2 37.78 CZ 37.39 OH 35.75
A LYS H 161 -55.7 -46.6 N 30.78 CA 31.88 C 28.77 O 26.88 CB 33.42 CG 38.13 CD 43.81 CE 47.72 NZ 48.4
A GLU H 93 -59.3 -46.6 N 27.34 CA 27.45 C 26.16 O 23.89 CB 29.75 CG 35.59 CD 44.79 OE1 53.13 OE2 44.67
A LYS H 39 -72.5 -34.4 N 23.33 CA 23.39 C 21.41 O 21.05 CB 23.24 CG 27.51 CD 29.5 CE 35.29 NZ 38.03
A LEU H 0 -63.1 -46.1 N 21.12 CA 19.92 C 19.56 O 18.11 CB 20.83 CG 20.71 CD1 25.23 CD2 24.12
A GLN H 52 -58.6 -44.9 N 19.04 CA 18.65 C 17.33 O 16.14 CB 18.98 CG 23.64 CD 24.88 OE1 28.58 NE2 28.54
A GLN H 35 -63.5 -34.7 N 16.71 CA 17.69 C 17.64 O 17.43 CB 18.64 CG 23.03 CD 29.52 OE1 33.48 NE2 32.05
A TYR H 0 -67.3 -42.2 N 17.35 CA 16.74 C 16.83 O 17.14 CB 17.15 CG 15.19 CD1 15.5 CD2 16.75 CE1 16.69 CE2 14.62 CZ 16.3 OH 18.81
A ALA H 0 -58.3 -45.3 N 15.19 CA 16.71 C 15.63 O 17.08 CB 16.0
A GLU H 65 -60.5 -40.6 N 18.22 CA 19.06 C 18.44 O 19.11 CB 20.2 CG 22.1 CD 28.9 OE1 32.39 OE2 30.33
A LEU I 5 -63.9 -49.2 N 16.83 CA 17.91 C 15.87 O 15.42 CB 18.06 CG 20.84 CD1 20.35 CD2 22.67
A LEU I 0 -61.7 -39.0 N 14.79 CA 14.29 C 15.15 O 15.36 CB 14.26 CG 14.99 CD1 16.26 CD2 18.01
A VAL I 0 -82.5 -40.2 N 14.47 CA 15.97 C 16.77 O 16.64 CB 17.05 CG1 18.72 CG2 16.14
A LYS I 97 -93.4 -35.9 N 17.24 CA 18.18 C 18.43 O 17.86 CB 19.06 CG 22.66 CD 24.98 CE 27.37 NZ 30.13
A VAL I 30 -101.5 -38.7 N 18.92 CA 18.3 C 18.74 O 18.72 CB 18.58 CG1 20.1 CG2 19.2
A GLY I 0 -73.8 -68.9 N 17.85 CA 16.45 C 17.01 O 17.38
A MET I 0 -83.9 -28.8 N 16.7 CA 16.74 C 16.02 O 18.19 CB 16.7 CG 20.82 SD 25.1 CE 14.96
A ASN - 48 52.5 52.9 N 15.75 CA 14.34 C 15.83 O 16.54 CB 15.86 CG 15.34 OD1 17.74 ND2 15.03
A VAL - 7 -54.5 131.2 N 14.87 CA 16.05 C 15.69 O 16.15 CB 16.27 CG1 16.91 CG2 18.38
A GLN - 77 -104.2 160.0 N 16.03 CA 17.45 C 18.1 O 16.95 CB 18.47 CG 20.31 CD 24.55 OE1 26.52 NE2 19.75
A PRO T 95 -57.2 132.5 N 18.8 CA 19.33 C 19.29 O 18.2 CB 21.38 CG 19.28 CD 19.88
A LYS T 182 74.6 8.6 N 19.07 CA 20.57 C 19.04 O 20.73 CB 21.88 CG 26.64 CD 32.7 CE 36.23 NZ 38.75
A GLN - 18 -79.8 134.9 N 17.66 CA 17.01 C 15.03 O 16.51 CB 15.96 CG 16.25 CD 17.98 OE1 17.39 NE2 17.88
A PRO - 13 -70.8 154.4 N 16.23 CA 15.82 C 15.88 O 15.16 CB 16.4 CG 18.48 CD 18.56
A VAL E 0 -134.3 138.7 N 15.42 CA 15.61 C 16.22 O 16.24 CB 16.12 CG1 19.33 CG2 14.93
A PHE E 5 -127.4 117.6 N 14.85 CA 14.04 C 15.05 O 15.32 CB 15.13 CG 13.74 CD1 18.42 CD2 15.7 CE1 21.7 CE2 16.65 CZ 16.99
A ILE E 0 -117.6 131.2 N 15.23 CA 14.03 C 13.08 O 14.61 CB 12.8 CG1 15.91 CG2 16.46 CD1 16.11
A ARG E 84 -105.7 117.5 N 13.67 CA 15.24 C 15.35 O 17.13 CB 16.37 CG 22.04 CD 27.54 NE 31.84 CZ 35.4 NH1 36.85 NH2 38.99
A SER E 2 -136.2 -178.0 N 16.57 CA 18.48 C 19.61 O 23.42 CB 18.78 OG 22.2
A SER E 2 -115.9 152.8 N 20.17 CA 19.43 C 17.69 O 18.57 CB 19.96 OG 22.32
A VAL T 51 -67.4 -9.1 N 16.66 CA 17.04 C 18.04 O 19.69 CB 17.94 CG1 17.63 CG2 20.27
A GLU T 91 -91.0 2.0 N 16.44 CA 21.65 C 21.36 O 22.07 CB 22.32 CG 25.92 CD 32.5 OE1 41.55 OE2 40.1
A THR - 6 -129.1 49.6 N 21.56 CA 21.19 C 19.65 O 18.36 CB 22.22 OG1 27.88 CG2 25.25
A LEU H 76 -65.5 -45.4 N 17.47 CA 17.6 C 17.08 O 15.31 CB 17.52 CG 16.09 CD1 20.48 CD2 15.0
A GLU H 104 -61.7 -45.8 N 16.85 CA 17.95 C 15.85 O 16.5 CB 20.43 CG 26.68 CD 33.32 OE1 37.68 OE2 41.46
A LEU H 3 -69.1 -38.0 N 14.91 CA 14.92 C 14.07 O 13.88 CB 17.11 CG 15.3 CD1 15.71 CD2 18.33
A THR H 0 -62.5 -40.7 N 14.7 CA 15.86 C 15.84 O 15.2 CB 17.41 OG1 18.38 CG2 19.44
A HIS H 107 -61.9 -45.4 N 15.07 CA 15.61 C 15.43 O 15.44 CB 15.28 CG 16.67 ND1 18.67 CD2 14.33 CE1 17.63 NE2 16.16
A LEU H 29 -63.6 -40.3 N 17.03 CA 16.41 C 16.52 O 16.9 CB 15.27 CG 18.43 CD1 17.16 CD2 23.97
A ILE H 0 -59.6 -45.9 N 15.68 CA 15.56 C 14.98 O 14.36 CB 13.83 CG1 14.12 CG2 16.63 CD1 14.65
A VAL H 26 -65.6 -43.4 N 14.68 CA 16.09 C 15.92 O 16.85 CB 14.68 CG1 16.75 CG2 16.66
A GLU H 108 -60.5 -44.1 N 16.52 CA 19.44 C 18.98 O 19.12 CB 19.31 CG 27.17 CD 33.66 OE1 35.97 OE2 38.15
A GLU H 13 -64.6 -34.2 N 18.42 CA 19.33 C 18.5 O 17.28 CB 21.69 CG 27.81 CD 26.77 OE1 35.1 OE2 33.69
A ALA H 0 -66.0 -42.6 N 16.77 CA 17.46 C 17.96 O 17.4 CB 17.9
A TYR H 128 -69.0 -35.5 N 17.65 CA 18.26 C 19.5 O 18.7 CB 17.79 CG 16.59 CD1 14.79 CD2 16.1 CE1 18.89 CE2 15.82 CZ 15.86 OH 14.37
A HIS H 135 -62.7 -26.5 N 20.52 CA 23.07 C 23.47 O 24.96 CB 23.67 CG 30.94 ND1 36.04 CD2 36.11 CE1 33.99 NE2 36.72
A CYS T 28 -83.8 -2.2 N 22.18 CA 21.95 C 21.29 O 23.0 CB 22.14 SG 28.77
A GLY T 34 91.9 13.7 N 19.24 CA 18.86 C 17.31 O 18.55
A ALA - 9 -55.6 148.2 N 16.9 CA 15.93 C 16.16 O 17.41 CB 16.79
A SER - 75 -136.1 130.2 N 17.28 CA 17.97 C 17.29 O 16.28 CB 20.6 OG 20.19
A ASP S 65 74.9 83.3 N 15.79 CA 16.77 C 17.33 O 15.13 CB 16.32 CG 22.57 OD1 18.61 OD2 21.7
A VAL E 23 -110.4 123.2 N 16.72 CA 16.29 C 15.66 O 16.73 CB 16.31 CG1 16.63 CG2 18.82
A ARG E 109 -116.6 132.8 N 14.79 CA 14.02 C 14.84 O 15.49 CB 15.19 CG 15.99 CD 19.91 NE 24.48 CZ 22.29 NH1 19.76 NH2 27.01
A VAL E 43 -114.4 128.9 N 14.95 CA 14.54 C 13.99 O 14.61 CB 14.94 CG1 18.65 CG2 17.44
A VAL E 58 -108.6 114.4 N 15.63 CA 16.32 C 15.75 O 16.44 CB 16.55 CG1 18.77 CG2 18.38
A TYR E 93 -89.6 127.3 N 14.94 CA 16.97 C 17.01 O 20.23 CB 16.89 CG 15.51 CD1 18.5 CD2 19.4 CE1 19.74 CE2 16.94 CZ 17.66 OH 19.77
A SER E 64 -96.2 159.9 N 18.03 CA 19.48 C 18.02 O 17.65 CB 19.93 OG 26.59
A ASP - 48 -145.2 107.1 N 17.51 CA 16.38 C 17.56 O 17.55 CB 16.37 CG 18.11 OD1 18.1 OD2 16.73
A PRO H 17 -66.1 -26.3 N 17.23 CA 18.71 C 18.14 O 17.53 CB 19.97 CG 20.83 CD 19.32
A THR H 85 -62.4 -45.9 N 17.2 CA 18.04 C 17.34 O 19.14 CB 18.17 OG1 17.9 CG2 20.41
A LEU H 103 -64.6 -39.6 N 16.88 CA 16.73 C 16.65 O 16.51 CB 16.57 CG 16.46 CD1 18.1 CD2 18.08
A LYS H 58 -68.1 -40.4 N 17.49 CA 17.84 C 18.15 O 16.9 CB 18.76 CG 21.89 CD 27.85 CE 32.6 NZ 36.95
A ARG H 66 -63.9 -45.3 N 17.05 CA 17.67 C 17.81 O 18.84 CB 17.97 CG 19.77 CD 21.72 NE 25.91 CZ 23.31 NH1 21.72 NH2 25.85
A LEU H 83 -59.2 -38.6 N 17.68 CA 17.46 C 17.01 O 16.88 CB 17.17 CG 18.44 CD1 18.16 CD2 22.56
A LYS H 77 -63.4 -45.5 N 16.62 CA 16.91 C 17.46 O 18.34 CB 17.94 CG 20.55 CD 24.77 CE 26.92 NZ 26.22
A PHE H 4 -74.3 -31.4 N 17.35 CA 18.86 C 18.67 O 20.34 CB 20.16 CG 19.74 CD1 21.94 CD2 20.78 CE1 22.71 CE2 24.04 CZ 23.53
A GLU H 91 -66.3 -30.5 N 18.67 CA 19.6 C 20.06 O 22.2 CB 19.72 CG 19.95 CD 24.7 OE1 29.38 OE2 25.95
A ASN H 123 -108.8 -23.0 N 19.25 CA 19.52 C 21.2 O 23.84 CB 19.78 CG 19.7 OD1 19.17 ND2 19.24
A GLU S 82 -98.1 152.7 N 19.22 CA 18.17 C 18.36 O 18.53 CB 17.25 CG 17.67 CD 20.41 OE1 20.71 OE2 23.49
A SER - 58 -80.5 167.7 N 19.58 CA 20.53 C 20.96 O 20.14 CB 19.31 OG 19.58
A VAL H 52 -56.3 -42.3 N 22.12 CA 21.87 C 22.59 O 21.32 CB 22.22 CG1 24.57 CG2 23.95
A GLU H 99 -62.3 -36.2 N 22.66 CA 23.37 C 21.87 O 21.92 CB 24.86 CG 28.63 CD 29.78 OE1 29.09 OE2 29.37
A HIS H 29 -59.3 -47.6 N 20.63 CA 19.97 C 18.79 O 20.54 CB 19.27 CG 19.05 ND1 19.97 CD2 20.58 CE1 22.36 NE2 21.83
A PHE H 1 -67.8 -31.3 N 18.98 CA 19.6 C 20.76 O 21.66 CB 20.07 CG 18.75 CD1 21.56 CD2 15.37 CE1 19.19 CE2 22.02 CZ 19.58
A ALA H 28 -75.4 -25.3 N 19.92 CA 20.22 C 21.54 O 24.62 CB 21.02
A ASN H 101 -133.6 -22.2 N 21.08 CA 21.18 C 22.05 O 22.41 CB 22.13 CG 24.29 OD1 28.91 ND2 28.3
A HIS T 95 -127.2 -1.9 N 20.04 CA 20.73 C 19.27 O 20.62 CB 20.38 CG 26.26 ND1 31.65 CD2 32.13 CE1 33.08 NE2 31.27
A GLU S 33 -88.3 -50.9 N 20.35 CA 19.58 C 21.73 O 20.73 CB 20.89 CG 22.95 CD 26.17 OE1 23.82 OE2 26.55
A ILE S 42 -76.2 120.4 N 21.0 CA 22.67 C 22.32 O 22.94 CB 23.44 CG1 26.25 CG2 26.72 CD1 27.99
A LYS - 74 -99.6 134.8 N 19.84 CA 19.57 C 20.3 O 20.5 CB 19.5 CG 18.56 CD 22.63 CE 26.12 NZ 27.19
A SER H 93 -56.1 -37.9 N 21.57 CA 22.48 C 21.7 O 22.44 CB 22.77 OG 25.76
A TYR H 143 -67.4 -27.3 N 21.04 CA 21.44 C 20.87 O 21.05 CB 21.46 CG 20.15 CD1 21.85 CD2 20.42 CE1 19.25 CE2 21.04 CZ 19.2 OH 19.0
A ASP H 88 -73.2 -35.0 N 20.95 CA 20.5 C 20.17 O 19.75 CB 20.25 CG 20.75 OD1 25.8 OD2 23.6
A VAL H 27 -65.2 -43.5 N 20.94 CA 20.67 C 21.75 O 21.56 CB 21.69 CG1 21.75 CG2 20.07
A GLU H 139 -60.7 -41.8 N 21.62 CA 22.43 C 21.34 O 21.91 CB 23.89 CG 29.86 CD 38.73 OE1 42.4 OE2 41.38
A ALA H 19 -54.3 -54.6 N 19.55 CA 19.42 C 19.06 O 19.97 CB 20.51
A ARG H 27 -56.2 -48.9 N 17.14 CA 18.38 C 17.89 O 15.49 CB 18.02 CG 19.18 CD 25.18 NE 24.31 CZ 27.27 NH1 29.34 NH2 24.55
A MET H 48 -71.4 -21.3 N 19.48 CA 20.93 C 20.73 O 21.07 CB 22.12 CG 20.49 SD 28.5 CE 37.49
A ASP H 70 -67.7 -46.1 N 20.68 CA 20.56 C 19.8 O 19.34 CB 20.39 CG 22.53 OD1 23.97 OD2 21.63
A TYR H 16 -62.7 -41.1 N 18.91 CA 18.33 C 18.94 O 19.44 CB 17.89 CG 15.4 CD1 14.14 CD2 15.06 CE1 15.27 CE2 15.34 CZ 15.67 OH 18.82
A VAL H 11 -56.5 -45.1 N 19.21 CA 21.87 C 21.86 O 22.89 CB 21.27 CG1 22.45 CG2 23.09
A LYS H 184 -65.3 -31.9 N 24.78 CA 25.26 C 25.09 O 23.44 CB 27.26 CG 32.7 CD 39.34 CE 43.69 NZ 48.82
A ARG T 96 -90.2 10.5 N 23.24 CA 22.07 C 21.92 O 22.62 CB 22.18 CG 23.11 CD 24.2 NE 25.28 CZ 23.98 NH1 22.5 NH2 24.07
A GLY T 30 76.6 28.4 N 20.16 CA 19.85 C 19.24 O 18.7
A ALA - 2 -68.3 144.2 N 18.3 CA 18.02 C 18.03 O 17.28 CB 18.49
A ALA E 0 -75.3 131.9 N 18.75 CA 18.29 C 18.59 O 19.15 CB 18.89
A ASN E 4 -117.4 136.3 N 17.56 CA 17.25 C 16.61 O 19.03 CB 18.57 CG 24.97 OD1 31.4 ND2 22.07
A LEU E 0 -129.3 131.2 N 15.21 CA 14.81 C 14.3 O 16.08 CB 13.55 CG 17.82 CD1 19.45 CD2 18.3
A ALA E 9 -111.4 114.9 N 14.06 CA 15.33 C 16.25 O 17.22 CB 16.55
A LEU E 7 -106.8 104.3 N 16.88 CA 19.4 C 21.26 O 23.25 CB 20.79 CG 23.2 CD1 21.52 CD2 23.58
A ILE E 52 -96.0 146.7 N 22.09 CA 22.88 C 22.68 O 19.46 CB 25.47 CG1 28.93 CG2 26.69 CD1 35.44
A SER - 8 -159.4 17.6 N 22.21 CA 24.77 C 25.37 O 27.51 CB 24.64 OG 30.09
A GLU - 69 -79.6 151.8 N 25.77 CA 26.99 C 25.12 O 25.67 CB 29.13 CG 31.8 CD 33.37 OE1 32.22 OE2 37.8
A ASP - 37 -59.1 120.2 N 24.29 CA 24.12 C 24.06 O 22.41 CB 25.36 CG 28.85 OD1 28.11 OD2 31.89
A PRO T 11 -58.5 -19.0 N 23.29 CA 25.48 C 26.42 O 27.93 CB 24.75 CG 26.57 CD 25.64
A ASP T 42 -106.8 6.4 N 27.76 CA 29.07 C 26.02 O 27.05 CB 30.76 CG 36.57 OD1 46.51 OD2 46.58
A LEU T 18 -45.7 -41.1 N 23.59 CA 21.82 C 22.2 O 23.01 CB 20.53 CG 21.61 CD1 23.23 CD2 22.35
A MET T 4 -91.5 17.0 N 23.22 CA 23.92 C 25.93 O 24.05 CB 24.23 CG 27.11 SD 29.64 CE 28.62
A ASP T 106 -64.3 128.2 N 25.91 CA 28.63 C 27.6 O 28.4 CB 29.29 CG 36.91 OD1 44.12 OD2 39.02
A GLY T 73 92.6 -11.0 N 26.94 CA 25.55 C 25.9 O 25.94
A ILE S 22 -82.4 143.8 N 23.24 CA 22.57 C 22.65 O 23.61 CB 21.65 CG1 21.03 CG2 21.54 CD1 20.82
A ASP - 77 -61.2 124.6 N 22.63 CA 22.66 C 22.8 O 21.85 CB 23.22 CG 26.26 OD1 29.49 OD2 33.89
A SER H 33 -58.2 -26.7 N 23.61 CA 23.44 C 22.54 O 21.94 CB 24.69 OG 27.67
A GLN H 89 -68.1 -31.8 N 21.9 CA 22.67 C 20.8 O 18.4 CB 22.89 CG 25.52 CD 34.5 OE1 41.9 NE2 37.26
A LYS H 32 -66.6 -45.1 N 20.9 CA 21.28 C 20.26 O 20.6 CB 20.13 CG 21.72 CD 19.41 CE 20.82 NZ 17.45
A LEU H 2 -62.4 -43.3 N 22.39 CA 21.88 C 21.88 O 20.44 CB 23.07 CG 25.66 CD1 26.93 CD2 26.49
A GLN H 64 -60.2 -51.2 N 20.96 CA 22.59 C 20.42 O 21.36 CB 23.09 CG 27.79 CD 31.32 OE1 37.43 NE2 33.32
A ALA H 9 -57.3 -47.8 N 20.4 CA 19.52 C 19.71 O 19.14 CB 19.34
A PHE H 24 -58.0 -49.4 N 19.87 CA 20.92 C 21.0 O 22.84 CB 22.0 CG 23.21 CD1 24.88 CD2 27.12 CE1 29.72 CE2 28.2 CZ 29.63
A GLN H 40 -69.4 -34.3 N 22.36 CA 24.72 C 24.46 O 24.69 CB 26.63 CG 32.92 CD 40.02 OE1 46.15 NE2 39.89
A GLN H 59 -65.5 -42.6 N 23.42 CA 25.57 C 24.54 O 25.77 CB 27.17 CG 33.01 CD 42.89 OE1 47.9 NE2 48.4
A GLN H 60 -71.5 -40.4 N 21.89 CA 21.38 C 20.59 O 21.56 CB 21.24 CG 22.15 CD 27.88 OE1 29.89 NE2 30.01
A ASN H 43 -60.8 -50.1 N 20.91 CA 22.96 C 23.8 O 22.91 CB 23.46 CG 27.36 OD1 26.51 ND2 32.28
A ALA H 14 -60.5 -42.1 N 24.29 CA 26.34 C 26.88 O 27.14 CB 26.95
A ARG H 133 -68.1 -43.7 N 26.78 CA 28.28 C 26.72 O 26.23 CB 30.02 CG 36.55 CD 43.32 NE 49.0 CZ 52.47 NH1 52.63 NH2 53.72
A ALA H 35 -63.3 -35.2 N 24.14 CA 23.93 C 22.53 O 23.02 CB 23.26
A PHE T 29 -105.1 18.2 N 22.99 CA 24.3 C 24.95 O 25.87 CB 24.37 CG 22.83 CD1 24.04 CD2 21.44 CE1 23.8 CE2 21.15 CZ 23.58
A LYS H 24 -64.0 -36.6 N 24.65 CA 25.44 C 23.94 O 23.34 CB 28.02 CG 32.56 CD 36.56 CE 42.21 NZ 43.1
A GLY H 33 -58.7 -46.8 N 22.9 CA 24.33 C 23.97 O 22.96
A TYR H 21 -57.4 -49.5 N 23.61 CA 22.56 C 22.96 O 21.81 CB 22.96 CG 19.49 CD1 18.61 CD2 21.93 CE1 19.59 CE2 23.71 CZ 22.83 OH 26.82
A MET H 36 -63.8 -36.1 N 22.95 CA 23.7 C 22.55 O 21.53 CB 26.2 CG 31.66 SD 44.43 CE 38.89
A GLU H 71 -64.5 -38.4 N 22.88 CA 24.54 C 23.41 O 25.33 CB 25.5 CG 30.74 CD 35.65 OE1 38.54 OE2 42.6
A SER H 13 -67.7 -43.7 N 23.52 CA 23.72 C 22.82 O 20.65 CB 23.94 OG 29.55
A VAL H 16 -56.2 -47.6 N 22.3 CA 23.74 C 24.01 O 24.79 CB 24.5 CG1 26.69 CG2 27.57
A GLN H 9 -78.9 -7.5 N 25.11 CA 24.97 C 24.39 O 24.52 CB 25.97 CG 28.93 CD 33.18 OE1 37.47 NE2 31.05
A LYS T 40 -99.3 5.7 N 23.76 CA 24.92 C 24.0 O 24.85 CB 26.55 CG 32.13 CD 37.03 CE 41.09 NZ 42.94
A ASN T 9 49.6 47.8 N 22.32 CA 20.4 C 19.8 O 19.03 CB 20.7 CG 21.01 OD1 22.44 ND2 21.1
A GLN - 81 -73.0 -14.5 N 18.43 CA 20.07 C 20.53 O 20.9 CB 22.85 CG 26.07 CD 30.6 OE1 33.66 NE2 30.97
A PHE S 2 -159.2 163.4 N 18.42 CA 17.98 C 16.82 O 17.62 CB 16.59 CG 17.26 CD1 18.39 CD2 21.96 CE1 24.05 CE2 19.95 CZ 23.26
A PRO - 1 -77.5 130.5 N 16.19 CA 16.4 C 16.18 O 17.43 CB 17.61 CG 17.88 CD 16.01
A TRP E 25 -132.7 149.3 N 16.35 CA 16.61 C 15.4 O 15.92 CB 17.37 CG 17.85 CD1 21.52 CD2 20.54 NE1 20.65 CE2 20.73 CE3 22.52 CZ2 24.25 CZ3 23.47 CH2 23.66
A VAL E 1 -144.8 140.5 N 15.45 CA 15.17 C 13.99 O 14.66 CB 15.6 CG1 18.63 CG2 17.84
A VAL E 37 -120.1 127.3 N 15.65 CA 15.46 C 15.68 O 15.93 CB 14.99 CG1 19.36 CG2 15.74
A ALA E 0 -148.5 172.1 N 15.84 CA 15.01 C 16.53 O 16.92 CB 16.27
A ALA E 0 -139.8 162.8 N 15.82 CA 16.72 C 17.61 O 17.09 CB 16.69
A PHE - 5 -148.8 140.2 N 17.52 CA 19.32 C 20.04 O 21.34 CB 18.29 CG 19.35 CD1 25.13 CD2 26.41 CE1 23.7 CE2 24.1 CZ 26.68
A PRO - 0 -56.1 145.4 N 20.64 CA 19.66 C 21.03 O 19.6 CB 21.13 CG 21.3 CD 21.09
A SER - 4 -112.5 165.4 N 21.71 CA 24.51 C 23.7 O 21.53 CB 25.64 OG 28.09
A LYS H 81 -65.4 -42.4 N 24.11 CA 25.2 C 24.32 O 24.37 CB 27.1 CG 29.23 CD 35.16 CE 38.66 NZ 41.74
A ALA H 45 -59.3 -37.0 N 24.98 CA 24.47 C 23.34 O 23.18 CB 27.02
A TRP H 2 -74.7 -39.0 N 20.97 CA 20.21 C 19.76 O 20.74 CB 19.83 CG 24.06 CD1 27.26 CD2 28.07 NE1 26.91 CE2 28.25 CE3 28.88 CZ2 31.2 CZ3 33.43 CH2 32.49
A ALA H 0 -68.4 -36.0 N 21.17 CA 22.46 C 22.16 O 20.93 CB 22.86
A LYS H 77 -66.4 -34.2 N 23.49 CA 24.47 C 24.52 O 24.58 CB 25.6 CG 28.4 CD 33.89 CE 35.23 NZ 37.36
A ARG H 68 -65.8 -40.5 N 23.45 CA 22.98 C 21.48 O 21.52 CB 24.14 CG 27.93 CD 35.75 NE 40.48 CZ 43.46 NH1 41.55 NH2 48.36
A VAL H 12 -70.6 -38.1 N 19.82 CA 20.2 C 21.72 O 22.98 CB 19.53 CG1 20.94 CG2 19.34
A TYR - 10 -127.6 71.2 N 23.43 CA 25.6 C 26.79 O 29.2 CB 25.53 CG 25.64 CD1 25.78 CD2 27.82 CE1 27.36 CE2 26.34 CZ 28.95 OH 32.13
A PRO T 85 -70.5 -20.5 N 29.9 CA 30.86 C 32.0 O 32.21 CB 31.14 CG 32.3 CD 30.68
A GLU T 139 -72.8 -19.3 N 32.9 CA 34.1 C 33.73 O 34.32 CB 34.72 CG 38.7 CD 43.85 OE1 38.98 OE2 45.39
A LEU S 41 -97.4 162.7 N 31.85 CA 31.77 C 30.3 O 29.42 CB 31.84 CG 32.67 CD1 33.71 CD2 35.48
A SER - 57 -63.8 165.2 N 30.96 CA 31.25 C 32.1 O 32.89 CB 31.83 OG 30.6
A VAL H 54 -61.0 -41.9 N 33.05 CA 32.96 C 33.72 O 29.79 CB 33.82 CG1 31.87 CG2 33.77
A GLU H 106 -74.2 -39.2 N 32.92 CA 33.39 C 32.33 O 33.09 CB 34.68 CG 38.53 CD 43.15 OE1 48.17 OE2 43.42
A GLU H 115 -59.7 -44.5 N 30.44 CA 29.67 C 27.75 O 26.2 CB 30.8 CG 32.38 CD 35.95 OE1 32.13 OE2 38.86
A ALA H 0 -59.4 -47.4 N 25.64 CA 25.5 C 24.41 O 23.9 CB 25.59
A TYR H 43 -58.6 -50.0 N 23.78 CA 24.69 C 25.34 O 23.76 CB 25.38 CG 24.3 CD1 23.8 CD2 29.17 CE1 27.71 CE2 28.2 CZ 28.39 OH 31.36
A ILE H 105 -59.4 -46.1 N 25.85 CA 26.55 C 24.81 O 25.1 CB 28.23 CG1 31.54 CG2 31.77 CD1 38.77
A LYS H 90 -59.9 -45.0 N 23.51 CA 23.72 C 23.21 O 22.08 CB 23.3 CG 28.98 CD 35.06 CE 38.95 NZ 41.33
A PHE H 0 -68.2 -40.4 N 22.46 CA 23.99 C 22.26 O 22.62 CB 25.12 CG 27.85 CD1 32.69 CD2 32.4 CE1 35.27 CE2 32.68 CZ 34.92
A ILE H 13 -57.9 -42.4 N 21.09 CA 21.95 C 21.16 O 18.88 CB 21.68 CG1 23.89 CG2 22.31 CD1 24.47
A ASP H 81 -66.6 -41.1 N 22.02 CA 23.7 C 23.44 O 22.95 CB 23.75 CG 29.85 OD1 38.67 OD2 37.79
A GLU H 29 -65.9 -37.9 N 22.01 CA 22.43 C 19.63 O 20.29 CB 22.39 CG 30.63 CD 32.65 OE1 38.99 OE2 44.38
A VAL H 0 -69.8 -42.5 N 19.22 CA 19.0 C 19.29 O 18.76 CB 19.14 CG1 19.23 CG2 20.92
A PHE H 5 -57.1 -47.2 N 18.75 CA 19.02 C 19.65 O 18.81 CB 18.88 CG 18.51 CD1 19.77 CD2 17.91 CE1 19.8 CE2 17.65 CZ 18.86
A ASP H 57 -59.4 -44.3 N 18.93 CA 20.35 C 19.42 O 19.64 CB 22.41 CG 29.69 OD1 43.01 OD2 40.37
A ILE H 3 -58.0 -39.7 N 18.74 CA 18.88 C 18.98 O 20.2 CB 19.92 CG1 20.85 CG2 23.19 CD1 21.22
A VAL T 0 -91.8 9.5 N 18.44 CA 18.01 C 19.2 O 19.3 CB 17.59 CG1 19.03 CG2 18.11
A ARG T 50 69.9 34.2 N 18.29 CA 20.66 C 21.1 O 20.72 CB 20.2 CG 24.1 CD 28.01 NE 32.68 CZ 29.16 NH1 25.86 NH2 25.43
A ILE - 0 -99.2 91.5 N 21.01 CA 23.89 C 25.47 O 24.44 CB 23.4 CG1 23.64 CG2 25.11 CD1 21.24
A ASP S 72 -121.5 8.6 N 28.88 CA 29.87 C 31.72 O 33.89 CB 30.92 CG 29.16 OD1 26.82 OD2 30.5
A GLY S 48 102.5 -16.4 N 32.28 CA 34.4 C 34.04 O 35.69
A ASN S 107 -101.0 176.7 N 33.56 CA 33.37 C 31.5 O 32.58 CB 33.95 CG 38.37 OD1 41.18 ND2 38.3
A ASP - 90 -71.4 117.2 N 29.62 CA 28.87 C 26.12 O 25.07 CB 29.46 CG 32.92 OD1 31.66 OD2 37.87
A PRO H 9 -64.3 -26.1 N 25.35 CA 24.57 C 22.86 O 21.34 CB 25.45 CG 26.03 CD 26.25
A VAL H 84 -67.4 -38.6 N 21.89 CA 22.34 C 21.65 O 20.22 CB 22.32 CG1 21.09 CG2 26.15
A GLU H 66 -73.5 -38.2 N 20.92 CA 21.68 C 20.13 O 19.67 CB 21.99 CG 24.8 CD 29.26 OE1 30.46 OE2 31.77
A ASN H 27 -56.7 -48.4 N 19.49 CA 18.9 C 17.8 O 19.67 CB 18.4 CG 22.78 OD1 24.52 ND2 20.92
A TRP H 3 -65.3 -38.1 N 19.26 CA 18.98 C 20.06 O 19.26 CB 20.31 CG 19.08 CD1 20.09 CD2 19.25 NE1 17.78 CE2 20.54 CE3 20.74 CZ2 20.89 CZ3 23.47 CH2 23.57
A ARG H 140 -55.4 -47.6 N 20.24 CA 19.66 C 19.32 O 20.72 CB 19.42 CG 18.02 CD 26.49 NE 26.48 CZ 31.81 NH1 33.89 NH2 33.91
A GLN H 99 -69.0 -36.5 N 19.21 CA 20.57 C 20.33 O 19.06 CB 22.45 CG 29.3 CD 36.38 OE1 43.41 NE2 39.59
A HIS H 8 -71.1 -44.9 N 18.94 CA 19.13 C 18.78 O 18.4 CB 18.99 CG 18.8 ND1 19.86 CD2 25.14 CE1 20.7 NE2 21.75
A ILE H 37 -60.1 -43.1 N 19.85 CA 21.18 C 19.83 O 19.26 CB 22.25 CG1 24.61 CG2 28.24 CD1 31.6
A ALA H 49 -60.9 -44.2 N 19.13 CA 19.53 C 20.92 O 21.57 CB 20.78
A ASN H 101 -57.8 -49.3 N 21.72 CA 22.54 C 22.13 O 23.28 CB 23.99 CG 27.23 OD1 32.96 ND2 32.41
A LEU H 16 -64.5 -36.0 N 22.04 CA 19.45 C 19.4 O 18.66 CB 19.45 CG 19.56 CD1 22.05 CD2 19.5
A SER H 47 -61.2 -38.6 N 18.61 CA 19.45 C 19.25 O 18.67 CB 20.74 OG 23.08
A VAL H 84 -57.5 -45.2 N 19.69 CA 20.4 C 19.94 O 19.71 CB 21.83 CG1 23.18 CG2 23.96
A TYR H 79 -69.9 -38.9 N 19.33 CA 18.91 C 18.32 O 16.77 CB 19.56 CG 21.15 CD1 28.44 CD2 28.01 CE1 31.12 CE2 33.16 CZ 35.71 OH 40.89
A ALA H 4 -62.2 -41.9 N 16.88 CA 17.32 C 18.4 O 18.95 CB 16.52
A GLN H 105 -73.0 -36.9 N 19.05 CA 20.51 C 20.02 O 21.29 CB 22.59 CG 26.39 CD 27.92 OE1 28.06 NE2 25.51
A LYS H 72 -55.0 -45.7 N 19.47 CA 20.44 C 20.19 O 20.97 CB 22.69 CG 27.44 CD 30.5 CE 34.81 NZ 35.59
A LEU H 0 -67.2 -38.5 N 17.81 CA 16.98 C 16.96 O 17.08 CB 15.85 CG 19.2 CD1 20.44 CD2 18.92
A GLN H 51 -59.8 -42.7 N 16.55 CA 18.04 C 19.52 O 18.13 CB 18.49 CG 20.14 CD 22.99 OE1 25.91 NE2 21.15
A GLN H 143 -66.4 -32.3 N 18.8 CA 21.85 C 21.82 O 22.14 CB 21.78 CG 26.67 CD 34.18 OE1 43.57 NE2 41.7
A LYS H 46 -62.5 -36.0 N 20.66 CA 19.65 C 19.46 O 19.2 CB 20.25 CG 21.84 CD 22.23 CE 30.85 NZ 34.59
A ASN - 68 46.4 52.7 N 19.19 CA 21.33 C 21.78 O 20.78 CB 23.31 CG 23.91 OD1 26.17 ND2 31.27
A TYR - 3 -60.8 144.9 N 20.01 CA 19.45 C 19.33 O 20.06 CB 19.29 CG 17.86 CD1 17.79 CD2 18.39 CE1 18.83 CE2 19.52 CZ 21.06 OH 19.42
A HIS S 74 -75.2 -35.5 N 18.01 CA 19.22 C 18.26 O 17.83 CB 18.82 CG 23.61 ND1 23.07 CD2 25.46 CE1 24.84 NE2 27.62
A ALA E 5 -156.5 161.9 N 16.86 CA 16.59 C 15.51 O 16.6 CB 18.66
A LEU E 0 -112.2 144.2 N 15.7 CA 16.64 C 16.54 O 17.5 CB 17.04 CG 17.65 CD1 18.16 CD2 19.99
A HIS E 24 -126.5 115.3 N 17.07 CA 16.59 C 15.98 O 16.19 CB 17.61 CG 19.61 ND1 25.13 CD2 20.18 CE1 23.11 NE2 23.87
A TYR E 0 -99.2 131.4 N 15.64 CA 15.82 C 16.69 O 16.65 CB 15.28 CG 17.56 CD1 15.18 CD2 16.33 CE1 16.9 CE2 19.43 CZ 18.38 OH 18.06
A VAL E 46 -138.9 119.3 N 18.46 CA 19.05 C 18.75 O 18.3 CB 19.59 CG1 22.9 CG2 23.46
A SER E 15 -161.5 -174.1 N 19.53 CA 19.65 C 21.11 O 20.26 CB 21.1 OG 20.97
A GLU T 152 -64.0 120.7 N 22.11 CA 24.07 C 22.9 O 23.18 CB 25.63 CG 32.74 CD 42.72 OE1 45.2 OE2 50.13
A GLY T 24 81.2 8.6 N 21.91 CA 21.56 C 20.12 O 21.22
A THR E 3 -135.8 127.3 N 20.5 CA 20.37 C 19.42 O 20.45 CB 19.73 OG1 19.7 CG2 19.66
A ASP E 63 -153.9 99.6 N 19.08 CA 20.2 C 19.92 O 21.43 CB 21.53 CG 27.28 OD1 29.37 OD2 31.62
A LEU E 0 -142.6 131.9 N 18.5 CA 17.6 C 18.55 O 17.95 CB 18.65 CG 20.87 CD1 23.11 CD2 20.34
A THR E 47 -114.2 123.3 N 18.31 CA 18.86 C 19.26 O 19.87 CB 21.03 OG1 20.86 CG2 23.23
A VAL E 0 -122.4 115.7 N 17.71 CA 18.23 C 16.92 O 17.04 CB 17.75 CG1 19.5 CG2 18.59
A GLY E 1 -76.2 147.7 N 17.16 CA 16.75 C 17.2 O 18.97
A LEU E 2 -95.4 136.6 N 16.92 CA 18.57 C 18.23 O 19.94 CB 17.64 CG 16.31 CD1 17.82 CD2 18.13
A ALA - 0 -55.1 140.5 N 17.96 CA 19.52 C 20.38 O 19.38 CB 19.68
A LYS T 121 -61.2 134.1 N 20.97 CA 21.9 C 21.74 O 23.46 CB 24.47 CG 29.34 CD 38.72 CE 42.37 NZ 45.06
A ASN T 81 65.1 24.4 N 22.18 CA 22.12 C 21.19 O 18.7 CB 23.48 CG 26.51 OD1 30.73 ND2 33.16
A HIS B 2 -52.8 157.0 N 20.17 CA 18.74 C 17.76 O 18.72 CB 18.7 CG 20.05 ND1 20.98 CD2 21.52 CE1 22.0 NE2 21.51
A ILE - 55 -127.0 119.4 N 17.58 CA 18.49 C 17.21 O 18.64 CB 18.71 CG1 22.88 CG2 20.03 CD1 25.05
A TRP - 10 -71.8 121.7 N 17.2 CA 18.13 C 18.43 O 20.54 CB 19.31 CG 17.51 CD1 18.37 CD2 17.35 NE1 19.18 CE2 16.15 CE3 17.45 CZ2 16.4 CZ3 18.25 CH2 19.39
A GLU B 41 -104.1 156.5 N 18.56 CA 18.29 C 18.53 O 18.03 CB 19.76 CG 22.59 CD 29.82 OE1 23.19 OE2 32.14
A ASP - 25 -125.2 -148.1 N 19.44 CA 18.12 C 18.59 O 18.12 CB 19.57 CG 21.76 OD1 20.94 OD2 24.66
A ALA S 7 -75.7 -22.4 N 17.87 CA 19.14 C 19.52 O 21.52 CB 17.9
A THR E 22 -104.2 154.1 N 20.19 CA 19.51 C 18.78 O 17.55 CB 20.29 OG1 19.67 CG2 19.48
A SER E 10 -140.5 162.4 N 16.79 CA 17.41 C 18.82 O 17.44 CB 20.1 OG 20.18
A TYR E 98 -136.8 133.9 N 18.07 CA 18.49 C 18.24 O 20.13 CB 18.61 CG 20.93 CD1 24.11 CD2 25.87 CE1 26.37 CE2 26.6 CZ 28.39 OH 31.31
A VAL G 9 -63.4 128.2 N 16.89 CA 17.53 C 20.46 O 20.01 CB 17.37 CG1 17.74 CG2 18.03
A ASN G 81 57.2 35.1 N 21.82 CA 24.86 C 26.82 O 27.15 CB 26.02 CG 29.45 OD1 32.57 ND2 29.66
A GLY G 56 78.0 -28.3 N 24.67 CA 26.07 C 25.21 O 24.44
A LYS T 175 -149.0 14.7 N 24.42 CA 25.37 C 23.89 O 24.22 CB 27.73 CG 31.45 CD 39.05 CE 42.07 NZ 44.17
A GLU S 104 -111.6 -129.7 N 21.01 CA 19.74 C 18.29 O 17.92 CB 20.5 CG 25.3 CD 32.12 OE1 37.29 OE2 38.51
A GLN S 39 -58.4 133.5 N 18.4 CA 16.47 C 17.34 O 15.42 CB 17.25 CG 17.52 CD 17.83 OE1 21.31 NE2 20.0
A ALA E 39 -85.7 148.6 N 16.89 CA 17.12 C 16.67 O 14.96 CB 16.24
A PHE E 4 -159.5 167.5 N 15.83 CA 15.57 C 15.12 O 15.03 CB 15.31 CG 14.16 CD1 14.15 CD2 17.14 CE1 12.84 CE2 16.72 CZ 15.05
A ILE E 8 -127.2 114.0 N 15.9 CA 16.73 C 16.67 O 16.6 CB 18.14 CG1 20.24 CG2 18.95 CD1 21.73
A ALA S 9 -75.6 -27.3 N 15.67 CA 16.63 C 16.34 O 14.82 CB 16.89
A ASN B 28 -129.8 124.4 N 16.53 CA 16.05 C 17.0 O 17.69 CB 16.7 CG 21.02 OD1 26.32 ND2 22.91
A ILE S 0 -127.7 113.0 N 17.11 CA 18.64 C 19.54 O 19.23 CB 19.06 CG1 20.09 CG2 18.98 CD1 26.78
A PRO S 0 -74.9 168.3 N 19.92 CA 19.48 C 19.46 O 16.94 CB 21.58 CG 22.98 CD 19.2
A THR - 5 -150.7 145.5 N 19.05 CA 19.82 C 19.06 O 20.24 CB 19.14 OG1 21.75 CG2 20.65
A GLU - 12 -139.1 11.3 N 19.16 CA 18.69 C 17.74 O 18.06 CB 18.72 CG 19.48 CD 22.51 OE1 22.56 OE2 27.58
A GLU - 3 -110.2 152.0 N 17.17 CA 16.65 C 15.55 O 15.41 CB 16.48 CG 18.04 CD 17.2 OE1 17.43 OE2 20.72
A VAL E 3 -114.5 141.9 N 14.56 CA 14.61 C 15.37 O 15.73 CB 14.68 CG1 16.73 CG2 15.16
A PHE E 22 -153.8 154.8 N 14.83 CA 14.97 C 16.78 O 18.22 CB 16.53 CG 17.93 CD1 18.95 CD2 18.31 CE1 21.4 CE2 20.49 CZ 20.99
A THR E 0 -151.1 -177.0 N 15.72 CA 16.72 C 16.62 O 17.28 CB 17.03 OG1 19.74 CG2 17.37
A ALA - 0 -95.1 135.9 N 17.9 CA 17.8 C 17.72 O 17.19 CB 18.07
A PRO E 1 -79.9 166.4 N 18.24 CA 17.89 C 19.27 O 17.85 CB 18.49 CG 19.33 CD 17.3
A ASP E 31 -81.0 118.6 N 19.73 CA 21.38 C 20.53 O 21.23 CB 21.87 CG 26.23 OD1 25.61 OD2 33.22
A ARG E 32 -54.1 -21.8 N 22.06 CA 22.41 C 22.97 O 23.33 CB 22.76 CG 24.53 CD 26.74 NE 30.31 CZ 35.34 NH1 36.59 NH2 39.76
A ASN E 80 -98.0 0.6 N 22.45 CA 23.06 C 23.43 O 22.11 CB 25.46 CG 30.04 OD1 38.83 ND2 34.33
A ARG E 65 -129.0 81.0 N 22.58 CA 22.16 C 21.88 O 20.94 CB 23.84 CG 27.11 CD 34.66 NE 35.26 CZ 35.29 NH1 39.18 NH2 32.58
A VAL E 0 -139.4 124.6 N 20.58 CA 20.58 C 21.13 O 22.43 CB 20.67 CG1 23.27 CG2 22.84
A ASP E 71 -137.1 136.5 N 21.34 CA 22.08 C 22.0 O 22.23 CB 22.64 CG 27.66 OD1 27.07 OD2 31.49
A GLY E 28 122.7 -140.7 N 21.54 CA 21.22 C 22.72 O 22.91
A TYR E 94 -147.3 151.6 N 20.94 CA 20.44 C 19.87 O 19.73 CB 21.77 CG 21.09 CD1 21.76 CD2 20.75 CE1 23.63 CE2 23.43 CZ 25.93 OH 24.52
A VAL E 1 -147.7 137.5 N 20.33 CA 20.2 C 20.52 O 21.3 CB 19.85 CG1 21.05 CG2 20.24
A THR E 30 -110.6 140.1 N 20.36 CA 21.7 C 21.9 O 20.57 CB 22.4 OG1 23.53 CG2 25.15
A ASN - 10 -71.2 153.8 N 21.11 CA 20.41 C 21.13 O 19.64 CB 20.05 CG 22.82 OD1 23.73 ND2 22.36
A LYS S 57 -122.0 -14.4 N 19.53 CA 21.07 C 21.85 O 23.25 CB 20.91 CG 21.26 CD 21.04 CE 24.97 NZ 23.59
A LEU S 33 -133.3 156.9 N 22.45 CA 21.88 C 22.23 O 22.65 CB 21.58 CG 22.42 CD1 22.01 CD2 23.09
A PRO - 2 -62.4 157.4 N 23.67 CA 22.34 C 22.03 O 20.05 CB 23.69 CG 25.28 CD 25.93
A LEU E 4 -104.1 116.8 N 21.49 CA 22.88 C 24.15 O 23.27 CB 23.26 CG 23.44 CD1 26.66 CD2 27.13
A SER E 23 -100.0 104.1 N 27.02 CA 28.86 C 29.65 O 30.08 CB 29.81 OG 33.24
A TYR E 30 -138.9 144.3 N 30.04 CA 31.23 C 32.68 O 33.05 CB 31.54 CG 32.66 CD1 32.12 CD2 34.62 CE1 34.05 CE2 33.87 CZ 34.41 OH 38.05
A ASN T 21 48.9 47.7 N 35.16 CA 35.19 C 34.39 O 34.88 CB 36.61 CG 36.64 OD1 42.89 ND2 37.16
A GLY T 10 36.8 34.0 N 32.3 CA 30.92 C 29.03 O 27.89
A THR E 22 -128.8 136.5 N 26.4 CA 25.2 C 24.38 O 23.36 CB 25.1 OG1 22.61 CG2 26.09
A ILE E 6 -89.7 124.9 N 23.64 CA 23.88 C 24.31 O 24.9 CB 24.35 CG1 24.38 CG2 26.26 CD1 29.16
A ILE E 0 -110.8 135.7 N 24.1 CA 24.57 C 25.59 O 25.8 CB 25.18 CG1 27.41 CG2 25.39 CD1 28.87
A ASP E 28 -159.2 165.4 N 25.02 CA 25.55 C 25.18 O 23.06 CB 25.24 CG 27.02 OD1 28.45 OD2 28.26
A GLN E 88 54.4 52.1 N 25.84 CA 25.99 C 26.12 O 24.69 CB 27.56 CG 29.01 CD 35.77 OE1 39.29 NE2 38.26
A PHE E 4 -116.1 148.6 N 24.45 CA 23.31 C 24.7 O 23.77 CB 23.89 CG 21.24 CD1 22.18 CD2 20.89 CE1 22.72 CE2 23.85 CZ 21.63
A LYS E 74 -134.5 139.7 N 23.27 CA 24.05 C 23.38 O 23.16 CB 24.8 CG 26.67 CD 30.05 CE 32.09 NZ 34.96
A LEU E 4 -121.2 135.5 N 23.83 CA 23.19 C 23.82 O 23.95 CB 24.05 CG 23.29 CD1 24.02 CD2 24.58
A MET E 40 -109.2 133.5 N 24.36 CA 24.3 C 22.2 O 21.63 CB 25.54 CG 33.55 SD 51.09 CE 46.11
A PHE E 8 -121.7 141.5 N 21.51 CA 21.77 C 22.16 O 22.0 CB 21.57 CG 21.74 CD1 17.86 CD2 19.81 CE1 19.82 CE2 17.35 CZ 17.57
A LYS E 122 -142.5 128.1 N 22.64 CA 25.56 C 25.19 O 25.89 CB 26.95 CG 30.43 CD 36.56 CE 41.33 NZ 44.39
A ASP T 95 55.8 36.4 N 25.21 CA 25.68 C 24.8 O 23.65 CB 27.4 CG 31.41 OD1 37.7 OD2 42.22
A GLY T 0 96.4 -13.7 N 23.66 CA 23.87 C 24.29 O 25.04
A GLU E 68 -110.0 137.8 N 22.85 CA 23.88 C 22.35 O 21.51 CB 25.58 CG 31.31 CD 37.94 OE1 42.32 OE2 39.83
A ILE E 11 -66.9 120.0 N 22.39 CA 22.56 C 23.45 O 22.98 CB 22.76 CG1 21.25 CG2 25.45 CD1 22.06
A ILE E 111 -107.7 -7.9 N 24.72 CA 26.98 C 27.97 O 28.52 CB 27.39 CG1 30.75 CG2 27.47 CD1 32.54
A ASP E 94 -166.7 157.6 N 27.83 CA 28.34 C 28.64 O 26.83 CB 28.25 CG 31.38 OD1 31.65 OD2 35.13
A PHE E 43 -162.8 159.1 N 28.27 CA 28.08 C 29.42 O 29.76 CB 29.24 CG 31.03 CD1 38.2 CD2 36.8 CE1 38.94 CE2 39.23 CZ 41.66
A SER E 55 -142.5 158.8 N 29.52 CA 29.57 C 29.54 O 25.82 CB 30.51 OG 31.9
A ALA E 12 -155.7 130.5 N 28.41 CA 28.29 C 28.81 O 27.77 CB 28.42
A GLU E 161 -79.4 -19.4 N 31.96 CA 32.82 C 32.62 O 30.59 CB 36.84 CG 41.51 CD 48.16 OE1 51.49 OE2 52.88
A LYS E 84 -142.6 126.1 N 30.76 CA 30.99 C 29.38 O 25.93 CB 31.45 CG 35.92 CD 39.3 CE 42.71 NZ 42.77
A GLY S 21 78.8 26.1 N 28.53 CA 27.61 C 27.94 O 27.13
A GLU H 91 -59.8 -45.3 N 27.26 CA 27.7 C 26.75 O 26.71 CB 27.8 CG 30.97 CD 37.03 OE1 36.72 OE2 39.34
A ALA H 50 -60.3 -39.8 N 25.79 CA 27.28 C 26.64 O 27.03 CB 27.66
A VAL H 10 -69.5 -39.5 N 26.94 CA 26.18 C 26.22 O 27.32 CB 26.59 CG1 27.92 CG2 25.2
A LEU H 6 -60.0 -42.8 N 25.18 CA 25.97 C 26.89 O 25.07 CB 25.78 CG 26.52 CD1 25.2 CD2 27.13
A LYS H 94 -60.9 -46.3 N 26.56 CA 28.4 C 27.5 O 28.22 CB 29.29 CG 34.12 CD 40.0 CE 41.41 NZ 46.32
A ASP H 17 -60.7 -40.0 N 26.5 CA 25.79 C 24.87 O 22.33 CB 26.26 CG 29.92 OD1 31.29 OD2 28.45
A LEU H 3 -60.9 -49.9 N 23.81 CA 24.12 C 23.78 O 23.95 CB 23.64 CG 25.13 CD1 28.04 CD2 28.33
A ILE H 5 -63.7 -34.5 N 23.06 CA 24.34 C 25.0 O 24.78 CB 24.78 CG1 27.12 CG2 27.26 CD1 25.91
A ASN T 71 -85.0 7.6 N 24.7 CA 25.75 C 27.32 O 27.97 CB 25.73 CG 26.22 OD1 30.61 ND2 27.8
A THR S 34 -50.9 -53.2 N 28.77 CA 30.11 C 31.25 O 32.98 CB 30.98 OG1 29.93 CG2 32.87
A ASP S 41 -158.3 -177.0 N 31.61 CA 31.3 C 32.34 O 30.86 CB 32.88 CG 29.67 OD1 26.48 OD2 29.24
A GLU G 86 -57.0 -38.4 N 32.12 CA 33.84 C 30.8 O 29.68 CB 35.49 CG 41.23 CD 47.47 OE1 48.17 OE2 48.07
A GLY G 2 -71.4 -22.7 N 28.22 CA 26.11 C 24.44 O 24.37
A SER G 0 -77.0 -0.2 N 23.99 CA 23.67 C 23.44 O 24.56 CB 23.17 OG 24.03
A ARG G 62 -101.3 9.2 N 22.48 CA 23.71 C 21.26 O 21.54 CB 24.74 CG 32.94 CD 36.07 NE 43.94 CZ 44.1 NH1 40.91 NH2 46.37
A ARG S 23 -128.3 170.4 N 19.25 CA 19.42 C 19.61 O 18.99 CB 20.99 CG 19.42 CD 24.71 NE 28.26 CZ 32.06 NH1 30.12 NH2 34.0
A LEU E 0 -99.3 139.3 N 19.98 CA 19.45 C 19.35 O 19.12 CB 18.51 CG 21.91 CD1 22.99 CD2 24.95
A GLY E 0 -118.0 -3.8 N 18.14 CA 18.11 C 18.76 O 20.3
A GLU E 0 -156.1 141.4 N 17.83 CA 17.52 C 18.11 O 18.23 CB 17.78 CG 18.42 CD 22.14 OE1 19.0 OE2 19.8
A VAL E 0 -116.8 138.2 N 17.06 CA 17.71 C 16.81 O 18.58 CB 19.02 CG1 21.04 CG2 20.26
A ALA E 0 -139.8 130.5 N 15.52 CA 16.31 C 16.25 O 15.88 CB 15.23
A LEU E 1 -106.8 129.0 N 16.27 CA 16.18 C 16.09 O 15.76 CB 16.6 CG 17.69 CD1 18.78 CD2 21.25
A VAL - 2 -136.9 124.3 N 16.12 CA 15.75 C 16.39 O 15.99 CB 16.58 CG1 17.83 CG2 17.82
A PRO - 19 -69.9 144.8 N 17.84 CA 18.08 C 18.88 O 20.06 CB 19.14 CG 21.0 CD 17.22
A ASP S 42 -63.1 -33.3 N 20.52 CA 21.44 C 21.6 O 21.05 CB 23.38 CG 23.55 OD1 26.82 OD2 24.02
A ASP S 106 -87.1 86.6 N 21.31 CA 22.66 C 21.8 O 24.1 CB 23.75 CG 27.79 OD1 25.19 OD2 31.49
A SER S 10 -158.0 163.9 N 22.14 CA 21.81 C 22.47 O 20.46 CB 21.35 OG 21.03
A PRO T 54 -63.7 -34.6 N 22.07 CA 22.24 C 21.43 O 21.55 CB 23.18 CG 24.76 CD 24.79
A ILE T 2 -80.6 -47.9 N 20.81 CA 19.84 C 20.53 O 21.85 CB 19.58 CG1 21.29 CG2 18.27 CD1 24.8
A SER G 14 -50.6 -42.9 N 20.41 CA 20.85 C 22.3 O 23.59 CB 21.19 OG 20.18
A ASN G 81 -64.2 -12.0 N 22.84 CA 24.19 C 26.42 O 26.38 CB 23.18 CG 24.56 OD1 24.22 ND2 24.96
A ARG G 61 -76.4 -15.6 N 27.69 CA 28.6 C 28.51 O 28.97 CB 29.23 CG 31.99 CD 36.41 NE 39.39 CZ 38.57 NH1 37.25 NH2 35.94
A ASN - 150 52.1 47.0 N 28.43 CA 29.25 C 28.51 O 28.91 CB 30.42 CG 34.48 OD1 40.6 ND2 35.21
A THR - 40 -133.4 121.4 N 25.38 CA 24.77 C 23.41 O 21.88 CB 25.66 OG1 27.02 CG2 22.75
A ILE - 66 -78.0 128.5 N 22.8 CA 22.33 C 21.57 O 19.88 CB 22.4 CG1 25.34 CG2 24.25 CD1 28.51
A PHE - 0 -100.6 -9.5 N 20.98 CA 20.52 C 21.47 O 22.09 CB 21.13 CG 20.45 CD1 22.32 CD2 21.87 CE1 23.57 CE2 23.06 CZ 26.4
A TYR S 37 54.1 37.5 N 20.43 CA 21.44 C 22.17 O 23.89 CB 22.35 CG 20.05 CD1 23.02 CD2 22.26 CE1 23.48 CE2 23.42 CZ 26.82 OH 25.03
A ASN S 24 -146.8 133.5 N 21.12 CA 21.27 C 19.33 O 18.88 CB 23.11 CG 26.6 OD1 28.58 ND2 28.63
A THR H 33 -62.0 -44.1 N 16.98 CA 18.78 C 17.07 O 15.63 CB 20.17 OG1 22.8 CG2 24.87
A LEU H 5 -56.0 -41.6 N 17.22 CA 18.0 C 18.78 O 20.7 CB 18.84 CG 19.12 CD1 26.39 CD2 19.57
A PHE H 0 -81.2 -48.0 N 17.12 CA 17.42 C 16.48 O 17.23 CB 18.67 CG 20.34 CD1 22.09 CD2 29.19 CE1 20.31 CE2 30.5 CZ 27.1
A ASP H 1 -66.2 -40.5 N 17.31 CA 16.53 C 16.52 O 17.43 CB 15.95 CG 20.6 OD1 20.89 OD2 22.43
A GLU T 9 -59.3 -24.3 N 17.74 CA 16.76 C 17.37 O 18.69 CB 17.05 CG 19.13 CD 25.74 OE1 33.35 OE2 29.88
A ASN T 0 -97.9 15.8 N 16.4 CA 16.21 C 17.13 O 16.21 CB 17.82 CG 17.36 OD1 18.95 ND2 16.01
A ALA T 8 -115.5 -8.3 N 17.62 CA 17.65 C 18.15 O 19.75 CB 18.2
A ALA S 4 -161.7 151.6 N 16.69 CA 16.39 C 15.98 O 16.2 CB 15.82
A CYS - 1 -50.7 140.5 N 15.79 CA 15.57 C 16.86 O 16.44 CB 15.09 SG 16.99
A HIS E 0 -142.6 164.5 N 16.05 CA 16.33 C 17.18 O 16.31 CB 15.19 CG 16.68 ND1 15.05 CD2 16.72 CE1 17.34 NE2 16.59
A LEU E 0 -126.4 163.2 N 18.26 CA 16.91 C 16.78 O 19.38 CB 17.36 CG 18.61 CD1 20.8 CD2 21.06
A ALA E 0 -127.3 133.3 N 15.87 CA 17.67 C 18.89 O 18.32 CB 18.4
A ILE E 7 -70.0 139.5 N 19.81 CA 22.39 C 21.31 O 19.89 CB 23.11 CG1 26.34 CG2 28.98 CD1 32.05
A GLY E 0 96.9 -144.5 N 21.5 CA 21.61 C 22.56 O 22.58
A SER - 1 -67.4 127.2 N 21.72 CA 22.43 C 22.41 O 23.25 CB 23.3 OG 27.31
A ALA - 6 -73.1 153.9 N 21.32 CA 21.67 C 22.81 O 22.69 CB 22.0
A TYR - 25 -81.3 125.3 N 22.9 CA 25.36 C 24.04 O 23.59 CB 25.95 CG 30.43 CD1 38.54 CD2 32.75 CE1 40.3 CE2 38.36 CZ 40.04 OH 44.88
A ALA G 2 -57.4 -27.3 N 25.14 CA 24.27 C 23.29 O 24.48 CB 24.17
A PHE G 19 -79.7 1.4 N 23.66 CA 23.15 C 22.04 O 22.33 CB 23.41 CG 24.17 CD1 27.18 CD2 26.6 CE1 26.54 CE2 30.61 CZ 28.65
A ASN G 0 -93.6 12.5 N 20.0 CA 20.1 C 19.99 O 19.1 CB 17.83 CG 19.45 OD1 20.09 ND2 17.81
A ILE B 7 -140.8 149.4 N 21.25 CA 23.4 C 24.34 O 22.95 CB 23.34 CG1 26.63 CG2 26.07 CD1 28.05
A GLN T 131 -57.7 128.9 N 25.67 CA 27.46 C 26.94 O 26.6 CB 28.67 CG 33.29 CD 40.36 OE1 42.96 NE2 46.05
A GLY T 43 78.8 0.2 N 26.63 CA 27.3 C 27.55 O 28.5
A GLY G 1 -67.1 -35.8 N 27.53 CA 28.38 C 29.24 O 28.56
A THR G 38 -66.6 -20.8 N 32.13 CA 34.41 C 35.53 O 36.95 CB 34.03 OG1 33.99 CG2 34.3
A GLU G 156 -94.7 -1.9 N 36.9 CA 38.73 C 38.66 O 39.31 CB 39.54 CG 42.47 CD 46.8 OE1 49.85 OE2 51.82
A MET - 37 -84.7 145.0 N 38.84 CA 37.84 C 38.19 O 37.96 CB 37.77 CG 37.3 SD 36.26 CE 37.75
A THR - 64 -69.9 167.6 N 39.26 CA 39.65 C 40.4 O 40.18 CB 39.26 OG1 38.0 CG2 38.45
A VAL H 45 -55.2 -35.8 N 40.89 CA 41.41 C 40.64 O 40.8 CB 42.11 CG1 43.53 CG2 43.01
A GLU H 127 -75.6 -38.8 N 40.39 CA 40.59 C 38.59 O 39.35 CB 41.33 CG 45.14 CD 49.45 OE1 54.27 OE2 51.78
A GLU H 106 -70.2 -33.3 N 36.81 CA 35.48 C 33.84 O 31.9 CB 36.17 CG 38.59 CD 42.84 OE1 41.08 OE2 47.49
A LYS H 18 -57.0 -57.2 N 32.96 CA 33.01 C 31.6 O 29.84 CB 33.17 CG 37.59 CD 42.32 CE 45.6 NZ 45.78
A ILE H 63 -57.3 -44.1 N 31.04 CA 31.87 C 31.87 O 29.79 CB 32.15 CG1 33.83 CG2 32.66 CD1 34.8
A ALA H 90 -71.5 -25.6 N 32.13 CA 31.33 C 30.58 O 30.37 CB 32.29
A SER H 33 -73.1 -10.4 N 28.59 CA 27.35 C 26.57 O 26.07 CB 28.35 OG 27.27
A GLY T 4 112.1 -1.9 N 25.28 CA 24.71 C 24.75 O 23.53
A LEU - 3 -85.4 123.6 N 24.61 CA 25.23 C 23.83 O 24.63 CB 26.53 CG 30.62 CD1 35.72 CD2 29.08
A ASN - 3 -67.9 140.1 N 22.57 CA 22.39 C 22.44 O 20.72 CB 22.49 CG 23.45 OD1 21.1 ND2 22.49
A ASP - 35 -120.1 144.1 N 23.84 CA 25.31 C 24.15 O 26.28 CB 26.78 CG 31.92 OD1 37.22 OD2 39.89
A SER - 2 -164.0 159.4 N 24.28 CA 24.33 C 24.37 O 23.77 CB 25.6 OG 25.64
A ASN S 38 -77.2 -9.6 N 24.34 CA 25.95 C 24.0 O 25.74 CB 26.51 CG 29.49 OD1 33.11 ND2 35.41
A VAL - 12 -119.3 159.6 N 23.8 CA 24.56 C 23.44 O 23.66 CB 24.8 CG1 31.07 CG2 26.28
A HIS E 38 -147.7 108.1 N 23.43 CA 22.08 C 21.89 O 22.88 CB 22.91 CG 24.87 ND1 24.37 CD2 29.27 CE1 28.04 NE2 27.86
A VAL E 14 -125.6 106.5 N 21.14 CA 20.98 C 20.21 O 19.69 CB 22.26 CG1 21.2 CG2 23.39
A ASP E 13 -64.5 132.7 N 20.1 CA 20.73 C 20.16 O 20.94 CB 19.5 CG 26.05 OD1 22.0 OD2 35.09
A PHE E 5 -131.1 141.6 N 19.3 CA 19.85 C 19.26 O 17.61 CB 20.18 CG 21.21 CD1 20.73 CD2 23.31 CE1 21.35 CE2 20.25 CZ 22.21
A MET E 2 -102.0 134.1 N 18.21 CA 17.8 C 18.62 O 18.3 CB 19.14 CG 20.25 SD 25.66 CE 29.1
A ILE - 1 -127.9 -6.6 N 17.65 CA 18.8 C 19.03 O 18.36 CB 17.88 CG1 18.97 CG2 20.68 CD1 21.67
A GLY - 7 -84.3 157.9 N 19.06 CA 19.2 C 19.83 O 18.42
A SER - 19 -167.3 179.7 N 20.23 CA 22.57 C 22.76 O 23.89 CB 23.64 OG 24.53
A SER T 79 -75.3 -14.8 N 24.82 CA 25.42 C 26.18 O 27.32 CB 26.76 OG 26.79
A ASP T 68 -104.0 8.2 N 25.47 CA 26.54 C 24.93 O 27.53 CB 27.36 CG 30.87 OD1 33.14 OD2 34.09
A LEU - 1 -70.3 129.0 N 22.09 CA 20.26 C 19.91 O 19.46 CB 19.82 CG 18.97 CD1 18.1 CD2 18.07
A THR E 30 -104.4 134.6 N 17.96 CA 18.37 C 17.64 O 17.33 CB 19.74 OG1 22.62 CG2 19.83
A ILE E 0 -124.7 127.6 N 16.37 CA 16.28 C 17.03 O 17.29 CB 16.91 CG1 17.43 CG2 17.45 CD1 17.08
A TYR E 78 -96.7 142.9 N 16.44 CA 17.19 C 17.4 O 18.02 CB 16.46 CG 15.64 CD1 16.02 CD2 19.05 CE1 16.18 CE2 18.38 CZ 18.37 OH 18.33
A GLY E 0 -99.9 129.9 N 16.75 CA 14.89 C 15.41 O 16.37
A ILE E 25 -111.6 119.5 N 17.58 CA 17.52 C 18.55 O 18.37 CB 18.53 CG1 19.51 CG2 19.81 CD1 20.11
A PHE - 47 -73.3 161.6 N 18.14 CA 17.7 C 19.39 O 16.04 CB 18.2 CG 19.33 CD1 19.73 CD2 21.13 CE1 18.6 CE2 22.07 CZ 22.32
A GLU T 116 -57.6 -34.1 N 21.61 CA 24.06 C 24.34 O 24.28 CB 26.04 CG 33.42 CD 42.62 OE1 45.05 OE2 42.93
A ASP T 131 -77.1 2.6 N 22.93 CA 23.55 C 23.5 O 21.69 CB 24.43 CG 24.9 OD1 24.83 OD2 27.58
A GLY S 50 97.1 -19.8 N 21.19 CA 21.49 C 20.44 O 19.59
A SER - 57 -66.2 154.5 N 19.45 CA 19.61 C 19.71 O 17.42 CB 20.6 OG 25.84
A LYS E 98 -145.6 141.3 N 18.83 CA 19.08 C 18.45 O 20.19 CB 20.46 CG 21.01 CD 21.05 CE 23.17 NZ 20.48
A GLU E 65 -135.5 162.8 N 17.47 CA 16.14 C 16.59 O 19.1 CB 17.26 CG 15.93 CD 23.41 OE1 24.98 OE2 24.31
A LEU E 43 -75.4 131.7 N 15.93 CA 16.47 C 16.66 O 15.78 CB 17.94 CG 20.65 CD1 25.65 CD2 22.93
A VAL E 0 -104.0 -51.0 N 15.1 CA 15.37 C 15.74 O 17.06 CB 16.83 CG1 17.28 CG2 17.05
A PHE E 1 -118.4 141.0 N 15.99 CA 17.05 C 19.02 O 18.86 CB 17.19 CG 15.95 CD1 12.79 CD2 18.96 CE1 14.33 CE2 14.49 CZ 15.52
A GLU E 77 -137.4 138.5 N 20.57 CA 21.84 C 21.32 O 19.36 CB 23.36 CG 30.0 CD 36.61 OE1 35.29 OE2 37.93
A ASN T 113 48.4 40.7 N 21.5 CA 21.43 C 22.1 O 23.5 CB 22.15 CG 25.28 OD1 28.41 ND2 26.53
A GLY T 2 77.0 0.8 N 18.92 CA 19.14 C 18.67 O 18.14
A ASN E 47 -131.9 164.7 N 19.05 CA 18.39 C 18.31 O 18.35 CB 20.64 CG 20.67 OD1 21.59 ND2 23.35
A TRP E 43 -55.6 131.9 N 18.34 CA 18.56 C 20.2 O 20.5 CB 19.94 CG 19.22 CD1 17.71 CD2 16.94 NE1 18.45 CE2 18.18 CE3 16.4 CZ2 17.96 CZ3 17.64 CH2 16.66
A ALA - 7 -67.1 142.8 N 20.81 CA 22.82 C 25.44 O 24.77 CB 23.41
A SER T 115 -53.4 -37.2 N 27.89 CA 30.14 C 31.02 O 31.43 CB 30.48 OG 35.91
A THR T 112 -84.6 -5.0 N 32.39 CA 33.23 C 33.8 O 33.26 CB 34.33 OG1 35.4 CG2 35.86
A PHE - 30 -72.9 360.0 N 33.12 CA 33.76 C 36.54 O 40.09 CB 31.75 CG 27.07 CD1 21.73 CD2 27.97 CE1 23.37 CE2 25.25 CZ 26.2 OXT 38.84
