A SER - 92 360.0 150.7 N 21.51 CA 21.12 C 21.6 O 20.7 CB 19.36 OG 20.86
A GLU - 92 -110.7 17.4 N 21.61 CA 21.07 C 20.67 O 21.37 CB 22.0 CG 26.22 CD 27.79 OE1 27.97 OE2 28.15
A ILE - 22 -108.8 117.1 N 19.28 CA 18.1 C 18.16 O 17.72 CB 17.82 CG1 17.51 CG2 17.95 CD1 16.22
A ASP - 84 -81.2 111.2 N 17.15 CA 17.0 C 18.06 O 14.91 CB 18.08 CG 21.15 OD1 22.97 OD2 19.9
A LYS H 158 -51.7 -38.8 N 16.81 CA 18.68 C 15.08 O 14.03 CB 22.29 CG 30.62 CD 32.39 CE 35.51 NZ 37.27
A GLY H 9 -66.4 -44.4 N 14.07 CA 15.07 C 13.47 O 15.02
A LEU H 19 -60.9 -41.2 N 12.82 CA 13.02 C 11.62 O 8.35 CB 14.93 CG 17.03 CD1 21.69 CD2 18.61
A ALA H 3 -63.9 -41.0 N 10.76 CA 10.38 C 10.66 O 11.16 CB 7.71
A LYS H 95 -65.3 -39.3 N 11.47 CA 12.42 C 12.0 O 8.61 CB 14.06 CG 15.08 CD 20.68 CE 21.17 NZ 26.65
A PHE H 0 -69.1 -42.1 N 10.2 CA 12.7 C 10.73 O 11.23 CB 10.36 CG 14.58 CD1 13.2 CD2 15.83 CE1 15.05 CE2 18.69 CZ 17.15
A GLY H 0 -60.8 -37.2 N 9.37 CA 11.11 C 11.55 O 12.75
A ASP H 25 -59.9 -47.6 N 9.93 CA 10.08 C 9.19 O 8.11 CB 13.9 CG 19.65 OD1 22.03 OD2 29.57
A SER H 4 -65.3 -37.9 N 10.48 CA 9.8 C 9.39 O 8.66 CB 12.6 OG 19.01
A LEU H 1 -68.0 -48.9 N 8.57 CA 9.0 C 9.09 O 7.0 CB 10.16 CG 9.16 CD1 8.19 CD2 12.62
A ILE H 0 -67.1 -28.5 N 9.39 CA 9.65 C 8.65 O 6.69 CB 11.53 CG1 12.72 CG2 11.55 CD1 13.72
A ASN H 12 -71.6 -36.6 N 8.56 CA 9.06 C 7.35 O 9.57 CB 9.77 CG 13.98 OD1 16.35 ND2 13.34
A PHE H 3 -68.4 -48.6 N 8.34 CA 9.59 C 10.26 O 11.09 CB 10.45 CG 13.4 CD1 15.93 CD2 14.97 CE1 20.04 CE2 17.56 CZ 19.3
A LEU H 3 -59.9 -44.5 N 8.25 CA 11.13 C 10.76 O 11.69 CB 11.29 CG 12.99 CD1 13.28 CD2 13.7
A TYR H 1 -65.0 -43.5 N 11.72 CA 11.18 C 10.5 O 7.27 CB 12.84 CG 12.78 CD1 14.73 CD2 12.48 CE1 15.29 CE2 15.51 CZ 15.83 OH 13.94
A SER H 2 -66.5 -30.0 N 9.58 CA 12.35 C 12.71 O 12.1 CB 12.58 OG 14.81
A LEU H 12 -75.5 -36.0 N 12.19 CA 14.52 C 14.98 O 14.04 CB 15.69 CG 18.23 CD1 17.84 CD2 16.59
A ALA H 0 -68.7 -40.9 N 12.38 CA 13.07 C 14.6 O 14.44 CB 11.45
A LEU H 7 -66.4 -39.6 N 11.07 CA 12.62 C 11.36 O 11.7 CB 12.57 CG 11.55 CD1 12.74 CD2 15.88
A THR H 13 -60.6 -46.8 N 11.32 CA 13.86 C 15.2 O 18.13 CB 14.98 OG1 14.75 CG2 16.11
A GLU H 90 -69.6 -39.0 N 14.66 CA 18.04 C 18.51 O 18.83 CB 19.3 CG 23.87 CD 23.91 OE1 25.74 OE2 25.97
A PHE H 77 -60.4 -40.5 N 16.59 CA 17.44 C 18.75 O 18.38 CB 15.86 CG 17.66 CD1 17.33 CD2 17.43 CE1 17.35 CE2 16.44 CZ 16.94
A LEU H 47 -91.2 -11.2 N 17.96 CA 20.98 C 22.31 O 25.33 CB 20.11 CG 22.17 CD1 21.41 CD2 23.53
A GLY T 68 71.3 23.3 N 23.5 CA 24.45 C 26.05 O 25.53
A LYS S 115 -160.6 135.9 N 23.88 CA 24.66 C 22.05 O 20.32 CB 26.75 CG 30.39 CD 35.45 CE 37.39 NZ 40.03
A PRO - 48 -49.9 121.4 N 20.63 CA 19.74 C 18.38 O 16.32 CB 18.68 CG 23.48 CD 20.38
A THR - 20 -154.8 172.7 N 16.64 CA 18.67 C 18.28 O 17.23 CB 21.85 OG1 24.06 CG2 24.12
A GLY - 2 -156.1 156.7 N 17.78 CA 18.12 C 19.06 O 18.37
A ASP - 34 -162.0 119.4 N 18.15 CA 21.82 C 22.76 O 26.68 CB 21.3 CG 25.25 OD1 24.59 OD2 26.6
A ARG - 126 -57.4 131.4 N 21.51 CA 20.41 C 18.67 O 16.33 CB 25.26 CG 33.25 CD 36.77 NE 39.4 CZ 41.24 NH1 42.8 NH2 42.08
A VAL - 12 -70.9 118.2 N 17.25 CA 16.07 C 14.42 O 16.99 CB 15.9 CG1 14.44 CG2 12.9
A PRO - 20 -67.9 144.1 N 17.38 CA 18.67 C 18.84 O 16.33 CB 20.82 CG 22.87 CD 18.51
A ASN H 91 -56.4 -37.7 N 17.82 CA 19.38 C 17.56 O 17.7 CB 21.67 CG 23.0 OD1 24.2 ND2 24.37
A ALA H 35 -64.2 -29.0 N 16.42 CA 16.01 C 14.52 O 12.33 CB 15.39
A SER H 0 -70.4 -36.9 N 14.15 CA 13.63 C 13.51 O 13.22 CB 14.69 OG 13.93
A LEU H 2 -67.1 -39.6 N 12.22 CA 13.69 C 14.26 O 12.7 CB 13.77 CG 14.07 CD1 16.92 CD2 14.02
A ALA H 17 -67.5 -40.9 N 16.59 CA 17.14 C 18.3 O 18.53 CB 17.76
A ILE H 29 -61.0 -39.1 N 16.25 CA 16.89 C 16.79 O 14.88 CB 21.08 CG1 21.62 CG2 21.26 CD1 22.8
A ALA H 0 -68.2 -40.9 N 16.07 CA 13.94 C 15.02 O 15.38 CB 15.09
A LEU H 0 -65.9 -34.5 N 14.14 CA 17.42 C 16.28 O 18.27 CB 17.11 CG 19.28 CD1 19.72 CD2 16.65
A GLU H 86 -78.9 -36.1 N 16.38 CA 20.48 C 20.79 O 19.78 CB 23.06 CG 30.05 CD 33.9 OE1 35.4 OE2 33.09
A LEU H 75 -60.9 -43.5 N 19.51 CA 20.52 C 20.68 O 21.77 CB 17.87 CG 21.14 CD1 21.04 CD2 21.26
A THR H 40 -72.6 -17.8 N 19.11 CA 21.19 C 21.34 O 18.58 CB 21.73 OG1 25.07 CG2 24.98
A GLY T 20 92.5 -7.0 N 21.35 CA 20.86 C 21.84 O 21.55
A LEU G 21 -61.3 -24.4 N 20.76 CA 21.5 C 21.3 O 21.18 CB 22.18 CG 20.64 CD1 21.09 CD2 23.05
A SER G 9 -72.1 -8.3 N 20.71 CA 23.18 C 24.08 O 24.07 CB 22.26 OG 25.58
A LYS G 157 -77.8 -10.4 N 27.26 CA 29.9 C 29.94 O 30.46 CB 31.09 CG 34.4 CD 36.59 CE 37.09 NZ 39.08
A ASN G 100 -98.9 2.5 N 29.98 CA 30.15 C 29.4 O 30.24 CB 32.99 CG 33.78 OD1 35.47 ND2 35.13
A LEU - 10 -84.4 136.2 N 27.06 CA 25.7 C 25.48 O 21.77 CB 27.92 CG 30.7 CD1 31.79 CD2 28.48
A ARG - 146 -73.9 157.5 N 22.9 CA 23.77 C 21.55 O 20.31 CB 23.83 CG 26.39 CD 30.2 NE 31.82 CZ 32.88 NH1 34.17 NH2 34.5
A ARG G 213 -49.0 -45.2 N 20.75 CA 19.76 C 19.1 O 18.31 CB 18.94 CG 18.43 CD 18.72 NE 20.88 CZ 22.67 NH1 22.58 NH2 21.38
A VAL G 97 -55.9 -23.7 N 18.98 CA 20.4 C 21.11 O 20.74 CB 21.31 CG1 22.26 CG2 22.51
A ASP G 4 -103.3 -3.9 N 18.94 CA 19.8 C 20.75 O 20.85 CB 14.41 CG 16.79 OD1 17.59 OD2 13.69
A LYS T 76 -54.4 -30.1 N 23.5 CA 24.72 C 24.36 O 23.96 CB 28.28 CG 30.13 CD 31.73 CE 31.28 NZ 31.61
A HIS T 197 -93.6 4.2 N 24.4 CA 25.98 C 25.23 O 26.9 CB 29.39 CG 34.8 ND1 36.7 CD2 36.59 CE1 38.21 NE2 39.05
A ALA - 24 -126.0 40.4 N 22.9 CA 19.21 C 18.82 O 17.07 CB 19.52
A LYS H 48 -58.9 -35.8 N 17.86 CA 19.54 C 18.12 O 19.45 CB 19.56 CG 21.81 CD 21.2 CE 23.33 NZ 23.35
A GLY H 0 -66.4 -45.6 N 17.57 CA 17.48 C 17.21 O 12.65
A ASP H 55 -62.1 -36.7 N 16.19 CA 16.85 C 15.53 O 13.23 CB 19.16 CG 26.86 OD1 31.51 OD2 30.3
A TYR H 38 -61.9 -46.9 N 15.94 CA 16.15 C 13.75 O 12.27 CB 17.42 CG 19.93 CD1 19.52 CD2 21.92 CE1 21.82 CE2 24.16 CZ 25.63 OH 24.75
A ALA H 0 -61.8 -39.8 N 12.44 CA 12.77 C 13.71 O 13.88 CB 10.65
A GLU H 21 -63.0 -43.5 N 11.98 CA 11.93 C 11.24 O 11.49 CB 12.26 CG 17.42 CD 17.69 OE1 18.24 OE2 20.81
A ALA H 11 -67.3 -36.0 N 9.92 CA 9.45 C 10.28 O 12.51 CB 11.54
A LEU H 22 -61.3 -49.7 N 10.49 CA 13.92 C 12.33 O 12.46 CB 15.23 CG 20.89 CD1 20.91 CD2 22.75
A ILE H 3 -60.3 -44.2 N 11.52 CA 11.95 C 9.97 O 12.29 CB 12.45 CG1 14.03 CG2 15.81 CD1 16.53
A ALA H 0 -61.1 -45.5 N 9.86 CA 10.01 C 10.9 O 8.59 CB 11.36
A LYS H 112 -60.3 -45.3 N 10.05 CA 12.81 C 12.22 O 13.75 CB 11.94 CG 17.54 CD 22.18 CE 21.9 NZ 21.47
A ALA H 0 -63.1 -43.2 N 10.75 CA 12.03 C 13.06 O 13.69 CB 11.74
A TRP H 50 -67.9 -45.4 N 13.39 CA 15.9 C 15.77 O 13.93 CB 19.02 CG 24.73 CD1 22.41 CD2 26.61 NE1 27.47 CE2 28.54 CE3 29.15 CZ2 29.65 CZ3 31.51 CH2 33.7
A LEU H 77 -63.3 -30.4 N 14.13 CA 16.09 C 15.53 O 16.18 CB 15.25 CG 17.97 CD1 18.01 CD2 19.95
A MET T 141 -84.3 -5.6 N 14.61 CA 18.33 C 17.31 O 19.08 CB 18.33 CG 27.95 SD 18.32 CE 30.81
A GLY T 63 77.1 26.7 N 16.56 CA 15.71 C 16.87 O 15.28
A LEU S 36 -86.2 -7.9 N 15.11 CA 17.94 C 19.28 O 20.64 CB 17.37 CG 20.26 CD1 19.89 CD2 18.44
A ILE S 12 -160.8 133.8 N 19.77 CA 21.18 C 21.33 O 24.06 CB 21.73 CG1 25.39 CG2 22.51 CD1 26.15
A SER - 60 -90.1 162.7 N 21.28 CA 21.52 C 21.96 O 20.15 CB 23.15 OG 20.4
A GLU H 48 -59.6 -51.1 N 22.09 CA 23.4 C 22.54 O 17.6 CB 27.62 CG 35.34 CD 39.32 OE1 42.54 OE2 40.84
A ARG H 195 -59.5 -40.3 N 22.11 CA 22.0 C 19.65 O 17.32 CB 23.67 CG 30.77 CD 36.88 NE 41.71 CZ 43.08 NH1 43.9 NH2 44.82
A GLU H 62 -67.1 -40.0 N 18.43 CA 19.4 C 17.5 O 13.62 CB 21.97 CG 25.85 CD 30.18 OE1 29.82 OE2 31.29
A ALA H 3 -65.5 -40.9 N 15.74 CA 14.66 C 15.26 O 13.85 CB 15.01
A VAL H 4 -62.3 -43.4 N 13.34 CA 14.84 C 13.58 O 13.66 CB 13.18 CG1 15.97 CG2 17.47
A GLU H 56 -64.7 -39.7 N 13.34 CA 15.64 C 13.19 O 12.11 CB 16.46 CG 22.5 CD 24.37 OE1 26.86 OE2 24.63
A ILE H 21 -62.5 -49.3 N 12.98 CA 14.66 C 14.99 O 15.66 CB 15.79 CG1 19.21 CG2 17.65 CD1 22.5
A ILE H 0 -59.8 -54.3 N 14.67 CA 15.6 C 17.64 O 15.48 CB 14.84 CG1 15.08 CG2 14.89 CD1 16.49
A LYS H 49 -52.0 -40.9 N 17.61 CA 21.01 C 21.13 O 22.36 CB 21.88 CG 25.56 CD 26.95 CE 25.55 NZ 24.73
A LYS T 155 -67.6 -9.1 N 23.02 CA 23.79 C 23.36 O 23.4 CB 27.4 CG 33.7 CD 36.14 CE 36.34 NZ 38.04
A ASN T 53 -115.7 0.6 N 19.31 CA 20.13 C 19.44 O 18.44 CB 21.36 CG 23.32 OD1 22.31 ND2 23.75
A LEU - 9 -72.4 148.5 N 16.83 CA 17.15 C 18.18 O 15.18 CB 15.4 CG 16.58 CD1 16.94 CD2 17.7
A TYR - 143 -134.7 167.7 N 17.34 CA 21.11 C 20.31 O 20.08 CB 24.19 CG 31.36 CD1 34.58 CD2 34.59 CE1 39.98 CE2 38.88 CZ 40.21 OH 44.3
A PRO G 81 -60.9 -19.3 N 20.64 CA 21.74 C 21.43 O 20.29 CB 21.4 CG 24.38 CD 22.98
A GLU G 78 -65.1 -12.2 N 22.15 CA 22.74 C 24.62 O 23.44 CB 23.62 CG 26.33 CD 29.14 OE1 28.93 OE2 29.7
A VAL G 8 -61.4 -26.9 N 25.57 CA 27.74 C 27.92 O 27.84 CB 29.34 CG1 30.3 CG2 30.89
A LEU G 116 -96.6 12.5 N 28.66 CA 28.78 C 27.32 O 26.08 CB 31.76 CG 34.0 CD1 35.39 CD2 35.9
A ASP - 65 -115.5 108.6 N 25.62 CA 23.4 C 23.65 O 22.13 CB 22.55 CG 23.1 OD1 23.78 OD2 21.64
A PHE T 178 -52.9 -40.5 N 23.31 CA 25.06 C 24.4 O 22.61 CB 28.5 CG 31.96 CD1 33.48 CD2 33.53 CE1 34.66 CE2 34.79 CZ 34.65
A SER T 98 -62.9 -26.9 N 24.68 CA 25.9 C 25.43 O 25.74 CB 28.15 OG 30.66
A LYS T 128 -125.4 8.0 N 24.02 CA 26.1 C 26.0 O 25.43 CB 27.18 CG 30.43 CD 32.44 CE 34.1 NZ 35.23
A LYS H 42 -63.5 -39.3 N 25.54 CA 26.26 C 25.91 O 22.48 CB 28.04 CG 30.44 CD 30.73 CE 31.3 NZ 29.94
A LYS H 114 -59.5 -52.4 N 24.86 CA 25.5 C 23.33 O 20.41 CB 26.95 CG 30.95 CD 34.26 CE 37.4 NZ 39.45
A GLU H 102 -63.1 -46.6 N 23.23 CA 23.04 C 21.93 O 19.44 CB 26.97 CG 33.14 CD 36.63 OE1 37.43 OE2 36.59
A ALA H 16 -56.7 -47.4 N 20.02 CA 19.21 C 17.33 O 18.31 CB 19.67
A ILE H 1 -66.2 -44.2 N 16.84 CA 14.46 C 15.25 O 15.79 CB 14.85 CG1 15.28 CG2 13.38 CD1 14.09
A GLY H 0 -56.0 -39.2 N 15.59 CA 15.65 C 17.63 O 17.25
A ARG H 133 -66.9 -34.9 N 16.85 CA 16.78 C 15.92 O 15.47 CB 18.94 CG 24.27 CD 23.76 NE 27.35 CZ 26.63 NH1 25.85 NH2 27.98
A ALA H 0 -75.2 -24.1 N 16.24 CA 16.78 C 17.88 O 19.83 CB 17.17
A LEU H 2 -90.0 -23.9 N 16.51 CA 16.57 C 16.21 O 15.82 CB 15.49 CG 15.96 CD1 19.28 CD2 20.65
A ALA H 13 -51.2 -49.4 N 16.52 CA 19.09 C 18.12 O 15.27 CB 20.15
A PRO H 37 -62.2 -30.7 N 18.66 CA 18.39 C 17.77 O 17.33 CB 20.6 CG 23.61 CD 19.68
A LEU H 1 -67.8 -42.8 N 14.19 CA 14.97 C 13.91 O 12.39 CB 14.27 CG 15.21 CD1 15.94 CD2 15.81
A LEU H 1 -64.4 -36.6 N 14.04 CA 16.84 C 18.97 O 19.39 CB 15.17 CG 17.03 CD1 15.82 CD2 17.25
A VAL H 53 -61.0 -52.6 N 20.12 CA 21.47 C 20.11 O 20.34 CB 21.87 CG1 21.56 CG2 22.35
A ILE H 47 -58.3 -44.5 N 20.91 CA 19.03 C 19.78 O 16.19 CB 20.95 CG1 22.71 CG2 21.24 CD1 25.65
A ILE H 2 -62.2 -49.0 N 18.77 CA 21.85 C 22.43 O 21.36 CB 21.29 CG1 22.78 CG2 22.4 CD1 21.41
A SER H 12 -61.2 -37.2 N 23.55 CA 26.32 C 26.43 O 24.89 CB 26.69 OG 33.2
A GLU H 115 -67.6 -37.0 N 27.64 CA 28.93 C 30.1 O 29.39 CB 31.49 CG 33.79 CD 37.11 OE1 38.59 OE2 38.17
A ARG H 83 -72.9 -36.5 N 29.08 CA 29.54 C 29.97 O 28.91 CB 27.96 CG 27.99 CD 28.34 NE 26.99 CZ 24.83 NH1 25.26 NH2 25.1
A LEU H 33 -63.6 -45.1 N 28.68 CA 31.4 C 35.17 O 34.84 CB 27.41 CG 25.85 CD1 25.55 CD2 23.17
A TYR H 143 -66.1 -39.5 N 40.02 CA 45.55 C 47.97 O 48.66 CB 47.24 CG 49.82 CD1 51.79 CD2 51.29 CE1 53.34 CE2 53.55 CZ 54.05 OH 54.94
A SER T 104 -75.4 -4.1 N 51.11 CA 54.51 C 57.37 O 58.3 CB 54.45 OG 54.32
A SER T 66 -86.3 -20.1 N 59.84 CA 61.95 C 63.47 O 64.09 CB 60.82 OG 61.53
A GLN - 144 -69.8 136.1 N 65.32 CA 66.86 C 67.49 O 67.61 CB 68.02 CG 69.19 CD 70.22 OE1 70.49 NE2 70.69
A VAL - 210 -83.1 360.0 N 68.0 CA 68.56 C 68.8 O 69.07 CB 68.35 CG1 68.32 CG2 68.69 OXT 69.62
B SER - 92 360.0 -2.4 N 61.79 CA 61.48 C 61.36 O 61.71 CB 61.66 OG 61.77
B GLU - 162 -64.2 150.0 N 61.02 CA 60.39 C 58.73 O 59.31 CB 61.56 CG 63.53 CD 64.99 OE1 65.46 OE2 65.99
B ILE - 52 -116.8 80.6 N 56.32 CA 53.56 C 50.61 O 51.91 CB 54.3 CG1 54.22 CG2 54.19 CD1 53.1
B ASP - 84 -78.2 120.0 N 45.76 CA 40.17 C 36.22 O 33.15 CB 41.75 CG 40.39 OD1 38.08 OD2 40.24
B LYS H 105 -61.3 -34.7 N 30.81 CA 26.61 C 22.94 O 19.81 CB 26.28 CG 27.09 CD 26.93 CE 28.22 NZ 28.85
B GLY H 17 -60.8 -45.5 N 20.09 CA 17.9 C 17.51 O 16.22
B LEU H 27 -67.7 -34.6 N 13.64 CA 14.29 C 13.86 O 15.51 CB 13.56 CG 14.42 CD1 13.55 CD2 14.44
B ALA H 0 -65.6 -42.8 N 13.59 CA 14.3 C 13.8 O 12.37 CB 15.14
B LYS H 80 -62.9 -39.6 N 13.03 CA 12.84 C 12.33 O 10.82 CB 16.48 CG 20.66 CD 25.82 CE 26.89 NZ 30.02
B PHE H 0 -67.1 -43.3 N 11.61 CA 12.1 C 12.83 O 10.19 CB 14.39 CG 17.44 CD1 17.39 CD2 19.4 CE1 18.48 CE2 20.83 CZ 21.48
B GLY H 0 -60.3 -34.7 N 10.19 CA 12.28 C 12.64 O 12.13
B ASP H 39 -61.6 -46.5 N 11.79 CA 13.43 C 12.51 O 10.79 CB 14.26 CG 19.6 OD1 19.38 OD2 22.04
B SER H 8 -64.5 -41.0 N 13.29 CA 14.78 C 13.59 O 12.67 CB 15.68 OG 20.79
B LEU H 1 -65.3 -49.2 N 11.67 CA 10.94 C 10.59 O 8.44 CB 11.22 CG 13.04 CD1 8.57 CD2 12.05
B ILE H 0 -65.1 -32.2 N 11.13 CA 11.47 C 12.12 O 9.1 CB 15.59 CG1 15.8 CG2 16.03 CD1 18.21
B ASN H 12 -66.7 -38.4 N 9.81 CA 11.17 C 9.5 O 10.48 CB 10.91 CG 14.39 OD1 13.61 ND2 10.63
B PHE H 2 -67.1 -50.0 N 10.77 CA 10.81 C 10.28 O 10.43 CB 11.21 CG 12.71 CD1 12.93 CD2 13.78 CE1 14.61 CE2 13.9 CZ 14.59
B LEU H 3 -59.2 -42.6 N 10.84 CA 11.02 C 12.11 O 8.5 CB 12.6 CG 15.5 CD1 15.46 CD2 17.55
B TYR H 0 -66.6 -35.9 N 10.43 CA 13.87 C 12.99 O 14.44 CB 12.05 CG 13.34 CD1 14.76 CD2 13.53 CE1 16.08 CE2 14.25 CZ 16.81 OH 14.31
B SER H 0 -72.6 -29.3 N 10.98 CA 12.68 C 13.3 O 14.9 CB 12.85 OG 12.87
B LEU H 16 -70.1 -44.2 N 12.49 CA 14.52 C 14.09 O 14.03 CB 13.59 CG 15.73 CD1 15.71 CD2 17.82
B ALA H 0 -64.1 -45.9 N 11.81 CA 11.92 C 12.56 O 13.21 CB 11.2
B LEU H 8 -60.2 -35.4 N 10.6 CA 12.97 C 13.14 O 15.12 CB 11.74 CG 15.6 CD1 14.22 CD2 15.98
B THR H 21 -64.8 -43.6 N 13.52 CA 14.96 C 15.91 O 17.17 CB 15.32 OG1 16.09 CG2 15.67
B GLU H 101 -74.7 -34.1 N 17.87 CA 17.88 C 17.88 O 16.06 CB 22.38 CG 24.65 CD 28.84 OE1 30.7 OE2 29.28
B PHE H 75 -66.8 -34.5 N 16.55 CA 19.25 C 18.54 O 17.57 CB 22.04 CG 25.07 CD1 25.24 CD2 24.72 CE1 27.05 CE2 26.14 CZ 25.67
B LEU H 53 -94.4 -13.5 N 18.63 CA 18.52 C 19.19 O 20.11 CB 20.54 CG 22.21 CD1 26.6 CD2 27.24
B GLY T 68 76.1 15.2 N 18.8 CA 19.77 C 20.47 O 20.39
B LYS S 109 -155.3 153.1 N 19.21 CA 19.07 C 16.34 O 15.93 CB 20.33 CG 23.61 CD 28.92 CE 29.35 NZ 32.08
B PRO - 39 -61.2 123.2 N 16.91 CA 15.72 C 13.7 O 12.45 CB 14.55 CG 23.76 CD 17.92
B THR - 9 -160.6 -177.9 N 13.45 CA 12.95 C 13.54 O 12.21 CB 15.89 OG1 15.79 CG2 19.37
B GLY - 2 -168.4 173.8 N 14.31 CA 13.49 C 14.26 O 13.83
B ASP - 34 -166.5 171.2 N 15.07 CA 15.75 C 15.83 O 13.52 CB 15.09 CG 17.38 OD1 18.82 OD2 20.0
B ARG - 86 -115.9 131.3 N 14.94 CA 17.31 C 16.12 O 14.84 CB 21.35 CG 26.77 CD 31.66 NE 36.1 CZ 39.96 NH1 40.89 NH2 40.85
B VAL - 6 -74.6 114.0 N 15.23 CA 14.44 C 15.28 O 15.18 CB 14.77 CG1 15.01 CG2 12.78
B PRO - 46 -62.9 147.6 N 17.47 CA 17.22 C 16.35 O 14.81 CB 18.87 CG 21.03 CD 18.74
B ASN H 79 -55.1 -39.0 N 17.29 CA 18.82 C 16.92 O 16.04 CB 21.24 CG 23.23 OD1 23.29 ND2 24.15
B ALA H 37 -61.4 -34.6 N 17.26 CA 17.11 C 17.95 O 18.19 CB 17.55
B SER H 0 -67.3 -39.8 N 14.91 CA 17.36 C 15.26 O 16.69 CB 17.88 OG 20.5
B LEU H 0 -66.9 -37.0 N 16.28 CA 16.77 C 16.49 O 19.07 CB 16.63 CG 16.34 CD1 22.07 CD2 15.94
B ALA H 18 -66.3 -42.9 N 16.94 CA 18.08 C 19.19 O 19.82 CB 20.12
B ILE H 28 -61.4 -44.0 N 18.48 CA 19.28 C 17.74 O 14.64 CB 21.73 CG1 21.09 CG2 24.85 CD1 21.25
B ALA H 0 -58.9 -47.8 N 16.89 CA 17.42 C 18.33 O 19.65 CB 18.53
B LEU H 0 -57.4 -43.9 N 18.53 CA 20.49 C 23.19 O 22.12 CB 19.43 CG 22.5 CD1 21.43 CD2 20.94
B GLU H 85 -74.0 -29.5 N 22.4 CA 25.03 C 23.84 O 22.78 CB 26.78 CG 33.67 CD 36.1 OE1 37.2 OE2 33.89
B LEU H 72 -63.3 -41.2 N 22.62 CA 23.52 C 23.98 O 23.35 CB 23.53 CG 24.71 CD1 24.38 CD2 25.06
B THR H 40 -72.5 -20.8 N 24.09 CA 26.17 C 27.48 O 28.02 CB 24.61 OG1 23.5 CG2 24.89
B GLY T 29 87.0 4.2 N 29.97 CA 32.3 C 33.71 O 32.45
B LEU G 30 -71.8 -17.6 N 34.99 CA 36.7 C 38.48 O 39.35 CB 35.34 CG 36.52 CD1 36.82 CD2 37.45
B SER G 19 -66.3 0.5 N 39.9 CA 43.05 C 46.92 O 46.09 CB 41.19 OG 39.87
B LYS G 169 -77.8 -21.7 N 51.23 CA 55.94 C 58.54 O 59.09 CB 57.07 CG 58.47 CD 59.78 CE 60.84 NZ 60.58
B ASN S 73 -66.0 -58.1 N 61.53 CA 64.75 C 66.82 O 67.91 CB 64.83 CG 65.12 OD1 66.1 ND2 64.35
B LEU S 18 -60.6 -177.2 N 68.75 CA 70.73 C 72.08 O 72.11 CB 70.55 CG 70.74 CD1 70.5 CD2 70.99
B ARG - 183 -103.6 173.6 N 73.9 CA 75.87 C 76.46 O 76.75 CB 77.09 CG 78.74 CD 80.08 NE 81.3 CZ 81.72 NH1 81.8 NH2 81.6
B ARG S 178 -66.3 -26.6 N 76.58 CA 76.57 C 75.84 O 75.85 CB 77.3 CG 78.3 CD 79.3 NE 80.07 CZ 80.16 NH1 80.64 NH2 80.15
B VAL G 96 -80.6 -27.4 N 74.94 CA 73.86 C 72.7 O 72.82 CB 74.46 CG1 74.49 CG2 74.47
B ASP G 56 -84.7 22.1 N 70.79 CA 69.15 C 67.4 O 67.98 CB 69.56 CG 69.63 OD1 69.65 OD2 68.78
B LYS G 75 -75.1 -35.6 N 64.9 CA 62.35 C 59.78 O 59.81 CB 63.35 CG 63.7 CD 63.92 CE 64.17 NZ 63.85
B HIS G 175 -69.9 -4.8 N 56.11 CA 52.19 C 48.24 O 48.43 CB 54.48 CG 56.29 ND1 57.36 CD2 57.33 CE1 57.96 NE2 58.1
B ALA G 21 -115.5 12.1 N 42.6 CA 36.62 C 32.28 O 30.19 CB 38.01
B LYS H 28 -57.9 -48.8 N 26.69 CA 25.18 C 21.87 O 19.98 CB 23.99 CG 26.76 CD 26.14 CE 29.75 NZ 30.06
B GLY H 1 -58.7 -46.9 N 20.17 CA 20.42 C 20.36 O 18.32
B ASP H 30 -64.6 -35.9 N 19.45 CA 19.36 C 18.67 O 16.79 CB 21.25 CG 22.46 OD1 24.14 OD2 26.8
B TYR H 10 -64.7 -44.4 N 17.32 CA 18.61 C 16.91 O 18.12 CB 22.11 CG 22.42 CD1 27.07 CD2 24.61 CE1 27.59 CE2 26.09 CZ 30.03 OH 28.66
B ALA H 0 -59.9 -43.8 N 16.14 CA 17.07 C 17.46 O 16.16 CB 18.17
B GLU H 4 -61.9 -47.0 N 17.75 CA 19.18 C 16.95 O 16.66 CB 19.86 CG 24.33 CD 24.69 OE1 29.52 OE2 25.04
B ALA H 3 -60.4 -35.8 N 17.22 CA 18.31 C 16.83 O 21.1 CB 18.29
B LEU H 18 -62.9 -46.0 N 18.42 CA 17.92 C 18.13 O 17.54 CB 21.65 CG 24.71 CD1 28.21 CD2 25.53
B ILE H 5 -59.9 -45.1 N 16.76 CA 15.77 C 16.22 O 15.52 CB 13.81 CG1 15.06 CG2 15.64 CD1 20.43
B ALA H 0 -62.3 -45.6 N 15.39 CA 14.74 C 15.3 O 15.27 CB 14.08
B LYS H 63 -58.4 -48.0 N 14.76 CA 17.71 C 16.3 O 19.03 CB 17.77 CG 22.8 CD 26.21 CE 28.66 NZ 29.97
B ALA H 1 -61.0 -44.1 N 18.28 CA 19.2 C 20.09 O 19.05 CB 19.9
B TRP H 53 -67.6 -45.3 N 19.57 CA 17.36 C 17.57 O 15.88 CB 19.26 CG 21.2 CD1 24.27 CD2 22.93 NE1 25.69 CE2 25.0 CE3 22.79 CZ2 24.8 CZ3 24.85 CH2 24.41
B LEU H 73 -61.1 -38.1 N 17.01 CA 18.58 C 18.92 O 21.48 CB 18.66 CG 19.74 CD1 18.15 CD2 20.19
B MET H 89 -74.1 -14.3 N 20.4 CA 22.04 C 23.02 O 23.82 CB 23.35 CG 23.63 SD 21.8 CE 24.63
B GLY T 63 85.5 22.1 N 22.52 CA 21.59 C 22.36 O 24.57
B LEU S 41 -80.4 -15.1 N 19.86 CA 21.31 C 22.19 O 22.95 CB 21.57 CG 22.74 CD1 22.75 CD2 24.72
B ILE S 13 -153.2 141.5 N 20.46 CA 22.91 C 20.09 O 20.59 CB 23.49 CG1 25.6 CG2 23.91 CD1 25.99
B SER - 59 -93.6 165.4 N 20.93 CA 21.41 C 22.49 O 19.74 CB 21.96 OG 21.41
B GLU H 66 -57.5 -51.3 N 22.02 CA 25.31 C 24.53 O 20.86 CB 28.1 CG 33.96 CD 37.66 OE1 40.79 OE2 40.68
B ARG H 187 -53.1 -48.7 N 23.88 CA 24.48 C 23.31 O 22.0 CB 29.0 CG 32.53 CD 38.02 NE 41.27 CZ 42.85 NH1 44.45 NH2 43.81
B GLU H 72 -66.8 -38.2 N 21.74 CA 21.49 C 20.37 O 17.22 CB 22.3 CG 27.71 CD 28.41 OE1 30.23 OE2 29.24
B ALA H 4 -66.2 -39.6 N 19.99 CA 19.74 C 18.84 O 17.68 CB 20.31
B VAL H 5 -64.2 -39.9 N 17.42 CA 18.1 C 18.53 O 17.76 CB 17.83 CG1 15.76 CG2 16.17
B GLU H 71 -66.3 -39.9 N 18.36 CA 19.16 C 16.74 O 18.18 CB 21.96 CG 27.58 CD 32.55 OE1 34.6 OE2 35.45
B ILE H 19 -62.7 -45.1 N 14.53 CA 14.98 C 15.96 O 16.51 CB 15.46 CG1 18.33 CG2 15.99 CD1 21.49
B ILE H 0 -62.1 -55.7 N 15.68 CA 15.99 C 16.65 O 16.38 CB 16.8 CG1 15.45 CG2 16.49 CD1 16.31
B LYS H 52 -52.0 -44.1 N 18.53 CA 23.22 C 24.65 O 26.87 CB 26.37 CG 29.36 CD 32.48 CE 33.1 NZ 37.4
B LYS H 156 -60.1 -18.1 N 25.32 CA 25.81 C 25.2 O 24.44 CB 28.3 CG 32.64 CD 35.76 CE 36.79 NZ 36.1
B ASN T 44 -115.8 16.0 N 24.41 CA 25.71 C 24.98 O 25.18 CB 25.75 CG 27.79 OD1 27.36 ND2 25.94
B LEU - 10 -85.3 149.9 N 23.59 CA 24.16 C 26.86 O 24.96 CB 21.74 CG 20.33 CD1 16.85 CD2 17.05
B TYR - 118 -138.4 163.1 N 28.32 CA 30.56 C 29.47 O 26.63 CB 34.85 CG 38.9 CD1 41.84 CD2 42.5 CE1 44.28 CE2 44.09 CZ 44.33 OH 45.57
B PRO G 81 -61.9 -25.3 N 28.54 CA 28.63 C 27.09 O 27.28 CB 28.68 CG 30.54 CD 31.54
B GLU G 85 -57.5 -18.8 N 27.46 CA 28.08 C 26.99 O 26.22 CB 31.02 CG 36.69 CD 39.35 OE1 41.25 OE2 43.46
B VAL G 4 -65.8 -22.2 N 26.85 CA 26.86 C 28.55 O 27.77 CB 28.28 CG1 28.5 CG2 25.05
B LEU G 100 -91.7 -10.8 N 28.96 CA 31.33 C 32.38 O 33.96 CB 31.77 CG 32.31 CD1 31.05 CD2 31.31
B ASP - 61 -91.1 117.6 N 32.25 CA 31.37 C 29.32 O 28.09 CB 34.45 CG 35.99 OD1 37.55 OD2 39.31
B PHE T 186 -58.2 -29.1 N 28.5 CA 28.18 C 26.67 O 25.58 CB 28.34 CG 29.03 CD1 28.41 CD2 29.84 CE1 28.38 CE2 30.59 CZ 29.46
B SER T 73 -84.3 -11.1 N 25.67 CA 26.98 C 26.18 O 24.23 CB 26.79 OG 32.4
B LYS T 109 -127.7 -2.2 N 26.56 CA 27.5 C 26.41 O 26.58 CB 30.36 CG 34.43 CD 36.53 CE 38.11 NZ 41.74
B LYS H 55 -60.0 -35.1 N 25.54 CA 26.4 C 25.16 O 21.85 CB 28.26 CG 32.53 CD 34.59 CE 32.64 NZ 30.23
B LYS H 125 -55.4 -53.6 N 24.93 CA 25.05 C 23.64 O 20.16 CB 28.84 CG 31.2 CD 34.26 CE 35.94 NZ 38.0
B GLU H 83 -73.2 -36.4 N 23.25 CA 21.87 C 19.45 O 19.04 CB 24.7 CG 31.34 CD 36.09 OE1 41.49 OE2 39.31
B ALA H 8 -62.5 -42.2 N 19.07 CA 19.46 C 18.55 O 17.01 CB 19.84
B ILE H 0 -69.9 -35.4 N 17.99 CA 16.29 C 16.23 O 15.2 CB 16.72 CG1 16.83 CG2 15.09 CD1 15.87
B GLY H 0 -64.1 -36.7 N 13.92 CA 17.44 C 18.12 O 18.11
B ARG H 130 -68.1 -34.9 N 20.0 CA 21.21 C 19.99 O 19.3 CB 23.47 CG 26.93 CD 27.53 NE 27.0 CZ 26.05 NH1 23.14 NH2 25.85
B ALA H 0 -75.2 -29.2 N 19.22 CA 18.4 C 18.41 O 18.57 CB 19.46
B LEU H 0 -89.3 -18.6 N 16.81 CA 17.3 C 17.4 O 15.77 CB 18.02 CG 20.19 CD1 20.22 CD2 22.05
B ALA H 13 -52.0 -52.4 N 18.47 CA 20.62 C 19.62 O 19.22 CB 20.87
B PRO H 39 -58.0 -36.4 N 19.7 CA 19.65 C 19.22 O 18.61 CB 19.28 CG 21.62 CD 20.01
B LEU H 1 -66.1 -44.7 N 16.61 CA 17.19 C 18.05 O 17.24 CB 17.13 CG 16.87 CD1 18.31 CD2 16.0
B LEU H 1 -61.3 -34.3 N 18.01 CA 20.52 C 20.88 O 21.75 CB 19.78 CG 21.71 CD1 21.6 CD2 18.77
B VAL H 59 -63.9 -48.4 N 21.87 CA 22.93 C 21.16 O 21.18 CB 23.52 CG1 26.76 CG2 24.09
B ILE H 47 -62.6 -50.6 N 21.39 CA 23.07 C 24.8 O 24.93 CB 22.67 CG1 24.96 CG2 24.88 CD1 24.25
B ILE H 1 -56.0 -48.2 N 23.98 CA 25.36 C 26.43 O 22.76 CB 26.19 CG1 25.63 CG2 26.59 CD1 28.95
B SER H 15 -57.3 -41.5 N 27.6 CA 31.18 C 31.93 O 31.9 CB 31.29 OG 36.4
B GLU H 125 -68.7 -36.4 N 33.33 CA 36.74 C 37.52 O 37.74 CB 38.35 CG 41.64 CD 43.67 OE1 44.86 OE2 45.58
B ARG H 69 -74.3 -27.5 N 37.75 CA 39.26 C 41.26 O 40.96 CB 37.04 CG 36.85 CD 36.29 NE 35.79 CZ 36.51 NH1 34.74 NH2 33.97
B LEU I 11 -73.3 -26.6 N 43.77 CA 46.52 C 49.99 O 48.54 CB 45.05 CG 43.95 CD1 43.04 CD2 43.06
B TYR I 112 -93.7 -42.8 N 54.11 CA 58.77 C 60.95 O 61.54 CB 60.52 CG 62.83 CD1 64.13 CD2 63.64 CE1 64.9 CE2 65.07 CZ 65.16 OH 65.74
B SER I 103 -68.0 -2.4 N 63.36 CA 65.76 C 67.47 O 67.49 CB 65.74 OG 66.74
B SER I 71 -128.2 -72.2 N 69.58 CA 71.74 C 73.23 O 73.59 CB 71.55 OG 70.7
B GLN I 95 -69.8 -30.7 N 74.79 CA 76.29 C 76.91 O 77.05 CB 76.76 CG 77.98 CD 78.38 OE1 78.67 NE2 78.21
B VAL - 146 57.4 360.0 N 77.86 CA 78.63 C 78.79 O 79.18 CB 78.93 CG1 78.85 CG2 78.9 OXT 78.72
