E DC H 30 -79.1 -38.9 O5' 167.95 C5' 169.11 C4' 170.02 O4' 170.79 C3' 170.39 O3' 169.96 C2' 170.93 C1' 171.46 N1 172.38 C2 172.73 O2 172.54 N3 172.98 C4 173.08 N4 172.98 C5 172.97 C6 172.73
E DC H 31 -67.9 -31.6 P 169.32 OP1 169.25 OP2 169.48 O5' 167.73 C5' 165.05 C4' 163.11 O4' 163.1 C3' 161.87 O3' 159.68 C2' 162.18 C1' 162.7 N1 162.69 C2 162.7 O2 163.02 N3 162.3 C4 162.07 N4 161.79 C5 162.1 C6 162.46
E DG H 79 -74.1 -31.2 P 158.1 OP1 158.32 OP2 158.45 O5' 155.93 C5' 151.78 C4' 149.1 O4' 148.56 C3' 147.3 O3' 144.05 C2' 147.63 C1' 148.05 N9 147.88 C8 147.79 N7 147.51 C5 147.39 C6 147.15 O6 147.0 N1 146.81 C2 146.91 N2 146.62 N3 147.24 C4 147.61
E DG H 54 -72.2 -33.6 P 141.39 OP1 141.58 OP2 141.07 O5' 138.7 C5' 133.63 C4' 130.29 O4' 129.32 C3' 128.45 O3' 126.14 C2' 128.07 C1' 127.77 N9 126.24 C8 125.6 N7 124.89 C5 124.65 C6 124.46 O6 124.76 N1 124.18 C2 124.43 N2 124.31 N3 124.81 C4 125.15
E DT H 1 -66.8 -41.0 P 124.96 OP1 125.21 OP2 125.52 O5' 120.99 C5' 113.87 C4' 108.23 O4' 106.48 C3' 104.92 O3' 100.09 C2' 104.41 C1' 104.03 N1 102.08 C2 100.55 O2 100.48 N3 98.84 C4 98.9 O4 98.33 C5 99.72 C7 99.72 C6 101.11
E DT H 96 -63.6 -39.2 P 96.83 OP1 97.06 OP2 97.87 O5' 92.5 C5' 84.54 C4' 77.31 O4' 75.11 C3' 73.48 O3' 67.96 C2' 72.8 C1' 72.12 N1 70.08 C2 69.92 O2 71.67 N3 68.95 C4 69.11 O4 67.29 C5 69.5 C7 70.8 C6 69.73
E DA H 50 -67.7 -40.0 P 66.72 OP1 68.32 OP2 66.03 O5' 63.91 C5' 59.0 C4' 54.32 O4' 54.47 C3' 50.83 O3' 47.9 C2' 51.98 C1' 51.69 N9 50.89 C8 49.9 N7 49.81 C5 50.09 C6 50.87 N6 49.81 N1 52.95 C2 53.0 N3 52.35 C4 50.84
E DT H 29 -56.7 -52.6 P 49.05 OP1 51.44 OP2 47.44 O5' 49.36 C5' 50.12 C4' 47.28 O4' 47.92 C3' 47.08 O3' 46.88 C2' 45.51 C1' 46.26 N1 45.21 C2 45.19 O2 45.68 N3 43.96 C4 44.33 O4 43.44 C5 45.04 C7 44.65 C6 44.48
E DA H 0 -62.7 -42.9 P 45.85 OP1 45.97 OP2 42.91 O5' 43.66 C5' 41.87 C4' 40.79 O4' 40.92 C3' 39.65 O3' 40.02 C2' 37.94 C1' 38.77 N9 37.39 C8 37.55 N7 36.25 C5 34.85 C6 35.34 N6 35.44 N1 35.15 C2 35.8 N3 35.29 C4 35.33
E DA H 26 -62.2 -33.1 P 39.36 OP1 41.73 OP2 38.55 O5' 39.43 C5' 39.05 C4' 40.48 O4' 40.0 C3' 41.17 O3' 43.13 C2' 39.89 C1' 39.25 N9 37.62 C8 37.57 N7 36.97 C5 36.0 C6 37.45 N6 36.35 N1 38.34 C2 37.3 N3 36.7 C4 36.09
E DC H 12 -71.5 -39.8 P 43.19 OP1 42.15 OP2 42.81 O5' 38.33 C5' 35.97 C4' 38.24 O4' 36.01 C3' 39.07 O3' 41.56 C2' 37.31 C1' 37.19 N1 37.38 C2 38.14 O2 39.47 N3 37.38 C4 37.67 N4 35.42 C5 36.11 C6 36.88
E DG T 25 -76.7 11.2 P 43.27 OP1 44.82 OP2 45.63 O5' 47.73 C5' 51.57 C4' 55.11 O4' 52.85 C3' 58.03 O3' 66.6 C2' 55.79 C1' 54.28 N9 55.15 C8 55.58 N7 56.55 C5 55.14 C6 55.8 O6 57.85 N1 55.03 C2 54.41 N2 53.77 N3 55.24 C4 55.2
E DC T 30 49.0 42.8 P 74.93 OP1 72.89 OP2 71.69 O5' 76.39 C5' 78.4 C4' 78.18 O4' 78.34 C3' 78.62 O3' 79.5 C2' 78.16 C1' 77.78 N1 77.73 C2 76.95 O2 75.71 N3 76.35 C4 76.15 N4 75.62 C5 76.76 C6 77.66
E DC - 33 -71.1 155.8 P 80.15 OP1 79.92 OP2 79.99 O5' 79.04 C5' 77.07 C4' 76.5 O4' 76.28 C3' 75.9 O3' 77.09 C2' 74.97 C1' 74.83 N1 73.4 C2 73.46 O2 73.26 N3 73.07 C4 72.29 N4 72.1 C5 73.23 C6 73.45
E DC - 44 -60.7 157.4 P 77.98 OP1 77.58 OP2 78.23 O5' 74.18 C5' 68.2 C4' 65.53 O4' 63.8 C3' 64.43 O3' 65.95 C2' 62.27 C1' 60.63 N1 57.94 C2 55.94 O2 54.07 N3 56.21 C4 57.21 N4 56.41 C5 57.94 C6 58.97
E DG H 124 -64.5 -50.9 P 65.37 OP1 67.09 OP2 65.4 O5' 63.18 C5' 59.66 C4' 58.75 O4' 57.18 C3' 57.95 O3' 58.6 C2' 56.35 C1' 55.06 N9 53.78 C8 52.81 N7 52.44 C5 51.18 C6 50.06 O6 50.78 N1 49.48 C2 51.13 N2 50.3 N3 52.66 C4 52.77
E DC H 156 -57.8 -31.2 P 58.92 OP1 58.84 OP2 60.47 O5' 58.8 C5' 54.81 C4' 49.29 O4' 47.31 C3' 47.87 O3' 44.18 C2' 46.22 C1' 46.12 N1 45.82 C2 46.41 O2 48.78 N3 45.43 C4 44.58 N4 41.95 C5 44.97 C6 44.97
E DC H 43 -68.4 -42.0 P 43.89 OP1 43.52 OP2 43.07 O5' 42.1 C5' 42.03 C4' 42.99 O4' 43.79 C3' 43.3 O3' 43.17 C2' 42.03 C1' 41.9 N1 40.66 C2 40.52 O2 40.92 N3 39.81 C4 39.55 N4 39.82 C5 40.17 C6 40.06
E DT H 2 -60.5 -47.1 P 40.89 OP1 43.35 OP2 40.65 O5' 40.78 C5' 38.61 C4' 37.73 O4' 39.63 C3' 37.51 O3' 40.16 C2' 37.39 C1' 37.31 N1 37.21 C2 37.2 O2 39.5 N3 37.01 C4 38.52 O4 38.21 C5 38.28 C7 37.23 C6 36.94
E DA H 103 -61.2 -46.6 P 41.45 OP1 42.36 OP2 36.47 O5' 42.64 C5' 43.27 C4' 38.11 O4' 38.49 C3' 38.47 O3' 36.69 C2' 37.73 C1' 38.31 N9 37.76 C8 37.77 N7 39.94 C5 38.14 C6 39.6 N6 38.84 N1 39.2 C2 35.71 N3 35.84 C4 37.51
E DA H 27 -56.5 -54.1 P 35.63 OP1 42.86 OP2 38.3 O5' 36.62 C5' 38.74 C4' 40.1 O4' 40.03 C3' 40.61 O3' 41.46 C2' 41.58 C1' 40.31 N9 42.3 C8 42.92 N7 42.49 C5 41.92 C6 42.37 N6 44.99 N1 41.27 C2 41.96 N3 42.33 C4 42.13
E DG H 46 -59.6 -48.6 P 43.42 OP1 43.87 OP2 41.28 O5' 44.92 C5' 45.66 C4' 46.3 O4' 46.28 C3' 45.5 O3' 47.54 C2' 44.99 C1' 43.33 N9 39.7 C8 37.72 N7 36.41 C5 36.36 C6 35.68 O6 36.98 N1 34.29 C2 36.76 N2 37.43 N3 36.85 C4 37.23
E DG H 6 -55.2 -54.7 P 50.86 OP1 51.25 OP2 52.0 O5' 52.42 C5' 54.08 C4' 55.75 O4' 54.75 C3' 58.68 O3' 63.67 C2' 57.7 C1' 54.21 N9 52.17 C8 50.6 N7 50.61 C5 51.65 C6 52.29 O6 56.24 N1 52.17 C2 52.31 N2 51.72 N3 51.22 C4 51.44
E DG H 97 -48.2 -41.8 P 65.41 OP1 67.3 OP2 65.48 O5' 66.48 C5' 66.55 C4' 68.04 O4' 66.11 C3' 70.03 O3' 73.46 C2' 67.89 C1' 65.23 N9 63.22 C8 62.71 N7 61.03 C5 59.61 C6 59.33 O6 59.66 N1 59.79 C2 60.18 N2 60.74 N3 60.04 C4 60.51
E DG H 25 -79.6 -27.9 P 72.66 OP1 73.08 OP2 71.83 O5' 69.95 C5' 68.44 C4' 67.88 O4' 66.38 C3' 69.54 O3' 74.01 C2' 66.7 C1' 63.23 N9 58.66 C8 58.32 N7 56.41 C5 55.29 C6 54.2 O6 52.52 N1 53.42 C2 54.62 N2 54.04 N3 54.56 C4 55.85
E DC H 1 -72.0 -43.7 P 75.34 OP1 74.49 OP2 71.95 O5' 73.33 C5' 74.98 C4' 75.84 O4' 73.88 C3' 78.32 O3' 84.69 C2' 75.93 C1' 71.77 N1 67.14 C2 64.43 O2 63.17 N3 62.32 C4 62.96 N4 62.64 C5 63.07 C6 64.95
E DT H 57 -56.2 -61.0 P 88.51 OP1 88.22 OP2 86.76 O5' 88.93 C5' 90.81 C4' 91.95 O4' 90.0 C3' 94.72 O3' 101.31 C2' 91.37 C1' 87.7 N1 83.82 C2 81.14 O2 79.65 N3 79.38 C4 79.52 O4 78.94 C5 80.36 C7 80.44 C6 82.11
E DG H 78 -76.9 18.0 P 104.72 OP1 104.78 OP2 104.37 O5' 106.67 C5' 109.77 C4' 112.19 O4' 111.54 C3' 114.81 O3' 119.3 C2' 113.84 C1' 112.02 N9 110.34 C8 110.15 N7 109.68 C5 108.87 C6 107.82 O6 107.07 N1 107.27 C2 107.68 N2 107.23 N3 108.09 C4 109.17
E DA H 0 -98.7 -52.2 P 122.52 OP1 122.54 OP2 122.61 O5' 124.64 C5' 129.29 C4' 133.0 O4' 134.28 C3' 135.27 O3' 136.88 C2' 135.94 C1' 136.3 N9 138.0 C8 138.77 N7 139.52 C5 139.37 C6 139.41 N6 139.2 N1 139.53 C2 139.42 N3 139.05 C4 138.9
E DC H 5 -68.9 -31.6 P 137.81 OP1 137.57 OP2 138.0 O5' 138.69 C5' 139.78 C4' 141.02 O4' 140.69 C3' 142.2 O3' 145.27 C2' 141.34 C1' 140.32 N1 139.73 C2 139.3 O2 138.73 N3 139.23 C4 139.27 N4 139.25 C5 139.41 C6 139.54
E DA T 139 -63.0 -39.0 P 147.71 OP1 147.72 OP2 147.99 O5' 148.98 C5' 151.38 C4' 152.81 O4' 153.72 C3' 153.22 O3' 152.64 C2' 154.0 C1' 154.5 N9 155.2 C8 155.36 N7 155.61 C5 155.97 C6 156.2 N6 156.3 N1 156.18 C2 156.32 N3 156.23 C4 155.8
F DT H 18 -58.2 -42.0 O5' 173.35 C5' 174.24 C4' 174.77 O4' 175.36 C3' 174.84 O3' 174.12 C2' 175.06 C1' 175.37 N1 175.52 C2 175.43 O2 175.02 N3 175.4 C4 175.3 O4 174.89 C5 175.37 C7 175.21 C6 175.56
F DG H 82 -63.2 -35.3 P 173.06 OP1 173.24 OP2 173.45 O5' 170.81 C5' 166.8 C4' 163.78 O4' 163.4 C3' 161.63 O3' 157.68 C2' 162.06 C1' 162.74 N9 162.84 C8 162.81 N7 162.86 C5 162.7 C6 162.37 O6 161.7 N1 162.11 C2 162.12 N2 161.6 N3 162.42 C4 162.79
F DA H 51 -71.1 -33.7 P 154.29 OP1 154.49 OP2 154.42 O5' 150.49 C5' 143.75 C4' 138.87 O4' 137.92 C3' 135.51 O3' 130.16 C2' 135.59 C1' 136.06 N9 135.03 C8 134.47 N7 133.94 C5 133.82 C6 133.16 N6 132.27 N1 133.07 C2 133.63 N3 134.0 C4 134.37
F DC H 0 -69.9 -47.8 P 125.42 OP1 125.1 OP2 125.5 O5' 119.69 C5' 109.9 C4' 103.12 O4' 100.91 C3' 98.7 O3' 92.7 C2' 98.06 C1' 97.49 N1 94.44 C2 92.65 O2 90.97 N3 91.87 C4 91.77 N4 91.89 C5 92.08 C6 93.26
F DA H 93 -52.7 -38.5 P 87.62 OP1 88.27 OP2 87.94 O5' 82.68 C5' 72.46 C4' 66.4 O4' 63.84 C3' 63.54 O3' 60.54 C2' 62.92 C1' 61.11 N9 59.29 C8 58.65 N7 57.45 C5 56.72 C6 56.8 N6 55.52 N1 57.47 C2 57.8 N3 57.53 C4 57.89
F DG H 101 -76.8 -35.2 P 58.63 OP1 58.34 OP2 59.84 O5' 58.22 C5' 59.39 C4' 58.19 O4' 58.17 C3' 58.92 O3' 60.97 C2' 58.66 C1' 58.21 N9 58.63 C8 58.54 N7 59.73 C5 59.75 C6 61.05 O6 60.29 N1 61.47 C2 62.91 N2 64.64 N3 62.0 C4 59.94
F DT H 37 -57.3 -46.9 P 63.16 OP1 64.49 OP2 62.54 O5' 61.28 C5' 59.07 C4' 57.82 O4' 56.3 C3' 58.04 O3' 61.64 C2' 55.88 C1' 54.85 N1 54.46 C2 55.43 O2 58.1 N3 55.75 C4 55.48 O4 57.19 C5 54.86 C7 54.59 C6 54.12
F DC H 0 -66.2 -49.7 P 63.15 OP1 61.58 OP2 62.67 O5' 60.39 C5' 59.93 C4' 61.79 O4' 60.71 C3' 64.11 O3' 67.84 C2' 61.7 C1' 59.65 N1 58.59 C2 57.5 O2 57.09 N3 56.35 C4 54.64 N4 53.69 C5 55.32 C6 57.28
F DC H 43 -53.7 -20.4 P 70.94 OP1 70.55 OP2 69.09 O5' 68.23 C5' 66.61 C4' 66.12 O4' 63.78 C3' 66.8 O3' 67.84 C2' 65.21 C1' 62.9 N1 59.45 C2 58.11 O2 59.66 N3 56.83 C4 57.1 N4 55.76 C5 57.28 C6 58.56
F DC H 92 -83.6 -31.4 P 70.78 OP1 70.6 OP2 70.46 O5' 72.42 C5' 71.28 C4' 69.85 O4' 68.28 C3' 69.39 O3' 68.63 C2' 69.43 C1' 67.45 N1 65.27 C2 63.93 O2 64.46 N3 61.92 C4 61.96 N4 61.22 C5 62.57 C6 63.95
F DT T 117 -86.2 6.1 P 69.05 OP1 70.33 OP2 69.21 O5' 70.3 C5' 70.31 C4' 70.83 O4' 71.92 C3' 70.91 O3' 70.76 C2' 72.81 C1' 73.51 N1 74.42 C2 74.63 O2 74.4 N3 75.88 C4 76.84 O4 79.65 C5 75.24 C7 75.68 C6 74.29
F DC T 122 65.7 25.7 P 71.48 OP1 69.25 OP2 70.44 O5' 70.2 C5' 66.95 C4' 63.29 O4' 61.7 C3' 61.03 O3' 58.84 C2' 61.61 C1' 60.48 N1 59.16 C2 58.38 O2 59.16 N3 57.25 C4 55.42 N4 55.8 C5 55.29 C6 57.01
F DT - 71 -60.2 151.3 P 54.35 OP1 54.0 OP2 54.14 O5' 52.58 C5' 49.74 C4' 44.31 O4' 42.44 C3' 42.74 O3' 39.32 C2' 43.57 C1' 43.68 N1 44.86 C2 44.67 O2 45.41 N3 44.79 C4 44.91 O4 43.78 C5 44.18 C7 45.49 C6 44.77
F DT - 56 -60.1 149.5 P 37.31 OP1 35.75 OP2 34.53 O5' 39.52 C5' 37.51 C4' 37.46 O4' 38.34 C3' 37.18 O3' 38.63 C2' 37.64 C1' 37.97 N1 38.82 C2 38.77 O2 40.59 N3 38.64 C4 40.6 O4 43.73 C5 41.32 C7 40.35 C6 41.4
F DG H 132 -57.2 -49.4 P 37.03 OP1 33.25 OP2 39.05 O5' 34.36 C5' 34.81 C4' 34.74 O4' 35.07 C3' 35.09 O3' 37.93 C2' 34.42 C1' 33.48 N9 32.99 C8 34.77 N7 35.32 C5 34.58 C6 34.92 O6 38.95 N1 35.1 C2 35.57 N2 38.33 N3 34.27 C4 33.34
F DA H 107 -63.1 -24.9 P 38.55 OP1 41.48 OP2 39.49 O5' 38.34 C5' 37.54 C4' 34.01 O4' 32.61 C3' 35.02 O3' 35.92 C2' 33.9 C1' 33.19 N9 33.78 C8 32.52 N7 31.16 C5 32.11 C6 33.0 N6 33.63 N1 34.33 C2 34.28 N3 34.14 C4 32.71
F DG H 43 -72.3 -46.1 P 36.28 OP1 36.29 OP2 35.14 O5' 36.8 C5' 34.13 C4' 35.32 O4' 36.59 C3' 34.35 O3' 36.61 C2' 33.92 C1' 34.65 N9 35.34 C8 35.04 N7 36.36 C5 36.43 C6 37.85 O6 41.25 N1 37.58 C2 38.08 N2 38.05 N3 37.45 C4 35.94
F DG H 8 -58.5 -52.0 P 38.07 OP1 40.45 OP2 39.06 O5' 37.26 C5' 39.07 C4' 39.41 O4' 42.44 C3' 40.34 O3' 43.0 C2' 39.18 C1' 40.45 N9 37.01 C8 36.77 N7 37.0 C5 36.95 C6 37.37 O6 41.6 N1 36.59 C2 35.73 N2 34.13 N3 34.27 C4 36.0
F DC H 80 -55.7 -46.3 P 42.92 OP1 43.05 OP2 43.13 O5' 42.93 C5' 41.24 C4' 44.13 O4' 45.68 C3' 46.4 O3' 48.18 C2' 45.19 C1' 45.82 N1 45.69 C2 45.24 O2 46.56 N3 46.19 C4 47.37 N4 46.17 C5 46.91 C6 46.18
F DG H 28 -60.9 -63.7 P 48.89 OP1 50.08 OP2 49.62 O5' 50.21 C5' 50.24 C4' 50.38 O4' 48.76 C3' 52.05 O3' 59.43 C2' 49.41 C1' 46.43 N9 42.08 C8 40.89 N7 40.46 C5 40.46 C6 40.43 O6 41.97 N1 41.68 C2 42.59 N2 43.71 N3 41.71 C4 41.05
F DT H 46 -51.8 -45.5 P 63.74 OP1 63.23 OP2 62.4 O5' 63.82 C5' 65.99 C4' 67.02 O4' 67.65 C3' 66.28 O3' 63.23 C2' 67.56 C1' 68.63 N1 69.52 C2 69.31 O2 68.7 N3 68.43 C4 68.33 O4 69.62 C5 67.73 C7 67.16 C6 68.88
F DT H 9 -57.5 -49.0 P 62.13 OP1 62.15 OP2 61.72 O5' 58.3 C5' 52.09 C4' 50.13 O4' 50.93 C3' 47.5 O3' 43.89 C2' 49.63 C1' 50.95 N1 50.45 C2 51.35 O2 52.52 N3 52.56 C4 52.65 O4 51.92 C5 51.88 C7 53.02 C6 50.9
F DT H 91 -51.9 -42.3 P 41.62 OP1 44.73 OP2 42.37 O5' 41.75 C5' 42.68 C4' 44.64 O4' 46.77 C3' 43.87 O3' 44.98 C2' 42.94 C1' 45.24 N1 46.84 C2 48.09 O2 46.92 N3 49.54 C4 50.29 O4 52.86 C5 49.41 C7 47.69 C6 47.04
F DG H 31 -79.9 -21.0 P 43.72 OP1 42.89 OP2 43.04 O5' 41.9 C5' 38.19 C4' 35.16 O4' 35.97 C3' 35.22 O3' 36.42 C2' 35.19 C1' 34.52 N9 34.46 C8 34.24 N7 34.44 C5 33.5 C6 34.25 O6 33.78 N1 34.33 C2 34.64 N2 36.71 N3 36.15 C4 34.84
F DT H 0 -76.2 -44.9 P 39.65 OP1 39.63 OP2 41.39 O5' 38.3 C5' 37.82 C4' 37.67 O4' 38.05 C3' 35.36 O3' 33.4 C2' 34.53 C1' 37.36 N1 37.86 C2 37.19 O2 39.51 N3 36.5 C4 38.85 O4 37.91 C5 39.34 C7 41.04 C6 39.38
F DT H 42 -67.6 -36.6 P 33.73 OP1 34.8 OP2 36.07 O5' 35.98 C5' 37.32 C4' 36.6 O4' 37.52 C3' 36.54 O3' 39.19 C2' 36.38 C1' 35.1 N1 32.69 C2 32.84 O2 32.39 N3 33.17 C4 33.43 O4 34.03 C5 33.1 C7 32.63 C6 31.96
F DA H 85 -66.5 -32.3 P 40.06 OP1 40.85 OP2 38.91 O5' 41.33 C5' 43.71 C4' 43.9 O4' 43.98 C3' 44.39 O3' 44.17 C2' 45.27 C1' 45.08 N9 45.91 C8 46.41 N7 47.15 C5 46.09 C6 46.48 N6 46.35 N1 45.14 C2 44.59 N3 46.34 C4 46.06
F DT H 0 -67.4 -49.2 P 41.88 OP1 45.18 OP2 42.27 O5' 44.43 C5' 45.01 C4' 46.26 O4' 47.17 C3' 47.3 O3' 48.74 C2' 47.39 C1' 48.42 N1 49.79 C2 50.88 O2 48.53 N3 52.07 C4 53.53 O4 55.34 C5 52.96 C7 52.07 C6 51.32
F DA H 9 -59.8 -62.5 P 47.64 OP1 47.84 OP2 44.56 O5' 51.09 C5' 55.38 C4' 59.24 O4' 59.77 C3' 62.99 O3' 67.85 C2' 61.94 C1' 59.98 N9 58.83 C8 59.56 N7 59.62 C5 58.2 C6 57.73 N6 58.85 N1 57.0 C2 55.67 N3 56.76 C4 58.1
F DA T 86 -57.2 -1.2 P 71.52 OP1 71.75 OP2 70.67 O5' 70.38 C5' 69.59 C4' 70.69 O4' 68.31 C3' 72.73 O3' 79.23 C2' 69.54 C1' 66.09 N9 63.39 C8 62.4 N7 61.34 C5 59.79 C6 57.71 N6 56.29 N1 57.69 C2 58.64 N3 59.68 C4 60.94
F DC T 65 -92.4 -24.8 P 81.5 OP1 80.03 OP2 79.89 O5' 84.71 C5' 90.6 C4' 95.35 O4' 95.45 C3' 98.99 O3' 105.37 C2' 97.52 C1' 95.6 N1 94.21 C2 93.06 O2 92.68 N3 91.91 C4 92.88 N4 92.96 C5 93.68 C6 94.47
F DC T 31 -107.5 34.9 P 109.64 OP1 108.85 OP2 108.79 O5' 113.2 C5' 119.19 C4' 123.92 O4' 124.52 C3' 127.39 O3' 132.73 C2' 126.55 C1' 125.76 N1 126.21 C2 126.14 O2 125.73 N3 125.85 C4 125.89 N4 125.33 C5 126.23 C6 126.45
F DG T 138 50.6 59.0 P 136.3 OP1 136.11 OP2 135.85 O5' 139.31 C5' 143.94 C4' 146.75 O4' 145.96 C3' 149.09 O3' 153.49 C2' 147.61 C1' 145.42 N9 143.34 C8 142.44 N7 141.8 C5 141.78 C6 141.63 O6 141.13 N1 141.77 C2 142.0 N2 142.11 N3 141.95 C4 142.25
F DG T 139 49.4 21.3 P 156.72 OP1 156.29 OP2 156.8 O5' 158.32 C5' 161.61 C4' 163.71 O4' 164.91 C3' 164.39 O3' 164.05 C2' 165.29 C1' 166.03 N9 167.07 C8 167.3 N7 167.78 C5 168.03 C6 168.24 O6 168.48 N1 168.32 C2 168.49 N2 168.62 N3 168.27 C4 167.77
G DC H 32 -68.2 -31.9 O5' 120.52 C5' 122.21 C4' 122.62 O4' 122.99 C3' 122.95 O3' 123.57 C2' 122.49 C1' 122.2 N1 121.73 C2 121.02 O2 120.17 N3 121.0 C4 121.32 N4 121.37 C5 121.42 C6 121.75
G DG H 77 -73.8 -32.1 P 124.4 OP1 124.97 OP2 124.67 O5' 122.24 C5' 119.06 C4' 116.98 O4' 115.66 C3' 116.33 O3' 116.93 C2' 114.79 C1' 113.77 N9 111.55 C8 110.63 N7 109.93 C5 108.91 C6 108.0 O6 107.1 N1 107.71 C2 107.56 N2 106.34 N3 108.39 C4 109.89
G DG H 56 -71.4 -33.4 P 117.91 OP1 118.12 OP2 117.74 O5' 116.74 C5' 115.3 C4' 114.71 O4' 113.26 C3' 114.83 O3' 116.19 C2' 113.4 C1' 111.98 N9 109.99 C8 109.25 N7 108.63 C5 108.14 C6 107.57 O6 107.14 N1 107.26 C2 107.45 N2 107.41 N3 107.87 C4 108.44
G DT H 2 -67.2 -41.5 P 117.45 OP1 117.67 OP2 117.7 O5' 115.91 C5' 113.22 C4' 111.53 O4' 109.67 C3' 111.04 O3' 111.77 C2' 110.27 C1' 108.94 N1 107.54 C2 106.4 O2 105.77 N3 105.41 C4 105.01 O4 104.31 C5 105.25 C7 105.32 C6 106.41
G DT H 96 -63.3 -39.0 P 112.63 OP1 112.83 OP2 112.9 O5' 111.5 C5' 110.24 C4' 108.49 O4' 107.74 C3' 107.56 O3' 106.38 C2' 107.5 C1' 107.44 N1 107.34 C2 107.41 O2 107.77 N3 106.84 C4 106.32 O4 105.7 C5 106.41 C7 106.25 C6 106.99
G DA H 52 -67.9 -39.9 P 106.24 OP1 106.81 OP2 106.41 O5' 104.47 C5' 101.32 C4' 98.45 O4' 98.69 C3' 96.37 O3' 93.12 C2' 97.07 C1' 98.1 N9 97.68 C8 97.27 N7 96.62 C5 96.18 C6 95.18 N6 94.61 N1 95.12 C2 95.39 N3 96.02 C4 96.83
G DT H 30 -56.6 -53.4 P 91.51 OP1 91.39 OP2 89.64 O5' 91.27 C5' 87.26 C4' 85.46 O4' 86.01 C3' 84.15 O3' 80.64 C2' 85.18 C1' 85.81 N1 86.49 C2 86.55 O2 86.15 N3 86.92 C4 87.95 O4 88.76 C5 88.08 C7 88.51 C6 87.38
G DA H 0 -62.4 -42.7 P 77.35 OP1 79.09 OP2 77.03 O5' 72.45 C5' 66.98 C4' 60.83 O4' 57.85 C3' 58.55 O3' 56.34 C2' 56.53 C1' 54.42 N9 51.23 C8 49.51 N7 48.35 C5 47.56 C6 46.25 N6 43.9 N1 45.59 C2 44.97 N3 47.56 C4 49.0
G DA H 31 -62.2 -33.3 P 55.82 OP1 55.47 OP2 53.22 O5' 54.7 C5' 51.62 C4' 50.64 O4' 50.06 C3' 50.64 O3' 52.07 C2' 48.95 C1' 48.2 N9 47.32 C8 45.4 N7 44.69 C5 45.26 C6 45.65 N6 48.78 N1 46.34 C2 44.89 N3 44.35 C4 45.7
G DC H 13 -71.0 -40.7 P 51.93 OP1 51.39 OP2 51.22 O5' 50.47 C5' 48.11 C4' 47.87 O4' 46.3 C3' 48.66 O3' 50.15 C2' 47.0 C1' 45.54 N1 45.05 C2 45.76 O2 46.7 N3 46.56 C4 45.96 N4 43.14 C5 45.07 C6 45.16
G DG T 31 -76.1 11.3 P 50.97 OP1 51.72 OP2 50.77 O5' 50.62 C5' 54.81 C4' 59.66 O4' 59.95 C3' 65.28 O3' 73.61 C2' 63.06 C1' 61.34 N9 60.74 C8 61.22 N7 60.05 C5 59.96 C6 60.55 O6 60.17 N1 60.72 C2 61.0 N2 60.57 N3 61.23 C4 60.27
G DC T 30 48.8 43.3 P 80.89 OP1 78.95 OP2 79.01 O5' 81.72 C5' 84.27 C4' 85.29 O4' 87.22 C3' 85.93 O3' 84.61 C2' 87.01 C1' 88.05 N1 89.3 C2 90.28 O2 90.33 N3 90.45 C4 89.83 N4 89.86 C5 89.5 C6 89.64
G DC - 34 -71.1 156.1 P 83.63 OP1 84.66 OP2 82.78 O5' 81.58 C5' 77.86 C4' 75.23 O4' 73.89 C3' 74.65 O3' 75.23 C2' 73.93 C1' 73.25 N1 71.59 C2 70.21 O2 69.58 N3 67.92 C4 66.82 N4 66.5 C5 68.51 C6 70.56
G DC - 53 -60.7 157.2 P 75.39 OP1 75.48 OP2 74.46 O5' 72.23 C5' 68.56 C4' 65.78 O4' 63.09 C3' 63.82 O3' 64.42 C2' 61.59 C1' 59.17 N1 55.12 C2 53.68 O2 52.41 N3 53.36 C4 54.21 N4 54.54 C5 54.12 C6 54.69
G DG H 123 -64.1 -51.4 P 65.5 OP1 65.2 OP2 64.96 O5' 59.5 C5' 55.81 C4' 53.62 O4' 51.24 C3' 51.15 O3' 51.25 C2' 49.52 C1' 47.57 N9 43.71 C8 42.22 N7 40.16 C5 38.38 C6 38.16 O6 35.57 N1 38.02 C2 38.64 N2 38.18 N3 39.64 C4 39.62
G DC H 156 -57.2 -31.0 P 54.53 OP1 53.69 OP2 52.53 O5' 52.76 C5' 48.74 C4' 46.34 O4' 44.4 C3' 44.24 O3' 43.6 C2' 42.86 C1' 41.68 N1 38.39 C2 36.87 O2 37.61 N3 35.62 C4 36.88 N4 36.8 C5 36.0 C6 37.32
G DC H 44 -68.9 -41.5 P 45.36 OP1 47.75 OP2 43.54 O5' 44.89 C5' 43.88 C4' 40.24 O4' 40.27 C3' 39.09 O3' 36.91 C2' 38.22 C1' 38.43 N1 36.04 C2 36.04 O2 35.47 N3 36.02 C4 35.63 N4 34.36 C5 37.43 C6 36.14
G DT H 2 -61.1 -47.1 P 37.65 OP1 39.68 OP2 37.89 O5' 39.23 C5' 35.92 C4' 33.87 O4' 31.81 C3' 34.12 O3' 35.84 C2' 34.19 C1' 32.14 N1 29.66 C2 28.78 O2 30.24 N3 26.12 C4 28.01 O4 27.95 C5 30.89 C7 31.3 C6 29.3
G DA H 103 -60.3 -47.3 P 38.59 OP1 36.7 OP2 37.74 O5' 38.16 C5' 34.88 C4' 33.28 O4' 32.83 C3' 33.27 O3' 35.94 C2' 33.52 C1' 34.1 N9 34.94 C8 34.36 N7 35.39 C5 33.39 C6 34.62 N6 35.59 N1 32.81 C2 33.73 N3 34.12 C4 33.1
G DA H 28 -56.3 -53.6 P 37.56 OP1 42.16 OP2 38.94 O5' 37.45 C5' 38.74 C4' 37.54 O4' 36.69 C3' 39.27 O3' 40.88 C2' 38.27 C1' 35.52 N9 33.51 C8 33.84 N7 34.55 C5 33.4 C6 32.2 N6 30.19 N1 32.21 C2 32.26 N3 34.12 C4 33.55
G DG H 45 -60.1 -48.0 P 43.11 OP1 42.45 OP2 40.87 O5' 41.49 C5' 42.02 C4' 43.27 O4' 43.56 C3' 43.85 O3' 44.87 C2' 42.54 C1' 41.55 N9 39.1 C8 38.81 N7 37.78 C5 36.61 C6 35.29 O6 32.26 N1 34.9 C2 36.79 N2 36.1 N3 36.57 C4 36.73
G DG H 5 -55.4 -55.5 P 46.97 OP1 46.49 OP2 48.66 O5' 48.44 C5' 50.04 C4' 52.29 O4' 51.54 C3' 54.69 O3' 60.01 C2' 53.84 C1' 50.93 N9 47.24 C8 47.08 N7 46.31 C5 45.24 C6 45.07 O6 47.98 N1 45.02 C2 43.83 N2 42.65 N3 43.01 C4 44.76
G DG H 97 -47.8 -41.4 P 61.73 OP1 59.21 OP2 61.64 O5' 63.02 C5' 66.45 C4' 67.44 O4' 68.24 C3' 69.66 O3' 72.25 C2' 68.36 C1' 66.7 N9 63.52 C8 63.17 N7 61.73 C5 60.63 C6 58.93 O6 60.85 N1 57.6 C2 58.36 N2 58.38 N3 58.96 C4 60.88
G DG H 24 -79.7 -27.7 P 72.0 OP1 72.46 OP2 70.6 O5' 70.96 C5' 69.03 C4' 69.3 O4' 67.55 C3' 70.78 O3' 74.7 C2' 68.64 C1' 65.61 N9 62.25 C8 62.11 N7 61.36 C5 60.54 C6 59.55 O6 57.33 N1 58.8 C2 58.57 N2 57.27 N3 58.83 C4 60.37
G DC H 1 -72.1 -44.1 P 76.31 OP1 75.4 OP2 74.41 O5' 75.35 C5' 76.15 C4' 77.04 O4' 74.11 C3' 79.18 O3' 85.7 C2' 74.62 C1' 70.36 N1 64.57 C2 60.6 O2 59.06 N3 58.5 C4 58.55 N4 54.69 C5 59.87 C6 62.49
G DT H 56 -55.8 -61.3 P 89.92 OP1 89.65 OP2 88.7 O5' 93.42 C5' 99.48 C4' 104.66 O4' 104.45 C3' 108.75 O3' 115.39 C2' 106.3 C1' 103.66 N1 101.42 C2 100.18 O2 99.24 N3 99.56 C4 100.1 O4 99.32 C5 100.62 C7 100.15 C6 101.09
G DG H 79 -76.9 18.7 P 119.63 OP1 118.78 OP2 118.69 O5' 123.38 C5' 129.79 C4' 134.51 O4' 134.8 C3' 137.74 O3' 143.37 C2' 136.37 C1' 135.15 N9 134.51 C8 134.46 N7 134.43 C5 134.02 C6 133.9 O6 133.5 N1 133.54 C2 133.28 N2 132.31 N3 133.58 C4 134.12
G DA H 0 -99.0 -51.8 P 147.36 OP1 147.31 OP2 147.46 O5' 148.97 C5' 151.7 C4' 153.71 O4' 153.83 C3' 155.02 O3' 157.46 C2' 154.55 C1' 154.31 N9 154.63 C8 154.69 N7 155.07 C5 155.47 C6 155.97 N6 156.55 N1 155.96 C2 155.72 N3 155.37 C4 155.14
G DC H 4 -69.4 -31.7 P 159.13 OP1 159.3 OP2 159.35 O5' 159.68 C5' 160.03 C4' 160.22 O4' 160.12 C3' 160.28 O3' 160.05 C2' 160.21 C1' 160.06 N1 159.82 C2 159.64 O2 159.1 N3 159.81 C4 159.91 N4 159.87 C5 159.88 C6 159.85
H DG H 82 -63.8 -34.9 O5' 167.88 C5' 168.0 C4' 168.05 O4' 168.44 C3' 167.69 O3' 166.39 C2' 168.0 C1' 168.68 N9 169.46 C8 169.75 N7 169.93 C5 169.91 C6 169.83 O6 169.54 N1 169.67 C2 169.63 N2 169.41 N3 169.74 C4 169.82
H DA H 50 -71.2 -34.1 P 165.03 OP1 165.11 OP2 165.33 O5' 162.37 C5' 157.51 C4' 153.75 O4' 153.62 C3' 150.83 O3' 145.78 C2' 151.48 C1' 152.67 N9 153.19 C8 153.48 N7 153.57 C5 153.47 C6 153.35 N6 152.74 N1 153.47 C2 153.57 N3 153.44 C4 153.46
H DC H 0 -70.0 -47.5 P 141.79 OP1 141.89 OP2 142.04 O5' 136.13 C5' 125.43 C4' 117.44 O4' 115.93 C3' 112.24 O3' 103.35 C2' 112.83 C1' 113.65 N1 112.67 C2 111.98 O2 111.04 N3 111.91 C4 112.51 N4 112.88 C5 112.45 C6 112.54
H DA H 93 -52.6 -39.2 P 96.21 OP1 95.85 OP2 96.89 O5' 89.19 C5' 77.49 C4' 69.31 O4' 67.95 C3' 65.97 O3' 61.96 C2' 66.22 C1' 66.39 N9 66.38 C8 66.75 N7 67.04 C5 66.94 C6 67.51 N6 67.9 N1 67.49 C2 67.03 N3 67.47 C4 66.57
H DG H 101 -76.3 -35.3 P 59.78 OP1 58.02 OP2 60.65 O5' 58.05 C5' 55.46 C4' 53.32 O4' 53.13 C3' 51.39 O3' 52.9 C2' 51.72 C1' 52.1 N9 52.66 C8 54.21 N7 55.33 C5 53.73 C6 54.44 O6 55.84 N1 54.76 C2 55.9 N2 54.85 N3 54.9 C4 52.96
H DT H 35 -57.3 -46.8 P 55.48 OP1 55.42 OP2 55.36 O5' 56.31 C5' 56.91 C4' 57.67 O4' 57.11 C3' 58.66 O3' 61.84 C2' 58.41 C1' 57.31 N1 57.96 C2 59.38 O2 61.41 N3 59.34 C4 59.39 O4 60.68 C5 59.83 C7 58.48 C6 58.95
H DC H 0 -65.9 -50.0 P 63.48 OP1 62.15 OP2 62.63 O5' 62.58 C5' 60.39 C4' 59.25 O4' 57.37 C3' 60.31 O3' 64.14 C2' 57.86 C1' 55.96 N1 53.65 C2 52.71 O2 53.03 N3 51.9 C4 51.47 N4 51.08 C5 51.43 C6 53.03
H DC H 43 -53.4 -21.1 P 66.45 OP1 66.5 OP2 65.81 O5' 63.19 C5' 61.08 C4' 60.57 O4' 60.23 C3' 61.66 O3' 63.19 C2' 61.32 C1' 59.22 N1 57.77 C2 57.51 O2 61.09 N3 55.3 C4 53.87 N4 50.41 C5 53.89 C6 56.17
H DC H 91 -83.0 -31.7 P 68.01 OP1 69.94 OP2 66.45 O5' 65.3 C5' 61.51 C4' 59.2 O4' 58.66 C3' 58.63 O3' 58.89 C2' 59.02 C1' 56.62 N1 54.47 C2 52.06 O2 53.1 N3 51.07 C4 50.84 N4 50.26 C5 51.2 C6 53.34
H DT T 118 -85.4 6.0 P 60.52 OP1 61.89 OP2 60.86 O5' 61.12 C5' 62.7 C4' 64.77 O4' 65.37 C3' 65.31 O3' 65.35 C2' 66.87 C1' 67.9 N1 70.53 C2 71.59 O2 71.01 N3 72.57 C4 73.04 O4 76.71 C5 72.11 C7 72.24 C6 71.09
H DC T 125 65.4 26.0 P 66.01 OP1 65.68 OP2 66.56 O5' 63.37 C5' 56.79 C4' 51.45 O4' 48.8 C3' 50.43 O3' 48.34 C2' 49.96 C1' 47.19 N1 45.16 C2 43.43 O2 44.1 N3 41.72 C4 41.47 N4 42.79 C5 42.06 C6 43.46
H DT - 71 -60.7 152.5 P 47.54 OP1 48.73 OP2 44.92 O5' 47.25 C5' 44.63 C4' 41.81 O4' 41.79 C3' 43.41 O3' 43.57 C2' 43.23 C1' 42.73 N1 42.93 C2 43.44 O2 44.2 N3 43.63 C4 42.79 O4 40.91 C5 44.03 C7 45.8 C6 43.86
H DT - 56 -61.5 150.0 P 39.58 OP1 42.06 OP2 36.99 O5' 40.53 C5' 36.82 C4' 36.84 O4' 36.06 C3' 37.37 O3' 37.61 C2' 36.75 C1' 36.79 N1 35.51 C2 36.39 O2 39.24 N3 35.02 C4 33.81 O4 33.53 C5 33.57 C7 33.56 C6 34.59
H DG H 134 -57.5 -49.4 P 34.27 OP1 34.05 OP2 37.91 O5' 34.21 C5' 34.58 C4' 36.63 O4' 38.74 C3' 40.13 O3' 41.81 C2' 39.94 C1' 39.41 N9 40.73 C8 41.62 N7 43.54 C5 43.27 C6 44.05 O6 45.98 N1 44.47 C2 45.37 N2 46.91 N3 43.53 C4 41.99
H DA H 106 -63.4 -24.7 P 40.67 OP1 37.99 OP2 41.55 O5' 38.79 C5' 36.26 C4' 36.14 O4' 35.74 C3' 37.06 O3' 38.19 C2' 37.16 C1' 36.08 N9 34.34 C8 34.0 N7 34.08 C5 33.1 C6 31.11 N6 33.94 N1 29.43 C2 29.51 N3 31.88 C4 33.18
H DG H 42 -72.7 -45.9 P 38.94 OP1 38.21 OP2 37.79 O5' 40.2 C5' 37.42 C4' 37.5 O4' 37.74 C3' 36.53 O3' 38.21 C2' 36.44 C1' 35.19 N9 34.24 C8 32.49 N7 30.69 C5 31.56 C6 33.14 O6 36.42 N1 30.49 C2 29.57 N2 31.13 N3 30.0 C4 31.68
H DG H 7 -58.3 -52.2 P 36.03 OP1 38.16 OP2 40.62 O5' 44.36 C5' 47.43 C4' 44.75 O4' 43.98 C3' 44.56 O3' 45.65 C2' 43.35 C1' 43.02 N9 40.51 C8 36.97 N7 34.28 C5 34.54 C6 36.26 O6 37.89 N1 35.81 C2 36.05 N2 34.46 N3 35.47 C4 36.65
H DC H 80 -55.4 -46.0 P 46.01 OP1 47.2 OP2 42.98 O5' 49.08 C5' 49.5 C4' 50.93 O4' 49.75 C3' 53.61 O3' 55.86 C2' 51.22 C1' 49.74 N1 48.04 C2 49.17 O2 50.75 N3 48.22 C4 46.41 N4 43.49 C5 44.83 C6 46.47
H DG H 28 -61.4 -63.8 P 57.58 OP1 58.64 OP2 59.51 O5' 57.5 C5' 56.82 C4' 57.29 O4' 55.88 C3' 57.57 O3' 61.53 C2' 55.46 C1' 53.61 N9 50.34 C8 49.33 N7 47.81 C5 46.19 C6 46.21 O6 46.78 N1 45.11 C2 45.17 N2 45.26 N3 46.89 C4 47.94
H DT H 46 -51.1 -46.0 P 66.02 OP1 66.51 OP2 66.09 O5' 66.9 C5' 67.35 C4' 68.09 O4' 66.38 C3' 68.47 O3' 68.85 C2' 67.09 C1' 65.95 N1 64.93 C2 63.73 O2 62.54 N3 60.73 C4 59.81 O4 58.87 C5 60.06 C7 58.99 C6 62.94
H DT H 8 -57.3 -49.5 P 70.98 OP1 71.78 OP2 71.59 O5' 68.61 C5' 67.97 C4' 66.18 O4' 65.95 C3' 65.45 O3' 64.66 C2' 66.4 C1' 66.02 N1 66.39 C2 67.57 O2 69.0 N3 67.3 C4 66.74 O4 67.78 C5 66.44 C7 66.38 C6 66.71
H DT H 92 -51.7 -41.8 P 63.55 OP1 66.49 OP2 64.48 O5' 65.61 C5' 66.56 C4' 66.92 O4' 70.26 C3' 65.29 O3' 60.2 C2' 68.49 C1' 73.77 N1 88.24 C2 89.03 O2 20.0 N3 87.53 C4 84.19 O4 20.0 C5 85.07 C7 20.0 C6 86.71
H DG H 32 -79.8 -20.9 P 55.57 OP1 56.12 OP2 56.56 O5' 54.26 C5' 50.85 C4' 47.03 O4' 48.27 C3' 47.24 O3' 46.08 C2' 48.12 C1' 48.53 N9 49.89 C8 49.82 N7 49.2 C5 47.91 C6 48.39 O6 47.31 N1 47.65 C2 47.42 N2 48.41 N3 48.28 C4 48.88
H DT H 0 -76.7 -44.3 P 46.67 OP1 45.72 OP2 46.78 O5' 44.59 C5' 41.91 C4' 39.1 O4' 41.72 C3' 37.46 O3' 37.02 C2' 37.92 C1' 40.93 N1 42.36 C2 42.74 O2 46.08 N3 41.29 C4 41.63 O4 43.5 C5 42.26 C7 42.74 C6 42.59
H DT H 41 -67.8 -37.0 P 37.06 OP1 38.07 OP2 40.17 O5' 36.67 C5' 36.65 C4' 38.04 O4' 39.51 C3' 37.89 O3' 39.12 C2' 39.61 C1' 39.72 N1 39.74 C2 40.03 O2 39.53 N3 38.01 C4 39.38 O4 42.09 C5 38.6 C7 37.61 C6 38.56
H DA H 87 -66.1 -32.3 P 39.29 OP1 42.55 OP2 40.95 O5' 41.1 C5' 43.71 C4' 44.34 O4' 46.26 C3' 44.59 O3' 45.03 C2' 46.61 C1' 48.5 N9 52.28 C8 54.48 N7 54.38 C5 53.19 C6 53.84 N6 56.86 N1 52.86 C2 51.74 N3 53.59 C4 53.09
H DT H 0 -67.8 -48.7 P 44.61 OP1 46.7 OP2 46.95 O5' 47.72 C5' 50.62 C4' 52.96 O4' 53.11 C3' 53.98 O3' 55.71 C2' 53.35 C1' 54.4 N1 56.13 C2 56.77 O2 56.74 N3 57.22 C4 57.73 O4 59.15 C5 58.23 C7 60.48 C6 57.19
H DA H 11 -60.3 -61.8 P 56.17 OP1 57.22 OP2 55.67 O5' 58.11 C5' 61.81 C4' 64.78 O4' 64.72 C3' 67.25 O3' 70.98 C2' 65.2 C1' 65.61 N9 66.17 C8 66.6 N7 66.04 C5 66.87 C6 68.0 N6 68.86 N1 67.75 C2 66.63 N3 65.35 C4 65.99
H DA T 99 -57.7 -0.8 P 72.84 OP1 70.7 OP2 70.79 O5' 74.22 C5' 76.28 C4' 77.86 O4' 76.03 C3' 79.78 O3' 83.83 C2' 77.73 C1' 75.08 N9 72.85 C8 72.51 N7 71.3 C5 69.63 C6 67.69 N6 66.65 N1 66.92 C2 66.72 N3 68.13 C4 70.82
H DC T 66 -92.7 -24.5 P 85.16 OP1 85.33 OP2 84.42 O5' 86.78 C5' 88.57 C4' 89.84 O4' 89.07 C3' 92.33 O3' 97.92 C2' 90.03 C1' 87.47 N1 85.26 C2 84.0 O2 83.08 N3 83.23 C4 83.85 N4 83.87 C5 84.16 C6 84.69
H DC S 31 -107.9 28.1 P 101.98 OP1 100.66 OP2 101.32 O5' 101.34 C5' 101.44 C4' 101.59 O4' 99.98 C3' 102.57 O3' 104.41 C2' 101.63 C1' 99.7 N1 97.8 C2 96.98 O2 95.13 N3 97.18 C4 97.5 N4 96.4 C5 97.43 C6 97.38
H DG S 134 50.4 72.3 P 105.13 OP1 105.23 OP2 104.3 O5' 105.69 C5' 106.89 C4' 107.7 O4' 107.88 C3' 107.88 O3' 106.71 C2' 108.03 C1' 108.33 N9 108.36 C8 108.11 N7 108.11 C5 108.39 C6 108.63 O6 109.13 N1 108.68 C2 108.67 N2 108.47 N3 108.51 C4 108.53
