A ALA - 76 360.0 -28.0 N 26.05 CA 25.21 C 24.89 O 24.4 CB 24.04
A ARG - 186 -80.3 -17.6 N 23.02 CA 21.92 C 21.02 O 19.11 CB 22.67 CG 23.54 CD 24.16 NE 25.42 CZ 26.22 NH1 26.57 NH2 28.07
A GLY B 24 -74.8 153.5 N 20.77 CA 20.59 C 19.31 O 21.03
A CYS S 30 -46.7 120.0 N 19.43 CA 19.44 C 19.2 O 20.24 CB 20.38 SG 21.15
A ARG E 115 -165.1 166.9 N 18.52 CA 17.95 C 17.4 O 17.03 CB 19.76 CG 20.61 CD 23.27 NE 22.49 CZ 22.69 NH1 22.67 NH2 22.67
A LEU E 66 -72.6 134.2 N 17.28 CA 17.85 C 18.15 O 18.36 CB 18.26 CG 19.51 CD1 20.44 CD2 20.95
A ARG E 18 -120.7 158.0 N 17.77 CA 17.9 C 17.59 O 18.46 CB 17.37 CG 18.05 CD 16.64 NE 16.19 CZ 16.33 NH1 18.72 NH2 17.72
A SER E 46 -154.2 151.2 N 17.09 CA 16.6 C 15.93 O 16.78 CB 19.18 OG 22.45
A GLN E 30 -158.9 142.6 N 13.91 CA 14.21 C 13.8 O 14.64 CB 13.66 CG 15.32 CD 12.91 OE1 14.17 NE2 14.98
A LEU E 83 -76.2 129.9 N 13.36 CA 14.01 C 13.45 O 14.89 CB 14.03 CG 16.57 CD1 16.84 CD2 15.23
A VAL E 2 -142.4 154.6 N 13.93 CA 13.96 C 14.86 O 15.72 CB 14.91 CG1 15.07 CG2 14.53
A PRO E 24 -76.0 142.1 N 15.08 CA 15.28 C 15.62 O 15.4 CB 16.23 CG 16.54 CD 16.92
A VAL G 1 -51.9 -36.9 N 17.22 CA 17.02 C 15.77 O 17.74 CB 17.63 CG1 22.46 CG2 17.3
A ARG G 125 -61.0 -19.9 N 17.2 CA 18.86 C 18.77 O 19.98 CB 21.51 CG 24.61 CD 27.84 NE 31.55 CZ 31.45 NH1 33.89 NH2 30.36
A ALA G 20 -89.8 -2.9 N 17.87 CA 16.92 C 16.67 O 16.9 CB 16.49
A LEU G 0 -81.7 -0.8 N 16.4 CA 15.71 C 16.32 O 18.32 CB 15.81 CG 16.71 CD1 17.16 CD2 16.98
A GLY S 54 69.4 36.8 N 17.4 CA 19.05 C 19.15 O 20.11
A LEU S 53 -106.9 -0.9 N 18.67 CA 19.02 C 19.17 O 20.22 CB 17.86 CG 19.09 CD1 19.85 CD2 20.17
A GLY S 82 84.0 11.3 N 19.58 CA 20.21 C 20.06 O 21.11
A HIS - 49 -106.4 152.7 N 19.22 CA 20.18 C 21.18 O 21.14 CB 20.26 CG 20.59 ND1 23.09 CD2 19.94 CE1 20.33 NE2 21.18
A ARG - 214 -108.7 2.5 N 21.81 CA 22.27 C 24.04 O 23.84 CB 24.13 CG 23.32 CD 23.52 NE 23.43 CZ 23.45 NH1 23.41 NH2 23.41
A SER - 30 -54.9 138.3 N 22.65 CA 21.69 C 20.65 O 19.89 CB 21.93 OG 23.65
A ASP - 108 -91.3 1.0 N 22.07 CA 22.01 C 22.24 O 21.71 CB 24.8 CG 26.28 OD1 28.75 OD2 29.13
A GLU - 83 -56.9 133.0 N 22.21 CA 22.21 C 20.37 O 20.54 CB 24.1 CG 27.71 CD 30.28 OE1 32.89 OE2 33.47
A LEU E 101 -88.7 132.8 N 19.8 CA 18.17 C 19.21 O 20.25 CB 17.69 CG 16.79 CD1 17.23 CD2 17.31
A VAL E 16 -128.2 151.7 N 16.63 CA 17.16 C 16.87 O 16.41 CB 18.73 CG1 19.86 CG2 18.49
A ARG E 104 -85.0 111.3 N 16.48 CA 16.37 C 18.39 O 21.86 CB 17.48 CG 20.08 CD 20.83 NE 22.01 CZ 22.28 NH1 17.03 NH2 20.61
A PHE E 0 -97.8 126.9 N 15.21 CA 14.74 C 14.81 O 14.81 CB 15.35 CG 14.93 CD1 15.18 CD2 13.99 CE1 16.04 CE2 16.35 CZ 15.85
A ARG E 71 -113.8 145.4 N 15.53 CA 15.54 C 15.72 O 13.19 CB 16.68 CG 19.93 CD 22.65 NE 26.66 CZ 27.61 NH1 27.02 NH2 29.23
A PHE E 6 -151.9 174.6 N 14.33 CA 14.15 C 14.72 O 14.22 CB 15.93 CG 15.64 CD1 16.97 CD2 16.34 CE1 18.84 CE2 17.89 CZ 17.3
A CYS E 3 -115.3 136.3 N 14.45 CA 15.46 C 15.41 O 16.22 CB 16.67 SG 19.26
A SER E 2 -159.7 151.4 N 15.51 CA 16.36 C 15.51 O 14.9 CB 15.64 OG 17.01
A GLY - 7 135.9 169.9 N 15.43 CA 15.52 C 16.36 O 16.62
A SER B 27 -71.4 147.9 N 17.39 CA 19.4 C 18.46 O 18.71 CB 21.42 OG 26.39
A CYS - 0 -128.1 26.7 N 19.04 CA 20.68 C 21.93 O 23.28 CB 20.9 SG 21.17
A ARG G 145 -58.6 -27.7 N 25.14 CA 26.31 C 27.16 O 27.53 CB 26.84 CG 27.71 CD 30.35 NE 31.72 CZ 33.29 NH1 33.61 NH2 34.49
A ARG G 231 -68.0 -20.9 N 27.87 CA 27.73 C 27.93 O 29.56 CB 29.0 CG 30.67 CD 32.33 NE 34.61 CZ 35.8 NH1 36.48 NH2 36.98
A ALA G 47 -108.1 17.2 N 26.23 CA 25.76 C 24.58 O 24.12 CB 26.32
A ARG - 58 -76.7 140.0 N 24.72 CA 26.65 C 26.2 O 27.54 CB 28.48 CG 31.6 CD 34.17 NE 34.66 CZ 35.84 NH1 35.92 NH2 36.5
A SER - 34 -89.1 175.7 N 23.54 CA 22.19 C 20.79 O 20.74 CB 22.01 OG 22.38
A PRO H 71 -61.0 -37.6 N 21.26 CA 20.45 C 19.04 O 19.83 CB 21.39 CG 21.44 CD 22.23
A HIS H 1 -59.8 -47.9 N 18.42 CA 17.13 C 17.3 O 17.09 CB 17.18 CG 15.85 ND1 16.94 CD2 15.78 CE1 14.86 NE2 14.35
A ASP H 1 -58.7 -48.1 N 16.93 CA 18.01 C 17.64 O 17.88 CB 17.71 CG 19.61 OD1 20.77 OD2 20.25
A LEU H 93 -61.0 -39.3 N 18.34 CA 18.35 C 18.15 O 19.03 CB 19.73 CG 20.72 CD1 22.74 CD2 21.49
A SER H 3 -71.3 -35.9 N 17.06 CA 17.63 C 17.85 O 18.14 CB 18.57 OG 19.45
A LEU H 2 -65.5 -42.3 N 17.86 CA 18.64 C 18.73 O 19.66 CB 18.61 CG 21.43 CD1 20.83 CD2 20.63
A ALA H 27 -62.0 -41.9 N 19.32 CA 19.6 C 21.24 O 22.39 CB 19.38
A SER H 36 -66.9 -41.8 N 20.39 CA 21.72 C 20.72 O 21.57 CB 23.49 OG 31.51
A LEU H 0 -62.1 -44.3 N 19.66 CA 19.49 C 21.38 O 21.12 CB 20.77 CG 19.91 CD1 19.52 CD2 20.92
A LEU H 32 -65.2 -42.1 N 21.72 CA 23.31 C 24.36 O 26.65 CB 22.68 CG 21.86 CD1 21.6 CD2 25.33
A GLY H 69 -65.3 -25.5 N 24.71 CA 26.09 C 26.87 O 27.42
A ALA H 66 -95.9 -3.7 N 26.67 CA 27.49 C 27.92 O 28.82 CB 27.6
A GLY T 63 72.0 23.2 N 27.76 CA 27.98 C 28.7 O 28.79
A ALA - 21 -78.9 -22.0 N 28.31 CA 28.21 C 28.86 O 28.19 CB 28.63
A LEU S 18 -99.3 134.3 N 30.1 CA 32.06 C 33.36 O 34.39 CB 31.19 CG 31.24 CD1 30.28 CD2 30.95
A ARG - 177 -82.3 132.7 N 35.33 CA 36.79 C 36.88 O 36.15 CB 38.38 CG 40.72 CD 42.9 NE 44.5 CZ 45.16 NH1 46.06 NH2 45.54
A PRO - 116 -58.2 109.0 N 37.93 CA 37.53 C 37.63 O 38.18 CB 38.73 CG 38.82 CD 37.86
A PRO - 24 -70.2 163.0 N 37.35 CA 37.02 C 37.11 O 36.91 CB 36.82 CG 37.76 CD 37.08
A PRO S 57 -66.1 128.3 N 36.72 CA 37.02 C 36.85 O 37.39 CB 36.95 CG 37.25 CD 37.01
A GLY S 40 106.0 -156.6 N 36.13 CA 35.44 C 34.94 O 35.66
A SER S 63 -66.2 145.2 N 34.36 CA 33.33 C 33.19 O 33.78 CB 33.32 OG 32.02
A ARG - 177 -62.0 147.2 N 32.74 CA 31.23 C 29.08 O 28.86 CB 33.59 CG 36.8 CD 39.49 NE 41.43 CZ 42.27 NH1 43.47 NH2 43.25
A PRO - 7 -67.0 138.5 N 27.7 CA 26.02 C 24.37 O 23.81 CB 27.03 CG 29.19 CD 27.54
A VAL - 50 -87.3 134.6 N 23.1 CA 24.0 C 23.25 O 23.9 CB 24.73 CG1 26.49 CG2 26.94
A SER S 23 -103.2 33.3 N 22.48 CA 21.63 C 20.42 O 19.47 CB 22.99 OG 24.03
A GLN S 36 -170.6 161.1 N 20.14 CA 19.05 C 19.73 O 21.01 CB 20.44 CG 23.09 CD 25.88 OE1 27.25 NE2 28.84
A PRO - 3 -61.9 158.1 N 19.31 CA 19.47 C 19.1 O 19.87 CB 19.87 CG 19.96 CD 19.36
A CYS E 11 -98.8 142.5 N 19.32 CA 17.94 C 17.69 O 18.84 CB 20.28 SG 23.72
A CYS E 9 -74.1 110.2 N 16.45 CA 16.82 C 16.17 O 17.63 CB 16.86 SG 19.14
A ARG E 5 -137.2 158.0 N 16.51 CA 17.53 C 18.16 O 17.92 CB 19.59 CG 19.76 CD 21.35 NE 23.36 CZ 24.67 NH1 25.17 NH2 23.82
A PRO E 8 -67.3 144.6 N 16.81 CA 17.42 C 17.96 O 20.42 CB 18.12 CG 17.87 CD 18.56
A THR E 58 -108.3 -15.2 N 19.54 CA 21.1 C 21.59 O 22.19 CB 21.03 OG1 21.75 CG2 22.12
A ARG E 168 -152.3 149.7 N 21.76 CA 22.91 C 21.24 O 21.05 CB 25.43 CG 30.55 CD 34.69 NE 38.29 CZ 40.58 NH1 41.83 NH2 40.67
A TYR E 42 -133.2 165.2 N 21.69 CA 20.38 C 21.15 O 21.34 CB 21.37 CG 21.92 CD1 22.77 CD2 20.97 CE1 22.02 CE2 20.56 CZ 22.21 OH 21.78
A GLU E 86 -140.1 162.4 N 19.85 CA 20.02 C 19.71 O 19.11 CB 21.15 CG 21.47 CD 22.76 OE1 22.97 OE2 25.46
A ALA E 40 -78.0 151.2 N 19.77 CA 18.98 C 18.82 O 18.95 CB 20.6
A VAL E 11 -111.1 128.5 N 19.26 CA 19.31 C 19.88 O 19.13 CB 18.34 CG1 20.2 CG2 20.01
A SER E 52 -125.0 151.9 N 19.97 CA 20.3 C 19.85 O 20.22 CB 21.75 OG 24.37
A PHE E 3 -165.6 162.2 N 18.75 CA 18.22 C 19.33 O 18.82 CB 18.48 CG 18.77 CD1 19.84 CD2 19.4 CE1 20.45 CE2 20.08 CZ 19.0
A MET E 75 -94.7 134.5 N 21.35 CA 21.94 C 21.62 O 21.81 CB 26.52 CG 31.04 SD 37.51 CE 37.78
A ASP - 13 -86.6 -175.2 N 19.82 CA 19.74 C 20.9 O 21.92 CB 18.8 CG 17.32 OD1 18.67 OD2 18.94
A VAL T 131 -57.5 -25.5 N 22.09 CA 24.8 C 25.09 O 26.27 CB 24.87 CG1 26.69 CG2 25.89
A ASN T 120 -92.1 7.5 N 25.66 CA 26.94 C 27.97 O 31.63 CB 26.59 CG 27.48 OD1 29.86 ND2 27.58
A SER S 86 69.9 25.8 N 28.89 CA 26.01 C 23.32 O 23.02 CB 27.31 OG 29.88
A THR - 73 -99.8 137.5 N 22.37 CA 19.52 C 19.33 O 19.47 CB 18.62 OG1 18.17 CG2 19.08
A TRP E 168 -75.2 131.3 N 19.64 CA 20.54 C 20.96 O 19.89 CB 24.67 CG 29.77 CD1 31.89 CD2 31.16 NE1 32.59 CE2 32.32 CE3 31.26 CZ2 33.15 CZ3 32.38 CH2 33.58
A ARG E 115 -122.1 142.8 N 20.23 CA 19.75 C 19.86 O 18.04 CB 20.71 CG 22.63 CD 21.39 NE 20.81 CZ 19.12 NH1 20.89 NH2 20.89
A THR E 81 -136.5 135.1 N 19.6 CA 21.06 C 21.14 O 23.1 CB 22.0 OG1 24.18 CG2 23.03
A VAL E 38 -118.1 110.7 N 20.67 CA 20.95 C 21.18 O 19.75 CB 22.03 CG1 22.07 CG2 23.58
A ASP E 117 -68.4 149.9 N 21.94 CA 23.49 C 22.53 O 23.25 CB 27.7 CG 31.0 OD1 34.8 OD2 34.53
A ARG E 145 45.9 39.9 N 22.92 CA 23.55 C 22.58 O 24.02 CB 25.92 CG 27.66 CD 31.32 NE 30.02 CZ 30.3 NH1 30.14 NH2 30.14
A LEU E 0 -88.4 -27.7 N 20.41 CA 19.33 C 19.34 O 18.5 CB 19.84 CG 22.14 CD1 21.8 CD2 24.8
A SER E 1 -115.3 135.1 N 18.62 CA 17.6 C 17.91 O 19.97 CB 17.98 OG 17.41
A ALA E 0 -71.2 150.2 N 17.28 CA 18.3 C 18.6 O 17.64 CB 19.33
A THR E 57 -125.7 -6.9 N 18.78 CA 20.64 C 20.55 O 21.97 CB 20.31 OG1 21.92 CG2 21.66
A ALA E 33 -161.1 152.8 N 20.16 CA 20.17 C 19.01 O 17.89 CB 21.13
A CYS E 31 -126.8 159.6 N 19.25 CA 19.83 C 20.13 O 21.25 CB 19.83 SG 20.57
A GLY E 15 -154.5 165.1 N 19.22 CA 19.87 C 19.9 O 18.92
A CYS E 39 -97.6 93.2 N 20.14 CA 21.57 C 23.78 O 25.35 CB 20.19 SG 23.23
A LEU E 50 -97.0 147.4 N 26.64 CA 27.88 C 28.9 O 29.26 CB 29.41 CG 29.61 CD1 31.79 CD2 31.59
A GLY - 40 85.3 360.0 N 30.9 CA 31.71 C 32.02 O 32.16 OXT 31.26
B ALA - 83 360.0 -24.5 N 36.16 CA 34.82 C 33.93 O 34.57 CB 35.81
B ARG - 180 -81.5 -10.4 N 32.61 CA 30.68 C 27.74 O 26.44 CB 33.1 CG 36.19 CD 39.45 NE 42.55 CZ 44.55 NH1 45.45 NH2 45.49
B GLY B 29 -72.5 153.2 N 25.6 CA 22.97 C 21.06 O 21.57
B CYS S 27 -48.6 122.0 N 19.35 CA 19.32 C 18.06 O 18.65 CB 17.28 SG 17.81
B ARG E 119 -165.0 167.3 N 17.47 CA 17.9 C 17.18 O 16.17 CB 18.97 CG 19.39 CD 22.63 NE 21.71 CZ 22.03 NH1 21.97 NH2 21.97
B LEU E 66 -71.6 131.0 N 17.92 CA 17.75 C 19.75 O 22.0 CB 18.47 CG 19.76 CD1 18.5 CD2 20.93
B ARG E 18 -116.6 156.2 N 20.34 CA 21.1 C 21.2 O 19.79 CB 20.88 CG 22.88 CD 23.28 NE 23.14 CZ 23.58 NH1 25.26 NH2 24.54
B SER E 52 -147.4 141.4 N 22.04 CA 23.55 C 24.27 O 24.27 CB 25.93 OG 28.27
B GLN E 30 -159.0 148.4 N 23.4 CA 23.7 C 24.31 O 24.56 CB 25.92 CG 28.66 CD 31.16 OE1 32.17 NE2 32.11
B LEU E 83 -82.7 132.6 N 23.66 CA 23.92 C 23.17 O 24.51 CB 24.94 CG 26.16 CD1 26.23 CD2 25.35
B VAL E 0 -137.9 156.4 N 22.71 CA 21.9 C 22.47 O 21.2 CB 22.0 CG1 22.68 CG2 21.86
B PRO E 31 -73.4 136.2 N 22.72 CA 22.92 C 22.13 O 21.46 CB 23.29 CG 24.86 CD 24.16
B VAL G 0 -57.7 -38.6 N 21.88 CA 21.96 C 23.42 O 22.5 CB 21.18 CG1 22.11 CG2 20.97
B ARG G 150 -56.0 -30.1 N 24.74 CA 27.03 C 26.11 O 29.06 CB 28.79 CG 32.18 CD 33.77 NE 36.31 CZ 37.33 NH1 38.73 NH2 38.48
B ALA G 13 -81.1 0.1 N 23.86 CA 23.67 C 23.09 O 23.45 CB 21.58
B LEU G 2 -82.8 -7.7 N 22.54 CA 21.42 C 22.81 O 22.06 CB 21.96 CG 20.81 CD1 21.81 CD2 19.97
B GLY S 54 70.3 26.6 N 23.96 CA 25.73 C 26.51 O 27.35
B LEU S 51 -89.4 -13.4 N 27.43 CA 28.2 C 29.65 O 29.52 CB 28.57 CG 28.52 CD1 29.23 CD2 28.44
B GLY S 81 89.9 -25.5 N 30.47 CA 33.49 C 35.15 O 36.75
B HIS - 72 -85.0 133.2 N 35.52 CA 36.39 C 36.27 O 36.7 CB 36.48 CG 36.12 ND1 35.79 CD2 36.43 CE1 36.37 NE2 35.95
B ARG - 164 -111.1 123.8 N 36.56 CA 36.67 C 36.22 O 36.05 CB 37.23 CG 37.64 CD 37.49 NE 36.33 CZ 35.93 NH1 35.58 NH2 35.58
B SER B 5 -115.3 179.4 N 35.88 CA 34.53 C 35.55 O 36.88 CB 34.39 OG 31.08
B ASP S 130 -125.2 -9.7 N 35.77 CA 36.51 C 36.68 O 37.58 CB 37.05 CG 24.17 OD1 24.17 OD2 24.17
B GLU S 120 -94.8 168.3 N 36.47 CA 34.41 C 31.36 O 31.44 CB 37.05 CG 40.06 CD 41.32 OE1 42.15 OE2 42.41
B LEU E 66 -98.3 158.1 N 29.04 CA 26.81 C 24.76 O 24.4 CB 27.66 CG 28.84 CD1 29.02 CD2 28.84
B VAL E 13 -128.4 153.0 N 22.65 CA 21.3 C 20.55 O 19.47 CB 21.72 CG1 22.91 CG2 20.11
B ARG E 105 -82.5 117.5 N 20.7 CA 21.66 C 21.2 O 22.78 CB 23.48 CG 27.46 CD 29.29 NE 31.14 CZ 31.94 NH1 30.37 NH2 31.04
B PHE E 1 -116.1 124.5 N 19.44 CA 17.8 C 18.35 O 18.86 CB 17.15 CG 17.27 CD1 18.3 CD2 18.08 CE1 17.38 CE2 17.45 CZ 18.43
B ARG E 75 -112.8 147.0 N 17.28 CA 17.11 C 16.17 O 14.64 CB 17.77 CG 19.17 CD 22.2 NE 25.44 CZ 25.66 NH1 25.34 NH2 27.73
B PHE E 4 -152.0 178.0 N 15.23 CA 16.7 C 16.26 O 16.54 CB 16.92 CG 19.26 CD1 19.31 CD2 18.33 CE1 20.08 CE2 18.74 CZ 19.43
B CYS E 3 -119.8 137.2 N 16.57 CA 16.87 C 16.75 O 16.41 CB 16.77 SG 17.68
B SER E 1 -159.1 152.4 N 17.24 CA 17.53 C 17.9 O 17.35 CB 16.79 OG 19.74
B GLY - 6 136.4 174.7 N 19.26 CA 19.03 C 18.98 O 19.8
B SER B 28 -83.1 157.5 N 19.89 CA 19.8 C 18.84 O 17.32 CB 20.19 OG 22.51
B CYS - 7 -138.7 32.9 N 19.19 CA 20.06 C 21.03 O 21.08 CB 20.41 SG 18.88
B ARG G 136 -56.8 -42.3 N 22.28 CA 22.99 C 22.57 O 22.42 CB 25.11 CG 26.05 CD 28.14 NE 27.29 CZ 27.41 NH1 27.27 NH2 27.27
B ARG G 238 -67.2 -11.4 N 22.47 CA 22.93 C 23.29 O 25.53 CB 22.7 CG 22.14 CD 22.3 NE 21.59 CZ 21.24 NH1 22.44 NH2 23.52
B ALA G 49 -93.8 4.8 N 22.95 CA 22.27 C 22.52 O 22.94 CB 21.84
B ARG - 78 -60.6 136.3 N 21.98 CA 23.1 C 22.07 O 24.1 CB 23.25 CG 25.49 CD 27.36 NE 29.74 CZ 31.58 NH1 34.37 NH2 32.4
B SER - 34 -90.8 172.7 N 20.74 CA 20.21 C 19.97 O 20.37 CB 19.51 OG 19.64
B PRO H 76 -57.4 -39.9 N 20.16 CA 18.78 C 17.36 O 17.94 CB 19.62 CG 20.64 CD 20.57
B HIS H 1 -59.6 -47.8 N 16.23 CA 16.0 C 15.85 O 15.16 CB 16.34 CG 16.47 ND1 16.01 CD2 17.34 CE1 15.68 NE2 17.64
B ASP H 1 -60.5 -40.5 N 16.12 CA 16.79 C 16.6 O 17.13 CB 18.05 CG 19.74 OD1 22.14 OD2 21.4
B LEU H 91 -64.1 -41.7 N 16.39 CA 17.05 C 15.71 O 17.08 CB 17.65 CG 19.77 CD1 20.97 CD2 21.63
B SER H 2 -69.7 -40.5 N 15.82 CA 16.1 C 15.5 O 16.84 CB 17.25 OG 16.63
B LEU H 1 -61.1 -42.8 N 15.35 CA 16.11 C 16.75 O 17.53 CB 15.71 CG 17.54 CD1 17.54 CD2 19.18
B ALA H 23 -65.2 -37.6 N 17.27 CA 17.52 C 17.69 O 19.19 CB 18.39
B SER H 47 -64.7 -43.4 N 16.14 CA 17.74 C 16.86 O 17.56 CB 18.89 OG 24.58
B LEU H 0 -66.3 -46.1 N 16.5 CA 16.75 C 16.72 O 18.56 CB 16.64 CG 16.63 CD1 16.08 CD2 16.4
B LEU H 35 -64.2 -38.3 N 18.74 CA 18.57 C 20.04 O 21.9 CB 18.93 CG 20.3 CD1 20.86 CD2 22.01
B GLY H 74 -65.4 -25.8 N 20.77 CA 22.57 C 22.84 O 26.37
B ALA T 77 -99.5 -0.4 N 22.19 CA 21.69 C 21.08 O 21.95 CB 22.56
B GLY T 63 65.7 33.9 N 20.22 CA 19.31 C 18.52 O 20.15
B ALA - 30 -86.0 -6.2 N 17.37 CA 14.76 C 14.01 O 14.84 CB 16.35
B LEU S 20 -118.0 137.7 N 14.92 CA 15.3 C 16.02 O 16.73 CB 17.04 CG 14.51 CD1 17.2 CD2 16.13
B ARG - 158 -71.5 150.3 N 16.83 CA 17.83 C 17.34 O 16.55 CB 20.69 CG 24.43 CD 20.51 NE 19.63 CZ 18.56 NH1 18.23 NH2 18.68
B PRO - 117 -74.7 128.2 N 17.76 CA 17.93 C 17.41 O 18.73 CB 20.55 CG 21.9 CD 18.38
B PRO - 21 -75.5 154.0 N 19.01 CA 19.08 C 19.6 O 17.11 CB 19.18 CG 21.13 CD 19.08
B PRO S 60 -58.7 138.3 N 20.24 CA 20.86 C 20.73 O 20.4 CB 21.32 CG 24.54 CD 21.74
B GLY S 48 92.9 -135.1 N 19.47 CA 21.86 C 21.94 O 23.4
B SER S 65 -85.1 151.8 N 22.45 CA 23.57 C 22.33 O 21.32 CB 25.31 OG 28.11
B ARG - 183 -68.7 150.1 N 21.85 CA 21.62 C 20.57 O 19.44 CB 23.92 CG 26.32 CD 26.27 NE 26.13 CZ 26.08 NH1 26.08 NH2 26.08
B PRO - 6 -68.9 147.0 N 21.51 CA 20.98 C 21.89 O 21.42 CB 22.55 CG 22.64 CD 21.91
B VAL - 51 -81.6 141.4 N 21.61 CA 22.78 C 21.8 O 22.32 CB 24.44 CG1 28.53 CG2 26.07
B SER - 20 -116.0 27.1 N 20.86 CA 21.25 C 21.47 O 21.37 CB 22.71 OG 24.91
B GLN S 45 -161.1 159.0 N 21.04 CA 20.25 C 20.49 O 18.94 CB 20.83 CG 23.12 CD 24.96 OE1 28.48 NE2 24.73
B PRO - 9 -59.7 151.8 N 19.13 CA 19.4 C 19.05 O 19.07 CB 18.68 CG 19.91 CD 19.12
B CYS E 9 -92.7 148.3 N 18.04 CA 18.72 C 18.03 O 17.91 CB 18.55 SG 23.03
B CYS E 8 -80.6 109.2 N 17.11 CA 17.71 C 16.78 O 18.59 CB 18.44 SG 19.77
B ARG E 3 -136.7 158.1 N 17.11 CA 17.94 C 16.95 O 16.92 CB 17.26 CG 18.13 CD 19.39 NE 22.1 CZ 22.95 NH1 23.57 NH2 25.19
B PRO E 8 -69.3 150.4 N 16.06 CA 16.79 C 17.67 O 18.55 CB 17.02 CG 15.74 CD 16.11
B THR E 65 -113.0 -16.6 N 18.8 CA 19.45 C 19.55 O 20.64 CB 20.28 OG1 28.43 CG2 17.39
B ARG E 153 -148.5 149.3 N 18.61 CA 19.12 C 19.18 O 17.8 CB 20.48 CG 20.34 CD 20.7 NE 20.79 CZ 20.84 NH1 20.85 NH2 20.85
B TYR E 48 -134.6 167.8 N 19.1 CA 19.46 C 20.05 O 20.55 CB 20.37 CG 19.7 CD1 19.74 CD2 20.51 CE1 20.89 CE2 20.6 CZ 20.21 OH 22.55
B GLU E 85 -143.8 156.8 N 19.18 CA 19.5 C 18.52 O 16.58 CB 21.26 CG 22.88 CD 25.22 OE1 27.24 OE2 23.81
B ALA E 47 -73.2 156.5 N 17.84 CA 18.06 C 17.58 O 17.04 CB 20.37
B VAL E 12 -127.3 132.2 N 15.73 CA 15.81 C 14.89 O 14.72 CB 17.22 CG1 18.02 CG2 17.68
B SER E 65 -127.8 150.7 N 15.37 CA 15.52 C 16.26 O 17.29 CB 17.61 OG 18.01
B PHE E 7 -155.0 158.2 N 16.68 CA 16.86 C 16.56 O 16.28 CB 17.3 CG 17.8 CD1 17.44 CD2 17.5 CE1 18.2 CE2 18.69 CZ 19.18
B MET E 84 -96.9 126.2 N 17.1 CA 17.73 C 17.81 O 19.48 CB 20.57 CG 24.19 SD 29.24 CE 27.47
B ASP B 14 -78.4 172.8 N 18.3 CA 19.32 C 20.48 O 20.54 CB 19.87 CG 19.66 OD1 20.97 OD2 20.32
B VAL T 69 -61.4 -14.4 N 22.2 CA 23.3 C 22.52 O 22.91 CB 23.79 CG1 27.62 CG2 25.86
B ASN T 128 -102.2 17.5 N 21.79 CA 20.12 C 18.5 O 19.92 CB 21.34 CG 23.11 OD1 22.77 ND2 23.8
B SER S 88 64.8 33.6 N 17.67 CA 16.77 C 16.86 O 16.67 CB 17.81 OG 19.23
B THR - 60 -115.8 133.0 N 16.05 CA 14.53 C 15.59 O 14.92 CB 15.9 OG1 15.43 CG2 15.28
B TRP E 178 -79.1 138.8 N 14.32 CA 14.32 C 15.24 O 16.12 CB 13.65 CG 14.12 CD1 14.28 CD2 14.68 NE1 14.32 CE2 14.36 CE3 14.63 CZ2 14.98 CZ3 15.24 CH2 14.98
B ARG E 92 -124.4 154.6 N 15.4 CA 15.88 C 14.43 O 15.98 CB 16.35 CG 18.14 CD 19.5 NE 21.39 CZ 23.15 NH1 23.18 NH2 21.59
B THR E 80 -149.8 151.1 N 16.23 CA 17.11 C 17.27 O 17.43 CB 17.38 OG1 18.33 CG2 19.71
B VAL E 35 -134.2 118.2 N 17.76 CA 18.58 C 18.33 O 18.63 CB 20.17 CG1 20.25 CG2 20.31
B ASP E 119 -67.1 148.2 N 19.73 CA 21.0 C 20.67 O 21.97 CB 22.34 CG 21.95 OD1 22.08 OD2 22.08
B ARG E 166 49.4 36.1 N 21.1 CA 21.4 C 20.2 O 20.72 CB 22.38 CG 25.69 CD 27.4 NE 26.73 CZ 26.86 NH1 26.82 NH2 26.82
B LEU E 1 -80.6 -31.2 N 18.55 CA 17.25 C 16.77 O 16.7 CB 17.9 CG 18.75 CD1 22.16 CD2 21.65
B SER E 1 -114.6 140.3 N 16.43 CA 16.91 C 16.41 O 17.72 CB 15.21 OG 15.16
B ALA E 0 -74.6 150.7 N 15.1 CA 14.84 C 16.16 O 16.38 CB 15.06
B THR E 60 -125.4 -8.9 N 16.6 CA 17.45 C 16.81 O 18.23 CB 17.81 OG1 20.47 CG2 19.63
B ALA E 34 -162.0 152.8 N 16.56 CA 16.35 C 16.03 O 15.19 CB 15.82
B CYS E 36 -124.4 163.8 N 15.59 CA 15.75 C 15.53 O 15.78 CB 17.44 SG 18.96
B GLY E 22 -159.8 158.9 N 16.27 CA 16.34 C 17.83 O 16.44
B CYS E 61 -94.7 92.6 N 17.4 CA 18.92 C 21.4 O 20.02 CB 19.28 SG 19.26
B LEU E 69 -90.8 102.7 N 23.81 CA 26.28 C 27.04 O 26.68 CB 26.44 CG 28.58 CD1 28.81 CD2 29.21
B GLY - 50 -128.2 360.0 N 29.54 CA 28.97 C 30.67 O 30.51 OXT 32.17
