A GLY - 34 360.0 -5.9 N 48.76 CA 46.85 C 47.1 O 46.17
A THR T 125 -68.6 -8.9 N 37.93 CA 36.95 C 34.44 O 33.95 CB 67.16 OG1 70.41 CG2 69.18
A ARG T 134 -89.0 -11.2 N 26.49 CA 24.65 C 20.46 O 20.38 CB 65.55 CG 71.89 CD 75.36 NE 79.12 CZ 81.36 NH1 82.76 NH2 82.56
A TYR B 33 -91.2 153.7 N 24.4 CA 24.27 C 23.19 O 24.28 CB 25.8 CG 27.0 CD1 28.0 CD2 29.34 CE1 29.72 CE2 29.83 CZ 31.84 OH 32.53
A VAL - 1 -87.4 129.3 N 22.2 CA 22.37 C 22.85 O 23.38 CB 18.54 CG1 17.2 CG2 18.71
A THR B 36 -87.4 164.2 N 21.73 CA 21.83 C 21.87 O 22.35 CB 24.16 OG1 23.87 CG2 26.66
A HIS H 56 -59.1 -36.4 N 21.31 CA 22.97 C 23.23 O 20.65 CB 28.86 CG 30.99 ND1 31.73 CD2 33.29 CE1 31.74 NE2 34.98
A LYS H 146 -69.7 -38.6 N 24.03 CA 25.86 C 24.61 O 23.01 CB 47.96 CG 53.87 CD 55.64 CE 56.62 NZ 55.88
A GLN H 63 -68.9 -34.7 N 22.6 CA 22.79 C 19.74 O 19.25 CB 25.03 CG 26.3 CD 28.78 OE1 25.36 NE2 25.35
A LEU H 2 -65.2 -47.0 N 22.5 CA 21.16 C 22.33 O 20.26 CB 22.19 CG 22.44 CD1 23.63 CD2 24.17
A ASP H 90 -59.6 -41.8 N 20.85 CA 23.33 C 23.54 O 21.76 CB 35.77 CG 39.72 OD1 43.48 OD2 41.63
A GLU H 100 -65.1 -42.4 N 21.24 CA 21.8 C 21.84 O 20.02 CB 42.56 CG 47.88 CD 52.02 OE1 54.84 OE2 54.84
A LYS H 73 -64.8 -38.4 N 19.83 CA 21.8 C 19.54 O 17.27 CB 35.24 CG 40.57 CD 45.42 CE 47.04 NZ 45.14
A LEU H 13 -70.4 -12.7 N 19.58 CA 21.2 C 22.07 O 22.01 CB 26.79 CG 28.95 CD1 28.34 CD2 27.83
A LYS T 154 -61.7 -26.9 N 22.45 CA 24.54 C 24.77 O 22.28 CB 39.85 CG 43.81 CD 47.25 CE 47.78 NZ 50.29
A ASN T 69 -99.8 28.1 N 24.95 CA 27.4 C 25.34 O 26.31 CB 69.26 CG 74.31 OD1 78.37 ND2 77.73
A PHE B 20 -130.0 163.9 N 21.41 CA 20.65 C 20.6 O 21.02 CB 17.8 CG 18.83 CD1 18.23 CD2 17.55 CE1 20.81 CE2 17.05 CZ 17.95
A VAL - 1 -100.8 130.1 N 19.03 CA 19.93 C 19.59 O 17.66 CB 27.41 CG1 26.83 CG2 26.8
A THR B 42 -79.0 153.6 N 21.34 CA 19.23 C 18.78 O 17.84 CB 19.11 OG1 17.61 CG2 21.21
A LYS H 67 -56.8 -39.0 N 18.49 CA 18.99 C 19.14 O 16.34 CB 42.42 CG 46.14 CD 53.25 CE 54.54 NZ 57.38
A THR H 105 -58.5 -50.7 N 19.8 CA 21.77 C 20.25 O 18.62 CB 32.39 OG1 38.83 CG2 37.55
A GLU H 63 -58.8 -47.2 N 18.86 CA 20.71 C 18.68 O 18.89 CB 25.47 CG 29.87 CD 32.37 OE1 27.48 OE2 33.96
A PHE H 3 -62.6 -46.0 N 17.79 CA 15.32 C 15.13 O 12.5 CB 19.84 CG 22.94 CD1 24.36 CD2 25.94 CE1 24.18 CE2 28.14 CZ 23.78
A LYS H 72 -61.1 -41.8 N 16.87 CA 18.42 C 17.78 O 16.15 CB 25.62 CG 33.67 CD 36.52 CE 37.93 NZ 37.45
A GLU H 125 -59.4 -45.7 N 18.46 CA 18.39 C 17.41 O 15.1 CB 42.22 CG 50.16 CD 53.93 OE1 57.93 OE2 56.7
A PHE H 11 -63.6 -45.6 N 15.91 CA 15.05 C 14.54 O 12.13 CB 23.67 CG 26.45 CD1 30.64 CD2 28.9 CE1 30.8 CE2 29.0 CZ 30.11
A GLN H 53 -54.9 -49.7 N 17.9 CA 16.51 C 17.09 O 14.9 CB 19.11 CG 20.7 CD 21.02 OE1 22.12 NE2 21.68
A THR H 67 -58.7 -50.0 N 18.43 CA 20.47 C 19.53 O 18.8 CB 28.73 OG1 36.25 CG2 26.3
A VAL H 67 -60.2 -39.1 N 20.01 CA 18.25 C 18.16 O 17.85 CB 26.89 CG1 28.2 CG2 28.46
A VAL H 2 -68.1 -50.5 N 15.78 CA 14.96 C 13.29 O 12.94 CB 18.82 CG1 21.86 CG2 19.95
A MET H 79 -64.7 -36.9 N 16.51 CA 16.43 C 17.65 O 16.69 CB 19.25 CG 21.25 SD 22.76 CE 28.99
A GLU H 132 -68.3 -34.6 N 18.22 CA 18.81 C 19.64 O 19.54 CB 23.77 CG 24.69 CD 28.12 OE1 31.61 OE2 29.75
A SER H 35 -69.9 -34.3 N 16.32 CA 13.49 C 13.22 O 12.77 CB 19.6 OG 16.56
A PHE H 9 -65.2 -37.3 N 14.45 CA 15.11 C 16.05 O 14.29 CB 17.36 CG 15.01 CD1 15.98 CD2 14.95 CE1 17.47 CE2 17.74 CZ 16.42
A ALA H 57 -60.4 -45.7 N 16.91 CA 17.91 C 16.16 O 16.07 CB 23.87
A VAL H 86 -59.9 -45.4 N 16.18 CA 17.12 C 19.56 O 19.24 CB 17.94 CG1 17.59 CG2 16.52
A GLN H 9 -62.0 -37.5 N 18.2 CA 20.4 C 19.17 O 18.09 CB 26.92 CG 30.78 CD 33.5 OE1 30.79 NE2 34.37
A ASN H 88 -58.8 -41.3 N 20.35 CA 20.29 C 19.22 O 17.69 CB 22.77 CG 26.84 OD1 29.11 ND2 24.15
A GLN H 142 -63.4 -44.6 N 18.9 CA 18.45 C 16.98 O 16.7 CB 26.15 CG 35.98 CD 36.01 OE1 41.07 NE2 35.43
A ASN H 68 -66.4 -46.9 N 12.92 CA 14.02 C 11.83 O 10.97 CB 18.92 CG 20.02 OD1 21.22 ND2 21.42
A ILE H 6 -63.8 -41.2 N 16.73 CA 18.78 C 19.96 O 20.5 CB 19.37 CG1 17.9 CG2 21.85 CD1 17.25
A ASP H 108 -67.8 -36.1 N 17.45 CA 19.18 C 17.96 O 17.65 CB 21.44 CG 24.87 OD1 24.08 OD2 27.08
A ALA H 43 -62.6 -42.6 N 18.8 CA 17.57 C 17.51 O 14.98 CB 20.46
A GLN H 15 -69.8 -33.3 N 17.94 CA 18.72 C 18.4 O 18.11 CB 21.09 CG 24.13 CD 24.68 OE1 24.76 NE2 21.3
A GLY H 18 -60.2 -38.7 N 15.98 CA 17.8 C 18.44 O 16.96
A GLU H 121 -70.7 -36.2 N 16.6 CA 18.01 C 18.2 O 18.18 CB 46.54 CG 54.75 CD 59.27 OE1 61.58 OE2 62.53
A GLN H 66 -67.8 -36.6 N 20.28 CA 20.35 C 18.92 O 20.99 CB 21.74 CG 23.35 CD 26.0 OE1 27.38 NE2 27.31
A ILE H 1 -66.8 -43.1 N 16.91 CA 15.48 C 17.4 O 15.05 CB 16.13 CG1 16.73 CG2 17.36 CD1 17.4
A LYS H 124 -59.4 -41.5 N 17.93 CA 20.06 C 20.01 O 18.12 CB 32.78 CG 38.19 CD 41.8 CE 42.13 NZ 41.67
A GLU H 118 -64.8 -36.6 N 13.0 CA 15.99 C 14.28 O 13.95 CB 32.5 CG 40.49 CD 45.77 OE1 49.85 OE2 49.67
A LEU H 5 -67.8 -36.6 N 17.73 CA 17.28 C 18.05 O 17.24 CB 16.03 CG 16.93 CD1 15.74 CD2 17.57
A GLN H 56 -64.6 -47.0 N 21.68 CA 22.7 C 21.78 O 21.95 CB 22.41 CG 24.68 CD 27.61 OE1 32.21 NE2 28.79
A VAL H 79 -62.8 -44.1 N 20.85 CA 20.43 C 20.21 O 18.54 CB 17.86 CG1 20.1 CG2 18.48
A GLU H 93 -66.7 -39.1 N 21.46 CA 22.43 C 22.04 O 20.69 CB 34.07 CG 41.41 CD 42.38 OE1 45.86 OE2 47.23
A GLN H 20 -66.1 -39.4 N 19.28 CA 18.77 C 19.05 O 18.31 CB 20.76 CG 24.01 CD 23.65 OE1 25.41 NE2 23.56
A LYS H 149 -68.1 -42.6 N 22.73 CA 25.57 C 24.44 O 24.19 CB 38.24 CG 42.36 CD 47.9 CE 49.56 NZ 50.5
A ALA H 39 -60.8 -44.5 N 22.62 CA 20.73 C 21.47 O 21.37 CB 21.17
A GLN H 10 -71.5 -30.1 N 21.23 CA 21.07 C 20.64 O 19.32 CB 24.43 CG 24.76 CD 27.77 OE1 26.1 NE2 26.52
A GLY H 12 -64.4 -39.5 N 17.99 CA 18.27 C 19.68 O 18.2
A LYS H 126 -65.5 -40.6 N 23.26 CA 23.75 C 23.54 O 21.97 CB 37.55 CG 41.8 CD 44.12 CE 48.39 NZ 50.02
A THR H 37 -62.1 -43.3 N 20.25 CA 20.14 C 19.32 O 20.1 CB 22.87 OG1 20.51 CG2 23.23
A LEU H 6 -60.2 -42.0 N 20.33 CA 21.39 C 23.98 O 23.91 CB 18.72 CG 17.06 CD1 21.59 CD2 19.88
A GLN H 116 -64.2 -37.7 N 28.1 CA 30.75 C 29.63 O 31.63 CB 39.42 CG 47.14 CD 48.8 OE1 53.45 NE2 51.94
A LEU H 121 -64.2 -39.0 N 25.97 CA 26.24 C 24.98 O 24.78 CB 40.46 CG 44.43 CD1 45.98 CD2 44.58
A ILE H 0 -64.8 -47.6 N 22.67 CA 21.43 C 21.01 O 20.94 CB 24.5 CG1 23.83 CG2 21.99 CD1 25.24
A LEU H 79 -55.8 -38.3 N 27.13 CA 29.26 C 30.78 O 30.7 CB 30.88 CG 32.88 CD1 32.69 CD2 32.74
A GLU H 134 -69.3 -41.2 N 24.85 CA 27.45 C 26.66 O 27.66 CB 76.97 CG 84.45 CD 88.32 OE1 92.07 OE2 90.38
A ALA H 35 -61.6 -48.6 N 26.99 CA 27.32 C 27.45 O 27.71 CB 24.03
A LEU H 11 -55.4 -36.2 N 31.88 CA 33.75 C 34.82 O 34.81 CB 26.42 CG 25.88 CD1 25.88 CD2 24.31
A GLN H 94 -70.1 -39.7 N 31.12 CA 33.12 C 32.35 O 32.6 CB 63.22 CG 69.23 CD 72.17 OE1 75.02 NE2 73.9
A GLY H 34 -65.4 -35.2 N 33.15 CA 31.42 C 31.67 O 30.44
A ILE H 3 -67.7 -50.6 N 29.47 CA 28.28 C 28.99 O 27.62 CB 23.46 CG1 23.18 CG2 23.95 CD1 21.55
A ASN H 41 -55.4 -35.0 N 22.5 CA 25.27 C 26.07 O 24.87 CB 34.05 CG 36.27 OD1 39.99 ND2 36.27
A LYS H 135 -72.0 -38.1 N 36.79 CA 38.78 C 37.99 O 39.35 CB 64.06 CG 69.1 CD 73.31 CE 74.83 NZ 77.29
A ARG H 57 -67.5 -27.9 N 31.27 CA 30.08 C 30.03 O 29.99 CB 35.6 CG 35.69 CD 36.04 NE 39.21 CZ 38.24 NH1 38.87 NH2 39.18
A LEU H 0 -78.4 -37.1 N 24.86 CA 25.16 C 26.26 O 25.19 CB 26.36 CG 25.32 CD1 23.19 CD2 25.19
A ASP H 75 -63.4 -42.1 N 33.71 CA 36.05 C 36.54 O 37.18 CB 55.44 CG 57.0 OD1 59.32 OD2 60.54
A ASN H 126 -63.8 -40.2 N 31.86 CA 33.55 C 33.38 O 32.76 CB 67.72 CG 71.19 OD1 74.02 ND2 71.91
A LEU H 51 -68.2 -35.9 N 33.69 CA 32.88 C 32.73 O 32.27 CB 31.26 CG 33.58 CD1 32.35 CD2 31.96
A GLU T 85 -87.5 3.9 N 27.72 CA 30.04 C 32.81 O 32.08 CB 34.51 CG 33.47 CD 32.72 OE1 28.41 OE2 32.17
A SER - 153 76.9 360.0 N 58.52 CA 62.81 C 65.06 O 66.89 CB 66.98 OG 68.38 OXT 71.28
B THR - 111 360.0 179.2 N 86.17 CA 84.53 C 83.85 O 85.16 CB 49.44 OG1 48.05 CG2 48.85
B ARG - 162 -117.5 -11.7 N 48.64 CA 44.77 C 40.26 O 39.69 CB 52.58 CG 55.86 CD 58.46 NE 59.49 CZ 60.47 NH1 61.95 NH2 62.37
B TYR B 74 -95.0 145.6 N 30.54 CA 26.25 C 23.77 O 22.41 CB 30.71 CG 31.68 CD1 30.75 CD2 32.07 CE1 32.86 CE2 33.13 CZ 33.61 OH 34.57
B VAL - 1 -82.4 125.5 N 24.81 CA 24.19 C 22.49 O 22.97 CB 22.49 CG1 24.54 CG2 22.48
B THR B 31 -86.1 158.0 N 21.47 CA 20.62 C 18.86 O 17.26 CB 21.86 OG1 20.09 CG2 22.02
B HIS H 69 -55.9 -43.0 N 18.8 CA 18.42 C 19.06 O 17.22 CB 24.41 CG 25.84 ND1 28.25 CD2 26.21 CE1 26.59 NE2 28.78
B LYS H 119 -66.2 -43.9 N 18.94 CA 19.04 C 17.97 O 16.12 CB 25.11 CG 29.52 CD 32.6 CE 23.65 NZ 34.89
B GLN H 45 -57.8 -43.0 N 19.68 CA 18.04 C 16.37 O 14.7 CB 22.08 CG 26.48 CD 29.57 OE1 29.14 NE2 28.8
B LEU H 5 -58.8 -51.4 N 16.96 CA 15.99 C 16.32 O 15.24 CB 18.64 CG 20.43 CD1 21.42 CD2 22.61
B ASP H 88 -54.8 -48.4 N 14.13 CA 16.11 C 16.2 O 15.78 CB 40.14 CG 46.6 OD1 52.78 OD2 50.56
B GLU H 88 -59.0 -44.1 N 18.39 CA 20.26 C 19.84 O 20.81 CB 23.52 CG 27.89 CD 30.69 OE1 31.14 OE2 35.16
B LYS H 62 -67.4 -44.3 N 19.67 CA 21.47 C 19.87 O 18.79 CB 27.45 CG 32.64 CD 38.19 CE 39.99 NZ 42.62
B LEU H 9 -66.6 -15.6 N 16.87 CA 17.25 C 17.16 O 14.9 CB 26.92 CG 30.14 CD1 30.96 CD2 33.84
B LYS T 152 -63.2 -22.4 N 19.85 CA 21.45 C 21.89 O 24.28 CB 43.79 CG 49.36 CD 53.7 CE 55.17 NZ 57.75
B ASN T 69 -91.7 9.1 N 17.73 CA 19.18 C 17.96 O 16.25 CB 45.29 CG 50.52 OD1 54.41 ND2 50.73
B PHE B 20 -115.9 146.6 N 17.16 CA 16.95 C 19.0 O 18.83 CB 17.35 CG 17.15 CD1 18.06 CD2 18.13 CE1 20.63 CE2 17.39 CZ 21.58
B VAL - 0 -77.3 132.0 N 20.16 CA 20.22 C 20.84 O 20.07 CB 25.52 CG1 24.76 CG2 23.64
B THR B 32 -74.6 156.0 N 19.53 CA 18.15 C 16.04 O 14.29 CB 15.08 OG1 13.35 CG2 18.04
B LYS H 47 -60.1 -43.2 N 16.73 CA 18.11 C 16.82 O 14.83 CB 27.23 CG 34.74 CD 38.33 CE 40.6 NZ 41.33
B THR H 107 -59.3 -45.4 N 16.77 CA 17.16 C 16.38 O 17.4 CB 19.7 OG1 20.83 CG2 18.34
B GLU H 53 -60.0 -47.0 N 15.25 CA 15.1 C 12.82 O 10.96 CB 20.58 CG 29.1 CD 30.39 OE1 24.59 OE2 30.97
B PHE H 5 -63.7 -45.1 N 12.57 CA 14.29 C 13.87 O 13.35 CB 16.53 CG 23.63 CD1 25.49 CD2 26.32 CE1 26.97 CE2 29.13 CZ 28.26
B LYS H 95 -64.4 -37.3 N 18.57 CA 19.35 C 18.14 O 17.62 CB 23.55 CG 31.67 CD 33.22 CE 33.96 NZ 29.16
B GLU H 132 -63.5 -45.5 N 18.7 CA 18.25 C 18.32 O 17.85 CB 21.11 CG 28.53 CD 30.5 OE1 34.74 OE2 32.5
B PHE H 15 -64.2 -45.5 N 15.15 CA 13.93 C 14.37 O 13.56 CB 20.23 CG 19.58 CD1 23.25 CD2 21.56 CE1 25.27 CE2 21.01 CZ 23.57
B GLN H 46 -55.9 -45.9 N 19.71 CA 21.91 C 21.44 O 19.03 CB 25.52 CG 30.27 CD 36.1 OE1 37.11 NE2 35.26
B THR H 66 -64.4 -37.5 N 22.98 CA 25.94 C 25.39 O 26.83 CB 25.88 OG1 33.78 CG2 21.87
B VAL H 58 -65.8 -41.1 N 22.13 CA 20.23 C 17.49 O 17.39 CB 25.51 CG1 30.61 CG2 28.87
B VAL H 1 -64.2 -49.4 N 17.19 CA 16.7 C 16.71 O 16.35 CB 15.65 CG1 16.38 CG2 16.54
B MET H 95 -63.3 -37.1 N 14.81 CA 18.09 C 17.95 O 16.96 CB 19.0 CG 25.04 SD 25.08 CE 29.66
B GLU H 126 -72.6 -28.9 N 23.29 CA 24.2 C 24.33 O 23.37 CB 27.88 CG 29.84 CD 34.4 OE1 34.51 OE2 35.16
B SER H 39 -71.5 -36.3 N 19.56 CA 17.75 C 16.31 O 13.19 CB 25.05 OG 29.84
B PHE H 13 -67.4 -37.3 N 16.12 CA 15.29 C 16.81 O 14.63 CB 18.23 CG 15.66 CD1 15.89 CD2 16.14 CE1 14.13 CE2 16.18 CZ 16.34
B ALA H 56 -59.1 -43.8 N 18.38 CA 20.89 C 20.97 O 22.43 CB 22.55
B VAL H 83 -64.4 -41.7 N 19.93 CA 20.13 C 20.42 O 17.44 CB 25.47 CG1 24.86 CG2 27.13
B GLN H 1 -59.9 -43.1 N 20.07 CA 21.2 C 21.23 O 20.98 CB 23.45 CG 23.21 CD 23.5 OE1 20.42 NE2 21.59
B ASN H 78 -63.1 -35.6 N 17.89 CA 18.73 C 18.92 O 16.67 CB 24.48 CG 27.43 OD1 28.83 ND2 30.81
B GLN H 135 -59.5 -54.1 N 24.57 CA 27.42 C 23.79 O 23.88 CB 72.03 CG 81.0 CD 85.65 OE1 89.41 NE2 88.73
B ASN H 64 -66.1 -39.3 N 21.01 CA 19.38 C 17.83 O 14.83 CB 27.2 CG 32.65 OD1 34.96 ND2 34.29
B ILE H 17 -65.0 -41.0 N 15.29 CA 15.91 C 16.72 O 13.56 CB 17.29 CG1 20.35 CG2 16.28 CD1 26.13
B ASP H 113 -65.1 -45.7 N 21.17 CA 21.11 C 21.74 O 19.69 CB 21.85 CG 25.48 OD1 23.87 OD2 28.33
B ALA H 49 -61.0 -42.8 N 20.16 CA 19.13 C 18.77 O 16.95 CB 21.75
B GLN H 16 -70.9 -30.6 N 17.14 CA 16.82 C 17.51 O 16.07 CB 21.36 CG 19.9 CD 25.4 OE1 26.09 NE2 25.53
B GLY H 23 -63.5 -38.2 N 17.58 CA 18.42 C 19.43 O 19.1
B GLU H 110 -66.6 -42.8 N 21.62 CA 21.92 C 21.36 O 20.38 CB 44.89 CG 53.5 CD 56.2 OE1 60.51 OE2 59.57
B GLN H 56 -62.6 -39.5 N 15.91 CA 16.28 C 14.23 O 12.73 CB 26.6 CG 33.26 CD 36.86 OE1 38.98 NE2 38.24
B ILE H 2 -61.3 -48.8 N 18.88 CA 18.4 C 19.3 O 18.16 CB 17.84 CG1 23.16 CG2 17.81 CD1 27.14
B LYS H 112 -58.8 -42.8 N 18.72 CA 20.64 C 19.86 O 19.22 CB 31.2 CG 38.03 CD 41.11 CE 42.62 NZ 42.75
B GLU H 99 -55.4 -51.6 N 21.18 CA 23.39 C 21.07 O 20.67 CB 57.95 CG 67.28 CD 71.3 OE1 75.05 OE2 76.48
B LEU H 8 -62.1 -39.2 N 20.2 CA 17.48 C 16.9 O 17.56 CB 16.72 CG 15.65 CD1 17.26 CD2 19.08
B GLN H 72 -62.0 -44.1 N 17.19 CA 18.97 C 19.6 O 20.07 CB 21.96 CG 23.85 CD 26.73 OE1 26.03 NE2 24.45
B VAL H 82 -64.4 -44.7 N 20.46 CA 20.52 C 21.31 O 20.04 CB 27.3 CG1 29.23 CG2 30.29
B GLU H 96 -63.7 -39.2 N 20.8 CA 22.67 C 19.92 O 18.93 CB 41.1 CG 52.07 CD 55.67 OE1 60.14 OE2 60.47
B GLN H 9 -66.7 -43.9 N 17.42 CA 18.87 C 19.72 O 18.47 CB 25.26 CG 32.9 CD 34.74 OE1 27.73 NE2 34.84
B LYS H 143 -60.0 -47.9 N 23.43 CA 24.49 C 23.71 O 24.95 CB 57.33 CG 62.24 CD 67.09 CE 68.81 NZ 72.01
B ALA H 38 -55.4 -55.3 N 22.13 CA 22.79 C 22.53 O 22.64 CB 23.37
B GLN H 8 -61.1 -34.0 N 22.44 CA 22.49 C 22.13 O 22.35 CB 23.88 CG 27.27 CD 27.8 OE1 27.33 NE2 25.92
B GLY H 23 -60.4 -41.4 N 22.9 CA 25.06 C 25.2 O 28.13
B LYS H 123 -62.4 -49.4 N 26.66 CA 28.48 C 28.28 O 27.2 CB 61.17 CG 65.56 CD 68.09 CE 70.39 NZ 73.44
B THR H 46 -60.3 -42.4 N 25.78 CA 26.67 C 24.88 O 26.41 CB 31.86 OG1 33.4 CG2 32.75
B LEU H 4 -58.2 -45.8 N 21.37 CA 22.01 C 23.05 O 19.93 CB 20.96 CG 22.67 CD1 20.68 CD2 20.6
B GLN H 112 -60.9 -40.2 N 23.28 CA 25.59 C 25.99 O 26.46 CB 38.99 CG 45.31 CD 47.19 OE1 52.16 NE2 49.91
B LEU H 105 -62.1 -44.4 N 28.13 CA 28.8 C 29.29 O 27.04 CB 33.89 CG 35.41 CD1 36.6 CD2 36.5
B ILE H 11 -59.6 -45.7 N 23.18 CA 23.55 C 24.31 O 23.83 CB 24.63 CG1 25.16 CG2 21.27 CD1 28.88
B LEU H 58 -55.0 -46.5 N 26.19 CA 27.54 C 27.84 O 28.26 CB 29.92 CG 32.04 CD1 31.77 CD2 32.06
B GLU H 123 -60.2 -47.7 N 30.91 CA 32.94 C 32.69 O 31.51 CB 48.16 CG 52.05 CD 56.21 OE1 57.28 OE2 58.63
B ALA H 42 -53.3 -42.5 N 24.41 CA 26.27 C 26.31 O 28.24 CB 34.46
B LEU H 10 -61.8 -32.6 N 28.87 CA 28.94 C 30.75 O 30.43 CB 28.18 CG 27.72 CD1 26.98 CD2 27.32
B GLN H 122 -63.2 -45.7 N 32.97 CA 33.62 C 30.91 O 31.27 CB 54.81 CG 60.58 CD 63.99 OE1 66.43 NE2 65.14
B GLY H 34 -68.9 -30.0 N 28.7 CA 27.83 C 27.71 O 25.96
B ILE H 3 -70.2 -44.2 N 25.62 CA 24.21 C 25.79 O 22.44 CB 23.92 CG1 22.98 CG2 24.8 CD1 24.94
B ASN H 53 -61.3 -35.1 N 26.92 CA 30.53 C 30.62 O 30.44 CB 48.6 CG 53.03 OD1 55.25 ND2 54.97
B LYS H 149 -68.6 -39.3 N 30.0 CA 30.62 C 29.0 O 27.56 CB 52.66 CG 54.49 CD 57.53 CE 58.95 NZ 61.38
B ARG H 63 -68.5 -36.3 N 29.26 CA 28.6 C 28.99 O 29.45 CB 33.92 CG 33.04 CD 35.87 NE 36.4 CZ 35.78 NH1 37.2 NH2 34.79
B LEU H 0 -66.6 -47.1 N 29.04 CA 29.92 C 31.14 O 30.83 CB 25.67 CG 24.63 CD1 24.17 CD2 24.29
B ASP H 64 -57.3 -37.8 N 31.58 CA 33.52 C 33.28 O 33.44 CB 42.97 CG 44.56 OD1 46.59 OD2 48.68
B ASN H 122 -64.1 -42.8 N 33.41 CA 34.37 C 35.15 O 35.9 CB 35.17 CG 35.15 OD1 35.92 ND2 34.42
B LEU H 49 -71.7 -23.2 N 29.45 CA 31.47 C 33.48 O 33.33 CB 28.71 CG 27.23 CD1 26.54 CD2 28.79
B GLU H 84 -116.3 -49.5 N 38.01 CA 42.54 C 45.19 O 46.07 CB 62.21 CG 64.65 CD 66.07 OE1 67.62 OE2 66.27
B SER - 136 -97.5 360.0 N 82.92 CA 84.3 C 85.11 O 84.74 CB 62.35 OG 63.96 OXT 63.9
C GLY - 28 360.0 9.0 N 49.54 CA 48.8 C 47.43 O 47.02
C THR - 127 -75.3 -42.1 N 42.34 CA 40.44 C 38.42 O 38.84 CB 50.28 OG1 53.58 CG2 53.3
C ARG S 176 -84.2 -46.0 N 29.41 CA 27.41 C 23.16 O 20.62 CB 44.14 CG 48.18 CD 51.74 NE 54.74 CZ 56.87 NH1 57.03 NH2 57.34
C TYR B 41 -109.4 156.0 N 25.06 CA 24.24 C 24.94 O 22.03 CB 25.3 CG 26.73 CD1 26.97 CD2 27.53 CE1 25.85 CE2 26.3 CZ 27.11 OH 26.86
C VAL - 1 -72.9 136.6 N 22.82 CA 23.2 C 21.99 O 22.54 CB 24.21 CG1 28.66 CG2 27.24
C THR B 10 -98.0 161.7 N 21.55 CA 21.48 C 20.45 O 17.81 CB 23.6 OG1 23.96 CG2 25.63
C HIS H 41 -61.7 -29.5 N 22.88 CA 24.58 C 24.61 O 23.84 CB 30.88 CG 33.37 ND1 33.78 CD2 34.96 CE1 32.16 NE2 34.19
C LYS H 148 -71.7 -41.1 N 25.05 CA 25.44 C 23.11 O 23.42 CB 39.02 CG 45.0 CD 46.95 CE 49.71 NZ 51.0
C GLN H 54 -67.6 -35.3 N 21.11 CA 18.67 C 16.73 O 15.6 CB 27.32 CG 33.88 CD 35.73 OE1 35.81 NE2 39.88
C LEU H 2 -69.4 -46.4 N 19.65 CA 18.17 C 18.68 O 18.79 CB 16.03 CG 16.38 CD1 16.67 CD2 17.4
C ASP H 87 -58.1 -41.3 N 21.76 CA 23.08 C 23.28 O 22.25 CB 29.4 CG 34.24 OD1 37.14 OD2 35.93
C GLU H 80 -63.4 -42.7 N 21.24 CA 22.54 C 20.94 O 18.35 CB 58.31 CG 66.56 CD 71.28 OE1 74.74 OE2 76.7
C LYS H 64 -65.1 -43.7 N 21.22 CA 21.91 C 19.79 O 19.87 CB 30.36 CG 36.66 CD 40.58 CE 43.12 NZ 45.4
C LEU H 15 -66.7 -15.2 N 17.85 CA 19.36 C 20.14 O 19.45 CB 18.95 CG 19.25 CD1 21.53 CD2 20.89
C LYS T 136 -59.4 -27.6 N 23.48 CA 26.84 C 26.41 O 27.83 CB 33.56 CG 36.49 CD 39.58 CE 42.22 NZ 46.64
C ASN T 70 -96.0 14.4 N 22.13 CA 20.22 C 19.4 O 16.69 CB 71.67 CG 77.86 OD1 82.34 ND2 78.44
C PHE B 20 -116.0 154.0 N 18.82 CA 18.6 C 19.3 O 18.99 CB 18.73 CG 16.35 CD1 15.99 CD2 17.43 CE1 16.81 CE2 17.87 CZ 14.23
C VAL - 1 -81.5 131.2 N 19.52 CA 20.41 C 20.85 O 19.45 CB 28.25 CG1 27.24 CG2 30.34
C THR B 39 -83.9 156.8 N 17.62 CA 16.58 C 15.55 O 15.28 CB 18.04 OG1 14.64 CG2 18.54
C LYS H 54 -59.7 -36.9 N 14.67 CA 17.6 C 17.38 O 16.65 CB 42.35 CG 48.43 CD 53.6 CE 57.3 NZ 58.55
C THR H 105 -57.9 -47.7 N 23.08 CA 24.27 C 23.56 O 23.35 CB 27.55 OG1 30.08 CG2 29.83
C GLU H 54 -67.0 -45.6 N 22.18 CA 23.38 C 21.23 O 22.39 CB 27.85 CG 32.43 CD 34.89 OE1 32.32 OE2 35.14
C PHE H 2 -57.7 -55.0 N 16.27 CA 16.15 C 15.42 O 11.52 CB 16.56 CG 20.9 CD1 22.33 CD2 23.82 CE1 23.53 CE2 23.08 CZ 25.36
C LYS H 90 -62.1 -38.0 N 16.41 CA 20.18 C 17.36 O 17.14 CB 25.54 CG 31.88 CD 35.36 CE 39.92 NZ 44.15
C GLU H 127 -56.8 -48.7 N 18.33 CA 19.35 C 19.88 O 18.81 CB 59.09 CG 68.48 CD 74.58 OE1 78.93 OE2 77.16
C PHE H 9 -65.1 -37.0 N 18.28 CA 16.43 C 16.31 O 16.43 CB 21.22 CG 22.75 CD1 22.49 CD2 22.23 CE1 23.47 CE2 22.22 CZ 22.51
C GLN H 53 -57.0 -42.3 N 16.31 CA 16.98 C 17.91 O 15.65 CB 25.63 CG 26.3 CD 28.1 OE1 28.37 NE2 27.54
C THR H 86 -66.0 -38.6 N 24.72 CA 26.84 C 26.97 O 27.28 CB 27.9 OG1 34.61 CG2 30.08
C VAL H 60 -64.1 -40.7 N 18.33 CA 17.01 C 16.06 O 13.42 CB 29.41 CG1 31.24 CG2 31.15
C VAL H 0 -69.3 -46.5 N 16.88 CA 16.49 C 17.5 O 14.95 CB 14.65 CG1 16.78 CG2 14.16
C MET H 110 -63.2 -38.1 N 19.65 CA 22.47 C 23.56 O 22.44 CB 34.8 CG 41.36 SD 49.82 CE 47.48
C GLU H 140 -70.7 -35.0 N 26.16 CA 27.08 C 27.34 O 27.54 CB 37.32 CG 42.44 CD 45.82 OE1 48.65 OE2 48.5
C SER H 30 -63.1 -48.5 N 22.24 CA 21.16 C 17.89 O 17.46 CB 26.77 OG 29.72
C PHE H 12 -60.8 -40.1 N 17.98 CA 16.2 C 17.54 O 16.68 CB 17.08 CG 15.96 CD1 16.87 CD2 15.97 CE1 17.68 CE2 15.67 CZ 16.39
C ALA H 57 -57.5 -49.0 N 19.18 CA 19.9 C 19.26 O 18.48 CB 17.93
C VAL H 85 -67.4 -43.0 N 20.12 CA 21.06 C 20.45 O 20.56 CB 23.27 CG1 27.63 CG2 25.97
C GLN H 9 -67.0 -44.9 N 16.47 CA 16.74 C 15.96 O 17.31 CB 18.16 CG 20.83 CD 21.76 OE1 22.86 NE2 21.49
C ASN H 55 -64.4 -28.5 N 17.32 CA 18.38 C 18.78 O 17.91 CB 23.57 CG 26.77 OD1 27.4 ND2 25.81
C GLN H 133 -71.5 -36.5 N 18.46 CA 19.89 C 18.04 O 14.54 CB 30.67 CG 39.57 CD 44.55 OE1 51.06 NE2 44.87
C ASN H 74 -70.2 -44.0 N 16.79 CA 18.25 C 15.9 O 16.24 CB 43.21 CG 48.34 OD1 51.85 ND2 52.81
C ILE H 1 -60.8 -40.5 N 18.39 CA 19.96 C 20.68 O 19.45 CB 24.59 CG1 23.06 CG2 25.94 CD1 27.09
C ASP H 108 -68.4 -38.2 N 19.0 CA 20.28 C 19.52 O 19.19 CB 31.97 CG 37.77 OD1 41.47 OD2 42.56
C ALA H 48 -63.4 -40.7 N 18.36 CA 18.41 C 18.68 O 19.1 CB 21.25
C GLN H 16 -68.7 -35.2 N 18.26 CA 18.63 C 17.88 O 18.78 CB 18.49 CG 19.34 CD 21.68 OE1 20.47 NE2 20.99
C GLY H 19 -63.6 -36.9 N 14.88 CA 16.05 C 18.7 O 18.16
C GLU H 114 -64.9 -42.9 N 22.01 CA 25.0 C 22.01 O 20.73 CB 71.34 CG 77.37 CD 82.72 OE1 85.88 OE2 85.94
C GLN H 61 -63.9 -38.0 N 18.42 CA 19.15 C 16.32 O 17.0 CB 22.51 CG 27.17 CD 29.42 OE1 29.21 NE2 29.57
C ILE H 0 -65.7 -44.0 N 18.51 CA 17.74 C 19.86 O 18.16 CB 18.76 CG1 18.19 CG2 20.01 CD1 19.5
C LYS H 113 -60.8 -42.2 N 20.74 CA 22.66 C 21.6 O 20.94 CB 39.7 CG 46.81 CD 49.26 CE 50.78 NZ 52.24
C GLU H 112 -61.5 -42.0 N 22.25 CA 23.2 C 21.01 O 19.4 CB 49.42 CG 59.18 CD 63.64 OE1 67.48 OE2 67.66
C LEU H 5 -65.2 -42.3 N 17.14 CA 14.84 C 15.29 O 14.91 CB 21.1 CG 20.75 CD1 18.33 CD2 19.79
C GLN H 48 -58.8 -41.8 N 18.57 CA 17.99 C 20.93 O 19.52 CB 20.54 CG 20.28 CD 22.96 OE1 25.3 NE2 21.39
C VAL H 74 -67.9 -41.8 N 19.48 CA 21.16 C 22.52 O 18.79 CB 25.74 CG1 28.97 CG2 29.32
C GLU H 86 -69.4 -33.2 N 22.06 CA 22.05 C 21.35 O 20.82 CB 31.33 CG 36.79 CD 41.47 OE1 42.04 OE2 45.69
C GLN H 8 -65.3 -36.4 N 21.32 CA 18.89 C 20.58 O 18.24 CB 21.72 CG 22.15 CD 22.09 OE1 19.52 NE2 23.27
C LYS H 152 -72.3 -42.6 N 21.28 CA 24.2 C 21.78 O 22.54 CB 52.72 CG 57.54 CD 61.55 CE 63.35 NZ 64.73
C ALA H 29 -59.2 -44.1 N 20.85 CA 19.46 C 20.42 O 18.09 CB 13.5
C GLN H 6 -64.6 -38.5 N 19.43 CA 19.17 C 20.82 O 19.66 CB 17.99 CG 19.18 CD 17.55 OE1 20.96 NE2 18.16
C GLY H 28 -65.0 -30.2 N 22.75 CA 24.71 C 26.79 O 25.86
C LYS H 123 -72.9 -44.9 N 26.97 CA 29.48 C 28.64 O 28.88 CB 36.0 CG 39.85 CD 42.21 CE 45.74 NZ 46.24
C THR H 32 -60.4 -45.2 N 18.91 CA 18.66 C 20.58 O 20.2 CB 30.41 OG1 33.26 CG2 34.56
C LEU H 13 -57.8 -46.4 N 25.76 CA 27.55 C 27.85 O 26.76 CB 42.58 CG 48.02 CD1 50.6 CD2 48.59
C GLN H 106 -56.1 -41.4 N 28.05 CA 30.16 C 28.31 O 29.31 CB 60.57 CG 65.54 CD 68.13 OE1 72.25 NE2 69.71
C LEU H 89 -63.8 -43.2 N 26.47 CA 25.96 C 25.11 O 22.95 CB 27.91 CG 30.58 CD1 29.7 CD2 33.29
C ILE H 2 -62.0 -41.9 N 27.51 CA 26.63 C 26.64 O 26.03 CB 24.82 CG1 23.63 CG2 26.15 CD1 20.68
C LEU H 68 -61.8 -37.2 N 22.44 CA 23.03 C 22.83 O 23.07 CB 26.68 CG 28.75 CD1 30.7 CD2 28.55
C GLU H 116 -69.2 -46.4 N 24.73 CA 25.72 C 24.66 O 24.15 CB 39.2 CG 46.63 CD 49.09 OE1 50.14 OE2 53.23
C ALA H 34 -56.1 -42.5 N 24.17 CA 25.24 C 24.23 O 25.65 CB 22.18
C LEU H 15 -61.7 -33.7 N 23.34 CA 22.68 C 23.59 O 23.28 CB 22.18 CG 23.18 CD1 22.02 CD2 21.59
C GLN H 96 -69.3 -38.9 N 25.89 CA 29.31 C 28.45 O 28.9 CB 76.36 CG 82.92 CD 87.47 OE1 90.18 NE2 89.74
C GLY H 29 -68.8 -39.5 N 29.01 CA 27.12 C 26.02 O 26.23
C ILE H 2 -64.9 -40.3 N 22.51 CA 22.56 C 23.39 O 22.42 CB 23.8 CG1 23.28 CG2 23.12 CD1 22.17
C ASN H 49 -66.8 -33.6 N 26.69 CA 29.07 C 28.98 O 28.05 CB 31.73 CG 36.37 OD1 35.75 ND2 37.39
C LYS H 120 -68.2 -42.6 N 29.61 CA 29.4 C 28.49 O 27.26 CB 44.5 CG 49.58 CD 51.08 CE 52.68 NZ 52.33
C ARG H 61 -66.1 -37.8 N 24.76 CA 22.34 C 21.79 O 21.31 CB 24.07 CG 26.55 CD 28.11 NE 28.65 CZ 28.99 NH1 26.25 NH2 29.62
C LEU H 0 -65.4 -46.0 N 19.86 CA 21.66 C 21.86 O 21.52 CB 23.81 CG 23.95 CD1 23.92 CD2 25.02
C ASP H 90 -64.4 -29.0 N 27.37 CA 29.97 C 31.19 O 28.82 CB 36.63 CG 39.07 OD1 41.4 OD2 41.46
C ASN H 123 -66.3 -27.9 N 26.92 CA 29.69 C 29.88 O 31.85 CB 61.94 CG 65.69 OD1 68.64 ND2 68.91
C LEU H 60 -98.6 -8.6 N 30.97 CA 31.73 C 34.5 O 33.96 CB 26.24 CG 26.18 CD1 25.56 CD2 24.68
C GLU - 54 -70.7 160.3 N 47.56 CA 51.78 C 53.97 O 55.13 CB 43.35 CG 44.12 CD 44.5 OE1 44.54 OE2 41.97
C SER - 183 -33.0 360.0 N 62.23 CA 64.84 C 66.47 O 66.99 CB 79.83 OG 82.3 OXT 82.46
