A MET - 93 360.0 144.9 N 66.53 CA 65.68 C 62.65 O 62.78 CB 68.02 CG 72.91 SD 78.84 CE 77.43
A ILE - 19 -114.5 119.7 N 58.95 CA 56.14 C 53.89 O 52.76 CB 57.07 CG1 56.66 CG2 56.29 CD1 56.92
A VAL E 0 -114.6 129.0 N 51.25 CA 49.47 C 47.82 O 48.73 CB 49.28 CG1 49.48 CG2 48.26
A LEU E 0 -108.5 125.4 N 46.89 CA 45.76 C 43.96 O 43.06 CB 45.9 CG 50.12 CD1 48.99 CD2 48.98
A PHE E 1 -112.3 136.1 N 41.85 CA 39.61 C 39.61 O 40.94 CB 38.18 CG 36.77 CD1 35.24 CD2 36.14 CE1 34.57 CE2 34.09 CZ 33.65
A VAL E 0 -120.8 140.7 N 38.06 CA 37.16 C 36.58 O 36.25 CB 35.83 CG1 34.0 CG2 35.08
A ASP E 8 -146.7 110.5 N 36.61 CA 37.66 C 36.15 O 36.94 CB 41.67 CG 44.7 OD1 50.83 OD2 43.77
A PHE E 1 -65.0 134.7 N 34.47 CA 35.36 C 35.15 O 36.21 CB 33.22 CG 30.7 CD1 30.06 CD2 30.98 CE1 27.01 CE2 30.31 CZ 27.28
A ASP T 2 -68.4 133.2 N 34.93 CA 35.33 C 35.31 O 33.23 CB 37.17 CG 40.07 OD1 40.01 OD2 43.64
A TYR T 34 23.4 53.2 N 35.78 CA 35.71 C 37.1 O 36.55 CB 38.31 CG 42.02 CD1 44.49 CD2 42.5 CE1 45.1 CE2 41.61 CZ 43.52 OH 43.95
A PHE H 9 -35.2 -65.6 N 36.44 CA 34.99 C 35.09 O 36.19 CB 34.8 CG 33.49 CD1 32.12 CD2 32.87 CE1 32.23 CE2 32.79 CZ 32.37
A TYR H 39 -56.5 -46.5 N 34.58 CA 35.03 C 37.59 O 39.34 CB 30.88 CG 27.36 CD1 23.3 CD2 24.8 CE1 22.17 CE2 25.21 CZ 27.26 OH 27.35
A ALA H 0 -64.0 -46.5 N 37.87 CA 38.91 C 39.37 O 40.54 CB 35.78
A GLN H 7 -59.9 -32.0 N 38.39 CA 39.15 C 39.97 O 41.08 CB 38.88 CG 40.43 CD 42.63 OE1 43.38 NE2 43.29
A VAL H 1 -70.2 -42.0 N 40.56 CA 41.08 C 41.88 O 42.99 CB 43.02 CG1 38.73 CG2 39.6
A GLU H 8 -58.4 -35.9 N 43.18 CA 44.65 C 45.47 O 44.11 CB 45.93 CG 49.73 CD 53.63 OE1 54.59 OE2 54.47
A GLU H 10 -67.0 -55.4 N 45.09 CA 46.7 C 48.2 O 48.87 CB 45.24 CG 47.08 CD 48.01 OE1 47.86 OE2 49.49
A VAL H 48 -46.7 -43.1 N 48.23 CA 48.33 C 49.22 O 51.08 CB 48.1 CG1 45.62 CG2 47.99
A LEU H 86 -73.5 -13.2 N 48.04 CA 47.71 C 47.27 O 46.34 CB 47.95 CG 48.96 CD1 49.52 CD2 49.74
A ASN S 73 -156.1 71.3 N 46.58 CA 48.62 C 49.0 O 48.58 CB 48.75 CG 51.86 OD1 52.88 ND2 52.45
A PRO G 76 -48.5 -12.9 N 50.78 CA 50.88 C 51.4 O 51.06 CB 49.72 CG 51.03 CD 50.57
A SER G 75 -72.6 -9.7 N 52.69 CA 54.38 C 54.56 O 55.8 CB 54.59 OG 58.33
A LEU G 12 -81.5 -28.2 N 53.79 CA 52.93 C 52.48 O 52.99 CB 50.96 CG 49.72 CD1 47.79 CD2 48.31
A LYS T 123 -49.2 140.4 N 53.66 CA 53.85 C 53.2 O 54.34 CB 55.13 CG 58.15 CD 59.58 CE 60.6 NZ 61.4
A GLY T 57 94.3 -32.7 N 52.58 CA 50.89 C 50.99 O 51.44
A LYS S 106 -94.1 158.8 N 50.83 CA 49.69 C 47.78 O 47.63 CB 50.89 CG 53.18 CD 55.94 CE 61.1 NZ 63.48
A PRO - 38 -72.4 127.4 N 45.49 CA 44.03 C 43.02 O 43.18 CB 44.73 CG 44.41 CD 44.63
A VAL E 0 -120.8 128.4 N 42.58 CA 40.42 C 40.38 O 41.82 CB 38.54 CG1 41.04 CG2 38.01
A VAL E 0 -125.9 122.4 N 39.62 CA 38.82 C 38.43 O 36.42 CB 37.57 CG1 37.88 CG2 34.84
A VAL E 0 -96.4 119.6 N 37.39 CA 38.5 C 40.36 O 39.96 CB 36.03 CG1 32.0 CG2 34.7
A CYS E 0 -111.7 160.0 N 41.54 CA 43.35 C 43.63 O 43.51 CB 45.87 SG 46.71
A VAL E 67 -122.5 101.4 N 42.32 CA 42.59 C 42.99 O 42.6 CB 43.21 CG1 44.63 CG2 45.64
A PHE E 82 -83.9 123.7 N 44.13 CA 45.59 C 45.74 O 47.45 CB 44.5 CG 44.93 CD1 45.1 CD2 45.19 CE1 44.38 CE2 46.22 CZ 45.45
A SER - 20 -83.1 -15.0 N 45.81 CA 46.83 C 48.9 O 50.62 CB 45.99 OG 48.29
A GLY S 35 73.9 16.7 N 50.99 CA 51.31 C 52.44 O 52.42
A ARG S 64 -85.6 -2.8 N 53.53 CA 55.33 C 56.82 O 59.27 CB 53.87 CG 55.19 CD 57.29 NE 59.37 CZ 60.54 NH1 59.62 NH2 62.94
A PHE S 128 161.3 142.1 N 56.16 CA 56.17 C 58.12 O 57.88 CB 51.5 CG 48.26 CD1 47.53 CD2 46.34 CE1 45.24 CE2 44.18 CZ 44.23
A GLU T 173 7.1 -80.1 N 59.36 CA 60.52 C 60.05 O 60.19 CB 63.63 CG 67.59 CD 70.09 OE1 71.88 OE2 71.12
A ASP T 20 -115.1 47.6 N 58.18 CA 55.16 C 53.31 O 52.85 CB 55.18 CG 55.28 OD1 54.54 OD2 55.24
A SER - 3 -82.4 146.7 N 50.41 CA 46.45 C 43.34 O 40.47 CB 46.66 OG 48.33
A GLY E 26 138.4 -166.8 N 40.52 CA 38.23 C 36.88 O 36.39
A ALA E 38 -136.1 168.6 N 35.82 CA 36.58 C 36.14 O 35.52 CB 35.44
A VAL E 4 -92.2 124.9 N 35.57 CA 35.69 C 36.54 O 37.84 CB 34.33 CG1 32.09 CG2 33.01
A ALA E 29 -75.9 -43.8 N 34.97 CA 35.23 C 34.25 O 34.6 CB 33.16
A THR E 20 -175.0 174.1 N 35.01 CA 35.77 C 35.57 O 37.47 CB 34.4 OG1 34.44 CG2 30.68
A ALA E 0 -150.7 161.3 N 36.67 CA 38.69 C 37.95 O 37.62 CB 39.87
A ASN - 0 -81.6 166.5 N 38.7 CA 41.03 C 41.93 O 42.76 CB 42.48 CG 44.45 OD1 46.09 ND2 42.48
A TYR H 49 -53.2 -39.9 N 45.09 CA 47.55 C 48.38 O 48.33 CB 49.25 CG 51.1 CD1 53.32 CD2 53.09 CE1 55.24 CE2 54.0 CZ 54.38 OH 55.49
A GLU H 73 -59.8 -11.8 N 49.05 CA 51.01 C 51.1 O 53.07 CB 53.05 CG 57.58 CD 60.59 OE1 61.81 OE2 61.43
A ALA H 0 -111.9 -40.3 N 47.7 CA 45.2 C 43.7 O 41.88 CB 42.74
A ARG H 95 -60.7 -29.4 N 43.1 CA 43.61 C 43.01 O 42.65 CB 45.83 CG 47.95 CD 46.2 NE 45.91 CZ 41.8 NH1 37.63 NH2 42.76
A LYS T 175 -62.3 -23.4 N 44.15 CA 45.02 C 44.08 O 43.66 CB 45.21 CG 47.23 CD 46.97 CE 46.64 NZ 43.72
A PHE T 136 -97.2 16.4 N 41.45 CA 40.24 C 40.18 O 38.84 CB 41.06 CG 40.88 CD1 40.18 CD2 41.48 CE1 41.42 CE2 40.71 CZ 42.08
A GLY T 34 94.4 -6.2 N 40.2 CA 39.73 C 40.72 O 42.34
A VAL - 0 -78.5 108.0 N 40.74 CA 41.04 C 42.56 O 44.2 CB 38.63 CG1 37.37 CG2 36.8
A LYS - 113 -143.8 175.0 N 43.73 CA 43.65 C 43.57 O 44.26 CB 45.39 CG 47.67 CD 52.69 CE 55.88 NZ 60.74
A ALA T 57 -54.6 134.8 N 43.3 CA 42.06 C 41.72 O 42.84 CB 39.78
A GLY T 63 100.8 -25.2 N 41.44 CA 41.87 C 42.14 O 43.29
A ILE S 26 -82.4 156.3 N 42.81 CA 43.2 C 41.75 O 41.6 CB 44.81 CG1 46.35 CG2 45.65 CD1 49.6
A PRO B 64 -63.7 147.0 N 40.79 CA 40.45 C 41.0 O 40.74 CB 39.44 CG 40.1 CD 39.34
A ILE H 0 -60.8 -38.5 N 43.15 CA 44.57 C 47.26 O 47.97 CB 43.74 CG1 43.08 CG2 40.85 CD1 41.61
A VAL H 57 -59.0 -47.4 N 49.27 CA 50.41 C 50.77 O 52.92 CB 49.71 CG1 52.82 CG2 49.5
A GLU H 80 -57.7 -41.5 N 49.61 CA 50.1 C 50.46 O 49.95 CB 49.81 CG 51.88 CD 51.19 OE1 49.61 OE2 52.68
A ALA H 0 -61.4 -39.7 N 49.33 CA 48.87 C 49.14 O 48.8 CB 47.73
A LYS H 69 -68.5 -26.5 N 49.23 CA 49.48 C 49.64 O 48.34 CB 48.66 CG 50.11 CD 51.17 CE 54.25 NZ 57.25
A LYS H 135 -68.6 -41.1 N 48.54 CA 49.57 C 49.11 O 49.38 CB 49.91 CG 50.66 CD 51.27 CE 52.54 NZ 51.33
A ILE H 76 -74.0 -50.1 N 48.02 CA 46.82 C 47.28 O 48.1 CB 46.35 CG1 44.12 CG2 44.1 CD1 44.6
A LEU - 23 -125.8 69.8 N 46.75 CA 49.06 C 50.57 O 52.0 CB 47.53 CG 47.67 CD1 45.8 CD2 46.12
A PRO T 86 -51.4 -28.2 N 51.4 CA 50.79 C 51.23 O 51.87 CB 49.78 CG 49.65 CD 51.0
A ASN T 156 -97.5 1.0 N 51.23 CA 52.78 C 53.19 O 54.68 CB 54.22 CG 54.51 OD1 52.86 ND2 55.8
A ALA S 11 -62.3 161.7 N 51.46 CA 49.32 C 48.37 O 48.91 CB 48.02
A VAL E 36 -86.9 122.7 N 47.03 CA 46.22 C 45.2 O 45.78 CB 46.58 CG1 46.94 CG2 48.01
A TYR E 41 -111.1 114.9 N 44.28 CA 42.81 C 42.21 O 42.68 CB 40.03 CG 39.11 CD1 37.19 CD2 37.69 CE1 36.5 CE2 35.93 CZ 35.28 OH 38.69
A LEU E 33 -114.0 142.6 N 42.31 CA 41.81 C 41.62 O 40.39 CB 41.76 CG 42.48 CD1 44.82 CD2 41.83
A PRO E 74 -72.9 144.2 N 42.42 CA 42.01 C 42.21 O 42.89 CB 42.07 CG 42.12 CD 40.05
A MET - 65 -67.9 124.6 N 43.51 CA 43.32 C 42.65 O 42.23 CB 43.01 CG 43.27 SD 46.73 CE 47.29
A ARG - 111 -113.3 73.8 N 43.85 CA 44.12 C 43.67 O 42.31 CB 43.34 CG 45.11 CD 45.01 NE 47.53 CZ 48.94 NH1 48.29 NH2 50.73
A LYS H 97 -46.1 -51.9 N 45.09 CA 47.36 C 47.55 O 47.95 CB 50.26 CG 52.23 CD 53.98 CE 55.21 NZ 59.31
A GLU H 139 -51.6 -43.6 N 47.56 CA 47.07 C 47.02 O 47.56 CB 49.02 CG 53.42 CD 54.94 OE1 56.96 OE2 55.71
A VAL H 47 -65.8 -50.3 N 45.48 CA 43.61 C 45.02 O 45.53 CB 41.85 CG1 39.32 CG2 39.74
A TYR H 0 -60.4 -36.1 N 44.93 CA 43.57 C 43.05 O 41.34 CB 43.27 CG 43.27 CD1 42.02 CD2 41.39 CE1 42.48 CE2 41.63 CZ 42.32 OH 43.24
A GLN H 69 -60.3 -41.3 N 44.65 CA 46.02 C 46.81 O 47.68 CB 45.36 CG 44.42 CD 43.26 OE1 43.16 NE2 40.54
A GLN H 119 -70.1 -42.0 N 47.43 CA 47.59 C 46.91 O 46.62 CB 50.07 CG 56.89 CD 60.6 OE1 63.8 NE2 59.23
A VAL H 9 -59.2 -38.9 N 43.88 CA 42.42 C 41.92 O 41.99 CB 41.28 CG1 40.07 CG2 42.12
A SER H 3 -63.6 -46.3 N 41.09 CA 39.76 C 39.58 O 40.35 CB 39.93 OG 39.95
A SER H 56 -58.6 -39.6 N 40.19 CA 40.59 C 40.28 O 42.43 CB 40.43 OG 42.75
A ARG H 111 -65.7 -41.1 N 39.21 CA 38.66 C 39.57 O 41.45 CB 39.29 CG 39.58 CD 39.89 NE 43.78 CZ 41.0 NH1 39.74 NH2 42.18
A ILE H 0 -66.1 -43.8 N 38.44 CA 36.89 C 37.81 O 35.72 CB 36.65 CG1 36.87 CG2 35.64 CD1 35.48
A MET H 4 -59.3 -42.4 N 38.73 CA 41.29 C 43.18 O 42.87 CB 40.4 CG 38.2 SD 39.46 CE 36.31
A ASN H 84 -58.7 -34.7 N 44.3 CA 46.17 C 47.0 O 47.2 CB 47.64 CG 49.86 OD1 51.63 ND2 48.1
A LEU H 12 -70.3 -39.1 N 47.84 CA 48.76 C 49.99 O 50.05 CB 49.98 CG 52.53 CD1 52.74 CD2 54.35
A LEU H 0 -66.8 -35.7 N 50.91 CA 51.37 C 52.44 O 51.65 CB 48.95 CG 49.9 CD1 47.54 CD2 47.83
A ARG T 111 -61.4 -2.4 N 53.75 CA 55.36 C 55.3 O 55.79 CB 57.01 CG 61.47 CD 63.52 NE 67.79 CZ 68.37 NH1 68.91 NH2 69.22
A GLU T 141 -102.1 -7.9 N 55.48 CA 56.79 C 58.16 O 59.36 CB 57.26 CG 56.58 CD 57.16 OE1 56.94 OE2 57.61
A TYR T 35 -99.3 -10.1 N 59.6 CA 59.89 C 61.0 O 61.99 CB 59.76 CG 60.55 CD1 60.69 CD2 60.25 CE1 61.07 CE2 61.62 CZ 62.21 OH 63.44
A SER - 1 -170.3 150.7 N 60.95 CA 60.12 C 59.49 O 59.15 CB 60.17 OG 60.07
A GLU S 121 -93.0 -30.8 N 59.74 CA 60.18 C 59.09 O 57.85 CB 62.0 CG 64.74 CD 66.51 OE1 66.52 OE2 67.63
A LYS - 79 -83.6 88.1 N 58.33 CA 57.87 C 55.74 O 55.87 CB 60.95 CG 63.51 CD 66.63 CE 69.43 NZ 70.2
A ILE E 6 -125.3 138.1 N 52.04 CA 49.06 C 47.7 O 47.63 CB 48.04 CG1 47.64 CG2 44.02 CD1 46.74
A GLU E 13 -123.5 112.1 N 47.1 CA 46.39 C 45.46 O 46.16 CB 47.48 CG 50.12 CD 52.85 OE1 54.17 OE2 53.85
A ILE E 66 -85.9 90.1 N 43.36 CA 41.96 C 40.94 O 42.05 CB 41.87 CG1 41.39 CG2 40.57 CD1 42.48
A ALA E 29 -64.9 -33.9 N 39.47 CA 39.25 C 40.86 O 41.24 CB 39.09
A SER E 41 -157.7 -178.4 N 41.13 CA 39.74 C 39.17 O 42.12 CB 40.31 OG 43.45
A ILE T 32 -59.1 -16.1 N 36.86 CA 35.4 C 35.58 O 35.52 CB 35.5 CG1 34.93 CG2 33.14 CD1 36.27
A ASP T 27 -143.0 24.6 N 35.79 CA 36.79 C 37.6 O 36.57 CB 35.74 CG 36.55 OD1 38.19 OD2 31.99
A GLU E 36 -132.2 147.8 N 39.27 CA 41.37 C 40.75 O 41.49 CB 43.45 CG 47.77 CD 50.87 OE1 52.19 OE2 54.98
A ALA E 0 -161.2 139.5 N 39.38 CA 39.2 C 39.48 O 38.96 CB 39.07
A TYR E 21 -110.3 132.7 N 39.58 CA 37.89 C 38.37 O 36.7 CB 38.0 CG 36.88 CD1 36.62 CD2 35.69 CE1 39.38 CE2 37.37 CZ 39.04 OH 40.69
A LEU E 0 -115.6 133.1 N 40.84 CA 43.55 C 45.55 O 45.0 CB 43.26 CG 43.08 CD1 42.41 CD2 45.33
A ASP E 12 -93.8 106.9 N 48.21 CA 49.61 C 49.34 O 48.79 CB 52.79 CG 56.98 OD1 58.73 OD2 59.44
A ILE - 0 -111.9 34.3 N 50.21 CA 51.93 C 55.09 O 55.55 CB 50.41 CG1 49.51 CG2 49.07 CD1 46.52
A SER T 37 -69.8 -30.0 N 58.03 CA 61.09 C 62.82 O 64.4 CB 62.24 OG 62.47
A ASP T 129 -99.7 15.6 N 63.99 CA 64.56 C 65.95 O 67.17 CB 63.54 CG 64.3 OD1 64.39 OD2 64.6
A LYS T 87 -121.9 -6.9 N 66.08 CA 67.01 C 67.94 O 67.71 CB 67.45 CG 68.33 CD 68.93 CE 69.59 NZ 70.93
A VAL - 27 -160.6 -175.8 N 69.34 CA 70.89 C 71.6 O 71.91 CB 71.58 CG1 73.22 CG2 71.09
A ARG - 176 -152.0 149.3 N 73.22 CA 74.91 C 74.57 O 75.74 CB 77.41 CG 80.64 CD 84.85 NE 88.9 CZ 89.81 NH1 90.93 NH2 89.15
A ASP H 86 54.6 151.6 N 73.54 CA 72.96 C 72.01 O 70.66 CB 73.71 CG 74.69 OD1 75.3 OD2 75.25
A TYR H 41 -69.2 -10.6 N 71.03 CA 69.97 C 69.2 O 69.48 CB 69.59 CG 70.37 CD1 71.1 CD2 70.3 CE1 71.12 CE2 71.23 CZ 71.37 OH 70.74
A ARG H 152 -63.6 -47.9 N 68.59 CA 67.67 C 66.25 O 65.66 CB 68.49 CG 69.67 CD 71.65 NE 72.9 CZ 74.22 NH1 74.72 NH2 73.58
A GLU H 53 -72.8 -26.8 N 65.23 CA 65.2 C 63.72 O 64.03 CB 67.24 CG 70.55 CD 73.06 OE1 73.21 OE2 73.28
A ALA H 0 -64.4 -46.7 N 61.88 CA 60.07 C 58.84 O 56.67 CB 59.97
A TYR H 98 -55.5 -48.6 N 58.24 CA 58.01 C 57.54 O 57.73 CB 58.8 CG 60.02 CD1 60.48 CD2 60.76 CE1 62.3 CE2 61.92 CZ 62.87 OH 63.28
A ASN H 76 -60.9 -44.1 N 56.42 CA 55.44 C 53.18 O 52.06 CB 56.61 CG 57.59 OD1 57.81 ND2 59.18
A LEU H 19 -62.5 -26.9 N 52.58 CA 52.42 C 53.28 O 52.32 CB 51.88 CG 51.48 CD1 52.43 CD2 50.78
A GLY H 0 -68.5 -55.9 N 53.01 CA 52.27 C 51.84 O 51.49
A LEU H 64 -58.2 -29.2 N 50.69 CA 50.29 C 51.38 O 52.2 CB 48.79 CG 47.36 CD1 47.56 CD2 49.05
A GLU H 102 -64.8 -50.6 N 51.75 CA 52.62 C 52.84 O 53.02 CB 54.79 CG 58.66 CD 62.45 OE1 62.01 OE2 63.82
A ILE H 0 -62.5 -50.7 N 52.46 CA 51.42 C 51.58 O 51.1 CB 50.37 CG1 49.13 CG2 48.42 CD1 48.78
A LYS H 25 -53.6 -49.8 N 51.51 CA 54.16 C 55.67 O 57.06 CB 55.17 CG 55.06 CD 55.88 CE 58.55 NZ 60.11
A ASN H 90 -62.0 -41.8 N 56.69 CA 56.13 C 55.68 O 55.66 CB 59.01 CG 62.03 OD1 63.04 ND2 62.02
A LYS H 59 -61.9 -48.5 N 55.43 CA 55.82 C 55.54 O 56.01 CB 57.46 CG 60.56 CD 63.24 CE 66.92 NZ 68.16
A ILE H 0 -61.3 -40.0 N 53.34 CA 51.36 C 50.73 O 51.17 CB 49.81 CG1 47.01 CG2 46.67 CD1 43.04
A LEU H 80 -67.2 -29.8 N 49.54 CA 50.86 C 53.35 O 54.5 CB 48.75 CG 48.48 CD1 48.98 CD2 46.09
A GLU H 129 -76.1 -53.8 N 54.25 CA 54.38 C 55.17 O 55.36 CB 55.4 CG 56.21 CD 57.44 OE1 56.93 OE2 58.3
A LYS H 118 -78.4 -30.3 N 55.3 CA 55.62 C 54.32 O 53.79 CB 57.4 CG 62.11 CD 66.85 CE 68.96 NZ 71.9
A GLU T 38 -121.4 -9.0 N 54.24 CA 54.49 C 54.72 O 54.64 CB 54.09 CG 52.46 CD 56.11 OE1 57.36 OE2 57.44
A LYS - 142 64.0 32.4 N 54.52 CA 55.09 C 52.94 O 51.48 CB 57.36 CG 60.04 CD 63.44 CE 65.62 NZ 65.37
A ILE - 1 -114.8 137.6 N 51.14 CA 49.04 C 47.53 O 46.53 CB 50.46 CG1 50.07 CG2 49.56 CD1 49.88
A THR - 33 -94.2 143.6 N 46.33 CA 45.56 C 44.02 O 42.04 CB 48.01 OG1 52.37 CG2 47.09
A VAL E 1 -138.1 164.8 N 41.64 CA 39.1 C 39.58 O 40.48 CB 38.85 CG1 36.11 CG2 36.97
A THR E 0 -116.6 141.1 N 39.67 CA 38.45 C 38.18 O 36.69 CB 38.51 OG1 40.91 CG2 37.37
A VAL E 0 -116.8 142.5 N 37.07 CA 37.7 C 40.12 O 40.17 CB 36.3 CG1 35.3 CG2 33.45
A GLY E 0 -130.3 138.0 N 39.29 CA 40.84 C 42.18 O 42.94
A ILE E 0 -138.2 131.7 N 41.52 CA 41.87 C 40.99 O 38.47 CB 43.54 CG1 45.03 CG2 44.54 CD1 45.77
A SER E 0 -166.9 -168.1 N 41.55 CA 42.13 C 43.32 O 42.47 CB 42.81 OG 44.01
A LYS S 32 -75.3 -31.4 N 45.17 CA 47.86 C 47.62 O 49.15 CB 49.9 CG 54.63 CD 55.94 CE 56.66 NZ 54.53
A ASN S 2 -134.7 171.5 N 45.83 CA 45.14 C 44.38 O 43.12 CB 45.91 CG 48.47 OD1 51.46 ND2 49.39
A LYS H 18 -56.8 -44.1 N 42.69 CA 41.03 C 42.25 O 42.02 CB 39.74 CG 40.23 CD 42.12 CE 41.39 NZ 43.7
A VAL H 7 -60.1 -47.0 N 40.38 CA 39.49 C 41.07 O 41.88 CB 38.25 CG1 36.26 CG2 35.66
A PHE H 1 -70.8 -28.9 N 43.65 CA 43.35 C 42.92 O 42.56 CB 46.99 CG 50.09 CD1 52.25 CD2 50.13 CE1 52.13 CE2 50.61 CZ 52.5
A ALA H 0 -65.6 -41.1 N 42.45 CA 42.25 C 41.56 O 41.28 CB 42.05
A LYS H 38 -66.1 -51.4 N 39.13 CA 38.67 C 38.19 O 36.55 CB 38.05 CG 38.24 CD 43.17 CE 45.72 NZ 48.1
A ILE H 5 -51.6 -45.8 N 37.73 CA 37.83 C 39.95 O 40.12 CB 39.58 CG1 40.04 CG2 38.71 CD1 39.43
A ALA H 0 -52.5 -54.0 N 40.74 CA 42.27 C 42.04 O 41.51 CB 41.26
A ALA H 0 -52.3 -50.4 N 42.39 CA 44.36 C 45.35 O 44.83 CB 44.01
A ASP H 76 -51.0 -43.2 N 46.03 CA 48.35 C 49.01 O 49.17 CB 48.84 CG 50.48 OD1 51.35 OD2 50.28
A MET H 93 -69.7 -18.1 N 50.05 CA 50.91 C 50.7 O 51.88 CB 52.08 CG 55.57 SD 59.38 CE 58.98
A ALA H 20 -101.1 -4.4 N 50.04 CA 49.18 C 50.07 O 48.37 CB 49.17
A LYS - 83 -68.9 150.2 N 51.11 CA 53.04 C 54.1 O 55.13 CB 53.59 CG 55.97 CD 57.16 CE 59.44 NZ 59.06
A PRO S 69 -91.1 173.3 N 53.66 CA 52.97 C 51.87 O 52.68 CB 53.3 CG 54.81 CD 53.27
A ASN S 86 30.5 46.5 N 50.69 CA 49.47 C 48.9 O 48.82 CB 51.65 CG 53.79 OD1 55.79 ND2 53.99
A GLY - 13 -120.0 -176.7 N 48.18 CA 47.35 C 47.54 O 48.86
A ILE E 27 -152.3 136.4 N 46.11 CA 46.39 C 48.15 O 48.94 CB 45.59 CG1 44.15 CG2 44.85 CD1 44.79
A LYS E 67 -148.6 155.7 N 50.81 CA 51.35 C 52.03 O 52.15 CB 53.61 CG 55.62 CD 59.7 CE 61.78 NZ 65.88
A VAL E 22 -127.3 134.9 N 53.15 CA 54.03 C 55.35 O 56.14 CB 53.21 CG1 53.04 CG2 52.7
A ILE - 3 -116.3 101.1 N 55.46 CA 57.14 C 58.81 O 58.59 CB 57.43 CG1 56.74 CG2 56.28 CD1 56.53
A ASP - 39 -73.9 173.3 N 61.3 CA 63.97 C 64.24 O 62.42 CB 65.5 CG 68.44 OD1 70.2 OD2 68.97
A ASP H 71 -57.5 -17.2 N 65.55 CA 67.46 C 68.21 O 69.2 CB 68.62 CG 71.5 OD1 72.73 OD2 73.21
A GLU H 147 -94.5 -42.3 N 68.74 CA 69.02 C 68.72 O 66.95 CB 69.94 CG 69.42 CD 70.14 OE1 71.08 OE2 69.58
A GLU H 73 -60.2 -35.4 N 69.55 CA 70.22 C 70.31 O 71.45 CB 71.5 CG 73.45 CD 75.76 OE1 75.59 OE2 76.12
A VAL H 0 -60.9 -44.2 N 69.94 CA 69.38 C 69.96 O 70.19 CB 69.0 CG1 68.86 CG2 68.57
A LYS H 118 -58.9 -31.1 N 70.55 CA 71.0 C 70.88 O 70.58 CB 71.91 CG 73.66 CD 74.7 CE 76.67 NZ 77.81
A ARG H 180 -75.4 -34.8 N 70.93 CA 70.45 C 68.96 O 68.29 CB 72.81 CG 75.82 CD 77.99 NE 78.55 CZ 76.5 NH1 75.52 NH2 75.79
A LEU H 24 -65.6 -38.6 N 67.53 CA 64.55 C 62.61 O 62.47 CB 64.75 CG 64.55 CD1 64.32 CD2 63.52
A ILE H 9 -55.3 -15.0 N 59.85 CA 59.02 C 59.99 O 60.45 CB 58.1 CG1 56.92 CG2 57.14 CD1 58.17
A ARG H 149 -117.1 -23.2 N 60.56 CA 60.69 C 60.58 O 60.06 CB 61.13 CG 61.4 CD 61.36 NE 61.24 CZ 60.63 NH1 60.0 NH2 60.76
A GLU H 119 -96.4 -31.8 N 60.61 CA 61.28 C 60.87 O 62.88 CB 62.16 CG 64.02 CD 65.48 OE1 66.53 OE2 64.1
A LEU S 20 -66.7 129.8 N 59.29 CA 57.13 C 56.21 O 54.88 CB 56.11 CG 53.75 CD1 53.88 CD2 52.72
A ASP B 75 -66.1 135.7 N 56.13 CA 56.27 C 54.91 O 54.56 CB 59.15 CG 64.46 OD1 67.92 OD2 66.35
A ILE G 2 -59.6 -21.2 N 52.43 CA 50.89 C 49.8 O 49.67 CB 51.58 CG1 50.6 CG2 50.3 CD1 48.75
A ALA G 49 -73.6 -24.9 N 48.23 CA 47.43 C 46.32 O 44.56 CB 46.43
A ASP G 102 -88.3 9.0 N 46.26 CA 46.71 C 45.91 O 44.68 CB 51.73 CG 55.57 OD1 59.02 OD2 60.06
A VAL S 3 -88.3 131.5 N 45.3 CA 44.06 C 42.99 O 43.62 CB 43.37 CG1 42.49 CG2 44.14
A PRO T 27 -54.6 134.4 N 41.05 CA 40.47 C 39.72 O 40.24 CB 38.76 CG 39.5 CD 40.83
A GLY T 56 97.2 -11.9 N 38.84 CA 37.89 C 38.23 O 39.5
A ILE - 11 -102.0 96.9 N 38.34 CA 38.37 C 39.15 O 39.77 CB 37.26 CG1 36.86 CG2 33.28 CD1 37.16
A GLY - 42 -85.0 -160.7 N 39.96 CA 43.69 C 46.22 O 45.05
A ASN H 140 -69.8 -40.4 N 49.37 CA 53.29 C 53.27 O 54.77 CB 54.94 CG 59.51 OD1 61.55 ND2 62.46
A ILE H 124 -59.9 -41.7 N 52.04 CA 52.07 C 51.08 O 51.92 CB 52.06 CG1 51.87 CG2 50.73 CD1 55.36
A THR H 13 -78.2 -32.2 N 49.85 CA 48.39 C 48.46 O 49.58 CB 46.36 OG1 46.5 CG2 43.71
A ALA H 11 -61.7 -39.2 N 48.18 CA 48.99 C 50.37 O 49.19 CB 48.06
A GLU H 118 -73.6 -36.7 N 51.8 CA 53.77 C 55.01 O 57.68 CB 53.31 CG 53.77 CD 53.55 OE1 53.47 OE2 52.18
A LYS H 76 -62.9 -48.4 N 54.43 CA 55.72 C 56.77 O 57.57 CB 56.0 CG 55.99 CD 55.59 CE 56.23 NZ 56.7
A LEU H 0 -65.8 -16.5 N 58.16 CA 60.01 C 61.57 O 62.31 CB 57.85 CG 57.62 CD1 57.34 CD2 56.27
A LYS H 98 -76.6 -39.4 N 62.53 CA 64.67 C 64.92 O 64.99 CB 67.21 CG 70.62 CD 72.35 CE 73.97 NZ 74.24
A LYS T 165 -71.2 -7.8 N 64.58 CA 63.9 C 63.29 O 64.79 CB 64.71 CG 66.05 CD 66.9 CE 67.67 NZ 68.44
A LEU T 26 -105.2 1.4 N 61.99 CA 60.45 C 60.36 O 61.47 CB 58.48 CG 58.24 CD1 57.27 CD2 55.52
A GLY T 42 74.7 25.9 N 58.97 CA 60.32 C 60.97 O 62.96
A ILE - 0 -106.0 101.2 N 60.67 CA 58.34 C 58.18 O 57.86 CB 58.21 CG1 57.24 CG2 58.19 CD1 54.97
A ASN - 61 -111.9 -17.8 N 56.98 CA 56.86 C 56.13 O 55.06 CB 59.25 CG 62.03 OD1 62.09 ND2 63.34
A LYS B 59 -128.7 157.9 N 56.11 CA 56.51 C 56.79 O 57.86 CB 56.77 CG 56.96 CD 57.9 CE 59.31 NZ 60.17
A LEU S 1 -57.9 -41.4 N 56.76 CA 55.6 C 56.18 O 54.88 CB 55.74 CG 55.34 CD1 54.29 CD2 53.94
A VAL G 33 -62.3 -35.4 N 57.3 CA 58.34 C 58.93 O 59.09 CB 57.7 CG1 55.59 CG2 56.88
A ASP G 51 -60.9 -8.8 N 58.78 CA 60.24 C 60.75 O 61.74 CB 62.14 CG 65.07 OD1 68.82 OD2 67.79
A THR G 3 -77.9 -12.5 N 61.82 CA 62.0 C 61.95 O 62.12 CB 62.26 OG1 63.24 CG2 62.68
A LEU G 83 -85.6 -11.4 N 62.64 CA 63.16 C 62.84 O 62.63 CB 62.63 CG 63.61 CD1 63.54 CD2 63.24
A SER T 85 -83.8 -39.9 N 62.77 CA 63.87 C 64.82 O 66.44 CB 64.15 OG 65.25
A ILE S 31 -70.7 157.8 N 65.37 CA 65.0 C 64.83 O 64.54 CB 65.93 CG1 65.76 CG2 66.36 CD1 65.75
A GLU - 147 -81.9 130.4 N 65.72 CA 66.91 C 66.32 O 66.24 CB 69.51 CG 75.0 CD 77.84 OE1 78.05 OE2 79.2
A PHE H 70 -42.8 -42.5 N 65.68 CA 65.18 C 65.16 O 65.01 CB 62.99 CG 61.26 CD1 61.06 CD2 60.29 CE1 60.16 CE2 61.43 CZ 61.63
A ASP H 126 -59.7 -23.6 N 64.53 CA 64.18 C 63.78 O 62.77 CB 65.78 CG 68.3 OD1 69.65 OD2 70.04
A LYS H 111 -104.2 -5.5 N 62.92 CA 63.19 C 62.94 O 63.49 CB 63.41 CG 63.62 CD 64.43 CE 65.47 NZ 65.95
A LEU H 1 -85.1 -45.1 N 62.39 CA 60.85 C 60.19 O 59.83 CB 60.41 CG 61.59 CD1 60.7 CD2 62.64
A LYS H 80 -59.2 -44.2 N 59.66 CA 60.06 C 60.03 O 59.54 CB 60.84 CG 60.68 CD 61.9 CE 63.22 NZ 65.81
A GLY H 65 -60.1 -32.8 N 60.93 CA 59.27 C 58.66 O 58.74
A MET H 61 -82.3 -41.5 N 57.99 CA 57.92 C 55.84 O 57.32 CB 61.06 CG 64.87 SD 67.49 CE 66.54
A ILE H 19 -125.3 10.2 N 52.22 CA 49.12 C 48.22 O 48.27 CB 49.12 CG1 49.7 CG2 48.43 CD1 51.37
A GLY - 36 90.1 156.4 N 46.64 CA 45.94 C 44.57 O 44.34
A GLU H 97 -64.1 -52.8 N 45.52 CA 46.45 C 45.25 O 45.52 CB 46.56 CG 48.91 CD 48.6 OE1 47.67 OE2 48.6
A ALA H 85 -44.7 -57.7 N 43.82 CA 42.19 C 41.26 O 43.94 CB 40.32
A LYS H 74 -62.3 -39.7 N 41.15 CA 41.27 C 40.38 O 38.35 CB 41.71 CG 44.36 CD 46.99 CE 48.83 NZ 49.32
A ALA H 0 -59.9 -51.7 N 41.3 CA 41.9 C 42.0 O 42.45 CB 42.67
A LYS H 107 -64.9 -27.6 N 41.6 CA 41.64 C 41.44 O 42.0 CB 42.47 CG 42.93 CD 44.35 CE 46.32 NZ 46.95
A TYR H 47 -65.8 -53.7 N 42.55 CA 42.12 C 41.97 O 41.72 CB 40.53 CG 40.67 CD1 40.85 CD2 38.58 CE1 40.76 CE2 39.65 CZ 40.74 OH 40.28
A LEU H 0 -63.2 -44.9 N 43.36 CA 43.97 C 45.48 O 44.81 CB 40.81 CG 39.08 CD1 39.23 CD2 39.05
A ILE H 18 -56.7 -44.9 N 46.55 CA 49.1 C 49.37 O 49.75 CB 49.35 CG1 48.29 CG2 49.52 CD1 48.89
A SER H 36 -60.0 -42.8 N 49.83 CA 51.82 C 53.57 O 55.03 CB 50.29 OG 50.87
A LEU H 0 -70.3 -30.4 N 54.1 CA 54.25 C 54.22 O 54.4 CB 54.82 CG 56.85 CD1 56.64 CD2 56.04
A ALA H 7 -70.8 -41.7 N 55.52 CA 56.35 C 56.08 O 55.81 CB 56.28
A ARG T 137 -79.6 0.4 N 56.56 CA 57.96 C 58.89 O 59.82 CB 57.14 CG 57.22 CD 60.25 NE 62.7 CZ 63.39 NH1 63.17 NH2 63.79
A ASP T 39 66.9 29.2 N 59.68 CA 60.35 C 60.42 O 61.36 CB 62.55 CG 65.59 OD1 67.3 OD2 65.39
A GLU - 120 -107.3 15.5 N 60.63 CA 61.0 C 60.81 O 60.34 CB 62.38 CG 64.61 CD 65.22 OE1 65.4 OE2 64.24
A TYR - 20 -83.7 123.2 N 60.25 CA 60.08 C 59.16 O 59.54 CB 59.42 CG 58.84 CD1 58.54 CD2 60.09 CE1 59.92 CE2 59.87 CZ 61.09 OH 62.61
A ASN - 93 -148.9 52.9 N 58.65 CA 60.27 C 59.05 O 58.82 CB 62.35 CG 66.71 OD1 70.45 ND2 69.13
A GLU - 105 -71.3 127.5 N 58.61 CA 57.84 C 56.63 O 56.12 CB 59.75 CG 63.97 CD 65.63 OE1 66.08 OE2 66.22
A PRO - 70 -64.0 151.1 N 55.87 CA 55.02 C 55.73 O 55.21 CB 54.07 CG 53.89 CD 53.99
A ILE - 1 -88.6 136.5 N 56.43 CA 56.73 C 57.48 O 56.29 CB 55.65 CG1 56.25 CG2 54.23 CD1 57.67
A ARG - 138 -167.3 149.6 N 59.67 CA 61.4 C 60.95 O 60.35 CB 63.57 CG 68.09 CD 71.71 NE 74.77 CZ 75.43 NH1 76.27 NH2 75.11
A THR - 107 -49.9 117.8 N 61.56 CA 63.15 C 62.72 O 63.42 CB 64.32 OG1 66.29 CG2 64.03
A ARG - 135 -95.4 141.6 N 63.11 CA 63.71 C 62.18 O 61.69 CB 66.25 CG 69.34 CD 72.87 NE 74.2 CZ 75.32 NH1 76.61 NH2 75.44
A VAL - 101 -110.2 133.1 N 61.09 CA 59.9 C 56.93 O 56.53 CB 61.43 CG1 62.32 CG2 61.71
A ARG - 169 -55.8 123.9 N 54.73 CA 53.47 C 51.06 O 50.72 CB 56.34 CG 62.23 CD 68.49 NE 73.34 CZ 75.47 NH1 75.57 NH2 76.34
A LYS - 155 -114.6 -3.9 N 48.31 CA 46.96 C 46.16 O 46.05 CB 46.09 CG 47.63 CD 48.97 CE 49.73 NZ 49.35
A SER E 37 -154.4 142.6 N 44.36 CA 44.49 C 42.64 O 43.27 CB 45.33 OG 51.63
A ILE E 13 -136.0 139.2 N 42.61 CA 41.27 C 42.41 O 43.93 CB 42.43 CG1 43.96 CG2 39.37 CD1 46.37
A GLY E 3 -168.8 -179.2 N 42.21 CA 42.33 C 43.94 O 44.78
A ARG E 91 -155.7 131.7 N 44.64 CA 45.27 C 43.75 O 44.62 CB 47.24 CG 50.73 CD 52.13 NE 53.18 CZ 55.79 NH1 56.51 NH2 56.11
A ILE E 57 -120.5 147.8 N 43.52 CA 42.06 C 41.82 O 42.63 CB 43.29 CG1 49.42 CG2 42.5 CD1 51.89
A VAL E 15 -142.2 153.8 N 41.41 CA 40.34 C 40.73 O 40.66 CB 39.37 CG1 39.98 CG2 37.64
A THR E 23 -98.9 142.7 N 41.57 CA 41.99 C 42.93 O 43.13 CB 41.84 OG1 42.9 CG2 41.8
A MET E 2 -97.0 155.2 N 44.11 CA 45.6 C 46.2 O 47.22 CB 46.38 CG 45.03 SD 46.14 CE 46.2
A LYS E 117 -55.4 -44.2 N 47.17 CA 48.87 C 49.77 O 51.37 CB 48.75 CG 48.16 CD 49.78 CE 49.75 NZ 49.65
A ARG E 148 -135.6 154.8 N 50.11 CA 52.25 C 52.6 O 54.11 CB 53.21 CG 56.06 CD 57.75 NE 59.01 CZ 59.1 NH1 59.55 NH2 58.17
A ASN E 33 -70.0 133.1 N 52.15 CA 52.7 C 53.9 O 55.52 CB 52.33 CG 51.7 OD1 49.83 ND2 52.34
A SER E 6 -136.9 170.9 N 54.25 CA 53.72 C 54.06 O 53.86 CB 53.21 OG 50.35
A ARG - 85 -138.0 -6.4 N 53.73 CA 53.88 C 53.05 O 51.31 CB 54.83 CG 58.92 CD 59.56 NE 59.25 CZ 60.4 NH1 59.77 NH2 59.94
A ASN - 80 -78.0 110.3 N 52.91 CA 53.8 C 53.6 O 52.84 CB 55.72 CG 57.68 OD1 57.88 ND2 59.41
A LEU H 41 -46.7 -45.5 N 54.51 CA 53.93 C 54.48 O 54.9 CB 53.09 CG 54.7 CD1 54.56 CD2 55.26
A GLU H 127 -70.8 -14.8 N 55.01 CA 55.17 C 54.54 O 54.5 CB 55.67 CG 57.05 CD 56.88 OE1 57.49 OE2 55.6
A GLU H 76 -85.9 -39.0 N 53.98 CA 54.57 C 52.95 O 52.27 CB 56.84 CG 62.33 CD 66.72 OE1 68.52 OE2 68.15
A ILE H 0 -75.8 -42.7 N 50.23 CA 48.24 C 48.33 O 47.68 CB 46.91 CG1 48.43 CG2 44.65 CD1 46.64
A LYS H 46 -34.6 -60.8 N 47.61 CA 47.96 C 45.95 O 45.35 CB 48.88 CG 50.45 CD 51.63 CE 52.49 NZ 53.85
A PRO H 64 -49.4 -32.8 N 46.08 CA 45.34 C 44.04 O 44.52 CB 44.73 CG 46.52 CD 46.08
A TYR H 34 -70.6 -53.8 N 43.14 CA 43.32 C 40.9 O 39.64 CB 46.94 CG 51.8 CD1 53.02 CD2 52.45 CE1 54.86 CE2 54.67 CZ 56.13 OH 58.58
A LEU H 0 -55.0 -42.7 N 39.77 CA 39.69 C 39.19 O 37.82 CB 41.33 CG 43.27 CD1 44.19 CD2 43.1
A PHE H 52 -67.3 -26.9 N 39.6 CA 41.01 C 42.81 O 45.33 CB 41.57 CG 41.76 CD1 38.73 CD2 41.97 CE1 42.09 CE2 43.73 CZ 42.75
A ARG H 121 -73.6 -37.3 N 42.99 CA 41.87 C 39.91 O 38.07 CB 43.84 CG 42.48 CD 44.32 NE 43.69 CZ 43.72 NH1 42.6 NH2 43.73
A ALA H 0 -63.5 -42.3 N 38.52 CA 38.64 C 39.78 O 35.87 CB 36.56
A ILE H 0 -65.2 -44.5 N 40.7 CA 42.01 C 43.55 O 41.81 CB 41.98 CG1 40.12 CG2 40.95 CD1 39.83
A GLU H 68 -60.3 -41.5 N 45.36 CA 47.0 C 48.21 O 50.33 CB 48.47 CG 51.42 CD 53.79 OE1 53.66 OE2 54.47
A GLU H 69 -72.2 -39.4 N 47.77 CA 48.33 C 46.89 O 44.74 CB 50.17 CG 54.61 CD 58.01 OE1 61.66 OE2 58.01
A SER H 0 -58.9 -39.7 N 46.06 CA 45.89 C 46.02 O 46.05 CB 47.06 OG 43.68
A TYR H 39 -70.0 -41.6 N 45.72 CA 46.23 C 46.93 O 48.26 CB 46.97 CG 47.14 CD1 47.44 CD2 47.57 CE1 46.97 CE2 48.37 CZ 47.78 OH 51.16
A TYR H 187 -60.4 -41.0 N 47.96 CA 48.71 C 48.9 O 50.97 CB 50.71 CG 54.49 CD1 56.99 CD2 57.99 CE1 60.55 CE2 61.75 CZ 62.81 OH 65.9
A LYS H 108 -66.5 -33.9 N 47.91 CA 46.69 C 45.95 O 45.02 CB 47.43 CG 48.62 CD 49.87 CE 47.88 NZ 49.04
A LEU T 4 -49.8 -17.2 N 46.56 CA 48.94 C 52.05 O 50.92 CB 45.47 CG 45.27 CD1 41.74 CD2 43.3
A ASP T 89 71.2 -96.8 N 55.53 CA 59.43 C 60.51 O 63.78 CB 61.98 CG 65.43 OD1 65.98 OD2 68.15
A LYS T 177 -150.7 31.5 N 58.8 CA 57.93 C 57.1 O 56.11 CB 59.64 CG 62.1 CD 62.43 CE 64.03 NZ 63.33
A ARG - 88 -92.2 139.3 N 54.32 CA 51.67 C 49.75 O 49.27 CB 52.7 CG 53.03 CD 52.59 NE 54.84 CZ 54.58 NH1 52.69 NH2 53.89
A ILE - 83 -102.8 109.6 N 47.16 CA 45.4 C 42.59 O 41.96 CB 47.02 CG1 47.05 CG2 46.75 CD1 50.37
A PRO E 0 -87.1 146.9 N 41.1 CA 40.51 C 40.65 O 40.43 CB 41.79 CG 42.26 CD 40.97
A LYS E 72 -112.8 -10.3 N 39.9 CA 38.16 C 37.11 O 36.66 CB 40.73 CG 44.06 CD 48.5 CE 49.16 NZ 51.49
A ALA E 0 -123.1 146.0 N 35.54 CA 35.16 C 35.59 O 35.86 CB 33.92
A ILE E 0 -139.7 133.4 N 35.35 CA 33.53 C 35.18 O 34.36 CB 34.55 CG1 33.99 CG2 31.86 CD1 33.4
A HIS E 66 -127.0 134.2 N 37.98 CA 38.4 C 38.46 O 37.83 CB 42.55 CG 46.51 ND1 48.49 CD2 48.77 CE1 48.83 NE2 51.12
A VAL E 0 -100.1 126.9 N 37.16 CA 36.06 C 35.73 O 35.77 CB 37.55 CG1 35.69 CG2 36.81
A VAL E 29 -117.1 129.8 N 36.17 CA 36.51 C 37.06 O 36.48 CB 36.91 CG1 37.28 CG2 38.39
A ALA E 0 -128.0 134.9 N 37.87 CA 38.52 C 38.78 O 39.7 CB 38.3
A VAL E 11 -100.5 111.7 N 39.45 CA 41.47 C 42.28 O 41.8 CB 40.33 CG1 38.81 CG2 38.21
A THR E 1 -72.7 172.4 N 44.71 CA 47.69 C 50.63 O 50.53 CB 46.94 OG1 47.64 CG2 45.53
A GLU T 77 -48.0 -34.5 N 53.62 CA 57.41 C 58.3 O 58.69 CB 60.33 CG 66.56 CD 68.66 OE1 68.57 OE2 69.68
A ASP T 87 -99.7 38.8 N 59.29 CA 60.77 C 60.63 O 60.61 CB 63.66 CG 65.58 OD1 65.27 OD2 68.14
A LEU S 114 54.6 29.9 N 59.05 CA 57.21 C 55.8 O 55.74 CB 58.33 CG 59.34 CD1 58.68 CD2 61.25
A ASP - 75 -101.6 146.0 N 53.83 CA 52.39 C 51.37 O 49.4 CB 52.65 CG 54.0 OD1 54.16 OD2 54.08
A ILE E 117 -103.5 136.8 N 51.23 CA 50.14 C 49.3 O 50.29 CB 49.91 CG1 48.95 CG2 47.38 CD1 52.22
A VAL E 19 -142.7 131.6 N 47.17 CA 47.24 C 46.35 O 47.71 CB 45.81 CG1 45.89 CG2 47.77
A SER E 56 -131.9 158.7 N 43.33 CA 41.72 C 40.37 O 37.99 CB 44.69 OG 48.06
A ARG E 63 -146.7 134.4 N 39.79 CA 38.83 C 39.82 O 42.79 CB 39.8 CG 38.97 CD 38.23 NE 39.58 CZ 39.45 NH1 41.45 NH2 37.66
A GLY E 35 -152.3 180.0 N 39.36 CA 40.28 C 41.54 O 41.43
A ARG E 123 -153.3 145.1 N 42.74 CA 44.04 C 43.93 O 41.81 CB 47.72 CG 50.08 CD 53.86 NE 59.31 CZ 61.45 NH1 61.58 NH2 60.49
A THR E 65 -109.0 135.9 N 43.76 CA 43.49 C 43.07 O 42.8 CB 42.55 OG1 40.85 CG2 42.24
A PHE - 15 -111.4 156.0 N 44.53 CA 45.77 C 46.98 O 47.41 CB 47.23 CG 48.63 CD1 50.42 CD2 50.53 CE1 52.77 CE2 50.43 CZ 52.22
A PRO S 117 -81.9 18.4 N 48.49 CA 47.98 C 47.23 O 47.9 CB 48.92 CG 49.18 CD 48.9
A HIS S 98 -162.0 172.1 N 47.34 CA 46.84 C 45.81 O 45.49 CB 46.51 CG 47.58 ND1 47.35 CD2 48.07 CE1 47.81 NE2 49.44
A GLY - 18 -65.2 166.6 N 46.52 CA 45.87 C 45.53 O 46.57
A ILE - 4 -113.4 113.8 N 44.28 CA 40.56 C 40.01 O 41.33 CB 39.31 CG1 38.63 CG2 36.83 CD1 37.51
A SER - 63 -73.7 169.8 N 37.77 CA 38.16 C 38.6 O 36.65 CB 38.59 OG 39.04
A LYS H 80 -64.5 -36.6 N 38.88 CA 41.07 C 40.91 O 40.7 CB 42.67 CG 47.02 CD 50.51 CE 51.55 NZ 53.37
A GLU H 155 -60.0 -42.3 N 38.67 CA 40.24 C 40.7 O 41.4 CB 40.47 CG 40.16 CD 40.03 OE1 41.63 OE2 39.86
A THR H 47 -69.8 -38.4 N 40.22 CA 39.9 C 40.57 O 40.51 CB 41.09 OG1 43.59 CG2 41.56
A ALA H 0 -59.9 -44.1 N 41.49 CA 40.71 C 41.16 O 41.91 CB 39.65
A TYR H 57 -58.8 -57.5 N 40.35 CA 42.02 C 42.72 O 42.8 CB 42.66 CG 43.55 CD1 44.82 CD2 44.38 CE1 45.42 CE2 45.2 CZ 46.15 OH 48.17
A SER H 58 -54.3 -56.4 N 43.42 CA 43.82 C 43.89 O 43.75 CB 45.26 OG 47.75
A GLU H 18 -60.7 -36.0 N 43.5 CA 44.47 C 44.88 O 43.73 CB 45.85 CG 50.68 CD 55.57 OE1 57.15 OE2 55.3
A SER H 0 -61.3 -42.8 N 45.6 CA 47.16 C 46.37 O 45.15 CB 47.58 OG 49.22
A VAL H 20 -61.7 -45.5 N 45.08 CA 44.95 C 44.64 O 45.73 CB 46.43 CG1 45.33 CG2 46.1
A LYS H 108 -57.6 -45.4 N 43.21 CA 43.4 C 42.72 O 42.72 CB 45.73 CG 48.03 CD 49.45 CE 51.06 NZ 52.44
A LEU H 8 -64.4 -33.3 N 41.18 CA 40.46 C 40.52 O 38.06 CB 40.35 CG 39.46 CD1 37.93 CD2 35.5
A LEU H 0 -68.3 -45.6 N 41.8 CA 44.22 C 46.13 O 46.27 CB 42.72 CG 40.54 CD1 37.63 CD2 37.48
A GLN H 92 -56.6 -42.8 N 47.9 CA 48.78 C 49.3 O 51.4 CB 49.62 CG 49.78 CD 51.72 OE1 50.59 NE2 53.89
A LYS H 96 -58.4 -34.4 N 48.85 CA 50.35 C 51.51 O 51.24 CB 51.75 CG 53.6 CD 56.34 CE 56.99 NZ 57.94
A ILE H 2 -69.1 -48.6 N 52.11 CA 51.59 C 52.64 O 53.57 CB 50.62 CG1 49.58 CG2 49.17 CD1 49.52
A LEU H 23 -63.3 -30.1 N 53.78 CA 56.4 C 58.64 O 59.85 CB 54.81 CG 54.7 CD1 53.36 CD2 53.12
A GLU H 160 -75.7 -28.0 N 60.02 CA 61.3 C 61.76 O 61.42 CB 62.33 CG 63.4 CD 64.02 OE1 63.52 OE2 65.47
A GLU H 84 -102.7 -2.7 N 63.73 CA 65.79 C 66.3 O 67.76 CB 67.12 CG 70.55 CD 73.6 OE1 74.66 OE2 76.28
A ASP - 25 -133.2 132.8 N 66.16 CA 65.13 C 64.1 O 64.83 CB 65.8 CG 66.68 OD1 67.41 OD2 67.2
A GLU - 153 -89.1 -16.4 N 62.68 CA 62.67 C 61.95 O 61.5 CB 62.78 CG 64.14 CD 65.41 OE1 65.68 OE2 65.22
A ARG S 54 -64.3 156.5 N 61.2 CA 58.19 C 57.64 O 56.97 CB 58.11 CG 58.09 CD 57.93 NE 58.31 CZ 56.63 NH1 56.45 NH2 54.43
A LYS - 91 -80.6 154.8 N 56.02 CA 54.34 C 52.99 O 52.08 CB 56.39 CG 58.07 CD 59.31 CE 60.31 NZ 60.48
A ILE E 2 -100.1 130.1 N 51.32 CA 48.42 C 47.54 O 48.51 CB 48.11 CG1 46.14 CG2 48.61 CD1 47.63
A ARG E 65 -102.7 -43.6 N 47.3 CA 47.37 C 46.68 O 47.33 CB 48.2 CG 48.94 CD 52.03 NE 53.37 CZ 54.39 NH1 54.78 NH2 55.25
A ARG E 80 -128.9 144.8 N 45.14 CA 43.54 C 42.26 O 42.97 CB 44.66 CG 46.33 CD 47.94 NE 51.42 CZ 50.18 NH1 50.93 NH2 51.19
A ILE E 0 -135.8 143.4 N 40.29 CA 38.73 C 38.46 O 36.92 CB 36.73 CG1 34.19 CG2 34.25 CD1 30.93
A GLY E 0 -162.6 170.0 N 36.63 CA 36.45 C 37.52 O 37.6
A VAL E 2 -127.6 154.5 N 36.68 CA 36.51 C 36.01 O 36.76 CB 35.89 CG1 38.14 CG2 37.03
A ARG E 102 -138.0 132.4 N 36.04 CA 36.71 C 34.92 O 33.87 CB 38.92 CG 44.44 CD 49.08 NE 47.99 CZ 48.2 NH1 49.13 NH2 49.93
A PHE E 0 -111.0 137.8 N 34.91 CA 34.99 C 36.56 O 37.7 CB 33.47 CG 35.29 CD1 35.08 CD2 35.96 CE1 35.49 CE2 35.09 CZ 34.43
A SER E 21 -146.3 -174.3 N 37.32 CA 37.99 C 38.2 O 36.59 CB 37.95 OG 38.0
A LYS E 114 53.6 57.6 N 39.25 CA 41.15 C 43.84 O 43.88 CB 40.62 CG 41.17 CD 41.65 CE 41.34 NZ 40.49
A PHE E 42 -67.1 154.7 N 46.59 CA 48.66 C 51.03 O 50.73 CB 47.02 CG 47.95 CD1 47.5 CD2 47.25 CE1 48.09 CE2 45.05 CZ 46.17
A ILE - 140 -83.9 360.0 N 53.33 CA 56.4 C 57.87 O 57.69 CB 56.16 CG1 56.14 CG2 56.41 CD1 58.31
