A GLY - 20 -63.9 171.6 N 38.1 CA 30.88 C 27.84 O 27.31
A PRO - 68 -75.1 167.1 N 26.48 CA 19.6 C 17.07 O 19.19 CB 24.66 CG 31.14 CD 28.71
A GLY - 8 -75.6 -179.5 N 14.26 CA 17.91 C 13.43 O 10.93
A PRO - 66 -66.3 161.5 N 11.25 CA 13.83 C 17.79 O 14.64 CB 16.68 CG 19.33 CD 18.13
A GLY - 7 -77.0 178.5 N 11.58 CA 14.3 C 9.33 O 10.32
A PRO - 61 -65.4 154.2 N 11.2 CA 12.09 C 12.22 O 10.67 CB 14.52 CG 14.07 CD 10.51
A GLY - 12 -67.0 172.9 N 11.85 CA 16.32 C 11.93 O 13.09
A LEU - 122 -66.9 160.1 N 9.3 CA 11.62 C 17.68 O 11.67 CB 18.8 CG 25.4 CD1 21.98 CD2 25.64
A GLY - 8 -67.5 178.8 N 10.4 CA 10.29 C 15.64 O 11.23
A PRO - 60 -72.6 162.8 N 11.03 CA 12.09 C 15.98 O 13.71 CB 13.74 CG 9.77 CD 8.2
A GLY - 6 -71.8 171.3 N 9.97 CA 11.53 C 10.6 O 9.48
A PRO - 59 -78.0 165.8 N 12.05 CA 13.91 C 13.46 O 9.23 CB 14.81 CG 16.04 CD 13.87
A GLY - 6 -67.6 177.5 N 10.72 CA 13.37 C 16.29 O 12.8
A PRO - 59 -63.9 157.9 N 13.76 CA 11.12 C 12.13 O 11.92 CB 12.35 CG 14.45 CD 15.23
A GLY - 7 -67.7 170.8 N 12.66 CA 14.16 C 15.96 O 12.54
A PRO - 58 -71.3 166.5 N 15.35 CA 18.48 C 19.5 O 12.23 CB 26.68 CG 22.12 CD 13.68
A GLY - 9 -78.2 -173.3 N 17.83 CA 22.71 C 21.33 O 19.89
A PRO - 61 -73.1 157.1 N 25.36 CA 23.18 C 33.73 O 26.93 CB 26.81 CG 34.28 CD 33.35
A GLY - 72 -59.8 360.0 N 40.85 CA 51.29 C 58.63 O 59.26 OXT 81.76
B GLY - 8 -67.0 -172.9 N 24.51 CA 20.81 C 21.07 O 16.61
B PRO - 62 -76.9 166.2 N 19.48 CA 17.09 C 12.51 O 16.11 CB 28.55 CG 23.1 CD 27.31
B GLY - 7 -67.2 174.5 N 12.84 CA 10.7 C 16.17 O 13.32
B PRO - 60 -60.3 155.2 N 16.54 CA 16.17 C 13.26 O 12.0 CB 9.91 CG 10.67 CD 15.74
B GLY - 7 -66.6 169.2 N 11.82 CA 12.76 C 12.87 O 13.46
B PRO - 57 -73.8 166.0 N 15.24 CA 14.24 C 11.8 O 13.61 CB 22.1 CG 20.06 CD 16.27
B GLY - 12 -71.1 179.7 N 11.09 CA 10.43 C 15.15 O 12.99
B LEU - 122 -70.8 162.6 N 15.78 CA 16.51 C 10.21 O 11.58 CB 13.46 CG 18.55 CD1 23.75 CD2 16.05
B GLY - 5 -71.7 173.8 N 11.66 CA 13.72 C 10.51 O 15.49
B PRO - 65 -62.6 150.9 N 11.78 CA 7.87 C 12.81 O 13.65 CB 15.17 CG 19.82 CD 15.84
B GLY - 6 -66.5 166.3 N 13.82 CA 13.57 C 11.92 O 11.44
B PRO - 61 -73.2 167.0 N 10.43 CA 12.12 C 12.72 O 12.63 CB 17.35 CG 11.67 CD 10.07
B GLY - 6 -70.9 -179.6 N 12.55 CA 9.72 C 9.36 O 9.6
B PRO - 62 -78.3 165.7 N 8.91 CA 12.94 C 12.95 O 12.13 CB 14.48 CG 16.06 CD 10.32
B GLY - 7 -67.3 178.0 N 16.31 CA 14.26 C 13.38 O 18.1
B PRO - 61 -62.0 156.3 N 17.09 CA 27.92 C 18.6 O 13.77 CB 28.91 CG 27.3 CD 28.93
B GLY - 5 -73.5 177.4 N 16.06 CA 29.08 C 32.75 O 31.46
B PRO - 60 -65.7 164.1 N 43.28 CA 44.83 C 36.04 O 26.4 CB 53.06 CG 56.31 CD 54.57
B GLY - 107 -83.6 360.0 N 37.66 CA 48.94 C 51.51 O 32.89 OXT 56.48
C PRO - 103 360.0 174.6 N 28.8 CA 22.33 C 26.88 O 22.61 CB 31.79 CG 35.67 CD 33.41
C GLY - 7 -71.0 177.7 N 18.23 CA 17.51 C 11.25 O 13.02
C PRO - 62 -77.1 168.8 N 14.01 CA 16.77 C 16.81 O 10.98 CB 23.82 CG 17.33 CD 17.26
C GLY - 6 -63.7 176.7 N 12.84 CA 10.98 C 12.91 O 12.07
C PRO - 63 -73.4 163.7 N 9.98 CA 14.81 C 8.62 O 12.38 CB 18.79 CG 13.38 CD 10.04
C GLY - 10 -70.4 171.5 N 11.08 CA 10.67 C 13.46 O 15.29
C PRO - 62 -73.2 163.1 N 20.29 CA 26.64 C 14.43 O 11.62 CB 20.51 CG 20.81 CD 17.98
C GLY - 8 -61.2 171.2 N 13.26 CA 14.42 C 15.14 O 10.79
C LEU - 119 -54.7 155.8 N 11.09 CA 11.74 C 12.05 O 10.23 CB 13.86 CG 26.31 CD1 15.96 CD2 28.72
C GLY - 6 -63.5 163.0 N 10.55 CA 9.15 C 14.05 O 10.41
C PRO - 58 -73.0 164.1 N 12.15 CA 9.07 C 8.33 O 10.19 CB 11.16 CG 14.46 CD 11.57
C GLY - 9 -70.4 -179.0 N 11.7 CA 8.88 C 7.05 O 13.08
C PRO - 66 -71.5 169.1 N 11.06 CA 11.49 C 10.87 O 9.47 CB 17.6 CG 20.55 CD 17.4
C GLY - 7 -69.2 176.7 N 17.04 CA 17.28 C 13.34 O 12.93
C PRO - 60 -68.4 158.2 N 10.62 CA 10.55 C 13.69 O 14.15 CB 13.77 CG 11.89 CD 13.18
C GLY - 8 -73.6 179.8 N 18.18 CA 19.01 C 21.09 O 19.76
C PRO - 59 -66.7 152.9 N 18.4 CA 22.43 C 29.52 O 26.09 CB 17.88 CG 25.91 CD 25.61
C GLY - 9 -69.3 168.0 N 42.51 CA 40.94 C 50.41 O 47.7
C PRO - 102 -74.5 360.0 N 49.38 CA 51.83 C 56.89 O 77.21 CB 51.28 CG 52.21 CD 56.7
