A THR - 116 360.0 155.0 N 26.65 CA 25.48 C 24.55 O 25.09 CB 26.57 OG1 26.83 CG2 27.45
A ILE H 39 -57.4 -40.5 N 22.55 CA 20.39 C 17.7 O 15.82 CB 21.49 CG1 21.85 CG2 22.61 CD1 23.42
A ASN H 110 -54.3 -43.8 N 15.77 CA 15.01 C 13.5 O 12.58 CB 15.07 CG 16.57 OD1 19.33 ND2 20.38
A ASP H 101 -65.2 -36.1 N 12.0 CA 12.02 C 10.54 O 10.55 CB 12.63 CG 16.4 OD1 16.82 OD2 21.13
A ASP H 79 -67.3 -46.1 N 10.12 CA 10.37 C 9.64 O 9.35 CB 10.9 CG 14.51 OD1 13.57 OD2 20.73
A LEU H 11 -61.9 -42.2 N 9.91 CA 9.94 C 9.81 O 10.1 CB 10.24 CG 11.86 CD1 13.83 CD2 14.12
A GLU H 137 -57.8 -44.3 N 10.41 CA 10.57 C 9.51 O 9.35 CB 11.22 CG 11.99 CD 15.12 OE1 16.96 OE2 20.35
A ALA H 56 -69.8 -35.8 N 9.19 CA 9.19 C 8.57 O 8.68 CB 9.49
A ILE H 5 -66.7 -44.8 N 7.95 CA 8.39 C 8.03 O 8.1 CB 8.43 CG1 9.02 CG2 8.01 CD1 9.0
A ASN H 77 -53.9 -37.5 N 8.37 CA 8.5 C 9.35 O 9.91 CB 8.57 CG 9.21 OD1 8.93 ND2 10.06
A SER H 73 -61.8 -45.3 N 9.91 CA 10.63 C 11.47 O 12.28 CB 11.47 OG 13.05
A GLU H 53 -63.2 -33.0 N 10.78 CA 11.8 C 12.19 O 11.91 CB 11.9 CG 12.33 CD 14.18 OE1 16.32 OE2 17.61
A LEU H 4 -73.0 -17.9 N 12.23 CA 13.19 C 14.03 O 14.64 CB 13.05 CG 14.42 CD1 16.25 CD2 17.21
A THR H 88 -94.9 -49.2 N 15.22 CA 15.88 C 16.14 O 16.0 CB 16.57 OG1 20.31 CG2 16.99
A SER S 73 -160.7 167.0 N 16.27 CA 16.86 C 17.01 O 17.04 CB 18.02 OG 20.04
A GLY S 30 69.3 -154.5 N 16.31 CA 15.93 C 15.64 O 15.76
A GLY T 49 63.2 -151.6 N 15.12 CA 14.84 C 14.05 O 14.64
A ASN T 35 -111.2 21.6 N 13.19 CA 12.53 C 11.59 O 11.06 CB 13.11 CG 13.16 OD1 13.45 ND2 13.9
A VAL B 0 -110.6 141.3 N 11.06 CA 11.15 C 9.71 O 9.51 CB 12.92 CG1 14.43 CG2 15.95
A VAL - 4 -85.6 134.4 N 9.05 CA 8.74 C 8.73 O 8.42 CB 8.98 CG1 9.69 CG2 9.11
A HIS B 1 -109.8 160.5 N 8.37 CA 9.01 C 9.26 O 8.5 CB 9.18 CG 9.4 ND1 8.88 CD2 10.09 CE1 10.17 NE2 9.51
A LYS S 44 -78.5 1.5 N 9.11 CA 10.13 C 10.35 O 10.08 CB 10.7 CG 11.68 CD 12.9 CE 15.78 NZ 19.29
A THR S 72 -141.2 165.9 N 11.02 CA 11.48 C 11.7 O 11.81 CB 12.48 OG1 14.45 CG2 14.19
A GLY S 36 92.4 149.5 N 11.3 CA 11.77 C 12.01 O 11.14
A ASP - 127 -80.4 124.2 N 12.2 CA 12.48 C 12.18 O 13.07 CB 13.15 CG 16.4 OD1 17.1 OD2 19.76
A GLU E 13 -139.0 148.8 N 11.71 CA 11.51 C 11.84 O 12.13 CB 11.08 CG 11.38 CD 11.52 OE1 11.14 OE2 11.79
A THR E 86 -107.6 133.6 N 12.26 CA 12.86 C 12.81 O 13.08 CB 13.82 OG1 16.8 CG2 14.42
A ILE E 2 -132.1 116.3 N 12.21 CA 11.97 C 12.33 O 12.54 CB 11.71 CG1 11.3 CG2 11.9 CD1 11.57
A ALA - 34 -100.0 167.0 N 12.59 CA 12.87 C 13.29 O 12.76 CB 12.6
A GLY S 16 98.5 157.6 N 13.66 CA 13.92 C 14.05 O 14.35
A LYS - 86 -80.4 115.2 N 13.84 CA 14.43 C 13.42 O 13.41 CB 14.79 CG 16.56 CD 18.4 CE 21.77 NZ 24.4
A LYS E 0 -106.7 117.7 N 12.89 CA 12.57 C 12.6 O 13.53 CB 11.93 CG 11.09 CD 9.87 CE 10.97 NZ 9.82
A THR E 19 -105.9 114.5 N 12.38 CA 12.44 C 12.83 O 12.19 CB 12.77 OG1 13.37 CG2 12.79
A PHE E 9 -93.3 117.5 N 12.34 CA 12.57 C 13.33 O 13.36 CB 12.14 CG 10.58 CD1 11.27 CD2 10.29 CE1 10.75 CE2 10.45 CZ 10.55
A THR - 57 -87.9 -12.4 N 13.99 CA 15.31 C 15.79 O 17.03 CB 15.61 OG1 18.47 CG2 17.33
A GLY S 17 -106.5 -158.8 N 15.35 CA 15.71 C 15.94 O 16.68
A ASN - 70 -87.2 140.1 N 15.91 CA 16.23 C 16.33 O 17.28 CB 16.82 CG 18.88 OD1 20.63 ND2 22.42
A VAL E 7 -118.9 133.0 N 15.43 CA 15.17 C 14.97 O 14.76 CB 14.42 CG1 15.29 CG2 14.85
A GLU E 54 -123.1 136.9 N 14.78 CA 15.16 C 14.02 O 12.91 CB 15.27 CG 17.55 CD 20.18 OE1 26.44 OE2 28.63
A VAL E 3 -122.2 122.6 N 12.97 CA 13.83 C 14.38 O 13.95 CB 13.67 CG1 14.54 CG2 13.54
A ASN S 74 -92.4 -23.8 N 14.68 CA 14.81 C 15.16 O 15.88 CB 15.16 CG 15.9 OD1 19.87 ND2 18.45
A GLY S 21 -92.3 -151.0 N 14.7 CA 15.36 C 15.43 O 16.72
A SER - 56 -84.1 151.3 N 15.71 CA 16.7 C 16.71 O 16.75 CB 16.75 OG 19.61
A LEU E 44 -113.8 118.9 N 17.25 CA 17.42 C 17.76 O 18.3 CB 17.41 CG 17.66 CD1 17.01 CD2 18.35
A THR E 57 -109.6 125.7 N 17.82 CA 18.02 C 18.11 O 18.1 CB 18.37 OG1 18.76 CG2 18.69
A LEU - 37 -117.9 166.3 N 18.0 CA 17.87 C 17.69 O 17.59 CB 18.13 CG 19.69 CD1 20.83 CD2 21.44
A PRO - 61 -60.2 136.5 N 17.6 CA 17.96 C 17.42 O 17.04 CB 18.23 CG 18.25 CD 18.19
A THR E 80 -132.0 145.6 N 17.71 CA 17.68 C 17.42 O 18.18 CB 18.28 OG1 22.27 CG2 19.51
A LYS E 79 -147.9 147.1 N 16.46 CA 15.94 C 14.62 O 13.23 CB 16.45 CG 17.87 CD 19.7 CE 22.91 NZ 27.24
A SER E 73 -124.1 154.7 N 13.64 CA 13.52 C 12.92 O 13.07 CB 14.1 OG 15.0
A TRP E 51 -156.1 142.6 N 11.76 CA 11.71 C 11.39 O 11.03 CB 11.97 CG 12.16 CD1 13.93 CD2 12.54 NE1 13.86 CE2 13.07 CE3 13.14 CZ2 13.89 CZ3 13.12 CH2 13.01
A SER E 65 -140.5 142.5 N 11.25 CA 11.4 C 11.83 O 13.14 CB 11.69 OG 16.52
A GLY E 3 -161.6 161.6 N 11.06 CA 10.92 C 10.44 O 10.0
A GLU E 64 -84.3 113.8 N 10.42 CA 10.15 C 9.72 O 10.36 CB 10.69 CG 11.4 CD 14.03 OE1 19.45 OE2 16.16
A LEU E 0 -68.0 -43.5 N 8.93 CA 8.84 C 8.98 O 9.44 CB 8.89 CG 8.12 CD1 7.77 CD2 9.81
A GLY E 5 165.6 153.5 N 8.75 CA 9.12 C 9.03 O 9.01
A GLY T 14 66.3 15.7 N 9.13 CA 9.13 C 8.76 O 9.58
A GLY T 9 94.7 -5.8 N 9.2 CA 8.82 C 9.15 O 9.67
A ILE E 0 -80.1 125.8 N 8.29 CA 8.48 C 8.18 O 7.94 CB 8.46 CG1 8.3 CG2 8.75 CD1 10.38
A ILE E 61 -108.1 136.2 N 8.53 CA 9.25 C 9.32 O 9.8 CB 9.75 CG1 11.53 CG2 10.17 CD1 12.14
A LEU E 2 -117.5 125.2 N 8.69 CA 8.53 C 8.85 O 9.63 CB 8.42 CG 8.84 CD1 10.89 CD2 9.34
A SER E 48 -113.0 125.3 N 8.13 CA 8.91 C 8.63 O 8.94 CB 9.32 OG 11.59
A LEU E 8 -124.4 147.7 N 8.8 CA 8.67 C 8.88 O 8.83 CB 8.62 CG 7.69 CD1 8.92 CD2 8.41
A ARG E 41 -143.9 119.9 N 9.29 CA 10.22 C 11.23 O 10.88 CB 10.14 CG 10.07 CD 11.66 NE 12.55 CZ 14.53 NH1 16.17 NH2 14.91
A LYS E 36 -89.5 132.8 N 12.28 CA 13.45 C 13.89 O 14.55 CB 14.05 CG 15.9 CD 17.79 CE 22.77 NZ 26.08
A LYS E 37 -127.4 111.0 N 14.27 CA 14.81 C 15.07 O 15.21 CB 15.37 CG 15.87 CD 15.77 CE 16.82 NZ 13.29
A GLY T 24 58.0 -122.3 N 15.64 CA 15.99 C 16.07 O 17.56
A THR T 51 -105.0 16.9 N 16.23 CA 16.02 C 15.55 O 15.66 CB 17.62 OG1 19.66 CG2 19.86
A THR E 48 -116.4 137.0 N 13.94 CA 12.92 C 11.96 O 12.02 CB 13.44 OG1 13.7 CG2 12.97
A VAL E 0 -106.7 127.5 N 11.42 CA 10.38 C 9.87 O 9.65 CB 10.35 CG1 10.44 CG2 11.94
A GLU E 21 -85.8 132.7 N 8.83 CA 8.83 C 8.57 O 8.82 CB 9.08 CG 9.57 CD 10.35 OE1 12.04 OE2 11.26
A TYR E 17 -124.3 153.5 N 7.74 CA 7.94 C 8.1 O 7.8 CB 8.21 CG 7.42 CD1 7.69 CD2 6.82 CE1 7.83 CE2 8.54 CZ 9.75 OH 9.95
A SER E 38 -142.0 128.9 N 8.72 CA 9.2 C 9.1 O 9.68 CB 11.17 OG 15.61
A ILE E 2 -92.3 135.6 N 8.24 CA 8.1 C 8.1 O 8.1 CB 8.11 CG1 9.51 CG2 8.66 CD1 9.63
A GLY E 16 -143.5 -163.2 N 7.62 CA 7.91 C 7.8 O 8.13
A GLY E 24 82.5 -159.0 N 9.33 CA 9.56 C 10.01 O 9.47
A GLU - 118 -159.9 136.0 N 11.78 CA 13.12 C 13.44 O 14.97 CB 14.04 CG 15.51 CD 18.46 OE1 27.66 OE2 26.13
A ILE - 2 -68.0 114.3 N 12.67 CA 12.68 C 13.13 O 12.83 CB 12.91 CG1 12.62 CG2 13.21 CD1 11.78
A SER - 84 -119.5 3.8 N 13.51 CA 14.27 C 14.87 O 14.92 CB 14.66 OG 15.96
A SER S 64 -152.8 171.4 N 14.46 CA 14.86 C 14.93 O 15.0 CB 15.33 OG 16.52
A SER - 73 -71.3 118.5 N 14.7 CA 14.7 C 14.1 O 15.68 CB 15.64 OG 20.97
A ILE B 7 -102.7 114.2 N 12.53 CA 11.54 C 10.94 O 10.57 CB 11.45 CG1 11.2 CG2 12.4 CD1 10.64
A LEU - 102 -75.6 151.0 N 11.04 CA 10.67 C 9.99 O 9.39 CB 10.69 CG 12.96 CD1 14.04 CD2 16.45
A ALA T 35 -54.6 138.0 N 10.16 CA 9.65 C 9.78 O 9.23 CB 9.35
A ASN T 75 55.3 43.1 N 9.29 CA 10.29 C 10.57 O 12.61 CB 11.28 CG 13.22 OD1 14.91 ND2 16.54
A SER E 27 -113.2 153.0 N 10.05 CA 9.97 C 9.21 O 9.87 CB 10.35 OG 10.31
A ASN E 88 -71.7 135.7 N 8.99 CA 8.99 C 8.27 O 8.98 CB 9.03 CG 10.56 OD1 11.98 ND2 12.21
A LEU - 5 -91.7 115.7 N 8.45 CA 8.95 C 9.28 O 9.86 CB 8.81 CG 8.21 CD1 9.84 CD2 8.89
A VAL - 117 -123.2 15.8 N 10.07 CA 10.18 C 11.43 O 12.02 CB 10.51 CG1 11.57 CG2 9.96
A ASN S 90 -73.3 -49.0 N 11.07 CA 11.5 C 12.07 O 12.28 CB 11.19 CG 12.49 OD1 15.74 ND2 13.06
A ARG - 129 -145.7 140.4 N 12.36 CA 13.57 C 12.71 O 12.08 CB 14.47 CG 17.61 CD 20.0 NE 23.91 CZ 26.61 NH1 24.85 NH2 29.06
A SER - 57 -88.8 156.8 N 12.46 CA 12.08 C 11.67 O 12.06 CB 12.48 OG 15.14
A VAL - 1 -69.4 129.5 N 10.81 CA 11.39 C 11.96 O 11.83 CB 10.71 CG1 10.62 CG2 10.84
A PRO - 31 -59.3 149.3 N 12.86 CA 13.6 C 14.56 O 14.15 CB 13.55 CG 13.46 CD 13.47
A ASN G 141 -48.4 -40.1 N 15.23 CA 16.46 C 16.19 O 16.85 CB 17.36 CG 21.71 OD1 27.62 ND2 27.85
A GLU G 90 -63.4 -19.4 N 16.62 CA 17.32 C 16.01 O 16.66 CB 18.43 CG 21.29 CD 22.32 OE1 28.37 OE2 26.65
A PHE G 0 -105.9 0.5 N 15.01 CA 14.37 C 14.26 O 13.67 CB 14.29 CG 13.25 CD1 12.34 CD2 13.43 CE1 12.66 CE2 14.31 CZ 14.84
A CYS - 13 -80.3 136.6 N 14.08 CA 13.9 C 13.73 O 14.26 CB 14.02 SG 14.69
A PRO - 4 -81.4 160.0 N 13.05 CA 14.0 C 15.26 O 15.22 CB 13.44 CG 12.61 CD 12.89
A ARG S 164 -64.4 -41.4 N 16.97 CA 17.61 C 17.78 O 17.64 CB 18.2 CG 20.5 CD 22.48 NE 27.52 CZ 27.76 NH1 29.8 NH2 29.15
A ASN S 104 -119.1 147.2 N 17.47 CA 17.59 C 16.39 O 16.36 CB 18.75 CG 21.54 OD1 25.34 ND2 24.94
A ARG - 117 -53.7 127.0 N 15.88 CA 15.27 C 13.96 O 13.89 CB 16.04 CG 16.65 CD 16.71 NE 16.17 CZ 17.19 NH1 15.73 NH2 19.25
A CYS E 6 -113.8 142.8 N 12.25 CA 11.91 C 10.97 O 11.59 CB 12.15 SG 18.16
A SER E 7 -113.3 113.5 N 9.18 CA 8.78 C 8.44 O 8.78 CB 9.06 OG 9.13
A LEU E 1 -103.2 112.1 N 7.43 CA 7.43 C 7.19 O 6.55 CB 7.69 CG 9.19 CD1 11.2 CD2 11.55
A VAL E 11 -84.0 134.3 N 7.17 CA 6.73 C 6.86 O 7.88 CB 7.09 CG1 8.03 CG2 8.15
A GLY E 0 -133.8 172.0 N 6.27 CA 6.11 C 6.11 O 6.15
A HIS E 0 -136.0 146.1 N 5.94 CA 5.72 C 6.19 O 7.27 CB 6.24 CG 6.14 ND1 6.13 CD2 5.89 CE1 6.3 NE2 6.5
A MET E 12 -96.1 126.3 N 5.84 CA 6.53 C 6.89 O 6.99 CB 7.89 CG 8.45 SD 8.76 CE 17.67
A VAL T 51 -52.5 135.7 N 6.96 CA 8.1 C 7.94 O 8.05 CB 7.83 CG1 9.73 CG2 8.1
A GLY T 29 91.2 -3.7 N 8.22 CA 8.93 C 8.94 O 11.07
A GLY S 22 -144.9 -160.0 N 7.95 CA 7.68 C 7.29 O 7.48
A TRP S 63 -101.6 9.9 N 7.27 CA 7.16 C 7.05 O 7.26 CB 7.52 CG 7.63 CD1 8.23 CD2 7.43 NE1 9.24 CE2 7.92 CE3 6.97 CZ2 7.17 CZ3 6.91 CH2 7.1
A ASN - 63 -85.6 133.6 N 6.97 CA 6.95 C 6.54 O 6.99 CB 6.58 CG 8.72 OD1 9.69 ND2 11.27
A ALA E 0 -119.3 154.3 N 6.5 CA 6.63 C 6.5 O 6.33 CB 7.2
A PHE E 0 -136.3 174.7 N 5.93 CA 5.78 C 6.62 O 6.77 CB 6.67 CG 5.4 CD1 5.97 CD2 7.87 CE1 5.57 CE2 8.05 CZ 7.9
A HIS E 1 -139.0 156.0 N 6.37 CA 6.65 C 7.01 O 6.86 CB 6.76 CG 7.32 ND1 10.15 CD2 3.73 CE1 4.56 NE2 9.75
A ILE E 1 -119.7 128.3 N 7.57 CA 7.87 C 7.86 O 7.58 CB 8.28 CG1 8.64 CG2 8.25 CD1 10.44
A ASP E 7 -91.0 139.2 N 7.51 CA 8.01 C 8.07 O 8.08 CB 7.32 CG 9.97 OD1 9.47 OD2 11.41
A ILE E 0 -114.4 108.6 N 9.32 CA 10.29 C 11.22 O 10.85 CB 10.85 CG1 11.86 CG2 10.97 CD1 11.23
A PRO - 9 -87.3 175.1 N 12.51 CA 12.92 C 13.38 O 12.9 CB 13.18 CG 14.32 CD 12.98
A SER T 77 -60.2 -26.6 N 14.27 CA 14.65 C 14.56 O 14.76 CB 15.65 OG 19.75
A SER T 67 -70.3 -21.6 N 13.97 CA 13.96 C 13.59 O 14.5 CB 14.29 OG 15.36
A GLY - 0 79.4 2.4 N 12.99 CA 12.27 C 11.39 O 11.86
A VAL - 49 -83.5 94.9 N 11.7 CA 11.35 C 11.14 O 11.51 CB 12.02 CG1 12.41 CG2 13.34
A CYS - 0 -71.2 155.4 N 10.24 CA 9.83 C 9.97 O 10.09 CB 9.21 SG 10.49
A GLN E 35 -130.4 136.0 N 9.34 CA 8.99 C 8.4 O 8.19 CB 9.51 CG 11.21 CD 11.75 OE1 11.71 NE2 16.02
A TRP E 0 -88.8 122.7 N 7.58 CA 7.49 C 7.58 O 7.75 CB 7.46 CG 7.04 CD1 7.99 CD2 6.94 NE1 7.65 CE2 6.44 CE3 7.3 CZ2 7.32 CZ3 7.64 CH2 7.45
A PHE - 29 -113.8 21.6 N 7.48 CA 7.87 C 7.55 O 7.29 CB 8.35 CG 8.27 CD1 9.18 CD2 8.81 CE1 8.95 CE2 9.12 CZ 10.24
A GLY S 0 -77.9 -173.4 N 8.08 CA 7.85 C 8.27 O 9.18
A PRO - 23 -82.6 180.0 N 8.16 CA 8.15 C 8.6 O 8.13 CB 8.75 CG 8.1 CD 7.83
A THR - 79 -62.8 131.9 N 9.15 CA 9.5 C 10.3 O 10.13 CB 9.68 OG1 9.5 CG2 9.57
A ALA B 9 -146.6 143.0 N 10.83 CA 11.53 C 12.17 O 12.96 CB 11.87
A SER S 79 -130.2 9.3 N 12.71 CA 12.94 C 12.8 O 13.03 CB 13.8 OG 17.56
A SER S 86 -155.4 166.5 N 11.98 CA 12.03 C 11.11 O 11.36 CB 12.04 OG 14.1
A GLY - 27 116.9 166.1 N 10.88 CA 10.59 C 9.49 O 9.12
A THR - 43 -121.9 103.0 N 8.67 CA 8.3 C 7.54 O 8.74 CB 9.07 OG1 10.33 CG2 9.76
A PRO E 0 -86.4 140.0 N 7.21 CA 7.06 C 7.09 O 7.57 CB 7.21 CG 7.3 CD 6.92
A ARG E 67 -144.8 157.7 N 6.81 CA 6.74 C 6.58 O 7.0 CB 7.25 CG 6.69 CD 7.77 NE 9.02 CZ 10.05 NH1 8.22 NH2 10.95
A GLY E 0 158.5 131.5 N 6.42 CA 7.03 C 7.36 O 7.63
A THR E 8 -122.2 134.7 N 7.68 CA 7.86 C 8.25 O 9.56 CB 7.79 OG1 8.99 CG2 9.17
A GLY E 9 -174.7 -156.7 N 7.55 CA 7.75 C 7.78 O 6.7
A THR E 16 -136.2 159.8 N 7.77 CA 8.31 C 8.7 O 8.64 CB 8.75 OG1 9.41 CG2 8.26
A TYR E 1 -143.3 157.1 N 8.7 CA 9.38 C 9.85 O 10.36 CB 9.33 CG 8.46 CD1 7.85 CD2 8.36 CE1 10.11 CE2 10.02 CZ 9.36 OH 11.05
A PRO E 18 -87.9 146.4 N 11.15 CA 11.85 C 12.87 O 11.86 CB 11.42 CG 12.75 CD 10.96
A ILE - 32 -85.8 -29.1 N 14.57 CA 17.07 C 18.38 O 19.44 CB 18.34 CG1 21.21 CG2 20.69 CD1 22.92
A ASP - 39 -107.3 360.0 N 18.72 CA 19.29 C 19.79 O 19.81 CB 19.56 CG 21.4 OD1 20.12 OD2 23.98
B GLU - 145 360.0 -109.9 N 25.61 CA 25.26 C 24.26 O 24.0 CB 25.86 CG 28.62 CD 32.0 OE1 30.03 OE2 36.86
B THR H 68 -56.3 -38.9 N 22.94 CA 22.2 C 20.5 O 19.19 CB 22.97 OG1 26.8 CG2 23.34
B ILE H 31 -57.3 -52.5 N 18.73 CA 18.25 C 16.95 O 15.1 CB 17.95 CG1 20.03 CG2 18.47 CD1 20.22
B ASN H 104 -66.7 -35.1 N 16.08 CA 16.58 C 15.55 O 15.35 CB 17.29 CG 18.71 OD1 21.9 ND2 20.5
B ASP H 116 -59.6 -47.5 N 14.3 CA 14.39 C 12.88 O 13.58 CB 14.99 CG 17.97 OD1 21.76 OD2 20.98
B ASP H 39 -62.1 -48.0 N 11.93 CA 11.17 C 10.53 O 9.63 CB 10.65 CG 12.07 OD1 12.64 OD2 10.86
B LEU H 14 -63.6 -35.7 N 9.88 CA 10.38 C 10.26 O 10.87 CB 9.68 CG 10.65 CD1 12.48 CD2 11.86
B GLU H 137 -54.7 -51.0 N 10.88 CA 11.74 C 11.07 O 12.53 CB 12.62 CG 15.26 CD 18.07 OE1 18.8 OE2 17.77
B ALA H 49 -62.2 -43.3 N 10.63 CA 10.68 C 10.68 O 11.5 CB 11.42
B ILE H 2 -67.6 -49.8 N 9.56 CA 9.19 C 9.57 O 9.0 CB 8.59 CG1 8.11 CG2 8.81 CD1 8.32
B ASN H 77 -57.7 -40.7 N 9.61 CA 10.41 C 10.53 O 10.15 CB 11.03 CG 11.86 OD1 13.7 ND2 12.44
B SER H 77 -58.2 -55.9 N 11.3 CA 11.91 C 11.85 O 11.75 CB 12.78 OG 14.77
B GLU H 19 -66.7 -24.8 N 11.45 CA 11.59 C 10.69 O 10.41 CB 11.65 CG 14.85 CD 15.68 OE1 19.28 OE2 19.97
B LEU H 1 -70.5 -22.3 N 9.72 CA 9.96 C 10.17 O 9.8 CB 9.86 CG 10.49 CD1 11.51 CD2 11.83
B THR H 89 -97.4 -45.1 N 10.64 CA 10.95 C 11.06 O 10.26 CB 12.11 OG1 16.23 CG2 12.04
B SER S 69 -162.9 165.6 N 10.92 CA 11.72 C 12.04 O 12.5 CB 12.33 OG 13.92
B GLY S 34 68.9 -146.8 N 11.53 CA 11.66 C 11.41 O 11.36
B GLY T 55 57.5 -152.5 N 11.45 CA 11.08 C 10.24 O 11.29
B ASN T 32 -111.9 21.9 N 10.26 CA 9.72 C 9.9 O 10.15 CB 8.95 CG 9.94 OD1 11.4 ND2 9.75
B VAL B 0 -104.2 136.2 N 9.97 CA 10.32 C 9.03 O 9.68 CB 11.11 CG1 15.08 CG2 14.32
B VAL - 4 -81.2 131.3 N 8.88 CA 8.55 C 8.32 O 7.27 CB 8.48 CG1 8.86 CG2 9.15
B HIS B 1 -109.1 165.3 N 8.05 CA 8.54 C 8.79 O 7.76 CB 8.58 CG 7.99 ND1 7.74 CD2 7.41 CE1 9.37 NE2 7.76
B LYS S 44 -82.6 0.8 N 9.04 CA 11.19 C 11.53 O 12.29 CB 11.09 CG 13.59 CD 14.64 CE 16.48 NZ 18.7
B THR S 70 -134.6 168.6 N 11.95 CA 12.6 C 11.95 O 11.19 CB 13.24 OG1 15.25 CG2 13.85
B GLY S 34 94.5 143.5 N 13.16 CA 13.66 C 14.09 O 13.81
B ASP - 131 -77.2 117.7 N 14.5 CA 15.05 C 15.3 O 16.4 CB 15.45 CG 16.96 OD1 16.56 OD2 19.33
B GLU E 17 -137.4 147.1 N 14.02 CA 13.37 C 13.8 O 14.39 CB 12.91 CG 12.33 CD 12.52 OE1 10.18 OE2 11.49
B THR E 86 -107.0 132.1 N 13.4 CA 13.32 C 12.89 O 13.26 CB 14.2 OG1 18.48 CG2 14.23
B ILE E 2 -129.8 111.9 N 11.2 CA 10.94 C 10.68 O 10.48 CB 10.23 CG1 9.51 CG2 10.17 CD1 10.8
B ALA - 33 -95.6 163.3 N 9.8 CA 10.41 C 9.97 O 10.36 CB 10.41
B GLY S 18 98.4 154.8 N 10.05 CA 10.14 C 10.23 O 10.32
B LYS - 62 -75.1 119.7 N 10.72 CA 11.15 C 10.6 O 10.93 CB 11.78 CG 12.88 CD 15.47 CE 20.2 NZ 23.92
B LYS E 0 -107.8 118.3 N 10.21 CA 9.78 C 9.73 O 10.28 CB 10.15 CG 10.28 CD 10.09 CE 10.63 NZ 9.19
B THR E 21 -106.3 112.7 N 9.58 CA 9.72 C 9.75 O 10.03 CB 9.55 OG1 12.32 CG2 11.03
B PHE E 8 -92.0 114.2 N 9.6 CA 10.0 C 10.89 O 9.98 CB 9.66 CG 8.46 CD1 9.52 CD2 8.92 CE1 9.69 CE2 9.15 CZ 10.19
B THR - 60 -83.2 -16.4 N 10.9 CA 11.74 C 12.44 O 13.76 CB 12.35 OG1 12.66 CG2 12.88
B GLY S 18 -102.8 -153.4 N 12.12 CA 12.82 C 13.17 O 14.42
B ASN - 77 -94.4 143.7 N 13.56 CA 13.74 C 14.35 O 15.38 CB 14.49 CG 15.04 OD1 16.48 ND2 20.81
B VAL E 9 -123.0 136.3 N 13.8 CA 14.11 C 14.72 O 14.42 CB 13.8 CG1 13.61 CG2 13.76
B GLU E 56 -123.7 140.6 N 15.13 CA 15.86 C 16.2 O 15.8 CB 16.29 CG 17.05 CD 19.26 OE1 22.48 OE2 24.98
B VAL E 2 -123.0 121.6 N 15.73 CA 16.8 C 17.35 O 16.85 CB 16.87 CG1 18.04 CG2 16.96
B ASN S 74 -89.3 -24.8 N 18.12 CA 19.01 C 19.76 O 20.12 CB 19.35 CG 19.51 OD1 22.52 ND2 22.93
B GLY S 20 -92.6 -149.3 N 19.99 CA 20.63 C 21.23 O 22.55
B SER - 51 -85.4 151.1 N 21.66 CA 21.92 C 21.76 O 21.39 CB 22.19 OG 24.54
B LEU E 36 -119.1 112.4 N 21.77 CA 21.83 C 22.32 O 22.42 CB 21.66 CG 22.05 CD1 20.14 CD2 22.14
B THR E 62 -109.5 129.6 N 21.8 CA 21.71 C 21.49 O 20.88 CB 21.92 OG1 23.05 CG2 22.65
B LEU - 47 -111.5 168.5 N 21.05 CA 21.03 C 20.7 O 20.64 CB 21.08 CG 21.97 CD1 23.11 CD2 21.55
B PRO - 55 -62.6 132.2 N 20.74 CA 20.68 C 20.64 O 21.09 CB 21.1 CG 21.24 CD 20.7
B THR E 85 -127.1 144.2 N 20.42 CA 19.98 C 19.43 O 19.56 CB 20.98 OG1 23.96 CG2 22.05
B LYS E 101 -151.6 143.5 N 17.86 CA 17.35 C 16.17 O 15.04 CB 18.1 CG 20.0 CD 24.05 CE 25.79 NZ 27.85
B SER E 77 -122.2 154.1 N 15.43 CA 15.15 C 15.42 O 15.7 CB 15.7 OG 15.6
B TRP E 56 -155.5 143.1 N 14.69 CA 14.67 C 14.4 O 14.89 CB 14.88 CG 14.76 CD1 16.7 CD2 15.1 NE1 16.53 CE2 15.22 CE3 15.53 CZ2 15.58 CZ3 15.71 CH2 15.48
B SER E 67 -140.3 142.8 N 14.41 CA 14.53 C 14.23 O 14.76 CB 14.93 OG 19.13
B GLY E 11 -160.9 155.7 N 13.53 CA 13.11 C 12.77 O 11.48
B GLU E 76 -81.5 110.6 N 12.82 CA 12.77 C 12.26 O 11.93 CB 12.79 CG 13.96 CD 15.92 OE1 18.97 OE2 16.92
B LEU E 0 -62.9 -41.1 N 11.06 CA 10.91 C 11.01 O 11.32 CB 10.51 CG 11.12 CD1 11.74 CD2 12.72
B GLY E 5 159.0 155.5 N 10.85 CA 10.76 C 10.44 O 10.5
B GLY T 14 58.3 19.8 N 10.75 CA 10.67 C 10.73 O 10.98
B GLY T 8 94.5 -9.0 N 10.91 CA 10.4 C 9.92 O 10.38
B ILE E 1 -78.7 126.7 N 9.56 CA 10.21 C 9.97 O 9.99 CB 9.88 CG1 10.35 CG2 10.79 CD1 11.65
B ILE E 61 -109.1 135.5 N 10.62 CA 11.26 C 11.36 O 11.74 CB 11.55 CG1 13.24 CG2 12.46 CD1 14.07
B LEU E 2 -116.0 124.4 N 10.7 CA 10.67 C 10.92 O 11.23 CB 10.66 CG 9.86 CD1 11.38 CD2 11.29
B SER E 48 -111.2 126.6 N 9.93 CA 10.84 C 11.04 O 10.51 CB 11.19 OG 13.16
B LEU E 5 -127.2 145.1 N 10.64 CA 10.91 C 11.27 O 12.51 CB 10.87 CG 10.14 CD1 11.19 CD2 10.67
B ARG E 40 -139.4 120.3 N 11.37 CA 11.97 C 12.36 O 11.8 CB 10.94 CG 12.0 CD 12.77 NE 14.34 CZ 15.73 NH1 17.09 NH2 16.2
B LYS E 36 -88.9 131.9 N 13.42 CA 14.72 C 15.22 O 16.25 CB 15.24 CG 16.51 CD 18.59 CE 21.46 NZ 23.42
B LYS E 30 -126.5 106.8 N 14.86 CA 15.69 C 15.42 O 15.17 CB 15.8 CG 16.11 CD 16.41 CE 16.49 NZ 14.68
B GLY T 20 61.2 -122.6 N 16.27 CA 16.74 C 16.92 O 17.59
B THR T 53 -107.3 14.9 N 16.89 CA 16.55 C 15.68 O 16.93 CB 17.11 OG1 20.23 CG2 18.99
B THR E 47 -108.9 136.1 N 14.19 CA 13.3 C 12.17 O 11.64 CB 13.39 OG1 15.1 CG2 13.68
B VAL E 0 -109.1 124.0 N 10.56 CA 10.69 C 10.2 O 9.45 CB 10.35 CG1 10.31 CG2 12.54
B GLU E 18 -81.5 131.1 N 9.93 CA 10.57 C 10.24 O 9.92 CB 10.7 CG 10.64 CD 12.37 OE1 13.67 OE2 13.56
B TYR E 14 -122.4 153.0 N 9.87 CA 10.11 C 10.07 O 8.96 CB 10.14 CG 9.64 CD1 10.68 CD2 9.55 CE1 11.16 CE2 10.35 CZ 10.99 OH 12.07
B SER E 38 -139.7 122.4 N 10.49 CA 10.87 C 10.86 O 10.35 CB 12.48 OG 17.87
B ILE E 7 -83.6 135.2 N 9.83 CA 10.28 C 10.62 O 11.04 CB 9.93 CG1 9.49 CG2 10.14 CD1 10.9
B GLY E 14 -146.0 -160.4 N 9.66 CA 10.06 C 9.55 O 9.85
B GLY E 23 76.3 -153.2 N 10.2 CA 10.49 C 10.29 O 10.22
B GLU - 112 -160.2 137.2 N 11.18 CA 12.14 C 11.85 O 12.66 CB 12.67 CG 13.76 CD 17.48 OE1 25.98 OE2 22.99
B ILE - 3 -72.9 116.2 N 11.48 CA 11.88 C 12.14 O 11.9 CB 11.63 CG1 12.3 CG2 12.3 CD1 11.88
B SER - 82 -119.9 1.7 N 12.81 CA 14.06 C 14.55 O 15.79 CB 13.99 OG 16.52
B SER S 62 -153.0 169.0 N 15.06 CA 15.2 C 15.41 O 15.4 CB 16.03 OG 18.81
B SER - 78 -62.2 127.0 N 14.69 CA 14.22 C 13.23 O 12.68 CB 14.92 OG 19.47
B ILE B 7 -117.4 118.7 N 12.41 CA 12.27 C 11.5 O 12.18 CB 12.29 CG1 12.88 CG2 12.76 CD1 12.46
B LEU - 106 -78.0 147.7 N 11.46 CA 11.03 C 10.64 O 10.05 CB 11.08 CG 11.43 CD1 12.53 CD2 12.96
B ALA T 35 -52.0 134.4 N 11.21 CA 11.0 C 11.8 O 11.06 CB 11.49
B ASN T 86 72.9 9.8 N 11.27 CA 12.79 C 12.67 O 14.09 CB 13.29 CG 16.72 OD1 16.61 ND2 18.11
B SER - 30 -85.1 151.8 N 12.47 CA 11.98 C 11.75 O 12.2 CB 12.33 OG 11.61
B ASN B 82 -70.5 140.8 N 11.57 CA 11.65 C 11.56 O 11.48 CB 11.45 CG 13.29 OD1 13.18 ND2 15.18
B LEU - 6 -96.5 112.3 N 11.11 CA 11.52 C 11.59 O 12.96 CB 10.93 CG 10.79 CD1 11.39 CD2 11.35
B VAL - 116 -117.7 12.6 N 12.68 CA 13.11 C 14.12 O 15.56 CB 13.27 CG1 14.29 CG2 13.4
B ASN S 84 -75.3 -47.4 N 13.7 CA 13.82 C 14.13 O 13.7 CB 13.92 CG 14.52 OD1 17.24 ND2 13.38
B ARG - 145 -144.6 136.4 N 13.62 CA 14.74 C 14.39 O 13.87 CB 15.24 CG 20.68 CD 27.19 NE 31.74 CZ 33.38 NH1 36.35 NH2 34.72
B SER - 58 -89.3 154.0 N 14.04 CA 14.1 C 13.56 O 13.46 CB 14.68 OG 16.62
B VAL - 2 -69.6 128.6 N 13.81 CA 13.91 C 14.41 O 13.65 CB 13.98 CG1 12.87 CG2 14.12
B PRO - 44 -56.2 147.1 N 14.75 CA 15.47 C 16.01 O 14.8 CB 15.06 CG 16.38 CD 15.37
B ASN G 142 -45.2 -39.1 N 16.55 CA 17.5 C 17.33 O 16.81 CB 18.44 CG 22.43 OD1 27.99 ND2 26.16
B GLU G 88 -60.3 -26.0 N 17.88 CA 18.01 C 17.28 O 17.74 CB 18.46 CG 20.23 CD 21.43 OE1 27.56 OE2 30.42
B PHE G 3 -106.4 1.9 N 16.06 CA 15.11 C 14.69 O 14.66 CB 14.7 CG 14.44 CD1 14.51 CD2 15.38 CE1 14.56 CE2 15.77 CZ 15.54
B CYS - 13 -81.5 135.1 N 14.01 CA 14.18 C 13.89 O 14.06 CB 13.82 SG 14.9
B PRO - 3 -80.8 154.5 N 14.16 CA 15.08 C 15.85 O 16.45 CB 14.41 CG 14.25 CD 14.24
B ARG S 164 -62.2 -40.6 N 17.62 CA 18.22 C 18.05 O 18.28 CB 18.33 CG 20.3 CD 23.34 NE 29.91 CZ 31.68 NH1 32.88 NH2 31.6
B ASN S 104 -118.5 133.0 N 17.9 CA 17.79 C 16.81 O 16.84 CB 18.87 CG 22.06 OD1 28.18 ND2 26.97
B ARG - 108 -46.6 131.9 N 15.85 CA 14.65 C 12.85 O 12.37 CB 15.37 CG 16.11 CD 17.26 NE 18.09 CZ 17.74 NH1 17.13 NH2 17.86
B CYS E 4 -116.9 149.0 N 11.52 CA 10.83 C 10.21 O 10.49 CB 11.26 SG 14.38
B SER E 4 -116.7 113.8 N 8.01 CA 8.24 C 8.07 O 8.36 CB 7.96 OG 9.75
B LEU E 0 -101.7 113.5 N 7.32 CA 7.43 C 7.42 O 7.01 CB 7.98 CG 10.06 CD1 12.57 CD2 12.33
B VAL E 12 -84.4 134.3 N 7.09 CA 7.03 C 7.8 O 8.76 CB 7.14 CG1 7.31 CG2 8.02
B GLY E 0 -130.7 175.1 N 7.26 CA 7.23 C 7.34 O 7.58
B HIS E 0 -136.3 146.2 N 7.18 CA 7.29 C 7.27 O 7.74 CB 6.89 CG 6.19 ND1 5.82 CD2 6.4 CE1 5.53 NE2 6.85
B MET E 12 -94.5 127.8 N 7.49 CA 7.96 C 7.58 O 6.94 CB 7.66 CG 8.52 SD 10.07 CE 11.66
B VAL T 52 -56.4 135.0 N 7.8 CA 8.74 C 9.04 O 10.14 CB 8.66 CG1 10.18 CG2 10.0
B GLY T 28 95.3 -2.4 N 9.12 CA 9.82 C 9.73 O 11.26
B GLY S 20 -149.0 -160.0 N 9.0 CA 8.79 C 8.57 O 8.16
B TRP S 65 -102.9 11.2 N 8.33 CA 7.84 C 7.52 O 7.72 CB 8.31 CG 7.6 CD1 8.17 CD2 6.86 NE1 8.13 CE2 8.49 CE3 6.49 CZ2 8.26 CZ3 7.58 CH2 8.07
B ASN - 65 -84.9 132.4 N 7.35 CA 7.5 C 7.24 O 7.61 CB 7.86 CG 9.02 OD1 10.11 ND2 11.67
B ALA E 0 -117.0 158.4 N 7.51 CA 7.14 C 7.59 O 6.86 CB 7.92
B PHE E 0 -141.5 175.2 N 7.17 CA 6.69 C 7.14 O 6.92 CB 6.79 CG 6.74 CD1 7.37 CD2 7.18 CE1 7.74 CE2 7.9 CZ 7.15
B HIS E 1 -139.5 156.0 N 6.4 CA 6.95 C 7.49 O 7.59 CB 6.88 CG 6.41 ND1 7.05 CD2 6.7 CE1 6.77 NE2 7.28
B ILE E 1 -118.6 129.7 N 7.85 CA 8.03 C 8.64 O 8.36 CB 8.02 CG1 8.28 CG2 8.53 CD1 9.51
B ASP E 5 -92.5 142.5 N 8.09 CA 8.78 C 8.96 O 9.46 CB 8.31 CG 9.0 OD1 9.22 OD2 10.54
B ILE E 0 -111.6 105.3 N 9.08 CA 10.23 C 10.74 O 10.04 CB 10.3 CG1 10.58 CG2 10.73 CD1 11.09
B PRO - 12 -77.9 172.4 N 11.85 CA 12.66 C 12.99 O 12.55 CB 13.63 CG 13.72 CD 12.09
B SER T 64 -57.9 -28.3 N 13.92 CA 14.59 C 14.47 O 14.98 CB 15.31 OG 17.73
B SER T 71 -71.4 -21.1 N 14.46 CA 14.04 C 13.53 O 14.14 CB 14.54 OG 15.53
B GLY - 0 81.8 1.6 N 12.78 CA 12.11 C 11.84 O 11.39
B VAL - 43 -86.7 96.0 N 11.78 CA 11.77 C 11.14 O 11.91 CB 11.61 CG1 12.39 CG2 12.99
B CYS - 0 -69.5 157.1 N 11.35 CA 10.78 C 10.82 O 11.28 CB 9.89 SG 11.43
B GLN E 36 -130.6 138.3 N 10.95 CA 10.64 C 10.75 O 10.5 CB 11.56 CG 12.01 CD 13.03 OE1 14.42 NE2 16.42
B TRP E 0 -90.1 123.8 N 9.55 CA 9.22 C 9.22 O 9.3 CB 9.13 CG 8.55 CD1 8.58 CD2 6.99 NE1 8.32 CE2 7.97 CE3 8.22 CZ2 7.64 CZ3 8.71 CH2 9.17
B PHE - 17 -117.8 19.7 N 8.27 CA 7.9 C 7.64 O 7.47 CB 8.07 CG 7.72 CD1 8.96 CD2 9.55 CE1 10.57 CE2 8.79 CZ 9.01
B GLY S 0 -75.5 -176.8 N 7.78 CA 7.92 C 8.03 O 8.05
B PRO - 22 -76.6 171.7 N 8.45 CA 8.77 C 9.06 O 8.06 CB 8.84 CG 8.87 CD 8.27
B THR S 77 -56.9 130.9 N 9.43 CA 9.95 C 10.0 O 10.47 CB 9.63 OG1 10.48 CG2 11.64
B ALA B 12 -149.3 153.0 N 10.84 CA 10.86 C 11.35 O 11.79 CB 11.83
B SER S 75 -137.4 10.0 N 11.72 CA 12.47 C 12.64 O 13.71 CB 13.14 OG 15.19
B SER - 82 -156.5 164.1 N 12.15 CA 12.02 C 11.42 O 11.79 CB 12.08 OG 14.16
B GLY - 25 112.4 163.3 N 10.95 CA 10.58 C 9.89 O 10.12
B THR - 39 -114.1 104.7 N 9.35 CA 9.05 C 8.24 O 8.56 CB 9.07 OG1 11.63 CG2 9.2
B PRO E 0 -86.8 138.5 N 7.93 CA 7.86 C 8.37 O 8.22 CB 8.4 CG 8.17 CD 7.57
B ARG E 74 -143.1 157.4 N 8.22 CA 7.85 C 8.17 O 8.44 CB 8.37 CG 8.51 CD 9.66 NE 10.89 CZ 11.37 NH1 10.47 NH2 10.91
B GLY E 0 159.7 132.0 N 7.64 CA 8.05 C 8.67 O 8.24
B THR E 10 -121.1 135.7 N 9.48 CA 9.44 C 9.61 O 10.65 CB 9.92 OG1 12.4 CG2 11.42
B GLY E 9 -171.5 -154.8 N 8.67 CA 8.69 C 8.46 O 8.38
B THR E 14 -140.8 160.0 N 8.45 CA 8.75 C 9.46 O 8.64 CB 8.67 OG1 7.93 CG2 7.82
B TYR E 2 -146.5 154.5 N 8.9 CA 9.35 C 9.92 O 9.91 CB 9.56 CG 9.86 CD1 9.37 CD2 9.66 CE1 9.37 CE2 10.13 CZ 10.32 OH 10.05
B PRO E 19 -88.4 147.6 N 10.87 CA 11.93 C 13.32 O 12.7 CB 11.79 CG 12.25 CD 11.53
B ILE - 29 -85.8 -25.2 N 15.69 CA 16.92 C 17.25 O 17.38 CB 18.07 CG1 21.95 CG2 19.77 CD1 23.09
B ASP - 40 -108.5 360.0 N 17.57 CA 18.15 C 18.13 O 18.32 CB 18.32 CG 19.93 OD1 17.03 OD2 23.47
C THR - 119 360.0 148.6 N 25.34 CA 24.47 C 23.49 O 22.69 CB 25.26 OG1 26.26 CG2 27.12
C ILE H 59 -60.7 -41.7 N 21.58 CA 20.55 C 18.51 O 15.71 CB 20.75 CG1 22.44 CG2 21.66 CD1 23.06
C ASN H 57 -60.5 -40.1 N 17.44 CA 17.01 C 15.29 O 13.49 CB 18.11 CG 21.9 OD1 26.76 ND2 27.91
C ASP H 96 -64.7 -38.2 N 14.02 CA 13.62 C 12.06 O 11.46 CB 14.61 CG 17.71 OD1 20.63 OD2 22.34
C ASP H 78 -59.9 -48.0 N 10.95 CA 10.47 C 9.48 O 9.15 CB 10.45 CG 14.11 OD1 14.99 OD2 17.31
C LEU H 1 -64.8 -43.0 N 9.43 CA 9.65 C 8.98 O 9.5 CB 9.82 CG 11.43 CD1 12.76 CD2 11.52
C GLU H 112 -66.1 -37.0 N 8.81 CA 9.46 C 8.86 O 9.52 CB 9.74 CG 12.39 CD 13.16 OE1 16.9 OE2 17.71
C ALA H 56 -68.2 -36.0 N 8.59 CA 8.16 C 8.33 O 8.93 CB 8.18
C ILE H 6 -62.5 -46.8 N 7.61 CA 7.64 C 7.93 O 7.7 CB 7.15 CG1 7.91 CG2 8.65 CD1 7.94
C ASN H 62 -60.4 -37.6 N 8.24 CA 8.81 C 9.31 O 9.0 CB 8.72 CG 8.78 OD1 10.2 ND2 10.92
C SER H 66 -59.9 -42.5 N 9.63 CA 10.82 C 11.34 O 11.41 CB 11.47 OG 15.32
C GLU H 62 -63.5 -34.7 N 11.86 CA 13.03 C 13.8 O 13.25 CB 13.26 CG 14.97 CD 16.47 OE1 17.74 OE2 23.16
C LEU H 0 -75.1 -15.9 N 14.14 CA 15.57 C 16.15 O 16.74 CB 16.39 CG 17.77 CD1 21.26 CD2 19.65
C THR H 56 -106.7 -25.0 N 16.58 CA 17.87 C 18.75 O 20.08 CB 18.18 OG1 18.97 CG2 19.33
C SER S 70 -160.3 156.0 N 18.56 CA 19.67 C 19.24 O 18.81 CB 20.51 OG 23.47
C GLY S 27 71.1 -151.0 N 19.72 CA 19.55 C 19.87 O 20.6
C GLY T 43 58.9 -150.6 N 18.84 CA 18.1 C 17.02 O 17.73
C ASN T 37 -108.3 24.1 N 16.27 CA 15.02 C 13.53 O 13.71 CB 15.59 CG 15.82 OD1 17.28 ND2 17.63
C VAL B 0 -104.7 137.9 N 11.14 CA 11.51 C 9.37 O 8.92 CB 11.71 CG1 14.99 CG2 15.97
C VAL - 5 -84.4 133.3 N 8.33 CA 8.29 C 8.01 O 6.95 CB 8.21 CG1 7.91 CG2 8.03
C HIS B 0 -113.2 165.7 N 7.65 CA 8.46 C 8.32 O 8.25 CB 8.56 CG 8.99 ND1 8.53 CD2 9.14 CE1 11.07 NE2 9.51
C LYS S 30 -86.5 6.7 N 8.66 CA 9.21 C 9.06 O 9.31 CB 10.05 CG 12.08 CD 13.47 CE 16.18 NZ 16.86
C THR S 70 -138.6 166.7 N 8.16 CA 8.8 C 8.7 O 9.6 CB 8.93 OG1 9.83 CG2 10.2
C GLY S 37 87.6 149.7 N 8.73 CA 8.82 C 8.85 O 8.18
C ASP - 127 -77.3 125.6 N 9.19 CA 9.85 C 9.45 O 9.57 CB 10.66 CG 12.46 OD1 13.63 OD2 17.69
C GLU E 14 -138.5 147.3 N 9.64 CA 9.71 C 9.81 O 8.7 CB 9.99 CG 10.06 CD 10.63 OE1 9.0 OE2 13.55
C THR E 89 -106.2 130.1 N 9.88 CA 10.64 C 10.78 O 10.81 CB 11.39 OG1 14.24 CG2 11.53
C ILE E 2 -127.7 114.7 N 10.03 CA 9.83 C 10.51 O 9.56 CB 9.91 CG1 9.28 CG2 8.72 CD1 9.06
C ALA - 34 -97.0 162.1 N 10.7 CA 11.08 C 10.97 O 10.84 CB 11.68
C GLY S 17 103.0 156.0 N 11.5 CA 11.98 C 12.97 O 12.76
C LYS - 95 -78.4 118.1 N 13.45 CA 14.29 C 13.6 O 13.97 CB 15.2 CG 16.82 CD 18.6 CE 21.59 NZ 22.86
C LYS E 0 -108.7 120.2 N 13.06 CA 12.74 C 13.07 O 13.49 CB 12.53 CG 11.61 CD 10.41 CE 10.61 NZ 9.43
C THR E 20 -109.0 113.9 N 13.06 CA 12.99 C 13.01 O 12.79 CB 13.05 OG1 13.93 CG2 13.96
C PHE E 7 -91.1 111.7 N 12.97 CA 13.13 C 14.42 O 14.14 CB 13.35 CG 11.63 CD1 12.5 CD2 12.19 CE1 11.68 CE2 11.63 CZ 11.48
C THR - 60 -84.7 -17.0 N 14.84 CA 15.95 C 16.94 O 18.38 CB 15.87 OG1 17.03 CG2 16.65
C GLY S 19 -97.8 -152.6 N 17.57 CA 17.75 C 18.05 O 19.3
C ASN - 71 -94.4 147.8 N 17.87 CA 17.99 C 17.97 O 18.31 CB 18.22 CG 19.44 OD1 21.46 ND2 22.14
C VAL E 7 -125.0 137.9 N 17.49 CA 17.44 C 18.01 O 16.93 CB 17.41 CG1 15.79 CG2 17.31
C GLU E 54 -124.9 135.6 N 18.28 CA 19.32 C 19.23 O 18.65 CB 19.66 CG 21.3 CD 22.68 OE1 28.9 OE2 29.45
C VAL E 2 -119.0 125.2 N 19.1 CA 20.07 C 20.74 O 21.11 CB 19.73 CG1 20.78 CG2 20.21
C ASN S 74 -95.6 -21.4 N 21.54 CA 21.83 C 22.37 O 22.81 CB 22.36 CG 23.44 OD1 26.84 ND2 28.5
C GLY S 19 -94.4 -152.0 N 21.9 CA 22.27 C 22.58 O 24.12
C SER - 39 -83.0 150.7 N 22.28 CA 21.87 C 21.48 O 21.06 CB 22.34 OG 23.68
C LEU E 41 -111.4 121.1 N 20.77 CA 20.59 C 20.53 O 21.54 CB 20.36 CG 20.26 CD1 18.79 CD2 20.82
C THR E 49 -117.5 126.9 N 19.75 CA 19.61 C 19.3 O 18.54 CB 19.89 OG1 21.69 CG2 21.29
C LEU - 38 -113.2 169.1 N 18.45 CA 18.1 C 17.27 O 16.77 CB 18.17 CG 20.41 CD1 22.44 CD2 21.03
C PRO - 57 -59.5 135.3 N 16.84 CA 16.79 C 16.63 O 15.59 CB 16.95 CG 17.31 CD 16.77
C THR E 75 -132.1 137.7 N 16.96 CA 17.18 C 17.62 O 17.89 CB 17.76 OG1 18.75 CG2 18.47
C LYS E 104 -148.8 144.3 N 16.49 CA 16.46 C 15.02 O 13.38 CB 16.47 CG 18.43 CD 19.99 CE 21.65 NZ 23.79
C SER E 80 -118.9 153.1 N 14.66 CA 14.48 C 14.06 O 14.23 CB 14.89 OG 16.37
C TRP E 58 -153.4 141.6 N 13.23 CA 12.93 C 12.76 O 13.13 CB 12.77 CG 13.52 CD1 14.02 CD2 12.68 NE1 14.33 CE2 13.16 CE3 13.57 CZ2 13.66 CZ3 12.61 CH2 12.96
C SER E 65 -138.5 143.4 N 12.74 CA 12.82 C 12.88 O 13.8 CB 13.69 OG 17.4
C GLY E 11 -162.3 157.9 N 11.91 CA 11.54 C 10.86 O 9.9
C GLU E 69 -82.6 107.5 N 10.76 CA 10.67 C 10.06 O 10.38 CB 11.05 CG 11.49 CD 14.87 OE1 20.21 OE2 15.02
C LEU E 0 -63.8 -43.0 N 9.08 CA 8.7 C 9.13 O 9.1 CB 8.13 CG 8.53 CD1 7.47 CD2 8.57
C GLY E 5 166.1 153.5 N 8.52 CA 8.92 C 8.38 O 8.47
C GLY T 13 64.7 16.6 N 9.19 CA 9.15 C 8.79 O 9.95
C GLY T 10 93.1 -4.5 N 9.04 CA 9.35 C 9.09 O 9.71
C ILE E 0 -80.3 128.7 N 8.75 CA 9.25 C 8.94 O 8.66 CB 8.93 CG1 9.24 CG2 10.15 CD1 11.29
C ILE E 52 -111.9 128.6 N 9.31 CA 9.79 C 9.84 O 12.05 CB 11.08 CG1 13.12 CG2 10.68 CD1 17.47
C LEU E 1 -110.4 124.0 N 8.9 CA 8.6 C 8.54 O 8.9 CB 9.03 CG 8.15 CD1 9.3 CD2 8.75
C SER E 48 -112.1 122.7 N 8.52 CA 9.13 C 9.36 O 9.18 CB 9.35 OG 11.32
C LEU E 6 -124.4 146.1 N 9.06 CA 9.13 C 9.72 O 9.71 CB 9.67 CG 8.5 CD1 9.71 CD2 7.91
C ARG E 44 -142.8 118.0 N 10.08 CA 10.62 C 10.5 O 9.19 CB 10.62 CG 12.37 CD 21.27 NE 23.05 CZ 21.42 NH1 19.8 NH2 21.29
C LYS E 37 -88.7 133.0 N 11.62 CA 12.65 C 12.41 O 13.17 CB 13.7 CG 15.59 CD 17.37 CE 22.0 NZ 22.33
C LYS E 35 -127.3 105.9 N 11.46 CA 12.53 C 12.32 O 11.86 CB 12.65 CG 13.78 CD 13.92 CE 15.04 NZ 14.68
C GLY T 21 63.0 -123.4 N 12.74 CA 12.67 C 12.8 O 14.11
C THR T 57 -105.5 14.3 N 13.3 CA 13.56 C 13.28 O 13.2 CB 14.49 OG1 17.27 CG2 16.19
C THR E 46 -112.0 137.1 N 12.17 CA 11.38 C 10.6 O 10.28 CB 11.91 OG1 12.86 CG2 12.51
C VAL E 0 -108.9 123.7 N 9.26 CA 9.78 C 9.03 O 9.31 CB 9.55 CG1 11.15 CG2 11.24
C GLU E 20 -82.7 131.1 N 8.63 CA 8.85 C 8.43 O 9.2 CB 8.55 CG 9.8 CD 9.9 OE1 12.3 OE2 11.73
C TYR E 16 -123.0 152.8 N 8.78 CA 8.48 C 7.87 O 7.83 CB 8.66 CG 8.58 CD1 8.58 CD2 7.16 CE1 8.41 CE2 8.21 CZ 8.38 OH 9.93
C SER E 39 -143.0 118.0 N 8.5 CA 8.1 C 7.86 O 8.3 CB 8.56 OG 11.76
C ILE E 1 -85.5 131.8 N 7.45 CA 7.68 C 7.85 O 8.04 CB 7.27 CG1 7.05 CG2 7.91 CD1 8.01
C GLY E 14 -147.8 -160.5 N 8.03 CA 8.11 C 8.69 O 9.79
C GLY E 24 88.9 -160.8 N 8.75 CA 8.42 C 8.15 O 7.55
C GLU - 105 -159.8 122.7 N 8.1 CA 7.95 C 8.3 O 8.51 CB 8.2 CG 8.64 CD 8.58 OE1 8.68 OE2 8.76
C ILE - 9 -65.4 126.9 N 8.43 CA 9.07 C 9.56 O 10.53 CB 9.04 CG1 8.78 CG2 8.77 CD1 9.69
C SER - 88 -124.7 -1.1 N 9.97 CA 10.63 C 11.69 O 13.33 CB 10.85 OG 11.28
C SER S 62 -155.0 173.1 N 12.05 CA 11.86 C 12.37 O 12.9 CB 11.63 OG 14.12
C SER - 79 -65.8 109.4 N 11.74 CA 12.02 C 11.54 O 13.25 CB 12.76 OG 16.92
C ILE B 7 -96.3 110.7 N 10.26 CA 9.9 C 9.09 O 9.37 CB 9.32 CG1 10.55 CG2 9.59 CD1 9.87
C LEU - 100 -77.0 151.1 N 8.95 CA 8.8 C 8.27 O 7.39 CB 9.09 CG 10.87 CD1 11.59 CD2 12.59
C ALA T 33 -53.9 136.7 N 8.18 CA 8.19 C 8.57 O 8.23 CB 8.4
C ASN T 78 58.2 45.5 N 8.39 CA 8.63 C 8.43 O 9.3 CB 9.19 CG 11.63 OD1 13.69 ND2 15.78
C SER E 23 -112.9 149.8 N 8.35 CA 8.21 C 8.43 O 7.99 CB 8.6 OG 8.26
C ASN E 89 -68.5 138.5 N 7.72 CA 7.89 C 7.5 O 7.56 CB 7.39 CG 9.17 OD1 9.25 ND2 10.57
C LEU - 5 -98.8 110.6 N 8.28 CA 8.36 C 9.44 O 10.02 CB 7.77 CG 8.56 CD1 9.87 CD2 9.41
C VAL - 116 -113.5 5.9 N 9.81 CA 10.5 C 11.24 O 13.04 CB 10.61 CG1 11.75 CG2 12.38
C ASN S 76 -71.3 -47.5 N 11.2 CA 11.25 C 11.81 O 11.7 CB 10.85 CG 11.75 OD1 16.31 ND2 12.48
C ARG - 144 -144.5 135.5 N 11.59 CA 12.45 C 11.74 O 11.38 CB 13.9 CG 18.5 CD 26.0 NE 31.11 CZ 33.46 NH1 34.79 NH2 35.89
C SER - 59 -87.9 152.7 N 11.39 CA 11.71 C 11.87 O 12.76 CB 12.15 OG 13.18
C VAL - 4 -68.8 130.2 N 11.46 CA 11.38 C 11.7 O 11.11 CB 11.15 CG1 10.85 CG2 10.81
C PRO - 44 -60.1 149.5 N 12.05 CA 12.29 C 12.92 O 12.18 CB 12.66 CG 12.87 CD 12.57
C ASN G 141 -48.2 -39.7 N 13.84 CA 14.28 C 13.74 O 13.73 CB 15.12 CG 17.6 OD1 25.44 ND2 24.72
C GLU G 79 -61.0 -23.0 N 14.85 CA 14.89 C 14.1 O 14.46 CB 15.81 CG 17.43 CD 18.92 OE1 24.85 OE2 25.81
C PHE G 3 -105.7 -0.1 N 12.34 CA 12.16 C 11.48 O 11.23 CB 12.13 CG 11.65 CD1 12.24 CD2 12.81 CE1 12.71 CE2 13.46 CZ 12.06
C CYS - 13 -80.5 133.6 N 10.9 CA 11.23 C 10.93 O 11.88 CB 10.71 SG 12.2
C PRO - 3 -79.8 156.7 N 10.33 CA 11.27 C 12.22 O 12.24 CB 11.06 CG 9.5 CD 10.04
C ARG S 164 -64.7 -37.9 N 13.7 CA 14.18 C 13.97 O 13.97 CB 14.45 CG 16.79 CD 20.01 NE 26.11 CZ 27.08 NH1 28.16 NH2 28.68
C ASN S 103 -117.7 131.2 N 14.4 CA 14.64 C 13.89 O 14.32 CB 15.42 CG 17.41 OD1 21.62 ND2 22.32
C ARG - 114 -48.5 127.7 N 14.57 CA 13.93 C 13.34 O 13.87 CB 14.48 CG 15.36 CD 14.94 NE 14.05 CZ 14.31 NH1 13.03 NH2 17.13
C CYS E 5 -113.6 145.3 N 11.77 CA 11.65 C 10.27 O 10.82 CB 12.25 SG 20.59
C SER E 4 -113.1 115.9 N 8.74 CA 8.4 C 7.99 O 8.61 CB 8.64 OG 9.21
C LEU E 0 -104.7 110.5 N 7.2 CA 6.9 C 7.0 O 7.03 CB 7.12 CG 8.04 CD1 9.45 CD2 10.26
C VAL E 12 -81.8 133.1 N 6.48 CA 6.41 C 6.8 O 7.44 CB 6.84 CG1 7.65 CG2 7.9
C GLY E 0 -131.7 175.5 N 6.79 CA 6.5 C 6.9 O 6.36
C HIS E 0 -138.2 145.2 N 6.6 CA 6.12 C 6.48 O 5.83 CB 6.95 CG 6.46 ND1 7.13 CD2 7.2 CE1 6.54 NE2 6.29
C MET E 11 -93.9 127.4 N 6.7 CA 7.34 C 7.28 O 6.88 CB 8.14 CG 8.45 SD 8.33 CE 16.89
C VAL T 41 -52.1 137.6 N 7.24 CA 7.74 C 7.9 O 8.39 CB 7.62 CG1 8.54 CG2 7.74
C GLY T 39 96.4 0.5 N 8.08 CA 8.81 C 9.07 O 10.49
C GLY S 19 -156.0 -163.6 N 8.02 CA 7.96 C 7.71 O 7.28
C TRP S 63 -102.8 17.2 N 7.92 CA 8.13 C 8.38 O 8.13 CB 8.75 CG 8.39 CD1 9.56 CD2 7.41 NE1 9.15 CE2 9.63 CE3 8.14 CZ2 9.2 CZ3 8.71 CH2 9.25
C ASN - 64 -89.8 130.9 N 8.48 CA 7.81 C 7.34 O 7.74 CB 8.24 CG 9.33 OD1 11.07 ND2 12.16
C ALA E 0 -115.7 157.3 N 7.18 CA 6.35 C 6.56 O 6.31 CB 6.47
C PHE E 0 -141.0 178.7 N 6.43 CA 5.85 C 6.02 O 6.29 CB 6.26 CG 5.33 CD1 7.13 CD2 5.99 CE1 6.83 CE2 6.94 CZ 6.64
C HIS E 0 -142.0 155.2 N 5.29 CA 5.39 C 6.27 O 6.3 CB 5.27 CG 6.39 ND1 9.23 CD2 3.88 CE1 4.94 NE2 8.64
C ILE E 1 -118.2 128.8 N 6.39 CA 6.58 C 7.42 O 7.32 CB 6.58 CG1 8.34 CG2 6.53 CD1 8.46
C ASP E 6 -90.8 139.4 N 7.29 CA 7.21 C 7.94 O 7.77 CB 7.68 CG 7.69 OD1 9.26 OD2 10.77
C ILE E 0 -112.7 106.7 N 8.12 CA 9.02 C 9.51 O 8.99 CB 9.29 CG1 9.91 CG2 9.55 CD1 10.53
C PRO - 10 -83.4 174.8 N 10.37 CA 11.02 C 11.03 O 10.66 CB 11.93 CG 12.45 CD 10.08
C SER T 60 -59.8 -26.2 N 11.46 CA 11.72 C 11.75 O 11.74 CB 12.44 OG 14.56
C SER T 78 -73.7 -17.9 N 10.9 CA 11.51 C 10.97 O 11.19 CB 12.43 OG 12.36
C GLY - 0 79.9 -2.0 N 10.55 CA 10.02 C 9.59 O 9.48
C VAL - 48 -83.9 94.2 N 10.0 CA 9.39 C 8.71 O 8.69 CB 10.14 CG1 10.54 CG2 11.89
C CYS - 0 -71.1 156.6 N 8.06 CA 8.01 C 7.55 O 7.71 CB 7.61 SG 8.77
C GLN E 37 -131.7 138.0 N 7.49 CA 7.01 C 7.08 O 7.65 CB 6.6 CG 8.15 CD 9.6 OE1 9.87 NE2 11.67
C TRP E 0 -92.8 120.2 N 6.63 CA 6.79 C 7.06 O 6.98 CB 7.23 CG 6.26 CD1 6.81 CD2 6.85 NE1 6.43 CE2 5.85 CE3 7.43 CZ2 6.22 CZ3 8.3 CH2 7.13
C PHE - 27 -111.7 20.5 N 7.48 CA 6.74 C 7.16 O 7.72 CB 6.88 CG 6.23 CD1 7.12 CD2 7.15 CE1 7.29 CE2 7.09 CZ 7.64
C GLY S 0 -76.5 -173.8 N 6.79 CA 7.63 C 7.24 O 7.46
C PRO - 23 -85.0 179.9 N 8.0 CA 8.04 C 8.3 O 8.32 CB 8.38 CG 8.15 CD 8.14
C THR - 83 -60.0 129.7 N 8.9 CA 9.15 C 9.45 O 9.91 CB 8.94 OG1 10.68 CG2 9.49
C ALA B 10 -144.2 135.0 N 10.23 CA 10.61 C 10.79 O 10.97 CB 11.35
C SER S 73 -120.5 7.5 N 10.73 CA 11.23 C 10.92 O 10.63 CB 12.48 OG 16.83
C SER S 87 -155.3 162.4 N 9.79 CA 10.26 C 9.56 O 10.56 CB 10.84 OG 12.85
C GLY - 22 125.8 173.2 N 9.08 CA 8.51 C 7.79 O 8.3
C THR - 29 -126.4 96.4 N 7.06 CA 6.99 C 6.85 O 6.92 CB 6.84 OG1 8.63 CG2 6.83
C PRO E 0 -85.8 137.2 N 7.09 CA 6.47 C 6.61 O 6.84 CB 6.77 CG 6.94 CD 6.89
C ARG E 63 -144.6 155.0 N 6.25 CA 6.44 C 6.74 O 7.11 CB 6.75 CG 6.84 CD 9.41 NE 9.33 CZ 9.52 NH1 8.23 NH2 9.77
C GLY E 0 163.4 130.8 N 6.62 CA 6.83 C 7.09 O 7.79
C THR E 10 -119.2 132.6 N 7.43 CA 7.34 C 7.25 O 8.56 CB 7.79 OG1 10.12 CG2 9.33
C GLY E 9 -170.1 -156.0 N 7.12 CA 7.39 C 7.38 O 7.24
C THR E 15 -138.0 161.6 N 7.87 CA 7.88 C 8.25 O 8.1 CB 7.54 OG1 8.29 CG2 8.47
C TYR E 3 -146.3 155.2 N 8.02 CA 8.55 C 8.74 O 8.91 CB 8.53 CG 8.38 CD1 7.65 CD2 7.27 CE1 8.94 CE2 8.71 CZ 8.36 OH 8.92
C PRO E 18 -87.7 148.3 N 9.43 CA 10.01 C 10.57 O 9.83 CB 9.99 CG 11.33 CD 9.65
C ILE - 27 -85.5 -26.0 N 11.73 CA 13.15 C 13.47 O 13.13 CB 14.44 CG1 17.41 CG2 17.07 CD1 18.41
C ASP - 37 -113.6 360.0 N 13.48 CA 14.17 C 14.93 O 14.88 CB 14.85 CG 15.3 OD1 14.88 OD2 20.1
