A MET - 78 360.0 96.6 N 78.23 CA 77.87 C 77.89 O 77.95 CB 77.56 CG 76.02 SD 71.52 CE 71.31
A LYS - 74 -117.6 -160.4 N 77.87 CA 78.01 C 77.91 O 77.55 CB 78.15
A ILE E 38 -110.4 130.1 N 78.05 CA 78.23 C 78.4 O 78.43 CB 78.18 CG1 78.05 CG2 78.23 CD1 77.86
A ARG E 84 -162.4 165.8 N 78.69 CA 79.06 C 79.61 O 79.53 CB 78.88 CG 78.71 CD 77.92 NE 77.0 CZ 76.75 NH1 76.4 NH2 76.55
A VAL E 51 -64.8 152.7 N 80.39 CA 81.34 C 82.18 O 82.1 CB 81.16 CG1 81.09 CG2 81.07
A ALA - 4 -88.7 136.8 N 83.56 CA 84.78 C 85.98 O 86.13 CB 84.65
A ASP - 71 -85.2 146.2 N 87.35 CA 88.31 C 89.18 O 89.14 CB 88.61 CG 89.08 OD1 89.42 OD2 89.2
A GLU G 102 -44.7 -29.1 N 90.12 CA 90.78 C 91.25 O 91.16 CB 91.24 CG 92.44 CD 94.22 OE1 95.19 OE2 95.2
A LYS G 146 -72.3 -5.1 N 91.67 CA 91.85 C 91.83 O 91.79 CB 91.97 CG 92.4 CD 92.72 CE 93.35 NZ 93.65
A GLU G 12 -108.6 22.2 N 91.77 CA 91.63 C 91.62 O 91.7 CB 91.47 CG 91.24 CD 91.21 OE1 90.65 OE2 90.76
A LEU T 17 -118.7 26.3 N 91.57 CA 91.52 C 91.34 O 91.74 CB 91.58 CG 91.82 CD1 92.13 CD2 91.99
A PRO T 95 13.9 -130.7 N 90.87 CA 90.07 C 89.6 O 89.45 CB 90.33 CG 90.7 CD 90.9
A MET H 34 -33.3 -51.5 N 88.83 CA 88.21 C 87.36 O 87.37 CB 88.33 CG 88.52 SD 88.88 CE 88.97
A ILE H 0 -69.9 -26.5 N 86.2 CA 85.44 C 84.48 O 84.51 CB 85.44 CG1 85.83 CG2 85.5 CD1 85.97
A LEU H 58 -73.8 -35.9 N 83.16 CA 82.13 C 81.01 O 80.82 CB 82.12 CG 82.4 CD1 82.48 CD2 82.29
A GLN H 119 -61.6 -52.9 N 79.82 CA 78.87 C 77.68 O 77.64 CB 79.16 CG 79.94 CD 81.03 OE1 80.99 NE2 82.2
A PHE H 8 -52.2 -50.0 N 76.0 CA 75.23 C 74.31 O 74.29 CB 74.87 CG 75.23 CD1 67.53 CD2 78.34 CE1 70.64 CE2 77.57 CZ 74.69
A LEU H 3 -58.3 -31.2 N 73.51 CA 72.96 C 72.34 O 72.3 CB 72.92 CG 72.86 CD1 72.86 CD2 72.8
A THR H 84 -75.0 -39.8 N 71.68 CA 71.27 C 70.71 O 70.64 CB 71.38 OG1 71.67 CG2 71.53
A GLU H 80 -59.6 -44.7 N 70.08 CA 69.5 C 68.77 O 69.01 CB 69.97 CG 71.85 CD 74.55 OE1 75.46 OE2 76.15
A VAL H 6 -67.6 -37.0 N 67.53 CA 66.41 C 65.28 O 65.03 CB 66.31 CG1 66.48 CG2 65.88
A LYS H 36 -68.8 -41.0 N 64.37 CA 63.93 C 63.15 O 63.06 CB 63.98 CG 64.08 CD 64.28 CE 64.59 NZ 64.45
A ALA H 35 -58.3 -49.8 N 62.21 CA 61.47 C 60.59 O 60.31 CB 61.46
A TYR H 14 -55.0 -53.6 N 59.7 CA 59.25 C 58.63 O 58.62 CB 59.12 CG 59.39 CD1 59.34 CD2 59.21 CE1 59.08 CE2 59.1 CZ 59.12 OH 58.87
A MET H 14 -55.9 -41.1 N 58.2 CA 57.72 C 57.62 O 57.93 CB 57.68 CG 57.43 SD 55.91 CE 54.55
A ASP H 111 -95.8 -13.2 N 57.35 CA 57.41 C 56.73 O 56.45 CB 58.16 CG 59.79 OD1 61.99 OD2 62.37
A VAL H 65 -66.4 -45.9 N 56.1 CA 55.64 C 55.0 O 55.5 CB 55.87 CG1 55.91 CG2 56.06
A VAL H 8 -61.3 -25.3 N 54.11 CA 53.51 C 52.92 O 52.66 CB 53.33 CG1 53.16 CG2 53.28
A GLY T 25 94.9 22.0 N 52.61 CA 52.42 C 52.12 O 51.96
A ILE - 11 -89.5 124.4 N 52.11 CA 52.38 C 52.51 O 52.38 CB 52.25 CG1 52.26 CG2 52.21 CD1 52.15
A THR - 52 -100.5 89.8 N 52.97 CA 53.81 C 54.63 O 54.39 CB 53.49 OG1 53.18 CG2 53.13
A GLN - 18 -134.4 -66.7 N 55.9 CA 56.96 C 57.77 O 57.62 CB 56.99 CG 56.57 CD 57.14 OE1 57.53 NE2 58.76
A TRP - 23 -96.0 163.1 N 59.1 CA 60.36 C 62.32 O 62.74 CB 60.12 CG 62.69 CD1 63.57 CD2 57.63 NE1 62.96 CE2 55.49 CE3 55.27 CZ2 59.78 CZ3 53.79 CH2 54.19
A THR - 36 -133.1 -179.9 N 64.59 CA 66.26 C 68.07 O 68.1 CB 66.28 OG1 65.84 CG2 66.42
A LYS S 181 -45.2 -50.9 N 70.32 CA 71.46 C 72.58 O 72.56 CB 71.82 CG 71.78 CD 72.61 CE 73.23 NZ 73.75
A ASP S 110 -96.9 -12.5 N 73.79 CA 74.75 C 75.57 O 75.82 CB 75.16 CG 76.23 OD1 77.8 OD2 76.8
A TYR S 56 -132.5 121.8 N 76.32 CA 76.51 C 77.3 O 77.27 CB 76.67 CG 76.7 CD1 77.19 CD2 76.98 CE1 77.07 CE2 77.02 CZ 76.87 OH 76.46
A PRO S 3 -71.3 137.9 N 78.09 CA 78.9 C 79.35 O 79.4 CB 78.63 CG 78.15 CD 78.05
A SER - 44 -111.6 170.0 N 80.11 CA 80.56 C 81.19 O 81.2 CB 80.54 OG 80.46
A GLN H 95 -45.8 -48.4 N 81.76 CA 81.87 C 81.91 O 81.89 CB 82.12 CG 82.33 CD 82.6 OE1 83.27 NE2 82.75
A GLY H 43 -50.1 -44.7 N 81.92 CA 82.05 C 82.17 O 82.36
A ASP H 38 -60.5 -52.0 N 82.3 CA 82.22 C 82.1 O 81.85 CB 82.25 CG 82.18 OD1 82.29 OD2 81.43
A ILE H 3 -77.2 -29.9 N 82.02 CA 82.28 C 82.3 O 82.34 CB 82.43 CG1 82.93 CG2 82.44 CD1 83.52
A GLN H 81 -56.6 -53.5 N 82.19 CA 81.95 C 81.48 O 81.42 CB 82.1 CG 82.3 CD 82.64 OE1 83.7 NE2 83.26
A GLU H 88 -53.3 -41.6 N 80.94 CA 80.59 C 80.09 O 80.21 CB 80.49 CG 80.81 CD 81.25 OE1 82.43 OE2 81.64
A ASP H 1 -72.6 -36.2 N 79.63 CA 79.22 C 78.71 O 78.68 CB 79.43 CG 79.76 OD1 79.82 OD2 79.73
A ILE H 11 -64.6 -56.9 N 78.2 CA 78.0 C 77.65 O 77.56 CB 77.99 CG1 78.03 CG2 78.09 CD1 78.0
A THR H 96 -39.9 -46.7 N 77.23 CA 76.89 C 76.51 O 76.59 CB 77.0 OG1 77.0 CG2 77.2
A LYS T 104 -89.5 15.6 N 75.87 CA 75.52 C 74.93 O 74.65 CB 75.52 CG 75.96 CD 75.97 CE 76.28 NZ 76.72
A LYS T 161 53.3 50.7 N 74.56 CA 74.31 C 73.4 O 73.2 CB 74.62 CG 75.25 CD 75.75 CE 77.38 NZ 78.24
A ARG - 44 -126.7 -28.8 N 72.48 CA 71.76 C 71.34 O 71.14 CB 71.53 CG 70.86 CD 70.55 NE 69.96 CZ 69.65 NH1 68.88 NH2 70.03
A LEU E 2 -103.8 115.2 N 70.77 CA 70.63 C 70.42 O 70.28 CB 70.51 CG 70.61 CD1 70.74 CD2 70.34
A TYR E 22 -100.1 155.5 N 70.46 CA 70.59 C 70.42 O 69.94 CB 70.91 CG 71.16 CD1 70.78 CD2 71.3 CE1 71.22 CE2 71.25 CZ 71.51 OH 70.9
A LEU E 0 -127.6 140.2 N 70.67 CA 71.0 C 71.43 O 71.38 CB 70.77 CG 70.67 CD1 70.51 CD2 70.88
A LEU E 4 -94.3 114.4 N 72.24 CA 72.66 C 73.28 O 73.27 CB 72.79 CG 72.52 CD1 72.56 CD2 72.22
A VAL E 6 -151.2 153.5 N 74.0 CA 73.42 C 72.79 O 72.6 CB 74.41 CG1 75.11 CG2 74.59
A HIS E 111 -149.3 130.6 N 71.41 CA 68.99 C 65.93 O 65.66 CB 71.12 CG 73.55 ND1 77.19 CD2 76.41 CE1 80.01 NE2 78.93
A GLU T 84 49.4 -118.9 N 62.7 CA 62.66 C 63.61 O 63.46 CB 59.73
A GLU T 163 -109.6 22.6 N 67.97 CA 72.37 C 75.18 O 75.65 CB 73.31 CG 75.71 CD 75.86 OE1 78.4 OE2 78.33
A MET E 83 -119.1 106.8 N 78.32 CA 79.1 C 79.62 O 79.62 CB 80.06 CG 80.61 SD 82.54 CE 83.78
A ILE E 13 -77.9 119.0 N 79.33 CA 78.64 C 77.94 O 77.87 CB 78.92 CG1 78.83 CG2 79.31 CD1 78.76
A PHE E 13 -87.1 -42.5 N 76.99 CA 76.18 C 75.17 O 75.15 CB 77.16 CG 77.16 CD1 81.47 CD2 75.42 CE1 79.93 CE2 76.63 CZ 78.03
A SER E 0 -153.7 153.4 N 73.64 CA 72.47 C 71.36 O 71.1 CB 72.34 OG 72.15
A MET E 4 -142.7 159.1 N 70.28 CA 69.43 C 68.75 O 68.68 CB 69.14 CG 69.08 SD 69.07 CE 69.03
A ALA E 1 -165.6 139.0 N 68.16 CA 67.72 C 67.2 O 66.9 CB 67.55
A THR E 2 -97.8 128.8 N 66.93 CA 67.01 C 66.83 O 66.2 CB 66.59 OG1 66.53 CG2 66.67
A PHE E 4 -119.8 111.7 N 67.46 CA 68.29 C 68.91 O 68.75 CB 67.77 CG 68.31 CD1 62.44 CD2 71.28 CE1 64.11 CE2 70.66 CZ 68.11
A CYS E 12 -92.9 106.4 N 70.01 CA 71.1 C 72.09 O 71.87 CB 71.02 SG 70.89
A MET E 50 -112.4 128.3 N 73.5 CA 74.62 C 75.64 O 76.04 CB 74.64 CG 74.89 SD 75.4 CE 75.32
A GLU - 77 -118.6 150.7 N 76.75 CA 77.3 C 77.74 O 77.75 CB 77.92 CG 79.37 CD 81.25 OE1 82.24 OE2 82.13
A GLN T 134 -49.2 121.0 N 78.0 CA 77.86 C 77.48 O 77.51 CB 78.56 CG 80.05 CD 81.31 OE1 81.85 NE2 81.26
A GLU T 195 46.7 48.3 N 76.81 CA 76.11 C 74.94 O 74.85 CB 76.95 CG 78.8 CD 81.11 OE1 82.29 OE2 81.9
A GLN - 81 -114.4 163.5 N 73.35 CA 72.12 C 69.18 O 69.02 CB 72.11 CG 72.97 CD 73.78 OE1 73.84 NE2 74.61
A ASP S 65 -89.1 -19.3 N 66.4 CA 63.62 C 62.15 O 61.54 CB 64.45 CG 66.36 OD1 69.25 OD2 68.25
A PHE E 51 -138.9 172.3 N 59.7 CA 58.1 C 56.66 O 56.65 CB 57.8 CG 56.8 CD1 53.81 CD2 56.95 CE1 56.37 CE2 57.08 CZ 56.94
A VAL E 0 -136.9 162.5 N 55.15 CA 54.19 C 52.89 O 52.13 CB 53.96 CG1 54.29 CG2 54.03
A TRP E 50 -127.0 118.9 N 51.85 CA 51.38 C 51.37 O 51.19 CB 54.08 CG 56.41 CD1 58.04 CD2 49.32 NE1 56.95 CE2 45.05 CE3 46.47 CZ2 50.68 CZ3 41.1 CH2 41.35
A LEU E 6 -89.7 125.8 N 51.97 CA 52.34 C 52.46 O 52.11 CB 52.17 CG 52.35 CD1 53.45 CD2 52.69
A LYS E 65 -139.7 154.7 N 53.26 CA 53.96 C 54.19 O 53.74 CB 54.12 CG 54.25 CD 54.72 CE 55.77 NZ 57.29
A ARG E 33 42.1 48.6 N 54.99 CA 55.9 C 56.16 O 56.45 CB 56.08 CG 57.0 CD 57.69 NE 59.1 CZ 59.43 NH1 59.5 NH2 59.66
A PHE E 19 -83.9 128.0 N 56.47 CA 56.78 C 57.56 O 57.96 CB 56.74 CG 56.2 CD1 57.94 CD2 53.67 CE1 58.11 CE2 54.77 CZ 56.21
A ALA E 5 -157.6 140.7 N 58.16 CA 58.88 C 59.65 O 59.62 CB 58.86
A THR E 10 -117.8 147.1 N 60.62 CA 61.33 C 62.21 O 62.24 CB 61.3 OG1 61.03 CG2 61.09
A SER - 4 -66.8 137.4 N 63.38 CA 64.14 C 64.55 O 64.52 CB 64.7 OG 66.12
A PRO G 3 -54.9 -32.7 N 65.23 CA 65.72 C 66.26 O 66.19 CB 65.66 CG 65.48 CD 65.24
A ASN G 44 -63.8 -23.5 N 66.71 CA 67.0 C 66.98 O 67.32 CB 67.71 CG 69.66 OD1 71.87 ND2 71.13
A TYR G 39 -114.0 2.9 N 66.68 CA 66.39 C 66.21 O 66.44 CB 66.73 CG 66.66 CD1 69.22 CD2 64.75 CE1 68.89 CE2 65.46 CZ 66.87 OH 66.64
A ILE T 3 -61.9 -42.1 N 65.67 CA 65.41 C 65.12 O 65.0 CB 65.3 CG1 65.47 CG2 65.29 CD1 65.55
A ALA T 21 -61.6 -28.8 N 65.03 CA 64.95 C 64.72 O 64.41 CB 64.9
A LYS T 127 -82.1 -19.9 N 64.61 CA 64.49 C 63.95 O 63.88 CB 64.84 CG 65.45 CD 65.73 CE 66.29 NZ 66.54
A GLY T 17 83.7 35.7 N 63.25 CA 62.61 C 61.92 O 61.87
A TYR H 49 -71.3 -35.2 N 60.94 CA 60.33 C 59.56 O 59.38 CB 61.04 CG 60.56 CD1 60.46 CD2 59.35 CE1 61.94 CE2 60.2 CZ 61.24 OH 59.46
A GLY H 2 -46.3 -44.4 N 58.67 CA 57.92 C 57.1 O 57.0
A SER H 32 -67.4 -35.8 N 56.38 CA 55.81 C 55.48 O 55.11 CB 55.38 OG 53.78
A LEU H 86 -60.9 -57.1 N 55.29 CA 55.24 C 54.93 O 55.06 CB 55.43 CG 55.97 CD1 56.37 CD2 55.62
A LEU H 0 -52.3 -42.8 N 54.51 CA 54.35 C 54.18 O 54.34 CB 54.41 CG 54.56 CD1 55.33 CD2 54.32
A PHE H 1 -61.6 -53.1 N 53.57 CA 53.74 C 54.0 O 54.06 CB 51.65 CG 52.31 CD1 46.22 CD2 54.33 CE1 46.4 CE2 52.92 CZ 50.84
A HIS H 77 -66.2 -25.1 N 54.69 CA 55.37 C 56.08 O 55.56 CB 55.09 CG 55.07 ND1 55.32 CD2 54.85 CE1 55.23 NE2 55.09
A GLU H 63 -69.7 -49.4 N 57.41 CA 57.73 C 58.21 O 58.61 CB 58.29 CG 59.61 CD 63.37 OE1 65.04 OE2 64.54
A LEU H 0 -61.7 -39.5 N 58.26 CA 58.39 C 58.53 O 58.41 CB 58.04 CG 57.93 CD1 57.67 CD2 58.0
A GLU H 25 -60.2 -40.9 N 59.2 CA 60.02 C 60.79 O 60.71 CB 59.66 CG 59.44 CD 59.86 OE1 60.56 OE2 58.94
A LYS H 120 -57.9 -48.6 N 62.04 CA 63.06 C 63.4 O 63.03 CB 63.26 CG 64.07 CD 64.58 CE 65.93 NZ 66.66
A ARG H 64 -55.2 -50.3 N 64.08 CA 65.0 C 65.52 O 65.61 CB 65.28 CG 66.85 CD 69.67 NE 70.87 CZ 72.23 NH1 73.23 NH2 72.17
A ALA H 0 -60.6 -35.6 N 66.07 CA 66.51 C 66.87 O 66.78 CB 66.35
A VAL H 33 -62.4 -46.1 N 67.72 CA 68.52 C 69.31 O 69.57 CB 68.43 CG1 68.29 CG2 68.5
A TRP T 186 -110.2 25.8 N 69.95 CA 70.67 C 69.58 O 69.67 CB 72.18 CG 73.39 CD1 73.05 CD2 74.21 NE1 73.84 CE2 73.75 CE3 73.79 CZ2 73.36 CZ3 73.65 CH2 73.36
A GLU T 122 -87.3 0.4 N 68.21 CA 66.77 C 65.87 O 65.87 CB 67.25 CG 68.68 CD 70.77 OE1 72.38 OE2 71.97
A GLY T 58 87.4 4.6 N 64.75 CA 64.15 C 63.46 O 63.39
A ARG - 25 -69.3 151.1 N 62.65 CA 61.86 C 60.84 O 60.67 CB 62.21 CG 63.42 CD 65.83 NE 66.26 CZ 67.79 NH1 68.94 NH2 67.88
A ARG - 124 -121.3 -0.0 N 59.64 CA 58.85 C 56.97 O 56.81 CB 59.27 CG 60.64 CD 62.04 NE 64.9 CZ 65.76 NH1 65.74 NH2 65.46
A LYS E 49 -142.9 139.1 N 54.95 CA 53.53 C 51.54 O 51.54 CB 53.79 CG 54.72 CD 55.01 CE 56.14 NZ 57.11
A MET E 0 -127.5 128.1 N 49.08 CA 47.58 C 46.28 O 45.65 CB 47.3 CG 47.56 SD 44.92 CE 45.87
A TYR E 53 -107.4 142.5 N 44.98 CA 44.0 C 43.46 O 43.34 CB 42.56 CG 42.63 CD1 37.84 CD2 43.72 CE1 38.86 CE2 42.17 CZ 40.96 OH 41.43
A ALA E 1 -149.8 168.5 N 43.13 CA 42.94 C 42.72 O 42.45 CB 42.84
A GLN E 47 -149.0 139.5 N 42.8 CA 42.86 C 42.12 O 42.04 CB 43.07 CG 44.93 CD 45.48 OE1 48.83 NE2 48.54
A THR E 2 -140.5 162.3 N 41.73 CA 41.37 C 40.52 O 39.46 CB 41.4 OG1 40.31 CG2 42.25
A ASN E 0 -69.4 148.4 N 40.53 CA 40.54 C 40.32 O 39.65 CB 40.69 CG 41.18 OD1 43.13 ND2 40.74
A HIS T 63 -57.3 -24.7 N 40.43 CA 41.0 C 41.01 O 40.97 CB 41.58 CG 42.23 ND1 42.91 CD2 42.1 CE1 43.61 NE2 43.52
A THR T 18 -82.1 -4.9 N 41.17 CA 41.22 C 41.49 O 41.98 CB 41.22 OG1 41.4 CG2 41.38
A ASN - 6 -95.2 77.8 N 41.74 CA 41.84 C 42.34 O 42.41 CB 41.51 CG 40.9 OD1 41.98 ND2 39.64
A HIS H 50 -72.7 -34.3 N 42.87 CA 42.93 C 43.12 O 42.72 CB 42.75 CG 41.95 ND1 41.76 CD2 41.3 CE1 40.9 NE2 40.95
A ARG H 27 -49.9 -52.7 N 44.16 CA 44.73 C 44.71 O 44.74 CB 45.17 CG 45.55 CD 48.08 NE 48.92 CZ 51.88 NH1 51.46 NH2 52.71
A MET H 14 -77.1 -29.9 N 44.31 CA 44.01 C 43.69 O 43.84 CB 43.85 CG 43.9 SD 42.7 CE 42.56
A ILE H 20 -60.7 -48.0 N 43.36 CA 43.41 C 43.73 O 44.3 CB 43.52 CG1 43.9 CG2 43.16 CD1 43.56
A ARG H 54 -63.3 -44.0 N 43.69 CA 43.55 C 43.21 O 42.75 CB 43.67 CG 43.96 CD 44.34 NE 45.24 CZ 45.73 NH1 45.43 NH2 46.76
A PHE H 13 -51.9 -56.7 N 43.04 CA 43.27 C 43.3 O 43.09 CB 43.66 CG 44.18 CD1 44.23 CD2 45.18 CE1 44.52 CE2 45.1 CZ 45.05
A PHE H 5 -61.7 -42.7 N 42.97 CA 42.95 C 43.02 O 43.21 CB 42.4 CG 41.73 CD1 41.81 CD2 41.41 CE1 42.16 CE2 42.01 CZ 42.3
A GLU H 117 -58.8 -38.3 N 43.25 CA 43.71 C 43.23 O 43.15 CB 43.63 CG 44.91 CD 45.98 OE1 50.34 OE2 47.16
A SER H 82 -71.9 -27.3 N 43.2 CA 43.41 C 43.67 O 43.96 CB 43.27 OG 43.25
A LYS T 35 -85.0 7.9 N 43.71 CA 43.37 C 43.13 O 43.14 CB 43.46 CG 43.71 CD 43.83 CE 44.32 NZ 44.68
A GLY T 43 82.2 12.8 N 43.21 CA 43.35 C 43.43 O 43.16
A PHE - 8 -73.1 162.1 N 43.46 CA 43.59 C 43.71 O 44.12 CB 43.19 CG 43.05 CD1 46.03 CD2 42.56 CE1 44.56 CE2 42.86 CZ 43.87
A THR E 88 -135.3 141.0 N 43.95 CA 44.02 C 43.85 O 43.68 CB 44.47 OG1 45.88 CG2 44.35
A LYS E 76 -77.5 128.5 N 43.69 CA 43.55 C 43.09 O 43.38 CB 43.43 CG 43.74 CD 44.62 CE 46.04 NZ 47.45
A ILE E 92 -126.8 -9.9 N 42.79 CA 42.75 C 42.53 O 42.19 CB 42.6 CG1 42.0 CG2 41.77 CD1 42.11
A HIS E 112 -163.4 160.3 N 42.97 CA 43.54 C 43.46 O 42.97 CB 43.83 CG 43.83 ND1 44.43 CD2 44.58 CE1 45.63 NE2 45.32
A GLU E 91 -129.6 152.2 N 44.22 CA 45.09 C 45.35 O 44.7 CB 44.91 CG 46.1 CD 46.91 OE1 50.62 OE2 48.48
A SER E 35 -167.4 160.3 N 46.32 CA 47.17 C 48.28 O 47.9 CB 46.69 OG 44.88
A LEU - 104 -88.3 157.3 N 50.0 CA 51.38 C 52.61 O 52.67 CB 51.47 CG 52.22 CD1 53.52 CD2 51.76
A GLN - 48 -116.0 135.0 N 54.55 CA 56.21 C 57.7 O 57.78 CB 56.47 CG 57.12 CD 57.95 OE1 59.53 NE2 57.44
A MET T 155 -58.3 145.4 N 59.36 CA 60.06 C 60.57 O 60.69 CB 60.31 CG 60.76 SD 62.67 CE 63.16
A ASN T 136 58.1 25.1 N 60.75 CA 60.65 C 60.62 O 61.16 CB 61.05 CG 62.14 OD1 63.97 ND2 62.2
A ARG - 16 -157.5 28.5 N 59.98 CA 59.09 C 58.55 O 58.64 CB 58.94 CG 58.8 CD 59.05 NE 59.0 CZ 58.83 NH1 58.99 NH2 59.43
A LEU G 106 -65.3 -28.2 N 58.07 CA 57.65 C 56.76 O 56.61 CB 58.04 CG 59.55 CD1 60.43 CD2 60.15
A ASP G 160 -58.4 -33.7 N 56.05 CA 55.58 C 54.45 O 54.41 CB 56.19 CG 58.29 OD1 60.21 OD2 60.59
A PHE G 42 -80.1 -5.2 N 53.1 CA 52.01 C 51.14 O 51.19 CB 51.67 CG 51.32 CD1 49.72 CD2 51.56 CE1 50.58 CE2 52.22 CZ 51.85
A GLY - 21 70.9 -139.5 N 50.12 CA 49.23 C 48.6 O 48.67
A SER - 37 -72.4 134.5 N 47.41 CA 46.56 C 44.73 O 45.08 CB 46.47 OG 48.04
A PHE E 3 -111.7 138.6 N 42.86 CA 41.13 C 41.13 O 40.79 CB 40.2 CG 39.58 CD1 37.35 CD2 39.48 CE1 38.62 CE2 39.78 CZ 39.52
A TYR E 48 -99.4 140.2 N 41.36 CA 41.38 C 41.23 O 40.91 CB 41.9 CG 42.24 CD1 42.13 CD2 42.41 CE1 42.49 CE2 42.04 CZ 42.65 OH 42.81
A LEU E 31 -105.5 131.1 N 41.16 CA 41.44 C 41.55 O 41.46 CB 41.01 CG 40.77 CD1 40.9 CD2 40.89
A TYR E 3 -119.3 142.0 N 42.17 CA 43.48 C 44.3 O 43.79 CB 43.17 CG 43.07 CD1 42.76 CD2 43.55 CE1 43.21 CE2 43.89 CZ 43.84 OH 43.61
A VAL E 14 -125.1 141.2 N 45.91 CA 47.1 C 48.41 O 48.26 CB 46.57 CG1 45.67 CG2 46.76
A LYS E 36 -123.8 124.6 N 50.45 CA 51.92 C 53.8 O 54.07 CB 51.56 CG 51.25 CD 51.49 CE 51.12 NZ 51.21
A GLU E 126 -72.5 124.0 N 56.26 CA 58.08 C 59.37 O 59.44 CB 58.93 CG 61.92 CD 65.6 OE1 67.99 OE2 67.0
A LEU - 11 -87.3 133.7 N 61.0 CA 62.36 C 63.92 O 64.35 CB 62.32 CG 62.24 CD1 61.28 CD2 63.0
A GLU - 190 -169.6 360.0 N 65.78 CA 65.94 C 66.8 O 67.57 CB 66.77 CG 67.55 CD 70.18 OE1 71.06 OE2 71.29
B MET - 78 360.0 114.7 N 81.13 CA 80.94 C 81.01 O 81.27 CB 80.71 CG 79.48 SD 76.44 CE 76.67
B LYS - 73 -119.2 -148.0 N 80.87 CA 80.7 C 80.54 O 80.33 CB 80.82
B ILE E 38 -111.5 129.2 N 80.36 CA 80.28 C 80.12 O 80.33 CB 80.3 CG1 80.24 CG2 80.39 CD1 80.13
B ARG E 87 -156.3 159.9 N 79.98 CA 80.04 C 80.45 O 80.32 CB 79.7 CG 79.4 CD 78.83 NE 78.22 CZ 77.12 NH1 77.56 NH2 75.91
B VAL E 43 -59.8 146.9 N 81.13 CA 81.8 C 82.34 O 82.27 CB 81.72 CG1 81.78 CG2 81.71
B ALA - 7 -79.4 140.9 N 83.27 CA 84.08 C 84.82 O 84.65 CB 84.02
B ASP - 85 -82.4 156.7 N 85.98 CA 86.58 C 87.21 O 87.65 CB 86.71 CG 86.77 OD1 88.02 OD2 87.08
B GLU G 147 -75.8 -7.6 N 87.79 CA 88.24 C 88.54 O 88.41 CB 88.36 CG 88.76 CD 88.87 OE1 89.24 OE2 89.42
B LYS G 171 -53.2 -32.0 N 88.82 CA 89.03 C 88.89 O 88.83 CB 89.4 CG 90.02 CD 90.66 CE 90.62 NZ 90.66
B GLU G 17 -125.3 -3.3 N 88.59 CA 88.14 C 88.01 O 88.04 CB 88.05 CG 87.93 CD 87.86 OE1 87.28 OE2 88.04
B LEU H 25 -58.5 -46.3 N 87.67 CA 87.5 C 87.36 O 87.48 CB 87.45 CG 87.52 CD1 87.55 CD2 87.53
B PRO H 85 -64.5 -27.5 N 87.1 CA 86.69 C 86.24 O 86.22 CB 86.82 CG 86.96 CD 87.06
B MET H 46 -67.0 -50.6 N 85.6 CA 85.15 C 84.51 O 84.62 CB 85.26 CG 85.67 SD 86.1 CE 86.41
B ILE H 0 -70.4 -34.4 N 83.52 CA 82.68 C 81.68 O 81.56 CB 82.69 CG1 83.01 CG2 82.67 CD1 83.2
B LEU H 45 -62.2 -31.0 N 80.58 CA 79.87 C 78.95 O 78.72 CB 79.87 CG 80.36 CD1 80.53 CD2 80.3
B GLN H 97 -66.9 -60.1 N 77.93 CA 77.02 C 75.92 O 75.84 CB 77.25 CG 78.11 CD 79.41 OE1 80.25 NE2 79.72
B PHE H 8 -36.8 -51.7 N 74.61 CA 73.79 C 72.77 O 72.8 CB 73.37 CG 74.06 CD1 69.13 CD2 76.5 CE1 70.64 CE2 75.01 CZ 73.4
B LEU H 4 -79.9 -10.6 N 71.47 CA 70.79 C 69.86 O 69.85 CB 70.91 CG 71.09 CD1 71.7 CD2 70.82
B THR H 79 -73.7 -35.8 N 68.78 CA 68.05 C 66.94 O 66.23 CB 68.14 OG1 68.6 CG2 68.33
B GLU H 85 -70.1 -41.5 N 66.05 CA 65.67 C 64.63 O 64.89 CB 65.8 CG 67.14 CD 67.82 OE1 70.54 OE2 69.72
B VAL H 4 -65.8 -36.5 N 63.19 CA 61.9 C 60.68 O 60.43 CB 61.7 CG1 61.32 CG2 61.12
B LYS H 38 -70.0 -28.1 N 59.69 CA 59.16 C 58.32 O 58.18 CB 59.26 CG 59.72 CD 59.53 CE 59.81 NZ 60.45
B ALA H 33 -72.4 -51.7 N 57.54 CA 56.94 C 56.46 O 56.28 CB 56.75
B TYR H 13 -49.5 -55.8 N 55.83 CA 55.28 C 54.71 O 54.72 CB 55.73 CG 56.08 CD1 56.45 CD2 56.47 CE1 56.27 CE2 56.66 CZ 56.63 OH 56.63
B MET H 17 -44.1 -46.4 N 54.18 CA 53.23 C 53.63 O 53.65 CB 53.16 CG 51.92 SD 48.38 CE 47.51
B ASP H 124 -64.5 -53.3 N 53.95 CA 53.79 C 53.64 O 53.6 CB 54.12 CG 55.42 OD1 58.41 OD2 59.52
B VAL H 52 -66.1 -38.7 N 53.18 CA 53.08 C 52.84 O 52.92 CB 53.33 CG1 53.05 CG2 53.66
B VAL H 4 -72.2 -14.5 N 52.22 CA 51.72 C 51.1 O 50.84 CB 51.97 CG1 51.83 CG2 52.63
B GLY T 23 92.4 20.9 N 50.68 CA 50.47 C 49.87 O 48.62
B ILE - 16 -79.8 123.4 N 49.82 CA 49.92 C 49.92 O 50.06 CB 49.61 CG1 49.44 CG2 49.6 CD1 49.51
B THR - 51 -106.2 92.6 N 50.29 CA 50.9 C 51.31 O 51.5 CB 50.83 OG1 50.93 CG2 50.38
B GLN - 19 -142.3 -55.8 N 51.93 CA 52.76 C 53.65 O 53.66 CB 52.67 CG 52.14 CD 52.04 OE1 51.39 NE2 51.28
B TRP - 23 -95.0 166.9 N 55.04 CA 56.21 C 57.84 O 58.5 CB 55.29 CG 54.42 CD1 57.41 CD2 53.24 NE1 54.44 CE2 53.89 CE3 55.79 CZ2 54.79 CZ3 54.11 CH2 53.94
B THR - 36 -134.2 174.1 N 60.2 CA 61.38 C 62.89 O 62.61 CB 61.32 OG1 60.66 CG2 61.12
B LYS S 163 -65.4 -34.4 N 64.97 CA 66.52 C 67.41 O 67.68 CB 66.76 CG 67.98 CD 68.39 CE 70.04 NZ 70.39
B ASP S 100 -90.8 -0.5 N 68.47 CA 69.23 C 69.94 O 70.15 CB 69.63 CG 70.92 OD1 71.54 OD2 73.2
B TYR T 51 -153.7 119.7 N 70.42 CA 70.33 C 70.59 O 70.21 CB 70.51 CG 70.57 CD1 70.85 CD2 70.52 CE1 71.03 CE2 70.25 CZ 70.54 OH 70.37
B PRO T 1 -65.2 132.2 N 71.1 CA 71.76 C 72.13 O 72.26 CB 71.57 CG 71.35 CD 71.07
B SER - 39 -98.8 179.2 N 72.62 CA 73.07 C 73.51 O 73.45 CB 73.12 OG 73.61
B GLN H 95 -58.0 -47.6 N 74.1 CA 74.09 C 74.08 O 73.87 CB 74.28 CG 74.67 CD 74.86 OE1 75.75 NE2 75.16
B GLY H 40 -52.9 -49.7 N 74.09 CA 74.09 C 74.05 O 73.91
B ASP H 35 -52.2 -41.8 N 74.03 CA 73.91 C 73.79 O 73.68 CB 73.83 CG 73.92 OD1 74.3 OD2 73.98
B ILE H 0 -71.5 -49.8 N 73.8 CA 73.9 C 73.9 O 73.73 CB 73.96 CG1 74.23 CG2 73.82 CD1 74.29
B GLN H 93 -54.5 -57.7 N 73.91 CA 73.93 C 73.63 O 73.4 CB 74.11 CG 74.32 CD 74.59 OE1 75.83 NE2 74.9
B GLU H 83 -45.8 -42.4 N 73.32 CA 73.31 C 73.28 O 73.66 CB 73.17 CG 73.42 CD 73.57 OE1 73.31 OE2 74.61
B ASP H 0 -68.4 -38.5 N 73.11 CA 73.06 C 72.9 O 72.56 CB 73.12 CG 73.07 OD1 72.77 OD2 72.68
B ILE H 19 -70.3 -48.1 N 73.04 CA 73.17 C 73.18 O 72.97 CB 73.18 CG1 73.3 CG2 73.13 CD1 73.38
B THR H 117 -40.8 -53.1 N 73.07 CA 72.93 C 72.78 O 72.85 CB 73.06 OG1 73.38 CG2 72.9
B LYS T 116 -84.2 13.3 N 72.4 CA 72.18 C 71.99 O 72.01 CB 72.07 CG 72.04 CD 72.25 CE 72.29 NZ 72.3
B LYS T 157 56.4 57.8 N 71.82 CA 71.85 C 71.57 O 71.78 CB 72.08 CG 72.75 CD 72.67 CE 72.97 NZ 72.82
B ARG - 33 -139.5 -26.2 N 71.03 CA 70.45 C 70.09 O 69.75 CB 70.22 CG 69.93 CD 69.98 NE 69.74 CZ 70.16 NH1 69.84 NH2 70.9
B LEU E 0 -92.7 108.2 N 69.73 CA 69.83 C 69.82 O 69.76 CB 69.58 CG 69.57 CD1 69.08 CD2 69.83
B TYR E 22 -100.2 146.6 N 70.09 CA 70.59 C 71.05 O 71.08 CB 70.53 CG 70.43 CD1 70.94 CD2 70.44 CE1 71.0 CE2 70.52 CZ 70.76 OH 70.79
B LEU E 0 -127.0 141.0 N 71.72 CA 72.28 C 73.15 O 73.14 CB 72.01 CG 71.74 CD1 71.52 CD2 71.92
B LEU E 2 -95.8 117.9 N 74.23 CA 74.91 C 75.91 O 75.92 CB 74.82 CG 74.35 CD1 74.51 CD2 74.14
B VAL - 4 -149.0 152.9 N 76.79 CA 76.73 C 76.51 O 76.55 CB 77.82 CG1 78.68 CG2 78.45
B HIS S 123 -160.3 78.3 N 75.26 CA 73.15 C 67.51 O 67.58 CB 74.67 CG 77.4 ND1 80.43 CD2 80.78 CE1 81.84 NE2 82.24
B GLU S 69 -148.9 57.3 N 61.91 CA 58.88 C 63.29 O 63.56 CB 56.87
B GLU S 146 -115.1 57.2 N 69.99 CA 77.23 C 79.02 O 79.62 CB 77.76 CG 80.48 CD 80.67 OE1 83.07 OE2 83.57
B MET - 85 -117.3 99.6 N 81.5 CA 82.11 C 82.41 O 82.69 CB 83.87 CG 85.63 SD 88.56 CE 87.64
B ILE - 8 -79.8 109.8 N 81.41 CA 80.41 C 79.28 O 78.93 CB 80.68 CG1 80.64 CG2 81.2 CD1 80.61
B PHE - 17 -80.5 -38.1 N 78.04 CA 76.84 C 75.42 O 75.36 CB 77.59 CG 78.5 CD1 75.41 CD2 80.18 CE1 77.48 CE2 79.21 CZ 78.6
B SER E 0 -157.9 158.5 N 73.46 CA 71.92 C 70.45 O 70.42 CB 71.84 OG 71.58
B MET E 0 -150.7 157.9 N 68.91 CA 67.82 C 66.96 O 66.9 CB 67.45 CG 67.31 SD 66.89 CE 66.81
B ALA E 0 -165.4 148.2 N 66.25 CA 65.69 C 65.05 O 65.02 CB 65.61
B THR E 0 -106.8 135.4 N 64.52 CA 64.42 C 63.97 O 63.08 CB 64.27 OG1 65.19 CG2 63.97
B PHE E 5 -121.1 116.7 N 64.26 CA 64.6 C 64.78 O 64.74 CB 64.63 CG 64.52 CD1 61.79 CD2 65.79 CE1 62.98 CE2 65.69 CZ 65.1
B CYS E 9 -102.8 121.3 N 65.45 CA 66.17 C 67.13 O 67.22 CB 65.68 SG 63.76
B MET - 63 -124.6 115.6 N 68.54 CA 69.58 C 70.17 O 70.31 CB 69.61 CG 70.54 SD 71.66 CE 72.14
B GLU - 75 -93.8 134.1 N 71.06 CA 71.73 C 72.1 O 72.05 CB 72.32 CG 74.05 CD 76.59 OE1 78.59 OE2 78.08
B GLN T 140 -29.5 123.8 N 72.23 CA 72.12 C 71.73 O 71.76 CB 72.95 CG 74.9 CD 77.12 OE1 78.31 NE2 77.37
B GLU T 193 66.2 20.1 N 70.9 CA 70.1 C 68.8 O 68.6 CB 71.09 CG 72.98 CD 75.68 OE1 77.55 OE2 77.47
B GLN - 82 -102.4 149.4 N 67.07 CA 65.5 C 63.74 O 63.13 CB 65.76 CG 66.16 CD 66.75 OE1 68.04 NE2 66.28
B ASP S 84 -82.1 -6.3 N 61.95 CA 60.64 C 59.05 O 59.16 CB 61.16 CG 62.93 OD1 65.45 OD2 64.35
B PHE E 53 -125.3 167.5 N 56.81 CA 55.35 C 53.16 O 53.2 CB 54.82 CG 53.38 CD1 49.55 CD2 53.92 CE1 52.07 CE2 54.79 CZ 54.4
B VAL E 0 -126.8 156.9 N 51.21 CA 49.47 C 48.27 O 47.43 CB 49.64 CG1 50.09 CG2 49.87
B TRP E 52 -118.7 121.4 N 46.93 CA 46.48 C 46.74 O 46.64 CB 47.72 CG 50.29 CD1 49.62 CD2 41.31 NE1 49.47 CE2 39.17 CE3 39.41 CZ2 42.71 CZ3 34.66 CH2 35.85
B LEU E 5 -87.9 126.8 N 47.68 CA 48.22 C 48.44 O 48.31 CB 48.17 CG 48.32 CD1 48.57 CD2 48.57
B LYS E 63 -141.5 148.1 N 49.28 CA 50.16 C 50.54 O 50.14 CB 50.3 CG 50.41 CD 50.6 CE 51.71 NZ 53.44
B ARG E 30 52.9 48.2 N 51.29 CA 52.08 C 52.1 O 51.8 CB 52.23 CG 53.13 CD 53.78 NE 54.94 CZ 55.19 NH1 54.76 NH2 55.63
B PHE E 27 -85.5 126.3 N 52.79 CA 53.39 C 54.39 O 54.46 CB 52.91 CG 52.7 CD1 54.96 CD2 50.43 CE1 55.28 CE2 51.0 CZ 52.43
B ALA E 5 -150.4 138.2 N 55.55 CA 56.7 C 57.8 O 58.25 CB 56.63
B THR E 5 -116.4 141.6 N 59.28 CA 60.21 C 61.43 O 61.58 CB 60.1 OG1 60.13 CG2 59.88
B SER - 5 -68.9 147.5 N 62.98 CA 64.13 C 65.26 O 65.52 CB 64.24 OG 64.61
B PRO H 7 -60.6 -35.7 N 66.59 CA 67.3 C 68.13 O 67.61 CB 67.41 CG 67.33 CD 66.87
B ASN H 56 -52.6 -35.8 N 69.25 CA 70.09 C 70.61 O 70.52 CB 70.67 CG 72.62 OD1 75.11 ND2 74.63
B TYR H 47 -111.3 5.7 N 71.23 CA 71.51 C 71.63 O 71.66 CB 72.24 CG 71.94 CD1 77.06 CD2 69.11 CE1 76.35 CE2 70.04 CZ 72.69 OH 73.04
B ILE H 1 -59.0 -38.3 N 71.52 CA 71.58 C 71.6 O 71.71 CB 71.56 CG1 71.75 CG2 71.42 CD1 71.79
B ALA T 21 -58.3 -36.3 N 71.52 CA 71.35 C 71.18 O 71.0 CB 71.47
B LYS T 132 -76.1 -13.1 N 71.08 CA 70.79 C 70.4 O 70.5 CB 71.1 CG 71.77 CD 72.12 CE 72.05 NZ 72.32
B GLY T 20 72.9 27.2 N 69.7 CA 69.02 C 68.31 O 68.35
B TYR H 54 -70.5 -27.3 N 67.27 CA 66.55 C 65.88 O 65.93 CB 66.08 CG 65.7 CD1 66.08 CD2 66.46 CE1 65.71 CE2 66.3 CZ 65.76 OH 67.53
B GLY H 2 -55.7 -43.5 N 65.04 CA 64.24 C 63.46 O 63.13
B SER H 31 -61.9 -36.5 N 62.83 CA 62.39 C 61.93 O 61.64 CB 62.29 OG 62.42
B LEU H 85 -61.3 -51.1 N 61.45 CA 61.08 C 60.47 O 60.24 CB 61.39 CG 61.93 CD1 62.37 CD2 61.83
B LEU H 0 -59.8 -48.7 N 59.75 CA 59.55 C 59.27 O 59.23 CB 59.25 CG 59.26 CD1 59.32 CD2 59.34
B PHE H 1 -54.7 -54.1 N 59.01 CA 58.9 C 59.12 O 59.06 CB 58.02 CG 57.54 CD1 51.02 CD2 60.47 CE1 52.68 CE2 61.29 CZ 57.78
B HIS H 63 -63.0 -24.0 N 59.61 CA 59.97 C 60.18 O 59.92 CB 59.99 CG 60.42 ND1 61.05 CD2 61.34 CE1 61.77 NE2 61.64
B GLU H 77 -72.2 -46.4 N 60.98 CA 61.21 C 61.52 O 61.58 CB 61.45 CG 62.37 CD 65.07 OE1 65.96 OE2 67.08
B LEU H 1 -66.1 -33.4 N 61.61 CA 61.76 C 61.94 O 61.94 CB 61.22 CG 60.6 CD1 60.29 CD2 60.46
B GLU H 24 -71.3 -37.3 N 62.64 CA 63.56 C 64.37 O 64.17 CB 63.34 CG 63.15 CD 63.92 OE1 65.28 OE2 64.01
B LYS H 109 -61.5 -47.8 N 65.47 CA 66.52 C 67.04 O 67.07 CB 66.82 CG 67.68 CD 68.03 CE 69.12 NZ 69.25
B ARG H 77 -54.0 -55.7 N 67.67 CA 68.14 C 68.18 O 68.42 CB 68.18 CG 68.68 CD 70.71 NE 72.28 CZ 73.49 NH1 74.18 NH2 73.85
B ALA H 0 -54.7 -43.5 N 68.33 CA 68.52 C 68.68 O 68.61 CB 68.4
B VAL H 57 -63.2 -36.9 N 69.23 CA 69.49 C 69.67 O 69.5 CB 69.49 CG1 69.89 CG2 69.33
B TRP T 223 -90.4 10.2 N 70.04 CA 70.4 C 70.27 O 70.58 CB 72.11 CG 73.62 CD1 71.01 CD2 74.15 NE1 74.66 CE2 73.46 CE3 72.23 CZ2 73.01 CZ3 73.59 CH2 73.7
B GLU T 104 -110.4 15.0 N 69.49 CA 68.68 C 67.89 O 67.97 CB 68.97 CG 70.35 CD 72.52 OE1 74.15 OE2 73.44
B GLY T 57 75.8 14.7 N 66.74 CA 65.87 C 65.02 O 64.9
B ARG - 29 -80.7 142.5 N 63.98 CA 63.07 C 61.83 O 61.99 CB 63.51 CG 64.79 CD 67.0 NE 67.72 CZ 68.35 NH1 68.95 NH2 68.36
B ARG - 79 -101.2 -27.3 N 60.3 CA 59.49 C 57.44 O 57.37 CB 59.93 CG 61.91 CD 63.6 NE 66.73 CZ 68.19 NH1 68.21 NH2 68.41
B LYS E 43 -133.2 152.4 N 55.18 CA 53.23 C 51.35 O 50.99 CB 52.92 CG 52.58 CD 52.97 CE 53.14 NZ 52.86
B MET E 0 -132.6 124.4 N 49.19 CA 47.62 C 45.67 O 44.94 CB 47.53 CG 48.06 SD 47.27 CE 47.12
B TYR E 41 -102.2 150.3 N 44.01 CA 43.26 C 42.42 O 41.85 CB 42.4 CG 41.49 CD1 45.28 CD2 38.43 CE1 44.68 CE2 38.27 CZ 40.88 OH 42.02
B ALA E 1 -155.0 158.6 N 42.0 CA 41.94 C 41.77 O 41.71 CB 41.53
B GLN E 41 -135.3 150.8 N 41.8 CA 41.96 C 42.08 O 42.1 CB 41.72 CG 41.98 CD 42.12 OE1 43.44 NE2 41.68
B THR E 1 -152.8 162.4 N 42.37 CA 42.42 C 42.34 O 41.95 CB 42.55 OG1 43.51 CG2 42.2
B ASN E 0 -76.8 154.6 N 42.78 CA 42.91 C 42.89 O 42.15 CB 42.91 CG 43.09 OD1 43.96 ND2 43.18
B HIS T 67 -58.6 -24.5 N 43.64 CA 44.09 C 44.01 O 44.09 CB 44.49 CG 46.13 ND1 47.79 CD2 47.07 CE1 48.04 NE2 47.87
B THR T 15 -77.3 -12.8 N 44.24 CA 44.4 C 44.65 O 44.89 CB 44.42 OG1 44.55 CG2 44.26
B ASN - 6 -96.3 72.9 N 44.83 CA 44.76 C 45.3 O 45.84 CB 44.45 CG 44.31 OD1 42.44 ND2 44.42
B HIS H 52 -62.7 -31.5 N 45.53 CA 45.54 C 45.95 O 46.15 CB 45.33 CG 44.52 ND1 44.16 CD2 43.89 CE1 44.62 NE2 44.35
B ARG H 34 -58.8 -44.8 N 46.61 CA 46.98 C 46.77 O 46.66 CB 47.47 CG 47.99 CD 49.67 NE 51.11 CZ 53.82 NH1 55.11 NH2 54.16
B MET H 10 -77.6 -35.5 N 46.19 CA 46.06 C 45.91 O 45.41 CB 45.68 CG 44.2 SD 41.77 CE 41.67
B ILE H 18 -56.0 -47.6 N 46.02 CA 46.17 C 46.68 O 47.01 CB 45.97 CG1 45.44 CG2 46.14 CD1 45.44
B ARG H 59 -64.2 -47.0 N 47.3 CA 47.68 C 48.0 O 47.72 CB 47.71 CG 47.74 CD 48.2 NE 48.72 CZ 49.09 NH1 48.66 NH2 49.42
B PHE H 24 -47.9 -51.4 N 48.98 CA 49.3 C 49.75 O 50.0 CB 49.95 CG 49.71 CD1 52.58 CD2 48.93 CE1 51.87 CE2 49.57 CZ 50.69
B PHE H 5 -67.7 -48.2 N 49.86 CA 50.25 C 50.59 O 50.25 CB 49.58 CG 49.52 CD1 47.86 CD2 49.75 CE1 48.29 CE2 49.33 CZ 49.04
B GLU H 124 -56.8 -33.8 N 51.61 CA 52.57 C 52.68 O 52.99 CB 52.79 CG 53.95 CD 54.83 OE1 57.49 OE2 57.44
B SER H 83 -66.8 -35.7 N 52.78 CA 52.86 C 52.94 O 53.1 CB 52.96 OG 53.71
B LYS H 35 -90.4 3.5 N 52.73 CA 52.25 C 51.66 O 51.49 CB 52.82 CG 53.89 CD 55.1 CE 55.44 NZ 57.38
B GLY T 44 102.8 6.7 N 50.84 CA 50.34 C 49.99 O 50.29
B PHE - 10 -77.3 167.1 N 49.07 CA 48.26 C 47.61 O 47.64 CB 47.95 CG 47.33 CD1 48.7 CD2 46.22 CE1 48.24 CE2 46.75 CZ 47.04
B THR E 86 -138.2 125.3 N 47.34 CA 46.95 C 46.42 O 46.87 CB 47.17 OG1 48.36 CG2 46.95
B LYS E 81 -62.5 133.4 N 45.88 CA 45.62 C 45.24 O 45.94 CB 45.44 CG 45.62 CD 45.92 CE 46.29 NZ 47.2
B ILE E 86 -125.6 -9.4 N 44.54 CA 43.84 C 43.46 O 43.53 CB 43.65 CG1 43.71 CG2 43.2 CD1 43.45
B HIS E 106 -167.0 151.1 N 43.24 CA 43.31 C 43.25 O 43.11 CB 42.99 CG 42.26 ND1 41.08 CD2 41.34 CE1 41.56 NE2 42.11
B GLU E 89 -123.5 141.2 N 43.52 CA 44.07 C 43.89 O 43.34 CB 44.21 CG 45.59 CD 45.92 OE1 47.85 OE2 47.44
B SER E 30 -159.9 151.7 N 44.23 CA 44.39 C 44.66 O 44.57 CB 44.59 OG 45.22
B LEU - 110 -76.6 150.5 N 45.3 CA 46.3 C 46.57 O 46.7 CB 46.43 CG 46.91 CD1 46.83 CD2 47.15
B GLN - 54 -120.0 141.8 N 47.32 CA 48.15 C 49.29 O 49.51 CB 47.62 CG 46.64 CD 45.03 OE1 43.42 NE2 42.35
B MET T 162 -56.2 136.3 N 50.52 CA 51.0 C 51.88 O 51.58 CB 50.91 CG 50.91 SD 50.82 CE 50.0
B ASN T 134 67.8 13.8 N 52.85 CA 53.43 C 53.99 O 54.56 CB 53.83 CG 54.67 OD1 55.82 ND2 56.14
B ARG - 19 -151.3 31.4 N 54.15 CA 53.93 C 54.11 O 54.21 CB 53.77 CG 53.57 CD 53.13 NE 52.01 CZ 51.81 NH1 51.53 NH2 52.53
B LEU G 115 -71.7 -25.0 N 54.44 CA 54.97 C 54.83 O 54.94 CB 55.83 CG 57.44 CD1 58.26 CD2 58.35
B ASP G 115 -26.8 -51.0 N 54.43 CA 53.7 C 52.86 O 52.7 CB 54.43 CG 55.8 OD1 56.67 OD2 57.09
B PHE G 41 -91.1 4.8 N 51.79 CA 50.84 C 49.83 O 49.46 CB 50.53 CG 50.11 CD1 54.94 CD2 47.86 CE1 53.01 CE2 47.84 CZ 50.11
B GLY - 20 69.4 -151.6 N 48.94 CA 48.49 C 48.04 O 48.47
B SER - 39 -67.2 132.5 N 47.13 CA 46.58 C 45.99 O 45.97 CB 47.04 OG 48.3
B PHE E 2 -105.6 143.1 N 44.88 CA 43.94 C 43.27 O 42.76 CB 43.2 CG 42.79 CD1 42.16 CD2 42.26 CE1 42.41 CE2 42.13 CZ 42.29
B TYR E 49 -104.1 128.1 N 43.36 CA 43.66 C 43.42 O 42.79 CB 44.15 CG 44.39 CD1 44.48 CD2 44.63 CE1 44.9 CE2 44.38 CZ 44.89 OH 45.36
B LEU E 32 -97.4 130.9 N 43.48 CA 43.91 C 43.84 O 43.56 CB 43.71 CG 43.49 CD1 42.96 CD2 43.96
B TYR E 2 -122.4 147.0 N 44.63 CA 46.09 C 46.9 O 46.8 CB 45.91 CG 45.63 CD1 48.47 CD2 44.89 CE1 47.7 CE2 44.77 CZ 46.16 OH 47.72
B VAL E 13 -133.9 139.9 N 48.28 CA 49.95 C 51.49 O 51.8 CB 49.73 CG1 49.63 CG2 48.78
B LYS E 37 -116.4 134.1 N 53.77 CA 55.51 C 57.56 O 57.21 CB 55.07 CG 54.58 CD 54.9 CE 54.16 NZ 54.35
B GLU E 111 -81.8 138.5 N 60.3 CA 62.63 C 64.45 O 64.44 CB 62.97 CG 65.36 CD 68.3 OE1 70.04 OE2 70.08
B LEU - 13 -110.3 20.0 N 67.01 CA 69.29 C 71.57 O 71.88 CB 69.06 CG 68.83 CD1 68.64 CD2 69.13
B GLU S 132 -143.0 77.9 N 74.16 CA 76.12 C 77.79 O 78.03 CB 76.45 CG 77.08 CD 77.47 OE1 79.13 OE2 78.5
B ASN - 140 -160.8 -159.4 N 79.44 CA 80.4 C 81.37 O 81.6 CB 80.81 CG 81.68 OD1 82.77 ND2 81.85
B GLN - 241 -159.7 360.0 N 82.17 CA 82.3 C 82.47 O 82.47 CB 82.66 CG 82.57 CD 82.63 OE1 82.32 NE2 82.69
