A LEU - 186 360.0 -178.5 N 40.88 CA 40.38 C 39.37 O 40.06 CB 40.73 CG 43.16 CD1 43.52 CD2 41.57
A TYR - 228 -113.7 146.0 N 36.75 CA 35.77 C 34.44 O 31.48 CB 36.85 CG 37.96 CD1 41.04 CD2 39.73 CE1 42.16 CE2 41.17 CZ 40.76 OH 44.16
A PHE - 181 -106.6 128.1 N 32.55 CA 33.06 C 31.74 O 29.55 CB 34.51 CG 34.93 CD1 37.52 CD2 37.07 CE1 37.18 CE2 38.87 CZ 38.08
A GLN - 185 -85.4 122.9 N 30.03 CA 30.24 C 29.98 O 28.77 CB 29.55 CG 29.51 CD 31.75 OE1 34.15 NE2 31.47
A SER - 49 -85.3 152.3 N 30.68 CA 31.43 C 31.56 O 31.31 CB 31.01 OG 32.6
A MET - 48 -54.7 136.1 N 32.05 CA 32.92 C 33.33 O 34.24 CB 34.04 CG 34.49 SD 38.63 CE 39.75
A ASP - 94 -77.3 114.0 N 34.82 CA 34.25 C 33.02 O 29.7 CB 34.47 CG 37.26 OD1 38.41 OD2 43.55
A LEU G 16 -60.4 -26.2 N 33.3 CA 33.82 C 34.43 O 34.62 CB 34.06 CG 35.32 CD1 37.14 CD2 36.0
A ALA G 77 -51.8 -28.3 N 33.85 CA 33.6 C 33.27 O 34.19 CB 34.1
A LEU G 123 -90.9 -2.1 N 31.88 CA 31.41 C 31.32 O 31.0 CB 32.38 CG 34.98 CD1 33.06 CD2 35.27
A ILE S 5 -91.8 121.8 N 29.81 CA 29.32 C 27.74 O 27.3 CB 28.8 CG1 30.27 CG2 28.49 CD1 29.45
A PRO - 70 -55.1 133.1 N 27.23 CA 27.77 C 26.52 O 25.45 CB 26.96 CG 30.05 CD 28.0
A ASP S 69 -65.9 -34.4 N 25.32 CA 25.21 C 23.08 O 24.61 CB 25.64 CG 30.49 OD1 33.25 OD2 39.02
A VAL E 1 -131.4 132.0 N 21.31 CA 22.96 C 23.12 O 23.62 CB 23.17 CG1 21.65 CG2 22.84
A ASP E 69 -140.3 98.8 N 23.0 CA 23.43 C 23.5 O 23.36 CB 23.66 CG 26.85 OD1 34.19 OD2 30.1
A ILE E 13 -128.3 161.8 N 23.54 CA 23.72 C 25.77 O 23.7 CB 22.12 CG1 22.42 CG2 22.11 CD1 22.01
A ASP - 47 -85.0 -176.7 N 26.65 CA 29.4 C 30.43 O 28.91 CB 27.09 CG 31.18 OD1 33.88 OD2 32.64
A SER - 63 -126.5 156.3 N 32.69 CA 33.49 C 34.22 O 36.05 CB 33.96 OG 34.92
A ASP S 75 47.1 69.7 N 35.09 CA 35.21 C 35.03 O 35.98 CB 36.24 CG 38.0 OD1 41.67 OD2 42.8
A GLY E 23 163.3 -169.5 N 31.64 CA 29.38 C 27.72 O 24.44
A VAL E 81 -116.0 136.0 N 25.46 CA 24.18 C 24.31 O 22.73 CB 24.12 CG1 24.51 CG2 26.23
A PHE E 9 -159.4 157.3 N 21.11 CA 19.7 C 19.32 O 17.86 CB 20.23 CG 18.04 CD1 17.13 CD2 20.17 CE1 19.89 CE2 20.13 CZ 21.7
A LYS E 57 -63.9 146.9 N 18.61 CA 19.95 C 19.77 O 18.78 CB 20.2 CG 20.12 CD 24.56 CE 27.65 NZ 33.21
A TYR E 0 -140.7 159.8 N 17.42 CA 15.79 C 16.69 O 15.58 CB 18.06 CG 15.41 CD1 17.42 CD2 17.39 CE1 19.88 CE2 19.17 CZ 16.58 OH 19.69
A VAL E 0 -130.0 151.8 N 18.66 CA 18.05 C 18.4 O 17.46 CB 17.93 CG1 17.08 CG2 19.06
A LEU E 1 -106.8 123.3 N 18.76 CA 18.42 C 18.31 O 18.61 CB 17.88 CG 19.04 CD1 19.08 CD2 17.76
A ILE E 0 -124.5 135.1 N 20.45 CA 22.01 C 23.33 O 25.0 CB 21.51 CG1 24.06 CG2 22.37 CD1 23.62
A ARG E 71 -93.3 119.7 N 24.01 CA 24.51 C 24.42 O 23.02 CB 25.19 CG 24.63 CD 26.29 NE 25.46 CZ 27.25 NH1 27.88 NH2 27.88
A VAL E 0 -103.2 133.2 N 24.8 CA 27.09 C 28.63 O 29.63 CB 27.07 CG1 26.8 CG2 29.12
A HIS E 46 -111.8 132.4 N 31.28 CA 33.6 C 35.23 O 34.05 CB 33.96 CG 33.29 ND1 37.83 CD2 35.21 CE1 38.6 NE2 35.3
A SER - 11 -51.8 -35.4 N 39.45 CA 41.15 C 44.56 O 46.49 CB 42.9 OG 45.1
A ALA - 69 -129.5 360.0 N 46.11 CA 48.24 C 48.97 O 51.0 CB 47.99
A GLU - 179 360.0 -23.9 N 43.02 CA 42.1 C 40.53 O 40.0 CB 43.09 CG 45.45 CD 46.43 OE1 51.57 OE2 51.91
A SER E 64 -147.2 156.1 N 38.56 CA 37.28 C 35.98 O 37.45 CB 36.95 OG 39.91
A LYS E 35 -156.0 165.6 N 32.48 CA 30.56 C 27.5 O 26.35 CB 30.86 CG 30.41 CD 30.36 CE 31.84 NZ 28.49
A GLU E 44 -103.6 135.7 N 27.62 CA 27.58 C 25.93 O 26.74 CB 28.55 CG 34.04 CD 43.14 OE1 51.36 OE2 49.22
A ILE E 0 -127.6 153.6 N 23.14 CA 21.41 C 20.04 O 19.17 CB 20.88 CG1 22.39 CG2 21.03 CD1 24.33
A VAL E 0 -111.5 127.7 N 18.75 CA 18.63 C 18.77 O 17.76 CB 17.79 CG1 17.4 CG2 15.78
A ARG E 13 -135.3 125.0 N 19.01 CA 19.47 C 18.9 O 18.67 CB 19.83 CG 16.64 CD 19.55 NE 21.33 CZ 20.35 NH1 20.7 NH2 22.78
A GLY E 0 -152.3 129.6 N 19.27 CA 19.26 C 20.38 O 21.36
A TYR - 28 -145.9 135.1 N 22.58 CA 23.4 C 25.09 O 23.87 CB 24.55 CG 26.03 CD1 23.47 CD2 22.07 CE1 25.71 CE2 23.29 CZ 24.88 OH 26.77
A LYS T 110 -61.9 -28.3 N 25.09 CA 27.01 C 25.85 O 26.82 CB 26.48 CG 29.07 CD 30.93 CE 35.01 NZ 31.78
A TRP T 141 -72.2 -20.5 N 26.19 CA 27.4 C 27.1 O 25.76 CB 26.82 CG 26.89 CD1 24.57 CD2 26.84 NE1 25.24 CE2 23.93 CE3 28.87 CZ2 26.44 CZ3 29.78 CH2 26.81
A ALA - 9 -71.7 116.8 N 26.95 CA 26.39 C 26.33 O 27.52 CB 25.02
A GLU S 125 -69.1 -38.5 N 27.27 CA 27.58 C 26.39 O 26.65 CB 28.17 CG 30.17 CD 34.48 OE1 39.58 OE2 42.33
A TYR S 135 -128.0 153.4 N 26.32 CA 25.06 C 22.05 O 19.85 CB 26.97 CG 27.68 CD1 30.2 CD2 30.05 CE1 32.42 CE2 30.62 CZ 28.59 OH 30.8
A HIS H 20 -54.2 -41.9 N 22.64 CA 21.69 C 21.08 O 19.89 CB 21.02 CG 19.35 ND1 17.52 CD2 18.57 CE1 19.51 NE2 17.11
A ALA H 39 -57.3 -30.3 N 21.48 CA 21.89 C 22.12 O 23.71 CB 21.5
A ASP H 59 -65.2 -37.0 N 23.43 CA 23.31 C 23.62 O 22.83 CB 25.17 CG 29.12 OD1 31.89 OD2 29.54
A ILE H 0 -71.0 -49.4 N 22.64 CA 21.82 C 22.41 O 22.68 CB 20.42 CG1 23.18 CG2 21.91 CD1 21.75
A TYR H 39 -59.0 -40.8 N 22.9 CA 23.2 C 23.21 O 22.14 CB 24.72 CG 24.58 CD1 24.93 CD2 28.29 CE1 24.68 CE2 30.24 CZ 26.06 OH 32.74
A ASP H 120 -62.0 -44.9 N 23.8 CA 24.57 C 24.43 O 24.96 CB 24.09 CG 25.64 OD1 30.18 OD2 31.11
A LYS H 105 -63.4 -49.1 N 25.72 CA 26.11 C 26.55 O 24.91 CB 27.26 CG 31.47 CD 35.94 CE 37.24 NZ 40.33
A VAL H 5 -67.8 -45.4 N 25.24 CA 24.59 C 25.68 O 26.55 CB 24.77 CG1 24.83 CG2 25.22
A SER H 22 -69.3 -26.9 N 25.19 CA 28.13 C 28.79 O 28.75 CB 26.6 OG 27.54
A GLY H 34 -66.2 -50.6 N 30.5 CA 30.77 C 31.44 O 33.1
A ASP H 52 -53.6 -45.9 N 31.2 CA 32.21 C 32.35 O 32.87 CB 32.42 CG 36.24 OD1 37.12 OD2 38.13
A MET H 14 -64.4 -41.9 N 31.42 CA 32.07 C 32.46 O 32.01 CB 32.07 CG 33.49 SD 35.88 CE 36.24
A GLN H 116 -63.3 -34.6 N 32.39 CA 33.48 C 31.8 O 31.15 CB 33.08 CG 37.19 CD 43.85 OE1 51.85 NE2 42.97
A LYS H 180 -58.1 -30.8 N 34.05 CA 36.1 C 36.12 O 36.0 CB 36.61 CG 40.09 CD 41.22 CE 44.86 NZ 46.68
A GLN T 84 -97.3 13.0 N 35.15 CA 35.58 C 35.37 O 35.43 CB 36.54 CG 37.61 CD 37.2 OE1 43.26 NE2 36.26
A GLY T 48 73.2 18.5 N 34.02 CA 33.71 C 33.39 O 33.31
A CYS - 1 -100.7 155.3 N 32.82 CA 33.02 C 32.89 O 32.46 CB 33.45 SG 32.8
A ASP E 88 -113.5 154.6 N 32.44 CA 32.39 C 31.24 O 30.18 CB 33.75 CG 38.46 OD1 45.67 OD2 46.14
A CYS E 12 -127.9 154.7 N 30.76 CA 30.58 C 30.14 O 28.4 CB 30.87 SG 36.88
A GLU E 77 -130.8 135.2 N 28.64 CA 29.13 C 25.68 O 26.16 CB 29.99 CG 36.53 CD 36.65 OE1 42.5 OE2 46.13
A CYS E 26 -87.4 122.5 N 24.06 CA 23.49 C 23.97 O 24.93 CB 22.88 SG 25.03
A LEU E 48 -92.9 -7.4 N 22.82 CA 23.08 C 24.51 O 27.76 CB 23.01 CG 23.34 CD1 24.63 CD2 27.32
A GLY E 0 146.4 177.5 N 21.87 CA 21.08 C 20.05 O 18.15
A GLY E 0 -151.0 -172.5 N 18.78 CA 20.02 C 19.75 O 22.08
A GLY E 0 174.7 -144.3 N 18.24 CA 17.69 C 17.47 O 16.31
A ARG E 127 -126.4 155.7 N 16.96 CA 17.77 C 18.34 O 18.39 CB 17.68 CG 20.12 CD 19.25 NE 18.44 CZ 23.44 NH1 24.01 NH2 26.51
A ILE E 0 -124.5 133.3 N 18.19 CA 18.64 C 19.47 O 20.49 CB 17.96 CG1 15.48 CG2 17.69 CD1 17.98
A SER E 24 -107.6 113.1 N 19.53 CA 22.27 C 24.66 O 23.74 CB 23.06 OG 24.03
A HIS E 4 -109.6 111.6 N 25.99 CA 28.54 C 30.86 O 32.07 CB 28.16 CG 28.04 ND1 32.29 CD2 33.11 CE1 32.13 NE2 30.96
A GLN E 74 -109.5 98.8 N 31.98 CA 34.98 C 34.92 O 34.62 CB 35.0 CG 38.57 CD 41.28 OE1 47.71 NE2 43.72
A SER T 43 -68.2 -38.0 N 36.8 CA 38.85 C 40.35 O 41.52 CB 39.11 OG 41.25
A GLN T 185 -49.6 -48.6 N 41.51 CA 41.88 C 41.54 O 42.04 CB 43.55 CG 46.38 CD 47.74 OE1 55.96 NE2 51.66
A ASP T 93 -92.5 -0.3 N 39.42 CA 38.1 C 35.7 O 34.32 CB 40.14 CG 46.49 OD1 54.54 OD2 53.12
A LYS T 96 43.2 58.1 N 34.23 CA 33.54 C 31.59 O 30.47 CB 33.82 CG 34.01 CD 34.21 CE 34.54 NZ 35.92
A LYS E 86 -127.4 137.7 N 30.0 CA 30.76 C 26.87 O 25.9 CB 31.47 CG 35.23 CD 34.98 CE 39.55 NZ 41.95
A ILE E 0 -131.8 126.1 N 23.25 CA 20.67 C 21.94 O 22.38 CB 21.31 CG1 20.87 CG2 22.51 CD1 19.97
A HIS E 62 -119.1 133.3 N 20.92 CA 21.38 C 21.67 O 21.63 CB 21.43 CG 22.82 ND1 22.19 CD2 24.05 CE1 27.42 NE2 23.02
A VAL E 0 -123.5 127.8 N 20.97 CA 20.4 C 20.49 O 21.22 CB 20.98 CG1 20.14 CG2 17.47
A TYR E 56 -166.4 178.1 N 19.57 CA 20.12 C 21.18 O 19.98 CB 19.71 CG 18.37 CD1 20.56 CD2 17.26 CE1 20.83 CE2 18.95 CZ 20.42 OH 20.76
A GLY - 17 82.9 -159.9 N 21.74 CA 21.37 C 22.76 O 21.34
A TYR - 161 -153.3 175.1 N 22.4 CA 23.27 C 22.55 O 24.47 CB 25.15 CG 26.35 CD1 30.58 CD2 30.56 CE1 28.41 CE2 30.29 CZ 28.46 OH 31.32
A SER - 3 -123.9 131.6 N 22.32 CA 21.3 C 22.34 O 20.26 CB 21.49 OG 19.59
A MET T 189 -63.9 -41.6 N 21.61 CA 21.84 C 21.83 O 24.14 CB 23.16 CG 23.61 SD 25.55 CE 27.82
A ALA T 71 -68.1 -38.7 N 19.67 CA 20.41 C 20.15 O 22.37 CB 21.4
A TYR T 66 -118.5 -1.3 N 19.93 CA 20.19 C 20.58 O 22.07 CB 19.57 CG 19.82 CD1 20.02 CD2 21.18 CE1 21.92 CE2 18.02 CZ 21.31 OH 22.07
A GLY - 24 75.8 175.4 N 22.25 CA 24.19 C 24.49 O 23.15
A PRO B 81 -68.5 134.2 N 24.98 CA 24.83 C 23.77 O 26.63 CB 25.89 CG 26.06 CD 26.44
A ALA - 6 -70.2 156.9 N 21.99 CA 21.68 C 21.29 O 20.04 CB 20.03
A GLN - 144 -74.4 98.7 N 23.29 CA 24.96 C 21.82 O 21.87 CB 25.57 CG 30.92 CD 32.51 OE1 41.38 NE2 42.35
A HIS H 5 -70.4 -21.2 N 22.25 CA 23.33 C 24.05 O 22.06 CB 21.34 CG 20.16 ND1 18.84 CD2 20.51 CE1 18.86 NE2 20.17
A ALA H 32 -58.6 -36.7 N 25.65 CA 24.61 C 24.82 O 27.13 CB 25.17
A ILE H 27 -70.5 -46.7 N 24.46 CA 24.17 C 24.55 O 23.2 CB 24.94 CG1 28.48 CG2 25.13 CD1 26.73
A SER H 0 -54.8 -48.0 N 21.47 CA 21.56 C 19.69 O 20.28 CB 19.49 OG 20.57
A THR H 8 -63.9 -31.4 N 20.04 CA 21.95 C 21.07 O 19.63 CB 21.64 OG1 23.11 CG2 23.86
A GLU H 125 -58.3 -46.5 N 23.01 CA 25.48 C 25.08 O 25.3 CB 26.81 CG 32.53 CD 34.17 OE1 42.55 OE2 43.45
A LYS H 42 -62.4 -46.6 N 25.91 CA 25.01 C 23.86 O 23.65 CB 24.63 CG 27.79 CD 29.71 CE 30.77 NZ 34.08
A ILE H 0 -62.1 -46.3 N 22.57 CA 23.04 C 23.07 O 23.29 CB 22.18 CG1 20.65 CG2 21.21 CD1 20.28
A LYS H 91 -61.6 -37.5 N 23.72 CA 25.38 C 26.83 O 28.99 CB 24.2 CG 24.06 CD 24.63 CE 24.13 NZ 24.4
A ALA H 78 -58.5 -37.6 N 28.63 CA 29.2 C 30.06 O 30.98 CB 30.79
A LYS H 112 -89.0 -29.0 N 30.81 CA 30.66 C 30.04 O 30.81 CB 31.38 CG 33.51 CD 32.98 CE 35.9 NZ 33.21
A TYR S 41 -121.9 61.0 N 29.18 CA 29.44 C 29.48 O 26.3 CB 29.55 CG 30.25 CD1 30.94 CD2 30.28 CE1 34.88 CE2 28.29 CZ 32.84 OH 33.64
A PRO T 78 -62.9 -24.9 N 30.21 CA 30.59 C 30.75 O 31.94 CB 31.52 CG 30.39 CD 31.66
A ASP T 96 -86.9 3.0 N 30.91 CA 31.65 C 30.92 O 30.55 CB 33.05 CG 36.87 OD1 41.57 OD2 46.14
A TYR S 26 -91.6 155.6 N 29.85 CA 30.19 C 29.36 O 29.48 CB 31.08 CG 31.94 CD1 33.84 CD2 33.06 CE1 32.39 CE2 32.53 CZ 33.72 OH 35.57
A GLU E 124 -83.1 119.3 N 29.21 CA 30.76 C 28.42 O 26.51 CB 30.56 CG 37.37 CD 37.55 OE1 41.43 OE2 47.74
A VAL E 24 -118.6 115.9 N 27.16 CA 26.44 C 26.44 O 26.18 CB 26.52 CG1 26.31 CG2 23.83
A THR E 60 -124.4 156.2 N 26.36 CA 25.56 C 26.96 O 23.57 CB 26.1 OG1 21.74 CG2 25.44
A TRP E 124 -135.4 163.9 N 26.93 CA 29.8 C 31.53 O 30.17 CB 30.16 CG 30.84 CD1 32.35 CD2 29.27 NE1 32.46 CE2 30.78 CE3 30.03 CZ2 31.22 CZ3 31.03 CH2 31.8
A ALA - 39 -122.7 142.4 N 35.64 CA 38.11 C 41.23 O 42.27 CB 38.74
A ASN - 164 91.3 360.0 N 43.84 CA 45.08 C 46.67 O 49.07 CB 46.64 CG 50.4 OD1 56.4 ND2 53.43
