A GLY - 94 360.0 134.3 N 21.63 CA 19.72 C 19.7 O 20.35
A GLY H 48 68.6 -158.7 N 17.79 CA 16.02 C 14.58 O 13.29
A ARG H 146 -56.9 -33.1 N 13.74 CA 12.87 C 12.79 O 13.1 CB 13.45 CG 15.46 CD 19.22 NE 20.8 CZ 24.66 NH1 26.52 NH2 25.43
A THR H 85 -62.5 -40.4 N 11.96 CA 11.15 C 10.48 O 11.05 CB 12.03 OG1 14.87 CG2 13.75
A ALA H 22 -71.0 -36.8 N 9.3 CA 9.68 C 10.2 O 10.17 CB 10.52
A ARG H 108 -67.1 -41.4 N 9.75 CA 10.41 C 9.74 O 8.83 CB 10.05 CG 14.14 CD 17.34 NE 21.27 CZ 21.69 NH1 21.25 NH2 23.35
A ILE H 19 -60.1 -45.6 N 8.56 CA 8.95 C 9.17 O 9.25 CB 9.19 CG1 7.82 CG2 9.96 CD1 8.65
A ARG H 57 -61.6 -47.6 N 9.18 CA 10.04 C 9.89 O 10.23 CB 9.41 CG 9.51 CD 9.79 NE 7.98 CZ 9.94 NH1 11.98 NH2 9.62
A GLU H 108 -54.2 -47.3 N 8.83 CA 7.83 C 7.93 O 7.94 CB 7.59 CG 8.06 CD 10.27 OE1 10.39 OE2 10.35
A ALA H 30 -62.4 -43.8 N 7.8 CA 6.77 C 7.57 O 7.96 CB 6.45
A VAL H 0 -67.2 -40.5 N 7.75 CA 6.93 C 8.16 O 6.73 CB 6.93 CG1 6.64 CG2 7.85
A LEU H 5 -72.8 -35.8 N 8.74 CA 9.11 C 10.1 O 10.18 CB 10.36 CG 11.3 CD1 12.35 CD2 12.18
A LEU H 113 -60.9 -45.8 N 8.75 CA 10.12 C 8.93 O 8.58 CB 9.55 CG 13.11 CD1 17.27 CD2 12.74
A ALA H 5 -63.5 -39.2 N 8.29 CA 8.14 C 9.05 O 9.23 CB 8.47
A ALA H 0 -64.4 -43.5 N 8.77 CA 8.24 C 8.92 O 9.18 CB 9.71
A GLY H 3 -60.4 -44.3 N 8.69 CA 7.37 C 8.93 O 7.7
A ASP H 62 -61.8 -45.6 N 8.54 CA 9.0 C 9.15 O 8.95 CB 8.32 CG 11.72 OD1 13.52 OD2 17.64
A ALA H 15 -66.9 -40.6 N 9.31 CA 7.56 C 7.81 O 8.96 CB 8.45
A LEU H 2 -60.9 -45.5 N 7.13 CA 6.98 C 7.46 O 7.2 CB 5.85 CG 8.65 CD1 9.82 CD2 8.61
A ALA H 7 -67.5 -35.7 N 7.55 CA 7.5 C 7.94 O 9.31 CB 7.46
A ALA H 65 -73.7 -46.9 N 8.11 CA 7.15 C 7.81 O 7.03 CB 8.18
A ASP H 116 -130.1 -7.5 N 6.5 CA 6.93 C 6.6 O 6.89 CB 7.52 CG 10.71 OD1 12.42 OD2 17.13
A GLY - 18 88.2 171.2 N 6.19 CA 6.83 C 7.68 O 9.11
A PHE G 29 -65.5 -43.1 N 8.34 CA 7.82 C 9.28 O 9.64 CB 8.99 CG 6.76 CD1 7.62 CD2 9.19 CE1 6.92 CE2 9.53 CZ 9.14
A ASP G 104 -53.2 -29.1 N 9.2 CA 10.3 C 10.18 O 11.47 CB 10.24 CG 12.41 OD1 12.43 OD2 16.39
A ALA G 47 -91.5 -11.6 N 9.81 CA 9.78 C 9.77 O 9.78 CB 9.44
A LEU - 15 -68.2 132.3 N 9.85 CA 9.82 C 9.33 O 8.35 CB 11.75 CG 13.67 CD1 11.96 CD2 11.15
A ASP - 69 -136.2 125.2 N 7.71 CA 8.73 C 9.66 O 10.45 CB 8.24 CG 8.86 OD1 13.84 OD2 9.13
A LEU H 5 -64.8 -29.8 N 9.55 CA 9.87 C 10.93 O 10.34 CB 10.1 CG 11.07 CD1 10.61 CD2 9.48
A GLY H 8 -66.1 -41.2 N 10.72 CA 9.9 C 8.35 O 8.98
A GLU H 98 -66.6 -39.9 N 7.86 CA 7.77 C 7.77 O 7.43 CB 8.91 CG 12.9 CD 16.82 OE1 17.58 OE2 14.96
A ILE H 2 -61.6 -42.3 N 8.13 CA 8.73 C 9.04 O 9.04 CB 8.69 CG1 8.28 CG2 9.64 CD1 7.17
A ALA H 2 -57.9 -44.3 N 10.02 CA 9.74 C 9.79 O 10.74 CB 8.93
A ARG H 180 -65.6 -43.2 N 9.75 CA 10.12 C 9.82 O 8.75 CB 10.03 CG 10.76 CD 10.5 NE 12.36 CZ 10.03 NH1 7.14 NH2 14.66
A ARG H 121 -66.7 -37.8 N 10.1 CA 10.79 C 10.99 O 10.45 CB 11.68 CG 16.46 CD 22.99 NE 27.47 CZ 26.57 NH1 25.42 NH2 27.93
A ALA H 20 -80.9 -9.0 N 10.01 CA 10.08 C 10.48 O 11.49 CB 9.12
A GLY T 57 71.3 35.2 N 11.23 CA 11.76 C 12.57 O 13.06
A VAL - 11 -125.5 149.0 N 12.5 CA 12.79 C 13.45 O 13.02 CB 13.58 CG1 14.58 CG2 11.87
A GLY - 45 -61.0 137.1 N 14.41 CA 13.55 C 13.44 O 12.83
A LYS H 125 -64.6 -32.0 N 13.57 CA 14.26 C 13.98 O 14.22 CB 13.41 CG 15.42 CD 15.8 CE 22.26 NZ 23.87
A THR H 91 -62.7 -38.1 N 13.39 CA 13.44 C 13.41 O 13.89 CB 13.48 OG1 17.12 CG2 13.08
A THR H 28 -62.1 -43.2 N 13.34 CA 13.0 C 12.35 O 12.77 CB 13.3 OG1 15.9 CG2 12.83
A VAL H 0 -63.9 -49.7 N 12.27 CA 11.23 C 11.41 O 10.94 CB 11.62 CG1 10.5 CG2 11.25
A TYR H 109 -63.1 -38.9 N 10.95 CA 10.68 C 11.65 O 12.18 CB 11.01 CG 10.5 CD1 10.99 CD2 13.69 CE1 10.3 CE2 12.38 CZ 12.18 OH 10.62
A ARG H 169 -63.8 -44.6 N 11.15 CA 12.87 C 12.26 O 12.64 CB 12.16 CG 15.07 CD 15.4 NE 22.85 CZ 25.24 NH1 25.6 NH2 24.65
A ARG H 87 -84.3 -34.5 N 12.78 CA 12.19 C 11.42 O 12.31 CB 11.6 CG 13.81 CD 13.27 NE 14.83 CZ 14.97 NH1 12.87 NH2 12.84
A TRP H 18 -111.1 -23.1 N 10.04 CA 9.98 C 9.21 O 9.22 CB 9.88 CG 9.53 CD1 8.47 CD2 9.35 NE1 10.28 CE2 9.87 CE3 7.81 CZ2 9.1 CZ3 8.42 CH2 9.85
A GLY - 38 76.8 -62.6 N 6.13 CA 5.25 C 4.43 O 5.21
A THR S 60 -141.5 164.1 N 4.0 CA 4.39 C 3.68 O 4.87 CB 3.66 OG1 3.13 CG2 2.97
A PRO H 43 -51.9 -41.8 N 3.49 CA 2.88 C 3.95 O 4.55 CB 4.49 CG 3.97 CD 2.42
A GLY H 1 -61.9 -39.5 N 4.04 CA 3.19 C 4.31 O 4.53
A GLY H 4 -65.1 -33.9 N 3.82 CA 5.17 C 5.56 O 5.4
A LEU H 0 -69.9 -45.3 N 4.81 CA 4.31 C 4.56 O 3.96 CB 5.7 CG 8.27 CD1 7.78 CD2 5.74
A ALA H 0 -61.1 -45.0 N 3.5 CA 3.06 C 3.74 O 4.59 CB 4.36
A ALA H 12 -55.5 -44.2 N 3.99 CA 4.27 C 3.63 O 3.61 CB 4.97
A ASP H 37 -72.4 -35.6 N 3.9 CA 3.79 C 4.01 O 4.56 CB 3.2 CG 4.49 OD1 5.83 OD2 5.91
A LEU H 12 -57.6 -44.9 N 4.4 CA 3.36 C 3.36 O 2.36 CB 3.38 CG 3.44 CD1 2.81 CD2 5.41
A LEU H 0 -63.1 -31.6 N 3.62 CA 2.06 C 3.55 O 3.7 CB 2.22 CG 3.09 CD1 2.0 CD2 2.8
A ALA H 40 -68.2 -44.1 N 2.79 CA 3.06 C 3.76 O 2.15 CB 3.46
A ASP H 40 -63.5 -43.4 N 3.36 CA 4.71 C 4.8 O 4.57 CB 4.98 CG 8.57 OD1 8.73 OD2 13.77
A ALA H 11 -61.7 -48.2 N 4.16 CA 4.6 C 5.64 O 6.34 CB 5.34
A GLU H 144 -59.6 -29.8 N 5.75 CA 6.98 C 7.11 O 6.72 CB 7.07 CG 12.4 CD 15.59 OE1 16.93 OE2 20.94
A GLN H 112 -97.3 -2.7 N 7.79 CA 9.32 C 8.97 O 9.79 CB 9.79 CG 12.59 CD 15.93 OE1 19.49 NE2 19.07
A SER - 42 -58.9 141.9 N 9.22 CA 10.08 C 9.53 O 9.53 CB 10.27 OG 14.75
A LEU - 135 -86.6 154.8 N 7.85 CA 8.03 C 7.26 O 8.43 CB 8.44 CG 9.33 CD1 11.26 CD2 12.99
A PRO - 99 -65.0 155.8 N 6.92 CA 6.43 C 7.24 O 7.46 CB 6.36 CG 7.48 CD 6.12
A ARG - 54 -65.6 158.2 N 4.82 CA 5.67 C 7.11 O 7.29 CB 6.4 CG 4.7 CD 4.69 NE 6.69 CZ 7.1 NH1 8.98 NH2 5.39
A ALA - 22 -63.4 156.0 N 6.22 CA 7.57 C 8.57 O 9.34 CB 7.53
A ASP - 101 -151.0 78.4 N 8.02 CA 8.4 C 9.12 O 9.52 CB 8.68 CG 10.37 OD1 8.14 OD2 13.94
A THR - 67 -90.2 -18.9 N 9.56 CA 9.78 C 9.71 O 10.42 CB 9.02 OG1 10.59 CG2 11.09
A GLY S 44 101.5 -3.2 N 9.65 CA 9.23 C 9.15 O 9.66
A ALA S 27 -143.7 135.4 N 8.93 CA 8.97 C 8.69 O 9.4 CB 9.49
A LEU H 0 -55.4 -52.0 N 9.02 CA 8.86 C 9.27 O 9.44 CB 9.22 CG 8.83 CD1 10.45 CD2 12.75
A GLU H 40 -68.9 -35.1 N 9.7 CA 9.38 C 9.71 O 10.09 CB 10.02 CG 10.5 CD 10.43 OE1 12.38 OE2 12.29
A GLU H 104 -63.7 -41.5 N 8.54 CA 9.91 C 9.0 O 8.84 CB 9.77 CG 13.76 CD 14.85 OE1 21.88 OE2 21.91
A ASP H 0 -60.6 -46.9 N 8.26 CA 7.53 C 6.7 O 7.02 CB 8.47 CG 10.41 OD1 9.64 OD2 11.45
A LEU H 0 -71.9 -29.3 N 4.41 CA 3.97 C 4.74 O 4.6 CB 3.97 CG 4.08 CD1 5.27 CD2 4.42
A ARG H 70 -67.2 -41.0 N 4.13 CA 5.0 C 4.98 O 4.8 CB 4.2 CG 6.13 CD 7.99 NE 17.36 CZ 20.95 NH1 25.15 NH2 23.18
A ALA H 34 -60.9 -44.3 N 4.72 CA 5.31 C 6.06 O 7.06 CB 5.16
A ASN H 0 -57.0 -54.9 N 5.95 CA 6.22 C 5.77 O 6.73 CB 4.5 CG 8.25 OD1 10.93 ND2 8.57
A ALA H 0 -63.6 -36.3 N 4.77 CA 3.58 C 3.99 O 3.41 CB 3.39
A ARG H 87 -67.3 -33.7 N 3.75 CA 4.03 C 4.53 O 5.19 CB 3.47 CG 2.0 CD 2.0 NE 2.45 CZ 4.78 NH1 6.56 NH2 6.43
A LEU H 68 -70.1 -41.3 N 4.55 CA 5.49 C 4.98 O 4.38 CB 5.16 CG 10.43 CD1 11.77 CD2 11.06
A VAL H 6 -60.7 -44.8 N 6.17 CA 6.17 C 8.31 O 8.28 CB 6.62 CG1 7.32 CG2 5.17
A VAL H 9 -64.4 -40.6 N 7.59 CA 6.83 C 7.19 O 8.77 CB 6.36 CG1 7.92 CG2 6.8
A ARG H 176 -62.9 -37.0 N 7.93 CA 8.51 C 9.47 O 9.82 CB 8.51 CG 11.31 CD 16.36 NE 24.86 CZ 28.74 NH1 30.42 NH2 30.91
A THR H 47 -65.8 -53.2 N 10.48 CA 9.93 C 10.12 O 11.5 CB 9.62 OG1 10.9 CG2 10.65
A LEU H 4 -73.4 -24.2 N 9.74 CA 9.33 C 9.97 O 9.18 CB 9.96 CG 9.48 CD1 6.56 CD2 8.78
A ASP H 94 -89.3 -9.6 N 10.26 CA 11.09 C 10.99 O 12.39 CB 11.2 CG 14.08 OD1 12.78 OD2 14.67
A ASP S 61 -68.7 133.9 N 11.27 CA 11.79 C 11.67 O 10.73 CB 12.31 CG 14.13 OD1 13.44 OD2 11.7
A PRO H 79 -54.6 -53.0 N 12.01 CA 12.43 C 12.26 O 14.21 CB 12.13 CG 12.26 CD 11.8
A ARG H 78 -65.2 -51.9 N 11.64 CA 10.91 C 10.16 O 9.49 CB 11.07 CG 11.31 CD 14.88 NE 18.2 CZ 18.37 NH1 19.21 NH2 14.75
A GLN H 57 -69.5 -34.6 N 9.13 CA 8.39 C 8.22 O 7.79 CB 9.41 CG 12.61 CD 17.01 OE1 22.19 NE2 19.94
A GLY H 0 -64.3 -41.1 N 8.04 CA 8.19 C 7.61 O 7.4
A ARG H 126 -68.5 -38.0 N 5.98 CA 5.36 C 6.41 O 6.05 CB 2.66 CG 3.32 CD 6.92 NE 15.35 CZ 18.22 NH1 19.62 NH2 18.42
A LEU H 5 -61.4 -49.0 N 6.71 CA 6.39 C 5.85 O 6.93 CB 6.67 CG 6.81 CD1 6.41 CD2 7.67
A PHE H 12 -63.4 -39.9 N 6.72 CA 6.84 C 6.49 O 6.38 CB 5.72 CG 7.88 CD1 6.38 CD2 6.9 CE1 6.53 CE2 6.99 CZ 8.22
A ARG H 86 -61.2 -40.9 N 5.71 CA 6.6 C 5.25 O 4.08 CB 5.34 CG 7.33 CD 10.3 NE 18.62 CZ 18.24 NH1 18.28 NH2 21.25
A ALA H 7 -67.9 -33.3 N 4.1 CA 5.69 C 5.41 O 5.96 CB 4.64
A LEU H 0 -75.0 -37.0 N 5.34 CA 4.15 C 4.33 O 3.82 CB 4.55 CG 5.98 CD1 5.51 CD2 5.99
A ILE H 0 -65.8 -40.6 N 3.9 CA 4.47 C 4.69 O 5.78 CB 3.68 CG1 6.08 CG2 4.12 CD1 9.57
A ALA H 4 -60.7 -42.2 N 5.36 CA 5.36 C 5.73 O 4.94 CB 7.43
A ALA H 0 -57.5 -43.8 N 4.8 CA 5.28 C 5.54 O 6.62 CB 5.14
A SER H 12 -62.4 -28.0 N 5.76 CA 4.73 C 6.05 O 6.22 CB 5.19 OG 7.43
A LEU H 37 -83.8 -21.4 N 6.25 CA 5.33 C 5.35 O 8.02 CB 4.34 CG 4.41 CD1 7.52 CD2 7.19
A CYS H 44 -104.2 -14.6 N 6.01 CA 6.68 C 5.6 O 6.61 CB 5.85 SG 18.3
A ASN - 42 -147.9 122.6 N 5.21 CA 5.0 C 5.92 O 3.83 CB 5.5 CG 5.02 OD1 5.15 ND2 5.79
A GLU H 182 -65.8 -32.0 N 4.74 CA 7.95 C 6.56 O 6.61 CB 7.98 CG 13.45 CD 13.6 OE1 21.03 OE2 20.76
A GLN H 107 -64.9 -45.3 N 6.65 CA 5.0 C 5.41 O 5.36 CB 6.51 CG 8.0 CD 6.77 OE1 5.53 NE2 6.47
A ALA H 0 -67.7 -37.0 N 4.95 CA 3.89 C 4.57 O 4.81 CB 2.3
A ALA H 16 -59.5 -46.2 N 3.35 CA 4.61 C 4.78 O 4.41 CB 4.11
A GLU H 96 -63.2 -40.2 N 4.48 CA 4.1 C 4.05 O 4.05 CB 4.9 CG 8.84 CD 17.15 OE1 19.77 OE2 20.67
A ALA H 8 -70.0 -37.6 N 3.88 CA 3.34 C 4.21 O 4.23 CB 3.46
A LEU H 0 -62.4 -47.8 N 3.94 CA 3.16 C 4.38 O 4.4 CB 2.59 CG 2.98 CD1 2.39 CD2 6.13
A HIS H 52 -62.7 -32.9 N 3.67 CA 3.86 C 4.07 O 3.79 CB 3.88 CG 4.42 ND1 5.83 CD2 2.0 CE1 3.87 NE2 6.25
A ARG H 140 -69.2 -37.8 N 4.2 CA 5.18 C 4.29 O 3.79 CB 5.11 CG 7.96 CD 8.65 NE 14.3 CZ 16.47 NH1 16.55 NH2 18.78
A PHE H 10 -60.4 -49.0 N 4.33 CA 5.45 C 5.98 O 6.24 CB 5.49 CG 7.28 CD1 7.81 CD2 7.5 CE1 6.5 CE2 10.23 CZ 8.08
A TYR H 2 -67.6 -33.9 N 4.35 CA 5.52 C 5.72 O 6.49 CB 4.21 CG 4.92 CD1 6.21 CD2 2.96 CE1 4.83 CE2 4.69 CZ 3.83 OH 5.03
A ALA H 40 -59.6 -44.1 N 6.07 CA 6.08 C 7.58 O 7.94 CB 6.87
A VAL H 60 -63.0 -45.3 N 6.7 CA 6.45 C 6.28 O 6.66 CB 5.56 CG1 7.89 CG2 6.73
A ARG H 35 -67.4 -45.0 N 6.43 CA 7.79 C 7.37 O 7.35 CB 7.18 CG 11.79 CD 9.96 NE 11.99 CZ 13.88 NH1 10.62 NH2 10.91
A VAL H 3 -64.9 -42.8 N 6.82 CA 5.36 C 5.33 O 5.47 CB 5.37 CG1 4.38 CG2 4.39
A ASP H 87 -65.5 -34.6 N 4.26 CA 5.28 C 5.31 O 6.23 CB 6.1 CG 8.96 OD1 11.7 OD2 12.54
A GLU H 74 -66.2 -46.4 N 4.25 CA 3.87 C 5.32 O 5.41 CB 4.65 CG 3.45 CD 6.91 OE1 5.1 OE2 4.12
A TRP H 6 -74.5 -22.6 N 4.49 CA 4.8 C 5.37 O 5.55 CB 5.05 CG 5.46 CD1 6.65 CD2 5.54 NE1 7.4 CE2 5.02 CE3 4.08 CZ2 4.34 CZ3 3.91 CH2 5.19
A ALA H 1 -55.1 -24.1 N 6.24 CA 6.78 C 8.15 O 8.77 CB 9.65
A GLY H 11 -53.4 -34.1 N 7.36 CA 8.1 C 9.02 O 9.45
A CYS H 0 -63.6 -37.5 N 8.88 CA 9.96 C 9.62 O 9.78 CB 10.31 SG 10.75
A VAL H 0 -77.0 -37.6 N 9.54 CA 10.19 C 10.26 O 10.87 CB 10.62 CG1 10.66 CG2 11.07
A ARG H 133 -63.1 -35.3 N 10.26 CA 10.28 C 10.37 O 10.68 CB 10.32 CG 10.31 CD 10.31 NE 10.87 CZ 10.16 NH1 8.17 NH2 9.9
A ASP H 50 -67.7 -38.1 N 9.71 CA 10.64 C 11.0 O 11.52 CB 10.54 CG 12.66 OD1 10.29 OD2 14.3
A ALA H 0 -68.3 -37.4 N 11.03 CA 10.09 C 10.83 O 11.09 CB 9.53
A VAL H 34 -61.1 -47.8 N 10.4 CA 10.79 C 10.96 O 11.84 CB 10.13 CG1 12.19 CG2 10.73
A ALA H 90 -61.2 -32.6 N 10.84 CA 10.98 C 11.34 O 11.67 CB 11.26
A ARG T 95 -86.7 -3.7 N 12.2 CA 12.87 C 13.25 O 13.85 CB 13.93 CG 13.32 CD 16.16 NE 14.3 CZ 15.43 NH1 13.68 NH2 12.32
A GLY T 62 79.1 18.6 N 12.8 CA 12.37 C 13.07 O 11.98
A GLU S 55 -76.1 -31.6 N 12.69 CA 13.56 C 13.31 O 12.59 CB 14.09 CG 16.11 CD 11.81 OE1 11.48 OE2 14.56
A VAL S 6 -129.4 156.2 N 12.86 CA 12.87 C 12.54 O 12.75 CB 13.47 CG1 14.15 CG2 11.14
A PRO - 48 -65.0 148.6 N 12.08 CA 12.4 C 12.4 O 12.41 CB 11.84 CG 11.73 CD 11.56
A ASP T 127 -51.7 142.2 N 12.28 CA 13.02 C 12.66 O 13.83 CB 13.27 CG 15.65 OD1 21.38 OD2 17.69
A GLY T 41 88.7 -3.6 N 11.82 CA 10.04 C 9.4 O 8.04
A THR B 9 -60.4 127.6 N 9.91 CA 9.67 C 10.09 O 10.92 CB 9.82 OG1 10.17 CG2 9.23
A ASP - 60 -80.7 112.3 N 9.85 CA 10.41 C 10.05 O 10.2 CB 10.92 CG 13.48 OD1 20.36 OD2 15.69
A PRO H 20 -61.7 -41.1 N 9.32 CA 9.29 C 9.65 O 11.17 CB 8.96 CG 8.72 CD 8.84
A HIS H 45 -55.0 -48.5 N 9.58 CA 10.18 C 10.23 O 9.22 CB 11.73 CG 15.15 ND1 19.07 CD2 16.19 CE1 15.42 NE2 17.25
A GLY H 12 -62.0 -43.7 N 10.05 CA 8.6 C 8.39 O 8.41
A VAL H 0 -62.7 -45.0 N 8.05 CA 8.39 C 7.2 O 7.25 CB 8.67 CG1 8.9 CG2 8.92
A VAL H 1 -71.7 -45.2 N 6.45 CA 6.62 C 6.36 O 7.54 CB 6.67 CG1 7.02 CG2 7.53
A ALA H 12 -55.6 -36.8 N 5.58 CA 5.5 C 6.32 O 6.45 CB 5.39
A ALA H 19 -64.5 -26.1 N 6.27 CA 6.79 C 6.04 O 6.58 CB 5.78
A VAL H 0 -70.4 -48.4 N 5.98 CA 5.7 C 6.11 O 7.6 CB 5.33 CG1 6.24 CG2 6.85
A SER H 3 -73.4 -29.0 N 6.29 CA 5.83 C 5.61 O 5.4 CB 6.38 OG 7.56
A ALA H 0 -55.2 -49.8 N 5.0 CA 5.53 C 5.01 O 5.33 CB 6.62
A PRO H 34 -68.4 -17.6 N 4.95 CA 5.48 C 5.47 O 6.37 CB 5.94 CG 6.8 CD 6.9
A LEU H 2 -74.7 -47.5 N 5.39 CA 6.37 C 6.3 O 6.33 CB 5.81 CG 5.4 CD1 4.97 CD2 2.21
A TYR H 11 -63.5 -35.9 N 7.25 CA 6.88 C 6.45 O 7.5 CB 6.96 CG 7.13 CD1 6.35 CD2 8.3 CE1 4.87 CE2 6.14 CZ 7.71 OH 7.7
A TYR H 5 -68.9 -34.3 N 4.91 CA 4.81 C 6.03 O 4.9 CB 5.0 CG 5.25 CD1 4.08 CD2 4.31 CE1 7.06 CE2 4.89 CZ 5.31 OH 7.63
A ALA I 1 -62.5 -46.0 N 6.0 CA 9.94 C 10.8 O 11.79 CB 9.38
A LEU I 14 -59.0 -46.0 N 12.58 CA 13.36 C 13.13 O 14.46 CB 13.28 CG 14.02 CD1 10.63 CD2 14.86
A LEU I 2 -105.1 -29.9 N 11.59 CA 11.7 C 12.11 O 13.23 CB 12.47 CG 12.48 CD1 15.93 CD2 14.09
A ASN I 1 -106.7 -56.3 N 9.32 CA 7.7 C 6.56 O 4.31 CB 6.89 CG 6.58 OD1 6.72 ND2 6.94
A THR I 21 -79.0 -29.8 N 7.18 CA 7.44 C 6.89 O 6.02 CB 8.89 OG1 11.11 CG2 10.16
A GLY - 36 78.1 16.9 N 5.97 CA 7.06 C 9.0 O 11.56
A ARG - 96 -81.2 146.4 N 9.29 CA 10.81 C 11.27 O 11.04 CB 11.6 CG 16.93 CD 22.39 NE 23.21 CZ 25.67 NH1 25.15 NH2 28.02
A SER - 95 -70.5 145.4 N 9.43 CA 9.36 C 8.44 O 9.12 CB 9.36 OG 14.53
A LEU - 11 -98.0 141.2 N 6.77 CA 5.94 C 5.39 O 6.76 CB 5.46 CG 7.6 CD1 11.41 CD2 10.82
A THR - 66 -122.1 167.5 N 6.55 CA 6.95 C 7.34 O 6.99 CB 8.58 OG1 10.96 CG2 10.21
A GLU H 115 -57.3 -36.8 N 7.06 CA 7.03 C 6.95 O 6.92 CB 7.91 CG 9.86 CD 13.09 OE1 13.98 OE2 15.07
A ALA H 44 -63.2 -35.9 N 7.76 CA 7.6 C 7.14 O 7.18 CB 7.06
A ASP H 15 -61.5 -42.7 N 6.97 CA 7.54 C 7.36 O 6.47 CB 8.53 CG 9.73 OD1 12.39 OD2 12.35
A ALA H 0 -60.9 -45.9 N 6.38 CA 6.4 C 7.58 O 7.93 CB 5.89
A ASP H 44 -65.5 -42.2 N 6.99 CA 7.49 C 7.46 O 7.81 CB 7.28 CG 10.17 OD1 11.36 OD2 9.52
A ARG H 79 -64.7 -39.6 N 6.77 CA 6.85 C 6.73 O 6.86 CB 7.32 CG 9.35 CD 9.49 NE 14.29 CZ 15.75 NH1 14.86 NH2 17.07
A ALA H 7 -59.3 -45.1 N 6.12 CA 6.32 C 6.9 O 7.63 CB 6.81
A ALA H 0 -66.3 -39.3 N 6.86 CA 7.12 C 7.61 O 8.9 CB 7.67
A ARG H 99 -71.0 -39.0 N 8.22 CA 9.06 C 9.19 O 9.68 CB 9.91 CG 11.19 CD 11.34 NE 18.74 CZ 18.95 NH1 19.43 NH2 20.05
A ALA H 15 -63.1 -47.9 N 8.71 CA 8.27 C 7.88 O 8.19 CB 7.97
A ALA H 3 -67.0 -38.0 N 7.69 CA 7.6 C 8.71 O 8.8 CB 7.92
A SER H 0 -66.1 -41.2 N 8.87 CA 10.21 C 9.12 O 8.97 CB 10.32 OG 15.41
A THR H 21 -65.0 -46.5 N 10.0 CA 9.02 C 8.97 O 7.91 CB 10.09 OG1 10.83 CG2 9.43
A ALA H 1 -64.2 -37.3 N 8.04 CA 8.03 C 8.53 O 8.0 CB 6.8
A ALA H 0 -67.9 -46.4 N 8.58 CA 8.85 C 9.62 O 10.19 CB 8.67
A ARG H 99 -57.8 -33.0 N 8.89 CA 9.16 C 9.39 O 9.62 CB 7.88 CG 11.25 CD 10.88 NE 17.13 CZ 17.31 NH1 17.2 NH2 15.12
A ALA T 50 -81.0 -2.5 N 9.82 CA 10.51 C 11.11 O 11.76 CB 10.02
A GLY T 12 86.1 18.6 N 11.14 CA 11.12 C 10.82 O 10.82
A VAL T 4 -62.0 -32.6 N 10.34 CA 9.52 C 8.66 O 8.15 CB 9.77 CG1 10.7 CG2 8.68
A TRP T 24 -101.1 18.0 N 9.53 CA 8.46 C 8.44 O 8.1 CB 9.98 CG 9.63 CD1 10.02 CD2 10.65 NE1 11.9 CE2 10.27 CE3 10.12 CZ2 10.73 CZ3 11.72 CH2 10.86
A VAL B 50 -72.6 123.0 N 9.5 CA 10.66 C 12.36 O 12.31 CB 10.13 CG1 9.62 CG2 10.05
A THR - 99 -73.1 113.1 N 14.51 CA 16.63 C 17.57 O 18.22 CB 16.56 OG1 19.2 CG2 16.7
A GLY - 121 100.2 360.0 N 18.79 CA 19.52 C 20.07 O 20.98
B GLY - 85 360.0 178.9 N 22.7 CA 22.48 C 23.26 O 21.8
B ARG H 174 -55.2 -62.4 N 23.43 CA 23.99 C 23.83 O 24.09 CB 24.71 CG 26.37 CD 30.31 NE 32.6 CZ 33.36 NH1 34.38 NH2 34.4
B THR H 73 -71.0 -26.2 N 23.14 CA 21.97 C 20.9 O 21.24 CB 22.33 OG1 23.75 CG2 21.38
B ALA H 55 -64.2 -45.4 N 19.19 CA 17.95 C 16.62 O 15.79 CB 18.25
B ARG H 195 -71.0 -29.6 N 16.54 CA 15.15 C 14.67 O 14.66 CB 14.51 CG 15.47 CD 17.27 NE 19.04 CZ 19.25 NH1 20.3 NH2 17.93
B ILE H 29 -65.6 -45.9 N 13.35 CA 12.33 C 12.88 O 13.03 CB 12.07 CG1 10.48 CG2 12.88 CD1 11.17
B ARG H 57 -57.6 -47.0 N 13.02 CA 12.42 C 14.12 O 15.09 CB 13.11 CG 11.8 CD 10.69 NE 11.99 CZ 13.95 NH1 13.48 NH2 12.7
B GLU H 138 -52.9 -45.8 N 13.24 CA 13.07 C 11.34 O 10.34 CB 13.36 CG 18.38 CD 26.04 OE1 27.62 OE2 28.68
B ALA H 40 -68.6 -38.2 N 10.2 CA 10.01 C 9.42 O 10.18 CB 9.53
B VAL H 0 -71.2 -39.5 N 7.48 CA 7.01 C 7.51 O 8.21 CB 6.27 CG1 8.56 CG2 8.66
B LEU H 5 -69.8 -38.1 N 7.11 CA 8.75 C 9.09 O 8.72 CB 9.07 CG 10.43 CD1 10.34 CD2 10.62
B LEU H 105 -59.2 -48.4 N 8.78 CA 8.97 C 9.55 O 9.29 CB 10.67 CG 12.48 CD1 15.93 CD2 12.7
B ALA H 12 -58.7 -38.0 N 8.55 CA 8.41 C 9.01 O 8.68 CB 8.8
B ALA H 0 -67.4 -42.2 N 9.01 CA 9.91 C 10.38 O 9.55 CB 9.96
B GLY H 0 -66.1 -43.0 N 9.93 CA 8.07 C 8.09 O 8.09
B ASP H 78 -58.6 -44.6 N 7.9 CA 8.34 C 8.57 O 8.94 CB 9.1 CG 12.55 OD1 13.11 OD2 15.32
B ALA H 6 -69.7 -41.6 N 7.48 CA 8.2 C 7.18 O 8.99 CB 7.98
B LEU H 2 -62.6 -44.9 N 7.91 CA 6.77 C 7.52 O 7.53 CB 6.92 CG 6.89 CD1 8.61 CD2 8.63
B ALA H 8 -59.6 -36.9 N 7.27 CA 6.6 C 7.92 O 8.22 CB 7.59
B ALA H 66 -75.5 -50.7 N 8.17 CA 8.21 C 9.16 O 9.48 CB 9.66
B ASP H 96 -126.3 -7.5 N 8.97 CA 9.84 C 9.96 O 10.76 CB 9.8 CG 11.14 OD1 10.38 OD2 10.78
B GLY - 17 87.9 173.2 N 9.99 CA 10.02 C 10.53 O 9.68
B PHE G 25 -68.4 -35.6 N 9.84 CA 9.59 C 10.81 O 10.87 CB 10.09 CG 9.51 CD1 10.27 CD2 9.1 CE1 10.27 CE2 11.79 CZ 9.63
B ASP G 117 -57.0 -28.6 N 9.51 CA 11.51 C 12.52 O 13.19 CB 11.26 CG 16.78 OD1 18.15 OD2 23.96
B ALA G 43 -92.6 -10.3 N 10.54 CA 11.21 C 11.93 O 13.35 CB 11.01
B LEU - 11 -70.2 126.5 N 11.99 CA 10.19 C 10.37 O 10.15 CB 11.29 CG 10.52 CD1 10.85 CD2 8.02
B ASP - 89 -139.4 132.6 N 10.14 CA 10.63 C 10.9 O 10.97 CB 10.96 CG 12.84 OD1 14.8 OD2 12.18
B LEU H 16 -72.7 -33.9 N 11.29 CA 11.59 C 11.76 O 12.51 CB 11.81 CG 14.53 CD1 11.15 CD2 13.7
B GLY H 17 -65.7 -34.8 N 11.24 CA 11.84 C 11.08 O 11.88
B GLU H 45 -72.7 -40.2 N 11.98 CA 10.74 C 10.94 O 11.07 CB 12.95 CG 12.54 CD 15.96 OE1 15.4 OE2 15.61
B ILE H 0 -61.6 -39.8 N 9.48 CA 9.7 C 9.13 O 9.48 CB 8.01 CG1 11.88 CG2 9.17 CD1 13.64
B ALA H 2 -55.8 -48.1 N 9.91 CA 11.19 C 10.76 O 11.7 CB 11.44
B ARG H 176 -62.9 -46.2 N 11.06 CA 11.58 C 11.65 O 12.11 CB 10.83 CG 13.43 CD 11.83 NE 12.02 CZ 12.01 NH1 11.78 NH2 12.63
B ARG H 123 -65.6 -41.4 N 13.39 CA 13.3 C 13.52 O 12.65 CB 11.96 CG 14.96 CD 16.75 NE 17.91 CZ 20.54 NH1 22.08 NH2 20.96
B ALA H 27 -76.5 -14.9 N 13.2 CA 13.53 C 14.33 O 14.92 CB 12.93
B GLY T 67 81.7 27.5 N 14.82 CA 14.51 C 15.22 O 15.15
B VAL - 29 -121.2 163.2 N 15.28 CA 17.16 C 17.6 O 18.0 CB 18.41 CG1 19.08 CG2 18.85
B GLY - 42 -66.8 137.8 N 17.73 CA 17.18 C 16.77 O 16.9
B LYS H 152 -53.4 -41.9 N 16.28 CA 16.94 C 16.25 O 15.19 CB 16.82 CG 19.38 CD 18.9 CE 19.78 NZ 21.28
B THR H 100 -62.8 -40.9 N 16.44 CA 16.79 C 16.23 O 17.05 CB 16.52 OG1 18.64 CG2 18.47
B THR H 22 -60.2 -45.0 N 15.47 CA 14.83 C 13.82 O 14.15 CB 14.62 OG1 15.85 CG2 15.23
B VAL H 0 -66.4 -45.8 N 12.87 CA 11.64 C 11.93 O 9.58 CB 12.44 CG1 10.79 CG2 13.11
B TYR H 165 -62.2 -41.4 N 10.76 CA 11.15 C 11.58 O 12.62 CB 9.77 CG 8.9 CD1 8.79 CD2 9.56 CE1 7.02 CE2 8.66 CZ 7.93 OH 4.45
B ARG H 161 -62.0 -41.5 N 12.55 CA 13.54 C 13.34 O 13.45 CB 13.28 CG 15.46 CD 15.69 NE 20.92 CZ 22.97 NH1 23.13 NH2 23.48
B ARG H 91 -86.5 -40.3 N 12.81 CA 13.03 C 12.2 O 12.04 CB 12.55 CG 15.42 CD 15.8 NE 19.73 CZ 20.45 NH1 16.18 NH2 19.05
B TRP H 17 -108.2 -22.2 N 10.76 CA 10.92 C 10.68 O 11.8 CB 9.78 CG 10.23 CD1 9.3 CD2 11.17 NE1 10.0 CE2 8.96 CE3 8.45 CZ2 9.99 CZ3 9.22 CH2 9.44
B GLY - 26 79.8 -59.6 N 10.89 CA 9.94 C 9.7 O 10.54
B THR S 58 -144.0 166.3 N 6.16 CA 4.58 C 4.26 O 4.03 CB 5.13 OG1 5.42 CG2 2.0
B PRO H 42 -54.1 -37.7 N 2.79 CA 3.61 C 4.1 O 4.04 CB 4.4 CG 3.92 CD 4.66
B GLY H 1 -67.6 -33.8 N 4.19 CA 4.93 C 4.8 O 5.0
B GLY H 4 -68.1 -35.8 N 4.27 CA 3.65 C 4.57 O 4.38
B LEU H 0 -66.7 -44.6 N 3.76 CA 2.93 C 3.15 O 3.64 CB 3.6 CG 4.95 CD1 4.48 CD2 5.06
B ALA H 0 -64.1 -37.7 N 3.43 CA 4.56 C 3.51 O 3.88 CB 4.85
B ALA H 10 -60.1 -42.1 N 3.78 CA 2.42 C 3.69 O 5.35 CB 3.77
B ASP H 36 -75.4 -32.8 N 3.35 CA 3.47 C 4.15 O 3.69 CB 3.21 CG 4.92 OD1 5.49 OD2 2.45
B LEU H 12 -58.6 -43.3 N 4.03 CA 3.12 C 3.35 O 3.61 CB 5.09 CG 2.79 CD1 6.55 CD2 5.33
B LEU H 1 -66.8 -32.8 N 2.44 CA 2.38 C 3.09 O 3.05 CB 2.0 CG 2.71 CD1 3.6 CD2 3.82
B ALA H 45 -62.5 -46.8 N 2.55 CA 3.44 C 4.83 O 4.14 CB 4.95
B ASP H 45 -62.6 -44.4 N 3.42 CA 4.61 C 4.9 O 6.02 CB 5.14 CG 7.69 OD1 9.09 OD2 11.89
B ALA H 12 -66.8 -44.5 N 6.43 CA 5.57 C 6.82 O 8.75 CB 5.21
B GLU H 148 -61.9 -29.5 N 7.28 CA 8.65 C 9.14 O 9.06 CB 9.31 CG 13.72 CD 17.38 OE1 22.46 OE2 24.59
B GLN H 129 -97.4 0.7 N 9.73 CA 10.86 C 10.0 O 10.5 CB 11.42 CG 16.39 CD 22.83 OE1 25.78 NE2 26.35
B SER - 38 -57.5 139.3 N 9.16 CA 8.87 C 9.41 O 8.43 CB 9.81 OG 13.31
B LEU - 119 -87.3 156.7 N 7.73 CA 7.61 C 7.96 O 8.05 CB 7.81 CG 9.9 CD1 11.71 CD2 14.5
B PRO - 101 -66.4 156.6 N 7.01 CA 7.18 C 6.12 O 6.71 CB 6.68 CG 8.22 CD 6.3
B ARG - 58 -65.4 158.1 N 6.08 CA 5.73 C 6.14 O 8.55 CB 4.36 CG 3.25 CD 4.22 NE 5.23 CZ 7.36 NH1 7.9 NH2 5.53
B ALA - 22 -68.9 157.8 N 6.37 CA 6.93 C 7.68 O 8.46 CB 6.59
B ASP - 100 -149.8 77.4 N 7.05 CA 7.82 C 7.2 O 8.94 CB 8.44 CG 11.32 OD1 9.91 OD2 20.7
B THR - 81 -93.4 -15.0 N 7.28 CA 8.42 C 8.72 O 8.81 CB 9.34 OG1 10.62 CG2 11.32
B GLY S 40 99.5 -2.0 N 8.72 CA 9.17 C 9.54 O 10.35
B ALA S 19 -145.3 135.4 N 8.76 CA 8.4 C 8.21 O 8.85 CB 9.44
B LEU H 0 -60.1 -50.3 N 8.19 CA 7.75 C 8.15 O 8.4 CB 8.34 CG 8.49 CD1 9.9 CD2 14.23
B GLU H 30 -62.3 -40.9 N 7.57 CA 7.34 C 7.15 O 7.83 CB 7.4 CG 9.12 CD 8.46 OE1 11.77 OE2 8.5
B GLU H 93 -63.8 -37.9 N 6.22 CA 6.23 C 5.75 O 6.2 CB 6.57 CG 10.53 CD 16.9 OE1 18.15 OE2 18.54
B ASP H 0 -64.8 -48.3 N 5.62 CA 4.95 C 6.3 O 6.3 CB 5.69 CG 5.11 OD1 7.79 OD2 7.74
B LEU H 0 -67.1 -31.7 N 6.17 CA 6.75 C 6.79 O 5.61 CB 6.85 CG 6.9 CD1 5.41 CD2 8.85
B ARG H 66 -65.5 -39.9 N 5.49 CA 6.89 C 6.59 O 5.38 CB 5.33 CG 6.01 CD 9.48 NE 17.34 CZ 21.4 NH1 24.46 NH2 25.31
B ALA H 38 -59.7 -42.5 N 7.14 CA 7.48 C 6.96 O 7.34 CB 8.07
B ASN H 0 -60.6 -56.2 N 7.31 CA 6.79 C 7.53 O 7.42 CB 6.16 CG 9.88 OD1 9.28 ND2 9.78
B ALA H 0 -60.1 -40.7 N 7.64 CA 7.6 C 8.39 O 7.8 CB 6.46
B ARG H 74 -66.5 -33.1 N 7.18 CA 7.1 C 6.99 O 6.85 CB 6.6 CG 6.51 CD 5.99 NE 8.42 CZ 10.38 NH1 11.12 NH2 10.56
B LEU H 54 -71.5 -39.1 N 6.71 CA 7.43 C 7.65 O 7.08 CB 6.99 CG 12.03 CD1 14.94 CD2 13.83
B VAL H 6 -64.0 -44.1 N 6.81 CA 7.11 C 7.19 O 8.42 CB 6.24 CG1 9.07 CG2 8.48
B VAL H 9 -62.4 -42.9 N 6.19 CA 6.63 C 7.29 O 6.8 CB 5.81 CG1 8.12 CG2 8.61
B ARG H 149 -61.5 -37.7 N 7.98 CA 7.69 C 8.65 O 8.76 CB 7.36 CG 9.99 CD 9.65 NE 11.92 CZ 15.26 NH1 17.46 NH2 19.62
B THR H 41 -65.0 -53.4 N 8.12 CA 8.48 C 8.94 O 9.01 CB 8.48 OG1 9.68 CG2 6.62
B LEU H 6 -70.9 -23.8 N 8.33 CA 8.57 C 8.87 O 8.03 CB 7.84 CG 9.2 CD1 7.59 CD2 9.27
B ASP H 93 -87.8 -14.7 N 9.43 CA 9.46 C 10.08 O 10.02 CB 10.44 CG 13.43 OD1 13.07 OD2 11.2
B ASP S 65 -59.6 129.0 N 9.17 CA 9.89 C 9.83 O 8.6 CB 10.06 CG 11.4 OD1 12.97 OD2 11.09
B PRO H 83 -51.4 -54.1 N 9.63 CA 10.63 C 10.89 O 12.8 CB 10.23 CG 10.07 CD 9.35
B ARG H 73 -65.8 -53.8 N 10.66 CA 10.81 C 9.91 O 8.89 CB 11.32 CG 11.06 CD 12.89 NE 13.61 CZ 13.82 NH1 12.57 NH2 11.88
B GLN H 56 -66.7 -37.1 N 8.83 CA 9.06 C 7.74 O 8.73 CB 7.94 CG 13.61 CD 20.34 OE1 22.68 NE2 19.9
B GLY H 0 -63.7 -39.3 N 7.26 CA 6.25 C 7.31 O 6.4
B ARG H 123 -69.5 -38.2 N 7.02 CA 5.93 C 6.23 O 7.45 CB 5.23 CG 7.96 CD 8.14 NE 17.43 CZ 18.48 NH1 19.96 NH2 19.0
B LEU H 4 -61.4 -46.1 N 7.14 CA 6.36 C 6.27 O 6.86 CB 7.96 CG 6.93 CD1 6.1 CD2 6.53
B PHE H 12 -65.5 -39.4 N 6.24 CA 6.36 C 5.4 O 7.09 CB 6.99 CG 6.52 CD1 5.05 CD2 8.65 CE1 6.63 CE2 8.28 CZ 7.47
B ARG H 91 -58.7 -40.4 N 3.15 CA 3.2 C 4.25 O 3.57 CB 2.23 CG 3.51 CD 8.05 NE 11.71 CZ 12.19 NH1 15.05 NH2 11.86
B ALA H 8 -69.3 -34.0 N 3.84 CA 5.57 C 5.08 O 4.93 CB 4.23
B LEU H 0 -75.1 -35.9 N 3.68 CA 4.05 C 4.63 O 4.78 CB 4.61 CG 4.6 CD1 3.95 CD2 5.7
B ILE H 0 -67.1 -39.6 N 4.9 CA 4.77 C 5.61 O 5.62 CB 4.68 CG1 4.58 CG2 4.92 CD1 6.44
B ALA H 2 -59.8 -44.7 N 5.65 CA 6.08 C 5.05 O 7.06 CB 5.57
B ALA H 0 -54.0 -45.2 N 5.21 CA 4.84 C 5.92 O 4.43 CB 6.57
B SER H 11 -63.8 -27.8 N 5.01 CA 5.02 C 4.26 O 4.93 CB 4.71 OG 8.41
B LEU H 42 -84.6 -18.7 N 4.76 CA 4.42 C 5.12 O 4.22 CB 4.44 CG 6.46 CD1 6.28 CD2 6.54
B CYS H 42 -100.5 -17.8 N 4.81 CA 5.76 C 3.97 O 5.73 CB 3.09 SG 17.07
B ASN - 43 -150.8 124.7 N 4.04 CA 2.99 C 4.22 O 3.69 CB 3.82 CG 3.9 OD1 6.56 ND2 4.44
B GLU H 178 -69.5 -35.4 N 3.1 CA 3.32 C 4.04 O 2.98 CB 3.84 CG 6.07 CD 7.85 OE1 6.96 OE2 10.7
B GLN H 104 -60.0 -46.6 N 3.48 CA 4.37 C 4.79 O 4.56 CB 6.17 CG 5.51 CD 6.19 OE1 5.19 NE2 7.9
B ALA H 0 -64.3 -38.7 N 4.57 CA 4.73 C 4.3 O 6.12 CB 4.08
B ALA H 17 -59.0 -45.7 N 3.66 CA 4.04 C 5.05 O 5.03 CB 2.11
B GLU H 125 -59.9 -43.7 N 4.47 CA 6.1 C 3.58 O 4.36 CB 6.25 CG 11.79 CD 12.73 OE1 23.43 OE2 23.53
B ALA H 15 -69.6 -37.2 N 2.39 CA 2.0 C 2.49 O 2.36 CB 2.44
B LEU H 0 -63.4 -46.1 N 2.0 CA 2.79 C 2.0 O 2.05 CB 2.69 CG 4.22 CD1 5.84 CD2 6.51
B HIS H 51 -61.6 -35.9 N 3.03 CA 2.71 C 2.95 O 3.63 CB 2.01 CG 2.7 ND1 5.81 CD2 2.0 CE1 5.15 NE2 9.26
B ARG H 148 -67.1 -37.6 N 2.49 CA 3.61 C 2.49 O 2.0 CB 2.66 CG 7.38 CD 10.53 NE 16.74 CZ 22.83 NH1 24.38 NH2 25.16
B PHE H 11 -59.8 -48.6 N 4.51 CA 4.02 C 5.42 O 4.33 CB 4.25 CG 5.45 CD1 5.84 CD2 6.45 CE1 6.09 CE2 7.81 CZ 7.11
B TYR H 1 -69.0 -34.7 N 5.0 CA 5.26 C 6.06 O 5.61 CB 5.77 CG 4.09 CD1 5.11 CD2 3.08 CE1 3.14 CE2 5.33 CZ 4.66 OH 6.09
B ALA H 37 -57.5 -46.6 N 5.1 CA 6.38 C 6.39 O 6.64 CB 5.25
B VAL H 59 -61.7 -46.8 N 4.25 CA 4.38 C 4.35 O 4.93 CB 4.02 CG1 7.25 CG2 6.74
B ARG H 24 -64.4 -45.5 N 4.32 CA 4.66 C 5.49 O 6.63 CB 5.43 CG 8.05 CD 9.9 NE 9.85 CZ 9.7 NH1 8.0 NH2 10.39
B VAL H 1 -64.6 -44.0 N 5.04 CA 3.68 C 5.09 O 4.81 CB 4.09 CG1 4.91 CG2 6.62
B ASP H 90 -64.0 -30.6 N 4.86 CA 5.71 C 4.22 O 6.33 CB 4.49 CG 15.64 OD1 21.5 OD2 22.16
B GLU H 71 -69.9 -50.2 N 4.24 CA 3.96 C 4.44 O 4.17 CB 3.35 CG 2.0 CD 4.5 OE1 3.58 OE2 4.69
B TRP H 9 -69.2 -20.6 N 3.19 CA 2.93 C 3.98 O 4.94 CB 3.92 CG 3.27 CD1 4.73 CD2 4.52 NE1 6.86 CE2 5.2 CE3 4.84 CZ2 3.91 CZ3 4.4 CH2 5.88
B ALA H 1 -60.1 -21.8 N 3.26 CA 3.56 C 4.16 O 4.12 CB 4.73
B GLY H 11 -59.5 -31.3 N 4.48 CA 3.98 C 5.02 O 5.4
B CYS H 0 -59.8 -39.8 N 4.73 CA 5.96 C 6.39 O 6.43 CB 4.73 SG 7.67
B VAL H 0 -74.7 -39.7 N 6.35 CA 7.06 C 8.34 O 9.05 CB 6.5 CG1 7.46 CG2 7.31
B ARG H 133 -58.4 -40.4 N 7.94 CA 7.94 C 9.01 O 7.74 CB 7.68 CG 9.64 CD 15.92 NE 21.54 CZ 22.74 NH1 24.68 NH2 23.89
B ASP H 49 -66.5 -37.2 N 8.37 CA 8.54 C 8.91 O 8.97 CB 8.5 CG 8.72 OD1 10.85 OD2 13.25
B ALA H 0 -65.7 -37.6 N 8.44 CA 8.32 C 8.62 O 7.98 CB 7.61
B VAL H 31 -67.4 -42.0 N 9.3 CA 9.73 C 10.45 O 9.58 CB 10.57 CG1 11.33 CG2 9.72
B ALA H 87 -62.2 -42.3 N 11.1 CA 11.1 C 11.85 O 11.73 CB 10.54
B ARG T 95 -76.0 -4.4 N 11.53 CA 11.59 C 11.41 O 11.74 CB 11.82 CG 11.71 CD 12.66 NE 13.54 CZ 10.75 NH1 10.38 NH2 10.94
B GLY T 61 83.1 15.7 N 10.97 CA 10.48 C 10.91 O 10.78
B GLU S 57 -78.8 -30.3 N 10.62 CA 11.02 C 10.84 O 10.48 CB 12.66 CG 14.82 CD 14.16 OE1 8.86 OE2 15.78
B VAL S 6 -130.3 155.6 N 11.14 CA 10.72 C 10.09 O 9.52 CB 11.54 CG1 10.55 CG2 10.63
B PRO - 48 -61.2 148.0 N 9.32 CA 10.08 C 10.16 O 9.86 CB 9.8 CG 10.5 CD 9.76
B ASP T 129 -56.7 144.2 N 11.37 CA 12.34 C 12.07 O 13.29 CB 12.92 CG 15.82 OD1 19.83 OD2 15.3
B GLY T 40 85.4 -2.0 N 12.06 CA 11.24 C 10.48 O 11.48
B THR B 7 -58.4 123.7 N 9.44 CA 9.16 C 10.06 O 10.46 CB 8.9 OG1 10.16 CG2 9.65
B ASP - 62 -70.5 113.9 N 9.35 CA 9.91 C 9.32 O 10.17 CB 10.69 CG 13.62 OD1 20.62 OD2 16.29
B PRO H 19 -65.4 -36.9 N 8.39 CA 8.41 C 9.13 O 9.61 CB 8.12 CG 8.33 CD 7.33
B HIS H 44 -58.2 -47.3 N 8.53 CA 9.18 C 9.24 O 9.74 CB 9.76 CG 12.71 ND1 15.76 CD2 14.6 CE1 13.43 NE2 17.47
B GLY H 11 -60.0 -43.2 N 9.43 CA 9.02 C 9.76 O 9.05
B VAL H 0 -63.2 -46.5 N 9.29 CA 8.06 C 8.23 O 8.59 CB 8.06 CG1 9.7 CG2 7.17
B VAL H 1 -68.4 -44.9 N 7.41 CA 6.85 C 6.92 O 8.13 CB 7.52 CG1 7.52 CG2 8.73
B ALA H 11 -56.7 -37.8 N 5.43 CA 5.19 C 7.48 O 7.1 CB 5.72
B ALA H 18 -64.2 -24.9 N 7.24 CA 6.72 C 6.8 O 7.42 CB 6.73
B VAL H 0 -73.0 -47.5 N 6.0 CA 6.26 C 6.85 O 6.92 CB 6.4 CG1 5.65 CG2 5.66
B SER H 3 -73.9 -31.6 N 6.82 CA 6.51 C 7.08 O 6.04 CB 6.7 OG 7.34
B ALA H 1 -49.4 -51.9 N 6.4 CA 7.55 C 4.99 O 6.08 CB 7.27
B PRO H 40 -68.9 -19.4 N 5.72 CA 5.35 C 4.78 O 5.92 CB 4.74 CG 5.45 CD 6.38
B LEU H 2 -69.9 -48.5 N 5.15 CA 5.81 C 6.36 O 7.13 CB 6.39 CG 5.5 CD1 6.51 CD2 7.05
B TYR H 12 -66.2 -33.7 N 6.31 CA 6.91 C 6.8 O 6.98 CB 6.17 CG 5.75 CD1 6.85 CD2 5.73 CE1 5.7 CE2 3.96 CZ 4.21 OH 4.84
B TYR I 6 -68.2 -39.6 N 5.0 CA 5.48 C 5.94 O 4.32 CB 5.63 CG 4.99 CD1 6.16 CD2 4.85 CE1 5.54 CE2 5.29 CZ 7.07 OH 8.17
B ALA I 2 -60.4 -45.3 N 7.58 CA 10.31 C 11.52 O 14.05 CB 8.8
B LEU I 8 -53.8 -60.3 N 13.36 CA 15.16 C 15.61 O 17.82 CB 14.94 CG 14.54 CD1 10.68 CD2 15.0
B LEU I 4 -96.8 -37.7 N 14.02 CA 12.78 C 11.51 O 11.87 CB 13.89 CG 17.5 CD1 18.99 CD2 20.7
B ASN I 1 -94.8 -55.1 N 8.45 CA 7.14 C 6.57 O 6.89 CB 5.96 CG 6.28 OD1 6.32 ND2 6.26
B THR I 20 -80.1 -31.8 N 6.12 CA 7.19 C 5.72 O 4.94 CB 8.19 OG1 12.35 CG2 6.6
B GLY - 36 81.0 23.7 N 5.68 CA 7.87 C 9.52 O 12.24
B ARG - 92 -86.8 154.5 N 10.18 CA 11.36 C 10.73 O 11.42 CB 11.17 CG 14.73 CD 14.28 NE 15.84 CZ 15.33 NH1 14.34 NH2 10.82
B SER - 96 -79.9 150.0 N 9.11 CA 8.6 C 7.75 O 7.71 CB 8.21 OG 14.63
B LEU - 13 -95.5 142.7 N 6.68 CA 5.79 C 5.57 O 5.53 CB 5.15 CG 7.93 CD1 11.72 CD2 9.4
B THR - 67 -123.4 166.3 N 6.27 CA 7.23 C 7.95 O 7.97 CB 7.43 OG1 9.05 CG2 9.3
B GLU H 103 -60.9 -32.7 N 7.35 CA 7.37 C 6.91 O 6.86 CB 9.09 CG 11.37 CD 14.92 OE1 14.92 OE2 16.76
B ALA H 45 -61.4 -35.3 N 7.25 CA 7.01 C 7.03 O 6.74 CB 7.05
B ASP H 17 -63.5 -42.1 N 7.39 CA 7.82 C 7.06 O 7.21 CB 8.33 CG 11.29 OD1 12.55 OD2 11.45
B ALA H 0 -62.3 -48.5 N 7.16 CA 7.22 C 7.5 O 7.88 CB 6.41
B ASP H 42 -58.4 -43.0 N 6.85 CA 7.52 C 7.48 O 7.7 CB 6.52 CG 9.52 OD1 9.78 OD2 7.32
B ARG H 83 -68.8 -36.0 N 7.22 CA 8.23 C 8.25 O 8.78 CB 7.22 CG 10.35 CD 9.97 NE 14.9 CZ 15.2 NH1 14.38 NH2 18.42
B ALA H 6 -61.7 -44.6 N 7.04 CA 6.46 C 7.31 O 8.79 CB 6.09
B ALA H 0 -69.2 -39.1 N 7.28 CA 7.01 C 7.41 O 8.64 CB 7.45
B ARG H 94 -68.4 -40.7 N 7.17 CA 7.33 C 7.66 O 8.35 CB 7.37 CG 9.54 CD 16.05 NE 17.8 CZ 16.95 NH1 16.41 NH2 19.3
B ALA H 17 -61.2 -49.2 N 7.63 CA 8.05 C 7.88 O 8.07 CB 6.51
B ALA H 4 -62.4 -43.4 N 7.21 CA 6.91 C 7.82 O 7.88 CB 6.88
B SER H 0 -60.7 -47.3 N 8.41 CA 9.13 C 9.26 O 9.16 CB 10.5 OG 13.65
B THR H 22 -58.2 -50.5 N 8.56 CA 8.42 C 8.55 O 8.89 CB 9.46 OG1 11.8 CG2 8.55
B ALA H 0 -64.1 -37.5 N 7.95 CA 8.43 C 8.88 O 8.66 CB 7.95
B ALA H 0 -66.4 -44.9 N 9.3 CA 9.22 C 10.37 O 11.05 CB 8.95
B ARG H 102 -57.3 -34.3 N 10.17 CA 10.09 C 10.35 O 10.81 CB 9.5 CG 10.59 CD 13.48 NE 14.75 CZ 15.51 NH1 13.97 NH2 13.98
B ALA T 49 -81.0 -5.2 N 10.28 CA 10.76 C 11.14 O 12.1 CB 10.92
B GLY T 9 88.1 20.9 N 10.45 CA 10.24 C 9.67 O 8.22
B VAL T 3 -60.7 -34.2 N 8.96 CA 9.63 C 8.62 O 9.07 CB 9.09 CG1 10.09 CG2 7.76
B TRP T 21 -102.2 20.7 N 8.74 CA 8.52 C 8.17 O 7.78 CB 10.16 CG 8.7 CD1 9.61 CD2 11.23 NE1 12.19 CE2 10.15 CE3 10.28 CZ2 9.87 CZ3 11.62 CH2 10.16
B VAL B 61 -70.5 121.7 N 9.72 CA 10.85 C 12.8 O 13.27 CB 10.04 CG1 8.72 CG2 9.29
B THR - 85 -76.9 138.8 N 14.66 CA 16.4 C 17.4 O 18.01 CB 16.45 OG1 18.67 CG2 15.23
B GLY - 128 66.3 360.0 N 18.48 CA 18.97 C 19.59 O 20.42
