D DG T 81 -124.2 16.3 O5' 85.93 C5' 84.35 C4' 82.57 O4' 79.21 C3' 83.99 O3' 87.68 C2' 81.35 C1' 78.67 N9 76.01 C8 75.02 N7 73.47 C5 73.26 C6 71.76 O6 69.94 N1 70.6 C2 70.89 N2 69.11 N3 71.77 C4 73.72
D DG - 8 -148.1 49.3 P 89.96 OP1 89.29 OP2 89.48 O5' 88.06 C5' 87.3 C4' 87.2 O4' 88.25 C3' 87.94 O3' 88.51 C2' 87.33 C1' 86.63 N9 85.62 C8 85.15 N7 84.51 C5 83.9 C6 82.57 O6 81.22 N1 82.19 C2 82.78 N2 81.5 N3 83.76 C4 84.55
D DC T 114 -53.5 -43.6 P 88.25 OP1 88.92 OP2 84.89 O5' 87.62 C5' 86.88 C4' 85.52 O4' 85.03 C3' 85.5 O3' 88.06 C2' 84.74 C1' 84.47 N1 83.69 C2 83.0 O2 81.86 N3 82.42 C4 82.6 N4 84.15 C5 82.05 C6 82.34
D DC T 94 -58.3 -2.3 P 89.53 OP1 87.75 OP2 88.07 O5' 87.91 C5' 85.28 C4' 84.4 O4' 83.96 C3' 84.66 O3' 84.68 C2' 84.51 C1' 84.5 N1 83.44 C2 83.13 O2 82.35 N3 83.8 C4 83.93 N4 84.54 C5 83.17 C6 83.48
D DA S 7 -127.0 125.1 P 84.51 OP1 84.7 OP2 84.24 O5' 82.09 C5' 81.94 C4' 81.62 O4' 81.41 C3' 81.66 O3' 82.51 C2' 80.47 C1' 79.2 N9 76.73 C8 75.46 N7 73.63 C5 73.01 C6 70.68 N6 68.09 N1 70.03 C2 72.33 N3 73.95 C4 74.87
D DA - 80 -56.0 136.6 P 83.2 OP1 81.05 OP2 81.03 O5' 80.16 C5' 78.59 C4' 77.2 O4' 76.24 C3' 76.64 O3' 78.28 C2' 74.82 C1' 73.26 N9 69.66 C8 68.03 N7 65.16 C5 65.36 C6 64.17 N6 61.25 N1 63.31 C2 64.15 N3 65.89 C4 67.07
D DA H 61 -50.8 -48.8 P 79.08 OP1 80.06 OP2 79.72 O5' 76.1 C5' 71.15 C4' 66.84 O4' 65.63 C3' 66.19 O3' 66.43 C2' 62.04 C1' 61.44 N9 57.92 C8 58.25 N7 57.21 C5 55.61 C6 54.51 N6 53.78 N1 54.25 C2 56.03 N3 56.33 C4 56.03
D DA H 123 -58.2 -27.2 P 67.95 OP1 67.12 OP2 63.96 O5' 64.74 C5' 59.53 C4' 56.19 O4' 54.63 C3' 55.79 O3' 54.11 C2' 53.52 C1' 51.95 N9 47.29 C8 44.3 N7 40.8 C5 42.45 C6 41.69 N6 43.13 N1 39.04 C2 37.35 N3 40.58 C4 44.38
D DA H 39 -80.0 -47.7 P 54.21 OP1 54.32 OP2 55.15 O5' 53.14 C5' 47.96 C4' 46.11 O4' 44.14 C3' 44.99 O3' 43.75 C2' 42.8 C1' 42.57 N9 41.18 C8 39.45 N7 37.74 C5 35.45 C6 35.65 N6 34.44 N1 35.79 C2 36.04 N3 35.85 C4 37.11
D DA H 0 -57.6 -24.5 P 46.74 OP1 44.57 OP2 41.08 O5' 44.4 C5' 43.62 C4' 42.85 O4' 42.47 C3' 43.16 O3' 45.03 C2' 40.99 C1' 42.18 N9 42.45 C8 42.6 N7 43.06 C5 42.51 C6 40.73 N6 38.95 N1 39.81 C2 42.27 N3 42.09 C4 42.41
D DG H 69 -85.2 -46.6 P 49.4 OP1 49.15 OP2 50.05 O5' 44.46 C5' 47.73 C4' 48.92 O4' 46.72 C3' 48.51 O3' 53.91 C2' 45.38 C1' 42.26 N9 39.87 C8 39.18 N7 40.99 C5 42.48 C6 41.52 O6 42.54 N1 43.1 C2 45.07 N2 47.21 N3 43.03 C4 40.96
D DC H 42 -59.3 -38.1 P 60.88 OP1 60.89 OP2 62.02 O5' 56.45 C5' 55.06 C4' 56.79 O4' 57.49 C3' 56.25 O3' 54.49 C2' 54.33 C1' 54.41 N1 52.4 C2 51.71 O2 50.88 N3 50.7 C4 49.72 N4 49.01 C5 48.48 C6 49.68
D DA H 0 -53.9 -59.8 P 53.58 OP1 55.61 OP2 54.63 O5' 51.16 C5' 47.43 C4' 47.26 O4' 46.76 C3' 48.21 O3' 46.83 C2' 49.7 C1' 48.56 N9 49.71 C8 50.98 N7 51.53 C5 50.97 C6 50.43 N6 47.37 N1 52.02 C2 51.51 N3 51.25 C4 50.3
D DT H 1 -50.5 -44.1 P 44.62 OP1 45.23 OP2 41.59 O5' 42.75 C5' 43.02 C4' 43.22 O4' 45.31 C3' 41.35 O3' 39.19 C2' 42.12 C1' 43.99 N1 47.48 C2 48.5 O2 48.29 N3 46.38 C4 47.22 O4 49.16 C5 47.52 C7 45.57 C6 47.41
D DT H 82 -64.4 -45.0 P 38.45 OP1 38.26 OP2 39.06 O5' 38.62 C5' 34.6 C4' 34.39 O4' 32.57 C3' 35.39 O3' 33.01 C2' 33.36 C1' 33.2 N1 32.1 C2 30.03 O2 28.12 N3 28.46 C4 30.98 O4 34.57 C5 29.12 C7 27.7 C6 28.93
