A THR - 45 -66.7 156.6 N 37.05 CA 33.69 C 32.8 O 30.55 CB 33.29 OG1 29.77 CG2 31.78
A LYS H 23 -53.3 -47.2 N 30.72 CA 29.95 C 29.65 O 28.37 CB 30.45 CG 30.4 CD 31.2 CE 31.68 NZ 30.05
A LYS H 74 -60.6 -38.7 N 29.17 CA 29.36 C 27.27 O 26.02 CB 30.47 CG 32.16 CD 33.49 CE 36.39 NZ 40.8
A GLU H 66 -66.0 -44.9 N 25.79 CA 26.69 C 25.56 O 24.17 CB 26.48 CG 28.43 CD 29.45 OE1 32.41 OE2 30.6
A ARG H 51 -58.8 -40.2 N 25.75 CA 25.2 C 23.9 O 22.88 CB 26.65 CG 29.18 CD 34.6 NE 35.16 CZ 38.99 NH1 40.61 NH2 39.72
A ILE H 37 -68.6 -36.3 N 21.86 CA 22.43 C 21.03 O 19.8 CB 22.08 CG1 23.95 CG2 22.42 CD1 24.38
A ALA H 11 -63.5 -44.6 N 19.79 CA 19.64 C 19.51 O 19.42 CB 18.44
A ILE H 49 -59.2 -46.8 N 19.36 CA 20.48 C 17.93 O 18.72 CB 20.64 CG1 24.24 CG2 21.73 CD1 23.11
A GLN H 0 -60.2 -41.5 N 17.11 CA 16.99 C 17.01 O 16.26 CB 16.06 CG 17.21 CD 17.61 OE1 17.75 NE2 17.47
A ARG H 55 -63.6 -40.2 N 17.71 CA 17.31 C 16.58 O 15.35 CB 17.92 CG 19.1 CD 22.18 NE 23.99 CZ 24.35 NH1 23.33 NH2 26.33
A SER H 14 -58.8 -48.8 N 17.08 CA 17.04 C 17.53 O 16.63 CB 17.27 OG 17.08
A ALA H 0 -63.4 -36.2 N 15.49 CA 15.17 C 15.09 O 15.41 CB 16.37
A GLU H 13 -60.3 -39.5 N 15.19 CA 15.55 C 15.92 O 15.64 CB 14.09 CG 16.46 CD 18.61 OE1 18.1 OE2 19.29
A GLU H 50 -68.8 -39.9 N 16.63 CA 17.5 C 16.26 O 16.2 CB 17.67 CG 20.75 CD 24.24 OE1 30.32 OE2 33.0
A ALA H 0 -60.4 -48.4 N 15.45 CA 15.48 C 15.5 O 14.97 CB 15.64
A LEU H 0 -59.3 -44.9 N 16.5 CA 15.47 C 16.03 O 15.97 CB 15.79 CG 16.68 CD1 16.36 CD2 17.95
A GLY H 3 -52.2 -41.5 N 14.62 CA 15.82 C 16.48 O 16.47
A LYS H 35 -73.2 -35.7 N 16.09 CA 16.4 C 16.8 O 16.31 CB 16.37 CG 18.37 CD 23.67 CE 26.67 NZ 28.05
A LEU H 4 -67.7 -41.1 N 16.44 CA 16.72 C 16.49 O 17.31 CB 16.61 CG 17.86 CD1 18.0 CD2 15.3
A LYS H 32 -63.9 -37.7 N 16.31 CA 15.96 C 16.31 O 16.64 CB 15.61 CG 17.7 CD 17.18 CE 18.98 NZ 18.81
A ALA H 0 -57.8 -45.9 N 14.08 CA 14.89 C 15.71 O 16.02 CB 13.51
A ILE H 0 -51.2 -54.0 N 15.2 CA 16.59 C 17.45 O 17.64 CB 16.09 CG1 17.11 CG2 14.8 CD1 17.23
A ARG H 49 -51.0 -39.1 N 17.19 CA 17.48 C 17.52 O 16.9 CB 17.34 CG 17.25 CD 19.84 NE 19.06 CZ 21.73 NH1 22.26 NH2 20.29
A GLN H 19 -67.4 -17.9 N 18.26 CA 19.73 C 20.77 O 19.62 CB 18.65 CG 18.75 CD 19.43 OE1 19.33 NE2 17.17
A LEU T 7 -83.9 -15.7 N 21.54 CA 22.78 C 24.17 O 24.96 CB 22.47 CG 21.59 CD1 25.59 CD2 19.67
A CYS T 18 -50.7 126.9 N 24.64 CA 25.98 C 27.09 O 27.42 CB 25.98 SG 22.69
A GLY T 6 67.2 9.0 N 28.68 CA 30.67 C 31.96 O 33.04
A ALA T 3 -51.4 -32.4 N 33.03 CA 34.16 C 35.33 O 34.67 CB 33.53
A GLU T 36 -90.6 -4.7 N 36.81 CA 38.4 C 39.72 O 40.78 CB 38.47 CG 38.21 CD 38.11 OE1 35.92 OE2 34.38
A ASP - 113 -82.5 360.0 N 40.92 CA 41.61 C 41.52 O 41.05 CB 42.87 CG 45.63 OD1 50.01 OD2 48.94
A SER - 102 360.0 3.0 N 46.27 CA 45.99 C 45.23 O 45.93 CB 46.63 OG 47.85
A ASP H 108 -39.0 -70.7 N 44.67 CA 42.97 C 41.24 O 41.37 CB 43.97 CG 47.99 OD1 53.51 OD2 54.76
A GLN H 90 -68.4 -33.5 N 30.84 CA 31.23 C 28.59 O 27.9 CB 31.51 CG 33.64 CD 35.97 OE1 39.87 NE2 37.26
A GLU H 7 -54.4 -51.1 N 28.1 CA 26.93 C 25.23 O 24.47 CB 27.47 CG 26.84 CD 28.72 OE1 30.13 OE2 29.48
A VAL H 15 -60.4 -46.3 N 23.54 CA 22.89 C 22.87 O 21.19 CB 21.59 CG1 20.58 CG2 24.08
A GLU H 18 -59.2 -37.5 N 21.97 CA 22.32 C 21.62 O 21.66 CB 22.37 CG 24.12 CD 24.73 OE1 21.71 OE2 27.55
A ILE H 66 -58.4 -47.7 N 21.96 CA 21.81 C 20.43 O 18.17 CB 21.92 CG1 23.73 CG2 22.25 CD1 23.33
A TRP H 2 -60.9 -48.4 N 20.31 CA 20.35 C 20.21 O 18.17 CB 20.81 CG 19.23 CD1 20.53 CD2 19.16 NE1 21.73 CE2 19.3 CE3 20.29 CZ2 21.08 CZ3 20.58 CH2 20.49
A THR H 20 -49.6 -50.7 N 19.37 CA 19.96 C 20.32 O 20.92 CB 20.18 OG1 21.93 CG2 21.77
A ASN H 55 -64.8 -44.9 N 21.43 CA 22.21 C 20.88 O 21.07 CB 22.37 CG 25.9 OD1 27.31 ND2 28.12
A ARG H 20 -68.0 -39.3 N 20.62 CA 20.98 C 20.28 O 18.75 CB 21.26 CG 25.42 CD 30.08 NE 32.13 CZ 34.92 NH1 34.17 NH2 30.31
A ILE H 10 -66.7 -44.4 N 19.0 CA 18.96 C 19.73 O 18.56 CB 17.15 CG1 20.31 CG2 18.56 CD1 17.28
A LYS H 27 -58.8 -42.6 N 21.19 CA 21.7 C 21.33 O 21.14 CB 22.69 CG 24.65 CD 27.14 CE 31.32 NZ 30.87
A GLU H 99 -61.5 -43.0 N 22.01 CA 23.49 C 22.58 O 22.46 CB 24.12 CG 28.69 CD 30.58 OE1 36.31 OE2 40.7
A LEU H 5 -66.0 -46.0 N 21.7 CA 21.81 C 21.37 O 20.24 CB 21.46 CG 21.6 CD1 20.91 CD2 20.95
A GLU H 27 -60.0 -42.4 N 20.81 CA 23.93 C 23.99 O 23.81 CB 24.22 CG 28.81 CD 31.06 OE1 36.59 OE2 37.18
A ASP H 75 -60.3 -44.9 N 24.45 CA 24.94 C 24.14 O 25.77 CB 24.74 CG 29.08 OD1 30.13 OD2 33.05
A TRP H 23 -60.8 -52.6 N 23.23 CA 22.8 C 22.34 O 20.82 CB 23.18 CG 23.54 CD1 25.93 CD2 22.57 NE1 27.34 CE2 25.17 CE3 23.2 CZ2 25.25 CZ3 24.48 CH2 23.68
A LEU H 0 -47.8 -53.9 N 22.11 CA 21.82 C 22.5 O 22.29 CB 21.03 CG 18.5 CD1 19.57 CD2 18.58
A TRP H 67 -93.1 -12.3 N 22.71 CA 23.99 C 24.65 O 24.44 CB 24.12 CG 23.4 CD1 23.22 CD2 21.92 NE1 23.92 CE2 24.04 CE3 22.54 CZ2 22.28 CZ3 22.06 CH2 22.06
A GLY H 57 -111.7 -35.4 N 25.33 CA 26.68 C 27.79 O 28.36
A GLU T 145 -121.5 -27.1 N 27.95 CA 28.3 C 28.01 O 27.03 CB 29.47 CG 35.48 CD 40.6 OE1 44.52 OE2 44.81
A SER S 8 -69.3 170.7 N 26.01 CA 24.65 C 23.08 O 22.3 CB 22.62 OG 21.34
A PRO T 25 -61.8 -16.8 N 22.78 CA 22.9 C 22.69 O 23.41 CB 22.59 CG 22.2 CD 23.14
A ILE T 0 -102.0 6.6 N 21.21 CA 21.6 C 22.73 O 22.96 CB 19.99 CG1 21.78 CG2 18.56 CD1 21.44
A ALA - 83 -62.8 360.0 N 23.79 CA 23.25 C 25.52 O 25.72 CB 23.28 OXT 26.23
B THR - 77 -80.4 169.1 N 42.2 CA 39.31 C 37.9 O 35.2 CB 40.01 OG1 39.0 CG2 40.22
B LYS H 84 -63.4 -39.9 N 36.39 CA 35.84 C 34.91 O 31.89 CB 36.17 CG 36.68 CD 37.04 CE 38.84 NZ 37.99
B LYS H 132 -62.8 -40.1 N 34.26 CA 33.78 C 32.03 O 31.47 CB 34.71 CG 35.91 CD 37.2 CE 39.13 NZ 42.19
B GLU H 11 -66.6 -41.8 N 30.68 CA 30.75 C 27.18 O 24.82 CB 30.65 CG 34.12 CD 34.76 OE1 39.48 OE2 43.45
B ARG H 0 -63.9 -39.2 N 25.61 CA 24.04 C 23.26 O 21.86 CB 24.7 CG 25.05 CD 25.42 NE 24.34 CZ 27.1 NH1 25.05 NH2 26.22
B ILE H 36 -69.1 -38.4 N 21.63 CA 21.8 C 20.59 O 16.88 CB 22.17 CG1 23.82 CG2 21.48 CD1 24.53
B ALA H 10 -61.3 -41.3 N 19.36 CA 19.27 C 18.81 O 18.74 CB 18.9
B ILE H 42 -59.8 -45.1 N 18.8 CA 18.85 C 18.76 O 18.46 CB 20.11 CG1 22.29 CG2 18.76 CD1 30.02
B GLN H 0 -62.4 -39.3 N 18.07 CA 17.17 C 16.78 O 16.09 CB 16.65 CG 16.72 CD 17.4 OE1 18.62 NE2 16.99
B ARG H 53 -64.4 -41.4 N 16.4 CA 17.07 C 16.23 O 15.42 CB 17.47 CG 19.07 CD 20.32 NE 22.21 CZ 21.8 NH1 25.33 NH2 23.68
B SER H 7 -56.2 -49.0 N 17.46 CA 17.47 C 17.45 O 16.76 CB 18.6 OG 23.23
B ALA H 0 -61.8 -35.2 N 15.94 CA 15.45 C 14.87 O 13.85 CB 16.34
B GLU H 8 -62.4 -40.0 N 15.64 CA 15.44 C 15.4 O 15.05 CB 14.97 CG 16.8 CD 15.44 OE1 17.39 OE2 20.22
B GLU H 42 -67.3 -35.8 N 16.35 CA 16.93 C 16.97 O 17.18 CB 17.08 CG 18.01 CD 19.03 OE1 19.64 OE2 21.85
B ALA H 0 -67.0 -42.2 N 17.25 CA 16.32 C 15.58 O 15.85 CB 15.59
B LEU H 2 -63.3 -42.0 N 16.62 CA 16.07 C 14.96 O 15.06 CB 15.79 CG 17.47 CD1 18.47 CD2 16.42
B GLY H 3 -55.2 -44.0 N 14.07 CA 14.73 C 15.39 O 16.94
B LYS H 30 -64.9 -43.6 N 16.57 CA 16.46 C 16.19 O 15.5 CB 16.96 CG 19.66 CD 24.75 CE 28.3 NZ 31.17
B LEU H 5 -62.6 -38.7 N 15.79 CA 16.3 C 16.21 O 17.04 CB 16.72 CG 16.19 CD1 16.65 CD2 16.45
B LYS H 35 -66.6 -34.1 N 16.51 CA 17.31 C 18.48 O 18.71 CB 17.01 CG 14.74 CD 16.38 CE 19.09 NZ 16.84
B ALA H 0 -61.0 -42.2 N 17.04 CA 17.37 C 17.76 O 18.75 CB 16.59
B ILE H 0 -58.8 -48.3 N 17.0 CA 17.37 C 18.18 O 18.15 CB 17.39 CG1 17.04 CG2 18.7 CD1 16.79
B ARG H 66 -54.4 -39.6 N 17.74 CA 20.65 C 20.37 O 19.76 CB 19.69 CG 22.1 CD 24.88 NE 28.17 CZ 32.14 NH1 32.15 NH2 33.13
B GLN H 20 -64.7 -20.0 N 19.23 CA 20.46 C 21.42 O 21.96 CB 20.03 CG 19.27 CD 24.36 OE1 22.56 NE2 21.22
B LEU T 5 -83.7 -8.7 N 21.32 CA 22.36 C 24.0 O 24.97 CB 21.93 CG 23.55 CD1 22.57 CD2 23.56
B CYS T 20 -58.2 133.0 N 25.48 CA 26.61 C 27.94 O 27.01 CB 25.34 SG 25.96
B GLY T 14 64.6 14.0 N 30.04 CA 31.97 C 33.56 O 34.9
B ALA T 2 -66.5 -23.2 N 34.66 CA 35.6 C 37.0 O 38.09 CB 35.82
B GLU T 35 -79.8 -17.2 N 38.15 CA 39.06 C 40.42 O 41.8 CB 38.59 CG 37.74 CD 35.69 OE1 29.97 OE2 32.03
B ASP - 142 -72.5 360.0 N 41.36 CA 42.56 C 43.41 O 44.76 CB 43.34 CG 45.27 OD1 49.48 OD2 49.62
B GLN H 157 -61.1 -34.1 N 42.0 CA 40.25 C 38.51 O 37.72 CB 41.14 CG 42.71 CD 43.81 OE1 49.63 NE2 48.31
B GLU H 33 -63.1 -40.3 N 36.17 CA 35.24 C 32.82 O 31.47 CB 35.23 CG 35.7 CD 35.48 OE1 39.76 OE2 34.04
B VAL H 18 -66.8 -39.7 N 31.82 CA 31.41 C 30.78 O 28.85 CB 31.23 CG1 30.64 CG2 31.25
B GLU H 87 -67.0 -34.8 N 29.96 CA 30.56 C 28.02 O 28.06 CB 31.62 CG 35.94 CD 43.16 OE1 48.27 OE2 46.19
B ILE H 63 -59.4 -48.2 N 26.58 CA 25.85 C 24.5 O 22.15 CB 26.39 CG1 26.76 CG2 27.25 CD1 27.03
B TRP H 3 -62.8 -49.6 N 24.0 CA 23.91 C 23.0 O 23.44 CB 22.88 CG 22.79 CD1 22.36 CD2 20.98 NE1 22.85 CE2 21.87 CE3 22.85 CZ2 22.39 CZ3 22.03 CH2 22.18
B THR H 41 -52.1 -49.0 N 24.37 CA 23.99 C 24.2 O 25.06 CB 25.49 OG1 25.93 CG2 24.67
B ASN H 97 -65.5 -41.8 N 24.38 CA 24.46 C 23.8 O 23.79 CB 25.74 CG 28.41 OD1 34.47 ND2 37.56
B ARG H 22 -71.3 -34.7 N 23.35 CA 22.49 C 22.3 O 20.63 CB 22.52 CG 24.82 CD 23.57 NE 24.63 CZ 21.07 NH1 16.5 NH2 20.81
B ILE H 11 -66.9 -41.2 N 21.57 CA 20.61 C 21.0 O 19.67 CB 20.14 CG1 19.16 CG2 20.58 CD1 19.65
B LYS H 119 -64.7 -41.4 N 22.52 CA 24.37 C 23.65 O 26.04 CB 23.52 CG 25.41 CD 28.42 CE 30.63 NZ 35.53
B GLU H 98 -58.4 -45.3 N 25.04 CA 24.62 C 23.88 O 22.17 CB 24.08 CG 27.07 CD 29.68 OE1 37.35 OE2 39.82
B LEU H 5 -67.5 -43.5 N 22.03 CA 21.21 C 21.36 O 20.12 CB 21.27 CG 20.04 CD1 18.01 CD2 19.34
B GLU H 43 -62.6 -43.7 N 22.58 CA 23.59 C 23.88 O 24.88 CB 24.24 CG 27.69 CD 28.26 OE1 28.29 OE2 35.18
B ASP H 77 -60.8 -41.5 N 23.6 CA 25.03 C 25.03 O 26.15 CB 25.42 CG 27.78 OD1 34.14 OD2 34.55
B TRP H 26 -60.6 -49.8 N 24.62 CA 23.84 C 22.97 O 21.22 CB 25.33 CG 27.42 CD1 28.27 CD2 26.95 NE1 28.39 CE2 28.99 CE3 27.03 CZ2 26.53 CZ3 27.27 CH2 26.33
B LEU H 0 -57.1 -48.4 N 21.29 CA 21.52 C 21.34 O 21.94 CB 20.51 CG 19.24 CD1 16.21 CD2 16.5
B TRP H 59 -91.9 -12.4 N 22.17 CA 23.39 C 24.21 O 25.62 CB 23.04 CG 22.32 CD1 22.02 CD2 20.5 NE1 22.45 CE2 23.16 CE3 20.5 CZ2 21.67 CZ3 22.02 CH2 21.97
B GLY H 56 -106.8 -41.0 N 25.14 CA 26.67 C 27.66 O 30.03
B GLU T 143 -124.9 -28.9 N 27.33 CA 27.76 C 26.4 O 26.24 CB 28.14 CG 32.45 CD 34.62 OE1 42.01 OE2 41.26
B SER S 8 -65.4 168.8 N 23.34 CA 22.51 C 20.34 O 20.38 CB 21.36 OG 20.07
B PRO T 32 -60.3 -17.4 N 21.18 CA 21.77 C 21.83 O 21.79 CB 22.16 CG 22.95 CD 20.97
B ILE T 1 -100.7 6.0 N 21.3 CA 22.35 C 23.21 O 24.82 CB 21.32 CG1 20.63 CG2 19.52 CD1 19.82
B ALA - 85 -70.6 360.0 N 24.7 CA 24.88 C 26.93 O 27.61 CB 25.59 OXT 26.53
C THR - 73 -85.1 162.3 N 39.66 CA 38.12 C 36.6 O 34.76 CB 37.78 OG1 35.97 CG2 37.98
C LYS H 102 -64.4 -34.6 N 34.93 CA 34.68 C 33.32 O 31.31 CB 34.58 CG 36.48 CD 36.71 CE 38.59 NZ 45.04
C LYS H 180 -64.2 -41.8 N 32.17 CA 31.0 C 29.29 O 27.0 CB 32.02 CG 32.51 CD 32.63 CE 36.37 NZ 36.28
C GLU H 103 -66.3 -38.9 N 28.07 CA 28.98 C 26.28 O 24.3 CB 29.17 CG 32.6 CD 33.81 OE1 38.08 OE2 41.91
C ARG H 1 -65.9 -42.6 N 24.27 CA 24.4 C 23.81 O 22.67 CB 24.42 CG 23.91 CD 26.17 NE 26.06 CZ 27.91 NH1 29.41 NH2 27.68
C ILE H 33 -64.4 -39.8 N 23.38 CA 22.58 C 22.27 O 19.38 CB 22.35 CG1 23.61 CG2 24.75 CD1 25.06
C ALA H 56 -61.5 -41.3 N 20.48 CA 20.58 C 18.99 O 17.15 CB 20.33
C ILE H 69 -59.8 -47.6 N 18.67 CA 19.61 C 19.15 O 19.49 CB 19.77 CG1 20.61 CG2 20.33 CD1 21.78
C GLN H 0 -59.8 -43.5 N 18.36 CA 18.72 C 18.25 O 17.91 CB 17.86 CG 18.17 CD 19.53 OE1 19.67 NE2 19.36
C ARG H 90 -60.1 -45.8 N 18.46 CA 18.1 C 17.95 O 16.68 CB 18.73 CG 19.99 CD 20.96 NE 21.31 CZ 26.91 NH1 25.08 NH2 28.45
C SER H 70 -55.4 -45.6 N 16.6 CA 16.83 C 16.55 O 16.11 CB 16.77 OG 14.06
C ALA H 0 -57.2 -41.6 N 16.02 CA 16.15 C 14.89 O 15.45 CB 15.55
C GLU H 109 -58.7 -39.2 N 15.38 CA 16.54 C 16.44 O 16.88 CB 16.31 CG 16.38 CD 20.24 OE1 16.18 OE2 21.91
C GLU H 116 -69.7 -39.0 N 15.92 CA 17.39 C 16.32 O 15.39 CB 16.73 CG 19.58 CD 23.09 OE1 30.18 OE2 29.85
C ALA H 0 -63.0 -45.3 N 15.81 CA 16.44 C 16.09 O 15.25 CB 15.61
C LEU H 1 -63.0 -37.9 N 17.05 CA 16.52 C 17.16 O 16.52 CB 17.0 CG 18.16 CD1 18.71 CD2 13.91
C GLY H 39 -59.6 -43.0 N 16.3 CA 16.2 C 16.73 O 16.76
C LYS H 66 -63.6 -48.0 N 16.77 CA 16.56 C 15.27 O 14.28 CB 17.11 CG 18.83 CD 23.37 CE 26.21 NZ 26.59
C LEU H 4 -62.9 -39.9 N 15.77 CA 16.11 C 15.82 O 16.26 CB 17.56 CG 17.19 CD1 17.31 CD2 18.49
C LYS H 86 -62.9 -37.5 N 15.83 CA 16.11 C 16.3 O 16.3 CB 15.95 CG 15.6 CD 16.84 CE 19.08 NZ 19.8
C ALA H 40 -61.7 -39.1 N 15.66 CA 16.16 C 16.49 O 17.15 CB 14.03
C ILE H 0 -59.9 -46.2 N 16.74 CA 16.32 C 16.93 O 15.8 CB 16.18 CG1 14.91 CG2 17.98 CD1 16.51
C ARG H 73 -54.2 -41.0 N 17.27 CA 18.89 C 17.41 O 17.48 CB 16.87 CG 19.23 CD 21.16 NE 23.59 CZ 25.64 NH1 23.81 NH2 25.25
C GLN H 142 -62.4 -19.7 N 18.38 CA 18.8 C 18.95 O 17.96 CB 19.11 CG 18.84 CD 24.35 OE1 19.77 NE2 19.65
C LEU T 53 -90.2 -5.9 N 18.59 CA 20.09 C 21.86 O 23.64 CB 19.07 CG 18.21 CD1 22.26 CD2 18.02
C CYS T 12 -58.9 126.5 N 21.53 CA 23.6 C 25.9 O 26.94 CB 22.72 SG 20.95
C GLY T 14 69.7 17.7 N 30.15 CA 32.87 C 35.99 O 37.75
C ALA - 55 -62.2 -40.3 N 38.34 CA 40.51 C 41.74 O 42.89 CB 39.79
C GLU S 14 -72.4 178.3 N 43.28 CA 43.93 C 45.07 O 44.67 CB 43.58 CG 42.76 CD 42.41 OE1 37.14 OE2 40.06
C ASP S 163 -51.6 120.3 N 46.81 CA 47.42 C 48.34 O 48.94 CB 47.93 CG 49.05 OD1 54.74 OD2 52.55
C SER - 35 -156.5 150.5 N 48.74 CA 48.94 C 49.14 O 49.41 CB 48.93 OG 48.94
C SER - 55 -79.4 137.3 N 49.15 CA 48.86 C 48.06 O 49.06 CB 48.9 OG 49.51
C ASP H 134 -53.4 -32.3 N 47.15 CA 45.84 C 44.84 O 44.08 CB 47.09 CG 50.18 OD1 55.03 OD2 55.06
C SER H 30 -79.2 -34.2 N 42.35 CA 41.08 C 40.05 O 38.77 CB 40.57 OG 36.89
C SER H 22 -61.9 -50.2 N 38.96 CA 39.37 C 38.01 O 37.15 CB 39.04 OG 42.2
C ASP H 18 -51.4 -53.5 N 37.03 CA 36.4 C 34.52 O 34.01 CB 37.16 CG 39.38 OD1 40.5 OD2 46.97
C GLN H 38 -61.2 -50.9 N 25.54 CA 23.62 C 21.57 O 20.3 CB 23.6 CG 23.61 CD 24.75 OE1 23.06 NE2 20.66
C GLU H 12 -60.4 -45.8 N 20.16 CA 20.94 C 19.27 O 19.7 CB 21.18 CG 24.89 CD 29.2 OE1 33.45 OE2 29.29
C VAL H 20 -58.5 -44.6 N 19.97 CA 19.99 C 19.66 O 18.35 CB 20.1 CG1 19.33 CG2 23.66
C GLU H 27 -58.0 -44.8 N 18.71 CA 18.57 C 17.16 O 18.06 CB 18.24 CG 18.49 CD 20.61 OE1 20.1 OE2 19.61
C ILE H 33 -63.3 -45.9 N 18.11 CA 17.86 C 17.44 O 16.19 CB 18.77 CG1 18.88 CG2 17.42 CD1 17.14
C TRP H 2 -60.0 -45.9 N 17.73 CA 18.85 C 18.13 O 15.62 CB 18.92 CG 19.66 CD1 19.19 CD2 20.06 NE1 19.78 CE2 20.32 CE3 21.32 CZ2 18.88 CZ3 19.36 CH2 19.74
C THR H 53 -56.8 -50.7 N 18.47 CA 18.16 C 18.46 O 17.03 CB 18.72 OG1 18.32 CG2 19.41
C ASN H 25 -66.6 -41.7 N 19.0 CA 19.38 C 19.63 O 18.65 CB 19.48 CG 22.44 OD1 23.96 ND2 18.81
C ARG H 21 -68.4 -38.0 N 20.83 CA 20.11 C 19.4 O 18.66 CB 22.08 CG 24.09 CD 30.73 NE 31.95 CZ 33.43 NH1 26.54 NH2 34.91
C ILE H 7 -66.5 -42.1 N 18.71 CA 19.25 C 20.76 O 18.93 CB 19.96 CG1 19.66 CG2 18.91 CD1 19.33
C LYS H 103 -61.0 -44.7 N 22.34 CA 23.49 C 22.94 O 24.36 CB 24.86 CG 26.83 CD 32.37 CE 34.95 NZ 38.39
C GLU H 96 -55.9 -44.4 N 23.4 CA 24.03 C 23.22 O 21.4 CB 23.5 CG 26.66 CD 29.77 OE1 37.3 OE2 40.6
C LEU H 4 -63.8 -46.7 N 21.89 CA 21.74 C 20.97 O 21.13 CB 21.46 CG 20.89 CD1 17.65 CD2 20.08
C GLU H 41 -55.3 -47.6 N 22.73 CA 25.13 C 25.88 O 26.03 CB 26.04 CG 26.07 CD 30.15 OE1 38.93 OE2 34.51
C ASP H 87 -53.4 -48.5 N 24.57 CA 26.06 C 25.41 O 26.82 CB 26.23 CG 31.03 OD1 32.62 OD2 34.82
C TRP H 21 -61.7 -49.1 N 24.75 CA 24.28 C 23.64 O 22.52 CB 24.66 CG 25.89 CD1 28.1 CD2 26.83 NE1 28.84 CE2 28.21 CE3 25.92 CZ2 27.27 CZ3 27.17 CH2 27.9
C LEU H 0 -57.3 -50.8 N 22.97 CA 23.41 C 23.81 O 24.31 CB 22.1 CG 19.04 CD1 18.44 CD2 20.01
C TRP H 72 -93.1 -10.7 N 24.62 CA 26.41 C 27.13 O 28.4 CB 25.7 CG 25.34 CD1 24.03 CD2 24.56 NE1 25.58 CE2 23.31 CE3 24.22 CZ2 24.9 CZ3 24.9 CH2 23.59
C GLY H 61 -114.8 -34.5 N 28.65 CA 30.01 C 31.27 O 32.63
C GLU T 152 -124.1 -20.8 N 30.62 CA 31.19 C 30.1 O 30.36 CB 31.47 CG 35.7 CD 37.08 OE1 44.48 OE2 41.6
C SER S 9 -76.4 170.5 N 27.51 CA 25.71 C 23.66 O 22.88 CB 24.77 OG 23.36
C PRO T 31 -60.3 -15.6 N 23.98 CA 24.74 C 24.48 O 23.54 CB 24.37 CG 24.49 CD 23.88
C ILE T 1 -107.4 7.3 N 24.43 CA 24.85 C 25.43 O 24.73 CB 24.49 CG1 25.01 CG2 24.01 CD1 24.75
C ALA - 86 -73.7 360.0 N 25.33 CA 26.64 C 28.31 O 29.78 CB 26.62 OXT 27.99
D THR - 66 -87.4 160.9 N 41.53 CA 39.63 C 38.84 O 36.33 CB 40.4 OG1 44.62 CG2 37.2
D LYS H 94 -60.7 -37.2 N 37.36 CA 36.95 C 35.59 O 34.14 CB 36.99 CG 38.24 CD 39.1 CE 40.2 NZ 41.78
D LYS H 173 -61.3 -42.0 N 34.34 CA 34.0 C 32.01 O 31.42 CB 34.18 CG 36.26 CD 37.4 CE 39.62 NZ 42.8
D GLU H 98 -67.9 -43.6 N 29.55 CA 29.33 C 27.0 O 25.44 CB 29.3 CG 32.39 CD 33.32 OE1 37.91 OE2 39.73
D ARG H 0 -64.1 -37.7 N 25.07 CA 24.63 C 23.03 O 22.06 CB 24.83 CG 24.78 CD 28.36 NE 28.61 CZ 31.3 NH1 31.09 NH2 33.62
D ILE H 36 -67.5 -41.0 N 21.72 CA 21.79 C 19.92 O 17.99 CB 21.45 CG1 23.49 CG2 19.38 CD1 24.33
D ALA H 56 -57.9 -44.3 N 19.8 CA 20.37 C 19.89 O 19.92 CB 19.38
D ILE H 68 -63.4 -44.7 N 18.91 CA 19.02 C 18.16 O 16.61 CB 20.25 CG1 22.44 CG2 18.9 CD1 23.38
D GLN H 0 -60.7 -37.9 N 16.63 CA 17.95 C 16.98 O 16.27 CB 17.12 CG 17.47 CD 19.12 OE1 20.75 NE2 19.85
D ARG H 90 -68.4 -41.7 N 17.08 CA 17.89 C 16.99 O 17.45 CB 17.11 CG 19.88 CD 20.32 NE 23.16 CZ 24.57 NH1 27.94 NH2 26.09
D SER H 71 -59.6 -44.2 N 16.65 CA 17.2 C 15.33 O 14.16 CB 18.31 OG 20.97
D ALA H 0 -58.9 -40.5 N 14.97 CA 15.22 C 15.0 O 15.68 CB 15.93
D GLU H 101 -61.1 -39.3 N 16.08 CA 16.32 C 16.6 O 15.47 CB 17.07 CG 17.87 CD 21.59 OE1 19.27 OE2 22.29
D GLU H 120 -68.2 -42.2 N 15.63 CA 17.39 C 15.38 O 15.45 CB 17.04 CG 19.88 CD 21.82 OE1 29.43 OE2 27.73
D ALA H 1 -57.2 -47.7 N 14.93 CA 14.83 C 15.66 O 16.04 CB 13.38
D LEU H 1 -60.9 -41.9 N 17.22 CA 16.22 C 15.61 O 15.84 CB 15.82 CG 16.87 CD1 17.7 CD2 17.92
D GLY H 40 -56.0 -42.8 N 15.5 CA 15.79 C 16.17 O 15.05
D LYS H 70 -68.6 -42.6 N 15.77 CA 16.89 C 16.14 O 17.79 CB 17.3 CG 19.98 CD 26.01 CE 27.26 NZ 31.2
D LEU H 3 -61.8 -42.3 N 16.6 CA 17.05 C 16.3 O 17.18 CB 16.69 CG 19.32 CD1 17.6 CD2 16.15
D LYS H 63 -67.9 -31.0 N 15.74 CA 16.41 C 16.49 O 15.86 CB 17.23 CG 17.64 CD 16.72 CE 19.95 NZ 18.14
D ALA H 37 -61.6 -44.2 N 15.17 CA 16.09 C 16.72 O 17.29 CB 15.67
D ILE H 0 -54.9 -48.0 N 15.87 CA 16.85 C 18.15 O 19.74 CB 15.76 CG1 17.75 CG2 16.33 CD1 16.6
D ARG H 52 -54.4 -38.0 N 21.35 CA 22.27 C 22.34 O 22.87 CB 22.63 CG 23.75 CD 23.3 NE 28.65 CZ 27.34 NH1 25.91 NH2 27.63
D GLN T 141 -62.3 -18.9 N 22.38 CA 22.55 C 22.55 O 23.45 CB 21.85 CG 21.0 CD 25.61 OE1 22.05 NE2 23.07
D LEU T 57 -88.8 -8.0 N 23.5 CA 24.17 C 26.25 O 27.38 CB 24.1 CG 21.41 CD1 22.71 CD2 21.61
D CYS T 13 -62.0 137.7 N 28.96 CA 30.24 C 33.73 O 33.92 CB 30.35 SG 31.18
D GLY T 17 61.0 31.3 N 38.01 CA 41.15 C 42.78 O 43.85
D ALA - 73 -72.2 -23.8 N 44.58 CA 45.62 C 47.02 O 47.11 CB 45.27
D GLU S 40 -71.7 147.2 N 48.28 CA 49.43 C 50.3 O 50.98 CB 49.59 CG 51.48 CD 52.02 OE1 52.23 OE2 51.27
D ASP T 177 -74.8 -8.6 N 51.18 CA 51.35 C 51.23 O 51.84 CB 52.27 CG 53.57 OD1 57.02 OD2 55.78
D SER T 101 -90.2 23.1 N 50.83 CA 50.23 C 49.72 O 49.99 CB 50.57 OG 52.12
D SER - 56 -76.6 148.7 N 48.14 CA 46.95 C 44.46 O 44.21 CB 47.0 OG 47.52
D ASP - 93 -147.2 -157.2 N 41.61 CA 38.96 C 37.04 O 36.31 CB 39.42 CG 40.64 OD1 42.65 OD2 42.28
D SER H 102 -59.9 -27.4 N 34.41 CA 33.58 C 32.72 O 31.31 CB 32.64 OG 29.74
D SER H 45 -66.6 -38.8 N 31.91 CA 32.28 C 31.28 O 30.68 CB 32.44 OG 36.09
D ASP H 10 -70.2 -37.0 N 31.11 CA 31.13 C 29.98 O 28.53 CB 31.83 CG 34.44 OD1 37.85 OD2 37.87
D GLN H 114 -61.5 -42.0 N 26.86 CA 28.38 C 27.46 O 25.72 CB 28.32 CG 31.33 CD 32.71 OE1 42.81 NE2 37.86
D GLU H 19 -56.8 -48.9 N 27.62 CA 28.07 C 27.47 O 27.56 CB 29.06 CG 32.23 CD 36.06 OE1 38.47 OE2 36.14
D VAL H 37 -52.9 -49.1 N 26.32 CA 25.42 C 25.68 O 25.39 CB 25.91 CG1 25.94 CG2 23.12
D GLU H 101 -63.7 -40.2 N 24.51 CA 24.05 C 23.16 O 24.23 CB 23.81 CG 23.85 CD 25.38 OE1 23.91 OE2 27.57
D ILE H 63 -59.2 -45.6 N 22.35 CA 22.13 C 21.89 O 20.96 CB 22.37 CG1 23.11 CG2 22.5 CD1 19.32
D TRP H 1 -61.4 -46.7 N 22.76 CA 21.63 C 21.91 O 20.29 CB 20.72 CG 19.34 CD1 20.57 CD2 18.58 NE1 20.88 CE2 17.28 CE3 19.01 CZ2 19.53 CZ3 20.49 CH2 20.11
D THR H 48 -56.8 -45.7 N 22.43 CA 22.87 C 22.34 O 22.5 CB 23.22 OG1 27.83 CG2 23.61
D ASN H 105 -66.9 -43.9 N 21.99 CA 22.05 C 21.59 O 21.77 CB 21.57 CG 20.67 OD1 20.43 ND2 20.03
D ARG H 28 -64.9 -43.9 N 21.31 CA 21.15 C 21.11 O 20.43 CB 20.37 CG 21.13 CD 21.03 NE 20.22 CZ 20.79 NH1 15.82 NH2 21.46
D ILE H 7 -64.0 -41.2 N 21.51 CA 20.72 C 21.12 O 18.8 CB 20.04 CG1 19.85 CG2 21.61 CD1 18.39
D LYS H 120 -60.3 -40.6 N 22.06 CA 23.39 C 23.36 O 23.69 CB 23.32 CG 25.11 CD 27.8 CE 31.43 NZ 35.37
D GLU H 118 -59.3 -45.5 N 24.8 CA 24.95 C 23.97 O 22.2 CB 24.93 CG 28.73 CD 31.63 OE1 40.33 OE2 40.66
D LEU H 13 -65.6 -46.6 N 22.75 CA 22.81 C 22.41 O 21.44 CB 22.59 CG 21.36 CD1 21.58 CD2 21.54
D GLU H 43 -64.0 -39.4 N 22.98 CA 25.1 C 24.38 O 23.31 CB 25.29 CG 28.67 CD 28.83 OE1 29.33 OE2 35.65
D ASP H 81 -66.1 -42.5 N 26.17 CA 26.04 C 25.82 O 26.94 CB 26.96 CG 28.94 OD1 33.66 OD2 33.92
D TRP H 31 -57.1 -50.8 N 24.93 CA 23.56 C 22.38 O 21.3 CB 23.63 CG 24.02 CD1 24.3 CD2 23.43 NE1 23.52 CE2 26.06 CE3 24.64 CZ2 24.17 CZ3 24.84 CH2 24.98
D LEU H 1 -55.2 -50.1 N 21.1 CA 20.62 C 21.13 O 20.61 CB 20.13 CG 17.49 CD1 16.64 CD2 17.04
D TRP H 62 -91.5 -14.0 N 21.38 CA 23.56 C 24.13 O 26.32 CB 23.1 CG 23.38 CD1 23.59 CD2 20.86 NE1 23.41 CE2 22.81 CE3 22.91 CZ2 23.1 CZ3 24.26 CH2 22.26
D GLY H 57 -104.6 -38.8 N 25.3 CA 25.65 C 26.51 O 27.74
D GLU T 157 -127.9 -14.0 N 26.58 CA 26.68 C 26.17 O 26.35 CB 28.14 CG 33.99 CD 41.42 OE1 42.9 OE2 47.08
D SER S 9 -74.9 171.0 N 24.58 CA 23.69 C 23.89 O 23.63 CB 22.68 OG 20.58
D PRO T 33 -59.5 -15.7 N 23.24 CA 23.69 C 23.09 O 23.1 CB 23.24 CG 24.08 CD 23.97
D ILE T 2 -106.6 8.0 N 21.26 CA 22.18 C 23.04 O 24.13 CB 21.1 CG1 19.94 CG2 21.46 CD1 19.56
D ALA - 84 -72.1 360.0 N 23.39 CA 24.49 C 26.36 O 28.87 CB 24.05 OXT 27.66
F THR - 87 360.0 152.6 N 41.85 CA 41.65 C 40.6 O 39.33 CB 42.44 OG1 44.87 CG2 42.88
F LYS H 79 -62.4 -37.6 N 38.44 CA 37.52 C 36.2 O 33.75 CB 38.59 CG 38.78 CD 40.08 CE 41.31 NZ 44.89
F LYS H 97 -61.1 -42.0 N 35.04 CA 34.84 C 32.91 O 31.97 CB 35.32 CG 37.36 CD 38.12 CE 41.98 NZ 42.53
F GLU H 34 -74.9 -36.2 N 31.45 CA 31.17 C 27.58 O 25.25 CB 31.07 CG 32.85 CD 36.17 OE1 42.13 OE2 42.15
F ARG H 16 -63.7 -39.6 N 25.44 CA 23.53 C 23.24 O 20.74 CB 24.75 CG 25.17 CD 24.62 NE 22.75 CZ 26.23 NH1 25.73 NH2 29.17
F ILE H 36 -64.1 -37.8 N 21.98 CA 22.17 C 20.88 O 19.52 CB 23.12 CG1 24.24 CG2 20.8 CD1 25.38
F ALA H 10 -66.3 -40.7 N 19.85 CA 20.22 C 18.39 O 16.83 CB 21.29
F ILE H 58 -63.6 -41.7 N 18.36 CA 19.2 C 17.38 O 15.9 CB 19.12 CG1 22.8 CG2 19.08 CD1 22.97
F GLN H 0 -63.1 -38.6 N 17.31 CA 16.15 C 16.43 O 17.26 CB 15.96 CG 14.23 CD 16.87 OE1 14.95 NE2 17.49
F ARG H 59 -65.6 -40.1 N 16.91 CA 16.52 C 16.0 O 16.08 CB 16.61 CG 17.28 CD 18.7 NE 22.15 CZ 25.81 NH1 25.44 NH2 25.08
F SER H 9 -62.3 -45.3 N 15.21 CA 15.22 C 14.11 O 13.83 CB 15.27 OG 14.79
F ALA H 0 -61.3 -37.6 N 14.05 CA 14.5 C 14.01 O 13.12 CB 14.2
F GLU H 13 -59.3 -37.0 N 14.88 CA 14.79 C 15.15 O 15.88 CB 14.36 CG 14.98 CD 19.07 OE1 15.77 OE2 22.54
F GLU H 45 -71.9 -38.1 N 14.6 CA 16.11 C 14.76 O 14.6 CB 16.05 CG 17.43 CD 21.37 OE1 32.39 OE2 29.27
F ALA H 1 -65.0 -43.1 N 14.71 CA 14.56 C 13.5 O 13.95 CB 14.33
F LEU H 1 -63.2 -42.7 N 14.65 CA 14.27 C 13.03 O 12.43 CB 13.62 CG 15.02 CD1 16.04 CD2 17.99
F GLY H 3 -55.4 -42.6 N 14.28 CA 13.81 C 14.5 O 13.95
F LYS H 30 -65.4 -42.1 N 14.22 CA 14.58 C 14.28 O 15.42 CB 14.05 CG 16.53 CD 22.29 CE 24.19 NZ 25.15
F LEU H 4 -61.5 -44.5 N 15.44 CA 15.01 C 14.61 O 14.55 CB 14.72 CG 16.47 CD1 15.62 CD2 15.93
F LYS H 31 -63.3 -33.5 N 15.47 CA 15.07 C 15.23 O 17.07 CB 14.73 CG 15.16 CD 14.79 CE 18.82 NZ 19.34
F ALA H 0 -61.8 -41.4 N 14.46 CA 14.38 C 14.45 O 16.19 CB 13.97
F ILE H 0 -61.6 -45.4 N 13.61 CA 13.99 C 14.01 O 14.08 CB 12.85 CG1 16.28 CG2 15.16 CD1 14.0
F ARG H 69 -54.4 -34.6 N 14.48 CA 15.83 C 16.46 O 16.59 CB 16.17 CG 15.66 CD 18.68 NE 20.32 CZ 23.82 NH1 22.89 NH2 20.97
F GLN T 20 -71.2 -15.8 N 16.57 CA 16.64 C 17.81 O 17.05 CB 16.84 CG 15.7 CD 18.62 OE1 18.67 NE2 16.48
F LEU T 3 -90.2 -2.3 N 17.2 CA 18.45 C 20.24 O 21.53 CB 17.79 CG 18.28 CD1 15.77 CD2 19.9
F CYS T 17 -62.5 129.9 N 21.34 CA 23.17 C 25.92 O 24.59 CB 22.73 SG 20.08
F GLY T 4 75.2 13.3 N 28.62 CA 31.63 C 33.04 O 35.11
F ALA - 6 -61.1 -36.4 N 33.74 CA 34.34 C 35.98 O 35.98 CB 34.18
F GLU - 67 -76.6 360.0 N 36.68 CA 38.5 C 39.34 O 39.35 CB 37.83 CG 36.7 CD 36.46 OE1 33.0 OE2 32.45
F ASP H 51 -58.4 -44.1 N 37.14 CA 36.18 C 34.66 O 35.07 CB 37.1 CG 38.76 OD1 44.38 OD2 44.31
F GLN H 43 -59.0 -49.4 N 26.66 CA 27.83 C 24.67 O 21.62 CB 27.62 CG 32.63 CD 34.18 OE1 44.89 NE2 41.93
F GLU H 11 -58.2 -47.3 N 24.36 CA 24.69 C 22.66 O 21.43 CB 24.62 CG 26.49 CD 24.41 OE1 27.61 OE2 24.88
F VAL H 22 -60.0 -44.4 N 20.58 CA 19.51 C 18.77 O 17.6 CB 19.76 CG1 20.36 CG2 21.51
F GLU H 26 -61.5 -41.7 N 18.43 CA 17.84 C 16.63 O 16.81 CB 17.94 CG 20.01 CD 20.15 OE1 19.31 OE2 21.63
F ILE H 18 -61.9 -49.4 N 17.91 CA 18.0 C 16.04 O 16.15 CB 18.79 CG1 21.09 CG2 19.63 CD1 21.03
F TRP H 3 -61.1 -45.4 N 15.76 CA 17.19 C 17.21 O 17.06 CB 17.19 CG 18.75 CD1 19.14 CD2 17.73 NE1 19.58 CE2 19.81 CE3 19.6 CZ2 16.99 CZ3 19.28 CH2 18.58
F THR H 53 -49.9 -50.7 N 16.71 CA 17.19 C 16.68 O 16.69 CB 17.38 OG1 18.3 CG2 18.9
F ASN H 8 -66.9 -46.7 N 18.74 CA 19.4 C 19.14 O 19.53 CB 20.64 CG 22.53 OD1 22.31 ND2 25.68
F ARG H 28 -57.3 -45.4 N 19.19 CA 19.08 C 18.69 O 18.55 CB 20.21 CG 25.11 CD 28.61 NE 32.02 CZ 33.07 NH1 29.81 NH2 31.04
F ILE H 8 -62.8 -46.9 N 17.21 CA 16.92 C 17.46 O 15.07 CB 18.03 CG1 15.92 CG2 18.1 CD1 16.28
F LYS H 103 -63.2 -39.2 N 18.02 CA 19.57 C 18.1 O 19.93 CB 18.33 CG 20.51 CD 22.63 CE 25.47 NZ 26.67
F GLU H 50 -58.0 -47.4 N 20.48 CA 21.86 C 20.42 O 21.33 CB 21.35 CG 25.86 CD 28.66 OE1 38.23 OE2 41.28
F LEU H 3 -63.1 -42.7 N 19.49 CA 20.01 C 20.14 O 18.8 CB 19.28 CG 19.64 CD1 18.91 CD2 19.32
F GLU H 36 -60.6 -48.8 N 21.34 CA 22.22 C 21.93 O 21.78 CB 22.49 CG 22.96 CD 26.78 OE1 31.51 OE2 31.91
F ASP H 86 -57.4 -39.9 N 22.77 CA 22.58 C 22.27 O 22.03 CB 23.22 CG 24.56 OD1 27.87 OD2 26.13
F TRP H 34 -65.6 -51.8 N 22.68 CA 21.72 C 21.72 O 21.79 CB 22.52 CG 23.01 CD1 25.03 CD2 22.65 NE1 26.07 CE2 26.06 CE3 20.02 CZ2 23.33 CZ3 22.65 CH2 22.56
F LEU H 0 -53.4 -50.0 N 20.7 CA 19.87 C 19.92 O 17.93 CB 19.51 CG 16.46 CD1 14.15 CD2 14.45
F TRP H 71 -92.1 -9.5 N 20.12 CA 21.41 C 22.12 O 23.58 CB 21.18 CG 20.22 CD1 22.55 CD2 20.96 NE1 21.04 CE2 21.22 CE3 21.61 CZ2 22.26 CZ3 20.9 CH2 21.8
F GLY H 56 -117.3 -36.5 N 23.51 CA 24.42 C 25.73 O 26.25
F GLU T 144 -123.9 -32.9 N 25.16 CA 26.1 C 24.57 O 24.19 CB 26.54 CG 33.58 CD 33.89 OE1 45.96 OE2 44.02
F SER S 7 -67.3 169.5 N 22.47 CA 21.35 C 19.92 O 19.1 CB 20.29 OG 19.7
F PRO T 25 -62.2 -14.3 N 19.34 CA 19.97 C 19.59 O 19.11 CB 20.22 CG 19.63 CD 20.55
F ILE T 0 -103.4 9.2 N 19.02 CA 18.91 C 20.42 O 20.67 CB 17.7 CG1 18.6 CG2 19.96 CD1 18.26
F ALA - 82 -67.9 360.0 N 20.97 CA 21.72 C 24.08 O 24.62 CB 21.62 OXT 25.48
G THR - 77 -71.9 171.1 N 47.42 CA 47.13 C 46.5 O 45.28 CB 47.52 OG1 50.15 CG2 46.17
G LYS H 107 -61.1 -39.0 N 45.62 CA 44.56 C 43.83 O 42.22 CB 45.17 CG 45.49 CD 46.01 CE 46.61 NZ 47.38
G LYS H 176 -60.0 -44.6 N 42.29 CA 41.44 C 39.06 O 37.97 CB 41.88 CG 43.38 CD 45.46 CE 45.49 NZ 46.83
G GLU H 93 -66.5 -41.0 N 37.01 CA 35.7 C 33.72 O 31.99 CB 36.89 CG 38.81 CD 40.73 OE1 44.73 OE2 47.83
G ARG H 0 -64.7 -42.3 N 31.13 CA 30.66 C 27.89 O 25.63 CB 31.21 CG 34.29 CD 36.91 NE 40.5 CZ 40.24 NH1 43.63 NH2 38.64
G ILE H 33 -62.6 -40.2 N 25.99 CA 25.9 C 24.47 O 23.2 CB 25.73 CG1 26.03 CG2 23.98 CD1 26.65
G ALA H 52 -61.2 -46.2 N 23.38 CA 22.49 C 22.34 O 20.62 CB 21.74
G ILE H 73 -57.2 -44.0 N 21.18 CA 21.81 C 20.98 O 19.49 CB 21.29 CG1 24.98 CG2 21.39 CD1 24.02
G GLN H 0 -62.7 -40.7 N 20.01 CA 19.53 C 19.55 O 17.06 CB 19.17 CG 19.47 CD 21.4 OE1 22.2 NE2 23.17
G ARG H 90 -63.7 -40.4 N 18.25 CA 19.71 C 18.52 O 18.88 CB 19.09 CG 21.72 CD 22.77 NE 28.37 CZ 30.31 NH1 29.32 NH2 30.42
G SER H 70 -61.4 -48.4 N 17.84 CA 18.34 C 17.78 O 17.12 CB 19.39 OG 25.11
G ALA H 0 -63.6 -38.3 N 15.15 CA 16.23 C 15.66 O 16.17 CB 15.39
G GLU H 104 -61.6 -38.7 N 16.68 CA 17.15 C 17.44 O 16.43 CB 17.4 CG 16.76 CD 18.21 OE1 18.32 OE2 20.71
G GLU H 114 -68.3 -42.5 N 16.66 CA 17.71 C 16.45 O 15.11 CB 18.35 CG 21.65 CD 25.71 OE1 32.23 OE2 34.0
G ALA H 1 -56.9 -48.9 N 16.09 CA 16.18 C 15.53 O 15.11 CB 13.01
G LEU H 1 -58.2 -43.0 N 16.47 CA 15.01 C 15.02 O 14.58 CB 14.93 CG 17.61 CD1 16.15 CD2 17.49
G GLY H 39 -55.7 -42.2 N 14.34 CA 15.2 C 14.93 O 14.33
G LYS H 72 -67.1 -41.8 N 15.86 CA 15.94 C 16.6 O 15.06 CB 16.75 CG 18.86 CD 22.73 CE 25.71 NZ 26.55
G LEU H 3 -68.7 -38.1 N 15.26 CA 16.75 C 16.61 O 17.83 CB 16.61 CG 16.68 CD1 17.85 CD2 17.82
G LYS H 64 -67.8 -33.8 N 17.12 CA 16.12 C 16.03 O 15.7 CB 15.74 CG 16.37 CD 17.95 CE 19.16 NZ 17.84
G ALA H 38 -58.9 -40.2 N 14.29 CA 14.9 C 15.46 O 16.44 CB 13.72
G ILE H 0 -60.8 -43.8 N 15.32 CA 15.96 C 15.45 O 17.32 CB 15.0 CG1 17.74 CG2 16.22 CD1 19.14
G ARG H 53 -60.8 -28.1 N 14.8 CA 17.53 C 18.03 O 17.57 CB 17.26 CG 18.44 CD 20.49 NE 25.8 CZ 26.49 NH1 29.17 NH2 28.81
G GLN T 151 -74.1 -8.5 N 17.19 CA 18.32 C 19.59 O 20.4 CB 17.13 CG 16.75 CD 18.55 OE1 19.64 NE2 18.35
G LEU T 51 -106.2 24.4 N 19.39 CA 21.53 C 22.78 O 25.49 CB 19.96 CG 23.24 CD1 25.66 CD2 22.85
G CYS - 2 -75.9 -20.7 N 23.41 CA 23.93 C 26.68 O 25.83 CB 23.35 SG 23.56
G GLY - 34 -68.5 139.0 N 30.25 CA 33.46 C 35.24 O 36.34
G ALA - 16 -146.6 164.2 N 36.33 CA 37.57 C 39.21 O 40.23 CB 36.95
G GLU S 121 -56.2 -54.2 N 40.72 CA 41.09 C 42.19 O 43.87 CB 41.56 CG 41.78 CD 41.21 OE1 43.97 OE2 43.38
G SER H 88 -67.4 -45.3 N 49.96 CA 49.5 C 48.69 O 47.93 CB 50.05 OG 50.73
G SER H 51 -58.1 -44.9 N 47.89 CA 47.67 C 46.36 O 45.45 CB 47.89 OG 50.32
G ASP H 8 -63.8 -40.7 N 44.93 CA 43.61 C 42.28 O 42.47 CB 44.89 CG 47.02 OD1 52.95 OD2 51.52
G GLN H 109 -65.6 -37.1 N 31.45 CA 29.99 C 27.5 O 24.85 CB 29.0 CG 30.03 CD 29.79 OE1 34.58 NE2 28.16
G GLU H 20 -58.7 -48.5 N 26.64 CA 27.61 C 25.06 O 25.2 CB 27.36 CG 31.64 CD 31.59 OE1 34.1 OE2 39.24
G VAL H 51 -55.2 -47.8 N 22.8 CA 21.57 C 21.16 O 20.58 CB 20.49 CG1 22.1 CG2 22.14
G GLU H 113 -57.9 -48.2 N 18.4 CA 19.5 C 17.93 O 18.29 CB 19.77 CG 19.9 CD 23.83 OE1 28.86 OE2 26.97
G ILE H 63 -56.7 -50.6 N 18.83 CA 19.0 C 18.54 O 17.73 CB 19.22 CG1 21.27 CG2 21.03 CD1 20.64
G TRP H 3 -56.7 -48.7 N 19.12 CA 18.96 C 19.13 O 18.89 CB 19.53 CG 19.45 CD1 20.01 CD2 18.95 NE1 20.94 CE2 18.36 CE3 21.09 CZ2 19.69 CZ3 19.15 CH2 19.92
G THR H 54 -53.8 -48.9 N 18.57 CA 18.94 C 18.6 O 17.32 CB 17.74 OG1 21.08 CG2 17.68
G ASN H 106 -62.8 -42.4 N 19.71 CA 20.4 C 20.43 O 20.52 CB 21.84 CG 21.93 OD1 18.6 ND2 21.47
G ARG H 16 -69.0 -37.1 N 19.84 CA 20.45 C 19.99 O 17.72 CB 21.2 CG 23.91 CD 25.88 NE 27.42 CZ 28.52 NH1 28.56 NH2 30.57
G ILE H 5 -69.2 -41.9 N 19.28 CA 19.48 C 20.15 O 19.18 CB 18.73 CG1 17.61 CG2 18.96 CD1 18.77
G LYS H 117 -61.3 -38.7 N 20.72 CA 20.63 C 19.22 O 19.61 CB 21.76 CG 24.35 CD 29.74 CE 31.64 NZ 35.96
G GLU H 92 -59.6 -46.3 N 20.19 CA 20.93 C 20.34 O 19.61 CB 21.39 CG 22.54 CD 23.93 OE1 27.1 OE2 30.86
G LEU H 4 -65.0 -43.8 N 20.09 CA 19.61 C 19.27 O 18.83 CB 19.56 CG 19.9 CD1 19.87 CD2 17.94
G GLU H 41 -63.4 -44.2 N 20.45 CA 20.52 C 21.0 O 21.91 CB 20.78 CG 20.55 CD 20.67 OE1 13.79 OE2 18.96
G ASP H 82 -56.6 -43.8 N 21.51 CA 21.3 C 20.7 O 21.37 CB 22.36 CG 25.8 OD1 29.33 OD2 29.43
G TRP H 31 -62.0 -54.4 N 21.03 CA 20.94 C 20.53 O 21.47 CB 22.01 CG 20.79 CD1 23.65 CD2 23.43 NE1 23.65 CE2 24.12 CE3 23.3 CZ2 23.5 CZ3 22.89 CH2 21.63
G LEU H 0 -51.3 -51.2 N 20.55 CA 21.1 C 21.62 O 22.9 CB 20.08 CG 20.13 CD1 18.77 CD2 20.24
G TRP H 64 -92.1 -13.5 N 22.57 CA 23.67 C 24.64 O 25.66 CB 24.59 CG 24.19 CD1 24.16 CD2 22.95 NE1 24.59 CE2 25.34 CE3 22.8 CZ2 22.63 CZ3 24.72 CH2 23.89
G GLY H 55 -103.4 -48.4 N 24.77 CA 26.1 C 26.68 O 29.31
G GLU T 155 -124.4 -17.6 N 27.22 CA 26.51 C 26.39 O 25.65 CB 27.1 CG 31.06 CD 39.17 OE1 43.04 OE2 43.21
G SER S 9 -72.6 171.2 N 24.47 CA 23.9 C 23.36 O 23.48 CB 22.18 OG 22.03
G PRO T 31 -60.6 -15.2 N 22.38 CA 22.43 C 21.87 O 21.83 CB 23.17 CG 22.99 CD 22.76
G ILE T 1 -106.3 5.2 N 21.07 CA 21.8 C 22.28 O 21.6 CB 20.98 CG1 21.05 CG2 20.17 CD1 21.1
G ALA - 86 -65.7 360.0 N 23.4 CA 24.87 C 26.95 O 27.06 CB 24.93 OXT 27.19
H THR - 71 -87.7 163.4 N 37.64 CA 36.53 C 36.13 O 34.57 CB 36.79 OG1 35.52 CG2 38.08
H LYS H 150 -61.7 -42.5 N 35.2 CA 34.34 C 32.47 O 30.1 CB 35.1 CG 36.33 CD 38.11 CE 40.83 NZ 43.84
H LYS H 109 -58.6 -43.4 N 30.26 CA 30.04 C 26.84 O 27.31 CB 29.73 CG 31.82 CD 31.97 CE 34.31 NZ 37.3
H GLU H 3 -62.7 -44.6 N 26.03 CA 25.63 C 24.19 O 22.63 CB 26.19 CG 27.66 CD 29.51 OE1 27.86 OE2 32.99
H ARG H 97 -64.4 -40.6 N 23.1 CA 23.71 C 22.54 O 21.48 CB 24.37 CG 24.54 CD 24.7 NE 27.4 CZ 26.14 NH1 29.26 NH2 25.38
H ILE H 35 -70.2 -36.9 N 20.73 CA 21.18 C 19.72 O 19.93 CB 22.01 CG1 23.92 CG2 20.66 CD1 24.44
H ALA H 10 -61.2 -47.7 N 18.52 CA 18.77 C 17.69 O 17.73 CB 16.43
H ILE H 54 -55.1 -45.4 N 17.86 CA 18.31 C 17.41 O 16.21 CB 17.94 CG1 21.05 CG2 19.16 CD1 20.4
H GLN H 76 -61.5 -39.8 N 16.77 CA 16.58 C 15.61 O 13.04 CB 17.51 CG 17.68 CD 17.33 OE1 17.21 NE2 19.08
H ARG H 58 -68.3 -38.9 N 15.66 CA 16.11 C 15.66 O 15.6 CB 15.21 CG 16.41 CD 18.74 NE 21.35 CZ 23.28 NH1 22.96 NH2 21.91
H SER H 8 -59.6 -45.5 N 16.07 CA 15.93 C 16.53 O 15.56 CB 16.3 OG 14.43
H ALA H 10 -61.8 -37.2 N 15.8 CA 14.63 C 15.18 O 15.6 CB 14.25
H GLU H 12 -63.6 -38.0 N 15.22 CA 13.85 C 13.66 O 14.25 CB 13.48 CG 12.86 CD 13.16 OE1 14.68 OE2 16.8
H GLU H 75 -68.4 -40.3 N 12.86 CA 14.37 C 14.01 O 13.83 CB 15.66 CG 15.92 CD 22.02 OE1 29.92 OE2 31.95
H ALA H 53 -60.5 -48.1 N 13.57 CA 14.23 C 14.21 O 14.83 CB 14.06
H LEU H 1 -62.7 -39.9 N 14.5 CA 13.99 C 14.5 O 15.25 CB 14.22 CG 14.69 CD1 16.98 CD2 16.93
H GLY H 3 -58.0 -45.0 N 14.67 CA 14.98 C 15.39 O 15.55
H LYS H 111 -60.5 -46.7 N 15.53 CA 15.7 C 15.85 O 15.53 CB 15.37 CG 17.69 CD 21.15 CE 26.0 NZ 28.06
H LEU H 50 -60.9 -41.8 N 15.23 CA 15.21 C 15.47 O 14.63 CB 14.41 CG 14.72 CD1 16.45 CD2 14.04
H LYS H 35 -67.0 -37.5 N 16.02 CA 16.27 C 16.56 O 17.49 CB 15.38 CG 13.84 CD 14.86 CE 18.25 NZ 16.35
H ALA H 1 -54.6 -46.3 N 14.79 CA 15.07 C 15.0 O 16.67 CB 12.89
H ILE H 69 -52.9 -49.5 N 15.5 CA 15.42 C 15.7 O 15.81 CB 14.7 CG1 15.98 CG2 15.24 CD1 16.57
H ARG H 64 -54.3 -37.6 N 16.88 CA 18.64 C 18.97 O 19.79 CB 18.29 CG 20.71 CD 20.98 NE 24.63 CZ 22.54 NH1 24.73 NH2 25.42
H GLN H 20 -65.9 -18.6 N 17.7 CA 18.92 C 19.68 O 20.39 CB 17.09 CG 18.58 CD 21.82 OE1 21.42 NE2 22.74
H LEU T 74 -87.4 -4.4 N 19.82 CA 21.22 C 22.77 O 22.27 CB 20.34 CG 20.13 CD1 20.95 CD2 18.3
H CYS T 28 -57.1 125.7 N 22.91 CA 24.45 C 26.46 O 28.6 CB 23.51 SG 22.98
H GLY T 20 75.8 13.1 N 28.49 CA 29.27 C 32.48 O 34.49
H ALA T 21 -67.9 -18.5 N 33.87 CA 35.83 C 37.13 O 37.01 CB 34.68
H GLU T 140 -78.8 -7.0 N 39.3 CA 40.19 C 39.2 O 39.5 CB 40.91 CG 43.31 CD 49.52 OE1 54.17 OE2 52.09
H ASP - 82 -108.1 113.5 N 38.78 CA 38.06 C 38.19 O 39.35 CB 38.69 CG 37.34 OD1 35.23 OD2 38.96
H SER S 108 -69.1 -16.9 N 37.09 CA 35.41 C 34.68 O 33.33 CB 35.36 OG 33.14
H SER S 66 -83.3 -172.3 N 33.98 CA 33.47 C 32.87 O 32.51 CB 33.99 OG 32.61
H ASP - 148 -116.6 172.8 N 31.23 CA 30.37 C 29.18 O 27.71 CB 31.32 CG 35.49 OD1 40.11 OD2 40.19
H SER - 128 -160.1 360.0 N 26.54 CA 26.16 C 24.55 O 24.11 CB 26.11 OG 24.09
H GLN H 118 -67.7 -37.5 N 23.24 CA 24.48 C 22.26 O 21.9 CB 24.35 CG 27.74 CD 29.4 OE1 38.95 NE2 36.53
H GLU H 107 -66.1 -46.2 N 22.26 CA 22.71 C 21.83 O 21.9 CB 21.82 CG 23.37 CD 24.76 OE1 28.02 OE2 30.08
H VAL H 26 -59.0 -44.9 N 20.7 CA 21.21 C 21.7 O 21.73 CB 20.79 CG1 21.9 CG2 21.25
H GLU H 87 -59.1 -44.4 N 21.28 CA 21.47 C 21.26 O 19.27 CB 22.22 CG 20.51 CD 23.12 OE1 23.77 OE2 26.02
H ILE H 96 -53.3 -48.3 N 22.14 CA 21.78 C 20.77 O 19.08 CB 22.21 CG1 23.21 CG2 21.85 CD1 22.04
H TRP H 81 -64.6 -49.3 N 19.27 CA 20.49 C 21.07 O 21.14 CB 19.92 CG 19.19 CD1 18.32 CD2 18.66 NE1 20.34 CE2 19.3 CE3 20.37 CZ2 19.78 CZ3 18.97 CH2 20.76
H THR H 53 -49.6 -50.5 N 21.22 CA 22.43 C 22.39 O 22.47 CB 22.42 OG1 23.94 CG2 24.34
H ASN H 83 -65.5 -41.1 N 22.82 CA 22.99 C 22.54 O 22.45 CB 23.75 CG 24.83 OD1 30.06 ND2 27.36
H ARG H 163 -69.4 -39.2 N 21.96 CA 21.34 C 20.1 O 18.87 CB 22.19 CG 25.74 CD 30.21 NE 31.7 CZ 32.96 NH1 29.46 NH2 28.06
H ILE H 10 -67.3 -41.3 N 18.33 CA 19.02 C 19.39 O 18.57 CB 17.83 CG1 16.52 CG2 19.55 CD1 15.12
H LYS H 114 -59.6 -40.3 N 20.72 CA 22.09 C 20.62 O 21.32 CB 23.09 CG 24.34 CD 27.88 CE 29.34 NZ 33.22
H GLU H 107 -65.2 -46.9 N 21.06 CA 22.32 C 21.33 O 20.37 CB 22.18 CG 26.36 CD 28.07 OE1 36.75 OE2 37.89
H LEU H 61 -60.0 -44.0 N 20.6 CA 20.83 C 21.45 O 20.35 CB 21.09 CG 19.33 CD1 22.36 CD2 19.55
H GLU H 44 -66.5 -43.8 N 22.22 CA 23.31 C 23.44 O 23.82 CB 23.93 CG 28.74 CD 28.14 OE1 33.62 OE2 31.79
H ASP H 77 -58.1 -41.1 N 24.21 CA 24.31 C 24.07 O 24.01 CB 26.14 CG 28.94 OD1 34.31 OD2 36.29
H TRP H 110 -61.9 -49.3 N 22.42 CA 21.87 C 20.55 O 20.83 CB 21.68 CG 21.4 CD1 22.28 CD2 20.61 NE1 23.66 CE2 22.07 CE3 19.32 CZ2 24.27 CZ3 22.17 CH2 21.14
H LEU H 19 -55.9 -51.1 N 19.85 CA 19.65 C 19.85 O 20.51 CB 18.28 CG 17.67 CD1 16.89 CD2 17.62
H TRP H 64 -93.3 -13.7 N 20.92 CA 21.57 C 21.46 O 21.7 CB 21.66 CG 19.14 CD1 21.3 CD2 20.1 NE1 19.3 CE2 19.75 CE3 20.09 CZ2 17.98 CZ3 20.6 CH2 20.84
H GLY H 56 -102.6 -41.4 N 22.66 CA 23.96 C 24.26 O 24.62
H GLU T 137 -125.4 -21.7 N 24.81 CA 26.1 C 25.01 O 23.78 CB 26.51 CG 31.44 CD 33.46 OE1 42.94 OE2 44.77
H SER S 8 -71.7 169.7 N 23.75 CA 22.24 C 21.49 O 20.17 CB 20.97 OG 20.82
H PRO T 102 -59.0 -14.9 N 21.29 CA 21.94 C 21.7 O 20.46 CB 21.9 CG 22.14 CD 21.94
H ILE T 15 -108.1 11.4 N 20.85 CA 21.62 C 22.43 O 21.89 CB 20.86 CG1 20.82 CG2 19.07 CD1 21.64
H ALA - 84 -72.6 360.0 N 23.19 CA 23.84 C 25.89 O 26.08 CB 24.84 OXT 26.52
E THR - 151 360.0 -32.0 N 33.5 CA 32.7 C 31.74 O 28.78 CB 32.53 OG1 29.44 CG2 32.94
E LYS H 139 -56.8 -41.1 N 30.94 CA 31.32 C 30.62 O 29.02 CB 31.61 CG 33.49 CD 33.76 CE 37.53 NZ 39.54
E LYS H 181 -62.4 -43.8 N 29.4 CA 29.42 C 27.04 O 27.03 CB 29.96 CG 31.93 CD 32.2 CE 35.21 NZ 36.12
E GLU H 133 -61.4 -48.4 N 26.9 CA 27.36 C 25.89 O 24.69 CB 27.4 CG 29.63 CD 30.97 OE1 33.41 OE2 34.47
E ARG H 116 -56.8 -42.5 N 24.92 CA 24.29 C 23.4 O 21.2 CB 24.61 CG 24.44 CD 24.86 NE 24.85 CZ 28.36 NH1 28.88 NH2 29.08
E ILE H 34 -64.1 -40.4 N 21.92 CA 21.97 C 20.38 O 20.41 CB 22.11 CG1 23.81 CG2 21.94 CD1 23.67
E ALA H 56 -59.7 -41.9 N 19.38 CA 20.28 C 19.42 O 19.06 CB 19.92
E ILE H 89 -64.6 -43.5 N 19.22 CA 19.66 C 19.06 O 17.77 CB 19.65 CG1 22.13 CG2 20.33 CD1 21.66
E GLN H 72 -58.1 -41.7 N 17.61 CA 17.85 C 18.14 O 17.57 CB 17.44 CG 17.15 CD 18.6 OE1 19.71 NE2 23.19
E ARG H 91 -66.5 -39.7 N 17.63 CA 17.97 C 16.07 O 16.13 CB 17.45 CG 20.7 CD 20.34 NE 25.29 CZ 28.25 NH1 30.33 NH2 26.19
E SER H 69 -57.5 -50.2 N 16.14 CA 17.93 C 16.66 O 15.66 CB 18.2 OG 25.81
E ALA H 10 -59.0 -37.7 N 16.73 CA 16.76 C 15.94 O 16.76 CB 17.24
E GLU H 105 -60.8 -41.0 N 15.77 CA 15.1 C 15.16 O 14.17 CB 15.31 CG 13.66 CD 17.21 OE1 15.65 OE2 20.21
E GLU H 144 -66.6 -40.8 N 14.92 CA 16.05 C 15.64 O 14.77 CB 15.77 CG 19.31 CD 21.48 OE1 32.6 OE2 33.18
E ALA H 55 -60.1 -45.8 N 15.45 CA 15.42 C 15.16 O 15.68 CB 15.01
E LEU H 1 -62.3 -41.0 N 15.72 CA 15.61 C 16.66 O 17.17 CB 15.07 CG 17.66 CD1 18.01 CD2 21.11
E GLY H 39 -59.4 -38.1 N 16.85 CA 16.82 C 17.72 O 16.03
E LYS H 147 -70.0 -38.0 N 17.3 CA 18.06 C 17.39 O 16.51 CB 17.77 CG 19.84 CD 24.19 CE 26.71 NZ 26.94
E LEU H 52 -67.9 -43.3 N 17.89 CA 18.08 C 18.12 O 18.3 CB 17.76 CG 17.67 CD1 19.15 CD2 19.56
E LYS H 83 -60.8 -40.5 N 18.77 CA 18.21 C 17.9 O 18.16 CB 17.99 CG 17.74 CD 19.68 CE 20.95 NZ 20.87
E ALA H 51 -54.4 -41.1 N 16.84 CA 17.17 C 17.34 O 17.5 CB 17.67
E ILE H 71 -63.1 -47.1 N 17.31 CA 17.59 C 17.16 O 17.55 CB 16.77 CG1 18.54 CG2 18.99 CD1 18.83
E ARG H 52 -55.6 -38.5 N 18.25 CA 20.23 C 20.12 O 19.5 CB 20.45 CG 22.66 CD 24.16 NE 28.67 CZ 32.13 NH1 34.8 NH2 32.65
E GLN T 139 -62.5 -18.6 N 19.87 CA 20.44 C 21.33 O 21.09 CB 19.67 CG 17.62 CD 22.65 OE1 22.9 NE2 20.31
E LEU T 126 -88.0 -3.8 N 21.75 CA 22.33 C 23.24 O 22.64 CB 22.65 CG 19.93 CD1 21.71 CD2 17.74
E CYS T 25 -65.8 132.2 N 24.24 CA 24.71 C 25.1 O 24.05 CB 24.64 SG 25.19
E GLY T 22 69.6 12.6 N 27.54 CA 28.85 C 29.94 O 29.76
E ALA T 75 -64.3 -37.8 N 30.52 CA 31.2 C 31.72 O 33.13 CB 31.25
E GLU T 147 -72.7 -3.5 N 32.84 CA 34.15 C 35.48 O 35.5 CB 33.77 CG 34.03 CD 34.45 OE1 33.89 OE2 35.6
E ASP - 145 -84.7 360.0 N 36.57 CA 37.99 C 38.86 O 38.65 CB 38.81 CG 42.98 OD1 47.55 OD2 49.95
E GLN H 125 -62.2 -35.8 N 45.46 CA 44.44 C 41.52 O 40.53 CB 44.6 CG 47.75 CD 53.66 OE1 57.11 NE2 55.66
E GLU H 75 -59.2 -48.7 N 38.81 CA 36.27 C 34.21 O 33.07 CB 36.13 CG 36.06 CD 36.05 OE1 37.47 OE2 35.05
E VAL H 14 -62.4 -42.9 N 31.11 CA 30.3 C 30.07 O 28.6 CB 29.99 CG1 29.42 CG2 29.09
E GLU H 47 -65.4 -35.7 N 29.2 CA 29.59 C 27.83 O 28.72 CB 29.83 CG 33.36 CD 34.53 OE1 39.28 OE2 41.45
E ILE H 96 -54.0 -51.3 N 27.65 CA 26.99 C 25.33 O 25.28 CB 27.79 CG1 27.87 CG2 28.28 CD1 27.69
E TRP H 83 -60.0 -50.6 N 24.38 CA 23.39 C 23.88 O 21.11 CB 22.89 CG 21.23 CD1 22.79 CD2 20.36 NE1 23.59 CE2 23.22 CE3 20.82 CZ2 20.01 CZ3 21.43 CH2 22.06
E THR H 23 -46.5 -48.9 N 24.43 CA 24.68 C 24.87 O 25.82 CB 25.63 OG1 27.58 CG2 26.28
E ASN H 78 -66.9 -45.8 N 25.4 CA 25.16 C 24.51 O 24.18 CB 25.5 CG 29.34 OD1 33.47 ND2 34.08
E ARG H 124 -70.0 -36.3 N 24.54 CA 24.78 C 23.94 O 25.35 CB 25.61 CG 28.29 CD 31.23 NE 33.11 CZ 33.15 NH1 34.13 NH2 33.57
E ILE H 9 -64.3 -43.0 N 23.07 CA 22.76 C 23.31 O 22.98 CB 21.95 CG1 20.12 CG2 22.36 CD1 19.42
E LYS H 22 -59.7 -44.2 N 24.34 CA 25.67 C 25.72 O 25.11 CB 26.72 CG 29.76 CD 30.94 CE 34.83 NZ 38.35
E GLU H 103 -54.5 -51.2 N 25.77 CA 27.46 C 25.42 O 24.57 CB 27.46 CG 31.72 CD 33.58 OE1 42.73 OE2 41.41
E LEU H 47 -63.4 -42.4 N 24.8 CA 24.52 C 25.24 O 23.74 CB 24.51 CG 24.03 CD1 21.09 CD2 21.94
E GLU H 29 -65.7 -44.8 N 26.61 CA 28.02 C 28.08 O 25.82 CB 28.32 CG 29.63 CD 30.85 OE1 30.89 OE2 32.16
E ASP H 69 -58.1 -39.8 N 28.48 CA 28.88 C 28.02 O 29.75 CB 29.76 CG 31.85 OD1 33.96 OD2 37.5
E TRP H 109 -64.8 -49.2 N 27.68 CA 27.87 C 27.24 O 26.82 CB 28.16 CG 28.33 CD1 28.55 CD2 27.35 NE1 29.43 CE2 29.4 CE3 27.83 CZ2 28.39 CZ3 28.19 CH2 28.03
E LEU H 17 -55.3 -51.8 N 25.85 CA 23.69 C 23.21 O 23.72 CB 23.18 CG 22.01 CD1 18.44 CD2 22.56
E TRP H 71 -90.6 -10.5 N 24.05 CA 26.08 C 26.88 O 27.05 CB 25.85 CG 26.09 CD1 26.99 CD2 23.98 NE1 25.59 CE2 26.73 CE3 26.1 CZ2 23.83 CZ3 27.11 CH2 25.29
E GLY H 58 -111.0 -36.8 N 28.5 CA 29.54 C 30.93 O 32.1
E GLU T 156 -129.1 -19.1 N 30.61 CA 31.19 C 30.02 O 29.64 CB 31.78 CG 35.54 CD 37.3 OE1 46.32 OE2 43.11
E SER S 9 -72.4 169.8 N 27.98 CA 27.07 C 25.31 O 25.37 CB 26.8 OG 24.99
E PRO T 105 -58.0 -16.3 N 25.59 CA 26.11 C 26.4 O 26.26 CB 25.81 CG 26.26 CD 25.54
E ILE T 17 -108.1 8.7 N 25.24 CA 25.65 C 26.98 O 29.29 CB 25.2 CG1 24.79 CG2 21.57 CD1 23.5
E ALA - 86 -71.2 360.0 N 27.41 CA 28.19 C 29.18 O 29.1 CB 28.02 OXT 29.41
