A MET - 162 360.0 158.3 N 30.36 CA 29.6 C 28.64 O 28.72 CB 29.89 CG 31.48 SD 37.26 CE 18.25
A GLU - 97 -90.7 140.7 N 25.59 CA 25.17 C 22.1 O 20.4 CB 25.52 CG 30.01 CD 35.42 OE1 41.08 OE2 31.23
A ALA H 21 -55.8 -36.3 N 21.3 CA 20.48 C 18.45 O 18.36 CB 21.75
A LEU H 0 -63.0 -40.7 N 18.61 CA 18.34 C 17.52 O 17.42 CB 19.09 CG 20.55 CD1 24.05 CD2 18.19
A GLU H 68 -66.5 -39.6 N 16.81 CA 17.13 C 16.71 O 17.18 CB 17.11 CG 17.77 CD 19.9 OE1 18.86 OE2 22.38
A GLU H 41 -64.2 -38.8 N 16.51 CA 16.79 C 16.94 O 16.66 CB 16.99 CG 18.98 CD 20.48 OE1 25.13 OE2 24.02
A LEU H 0 -62.9 -45.9 N 15.83 CA 15.94 C 16.11 O 17.38 CB 16.73 CG 17.7 CD1 19.33 CD2 19.39
A MET H 37 -53.8 -44.7 N 16.51 CA 17.22 C 18.24 O 19.54 CB 16.96 CG 17.76 SD 18.64 CE 20.48
A LYS H 114 -70.9 -41.1 N 18.24 CA 19.81 C 19.96 O 21.97 CB 20.81 CG 23.12 CD 26.04 CE 28.65 NZ 33.5
A LEU H 45 -61.3 -42.0 N 18.76 CA 20.14 C 19.75 O 22.26 CB 20.18 CG 22.35 CD1 27.05 CD2 24.12
A LEU T 2 -89.0 1.3 N 19.77 CA 19.86 C 20.64 O 22.85 CB 20.15 CG 20.3 CD1 22.24 CD2 21.65
A ASN T 140 53.0 43.7 N 19.47 CA 20.41 C 19.77 O 21.61 CB 22.84 CG 28.3 OD1 39.84 ND2 35.2
A MET - 20 -73.1 145.1 N 18.8 CA 19.1 C 19.87 O 19.87 CB 18.35 CG 20.9 SD 21.48 CE 21.49
A LYS S 196 -75.6 -33.1 N 22.04 CA 23.52 C 22.47 O 25.15 CB 25.05 CG 28.01 CD 29.72 CE 32.27 NZ 35.72
A ASP S 95 -116.3 152.4 N 21.28 CA 21.38 C 19.26 O 18.73 CB 23.22 CG 27.58 OD1 32.71 OD2 33.5
A PHE - 68 -67.9 140.3 N 18.33 CA 17.33 C 16.38 O 16.09 CB 19.18 CG 18.15 CD1 19.46 CD2 19.93 CE1 20.18 CE2 23.53 CZ 19.68
A PRO - 0 -80.1 64.6 N 15.94 CA 16.23 C 15.77 O 16.64 CB 16.4 CG 18.42 CD 17.08
A TYR - 104 -67.7 -45.6 N 15.42 CA 15.02 C 14.9 O 15.55 CB 16.25 CG 16.17 CD1 18.04 CD2 18.68 CE1 18.15 CE2 18.55 CZ 19.06 OH 22.12
A ARG E 56 -112.8 119.0 N 14.38 CA 15.04 C 13.67 O 14.63 CB 16.33 CG 18.3 CD 21.98 NE 20.83 CZ 19.81 NH1 23.13 NH2 21.84
A ILE E 2 -117.6 130.7 N 14.56 CA 14.29 C 14.83 O 15.87 CB 15.27 CG1 15.5 CG2 16.62 CD1 17.17
A GLU E 1 -112.0 142.3 N 13.86 CA 14.36 C 14.15 O 16.29 CB 14.84 CG 14.86 CD 16.16 OE1 17.42 OE2 18.47
A GLY E 0 -123.6 134.9 N 15.1 CA 15.27 C 15.69 O 16.47
A ILE E 4 -125.9 137.8 N 15.56 CA 17.01 C 17.12 O 17.24 CB 18.07 CG1 21.88 CG2 21.19 CD1 25.45
A ASP E 16 -127.3 138.0 N 18.77 CA 20.06 C 20.35 O 20.49 CB 22.88 CG 25.59 OD1 32.8 OD2 33.44
A ILE E 12 -104.3 126.1 N 19.97 CA 21.45 C 22.76 O 24.64 CB 22.05 CG1 22.91 CG2 22.68 CD1 20.3
A SER E 29 -132.5 159.8 N 23.85 CA 28.11 C 30.67 O 28.58 CB 28.97 OG 32.89
A HIS - 97 -97.4 -33.1 N 34.88 CA 38.45 C 41.16 O 42.5 CB 39.52 CG 42.2 ND1 44.48 CD2 44.77 CE1 44.97 NE2 45.16
A LEU - 179 -132.0 360.0 N 43.1 CA 43.84 C 44.56 O 44.72 CB 44.69 CG 45.15 CD1 46.57 CD2 45.31
A TYR - 95 360.0 150.2 N 33.84 CA 32.75 C 31.31 O 30.87 CB 33.85
A THR - 19 -107.0 142.9 N 29.17 CA 26.9 C 25.32 O 25.67 CB 26.97 OG1 30.65 CG2 28.66
A VAL E 2 -123.4 130.8 N 22.8 CA 22.88 C 20.47 O 22.02 CB 24.03 CG1 25.68 CG2 25.88
A ALA E 0 -104.0 121.4 N 19.61 CA 19.14 C 18.66 O 20.97 CB 19.23
A SER E 0 -107.7 131.4 N 17.27 CA 18.18 C 17.11 O 19.57 CB 19.67 OG 22.8
A LEU E 2 -125.7 124.6 N 16.15 CA 16.39 C 15.68 O 16.96 CB 16.94 CG 18.94 CD1 22.27 CD2 19.46
A VAL E 0 -108.9 161.2 N 14.93 CA 15.58 C 15.03 O 15.66 CB 16.77 CG1 17.98 CG2 17.21
A VAL E 0 -134.3 128.9 N 15.29 CA 15.86 C 16.69 O 17.75 CB 16.48 CG1 18.78 CG2 16.06
A PHE E 3 -113.5 133.1 N 16.73 CA 17.83 C 17.9 O 20.11 CB 19.01 CG 19.44 CD1 22.73 CD2 20.13 CE1 23.54 CE2 19.91 CZ 21.8
A GLU E 60 -123.3 119.0 N 19.01 CA 19.49 C 18.69 O 20.02 CB 21.09 CG 26.54 CD 27.23 OE1 31.87 OE2 34.86
A ASP T 66 52.6 36.2 N 18.07 CA 19.29 C 19.95 O 21.89 CB 20.07 CG 19.91 OD1 22.39 OD2 22.33
A GLY T 17 90.2 -3.1 N 19.76 CA 22.57 C 22.37 O 25.74
A PHE E 133 -111.7 137.1 N 22.83 CA 24.26 C 23.32 O 22.16 CB 27.71 CG 30.22 CD1 33.75 CD2 32.92 CE1 33.04 CE2 33.45 CZ 33.48
A PRO E 51 -59.2 138.8 N 23.42 CA 22.48 C 21.92 O 24.69 CB 23.4 CG 26.52 CD 24.28
A LYS - 74 -119.2 85.9 N 20.82 CA 21.19 C 21.03 O 19.91 CB 23.57 CG 28.24 CD 31.51 CE 32.92 NZ 36.12
A LYS G 134 -64.7 -28.8 N 20.9 CA 20.42 C 20.08 O 19.45 CB 21.69 CG 25.8 CD 28.37 CE 33.15 NZ 35.84
A GLY G 80 -59.7 -20.3 N 18.61 CA 19.07 C 18.59 O 20.34
A ASP G 70 -102.0 1.1 N 19.69 CA 18.96 C 18.13 O 18.71 CB 20.58 CG 26.19 OD1 31.64 OD2 29.88
A TYR - 25 -67.9 154.6 N 16.93 CA 16.98 C 17.26 O 17.34 CB 17.7 CG 17.22 CD1 18.41 CD2 19.27 CE1 18.92 CE2 20.09 CZ 19.38 OH 21.85
A ARG E 102 -143.5 147.5 N 16.43 CA 17.47 C 17.45 O 19.6 CB 18.07 CG 23.66 CD 26.11 NE 34.47 CZ 33.55 NH1 33.16 NH2 32.43
A ARG E 58 -124.9 137.0 N 17.3 CA 19.19 C 19.51 O 22.04 CB 21.08 CG 22.04 CD 25.09 NE 26.85 CZ 25.66 NH1 25.58 NH2 27.0
A TYR E 5 -115.6 128.8 N 19.81 CA 22.11 C 23.65 O 24.22 CB 21.55 CG 21.08 CD1 19.38 CD2 21.58 CE1 20.39 CE2 21.7 CZ 21.17 OH 20.77
A LYS E 136 -95.3 134.7 N 27.57 CA 30.69 C 32.69 O 33.99 CB 31.89 CG 33.81 CD 34.76 CE 37.34 NZ 38.9
A ILE - 70 -128.8 360.0 N 34.36 CA 35.64 C 36.19 O 37.17 CB 36.07 CG1 37.99 CG2 35.96 CD1 37.8
A ASP - 111 360.0 79.1 N 26.41 CA 25.06 C 23.68 O 23.45 CB 25.5 CG 26.66 OD1 28.87 OD2 32.56
A ASP H 42 -63.9 -33.9 N 23.52 CA 23.74 C 22.19 O 21.95 CB 25.54 CG 29.12 OD1 31.29 OD2 35.08
A TYR H 125 -64.9 -43.4 N 21.85 CA 22.2 C 21.77 O 22.19 CB 24.79 CG 26.84 CD1 25.46 CD2 28.65 CE1 28.89 CE2 29.87 CZ 27.42 OH 30.67
A GLU H 110 -65.9 -39.8 N 21.2 CA 21.73 C 20.05 O 20.01 CB 22.74 CG 25.84 CD 29.4 OE1 38.81 OE2 38.33
A SER H 6 -61.5 -45.8 N 19.03 CA 18.49 C 18.29 O 18.1 CB 19.07 OG 22.41
A ILE H 0 -62.9 -44.1 N 18.67 CA 19.35 C 18.02 O 18.24 CB 20.92 CG1 22.27 CG2 22.26 CD1 24.88
A ARG H 77 -59.7 -43.6 N 18.64 CA 19.65 C 18.45 O 19.01 CB 20.45 CG 27.41 CD 29.85 NE 36.14 CZ 36.42 NH1 40.41 NH2 37.09
A THR H 46 -64.8 -46.2 N 17.89 CA 18.73 C 17.21 O 17.73 CB 19.61 OG1 22.42 CG2 21.55
A VAL H 2 -66.0 -43.6 N 16.66 CA 16.92 C 15.8 O 16.36 CB 17.92 CG1 20.45 CG2 23.31
A VAL H 3 -58.6 -46.0 N 15.33 CA 15.58 C 15.1 O 16.27 CB 17.83 CG1 19.52 CG2 18.97
A LYS H 56 -70.6 -39.9 N 15.28 CA 16.11 C 17.77 O 19.63 CB 16.56 CG 16.06 CD 17.56 CE 17.93 NZ 17.8
A ARG H 106 -59.7 -49.8 N 17.94 CA 19.2 C 18.76 O 21.16 CB 19.57 CG 26.57 CD 29.22 NE 35.13 CZ 36.79 NH1 36.37 NH2 39.86
A ARG H 11 -68.4 -51.4 N 16.76 CA 16.16 C 17.08 O 18.45 CB 16.11 CG 15.91 CD 15.77 NE 16.33 CZ 16.29 NH1 19.0 NH2 17.98
A TYR H 3 -82.7 -5.2 N 16.72 CA 17.52 C 20.88 O 23.67 CB 17.64 CG 15.79 CD1 15.25 CD2 17.25 CE1 15.23 CE2 17.94 CZ 15.91 OH 18.29
A SER T 84 -79.6 -10.9 N 20.26 CA 22.8 C 23.53 O 25.28 CB 22.69 OG 30.9
A LYS T 146 -117.6 -21.1 N 22.32 CA 23.42 C 21.77 O 25.18 CB 23.76 CG 27.78 CD 29.53 CE 34.62 NZ 35.53
A HIS S 75 -135.2 153.6 N 20.25 CA 19.04 C 17.74 O 17.66 CB 21.15 CG 24.19 ND1 30.44 CD2 27.04 CE1 29.96 NE2 28.13
A PRO - 108 -62.5 150.3 N 17.8 CA 18.13 C 16.36 O 16.84 CB 19.27 CG 22.57 CD 19.46
A LEU - 54 -63.9 148.0 N 16.54 CA 15.51 C 15.67 O 16.65 CB 16.19 CG 18.29 CD1 20.44 CD2 19.09
A PRO - 7 -75.8 175.9 N 14.79 CA 14.91 C 14.14 O 15.54 CB 15.2 CG 15.79 CD 16.27
A ASN S 44 -74.7 -24.1 N 13.99 CA 14.71 C 14.27 O 15.64 CB 14.79 CG 16.29 OD1 20.08 ND2 14.51
A LEU E 0 -153.7 136.9 N 14.59 CA 14.57 C 14.47 O 14.41 CB 15.22 CG 15.31 CD1 16.72 CD2 17.12
A LEU E 2 -109.7 125.1 N 13.9 CA 14.38 C 13.73 O 15.09 CB 15.01 CG 15.67 CD1 17.13 CD2 17.98
A PHE E 1 -100.9 132.4 N 14.26 CA 14.35 C 14.72 O 15.39 CB 16.32 CG 17.68 CD1 21.13 CD2 20.69 CE1 23.6 CE2 25.72 CZ 24.74
A VAL E 0 -118.3 127.3 N 15.26 CA 17.06 C 18.91 O 21.24 CB 19.89 CG1 24.25 CG2 20.1
A ASP S 28 -79.9 76.9 N 19.64 CA 22.37 C 25.26 O 29.02 CB 23.57 CG 24.93 OD1 32.05 OD2 33.06
A GLY S 16 179.0 175.7 N 25.93 CA 24.91 C 23.12 O 24.81
A GLY - 23 -90.7 -153.9 N 23.66 CA 23.4 C 22.16 O 21.41
A ILE H 58 -63.8 -36.7 N 21.21 CA 22.33 C 21.49 O 21.61 CB 24.45 CG1 26.79 CG2 26.69 CD1 30.64
A GLY H 25 -60.8 -46.5 N 20.6 CA 18.91 C 19.17 O 19.35
A GLN H 31 -70.4 -41.3 N 18.49 CA 19.42 C 17.44 O 17.52 CB 20.75 CG 24.92 CD 26.06 OE1 32.94 NE2 34.54
A VAL H 0 -57.6 -46.9 N 16.94 CA 16.88 C 17.16 O 16.94 CB 17.53 CG1 18.55 CG2 18.28
A ASN H 47 -68.5 -30.5 N 17.31 CA 17.97 C 17.28 O 18.0 CB 19.56 CG 22.07 OD1 23.43 ND2 26.32
A ALA H 11 -64.1 -40.4 N 17.61 CA 16.84 C 15.3 O 16.55 CB 17.85
A ALA H 0 -67.7 -43.4 N 14.91 CA 14.52 C 14.29 O 15.01 CB 14.94
A ILE H 39 -58.9 -45.4 N 15.22 CA 16.08 C 16.13 O 16.9 CB 16.88 CG1 18.26 CG2 19.94 CD1 21.06
A GLU H 97 -62.7 -43.5 N 16.13 CA 16.8 C 16.22 O 17.08 CB 19.15 CG 26.4 CD 32.04 OE1 33.31 OE2 37.67
A ALA H 0 -59.2 -45.1 N 15.17 CA 15.28 C 14.65 O 16.13 CB 15.72
A LEU H 4 -61.9 -45.3 N 14.84 CA 15.56 C 15.94 O 17.67 CB 15.78 CG 17.0 CD1 18.17 CD2 19.71
A LYS H 130 -61.4 -38.4 N 16.37 CA 18.54 C 17.79 O 19.18 CB 20.38 CG 25.25 CD 27.22 CE 31.73 NZ 34.74
A GLU H 99 -62.7 -25.9 N 16.51 CA 17.75 C 17.34 O 19.15 CB 17.79 CG 18.77 CD 23.53 OE1 29.11 OE2 28.4
A ILE T 54 -106.4 14.9 N 16.85 CA 18.49 C 18.13 O 19.99 CB 18.34 CG1 18.48 CG2 21.48 CD1 21.14
A GLY T 61 74.5 28.4 N 18.6 CA 20.25 C 21.07 O 22.13
A LYS - 70 -115.3 148.0 N 20.46 CA 22.55 C 22.64 O 25.01 CB 23.85 CG 25.79 CD 25.48 CE 28.95 NZ 27.76
A ASP - 135 -120.7 111.6 N 22.63 CA 23.97 C 21.64 O 24.84 CB 27.29 CG 31.4 OD1 38.56 OD2 38.5
A CYS - 21 -153.5 138.9 N 20.39 CA 18.98 C 17.63 O 19.21 CB 20.57 SG 23.76
A PRO - 45 -70.7 148.1 N 15.95 CA 16.89 C 15.86 O 15.29 CB 18.55 CG 19.36 CD 17.22
A VAL E 3 -128.0 132.6 N 15.5 CA 14.43 C 14.02 O 16.09 CB 14.93 CG1 15.45 CG2 15.62
A VAL E 0 -132.1 150.9 N 14.12 CA 14.39 C 14.43 O 15.14 CB 14.89 CG1 16.01 CG2 15.87
A GLY E 0 -139.7 -173.2 N 14.34 CA 15.9 C 16.19 O 15.77
A LEU E 13 -121.4 132.7 N 19.76 CA 21.14 C 24.0 O 24.87 CB 22.48 CG 20.06 CD1 21.76 CD2 21.42
A ALA - 79 -68.1 360.0 N 25.76 CA 26.07 C 27.56 O 30.24 CB 27.4
A THR - 52 360.0 124.4 N 23.16 CA 22.47 C 20.98 O 23.01 CB 22.58 OG1 26.94 CG2 24.33
A VAL E 0 -83.2 144.5 N 20.07 CA 19.51 C 19.43 O 22.23 CB 20.91 CG1 23.01 CG2 20.98
A VAL E 0 -107.9 120.1 N 17.59 CA 18.28 C 17.46 O 16.61 CB 20.22 CG1 22.14 CG2 23.52
A PHE E 11 -156.3 132.1 N 17.52 CA 17.99 C 17.85 O 20.15 CB 18.18 CG 17.96 CD1 19.95 CD2 21.99 CE1 23.02 CE2 22.2 CZ 24.14
A GLU T 133 48.6 46.3 N 19.94 CA 21.64 C 22.44 O 24.76 CB 22.11 CG 24.19 CD 27.13 OE1 33.25 OE2 32.86
A ASN T 105 65.2 25.8 N 21.79 CA 23.43 C 23.29 O 25.28 CB 24.39 CG 26.88 OD1 32.37 ND2 24.66
A ARG E 184 -142.3 168.3 N 24.24 CA 25.0 C 24.21 O 24.39 CB 26.79 CG 32.19 CD 38.17 NE 41.71 CZ 43.66 NH1 45.45 NH2 44.77
A GLU E 112 -115.7 144.9 N 24.42 CA 24.97 C 24.81 O 27.37 CB 25.29 CG 27.47 CD 26.97 OE1 36.66 OE2 37.07
A ILE E 52 -124.7 108.1 N 23.43 CA 23.5 C 20.78 O 22.84 CB 24.87 CG1 27.73 CG2 25.89 CD1 28.06
A HIS - 142 -78.2 131.2 N 19.97 CA 19.14 C 18.72 O 21.57 CB 19.37 CG 21.48 ND1 26.61 CD2 22.71 CE1 25.59 NE2 24.02
A LEU - 11 -119.5 149.0 N 16.36 CA 16.4 C 15.76 O 16.22 CB 16.93 CG 18.28 CD1 19.5 CD2 20.41
A PRO - 80 -59.0 150.8 N 15.71 CA 16.95 C 16.4 O 16.27 CB 18.21 CG 21.22 CD 17.74
A HIS T 125 -54.4 -40.8 N 17.02 CA 17.49 C 16.93 O 17.9 CB 19.14 CG 20.57 ND1 25.03 CD2 23.06 CE1 26.59 NE2 25.86
A ASP T 129 -94.3 7.7 N 16.13 CA 16.65 C 15.52 O 17.3 CB 17.88 CG 19.66 OD1 25.63 OD2 21.86
A HIS - 55 -58.8 133.1 N 15.73 CA 15.72 C 15.83 O 15.92 CB 15.84 CG 15.82 ND1 16.79 CD2 16.48 CE1 17.42 NE2 17.76
A PRO H 53 -62.2 -29.1 N 16.39 CA 16.78 C 16.59 O 16.61 CB 18.66 CG 19.33 CD 17.34
A VAL H 0 -71.9 -42.0 N 16.08 CA 15.39 C 15.15 O 15.61 CB 16.0 CG1 18.23 CG2 17.38
A LEU H 16 -59.5 -43.3 N 15.49 CA 15.82 C 16.1 O 16.71 CB 15.8 CG 16.87 CD1 18.15 CD2 18.3
A ARG H 84 -61.2 -40.4 N 16.15 CA 16.81 C 16.93 O 17.21 CB 18.57 CG 22.25 CD 29.34 NE 30.83 CZ 31.15 NH1 32.07 NH2 26.96
A LEU H 13 -65.2 -46.6 N 15.86 CA 16.08 C 15.51 O 16.03 CB 16.84 CG 17.65 CD1 21.6 CD2 21.73
A LEU H 0 -61.0 -39.1 N 15.1 CA 15.71 C 15.97 O 16.62 CB 15.81 CG 16.97 CD1 18.61 CD2 17.62
A VAL H 22 -63.2 -40.1 N 16.82 CA 17.76 C 17.47 O 18.86 CB 18.87 CG1 21.76 CG2 20.5
A GLN H 90 -61.0 -42.8 N 17.62 CA 18.92 C 18.01 O 18.62 CB 19.58 CG 24.85 CD 25.49 OE1 35.11 NE2 31.06
A ILE H 1 -64.4 -47.4 N 16.53 CA 17.0 C 17.54 O 18.2 CB 16.79 CG1 17.97 CG2 17.32 CD1 19.74
A ARG H 83 -55.3 -45.0 N 18.09 CA 19.98 C 21.16 O 22.51 CB 20.6 CG 22.9 CD 25.01 NE 24.19 CZ 24.83 NH1 23.42 NH2 26.71
A ASP H 64 -66.3 -33.5 N 21.33 CA 22.43 C 22.87 O 23.41 CB 24.27 CG 27.63 OD1 31.41 OD2 33.08
A GLU H 24 -71.0 -40.0 N 21.14 CA 21.17 C 20.29 O 21.53 CB 20.87 CG 22.14 CD 23.83 OE1 30.58 OE2 26.03
A THR H 0 -57.6 -44.2 N 20.91 CA 22.19 C 23.34 O 23.22 CB 23.2 OG1 21.85 CG2 24.12
A HIS H 97 -72.1 -43.3 N 25.23 CA 26.48 C 26.21 O 27.2 CB 28.16 CG 28.82 ND1 33.77 CD2 33.26 CE1 33.71 NE2 31.47
A ARG H 152 -51.9 -44.9 N 27.16 CA 26.75 C 25.0 O 26.76 CB 27.99 CG 28.71 CD 31.62 NE 37.15 CZ 36.09 NH1 34.27 NH2 38.51
A PHE H 25 -70.1 -42.0 N 22.94 CA 22.72 C 22.86 O 24.31 CB 20.3 CG 19.62 CD1 20.63 CD2 19.51 CE1 22.69 CE2 20.63 CZ 23.67
A ALA H 7 -61.3 -46.9 N 22.21 CA 23.65 C 23.94 O 24.47 CB 23.73
A VAL H 102 -73.0 -17.5 N 24.93 CA 27.15 C 28.04 O 28.16 CB 27.31 CG1 30.54 CG2 28.97
A SER T 77 -79.6 -5.5 N 28.86 CA 30.76 C 30.69 O 31.4 CB 32.23 OG 33.83
A TYR - 130 -83.3 360.0 N 29.13 CA 29.48 C 30.53 O 32.91 CB 28.17 CG 26.24 CD1 27.33 CD2 26.05 CE1 26.53 CE2 28.43 CZ 25.89 OH 29.32
