A GLY - 29 360.0 -30.2 N 38.05 CA 36.68 C 36.28 O 35.11
A THR - 73 -118.8 166.5 N 28.83 CA 27.12 C 25.1 O 24.2 CB 27.36 OG1 24.25 CG2 29.61
A VAL H 106 -69.0 -27.4 N 24.8 CA 24.93 C 24.05 O 25.02 CB 25.44 CG1 26.18 CG2 26.92
A GLY H 40 -59.8 -46.1 N 23.53 CA 22.1 C 21.01 O 20.17
A THR H 30 -58.3 -46.7 N 19.52 CA 18.72 C 18.64 O 17.0 CB 18.2 OG1 21.73 CG2 19.39
A TYR H 38 -64.4 -42.7 N 16.93 CA 17.65 C 17.25 O 17.45 CB 17.2 CG 17.11 CD1 14.3 CD2 16.53 CE1 14.88 CE2 16.15 CZ 17.67 OH 20.42
A ALA H 69 -66.7 -31.7 N 18.44 CA 18.58 C 17.82 O 17.98 CB 21.32
A GLU H 139 -77.2 -33.8 N 16.6 CA 16.38 C 15.95 O 16.35 CB 17.64 CG 19.05 CD 19.09 OE1 19.62 OE2 20.4
A LEU H 7 -99.9 -5.6 N 14.77 CA 14.47 C 13.04 O 12.38 CB 14.45 CG 15.22 CD1 14.59 CD2 16.58
A ALA H 23 -54.3 -42.2 N 14.53 CA 15.32 C 13.08 O 14.01 CB 16.81
A SER H 68 -69.9 -35.0 N 13.38 CA 14.1 C 12.43 O 12.36 CB 16.69 OG 21.39
A VAL H 2 -67.2 -47.2 N 11.06 CA 10.84 C 10.34 O 11.73 CB 12.39 CG1 11.45 CG2 12.25
A PHE H 0 -55.7 -46.1 N 9.23 CA 9.43 C 10.31 O 11.03 CB 10.15 CG 10.01 CD1 10.5 CD2 12.4 CE1 11.57 CE2 11.44 CZ 10.67
A ALA H 42 -60.1 -43.0 N 11.04 CA 12.35 C 12.02 O 13.14 CB 14.27
A ALA H 5 -61.9 -41.0 N 12.14 CA 11.78 C 11.56 O 13.67 CB 12.16
A LEU T 0 -85.4 3.3 N 10.23 CA 9.46 C 10.92 O 11.88 CB 9.53 CG 8.81 CD1 11.68 CD2 10.73
A SER T 37 -88.7 2.2 N 10.8 CA 12.42 C 13.11 O 13.32 CB 12.49 OG 12.08
A ASP - 46 -119.7 123.0 N 13.66 CA 16.22 C 15.99 O 16.26 CB 17.88 CG 23.0 OD1 30.79 OD2 30.55
A GLU H 94 -58.9 -39.4 N 16.41 CA 17.13 C 16.47 O 16.02 CB 18.66 CG 20.34 CD 24.73 OE1 25.29 OE2 27.54
A THR H 46 -59.9 -41.4 N 16.62 CA 16.35 C 15.39 O 14.36 CB 17.76 OG1 20.75 CG2 18.44
A ARG H 43 -64.2 -36.0 N 14.27 CA 12.07 C 11.43 O 11.74 CB 13.08 CG 13.48 CD 14.83 NE 17.19 CZ 19.47 NH1 19.45 NH2 19.05
A TRP H 1 -63.6 -38.1 N 11.55 CA 12.79 C 13.61 O 14.75 CB 13.07 CG 12.77 CD1 13.09 CD2 12.05 NE1 12.63 CE2 14.22 CE3 14.2 CZ2 14.49 CZ3 13.78 CH2 14.69
A GLU H 75 -60.8 -43.0 N 14.88 CA 15.39 C 15.34 O 16.19 CB 16.69 CG 20.34 CD 24.71 OE1 28.15 OE2 26.7
A ILE H 0 -67.4 -46.7 N 14.7 CA 14.08 C 13.61 O 13.92 CB 14.15 CG1 14.68 CG2 14.89 CD1 17.53
A LEU H 0 -59.9 -42.3 N 12.11 CA 12.22 C 12.95 O 15.19 CB 12.56 CG 13.42 CD1 15.97 CD2 12.08
A THR H 54 -63.0 -44.3 N 14.14 CA 15.99 C 16.02 O 16.17 CB 16.82 OG1 19.26 CG2 19.54
A GLU H 23 -56.7 -49.6 N 15.14 CA 15.4 C 15.58 O 16.34 CB 15.58 CG 20.18 CD 27.19 OE1 29.05 OE2 31.6
A LEU H 1 -74.5 -16.3 N 13.98 CA 13.6 C 13.88 O 13.07 CB 13.67 CG 11.43 CD1 15.51 CD2 9.97
A GLY H 5 -83.7 -19.7 N 13.07 CA 16.68 C 18.85 O 21.4
A ARG H 124 -84.1 -45.3 N 18.63 CA 19.45 C 19.08 O 19.04 CB 19.61 CG 19.79 CD 20.14 NE 21.24 CZ 23.72 NH1 25.68 NH2 25.37
A ALA S 3 -155.9 140.9 N 17.78 CA 16.19 C 16.06 O 17.3 CB 17.74
A ASP - 5 -59.1 131.2 N 15.64 CA 16.18 C 16.95 O 16.82 CB 16.32 CG 19.22 OD1 22.05 OD2 21.79
A GLN B 13 -139.3 153.4 N 14.65 CA 16.24 C 15.78 O 16.14 CB 17.56 CG 20.85 CD 24.95 OE1 27.26 NE2 28.05
A SER - 39 -81.0 166.4 N 15.59 CA 16.82 C 16.72 O 17.03 CB 17.89 OG 19.94
A ALA H 7 -60.2 -36.1 N 17.74 CA 18.28 C 18.77 O 19.46 CB 19.2
A SER H 66 -75.8 -26.2 N 18.64 CA 18.77 C 18.41 O 18.34 CB 18.81 OG 21.12
A SER H 46 -60.9 -51.4 N 17.54 CA 17.86 C 17.43 O 17.92 CB 17.38 OG 19.12
A LEU H 0 -59.2 -44.8 N 17.1 CA 16.88 C 18.06 O 19.15 CB 16.65 CG 15.55 CD1 15.66 CD2 14.59
A ALA H 32 -60.5 -34.4 N 17.6 CA 18.34 C 19.6 O 19.13 CB 19.82
A THR H 127 -72.9 -27.7 N 19.96 CA 22.25 C 21.79 O 22.44 CB 23.44 OG1 26.64 CG2 27.48
A ARG H 172 -85.9 -44.3 N 20.85 CA 20.78 C 19.98 O 20.06 CB 21.28 CG 23.43 CD 25.37 NE 26.29 CZ 26.45 NH1 28.26 NH2 26.48
A LEU S 26 -107.5 149.8 N 19.61 CA 18.82 C 18.73 O 19.47 CB 18.32 CG 19.45 CD1 18.61 CD2 21.3
A PRO S 136 -82.2 62.7 N 19.18 CA 19.73 C 19.11 O 19.4 CB 18.94 CG 20.56 CD 19.64
A VAL S 28 -139.2 134.6 N 19.27 CA 19.11 C 19.09 O 20.22 CB 17.67 CG1 19.48 CG2 16.3
A SER - 69 -67.1 155.6 N 20.45 CA 23.43 C 24.51 O 23.17 CB 23.54 OG 25.51
A ARG H 132 -57.2 -39.1 N 24.78 CA 25.64 C 25.6 O 25.82 CB 26.0 CG 28.25 CD 31.52 NE 33.51 CZ 35.22 NH1 36.23 NH2 35.71
A GLN H 145 -70.4 -36.0 N 25.46 CA 25.54 C 23.52 O 22.38 CB 27.21 CG 30.77 CD 35.29 OE1 37.73 NE2 35.98
A ALA H 26 -69.7 -39.7 N 21.01 CA 19.69 C 17.18 O 16.14 CB 20.13
A ILE H 0 -59.0 -45.8 N 15.63 CA 16.78 C 15.1 O 15.34 CB 16.46 CG1 16.61 CG2 16.43 CD1 20.94
A ALA H 29 -54.4 -44.7 N 15.66 CA 16.02 C 15.62 O 16.01 CB 17.75
A LYS H 134 -65.6 -45.9 N 17.23 CA 17.3 C 16.1 O 15.6 CB 20.01 CG 25.03 CD 31.99 CE 37.54 NZ 40.44
A HIS H 30 -59.7 -45.9 N 14.26 CA 13.7 C 12.39 O 11.96 CB 14.71 CG 14.92 ND1 16.89 CD2 18.55 CE1 20.01 NE2 20.3
A LEU H 2 -60.9 -41.2 N 11.43 CA 11.37 C 12.33 O 11.59 CB 13.71 CG 10.61 CD1 14.34 CD2 10.18
A ASN H 98 -63.5 -42.2 N 12.07 CA 12.34 C 11.3 O 13.68 CB 13.56 CG 17.07 OD1 20.34 ND2 21.16
A ALA H 43 -65.3 -45.0 N 12.17 CA 12.79 C 12.0 O 12.65 CB 13.28
A LEU H 0 -62.8 -39.8 N 10.88 CA 10.14 C 9.59 O 9.65 CB 10.15 CG 11.13 CD1 10.97 CD2 11.31
A GLN H 57 -68.8 -36.6 N 9.99 CA 9.76 C 10.78 O 13.05 CB 11.37 CG 10.04 CD 14.3 OE1 15.01 NE2 15.84
A ALA H 90 -65.7 -28.6 N 11.27 CA 12.65 C 13.17 O 16.43 CB 12.95
A CYS T 8 -103.5 7.7 N 12.0 CA 13.35 C 12.87 O 15.14 CB 14.86 SG 17.52
A GLY T 25 87.4 9.3 N 10.9 CA 11.47 C 10.86 O 12.95
A LEU S 0 -84.1 -18.8 N 10.06 CA 7.57 C 8.68 O 11.38 CB 7.64 CG 9.58 CD1 14.7 CD2 12.36
A VAL E 5 -136.2 144.8 N 8.81 CA 9.45 C 9.07 O 9.71 CB 8.63 CG1 9.61 CG2 9.35
A GLU E 37 -123.2 146.9 N 9.99 CA 12.21 C 11.76 O 13.24 CB 13.84 CG 14.79 CD 17.71 OE1 22.62 OE2 23.37
A SER E 42 -77.7 147.2 N 11.96 CA 13.37 C 13.89 O 15.59 CB 15.86 OG 19.63
A VAL E 6 -127.5 104.4 N 13.42 CA 14.92 C 15.62 O 16.6 CB 16.65 CG1 17.68 CG2 15.82
A LYS E 77 -112.3 115.9 N 15.41 CA 15.31 C 15.8 O 15.3 CB 14.97 CG 19.87 CD 21.99 CE 26.64 NZ 32.02
A VAL E 16 -117.8 115.4 N 16.45 CA 16.44 C 18.7 O 17.62 CB 16.65 CG1 18.83 CG2 16.46
A GLY T 3 53.1 -122.5 N 19.31 CA 21.66 C 23.13 O 23.03
A ARG T 182 -90.3 -11.5 N 23.56 CA 23.96 C 23.7 O 23.66 CB 25.01 CG 26.82 CD 29.27 NE 31.49 CZ 31.94 NH1 32.41 NH2 33.11
A GLU E 110 -87.2 128.4 N 23.04 CA 22.84 C 20.03 O 19.1 CB 22.69 CG 25.7 CD 28.6 OE1 33.43 OE2 34.71
A ILE E 78 -112.1 120.1 N 18.26 CA 16.85 C 16.12 O 18.08 CB 17.25 CG1 18.18 CG2 19.0 CD1 21.16
A ARG E 49 -126.7 172.2 N 14.34 CA 14.02 C 13.24 O 11.91 CB 14.04 CG 16.07 CD 22.25 NE 25.47 CZ 30.16 NH1 30.72 NH2 33.41
A TYR E 38 -128.4 153.8 N 11.48 CA 11.77 C 11.91 O 11.86 CB 12.86 CG 11.4 CD1 13.7 CD2 12.75 CE1 12.3 CE2 13.06 CZ 13.91 OH 18.05
A ARG E 22 -141.8 134.3 N 11.42 CA 11.81 C 12.23 O 12.0 CB 12.0 CG 12.84 CD 14.17 NE 16.27 CZ 15.2 NH1 19.29 NH2 19.29
A ALA E 4 -77.8 147.1 N 10.66 CA 10.84 C 12.94 O 12.67 CB 12.42
A LEU - 28 -123.2 134.4 N 11.86 CA 12.97 C 12.47 O 12.51 CB 12.67 CG 13.45 CD1 15.47 CD2 14.67
A GLY S 1 -78.5 -21.0 N 13.82 CA 13.5 C 13.37 O 14.42
A ALA H 64 -48.1 -48.1 N 14.5 CA 15.15 C 15.06 O 15.11 CB 15.93
A GLU H 49 -75.9 -25.2 N 14.84 CA 15.97 C 13.51 O 14.97 CB 16.6 CG 21.94 CD 31.55 OE1 38.55 OE2 35.5
A LEU H 0 -71.5 -38.1 N 14.29 CA 13.37 C 10.74 O 11.57 CB 13.49 CG 13.66 CD1 14.9 CD2 15.56
A ASN H 31 -67.6 -40.3 N 12.74 CA 13.49 C 13.29 O 12.8 CB 14.29 CG 18.16 OD1 20.95 ND2 20.53
A LYS H 80 -65.5 -45.4 N 12.54 CA 12.89 C 11.29 O 11.73 CB 13.51 CG 17.26 CD 20.68 CE 23.65 NZ 24.06
A THR H 0 -60.7 -44.4 N 9.9 CA 10.65 C 10.65 O 11.49 CB 12.43 OG1 13.92 CG2 14.25
A ALA H 1 -60.2 -41.1 N 10.36 CA 11.16 C 11.74 O 13.74 CB 12.3
A ARG H 146 -64.1 -41.3 N 13.04 CA 13.09 C 12.6 O 16.12 CB 15.48 CG 16.55 CD 17.53 NE 16.91 CZ 17.96 NH1 22.88 NH2 17.39
A THR H 20 -65.7 -44.6 N 11.7 CA 12.52 C 12.46 O 14.36 CB 13.42 OG1 18.94 CG2 15.53
A LEU H 1 -65.2 -31.2 N 12.12 CA 13.22 C 14.32 O 15.29 CB 13.21 CG 16.43 CD1 19.74 CD2 17.32
A GLU H 75 -65.6 -43.2 N 15.42 CA 16.68 C 16.71 O 16.97 CB 16.25 CG 20.02 CD 25.9 OE1 28.17 OE2 29.05
A ARG H 104 -67.4 -35.2 N 16.98 CA 16.95 C 16.09 O 15.86 CB 18.02 CG 21.21 CD 25.24 NE 27.77 CZ 27.92 NH1 28.65 NH2 27.36
A ILE H 4 -75.2 -40.0 N 15.09 CA 14.79 C 14.97 O 15.91 CB 14.19 CG1 13.55 CG2 14.94 CD1 13.72
A GLY H 0 -63.2 -40.6 N 15.46 CA 15.9 C 15.74 O 17.94
A ALA H 37 -62.0 -43.0 N 17.04 CA 19.37 C 18.63 O 20.12 CB 20.35
A GLU H 85 -65.3 -39.5 N 17.99 CA 17.83 C 16.12 O 16.26 CB 18.02 CG 21.93 CD 26.23 OE1 29.13 OE2 29.03
A TRP H 18 -63.6 -41.0 N 14.99 CA 13.91 C 14.44 O 14.22 CB 14.15 CG 13.9 CD1 14.41 CD2 14.95 NE1 16.18 CE2 16.24 CE3 17.22 CZ2 16.25 CZ3 14.58 CH2 15.33
A ASP H 64 -63.2 -45.9 N 15.12 CA 15.75 C 16.4 O 17.18 CB 17.2 CG 21.48 OD1 26.4 OD2 27.47
A ARG H 146 -60.1 -40.8 N 16.66 CA 18.08 C 16.23 O 15.83 CB 19.36 CG 21.07 CD 20.91 NE 21.75 CZ 23.46 NH1 24.39 NH2 25.57
A ARG H 118 -61.9 -51.4 N 14.83 CA 14.29 C 13.91 O 13.47 CB 15.69 CG 16.39 CD 18.74 NE 18.18 CZ 19.48 NH1 23.63 NH2 17.41
A LEU H 49 -54.9 -43.6 N 12.25 CA 13.95 C 12.48 O 13.78 CB 15.49 CG 16.71 CD1 19.42 CD2 20.15
A ALA H 34 -60.0 -41.9 N 13.66 CA 14.02 C 13.04 O 14.11 CB 16.43
A ALA H 44 -58.0 -45.2 N 12.38 CA 13.61 C 13.43 O 12.76 CB 13.3
A ILE H 78 -65.7 -43.4 N 13.3 CA 15.79 C 15.38 O 16.11 CB 18.05 CG1 19.42 CG2 21.9 CD1 23.76
A LYS H 130 -62.0 -40.5 N 14.39 CA 15.83 C 14.88 O 16.57 CB 16.07 CG 17.8 CD 19.1 CE 24.7 NZ 23.92
A GLN H 140 -69.2 -43.5 N 13.26 CA 14.06 C 14.32 O 16.12 CB 12.76 CG 15.45 CD 19.44 OE1 21.68 NE2 21.96
A ILE H 106 -70.4 -24.3 N 12.98 CA 15.3 C 14.98 O 18.1 CB 15.84 CG1 18.6 CG2 19.25 CD1 26.63
A ALA H 79 -65.1 -25.6 N 15.1 CA 15.45 C 17.9 O 18.95 CB 15.81
A GLU T 151 -80.7 -14.2 N 18.85 CA 22.61 C 24.75 O 26.7 CB 22.44 CG 23.51 CD 24.91 OE1 26.01 OE2 26.68
A SER - 79 -67.7 119.6 N 26.81 CA 29.04 C 30.89 O 31.29 CB 29.55 OG 32.76
B THR - 77 -98.4 166.6 N 45.41 CA 45.26 C 44.4 O 44.18 CB 45.61 OG1 45.76 CG2 45.96
B VAL H 88 -75.4 -17.4 N 43.18 CA 42.08 C 40.75 O 40.96 CB 42.63 CG1 42.44 CG2 41.83
B GLY H 43 -71.3 -36.7 N 38.8 CA 35.5 C 33.72 O 32.86
B THR H 24 -60.8 -48.1 N 31.0 CA 28.76 C 26.82 O 24.97 CB 28.96 OG1 30.77 CG2 28.64
B TYR H 26 -62.3 -47.4 N 24.46 CA 23.97 C 24.06 O 24.39 CB 23.33 CG 22.04 CD1 18.07 CD2 21.93 CE1 20.7 CE2 24.96 CZ 22.74 OH 25.03
B ALA H 70 -54.5 -38.7 N 23.97 CA 24.12 C 23.42 O 23.09 CB 25.57
B GLU H 133 -81.7 -37.4 N 22.36 CA 21.63 C 19.66 O 18.95 CB 22.53 CG 25.55 CD 30.43 OE1 33.35 OE2 32.77
B LEU H 6 -84.8 -8.1 N 18.64 CA 18.07 C 17.54 O 18.21 CB 18.42 CG 19.51 CD1 20.6 CD2 22.11
B ALA H 24 -52.9 -46.3 N 18.81 CA 18.77 C 18.91 O 19.73 CB 19.7
B SER H 67 -70.6 -34.8 N 19.08 CA 19.19 C 18.06 O 19.37 CB 21.0 OG 23.4
B VAL H 3 -63.1 -48.7 N 16.92 CA 16.05 C 16.22 O 16.98 CB 16.84 CG1 16.98 CG2 17.07
B PHE H 0 -56.4 -47.3 N 16.11 CA 15.45 C 15.99 O 17.17 CB 16.64 CG 15.44 CD1 15.31 CD2 16.44 CE1 15.1 CE2 15.97 CZ 16.29
B ALA H 41 -57.8 -43.4 N 15.6 CA 15.75 C 15.61 O 17.31 CB 16.6
B ALA H 4 -64.2 -37.0 N 15.64 CA 16.76 C 16.36 O 18.61 CB 16.21
B LEU T 0 -84.4 4.0 N 15.56 CA 15.48 C 15.65 O 16.36 CB 15.47 CG 15.1 CD1 15.43 CD2 15.85
B SER T 38 -86.9 8.9 N 15.73 CA 16.16 C 16.92 O 16.38 CB 15.7 OG 14.42
B ASP - 48 -133.2 124.6 N 17.44 CA 20.51 C 20.51 O 19.6 CB 21.43 CG 25.61 OD1 30.68 OD2 30.05
B GLU H 79 -65.9 -33.4 N 20.86 CA 21.03 C 20.78 O 20.83 CB 22.67 CG 24.45 CD 28.07 OE1 27.29 OE2 30.12
B THR H 41 -62.8 -40.0 N 20.12 CA 20.34 C 19.17 O 18.34 CB 21.88 OG1 24.29 CG2 22.01
B ARG H 39 -63.9 -33.4 N 18.21 CA 17.74 C 17.83 O 18.46 CB 17.35 CG 17.27 CD 18.89 NE 21.23 CZ 21.61 NH1 20.98 NH2 23.1
B TRP H 0 -63.1 -41.0 N 16.4 CA 17.99 C 19.17 O 20.51 CB 17.16 CG 17.91 CD1 17.47 CD2 18.92 NE1 17.67 CE2 18.36 CE3 19.54 CZ2 19.26 CZ3 18.07 CH2 19.18
B GLU H 72 -61.2 -42.8 N 19.78 CA 20.59 C 20.09 O 20.49 CB 21.18 CG 22.2 CD 23.5 OE1 25.25 OE2 26.74
B ILE H 0 -66.5 -44.9 N 19.55 CA 18.58 C 18.21 O 18.39 CB 18.84 CG1 19.04 CG2 17.92 CD1 21.0
B LEU H 0 -61.6 -41.8 N 19.01 CA 18.2 C 20.18 O 20.42 CB 18.22 CG 17.77 CD1 19.28 CD2 15.59
B THR H 41 -60.0 -44.5 N 21.34 CA 23.04 C 23.14 O 23.99 CB 24.43 OG1 26.93 CG2 26.88
B GLU H 35 -61.3 -44.7 N 23.03 CA 22.83 C 22.49 O 22.32 CB 23.79 CG 25.75 CD 28.38 OE1 28.65 OE2 30.31
B LEU H 0 -76.7 -16.4 N 20.98 CA 20.93 C 21.52 O 21.87 CB 19.08 CG 19.12 CD1 17.8 CD2 18.61
B GLY H 4 -80.5 -20.4 N 22.05 CA 23.66 C 24.72 O 25.64
B ARG H 198 -92.4 -30.7 N 25.19 CA 26.42 C 25.03 O 24.95 CB 26.32 CG 27.85 CD 29.09 NE 33.36 CZ 34.7 NH1 35.23 NH2 34.55
B ALA S 3 -157.4 137.6 N 24.2 CA 22.45 C 21.19 O 20.49 CB 23.52
B ASP - 4 -63.7 131.0 N 20.58 CA 19.88 C 19.03 O 20.61 CB 19.56 CG 22.29 OD1 22.68 OD2 22.62
B GLN B 3 -140.4 147.4 N 18.6 CA 18.91 C 18.03 O 17.93 CB 18.7 CG 22.01 CD 25.0 OE1 27.72 NE2 26.22
B SER - 34 -75.6 165.9 N 18.87 CA 19.0 C 19.12 O 19.39 CB 18.49 OG 20.26
B ALA H 33 -57.6 -35.1 N 18.72 CA 19.78 C 20.34 O 20.77 CB 19.04
B SER H 55 -66.0 -44.9 N 22.23 CA 23.54 C 23.8 O 24.37 CB 24.94 OG 29.59
B SER H 31 -55.5 -50.0 N 22.73 CA 22.39 C 22.53 O 22.83 CB 22.04 OG 20.37
B LEU H 0 -56.8 -43.5 N 21.98 CA 22.09 C 23.45 O 23.12 CB 21.81 CG 20.85 CD1 21.4 CD2 21.77
B ALA H 22 -67.2 -29.9 N 24.71 CA 26.19 C 27.72 O 28.08 CB 26.04
B THR H 121 -69.7 -30.8 N 29.27 CA 31.57 C 32.15 O 32.53 CB 32.11 OG1 33.93 CG2 33.11
B ARG H 145 -90.8 -34.1 N 32.03 CA 32.15 C 31.39 O 31.44 CB 32.63 CG 34.27 CD 36.41 NE 36.02 CZ 35.89 NH1 35.26 NH2 35.93
B LEU S 19 -116.9 145.4 N 30.61 CA 29.68 C 29.54 O 29.27 CB 29.11 CG 29.35 CD1 28.47 CD2 30.93
B PRO S 131 -78.3 60.8 N 29.2 CA 29.4 C 28.7 O 27.55 CB 29.43 CG 29.94 CD 29.59
B VAL S 23 -132.5 137.9 N 28.16 CA 27.04 C 27.4 O 27.16 CB 26.11 CG1 26.11 CG2 27.83
B SER - 67 -68.3 156.8 N 28.67 CA 30.69 C 30.72 O 29.3 CB 30.86 OG 31.73
B ARG H 150 -62.2 -35.7 N 30.92 CA 31.22 C 30.97 O 30.64 CB 31.34 CG 32.46 CD 34.76 NE 36.36 CZ 37.51 NH1 38.48 NH2 37.86
B GLN H 125 -61.7 -47.5 N 30.99 CA 30.95 C 30.14 O 30.02 CB 31.74 CG 33.74 CD 36.86 OE1 37.82 NE2 37.58
B ALA H 22 -63.2 -42.8 N 29.19 CA 27.39 C 25.35 O 24.51 CB 27.6
B ILE H 0 -60.5 -42.5 N 23.44 CA 21.71 C 21.84 O 20.76 CB 21.79 CG1 22.97 CG2 22.82 CD1 25.17
B ALA H 43 -59.2 -46.8 N 22.79 CA 23.65 C 23.73 O 24.59 CB 24.42
B LYS H 120 -63.0 -44.4 N 23.92 CA 23.88 C 22.1 O 23.23 CB 25.07 CG 31.72 CD 36.66 CE 40.66 NZ 42.65
B HIS H 25 -61.8 -46.1 N 19.41 CA 18.26 C 17.84 O 17.36 CB 18.31 CG 17.15 ND1 19.84 CD2 20.94 CE1 22.21 NE2 22.14
B LEU H 3 -57.6 -42.5 N 17.67 CA 17.57 C 19.29 O 18.78 CB 16.98 CG 15.33 CD1 19.77 CD2 18.11
B ASN H 102 -58.1 -47.0 N 20.62 CA 22.77 C 21.67 O 22.41 CB 24.98 CG 29.83 OD1 34.63 ND2 34.06
B ALA H 38 -57.3 -46.2 N 21.08 CA 20.52 C 19.58 O 20.32 CB 20.84
B LEU H 0 -71.3 -35.5 N 17.89 CA 17.8 C 18.71 O 17.53 CB 17.47 CG 15.43 CD1 15.43 CD2 14.9
B GLN H 41 -69.7 -36.3 N 19.2 CA 20.66 C 21.98 O 22.47 CB 21.94 CG 24.0 CD 28.11 OE1 29.65 NE2 29.93
B ALA H 90 -67.0 -29.7 N 21.5 CA 22.81 C 23.73 O 25.75 CB 23.02
B CYS T 11 -101.5 2.5 N 24.22 CA 23.47 C 23.17 O 25.05 CB 24.84 SG 25.03
B GLY T 26 88.0 13.9 N 21.04 CA 19.1 C 18.67 O 18.47
B LEU S 0 -82.6 -18.4 N 16.86 CA 15.28 C 15.41 O 16.19 CB 15.85 CG 15.54 CD1 17.9 CD2 19.68
B VAL E 2 -136.4 148.8 N 14.7 CA 15.29 C 16.2 O 16.48 CB 16.17 CG1 19.4 CG2 16.78
B GLU E 29 -126.1 148.5 N 16.07 CA 17.25 C 16.59 O 15.63 CB 17.71 CG 20.01 CD 20.68 OE1 24.23 OE2 26.67
B SER E 13 -78.1 149.6 N 15.67 CA 15.79 C 16.9 O 17.15 CB 17.49 OG 20.79
B VAL E 8 -129.3 111.0 N 15.78 CA 16.79 C 16.86 O 17.32 CB 18.05 CG1 17.95 CG2 17.96
B LYS E 83 -117.8 115.6 N 16.57 CA 17.64 C 19.01 O 17.88 CB 18.25 CG 19.17 CD 24.05 CE 25.32 NZ 28.05
B VAL E 18 -142.6 103.4 N 21.35 CA 24.5 C 25.96 O 28.52 CB 23.89 CG1 25.9 CG2 26.71
B GLY T 59 78.8 -134.7 N 28.46 CA 28.52 C 30.83 O 31.24
B ARG T 249 -76.3 -9.6 N 32.94 CA 34.89 C 34.28 O 34.9 CB 35.26 CG 36.7 CD 38.27 NE 44.12 CZ 45.97 NH1 47.05 NH2 48.01
B GLU E 89 -97.3 129.3 N 33.25 CA 31.71 C 28.15 O 28.4 CB 32.38 CG 36.84 CD 42.49 OE1 45.57 OE2 45.73
B ILE E 73 -115.8 119.1 N 25.11 CA 21.27 C 19.24 O 19.94 CB 22.49 CG1 23.27 CG2 24.2 CD1 27.99
B ARG E 45 -119.9 173.2 N 17.48 CA 16.61 C 15.71 O 15.43 CB 16.01 CG 17.07 CD 17.51 NE 21.54 CZ 21.44 NH1 25.1 NH2 20.14
B TYR E 38 -130.2 152.7 N 15.01 CA 15.08 C 15.35 O 16.31 CB 16.14 CG 15.95 CD1 16.63 CD2 18.78 CE1 18.02 CE2 19.58 CZ 18.84 OH 21.31
B ARG E 19 -137.6 132.9 N 15.1 CA 15.86 C 14.91 O 16.29 CB 16.87 CG 18.24 CD 19.39 NE 19.96 CZ 20.26 NH1 20.52 NH2 19.64
B ALA E 5 -78.2 139.9 N 16.28 CA 17.39 C 19.03 O 18.49 CB 18.04
B LEU - 31 -115.9 134.1 N 18.98 CA 19.22 C 20.16 O 19.83 CB 18.36 CG 18.72 CD1 18.19 CD2 19.53
B GLY S 1 -75.4 -19.4 N 20.65 CA 20.94 C 20.88 O 21.08
B ALA H 64 -48.1 -51.9 N 21.57 CA 23.04 C 22.83 O 22.54 CB 24.22
B GLU H 47 -71.0 -27.5 N 22.44 CA 22.23 C 21.12 O 22.3 CB 23.38 CG 26.66 CD 32.74 OE1 36.37 OE2 35.91
B LEU H 0 -66.3 -45.2 N 20.21 CA 21.0 C 21.12 O 20.81 CB 20.48 CG 19.11 CD1 21.46 CD2 19.14
B ASN H 32 -62.2 -45.5 N 21.54 CA 22.04 C 21.73 O 21.81 CB 22.8 CG 25.32 OD1 32.38 ND2 27.39
B LYS H 75 -61.7 -41.3 N 21.09 CA 21.11 C 19.91 O 19.38 CB 21.59 CG 24.73 CD 29.95 CE 32.82 NZ 33.27
B THR H 0 -65.9 -42.7 N 18.95 CA 19.21 C 19.93 O 20.61 CB 18.97 OG1 22.09 CG2 18.66
B ALA H 0 -63.3 -41.0 N 20.46 CA 21.57 C 22.78 O 22.95 CB 22.66
B ARG H 151 -58.5 -47.6 N 22.53 CA 24.11 C 23.98 O 25.15 CB 24.24 CG 25.75 CD 25.56 NE 24.56 CZ 27.44 NH1 28.87 NH2 25.1
B THR H 16 -65.3 -44.6 N 23.6 CA 23.53 C 22.46 O 22.49 CB 23.91 OG1 27.0 CG2 25.76
B LEU H 1 -66.2 -34.9 N 21.5 CA 21.49 C 22.38 O 21.91 CB 22.22 CG 23.26 CD1 24.48 CD2 24.32
B GLU H 77 -66.0 -44.9 N 23.01 CA 25.1 C 24.69 O 25.28 CB 26.52 CG 33.04 CD 40.86 OE1 43.63 OE2 45.19
B ARG H 105 -59.1 -50.2 N 24.42 CA 25.12 C 24.07 O 23.43 CB 26.94 CG 30.66 CD 34.89 NE 39.43 CZ 42.82 NH1 44.31 NH2 44.98
B ILE H 0 -61.6 -42.4 N 22.57 CA 21.9 C 20.97 O 21.43 CB 22.07 CG1 22.83 CG2 21.75 CD1 23.47
B GLY H 0 -63.0 -42.0 N 21.15 CA 19.22 C 20.35 O 20.75
B ALA H 51 -64.4 -39.2 N 20.49 CA 21.41 C 21.28 O 21.46 CB 21.27
B GLU H 29 -65.0 -42.8 N 20.06 CA 21.46 C 20.19 O 19.93 CB 21.61 CG 30.79 CD 38.93 OE1 41.92 OE2 43.04
B TRP H 9 -61.8 -41.7 N 19.06 CA 18.19 C 18.19 O 18.02 CB 18.66 CG 15.73 CD1 17.95 CD2 17.55 NE1 17.17 CE2 16.99 CE3 18.34 CZ2 18.06 CZ3 18.55 CH2 17.77
B ASP H 78 -62.9 -43.7 N 20.73 CA 21.45 C 21.14 O 19.77 CB 23.7 CG 28.97 OD1 31.94 OD2 32.65
B ARG H 159 -57.0 -50.0 N 20.9 CA 21.31 C 21.5 O 20.77 CB 22.18 CG 24.15 CD 26.94 NE 27.29 CZ 28.74 NH1 29.6 NH2 28.63
B ARG H 66 -62.9 -42.3 N 21.11 CA 21.64 C 21.54 O 21.86 CB 22.21 CG 24.72 CD 28.09 NE 30.46 CZ 33.13 NH1 35.19 NH2 32.69
B LEU H 66 -59.1 -45.6 N 20.93 CA 21.06 C 19.92 O 18.95 CB 22.22 CG 25.37 CD1 27.51 CD2 28.55
B ALA H 54 -62.5 -41.3 N 19.78 CA 20.76 C 21.34 O 22.21 CB 21.33
B ALA H 53 -62.7 -40.4 N 20.85 CA 21.36 C 21.22 O 20.61 CB 21.97
B ILE H 87 -63.5 -39.8 N 21.15 CA 22.14 C 22.5 O 21.8 CB 22.94 CG1 25.51 CG2 23.41 CD1 27.41
B LYS H 124 -62.7 -38.2 N 21.77 CA 22.69 C 21.66 O 21.12 CB 22.78 CG 26.81 CD 31.2 CE 35.46 NZ 38.94
B GLN H 111 -71.8 -36.9 N 21.29 CA 22.2 C 21.67 O 22.88 CB 23.04 CG 27.24 CD 31.07 OE1 33.96 NE2 31.03
B ILE H 107 -62.4 -44.9 N 21.01 CA 21.95 C 21.15 O 21.2 CB 23.25 CG1 25.19 CG2 23.82 CD1 28.16
B ALA H 45 -64.6 -37.7 N 20.77 CA 20.94 C 21.59 O 20.89 CB 21.39
B GLU H 130 -64.9 -31.1 N 22.87 CA 25.4 C 25.97 O 27.18 CB 26.16 CG 28.64 CD 33.66 OE1 37.6 OE2 33.17
B SER H 89 -86.0 -6.1 N 25.85 CA 26.12 C 26.16 O 25.29 CB 26.49 OG 27.41
B GLU - 239 -104.6 360.0 N 28.09 CA 30.0 C 29.23 O 29.6 CB 30.26 CG 31.6 CD 33.23 OE1 38.77 OE2 34.24
C VAL - 153 360.0 164.0 N 42.17 CA 41.38 C 39.73 O 40.91 CB 42.03 CG1 42.98 CG2 41.87
C GLY T 43 -73.4 1.4 N 37.04 CA 33.39 C 31.31 O 30.47
C THR H 30 -56.9 -43.7 N 29.38 CA 27.44 C 24.6 O 22.03 CB 28.86 OG1 32.3 CG2 27.89
C TYR H 42 -73.7 -38.7 N 23.71 CA 23.4 C 22.14 O 21.08 CB 24.4 CG 25.4 CD1 24.11 CD2 26.15 CE1 25.58 CE2 26.75 CZ 26.67 OH 29.12
C ALA H 50 -53.0 -42.2 N 20.87 CA 19.56 C 18.45 O 19.68 CB 20.64
C GLU H 92 -73.6 -37.0 N 17.53 CA 16.94 C 15.51 O 15.58 CB 17.75 CG 21.13 CD 26.2 OE1 28.14 OE2 28.05
C LEU H 5 -63.0 -47.3 N 14.98 CA 14.3 C 13.44 O 14.33 CB 14.77 CG 15.17 CD1 15.36 CD2 15.06
C ALA H 9 -60.6 -38.7 N 12.54 CA 12.49 C 12.9 O 13.37 CB 12.57
C SER H 48 -64.6 -45.9 N 12.61 CA 12.29 C 12.04 O 10.11 CB 13.02 OG 11.63
C VAL H 0 -60.2 -46.4 N 11.84 CA 11.93 C 10.87 O 11.99 CB 13.83 CG1 15.32 CG2 15.62
C PHE H 0 -69.1 -33.0 N 11.25 CA 9.27 C 9.45 O 11.66 CB 10.8 CG 9.39 CD1 10.22 CD2 8.9 CE1 10.29 CE2 12.9 CZ 12.43
C ALA H 37 -59.3 -41.2 N 10.17 CA 10.22 C 11.09 O 13.52 CB 10.96
C ALA H 4 -63.7 -43.6 N 11.03 CA 12.13 C 12.7 O 14.99 CB 12.45
C LEU H 2 -74.7 -21.3 N 11.58 CA 13.42 C 13.84 O 14.7 CB 11.6 CG 10.67 CD1 13.05 CD2 13.42
C SER T 33 -70.8 -10.5 N 14.1 CA 17.0 C 18.28 O 21.15 CB 16.4 OG 23.74
C ASP S 48 -100.4 125.2 N 18.52 CA 19.78 C 20.36 O 19.87 CB 20.85 CG 23.43 OD1 26.2 OD2 26.8
C GLU H 70 -61.9 -34.8 N 20.85 CA 21.15 C 20.34 O 20.78 CB 22.13 CG 24.4 CD 29.15 OE1 32.44 OE2 29.87
C THR H 31 -63.5 -43.6 N 19.93 CA 19.46 C 17.8 O 18.58 CB 20.54 OG1 23.56 CG2 22.53
C ARG H 35 -64.9 -35.6 N 16.51 CA 14.25 C 14.72 O 16.2 CB 14.83 CG 14.2 CD 13.03 NE 14.8 CZ 17.77 NH1 17.6 NH2 19.46
C TRP H 3 -60.8 -41.9 N 13.32 CA 16.1 C 16.69 O 16.93 CB 15.57 CG 15.47 CD1 16.91 CD2 15.66 NE1 17.84 CE2 16.71 CE3 17.53 CZ2 14.86 CZ3 16.96 CH2 16.13
C GLU H 63 -64.2 -42.6 N 18.14 CA 19.05 C 18.09 O 18.05 CB 19.45 CG 20.82 CD 22.04 OE1 25.51 OE2 22.89
C ILE H 0 -60.5 -47.7 N 17.95 CA 17.22 C 16.89 O 18.65 CB 17.0 CG1 17.9 CG2 16.5 CD1 16.5
C LEU H 1 -62.8 -33.8 N 16.34 CA 15.8 C 16.41 O 18.13 CB 15.49 CG 14.59 CD1 15.16 CD2 14.16
C THR H 22 -63.8 -45.9 N 16.57 CA 16.05 C 17.74 O 19.08 CB 15.05 OG1 16.61 CG2 17.52
C GLU H 21 -56.1 -60.2 N 18.06 CA 18.89 C 18.23 O 18.77 CB 19.76 CG 21.21 CD 23.03 OE1 23.62 OE2 25.18
C LEU H 5 -59.8 -36.1 N 19.2 CA 19.65 C 22.63 O 22.62 CB 21.12 CG 18.68 CD1 18.58 CD2 19.23
C GLY H 12 -44.2 -55.3 N 23.39 CA 25.8 C 26.95 O 29.08
C ARG H 150 -77.8 -24.9 N 27.38 CA 27.47 C 26.87 O 26.9 CB 28.29 CG 30.11 CD 33.26 NE 35.12 CZ 35.64 NH1 36.72 NH2 36.12
C ALA - 43 -169.1 133.5 N 26.48 CA 25.04 C 23.61 O 23.03 CB 26.84
C ASP - 46 -61.6 139.3 N 23.08 CA 22.78 C 21.85 O 20.93 CB 23.05 CG 25.11 OD1 28.62 OD2 27.28
C GLN B 12 -146.7 157.9 N 20.56 CA 21.53 C 20.04 O 19.66 CB 23.24 CG 27.71 CD 31.9 OE1 34.91 NE2 32.15
C SER - 5 -80.0 165.1 N 18.75 CA 17.84 C 17.47 O 18.03 CB 17.94 OG 19.94
C ALA H 25 -63.2 -38.2 N 17.88 CA 17.9 C 17.91 O 17.47 CB 18.45
C SER H 46 -61.3 -40.5 N 17.89 CA 19.71 C 18.64 O 19.72 CB 20.88 OG 25.42
C SER H 47 -62.4 -43.1 N 17.44 CA 18.05 C 17.34 O 18.91 CB 17.56 OG 22.43
C LEU H 0 -65.8 -40.7 N 15.6 CA 16.01 C 17.28 O 18.45 CB 17.01 CG 16.53 CD1 19.32 CD2 19.08
C ALA H 20 -65.4 -30.3 N 17.63 CA 18.99 C 18.82 O 20.54 CB 19.06
C THR H 115 -69.4 -36.7 N 18.72 CA 19.21 C 20.28 O 20.1 CB 19.68 OG1 21.92 CG2 20.64
C ARG H 153 -83.7 -29.9 N 19.97 CA 20.93 C 21.81 O 23.11 CB 21.41 CG 24.22 CD 30.98 NE 36.47 CZ 38.7 NH1 41.05 NH2 39.56
C LEU S 14 -110.0 157.6 N 21.77 CA 22.98 C 23.74 O 22.7 CB 22.46 CG 24.26 CD1 26.58 CD2 26.2
C PRO S 116 -83.1 32.5 N 25.14 CA 26.79 C 27.98 O 29.57 CB 26.14 CG 26.57 CD 26.37
C VAL S 38 -128.4 158.0 N 26.78 CA 27.17 C 26.23 O 26.06 CB 27.66 CG1 29.76 CG2 28.63
C SER - 65 -72.3 158.0 N 26.31 CA 26.11 C 25.39 O 24.38 CB 27.28 OG 28.81
C ARG H 166 -48.9 -32.6 N 24.61 CA 24.14 C 23.71 O 23.02 CB 24.25 CG 25.24 CD 24.84 NE 23.91 CZ 25.55 NH1 25.55 NH2 25.42
C GLN H 158 -71.7 -48.4 N 23.2 CA 22.87 C 22.35 O 20.71 CB 23.06 CG 24.24 CD 27.15 OE1 27.38 NE2 26.71
C ALA H 29 -61.3 -40.5 N 21.19 CA 21.23 C 19.68 O 19.82 CB 22.54
C ILE H 0 -60.2 -45.9 N 18.25 CA 16.19 C 15.85 O 15.67 CB 16.82 CG1 19.24 CG2 18.95 CD1 21.27
C ALA H 52 -63.2 -37.4 N 15.63 CA 13.63 C 13.94 O 16.26 CB 16.39
C LYS H 152 -64.2 -42.1 N 13.74 CA 15.44 C 14.64 O 15.97 CB 16.54 CG 22.51 CD 29.01 CE 32.37 NZ 33.17
C HIS H 21 -68.4 -39.4 N 14.01 CA 13.36 C 11.36 O 11.93 CB 14.25 CG 16.48 ND1 15.78 CD2 19.48 CE1 20.21 NE2 21.21
C LEU H 1 -63.5 -38.3 N 11.85 CA 12.5 C 12.65 O 12.98 CB 13.48 CG 12.66 CD1 16.56 CD2 16.2
C ASN H 107 -60.0 -44.2 N 11.85 CA 13.01 C 12.77 O 14.02 CB 14.13 CG 18.77 OD1 19.54 ND2 19.6
C ALA H 33 -63.8 -41.2 N 11.62 CA 12.97 C 13.11 O 14.13 CB 15.52
C LEU H 0 -65.7 -38.1 N 10.96 CA 11.78 C 12.35 O 14.47 CB 11.03 CG 11.79 CD1 11.45 CD2 12.65
C GLN H 63 -69.9 -40.3 N 11.96 CA 11.83 C 12.75 O 13.51 CB 13.22 CG 14.43 CD 18.77 OE1 22.31 NE2 18.37
C ALA H 85 -64.1 -24.7 N 12.58 CA 14.99 C 15.95 O 18.46 CB 15.06
C CYS T 14 -102.3 5.1 N 16.17 CA 17.68 C 17.82 O 19.45 CB 18.48 SG 18.8
C GLY T 26 90.1 7.2 N 16.03 CA 16.8 C 15.18 O 17.51
C LEU S 0 -86.0 -20.8 N 14.6 CA 13.44 C 13.07 O 14.78 CB 12.25 CG 13.54 CD1 18.14 CD2 13.66
C VAL E 5 -135.1 150.0 N 12.11 CA 13.32 C 14.11 O 13.78 CB 14.22 CG1 17.7 CG2 13.36
C GLU E 71 -129.8 152.8 N 14.64 CA 17.56 C 18.21 O 18.07 CB 19.42 CG 24.55 CD 33.21 OE1 36.02 OE2 37.06
C SER E 53 -96.9 153.0 N 20.49 CA 21.09 C 23.33 O 23.47 CB 23.49 OG 25.02
C VAL E 54 -149.8 135.7 N 22.5 CA 23.16 C 23.11 O 22.29 CB 23.06 CG1 23.79 CG2 22.23
C LYS E 154 -81.0 119.2 N 24.05 CA 24.33 C 24.08 O 25.98 CB 24.28 CG 25.37 CD 28.95 CE 31.37 NZ 32.39
C VAL E 56 -123.3 102.6 N 24.68 CA 25.53 C 25.34 O 25.57 CB 25.56 CG1 27.5 CG2 26.75
C GLY T 56 60.8 -122.5 N 25.8 CA 25.98 C 25.64 O 27.14
C ARG T 257 -96.5 12.5 N 25.14 CA 24.95 C 23.54 O 23.53 CB 25.13 CG 25.86 CD 26.07 NE 28.81 CZ 30.66 NH1 32.44 NH2 30.81
C GLU E 70 -136.9 158.6 N 22.53 CA 21.75 C 18.39 O 18.12 CB 23.12 CG 25.11 CD 26.69 OE1 32.75 OE2 30.34
C ILE E 72 -99.3 127.0 N 15.05 CA 13.97 C 14.57 O 15.8 CB 14.31 CG1 15.78 CG2 15.32 CD1 14.53
C ARG E 81 -106.3 164.2 N 15.26 CA 15.71 C 16.46 O 15.58 CB 16.74 CG 16.4 CD 18.29 NE 21.1 CZ 20.26 NH1 20.89 NH2 20.03
C TYR E 38 -122.7 138.9 N 16.17 CA 16.73 C 17.6 O 18.32 CB 16.78 CG 17.61 CD1 18.54 CD2 18.06 CE1 18.86 CE2 17.86 CZ 18.02 OH 21.74
C ARG E 70 -124.7 149.7 N 16.49 CA 16.73 C 16.23 O 15.29 CB 16.21 CG 16.58 CD 17.22 NE 18.38 CZ 15.12 NH1 11.4 NH2 15.77
C ALA E 8 -93.5 132.8 N 16.31 CA 15.78 C 18.21 O 19.57 CB 17.69
C LEU - 35 -106.0 108.3 N 17.46 CA 17.61 C 17.6 O 18.2 CB 17.7 CG 17.11 CD1 17.69 CD2 21.51
C GLY H 3 -61.4 -29.4 N 17.78 CA 17.76 C 17.94 O 18.86
C ALA H 71 -60.9 -32.6 N 18.93 CA 19.05 C 19.19 O 20.01 CB 20.54
C GLU H 23 -75.1 -33.9 N 17.95 CA 17.79 C 15.97 O 15.55 CB 17.6 CG 19.34 CD 25.96 OE1 30.11 OE2 30.98
C LEU H 3 -67.8 -40.4 N 15.19 CA 15.31 C 16.1 O 16.23 CB 15.47 CG 15.95 CD1 18.31 CD2 17.08
C ASN H 55 -66.4 -40.4 N 16.38 CA 17.84 C 16.34 O 17.06 CB 19.57 CG 24.75 OD1 31.06 ND2 30.13
C LYS H 83 -66.4 -41.8 N 16.2 CA 17.5 C 15.67 O 16.57 CB 16.94 CG 20.27 CD 22.67 CE 29.51 NZ 32.36
C THR H 3 -64.7 -43.4 N 14.71 CA 13.5 C 12.27 O 13.19 CB 11.92 OG1 13.98 CG2 13.47
C ALA H 0 -59.9 -42.9 N 13.38 CA 13.58 C 14.21 O 14.13 CB 14.63
C ARG H 114 -64.8 -39.4 N 14.8 CA 16.44 C 16.15 O 16.48 CB 17.29 CG 19.09 CD 23.52 NE 25.21 CZ 24.91 NH1 25.2 NH2 22.3
C THR H 8 -62.4 -45.2 N 14.66 CA 14.95 C 13.43 O 14.84 CB 16.53 OG1 16.82 CG2 14.13
C LEU H 0 -69.8 -33.6 N 12.93 CA 12.26 C 13.31 O 13.75 CB 11.14 CG 9.46 CD1 8.62 CD2 7.01
C GLU H 61 -63.1 -40.3 N 14.18 CA 15.47 C 14.8 O 16.63 CB 15.96 CG 20.56 CD 26.77 OE1 26.37 OE2 30.94
C ARG H 115 -61.1 -54.3 N 15.23 CA 15.72 C 14.81 O 12.59 CB 16.21 CG 18.55 CD 18.22 NE 22.51 CZ 21.46 NH1 24.0 NH2 22.02
C ILE H 10 -62.8 -49.9 N 14.22 CA 14.52 C 14.0 O 15.46 CB 15.2 CG1 14.98 CG2 13.11 CD1 14.31
C GLY H 0 -59.5 -33.5 N 13.18 CA 14.14 C 14.85 O 16.47
C ALA H 59 -65.4 -36.2 N 15.38 CA 16.87 C 16.4 O 18.57 CB 16.82
C GLU H 85 -71.5 -42.6 N 16.78 CA 16.32 C 16.04 O 16.43 CB 17.93 CG 18.51 CD 19.83 OE1 19.55 OE2 20.48
C TRP H 15 -61.6 -37.7 N 14.97 CA 14.11 C 13.73 O 14.8 CB 13.62 CG 13.0 CD1 12.24 CD2 12.05 NE1 12.67 CE2 14.64 CE3 14.27 CZ2 14.2 CZ3 12.26 CH2 13.64
C ASP H 57 -69.4 -39.1 N 14.61 CA 15.29 C 14.45 O 14.92 CB 15.62 CG 18.46 OD1 19.75 OD2 24.38
C ARG H 134 -58.4 -46.5 N 14.19 CA 15.16 C 15.2 O 14.91 CB 15.95 CG 16.21 CD 19.48 NE 22.27 CZ 24.3 NH1 26.13 NH2 25.03
C ARG H 26 -65.0 -47.0 N 14.43 CA 15.84 C 14.75 O 16.04 CB 15.56 CG 17.62 CD 16.6 NE 20.95 CZ 18.89 NH1 20.06 NH2 19.33
C LEU H 27 -57.2 -44.9 N 14.49 CA 15.64 C 17.48 O 18.26 CB 16.7 CG 17.71 CD1 20.82 CD2 20.3
C ALA H 56 -62.7 -39.2 N 17.31 CA 18.42 C 17.68 O 19.15 CB 19.31
C ALA H 21 -62.6 -50.8 N 17.37 CA 17.76 C 17.25 O 16.85 CB 19.55
C ILE H 9 -52.8 -50.8 N 17.36 CA 20.01 C 19.87 O 20.61 CB 20.06 CG1 20.36 CG2 21.96 CD1 20.41
C LYS H 102 -67.0 -30.9 N 20.1 CA 20.96 C 21.5 O 21.85 CB 21.52 CG 22.01 CD 25.18 CE 27.08 NZ 25.97
C GLN H 135 -67.2 -52.4 N 21.6 CA 22.26 C 22.73 O 22.95 CB 22.04 CG 22.38 CD 23.18 OE1 23.68 NE2 24.6
C ILE H 61 -70.0 -37.1 N 21.92 CA 23.42 C 21.96 O 22.45 CB 23.69 CG1 25.62 CG2 27.83 CD1 29.12
C ALA H 3 -78.3 -35.0 N 22.18 CA 21.77 C 23.24 O 23.7 CB 21.14
C GLU H 43 -127.8 -11.4 N 23.93 CA 27.06 C 29.18 O 29.11 CB 27.85 CG 30.16 CD 34.77 OE1 37.59 OE2 36.14
C SER - 82 -60.2 128.0 N 31.27 CA 34.43 C 35.33 O 35.71 CB 34.74 OG 39.0
D VAL - 134 360.0 0.2 N 42.36 CA 41.7 C 41.67 O 42.42 CB 42.04 CG1 42.52 CG2 41.48
D GLY H 62 -59.5 -30.0 N 41.24 CA 40.75 C 40.5 O 40.3
D THR H 39 -53.6 -43.1 N 39.91 CA 38.92 C 37.74 O 37.19 CB 39.67 OG1 40.96 CG2 40.44
D TYR H 24 -72.8 -27.4 N 36.52 CA 35.34 C 34.52 O 33.43 CB 35.11 CG 34.99 CD1 34.23 CD2 35.22 CE1 34.47 CE2 34.85 CZ 35.01 OH 34.51
D ALA H 50 -67.8 -39.5 N 34.08 CA 32.6 C 31.4 O 31.14 CB 32.78
D GLU H 50 -78.3 -40.5 N 29.81 CA 29.24 C 26.57 O 25.75 CB 30.82 CG 35.13 CD 40.16 OE1 41.98 OE2 43.85
D LEU H 2 -54.0 -47.8 N 23.52 CA 21.26 C 19.56 O 18.69 CB 21.53 CG 23.99 CD1 25.19 CD2 20.73
D ALA H 10 -62.5 -40.9 N 18.8 CA 19.01 C 19.31 O 19.92 CB 19.86
D SER H 45 -66.0 -41.9 N 20.07 CA 20.28 C 19.32 O 19.54 CB 21.76 OG 25.37
D VAL H 0 -61.0 -49.1 N 16.81 CA 17.33 C 16.2 O 16.86 CB 17.94 CG1 17.58 CG2 18.62
D PHE H 0 -66.6 -34.5 N 15.32 CA 15.12 C 15.62 O 15.88 CB 14.98 CG 13.81 CD1 13.7 CD2 13.33 CE1 15.18 CE2 16.3 CZ 16.89
D ALA H 35 -59.6 -41.5 N 17.11 CA 16.39 C 16.45 O 19.25 CB 16.36
D ALA H 5 -62.7 -42.0 N 16.69 CA 16.57 C 16.12 O 18.08 CB 18.51
D LEU H 2 -76.8 -15.5 N 15.79 CA 17.72 C 19.1 O 20.6 CB 17.54 CG 15.93 CD1 15.18 CD2 17.18
D SER T 31 -77.4 -10.7 N 20.43 CA 21.06 C 21.6 O 24.49 CB 20.61 OG 24.87
D ASP S 57 -101.4 133.7 N 20.94 CA 20.44 C 19.59 O 18.73 CB 21.26 CG 24.05 OD1 26.76 OD2 27.35
D GLU H 93 -69.8 -39.5 N 19.24 CA 20.23 C 19.87 O 20.31 CB 20.0 CG 22.96 CD 24.66 OE1 28.61 OE2 31.53
D THR H 52 -72.6 -35.5 N 19.34 CA 19.57 C 17.32 O 18.45 CB 19.24 OG1 21.21 CG2 19.45
D ARG H 36 -64.8 -37.3 N 16.9 CA 16.18 C 16.93 O 17.89 CB 16.98 CG 15.28 CD 17.12 NE 16.93 CZ 16.96 NH1 18.63 NH2 19.66
D TRP H 4 -58.8 -44.3 N 16.47 CA 16.59 C 15.86 O 15.8 CB 17.78 CG 19.35 CD1 20.47 CD2 19.51 NE1 19.39 CE2 18.65 CE3 20.42 CZ2 19.91 CZ3 20.86 CH2 20.55
D GLU H 50 -58.2 -41.4 N 15.07 CA 15.54 C 15.76 O 16.22 CB 15.5 CG 15.37 CD 16.58 OE1 21.13 OE2 16.82
D ILE H 0 -69.5 -48.1 N 15.34 CA 15.74 C 14.66 O 16.53 CB 15.46 CG1 14.96 CG2 17.86 CD1 17.05
D LEU H 0 -58.3 -40.3 N 15.01 CA 15.65 C 17.29 O 19.3 CB 14.89 CG 16.43 CD1 13.89 CD2 13.04
D THR H 11 -66.0 -41.6 N 18.53 CA 19.96 C 19.53 O 20.99 CB 22.14 OG1 28.27 CG2 21.97
D GLU H 7 -62.7 -43.9 N 18.27 CA 16.75 C 16.06 O 16.33 CB 17.11 CG 20.51 CD 25.54 OE1 28.42 OE2 30.87
D LEU H 3 -59.9 -35.1 N 14.61 CA 14.63 C 16.51 O 19.23 CB 14.27 CG 13.56 CD1 16.06 CD2 15.04
D GLY H 7 -64.0 -28.2 N 17.17 CA 18.88 C 20.01 O 21.61
D ARG H 108 -74.3 -38.1 N 20.65 CA 22.11 C 21.53 O 23.28 CB 23.24 CG 25.9 CD 33.03 NE 38.14 CZ 41.5 NH1 41.02 NH2 43.7
D ALA - 39 -175.0 147.5 N 19.25 CA 18.35 C 17.65 O 17.22 CB 19.11
D ASP - 33 -62.1 147.2 N 18.18 CA 18.36 C 17.3 O 19.0 CB 20.07 CG 26.19 OD1 32.05 OD2 33.8
D GLN B 9 -160.0 164.4 N 16.8 CA 16.34 C 15.48 O 15.31 CB 17.27 CG 18.59 CD 18.38 OE1 19.0 NE2 19.08
D SER - 12 -81.8 167.3 N 14.71 CA 14.97 C 15.29 O 15.83 CB 15.4 OG 14.64
D ALA H 41 -60.5 -35.9 N 16.32 CA 16.91 C 17.47 O 19.23 CB 17.25
D SER H 70 -59.5 -48.7 N 18.84 CA 19.6 C 19.55 O 20.45 CB 20.85 OG 27.56
D SER H 43 -70.7 -25.7 N 18.52 CA 18.64 C 18.02 O 17.12 CB 18.4 OG 20.37
D LEU H 0 -66.5 -40.3 N 17.81 CA 16.75 C 17.19 O 16.93 CB 16.59 CG 15.64 CD1 16.2 CD2 15.86
D ALA H 16 -64.3 -42.5 N 16.82 CA 17.87 C 18.97 O 19.31 CB 17.87
D THR H 120 -64.3 -40.5 N 19.23 CA 20.4 C 20.57 O 20.73 CB 20.19 OG1 21.48 CG2 21.83
D ARG H 150 -86.9 -26.3 N 20.71 CA 21.52 C 21.43 O 23.24 CB 22.21 CG 22.65 CD 25.16 NE 25.98 CZ 29.68 NH1 32.35 NH2 32.59
D LEU S 19 -115.9 150.5 N 20.48 CA 20.06 C 21.05 O 20.19 CB 21.16 CG 20.49 CD1 20.28 CD2 22.93
D PRO S 114 -78.4 65.8 N 20.24 CA 20.54 C 19.37 O 20.03 CB 18.68 CG 21.98 CD 21.01
D VAL S 27 -140.5 157.2 N 20.38 CA 18.78 C 19.35 O 19.86 CB 20.39 CG1 22.45 CG2 20.6
D SER - 60 -86.6 153.0 N 17.95 CA 18.07 C 16.87 O 17.99 CB 18.71 OG 17.74
D ARG H 162 -58.8 -31.9 N 16.02 CA 16.18 C 16.86 O 17.8 CB 16.77 CG 17.93 CD 19.9 NE 22.59 CZ 22.72 NH1 24.13 NH2 22.49
D GLN H 155 -62.3 -48.4 N 16.53 CA 18.49 C 16.89 O 18.48 CB 19.67 CG 21.05 CD 22.4 OE1 23.95 NE2 27.32
D ALA H 12 -64.5 -43.7 N 16.82 CA 15.9 C 15.65 O 14.93 CB 16.35
D ILE H 2 -58.9 -44.0 N 14.73 CA 15.24 C 15.38 O 15.81 CB 15.28 CG1 15.15 CG2 17.06 CD1 19.85
D ALA H 63 -60.8 -49.4 N 15.81 CA 16.21 C 16.51 O 16.38 CB 17.43
D LYS H 129 -63.2 -40.2 N 15.9 CA 16.73 C 15.95 O 15.72 CB 16.31 CG 18.09 CD 18.96 CE 22.69 NZ 26.34
D HIS H 10 -79.6 -32.0 N 15.47 CA 14.55 C 14.73 O 15.7 CB 14.63 CG 16.55 ND1 17.08 CD2 15.54 CE1 18.27 NE2 17.94
D LEU H 4 -65.7 -40.9 N 15.05 CA 14.68 C 16.17 O 17.09 CB 14.65 CG 15.09 CD1 16.43 CD2 15.21
D ASN H 109 -59.1 -46.7 N 17.1 CA 17.35 C 17.52 O 17.68 CB 18.34 CG 19.86 OD1 22.24 ND2 19.7
D ALA H 30 -65.0 -41.1 N 16.33 CA 17.15 C 16.74 O 17.99 CB 17.7
D LEU H 0 -63.5 -37.9 N 14.32 CA 14.23 C 14.88 O 15.45 CB 13.05 CG 14.21 CD1 12.17 CD2 11.82
D GLN H 61 -69.7 -39.2 N 14.47 CA 15.79 C 15.78 O 17.38 CB 16.24 CG 19.63 CD 23.37 OE1 25.98 NE2 24.26
D ALA H 84 -70.8 -21.1 N 16.8 CA 18.91 C 21.02 O 22.44 CB 19.53
D CYS T 13 -103.9 0.3 N 21.93 CA 22.92 C 22.7 O 25.35 CB 23.66 SG 25.05
D GLY T 26 90.0 12.7 N 22.31 CA 20.57 C 19.44 O 20.85
D LEU S 0 -88.6 -16.9 N 17.73 CA 16.0 C 16.35 O 16.72 CB 16.21 CG 17.71 CD1 16.55 CD2 18.61
D VAL E 4 -139.0 153.1 N 15.53 CA 15.39 C 17.44 O 17.68 CB 16.16 CG1 14.22 CG2 14.27
D GLU E 81 -133.0 154.9 N 18.03 CA 20.7 C 20.64 O 19.94 CB 21.3 CG 24.51 CD 27.04 OE1 31.71 OE2 34.04
D SER E 55 -99.3 141.8 N 21.02 CA 22.05 C 22.86 O 23.3 CB 23.92 OG 27.27
D VAL E 36 -131.9 131.9 N 22.22 CA 22.46 C 20.92 O 19.09 CB 22.8 CG1 26.24 CG2 24.5
D LYS E 165 -79.2 120.5 N 21.46 CA 20.41 C 19.45 O 20.73 CB 21.88 CG 21.7 CD 25.91 CE 27.14 NZ 29.38
D VAL E 60 -123.4 97.0 N 17.49 CA 16.81 C 16.78 O 16.46 CB 16.91 CG1 16.3 CG2 16.76
D GLY T 61 61.6 -118.4 N 18.34 CA 19.66 C 20.37 O 21.21
D ARG T 215 -98.7 5.9 N 20.48 CA 20.34 C 19.48 O 18.01 CB 21.55 CG 24.58 CD 29.64 NE 33.06 CZ 32.37 NH1 31.92 NH2 32.86
D GLU E 36 -121.8 158.6 N 18.37 CA 19.65 C 18.21 O 16.83 CB 19.71 CG 22.79 CD 23.49 OE1 24.99 OE2 29.59
D ILE E 78 -100.7 126.7 N 16.02 CA 14.77 C 15.37 O 15.96 CB 14.3 CG1 13.17 CG2 14.6 CD1 16.62
D ARG E 84 -114.1 161.5 N 13.95 CA 14.81 C 15.37 O 16.94 CB 16.2 CG 15.07 CD 21.59 NE 24.44 CZ 25.23 NH1 24.49 NH2 29.21
D TYR E 39 -113.6 137.8 N 14.78 CA 16.5 C 17.29 O 17.36 CB 18.08 CG 17.45 CD1 17.7 CD2 17.76 CE1 20.27 CE2 19.71 CZ 21.21 OH 22.96
D ARG E 81 -124.2 133.0 N 19.8 CA 21.12 C 20.45 O 19.87 CB 22.06 CG 22.58 CD 26.89 NE 31.53 CZ 33.96 NH1 34.2 NH2 34.86
D ALA E 12 -78.0 141.4 N 19.8 CA 20.46 C 23.03 O 22.46 CB 22.04
D LEU - 48 -109.6 93.2 N 23.87 CA 25.67 C 26.4 O 26.58 CB 25.67 CG 27.49 CD1 27.44 CD2 27.61
D GLY H 5 -61.4 -25.8 N 26.88 CA 27.27 C 28.6 O 28.77
D ALA H 72 -55.8 -37.3 N 28.78 CA 29.93 C 30.16 O 30.36 CB 30.42
D GLU H 29 -73.2 -36.2 N 30.15 CA 30.14 C 29.84 O 29.17 CB 30.67 CG 31.91 CD 35.15 OE1 38.76 OE2 36.28
D LEU H 2 -62.2 -46.4 N 30.05 CA 30.96 C 31.92 O 32.25 CB 30.56 CG 28.91 CD1 29.16 CD2 28.66
D ASN H 38 -63.4 -38.7 N 32.21 CA 32.33 C 32.33 O 31.98 CB 32.69 CG 33.75 OD1 34.18 ND2 35.17
D LYS H 91 -65.4 -42.1 N 31.49 CA 31.59 C 30.14 O 29.96 CB 32.19 CG 33.34 CD 33.54 CE 35.59 NZ 37.59
D THR H 1 -64.0 -46.5 N 27.48 CA 25.83 C 24.76 O 23.47 CB 25.52 OG1 26.57 CG2 24.99
D ALA H 0 -62.9 -40.8 N 25.34 CA 26.04 C 27.54 O 28.06 CB 26.59
D ARG H 186 -68.8 -39.0 N 28.47 CA 30.18 C 29.54 O 29.88 CB 31.79 CG 36.01 CD 42.49 NE 48.84 CZ 50.82 NH1 52.01 NH2 51.18
D THR H 14 -63.9 -44.3 N 28.68 CA 27.67 C 26.65 O 26.26 CB 28.48 OG1 29.9 CG2 27.12
D LEU H 0 -63.7 -35.7 N 24.68 CA 25.15 C 25.85 O 25.0 CB 23.63 CG 23.76 CD1 24.12 CD2 24.11
D GLU H 63 -68.6 -36.7 N 26.47 CA 27.0 C 27.0 O 27.14 CB 27.66 CG 28.11 CD 29.37 OE1 29.53 OE2 30.64
D ARG H 111 -65.8 -53.7 N 27.09 CA 27.13 C 26.6 O 25.94 CB 27.71 CG 29.83 CD 32.31 NE 32.94 CZ 33.62 NH1 33.99 NH2 33.73
D ILE H 2 -56.5 -47.9 N 25.78 CA 24.79 C 23.81 O 22.1 CB 24.86 CG1 25.97 CG2 25.18 CD1 26.61
D GLY H 0 -55.8 -47.8 N 22.76 CA 22.79 C 23.15 O 22.78
D ALA H 35 -55.3 -40.2 N 23.8 CA 24.9 C 24.69 O 25.81 CB 24.67
D GLU H 69 -71.4 -32.5 N 25.05 CA 24.81 C 24.41 O 23.88 CB 25.59 CG 27.27 CD 30.67 OE1 33.12 OE2 32.08
D TRP H 12 -75.2 -41.4 N 23.4 CA 22.88 C 22.8 O 21.66 CB 21.69 CG 20.79 CD1 21.01 CD2 19.38 NE1 20.62 CE2 20.21 CE3 20.86 CZ2 21.0 CZ3 20.02 CH2 20.14
D ASP H 59 -60.1 -37.9 N 22.65 CA 23.37 C 23.44 O 22.67 CB 23.33 CG 27.6 OD1 30.72 OD2 28.29
D ARG H 161 -66.3 -42.5 N 22.95 CA 22.61 C 22.6 O 21.76 CB 22.58 CG 22.24 CD 22.06 NE 18.44 CZ 19.76 NH1 20.41 NH2 19.7
D ARG H 29 -64.1 -41.1 N 22.47 CA 23.1 C 22.26 O 20.68 CB 23.68 CG 24.38 CD 24.93 NE 27.58 CZ 26.89 NH1 28.54 NH2 24.01
D LEU H 35 -60.5 -48.6 N 21.31 CA 22.68 C 21.81 O 21.24 CB 22.47 CG 23.13 CD1 23.44 CD2 24.67
D ALA H 35 -57.7 -44.9 N 21.49 CA 21.36 C 21.41 O 21.98 CB 21.7
D ALA H 36 -58.4 -47.1 N 21.29 CA 20.41 C 20.52 O 21.74 CB 21.09
D ILE H 9 -58.9 -51.4 N 19.54 CA 18.65 C 19.42 O 19.84 CB 18.12 CG1 17.54 CG2 17.11 CD1 14.91
D LYS H 79 -54.4 -42.5 N 19.91 CA 20.88 C 20.55 O 20.49 CB 20.58 CG 22.38 CD 22.15 CE 25.13 NZ 23.31
D GLN H 152 -65.3 -16.8 N 20.8 CA 21.12 C 21.16 O 21.08 CB 20.94 CG 21.12 CD 21.96 OE1 18.37 NE2 24.36
D ILE H 28 -98.3 -51.7 N 21.15 CA 21.25 C 21.3 O 22.26 CB 22.07 CG1 22.08 CG2 24.97 CD1 25.99
D ALA H 4 -70.0 -40.6 N 19.47 CA 20.94 C 21.42 O 22.16 CB 20.68
D GLU S 43 -124.0 165.4 N 22.24 CA 23.49 C 24.65 O 24.85 CB 24.02 CG 25.32 CD 28.87 OE1 31.12 OE2 30.75
D SER - 70 -82.3 132.7 N 25.55 CA 27.14 C 27.96 O 29.03 CB 27.12 OG 29.64
