A SER - 86 360.0 -11.9 N 29.7 CA 29.16 C 28.69 O 29.28 CB 29.1 OG 30.16
A LEU E 58 -126.4 121.6 N 26.1 CA 24.22 C 23.11 O 21.13 CB 23.91 CG 25.45 CD1 25.34 CD2 25.5
A LYS E 126 -87.5 148.2 N 21.4 CA 20.37 C 18.43 O 17.32 CB 21.76 CG 25.89 CD 29.79 CE 33.73 NZ 36.1
A PHE - 12 -116.3 85.9 N 15.88 CA 15.77 C 15.87 O 15.39 CB 15.65 CG 15.56 CD1 16.87 CD2 16.82 CE1 18.54 CE2 17.05 CZ 16.9
A PRO T 79 -85.2 -1.6 N 16.6 CA 16.86 C 17.95 O 18.19 CB 16.51 CG 16.66 CD 16.8
A ASP T 153 -108.4 30.1 N 18.91 CA 19.93 C 19.43 O 19.7 CB 20.68 CG 24.12 OD1 26.67 OD2 27.29
A THR S 26 -90.2 -23.4 N 18.3 CA 17.86 C 18.02 O 18.98 CB 17.72 OG1 15.79 CG2 16.98
A GLY - 35 68.6 11.2 N 17.86 CA 17.98 C 18.22 O 18.36
A LEU T 10 -65.2 -26.3 N 17.36 CA 16.71 C 16.5 O 15.21 CB 16.52 CG 16.96 CD1 16.04 CD2 16.46
A GLU T 35 -80.1 -15.2 N 16.02 CA 18.41 C 19.83 O 20.05 CB 17.82 CG 17.69 CD 17.27 OE1 17.76 OE2 17.64
A GLU S 164 -66.5 -36.2 N 22.36 CA 26.12 C 26.79 O 29.52 CB 26.26 CG 31.27 CD 36.97 OE1 36.97 OE2 40.45
A LYS S 132 -128.2 134.4 N 27.34 CA 28.56 C 27.63 O 27.99 CB 28.87 CG 29.88 CD 33.22 CE 33.39 NZ 36.62
A GLU - 95 -64.6 142.3 N 27.4 CA 26.52 C 26.06 O 26.72 CB 26.64 CG 27.9 CD 30.36 OE1 30.59 OE2 30.83
A VAL E 16 -142.2 155.1 N 23.57 CA 22.76 C 21.55 O 21.09 CB 23.07 CG1 22.83 CG2 24.13
A ALA E 24 -60.8 141.3 N 20.58 CA 19.76 C 18.89 O 19.16 CB 20.11
A PHE H 7 -55.5 -45.2 N 17.92 CA 17.87 C 17.19 O 16.49 CB 17.22 CG 17.36 CD1 19.12 CD2 16.17 CE1 17.29 CE2 18.25 CZ 16.62
A SER H 49 -55.0 -34.5 N 17.28 CA 17.6 C 17.92 O 17.34 CB 18.08 OG 18.16
A ILE H 73 -68.1 -49.5 N 19.09 CA 20.34 C 20.09 O 19.61 CB 20.41 CG1 22.53 CG2 21.72 CD1 25.74
A VAL H 0 -61.3 -46.7 N 19.5 CA 19.31 C 18.17 O 17.77 CB 20.45 CG1 20.55 CG2 20.49
A ASN H 51 -57.7 -52.6 N 17.35 CA 17.47 C 17.85 O 17.42 CB 17.53 CG 19.23 OD1 19.94 ND2 23.13
A HIS H 139 -65.5 -48.1 N 18.37 CA 19.5 C 18.51 O 18.41 CB 20.47 CG 24.58 ND1 27.52 CD2 27.26 CE1 27.98 NE2 27.75
A ALA H 2 -57.4 -50.9 N 18.46 CA 18.92 C 19.07 O 19.87 CB 18.48
A ALA H 1 -55.3 -49.6 N 19.11 CA 18.43 C 19.41 O 18.6 CB 18.45
A LYS H 92 -64.6 -32.5 N 19.71 CA 20.82 C 20.67 O 20.81 CB 21.94 CG 24.37 CD 28.66 CE 27.7 NZ 28.97
A SER H 69 -70.8 -22.5 N 20.71 CA 21.04 C 20.51 O 21.5 CB 19.58 OG 22.08
A LEU T 25 -101.7 12.9 N 20.03 CA 19.86 C 19.81 O 20.73 CB 20.25 CG 21.34 CD1 24.09 CD2 23.9
A GLY T 43 90.7 11.0 N 19.05 CA 19.66 C 19.64 O 20.48
A PHE - 7 -73.6 145.6 N 19.55 CA 19.35 C 21.22 O 20.82 CB 18.89 CG 16.37 CD1 15.86 CD2 16.26 CE1 15.3 CE2 16.75 CZ 15.69
A ILE E 99 -112.6 145.6 N 21.33 CA 23.43 C 22.78 O 21.39 CB 24.26 CG1 26.76 CG2 26.25 CD1 29.09
A HIS E 37 -83.2 150.3 N 22.73 CA 23.26 C 22.02 O 22.34 CB 24.76 CG 26.23 ND1 29.8 CD2 29.07 CE1 30.01 NE2 31.26
A VAL - 31 -77.3 142.0 N 20.27 CA 18.2 C 18.12 O 18.48 CB 17.82 CG1 18.0 CG2 16.89
A ASP S 132 -75.2 58.6 N 18.06 CA 19.13 C 18.76 O 19.02 CB 19.98 CG 24.35 OD1 31.37 OD2 28.9
A GLN - 78 -133.8 114.1 N 17.72 CA 18.37 C 18.36 O 17.7 CB 18.88 CG 21.61 CD 25.18 OE1 26.29 NE2 26.72
A TRP - 181 -101.3 120.6 N 17.06 CA 16.49 C 15.82 O 15.68 CB 17.62 CG 19.06 CD1 22.46 CD2 20.8 NE1 21.9 CE2 21.97 CE3 23.4 CZ2 21.97 CZ3 22.45 CH2 21.21
A ASP - 52 -151.0 122.9 N 14.27 CA 13.89 C 12.94 O 12.63 CB 14.83 CG 16.23 OD1 14.92 OD2 18.06
A TYR S 172 -59.5 -15.4 N 12.15 CA 11.92 C 12.45 O 12.8 CB 11.68 CG 10.05 CD1 10.54 CD2 10.9 CE1 11.73 CE2 11.99 CZ 8.58 OH 10.79
A GLU S 137 -110.8 -13.4 N 11.35 CA 11.92 C 11.7 O 10.73 CB 11.93 CG 15.41 CD 20.07 OE1 18.6 OE2 22.15
A ARG E 75 -149.8 143.1 N 11.06 CA 11.67 C 11.03 O 11.29 CB 11.56 CG 12.71 CD 12.26 NE 13.64 CZ 16.94 NH1 17.43 NH2 15.42
A VAL E 5 -127.5 147.5 N 11.71 CA 12.4 C 13.61 O 13.25 CB 12.59 CG1 12.17 CG2 12.27
A PHE E 0 -110.7 122.4 N 14.48 CA 15.32 C 14.95 O 14.06 CB 15.85 CG 17.46 CD1 19.54 CD2 18.69 CE1 19.01 CE2 19.44 CZ 18.57
A ASP E 9 -108.8 141.0 N 15.46 CA 15.56 C 16.74 O 17.1 CB 15.98 CG 17.53 OD1 19.47 OD2 17.64
A TYR E 43 -110.7 115.8 N 16.08 CA 17.72 C 17.8 O 17.07 CB 19.02 CG 22.37 CD1 24.52 CD2 22.21 CE1 25.17 CE2 23.08 CZ 24.19 OH 27.0
A LYS E 133 -78.9 120.5 N 17.47 CA 18.8 C 19.11 O 18.87 CB 19.44 CG 20.07 CD 21.1 CE 22.92 NZ 21.36
A ILE E 14 -113.6 111.4 N 18.87 CA 19.46 C 20.62 O 19.54 CB 19.43 CG1 20.2 CG2 18.89 CD1 19.42
A VAL E 105 -97.0 123.1 N 21.37 CA 22.98 C 24.0 O 24.96 CB 22.04 CG1 22.96 CG2 22.99
A HIS E 57 -134.7 157.8 N 25.86 CA 27.75 C 28.93 O 28.77 CB 27.87 CG 29.49 ND1 30.05 CD2 29.69 CE1 31.3 NE2 29.71
A HIS T 184 -44.5 -45.2 N 30.91 CA 32.64 C 32.84 O 32.96 CB 32.95 CG 36.36 ND1 38.47 CD2 37.91 CE1 39.78 NE2 39.32
A GLU T 94 -79.7 -0.9 N 33.42 CA 33.77 C 32.67 O 33.47 CB 34.03 CG 36.25 CD 36.5 OE1 40.51 OE2 40.4
A GLY E 23 143.8 -173.9 N 31.43 CA 29.12 C 28.04 O 28.06
A THR E 35 -108.7 131.2 N 25.83 CA 24.4 C 21.75 O 21.09 CB 24.83 OG1 28.25 CG2 25.54
A PHE E 0 -119.3 158.5 N 19.67 CA 16.87 C 16.74 O 15.62 CB 16.98 CG 15.72 CD1 18.06 CD2 18.47 CE1 19.02 CE2 19.54 CZ 19.01
A TYR E 48 -128.8 130.6 N 15.64 CA 15.74 C 14.98 O 14.49 CB 17.79 CG 20.9 CD1 25.34 CD2 22.09 CE1 25.93 CE2 23.49 CZ 23.91 OH 25.49
A LEU E 0 -98.1 118.9 N 13.22 CA 13.49 C 12.37 O 13.23 CB 12.81 CG 14.82 CD1 13.88 CD2 15.57
A ARG E 56 -115.9 129.7 N 12.07 CA 11.2 C 11.8 O 12.18 CB 11.31 CG 11.41 CD 14.34 NE 12.88 CZ 15.53 NH1 16.73 NH2 17.17
A VAL E 2 -120.3 101.9 N 11.1 CA 11.57 C 11.57 O 12.28 CB 11.55 CG1 10.44 CG2 10.49
A PRO E 6 -86.5 148.4 N 12.04 CA 11.43 C 11.61 O 11.34 CB 12.52 CG 13.43 CD 12.07
A ALA E 0 -135.6 149.4 N 11.58 CA 11.66 C 11.59 O 13.57 CB 10.66
A TYR E 86 -126.3 139.5 N 11.95 CA 11.96 C 12.58 O 12.37 CB 11.05 CG 11.28 CD1 12.24 CD2 12.47 CE1 9.33 CE2 12.08 CZ 12.65 OH 12.14
A ALA E 34 -64.3 131.5 N 13.32 CA 13.78 C 13.89 O 13.4 CB 13.65
A VAL E 59 -110.7 -54.7 N 14.33 CA 16.29 C 16.46 O 17.51 CB 15.58 CG1 17.86 CG2 16.76
A LYS E 112 -134.0 114.0 N 17.73 CA 19.17 C 17.8 O 18.95 CB 19.17 CG 23.21 CD 23.47 CE 26.84 NZ 30.14
A GLY S 49 98.0 166.5 N 16.9 CA 16.11 C 15.57 O 14.57
A GLU - 95 -97.6 144.0 N 15.11 CA 13.83 C 13.89 O 14.05 CB 13.71 CG 13.82 CD 15.21 OE1 15.12 OE2 15.46
A ILE T 8 -73.7 141.1 N 12.76 CA 13.28 C 12.88 O 13.0 CB 13.46 CG1 14.02 CG2 11.98 CD1 14.35
A PRO T 80 -106.0 40.0 N 13.04 CA 13.06 C 13.35 O 14.13 CB 12.78 CG 13.28 CD 13.34
A ARG - 142 -63.9 127.0 N 14.12 CA 13.8 C 14.89 O 14.77 CB 13.11 CG 13.4 CD 14.03 NE 15.71 CZ 18.96 NH1 19.32 NH2 17.6
A PRO T 74 -50.1 -40.1 N 15.26 CA 15.83 C 15.47 O 15.64 CB 15.9 CG 16.46 CD 15.37
A SER T 83 -87.9 -3.8 N 16.16 CA 16.56 C 16.46 O 16.88 CB 16.81 OG 19.97
A THR - 2 -53.1 132.5 N 15.96 CA 15.12 C 15.37 O 15.72 CB 14.59 OG1 14.24 CG2 13.3
A ILE E 57 -87.0 128.4 N 15.42 CA 16.32 C 16.07 O 16.23 CB 17.08 CG1 18.88 CG2 17.53 CD1 23.88
A VAL E 0 -120.5 155.6 N 15.59 CA 15.87 C 15.45 O 16.47 CB 15.49 CG1 16.08 CG2 16.22
A GLN E 48 -107.8 115.6 N 14.58 CA 14.99 C 14.23 O 13.5 CB 14.98 CG 17.3 CD 20.29 OE1 21.7 NE2 17.4
A ILE E 1 -79.3 138.8 N 14.8 CA 14.64 C 14.1 O 14.32 CB 14.72 CG1 15.42 CG2 14.94 CD1 16.57
A THR - 33 -57.9 119.2 N 12.34 CA 12.5 C 11.87 O 12.57 CB 12.49 OG1 14.56 CG2 13.13
A PRO - 0 -58.5 151.3 N 12.29 CA 12.46 C 13.23 O 13.21 CB 12.57 CG 11.81 CD 12.79
A ILE E 44 -133.0 130.8 N 13.94 CA 15.15 C 14.99 O 14.97 CB 16.48 CG1 18.21 CG2 19.58 CD1 23.94
A LEU E 0 -99.5 129.6 N 14.32 CA 14.12 C 14.18 O 13.52 CB 13.91 CG 14.46 CD1 13.63 CD2 14.79
A GLY E 1 -129.4 160.2 N 14.45 CA 16.71 C 17.03 O 15.95
A LYS E 25 -112.5 136.8 N 18.9 CA 20.67 C 21.37 O 20.31 CB 20.59 CG 22.73 CD 23.03 CE 27.75 NZ 29.06
A TYR - 68 -82.8 133.4 N 22.9 CA 24.95 C 25.07 O 25.7 CB 26.91 CG 28.19 CD1 29.93 CD2 29.01 CE1 31.21 CE2 31.88 CZ 30.93 OH 30.89
A TYR - 36 -114.0 60.6 N 24.15 CA 24.46 C 23.82 O 24.95 CB 24.87 CG 25.78 CD1 26.07 CD2 27.36 CE1 26.62 CE2 26.46 CZ 27.64 OH 29.15
A TYR T 162 -64.9 149.6 N 23.16 CA 21.6 C 21.66 O 22.01 CB 21.24 CG 20.5 CD1 21.11 CD2 19.22 CE1 21.33 CE2 21.65 CZ 19.44 OH 21.2
A PRO T 119 -87.0 -10.9 N 21.2 CA 21.86 C 22.73 O 22.09 CB 21.69 CG 21.06 CD 21.17
A HIS T 112 -121.3 1.6 N 24.66 CA 26.19 C 27.54 O 27.53 CB 26.81 CG 28.66 ND1 31.55 CD2 31.28 CE1 32.46 NE2 31.74
A GLY - 47 86.0 -3.8 N 28.45 CA 30.18 C 31.16 O 32.26
A VAL - 67 -78.9 124.0 N 31.74 CA 31.99 C 32.14 O 30.77 CB 32.41 CG1 32.68 CG2 33.27
A GLU - 104 -94.3 120.0 N 32.66 CA 34.36 C 34.74 O 35.22 CB 34.27 CG 35.18 CD 36.18 OE1 37.1 OE2 38.09
A TYR S 184 -100.6 -43.2 N 35.52 CA 36.66 C 38.13 O 38.24 CB 36.13 CG 35.5 CD1 34.98 CD2 35.4 CE1 34.07 CE2 35.84 CZ 36.02 OH 35.51
A GLU S 153 -110.1 39.9 N 39.72 CA 41.12 C 41.38 O 41.71 CB 41.07 CG 42.32 CD 42.97 OE1 45.62 OE2 45.65
A GLY - 33 49.2 -139.0 N 41.62 CA 41.61 C 41.6 O 41.0
A GLU - 59 -149.7 126.5 N 41.49 CA 41.21 C 40.39 O 40.59 CB 41.81 CG 42.58 CD 44.91 OE1 46.08 OE2 45.45
A THR - 95 -127.2 155.7 N 38.89 CA 37.54 C 35.65 O 35.49 CB 37.91 OG1 39.42 CG2 39.08
A PHE - 28 -119.8 120.2 N 33.27 CA 31.27 C 30.32 O 30.44 CB 30.62 CG 28.72 CD1 26.28 CD2 26.56 CE1 26.64 CE2 26.59 CZ 28.19
A PRO - 15 -53.8 144.4 N 29.29 CA 28.68 C 28.62 O 27.65 CB 28.43 CG 29.13 CD 29.02
A GLN H 120 -57.5 -39.2 N 28.26 CA 28.57 C 27.55 O 27.9 CB 28.66 CG 30.83 CD 32.26 OE1 34.34 NE2 32.12
A ALA H 61 -58.8 -38.3 N 26.83 CA 25.95 C 24.95 O 24.33 CB 26.03
A VAL H 2 -68.1 -49.0 N 24.17 CA 23.55 C 22.6 O 22.02 CB 23.36 CG1 23.43 CG2 24.23
A ILE H 32 -56.4 -42.8 N 22.17 CA 21.96 C 22.03 O 22.08 CB 21.76 CG1 21.59 CG2 20.42 CD1 22.69
A ASP H 70 -63.5 -47.2 N 22.05 CA 22.28 C 21.54 O 22.22 CB 22.8 CG 24.05 OD1 24.61 OD2 27.79
A LYS H 86 -50.5 -45.5 N 20.6 CA 20.6 C 19.06 O 17.48 CB 21.53 CG 25.28 CD 30.99 CE 31.37 NZ 33.48
A CYS H 0 -64.4 -49.2 N 18.72 CA 18.12 C 18.36 O 16.78 CB 18.41 SG 18.62
A ASN H 80 -57.5 -43.6 N 18.69 CA 19.56 C 19.17 O 19.78 CB 19.54 CG 21.06 OD1 20.65 ND2 23.72
A ASN H 115 -63.2 -46.0 N 19.86 CA 20.06 C 18.95 O 18.56 CB 20.64 CG 23.14 OD1 26.73 ND2 25.02
A LYS H 28 -64.7 -46.2 N 18.6 CA 18.06 C 17.34 O 16.42 CB 19.15 CG 20.86 CD 23.99 CE 21.97 NZ 22.34
A LEU H 4 -64.4 -34.1 N 16.71 CA 16.47 C 17.59 O 18.43 CB 15.23 CG 12.28 CD1 12.3 CD2 11.37
A ALA H 41 -64.2 -44.1 N 19.41 CA 20.18 C 21.0 O 21.47 CB 20.01
A LEU H 91 -71.6 -40.1 N 21.27 CA 22.71 C 22.08 O 21.89 CB 22.59 CG 25.32 CD1 25.41 CD2 24.45
A LEU H 1 -57.9 -49.0 N 21.6 CA 21.6 C 22.88 O 23.39 CB 21.13 CG 21.15 CD1 22.31 CD2 20.69
A ALA H 19 -59.6 -38.6 N 23.55 CA 25.45 C 26.99 O 27.35 CB 25.15
A LYS H 132 -67.6 -49.8 N 28.64 CA 29.83 C 30.67 O 31.62 CB 30.32 CG 32.18 CD 32.89 CE 33.48 NZ 30.71
A THR H 65 -61.6 -50.0 N 31.44 CA 31.68 C 32.07 O 32.12 CB 31.69 OG1 32.75 CG2 32.01
A ILE H 27 -52.7 -46.7 N 32.83 CA 33.31 C 33.97 O 34.23 CB 33.29 CG1 32.86 CG2 33.87 CD1 32.95
A LYS - 200 -79.7 360.0 N 34.7 CA 35.83 C 36.14 O 36.81 CB 35.75 CG 36.07 CD 36.56 CE 37.59 NZ 39.11
