A LEU - 92 360.0 109.5 N 48.73 CA 49.82 C 50.19 O 51.73 CB 49.81 CG 49.28 CD1 47.21 CD2 48.11
A SER - 59 -126.4 138.2 N 48.74 CA 46.06 C 43.13 O 41.18 CB 47.03 OG 51.58
A ALA B 5 -126.6 146.9 N 41.05 CA 39.53 C 38.42 O 38.61 CB 38.58
A THR - 52 -75.9 149.5 N 35.52 CA 35.89 C 37.3 O 38.09 CB 36.75 OG1 38.14 CG2 38.44
A ASP - 115 -48.2 139.1 N 39.06 CA 38.88 C 39.05 O 38.86 CB 38.75 CG 42.54 OD1 44.59 OD2 47.75
A LEU - 14 -59.3 131.7 N 39.81 CA 40.46 C 42.48 O 44.9 CB 39.01 CG 35.66 CD1 34.51 CD2 33.49
A LYS E 129 -114.2 156.6 N 42.89 CA 44.1 C 43.61 O 41.95 CB 46.02 CG 47.55 CD 55.09 CE 62.2 NZ 61.34
A ILE E 49 -109.1 131.1 N 43.34 CA 44.14 C 42.76 O 41.87 CB 45.07 CG1 41.42 CG2 42.84 CD1 41.86
A GLN E 89 -132.5 126.8 N 44.07 CA 44.58 C 43.77 O 45.25 CB 44.09 CG 44.37 CD 49.85 OE1 51.31 NE2 46.4
A SER E 9 -82.0 140.5 N 41.7 CA 42.73 C 43.31 O 43.54 CB 40.69 OG 48.58
A THR - 36 -125.9 174.6 N 42.89 CA 41.3 C 40.45 O 39.59 CB 41.08 OG1 43.98 CG2 43.13
A ALA S 35 -64.2 -17.5 N 39.49 CA 39.75 C 38.67 O 40.5 CB 38.46
A GLU S 118 -106.4 -23.3 N 39.68 CA 40.47 C 41.07 O 41.83 CB 42.44 CG 42.23 CD 51.69 OE1 62.18 OE2 57.5
A GLY E 0 174.9 -130.5 N 40.66 CA 41.96 C 44.18 O 43.54
A ILE E 0 -131.4 131.5 N 44.67 CA 44.38 C 44.14 O 44.5 CB 44.67 CG1 42.49 CG2 44.41 CD1 41.69
A GLN E 32 -115.6 146.3 N 44.36 CA 44.95 C 44.9 O 44.55 CB 45.52 CG 47.77 CD 58.13 OE1 68.3 NE2 59.47
A LEU E 0 -118.2 136.6 N 42.57 CA 43.25 C 43.63 O 42.5 CB 42.38 CG 45.72 CD1 49.25 CD2 46.52
A TYR E 29 -154.1 151.0 N 43.12 CA 44.59 C 43.32 O 41.1 CB 46.38 CG 50.31 CD1 45.56 CD2 53.74 CE1 47.4 CE2 58.68 CZ 52.71 OH 59.98
A SER E 0 -126.3 155.9 N 41.04 CA 39.56 C 38.97 O 38.0 CB 36.84 OG 33.37
A PHE E 86 -110.9 121.2 N 35.92 CA 35.67 C 37.66 O 36.03 CB 33.31 CG 35.79 CD1 33.01 CD2 34.08 CE1 33.51 CE2 33.04 CZ 33.26
A VAL B 0 -79.1 108.7 N 40.87 CA 44.57 C 47.83 O 48.46 CB 44.3 CG1 46.48 CG2 45.86
A THR S 85 -57.1 -24.6 N 52.44 CA 56.31 C 58.2 O 57.16 CB 56.85 OG1 58.19 CG2 56.3
A TYR S 41 -91.7 -136.4 N 62.59 CA 67.42 C 69.7 O 70.88 CB 68.14
A TYR - 145 -149.9 144.9 N 72.32 CA 74.57 C 74.14 O 74.4 CB 76.65 CG 81.96 CD1 84.55 CD2 86.53 CE1 85.5 CE2 85.14 CZ 84.52 OH 83.96
A VAL - 24 -100.8 107.9 N 72.66 CA 69.95 C 67.62 O 68.47 CB 70.59 CG1 69.07 CG2 67.61
A GLU S 90 -94.7 -94.5 N 64.04 CA 60.7 C 58.43 O 57.51 CB 60.43
A ASP S 154 -89.8 55.9 N 55.84 CA 53.55 C 51.76 O 52.78 CB 53.56 CG 53.65 OD1 56.3 OD2 48.53
A LEU - 31 -119.0 123.9 N 48.08 CA 45.27 C 42.01 O 40.84 CB 46.34 CG 48.5 CD1 50.87 CD2 53.67
A LYS E 130 -75.6 151.2 N 39.09 CA 37.28 C 36.86 O 35.93 CB 36.54 CG 33.89 CD 38.18 CE 34.36 NZ 37.34
A VAL E 46 -142.4 128.3 N 36.14 CA 36.9 C 38.03 O 37.88 CB 35.53 CG1 40.35 CG2 36.91
A ASN E 82 -126.4 142.0 N 38.27 CA 39.41 C 37.76 O 37.39 CB 39.32 CG 43.53 OD1 49.84 ND2 49.81
A TRP E 7 -115.9 142.0 N 38.57 CA 37.87 C 38.18 O 37.89 CB 39.46 CG 38.55 CD1 42.32 CD2 43.58 NE1 41.09 CE2 41.91 CE3 42.12 CZ2 38.29 CZ3 45.64 CH2 40.67
A SER E 24 -125.7 153.4 N 37.51 CA 36.49 C 35.93 O 37.93 CB 34.73 OG 34.21
A HIS E 24 -123.5 113.8 N 34.5 CA 34.14 C 33.58 O 34.05 CB 34.35 CG 40.84 ND1 41.77 CD2 45.79 CE1 37.14 NE2 44.55
A ASN T 96 57.3 36.9 N 32.55 CA 32.55 C 32.7 O 33.22 CB 31.57 CG 30.5 OD1 33.12 ND2 29.39
A GLY T 67 77.6 7.6 N 33.7 CA 34.89 C 36.05 O 35.92
A SER E 79 -113.2 152.0 N 36.38 CA 38.71 C 40.61 O 39.85 CB 38.1 OG 39.69
A ALA E 92 -69.2 149.3 N 42.93 CA 44.61 C 45.29 O 45.17 CB 46.33
A ILE - 15 -85.6 123.0 N 47.15 CA 49.1 C 50.46 O 51.73 CB 48.97 CG1 46.29 CG2 50.2 CD1 52.83
A ARG - 125 -67.7 124.1 N 51.31 CA 52.26 C 51.36 O 53.37 CB 54.01 CG 59.18 CD 63.4 NE 65.95 CZ 69.71 NH1 67.77 NH2 67.27
A TYR - 103 -107.4 152.5 N 48.8 CA 47.23 C 45.72 O 46.59 CB 47.88 CG 48.36 CD1 50.82 CD2 47.79 CE1 50.44 CE2 46.82 CZ 50.25 OH 49.5
A SER - 64 -154.6 -161.6 N 43.41 CA 42.07 C 41.33 O 39.89 CB 42.26 OG 42.92
A ASP S 135 -82.4 -0.0 N 40.85 CA 42.53 C 41.67 O 41.23 CB 43.88 CG 47.55 OD1 50.94 OD2 51.62
A ARG S 82 -101.4 -35.7 N 40.97 CA 39.42 C 38.2 O 35.58 CB 39.82 CG 37.8 CD 35.19 NE 38.87 CZ 34.76 NH1 39.35 NH2 23.13
A VAL E 3 -122.0 109.6 N 39.74 CA 41.42 C 43.82 O 44.14 CB 40.43 CG1 37.04 CG2 38.92
A LYS E 83 -120.6 150.4 N 44.75 CA 45.48 C 45.08 O 43.79 CB 44.3 CG 50.9 CD 53.22 CE 59.2 NZ 63.27
A THR E 55 -130.9 145.7 N 45.1 CA 43.98 C 43.46 O 42.39 CB 43.7 OG1 46.65 CG2 41.25
A GLY E 17 -159.6 178.7 N 42.82 CA 42.09 C 42.25 O 41.84
A VAL E 71 -136.3 130.6 N 41.84 CA 41.51 C 40.6 O 39.46 CB 42.54 CG1 38.98 CG2 47.01
A THR E 88 -128.6 104.8 N 40.09 CA 38.39 C 38.31 O 36.96 CB 37.7 OG1 38.93 CG2 36.79
A GLY T 35 49.7 -120.6 N 39.33 CA 38.63 C 38.85 O 38.54
A GLU T 77 -88.3 -5.6 N 39.08 CA 37.62 C 37.7 O 37.03 CB 37.0 CG 38.64 CD 50.79 OE1 56.93 OE2 54.88
A GLN E 48 -79.8 114.2 N 35.39 CA 37.4 C 38.06 O 37.3 CB 35.8 CG 38.96 CD 41.35 OE1 46.26 NE2 40.77
A ILE E 1 -104.4 120.3 N 41.04 CA 41.87 C 42.42 O 41.0 CB 43.44 CG1 43.88 CG2 42.9 CD1 46.03
A TRP E 55 -132.9 150.4 N 41.51 CA 41.91 C 41.59 O 39.24 CB 43.12 CG 43.63 CD1 44.46 CD2 44.79 NE1 44.06 CE2 49.16 CE3 47.43 CZ2 48.94 CZ3 47.45 CH2 47.84
A LEU E 0 -122.6 127.4 N 42.3 CA 42.0 C 41.76 O 41.6 CB 40.62 CG 40.67 CD1 44.52 CD2 41.09
A GLN E 11 -108.9 120.6 N 43.02 CA 44.12 C 43.23 O 44.45 CB 44.19 CG 47.05 CD 54.2 OE1 53.29 NE2 47.57
A ILE E 1 -107.2 102.3 N 43.13 CA 45.05 C 44.95 O 46.09 CB 45.05 CG1 43.54 CG2 43.89 CD1 45.61
A ASN E 18 -79.1 149.9 N 44.34 CA 44.97 C 44.58 O 45.71 CB 44.49 CG 46.66 OD1 49.03 ND2 48.26
A GLU S 82 45.6 55.1 N 44.8 CA 46.37 C 46.86 O 47.51 CB 47.19 CG 55.14 CD 60.38 OE1 52.23 OE2 63.84
A PRO - 3 -69.8 148.8 N 46.08 CA 45.92 C 45.27 O 46.52 CB 46.35 CG 48.98 CD 46.7
A THR - 66 -125.7 175.8 N 44.94 CA 44.48 C 43.75 O 43.95 CB 44.96 OG1 46.33 CG2 44.92
A PRO G 87 -61.0 -18.7 N 42.47 CA 41.53 C 41.33 O 40.3 CB 40.28 CG 40.56 CD 42.71
A ASN G 133 -67.7 -17.7 N 40.63 CA 42.26 C 43.64 O 44.41 CB 43.34 CG 49.14 OD1 57.23 ND2 43.49
A ASP G 5 -84.3 -12.6 N 43.68 CA 44.21 C 43.73 O 44.58 CB 45.06 CG 45.67 OD1 41.86 OD2 44.09
A LYS - 72 -57.4 145.8 N 42.23 CA 40.67 C 41.22 O 39.44 CB 39.41 CG 36.58 CD 34.32 CE 33.9 NZ 35.11
A GLY E 10 144.8 -179.0 N 41.07 CA 42.34 C 44.81 O 45.31
A LYS E 111 -81.7 121.6 N 44.0 CA 43.1 C 44.02 O 42.59 CB 43.58 CG 45.27 CD 54.06 CE 55.18 NZ 48.01
A TYR E 2 -104.5 130.4 N 44.19 CA 43.59 C 44.37 O 44.33 CB 42.31 CG 43.24 CD1 42.05 CD2 44.02 CE1 44.87 CE2 41.96 CZ 42.65 OH 44.28
A VAL E 12 -115.0 139.2 N 45.17 CA 43.53 C 43.47 O 42.54 CB 44.37 CG1 45.22 CG2 44.12
A MET E 0 -117.3 115.0 N 42.23 CA 40.77 C 40.53 O 40.13 CB 40.52 CG 39.58 SD 44.11 CE 41.57
A GLU E 53 -107.2 119.4 N 38.48 CA 40.8 C 38.49 O 36.54 CB 41.43 CG 50.79 CD 57.72 OE1 61.21 OE2 62.9
A LEU E 1 -101.3 125.0 N 37.98 CA 40.13 C 39.66 O 38.1 CB 41.3 CG 42.71 CD1 38.37 CD2 39.63
A PHE E 76 -126.4 110.1 N 41.6 CA 43.23 C 45.13 O 45.07 CB 44.24 CG 45.25 CD1 50.56 CD2 48.33 CE1 48.32 CE2 46.29 CZ 47.8
A ASP - 77 -113.8 88.5 N 47.07 CA 50.87 C 49.77 O 48.96 CB 52.9 CG 59.64 OD1 66.66 OD2 61.81
A GLY S 54 75.3 -129.6 N 49.01 CA 47.6 C 46.37 O 46.44
A LYS S 210 -93.3 37.7 N 43.7 CA 40.82 C 39.58 O 38.64 CB 39.94 CG 37.81 CD 35.72 CE 33.55 NZ 33.54
A THR - 90 -141.4 136.8 N 37.96 CA 36.59 C 36.62 O 36.23 CB 36.57 OG1 33.99 CG2 31.75
A GLY E 45 -128.0 136.9 N 36.96 CA 36.9 C 37.33 O 36.13
A HIS E 58 -115.1 124.1 N 39.78 CA 42.57 C 42.24 O 43.3 CB 45.17 CG 54.09 ND1 57.79 CD2 59.61 CE1 58.39 NE2 58.17
A GLN E 105 -130.1 156.4 N 41.98 CA 42.73 C 42.62 O 43.16 CB 41.13 CG 48.53 CD 56.5 OE1 57.59 NE2 58.91
A LYS E 40 -128.8 147.4 N 42.94 CA 43.25 C 44.29 O 43.45 CB 41.54 CG 38.81 CD 40.77 CE 38.75 NZ 37.39
A THR E 68 -126.2 145.0 N 45.09 CA 45.72 C 44.96 O 45.69 CB 47.34 OG1 50.75 CG2 52.06
A VAL E 20 -145.8 144.0 N 44.34 CA 43.81 C 44.22 O 43.68 CB 42.37 CG1 46.05 CG2 43.76
A ASP E 95 -106.9 110.6 N 45.62 CA 44.57 C 44.56 O 46.06 CB 44.04 CG 43.89 OD1 42.71 OD2 44.44
A LEU E 0 -97.3 87.2 N 44.52 CA 44.21 C 44.14 O 44.25 CB 45.21 CG 47.69 CD1 43.94 CD2 43.8
A SER - 44 -158.7 172.8 N 43.83 CA 45.87 C 46.14 O 49.08 CB 44.29 OG 48.27
A GLY H 33 46.9 -137.8 N 44.08 CA 43.42 C 42.99 O 40.59
A GLN H 145 -53.9 -39.4 N 43.58 CA 42.99 C 41.62 O 42.15 CB 43.17 CG 41.82 CD 48.32 OE1 41.67 NE2 49.99
A ALA H 41 -59.1 -44.3 N 40.93 CA 40.57 C 42.61 O 42.31 CB 38.72
A TYR H 10 -68.0 -48.9 N 42.12 CA 40.88 C 42.16 O 40.85 CB 37.42 CG 36.65 CD1 38.92 CD2 40.72 CE1 34.55 CE2 43.74 CZ 36.26 OH 36.96
A ASP H 93 -55.5 -44.4 N 39.7 CA 41.12 C 42.55 O 45.45 CB 40.25 CG 42.09 OD1 47.6 OD2 47.19
A GLU H 116 -66.2 -50.5 N 43.16 CA 43.08 C 42.4 O 42.81 CB 44.06 CG 48.55 CD 50.3 OE1 52.72 OE2 55.75
A ALA H 9 -56.4 -34.8 N 42.71 CA 41.88 C 43.82 O 43.77 CB 39.95
A TYR H 78 -72.1 -49.4 N 43.03 CA 41.79 C 42.22 O 43.22 CB 42.56 CG 43.59 CD1 41.61 CD2 42.63 CE1 42.22 CE2 43.64 CZ 45.92 OH 44.69
A ALA H 33 -54.8 -48.7 N 40.59 CA 38.72 C 38.9 O 37.25 CB 38.19
A GLU H 98 -61.3 -43.6 N 38.74 CA 39.47 C 42.22 O 41.06 CB 39.71 CG 47.86 CD 51.78 OE1 54.5 OE2 60.46
A PHE H 0 -55.2 -42.7 N 44.97 CA 46.6 C 47.32 O 48.9 CB 46.92 CG 49.37 CD1 52.19 CD2 49.64 CE1 51.81 CE2 53.94 CZ 48.73
A GLN H 69 -63.4 -44.4 N 48.0 CA 47.81 C 47.86 O 48.44 CB 46.94 CG 49.91 CD 54.43 OE1 55.75 NE2 58.8
A ARG H 175 -65.7 -38.9 N 45.81 CA 44.66 C 46.39 O 47.34 CB 43.7 CG 46.61 CD 51.67 NE 66.36 CZ 67.48 NH1 70.77 NH2 65.3
A LEU H 53 -71.2 -32.0 N 47.54 CA 46.05 C 45.52 O 46.17 CB 47.58 CG 50.42 CD1 53.01 CD2 61.23
A LYS H 67 -67.1 -38.8 N 45.86 CA 46.16 C 46.75 O 47.88 CB 44.74 CG 40.32 CD 39.43 CE 37.31 NZ 38.52
A GLN H 103 -72.4 -32.4 N 46.35 CA 45.7 C 46.96 O 48.72 CB 44.62 CG 50.71 CD 53.67 OE1 53.01 NE2 45.87
A ALA H 59 -63.5 -36.2 N 46.25 CA 43.99 C 43.66 O 41.62 CB 42.87
A ALA H 45 -69.4 -32.8 N 42.95 CA 43.28 C 44.08 O 45.87 CB 40.86
A ILE H 57 -62.4 -43.2 N 43.89 CA 42.95 C 42.92 O 44.38 CB 41.56 CG1 40.77 CG2 42.09 CD1 41.27
A ALA H 22 -68.4 -43.1 N 42.08 CA 40.65 C 41.76 O 41.82 CB 39.33
A GLU H 104 -59.4 -41.1 N 41.7 CA 42.18 C 42.19 O 41.6 CB 42.37 CG 47.35 CD 58.41 OE1 59.72 OE2 59.31
A LYS H 146 -68.8 -41.5 N 42.04 CA 40.74 C 39.92 O 41.31 CB 42.35 CG 41.67 CD 42.43 CE 40.42 NZ 37.76
A ASN H 19 -113.0 -0.1 N 39.51 CA 37.12 C 36.42 O 37.95 CB 37.08 CG 36.71 OD1 45.17 ND2 34.69
A ARG S 59 -62.6 149.8 N 35.49 CA 38.39 C 39.7 O 38.38 CB 36.81 CG 41.79 CD 40.37 NE 44.84 CZ 46.7 NH1 42.27 NH2 48.86
A ALA - 0 -63.5 137.9 N 40.72 CA 41.25 C 42.75 O 41.68 CB 41.95
A ARG E 49 -147.6 159.6 N 41.73 CA 43.33 C 43.77 O 44.0 CB 43.71 CG 49.04 CD 53.72 NE 57.73 CZ 58.78 NH1 47.87 NH2 63.32
A VAL E 27 -90.6 120.9 N 44.15 CA 43.78 C 43.6 O 45.26 CB 44.0 CG1 40.43 CG2 38.58
A LEU E 110 -82.5 -38.8 N 43.19 CA 41.61 C 40.96 O 39.97 CB 40.43 CG 43.69 CD1 40.44 CD2 38.34
A GLY E 13 150.5 -175.5 N 39.43 CA 41.48 C 42.57 O 42.61
A GLY B 1 129.6 -43.2 N 42.64 CA 42.77 C 43.45 O 42.53
A LEU - 4 -83.1 133.4 N 46.03 CA 47.15 C 48.01 O 46.91 CB 43.09 CG 48.95 CD1 40.95 CD2 42.72
A PRO - 0 -81.9 166.0 N 47.11 CA 45.43 C 46.14 O 45.66 CB 44.9 CG 40.39 CD 45.88
A ASP S 30 -72.9 -38.6 N 43.12 CA 42.79 C 43.87 O 44.12 CB 41.73 CG 48.56 OD1 49.55 OD2 57.0
A VAL E 42 -149.6 142.6 N 42.32 CA 42.75 C 45.0 O 45.84 CB 45.14 CG1 43.05 CG2 44.47
A VAL E 0 -118.4 142.5 N 44.01 CA 45.52 C 45.56 O 48.12 CB 48.52 CG1 51.94 CG2 46.15
A THR E 41 -113.4 127.9 N 43.63 CA 44.89 C 45.74 O 45.31 CB 43.52 OG1 46.84 CG2 45.19
A ILE E 0 -137.3 142.3 N 44.62 CA 45.0 C 43.46 O 44.6 CB 47.02 CG1 43.12 CG2 42.99 CD1 41.95
A GLN E 65 -64.1 132.4 N 41.06 CA 43.24 C 43.45 O 43.55 CB 41.75 CG 42.69 CD 50.24 OE1 51.08 NE2 54.81
A GLU T 59 -56.4 130.0 N 42.49 CA 43.4 C 41.56 O 41.75 CB 42.59 CG 48.87 CD 49.03 OE1 52.73 OE2 47.56
A GLY T 55 106.5 -22.9 N 41.65 CA 40.9 C 42.62 O 44.95
A LYS - 65 -78.2 146.1 N 42.08 CA 43.66 C 45.59 O 47.47 CB 43.99 CG 45.13 CD 46.15 CE 53.17 NZ 49.55
A ALA - 18 -79.5 153.0 N 44.34 CA 45.59 C 43.77 O 43.46 CB 44.24
A LEU E 0 -132.5 128.4 N 43.41 CA 42.71 C 44.02 O 46.45 CB 42.45 CG 43.11 CD1 35.24 CD2 40.7
A ASN E 11 -112.7 124.7 N 41.76 CA 44.01 C 44.65 O 46.34 CB 43.39 CG 46.87 OD1 46.72 ND2 51.67
A LEU E 1 -125.5 144.8 N 45.65 CA 44.85 C 46.78 O 46.92 CB 42.86 CG 45.68 CD1 41.53 CD2 38.92
A THR E 9 -136.4 133.6 N 46.98 CA 46.32 C 44.75 O 46.37 CB 47.69 OG1 45.41 CG2 45.24
A CYS E 0 -119.4 127.1 N 45.81 CA 44.48 C 44.7 O 42.7 CB 39.88 SG 46.81
A ASN E 54 -92.3 125.6 N 42.69 CA 43.33 C 45.39 O 42.62 CB 42.78 CG 47.06 OD1 47.95 ND2 42.04
A VAL E 3 -124.3 162.2 N 45.87 CA 44.69 C 46.09 O 45.98 CB 45.89 CG1 44.02 CG2 40.04
A TRP E 100 -150.0 147.9 N 46.69 CA 43.61 C 44.26 O 44.99 CB 44.08 CG 45.22 CD1 47.21 CD2 46.38 NE1 44.66 CE2 50.03 CE3 46.32 CZ2 47.0 CZ3 42.6 CH2 46.09
A GLY - 6 -163.4 163.5 N 44.27 CA 42.78 C 44.79 O 44.27
A ASP S 89 -132.8 99.9 N 45.62 CA 45.8 C 44.92 O 43.78 CB 45.58 CG 48.81 OD1 42.88 OD2 53.8
A PRO S 51 -75.0 159.6 N 45.52 CA 44.94 C 45.46 O 45.76 CB 45.21 CG 45.88 CD 44.4
A PRO - 87 -45.5 139.4 N 44.77 CA 42.85 C 41.94 O 42.85 CB 42.73 CG 43.66 CD 43.85
A PRO - 8 -85.0 173.8 N 40.27 CA 40.13 C 41.38 O 39.01 CB 40.63 CG 39.51 CD 40.63
A GLU E 146 -108.8 161.7 N 42.21 CA 46.49 C 44.03 O 44.05 CB 47.87 CG 53.66 CD 53.85 OE1 66.98 OE2 59.08
A VAL E 27 -129.4 152.7 N 43.25 CA 43.42 C 43.18 O 42.73 CB 44.16 CG1 39.4 CG2 44.19
A SER E 71 -142.3 165.5 N 41.28 CA 40.91 C 42.56 O 40.39 CB 39.91 OG 41.24
A TRP E 13 -121.0 153.7 N 42.16 CA 42.67 C 42.27 O 41.31 CB 43.84 CG 46.46 CD1 48.53 CD2 43.68 NE1 47.56 CE2 46.58 CE3 47.79 CZ2 43.03 CZ3 46.89 CH2 48.38
A LEU E 37 -125.3 151.1 N 41.03 CA 38.72 C 39.14 O 39.13 CB 37.6 CG 38.84 CD1 34.28 CD2 38.64
A LYS E 50 -132.6 129.0 N 37.7 CA 38.06 C 38.16 O 36.14 CB 36.51 CG 36.86 CD 40.92 CE 45.44 NZ 53.92
A ASN T 86 41.9 51.8 N 40.42 CA 40.8 C 40.43 O 39.5 CB 40.12 CG 45.56 OD1 47.0 ND2 37.9
A GLU T 148 60.7 19.6 N 41.82 CA 44.79 C 45.4 O 45.86 CB 46.03 CG 53.3 CD 63.39 OE1 68.98 OE2 65.86
A LYS E 155 -122.1 144.2 N 45.01 CA 45.81 C 46.0 O 44.96 CB 47.6 CG 52.09 CD 52.74 CE 62.08 NZ 61.31
A ALA E 99 -48.1 130.9 N 44.97 CA 44.5 C 44.16 O 47.18 CB 41.91
A LEU E 40 -109.8 131.7 N 41.85 CA 41.14 C 43.61 O 44.08 CB 40.34 CG 40.77 CD1 37.69 CD2 39.28
A ALA - 76 -104.7 132.8 N 44.5 CA 45.92 C 47.2 O 48.15 CB 47.19
A GLN - 108 -61.9 129.6 N 47.28 CA 49.33 C 46.98 O 49.58 CB 45.25 CG 52.15 CD 61.97 OE1 78.53 NE2 70.05
A THR - 73 -126.3 -179.8 N 46.41 CA 44.2 C 41.87 O 42.36 CB 45.69 OG1 39.64 CG2 47.41
A ASP S 151 -68.3 -20.0 N 40.95 CA 41.76 C 42.44 O 41.92 CB 39.54 CG 42.17 OD1 36.53 OD2 44.74
A HIS S 68 -90.6 -51.6 N 41.56 CA 41.44 C 41.55 O 40.43 CB 40.84 CG 46.18 ND1 50.4 CD2 48.05 CE1 46.75 NE2 49.37
A CYS E 9 -108.2 89.8 N 42.99 CA 43.18 C 41.83 O 41.01 CB 43.79 SG 45.6
A ASN E 21 -95.4 126.8 N 39.13 CA 40.16 C 43.33 O 43.68 CB 39.25 CG 38.48 OD1 42.12 ND2 35.4
A LEU E 10 -120.5 120.7 N 45.18 CA 44.78 C 44.74 O 44.62 CB 45.57 CG 44.46 CD1 43.93 CD2 42.64
A LYS E 104 -128.4 160.4 N 45.36 CA 45.67 C 45.79 O 47.64 CB 44.36 CG 46.76 CD 53.17 CE 53.01 NZ 56.62
A PHE E 67 -146.1 114.8 N 45.66 CA 43.38 C 43.46 O 41.35 CB 45.17 CG 42.98 CD1 41.91 CD2 40.91 CE1 46.03 CE2 49.62 CZ 49.68
A GLU E 98 -119.4 139.9 N 42.47 CA 43.22 C 42.77 O 40.96 CB 45.26 CG 53.68 CD 57.19 OE1 58.06 OE2 61.04
A ALA T 74 54.7 25.8 N 40.39 CA 39.93 C 40.71 O 39.27 CB 40.01
A GLY T 21 67.3 16.2 N 37.96 CA 38.87 C 43.25 O 45.73
A ARG T 150 -148.1 -11.3 N 44.3 CA 45.21 C 46.25 O 45.16 CB 46.26 CG 50.91 CD 56.33 NE 65.84 CZ 61.09 NH1 54.92 NH2 59.71
A THR E 23 -130.5 119.5 N 44.13 CA 41.71 C 43.81 O 43.73 CB 40.99 OG1 40.47 CG2 40.88
A ALA E 0 -103.0 125.2 N 42.86 CA 43.34 C 43.57 O 44.87 CB 41.06
A TYR E 61 -110.0 132.8 N 43.05 CA 44.25 C 45.87 O 44.02 CB 41.6 CG 42.11 CD1 38.92 CD2 37.84 CE1 40.46 CE2 39.93 CZ 38.56 OH 44.87
A PHE E 0 -121.2 120.8 N 44.76 CA 43.89 C 44.46 O 45.99 CB 44.34 CG 48.66 CD1 51.69 CD2 48.2 CE1 44.65 CE2 44.87 CZ 43.48
A THR E 41 -134.2 124.1 N 44.7 CA 44.64 C 46.52 O 48.15 CB 45.44 OG1 44.27 CG2 40.91
A ILE E 0 -110.3 120.5 N 44.15 CA 45.36 C 44.39 O 42.05 CB 45.2 CG1 40.98 CG2 49.44 CD1 44.34
A ASN S 112 -86.4 78.5 N 45.27 CA 46.35 C 45.87 O 47.52 CB 46.37 CG 58.4 OD1 67.17 ND2 63.54
A GLY S 21 90.1 85.5 N 44.28 CA 41.85 C 43.52 O 44.87
A VAL - 0 -68.7 119.7 N 41.58 CA 42.0 C 45.23 O 46.12 CB 44.58 CG1 41.26 CG2 33.98
A SER - 38 -98.3 167.0 N 43.22 CA 42.02 C 43.09 O 43.14 CB 40.29 OG 39.29
A THR G 63 -63.0 -34.3 N 42.21 CA 40.93 C 43.4 O 42.92 CB 40.11 OG1 39.8 CG2 36.72
A ALA G 71 -58.8 -24.6 N 40.03 CA 40.54 C 43.45 O 44.6 CB 42.07
A ASP G 15 -80.2 -6.9 N 42.08 CA 45.64 C 46.41 O 47.44 CB 45.4 CG 46.35 OD1 45.11 OD2 43.14
A SER - 46 -74.1 157.3 N 44.3 CA 44.56 C 44.63 O 40.52 CB 43.92 OG 41.93
A GLY E 15 149.5 -179.0 N 42.34 CA 40.98 C 43.25 O 41.54
A LYS E 143 -93.3 113.1 N 43.34 CA 44.98 C 44.47 O 46.81 CB 44.62 CG 49.84 CD 46.24 CE 53.24 NZ 55.83
A TYR E 3 -107.1 159.1 N 44.67 CA 42.78 C 44.15 O 43.31 CB 45.5 CG 40.62 CD1 45.34 CD2 44.89 CE1 45.34 CE2 38.35 CZ 46.88 OH 48.04
A GLY E 1 -144.3 143.1 N 43.19 CA 41.63 C 44.95 O 43.08
A LEU E 0 -103.2 122.8 N 45.36 CA 45.09 C 44.27 O 41.71 CB 45.83 CG 50.05 CD1 48.95 CD2 52.17
A VAL E 31 -105.1 118.2 N 45.03 CA 43.06 C 43.67 O 43.69 CB 42.85 CG1 42.85 CG2 41.75
A VAL E 0 -110.3 137.5 N 43.33 CA 42.92 C 44.43 O 44.14 CB 43.86 CG1 43.82 CG2 44.0
A LYS E 121 -147.8 138.0 N 43.68 CA 43.15 C 43.28 O 43.5 CB 41.42 CG 43.39 CD 48.69 CE 54.88 NZ 60.02
A ASN E 14 -136.2 -176.1 N 41.2 CA 41.52 C 43.36 O 44.5 CB 40.8 CG 42.86 OD1 44.06 ND2 41.52
A LYS T 158 -60.3 -17.8 N 43.77 CA 42.33 C 42.28 O 41.45 CB 40.82 CG 41.92 CD 41.3 CE 40.25 NZ 39.34
A TYR T 58 -96.5 -18.9 N 40.51 CA 40.8 C 40.4 O 39.03 CB 41.15 CG 41.39 CD1 38.8 CD2 38.68 CE1 36.42 CE2 37.93 CZ 38.22 OH 45.55
A GLY E 25 157.1 -175.8 N 40.09 CA 40.34 C 41.29 O 42.98
A SER E 68 -146.0 167.4 N 40.05 CA 42.03 C 41.77 O 42.39 CB 43.92 OG 45.66
A GLU E 66 -146.2 150.3 N 42.87 CA 44.58 C 44.98 O 44.41 CB 43.92 CG 51.55 CD 58.25 OE1 56.87 OE2 60.82
A THR E 67 -118.4 144.4 N 45.68 CA 47.14 C 48.14 O 45.91 CB 50.03 OG1 48.07 CG2 48.63
A SER E 16 -120.3 122.1 N 46.93 CA 47.17 C 46.61 O 47.02 CB 46.29 OG 47.55
A ASP E 92 -100.5 142.2 N 48.14 CA 48.36 C 48.02 O 45.77 CB 48.17 CG 50.13 OD1 56.67 OD2 51.14
A PHE E 1 -146.4 143.2 N 44.14 CA 45.63 C 44.41 O 45.87 CB 42.62 CG 49.4 CD1 45.08 CD2 42.47 CE1 50.06 CE2 47.45 CZ 46.56
A THR E 46 -105.4 135.9 N 43.85 CA 43.89 C 45.45 O 44.74 CB 45.75 OG1 47.03 CG2 39.82
A VAL E 1 -111.3 113.2 N 43.25 CA 46.21 C 43.46 O 42.37 CB 47.34 CG1 46.94 CG2 46.87
A SER E 40 -117.5 153.2 N 42.94 CA 43.24 C 42.14 O 42.35 CB 42.49 OG 46.12
A VAL E 32 -132.2 141.7 N 44.12 CA 44.55 C 43.32 O 46.2 CB 43.58 CG1 44.47 CG2 36.88
A PHE E 83 -120.8 145.8 N 42.43 CA 42.35 C 43.28 O 43.87 CB 40.77 CG 40.44 CD1 35.61 CD2 40.36 CE1 37.08 CE2 39.77 CZ 39.14
A ILE - 116 -88.7 125.2 N 40.46 CA 41.27 C 42.06 O 42.32 CB 38.86 CG1 40.31 CG2 41.61 CD1 41.51
A PRO - 45 -77.5 165.9 N 43.6 CA 45.49 C 47.82 O 47.33 CB 45.92 CG 46.49 CD 42.29
A GLU - 263 -50.3 360.0 N 50.92 CA 57.93 C 58.05 O 58.81 CB 56.98 CG 64.25 CD 61.51 OE1 67.69 OE2 61.05 OXT 59.79
B LEU - 82 360.0 151.9 N 49.09 CA 50.19 C 50.02 O 52.39 CB 50.79 CG 48.63 CD1 45.25 CD2 48.78
B SER - 58 -176.6 150.5 N 47.02 CA 44.27 C 42.67 O 42.77 CB 43.69 OG 46.65
B ALA B 9 -134.9 140.9 N 40.23 CA 38.2 C 37.08 O 37.37 CB 37.49
B THR - 64 -63.4 152.8 N 36.65 CA 37.25 C 38.75 O 38.73 CB 36.16 OG1 35.05 CG2 34.38
B ASP - 124 -56.0 143.8 N 40.18 CA 42.09 C 43.36 O 43.25 CB 42.69 CG 45.01 OD1 52.49 OD2 48.15
B LEU - 17 -57.9 131.5 N 43.81 CA 43.99 C 44.83 O 46.73 CB 42.23 CG 45.24 CD1 44.34 CD2 46.83
B LYS E 114 -107.4 144.7 N 45.08 CA 46.12 C 45.12 O 45.75 CB 48.97 CG 54.91 CD 62.35 CE 71.19 NZ 75.31
B ILE E 44 -102.6 126.2 N 45.26 CA 43.8 C 43.31 O 44.18 CB 43.74 CG1 43.2 CG2 43.58 CD1 37.74
B GLN E 84 -130.0 123.1 N 41.4 CA 41.17 C 39.97 O 41.57 CB 42.61 CG 43.58 CD 49.79 OE1 55.32 NE2 52.49
B SER E 11 -81.0 137.3 N 40.13 CA 39.47 C 38.45 O 34.46 CB 39.57 OG 45.23
B THR - 35 -120.4 -179.4 N 39.86 CA 40.96 C 41.14 O 41.05 CB 41.04 OG1 44.77 CG2 39.14
B ALA S 36 -67.5 -24.0 N 39.51 CA 39.33 C 38.85 O 38.33 CB 35.88
B GLU S 121 -98.1 -19.5 N 38.78 CA 40.16 C 38.77 O 39.53 CB 40.11 CG 49.28 CD 58.45 OE1 62.35 OE2 67.07
B GLY E 0 164.4 -139.1 N 36.44 CA 36.32 C 36.48 O 37.59
B ILE E 0 -123.1 136.1 N 38.27 CA 40.36 C 43.03 O 44.98 CB 41.64 CG1 41.34 CG2 44.0 CD1 39.22
B GLN E 38 -125.6 150.9 N 45.12 CA 46.32 C 44.0 O 42.79 CB 47.7 CG 55.17 CD 57.95 OE1 67.45 NE2 58.17
B LEU E 0 -113.0 146.5 N 42.86 CA 42.71 C 43.66 O 44.51 CB 42.59 CG 43.4 CD1 44.2 CD2 36.9
B TYR E 25 -156.0 162.5 N 43.37 CA 42.35 C 41.02 O 41.87 CB 43.58 CG 44.1 CD1 42.56 CD2 47.24 CE1 44.99 CE2 53.99 CZ 50.74 OH 48.94
B SER E 0 -143.7 141.8 N 39.6 CA 38.26 C 37.41 O 36.19 CB 36.37 OG 36.35
B PHE E 88 -99.1 125.5 N 36.19 CA 36.16 C 38.35 O 37.88 CB 35.74 CG 38.69 CD1 38.46 CD2 37.63 CE1 37.52 CE2 37.04 CZ 36.81
B VAL B 8 -71.9 148.8 N 39.96 CA 41.79 C 43.55 O 43.19 CB 41.0 CG1 40.47 CG2 41.31
B THR S 76 -96.9 120.1 N 46.43 CA 48.74 C 50.56 O 49.8 CB 48.72 OG1 45.25 CG2 48.74
B TYR S 84 60.5 38.9 N 53.16 CA 55.65 C 57.31 O 57.62 CB 55.82
B TYR - 73 74.6 117.4 N 58.91 CA 60.69 C 61.86 O 61.86 CB 60.68
B VAL - 33 -134.0 140.1 N 62.84 CA 62.89 C 62.95 O 62.49 CB 62.85 CG1 61.6 CG2 61.96
B GLU S 202 -104.6 16.8 N 63.21 CA 63.09 C 62.82 O 62.53 CB 63.09 CG 63.23 CD 63.62 OE1 60.41 OE2 64.65
B ASP - 106 -170.4 72.4 N 62.95 CA 62.55 C 60.66 O 61.08 CB 63.58 CG 65.84 OD1 66.69 OD2 68.6
B LEU - 32 -82.1 118.1 N 58.36 CA 56.88 C 55.37 O 56.0 CB 57.06 CG 58.75 CD1 58.8 CD2 61.05
B LYS E 142 -84.2 127.3 N 52.98 CA 51.19 C 50.93 O 50.56 CB 50.55 CG 48.03 CD 47.57 CE 41.84 NZ 44.31
B VAL E 50 -120.1 133.5 N 49.94 CA 49.03 C 49.42 O 50.14 CB 49.18 CG1 46.25 CG2 47.08
B ASN E 88 -134.6 124.8 N 49.56 CA 48.66 C 47.11 O 47.5 CB 50.35 CG 55.21 OD1 60.67 ND2 59.66
B TRP E 1 -111.4 138.5 N 44.83 CA 43.0 C 44.47 O 46.47 CB 40.76 CG 35.08 CD1 34.63 CD2 38.53 NE1 32.46 CE2 33.14 CE3 39.34 CZ2 40.79 CZ3 39.15 CH2 38.73
B SER E 12 -120.7 158.1 N 44.67 CA 43.31 C 43.03 O 41.26 CB 41.84 OG 40.34
B HIS E 38 -131.0 118.2 N 43.41 CA 41.67 C 40.62 O 38.63 CB 41.18 CG 45.46 ND1 47.26 CD2 44.06 CE1 47.51 NE2 45.25
B ASN T 97 46.1 46.4 N 40.59 CA 41.76 C 42.58 O 42.25 CB 41.94 CG 41.57 OD1 43.82 ND2 37.72
B GLY T 69 81.6 -1.8 N 43.97 CA 44.7 C 45.64 O 46.84
B SER E 78 -113.9 148.5 N 46.74 CA 47.58 C 47.5 O 46.48 CB 47.65 OG 48.69
B ALA E 83 -63.3 144.2 N 47.32 CA 47.52 C 48.48 O 48.05 CB 46.44
B ILE - 26 -90.6 124.8 N 50.21 CA 51.45 C 51.46 O 51.64 CB 51.87 CG1 52.0 CG2 54.4 CD1 53.01
B ARG - 90 -72.5 132.6 N 51.34 CA 51.58 C 51.75 O 52.55 CB 51.16
B TYR - 106 -101.3 152.0 N 51.23 CA 50.61 C 50.14 O 50.02 CB 50.25 CG 53.22 CD1 55.12 CD2 51.32 CE1 54.74 CE2 49.62 CZ 53.35 OH 53.51
B SER - 60 -148.9 -169.1 N 49.47 CA 48.71 C 47.93 O 48.11 CB 49.19 OG 47.1
B ASP S 145 -74.6 -19.1 N 47.24 CA 47.25 C 46.84 O 48.26 CB 47.91 CG 48.99 OD1 51.38 OD2 49.75
B ARG S 87 -84.6 -43.6 N 45.67 CA 43.36 C 41.64 O 40.74 CB 44.48 CG 42.18 CD 42.1 NE 44.68 CZ 39.02 NH1 32.41 NH2 39.11
B VAL E 13 -118.5 117.2 N 40.55 CA 39.3 C 40.15 O 38.93 CB 38.55 CG1 36.12 CG2 38.38
B LYS E 87 -138.8 155.3 N 39.75 CA 39.83 C 39.88 O 38.47 CB 40.0 CG 38.56 CD 40.24 CE 46.66 NZ 49.77
B THR E 50 -128.5 155.7 N 39.33 CA 38.43 C 37.64 O 37.06 CB 37.61 OG1 44.25 CG2 32.09
B GLY E 19 -163.9 179.6 N 36.32 CA 34.71 C 34.24 O 30.93
B VAL E 77 -129.8 134.4 N 35.99 CA 37.88 C 38.45 O 38.64 CB 38.78 CG1 38.69 CG2 36.94
B THR E 85 -122.1 97.9 N 38.28 CA 38.01 C 37.66 O 36.69 CB 37.87 OG1 40.13 CG2 36.39
B GLY T 69 65.3 -117.7 N 36.59 CA 38.11 C 38.36 O 37.24
B GLU T 68 -101.9 12.7 N 38.76 CA 38.76 C 36.18 O 35.15 CB 39.89 CG 44.92 CD 51.09 OE1 53.84 OE2 56.31
B GLN E 45 -89.9 108.7 N 36.29 CA 36.29 C 38.64 O 39.77 CB 35.68 CG 32.17 CD 34.25 OE1 32.17 NE2 32.8
B ILE E 1 -93.8 131.4 N 39.52 CA 39.41 C 39.61 O 39.68 CB 37.34 CG1 40.62 CG2 39.4 CD1 47.66
B TRP E 58 -145.0 165.9 N 40.85 CA 41.1 C 42.77 O 40.89 CB 42.17 CG 43.9 CD1 40.36 CD2 43.58 NE1 44.31 CE2 45.56 CE3 44.33 CZ2 46.4 CZ3 44.07 CH2 44.12
B LEU E 0 -140.4 123.6 N 42.35 CA 43.11 C 43.46 O 43.13 CB 42.24 CG 42.51 CD1 43.39 CD2 43.67
B GLN E 9 -107.5 121.1 N 44.81 CA 45.57 C 45.15 O 44.95 CB 46.93 CG 48.72 CD 58.28 OE1 64.88 NE2 52.9
B ILE E 1 -110.9 98.8 N 44.3 CA 43.14 C 43.29 O 44.39 CB 43.38 CG1 44.55 CG2 37.42 CD1 41.33
B ASN E 22 -75.5 141.4 N 43.36 CA 42.91 C 44.3 O 44.57 CB 43.04 CG 42.36 OD1 51.3 ND2 48.24
B GLU S 86 44.7 63.7 N 45.58 CA 48.5 C 48.34 O 50.31 CB 47.91 CG 53.39 CD 52.48 OE1 58.18 OE2 60.95
B PRO - 4 -63.3 148.5 N 46.42 CA 46.13 C 44.78 O 45.49 CB 45.2 CG 46.65 CD 46.75
B THR - 57 -125.8 168.5 N 45.07 CA 43.35 C 42.36 O 40.8 CB 43.8 OG1 44.96 CG2 41.18
B PRO G 97 -49.5 -27.4 N 42.05 CA 41.18 C 41.21 O 42.12 CB 41.84 CG 41.78 CD 41.73
B ASN G 140 -52.5 -32.5 N 43.19 CA 42.48 C 39.69 O 36.0 CB 45.31 CG 53.24 OD1 63.94 ND2 55.58
B ASP G 13 -87.2 -5.2 N 37.57 CA 39.14 C 40.84 O 38.9 CB 39.63 CG 40.84 OD1 41.81 OD2 41.43
B LYS - 66 -68.3 157.6 N 41.16 CA 42.14 C 42.94 O 44.37 CB 41.51 CG 37.32 CD 42.8 CE 42.65 NZ 47.51
B GLY E 10 127.5 -162.8 N 44.08 CA 44.93 C 44.48 O 45.03
B LYS E 92 -88.7 117.8 N 44.68 CA 44.79 C 45.21 O 46.67 CB 43.64 CG 41.24 CD 43.33 CE 43.14 NZ 38.88
B TYR E 4 -105.1 122.3 N 45.52 CA 44.83 C 43.7 O 42.04 CB 44.28 CG 47.04 CD1 48.18 CD2 43.31 CE1 46.41 CE2 47.87 CZ 46.23 OH 44.26
B VAL E 21 -110.5 129.0 N 43.39 CA 42.35 C 42.77 O 43.3 CB 42.79 CG1 42.5 CG2 40.13
B MET E 0 -105.3 119.8 N 42.8 CA 43.38 C 45.21 O 46.73 CB 42.78 CG 40.72 SD 41.97 CE 38.88
B GLU E 70 -110.1 128.8 N 46.49 CA 46.5 C 45.76 O 44.59 CB 48.25 CG 53.48 CD 58.68 OE1 56.26 OE2 53.11
B LEU E 8 -119.7 148.2 N 45.54 CA 45.19 C 46.06 O 46.53 CB 44.69 CG 45.09 CD1 41.24 CD2 42.43
B PHE E 96 -145.3 123.6 N 46.58 CA 46.01 C 46.94 O 47.0 CB 45.12 CG 45.66 CD1 46.17 CD2 44.31 CE1 46.62 CE2 44.28 CZ 43.93
B ASP - 62 -105.3 -2.3 N 48.16 CA 49.33 C 50.05 O 50.04 CB 50.06 CG 51.71 OD1 55.43 OD2 52.33
B GLY S 56 116.8 -34.1 N 51.03 CA 52.06 C 52.92 O 53.63
B LYS S 179 -108.3 -39.5 N 52.71 CA 52.13 C 51.83 O 51.89 CB 51.64 CG 51.44 CD 48.46 CE 47.66 NZ 47.6
B THR - 70 -131.1 148.7 N 51.39 CA 51.29 C 51.8 O 52.92 CB 51.13 OG1 52.3 CG2 51.24
B GLY E 46 -99.8 157.8 N 51.4 CA 49.9 C 49.48 O 48.76
B HIS E 67 -162.1 136.6 N 50.17 CA 50.67 C 50.17 O 50.49 CB 51.3 CG 53.55 ND1 53.28 CD2 56.69 CE1 49.81 NE2 54.76
B GLN E 115 -129.4 143.8 N 48.2 CA 47.4 C 46.99 O 47.26 CB 47.38 CG 48.49 CD 48.71 OE1 46.59 NE2 40.48
B LYS E 38 -123.3 147.7 N 44.78 CA 43.34 C 42.92 O 42.75 CB 41.23 CG 38.34 CD 29.59 CE 34.79 NZ 32.59
B THR E 62 -129.1 147.7 N 43.16 CA 41.45 C 40.34 O 40.95 CB 43.14 OG1 41.14 CG2 40.53
B VAL E 23 -145.5 143.0 N 40.02 CA 41.56 C 42.67 O 44.62 CB 39.93 CG1 41.33 CG2 42.65
B ASP E 76 -93.9 107.6 N 43.89 CA 42.69 C 41.92 O 41.99 CB 40.53 CG 38.79 OD1 36.58 OD2 36.34
B LEU E 0 -83.9 75.1 N 41.22 CA 42.22 C 43.84 O 45.68 CB 40.2 CG 44.22 CD1 40.53 CD2 42.09
B SER - 44 -148.7 171.6 N 43.26 CA 44.02 C 47.37 O 47.83 CB 43.67 OG 41.01
B GLY H 40 51.2 -130.2 N 47.54 CA 46.1 C 45.92 O 49.16
B GLN H 121 -59.1 -44.8 N 42.38 CA 41.5 C 39.36 O 41.25 CB 39.78 CG 40.26 CD 44.19 OE1 48.56 NE2 46.2
B ALA H 37 -51.1 -42.1 N 39.8 CA 38.14 C 39.33 O 40.29 CB 33.67
B TYR H 12 -81.6 -38.9 N 39.58 CA 40.67 C 42.81 O 43.61 CB 40.56 CG 40.65 CD1 41.6 CD2 42.43 CE1 43.59 CE2 41.23 CZ 43.59 OH 40.9
B ASP H 92 -56.7 -55.0 N 41.71 CA 42.32 C 40.86 O 41.88 CB 38.61 CG 46.09 OD1 35.96 OD2 34.53
B GLU H 119 -59.5 -48.1 N 41.62 CA 43.36 C 43.78 O 42.62 CB 42.76 CG 49.36 CD 53.97 OE1 57.81 OE2 58.16
B ALA H 7 -61.9 -42.9 N 41.65 CA 40.88 C 42.09 O 41.42 CB 38.55
B TYR H 81 -62.8 -46.9 N 42.38 CA 42.95 C 42.06 O 40.58 CB 43.3 CG 43.91 CD1 40.83 CD2 42.92 CE1 43.85 CE2 51.14 CZ 48.35 OH 42.87
B ALA H 34 -59.5 -40.2 N 41.45 CA 42.41 C 42.34 O 44.07 CB 42.66
B GLU H 98 -71.0 -40.5 N 41.98 CA 43.1 C 43.66 O 44.62 CB 42.03 CG 47.42 CD 53.29 OE1 58.27 OE2 57.66
B PHE H 1 -49.1 -61.0 N 44.18 CA 44.87 C 45.1 O 48.49 CB 45.08 CG 43.84 CD1 46.59 CD2 43.88 CE1 48.14 CE2 43.98 CZ 46.76
B GLN H 64 -52.5 -41.4 N 42.72 CA 41.59 C 42.01 O 40.86 CB 43.07 CG 48.2 CD 50.79 OE1 55.44 NE2 55.82
B ARG H 177 -67.9 -39.5 N 39.86 CA 37.39 C 37.4 O 38.51 CB 36.43 CG 43.81 CD 48.03 NE 65.0 CZ 66.2 NH1 72.45 NH2 66.43
B LEU H 61 -70.2 -29.0 N 36.61 CA 38.38 C 39.85 O 42.82 CB 36.82 CG 38.96 CD1 36.86 CD2 35.64
B LYS H 70 -68.4 -44.6 N 40.79 CA 40.77 C 44.36 O 44.07 CB 41.18 CG 39.39 CD 38.7 CE 37.12 NZ 35.04
B GLN H 144 -65.7 -37.3 N 46.78 CA 49.53 C 49.25 O 53.71 CB 49.63 CG 56.98 CD 59.44 OE1 70.69 NE2 57.53
B ALA H 57 -62.6 -37.7 N 48.01 CA 45.45 C 45.14 O 45.47 CB 43.51
B ALA H 41 -68.6 -33.4 N 44.49 CA 45.49 C 46.83 O 47.94 CB 46.66
B ILE H 65 -61.7 -42.6 N 46.79 CA 47.98 C 47.28 O 49.32 CB 47.51 CG1 46.49 CG2 50.56 CD1 49.59
B ALA H 26 -57.8 -49.9 N 45.37 CA 46.18 C 45.06 O 44.45 CB 45.76
B GLU H 102 -62.4 -42.5 N 43.41 CA 43.5 C 44.47 O 41.73 CB 44.43 CG 44.17 CD 47.96 OE1 47.09 OE2 42.32
B LYS H 136 -65.6 -35.1 N 45.13 CA 45.67 C 44.89 O 48.31 CB 46.38 CG 46.67 CD 46.09 CE 50.63 NZ 46.73
B ASN H 17 -104.8 -1.6 N 43.6 CA 40.11 C 38.66 O 38.01 CB 41.7 CG 40.15 OD1 42.91 ND2 44.25
B ARG S 58 -59.6 149.8 N 38.03 CA 36.9 C 36.71 O 35.45 CB 36.44 CG 36.6 CD 37.37 NE 42.91 CZ 40.52 NH1 38.87 NH2 45.04
B ALA - 0 -67.3 135.9 N 36.8 CA 38.49 C 42.93 O 44.17 CB 37.87
B ARG E 50 -143.0 140.7 N 43.2 CA 44.14 C 44.5 O 45.94 CB 43.3 CG 46.85 CD 49.98 NE 55.88 CZ 59.45 NH1 58.54 NH2 64.12
B VAL E 26 -76.2 119.8 N 43.68 CA 40.77 C 41.79 O 41.45 CB 42.61 CG1 39.78 CG2 38.19
B LEU E 93 -84.1 -35.4 N 42.67 CA 43.48 C 43.42 O 42.39 CB 43.82 CG 44.01 CD1 40.03 CD2 42.76
B GLY E 10 154.9 -176.9 N 43.01 CA 42.91 C 43.74 O 42.25
B GLY B 1 129.9 -33.4 N 42.81 CA 39.14 C 43.93 O 43.3
B LEU - 4 -92.2 134.3 N 42.53 CA 44.52 C 45.73 O 45.71 CB 43.9 CG 42.71 CD1 42.1 CD2 41.04
B PRO - 0 -80.6 159.0 N 44.1 CA 42.62 C 42.94 O 42.37 CB 42.39 CG 43.4 CD 44.77
B ASP S 30 -67.0 -39.2 N 38.57 CA 41.01 C 43.53 O 44.67 CB 42.85 CG 44.99 OD1 48.88 OD2 52.75
B VAL E 46 -140.8 133.5 N 42.44 CA 42.28 C 43.16 O 43.26 CB 40.14 CG1 36.02 CG2 38.11
B VAL E 0 -122.4 128.8 N 44.17 CA 46.99 C 47.4 O 52.12 CB 50.72 CG1 55.16 CG2 45.61
B THR E 38 -103.3 134.6 N 45.12 CA 46.2 C 46.7 O 45.83 CB 48.8 OG1 52.51 CG2 45.15
B ILE E 0 -144.2 142.8 N 46.93 CA 45.46 C 45.59 O 45.84 CB 48.38 CG1 48.11 CG2 47.97 CD1 45.15
B GLN E 64 -64.2 129.8 N 42.99 CA 42.47 C 42.5 O 41.04 CB 41.72 CG 46.86 CD 46.78 OE1 51.0 NE2 53.85
B GLU T 62 -52.9 131.4 N 42.97 CA 42.4 C 42.69 O 42.84 CB 40.73 CG 41.66 CD 48.38 OE1 46.72 OE2 41.01
B GLY T 55 102.6 -16.5 N 42.69 CA 41.47 C 43.28 O 42.72
B LYS - 63 -81.8 149.7 N 42.64 CA 44.09 C 44.44 O 46.19 CB 44.35 CG 46.5 CD 47.64 CE 52.37 NZ 48.78
B ALA - 18 -84.3 152.8 N 45.23 CA 44.9 C 43.4 O 43.24 CB 43.75
B LEU E 0 -133.7 125.8 N 44.23 CA 44.54 C 44.56 O 42.42 CB 44.97 CG 38.49 CD1 41.81 CD2 44.41
B ASN E 11 -116.0 115.2 N 41.29 CA 43.31 C 47.2 O 47.97 CB 41.75 CG 43.78 OD1 49.17 ND2 49.12
B LEU E 0 -116.8 150.8 N 46.1 CA 44.02 C 45.61 O 47.34 CB 43.07 CG 43.35 CD1 47.85 CD2 44.25
B THR E 10 -142.8 131.3 N 45.56 CA 46.3 C 46.52 O 45.75 CB 44.93 OG1 48.2 CG2 44.9
B CYS E 0 -121.5 125.4 N 45.47 CA 43.58 C 42.86 O 43.15 CB 42.32 SG 45.37
B ASN E 52 -87.1 126.9 N 44.45 CA 44.91 C 44.26 O 43.17 CB 44.29 CG 48.92 OD1 45.87 ND2 41.56
B VAL E 0 -120.8 170.4 N 43.99 CA 43.34 C 44.54 O 45.45 CB 43.61 CG1 37.03 CG2 41.63
B TRP E 64 -145.8 145.5 N 44.5 CA 44.89 C 42.42 O 42.28 CB 48.62 CG 52.83 CD1 53.93 CD2 55.71 NE1 52.3 CE2 55.87 CE3 53.83 CZ2 55.21 CZ3 56.38 CH2 55.77
B GLY - 8 -177.0 139.8 N 40.38 CA 40.09 C 41.23 O 40.46
B ASP S 84 -137.6 104.5 N 41.07 CA 42.63 C 43.2 O 40.98 CB 42.5 CG 46.77 OD1 47.88 OD2 49.4
B PRO S 49 -68.8 157.5 N 43.6 CA 42.57 C 42.98 O 43.98 CB 42.77 CG 46.22 CD 42.8
B PRO - 95 -49.7 138.1 N 41.36 CA 40.91 C 40.84 O 40.07 CB 38.68 CG 38.53 CD 40.72
B PRO - 6 -82.8 167.2 N 40.09 CA 39.02 C 40.47 O 40.57 CB 39.35 CG 39.39 CD 40.76
B GLU E 142 -96.6 142.6 N 41.54 CA 41.7 C 42.9 O 44.9 CB 42.08 CG 50.26 CD 61.15 OE1 67.79 OE2 64.35
B VAL E 31 -120.7 144.1 N 42.2 CA 42.84 C 44.04 O 41.31 CB 44.43 CG1 37.83 CG2 47.4
B SER E 66 -139.3 158.0 N 44.22 CA 43.58 C 43.17 O 43.02 CB 44.08 OG 44.08
B TRP E 12 -120.4 152.2 N 43.2 CA 43.36 C 41.67 O 41.62 CB 44.59 CG 48.12 CD1 47.61 CD2 46.18 NE1 52.24 CE2 50.07 CE3 52.81 CZ2 47.81 CZ3 48.0 CH2 46.73
B LEU E 45 -123.8 151.0 N 40.43 CA 40.12 C 40.8 O 40.59 CB 40.4 CG 43.24 CD1 41.78 CD2 36.95
B LYS E 48 -134.2 124.4 N 41.23 CA 40.59 C 40.63 O 40.09 CB 40.25 CG 39.77 CD 46.68 CE 49.51 NZ 51.74
B ASN T 87 51.2 41.7 N 41.55 CA 42.3 C 42.81 O 42.64 CB 43.14 CG 45.86 OD1 49.68 ND2 52.64
B GLU T 177 70.3 4.1 N 44.07 CA 46.97 C 47.83 O 46.68 CB 48.11 CG 53.04 CD 66.56 OE1 70.45 OE2 69.46
B LYS E 147 -111.1 152.3 N 46.4 CA 47.58 C 45.74 O 44.96 CB 49.47 CG 53.13 CD 52.04 CE 66.43 NZ 70.98
B ALA E 93 -50.8 138.5 N 44.23 CA 42.91 C 42.12 O 42.59 CB 42.81
B LEU E 43 -116.1 125.1 N 39.24 CA 39.93 C 41.42 O 41.8 CB 41.2 CG 42.28 CD1 40.13 CD2 33.19
B ALA - 83 -89.6 148.1 N 40.9 CA 43.16 C 43.58 O 45.25 CB 41.17
B GLN - 100 -78.0 140.6 N 42.07 CA 40.66 C 42.71 O 42.78 CB 38.81 CG 36.97 CD 58.24 OE1 64.42 NE2 55.36
B THR - 71 -132.1 175.5 N 44.59 CA 43.64 C 41.96 O 41.85 CB 44.59 OG1 57.56 CG2 40.32
B ASP S 136 -76.6 -16.6 N 42.37 CA 43.16 C 44.43 O 46.73 CB 44.1 CG 49.07 OD1 49.8 OD2 47.38
B HIS S 69 -85.9 -54.4 N 42.91 CA 39.97 C 40.93 O 38.78 CB 38.92 CG 41.34 ND1 42.52 CD2 40.92 CE1 45.08 NE2 45.64
B CYS E 8 -111.0 98.3 N 43.13 CA 43.19 C 43.61 O 45.31 CB 44.49 SG 45.28
B ASN E 21 -103.5 136.5 N 41.57 CA 39.74 C 39.68 O 39.31 CB 37.41 CG 42.32 OD1 45.41 ND2 37.82
B LEU E 22 -126.1 126.9 N 43.27 CA 43.81 C 45.83 O 45.82 CB 45.8 CG 43.87 CD1 44.94 CD2 37.89
B LYS E 108 -136.1 154.9 N 44.5 CA 44.47 C 43.25 O 46.84 CB 41.29 CG 47.63 CD 49.63 CE 56.05 NZ 54.45
B PHE E 71 -146.0 118.7 N 43.56 CA 42.81 C 44.0 O 40.58 CB 42.15 CG 41.62 CD1 42.21 CD2 39.49 CE1 38.97 CE2 37.61 CZ 39.42
B GLU E 98 -125.6 144.2 N 44.85 CA 44.64 C 41.3 O 40.97 CB 43.05 CG 46.96 CD 51.3 OE1 55.42 OE2 42.89
B ALA T 99 55.1 20.7 N 41.81 CA 41.81 C 42.03 O 41.76 CB 40.39
B GLY T 18 59.5 23.1 N 42.33 CA 42.46 C 43.05 O 45.21
B ARG T 108 -137.3 -31.7 N 41.87 CA 43.06 C 41.43 O 41.87 CB 45.91 CG 53.28 CD 61.68 NE 76.81 CZ 81.53 NH1 77.64 NH2 79.47
B THR E 27 -132.3 122.5 N 41.08 CA 41.35 C 42.15 O 42.82 CB 41.76 OG1 39.8 CG2 41.46
B ALA E 0 -109.7 126.0 N 42.44 CA 41.38 C 43.37 O 45.96 CB 39.72
B TYR E 58 -110.4 138.7 N 44.99 CA 43.21 C 45.43 O 45.77 CB 37.63 CG 39.19 CD1 39.27 CD2 40.85 CE1 42.33 CE2 42.07 CZ 42.5 OH 39.56
B PHE E 0 -124.5 114.5 N 43.76 CA 43.3 C 42.97 O 43.62 CB 47.0 CG 44.01 CD1 45.4 CD2 47.5 CE1 45.29 CE2 45.21 CZ 45.67
B THR E 27 -129.9 120.2 N 42.74 CA 42.75 C 42.54 O 43.16 CB 43.0 OG1 49.26 CG2 42.66
B ILE E 0 -109.1 122.7 N 42.95 CA 42.64 C 43.61 O 42.08 CB 42.67 CG1 39.61 CG2 41.62 CD1 43.99
B ASN S 92 -92.8 82.4 N 42.73 CA 45.8 C 44.93 O 47.06 CB 48.35 CG 62.05 OD1 71.82 ND2 56.21
B GLY S 23 89.7 84.9 N 44.07 CA 43.81 C 44.63 O 44.81
B VAL - 0 -69.3 117.2 N 42.63 CA 44.38 C 45.47 O 43.86 CB 45.39 CG1 47.44 CG2 42.52
B SER - 35 -93.2 165.5 N 42.42 CA 41.99 C 43.41 O 44.95 CB 42.71 OG 45.49
B THR G 65 -55.0 -36.9 N 42.24 CA 39.85 C 42.99 O 43.18 CB 40.13 OG1 35.91 CG2 28.83
B ALA G 72 -56.9 -25.1 N 40.39 CA 40.91 C 43.64 O 46.22 CB 39.6
B ASP G 14 -84.4 -10.3 N 43.93 CA 44.11 C 46.96 O 48.7 CB 42.65 CG 47.87 OD1 45.52 OD2 43.63
B SER - 48 -65.7 155.8 N 43.52 CA 42.6 C 43.34 O 44.3 CB 43.33 OG 41.7
B GLY E 18 144.2 -176.6 N 41.15 CA 41.33 C 43.88 O 42.77
B LYS E 141 -98.2 109.7 N 43.69 CA 42.34 C 42.29 O 43.54 CB 43.42 CG 45.3 CD 46.31 CE 50.51 NZ 48.11
B TYR E 6 -101.8 160.8 N 42.11 CA 42.33 C 43.73 O 43.71 CB 44.48 CG 44.49 CD1 48.04 CD2 46.85 CE1 41.89 CE2 41.54 CZ 46.28 OH 46.23
B GLY E 1 -143.0 147.4 N 44.13 CA 42.35 C 41.22 O 43.57
B LEU E 0 -108.5 136.0 N 40.27 CA 41.15 C 43.74 O 44.98 CB 42.25 CG 46.57 CD1 48.08 CD2 53.81
B VAL E 26 -121.4 129.0 N 42.29 CA 41.84 C 43.68 O 44.37 CB 41.44 CG1 35.3 CG2 40.21
B VAL E 0 -113.8 143.2 N 44.64 CA 44.59 C 44.01 O 44.2 CB 44.69 CG1 54.23 CG2 39.98
B LYS E 126 -147.0 131.5 N 43.69 CA 42.92 C 42.16 O 42.47 CB 41.02 CG 47.71 CD 46.84 CE 52.18 NZ 47.89
B ASN E 16 -134.3 -171.3 N 40.4 CA 38.66 C 39.54 O 37.64 CB 38.21 CG 36.91 OD1 36.39 ND2 28.54
B LYS T 157 -66.2 -18.3 N 39.43 CA 39.74 C 39.13 O 38.89 CB 40.1 CG 39.82 CD 46.13 CE 47.96 NZ 45.42
B TYR T 79 -102.0 -7.4 N 38.35 CA 38.08 C 40.25 O 40.81 CB 37.25 CG 36.32 CD1 34.13 CD2 38.32 CE1 38.02 CE2 34.72 CZ 36.53 OH 34.18
B GLY E 24 154.6 -169.0 N 42.19 CA 43.66 C 45.27 O 45.23
B SER E 64 -159.4 140.3 N 44.82 CA 46.03 C 44.04 O 44.17 CB 46.15 OG 53.18
B GLU E 56 -141.1 156.7 N 42.79 CA 42.18 C 43.41 O 43.7 CB 41.71 CG 40.13 CD 41.68 OE1 40.31 OE2 38.6
B THR E 74 -126.1 151.8 N 44.97 CA 47.45 C 46.79 O 45.56 CB 48.43 OG1 54.85 CG2 46.94
B SER E 15 -132.0 123.5 N 44.2 CA 43.04 C 43.78 O 45.3 CB 41.03 OG 45.49
B ASP E 107 -104.9 150.1 N 43.75 CA 43.84 C 44.32 O 44.91 CB 44.85 CG 49.52 OD1 53.34 OD2 53.14
B PHE E 3 -155.2 142.3 N 43.26 CA 44.69 C 44.31 O 44.42 CB 43.1 CG 49.44 CD1 48.13 CD2 44.95 CE1 44.78 CE2 44.94 CZ 43.53
B THR E 39 -99.7 136.8 N 42.48 CA 45.53 C 47.37 O 45.61 CB 43.26 OG1 42.34 CG2 45.97
B VAL E 1 -109.0 116.9 N 47.2 CA 45.99 C 44.43 O 44.49 CB 49.58 CG1 52.94 CG2 48.4
B SER E 43 -115.9 154.8 N 43.97 CA 44.77 C 43.91 O 45.75 CB 42.61 OG 45.11
B VAL E 32 -128.0 140.5 N 46.43 CA 45.81 C 44.88 O 45.35 CB 47.86 CG1 45.07 CG2 41.09
B PHE E 85 -120.3 141.0 N 42.58 CA 43.23 C 42.02 O 42.26 CB 39.27 CG 42.55 CD1 42.3 CD2 44.9 CE1 40.9 CE2 37.69 CZ 38.9
B ILE - 116 -87.0 128.3 N 42.56 CA 43.23 C 42.18 O 40.7 CB 43.46 CG1 43.89 CG2 38.72 CD1 49.65
B PRO - 44 -76.8 163.9 N 44.55 CA 45.62 C 48.2 O 47.5 CB 43.69 CG 43.16 CD 43.83
B GLU - 264 -33.4 360.0 N 51.46 CA 55.55 C 56.85 O 56.75 CB 56.14 CG 61.93 CD 65.81 OE1 65.85 OE2 68.75 OXT 58.94
