A HIS - 159 360.0 -140.1 N 100.62 CA 100.86 C 99.6 O 100.07 CB 102.25 CG 103.48 ND1 103.87 CD2 103.09 CE1 103.04 NE2 104.1
A MET - 41 -104.8 153.9 N 97.53 CA 94.07 C 91.02 O 90.01 CB 94.88 CG 96.3 SD 102.67 CE 96.95
A ILE - 13 -132.1 130.0 N 87.75 CA 84.14 C 81.06 O 79.37 CB 85.29 CG1 85.83 CG2 84.84 CD1 84.71
A VAL E 1 -118.2 143.6 N 78.35 CA 74.79 C 71.97 O 69.09 CB 75.71 CG1 74.77 CG2 75.15
A LEU E 0 -117.6 111.2 N 70.6 CA 69.84 C 67.56 O 67.96 CB 70.27 CG 70.94 CD1 72.67 CD2 71.05
A PHE E 0 -94.3 131.4 N 64.31 CA 61.24 C 60.26 O 58.91 CB 60.42 CG 60.33 CD1 61.75 CD2 61.0 CE1 61.8 CE2 60.68 CZ 61.56
A VAL E 0 -118.4 129.3 N 58.22 CA 56.86 C 57.96 O 59.67 CB 55.18 CG1 51.16 CG2 55.81
A ASP E 11 -134.7 113.8 N 56.81 CA 55.94 C 54.86 O 58.06 CB 56.38 CG 57.6 OD1 62.99 OD2 58.2
A PHE E 0 -64.8 137.5 N 52.58 CA 51.97 C 53.67 O 54.45 CB 51.22 CG 51.68 CD1 51.54 CD2 52.27 CE1 51.59 CE2 53.22 CZ 54.17
A ASP T 1 -75.7 138.8 N 55.58 CA 58.85 C 59.23 O 60.69 CB 63.06 CG 67.01 OD1 73.23 OD2 68.08
A TYR T 33 22.2 53.0 N 59.96 CA 60.53 C 59.78 O 60.8 CB 62.45 CG 65.04 CD1 67.76 CD2 65.96 CE1 69.25 CE2 68.0 CZ 70.2 OH 70.24
A PHE H 7 -35.8 -55.1 N 56.98 CA 52.3 C 52.94 O 52.49 CB 48.53 CG 42.38 CD1 41.51 CD2 37.19 CE1 38.48 CE2 37.56 CZ 35.85
A TYR H 36 -69.1 -36.5 N 52.17 CA 53.98 C 56.73 O 59.57 CB 51.34 CG 52.64 CD1 53.71 CD2 53.95 CE1 55.38 CE2 55.95 CZ 55.99 OH 57.69
A ALA H 0 -67.7 -35.8 N 59.24 CA 60.04 C 60.81 O 61.71 CB 61.27
A GLN H 5 -76.3 -31.5 N 60.16 CA 59.5 C 61.71 O 62.4 CB 58.23 CG 58.54 CD 62.91 OE1 65.3 NE2 62.81
A VAL H 2 -67.6 -27.5 N 62.48 CA 63.44 C 66.47 O 68.19 CB 64.31 CG1 61.16 CG2 63.0
A GLU H 7 -71.0 -41.5 N 65.2 CA 62.95 C 63.4 O 64.62 CB 60.88 CG 63.4 CD 64.12 OE1 68.23 OE2 64.84
A GLU H 3 -67.0 -29.4 N 64.15 CA 65.23 C 64.03 O 65.12 CB 66.6 CG 75.27 CD 80.33 OE1 83.35 OE2 82.29
A VAL H 38 -71.7 -44.2 N 63.34 CA 61.03 C 61.58 O 59.48 CB 59.63 CG1 56.69 CG2 57.95
A LEU H 89 -71.6 -17.3 N 62.42 CA 63.08 C 63.44 O 61.22 CB 63.48 CG 65.69 CD1 66.12 CD2 64.53
A ASN S 74 -151.9 76.2 N 63.61 CA 64.91 C 65.31 O 67.32 CB 67.46 CG 70.0 OD1 70.98 ND2 69.74
A PRO G 75 -52.6 -23.5 N 66.47 CA 63.26 C 64.96 O 64.44 CB 63.23 CG 64.73 CD 64.23
A SER G 78 -51.8 -29.0 N 68.92 CA 72.5 C 74.32 O 77.08 CB 73.08 OG 74.36
A LEU G 13 -65.2 -35.5 N 76.07 CA 75.72 C 76.58 O 75.44 CB 74.76 CG 73.17 CD1 72.08 CD2 70.05
A LYS T 110 -42.9 141.8 N 77.29 CA 78.54 C 78.82 O 78.09 CB 79.76 CG 82.15 CD 86.63 CE 90.57 NZ 91.02
A GLY T 62 89.7 -22.5 N 78.71 CA 78.37 C 78.61 O 78.3
A LYS S 92 -96.3 167.3 N 78.24 CA 76.72 C 75.88 O 77.04 CB 75.45 CG 76.53 CD 76.82 CE 80.06 NZ 79.86
A PRO - 35 -79.6 116.7 N 74.36 CA 69.59 C 66.89 O 64.3 CB 70.85 CG 73.04 CD 72.53
A VAL E 0 -111.0 137.3 N 64.03 CA 61.97 C 60.36 O 59.36 CB 63.3 CG1 64.45 CG2 64.16
A VAL E 0 -138.2 113.0 N 59.64 CA 58.51 C 59.47 O 60.92 CB 59.58 CG1 60.86 CG2 56.84
A VAL E 0 -86.0 121.0 N 56.7 CA 54.17 C 56.49 O 56.0 CB 51.03 CG1 45.27 CG2 52.29
A CYS E 0 -105.8 171.9 N 58.06 CA 60.42 C 60.96 O 62.65 CB 62.79 SG 71.29
A VAL E 69 -133.1 85.9 N 60.36 CA 59.05 C 61.72 O 61.11 CB 57.97 CG1 56.09 CG2 54.9
A PHE E 86 -73.1 94.5 N 62.71 CA 63.56 C 64.91 O 64.15 CB 64.1 CG 66.12 CD1 67.61 CD2 67.39 CE1 67.12 CE2 67.85 CZ 68.33
A SER - 28 -61.1 -6.8 N 67.37 CA 69.33 C 71.53 O 71.12 CB 69.74 OG 68.43
A GLY - 39 61.9 26.0 N 73.94 CA 76.32 C 78.03 O 78.85
A ARG S 62 -83.6 -34.7 N 79.2 CA 79.85 C 81.07 O 80.5 CB 79.45 CG 78.87 CD 80.28 NE 83.1 CZ 84.64 NH1 85.38 NH2 83.81
A PHE S 128 -167.0 141.4 N 81.88 CA 81.44 C 82.11 O 81.93 CB 79.87 CG 78.03 CD1 78.81 CD2 77.48 CE1 79.77 CE2 78.54 CZ 78.47
A GLU T 180 -33.9 114.7 N 83.1 CA 83.74 C 82.59 O 83.06 CB 85.19 CG 88.01 CD 89.0 OE1 92.12 OE2 89.25
A ASP T 46 85.5 16.4 N 80.74 CA 78.83 C 75.47 O 76.7 CB 79.94 CG 81.79 OD1 82.83 OD2 81.38
A SER - 8 -83.2 148.2 N 71.39 CA 66.98 C 64.51 O 62.63 CB 65.71 OG 68.23
A GLY E 21 127.8 169.5 N 63.21 CA 61.36 C 59.64 O 59.09
A ALA E 38 -110.5 174.3 N 58.97 CA 58.01 C 57.26 O 55.0 CB 58.42
A VAL E 4 -97.2 132.5 N 57.8 CA 57.73 C 59.01 O 59.29 CB 58.84 CG1 58.31 CG2 59.71
A ALA E 30 -85.3 -36.6 N 58.67 CA 58.59 C 59.28 O 60.55 CB 56.8
A THR E 20 -178.5 167.8 N 59.77 CA 59.5 C 61.4 O 64.21 CB 58.79 OG1 59.75 CG2 52.08
A ALA E 0 -153.7 150.8 N 62.0 CA 62.12 C 62.02 O 60.67 CB 65.02
A ASN - 0 -70.3 164.7 N 62.81 CA 65.26 C 67.95 O 66.35 CB 65.06 CG 64.22 OD1 64.92 ND2 62.49
A TYR H 59 -59.6 -36.6 N 71.39 CA 76.45 C 78.67 O 79.47 CB 78.38 CG 81.91 CD1 84.33 CD2 84.16 CE1 87.66 CE2 86.64 CZ 88.94 OH 89.97
A GLU H 47 -63.9 17.6 N 79.86 CA 80.23 C 80.35 O 81.37 CB 80.74 CG 82.15 CD 82.81 OE1 83.81 OE2 83.4
A ALA H 0 -156.2 -14.8 N 78.91 CA 77.59 C 76.67 O 77.61 CB 77.23
A ARG H 72 -85.6 -16.0 N 75.61 CA 75.29 C 75.79 O 75.53 CB 76.52 CG 75.92 CD 76.14 NE 78.41 CZ 80.49 NH1 86.06 NH2 76.77
A LYS T 157 -61.5 -24.5 N 76.27 CA 75.9 C 75.63 O 76.89 CB 77.2 CG 78.75 CD 79.62 CE 82.8 NZ 80.31
A PHE T 118 -100.9 25.6 N 73.72 CA 71.5 C 72.23 O 71.64 CB 69.41 CG 67.15 CD1 65.19 CD2 68.94 CE1 65.34 CE2 69.08 CZ 66.28
A GLY T 40 83.6 -12.3 N 72.96 CA 73.93 C 74.28 O 76.44
A VAL - 0 -70.9 96.5 N 72.02 CA 68.59 C 68.27 O 66.34 CB 68.01 CG1 66.52 CG2 68.42
A LYS - 117 -130.5 169.8 N 69.19 CA 69.34 C 69.93 O 70.84 CB 71.0 CG 71.8 CD 74.58 CE 77.04 NZ 73.77
A ALA T 54 -48.5 136.4 N 69.22 CA 67.87 C 67.56 O 69.08 CB 65.58
A GLY T 53 109.8 -50.8 N 66.7 CA 67.42 C 68.98 O 70.75
A ILE S 43 -63.2 147.2 N 69.0 CA 67.01 C 67.08 O 67.67 CB 68.21 CG1 71.24 CG2 67.89 CD1 74.1
A PRO B 66 -64.3 154.5 N 66.85 CA 64.57 C 64.66 O 65.58 CB 63.74 CG 64.82 CD 64.99
A ILE H 0 -70.8 -22.8 N 64.99 CA 65.92 C 66.64 O 67.77 CB 64.04 CG1 61.7 CG2 63.88 CD1 61.21
A VAL H 57 -72.6 -37.4 N 67.86 CA 68.96 C 68.94 O 68.79 CB 67.22 CG1 68.45 CG2 66.55
A GLU H 92 -70.6 -29.9 N 69.72 CA 70.92 C 69.74 O 69.24 CB 72.56 CG 76.99 CD 78.91 OE1 80.62 OE2 81.41
A ALA H 0 -70.7 -39.5 N 69.84 CA 68.97 C 68.51 O 67.62 CB 69.59
A LYS H 64 -69.6 -24.4 N 69.31 CA 69.73 C 71.14 O 70.25 CB 69.24 CG 70.41 CD 71.9 CE 71.79 NZ 71.03
A LYS H 154 -74.0 -34.0 N 72.97 CA 74.75 C 74.3 O 76.76 CB 74.32 CG 77.29 CD 80.07 CE 80.37 NZ 77.4
A ILE H 82 -83.2 -50.8 N 73.04 CA 69.68 C 69.48 O 70.07 CB 65.21 CG1 59.45 CG2 65.24 CD1 59.24
A LEU - 25 -121.7 75.1 N 70.8 CA 71.01 C 70.51 O 72.22 CB 71.25 CG 71.47 CD1 71.38 CD2 71.15
A PRO T 83 -53.7 -38.0 N 69.71 CA 69.68 C 70.2 O 69.9 CB 68.31 CG 68.78 CD 68.57
A ASN T 154 -101.4 18.5 N 70.97 CA 71.7 C 71.49 O 71.08 CB 73.58 CG 75.72 OD1 74.48 ND2 75.72
A ALA S 11 -76.0 167.4 N 70.79 CA 69.41 C 68.92 O 68.33 CB 69.19
A VAL E 41 -94.8 129.3 N 67.41 CA 64.65 C 65.72 O 64.0 CB 63.99 CG1 62.14 CG2 64.28
A TYR E 39 -113.0 117.6 N 65.3 CA 63.92 C 64.49 O 64.68 CB 63.96 CG 63.71 CD1 64.17 CD2 62.38 CE1 62.85 CE2 61.35 CZ 62.73 OH 66.44
A LEU E 32 -116.7 153.3 N 63.92 CA 63.43 C 65.03 O 66.17 CB 62.68 CG 64.04 CD1 62.39 CD2 64.5
A PRO E 76 -86.3 155.0 N 66.0 CA 64.05 C 66.71 O 67.04 CB 63.23 CG 65.18 CD 64.32
A MET - 70 -67.9 124.5 N 67.63 CA 67.33 C 67.59 O 65.65 CB 68.48 CG 72.99 SD 80.81 CE 76.66
A ARG - 105 -111.6 80.0 N 71.25 CA 74.4 C 74.42 O 75.25 CB 75.85 CG 78.95 CD 81.13 NE 84.43 CZ 84.23 NH1 82.37 NH2 83.63
A LYS H 97 -50.3 -54.9 N 75.68 CA 76.5 C 75.7 O 75.42 CB 79.04 CG 83.21 CD 85.23 CE 87.06 NZ 85.02
A GLU H 124 -53.1 -35.3 N 75.63 CA 74.46 C 71.97 O 71.42 CB 77.18 CG 80.43 CD 81.43 OE1 84.55 OE2 81.85
A VAL H 43 -67.7 -57.1 N 69.34 CA 66.4 C 66.47 O 67.68 CB 66.82 CG1 63.22 CG2 64.86
A TYR H 0 -54.2 -35.8 N 63.91 CA 61.72 C 61.32 O 61.2 CB 60.35 CG 58.74 CD1 59.73 CD2 58.35 CE1 59.72 CE2 58.9 CZ 59.15 OH 57.2
A GLN H 79 -65.6 -49.3 N 61.4 CA 62.67 C 63.37 O 61.65 CB 65.6 CG 69.93 CD 71.62 OE1 72.83 NE2 67.32
A GLN H 117 -68.8 -21.3 N 64.86 CA 67.39 C 67.26 O 69.76 CB 69.3 CG 72.84 CD 75.35 OE1 75.22 NE2 73.84
A VAL H 11 -78.6 -37.6 N 65.15 CA 62.02 C 63.58 O 65.44 CB 58.78 CG1 52.69 CG2 57.1
A SER H 5 -62.2 -45.2 N 62.84 CA 60.4 C 59.94 O 58.39 CB 61.22 OG 58.21
A SER H 51 -53.1 -46.1 N 59.51 CA 60.24 C 60.67 O 60.93 CB 60.42 OG 64.36
A ARG H 118 -59.0 -52.2 N 60.42 CA 60.09 C 60.87 O 60.39 CB 61.72 CG 61.88 CD 63.6 NE 64.61 CZ 65.82 NH1 65.22 NH2 67.65
A ILE H 0 -60.9 -31.5 N 62.02 CA 62.9 C 66.39 O 67.48 CB 61.28 CG1 58.02 CG2 58.25 CD1 59.29
A MET H 6 -65.2 -43.3 N 68.7 CA 71.04 C 73.71 O 75.99 CB 69.94 CG 68.48 SD 67.84 CE 64.76
A ASN H 90 -53.9 -65.2 N 74.44 CA 73.68 C 75.27 O 77.55 CB 72.55 CG 73.17 OD1 73.01 ND2 72.39
A LEU H 25 -32.5 -37.2 N 75.29 CA 75.83 C 75.86 O 74.12 CB 76.27 CG 77.19 CD1 76.49 CD2 77.7
A LEU H 0 -74.4 -36.6 N 76.58 CA 77.83 C 79.18 O 79.21 CB 78.06 CG 78.17 CD1 77.51 CD2 78.25
A ARG H 86 -52.9 -28.6 N 79.97 CA 82.08 C 83.89 O 84.96 CB 81.84 CG 83.71 CD 84.98 NE 85.65 CZ 85.98 NH1 86.31 NH2 83.39
A GLU T 130 -74.7 40.5 N 85.94 CA 87.67 C 88.11 O 88.66 CB 88.93 CG 91.13 CD 92.43 OE1 94.49 OE2 93.63
A TYR T 30 -153.7 -17.2 N 87.82 CA 87.06 C 87.13 O 87.37 CB 85.81 CG 84.68 CD1 82.55 CD2 84.99 CE1 82.35 CE2 84.79 CZ 82.89 OH 84.59
A SER - 1 174.3 141.5 N 87.21 CA 87.16 C 86.79 O 85.29 CB 87.33 OG 86.76
A GLU S 152 -106.8 17.9 N 88.84 CA 90.39 C 89.77 O 89.65 CB 92.14 CG 92.35 CD 93.95 OE1 92.98 OE2 95.52
A LYS - 101 -104.4 70.3 N 89.38 CA 88.54 C 86.88 O 85.62 CB 90.89 CG 92.22 CD 92.35 CE 92.22 NZ 90.16
A ILE E 7 -117.4 134.1 N 85.12 CA 84.42 C 84.06 O 84.75 CB 84.51 CG1 85.83 CG2 83.9 CD1 87.17
A GLU E 9 -116.2 129.8 N 83.11 CA 82.22 C 80.7 O 79.48 CB 85.35 CG 88.03 CD 89.26 OE1 89.43 OE2 88.9
A ILE E 50 -102.5 109.7 N 77.56 CA 75.29 C 75.58 O 75.98 CB 74.95 CG1 73.56 CG2 74.84 CD1 75.91
A ALA E 13 -68.2 -78.9 N 73.96 CA 72.42 C 72.45 O 72.33 CB 70.23
A SER E 55 -117.7 -156.8 N 72.03 CA 71.84 C 70.71 O 71.91 CB 72.97 OG 78.88
A ILE T 33 -76.3 -29.3 N 68.58 CA 65.95 C 67.02 O 66.29 CB 65.8 CG1 66.82 CG2 61.58 CD1 67.59
A ASP T 34 -118.3 29.1 N 66.76 CA 65.82 C 66.35 O 65.73 CB 64.01 CG 64.43 OD1 66.55 OD2 63.68
A GLU E 21 -159.9 145.1 N 67.8 CA 68.04 C 66.96 O 66.36 CB 69.87 CG 71.29 CD 75.47 OE1 75.43 OE2 78.92
A ALA E 0 -145.4 153.5 N 65.54 CA 65.14 C 65.03 O 63.67 CB 64.36
A TYR E 16 -110.6 137.8 N 64.93 CA 64.9 C 66.62 O 64.98 CB 63.67 CG 62.63 CD1 63.25 CD2 60.65 CE1 61.98 CE2 59.27 CZ 60.23 OH 63.18
A LEU E 0 -127.2 141.7 N 70.21 CA 73.4 C 77.28 O 77.98 CB 71.91 CG 71.9 CD1 70.5 CD2 73.13
A ASP E 8 -102.5 106.2 N 80.28 CA 81.62 C 81.79 O 81.77 CB 84.08 CG 86.69 OD1 86.66 OD2 86.29
A ILE - 0 -111.1 44.4 N 81.99 CA 83.93 C 86.56 O 88.17 CB 81.77 CG1 81.31 CG2 80.4 CD1 78.49
A SER T 32 -79.5 -35.6 N 88.9 CA 90.5 C 91.12 O 89.84 CB 91.53 OG 90.74
A ASP T 126 -94.7 34.8 N 92.76 CA 94.82 C 95.41 O 97.33 CB 95.94 CG 96.28 OD1 96.2 OD2 97.69
A LYS T 65 -150.8 -15.3 N 95.14 CA 95.0 C 95.61 O 96.61 CB 93.69 CG 95.26 CD 98.61 CE 98.72 NZ 99.83
A VAL - 14 -134.4 156.7 N 96.84 CA 98.23 C 99.43 O 99.99 CB 99.5 CG1 100.21 CG2 99.03
A ARG S 202 -108.4 -35.7 N 99.97 CA 100.04 C 99.31 O 98.86 CB 101.31 CG 103.49 CD 107.88 NE 110.5 CZ 111.52 NH1 110.34 NH2 110.98
A ASP S 61 -155.7 171.1 N 98.33 CA 97.76 C 96.94 O 96.97 CB 98.54 CG 99.29 OD1 100.43 OD2 98.31
A TYR H 49 -59.7 -11.7 N 96.36 CA 96.76 C 97.1 O 98.12 CB 95.91 CG 96.61 CD1 97.6 CD2 97.42 CE1 97.98 CE2 99.26 CZ 99.31 OH 100.49
A ARG H 169 -85.2 -41.6 N 97.79 CA 97.72 C 96.66 O 94.9 CB 98.85 CG 99.89 CD 101.52 NE 102.1 CZ 101.95 NH1 100.08 NH2 101.63
A GLU H 58 -78.1 -24.0 N 96.41 CA 96.92 C 96.23 O 96.82 CB 97.46 CG 98.57 CD 99.14 OE1 99.13 OE2 99.95
A ALA H 0 -73.6 -47.8 N 95.29 CA 93.46 C 92.1 O 90.64 CB 93.9
A TYR H 98 -49.7 -37.4 N 90.58 CA 88.79 C 88.01 O 88.55 CB 88.38 CG 86.87 CD1 87.65 CD2 85.93 CE1 87.2 CE2 85.7 CZ 86.17 OH 83.0
A ASN H 80 -72.6 -43.6 N 85.92 CA 83.49 C 82.54 O 81.93 CB 83.27 CG 84.15 OD1 85.54 ND2 81.45
A LEU H 31 -58.6 -36.5 N 81.15 CA 79.42 C 78.37 O 75.18 CB 79.62 CG 79.34 CD1 76.83 CD2 77.87
A GLY H 0 -58.5 -69.9 N 79.6 CA 81.35 C 82.39 O 84.43
A LEU H 67 -46.4 -39.6 N 81.98 CA 80.95 C 80.25 O 80.28 CB 81.78 CG 82.54 CD1 82.7 CD2 84.97
A GLU H 78 -58.1 -48.2 N 80.07 CA 81.59 C 81.32 O 83.08 CB 83.08 CG 87.29 CD 90.41 OE1 91.77 OE2 92.0
A ILE H 1 -61.6 -51.0 N 80.57 CA 78.56 C 78.27 O 78.56 CB 77.67 CG1 78.43 CG2 77.32 CD1 75.39
A LYS H 30 -45.3 -48.8 N 77.48 CA 76.83 C 77.09 O 77.62 CB 75.21 CG 73.98 CD 74.32 CE 75.4 NZ 75.48
A ASN H 113 -58.4 -50.0 N 76.96 CA 76.22 C 75.82 O 75.99 CB 76.51 CG 78.45 OD1 79.23 ND2 79.09
A LYS H 73 -57.2 -18.5 N 76.6 CA 78.41 C 79.31 O 80.27 CB 78.76 CG 80.18 CD 79.95 CE 80.76 NZ 78.62
A ILE H 0 -103.0 -31.1 N 80.0 CA 80.37 C 80.35 O 80.06 CB 80.81 CG1 79.84 CG2 80.88 CD1 79.49
A LEU H 78 -73.4 -20.6 N 80.44 CA 81.87 C 83.11 O 83.8 CB 81.23 CG 80.2 CD1 79.4 CD2 81.62
A GLU H 125 -94.7 -53.4 N 85.1 CA 85.81 C 85.46 O 85.97 CB 87.19 CG 89.22 CD 89.91 OE1 91.11 OE2 90.28
A LYS H 106 -63.4 -51.2 N 84.66 CA 83.19 C 81.23 O 80.39 CB 83.62 CG 85.37 CD 88.6 CE 91.32 NZ 92.52
A GLU T 44 -107.7 -17.8 N 79.66 CA 79.61 C 77.88 O 74.8 CB 80.89 CG 82.2 CD 85.12 OE1 85.08 OE2 84.54
A LYS - 136 80.0 20.3 N 78.11 CA 78.52 C 77.32 O 79.0 CB 80.49 CG 80.76 CD 81.3 CE 82.58 NZ 81.75
A ILE - 2 -113.1 126.8 N 73.85 CA 70.31 C 67.98 O 67.86 CB 69.97 CG1 70.14 CG2 68.43 CD1 69.78
A THR - 27 -86.2 145.4 N 65.29 CA 63.09 C 61.48 O 61.55 CB 61.74 OG1 58.84 CG2 61.31
A VAL E 2 -137.6 166.5 N 59.26 CA 57.28 C 55.84 O 56.22 CB 55.97 CG1 55.62 CG2 55.13
A THR E 0 -107.3 154.3 N 53.17 CA 52.81 C 52.81 O 51.86 CB 52.23 OG1 52.55 CG2 50.78
A VAL E 1 -134.3 129.9 N 54.03 CA 55.5 C 56.3 O 56.78 CB 54.72 CG1 54.31 CG2 51.42
A GLY E 0 -118.9 150.9 N 57.45 CA 59.97 C 62.08 O 62.08
A ILE E 0 -140.3 143.8 N 62.99 CA 63.47 C 61.86 O 61.17 CB 66.15 CG1 68.17 CG2 68.32 CD1 66.43
A SER E 0 -179.5 -166.9 N 60.21 CA 59.52 C 60.87 O 60.86 CB 59.41 OG 57.78
A LYS S 20 -72.7 -53.1 N 61.73 CA 63.38 C 63.96 O 63.93 CB 63.88 CG 68.8 CD 72.84 CE 76.28 NZ 77.23
A ASN S 4 -115.7 169.1 N 65.98 CA 66.11 C 66.5 O 67.94 CB 65.42 CG 65.48 OD1 67.69 ND2 63.11
A LYS H 12 -59.2 -48.4 N 64.81 CA 61.96 C 60.32 O 58.36 CB 63.78 CG 66.13 CD 70.13 CE 70.56 NZ 73.73
A VAL H 7 -44.3 -58.7 N 58.55 CA 59.58 C 59.77 O 58.31 CB 60.95 CG1 58.07 CG2 62.84
A PHE H 0 -65.3 -38.0 N 59.8 CA 58.98 C 57.18 O 56.36 CB 60.4 CG 62.06 CD1 61.52 CD2 63.52 CE1 60.51 CE2 63.51 CZ 61.34
A ALA H 0 -55.7 -48.5 N 54.86 CA 55.13 C 56.47 O 55.3 CB 50.93
A LYS H 42 -61.7 -44.6 N 58.22 CA 60.12 C 61.94 O 62.28 CB 60.79 CG 59.93 CD 65.51 CE 67.3 NZ 70.41
A ILE H 7 -59.3 -30.5 N 61.87 CA 59.95 C 61.71 O 60.83 CB 58.18 CG1 56.95 CG2 58.55 CD1 58.89
A ALA H 0 -62.4 -42.8 N 63.1 CA 63.89 C 64.17 O 63.8 CB 64.02
A ALA H 0 -70.4 -26.1 N 64.68 CA 66.81 C 68.92 O 69.57 CB 65.63
A ASP H 79 -67.2 -33.2 N 71.62 CA 74.17 C 75.78 O 76.44 CB 76.05 CG 78.63 OD1 80.61 OD2 76.09
A MET H 75 -80.8 -34.7 N 77.92 CA 79.98 C 79.45 O 79.12 CB 83.92 CG 89.53 SD 93.97 CE 90.94
A ALA H 16 -83.3 -4.2 N 78.95 CA 79.27 C 80.02 O 82.46 CB 77.19
A LYS - 66 -68.0 139.3 N 81.06 CA 80.9 C 78.99 O 79.96 CB 83.2 CG 85.0 CD 86.83 CE 88.22 NZ 90.16
A PRO S 67 -100.5 173.5 N 77.86 CA 76.62 C 76.7 O 77.97 CB 74.53 CG 73.01 CD 75.36
A ASN S 81 44.1 29.1 N 76.65 CA 76.79 C 75.5 O 76.33 CB 76.68 CG 76.54 OD1 76.74 ND2 74.03
A GLY - 13 -104.1 -179.1 N 74.1 CA 71.94 C 71.31 O 69.47
A ILE E 25 -156.4 138.0 N 72.48 CA 72.67 C 73.45 O 75.03 CB 72.78 CG1 71.57 CG2 71.96 CD1 72.8
A LYS E 61 -160.3 131.6 N 73.59 CA 74.09 C 75.28 O 74.84 CB 73.51 CG 74.94 CD 77.67 CE 79.4 NZ 77.67
A VAL E 31 -98.4 147.4 N 77.7 CA 80.32 C 83.18 O 81.83 CB 80.79 CG1 80.56 CG2 79.18
A ILE - 0 -125.0 100.5 N 87.2 CA 90.49 C 93.41 O 93.03 CB 91.19 CG1 91.54 CG2 93.19 CD1 88.65
A ASP - 68 -89.9 157.8 N 96.09 CA 98.47 C 99.71 O 99.83 CB 99.47 CG 101.41 OD1 101.16 OD2 101.5
A ASP H 56 -37.3 -33.3 N 100.74 CA 101.84 C 102.81 O 103.4 CB 102.27 CG 103.68 OD1 105.1 OD2 103.05
A GLU H 158 -71.7 -35.0 N 103.71 CA 104.3 C 103.55 O 103.04 CB 106.02 CG 108.12 CD 109.06 OE1 110.0 OE2 110.37
A GLU H 37 -65.7 -53.8 N 103.07 CA 102.83 C 101.61 O 102.42 CB 104.32 CG 107.13 CD 109.46 OE1 110.64 OE2 109.4
A VAL H 0 -41.3 -65.4 N 99.24 CA 97.79 C 97.89 O 98.46 CB 95.97 CG1 95.67 CG2 93.88
A LYS H 99 -37.6 -53.7 N 97.98 CA 97.62 C 96.72 O 95.97 CB 99.24 CG 101.48 CD 101.64 CE 101.56 NZ 102.78
A ARG H 119 -69.1 -31.7 N 95.94 CA 95.49 C 95.02 O 94.97 CB 96.18 CG 97.32 CD 99.37 NE 99.16 CZ 99.05 NH1 97.75 NH2 96.42
A LEU H 12 -69.6 -49.9 N 93.77 CA 92.15 C 91.36 O 92.09 CB 90.86 CG 90.38 CD1 89.49 CD2 90.05
A ILE H 12 -46.9 -20.7 N 90.09 CA 87.97 C 89.2 O 88.1 CB 86.1 CG1 85.53 CG2 85.99 CD1 85.99
A ARG H 132 -110.4 -25.4 N 91.41 CA 93.36 C 94.66 O 94.97 CB 93.58 CG 96.17 CD 96.32 NE 97.05 CZ 97.95 NH1 99.19 NH2 98.22
A GLU H 110 -104.4 -40.6 N 96.03 CA 97.0 C 96.47 O 96.06 CB 99.03 CG 101.49 CD 102.8 OE1 101.15 OE2 102.1
A LEU S 22 -49.0 137.0 N 95.13 CA 93.16 C 91.93 O 91.11 CB 93.85 CG 94.44 CD1 94.72 CD2 94.85
A ASP B 65 -76.0 124.4 N 91.22 CA 90.92 C 89.65 O 89.59 CB 93.61 CG 95.48 OD1 94.42 OD2 97.68
A ILE G 4 -45.5 -29.5 N 88.08 CA 86.03 C 85.47 O 85.01 CB 85.23 CG1 84.46 CG2 86.03 CD1 81.86
A ALA G 40 -72.4 -20.9 N 84.66 CA 83.69 C 82.92 O 83.41 CB 83.24
A ASP G 97 -88.2 8.8 N 82.17 CA 80.51 C 78.19 O 76.08 CB 83.15 CG 86.29 OD1 87.31 OD2 86.14
A VAL S 3 -92.1 127.7 N 75.81 CA 75.45 C 74.2 O 74.54 CB 75.42 CG1 75.18 CG2 77.4
A PRO T 27 -50.7 143.6 N 72.2 CA 71.7 C 70.65 O 70.29 CB 71.04 CG 72.14 CD 72.43
A GLY T 59 79.9 17.0 N 71.0 CA 70.47 C 70.24 O 68.44
A ILE - 8 -129.6 76.1 N 70.85 CA 71.59 C 72.52 O 73.31 CB 70.32 CG1 69.63 CG2 70.85 CD1 69.48
A GLY - 53 -68.8 -158.5 N 73.97 CA 76.01 C 76.47 O 76.88
A ASN H 141 -67.3 -57.1 N 77.65 CA 78.77 C 77.52 O 77.83 CB 79.73 CG 80.75 OD1 82.19 ND2 81.16
A ILE H 130 -48.9 -26.4 N 76.31 CA 76.0 C 76.65 O 76.35 CB 76.7 CG1 77.73 CG2 75.76 CD1 80.88
A THR H 18 -89.0 -42.8 N 77.7 CA 78.1 C 80.25 O 80.58 CB 76.94 OG1 73.85 CG2 77.21
A ALA H 15 -58.7 -42.5 N 80.96 CA 82.32 C 83.54 O 85.05 CB 78.3
A GLU H 124 -59.8 -44.0 N 83.99 CA 84.44 C 83.96 O 84.26 CB 85.5 CG 87.2 CD 88.08 OE1 88.41 OE2 88.09
A LYS H 68 -71.0 -14.0 N 82.37 CA 81.69 C 82.26 O 81.74 CB 80.73 CG 81.43 CD 79.19 CE 79.94 NZ 78.17
A LEU H 0 -88.8 -35.8 N 84.38 CA 86.32 C 88.17 O 87.62 CB 85.91 CG 85.28 CD1 85.22 CD2 82.88
A LYS H 91 -50.2 -53.3 N 90.2 CA 91.5 C 91.97 O 90.17 CB 92.44 CG 93.4 CD 93.53 CE 96.5 NZ 97.74
A LYS H 140 -47.7 -70.9 N 92.78 CA 93.55 C 93.94 O 94.37 CB 94.27 CG 95.27 CD 95.88 CE 95.61 NZ 95.43
A LEU T 28 -50.6 -3.8 N 93.0 CA 91.91 C 91.34 O 90.26 CB 92.73 CG 92.32 CD1 91.91 CD2 91.88
A GLY T 41 73.6 29.6 N 90.72 CA 90.54 C 91.04 O 91.36
A ILE - 0 -105.6 100.5 N 90.96 CA 89.7 C 90.68 O 91.01 CB 87.73 CG1 85.11 CG2 86.61 CD1 84.62
A ASN - 78 -93.0 -25.5 N 90.8 CA 89.95 C 88.12 O 86.82 CB 93.65 CG 96.21 OD1 98.58 ND2 95.7
A LYS B 60 -124.0 164.1 N 86.96 CA 86.18 C 84.97 O 83.57 CB 87.74 CG 89.44 CD 90.57 CE 90.76 NZ 90.55
A LEU S 0 -58.7 -38.0 N 84.94 CA 85.1 C 85.66 O 84.13 CB 84.61 CG 84.74 CD1 85.43 CD2 84.49
A VAL G 44 -65.7 -34.6 N 88.08 CA 89.76 C 91.57 O 91.74 CB 89.24 CG1 87.62 CG2 86.35
A ASP G 48 -53.6 -11.7 N 92.94 CA 94.32 C 94.48 O 94.11 CB 96.15 CG 98.64 OD1 100.87 OD2 100.17
A THR G 2 -81.4 -11.3 N 94.88 CA 95.53 C 95.68 O 95.08 CB 96.17 OG1 97.53 CG2 97.72
A LEU G 85 -87.2 -1.5 N 96.62 CA 97.76 C 99.2 O 100.8 CB 95.85 CG 95.01 CD1 94.22 CD2 94.21
A SER G 95 -127.5 51.1 N 99.53 CA 98.56 C 98.32 O 98.36 CB 97.88 OG 96.2
A ILE S 48 -156.3 132.1 N 98.01 CA 97.72 C 97.0 O 97.28 CB 98.47 CG1 98.81 CG2 97.45 CD1 98.73
A GLU - 154 -54.3 112.5 N 97.15 CA 97.84 C 97.03 O 96.78 CB 98.72 CG 99.64 CD 99.75 OE1 100.14 OE2 98.88
A PHE H 74 -44.5 -51.3 N 96.23 CA 96.01 C 95.99 O 96.92 CB 95.38 CG 95.74 CD1 96.31 CD2 96.15 CE1 97.11 CE2 96.25 CZ 97.45
A ASP H 112 -58.3 -22.3 N 95.13 CA 94.22 C 92.95 O 91.77 CB 95.96 CG 97.65 OD1 97.9 OD2 96.81
A LYS H 122 -79.7 -34.4 N 92.06 CA 91.13 C 89.8 O 90.82 CB 91.9 CG 93.56 CD 93.13 CE 93.41 NZ 93.76
A LEU H 0 -67.4 -54.5 N 87.21 CA 83.75 C 82.34 O 81.38 CB 81.62 CG 79.69 CD1 78.48 CD2 77.46
A LYS H 68 -44.5 -48.7 N 81.77 CA 81.93 C 81.52 O 82.49 CB 83.09 CG 85.46 CD 87.89 CE 88.02 NZ 90.95
A GLY H 61 -67.4 -27.6 N 81.89 CA 80.64 C 79.61 O 79.67
A MET H 66 -76.1 -56.6 N 79.17 CA 78.8 C 78.2 O 78.18 CB 81.97 CG 86.25 SD 91.74 CE 89.14
A ILE H 20 -112.4 -7.5 N 76.66 CA 74.18 C 75.27 O 75.25 CB 72.92 CG1 71.04 CG2 73.36 CD1 68.57
A GLY - 29 111.2 160.7 N 74.93 CA 74.37 C 73.91 O 73.7
A GLU H 91 -77.7 -39.3 N 74.13 CA 73.65 C 72.43 O 72.54 CB 74.98 CG 77.89 CD 79.56 OE1 81.12 OE2 80.09
A ALA H 82 -56.9 -40.9 N 71.47 CA 69.03 C 68.02 O 66.21 CB 70.38
A LYS H 67 -72.8 -37.5 N 66.35 CA 64.09 C 62.51 O 62.95 CB 64.18 CG 64.39 CD 63.38 CE 64.12 NZ 64.1
A ALA H 0 -63.5 -53.3 N 61.56 CA 59.71 C 59.35 O 61.99 CB 60.08
A LYS H 114 -63.6 -38.1 N 57.83 CA 58.43 C 58.39 O 59.67 CB 58.77 CG 61.1 CD 65.46 CE 69.28 NZ 72.64
A TYR H 51 -55.3 -66.1 N 58.7 CA 58.8 C 59.77 O 60.94 CB 56.08 CG 53.08 CD1 51.99 CD2 51.6 CE1 50.42 CE2 51.59 CZ 50.12 OH 45.0
A LEU H 0 -53.3 -51.0 N 60.78 CA 62.04 C 62.99 O 62.21 CB 60.55 CG 61.69 CD1 61.78 CD2 59.24
A ILE H 27 -56.8 -56.5 N 64.28 CA 66.34 C 68.37 O 68.29 CB 65.83 CG1 65.27 CG2 61.69 CD1 67.17
A SER H 34 -58.9 -41.3 N 70.36 CA 71.87 C 73.06 O 72.94 CB 70.93 OG 67.99
A LEU H 1 -58.5 -43.5 N 74.23 CA 76.21 C 78.39 O 78.16 CB 74.67 CG 74.51 CD1 74.88 CD2 74.96
A ALA H 5 -72.3 -39.7 N 81.74 CA 85.13 C 87.88 O 88.31 CB 84.98
A ARG T 151 -66.6 4.0 N 90.55 CA 93.44 C 95.12 O 97.69 CB 92.52 CG 93.06 CD 93.89 NE 93.18 CZ 94.83 NH1 91.32 NH2 97.17
A ASP T 44 67.7 42.1 N 95.87 CA 95.58 C 94.32 O 93.11 CB 98.21 CG 101.08 OD1 101.79 OD2 103.55
A GLU - 117 -147.0 24.7 N 93.72 CA 94.14 C 93.03 O 91.5 CB 97.26 CG 101.84 CD 105.57 OE1 107.88 OE2 105.1
A TYR - 28 -72.3 134.6 N 92.16 CA 91.05 C 91.17 O 90.64 CB 88.39 CG 85.16 CD1 83.19 CD2 82.94 CE1 82.69 CE2 82.32 CZ 82.92 OH 81.73
A ASN - 89 -154.3 35.8 N 90.99 CA 91.54 C 91.05 O 91.2 CB 92.69 CG 93.98 OD1 92.96 ND2 95.2
A GLU - 121 -61.9 139.0 N 90.78 CA 90.46 C 90.47 O 91.37 CB 90.44 CG 93.63 CD 95.49 OE1 95.2 OE2 95.6
A PRO - 81 -69.4 176.4 N 91.84 CA 91.29 C 91.48 O 90.85 CB 91.94 CG 92.15 CD 91.61
A ILE - 20 -101.8 86.5 N 92.65 CA 94.06 C 94.31 O 95.46 CB 93.1 CG1 92.98 CG2 95.25 CD1 94.75
A ARG - 143 -95.7 152.4 N 95.49 CA 96.3 C 94.86 O 94.86 CB 99.01 CG 104.2 CD 108.99 NE 114.49 CZ 116.76 NH1 117.84 NH2 117.2
A THR - 93 -76.0 133.9 N 93.96 CA 93.29 C 91.62 O 91.6 CB 93.42 OG1 94.24 CG2 94.0
A ARG - 102 -98.0 157.1 N 90.6 CA 90.53 C 88.91 O 88.43 CB 91.66 CG 93.78 CD 94.71 NE 96.61 CZ 97.19 NH1 98.19 NH2 95.86
A VAL - 109 -127.6 151.4 N 88.31 CA 87.81 C 85.17 O 84.72 CB 88.48 CG1 89.57 CG2 88.76
A ARG - 142 -62.6 124.8 N 83.08 CA 80.57 C 77.3 O 76.06 CB 82.78 CG 84.09 CD 85.59 NE 87.09 CZ 87.6 NH1 85.06 NH2 87.37
A LYS - 157 -101.9 -18.3 N 74.73 CA 73.16 C 71.62 O 72.04 CB 73.51 CG 74.54 CD 77.34 CE 79.36 NZ 75.61
A SER E 30 -160.5 155.8 N 69.07 CA 66.55 C 65.1 O 65.25 CB 66.61 OG 68.69
A ILE E 13 -133.2 144.7 N 64.29 CA 63.06 C 63.21 O 64.39 CB 63.9 CG1 64.8 CG2 64.42 CD1 67.95
A GLY E 5 -162.8 176.1 N 62.71 CA 61.01 C 61.44 O 60.61
A ARG E 79 -155.2 138.4 N 63.09 CA 66.06 C 67.02 O 68.37 CB 68.54 CG 76.58 CD 83.0 NE 85.58 CZ 88.64 NH1 89.57 NH2 88.85
A ILE E 74 -131.9 136.1 N 67.55 CA 66.97 C 68.71 O 69.89 CB 66.07 CG1 66.84 CG2 65.22 CD1 69.85
A VAL E 13 -125.6 158.4 N 69.36 CA 69.25 C 72.52 O 71.52 CB 69.73 CG1 67.62 CG2 67.86
A THR E 26 -105.7 126.6 N 73.98 CA 74.13 C 76.64 O 75.08 CB 76.03 OG1 79.0 CG2 74.83
A MET E 0 -76.1 147.4 N 77.88 CA 79.98 C 83.38 O 85.51 CB 78.65 CG 76.93 SD 76.25 CE 75.8
A LYS E 111 -53.2 -21.7 N 85.35 CA 86.68 C 86.37 O 85.75 CB 88.53 CG 91.78 CD 95.23 CE 95.3 NZ 93.45
A ARG E 155 -165.8 153.5 N 87.88 CA 88.9 C 87.1 O 86.14 CB 92.59 CG 95.84 CD 99.37 NE 100.75 CZ 99.18 NH1 96.05 NH2 96.65
A ASN E 30 -52.2 173.1 N 86.48 CA 86.83 C 86.82 O 87.27 CB 87.12 CG 87.97 OD1 85.15 ND2 91.62
A SER E 9 170.3 167.7 N 87.41 CA 87.69 C 87.26 O 87.45 CB 87.7 OG 85.54
A ARG - 89 -143.5 7.2 N 86.97 CA 86.4 C 86.36 O 85.41 CB 84.85 CG 85.11 CD 86.47 NE 87.47 CZ 88.29 NH1 87.15 NH2 87.55
A ASN - 87 -85.0 103.5 N 87.16 CA 88.57 C 87.86 O 87.41 CB 91.67 CG 95.27 OD1 96.41 ND2 95.91
A LEU H 37 -43.7 -24.3 N 87.74 CA 87.88 C 87.96 O 88.63 CB 88.0 CG 88.73 CD1 89.16 CD2 89.15
A GLU H 108 -78.4 -37.3 N 88.36 CA 88.15 C 87.07 O 85.93 CB 89.16 CG 92.25 CD 94.02 OE1 93.11 OE2 94.77
A GLU H 64 -85.9 -12.7 N 86.68 CA 87.05 C 86.22 O 85.4 CB 89.22 CG 93.84 CD 97.56 OE1 99.47 OE2 98.88
A ILE H 0 -84.6 -39.6 N 84.4 CA 82.3 C 81.79 O 81.57 CB 82.24 CG1 82.35 CG2 82.02 CD1 79.58
A LYS H 55 -40.5 -48.2 N 79.97 CA 77.9 C 75.77 O 76.88 CB 78.64 CG 81.01 CD 81.47 CE 82.12 NZ 79.15
A PRO H 71 -54.6 -54.1 N 73.61 CA 73.59 C 72.3 O 70.95 CB 73.99 CG 73.07 CD 72.54
A TYR H 29 -56.2 -41.7 N 72.22 CA 71.96 C 71.11 O 71.7 CB 72.9 CG 73.52 CD1 72.98 CD2 73.61 CE1 74.09 CE2 74.98 CZ 76.01 OH 78.24
A LEU H 0 -62.8 -38.8 N 70.26 CA 68.93 C 67.44 O 66.81 CB 68.11 CG 67.22 CD1 66.25 CD2 66.43
A PHE H 56 -74.1 -27.6 N 67.4 CA 69.62 C 70.7 O 72.53 CB 67.26 CG 68.34 CD1 67.18 CD2 68.8 CE1 64.96 CE2 65.87 CZ 64.07
A ARG H 113 -65.0 -48.0 N 72.34 CA 72.67 C 70.84 O 68.08 CB 76.07 CG 78.94 CD 81.63 NE 84.62 CZ 85.53 NH1 84.42 NH2 85.78
A ALA H 0 -55.2 -51.8 N 70.03 CA 70.35 C 71.62 O 72.99 CB 67.47
A ILE H 0 -59.6 -42.6 N 72.37 CA 72.64 C 74.42 O 74.08 CB 71.77 CG1 71.04 CG2 70.43 CD1 71.26
A GLU H 80 -58.3 -55.1 N 76.64 CA 78.03 C 78.69 O 77.88 CB 78.97 CG 83.36 CD 87.78 OE1 89.38 OE2 91.66
A GLU H 64 -61.2 -27.0 N 79.22 CA 78.75 C 77.82 O 78.8 CB 80.54 CG 84.06 CD 87.27 OE1 90.64 OE2 88.56
A SER H 0 -77.3 -48.0 N 75.63 CA 73.3 C 73.59 O 74.29 CB 71.07 OG 67.88
A TYR H 40 -63.0 -28.9 N 73.83 CA 73.95 C 74.5 O 72.51 CB 71.7 CG 71.91 CD1 73.01 CD2 72.97 CE1 74.85 CE2 75.58 CZ 76.87 OH 79.48
A TYR H 169 -71.2 -53.6 N 77.91 CA 80.95 C 81.48 O 82.04 CB 82.1 CG 82.98 CD1 82.73 CD2 84.56 CE1 84.11 CE2 85.28 CZ 85.36 OH 86.49
A LYS T 100 -78.2 31.2 N 81.68 CA 81.4 C 81.74 O 84.65 CB 80.49 CG 81.26 CD 83.45 CE 80.26 NZ 76.99
A LEU T 2 -108.3 -66.9 N 82.1 CA 82.88 C 84.98 O 88.2 CB 80.01 CG 78.26 CD1 78.24 CD2 76.34
A ASP - 107 66.8 143.9 N 86.54 CA 86.87 C 86.24 O 87.23 CB 89.56 CG 93.52 OD1 96.08 OD2 93.83
A LYS S 155 44.7 -76.2 N 84.68 CA 83.55 C 82.72 O 84.18 CB 84.92 CG 88.18 CD 89.32 CE 89.7 NZ 87.9
A ARG - 71 -38.2 136.8 N 81.9 CA 81.11 C 78.75 O 79.52 CB 83.31 CG 87.41 CD 88.7 NE 90.56 CZ 90.31 NH1 91.39 NH2 89.05
A ILE - 84 -124.6 116.2 N 74.76 CA 70.01 C 67.94 O 66.79 CB 72.26 CG1 70.77 CG2 72.09 CD1 74.94
A PRO E 0 -80.3 142.0 N 64.95 CA 63.34 C 64.26 O 65.45 CB 63.06 CG 61.17 CD 61.75
A LYS E 62 -99.2 -19.1 N 64.15 CA 62.7 C 63.42 O 63.91 CB 62.21 CG 62.81 CD 63.66 CE 64.63 NZ 63.36
A ALA E 0 -121.6 144.5 N 63.05 CA 60.8 C 59.29 O 59.9 CB 58.45
A ILE E 0 -136.8 140.6 N 58.62 CA 57.53 C 56.98 O 56.6 CB 58.62 CG1 60.46 CG2 56.3 CD1 59.83
A HIS E 65 -131.0 150.0 N 55.85 CA 54.19 C 52.04 O 53.35 CB 54.38 CG 58.55 ND1 59.37 CD2 60.5 CE1 62.8 NE2 63.55
A VAL E 0 -117.4 141.5 N 50.09 CA 50.75 C 49.68 O 50.01 CB 49.15 CG1 48.53 CG2 47.95
A VAL E 25 -133.6 128.7 N 51.55 CA 53.57 C 55.77 O 56.2 CB 51.18 CG1 46.95 CG2 49.84
A ALA E 0 -125.6 136.3 N 58.15 CA 61.65 C 64.93 O 67.6 CB 56.87
A VAL E 8 -104.0 115.3 N 68.87 CA 71.61 C 72.47 O 69.95 CB 71.7 CG1 71.34 CG2 68.24
A THR E 2 -64.9 170.0 N 75.7 CA 81.38 C 84.22 O 85.45 CB 81.12 OG1 82.55 CG2 79.47
A GLU T 93 -57.8 -30.1 N 87.18 CA 89.33 C 89.87 O 89.8 CB 89.17 CG 91.98 CD 93.94 OE1 92.99 OE2 96.75
A ASP T 93 -102.8 37.3 N 90.63 CA 90.92 C 90.32 O 88.65 CB 93.16 CG 96.07 OD1 97.67 OD2 97.09
A LEU S 103 55.4 30.5 N 89.9 CA 88.99 C 88.42 O 88.14 CB 89.92 CG 91.73 CD1 92.5 CD2 90.91
A ASP - 79 -108.5 154.2 N 86.97 CA 85.6 C 84.58 O 85.39 CB 86.45 CG 88.82 OD1 89.5 OD2 90.61
A ILE E 88 -111.6 134.9 N 83.07 CA 80.41 C 79.64 O 80.69 CB 80.42 CG1 81.9 CG2 78.81 CD1 84.66
A VAL E 19 -125.6 140.6 N 77.22 CA 75.02 C 73.15 O 72.72 CB 75.44 CG1 76.66 CG2 75.08
A SER E 55 -141.7 147.9 N 70.81 CA 70.13 C 67.72 O 66.96 CB 71.79 OG 79.57
A ARG E 71 -136.9 130.0 N 66.03 CA 64.68 C 63.09 O 62.72 CB 64.47 CG 64.21 CD 66.09 NE 67.28 CZ 65.69 NH1 63.32 NH2 65.05
A GLY E 28 -126.4 -165.3 N 62.51 CA 61.56 C 61.72 O 59.37
A ARG E 110 -176.3 135.0 N 62.58 CA 62.44 C 61.85 O 58.66 CB 65.08 CG 69.29 CD 75.39 NE 77.06 CZ 78.07 NH1 78.55 NH2 76.03
A THR E 62 -113.1 135.5 N 63.6 CA 65.29 C 67.32 O 66.85 CB 66.71 OG1 68.61 CG2 65.55
A PHE - 14 -111.0 152.1 N 68.35 CA 68.11 C 70.68 O 71.19 CB 67.2 CG 66.69 CD1 67.46 CD2 66.86 CE1 67.92 CE2 67.47 CZ 67.45
A PRO S 125 -70.0 -13.2 N 72.49 CA 68.68 C 70.96 O 71.37 CB 69.89 CG 69.37 CD 70.33
A HIS S 105 -124.8 -179.3 N 71.16 CA 70.36 C 70.12 O 70.43 CB 71.98 CG 72.68 ND1 73.6 CD2 72.65 CE1 73.31 NE2 71.99
A GLY - 18 -79.2 170.7 N 68.19 CA 63.02 C 60.04 O 56.68
A ILE - 6 -107.6 127.9 N 58.68 CA 59.03 C 59.76 O 62.84 CB 58.32 CG1 61.25 CG2 58.44 CD1 60.41
A SER - 60 -84.7 152.7 N 59.11 CA 56.51 C 55.98 O 52.19 CB 57.5 OG 53.78
A LYS H 102 -52.4 -49.0 N 56.61 CA 58.74 C 58.76 O 58.48 CB 61.02 CG 62.07 CD 63.52 CE 67.41 NZ 65.79
A GLU H 146 -53.2 -36.9 N 59.29 CA 60.01 C 60.53 O 60.3 CB 61.79 CG 69.71 CD 74.65 OE1 77.37 OE2 72.21
A THR H 47 -72.9 -34.8 N 60.93 CA 59.86 C 61.69 O 61.17 CB 61.3 OG1 62.4 CG2 60.04
A ALA H 0 -57.0 -48.3 N 61.71 CA 61.26 C 63.41 O 64.08 CB 57.3
A TYR H 49 -55.2 -40.5 N 64.86 CA 66.87 C 68.08 O 68.02 CB 67.88 CG 72.04 CD1 73.82 CD2 73.75 CE1 74.3 CE2 74.49 CZ 75.51 OH 79.52
A SER H 63 -78.9 -41.0 N 69.04 CA 67.95 C 67.78 O 66.88 CB 67.26 OG 68.14
A GLU H 25 -77.2 -23.3 N 67.35 CA 67.36 C 66.09 O 64.91 CB 67.87 CG 71.36 CD 75.41 OE1 77.91 OE2 78.38
A SER H 0 -68.6 -35.6 N 65.69 CA 65.17 C 63.55 O 64.44 CB 67.25 OG 71.92
A VAL H 22 -68.2 -39.2 N 62.12 CA 61.4 C 60.4 O 58.89 CB 62.99 CG1 62.83 CG2 63.52
A LYS H 104 -64.4 -55.5 N 60.36 CA 60.38 C 60.74 O 60.72 CB 60.84 CG 61.49 CD 65.67 CE 67.68 NZ 70.93
A LEU H 5 -54.6 -32.2 N 60.21 CA 57.64 C 59.86 O 59.76 CB 53.72 CG 50.13 CD1 49.94 CD2 52.29
A LEU H 0 -73.7 -32.9 N 61.87 CA 63.03 C 65.06 O 64.18 CB 62.87 CG 63.36 CD1 62.63 CD2 63.17
A GLN H 89 -74.9 -26.4 N 66.4 CA 68.49 C 69.58 O 68.47 CB 71.01 CG 73.8 CD 74.1 OE1 72.86 NE2 73.65
A LYS H 100 -71.2 -39.6 N 70.0 CA 69.84 C 71.26 O 71.42 CB 68.44 CG 66.14 CD 66.65 CE 69.28 NZ 73.31
A ILE H 4 -64.6 -58.5 N 73.25 CA 74.88 C 77.68 O 77.43 CB 74.14 CG1 73.84 CG2 73.57 CD1 69.02
A LEU H 22 -55.5 -28.1 N 80.17 CA 81.06 C 83.87 O 83.89 CB 78.03 CG 74.91 CD1 71.68 CD2 75.68
A GLU H 144 -71.4 -60.3 N 87.73 CA 91.32 C 92.46 O 92.79 CB 94.05 CG 99.92 CD 103.71 OE1 106.46 OE2 104.15
A GLU H 101 -77.7 7.3 N 94.8 CA 96.92 C 97.0 O 96.46 CB 99.54 CG 101.67 CD 102.33 OE1 102.53 OE2 102.75
A ASP - 23 -137.9 137.1 N 98.12 CA 99.2 C 98.74 O 99.0 CB 101.43 CG 103.94 OD1 105.11 OD2 104.07
A GLU - 165 -85.2 -37.1 N 98.28 CA 97.66 C 96.21 O 96.94 CB 99.83 CG 102.09 CD 104.66 OE1 104.51 OE2 105.19
A ARG S 69 -54.5 155.3 N 93.66 CA 90.76 C 90.19 O 90.13 CB 89.43 CG 87.46 CD 88.14 NE 89.29 CZ 89.76 NH1 90.14 NH2 88.29
A LYS - 101 -78.8 149.9 N 88.52 CA 86.96 C 85.81 O 86.54 CB 86.78 CG 87.37 CD 87.16 CE 89.67 NZ 88.16
A ILE E 4 -94.1 136.0 N 83.26 CA 80.0 C 78.54 O 79.28 CB 77.65 CG1 75.13 CG2 78.95 CD1 74.68
A ARG E 45 -109.9 -45.6 N 77.06 CA 75.48 C 73.67 O 70.94 CB 76.58 CG 78.47 CD 79.12 NE 82.06 CZ 83.27 NH1 82.12 NH2 84.05
A ARG E 83 -122.1 132.6 N 74.66 CA 76.11 C 72.51 O 73.94 CB 79.09 CG 84.92 CD 90.49 NE 99.12 CZ 103.98 NH1 104.47 NH2 106.57
A ILE E 0 -129.8 146.5 N 67.87 CA 62.99 C 60.64 O 59.22 CB 60.15 CG1 57.8 CG2 59.31 CD1 52.95
A GLY E 0 -168.1 -174.7 N 59.3 CA 57.48 C 55.8 O 53.55
A VAL E 1 -137.0 159.5 N 54.28 CA 53.16 C 54.26 O 54.94 CB 55.12 CG1 58.3 CG2 50.41
A ARG E 103 -149.9 119.7 N 53.61 CA 53.83 C 56.13 O 57.82 CB 53.42 CG 56.01 CD 59.85 NE 60.26 CZ 59.97 NH1 52.49 NH2 58.77
A PHE E 0 -96.9 134.4 N 55.8 CA 56.72 C 58.47 O 58.79 CB 57.52 CG 60.02 CD1 60.78 CD2 60.38 CE1 59.35 CE2 59.85 CZ 61.19
A SER E 23 -140.2 -178.5 N 59.38 CA 59.38 C 61.87 O 61.67 CB 58.63 OG 57.76
A LYS E 109 56.4 64.3 N 63.12 CA 63.81 C 66.06 O 68.0 CB 60.19 CG 60.35 CD 64.06 CE 64.82 NZ 65.1
A PHE E 39 -75.2 148.1 N 66.89 CA 67.34 C 68.45 O 66.64 CB 67.36 CG 68.13 CD1 69.34 CD2 68.64 CE1 71.4 CE2 69.21 CZ 71.23
A ILE - 137 -70.4 360.0 N 70.53 CA 72.32 C 73.15 O 73.23 CB 72.1 CG1 71.48 CG2 73.24 CD1 72.18
