A VAL - 158 360.0 102.5 N 58.97 CA 58.23 C 56.04 O 57.61 CB 60.64 CG1 60.88 CG2 63.46
A MET - 30 -148.6 151.1 N 52.59 CA 49.67 C 46.76 O 46.0 CB 49.04 CG 49.13 SD 49.89 CE 48.98
A LYS E 47 -114.3 154.6 N 44.17 CA 41.9 C 39.31 O 39.04 CB 43.17 CG 46.23 CD 47.86 CE 50.68 NZ 50.91
A ALA E 0 -121.0 127.5 N 37.1 CA 35.87 C 36.05 O 36.24 CB 34.14
A LEU E 3 -111.5 112.3 N 36.07 CA 36.52 C 35.48 O 35.34 CB 38.42 CG 40.19 CD1 40.28 CD2 40.06
A ILE E 0 -95.6 116.6 N 34.44 CA 34.34 C 35.93 O 36.75 CB 32.88 CG1 32.41 CG2 31.88 CD1 29.07
A LEU E 13 -94.9 123.1 N 37.01 CA 39.33 C 39.25 O 37.8 CB 40.5 CG 41.65 CD1 42.77 CD2 41.88
A ALA - 22 -47.4 134.8 N 41.55 CA 42.41 C 43.34 O 44.32 CB 43.99
A GLY - 21 -90.1 -174.2 N 42.99 CA 42.73 C 43.91 O 44.89
A GLY - 49 -89.8 -149.2 N 43.6 CA 44.27 C 42.13 O 39.49
A SER B 50 -75.9 149.6 N 42.73 CA 42.54 C 39.44 O 37.3 CB 45.2 OG 47.42
A GLY - 0 -87.2 20.8 N 38.65 CA 37.62 C 38.1 O 38.68
A GLU G 54 -56.4 -34.5 N 38.84 CA 41.28 C 39.86 O 40.98 CB 43.94 CG 45.57 CD 51.05 OE1 54.68 OE2 53.08
A ARG G 45 -79.7 -3.0 N 37.33 CA 37.14 C 35.44 O 35.02 CB 37.02 CG 41.04 CD 44.15 NE 48.79 CZ 51.74 NH1 52.34 NH2 54.75
A PHE G 1 -106.3 14.7 N 33.82 CA 32.7 C 33.32 O 33.08 CB 31.85 CG 31.42 CD1 33.24 CD2 33.36 CE1 33.43 CE2 31.49 CZ 33.59
A TRP T 4 -56.3 142.7 N 34.08 CA 35.32 C 35.9 O 34.57 CB 36.87 CG 38.94 CD1 38.59 CD2 39.65 NE1 41.79 CE2 41.21 CE3 39.89 CZ2 43.51 CZ3 41.48 CH2 45.32
A PRO T 0 -90.7 7.7 N 36.87 CA 39.23 C 38.95 O 39.6 CB 40.7 CG 39.35 CD 37.42
A LEU T 74 -66.9 -43.7 N 39.46 CA 40.42 C 42.43 O 42.07 CB 38.38 CG 37.2 CD1 37.7 CD2 34.66
A SER S 4 -82.2 127.7 N 44.64 CA 47.1 C 50.54 O 52.44 CB 46.69 OG 49.16
A THR - 69 -69.0 151.8 N 52.72 CA 56.27 C 56.86 O 55.38 CB 57.7 OG1 56.48 CG2 59.7
A PRO T 42 -49.7 -48.9 N 60.2 CA 61.1 C 59.69 O 60.48 CB 64.73 CG 65.8 CD 63.09
A GLU T 166 -109.5 9.6 N 58.32 CA 56.65 C 52.43 O 50.76 CB 59.55 CG 64.42 CD 68.81 OE1 69.69 OE2 74.36
A THR - 24 -73.0 136.3 N 49.58 CA 46.87 C 43.55 O 43.7 CB 47.1 OG1 49.46 CG2 45.02
A PRO B 3 -68.3 144.6 N 41.26 CA 39.06 C 36.51 O 34.79 CB 39.2 CG 41.16 CD 42.08
A LYS G 25 -60.3 -30.9 N 35.13 CA 33.93 C 33.05 O 31.69 CB 34.23 CG 34.65 CD 35.94 CE 35.09 NZ 34.28
A GLN G 0 -60.6 -21.0 N 33.08 CA 32.5 C 32.41 O 32.36 CB 32.07 CG 36.23 CD 40.21 OE1 47.09 NE2 41.07
A PHE G 6 -85.2 -6.7 N 33.5 CA 34.39 C 34.22 O 35.16 CB 36.35 CG 37.09 CD1 38.54 CD2 40.78 CE1 39.82 CE2 43.05 CZ 43.02
A LEU - 14 -66.5 137.7 N 34.0 CA 34.01 C 33.34 O 31.98 CB 33.79 CG 36.69 CD1 37.6 CD2 37.91
A LYS - 107 -101.4 75.3 N 33.89 CA 33.7 C 33.7 O 35.88 CB 35.41 CG 36.08 CD 38.92 CE 40.42 NZ 45.04
A LEU - 22 -77.4 -30.6 N 32.74 CA 32.12 C 33.11 O 32.14 CB 31.03 CG 31.92 CD1 30.04 CD2 29.45
A PHE B 29 -134.7 141.0 N 33.54 CA 35.34 C 37.24 O 37.13 CB 34.92 CG 32.21 CD1 34.13 CD2 31.16 CE1 33.66 CE2 30.67 CZ 32.42
A GLY T 64 57.7 23.8 N 40.23 CA 42.17 C 42.97 O 44.42
A ASN T 135 56.8 31.2 N 42.98 CA 43.45 C 41.18 O 41.52 CB 46.32 CG 50.14 OD1 53.71 ND2 50.76
A LYS B 62 -135.3 145.1 N 38.25 CA 36.53 C 33.66 O 33.23 CB 37.03 CG 40.74 CD 43.03 CE 43.38 NZ 47.41
A SER - 0 -61.6 149.6 N 32.58 CA 31.37 C 30.34 O 29.71 CB 32.3 OG 31.2
A LEU H 2 -42.7 -46.9 N 29.65 CA 28.46 C 27.65 O 27.05 CB 28.04 CG 29.02 CD1 26.25 CD2 28.85
A MET H 0 -63.7 -44.3 N 28.39 CA 28.79 C 28.09 O 27.84 CB 29.94 CG 33.9 SD 38.33 CE 37.72
A ARG H 35 -58.6 -50.5 N 28.37 CA 29.21 C 28.88 O 28.95 CB 30.68 CG 31.52 CD 33.13 NE 35.53 CZ 35.05 NH1 36.4 NH2 35.27
A TRP H 101 -56.6 -39.3 N 27.71 CA 28.59 C 27.44 O 26.93 CB 28.86 CG 31.61 CD1 32.16 CD2 34.37 NE1 31.14 CE2 36.42 CE3 37.57 CZ2 39.43 CZ3 39.76 CH2 40.66
A THR H 0 -61.6 -48.1 N 26.4 CA 26.95 C 27.51 O 26.12 CB 27.14 OG1 27.86 CG2 26.75
A PHE H 0 -57.5 -46.6 N 27.55 CA 28.38 C 29.15 O 30.46 CB 28.86 CG 30.62 CD1 30.84 CD2 31.15 CE1 32.49 CE2 32.33 CZ 33.99
A GLU H 54 -63.6 -32.1 N 28.61 CA 30.26 C 30.19 O 32.01 CB 30.69 CG 32.64 CD 35.2 OE1 35.42 OE2 36.88
A ARG H 9 -67.7 -46.2 N 28.6 CA 29.73 C 30.1 O 30.44 CB 28.69 CG 31.19 CD 32.47 NE 30.01 CZ 31.97 NH1 31.0 NH2 30.17
A VAL H 0 -58.4 -43.3 N 28.88 CA 29.0 C 30.7 O 30.52 CB 28.86 CG1 28.56 CG2 29.33
A LEU H 45 -66.7 -16.1 N 30.87 CA 32.85 C 34.05 O 35.17 CB 32.89 CG 34.24 CD1 38.35 CD2 35.67
A GLU T 97 -53.5 -36.8 N 33.79 CA 36.11 C 35.79 O 36.6 CB 36.29 CG 43.98 CD 51.68 OE1 55.44 OE2 58.38
A GLU T 99 -121.5 -13.2 N 35.07 CA 36.79 C 37.52 O 38.97 CB 36.27 CG 37.59 CD 39.7 OE1 42.06 OE2 41.35
A MET - 16 -116.6 145.9 N 35.96 CA 37.01 C 36.98 O 35.95 CB 35.91 CG 39.85 SD 45.4 CE 43.41
A ASP - 82 -75.0 130.9 N 38.0 CA 39.08 C 37.69 O 35.67 CB 41.17 CG 45.05 OD1 47.52 OD2 48.65
A PRO G 35 -53.3 -26.9 N 38.58 CA 38.02 C 38.82 O 37.65 CB 39.63 CG 40.76 CD 39.84
A LYS G 118 -62.9 -23.0 N 40.59 CA 42.33 C 41.15 O 41.19 CB 44.5 CG 47.02 CD 53.27 CE 55.21 NZ 55.9
A ASP G 24 -95.5 8.4 N 39.7 CA 39.2 C 36.82 O 35.47 CB 39.78 CG 42.57 OD1 43.92 OD2 44.31
A VAL E 0 -112.1 129.3 N 36.08 CA 34.73 C 36.41 O 37.74 CB 34.16 CG1 30.11 CG2 32.21
A ILE E 10 -117.4 134.1 N 36.34 CA 37.26 C 36.11 O 33.23 CB 39.25 CG1 42.23 CG2 38.73 CD1 45.83
A VAL E 0 -110.2 122.4 N 37.27 CA 37.11 C 39.31 O 41.61 CB 36.85 CG1 37.85 CG2 34.65
A VAL E 1 -104.9 121.6 N 39.75 CA 41.9 C 42.4 O 40.74 CB 42.79 CG1 43.17 CG2 42.06
A THR E 0 -155.5 161.2 N 44.12 CA 45.1 C 47.74 O 50.04 CB 43.59 OG1 46.41 CG2 44.68
A HIS E 21 -69.5 147.3 N 47.59 CA 49.91 C 50.3 O 47.91 CB 50.72 CG 52.93 ND1 53.59 CD2 56.04 CE1 58.43 NE2 58.35
A LYS G 88 -56.0 -34.2 N 53.11 CA 54.68 C 54.14 O 53.2 CB 59.22 CG 62.36 CD 68.81 CE 71.97 NZ 77.5
A ASP G 115 -60.9 -31.2 N 54.52 CA 55.01 C 52.22 O 53.02 CB 55.47 CG 58.95 OD1 62.31 OD2 60.71
A TYR G 29 -91.7 0.2 N 50.25 CA 47.96 C 46.61 O 44.55 CB 46.35 CG 50.36 CD1 53.36 CD2 53.55 CE1 57.0 CE2 55.6 CZ 58.64 OH 61.34
A VAL H 22 -62.0 -48.6 N 47.47 CA 46.58 C 46.72 O 45.43 CB 49.17 CG1 47.83 CG2 48.61
A GLU H 129 -66.5 -35.1 N 48.91 CA 50.2 C 48.88 O 48.11 CB 53.67 CG 55.64 CD 58.48 OE1 58.17 OE2 60.84
A ARG H 107 -77.9 -30.1 N 48.02 CA 46.83 C 43.93 O 43.02 CB 47.13 CG 48.69 CD 52.2 NE 53.28 CZ 54.26 NH1 57.69 NH2 53.79
A THR H 0 -63.7 -46.7 N 43.05 CA 41.13 C 42.21 O 40.86 CB 41.14 OG1 41.28 CG2 37.29
A LYS H 64 -53.1 -40.1 N 45.1 CA 47.36 C 48.04 O 48.91 CB 50.25 CG 51.17 CD 53.9 CE 54.79 NZ 52.48
A LYS H 149 -72.7 -49.5 N 49.1 CA 50.19 C 47.45 O 48.03 CB 51.86 CG 56.77 CD 59.12 CE 57.11 NZ 58.28
A GLU H 22 -55.7 -39.0 N 44.86 CA 42.55 C 40.88 O 40.59 CB 40.84 CG 44.49 CD 45.79 OE1 46.83 OE2 50.87
A LEU - 1 -122.8 70.3 N 39.84 CA 39.0 C 40.91 O 41.48 CB 37.08 CG 35.5 CD1 35.58 CD2 32.18
A PRO T 94 -66.0 -22.8 N 43.05 CA 45.87 C 45.78 O 48.11 CB 47.93 CG 45.76 CD 43.51
A GLU T 83 -71.7 -21.3 N 44.16 CA 44.04 C 42.96 O 44.27 CB 42.67 CG 43.22 CD 42.41 OE1 42.02 OE2 42.71
A LEU S 5 -75.7 128.9 N 41.55 CA 41.35 C 43.7 O 45.32 CB 40.25 CG 40.68 CD1 39.23 CD2 39.95
A PRO - 34 -63.8 140.0 N 44.34 CA 46.7 C 46.7 O 43.58 CB 47.52 CG 46.3 CD 43.52
A ASP G 91 -56.6 -41.6 N 49.26 CA 50.38 C 50.69 O 50.03 CB 54.14 CG 54.64 OD1 53.33 OD2 58.44
A GLU G 120 -59.7 -22.0 N 51.92 CA 52.57 C 49.24 O 50.08 CB 54.63 CG 54.76 CD 59.36 OE1 60.9 OE2 61.08
A ASN G 12 -86.8 3.5 N 46.21 CA 43.84 C 42.87 O 40.99 CB 41.79 CG 42.5 OD1 46.87 ND2 40.99
A ILE E 15 -99.7 114.2 N 43.99 CA 43.91 C 45.94 O 47.76 CB 44.73 CG1 42.22 CG2 44.02 CD1 43.0
A ILE E 1 -95.5 113.8 N 45.42 CA 48.01 C 48.84 O 46.88 CB 48.01 CG1 48.02 CG2 51.32 CD1 50.37
A ALA E 29 -82.6 117.7 N 51.91 CA 53.41 C 55.61 O 58.65 CB 55.91
A GLU E 15 -85.6 139.5 N 54.66 CA 57.1 C 60.56 O 60.3 CB 54.92 CG 53.0 CD 49.13 OE1 47.48 OE2 48.6
A PRO S 10 -66.0 -30.6 N 64.48 CA 68.34 C 68.7 O 71.12 CB 71.73 CG 69.79 CD 65.64
A MET S 68 -165.2 170.3 N 67.37 CA 67.74 C 65.27 O 64.27 CB 72.37 CG 75.41 SD 83.36 CE 86.24
A LYS - 134 -79.9 109.6 N 64.41 CA 62.27 C 64.17 O 67.61 CB 61.35 CG 61.01 CD 60.15 CE 60.38 NZ 62.07
A LYS - 27 -116.6 10.9 N 62.71 CA 64.59 C 62.06 O 63.47 CB 66.29 CG 72.74 CD 75.67 CE 79.66 NZ 83.87
A ASN - 87 70.0 -175.6 N 58.47 CA 56.12 C 54.27 O 55.09 CB 58.62 CG 56.77 OD1 52.85 ND2 58.06
A THR H 34 -77.1 -25.1 N 52.26 CA 49.49 C 50.71 O 49.32 CB 47.34 OG1 49.9 CG2 46.14
A ALA H 1 -62.8 -45.5 N 53.15 CA 55.12 C 55.38 O 55.22 CB 58.29
A PRO H 0 -70.8 -38.3 N 55.86 CA 56.07 C 52.44 O 52.25 CB 58.4 CG 60.1 CD 57.82
A ALA H 5 -55.6 -50.7 N 49.78 CA 46.7 C 45.81 O 45.16 CB 44.35
A CYS H 0 -57.1 -43.0 N 45.75 CA 45.24 C 47.48 O 46.55 CB 46.13 SG 43.76
A PHE H 0 -62.5 -51.0 N 49.55 CA 51.51 C 50.67 O 50.07 CB 55.43 CG 58.56 CD1 60.22 CD2 60.45 CE1 65.05 CE2 65.71 CZ 67.38
A ILE H 0 -72.0 -35.5 N 49.61 CA 49.83 C 46.98 O 47.47 CB 50.71 CG1 48.89 CG2 53.65 CD1 49.8
A GLY H 5 -68.4 -43.2 N 44.71 CA 42.41 C 43.31 O 43.48
A THR H 0 -64.6 -35.7 N 44.76 CA 46.17 C 49.79 O 49.57 CB 47.18 OG1 46.53 CG2 48.58
A LYS T 48 -58.8 -22.2 N 52.91 CA 56.56 C 55.99 O 58.47 CB 59.38 CG 65.26 CD 69.4 CE 71.68 NZ 75.1
A LEU T 49 -77.0 -15.3 N 54.24 CA 53.93 C 53.51 O 53.93 CB 52.02 CG 53.24 CD1 52.27 CD2 56.95
A ALA S 14 -82.6 166.4 N 53.17 CA 52.9 C 56.23 O 57.87 CB 50.81
A ASP - 97 -72.8 150.5 N 57.19 CA 60.44 C 60.96 O 58.88 CB 61.17 CG 66.59 OD1 72.11 OD2 69.06
A ASP T 83 -45.3 -40.9 N 63.84 CA 65.32 C 63.74 O 62.67 CB 69.54 CG 72.4 OD1 73.0 OD2 78.31
A ASP T 85 -97.5 3.2 N 63.24 CA 63.22 C 59.12 O 58.94 CB 65.69 CG 70.38 OD1 73.92 OD2 76.29
A GLU - 17 -85.4 131.7 N 51.97 CA 48.45 C 44.98 O 44.0 CB 48.78 CG 48.87 CD 52.63 OE1 53.92 OE2 55.02
A PRO E 13 -70.0 148.2 N 42.63 CA 40.2 C 38.15 O 39.3 CB 39.33 CG 40.73 CD 43.26
A VAL E 2 -131.3 115.5 N 36.73 CA 34.7 C 32.95 O 32.27 CB 36.1 CG1 33.48 CG2 37.62
A LEU E 0 -88.3 118.0 N 31.12 CA 29.24 C 29.27 O 29.78 CB 28.1 CG 27.68 CD1 26.47 CD2 26.75
A VAL E 0 -104.4 117.9 N 29.9 CA 30.74 C 29.98 O 29.71 CB 31.92 CG1 34.13 CG2 34.13
A LEU E 0 -126.2 132.5 N 29.19 CA 29.69 C 30.24 O 31.57 CB 28.7 CG 30.22 CD1 31.08 CD2 35.02
A PRO E 19 -69.9 147.3 N 29.97 CA 30.43 C 29.46 O 28.14 CB 30.64 CG 31.77 CD 30.71
A ALA T 0 -78.8 -15.3 N 30.3 CA 31.01 C 31.33 O 31.84 CB 31.81
A ASP T 12 -128.3 35.1 N 31.69 CA 32.01 C 31.64 O 32.92 CB 33.77 CG 35.11 OD1 35.04 OD2 39.1
A HIS - 23 -102.8 172.1 N 30.21 CA 29.86 C 29.54 O 30.68 CB 29.46 CG 29.29 ND1 30.99 CD2 34.19 CE1 34.03 NE2 33.68
A ARG B 76 -129.8 119.3 N 28.99 CA 28.02 C 27.79 O 29.18 CB 29.41 CG 28.87 CD 30.47 NE 32.21 CZ 31.01 NH1 27.33 NH2 32.71
A ILE - 10 -132.2 98.6 N 27.52 CA 28.07 C 28.27 O 29.77 CB 27.11 CG1 27.74 CG2 26.49 CD1 25.75
A PRO - 74 -73.0 -30.5 N 29.29 CA 30.17 C 30.06 O 29.16 CB 31.12 CG 31.95 CD 30.53
A ASP - 74 -93.3 92.6 N 29.12 CA 28.88 C 27.82 O 27.1 CB 29.84 CG 29.37 OD1 29.78 OD2 29.78
A THR H 37 -69.2 -25.7 N 27.39 CA 26.94 C 27.21 O 26.36 CB 27.34 OG1 30.93 CG2 26.48
A LYS H 118 -75.6 -44.6 N 27.39 CA 28.66 C 28.53 O 28.84 CB 30.27 CG 33.12 CD 35.37 CE 38.34 NZ 41.66
A LYS H 87 -60.7 -36.7 N 27.94 CA 28.47 C 27.09 O 27.15 CB 28.73 CG 33.86 CD 38.45 CE 40.74 NZ 42.83
A PHE H 0 -56.4 -54.6 N 26.35 CA 24.63 C 25.08 O 25.68 CB 24.59 CG 23.58 CD1 26.84 CD2 24.48 CE1 24.84 CE2 26.6 CZ 25.39
A TRP H 7 -67.3 -31.5 N 25.08 CA 25.76 C 26.63 O 27.19 CB 26.5 CG 27.48 CD1 29.65 CD2 29.34 NE1 30.58 CE2 29.68 CE3 31.62 CZ2 32.29 CZ3 33.14 CH2 33.54
A LYS H 106 -50.5 -52.0 N 26.26 CA 27.54 C 27.85 O 29.43 CB 28.29 CG 30.22 CD 31.56 CE 36.76 NZ 34.44
A THR H 0 -66.4 -46.0 N 26.54 CA 27.25 C 27.32 O 28.45 CB 26.02 OG1 25.1 CG2 26.89
A VAL H 0 -57.1 -42.0 N 27.02 CA 27.63 C 29.78 O 30.31 CB 26.8 CG1 25.34 CG2 24.86
A LYS H 126 -62.7 -35.4 N 31.24 CA 33.5 C 34.54 O 34.18 CB 35.41 CG 38.49 CD 43.63 CE 48.38 NZ 48.76
A LYS H 80 -68.7 -39.4 N 33.99 CA 36.3 C 35.58 O 36.8 CB 36.96 CG 42.94 CD 46.78 CE 52.83 NZ 56.34
A ALA H 0 -67.3 -37.8 N 32.93 CA 33.0 C 34.02 O 33.52 CB 30.81
A LEU H 39 -63.2 -48.4 N 33.52 CA 35.44 C 37.31 O 39.33 CB 35.63 CG 36.26 CD1 34.38 CD2 37.34
A ASP H 81 -58.1 -43.9 N 38.02 CA 41.0 C 41.89 O 43.11 CB 41.46 CG 46.66 OD1 52.46 OD2 51.12
A ALA H 1 -67.1 -39.6 N 40.58 CA 41.48 C 42.33 O 43.62 CB 40.24
A LEU H 0 -55.0 -40.3 N 40.93 CA 42.14 C 45.31 O 46.06 CB 40.22 CG 42.12 CD1 42.44 CD2 38.89
A GLU H 111 -62.8 -37.2 N 46.38 CA 49.82 C 52.23 O 54.11 CB 50.69 CG 51.95 CD 56.14 OE1 61.09 OE2 55.36
A LYS H 106 -80.7 -46.3 N 51.97 CA 54.71 C 54.85 O 56.81 CB 54.81 CG 57.04 CD 58.84 CE 59.93 NZ 59.67
A TYR H 55 -109.9 -15.1 N 51.94 CA 52.91 C 52.5 O 54.36 CB 51.52 CG 52.5 CD1 55.99 CD2 51.04 CE1 57.55 CE2 52.58 CZ 54.61 OH 57.85
A ASP - 62 59.0 -162.5 N 50.81 CA 50.67 C 49.66 O 49.13 CB 53.85 CG 55.24 OD1 57.74 OD2 55.51
A GLY S 0 95.4 -173.6 N 49.71 CA 48.52 C 45.78 O 43.8
A LEU E 0 -106.6 123.6 N 44.91 CA 43.12 C 41.55 O 42.84 CB 43.68 CG 46.28 CD1 45.79 CD2 46.04
A PHE E 0 -101.3 135.4 N 39.38 CA 38.16 C 36.98 O 36.14 CB 36.99 CG 38.76 CD1 40.11 CD2 38.48 CE1 41.09 CE2 38.3 CZ 42.07
A THR E 0 -117.3 168.4 N 36.67 CA 36.04 C 35.62 O 36.56 CB 38.0 OG1 38.79 CG2 40.08
A PHE E 0 -128.8 115.3 N 34.38 CA 33.36 C 34.0 O 34.22 CB 31.34 CG 30.74 CD1 31.3 CD2 29.62 CE1 32.15 CE2 30.62 CZ 30.64
A GLY E 3 -99.4 138.7 N 35.19 CA 36.52 C 36.73 O 35.46
A ILE E 25 -108.5 147.1 N 38.34 CA 39.3 C 42.7 O 43.99 CB 39.08 CG1 36.87 CG2 39.64 CD1 39.72
A VAL - 109 -72.0 121.4 N 44.9 CA 48.42 C 49.94 O 50.04 CB 49.79 CG1 52.75 CG2 50.36
A PRO - 21 -74.8 132.8 N 52.18 CA 54.02 C 56.78 O 58.06 CB 56.13 CG 55.98 CD 53.51
A THR - 119 -106.8 -11.9 N 57.26 CA 60.22 C 63.26 O 66.35 CB 58.66 OG1 56.16 CG2 57.27
A ARG S 106 -148.0 160.8 N 63.11 CA 66.47 C 66.29 O 63.96 CB 66.09 CG 64.28 CD 64.67 NE 62.82 CZ 61.26 NH1 58.87 NH2 60.48
A PRO - 50 -78.7 64.4 N 69.52 CA 70.04 C 68.2 O 71.74 CB 74.86 CG 76.6 CD 73.56
A GLU - 40 -69.1 130.8 N 63.75 CA 61.59 C 61.54 O 59.88 CB 57.49 CG 56.58 CD 60.98 OE1 63.99 OE2 61.94
A THR S 62 -100.5 -6.2 N 62.3 CA 63.21 C 60.26 O 61.06 CB 67.84 OG1 68.08 CG2 70.38
A GLY S 28 -95.2 -0.2 N 56.55 CA 53.87 C 50.34 O 47.54
A TYR S 17 -97.4 163.7 N 49.88 CA 47.19 C 48.49 O 51.69 CB 46.19 CG 45.81 CD1 45.55 CD2 46.35 CE1 45.38 CE2 46.3 CZ 44.86 OH 43.35
A GLY E 2 -88.5 148.9 N 46.91 CA 47.92 C 47.85 O 46.67
A TYR E 0 -116.7 132.7 N 50.19 CA 50.44 C 49.93 O 52.15 CB 53.92 CG 54.26 CD1 53.74 CD2 54.06 CE1 53.26 CE2 53.72 CZ 53.52 OH 54.3
A ILE E 0 -109.4 114.9 N 47.84 CA 47.03 C 48.6 O 46.95 CB 43.3 CG1 40.24 CG2 44.59 CD1 33.88
A GLU E 28 -79.4 122.2 N 51.2 CA 53.51 C 52.52 O 51.99 CB 57.21 CG 59.4 CD 64.2 OE1 65.48 OE2 62.24
A ILE E 43 -67.8 124.5 N 52.69 CA 52.36 C 56.31 O 58.02 CB 51.98 CG1 50.03 CG2 51.1 CD1 51.78
A GLY E 21 -105.2 -150.1 N 56.76 CA 60.88 C 62.05 O 60.89
A GLU E 130 -63.5 138.7 N 64.99 CA 67.45 C 65.19 O 62.73 CB 69.93 CG 72.76 CD 77.14 OE1 78.13 OE2 80.87
A GLU E 114 -65.8 110.0 N 67.13 CA 66.36 C 67.3 O 70.28 CB 67.83 CG 67.62 CD 69.64 OE1 69.31 OE2 73.35
A LEU E 46 -72.2 -48.3 N 65.79 CA 67.04 C 68.4 O 71.26 CB 64.32 CG 64.4 CD1 60.16 CD2 67.51
A GLU E 66 -152.5 171.2 N 67.74 CA 69.38 C 67.95 O 66.38 CB 69.17 CG 66.76 CD 67.79 OE1 69.33 OE2 65.96
A GLU T 136 -45.7 128.0 N 69.05 CA 67.59 C 62.99 O 62.0 CB 69.59 CG 71.94 CD 72.93 OE1 74.09 OE2 75.79
A GLY T 11 88.4 -11.7 N 60.42 CA 56.08 C 53.65 O 52.14
A VAL E 1 -131.2 126.6 N 53.16 CA 50.88 C 51.58 O 53.81 CB 50.97 CG1 48.83 CG2 48.95
A HIS E 21 -127.5 154.4 N 50.04 CA 51.66 C 50.73 O 48.16 CB 52.33 CG 55.01 ND1 59.01 CD2 54.89 CE1 60.06 NE2 58.09
A LYS E 86 -71.0 162.7 N 52.58 CA 52.84 C 51.78 O 51.96 CB 56.31 CG 57.95 CD 61.61 CE 64.62 NZ 68.41
A VAL E 22 -109.6 107.3 N 51.28 CA 50.79 C 54.1 O 54.31 CB 48.51 CG1 47.58 CG2 44.34
A ALA E 64 -57.4 -38.9 N 56.26 CA 60.16 C 61.03 O 63.82 CB 61.89
A GLN E 82 -164.3 153.8 N 59.26 CA 60.2 C 57.24 O 54.85 CB 64.42 CG 65.76 CD 71.49 OE1 73.74 NE2 73.35
A PHE E 10 -120.5 121.0 N 57.26 CA 54.98 C 57.69 O 59.9 CB 52.29 CG 50.28 CD1 51.12 CD2 44.65 CE1 48.86 CE2 45.63 CZ 47.89
A ARG E 82 -123.1 114.4 N 57.93 CA 60.83 C 58.45 O 57.09 CB 64.18 CG 69.25 CD 74.67 NE 79.23 CZ 84.6 NH1 87.43 NH2 87.3
A GLU E 10 -92.4 122.9 N 58.48 CA 56.85 C 59.33 O 62.75 CB 56.01 CG 54.54 CD 52.62 OE1 50.64 OE2 50.44
A LYS S 94 52.6 65.6 N 58.22 CA 60.48 C 64.88 O 67.12 CB 60.62 CG 56.96 CD 56.33 CE 53.51 NZ 50.97
A PRO - 2 -71.1 156.8 N 65.86 CA 70.61 C 73.61 O 71.64 CB 69.96 CG 65.43 CD 63.02
A ASP - 85 -64.6 164.0 N 78.9 CA 82.74 C 82.61 O 80.7 CB 88.28 CG 90.89 OD1 93.38 OD2 91.81
A LEU H 81 -54.7 -52.6 N 85.02 CA 84.89 C 86.78 O 84.52 CB 88.0 CG 88.09 CD1 81.3 CD2 90.64
A GLU H 99 -63.5 -39.9 N 91.8 CA 94.37 C 91.11 O 91.06 CB 100.57 CG 105.56 CD 105.66 OE1 107.49 OE2 103.94
A THR H 30 -59.5 -47.0 N 88.65 CA 85.17 C 80.52 O 79.39 CB 83.71 OG1 87.23 CG2 80.85
A ALA H 0 -61.6 -38.5 N 77.99 CA 73.63 C 74.61 O 72.11 CB 71.57
A LYS H 89 -56.8 -51.0 N 78.74 CA 80.56 C 80.62 O 78.82 CB 85.41 CG 85.92 CD 91.42 CE 92.44 NZ 97.84
A LYS H 134 -64.5 -36.1 N 82.51 CA 83.84 C 79.57 O 79.69 CB 87.16 CG 92.81 CD 96.35 CE 100.67 NZ 105.2
A PHE H 24 -59.7 -54.5 N 76.03 CA 72.14 C 70.61 O 70.16 CB 68.72 CG 69.76 CD1 73.5 CD2 67.29 CE1 75.15 CE2 69.0 CZ 72.73
A VAL H 45 -61.1 -36.6 N 70.48 CA 69.12 C 71.91 O 71.28 CB 69.01 CG1 68.33 CG2 65.59
A GLU H 154 -74.7 -24.5 N 75.94 CA 79.25 C 79.46 O 81.63 CB 84.03 CG 88.49 CD 93.22 OE1 92.68 OE2 95.07
A SER H 48 -72.6 -32.3 N 77.27 CA 77.32 C 73.92 O 74.75 CB 76.73 OG 72.33
A GLY T 62 80.4 8.2 N 69.84 CA 66.82 C 64.47 O 62.49
A ARG - 131 -100.9 3.7 N 64.85 CA 63.41 C 59.32 O 58.16 CB 67.12 CG 71.79 CD 79.19 NE 81.09 CZ 85.81 NH1 90.96 NH2 86.0
A PHE E 10 -125.0 150.2 N 57.51 CA 54.41 C 51.22 O 51.32 CB 55.79 CG 58.69 CD1 62.14 CD2 58.92 CE1 65.36 CE2 61.66 CZ 65.3
A LEU E 12 -119.3 155.5 N 48.52 CA 45.49 C 44.26 O 44.09 CB 43.64 CG 44.83 CD1 40.85 CD2 42.75
A TRP E 8 -76.7 139.6 N 42.97 CA 42.39 C 40.15 O 39.4 CB 41.66 CG 43.65 CD1 45.8 CD2 43.68 NE1 48.52 CE2 45.81 CE3 43.37 CZ2 47.5 CZ3 42.83 CH2 44.82
A ASN E 8 -71.7 124.0 N 40.39 CA 38.39 C 36.49 O 37.32 CB 39.79 CG 39.28 OD1 39.15 ND2 41.65
A SER E 1 -81.8 -6.5 N 35.24 CA 34.09 C 34.24 O 33.54 CB 32.78 OG 31.86
A GLY E 23 86.9 2.0 N 34.56 CA 34.4 C 32.68 O 32.2
A MET E 1 -106.7 151.5 N 32.43 CA 32.67 C 32.41 O 32.56 CB 32.3 CG 37.7 SD 49.51 CE 38.32
A PHE E 5 -135.5 159.8 N 31.85 CA 32.83 C 32.08 O 30.54 CB 35.18 CG 35.53 CD1 38.11 CD2 36.07 CE1 38.91 CE2 37.46 CZ 39.42
A LEU E 0 -138.3 129.9 N 32.94 CA 32.93 C 35.24 O 36.74 CB 31.81 CG 31.67 CD1 27.37 CD2 30.83
A TRP E 0 -157.2 159.8 N 36.18 CA 37.92 C 39.1 O 37.05 CB 39.02 CG 37.01 CD1 37.72 CD2 35.71 NE1 37.21 CE2 36.28 CE3 34.87 CZ2 36.72 CZ3 37.8 CH2 36.09
A LYS E 13 -77.7 135.4 N 42.22 CA 44.61 C 46.0 O 47.12 CB 47.2 CG 48.73 CD 54.96 CE 55.11 NZ 58.46
A ALA H 1 -45.8 -57.9 N 46.33 CA 48.33 C 51.52 O 52.46 CB 48.4
A ARG H 111 -56.0 -44.8 N 54.65 CA 58.03 C 57.8 O 59.43 CB 60.79 CG 65.99 CD 70.88 NE 69.39 CZ 71.58 NH1 69.44 NH2 74.73
A GLU H 34 -63.8 -38.6 N 56.04 CA 56.34 C 55.32 O 57.48 CB 54.8 CG 56.12 CD 57.31 OE1 59.49 OE2 59.7
A PHE H 0 -69.9 -38.6 N 50.95 CA 51.21 C 53.86 O 54.95 CB 48.82 CG 48.62 CD1 48.12 CD2 47.08 CE1 48.21 CE2 46.58 CZ 48.01
A ILE H 23 -58.8 -47.5 N 55.13 CA 58.12 C 60.69 O 62.79 CB 58.83 CG1 56.81 CG2 61.4 CD1 58.33
A GLU H 84 -65.0 -35.3 N 61.19 CA 63.95 C 64.49 O 67.61 CB 63.9 CG 65.23 CD 70.49 OE1 71.97 OE2 72.15
A GLU H 15 -65.3 -30.6 N 62.66 CA 63.15 C 63.94 O 66.07 CB 61.0 CG 62.81 CD 68.43 OE1 71.17 OE2 72.42
A VAL H 1 -72.1 -41.4 N 62.58 CA 63.75 C 67.77 O 69.43 CB 62.67 CG1 63.63 CG2 58.06
A LYS H 91 -47.9 -59.8 N 69.0 CA 73.16 C 75.36 O 78.03 CB 73.42 CG 76.91 CD 76.94 CE 81.51 NZ 82.07
A VAL H 108 -58.4 -63.0 N 74.73 CA 76.64 C 76.64 O 79.77 CB 75.04 CG1 77.18 CG2 75.37
A CYS H 16 -63.9 -39.9 N 73.58 CA 73.44 C 74.47 O 76.4 CB 70.21 SG 70.37
A GLU - 29 -151.2 82.6 N 73.62 CA 74.59 C 75.33 O 73.13 CB 20.0 CG 20.0 CD 20.0 OE1 20.0 OE2 20.0
A PRO H 66 -61.9 -30.1 N 78.36 CA 79.66 C 80.39 O 81.08 CB 83.41 CG 85.12 CD 81.22
A SER H 48 -57.2 -35.4 N 80.41 CA 81.75 C 78.13 O 79.85 CB 82.32 OG 80.06
A ILE H 0 -73.3 -51.4 N 73.56 CA 69.94 C 70.3 O 70.87 CB 66.16 CG1 65.34 CG2 62.84 CD1 60.74
A TYR H 35 -62.0 -51.3 N 69.65 CA 69.81 C 74.06 O 74.06 CB 69.19 CG 69.88 CD1 74.82 CD2 67.39 CE1 76.09 CE2 69.12 CZ 73.4 OH 75.22
A GLU H 92 -62.5 -29.6 N 77.47 CA 82.04 C 82.98 O 85.01 CB 85.87 CG 86.58 CD 89.63 OE1 92.77 OE2 90.33
A ASN H 51 -86.6 -26.6 N 81.52 CA 82.72 C 80.1 O 81.84 CB 82.76 CG 86.9 OD1 88.35 ND2 86.11
A LEU H 0 -105.3 -16.7 N 76.71 CA 73.83 C 73.39 O 72.44 CB 70.07 CG 69.82 CD1 64.98 CD2 69.57
A LYS T 100 -49.1 -36.8 N 74.18 CA 73.6 C 75.44 O 73.93 CB 75.54 CG 79.9 CD 81.58 CE 85.43 NZ 86.12
A ASP T 110 -98.8 -3.6 N 79.24 CA 81.75 C 81.18 O 82.73 CB 86.81 CG 89.16 OD1 85.54 OD2 94.98
A VAL - 6 -77.5 136.4 N 78.85 CA 78.94 C 76.55 O 73.88 CB 77.37 CG1 76.71 CG2 80.34
A ASP - 78 -84.6 110.0 N 78.21 CA 76.43 C 74.74 O 77.19 CB 79.87 CG 78.51 OD1 76.64 OD2 80.23
A PRO T 5 -57.2 -26.2 N 70.64 CA 68.77 C 69.89 O 70.11 CB 64.97 CG 64.74 CD 68.29
A ARG T 117 -80.6 -19.0 N 71.34 CA 72.62 C 76.21 O 77.64 CB 73.12 CG 69.73 CD 70.65 NE 69.2 CZ 68.53 NH1 70.55 NH2 65.45
A ASN - 77 -86.9 102.6 N 77.94 CA 81.65 C 81.03 O 80.56 CB 84.47 CG 89.35 OD1 91.09 ND2 89.79
A PHE H 59 -61.4 -42.1 N 81.0 CA 79.99 C 83.16 O 81.73 CB 80.49 CG 79.02 CD1 74.6 CD2 82.38 CE1 73.3 CE2 80.84 CZ 76.42
A GLU H 110 -61.4 -48.9 N 87.74 CA 91.42 C 90.6 O 91.07 CB 96.6 CG 98.5 CD 98.55 OE1 99.89 OE2 97.13
A GLU H 66 -64.2 -32.1 N 89.57 CA 89.07 C 85.12 O 85.22 CB 88.66 CG 88.28 CD 88.0 OE1 83.87 OE2 90.08
A LEU H 0 -71.0 -46.1 N 81.83 CA 78.34 C 80.08 O 79.0 CB 74.44 CG 70.06 CD1 67.77 CD2 66.24
A LYS H 81 -54.9 -44.3 N 83.27 CA 85.75 C 89.18 O 88.76 CB 88.56 CG 90.51 CD 95.6 CE 97.27 NZ 100.5
A LYS H 126 -66.5 -48.8 N 93.25 CA 97.35 C 95.41 O 96.6 CB 101.55 CG 106.08 CD 111.12 CE 109.57 NZ 112.74
A ALA H 7 -54.8 -51.1 N 92.96 CA 90.41 C 88.14 O 88.58 CB 87.52
A TYR H 0 -60.5 -24.8 N 86.14 CA 83.82 C 86.63 O 85.21 CB 81.34 CG 77.63 CD1 74.31 CD2 77.02 CE1 71.28 CE2 73.07 CZ 69.92 OH 65.4
A GLU H 119 -70.2 -42.1 N 90.91 CA 93.9 C 94.92 O 94.96 CB 98.54 CG 98.05 CD 102.61 OE1 104.86 OE2 102.24
A LYS H 146 -70.4 -12.0 N 95.66 CA 96.49 C 92.0 O 93.01 CB 98.66 CG 104.14 CD 105.59 CE 111.0 NZ 113.36
A VAL S 4 -94.8 137.8 N 87.11 CA 82.65 C 80.54 O 80.13 CB 79.18 CG1 74.66 CG2 79.4
A PRO - 42 -72.9 148.0 N 79.04 CA 77.42 C 72.83 O 71.02 CB 77.86 CG 77.26 CD 79.18
A SER - 73 -87.3 113.3 N 71.39 CA 67.23 C 65.13 O 66.45 CB 67.28 OG 64.83
A ILE - 40 -161.8 147.6 N 61.63 CA 59.48 C 55.98 O 55.23 CB 61.59 CG1 60.55 CG2 62.39 CD1 63.08
A SER - 8 -72.8 161.5 N 53.58 CA 50.76 C 50.41 O 52.81 CB 48.88 OG 50.3
A VAL H 0 -69.4 -28.8 N 47.81 CA 47.11 C 47.04 O 48.11 CB 44.92 CG1 42.74 CG2 43.16
A ASP I 17 -63.7 -48.3 N 46.0 CA 46.26 C 49.15 O 50.48 CB 44.91 CG 43.93 OD1 41.43 OD2 43.24
A TYR I 87 -79.3 -43.2 N 50.56 CA 53.9 C 55.81 O 59.64 CB 54.81 CG 53.93 CD1 53.88 CD2 51.12 CE1 52.6 CE2 51.85 CZ 54.25 OH 56.46
A ALA I 0 -60.5 -44.0 N 55.42 CA 57.4 C 57.22 O 58.78 CB 56.95
A VAL I 0 -125.1 -51.4 N 54.24 CA 53.78 C 53.41 O 54.64 CB 52.04 CG1 51.26 CG2 53.13
A MET I 2 -62.5 -46.5 N 51.21 CA 50.82 C 53.12 O 53.41 CB 48.14 CG 47.49 SD 50.62 CE 49.48
A GLU T 72 -59.2 -23.8 N 54.94 CA 58.01 C 60.32 O 62.08 CB 59.73 CG 58.8 CD 61.36 OE1 64.73 OE2 61.49
A LYS T 101 -107.3 -22.1 N 60.32 CA 63.16 C 62.44 O 64.65 CB 64.72 CG 65.35 CD 67.09 CE 67.65 NZ 67.68
A SER - 17 -68.9 147.3 N 59.35 CA 58.33 C 59.83 O 60.36 CB 55.06 OG 51.77
A LYS S 210 -93.8 -4.7 N 60.59 CA 62.05 C 59.45 O 59.99 CB 64.87 CG 69.59 CD 73.25 CE 77.44 NZ 79.62
A LYS - 63 -132.5 56.3 N 56.88 CA 54.83 C 51.11 O 49.05 CB 55.17 CG 56.74 CD 58.15 CE 60.08 NZ 62.77
A VAL E 8 -93.3 142.2 N 50.24 CA 47.19 C 47.08 O 48.42 CB 47.45 CG1 43.85 CG2 46.87
A ARG E 34 -126.9 153.7 N 45.13 CA 44.6 C 42.88 O 41.59 CB 43.65 CG 45.62 CD 44.92 NE 44.83 CZ 47.4 NH1 49.46 NH2 46.99
A VAL E 1 -126.6 135.6 N 43.09 CA 41.57 C 41.85 O 42.98 CB 42.59 CG1 41.99 CG2 40.58
A VAL E 0 -110.1 151.2 N 40.83 CA 41.7 C 41.39 O 40.23 CB 40.66 CG1 43.94 CG2 39.2
A LYS E 102 -81.0 136.7 N 42.66 CA 43.9 C 42.56 O 42.93 CB 46.42 CG 50.49 CD 53.58 CE 55.2 NZ 59.4
A ALA - 26 -71.5 128.0 N 41.42 CA 40.37 C 41.48 O 42.45 CB 39.58
A ASP S 45 -80.7 13.1 N 42.02 CA 43.31 C 40.94 O 41.92 CB 43.59 CG 47.91 OD1 54.34 OD2 47.5
A PHE S 15 -143.5 151.8 N 39.38 CA 37.77 C 37.48 O 38.2 CB 35.93 CG 32.0 CD1 30.31 CD2 30.64 CE1 28.14 CE2 30.83 CZ 29.61
A GLU - 160 -68.7 139.3 N 37.15 CA 35.98 C 34.25 O 32.97 CB 36.49 CG 38.54 CD 38.76 OE1 36.75 OE2 38.36
A TRP - 34 -144.5 149.4 N 32.95 CA 31.5 C 31.32 O 32.1 CB 31.7 CG 29.05 CD1 30.14 CD2 31.11 NE1 29.11 CE2 30.71 CE3 35.69 CZ2 30.28 CZ3 33.84 CH2 33.84
A SER B 23 -148.8 142.4 N 31.15 CA 30.92 C 29.91 O 28.79 CB 31.98 OG 30.48
A ASP - 33 -87.5 0.6 N 30.37 CA 30.74 C 31.15 O 30.58 CB 31.42 CG 33.35 OD1 36.26 OD2 34.71
A LEU - 0 46.9 61.4 N 30.9 CA 31.17 C 30.35 O 29.87 CB 30.33 CG 32.13 CD1 29.55 CD2 29.73
A GLY - 15 -63.5 -38.3 N 31.63 CA 32.22 C 33.02 O 32.91
A ASN S 22 -162.6 -178.5 N 32.06 CA 31.73 C 30.93 O 30.46 CB 32.33 CG 34.55 OD1 33.34 ND2 35.53
A TRP H 9 -56.0 -29.0 N 30.49 CA 28.81 C 28.58 O 26.73 CB 29.26 CG 27.48 CD1 26.6 CD2 26.25 NE1 25.54 CE2 26.5 CE3 25.55 CZ2 25.75 CZ3 26.78 CH2 28.58
A SER H 25 -67.6 -35.1 N 28.69 CA 30.13 C 30.1 O 29.73 CB 31.09 OG 35.41
A SER H 17 -57.5 -37.5 N 30.12 CA 30.16 C 28.99 O 29.34 CB 29.65 OG 32.15
A VAL H 3 -69.8 -43.2 N 27.73 CA 26.59 C 27.71 O 28.88 CB 25.59 CG1 22.58 CG2 27.13
A ARG H 42 -60.0 -39.7 N 28.86 CA 30.29 C 31.66 O 33.41 CB 30.69 CG 32.63 CD 33.87 NE 37.25 CZ 43.05 NH1 42.39 NH2 45.77
A GLU H 136 -54.6 -34.7 N 32.64 CA 35.26 C 34.15 O 34.49 CB 35.57 CG 40.92 CD 48.16 OE1 53.94 OE2 52.54
A ILE H 51 -85.8 -40.8 N 33.33 CA 33.12 C 33.9 O 35.21 CB 32.73 CG1 30.97 CG2 31.43 CD1 26.72
A GLU H 81 -93.8 -24.0 N 33.95 CA 34.83 C 34.47 O 34.14 CB 34.38 CG 37.52 CD 39.1 OE1 42.55 OE2 42.76
A GLY - 30 93.8 162.0 N 34.47 CA 36.16 C 36.26 O 34.94
A TYR - 85 -56.4 164.6 N 37.39 CA 37.81 C 38.96 O 38.83 CB 38.85 CG 39.05 CD1 38.85 CD2 42.3 CE1 39.04 CE2 42.06 CZ 43.01 OH 46.81
A THR - 37 -99.9 141.0 N 39.27 CA 40.33 C 43.54 O 43.62 CB 38.86 OG1 35.25 CG2 39.3
A GLU - 162 -90.4 150.7 N 46.4 CA 49.93 C 50.47 O 49.84 CB 52.55 CG 55.22 CD 61.59 OE1 64.83 OE2 65.7
A GLU - 85 -58.6 149.0 N 52.39 CA 53.72 C 54.97 O 56.81 CB 55.45 CG 57.24 CD 59.31 OE1 63.31 OE2 57.08
A SER - 59 -166.6 -170.3 N 55.15 CA 56.55 C 56.68 O 54.97 CB 56.29 OG 55.75
A ASP S 123 -71.7 -13.7 N 58.16 CA 58.58 C 55.62 O 56.01 CB 61.28 CG 66.0 OD1 71.05 OD2 70.56
A GLU S 88 -115.2 -10.2 N 53.08 CA 50.55 C 47.04 O 45.14 CB 51.51 CG 55.55 CD 60.07 OE1 60.27 OE2 63.3
A VAL E 6 -134.5 107.6 N 45.29 CA 42.84 C 43.18 O 43.48 CB 41.79 CG1 39.89 CG2 41.26
A ILE E 2 -107.7 122.2 N 42.7 CA 43.97 C 43.28 O 42.31 CB 43.94 CG1 46.34 CG2 45.48 CD1 46.93
A LEU E 24 -116.3 116.0 N 43.94 CA 44.44 C 46.42 O 48.62 CB 44.69 CG 42.83 CD1 43.64 CD2 39.58
A VAL E 2 -117.6 119.6 N 45.95 CA 46.75 C 47.0 O 45.37 CB 47.31 CG1 47.96 CG2 46.12
A ASP S 74 50.9 39.6 N 48.97 CA 49.83 C 48.2 O 47.76 CB 50.93 CG 52.79 OD1 54.96 OD2 55.64
A SER - 9 -134.9 120.4 N 46.96 CA 45.77 C 46.05 O 46.43 CB 43.78 OG 44.89
A ASP - 98 -114.1 155.1 N 46.03 CA 46.16 C 43.59 O 41.34 CB 49.16 CG 53.87 OD1 58.13 OD2 59.38
A ARG S 114 54.2 60.7 N 43.04 CA 41.43 C 39.12 O 37.81 CB 42.22 CG 46.41 CD 48.88 NE 48.69 CZ 53.48 NH1 55.55 NH2 53.61
A VAL E 1 -110.9 145.1 N 38.18 CA 37.09 C 36.14 O 37.9 CB 37.27 CG1 37.77 CG2 39.88
A PHE E 2 -122.2 113.5 N 33.73 CA 32.06 C 31.23 O 29.42 CB 31.1 CG 30.65 CD1 29.56 CD2 29.43 CE1 29.54 CE2 30.13 CZ 30.32
A VAL E 6 -130.6 126.7 N 31.16 CA 31.73 C 32.52 O 33.85 CB 32.89 CG1 30.64 CG2 32.36
A LYS E 75 -115.6 109.2 N 32.84 CA 34.29 C 35.54 O 35.47 CB 34.72 CG 36.58 CD 39.49 CE 41.79 NZ 43.42
A THR - 43 -82.6 155.8 N 37.61 CA 39.15 C 40.42 O 39.48 CB 40.74 OG1 43.69 CG2 39.2
A HIS S 82 -109.2 -89.1 N 41.53 CA 43.38 C 45.25 O 47.33 CB 43.61 CG 45.89 ND1 48.47 CD2 48.7 CE1 50.4 NE2 50.29
A ASN S 103 -121.2 12.6 N 46.14 CA 48.23 C 47.23 O 48.91 CB 49.85 CG 51.48 OD1 51.95 ND2 52.93
A LYS S 11 -158.7 161.8 N 44.77 CA 43.11 C 40.81 O 40.21 CB 43.54 CG 42.25 CD 43.63 CE 43.84 NZ 45.33
A PRO - 29 -64.4 147.2 N 39.26 CA 38.09 C 35.67 O 34.49 CB 39.06 CG 41.47 CD 41.43
A ILE E 0 -118.5 125.5 N 34.09 CA 32.79 C 32.43 O 32.41 CB 31.17 CG1 31.1 CG2 30.32 CD1 27.89
A ALA E 0 -110.7 133.0 N 32.35 CA 33.03 C 31.72 O 32.73 CB 33.63
A VAL E 0 -119.4 117.2 N 31.46 CA 31.75 C 33.52 O 34.87 CB 31.25 CG1 29.62 CG2 29.24
A VAL E 0 -123.2 120.2 N 34.61 CA 35.75 C 36.97 O 36.91 CB 36.47 CG1 37.92 CG2 34.04
A GLY S 11 79.4 20.3 N 38.53 CA 40.13 C 39.82 O 40.79
A LEU - 10 -138.9 137.3 N 39.53 CA 39.7 C 39.95 O 41.45 CB 37.96 CG 39.96 CD1 40.49 CD2 40.49
A SER - 29 -125.0 158.6 N 40.0 CA 39.42 C 38.2 O 37.61 CB 41.99 OG 42.59
A ASP S 33 62.7 48.3 N 37.46 CA 36.49 C 34.3 O 33.2 CB 38.71 CG 40.39 OD1 41.79 OD2 42.66
A VAL E 1 -130.7 149.4 N 32.65 CA 33.34 C 31.2 O 31.3 CB 33.77 CG1 36.66 CG2 34.0
A ILE E 0 -112.8 132.4 N 30.84 CA 29.61 C 29.15 O 29.18 CB 29.73 CG1 31.32 CG2 27.82 CD1 32.25
A VAL E 0 -130.5 120.6 N 29.08 CA 28.75 C 29.19 O 29.97 CB 29.6 CG1 26.06 CG2 28.44
A ILE E 3 -126.8 120.7 N 28.93 CA 29.39 C 30.4 O 31.03 CB 29.87 CG1 29.14 CG2 26.75 CD1 27.3
A ASP E 3 -113.6 124.3 N 31.56 CA 32.96 C 34.42 O 34.39 CB 33.22 CG 35.79 OD1 40.32 OD2 35.77
A THR E 17 -143.5 165.7 N 35.86 CA 37.27 C 38.91 O 38.59 CB 37.22 OG1 38.87 CG2 35.84
A PRO T 91 -54.4 -22.6 N 40.6 CA 42.26 C 42.17 O 45.11 CB 43.98 CG 43.5 CD 41.6
A ASN T 72 -79.7 -21.8 N 40.76 CA 40.65 C 38.38 O 38.61 CB 40.14 CG 43.82 OD1 50.07 ND2 46.04
A GLY E 0 160.9 177.6 N 35.5 CA 34.19 C 32.24 O 31.44
A ILE E 0 -125.1 130.7 N 31.55 CA 30.17 C 29.59 O 30.72 CB 30.5 CG1 31.16 CG2 28.36 CD1 34.95
A LEU E 0 -107.8 133.5 N 30.0 CA 29.83 C 28.79 O 29.14 CB 28.59 CG 30.03 CD1 27.75 CD2 26.87
A ILE E 0 -127.2 109.6 N 29.26 CA 28.84 C 30.55 O 30.71 CB 29.98 CG1 29.47 CG2 29.99 CD1 30.17
A CYS E 1 -136.1 121.8 N 31.27 CA 32.2 C 32.35 O 30.68 CB 31.57 SG 34.11
A LYS E 41 -61.8 128.9 N 34.64 CA 37.11 C 37.91 O 38.61 CB 38.85 CG 40.15 CD 40.85 CE 45.39 NZ 47.22
A GLU G 21 -48.2 -52.3 N 39.02 CA 40.5 C 41.78 O 41.68 CB 41.62 CG 43.5 CD 46.47 OE1 52.58 OE2 49.26
A GLU G 136 -65.5 -10.4 N 44.18 CA 46.47 C 46.09 O 47.65 CB 49.49 CG 53.44 CD 55.92 OE1 54.89 OE2 56.55
A TYR G 77 -97.7 5.2 N 44.53 CA 43.16 C 40.62 O 40.39 CB 43.52 CG 43.69 CD1 44.2 CD2 45.74 CE1 46.0 CE2 46.97 CZ 45.68 OH 52.29
A ALA G 1 -49.8 -31.1 N 39.16 CA 37.38 C 37.84 O 36.2 CB 36.45
A GLN G 69 -62.4 -31.9 N 39.32 CA 40.79 C 41.34 O 42.06 CB 42.69 CG 44.23 CD 46.85 OE1 44.73 NE2 47.8
A LYS G 74 -73.4 -4.2 N 41.86 CA 42.89 C 41.67 O 42.49 CB 44.26 CG 47.02 CD 52.0 CE 55.44 NZ 58.64
A VAL H 0 -56.7 -27.8 N 39.69 CA 39.12 C 41.28 O 42.01 CB 37.26 CG1 36.41 CG2 35.52
A ARG H 90 -48.5 -49.9 N 42.97 CA 45.5 C 46.62 O 48.19 CB 47.05 CG 52.28 CD 58.5 NE 61.5 CZ 65.09 NH1 66.95 NH2 64.04
A GLU H 46 -65.2 -32.9 N 46.72 CA 48.79 C 46.49 O 47.92 CB 50.19 CG 54.51 CD 59.42 OE1 64.2 OE2 58.01
A VAL H 0 -58.4 -43.4 N 43.33 CA 41.98 C 43.15 O 44.45 CB 39.18 CG1 37.5 CG2 38.61
A VAL H 15 -67.6 -40.0 N 43.81 CA 45.64 C 49.6 O 50.7 CB 44.74 CG1 45.29 CG2 39.36
A LYS H 106 -55.0 -40.5 N 52.37 CA 56.93 C 59.5 O 62.88 CB 58.03 CG 60.11 CD 64.97 CE 65.3 NZ 67.09
A LYS H 89 -77.9 -36.7 N 59.08 CA 61.34 C 61.9 O 64.27 CB 60.09 CG 61.68 CD 61.24 CE 62.85 NZ 62.27
A LEU H 33 -75.1 -37.9 N 60.67 CA 61.47 C 64.45 O 66.33 CB 58.81 CG 58.44 CD1 59.74 CD2 55.81
A PHE T 112 -120.0 55.7 N 66.08 CA 69.22 C 72.74 O 73.35 CB 67.7 CG 66.09 CD1 66.65 CD2 62.94 CE1 64.64 CE2 61.13 CZ 61.78
A ARG - 261 -104.0 360.0 N 75.84 CA 79.9 C 82.95 O 86.11 CB 80.76 CG 84.28 CD 88.5 NE 92.98 CZ 98.0 NH1 100.71 NH2 101.28
B VAL - 157 360.0 -71.8 N 66.16 CA 63.77 C 60.22 O 59.37 CB 65.05 CG1 62.76 CG2 68.57
B MET - 19 -160.6 139.0 N 58.69 CA 55.58 C 54.32 O 54.88 CB 54.31 CG 53.32 SD 54.31 CE 46.16
B LYS E 37 -121.7 141.4 N 51.98 CA 51.19 C 47.43 O 45.79 CB 52.74 CG 56.29 CD 59.61 CE 60.1 NZ 59.67
B ALA E 0 -111.0 127.1 N 46.05 CA 43.56 C 43.67 O 45.55 CB 42.45
B LEU E 1 -113.2 111.4 N 41.88 CA 42.65 C 40.64 O 38.31 CB 43.68 CG 45.47 CD1 48.26 CD2 44.7
B ILE E 0 -94.0 119.4 N 41.03 CA 39.05 C 40.42 O 43.03 CB 38.94 CG1 37.72 CG2 34.75 CD1 35.37
B LEU E 17 -95.2 117.7 N 39.51 CA 40.47 C 39.46 O 37.58 CB 39.54 CG 41.69 CD1 41.78 CD2 41.81
B ALA E 2 -117.9 74.0 N 40.74 CA 40.57 C 42.04 O 44.99 CB 41.4
B GLY - 51 -69.1 -12.2 N 41.69 CA 43.55 C 44.28 O 46.6
B GLY - 9 64.4 34.5 N 42.61 CA 43.13 C 42.67 O 45.19
B SER - 47 -62.7 165.9 N 40.83 CA 41.42 C 41.12 O 41.01 CB 39.34 OG 37.58
B GLY - 10 164.9 3.0 N 41.51 CA 40.21 C 40.59 O 39.33
B GLU G 83 -54.5 -38.9 N 41.03 CA 42.79 C 39.6 O 40.07 CB 45.04 CG 50.18 CD 53.47 OE1 55.13 OE2 57.21
B ARG G 53 -69.8 -10.2 N 35.96 CA 33.79 C 31.56 O 29.5 CB 32.94 CG 36.24 CD 37.95 NE 39.33 CZ 38.63 NH1 37.34 NH2 38.98
B PHE G 1 -104.5 10.8 N 30.8 CA 30.59 C 31.98 O 32.02 CB 29.62 CG 28.83 CD1 28.92 CD2 28.61 CE1 28.55 CE2 24.92 CZ 25.57
B TRP T 20 -49.5 140.7 N 33.3 CA 35.57 C 35.25 O 34.4 CB 37.32 CG 38.55 CD1 37.84 CD2 38.99 NE1 41.33 CE2 40.45 CE3 38.2 CZ2 41.86 CZ3 39.79 CH2 40.42
B PRO T 0 -92.7 14.9 N 36.45 CA 38.67 C 38.55 O 41.22 CB 39.94 CG 37.23 CD 35.73
B LEU T 71 -81.0 -50.6 N 37.58 CA 37.95 C 39.55 O 41.56 CB 35.75 CG 37.0 CD1 38.11 CD2 33.05
B SER - 8 -72.9 156.6 N 39.63 CA 41.08 C 44.95 O 45.96 CB 40.25 OG 40.76
B THR - 37 -138.9 169.1 N 47.1 CA 50.78 C 51.75 O 48.96 CB 53.29 OG1 53.41 CG2 52.72
B PRO S 88 -55.9 -38.0 N 55.35 CA 56.54 C 56.51 O 55.27 CB 60.62 CG 60.83 CD 57.71
B GLU S 138 -82.1 -22.1 N 57.42 CA 58.69 C 55.8 O 56.88 CB 62.61 CG 67.69 CD 69.91 OE1 68.13 OE2 76.08
B THR S 38 -120.8 80.6 N 52.33 CA 49.14 C 46.47 O 45.28 CB 48.55 OG1 49.67 CG2 45.48
B PRO - 4 -67.6 -177.4 N 46.34 CA 43.68 C 40.65 O 38.89 CB 44.45 CG 47.57 CD 48.95
B LYS G 4 -55.9 -41.8 N 38.9 CA 36.78 C 36.06 O 34.97 CB 35.98 CG 33.55 CD 33.08 CE 31.93 NZ 32.11
B GLN G 4 -61.8 -20.0 N 36.7 CA 36.68 C 37.57 O 36.42 CB 38.21 CG 41.73 CD 45.22 OE1 46.07 NE2 45.59
B PHE G 3 -91.7 -5.6 N 39.66 CA 40.45 C 39.15 O 40.77 CB 43.85 CG 45.86 CD1 48.07 CD2 47.2 CE1 49.74 CE2 49.67 CZ 49.92
B LEU - 7 -74.2 129.3 N 36.62 CA 35.26 C 34.36 O 32.15 CB 34.06 CG 34.91 CD1 33.36 CD2 35.5
B LYS - 98 -84.1 70.2 N 34.74 CA 35.32 C 33.97 O 34.45 CB 37.55 CG 39.88 CD 44.24 CE 47.43 NZ 48.09
B LEU - 23 -69.7 -30.8 N 32.26 CA 31.6 C 32.34 O 33.06 CB 29.78 CG 28.71 CD1 23.1 CD2 29.2
B PHE B 28 -138.9 144.1 N 32.66 CA 33.97 C 36.46 O 38.11 CB 32.13 CG 30.81 CD1 30.67 CD2 28.21 CE1 30.16 CE2 28.65 CZ 27.79
B GLY T 59 64.1 -155.4 N 38.9 CA 41.83 C 43.75 O 45.17
B ASN T 137 -121.6 48.2 N 45.78 CA 46.54 C 44.88 O 46.3 CB 50.31 CG 53.41 OD1 57.5 ND2 57.38
B LYS B 70 -141.5 150.4 N 41.24 CA 40.23 C 37.39 O 34.54 CB 40.28 CG 44.98 CD 47.9 CE 52.36 NZ 54.76
B SER - 0 -69.8 163.9 N 37.11 CA 35.67 C 33.63 O 34.36 CB 37.35 OG 37.53
B LEU H 4 -56.9 -40.9 N 32.09 CA 30.88 C 31.66 O 30.2 CB 30.17 CG 30.61 CD1 29.21 CD2 31.44
B MET H 0 -70.8 -45.3 N 33.13 CA 35.16 C 36.02 O 36.94 CB 37.48 CG 40.42 SD 44.97 CE 42.86
B ARG H 39 -58.2 -46.3 N 36.6 CA 37.08 C 35.45 O 35.52 CB 38.71 CG 40.12 CD 42.51 NE 42.84 CZ 46.76 NH1 47.48 NH2 49.55
B TRP H 104 -58.6 -43.1 N 33.13 CA 32.56 C 30.86 O 30.9 CB 30.69 CG 31.56 CD1 30.97 CD2 35.51 NE1 31.51 CE2 33.67 CE3 36.79 CZ2 35.65 CZ3 38.5 CH2 37.31
B THR H 0 -59.2 -49.1 N 30.38 CA 30.55 C 32.44 O 33.36 CB 29.97 OG1 29.36 CG2 29.76
B PHE H 0 -56.9 -46.2 N 33.98 CA 35.71 C 35.43 O 35.72 CB 37.81 CG 42.81 CD1 44.56 CD2 46.87 CE1 47.92 CE2 49.45 CZ 50.75
B GLU H 53 -64.4 -35.4 N 35.11 CA 37.02 C 36.19 O 38.16 CB 37.59 CG 41.54 CD 44.28 OE1 46.58 OE2 48.9
B ARG H 9 -58.3 -46.1 N 33.87 CA 33.2 C 34.1 O 33.56 CB 31.19 CG 31.96 CD 33.24 NE 29.76 CZ 28.53 NH1 29.85 NH2 30.86
B VAL H 0 -69.6 -40.3 N 34.03 CA 36.32 C 39.98 O 40.13 CB 36.32 CG1 38.12 CG2 35.03
B LEU T 47 -68.0 -3.7 N 42.2 CA 45.66 C 47.09 O 49.65 CB 47.22 CG 48.83 CD1 50.39 CD2 48.97
B GLU T 80 -70.5 -21.7 N 46.06 CA 48.82 C 49.9 O 52.4 CB 47.66 CG 53.9 CD 58.75 OE1 59.28 OE2 63.2
B GLU T 102 -130.2 -11.9 N 48.64 CA 50.23 C 50.92 O 53.06 CB 48.32 CG 49.04 CD 53.95 OE1 57.09 OE2 56.99
B MET S 22 -124.7 154.3 N 49.98 CA 51.29 C 53.72 O 53.01 CB 49.19 CG 47.98 SD 48.17 CE 48.63
B ASP - 86 -78.2 138.6 N 55.96 CA 58.91 C 57.42 O 55.35 CB 62.41 CG 66.67 OD1 69.25 OD2 72.72
B PRO G 31 -52.8 -35.2 N 58.57 CA 57.69 C 58.75 O 57.32 CB 60.77 CG 61.38 CD 60.52
B LYS G 153 -49.7 -31.1 N 61.32 CA 62.92 C 59.76 O 59.9 CB 66.43 CG 70.72 CD 75.33 CE 80.01 NZ 83.59
B ASP G 41 -95.7 7.0 N 56.47 CA 53.98 C 50.46 O 47.78 CB 53.22 CG 57.12 OD1 59.01 OD2 60.41
B VAL E 0 -107.5 132.4 N 49.9 CA 46.99 C 48.27 O 51.21 CB 45.84 CG1 41.74 CG2 44.59
B ILE E 6 -120.7 129.8 N 47.23 CA 49.17 C 46.68 O 44.36 CB 50.52 CG1 54.92 CG2 51.74 CD1 59.09
B VAL E 0 -108.3 127.2 N 47.89 CA 46.08 C 48.05 O 50.84 CB 46.46 CG1 44.33 CG2 44.12
B VAL E 1 -112.6 119.4 N 46.9 CA 48.53 C 47.76 O 45.04 CB 48.62 CG1 49.32 CG2 48.74
B THR E 0 -158.1 158.6 N 50.13 CA 49.95 C 53.26 O 56.6 CB 48.86 OG1 48.62 CG2 50.88
B HIS E 24 -59.6 139.6 N 53.26 CA 57.42 C 59.78 O 57.22 CB 57.18 CG 62.27 ND1 67.53 CD2 65.72 CE1 70.36 NE2 69.57
B LYS G 91 -44.2 -37.3 N 64.08 CA 67.95 C 67.52 O 68.32 CB 73.16 CG 75.87 CD 83.38 CE 86.06 NZ 84.36
B ASP G 110 -61.7 -26.7 N 66.73 CA 66.97 C 63.97 O 65.27 CB 66.25 CG 71.0 OD1 71.3 OD2 72.9
B TYR G 23 -95.6 1.4 N 60.43 CA 57.88 C 59.1 O 57.33 CB 53.6 CG 52.13 CD1 51.9 CD2 50.75 CE1 50.93 CE2 51.8 CZ 52.24 OH 53.9
B VAL H 21 -65.6 -51.7 N 62.69 CA 64.12 C 65.8 O 64.07 CB 68.09 CG1 68.93 CG2 66.6
B GLU H 131 -66.0 -35.8 N 69.36 CA 71.61 C 68.43 O 68.8 CB 76.08 CG 80.94 CD 83.06 OE1 85.39 OE2 83.67
B ARG H 82 -66.8 -40.1 N 65.78 CA 62.97 C 60.18 O 59.64 CB 61.32 CG 59.73 CD 63.0 NE 61.24 CZ 59.03 NH1 55.67 NH2 59.09
B THR H 0 -56.9 -43.0 N 58.34 CA 56.25 C 58.43 O 57.15 CB 55.65 OG1 51.83 CG2 52.86
B LYS H 54 -60.5 -41.1 N 62.84 CA 65.73 C 65.8 O 65.99 CB 70.47 CG 72.14 CD 77.16 CE 78.86 NZ 81.99
B LYS H 168 -66.6 -39.8 N 65.89 CA 66.34 C 62.22 O 62.79 CB 67.14 CG 70.2 CD 76.55 CE 79.73 NZ 77.46
B GLU H 23 -69.2 -36.1 N 58.7 CA 55.21 C 54.76 O 54.24 CB 52.59 CG 50.98 CD 52.16 OE1 55.65 OE2 50.37
B LEU - 0 -125.9 70.0 N 55.58 CA 54.72 C 58.15 O 58.97 CB 52.06 CG 48.58 CD1 45.29 CD2 43.14
B PRO T 87 -68.1 -26.3 N 59.96 CA 63.88 C 64.55 O 67.52 CB 65.67 CG 62.54 CD 59.33
B GLU T 84 -69.7 -16.1 N 61.59 CA 62.66 C 61.9 O 63.05 CB 60.52 CG 62.09 CD 60.6 OE1 58.52 OE2 62.88
B LEU S 7 -79.5 129.6 N 59.88 CA 59.95 C 64.2 O 66.61 CB 57.19 CG 56.22 CD1 51.79 CD2 53.96
B PRO - 36 -60.1 146.5 N 65.88 CA 70.14 C 69.84 O 65.4 CB 71.33 CG 69.36 CD 65.07
B ASP G 99 -57.3 -28.5 N 73.85 CA 74.9 C 74.38 O 72.89 CB 80.2 CG 80.95 OD1 78.56 OD2 87.06
B GLU G 115 -80.6 -11.5 N 76.1 CA 76.33 C 71.59 O 71.07 CB 80.2 CG 81.53 CD 86.99 OE1 90.44 OE2 89.48
B ASN G 12 -87.5 3.5 N 68.72 CA 64.3 C 61.38 O 58.74 CB 62.69 CG 65.4 OD1 71.1 ND2 63.57
B ILE E 13 -105.5 116.6 N 62.91 CA 60.93 C 62.65 O 66.16 CB 61.92 CG1 60.12 CG2 59.39 CD1 62.13
B ILE E 2 -99.8 119.2 N 60.55 CA 62.4 C 62.03 O 58.83 CB 60.71 CG1 60.59 CG2 63.97 CD1 64.79
B ALA E 27 -87.1 119.4 N 65.65 CA 66.5 C 67.36 O 71.76 CB 70.27
B GLU E 10 -87.5 131.0 N 65.08 CA 66.25 C 69.78 O 69.65 CB 62.7 CG 59.99 CD 56.44 OE1 57.32 OE2 54.96
B PRO S 12 -70.1 -20.8 N 73.63 CA 77.74 C 76.8 O 79.43 CB 81.73 CG 80.14 CD 74.54
B MET S 57 -163.9 162.7 N 73.76 CA 72.56 C 68.27 O 67.22 CB 76.61 CG 79.01 SD 84.65 CE 89.59
B LYS - 95 -76.8 132.4 N 65.79 CA 62.22 C 62.74 O 64.99 CB 60.22 CG 59.5 CD 56.66 CE 56.03 NZ 52.87
B LYS - 37 -138.7 22.6 N 60.07 CA 60.32 C 56.65 O 56.58 CB 62.78 CG 67.04 CD 69.46 CE 74.25 NZ 76.23
B ASN - 87 68.3 -165.6 N 53.42 CA 50.07 C 49.12 O 50.31 CB 50.24 CG 48.21 OD1 45.43 ND2 45.64
B THR H 37 -80.7 -30.6 N 47.02 CA 45.61 C 47.15 O 48.02 CB 42.83 OG1 43.61 CG2 41.06
B ALA H 2 -60.2 -43.9 N 48.28 CA 49.03 C 50.48 O 49.62 CB 51.04
B PRO H 0 -75.6 -31.9 N 52.17 CA 54.42 C 52.51 O 52.51 CB 57.01 CG 57.38 CD 53.04
B ALA H 5 -65.3 -45.7 N 49.93 CA 48.49 C 47.7 O 48.8 CB 45.86
B CYS H 0 -50.7 -53.9 N 46.3 CA 45.37 C 47.15 O 47.2 CB 44.6 SG 42.36
B PHE H 1 -56.6 -51.0 N 48.96 CA 50.96 C 51.84 O 51.78 CB 54.25 CG 57.98 CD1 59.08 CD2 62.32 CE1 62.28 CE2 66.55 CZ 66.54
B ILE H 2 -72.4 -35.2 N 52.26 CA 54.79 C 53.02 O 55.29 CB 56.7 CG1 54.65 CG2 59.59 CD1 54.66
B GLY H 1 -67.9 -41.1 N 49.96 CA 48.78 C 49.25 O 49.43
B THR H 0 -68.6 -26.9 N 49.41 CA 50.09 C 54.15 O 55.57 CB 49.02 OG1 45.61 CG2 48.5
B LYS T 51 -62.3 -20.8 N 56.87 CA 60.91 C 61.87 O 63.53 CB 63.88 CG 66.58 CD 70.55 CE 74.31 NZ 77.64
B LEU T 39 -82.6 -19.7 N 59.56 CA 61.16 C 60.34 O 62.07 CB 60.16 CG 61.55 CD1 59.49 CD2 65.18
B ALA S 10 -81.8 157.7 N 57.66 CA 57.13 C 60.11 O 60.87 CB 53.67
B ASP - 113 -72.1 160.8 N 61.67 CA 64.79 C 63.36 O 59.31 CB 66.86 CG 70.87 OD1 74.41 OD2 75.01
B ASP T 98 -54.7 -45.8 N 65.89 CA 65.72 C 63.26 O 61.65 CB 69.25 CG 72.79 OD1 72.8 OD2 78.17
B ASP T 112 -105.7 20.8 N 64.08 CA 63.01 C 60.34 O 59.89 CB 65.6 CG 67.67 OD1 69.09 OD2 72.13
B GLU - 11 -86.3 131.6 N 55.85 CA 52.94 C 49.03 O 48.75 CB 54.56 CG 52.98 CD 58.1 OE1 61.06 OE2 56.96
B PRO E 13 -68.1 139.1 N 45.73 CA 42.42 C 40.57 O 39.63 CB 40.55 CG 43.55 CD 46.11
B VAL E 2 -117.2 117.2 N 39.39 CA 38.4 C 35.26 O 35.16 CB 39.91 CG1 39.69 CG2 43.13
B LEU E 0 -93.0 115.8 N 33.86 CA 32.27 C 32.78 O 33.85 CB 31.17 CG 28.61 CD1 23.48 CD2 26.6
B VAL E 0 -103.8 120.1 N 32.44 CA 32.75 C 31.36 O 30.26 CB 34.51 CG1 35.89 CG2 36.27
B LEU E 0 -129.4 136.1 N 30.92 CA 30.44 C 31.48 O 33.69 CB 28.6 CG 29.92 CD1 30.86 CD2 28.82
B PRO E 18 -69.0 145.6 N 31.07 CA 32.15 C 31.94 O 31.52 CB 31.31 CG 30.75 CD 30.34
B ALA S 1 -79.7 -16.1 N 33.52 CA 33.75 C 32.23 O 32.56 CB 35.28
B ASP S 36 -114.4 25.2 N 31.43 CA 31.16 C 29.15 O 28.95 CB 33.2 CG 34.42 OD1 35.55 OD2 37.88
B HIS - 25 -107.5 178.6 N 27.12 CA 25.59 C 25.0 O 25.66 CB 24.41 CG 26.93 ND1 27.62 CD2 25.39 CE1 30.39 NE2 26.65
B ARG B 79 -140.7 120.4 N 23.81 CA 23.15 C 22.49 O 20.77 CB 23.33 CG 24.97 CD 26.13 NE 26.32 CZ 27.21 NH1 26.85 NH2 27.83
B ILE - 9 -132.0 105.5 N 22.4 CA 22.54 C 24.1 O 25.22 CB 21.66 CG1 23.09 CG2 22.53 CD1 20.77
B PRO - 58 -78.7 -29.7 N 24.86 CA 26.85 C 27.51 O 27.81 CB 27.89 CG 27.06 CD 25.93
B ASP - 61 -97.2 93.2 N 26.87 CA 27.17 C 26.88 O 25.29 CB 28.09 CG 29.26 OD1 31.34 OD2 36.96
B THR H 42 -71.7 -25.5 N 26.72 CA 27.15 C 27.44 O 26.52 CB 28.18 OG1 31.76 CG2 27.5
B LYS H 123 -75.2 -40.4 N 28.57 CA 29.82 C 29.06 O 28.71 CB 33.07 CG 35.7 CD 42.36 CE 46.12 NZ 49.6
B LYS H 85 -68.7 -34.3 N 28.41 CA 27.96 C 26.26 O 27.46 CB 27.24 CG 32.21 CD 39.34 CE 43.69 NZ 48.16
B PHE H 0 -52.3 -53.0 N 24.62 CA 23.34 C 24.07 O 22.73 CB 22.96 CG 22.78 CD1 21.93 CD2 24.65 CE1 21.92 CE2 24.14 CZ 22.79
B TRP H 9 -71.5 -31.3 N 25.11 CA 26.3 C 27.58 O 27.93 CB 28.5 CG 29.3 CD1 31.66 CD2 31.94 NE1 31.47 CE2 32.7 CE3 35.66 CZ2 35.66 CZ3 36.69 CH2 36.93
B LYS H 105 -54.5 -44.0 N 27.87 CA 29.48 C 28.17 O 28.25 CB 31.07 CG 33.04 CD 37.82 CE 40.9 NZ 43.46
B THR H 0 -71.7 -41.8 N 26.23 CA 26.52 C 26.25 O 26.97 CB 25.44 OG1 26.39 CG2 24.64
B VAL H 0 -65.0 -37.7 N 26.82 CA 27.3 C 30.0 O 29.86 CB 27.13 CG1 27.71 CG2 24.35
B LYS H 129 -68.2 -36.6 N 31.42 CA 34.51 C 34.84 O 36.2 CB 36.23 CG 39.06 CD 45.94 CE 47.39 NZ 49.15
B LYS H 70 -62.7 -37.7 N 33.52 CA 34.17 C 32.92 O 33.48 CB 34.6 CG 38.28 CD 42.61 CE 49.17 NZ 54.61
B ALA H 0 -67.4 -43.1 N 30.79 CA 30.54 C 32.14 O 32.33 CB 28.54
B LEU H 45 -60.6 -44.0 N 32.88 CA 35.29 C 36.57 O 38.08 CB 35.99 CG 36.66 CD1 37.14 CD2 37.25
B ASP H 71 -60.7 -44.6 N 36.87 CA 39.04 C 38.67 O 41.13 CB 39.98 CG 43.26 OD1 47.76 OD2 44.84
B ALA H 0 -68.0 -37.0 N 36.21 CA 36.3 C 36.76 O 37.81 CB 34.08
B LEU H 1 -62.2 -42.4 N 35.7 CA 36.8 C 40.44 O 42.29 CB 35.42 CG 36.27 CD1 34.97 CD2 32.27
B GLU H 118 -66.2 -27.3 N 41.71 CA 45.51 C 47.04 O 49.78 CB 46.67 CG 53.22 CD 58.68 OE1 60.46 OE2 64.06
B LYS H 112 -89.1 -40.3 N 45.89 CA 47.9 C 47.84 O 49.76 CB 47.19 CG 50.72 CD 52.69 CE 55.78 NZ 57.52
B TYR H 57 -114.2 -18.5 N 45.84 CA 46.65 C 47.31 O 48.61 CB 44.75 CG 45.42 CD1 48.24 CD2 45.37 CE1 49.8 CE2 46.18 CZ 47.21 OH 48.68
B ASP - 81 68.2 -170.7 N 47.14 CA 47.56 C 46.66 O 46.2 CB 50.58 CG 53.69 OD1 52.95 OD2 56.4
B GLY S 0 92.5 -175.9 N 47.49 CA 46.91 C 44.78 O 44.76
B LEU E 0 -103.7 125.4 N 44.18 CA 42.05 C 40.27 O 41.84 CB 43.08 CG 45.16 CD1 45.54 CD2 46.05
B PHE E 0 -103.5 142.0 N 37.65 CA 36.19 C 34.82 O 34.38 CB 35.62 CG 36.14 CD1 36.91 CD2 37.17 CE1 39.77 CE2 37.29 CZ 39.56
B THR E 0 -126.3 164.9 N 34.44 CA 33.47 C 32.46 O 32.04 CB 35.27 OG1 36.74 CG2 35.95
B PHE E 0 -124.7 117.5 N 31.35 CA 30.1 C 30.5 O 30.56 CB 28.95 CG 29.2 CD1 30.03 CD2 27.84 CE1 32.24 CE2 31.35 CZ 33.48
B GLY E 2 -104.1 137.5 N 31.39 CA 32.2 C 32.57 O 32.2
B ILE E 18 -111.4 143.5 N 33.02 CA 32.78 C 34.74 O 36.28 CB 31.58 CG1 30.15 CG2 30.41 CD1 28.8
B VAL - 107 -68.2 119.1 N 36.3 CA 39.06 C 40.28 O 40.0 CB 40.98 CG1 44.83 CG2 40.19
B PRO - 24 -76.5 143.2 N 42.0 CA 43.58 C 46.09 O 48.59 CB 45.38 CG 45.52 CD 43.93
B THR - 113 -120.6 4.4 N 45.75 CA 47.92 C 49.36 O 52.58 CB 46.7 OG1 46.96 CG2 46.7
B ARG S 96 -163.4 156.8 N 48.12 CA 49.88 C 49.54 O 46.9 CB 48.86 CG 46.25 CD 47.04 NE 42.73 CZ 43.54 NH1 44.91 NH2 44.0
B PRO - 52 -76.3 60.8 N 52.21 CA 52.96 C 50.74 O 52.68 CB 56.9 CG 58.41 CD 55.52
B GLU - 48 -68.0 123.6 N 47.51 CA 46.03 C 46.63 O 46.86 CB 42.32 CG 41.66 CD 44.03 OE1 44.24 OE2 46.14
B THR T 58 -89.3 -11.5 N 47.19 CA 48.71 C 46.71 O 47.43 CB 52.22 OG1 52.75 CG2 54.99
B GLY T 28 -87.1 -6.3 N 44.44 CA 43.67 C 41.5 O 41.25
B TYR S 18 -98.8 153.9 N 40.57 CA 37.82 C 39.34 O 41.36 CB 36.52 CG 35.76 CD1 34.92 CD2 35.71 CE1 35.31 CE2 34.92 CZ 35.38 OH 34.04
B GLY E 3 -77.4 149.8 N 38.0 CA 39.61 C 38.69 O 36.22
B TYR E 0 -120.1 139.3 N 40.3 CA 40.44 C 40.75 O 43.12 CB 43.32 CG 43.64 CD1 43.95 CD2 44.63 CE1 43.09 CE2 44.78 CZ 44.61 OH 46.37
B ILE E 0 -116.1 118.4 N 39.03 CA 38.86 C 40.16 O 39.09 CB 36.44 CG1 36.41 CG2 36.16 CD1 32.9
B GLU E 33 -83.8 126.8 N 42.45 CA 44.6 C 43.85 O 43.49 CB 47.71 CG 50.19 CD 56.82 OE1 59.55 OE2 57.14
B ILE E 40 -73.2 114.3 N 45.24 CA 45.98 C 49.12 O 51.47 CB 45.91 CG1 45.3 CG2 45.47 CD1 47.25
B GLY E 21 -92.9 -149.3 N 49.97 CA 53.53 C 55.04 O 53.76
B GLU E 123 -66.0 139.8 N 57.81 CA 59.98 C 58.72 O 55.6 CB 62.66 CG 62.27 CD 67.97 OE1 69.94 OE2 70.06
B GLU E 127 -78.3 108.2 N 61.03 CA 61.19 C 62.38 O 65.6 CB 62.85 CG 63.95 CD 67.23 OE1 68.74 OE2 69.66
B LEU E 40 -72.8 -27.2 N 61.15 CA 62.4 C 63.82 O 66.02 CB 59.94 CG 58.74 CD1 54.17 CD2 59.68
B GLU E 50 -175.7 164.4 N 63.84 CA 64.67 C 63.98 O 63.1 CB 63.54 CG 64.47 CD 66.88 OE1 68.25 OE2 70.09
B GLU T 155 -63.0 107.9 N 64.89 CA 63.89 C 59.88 O 58.96 CB 66.21 CG 67.97 CD 72.94 OE1 75.63 OE2 74.82
B GLY T 13 83.0 9.4 N 57.21 CA 52.65 C 49.72 O 48.18
B VAL E 0 -125.8 116.7 N 49.22 CA 47.15 C 46.8 O 48.72 CB 47.67 CG1 46.26 CG2 47.61
B HIS E 15 -130.1 152.3 N 44.36 CA 44.23 C 42.78 O 39.41 CB 44.67 CG 44.15 ND1 46.51 CD2 42.36 CE1 46.9 NE2 44.26
B LYS E 80 -67.8 150.6 N 44.09 CA 44.56 C 43.59 O 42.46 CB 47.26 CG 48.53 CD 50.42 CE 51.76 NZ 55.83
B VAL E 23 -92.7 123.9 N 43.57 CA 44.21 C 47.64 O 48.66 CB 42.19 CG1 43.3 CG2 39.42
B ALA E 62 -77.6 -35.0 N 49.86 CA 53.6 C 54.55 O 57.78 CB 55.62
B GLN E 73 -162.2 148.2 N 52.62 CA 53.18 C 50.1 O 48.52 CB 56.59 CG 56.44 CD 60.18 OE1 64.33 NE2 61.3
B PHE E 11 -118.9 121.5 N 49.77 CA 47.99 C 50.39 O 52.2 CB 46.2 CG 43.7 CD1 44.85 CD2 41.12 CE1 43.69 CE2 38.95 CZ 41.08
B ARG E 93 -124.4 112.5 N 50.59 CA 53.48 C 51.25 O 48.66 CB 56.39 CG 63.16 CD 70.39 NE 73.78 CZ 77.14 NH1 80.63 NH2 77.8
B GLU E 13 -85.8 119.6 N 51.82 CA 50.23 C 51.89 O 54.69 CB 50.26 CG 48.23 CD 42.97 OE1 39.54 OE2 43.48
B LYS S 95 53.8 66.4 N 49.86 CA 51.66 C 54.95 O 57.69 CB 52.5 CG 48.92 CD 49.69 CE 46.6 NZ 40.6
B PRO - 4 -73.8 165.0 N 54.71 CA 58.14 C 59.74 O 57.01 CB 57.6 CG 53.17 CD 50.57
B ASP - 94 -78.3 170.1 N 63.31 CA 65.59 C 64.52 O 62.75 CB 70.77 CG 74.43 OD1 72.24 OD2 81.39
B LEU H 112 -51.1 -46.9 N 65.8 CA 65.36 C 67.3 O 65.27 CB 67.53 CG 67.09 CD1 60.17 CD2 68.92
B GLU H 127 -60.3 -48.2 N 71.43 CA 74.27 C 71.1 O 71.08 CB 79.45 CG 84.77 CD 92.74 OE1 96.38 OE2 97.96
B THR H 33 -64.2 -46.7 N 68.97 CA 65.93 C 62.0 O 60.29 CB 65.34 OG1 68.75 CG2 62.78
B ALA H 0 -55.1 -48.2 N 59.64 CA 56.67 C 58.2 O 57.3 CB 53.99
B LYS H 116 -51.4 -48.5 N 62.45 CA 65.05 C 65.86 O 64.86 CB 69.11 CG 71.39 CD 77.01 CE 79.74 NZ 84.05
B LYS H 125 -66.2 -35.5 N 67.92 CA 69.44 C 65.76 O 66.83 CB 72.58 CG 77.7 CD 82.03 CE 87.47 NZ 92.07
B PHE H 18 -64.6 -44.0 N 61.8 CA 58.22 C 56.41 O 55.86 CB 55.21 CG 56.72 CD1 60.83 CD2 55.46 CE1 63.1 CE2 58.22 CZ 60.83
B VAL H 44 -70.1 -41.8 N 55.72 CA 54.45 C 57.47 O 56.57 CB 53.7 CG1 52.72 CG2 48.92
B GLU H 128 -61.0 -29.7 N 61.27 CA 65.25 C 65.41 O 67.51 CB 69.81 CG 72.91 CD 79.56 OE1 81.28 OE2 84.68
B SER H 46 -73.2 -32.3 N 63.35 CA 63.73 C 61.61 O 63.7 CB 62.77 OG 57.0
B GLY S 65 83.9 2.8 N 57.64 CA 55.72 C 53.45 O 52.3
B ARG - 129 -109.9 5.5 N 53.32 CA 52.28 C 48.41 O 47.15 CB 56.15 CG 60.9 CD 67.18 NE 69.66 CZ 74.15 NH1 76.26 NH2 75.31
B PHE E 14 -119.3 146.3 N 46.2 CA 43.62 C 40.46 O 41.33 CB 44.47 CG 47.89 CD1 51.67 CD2 46.66 CE1 56.02 CE2 51.95 CZ 55.93
B LEU E 10 -118.4 154.4 N 38.27 CA 36.12 C 35.44 O 36.5 CB 34.18 CG 36.15 CD1 32.98 CD2 37.11
B TRP E 11 -77.7 140.9 N 33.71 CA 33.45 C 31.95 O 29.83 CB 33.01 CG 35.87 CD1 40.18 CD2 35.74 NE1 43.47 CE2 40.06 CE3 36.7 CZ2 41.89 CZ3 38.1 CH2 40.8
B ASN E 9 -76.6 126.8 N 32.14 CA 30.52 C 29.21 O 28.99 CB 32.96 CG 31.35 OD1 33.34 ND2 34.03
B SER E 1 -83.7 -3.9 N 27.98 CA 26.85 C 27.68 O 27.48 CB 25.68 OG 25.85
B GLY E 23 79.8 3.6 N 29.42 CA 30.66 C 30.2 O 31.51
B MET E 2 -103.1 149.3 N 29.69 CA 29.59 C 30.35 O 29.2 CB 29.49 CG 30.09 SD 37.97 CE 33.22
B PHE E 4 -140.8 156.8 N 31.14 CA 31.58 C 32.27 O 31.58 CB 32.8 CG 32.55 CD1 32.02 CD2 32.06 CE1 32.05 CE2 30.22 CZ 32.28
B LEU E 0 -139.3 128.2 N 32.57 CA 33.34 C 35.37 O 34.59 CB 32.6 CG 34.45 CD1 35.03 CD2 32.14
B TRP E 0 -155.8 162.3 N 37.47 CA 40.26 C 42.63 O 42.88 CB 41.58 CG 41.48 CD1 42.8 CD2 39.97 NE1 43.96 CE2 41.15 CE3 41.05 CZ2 40.98 CZ3 40.54 CH2 40.54
B LYS E 14 -75.9 137.7 N 46.33 CA 49.49 C 51.13 O 51.27 CB 51.91 CG 53.04 CD 55.15 CE 58.64 NZ 59.65
B ALA H 1 -47.5 -55.5 N 52.97 CA 55.09 C 57.3 O 57.04 CB 57.25
B ARG H 113 -66.4 -37.6 N 59.83 CA 62.72 C 61.35 O 62.84 CB 66.07 CG 71.17 CD 74.18 NE 79.38 CZ 84.27 NH1 85.12 NH2 89.18
B GLU H 34 -63.8 -41.2 N 58.36 CA 57.29 C 55.65 O 56.78 CB 55.0 CG 56.46 CD 56.29 OE1 56.06 OE2 56.76
B PHE H 1 -62.9 -51.3 N 53.21 CA 52.63 C 55.07 O 55.42 CB 50.62 CG 50.49 CD1 51.1 CD2 51.0 CE1 50.15 CE2 51.18 CZ 51.19
B ILE H 22 -51.3 -50.6 N 56.53 CA 59.84 C 61.74 O 63.24 CB 62.0 CG1 61.44 CG2 65.22 CD1 63.46
B GLU H 63 -57.9 -35.6 N 61.58 CA 63.5 C 62.29 O 64.8 CB 63.38 CG 66.32 CD 71.74 OE1 73.71 OE2 73.54
B GLU H 23 -66.7 -33.5 N 58.62 CA 57.89 C 58.84 O 59.21 CB 54.65 CG 55.0 CD 57.06 OE1 60.9 OE2 59.24
B VAL H 2 -70.4 -30.2 N 58.77 CA 60.87 C 65.69 O 67.78 CB 60.39 CG1 62.35 CG2 56.47
B LYS H 100 -54.0 -49.6 N 67.75 CA 72.58 C 74.3 O 77.88 CB 73.33 CG 78.48 CD 79.39 CE 85.31 NZ 87.1
B VAL H 115 -73.3 -53.1 N 72.46 CA 73.86 C 73.22 O 75.7 CB 72.05 CG1 75.33 CG2 72.19
B CYS H 15 -69.0 -41.7 N 69.33 CA 68.2 C 69.66 O 70.76 CB 63.79 SG 61.68
B GLU - 26 -146.6 83.8 N 69.85 CA 71.94 C 74.31 O 72.24 CB 20.0 CG 20.0 CD 20.0 OE1 20.0 OE2 20.0
B PRO H 62 -61.3 -38.8 N 78.19 CA 81.46 C 83.05 O 84.26 CB 85.58 CG 83.75 CD 80.32
B SER H 49 -45.3 -40.0 N 83.58 CA 85.17 C 82.49 O 84.77 CB 84.53 OG 81.38
B ILE H 1 -78.2 -41.5 N 77.85 CA 75.13 C 76.24 O 77.05 CB 70.23 CG1 69.69 CG2 66.98 CD1 66.5
B TYR H 30 -70.6 -46.0 N 76.57 CA 77.7 C 82.95 O 84.03 CB 76.7 CG 78.81 CD1 76.72 CD2 82.35 CE1 77.65 CE2 84.15 CZ 81.68 OH 82.44
B GLU H 93 -62.9 -39.2 N 86.61 CA 92.21 C 93.82 O 96.95 CB 95.96 CG 95.78 CD 97.03 OE1 101.4 OE2 94.43
B ASN H 52 -82.9 -16.4 N 92.24 CA 94.03 C 91.65 O 93.87 CB 93.49 CG 97.38 OD1 95.2 ND2 100.78
B LEU H 1 -115.2 -15.8 N 87.7 CA 85.26 C 85.36 O 84.48 CB 80.42 CG 80.04 CD1 75.08 CD2 82.06
B LYS T 72 -48.9 -45.8 N 86.68 CA 86.46 C 89.17 O 87.47 CB 88.68 CG 94.18 CD 95.91 CE 101.14 NZ 102.91
B ASP T 135 -101.7 0.2 N 93.95 CA 97.42 C 97.83 O 101.47 CB 102.93 CG 103.59 OD1 100.36 OD2 107.76
B VAL - 15 -79.0 135.0 N 94.79 CA 95.25 C 92.34 O 87.25 CB 93.74 CG1 95.08 CG2 96.93
B ASP - 78 -86.4 111.8 N 95.21 CA 93.47 C 91.0 O 93.6 CB 98.23 CG 97.42 OD1 92.4 OD2 101.36
B PRO T 6 -64.0 -16.6 N 85.81 CA 83.4 C 85.15 O 83.8 CB 78.44 CG 77.98 CD 82.61
B ARG T 120 -85.5 -3.7 N 88.07 CA 91.16 C 96.44 O 99.85 CB 92.28 CG 88.38 CD 91.42 NE 88.73 CZ 87.55 NH1 87.94 NH2 84.89
B ASN - 77 -93.8 101.3 N 97.84 CA 102.22 C 100.17 O 97.81 CB 105.89 CG 111.87 OD1 113.71 ND2 113.72
B PHE H 63 -63.4 -39.1 N 100.68 CA 98.95 C 102.46 O 100.08 CB 99.66 CG 97.69 CD1 93.11 CD2 101.94 CE1 91.8 CE2 100.28 CZ 95.98
B GLU H 122 -67.4 -41.2 N 108.4 CA 113.04 C 112.29 O 112.5 CB 119.84 CG 122.53 CD 122.51 OE1 124.91 OE2 120.36
B GLU H 81 -69.5 -37.7 N 110.89 CA 110.29 C 104.5 O 104.53 CB 110.61 CG 112.07 CD 114.09 OE1 118.26 OE2 112.12
B LEU H 0 -67.5 -38.7 N 100.15 CA 95.06 C 96.08 O 93.96 CB 90.7 CG 84.24 CD1 80.97 CD2 79.41
B LYS H 109 -59.1 -50.6 N 99.82 CA 101.32 C 104.28 O 102.56 CB 105.62 CG 107.33 CD 112.49 CE 111.59 NZ 115.3
B LYS H 157 -51.1 -63.5 N 109.24 CA 112.61 C 108.21 O 107.56 CB 117.32 CG 123.25 CD 128.81 CE 134.8 NZ 141.61
B ALA H 10 -52.0 -37.4 N 105.28 CA 101.42 C 97.2 O 96.58 CB 98.42
B TYR H 0 -66.5 -25.4 N 94.93 CA 90.95 C 93.09 O 90.56 CB 88.29 CG 83.65 CD1 82.72 CD2 80.67 CE1 78.29 CE2 76.6 CZ 75.36 OH 70.43
B GLU H 148 -59.3 -37.5 N 97.95 CA 100.8 C 100.27 O 100.16 CB 107.19 CG 111.23 CD 116.71 OE1 121.11 OE2 117.04
B LYS T 151 -94.5 -0.9 N 99.88 CA 100.08 C 94.48 O 94.32 CB 104.09 CG 109.9 CD 113.97 CE 119.53 NZ 125.1
B VAL S 3 -93.3 130.1 N 89.63 CA 84.74 C 82.31 O 81.79 CB 81.34 CG1 76.13 CG2 82.56
B PRO - 44 -63.3 161.3 N 80.93 CA 78.9 C 74.7 O 73.61 CB 78.35 CG 78.44 CD 80.99
B SER - 75 -98.5 112.7 N 73.15 CA 68.9 C 66.16 O 67.28 CB 69.13 OG 64.65
B ILE - 41 -159.9 141.0 N 62.73 CA 60.26 C 56.29 O 56.24 CB 62.53 CG1 61.76 CG2 62.69 CD1 63.44
B SER - 9 -74.5 153.9 N 53.35 CA 50.32 C 49.65 O 51.87 CB 48.31 OG 49.23
B VAL H 0 -59.4 -33.9 N 47.53 CA 46.84 C 46.57 O 48.01 CB 45.44 CG1 41.7 CG2 45.02
B ASP I 15 -57.4 -46.4 N 45.03 CA 45.22 C 48.2 O 48.52 CB 44.21 CG 43.66 OD1 44.99 OD2 47.27
B TYR I 88 -76.0 -42.4 N 49.83 CA 53.42 C 55.52 O 57.87 CB 55.04 CG 55.14 CD1 57.69 CD2 54.72 CE1 56.48 CE2 56.13 CZ 56.94 OH 58.24
B ALA I 0 -66.7 -41.6 N 54.95 CA 56.9 C 56.59 O 58.3 CB 56.81
B VAL I 1 -128.4 -47.5 N 53.45 CA 53.44 C 52.11 O 53.7 CB 52.28 CG1 51.02 CG2 53.81
B MET I 1 -68.4 -35.2 N 50.27 CA 48.96 C 50.44 O 49.76 CB 46.69 CG 47.17 SD 50.23 CE 45.15
B GLU T 77 -68.5 -20.3 N 51.78 CA 54.08 C 56.52 O 57.8 CB 56.02 CG 54.11 CD 56.76 OE1 58.17 OE2 58.37
B LYS T 103 -109.1 -28.6 N 56.96 CA 60.22 C 59.48 O 60.58 CB 62.52 CG 64.56 CD 68.07 CE 68.92 NZ 69.88
B SER - 15 -65.6 146.9 N 56.62 CA 56.18 C 56.63 O 56.1 CB 53.39 OG 53.23
B LYS S 208 -99.6 11.4 N 58.45 CA 59.62 C 57.47 O 58.38 CB 63.16 CG 66.26 CD 70.62 CE 73.2 NZ 75.48
B LYS - 62 -137.9 51.3 N 54.61 CA 53.0 C 49.45 O 48.29 CB 54.08 CG 56.14 CD 61.14 CE 62.81 NZ 64.63
B VAL E 7 -95.6 131.3 N 48.23 CA 46.1 C 44.63 O 44.76 CB 46.46 CG1 43.45 CG2 49.36
B ARG E 27 -114.5 160.7 N 42.19 CA 41.51 C 39.77 O 39.51 CB 40.94 CG 43.03 CD 43.39 NE 46.66 CZ 48.06 NH1 49.45 NH2 49.29
B VAL E 1 -134.9 135.9 N 39.22 CA 37.55 C 37.47 O 38.01 CB 37.77 CG1 39.15 CG2 36.22
B VAL E 0 -108.8 138.0 N 36.22 CA 37.09 C 35.98 O 34.81 CB 36.68 CG1 38.58 CG2 35.4
B LYS E 94 -72.3 132.1 N 37.99 CA 38.49 C 37.88 O 37.82 CB 41.21 CG 45.19 CD 49.37 CE 51.39 NZ 53.56
B ALA - 25 -73.3 125.3 N 36.86 CA 37.35 C 39.35 O 39.76 CB 36.57
B ASP - 57 -77.8 5.2 N 40.76 CA 43.37 C 41.72 O 44.11 CB 44.86 CG 49.42 OD1 54.32 OD2 52.55
B PHE S 19 -141.6 157.6 N 39.07 CA 36.62 C 35.55 O 35.14 CB 35.56 CG 30.96 CD1 27.59 CD2 29.85 CE1 26.15 CE2 28.77 CZ 28.9
B GLU - 144 -68.7 138.1 N 35.08 CA 34.33 C 31.84 O 30.97 CB 35.79 CG 40.6 CD 45.03 OE1 49.99 OE2 48.29
B TRP - 33 -147.3 148.9 N 29.2 CA 27.63 C 26.21 O 26.6 CB 26.54 CG 26.22 CD1 28.61 CD2 26.93 NE1 27.43 CE2 27.81 CE3 30.9 CZ2 27.89 CZ3 32.06 CH2 28.98
B SER B 20 -146.1 146.6 N 24.49 CA 24.14 C 24.01 O 24.39 CB 23.74 OG 25.5
B ASP - 33 -86.6 -5.0 N 24.58 CA 25.88 C 25.93 O 24.14 CB 27.32 CG 30.7 OD1 32.38 OD2 32.82
B LEU - 0 50.7 56.8 N 27.32 CA 26.95 C 28.23 O 28.88 CB 27.69 CG 28.36 CD1 29.95 CD2 27.16
B GLY - 4 -63.0 -40.2 N 28.35 CA 29.37 C 29.6 O 29.57
B ASN S 19 -158.7 -173.1 N 28.88 CA 29.3 C 28.82 O 28.74 CB 29.55 CG 30.75 OD1 28.32 ND2 32.13
B TRP H 8 -65.7 -32.9 N 27.82 CA 26.77 C 26.91 O 26.72 CB 26.71 CG 25.24 CD1 23.72 CD2 24.02 NE1 25.85 CE2 23.77 CE3 25.24 CZ2 24.81 CZ3 23.69 CH2 26.26
B SER H 25 -55.7 -36.7 N 26.99 CA 28.4 C 28.43 O 27.99 CB 28.97 OG 33.0
B SER H 17 -65.4 -33.2 N 27.47 CA 28.53 C 27.16 O 26.96 CB 28.45 OG 31.66
B VAL H 2 -70.1 -44.0 N 27.37 CA 27.09 C 27.26 O 28.94 CB 27.78 CG1 27.91 CG2 25.22
B ARG H 39 -56.7 -41.5 N 27.32 CA 26.98 C 27.37 O 28.28 CB 27.36 CG 28.75 CD 32.19 NE 32.97 CZ 36.56 NH1 36.8 NH2 37.16
B GLU H 130 -56.0 -40.4 N 27.44 CA 29.19 C 28.81 O 29.23 CB 29.55 CG 35.76 CD 43.96 OE1 51.01 OE2 47.08
B ILE H 50 -71.6 -46.8 N 27.9 CA 28.53 C 29.31 O 30.71 CB 28.61 CG1 29.48 CG2 27.61 CD1 30.7
B GLU H 79 -94.5 -24.8 N 29.99 CA 31.42 C 31.92 O 32.84 CB 31.54 CG 35.09 CD 37.7 OE1 38.23 OE2 44.72
B GLY - 30 97.3 165.7 N 30.86 CA 31.43 C 30.82 O 31.26
B TYR - 88 -65.9 165.0 N 31.57 CA 32.01 C 33.83 O 35.55 CB 32.67 CG 30.74 CD1 31.46 CD2 34.69 CE1 29.46 CE2 34.25 CZ 32.92 OH 37.79
B THR - 34 -96.4 133.0 N 34.42 CA 35.63 C 38.83 O 38.97 CB 34.31 OG1 30.96 CG2 33.91
B GLU - 167 -76.7 149.2 N 42.58 CA 45.98 C 45.87 O 43.19 CB 49.07 CG 53.0 CD 59.19 OE1 64.56 OE2 60.62
B GLU - 100 -60.4 141.6 N 47.86 CA 48.99 C 50.02 O 50.89 CB 51.34 CG 51.85 CD 55.49 OE1 54.06 OE2 61.03
B SER B 51 -155.5 -174.8 N 49.92 CA 51.46 C 51.67 O 50.46 CB 50.4 OG 48.88
B ASP T 139 -55.3 -24.1 N 53.08 CA 53.95 C 50.47 O 49.4 CB 57.16 CG 60.74 OD1 63.73 OD2 66.36
B GLU T 85 -114.2 -2.8 N 48.01 CA 45.72 C 42.35 O 40.36 CB 45.92 CG 48.22 CD 51.82 OE1 54.63 OE2 52.96
B VAL E 3 -132.7 108.7 N 41.24 CA 39.2 C 40.13 O 40.92 CB 38.76 CG1 36.43 CG2 36.52
B ILE E 3 -110.9 128.3 N 39.06 CA 40.08 C 38.9 O 38.35 CB 40.24 CG1 42.79 CG2 42.6 CD1 43.34
B LEU E 18 -128.2 118.6 N 39.63 CA 39.7 C 42.29 O 44.12 CB 40.09 CG 38.51 CD1 39.65 CD2 35.67
B VAL E 10 -123.7 120.1 N 42.56 CA 43.85 C 44.05 O 42.29 CB 44.03 CG1 45.73 CG2 43.85
B ASP S 80 44.3 43.4 N 45.79 CA 46.52 C 44.47 O 44.12 CB 48.21 CG 50.68 OD1 53.92 OD2 52.89
B SER - 8 -134.1 120.3 N 42.78 CA 41.58 C 42.15 O 42.66 CB 39.38 OG 39.9
B ASP - 96 -114.7 151.0 N 42.02 CA 41.92 C 39.83 O 39.01 CB 44.82 CG 48.69 OD1 51.83 OD2 54.34
B ARG S 116 58.4 61.1 N 38.83 CA 37.57 C 35.25 O 34.53 CB 37.93 CG 42.17 CD 43.81 NE 43.5 CZ 48.42 NH1 52.46 NH2 50.37
B VAL E 1 -115.1 144.8 N 34.81 CA 34.1 C 33.24 O 35.55 CB 34.74 CG1 34.4 CG2 36.63
B PHE E 2 -119.0 115.5 N 31.58 CA 29.72 C 29.56 O 27.87 CB 28.75 CG 29.79 CD1 28.47 CD2 29.67 CE1 29.76 CE2 30.68 CZ 30.17
B VAL E 7 -129.4 128.3 N 29.97 CA 29.78 C 31.29 O 32.76 CB 31.16 CG1 29.2 CG2 28.54
B LYS E 77 -113.5 112.1 N 31.75 CA 32.96 C 34.47 O 34.23 CB 33.14 CG 33.5 CD 36.73 CE 36.79 NZ 35.41
B THR - 37 -85.1 163.3 N 35.86 CA 37.49 C 38.96 O 38.41 CB 38.51 OG1 41.16 CG2 37.64
B HIS S 89 -114.9 -86.1 N 40.4 CA 43.2 C 45.33 O 47.71 CB 43.69 CG 47.34 ND1 50.14 CD2 50.42 CE1 53.24 NE2 53.95
B ASN S 112 -121.3 3.3 N 46.02 CA 48.19 C 47.47 O 49.68 CB 50.71 CG 50.97 OD1 50.34 ND2 53.29
B LYS S 15 -147.6 161.3 N 44.53 CA 43.13 C 40.24 O 39.09 CB 43.9 CG 42.01 CD 43.21 CE 40.99 NZ 39.89
B PRO - 28 -70.3 151.8 N 39.04 CA 37.1 C 34.91 O 34.87 CB 37.67 CG 40.26 CD 40.98
B ILE E 0 -128.6 128.8 N 33.36 CA 31.9 C 31.52 O 30.88 CB 30.74 CG1 31.77 CG2 30.73 CD1 29.62
B ALA E 0 -116.0 133.0 N 31.57 CA 32.44 C 31.46 O 33.24 CB 33.05
B VAL E 0 -118.9 121.1 N 31.87 CA 32.13 C 34.12 O 35.16 CB 30.92 CG1 31.51 CG2 27.26
B VAL E 0 -124.2 124.8 N 35.12 CA 36.99 C 38.43 O 38.76 CB 37.33 CG1 38.4 CG2 37.1
B GLY S 11 65.5 29.8 N 40.07 CA 42.06 C 41.56 O 43.54
B LEU - 10 -139.8 129.5 N 40.0 CA 39.79 C 38.6 O 38.47 CB 38.06 CG 41.4 CD1 39.97 CD2 42.58
B SER - 28 -118.8 158.9 N 38.42 CA 37.11 C 35.79 O 36.2 CB 39.09 OG 39.53
B ASP S 33 55.5 51.2 N 34.39 CA 33.37 C 32.49 O 32.71 CB 35.09 CG 35.57 OD1 35.86 OD2 38.0
B VAL E 2 -125.8 153.3 N 30.94 CA 30.03 C 27.86 O 26.74 CB 31.04 CG1 31.96 CG2 32.76
B ILE E 1 -112.6 131.0 N 26.98 CA 26.31 C 27.14 O 27.75 CB 26.48 CG1 28.11 CG2 23.82 CD1 28.08
B VAL E 0 -132.4 118.2 N 27.39 CA 27.49 C 27.35 O 27.85 CB 28.54 CG1 25.6 CG2 28.81
B ILE E 4 -121.9 126.4 N 27.86 CA 28.24 C 29.99 O 30.1 CB 28.21 CG1 27.85 CG2 28.76 CD1 26.59
B ASP E 4 -117.8 122.9 N 30.73 CA 32.75 C 34.06 O 34.34 CB 33.57 CG 35.32 OD1 39.73 OD2 39.1
B THR E 10 -134.6 172.1 N 35.36 CA 37.45 C 40.41 O 40.77 CB 37.74 OG1 38.02 CG2 34.9
B PRO T 89 -63.8 -27.5 N 42.61 CA 45.2 C 45.62 O 47.74 CB 47.98 CG 46.81 CD 43.14
B ASN T 83 -77.9 -15.9 N 43.84 CA 45.0 C 43.04 O 43.76 CB 44.9 CG 48.42 OD1 51.73 ND2 52.42
B GLY E 0 155.2 -177.3 N 40.17 CA 38.4 C 35.69 O 34.75
B ILE E 0 -120.2 127.7 N 34.13 CA 32.26 C 31.65 O 33.51 CB 32.4 CG1 33.64 CG2 31.15 CD1 34.56
B LEU E 0 -108.0 129.4 N 30.11 CA 29.52 C 28.73 O 28.16 CB 27.62 CG 27.85 CD1 25.23 CD2 24.89
B ILE E 0 -125.3 112.5 N 29.47 CA 29.9 C 30.87 O 30.89 CB 30.76 CG1 32.07 CG2 29.59 CD1 33.41
B CYS E 1 -134.7 125.5 N 31.01 CA 32.28 C 32.48 O 30.7 CB 32.4 SG 35.67
B LYS E 42 -66.1 132.2 N 34.18 CA 34.96 C 34.5 O 33.63 CB 37.69 CG 39.14 CD 40.39 CE 43.92 NZ 45.87
B GLU G 18 -54.3 -49.2 N 35.04 CA 35.96 C 37.22 O 36.42 CB 36.13 CG 40.04 CD 44.01 OE1 46.88 OE2 46.3
B GLU G 137 -62.0 -13.0 N 40.3 CA 42.05 C 41.75 O 42.98 CB 45.0 CG 49.7 CD 53.0 OE1 50.91 OE2 56.06
B TYR G 83 -98.1 13.3 N 40.03 CA 39.41 C 36.81 O 36.41 CB 40.55 CG 42.08 CD1 42.88 CD2 43.54 CE1 43.86 CE2 45.92 CZ 46.35 OH 50.56
B ALA G 2 -50.7 -35.4 N 35.12 CA 33.39 C 34.7 O 33.64 CB 31.76
B GLN G 72 -62.7 -32.4 N 36.56 CA 38.4 C 40.05 O 41.02 CB 40.21 CG 40.64 CD 42.4 OE1 42.55 NE2 45.92
B LYS G 73 -81.0 2.4 N 41.04 CA 42.78 C 41.13 O 42.13 CB 44.66 CG 48.38 CD 52.68 CE 57.06 NZ 59.44
B VAL H 0 -55.6 -28.8 N 37.85 CA 36.47 C 38.64 O 38.98 CB 34.05 CG1 32.47 CG2 32.13
B ARG H 71 -58.9 -37.5 N 39.79 CA 42.12 C 44.68 O 46.62 CB 42.68 CG 46.62 CD 50.36 NE 50.88 CZ 51.42 NH1 50.91 NH2 54.06
B GLU H 58 -59.5 -26.6 N 45.48 CA 48.66 C 47.67 O 49.96 CB 50.17 CG 54.84 CD 60.17 OE1 65.1 OE2 61.63
B VAL H 0 -59.3 -46.4 N 44.54 CA 44.15 C 46.07 O 46.82 CB 41.66 CG1 41.41 CG2 38.77
B VAL H 31 -65.9 -42.7 N 46.29 CA 48.9 C 54.33 O 56.41 CB 47.16 CG1 46.69 CG2 43.65
B LYS H 103 -59.7 -38.8 N 56.85 CA 62.46 C 66.15 O 69.75 CB 62.92 CG 63.53 CD 63.89 CE 67.6 NZ 66.68
B LYS H 88 -73.1 -38.8 N 65.66 CA 68.94 C 71.07 O 73.91 CB 67.11 CG 68.36 CD 69.13 CE 70.34 NZ 71.12
B LEU H 43 -69.9 -26.3 N 70.28 CA 72.93 C 77.46 O 80.06 CB 69.65 CG 67.34 CD1 65.15 CD2 69.85
B PHE T 161 -86.0 22.9 N 79.27 CA 84.06 C 88.6 O 91.82 CB 82.86 CG 87.14 CD1 92.97 CD2 86.73 CE1 95.79 CE2 90.01 CZ 94.3
B ARG - 225 66.8 360.0 N 89.74 CA 93.96 C 94.06 O 97.91 CB 99.1 CG 100.26 CD 98.2 NE 100.86 CZ 99.14 NH1 94.99 NH2 101.77
