A GLY - 78 360.0 139.0 N 62.63 CA 64.49 C 65.09 O 67.17
A PHE - 124 -147.2 168.2 N 63.29 CA 62.9 C 62.43 O 62.68 CB 62.68 CG 62.45 CD1 61.74 CD2 63.76 CE1 62.48 CE2 62.49 CZ 61.77
A SER - 7 -75.8 149.6 N 60.23 CA 58.73 C 58.07 O 60.08 CB 59.87 OG 66.58
A LEU B 40 -115.4 141.1 N 55.07 CA 51.09 C 49.77 O 51.87 CB 51.21 CG 52.64 CD1 53.07 CD2 51.75
A HIS - 72 -139.6 133.3 N 46.13 CA 43.84 C 44.19 O 45.77 CB 45.7 CG 48.99 ND1 49.48 CD2 50.3 CE1 50.22 NE2 50.76
A PRO - 4 -72.1 156.0 N 44.51 CA 44.01 C 43.61 O 44.42 CB 44.57 CG 44.43 CD 43.86
A PRO - 88 -58.4 155.5 N 44.09 CA 43.43 C 43.75 O 45.75 CB 42.5 CG 42.73 CD 43.68
A TYR - 121 -80.9 158.2 N 44.08 CA 41.45 C 40.55 O 39.28 CB 38.7 CG 38.47 CD1 39.18 CD2 40.01 CE1 39.41 CE2 39.3 CZ 40.08 OH 44.25
A PHE E 81 -159.0 174.6 N 39.09 CA 38.89 C 39.36 O 39.07 CB 39.46 CG 38.47 CD1 39.22 CD2 37.59 CE1 38.33 CE2 37.81 CZ 36.33
A ASN E 48 -87.5 95.4 N 40.4 CA 42.47 C 44.81 O 45.29 CB 42.45 CG 43.5 OD1 45.12 ND2 43.98
A LEU T 9 -51.9 -22.9 N 46.13 CA 48.61 C 50.81 O 51.03 CB 46.73 CG 47.69 CD1 48.71 CD2 47.07
A ALA T 0 -61.9 -56.7 N 53.19 CA 57.71 C 61.94 O 62.26 CB 57.0
A GLU T 129 -20.2 -67.1 N 66.14 CA 68.91 C 69.23 O 70.38 CB 71.41 CG 75.71 CD 79.41 OE1 81.74 OE2 80.83
A GLY T 32 -106.2 41.3 N 67.9 CA 68.28 C 68.64 O 69.41
A ALA - 17 -105.2 165.9 N 68.34 CA 68.59 C 69.5 O 68.07 CB 67.84
A ARG E 55 -90.2 122.2 N 71.28 CA 73.24 C 74.66 O 75.4 CB 71.15
A ILE E 25 -117.4 145.0 N 75.23 CA 77.0 C 79.42 O 79.51 CB 75.8 CG1 74.2 CG2 75.02 CD1 73.57
A THR E 79 -146.4 152.6 N 82.45 CA 84.59 C 86.2 O 86.84 CB 83.88 OG1 84.13 CG2 84.0
A ALA E 14 -127.8 138.5 N 88.07 CA 90.0 C 91.64 O 92.07 CB 88.76
A SER S 78 -67.5 -33.1 N 92.96 CA 93.28 C 93.66 O 93.51 CB 93.43 OG 92.68
A ALA S 14 -135.1 161.7 N 93.42 CA 94.06 C 94.66 O 96.09 CB 94.42
A THR - 41 -152.7 -41.8 N 94.66 CA 94.76 C 94.24 O 94.36 CB 95.26 OG1 96.51 CG2 94.89
A CYS - 135 -63.3 360.0 N 92.86 CA 91.46 C 89.3 O 85.15 CB 92.37 SG 95.83
A HIS - 111 360.0 61.1 N 91.2 CA 92.85 C 93.23 O 94.15 CB 93.48 CG 95.84 ND1 97.1 CD2 96.34 CE1 97.27 NE2 97.3
A PRO - 72 -68.3 176.4 N 93.18 CA 92.26 C 91.69 O 92.04 CB 92.28 CG 92.98 CD 93.17
A VAL G 18 -58.2 -50.2 N 90.17 CA 88.61 C 87.69 O 86.92 CB 88.88 CG1 88.98 CG2 89.02
A SER G 64 -36.5 -39.7 N 87.26 CA 86.14 C 85.78 O 86.24 CB 85.41 OG 84.94
A ASN G 14 -49.7 -22.0 N 84.92 CA 84.87 C 83.78 O 82.95 CB 87.42 CG 89.57 OD1 90.95 ND2 90.11
A ALA T 1 -71.5 -63.1 N 82.72 CA 82.16 C 82.31 O 82.54 CB 81.14
A ILE T 30 -73.9 -8.7 N 82.25 CA 81.96 C 81.98 O 81.88 CB 81.48 CG1 80.31 CG2 81.53 CD1 80.72
A ASP S 52 -82.0 -179.7 N 81.98 CA 82.49 C 82.99 O 83.17 CB 82.58 CG 83.66 OD1 84.91 OD2 84.62
A GLY S 79 -109.0 16.2 N 83.11 CA 84.74 C 86.85 O 87.17
A THR S 56 -85.0 177.1 N 88.44 CA 90.91 C 92.01 O 92.86 CB 91.41 OG1 92.09 CG2 91.91
A GLU S 143 -84.8 4.9 N 92.98 CA 93.62 C 93.81 O 94.34 CB 94.45 CG 96.26 CD 98.08 OE1 97.76 OE2 98.49
A ARG - 158 -70.8 178.0 N 94.46 CA 95.3 C 94.6 O 94.88 CB 96.94 CG 101.0 CD 104.34 NE 106.9 CZ 108.5 NH1 108.65 NH2 108.89
A TRP - 72 -167.9 156.5 N 93.81 CA 93.4 C 93.8 O 93.5 CB 93.42 CG 93.06 CD1 92.41 CD2 92.61 NE1 92.27 CE2 92.35 CE3 92.25 CZ2 91.82 CZ3 92.23 CH2 92.21
A TRP E 1 -89.7 149.0 N 94.51 CA 96.17 C 98.73 O 99.8 CB 93.99 CG 92.13 CD1 92.0 CD2 91.38 NE1 91.79 CE2 91.26 CE3 90.95 CZ2 91.16 CZ3 91.26 CH2 91.76
A GLN E 21 -151.3 118.9 N 100.51 CA 101.52 C 102.75 O 103.22 CB 100.82 CG 99.78 CD 98.98 OE1 99.5 NE2 97.53
A SER - 0 -64.4 158.1 N 104.3 CA 105.63 C 106.96 O 106.7 CB 105.28 OG 103.81
A PRO - 22 -66.8 125.7 N 108.41 CA 109.45 C 110.15 O 110.59 CB 109.24 CG 108.98 CD 108.78
A PRO - 45 -49.8 141.5 N 110.32 CA 110.43 C 110.76 O 110.97 CB 110.37 CG 110.23 CD 110.1
A LEU S 14 -47.0 -20.0 N 111.02 CA 111.24 C 111.13 O 111.17 CB 111.17 CG 111.18 CD1 110.6 CD2 111.39
A SER T 50 -34.9 -94.6 N 110.25 CA 108.96 C 109.59 O 110.23 CB 107.57 OG 106.09
A ARG T 106 -78.5 19.0 N 109.87 CA 109.97 C 110.03 O 109.75 CB 109.45
A GLY - 8 -120.2 126.6 N 110.28 CA 112.21 C 113.49 O 113.04
A LEU S 149 -83.2 -73.1 N 114.52 CA 115.62 C 115.74 O 115.32 CB 116.27 CG 117.18 CD1 116.8 CD2 116.74
A GLU S 159 -84.9 14.0 N 115.69 CA 115.72 C 114.73 O 113.89 CB 117.08 CG 118.73 CD 120.01 OE1 120.78 OE2 119.68
A TYR T 108 -80.2 38.5 N 113.88 CA 112.53 C 111.51 O 110.49 CB 112.7 CG 112.39 CD1 112.5 CD2 112.32 CE1 112.49 CE2 112.1 CZ 112.39 OH 112.88
A ASN T 35 -117.3 0.9 N 110.65 CA 110.14 C 109.3 O 109.24 CB 110.43 CG 110.69 OD1 111.39 ND2 110.95
A GLU - 109 -132.3 100.7 N 108.64 CA 108.3 C 107.33 O 107.35 CB 109.14 CG 110.59 CD 111.8 OE1 111.5 OE2 112.63
A VAL - 1 -118.6 169.4 N 106.03 CA 104.25 C 102.65 O 102.86 CB 104.29 CG1 104.26 CG2 104.7
A ASN E 50 -141.8 111.5 N 100.33 CA 97.98 C 95.06 O 95.47 CB 99.83 CG 101.39 OD1 101.01 ND2 103.96
A VAL E 0 -96.9 127.2 N 90.28 CA 85.49 C 83.14 O 81.93 CB 84.69 CG1 83.66 CG2 83.48
A THR E 16 -125.4 136.9 N 80.08 CA 77.99 C 77.07 O 77.37 CB 76.99 OG1 76.61 CG2 75.3
A LEU E 0 -115.5 131.1 N 75.1 CA 72.94 C 72.71 O 73.45 CB 71.59 CG 71.45 CD1 70.31 CD2 71.64
A ASP E 58 -115.2 128.5 N 72.07 CA 71.35 C 69.05 O 68.03 CB 75.03 CG 78.63 OD1 80.52 OD2 81.61
A LEU E 14 -104.7 160.7 N 66.07 CA 64.5 C 65.07 O 66.95 CB 61.49 CG 58.9 CD1 56.8 CD2 54.72
A GLY E 41 -54.5 -84.4 N 64.64 CA 63.58 C 62.44 O 60.65
A GLN E 33 -90.6 -153.6 N 61.06 CA 57.61 C 54.09 O 52.93 CB 60.84 CG 62.57 CD 65.46 OE1 67.01 NE2 66.29
A VAL E 51 -108.5 113.3 N 52.16 CA 50.17 C 49.31 O 47.87 CB 48.52 CG1 49.04 CG2 48.93
A PHE E 13 -105.3 171.7 N 48.69 CA 49.4 C 50.71 O 51.22 CB 46.26 CG 45.91 CD1 46.16 CD2 44.46 CE1 43.49 CE2 43.39 CZ 42.55
A HIS E 20 -95.9 121.1 N 52.29 CA 54.28 C 53.38 O 52.81 CB 58.05 CG 65.53 ND1 67.43 CD2 67.05 CE1 67.66 NE2 68.37
A VAL E 2 -97.8 126.9 N 52.75 CA 52.0 C 52.16 O 51.99 CB 51.71 CG1 51.88 CG2 53.15
A ALA E 15 -94.0 -26.3 N 52.19 CA 51.65 C 51.99 O 53.54 CB 52.29
A TYR E 85 -174.3 143.7 N 51.19 CA 50.75 C 51.97 O 53.85 CB 47.14 CG 43.88 CD1 43.82 CD2 43.85 CE1 42.16 CE2 39.62 CZ 41.95 OH 45.36
A VAL E 1 -114.2 121.0 N 52.86 CA 56.08 C 59.42 O 61.2 CB 54.41 CG1 51.72 CG2 53.63
A LEU E 27 -112.1 119.9 N 60.08 CA 59.39 C 60.95 O 61.52 CB 56.94 CG 55.61 CD1 53.31 CD2 55.16
A ILE E 0 -110.6 145.5 N 63.38 CA 65.25 C 68.09 O 69.27 CB 63.38 CG1 64.04 CG2 63.19 CD1 64.97
A LYS E 63 -133.1 115.9 N 70.11 CA 72.69 C 74.22 O 74.72 CB 74.25 CG 76.41 CD 77.81 CE 78.93 NZ 77.4
A PHE E 0 -88.0 147.8 N 75.6 CA 76.39 C 78.77 O 79.91 CB 72.52 CG 68.75 CD1 67.83 CD2 67.11 CE1 67.57 CE2 66.44 CZ 67.13
A ALA - 3 -102.1 -111.1 N 80.73 CA 82.91 C 83.93 O 84.15 CB 83.16
A ASN S 44 -77.7 61.4 N 84.57 CA 85.32 C 85.7 O 85.88 CB 85.5 CG 86.43 OD1 88.09 ND2 85.42
A SER S 6 -178.0 145.3 N 85.28 CA 84.77 C 85.49 O 85.4 CB 83.95 OG 83.62
A PRO - 25 -81.7 157.1 N 86.82 CA 86.97 C 86.83 O 86.15 CB 86.61 CG 86.48 CD 86.83
A ARG - 17 -52.0 152.7 N 86.52 CA 86.3 C 88.07 O 88.36 CB 84.42 CG 85.13 CD 85.54 NE 86.82 CZ 88.4 NH1 89.69 NH2 88.3
A PRO - 1 -74.2 162.3 N 88.69 CA 89.3 C 90.23 O 90.0 CB 88.51 CG 87.75 CD 87.88
A ASP S 13 -80.6 -55.5 N 91.01 CA 91.07 C 90.24 O 89.0 CB 92.94 CG 94.19 OD1 95.29 OD2 93.97
A LEU E 2 -127.8 111.3 N 89.4 CA 89.61 C 88.97 O 88.67 CB 91.04 CG 92.38 CD1 92.7 CD2 91.05
A TRP E 0 -142.7 163.1 N 87.15 CA 85.24 C 84.4 O 84.37 CB 83.75 CG 81.81 CD1 81.14 CD2 80.58 NE1 80.39 CE2 79.58 CE3 79.96 CZ2 78.1 CZ3 79.45 CH2 77.97
A VAL E 0 -124.2 125.6 N 83.73 CA 82.79 C 81.87 O 81.72 CB 83.11 CG1 83.14 CG2 83.68
A LEU E 0 -92.4 110.5 N 79.78 CA 77.28 C 77.39 O 75.19 CB 75.04 CG 72.67 CD1 69.91 CD2 70.02
A GLU E 19 -118.5 155.3 N 79.41 CA 81.58 C 81.58 O 83.1 CB 83.24 CG 85.9 CD 87.99 OE1 89.39 OE2 88.71
A ARG E 17 -127.2 179.0 N 80.58 CA 79.56 C 79.89 O 79.75 CB 77.44 CG 75.71 CD 74.1 NE 74.73 CZ 76.25 NH1 74.93 NH2 74.58
A SER E 0 -148.9 139.1 N 80.65 CA 80.77 C 80.05 O 79.95 CB 81.74 OG 83.03
A THR S 61 -111.3 1.7 N 80.13 CA 81.2 C 81.99 O 81.18 CB 81.34 OG1 82.06 CG2 81.96
A ASP S 49 -104.5 -173.3 N 84.27 CA 85.36 C 84.89 O 86.16 CB 88.11 CG 91.08 OD1 92.05 OD2 91.8
A PHE S 131 -104.6 23.5 N 82.71 CA 81.0 C 82.16 O 81.3 CB 77.11 CG 73.95 CD1 72.53 CD2 72.93 CE1 71.12 CE2 71.27 CZ 70.44
A GLY S 38 147.3 30.1 N 83.99 CA 85.85 C 86.8 O 86.85
A HIS S 135 -126.1 -119.1 N 88.27 CA 89.16 C 88.18 O 86.34 CB 91.41 CG 94.99 ND1 96.68 CD2 96.45 CE1 97.18 NE2 97.48
A THR S 95 -40.3 78.9 N 87.6 CA 88.33 C 87.87 O 88.17 CB 89.55 OG1 91.08 CG2 89.58
A TYR E 45 -68.4 178.1 N 86.45 CA 84.7 C 84.37 O 85.21 CB 82.54 CG 82.79 CD1 82.94 CD2 82.62 CE1 82.71 CE2 81.47 CZ 81.1 OH 78.78
A GLN E 80 -165.6 142.9 N 83.39 CA 82.41 C 81.42 O 82.31 CB 83.77 CG 86.91 CD 89.86 OE1 89.79 NE2 88.98
A PRO E 46 -83.6 157.3 N 79.94 CA 77.67 C 74.69 O 73.4 CB 79.59 CG 79.88 CD 79.75
A TRP E 0 -109.0 -42.6 N 72.29 CA 69.97 C 70.53 O 70.49 CB 67.19 CG 62.91 CD1 62.03 CD2 60.68 NE1 59.21 CE2 59.23 CE3 60.51 CZ2 58.39 CZ3 59.18 CH2 57.66
A GLN E 20 -156.4 148.5 N 71.39 CA 72.61 C 74.67 O 75.82 CB 71.1 CG 71.19 CD 70.28 OE1 69.56 NE2 69.04
A PHE E 26 -109.2 154.1 N 76.12 CA 76.35 C 78.3 O 79.74 CB 73.62 CG 71.01 CD1 69.82 CD2 69.57 CE1 68.9 CE2 68.83 CZ 67.31
A PHE E 0 -132.6 128.6 N 80.42 CA 82.89 C 84.67 O 84.41 CB 83.52 CG 83.29 CD1 83.18 CD2 83.69 CE1 82.83 CE2 83.32 CZ 83.16
A ALA - 0 -152.4 145.9 N 86.87 CA 88.84 C 89.76 O 88.86 CB 88.65
A SER S 55 -77.7 -38.1 N 91.45 CA 93.52 C 94.82 O 94.24 CB 92.99 OG 94.28
A SER S 43 -110.0 117.1 N 96.48 CA 97.71 C 97.68 O 97.27 CB 98.66 OG 99.74
A LYS H 144 -48.1 -20.6 N 97.16 CA 97.51 C 97.47 O 97.38 CB 97.72 CG 98.16 CD 98.46 CE 98.99 NZ 98.14
A ARG H 64 -82.8 -31.6 N 98.34 CA 99.93 C 100.66 O 100.81 CB 100.86
A ASP H 24 -60.6 -36.0 N 100.9 CA 101.16 C 101.16 O 100.15 CB 101.65 CG 102.74 OD1 103.13 OD2 102.53
A CYS H 0 -48.8 -70.3 N 100.78 CA 100.71 C 101.17 O 100.09 CB 100.1 SG 100.65
A LEU H 69 -55.1 -37.0 N 102.19 CA 103.21 C 103.78 O 103.01 CB 103.65 CG 105.36 CD1 105.61 CD2 106.96
A GLU H 141 -62.7 -45.0 N 104.67 CA 106.03 C 106.33 O 105.98 CB 107.05 CG 108.43 CD 108.77 OE1 108.24 OE2 108.45
A ARG H 127 -96.7 -28.8 N 106.47 CA 105.61 C 104.13 O 102.88 CB 106.53 CG 108.55 CD 110.57 NE 111.99 CZ 112.02 NH1 111.71 NH2 111.55
A PHE T 45 -108.6 -63.8 N 103.22 CA 102.5 C 102.98 O 103.42 CB 100.49 CG 97.31 CD1 95.76 CD2 95.09 CE1 94.24 CE2 94.77 CZ 94.82
A GLY - 13 169.3 153.0 N 103.32 CA 104.01 C 104.46 O 105.43
A PRO T 112 -54.2 -42.2 N 104.03 CA 103.27 C 102.8 O 102.3 CB 103.65 CG 104.11 CD 103.83
A ARG T 59 -76.6 -14.1 N 102.3 CA 101.97 C 102.18 O 102.22 CB 101.46
A THR T 16 -69.5 38.1 N 102.08 CA 102.28 C 102.89 O 103.18 CB 102.02 OG1 101.52 CG2 101.94
A LEU T 89 -142.7 -27.6 N 104.06 CA 105.54 C 106.41 O 106.51 CB 105.79 CG 106.46 CD1 105.15 CD2 107.37
A GLU S 134 -52.2 141.3 N 107.21 CA 107.92 C 107.93 O 108.7 CB 108.39 CG 109.48 CD 110.08 OE1 110.48 OE2 109.32
A ARG - 211 -63.6 161.4 N 106.86 CA 105.98 C 104.77 O 104.17 CB 106.53 CG 108.26 CD 110.4 NE 112.6 CZ 113.7 NH1 113.88 NH2 113.29
A ILE - 50 -60.6 114.4 N 102.98 CA 100.78 C 99.64 O 98.96 CB 100.4 CG1 100.13 CG2 100.34 CD1 99.9
A THR - 88 -116.0 -36.7 N 98.19 CA 96.85 C 95.72 O 95.18 CB 97.24 OG1 96.95 CG2 96.25
A GLN S 119 -122.0 131.6 N 94.81 CA 93.23 C 90.88 O 90.66 CB 94.77 CG 97.27 CD 99.19 OE1 99.65 NE2 99.29
A ASP T 18 -30.1 -31.2 N 87.3 CA 83.28 C 80.65 O 80.6 CB 84.0 CG 85.02 OD1 85.15 OD2 86.23
A ASP T 81 -110.1 31.4 N 77.71 CA 76.57 C 76.68 O 76.19 CB 76.87 CG 76.31 OD1 77.23 OD2 74.07
A ASP - 43 -75.0 142.4 N 76.61 CA 77.14 C 76.77 O 75.87 CB 78.81 CG 81.12 OD1 81.55 OD2 81.49
A VAL - 46 -91.1 -174.3 N 78.02 CA 80.33 C 82.51 O 83.47 CB 80.0 CG1 79.49 CG2 78.22
A ILE - 22 -169.9 165.1 N 84.22 CA 84.98 C 87.93 O 87.83 CB 83.29 CG1 82.2 CG2 81.84 CD1 83.6
A CYS E 7 -135.1 76.4 N 90.32 CA 92.33 C 91.91 O 92.1 CB 94.31 SG 99.97
A THR E 38 -72.1 163.5 N 92.36 CA 92.75 C 93.15 O 92.98 CB 92.53 OG1 94.65 CG2 91.58
A THR - 35 -108.9 -63.0 N 93.62 CA 93.4 C 93.44 O 93.55 CB 92.61 OG1 91.68 CG2 91.84
A GLU S 94 -3.1 -64.4 N 93.12 CA 92.87 C 92.81 O 93.38 CB 93.1 CG 95.29 CD 96.61 OE1 96.71 OE2 96.61
A TYR T 52 -77.0 39.3 N 92.49 CA 92.36 C 93.48 O 93.83 CB 90.24 CG 87.68 CD1 86.12 CD2 86.84 CE1 85.25 CE2 85.75 CZ 85.28 OH 85.27
A SER T 1 -145.6 16.6 N 94.45 CA 95.89 C 96.29 O 96.36 CB 96.6 OG 96.13
A ARG - 138 -93.0 100.6 N 97.32 CA 98.89 C 98.75 O 99.24 CB 100.95 CG 103.51 CD 105.86 NE 106.58 CZ 106.44 NH1 106.64 NH2 105.5
A ILE S 16 -33.9 -35.9 N 98.26 CA 97.69 C 98.53 O 98.15 CB 96.33 CG1 95.52 CG2 96.09 CD1 95.54
A VAL S 110 -15.6 -78.0 N 99.85 CA 100.53 C 100.68 O 102.06 CB 101.3 CG1 100.94 CG2 100.55
A PRO S 58 -69.5 106.4 N 100.06 CA 99.12 C 98.71 O 98.71 CB 98.05 CG 99.49 CD 99.48
A LEU - 88 -96.9 4.7 N 98.62 CA 98.98 C 99.32 O 98.55 CB 98.77 CG 98.06 CD1 97.41 CD2 95.68
A GLU S 133 -115.9 -117.3 N 100.08 CA 100.53 C 99.82 O 100.79 CB 102.13 CG 105.01 CD 106.96 OE1 108.56 OE2 106.74
A ASN S 109 -68.1 76.4 N 98.11 CA 96.25 C 94.75 O 94.63 CB 96.76 CG 97.07 OD1 97.25 ND2 97.11
A GLY - 3 -90.3 131.0 N 92.38 CA 89.97 C 88.03 O 87.91
A GLU E 100 -115.9 134.9 N 85.37 CA 83.22 C 80.67 O 80.61 CB 84.18 CG 85.4 CD 86.94 OE1 87.24 OE2 86.07
A ILE E 0 -122.2 139.5 N 77.66 CA 73.52 C 71.05 O 70.72 CB 73.47 CG1 73.92 CG2 72.5 CD1 74.9
A VAL E 55 -132.0 107.7 N 68.56 CA 65.87 C 64.82 O 65.04 CB 65.06 CG1 63.27 CG2 64.97
A VAL E 2 -96.5 122.5 N 62.73 CA 60.59 C 59.81 O 62.15 CB 59.75 CG1 56.58 CG2 59.93
A SER E 38 -108.9 114.7 N 58.72 CA 59.34 C 61.59 O 63.29 CB 58.47 OG 58.04
A LEU S 1 -75.2 -9.5 N 62.3 CA 61.21 C 62.75 O 64.67 CB 58.63 CG 59.06 CD1 60.2 CD2 58.39
A VAL S 41 -104.5 -43.5 N 62.53 CA 64.03 C 65.98 O 65.13 CB 63.73 CG1 61.46 CG2 63.9
A ASN S 124 -55.2 133.3 N 67.9 CA 67.52 C 68.25 O 68.27 CB 66.69 CG 65.93 OD1 63.84 ND2 64.23
A GLY S 58 103.0 -81.2 N 67.97 CA 67.61 C 67.66 O 68.83
A ARG S 4 -15.0 136.2 N 66.84 CA 64.71 C 63.79 O 62.7 CB 62.84 CG 59.4 CD 54.61 NE 53.39 CZ 53.65 NH1 53.48 NH2 53.15
A PRO G 70 -59.4 -28.4 N 63.89 CA 65.33 C 67.79 O 68.48 CB 64.03 CG 64.15 CD 63.71
A GLY G 3 -70.7 -32.3 N 69.14 CA 71.06 C 72.2 O 71.64
A ALA G 43 -44.4 -27.4 N 73.58 CA 75.87 C 79.07 O 79.56 CB 74.95
A LEU T 160 -60.9 -66.0 N 83.11 CA 86.06 C 86.73 O 85.99 CB 87.72 CG 89.23 CD1 88.31 CD2 89.43
A ASN T 73 -116.2 67.5 N 88.26 CA 88.72 C 87.63 O 87.13 CB 90.73 CG 93.66 OD1 93.31 ND2 95.66
A PHE G 42 -50.4 -51.6 N 86.27 CA 84.68 C 84.02 O 83.09 CB 84.68 CG 85.01 CD1 84.46 CD2 85.79 CE1 84.39 CE2 86.11 CZ 86.14
A SER G 19 -43.4 -33.7 N 83.35 CA 82.4 C 81.95 O 81.6 CB 82.06 OG 82.35
A TYR G 100 -107.9 24.9 N 81.32 CA 79.56 C 78.56 O 78.19 CB 78.83 CG 80.14 CD1 80.76 CD2 80.5 CE1 81.17 CE2 80.0 CZ 81.21 OH 80.11
A SER - 14 -123.5 82.2 N 76.92 CA 76.01 C 75.62 O 76.49 CB 75.43 OG 73.65
A PRO H 65 -58.9 -39.2 N 74.54 CA 73.21 C 72.02 O 72.86 CB 73.57 CG 73.96 CD 74.14
A LEU H 77 -53.1 -49.7 N 70.49 CA 69.72 C 67.82 O 66.68 CB 72.24 CG 73.87 CD1 74.52 CD2 73.6
A LEU H 0 -59.8 -53.6 N 65.84 CA 62.49 C 62.33 O 61.93 CB 59.78 CG 58.3 CD1 55.19 CD2 56.69
A ARG H 57 -50.5 -35.8 N 61.36 CA 61.12 C 61.5 O 62.03 CB 61.71 CG 64.17 CD 64.57 NE 65.1 CZ 66.03 NH1 67.62 NH2 65.16
A ASP H 92 -82.6 -35.2 N 61.59 CA 62.39 C 62.33 O 63.35 CB 64.99 CG 68.91 OD1 70.75 OD2 70.36
A PHE H 6 -61.2 -33.1 N 61.57 CA 59.47 C 59.16 O 57.69 CB 61.64 CG 63.15 CD1 63.01 CD2 63.07 CE1 62.98 CE2 63.37 CZ 63.17
A THR H 4 -86.5 -14.8 N 58.82 CA 58.61 C 57.75 O 58.02 CB 60.11 OG1 61.64 CG2 61.67
A LYS E 33 -67.3 160.7 N 58.11 CA 58.17 C 57.63 O 58.08 CB 58.59 CG 60.53 CD 63.21 CE 63.89 NZ 64.87
A ALA E 0 -175.0 158.4 N 58.14 CA 58.43 C 59.15 O 59.07 CB 57.0
A THR E 1 -125.6 -41.1 N 59.89 CA 60.65 C 62.2 O 62.25 CB 60.1 OG1 56.54 CG2 62.86
A ASN E 2 -131.7 148.6 N 63.6 CA 65.25 C 66.63 O 67.76 CB 65.53 CG 66.08 OD1 65.56 ND2 64.56
A ILE E 1 -128.1 137.2 N 67.35 CA 68.85 C 70.71 O 71.0 CB 68.65 CG1 67.8 CG2 68.09 CD1 67.14
A ARG E 66 -134.9 140.3 N 73.28 CA 75.13 C 75.06 O 74.14 CB 75.69 CG 78.08 CD 79.47 NE 79.84 CZ 80.5 NH1 79.01 NH2 81.07
A LEU E 0 -104.1 109.8 N 76.19 CA 77.71 C 79.75 O 79.76 CB 75.59 CG 73.46 CD1 73.17 CD2 72.7
A ARG E 92 -105.4 100.4 N 83.05 CA 86.65 C 87.79 O 87.06 CB 88.59 CG 91.83 CD 94.92 NE 97.77 CZ 99.64 NH1 100.32 NH2 100.03
A PHE E 0 -84.4 131.5 N 89.39 CA 91.33 C 92.98 O 92.55 CB 90.41 CG 89.96 CD1 89.53 CD2 90.63 CE1 89.2 CE2 89.76 CZ 88.99
A LEU E 27 -110.4 -38.1 N 94.02 CA 94.81 C 96.06 O 96.32 CB 92.96 CG 92.03 CD1 91.53 CD2 91.76
A ARG E 82 -154.1 127.9 N 96.79 CA 97.83 C 98.22 O 97.8 CB 99.5 CG 100.19 CD 100.73 NE 101.16 CZ 101.58 NH1 101.67 NH2 101.37
A THR - 6 -58.8 160.7 N 99.22 CA 100.18 C 102.13 O 102.96 CB 98.95 OG1 98.54 CG2 98.41
A ASN - 8 -92.2 59.9 N 103.56 CA 104.69 C 106.02 O 105.99 CB 105.06 CG 105.16 OD1 105.55 ND2 105.31
A THR - 30 -63.3 87.2 N 107.78 CA 109.15 C 109.49 O 109.66 CB 109.31 OG1 109.87 CG2 108.73
A LEU - 80 -114.5 -167.5 N 109.3 CA 109.73 C 110.18 O 110.02 CB 109.23 CG 108.46 CD1 106.79 CD2 107.68
A LEU T 123 89.8 -94.1 N 110.67 CA 110.9 C 111.4 O 111.3 CB 109.89 CG 108.39 CD1 106.89 CD2 106.89
A GLY T 47 -166.0 21.2 N 111.74 CA 111.02 C 110.9 O 110.64
A HIS - 58 -86.9 3.0 N 111.26 CA 111.22 C 110.89 O 110.32 CB 112.77 CG 114.01 ND1 114.69 CD2 113.69 CE1 114.56 NE2 113.9
A LEU H 119 -42.1 -61.3 N 110.61 CA 110.81 C 111.47 O 111.28 CB 110.83 CG 111.16 CD1 110.78 CD2 110.95
A MET H 147 -56.8 -50.5 N 112.23 CA 112.68 C 111.61 O 111.51 CB 115.01 CG 117.61 SD 120.61 CE 118.97
A GLY H 14 -55.0 -55.1 N 110.37 CA 108.81 C 107.9 O 107.61
A LYS H 17 -56.2 -47.5 N 106.7 CA 105.71 C 105.4 O 105.14 CB 105.6
A ALA H 64 -60.8 -39.4 N 105.51 CA 105.51 C 105.96 O 105.37 CB 104.61
A LEU H 134 -68.3 -26.5 N 106.52 CA 107.15 C 108.08 O 108.07 CB 106.33 CG 105.89 CD1 104.22 CD2 105.33
A ARG T 170 83.0 49.4 N 108.97 CA 109.57 C 110.06 O 110.18 CB 109.41 CG 110.79 CD 111.47 NE 112.72 CZ 112.54 NH1 111.75 NH2 112.08
A ASP - 65 -90.7 123.4 N 110.7 CA 111.65 C 112.09 O 112.55 CB 112.21 CG 112.64 OD1 112.68 OD2 112.96
A PRO T 98 -63.0 29.9 N 111.95 CA 111.74 C 111.64 O 112.15 CB 111.31 CG 111.47 CD 111.71
A THR T 109 -129.0 -4.9 N 111.48 CA 111.38 C 110.86 O 109.7 CB 112.13 OG1 112.41 CG2 111.97
A VAL T 11 -125.5 -35.6 N 110.54 CA 110.21 C 109.51 O 110.21 CB 110.51 CG1 110.96 CG2 109.62
A THR G 8 -78.1 -9.6 N 107.95 CA 106.59 C 106.47 O 106.4 CB 106.0 OG1 106.0 CG2 105.24
A ARG G 55 -102.3 24.6 N 105.96 CA 104.91 C 104.54 O 104.29 CB 104.81
A ARG G 181 -147.7 23.2 N 104.23 CA 104.08 C 102.65 O 102.48 CB 105.36 CG 107.4 CD 108.67 NE 110.18 CZ 110.28 NH1 110.22 NH2 110.0
A TYR - 21 -135.1 115.6 N 100.91 CA 99.4 C 97.95 O 97.22 CB 99.85 CG 99.86 CD1 99.79 CD2 100.23 CE1 100.41 CE2 100.64 CZ 100.4 OH 99.36
A TYR - 49 -165.5 -166.8 N 96.42 CA 94.32 C 93.17 O 94.18 CB 93.3 CG 91.97 CD1 91.48 CD2 90.67 CE1 90.79 CE2 90.26 CZ 90.13 OH 88.07
A TYR - 2 -120.5 140.8 N 90.99 CA 89.14 C 87.97 O 88.05 CB 88.69 CG 87.33 CD1 86.31 CD2 86.61 CE1 86.05 CE2 86.5 CZ 87.12 OH 87.5
A SER E 0 -139.3 107.3 N 86.28 CA 84.59 C 83.67 O 84.18 CB 84.14 OG 84.41
A ILE E 0 -111.0 132.5 N 81.78 CA 79.8 C 79.09 O 78.92 CB 78.38 CG1 77.22 CG2 78.29 CD1 75.38
A LYS E 29 -117.8 7.7 N 77.83 CA 77.07 C 77.0 O 77.67 CB 76.39 CG 74.96 CD 74.15 CE 74.91 NZ 74.49
A ASP E 32 179.7 120.7 N 75.76 CA 73.45 C 72.04 O 73.29 CB 74.13 CG 75.75 OD1 76.47 OD2 75.6
A ILE E 1 -118.1 111.4 N 69.52 CA 67.08 C 67.22 O 68.1 CB 65.06 CG1 62.7 CG2 63.58 CD1 59.34
A SER E 22 -118.1 110.2 N 66.02 CA 64.24 C 63.51 O 65.14 CB 63.17 OG 66.99
A ILE E 0 -103.3 111.7 N 61.84 CA 61.09 C 61.0 O 62.2 CB 61.04 CG1 62.78 CG2 60.46 CD1 62.55
A GLY E 1 -85.5 120.8 N 59.62 CA 58.29 C 58.57 O 60.27
A GLY E 0 -154.6 -172.6 N 57.04 CA 54.55 C 53.0 O 53.22
A ARG E 29 -155.7 164.8 N 50.01 CA 48.64 C 47.92 O 46.02 CB 47.85 CG 45.84 CD 45.1 NE 45.5 CZ 45.37 NH1 45.57 NH2 42.65
A CYS - 10 -61.1 157.1 N 47.02 CA 46.26 C 45.26 O 46.53 CB 49.87 SG 55.53
A VAL - 20 -99.4 119.0 N 41.87 CA 38.8 C 40.79 O 41.89 CB 34.8 CG1 31.5 CG2 34.97
A CYS - 4 -136.8 13.7 N 41.11 CA 42.24 C 43.22 O 45.8 CB 41.59 SG 46.78
A HIS T 56 53.5 27.8 N 42.24 CA 41.17 C 41.2 O 40.68 CB 39.82 CG 39.16 ND1 38.94 CD2 39.58 CE1 37.99 NE2 39.74
A GLY T 6 78.4 14.7 N 42.02 CA 42.57 C 44.12 O 45.22
A HIS B 0 -108.6 16.5 N 43.11 CA 41.26 C 41.6 O 42.79 CB 39.57 CG 38.66 ND1 39.39 CD2 40.07 CE1 37.61 NE2 38.84
A ALA - 0 -162.1 144.3 N 41.81 CA 43.49 C 44.72 O 44.73 CB 43.71
A ASP S 71 -120.6 18.3 N 47.27 CA 48.79 C 48.66 O 50.34 CB 50.65 CG 54.56 OD1 58.02 OD2 59.22
A VAL - 52 -158.7 134.9 N 47.58 CA 47.65 C 49.27 O 49.27 CB 44.57 CG1 44.1 CG2 43.98
A CYS E 15 -145.0 118.4 N 50.76 CA 54.73 C 54.5 O 55.79 CB 54.44 SG 63.59
A ASP E 114 -120.9 -169.1 N 54.93 CA 55.94 C 54.86 O 54.64 CB 60.93 CG 67.5 OD1 71.78 OD2 68.32
A ALA E 38 -97.4 117.5 N 51.51 CA 47.9 C 47.01 O 46.89 CB 47.32
A LYS S 79 -68.5 -28.9 N 43.59 CA 41.46 C 41.06 O 41.13 CB 35.84
A ASP - 81 -116.3 111.9 N 41.45 CA 42.05 C 44.09 O 44.48 CB 41.56 CG 42.03 OD1 43.14 OD2 39.34
A PRO T 112 -53.0 -30.3 N 46.06 CA 47.77 C 50.34 O 51.98 CB 46.65 CG 49.38 CD 48.41
A LEU T 157 -74.4 -16.5 N 51.32 CA 51.13 C 51.19 O 52.88 CB 51.32 CG 51.56 CD1 48.5 CD2 48.02
A ASP S 77 -130.1 57.1 N 51.43 CA 51.98 C 51.58 O 52.27 CB 53.0 CG 54.61 OD1 55.38 OD2 54.09
A PRO T 71 -46.5 -15.5 N 49.99 CA 49.04 C 49.37 O 49.34 CB 47.7 CG 48.37 CD 49.58
A PHE T 107 -108.9 -7.0 N 50.33 CA 50.61 C 49.19 O 50.25 CB 52.45 CG 56.44 CD1 56.27 CD2 55.73 CE1 55.31 CE2 55.37 CZ 55.31
A ARG - 137 -89.7 108.4 N 47.53 CA 47.9 C 48.19 O 50.54 CB 47.86 CG 51.36 CD 57.24 NE 61.39 CZ 62.48 NH1 60.73 NH2 62.84
A LEU E 35 -93.1 156.0 N 45.4 CA 42.4 C 41.2 O 40.62 CB 40.81 CG 40.08 CD1 42.2 CD2 37.1
A GLN E 107 -139.0 132.3 N 42.67 CA 44.4 C 45.28 O 45.73 CB 47.13 CG 56.09 CD 60.22 OE1 63.28 NE2 59.06
A CYS E 10 -63.0 143.6 N 44.09 CA 42.98 C 42.18 O 44.32 CB 42.59 SG 48.18
A ALA - 49 -93.5 76.5 N 40.59 CA 37.84 C 39.31 O 39.94 CB 33.06
A CYS - 37 -56.4 142.9 N 42.1 CA 44.69 C 44.04 O 43.19 CB 45.46 SG 52.61
A GLN - 84 -128.3 -168.9 N 44.82 CA 44.5 C 45.32 O 46.56 CB 41.3 CG 43.13 CD 43.53 OE1 42.75 NE2 44.12
A HIS T 25 59.4 26.4 N 45.74 CA 47.42 C 48.06 O 49.84 CB 47.31 CG 48.68 ND1 47.82 CD2 48.49 CE1 47.19 NE2 49.37
A ASN T 64 61.2 19.7 N 47.4 CA 44.71 C 46.54 O 48.59 CB 41.52 CG 41.59 OD1 41.97 ND2 42.63
A THR E 6 -87.9 168.4 N 44.25 CA 42.53 C 41.84 O 40.27 CB 44.61 OG1 46.63 CG2 43.72
A CYS E 38 -148.0 166.1 N 43.49 CA 45.14 C 44.67 O 42.57 CB 45.96 SG 60.0
A GLY S 31 118.6 -20.8 N 44.67 CA 44.61 C 47.39 O 46.71
A GLY S 20 64.2 40.2 N 48.91 CA 49.73 C 46.89 O 46.43
A SER S 27 -172.7 -11.3 N 45.35 CA 45.07 C 45.22 O 46.19 CB 45.91 OG 47.56
A CYS - 0 50.8 32.5 N 43.39 CA 42.89 C 42.95 O 44.06 CB 42.56 SG 42.18
A ASP - 72 -84.5 -1.8 N 45.02 CA 47.35 C 46.93 O 47.67 CB 50.33 CG 53.34 OD1 56.83 OD2 56.05
A ARG E 144 -142.8 162.7 N 46.07 CA 46.49 C 47.58 O 47.6 CB 45.37 CG 42.49 CD 42.05 NE 41.82 CZ 41.82 NH1 44.68 NH2 39.43
A CYS E 11 -79.9 167.4 N 48.11 CA 48.94 C 48.64 O 50.35 CB 51.35 SG 62.48
A CYS - 17 -95.0 153.1 N 47.55 CA 45.15 C 43.66 O 41.91 CB 48.51 SG 53.73
A PRO T 81 -48.9 126.8 N 41.03 CA 39.38 C 41.56 O 43.23 CB 37.46 CG 36.5 CD 37.43
A GLY T 22 104.2 -19.5 N 44.55 CA 44.76 C 46.5 O 46.92
A PHE - 56 -113.6 75.0 N 45.83 CA 45.36 C 45.36 O 46.48 CB 44.22 CG 38.68 CD1 35.28 CD2 36.25 CE1 33.02 CE2 34.17 CZ 32.38
A ASN - 30 -129.9 11.6 N 45.02 CA 44.69 C 46.0 O 45.92 CB 41.72 CG 41.85 OD1 46.53 ND2 40.27
A GLN S 0 -51.0 -37.1 N 47.43 CA 50.86 C 53.37 O 55.82 CB 50.89 CG 56.3 CD 57.97 OE1 60.3 NE2 56.98
A GLN S 54 -114.8 167.6 N 55.41 CA 56.73 C 56.74 O 58.49 CB 59.35 CG 63.26 CD 67.21 OE1 70.24 NE2 68.36
A PRO - 48 -78.8 161.4 N 56.41 CA 55.93 C 55.51 O 55.74 CB 55.2 CG 56.74 CD 56.64
A TRP - 78 -75.7 149.8 N 54.18 CA 54.33 C 56.08 O 57.43 CB 50.19 CG 45.83 CD1 44.72 CD2 45.22 NE1 44.27 CE2 44.64 CE3 44.57 CZ2 44.51 CZ3 43.11 CH2 44.08
A LYS - 104 -151.3 149.1 N 56.75 CA 56.59 C 55.93 O 58.66 CB 56.64 CG 57.86 CD 59.27 CE 62.22 NZ 64.51
A PRO - 44 -78.6 160.2 N 54.12 CA 53.7 C 53.64 O 52.86 CB 52.93 CG 53.48 CD 53.12
A ALA - 8 -81.7 137.2 N 54.61 CA 55.18 C 56.2 O 55.85 CB 54.06
A THR - 21 -113.1 170.5 N 58.17 CA 60.35 C 62.53 O 63.4 CB 59.61 OG1 61.58 CG2 60.25
A THR S 60 -53.5 -38.4 N 65.27 CA 66.22 C 67.06 O 66.04 CB 65.29 OG1 64.07 CG2 65.64
A ASP S 114 -72.1 -55.6 N 68.87 CA 71.9 C 72.21 O 72.42 CB 74.84 CG 79.03 OD1 80.56 OD2 81.85
A SER - 45 -125.9 153.3 N 71.47 CA 70.64 C 68.88 O 67.68 CB 72.0 OG 74.05
A ALA - 14 -71.2 -30.0 N 67.47 CA 66.52 C 65.46 O 65.97 CB 66.41
A ASN - 48 60.3 35.9 N 63.53 CA 63.08 C 63.79 O 64.65 CB 63.53 CG 64.73 OD1 67.07 ND2 66.59
A GLU - 113 -71.9 150.0 N 63.52 CA 62.8 C 62.88 O 60.97 CB 64.94 CG 67.96 CD 70.84 OE1 69.5 OE2 72.12
A CYS - 8 -62.0 140.0 N 62.75 CA 62.69 C 62.26 O 60.13 CB 62.77 SG 65.97
A GLN - 72 -99.6 153.3 N 63.31 CA 64.51 C 65.17 O 66.18 CB 65.78 CG 70.22 CD 72.32 OE1 71.49 NE2 72.78
A SER - 29 -87.7 131.8 N 64.39 CA 63.63 C 64.8 O 64.79 CB 61.85 OG 59.11
A CYS - 11 -75.8 174.4 N 65.96 CA 65.68 C 63.11 O 61.67 CB 65.67 SG 74.07
A ASN - 13 -126.4 121.3 N 61.84 CA 58.24 C 55.53 O 56.11 CB 58.1 CG 60.3 OD1 62.24 ND2 60.17
A CYS - 16 -127.6 32.8 N 52.65 CA 52.62 C 53.06 O 52.72 CB 52.64 SG 57.2
A HIS T 14 35.0 45.2 N 52.1 CA 52.38 C 51.26 O 52.42 CB 52.33 CG 53.78 ND1 55.03 CD2 54.46 CE1 54.75 NE2 55.06
A GLY T 61 59.1 33.4 N 50.4 CA 47.96 C 46.23 O 46.97
A HIS S 4 -122.7 2.4 N 45.91 CA 45.11 C 47.63 O 48.6 CB 39.47 CG 33.03 ND1 30.01 CD2 29.36 CE1 28.12 NE2 28.32
A ALA - 20 -144.6 164.6 N 50.93 CA 53.15 C 55.01 O 56.87 CB 54.86
A TYR S 220 -114.0 -11.8 N 56.27 CA 58.06 C 57.4 O 57.83 CB 59.99 CG 66.58 CD1 69.39 CD2 69.52 CE1 71.81 CE2 71.56 CZ 72.45 OH 75.54
A ASP - 63 -150.6 172.4 N 56.63 CA 57.16 C 57.29 O 57.6 CB 58.97 CG 60.88 OD1 59.31 OD2 62.27
A CYS E 4 -161.4 -172.2 N 57.98 CA 58.42 C 56.94 O 55.88 CB 60.77 SG 66.7
A TYR E 97 -156.4 156.4 N 56.82 CA 58.21 C 59.2 O 59.63 CB 57.7 CG 60.88 CD1 61.75 CD2 61.19 CE1 61.88 CE2 61.78 CZ 62.39 OH 63.76
A TYR E 50 -90.7 131.9 N 60.96 CA 63.36 C 66.4 O 65.98 CB 61.71 CG 60.05 CD1 60.06 CD2 60.1 CE1 60.65 CE2 61.84 CZ 61.96 OH 62.47
A ASP - 42 -123.5 106.1 N 68.69 CA 71.26 C 72.43 O 71.66 CB 73.49 CG 74.91 OD1 76.13 OD2 76.85
A PRO H 84 -52.6 -41.7 N 73.75 CA 74.78 C 76.17 O 76.32 CB 74.1 CG 73.83 CD 73.36
A GLU H 121 -55.2 -53.5 N 77.62 CA 79.46 C 79.53 O 78.77 CB 81.27 CG 84.84 CD 86.67 OE1 88.24 OE2 87.31
A VAL H 5 -55.2 -41.3 N 79.93 CA 79.53 C 80.23 O 79.0 CB 78.74 CG1 79.03 CG2 76.37
A ASP H 48 -67.8 -43.4 N 81.21 CA 81.89 C 81.95 O 80.69 CB 82.45 CG 83.32 OD1 84.6 OD2 82.91
A ARG H 78 -70.4 -27.4 N 82.79 CA 83.66 C 83.01 O 82.72 CB 83.62
A ARG T 145 -87.4 -5.2 N 82.67 CA 82.57 C 83.06 O 82.28 CB 82.95 CG 83.35 CD 84.46 NE 86.89 CZ 87.7 NH1 89.77 NH2 86.94
A GLU T 134 51.6 44.9 N 84.42 CA 85.37 C 84.71 O 84.05 CB 87.08 CG 90.23 CD 92.07 OE1 92.86 OE2 92.73
A ALA - 28 -117.8 48.8 N 84.2 CA 82.64 C 82.26 O 82.7 CB 82.18
A SER - 0 -154.7 135.8 N 81.35 CA 80.11 C 80.58 O 81.48 CB 78.7 OG 73.9
A GLN - 27 -88.3 134.6 N 80.45 CA 80.85 C 81.48 O 82.52 CB 80.78 CG 80.86 CD 80.25 OE1 79.52 NE2 78.01
A ASN - 7 -87.0 -169.1 N 80.7 CA 79.67 C 79.21 O 78.88 CB 79.7 CG 79.65 OD1 80.3 ND2 79.37
A GLN T 117 -59.3 -37.4 N 79.31 CA 80.06 C 80.24 O 81.78 CB 82.16 CG 85.36 CD 86.39 OE1 86.09 NE2 86.04
A ASP T 134 -83.3 -2.6 N 80.05 CA 79.9 C 79.76 O 80.21 CB 80.01 CG 80.75 OD1 81.28 OD2 80.62
A ASN S 85 83.8 29.4 N 79.74 CA 79.31 C 79.3 O 79.79 CB 78.35 CG 79.46 OD1 81.75 ND2 79.18
A VAL - 82 -112.4 154.1 N 78.89 CA 78.77 C 79.95 O 80.02 CB 78.29 CG1 77.0 CG2 77.59
A TYR S 95 -89.7 63.0 N 81.07 CA 82.68 C 83.81 O 85.45 CB 82.59 CG 83.1 CD1 82.61 CD2 83.69 CE1 83.11 CE2 84.3 CZ 83.8 OH 82.99
A GLN - 131 -117.9 56.1 N 83.91 CA 84.33 C 82.78 O 84.38 CB 86.7 CG 89.97 CD 93.1 OE1 94.28 NE2 93.17
A GLY - 0 -169.5 -165.3 N 79.28 CA 74.93 C 72.1 O 72.72
A GLY - 0 -146.6 35.0 N 68.53 CA 64.97 C 63.99 O 64.41
A GLY E 0 -85.9 136.0 N 61.5 CA 58.3 C 55.5 O 53.77
A VAL E 13 -123.7 118.1 N 53.63 CA 53.5 C 52.17 O 52.62 CB 53.83 CG1 52.71 CG2 52.72
A CYS E 11 -70.5 140.0 N 49.44 CA 50.42 C 50.39 O 53.88 CB 51.38 SG 54.92
A LEU S 67 -103.6 138.8 N 49.39 CA 50.39 C 52.39 O 53.66 CB 49.84 CG 52.52 CD1 51.81 CD2 50.68
A ASP S 133 54.1 57.1 N 53.08 CA 53.34 C 54.72 O 54.26 CB 53.96 CG 58.37 OD1 61.17 OD2 62.02
A CYS - 28 -54.6 135.7 N 55.51 CA 57.58 C 59.12 O 59.02 CB 57.19 SG 65.29
A GLN - 99 -103.0 170.2 N 59.75 CA 60.84 C 59.95 O 58.07 CB 65.27 CG 72.86 CD 78.25 OE1 80.56 NE2 79.13
A HIS S 66 75.6 31.3 N 59.46 CA 59.79 C 59.08 O 59.1 CB 61.82 CG 65.13 ND1 64.58 CD2 63.68 CE1 64.9 NE2 62.58
A HIS S 87 60.2 31.4 N 56.75 CA 53.66 C 53.49 O 55.5 CB 50.68 CG 48.31 ND1 46.32 CD2 46.51 CE1 46.44 NE2 46.73
A THR E 6 -104.8 171.3 N 52.48 CA 51.03 C 49.68 O 49.14 CB 51.06 OG1 52.91 CG2 51.88
A THR E 40 -175.6 160.8 N 48.65 CA 49.26 C 50.71 O 50.73 CB 49.15 OG1 50.96 CG2 47.86
A GLY S 17 127.7 172.3 N 51.27 CA 53.28 C 57.49 O 58.44
A ILE T 40 -59.1 -39.4 N 58.91 CA 60.56 C 60.9 O 62.06 CB 62.42 CG1 62.99 CG2 62.83 CD1 63.76
A ASN T 0 -115.2 19.1 N 60.22 CA 60.36 C 61.26 O 61.86 CB 61.02 CG 61.94 OD1 62.01 ND2 61.07
A CYS S 1 53.8 48.5 N 61.74 CA 61.81 C 62.11 O 62.59 CB 60.9 SG 62.92
A GLU - 55 -101.8 -9.8 N 62.67 CA 65.6 C 66.41 O 64.92 CB 65.84 CG 68.24 CD 72.06 OE1 74.69 OE2 71.53
A ARG E 141 -112.9 167.6 N 67.26 CA 67.08 C 66.11 O 66.1 CB 68.17 CG 71.41 CD 75.02 NE 77.63 CZ 78.87 NH1 78.68 NH2 78.57
A CYS E 28 -99.4 141.8 N 64.53 CA 62.95 C 61.09 O 58.56 CB 64.67 SG 72.14
A LEU - 68 -54.8 147.8 N 59.64 CA 57.91 C 59.35 O 59.66 CB 53.74 CG 50.85 CD1 47.14 CD2 49.51
A PRO T 120 -59.3 136.0 N 60.36 CA 60.64 C 60.79 O 60.63 CB 60.57 CG 60.86 CD 60.4
A GLY T 62 106.4 -17.7 N 60.14 CA 58.94 C 58.51 O 59.37
A PHE - 64 -105.6 158.1 N 56.97 CA 54.74 C 54.96 O 52.66 CB 50.65 CG 45.66 CD1 44.64 CD2 44.24 CE1 42.3 CE2 41.26 CZ 40.49
A PHE E 108 -128.4 146.5 N 57.62 CA 61.85 C 64.25 O 63.2 CB 62.98 CG 62.61 CD1 63.21 CD2 63.62 CE1 62.27 CE2 63.94 CZ 63.6
A ARG E 107 -80.7 122.1 N 67.28 CA 71.02 C 72.78 O 73.39 CB 71.49 CG 75.0 CD 77.9 NE 80.57 CZ 81.83 NH1 82.94 NH2 81.96
A ALA - 12 -67.9 116.7 N 75.14 CA 77.57 C 80.63 O 81.43 CB 75.3
A PRO T 117 -60.3 -27.5 N 83.59 CA 84.47 C 84.85 O 84.9 CB 84.73 CG 84.22 CD 83.84
A ASP T 123 -78.2 13.0 N 85.0 CA 85.51 C 84.73 O 85.29 CB 87.21 CG 89.36 OD1 90.7 OD2 88.98
A GLN S 57 -136.5 148.7 N 82.83 CA 80.8 C 79.76 O 79.86 CB 80.24 CG 80.53 CD 81.32 OE1 83.3 NE2 80.38
A PRO - 70 -89.8 147.0 N 77.94 CA 75.78 C 74.5 O 74.14 CB 76.5 CG 76.65 CD 76.83
A LEU T 52 -41.1 -25.2 N 72.32 CA 70.94 C 70.75 O 69.83 CB 70.61 CG 70.53 CD1 70.08 CD2 71.57
A ASP T 94 -87.7 -17.8 N 71.18 CA 71.91 C 71.75 O 72.87 CB 73.81 CG 77.56 OD1 78.51 OD2 79.26
A SER S 12 -53.3 139.4 N 69.79 CA 68.44 C 67.61 O 67.54 CB 69.19 OG 68.68
A PRO T 72 -78.3 15.0 N 67.27 CA 68.0 C 68.7 O 69.48 CB 66.45 CG 65.6 CD 66.15
A HIS T 122 -133.0 19.1 N 69.01 CA 69.58 C 69.32 O 69.27 CB 71.04 CG 74.07 ND1 75.76 CD2 75.18 CE1 76.2 NE2 75.94
A VAL S 4 -50.6 -47.3 N 68.91 CA 68.9 C 70.02 O 70.75 CB 68.04 CG1 68.68 CG2 70.64
A CYS E 5 -107.8 120.9 N 69.38 CA 67.52 C 66.67 O 66.74 CB 67.32 SG 68.41
A ARG E 29 -101.1 149.6 N 65.54 CA 63.38 C 62.45 O 61.24 CB 61.76
A PRO - 78 -72.3 165.4 N 61.72 CA 62.29 C 62.57 O 61.89 CB 61.4 CG 61.33 CD 60.65
A ALA - 80 -56.9 130.4 N 63.25 CA 61.99 C 63.11 O 61.56 CB 60.29
A ALA - 83 -79.9 163.5 N 64.93 CA 66.39 C 69.25 O 70.58 CB 63.82
A ALA - 102 -68.2 157.9 N 72.13 CA 74.66 C 76.76 O 75.28 CB 74.46
A HIS - 240 -72.3 360.0 N 79.64 CA 81.59 C 83.29 O 84.65 CB 82.66 CG 84.83 ND1 86.23 CD2 85.41 CE1 85.94 NE2 86.69
