A VAL - 20 360.0 120.1 N 16.43 CA 13.77 C 14.38 O 14.29 CB 9.8 CG1 12.71 CG2 16.4 H 19.7 HA 16.51 HB 11.75 HG11 15.25 HG12 15.25 HG13 15.25 HG21 19.67 HG22 19.67 HG23 19.67
A ASN - 49 -115.3 -6.2 N 14.06 CA 13.17 C 11.07 O 14.24 CB 15.74 CG 20.64 OD1 23.44 ND2 26.06 H 16.86 HA 15.79 HB2 18.88 HB3 18.88 HD21 31.26 HD22 31.26
A THR E 3 -141.1 129.5 N 12.47 CA 11.26 C 8.99 O 11.26 CB 13.94 OG1 15.9 CG2 12.06 H 14.95 HA 13.51 HB 16.71 HG1 19.07 HG21 14.46 HG22 14.46 HG23 14.46
A ILE E 0 -129.2 123.1 N 10.18 CA 9.48 C 10.42 O 9.6 CB 9.31 CG1 9.79 CG2 11.13 CD1 11.38 H 12.2 HA 11.36 HB 11.16 HG12 11.73 HG13 11.73 HG21 13.34 HG22 13.34 HG23 13.34 HD11 13.65 HD12 13.65 HD13 13.65
A TYR E 2 -101.4 141.4 N 9.28 CA 10.27 C 8.09 O 9.3 CB 11.04 CG 10.51 CD1 10.91 CD2 12.04 CE1 13.86 CE2 13.12 CZ 13.75 OH 17.77 H 11.12 HA 12.31 HB2 13.24 HB3 13.24 HD1 13.08 HD2 14.43 HE1 16.62 HE2 15.74 HH 21.32
A ILE E 0 -131.9 119.5 N 8.78 CA 8.37 C 7.85 O 8.35 CB 8.95 CG1 8.4 CG2 9.18 CD1 10.74 H 10.52 HA 10.04 HB 10.73 HG12 10.07 HG13 10.07 HG21 11.0 HG22 11.0 HG23 11.0 HD11 12.87 HD12 12.87 HD13 12.87
A ALA E 0 -118.3 150.8 N 8.61 CA 8.44 C 7.77 O 9.6 CB 8.86 H 10.32 HA 10.11 HB1 10.61 HB2 10.61 HB3 10.61
A ARG E 14 -89.0 149.0 N 7.12 CA 8.83 C 8.35 O 9.65 CB 8.45 CG 9.85 CD 10.88 NE 10.2 CZ 11.83 NH1 11.24 NH2 11.06 H 8.53 HA 10.58 HB2 10.13 HB3 10.13 HG2 11.81 HG3 11.81 HD2 13.04 HD3 13.04 HE 12.22 HH11 13.47 HH12 13.47 HH21 13.26 HH22 13.26
A HIS - 1 -61.0 170.2 N 8.54 CA 8.57 C 9.11 O 10.03 CB 9.63 CG 10.44 ND1 12.08 CD2 14.16 CE1 16.37 NE2 17.0 H 10.23 HA 10.27 HB2 11.54 HB3 11.54 HD1 14.48 HD2 16.98 HE1 19.63 HE2 20.39
A GLY - 0 -80.8 -178.3 N 8.54 CA 8.91 C 8.17 O 10.8 H 10.23 HA2 10.68 HA3 10.68
A TYR - 43 -58.0 129.4 N 10.49 CA 10.05 C 8.83 O 10.07 CB 10.18 CG 10.53 CD1 10.89 CD2 10.26 CE1 11.76 CE2 10.28 CZ 10.68 OH 12.95 H 12.57 HA 12.05 HB2 12.2 HB3 12.2 HD1 12.3 HD2 13.05 HE1 12.33 HE2 14.1 HH 15.53
A ARG B 34 -85.1 143.6 N 10.35 CA 10.8 C 11.06 O 10.75 CB 11.22 CG 9.53 CD 11.22 NE 12.05 CZ 12.73 NH1 13.66 NH2 13.79 H 12.41 HA 12.94 HB2 13.45 HB3 13.45 HG2 11.42 HG3 11.42 HD2 13.45 HD3 13.45 HE 14.45 HH11 16.38 HH12 16.38 HH21 16.54 HH22 16.54
A SER G 6 -60.9 -31.6 N 10.64 CA 9.69 C 11.31 O 12.58 CB 11.04 OG 11.35 H 12.75 HA 11.61 HB2 13.24 HB3 13.24 HG 13.61
A ASN G 60 -73.1 -7.8 N 10.26 CA 10.71 C 12.86 O 14.24 CB 13.56 CG 13.95 OD1 12.15 ND2 15.8 H 12.3 HA 12.84 HB2 16.25 HB3 16.25 HD21 18.95 HD22 18.95
A TRP G 53 -84.5 -12.4 N 10.81 CA 9.69 C 11.65 O 13.32 CB 10.51 CG 10.01 CD1 12.3 CD2 9.66 NE1 13.47 CE2 12.27 CE3 11.44 CZ2 11.82 CZ3 12.95 CH2 10.6 H 12.96 HA 11.62 HB2 12.6 HB3 12.6 HD1 14.75 HE1 16.15 HE3 13.72 HZ2 14.17 HZ3 15.52 HH2 12.7
A LEU S 75 -61.7 156.1 N 11.14 CA 10.06 C 12.4 O 13.97 CB 11.03 CG 18.08 CD1 15.41 CD2 21.24 H 13.36 HA 12.05 HB2 13.22 HB3 13.22 HG 21.68 HD11 18.48 HD12 18.48 HD13 18.48 HD21 25.48 HD22 25.48 HD23 25.48
A PRO S 122 -71.7 -26.3 N 13.29 CA 17.25 C 17.71 O 20.82 CB 16.63 CG 17.86 CD 12.47 HA 20.68 HB2 19.95 HB3 19.95 HG2 21.42 HG3 21.42 HD2 14.95 HD3 14.95
A GLU S 153 -142.3 152.7 N 17.37 CA 17.89 C 18.55 O 17.26 CB 17.45 CG 35.11 CD 58.54 OE1 55.12 OE2 66.01 H 20.83 HA 21.46 HB2 20.93 HB3 20.93 HG2 42.12 HG3 42.12
A GLY - 25 -77.1 -174.2 N 18.78 CA 16.85 C 23.36 O 24.3 H 22.52 HA2 20.21 HA3 20.21
A PRO - 135 -74.1 142.1 N 22.24 CA 17.23 C 19.49 O 19.79 CB 26.26 CG 22.29 CD 24.81 HA 20.67 HB2 31.5 HB3 31.5 HG2 26.73 HG3 26.73 HD2 29.75 HD3 29.75
A TYR - 95 -94.8 135.3 N 16.63 CA 13.19 C 15.89 O 16.86 CB 13.51 CG 13.47 CD1 13.84 CD2 17.67 CE1 13.02 CE2 18.87 CZ 18.08 OH 18.55 H 19.95 HA 15.82 HB2 16.2 HB3 16.2 HD1 16.59 HD2 21.19 HE1 15.61 HE2 22.63 HH 22.24
A PRO - 66 -65.3 140.9 N 13.3 CA 11.26 C 15.24 O 15.63 CB 16.06 CG 18.18 CD 15.52 HA 13.5 HB2 19.26 HB3 19.26 HG2 21.81 HG3 21.81 HD2 18.61 HD3 18.61
A ASP - 133 -82.0 149.4 N 14.88 CA 14.04 C 11.69 O 13.16 CB 13.2 CG 14.02 OD1 15.25 OD2 17.84 H 17.85 HA 16.84 HB2 15.83 HB3 15.83
A PRO - 26 -51.2 125.6 N 13.11 CA 12.01 C 12.53 O 14.19 CB 13.14 CG 15.42 CD 14.49 HA 14.4 HB2 15.75 HB3 15.75 HG2 18.49 HG3 18.49 HD2 17.37 HD3 17.37
A LEU T 83 -67.3 -21.6 N 12.22 CA 12.23 C 13.65 O 13.23 CB 13.51 CG 17.86 CD1 14.22 CD2 20.64 H 14.66 HA 14.67 HB2 16.2 HB3 16.2 HG 21.42 HD11 17.05 HD12 17.05 HD13 17.05 HD21 24.76 HD22 24.76 HD23 24.76
A THR T 25 -90.5 -5.0 N 14.18 CA 11.39 C 15.46 O 18.05 CB 12.99 OG1 13.52 CG2 13.38 H 17.01 HA 13.66 HB 15.58 HG1 16.21 HG21 16.05 HG22 16.05 HG23 16.05
A GLY - 70 74.4 5.3 N 13.52 CA 16.57 C 22.07 O 21.02 H 16.21 HA2 19.88 HA3 19.88
A ILE - 32 -92.5 129.6 N 14.3 CA 15.81 C 14.53 O 14.45 CB 12.58 CG1 15.47 CG2 15.63 CD1 17.98 H 17.15 HA 18.96 HB 15.08 HG12 18.55 HG13 18.55 HG21 18.75 HG22 18.75 HG23 18.75 HD11 21.56 HD12 21.56 HD13 21.56
A ASP T 57 -47.8 129.3 N 13.6 CA 15.93 C 14.61 O 15.6 CB 23.77 CG 29.33 OD1 31.02 OD2 24.76 H 16.31 HA 19.11 HB2 28.51 HB3 28.51
A SER T 22 60.4 13.6 N 15.41 CA 14.19 C 13.48 O 16.71 CB 21.5 OG 18.43 H 18.48 HA 17.02 HB2 25.79 HB3 25.79 HG 22.1
A ASP - 0 -86.1 62.0 N 12.7 CA 11.22 C 12.52 O 11.21 CB 9.51 CG 10.59 OD1 11.98 OD2 11.84 H 15.22 HA 13.45 HB2 11.41 HB3 11.41
A VAL - 14 -82.1 160.7 N 12.05 CA 11.17 C 11.75 O 11.02 CB 14.82 CG1 19.67 CG2 18.94 H 14.45 HA 13.4 HB 17.77 HG11 23.6 HG12 23.6 HG13 23.6 HG21 22.71 HG22 22.71 HG23 22.71
A PRO - 12 -80.6 168.4 N 10.74 CA 9.28 C 9.67 O 12.41 CB 11.55 CG 14.56 CD 12.3 HA 11.13 HB2 13.84 HB3 13.84 HG2 17.46 HG3 17.46 HD2 14.75 HD3 14.75
A LEU B 11 -66.3 148.6 N 9.38 CA 7.88 C 9.0 O 11.02 CB 9.34 CG 10.73 CD1 9.67 CD2 11.23 H 11.25 HA 9.44 HB2 11.2 HB3 11.2 HG 12.87 HD11 11.6 HD12 11.6 HD13 11.6 HD21 13.46 HD22 13.46 HD23 13.46
A ALA - 6 -65.0 158.0 N 9.62 CA 10.35 C 9.62 O 11.35 CB 10.56 H 11.53 HA 12.41 HB1 12.66 HB2 12.66 HB3 12.66
A GLU H 178 -53.1 -40.7 N 11.47 CA 10.91 C 12.61 O 12.56 CB 15.49 CG 14.54 CD 28.4 OE1 32.99 OE2 37.05 H 13.75 HA 13.08 HB2 18.58 HB3 18.58 HG2 17.44 HG3 17.44
A HIS H 76 -58.5 -36.4 N 13.0 CA 13.54 C 13.79 O 11.91 CB 12.49 CG 12.27 ND1 15.91 CD2 13.19 CE1 16.8 NE2 14.02 H 15.59 HA 16.24 HB2 14.97 HB3 14.97 HD1 19.08 HD2 15.81 HE1 20.15 HE2 16.81
A GLY H 0 -74.6 -32.6 N 11.02 CA 9.83 C 11.93 O 11.33 H 13.21 HA2 11.78 HA3 11.78
A VAL H 42 -64.2 -37.1 N 11.02 CA 11.85 C 11.15 O 12.0 CB 13.67 CG1 18.85 CG2 11.94 H 13.21 HA 14.21 HB 16.39 HG11 22.6 HG12 22.6 HG13 22.6 HG21 14.31 HG22 14.31 HG23 14.31
A GLN H 95 -64.8 -44.4 N 11.44 CA 13.33 C 12.42 O 13.26 CB 13.92 CG 18.02 CD 38.56 OE1 38.31 NE2 35.34 H 13.71 HA 15.98 HB2 16.69 HB3 16.69 HG2 21.61 HG3 21.61 HE21 42.39 HE22 42.39
A GLN H 1 -57.1 -44.0 N 11.92 CA 10.63 C 10.91 O 11.46 CB 10.09 CG 12.21 CD 11.16 OE1 12.97 NE2 13.89 H 14.29 HA 12.74 HB2 12.09 HB3 12.09 HG2 14.64 HG3 14.64 HE21 16.65 HE22 16.65
A ALA H 1 -63.3 -41.2 N 9.99 CA 10.81 C 10.22 O 10.87 CB 9.83 H 11.97 HA 12.96 HB1 11.79 HB2 11.79 HB3 11.79
A LYS H 108 -61.4 -40.6 N 10.62 CA 12.7 C 14.27 O 14.41 CB 15.43 CG 23.05 CD 40.6 CE 48.96 NZ 57.34 H 12.73 HA 15.23 HB2 18.51 HB3 18.51 HG2 27.65 HG3 27.65 HD2 48.71 HD3 48.71 HE2 58.74 HE3 58.74 HZ1 68.79 HZ2 68.79 HZ3 68.79
A GLU H 28 -68.2 -37.9 N 11.89 CA 11.7 C 14.08 O 13.57 CB 14.07 CG 12.48 CD 16.76 OE1 15.46 OE2 20.31 H 14.25 HA 14.02 HB2 16.87 HB3 16.87 HG2 14.96 HG3 14.96
A LEU H 0 -61.1 -43.0 N 10.49 CA 10.58 C 14.16 O 12.35 CB 9.06 CG 7.88 CD1 10.63 CD2 10.45 H 12.58 HA 12.69 HB2 10.86 HB3 10.86 HG 9.44 HD11 12.74 HD12 12.74 HD13 12.74 HD21 12.53 HD22 12.53 HD23 12.53
A ALA H 1 -58.1 -45.4 N 13.08 CA 11.52 C 14.43 O 15.45 CB 12.33 H 15.69 HA 13.81 HB1 14.78 HB2 14.78 HB3 14.78
A HIS H 115 -66.8 -33.8 N 13.55 CA 14.41 C 16.95 O 16.63 CB 19.12 CG 20.58 ND1 29.36 CD2 21.47 CE1 23.76 NE2 29.39 H 16.24 HA 17.28 HB2 22.93 HB3 22.93 HD1 35.22 HD2 25.75 HE1 28.5 HE2 35.26
A TYR H 56 -65.7 -45.6 N 13.45 CA 15.95 C 13.2 O 14.49 CB 14.23 CG 12.58 CD1 15.22 CD2 14.0 CE1 14.7 CE2 13.76 CZ 15.1 OH 20.59 H 16.13 HA 19.13 HB2 17.07 HB3 17.07 HD1 18.25 HD2 16.79 HE1 17.63 HE2 16.5 HH 24.7
A LEU H 0 -64.8 -37.0 N 12.06 CA 13.1 C 16.11 O 17.11 CB 12.18 CG 12.35 CD1 14.86 CD2 14.77 H 14.47 HA 15.71 HB2 14.6 HB3 14.6 HG 14.81 HD11 17.82 HD12 17.82 HD13 17.82 HD21 17.72 HD22 17.72 HD23 17.72
A LEU H 61 -56.5 -35.5 N 15.4 CA 18.62 C 18.28 O 21.08 CB 21.57 CG 25.75 CD1 21.18 CD2 22.01 H 18.47 HA 22.33 HB2 25.87 HB3 25.87 HG 30.88 HD11 25.4 HD12 25.4 HD13 25.4 HD21 26.4 HD22 26.4 HD23 26.4
A SER T 81 -78.1 -10.9 N 19.14 CA 18.07 C 21.31 O 23.01 CB 23.23 OG 23.17 H 22.95 HA 21.67 HB2 27.86 HB3 27.86 HG 27.79
A LEU - 28 -77.8 144.5 N 19.05 CA 19.18 C 19.6 O 22.05 CB 16.66 CG 20.21 CD1 19.16 CD2 27.35 H 22.85 HA 23.0 HB2 19.98 HB3 19.98 HG 24.24 HD11 22.98 HD12 22.98 HD13 22.98 HD21 32.81 HD22 32.81 HD23 32.81
A ASP S 178 -65.2 -42.3 N 17.73 CA 24.38 C 26.67 O 32.5 CB 27.1 CG 49.19 OD1 46.69 OD2 53.26 H 21.27 HA 29.24 HB2 32.51 HB3 32.51
A ASN S 55 -100.2 75.7 N 22.12 CA 22.81 C 16.87 O 26.73 CB 26.67 CG 36.13 OD1 39.6 ND2 32.32 H 26.53 HA 27.36 HB2 31.99 HB3 31.99 HD21 38.77 HD22 38.77
A GLN - 69 -82.1 148.9 N 22.8 CA 19.23 C 15.53 O 17.56 CB 25.16 CG 38.28 CD 42.02 OE1 44.09 NE2 45.72 H 27.35 HA 23.06 HB2 30.18 HB3 30.18 HG2 45.92 HG3 45.92 HE21 54.86 HE22 54.86
A PRO - 1 -64.0 147.4 N 11.96 CA 15.56 C 14.39 O 13.86 CB 15.12 CG 20.92 CD 17.76 HA 18.66 HB2 18.13 HB3 18.13 HG2 25.09 HG3 25.09 HD2 21.3 HD3 21.3
A GLU S 86 -108.4 -8.9 N 13.31 CA 14.97 C 14.56 O 14.78 CB 16.25 CG 16.7 CD 25.06 OE1 19.67 OE2 36.66 H 15.96 HA 17.96 HB2 19.48 HB3 19.48 HG2 20.03 HG3 20.03
A ALA - 2 -158.2 149.7 N 14.19 CA 11.82 C 11.25 O 11.82 CB 14.46 H 17.02 HA 14.17 HB1 17.34 HB2 17.34 HB3 17.34
A ALA E 0 -125.6 139.7 N 11.89 CA 11.33 C 11.27 O 11.82 CB 12.03 H 14.25 HA 13.59 HB1 14.42 HB2 14.42 HB3 14.42
A PHE E 0 -119.3 125.5 N 9.08 CA 8.38 C 10.38 O 9.72 CB 8.01 CG 9.81 CD1 9.83 CD2 11.6 CE1 10.94 CE2 13.3 CZ 10.56 H 10.88 HA 10.05 HB2 9.6 HB3 9.6 HD1 13.9 HD2 11.78 HE1 15.95 HE2 13.12 HZ 12.66
A ALA E 0 -123.2 137.2 N 11.21 CA 10.04 C 9.66 O 9.91 CB 11.41 H 13.44 HA 12.04 HB1 13.68 HB2 13.68 HB3 13.68
A SER - 0 -50.0 134.6 N 10.14 CA 9.16 C 10.39 O 9.99 CB 9.83 OG 10.64 H 12.15 HA 10.98 HB2 11.79 HB3 11.79 HG 12.75
A PRO S 1 -76.6 6.6 N 8.56 CA 7.91 C 10.77 O 12.04 CB 12.02 CG 15.52 CD 11.56 HA 9.47 HB2 14.42 HB3 14.42 HG2 18.61 HG3 18.61 HD2 13.86 HD3 13.86
A PHE S 3 -66.4 142.8 N 9.37 CA 9.26 C 10.3 O 10.75 CB 9.81 CG 10.13 CD1 13.56 CD2 11.49 CE1 15.18 CE2 14.06 CZ 17.13 H 11.23 HA 11.1 HB2 11.77 HB3 11.77 HD1 16.26 HD2 13.77 HE1 18.21 HE2 16.86 HZ 20.54
A TYR H 21 -55.1 -41.5 N 9.99 CA 10.59 C 8.64 O 10.43 CB 9.86 CG 11.03 CD1 10.58 CD2 12.13 CE1 14.07 CE2 12.17 CZ 14.65 OH 19.55 H 11.98 HA 12.69 HB2 11.82 HB3 11.82 HD1 14.55 HD2 12.68 HE1 14.59 HE2 16.87 HH 23.44
A ARG H 1 -64.3 -30.1 N 10.73 CA 10.01 C 9.58 O 10.6 CB 10.81 CG 11.33 CD 12.45 NE 12.04 CZ 11.44 NH1 12.66 NH2 14.28 H 12.87 HA 12.0 HB2 12.96 HB3 12.96 HG2 13.58 HG3 13.58 HD2 14.93 HD3 14.93 HE 14.44 HH11 15.18 HH12 15.18 HH21 17.12 HH22 17.12
A CYS H 0 -73.8 -42.6 N 9.96 CA 10.4 C 10.0 O 11.14 CB 13.2 SG 11.78 H 11.94 HA 12.46 HB2 15.83 HB3 15.83 HG 14.13
A LEU H 0 -61.3 -39.7 N 9.7 CA 10.6 C 10.64 O 11.02 CB 13.02 CG 16.05 CD1 18.37 CD2 20.44 H 11.63 HA 12.71 HB2 15.61 HB3 15.61 HG 19.25 HD11 22.04 HD12 22.04 HD13 22.04 HD21 24.51 HD22 24.51 HD23 24.51
A GLU H 36 -65.5 -30.7 N 11.09 CA 10.94 C 10.74 O 12.13 CB 13.15 CG 19.25 CD 14.79 OE1 13.1 OE2 20.26 H 13.3 HA 13.12 HB2 15.76 HB3 15.76 HG2 23.08 HG3 23.08
A THR H 0 -75.2 -41.8 N 10.12 CA 10.74 C 12.04 O 12.28 CB 9.81 OG1 10.54 CG2 9.37 H 12.13 HA 12.87 HB 11.76 HG1 12.63 HG21 11.23 HG22 11.23 HG23 11.23
A VAL H 0 -76.2 -21.3 N 10.42 CA 11.39 C 11.87 O 13.3 CB 11.04 CG1 11.38 CG2 11.86 H 12.5 HA 13.65 HB 13.24 HG11 13.64 HG12 13.64 HG13 13.64 HG21 14.22 HG22 14.22 HG23 14.22
A GLN H 44 -53.6 -54.0 N 10.95 CA 14.22 C 12.04 O 13.83 CB 11.59 CG 16.75 CD 16.77 OE1 25.12 NE2 17.14 H 13.13 HA 17.05 HB2 13.89 HB3 13.89 HG2 20.09 HG3 20.09 HE21 20.56 HE22 20.56
A PRO H 27 -66.6 -30.7 N 12.71 CA 14.5 C 14.74 O 15.02 CB 14.47 CG 14.2 CD 11.5 HA 17.39 HB2 17.35 HB3 17.35 HG2 17.03 HG3 17.03 HD2 13.79 HD3 13.79
A ILE H 0 -62.8 -50.0 N 13.73 CA 13.19 C 15.78 O 15.44 CB 12.65 CG1 12.48 CG2 13.71 CD1 14.04 H 16.47 HA 15.82 HB 15.17 HG12 14.96 HG13 14.96 HG21 16.44 HG22 16.44 HG23 16.44 HD11 16.84 HD12 16.84 HD13 16.84
A ALA H 7 -65.0 -39.8 N 13.56 CA 15.0 C 15.6 O 17.27 CB 20.53 H 16.26 HA 17.99 HB1 24.62 HB2 24.62 HB3 24.62
A LYS H 125 -68.0 -40.2 N 15.52 CA 18.51 C 21.83 O 23.0 CB 20.36 CG 25.75 CD 31.87 CE 20.2 NZ 39.65 H 18.61 HA 22.2 HB2 24.42 HB3 24.42 HG2 30.88 HG3 30.88 HD2 38.24 HD3 38.24 HE2 24.22 HE3 24.22 HZ1 47.57 HZ2 47.57 HZ3 47.57
A LEU H 62 -75.1 -44.9 N 18.08 CA 17.36 C 19.07 O 19.61 CB 20.85 CG 17.27 CD1 24.31 CD2 21.99 H 21.69 HA 20.82 HB2 25.01 HB3 25.01 HG 20.71 HD11 29.16 HD12 29.16 HD13 29.16 HD21 26.38 HD22 26.38 HD23 26.38
A LEU H 15 -82.2 -14.1 N 16.66 CA 14.8 C 19.45 O 18.36 CB 15.78 CG 16.25 CD1 20.32 CD2 16.69 H 19.97 HA 17.75 HB2 18.92 HB3 18.92 HG 19.49 HD11 24.37 HD12 24.37 HD13 24.37 HD21 20.02 HD22 20.02 HD23 20.02
A GLU T 177 59.2 58.2 N 18.17 CA 17.97 C 15.71 O 19.86 CB 20.43 CG 34.63 CD 47.1 OE1 51.76 OE2 54.57 H 21.8 HA 21.56 HB2 24.5 HB3 24.5 HG2 41.54 HG3 41.54
A ILE - 20 -128.2 152.6 N 15.95 CA 15.82 C 14.72 O 14.96 CB 14.97 CG1 14.55 CG2 16.16 CD1 13.31 H 19.13 HA 18.97 HB 17.96 HG12 17.45 HG13 17.45 HG21 19.38 HG22 19.38 HG23 19.38 HD11 15.96 HD12 15.96 HD13 15.96
A PRO - 41 -72.1 155.4 N 12.9 CA 14.48 C 14.55 O 14.28 CB 16.14 CG 17.64 CD 14.79 HA 17.36 HB2 19.36 HB3 19.36 HG2 21.15 HG3 21.15 HD2 17.74 HD3 17.74
A VAL E 0 -123.8 129.4 N 13.81 CA 13.18 C 10.23 O 12.0 CB 13.95 CG1 14.17 CG2 13.77 H 16.56 HA 15.8 HB 16.72 HG11 16.99 HG12 16.99 HG13 16.99 HG21 16.51 HG22 16.51 HG23 16.51
A TYR E 12 -118.0 141.8 N 12.25 CA 10.39 C 10.12 O 11.73 CB 12.02 CG 13.05 CD1 13.55 CD2 14.25 CE1 14.32 CE2 15.21 CZ 16.54 OH 17.27 H 14.68 HA 12.46 HB2 14.41 HB3 14.41 HD1 16.24 HD2 17.09 HE1 17.18 HE2 18.24 HH 20.71
A LEU E 16 -85.9 128.3 N 12.0 CA 10.26 C 10.95 O 11.4 CB 13.03 CG 10.73 CD1 13.96 CD2 12.15 H 14.38 HA 12.3 HB2 15.62 HB3 15.62 HG 12.86 HD11 16.74 HD12 16.74 HD13 16.74 HD21 14.57 HD22 14.57 HD23 14.57
A GLU - 0 -132.0 97.3 N 10.28 CA 9.97 C 10.01 O 9.46 CB 12.23 CG 10.59 CD 10.41 OE1 13.25 OE2 12.06 H 12.33 HA 11.95 HB2 14.66 HB3 14.66 HG2 12.69 HG3 12.69
A ARG G 58 -58.4 -27.5 N 10.79 CA 10.23 C 11.07 O 11.13 CB 13.27 CG 13.4 CD 16.59 NE 18.36 CZ 25.69 NH1 17.36 NH2 21.56 H 12.93 HA 12.27 HB2 15.91 HB3 15.91 HG2 16.07 HG3 16.07 HD2 19.89 HD3 19.89 HE 22.02 HH11 20.82 HH12 20.82 HH21 25.86 HH22 25.86
A GLY G 0 -56.8 -25.0 N 11.31 CA 10.15 C 11.72 O 12.48 H 13.55 HA2 12.17 HA3 12.17
A ILE G 0 -109.5 22.3 N 9.89 CA 10.4 C 13.82 O 11.25 CB 7.72 CG1 9.9 CG2 9.29 CD1 10.14 H 11.86 HA 12.47 HB 9.25 HG12 11.86 HG13 11.86 HG21 11.14 HG22 11.14 HG23 11.14 HD11 12.16 HD12 12.16 HD13 12.16
A GLY - 3 -69.8 173.0 N 10.79 CA 11.16 C 11.5 O 11.52 H 12.93 HA2 13.38 HA3 13.38
A GLU - 35 -59.6 154.8 N 13.26 CA 13.01 C 12.63 O 12.76 CB 13.17 CG 13.73 CD 16.99 OE1 14.12 OE2 16.33 H 15.9 HA 15.6 HB2 15.8 HB3 15.8 HG2 16.47 HG3 16.47
A TRP - 10 -96.3 117.2 N 13.28 CA 12.2 C 15.76 O 14.24 CB 14.66 CG 12.69 CD1 17.26 CD2 14.02 NE1 16.68 CE2 15.68 CE3 20.75 CZ2 17.45 CZ3 22.94 CH2 17.23 H 15.92 HA 14.63 HB2 17.58 HB3 17.58 HD1 20.7 HE1 20.01 HE3 24.89 HZ2 20.93 HZ3 27.51 HH2 20.66
A TYR - 18 -115.9 135.4 N 13.93 CA 14.26 C 16.63 O 17.25 CB 20.08 CG 16.73 CD1 16.02 CD2 16.57 CE1 18.57 CE2 13.63 CZ 14.29 OH 17.26 H 16.7 HA 17.1 HB2 24.08 HB3 24.08 HD1 19.21 HD2 19.88 HE1 22.27 HE2 16.35 HH 20.7
A ARG - 107 -83.8 157.3 N 19.45 CA 19.83 C 22.67 O 26.05 CB 30.94 CG 29.02 CD 29.74 NE 32.98 CZ 40.56 NH1 40.85 NH2 46.61 H 23.32 HA 23.78 HB2 37.12 HB3 37.12 HG2 34.82 HG3 34.82 HD2 35.67 HD3 35.67 HE 39.56 HH11 49.01 HH12 49.01 HH21 55.92 HH22 55.92
A PRO T 63 -63.3 150.3 N 20.13 CA 27.83 C 23.64 O 32.56 CB 27.21 CG 24.82 CD 20.87 HA 33.39 HB2 32.63 HB3 32.63 HG2 29.77 HG3 29.77 HD2 25.03 HD3 25.03
A ASP T 129 69.2 9.3 N 30.23 CA 38.65 C 41.06 O 36.79 CB 42.73 CG 56.02 OD1 42.28 OD2 48.86 H 36.27 HA 46.37 HB2 51.27 HB3 51.27
A ARG - 75 -58.4 139.4 N 30.73 CA 32.12 C 37.69 O 37.05 CB 33.66 CG 40.61 CD 23.72 NE 23.55 CZ 31.25 NH1 26.35 NH2 28.13 H 36.86 HA 38.53 HB2 40.37 HB3 40.37 HG2 48.73 HG3 48.73 HD2 28.45 HD3 28.45 HE 28.24 HH11 31.61 HH12 31.61 HH21 33.74 HH22 33.74
A LYS S 146 -112.6 148.4 N 36.11 CA 36.23 C 30.27 O 29.53 CB 46.83 CG 57.57 CD 65.75 CE 79.31 NZ 84.48 H 43.32 HA 43.46 HB2 56.18 HB3 56.18 HG2 69.08 HG3 69.08 HD2 78.88 HD3 78.88 HE2 95.16 HE3 95.16 HZ1 101.37 HZ2 101.37 HZ3 101.37
A PRO S 89 -85.1 -16.8 N 27.58 CA 29.96 C 30.0 O 30.93 CB 29.01 CG 33.92 CD 33.25 HA 35.94 HB2 34.8 HB3 34.8 HG2 40.69 HG3 40.69 HD2 39.89 HD3 39.89
A VAL - 73 -152.4 167.8 N 22.56 CA 22.0 C 21.77 O 20.7 CB 25.49 CG1 32.02 CG2 21.8 H 27.06 HA 26.39 HB 30.57 HG11 38.42 HG12 38.42 HG13 38.42 HG21 26.15 HG22 26.15 HG23 26.15
A ILE - 32 -89.4 113.5 N 18.67 CA 19.03 C 18.41 O 20.73 CB 19.33 CG1 24.74 CG2 17.94 CD1 30.16 H 22.39 HA 22.82 HB 23.19 HG12 29.67 HG13 29.67 HG21 21.51 HG22 21.51 HG23 21.51 HD11 36.19 HD12 36.19 HD13 36.19
A PRO - 7 -65.5 137.9 N 16.02 CA 13.87 C 14.16 O 16.31 CB 17.49 CG 16.7 CD 16.79 HA 16.64 HB2 20.97 HB3 20.97 HG2 20.03 HG3 20.03 HD2 20.13 HD3 20.13
A VAL - 47 -121.3 123.5 N 15.08 CA 14.9 C 15.39 O 14.99 CB 18.12 CG1 18.47 CG2 24.47 H 18.08 HA 17.87 HB 21.73 HG11 22.16 HG12 22.16 HG13 22.16 HG21 29.35 HG22 29.35 HG23 29.35
A PRO - 16 -75.2 166.6 N 13.11 CA 14.21 C 15.22 O 16.12 CB 15.22 CG 12.98 CD 14.08 HA 17.04 HB2 18.25 HB3 18.25 HG2 15.57 HG3 15.57 HD2 16.89 HD3 16.89
A ALA - 8 -77.4 165.1 N 15.23 CA 13.85 C 15.66 O 16.97 CB 16.01 H 18.26 HA 16.61 HB1 19.2 HB2 19.2 HB3 19.2
A GLY - 25 -100.9 -172.1 N 16.98 CA 18.15 C 17.14 O 16.63 H 20.37 HA2 21.76 HA3 21.76
A TYR H 67 -57.2 -43.4 N 18.52 CA 15.32 C 14.94 O 17.97 CB 15.35 CG 17.6 CD1 21.8 CD2 24.04 CE1 28.44 CE2 24.22 CZ 19.36 OH 42.81 H 22.21 HA 18.37 HB2 18.41 HB3 18.41 HD1 26.14 HD2 28.84 HE1 34.11 HE2 29.05 HH 51.36
A GLU H 159 -52.8 -43.9 N 16.48 CA 20.62 C 24.86 O 27.35 CB 22.49 CG 42.62 CD 62.31 OE1 68.69 OE2 59.35 H 19.76 HA 24.74 HB2 26.97 HB3 26.97 HG2 51.13 HG3 51.13
A ILE H 78 -81.5 -47.0 N 16.46 CA 16.67 C 14.49 O 16.75 CB 20.49 CG1 22.33 CG2 21.19 CD1 27.02 H 19.73 HA 19.99 HB 24.58 HG12 26.78 HG13 26.78 HG21 25.42 HG22 25.42 HG23 25.42 HD11 32.41 HD12 32.41 HD13 32.41
A LEU H 0 -72.2 -31.2 N 14.19 CA 14.91 C 15.35 O 15.93 CB 13.07 CG 13.91 CD1 14.88 CD2 16.31 H 17.01 HA 17.88 HB2 15.67 HB3 15.67 HG 16.68 HD11 17.85 HD12 17.85 HD13 17.85 HD21 19.56 HD22 19.56 HD23 19.56
A SER H 30 -62.1 -23.2 N 16.64 CA 15.74 C 17.02 O 22.2 CB 16.52 OG 20.81 H 19.96 HA 18.88 HB2 19.81 HB3 19.81 HG 24.96
A LYS H 164 -72.4 -35.7 N 17.05 CA 16.9 C 18.26 O 20.77 CB 19.62 CG 28.68 CD 46.06 CE 59.13 NZ 71.9 H 20.45 HA 20.27 HB2 23.53 HB3 23.53 HG2 34.4 HG3 34.4 HD2 55.26 HD3 55.26 HE2 70.95 HE3 70.95 HZ1 86.27 HZ2 86.27 HZ3 86.27
A PHE H 71 -81.8 -25.7 N 14.47 CA 14.7 C 14.67 O 15.96 CB 15.2 CG 15.37 CD1 17.13 CD2 19.08 CE1 19.31 CE2 22.55 CZ 17.41 H 17.35 HA 17.63 HB2 18.23 HB3 18.23 HD1 20.55 HD2 22.89 HE1 23.16 HE2 27.05 HZ 20.88
A PHE S 2 -128.6 63.4 N 14.31 CA 12.14 C 15.59 O 14.23 CB 13.98 CG 11.76 CD1 13.57 CD2 11.22 CE1 12.17 CE2 12.5 CZ 11.38 H 17.16 HA 14.55 HB2 16.76 HB3 16.76 HD1 16.27 HD2 13.46 HE1 14.6 HE2 14.99 HZ 13.65
A PRO T 85 -64.4 136.7 N 14.95 CA 14.87 C 18.36 O 19.14 CB 18.28 CG 21.14 CD 16.6 HA 17.83 HB2 21.92 HB3 21.92 HG2 25.35 HG3 25.35 HD2 19.91 HD3 19.91
A GLY T 89 80.7 -1.7 N 17.46 CA 17.82 C 20.83 O 21.77 H 20.94 HA2 21.37 HA3 21.37
A VAL T 11 -92.6 -40.2 N 17.99 CA 16.06 C 17.4 O 17.07 CB 14.91 CG1 15.24 CG2 19.24 H 21.58 HA 19.26 HB 17.88 HG11 18.27 HG12 18.27 HG13 18.27 HG21 23.08 HG22 23.08 HG23 23.08
A ILE B 7 -103.0 135.5 N 13.24 CA 13.94 C 14.74 O 15.13 CB 13.39 CG1 15.06 CG2 17.07 CD1 16.45 H 15.88 HA 16.72 HB 16.06 HG12 18.05 HG13 18.05 HG21 20.48 HG22 20.48 HG23 20.48 HD11 19.73 HD12 19.73 HD13 19.73
A SER - 39 -96.7 125.5 N 16.31 CA 17.54 C 18.02 O 20.77 CB 19.66 OG 21.19 H 19.56 HA 21.04 HB2 23.57 HB3 23.57 HG 25.41
A GLN T 122 -76.0 -18.0 N 20.95 CA 19.05 C 21.4 O 24.08 CB 25.58 CG 32.45 CD 46.09 OE1 39.18 NE2 37.25 H 25.13 HA 22.84 HB2 30.68 HB3 30.68 HG2 38.93 HG3 38.93 HE21 44.69 HE22 44.69
A GLU T 123 -62.1 -30.6 N 19.6 CA 27.8 C 31.42 O 27.5 CB 29.84 CG 30.18 CD 54.81 OE1 52.77 OE2 35.31 H 23.51 HA 33.34 HB2 35.8 HB3 35.8 HG2 36.21 HG3 36.21
A TRP - 11 -79.9 121.2 N 19.76 CA 17.08 C 24.26 O 25.04 CB 17.11 CG 14.74 CD1 14.72 CD2 14.69 NE1 13.76 CE2 13.11 CE3 16.22 CZ2 13.35 CZ3 15.74 CH2 13.37 H 23.7 HA 20.48 HB2 20.52 HB3 20.52 HD1 17.65 HE1 16.5 HE3 19.45 HZ2 16.0 HZ3 18.88 HH2 16.04
A ASP - 115 -91.4 156.0 N 22.05 CA 30.66 C 19.72 O 21.37 CB 41.51 CG 55.04 OD1 54.45 OD2 61.72 H 26.44 HA 36.78 HB2 49.79 HB3 49.79
A SER - 40 -69.1 151.8 N 18.63 CA 16.92 C 16.48 O 19.79 CB 15.69 OG 15.39 H 22.35 HA 20.29 HB2 18.82 HB3 18.82 HG 18.46
A THR S 23 -77.6 -39.1 N 14.74 CA 14.78 C 19.59 O 21.35 CB 16.23 OG1 17.92 CG2 16.72 H 17.68 HA 17.72 HB 19.47 HG1 21.49 HG21 20.06 HG22 20.06 HG23 20.06
A LEU - 28 -159.6 172.5 N 18.86 CA 22.76 C 18.75 O 20.67 CB 23.32 CG 28.84 CD1 28.37 CD2 23.71 H 22.62 HA 27.3 HB2 27.98 HB3 27.98 HG 34.6 HD11 34.03 HD12 34.03 HD13 34.03 HD21 28.45 HD22 28.45 HD23 28.45
A THR - 73 -122.5 124.6 N 21.94 CA 19.3 C 18.21 O 20.56 CB 26.31 OG1 26.47 CG2 24.17 H 26.32 HA 23.15 HB 31.57 HG1 31.75 HG21 28.99 HG22 28.99 HG23 28.99
A PRO - 24 -57.3 142.4 N 16.3 CA 16.97 C 18.66 O 18.63 CB 14.55 CG 14.87 CD 14.48 HA 20.35 HB2 17.45 HB3 17.45 HG2 17.83 HG3 17.83 HD2 17.36 HD3 17.36
A ASN - 88 -45.6 121.2 N 20.62 CA 18.16 C 20.04 O 21.04 CB 21.41 CG 28.73 OD1 25.87 ND2 34.5 H 24.73 HA 21.78 HB2 25.69 HB3 25.69 HD21 41.39 HD22 41.39
A GLU T 118 -72.8 -6.0 N 19.35 CA 19.09 C 17.54 O 20.4 CB 19.6 CG 35.41 CD 63.6 OE1 59.35 OE2 76.99 H 23.21 HA 22.89 HB2 23.51 HB3 23.51 HG2 42.48 HG3 42.48
A LYS T 167 -99.4 6.3 N 20.97 CA 24.19 C 29.52 O 27.08 CB 32.36 CG 41.68 CD 61.3 CE 76.76 NZ 79.99 H 25.15 HA 29.01 HB2 38.82 HB3 38.82 HG2 50.01 HG3 50.01 HD2 73.55 HD3 73.55 HE2 92.1 HE3 92.1 HZ1 95.98 HZ2 95.98 HZ3 95.98
A GLY - 3 96.2 173.2 N 21.55 CA 18.92 C 23.26 O 22.19 H 25.85 HA2 22.69 HA3 22.69
A GLU - 8 -135.2 136.6 N 17.22 CA 16.86 C 15.73 O 18.24 CB 19.25 CG 16.5 CD 18.32 OE1 17.24 OE2 19.14 H 20.65 HA 20.22 HB2 23.09 HB3 23.09 HG2 19.79 HG3 19.79
A THR - 46 -69.8 168.2 N 18.01 CA 16.75 C 19.48 O 17.67 CB 20.46 OG1 20.52 CG2 24.44 H 21.6 HA 20.09 HB 24.54 HG1 24.61 HG21 29.31 HG22 29.31 HG23 29.31
A GLU H 42 -56.9 -43.2 N 19.63 CA 16.26 C 19.42 O 17.68 CB 20.0 CG 21.52 CD 24.64 OE1 27.04 OE2 26.67 H 23.54 HA 19.49 HB2 23.99 HB3 23.99 HG2 25.81 HG3 25.81
A GLN H 142 -64.0 -41.9 N 18.2 CA 20.44 C 18.32 O 18.33 CB 23.39 CG 26.15 CD 25.3 OE1 17.29 NE2 19.31 H 21.83 HA 24.52 HB2 28.05 HB3 28.05 HG2 31.37 HG3 31.37 HE21 23.16 HE22 23.16
A GLU H 96 -68.2 -38.8 N 17.59 CA 15.82 C 15.77 O 15.31 CB 17.96 CG 31.21 CD 42.0 OE1 22.99 OE2 37.67 H 21.09 HA 18.97 HB2 21.54 HB3 21.54 HG2 37.44 HG3 37.44
A MET H 0 -63.8 -41.0 N 15.04 CA 12.86 C 14.73 O 14.29 CB 15.47 CG 20.93 SD 17.26 CE 22.46 H 18.03 HA 15.42 HB2 18.55 HB3 18.55 HG2 25.11 HG3 25.11 HE1 26.93 HE2 26.93 HE3 26.93
A TYR H 11 -69.4 -35.3 N 14.63 CA 12.96 C 15.26 O 14.36 CB 15.59 CG 13.31 CD1 10.68 CD2 13.85 CE1 12.17 CE2 13.42 CZ 13.14 OH 14.12 H 17.55 HA 15.54 HB2 18.7 HB3 18.7 HD1 12.81 HD2 16.61 HE1 14.6 HE2 16.09 HH 16.93
A MET H 98 -63.5 -36.8 N 17.3 CA 19.24 C 17.79 O 18.2 CB 23.42 CG 18.82 SD 59.48 CE 23.16 H 20.74 HA 23.08 HB2 28.1 HB3 28.1 HG2 22.57 HG3 22.57 HE1 27.78 HE2 27.78 HE3 27.78
A ARG H 14 -55.0 -45.8 N 16.25 CA 14.7 C 16.23 O 16.49 CB 14.25 CG 21.99 CD 17.4 NE 13.24 CZ 14.86 NH1 13.59 NH2 17.1 H 19.48 HA 17.63 HB2 17.09 HB3 17.09 HG2 26.37 HG3 26.37 HD2 20.87 HD3 20.87 HE 15.87 HH11 16.3 HH12 16.3 HH21 20.51 HH22 20.51
A PHE H 0 -75.2 -35.0 N 12.87 CA 10.38 C 14.52 O 12.05 CB 10.01 CG 9.95 CD1 13.1 CD2 12.5 CE1 13.77 CE2 14.42 CZ 12.48 H 15.43 HA 12.44 HB2 12.0 HB3 12.0 HD1 15.7 HD2 14.99 HE1 16.51 HE2 17.29 HZ 14.97
A LYS H 103 -62.4 -36.5 N 13.9 CA 15.04 C 14.52 O 16.67 CB 15.35 CG 17.46 CD 19.22 CE 38.44 NZ 53.92 H 16.67 HA 18.03 HB2 18.41 HB3 18.41 HG2 20.94 HG3 20.94 HD2 23.05 HD3 23.05 HE2 46.12 HE3 46.12 HZ1 64.69 HZ2 64.69 HZ3 64.69
A LYS H 128 -75.7 -40.1 N 15.28 CA 18.58 C 15.94 O 15.79 CB 20.62 CG 41.42 CD 57.32 CE 61.11 NZ 70.31 H 18.33 HA 22.28 HB2 24.74 HB3 24.74 HG2 49.69 HG3 49.69 HD2 68.77 HD3 68.77 HE2 73.32 HE3 73.32 HZ1 84.35 HZ2 84.35 HZ3 84.35
A PHE H 0 -54.6 -49.7 N 13.49 CA 12.47 C 12.91 O 12.36 CB 12.58 CG 12.86 CD1 13.42 CD2 11.33 CE1 12.64 CE2 10.01 CZ 13.46 H 16.18 HA 14.96 HB2 15.08 HB3 15.08 HD1 16.09 HD2 13.58 HE1 15.16 HE2 12.0 HZ 16.14
A TRP H 4 -56.0 -55.6 N 11.51 CA 10.43 C 11.95 O 12.13 CB 11.31 CG 11.42 CD1 12.59 CD2 10.39 NE1 10.45 CE2 9.49 CE3 12.27 CZ2 11.38 CZ3 12.7 CH2 13.89 H 13.8 HA 12.5 HB2 13.56 HB3 13.56 HD1 15.1 HE1 12.53 HE3 14.72 HZ2 13.65 HZ3 15.23 HH2 16.66
A PRO H 53 -65.7 -35.2 N 13.04 CA 12.06 C 11.57 O 15.59 CB 15.06 CG 20.79 CD 16.32 HA 14.45 HB2 18.06 HB3 18.06 HG2 24.93 HG3 24.93 HD2 19.57 HD3 19.57
A LEU H 66 -66.1 -43.1 N 13.23 CA 14.77 C 14.72 O 16.42 CB 15.77 CG 21.98 CD1 25.21 CD2 28.61 H 15.87 HA 17.72 HB2 18.92 HB3 18.92 HG 26.36 HD11 30.24 HD12 30.24 HD13 30.24 HD21 34.32 HD22 34.32 HD23 34.32
A PHE H 0 -67.1 -52.0 N 12.98 CA 13.07 C 13.62 O 12.47 CB 13.03 CG 11.81 CD1 12.97 CD2 10.56 CE1 13.07 CE2 12.25 CZ 13.6 H 15.56 HA 15.67 HB2 15.62 HB3 15.62 HD1 15.55 HD2 12.66 HE1 15.67 HE2 14.69 HZ 16.31
A ILE H 0 -67.2 -37.2 N 11.72 CA 10.56 C 14.27 O 13.56 CB 12.62 CG1 12.29 CG2 13.18 CD1 14.45 H 14.05 HA 12.66 HB 15.13 HG12 14.73 HG13 14.73 HG21 15.81 HG22 15.81 HG23 15.81 HD11 17.33 HD12 17.33 HD13 17.33
A GLU H 88 -55.6 -43.6 N 12.31 CA 13.67 C 15.85 O 15.88 CB 17.08 CG 21.38 CD 27.19 OE1 28.76 OE2 28.68 H 14.76 HA 16.39 HB2 20.48 HB3 20.48 HG2 25.64 HG3 25.64
A ARG H 52 -69.6 -44.2 N 15.28 CA 17.74 C 14.98 O 17.01 CB 21.68 CG 31.46 CD 37.67 NE 27.22 CZ 22.83 NH1 22.56 NH2 23.27 H 18.32 HA 21.28 HB2 26.0 HB3 26.0 HG2 37.73 HG3 37.73 HD2 45.19 HD3 45.19 HE 32.65 HH11 27.06 HH12 27.06 HH21 27.91 HH22 27.91
A VAL H 0 -55.7 -42.7 N 12.71 CA 12.72 C 11.93 O 15.45 CB 12.97 CG1 14.01 CG2 13.93 H 15.24 HA 15.26 HB 15.55 HG11 16.81 HG12 16.81 HG13 16.81 HG21 16.71 HG22 16.71 HG23 16.71
A GLU H 37 -78.0 -25.1 N 12.05 CA 11.71 C 14.62 O 17.17 CB 13.24 CG 12.03 CD 14.48 OE1 13.81 OE2 13.36 H 14.44 HA 14.04 HB2 15.87 HB3 15.87 HG2 14.42 HG3 14.42
A LYS H 147 -73.2 -44.6 N 13.61 CA 15.01 C 17.61 O 19.89 CB 15.75 CG 17.16 CD 18.52 CE 21.84 NZ 21.6 H 16.32 HA 18.0 HB2 18.89 HB3 18.89 HG2 20.58 HG3 20.58 HD2 22.21 HD3 22.21 HE2 26.2 HE3 26.2 HZ1 25.91 HZ2 25.91 HZ3 25.91
A GLU H 109 -79.3 -36.2 N 15.01 CA 18.28 C 19.62 O 21.83 CB 17.66 CG 21.23 CD 27.65 OE1 26.48 OE2 26.52 H 18.0 HA 21.93 HB2 21.18 HB3 21.18 HG2 25.47 HG3 25.47
A TYR - 32 -132.9 73.3 N 18.05 CA 20.3 C 18.78 O 22.72 CB 18.5 CG 18.45 CD1 20.85 CD2 20.97 CE1 23.24 CE2 19.93 CZ 19.87 OH 24.34 H 21.64 HA 24.35 HB2 22.18 HB3 22.18 HD1 25.0 HD2 25.15 HE1 27.88 HE2 23.9 HH 29.2
A PRO T 95 -65.0 -19.8 N 20.47 CA 19.9 C 21.07 O 25.19 CB 21.68 CG 25.62 CD 21.47 HA 23.87 HB2 26.0 HB3 26.0 HG2 30.73 HG3 30.73 HD2 25.76 HD3 25.76
A ASN T 142 -95.3 -4.6 N 21.0 CA 23.88 C 23.75 O 27.11 CB 39.18 CG 48.72 OD1 37.2 ND2 60.18 H 25.19 HA 28.65 HB2 47.01 HB3 47.01 HD21 72.21 HD22 72.21
A VAL - 24 -79.6 121.9 N 19.31 CA 19.5 C 24.31 O 25.59 CB 18.65 CG1 21.93 CG2 22.84 H 23.15 HA 23.39 HB 22.37 HG11 26.31 HG12 26.31 HG13 26.31 HG21 27.39 HG22 27.39 HG23 27.39
A GLU - 113 -110.4 -16.8 N 16.44 CA 14.78 C 16.93 O 15.24 CB 17.8 CG 20.39 CD 37.35 OE1 36.9 OE2 56.96 H 19.71 HA 17.73 HB2 21.34 HB3 21.34 HG2 24.45 HG3 24.45
A CYS E 0 -136.2 128.6 N 13.89 CA 11.44 C 12.4 O 13.52 CB 14.83 SG 15.24 H 16.66 HA 13.72 HB2 17.79 HB3 17.79 HG 18.28
A ILE E 0 -130.8 160.7 N 11.43 CA 11.62 C 9.89 O 10.18 CB 12.76 CG1 14.44 CG2 12.56 CD1 14.93 H 13.71 HA 13.93 HB 15.3 HG12 17.32 HG13 17.32 HG21 15.06 HG22 15.06 HG23 15.06 HD11 17.9 HD12 17.9 HD13 17.9
A LEU E 0 -122.2 136.8 N 8.57 CA 10.06 C 8.75 O 9.67 CB 10.62 CG 10.08 CD1 10.72 CD2 11.35 H 10.27 HA 12.05 HB2 12.73 HB3 12.73 HG 12.08 HD11 12.85 HD12 12.85 HD13 12.85 HD21 13.6 HD22 13.6 HD23 13.6
A LEU E 0 -113.9 136.5 N 9.35 CA 9.05 C 8.86 O 9.13 CB 9.58 CG 14.98 CD1 19.06 CD2 12.9 H 11.21 HA 10.85 HB2 11.48 HB3 11.48 HG 17.96 HD11 22.87 HD12 22.87 HD13 22.87 HD21 15.47 HD22 15.47 HD23 15.47
A VAL E 0 -118.8 124.0 N 7.68 CA 8.42 C 8.55 O 10.08 CB 10.73 CG1 8.46 CG2 10.55 H 9.21 HA 10.09 HB 12.87 HG11 10.14 HG12 10.14 HG13 10.14 HG21 12.65 HG22 12.65 HG23 12.65
A THR E 0 -152.8 -166.6 N 7.91 CA 6.81 C 10.92 O 9.71 CB 9.61 OG1 11.01 CG2 9.63 H 9.48 HA 8.16 HB 11.52 HG1 13.2 HG21 11.55 HG22 11.55 HG23 11.55
A HIS - 0 -102.8 170.6 N 9.88 CA 9.38 C 8.88 O 10.19 CB 9.59 CG 8.91 ND1 8.88 CD2 9.37 CE1 11.28 NE2 10.54 H 11.85 HA 11.25 HB2 11.5 HB3 11.5 HD1 10.64 HD2 11.23 HE1 13.52 HE2 12.63
A ALA H 7 -60.0 -59.7 N 9.86 CA 11.27 C 10.02 O 12.85 CB 15.56 H 11.82 HA 13.52 HB1 18.67 HB2 18.67 HB3 18.67
A ALA H 4 -64.1 -40.5 N 10.89 CA 11.47 C 12.32 O 12.68 CB 14.18 H 13.05 HA 13.75 HB1 17.0 HB2 17.0 HB3 17.0
A SER H 0 -62.0 -37.9 N 10.81 CA 9.32 C 9.63 O 10.93 CB 13.53 OG 14.77 H 12.96 HA 11.17 HB2 16.23 HB3 16.23 HG 17.72
A LYS H 0 -62.4 -46.2 N 9.87 CA 9.62 C 10.18 O 10.14 CB 10.26 CG 11.84 CD 10.41 CE 16.38 NZ 14.5 H 11.83 HA 11.53 HB2 12.3 HB3 12.3 HG2 14.19 HG3 14.19 HD2 12.48 HD3 12.48 HE2 19.65 HE3 19.65 HZ1 17.39 HZ2 17.39 HZ3 17.39
A ILE H 7 -66.7 -44.0 N 9.5 CA 9.67 C 11.21 O 11.89 CB 11.71 CG1 15.71 CG2 14.02 CD1 19.11 H 11.39 HA 11.59 HB 14.04 HG12 18.84 HG13 18.84 HG21 16.81 HG22 16.81 HG23 16.81 HD11 22.91 HD12 22.91 HD13 22.91
A ALA H 0 -68.8 -37.5 N 9.5 CA 10.54 C 12.75 O 11.36 CB 13.36 H 11.39 HA 12.64 HB1 16.02 HB2 16.02 HB3 16.02
A LEU H 0 -58.0 -45.1 N 11.06 CA 9.58 C 10.22 O 10.95 CB 10.42 CG 9.7 CD1 11.05 CD2 11.04 H 13.25 HA 11.49 HB2 12.5 HB3 12.5 HG 11.63 HD11 13.25 HD12 13.25 HD13 13.25 HD21 13.24 HD22 13.24 HD23 13.24
A GLY H 0 -71.6 -44.0 N 9.97 CA 9.95 C 12.09 O 11.48 H 11.95 HA2 11.93 HA3 11.93
A MET H 2 -66.3 -36.7 N 9.97 CA 12.47 C 10.9 O 12.58 CB 12.31 CG 10.48 SD 13.01 CE 17.2 H 11.95 HA 14.95 HB2 14.76 HB3 14.76 HG2 12.56 HG3 12.56 HE1 20.62 HE2 20.62 HE3 20.62
A SER H 16 -73.5 -36.9 N 10.4 CA 10.02 C 11.92 O 13.07 CB 11.76 OG 12.11 H 12.46 HA 12.01 HB2 14.1 HB3 14.1 HG 14.52
A LEU H 12 -60.6 -41.4 N 10.43 CA 11.52 C 11.47 O 13.27 CB 11.15 CG 11.48 CD1 12.39 CD2 13.06 H 12.51 HA 13.81 HB2 13.36 HB3 13.36 HG 13.77 HD11 14.86 HD12 14.86 HD13 14.86 HD21 15.66 HD22 15.66 HD23 15.66
A LEU H 25 -77.3 -14.1 N 11.5 CA 11.88 C 14.63 O 16.95 CB 11.61 CG 13.49 CD1 13.12 CD2 14.0 H 13.79 HA 14.24 HB2 13.92 HB3 13.92 HG 16.17 HD11 15.73 HD12 15.73 HD13 15.73 HD21 16.79 HD22 16.79 HD23 16.79
A GLY T 57 91.7 18.9 N 14.76 CA 15.03 C 17.31 O 17.62 H 17.7 HA2 18.02 HA3 18.02
A TYR - 61 -73.1 151.3 N 14.0 CA 15.27 C 15.48 O 17.57 CB 16.67 CG 14.48 CD1 15.99 CD2 18.03 CE1 14.65 CE2 17.26 CZ 17.85 OH 20.57 H 16.78 HA 18.31 HB2 19.99 HB3 19.99 HD1 21.63 HD2 19.18 HE1 20.7 HE2 17.57 HH 24.67
A ASP S 143 -66.8 -29.9 N 18.45 CA 23.05 C 17.88 O 19.25 CB 28.05 CG 55.48 OD1 52.65 OD2 71.04 H 22.13 HA 27.65 HB2 33.65 HB3 33.65
A ASN - 63 -155.2 160.7 N 17.62 CA 17.51 C 15.83 O 18.53 CB 20.15 CG 22.66 OD1 23.29 ND2 29.61 H 21.14 HA 21.0 HB2 24.17 HB3 24.17 HD21 35.51 HD22 35.51
A PRO T 8 -83.2 -5.9 N 17.13 CA 13.74 C 17.1 O 17.95 CB 16.12 CG 17.67 CD 17.9 HA 16.48 HB2 19.33 HB3 19.33 HG2 21.2 HG3 21.2 HD2 21.47 HD3 21.47
A ARG T 93 -87.6 -16.6 N 18.65 CA 22.02 C 23.05 O 29.64 CB 26.11 CG 25.92 CD 29.92 NE 26.71 CZ 31.71 NH1 34.42 NH2 28.78 H 22.37 HA 26.41 HB2 31.31 HB3 31.31 HG2 31.1 HG3 31.1 HD2 35.89 HD3 35.89 HE 32.04 HH11 41.29 HH12 41.29 HH21 34.52 HH22 34.52
A MET S 68 -59.0 156.6 N 22.02 CA 26.24 C 26.47 O 21.09 CB 24.3 CG 28.89 SD 28.31 CE 36.71 H 26.42 HA 31.48 HB2 29.14 HB3 29.14 HG2 34.65 HG3 34.65 HE1 44.05 HE2 44.05 HE3 44.05
A SER - 44 -77.9 154.6 N 24.88 CA 23.05 C 16.07 O 20.78 CB 24.14 OG 33.72 H 29.85 HA 27.65 HB2 28.96 HB3 28.96 HG 40.45
A LEU S 22 -69.4 -34.5 N 19.54 CA 16.31 C 19.22 O 21.89 CB 19.35 CG 11.64 CD1 14.96 CD2 15.43 H 23.44 HA 19.56 HB2 23.2 HB3 23.2 HG 13.95 HD11 17.95 HD12 17.95 HD13 17.95 HD21 18.5 HD22 18.5 HD23 18.5
A ASN S 73 -156.2 -178.5 N 17.63 CA 18.35 C 18.7 O 19.07 CB 19.26 CG 20.46 OD1 19.22 ND2 27.09 H 21.14 HA 22.01 HB2 23.1 HB3 23.1 HD21 32.49 HD22 32.49
A GLU T 210 -70.4 -17.4 N 20.76 CA 23.82 C 19.63 O 24.91 CB 34.06 CG 56.22 CD 69.09 OE1 68.04 OE2 63.05 H 24.9 HA 28.57 HB2 40.86 HB3 40.86 HG2 67.45 HG3 67.45
A ASN T 125 -74.6 -15.9 N 21.79 CA 21.42 C 18.75 O 24.05 CB 21.51 CG 20.63 OD1 17.67 ND2 21.73 H 26.14 HA 25.69 HB2 25.8 HB3 25.8 HD21 26.06 HD22 26.06
A GLY - 34 91.6 13.8 N 18.81 CA 22.31 C 19.2 O 21.87 H 22.56 HA2 26.77 HA3 26.77
A ASP - 65 -65.0 148.8 N 19.18 CA 16.94 C 17.78 O 17.87 CB 17.86 CG 23.03 OD1 24.14 OD2 39.59 H 23.0 HA 20.31 HB2 21.42 HB3 21.42
A LYS - 67 -133.1 160.8 N 14.41 CA 14.14 C 12.1 O 13.91 CB 21.43 CG 27.57 CD 37.18 CE 46.2 NZ 57.51 H 17.28 HA 16.95 HB2 25.7 HB3 25.7 HG2 33.08 HG3 33.08 HD2 44.61 HD3 44.61 HE2 55.43 HE3 55.43 HZ1 69.0 HZ2 69.0 HZ3 69.0
A ILE - 4 -70.4 121.1 N 14.7 CA 14.9 C 19.24 O 23.21 CB 15.53 CG1 14.35 CG2 16.78 CD1 16.65 H 17.62 HA 17.87 HB 18.62 HG12 17.21 HG13 17.21 HG21 20.12 HG22 20.12 HG23 20.12 HD11 19.97 HD12 19.97 HD13 19.97
A ARG - 107 -90.2 146.6 N 12.35 CA 11.69 C 13.0 O 17.31 CB 18.39 CG 20.91 CD 26.06 NE 21.77 CZ 28.68 NH1 37.49 NH2 25.48 H 14.81 HA 14.01 HB2 22.06 HB3 22.06 HG2 25.08 HG3 25.08 HD2 31.26 HD3 31.26 HE 26.11 HH11 44.97 HH12 44.97 HH21 30.57 HH22 30.57
A SER - 0 -143.2 55.1 N 10.26 CA 11.63 C 11.92 O 13.98 CB 16.71 OG 10.89 H 12.31 HA 13.94 HB2 20.04 HB3 20.04 HG 13.06
A GLY - 0 -67.2 169.2 N 10.41 CA 10.17 C 10.24 O 9.34 H 12.48 HA2 12.19 HA3 12.19
A SER T 0 -68.3 134.0 N 10.49 CA 8.3 C 8.97 O 12.14 CB 18.2 OG 13.95 H 12.57 HA 9.95 HB2 21.83 HB3 21.83 HG 16.73
A CYS T 0 59.6 22.2 N 9.22 CA 8.84 C 10.67 O 11.83 CB 9.76 SG 10.97 H 11.05 HA 10.6 HB2 11.7 HB3 11.7 HG 13.15
A SER - 0 -74.3 160.0 N 10.33 CA 9.33 C 8.64 O 9.6 CB 12.11 OG 12.0 H 12.39 HA 11.19 HB2 14.52 HB3 14.52 HG 14.39
A LEU E 0 -136.7 124.7 N 9.43 CA 8.34 C 8.7 O 10.54 CB 9.52 CG 9.2 CD1 10.9 CD2 12.36 H 11.31 HA 9.99 HB2 11.41 HB3 11.41 HG 11.03 HD11 13.07 HD12 13.07 HD13 13.07 HD21 14.82 HD22 14.82 HD23 14.82
A ASP E 0 -108.5 151.8 N 8.48 CA 8.87 C 9.9 O 9.99 CB 13.25 CG 12.67 OD1 12.65 OD2 14.11 H 10.16 HA 10.63 HB2 15.89 HB3 15.89
A LYS E 34 -133.8 134.0 N 9.76 CA 9.29 C 10.82 O 10.97 CB 11.0 CG 11.19 CD 16.09 CE 15.76 NZ 21.32 H 11.7 HA 11.14 HB2 13.19 HB3 13.19 HG2 13.42 HG3 13.42 HD2 19.29 HD3 19.29 HE2 18.9 HE3 18.9 HZ1 25.57 HZ2 25.57 HZ3 25.57
A TYR E 0 -123.8 138.3 N 9.79 CA 9.95 C 10.39 O 10.94 CB 11.77 CG 11.28 CD1 11.21 CD2 13.76 CE1 10.62 CE2 12.49 CZ 10.89 OH 13.02 H 11.74 HA 11.92 HB2 14.11 HB3 14.11 HD1 16.5 HD2 13.44 HE1 14.97 HE2 12.73 HH 15.61
A GLU E 62 -134.6 147.0 N 11.93 CA 11.86 C 11.76 O 13.58 CB 14.3 CG 16.86 CD 20.17 OE1 23.4 OE2 20.85 H 14.31 HA 14.22 HB2 17.14 HB3 17.14 HG2 20.22 HG3 20.22
A ILE E 63 -77.4 148.3 N 15.0 CA 14.74 C 13.97 O 15.35 CB 22.14 CG1 19.61 CG2 20.44 CD1 34.76 H 17.99 HA 17.68 HB 26.56 HG12 23.52 HG13 23.52 HG21 24.52 HG22 24.52 HG23 24.52 HD11 41.7 HD12 41.7 HD13 41.7
A LEU - 101 -75.7 122.5 N 14.27 CA 15.28 C 14.06 O 15.99 CB 26.81 CG 25.09 CD1 21.59 CD2 25.68 H 17.12 HA 18.33 HB2 32.16 HB3 32.16 HG 30.1 HD11 25.89 HD12 25.89 HD13 25.89 HD21 30.8 HD22 30.8 HD23 30.8
A LYS - 139 -70.2 142.4 N 14.18 CA 14.38 C 14.86 O 13.8 CB 15.43 CG 14.28 CD 27.6 CE 25.33 NZ 42.38 H 17.0 HA 17.25 HB2 18.51 HB3 18.51 HG2 17.13 HG3 17.13 HD2 33.1 HD3 33.1 HE2 30.38 HE3 30.38 HZ1 50.84 HZ2 50.84 HZ3 50.84
A LYS S 141 -110.8 -0.6 N 14.44 CA 14.09 C 15.5 O 15.93 CB 15.64 CG 15.85 CD 17.62 CE 23.02 NZ 19.35 H 17.31 HA 16.9 HB2 18.76 HB3 18.76 HG2 19.01 HG3 19.01 HD2 21.13 HD3 21.13 HE2 27.62 HE3 27.62 HZ1 23.21 HZ2 23.21 HZ3 23.21
A SER S 85 -145.6 157.6 N 14.96 CA 18.26 C 18.82 O 19.93 CB 19.73 OG 26.96 H 17.94 HA 21.9 HB2 23.66 HB3 23.66 HG 32.34
A TYR - 217 -67.6 151.4 N 21.67 CA 22.47 C 32.75 O 30.99 CB 24.46 CG 20.7 CD1 23.37 CD2 18.59 CE1 19.07 CE2 17.92 CZ 16.32 OH 16.21 H 25.99 HA 26.95 HB2 29.35 HB3 29.35 HD1 28.03 HD2 22.29 HE1 22.87 HE2 21.5 HH 19.44
A ASP - 184 -76.9 360.0 N 32.96 CA 49.88 C 55.79 O 61.21 CB 46.4 CG 57.59 OD1 62.69 OD2 53.66 H 39.54 HA 59.84 HB2 55.66 HB3 55.66
A PHE - 226 360.0 132.0 N 54.2 CA 48.26 C 47.55 O 35.75 CB 53.21 CG 53.89 CD1 55.38 CD2 48.66 CE1 43.26 CE2 41.82 CZ 52.18 HA 57.9 HB2 63.84 HB3 63.84 HD1 66.44 HD2 58.38 HE1 51.89 HE2 50.17 HZ 62.6
A THR - 114 -128.5 112.0 N 40.16 CA 26.68 C 24.13 O 27.22 CB 33.73 OG1 31.65 CG2 38.03 H 48.18 HA 32.0 HB 40.46 HG1 37.97 HG21 45.62 HG22 45.62 HG23 45.62
A TYR - 126 -70.0 131.5 N 23.6 CA 19.52 C 22.31 O 24.51 CB 17.94 CG 16.64 CD1 16.38 CD2 16.83 CE1 16.23 CE2 16.11 CZ 15.13 OH 18.46 H 28.31 HA 23.41 HB2 21.52 HB3 21.52 HD1 19.64 HD2 20.18 HE1 19.47 HE2 19.32 HH 22.14
A ILE - 45 -117.3 120.2 N 18.77 CA 20.61 C 18.2 O 16.06 CB 21.73 CG1 25.66 CG2 21.87 CD1 33.01 H 22.51 HA 24.72 HB 26.07 HG12 30.79 HG13 30.79 HG21 26.23 HG22 26.23 HG23 26.23 HD11 39.6 HD12 39.6 HD13 39.6
A PRO - 48 -53.5 142.9 N 18.75 CA 20.59 C 15.68 O 19.43 CB 27.09 CG 25.45 CD 25.12 HA 24.69 HB2 32.49 HB3 32.49 HG2 30.52 HG3 30.52 HD2 30.13 HD3 30.13
A PHE G 31 -46.7 -47.1 N 17.75 CA 16.98 C 17.71 O 18.12 CB 22.15 CG 17.12 CD1 18.68 CD2 17.99 CE1 16.94 CE2 20.94 CZ 15.73 H 21.29 HA 20.37 HB2 26.56 HB3 26.56 HD1 22.4 HD2 21.57 HE1 20.31 HE2 25.12 HZ 18.86
A SER G 97 -63.1 -19.1 N 23.6 CA 25.8 C 21.26 O 28.1 CB 36.32 OG 50.5 H 28.31 HA 30.95 HB2 43.58 HB3 43.58 HG 60.59
A ASP G 93 -93.9 -1.2 N 21.83 CA 19.41 C 19.29 O 20.19 CB 24.19 CG 37.47 OD1 34.73 OD2 33.59 H 26.18 HA 23.28 HB2 29.02 HB3 29.02
A ARG - 34 -86.8 143.8 N 15.46 CA 15.46 C 15.13 O 16.55 CB 13.82 CG 15.11 CD 16.07 NE 16.88 CZ 14.93 NH1 14.59 NH2 15.74 H 18.54 HA 18.54 HB2 16.57 HB3 16.57 HG2 18.12 HG3 18.12 HD2 19.27 HD3 19.27 HE 20.25 HH11 17.5 HH12 17.5 HH21 18.88 HH22 18.88
A LYS - 123 -108.7 125.5 N 12.95 CA 15.04 C 16.5 O 18.82 CB 17.47 CG 22.76 CD 39.85 CE 33.51 NZ 37.45 H 15.53 HA 18.03 HB2 20.95 HB3 20.95 HG2 27.3 HG3 27.3 HD2 47.81 HD3 47.81 HE2 40.2 HE3 40.2 HZ1 44.93 HZ2 44.93 HZ3 44.93
A TRP E 9 -102.5 152.2 N 12.76 CA 12.28 C 12.92 O 14.22 CB 13.12 CG 13.17 CD1 14.3 CD2 13.16 NE1 13.44 CE2 13.79 CE3 13.89 CZ2 15.27 CZ3 14.68 CH2 16.68 H 15.3 HA 14.72 HB2 15.74 HB3 15.74 HD1 17.15 HE1 16.11 HE3 16.66 HZ2 18.31 HZ3 17.6 HH2 20.0
A VAL E 58 -127.6 130.2 N 11.65 CA 12.88 C 14.44 O 13.08 CB 16.68 CG1 20.75 CG2 23.67 H 13.97 HA 15.44 HB 20.0 HG11 24.89 HG12 24.89 HG13 24.89 HG21 28.39 HG22 28.39 HG23 28.39
A LEU E 41 -79.6 113.6 N 13.02 CA 12.64 C 14.5 O 16.14 CB 11.88 CG 14.37 CD1 13.04 CD2 17.99 H 15.61 HA 15.16 HB2 14.25 HB3 14.25 HG 17.23 HD11 15.63 HD12 15.63 HD13 15.63 HD21 21.58 HD22 21.58 HD23 21.58
A THR E 66 -111.0 -4.1 N 12.45 CA 11.27 C 12.47 O 16.97 CB 12.87 OG1 14.83 CG2 16.46 H 14.92 HA 13.51 HB 15.44 HG1 17.78 HG21 19.74 HG22 19.74 HG23 19.74
A MET E 32 -149.8 124.0 N 12.19 CA 12.12 C 13.02 O 10.75 CB 13.81 CG 14.19 SD 16.95 CE 20.56 H 14.61 HA 14.53 HB2 16.56 HB3 16.56 HG2 17.02 HG3 17.02 HE1 24.66 HE2 24.66 HE3 24.66
A ASN E 56 -113.0 101.5 N 12.64 CA 12.51 C 12.27 O 13.14 CB 11.41 CG 15.73 OD1 14.54 ND2 18.82 H 15.15 HA 15.0 HB2 13.69 HB3 13.69 HD21 22.57 HD22 22.57
A GLY E 5 57.3 37.9 N 12.16 CA 12.9 C 10.57 O 12.44 H 14.58 HA2 15.47 HA3 15.47
A ASN E 29 -60.6 130.4 N 11.62 CA 13.49 C 12.13 O 11.14 CB 11.46 CG 13.68 OD1 14.34 ND2 16.24 H 13.93 HA 16.18 HB2 13.74 HB3 13.74 HD21 19.48 HD22 19.48
A THR - 7 -132.9 12.3 N 11.25 CA 10.41 C 13.85 O 13.46 CB 11.93 OG1 14.29 CG2 13.06 H 13.49 HA 12.48 HB 14.31 HG1 17.14 HG21 15.66 HG22 15.66 HG23 15.66
A GLU T 167 -60.7 -25.7 N 14.48 CA 15.12 C 17.66 O 17.8 CB 16.92 CG 23.88 CD 47.75 OE1 48.92 OE2 32.62 H 17.36 HA 18.13 HB2 20.29 HB3 20.29 HG2 28.65 HG3 28.65
A PHE T 35 -82.6 -4.0 N 14.09 CA 14.91 C 15.56 O 16.02 CB 15.89 CG 15.12 CD1 14.05 CD2 13.15 CE1 11.21 CE2 12.18 CZ 9.93 H 16.9 HA 17.88 HB2 19.06 HB3 19.06 HD1 16.85 HD2 15.77 HE1 13.44 HE2 14.61 HZ 11.91
A LEU - 10 -94.4 132.9 N 13.47 CA 13.32 C 14.61 O 15.35 CB 11.79 CG 11.98 CD1 13.94 CD2 14.19 H 16.15 HA 15.97 HB2 14.14 HB3 14.14 HG 14.37 HD11 16.72 HD12 16.72 HD13 16.72 HD21 17.02 HD22 17.02 HD23 17.02
A SER T 107 -58.8 -34.5 N 15.39 CA 15.58 C 15.93 O 21.23 CB 15.97 OG 18.28 H 18.46 HA 18.68 HB2 19.16 HB3 19.16 HG 21.93
A SER T 34 -71.3 -19.5 N 15.47 CA 15.15 C 14.32 O 17.36 CB 18.06 OG 14.31 H 18.55 HA 18.16 HB2 21.66 HB3 21.66 HG 17.15
A GLY - 24 62.6 -159.7 N 14.87 CA 16.15 C 14.92 O 14.12 H 17.83 HA2 19.37 HA3 19.37
A GLU S 74 -80.2 127.4 N 13.59 CA 13.41 C 13.61 O 15.53 CB 14.07 CG 13.37 CD 18.62 OE1 21.06 OE2 16.06 H 16.3 HA 16.08 HB2 16.87 HB3 16.87 HG2 16.04 HG3 16.04
A GLU - 50 -136.2 140.0 N 11.54 CA 13.17 C 12.85 O 13.2 CB 13.62 CG 14.3 CD 14.46 OE1 13.68 OE2 16.28 H 13.83 HA 15.8 HB2 16.33 HB3 16.33 HG2 17.15 HG3 17.15
A MET S 87 60.1 41.4 N 13.17 CA 12.89 C 11.29 O 13.34 CB 14.66 CG 21.98 SD 19.28 CE 27.03 H 15.8 HA 15.45 HB2 17.58 HB3 17.58 HG2 26.36 HG3 26.36 HE1 32.42 HE2 32.42 HE3 32.42
A ASN - 45 -55.2 141.8 N 12.85 CA 12.31 C 14.29 O 16.75 CB 13.43 CG 14.54 OD1 15.36 ND2 18.86 H 15.4 HA 14.76 HB2 16.1 HB3 16.1 HD21 22.62 HD22 22.62
A TRP - 51 -132.3 140.7 N 14.51 CA 14.34 C 23.24 O 21.85 CB 14.71 CG 18.66 CD1 17.3 CD2 16.96 NE1 22.29 CE2 19.93 CE3 17.41 CZ2 22.55 CZ3 18.54 CH2 18.98 H 17.4 HA 17.2 HB2 17.64 HB3 17.64 HD1 20.75 HE1 26.74 HE3 20.88 HZ2 27.05 HZ3 22.23 HH2 22.76
A ASN - 34 -145.5 175.7 N 20.24 CA 22.41 C 22.68 O 23.97 CB 33.98 CG 28.11 OD1 37.52 ND2 54.51 H 24.28 HA 26.88 HB2 40.77 HB3 40.77 HD21 65.41 HD22 65.41
A PHE G 7 -65.3 -15.0 N 21.8 CA 24.77 C 32.47 O 31.02 CB 25.08 CG 24.71 CD1 18.32 CD2 19.49 CE1 24.44 CE2 25.53 CZ 23.4 H 26.15 HA 29.72 HB2 30.09 HB3 30.09 HD1 23.38 HD2 21.97 HE1 30.62 HE2 29.32 HZ 28.07
A ASP G 121 -62.2 -15.2 N 28.91 CA 38.17 C 46.89 O 47.26 CB 51.49 CG 55.74 OD1 48.77 OD2 65.06 H 34.68 HA 45.79 HB2 61.77 HB3 61.77
A CYS G 78 -84.8 9.6 N 35.58 CA 33.18 C 47.77 O 51.4 CB 29.58 SG 36.05 H 42.69 HA 39.8 HB2 35.49 HB3 35.49 HG 43.24
A VAL - 74 -135.1 360.0 N 48.29 CA 54.0 C 55.4 O 50.77 CB 55.23 CG1 60.32 CG2 56.68 H 57.94 HA 64.79 HB 66.27 HG11 72.38 HG12 72.38 HG13 72.38 HG21 68.0 HG22 68.0 HG23 68.0
