E LYS - 166 360.0 169.2 N 161.5 CA 161.57 C 161.66 O 161.5 CB 161.57 CG 161.31 CD 161.23 CE 161.43 NZ 161.5
E GLU - 125 -131.1 1.6 N 161.94 CA 162.46 C 162.44 O 162.53 CB 162.47 CG 162.92 CD 163.14 OE1 163.83 OE2 164.31
E MET S 91 -107.6 60.4 N 162.46 CA 162.54 C 162.52 O 162.62 CB 162.48 CG 162.63 SD 162.79 CE 162.04
E VAL S 36 -140.5 152.3 N 162.54 CA 162.69 C 162.88 O 163.11 CB 162.65 CG1 162.52 CG2 162.7
E LYS B 95 -68.5 154.0 N 163.01 CA 163.18 C 163.0 O 163.09 CB 163.22 CG 163.56 CD 163.61 CE 164.36 NZ 164.54
E ASP - 13 -70.5 141.7 N 162.76 CA 162.75 C 162.49 O 162.49 CB 163.05 CG 163.99 OD1 164.51 OD2 165.26
E ARG - 71 -91.0 153.3 N 162.35 CA 162.48 C 162.91 O 163.1 CB 162.3 CG 161.79 CD 161.05 NE 161.18 CZ 161.31 NH1 161.23 NH2 161.71
E GLY G 20 -53.3 -26.1 N 163.3 CA 163.62 C 163.88 O 163.77
E TYR G 125 -77.6 -22.8 N 164.38 CA 164.99 C 165.44 O 165.53 CB 164.95 CG 164.94 CD1 164.7 CD2 165.09 CE1 164.58 CE2 164.94 CZ 164.77 OH 164.98
E PHE G 35 -68.6 -11.3 N 165.99 CA 166.53 C 166.83 O 166.7 CB 166.67 CG 166.87 CD1 166.96 CD2 166.67 CE1 166.96 CE2 166.88 CZ 167.33
E ILE G 2 -84.9 -29.6 N 167.35 CA 167.84 C 168.2 O 168.33 CB 167.84 CG1 167.99 CG2 167.91 CD1 167.97
E THR H 10 -57.4 -30.4 N 168.54 CA 168.87 C 169.05 O 169.04 CB 168.87 OG1 169.03 CG2 168.76
E GLN H 14 -54.9 -42.8 N 169.28 CA 169.5 C 169.64 O 169.56 CB 169.53 CG 169.73 CD 170.06 OE1 170.04 NE2 170.35
E GLU H 1 -62.9 -50.8 N 169.91 CA 170.26 C 170.53 O 170.71 CB 170.23 CG 170.16 CD 169.75 OE1 169.47 OE2 169.21
E GLU H 0 -49.6 -52.5 N 170.69 CA 170.73 C 170.45 O 170.36 CB 170.83 CG 171.07 CD 171.07 OE1 171.3 OE2 171.26
E VAL T 3 -55.6 -3.6 N 170.19 CA 170.06 C 169.93 O 170.03 CB 170.1 CG1 170.15 CG2 170.18
E GLU T 4 -101.0 -50.8 N 169.65 CA 169.39 C 169.04 O 168.98 CB 169.45 CG 170.0 CD 170.98 OE1 171.37 OE2 170.97
E LEU T 6 -36.8 150.3 N 168.64 CA 168.3 C 168.26 O 168.26 CB 168.17 CG 167.96 CD1 167.83 CD2 167.3
E PRO T 21 71.3 -62.8 N 168.26 CA 168.27 C 168.28 O 168.12 CB 168.3 CG 168.34 CD 168.28
E LEU T 96 -34.9 -37.9 N 168.44 CA 168.68 C 169.0 O 168.98 CB 168.62 CG 168.52 CD1 168.42 CD2 168.61
E GLU S 84 -98.8 -66.2 N 169.44 CA 169.83 C 169.82 O 169.77 CB 169.99 CG 170.69 CD 171.26 OE1 171.59 OE2 171.13
E ASP S 48 -61.6 -45.7 N 169.86 CA 169.7 C 169.44 O 169.43 CB 169.82 CG 169.83 OD1 170.0 OD2 169.47
E PHE - 26 79.9 -162.9 N 168.95 CA 168.45 C 168.34 O 168.32 CB 168.22 CG 167.83 CD1 167.49 CD2 167.46 CE1 167.33 CE2 167.18 CZ 167.35
E LYS S 27 -92.1 -41.4 N 168.21 CA 168.17 C 168.01 O 167.96 CB 168.21 CG 168.38 CD 168.32 CE 168.52 NZ 168.3
E ALA S 3 -112.3 61.7 N 167.9 CA 167.79 C 167.65 O 167.68 CB 167.85
E LYS H 11 -72.2 -41.7 N 167.36 CA 167.13 C 166.86 O 166.88 CB 167.18 CG 167.58 CD 168.08 CE 168.25 NZ 168.22
E TYR H 9 -75.3 -32.2 N 166.47 CA 166.15 C 165.88 O 165.81 CB 166.27 CG 166.34 CD1 166.58 CD2 166.37 CE1 166.89 CE2 166.56 CZ 166.74 OH 166.64
E CYS H 3 -64.6 -43.4 N 165.6 CA 165.34 C 165.26 O 165.22 CB 165.31 SG 164.83
E ASP H 35 -68.8 -33.2 N 165.16 CA 165.19 C 165.11 O 165.13 CB 165.29 CG 165.43 OD1 165.37 OD2 165.57
E SER H 73 -71.9 -57.3 N 164.93 CA 164.71 C 164.65 O 164.62 CB 164.63 OG 164.66
E MET H 8 -48.4 -52.8 N 164.63 CA 164.61 C 164.53 O 164.5 CB 164.68 CG 164.78 SD 165.14 CE 164.93
E GLY H 0 -61.7 -26.0 N 164.46 CA 164.39 C 164.35 O 164.3
E ARG H 25 -80.5 -32.2 N 164.33 CA 164.29 C 164.02 O 164.06 CB 164.44 CG 165.06 CD 166.06 NE 166.7 CZ 166.94 NH1 166.86 NH2 166.89
E PRO H 45 -64.5 -54.6 N 163.74 CA 163.45 C 163.12 O 163.19 CB 163.48 CG 163.68 CD 163.75
E GLN I 1 -54.8 -31.0 N 162.63 CA 162.1 C 161.69 O 161.54 CB 162.14 CG 162.21 CD 162.25 OE1 162.28 NE2 161.83
E ARG I 17 -85.3 -50.0 N 161.26 CA 160.82 C 160.73 O 160.63 CB 160.9 CG 160.6 CD 160.4 NE 159.62 CZ 159.5 NH1 159.4 NH2 159.46
E LYS I 74 -70.0 -47.7 N 160.59 CA 160.52 C 160.58 O 160.54 CB 160.44 CG 160.39 CD 160.52 CE 160.48 NZ 160.16
E MET I 156 -99.5 -78.9 N 160.71 CA 160.92 C 160.95 O 160.99 CB 160.88 CG 160.95 SD 161.27 CE 161.17
E MET I 39 -34.1 -58.1 N 161.09 CA 161.13 C 161.37 O 161.28 CB 161.2 CG 160.98 SD 160.49 CE 159.9
E SER H 0 -53.3 -41.3 N 161.65 CA 161.89 C 161.96 O 162.14 CB 162.0 OG 162.37
E PHE H 40 -54.9 -33.5 N 162.01 CA 162.19 C 162.43 O 162.46 CB 162.07 CG 162.12 CD1 162.16 CD2 162.26 CE1 162.15 CE2 162.23 CZ 162.12
E GLN H 68 -88.5 -41.9 N 162.78 CA 163.15 C 163.3 O 163.3 CB 163.2 CG 163.7 CD 164.73 OE1 165.39 NE2 164.76
E ALA H 18 -50.0 -39.4 N 163.63 CA 164.02 C 164.34 O 164.42 CB 164.0
E ASN H 1 -54.2 -71.6 N 164.66 CA 164.96 C 165.23 O 165.22 CB 164.88 CG 165.06 OD1 165.1 ND2 165.41
E PRO T 68 -68.3 89.2 N 165.58 CA 165.94 C 166.34 O 166.42 CB 165.94 CG 165.82 CD 165.55
E THR T 84 -158.6 -95.4 N 166.87 CA 167.54 C 167.88 O 167.96 CB 167.59 OG1 167.77 CG2 167.85
E GLU T 54 -87.1 -8.3 N 168.27 CA 168.65 C 168.8 O 168.9 CB 168.65 CG 169.33 CD 170.25 OE1 170.93 OE2 170.02
E GLU - 8 -26.1 -40.4 N 168.86 CA 168.97 C 168.89 O 168.9 CB 169.07 CG 170.21 CD 171.4 OE1 171.9 OE2 171.55
E SER - 83 -69.3 132.7 N 168.92 CA 169.12 C 169.32 O 169.4 CB 169.14 OG 168.99
E ILE B 26 -115.0 153.1 N 169.52 CA 169.78 C 169.91 O 169.94 CB 169.86 CG1 169.92 CG2 169.98 CD1 169.65
E SER - 135 -134.1 360.0 N 170.13 CA 170.42 C 170.48 O 170.42 CB 170.5 OG 170.72
E GLY - 58 360.0 122.8 N 176.31 CA 175.9 C 175.57 O 175.56
E VAL E 30 -120.2 120.1 N 175.23 CA 174.82 C 174.49 O 174.39 CB 174.87 CG1 174.93 CG2 174.81
E LYS E 21 -125.8 128.7 N 174.09 CA 173.74 C 173.57 O 173.55 CB 173.78 CG 173.56 CD 173.52 CE 173.32 NZ 173.14
E THR E 21 -91.9 161.4 N 173.34 CA 173.19 C 173.2 O 173.22 CB 173.2 OG1 173.03 CG2 173.06
E MET E 6 -155.8 -128.6 N 173.11 CA 172.96 C 172.72 O 172.76 CB 173.07 CG 173.4 SD 174.54 CE 173.71
E LYS E 103 -45.4 127.4 N 172.35 CA 171.96 C 171.62 O 171.67 CB 172.04 CG 172.16 CD 172.36 CE 172.56 NZ 172.84
E THR E 15 -110.9 108.0 N 171.13 CA 170.64 C 170.26 O 170.26 CB 170.69 OG1 170.66 CG2 170.46
E PHE E 129 -89.0 156.8 N 169.7 CA 169.24 C 168.95 O 168.89 CB 169.22 CG 169.08 CD1 168.98 CD2 168.96 CE1 168.98 CE2 169.04 CZ 169.02
E VAL E 45 -130.1 137.7 N 168.57 CA 168.16 C 167.86 O 167.79 CB 168.17 CG1 168.08 CG2 168.26
E ILE - 35 -84.4 164.6 N 167.48 CA 167.11 C 166.85 O 166.82 CB 167.11 CG1 167.18 CG2 167.06 CD1 167.51
E HIS - 79 -83.6 144.6 N 166.54 CA 166.24 C 165.95 O 165.89 CB 166.34 CG 166.45 ND1 166.42 CD2 166.47 CE1 166.24 NE2 166.29
E ILE - 0 -40.9 132.3 N 165.52 CA 165.21 C 165.08 O 165.14 CB 165.15 CG1 165.21 CG2 165.13 CD1 165.07
E GLN E 43 -135.4 163.8 N 164.86 CA 164.64 C 164.32 O 164.24 CB 164.76 CG 165.0 CD 165.48 OE1 165.54 NE2 165.54
E GLU E 4 -127.6 152.8 N 163.97 CA 163.66 C 163.5 O 163.54 CB 163.65 CG 163.36 CD 162.83 OE1 162.67 OE2 162.57
E LYS E 73 -108.1 111.5 N 163.15 CA 162.92 C 162.72 O 162.71 CB 162.91 CG 163.16 CD 163.17 CE 163.06 NZ 162.7
E ASN - 10 -92.1 116.2 N 162.53 CA 162.37 C 162.2 O 162.16 CB 162.41 CG 162.41 OD1 162.33 ND2 162.32
E PHE S 60 -55.3 112.3 N 161.99 CA 161.81 C 161.9 O 161.96 CB 161.59 CG 161.28 CD1 161.19 CD2 161.07 CE1 161.05 CE2 160.84 CZ 161.0
E GLN S 179 45.4 93.6 N 161.98 CA 162.12 C 161.93 O 161.81 CB 162.29 CG 163.29 CD 164.53 OE1 164.69 NE2 164.75
E THR S 46 172.5 178.3 N 161.84 CA 161.81 C 161.85 O 161.79 CB 161.76 OG1 161.92 CG2 161.8
E GLY - 113 -80.4 160.5 N 161.92 CA 161.86 C 161.8 O 161.74
E ILE E 81 -82.9 103.9 N 161.71 CA 161.52 C 161.65 O 161.69 CB 161.39 CG1 161.27 CG2 161.17 CD1 161.38
E PHE E 42 -73.8 140.1 N 161.75 CA 161.92 C 162.11 O 162.2 CB 161.92 CG 161.82 CD1 161.76 CD2 161.74 CE1 161.63 CE2 161.85 CZ 161.81
E VAL E 48 -79.5 111.0 N 162.34 CA 162.72 C 163.13 O 163.27 CB 162.59 CG1 162.61 CG2 162.66
E TYR - 0 -96.7 112.7 N 163.56 CA 163.92 C 164.24 O 164.27 CB 163.87 CG 163.91 CD1 163.8 CD2 163.81 CE1 163.54 CE2 163.72 CZ 163.81 OH 164.27
E GLN - 88 -84.1 166.8 N 164.67 CA 165.19 C 165.7 O 165.81 CB 165.09 CG 164.82 CD 164.36 OE1 164.22 NE2 164.06
E ASN H 2 -75.9 6.9 N 166.29 CA 166.86 C 167.34 O 167.4 CB 166.73 CG 166.73 OD1 166.37 ND2 166.98
E ASN H 14 -84.0 -61.4 N 167.92 CA 168.49 C 168.72 O 168.64 CB 168.56 CG 169.32 OD1 169.86 ND2 170.17
E ILE H 5 -38.6 -44.1 N 169.05 CA 169.28 C 169.38 O 169.31 CB 169.31 CG1 169.38 CG2 169.39 CD1 168.91
E THR H 0 -47.9 -60.7 N 169.51 CA 169.6 C 169.84 O 169.93 CB 169.53 OG1 169.33 CG2 169.37
E PRO H 9 -62.3 -19.5 N 170.03 CA 170.12 C 170.11 O 170.19 CB 170.18 CG 170.16 CD 170.1
E SER H 13 -100.0 -27.4 N 169.97 CA 169.93 C 169.95 O 169.93 CB 169.94 OG 170.1
E ALA T 0 -115.9 33.8 N 170.0 CA 169.95 C 169.92 O 169.91 CB 169.94
E MET T 27 37.9 38.2 N 169.93 CA 169.95 C 170.02 O 170.01 CB 170.0 CG 169.94 SD 169.77 CE 169.77
E LYS - 0 -93.8 -176.5 N 170.11 CA 170.07 C 170.02 O 169.94 CB 169.96 CG 169.91 CD 169.38 CE 168.98 NZ 167.92
E LEU B 5 -130.1 108.4 N 170.02 CA 170.04 C 170.06 O 170.05 CB 170.01 CG 169.98 CD1 169.83 CD2 169.88
E VAL - 0 -67.9 92.8 N 170.09 CA 170.19 C 170.3 O 170.41 CB 170.19 CG1 170.32 CG2 170.06
E PRO E 5 -148.0 140.7 N 170.3 CA 170.24 C 170.12 O 170.19 CB 170.19 CG 170.13 CD 170.27
E SER E 0 -95.6 153.2 N 169.88 CA 169.69 C 169.6 O 169.62 CB 169.74 OG 169.45
E ILE E 0 -83.7 147.3 N 169.36 CA 169.09 C 168.79 O 168.73 CB 169.13 CG1 169.22 CG2 169.01 CD1 169.6
E PRO E 2 -106.2 140.7 N 168.52 CA 168.25 C 167.85 O 167.8 CB 168.34 CG 168.49 CD 168.55
E PRO E 64 -133.9 134.9 N 167.52 CA 167.2 C 166.78 O 166.58 CB 167.26 CG 167.29 CD 167.49
E ALA E 2 -123.3 159.3 N 166.29 CA 165.74 C 165.33 O 165.26 CB 165.81
E THR E 62 -97.4 109.7 N 164.84 CA 164.51 C 164.13 O 164.02 CB 164.6 OG1 164.89 CG2 164.54
E ILE E 41 -95.5 129.6 N 163.76 CA 163.36 C 163.24 O 163.24 CB 163.29 CG1 163.3 CG2 163.07 CD1 163.5
E GLU E 104 -109.7 133.3 N 162.96 CA 162.69 C 162.32 O 162.27 CB 162.77 CG 162.92 CD 162.96 OE1 163.05 OE2 163.37
E THR E 144 -111.2 83.9 N 161.87 CA 161.52 C 161.46 O 161.59 CB 161.41 OG1 161.25 CG2 161.56
E PHE - 130 -79.8 122.8 N 161.3 CA 161.16 C 161.34 O 161.28 CB 160.85 CG 160.33 CD1 159.87 CD2 160.39 CE1 159.85 CE2 160.51 CZ 160.24
E ASN - 66 -118.9 71.7 N 161.49 CA 161.55 C 161.37 O 161.51 CB 161.68 CG 162.04 OD1 161.69 ND2 162.37
E GLU - 101 29.6 -108.8 N 160.98 CA 160.68 C 160.46 O 160.44 CB 160.74 CG 161.07 CD 161.42 OE1 161.83 OE2 161.07
E ALA - 155 73.9 109.7 N 160.26 CA 160.01 C 159.81 O 159.88 CB 160.06
E ALA S 96 56.8 120.2 N 159.53 CA 159.39 C 159.23 O 159.3 CB 159.4
E LEU - 125 -122.6 -60.6 N 158.88 CA 158.58 C 158.57 O 158.7 CB 158.44 CG 158.2 CD1 158.35 CD2 158.02
E VAL - 185 62.1 360.0 N 158.46 CA 158.41 C 158.3 O 158.48 CB 158.45 CG1 158.5 CG2 158.68
E LEU - 213 360.0 -11.9 N 150.0 CA 149.53 C 149.89 O 150.14 CB 149.1 CG 147.62 CD1 146.04 CD2 146.87
E LEU E 22 -126.4 133.3 N 150.1 CA 150.29 C 150.62 O 150.61 CB 150.06 CG 149.57 CD1 149.1 CD2 148.9
E LYS E 71 -98.3 130.6 N 150.9 CA 151.11 C 151.3 O 151.29 CB 151.16 CG 151.17 CD 150.91 CE 150.55 NZ 150.95
E ARG E 10 -135.5 100.7 N 151.62 CA 152.07 C 152.26 O 152.32 CB 152.1 CG 152.73 CD 153.75 NE 154.52 CZ 154.88 NH1 155.01 NH2 154.78
E TYR E 0 65.7 -173.5 N 152.69 CA 153.32 C 153.91 O 154.11 CB 153.37 CG 153.19 CD1 153.02 CD2 153.31 CE1 153.28 CE2 154.23 CZ 154.3 OH 154.75
E ARG E 27 -134.3 119.4 N 154.53 CA 155.21 C 155.35 O 155.5 CB 155.34 CG 156.29 CD 157.97 NE 159.66 CZ 160.83 NH1 161.57 NH2 161.16
E LEU E 0 -92.3 125.0 N 155.36 CA 155.3 C 155.43 O 155.28 CB 155.24 CG 154.59 CD1 154.05 CD2 154.29
E LYS E 1 -60.3 145.5 N 155.75 CA 156.19 C 156.34 O 156.39 CB 156.18 CG 156.53 CD 156.46 CE 155.91 NZ 155.51
E GLU - 1 -117.1 123.0 N 156.4 CA 156.26 C 156.02 O 155.79 CB 156.32 CG 156.68 CD 157.62 OE1 157.7 OE2 157.99
E SER - 0 -55.6 141.1 N 155.89 CA 155.98 C 156.02 O 156.26 CB 156.09 OG 156.23
E GLN T 0 -74.8 143.1 N 155.83 CA 155.53 C 155.07 O 155.01 CB 155.67 CG 155.94 CD 155.87 OE1 156.19 NE2 155.8
E LEU T 66 64.4 4.5 N 154.56 CA 154.07 C 153.73 O 153.88 CB 153.99 CG 153.92 CD1 154.06 CD2 154.31
E PRO S 0 -59.6 153.8 N 153.23 CA 152.96 C 152.87 O 152.77 CB 152.88 CG 152.85 CD 153.05
E ARG T 125 -42.1 -22.7 N 152.73 CA 152.52 C 152.38 O 152.46 CB 152.49 CG 152.94 CD 154.36 NE 156.08 CZ 157.37 NH1 157.92 NH2 158.43
E ILE T 25 -96.4 -40.9 N 152.3 CA 152.33 C 152.35 O 152.45 CB 152.37 CG1 152.43 CG2 152.24 CD1 152.39
E GLN S 0 -55.7 157.8 N 152.23 CA 152.16 C 151.95 O 151.94 CB 152.29 CG 152.97 CD 153.65 OE1 153.28 NE2 153.75
E ARG G 50 -67.4 -37.9 N 151.77 CA 151.79 C 151.22 O 151.25 CB 151.79 CG 152.64 CD 152.88 NE 155.52 CZ 156.79 NH1 157.26 NH2 157.27
E ALA G 2 -64.5 -24.2 N 150.67 CA 150.11 C 149.68 O 149.5 CB 150.26
E ASP G 27 -36.9 -36.6 N 149.26 CA 149.19 C 149.2 O 149.58 CB 149.13 CG 148.89 OD1 148.53 OD2 148.41
E PRO S 143 -138.8 97.7 N 149.05 CA 148.81 C 148.45 O 148.45 CB 148.88 CG 149.12 CD 149.08
E VAL - 33 -148.9 134.4 N 148.05 CA 147.78 C 147.54 O 147.4 CB 147.92 CG1 148.01 CG2 147.68
E ALA - 79 -72.4 144.1 N 147.47 CA 147.44 C 147.32 O 147.31 CB 147.61
E LEU H 109 -30.1 -65.5 N 147.23 CA 147.41 C 147.32 O 147.53 CB 147.53 CG 148.28 CD1 148.81 CD2 148.79
E TYR H 69 -34.2 -58.3 N 147.06 CA 146.66 C 146.39 O 146.16 CB 146.79 CG 146.62 CD1 146.01 CD2 146.89 CE1 146.14 CE2 147.01 CZ 146.83 OH 147.07
E LEU H 73 -50.6 -46.4 N 146.4 CA 146.67 C 146.96 O 147.06 CB 146.73 CG 146.65 CD1 145.93 CD2 146.46
E GLY H 5 -56.8 -48.1 N 147.34 CA 148.07 C 148.56 O 148.65
E LEU H 7 -57.4 -46.7 N 149.07 CA 149.69 C 150.37 O 150.59 CB 149.39 CG 149.11 CD1 149.28 CD2 148.59
E LYS H 146 -50.6 -41.7 N 151.16 CA 151.89 C 152.35 O 152.47 CB 151.87 CG 152.5 CD 153.05 CE 153.75 NZ 153.99
E ARG T 39 -86.0 3.8 N 152.84 CA 153.26 C 153.1 O 153.28 CB 153.5 CG 154.63 CD 156.18 NE 156.86 CZ 157.03 NH1 157.08 NH2 157.35
E GLY T 16 62.8 19.1 N 152.85 CA 152.78 C 152.79 O 152.91
E GLU - 1 -100.9 121.9 N 152.63 CA 152.57 C 152.37 O 152.66 CB 152.38 CG 152.71 CD 153.04 OE1 153.94 OE2 153.32
E VAL - 0 -66.3 124.1 N 151.76 CA 151.0 C 150.61 O 150.57 CB 151.03 CG1 151.04 CG2 151.08
E VAL T 27 -65.1 27.4 N 150.11 CA 149.6 C 149.77 O 149.64 CB 149.36 CG1 148.95 CG2 148.93
E LYS T 29 -122.7 -4.7 N 150.12 CA 150.45 C 150.67 O 150.67 CB 150.52 CG 150.27 CD 150.6 CE 150.98 NZ 150.64
E ILE - 8 -73.7 134.6 N 151.09 CA 151.59 C 152.12 O 152.03 CB 151.45 CG1 151.4 CG2 151.83 CD1 151.34
E ILE - 20 -107.3 -13.2 N 152.89 CA 153.66 C 154.11 O 154.21 CB 153.76 CG1 154.07 CG2 153.98 CD1 155.35
E ARG - 2 89.6 -136.7 N 154.87 CA 155.67 C 155.65 O 155.52 CB 155.93 CG 157.9 CD 161.4 NE 164.1 CZ 165.92 NH1 166.25 NH2 166.08
E LYS - 0 71.2 24.1 N 155.74 CA 155.77 C 155.82 O 155.76 CB 155.67 CG 155.79 CD 155.58 CE 155.36 NZ 154.64
E SER - 0 -141.3 176.0 N 155.92 CA 156.0 C 155.72 O 155.52 CB 156.25 OG 156.77
E GLU E 0 -122.1 161.3 N 155.39 CA 155.03 C 154.42 O 154.37 CB 154.97 CG 155.48 CD 155.61 OE1 155.68 OE2 156.59
E THR E 0 -115.7 116.3 N 153.89 CA 153.73 C 153.5 O 153.53 CB 153.8 OG1 154.2 CG2 153.83
E SER B 6 -122.0 89.9 N 153.31 CA 153.25 C 153.11 O 153.15 CB 153.35 OG 153.51
E GLY S 64 64.6 67.5 N 152.87 CA 152.29 C 151.91 O 151.84
E ARG S 22 59.1 15.5 N 151.62 CA 151.77 C 151.22 O 151.16 CB 151.62 CG 152.73 CD 153.25 NE 157.32 CZ 159.28 NH1 160.12 NH2 160.1
E TYR - 35 -127.3 136.2 N 150.93 CA 150.75 C 150.5 O 150.57 CB 151.04 CG 151.17 CD1 151.05 CD2 150.75 CE1 150.8 CE2 151.06 CZ 151.25 OH 151.89
E ALA E 18 -90.3 111.0 N 150.18 CA 149.91 C 149.72 O 149.7 CB 150.08
E SER E 15 -114.1 127.6 N 149.58 CA 149.62 C 149.72 O 149.76 CB 149.7 OG 148.99
E TYR B 1 -110.5 138.9 N 149.71 CA 149.76 C 149.69 O 149.79 CB 149.98 CG 150.48 CD1 150.62 CD2 150.94 CE1 150.86 CE2 150.78 CZ 150.73 OH 151.19
E ARG - 1 -87.8 116.4 N 149.56 CA 149.51 C 149.91 O 150.34 CB 149.23 CG 148.06 CD 146.17 NE 145.3 CZ 143.98 NH1 143.79 NH2 142.73
E ILE - 9 -93.9 110.7 N 149.95 CA 149.93 C 150.17 O 150.19 CB 149.9 CG1 149.65 CG2 150.03 CD1 149.66
E CYS E 2 -43.2 140.7 N 150.55 CA 150.97 C 151.35 O 151.57 CB 150.92 SG 150.64
E MET E 27 -113.2 137.1 N 151.65 CA 152.06 C 152.3 O 152.33 CB 151.98 CG 152.43 SD 154.29 CE 153.2 OXT 152.54
F GLU - 10 -86.0 151.9 N 177.0 CA 177.0 C 177.0 O 176.8 CB 177.0 CG 177.0 CD 177.0 OE1 177.0 OE2 177.0
F LYS - 1 -139.5 139.8 N 176.95 CA 176.95 C 176.5 O 176.47 CB 177.15 CG 177.96 CD 179.12 CE 179.79 NZ 180.07
F ALA - 28 -57.9 115.5 N 175.77 CA 175.03 C 174.51 O 174.58 CB 175.0
F ILE - 0 -107.3 28.9 N 173.73 CA 172.97 C 172.36 O 172.37 CB 173.0 CG1 173.04 CG2 173.04 CD1 172.96
F PRO T 53 -54.1 -70.3 N 171.76 CA 171.2 C 170.59 O 170.38 CB 171.23 CG 171.53 CD 171.75
F LYS T 44 -87.7 19.3 N 169.99 CA 169.43 C 168.8 O 168.65 CB 169.55 CG 169.75 CD 169.7 CE 169.92 NZ 169.67
F ASP G 0 -45.2 -23.7 N 168.07 CA 167.39 C 166.75 O 166.75 CB 167.52 CG 167.8 OD1 168.22 OD2 167.73
F GLN G 87 -72.2 -8.5 N 165.93 CA 165.02 C 164.23 O 164.17 CB 165.09 CG 164.82 CD 164.95 OE1 164.63 NE2 165.28
F ARG G 110 -119.6 56.0 N 163.2 CA 162.33 C 161.69 O 161.71 CB 162.43 CG 162.4 CD 161.94 NE 161.84 CZ 161.68 NH1 161.57 NH2 161.97
F ALA S 6 -158.8 117.0 N 160.83 CA 159.95 C 159.25 O 159.42 CB 160.01
F THR - 68 -62.5 144.8 N 158.11 CA 157.07 C 156.62 O 156.44 CB 156.98 OG1 156.86 CG2 156.46
F THR - 41 -62.4 139.5 N 156.15 CA 155.7 C 155.4 O 155.31 CB 155.69 OG1 155.77 CG2 155.52
F PRO T 31 -62.5 -29.8 N 155.11 CA 154.99 C 155.02 O 155.17 CB 154.78 CG 154.78 CD 155.12
F TYR T 98 -59.6 -20.9 N 154.96 CA 154.88 C 154.62 O 154.77 CB 155.12 CG 155.24 CD1 155.28 CD2 155.4 CE1 155.58 CE2 155.85 CZ 155.76 OH 155.62
F MET T 92 -102.0 -31.5 N 154.11 CA 153.8 C 153.46 O 153.75 CB 153.75 CG 153.74 SD 154.17 CE 154.15
F THR - 24 -59.2 168.3 N 152.81 CA 152.12 C 151.93 O 151.86 CB 152.02 OG1 151.88 CG2 151.56
F LYS - 202 -107.8 -4.9 N 151.69 CA 151.53 C 151.5 O 151.26 CB 151.51 CG 151.39 CD 151.24 CE 151.08 NZ 151.35
F TYR S 45 -82.6 157.0 N 151.49 CA 151.54 C 151.69 O 151.84 CB 151.4 CG 151.11 CD1 150.72 CD2 151.1 CE1 150.71 CE2 151.04 CZ 151.13 OH 151.79
F GLU S 192 -78.9 112.2 N 151.6 CA 151.54 C 151.41 O 151.3 CB 151.59 CG 151.96 CD 151.7 OE1 151.92 OE2 150.56
F ARG S 102 68.3 -54.5 N 151.32 CA 151.21 C 150.82 O 150.9 CB 151.27 CG 151.52 CD 151.31 NE 151.56 CZ 152.35 NH1 152.61 NH2 153.08
F ALA - 55 -178.1 138.7 N 150.21 CA 149.84 C 149.43 O 149.48 CB 150.13
F ARG - 33 -128.4 175.3 N 148.53 CA 147.61 C 146.8 O 146.66 CB 147.74 CG 148.35 CD 149.08 NE 149.65 CZ 150.02 NH1 149.82 NH2 150.72
F ILE T 74 -63.2 -6.4 N 146.01 CA 145.48 C 145.23 O 145.24 CB 145.34 CG1 145.18 CG2 145.21 CD1 145.84
F LEU T 109 -95.0 -7.1 N 144.8 CA 144.62 C 144.58 O 144.71 CB 144.64 CG 145.16 CD1 146.07 CD2 145.35
F GLY T 0 -142.4 -16.5 N 144.57 CA 144.4 C 144.34 O 144.37
F THR E 1 -142.8 141.0 N 144.27 CA 144.02 C 143.92 O 143.96 CB 143.99 OG1 143.95 CG2 144.03
F ARG E 5 -113.8 134.0 N 143.8 CA 143.83 C 143.74 O 143.64 CB 143.88 CG 144.71 CD 146.01 NE 146.39 CZ 146.51 NH1 146.58 NH2 146.56
F ALA E 29 -106.4 121.6 N 143.86 CA 144.18 C 144.49 O 144.58 CB 144.09
F LEU E 1 -114.2 145.9 N 144.82 CA 145.12 C 145.74 O 145.87 CB 144.87 CG 144.35 CD1 143.48 CD2 144.06
F GLN E 23 -127.0 125.1 N 146.55 CA 147.3 C 147.79 O 147.64 CB 147.28 CG 147.51 CD 148.33 OE1 148.39 NE2 149.04
F ILE - 1 -93.4 167.5 N 148.61 CA 149.55 C 150.36 O 150.43 CB 149.45 CG1 149.54 CG2 149.52 CD1 149.93
F SER - 128 179.9 82.6 N 151.56 CA 152.9 C 153.73 O 153.83 CB 152.89 OG 153.33
F MET E 19 -109.3 127.2 N 154.78 CA 155.95 C 156.26 O 156.4 CB 155.9 CG 156.35 SD 157.07 CE 156.69
F ASN E 103 -87.7 159.4 N 156.71 CA 156.99 C 157.34 O 157.41 CB 156.89 CG 156.59 OD1 155.67 ND2 156.59
F ALA - 0 -77.1 165.2 N 157.77 CA 158.29 C 158.74 O 158.78 CB 158.19
F PRO - 138 -156.0 -48.1 N 159.26 CA 159.66 C 159.97 O 159.88 CB 159.76 CG 159.65 CD 159.3
F VAL S 37 -75.7 165.5 N 160.44 CA 160.95 C 161.33 O 161.54 CB 160.96 CG1 160.98 CG2 161.18
F PHE S 165 -73.7 -32.3 N 161.76 CA 162.24 C 162.41 O 162.53 CB 162.41 CG 162.86 CD1 163.15 CD2 163.2 CE1 163.22 CE2 163.55 CZ 163.35
F VAL S 79 -74.8 163.4 N 162.64 CA 162.94 C 163.31 O 163.37 CB 162.86 CG1 162.81 CG2 162.82
F ASP - 64 -58.8 141.1 N 163.76 CA 164.18 C 164.39 O 164.49 CB 164.24 CG 164.44 OD1 164.37 OD2 164.6
F LEU - 29 -119.8 73.7 N 164.59 CA 164.74 C 164.84 O 164.85 CB 164.73 CG 164.77 CD1 164.83 CD2 164.79
F GLU - 41 -59.3 154.4 N 164.93 CA 164.99 C 164.84 O 164.85 CB 165.17 CG 165.59 CD 166.36 OE1 166.11 OE2 166.75
F GLY E 1 -121.6 117.7 N 164.65 CA 164.46 C 164.3 O 164.38
F GLU E 37 -111.7 162.9 N 164.03 CA 163.81 C 163.49 O 163.54 CB 163.93 CG 164.25 CD 164.54 OE1 164.29 OE2 164.57
F THR G 0 -68.8 -9.6 N 163.06 CA 162.85 C 162.69 O 162.69 CB 162.91 OG1 163.19 CG2 162.82
F ASP G 109 -62.7 -27.8 N 162.44 CA 162.31 C 161.93 O 161.96 CB 162.5 CG 163.4 OD1 164.28 OD2 163.89
F PRO G 74 -76.3 -14.4 N 161.61 CA 161.43 C 161.46 O 161.67 CB 161.21 CG 161.51 CD 161.68
F LEU - 19 -62.3 152.6 N 161.34 CA 161.19 C 161.09 O 160.94 CB 161.21 CG 161.45 CD1 161.9 CD2 161.18
F ARG E 71 -125.5 139.9 N 161.19 CA 161.42 C 161.08 O 161.25 CB 161.5 CG 162.11 CD 162.32 NE 164.79 CZ 165.89 NH1 165.81 NH2 166.57
F ILE E 62 -88.7 134.3 N 160.65 CA 160.14 C 160.16 O 160.22 CB 159.92 CG1 159.89 CG2 159.49 CD1 160.26
F ALA - 94 -120.0 -37.3 N 160.03 CA 159.96 C 160.02 O 159.92 CB 159.94
F MET S 18 -53.5 151.4 N 160.3 CA 160.91 C 160.68 O 160.65 CB 160.9 CG 161.79 SD 162.25 CE 161.81
F LYS - 97 -74.3 130.2 N 160.68 CA 160.64 C 160.43 O 160.49 CB 160.52 CG 160.62 CD 160.94 CE 161.6 NZ 161.61
F GLU - 41 -89.4 -5.9 N 160.12 CA 159.72 C 159.48 O 159.46 CB 159.75 CG 159.67 CD 159.68 OE1 159.48 OE2 159.73
F LEU S 128 57.0 -20.3 N 159.26 CA 159.15 C 159.11 O 159.01 CB 159.15 CG 158.92 CD1 158.7 CD2 159.2
F ALA S 71 113.6 74.2 N 159.1 CA 159.26 C 159.33 O 159.46 CB 159.27
F GLU - 35 -157.0 161.3 N 159.3 CA 159.21 C 159.03 O 159.02 CB 159.26 CG 159.74 CD 160.46 OE1 160.37 OE2 160.67
F LYS S 60 -86.6 82.2 N 158.8 CA 158.63 C 158.49 O 158.45 CB 158.66 CG 158.94 CD 159.45 CE 159.57 NZ 159.56
F LYS - 0 -150.4 138.4 N 158.41 CA 158.28 C 158.16 O 158.16 CB 158.26 CG 158.31 CD 158.47 CE 158.35 NZ 157.72
F ILE - 0 82.2 46.5 N 157.95 CA 157.67 C 157.78 O 157.63 CB 157.51 CG1 156.92 CG2 157.46 CD1 156.1
F PRO - 80 -119.0 92.2 N 157.89 CA 157.95 C 157.92 O 157.98 CB 158.08 CG 158.14 CD 157.92
F LEU - 19 -32.8 115.9 N 157.83 CA 157.63 C 157.62 O 157.78 CB 157.5 CG 157.11 CD1 156.79 CD2 156.78
F VAL - 24 -67.3 118.3 N 157.45 CA 157.25 C 157.06 O 156.95 CB 157.32 CG1 157.47 CG2 157.56
F ILE - 63 -112.0 106.6 N 156.95 CA 156.93 C 156.97 O 156.89 CB 156.88 CG1 156.63 CG2 156.82 CD1 155.82
F ARG - 72 -101.0 -19.3 N 157.05 CA 157.07 C 157.12 O 157.07 CB 157.08 CG 156.95 CD 156.08 NE 154.95 CZ 154.47 NH1 154.13 NH2 154.57
F ARG S 27 -60.3 140.8 N 157.07 CA 157.1 C 157.4 O 157.45 CB 156.85 CG 156.33 CD 155.72 NE 155.52 CZ 155.5 NH1 155.07 NH2 155.47
F TYR T 182 -59.2 -47.4 N 157.82 CA 158.39 C 158.47 O 158.72 CB 158.83 CG 159.68 CD1 160.21 CD2 160.18 CE1 160.36 CE2 160.19 CZ 160.24 OH 160.13
F LEU T 120 -76.3 -15.0 N 158.45 CA 158.5 C 158.84 O 159.08 CB 158.27 CG 157.96 CD1 158.02 CD2 157.82
F PRO S 31 119.1 -5.5 N 159.11 CA 159.29 C 159.44 O 159.47 CB 159.38 CG 159.37 CD 159.21
F ASP - 33 -123.3 81.0 N 159.51 CA 159.52 C 159.56 O 159.68 CB 159.54 CG 159.53 OD1 159.8 OD2 158.61
F GLY - 0 -72.7 134.2 N 159.51 CA 159.5 C 159.59 O 159.49
F SER S 2 72.2 106.1 N 159.91 CA 160.44 C 160.71 O 160.74 CB 160.47 OG 160.88
F PHE E 5 -80.0 101.4 N 161.05 CA 161.31 C 161.25 O 161.26 CB 161.55 CG 162.33 CD1 162.87 CD2 163.39 CE1 163.24 CE2 163.82 CZ 163.2
F GLU E 0 -65.7 -46.6 N 161.18 CA 161.06 C 160.91 O 160.7 CB 161.09 CG 161.62 CD 162.42 OE1 162.78 OE2 163.46
F ASP E 0 178.4 142.4 N 160.77 CA 160.65 C 160.54 O 160.55 CB 160.69 CG 160.78 OD1 160.59 OD2 161.02
F TRP - 8 -96.7 160.5 N 160.36 CA 160.07 C 160.19 O 160.06 CB 159.65 CG 159.11 CD1 158.64 CD2 158.67 NE1 158.6 CE2 158.53 CE3 158.7 CZ2 158.6 CZ3 158.59 CH2 158.64
F SER - 0 -147.3 124.9 N 160.45 CA 160.92 C 161.22 O 161.15 CB 161.02 OG 161.37
F VAL - 62 -77.7 -79.8 N 161.78 CA 162.34 C 162.7 O 162.6 CB 162.34 CG1 162.42 CG2 162.45
F GLU S 103 -123.6 -78.6 N 163.26 CA 164.01 C 164.17 O 164.45 CB 164.14 CG 164.56 CD 164.45 OE1 164.21 OE2 165.08
F GLU S 50 -93.9 6.1 N 164.2 CA 164.21 C 164.28 O 164.11 CB 164.13 CG 163.97 CD 163.93 OE1 163.74 OE2 164.05
F LEU - 16 -51.8 132.9 N 164.53 CA 164.87 C 165.5 O 165.35 CB 164.57 CG 163.79 CD1 163.53 CD2 162.55
F ILE E 76 -117.9 156.9 N 166.5 CA 167.66 C 168.71 O 169.1 CB 167.41 CG1 167.64 CG2 167.31 CD1 168.61
F VAL E 1 -157.5 119.0 N 169.79 CA 170.89 C 171.85 O 171.85 CB 170.81 CG1 170.76 CG2 171.06
F ASP E 61 -142.3 106.3 N 173.29 CA 174.72 C 175.36 O 175.39 CB 175.04 CG 175.87 OD1 177.01 OD2 176.13
F LEU E 0 -130.8 154.9 N 176.21 CA 177.13 C 177.6 O 177.94 CB 177.14 CG 177.29 CD1 177.28 CD2 177.32 OXT 177.86
H THR S 135 -39.7 -52.5 N 180.74 CA 180.74 C 180.65 O 180.75 CB 180.74 OG1 181.05 CG2 180.41
H ARG T 126 -74.3 117.1 N 180.37 CA 179.97 C 179.39 O 179.35 CB 180.12 CG 181.04 CD 183.04 NE 184.35 CZ 185.02 NH1 185.31 NH2 185.32
H SER T 149 96.5 32.1 N 178.66 CA 177.98 C 177.42 O 177.39 CB 178.13 OG 178.2
H TRP - 39 -87.5 130.5 N 176.7 CA 176.13 C 175.74 O 175.66 CB 176.18 CG 176.2 CD1 176.48 CD2 175.96 NE1 176.33 CE2 176.05 CE3 176.04 CZ2 176.12 CZ3 176.32 CH2 176.3
H ARG - 23 -126.9 49.2 N 175.43 CA 175.27 C 175.0 O 175.09 CB 175.43 CG 175.77 CD 176.35 NE 176.97 CZ 177.47 NH1 177.49 NH2 177.85
H PRO S 8 -123.4 -153.3 N 174.77 CA 174.55 C 174.28 O 174.17 CB 174.69 CG 174.94 CD 174.86
H PRO - 17 -98.9 115.3 N 174.11 CA 173.93 C 173.78 O 174.03 CB 173.95 CG 174.2 CD 174.16
H GLN S 26 -66.8 -25.6 N 173.4 CA 172.96 C 172.61 O 172.6 CB 172.96 CG 173.22 CD 173.76 OE1 173.88 NE2 173.85
H ALA B 45 -67.3 128.9 N 172.07 CA 171.38 C 170.87 O 170.78 CB 171.41
H GLY - 1 -69.2 129.3 N 170.3 CA 169.56 C 169.04 O 169.01
H ASP - 1 -73.2 155.6 N 168.48 CA 167.91 C 167.44 O 167.51 CB 167.95 CG 168.17 OD1 168.56 OD2 168.4
H ARG H 55 -54.4 -42.1 N 166.74 CA 166.02 C 165.3 O 165.16 CB 166.2 CG 166.48 CD 167.21 NE 167.46 CZ 167.23 NH1 166.95 NH2 166.9
H SER H 0 -67.6 -47.4 N 164.43 CA 163.55 C 162.84 O 162.7 CB 163.68 OG 163.78
H LEU H 0 -46.4 -58.4 N 161.98 CA 161.11 C 160.41 O 160.37 CB 161.21 CG 161.16 CD1 161.25 CD2 161.08
H ALA H 47 -65.9 -36.0 N 159.46 CA 158.67 C 158.23 O 158.2 CB 158.5
H ASP H 1 -60.7 -21.6 N 157.74 CA 157.24 C 156.89 O 157.03 CB 157.21 CG 157.11 OD1 156.52 OD2 156.57
H ASP H 33 -97.3 -37.6 N 156.21 CA 155.54 C 155.03 O 155.03 CB 155.62 CG 155.73 OD1 155.0 OD2 156.22
H TYR H 1 -57.5 -53.7 N 154.34 CA 153.47 C 152.93 O 152.75 CB 153.43 CG 153.39 CD1 153.27 CD2 153.51 CE1 153.43 CE2 153.47 CZ 153.47 OH 153.37
H ASP H 0 -60.5 -37.0 N 152.39 CA 151.84 C 151.3 O 151.17 CB 151.91 CG 151.82 OD1 151.13 OD2 152.0
H TYR H 1 -68.0 -42.1 N 150.68 CA 150.11 C 149.81 O 149.93 CB 150.06 CG 149.67 CD1 149.49 CD2 149.52 CE1 150.06 CE2 149.97 CZ 150.13 OH 149.82
H VAL H 37 -71.6 -39.5 N 149.28 CA 148.87 C 149.02 O 149.22 CB 148.64 CG1 148.0 CG2 148.47
H MET H 3 -68.7 -31.7 N 148.96 CA 148.86 C 148.95 O 148.97 CB 148.81 CG 148.67 SD 148.89 CE 148.44
H TYR H 0 -64.9 -34.0 N 148.99 CA 149.04 C 149.3 O 149.2 CB 148.75 CG 148.36 CD1 147.96 CD2 148.31 CE1 147.98 CE2 148.37 CZ 148.26 OH 148.28
H GLY H 72 -69.1 -33.8 N 149.75 CA 150.51 C 150.99 O 151.02
H THR H 68 -72.0 -59.1 N 151.39 CA 151.82 C 152.16 O 152.18 CB 151.76 OG1 151.9 CG2 151.75
H ALA H 0 -49.9 -41.1 N 152.57 CA 153.03 C 153.4 O 153.47 CB 153.03
H TYR H 5 -56.4 -35.7 N 153.93 CA 154.39 C 154.84 O 154.94 CB 154.11 CG 153.75 CD1 153.43 CD2 153.37 CE1 152.98 CE2 153.17 CZ 153.13 OH 153.24
H LYS T 100 -92.7 42.0 N 155.34 CA 156.02 C 156.21 O 156.29 CB 156.33 CG 157.14 CD 157.89 CE 157.67 NZ 158.19
H PHE T 61 33.9 21.3 N 156.43 CA 156.63 C 156.83 O 156.92 CB 156.57 CG 156.55 CD1 156.62 CD2 156.41 CE1 156.74 CE2 156.33 CZ 156.6
H GLU - 38 -67.2 138.9 N 156.97 CA 157.13 C 157.14 O 157.17 CB 157.07 CG 157.81 CD 158.79 OE1 158.97 OE2 159.18
H GLU - 98 -21.2 129.4 N 157.11 CA 157.06 C 157.02 O 157.01 CB 157.05 CG 157.37 CD 157.49 OE1 157.34 OE2 157.32
H VAL - 37 -98.7 143.7 N 157.03 CA 157.04 C 157.18 O 157.25 CB 156.99 CG1 156.7 CG2 156.92
H SER - 90 -108.8 32.8 N 157.34 CA 157.5 C 157.57 O 157.52 CB 157.58 OG 157.23
H LYS S 23 -161.4 154.9 N 157.64 CA 157.74 C 157.47 O 157.42 CB 157.79 CG 158.21 CD 158.23 CE 159.0 NZ 159.35
H ASP - 142 -55.1 116.0 N 157.27 CA 157.12 C 156.89 O 156.78 CB 157.22 CG 157.59 OD1 157.96 OD2 157.99
H LEU - 94 -82.6 108.3 N 156.66 CA 156.43 C 156.1 O 156.2 CB 156.53 CG 156.58 CD1 155.82 CD2 156.52
H ILE - 158 -86.2 73.5 N 155.64 CA 155.21 C 154.8 O 154.81 CB 155.31 CG1 155.3 CG2 155.5 CD1 155.2
H ALA S 72 65.0 -14.2 N 154.24 CA 153.73 C 153.35 O 153.44 CB 153.76
H VAL - 60 -67.4 134.1 N 152.73 CA 152.11 C 151.81 O 151.77 CB 152.02 CG1 151.98 CG2 151.97
H TYR - 82 -141.1 23.5 N 151.42 CA 150.94 C 150.67 O 150.75 CB 150.81 CG 150.59 CD1 150.36 CD2 150.6 CE1 150.58 CE2 150.6 CZ 150.64 OH 150.58
H TYR - 63 -104.6 116.1 N 150.18 CA 149.73 C 149.47 O 149.36 CB 149.65 CG 149.4 CD1 149.26 CD2 149.08 CE1 149.22 CE2 149.16 CZ 149.26 OH 149.26
H SER H 11 -35.1 -59.3 N 149.23 CA 149.06 C 148.97 O 148.8 CB 149.14 OG 148.6
H PHE H 17 -57.9 -42.8 N 148.9 CA 148.86 C 148.93 O 148.88 CB 148.81 CG 148.69 CD1 148.57 CD2 148.81 CE1 148.65 CE2 148.86 CZ 148.73
H GLY H 130 -68.5 -31.7 N 149.04 CA 149.33 C 149.55 O 149.45
H GLY H 8 -63.9 -48.9 N 149.77 CA 150.19 C 150.49 O 150.59
H LEU H 0 -52.8 -32.0 N 150.61 CA 150.67 C 151.07 O 151.08 CB 150.38 CG 149.85 CD1 149.95 CD2 149.45
H LEU H 55 -65.6 -44.3 N 151.63 CA 152.16 C 152.83 O 152.84 CB 151.88 CG 151.29 CD1 151.13 CD2 150.46
H MET H 59 -67.8 -32.7 N 153.64 CA 154.58 C 154.98 O 154.96 CB 154.45 CG 154.95 SD 155.45 CE 155.83
H ARG H 0 -71.4 -39.9 N 155.75 CA 156.62 C 157.05 O 157.06 CB 156.57 CG 156.92 CD 157.03 NE 157.17 CZ 157.2 NH1 157.29 NH2 157.46
H LEU H 12 -73.6 -19.6 N 157.8 CA 158.6 C 159.29 O 159.41 CB 158.5 CG 158.49 CD1 158.38 CD2 158.51
H GLU H 70 -65.9 -56.8 N 160.07 CA 160.85 C 161.25 O 161.3 CB 160.76 CG 161.2 CD 161.38 OE1 161.54 OE2 162.56
H GLY T 94 -87.0 16.6 N 161.91 CA 162.81 C 163.43 O 163.56
H ASN T 62 55.5 31.1 N 163.97 CA 164.53 C 164.98 O 164.86 CB 164.51 CG 164.8 OD1 164.87 ND2 165.35
H TYR - 134 -109.5 52.8 N 165.76 CA 166.64 C 166.91 O 167.04 CB 167.01 CG 167.72 CD1 168.2 CD2 168.18 CE1 168.26 CE2 168.31 CZ 168.12 OH 167.88
H ARG - 3 -123.5 130.7 N 167.19 CA 167.41 C 167.62 O 167.42 CB 167.39 CG 167.67 CD 168.09 NE 168.5 CZ 168.7 NH1 168.95 NH2 168.58
H ASN - 23 -98.0 65.8 N 168.06 CA 168.43 C 168.81 O 168.83 CB 168.29 CG 168.02 OD1 167.86 ND2 167.45
H LEU - 19 -143.8 120.9 N 169.21 CA 169.52 C 169.69 O 169.77 CB 169.51 CG 169.44 CD1 169.21 CD2 169.13
H ASN E 20 -95.5 142.3 N 169.79 CA 169.93 C 169.89 O 170.07 CB 170.0 CG 170.52 OD1 170.76 ND2 171.1
H ASN E 0 -97.1 129.1 N 169.72 CA 169.51 C 169.32 O 169.3 CB 169.54 CG 169.6 OD1 170.23 ND2 169.27
H LEU E 59 -97.7 116.2 N 169.08 CA 168.85 C 168.58 O 168.54 CB 168.94 CG 169.36 CD1 169.65 CD2 169.39
H LYS E 1 -103.3 121.1 N 168.26 CA 167.95 C 167.62 O 167.48 CB 168.07 CG 168.23 CD 168.09 CE 168.17 NZ 168.02
H GLN E 83 -97.1 113.0 N 167.16 CA 166.6 C 166.04 O 165.98 CB 166.54 CG 166.9 CD 167.03 OE1 167.45 NE2 167.44
H GLU - 8 -68.9 166.2 N 165.41 CA 164.65 C 164.05 O 164.02 CB 164.7 CG 164.56 CD 164.48 OE1 164.23 OE2 164.38
H ASN T 39 -72.1 -32.9 N 163.08 CA 162.14 C 161.15 O 160.97 CB 162.5 CG 163.08 OD1 163.27 ND2 163.86
H ALA T 78 -62.0 -28.1 N 160.05 CA 158.99 C 158.25 O 158.22 CB 158.98
H TYR S 43 136.2 -24.7 N 157.22 CA 156.18 C 155.54 O 155.46 CB 156.19 CG 156.16 CD1 156.22 CD2 156.28 CE1 156.55 CE2 156.41 CZ 156.49 OH 156.34
H LEU - 3 -70.7 174.5 N 154.67 CA 153.84 C 153.42 O 153.34 CB 153.71 CG 153.26 CD1 153.27 CD2 152.88
H LEU E 26 -148.5 163.8 N 152.9 CA 152.42 C 152.07 O 152.03 CB 152.44 CG 152.37 CD1 152.28 CD2 152.39
H ILE E 2 -126.1 143.1 N 151.66 CA 151.36 C 151.3 O 151.39 CB 151.26 CG1 151.13 CG2 151.37 CD1 151.18
H ARG E 47 -115.7 120.4 N 151.15 CA 151.02 C 150.97 O 150.8 CB 151.06 CG 151.04 CD 150.66 NE 150.63 CZ 150.84 NH1 150.8 NH2 150.96
H ARG E 21 -124.4 137.3 N 150.97 CA 151.0 C 151.0 O 150.94 CB 150.96 CG 150.85 CD 150.62 NE 150.18 CZ 150.02 NH1 149.51 NH2 150.11 OXT 151.03
I THR - 98 360.0 -26.4 N 152.12 CA 152.26 C 152.51 O 152.55 CB 152.13 OG1 152.26 CG2 151.8
I THR - 127 107.7 163.2 N 152.75 CA 152.86 C 152.7 O 152.85 CB 152.94 OG1 153.29 CG2 152.86
I PHE E 93 -107.2 164.8 N 152.26 CA 151.81 C 151.35 O 151.27 CB 151.9 CG 152.28 CD1 152.69 CD2 152.57 CE1 152.59 CE2 152.5 CZ 152.29
I ARG E 41 -131.0 -19.3 N 150.7 CA 150.0 C 149.34 O 149.15 CB 150.07 CG 150.14 CD 150.15 NE 150.6 CZ 151.05 NH1 151.19 NH2 151.44
I PHE E 16 -152.4 147.8 N 148.57 CA 147.8 C 147.16 O 147.07 CB 147.95 CG 148.0 CD1 148.08 CD2 148.15 CE1 148.05 CE2 148.03 CZ 148.14
I CYS E 111 -156.6 120.1 N 146.11 CA 145.48 C 145.16 O 145.17 CB 145.22 SG 145.22
I ARG E 6 -162.2 170.8 N 144.79 CA 144.24 C 143.88 O 143.67 CB 144.29 CG 144.21 CD 144.04 NE 143.32 CZ 142.77 NH1 142.49 NH2 142.39
I ASP E 74 -117.7 130.0 N 143.56 CA 143.39 C 143.25 O 143.44 CB 143.38 CG 143.5 OD1 143.75 OD2 143.48
I CYS E 3 -119.0 150.7 N 142.89 CA 142.41 C 142.13 O 142.09 CB 142.34 SG 142.09
I ASN E 85 -109.9 106.0 N 141.7 CA 141.16 C 140.83 O 140.64 CB 141.13 CG 140.66 OD1 139.66 ND2 140.89
I ASN E 1 -61.4 123.6 N 140.54 CA 140.31 C 140.33 O 140.26 CB 140.21 CG 139.79 OD1 139.23 ND2 139.21
I MET E 75 -117.2 -6.2 N 140.37 CA 140.55 C 140.03 O 139.74 CB 140.72 CG 141.16 SD 141.66 CE 141.9
I LEU E 107 -164.7 115.1 N 139.74 CA 139.61 C 139.51 O 139.66 CB 139.62 CG 139.34 CD1 138.96 CD2 138.97
I TYR E 52 -95.3 136.9 N 139.13 CA 138.67 C 138.5 O 138.54 CB 138.6 CG 138.45 CD1 138.26 CD2 138.46 CE1 138.41 CE2 138.51 CZ 138.64 OH 138.86
I PRO E 71 -139.1 105.9 N 138.4 CA 138.4 C 138.39 O 138.39 CB 138.31 CG 138.53 CD 138.51
I ARG - 89 -87.3 32.5 N 138.38 CA 138.29 C 137.96 O 137.77 CB 138.44 CG 139.4 CD 141.41 NE 142.92 CZ 143.72 NH1 144.18 NH2 144.02
I GLU T 42 -48.3 91.9 N 137.75 CA 137.62 C 137.51 O 137.46 CB 137.57 CG 137.53 CD 137.6 OE1 137.68 OE2 137.64
I ASP T 174 55.6 27.3 N 137.34 CA 137.27 C 137.18 O 137.22 CB 137.31 CG 137.63 OD1 137.9 OD2 137.78
I LYS - 45 -122.7 -173.8 N 137.12 CA 137.08 C 136.9 O 136.87 CB 137.11 CG 137.28 CD 137.25 CE 137.59 NZ 137.53
I GLU S 124 -146.1 -23.1 N 136.67 CA 136.51 C 136.23 O 136.18 CB 136.56 CG 136.85 CD 136.91 OE1 136.98 OE2 137.25
I ASN S 49 -113.8 -17.1 N 135.97 CA 135.73 C 135.55 O 135.55 CB 135.76 CG 135.62 OD1 135.64 ND2 135.23
I ASN - 3 -121.9 145.4 N 135.28 CA 134.95 C 134.82 O 134.8 CB 134.81 CG 134.39 OD1 133.86 ND2 134.27
I ARG E 8 -134.3 136.7 N 134.64 CA 134.49 C 134.54 O 134.41 CB 134.59 CG 134.27 CD 134.1 NE 132.73 CZ 131.94 NH1 131.53 NH2 131.48
I LEU E 39 -81.0 129.5 N 134.6 CA 134.79 C 134.78 O 134.83 CB 134.84 CG 135.06 CD1 135.16 CD2 135.0
I LEU E 4 -110.4 162.4 N 134.73 CA 134.63 C 134.64 O 134.48 CB 134.59 CG 134.46 CD1 134.23 CD2 134.41
I PHE E 49 -143.0 125.8 N 134.86 CA 135.19 C 135.28 O 135.3 CB 135.33 CG 135.64 CD1 135.89 CD2 135.75 CE1 135.87 CE2 135.77 CZ 135.74
I GLU E 3 -154.1 149.2 N 135.5 CA 135.86 C 136.17 O 136.29 CB 135.83 CG 135.93 CD 136.11 OE1 135.99 OE2 136.1
I CYS E 37 -128.4 153.4 N 136.74 CA 137.1 C 137.32 O 137.53 CB 137.32 SG 137.36
I ARG E 14 -76.2 143.0 N 137.42 CA 137.65 C 137.38 O 137.37 CB 137.63 CG 138.38 CD 138.43 NE 139.7 CZ 139.59 NH1 139.85 NH2 139.31
I THR S 96 -67.0 -44.3 N 137.21 CA 137.08 C 137.05 O 137.13 CB 137.07 OG1 137.13 CG2 137.21
I CYS S 81 -64.8 -51.9 N 136.89 CA 136.67 C 136.24 O 136.26 CB 136.92 SG 137.8
I SER - 74 -125.9 141.5 N 135.79 CA 135.4 C 135.1 O 134.85 CB 135.49 OG 135.11
I TYR S 149 -70.9 -63.8 N 134.81 CA 134.64 C 134.98 O 135.01 CB 134.18 CG 133.55 CD1 133.35 CD2 133.28 CE1 133.26 CE2 133.18 CZ 133.23 OH 133.35
I VAL S 114 -70.1 74.2 N 135.54 CA 136.26 C 136.92 O 137.16 CB 136.16 CG1 136.19 CG2 136.1
I GLU - 15 -161.4 158.5 N 137.64 CA 138.5 C 138.86 O 139.01 CB 138.43 CG 138.87 CD 139.06 OE1 139.91 OE2 139.94
I GLU E 109 -157.9 148.4 N 139.38 CA 139.92 C 140.13 O 140.2 CB 139.86 CG 140.22 CD 140.36 OE1 140.79 OE2 140.9
I ALA E 4 -140.8 136.5 N 140.46 CA 140.77 C 140.96 O 141.0 CB 140.79
I GLY E 6 -119.8 136.2 N 141.11 CA 141.21 C 141.23 O 141.21
I SER E 4 -152.6 132.6 N 141.2 CA 141.0 C 140.77 O 140.86 CB 141.01 OG 140.93
I PRO E 4 -87.7 101.9 N 140.45 CA 140.19 C 139.98 O 139.95 CB 140.14 CG 140.21 CD 140.4
I LEU E 2 -93.5 147.4 N 139.78 CA 139.67 C 139.67 O 139.64 CB 139.64 CG 139.56 CD1 139.54 CD2 139.6
I VAL - 1 -82.7 74.0 N 139.79 CA 140.08 C 140.54 O 140.7 CB 140.02 CG1 139.58 CG2 140.3
I TYR T 36 -46.6 -32.6 N 141.14 CA 141.62 C 142.09 O 141.99 CB 141.46 CG 141.24 CD1 141.24 CD2 141.44 CE1 141.56 CE2 141.82 CZ 141.55 OH 141.37
I ARG T 39 -63.4 -25.5 N 142.95 CA 144.01 C 145.03 O 145.03 CB 143.84 CG 143.55 CD 143.1 NE 142.7 CZ 142.76 NH1 142.78 NH2 142.19
I HIS T 14 -99.1 -38.3 N 146.36 CA 147.6 C 148.65 O 148.78 CB 147.38 CG 147.88 ND1 148.46 CD2 148.31 CE1 148.54 NE2 148.68
I GLU S 40 -128.8 95.9 N 150.07 CA 151.64 C 152.68 O 152.72 CB 151.64 CG 152.31 CD 153.09 OE1 152.98 OE2 153.26
I LEU - 74 -68.0 142.4 N 154.2 CA 155.79 C 156.96 O 156.96 CB 155.69 CG 155.68 CD1 155.29 CD2 156.17
I ILE - 15 -128.8 117.0 N 158.44 CA 159.75 C 160.33 O 160.17 CB 159.89 CG1 160.08 CG2 160.15 CD1 159.82
I THR - 69 -101.5 137.0 N 161.18 CA 162.0 C 162.47 O 162.49 CB 162.05 OG1 162.29 CG2 162.12
I ASN S 50 -52.4 147.2 N 163.12 CA 163.65 C 163.8 O 163.64 CB 163.84 CG 164.21 OD1 164.14 ND2 164.35
I ILE S 155 56.0 80.4 N 164.07 CA 164.29 C 164.33 O 164.24 CB 164.39 CG1 164.4 CG2 164.48 CD1 164.26
I GLY - 52 -161.5 83.3 N 164.47 CA 164.74 C 164.88 O 164.83
I GLU - 57 -56.3 139.8 N 165.04 CA 165.18 C 165.09 O 165.16 CB 165.2 CG 165.53 CD 165.51 OE1 165.34 OE2 165.96
I THR E 8 -132.8 158.8 N 165.01 CA 164.92 C 164.76 O 164.71 CB 165.07 OG1 165.43 CG2 165.06
I ALA E 25 -113.3 125.0 N 164.67 CA 164.62 C 164.48 O 164.39 CB 164.67
I GLY E 3 -121.2 122.0 N 164.33 CA 164.23 C 164.12 O 164.16
I VAL E 3 -129.6 158.2 N 163.97 CA 163.92 C 163.84 O 163.91 CB 163.99 CG1 164.24 CG2 163.96
I VAL E 2 -132.9 126.8 N 163.62 CA 163.45 C 163.37 O 163.46 CB 163.42 CG1 163.31 CG2 163.37
I GLN E 8 -121.1 -171.6 N 163.17 CA 162.91 C 162.63 O 162.72 CB 162.98 CG 163.24 CD 163.83 OE1 164.18 NE2 163.75
I ASP S 21 -137.8 2.4 N 162.18 CA 161.74 C 161.24 O 161.31 CB 161.9 CG 162.44 OD1 162.89 OD2 163.2
I ILE - 41 -132.0 -87.9 N 160.58 CA 160.05 C 159.77 O 159.68 CB 159.97 CG1 159.89 CG2 160.02 CD1 160.07
I GLY - 106 -73.0 360.0 N 159.45 CA 159.02 C 158.62 O 158.54
I PRO - 149 360.0 83.8 N 151.61 CA 151.58 C 151.54 O 151.55 CB 151.57 CG 151.62 CD 151.59
I LYS - 185 65.2 -133.3 N 151.46 CA 151.34 C 151.42 O 151.52 CB 151.33 CG 151.22 CD 150.9 CE 149.89 NZ 149.37
I CYS - 28 -111.6 160.0 N 151.38 CA 151.33 C 151.15 O 151.33 CB 151.51 SG 151.84
I HIS - 36 -88.8 117.5 N 150.87 CA 150.62 C 150.43 O 150.43 CB 150.65 CG 150.73 ND1 150.8 CD2 150.88 CE1 150.95 NE2 150.93
I SER - 88 -100.2 147.7 N 150.18 CA 149.92 C 149.92 O 149.81 CB 149.89 OG 149.35
I ARG - 34 -43.9 137.2 N 150.01 CA 150.26 C 150.48 O 150.49 CB 150.15 CG 149.92 CD 149.63 NE 149.58 CZ 149.65 NH1 149.52 NH2 149.81
I GLU - 83 -50.1 -57.2 N 150.71 CA 150.96 C 150.93 O 151.03 CB 151.14 CG 151.81 CD 152.71 OE1 152.94 OE2 153.07
I ASN - 97 50.4 57.1 N 150.86 CA 150.88 C 151.13 O 151.17 CB 150.74 CG 150.52 OD1 150.22 ND2 150.57
I VAL T 81 -77.9 44.2 N 151.43 CA 151.81 C 152.26 O 152.25 CB 151.73 CG1 151.66 CG2 151.77
I PHE T 52 -70.1 -30.9 N 152.93 CA 153.68 C 154.27 O 154.36 CB 153.62 CG 153.6 CD1 153.45 CD2 153.48 CE1 153.4 CE2 153.32 CZ 153.43
I PHE S 159 -154.8 42.7 N 155.14 CA 156.1 C 156.82 O 156.88 CB 156.07 CG 156.31 CD1 156.34 CD2 156.48 CE1 156.53 CE2 156.61 CZ 156.37
I GLN - 165 -102.0 172.4 N 157.78 CA 158.9 C 159.57 O 159.67 CB 158.78 CG 159.27 CD 159.44 OE1 160.19 NE2 159.8
I SER - 73 -156.2 113.7 N 160.55 CA 161.4 C 162.05 O 161.99 CB 161.35 OG 161.28
I GLN - 89 -118.7 175.9 N 162.97 CA 163.95 C 164.53 O 164.63 CB 164.0 CG 164.54 CD 165.04 OE1 165.37 NE2 164.71
I GLN S 45 -80.5 42.6 N 165.28 CA 165.99 C 166.59 O 166.59 CB 165.87 CG 165.71 CD 165.41 OE1 165.38 NE2 165.02
I ARG T 106 -82.1 5.0 N 167.45 CA 168.41 C 168.78 O 168.85 CB 168.58 CG 169.47 CD 171.24 NE 172.24 CZ 172.66 NH1 172.67 NH2 172.6
I ARG T 128 -41.0 -19.5 N 169.26 CA 169.7 C 170.05 O 170.18 CB 169.64 CG 169.82 CD 169.91 NE 169.85 CZ 170.08 NH1 170.21 NH2 170.41
I LYS S 56 -94.5 176.4 N 170.4 CA 170.71 C 170.27 O 170.1 CB 170.94 CG 171.6 CD 171.55 CE 172.23 NZ 173.17
I ASP S 43 -94.7 -47.4 N 169.93 CA 169.58 C 168.95 O 168.84 CB 169.92 CG 170.75 OD1 171.31 OD2 171.84
I THR E 2 -120.9 123.9 N 168.16 CA 167.38 C 166.67 O 166.51 CB 167.52 OG1 167.66 CG2 167.35
I SER E 28 -142.4 131.7 N 165.74 CA 164.76 C 164.03 O 163.92 CB 164.78 OG 164.69
I MET E 1 -125.9 161.8 N 163.04 CA 162.02 C 161.02 O 160.86 CB 162.09 CG 162.33 SD 162.56 CE 162.33
I VAL E 40 -115.0 142.9 N 159.84 CA 158.72 C 158.16 O 158.13 CB 158.61 CG1 158.45 CG2 158.36
I LEU - 2 -156.8 -171.7 N 157.34 CA 156.51 C 156.14 O 156.17 CB 156.36 CG 156.17 CD1 156.27 CD2 155.89
I PHE E 41 -130.1 134.4 N 155.62 CA 155.1 C 154.83 O 154.75 CB 155.05 CG 154.95 CD1 155.12 CD2 154.79 CE1 155.09 CE2 154.85 CZ 155.12
I PHE E 8 -83.0 140.6 N 154.54 CA 154.28 C 154.22 O 154.08 CB 154.18 CG 153.93 CD1 153.91 CD2 153.8 CE1 153.92 CE2 153.79 CZ 153.94
I VAL E 17 -119.1 -96.1 N 154.23 CA 154.27 C 154.31 O 154.38 CB 154.27 CG1 154.15 CG2 154.29
I CYS E 124 -69.2 139.8 N 154.24 CA 154.22 C 154.32 O 154.36 CB 154.19 SG 154.17
I LEU E 75 -112.6 70.7 N 154.49 CA 154.74 C 155.05 O 155.11 CB 154.64 CG 154.33 CD1 153.89 CD2 154.3
I SER E 62 -76.9 145.1 N 155.37 CA 155.64 C 155.73 O 155.71 CB 155.7 OG 155.97
I CYS - 127 -119.8 103.1 N 155.93 CA 156.2 C 156.4 O 156.55 CB 156.19 SG 155.72
I SER - 59 -73.0 126.8 N 156.52 CA 156.59 C 156.59 O 156.61 CB 156.66 OG 156.47
I HIS S 98 -28.3 150.0 N 156.57 CA 156.7 C 157.02 O 157.13 CB 156.55 CG 156.42 ND1 156.67 CD2 156.39 CE1 156.59 NE2 156.56
I ILE T 160 50.8 -154.3 N 157.44 CA 157.88 C 158.2 O 158.31 CB 157.88 CG1 157.94 CG2 157.49 CD1 157.19
I PHE T 92 -69.7 -16.8 N 158.5 CA 158.81 C 158.97 O 158.96 CB 158.85 CG 159.06 CD1 159.29 CD2 159.19 CE1 159.42 CE2 159.15 CZ 159.19
I THR - 47 -50.9 140.2 N 159.21 CA 159.48 C 159.85 O 159.88 CB 159.38 OG1 159.36 CG2 159.29
I SER E 55 -154.5 149.1 N 160.38 CA 160.93 C 161.45 O 161.42 CB 160.87 OG 160.77
I ASP E 1 -142.8 122.9 N 162.23 CA 162.98 C 163.4 O 163.47 CB 163.04 CG 163.27 OD1 163.67 OD2 163.25
I GLN E 8 -99.8 142.1 N 164.01 CA 164.68 C 165.09 O 165.19 CB 164.65 CG 164.96 CD 165.27 OE1 165.42 NE2 165.26
I LYS E 9 -109.4 128.7 N 165.6 CA 166.12 C 166.45 O 166.49 CB 166.11 CG 166.26 CD 166.11 CE 165.81 NZ 165.8
I ASN E 6 -120.4 140.8 N 166.88 CA 167.3 C 167.36 O 167.35 CB 167.46 CG 168.11 OD1 168.64 ND2 168.7
I LYS E 5 -120.3 123.7 N 167.51 CA 167.66 C 167.93 O 167.94 CB 167.53 CG 166.96 CD 166.23 CE 165.89 NZ 165.44
I ARG E 1 -112.6 95.7 N 168.26 CA 168.59 C 168.66 O 168.76 CB 168.64 CG 169.19 CD 170.15 NE 171.24 CZ 172.03 NH1 172.26 NH2 172.48
I THR T 12 44.4 41.9 N 168.7 CA 168.71 C 168.65 O 168.64 CB 168.79 OG1 168.87 CG2 168.66
I GLN T 0 98.8 -25.3 N 168.63 CA 168.66 C 168.63 O 168.5 CB 168.68 CG 168.63 CD 168.4 OE1 168.13 NE2 168.26
J ILE - 23 360.0 -74.4 N 121.89 CA 121.15 C 120.41 O 120.47 CB 121.31 CG1 120.89 CG2 121.92 CD1 119.94
J VAL - 120 54.3 105.2 N 118.86 CA 117.31 C 115.06 O 114.97 CB 117.99 CG1 118.41 CG2 119.0
J PRO - 31 -116.4 148.1 N 112.94 CA 111.64 C 109.89 O 110.11 CB 111.75 CG 112.67 CD 112.73
J VAL - 149 -113.5 -177.9 N 107.77 CA 105.55 C 104.78 O 104.61 CB 105.48 CG1 104.84 CG2 105.13
J ARG B 67 -123.8 164.3 N 103.96 CA 104.13 C 105.16 O 105.8 CB 103.15 CG 100.9 CD 96.26 NE 94.03 CZ 93.44 NH1 92.71 NH2 92.7
J CYS - 9 -66.7 155.5 N 106.3 CA 107.64 C 107.29 O 107.66 CB 108.62 SG 114.72
J PHE S 189 -88.7 -40.7 N 106.71 CA 105.71 C 105.97 O 106.0 CB 104.52 CG 100.62 CD1 95.79 CD2 95.95 CE1 94.01 CE2 95.18 CZ 97.2
J SER S 124 -95.0 -42.5 N 105.62 CA 105.51 C 105.1 O 104.62 CB 105.43 OG 105.81
J CYS S 46 -104.9 -6.8 N 104.57 CA 105.07 C 104.96 O 104.57 CB 105.53 SG 106.38
J GLY - 60 46.9 89.6 N 105.05 CA 105.49 C 105.63 O 106.06
J LYS - 4 -162.9 156.1 N 105.41 CA 104.79 C 103.79 O 102.6 CB 105.05 CG 104.71 CD 102.2 CE 100.37 NZ 100.29
J VAL B 5 -62.3 140.0 N 102.97 CA 103.53 C 102.99 O 104.27 CB 103.77 CG1 103.97 CG2 105.15
J VAL - 4 -91.5 140.1 N 102.12 CA 102.51 C 103.09 O 101.84 CB 102.22 CG1 103.17 CG2 104.81
J GLY E 11 -115.1 136.6 N 104.79 CA 107.27 C 108.92 O 108.97
J ASP E 19 -80.9 159.3 N 110.83 CA 112.95 C 113.26 O 113.8 CB 113.21 CG 115.56 OD1 114.95 OD2 117.56
J LYS E 99 -160.7 156.8 N 113.29 CA 113.67 C 114.66 O 114.91 CB 112.95 CG 111.07 CD 109.71 CE 109.95 NZ 107.81
J TRP E 43 -101.1 136.6 N 115.78 CA 116.6 C 117.34 O 117.41 CB 116.33 CG 116.05 CD1 116.26 CD2 115.55 NE1 116.53 CE2 115.88 CE3 115.41 CZ2 115.7 CZ3 115.96 CH2 115.81
J GLU - 23 -70.9 -29.9 N 118.15 CA 119.28 C 119.69 O 119.71 CB 119.42 CG 120.69 CD 122.24 OE1 122.4 OE2 122.48
J SER S 145 79.6 -66.0 N 120.05 CA 120.03 C 119.69 O 119.56 CB 120.16 OG 120.52
J TYR S 168 -77.0 -51.2 N 119.49 CA 119.66 C 120.77 O 120.75 CB 118.55 CG 115.96 CD1 113.77 CD2 113.57 CE1 113.81 CE2 113.6 CZ 114.98 OH 115.46
J LEU S 114 -90.4 -3.2 N 122.13 CA 123.74 C 124.55 O 124.7 CB 123.99 CG 124.44 CD1 123.75 CD2 125.67
J ASN - 79 64.8 26.1 N 125.45 CA 126.16 C 126.16 O 126.14 CB 126.47 CG 127.58 OD1 128.92 ND2 128.74
J LEU - 105 -95.6 167.7 N 126.17 CA 126.29 C 126.91 O 127.19 CB 125.98 CG 125.7 CD1 125.37 CD2 125.92
J LEU E 13 -111.4 130.3 N 127.54 CA 128.43 C 129.21 O 129.3 CB 128.54 CG 128.34 CD1 127.69 CD2 128.07
J GLN E 19 -131.3 110.7 N 130.05 CA 130.9 C 131.15 O 131.17 CB 131.18 CG 131.76 CD 132.23 OE1 132.18 NE2 132.56
J GLU E 25 -73.4 150.7 N 131.59 CA 132.14 C 132.15 O 132.56 CB 132.09 CG 132.42 CD 132.56 OE1 133.32 OE2 131.97
J ASP E 29 -156.3 172.0 N 131.95 CA 131.68 C 131.55 O 131.21 CB 131.59 CG 131.91 OD1 132.2 OD2 131.91
J GLU - 4 -125.1 124.5 N 131.65 CA 132.06 C 132.04 O 132.42 CB 132.14 CG 133.04 CD 134.46 OE1 135.35 OE2 134.12
J LEU S 130 -101.1 42.8 N 131.75 CA 131.38 C 131.45 O 131.35 CB 131.1 CG 130.55 CD1 129.72 CD2 130.46
J ASP S 66 -132.0 -27.2 N 131.56 CA 131.85 C 131.79 O 132.24 CB 132.01 CG 132.78 OD1 133.03 OD2 132.94
J GLU S 62 -128.0 -71.2 N 131.14 CA 130.6 C 129.86 O 129.23 CB 130.88 CG 132.43 CD 133.82 OE1 134.19 OE2 134.24
J GLY - 95 174.5 -32.7 N 129.35 CA 129.03 C 128.69 O 128.65
J THR - 51 -34.6 149.9 N 128.42 CA 128.03 C 128.05 O 127.81 CB 127.9 OG1 126.87 CG2 128.27
J ALA E 69 -152.3 147.5 N 127.91 CA 127.49 C 127.06 O 126.86 CB 127.32
J LEU E 41 -153.5 170.7 N 126.4 CA 125.98 C 125.42 O 125.39 CB 125.98 CG 126.09 CD1 125.75 CD2 125.68
J SER E 131 -85.1 164.2 N 124.43 CA 123.19 C 122.45 O 122.18 CB 123.22 OG 122.22
J ARG - 21 -96.9 149.3 N 121.52 CA 121.03 C 119.86 O 119.29 CB 121.65 CG 123.26 CD 124.3 NE 125.38 CZ 126.2 NH1 125.79 NH2 126.98
J LEU S 72 -79.2 -96.7 N 118.62 CA 116.98 C 116.04 O 115.97 CB 116.47 CG 115.18 CD1 113.89 CD2 113.04
J GLY S 73 -69.4 120.5 N 114.36 CA 112.87 C 111.81 O 111.68
J LEU S 40 -55.9 1.5 N 110.84 CA 110.33 C 109.25 O 108.51 CB 110.75 CG 110.33 CD1 109.65 CD2 108.14
J LYS E 23 -76.4 120.8 N 108.28 CA 107.66 C 107.95 O 107.99 CB 107.43 CG 106.16 CD 107.19 CE 105.81 NZ 103.24
J ARG E 9 -108.5 -25.2 N 108.28 CA 107.21 C 106.6 O 105.42 CB 106.77 CG 106.11 CD 105.77 NE 104.62 CZ 103.24 NH1 101.73 NH2 101.34
J TYR E 24 -156.1 110.8 N 106.66 CA 107.02 C 108.0 O 108.37 CB 105.91 CG 104.78 CD1 104.17 CD2 103.54 CE1 103.31 CE2 104.12 CZ 104.0 OH 102.72
J CYS E 53 -112.2 138.4 N 108.61 CA 108.02 C 108.16 O 108.18 CB 107.8 SG 107.53
J CYS - 52 -104.0 -57.0 N 108.94 CA 110.24 C 111.36 O 111.7 CB 110.35 SG 109.73
J ARG - 41 63.0 123.0 N 112.32 CA 113.18 C 113.66 O 113.25 CB 113.67 CG 114.71 CD 112.84 NE 109.69 CZ 108.62 NH1 105.89 NH2 108.78
J ARG S 32 -118.2 -35.1 N 114.77 CA 115.47 C 114.81 O 114.45 CB 115.67 CG 116.28 CD 118.18 NE 120.72 CZ 120.15 NH1 116.87 NH2 120.18
J MET S 74 -107.3 124.8 N 114.55 CA 114.74 C 114.63 O 115.5 CB 115.18 CG 114.2 SD 115.09 CE 108.81
J ILE - 29 -127.3 161.0 N 113.62 CA 112.62 C 112.26 O 111.22 CB 112.39 CG1 112.19 CG2 112.09 CD1 110.9
J LEU - 93 -105.7 -75.6 N 112.38 CA 113.43 C 113.39 O 112.82 CB 113.65 CG 115.4 CD1 115.19 CD2 114.24
J THR T 91 -49.9 145.3 N 114.05 CA 113.96 C 114.49 O 113.77 CB 113.47 OG1 113.04 CG2 113.28
J HIS T 5 111.3 -24.3 N 115.49 CA 117.23 C 118.07 O 117.87 CB 117.24 CG 120.81 ND1 123.42 CD2 124.18 CE1 123.71 NE2 125.02
J VAL S 7 -69.9 -72.6 N 120.01 CA 121.31 C 121.57 O 121.38 CB 121.52 CG1 121.83 CG2 121.67
J ASP S 37 -68.3 92.1 N 122.46 CA 123.76 C 124.58 O 124.87 CB 123.97 CG 123.97 OD1 122.96 OD2 122.95
J LEU - 25 -121.1 114.2 N 125.07 CA 125.0 C 125.41 O 125.22 CB 124.5 CG 123.01 CD1 121.15 CD2 121.83
J ILE S 25 78.8 16.6 N 125.98 CA 127.32 C 128.5 O 128.43 CB 127.13 CG1 127.45 CG2 127.39 CD1 128.2
J GLU - 55 -57.7 91.7 N 130.34 CA 132.29 C 132.67 O 132.73 CB 132.84 CG 135.95 CD 141.06 OE1 141.4 OE2 143.21
J LYS - 33 -106.5 178.8 N 133.23 CA 133.74 C 133.82 O 133.59 CB 133.79 CG 135.39 CD 138.31 CE 140.0 NZ 140.93
J PHE T 155 -75.8 -4.6 N 134.11 CA 134.53 C 135.43 O 135.79 CB 133.72 CG 132.27 CD1 131.83 CD2 131.42 CE1 132.4 CE2 130.74 CZ 131.76
J LEU T 33 -99.5 -8.3 N 136.12 CA 136.7 C 137.19 O 136.98 CB 136.72 CG 136.81 CD1 136.79 CD2 137.2
J ARG T 5 -52.2 -20.2 N 137.83 CA 138.55 C 138.64 O 138.58 CB 138.71 CG 139.72 CD 141.42 NE 143.0 CZ 143.44 NH1 142.79 NH2 143.42
J TYR T 8 -73.9 -53.8 N 138.78 CA 139.02 C 139.85 O 140.04 CB 138.18 CG 137.29 CD1 137.13 CD2 136.41 CE1 136.42 CE2 136.69 CZ 136.77 OH 136.63
J ASN T 86 -60.3 -11.7 N 140.78 CA 141.8 C 142.52 O 142.45 CB 141.87 CG 142.39 OD1 142.35 ND2 143.1
J PRO - 9 -65.2 101.3 N 143.39 CA 143.75 C 143.79 O 143.72 CB 144.08 CG 143.79 CD 143.68
K MET - 5 360.0 40.2 N 155.73 CA 156.5 C 156.02 O 155.83 CB 156.64 CG 157.93 SD 157.99 CE 159.06
K ASN - 0 50.4 105.2 N 156.11 CA 156.2 C 156.57 O 156.24 CB 155.84 CG 154.52 OD1 152.56 ND2 153.29
K ALA - 1 -43.9 139.7 N 157.07 CA 157.49 C 157.73 O 157.77 CB 157.61
K PRO - 5 -55.7 145.6 N 157.89 CA 157.82 C 157.68 O 157.55 CB 157.91 CG 158.12 CD 157.89
K ASP S 1 -71.7 -172.6 N 157.66 CA 157.83 C 157.36 O 157.68 CB 158.04 CG 159.7 OD1 161.2 OD2 162.12
K ARG S 9 -7.6 138.9 N 156.5 CA 155.72 C 155.29 O 155.28 CB 155.79 CG 156.36 CD 157.48 NE 159.04 CZ 159.8 NH1 159.91 NH2 160.48
K PHE - 0 -61.1 150.9 N 154.74 CA 154.41 C 153.64 O 153.31 CB 155.17 CG 157.03 CD1 158.82 CD2 158.45 CE1 159.13 CE2 159.09 CZ 158.69
K GLU S 3 -67.4 -45.8 N 153.04 CA 153.08 C 152.34 O 152.31 CB 153.33 CG 154.52 CD 154.44 OE1 155.07 OE2 156.28
K LEU S 0 -88.2 -12.4 N 151.87 CA 151.32 C 151.6 O 151.4 CB 150.66 CG 149.82 CD1 150.21 CD2 149.37
K PHE S 0 -130.9 -46.8 N 151.99 CA 152.31 C 153.2 O 153.24 CB 151.85 CG 150.59 CD1 150.17 CD2 149.89 CE1 150.51 CE2 150.02 CZ 150.9
K LEU - 2 94.6 28.5 N 154.37 CA 155.81 C 156.96 O 157.17 CB 155.69 CG 155.61 CD1 155.51 CD2 155.01
K LEU - 23 -71.4 93.3 N 158.42 CA 159.94 C 160.97 O 160.99 CB 159.98 CG 161.13 CD1 161.48 CD2 162.27
K GLY - 3 -17.3 83.4 N 162.47 CA 164.57 C 166.11 O 166.3
K GLU - 0 -90.0 37.8 N 167.58 CA 168.91 C 169.16 O 168.91 CB 169.39 CG 170.79 CD 172.94 OE1 173.51 OE2 173.92
K GLY S 2 -91.6 -52.5 N 169.6 CA 170.01 C 170.17 O 170.09
K GLU T 12 -77.2 0.2 N 170.38 CA 170.58 C 170.2 O 170.16 CB 170.54 CG 170.93 CD 171.39 OE1 173.07 OE2 172.11
K SER T 29 -95.6 -27.3 N 169.76 CA 169.26 C 168.78 O 168.56 CB 169.34 OG 169.66
K LYS H 23 -49.7 -51.1 N 168.25 CA 167.72 C 167.4 O 167.45 CB 167.72 CG 167.81 CD 167.81 CE 167.54 NZ 166.84
K LEU H 73 -57.9 -40.2 N 166.99 CA 166.76 C 166.6 O 166.61 CB 166.77 CG 166.8 CD1 167.37 CD2 166.41
K LYS H 21 -61.0 -60.0 N 166.39 CA 166.3 C 166.03 O 166.06 CB 166.45 CG 166.91 CD 166.9 CE 166.35 NZ 165.9
K ILE H 27 -43.6 -28.2 N 165.43 CA 164.84 C 164.53 O 164.49 CB 164.83 CG1 164.95 CG2 164.62 CD1 165.05
K ASP H 74 -77.2 -20.7 N 164.27 CA 164.1 C 163.66 O 163.55 CB 164.35 CG 165.01 OD1 165.2 OD2 166.07
K PRO H 69 -87.2 -38.9 N 163.29 CA 162.98 C 162.63 O 162.65 CB 162.97 CG 163.17 CD 163.25
K ASP H 28 -90.4 52.6 N 162.24 CA 161.92 C 161.79 O 161.77 CB 161.8 CG 161.48 OD1 161.02 OD2 161.13
K THR H 41 -155.5 -6.9 N 161.61 CA 161.37 C 161.02 O 161.17 CB 161.56 OG1 161.63 CG2 161.66
K LYS H 145 -63.6 -54.8 N 160.43 CA 159.82 C 159.16 O 159.16 CB 159.96 CG 160.44 CD 161.12 CE 160.85 NZ 160.12
K ALA T 132 -92.2 -54.2 N 158.21 CA 157.23 C 156.33 O 156.38 CB 157.39
K PRO S 86 -89.2 54.9 N 155.29 CA 154.38 C 153.42 O 153.25 CB 154.45 CG 154.85 CD 155.32
K ASN - 170 -21.5 66.9 N 152.27 CA 151.08 C 149.97 O 149.68 CB 151.35 CG 152.04 OD1 152.96 ND2 152.51
K ALA - 41 -96.9 169.1 N 148.7 CA 147.57 C 146.56 O 146.63 CB 147.82
K VAL - 74 -98.6 142.1 N 145.04 CA 143.53 C 142.84 O 142.55 CB 143.33 CG1 142.96 CG2 143.34
K VAL H 71 -16.4 -90.6 N 142.06 CA 141.5 C 141.12 O 141.13 CB 141.51 CG1 141.35 CG2 142.1
K ILE H 4 -36.3 -50.2 N 140.61 CA 140.16 C 140.17 O 140.28 CB 139.95 CG1 139.64 CG2 140.16 CD1 139.84
K THR H 61 -61.2 -26.3 N 140.04 CA 139.77 C 139.53 O 139.47 CB 139.81 OG1 139.55 CG2 139.56
K PHE H 0 -81.2 -31.9 N 139.12 CA 138.68 C 138.75 O 138.61 CB 138.39 CG 137.56 CD1 136.77 CD2 137.05 CE1 136.69 CE2 136.33 CZ 136.66
K GLU H 0 -71.5 -45.6 N 139.1 CA 139.76 C 139.65 O 139.89 CB 140.15 CG 140.95 CD 142.15 OE1 142.84 OE2 142.37
K LYS H 84 -58.4 -30.9 N 139.45 CA 139.28 C 138.9 O 138.75 CB 139.44 CG 139.36 CD 139.74 CE 140.66 NZ 141.55
K GLU H 167 -84.2 -25.3 N 138.43 CA 138.21 C 137.41 O 137.63 CB 138.5 CG 140.92 CD 143.67 OE1 143.41 OE2 144.7
K ASP H 42 -77.6 -47.8 N 136.23 CA 135.22 C 134.26 O 134.24 CB 135.39 CG 136.11 OD1 135.54 OD2 137.95
K HIS T 41 165.4 13.7 N 133.08 CA 131.98 C 131.68 O 131.79 CB 131.68 CG 129.83 ND1 128.46 CD2 127.96 CE1 127.71 NE2 127.2
K THR - 3 -100.3 87.3 N 131.01 CA 130.47 C 130.42 O 130.51 CB 130.37 OG1 129.55 CG2 130.27
K LEU - 109 -73.5 -37.0 N 130.41 CA 130.63 C 131.3 O 131.13 CB 130.29 CG 129.53 CD1 128.27 CD2 129.01
K GLY S 2 -95.6 122.6 N 132.33 CA 133.52 C 134.39 O 134.49
K ASN H 2 -72.4 -21.8 N 135.16 CA 135.83 C 136.08 O 136.22 CB 135.95 CG 136.45 OD1 136.37 ND2 136.77
K LEU H 0 -56.4 -51.9 N 136.46 CA 136.96 C 137.32 O 137.1 CB 137.03 CG 136.72 CD1 136.49 CD2 136.74
K ILE H 0 -65.8 -42.8 N 138.0 CA 138.7 C 139.39 O 139.33 CB 138.76 CG1 138.28 CG2 138.76 CD1 138.33
K ARG H 7 -56.9 -22.2 N 140.38 CA 141.49 C 142.27 O 142.59 CB 141.48 CG 141.89 CD 142.9 NE 143.64 CZ 144.16 NH1 143.4 NH2 144.64
K ALA H 1 -100.5 -2.2 N 143.16 CA 143.85 C 144.27 O 144.33 CB 143.86
K GLU H 0 -57.0 -40.1 N 144.67 CA 145.12 C 145.22 O 145.25 CB 145.25 CG 146.64 CD 148.78 OE1 149.6 OE2 149.72
K LEU H 6 -117.9 -18.0 N 145.48 CA 145.77 C 146.03 O 146.13 CB 145.74 CG 145.76 CD1 145.87 CD2 145.47
K LEU H 10 -82.6 -32.5 N 146.45 CA 146.98 C 147.44 O 147.58 CB 146.85 CG 146.76 CD1 146.51 CD2 147.03
K ASN H 0 -84.7 -40.4 N 147.97 CA 148.41 C 148.61 O 148.64 CB 148.45 CG 148.74 OD1 148.8 ND2 148.5
K ASP B 13 -45.3 126.6 N 148.88 CA 149.17 C 149.16 O 149.01 CB 149.32 CG 150.02 OD1 150.79 OD2 150.91
K ARG - 23 -111.7 134.2 N 149.37 CA 149.67 C 149.48 O 149.69 CB 149.78 CG 150.08 CD 149.99 NE 150.2 CZ 150.13 NH1 150.2 NH2 150.26
K LYS - 17 -112.5 98.1 N 149.07 CA 148.42 C 147.89 O 147.74 CB 148.5 CG 148.44 CD 148.52 CE 148.26 NZ 147.29
K VAL - 1 -95.7 -25.4 N 147.22 CA 146.65 C 146.36 O 146.28 CB 146.59 CG1 146.58 CG2 146.79
K LEU H 0 -45.3 -25.4 N 146.01 CA 145.66 C 145.45 O 145.38 CB 145.69 CG 145.78 CD1 145.85 CD2 145.94
K PHE H 83 -59.1 -36.8 N 145.21 CA 144.99 C 144.87 O 144.83 CB 144.97 CG 144.34 CD1 143.44 CD2 143.77 CE1 143.21 CE2 143.1 CZ 143.61
K ALA H 50 -90.0 -47.7 N 144.76 CA 144.93 C 145.05 O 145.21 CB 144.93
K ALA H 5 -51.7 -36.5 N 145.08 CA 145.11 C 145.15 O 145.05 CB 145.18
K TYR T 7 -65.3 -17.8 N 145.23 CA 145.18 C 145.0 O 145.01 CB 145.31 CG 145.67 CD1 146.4 CD2 146.2 CE1 146.58 CE2 146.81 CZ 146.51 OH 146.21
K LYS T 110 -78.6 -26.4 N 144.7 CA 144.48 C 144.28 O 144.3 CB 144.35 CG 144.46 CD 144.88 CE 144.85 NZ 144.47
K VAL S 8 -65.9 133.8 N 143.99 CA 143.77 C 143.91 O 143.81 CB 143.66 CG1 144.01 CG2 143.51
K GLU - 87 -69.0 -55.4 N 144.15 CA 144.44 C 144.0 O 144.17 CB 144.82 CG 146.84 CD 149.83 OE1 150.91 OE2 150.4
K HIS - 76 -21.5 360.0 N 143.3 CA 142.73 C 142.87 O 143.06 CB 142.48 CG 141.23 ND1 140.44 CD2 139.93 CE1 139.47 NE2 138.64
L ALA S 133 -55.7 -28.4 N 176.72 CA 176.83 C 176.96 O 176.98 CB 176.68
L THR S 132 -101.4 -44.8 N 177.05 CA 177.0 C 176.91 O 176.87 CB 177.07 OG1 177.16 CG2 176.89
L LEU S 9 -106.2 135.5 N 176.79 CA 176.62 C 176.41 O 176.58 CB 176.66 CG 176.69 CD1 176.85 CD2 176.52
L LYS T 106 -60.5 133.3 N 175.91 CA 175.23 C 174.76 O 174.63 CB 175.22 CG 175.08 CD 175.01 CE 174.89 NZ 174.44
L TYR T 72 56.6 59.4 N 174.19 CA 173.63 C 173.31 O 173.25 CB 173.67 CG 173.62 CD1 173.7 CD2 173.55 CE1 173.76 CE2 173.48 CZ 173.59 OH 173.5
L ILE E 13 -139.8 166.7 N 173.08 CA 173.15 C 173.22 O 173.36 CB 173.13 CG1 173.34 CG2 173.23 CD1 173.16
L CYS E 9 -158.0 147.9 N 173.43 CA 173.56 C 173.65 O 173.64 CB 173.74 SG 173.74
L ALA E 25 -121.2 106.4 N 173.89 CA 174.36 C 174.67 O 174.57 CB 174.37
L GLU E 2 -94.8 126.0 N 175.16 CA 175.64 C 175.78 O 175.93 CB 175.65 CG 175.96 CD 175.99 OE1 176.11 OE2 176.84
L CYS E 9 -99.3 123.0 N 175.88 CA 175.97 C 175.9 O 175.85 CB 176.06 SG 176.78
L SER E 0 -101.2 108.0 N 175.89 CA 175.76 C 175.8 O 175.96 CB 175.73 OG 175.15
L SER S 24 -81.8 139.4 N 175.71 CA 175.65 C 175.73 O 175.79 CB 175.53 OG 175.42
L LYS S 19 54.9 60.3 N 175.82 CA 176.02 C 176.06 O 176.23 CB 175.96 CG 176.38 CD 176.48 CE 177.0 NZ 177.24
L LEU - 0 -175.0 149.5 N 176.12 CA 176.12 C 176.13 O 176.06 CB 176.12 CG 176.06 CD1 175.75 CD2 175.82
L SER - 14 -146.1 -129.9 N 176.21 CA 176.22 C 176.13 O 176.11 CB 176.28 OG 176.2
L LEU H 14 -69.9 -49.0 N 175.98 CA 175.95 C 175.93 O 175.75 CB 175.93 CG 175.89 CD1 175.82 CD2 175.42
L SER H 2 -34.4 -36.6 N 176.0 CA 176.0 C 176.21 O 176.24 CB 175.84 OG 175.44
L ARG H 4 -124.1 -16.4 N 176.41 CA 176.5 C 176.63 O 176.44 CB 176.42 CG 176.25 CD 176.02 NE 175.58 CZ 175.28 NH1 175.23 NH2 174.92
L THR H 0 -75.5 -54.8 N 176.97 CA 177.34 C 177.55 O 177.61 CB 177.35 OG1 177.27 CG2 177.22
L ASP H 3 -53.6 -47.1 N 177.69 CA 177.76 C 177.87 O 177.92 CB 177.71 CG 177.42 OD1 177.16 OD2 177.05
L ALA H 2 -49.8 -59.0 N 177.91 CA 177.89 C 177.83 O 177.74 CB 177.9
L VAL H 2 -62.7 -31.4 N 177.77 CA 177.63 C 177.67 O 177.79 CB 177.51 CG1 177.55 CG2 177.33
L ARG H 15 -71.3 -58.6 N 177.59 CA 177.55 C 177.34 O 177.38 CB 177.64 CG 178.06 CD 178.8 NE 179.23 CZ 179.85 NH1 179.96 NH2 180.09
L CYS H 13 -70.6 -17.9 N 176.92 CA 176.67 C 176.59 O 176.58 CB 176.52 SG 176.57
L LYS H 21 -79.8 -45.6 N 176.5 CA 176.35 C 176.07 O 176.11 CB 176.46 CG 176.78 CD 177.21 CE 177.32 NZ 177.47
L ASP H 0 -60.5 -23.8 N 175.58 CA 174.99 C 174.56 O 174.49 CB 174.97 CG 175.03 OD1 175.41 OD2 174.84
L CYS T 48 -70.6 -22.6 N 173.96 CA 173.47 C 172.79 O 172.89 CB 173.66 SG 174.52
L GLY T 86 -66.5 -38.8 N 171.91 CA 170.66 C 169.74 O 169.74
L HIS - 40 -55.1 115.9 N 168.77 CA 167.82 C 166.59 O 166.49 CB 168.28 CG 169.54 ND1 170.39 CD2 170.45 CE1 170.77 NE2 170.87
L ARG T 187 -72.4 -24.4 N 165.07 CA 163.69 C 162.65 O 162.56 CB 163.8 CG 163.87 CD 163.76 NE 163.35 CZ 163.0 NH1 162.9 NH2 162.28
L ILE T 130 -85.7 16.8 N 161.41 CA 159.95 C 159.72 O 159.65 CB 160.08 CG1 159.8 CG2 159.06 CD1 159.88
L LEU E 10 -107.6 118.4 N 158.89 CA 158.23 C 157.29 O 157.22 CB 157.95 CG 158.0 CD1 158.02 CD2 158.14
L LEU E 18 -76.6 -46.1 N 156.33 CA 155.32 C 154.83 O 154.87 CB 155.2 CG 154.98 CD1 155.09 CD2 155.03
L LYS E 2 -150.7 141.6 N 154.11 CA 153.62 C 153.54 O 153.58 CB 153.5 CG 152.89 CD 151.62 CE 151.53 NZ 151.66
L ALA E 0 -160.8 128.8 N 153.51 CA 153.7 C 153.81 O 154.27 CB 153.65
L ARG E 0 -158.3 155.4 N 153.66 CA 153.42 C 153.95 O 153.99 CB 153.51 CG 152.75 CD 152.23 NE 148.47 CZ 146.58 NH1 145.1 NH2 145.14
L THR E 11 -135.9 152.5 N 154.36 CA 154.59 C 154.97 O 155.29 CB 154.41 OG1 154.59 CG2 153.71
L LYS E 12 -159.0 126.7 N 155.13 CA 155.29 C 155.54 O 155.56 CB 155.24 CG 155.31 CD 156.32 CE 156.97 NZ 156.92
L ARG E 25 -73.8 127.3 N 155.79 CA 156.06 C 155.5 O 155.41 CB 155.94 CG 156.96 CD 157.52 NE 160.78 CZ 161.76 NH1 162.29 NH2 161.4
L LEU S 73 -87.8 -45.6 N 155.1 CA 154.64 C 154.04 O 153.93 CB 154.94 CG 155.34 CD1 155.58 CD2 155.33
L VAL - 22 -129.2 130.0 N 153.3 CA 152.84 C 152.47 O 152.77 CB 152.86 CG1 152.93 CG2 153.18
L GLN T 46 -52.7 -5.8 N 151.89 CA 151.55 C 151.13 O 151.25 CB 151.78 CG 153.03 CD 154.46 OE1 154.48 NE2 155.27
L PHE T 25 -85.3 -9.2 N 150.55 CA 149.99 C 149.91 O 149.63 CB 149.66 CG 149.35 CD1 148.84 CD2 149.19 CE1 148.84 CE2 149.12 CZ 149.13
L GLU S 61 -143.8 137.4 N 150.03 CA 150.07 C 149.71 O 149.65 CB 150.33 CG 151.71 CD 153.98 OE1 154.26 OE2 155.14
L ALA - 8 -63.0 -39.4 N 149.29 CA 148.6 C 148.25 O 148.11 CB 148.55
L ARG - 76 -34.0 108.3 N 148.02 CA 147.89 C 148.0 O 148.38 CB 147.7 CG 147.75 CD 148.13 NE 148.72 CZ 148.73 NH1 148.53 NH2 148.11
