B G - 128 360.0 155.9 P 34.04 OP1 34.13 OP2 36.05 O5' 36.55 C5' 37.28 C4' 36.79 O4' 37.33 C3' 36.13 O3' 33.83 C2' 37.27 O2' 39.28 C1' 37.56 N9 38.44 C8 39.09 N7 39.64 C5 39.28 C6 39.01 O6 38.66 N1 39.11 C2 39.69 N2 39.65 N3 39.54 C4 39.18
B C H 25 -27.5 -64.3 P 32.91 OP1 33.05 OP2 32.77 O5' 33.84 C5' 34.49 C4' 34.45 O4' 35.01 C3' 34.98 O3' 35.81 C2' 35.61 O2' 36.03 C1' 36.45 N1 36.64 C2 36.8 O2 37.54 N3 37.42 C4 36.69 N4 34.9 C5 37.27 C6 37.66
B C H 114 -48.3 -57.1 P 45.55 OP1 45.87 OP2 45.11 O5' 45.74 C5' 47.67 C4' 47.96 O4' 49.04 C3' 48.21 O3' 49.31 C2' 49.08 O2' 48.14 C1' 49.95 N1 52.0 C2 52.81 O2 54.78 N3 52.02 C4 51.56 N4 51.08 C5 52.29 C6 52.14
B C H 85 -55.7 -39.1 P 57.8 OP1 57.98 OP2 56.88 O5' 58.16 C5' 57.98 C4' 58.06 O4' 58.48 C3' 57.95 O3' 58.33 C2' 58.45 O2' 58.41 C1' 58.24 N1 58.02 C2 58.38 O2 58.24 N3 58.56 C4 59.0 N4 58.44 C5 58.95 C6 57.89
B G H 19 -66.5 -51.0 P 72.12 OP1 73.08 OP2 72.14 O5' 69.97 C5' 68.73 C4' 69.01 O4' 68.8 C3' 68.78 O3' 69.9 C2' 68.27 O2' 66.42 C1' 68.19 N9 68.68 C8 68.51 N7 68.66 C5 68.26 C6 68.06 O6 68.24 N1 68.25 C2 68.74 N2 68.09 N3 68.74 C4 68.59
B G H 25 -58.5 -27.9 P 75.43 OP1 74.78 OP2 74.34 O5' 75.15 C5' 74.67 C4' 74.22 O4' 73.85 C3' 74.41 O3' 73.87 C2' 74.18 O2' 75.14 C1' 73.85 N9 72.69 C8 72.26 N7 72.33 C5 71.94 C6 71.57 O6 71.0 N1 71.22 C2 71.16 N2 70.49 N3 71.05 C4 71.83
B G H 126 -65.8 -60.0 P 71.82 OP1 72.76 OP2 70.21 O5' 69.64 C5' 67.84 C4' 66.89 O4' 66.32 C3' 66.17 O3' 67.91 C2' 65.45 O2' 64.3 C1' 65.03 N9 63.91 C8 63.77 N7 63.38 C5 62.55 C6 61.61 O6 60.83 N1 62.1 C2 62.97 N2 62.76 N3 63.26 C4 63.26
B G H 108 -57.1 -23.8 P 72.26 OP1 71.78 OP2 71.84 O5' 70.69 C5' 69.53 C4' 68.42 O4' 67.7 C3' 68.5 O3' 68.88 C2' 68.14 O2' 69.49 C1' 67.42 N9 66.15 C8 65.36 N7 64.49 C5 64.29 C6 63.54 O6 62.8 N1 63.13 C2 63.58 N2 63.54 N3 64.61 C4 65.21
B C H 0 -74.2 -42.0 P 69.3 OP1 68.68 OP2 68.9 O5' 67.35 C5' 63.95 C4' 61.08 O4' 58.5 C3' 60.84 O3' 61.14 C2' 59.73 O2' 60.05 C1' 58.21 N1 56.79 C2 55.6 O2 54.53 N3 54.4 C4 54.59 N4 54.99 C5 55.55 C6 56.19
B G H 47 -46.9 -29.5 P 55.39 OP1 57.28 OP2 55.15 O5' 53.9 C5' 51.19 C4' 49.61 O4' 47.43 C3' 50.13 O3' 51.29 C2' 48.53 O2' 48.45 C1' 46.65 N9 43.97 C8 43.36 N7 42.62 C5 41.89 C6 40.47 O6 39.34 N1 39.36 C2 40.66 N2 39.9 N3 41.81 C4 42.59
B G H 149 -62.6 -29.3 P 53.4 OP1 54.08 OP2 53.11 O5' 51.92 C5' 50.77 C4' 51.33 O4' 51.76 C3' 51.88 O3' 52.39 C2' 51.91 O2' 52.77 C1' 50.67 N9 49.16 C8 48.49 N7 47.51 C5 48.77 C6 49.72 O6 50.67 N1 49.74 C2 49.71 N2 48.8 N3 49.44 C4 49.1
B U H 78 -94.4 -20.4 P 45.67 OP1 46.47 OP2 44.79 O5' 43.78 C5' 42.67 C4' 41.65 O4' 42.23 C3' 41.3 O3' 39.92 C2' 41.61 O2' 40.53 C1' 42.1 N1 41.65 C2 42.45 O2 45.13 N3 41.89 C4 41.98 O4 42.03 C5 42.07 C6 41.87
B U H 2 -99.4 -38.5 P 51.4 OP1 51.28 OP2 50.67 O5' 51.19 C5' 49.07 C4' 48.45 O4' 48.18 C3' 48.23 O3' 48.58 C2' 47.77 O2' 48.67 C1' 47.63 N1 46.59 C2 46.45 O2 47.49 N3 46.08 C4 45.55 O4 45.96 C5 45.58 C6 46.26
B C S 49 -79.7 127.9 P 43.29 OP1 44.71 OP2 40.82 O5' 43.34 C5' 43.37 C4' 43.84 O4' 44.48 C3' 43.6 O3' 44.0 C2' 43.04 O2' 44.33 C1' 42.67 N1 41.32 C2 40.9 O2 40.55 N3 40.43 C4 41.52 N4 41.59 C5 42.05 C6 41.11
B G - 8 -59.8 130.3 P 41.1 OP1 41.12 OP2 40.08 O5' 40.19 C5' 40.21 C4' 39.21 O4' 39.29 C3' 39.86 O3' 42.06 C2' 38.94 O2' 38.87 C1' 38.46 N9 36.89 C8 36.11 N7 35.74 C5 35.41 C6 35.26 O6 35.08 N1 35.41 C2 35.07 N2 34.35 N3 34.26 C4 35.23
B A - 58 -69.8 165.9 P 46.51 OP1 45.87 OP2 46.36 O5' 45.55 C5' 46.64 C4' 49.1 O4' 49.88 C3' 51.17 O3' 52.87 C2' 51.87 O2' 56.17 C1' 50.73 N9 48.83 C8 48.15 N7 47.27 C5 47.48 C6 46.99 N6 45.54 N1 47.14 C2 47.08 N3 47.65 C4 48.12
B U H 160 -46.7 -37.0 P 71.94 OP1 72.58 OP2 71.88 O5' 72.66 C5' 73.87 C4' 75.03 O4' 75.42 C3' 76.06 O3' 76.91 C2' 76.11 O2' 76.07 C1' 76.24 N1 77.26 C2 77.36 O2 77.27 N3 77.66 C4 78.14 O4 77.97 C5 78.08 C6 77.92
B U H 97 -77.4 -34.7 P 66.81 OP1 68.5 OP2 66.36 O5' 66.38 C5' 65.59 C4' 66.06 O4' 66.13 C3' 67.21 O3' 68.69 C2' 67.33 O2' 68.43 C1' 66.92 N1 66.58 C2 66.46 O2 65.99 N3 66.7 C4 66.86 O4 66.8 C5 66.19 C6 66.19
B C H 35 -72.3 -27.9 P 49.15 OP1 49.81 OP2 48.05 O5' 48.28 C5' 46.28 C4' 43.45 O4' 41.96 C3' 42.47 O3' 42.06 C2' 41.57 O2' 41.59 C1' 41.26 N1 41.64 C2 42.63 O2 43.48 N3 42.6 C4 42.34 N4 43.66 C5 41.07 C6 41.36
B C H 35 -75.1 -55.5 P 42.74 OP1 42.69 OP2 43.31 O5' 43.95 C5' 42.83 C4' 41.51 O4' 41.67 C3' 40.22 O3' 39.71 C2' 40.88 O2' 38.9 C1' 41.04 N1 41.4 C2 40.89 O2 38.61 N3 40.9 C4 40.7 N4 41.39 C5 40.36 C6 40.47
B G H 123 -48.5 -47.2 P 34.82 OP1 33.18 OP2 35.02 O5' 36.1 C5' 35.73 C4' 36.4 O4' 35.13 C3' 37.37 O3' 38.84 C2' 36.84 O2' 37.31 C1' 36.59 N9 37.42 C8 37.9 N7 38.16 C5 38.08 C6 37.64 O6 36.07 N1 38.12 C2 37.58 N2 37.33 N3 37.54 C4 38.04
B C H 105 -55.1 -39.8 P 50.73 OP1 49.49 OP2 50.24 O5' 50.28 C5' 51.66 C4' 52.81 O4' 53.08 C3' 53.73 O3' 56.39 C2' 53.68 O2' 54.23 C1' 52.72 N1 51.84 C2 51.85 O2 51.93 N3 51.4 C4 50.58 N4 50.15 C5 50.74 C6 51.71
B C H 0 -65.7 -53.9 P 53.67 OP1 54.0 OP2 53.86 O5' 53.78 C5' 54.57 C4' 54.3 O4' 53.79 C3' 55.41 O3' 57.29 C2' 54.93 O2' 55.97 C1' 53.89 N1 52.24 C2 51.47 O2 50.8 N3 51.45 C4 51.54 N4 50.84 C5 51.38 C6 52.01
B C H 91 -50.4 -59.0 P 63.43 OP1 61.15 OP2 60.36 O5' 64.24 C5' 65.41 C4' 65.19 O4' 64.56 C3' 66.02 O3' 66.79 C2' 65.2 O2' 66.6 C1' 64.55 N1 64.4 C2 64.21 O2 63.54 N3 64.09 C4 63.68 N4 62.59 C5 63.87 C6 64.78
B U H 83 -59.1 -23.0 P 75.51 OP1 76.48 OP2 74.72 O5' 74.14 C5' 73.36 C4' 73.53 O4' 72.99 C3' 73.79 O3' 74.99 C2' 73.27 O2' 73.41 C1' 72.59 N1 72.2 C2 72.38 O2 72.44 N3 72.42 C4 72.95 O4 72.8 C5 72.74 C6 72.33
B G H 0 -81.7 -37.3 P 67.72 OP1 66.53 OP2 67.36 O5' 67.18 C5' 67.85 C4' 69.11 O4' 69.12 C3' 69.87 O3' 70.4 C2' 69.48 O2' 69.62 C1' 68.92 N9 68.61 C8 68.3 N7 67.67 C5 68.44 C6 68.86 O6 69.74 N1 69.01 C2 68.89 N2 69.13 N3 68.78 C4 68.69
B G H 35 -72.8 -33.4 P 69.82 OP1 70.35 OP2 69.71 O5' 67.31 C5' 65.23 C4' 64.12 O4' 63.63 C3' 63.95 O3' 63.54 C2' 63.44 O2' 63.05 C1' 62.65 N9 60.81 C8 61.06 N7 59.63 C5 59.0 C6 58.66 O6 58.48 N1 57.76 C2 56.85 N2 55.25 N3 57.84 C4 59.13
B G H 97 -58.3 -60.2 P 71.86 OP1 71.94 OP2 71.0 O5' 69.62 C5' 68.34 C4' 68.07 O4' 68.25 C3' 67.24 O3' 66.41 C2' 66.84 O2' 66.05 C1' 66.63 N9 65.26 C8 64.31 N7 63.99 C5 64.17 C6 64.31 O6 65.19 N1 63.77 C2 63.59 N2 62.42 N3 64.71 C4 64.63
B C H 47 -58.1 -54.2 P 56.0 OP1 56.44 OP2 55.65 O5' 52.9 C5' 48.75 C4' 46.72 O4' 45.96 C3' 45.44 O3' 45.0 C2' 45.01 O2' 44.52 C1' 44.32 N1 42.56 C2 41.85 O2 42.42 N3 41.7 C4 41.73 N4 40.76 C5 41.75 C6 42.6
B C H 1 -46.5 -33.8 P 39.98 OP1 40.87 OP2 40.8 O5' 39.67 C5' 40.95 C4' 40.69 O4' 40.47 C3' 40.21 O3' 38.18 C2' 40.2 O2' 40.62 C1' 39.52 N1 38.86 C2 39.87 O2 40.99 N3 39.98 C4 39.66 N4 39.52 C5 40.11 C6 39.15
B A H 87 -70.7 -50.8 P 45.2 OP1 45.72 OP2 46.03 O5' 46.24 C5' 45.79 C4' 45.11 O4' 45.5 C3' 45.4 O3' 46.56 C2' 45.8 O2' 45.9 C1' 46.3 N9 45.94 C8 46.14 N7 46.1 C5 46.15 C6 45.69 N6 46.34 N1 45.16 C2 45.82 N3 46.11 C4 46.06
B U H 126 -54.6 -60.6 P 65.42 OP1 65.88 OP2 64.13 O5' 68.55 C5' 70.2 C4' 71.33 O4' 71.88 C3' 71.37 O3' 71.44 C2' 71.44 O2' 70.88 C1' 71.96 N1 72.94 C2 73.0 O2 71.87 N3 73.14 C4 73.32 O4 73.08 C5 73.43 C6 73.38
B C H 62 -43.5 -55.9 P 97.87 OP1 97.02 OP2 97.43 O5' 97.82 C5' 97.52 C4' 96.84 O4' 96.2 C3' 96.81 O3' 96.46 C2' 96.67 O2' 97.62 C1' 96.68 N1 96.8 C2 96.25 O2 94.93 N3 96.6 C4 96.6 N4 95.84 C5 96.75 C6 97.18
