A THR - 117 360.0 146.2 N 24.44 CA 25.58 C 23.75 O 23.6 CB 26.68 OG1 31.17 CG2 28.16
A ARG E 113 -85.5 133.3 N 22.66 CA 21.21 C 19.93 O 19.91 CB 21.86 CG 24.49 CD 27.13 NE 31.55 CZ 36.51 NH1 33.73 NH2 38.17
A SER E 81 -96.1 -17.6 N 18.47 CA 17.03 C 17.02 O 16.72 CB 18.49 OG 16.04
A PHE E 20 -148.7 140.8 N 14.78 CA 13.64 C 12.97 O 12.06 CB 14.16 CG 12.42 CD1 14.12 CD2 13.58 CE1 14.74 CE2 14.73 CZ 13.71
A TYR E 87 -146.5 131.5 N 12.77 CA 12.86 C 13.83 O 14.36 CB 14.44 CG 14.1 CD1 16.67 CD2 18.14 CE1 17.05 CE2 15.79 CZ 17.96 OH 17.09
A ASN E 5 -133.7 123.3 N 12.59 CA 13.39 C 13.5 O 12.58 CB 12.85 CG 14.11 OD1 13.32 ND2 13.57
A ASP S 64 -90.9 25.9 N 14.15 CA 14.57 C 14.43 O 16.11 CB 16.53 CG 19.79 OD1 20.11 OD2 25.25
A GLY S 0 89.2 48.2 N 15.29 CA 13.92 C 15.45 O 14.11
A HIS - 57 -137.3 154.6 N 14.81 CA 16.67 C 16.62 O 14.82 CB 16.51 CG 18.3 ND1 20.79 CD2 20.8 CE1 19.48 NE2 18.55
A LEU S 70 -64.3 -35.1 N 16.36 CA 16.7 C 16.54 O 15.66 CB 17.48 CG 20.49 CD1 23.57 CD2 19.96
A ASN T 141 -61.2 129.9 N 16.89 CA 17.87 C 16.64 O 16.59 CB 17.82 CG 22.93 OD1 27.15 ND2 26.21
A GLY T 42 111.3 -16.7 N 15.81 CA 15.4 C 15.63 O 16.44
A TRP - 19 -84.0 140.8 N 15.96 CA 17.68 C 19.55 O 20.68 CB 16.84 CG 15.29 CD1 14.14 CD2 14.13 NE1 14.67 CE2 13.62 CE3 12.99 CZ2 15.29 CZ3 15.25 CH2 13.15
A ASP S 93 -69.1 -34.3 N 20.51 CA 21.97 C 23.34 O 23.97 CB 21.21 CG 24.13 OD1 28.98 OD2 22.31
A TYR E 130 -154.1 144.7 N 22.51 CA 22.67 C 22.95 O 21.37 CB 24.45 CG 26.8 CD1 29.94 CD2 29.12 CE1 29.42 CE2 30.18 CZ 29.73 OH 31.91
A VAL E 38 -120.7 117.7 N 21.97 CA 21.72 C 22.19 O 21.03 CB 21.6 CG1 22.56 CG2 19.41
A ARG E 39 -109.1 118.7 N 21.12 CA 21.52 C 21.84 O 19.73 CB 20.28 CG 21.62 CD 23.74 NE 27.19 CZ 27.68 NH1 21.03 NH2 25.56
A LYS E 122 -128.1 77.6 N 22.55 CA 24.25 C 24.62 O 25.89 CB 24.46 CG 27.69 CD 34.77 CE 38.23 NZ 42.12
A GLU - 57 -70.3 137.6 N 24.75 CA 25.12 C 25.45 O 24.62 CB 26.2 CG 27.59 CD 32.15 OE1 34.12 OE2 26.19
A ASN T 68 61.8 -121.3 N 25.21 CA 24.81 C 24.01 O 24.36 CB 25.08 CG 26.84 OD1 27.25 ND2 27.59
A GLN T 114 -93.1 10.1 N 23.42 CA 23.56 C 22.38 O 20.56 CB 23.61 CG 27.01 CD 28.3 OE1 35.51 NE2 36.04
A GLY - 9 -62.1 152.5 N 22.3 CA 21.37 C 21.8 O 21.67
A THR E 59 -127.4 155.1 N 20.0 CA 19.87 C 20.02 O 17.98 CB 20.97 OG1 19.95 CG2 20.99
A VAL E 12 -142.5 117.9 N 18.75 CA 18.43 C 19.73 O 20.05 CB 17.25 CG1 16.48 CG2 16.95
A SER E 41 -142.3 162.5 N 20.08 CA 21.9 C 21.98 O 21.63 CB 22.39 OG 25.4
A GLU E 89 -88.9 137.0 N 21.62 CA 22.53 C 23.53 O 23.45 CB 22.87 CG 23.29 CD 26.81 OE1 32.31 OE2 24.06
A VAL E 19 -130.3 158.7 N 22.41 CA 22.49 C 22.95 O 22.0 CB 22.07 CG1 20.68 CG2 20.02
A SER S 99 -120.7 -2.3 N 23.17 CA 24.21 C 23.51 O 23.45 CB 25.34 OG 27.85
A ASN S 135 -93.2 -23.7 N 23.0 CA 23.91 C 23.78 O 24.98 CB 24.55 CG 25.84 OD1 27.21 ND2 28.27
A VAL S 25 -129.0 101.4 N 22.37 CA 20.52 C 19.74 O 18.55 CB 20.39 CG1 19.25 CG2 19.42
A VAL - 35 -140.0 139.3 N 19.3 CA 19.92 C 19.29 O 18.37 CB 20.56 CG1 23.45 CG2 21.1
A PHE S 53 -84.2 -45.6 N 17.59 CA 17.59 C 18.5 O 19.27 CB 16.94 CG 14.62 CD1 14.46 CD2 17.65 CE1 15.3 CE2 16.78 CZ 16.8
A LYS S 70 -144.5 147.7 N 18.54 CA 20.51 C 21.09 O 20.5 CB 19.94 CG 23.97 CD 22.0 CE 27.41 NZ 28.0
A GLY T 67 71.0 -148.3 N 21.89 CA 23.5 C 23.53 O 24.89
A THR T 116 -121.9 12.2 N 24.12 CA 24.79 C 24.15 O 24.74 CB 25.41 OG1 27.5 CG2 27.47
A SER - 8 -143.1 145.3 N 22.06 CA 20.61 C 19.74 O 19.28 CB 20.87 OG 23.59
A ALA E 0 -146.2 176.3 N 18.19 CA 17.08 C 16.51 O 17.1 CB 16.92
A LEU E 2 -107.7 137.7 N 15.47 CA 15.01 C 15.15 O 14.1 CB 14.63 CG 16.43 CD1 16.33 CD2 17.08
A LYS E 55 -112.2 124.5 N 14.84 CA 15.65 C 15.64 O 15.8 CB 16.04 CG 15.9 CD 18.79 CE 23.15 NZ 27.98
A MET E 0 -110.3 132.5 N 14.78 CA 14.53 C 15.29 O 14.98 CB 15.22 CG 15.2 SD 15.89 CE 13.77
A THR E 3 -129.3 151.8 N 15.14 CA 14.93 C 15.61 O 14.89 CB 15.47 OG1 15.3 CG2 13.4
A GLN E 0 -138.1 149.8 N 15.31 CA 15.59 C 17.37 O 17.12 CB 15.9 CG 15.51 CD 20.07 OE1 20.46 NE2 16.18
A THR E 31 -131.8 124.1 N 17.67 CA 19.13 C 20.53 O 20.49 CB 19.15 OG1 20.34 CG2 19.47
A TYR - 49 -71.6 139.4 N 21.08 CA 22.88 C 24.0 O 23.62 CB 22.04 CG 22.72 CD1 20.35 CD2 22.63 CE1 23.81 CE2 23.09 CZ 22.54 OH 23.85
A THR - 24 -136.2 99.9 N 25.26 CA 27.08 C 28.28 O 28.25 CB 26.98 OG1 27.6 CG2 26.95
A PRO T 109 -53.4 140.6 N 29.63 CA 30.07 C 30.25 O 30.63 CB 30.03 CG 30.32 CD 29.99
A GLY T 76 105.1 -39.5 N 30.85 CA 31.75 C 32.39 O 33.08
A TYR - 79 -64.4 134.8 N 31.53 CA 30.83 C 31.13 O 31.52 CB 30.86 CG 31.08 CD1 31.64 CD2 30.6 CE1 30.77 CE2 31.04 CZ 31.68 OH 30.58
A THR - 127 -107.3 -1.1 N 30.28 CA 30.27 C 29.16 O 29.7 CB 30.46 OG1 31.13 CG2 31.54
A GLY S 23 -87.4 -162.4 N 28.72 CA 27.4 C 27.0 O 26.86
A ARG - 102 -110.7 171.7 N 25.33 CA 24.02 C 22.52 O 21.21 CB 23.97 CG 25.95 CD 27.1 NE 29.2 CZ 32.28 NH1 34.76 NH2 31.4
A TYR - 3 -131.8 64.2 N 20.79 CA 18.73 C 18.36 O 17.33 CB 18.92 CG 19.04 CD1 17.47 CD2 20.29 CE1 18.94 CE2 18.85 CZ 19.46 OH 21.33
A HIS E 19 -95.2 127.5 N 17.07 CA 17.06 C 16.15 O 16.66 CB 17.33 CG 16.77 ND1 17.62 CD2 17.17 CE1 18.04 NE2 19.48
A SER E 0 -124.7 97.2 N 14.49 CA 14.72 C 15.16 O 13.9 CB 15.78 OG 14.13
A GLU E 0 -140.1 158.5 N 13.96 CA 14.2 C 14.62 O 13.07 CB 13.29 CG 14.09 CD 16.14 OE1 16.56 OE2 15.25
A VAL E 0 -120.2 142.3 N 13.27 CA 13.06 C 14.21 O 13.87 CB 11.27 CG1 12.91 CG2 11.56
A ASP E 2 -113.5 134.3 N 14.76 CA 15.88 C 15.73 O 14.99 CB 17.99 CG 21.55 OD1 19.33 OD2 22.98
A HIS E 18 -111.3 105.3 N 14.89 CA 15.58 C 15.94 O 15.3 CB 14.19 CG 15.44 ND1 17.37 CD2 15.23 CE1 16.7 NE2 16.76
A ASN E 65 -58.7 -35.4 N 17.98 CA 19.66 C 20.28 O 20.3 CB 20.34 CG 23.14 OD1 22.86 ND2 25.01
A ARG E 206 -90.0 70.7 N 20.46 CA 22.32 C 21.11 O 20.46 CB 23.32 CG 25.4 CD 26.73 NE 33.58 CZ 39.34 NH1 39.54 NH2 38.63
A GLY E 1 -77.8 -65.1 N 20.51 CA 18.75 C 18.3 O 18.49
A TYR E 3 -157.8 167.8 N 18.6 CA 19.28 C 21.21 O 19.03 CB 19.45 CG 18.9 CD1 18.26 CD2 17.84 CE1 19.35 CE2 18.25 CZ 21.3 OH 19.81
A GLN E 84 -135.8 140.7 N 23.46 CA 26.81 C 26.89 O 27.56 CB 27.78 CG 33.32 CD 38.32 OE1 41.39 NE2 41.59
A ARG T 75 -50.7 143.5 N 28.09 CA 28.86 C 28.4 O 29.15 CB 29.72 CG 33.1 CD 37.96 NE 40.54 CZ 39.78 NH1 38.35 NH2 42.89
A GLY T 64 94.4 15.0 N 29.12 CA 29.65 C 30.16 O 30.53
A GLU E 64 -136.5 157.0 N 29.26 CA 28.26 C 27.0 O 26.87 CB 28.97 CG 28.8 CD 31.59 OE1 35.4 OE2 27.9
A GLU E 63 -102.4 140.0 N 25.61 CA 24.39 C 22.51 O 20.45 CB 25.55 CG 28.75 CD 28.81 OE1 35.32 OE2 34.44
A GLN E 25 -141.1 155.0 N 19.25 CA 18.31 C 16.97 O 17.81 CB 17.77 CG 18.4 CD 18.18 OE1 20.76 NE2 20.14
A PHE E 14 -107.5 146.1 N 16.22 CA 14.06 C 13.28 O 12.66 CB 13.64 CG 15.95 CD1 14.85 CD2 18.07 CE1 17.63 CE2 17.95 CZ 15.84
A TYR E 0 -132.3 140.3 N 11.4 CA 11.01 C 10.96 O 10.74 CB 11.06 CG 12.07 CD1 13.38 CD2 15.09 CE1 13.47 CE2 14.08 CZ 15.73 OH 16.31
A GLY E 0 -139.1 145.4 N 10.65 CA 9.21 C 9.47 O 10.24
A PHE E 0 -158.3 156.6 N 8.55 CA 8.93 C 9.95 O 9.37 CB 8.93 CG 8.98 CD1 11.79 CD2 12.4 CE1 11.59 CE2 10.75 CZ 11.67
A ALA E 0 -106.0 145.3 N 9.31 CA 10.1 C 10.52 O 10.75 CB 10.02
A PHE E 0 -143.7 161.3 N 10.18 CA 9.82 C 10.43 O 10.11 CB 10.66 CG 9.49 CD1 10.24 CD2 9.84 CE1 11.0 CE2 13.81 CZ 12.71
A ARG E 39 -148.8 126.4 N 11.23 CA 10.95 C 11.67 O 10.97 CB 11.74 CG 12.33 CD 17.06 NE 18.9 CZ 21.76 NH1 19.32 NH2 23.01
A LEU E 0 -83.8 153.1 N 11.76 CA 12.78 C 13.68 O 14.01 CB 12.12 CG 12.85 CD1 14.78 CD2 12.18
A SER - 3 -51.7 145.5 N 13.81 CA 14.19 C 14.65 O 13.51 CB 13.71 OG 16.19
A GLU T 158 -56.6 -34.6 N 16.53 CA 18.09 C 17.16 O 18.05 CB 19.43 CG 25.06 CD 30.87 OE1 34.59 OE2 35.22
A ASP T 104 -94.9 24.3 N 16.82 CA 16.42 C 16.07 O 16.02 CB 18.6 CG 21.44 OD1 24.29 OD2 27.53
A TRP - 13 -51.3 131.4 N 14.78 CA 14.78 C 15.08 O 16.49 CB 14.06 CG 13.89 CD1 11.03 CD2 13.0 NE1 12.56 CE2 11.57 CE3 13.41 CZ2 14.01 CZ3 11.57 CH2 12.6
A GLN - 53 -99.9 102.2 N 15.74 CA 16.27 C 15.84 O 15.76 CB 14.96 CG 17.54 CD 17.36 OE1 20.01 NE2 17.02
A PHE - 77 -67.3 132.7 N 17.01 CA 17.55 C 18.69 O 19.4 CB 17.46 CG 17.31 CD1 18.1 CD2 15.37 CE1 17.05 CE2 18.9 CZ 19.8
A GLN - 40 -145.4 152.5 N 18.37 CA 18.88 C 20.15 O 19.24 CB 18.95 CG 19.28 CD 21.21 OE1 18.12 NE2 18.97
A PRO S 69 -65.2 -15.8 N 19.72 CA 20.14 C 20.05 O 20.87 CB 21.35 CG 20.68 CD 21.05
A GLN S 7 -68.8 163.1 N 19.23 CA 19.25 C 18.59 O 19.96 CB 17.75 CG 19.85 CD 18.28 OE1 19.58 NE2 22.44
A SER E 8 -84.3 134.4 N 18.23 CA 16.49 C 15.84 O 15.77 CB 16.45 OG 17.4
A TYR E 2 -119.0 112.0 N 14.94 CA 13.78 C 13.74 O 11.24 CB 13.84 CG 14.09 CD1 14.88 CD2 14.53 CE1 14.87 CE2 14.76 CZ 15.78 OH 13.93
A ASN E 0 -82.5 140.3 N 12.86 CA 12.54 C 11.84 O 11.95 CB 13.01 CG 13.66 OD1 13.45 ND2 11.76
A ILE E 0 -116.7 -17.5 N 11.53 CA 11.93 C 10.89 O 10.74 CB 13.51 CG1 12.29 CG2 11.66 CD1 13.79
A ALA E 1 -159.1 153.9 N 10.62 CA 10.83 C 12.17 O 12.14 CB 10.96
A GLN E 3 -161.1 151.0 N 12.33 CA 13.14 C 12.9 O 13.54 CB 12.03 CG 14.03 CD 14.97 OE1 18.74 NE2 16.71
A PHE E 2 -100.5 135.6 N 12.95 CA 15.05 C 16.53 O 17.32 CB 14.39 CG 14.88 CD1 14.63 CD2 14.23 CE1 15.99 CE2 16.57 CZ 14.82
A ILE E 13 -154.5 134.3 N 17.85 CA 18.57 C 20.02 O 19.47 CB 18.28 CG1 17.07 CG2 19.38 CD1 18.84
A ALA E 1 -120.9 144.2 N 21.04 CA 22.95 C 24.32 O 25.2 CB 22.6
A ASN E 73 -91.5 124.0 N 25.21 CA 27.51 C 28.44 O 27.7 CB 27.71 CG 29.27 OD1 32.42 ND2 30.33
A ARG - 6 -124.5 65.9 N 29.45 CA 30.17 C 31.25 O 30.57 CB 30.48 CG 29.58 CD 28.43 NE 29.06 CZ 29.52 NH1 27.18 NH2 26.49
A PRO T 95 -64.3 128.1 N 32.31 CA 33.28 C 33.58 O 33.56 CB 33.44 CG 32.57 CD 33.06
A GLY T 64 94.1 1.8 N 34.03 CA 33.33 C 34.26 O 33.92
A ALA - 1 -65.2 -41.2 N 33.06 CA 33.67 C 33.28 O 33.96 CB 32.63
A GLY - 40 81.7 9.9 N 33.34 CA 34.05 C 35.05 O 35.09
A CYS - 1 -98.7 142.6 N 35.4 CA 36.34 C 37.21 O 37.2 CB 36.12 SG 35.52
A GLY S 63 61.3 -168.3 N 38.82 CA 40.13 C 40.8 O 41.73
A GLY S 90 -76.7 -19.6 N 41.15 CA 41.09 C 41.13 O 41.94
A ASP S 88 -150.9 -169.8 N 40.13 CA 38.81 C 37.07 O 37.32 CB 38.92 CG 40.34 OD1 40.14 OD2 41.26
A ASP S 40 -104.2 3.5 N 34.74 CA 32.94 C 31.54 O 30.46 CB 32.86 CG 34.59 OD1 36.43 OD2 30.91
A TRP E 92 -78.9 127.0 N 29.87 CA 29.76 C 28.56 O 28.66 CB 30.18 CG 31.6 CD1 33.15 CD2 33.58 NE1 33.86 CE2 33.6 CE3 33.35 CZ2 33.59 CZ3 32.46 CH2 33.12
A MET E 1 -127.5 111.4 N 26.34 CA 24.81 C 23.55 O 21.72 CB 24.51 CG 24.3 SD 28.18 CE 27.93
A PRO E 32 -71.3 141.4 N 22.15 CA 20.87 C 20.34 O 19.6 CB 21.03 CG 21.4 CD 22.86
A SER E 0 -100.7 -99.3 N 18.41 CA 18.83 C 18.46 O 18.38 CB 18.8 OG 19.88
A THR E 1 -73.1 137.3 N 17.28 CA 16.51 C 16.13 O 15.08 CB 16.43 OG1 16.86 CG2 15.88
A MET E 13 -134.7 151.9 N 15.35 CA 15.93 C 14.84 O 15.98 CB 15.25 CG 15.95 SD 18.6 CE 17.91
A ILE E 4 -126.7 129.6 N 13.08 CA 12.32 C 12.09 O 10.95 CB 12.54 CG1 12.66 CG2 11.18 CD1 13.61
A TRP E 23 -148.2 165.8 N 12.94 CA 12.87 C 13.85 O 13.22 CB 13.06 CG 14.3 CD1 15.56 CD2 15.69 NE1 14.66 CE2 14.39 CE3 14.1 CZ2 13.39 CZ3 15.29 CH2 15.6
A ILE E 2 -100.6 130.3 N 14.81 CA 16.26 C 16.13 O 15.75 CB 16.2 CG1 18.44 CG2 16.23 CD1 18.72
A GLN E 54 -132.7 122.9 N 17.56 CA 18.59 C 18.41 O 17.5 CB 19.38 CG 21.57 CD 20.94 OE1 22.04 NE2 22.2
A ASN T 74 53.6 -130.6 N 18.68 CA 19.98 C 19.42 O 19.66 CB 20.64 CG 24.72 OD1 29.95 ND2 24.06
A ASN T 69 -105.0 28.4 N 18.68 CA 18.56 C 17.86 O 17.78 CB 19.56 CG 19.89 OD1 22.37 ND2 26.42
A GLN E 29 -119.9 138.6 N 17.97 CA 17.92 C 17.75 O 17.25 CB 18.93 CG 20.68 CD 21.73 OE1 25.75 NE2 20.77
A LEU E 1 -76.2 125.6 N 16.66 CA 15.96 C 15.93 O 16.46 CB 15.76 CG 16.87 CD1 16.36 CD2 16.55
A TYR E 30 -113.6 152.5 N 14.98 CA 16.15 C 15.35 O 14.34 CB 17.35 CG 19.41 CD1 22.02 CD2 20.05 CE1 21.95 CE2 23.06 CZ 21.96 OH 23.55
A SER E 0 -144.0 -178.6 N 15.77 CA 15.41 C 18.04 O 17.75 CB 16.75 OG 14.96
A ARG E 31 -161.4 165.1 N 17.89 CA 18.99 C 20.38 O 19.67 CB 18.8 CG 18.24 CD 18.72 NE 17.93 CZ 22.96 NH1 20.77 NH2 22.25
A TYR E 7 -134.8 163.8 N 20.22 CA 22.73 C 23.85 O 23.51 CB 23.45 CG 23.03 CD1 26.22 CD2 23.06 CE1 26.19 CE2 24.44 CZ 26.93 OH 27.43
A VAL E 0 -123.1 137.5 N 25.21 CA 26.7 C 27.82 O 28.04 CB 26.05 CG1 28.84 CG2 26.41
A ASN E 30 -141.8 168.4 N 28.71 CA 29.96 C 31.27 O 30.93 CB 29.65 CG 30.54 OD1 33.98 ND2 31.48
A GLY E 30 119.9 -153.3 N 32.52 CA 34.0 C 33.84 O 34.6
A HIS - 49 -121.8 -42.1 N 34.9 CA 34.78 C 33.98 O 34.88 CB 35.22 CG 37.19 ND1 38.98 CD2 39.16 CE1 39.82 NE2 38.69
A TYR - 30 39.2 46.0 N 33.52 CA 32.99 C 33.3 O 32.23 CB 32.12 CG 31.49 CD1 33.18 CD2 30.96 CE1 30.95 CE2 30.2 CZ 30.59 OH 31.93
A ARG B 70 -147.5 132.9 N 34.03 CA 34.78 C 35.83 O 35.57 CB 34.49 CG 33.57 CD 34.22 NE 32.17 CZ 33.32 NH1 30.18 NH2 34.06
A GLN T 111 -54.4 137.4 N 36.26 CA 37.76 C 38.42 O 38.8 CB 37.57 CG 37.42 CD 38.57 OE1 40.26 NE2 37.74
A PRO T 128 -93.7 28.8 N 39.27 CA 39.67 C 40.41 O 41.05 CB 40.04 CG 38.8 CD 39.32
A ASN B 93 -145.8 96.3 N 40.28 CA 39.49 C 39.23 O 38.56 CB 39.71 CG 39.24 OD1 39.12 ND2 42.11
A CYS - 45 -84.5 9.7 N 38.58 CA 37.65 C 37.76 O 37.36 CB 37.74 SG 35.7
A GLY - 39 -52.4 118.1 N 37.99 CA 38.69 C 39.0 O 39.07
A ARG E 82 -147.2 153.9 N 39.4 CA 39.09 C 38.54 O 39.19 CB 39.3 CG 39.71 CD 41.97 NE 44.32 CZ 47.87 NH1 50.38 NH2 48.4
A ASN E 94 -124.1 136.2 N 37.28 CA 35.71 C 34.4 O 35.16 CB 36.5 CG 38.57 OD1 43.62 ND2 41.59
A ILE E 64 -111.5 116.0 N 32.58 CA 30.55 C 29.87 O 29.37 CB 31.12 CG1 29.67 CG2 30.63 CD1 30.82
A VAL E 25 -100.7 110.2 N 27.62 CA 27.33 C 26.9 O 25.72 CB 26.96 CG1 27.82 CG2 27.98
A THR E 63 -92.5 134.7 N 26.53 CA 25.79 C 25.91 O 26.09 CB 26.39 OG1 26.87 CG2 26.24
A ARG E 83 -118.0 100.3 N 24.14 CA 24.27 C 23.79 O 23.63 CB 23.7 CG 26.05 CD 28.9 NE 30.16 CZ 30.6 NH1 28.25 NH2 28.53
A PRO E 61 -87.0 166.3 N 23.39 CA 22.24 C 22.13 O 22.73 CB 23.28 CG 23.34 CD 23.55
A ASN E 91 54.4 43.8 N 20.44 CA 20.14 C 20.28 O 20.21 CB 19.95 CG 21.29 OD1 20.02 ND2 24.13
A LEU E 17 -64.9 -35.2 N 19.25 CA 18.31 C 18.73 O 18.11 CB 19.32 CG 20.01 CD1 22.88 CD2 25.08
A ALA E 14 -164.2 144.9 N 17.77 CA 18.64 C 19.12 O 18.03 CB 18.9
A THR E 89 -71.9 129.9 N 19.13 CA 19.39 C 19.11 O 19.85 CB 20.4 OG1 24.47 CG2 21.67
A VAL - 1 -109.9 117.4 N 17.23 CA 17.86 C 18.18 O 18.86 CB 16.53 CG1 16.62 CG2 17.1
A SER - 59 -82.4 141.1 N 17.28 CA 18.06 C 17.72 O 17.46 CB 18.43 OG 18.11
A ALA T 29 -77.8 155.8 N 16.93 CA 16.46 C 16.84 O 17.23 CB 16.2
A GLY T 26 69.0 16.0 N 15.55 CA 15.28 C 16.58 O 17.85
A ALA S 36 -132.2 140.5 N 15.7 CA 15.28 C 14.63 O 14.4 CB 16.63
A TRP - 39 -69.3 125.6 N 14.74 CA 13.22 C 13.67 O 14.2 CB 13.97 CG 13.63 CD1 14.1 CD2 11.3 NE1 15.41 CE2 14.85 CE3 11.84 CZ2 14.04 CZ3 12.75 CH2 12.88
A HIS E 6 -112.2 154.3 N 11.84 CA 11.95 C 11.94 O 12.8 CB 11.73 CG 12.75 ND1 15.57 CD2 12.92 CE1 17.72 NE2 14.14
A ARG E 55 -129.1 125.5 N 10.91 CA 11.1 C 11.85 O 12.32 CB 10.88 CG 12.81 CD 16.62 NE 20.71 CZ 22.44 NH1 19.01 NH2 19.46
A VAL E 0 -119.4 131.2 N 12.13 CA 11.36 C 12.21 O 11.1 CB 11.39 CG1 11.66 CG2 11.84
A VAL E 3 -126.6 132.1 N 11.74 CA 12.59 C 13.28 O 12.91 CB 12.25 CG1 13.2 CG2 12.43
A LEU E 0 -114.5 135.8 N 12.17 CA 13.77 C 14.35 O 14.84 CB 13.9 CG 17.06 CD1 20.37 CD2 19.22
A GLN E 21 -119.6 114.6 N 15.43 CA 15.17 C 16.12 O 16.11 CB 15.41 CG 16.07 CD 17.13 OE1 19.29 NE2 20.0
A ILE E 0 -130.5 127.4 N 16.38 CA 17.95 C 18.82 O 18.69 CB 18.0 CG1 19.06 CG2 17.25 CD1 17.2
A LYS E 64 -97.1 114.3 N 19.89 CA 21.4 C 21.68 O 21.35 CB 22.54 CG 24.61 CD 28.54 CE 31.34 NZ 35.06
A TRP E 0 -82.1 108.0 N 22.26 CA 23.18 C 25.37 O 25.58 CB 22.45 CG 22.34 CD1 19.54 CD2 20.86 NE1 18.97 CE2 19.97 CE3 20.41 CZ2 19.36 CZ3 20.44 CH2 19.34
A ALA - 7 -143.4 146.8 N 27.31 CA 29.96 C 31.87 O 31.5 CB 29.82
A SER S 29 -96.9 -12.8 N 34.61 CA 36.96 C 38.1 O 38.41 CB 37.14 OG 38.91
A ASP S 95 -65.4 167.0 N 39.35 CA 40.45 C 40.22 O 40.55 CB 40.91 CG 44.16 OD1 47.47 OD2 47.52
A ASN T 119 -75.9 33.0 N 39.34 CA 38.63 C 37.32 O 37.86 CB 39.13 CG 40.86 OD1 42.18 ND2 42.04
A THR T 58 -109.7 1.0 N 36.33 CA 34.95 C 33.46 O 31.7 CB 34.93 OG1 36.78 CG2 35.93
A GLY E 0 -78.5 171.8 N 31.71 CA 28.89 C 27.74 O 26.68
A TYR E 47 -150.9 165.2 N 25.52 CA 24.15 C 22.43 O 21.57 CB 25.0 CG 27.31 CD1 26.7 CD2 30.36 CE1 29.12 CE2 30.98 CZ 29.91 OH 30.31
A PHE E 0 -150.9 105.1 N 21.75 CA 20.06 C 20.13 O 19.83 CB 20.9 CG 18.87 CD1 21.12 CD2 19.84 CE1 19.21 CE2 20.95 CZ 19.84
A LYS E 22 -128.6 138.7 N 19.06 CA 18.39 C 17.51 O 16.9 CB 17.04 CG 18.79 CD 21.59 CE 24.41 NZ 26.91
A ILE E 2 -137.5 136.2 N 16.16 CA 16.04 C 16.42 O 14.94 CB 16.56 CG1 16.02 CG2 16.53 CD1 17.53
A TRP E 33 -116.1 143.4 N 14.77 CA 15.36 C 15.0 O 13.74 CB 16.15 CG 16.95 CD1 20.39 CD2 17.94 NE1 20.26 CE2 20.18 CE3 20.78 CZ2 21.95 CZ3 21.56 CH2 20.56
A PHE E 14 -131.6 124.6 N 14.14 CA 14.58 C 15.34 O 16.09 CB 14.52 CG 14.84 CD1 14.87 CD2 14.17 CE1 16.45 CE2 14.23 CZ 16.37
A ASP T 49 48.0 41.6 N 14.3 CA 15.49 C 16.62 O 16.62 CB 15.24 CG 16.94 OD1 16.2 OD2 17.48
A GLY T 54 92.5 -4.2 N 17.16 CA 18.78 C 18.98 O 19.55
A ALA E 52 -114.2 137.0 N 18.58 CA 19.77 C 19.88 O 17.54 CB 21.16
A LYS E 88 -67.3 124.2 N 19.83 CA 21.02 C 21.7 O 22.34 CB 20.93 CG 22.16 CD 23.88 CE 29.26 NZ 33.93
A VAL E 51 -115.2 -12.0 N 20.9 CA 21.22 C 21.41 O 23.24 CB 20.25 CG1 20.03 CG2 18.92
A HIS E 39 -156.7 136.1 N 21.04 CA 21.02 C 21.42 O 19.71 CB 21.1 CG 23.15 ND1 25.43 CD2 24.12 CE1 24.49 NE2 25.21
A GLU E 91 -151.3 138.2 N 22.1 CA 23.76 C 24.62 O 25.48 CB 24.45 CG 27.19 CD 30.92 OE1 32.03 OE2 32.01
A GLU E 24 -146.7 147.6 N 25.28 CA 26.83 C 27.93 O 26.96 CB 27.36 CG 26.14 CD 26.96 OE1 27.76 OE2 24.27
A TYR E 99 -122.6 165.7 N 29.16 CA 30.49 C 31.04 O 31.58 CB 30.71 CG 31.98 CD1 31.88 CD2 31.87 CE1 31.8 CE2 33.26 CZ 32.54 OH 34.11
A ASN E 122 50.0 52.8 N 32.31 CA 33.81 C 33.66 O 34.03 CB 34.21 CG 35.8 OD1 37.6 ND2 39.16
A VAL E 26 -130.2 153.3 N 33.11 CA 31.5 C 31.22 O 31.33 CB 31.66 CG1 31.38 CG2 30.62
A ALA - 14 -84.4 120.7 N 30.1 CA 29.15 C 29.07 O 29.71 CB 29.34
A THR - 0 -107.6 -3.8 N 28.48 CA 27.74 C 27.75 O 27.61 CB 27.05 OG1 26.46 CG2 26.52
A THR S 1 -149.4 169.0 N 27.31 CA 26.74 C 28.35 O 28.06 CB 26.75 OG1 23.79 CG2 25.93
A VAL B 0 -71.6 157.7 N 28.88 CA 30.64 C 31.34 O 30.9 CB 29.58 CG1 31.03 CG2 30.89
A ASP S 65 -81.8 54.1 N 32.59 CA 33.94 C 33.86 O 34.05 CB 34.4 CG 36.83 OD1 37.03 OD2 37.87
A ASP S 20 -137.7 -172.8 N 33.38 CA 33.78 C 33.48 O 33.8 CB 33.68 CG 37.36 OD1 35.86 OD2 37.44
A ASP - 95 -116.1 27.3 N 32.7 CA 32.66 C 31.53 O 31.17 CB 32.97 CG 34.96 OD1 37.94 OD2 38.52
A SER - 22 -58.9 149.4 N 30.71 CA 29.58 C 27.81 O 27.79 CB 29.75 OG 32.47
A VAL E 71 -97.0 118.7 N 26.45 CA 24.98 C 23.34 O 23.33 CB 25.51 CG1 23.56 CG2 24.68
A PHE E 1 -91.2 135.8 N 22.52 CA 21.14 C 20.1 O 19.34 CB 20.7 CG 22.56 CD1 20.49 CD2 23.94 CE1 23.11 CE2 23.21 CZ 21.44
A GLN E 30 -73.6 154.7 N 18.71 CA 18.86 C 17.96 O 17.44 CB 18.52 CG 22.11 CD 26.83 OE1 29.03 NE2 31.36
A PHE E 1 -111.7 116.9 N 17.11 CA 16.0 C 15.22 O 15.65 CB 15.87 CG 15.47 CD1 16.03 CD2 16.06 CE1 16.13 CE2 13.94 CZ 15.03
A ARG E 8 -113.8 141.0 N 13.56 CA 13.1 C 13.29 O 11.81 CB 13.73 CG 14.88 CD 19.0 NE 18.38 CZ 24.17 NH1 22.34 NH2 23.21
A VAL E 0 -119.9 141.8 N 13.0 CA 12.84 C 12.92 O 12.64 CB 14.41 CG1 16.09 CG2 14.73
A GLY E 0 150.9 169.0 N 11.56 CA 11.24 C 11.92 O 12.62
A LEU E 0 -82.3 116.9 N 12.2 CA 12.98 C 13.81 O 15.0 CB 12.26 CG 13.26 CD1 14.1 CD2 13.78
A TYR E 21 -123.5 102.1 N 14.21 CA 14.41 C 14.33 O 14.06 CB 15.21 CG 17.1 CD1 20.28 CD2 17.68 CE1 21.13 CE2 19.67 CZ 20.45 OH 19.28
A ALA - 0 -85.8 75.5 N 14.61 CA 15.05 C 16.48 O 18.0 CB 15.17
A ASN H 18 -73.6 -34.9 N 17.01 CA 17.95 C 18.96 O 19.36 CB 17.72 CG 18.14 OD1 18.5 ND2 20.86
A SER H 13 -65.7 -27.0 N 18.88 CA 18.86 C 20.19 O 21.2 CB 18.62 OG 17.7
A TRP H 3 -57.6 -46.1 N 19.3 CA 20.45 C 22.02 O 22.56 CB 18.44 CG 17.91 CD1 16.0 CD2 15.85 NE1 16.02 CE2 15.85 CE3 17.41 CZ2 16.05 CZ3 17.1 CH2 16.38
A HIS H 56 -77.8 -53.4 N 23.13 CA 24.48 C 25.59 O 25.36 CB 25.33 CG 26.26 ND1 27.91 CD2 28.45 CE1 29.85 NE2 27.39
A ASP H 90 -56.4 -33.7 N 25.96 CA 26.51 C 27.69 O 27.95 CB 26.64 CG 28.07 OD1 26.14 OD2 29.07
A ASP H 78 -94.0 -18.3 N 27.48 CA 29.34 C 29.57 O 30.59 CB 28.54 CG 29.47 OD1 28.12 OD2 29.1
A GLY S 60 84.4 4.9 N 29.53 CA 29.89 C 30.4 O 30.76
A HIS S 96 -166.1 167.0 N 29.14 CA 28.71 C 27.88 O 26.38 CB 29.48 CG 30.92 ND1 34.6 CD2 35.52 CE1 35.96 NE2 36.61
A MET - 45 -107.6 131.1 N 27.35 CA 28.11 C 26.31 O 26.09 CB 27.85 CG 30.28 SD 33.56 CE 29.95
A THR - 43 -86.5 130.9 N 24.69 CA 23.45 C 22.8 O 21.93 CB 23.14 OG1 24.48 CG2 22.81
A GLY S 33 89.6 -165.5 N 22.26 CA 21.76 C 21.73 O 21.58
A THR S 121 -125.0 7.6 N 20.92 CA 21.67 C 20.9 O 21.28 CB 22.0 OG1 24.3 CG2 23.24
A GLN - 27 -102.5 82.4 N 19.68 CA 18.45 C 19.37 O 18.67 CB 18.55 CG 15.53 CD 18.19 OE1 13.31 NE2 16.48
A GLY - 18 -78.9 -9.9 N 18.95 CA 18.14 C 18.16 O 19.01
A PHE E 98 -110.0 111.1 N 16.88 CA 16.63 C 16.42 O 17.53 CB 16.72 CG 17.83 CD1 18.4 CD2 16.6 CE1 19.17 CE2 17.34 CZ 19.99
A ARG E 0 -114.7 138.2 N 15.45 CA 14.62 C 14.7 O 14.79 CB 13.99 CG 12.89 CD 14.77 NE 14.74 CZ 16.76 NH1 12.84 NH2 15.07
A GLN E 37 -132.9 132.5 N 13.58 CA 13.24 C 12.58 O 13.04 CB 14.16 CG 16.89 CD 19.9 OE1 22.04 NE2 21.15
A VAL E 0 -139.0 134.7 N 11.9 CA 11.48 C 12.52 O 13.36 CB 12.23 CG1 10.91 CG2 11.8
A TRP E 17 -104.3 152.7 N 10.89 CA 11.17 C 10.96 O 9.8 CB 12.3 CG 13.99 CD1 17.68 CD2 14.38 NE1 15.3 CE2 15.81 CE3 13.03 CZ2 16.76 CZ3 16.39 CH2 16.07
A TYR E 1 -136.4 155.3 N 10.11 CA 9.69 C 11.61 O 12.75 CB 9.56 CG 9.34 CD1 10.17 CD2 11.05 CE1 7.82 CE2 8.99 CZ 10.29 OH 9.8
A ASP E 1 -163.4 166.0 N 11.68 CA 12.46 C 12.65 O 11.46 CB 12.44 CG 14.6 OD1 13.18 OD2 13.66
A GLU E 14 52.3 59.8 N 11.51 CA 12.12 C 12.23 O 12.82 CB 12.97 CG 18.46 CD 23.09 OE1 25.08 OE2 20.15
A VAL E 2 -97.8 139.6 N 10.66 CA 11.03 C 10.48 O 12.22 CB 9.94 CG1 11.08 CG2 10.28
A ALA E 4 -152.3 150.5 N 9.87 CA 9.89 C 11.32 O 9.61 CB 10.26
A VAL E 0 -128.7 136.1 N 10.95 CA 12.9 C 12.79 O 13.43 CB 12.85 CG1 14.3 CG2 12.08
A GLY E 0 -168.1 -167.1 N 13.53 CA 14.25 C 14.45 O 14.08
A THR S 64 -110.7 -4.3 N 14.63 CA 16.11 C 16.47 O 17.29 CB 16.63 OG1 16.98 CG2 18.43
A THR S 58 -132.6 163.5 N 15.97 CA 16.18 C 16.2 O 15.55 CB 16.18 OG1 14.86 CG2 17.05
A PHE H 54 -59.3 -49.5 N 15.49 CA 14.47 C 14.22 O 12.36 CB 14.85 CG 14.79 CD1 17.24 CD2 16.66 CE1 13.91 CE2 15.48 CZ 14.36
A ALA H 39 -60.0 -30.9 N 13.12 CA 14.23 C 14.33 O 14.33 CB 14.48
A ASP H 36 -57.9 -36.3 N 13.4 CA 14.59 C 13.85 O 14.31 CB 14.69 CG 18.62 OD1 20.99 OD2 23.98
A VAL H 4 -113.5 -10.7 N 14.31 CA 12.39 C 12.99 O 11.13 CB 12.85 CG1 12.82 CG2 11.62
A ASP - 18 -64.5 113.2 N 12.62 CA 13.54 C 13.43 O 14.75 CB 14.07 CG 15.71 OD1 16.17 OD2 16.51
A PRO T 1 -60.1 -18.6 N 13.09 CA 13.59 C 15.54 O 15.52 CB 14.09 CG 11.9 CD 13.53
A ASP T 70 -88.2 6.5 N 17.14 CA 19.55 C 21.46 O 22.35 CB 20.3 CG 22.82 OD1 23.86 OD2 27.4
A GLN - 80 -145.8 174.5 N 21.31 CA 23.5 C 25.11 O 25.25 CB 21.85 CG 19.16 CD 17.28 OE1 13.88 NE2 15.31
A ALA - 119 -67.5 360.0 N 27.78 CA 30.04 C 31.7 O 32.34 CB 30.12 OXT 31.92
