C LEU - 28 -114.3 153.0 N 129.13 CA 123.2 C 118.46 O 117.49 CB 122.86 CG 120.45 CD1 121.16 CD2 121.22
C ASP - 31 -93.8 105.9 N 113.36 CA 107.97 C 105.16 O 105.29 CB 107.6 CG 108.04 OD1 109.94 OD2 107.65
C PRO - 10 -93.2 -1.4 N 101.61 CA 99.66 C 99.33 O 99.45 CB 98.09 CG 99.79 CD 100.15
C ARG S 59 -57.1 -26.3 N 98.47 CA 99.2 C 99.06 O 101.64 CB 99.98 CG 99.12 CD 99.63 NE 99.01 CZ 100.79 NH1 99.91 NH2 104.14
C LEU E 0 -161.2 140.3 N 96.55 CA 94.41 C 94.24 O 97.31 CB 91.41 CG 88.0 CD1 88.01 CD2 87.09
C SER E 3 -160.1 155.9 N 92.45 CA 93.94 C 95.57 O 98.38 CB 90.69 OG 94.23
C VAL E 2 -94.9 116.5 N 95.41 CA 94.53 C 96.61 O 98.46 CB 92.88 CG1 92.89 CG2 93.99
C ALA - 7 -51.6 146.8 N 96.82 CA 95.63 C 94.82 O 93.93 CB 97.15
C PRO - 17 -69.0 124.3 N 95.21 CA 97.05 C 99.96 O 100.72 CB 97.17 CG 96.02 CD 95.78
C VAL T 88 -50.2 134.2 N 104.22 CA 102.17 C 101.26 O 100.61 CB 101.75 CG1 104.42 CG2 104.33
C ASP T 81 66.0 24.9 N 100.01 CA 102.07 C 102.5 O 104.63 CB 106.56 CG 112.57 OD1 116.05 OD2 115.52
C ARG T 97 -137.4 -60.1 N 101.52 CA 101.6 C 99.88 O 99.11 CB 105.42 CG 110.83 CD 116.72 NE 120.67 CZ 124.01 NH1 125.56 NH2 126.24
C THR - 2 -91.1 51.5 N 97.46 CA 95.47 C 95.91 O 98.06 CB 93.73 OG1 92.53 CG2 92.15
C ASP S 26 -76.1 169.2 N 95.04 CA 95.64 C 94.95 O 93.77 CB 98.62 CG 102.26 OD1 104.7 OD2 101.29
C ARG H 70 -57.0 -17.4 N 94.44 CA 95.26 C 96.47 O 97.55 CB 95.4 CG 95.59 CD 94.82 NE 97.99 CZ 102.83 NH1 102.55 NH2 107.24
C HIS H 15 -78.6 -50.1 N 95.38 CA 94.2 C 93.3 O 94.51 CB 92.73 CG 93.08 ND1 92.36 CD2 93.8 CE1 94.14 NE2 92.99
C PHE H 2 -67.3 -33.2 N 88.73 CA 86.03 C 87.44 O 88.8 CB 82.27 CG 78.92 CD1 76.57 CD2 80.47 CE1 78.01 CE2 80.38 CZ 78.36
C ARG H 13 -64.0 -40.8 N 88.05 CA 88.79 C 89.79 O 89.73 CB 89.95 CG 92.55 CD 93.18 NE 91.42 CZ 90.65 NH1 92.56 NH2 91.3
C PHE H 0 -63.0 -37.6 N 89.35 CA 91.18 C 93.08 O 93.07 CB 90.79 CG 91.36 CD1 91.09 CD2 91.99 CE1 91.25 CE2 94.74 CZ 94.02
C LEU H 0 -62.6 -48.9 N 94.35 CA 93.29 C 91.83 O 92.94 CB 93.24 CG 92.29 CD1 93.89 CD2 92.06
C VAL H 1 -62.2 -29.9 N 89.14 CA 88.88 C 88.59 O 88.49 CB 89.71 CG1 86.67 CG2 88.54
C ARG H 9 -70.2 -24.7 N 87.83 CA 89.47 C 91.23 O 95.76 CB 88.29 CG 89.35 CD 88.27 NE 87.26 CZ 88.06 NH1 88.57 NH2 88.31
C GLN H 33 -76.1 -25.1 N 88.95 CA 87.7 C 87.69 O 88.95 CB 87.7 CG 88.9 CD 92.01 OE1 94.12 NE2 94.03
C VAL H 0 -84.5 -45.5 N 85.11 CA 86.31 C 87.94 O 90.53 CB 86.39 CG1 87.28 CG2 87.12
C SER - 0 -132.9 126.2 N 89.68 CA 91.51 C 91.98 O 93.31 CB 93.49 OG 90.32
C LEU S 88 -79.0 -34.8 N 91.58 CA 91.53 C 91.1 O 89.85 CB 91.9 CG 91.62 CD1 91.93 CD2 93.69
C GLY S 17 -91.8 -27.4 N 90.78 CA 91.06 C 89.99 O 89.66
C VAL S 0 -54.6 132.8 N 89.61 CA 88.09 C 88.14 O 88.93 CB 88.45 CG1 88.18 CG2 90.36
C ARG E 7 -81.9 130.3 N 87.75 CA 90.25 C 91.52 O 93.81 CB 91.45 CG 94.53 CD 95.02 NE 93.41 CZ 97.49 NH1 100.42 NH2 98.93
C LEU E 2 -101.3 149.9 N 91.91 CA 91.9 C 91.94 O 95.11 CB 91.92 CG 92.7 CD1 96.69 CD2 93.17
C TYR E 6 -128.3 137.4 N 90.08 CA 88.57 C 89.09 O 90.46 CB 85.72 CG 84.62 CD1 86.1 CD2 82.18 CE1 85.71 CE2 81.38 CZ 83.78 OH 83.47
C THR - 4 -70.7 170.2 N 87.53 CA 86.94 C 87.53 O 89.44 CB 85.91 OG1 84.14 CG2 87.58
C GLU - 52 -70.6 161.0 N 88.59 CA 92.9 C 94.19 O 94.93 CB 96.25 CG 102.23 CD 107.09 OE1 109.32 OE2 109.35
C THR E 17 -119.7 111.1 N 102.69 CA 102.23 C 104.16 O 105.06 CB 100.7 OG1 97.68 CG2 103.56
C VAL E 42 -61.2 146.2 N 105.92 CA 109.5 C 111.11 O 112.08 CB 110.44 CG1 111.36 CG2 112.42
C ASP H 7 -65.7 -33.9 N 111.83 CA 113.25 C 112.92 O 114.89 CB 114.61 CG 117.19 OD1 119.21 OD2 120.36
C GLN H 75 -68.2 -29.2 N 110.87 CA 111.03 C 111.31 O 113.46 CB 111.92 CG 115.66 CD 116.07 OE1 114.65 NE2 115.69
C ALA H 37 -74.1 -28.0 N 110.16 CA 108.68 C 107.51 O 108.66 CB 108.3
C VAL H 0 -79.1 -29.0 N 105.28 CA 105.55 C 107.29 O 108.78 CB 104.48 CG1 103.88 CG2 105.05
C LEU H 36 -88.0 -32.0 N 107.7 CA 108.21 C 109.91 O 112.44 CB 106.99 CG 107.09 CD1 107.76 CD2 108.64
C ARG H 214 -119.1 -18.2 N 110.24 CA 111.63 C 111.82 O 113.03 CB 113.21 CG 118.33 CD 123.16 NE 128.78 CZ 131.59 NH1 132.28 NH2 133.16
C GLY S 34 -89.9 177.7 N 111.97 CA 111.42 C 110.95 O 112.23
C ASN - 90 -64.9 107.1 N 109.4 CA 107.71 C 107.48 O 107.19 CB 108.53 CG 108.05 OD1 108.14 ND2 108.18
C ARG H 103 -74.5 -27.3 N 107.74 CA 108.63 C 109.02 O 110.76 CB 107.11 CG 106.68 CD 107.71 NE 108.87 CZ 109.26 NH1 108.19 NH2 109.02
C GLU H 125 -72.4 -38.2 N 108.23 CA 108.87 C 108.44 O 108.08 CB 110.53 CG 111.12 CD 111.16 OE1 110.24 OE2 111.08
C ARG H 205 -67.8 -39.7 N 108.46 CA 110.86 C 109.59 O 112.17 CB 114.95 CG 120.49 CD 124.03 NE 127.57 CZ 129.28 NH1 131.05 NH2 129.22
C LEU H 71 -73.3 -52.1 N 106.38 CA 104.51 C 103.39 O 105.9 CB 105.1 CG 105.61 CD1 106.06 CD2 106.57
C LEU H 0 -105.3 -22.1 N 99.22 CA 97.44 C 97.19 O 97.68 CB 98.11 CG 99.81 CD1 101.71 CD2 99.16
C ALA - 27 -60.6 127.9 N 96.17 CA 94.41 C 91.31 O 92.32 CB 96.59
C PHE - 33 -141.6 170.8 N 87.86 CA 87.91 C 90.92 O 95.41 CB 86.64 CG 87.83 CD1 87.93 CD2 89.83 CE1 88.79 CE2 90.98 CZ 90.77
C ARG - 24 -85.2 148.4 N 89.87 CA 87.53 C 86.97 O 89.92 CB 89.54 CG 93.04 CD 95.12 NE 97.0 CZ 99.89 NH1 99.52 NH2 99.95
C PRO G 92 -68.9 -15.6 N 85.14 CA 86.9 C 89.04 O 91.3 CB 86.36 CG 88.33 CD 86.57
C GLU G 81 -72.1 -22.5 N 88.09 CA 88.34 C 87.18 O 88.43 CB 90.43 CG 99.56 CD 104.05 OE1 107.01 OE2 107.8
C GLU G 0 -75.8 -6.0 N 85.82 CA 86.48 C 85.79 O 84.04 CB 89.64 CG 92.39 CD 94.62 OE1 98.04 OE2 94.05
C HIS - 69 -65.8 136.6 N 86.02 CA 85.52 C 84.18 O 87.04 CB 87.86 CG 90.13 ND1 88.37 CD2 90.82 CE1 87.34 NE2 88.75
C PRO S 36 -79.9 145.1 N 81.67 CA 82.91 C 85.2 O 89.29 CB 80.37 CG 76.16 CD 78.57
C ILE E 0 -147.7 142.8 N 84.51 CA 82.49 C 81.99 O 85.34 CB 82.87 CG1 83.59 CG2 84.07 CD1 88.37
C ALA E 0 -122.0 129.0 N 80.24 CA 79.05 C 80.44 O 80.53 CB 74.49
C LEU E 0 -84.3 117.2 N 83.19 CA 86.0 C 89.5 O 91.78 CB 85.37 CG 86.33 CD1 89.75 CD2 86.4
C GLN E 4 -94.1 127.7 N 92.29 CA 93.74 C 94.69 O 94.85 CB 92.76 CG 94.35 CD 97.48 OE1 98.31 NE2 97.56
C LEU E 0 -114.3 148.5 N 95.03 CA 94.51 C 96.81 O 99.15 CB 94.14 CG 94.62 CD1 94.72 CD2 96.42
C ALA E 0 -119.6 141.0 N 96.67 CA 98.47 C 100.57 O 100.99 CB 99.88
C GLY - 2 174.4 -177.9 N 102.12 CA 104.43 C 106.37 O 105.36
C SER S 30 -138.1 -32.4 N 107.84 CA 109.32 C 110.31 O 109.79 CB 109.49 OG 110.02
C ASP - 65 -80.6 119.8 N 112.36 CA 113.29 C 112.56 O 112.63 CB 115.8 CG 118.42 OD1 120.47 OD2 119.67
C PRO H 16 -53.8 -46.2 N 111.93 CA 112.75 C 113.89 O 114.83 CB 112.65 CG 112.78 CD 112.25
C LYS H 168 -67.9 -32.2 N 115.14 CA 117.02 C 115.53 O 114.62 CB 120.86 CG 125.31 CD 126.88 CE 127.34 NZ 127.14
C SER H 19 -73.6 -35.1 N 114.37 CA 112.92 C 112.53 O 112.81 CB 111.84 OG 112.13
C LEU H 0 -78.9 -24.9 N 111.39 CA 111.09 C 112.45 O 113.41 CB 108.27 CG 106.59 CD1 107.19 CD2 102.88
C ALA H 15 -75.4 -33.3 N 113.82 CA 114.22 C 113.92 O 113.9 CB 115.12
C GLU H 69 -75.8 -33.1 N 114.08 CA 114.05 C 112.43 O 110.53 CB 117.75 CG 122.23 CD 126.24 OE1 127.45 OE2 128.21
C ALA H 0 -76.0 -28.3 N 111.65 CA 111.96 C 111.35 O 110.33 CB 113.84
C ALA H 0 -78.6 -30.4 N 111.78 CA 112.76 C 113.38 O 114.46 CB 112.85
C ARG H 138 -68.2 -33.6 N 113.77 CA 112.73 C 108.93 O 108.12 CB 118.09 CG 120.99 CD 124.59 NE 128.82 CZ 130.58 NH1 130.46 NH2 129.65
C ILE H 15 -77.2 -40.3 N 104.28 CA 100.4 C 99.49 O 98.51 CB 98.32 CG1 96.39 CG2 95.95 CD1 98.72
C GLY H 0 -64.2 -41.2 N 99.13 CA 100.61 C 102.13 O 102.72
C GLU H 59 -59.7 -33.4 N 102.31 CA 101.78 C 99.86 O 101.41 CB 104.9 CG 110.55 CD 113.26 OE1 115.07 OE2 116.2
C ALA H 84 -69.6 -38.7 N 96.5 CA 95.36 C 94.65 O 97.14 CB 95.33
C PHE T 56 -66.0 -9.5 N 92.21 CA 91.26 C 90.97 O 91.33 CB 90.04 CG 89.2 CD1 90.83 CD2 90.9 CE1 93.18 CE2 93.15 CZ 93.11
C GLY T 31 105.0 7.1 N 89.82 CA 90.02 C 90.1 O 89.97
C TYR - 4 -60.7 134.7 N 89.36 CA 90.27 C 91.55 O 96.11 CB 89.19 CG 87.51 CD1 87.58 CD2 85.95 CE1 86.06 CE2 83.24 CZ 84.55 OH 88.07
C ASP S 57 -79.6 -10.5 N 90.44 CA 91.39 C 90.68 O 93.0 CB 92.74 CG 95.27 OD1 98.84 OD2 95.08
C GLU E 0 -160.9 140.6 N 89.37 CA 89.89 C 88.56 O 91.35 CB 88.63 CG 93.72 CD 98.55 OE1 100.62 OE2 102.42
C ILE E 0 -113.4 101.9 N 86.36 CA 86.61 C 91.18 O 94.97 CB 83.38 CG1 82.39 CG2 78.41 CD1 82.16
C ASN E 0 -92.4 137.5 N 92.79 CA 92.18 C 92.26 O 90.22 CB 93.96 CG 95.59 OD1 101.38 ND2 95.39
C LEU E 0 -99.0 124.6 N 93.6 CA 94.52 C 96.4 O 97.45 CB 94.81 CG 92.98 CD1 94.11 CD2 93.7
C ASN E 11 -77.9 116.6 N 96.83 CA 97.46 C 96.71 O 96.5 CB 98.57 CG 98.27 OD1 98.44 ND2 96.42
C LEU E 0 -130.5 35.1 N 96.46 CA 98.88 C 100.99 O 101.9 CB 98.22 CG 99.34 CD1 98.59 CD2 98.45
C GLY - 7 -137.8 -13.4 N 102.88 CA 104.56 C 104.72 O 105.78
C CYS - 30 -70.9 109.6 N 104.54 CA 106.02 C 108.53 O 110.03 CB 104.82 SG 102.65
C PRO - 9 -96.7 18.0 N 110.05 CA 111.05 C 112.71 O 112.5 CB 111.38 CG 111.3 CD 110.12
C SER S 20 -66.7 161.2 N 114.76 CA 117.65 C 119.78 O 118.62 CB 119.06 OG 122.21
C GLU H 151 -64.1 -28.2 N 123.63 CA 126.6 C 126.59 O 127.11 CB 129.25 CG 134.58 CD 138.3 OE1 139.8 OE2 140.3
C LYS H 126 -67.5 -39.0 N 125.64 CA 126.1 C 126.2 O 127.48 CB 127.37 CG 130.45 CD 131.82 CE 132.98 NZ 131.87
C ALA H 1 -70.4 -42.5 N 125.69 CA 125.14 C 125.86 O 126.16 CB 124.7
C GLN H 71 -63.4 -38.8 N 126.77 CA 128.13 C 129.67 O 131.14 CB 125.87 CG 121.42 CD 118.79 OE1 118.76 NE2 117.2
C GLU H 145 -71.9 -34.9 N 129.91 CA 130.65 C 130.12 O 130.45 CB 132.45 CG 136.52 CD 139.84 OE1 140.85 OE2 141.08
C GLY H 40 -81.3 -11.0 N 128.79 CA 126.57 C 124.99 O 124.96
C GLY T 29 73.7 21.6 N 122.59 CA 119.24 C 116.74 O 117.86
C TYR - 28 -120.7 177.4 N 113.42 CA 112.29 C 111.67 O 112.92 CB 111.72 CG 110.74 CD1 111.3 CD2 111.1 CE1 110.09 CE2 109.67 CZ 108.79 OH 107.4
C GLY G 0 86.6 -129.8 N 110.32 CA 109.21 C 109.12 O 112.22
C ALA G 0 -75.2 -26.6 N 106.59 CA 106.3 C 105.61 O 104.09 CB 106.76
C CYS G 25 -75.0 -6.0 N 106.03 CA 108.61 C 108.03 O 108.12 CB 109.77 SG 119.71
C LEU G 8 -74.8 -22.7 N 107.45 CA 107.69 C 107.86 O 107.83 CB 107.25 CG 107.66 CD1 108.5 CD2 109.41
C LEU G 25 -64.6 -24.1 N 108.69 CA 111.22 C 113.72 O 115.13 CB 110.62 CG 111.75 CD1 110.27 CD2 112.59
C LEU G 139 -57.9 -34.1 N 115.45 CA 116.97 C 118.36 O 120.5 CB 116.65 CG 116.43 CD1 116.59 CD2 117.69
C ASP - 67 -116.5 97.5 N 118.54 CA 119.25 C 119.5 O 121.29 CB 120.46 CG 122.95 OD1 125.73 OD2 123.47
C LEU H 48 -69.9 -33.4 N 118.49 CA 118.18 C 118.9 O 118.69 CB 116.8 CG 116.08 CD1 115.89 CD2 114.64
C ALA H 54 -61.4 -38.7 N 119.99 CA 120.1 C 120.34 O 121.91 CB 120.34
C ARG H 92 -73.6 -43.4 N 119.23 CA 119.23 C 119.75 O 121.4 CB 119.48 CG 120.23 CD 121.67 NE 123.44 CZ 123.64 NH1 124.94 NH2 122.07
C VAL H 0 -65.0 -28.3 N 119.08 CA 118.04 C 119.08 O 119.89 CB 116.3 CG1 115.48 CG2 116.55
C ARG H 83 -81.2 -32.6 N 119.69 CA 120.74 C 120.93 O 121.18 CB 122.15 CG 126.67 CD 129.29 NE 134.49 CZ 137.28 NH1 138.49 NH2 138.88
C GLU H 98 -80.1 -22.7 N 121.42 CA 122.65 C 120.4 O 120.63 CB 126.66 CG 134.93 CD 139.27 OE1 139.1 OE2 142.34
C ILE H 0 -70.1 -43.7 N 118.11 CA 117.24 C 117.15 O 118.77 CB 116.31 CG1 117.01 CG2 116.86 CD1 116.36
C LEU H 3 -70.4 -34.1 N 115.74 CA 114.23 C 116.08 O 117.02 CB 108.22 CG 102.62 CD1 102.71 CD2 101.14
C LYS H 90 -69.2 -34.3 N 118.17 CA 120.23 C 120.59 O 121.32 CB 121.87 CG 124.57 CD 124.86 CE 124.75 NZ 122.84
C ALA H 29 -75.3 -42.4 N 120.14 CA 119.03 C 119.0 O 117.74 CB 117.77
C GLY H 38 -64.7 -31.1 N 121.2 CA 123.19 C 124.02 O 124.87
C GLU H 174 -89.8 -8.9 N 123.9 CA 123.94 C 121.78 O 123.09 CB 126.85 CG 131.3 CD 133.15 OE1 133.75 OE2 133.94
C ALA H 29 -95.6 -20.3 N 118.24 CA 114.44 C 112.29 O 112.78 CB 114.25
C VAL - 8 -132.1 161.7 N 109.55 CA 107.34 C 107.38 O 107.45 CB 105.84 CG1 106.74 CG2 106.1
C ARG S 185 -102.3 -13.1 N 108.07 CA 109.49 C 107.44 O 109.19 CB 112.89 CG 119.9 CD 126.14 NE 130.51 CZ 132.14 NH1 132.19 NH2 131.73
C VAL S 29 -79.2 153.3 N 104.56 CA 100.73 C 95.56 O 95.58 CB 102.15 CG1 102.7 CG2 107.22
C PRO - 62 -58.6 125.2 N 92.67 CA 94.4 C 95.96 O 99.87 CB 90.77 CG 90.02 CD 90.94
C VAL E 17 -94.7 113.7 N 94.09 CA 91.82 C 89.86 O 89.57 CB 93.65 CG1 92.96 CG2 94.77
C THR E 1 -110.2 -172.2 N 90.32 CA 92.99 C 94.77 O 96.85 CB 92.5 OG1 91.9 CG2 91.32
C VAL E 0 -150.0 139.8 N 94.22 CA 92.41 C 92.2 O 90.43 CB 90.95 CG1 87.94 CG2 88.8
C LYS E 24 -117.1 99.7 N 93.15 CA 96.23 C 100.75 O 102.9 CB 92.41 CG 85.35 CD 83.75 CE 79.85 NZ 81.58
C ARG E 9 -113.4 171.8 N 107.78 CA 106.38 C 106.7 O 109.54 CB 106.13 CG 106.62 CD 108.02 NE 109.76 CZ 111.33 NH1 111.59 NH2 112.2
C LEU S 6 -69.5 -30.7 N 104.9 CA 104.96 C 108.41 O 110.07 CB 102.58 CG 102.63 CD1 102.97 CD2 104.14
C GLY - 12 175.5 -169.3 N 111.08 CA 113.23 C 114.72 O 113.46
C LEU B 19 -125.6 140.9 N 117.12 CA 118.82 C 120.78 O 121.47 CB 116.92 CG 117.04 CD1 116.36 CD2 118.16
C GLU T 67 57.7 37.7 N 121.6 CA 122.14 C 121.67 O 121.65 CB 124.16 CG 127.15 CD 129.93 OE1 132.71 OE2 130.97
C GLY T 44 50.7 26.1 N 121.22 CA 121.59 C 122.28 O 123.44
C LYS - 163 -103.7 16.9 N 121.79 CA 122.21 C 123.11 O 123.57 CB 120.72 CG 120.77 CD 120.18 CE 118.88 NZ 116.99
C GLU - 26 -73.3 137.5 N 124.21 CA 124.64 C 124.55 O 124.77 CB 124.66 CG 126.3 CD 126.94 OE1 127.07 OE2 125.97
C THR - 82 -123.8 153.9 N 124.34 CA 124.33 C 123.06 O 123.42 CB 125.08 OG1 126.17 CG2 125.61
C TYR H 23 -67.8 -34.1 N 121.8 CA 120.88 C 119.86 O 118.63 CB 121.44 CG 121.23 CD1 121.26 CD2 121.76 CE1 121.03 CE2 121.05 CZ 120.42 OH 120.45
C ARG H 192 -74.5 -21.6 N 120.05 CA 122.77 C 123.1 O 124.59 CB 125.04 CG 128.88 CD 132.76 NE 134.46 CZ 134.64 NH1 134.01 NH2 134.88
C GLY H 35 -81.9 -34.6 N 121.59 CA 120.41 C 119.19 O 119.45
C LEU H 4 -75.6 -39.7 N 118.62 CA 117.13 C 117.86 O 119.14 CB 113.79 CG 112.72 CD1 111.8 CD2 112.61
C ALA H 11 -71.5 -27.0 N 117.87 CA 118.15 C 118.5 O 119.4 CB 119.91
C GLN H 112 -76.4 -34.3 N 118.97 CA 120.53 C 120.08 O 121.01 CB 122.93 CG 125.87 CD 127.28 OE1 126.87 NE2 127.77
C SER H 15 -79.3 -25.0 N 119.92 CA 120.67 C 120.6 O 120.87 CB 121.23 OG 120.9
C VAL H 0 -75.5 -31.0 N 120.25 CA 120.38 C 121.78 O 122.33 CB 119.04 CG1 118.62 CG2 118.15
C GLU H 105 -63.9 -44.9 N 122.84 CA 123.34 C 122.7 O 123.72 CB 126.14 CG 130.29 CD 133.43 OE1 133.39 OE2 135.82
C ALA H 13 -64.3 -45.5 N 122.1 CA 122.92 C 123.26 O 123.52 CB 122.35
C ALA H 24 -69.5 -33.0 N 121.14 CA 120.81 C 121.09 O 120.63 CB 119.54
C GLU H 157 -74.2 -19.0 N 122.01 CA 122.96 C 121.28 O 121.5 CB 126.5 CG 133.53 CD 137.85 OE1 140.75 OE2 139.25
C ALA T 12 -84.4 -11.6 N 118.73 CA 116.93 C 116.65 O 116.89 CB 117.28
C GLY T 44 129.1 -33.7 N 114.84 CA 111.5 C 108.73 O 110.33
C VAL - 4 -47.5 137.7 N 105.71 CA 103.34 C 103.33 O 102.03 CB 102.28 CG1 100.33 CG2 101.3
C LYS - 128 -117.4 -36.3 N 104.27 CA 105.85 C 105.06 O 103.72 CB 108.28 CG 109.76 CD 109.26 CE 110.86 NZ 112.08
C VAL E 10 -107.7 124.5 N 104.38 CA 104.48 C 104.71 O 106.94 CB 104.28 CG1 104.15 CG2 104.88
C PHE E 0 -117.1 93.7 N 102.38 CA 102.0 C 99.86 O 101.32 CB 105.42 CG 106.72 CD1 107.05 CD2 108.86 CE1 109.38 CE2 111.63 CZ 110.99
C VAL E 0 -75.8 105.6 N 96.36 CA 93.92 C 93.0 O 92.1 CB 92.41 CG1 93.17 CG2 90.16
C VAL E 0 -104.4 113.7 N 93.19 CA 95.49 C 96.56 O 99.77 CB 95.65 CG1 95.51 CG2 95.56
C HIS E 11 -72.1 106.1 N 95.31 CA 96.56 C 99.52 O 103.07 CB 96.85 CG 96.48 ND1 93.59 CD2 96.25 CE1 92.0 NE2 95.44
C ALA S 0 -76.5 73.2 N 101.57 CA 103.19 C 104.67 O 107.19 CB 102.18
C ARG S 11 -178.8 145.2 N 105.05 CA 106.86 C 107.87 O 110.5 CB 107.15 CG 106.71 CD 105.58 NE 104.12 CZ 104.36 NH1 105.13 NH2 104.59
C SER - 2 -70.9 166.3 N 108.45 CA 110.46 C 111.71 O 111.17 CB 112.13 OG 113.19
C ALA B 0 -118.3 114.1 N 112.58 CA 114.0 C 114.14 O 115.8 CB 116.11
C LEU - 42 -93.7 103.4 N 112.24 CA 110.85 C 111.38 O 111.56 CB 108.36 CG 106.37 CD1 106.6 CD2 105.22
C LEU T 32 -55.9 -20.4 N 111.81 CA 112.78 C 112.86 O 113.45 CB 112.96 CG 114.38 CD1 116.76 CD2 113.25
C ALA T 92 -74.2 -31.2 N 112.04 CA 110.88 C 109.87 O 110.19 CB 111.41
C LEU S 50 -79.8 165.0 N 109.0 CA 110.35 C 111.82 O 110.83 CB 110.31 CG 111.38 CD1 111.51 CD2 111.04
C SER - 72 -72.5 171.5 N 114.2 CA 116.72 C 117.13 O 117.22 CB 117.85 OG 118.83
C THR T 59 -70.7 -38.8 N 117.35 CA 118.13 C 118.06 O 119.17 CB 117.13 OG1 119.25 CG2 116.86
C LYS T 123 -70.0 -25.1 N 116.86 CA 116.55 C 115.83 O 115.05 CB 117.71 CG 121.83 CD 124.28 CE 125.84 NZ 126.17
C ALA T 16 -79.8 -28.2 N 115.34 CA 116.2 C 116.39 O 117.63 CB 116.23
C ASN T 0 -79.3 -4.0 N 115.12 CA 113.23 C 112.35 O 112.99 CB 112.57 CG 114.15 OD1 113.03 ND2 116.79
C ARG T 92 -113.6 13.1 N 111.78 CA 111.73 C 112.1 O 111.47 CB 111.5 CG 113.21 CD 113.84 NE 113.58 CZ 115.14 NH1 115.98 NH2 116.08
C GLU T 111 -141.8 -22.8 N 111.82 CA 112.28 C 109.57 O 109.72 CB 116.2 CG 122.73 CD 124.87 OE1 125.31 OE2 126.64
C ILE S 105 -94.2 -60.2 N 105.94 CA 103.32 C 102.46 O 102.66 CB 102.21 CG1 100.04 CG2 102.32 CD1 100.11
C PRO S 6 -53.4 148.3 N 102.53 CA 102.42 C 103.0 O 102.82 CB 102.29 CG 102.69 CD 103.9
C PRO - 67 -72.2 140.9 N 103.76 CA 104.6 C 105.05 O 106.44 CB 105.76 CG 104.95 CD 104.19
C LEU - 66 -89.2 110.4 N 104.1 CA 104.37 C 105.14 O 104.63 CB 106.4 CG 109.5 CD1 111.47 CD2 110.08
C ARG - 80 -105.3 73.8 N 106.6 CA 110.33 C 111.35 O 111.74 CB 114.26 CG 122.16 CD 129.17 NE 131.59 CZ 133.7 NH1 133.9 NH2 136.02
C HIS H 25 -66.4 -27.3 N 112.41 CA 113.42 C 114.64 O 113.17 CB 113.14 CG 114.23 ND1 114.92 CD2 116.27 CE1 114.11 NE2 116.02
C ASP H 87 -66.1 -24.2 N 116.58 CA 117.93 C 115.89 O 116.41 CB 122.25 CG 126.7 OD1 130.56 OD2 128.98
C TRP H 30 -70.3 -35.7 N 112.98 CA 111.62 C 111.7 O 113.95 CB 109.04 CG 106.94 CD1 104.34 CD2 106.92 NE1 104.48 CE2 105.93 CE3 108.5 CZ2 106.9 CZ3 107.57 CH2 105.95
C VAL H 0 -74.2 -34.9 N 109.97 CA 109.39 C 109.39 O 110.59 CB 110.34 CG1 110.32 CG2 112.02
C HIS H 39 -61.2 -41.1 N 108.87 CA 108.56 C 109.57 O 109.39 CB 106.31 CG 103.58 ND1 102.56 CD2 103.37 CE1 101.56 NE2 102.57
C ARG H 116 -72.4 -27.2 N 110.64 CA 112.78 C 112.81 O 113.24 CB 113.84 CG 118.4 CD 121.55 NE 122.75 CZ 122.38 NH1 121.51 NH2 121.61
C LEU H 0 -63.4 -34.7 N 113.13 CA 115.19 C 115.96 O 116.83 CB 114.68 CG 113.8 CD1 112.91 CD2 113.71
C LYS H 6 -74.0 -32.1 N 114.9 CA 113.12 C 112.22 O 111.44 CB 112.52 CG 114.05 CD 115.84 CE 117.56 NZ 119.09
C GLY H 39 -72.4 -29.8 N 111.81 CA 110.99 C 110.74 O 110.5
C ASP H 95 -91.0 -22.3 N 110.75 CA 111.97 C 113.69 O 115.18 CB 111.18 CG 111.06 OD1 109.96 OD2 109.95
C PHE - 20 -134.8 74.3 N 115.2 CA 117.56 C 118.61 O 119.78 CB 118.3 CG 119.71 CD1 120.02 CD2 120.18 CE1 120.5 CE2 120.8 CZ 119.73
C PRO T 20 -68.4 -15.8 N 118.89 CA 118.36 C 117.65 O 116.76 CB 118.35 CG 118.83 CD 119.47
C GLN T 97 -87.7 -14.8 N 116.73 CA 116.5 C 113.03 O 113.16 CB 120.69 CG 127.87 CD 130.92 OE1 131.26 NE2 131.14
C LEU S 5 -96.5 160.5 N 109.25 CA 107.51 C 106.03 O 105.91 CB 107.7 CG 107.21 CD1 107.88 CD2 107.05
C THR E 33 -108.0 126.9 N 103.77 CA 103.35 C 103.32 O 106.47 CB 104.6 OG1 106.99 CG2 105.91
C PHE E 0 -121.9 129.5 N 99.92 CA 96.95 C 96.81 O 97.14 CB 94.47 CG 92.44 CD1 92.24 CD2 91.57 CE1 92.25 CE2 92.79 CZ 93.84
C VAL E 2 -114.3 97.5 N 95.7 CA 95.2 C 96.33 O 96.16 CB 94.16 CG1 94.77 CG2 95.14
C THR E 0 -67.3 153.6 N 95.87 CA 95.2 C 95.76 O 95.77 CB 95.96 OG1 99.93 CG2 97.36
C ASN E 13 -155.1 145.1 N 96.87 CA 98.7 C 101.32 O 101.97 CB 95.74 CG 93.8 OD1 94.38 ND2 93.77
C GLY S 4 124.3 113.5 N 103.47 CA 106.65 C 108.99 O 110.21
C GLY S 33 79.2 10.8 N 109.42 CA 111.36 C 112.18 O 114.57
C ILE - 7 -75.1 116.0 N 112.02 CA 112.22 C 112.89 O 113.88 CB 111.88 CG1 110.86 CG2 110.41 CD1 111.91
C ARG - 119 -95.5 -28.7 N 112.31 CA 111.65 C 110.67 O 109.18 CB 114.12 CG 117.8 CD 117.82 NE 118.46 CZ 118.5 NH1 117.65 NH2 119.21
C SER S 41 -142.0 178.8 N 110.9 CA 110.23 C 109.77 O 108.92 CB 109.9 OG 111.49
C LEU H 8 -79.2 -22.2 N 109.9 CA 110.87 C 112.38 O 111.86 CB 109.93 CG 109.57 CD1 110.73 CD2 112.01
C GLU H 113 -71.2 -39.7 N 114.1 CA 114.93 C 113.68 O 113.34 CB 118.2 CG 124.16 CD 127.85 OE1 128.94 OE2 129.94
C GLU H 80 -69.3 -40.1 N 113.65 CA 114.73 C 113.37 O 112.25 CB 117.09 CG 122.02 CD 125.26 OE1 126.35 OE2 128.04
C ALA H 0 -62.8 -32.7 N 112.18 CA 110.68 C 109.16 O 109.43 CB 111.65
C LEU H 31 -71.4 -34.2 N 107.51 CA 108.17 C 109.58 O 111.01 CB 106.29 CG 106.05 CD1 108.08 CD2 106.16
C PHE H 98 -62.3 -46.6 N 109.74 CA 109.09 C 108.41 O 109.74 CB 108.91 CG 107.78 CD1 109.38 CD2 105.4 CE1 108.43 CE2 104.97 CZ 106.92
C HIS H 21 -71.6 -19.6 N 106.56 CA 106.58 C 106.79 O 108.36 CB 105.79 CG 105.88 ND1 105.57 CD2 105.75 CE1 104.89 NE2 104.16
C LEU H 32 -74.6 -23.1 N 106.18 CA 106.48 C 105.97 O 104.18 CB 106.79 CG 107.34 CD1 106.75 CD2 107.38
C LYS T 151 -80.9 7.0 N 107.71 CA 110.3 C 110.78 O 113.35 CB 111.36 CG 114.65 CD 118.03 CE 119.94 NZ 117.56
C ARG T 97 -133.0 -37.0 N 109.71 CA 110.62 C 110.5 O 113.04 CB 111.1 CG 112.82 CD 113.17 NE 114.71 CZ 116.19 NH1 116.86 NH2 117.96
C VAL S 7 -124.9 177.6 N 109.45 CA 108.94 C 106.78 O 106.45 CB 111.47 CG1 112.47 CG2 114.3
C ASP S 40 -76.0 -33.3 N 104.92 CA 104.56 C 104.14 O 105.43 CB 105.72 CG 108.34 OD1 108.73 OD2 110.97
C GLY E 0 -153.2 169.7 N 102.8 CA 99.8 C 97.25 O 96.57
C VAL E 0 -136.8 140.5 N 95.28 CA 94.01 C 94.95 O 97.41 CB 91.42 CG1 91.07 CG2 93.31
C LEU E 2 -116.4 125.9 N 94.01 CA 95.03 C 96.86 O 98.24 CB 93.08 CG 92.96 CD1 92.13 CD2 96.88
C GLY S 11 -107.9 -79.4 N 97.69 CA 96.51 C 94.36 O 93.05
C ARG H 69 -67.3 -24.5 N 92.77 CA 92.99 C 94.37 O 96.39 CB 91.17 CG 87.09 CD 86.55 NE 85.8 CZ 88.84 NH1 91.24 NH2 89.67
C ALA H 7 -64.3 -37.3 N 94.57 CA 93.99 C 93.85 O 94.22 CB 94.93
C VAL H 0 -79.5 -43.7 N 94.58 CA 96.58 C 98.8 O 98.55 CB 93.79 CG1 92.73 CG2 92.51
C TYR H 32 -67.6 -49.5 N 101.6 CA 104.37 C 105.88 O 106.56 CB 105.75 CG 108.0 CD1 110.87 CD2 110.38 CE1 114.85 CE2 113.73 CZ 115.39 OH 117.62
C GLU S 73 -56.7 -25.8 N 108.62 CA 110.32 C 109.21 O 110.22 CB 113.59 CG 121.35 CD 125.48 OE1 127.49 OE2 126.45
C ASP - 38 -165.7 94.9 N 106.97 CA 104.64 C 103.15 O 103.31 CB 104.84 CG 105.19 OD1 105.32 OD2 107.1
C PRO G 1 -51.9 -30.7 N 101.14 CA 99.53 C 99.04 O 100.27 CB 98.19 CG 98.51 CD 99.89
C PHE G 5 -82.0 21.5 N 97.82 CA 96.86 C 96.08 O 97.34 CB 97.57 CG 99.82 CD1 100.73 CD2 101.11 CE1 101.71 CE2 101.7 CZ 100.22
C VAL G 27 -77.3 -20.1 N 94.56 CA 93.93 C 94.96 O 94.85 CB 90.82 CG1 91.73 CG2 89.72
C LEU G 1 -97.4 27.2 N 94.74 CA 94.53 C 98.67 O 100.55 CB 89.4 CG 86.49 CD1 83.17 CD2 85.79
C GLU T 64 -61.0 -42.7 N 102.66 CA 108.09 C 109.1 O 108.57 CB 111.51 CG 116.39 CD 118.15 OE1 119.94 OE2 118.06
C GLU T 71 -97.5 4.0 N 110.94 CA 113.24 C 112.76 O 113.14 CB 116.57 CG 120.74 CD 124.31 OE1 124.82 OE2 125.49
C ALA I 0 -54.6 -48.3 N 111.53 CA 110.96 C 110.02 O 108.49 CB 111.9
C ASP I 0 -63.2 -49.0 N 109.5 CA 110.67 C 112.75 O 113.18 CB 109.56 CG 109.25 OD1 107.75 OD2 109.3
C ARG I 101 -69.3 -35.5 N 115.69 CA 118.89 C 118.83 O 120.57 CB 122.76 CG 128.6 CD 132.41 NE 138.73 CZ 140.94 NH1 142.0 NH2 141.53
C ARG I 104 -99.1 -41.6 N 117.62 CA 115.33 C 112.85 O 113.07 CB 116.5 CG 118.96 CD 120.76 NE 123.41 CZ 125.62 NH1 126.52 NH2 126.08
C VAL I 9 -86.4 -49.7 N 110.29 CA 107.1 C 105.94 O 107.53 CB 106.61 CG1 106.62 CG2 104.65
C PHE S 25 -96.1 -1.9 N 104.11 CA 104.31 C 104.35 O 102.63 CB 104.96 CG 103.84 CD1 103.51 CD2 102.64 CE1 102.92 CE2 103.82 CZ 104.26
C GLY - 38 66.5 16.0 N 105.32 CA 105.93 C 106.91 O 106.7
C LEU - 59 -80.3 155.0 N 108.93 CA 111.43 C 114.94 O 116.82 CB 110.26 CG 111.07 CD1 113.42 CD2 110.36
C PRO S 104 -96.7 61.1 N 116.83 CA 117.96 C 117.88 O 119.99 CB 118.7 CG 117.87 CD 116.71
C ARG - 82 -156.2 130.2 N 116.66 CA 117.97 C 119.21 O 120.89 CB 119.15 CG 121.93 CD 123.11 NE 127.75 CZ 130.7 NH1 131.75 NH2 132.2
C ARG - 152 -128.2 118.5 N 119.91 CA 119.99 C 117.63 O 117.31 CB 124.13 CG 129.91 CD 135.04 NE 137.3 CZ 136.67 NH1 135.49 NH2 136.46
C PRO - 9 -75.6 157.0 N 116.35 CA 115.4 C 113.96 O 113.69 CB 117.03 CG 116.73 CD 116.69
C SER - 52 -108.2 141.0 N 113.12 CA 113.37 C 112.78 O 111.74 CB 112.98 OG 114.76
C ARG H 29 -58.1 -29.0 N 113.49 CA 114.26 C 115.58 O 117.19 CB 112.53 CG 110.84 CD 109.46 NE 109.13 CZ 111.76 NH1 110.01 NH2 113.3
C LEU H 38 -82.2 -41.4 N 116.49 CA 118.27 C 119.08 O 118.84 CB 118.26 CG 117.84 CD1 116.1 CD2 118.79
C GLU H 120 -60.3 -41.2 N 119.25 CA 118.86 C 115.7 O 114.53 CB 122.21 CG 127.28 CD 129.24 OE1 130.37 OE2 128.79
C VAL H 6 -65.9 -34.1 N 111.88 CA 108.55 C 109.0 O 109.75 CB 106.11 CG1 102.88 CG2 105.96
C ALA H 0 -70.8 -31.4 N 109.25 CA 109.92 C 111.17 O 112.36 CB 109.14
C ARG H 110 -69.0 -41.0 N 112.18 CA 114.36 C 114.97 O 114.43 CB 115.75 CG 117.87 CD 120.02 NE 122.86 CZ 124.11 NH1 123.81 NH2 126.22
C ARG H 82 -76.6 -28.3 N 115.74 CA 117.22 C 115.97 O 115.25 CB 120.79 CG 126.9 CD 130.01 NE 131.93 CZ 133.88 NH1 135.56 NH2 135.47
C ARG H 65 -73.8 -43.0 N 112.77 CA 111.72 C 111.08 O 111.92 CB 112.2 CG 113.13 CD 115.33 NE 117.98 CZ 118.02 NH1 117.27 NH2 118.43
C ALA H 34 -67.4 -35.0 N 109.57 CA 106.32 C 103.7 O 102.06 CB 106.89
C TYR H 0 -69.1 -30.0 N 101.86 CA 101.66 C 100.96 O 102.06 CB 101.72 CG 100.74 CD1 102.7 CD2 101.58 CE1 104.78 CE2 104.26 CZ 106.52 OH 109.98
C LEU H 0 -76.3 -25.5 N 99.6 CA 98.88 C 99.8 O 98.3 CB 97.56 CG 97.04 CD1 95.72 CD2 97.29
C GLU H 89 -76.7 -42.3 N 101.61 CA 103.57 C 103.18 O 103.78 CB 106.87 CG 113.39 CD 119.03 OE1 122.11 OE2 122.22
C GLU H 89 -61.2 -55.4 N 102.39 CA 101.47 C 101.12 O 100.06 CB 100.97 CG 100.69 CD 101.05 OE1 99.76 OE2 103.05
C GLU H 0 -60.3 -57.2 N 100.04 CA 101.62 C 103.69 O 104.66 CB 100.72 CG 102.14 CD 101.98 OE1 101.65 OE2 100.08
C VAL H 45 -51.0 -40.4 N 104.95 CA 104.84 C 102.79 O 102.27 CB 105.72 CG1 106.07 CG2 108.51
C LEU H 138 -73.9 -13.1 N 100.8 CA 100.67 C 99.91 O 99.97 CB 100.64 CG 101.73 CD1 99.2 CD2 106.15
C LYS T 128 -119.0 36.3 N 98.63 CA 100.36 C 100.43 O 100.24 CB 102.35 CG 105.13 CD 105.96 CE 107.37 NZ 104.01
C GLY T 69 96.4 6.3 N 100.94 CA 100.9 C 100.5 O 101.28
C THR - 14 -87.2 119.0 N 98.99 CA 96.89 C 94.16 O 93.57 CB 97.48 OG1 99.49 CG2 98.89
C PRO - 82 -52.9 133.8 N 92.31 CA 93.01 C 94.05 O 95.75 CB 93.87 CG 93.56 CD 92.45
C PRO H 45 -61.7 -25.8 N 94.01 CA 94.65 C 96.15 O 96.17 CB 93.99 CG 94.88 CD 94.0
C TRP H 63 -79.7 -20.0 N 96.13 CA 98.34 C 100.13 O 102.02 CB 97.4 CG 96.74 CD1 95.93 CD2 96.23 NE1 94.33 CE2 93.86 CE3 97.32 CZ2 93.85 CZ3 98.21 CH2 96.21
C ALA H 24 -65.8 -27.2 N 101.67 CA 101.92 C 100.4 O 100.39 CB 105.89
C VAL H 0 -102.2 -32.2 N 98.61 CA 100.61 C 103.75 O 105.17 CB 98.48 CG1 98.57 CG2 98.47
C LEU H 0 -80.4 -23.8 N 104.59 CA 103.36 C 104.43 O 107.58 CB 99.76 CG 97.89 CD1 98.58 CD2 97.48
C ARG T 62 -78.4 -4.0 N 102.6 CA 102.53 C 102.89 O 103.74 CB 101.27 CG 101.42 CD 103.19 NE 107.81 CZ 109.37 NH1 109.59 NH2 111.52
C HIS T 3 -110.1 0.8 N 103.39 CA 105.07 C 107.12 O 107.26 CB 101.87 CG 100.88 ND1 101.02 CD2 102.6 CE1 102.73 NE2 103.32
C LEU T 18 -72.5 -26.0 N 112.37 CA 111.94 C 111.86 O 113.88 CB 109.66 CG 107.82 CD1 107.7 CD2 108.14
C ASN T 14 -96.4 11.0 N 110.7 CA 111.16 C 112.36 O 114.28 CB 111.15 CG 112.58 OD1 114.31 ND2 113.95
C LEU T 1 -66.1 -29.7 N 112.55 CA 113.98 C 115.62 O 117.31 CB 113.34 CG 114.08 CD1 112.52 CD2 116.21
C PHE T 14 -120.4 36.9 N 114.89 CA 113.14 C 112.29 O 112.9 CB 112.4 CG 110.95 CD1 110.64 CD2 110.62 CE1 111.87 CE2 110.79 CZ 111.23
C ARG T 109 -68.6 128.3 N 112.52 CA 113.56 C 113.78 O 113.9 CB 114.58 CG 116.68 CD 119.89 NE 123.92 CZ 125.85 NH1 128.04 NH2 129.13
C GLY T 83 71.8 22.1 N 114.2 CA 116.24 C 117.97 O 119.07
C ARG S 124 -118.2 158.1 N 119.14 CA 120.67 C 123.0 O 123.98 CB 119.59 CG 119.26 CD 120.42 NE 120.52 CZ 122.04 NH1 123.69 NH2 123.65
C PRO T 98 -51.8 129.5 N 124.33 CA 125.02 C 125.9 O 124.43 CB 124.86 CG 124.47 CD 124.31
C LYS T 125 60.6 28.0 N 127.82 CA 130.72 C 131.24 O 131.61 CB 132.7 CG 136.51 CD 141.78 CE 146.05 NZ 148.13
C GLY H 12 -68.0 -35.6 N 131.13 CA 132.57 C 134.89 O 134.95
C ARG H 193 -53.3 -51.2 N 138.34 CA 141.39 C 141.41 O 141.0 CB 145.4 CG 149.37 CD 153.45 NE 156.13 CZ 156.71 NH1 157.0 NH2 156.64
C LEU H 76 -67.7 -30.3 N 142.02 CA 143.59 C 142.82 O 143.41 CB 146.94 CG 149.01 CD1 149.65 CD2 148.69
C TRP H 0 -66.3 -39.9 N 140.74 CA 138.99 C 138.86 O 138.97 CB 136.71 CG 131.95 CD1 130.86 CD2 128.08 NE1 127.93 CE2 126.16 CE3 126.86 CZ2 124.83 CZ3 125.56 CH2 125.18
C ARG H 63 -77.8 -27.5 N 139.09 CA 140.2 C 140.19 O 140.9 CB 142.78 CG 147.01 CD 152.68 NE 158.34 CZ 161.96 NH1 163.84 NH2 163.03
C ARG H 158 -74.3 -46.2 N 139.97 CA 139.37 C 136.94 O 137.69 CB 142.31 CG 146.48 CD 149.62 NE 152.47 CZ 153.47 NH1 154.28 NH2 152.39
C LEU H 40 -55.4 -42.7 N 133.28 CA 129.85 C 127.99 O 127.75 CB 129.02 CG 128.37 CD1 128.62 CD2 128.67
C LEU H 0 -79.0 -33.5 N 126.22 CA 125.23 C 125.24 O 125.05 CB 123.42 CG 120.33 CD1 119.39 CD2 119.53
C SER H 42 -80.1 -12.6 N 125.81 CA 127.23 C 129.25 O 131.06 CB 125.95 OG 127.23
C GLU H 129 -99.7 -49.6 N 130.36 CA 131.0 C 129.51 O 128.67 CB 134.74 CG 140.31 CD 142.51 OE1 143.44 OE2 143.0
C GLY H 39 -77.6 -53.8 N 128.24 CA 125.8 C 123.41 O 124.24
C ARG - 117 57.8 55.6 N 119.5 CA 114.87 C 113.64 O 113.02 CB 111.67 CG 108.2 CD 105.16 NE 105.11 CZ 106.76 NH1 106.64 NH2 106.87
C SER S 39 -156.7 161.2 N 112.79 CA 113.82 C 113.96 O 113.45 CB 115.15 OG 117.95
C LEU H 38 -60.4 -40.6 N 114.88 CA 117.73 C 121.24 O 122.05 CB 115.56 CG 116.21 CD1 115.45 CD2 117.2
C GLN H 125 -63.4 -35.7 N 124.69 CA 126.32 C 125.67 O 125.97 CB 128.28 CG 130.47 CD 131.96 OE1 133.24 NE2 131.64
C ALA H 5 -67.9 -35.9 N 124.93 CA 124.96 C 124.28 O 123.98 CB 125.54
C LEU H 0 -72.4 -25.4 N 123.52 CA 124.65 C 126.3 O 126.62 CB 123.38 CG 121.34 CD1 120.22 CD2 121.49
C ASP H 40 -72.5 -35.9 N 128.46 CA 131.75 C 134.02 O 134.52 CB 132.43 CG 133.44 OD1 134.08 OD2 134.3
C ARG H 136 -77.5 -31.4 N 135.67 CA 136.84 C 136.24 O 137.16 CB 139.41 CG 142.9 CD 145.88 NE 148.31 CZ 148.35 NH1 148.23 NH2 147.59
C ALA H 0 -73.0 -34.6 N 135.19 CA 134.33 C 133.97 O 134.44 CB 134.06
C LEU H 12 -71.5 -38.1 N 134.01 CA 135.24 C 137.02 O 135.95 CB 134.08 CG 131.98 CD1 130.18 CD2 131.16
C ARG H 152 -64.6 -36.5 N 139.89 CA 143.41 C 144.35 O 143.55 CB 145.0 CG 147.61 CD 149.03 NE 150.59 CZ 150.93 NH1 150.51 NH2 150.53
C LEU H 20 -68.8 -44.6 N 146.22 CA 148.64 C 150.92 O 152.22 CB 148.23 CG 148.72 CD1 148.66 CD2 147.97
C GLU H 101 -67.7 -37.7 N 157.29 CA 159.44 C 160.18 O 160.36 CB 161.1 CG 162.26 CD 162.88 OE1 164.04 OE2 161.33
C GLU H 154 -66.2 -31.2 N 160.65 CA 160.23 C 159.38 O 159.34 CB 160.72 CG 162.43 CD 163.39 OE1 164.05 OE2 162.45
C GLU - 107 -96.4 360.0 N 158.79 CA 158.46 C 156.9 O 155.55 CB 160.35 CG 166.05 CD 168.69 OE1 171.15 OE2 169.45
D LEU - 21 -112.4 147.2 N 128.21 CA 122.3 C 118.16 O 118.04 CB 122.16 CG 119.92 CD1 119.76 CD2 119.74
D ASP - 28 -83.7 107.9 N 113.22 CA 108.0 C 104.89 O 104.91 CB 107.45 CG 106.31 OD1 105.8 OD2 105.11
D PRO - 12 -92.2 -7.2 N 101.57 CA 98.84 C 96.81 O 96.2 CB 98.72 CG 102.02 CD 101.62
D ARG S 71 -47.0 -31.3 N 96.32 CA 97.95 C 98.69 O 101.33 CB 98.05 CG 97.81 CD 98.15 NE 98.7 CZ 100.63 NH1 101.13 NH2 101.1
D LEU E 1 -158.5 142.6 N 96.92 CA 94.52 C 94.72 O 98.05 CB 91.76 CG 88.65 CD1 89.49 CD2 88.77
D SER E 2 -162.5 150.3 N 92.27 CA 90.92 C 91.51 O 93.43 CB 86.95 OG 89.94
D VAL E 4 -90.7 132.6 N 91.13 CA 90.67 C 90.92 O 91.43 CB 90.81 CG1 91.52 CG2 93.09
D ALA - 6 -67.5 145.9 N 92.17 CA 92.74 C 92.89 O 92.91 CB 95.35
D PRO - 17 -69.7 125.7 N 93.89 CA 95.28 C 97.2 O 97.0 CB 95.19 CG 94.0 CD 94.02
D VAL T 83 -55.5 135.7 N 100.71 CA 100.71 C 100.82 O 99.44 CB 98.91 CG1 100.37 CG2 99.73
D ASP T 81 72.3 16.7 N 101.04 CA 104.38 C 104.23 O 106.06 CB 110.51 CG 117.48 OD1 119.29 OD2 120.2
D ARG T 94 -133.2 -59.7 N 103.25 CA 103.75 C 102.42 O 103.0 CB 108.51 CG 114.34 CD 119.33 NE 125.02 CZ 129.19 NH1 130.69 NH2 131.2
D THR - 2 -90.0 46.4 N 99.46 CA 97.13 C 96.99 O 97.65 CB 95.86 OG1 96.68 CG2 93.32
D ASP S 23 -72.2 166.9 N 96.15 CA 95.71 C 95.78 O 96.77 CB 98.21 CG 103.0 OD1 105.77 OD2 102.56
D ARG H 58 -54.5 -21.8 N 95.53 CA 95.18 C 94.78 O 94.78 CB 95.44 CG 95.93 CD 96.46 NE 99.42 CZ 102.92 NH1 101.36 NH2 105.92
D HIS H 16 -72.9 -53.5 N 93.06 CA 92.1 C 91.67 O 92.55 CB 91.61 CG 93.23 ND1 92.12 CD2 93.78 CE1 93.42 NE2 92.64
D PHE H 2 -65.0 -37.5 N 89.08 CA 86.96 C 88.96 O 89.81 CB 79.85 CG 74.72 CD1 73.76 CD2 76.23 CE1 76.64 CE2 77.3 CZ 76.68
D ARG H 14 -60.7 -37.2 N 89.66 CA 89.27 C 90.01 O 89.03 CB 89.82 CG 91.89 CD 92.11 NE 90.67 CZ 90.86 NH1 91.73 NH2 91.9
D PHE H 0 -63.9 -40.1 N 90.96 CA 93.62 C 95.57 O 95.0 CB 92.58 CG 91.95 CD1 91.55 CD2 91.94 CE1 90.56 CE2 93.88 CZ 92.87
D LEU H 1 -65.1 -41.5 N 95.75 CA 92.9 C 90.42 O 89.15 CB 92.65 CG 91.26 CD1 93.65 CD2 91.96
D VAL H 2 -64.8 -29.9 N 88.69 CA 88.39 C 88.75 O 89.08 CB 88.95 CG1 85.09 CG2 87.7
D ARG H 10 -74.5 -17.3 N 88.66 CA 90.02 C 91.19 O 95.37 CB 89.47 CG 89.99 CD 87.06 NE 85.67 CZ 87.68 NH1 88.58 NH2 89.59
D GLN H 32 -82.9 -20.2 N 89.19 CA 88.16 C 86.96 O 86.93 CB 89.11 CG 89.54 CD 91.61 OE1 93.47 NE2 92.67
D VAL H 0 -92.6 -38.3 N 84.42 CA 85.26 C 86.72 O 90.46 CB 86.01 CG1 86.45 CG2 85.68
D SER - 0 -137.2 127.0 N 87.65 CA 90.68 C 91.87 O 93.77 CB 93.07 OG 92.27
D LEU S 91 -81.2 -35.7 N 91.55 CA 91.53 C 90.96 O 89.57 CB 92.19 CG 93.22 CD1 93.33 CD2 94.18
D GLY S 17 -89.2 -27.6 N 91.2 CA 91.34 C 89.52 O 88.71
D VAL S 0 -53.9 141.6 N 88.37 CA 88.68 C 88.77 O 88.59 CB 89.65 CG1 88.8 CG2 89.59
D ARG B 11 -95.3 121.6 N 89.58 CA 90.44 C 90.93 O 93.67 CB 92.67 CG 94.51 CD 96.88 NE 95.5 CZ 99.05 NH1 100.93 NH2 99.44
D LEU E 2 -87.6 156.1 N 90.55 CA 91.47 C 91.84 O 93.64 CB 91.87 CG 93.54 CD1 95.31 CD2 93.83
D TYR E 5 -136.1 132.0 N 90.86 CA 89.11 C 88.75 O 89.85 CB 87.22 CG 85.54 CD1 86.27 CD2 84.0 CE1 86.07 CE2 83.75 CZ 85.97 OH 85.56
D THR - 3 -69.8 171.0 N 86.89 CA 86.67 C 86.87 O 87.41 CB 87.85 OG1 85.62 CG2 88.43
D GLU - 52 -68.8 164.1 N 88.23 CA 92.57 C 93.75 O 94.08 CB 96.58 CG 103.83 CD 109.71 OE1 112.34 OE2 112.19
D THR E 19 -119.6 106.0 N 101.81 CA 101.83 C 104.26 O 104.75 CB 100.75 OG1 100.13 CG2 104.21
D VAL E 39 -62.5 151.7 N 106.21 CA 108.87 C 110.18 O 110.82 CB 109.3 CG1 110.25 CG2 112.21
D ASP H 6 -67.7 -37.3 N 110.54 CA 111.09 C 109.97 O 109.81 CB 113.46 CG 116.61 OD1 119.28 OD2 119.79
D GLN H 81 -65.3 -26.9 N 108.96 CA 109.62 C 109.88 O 111.87 CB 110.63 CG 112.77 CD 113.07 OE1 112.08 NE2 112.6
D ALA H 42 -79.9 -23.3 N 108.81 CA 108.41 C 108.02 O 107.66 CB 107.49
D VAL H 0 -81.6 -27.1 N 106.75 CA 105.16 C 105.33 O 105.54 CB 104.26 CG1 103.33 CG2 104.57
D LEU H 37 -89.0 -33.8 N 105.84 CA 107.19 C 108.04 O 109.77 CB 107.4 CG 108.45 CD1 109.16 CD2 109.74
D ARG H 219 -119.3 -0.1 N 108.24 CA 110.59 C 111.34 O 112.86 CB 113.67 CG 118.26 CD 122.74 NE 128.52 CZ 132.22 NH1 133.87 NH2 133.69
D GLY S 31 -99.9 173.7 N 112.07 CA 111.83 C 111.35 O 112.48
D ASN - 84 -68.4 102.0 N 108.86 CA 106.45 C 104.97 O 104.62 CB 108.7 CG 111.33 OD1 112.58 ND2 113.49
D ARG H 100 -67.0 -27.7 N 103.71 CA 104.92 C 105.46 O 106.17 CB 104.97 CG 106.51 CD 108.37 NE 110.81 CZ 111.04 NH1 111.07 NH2 111.73
D GLU H 127 -72.9 -35.7 N 105.41 CA 105.34 C 105.45 O 106.38 CB 106.9 CG 107.67 CD 108.74 OE1 108.95 OE2 108.18
D ARG H 206 -67.2 -43.5 N 105.99 CA 108.62 C 107.62 O 110.89 CB 112.6 CG 119.12 CD 124.76 NE 128.37 CZ 129.63 NH1 129.52 NH2 130.12
D LEU H 77 -79.5 -38.1 N 104.92 CA 103.75 C 102.09 O 103.84 CB 105.27 CG 106.4 CD1 107.83 CD2 106.83
D LEU H 1 -113.5 -10.9 N 99.21 CA 97.06 C 97.43 O 99.64 CB 95.77 CG 95.83 CD1 98.59 CD2 95.26
D ALA - 31 -69.6 132.2 N 94.78 CA 91.71 C 88.96 O 87.46 CB 94.89
D PHE - 32 -147.4 163.6 N 87.96 CA 87.93 C 89.4 O 91.05 CB 86.34 CG 85.92 CD1 86.34 CD2 88.12 CE1 89.07 CE2 91.18 CZ 91.42
D ARG - 36 -78.9 149.9 N 89.94 CA 89.62 C 88.82 O 91.58 CB 92.08 CG 94.49 CD 94.17 NE 95.39 CZ 97.75 NH1 98.36 NH2 97.91
D PRO G 95 -68.6 -16.8 N 86.99 CA 88.39 C 89.86 O 92.77 CB 87.97 CG 89.25 CD 86.8
D GLU G 81 -68.6 -24.6 N 87.76 CA 87.99 C 86.48 O 85.57 CB 91.42 CG 101.84 CD 107.93 OE1 110.59 OE2 110.39
D GLU G 0 -75.7 -4.7 N 85.67 CA 86.98 C 87.75 O 87.18 CB 88.12 CG 91.2 CD 92.82 OE1 94.66 OE2 93.66
D HIS - 69 -69.0 137.8 N 88.3 CA 86.61 C 84.79 O 85.53 CB 86.67 CG 89.17 ND1 87.62 CD2 90.32 CE1 89.4 NE2 91.4
D PRO S 37 -81.6 135.0 N 82.23 CA 83.9 C 85.09 O 90.15 CB 82.91 CG 81.07 CD 78.62
D ILE E 0 -136.4 144.4 N 83.8 CA 83.21 C 82.1 O 85.94 CB 85.72 CG1 87.72 CG2 86.83 CD1 90.18
D ALA E 0 -122.3 126.8 N 79.5 CA 79.72 C 81.57 O 81.5 CB 76.76
D LEU E 0 -82.1 119.3 N 84.72 CA 86.58 C 89.72 O 91.2 CB 84.85 CG 84.38 CD1 86.56 CD2 85.08
D GLN E 4 -97.1 128.5 N 92.56 CA 94.64 C 95.76 O 96.43 CB 94.77 CG 96.31 CD 99.04 OE1 100.92 NE2 97.23
D LEU E 0 -111.7 157.0 N 96.58 CA 96.22 C 97.89 O 100.01 CB 95.27 CG 92.96 CD1 93.52 CD2 93.86
D ALA E 0 -126.4 147.5 N 97.96 CA 99.86 C 100.71 O 100.56 CB 101.66
D GLY - 2 162.1 179.1 N 100.42 CA 102.44 C 105.37 O 105.38
D SER S 29 -134.6 -29.9 N 107.35 CA 109.5 C 111.05 O 110.78 CB 108.54 OG 109.71
D ASP - 65 -80.3 119.1 N 112.94 CA 114.24 C 112.54 O 111.4 CB 118.01 CG 120.97 OD1 121.55 OD2 122.91
D PRO H 19 -53.1 -48.6 N 112.31 CA 113.93 C 115.41 O 116.85 CB 113.0 CG 112.68 CD 113.2
D LYS H 172 -55.3 -46.2 N 116.69 CA 117.47 C 116.4 O 116.32 CB 121.09 CG 125.55 CD 127.87 CE 128.06 NZ 127.85
D SER H 19 -71.9 -29.8 N 114.81 CA 113.85 C 112.95 O 114.37 CB 113.99 OG 116.33
D LEU H 0 -82.9 -22.0 N 110.96 CA 110.1 C 110.56 O 112.05 CB 108.02 CG 106.47 CD1 105.91 CD2 102.78
D ALA H 15 -81.1 -28.9 N 111.07 CA 112.25 C 112.67 O 113.64 CB 113.45
D GLU H 67 -76.4 -35.2 N 113.71 CA 114.6 C 113.92 O 113.98 CB 116.55 CG 119.75 CD 122.74 OE1 124.15 OE2 124.32
D ALA H 0 -74.7 -32.8 N 112.91 CA 112.42 C 111.94 O 111.81 CB 113.93
D ALA H 0 -72.9 -30.8 N 111.35 CA 111.74 C 111.91 O 112.99 CB 111.82
D ARG H 141 -65.4 -38.3 N 112.35 CA 111.05 C 106.68 O 103.65 CB 117.32 CG 121.88 CD 126.77 NE 131.75 CZ 132.81 NH1 132.77 NH2 130.96
D ILE H 15 -75.6 -36.8 N 103.61 CA 100.29 C 99.22 O 96.4 CB 98.12 CG1 96.39 CG2 96.88 CD1 97.72
D GLY H 0 -67.4 -37.6 N 100.14 CA 101.8 C 103.19 O 104.83
D GLU H 59 -62.1 -34.9 N 102.54 CA 101.72 C 100.44 O 102.87 CB 104.66 CG 110.55 CD 113.82 OE1 117.83 OE2 114.48
D ALA H 84 -69.7 -41.3 N 96.32 CA 95.39 C 94.68 O 97.26 CB 96.79
D PHE T 52 -62.5 -10.1 N 92.56 CA 91.93 C 91.65 O 92.34 CB 90.08 CG 87.94 CD1 89.49 CD2 88.23 CE1 90.59 CE2 90.06 CZ 89.92
D GLY T 32 106.1 -0.4 N 90.42 CA 89.55 C 88.87 O 90.9
D TYR - 4 -54.9 140.0 N 87.44 CA 87.31 C 87.67 O 90.98 CB 87.34 CG 85.77 CD1 85.11 CD2 85.38 CE1 84.74 CE2 84.93 CZ 85.27 OH 86.81
D ASP S 59 -83.9 -9.9 N 87.63 CA 90.8 C 91.55 O 95.01 CB 91.92 CG 95.53 OD1 99.05 OD2 95.95
D GLU E 0 -160.8 137.5 N 90.69 CA 89.14 C 87.24 O 88.14 CB 89.61 CG 96.61 CD 99.24 OE1 99.81 OE2 99.43
D ILE E 0 -110.5 96.7 N 85.46 CA 85.69 C 90.85 O 95.28 CB 82.02 CG1 79.94 CG2 78.36 CD1 78.83
D ASN E 0 -86.8 139.1 N 93.55 CA 94.43 C 93.51 O 91.61 CB 96.07 CG 96.18 OD1 99.61 ND2 95.51
D LEU E 0 -97.8 130.3 N 93.28 CA 93.42 C 95.24 O 96.93 CB 92.94 CG 89.19 CD1 90.21 CD2 90.75
D ASN E 14 -84.3 119.6 N 94.84 CA 92.98 C 92.39 O 91.15 CB 93.28 CG 93.95 OD1 92.48 ND2 94.13
D LEU E 0 -133.8 35.0 N 92.99 CA 95.76 C 98.31 O 99.23 CB 93.99 CG 95.68 CD1 95.49 CD2 95.31
D GLY - 10 -141.1 -9.2 N 100.41 CA 103.88 C 105.93 O 108.34
D CYS - 28 -71.5 109.0 N 105.93 CA 106.52 C 109.5 O 110.08 CB 104.49 SG 101.69
D PRO - 6 -99.6 21.1 N 111.55 CA 113.1 C 115.61 O 115.99 CB 112.5 CG 111.0 CD 111.29
D SER S 20 -68.9 159.3 N 118.08 CA 121.03 C 123.19 O 122.41 CB 122.04 OG 123.75
D GLU H 142 -61.0 -29.6 N 126.1 CA 129.52 C 129.3 O 129.72 CB 132.56 CG 138.79 CD 142.25 OE1 143.85 OE2 143.53
D LYS H 144 -68.1 -37.2 N 128.68 CA 128.39 C 128.01 O 129.67 CB 128.81 CG 130.28 CD 131.88 CE 133.06 NZ 134.98
D ALA H 0 -73.5 -39.8 N 126.54 CA 124.81 C 124.73 O 124.11 CB 124.93
D GLN H 69 -63.6 -35.2 N 125.37 CA 127.94 C 130.48 O 132.44 CB 126.2 CG 124.71 CD 122.95 OE1 123.54 NE2 119.71
D GLU H 134 -71.0 -45.4 N 131.24 CA 132.6 C 131.31 O 131.4 CB 135.25 CG 141.71 CD 145.22 OE1 146.52 OE2 146.71
D GLY H 43 -78.2 -8.2 N 129.5 CA 127.28 C 125.22 O 125.31
D GLY T 26 68.4 35.8 N 121.95 CA 118.5 C 116.62 O 117.08
D TYR - 30 -127.8 170.0 N 114.18 CA 112.47 C 111.62 O 112.51 CB 111.2 CG 109.65 CD1 110.16 CD2 109.18 CE1 108.38 CE2 107.57 CZ 107.18 OH 107.21
D GLY G 0 89.9 -128.2 N 110.6 CA 108.66 C 106.87 O 108.17
D ALA G 0 -72.5 -29.1 N 105.26 CA 105.83 C 105.51 O 104.55 CB 106.4
D CYS G 25 -75.3 -1.5 N 106.02 CA 107.79 C 106.46 O 105.41 CB 108.48 SG 117.65
D LEU G 6 -76.0 -15.3 N 107.21 CA 108.45 C 109.16 O 110.34 CB 108.25 CG 107.83 CD1 107.83 CD2 108.38
D LEU G 29 -73.6 -21.6 N 109.89 CA 113.72 C 116.79 O 118.91 CB 112.73 CG 112.51 CD1 110.54 CD2 114.34
D LEU G 126 -71.3 -14.3 N 117.77 CA 118.15 C 119.38 O 121.14 CB 117.89 CG 117.75 CD1 117.77 CD2 118.51
D ASP - 65 -125.4 78.0 N 119.4 CA 119.66 C 119.46 O 120.58 CB 119.67 CG 121.49 OD1 123.24 OD2 120.66
D LEU H 42 -63.9 -30.4 N 118.54 CA 117.98 C 118.07 O 118.09 CB 117.04 CG 116.51 CD1 114.35 CD2 115.84
D ALA H 59 -64.7 -36.6 N 118.51 CA 118.8 C 118.96 O 119.33 CB 119.41
D ARG H 82 -75.3 -43.6 N 119.02 CA 119.55 C 119.79 O 121.82 CB 120.1 CG 119.73 CD 122.27 NE 123.86 CZ 123.41 NH1 123.58 NH2 121.92
D VAL H 1 -64.6 -33.1 N 118.62 CA 117.88 C 118.31 O 119.72 CB 117.03 CG1 115.88 CG2 117.59
D ARG H 83 -75.5 -32.1 N 118.46 CA 119.29 C 119.63 O 120.21 CB 121.15 CG 125.63 CD 128.66 NE 134.48 CZ 137.19 NH1 138.48 NH2 138.31
D GLU H 96 -82.6 -20.6 N 120.97 CA 123.2 C 121.46 O 123.34 CB 128.0 CG 135.0 CD 138.27 OE1 138.99 OE2 139.97
D ILE H 0 -70.7 -40.9 N 118.71 CA 116.78 C 115.56 O 116.02 CB 116.32 CG1 117.57 CG2 116.54 CD1 118.44
D LEU H 3 -75.5 -27.6 N 114.01 CA 112.98 C 115.6 O 117.29 CB 107.32 CG 102.76 CD1 102.48 CD2 99.07
D LYS H 82 -72.8 -34.7 N 117.73 CA 119.29 C 119.83 O 121.71 CB 120.12 CG 123.04 CD 123.16 CE 122.99 NZ 119.24
D ALA H 32 -78.6 -37.5 N 119.78 CA 119.76 C 119.52 O 118.38 CB 117.88
D GLY H 36 -68.2 -21.5 N 121.65 CA 122.94 C 123.49 O 124.8
D GLU T 162 -102.6 10.4 N 123.05 CA 123.14 C 121.34 O 123.1 CB 125.9 CG 129.96 CD 131.46 OE1 131.52 OE2 131.81
D ALA T 34 -111.7 -14.9 N 118.01 CA 114.42 C 112.44 O 113.16 CB 114.27
D VAL - 12 -135.5 162.4 N 110.02 CA 107.93 C 108.52 O 110.39 CB 105.86 CG1 107.28 CG2 107.75
D ARG S 172 -96.4 -16.3 N 108.89 CA 109.98 C 108.69 O 109.64 CB 113.59 CG 119.49 CD 125.31 NE 131.89 CZ 133.16 NH1 133.19 NH2 133.29
D VAL S 31 -80.8 158.3 N 106.42 CA 103.21 C 99.79 O 99.49 CB 102.8 CG1 101.91 CG2 106.01
D PRO - 56 -58.3 123.1 N 96.96 CA 97.13 C 97.92 O 100.29 CB 94.8 CG 94.98 CD 95.14
D VAL E 17 -98.0 115.2 N 96.01 CA 93.33 C 91.49 O 90.99 CB 94.55 CG1 95.48 CG2 94.64
D THR E 1 -111.7 -172.5 N 90.64 CA 92.61 C 93.56 O 94.43 CB 92.14 OG1 90.31 CG2 90.39
D VAL E 0 -149.4 131.7 N 93.38 CA 91.88 C 94.61 O 93.22 CB 88.28 CG1 87.13 CG2 88.7
D LYS E 31 -110.6 104.5 N 96.82 CA 98.07 C 102.6 O 104.23 CB 93.77 CG 87.62 CD 82.34 CE 76.28 NZ 77.17
D ARG E 7 -106.7 172.4 N 109.86 CA 108.11 C 107.9 O 108.49 CB 107.3 CG 107.13 CD 108.18 NE 109.85 CZ 110.85 NH1 111.3 NH2 112.13
D LEU S 7 -70.9 -27.2 N 106.09 CA 105.12 C 106.65 O 106.77 CB 103.96 CG 104.47 CD1 105.98 CD2 104.86
D GLY - 10 172.8 -165.0 N 109.11 CA 111.65 C 113.22 O 112.34
D LEU B 18 -126.1 138.7 N 115.93 CA 119.32 C 121.65 O 123.37 CB 117.73 CG 116.79 CD1 115.89 CD2 117.83
D GLU T 65 56.8 41.2 N 121.94 CA 122.33 C 122.43 O 124.18 CB 123.89 CG 127.13 CD 130.8 OE1 133.36 OE2 132.52
D GLY T 48 46.2 30.0 N 121.56 CA 122.02 C 122.66 O 122.22
D LYS - 165 -110.0 16.5 N 123.39 CA 123.07 C 123.37 O 123.54 CB 122.25 CG 121.68 CD 121.43 CE 120.6 NZ 120.82
D GLU - 26 -72.8 137.8 N 123.56 CA 123.01 C 122.71 O 123.45 CB 123.88 CG 126.79 CD 129.07 OE1 129.63 OE2 127.71
D THR - 82 -118.9 154.2 N 122.75 CA 123.5 C 123.28 O 123.89 CB 123.63 OG1 124.44 CG2 124.7
D TYR H 25 -69.1 -34.1 N 122.4 CA 120.85 C 120.66 O 120.15 CB 120.54 CG 119.44 CD1 118.79 CD2 119.82 CE1 119.33 CE2 118.76 CZ 118.73 OH 117.24
D ARG H 218 -73.3 -17.9 N 121.11 CA 123.43 C 123.44 O 125.23 CB 125.34 CG 128.31 CD 131.6 NE 134.89 CZ 136.0 NH1 135.52 NH2 136.19
D GLY H 28 -84.6 -32.9 N 122.33 CA 122.06 C 121.62 O 121.95
D LEU H 4 -77.4 -36.5 N 120.95 CA 119.01 C 119.1 O 119.73 CB 115.43 CG 113.43 CD1 112.93 CD2 112.05
D ALA H 13 -77.0 -26.1 N 119.32 CA 120.61 C 121.31 O 122.18 CB 122.25
D GLN H 126 -75.7 -41.3 N 121.38 CA 121.84 C 120.39 O 118.91 CB 125.01 CG 129.76 CD 132.02 OE1 133.36 NE2 131.99
D SER H 17 -74.4 -25.7 N 119.79 CA 120.63 C 120.75 O 121.43 CB 119.81 OG 119.34
D VAL H 0 -76.9 -31.6 N 119.74 CA 119.15 C 120.91 O 120.14 CB 117.42 CG1 116.03 CG2 117.12
D GLU H 109 -64.5 -40.9 N 123.56 CA 124.66 C 123.89 O 123.93 CB 126.74 CG 129.58 CD 132.22 OE1 134.89 OE2 132.51
D ALA H 13 -71.1 -43.1 N 123.1 CA 123.21 C 122.88 O 123.01 CB 124.62
D ALA H 28 -71.1 -30.9 N 121.92 CA 120.23 C 119.96 O 119.58 CB 118.8
D GLU H 159 -71.2 -22.6 N 120.56 CA 121.76 C 120.61 O 120.8 CB 125.77 CG 133.6 CD 139.05 OE1 141.17 OE2 141.98
D ALA T 11 -81.6 -14.9 N 118.56 CA 117.15 C 116.27 O 115.95 CB 118.42
D GLY T 43 133.0 -29.8 N 114.34 CA 111.48 C 109.13 O 109.89
D VAL - 3 -53.1 135.3 N 107.43 CA 106.42 C 105.99 O 106.06 CB 105.51 CG1 103.36 CG2 103.72
D LYS - 134 -113.6 -40.6 N 104.52 CA 104.51 C 104.5 O 104.51 CB 106.4 CG 108.05 CD 109.0 CE 112.76 NZ 115.14
D VAL E 11 -99.3 129.9 N 105.09 CA 105.93 C 107.38 O 109.36 CB 104.47 CG1 105.18 CG2 106.7
D PHE E 0 -125.0 92.4 N 105.86 CA 103.11 C 100.18 O 100.41 CB 105.76 CG 107.58 CD1 109.09 CD2 109.81 CE1 111.78 CE2 113.33 CZ 114.06
D VAL E 0 -78.1 106.2 N 95.98 CA 94.41 C 94.24 O 93.79 CB 94.09 CG1 95.93 CG2 95.37
D VAL E 0 -106.5 106.6 N 94.91 CA 96.32 C 98.62 O 101.9 CB 94.63 CG1 94.13 CG2 93.94
D HIS E 13 -64.8 100.8 N 98.33 CA 98.19 C 100.35 O 100.29 CB 97.48 CG 97.26 ND1 95.44 CD2 99.25 CE1 94.64 NE2 98.93
D ALA - 0 -74.7 75.8 N 103.09 CA 106.06 C 108.72 O 112.06 CB 102.95
D ARG S 11 -177.6 149.0 N 109.31 CA 108.52 C 109.29 O 111.74 CB 107.68 CG 107.31 CD 107.95 NE 108.73 CZ 107.65 NH1 109.46 NH2 105.9
D SER - 2 -73.9 163.1 N 109.54 CA 111.67 C 112.12 O 112.7 CB 113.73 OG 116.8
D ALA B 0 -110.8 109.2 N 112.48 CA 113.54 C 113.72 O 114.44 CB 115.76
D LEU - 41 -92.1 103.9 N 113.13 CA 111.94 C 111.77 O 111.65 CB 109.55 CG 108.22 CD1 108.21 CD2 106.87
D LEU T 41 -62.8 -15.5 N 111.36 CA 112.54 C 113.35 O 114.4 CB 112.26 CG 113.46 CD1 113.5 CD2 113.76
D ALA T 93 -77.6 -30.6 N 112.34 CA 110.02 C 109.6 O 109.58 CB 110.07
D LEU S 50 -84.4 160.8 N 109.48 CA 109.89 C 110.74 O 110.46 CB 109.21 CG 110.59 CD1 111.16 CD2 107.71
D SER - 74 -69.8 174.4 N 111.62 CA 114.4 C 116.76 O 117.52 CB 113.66 OG 117.07
D THR T 54 -70.2 -36.4 N 118.86 CA 120.03 C 120.14 O 120.87 CB 119.61 OG1 120.05 CG2 120.15
D LYS T 123 -69.9 -32.1 N 119.45 CA 119.26 C 118.56 O 119.9 CB 119.8 CG 123.03 CD 126.38 CE 128.38 NZ 127.35
D ALA G 20 -76.9 -27.0 N 117.22 CA 116.57 C 115.72 O 116.25 CB 117.94
D ASN G 0 -75.9 -9.0 N 113.81 CA 110.95 C 110.45 O 109.51 CB 110.25 CG 111.26 OD1 111.22 ND2 112.36
D ARG G 91 -107.2 6.5 N 110.89 CA 111.56 C 111.45 O 109.9 CB 111.2 CG 113.46 CD 113.34 NE 114.37 CZ 116.92 NH1 117.2 NH2 116.76
D GLU T 112 -138.9 -16.5 N 111.9 CA 112.12 C 109.41 O 108.61 CB 115.66 CG 120.91 CD 123.22 OE1 124.83 OE2 124.69
D ILE S 105 -100.7 -57.9 N 106.67 CA 103.74 C 103.0 O 103.85 CB 102.13 CG1 102.42 CG2 99.78 CD1 103.12
D PRO S 4 -53.4 142.8 N 102.45 CA 101.87 C 101.81 O 101.96 CB 102.8 CG 103.02 CD 102.98
D PRO - 73 -71.8 135.7 N 102.38 CA 104.53 C 105.73 O 106.84 CB 106.13 CG 105.3 CD 102.74
D LEU - 62 -84.0 121.0 N 106.04 CA 106.56 C 106.85 O 106.13 CB 107.12 CG 109.35 CD1 111.68 CD2 108.95
D ARG - 81 -113.4 73.4 N 108.32 CA 111.39 C 111.37 O 110.43 CB 117.43 CG 123.25 CD 129.02 NE 131.91 CZ 133.2 NH1 133.36 NH2 134.21
D HIS H 25 -65.7 -26.5 N 111.52 CA 113.14 C 114.71 O 114.72 CB 111.94 CG 112.61 ND1 114.18 CD2 113.69 CE1 113.91 NE2 114.75
D ASP H 89 -64.3 -25.1 N 116.58 CA 118.09 C 115.78 O 115.67 CB 123.69 CG 128.26 OD1 131.24 OD2 130.24
D TRP H 35 -70.7 -38.6 N 113.02 CA 111.95 C 112.43 O 114.13 CB 109.43 CG 108.88 CD1 107.75 CD2 108.1 NE1 107.12 CE2 107.24 CE3 109.93 CZ2 108.17 CZ3 110.51 CH2 109.62
D VAL H 0 -74.2 -32.8 N 111.28 CA 109.37 C 108.72 O 109.78 CB 109.29 CG1 110.97 CG2 109.0
D HIS H 40 -61.4 -41.9 N 108.3 CA 109.66 C 111.99 O 112.29 CB 106.75 CG 103.59 ND1 102.13 CD2 103.58 CE1 101.44 NE2 102.62
D ARG H 122 -71.3 -25.4 N 113.57 CA 114.35 C 113.22 O 114.79 CB 115.85 CG 119.77 CD 122.55 NE 124.44 CZ 125.38 NH1 124.42 NH2 125.93
D LEU H 0 -68.0 -31.3 N 111.13 CA 113.31 C 114.11 O 115.24 CB 115.0 CG 115.8 CD1 114.88 CD2 115.77
D LYS H 6 -74.8 -35.1 N 112.75 CA 111.81 C 110.87 O 110.19 CB 112.51 CG 115.6 CD 118.05 CE 120.36 NZ 121.77
D GLY H 39 -69.6 -32.0 N 110.11 CA 109.65 C 109.0 O 109.69
D ASP H 90 -88.9 -24.8 N 108.71 CA 111.01 C 112.55 O 113.55 CB 112.41 CG 113.92 OD1 115.28 OD2 114.83
D PHE - 19 -130.1 73.1 N 114.24 CA 117.64 C 119.44 O 122.54 CB 117.31 CG 117.02 CD1 117.36 CD2 116.83 CE1 118.78 CE2 116.88 CZ 117.52
D PRO T 17 -66.9 -19.6 N 119.6 CA 118.71 C 117.66 O 117.48 CB 119.39 CG 119.8 CD 119.81
D GLN T 99 -83.0 -22.4 N 116.34 CA 116.03 C 112.02 O 111.05 CB 120.96 CG 128.15 CD 131.64 OE1 131.81 NE2 133.08
D LEU S 8 -88.7 165.9 N 109.15 CA 107.26 C 105.14 O 103.93 CB 108.83 CG 110.48 CD1 110.78 CD2 110.38
D THR E 32 -109.2 139.3 N 103.76 CA 101.69 C 99.57 O 98.99 CB 102.71 OG1 103.96 CG2 104.17
D PHE E 0 -135.8 128.0 N 98.1 CA 96.59 C 96.02 O 96.64 CB 96.46 CG 96.28 CD1 96.68 CD2 97.59 CE1 99.65 CE2 100.51 CZ 102.22
D VAL E 2 -115.0 99.3 N 94.15 CA 93.41 C 94.41 O 94.11 CB 91.65 CG1 90.6 CG2 92.65
D THR E 0 -71.5 151.2 N 95.55 CA 95.75 C 96.77 O 97.01 CB 95.57 OG1 96.41 CG2 97.08
D ASN E 13 -153.6 144.7 N 98.15 CA 100.48 C 103.72 O 103.96 CB 97.66 CG 96.17 OD1 96.55 ND2 95.54
D GLY S 5 123.7 125.7 N 105.78 CA 108.25 C 109.36 O 108.79
D GLY S 35 73.8 -4.7 N 110.88 CA 113.35 C 113.73 O 115.62
D ILE - 9 -74.6 122.3 N 112.65 CA 111.32 C 111.1 O 111.23 CB 111.34 CG1 109.8 CG2 111.44 CD1 113.92
D ARG - 108 -101.1 -23.0 N 110.51 CA 110.67 C 108.45 O 106.58 CB 113.8 CG 117.05 CD 116.44 NE 117.32 CZ 119.03 NH1 119.23 NH2 119.35
D SER S 34 -143.6 176.8 N 108.31 CA 110.33 C 111.94 O 112.31 CB 110.17 OG 110.36
D LEU H 13 -76.5 -25.6 N 112.32 CA 112.04 C 112.99 O 112.78 CB 112.0 CG 112.94 CD1 113.63 CD2 114.36
D GLU H 118 -68.1 -42.1 N 114.5 CA 116.49 C 115.42 O 114.02 CB 120.25 CG 125.08 CD 129.02 OE1 129.56 OE2 131.08
D GLU H 85 -72.8 -34.0 N 115.07 CA 115.96 C 114.35 O 114.18 CB 119.29 CG 125.32 CD 128.97 OE1 129.77 OE2 130.77
D ALA H 0 -66.4 -35.5 N 111.86 CA 110.15 C 109.27 O 108.9 CB 109.94
D LEU H 42 -66.9 -32.5 N 108.56 CA 108.38 C 109.01 O 110.77 CB 107.14 CG 106.48 CD1 107.99 CD2 107.06
D PHE H 96 -61.4 -48.4 N 109.04 CA 109.56 C 109.18 O 110.15 CB 109.89 CG 109.15 CD1 109.06 CD2 108.52 CE1 110.14 CE2 107.46 CZ 107.85
D HIS H 20 -70.8 -16.9 N 107.69 CA 107.71 C 108.38 O 109.41 CB 107.11 CG 106.58 ND1 105.61 CD2 106.8 CE1 105.75 NE2 105.72
D LEU H 37 -80.0 -15.1 N 107.1 CA 105.83 C 106.44 O 105.48 CB 103.32 CG 103.13 CD1 105.75 CD2 103.74
D LYS T 143 -73.6 -19.6 N 108.24 CA 111.19 C 111.79 O 113.93 CB 112.63 CG 115.0 CD 118.12 CE 120.17 NZ 119.71
D ARG T 95 -115.5 -38.4 N 110.66 CA 111.07 C 110.41 O 111.87 CB 112.41 CG 114.29 CD 114.91 NE 116.16 CZ 116.68 NH1 116.49 NH2 117.94
D VAL S 6 -121.7 171.3 N 108.53 CA 108.26 C 106.27 O 106.2 CB 110.05 CG1 112.25 CG2 110.43
D ASP S 44 -65.6 -49.0 N 103.81 CA 103.02 C 102.39 O 103.43 CB 103.44 CG 104.81 OD1 106.13 OD2 106.86
D GLY E 0 -141.9 168.8 N 101.23 CA 99.55 C 97.44 O 97.27
D VAL E 0 -133.7 142.9 N 95.7 CA 95.02 C 96.37 O 98.49 CB 92.48 CG1 91.66 CG2 92.73
D LEU E 2 -112.9 126.2 N 95.03 CA 96.22 C 96.92 O 97.23 CB 96.28 CG 95.03 CD1 92.59 CD2 96.98
D GLY S 11 -111.6 -84.6 N 97.2 CA 96.86 C 95.89 O 94.61
D ARG H 75 -67.1 -28.1 N 95.06 CA 94.44 C 95.14 O 94.58 CB 93.52 CG 89.93 CD 88.7 NE 88.96 CZ 93.01 NH1 95.22 NH2 93.43
D ALA H 5 -64.7 -34.4 N 95.99 CA 97.52 C 97.64 O 98.52 CB 98.18
D VAL H 0 -75.4 -43.7 N 95.95 CA 95.91 C 97.2 O 96.94 CB 94.16 CG1 92.75 CG2 93.87
D TYR H 32 -67.6 -50.3 N 100.45 CA 104.25 C 105.22 O 105.76 CB 105.74 CG 106.78 CD1 109.78 CD2 109.03 CE1 114.5 CE2 112.15 CZ 114.76 OH 120.24
D GLU H 77 -52.7 -30.3 N 106.94 CA 110.08 C 110.02 O 111.54 CB 114.32 CG 121.68 CD 126.09 OE1 127.75 OE2 127.14
D ASP - 37 -159.4 96.8 N 108.15 CA 106.06 C 104.55 O 103.84 CB 106.13 CG 107.11 OD1 106.51 OD2 108.71
D PRO G 1 -53.1 -29.7 N 102.61 CA 100.51 C 99.49 O 100.16 CB 99.23 CG 100.92 CD 102.22
D PHE G 6 -83.0 19.8 N 97.89 CA 97.0 C 96.35 O 97.73 CB 95.82 CG 96.69 CD1 98.17 CD2 97.99 CE1 99.75 CE2 99.46 CZ 99.48
D VAL G 25 -76.7 -15.6 N 94.04 CA 94.12 C 95.62 O 94.32 CB 93.29 CG1 93.77 CG2 93.31
D LEU G 2 -100.5 23.9 N 96.76 CA 96.09 C 98.41 O 99.79 CB 91.9 CG 88.46 CD1 85.28 CD2 85.46
D GLU T 62 -57.3 -50.0 N 101.66 CA 106.94 C 108.38 O 108.19 CB 110.14 CG 117.16 CD 120.26 OE1 120.95 OE2 120.76
D GLU T 65 -100.6 25.4 N 109.62 CA 112.04 C 112.26 O 113.71 CB 115.74 CG 121.76 CD 125.47 OE1 126.92 OE2 127.86
D ALA H 0 -70.9 -41.3 N 110.95 CA 109.48 C 108.64 O 106.29 CB 109.94
D ASP H 0 -66.0 -47.4 N 109.9 CA 112.66 C 114.62 O 115.67 CB 113.14 CG 112.42 OD1 110.6 OD2 111.28
D ARG H 102 -76.1 -39.2 N 116.0 CA 118.06 C 117.76 O 119.95 CB 121.45 CG 126.3 CD 129.65 NE 135.54 CZ 137.58 NH1 137.45 NH2 138.4
D ARG H 102 -95.4 -26.1 N 115.85 CA 114.38 C 112.61 O 114.43 CB 115.31 CG 119.37 CD 120.72 NE 123.7 CZ 125.94 NH1 126.25 NH2 126.51
D VAL T 12 -100.4 -52.3 N 110.1 CA 107.8 C 107.19 O 107.47 CB 107.55 CG1 106.82 CG2 106.59
D PHE S 23 -91.5 -6.9 N 106.54 CA 104.63 C 104.69 O 104.55 CB 102.71 CG 100.01 CD1 98.87 CD2 98.33 CE1 98.99 CE2 99.17 CZ 99.7
D GLY - 38 69.6 5.2 N 105.3 CA 106.4 C 106.6 O 105.44
D LEU - 61 -71.1 144.0 N 108.93 CA 112.52 C 115.51 O 117.55 CB 111.44 CG 110.8 CD1 111.41 CD2 110.7
D PRO S 117 -84.7 80.3 N 116.99 CA 118.08 C 118.17 O 119.82 CB 119.14 CG 118.88 CD 117.17
D ARG - 77 -161.9 128.8 N 117.1 CA 117.68 C 118.22 O 120.27 CB 118.98 CG 120.08 CD 121.3 NE 125.49 CZ 128.65 NH1 130.5 NH2 129.93
D ARG - 157 -136.6 120.1 N 117.65 CA 117.44 C 115.1 O 112.86 CB 122.12 CG 127.17 CD 131.07 NE 134.12 CZ 134.19 NH1 133.13 NH2 133.85
D PRO - 7 -81.5 152.0 N 114.59 CA 113.99 C 113.95 O 114.78 CB 113.7 CG 114.4 CD 115.32
D SER - 55 -108.4 142.1 N 113.98 CA 113.54 C 112.96 O 112.23 CB 113.46 OG 115.13
D ARG H 30 -58.6 -30.2 N 112.85 CA 113.98 C 114.78 O 114.68 CB 114.52 CG 114.07 CD 113.83 NE 112.12 CZ 113.83 NH1 114.86 NH2 115.12
D LEU H 36 -81.0 -32.9 N 115.96 CA 118.52 C 119.61 O 120.18 CB 119.03 CG 118.68 CD1 117.22 CD2 118.6
D GLU H 122 -71.9 -34.3 N 120.03 CA 119.17 C 115.58 O 115.81 CB 122.47 CG 127.99 CD 130.48 OE1 132.14 OE2 130.0
D VAL H 5 -73.9 -32.4 N 111.46 CA 108.31 C 108.5 O 107.72 CB 105.76 CG1 102.52 CG2 105.71
D ALA H 0 -71.7 -36.9 N 109.19 CA 111.62 C 113.47 O 115.65 CB 111.35
D ARG H 120 -63.3 -49.2 N 114.18 CA 115.11 C 115.26 O 115.39 CB 116.45 CG 117.62 CD 119.4 NE 122.58 CZ 125.63 NH1 126.16 NH2 128.16
D ARG H 82 -64.3 -39.3 N 115.38 CA 116.5 C 115.28 O 113.57 CB 119.97 CG 125.29 CD 129.66 NE 132.28 CZ 134.44 NH1 135.84 NH2 135.58
D ARG H 68 -68.6 -47.4 N 112.36 CA 112.2 C 111.05 O 112.2 CB 113.48 CG 114.18 CD 115.6 NE 118.04 CZ 118.22 NH1 118.33 NH2 118.82
D ALA H 37 -64.5 -35.9 N 108.53 CA 106.43 C 104.24 O 103.43 CB 107.0
D TYR H 0 -66.5 -36.4 N 101.93 CA 100.93 C 100.77 O 101.6 CB 101.03 CG 100.77 CD1 102.47 CD2 101.05 CE1 104.22 CE2 103.63 CZ 105.44 OH 109.47
D LEU H 0 -69.7 -31.4 N 100.12 CA 99.91 C 100.93 O 100.27 CB 98.42 CG 97.16 CD1 94.4 CD2 99.05
D GLU H 88 -71.5 -43.3 N 102.68 CA 106.3 C 106.08 O 109.17 CB 109.08 CG 114.77 CD 119.93 OE1 121.44 OE2 124.4
D GLU H 95 -59.3 -47.7 N 103.4 CA 101.06 C 101.53 O 101.62 CB 100.92 CG 101.46 CD 101.98 OE1 102.29 OE2 103.62
D GLU H 0 -67.5 -54.7 N 100.54 CA 102.01 C 104.91 O 106.76 CB 99.8 CG 100.85 CD 102.25 OE1 102.19 OE2 102.36
D VAL H 50 -53.2 -36.3 N 106.97 CA 107.87 C 106.13 O 106.63 CB 108.72 CG1 109.66 CG2 110.93
D LEU T 137 -80.6 -8.9 N 103.9 CA 101.62 C 100.8 O 100.94 CB 100.68 CG 100.25 CD1 98.08 CD2 102.88
D LYS T 127 -117.3 25.8 N 99.85 CA 100.57 C 100.87 O 100.82 CB 99.87 CG 104.47 CD 107.7 CE 111.32 NZ 109.64
D GLY T 65 110.5 -25.0 N 100.81 CA 101.25 C 100.7 O 102.26
D THR - 14 -63.3 125.5 N 98.89 CA 97.74 C 95.99 O 95.01 CB 97.09 OG1 94.73 CG2 97.51
D PRO - 83 -58.0 138.6 N 94.4 CA 95.21 C 96.36 O 98.61 CB 95.6 CG 95.55 CD 94.51
D PRO T 42 -63.1 -31.5 N 96.62 CA 96.01 C 95.21 O 93.01 CB 97.41 CG 99.25 CD 98.37
D TRP H 57 -74.7 -20.2 N 95.67 CA 97.34 C 99.59 O 101.84 CB 94.39 CG 91.62 CD1 91.44 CD2 90.99 NE1 89.15 CE2 89.2 CE3 92.03 CZ2 90.85 CZ3 92.29 CH2 92.32
D ALA H 25 -65.7 -21.8 N 100.37 CA 99.48 C 98.84 O 98.86 CB 100.32
D VAL H 0 -105.2 -32.7 N 98.49 CA 100.8 C 103.18 O 102.43 CB 100.12 CG1 101.36 CG2 100.62
D LEU H 0 -78.8 -25.3 N 104.42 CA 104.09 C 104.87 O 107.65 CB 100.72 CG 97.55 CD1 98.14 CD2 96.6
D ARG T 63 -76.5 -4.8 N 101.68 CA 100.48 C 101.24 O 102.81 CB 99.31 CG 99.46 CD 102.56 NE 108.42 CZ 110.22 NH1 110.32 NH2 111.64
D HIS T 3 -107.5 -5.7 N 102.53 CA 103.53 C 105.71 O 105.7 CB 101.22 CG 99.84 ND1 100.13 CD2 99.19 CE1 99.57 NE2 97.75
D LEU G 20 -62.3 -30.8 N 111.08 CA 111.46 C 112.85 O 116.43 CB 109.57 CG 109.8 CD1 109.37 CD2 110.91
D ASN G 13 -96.5 14.4 N 112.34 CA 111.84 C 112.67 O 114.06 CB 111.83 CG 113.25 OD1 115.02 ND2 115.55
D LEU G 0 -68.3 -21.5 N 112.78 CA 114.1 C 115.3 O 116.21 CB 114.15 CG 114.32 CD1 114.5 CD2 115.41
D PHE G 14 -127.0 42.7 N 114.64 CA 113.71 C 113.2 O 113.71 CB 113.8 CG 112.66 CD1 112.43 CD2 112.47 CE1 112.51 CE2 113.02 CZ 111.65
D ARG T 100 -69.5 120.3 N 114.17 CA 115.59 C 116.55 O 117.63 CB 116.54 CG 118.26 CD 123.35 NE 128.21 CZ 131.34 NH1 134.33 NH2 133.18
D GLY T 82 74.4 29.2 N 117.64 CA 119.22 C 120.12 O 121.29
D ARG S 124 -119.2 161.4 N 120.09 CA 120.61 C 121.74 O 119.74 CB 119.95 CG 119.62 CD 119.91 NE 120.15 CZ 121.14 NH1 123.91 NH2 121.21
D PRO T 93 -55.2 131.1 N 123.72 CA 125.42 C 127.38 O 126.76 CB 124.09 CG 124.17 CD 123.58
D LYS T 109 61.0 24.2 N 129.94 CA 132.21 C 132.97 O 132.8 CB 133.78 CG 136.32 CD 141.24 CE 144.87 NZ 146.94
D GLY H 8 -68.7 -43.2 N 133.6 CA 135.07 C 136.92 O 136.81
D ARG H 188 -47.6 -53.2 N 139.57 CA 142.59 C 143.44 O 143.7 CB 145.06 CG 148.92 CD 153.01 NE 154.77 CZ 154.92 NH1 155.15 NH2 154.17
D LEU H 75 -66.7 -28.6 N 144.23 CA 145.25 C 144.47 O 145.16 CB 146.84 CG 148.58 CD1 149.93 CD2 148.53
D TRP H 0 -67.1 -45.2 N 142.84 CA 140.89 C 140.43 O 140.82 CB 139.17 CG 134.28 CD1 132.74 CD2 130.73 NE1 129.61 CE2 128.87 CE3 129.79 CZ2 128.37 CZ3 129.34 CH2 129.45
D ARG H 67 -73.2 -28.5 N 140.29 CA 141.29 C 140.78 O 140.5 CB 143.4 CG 148.36 CD 154.66 NE 159.19 CZ 161.98 NH1 163.01 NH2 163.12
D ARG H 149 -74.3 -43.2 N 140.27 CA 139.9 C 137.37 O 136.87 CB 142.79 CG 146.45 CD 148.94 NE 151.61 CZ 153.29 NH1 153.91 NH2 153.93
D LEU H 32 -59.0 -45.0 N 133.88 CA 129.76 C 128.75 O 129.38 CB 127.83 CG 126.13 CD1 127.1 CD2 126.09
D LEU H 0 -74.4 -32.5 N 126.9 CA 125.27 C 125.45 O 125.19 CB 123.53 CG 121.8 CD1 122.1 CD2 120.37
D SER H 37 -84.6 -9.0 N 125.76 CA 127.14 C 128.89 O 129.82 CB 126.08 OG 125.08
D GLU H 129 -99.5 -43.2 N 130.43 CA 131.68 C 129.81 O 129.6 CB 135.47 CG 140.34 CD 143.34 OE1 145.35 OE2 145.2
D GLY H 33 -90.1 -44.8 N 128.15 CA 125.22 C 122.78 O 123.03
D ARG - 125 54.2 67.3 N 118.61 CA 114.14 C 113.22 O 112.6 CB 110.95 CG 107.73 CD 105.21 NE 105.44 CZ 106.17 NH1 105.72 NH2 106.41
D SER S 30 -170.1 163.0 N 112.45 CA 112.56 C 111.99 O 110.44 CB 115.53 OG 118.14
D LEU H 38 -61.0 -39.5 N 112.97 CA 116.34 C 119.44 O 120.64 CB 114.4 CG 114.76 CD1 115.33 CD2 115.07
D GLN H 133 -56.9 -38.8 N 122.67 CA 124.63 C 124.31 O 123.6 CB 127.51 CG 130.8 CD 132.64 OE1 134.08 NE2 133.28
D ALA H 0 -71.9 -39.9 N 124.15 CA 124.09 C 124.03 O 124.62 CB 124.25
D LEU H 0 -63.7 -30.7 N 123.82 CA 125.04 C 126.73 O 127.01 CB 123.05 CG 120.32 CD1 118.9 CD2 119.27
D ASP H 30 -66.6 -46.6 N 129.28 CA 132.6 C 134.43 O 135.04 CB 134.01 CG 135.43 OD1 135.47 OD2 136.34
D ARG H 101 -59.1 -40.2 N 135.73 CA 136.25 C 134.94 O 134.55 CB 138.68 CG 142.69 CD 145.98 NE 147.8 CZ 148.74 NH1 148.78 NH2 148.35
D ALA H 0 -68.4 -27.5 N 133.41 CA 133.15 C 133.15 O 133.64 CB 132.85
D LEU H 22 -77.2 -34.1 N 133.12 CA 134.4 C 136.99 O 136.4 CB 133.07 CG 131.1 CD1 130.99 CD2 129.03
D ARG H 142 -79.8 -21.6 N 140.34 CA 144.6 C 146.13 O 146.41 CB 145.97 CG 148.44 CD 149.95 NE 149.53 CZ 149.39 NH1 149.77 NH2 149.33
D LEU H 26 -74.7 -45.2 N 147.79 CA 149.79 C 151.29 O 152.13 CB 149.63 CG 150.88 CD1 151.39 CD2 149.34
D GLU H 114 -63.0 -34.8 N 157.37 CA 159.49 C 160.13 O 160.61 CB 160.81 CG 163.66 CD 164.57 OE1 165.36 OE2 163.64
D GLU H 145 -68.6 -35.1 N 159.97 CA 159.54 C 158.68 O 159.29 CB 160.38 CG 161.93 CD 162.7 OE1 163.56 OE2 161.58
D GLU - 135 -102.7 360.0 N 157.41 CA 156.74 C 154.26 O 151.39 CB 159.76 CG 165.34 CD 168.53 OE1 170.92 OE2 170.43
