A TYR E 82 -81.9 152.8 N 27.09 CA 22.81 C 21.72 O 20.79 CB 22.78 CG 24.1 CD1 25.27 CD2 22.41 CE1 29.32 CE2 25.96 CZ 29.81 OH 37.16
A LYS E 47 -99.4 119.7 N 21.23 CA 18.77 C 19.53 O 21.06 CB 20.06 CG 19.74 CD 21.91
A VAL E 0 -110.6 127.6 N 17.09 CA 17.53 C 20.6 O 20.26 CB 17.32 CG1 18.63 CG2 19.35
A GLY E 0 -113.2 128.3 N 19.78 CA 18.37 C 21.16 O 19.93
A ILE E 0 -104.0 119.9 N 19.59 CA 21.51 C 22.18 O 20.36 CB 22.5 CG1 22.6 CG2 18.42 CD1 25.69
A VAL E 0 -87.4 119.9 N 19.12 CA 20.33 C 20.58 O 20.11 CB 20.27 CG1 20.05 CG2 20.37
A LEU - 0 -117.1 163.8 N 20.72 CA 23.27 C 20.98 O 21.87 CB 26.59 CG 32.05 CD1 33.59 CD2 27.04
A PHE - 10 -163.7 163.7 N 19.99 CA 20.81 C 20.17 O 21.79 CB 20.43 CG 19.83 CD1 20.66 CD2 18.34 CE1 22.74 CE2 18.56 CZ 23.49
A ASP T 38 -66.9 148.6 N 20.49 CA 20.82 C 18.69 O 17.89 CB 21.51 CG 22.32 OD1 23.18 OD2 22.39
A ASP T 57 65.3 34.6 N 19.45 CA 21.13 C 22.02 O 24.04 CB 21.73 CG 30.96 OD1 33.79 OD2 34.2
A PHE B 0 -71.6 150.1 N 21.05 CA 20.4 C 22.26 O 20.81 CB 19.02 CG 20.28 CD1 23.21 CD2 20.43 CE1 19.1 CE2 19.37 CZ 16.7
A THR - 39 -74.4 119.5 N 21.3 CA 22.43 C 21.71 O 21.26 CB 24.3 OG1 24.82 CG2 21.7
A ASP H 18 -54.0 -53.6 N 21.59 CA 20.51 C 19.4 O 20.21 CB 20.42 CG 23.31 OD1 21.29 OD2 22.6
A VAL H 88 -63.0 -38.1 N 21.27 CA 21.46 C 20.98 O 24.05 CB 25.07 CG1 24.68 CG2 25.44
A ASP H 7 -64.7 -45.0 N 20.02 CA 21.86 C 22.92 O 21.06 CB 22.37 CG 33.46 OD1 37.8 OD2 25.78
A PHE H 5 -64.4 -50.8 N 20.62 CA 19.22 C 19.58 O 19.65 CB 19.41 CG 20.38 CD1 24.36 CD2 21.86 CE1 25.75 CE2 24.39 CZ 24.26
A PHE H 94 -66.7 -36.5 N 18.07 CA 18.03 C 17.99 O 18.9 CB 20.2 CG 22.63 CD1 21.15 CD2 23.95 CE1 22.55 CE2 23.65 CZ 20.46
A LEU H 29 -66.5 -44.9 N 19.11 CA 18.49 C 18.3 O 17.75 CB 17.83 CG 20.96 CD1 21.76 CD2 20.49
A ASN H 61 -64.0 -40.0 N 20.11 CA 20.62 C 19.48 O 23.11 CB 23.07 CG 33.3 OD1 31.87 ND2 28.59
A ASP H 58 -65.4 -48.6 N 19.3 CA 20.12 C 21.99 O 23.33 CB 21.01 CG 25.61 OD1 27.2 OD2 23.47
A LEU H 2 -56.2 -49.0 N 18.96 CA 20.9 C 21.99 O 22.66 CB 18.7 CG 21.29 CD1 21.49 CD2 20.94
A LEU H 1 -62.4 -32.2 N 22.29 CA 22.69 C 23.51 O 27.13 CB 20.2 CG 20.33 CD1 22.95 CD2 20.38
A GLY T 58 -78.1 -0.4 N 21.78 CA 25.06 C 27.34 O 28.17
A ARG T 81 -80.4 -8.4 N 27.05 CA 28.42 C 30.65 O 31.84 CB 25.71 CG 24.86 CD 28.84 NE 38.0 CZ 38.35 NH1 36.68 NH2 37.34
A THR - 7 -123.6 137.6 N 28.08 CA 30.63 C 32.31 O 31.38 CB 30.85 OG1 30.88 CG2 26.17
A SER S 109 -106.6 -6.5 N 33.78 CA 35.38 C 34.59 O 34.93 CB 37.43 OG 39.54
A ASP S 104 -122.5 25.4 N 32.07 CA 33.42 C 31.88 O 32.12 CB 33.12 CG 39.77 OD1 36.79 OD2 45.5
A SER S 0 -114.9 -49.1 N 28.15 CA 27.39 C 25.41 O 26.67 CB 27.21 OG 23.52
A TRP E 9 -156.5 160.1 N 21.35 CA 21.79 C 23.31 O 20.91 CB 22.25 CG 24.38 CD1 23.21 CD2 22.94 NE1 22.52 CE2 25.44 CE3 22.31 CZ2 24.3 CZ3 26.15 CH2 25.56
A THR E 70 -113.0 126.3 N 20.7 CA 20.78 C 19.58 O 21.61 CB 23.53 OG1 29.05 CG2 19.59
A VAL E 41 -102.0 132.0 N 18.36 CA 17.4 C 20.95 O 20.86 CB 19.31 CG1 22.32 CG2 21.9
A ARG E 58 -125.8 136.9 N 19.82 CA 20.63 C 20.66 O 21.19 CB 21.38 CG 21.05 CD 23.48 NE 25.18 CZ 32.95 NH1 34.72 NH2 35.07
A ILE E 12 -87.8 119.9 N 18.19 CA 19.73 C 20.14 O 19.64 CB 20.95 CG1 24.59 CG2 20.26 CD1 21.11
A LEU E 0 -112.7 133.7 N 20.7 CA 19.4 C 21.1 O 21.22 CB 20.19 CG 21.47 CD1 22.76 CD2 19.17
A GLY E 1 -150.5 -170.0 N 19.88 CA 19.45 C 19.85 O 18.67
A THR S 50 -104.0 -8.7 N 20.5 CA 20.29 C 19.63 O 20.84 CB 20.97 OG1 20.16 CG2 20.29
A LYS S 89 -134.6 157.9 N 20.21 CA 21.31 C 20.06 O 19.76 CB 21.59 CG 22.79 CD 25.97 CE 29.33 NZ 33.68
A PRO S 109 -51.6 -35.4 N 20.38 CA 21.57 C 21.32 O 21.98 CB 21.9 CG 23.1 CD 20.89
A GLU E 104 -138.6 145.0 N 21.73 CA 23.11 C 20.09 O 19.35 CB 24.35 CG 34.66 CD 31.9 OE1 42.85 OE2 48.35
A HIS E 3 -115.7 152.1 N 19.66 CA 20.24 C 19.79 O 22.81 CB 18.09 CG 18.69 ND1 17.91 CD2 23.26 CE1 21.93 NE2 18.78
A HIS E 75 -109.1 140.8 N 21.78 CA 19.97 C 20.82 O 19.58 CB 20.52 CG 16.49 ND1 21.26 CD2 18.98 CE1 18.99 NE2 17.27
A SER B 0 -76.6 175.1 N 21.03 CA 18.86 C 21.16 O 19.5 CB 19.36 OG 16.9
A GLN T 80 -59.1 -34.2 N 20.41 CA 22.29 C 21.96 O 23.31 CB 24.55 CG 34.15
A LEU T 129 -87.8 2.5 N 21.06 CA 21.52 C 19.68 O 19.03 CB 21.83 CG 26.19 CD1 23.84 CD2 24.97
A GLY - 43 84.0 17.3 N 17.68 CA 21.29 C 22.33 O 23.16
A THR E 87 -105.2 124.6 N 21.64 CA 20.99 C 20.61 O 21.3 CB 24.37 OG1 29.44 CG2 24.16
A VAL E 21 -119.3 125.4 N 20.23 CA 20.2 C 21.0 O 21.39 CB 18.32 CG1 20.7 CG2 19.99
A LYS E 102 -77.4 138.8 N 22.36 CA 23.15 C 23.37 O 20.13 CB 25.43 CG 30.47 CD 32.09
A THR - 30 -83.9 145.8 N 20.32 CA 20.49 C 19.84 O 19.76 CB 20.46 OG1 19.59 CG2 19.76
A ASP S 93 -88.8 -21.3 N 19.79 CA 20.1 C 21.66 O 21.5 CB 21.42 CG 26.13 OD1 26.56 OD2 21.27
A GLY E 11 -169.9 -178.3 N 17.92 CA 19.62 C 17.79 O 19.13
A HIS E 84 -82.7 150.9 N 19.51 CA 20.05 C 20.65 O 21.26 CB 18.85 CG 18.98 ND1 18.37 CD2 16.12 CE1 19.33 NE2 17.81
A VAL G 0 -50.5 -33.7 N 20.9 CA 20.14 C 21.76 O 20.11 CB 21.48 CG1 27.08 CG2 24.68
A SER G 59 -54.1 -27.1 N 19.99 CA 22.31 C 21.47 O 22.91 CB 22.79 OG 20.83
A GLU G 51 -71.3 -2.2 N 20.91 CA 22.82 C 20.01 O 22.17 CB 24.22 CG 24.12 CD 31.46 OE1 34.05 OE2 37.95
A VAL G 1 -54.2 -30.2 N 20.21 CA 21.46 C 22.19 O 22.42 CB 19.18 CG1 21.29 CG2 20.58
A LYS G 154 -52.8 -29.9 N 23.71 CA 28.68 C 27.35 O 30.67 CB 29.79 CG 36.64 CD 39.81 CE 35.8 NZ 42.53
A GLU G 116 -91.5 -11.3 N 26.87 CA 28.05 C 26.01 O 25.56 CB 27.83 CG 36.22 CD 35.1 OE1 43.15 OE2 37.4
A GLN - 5 -88.2 150.7 N 23.78 CA 20.66 C 21.31 O 22.98 CB 20.19 CG 19.78 CD 25.45 OE1 22.35 NE2 23.5
A ASP S 61 -82.4 -27.8 N 18.91 CA 19.08 C 20.08 O 19.34 CB 20.41 CG 23.73 OD1 21.18 OD2 20.04
A VAL E 0 -136.9 132.2 N 19.61 CA 17.61 C 18.42 O 19.39 CB 17.59 CG1 19.59 CG2 18.47
A VAL E 0 -122.5 127.2 N 19.86 CA 17.74 C 21.8 O 21.06 CB 19.76 CG1 18.7 CG2 20.71
A LEU E 0 -121.6 129.5 N 20.9 CA 19.04 C 19.88 O 20.64 CB 18.65 CG 22.43 CD1 23.4 CD2 23.55
A ILE E 0 -97.3 123.4 N 20.1 CA 19.12 C 20.43 O 20.29 CB 20.86 CG1 21.12 CG2 22.63 CD1 23.43
A THR - 0 -85.9 -173.4 N 19.75 CA 20.73 C 21.69 O 21.21 CB 21.79 OG1 15.47 CG2 21.1
A SER - 5 -122.9 170.5 N 22.66 CA 23.1 C 22.47 O 22.34 CB 24.31 OG 22.0
A GLY - 0 176.8 129.9 N 21.98 CA 22.29 C 24.66 O 26.41
A TYR T 207 -63.1 -55.7 N 26.53 CA 31.22 C 30.64 O 30.92 CB 34.67 CG 45.72 CD1 53.4 CD2 49.11 CE1 55.42 CE2 52.64 CZ 53.62 OH 56.14
A ARG T 74 -84.8 -31.7 N 29.7 CA 30.23 C 27.47 O 29.86 CB 32.76 CG 36.44
A GLY H 1 -61.0 -41.7 N 24.85 CA 23.73 C 24.43 O 21.18
A ILE H 0 -68.1 -51.8 N 22.8 CA 22.8 C 23.66 O 22.76 CB 20.97 CG1 20.77 CG2 23.62 CD1 23.14
A PRO H 60 -53.2 -40.7 N 24.89 CA 26.47 C 26.71 O 25.11 CB 27.88 CG 27.33 CD 28.52
A ALA H 62 -59.6 -42.7 N 25.77 CA 23.93 C 24.14 O 24.16 CB 25.52
A ALA H 5 -64.4 -40.1 N 23.06 CA 21.95 C 21.16 O 20.89 CB 19.63
A LEU H 43 -63.3 -31.8 N 20.41 CA 21.43 C 20.42 O 20.55 CB 20.57 CG 23.4 CD1 23.35 CD2 22.89
A GLN T 135 -83.6 -5.5 N 22.24 CA 23.45 C 24.72 O 25.85 CB 24.88 CG 30.69 CD 28.96
A ASP - 60 -92.2 102.3 N 23.12 CA 24.13 C 24.89 O 23.11 CB 26.32 CG 30.26 OD1 30.61 OD2 34.98
A GLU H 71 -59.9 -38.0 N 23.96 CA 23.15 C 22.97 O 23.03 CB 24.64
A ASN H 135 -71.5 -34.4 N 24.07 CA 24.17 C 24.59 O 24.16 CB 25.38 CG 22.77 OD1 15.69 ND2 27.26
A PHE H 2 -62.6 -52.1 N 22.36 CA 22.84 C 20.93 O 22.52 CB 22.22 CG 19.92 CD1 24.91 CD2 20.09 CE1 23.4 CE2 20.89 CZ 17.98
A SER H 73 -72.2 -21.1 N 22.85 CA 22.27 C 22.69 O 23.39 CB 24.35 OG 21.39
A ALA H 16 -73.5 -23.9 N 20.01 CA 20.43 C 21.33 O 23.56 CB 18.79
A LEU - 4 -88.6 76.3 N 22.42 CA 21.96 C 25.34 O 25.16 CB 22.21 CG 22.99 CD1 19.62 CD2 21.75
A LYS - 129 -97.6 98.5 N 22.95 CA 23.48 C 23.29 O 27.34 CB 27.04 CG 25.24 CD 31.01 CE 32.34 NZ 30.38
A LEU - 21 -106.6 146.3 N 21.91 CA 19.19 C 22.39 O 22.51 CB 17.53 CG 20.31 CD1 21.87 CD2 20.78
A ASP - 64 -132.1 96.4 N 20.9 CA 21.71 C 20.16 O 20.03 CB 22.79 CG 27.05 OD1 25.7 OD2 34.55
A PRO T 41 -59.3 -17.3 N 22.7 CA 24.34 C 24.77 O 26.53 CB 27.69 CG 29.64 CD 26.45
A SER T 93 -72.8 -20.2 N 21.55 CA 24.21 C 24.29 O 27.67 CB 24.89 OG 27.11
A ARG T 85 -126.6 -2.3 N 22.28 CA 22.21 C 21.94 O 24.31 CB 25.65 CG 26.51
A GLN - 11 -143.2 145.7 N 19.93 CA 20.83 C 21.83 O 21.97 CB 20.0 CG 17.84 CD 19.85 OE1 19.19 NE2 13.98
A LEU E 14 -85.0 135.3 N 17.57 CA 18.17 C 18.93 O 20.14 CB 18.76 CG 21.37 CD1 22.76 CD2 21.26
A ILE E 0 -128.1 127.2 N 19.31 CA 19.15 C 19.88 O 20.26 CB 19.89 CG1 20.7 CG2 18.23 CD1 20.23
A GLY E 0 -138.9 166.3 N 19.0 CA 18.75 C 19.98 O 19.76
A SER E 0 -149.9 157.8 N 18.45 CA 16.63 C 20.76 O 19.08 CB 18.46 OG 20.43
A ILE E 0 -124.3 142.1 N 19.7 CA 18.46 C 19.01 O 18.7 CB 18.82 CG1 20.61 CG2 18.97 CD1 20.9
A CYS T 8 47.9 -124.8 N 22.49 CA 20.05 C 19.96 O 20.72 CB 20.89 SG 23.98
A ALA T 8 -73.1 -6.4 N 17.86 CA 17.51 C 19.5 O 19.74 CB 16.98
A GLY H 0 -49.8 -30.0 N 20.25 CA 20.33 C 19.46 O 19.7
A SER H 0 -65.7 -19.6 N 19.04 CA 19.91 C 21.42 O 20.33 CB 22.04 OG 21.0
A PHE H 13 -60.8 -41.9 N 19.3 CA 20.47 C 20.78 O 19.46 CB 21.04 CG 19.26 CD1 16.2 CD2 22.29 CE1 21.2 CE2 21.22 CZ 20.61
A VAL H 0 -61.1 -51.1 N 19.5 CA 18.19 C 19.88 O 20.1 CB 17.55 CG1 18.57 CG2 17.94
A LEU H 0 -60.6 -41.9 N 18.02 CA 19.8 C 19.7 O 21.05 CB 20.33 CG 19.74 CD1 21.19 CD2 20.32
A HIS H 34 -58.4 -51.8 N 19.93 CA 18.31 C 18.75 O 20.17 CB 18.78 CG 21.14 ND1 23.68 CD2 20.81 CE1 23.77 NE2 23.37
A GLU H 93 -70.2 -22.5 N 19.47 CA 20.06 C 19.58 O 19.76 CB 20.36 CG 22.94 CD 28.03 OE1 30.83 OE2 33.2
A LEU T 48 -70.1 -11.1 N 19.7 CA 20.7 C 21.45 O 20.96 CB 19.27 CG 17.71 CD1 20.45 CD2 19.96
A GLY T 46 85.9 6.4 N 19.8 CA 20.17 C 22.47 O 27.57
A LEU T 35 -71.4 -17.4 N 18.7 CA 21.49 C 23.41 O 22.47 CB 19.8 CG 25.16 CD1 23.53 CD2 24.26
A LEU T 7 -122.3 33.5 N 24.24 CA 23.33 C 25.94 O 22.6 CB 23.66 CG 24.99 CD1 24.53 CD2 27.68
A LYS T 106 -65.4 121.7 N 25.68 CA 24.67 C 23.12 O 24.86 CB 25.88 CG 30.61
A GLY T 85 74.3 14.6 N 24.59 CA 24.62 C 25.19 O 26.87
A LYS - 75 -119.6 170.4 N 25.09 CA 23.79 C 23.82 O 24.42 CB 24.46 CG 28.06 CD 36.65 CE 42.21 NZ 42.08
A LYS E 60 -94.1 155.3 N 21.94 CA 19.73 C 20.0 O 18.2 CB 21.78 CG 26.57 CD 29.44 CE 33.28 NZ 34.63
A LEU E 2 -156.8 175.4 N 18.58 CA 18.52 C 19.5 O 18.68 CB 17.29 CG 26.33 CD1 31.0 CD2 22.85
A THR - 4 -134.1 169.7 N 20.96 CA 18.57 C 18.82 O 19.86 CB 19.44 OG1 18.96 CG2 17.06
A THR - 5 -159.3 -178.5 N 19.12 CA 19.73 C 20.68 O 19.54 CB 18.54 OG1 22.97 CG2 17.42
A ASN - 39 -65.5 143.1 N 22.24 CA 23.85 C 23.24 O 21.38 CB 28.1 CG 31.59 OD1 46.7 ND2 37.62
A PRO G 89 -49.2 -39.5 N 22.91 CA 24.66 C 23.79 O 24.52 CB 24.44 CG 26.34 CD 24.03
A ASP G 157 -70.9 -16.4 N 23.27 CA 25.73 C 24.61 O 24.42 CB 27.94 CG 39.81 OD1 52.29 OD2 63.18
A ALA G 14 -97.2 -5.9 N 22.33 CA 23.57 C 23.77 O 24.2 CB 21.95
A LYS H 51 -59.3 -46.9 N 23.09 CA 22.23 C 22.49 O 21.53 CB 24.73 CG 23.97 CD 29.95 CE 36.3
A ALA H 72 -61.7 -40.6 N 21.63 CA 20.88 C 20.03 O 19.09 CB 20.76
A VAL H 89 -66.7 -45.5 N 21.0 CA 20.39 C 20.89 O 19.58 CB 20.92 CG1 23.83 CG2 23.42
A LEU H 0 -62.7 -39.4 N 18.6 CA 18.08 C 18.04 O 18.8 CB 18.27 CG 17.14 CD1 18.01 CD2 16.37
A GLN H 91 -55.3 -47.0 N 19.45 CA 20.74 C 20.38 O 21.32 CB 22.03 CG 21.59 CD 26.11 OE1 26.89 NE2 29.61
A GLY H 75 -64.4 -18.7 N 19.72 CA 20.23 C 19.37 O 18.02
A GLY T 58 101.1 8.4 N 17.48 CA 17.81 C 19.88 O 19.58
A GLY - 10 -74.3 137.7 N 20.54 CA 21.61 C 21.49 O 22.09
A ASP E 77 -92.4 84.4 N 21.96 CA 21.38 C 20.94 O 19.0 CB 22.75 CG 24.84 OD1 24.47 OD2 25.89
A VAL E 13 -89.4 129.8 N 19.84 CA 19.67 C 20.2 O 20.39 CB 22.17 CG1 19.71 CG2 19.99
A GLN - 49 -106.3 154.3 N 19.57 CA 19.36 C 20.16 O 19.81 CB 19.99 CG 19.13 CD 18.54 OE1 16.9 NE2 24.9
A ASP S 139 -88.4 62.3 N 20.78 CA 22.63 C 20.8 O 20.15 CB 23.23 CG 26.97 OD1 32.8 OD2 38.35
A LEU S 86 -138.1 148.6 N 20.42 CA 22.42 C 21.54 O 21.69 CB 22.37 CG 21.77 CD1 22.49 CD2 21.35
A PRO S 43 -73.5 -28.0 N 19.51 CA 16.39 C 17.31 O 19.92 CB 18.84 CG 20.83 CD 17.15
A LEU E 6 -142.3 129.7 N 18.38 CA 18.13 C 17.41 O 19.18 CB 19.57 CG 20.86 CD1 18.65 CD2 19.89
A VAL E 5 -127.7 116.1 N 17.63 CA 16.18 C 17.76 O 18.75 CB 18.44 CG1 16.07 CG2 17.66
A ILE E 0 -102.8 127.7 N 18.71 CA 20.75 C 21.27 O 20.45 CB 19.74 CG1 21.78 CG2 17.79 CD1 19.9
A GLU E 19 -131.0 89.3 N 20.42 CA 20.17 C 21.57 O 20.3 CB 20.03 CG 22.49 CD 23.02 OE1 23.7 OE2 21.52
A GLY T 15 68.1 -112.6 N 21.76 CA 20.62 C 20.22 O 20.02
A ASN T 56 -103.1 15.2 N 18.34 CA 19.4 C 19.19 O 20.14 CB 19.46 CG 25.76 OD1 20.22 ND2 24.47
A ILE E 8 -112.8 135.7 N 18.43 CA 19.89 C 19.16 O 21.06 CB 19.38 CG1 22.85 CG2 19.96 CD1 23.61
A ALA E 1 -138.5 132.9 N 19.38 CA 18.76 C 19.2 O 20.57 CB 21.79
A THR E 1 -111.1 144.9 N 19.07 CA 18.02 C 18.22 O 19.59 CB 19.23 OG1 18.15 CG2 18.85
A ALA E 0 -128.8 140.3 N 19.04 CA 18.71 C 18.25 O 19.42 CB 18.7
A GLY - 10 -123.8 132.3 N 17.23 CA 17.96 C 19.15 O 20.17
A GLY S 24 85.6 136.2 N 18.29 CA 19.34 C 17.13 O 20.16
A CYS G 30 -49.8 -50.0 N 19.61 CA 21.02 C 21.78 O 22.2 CB 22.94 SG 21.79
A LEU G 122 -67.7 -10.2 N 19.53 CA 18.95 C 20.09 O 19.41 CB 18.89 CG 25.32 CD1 29.46 CD2 25.9
A SER G 10 -68.8 -9.0 N 19.3 CA 17.95 C 18.15 O 18.97 CB 16.97 OG 14.36
A LEU H 0 -53.0 -29.0 N 16.98 CA 18.08 C 19.08 O 18.34 CB 18.66 CG 17.52 CD1 20.27 CD2 17.33
A LEU H 23 -60.1 -39.6 N 19.76 CA 19.31 C 20.39 O 18.67 CB 21.3 CG 24.81 CD1 25.94 CD2 21.2
A TYR H 26 -73.1 -39.5 N 19.33 CA 19.18 C 17.65 O 18.3 CB 19.88 CG 16.9 CD1 20.22 CD2 17.55 CE1 20.8 CE2 16.13 CZ 19.36 OH 21.92
A LEU H 0 -68.9 -48.8 N 17.03 CA 17.47 C 19.74 O 18.28 CB 17.4 CG 18.79 CD1 21.6 CD2 20.6
A VAL H 1 -67.0 -36.9 N 19.98 CA 20.62 C 20.62 O 19.97 CB 19.42 CG1 19.78 CG2 19.14
A GLY H 4 -61.4 -37.2 N 19.8 CA 18.83 C 17.76 O 20.94
A TRP H 0 -64.4 -44.6 N 16.53 CA 17.34 C 18.44 O 19.9 CB 17.05 CG 19.0 CD1 19.52 CD2 19.36 NE1 19.67 CE2 19.69 CE3 19.2 CZ2 21.57 CZ3 21.55 CH2 20.26
A LEU H 0 -54.2 -48.9 N 19.3 CA 17.32 C 18.74 O 20.14 CB 20.26 CG 17.74 CD1 21.82 CD2 17.14
A ALA H 0 -62.5 -40.6 N 19.9 CA 20.98 C 23.42 O 23.31 CB 21.71
A GLU H 62 -68.0 -43.0 N 20.79 CA 22.46 C 20.75 O 22.48 CB 22.53 CG 24.66 CD 33.06 OE1 30.33 OE2 30.14
A ARG H 75 -68.2 -39.7 N 19.67 CA 20.41 C 21.24 O 22.61 CB 18.81 CG 20.22 CD 21.69 NE 24.18 CZ 21.17 NH1 24.1 NH2 20.62
A LEU H 37 -93.6 -30.8 N 19.38 CA 22.16 C 23.99 O 24.88 CB 21.94 CG 23.32 CD1 25.92 CD2 22.6
A PHE S 65 -129.7 -111.1 N 23.1 CA 24.0 C 25.6 O 23.66 CB 24.22 CG 26.87 CD1 33.12 CD2 25.93 CE1 29.52 CE2 25.92 CZ 25.46
A ASP - 83 -161.2 -176.0 N 26.5 CA 29.58 C 28.52 O 28.84 CB 29.65 CG 32.47 OD1 32.28 OD2 45.66
A SER H 45 -63.4 -33.3 N 30.02 CA 29.11 C 29.64 O 29.96 CB 30.42 OG 36.65
A VAL H 107 -60.6 -44.8 N 26.52 CA 28.81 C 29.29 O 28.44 CB 29.46 CG1 28.49 CG2 32.08
A LYS H 29 -62.6 -46.5 N 28.99 CA 28.89 C 27.86 O 24.12 CB 31.42 CG 30.88 CD 44.41 CE 47.65 NZ 55.61
A ARG H 5 -54.8 -52.5 N 25.14 CA 27.42 C 27.99 O 27.9 CB 25.53 CG 29.03 CD 29.65 NE 26.25 CZ 24.6 NH1 23.89 NH2 26.28
A LYS H 85 -59.9 -42.3 N 30.07 CA 31.04 C 31.21 O 30.58 CB 32.01 CG 34.48 CD 36.6 CE 38.72 NZ 39.17
A GLN H 83 -53.5 -47.0 N 30.54 CA 32.11 C 31.0 O 32.13 CB 34.38 CG 46.79 CD 58.74 OE1 63.84 NE2 66.18
A ILE H 4 -65.3 -55.0 N 27.44 CA 27.51 C 29.03 O 30.54 CB 27.79 CG1 30.29 CG2 24.75 CD1 26.59
A GLN H 4 -68.4 -30.7 N 26.94 CA 26.87 C 27.74 O 29.78 CB 27.64 CG 23.52 CD 29.58 OE1 26.8 NE2 28.76
A ASN T 56 -64.0 -22.1 N 29.4 CA 29.46 C 31.31 O 27.41 CB 32.83 CG 36.73 OD1 26.9 ND2 32.71
A GLN T 107 -77.6 -11.6 N 28.78 CA 28.95 C 31.62 O 30.2 CB 30.36 CG 31.81 CD 29.88 OE1 33.9 NE2 29.19
A LEU T 60 -111.7 -19.8 N 28.06 CA 26.74 C 26.21 O 24.34 CB 24.99 CG 30.31 CD1 29.52 CD2 30.9
A ILE S 15 -80.8 158.4 N 23.55 CA 27.47 C 21.23 O 22.42 CB 30.73 CG1 32.86 CG2 29.5 CD1 38.46
A PRO - 54 -56.9 135.4 N 20.63 CA 18.18 C 17.47 O 18.63 CB 18.55 CG 19.66 CD 16.87
A ALA T 100 -50.9 135.1 N 16.95 CA 16.53 C 19.39 O 19.54 CB 17.53
A GLY T 81 74.8 2.9 N 16.91 CA 17.15 C 17.62 O 18.01
A GLN - 78 -121.0 26.7 N 17.5 CA 18.04 C 20.42 O 19.78 CB 16.6 CG 16.33 CD 15.61 OE1 17.13 NE2 16.29
A GLU H 73 -68.5 -40.7 N 19.53 CA 22.09 C 23.23 O 21.73 CB 24.54
A ILE H 103 -57.7 -47.1 N 22.33 CA 22.56 C 22.33 O 20.49 CB 23.46 CG1 28.14 CG2 24.67 CD1 24.85
A PHE H 40 -73.7 -34.7 N 18.74 CA 20.54 C 20.91 O 21.24 CB 19.84 CG 20.91 CD1 19.75 CD2 21.95 CE1 20.71 CE2 28.06 CZ 22.42
A GLU H 38 -60.8 -46.0 N 22.24 CA 24.48 C 24.2 O 26.41 CB 24.41 CG 26.37 CD 29.64 OE1 27.74 OE2 26.63
A THR H 72 -57.5 -48.8 N 23.79 CA 24.73 C 24.84 O 24.66 CB 27.94 OG1 27.8 CG2 27.74
A LEU H 73 -60.5 -50.0 N 22.01 CA 21.34 C 20.77 O 20.57 CB 19.91 CG 21.92 CD1 24.41 CD2 25.9
A ILE H 0 -69.1 -48.3 N 19.49 CA 21.57 C 23.29 O 20.85 CB 20.31 CG1 21.33 CG2 20.02 CD1 20.53
A SER H 37 -61.1 -45.1 N 20.49 CA 21.08 C 21.21 O 22.14 CB 21.92 OG 25.93
A GLU H 118 -68.2 -38.5 N 22.04 CA 20.32 C 21.07 O 20.59 CB 20.88 CG 18.84 CD 20.29 OE1 28.0 OE2 18.81
A THR H 26 -64.0 -46.3 N 19.81 CA 19.11 C 20.42 O 18.38 CB 19.23 OG1 20.25 CG2 17.22
A ILE H 8 -63.9 -45.0 N 19.04 CA 19.22 C 17.43 O 18.39 CB 19.75 CG1 18.78 CG2 19.71 CD1 18.84
A GLN H 72 -64.4 -37.8 N 18.72 CA 19.04 C 21.6 O 19.43 CB 19.44 CG 20.64
A SER H 80 -67.0 -36.6 N 21.39 CA 21.42 C 19.43 O 18.0 CB 23.55 OG 26.0
A ALA H 9 -66.0 -41.9 N 18.45 CA 15.86 C 16.63 O 17.31 CB 16.27
A GLU H 38 -63.2 -39.2 N 18.48 CA 18.62 C 17.78 O 18.71 CB 18.72 CG 18.18 CD 23.81 OE1 23.63 OE2 22.38
A SER H 77 -62.4 -46.8 N 19.46 CA 18.39 C 18.06 O 17.33 CB 19.23 OG 21.84
A ALA H 37 -60.4 -43.5 N 17.76 CA 16.8 C 15.94 O 17.69 CB 15.64
A TYR H 47 -59.0 -47.6 N 17.6 CA 16.96 C 17.31 O 17.39 CB 16.42 CG 16.53 CD1 18.51 CD2 25.2 CE1 21.17 CE2 23.94 CZ 23.54 OH 32.94
A GLU H 104 -66.3 -33.3 N 18.05 CA 19.12 C 17.11 O 16.24 CB 20.17 CG 25.13 CD 38.62 OE1 36.76 OE2 39.01
A TYR H 160 -60.0 -50.0 N 17.17 CA 17.16 C 16.05 O 17.06 CB 17.49 CG 16.83 CD1 16.67 CD2 16.29 CE1 16.01 CE2 13.13 CZ 17.1 OH 15.3
A ARG H 44 -63.3 -38.8 N 16.51 CA 16.8 C 18.7 O 18.38 CB 17.93 CG 18.63 CD 18.35 NE 17.92 CZ 18.0 NH1 18.84 NH2 20.38
A SER H 27 -62.5 -42.3 N 19.04 CA 20.07 C 20.67 O 19.6 CB 20.8 OG 21.0
A ALA H 50 -62.3 -41.1 N 17.34 CA 17.57 C 18.74 O 19.98 CB 16.34
A CYS H 53 -63.3 -41.8 N 19.45 CA 19.53 C 23.28 O 20.83 CB 19.51 SG 21.25
A GLU H 116 -62.1 -49.2 N 25.74 CA 28.77 C 27.59 O 26.74 CB 29.48 CG 37.02 CD 38.98 OE1 57.19 OE2 60.92
A SER H 73 -56.3 -46.6 N 26.5 CA 29.39 C 31.33 O 31.91 CB 29.63 OG 35.73
A ASP H 123 -56.0 -45.5 N 33.64 CA 37.23 C 39.22 O 39.67 CB 38.3 CG 46.39 OD1 50.61 OD2 52.82
A ALA H 85 -64.8 -39.1 N 43.13 CA 46.95 C 48.77 O 51.01 CB 45.2
A GLU H 88 -66.2 -35.8 N 50.2 CA 50.81 C 54.09 O 55.88 CB 50.64
A SER - 128 -68.3 360.0 N 56.15 CA 57.87 C 57.61 O 58.51 CB 58.62 OG 60.81
