A LYS - 235 360.0 138.8 N 73.94 CA 73.92 C 71.06 O 72.5 CB 73.84 CG 76.71 CD 75.64 CE 77.88 NZ 77.33
A GLY - 54 -86.1 81.0 N 67.17 CA 60.02 C 54.92 O 53.63
A THR E 61 -129.6 142.6 N 51.98 CA 47.48 C 45.0 O 41.0 CB 48.88 OG1 58.3 CG2 46.4
A TYR E 35 -135.9 117.2 N 39.3 CA 40.36 C 43.13 O 42.84 CB 42.15 CG 42.53 CD1 42.26 CD2 39.68 CE1 46.61 CE2 38.58 CZ 45.79 OH 43.79
A CYS T 21 54.1 27.9 N 42.7 CA 45.63 C 46.89 O 48.59 CB 42.27 SG 49.79
A GLY T 56 87.3 11.8 N 45.35 CA 46.03 C 45.46 O 47.81
A ALA E 1 -117.9 145.4 N 41.26 CA 39.1 C 36.58 O 41.3 CB 38.29
A PRO E 75 -60.9 130.9 N 36.8 CA 35.8 C 39.63 O 37.58 CB 35.82 CG 37.58 CD 35.36
A ILE E 50 -84.7 118.6 N 36.68 CA 35.59 C 37.09 O 39.57 CB 36.48 CG1 32.78 CG2 35.24 CD1 36.92
A LEU E 101 -85.8 -19.8 N 34.87 CA 37.23 C 39.68 O 43.62 CB 37.8 CG 37.02 CD1 36.03 CD2 38.92
A GLY E 24 154.8 -162.9 N 37.9 CA 40.09 C 40.7 O 37.87
A PRO E 109 -74.6 163.4 N 40.69 CA 38.7 C 38.31 O 36.32 CB 42.87 CG 44.67 CD 40.91
A GLY - 20 -101.0 164.3 N 37.43 CA 38.16 C 35.51 O 35.02
A SER - 76 -135.3 8.8 N 33.76 CA 36.99 C 37.82 O 38.56 CB 38.6 OG 44.22
A ALA - 14 -67.0 144.4 N 33.13 CA 34.27 C 33.9 O 30.35 CB 33.55
A PRO - 80 -54.8 150.8 N 35.43 CA 34.92 C 34.78 O 33.99 CB 38.07 CG 36.83 CD 38.2
A LYS - 170 -63.5 150.8 N 31.67 CA 33.0 C 30.12 O 30.81 CB 37.15 CG 36.48 CD 41.92 CE 38.79 NZ 31.94
A LEU - 30 -59.8 134.8 N 31.28 CA 32.82 C 33.41 O 34.01 CB 30.81 CG 38.65 CD1 41.12 CD2 34.15
A SER - 68 -68.5 134.6 N 33.22 CA 34.04 C 33.24 O 33.69 CB 36.67 OG 39.72
A THR - 64 -104.0 17.1 N 35.6 CA 36.68 C 38.9 O 43.26 CB 39.58 OG1 41.56 CG2 40.11
A LYS - 73 -119.3 167.2 N 37.38 CA 37.52 C 36.09 O 33.23 CB 39.44 CG 46.39 CD 53.55 CE 60.61 NZ 63.4
A THR E 0 -133.0 152.0 N 33.1 CA 30.58 C 30.74 O 33.66 CB 32.67 OG1 29.79 CG2 31.96
A LYS E 70 -94.1 1.2 N 32.86 CA 32.0 C 30.62 O 32.91 CB 33.97 CG 44.7 CD 52.86 CE 53.01 NZ 61.43
A PHE E 9 -93.3 131.5 N 28.42 CA 26.06 C 26.67 O 25.93 CB 27.46 CG 28.77 CD1 29.6 CD2 24.39 CE1 34.29 CE2 31.11 CZ 32.23
A TRP E 28 -125.5 136.9 N 28.97 CA 31.5 C 29.51 O 30.51 CB 32.43 CG 33.78 CD1 36.05 CD2 35.52 NE1 37.61 CE2 38.53 CE3 35.93 CZ2 35.62 CZ3 39.65 CH2 36.92
A ARG E 22 -61.8 136.9 N 29.89 CA 31.15 C 30.95 O 31.43 CB 31.38 CG 28.92 CD 27.11 NE 28.96 CZ 32.08 NH1 28.18 NH2 27.43
A SER S 19 -77.0 -14.3 N 34.07 CA 29.42 C 31.62 O 31.77 CB 32.07 OG 37.91
A SER S 47 -162.3 -175.4 N 32.34 CA 33.52 C 32.45 O 32.14 CB 32.97 OG 32.2
A THR S 127 -102.7 11.6 N 29.02 CA 28.72 C 28.49 O 31.01 CB 30.39 OG1 31.14 CG2 29.62
A ALA S 45 -58.6 147.7 N 32.53 CA 33.45 C 37.94 O 36.96 CB 36.92
A PRO - 115 -66.1 140.0 N 39.77 CA 38.78 C 36.95 O 36.55 CB 39.79 CG 43.79 CD 41.95
A LEU - 42 -69.2 128.9 N 36.92 CA 34.71 C 35.57 O 34.27 CB 38.03 CG 39.37 CD1 37.5 CD2 34.01
A PRO - 47 -55.9 144.6 N 35.47 CA 36.37 C 37.8 O 33.35 CB 37.31 CG 36.72 CD 35.66
A PRO T 136 -57.3 136.7 N 37.61 CA 39.1 C 37.48 O 36.2 CB 41.63 CG 41.24 CD 39.0
A GLY T 58 92.0 -12.0 N 36.98 CA 36.96 C 34.38 O 35.03
A THR - 23 -60.1 134.6 N 32.58 CA 31.66 C 30.06 O 30.21 CB 32.17 OG1 30.42 CG2 28.87
A TYR - 38 -60.8 151.4 N 29.94 CA 29.75 C 29.5 O 28.98 CB 27.79 CG 31.85 CD1 32.36 CD2 31.81 CE1 35.46 CE2 34.68 CZ 34.91 OH 37.89
A GLU E 32 -132.9 160.7 N 29.07 CA 27.75 C 27.61 O 29.1 CB 30.06 CG 30.48 CD 34.37 OE1 33.87 OE2 36.24
A PRO E 0 -58.9 139.8 N 28.79 CA 28.31 C 29.0 O 29.82 CB 29.32 CG 32.05 CD 29.9
A ALA - 0 -53.9 155.9 N 27.64 CA 25.81 C 26.18 O 30.54 CB 30.21
A TYR - 0 -51.4 139.2 N 29.26 CA 29.53 C 32.6 O 31.41 CB 32.28 CG 33.72 CD1 38.35 CD2 34.3 CE1 37.84 CE2 33.48 CZ 38.63 OH 37.45
A LEU - 3 -109.2 4.8 N 32.67 CA 33.37 C 32.65 O 37.0 CB 34.21 CG 35.37 CD1 40.07 CD2 34.34
A GLY - 1 108.8 -164.7 N 35.18 CA 35.04 C 40.27 O 38.71
A GLY T 52 -64.2 -18.6 N 40.74 CA 44.86 C 45.37 O 46.99
A LYS T 201 -106.5 6.7 N 44.96 CA 44.67 C 43.5 O 42.63 CB 46.37 CG 49.62 CD 56.02 CE 63.79 NZ 67.96
A ASP - 4 -55.3 120.6 N 40.27 CA 38.26 C 38.72 O 40.74 CB 37.85 CG 42.43 OD1 36.44 OD2 34.82
A PRO T 73 -61.1 -16.0 N 40.69 CA 41.35 C 42.24 O 41.93 CB 41.57 CG 43.79 CD 40.41
A ARG T 46 -93.3 -18.2 N 38.96 CA 38.73 C 39.8 O 41.54 CB 36.73 CG 35.19 CD 34.19 NE 38.67 CZ 38.99 NH1 29.4 NH2 34.59
A VAL S 25 -130.9 125.4 N 42.32 CA 44.57 C 48.3 O 48.52 CB 47.16 CG1 44.88 CG2 44.36
A LYS S 210 -94.2 124.7 N 49.06 CA 52.32 C 49.44 O 51.24 CB 53.95 CG 60.02 CD 67.23 CE 70.02 NZ 73.65
A GLY S 79 60.7 37.8 N 50.11 CA 48.04 C 46.79 O 45.9
A GLY - 23 -78.9 177.7 N 45.68 CA 41.87 C 40.46 O 39.77
A PRO - 39 -67.5 161.9 N 37.24 CA 36.71 C 35.52 O 38.98 CB 34.06 CG 39.02 CD 37.32
A SER - 37 -74.1 160.9 N 33.24 CA 32.79 C 30.03 O 32.18 CB 36.96 OG 39.25
A LEU H 8 -64.4 -29.9 N 30.42 CA 30.57 C 30.94 O 30.0 CB 30.51 CG 33.64 CD1 38.11 CD2 34.12
A GLN H 70 -64.7 -41.4 N 34.63 CA 34.48 C 36.7 O 34.47 CB 37.56 CG 40.39 CD 51.25 OE1 50.46 NE2 51.99
A GLN H 81 -64.1 -42.9 N 32.92 CA 35.43 C 31.36 O 33.29 CB 36.61 CG 43.37 CD 45.52 OE1 47.49 NE2 47.05
A VAL H 2 -58.5 -46.5 N 32.38 CA 29.75 C 31.36 O 31.92 CB 30.03 CG1 29.66 CG2 31.01
A MET H 4 -61.5 -42.8 N 31.05 CA 29.39 C 30.25 O 26.91 CB 31.15 CG 31.93 SD 37.42 CE 34.62
A ARG H 84 -51.9 -46.8 N 30.68 CA 31.04 C 28.54 O 30.48 CB 35.33 CG 39.0 CD 43.57 NE 59.11 CZ 60.27 NH1 65.26 NH2 64.57
A ASP H 58 -61.7 -33.7 N 30.38 CA 30.92 C 29.91 O 31.81 CB 35.2 CG 42.02 OD1 48.9 OD2 49.65
A GLN H 45 -78.3 -30.7 N 32.73 CA 31.16 C 30.06 O 28.02 CB 27.76 CG 31.13 CD 34.02 OE1 32.8 NE2 42.12
A LEU H 0 -76.2 -32.4 N 29.73 CA 29.93 C 29.53 O 28.38 CB 29.79 CG 33.06 CD1 36.32 CD2 36.08
A LYS H 82 -50.1 -50.7 N 33.58 CA 34.23 C 30.41 O 32.93 CB 37.58 CG 44.98 CD 55.74 CE 59.46 NZ 62.12
A PRO H 15 -52.7 -27.8 N 32.28 CA 30.38 C 29.71 O 29.34 CB 34.87 CG 36.65 CD 31.13
A PHE H 4 -69.9 -21.5 N 26.12 CA 27.67 C 30.45 O 26.65 CB 25.77 CG 23.7 CD1 26.03 CD2 23.6 CE1 26.82 CE2 27.75 CZ 24.6
A THR H 45 -105.4 -11.5 N 29.18 CA 32.33 C 33.94 O 35.48 CB 31.79 OG1 33.61 CG2 37.16
A GLU S 95 -67.6 158.6 N 32.48 CA 36.71 C 36.02 O 33.48 CB 35.56 CG 42.55 CD 45.55 OE1 55.24 OE2 53.37
A PRO - 126 -53.8 143.0 N 35.9 CA 34.26 C 32.43 O 32.72 CB 36.32 CG 36.42 CD 38.17
A ARG - 55 -70.6 163.0 N 34.4 CA 33.01 C 36.18 O 33.17 CB 34.24 CG 31.8 CD 30.81 NE 29.73 CZ 34.03 NH1 29.31 NH2 28.88
A GLY - 23 -74.4 -175.7 N 33.12 CA 34.69 C 33.99 O 33.04
A LYS - 135 -71.6 135.5 N 34.23 CA 39.11 C 37.15 O 38.44 CB 40.62 CG 47.98 CD 48.89 CE 60.24 NZ 63.65
A PRO - 73 -66.1 147.9 N 35.07 CA 37.52 C 37.47 O 37.39 CB 38.02 CG 39.84 CD 37.64
A PRO - 2 -59.6 144.0 N 35.71 CA 35.06 C 37.7 O 36.57 CB 36.03 CG 33.4 CD 35.67
A LYS - 122 -47.5 121.2 N 38.54 CA 43.38 C 42.58 O 39.82 CB 44.67 CG 51.37 CD 58.1 CE 65.81 NZ 71.44
A PRO H 105 -45.8 -42.6 N 44.18 CA 43.84 C 43.59 O 40.01 CB 45.87 CG 46.22 CD 45.1
A SER H 73 -66.6 -35.6 N 42.4 CA 39.45 C 36.58 O 34.52 CB 42.84 OG 44.41
A VAL H 22 -74.7 -36.1 N 36.75 CA 35.23 C 33.34 O 33.51 CB 38.82 CG1 38.87 CG2 44.54
A LEU H 23 -64.2 -43.0 N 33.71 CA 28.32 C 30.41 O 29.26 CB 31.56 CG 30.36 CD1 28.06 CD2 31.57
A GLU H 83 -59.8 -43.8 N 28.84 CA 30.77 C 27.93 O 30.39 CB 31.41 CG 37.49 CD 43.26 OE1 46.3 OE2 47.22
A ALA H 33 -65.7 -39.8 N 32.25 CA 30.71 C 28.99 O 28.94 CB 29.77
A ALA H 0 -62.5 -43.4 N 30.63 CA 30.68 C 31.17 O 27.15 CB 29.27
A LYS H 39 -56.0 -47.5 N 29.53 CA 29.79 C 29.65 O 31.08 CB 30.09 CG 34.83 CD 33.15 CE 37.57 NZ 35.18
A LYS H 117 -63.6 -39.1 N 28.89 CA 26.61 C 26.77 O 32.08 CB 29.37 CG 35.01 CD 44.94 CE 47.6 NZ 53.84
A THR H 5 -59.6 -49.8 N 27.95 CA 28.39 C 27.29 O 27.52 CB 29.78 OG1 31.72 CG2 35.11
A ILE H 0 -59.7 -45.3 N 28.84 CA 26.06 C 27.19 O 29.15 CB 24.92 CG1 23.77 CG2 24.65 CD1 24.4
A ILE H 17 -56.3 -44.7 N 27.71 CA 28.34 C 29.51 O 29.63 CB 30.98 CG1 27.57 CG2 31.11 CD1 32.72
A ASN H 57 -64.7 -42.0 N 30.42 CA 31.81 C 32.09 O 31.12 CB 32.71 CG 39.34 OD1 51.12 ND2 44.58
A VAL H 27 -57.6 -48.8 N 30.16 CA 29.53 C 31.32 O 29.21 CB 30.19 CG1 30.58 CG2 28.53
A LEU H 4 -65.3 -42.0 N 27.22 CA 29.81 C 29.98 O 30.28 CB 29.58 CG 24.86 CD1 31.78 CD2 26.36
A GLU H 106 -57.0 -35.7 N 33.07 CA 36.19 C 37.42 O 40.06 CB 38.27 CG 39.94 CD 44.4 OE1 46.11 OE2 47.87
A GLN H 162 -84.2 -12.2 N 35.41 CA 39.61 C 38.29 O 36.95 CB 38.44 CG 48.71 CD 48.06 OE1 53.51 NE2 49.71
A THR H 32 -113.3 -51.7 N 33.73 CA 30.97 C 30.16 O 30.49 CB 30.95 OG1 33.97 CG2 30.9
A ILE - 17 -93.6 166.6 N 30.14 CA 31.66 C 32.49 O 37.05 CB 31.44 CG1 32.77 CG2 29.86 CD1 36.12
A ASP - 92 -118.0 166.9 N 33.65 CA 33.8 C 38.26 O 37.12 CB 35.7 CG 35.47 OD1 38.29 OD2 33.68
A PRO - 116 -55.5 121.9 N 36.19 CA 35.6 C 30.67 O 34.42 CB 35.64 CG 38.66 CD 38.67
A PRO - 25 -72.7 150.4 N 33.63 CA 30.85 C 32.66 O 32.84 CB 32.33 CG 36.55 CD 32.55
A ASP - 122 -65.9 145.1 N 30.7 CA 32.9 C 34.5 O 32.99 CB 33.7 CG 38.93 OD1 40.7 OD2 38.99
A LYS - 140 -68.4 149.3 N 32.09 CA 32.29 C 30.6 O 31.56 CB 33.08 CG 35.46 CD 39.15 CE 43.78 NZ 52.24
A TRP - 40 -114.6 125.1 N 31.97 CA 30.51 C 30.26 O 32.78 CB 30.9 CG 28.89 CD1 31.7 CD2 28.03 NE1 30.33 CE2 30.1 CE3 28.7 CZ2 29.86 CZ3 30.84 CH2 31.38
A SER - 45 -78.1 171.8 N 33.13 CA 33.7 C 34.8 O 30.38 CB 35.03 OG 31.95
A PHE H 54 -55.1 -44.4 N 31.54 CA 33.01 C 33.23 O 33.02 CB 34.63 CG 36.04 CD1 31.38 CD2 37.97 CE1 35.7 CE2 34.11 CZ 34.97
A ALA H 61 -64.2 -42.5 N 31.78 CA 30.56 C 30.23 O 31.0 CB 34.17
A GLN H 101 -66.2 -43.0 N 29.83 CA 31.26 C 29.79 O 29.27 CB 33.29 CG 34.07 CD 35.65 OE1 34.67 NE2 47.15
A ALA H 0 -56.5 -53.8 N 29.47 CA 29.01 C 31.54 O 29.16 CB 30.41
A CYS H 2 -60.2 -40.2 N 31.06 CA 30.66 C 28.81 O 29.46 CB 30.75 SG 32.89
A ALA H 62 -62.4 -35.9 N 27.65 CA 28.78 C 25.65 O 27.73 CB 32.82
A SER H 61 -68.6 -25.1 N 27.35 CA 24.26 C 28.45 O 26.36 CB 23.64 OG 23.56
A LEU S 27 -71.9 150.4 N 25.12 CA 26.43 C 25.08 O 26.21 CB 24.02 CG 24.87 CD1 28.89 CD2 24.65
A ASP - 86 -75.0 112.9 N 26.02 CA 24.9 C 25.5 O 24.62 CB 24.91 CG 27.66 OD1 29.12 OD2 25.86
A LYS T 23 -80.7 -6.6 N 25.0 CA 26.06 C 25.09 O 26.79 CB 27.93 CG 28.62 CD 27.34 CE 27.9 NZ 25.38
A THR T 77 -85.8 -8.6 N 26.02 CA 25.16 C 27.9 O 27.19 CB 27.6 OG1 27.35 CG2 27.53
A THR S 61 -113.0 169.8 N 24.38 CA 23.76 C 24.48 O 26.59 CB 23.84 OG1 22.86 CG2 22.65
A SER B 54 -67.5 150.3 N 26.19 CA 22.97 C 26.21 O 23.47 CB 24.85 OG 26.29
A SER - 0 -78.3 -7.0 N 26.03 CA 24.99 C 24.48 O 25.44 CB 26.32 OG 29.69
A GLY - 3 68.3 -157.3 N 26.43 CA 28.14 C 27.46 O 27.28
A HIS T 54 -61.3 141.8 N 28.24 CA 27.5 C 28.72 O 26.88 CB 27.68 CG 32.26 ND1 34.19 CD2 32.17 CE1 31.26 NE2 33.67
A PRO T 61 -96.0 -6.4 N 29.85 CA 28.93 C 30.36 O 31.51 CB 32.72 CG 31.36 CD 30.52
A HIS T 64 -88.3 -25.1 N 29.22 CA 30.1 C 28.5 O 29.41 CB 29.68 CG 32.25 ND1 35.54 CD2 37.81 CE1 33.87 NE2 34.56
A HIS - 41 47.4 48.5 N 29.99 CA 27.84 C 29.05 O 31.53 CB 31.11 CG 28.51 ND1 27.61 CD2 26.7 CE1 30.69 NE2 27.0
A MET - 45 -110.9 143.6 N 30.86 CA 31.88 C 28.14 O 27.52 CB 35.7 CG 40.91 SD 53.17 CE 49.46
A ARG B 131 -59.4 125.2 N 27.4 CA 27.56 C 29.18 O 26.58 CB 29.23 CG 30.1 CD 38.71 NE 53.33 CZ 55.24 NH1 56.53 NH2 56.22
A LYS G 3 -56.4 -33.8 N 26.59 CA 28.01 C 26.4 O 29.3 CB 25.83 CG 28.0 CD 26.8 CE 25.47 NZ 27.07
A ASN G 83 -69.6 -11.2 N 26.74 CA 30.5 C 28.71 O 29.7 CB 32.18 CG 44.35 OD1 59.74 ND2 34.7
A ASP G 122 -82.8 -10.3 N 30.06 CA 31.47 C 30.84 O 32.55 CB 31.61 CG 33.03 OD1 34.53 OD2 38.77
A CYS G 15 -137.6 55.3 N 25.84 CA 29.7 C 27.99 O 30.32 CB 31.19 SG 42.13
A TRP B 44 -148.1 123.7 N 30.09 CA 29.79 C 32.62 O 31.29 CB 29.91 CG 29.22 CD1 33.29 CD2 27.98 NE1 32.26 CE2 28.87 CE3 30.65 CZ2 28.83 CZ3 33.18 CH2 28.86
A ASN - 89 -99.0 4.2 N 34.27 CA 34.53 C 36.74 O 37.27 CB 36.2 CG 36.61 OD1 35.63 ND2 38.11
A GLY S 54 109.2 -22.2 N 34.55 CA 36.48 C 36.46 O 35.54
A GLU S 150 -131.7 -28.1 N 34.58 CA 41.43 C 37.47 O 36.58 CB 41.15 CG 53.45 CD 55.36 OE1 62.93 OE2 64.55
A SER S 48 -143.3 154.2 N 37.03 CA 36.58 C 34.55 O 34.12 CB 43.05 OG 51.34
A PHE B 11 -68.9 152.9 N 32.21 CA 30.52 C 34.93 O 35.93 CB 33.99 CG 29.1 CD1 28.75 CD2 31.73 CE1 31.18 CE2 29.15 CZ 28.28
A THR - 53 -125.9 170.0 N 34.66 CA 34.29 C 35.79 O 34.33 CB 32.75 OG1 35.62 CG2 33.77
A GLY H 59 50.5 -133.0 N 34.96 CA 34.49 C 32.54 O 32.87
A LYS H 132 -66.0 -29.7 N 34.36 CA 35.34 C 30.41 O 32.37 CB 34.96 CG 42.89 CD 46.15 CE 55.54 NZ 59.67
A LEU H 0 -72.0 -31.1 N 31.84 CA 30.97 C 31.82 O 29.89 CB 31.17 CG 30.7 CD1 28.93 CD2 25.56
A ALA H 26 -62.4 -42.4 N 32.89 CA 33.3 C 33.67 O 33.16 CB 33.29
A ASP H 130 -63.8 -45.5 N 35.24 CA 37.73 C 34.67 O 35.75 CB 41.86 CG 55.42 OD1 65.39 OD2 63.98
A GLN H 21 -63.1 -45.7 N 34.09 CA 29.76 C 27.85 O 31.99 CB 28.31 CG 29.56 CD 24.2 OE1 26.67 NE2 29.87
A ALA H 0 -63.9 -46.7 N 29.14 CA 30.16 C 35.51 O 32.94 CB 31.67
A SER H 56 -61.3 -46.5 N 34.61 CA 38.79 C 34.81 O 36.52 CB 39.44 OG 49.15
A LYS H 123 -59.9 -46.9 N 35.02 CA 35.81 C 35.82 O 34.51 CB 35.48 CG 43.54 CD 49.08 CE 56.55 NZ 58.25
A ALA H 0 -55.6 -44.8 N 31.55 CA 33.88 C 30.82 O 33.25 CB 34.09
A ASN H 18 -62.5 -46.4 N 32.31 CA 34.67 C 35.33 O 33.5 CB 34.32 CG 36.88 OD1 34.42 ND2 35.27
A LEU H 88 -60.8 -44.0 N 37.99 CA 39.37 C 39.34 O 39.06 CB 43.66 CG 50.7 CD1 56.16 CD2 56.8
A MET H 46 -61.5 -41.7 N 35.56 CA 36.37 C 36.08 O 36.32 CB 35.38 CG 41.26 SD 43.71 CE 38.35
A PHE H 3 -57.5 -55.2 N 32.85 CA 31.11 C 31.73 O 31.99 CB 31.69 CG 30.42 CD1 31.67 CD2 32.7 CE1 33.43 CE2 34.74 CZ 31.56
A GLU H 99 -59.2 -33.1 N 33.24 CA 35.13 C 37.32 O 41.14 CB 33.6 CG 36.36 CD 42.8 OE1 43.49 OE2 37.83
A GLU H 121 -91.3 -0.7 N 38.84 CA 39.03 C 37.99 O 37.91 CB 39.26 CG 43.25 CD 45.79 OE1 56.33 OE2 52.2
A GLY T 26 61.5 40.4 N 35.47 CA 31.95 C 32.7 O 34.18
A LYS - 105 -105.2 145.5 N 34.25 CA 32.46 C 33.76 O 34.05 CB 36.71 CG 43.68 CD 46.98 CE 53.22 NZ 59.76
A ASN - 82 -74.8 145.2 N 35.37 CA 34.09 C 36.47 O 32.16 CB 36.49 CG 43.06 OD1 41.19 ND2 44.05
A MET - 29 -139.0 144.3 N 33.8 CA 35.26 C 34.87 O 34.0 CB 37.22 CG 38.97 SD 37.67 CE 39.63
A THR - 100 -86.2 118.6 N 33.16 CA 33.23 C 30.35 O 32.5 CB 35.73 OG1 38.79 CG2 33.49
A PRO - 10 -66.7 142.8 N 29.11 CA 27.47 C 25.44 O 29.1 CB 26.15 CG 26.8 CD 30.17
A VAL E 21 -126.3 115.4 N 24.94 CA 26.61 C 23.26 O 25.54 CB 29.95 CG1 27.5 CG2 29.34
A TYR E 2 -91.8 153.8 N 23.67 CA 22.62 C 26.46 O 26.23 CB 25.05 CG 24.81 CD1 23.54 CD2 27.36 CE1 24.34 CE2 25.52 CZ 28.49 OH 25.53
A THR E 22 -115.3 112.3 N 22.59 CA 24.68 C 26.94 O 22.86 CB 25.87 OG1 29.91 CG2 23.38
A GLY E 5 -63.0 133.7 N 25.17 CA 27.17 C 27.08 O 27.54
A ALA E 37 -144.3 165.5 N 23.32 CA 20.66 C 20.82 O 23.65 CB 23.16
A LEU E 21 -117.0 132.9 N 22.43 CA 24.23 C 24.91 O 27.43 CB 23.26 CG 25.63 CD1 26.14 CD2 25.76
A LYS - 75 -73.9 125.7 N 25.97 CA 23.89 C 27.25 O 27.87 CB 23.58 CG 26.24 CD 26.9 CE 31.52 NZ 33.16
A ASP - 25 -79.7 104.9 N 27.33 CA 29.28 C 25.21 O 28.6 CB 29.9 CG 32.96 OD1 30.54 OD2 30.68
A GLU - 49 -154.5 165.2 N 25.05 CA 26.66 C 26.12 O 28.42 CB 27.9 CG 27.52 CD 28.82 OE1 31.82 OE2 31.45
A LEU E 22 -81.8 129.1 N 28.27 CA 28.32 C 30.81 O 30.29 CB 28.59 CG 30.12 CD1 28.6 CD2 25.51
A VAL E 9 -130.7 161.2 N 28.34 CA 30.83 C 29.94 O 30.72 CB 30.31 CG1 27.83 CG2 29.8
A LYS - 66 -51.0 138.2 N 33.27 CA 36.9 C 35.26 O 35.03 CB 38.16 CG 42.92 CD 45.33 CE 57.49 NZ 60.02
A THR T 45 -61.1 -28.2 N 33.63 CA 33.04 C 34.14 O 37.06 CB 35.25 OG1 38.01 CG2 37.89
A ASP H 94 -65.4 -20.1 N 38.75 CA 40.42 C 38.86 O 35.39 CB 43.23 CG 53.95 OD1 65.96 OD2 63.95
A LYS H 67 -78.5 -5.5 N 37.93 CA 35.66 C 35.31 O 35.33 CB 29.76 CG 36.2 CD 40.59 CE 44.14 NZ 49.15
A ILE H 1 -111.0 -50.3 N 34.61 CA 35.79 C 39.96 O 40.16 CB 34.44 CG1 36.2 CG2 35.24 CD1 38.75
A TYR H 119 -97.3 -12.5 N 39.82 CA 42.41 C 44.21 O 44.94 CB 41.09 CG 42.19 CD1 38.19 CD2 34.63 CE1 40.81 CE2 34.64 CZ 37.7 OH 37.74
A GLY S 47 -110.7 -128.1 N 43.31 CA 44.27 C 44.38 O 46.78
A LYS S 136 -72.0 109.4 N 43.79 CA 45.9 C 44.02 O 43.17 CB 46.75 CG 55.03 CD 60.88 CE 64.5 NZ 65.26
A ILE - 18 -66.1 128.3 N 41.21 CA 41.32 C 41.16 O 40.45 CB 42.41 CG1 38.89 CG2 41.34 CD1 41.64
A LYS - 108 -137.8 136.7 N 38.26 CA 38.42 C 35.05 O 29.87 CB 40.3 CG 46.13 CD 46.27 CE 56.84 NZ 59.27
A LYS - 8 -145.5 137.5 N 31.68 CA 29.88 C 29.62 O 29.08 CB 28.79 CG 27.14 CD 27.73 CE 31.35 NZ 29.46
A ARG - 124 -72.6 127.6 N 27.99 CA 27.92 C 24.7 O 26.14 CB 28.11 CG 26.57 CD 33.28 NE 38.28 CZ 33.74 NH1 36.48 NH2 40.31
A LEU E 8 -78.0 125.5 N 26.43 CA 24.97 C 24.27 O 25.94 CB 27.3 CG 27.93 CD1 27.22 CD2 25.8
A LEU E 53 -112.0 143.5 N 23.74 CA 20.95 C 24.57 O 24.87 CB 20.71 CG 23.33 CD1 25.48 CD2 23.15
A TRP E 0 -107.2 87.1 N 22.63 CA 23.74 C 22.59 O 25.3 CB 24.43 CG 25.99 CD1 22.08 CD2 26.55 NE1 23.48 CE2 26.36 CE3 27.74 CZ2 25.62 CZ3 24.41 CH2 27.91
A GLY E 29 -61.9 118.8 N 23.21 CA 24.35 C 26.16 O 23.79
A SER - 9 -70.4 157.0 N 22.6 CA 23.04 C 25.63 O 23.82 CB 27.58 OG 27.1
A ASP - 7 -92.7 151.7 N 24.29 CA 25.3 C 24.18 O 24.43 CB 25.5 CG 25.51 OD1 25.42 OD2 30.94
A LEU H 0 -57.0 -40.2 N 25.41 CA 25.85 C 26.0 O 24.53 CB 28.01 CG 26.76 CD1 30.28 CD2 26.86
A ALA H 3 -56.8 -47.6 N 26.88 CA 25.38 C 29.24 O 26.35 CB 29.12
A THR H 2 -63.1 -41.1 N 25.37 CA 26.49 C 26.97 O 25.02 CB 25.65 OG1 27.2 CG2 24.61
A MET H 26 -58.8 -44.3 N 22.94 CA 23.97 C 28.81 O 27.88 CB 24.67 CG 19.35 SD 26.34 CE 22.47
A ILE H 0 -68.9 -45.2 N 25.94 CA 27.48 C 24.54 O 25.06 CB 26.68 CG1 26.5 CG2 29.96 CD1 39.75
A ARG H 0 -63.4 -42.2 N 22.91 CA 25.31 C 29.11 O 27.56 CB 28.29 CG 28.31 CD 31.24 NE 37.35 CZ 32.36 NH1 31.85 NH2 30.74
A CYS H 3 -67.0 -38.4 N 26.53 CA 25.88 C 28.69 O 26.62 CB 25.43 SG 25.83
A ALA H 11 -62.4 -43.6 N 25.85 CA 27.02 C 27.9 O 26.86 CB 27.76
A ARG H 25 -69.1 -41.5 N 28.31 CA 31.1 C 31.26 O 30.77 CB 31.29 CG 30.19 CD 30.9 NE 35.73 CZ 35.94 NH1 30.04 NH2 36.98
A ALA H 1 -64.7 -46.7 N 27.16 CA 27.11 C 30.58 O 29.35 CB 25.49
A PHE H 0 -120.7 -11.4 N 26.29 CA 28.12 C 27.1 O 26.11 CB 26.6 CG 27.6 CD1 28.22 CD2 30.26 CE1 29.28 CE2 26.26 CZ 26.23
A GLY H 6 -48.9 -55.2 N 23.76 CA 26.38 C 28.3 O 29.39
A GLY H 4 -58.0 -42.5 N 26.85 CA 27.51 C 25.97 O 27.23
A LEU H 4 -63.9 -44.7 N 26.03 CA 26.42 C 26.56 O 25.8 CB 24.7 CG 25.78 CD1 27.34 CD2 28.78
A MET H 16 -60.2 -40.9 N 24.25 CA 25.12 C 26.36 O 25.58 CB 27.04 CG 31.84 SD 30.26 CE 34.44
A ASP H 70 -58.8 -43.6 N 27.45 CA 30.38 C 28.37 O 28.15 CB 32.75 CG 45.05 OD1 45.92 OD2 55.96
A GLU H 27 -68.1 -41.6 N 28.58 CA 29.82 C 30.35 O 28.08 CB 32.2 CG 32.49 CD 34.87 OE1 34.04 OE2 34.83
A LEU H 6 -59.6 -44.8 N 27.0 CA 26.47 C 24.95 O 28.99 CB 25.25 CG 23.14 CD1 21.81 CD2 28.56
A LYS H 108 -56.7 -45.0 N 27.76 CA 27.55 C 26.99 O 27.46 CB 30.24 CG 32.45 CD 37.8 CE 41.34 NZ 44.42
A THR H 101 -55.7 -32.1 N 26.9 CA 29.51 C 29.37 O 31.22 CB 29.87 OG1 34.03 CG2 32.63
A HIS T 40 -106.1 20.9 N 27.1 CA 25.96 C 28.35 O 28.04 CB 26.76 CG 26.51 ND1 28.25 CD2 27.69 CE1 32.96 NE2 29.5
A CYS T 5 -67.3 -17.9 N 26.47 CA 27.09 C 28.65 O 28.43 CB 26.44 SG 29.81
A VAL T 33 -77.5 -23.8 N 30.78 CA 32.67 C 34.59 O 36.96 CB 32.68 CG1 40.58 CG2 34.66
A THR T 70 -101.0 -29.0 N 33.33 CA 33.87 C 34.02 O 38.48 CB 32.95 OG1 40.42 CG2 43.43
A LEU S 1 -95.5 151.2 N 30.61 CA 27.94 C 27.71 O 26.54 CB 28.1 CG 29.9 CD1 30.64 CD2 28.27
A PRO S 6 -59.5 -23.1 N 26.66 CA 30.94 C 27.86 O 28.85 CB 30.45 CG 33.05 CD 29.48
A ILE B 3 -80.9 104.0 N 26.44 CA 25.32 C 26.27 O 26.86 CB 25.08 CG1 23.76 CG2 23.82 CD1 27.34
A ARG - 3 -88.0 7.1 N 25.05 CA 24.34 C 24.86 O 25.59 CB 25.92 CG 28.44 CD 29.04 NE 25.78 CZ 31.3 NH1 28.38 NH2 29.84
A VAL T 19 -60.4 121.6 N 25.5 CA 24.41 C 25.66 O 24.11 CB 23.79 CG1 24.71 CG2 23.78
A GLY T 41 112.1 -8.2 N 22.44 CA 23.14 C 26.61 O 25.38
A MET - 26 -75.7 137.4 N 23.7 CA 26.98 C 24.47 O 23.5 CB 30.98 CG 33.7 SD 32.68 CE 33.8
A ASN - 62 -97.2 112.3 N 27.13 CA 28.07 C 29.62 O 31.11 CB 28.58 CG 29.31 OD1 35.69 ND2 32.57
A MET H 19 -60.1 -40.7 N 26.78 CA 27.6 C 29.18 O 28.42 CB 26.72 CG 29.99 SD 35.67 CE 38.2
A ASN H 52 -66.6 -43.2 N 32.72 CA 34.37 C 34.92 O 36.48 CB 35.16 CG 44.22 OD1 50.31 ND2 50.36
A GLU H 122 -91.4 -37.8 N 34.62 CA 37.0 C 36.78 O 33.96 CB 35.35 CG 45.0 CD 44.19 OE1 59.09 OE2 54.41
A ASP H 27 -95.5 -27.3 N 30.06 CA 32.59 C 30.37 O 30.98 CB 31.57 CG 36.46 OD1 35.89 OD2 33.59
A GLY H 0 -51.8 -50.3 N 29.97 CA 29.23 C 32.43 O 30.06
A PRO H 46 -54.7 -41.9 N 30.59 CA 31.7 C 34.54 O 32.7 CB 32.84 CG 33.08 CD 31.46
A ILE H 79 -68.6 -52.5 N 32.71 CA 35.84 C 32.41 O 30.23 CB 36.9 CG1 41.08 CG2 42.18 CD1 41.99
A ILE H 1 -63.6 -46.1 N 31.55 CA 29.8 C 27.47 O 29.66 CB 27.47 CG1 28.2 CG2 28.35 CD1 27.77
A PHE H 0 -66.4 -37.1 N 29.53 CA 30.37 C 30.6 O 32.04 CB 31.47 CG 34.64 CD1 31.54 CD2 37.97 CE1 31.64 CE2 35.84 CZ 31.93
A GLU H 69 -61.2 -44.2 N 29.68 CA 34.75 C 34.62 O 36.02 CB 33.18 CG 45.01 CD 50.69 OE1 51.45 OE2 53.13
A ARG H 83 -61.2 -44.1 N 33.72 CA 35.37 C 34.66 O 37.62 CB 36.23 CG 42.43 CD 48.79 NE 53.63 CZ 58.27 NH1 60.81 NH2 60.27
A HIS H 0 -55.8 -41.7 N 30.63 CA 29.73 C 31.58 O 31.6 CB 31.56 CG 25.54 ND1 27.16 CD2 34.57 CE1 37.05 NE2 30.34
A SER H 34 -64.1 -22.2 N 33.28 CA 33.92 C 37.13 O 36.84 CB 31.68 OG 31.61
A ARG T 167 -70.1 -15.5 N 37.3 CA 40.0 C 39.84 O 40.34 CB 40.18 CG 45.06 CD 52.67 NE 57.96 CZ 60.36 NH1 60.56 NH2 63.15
A TYR S 54 -89.5 161.4 N 36.4 CA 37.82 C 39.66 O 41.38 CB 37.47 CG 33.88 CD1 35.23 CD2 35.15 CE1 37.93 CE2 34.38 CZ 37.42 OH 38.7
A ARG S 140 -81.3 -41.1 N 40.66 CA 41.53 C 41.28 O 40.16 CB 44.33 CG 52.41 CD 60.01 NE 71.07 CZ 75.41 NH1 77.29 NH2 78.28
A TYR E 32 -119.4 147.1 N 37.51 CA 36.48 C 37.01 O 38.36 CB 39.28 CG 39.05 CD1 48.03 CD2 43.66 CE1 45.48 CE2 42.64 CZ 47.41 OH 42.43
A HIS E 4 -140.4 137.3 N 38.0 CA 39.39 C 39.57 O 40.81 CB 40.0 CG 39.84 ND1 35.58 CD2 38.6 CE1 41.39 NE2 38.45
A TYR E 3 -136.1 140.3 N 38.34 CA 38.86 C 41.31 O 40.42 CB 37.35 CG 39.02 CD1 39.27 CD2 40.63 CE1 35.76 CE2 36.06 CZ 38.15 OH 37.45
A ASP E 26 -111.0 161.2 N 43.39 CA 43.7 C 45.3 O 44.41 CB 44.61 CG 48.07 OD1 44.26 OD2 46.38
A ALA E 4 -168.8 158.2 N 43.17 CA 42.45 C 42.13 O 40.48 CB 45.39
A ASP E 31 -128.4 164.8 N 40.9 CA 40.22 C 40.54 O 39.53 CB 41.79 CG 41.27 OD1 41.0 OD2 41.81
A TYR E 4 -121.8 143.9 N 39.56 CA 35.92 C 35.97 O 35.01 CB 35.48 CG 34.18 CD1 34.55 CD2 32.34 CE1 34.58 CE2 34.37 CZ 38.12 OH 40.92
A SER T 50 -75.9 134.9 N 30.65 CA 34.0 C 32.43 O 36.19 CB 35.79 OG 40.81
A ARG T 105 54.8 42.6 N 32.12 CA 37.41 C 32.87 O 30.66 CB 39.6 CG 46.23 CD 44.38 NE 49.3 CZ 48.97 NH1 32.64 NH2 53.69
A TRP T 12 -46.4 -55.3 N 28.09 CA 27.22 C 24.38 O 25.23 CB 29.07 CG 28.64 CD1 28.99 CD2 27.07 NE1 28.5 CE2 27.55 CE3 25.56 CZ2 29.92 CZ3 30.85 CH2 30.92
A ASP G 20 -59.7 -39.3 N 26.06 CA 26.14 C 27.37 O 26.25 CB 28.06 CG 38.76 OD1 32.96 OD2 35.85
A SER G 3 -67.6 -21.5 N 28.49 CA 28.74 C 28.67 O 25.84 CB 26.87 OG 28.79
A THR G 9 -95.4 -1.1 N 26.87 CA 27.46 C 26.86 O 27.27 CB 25.64 OG1 26.94 CG2 27.19
A GLN - 2 -71.5 143.7 N 25.2 CA 25.02 C 26.48 O 27.58 CB 26.39 CG 25.79 CD 25.23 OE1 24.91 NE2 27.04
A GLN - 9 -102.1 130.2 N 27.29 CA 28.03 C 28.99 O 26.93 CB 27.8 CG 27.8 CD 34.42 OE1 32.61 NE2 32.07
A ARG H 17 -58.0 -29.5 N 28.04 CA 28.01 C 28.17 O 29.71 CB 28.43 CG 31.32 CD 28.86 NE 30.32 CZ 29.51 NH1 27.34 NH2 28.5
A ALA H 53 -58.1 -42.2 N 29.28 CA 31.33 C 29.72 O 29.43 CB 33.84
A VAL H 1 -73.5 -45.8 N 28.24 CA 27.06 C 26.2 O 25.8 CB 28.21 CG1 29.75 CG2 28.16
A LEU H 0 -59.4 -32.1 N 23.31 CA 23.6 C 23.95 O 24.01 CB 24.88 CG 24.81 CD1 25.03 CD2 25.08
A ALA H 16 -62.8 -44.2 N 26.54 CA 24.55 C 24.95 O 26.4 CB 29.21
A ALA H 6 -64.5 -39.6 N 26.69 CA 26.63 C 23.72 O 24.73 CB 27.49
A ALA H 0 -59.8 -44.2 N 23.29 CA 24.65 C 25.06 O 26.03 CB 24.74
A LEU H 4 -66.6 -36.7 N 25.24 CA 27.25 C 25.58 O 24.37 CB 26.36 CG 29.21 CD1 31.52 CD2 29.54
A GLU H 84 -57.8 -43.4 N 26.89 CA 27.16 C 27.92 O 29.46 CB 27.5 CG 38.13 CD 47.14 OE1 43.24 OE2 44.06
A ILE H 1 -62.4 -46.7 N 28.43 CA 27.28 C 25.79 O 27.2 CB 26.86 CG1 28.24 CG2 28.58 CD1 27.42
A MET H 1 -58.2 -46.9 N 24.3 CA 26.38 C 26.74 O 28.45 CB 26.53 CG 26.14 SD 28.35 CE 26.7
A VAL H 9 -61.0 -44.1 N 28.2 CA 28.53 C 28.63 O 29.7 CB 30.69 CG1 32.92 CG2 28.93
A LYS H 110 -56.7 -40.3 N 32.11 CA 28.91 C 29.49 O 32.34 CB 29.75 CG 28.56 CD 34.63 CE 42.46 NZ 39.45
A PHE T 29 -96.0 5.3 N 26.52 CA 27.15 C 28.3 O 30.85 CB 26.26 CG 29.41 CD1 31.04 CD2 31.28 CE1 30.02 CE2 30.0 CZ 28.94
A SER S 8 -74.3 161.2 N 28.68 CA 26.94 C 30.21 O 31.82 CB 31.15 OG 41.83
A SER S 30 -68.1 -32.8 N 31.03 CA 31.51 C 34.29 O 34.4 CB 34.97 OG 35.39
A GLU S 15 -128.8 76.9 N 31.46 CA 33.64 C 32.87 O 33.7 CB 34.29 CG 34.68 CD 38.74 OE1 36.7 OE2 33.44
A PRO H 53 -51.7 -38.4 N 34.54 CA 33.95 C 36.47 O 35.27 CB 36.52 CG 31.63 CD 34.41
A HIS H 133 -61.1 -36.5 N 35.7 CA 38.94 C 36.44 O 39.3 CB 39.88 CG 50.02 ND1 51.27 CD2 53.26 CE1 54.95 NE2 53.38
A LEU H 24 -82.9 -39.3 N 32.73 CA 31.43 C 33.57 O 32.6 CB 32.09 CG 33.77 CD1 34.38 CD2 32.81
A ALA H 0 -63.3 -35.4 N 31.41 CA 31.65 C 32.49 O 31.7 CB 29.49
A GLN H 90 -54.4 -39.6 N 32.14 CA 32.63 C 30.95 O 31.48 CB 35.75 CG 44.52 CD 54.22 OE1 58.94 NE2 56.31
A VAL H 16 -65.9 -49.3 N 29.84 CA 28.38 C 27.02 O 29.65 CB 28.03 CG1 31.58 CG2 32.26
A VAL H 1 -55.9 -50.0 N 30.08 CA 29.21 C 28.73 O 26.16 CB 28.48 CG1 30.05 CG2 28.78
A ALA H 5 -55.8 -42.4 N 29.46 CA 27.82 C 30.42 O 28.59 CB 30.21
A GLU H 77 -63.9 -34.2 N 28.99 CA 32.24 C 29.04 O 29.9 CB 35.49 CG 43.8 CD 39.94 OE1 50.18 OE2 51.81
A ASP H 15 -68.3 -33.9 N 28.84 CA 28.42 C 29.92 O 30.38 CB 27.87 CG 27.46 OD1 34.0 OD2 33.75
A LEU H 1 -72.9 -33.7 N 29.06 CA 26.52 C 25.95 O 27.23 CB 27.18 CG 26.71 CD1 26.53 CD2 27.77
A LEU H 55 -76.9 -32.0 N 25.67 CA 28.15 C 28.64 O 28.3 CB 26.68 CG 32.69 CD1 38.19 CD2 35.98
A SER S 60 -54.4 151.4 N 31.79 CA 32.49 C 31.46 O 28.42 CB 36.25 OG 46.95
A PRO - 68 -46.0 133.2 N 31.29 CA 28.46 C 28.23 O 28.93 CB 29.86 CG 30.87 CD 33.57
A SER E 3 -81.2 119.2 N 28.71 CA 26.55 C 27.95 O 29.89 CB 28.08 OG 28.0
A VAL E 21 -83.2 120.1 N 27.72 CA 29.4 C 27.45 O 26.39 CB 30.95 CG1 30.55 CG2 33.33
A VAL E 2 -130.9 128.9 N 25.88 CA 26.0 C 29.3 O 28.12 CB 26.05 CG1 28.06 CG2 26.94
A ASP E 1 -86.6 110.5 N 28.56 CA 28.04 C 30.69 O 31.36 CB 28.01 CG 32.49 OD1 30.83 OD2 34.47
A VAL - 11 -100.0 20.2 N 30.83 CA 31.43 C 35.79 O 34.37 CB 34.34 CG1 34.19 CG2 33.7
A GLY S 18 98.2 -74.6 N 33.08 CA 37.39 C 31.79 O 34.67
A ASP S 101 -79.2 -24.4 N 34.82 CA 35.68 C 36.44 O 35.18 CB 36.97 CG 37.62 OD1 34.53 OD2 35.43
A PHE E 66 -138.7 153.2 N 31.35 CA 32.39 C 32.55 O 31.47 CB 30.47 CG 35.17 CD1 37.84 CD2 34.89 CE1 35.85 CE2 37.72 CZ 35.41
A THR E 23 -106.3 125.1 N 31.28 CA 30.48 C 35.31 O 34.95 CB 29.91 OG1 32.58 CG2 31.14
A ILE E 0 -123.8 166.8 N 30.61 CA 26.98 C 30.04 O 27.9 CB 30.78 CG1 29.65 CG2 29.46 CD1 27.76
A SER E 23 -117.8 122.8 N 29.65 CA 31.69 C 30.33 O 31.74 CB 33.75 OG 35.89
A ILE E 2 -115.3 112.3 N 28.4 CA 26.57 C 27.66 O 27.97 CB 27.21 CG1 31.14 CG2 27.52 CD1 29.9
A ASN - 103 -86.3 -9.2 N 27.78 CA 30.08 C 29.09 O 31.63 CB 36.09 CG 42.03 OD1 39.56 ND2 42.75
A GLU S 45 -130.6 173.4 N 26.85 CA 25.32 C 28.39 O 24.12 CB 25.96 CG 27.92 CD 31.21 OE1 30.39 OE2 30.82
A GLY S 0 78.4 174.6 N 25.55 CA 25.03 C 27.55 O 25.49
A LEU - 0 -105.4 124.8 N 23.11 CA 23.66 C 23.08 O 24.91 CB 24.34 CG 26.17 CD1 30.71 CD2 27.6
A PRO - 1 -78.9 78.0 N 25.11 CA 23.55 C 20.95 O 22.26 CB 24.07 CG 23.18 CD 26.8
A SER T 16 -51.2 123.0 N 22.38 CA 23.69 C 22.19 O 22.89 CB 25.7 OG 29.5
A GLY T 37 118.7 -19.9 N 21.67 CA 23.52 C 23.35 O 22.09
A VAL S 3 -57.6 146.7 N 22.14 CA 22.32 C 22.89 O 24.39 CB 22.32 CG1 20.12 CG2 22.06
A PRO T 26 -58.8 153.1 N 22.79 CA 21.39 C 25.83 O 25.55 CB 23.52 CG 21.22 CD 23.49
A CYS T 22 64.3 23.1 N 24.29 CA 25.18 C 20.29 O 26.08 CB 26.75 SG 31.52
A THR H 31 -47.6 -53.8 N 22.28 CA 22.22 C 20.9 O 21.49 CB 25.71 OG1 23.76 CG2 23.92
A SER H 39 -63.1 -46.2 N 21.63 CA 23.99 C 25.04 O 24.47 CB 22.61 OG 23.57
A GLN H 27 -72.4 -39.4 N 23.49 CA 21.45 C 23.71 O 23.4 CB 22.32 CG 22.94 CD 23.94 OE1 28.61 NE2 19.22
A TRP H 1 -60.7 -48.5 N 21.38 CA 23.52 C 21.45 O 23.67 CB 25.21 CG 25.01 CD1 23.26 CD2 25.5 NE1 24.72 CE2 27.3 CE3 25.23 CZ2 27.3 CZ3 24.86 CH2 23.73
A ASN H 14 -54.3 -46.2 N 24.44 CA 22.81 C 25.76 O 23.41 CB 25.52 CG 25.57 OD1 30.96 ND2 33.58
A SER H 0 -68.8 -38.4 N 23.37 CA 23.36 C 24.02 O 25.9 CB 20.27 OG 23.12
A ILE H 2 -67.4 -45.2 N 23.7 CA 24.32 C 24.87 O 27.38 CB 27.13 CG1 26.29 CG2 25.71 CD1 25.44
A ALA H 0 -55.8 -43.8 N 24.38 CA 23.39 C 25.78 O 26.31 CB 28.29
A HIS H 1 -60.4 -47.6 N 23.77 CA 25.06 C 25.04 O 26.53 CB 24.76 CG 25.6 ND1 27.72 CD2 28.35 CE1 26.45 NE2 27.56
A TRP H 0 -56.6 -45.6 N 26.59 CA 25.5 C 28.19 O 26.54 CB 23.88 CG 23.9 CD1 28.12 CD2 23.83 NE1 24.53 CE2 25.47 CE3 26.22 CZ2 25.13 CZ3 27.02 CH2 29.93
A LEU H 0 -58.8 -49.0 N 26.54 CA 27.87 C 28.57 O 30.37 CB 24.6 CG 30.36 CD1 29.86 CD2 32.76
A LEU H 4 -64.1 -40.8 N 27.07 CA 27.72 C 28.69 O 27.8 CB 28.08 CG 28.57 CD1 28.48 CD2 30.65
A THR H 0 -68.6 -42.6 N 27.69 CA 28.66 C 28.97 O 28.6 CB 30.23 OG1 29.14 CG2 29.34
A LEU H 0 -60.6 -43.6 N 25.74 CA 26.08 C 29.65 O 29.29 CB 25.88 CG 26.53 CD1 25.01 CD2 30.28
A CYS H 0 -64.1 -48.7 N 29.56 CA 32.37 C 34.05 O 31.57 CB 32.48 SG 31.21
A ALA H 1 -65.9 -42.1 N 34.53 CA 34.78 C 36.1 O 35.35 CB 35.6
A LEU H 1 -66.4 -39.1 N 33.87 CA 35.06 C 36.35 O 35.96 CB 34.48 CG 35.04 CD1 31.67 CD2 37.91
A SER H 8 -63.1 -49.1 N 34.05 CA 36.09 C 37.99 O 38.61 CB 34.94 OG 34.32
A GLU H 44 -63.8 -39.0 N 35.52 CA 38.52 C 40.87 O 41.55 CB 37.5 CG 39.73 CD 47.08 OE1 44.99 OE2 43.31
A VAL H 30 -79.4 -14.9 N 40.73 CA 40.72 C 41.75 O 45.32 CB 38.84 CG1 38.2 CG2 44.46
A THR H 30 -113.8 -10.6 N 40.83 CA 40.43 C 41.74 O 41.08 CB 39.4 OG1 36.37 CG2 37.64
A ASN T 152 56.1 29.1 N 41.04 CA 43.8 C 41.48 O 40.47 CB 47.4 CG 53.17 OD1 60.13 ND2 56.72
A LEU - 65 -111.9 144.7 N 37.52 CA 34.14 C 35.64 O 35.49 CB 35.91 CG 37.0 CD1 37.52 CD2 37.86
A SER - 55 -68.3 154.2 N 32.43 CA 33.03 C 30.8 O 30.18 CB 32.23 OG 35.57
A PRO H 3 -49.4 -38.0 N 31.25 CA 29.59 C 29.48 O 30.85 CB 30.45 CG 30.59 CD 30.34
A ASP H 84 -58.8 -44.0 N 29.31 CA 29.64 C 31.68 O 30.89 CB 32.38 CG 36.78 OD1 36.07 OD2 37.9
A ILE H 73 -69.0 -40.9 N 31.28 CA 32.43 C 33.39 O 34.74 CB 35.37 CG1 38.39 CG2 31.86 CD1 45.13
A ILE H 1 -59.3 -48.2 N 31.76 CA 31.03 C 29.07 O 31.88 CB 31.77 CG1 33.69 CG2 30.63 CD1 31.89
A GLN H 30 -64.7 -41.8 N 30.08 CA 29.95 C 31.22 O 29.58 CB 30.09 CG 31.4 CD 30.73 OE1 30.04 NE2 30.64
A ALA H 74 -59.3 -32.8 N 29.51 CA 31.71 C 32.79 O 37.91 CB 32.58
A ASN T 67 -112.5 20.1 N 31.31 CA 33.59 C 34.39 O 35.31 CB 34.33 CG 39.82 OD1 44.19 ND2 35.52
A SER E 4 -140.8 162.9 N 31.17 CA 30.72 C 30.23 O 32.7 CB 29.98 OG 33.05
A LEU E 31 -135.7 125.8 N 31.33 CA 30.62 C 29.56 O 28.87 CB 33.61 CG 36.2 CD1 42.65 CD2 43.11
A PHE E 2 -109.9 148.5 N 26.73 CA 27.39 C 25.42 O 27.05 CB 27.11 CG 26.64 CD1 28.78 CD2 27.77 CE1 31.36 CE2 27.5 CZ 31.65
A SER E 0 -130.6 118.1 N 25.71 CA 22.91 C 26.26 O 26.4 CB 26.24 OG 28.34
A PHE E 0 -125.1 139.6 N 26.22 CA 26.02 C 24.02 O 25.55 CB 25.49 CG 24.13 CD1 27.85 CD2 28.39 CE1 28.65 CE2 28.32 CZ 28.34
A TYR E 78 -139.8 100.3 N 25.22 CA 24.7 C 23.88 O 24.81 CB 23.54 CG 23.7 CD1 23.0 CD2 23.99 CE1 23.48 CE2 26.4 CZ 22.01 OH 25.34
A GLY T 7 60.7 -115.1 N 25.39 CA 24.83 C 26.64 O 27.17
A ASP T 32 -95.2 -9.7 N 24.9 CA 25.86 C 27.24 O 28.56 CB 28.15 CG 35.89 OD1 34.27 OD2 37.03
A ASP E 32 -68.6 136.9 N 27.51 CA 28.88 C 27.19 O 27.78 CB 29.22 CG 40.22 OD1 37.02 OD2 38.27
A GLU E 1 -147.1 143.5 N 27.67 CA 27.79 C 30.68 O 29.31 CB 32.41 CG 34.51 CD 37.43 OE1 32.41 OE2 42.82
A ILE E 0 -126.5 127.7 N 28.7 CA 30.62 C 30.63 O 30.69 CB 31.59 CG1 31.92 CG2 30.32 CD1 33.15
A VAL E 0 -117.8 124.4 N 31.02 CA 30.54 C 33.92 O 33.52 CB 34.28 CG1 36.89 CG2 36.49
A SER E 0 -119.2 140.6 N 35.7 CA 35.82 C 37.42 O 35.44 CB 36.49 OG 37.66
A THR E 2 -157.0 154.0 N 37.2 CA 36.23 C 36.51 O 38.53 CB 38.97 OG1 38.47 CG2 35.23
A ASP S 80 -95.2 -1.0 N 36.6 CA 36.75 C 41.06 O 40.45 CB 35.39 CG 33.72 OD1 39.87 OD2 38.91
A ILE S 23 -90.4 129.3 N 39.41 CA 41.78 C 43.35 O 41.65 CB 39.77 CG1 41.98 CG2 46.11 CD1 43.77
A LYS - 151 -68.8 124.2 N 43.0 CA 45.28 C 44.59 O 44.78 CB 47.03 CG 52.42 CD 56.45 CE 59.12 NZ 61.62
A LEU - 7 -119.1 144.8 N 44.34 CA 47.06 C 48.35 O 48.6 CB 44.69 CG 45.46 CD1 43.01 CD2 47.89
A ASP - 67 -86.9 110.7 N 50.92 CA 53.96 C 56.11 O 54.53 CB 53.45 CG 56.54 OD1 57.84 OD2 60.28
A PRO H 45 -65.5 -27.8 N 57.74 CA 59.51 C 60.14 O 60.62 CB 60.07 CG 59.62 CD 58.68
A GLU H 149 -76.3 -33.1 N 60.74 CA 61.34 C 60.42 O 61.07 CB 63.35 CG 68.38 CD 73.32 OE1 74.06 OE2 72.97
A LYS H 126 -78.8 -33.0 N 57.01 CA 56.05 C 52.56 O 51.14 CB 55.01 CG 59.62 CD 60.14 CE 65.12 NZ 66.17
A LEU H 0 -70.8 -46.2 N 49.61 CA 47.59 C 47.41 O 42.81 CB 48.66 CG 46.6 CD1 50.06 CD2 49.09
A THR H 12 -58.4 -39.2 N 47.11 CA 47.75 C 47.8 O 46.21 CB 49.25 OG1 47.69 CG2 48.67
A ALA H 56 -73.6 -33.5 N 47.15 CA 45.56 C 43.29 O 40.72 CB 48.97
A LYS H 32 -69.4 -41.5 N 41.64 CA 38.31 C 35.23 O 33.42 CB 39.09 CG 37.97 CD 41.72 CE 42.51 NZ 42.42
A LEU H 1 -59.8 -44.1 N 35.71 CA 36.32 C 38.56 O 37.85 CB 36.75 CG 35.02 CD1 35.47 CD2 36.63
A LYS H 124 -64.8 -36.9 N 39.33 CA 40.12 C 39.23 O 34.65 CB 40.54 CG 43.96 CD 46.32 CE 52.69 NZ 58.52
A GLU H 65 -56.4 -38.4 N 38.07 CA 37.65 C 34.6 O 35.21 CB 35.88 CG 42.9 CD 46.0 OE1 52.38 OE2 50.81
A TYR T 1 -74.5 -1.3 N 32.79 CA 30.95 C 32.74 O 31.06 CB 30.35 CG 32.52 CD1 33.63 CD2 32.36 CE1 28.58 CE2 34.5 CZ 36.84 OH 35.51
A GLY T 20 89.0 2.5 N 31.09 CA 31.62 C 31.11 O 30.83
A LEU - 2 -78.7 158.9 N 32.67 CA 32.14 C 34.76 O 36.08 CB 31.35 CG 31.01 CD1 31.9 CD2 30.6
A LYS - 93 -124.5 73.5 N 34.54 CA 34.22 C 36.2 O 36.7 CB 33.75 CG 41.14 CD 56.24 CE 62.79 NZ 62.41
A PRO E 17 -68.4 142.8 N 37.36 CA 38.77 C 42.86 O 40.81 CB 39.19 CG 36.81 CD 37.19
A THR E 24 -138.9 156.2 N 46.98 CA 49.94 C 51.22 O 46.02 CB 51.12 OG1 50.6 CG2 47.26
A ARG - 66 -60.2 143.6 N 53.78 CA 58.86 C 60.58 O 59.91 CB 60.2 CG 63.52 CD 68.42 NE 77.43 CZ 77.93 NH1 78.24 NH2 79.68
A PRO T 31 -62.1 -27.5 N 63.15 CA 65.67 C 68.8 O 68.59 CB 65.05 CG 63.51 CD 63.1
A ASP T 96 -80.8 -12.5 N 72.87 CA 77.42 C 79.5 O 80.25 CB 77.92 CG 80.94 OD1 81.18 OD2 82.31
A LYS - 85 44.6 39.5 N 82.35 CA 84.11 C 85.29 O 85.38 CB 83.71 CG 83.37 CD 84.55 CE 85.36 NZ 85.87
A THR - 117 -150.0 82.6 N 87.71 CA 90.11 C 90.62 O 91.24 CB 90.6 OG1 91.72 CG2 91.48
A GLU S 128 -166.3 -102.6 N 91.37 CA 91.7 C 90.49 O 90.75 CB 91.79 CG 93.02 CD 93.56 OE1 96.23 OE2 93.9
A GLY S 34 -150.9 -117.8 N 89.08 CA 85.49 C 82.87 O 82.31
A PRO S 74 -85.9 -166.9 N 81.06 CA 78.73 C 76.36 O 75.51 CB 79.27 CG 80.46 CD 81.15
A LEU - 6 -70.5 134.3 N 72.39 CA 68.84 C 64.79 O 64.2 CB 68.82 CG 69.17 CD1 67.68 CD2 65.59
A VAL - 68 -108.9 118.6 N 61.81 CA 57.3 C 54.71 O 51.37 CB 58.36 CG1 58.21 CG2 56.7
A ILE - 40 -93.8 118.5 N 51.32 CA 50.52 C 50.33 O 49.25 CB 51.3 CG1 52.97 CG2 48.98 CD1 57.28
A SER B 43 -110.2 156.2 N 47.77 CA 47.73 C 47.16 O 46.94 CB 49.35 OG 50.12
A GLU S 123 -96.8 9.1 N 44.67 CA 44.33 C 41.81 O 42.06 CB 42.37 CG 48.04 CD 48.7 OE1 48.6 OE2 53.98
A ASP - 85 -130.2 122.3 N 43.61 CA 45.5 C 42.75 O 44.9 CB 48.12 CG 53.76 OD1 52.19 OD2 61.57
A LEU - 2 -69.6 -31.1 N 40.65 CA 37.22 C 37.93 O 37.72 CB 38.51 CG 35.73 CD1 34.21 CD2 31.07
A ASN T 68 -48.4 126.0 N 38.99 CA 41.57 C 40.94 O 42.44 CB 44.69 CG 52.86 OD1 52.06 ND2 61.6
A GLY T 45 99.6 -12.6 N 38.49 CA 34.69 C 37.28 O 38.33
A LEU - 11 -70.2 157.5 N 34.39 CA 35.63 C 34.25 O 33.83 CB 34.27 CG 38.77 CD1 39.12 CD2 38.87
A THR E 36 -124.7 152.0 N 34.05 CA 36.01 C 35.15 O 35.59 CB 38.33 OG1 42.24 CG2 40.37
A PHE E 1 -160.1 122.4 N 32.54 CA 32.63 C 32.57 O 31.36 CB 33.1 CG 29.42 CD1 23.4 CD2 28.54 CE1 27.03 CE2 28.24 CZ 29.1
A LEU T 54 56.5 44.7 N 31.12 CA 28.73 C 26.35 O 27.32 CB 28.44 CG 31.26 CD1 34.16 CD2 36.88
A ARG T 127 61.3 18.4 N 29.26 CA 32.01 C 30.41 O 30.68 CB 30.85 CG 36.15 CD 41.23 NE 55.37 CZ 60.25 NH1 59.94 NH2 63.57
A ARG E 32 -111.6 139.9 N 29.63 CA 30.54 C 31.8 O 32.37 CB 30.98 CG 39.2 CD 44.89 NE 36.41 CZ 44.82 NH1 33.96 NH2 42.49
A THR E 40 -92.2 126.3 N 31.83 CA 32.71 C 33.65 O 32.33 CB 36.13 OG1 34.69 CG2 36.89
A VAL E 0 -76.2 128.0 N 32.14 CA 33.58 C 32.61 O 35.06 CB 36.06 CG1 36.3 CG2 45.34
A THR E 21 -138.9 148.5 N 33.2 CA 37.74 C 35.92 O 35.21 CB 37.54 OG1 41.42 CG2 38.07
A ARG E 121 -124.6 143.9 N 39.58 CA 41.08 C 42.22 O 41.88 CB 46.89 CG 48.7 CD 57.83 NE 61.51 CZ 65.14 NH1 64.07 NH2 68.61
A ASP E 44 -133.6 -177.9 N 42.47 CA 43.19 C 42.97 O 41.05 CB 43.17 CG 46.09 OD1 40.35 OD2 49.91
A PRO T 129 -51.3 -29.9 N 43.58 CA 44.32 C 42.42 O 45.91 CB 44.9 CG 44.9 CD 45.56
A ALA T 62 -81.9 -17.8 N 41.29 CA 40.81 C 41.59 O 41.63 CB 42.18
A GLY E 13 140.6 -165.3 N 39.03 CA 38.41 C 35.53 O 35.75
A TRP E 19 -91.6 149.9 N 34.66 CA 31.89 C 29.47 O 29.79 CB 30.52 CG 34.36 CD1 35.71 CD2 31.77 NE1 35.21 CE2 32.95 CE3 33.45 CZ2 34.83 CZ3 34.07 CH2 33.33
A PHE E 15 -159.6 160.5 N 31.58 CA 32.41 C 32.39 O 30.85 CB 31.22 CG 30.33 CD1 36.25 CD2 30.27 CE1 36.61 CE2 35.42 CZ 35.92
A GLY E 5 -107.6 120.4 N 31.54 CA 29.15 C 33.93 O 34.36
A LYS E 53 -93.1 124.5 N 27.69 CA 30.06 C 28.66 O 29.24 CB 32.95 CG 38.88 CD 44.83 CE 50.44 NZ 52.38
A LEU E 32 -73.5 135.5 N 29.63 CA 29.35 C 29.94 O 28.97 CB 31.06 CG 27.13 CD1 30.19 CD2 31.15
A GLU - 89 -44.4 128.4 N 29.38 CA 30.23 C 30.97 O 26.34 CB 32.56 CG 42.23 CD 48.23 OE1 48.73 OE2 54.14
A GLN H 83 -53.7 -41.1 N 28.86 CA 29.23 C 25.93 O 28.27 CB 30.32 CG 30.28 CD 33.34 OE1 33.14 NE2 34.14
A SER H 57 -59.2 -33.6 N 29.05 CA 31.26 C 30.31 O 31.08 CB 32.07 OG 34.82
A SER H 17 -70.0 -28.6 N 27.96 CA 26.12 C 29.91 O 32.08 CB 28.97 OG 28.72
A ILE H 2 -77.4 -41.1 N 27.89 CA 29.29 C 30.53 O 30.46 CB 27.65 CG1 28.16 CG2 25.75 CD1 29.69
A LEU H 32 -74.8 -30.2 N 31.37 CA 31.11 C 30.9 O 31.71 CB 33.11 CG 36.66 CD1 38.75 CD2 42.54
A ARG G 65 -52.8 -40.5 N 31.08 CA 30.43 C 30.49 O 32.4 CB 29.53 CG 28.88 CD 34.29 NE 42.47 CZ 39.77 NH1 33.56 NH2 35.94
A GLN G 95 -68.4 -13.5 N 31.46 CA 30.73 C 32.33 O 30.44 CB 34.67 CG 34.99 CD 36.11 OE1 39.1 NE2 33.38
A MET G 14 -76.8 -9.4 N 30.69 CA 33.72 C 34.21 O 34.92 CB 32.46 CG 38.43 SD 45.94 CE 49.81
A TYR T 32 -122.0 -20.5 N 29.94 CA 31.38 C 32.72 O 29.64 CB 32.32 CG 32.63 CD1 37.59 CD2 38.3 CE1 41.31 CE2 36.79 CZ 37.89 OH 43.96
A TRP E 17 -125.7 139.3 N 30.83 CA 30.06 C 29.55 O 33.21 CB 29.84 CG 28.44 CD1 30.35 CD2 26.73 NE1 25.28 CE2 23.34 CE3 28.22 CZ2 31.23 CZ3 26.91 CH2 28.58
A THR E 23 -130.0 152.8 N 31.33 CA 36.47 C 37.05 O 39.04 CB 39.49 OG1 43.15 CG2 36.54
A ARG E 171 -93.1 136.1 N 39.07 CA 40.18 C 40.67 O 42.03 CB 38.52 CG 43.96 CD 45.69 NE 51.96 CZ 60.64 NH1 63.78 NH2 63.61
A GLY E 21 -151.2 -164.8 N 41.72 CA 43.01 C 45.02 O 43.09
A PRO E 91 -64.6 163.0 N 45.67 CA 45.5 C 45.28 O 41.76 CB 45.76 CG 47.72 CD 46.71
A ASN E 103 -60.5 135.4 N 43.82 CA 43.0 C 43.09 O 44.12 CB 45.55 CG 48.97 OD1 50.42 ND2 58.78
A HIS E 11 -148.0 169.7 N 40.6 CA 39.01 C 37.14 O 35.05 CB 36.72 CG 36.75 ND1 33.88 CD2 32.7 CE1 35.18 NE2 32.93
A GLU S 123 -91.3 -24.4 N 36.75 CA 40.39 C 38.2 O 37.63 CB 42.58 CG 45.5 CD 49.57 OE1 56.87 OE2 58.05
A ASP - 57 -122.4 107.4 N 37.36 CA 36.91 C 32.74 O 33.29 CB 38.49 CG 40.54 OD1 36.01 OD2 41.77
A PRO T 3 -57.0 -27.3 N 33.84 CA 33.42 C 30.36 O 30.14 CB 34.58 CG 37.45 CD 34.7
A SER T 71 -73.8 -18.7 N 35.29 CA 35.69 C 36.87 O 34.75 CB 36.71 OG 40.12
A GLU S 99 -60.3 131.1 N 33.28 CA 36.56 C 34.65 O 36.88 CB 35.14 CG 39.29 CD 42.9 OE1 40.46 OE2 42.11
A THR B 67 -94.7 156.0 N 31.94 CA 30.5 C 35.44 O 36.49 CB 32.68 OG1 31.56 CG2 31.0
A MET - 43 -143.6 139.2 N 35.93 CA 41.82 C 43.69 O 45.12 CB 42.5 CG 47.0 SD 44.98 CE 46.67
A ILE - 151 -82.4 120.8 N 49.41 CA 53.56 C 55.88 O 56.83 CB 54.12 CG1 53.27 CG2 55.3 CD1 56.04
A PRO - 38 -67.1 150.9 N 58.44 CA 60.33 C 62.0 O 61.81 CB 60.67 CG 59.18 CD 58.68
A HIS - 160 -63.2 145.5 N 63.76 CA 66.94 C 66.99 O 65.73 CB 68.51 CG 74.39 ND1 77.9 CD2 78.28 CE1 80.1 NE2 79.79
A SER - 113 -58.8 136.1 N 67.55 CA 67.76 C 67.24 O 66.54 CB 67.49 OG 69.65
A GLN - 90 -109.5 136.8 N 67.17 CA 67.27 C 67.32 O 67.38 CB 68.86 CG 70.23 CD 71.66 OE1 72.86 NE2 74.74
A ARG - 154 -98.6 151.0 N 65.81 CA 64.12 C 63.34 O 61.16 CB 63.95 CG 63.77 CD 64.15 NE 61.72 CZ 60.36 NH1 60.34 NH2 58.65
A PRO H 41 -27.5 -65.0 N 62.47 CA 60.87 C 56.86 O 54.12 CB 63.01 CG 65.67 CD 64.02
A ILE H 122 -58.0 -30.3 N 54.01 CA 52.72 C 50.0 O 52.27 CB 53.6 CG1 50.78 CG2 54.83 CD1 57.03
A GLN H 107 -74.5 -24.5 N 47.84 CA 47.52 C 43.69 O 44.78 CB 46.46 CG 55.56 CD 54.08 OE1 60.95 NE2 61.07
A LEU H 19 -100.1 -0.9 N 41.38 CA 39.13 C 37.91 O 35.73 CB 41.24 CG 43.56 CD1 48.83 CD2 45.78
A MET H 37 -59.7 -42.2 N 33.38 CA 34.92 C 34.22 O 31.04 CB 35.32 CG 37.36 SD 39.32 CE 36.56
A SER H 75 -62.8 -45.7 N 32.73 CA 33.25 C 30.29 O 34.07 CB 35.59 OG 41.08
A LEU H 15 -61.8 -46.3 N 33.12 CA 33.99 C 34.01 O 32.73 CB 34.41 CG 37.88 CD1 41.34 CD2 37.6
A LEU H 0 -63.1 -40.4 N 33.5 CA 32.06 C 30.91 O 31.91 CB 32.77 CG 34.54 CD1 34.96 CD2 32.59
A GLY H 0 -64.2 -41.0 N 28.86 CA 28.91 C 29.62 O 30.9
A GLU H 31 -62.1 -42.8 N 30.76 CA 29.56 C 30.17 O 30.31 CB 29.99 CG 30.94 CD 35.57 OE1 31.86 OE2 36.13
A ALA H 0 -61.5 -40.1 N 29.1 CA 29.04 C 30.91 O 33.98 CB 28.9
A ALA H 0 -60.1 -33.5 N 31.21 CA 29.75 C 33.82 O 34.81 CB 32.57
A LEU T 9 -64.3 -17.4 N 32.97 CA 33.57 C 33.47 O 36.29 CB 33.22 CG 32.05 CD1 31.57 CD2 37.39
A HIS T 40 -89.4 -3.2 N 33.91 CA 35.82 C 38.63 O 37.03 CB 34.27 CG 34.06 ND1 33.02 CD2 33.57 CE1 30.42 NE2 31.06
A GLY - 16 96.3 172.4 N 38.84 CA 40.35 C 39.95 O 39.36
A PRO H 88 -55.1 -42.3 N 40.89 CA 39.36 C 40.58 O 38.5 CB 42.04 CG 39.62 CD 41.09
A ALA H 86 -60.8 -51.9 N 38.57 CA 38.18 C 39.23 O 38.41 CB 39.73
A PHE H 13 -68.6 -35.8 N 36.95 CA 35.4 C 34.99 O 33.22 CB 34.4 CG 32.65 CD1 33.03 CD2 34.79 CE1 36.31 CE2 34.5 CZ 31.42
A TYR H 10 -60.4 -43.2 N 35.09 CA 35.66 C 36.87 O 35.16 CB 35.16 CG 35.22 CD1 31.94 CD2 34.57 CE1 31.91 CE2 34.18 CZ 36.03 OH 34.97
A SER H 58 -61.1 -42.7 N 37.58 CA 42.17 C 39.68 O 39.25 CB 45.66 OG 54.71
A LYS H 110 -56.5 -47.8 N 37.11 CA 36.85 C 35.49 O 34.84 CB 36.6 CG 38.67 CD 39.32 CE 48.25 NZ 50.87
A ILE H 0 -71.9 -43.7 N 37.13 CA 35.0 C 36.76 O 36.51 CB 35.5 CG1 34.15 CG2 34.9 CD1 35.06
A SER H 13 -54.7 -44.0 N 39.78 CA 43.02 C 43.61 O 44.43 CB 43.89 OG 51.64
A LYS H 146 -60.7 -42.7 N 45.56 CA 47.33 C 47.65 O 46.33 CB 50.45 CG 56.91 CD 62.19 CE 66.9 NZ 70.09
A LEU H 44 -69.1 -39.4 N 45.91 CA 44.13 C 44.0 O 45.32 CB 43.89 CG 44.18 CD1 43.37 CD2 44.97
A VAL H 11 -63.0 -48.5 N 44.23 CA 47.06 C 50.25 O 51.7 CB 45.63 CG1 48.99 CG2 47.15
A ILE H 94 -62.0 -40.6 N 53.92 CA 57.21 C 60.41 O 61.28 CB 56.97 CG1 55.12 CG2 57.58 CD1 52.55
A ALA H 72 -57.5 -41.4 N 63.7 CA 66.89 C 70.01 O 71.22 CB 66.73
A GLU - 88 -64.8 98.4 N 73.66 CA 76.89 C 78.59 O 78.79 CB 77.36 CG 80.96 CD 84.88 OE1 88.44 OE2 82.98
A LEU - 187 -151.2 360.0 N 80.97 CA 82.43 C 82.27 O 82.59 CB 82.98 CG 84.52 CD1 84.05 CD2 83.96
A ASP - 208 360.0 129.6 N 70.87 CA 70.85 C 68.81 O 68.93 CB 72.08 CG 74.94 OD1 77.37 OD2 75.14
A PHE - 82 -157.3 133.1 N 64.96 CA 60.47 C 54.55 O 51.88 CB 64.36 CG 70.21 CD1 73.15 CD2 73.74 CE1 73.5 CE2 75.89 CZ 71.88
A TYR - 180 -83.1 118.4 N 48.0 CA 42.59 C 41.83 O 43.6 CB 40.84 CG 41.11 CD1 38.72 CD2 39.72 CE1 39.93 CE2 34.67 CZ 37.77 OH 38.8
A VAL - 23 -93.6 122.9 N 38.93 CA 39.06 C 37.7 O 39.94 CB 40.82 CG1 40.09 CG2 43.41
A PRO - 30 -59.6 156.9 N 36.64 CA 36.73 C 35.18 O 35.3 CB 37.0 CG 36.62 CD 36.26
A ARG - 138 -69.9 162.0 N 37.64 CA 37.14 C 35.92 O 32.74 CB 40.79 CG 50.16 CD 61.13 NE 70.22 CZ 72.49 NH1 75.04 NH2 76.41
A GLN H 25 -57.2 -44.9 N 34.85 CA 34.74 C 36.61 O 33.32 CB 35.4 CG 38.9 CD 42.66 OE1 38.94 NE2 37.24
A GLU H 86 -64.0 -52.7 N 35.43 CA 35.1 C 34.67 O 34.72 CB 39.48 CG 45.26 CD 54.0 OE1 47.66 OE2 56.4
A PRO H 51 -58.1 -36.1 N 32.4 CA 30.79 C 29.2 O 31.91 CB 31.44 CG 33.88 CD 32.91
A MET H 4 -67.1 -45.8 N 31.7 CA 32.77 C 34.05 O 32.89 CB 34.3 CG 40.27 SD 42.11 CE 42.31
A PHE H 39 -54.1 -48.9 N 31.1 CA 31.34 C 33.49 O 31.91 CB 31.35 CG 33.79 CD1 37.13 CD2 32.92 CE1 33.61 CE2 36.07 CZ 34.42
A ARG H 131 -67.6 -34.9 N 30.91 CA 30.79 C 30.73 O 34.86 CB 33.9 CG 36.3 CD 42.37 NE 50.9 CZ 55.66 NH1 50.72 NH2 51.12
A TRP H 111 -65.1 -44.4 N 32.11 CA 32.38 C 33.52 O 33.53 CB 33.39 CG 31.86 CD1 37.6 CD2 34.55 NE1 38.16 CE2 37.22 CE3 33.87 CZ2 36.74 CZ3 33.25 CH2 35.48
A MET H 7 -62.9 -34.2 N 32.79 CA 36.76 C 40.34 O 42.69 CB 35.14 CG 40.25 SD 40.07 CE 54.0
A ARG H 31 -102.9 -21.4 N 42.59 CA 45.47 C 49.06 O 47.79 CB 45.32 CG 49.84 CD 43.7 NE 36.42 CZ 38.63 NH1 40.21 NH2 39.2
A PHE H 118 -126.6 22.8 N 50.22 CA 54.63 C 57.65 O 58.53 CB 53.84 CG 55.93 CD1 56.15 CD2 53.39 CE1 56.79 CE2 53.65 CZ 55.17
A SER - 105 58.2 360.0 N 62.77 CA 66.64 C 67.1 O 68.85 CB 67.81 OG 71.54
