D DC H 141 -56.5 -48.4 OP3 45.77 P 46.08 OP1 44.07 OP2 44.62 O5' 43.97 C5' 51.95 C4' 52.87 O4' 53.83 C3' 53.02 O3' 55.67 C2' 51.38 C1' 49.37 N1 44.26 C2 44.19 O2 42.29 N3 41.83 C4 40.46 N4 38.64 C5 42.19 C6 42.51
D DC H 59 -56.8 -38.6 P 65.46 OP1 63.92 OP2 67.77 O5' 61.1 C5' 55.28 C4' 50.88 O4' 49.68 C3' 50.87 O3' 47.4 C2' 48.48 C1' 48.05 N1 47.43 C2 46.89 O2 46.48 N3 46.83 C4 46.76 N4 46.18 C5 47.63 C6 47.59
D DC H 11 -65.4 -49.9 P 44.9 OP1 50.73 OP2 46.7 O5' 43.25 C5' 43.56 C4' 42.89 O4' 43.11 C3' 43.98 O3' 41.06 C2' 41.81 C1' 43.01 N1 42.23 C2 41.16 O2 41.91 N3 41.25 C4 38.89 N4 39.29 C5 38.62 C6 41.07
D DT H 103 -59.7 -30.5 P 49.86 OP1 50.54 OP2 49.15 O5' 50.04 C5' 47.21 C4' 48.26 O4' 45.62 C3' 48.03 O3' 52.17 C2' 47.01 C1' 45.46 N1 44.84 C2 43.12 O2 44.16 N3 44.19 C4 43.91 O4 45.54 C5 43.76 C7 44.14 C6 43.36
D DA H 69 -65.0 -52.7 P 54.43 OP1 53.12 OP2 52.08 O5' 51.64 C5' 49.31 C4' 49.11 O4' 47.47 C3' 48.82 O3' 50.88 C2' 47.62 C1' 46.41 N9 44.81 C8 44.26 N7 43.03 C5 42.87 C6 41.87 N6 41.78 N1 42.02 C2 41.74 N3 42.31 C4 42.72
D DG H 15 -54.3 -38.4 P 65.04 OP1 63.58 OP2 63.44 O5' 63.12 C5' 61.12 C4' 59.91 O4' 58.4 C3' 59.61 O3' 60.57 C2' 58.46 C1' 57.42 N9 53.88 C8 54.81 N7 53.19 C5 52.3 C6 51.59 O6 50.92 N1 49.74 C2 50.9 N2 49.93 N3 51.59 C4 52.77
D DC H 46 -59.7 -48.4 P 73.33 OP1 72.49 OP2 73.3 O5' 71.59 C5' 69.37 C4' 68.1 O4' 66.87 C3' 67.38 O3' 68.0 C2' 66.53 C1' 65.3 N1 63.42 C2 61.69 O2 60.56 N3 60.84 C4 62.08 N4 62.04 C5 62.36 C6 62.85
D DG H 88 -67.7 -10.9 P 75.63 OP1 76.8 OP2 76.92 O5' 73.84 C5' 70.33 C4' 67.32 O4' 64.37 C3' 66.04 O3' 66.6 C2' 64.35 C1' 61.8 N9 57.62 C8 55.8 N7 52.76 C5 52.34 C6 52.72 O6 52.34 N1 51.32 C2 51.87 N2 51.89 N3 52.06 C4 53.72
D DT T 72 -84.5 -9.9 P 75.56 OP1 75.39 OP2 75.93 O5' 72.5 C5' 68.98 C4' 65.88 O4' 63.36 C3' 65.4 O3' 65.15 C2' 63.28 C1' 61.66 N1 57.84 C2 57.55 O2 58.45 N3 55.88 C4 56.41 O4 55.35 C5 55.57 C7 55.03 C6 56.64
