A MET - 130 360.0 138.4 N 9.4 CA 10.53 C 8.5 O 8.77 CB 10.34 CG 12.86 SD 17.11 CE 16.38
A PHE E 47 -135.4 141.2 N 7.32 CA 6.69 C 6.43 O 6.09 CB 7.21 CG 6.68 CD1 7.59 CD2 7.12 CE1 8.33 CE2 7.5 CZ 8.3
A GLU E 103 -149.2 150.8 N 6.23 CA 7.16 C 6.28 O 6.69 CB 7.48 CG 9.76 CD 10.38 OE1 13.74 OE2 14.48
A GLN E 70 -144.9 156.0 N 5.95 CA 5.89 C 5.7 O 6.59 CB 5.76 CG 6.3 CD 6.52 OE1 7.11 NE2 7.5
A GLU E 121 -90.1 148.3 N 5.61 CA 6.21 C 5.51 O 5.61 CB 6.66 CG 8.3 CD 8.55 OE1 9.79 OE2 12.64
A VAL E 24 -150.7 142.7 N 4.99 CA 5.04 C 4.49 O 4.66 CB 5.44 CG1 6.25 CG2 6.28
A THR E 63 -83.8 133.8 N 4.36 CA 4.41 C 4.27 O 4.77 CB 4.7 OG1 5.25 CG2 5.85
A ILE - 0 -73.2 114.3 N 4.39 CA 4.69 C 4.46 O 4.96 CB 4.98 CG1 6.48 CG2 5.21 CD1 7.46
A THR - 69 -105.3 -12.6 N 4.81 CA 5.35 C 5.27 O 5.38 CB 5.71 OG1 6.87 CG2 6.74
A ALA S 2 -54.7 142.3 N 5.65 CA 6.08 C 6.29 O 5.96 CB 6.6
A PRO T 93 -61.8 -25.5 N 6.81 CA 7.31 C 7.11 O 7.97 CB 7.96 CG 8.22 CD 7.15
A ASN T 118 -122.6 31.5 N 7.11 CA 7.49 C 7.07 O 7.68 CB 8.09 CG 8.84 OD1 9.97 ND2 9.71
A GLY - 0 68.5 -168.2 N 6.56 CA 6.43 C 6.71 O 7.07
A LEU S 5 -88.7 65.7 N 7.17 CA 8.14 C 8.59 O 9.16 CB 8.64 CG 9.67 CD1 11.04 CD2 11.73
A ASP - 60 -81.2 -169.7 N 8.5 CA 8.58 C 7.42 O 6.64 CB 9.43 CG 10.42 OD1 11.39 OD2 12.8
A THR H 80 -53.2 -50.5 N 6.71 CA 5.96 C 5.21 O 4.89 CB 6.37 OG1 8.57 CG2 7.22
A ARG H 205 -61.9 -55.6 N 4.82 CA 4.8 C 4.63 O 4.95 CB 5.15 CG 5.06 CD 5.13 NE 5.49 CZ 5.49 NH1 7.14 NH2 6.4
A PRO H 0 -66.4 -35.0 N 4.98 CA 5.42 C 5.17 O 5.54 CB 6.12 CG 6.31 CD 5.28
A ALA H 0 -62.1 -40.0 N 5.09 CA 5.04 C 4.84 O 5.13 CB 5.28
A ALA H 41 -64.0 -37.5 N 5.09 CA 5.53 C 5.73 O 6.28 CB 5.87
A GLN H 57 -66.8 -42.9 N 6.18 CA 6.74 C 6.34 O 6.67 CB 7.56 CG 9.7 CD 11.68 OE1 13.07 NE2 12.38
A PHE H 1 -55.4 -48.5 N 5.98 CA 5.54 C 5.01 O 5.05 CB 5.6 CG 5.44 CD1 5.93 CD2 5.93 CE1 7.22 CE2 6.89 CZ 7.22
A VAL H 8 -64.3 -44.2 N 4.85 CA 5.12 C 5.32 O 5.4 CB 5.54 CG1 6.14 CG2 5.41
A LYS H 151 -56.0 -44.6 N 5.65 CA 6.47 C 6.36 O 6.94 CB 6.66 CG 8.02 CD 8.13 CE 10.8 NZ 12.9
A GLU H 52 -70.9 -40.2 N 6.49 CA 6.72 C 6.29 O 6.67 CB 7.25 CG 8.62 CD 9.83 OE1 11.48 OE2 11.98
A ALA H 0 -57.9 -38.8 N 5.82 CA 5.6 C 5.72 O 5.94 CB 5.61
A LYS T 129 -62.6 -20.1 N 5.83 CA 6.6 C 6.77 O 7.19 CB 6.86 CG 7.5 CD 9.26 CE 10.07 NZ 10.96
A GLY T 67 -71.5 -18.6 N 6.71 CA 7.34 C 7.12 O 7.71
A PHE S 21 -93.4 149.3 N 6.91 CA 6.72 C 6.5 O 7.18 CB 6.89 CG 6.83 CD1 7.3 CD2 8.05 CE1 8.2 CE2 9.0 CZ 8.63
A THR - 97 -86.3 -22.6 N 6.69 CA 6.91 C 6.74 O 7.34 CB 7.06 OG1 7.68 CG2 7.57
A SER S 2 -57.3 151.5 N 6.51 CA 6.59 C 6.56 O 6.95 CB 6.51 OG 6.76
A GLU E 139 -73.9 126.4 N 6.78 CA 7.81 C 6.54 O 7.44 CB 8.04 CG 11.3 CD 11.56 OE1 15.98 OE2 16.35
A ILE E 0 -124.1 128.7 N 5.87 CA 5.66 C 5.59 O 5.68 CB 5.47 CG1 5.82 CG2 6.0 CD1 6.2
A THR E 34 -121.9 138.4 N 5.9 CA 6.69 C 6.2 O 7.34 CB 7.26 OG1 8.87 CG2 8.69
A VAL E 2 -108.2 133.9 N 5.52 CA 5.22 C 4.84 O 5.3 CB 5.54 CG1 5.83 CG2 6.24
A THR E 30 -121.6 129.9 N 5.02 CA 5.5 C 4.99 O 5.42 CB 6.03 OG1 7.19 CG2 6.97
A SER E 5 -136.8 123.6 N 4.84 CA 5.21 C 4.84 O 4.83 CB 5.51 OG 6.38
A ASN T 83 46.7 45.7 N 5.15 CA 5.4 C 5.75 O 5.97 CB 5.57 CG 5.61 OD1 6.06 ND2 7.18
A GLY T 38 68.4 19.7 N 6.35 CA 7.17 C 7.46 O 8.79
A LYS E 101 -121.4 128.9 N 6.82 CA 7.13 C 7.08 O 6.63 CB 7.23 CG 8.75 CD 11.4 CE 15.22 NZ 16.51
A SER E 73 -114.8 148.5 N 7.49 CA 7.88 C 7.74 O 8.55 CB 8.21 OG 10.2
A ALA E 10 -152.6 148.5 N 7.19 CA 7.0 C 6.32 O 6.07 CB 7.87
A SER E 32 -60.2 133.9 N 6.08 CA 5.92 C 5.66 O 6.02 CB 6.12 OG 6.17
A ALA T 0 -67.8 -14.7 N 5.59 CA 5.98 C 6.42 O 6.54 CB 6.12
A LYS T 47 -97.3 6.6 N 7.27 CA 8.86 C 9.39 O 10.64 CB 9.31 CG 10.26 CD 10.24 CE 10.99 NZ 8.95
A SER - 42 -135.3 115.1 N 9.67 CA 10.23 C 9.69 O 10.19 CB 10.64 OG 12.39
A LEU H 37 -64.9 -57.2 N 8.82 CA 8.69 C 9.87 O 10.51 CB 8.12 CG 8.38 CD1 8.39 CD2 8.98
A PHE H 171 -59.9 -39.9 N 10.62 CA 11.08 C 11.4 O 11.69 CB 11.23 CG 11.47 CD1 12.63 CD2 12.02 CE1 12.98 CE2 12.64 CZ 12.56
A LYS H 105 -71.3 -37.1 N 11.45 CA 11.89 C 11.32 O 11.5 CB 11.98 CG 13.96 CD 13.38 CE 14.74 NZ 17.67
A LEU H 0 -55.6 -38.4 N 10.41 CA 9.61 C 9.43 O 8.55 CB 9.44 CG 9.17 CD1 9.67 CD2 9.53
A GLN T 59 -71.2 -6.7 N 10.02 CA 10.97 C 11.48 O 12.41 CB 11.08 CG 11.41 CD 12.05 OE1 12.56 NE2 12.34
A THR T 75 -78.0 -16.9 N 11.56 CA 11.62 C 10.78 O 11.61 CB 11.85 OG1 13.19 CG2 12.79
A LEU S 9 -75.4 153.4 N 9.36 CA 8.59 C 8.1 O 8.44 CB 8.06 CG 10.94 CD1 10.19 CD2 8.94
A GLY - 42 -68.4 118.5 N 7.75 CA 7.57 C 6.95 O 6.87
A LEU - 17 -131.4 27.4 N 6.48 CA 6.21 C 5.73 O 5.58 CB 7.02 CG 7.88 CD1 9.69 CD2 9.65
A THR - 95 -69.7 156.4 N 5.74 CA 5.94 C 5.19 O 5.23 CB 6.69 OG1 7.72 CG2 8.13
A GLN T 116 -53.7 133.4 N 5.06 CA 4.99 C 5.1 O 5.87 CB 4.92 CG 5.07 CD 5.16 OE1 6.74 NE2 5.15
A GLY T 35 93.1 -9.5 N 5.03 CA 5.32 C 5.41 O 5.92
A THR - 13 -72.1 129.4 N 5.4 CA 5.45 C 4.9 O 5.6 CB 5.5 OG1 6.09 CG2 6.31
A VAL E 26 -95.9 115.2 N 4.73 CA 4.79 C 4.64 O 5.63 CB 4.82 CG1 5.54 CG2 5.45
A VAL E 0 -107.8 157.1 N 4.77 CA 5.33 C 5.11 O 5.73 CB 5.7 CG1 6.44 CG2 6.34
A THR E 37 -105.2 128.5 N 5.12 CA 5.6 C 4.86 O 5.53 CB 6.11 OG1 8.43 CG2 7.62
A ILE E 0 -107.3 119.7 N 5.07 CA 5.49 C 5.44 O 5.78 CB 5.52 CG1 6.19 CG2 6.11 CD1 6.36
A SER E 18 -124.9 145.8 N 5.8 CA 6.33 C 6.31 O 7.1 CB 6.71 OG 7.91
A ALA E 2 -141.2 149.3 N 6.23 CA 6.23 C 6.37 O 6.55 CB 6.73
A GLU E 109 -134.9 118.1 N 6.55 CA 7.34 C 6.83 O 6.82 CB 8.03 CG 11.41 CD 14.73 OE1 16.64 OE2 16.59
A GLY S 27 152.4 -174.6 N 6.75 CA 6.98 C 6.67 O 7.11
A GLU T 185 -68.3 -23.1 N 6.5 CA 6.44 C 6.35 O 8.1 CB 6.17 CG 6.24 CD 5.91 OE1 6.13 OE2 6.3
A ASP T 27 -114.6 26.1 N 6.02 CA 6.02 C 6.09 O 6.23 CB 6.09 CG 5.7 OD1 5.95 OD2 7.1
A GLU H 40 -58.5 -44.3 N 6.06 CA 6.29 C 6.45 O 6.3 CB 6.5 CG 7.05 CD 6.81 OE1 7.65 OE2 8.72
A GLN H 108 -68.4 -46.9 N 7.03 CA 7.78 C 7.95 O 7.83 CB 8.14 CG 9.15 CD 10.03 OE1 11.7 NE2 10.77
A LYS H 136 -60.3 -40.8 N 8.64 CA 9.65 C 8.23 O 8.49 CB 10.19 CG 12.54 CD 12.7 CE 15.39 NZ 16.47
A ALA H 0 -59.5 -51.6 N 7.49 CA 6.98 C 6.57 O 6.53 CB 7.18
A VAL H 0 -60.4 -49.8 N 6.5 CA 6.49 C 6.83 O 6.52 CB 6.4 CG1 6.9 CG2 6.56
A GLU H 93 -61.6 -39.1 N 7.48 CA 8.62 C 7.96 O 8.02 CB 8.86 CG 10.76 CD 11.53 OE1 14.87 OE2 14.89
A HIS H 74 -59.8 -47.4 N 8.0 CA 8.02 C 7.39 O 7.59 CB 8.47 CG 9.83 ND1 11.29 CD2 11.4 CE1 11.18 NE2 13.11
A LEU H 0 -73.0 -33.4 N 6.84 CA 6.46 C 6.37 O 6.2 CB 6.52 CG 6.22 CD1 6.3 CD2 6.67
A VAL H 32 -61.6 -46.2 N 6.44 CA 7.12 C 7.1 O 7.47 CB 7.12 CG1 7.64 CG2 7.38
A LYS H 152 -64.4 -44.0 N 7.63 CA 8.61 C 8.14 O 8.35 CB 9.35 CG 12.03 CD 15.44 CE 17.21 NZ 18.41
A LEU H 4 -58.3 -38.7 N 7.9 CA 7.83 C 7.42 O 7.69 CB 7.88 CG 8.54 CD1 9.45 CD2 8.3
A MET H 2 -50.4 -38.4 N 7.24 CA 7.53 C 7.49 O 7.47 CB 7.71 CG 8.86 SD 9.07 CE 11.35
A ALA T 77 -63.5 -27.2 N 8.01 CA 8.8 C 9.48 O 10.02 CB 8.99
A GLU T 127 -101.1 -3.3 N 10.06 CA 11.53 C 10.8 O 11.03 CB 11.99 CG 14.15 CD 14.15 OE1 17.79 OE2 17.7
A LEU - 9 -75.1 156.1 N 10.5 CA 10.81 C 11.72 O 11.93 CB 10.53 CG 10.26 CD1 10.23 CD2 11.18
A GLU - 98 -101.6 360.0 N 13.01 CA 15.39 C 15.63 O 17.01 CB 15.6 CG 17.69 CD 19.57 OE1 21.11 OE2 21.37 OXT 16.71
B MET - 130 360.0 134.4 N 9.64 CA 10.21 C 9.09 O 9.32 CB 10.29 CG 11.01 SD 13.47 CE 12.57
B PHE E 46 -136.0 139.6 N 8.09 CA 7.41 C 7.2 O 6.83 CB 7.78 CG 7.23 CD1 8.29 CD2 7.69 CE1 8.97 CE2 8.36 CZ 8.73
B GLU E 110 -149.0 150.4 N 7.02 CA 7.7 C 6.75 O 7.28 CB 7.95 CG 10.22 CD 10.72 OE1 14.3 OE2 15.02
B GLN E 70 -144.5 156.3 N 6.49 CA 6.49 C 6.16 O 6.97 CB 6.34 CG 6.88 CD 7.11 OE1 7.57 NE2 7.65
B GLU E 120 -90.0 148.7 N 6.09 CA 6.63 C 6.06 O 6.41 CB 6.98 CG 8.63 CD 8.75 OE1 10.41 OE2 12.83
B VAL E 22 -151.1 142.6 N 5.58 CA 5.48 C 5.13 O 5.03 CB 5.84 CG1 6.64 CG2 6.62
B THR E 64 -84.2 133.7 N 4.86 CA 5.08 C 4.79 O 5.3 CB 5.11 OG1 5.64 CG2 6.09
B ILE - 0 -73.2 114.8 N 4.82 CA 5.11 C 4.75 O 5.29 CB 5.39 CG1 6.97 CG2 5.52 CD1 8.11
B THR - 69 -106.0 -12.1 N 5.15 CA 5.71 C 5.52 O 5.7 CB 6.3 OG1 7.03 CG2 7.03
B ALA S 2 -54.4 141.6 N 5.94 CA 6.43 C 6.64 O 6.29 CB 6.91
B PRO T 91 -61.4 -26.2 N 7.2 CA 7.72 C 7.61 O 8.43 CB 8.38 CG 8.67 CD 7.6
B ASN T 115 -121.3 30.9 N 7.57 CA 7.79 C 7.48 O 8.03 CB 8.34 CG 9.2 OD1 10.66 ND2 10.17
B GLY - 0 67.8 -168.1 N 6.92 CA 6.87 C 7.2 O 7.6
B LEU S 5 -88.5 66.3 N 7.44 CA 8.39 C 8.77 O 9.28 CB 8.69 CG 9.75 CD1 11.39 CD2 11.96
B ASP - 61 -82.1 -169.0 N 8.89 CA 9.06 C 7.87 O 7.06 CB 9.94 CG 10.74 OD1 11.78 OD2 13.36
B THR H 81 -53.4 -50.4 N 7.05 CA 6.52 C 5.73 O 5.36 CB 6.96 OG1 8.78 CG2 7.8
B ARG H 198 -62.3 -55.1 N 5.38 CA 5.23 C 4.99 O 5.39 CB 5.51 CG 5.4 CD 5.74 NE 6.07 CZ 5.96 NH1 7.26 NH2 6.95
B PRO H 0 -67.0 -34.5 N 5.35 CA 5.67 C 5.61 O 6.04 CB 6.41 CG 6.36 CD 5.66
B ALA H 0 -61.8 -40.3 N 5.38 CA 5.38 C 5.21 O 5.44 CB 5.77
B ALA H 40 -63.7 -37.3 N 5.44 CA 5.82 C 6.04 O 6.56 CB 6.07
B GLN H 79 -66.3 -43.3 N 6.47 CA 7.21 C 6.76 O 7.18 CB 8.03 CG 11.44 CD 14.16 OE1 15.81 NE2 14.05
B PHE H 0 -57.2 -47.3 N 6.33 CA 5.9 C 5.43 O 5.41 CB 6.02 CG 5.63 CD1 6.4 CD2 6.25 CE1 7.66 CE2 7.14 CZ 7.76
B VAL H 8 -64.6 -44.2 N 5.28 CA 5.52 C 5.68 O 5.8 CB 5.72 CG1 6.1 CG2 5.92
B LYS H 146 -56.3 -44.2 N 6.05 CA 6.89 C 6.94 O 7.47 CB 7.22 CG 8.4 CD 8.58 CE 11.29 NZ 13.39
B GLU H 62 -71.1 -39.9 N 6.83 CA 7.06 C 6.69 O 6.92 CB 7.58 CG 9.16 CD 10.26 OE1 11.56 OE2 11.95
B ALA H 0 -57.9 -39.4 N 6.32 CA 6.25 C 6.15 O 6.48 CB 6.51
B LYS T 127 -62.3 -19.5 N 6.38 CA 7.28 C 7.28 O 7.77 CB 7.28 CG 7.93 CD 8.57 CE 10.36 NZ 11.28
B GLY T 66 -73.1 -17.0 N 7.37 CA 7.74 C 7.6 O 8.12
B PHE S 14 -94.3 149.0 N 7.25 CA 7.03 C 6.97 O 7.43 CB 7.19 CG 7.46 CD1 7.65 CD2 8.34 CE1 8.47 CE2 9.43 CZ 9.16
B THR - 91 -86.3 -22.3 N 7.18 CA 7.35 C 7.06 O 7.74 CB 7.44 OG1 8.34 CG2 8.1
B SER S 2 -56.9 150.6 N 6.95 CA 7.04 C 7.01 O 7.53 CB 7.0 OG 7.2
B GLU E 132 -73.7 127.0 N 7.12 CA 7.72 C 7.01 O 7.94 CB 8.45 CG 12.08 CD 15.38 OE1 17.67 OE2 18.0
B ILE E 1 -124.8 128.8 N 6.52 CA 6.06 C 6.0 O 6.15 CB 5.74 CG1 6.31 CG2 6.49 CD1 6.44
B THR E 47 -121.8 138.9 N 6.36 CA 7.13 C 6.52 O 7.55 CB 7.65 OG1 9.15 CG2 9.37
B VAL E 3 -108.6 134.1 N 5.85 CA 5.55 C 5.18 O 5.53 CB 5.63 CG1 5.94 CG2 6.6
B THR E 27 -122.2 129.6 N 5.28 CA 5.67 C 5.22 O 5.52 CB 6.09 OG1 7.25 CG2 6.91
B SER E 6 -136.4 123.3 N 4.83 CA 5.18 C 4.88 O 4.71 CB 5.47 OG 6.35
B ASN T 82 46.4 46.0 N 5.05 CA 5.39 C 5.8 O 5.8 CB 5.57 CG 5.44 OD1 6.02 ND2 7.26
B GLY T 37 68.3 19.5 N 6.41 CA 7.09 C 7.55 O 8.51
B LYS E 97 -121.3 128.4 N 6.91 CA 7.58 C 7.25 O 6.88 CB 7.49 CG 8.59 CD 9.8 CE 14.14 NZ 15.11
B SER E 62 -115.1 148.3 N 7.73 CA 8.24 C 7.97 O 8.49 CB 8.76 OG 10.6
B ALA E 3 -152.1 147.9 N 7.46 CA 7.28 C 6.55 O 6.33 CB 8.07
B SER E 41 -59.3 134.2 N 6.28 CA 6.15 C 5.96 O 6.34 CB 6.22 OG 6.31
B ALA T 0 -67.8 -14.5 N 5.82 CA 6.16 C 6.67 O 6.86 CB 6.24
B LYS T 37 -97.0 5.4 N 7.73 CA 9.37 C 9.81 O 10.91 CB 9.83 CG 10.8 CD 10.7 CE 11.28 NZ 9.75
B SER - 57 -132.0 112.2 N 9.97 CA 10.61 C 10.1 O 10.6 CB 11.02 OG 12.81
B LEU H 38 -63.3 -58.7 N 9.37 CA 8.99 C 9.99 O 10.61 CB 8.56 CG 8.81 CD1 8.75 CD2 9.17
B PHE H 169 -58.4 -42.5 N 10.39 CA 10.78 C 10.87 O 11.15 CB 11.06 CG 11.41 CD1 12.82 CD2 12.0 CE1 13.04 CE2 12.53 CZ 12.65
B LYS H 123 -68.1 -40.4 N 10.88 CA 11.09 C 10.74 O 10.81 CB 11.26 CG 11.85 CD 12.14 CE 13.91 NZ 14.89
B LEU H 0 -55.2 -38.1 N 10.12 CA 9.51 C 9.45 O 8.67 CB 9.31 CG 9.14 CD1 9.72 CD2 9.7
B GLN T 60 -70.8 -7.2 N 9.98 CA 10.97 C 11.41 O 12.26 CB 11.08 CG 11.78 CD 12.56 OE1 13.51 NE2 12.76
B THR T 67 -77.9 -18.5 N 11.4 CA 11.55 C 10.71 O 11.54 CB 11.79 OG1 12.96 CG2 12.76
B LEU S 8 -73.0 153.1 N 9.35 CA 8.63 C 7.96 O 8.36 CB 8.15 CG 10.82 CD1 10.24 CD2 9.03
B GLY - 43 -68.1 118.9 N 7.77 CA 7.47 C 6.98 O 6.87
B LEU - 16 -131.7 27.0 N 6.69 CA 6.57 C 6.16 O 5.91 CB 7.15 CG 8.11 CD1 9.62 CD2 9.4
B THR - 96 -69.0 156.1 N 6.28 CA 6.34 C 5.55 O 5.6 CB 7.06 OG1 8.03 CG2 8.33
B GLN T 115 -53.9 133.3 N 5.41 CA 5.36 C 5.48 O 6.32 CB 5.14 CG 5.67 CD 5.53 OE1 7.37 NE2 5.46
B GLY T 37 93.6 -9.8 N 5.44 CA 5.74 C 5.79 O 6.31
B THR - 14 -72.1 129.8 N 5.71 CA 5.69 C 5.18 O 5.67 CB 5.85 OG1 6.53 CG2 6.23
B VAL E 27 -96.4 115.5 N 5.09 CA 5.19 C 4.85 O 5.83 CB 5.13 CG1 5.87 CG2 5.6
B VAL E 0 -107.7 158.0 N 5.13 CA 5.41 C 5.45 O 6.18 CB 5.98 CG1 6.45 CG2 6.55
B THR E 37 -106.3 128.7 N 5.48 CA 5.98 C 5.44 O 5.89 CB 6.57 OG1 8.82 CG2 8.1
B ILE E 0 -107.4 119.5 N 5.51 CA 5.84 C 5.92 O 6.11 CB 5.96 CG1 6.82 CG2 6.57 CD1 6.56
B SER E 11 -124.8 146.6 N 6.25 CA 6.67 C 6.59 O 7.31 CB 7.02 OG 8.44
B ALA E 3 -142.1 148.6 N 6.62 CA 6.8 C 6.94 O 7.3 CB 7.21
B GLU E 113 -134.2 119.0 N 7.29 CA 8.11 C 7.73 O 7.5 CB 8.79 CG 12.28 CD 15.52 OE1 17.56 OE2 17.28
B GLY S 28 152.6 -174.7 N 7.48 CA 7.58 C 7.19 O 7.55
B GLU T 184 -69.8 -21.8 N 7.1 CA 7.14 C 7.19 O 8.6 CB 6.94 CG 6.84 CD 6.53 OE1 6.51 OE2 6.87
B ASP T 29 -115.1 27.1 N 6.65 CA 6.69 C 6.67 O 6.59 CB 6.79 CG 6.28 OD1 6.77 OD2 7.61
B GLU H 40 -59.2 -44.0 N 6.73 CA 6.77 C 6.97 O 6.9 CB 6.97 CG 7.64 CD 7.42 OE1 8.31 OE2 9.28
B GLN H 107 -68.9 -47.0 N 7.55 CA 8.33 C 8.58 O 8.5 CB 8.66 CG 9.54 CD 10.68 OE1 12.18 NE2 11.24
B LYS H 138 -57.6 -42.4 N 9.14 CA 9.7 C 8.79 O 9.0 CB 10.68 CG 13.27 CD 15.92 CE 17.18 NZ 17.99
B ALA H 0 -60.6 -50.7 N 8.08 CA 7.52 C 7.18 O 7.13 CB 7.77
B VAL H 0 -61.3 -49.8 N 7.23 CA 7.14 C 7.58 O 7.21 CB 7.05 CG1 7.11 CG2 7.22
B GLU H 91 -61.6 -39.1 N 8.12 CA 9.33 C 8.79 O 8.72 CB 9.63 CG 11.52 CD 12.18 OE1 15.17 OE2 15.55
B HIS H 72 -60.0 -48.0 N 8.77 CA 8.67 C 8.04 O 8.18 CB 9.05 CG 10.31 ND1 11.69 CD2 11.94 CE1 11.76 NE2 13.65
B LEU H 0 -72.7 -33.6 N 7.46 CA 7.13 C 7.06 O 6.81 CB 7.28 CG 6.84 CD1 7.29 CD2 7.43
B VAL H 33 -60.9 -46.2 N 7.09 CA 7.67 C 7.79 O 7.95 CB 7.69 CG1 8.29 CG2 7.78
B LYS H 154 -64.0 -44.5 N 8.35 CA 9.47 C 8.64 O 8.83 CB 9.63 CG 11.75 CD 12.22 CE 15.54 NZ 17.13
B LEU H 6 -57.9 -39.0 N 8.36 CA 8.3 C 7.98 O 8.18 CB 8.17 CG 8.67 CD1 9.72 CD2 8.66
B MET H 2 -50.1 -39.0 N 7.82 CA 8.03 C 8.01 O 8.1 CB 8.23 CG 9.41 SD 9.63 CE 11.3
B ALA T 76 -64.5 -25.2 N 8.45 CA 9.14 C 9.86 O 10.4 CB 9.46
B GLU T 145 -94.1 -14.1 N 10.5 CA 11.89 C 11.36 O 11.84 CB 12.27 CG 14.01 CD 14.01 OE1 17.16 OE2 17.23
B LEU - 10 -75.7 154.5 N 11.19 CA 11.56 C 12.41 O 12.37 CB 11.28 CG 11.17 CD1 11.31 CD2 12.19
B GLU - 86 -98.1 360.0 N 13.62 CA 15.93 C 16.35 O 17.5 CB 16.13 CG 17.68 CD 18.33 OE1 20.54 OE2 21.12 OXT 17.24
