A ILE E 4 -115.1 146.0 N 49.8 CA 47.42 C 45.89 O 46.26 CB 47.55 CG1 47.42 CG2 46.88 CD1 48.77
A LEU E 12 -111.0 147.9 N 44.1 CA 41.84 C 40.99 O 40.54 CB 41.23 CG 40.34 CD1 40.59 CD2 40.63
A GLY E 0 -111.8 112.5 N 40.83 CA 40.71 C 41.68 O 42.35
A ILE E 8 -111.4 115.5 N 41.34 CA 42.03 C 42.77 O 41.3 CB 42.79 CG1 43.84 CG2 41.98 CD1 45.82
A ASP E 2 -116.3 101.1 N 43.16 CA 44.67 C 45.34 O 46.43 CB 43.69 CG 43.9 OD1 43.27 OD2 44.3
A ILE E 37 -96.2 111.0 N 46.61 CA 48.39 C 48.88 O 49.1 CB 48.71 CG1 49.01 CG2 49.47 CD1 49.37
A GLY - 47 -126.8 360.0 N 49.89 CA 50.58 C 50.96 O 51.24
A ASN - 161 360.0 158.7 N 46.03 CA 45.74 C 45.17 O 45.6 CB 46.18 CG 46.88 OD1 46.68 ND2 47.12
A THR E 23 -136.9 145.4 N 44.8 CA 43.94 C 42.55 O 42.13 CB 44.53 OG1 45.61 CG2 45.42
A LYS E 44 -124.8 134.3 N 41.83 CA 41.32 C 41.19 O 40.73 CB 41.43 CG 41.32 CD 44.08 CE 44.48 NZ 45.03
A ILE E 41 -122.1 129.3 N 41.01 CA 41.5 C 41.29 O 41.45 CB 41.87 CG1 41.84 CG2 40.88 CD1 44.55
A THR E 0 -116.7 120.8 N 41.25 CA 41.86 C 42.73 O 42.28 CB 41.51 OG1 42.46 CG2 41.16
A GLU E 95 -93.3 106.1 N 43.2 CA 43.55 C 43.8 O 44.51 CB 44.25 CG 46.1 CD 47.59 OE1 49.02 OE2 48.73
A LEU E 2 -108.0 177.1 N 44.51 CA 44.91 C 46.28 O 46.52 CB 43.18 CG 42.76 CD1 42.58 CD2 43.31
A HIS - 48 83.2 171.8 N 48.29 CA 49.06 C 49.55 O 49.58 CB 49.11 CG 49.62 ND1 49.84 CD2 49.92 CE1 50.12 NE2 50.35
A GLU S 127 72.8 73.3 N 50.38 CA 51.53 C 51.7 O 52.48 CB 52.11 CG 52.96 CD 53.02 OE1 52.32 OE2 53.36
A ASN T 167 72.4 -22.9 N 51.94 CA 51.94 C 51.86 O 51.67 CB 52.69 CG 53.35 OD1 54.35 ND2 53.64
A GLY T 31 130.9 8.7 N 51.61 CA 51.09 C 50.98 O 51.39
A GLU - 136 -61.3 99.1 N 50.95 CA 50.76 C 50.43 O 51.53 CB 50.71 CG 51.27 CD 51.17 OE1 50.65 OE2 51.04
A PHE - 69 -122.9 156.6 N 49.59 CA 48.16 C 48.21 O 48.11 CB 47.36 CG 46.6 CD1 46.95 CD2 46.58 CE1 46.83 CE2 45.65 CZ 46.7
A LYS E 110 -164.4 148.8 N 48.45 CA 48.5 C 48.76 O 49.57 CB 48.99 CG 50.23 CD 51.25 CE 51.42 NZ 53.05
A VAL E 20 -120.2 153.3 N 48.7 CA 49.08 C 49.72 O 49.39 CB 48.47 CG1 48.5 CG2 48.21
A HIS E 131 -141.0 146.3 N 51.21 CA 52.96 C 53.76 O 53.44 CB 53.55 CG 55.01 ND1 55.08 CD2 54.81 CE1 55.06 NE2 55.43
A HIS E 101 -103.2 136.5 N 55.23 CA 56.88 C 57.74 O 57.9 CB 57.87 CG 59.46 ND1 59.88 CD2 60.59 CE1 60.67 NE2 60.4
A LEU - 137 -121.8 360.0 N 58.49 CA 59.14 C 59.27 O 60.0 CB 59.08 CG 59.46 CD1 59.19 CD2 59.35
A VAL - 97 360.0 117.2 N 35.13 CA 35.44 C 37.66 O 37.08 CB 34.71 CG1 34.3 CG2 34.45
A SER - 56 -88.7 -34.6 N 36.77 CA 38.94 C 40.93 O 41.38 CB 40.11 OG 39.5
A HIS E 60 -139.0 148.1 N 41.74 CA 42.22 C 42.25 O 41.95 CB 43.48 CG 45.29 ND1 45.71 CD2 46.37 CE1 46.52 NE2 46.98
A VAL E 4 -132.4 124.7 N 42.49 CA 42.05 C 42.2 O 41.4 CB 42.94 CG1 43.73 CG2 42.29
A ALA E 0 -96.0 117.1 N 41.39 CA 41.16 C 41.38 O 40.78 CB 40.32
A LEU E 6 -110.1 119.9 N 41.24 CA 41.52 C 41.74 O 40.99 CB 42.16 CG 42.8 CD1 43.66 CD2 43.12
A VAL E 4 -130.2 132.4 N 41.63 CA 41.76 C 42.38 O 41.55 CB 41.53 CG1 40.89 CG2 41.06
A THR E 12 -118.1 109.3 N 43.17 CA 45.07 C 45.12 O 45.24 CB 46.0 OG1 46.95 CG2 47.56
A THR - 44 -94.1 -0.1 N 46.23 CA 47.05 C 46.77 O 46.32 CB 47.61 OG1 49.1 CG2 48.35
A ALA - 63 -66.3 360.0 N 46.78 CA 46.9 C 46.66 O 46.7 CB 47.03
A GLU - 242 360.0 88.7 N 47.74 CA 48.2 C 48.17 O 48.62 CB 48.07 CG 48.72 CD 48.92 OE1 49.33 OE2 49.26
A THR - 60 -94.2 140.6 N 48.75 CA 48.91 C 49.31 O 49.8 CB 48.9 OG1 49.31 CG2 48.19
A LYS T 115 -77.4 47.3 N 49.66 CA 49.93 C 50.47 O 51.38 CB 50.18 CG 50.39 CD 50.21 CE 50.38 NZ 51.19
A LYS T 115 -135.4 -7.5 N 50.16 CA 50.33 C 50.27 O 50.73 CB 50.06 CG 50.57 CD 50.46 CE 50.86 NZ 50.81
A GLU H 106 -85.7 -51.6 N 49.89 CA 49.78 C 50.01 O 49.78 CB 50.07 CG 50.77 CD 51.77 OE1 52.72 OE2 52.57
A GLY H 31 -63.5 -32.7 N 49.67 CA 49.16 C 49.21 O 48.37
A VAL H 6 -61.2 -43.4 N 49.26 CA 49.93 C 50.53 O 50.72 CB 49.73 CG1 49.39 CG2 49.14
A ASP H 66 -67.5 -40.6 N 51.32 CA 52.14 C 52.17 O 52.44 CB 52.69 CG 53.54 OD1 54.12 OD2 54.71
A ASN H 106 -56.6 -49.8 N 52.73 CA 53.51 C 53.63 O 53.49 CB 54.7 CG 56.16 OD1 56.59 ND2 56.57
A ILE H 43 -59.3 -54.2 N 53.42 CA 53.16 C 52.85 O 51.8 CB 53.17 CG1 52.95 CG2 53.25 CD1 52.94
A LEU H 0 -56.6 -51.7 N 53.19 CA 53.44 C 53.95 O 53.15 CB 53.88 CG 53.51 CD1 53.82 CD2 53.29
A ASN H 79 -63.9 -38.1 N 54.42 CA 55.63 C 55.7 O 56.08 CB 56.78 CG 57.67 OD1 58.03 ND2 58.79
A ALA H 61 -64.6 -36.9 N 55.24 CA 55.02 C 54.87 O 54.64 CB 54.89
A ALA H 8 -62.9 -46.4 N 54.67 CA 55.14 C 55.5 O 54.8 CB 54.9
A GLU H 73 -55.8 -33.1 N 56.46 CA 57.73 C 57.84 O 57.82 CB 58.54 CG 59.46 CD 60.45 OE1 61.13 OE2 60.24
A SER H 101 -46.1 -60.8 N 57.84 CA 58.0 C 57.58 O 57.61 CB 58.54 OG 60.03
A ALA H 81 -109.5 10.9 N 57.08 CA 56.36 C 55.64 O 56.14 CB 55.94
A PHE H 72 -127.8 -11.0 N 54.26 CA 52.78 C 52.27 O 52.56 CB 51.78 CG 50.89 CD1 50.03 CD2 50.19 CE1 49.56 CE2 50.19 CZ 49.21
A GLY T 35 71.9 -151.9 N 51.95 CA 51.13 C 50.89 O 51.61
A SER T 89 -87.1 -12.7 N 49.78 CA 48.99 C 47.66 O 47.26 CB 49.71 OG 51.94
A ASN - 91 -76.8 61.2 N 46.37 CA 45.26 C 44.86 O 44.62 CB 44.65 CG 44.38 OD1 43.71 ND2 42.72
A ILE E 3 -128.7 124.8 N 43.84 CA 43.03 C 43.44 O 43.87 CB 43.21 CG1 42.0 CG2 43.97 CD1 40.81
A SER E 27 -108.7 122.1 N 42.58 CA 42.49 C 42.29 O 41.81 CB 43.11 OG 43.33
A VAL E 1 -94.9 125.8 N 41.57 CA 41.85 C 41.89 O 41.89 CB 42.11 CG1 41.91 CG2 41.77
A PHE E 1 -87.9 102.8 N 41.71 CA 42.27 C 42.79 O 41.56 CB 41.38 CG 42.04 CD1 41.82 CD2 42.21 CE1 42.6 CE2 42.64 CZ 42.51
A ASP - 2 -72.9 -173.5 N 42.91 CA 43.91 C 44.52 O 44.2 CB 45.15 CG 45.45 OD1 45.38 OD2 48.74
A SER S 51 -50.2 -34.6 N 45.28 CA 45.18 C 43.38 O 45.96 CB 46.66 OG 47.57
A ASN S 85 -93.7 -175.7 N 44.79 CA 43.32 C 45.52 O 45.91 CB 41.62 CG 40.84 OD1 42.29 ND2 40.58
A GLY S 14 -84.5 24.4 N 45.38 CA 47.16 C 48.23 O 48.79
A ASN - 94 -99.2 139.3 N 48.6 CA 48.58 C 47.47 O 46.39 CB 50.53 CG 52.96 OD1 54.94 ND2 54.47
A PHE E 34 -96.8 115.1 N 46.71 CA 46.18 C 47.3 O 47.97 CB 44.22 CG 42.0 CD1 40.79 CD2 41.8 CE1 40.39 CE2 40.9 CZ 40.52
A ILE E 29 -107.9 137.2 N 47.55 CA 48.16 C 48.15 O 48.45 CB 48.53 CG1 48.24 CG2 49.48 CD1 48.47
A SER E 64 -67.5 176.5 N 48.98 CA 48.9 C 48.81 O 48.52 CB 50.06 OG 51.59
A LEU T 10 -69.2 168.8 N 48.57 CA 47.47 C 45.38 O 48.31 CB 48.44 CG 49.26 CD1 50.27 CD2 49.47
A GLU T 134 71.1 -33.7 N 46.71 CA 45.29 C 48.44 O 47.24 CB 41.95 CG 40.71 CD 39.54 OE1 38.82 OE2 40.51
A SER H 38 -72.4 -31.8 N 47.73 CA 51.0 C 53.1 O 53.53 CB 52.07 OG 53.74
A ALA H 0 -84.5 -24.7 N 54.31 CA 55.07 C 55.87 O 56.08 CB 55.61
A LYS H 57 -74.7 -34.4 N 56.46 CA 57.0 C 57.04 O 57.38 CB 57.25 CG 57.44 CD 57.32 CE 57.14 NZ 58.01
A THR H 103 -69.5 -62.5 N 56.9 CA 56.55 C 56.05 O 56.7 CB 57.04 OG1 57.98 CG2 57.49
A ASN - 62 -111.7 86.3 N 55.33 CA 53.16 C 49.83 O 52.56 CB 55.15 CG 55.81 OD1 56.44 ND2 56.5
A ASN G 36 -63.3 -5.5 N 50.44 CA 48.4 C 51.43 O 49.87 CB 43.51 CG 44.08 OD1 43.97 ND2 42.28
A LYS G 91 -122.2 -13.7 N 57.47 CA 57.48 C 57.01 O 57.44 CB 58.37 CG 59.69 CD 60.32 CE 60.5 NZ 60.2
A VAL T 4 -63.4 -43.8 N 55.83 CA 54.68 C 53.6 O 53.97 CB 54.93 CG1 54.93 CG2 55.28
A SER B 47 -62.4 113.2 N 52.16 CA 50.62 C 49.11 O 49.25 CB 50.55 OG 52.22
A ALA - 13 -120.8 155.6 N 46.89 CA 45.34 C 43.88 O 43.85 CB 45.33
A SER - 33 -76.6 170.1 N 42.08 CA 40.91 C 40.38 O 39.94 CB 41.63 OG 39.96
A ASN S 43 -93.1 2.5 N 40.29 CA 40.51 C 37.85 O 38.14 CB 44.83 CG 47.18 OD1 49.54 ND2 49.75
A TRP S 24 -114.4 -26.8 N 34.31 CA 30.87 C 29.75 O 28.29 CB 30.58 CG 28.67 CD1 28.53 CD2 29.24 NE1 27.52 CE2 28.36 CE3 28.39 CZ2 30.71 CZ3 29.13 CH2 29.12
A CYS H 11 -55.8 -49.7 N 29.42 CA 30.25 C 29.33 O 29.04 CB 32.72 SG 41.1
A GLY H 5 -62.3 -46.7 N 28.92 CA 26.31 C 26.1 O 23.8
A THR H 0 -62.0 -41.5 N 23.97 CA 23.5 C 22.96 O 23.4 CB 22.81 OG1 22.17 CG2 21.6
A ALA H 0 -61.0 -46.2 N 22.15 CA 23.99 C 24.76 O 24.26 CB 22.93
A LYS H 50 -57.9 -51.6 N 26.37 CA 29.15 C 28.53 O 27.88 CB 32.01 CG 37.41 CD 39.88 CE 41.55 NZ 42.43
A TRP H 3 -55.5 -47.6 N 28.55 CA 28.72 C 29.3 O 29.5 CB 29.64 CG 32.44 CD1 33.78 CD2 33.94 NE1 34.3 CE2 34.35 CE3 33.51 CZ2 35.63 CZ3 34.83 CH2 36.11
A VAL H 0 -61.0 -45.0 N 28.57 CA 27.49 C 27.53 O 28.08 CB 26.1 CG1 25.53 CG2 26.55
A SER H 1 -62.4 -21.1 N 28.15 CA 30.96 C 32.54 O 33.39 CB 30.09 OG 31.52
A LYS H 89 -113.7 -7.7 N 33.43 CA 35.87 C 36.14 O 37.59 CB 36.52 CG 39.1 CD 41.5 CE 41.99 NZ 38.93
A ASN H 60 -130.7 -5.9 N 36.69 CA 36.66 C 36.71 O 37.3 CB 37.51 CG 39.54 OD1 39.73 ND2 39.66
A ILE T 25 -130.7 -62.1 N 35.56 CA 33.31 C 32.76 O 31.54 CB 34.33 CG1 33.81 CG2 32.22 CD1 35.46
A GLU - 49 -148.8 138.2 N 31.03 CA 31.42 C 31.02 O 31.61 CB 32.23 CG 36.53 CD 38.31 OE1 40.07 OE2 38.74
A GLU S 107 -92.7 -13.2 N 29.9 CA 28.64 C 26.84 O 24.53 CB 30.51 CG 33.73 CD 37.48 OE1 38.83 OE2 39.83
A ASN S 65 -134.8 91.7 N 25.21 CA 24.8 C 24.72 O 25.5 CB 26.98 CG 28.61 OD1 29.9 ND2 26.95
A CYS E 0 -163.5 -173.6 N 20.67 CA 19.72 C 20.08 O 18.57 CB 16.74 SG 22.17
A ILE E 0 -126.4 123.0 N 19.41 CA 18.68 C 18.98 O 20.67 CB 18.23 CG1 19.28 CG2 18.44 CD1 18.32
A LEU E 0 -87.9 131.0 N 18.1 CA 16.69 C 17.54 O 15.35 CB 18.21 CG 17.6 CD1 19.37 CD2 18.08
A VAL E 0 -126.7 113.3 N 17.43 CA 17.77 C 18.1 O 17.51 CB 16.44 CG1 15.98 CG2 16.52
A ASP E 8 -123.0 134.2 N 18.48 CA 20.93 C 20.08 O 20.97 CB 24.97 CG 33.16 OD1 38.83 OD2 37.91
A GLY - 22 -93.5 -147.0 N 17.96 CA 18.64 C 19.71 O 18.1
A SER S 46 -80.6 -20.9 N 19.26 CA 19.91 C 19.17 O 18.88 CB 23.21 OG 26.65
A THR S 20 -125.4 -38.9 N 16.83 CA 17.56 C 16.2 O 16.29 CB 18.98 OG1 21.99 CG2 20.02
A THR - 29 -126.4 158.7 N 13.05 CA 14.07 C 15.26 O 15.89 CB 15.99 OG1 16.65 CG2 17.68
A THR E 0 -120.8 123.3 N 14.07 CA 13.4 C 14.07 O 13.41 CB 13.98 OG1 15.24 CG2 14.28
A ASP E 2 -100.1 132.8 N 12.87 CA 13.54 C 13.97 O 15.39 CB 14.06 CG 15.99 OD1 15.25 OD2 18.29
A ILE E 0 -125.4 96.2 N 13.92 CA 13.73 C 16.5 O 15.38 CB 14.49 CG1 17.54 CG2 14.03 CD1 21.98
A ILE E 0 -115.2 118.4 N 18.08 CA 20.16 C 18.07 O 16.76 CB 23.14 CG1 28.71 CG2 25.47 CD1 33.5
A PRO E 0 -73.5 138.8 N 18.4 CA 16.65 C 20.4 O 18.88 CB 17.59 CG 18.42 CD 17.75
A ILE E 1 -124.2 119.8 N 20.52 CA 22.23 C 22.96 O 23.3 CB 21.78 CG1 21.12 CG2 22.98 CD1 21.89
A VAL E 49 -126.6 128.6 N 24.36 CA 23.17 C 24.96 O 22.32 CB 22.52 CG1 23.79 CG2 23.03
A GLU T 140 54.7 33.8 N 26.14 CA 28.91 C 28.6 O 28.69 CB 30.98 CG 36.58 CD 40.48 OE1 41.5 OE2 43.1
A GLY T 0 83.4 2.6 N 27.73 CA 26.14 C 27.18 O 26.15
A LYS E 126 -119.2 147.9 N 25.99 CA 27.33 C 27.55 O 26.66 CB 27.85 CG 28.43 CD 31.2 CE 33.83 NZ 37.08
A VAL E 50 -81.2 118.9 N 27.39 CA 27.5 C 27.36 O 28.44 CB 28.37 CG1 29.21 CG2 28.59
A VAL - 56 -113.4 25.8 N 25.56 CA 25.75 C 24.61 O 25.24 CB 27.28 CG1 27.09 CG2 30.67
A ALA - 18 -77.1 155.7 N 23.26 CA 21.78 C 21.62 O 21.42 CB 21.36
A GLU - 48 -66.5 162.0 N 19.81 CA 21.74 C 21.37 O 21.88 CB 21.19 CG 22.79 CD 24.64 OE1 26.64 OE2 24.72
A LYS S 161 -71.7 -72.0 N 21.82 CA 22.38 C 19.64 O 18.9 CB 26.1 CG 31.97 CD 33.42 CE 34.43 NZ 31.29
A THR S 49 -75.9 163.8 N 17.77 CA 16.35 C 16.12 O 15.31 CB 17.02 OG1 15.79 CG2 16.62
A ASP H 82 -60.1 -40.8 N 15.58 CA 15.0 C 14.19 O 14.24 CB 16.54 CG 20.28 OD1 20.27 OD2 24.11
A LEU H 7 -59.1 -48.8 N 11.81 CA 12.56 C 11.15 O 10.42 CB 11.76 CG 15.19 CD1 12.86 CD2 16.42
A GLU H 52 -61.7 -35.9 N 12.16 CA 13.25 C 13.22 O 14.2 CB 14.77 CG 17.65 CD 21.25 OE1 19.98 OE2 21.58
A ARG H 2 -72.5 -34.3 N 12.14 CA 12.47 C 11.2 O 11.0 CB 14.3 CG 18.08 CD 23.2 NE 28.65 CZ 28.99 NH1 28.66 NH2 21.99
A LEU H 0 -65.1 -29.0 N 11.62 CA 12.7 C 13.46 O 12.67 CB 10.82 CG 12.15 CD1 11.93 CD2 12.05
A ASN T 53 -127.5 27.3 N 13.05 CA 12.54 C 12.97 O 12.09 CB 13.72 CG 13.8 OD1 16.2 ND2 14.65
A HIS T 34 57.3 25.7 N 12.93 CA 14.77 C 14.11 O 16.53 CB 14.36 CG 17.06 ND1 18.25 CD2 17.14 CE1 18.82 NE2 20.37
A GLU S 2 -103.3 -7.0 N 14.33 CA 14.41 C 12.77 O 14.93 CB 14.31 CG 14.64 CD 18.56 OE1 19.38 OE2 20.51
A LEU E 5 -139.0 123.5 N 12.74 CA 14.03 C 12.06 O 14.18 CB 14.26 CG 14.1 CD1 13.26 CD2 14.33
A LEU E 5 -124.1 122.7 N 14.36 CA 13.51 C 14.08 O 12.24 CB 14.31 CG 15.56 CD1 13.26 CD2 15.52
A TYR - 35 -84.5 62.5 N 13.75 CA 16.87 C 16.63 O 18.77 CB 19.4 CG 20.02 CD1 20.37 CD2 23.03 CE1 25.5 CE2 23.16 CZ 25.91 OH 29.17
A VAL - 0 -135.3 136.1 N 17.46 CA 16.8 C 15.74 O 14.45 CB 18.5 CG1 19.45 CG2 19.03
A GLY - 0 -130.9 173.3 N 14.2 CA 14.55 C 13.88 O 11.88
A THR S 0 -67.3 -28.3 N 13.66 CA 14.34 C 14.15 O 13.67 CB 16.29 OG1 15.63 CG2 17.3
A LEU S 2 -121.7 -49.9 N 12.41 CA 12.98 C 12.14 O 12.74 CB 13.07 CG 14.71 CD1 17.28 CD2 15.81
A ARG - 96 -86.5 -2.6 N 12.59 CA 14.98 C 14.49 O 17.24 CB 16.54 CG 20.37 CD 23.11 NE 26.48 CZ 30.97 NH1 32.4 NH2 29.89
A THR - 0 -72.4 122.2 N 12.72 CA 14.27 C 13.41 O 14.75 CB 16.65 OG1 13.75 CG2 13.65
A PRO B 34 -61.5 131.1 N 14.71 CA 13.86 C 14.63 O 12.57 CB 18.14 CG 19.77 CD 16.13
A ILE G 3 -54.5 -36.9 N 11.31 CA 15.09 C 12.71 O 11.46 CB 19.04 CG1 22.47 CG2 24.63 CD1 27.85
A SER G 17 -69.2 -10.1 N 11.73 CA 11.61 C 11.54 O 12.49 CB 10.59 OG 13.18
A HIS G 4 -68.6 -24.8 N 11.04 CA 11.16 C 12.61 O 12.46 CB 9.76 CG 10.85 ND1 13.16 CD2 10.08 CE1 9.72 NE2 14.07
A LEU G 7 -77.0 -17.4 N 9.92 CA 10.19 C 11.53 O 11.36 CB 10.9 CG 10.94 CD1 11.76 CD2 11.94
A GLY - 17 161.6 135.4 N 10.54 CA 11.72 C 11.41 O 10.28
A ASN S 31 -86.1 5.2 N 10.28 CA 10.98 C 11.13 O 10.56 CB 11.32 CG 13.11 OD1 10.87 ND2 14.22
A THR E 42 -142.0 147.5 N 13.21 CA 11.32 C 11.64 O 11.86 CB 13.28 OG1 15.86 CG2 13.44
A ILE E 5 -143.3 147.6 N 10.54 CA 9.26 C 11.81 O 10.5 CB 9.91 CG1 8.93 CG2 11.47 CD1 9.85
A SER E 54 -76.1 123.3 N 12.09 CA 11.52 C 11.62 O 11.88 CB 13.9 OG 13.56
A PHE E 3 -132.2 125.5 N 11.89 CA 12.29 C 12.09 O 11.99 CB 12.59 CG 12.76 CD1 13.79 CD2 14.98 CE1 14.12 CE2 14.67 CZ 14.52
A LYS T 135 47.6 40.0 N 13.51 CA 14.18 C 14.26 O 16.07 CB 14.98 CG 15.95 CD 22.34 CE 23.54 NZ 30.43
A GLY T 70 82.6 -1.9 N 13.66 CA 14.07 C 14.63 O 15.26
A VAL E 56 -122.6 141.1 N 14.27 CA 15.43 C 14.46 O 12.65 CB 19.24 CG1 17.99 CG2 23.54
A ASP E 86 -66.2 119.1 N 15.0 CA 16.59 C 14.42 O 14.61 CB 21.42 CG 29.94 OD1 35.06 OD2 37.1
A THR E 0 -120.8 134.7 N 12.87 CA 12.76 C 11.55 O 12.82 CB 11.64 OG1 12.81 CG2 12.63
A ASN E 5 -70.8 152.4 N 11.18 CA 10.48 C 9.95 O 10.81 CB 11.55 CG 13.49 OD1 12.5 ND2 14.54
A VAL - 1 -124.3 157.8 N 8.16 CA 9.83 C 10.09 O 11.03 CB 11.28 CG1 12.04 CG2 11.73
A SER - 2 -69.5 151.1 N 8.69 CA 9.6 C 8.96 O 11.77 CB 13.22 OG 14.02
A SER - 9 -97.5 -6.1 N 10.74 CA 11.13 C 11.19 O 13.01 CB 8.86 OG 14.59
A GLU S 61 -68.8 152.3 N 13.26 CA 14.6 C 15.93 O 13.87 CB 16.99 CG 21.68 CD 27.95 OE1 31.14 OE2 28.5
A TYR S 124 -76.6 99.2 N 16.05 CA 17.69 C 18.43 O 20.04 CB 18.93 CG 22.85 CD1 22.12 CD2 23.72 CE1 23.96 CE2 23.05 CZ 22.35 OH 23.24
A PHE - 56 -124.9 -40.6 N 16.14 CA 15.97 C 15.28 O 14.79 CB 17.28 CG 18.77 CD1 20.78 CD2 19.66 CE1 22.51 CE2 22.04 CZ 18.94
A ALA - 3 -138.7 150.7 N 13.87 CA 12.46 C 9.68 O 11.22 CB 15.47
A ILE B 1 -128.7 172.1 N 11.6 CA 10.19 C 11.48 O 12.72 CB 10.7 CG1 13.19 CG2 11.72 CD1 16.83
A THR H 0 -58.0 -27.5 N 12.48 CA 11.05 C 11.19 O 11.41 CB 11.87 OG1 10.35 CG2 10.29
A ALA H 0 -57.3 -39.6 N 11.7 CA 12.98 C 13.99 O 15.57 CB 13.33
A ASP H 0 -63.9 -42.1 N 10.97 CA 12.49 C 13.82 O 12.15 CB 13.08 CG 14.38 OD1 13.09 OD2 11.83
A ILE H 0 -66.6 -46.5 N 11.99 CA 12.72 C 14.13 O 13.26 CB 12.04 CG1 13.87 CG2 12.8 CD1 15.83
A SER H 0 -57.8 -40.5 N 12.47 CA 14.39 C 14.94 O 16.34 CB 13.87 OG 13.0
A VAL H 13 -73.0 -44.1 N 16.04 CA 17.88 C 18.65 O 18.3 CB 19.47 CG1 23.13 CG2 20.35
A VAL H 7 -62.5 -35.2 N 16.94 CA 17.07 C 16.89 O 19.75 CB 15.92 CG1 19.84 CG2 17.0
A LEU T 29 -96.3 7.7 N 15.05 CA 17.53 C 17.06 O 16.2 CB 17.75 CG 19.74 CD1 15.85 CD2 20.77
A GLU T 169 57.9 41.0 N 16.25 CA 19.04 C 18.41 O 18.3 CB 21.64 CG 28.81 CD 33.58 OE1 36.11 OE2 39.11
A LYS S 49 -92.9 -16.2 N 15.69 CA 16.49 C 17.24 O 19.25 CB 14.5 CG 15.6 CD 17.1 CE 16.89 NZ 20.14
A VAL S 9 -147.9 155.5 N 18.52 CA 20.45 C 20.8 O 20.45 CB 20.56 CG1 21.31 CG2 20.92
A THR - 63 -81.4 167.9 N 22.6 CA 23.22 C 23.67 O 22.52 CB 23.9 OG1 23.84 CG2 24.68
A THR G 52 -63.5 -33.8 N 23.67 CA 26.27 C 25.16 O 25.42 CB 28.78 OG1 32.14 CG2 30.89
A GLU G 149 -66.8 -27.5 N 25.82 CA 25.59 C 25.0 O 23.5 CB 28.57 CG 32.54 CD 34.78 OE1 33.67 OE2 39.29
A GLU G 33 -83.0 -1.0 N 22.21 CA 22.16 C 20.71 O 20.1 CB 23.16 CG 23.19 CD 24.58 OE1 24.79 OE2 26.12
A TYR - 11 -89.3 78.6 N 19.64 CA 19.01 C 20.19 O 19.03 CB 17.73 CG 16.72 CD1 14.42 CD2 14.49 CE1 15.2 CE2 16.2 CZ 14.94 OH 13.33
A THR - 108 -91.4 -13.7 N 21.28 CA 23.04 C 23.96 O 24.54 CB 23.51 OG1 22.13 CG2 25.04
A CYS S 29 -84.0 166.5 N 22.69 CA 20.95 C 20.99 O 20.96 CB 22.09 SG 20.74
A ASP - 146 -66.5 142.3 N 20.63 CA 21.63 C 21.52 O 21.02 CB 23.12 CG 25.71 OD1 24.43 OD2 28.15
A THR - 19 -76.7 149.3 N 20.62 CA 19.71 C 18.81 O 17.84 CB 19.24 OG1 21.47 CG2 16.47
A PRO T 27 -58.2 -31.9 N 18.03 CA 17.93 C 19.17 O 19.95 CB 18.29 CG 13.81 CD 16.97
A ASP T 45 -105.0 5.4 N 18.43 CA 19.48 C 20.92 O 21.25 CB 16.99 CG 14.58 OD1 16.99 OD2 17.72
A GLY S 69 76.5 9.3 N 21.51 CA 23.37 C 23.51 O 25.15
A LYS - 126 -99.8 -165.6 N 22.56 CA 21.97 C 20.89 O 21.43 CB 24.12 CG 25.94 CD 28.94 CE 31.05 NZ 30.29
A GLY - 32 -64.6 164.0 N 21.02 CA 20.91 C 21.73 O 21.84
A THR - 38 -103.8 9.0 N 20.75 CA 20.73 C 19.95 O 21.18 CB 22.3 OG1 22.94 CG2 20.93
A ASP S 67 -72.8 167.1 N 19.85 CA 19.61 C 21.46 O 20.16 CB 22.11 CG 21.74 OD1 23.48 OD2 24.21
A LYS H 87 -56.3 -54.3 N 20.59 CA 22.61 C 22.18 O 18.79 CB 24.54 CG 31.04 CD 35.09 CE 39.3 NZ 41.54
A ARG H 124 -56.0 -42.9 N 20.83 CA 20.5 C 18.98 O 18.54 CB 22.33 CG 25.92 CD 30.94 NE 33.97 CZ 34.19 NH1 37.08 NH2 34.61
A SER H 25 -63.0 -32.9 N 18.06 CA 17.04 C 16.15 O 15.07 CB 19.38 OG 20.13
A SER H 0 -71.1 -38.4 N 15.55 CA 16.13 C 16.15 O 13.83 CB 15.37 OG 17.36
A LEU H 1 -66.7 -34.0 N 15.74 CA 16.83 C 17.7 O 14.6 CB 16.55 CG 19.39 CD1 21.7 CD2 19.86
A VAL H 35 -63.7 -45.8 N 15.68 CA 16.69 C 14.8 O 14.43 CB 16.27 CG1 17.26 CG2 19.76
A ARG H 0 -62.7 -43.6 N 13.7 CA 14.34 C 13.59 O 13.18 CB 14.6 CG 15.82 CD 14.49 NE 14.56 CZ 13.53 NH1 11.66 NH2 11.82
A ILE H 1 -63.2 -35.4 N 14.06 CA 14.74 C 14.33 O 14.54 CB 14.64 CG1 15.46 CG2 13.69 CD1 18.02
A SER H 0 -65.3 -27.4 N 14.19 CA 15.52 C 14.44 O 15.71 CB 17.86 OG 23.29
A LYS H 41 -69.2 -20.3 N 14.66 CA 14.29 C 14.75 O 14.26 CB 16.51 CG 20.8 CD 25.45 CE 29.41 NZ 25.2
A VAL T 5 -63.4 -29.0 N 14.06 CA 15.94 C 14.31 O 14.28 CB 17.12 CG1 20.97 CG2 19.99
A LEU T 0 -103.6 25.4 N 14.12 CA 14.41 C 16.22 O 14.96 CB 15.38 CG 15.74 CD1 22.41 CD2 18.82
A CYS T 34 52.8 38.2 N 14.55 CA 17.45 C 18.29 O 19.54 CB 16.24 SG 20.17
A SER - 10 -134.3 -171.6 N 17.99 CA 21.51 C 21.84 O 23.14 CB 19.58 OG 24.55
A ASP - 75 -149.5 177.2 N 22.92 CA 24.38 C 23.28 O 22.17 CB 26.26 CG 28.08 OD1 30.25 OD2 31.79
A LEU T 27 -76.5 12.5 N 23.42 CA 24.67 C 25.57 O 25.89 CB 23.92 CG 24.46 CD1 22.95 CD2 23.14
A ASP T 155 -100.8 -34.0 N 27.77 CA 29.5 C 29.27 O 30.59 CB 32.68 CG 36.68 OD1 38.66 OD2 38.58
A GLN T 84 -86.6 -34.0 N 27.1 CA 26.01 C 23.84 O 23.94 CB 27.36 CG 30.19 CD 31.36 OE1 31.22 NE2 33.95
A ILE S 7 -125.7 153.3 N 20.44 CA 20.14 C 19.39 O 21.21 CB 21.75 CG1 19.45 CG2 20.88 CD1 22.74
A SER - 49 -81.4 168.7 N 19.55 CA 20.91 C 21.68 O 18.26 CB 22.32 OG 24.81
A GLU H 79 -66.1 -33.2 N 19.45 CA 21.0 C 20.13 O 19.3 CB 24.05 CG 29.26 CD 32.8 OE1 34.4 OE2 33.24
A ILE H 106 -66.8 -39.4 N 20.21 CA 20.73 C 20.83 O 17.55 CB 23.35 CG1 27.43 CG2 24.66 CD1 33.16
A ASP H 26 -63.9 -47.0 N 18.08 CA 19.34 C 18.06 O 18.08 CB 22.85 CG 26.48 OD1 27.98 OD2 32.59
A ALA H 0 -62.3 -41.4 N 15.73 CA 17.15 C 17.42 O 15.68 CB 17.15
A GLU H 39 -62.3 -36.2 N 16.4 CA 17.51 C 15.89 O 14.52 CB 20.7 CG 29.6 CD 33.54 OE1 34.76 OE2 35.83
A ASN H 61 -65.9 -28.5 N 13.95 CA 14.71 C 13.94 O 12.8 CB 17.78 CG 23.34 OD1 30.33 ND2 27.86
A ILE H 0 -67.1 -44.3 N 11.47 CA 11.59 C 10.28 O 11.03 CB 12.69 CG1 12.24 CG2 12.18 CD1 14.34
A ALA H 0 -62.7 -43.7 N 10.34 CA 11.33 C 10.73 O 9.18 CB 12.65
A LYS H 100 -62.2 -44.4 N 10.21 CA 11.61 C 11.94 O 12.17 CB 12.26 CG 16.81 CD 21.15 CE 26.83 NZ 31.15
A ASN H 59 -66.2 -36.9 N 10.89 CA 11.34 C 10.21 O 10.71 CB 10.43 CG 14.07 OD1 15.47 ND2 9.18
A TYR H 1 -68.3 -33.3 N 10.56 CA 9.46 C 9.68 O 8.86 CB 10.99 CG 10.57 CD1 10.19 CD2 10.93 CE1 8.97 CE2 12.15 CZ 10.49 OH 12.53
A TYR H 7 -60.8 -37.9 N 10.61 CA 11.79 C 11.03 O 10.29 CB 10.96 CG 11.65 CD1 11.07 CD2 13.74 CE1 12.14 CE2 13.92 CZ 14.18 OH 13.54
A GLU H 96 -70.4 -31.0 N 9.68 CA 11.65 C 12.1 O 13.27 CB 10.58 CG 12.79 CD 14.33 OE1 12.03 OE2 14.92
A LEU H 63 -69.1 -39.9 N 11.13 CA 11.13 C 11.12 O 11.4 CB 10.44 CG 8.45 CD1 9.36 CD2 11.77
A TRP H 0 -62.0 -47.7 N 10.42 CA 10.92 C 11.98 O 9.02 CB 10.98 CG 10.95 CD1 10.44 CD2 11.96 NE1 12.98 CE2 12.5 CE3 11.41 CZ2 12.23 CZ3 12.32 CH2 14.18
A LYS H 49 -58.6 -40.9 N 9.24 CA 11.8 C 11.05 O 10.87 CB 11.74 CG 11.13 CD 12.59 CE 16.8 NZ 16.16
A GLU H 94 -65.3 -39.3 N 9.79 CA 9.37 C 9.46 O 11.71 CB 9.71 CG 11.89 CD 17.43 OE1 13.59 OE2 18.18
A LEU H 10 -58.8 -46.2 N 11.3 CA 10.63 C 11.29 O 11.97 CB 9.65 CG 12.54 CD1 13.9 CD2 16.04
A ILE H 0 -62.4 -51.0 N 11.27 CA 12.46 C 13.59 O 13.2 CB 14.24 CG1 14.31 CG2 14.66 CD1 16.1
A LEU H 22 -57.8 -49.4 N 12.65 CA 13.88 C 15.32 O 14.61 CB 13.65 CG 11.66 CD1 13.05 CD2 16.73
A GLU H 52 -56.8 -43.0 N 15.51 CA 17.54 C 15.68 O 13.75 CB 20.22 CG 27.65 CD 35.12 OE1 37.12 OE2 39.45
A ASN H 0 -67.6 -46.3 N 15.24 CA 15.31 C 15.31 O 14.92 CB 15.2 CG 16.61 OD1 15.05 ND2 13.69
A VAL H 0 -61.6 -39.3 N 12.68 CA 14.3 C 14.95 O 15.2 CB 13.36 CG1 12.46 CG2 13.78
A GLU H 70 -63.7 -40.2 N 14.22 CA 18.33 C 19.1 O 18.82 CB 19.04 CG 19.18 CD 21.36 OE1 20.63 OE2 22.27
A ASN H 61 -63.2 -45.3 N 17.79 CA 19.45 C 19.56 O 19.96 CB 21.0 CG 24.77 OD1 26.23 ND2 25.22
A VAL H 3 -65.2 -43.6 N 18.17 CA 18.16 C 20.63 O 19.31 CB 17.76 CG1 15.18 CG2 16.2
A ALA H 9 -60.9 -41.6 N 20.24 CA 22.95 C 24.17 O 25.85 CB 22.52
A GLU H 149 -62.9 -35.3 N 24.52 CA 27.41 C 26.97 O 25.85 CB 31.54 CG 38.19 CD 42.53 OE1 44.49 OE2 45.76
A LYS H 132 -78.6 -35.8 N 25.23 CA 25.82 C 25.76 O 24.44 CB 24.14 CG 24.13 CD 23.5 CE 22.89 NZ 19.81
A TYR H 58 -103.9 -0.6 N 26.45 CA 27.18 C 28.56 O 30.24 CB 26.86 CG 25.26 CD1 24.92 CD2 22.64 CE1 24.72 CE2 24.01 CZ 25.71 OH 25.82
A GLY - 61 66.7 10.7 N 29.66 CA 30.98 C 32.6 O 32.46
A SER - 14 -76.2 144.0 N 32.81 CA 34.06 C 33.89 O 34.49 CB 36.04 OG 33.62
A LYS - 142 -122.9 -16.4 N 34.39 CA 35.36 C 32.86 O 32.91 CB 38.89 CG 41.97 CD 45.04 CE 46.22 NZ 46.72
A LYS E 66 -93.3 133.2 N 29.51 CA 27.73 C 26.01 O 21.72 CB 29.5 CG 32.94 CD 34.4 CE 36.77 NZ 39.16
A VAL E 0 -125.5 133.0 N 24.17 CA 24.4 C 23.06 O 23.52 CB 25.83 CG1 26.36 CG2 29.05
A VAL E 0 -108.4 119.9 N 20.35 CA 19.35 C 19.3 O 17.0 CB 19.29 CG1 18.9 CG2 17.28
A ILE E 0 -110.3 154.4 N 18.97 CA 18.97 C 18.97 O 19.71 CB 17.96 CG1 18.02 CG2 17.55 CD1 18.53
A THR E 0 -164.5 170.7 N 18.84 CA 19.59 C 20.72 O 19.22 CB 20.63 OG1 21.34 CG2 20.59
A GLY S 8 102.7 171.6 N 20.71 CA 21.06 C 19.77 O 19.71
A LEU T 39 -56.1 -28.0 N 19.86 CA 22.83 C 21.75 O 21.94 CB 23.22 CG 25.21 CD1 25.64 CD2 25.1
A GLY T 0 -92.3 19.1 N 21.1 CA 19.92 C 19.14 O 18.63
A GLU H 8 -50.9 -42.5 N 17.5 CA 17.71 C 17.63 O 17.43 CB 21.2 CG 22.48 CD 23.92 OE1 25.89 OE2 24.05
A ASN H 78 -58.5 -38.1 N 17.73 CA 19.36 C 17.83 O 18.65 CB 21.19 CG 25.41 OD1 27.81 ND2 24.64
A ILE H 0 -73.8 -42.6 N 14.91 CA 14.69 C 13.3 O 12.03 CB 15.05 CG1 15.43 CG2 13.25 CD1 20.06
A LEU H 0 -58.8 -45.1 N 13.87 CA 16.54 C 17.48 O 15.71 CB 15.7 CG 22.51 CD1 16.88 CD2 16.05
A LYS H 79 -59.7 -44.0 N 17.88 CA 18.87 C 17.95 O 18.92 CB 22.74 CG 28.24 CD 32.83 CE 34.11 NZ 37.62
A ASP H 61 -62.3 -40.6 N 17.57 CA 16.28 C 16.13 O 16.23 CB 16.28 CG 20.01 OD1 20.02 OD2 19.5
A ALA H 6 -77.6 -29.4 N 12.92 CA 13.71 C 15.73 O 14.51 CB 13.18
A LEU T 0 -108.3 32.9 N 15.16 CA 18.06 C 21.19 O 20.31 CB 17.8 CG 16.23 CD1 19.52 CD2 16.44
A ALA T 80 -61.1 -25.3 N 22.77 CA 26.18 C 25.94 O 27.31 CB 27.19
A ASP T 124 -71.3 -8.1 N 26.41 CA 27.03 C 27.26 O 27.16 CB 27.27 CG 30.6 OD1 30.1 OD2 28.64
A PHE S 35 -111.6 167.2 N 25.35 CA 25.12 C 24.97 O 24.28 CB 25.32 CG 24.17 CD1 23.62 CD2 25.14 CE1 25.49 CE2 26.17 CZ 24.88
A GLU E 86 -82.6 105.1 N 27.02 CA 27.12 C 27.14 O 25.45 CB 29.99 CG 34.84 CD 38.01 OE1 39.22 OE2 39.84
A VAL E 53 -94.7 130.1 N 26.23 CA 25.62 C 26.07 O 25.58 CB 26.56 CG1 25.27 CG2 27.14
A ILE E 26 -115.1 118.4 N 24.48 CA 24.3 C 23.85 O 22.81 CB 25.69 CG1 27.3 CG2 27.13 CD1 31.28
A SER E 5 -96.9 126.5 N 23.61 CA 23.73 C 25.42 O 25.28 CB 22.93 OG 21.3
A VAL H 1 -67.0 -40.5 N 24.03 CA 25.93 C 28.86 O 27.86 CB 25.13 CG1 24.65 CG2 21.14
A ALA H 24 -63.0 -32.5 N 30.22 CA 32.73 C 35.12 O 35.92 CB 32.89
A GLU H 161 -80.0 -31.1 N 37.01 CA 39.92 C 40.63 O 40.76 CB 42.36 CG 48.38 CD 51.82 OE1 53.74 OE2 54.05
A ARG H 136 -93.6 -26.7 N 40.23 CA 40.94 C 40.13 O 40.16 CB 41.63 CG 43.38 CD 44.55 NE 44.69 CZ 44.71 NH1 44.53 NH2 43.97
A TYR H 60 -125.9 -2.1 N 39.49 CA 38.82 C 38.66 O 39.27 CB 38.73 CG 39.37 CD1 39.37 CD2 39.11 CE1 39.39 CE2 38.98 CZ 39.88 OH 40.61
A GLY - 29 101.0 153.0 N 37.98 CA 36.93 C 37.27 O 36.5
A LYS H 112 -61.7 -30.2 N 36.77 CA 37.93 C 37.65 O 37.32 CB 38.26 CG 41.27 CD 42.37 CE 44.07 NZ 46.05
A ASP H 83 -61.1 -46.5 N 38.24 CA 38.53 C 36.64 O 36.82 CB 40.8 CG 42.96 OD1 44.74 OD2 45.56
A VAL H 1 -66.1 -39.8 N 36.15 CA 34.93 C 34.37 O 31.12 CB 35.92 CG1 35.76 CG2 36.62
A SER H 4 -59.7 -32.3 N 34.22 CA 34.01 C 34.32 O 33.63 CB 34.89 OG 35.11
A LEU H 44 -91.0 -7.8 N 33.96 CA 34.67 C 34.68 O 35.11 CB 35.88 CG 37.45 CD1 38.11 CD2 37.02
A ALA S 0 -141.0 49.5 N 34.09 CA 34.65 C 34.1 O 33.71 CB 33.53
A THR H 2 -63.4 -46.7 N 32.79 CA 31.66 C 31.08 O 30.71 CB 31.84 OG1 31.05 CG2 32.39
A PRO H 12 -58.0 -40.3 N 30.38 CA 30.53 C 30.96 O 30.06 CB 30.89 CG 30.29 CD 30.51
A SER H 0 -67.9 -39.2 N 31.99 CA 33.05 C 33.25 O 32.32 CB 34.62 OG 37.1
A PHE H 4 -72.3 -38.0 N 33.58 CA 33.63 C 34.05 O 32.23 CB 34.44 CG 34.57 CD1 35.97 CD2 35.79 CE1 37.26 CE2 35.76 CZ 37.2
A ALA H 0 -61.6 -53.7 N 32.95 CA 32.96 C 33.14 O 32.15 CB 31.12
A VAL H 0 -61.5 -21.3 N 33.5 CA 34.67 C 35.64 O 35.52 CB 34.99 CG1 34.27 CG2 35.21
A ALA H 0 -74.7 -48.1 N 36.89 CA 38.14 C 38.5 O 38.36 CB 38.57
A GLU H 21 -65.2 -39.4 N 38.18 CA 39.53 C 39.1 O 38.73 CB 39.94 CG 40.79 CD 41.77 OE1 41.01 OE2 41.8
A LEU H 8 -64.0 -42.7 N 38.97 CA 39.29 C 40.38 O 39.8 CB 37.58 CG 35.79 CD1 34.48 CD2 35.73
A LEU H 2 -64.0 -36.0 N 41.44 CA 43.57 C 45.32 O 45.77 CB 42.26 CG 42.34 CD1 41.84 CD2 40.76
A LYS H 54 -61.1 -54.8 N 47.72 CA 49.77 C 51.36 O 51.18 CB 50.88 CG 51.99 CD 53.21 CE 54.07 NZ 54.28
A ASN H 60 -61.2 -35.7 N 53.02 CA 55.07 C 56.29 O 56.37 CB 56.12 CG 56.96 OD1 58.38 ND2 58.01
A GLU H 82 -74.3 -34.8 N 57.54 CA 59.34 C 60.65 O 60.72 CB 59.29 CG 60.74 CD 61.25 OE1 61.0 OE2 62.24
A LEU H 71 -80.2 -17.0 N 61.79 CA 62.97 C 64.36 O 64.3 CB 62.21 CG 62.44 CD1 62.07 CD2 62.36
A LEU T 133 -90.3 -1.4 N 65.83 CA 67.25 C 68.35 O 68.85 CB 67.14 CG 67.42 CD1 67.34 CD2 67.51
A GLU T 161 -71.3 -18.8 N 69.47 CA 70.79 C 71.35 O 71.69 CB 71.19 CG 72.2 CD 72.84 OE1 73.0 OE2 73.11
A HIS - 222 -67.4 360.0 N 72.01 CA 72.7 C 72.9 O 72.45 CB 73.5 CG 74.54 ND1 75.1 CD2 74.66 CE1 74.77 NE2 74.81
B ILE E 20 -107.9 139.7 N 21.13 CA 22.16 C 19.34 O 19.7 CB 22.57 CG1 27.41 CG2 26.43 CD1 26.16
B LEU E 0 -111.8 129.8 N 19.21 CA 19.42 C 19.03 O 20.47 CB 22.08 CG 23.69 CD1 26.02 CD2 26.35
B GLY E 0 -112.8 117.4 N 17.04 CA 15.9 C 15.09 O 18.04
B ILE E 0 -117.2 123.0 N 14.14 CA 13.13 C 14.2 O 16.62 CB 14.72 CG1 13.33 CG2 13.3 CD1 12.47
B ASP E 11 -114.2 108.6 N 13.82 CA 14.0 C 13.37 O 12.96 CB 13.93 CG 18.54 OD1 17.93 OD2 18.34
B ILE E 1 -94.3 108.0 N 13.79 CA 14.25 C 15.12 O 14.76 CB 16.22 CG1 17.76 CG2 15.73 CD1 23.52
B GLY - 9 -92.7 -177.3 N 16.57 CA 16.46 C 18.35 O 16.68
B GLY S 15 -63.0 -36.1 N 19.0 CA 21.18 C 21.91 O 21.45
B ALA S 28 -129.1 -23.2 N 20.99 CA 21.73 C 21.89 O 22.61 CB 22.59
B ASN E 78 -124.7 135.6 N 21.35 CA 21.55 C 21.01 O 19.49 CB 25.54 CG 28.28 OD1 29.13 ND2 28.84
B THR E 0 -109.8 139.0 N 19.19 CA 18.68 C 18.76 O 17.83 CB 19.26 OG1 19.53 CG2 19.0
B LYS E 44 -120.2 131.1 N 17.08 CA 18.25 C 17.69 O 18.04 CB 21.61 CG 27.15 CD 32.46 CE 35.95 NZ 38.91
B ILE E 3 -123.2 125.1 N 18.6 CA 18.28 C 20.49 O 20.61 CB 19.32 CG1 19.03 CG2 20.89 CD1 22.84
B THR E 0 -107.6 126.8 N 19.23 CA 18.85 C 16.69 O 17.08 CB 18.84 OG1 21.11 CG2 19.58
B GLU E 29 -101.6 112.2 N 16.56 CA 19.22 C 18.98 O 21.46 CB 21.56 CG 27.42 CD 31.08 OE1 32.44 OE2 34.31
B LEU E 11 -107.6 113.5 N 16.73 CA 18.06 C 18.28 O 18.26 CB 18.03 CG 17.31 CD1 19.5 CD2 19.55
B HIS - 61 -85.2 154.6 N 19.42 CA 20.5 C 20.62 O 18.27 CB 21.64 CG 23.38 ND1 23.83 CD2 25.8 CE1 24.43 NE2 23.09
B GLU T 187 -54.8 -31.1 N 20.87 CA 22.3 C 22.95 O 21.92 CB 24.04 CG 27.18 CD 30.53 OE1 31.65 OE2 31.93
B ASN T 111 -85.3 3.0 N 23.4 CA 24.85 C 24.9 O 25.29 CB 27.41 CG 29.59 OD1 27.08 ND2 31.36
B GLY S 42 96.4 -10.6 N 22.12 CA 23.64 C 22.66 O 21.87
B GLU - 131 -74.2 149.3 N 22.99 CA 22.85 C 22.22 O 19.16 CB 26.56 CG 31.85 CD 36.79 OE1 39.57 OE2 40.81
B PHE E 72 -148.6 161.1 N 22.25 CA 23.94 C 24.03 O 23.8 CB 25.47 CG 29.0 CD1 30.92 CD2 29.77 CE1 31.32 CE2 30.64 CZ 31.03
B LYS E 95 -144.3 139.4 N 23.37 CA 25.98 C 24.78 O 23.62 CB 28.04 CG 33.74 CD 36.79 CE 38.84 NZ 39.77
B VAL E 1 -112.5 130.0 N 26.22 CA 26.46 C 28.51 O 28.4 CB 26.59 CG1 25.13 CG2 24.84
B HIS E 65 -111.0 151.6 N 30.68 CA 33.9 C 35.61 O 31.47 CB 36.24 CG 39.87 ND1 41.11 CD2 40.68 CE1 42.0 NE2 41.76
B HIS E 94 -124.6 134.6 N 38.62 CA 42.85 C 44.09 O 44.42 CB 45.97 CG 48.88 ND1 50.23 CD2 50.57 CE1 51.06 NE2 51.17
B LEU E 30 -137.1 132.3 N 44.99 CA 46.4 C 45.8 O 43.72 CB 48.83 CG 51.53 CD1 52.69 CD2 52.24
B TYR E 146 -82.5 117.8 N 45.89 CA 45.86 C 43.85 O 42.46 CB 49.86 CG 53.85 CD1 55.55 CD2 55.42 CE1 57.49 CE2 57.16 CZ 57.84 OH 57.88
B PHE - 5 -146.4 96.0 N 41.02 CA 39.11 C 35.98 O 30.18 CB 42.44 CG 46.27 CD1 47.53 CD2 48.67 CE1 50.01 CE2 49.49 CZ 50.24
B PRO - 17 -66.1 118.1 N 34.1 CA 34.2 C 33.09 O 32.07 CB 33.96 CG 35.89 CD 35.34
B TRP T 124 -82.4 3.2 N 28.38 CA 27.84 C 27.34 O 27.19 CB 26.7 CG 26.78 CD1 24.98 CD2 26.31 NE1 26.3 CE2 25.58 CE3 27.46 CZ2 25.56 CZ3 26.85 CH2 27.07
B LYS S 125 -124.8 -172.3 N 24.94 CA 24.37 C 22.53 O 22.88 CB 24.2 CG 27.09 CD 31.11 CE 33.02 NZ 34.28
B ASN - 98 -57.8 154.3 N 20.18 CA 17.37 C 17.26 O 18.49 CB 16.28 CG 19.34 OD1 17.6 ND2 17.14
B ASN S 31 -97.6 11.8 N 17.37 CA 20.08 C 20.59 O 22.54 CB 19.41 CG 22.06 OD1 20.01 ND2 21.25
B ASP H 105 -54.5 -45.1 N 20.64 CA 21.98 C 21.77 O 22.73 CB 20.19 CG 21.1 OD1 22.91 OD2 20.59
B LYS H 92 -62.9 -42.1 N 22.52 CA 23.48 C 22.73 O 22.49 CB 24.82 CG 28.16 CD 31.74 CE 35.37 NZ 38.25
B LEU H 0 -63.1 -47.7 N 21.02 CA 21.16 C 21.96 O 22.07 CB 20.76 CG 20.84 CD1 20.4 CD2 21.58
B ALA H 9 -58.2 -43.8 N 22.32 CA 21.65 C 22.03 O 21.9 CB 21.72
B GLU H 122 -59.4 -48.3 N 23.11 CA 25.39 C 26.33 O 26.04 CB 30.12 CG 36.22 CD 39.85 OE1 43.44 OE2 42.19
B VAL H 30 -65.5 -43.1 N 24.22 CA 24.39 C 24.86 O 25.46 CB 24.12 CG1 25.77 CG2 25.15
B LEU H 1 -65.8 -27.9 N 22.39 CA 23.16 C 24.26 O 23.83 CB 21.92 CG 20.66 CD1 20.95 CD2 22.39
B LYS H 108 -67.6 -21.6 N 23.48 CA 25.5 C 26.01 O 27.08 CB 24.98 CG 27.87 CD 30.3 CE 32.04 NZ 33.17
B THR T 98 -69.6 -8.1 N 27.32 CA 29.02 C 29.74 O 30.84 CB 28.92 OG1 31.51 CG2 26.49
B TYR T 25 -108.2 -6.4 N 28.42 CA 27.8 C 27.47 O 25.64 CB 26.41 CG 26.32 CD1 26.9 CD2 26.99 CE1 25.51 CE2 26.21 CZ 27.22 OH 27.16
B SER T 62 -49.7 -43.9 N 28.92 CA 30.73 C 30.61 O 30.55 CB 32.59 OG 37.65
B ASN T 131 -98.6 14.5 N 32.44 CA 30.88 C 32.01 O 33.04 CB 33.94 CG 33.08 OD1 38.68 ND2 36.36
B ASP T 125 -131.0 -24.2 N 29.11 CA 28.47 C 27.89 O 28.32 CB 29.6 CG 31.59 OD1 32.1 OD2 33.76
B VAL - 8 -115.2 132.7 N 26.59 CA 24.91 C 27.4 O 27.05 CB 23.18 CG1 21.98 CG2 22.27
B SER - 59 -127.3 -8.0 N 25.95 CA 26.77 C 26.69 O 28.41 CB 27.7 OG 30.24
B HIS E 85 -110.4 106.7 N 23.96 CA 21.79 C 19.03 O 16.55 CB 24.68 CG 27.32 ND1 28.25 CD2 29.18 CE1 29.54 NE2 29.87
B VAL E 1 -131.0 131.1 N 18.98 CA 18.23 C 16.77 O 18.62 CB 19.81 CG1 19.24 CG2 20.54
B ALA E 0 -109.3 125.0 N 16.19 CA 15.86 C 15.99 O 15.29 CB 15.57
B LEU E 5 -123.0 131.2 N 14.25 CA 16.35 C 15.54 O 15.94 CB 17.98 CG 19.43 CD1 22.73 CD2 23.7
B VAL E 4 -137.9 143.1 N 16.54 CA 15.66 C 17.31 O 15.89 CB 15.01 CG1 14.09 CG2 15.87
B THR E 9 -120.8 117.5 N 18.8 CA 21.85 C 22.32 O 23.23 CB 23.41 OG1 25.64 CG2 23.7
B THR - 22 -104.9 6.8 N 23.5 CA 26.0 C 29.02 O 29.42 CB 25.64 OG1 25.67 CG2 24.81
B ALA - 20 -54.4 125.9 N 32.28 CA 36.66 C 39.72 O 38.52 CB 35.74
B GLU - 157 -109.1 -54.6 N 44.06 CA 49.15 C 50.98 O 52.74 CB 51.2 CG 54.75 CD 56.42 OE1 58.09 OE2 56.46
B LEU - 56 31.2 33.0 N 52.42 CA 52.44 C 52.43 O 53.16 CB 52.9 CG 53.04 CD1 53.44 CD2 52.14
B ALA S 83 24.9 -107.6 N 52.26 CA 51.34 C 50.56 O 50.92 CB 51.4
B ASP - 117 -93.8 101.0 N 48.4 CA 46.02 C 42.86 O 44.08 CB 48.94 CG 49.7 OD1 51.26 OD2 50.74
B SER - 33 -110.1 7.2 N 38.41 CA 34.32 C 30.05 O 29.43 CB 34.43 OG 34.07
B TYR S 229 53.5 30.3 N 27.19 CA 23.7 C 23.28 O 21.87 CB 22.65 CG 21.84 CD1 20.27 CD2 20.45 CE1 22.65 CE2 20.6 CZ 21.13 OH 21.42
B GLU S 40 -136.0 140.4 N 21.87 CA 22.19 C 21.7 O 19.97 CB 23.81 CG 25.6 CD 28.11 OE1 30.84 OE2 28.54
B THR - 90 -68.0 155.9 N 22.54 CA 24.21 C 25.95 O 24.13 CB 24.5 OG1 23.91 CG2 25.49
B LYS H 58 -66.1 -35.6 N 26.97 CA 29.35 C 28.33 O 29.08 CB 30.55 CG 35.19 CD 34.59 CE 36.31 NZ 32.01
B LYS H 108 -61.3 -48.0 N 27.36 CA 26.51 C 25.61 O 24.67 CB 28.38 CG 31.15 CD 32.88 CE 33.86 NZ 35.22
B GLU H 99 -65.7 -39.5 N 23.77 CA 24.01 C 22.36 O 22.15 CB 24.2 CG 26.04 CD 27.35 OE1 24.76 OE2 26.15
B GLY H 4 -61.2 -52.4 N 21.46 CA 22.86 C 22.17 O 23.03
B VAL H 7 -62.4 -48.1 N 21.54 CA 22.53 C 22.4 O 20.56 CB 23.55 CG1 26.2 CG2 23.19
B ASP H 31 -54.6 -44.9 N 21.03 CA 22.78 C 22.44 O 21.65 CB 25.98 CG 30.77 OD1 30.91 OD2 30.69
B ASN H 36 -62.4 -40.7 N 22.25 CA 23.23 C 22.12 O 20.74 CB 24.0 CG 27.55 OD1 28.43 ND2 27.93
B ILE H 6 -66.3 -52.9 N 22.64 CA 24.49 C 24.57 O 23.67 CB 27.27 CG1 30.47 CG2 29.12 CD1 33.43
B LEU H 3 -58.6 -35.4 N 26.11 CA 30.24 C 32.4 O 31.97 CB 30.82 CG 33.57 CD1 34.05 CD2 33.09
B ASN H 65 -71.7 -34.3 N 34.61 CA 37.75 C 36.62 O 36.67 CB 40.6 CG 44.58 OD1 45.97 ND2 46.6
B ALA H 1 -67.7 -41.4 N 35.39 CA 35.71 C 36.82 O 35.69 CB 35.83
B ALA H 0 -69.7 -42.1 N 36.39 CA 38.42 C 38.64 O 38.0 CB 36.5
B GLU H 54 -63.8 -33.4 N 40.09 CA 42.32 C 41.93 O 41.58 CB 45.1 CG 49.0 CD 51.94 OE1 52.13 OE2 54.19
B SER H 59 -70.4 -11.2 N 41.08 CA 40.64 C 39.86 O 38.59 CB 40.2 OG 38.41
B ALA H 4 -111.4 -33.6 N 38.61 CA 38.31 C 37.85 O 38.2 CB 38.5
B PHE H 12 -122.9 2.0 N 36.23 CA 35.24 C 36.15 O 33.6 CB 32.99 CG 29.6 CD1 28.84 CD2 27.24 CE1 26.53 CE2 25.66 CZ 26.09
B GLY T 30 59.2 -125.9 N 36.74 CA 38.69 C 38.94 O 39.82
B SER T 93 -90.0 -1.3 N 39.28 CA 40.27 C 39.13 O 39.06 CB 41.93 OG 45.4
B ASN - 92 -82.3 59.5 N 38.02 CA 37.24 C 36.31 O 36.59 CB 38.33 CG 40.68 OD1 41.44 ND2 40.44
B ILE - 6 -140.3 132.7 N 31.99 CA 29.87 C 27.6 O 28.87 CB 29.16 CG1 30.68 CG2 31.69 CD1 30.71
B SER E 38 -111.4 116.3 N 24.5 CA 22.0 C 20.95 O 19.02 CB 24.54 OG 27.04
B VAL E 2 -98.1 125.8 N 20.53 CA 20.47 C 20.26 O 20.1 CB 22.93 CG1 28.72 CG2 22.95
B PHE E 0 -83.8 108.4 N 19.0 CA 20.82 C 22.59 O 22.24 CB 21.81 CG 23.42 CD1 22.99 CD2 22.25 CE1 23.67 CE2 22.07 CZ 22.56
B ASP - 11 -84.1 174.8 N 23.32 CA 26.01 C 26.76 O 26.75 CB 27.25 CG 27.67 OD1 28.69 OD2 31.23
B SER T 37 -55.7 -26.9 N 27.6 CA 29.52 C 29.47 O 28.95 CB 30.29 OG 33.0
B ASN T 90 -82.6 -1.2 N 30.28 CA 30.85 C 30.24 O 30.4 CB 34.42 CG 37.0 OD1 39.09 ND2 37.19
B GLY S 3 82.3 18.4 N 28.4 CA 27.49 C 28.4 O 26.95
B ASN - 81 -115.2 150.9 N 27.45 CA 27.7 C 26.48 O 26.19 CB 29.48 CG 30.91 OD1 33.93 ND2 30.0
B PHE E 33 -86.8 131.2 N 24.43 CA 24.72 C 25.33 O 26.49 CB 22.65 CG 21.41 CD1 20.27 CD2 19.23 CE1 18.29 CE2 20.16 CZ 21.41
B ILE E 36 -129.2 163.7 N 24.49 CA 23.58 C 23.78 O 22.2 CB 24.73 CG1 24.04 CG2 23.16 CD1 26.46
B SER - 67 -71.2 164.7 N 24.83 CA 26.98 C 27.71 O 26.52 CB 28.28 OG 30.08
B LEU H 1 -59.4 -47.4 N 28.83 CA 29.86 C 29.98 O 29.97 CB 30.76 CG 32.25 CD1 30.63 CD2 33.11
B GLU H 102 -63.9 -36.6 N 31.23 CA 31.47 C 30.76 O 30.34 CB 31.02 CG 33.87 CD 36.45 OE1 37.7 OE2 36.44
B SER H 35 -66.4 -34.1 N 29.88 CA 29.13 C 29.16 O 28.83 CB 29.16 OG 29.98
B ALA H 0 -68.4 -45.8 N 28.8 CA 30.46 C 30.74 O 30.22 CB 28.7
B LYS H 50 -56.8 -52.8 N 33.26 CA 35.13 C 36.61 O 37.46 CB 36.36 CG 36.94 CD 38.23 CE 38.26 NZ 38.34
B THR H 104 -59.2 -51.1 N 37.94 CA 39.38 C 39.19 O 39.69 CB 40.2 OG1 41.95 CG2 41.14
B ASN T 82 -101.6 58.1 N 38.12 CA 37.07 C 35.11 O 36.13 CB 38.94 CG 39.98 OD1 41.31 ND2 38.9
B ASN G 20 -61.0 -30.7 N 34.04 CA 33.25 C 35.32 O 34.96 CB 32.02 CG 31.78 OD1 35.85 ND2 32.12
B LYS G 106 -114.1 22.7 N 37.13 CA 37.44 C 35.08 O 35.18 CB 39.19 CG 42.81 CD 45.75 CE 46.61 NZ 47.85
B VAL T 4 -91.0 -54.1 N 32.18 CA 31.51 C 32.18 O 31.7 CB 31.32 CG1 30.35 CG2 30.6
B SER - 43 -56.0 127.6 N 31.17 CA 31.63 C 30.33 O 29.84 CB 33.88 OG 39.32
B ALA - 10 -115.5 165.2 N 27.34 CA 26.05 C 24.77 O 24.12 CB 25.87
B SER - 41 -74.0 162.0 N 24.37 CA 23.25 C 23.26 O 22.52 CB 23.51 OG 23.46
B ASN T 56 -66.7 -21.7 N 20.77 CA 22.48 C 18.85 O 20.78 CB 25.67 CG 29.33 OD1 34.12 ND2 33.99
B TRP T 29 -100.5 -13.9 N 16.82 CA 16.2 C 16.22 O 15.15 CB 15.43 CG 16.38 CD1 16.45 CD2 16.58 NE1 17.02 CE2 15.11 CE3 15.53 CZ2 18.93 CZ3 18.37 CH2 18.6
B CYS H 19 -52.6 -57.9 N 14.89 CA 17.54 C 17.25 O 16.61 CB 18.46 SG 26.41
B GLY H 6 -61.8 -46.7 N 16.86 CA 17.41 C 16.32 O 16.86
B THR H 1 -56.7 -46.4 N 16.22 CA 14.4 C 14.08 O 13.89 CB 14.17 OG1 15.25 CG2 14.32
B ALA H 0 -63.8 -42.9 N 12.37 CA 12.19 C 14.54 O 13.69 CB 13.3
B LYS H 54 -65.9 -39.7 N 15.2 CA 14.59 C 15.1 O 15.4 CB 15.67 CG 17.31 CD 18.81 CE 19.5 NZ 20.28
B TRP H 1 -60.8 -43.6 N 13.05 CA 13.36 C 14.03 O 14.43 CB 14.06 CG 14.42 CD1 15.36 CD2 15.23 NE1 13.69 CE2 14.06 CE3 15.67 CZ2 14.27 CZ3 17.31 CH2 14.92
B VAL I 0 -60.0 -46.8 N 13.87 CA 14.09 C 14.33 O 15.39 CB 15.51 CG1 13.13 CG2 16.36
B SER I 3 -60.7 -26.5 N 13.91 CA 15.42 C 16.91 O 16.88 CB 15.03 OG 18.4
B LYS I 124 -96.5 -46.9 N 16.69 CA 17.18 C 16.96 O 18.22 CB 17.78 CG 17.85 CD 20.61 CE 22.67 NZ 22.76
B ASN I 49 -100.4 -14.4 N 15.43 CA 16.93 C 16.92 O 16.79 CB 17.06 CG 22.22 OD1 25.14 ND2 19.4
B ILE I 25 -115.8 -64.6 N 14.28 CA 15.66 C 17.06 O 17.88 CB 16.11 CG1 17.19 CG2 16.13 CD1 16.36
B GLU - 52 -150.8 137.3 N 17.76 CA 19.01 C 18.3 O 17.03 CB 19.92 CG 23.57 CD 26.38 OE1 22.42 OE2 24.09
B GLU S 107 -86.2 -16.5 N 17.13 CA 18.88 C 18.1 O 20.3 CB 19.8 CG 20.95 CD 22.39 OE1 23.52 OE2 23.21
B ASN S 58 -135.0 100.1 N 19.34 CA 19.37 C 18.74 O 19.04 CB 20.34 CG 22.75 OD1 24.96 ND2 20.16
B CYS E 0 -168.6 -173.7 N 17.3 CA 16.44 C 16.33 O 16.12 CB 14.62 SG 18.38
B ILE E 0 -128.4 124.5 N 16.01 CA 15.97 C 15.17 O 15.89 CB 16.63 CG1 19.79 CG2 17.5 CD1 21.2
B LEU E 0 -85.6 131.7 N 13.85 CA 12.91 C 14.75 O 13.75 CB 12.87 CG 13.64 CD1 17.03 CD2 15.49
B VAL E 0 -127.0 108.0 N 13.89 CA 14.8 C 16.27 O 15.31 CB 12.59 CG1 15.0 CG2 14.19
B ASP E 14 -116.9 112.6 N 14.39 CA 16.18 C 16.27 O 15.05 CB 18.67 CG 22.87 OD1 25.23 OD2 24.96
B GLY - 23 -97.6 -137.9 N 14.7 CA 17.36 C 16.41 O 17.33
B SER S 50 -82.1 -25.9 N 14.77 CA 15.46 C 13.33 O 12.98 CB 18.45 OG 20.37
B THR S 18 -126.1 -36.5 N 13.47 CA 14.11 C 14.43 O 14.07 CB 16.03 OG1 18.58 CG2 16.77
B THR - 26 -124.3 165.5 N 12.79 CA 15.11 C 15.1 O 16.33 CB 17.82 OG1 18.16 CG2 17.72
B THR E 0 -126.5 119.3 N 13.15 CA 14.69 C 15.2 O 15.83 CB 14.49 OG1 15.76 CG2 16.03
B ASP E 1 -98.9 130.3 N 13.26 CA 15.5 C 14.3 O 16.28 CB 14.88 CG 17.67 OD1 17.1 OD2 21.24
B ILE E 0 -121.5 97.4 N 13.83 CA 13.19 C 14.19 O 13.12 CB 13.02 CG1 13.09 CG2 12.67 CD1 17.01
B ILE E 0 -110.6 116.9 N 13.96 CA 13.32 C 15.97 O 15.5 CB 12.92 CG1 13.79 CG2 12.55 CD1 16.23
B PRO E 0 -77.1 141.3 N 15.33 CA 15.78 C 15.15 O 14.44 CB 15.72 CG 16.96 CD 16.79
B ILE E 3 -126.6 120.9 N 15.38 CA 16.31 C 16.11 O 15.31 CB 15.74 CG1 17.19 CG2 15.2 CD1 19.62
B VAL E 46 -126.5 123.7 N 17.98 CA 18.82 C 17.67 O 18.12 CB 20.33 CG1 21.91 CG2 21.79
B GLU T 139 50.5 45.1 N 20.54 CA 23.26 C 22.11 O 22.99 CB 26.31 CG 31.14 CD 34.65 OE1 38.39 OE2 39.71
B GLY T 14 72.5 12.9 N 21.19 CA 20.45 C 20.79 O 20.56
B LYS E 139 -123.1 134.8 N 20.17 CA 21.06 C 17.91 O 19.24 CB 23.76 CG 29.97 CD 31.8 CE 35.79 NZ 37.98
B VAL E 42 -81.0 124.4 N 18.01 CA 17.9 C 18.26 O 18.86 CB 17.32 CG1 16.74 CG2 16.23
B VAL - 38 -123.9 41.6 N 18.75 CA 19.26 C 20.46 O 19.98 CB 19.02 CG1 19.06 CG2 20.0
B ALA - 21 -76.8 160.3 N 21.16 CA 22.46 C 24.1 O 23.55 CB 20.96
B GLU - 44 -64.1 154.8 N 24.81 CA 27.51 C 27.65 O 25.5 CB 28.44 CG 31.43 CD 35.79 OE1 37.8 OE2 37.44
B LYS S 170 -66.0 -59.1 N 29.22 CA 31.83 C 31.47 O 34.45 CB 34.1 CG 39.44 CD 42.08 CE 43.17 NZ 44.96
B THR S 46 -96.4 162.2 N 27.66 CA 24.51 C 22.54 O 20.69 CB 24.17 OG1 23.46 CG2 25.25
B ASP H 73 -62.6 -39.3 N 20.51 CA 19.86 C 17.13 O 16.4 CB 21.06 CG 24.15 OD1 25.89 OD2 28.14
B LEU H 9 -58.1 -47.1 N 16.7 CA 15.28 C 14.41 O 13.56 CB 13.45 CG 16.47 CD1 11.25 CD2 15.46
B GLU H 60 -63.6 -34.9 N 16.09 CA 15.91 C 14.48 O 13.39 CB 19.27 CG 23.4 CD 27.38 OE1 28.55 OE2 29.6
B ARG H 3 -70.0 -36.3 N 13.16 CA 13.15 C 13.75 O 12.47 CB 16.04 CG 17.34 CD 22.97 NE 24.84 CZ 21.63 NH1 21.65 NH2 16.42
B LEU H 1 -64.5 -29.8 N 12.01 CA 12.38 C 13.99 O 13.56 CB 11.83 CG 10.68 CD1 9.4 CD2 9.52
B ASN T 63 -128.9 31.1 N 15.79 CA 16.28 C 17.35 O 16.9 CB 17.22 CG 19.49 OD1 23.32 ND2 20.93
B HIS T 43 55.2 27.0 N 16.71 CA 16.16 C 14.79 O 16.05 CB 19.42 CG 22.55 ND1 24.78 CD2 22.82 CE1 24.35 NE2 24.78
B GLU S 2 -103.4 -5.1 N 14.33 CA 14.14 C 13.04 O 13.44 CB 14.83 CG 15.9 CD 17.36 OE1 17.36 OE2 18.07
B LEU E 3 -141.1 124.1 N 13.05 CA 13.19 C 13.78 O 12.97 CB 12.83 CG 12.83 CD1 14.36 CD2 13.61
B LEU E 6 -129.5 125.6 N 13.13 CA 13.47 C 13.68 O 14.45 CB 14.05 CG 16.22 CD1 14.24 CD2 15.29
B TYR - 26 -83.7 64.6 N 12.16 CA 14.31 C 16.1 O 15.93 CB 15.93 CG 16.06 CD1 17.88 CD2 21.58 CE1 21.07 CE2 21.52 CZ 20.98 OH 26.42
B VAL - 0 -133.1 133.6 N 15.94 CA 15.87 C 15.25 O 14.43 CB 16.85 CG1 16.23 CG2 17.94
B GLY - 0 -134.3 169.6 N 15.73 CA 14.7 C 14.47 O 13.7
B THR S 0 -67.3 -29.6 N 13.34 CA 14.43 C 15.11 O 14.37 CB 15.73 OG1 15.08 CG2 14.25
B LEU S 2 -121.9 -48.6 N 13.65 CA 14.95 C 15.24 O 13.46 CB 16.42 CG 18.13 CD1 20.02 CD2 20.26
B ARG S 82 -86.2 1.2 N 14.78 CA 15.23 C 15.09 O 17.81 CB 16.61 CG 19.98 CD 23.21 NE 25.92 CZ 28.64 NH1 29.4 NH2 29.77
B THR - 0 -76.5 121.5 N 13.73 CA 15.05 C 14.79 O 15.67 CB 15.39 OG1 16.46 CG2 15.56
B PRO B 29 -60.3 135.4 N 14.02 CA 15.25 C 14.08 O 12.06 CB 14.25 CG 17.57 CD 16.03
B ILE G 4 -56.7 -36.7 N 14.75 CA 14.04 C 13.77 O 12.9 CB 18.08 CG1 20.87 CG2 19.62 CD1 23.08
B SER G 15 -67.7 -15.0 N 12.94 CA 14.45 C 14.06 O 12.41 CB 15.26 OG 15.97
B HIS G 4 -65.5 -26.6 N 12.7 CA 12.68 C 12.95 O 13.72 CB 11.65 CG 9.28 ND1 12.64 CD2 8.07 CE1 11.41 NE2 13.02
B LEU G 6 -73.4 -22.2 N 13.19 CA 11.63 C 12.68 O 14.1 CB 12.34 CG 16.21 CD1 15.09 CD2 16.49
B GLY - 18 165.7 137.4 N 12.37 CA 12.08 C 13.02 O 12.01
B ASN S 31 -87.4 3.5 N 9.89 CA 12.47 C 11.89 O 13.61 CB 12.21 CG 16.18 OD1 13.36 ND2 13.95
B THR E 42 -141.7 153.6 N 12.35 CA 12.7 C 13.24 O 13.95 CB 14.63 OG1 16.35 CG2 14.5
B ILE E 8 -149.1 147.3 N 12.26 CA 12.33 C 11.61 O 12.38 CB 13.2 CG1 15.34 CG2 14.12 CD1 14.76
B SER E 51 -73.1 128.9 N 11.85 CA 13.68 C 13.24 O 13.2 CB 16.13 OG 19.65
B PHE E 5 -141.7 122.6 N 12.55 CA 12.17 C 11.48 O 11.2 CB 12.85 CG 13.11 CD1 14.32 CD2 13.51 CE1 12.27 CE2 13.84 CZ 12.43
B LYS T 140 54.5 36.6 N 10.6 CA 11.3 C 11.55 O 12.98 CB 11.41 CG 14.53 CD 16.21 CE 15.82 NZ 16.76
B GLY T 70 83.8 -2.2 N 11.97 CA 14.54 C 16.65 O 16.92
B VAL E 62 -125.7 151.2 N 15.19 CA 15.63 C 13.59 O 13.82 CB 13.82 CG1 14.3 CG2 15.77
B ASP E 106 -68.5 120.1 N 13.54 CA 12.06 C 13.58 O 15.64 CB 13.25 CG 15.92 OD1 19.25 OD2 21.29
B THR E 0 -118.2 131.1 N 11.79 CA 11.29 C 9.76 O 11.49 CB 11.7 OG1 11.1 CG2 15.54
B ASN E 2 -72.7 155.5 N 11.66 CA 11.27 C 13.1 O 12.86 CB 11.97 CG 12.6 OD1 12.85 ND2 12.94
B VAL - 1 -127.0 158.0 N 12.36 CA 12.59 C 12.0 O 12.02 CB 13.59 CG1 16.53 CG2 15.21
B SER - 3 -67.4 148.3 N 11.99 CA 13.6 C 12.41 O 13.19 CB 15.43 OG 15.61
B SER - 9 -94.8 -9.9 N 13.53 CA 14.07 C 16.7 O 18.82 CB 11.65 OG 12.92
B GLU S 54 -63.3 150.1 N 19.33 CA 22.43 C 22.93 O 21.15 CB 25.16 CG 29.65 CD 32.44 OE1 32.98 OE2 35.18
B TYR S 113 -80.0 89.4 N 23.64 CA 23.46 C 25.16 O 26.98 CB 24.55 CG 25.45 CD1 26.1 CD2 26.85 CE1 26.33 CE2 26.68 CZ 26.81 OH 27.68
B PHE - 64 -118.7 -32.9 N 22.09 CA 21.67 C 18.54 O 17.43 CB 23.14 CG 28.49 CD1 28.53 CD2 30.14 CE1 33.04 CE2 31.95 CZ 29.43
B ALA - 3 -143.7 151.4 N 16.13 CA 14.48 C 15.09 O 13.42 CB 14.5
B ILE B 0 -132.1 174.2 N 14.77 CA 14.17 C 13.5 O 14.52 CB 13.9 CG1 14.79 CG2 15.01 CD1 15.34
B THR H 0 -58.7 -24.9 N 12.68 CA 14.33 C 14.1 O 13.48 CB 13.46 OG1 15.41 CG2 12.94
B ALA H 0 -59.5 -38.6 N 13.73 CA 15.4 C 15.19 O 13.93 CB 14.62
B ASP H 0 -62.3 -45.4 N 14.59 CA 15.21 C 15.37 O 15.84 CB 15.2 CG 18.4 OD1 21.2 OD2 16.96
B ILE H 1 -63.7 -44.2 N 14.18 CA 14.27 C 16.35 O 14.24 CB 14.93 CG1 16.43 CG2 14.38 CD1 17.14
B SER H 0 -60.1 -39.8 N 16.25 CA 17.51 C 18.05 O 18.39 CB 18.13 OG 18.13
B VAL H 10 -73.4 -44.1 N 18.88 CA 20.78 C 20.48 O 20.76 CB 22.11 CG1 25.26 CG2 22.48
B VAL H 15 -60.8 -36.1 N 19.04 CA 16.89 C 17.57 O 18.94 CB 18.64 CG1 20.24 CG2 18.75
B LEU T 34 -98.7 9.6 N 16.27 CA 16.86 C 17.28 O 15.97 CB 15.21 CG 17.65 CD1 15.85 CD2 16.15
B GLU T 167 57.2 42.8 N 19.24 CA 21.69 C 22.32 O 22.43 CB 24.29 CG 29.76 CD 31.65 OE1 34.9 OE2 34.6
B LYS S 47 -92.6 -17.1 N 21.61 CA 21.31 C 21.32 O 21.25 CB 19.94 CG 21.07 CD 21.68 CE 24.24 NZ 24.74
B VAL S 9 -143.5 161.0 N 22.64 CA 23.84 C 25.69 O 24.69 CB 25.12 CG1 25.55 CG2 26.05
B THR - 56 -87.2 162.2 N 26.32 CA 27.7 C 27.85 O 26.99 CB 25.99 OG1 26.88 CG2 27.15
B THR G 54 -58.2 -39.7 N 30.21 CA 33.14 C 33.27 O 32.86 CB 35.14 OG1 39.4 CG2 37.23
B GLU G 152 -63.0 -26.2 N 32.35 CA 33.22 C 31.13 O 30.48 CB 36.38 CG 39.8 CD 41.9 OE1 42.64 OE2 43.18
B GLU G 29 -83.6 -1.1 N 29.5 CA 27.24 C 26.41 O 23.58 CB 28.66 CG 30.94 CD 33.24 OE1 33.09 OE2 34.06
B TYR - 10 -87.6 77.1 N 24.17 CA 24.72 C 25.64 O 26.75 CB 21.98 CG 21.18 CD1 21.68 CD2 17.88 CE1 19.0 CE2 19.07 CZ 18.08 OH 18.35
B THR - 112 -86.4 -19.6 N 27.32 CA 28.41 C 29.04 O 31.7 CB 28.49 OG1 27.78 CG2 28.21
B CYS S 28 -78.4 163.0 N 28.16 CA 26.94 C 26.19 O 25.01 CB 25.84 SG 23.1
B ASP - 144 -66.6 149.0 N 26.65 CA 26.7 C 25.85 O 23.63 CB 29.9 CG 33.04 OD1 35.71 OD2 35.75
B THR - 16 -79.9 149.1 N 24.37 CA 23.31 C 22.28 O 21.19 CB 23.96 OG1 25.04 CG2 24.45
B PRO T 31 -54.4 -38.7 N 19.01 CA 20.87 C 21.09 O 21.96 CB 18.36 CG 17.27 CD 18.72
B ASP T 45 -101.4 3.7 N 22.04 CA 24.43 C 24.97 O 25.17 CB 22.59 CG 20.6 OD1 22.1 OD2 19.55
B GLY S 66 76.9 8.2 N 26.4 CA 28.42 C 29.2 O 28.62
B LYS - 138 -94.9 -168.7 N 28.24 CA 28.45 C 26.87 O 28.92 CB 29.29 CG 32.44 CD 34.63 CE 36.69 NZ 39.09
B GLY - 32 -58.2 161.7 N 25.86 CA 25.64 C 27.25 O 25.19
B THR - 40 -101.6 4.2 N 27.12 CA 27.0 C 26.8 O 25.56 CB 29.12 OG1 29.64 CG2 28.54
B ASP S 66 -68.2 167.1 N 25.94 CA 27.29 C 27.95 O 26.39 CB 28.92 CG 29.72 OD1 30.18 OD2 32.33
B LYS H 89 -60.3 -42.4 N 28.42 CA 28.72 C 27.1 O 23.9 CB 30.58 CG 35.18 CD 38.53 CE 39.26 NZ 39.29
B ARG H 112 -59.4 -49.8 N 26.68 CA 26.43 C 25.32 O 23.19 CB 29.72 CG 31.42 CD 32.82 NE 33.95 CZ 34.56 NH1 35.42 NH2 34.64
B SER H 22 -62.8 -32.9 N 22.67 CA 20.47 C 18.96 O 16.17 CB 22.1 OG 22.82
B SER H 0 -69.7 -40.5 N 18.01 CA 18.16 C 17.66 O 16.73 CB 19.36 OG 21.58
B LEU H 0 -66.2 -33.1 N 16.24 CA 16.73 C 17.15 O 15.77 CB 16.51 CG 16.13 CD1 16.42 CD2 15.86
B VAL H 44 -64.6 -43.3 N 14.72 CA 16.97 C 16.3 O 16.12 CB 18.51 CG1 18.68 CG2 19.44
B ARG H 0 -68.3 -41.9 N 15.97 CA 14.99 C 13.07 O 13.39 CB 13.67 CG 16.09 CD 14.4 NE 16.34 CZ 17.65 NH1 18.17 NH2 16.96
B ILE H 1 -60.5 -39.0 N 14.1 CA 15.3 C 16.2 O 14.79 CB 17.24 CG1 16.32 CG2 16.24 CD1 17.19
B SER H 0 -61.1 -29.8 N 14.89 CA 16.12 C 15.35 O 14.34 CB 15.18 OG 18.38
B LYS H 58 -67.4 -21.1 N 15.07 CA 16.1 C 15.94 O 16.82 CB 14.24 CG 18.61 CD 20.0 CE 23.45 NZ 23.12
B VAL T 7 -63.5 -25.3 N 17.54 CA 17.75 C 16.35 O 15.24 CB 20.99 CG1 20.99 CG2 20.25
B LEU T 0 -109.9 27.8 N 13.45 CA 12.74 C 13.67 O 12.64 CB 15.47 CG 12.71 CD1 19.96 CD2 16.32
B CYS T 33 49.7 40.1 N 15.1 CA 14.72 C 13.54 O 13.32 CB 16.71 SG 20.38
B SER - 8 -129.3 -164.0 N 14.83 CA 15.46 C 15.79 O 14.27 CB 15.98 OG 18.03
B ASP - 68 -161.1 169.9 N 16.59 CA 16.68 C 17.32 O 15.73 CB 19.99 CG 23.67 OD1 20.84 OD2 29.78
B LEU T 27 -71.6 10.5 N 16.12 CA 18.96 C 21.0 O 21.79 CB 16.86 CG 16.73 CD1 18.42 CD2 19.26
B ASP T 156 -100.1 -27.6 N 22.13 CA 22.46 C 21.66 O 23.49 CB 25.46 CG 29.68 OD1 30.64 OD2 32.74
B GLN T 75 -94.1 -41.3 N 18.86 CA 16.07 C 16.44 O 16.63 CB 17.01 CG 16.14 CD 17.49 OE1 16.94 NE2 17.9
B ILE S 7 -116.5 165.4 N 14.61 CA 15.11 C 14.69 O 14.88 CB 15.45 CG1 14.87 CG2 15.38 CD1 14.93
B SER - 51 -93.5 173.0 N 13.69 CA 13.53 C 13.21 O 12.8 CB 11.49 OG 11.84
B GLU H 74 -63.5 -39.8 N 13.78 CA 13.93 C 11.85 O 13.41 CB 13.94 CG 21.36 CD 25.77 OE1 27.13 OE2 28.47
B ILE H 102 -60.5 -44.2 N 12.76 CA 12.12 C 13.34 O 13.35 CB 13.76 CG1 11.44 CG2 14.6 CD1 12.59
B ASP H 26 -57.1 -49.1 N 11.77 CA 13.5 C 12.12 O 11.97 CB 13.95 CG 15.37 OD1 15.45 OD2 14.69
B ALA H 0 -63.3 -38.0 N 12.76 CA 12.65 C 13.08 O 11.87 CB 12.3
B GLU H 42 -69.0 -30.3 N 11.65 CA 12.46 C 11.24 O 11.71 CB 13.98 CG 15.12 CD 19.72 OE1 21.19 OE2 21.22
B ASN H 60 -69.7 -33.8 N 9.81 CA 11.92 C 11.17 O 11.14 CB 10.52 CG 12.35 OD1 11.6 ND2 13.41
B ILE H 1 -64.2 -45.0 N 13.32 CA 13.69 C 14.58 O 13.56 CB 12.27 CG1 14.13 CG2 12.2 CD1 14.0
B ALA H 1 -62.0 -43.7 N 12.55 CA 14.01 C 13.42 O 13.14 CB 15.27
B LYS H 106 -63.8 -41.9 N 11.45 CA 13.41 C 12.73 O 14.8 CB 13.36 CG 15.85 CD 19.9 CE 21.94 NZ 24.37
B ASN H 57 -65.5 -38.1 N 14.09 CA 13.44 C 13.58 O 12.92 CB 14.61 CG 17.58 OD1 20.88 ND2 17.66
B TYR H 1 -71.1 -32.0 N 12.53 CA 12.48 C 13.07 O 12.88 CB 12.61 CG 11.95 CD1 14.02 CD2 12.49 CE1 12.83 CE2 14.84 CZ 16.47 OH 17.43
B TYR H 12 -62.4 -37.5 N 12.34 CA 13.55 C 13.29 O 12.91 CB 15.08 CG 16.55 CD1 18.22 CD2 17.95 CE1 18.81 CE2 19.4 CZ 18.76 OH 21.95
B GLU H 106 -64.7 -42.6 N 13.1 CA 13.85 C 14.25 O 14.21 CB 16.56 CG 21.14 CD 23.72 OE1 23.68 OE2 24.38
B LEU H 64 -64.9 -40.9 N 14.18 CA 14.13 C 12.09 O 13.38 CB 15.02 CG 16.77 CD1 15.41 CD2 16.6
B TRP H 0 -61.9 -49.6 N 11.8 CA 12.96 C 13.52 O 12.78 CB 12.41 CG 11.93 CD1 11.83 CD2 12.31 NE1 13.98 CE2 12.65 CE3 15.07 CZ2 14.76 CZ3 14.67 CH2 13.83
B LYS H 41 -61.8 -38.1 N 12.67 CA 14.29 C 12.67 O 14.01 CB 15.3 CG 15.38 CD 17.73 CE 17.83 NZ 20.13
B GLU H 86 -65.9 -37.9 N 14.1 CA 14.79 C 14.48 O 14.27 CB 17.48 CG 23.91 CD 28.64 OE1 31.17 OE2 31.08
B LEU H 17 -63.1 -45.5 N 13.11 CA 14.43 C 14.46 O 13.33 CB 16.78 CG 21.53 CD1 20.54 CD2 22.62
B ILE H 0 -61.9 -49.8 N 12.2 CA 13.31 C 14.14 O 15.49 CB 12.85 CG1 12.52 CG2 13.33 CD1 15.85
B LEU H 29 -57.4 -51.1 N 13.08 CA 15.3 C 15.19 O 16.38 CB 14.32 CG 15.95 CD1 17.4 CD2 17.54
B GLU H 91 -55.5 -43.9 N 15.79 CA 17.92 C 15.95 O 15.05 CB 20.77 CG 29.45 CD 31.68 OE1 36.91 OE2 36.13
B ASN H 5 -66.9 -46.0 N 13.0 CA 14.38 C 15.6 O 14.14 CB 14.71 CG 18.11 OD1 18.13 ND2 15.04
B VAL H 0 -64.2 -41.1 N 13.16 CA 13.79 C 15.82 O 16.7 CB 13.53 CG1 15.4 CG2 15.3
B GLU H 74 -59.3 -41.5 N 14.29 CA 19.04 C 18.28 O 18.58 CB 20.53 CG 25.21 CD 27.69 OE1 27.61 OE2 29.62
B ASN H 61 -63.7 -41.9 N 17.9 CA 19.89 C 19.15 O 18.73 CB 22.12 CG 27.63 OD1 30.79 ND2 27.66
B VAL H 3 -69.3 -39.0 N 18.15 CA 18.66 C 19.66 O 20.2 CB 18.06 CG1 20.24 CG2 18.29
B ALA H 7 -66.1 -42.5 N 20.33 CA 22.68 C 24.98 O 26.87 CB 22.46
B GLU H 141 -63.7 -33.3 N 25.3 CA 28.07 C 27.7 O 29.21 CB 29.64 CG 33.35 CD 35.1 OE1 36.62 OE2 38.66
B LYS H 122 -71.2 -40.1 N 26.0 CA 26.68 C 26.77 O 25.39 CB 25.73 CG 29.06 CD 30.73 CE 33.18 NZ 36.09
B TYR H 68 -98.2 -9.5 N 26.71 CA 28.11 C 28.36 O 29.64 CB 26.83 CG 25.69 CD1 25.6 CD2 24.38 CE1 24.71 CE2 24.38 CZ 25.56 OH 25.69
B GLY T 59 66.7 32.5 N 28.87 CA 30.16 C 31.44 O 30.83
B SER - 18 -104.6 138.3 N 32.29 CA 32.77 C 32.16 O 33.16 CB 34.39 OG 38.75
B LYS - 139 -109.1 -7.9 N 30.47 CA 29.8 C 26.78 O 27.35 CB 33.02 CG 36.16 CD 38.74 CE 40.72 NZ 41.69
B LYS E 67 -95.9 131.9 N 23.8 CA 21.88 C 20.04 O 21.08 CB 23.25 CG 25.83 CD 28.69 CE 33.17 NZ 36.28
B VAL E 0 -127.4 136.2 N 19.28 CA 18.36 C 17.94 O 18.35 CB 19.74 CG1 19.56 CG2 22.55
B VAL E 0 -108.2 117.1 N 16.72 CA 15.25 C 15.79 O 16.99 CB 13.08 CG1 15.07 CG2 15.94
B ILE E 0 -105.7 153.8 N 16.85 CA 15.76 C 16.72 O 15.69 CB 16.71 CG1 17.08 CG2 17.3 CD1 17.58
B THR E 0 -163.8 170.0 N 17.03 CA 16.71 C 17.09 O 16.0 CB 16.99 OG1 16.3 CG2 18.44
B GLY S 6 102.6 166.5 N 16.73 CA 17.65 C 18.52 O 15.98
B LEU T 32 -55.3 -29.4 N 18.34 CA 20.06 C 18.64 O 18.29 CB 20.82 CG 23.46 CD1 25.32 CD2 24.44
B GLY T 0 -85.1 17.1 N 17.89 CA 17.62 C 17.56 O 16.83
B GLU H 7 -52.3 -38.0 N 16.47 CA 16.14 C 16.93 O 16.05 CB 17.31 CG 16.62 CD 17.64 OE1 17.36 OE2 18.14
B ASN H 72 -63.8 -35.5 N 17.13 CA 17.51 C 17.89 O 18.8 CB 19.78 CG 21.96 OD1 24.67 ND2 21.32
B ILE H 0 -74.8 -42.5 N 15.76 CA 16.11 C 15.41 O 18.39 CB 16.88 CG1 17.02 CG2 16.58 CD1 21.17
B LEU H 0 -61.5 -39.2 N 16.23 CA 15.25 C 15.74 O 16.31 CB 14.5 CG 13.73 CD1 14.24 CD2 15.99
B LYS H 81 -60.9 -39.6 N 18.3 CA 20.48 C 20.39 O 21.95 CB 23.44 CG 27.87 CD 32.4 CE 35.04 NZ 35.63
B ASP H 63 -71.2 -46.8 N 19.1 CA 18.53 C 16.7 O 17.08 CB 20.66 CG 24.25 OD1 23.76 OD2 24.74
B ALA H 10 -66.5 -37.2 N 16.9 CA 17.4 C 17.64 O 17.12 CB 16.39
B LEU T 0 -105.9 29.5 N 16.42 CA 16.63 C 17.85 O 16.9 CB 15.64 CG 15.76 CD1 16.62 CD2 18.26
B ALA T 69 -54.9 -30.7 N 19.62 CA 22.34 C 24.22 O 25.26 CB 23.63
B ASP T 158 -78.9 -8.0 N 23.73 CA 24.22 C 23.09 O 22.99 CB 25.93 CG 29.19 OD1 31.2 OD2 30.46
B PHE S 36 -91.9 172.2 N 21.47 CA 20.49 C 21.36 O 19.8 CB 21.59 CG 20.05 CD1 20.53 CD2 21.21 CE1 20.03 CE2 22.13 CZ 22.48
B GLU E 96 -87.3 101.6 N 22.09 CA 23.5 C 21.5 O 21.6 CB 25.03 CG 32.66 CD 35.52 OE1 37.73 OE2 39.16
B VAL E 54 -92.2 132.2 N 20.51 CA 22.05 C 21.89 O 24.76 CB 20.88 CG1 22.35 CG2 21.9
B ILE E 27 -116.7 116.1 N 19.5 CA 19.99 C 20.11 O 18.61 CB 20.95 CG1 24.92 CG2 21.83 CD1 26.09
B SER E 6 -96.6 124.7 N 18.43 CA 17.82 C 18.5 O 17.01 CB 18.61 OG 17.45
B VAL H 2 -65.9 -39.8 N 18.02 CA 18.75 C 17.76 O 19.09 CB 17.48 CG1 18.7 CG2 14.7
B ALA H 26 -60.0 -41.0 N 17.87 CA 20.58 C 22.6 O 22.06 CB 20.22
B GLU H 165 -70.7 -41.3 N 23.22 CA 25.38 C 25.57 O 24.99 CB 28.15 CG 34.34 CD 37.81 OE1 38.89 OE2 41.24
B ARG H 132 -81.1 -30.5 N 25.05 CA 26.6 C 27.21 O 27.57 CB 26.33 CG 29.45 CD 29.86 NE 30.69 CZ 30.38 NH1 30.51 NH2 28.56
B TYR H 51 -125.4 -4.9 N 26.42 CA 27.21 C 28.57 O 30.58 CB 25.65 CG 23.69 CD1 24.17 CD2 23.14 CE1 24.08 CE2 23.35 CZ 24.14 OH 21.53
B GLY - 30 101.2 158.2 N 27.9 CA 28.42 C 27.37 O 25.76
B LYS H 116 -57.0 -45.4 N 28.39 CA 29.84 C 29.18 O 26.11 CB 31.66 CG 35.44 CD 36.84 CE 38.35 NZ 39.7
B ASP H 79 -55.9 -44.1 N 28.01 CA 28.29 C 25.39 O 24.76 CB 32.12 CG 35.68 OD1 40.87 OD2 38.12
B VAL H 0 -66.3 -38.2 N 23.62 CA 21.06 C 19.63 O 16.94 CB 21.45 CG1 20.01 CG2 21.51
B SER H 4 -63.1 -30.7 N 18.57 CA 20.43 C 21.04 O 19.96 CB 20.87 OG 23.25
B LEU T 64 -95.5 8.0 N 22.79 CA 25.35 C 25.94 O 27.63 CB 28.22 CG 31.58 CD1 32.47 CD2 32.75
B ALA S 5 -158.9 46.5 N 24.24 CA 22.24 C 19.62 O 18.73 CB 22.81
B THR H 3 -59.2 -40.3 N 18.27 CA 15.57 C 14.8 O 16.13 CB 19.15 OG1 19.18 CG2 19.28
B PRO H 21 -52.8 -47.0 N 15.47 CA 15.34 C 15.68 O 16.08 CB 14.7 CG 15.8 CD 14.73
B SER H 0 -64.8 -39.2 N 14.4 CA 15.92 C 15.02 O 12.16 CB 17.26 OG 21.44
B PHE H 0 -68.6 -44.1 N 13.51 CA 14.33 C 14.4 O 12.63 CB 14.09 CG 14.82 CD1 14.24 CD2 16.15 CE1 16.39 CE2 14.84 CZ 15.86
B ALA H 0 -56.9 -46.3 N 12.45 CA 14.4 C 13.93 O 12.77 CB 14.5
B VAL H 0 -71.5 -27.3 N 13.84 CA 13.94 C 13.68 O 12.53 CB 14.56 CG1 15.66 CG2 13.75
B ALA H 0 -66.5 -43.2 N 12.4 CA 12.44 C 12.52 O 13.03 CB 13.92
B GLU H 16 -67.3 -40.5 N 12.29 CA 13.83 C 14.46 O 15.36 CB 13.67 CG 16.32 CD 17.32 OE1 19.73 OE2 17.26
B LEU H 9 -64.4 -34.8 N 14.74 CA 14.94 C 16.63 O 16.74 CB 14.0 CG 16.44 CD1 16.6 CD2 16.88
B LEU H 5 -69.5 -41.4 N 16.02 CA 17.87 C 18.22 O 19.62 CB 16.86 CG 20.79 CD1 22.59 CD2 20.98
B LYS H 56 -57.6 -43.1 N 20.5 CA 22.77 C 22.61 O 21.25 CB 25.95 CG 32.65 CD 32.67 CE 33.46 NZ 34.57
B ASN H 41 -56.3 -51.2 N 22.04 CA 22.98 C 24.84 O 24.02 CB 20.3 CG 19.8 OD1 18.92 ND2 18.61
B GLU H 107 -61.3 -35.7 N 25.72 CA 30.39 C 30.77 O 31.65 CB 33.21 CG 39.08 CD 43.43 OE1 45.46 OE2 45.61
B LEU H 50 -69.0 -46.3 N 31.02 CA 33.17 C 35.14 O 33.83 CB 32.32 CG 33.1 CD1 32.59 CD2 32.7
B LEU H 100 -69.8 -12.3 N 36.84 CA 41.23 C 43.85 O 43.98 CB 39.38 CG 39.75 CD1 39.93 CD2 39.99
B GLU T 138 -49.3 -29.8 N 47.94 CA 53.15 C 55.91 O 57.05 CB 54.56 CG 56.83 CD 58.08 OE1 59.79 OE2 58.35
B HIS T 175 -142.5 64.2 N 58.67 CA 60.45 C 60.96 O 61.27 CB 62.01 CG 63.93 ND1 64.59 CD2 64.46 CE1 64.62 NE2 64.76
B HIS - 183 -120.0 360.0 N 60.96 CA 61.51 C 62.13 O 62.64 CB 61.55 CG 62.05 ND1 62.25 CD2 62.14 CE1 62.31 NE2 62.63
