A MET - 85 360.0 -86.0 N 24.29 CA 24.31 C 20.91 O 21.03 CB 27.5 CG 27.05 SD 34.94 CE 36.75
A TYR - 11 -127.6 99.0 N 18.83 CA 16.34 C 13.75 O 13.48 CB 18.49 CG 18.16 CD1 18.45 CD2 18.72 CE1 20.22 CE2 20.93 CZ 21.84 OH 26.73
A THR E 4 -81.8 130.4 N 12.56 CA 11.07 C 10.55 O 11.91 CB 12.69 OG1 13.91 CG2 12.94
A VAL E 1 -140.8 162.7 N 9.55 CA 9.47 C 9.4 O 9.1 CB 10.15 CG1 11.83 CG2 8.38
A MET E 0 -96.1 129.8 N 10.7 CA 11.8 C 11.27 O 12.12 CB 14.79 CG 17.82 SD 18.66 CE 24.1
A LEU E 2 -118.6 125.6 N 11.22 CA 11.79 C 13.35 O 14.41 CB 11.92 CG 13.12 CD1 14.7 CD2 15.49
A ASP - 49 -80.1 107.9 N 14.79 CA 16.7 C 17.47 O 18.3 CB 19.1 CG 21.82 OD1 22.3 OD2 25.17
A LEU - 4 -106.0 -3.6 N 18.61 CA 20.74 C 23.76 O 26.17 CB 21.81 CG 20.49 CD1 22.79 CD2 20.7
A LYS T 150 -57.2 108.2 N 33.31 CA 37.0 C 38.05 O 40.17 CB 41.98 CG 47.19 CD 53.86 CE 59.01 NZ 63.24
A GLY T 62 84.2 4.5 N 37.16 CA 38.86 C 35.73 O 37.97
A ARG - 56 -95.9 157.8 N 31.18 CA 28.24 C 25.04 O 23.58 CB 26.47 CG 29.66 CD 33.15 NE 32.18 CZ 35.73 NH1 39.43 NH2 35.46
A SER - 46 -78.2 118.9 N 24.13 CA 22.1 C 18.34 O 17.61 CB 23.57 OG 23.23
A VAL E 3 -117.7 119.4 N 16.68 CA 13.93 C 13.51 O 13.97 CB 13.15 CG1 10.65 CG2 13.78
A LEU E 4 -105.1 126.9 N 13.01 CA 13.07 C 11.81 O 11.56 CB 14.6 CG 15.25 CD1 16.61 CD2 16.87
A VAL E 0 -106.6 116.0 N 11.77 CA 11.51 C 12.98 O 13.71 CB 11.34 CG1 11.45 CG2 10.35
A VAL E 3 -97.0 100.7 N 13.62 CA 15.51 C 16.66 O 17.46 CB 16.86 CG1 19.18 CG2 16.27
A GLY - 5 133.8 167.4 N 17.4 CA 18.76 C 18.29 O 16.83
A GLY - 7 -155.3 1.9 N 20.16 CA 20.59 C 22.36 O 23.46
A GLY S 45 -83.4 -148.0 N 23.72 CA 26.02 C 25.1 O 22.56
A THR H 112 -75.9 -40.2 N 27.84 CA 28.69 C 26.86 O 26.03 CB 33.28 OG1 36.2 CG2 35.83
A ILE H 45 -59.1 -50.3 N 26.75 CA 25.2 C 21.15 O 20.12 CB 26.45 CG1 31.59 CG2 25.65 CD1 34.15
A ALA H 1 -52.5 -46.9 N 19.5 CA 16.69 C 16.37 O 15.04 CB 16.58
A THR H 14 -61.2 -43.2 N 18.2 CA 18.78 C 19.22 O 18.89 CB 21.41 OG1 21.59 CG2 22.64
A ARG H 153 -60.8 -49.7 N 20.66 CA 22.44 C 20.26 O 20.91 CB 25.13 CG 30.08 CD 35.24 NE 37.34 CZ 40.53 NH1 42.46 NH2 41.74
A ARG H 60 -54.5 -50.8 N 13.14 CA 10.67 C 9.84 O 9.88 CB 9.46 CG 11.06 CD 12.44 NE 14.9 CZ 17.49 NH1 18.16 NH2 20.68
A ILE H 0 -61.2 -44.9 N 9.76 CA 10.09 C 12.79 O 13.1 CB 10.56 CG1 9.15 CG2 10.94 CD1 10.49
A LYS H 157 -52.3 -46.5 N 15.4 CA 19.3 C 18.57 O 20.31 CB 23.14 CG 29.58 CD 35.25 CE 42.83 NZ 47.46
A GLY H 40 -51.4 -53.3 N 16.68 CA 16.62 C 16.02 O 18.49
A PHE H 3 -105.5 15.6 N 13.73 CA 14.15 C 15.38 O 15.89 CB 12.54 CG 10.04 CD1 8.53 CD2 9.32 CE1 7.44 CE2 7.62 CZ 7.06
A LEU G 41 -53.3 -46.1 N 17.22 CA 19.97 C 23.61 O 25.25 CB 22.33 CG 21.55 CD1 25.52 CD2 21.35
A GLN G 140 -65.3 -7.0 N 26.21 CA 30.61 C 30.36 O 34.7 CB 34.12 CG 37.15 CD 43.19 OE1 44.07 NE2 46.97
A GLU G 29 -88.8 6.6 N 26.6 CA 27.23 C 29.2 O 30.67 CB 23.78 CG 22.97 CD 26.98 OE1 29.38 OE2 28.9
A GLY - 37 100.7 0.4 N 30.24 CA 32.76 C 29.82 O 32.26
A ALA - 34 51.2 -141.4 N 25.52 CA 22.94 C 23.17 O 24.15 CB 24.18
A ALA - 55 73.0 57.5 N 23.17 CA 22.72 C 18.56 O 18.64 CB 26.39
A ILE E 8 -94.6 127.5 N 16.06 CA 12.98 C 13.73 O 15.38 CB 11.4 CG1 11.22 CG2 9.25 CD1 10.25
A THR E 32 -124.0 133.6 N 13.02 CA 13.96 C 12.51 O 11.68 CB 16.5 OG1 18.68 CG2 18.24
A VAL E 0 -113.4 128.6 N 13.07 CA 12.91 C 15.76 O 17.88 CB 13.0 CG1 13.09 CG2 11.75
A VAL E 3 -118.8 109.8 N 9.28 CA 12.02 C 14.45 O 15.16 CB 13.29 CG1 16.91 CG2 11.91
A ALA - 7 -157.5 156.5 N 16.3 CA 19.84 C 22.62 O 21.35 CB 19.1
A PRO S 92 -56.3 -52.1 N 27.3 CA 30.56 C 29.02 O 28.76 CB 36.08 CG 36.4 CD 30.61
A THR S 114 -119.9 149.2 N 28.6 CA 27.28 C 23.54 O 22.99 CB 31.54 OG1 36.25 CG2 31.08
A VAL - 13 -119.5 177.8 N 21.41 CA 19.24 C 20.98 O 23.7 CB 15.88 CG1 14.62 CG2 16.05
A SER - 22 -90.1 166.3 N 19.87 CA 21.95 C 21.67 O 19.5 CB 22.23 OG 19.81
A ALA H 64 -53.2 -43.6 N 24.5 CA 25.33 C 23.64 O 23.44 CB 29.28
A GLU H 102 -64.4 -43.0 N 23.01 CA 21.91 C 18.65 O 18.87 CB 22.55 CG 27.13 CD 29.56 OE1 28.51 OE2 33.67
A ILE H 0 -65.5 -41.3 N 16.38 CA 13.97 C 14.65 O 14.26 CB 12.38 CG1 11.76 CG2 10.51 CD1 11.06
A ASN H 57 -56.4 -48.2 N 16.36 CA 17.81 C 19.7 O 20.21 CB 19.65 CG 19.09 OD1 18.96 ND2 19.57
A GLU H 120 -58.3 -44.5 N 21.33 CA 23.96 C 23.13 O 25.59 CB 26.38 CG 27.38 CD 30.25 OE1 32.1 OE2 30.75
A TRP H 40 -64.1 -42.6 N 20.55 CA 19.87 C 19.18 O 20.85 CB 17.2 CG 18.68 CD1 22.12 CD2 16.59 NE1 22.57 CE2 19.46 CE3 13.72 CZ2 19.52 CZ3 14.54 CH2 17.36
A GLU H 62 -55.6 -48.3 N 17.39 CA 17.5 C 21.07 O 22.62 CB 16.05 CG 17.1 CD 17.12 OE1 17.76 OE2 16.7
A ALA H 86 -64.8 -26.2 N 18.85 CA 22.71 C 25.65 O 29.35 CB 24.62
A LYS T 153 -89.1 2.7 N 25.44 CA 29.37 C 29.98 O 34.07 CB 30.92 CG 32.41 CD 38.86 CE 42.44 NZ 49.3
A GLY T 71 79.5 20.1 N 27.25 CA 29.05 C 28.62 O 31.96
A GLN S 93 -91.6 -26.8 N 25.72 CA 26.45 C 23.82 O 25.91 CB 26.87 CG 30.19 CD 34.25 OE1 38.26 NE2 34.91
A LEU - 11 -141.7 154.9 N 20.31 CA 18.03 C 17.49 O 17.54 CB 15.49 CG 16.27 CD1 19.69 CD2 14.17
A ARG E 201 -105.6 139.0 N 17.85 CA 18.07 C 15.32 O 14.68 CB 22.52 CG 27.49 CD 34.36 NE 41.35 CZ 48.48 NH1 49.88 NH2 54.79
A VAL E 21 -113.8 149.9 N 14.62 CA 13.62 C 16.92 O 19.82 CB 12.25 CG1 12.31 CG2 10.36
A LYS E 91 -130.6 106.2 N 17.49 CA 21.33 C 21.18 O 20.68 CB 24.7 CG 27.14 CD 33.16 CE 36.41 NZ 41.02
A ARG - 120 -80.0 83.1 N 22.7 CA 24.32 C 29.46 O 34.31 CB 25.38 CG 21.57 CD 22.29 NE 19.54 CZ 17.42 NH1 16.77 NH2 16.3
A LYS S 60 -145.7 168.8 N 34.64 CA 34.18 C 33.15 O 32.27 CB 31.96 CG 28.52 CD 26.78 CE 26.3 NZ 24.52
A LYS - 186 -75.3 125.7 N 33.82 CA 32.18 C 28.42 O 28.12 CB 34.83 CG 39.73 CD 43.24 CE 48.45 NZ 51.41
A VAL - 19 -55.2 136.0 N 25.73 CA 22.38 C 22.1 O 23.27 CB 20.49 CG1 21.31 CG2 18.07
A GLY - 10 -131.2 174.8 N 20.81 CA 20.76 C 18.47 O 17.32
A GLU G 131 -56.4 -20.6 N 18.49 CA 16.96 C 16.39 O 15.31 CB 18.02 CG 19.66 CD 21.14 OE1 20.85 OE2 22.57
A GLU G 106 -73.2 -20.5 N 17.43 CA 17.66 C 16.82 O 16.91 CB 19.63 CG 20.32 CD 21.96 OE1 21.51 OE2 24.57
A ASP G 10 -83.3 -18.6 N 16.16 CA 15.77 C 14.42 O 14.09 CB 15.97 CG 17.79 OD1 17.74 OD2 18.72
A LEU S 14 -100.6 19.8 N 14.1 CA 13.27 C 13.7 O 13.39 CB 12.95 CG 13.58 CD1 14.37 CD2 13.58
A LEU S 117 -92.0 131.1 N 15.04 CA 16.18 C 16.66 O 17.53 CB 17.94 CG 18.06 CD1 20.1 CD2 17.96
A ASN S 144 44.5 38.7 N 16.98 CA 17.91 C 17.17 O 19.01 CB 20.65 CG 21.93 OD1 21.73 ND2 23.53
A VAL - 7 -92.2 124.8 N 14.99 CA 14.3 C 13.77 O 13.12 CB 12.92 CG1 12.91 CG2 13.29
A PHE S 8 -65.2 -47.3 N 14.72 CA 14.55 C 12.64 O 11.79 CB 16.76 CG 17.57 CD1 18.71 CD2 18.01 CE1 19.89 CE2 19.11 CZ 19.79
A PHE E 0 -138.0 123.2 N 11.93 CA 10.88 C 10.2 O 11.25 CB 11.89 CG 11.01 CD1 9.8 CD2 12.4 CE1 10.03 CE2 12.19 CZ 11.08
A ILE E 0 -110.9 128.9 N 8.92 CA 8.86 C 9.03 O 8.56 CB 8.55 CG1 8.84 CG2 8.29 CD1 7.09
A VAL E 0 -110.2 112.0 N 10.18 CA 10.91 C 12.06 O 13.29 CB 12.08 CG1 12.88 CG2 11.57
A VAL E 3 -93.9 87.4 N 12.37 CA 14.2 C 16.13 O 16.63 CB 14.04 CG1 16.06 CG2 12.46
A ALA - 7 -74.6 -36.5 N 17.62 CA 20.04 C 22.75 O 24.44 CB 20.98
A THR - 41 -60.4 156.1 N 25.64 CA 25.93 C 25.74 O 24.56 CB 24.09 OG1 26.42 CG2 19.71
A ASN - 133 -96.7 -2.6 N 28.77 CA 31.08 C 30.47 O 33.48 CB 36.59 CG 40.18 OD1 40.21 ND2 44.83
A ASP - 89 -69.4 27.7 N 28.29 CA 30.07 C 29.82 O 30.65 CB 29.86 CG 34.92 OD1 34.67 OD2 39.9
A GLN T 163 55.8 -59.7 N 30.16 CA 33.41 C 31.06 O 30.19 CB 40.79 CG 44.37 CD 51.5 OE1 51.29 NE2 58.82
A ALA H 67 -75.7 -40.0 N 30.95 CA 29.66 C 23.31 O 21.77 CB 34.07
A VAL H 36 -63.5 -49.4 N 20.9 CA 16.71 C 14.38 O 12.58 CB 17.26 CG1 15.22 CG2 21.12
A ASN H 35 -54.2 -45.5 N 15.77 CA 16.04 C 16.92 O 16.19 CB 19.92 CG 19.95 OD1 21.27 ND2 20.36
A LYS H 134 -61.4 -51.9 N 19.78 CA 22.38 C 18.52 O 18.82 CB 28.11 CG 33.85 CD 41.28 CE 49.82 NZ 60.88
A PHE H 56 -51.7 -51.4 N 16.36 CA 14.08 C 11.03 O 11.2 CB 14.23 CG 13.87 CD1 17.19 CD2 11.16 CE1 17.83 CE2 12.2 CZ 15.39
A VAL H 0 -59.9 -51.7 N 9.48 CA 8.3 C 10.01 O 9.97 CB 8.48 CG1 9.32 CG2 8.47
A LYS H 115 -53.1 -38.9 N 12.84 CA 17.23 C 18.58 O 21.27 CB 21.69 CG 28.71 CD 35.67 CE 41.74 NZ 50.18
A GLN H 126 -77.7 -17.2 N 17.97 CA 20.52 C 17.51 O 20.3 CB 22.97 CG 28.74 CD 34.51 OE1 32.81 NE2 42.45
A HIS H 77 -116.1 5.7 N 13.13 CA 11.64 C 11.23 O 11.54 CB 10.49 CG 12.84 ND1 14.13 CD2 15.88 CE1 17.73 NE2 18.65
A ILE S 32 -97.6 155.3 N 23.29 CA 20.66 C 21.78 O 23.12 CB 17.0 CG1 16.71 CG2 16.68 CD1 13.32
A LYS - 174 -68.4 168.8 N 21.85 CA 23.36 C 20.92 O 17.96 CB 25.27 CG 30.46 CD 34.76 CE 41.75 NZ 46.43
A ASN T 141 -58.7 -41.3 N 22.62 CA 21.55 C 18.92 O 17.27 CB 24.94 CG 28.36 OD1 28.32 ND2 32.5
A ASP T 87 -100.8 10.6 N 19.1 CA 17.74 C 15.31 O 14.93 CB 21.08 CG 24.02 OD1 23.16 OD2 28.55
A GLN - 25 -56.8 119.1 N 14.15 CA 12.1 C 9.57 O 9.01 CB 12.08 CG 11.58 CD 12.93 OE1 15.9 NE2 11.91
A LEU E 4 -67.9 121.1 N 8.88 CA 7.51 C 6.82 O 6.92 CB 8.07 CG 10.37 CD1 11.32 CD2 10.93
A VAL E 5 -145.6 126.4 N 6.93 CA 7.53 C 8.39 O 9.33 CB 8.99 CG1 9.88 CG2 9.43
A ASN E 9 -96.1 120.0 N 8.93 CA 11.2 C 13.94 O 13.63 CB 11.05 CG 14.04 OD1 15.83 ND2 15.51
A MET - 68 -122.9 360.0 N 17.14 CA 21.23 C 26.06 O 30.07 CB 22.34 CG 20.02 SD 25.47 CE 21.29
A ASP - 174 360.0 -127.4 N 35.89 CA 31.43 C 26.38 O 27.32 CB 30.61 CG 36.35 OD1 41.87 OD2 36.57
A GLY - 14 78.5 162.3 N 21.95 CA 17.54 C 16.59 O 19.45
A ASN S 1 -129.6 10.1 N 13.51 CA 13.22 C 12.29 O 12.21 CB 12.17 CG 9.87 OD1 8.86 ND2 9.44
A ILE E 9 -131.3 120.3 N 12.0 CA 11.75 C 14.07 O 14.52 CB 9.79 CG1 8.0 CG2 10.33 CD1 9.08
A GLN E 97 -103.7 144.2 N 16.56 CA 19.4 C 18.37 O 17.42 CB 24.07 CG 29.12 CD 36.74 OE1 37.57 NE2 41.63
A ILE - 42 -109.5 111.7 N 14.45 CA 13.44 C 12.88 O 13.47 CB 14.24 CG1 14.5 CG2 13.43 CD1 15.48
A PRO - 15 -77.0 155.3 N 11.91 CA 11.62 C 11.8 O 11.81 CB 11.04 CG 10.44 CD 10.98
A ALA E 37 -53.4 134.2 N 12.5 CA 13.03 C 11.98 O 11.24 CB 13.87
A GLN E 22 -160.0 168.5 N 12.22 CA 11.59 C 12.22 O 13.02 CB 11.0 CG 11.56 CD 11.77 OE1 12.06 NE2 11.86
A PHE E 20 -149.2 164.1 N 11.98 CA 12.67 C 12.37 O 12.09 CB 13.47 CG 13.43 CD1 14.67 CD2 12.65 CE1 14.03 CE2 12.49 CZ 13.55
A SER E 16 -131.9 159.4 N 12.77 CA 12.96 C 13.82 O 14.2 CB 13.33 OG 14.59
A ARG E 41 -130.9 84.2 N 14.14 CA 14.94 C 15.68 O 15.96 CB 15.14 CG 14.24 CD 14.99 NE 16.05 CZ 17.42 NH1 19.19 NH2 17.67
A GLY T 42 62.7 -124.4 N 16.45 CA 17.49 C 16.89 O 16.11
A ARG T 53 -69.8 -22.1 N 17.81 CA 17.77 C 16.43 O 16.14 CB 19.72 CG 22.22 CD 25.25 NE 28.45 CZ 31.24 NH1 30.59 NH2 33.75
A LEU E 1 -73.5 131.6 N 15.51 CA 14.6 C 13.56 O 13.64 CB 14.51 CG 13.64 CD1 12.56 CD2 13.63
A SER E 7 -138.0 142.1 N 12.92 CA 12.04 C 11.72 O 12.07 CB 12.17 OG 12.45
A LEU E 3 -127.4 128.7 N 11.19 CA 11.21 C 11.1 O 11.64 CB 11.59 CG 12.22 CD1 13.46 CD2 12.79
A ALA E 3 -120.8 144.7 N 10.69 CA 10.15 C 10.38 O 10.1 CB 9.67
A ILE E 1 -129.7 133.2 N 10.74 CA 11.8 C 12.5 O 12.78 CB 12.53 CG1 12.16 CG2 13.42 CD1 11.92
A SER E 23 -144.4 162.2 N 13.58 CA 14.77 C 16.18 O 16.38 CB 14.09 OG 14.29
A THR - 2 -125.9 22.3 N 20.57 CA 20.91 C 24.39 O 24.75 CB 18.63 OG1 18.43 CG2 16.16
A ASP T 116 48.2 47.6 N 27.58 CA 31.48 C 30.62 O 31.97 CB 34.52 CG 40.65 OD1 42.99 OD2 44.05
A GLY T 49 69.6 2.3 N 28.63 CA 28.29 C 25.76 O 26.12
A ALA S 2 -65.3 -43.3 N 23.97 CA 22.07 C 19.77 O 19.67 CB 21.69
A SER - 6 -146.8 84.1 N 18.33 CA 16.96 C 16.7 O 15.34 CB 15.47 OG 15.37
A PRO H 64 -60.7 -27.1 N 18.4 CA 18.63 C 17.03 O 16.53 CB 21.68 CG 22.61 CD 20.67
A LEU H 45 -69.7 -37.0 N 16.87 CA 16.32 C 14.37 O 14.38 CB 17.76 CG 20.51 CD1 22.04 CD2 21.29
A LEU H 6 -60.6 -44.7 N 13.09 CA 11.94 C 11.41 O 11.14 CB 11.78 CG 11.55 CD1 10.51 CD2 11.69
A THR H 12 -57.9 -42.3 N 12.09 CA 12.51 C 12.59 O 12.47 CB 14.2 OG1 14.64 CG2 15.4
A LYS H 120 -59.4 -44.0 N 13.3 CA 14.26 C 13.26 O 13.51 CB 16.21 CG 18.51 CD 21.79 CE 25.21 NZ 26.29
A ARG H 98 -66.8 -44.3 N 12.69 CA 12.79 C 11.67 O 12.05 CB 13.63 CG 15.02 CD 17.51 NE 18.73 CZ 21.24 NH1 23.04 NH2 22.53
A ILE H 2 -63.1 -41.5 N 10.75 CA 10.22 C 10.26 O 10.29 CB 10.44 CG1 10.4 CG2 10.46 CD1 10.51
A LYS H 77 -55.2 -48.3 N 10.87 CA 11.98 C 12.15 O 12.55 CB 13.32 CG 15.24 CD 17.65 CE 19.77 NZ 23.71
A GLU H 95 -56.8 -53.5 N 12.54 CA 13.74 C 13.52 O 14.02 CB 14.92 CG 17.51 CD 20.22 OE1 20.08 OE2 23.9
A ASP H 64 -58.4 -42.0 N 13.12 CA 13.96 C 13.28 O 14.21 CB 14.31 CG 16.37 OD1 17.65 OD2 17.21
A LEU H 6 -72.2 -30.9 N 12.39 CA 12.55 C 13.02 O 13.74 CB 12.13 CG 12.85 CD1 12.18 CD2 14.15
A SER H 30 -68.0 -36.6 N 13.1 CA 14.11 C 14.87 O 15.42 CB 14.8 OG 15.39
A SER H 94 -62.7 -49.1 N 15.56 CA 17.74 C 18.08 O 19.55 CB 18.8 OG 22.28
A ASN H 113 -75.2 -24.2 N 21.82 CA 21.74 C 19.42 O 19.25 CB 23.63 CG 27.59 OD1 31.06 ND2 28.33
A TYR S 16 -119.6 100.1 N 17.91 CA 15.87 C 15.37 O 15.61 CB 15.52 CG 15.87 CD1 17.74 CD2 14.81 CE1 19.59 CE2 16.41 CZ 18.92 OH 21.39
A ASP - 82 -98.7 -169.9 N 14.85 CA 14.8 C 13.93 O 13.14 CB 16.14 CG 16.13 OD1 14.52 OD2 18.09
A GLU T 105 -70.0 -11.3 N 14.65 CA 14.63 C 14.01 O 14.27 CB 16.59 CG 17.36 CD 17.68 OE1 17.91 OE2 18.27
A SER H 29 -59.7 -29.2 N 13.63 CA 13.03 C 11.87 O 11.74 CB 13.32 OG 13.04
A TYR H 24 -72.3 -18.2 N 11.14 CA 10.84 C 11.6 O 11.9 CB 10.75 CG 11.18 CD1 10.9 CD2 10.88 CE1 11.88 CE2 11.33 CZ 12.81 OH 14.99
A THR H 44 -67.7 -55.1 N 12.41 CA 13.89 C 14.4 O 15.06 CB 15.55 OG1 14.75 CG2 17.72
A GLN H 68 -79.5 -19.0 N 14.42 CA 15.2 C 13.69 O 14.61 CB 16.93 CG 17.35 CD 16.52 OE1 19.22 NE2 13.13
A TYR H 3 -69.9 -47.1 N 12.08 CA 11.27 C 11.18 O 11.39 CB 10.78 CG 9.86 CD1 9.84 CD2 9.94 CE1 9.22 CE2 9.62 CZ 10.2 OH 11.89
A THR H 0 -70.2 -28.4 N 11.4 CA 12.49 C 14.08 O 15.12 CB 12.69 OG1 14.2 CG2 11.58
A GLN H 94 -62.8 -46.5 N 15.1 CA 17.29 C 17.02 O 18.33 CB 18.89 CG 21.71 CD 26.64 OE1 27.05 NE2 29.57
A PHE H 2 -56.2 -45.0 N 15.45 CA 15.05 C 14.7 O 15.66 CB 13.78 CG 13.08 CD1 13.41 CD2 10.28 CE1 14.12 CE2 10.85 CZ 13.03
A LEU H 1 -61.2 -44.2 N 13.58 CA 13.84 C 15.9 O 16.84 CB 13.0 CG 12.11 CD1 10.98 CD2 11.34
A TYR H 93 -60.3 -45.0 N 17.17 CA 20.05 C 21.66 O 23.53 CB 21.58 CG 26.12 CD1 29.35 CD2 29.42 CE1 33.41 CE2 33.44 CZ 35.67 OH 41.36
A GLU H 75 -61.0 -41.0 N 21.56 CA 23.35 C 22.8 O 24.93 CB 23.45 CG 24.96 CD 25.88 OE1 25.41 OE2 28.04
A CYS H 0 -64.1 -42.8 N 5.98 CA 5.95 C 6.05 O 6.2 CB 6.33 SG 6.75
A ARG H 65 -60.2 -47.4 N 6.54 CA 7.63 C 8.45 O 9.25 CB 8.58 CG 10.5 CD 13.47 NE 15.88 CZ 18.98 NH1 20.13 NH2 20.92
A VAL H 19 -62.2 -50.3 N 8.42 CA 9.96 C 10.1 O 11.72 CB 10.38 CG1 12.71 CG2 10.65
A LEU H 78 -58.4 -45.0 N 9.28 CA 9.97 C 10.11 O 11.38 CB 9.63 CG 10.45 CD1 10.08 CD2 12.35
A ILE H 1 -66.6 -46.9 N 9.33 CA 9.95 C 11.68 O 12.79 CB 9.14 CG1 8.38 CG2 9.44 CD1 6.89
A HIS H 96 -46.7 -44.5 N 12.38 CA 14.79 C 16.59 O 18.65 CB 15.32 CG 18.7 ND1 20.93 CD2 20.31 CE1 23.86 NE2 24.16
A ARG H 183 -74.1 -20.2 N 16.4 CA 18.76 C 19.5 O 22.28 CB 18.89 CG 19.62 CD 19.09 NE 19.68 CZ 19.73 NH1 20.09 NH2 20.2
A LEU - 20 -56.7 142.6 N 17.48 CA 18.16 C 20.4 O 20.72 CB 16.13 CG 15.33 CD1 16.01 CD2 12.79
A ASN - 170 -105.4 70.4 N 22.59 CA 25.22 C 24.47 O 26.32 CB 28.96 CG 31.19 OD1 32.52 ND2 32.88
A VAL S 24 -142.8 151.9 N 22.13 CA 20.98 C 20.75 O 20.53 CB 19.04 CG1 17.77 CG2 19.61
A SER - 64 -62.1 155.3 N 21.08 CA 21.84 C 20.49 O 18.57 CB 23.15 OG 22.01
A LYS H 191 -51.6 -40.4 N 22.07 CA 21.67 C 20.57 O 19.55 CB 24.61 CG 25.85 CD 30.57 CE 32.57 NZ 36.09
A SER H 93 -60.3 -46.7 N 21.17 CA 20.87 C 18.53 O 18.32 CB 22.72 OG 23.58
A ARG H 106 -71.0 -41.1 N 17.09 CA 15.56 C 13.92 O 13.45 CB 15.59 CG 17.1 CD 17.76 NE 17.53 CZ 18.89 NH1 21.13 NH2 18.94
A LYS H 46 -56.7 -44.7 N 18.8 CA 17.21 C 16.59 O 15.53 CB 17.27 CG 17.92 CD 17.89 CE 19.88 NZ 21.15
A HIS H 118 -67.0 -35.4 N 17.53 CA 18.01 C 17.71 O 17.23 CB 20.19 CG 22.63 ND1 25.11 CD2 24.39 CE1 26.89 NE2 26.83
A GLU H 124 -61.6 -48.4 N 18.46 CA 18.71 C 16.38 O 15.61 CB 20.98 CG 23.18 CD 26.51 OE1 28.5 OE2 26.94
A LEU H 8 -66.7 -36.8 N 15.54 CA 14.29 C 12.86 O 12.06 CB 14.7 CG 16.48 CD1 16.72 CD2 16.86
A LEU H 46 -70.2 -37.3 N 12.88 CA 12.55 C 12.78 O 12.6 CB 13.31 CG 13.66 CD1 13.84 CD2 13.84
A THR H 67 -68.7 -40.3 N 13.52 CA 14.51 C 13.57 O 13.7 CB 16.52 OG1 18.01 CG2 18.43
A GLU H 74 -55.0 -42.8 N 13.37 CA 13.33 C 11.84 O 11.59 CB 13.97 CG 15.24 CD 18.69 OE1 20.59 OE2 18.96
A ILE T 3 -81.7 6.7 N 10.7 CA 10.06 C 10.32 O 10.2 CB 9.93 CG1 9.92 CG2 9.53 CD1 8.9
A ILE - 13 -107.1 80.5 N 11.14 CA 12.17 C 12.91 O 14.52 CB 13.34 CG1 12.78 CG2 14.93 CD1 11.19
A ASP S 55 -162.5 170.2 N 12.3 CA 13.24 C 12.46 O 11.22 CB 14.33 CG 14.07 OD1 14.6 OD2 14.56
A ASP H 92 -55.4 -32.4 N 13.16 CA 12.8 C 11.93 O 11.88 CB 13.83 CG 15.62 OD1 14.84 OD2 17.56
A GLN H 105 -69.1 -33.4 N 11.97 CA 12.08 C 11.38 O 11.91 CB 13.64 CG 15.12 CD 18.1 OE1 18.8 NE2 20.31
A TYR H 8 -71.8 -32.2 N 10.5 CA 9.89 C 9.94 O 10.71 CB 9.4 CG 9.92 CD1 10.21 CD2 9.44 CE1 11.33 CE2 11.48 CZ 12.4 OH 14.85
A ARG H 40 -72.1 -32.7 N 9.38 CA 9.57 C 9.33 O 9.63 CB 9.56 CG 10.32 CD 9.86 NE 10.97 CZ 10.46 NH1 10.1 NH2 8.85
A LEU H 108 -120.7 11.0 N 8.96 CA 8.75 C 8.54 O 8.34 CB 8.45 CG 8.57 CD1 9.02 CD2 8.6
A SER - 36 -131.7 114.9 N 8.68 CA 8.83 C 9.4 O 9.8 CB 8.62 OG 8.03
A LEU H 85 -73.1 -35.6 N 9.82 CA 10.34 C 10.51 O 11.08 CB 10.36 CG 11.25 CD1 11.09 CD2 11.04
A VAL H 90 -55.3 -49.3 N 10.57 CA 10.67 C 10.62 O 11.18 CB 10.97 CG1 10.91 CG2 11.2
A LYS H 57 -56.1 -49.2 N 10.09 CA 10.32 C 10.33 O 10.55 CB 9.71 CG 10.54 CD 10.95 CE 11.82 NZ 12.45
A GLN H 9 -61.8 -53.3 N 10.02 CA 10.24 C 11.06 O 11.61 CB 9.92 CG 9.04 CD 9.19 OE1 8.8 NE2 8.61
A ARG H 157 -62.3 -39.1 N 11.32 CA 11.89 C 12.37 O 12.84 CB 12.07 CG 12.47 CD 12.88 NE 13.11 CZ 12.96 NH1 12.41 NH2 12.82
A GLU H 114 -67.8 -36.5 N 12.33 CA 13.19 C 13.25 O 13.97 CB 13.27 CG 13.43 CD 14.49 OE1 14.55 OE2 16.38
A PHE H 3 -64.5 -43.8 N 12.84 CA 13.19 C 13.49 O 14.13 CB 12.38 CG 12.91 CD1 13.05 CD2 13.01 CE1 14.1 CE2 13.22 CZ 14.0
A LEU H 45 -62.0 -35.2 N 13.04 CA 13.35 C 14.31 O 14.69 CB 12.67 CG 12.25 CD1 11.64 CD2 11.62
A GLN H 114 -64.1 -46.0 N 12.49 CA 15.67 C 13.37 O 15.68 CB 19.19 CG 25.88 CD 31.99 OE1 30.36 NE2 39.72
A GLN H 80 -53.8 -52.2 N 10.56 CA 10.2 C 9.7 O 12.16 CB 9.03 CG 10.62 CD 11.94 OE1 11.09 NE2 14.59
A ILE H 5 -79.0 -12.5 N 7.47 CA 7.63 C 10.52 O 12.28 CB 5.43 CG1 3.74 CG2 4.78 CD1 0.62
A GLU H 145 -76.7 -25.5 N 12.58 CA 17.49 C 21.73 O 26.19 CB 20.36 CG 27.3 CD 34.96 OE1 35.31 OE2 40.85
A LYS - 159 -81.4 -19.5 N 21.2 CA 26.0 C 27.6 O 33.31 CB 25.9 CG 28.23 CD 28.47 CE 35.32 NZ 34.95
A TYR - 110 -76.8 360.0 N 23.89 CA 26.39 C 29.78 O 28.52 CB 23.05 CG 21.12 CD1 23.98 CD2 17.37 CE1 23.39 CE2 17.52 CZ 20.53 OH 21.61
B MET - 30 360.0 172.5 N 16.99 CA 16.33 C 15.28 O 15.2 CB 16.37 CG 17.23 SD 19.04 CE 20.1
B TYR E 5 -113.5 147.1 N 14.55 CA 13.9 C 13.21 O 13.32 CB 14.23 CG 13.93 CD1 14.69 CD2 14.21 CE1 15.15 CE2 14.26 CZ 14.94 OH 15.65
B THR E 0 -91.2 133.3 N 12.66 CA 12.3 C 12.52 O 12.9 CB 12.37 OG1 11.71 CG2 11.38
B VAL E 0 -148.0 156.5 N 12.21 CA 12.34 C 12.54 O 12.34 CB 12.67 CG1 12.44 CG2 11.53
B MET E 9 -96.0 122.8 N 13.0 CA 13.44 C 13.17 O 13.47 CB 14.42 CG 15.77 SD 16.76 CE 15.98
B LEU E 1 -94.8 122.5 N 13.04 CA 13.18 C 13.65 O 13.53 CB 12.93 CG 13.34 CD1 14.5 CD2 12.64
B ASP - 52 -89.0 103.0 N 14.23 CA 14.87 C 14.61 O 14.55 CB 15.99 CG 17.18 OD1 16.87 OD2 18.88
B LEU - 0 -90.2 -1.4 N 14.49 CA 14.43 C 15.28 O 15.23 CB 13.96 CG 13.61 CD1 13.13 CD2 12.37
B LYS T 152 -50.8 118.1 N 16.38 CA 17.61 C 17.72 O 17.93 CB 19.0 CG 21.03 CD 23.66 CE 26.26 NZ 28.36
B GLY T 69 68.2 24.4 N 17.48 CA 17.65 C 17.02 O 17.47
B ARG - 61 -113.7 146.6 N 15.69 CA 15.11 C 14.41 O 14.08 CB 14.57 CG 15.62 CD 16.88 NE 19.02 CZ 20.1 NH1 19.5 NH2 20.56
B SER E 42 -73.5 133.6 N 14.39 CA 14.34 C 13.87 O 13.82 CB 15.01 OG 15.74
B VAL E 2 -126.9 121.4 N 13.46 CA 13.38 C 14.02 O 14.35 CB 13.23 CG1 13.08 CG2 12.43
B LEU E 5 -103.4 120.1 N 14.46 CA 15.2 C 15.73 O 15.95 CB 15.61 CG 16.56 CD1 16.39 CD2 16.69
B VAL E 0 -102.6 111.1 N 16.28 CA 17.0 C 18.35 O 18.56 CB 17.41 CG1 18.29 CG2 16.25
B VAL E 1 -88.8 116.2 N 19.12 CA 20.75 C 22.25 O 22.33 CB 21.35 CG1 23.16 CG2 20.34
B GLY - 4 114.6 160.2 N 23.4 CA 24.94 C 24.87 O 23.45
B GLY - 12 -148.9 28.9 N 15.65 CA 15.41 C 16.3 O 17.7
B GLY S 38 -96.2 -136.5 N 16.89 CA 18.93 C 18.97 O 17.71
B THR H 107 -81.1 -44.6 N 21.43 CA 22.63 C 20.98 O 20.23 CB 27.59 OG1 29.18 CG2 30.75
B ILE H 45 -63.8 -43.8 N 21.17 CA 20.49 C 16.25 O 15.32 CB 23.55 CG1 29.18 CG2 24.69 CD1 33.34
B ALA H 0 -61.1 -43.8 N 14.37 CA 11.8 C 11.02 O 10.05 CB 11.63
B THR H 7 -59.6 -48.8 N 12.4 CA 13.39 C 14.04 O 13.96 CB 16.08 OG1 15.93 CG2 18.31
B ARG H 142 -61.1 -45.7 N 15.52 CA 17.14 C 14.8 O 15.12 CB 20.72 CG 23.79 CD 31.27 NE 34.54 CZ 37.4 NH1 38.11 NH2 39.95
B ARG H 42 -58.8 -48.0 N 13.02 CA 11.72 C 10.32 O 10.32 CB 11.58 CG 14.46 CD 16.75 NE 20.66 CZ 24.53 NH1 24.03 NH2 29.78
B ILE H 0 -59.7 -46.3 N 10.13 CA 10.56 C 12.21 O 12.85 CB 11.57 CG1 10.69 CG2 13.89 CD1 11.57
B LYS H 114 -40.7 -45.2 N 13.89 CA 16.64 C 16.01 O 18.06 CB 19.1 CG 23.6 CD 26.55 CE 32.0 NZ 33.24
B GLY H 41 -58.0 -33.8 N 17.38 CA 16.82 C 15.72 O 16.15
B PHE H 0 -122.9 17.5 N 14.59 CA 13.81 C 13.73 O 13.24 CB 12.72 CG 12.34 CD1 11.89 CD2 12.58 CE1 11.73 CE2 12.62 CZ 12.34
B LEU T 25 -68.4 -31.5 N 14.51 CA 14.67 C 15.15 O 14.82 CB 15.41 CG 15.71 CD1 14.81 CD2 17.42
B GLN T 173 -97.1 23.4 N 15.92 CA 16.88 C 16.47 O 17.72 CB 18.56 CG 19.73 CD 21.63 OE1 22.07 NE2 22.75
B GLU S 34 -101.4 -4.0 N 14.85 CA 14.32 C 13.72 O 13.68 CB 13.48 CG 14.61 CD 17.07 OE1 17.41 OE2 18.29
B GLY - 50 81.9 20.0 N 13.14 CA 12.42 C 11.24 O 11.12
B ALA - 21 -83.5 164.1 N 10.58 CA 9.75 C 9.52 O 9.59 CB 9.29
B ALA E 62 -95.3 99.9 N 8.98 CA 8.92 C 8.6 O 8.52 CB 8.81
B ILE E 6 -86.5 126.4 N 8.62 CA 8.73 C 9.07 O 9.61 CB 9.05 CG1 8.72 CG2 9.45 CD1 8.33
B THR E 24 -118.1 126.5 N 9.43 CA 10.05 C 10.68 O 10.87 CB 10.15 OG1 10.16 CG2 10.68
B VAL E 0 -108.6 122.9 N 11.4 CA 12.29 C 13.35 O 13.48 CB 12.78 CG1 13.83 CG2 11.82
B VAL E 1 -118.6 109.0 N 14.2 CA 15.49 C 17.26 O 17.91 CB 15.45 CG1 16.25 CG2 14.49
B ALA - 7 -161.7 146.0 N 18.38 CA 20.23 C 21.4 O 20.5 CB 20.33
B PRO S 79 -57.9 -31.5 N 23.56 CA 24.63 C 24.51 O 24.55 CB 27.1 CG 27.2 CD 24.8
B THR S 113 -136.1 155.0 N 24.37 CA 24.33 C 23.0 O 22.55 CB 26.75 OG1 28.51 CG2 26.72
B VAL - 11 -138.9 153.5 N 22.42 CA 21.41 C 22.5 O 23.54 CB 19.74 CG1 18.78 CG2 18.19
B SER - 21 -77.2 161.7 N 22.28 CA 23.51 C 23.1 O 21.58 CB 23.78 OG 21.68
B ALA H 80 -54.3 -29.1 N 24.42 CA 24.44 C 23.15 O 22.46 CB 26.51
B GLU H 86 -81.5 -42.3 N 22.78 CA 21.86 C 19.81 O 19.03 CB 22.54 CG 24.12 CD 27.12 OE1 28.58 OE2 28.34
B ILE H 0 -57.8 -44.9 N 19.12 CA 17.59 C 17.4 O 16.28 CB 17.34 CG1 17.65 CG2 15.77 CD1 17.82
B ASN H 60 -53.9 -46.5 N 18.48 CA 18.4 C 18.2 O 17.57 CB 19.78 CG 19.83 OD1 19.72 ND2 21.12
B GLU H 94 -64.2 -40.4 N 19.03 CA 19.16 C 17.84 O 17.65 CB 20.55 CG 22.45 CD 24.26 OE1 24.39 OE2 25.83
B TRP H 28 -65.3 -40.9 N 16.82 CA 15.72 C 14.58 O 13.98 CB 15.38 CG 16.38 CD1 16.95 CD2 16.8 NE1 17.98 CE2 17.98 CE3 16.54 CZ2 18.85 CZ3 17.44 CH2 18.28
B GLU H 63 -59.9 -48.1 N 14.43 CA 14.12 C 14.42 O 14.0 CB 14.59 CG 14.0 CD 14.85 OE1 14.83 OE2 13.36
B ALA H 79 -67.2 -23.7 N 15.16 CA 15.51 C 15.6 O 15.84 CB 16.55
B LYS T 130 -86.9 -5.3 N 15.63 CA 15.73 C 14.78 O 14.98 CB 16.45 CG 18.19 CD 20.32 CE 23.29 NZ 25.02
B GLY T 65 67.7 54.7 N 13.77 CA 12.99 C 12.72 O 12.99
B GLN S 76 -118.1 -18.6 N 12.47 CA 12.15 C 11.11 O 10.86 CB 12.76 CG 14.65 CD 16.24 OE1 17.59 NE2 17.41
B LEU E 16 -150.2 166.7 N 10.71 CA 10.11 C 9.87 O 10.14 CB 10.21 CG 11.2 CD1 11.37 CD2 10.67
B ARG E 138 -109.2 141.0 N 9.45 CA 9.95 C 10.57 O 10.56 CB 9.65 CG 10.5 CD 10.82 NE 9.58 CZ 10.6 NH1 11.16 NH2 9.22
B VAL E 15 -109.9 137.1 N 3.95 CA 3.52 C 4.67 O 6.58 CB 6.17 CG1 5.92 CG2 7.7
B LYS E 64 -116.2 106.4 N 4.93 CA 8.57 C 10.03 O 9.54 CB 10.04 CG 16.13 CD 19.57 CE 27.94 NZ 34.17
B ARG - 123 -89.6 81.4 N 13.08 CA 15.63 C 20.09 O 25.27 CB 18.51 CG 17.23 CD 22.07 NE 22.54 CZ 22.54 NH1 21.6 NH2 25.36
B LYS S 80 -174.8 172.8 N 20.2 CA 26.1 C 26.0 O 21.44 CB 30.3 CG 28.31 CD 36.65 CE 38.99 NZ 50.62
B LYS - 129 -81.8 154.5 N 32.63 CA 35.13 C 37.42 O 39.78 CB 43.56 CG 43.11 CD 50.7 CE 61.61 NZ 69.64
B VAL - 22 -67.2 143.2 N 31.67 CA 25.86 C 23.53 O 24.19 CB 23.48 CG1 20.95 CG2 29.02
B GLY - 20 -130.1 179.8 N 22.83 CA 23.82 C 22.56 O 20.39
B GLU G 150 -59.2 -36.6 N 26.27 CA 28.3 C 27.56 O 27.25 CB 36.08 CG 40.14 CD 51.64 OE1 57.73 OE2 56.8
B GLU G 149 -63.3 -35.5 N 29.23 CA 31.64 C 27.91 O 29.55 CB 37.31 CG 44.68 CD 52.63 OE1 51.49 OE2 61.75
B ASP G 21 -65.0 -9.9 N 24.62 CA 23.96 C 22.02 O 23.6 CB 23.88 CG 28.82 OD1 34.07 OD2 29.71
B LEU G 20 -114.9 7.5 N 21.25 CA 21.84 C 25.87 O 28.99 CB 22.05 CG 19.46 CD1 22.16 CD2 18.73
B LEU S 116 -80.4 -49.0 N 27.87 CA 33.85 C 36.75 O 41.99 CB 37.73 CG 40.11 CD1 46.71 CD2 46.06
B ASN S 144 -121.3 49.7 N 43.77 CA 42.87 C 35.13 O 34.61 CB 48.92 CG 58.33 OD1 60.2 ND2 65.84
B VAL - 15 -115.6 119.6 N 30.12 CA 23.69 C 21.72 O 22.27 CB 20.97 CG1 17.25 CG2 23.83
B PHE S 6 -63.0 -52.9 N 20.14 CA 18.51 C 14.67 O 14.88 CB 19.43 CG 19.2 CD1 21.52 CD2 17.21 CE1 21.8 CE2 18.17 CZ 20.03
B PHE E 0 -126.6 123.1 N 12.05 CA 9.69 C 8.97 O 9.2 CB 9.78 CG 8.59 CD1 9.86 CD2 8.06 CE1 10.98 CE2 8.51 CZ 10.03
B ILE E 0 -110.2 125.1 N 8.86 CA 9.28 C 9.36 O 9.4 CB 11.21 CG1 13.06 CG2 12.3 CD1 17.15
B VAL E 0 -107.7 123.8 N 10.2 CA 12.36 C 14.67 O 14.99 CB 14.2 CG1 18.29 CG2 13.12
B VAL E 0 -101.5 114.0 N 16.87 CA 20.23 C 24.29 O 26.09 CB 21.64 CG1 26.1 CG2 19.35
B ALA - 4 -140.9 48.0 N 26.95 CA 32.42 C 37.16 O 40.44 CB 32.14
B THR - 23 -102.0 -163.2 N 38.65 CA 44.31 C 51.58 O 52.96 CB 42.62 OG1 48.32 CG2 41.56
B ASN S 141 -134.6 -15.9 N 66.33 CA 71.1 C 68.38 O 71.08 CB 85.21 CG 92.49 OD1 89.21 ND2 104.83
B ASP - 90 -79.6 120.8 N 65.53 CA 65.27 C 55.8 O 48.42 CB 68.83 CG 81.89 OD1 85.43 OD2 91.11
B GLN H 140 -65.9 -26.6 N 58.0 CA 52.39 C 48.38 O 42.75 CB 59.23 CG 68.25 CD 77.02 OE1 87.64 NE2 74.37
B ALA H 64 -70.6 -39.2 N 53.3 CA 52.85 C 45.17 O 41.74 CB 63.92
B VAL H 17 -58.0 -61.4 N 44.28 CA 38.42 C 30.21 O 26.0 CB 42.26 CG1 39.17 CG2 53.07
B ASN H 25 -36.0 -54.3 N 29.93 CA 26.13 C 24.14 O 20.53 CB 30.74 CG 33.99 OD1 33.49 ND2 40.04
B LYS H 126 -66.7 -46.4 N 28.53 CA 30.42 C 28.53 O 27.55 CB 39.02 CG 43.93 CD 54.88 CE 61.36 NZ 62.24
B PHE H 86 -55.2 -55.0 N 30.13 CA 30.95 C 24.05 O 24.25 CB 35.86 CG 40.35 CD1 50.68 CD2 36.91 CE1 56.97 CE2 42.51 CZ 52.6
B VAL H 0 -51.4 -57.1 N 19.87 CA 15.41 C 14.43 O 14.4 CB 14.5 CG1 12.92 CG2 18.34
B LYS - 133 -59.5 360.0 N 15.66 CA 18.22 C 22.26 O 23.36 CB 21.69 CG 26.59 CD 32.14 CE 38.89 NZ 46.78
B ILE - 68 360.0 163.3 N 22.07 CA 20.78 C 25.42 O 29.1 CB 16.37 CG1 15.85 CG2 14.55 CD1 16.33
B LYS - 172 -77.8 165.5 N 27.28 CA 33.57 C 33.77 O 29.11 CB 37.34 CG 41.29 CD 47.91 CE 54.19 NZ 59.05
B ASN T 141 -75.2 174.6 N 50.67 CA 49.3 C 46.75 O 46.78 CB 58.87 CG 61.64 OD1 61.44 ND2 65.44
B ASP T 81 62.4 -9.0 N 45.51 CA 42.78 C 33.6 O 31.48 CB 49.72 CG 59.52 OD1 61.88 OD2 66.78
B GLN - 28 -77.6 111.3 N 29.44 CA 22.4 C 17.68 O 17.46 CB 22.58 CG 17.41 CD 16.16 OE1 18.64 NE2 11.58
B LEU E 7 -59.4 124.4 N 14.53 CA 10.88 C 7.54 O 6.23 CB 10.17 CG 14.55 CD1 13.46 CD2 18.24
B VAL E 6 -149.8 134.7 N 7.07 CA 5.49 C 5.57 O 7.53 CB 7.95 CG1 11.2 CG2 7.54
B ASN E 5 -106.7 116.6 N 4.54 CA 5.66 C 7.64 O 7.76 CB 4.96 CG 6.81 OD1 7.91 ND2 8.24
B MET E 14 -97.2 81.0 N 10.46 CA 14.05 C 15.99 O 18.24 CB 17.08 CG 17.34 SD 20.83 CE 21.76
B ALA T 22 -64.7 -37.2 N 23.72 CA 26.76 C 31.96 O 34.39 CB 28.66
B SER T 22 -82.3 24.7 N 35.11 CA 41.47 C 40.25 O 44.45 CB 47.2 OG 51.06
B SER - 69 50.3 -164.2 N 35.93 CA 35.72 C 37.01 O 38.01 CB 66.31 OG 72.83
B PHE S 68 -79.3 -42.6 N 38.01 CA 37.7 C 35.18 O 35.11 CB 40.85 CG 41.99 CD1 44.92 CD2 42.14 CE1 48.18 CE2 45.24 CZ 48.28
B SER S 56 -64.4 157.6 N 34.88 CA 34.42 C 31.17 O 29.53 CB 37.31 OG 37.12
B ASP - 75 -96.1 162.7 N 31.3 CA 28.35 C 27.81 O 31.19 CB 31.22 CG 33.66 OD1 31.98 OD2 39.24
B GLY - 15 -93.8 -149.0 N 24.42 CA 24.77 C 26.22 O 28.9
B ASN S 15 -101.6 2.4 N 21.65 CA 20.51 C 19.24 O 18.55 CB 21.12 CG 21.19 OD1 19.15 ND2 22.08
B ILE E 2 -121.5 129.0 N 18.98 CA 17.97 C 17.66 O 18.07 CB 18.12 CG1 18.44 CG2 16.83 CD1 17.77
B GLN E 17 -119.1 147.6 N 16.76 CA 16.74 C 16.05 O 15.82 CB 16.41 CG 17.84 CD 18.49 OE1 19.3 NE2 17.07
B ILE - 45 -103.8 114.5 N 16.06 CA 15.69 C 14.99 O 14.98 CB 16.4 CG1 17.22 CG2 16.29 CD1 18.37
B PRO - 8 -69.0 162.0 N 14.07 CA 13.64 C 13.68 O 14.47 CB 13.02 CG 13.24 CD 13.5
B ALA E 27 -71.6 148.5 N 13.47 CA 13.77 C 13.52 O 13.33 CB 13.59
B GLN E 70 -142.6 147.3 N 13.86 CA 13.82 C 14.11 O 14.63 CB 14.13 CG 14.64 CD 16.3 OE1 16.7 NE2 16.23
B PHE E 22 -139.1 161.8 N 14.1 CA 14.37 C 14.04 O 13.78 CB 14.57 CG 14.69 CD1 15.14 CD2 13.51 CE1 14.11 CE2 13.77 CZ 13.4
B SER E 68 -125.7 145.8 N 14.34 CA 14.39 C 14.41 O 14.66 CB 14.46 OG 16.19
B ARG E 45 -123.2 91.0 N 14.17 CA 14.53 C 14.44 O 14.24 CB 14.43 CG 14.41 CD 14.95 NE 15.04 CZ 16.34 NH1 18.08 NH2 16.03
B GLY T 39 64.1 -125.4 N 14.92 CA 15.01 C 14.75 O 14.75
B ARG T 82 -72.9 -15.2 N 14.76 CA 14.36 C 13.87 O 13.76 CB 14.47 CG 15.38 CD 15.75 NE 16.99 CZ 17.54 NH1 17.35 NH2 17.21
B LEU E 0 -77.1 132.9 N 13.55 CA 12.9 C 12.59 O 12.76 CB 12.69 CG 11.94 CD1 10.58 CD2 11.77
B SER E 23 -130.8 133.8 N 12.14 CA 12.44 C 12.05 O 11.95 CB 12.49 OG 13.56
B LEU E 3 -119.1 134.2 N 12.3 CA 12.1 C 11.97 O 12.05 CB 12.17 CG 12.34 CD1 12.59 CD2 11.25
B ALA E 3 -118.9 133.9 N 11.66 CA 11.73 C 11.43 O 11.44 CB 11.86
B ILE E 0 -126.7 132.7 N 11.61 CA 11.55 C 11.99 O 12.75 CB 11.7 CG1 11.32 CG2 10.82 CD1 12.41
B SER E 9 -140.5 152.1 N 11.82 CA 12.22 C 11.99 O 11.41 CB 12.67 OG 13.38
B THR - 1 -124.3 21.8 N 12.66 CA 13.04 C 13.95 O 14.35 CB 13.02 OG1 13.76 CG2 12.24
B ASP T 34 59.3 36.6 N 14.69 CA 15.6 C 16.23 O 16.76 CB 15.78 CG 17.5 OD1 19.55 OD2 18.42
B GLY T 29 64.1 8.3 N 16.39 CA 17.31 C 17.45 O 18.43
B ALA S 2 -56.9 -38.9 N 16.58 CA 16.15 C 16.02 O 16.14 CB 15.37
B SER - 4 -162.6 96.3 N 15.4 CA 15.33 C 15.19 O 14.45 CB 14.77 OG 14.69
B PRO H 69 -53.6 -31.4 N 16.12 CA 16.16 C 15.79 O 15.66 CB 17.26 CG 17.73 CD 16.89
B LEU H 65 -70.9 -42.8 N 15.86 CA 15.55 C 14.38 O 14.12 CB 16.2 CG 18.16 CD1 18.83 CD2 18.45
B LEU H 5 -58.9 -47.3 N 13.45 CA 12.48 C 12.13 O 12.13 CB 11.73 CG 10.91 CD1 10.6 CD2 8.65
B THR H 18 -53.8 -47.1 N 12.58 CA 12.47 C 13.09 O 12.67 CB 12.89 OG1 12.7 CG2 12.22
B LYS H 118 -61.8 -49.2 N 13.95 CA 14.61 C 14.42 O 14.41 CB 15.64 CG 17.0 CD 19.02 CE 21.76 NZ 22.2
B ARG H 84 -51.1 -49.7 N 15.86 CA 16.76 C 14.09 O 14.39 CB 19.54 CG 22.46 CD 27.95 NE 33.14 CZ 37.59 NH1 39.71 NH2 40.84
B ILE H 1 -64.0 -40.8 N 11.73 CA 9.64 C 8.34 O 7.92 CB 9.02 CG1 10.77 CG2 7.11 CD1 11.35
B LYS H 76 -59.9 -42.7 N 8.45 CA 8.85 C 10.65 O 10.82 CB 10.08 CG 11.65 CD 14.27 CE 18.01 NZ 21.91
B GLU H 98 -62.0 -43.0 N 12.8 CA 15.41 C 15.27 O 16.39 CB 18.52 CG 21.25 CD 25.72 OE1 26.7 OE2 29.31
B ASP H 70 -64.5 -41.8 N 14.5 CA 15.36 C 13.18 O 14.3 CB 16.62 CG 21.06 OD1 23.0 OD2 23.87
B LEU H 1 -69.9 -35.1 N 10.99 CA 9.66 C 10.33 O 10.36 CB 8.48 CG 8.96 CD1 9.06 CD2 10.04
B SER H 33 -57.9 -45.4 N 11.52 CA 13.46 C 14.9 O 15.79 CB 15.51 OG 16.11
B SER H 93 -52.1 -60.8 N 15.78 CA 18.02 C 17.22 O 18.62 CB 19.86 OG 24.42
B ASN H 112 -63.5 -34.3 N 15.21 CA 14.86 C 13.39 O 14.07 CB 14.63 CG 18.57 OD1 22.18 ND2 18.45
B TYR S 13 -114.4 94.4 N 13.02 CA 12.24 C 12.76 O 13.36 CB 12.82 CG 11.9 CD1 11.56 CD2 10.86 CE1 11.9 CE2 10.16 CZ 10.59 OH 10.88
B ASP - 70 -97.4 -163.6 N 12.31 CA 12.63 C 12.59 O 12.16 CB 12.58 CG 11.9 OD1 10.33 OD2 12.42
B GLU T 121 -61.6 -14.8 N 12.94 CA 13.13 C 12.29 O 12.62 CB 13.89 CG 15.38 CD 16.79 OE1 16.37 OE2 18.55
B SER H 23 -57.7 -34.5 N 11.41 CA 10.76 C 10.64 O 10.8 CB 10.09 OG 9.63
B TYR H 16 -70.8 -23.9 N 10.83 CA 11.2 C 11.75 O 11.93 CB 11.16 CG 10.92 CD1 9.77 CD2 9.69 CE1 10.03 CE2 10.24 CZ 9.85 OH 10.72
B THR H 53 -66.4 -49.4 N 12.06 CA 12.87 C 12.69 O 13.35 CB 13.3 OG1 13.8 CG2 14.21
B GLN H 78 -66.4 -38.8 N 12.14 CA 12.32 C 12.04 O 12.33 CB 11.88 CG 11.68 CD 11.35 OE1 10.01 NE2 11.09
B TYR H 2 -67.1 -42.2 N 11.64 CA 11.6 C 11.82 O 11.99 CB 10.9 CG 11.19 CD1 10.33 CD2 11.06 CE1 10.49 CE2 10.73 CZ 10.34 OH 10.8
B THR H 1 -72.3 -19.2 N 12.28 CA 12.88 C 13.41 O 13.9 CB 13.42 OG1 13.74 CG2 12.94
B GLN H 83 -71.0 -46.7 N 13.31 CA 13.76 C 13.44 O 13.94 CB 13.84 CG 14.45 CD 15.46 OE1 15.22 NE2 15.18
B PHE H 5 -53.2 -51.1 N 12.66 CA 12.12 C 12.04 O 12.36 CB 11.42 CG 10.62 CD1 10.43 CD2 9.67 CE1 10.64 CE2 9.94 CZ 9.34
B LEU H 2 -61.7 -34.7 N 11.69 CA 11.82 C 12.69 O 13.29 CB 11.34 CG 9.94 CD1 9.11 CD2 9.32
B TYR H 99 -65.7 -50.8 N 13.36 CA 14.37 C 14.87 O 15.51 CB 14.68 CG 16.57 CD1 17.43 CD2 16.09 CE1 18.37 CE2 17.99 CZ 19.04 OH 19.4
B GLU H 87 -56.7 -43.7 N 14.6 CA 15.22 C 15.37 O 16.03 CB 15.03 CG 15.16 CD 15.65 OE1 15.05 OE2 16.06
B CYS H 0 -57.4 -45.7 N 15.0 CA 15.28 C 15.96 O 16.28 CB 14.51 SG 13.97
B ARG H 92 -55.8 -51.1 N 1.25 CA 4.26 C 7.82 O 9.77 CB 6.28 CG 11.22 CD 13.51 NE 20.55 CZ 25.68 NH1 23.95 NH2 33.84
B VAL H 63 -51.1 -55.4 N 10.18 CA 15.14 C 15.84 O 19.49 CB 18.09 CG1 24.86 CG2 18.72
B LEU H 49 -67.4 -30.0 N 13.59 CA 15.6 C 13.96 O 17.39 CB 15.45 CG 20.44 CD1 21.77 CD2 28.25
B ILE H 1 -80.6 -32.8 N 10.34 CA 9.96 C 13.9 O 15.94 CB 6.56 CG1 4.33 CG2 7.82 CD1 0.94
B HIS H 128 -61.9 -33.3 N 16.15 CA 21.94 C 27.02 O 31.8 CB 24.17 CG 31.97 ND1 35.95 CD2 38.53 CE1 43.86 NE2 45.85
B ARG T 193 -110.6 26.4 N 27.55 CA 34.18 C 33.7 O 39.32 CB 39.08 CG 39.06 CD 46.97 NE 56.0 CZ 60.0 NH1 55.29 NH2 69.47
B LEU - 18 -83.4 140.6 N 28.57 CA 29.07 C 33.22 O 33.25 CB 23.37 CG 22.19 CD1 25.1 CD2 16.22
B ASN S 173 -92.7 62.0 N 37.92 CA 42.86 C 40.47 O 44.23 CB 51.24 CG 55.92 OD1 57.91 ND2 59.1
B VAL S 44 -135.4 163.4 N 35.29 CA 33.51 C 34.1 O 34.49 CB 28.46 CG1 23.87 CG2 30.18
B SER - 69 -65.0 160.6 N 35.89 CA 39.55 C 36.73 O 31.18 CB 43.73 OG 40.38
B LYS H 145 -58.0 -40.6 N 41.97 CA 41.92 C 39.87 O 36.37 CB 51.13 CG 55.87 CD 56.25 CE 54.04 NZ 43.09
B SER H 78 -73.3 -30.0 N 43.02 CA 43.17 C 35.5 O 34.6 CB 50.85 OG 51.45
B ARG H 60 -68.4 -41.1 N 31.53 CA 25.87 C 20.53 O 17.82 CB 25.64 CG 29.15 CD 27.48 NE 26.22 CZ 25.18 NH1 26.44 NH2 24.76
B LYS H 39 -57.4 -44.5 N 32.04 CA 29.37 C 27.69 O 25.38 CB 29.9 CG 31.27 CD 31.4 CE 33.79 NZ 33.81
B HIS H 95 -64.1 -42.6 N 28.82 CA 27.92 C 26.77 O 25.08 CB 30.12 CG 29.99 ND1 31.23 CD2 29.0 CE1 30.63 NE2 29.26
B GLU H 108 -61.8 -44.9 N 27.93 CA 27.33 C 24.63 O 23.24 CB 29.74 CG 31.47 CD 36.33 OE1 38.62 OE2 37.28
B LEU H 0 -63.1 -50.3 N 23.72 CA 21.48 C 19.37 O 17.56 CB 21.86 CG 23.4 CD1 24.08 CD2 22.07
B LEU H 19 -65.3 -24.3 N 19.5 CA 18.2 C 17.85 O 16.53 CB 18.85 CG 18.94 CD1 20.24 CD2 17.06
B THR H 59 -75.1 -43.0 N 19.02 CA 19.02 C 17.76 O 16.61 CB 21.12 OG1 22.96 CG2 21.71
B GLU H 84 -52.5 -35.4 N 18.08 CA 17.78 C 15.59 O 15.25 CB 18.85 CG 20.74 CD 24.79 OE1 24.98 OE2 27.43
B ILE T 2 -93.6 9.1 N 14.02 CA 12.22 C 11.5 O 10.25 CB 12.03 CG1 11.81 CG2 12.2 CD1 11.73
B ILE - 10 -101.2 86.9 N 12.12 CA 11.89 C 12.25 O 13.58 CB 12.64 CG1 12.94 CG2 12.23 CD1 10.13
B ASP S 60 -157.2 177.0 N 11.73 CA 11.99 C 11.11 O 10.47 CB 12.67 CG 12.75 OD1 12.56 OD2 15.19
B ASP H 105 -62.8 -34.8 N 11.3 CA 10.68 C 9.9 O 9.43 CB 11.61 CG 12.61 OD1 13.6 OD2 14.0
B GLN H 113 -71.0 -33.8 N 9.95 CA 9.91 C 9.39 O 9.05 CB 10.75 CG 10.71 CD 13.44 OE1 14.55 NE2 13.49
B TYR H 18 -65.4 -37.8 N 9.27 CA 8.81 C 8.59 O 8.81 CB 9.06 CG 9.5 CD1 9.68 CD2 9.23 CE1 11.37 CE2 11.5 CZ 12.73 OH 14.5
B ARG H 35 -66.1 -35.1 N 8.69 CA 8.91 C 8.92 O 9.59 CB 9.13 CG 9.83 CD 10.16 NE 10.73 CZ 11.0 NH1 11.35 NH2 9.85
B LEU H 113 -118.9 4.2 N 8.8 CA 8.73 C 8.71 O 9.02 CB 9.1 CG 8.65 CD1 8.71 CD2 8.33
B SER - 34 -125.1 117.4 N 8.6 CA 8.71 C 8.7 O 8.54 CB 8.83 OG 8.84
B LEU H 79 -78.2 -25.9 N 9.01 CA 9.22 C 9.43 O 9.63 CB 9.4 CG 10.58 CD1 10.63 CD2 10.62
B VAL H 90 -62.5 -54.4 N 9.78 CA 10.54 C 10.55 O 11.22 CB 10.98 CG1 11.63 CG2 11.77
B LYS H 63 -49.5 -50.0 N 10.4 CA 10.9 C 10.66 O 11.17 CB 10.81 CG 11.64 CD 12.1 CE 13.19 NZ 14.7
B GLN H 7 -58.5 -57.6 N 9.96 CA 9.94 C 10.58 O 11.45 CB 9.57 CG 9.07 CD 9.29 OE1 10.05 NE2 9.02
B ARG H 152 -59.1 -42.8 N 10.46 CA 11.11 C 11.92 O 13.07 CB 11.15 CG 10.44 CD 11.07 NE 11.31 CZ 11.76 NH1 12.75 NH2 11.89
B GLU H 120 -64.6 -29.9 N 12.01 CA 13.09 C 13.61 O 14.77 CB 13.18 CG 13.39 CD 14.8 OE1 14.69 OE2 15.62
B PHE H 3 -73.4 -41.3 N 13.0 CA 14.06 C 15.02 O 16.17 CB 13.1 CG 13.85 CD1 14.99 CD2 13.39 CE1 16.06 CE2 14.32 CZ 15.74
B LEU H 32 -56.3 -47.6 N 1.92 CA 5.29 C 8.88 O 10.95 CB 7.48 CG 5.83 CD1 9.08 CD2 8.27
B GLN H 139 -59.9 -39.9 N 10.84 CA 15.79 C 15.1 O 18.55 CB 19.54 CG 24.67 CD 32.0 OE1 39.21 NE2 30.62
B GLN H 74 -63.0 -47.2 N 12.41 CA 14.27 C 14.83 O 18.3 CB 13.38 CG 16.88 CD 18.93 OE1 16.94 NE2 23.42
B ILE T 2 -74.7 6.3 N 12.81 CA 15.27 C 18.41 O 21.61 CB 14.2 CG1 11.58 CG2 14.1 CD1 10.97
B GLU T 130 -81.1 -43.4 N 19.83 CA 24.95 C 28.62 O 32.38 CB 27.37 CG 27.14 CD 33.97 OE1 40.65 OE2 33.12
B LYS - 196 -51.5 -30.2 N 28.85 CA 33.6 C 35.65 O 40.54 CB 34.43 CG 40.71 CD 46.8 CE 53.87 NZ 61.24
B TYR - 108 -79.7 360.0 N 33.32 CA 37.28 C 40.0 O 38.97 CB 36.36 CG 35.51 CD1 30.86 CD2 41.63 CE1 31.48 CE2 42.85 CZ 37.44 OH 39.57
