A SER - 136 360.0 163.4 N 4.33 CA 4.18 C 4.15 O 4.29 CB 4.25 OG 4.12
A MET - 131 -91.4 153.2 N 3.93 CA 3.77 C 3.56 O 3.39 CB 3.93 CG 4.13 SD 4.6 CE 4.34
A PRO G 84 -57.0 -37.8 N 3.56 CA 3.59 C 3.61 O 3.91 CB 3.57 CG 3.33 CD 3.52
A SER G 91 -68.6 -11.6 N 3.43 CA 3.21 C 3.21 O 3.15 CB 3.14 OG 3.18
A ASP G 110 -65.0 -24.8 N 3.03 CA 3.14 C 3.12 O 2.98 CB 3.13 CG 3.44 OD1 4.42 OD2 3.99
A SER - 25 -143.6 144.3 N 3.36 CA 3.53 C 3.45 O 3.54 CB 3.6 OG 3.99
A SER S 48 -113.6 11.9 N 3.35 CA 3.21 C 3.06 O 2.94 CB 3.21 OG 2.76
A THR S 56 -120.9 12.6 N 3.09 CA 3.26 C 3.49 O 3.73 CB 3.34 OG1 3.12 CG2 2.89
A GLU - 87 -96.6 108.8 N 3.63 CA 3.81 C 3.63 O 3.6 CB 3.97 CG 4.84 CD 5.89 OE1 6.75 OE2 6.65
A LEU - 22 -74.5 123.6 N 3.67 CA 3.5 C 3.45 O 3.72 CB 3.34 CG 3.06 CD1 3.14 CD2 3.03
A THR E 68 -120.8 174.0 N 3.5 CA 3.6 C 3.52 O 3.73 CB 3.59 OG1 3.97 CG2 3.64
A GLN E 103 -125.4 146.5 N 3.48 CA 3.41 C 3.19 O 3.16 CB 3.57 CG 3.63 CD 4.24 OE1 4.02 NE2 4.4
A THR E 21 -144.9 151.3 N 3.03 CA 3.07 C 2.97 O 2.91 CB 3.05 OG1 3.0 CG2 3.33
A VAL E 94 -87.5 133.8 N 2.87 CA 2.87 C 2.93 O 2.99 CB 2.89 CG1 2.4 CG2 2.5
A LEU E 4 -141.3 112.7 N 3.03 CA 3.09 C 3.25 O 3.31 CB 3.01 CG 2.85 CD1 2.46 CD2 2.43
A GLU T 81 55.2 43.0 N 3.32 CA 3.45 C 3.49 O 3.45 CB 3.41 CG 3.55 CD 3.95 OE1 4.23 OE2 4.17
A GLY T 74 71.4 15.8 N 3.58 CA 3.65 C 3.71 O 3.82
A GLU E 76 -118.5 135.5 N 3.74 CA 3.83 C 3.73 O 3.61 CB 3.96 CG 4.54 CD 5.52 OE1 7.2 OE2 5.54
A SER E 63 -90.5 99.2 N 3.64 CA 3.71 C 3.63 O 3.55 CB 3.73 OG 4.34
A ILE E 2 -97.3 136.3 N 3.56 CA 3.57 C 3.6 O 3.64 CB 3.58 CG1 3.6 CG2 3.61 CD1 3.76
A SER E 0 -73.5 148.6 N 3.7 CA 3.67 C 3.74 O 3.78 CB 3.66 OG 3.27
A CYS E 1 -147.3 153.4 N 3.75 CA 3.81 C 3.86 O 4.12 CB 3.81 SG 3.67
A PHE E 1 -118.5 154.8 N 3.78 CA 3.8 C 3.74 O 3.95 CB 3.68 CG 3.37 CD1 2.42 CD2 3.03 CE1 2.12 CE2 3.01 CZ 2.33
A GLN E 43 -91.7 114.7 N 3.66 CA 3.51 C 3.55 O 3.57 CB 3.36 CG 3.36 CD 3.25 OE1 2.76 NE2 2.57
A VAL E 40 -131.2 125.3 N 3.67 CA 3.71 C 3.76 O 3.75 CB 3.81 CG1 3.18 CG2 3.64
A GLY T 71 51.5 40.2 N 3.93 CA 3.99 C 4.08 O 4.23
A GLY T 47 82.3 14.2 N 4.14 CA 4.02 C 4.06 O 4.04
A GLU E 81 -139.6 145.9 N 4.15 CA 4.13 C 3.99 O 3.89 CB 4.28 CG 4.64 CD 5.45 OE1 5.78 OE2 6.07
A LYS E 84 -66.7 128.2 N 3.81 CA 3.86 C 3.7 O 3.55 CB 3.97 CG 4.47 CD 4.75 CE 5.22 NZ 5.64
A ARG E 31 -122.8 126.0 N 3.58 CA 3.61 C 3.44 O 3.18 CB 3.62 CG 3.81 CD 4.1 NE 4.15 CZ 4.89 NH1 5.57 NH2 5.3
A LEU E 0 -92.1 149.7 N 3.44 CA 3.37 C 3.42 O 3.42 CB 3.29 CG 3.38 CD1 2.94 CD2 2.82
A CYS E 1 -66.5 104.0 N 3.49 CA 3.59 C 3.61 O 3.55 CB 3.51 SG 4.67
A LEU H 30 -53.2 -43.4 N 3.73 CA 3.72 C 3.71 O 3.78 CB 3.68 CG 3.66 CD1 3.4 CD2 2.98
A PRO H 37 -55.1 -36.8 N 3.75 CA 3.78 C 3.88 O 4.1 CB 3.79 CG 3.69 CD 3.8
A GLN H 47 -67.6 -38.2 N 3.97 CA 3.94 C 3.85 O 4.11 CB 4.09 CG 4.4 CD 4.76 OE1 4.78 NE2 4.69
A VAL I 0 -69.4 -46.4 N 3.71 CA 3.59 C 3.67 O 3.82 CB 3.56 CG1 3.13 CG2 3.21
A LEU I 29 -69.1 -48.7 N 3.67 CA 3.69 C 3.65 O 3.64 CB 3.7 CG 3.89 CD1 3.93 CD2 3.98
A ASN I 56 -90.4 -2.3 N 3.64 CA 3.66 C 3.6 O 3.63 CB 3.64 CG 3.97 OD1 3.91 ND2 4.49
A SER I 59 -126.4 -68.9 N 3.62 CA 3.69 C 3.55 O 3.64 CB 3.79 OG 3.88
A VAL I 17 -63.4 -36.4 N 3.41 CA 3.27 C 3.23 O 3.11 CB 3.24 CG1 3.03 CG2 3.12
A LEU T 0 -117.0 31.8 N 3.23 CA 3.28 C 3.27 O 3.22 CB 3.29 CG 3.35 CD1 3.3 CD2 3.02
A ARG T 6 -67.4 -31.4 N 3.29 CA 3.32 C 3.44 O 3.44 CB 3.28 CG 3.24 CD 3.09 NE 2.79 CZ 2.67 NH1 2.55 NH2 2.48
A GLU T 87 -76.5 9.5 N 3.49 CA 3.6 C 3.48 O 3.43 CB 3.71 CG 4.2 CD 5.14 OE1 5.62 OE2 5.74
A PHE S 35 -124.8 142.4 N 3.39 CA 3.39 C 3.43 O 3.36 CB 3.38 CG 3.37 CD1 3.27 CD2 3.35 CE1 3.32 CE2 3.38 CZ 3.43
A THR - 34 -71.3 157.3 N 3.46 CA 3.48 C 3.49 O 3.58 CB 3.47 OG1 3.48 CG2 3.35
A LEU H 67 -64.0 -35.4 N 3.47 CA 3.46 C 3.53 O 3.63 CB 3.41 CG 3.21 CD1 2.92 CD2 3.02
A GLN H 159 -58.2 -44.1 N 3.57 CA 3.6 C 3.64 O 3.66 CB 3.61 CG 3.63 CD 3.57 OE1 3.62 NE2 3.34
A GLN H 97 -75.2 -40.7 N 3.67 CA 3.73 C 3.71 O 3.75 CB 3.78 CG 4.04 CD 4.43 OE1 4.7 NE2 4.32
A ILE H 2 -56.3 -46.3 N 3.64 CA 3.59 C 3.57 O 3.58 CB 3.63 CG1 3.57 CG2 3.47 CD1 3.37
A ASN H 90 -66.9 -36.4 N 3.5 CA 3.46 C 3.44 O 3.42 CB 3.43 CG 3.33 OD1 3.34 ND2 3.37
A THR H 73 -62.9 -43.1 N 3.48 CA 3.47 C 3.45 O 3.44 CB 3.44 OG1 3.43 CG2 3.29
A VAL H 22 -65.1 -45.9 N 3.44 CA 3.44 C 3.46 O 3.41 CB 3.43 CG1 3.47 CG2 3.34
A CYS H 17 -56.9 -45.1 N 3.54 CA 3.58 C 3.61 O 3.62 CB 3.54 SG 3.52
A ASP H 60 -59.8 -37.9 N 3.64 CA 3.7 C 3.74 O 3.84 CB 3.7 CG 3.79 OD1 4.09 OD2 3.9
A GLU H 131 -70.5 -45.7 N 3.75 CA 3.77 C 3.62 O 3.5 CB 3.85 CG 4.18 CD 4.79 OE1 5.25 OE2 5.26
A LEU H 45 -89.9 3.4 N 3.54 CA 3.5 C 3.42 O 3.35 CB 3.49 CG 3.53 CD1 3.56 CD2 3.43
A TYR T 126 60.0 49.7 N 3.43 CA 3.39 C 3.33 O 3.27 CB 3.38 CG 3.54 CD1 3.79 CD2 3.84 CE1 3.98 CE2 3.82 CZ 3.96 OH 4.4
A ILE - 5 -76.4 118.2 N 3.35 CA 3.42 C 3.57 O 3.47 CB 3.4 CG1 3.25 CG2 3.07 CD1 2.77
A TYR - 100 -89.1 93.0 N 3.73 CA 3.88 C 3.9 O 4.28 CB 3.88 CG 4.05 CD1 4.11 CD2 4.33 CE1 4.0 CE2 3.97 CZ 4.15 OH 4.39
A CYS - 21 -93.5 144.9 N 3.83 CA 3.96 C 3.67 O 3.56 CB 4.04 SG 4.93
A SER E 17 -140.1 165.4 N 3.39 CA 3.28 C 3.17 O 3.02 CB 3.3 OG 3.17
A ARG E 101 -97.9 145.8 N 3.0 CA 2.97 C 2.97 O 2.89 CB 2.85 CG 2.66 CD 2.36 NE 2.28 CZ 2.0 NH1 2.0 NH2 2.23
A CYS - 21 -63.4 154.0 N 2.97 CA 2.93 C 3.0 O 2.91 CB 2.91 SG 2.43
A THR - 69 -75.8 165.1 N 3.1 CA 3.19 C 3.29 O 3.12 CB 3.15 OG1 4.13 CG2 2.67
A SER H 76 -61.3 -35.2 N 3.27 CA 3.36 C 3.39 O 3.42 CB 3.16 OG 3.29
A ASP H 60 -61.9 -48.0 N 3.45 CA 3.65 C 3.59 O 3.99 CB 3.62 CG 4.22 OD1 4.81 OD2 4.94
A GLN H 5 -64.5 -41.3 N 3.48 CA 3.53 C 3.49 O 3.67 CB 3.41 CG 3.89 CD 3.89 OE1 3.37 NE2 3.23
A LEU H 24 -55.4 -46.7 N 3.39 CA 3.24 C 3.2 O 3.28 CB 2.98 CG 2.95 CD1 2.0 CD2 2.0
A HIS H 34 -71.8 -38.8 N 3.13 CA 3.12 C 3.1 O 2.82 CB 3.21 CG 3.22 ND1 2.56 CD2 3.21 CE1 2.51 NE2 3.39
A ILE H 24 -58.0 -42.7 N 3.16 CA 3.05 C 3.09 O 3.05 CB 3.15 CG1 3.02 CG2 2.61 CD1 2.51
A LEU H 1 -61.5 -29.3 N 3.06 CA 3.27 C 3.34 O 3.27 CB 3.22 CG 3.07 CD1 3.21 CD2 3.1
A LYS H 21 -76.7 -50.4 N 3.59 CA 3.65 C 3.8 O 4.09 CB 3.79 CG 3.59 CD 3.53 CE 3.39 NZ 3.44
A VAL H 15 -65.4 -39.4 N 3.74 CA 3.77 C 3.8 O 3.87 CB 3.8 CG1 2.88 CG2 4.11
A LEU T 6 -80.6 7.0 N 3.84 CA 3.84 C 3.97 O 4.27 CB 3.72 CG 3.86 CD1 4.0 CD2 3.46
A GLY T 1 87.6 14.9 N 4.1 CA 4.02 C 4.12 O 3.94
A ILE S 20 -89.5 -38.4 N 4.15 CA 4.19 C 4.15 O 4.24 CB 4.2 CG1 4.07 CG2 4.29 CD1 3.83
A LEU S 12 -117.1 149.9 N 4.16 CA 4.16 C 4.18 O 4.17 CB 4.04 CG 4.14 CD1 4.02 CD2 3.5
A PRO - 32 -66.4 145.0 N 4.16 CA 4.09 C 3.97 O 4.09 CB 4.17 CG 4.21 CD 4.28
A PHE T 7 -64.0 -22.6 N 3.76 CA 3.66 C 3.72 O 3.88 CB 3.52 CG 3.45 CD1 2.87 CD2 2.81 CE1 2.5 CE2 2.85 CZ 2.84
A ASN T 73 -73.4 -17.1 N 3.65 CA 3.5 C 3.51 O 3.59 CB 3.46 CG 3.34 OD1 3.09 ND2 2.9
A ALA - 15 -50.2 117.7 N 3.46 CA 3.41 C 3.4 O 3.35 CB 2.95
A PRO - 119 -76.4 -26.5 N 3.46 CA 3.53 C 3.67 O 3.46 CB 3.47 CG 3.38 CD 3.47
A SER - 45 -158.5 173.6 N 3.88 CA 3.98 C 4.11 O 4.36 CB 3.94 OG 4.19
A CYS - 3 -152.7 128.3 N 4.35 CA 4.49 C 4.51 O 4.69 CB 4.42 SG 5.62
A GLY E 13 -78.5 155.2 N 4.41 CA 4.28 C 3.99 O 4.27
A LEU E 4 -126.3 141.3 N 3.8 CA 3.69 C 3.72 O 3.88 CB 3.65 CG 3.59 CD1 3.07 CD2 3.09
A ILE E 0 -125.1 136.4 N 3.56 CA 3.5 C 3.57 O 3.82 CB 3.44 CG1 3.48 CG2 3.07 CD1 2.4
A THR E 4 -66.1 147.2 N 3.52 CA 3.59 C 3.63 O 3.53 CB 3.51 OG1 3.78 CG2 3.31
A LEU H 35 -51.6 -44.5 N 3.74 CA 3.92 C 3.98 O 4.08 CB 3.82 CG 3.77 CD1 3.64 CD2 2.93
A THR H 72 -65.0 -39.0 N 4.05 CA 4.18 C 4.17 O 4.27 CB 4.01 OG1 4.41 CG2 4.79
A ASP H 22 -72.8 -32.7 N 4.13 CA 4.01 C 3.86 O 3.88 CB 3.99 CG 4.17 OD1 4.34 OD2 4.29
A ALA H 0 -66.4 -43.2 N 3.7 CA 3.66 C 3.67 O 3.65 CB 3.53
A GLN H 91 -65.5 -42.7 N 3.71 CA 3.89 C 3.92 O 3.89 CB 3.88 CG 4.06 CD 4.3 OE1 4.49 NE2 4.27
A ARG H 92 -78.8 -23.9 N 3.82 CA 3.85 C 3.82 O 3.8 CB 3.84 CG 4.06 CD 3.83 NE 3.63 CZ 3.39 NH1 3.33 NH2 3.49
A LEU H 1 -66.9 -48.0 N 3.82 CA 3.83 C 3.88 O 3.91 CB 3.85 CG 3.85 CD1 3.93 CD2 3.56
A CYS H 0 -58.5 -43.0 N 3.9 CA 3.86 C 3.8 O 3.88 CB 3.83 SG 4.68
A ASN H 77 -54.1 -48.6 N 3.72 CA 3.58 C 3.54 O 3.6 CB 3.52 CG 3.35 OD1 2.83 ND2 3.14
A ALA H 39 -63.9 -35.9 N 3.48 CA 3.49 C 3.49 O 3.44 CB 3.42
A LEU H 11 -88.2 -54.3 N 3.5 CA 3.53 C 3.59 O 3.64 CB 3.44 CG 3.45 CD1 3.29 CD2 3.02
A LEU H 71 -77.8 -26.0 N 3.7 CA 3.7 C 3.68 O 3.71 CB 3.79 CG 4.04 CD1 4.24 CD2 4.09
A ARG - 122 -136.3 67.2 N 3.67 CA 3.63 C 3.61 O 3.63 CB 3.59 CG 3.55 CD 3.52 NE 3.48 CZ 3.6 NH1 3.64 NH2 3.69
A PRO - 148 -58.9 360.0 N 3.6 CA 3.61 C 3.59 O 3.56 CB 3.62 CG 3.6 CD 3.59
B SER - 84 360.0 87.8 N 4.9 CA 4.89 C 4.84 O 4.79 CB 4.9 OG 5.38
B THR - 71 -115.0 18.2 N 4.81 CA 4.75 C 4.72 O 4.69 CB 4.78 OG1 5.05 CG2 4.92
B GLU - 132 -95.3 118.4 N 4.59 CA 4.53 C 4.41 O 4.37 CB 4.65 CG 5.1 CD 5.74 OE1 6.13 OE2 6.21
B LEU E 34 -82.8 141.7 N 4.35 CA 4.23 C 4.28 O 4.41 CB 4.18 CG 4.03 CD1 3.54 CD2 4.0
B THR E 65 -140.8 -174.3 N 4.31 CA 4.32 C 4.34 O 4.21 CB 4.37 OG1 4.64 CG2 4.13
B GLN E 111 -139.9 161.7 N 4.47 CA 4.65 C 4.57 O 4.66 CB 4.66 CG 5.28 CD 6.11 OE1 6.7 NE2 6.17
B THR E 20 -148.4 139.9 N 4.5 CA 4.46 C 4.37 O 4.36 CB 4.51 OG1 5.06 CG2 4.16
B VAL E 92 -68.8 142.2 N 4.23 CA 4.15 C 4.14 O 4.22 CB 4.16 CG1 4.33 CG2 4.06
B LEU E 4 -151.8 113.8 N 4.0 CA 3.84 C 3.89 O 4.04 CB 3.94 CG 3.59 CD1 3.21 CD2 3.66
B GLU T 60 48.8 42.3 N 3.91 CA 4.0 C 3.99 O 3.93 CB 4.06 CG 4.2 CD 4.64 OE1 4.4 OE2 5.11
B GLY T 71 90.4 -38.6 N 4.05 CA 4.1 C 4.21 O 4.24
B GLU E 72 -74.7 148.9 N 4.26 CA 4.36 C 4.27 O 4.22 CB 4.44 CG 5.06 CD 6.27 OE1 7.15 OE2 6.54
B SER E 58 -97.7 108.5 N 4.29 CA 4.31 C 4.41 O 4.62 CB 4.39 OG 4.75
B ILE E 1 -98.8 129.6 N 4.4 CA 4.37 C 4.33 O 4.31 CB 4.59 CG1 4.82 CG2 4.2 CD1 4.96
B SER E 2 -67.3 141.2 N 4.27 CA 4.23 C 4.11 O 4.03 CB 4.27 OG 4.23
B CYS E 1 -157.1 160.8 N 4.05 CA 4.04 C 3.8 O 3.42 CB 4.05 SG 4.96
B PHE E 1 -108.2 131.1 N 3.7 CA 3.49 C 3.62 O 3.66 CB 3.38 CG 2.79 CD1 2.58 CD2 2.85 CE1 2.29 CE2 3.07 CZ 2.68
B GLN E 42 -83.8 95.5 N 3.71 CA 3.61 C 3.69 O 3.74 CB 3.6 CG 3.45 CD 3.35 OE1 3.77 NE2 3.37
B VAL E 41 -103.1 96.2 N 3.75 CA 3.74 C 3.88 O 4.03 CB 3.68 CG1 3.79 CG2 3.39
B GLY T 39 64.6 -127.1 N 3.89 CA 3.84 C 3.84 O 3.91
B GLY T 12 -89.3 3.9 N 3.77 CA 3.7 C 3.64 O 3.57
B GLU E 90 -113.7 144.5 N 3.65 CA 3.75 C 3.61 O 3.48 CB 3.75 CG 4.25 CD 4.53 OE1 4.09 OE2 5.36
B LYS E 46 -100.8 122.3 N 3.61 CA 3.71 C 3.75 O 3.72 CB 3.72 CG 3.84 CD 4.05 CE 4.27 NZ 4.21
B ARG E 65 -105.7 109.4 N 3.86 CA 3.89 C 3.85 O 3.71 CB 3.94 CG 4.14 CD 4.56 NE 5.27 CZ 5.01 NH1 5.11 NH2 5.33
B LEU E 0 -81.7 147.2 N 3.87 CA 4.11 C 4.12 O 4.47 CB 4.27 CG 4.07 CD1 4.39 CD2 3.87
B CYS E 1 -63.6 110.8 N 4.06 CA 4.28 C 4.27 O 4.58 CB 4.29 SG 5.51
B LEU H 29 -62.6 -46.0 N 4.15 CA 4.11 C 4.08 O 4.21 CB 4.02 CG 4.0 CD1 4.0 CD2 3.56
B PRO H 42 -58.7 -31.6 N 3.89 CA 3.84 C 3.86 O 4.06 CB 3.75 CG 3.66 CD 3.89
B GLN H 51 -67.1 -37.1 N 3.88 CA 3.94 C 4.01 O 4.18 CB 3.93 CG 3.91 CD 4.23 OE1 4.09 NE2 3.46
B VAL I 0 -70.0 -50.2 N 4.01 CA 3.88 C 4.0 O 4.16 CB 3.82 CG1 3.74 CG2 3.16
B LEU I 28 -69.9 -49.7 N 3.95 CA 3.99 C 4.06 O 4.13 CB 4.01 CG 4.18 CD1 3.84 CD2 3.9
B ASN I 55 -89.2 6.9 N 4.06 CA 4.14 C 4.11 O 4.22 CB 4.21 CG 4.59 OD1 4.84 ND2 4.53
B SER I 52 -140.6 -57.6 N 4.03 CA 4.0 C 3.89 O 4.06 CB 3.94 OG 4.31
B VAL I 9 -62.3 -41.9 N 3.64 CA 3.48 C 3.52 O 3.54 CB 3.47 CG1 3.29 CG2 3.24
B LEU T 0 -114.5 34.6 N 3.48 CA 3.46 C 3.43 O 3.32 CB 3.52 CG 3.54 CD1 3.39 CD2 3.58
B ARG T 8 -71.7 -25.0 N 3.45 CA 3.49 C 3.55 O 3.6 CB 3.55 CG 3.25 CD 3.08 NE 2.91 CZ 2.6 NH1 2.43 NH2 2.65
B GLU T 114 -76.2 0.6 N 3.65 CA 3.72 C 3.71 O 3.82 CB 3.75 CG 4.24 CD 4.5 OE1 4.66 OE2 4.45
B PHE S 23 -121.4 139.1 N 3.68 CA 3.64 C 3.6 O 3.68 CB 3.63 CG 3.68 CD1 3.59 CD2 3.66 CE1 3.59 CE2 3.49 CZ 3.48
B THR - 29 -70.2 156.2 N 3.52 CA 3.49 C 3.54 O 3.47 CB 3.56 OG1 3.6 CG2 3.3
B LEU H 57 -57.6 -37.4 N 3.59 CA 3.65 C 3.65 O 3.69 CB 3.55 CG 3.88 CD1 3.75 CD2 3.42
B GLN H 139 -59.1 -48.4 N 3.71 CA 3.79 C 3.73 O 3.72 CB 3.81 CG 4.09 CD 4.62 OE1 4.78 NE2 4.73
B GLN H 101 -74.7 -17.5 N 3.7 CA 3.73 C 3.74 O 3.85 CB 3.72 CG 3.85 CD 4.06 OE1 4.11 NE2 4.06
B ILE H 2 -76.1 -44.7 N 3.77 CA 3.77 C 3.74 O 3.83 CB 3.87 CG1 4.07 CG2 3.8 CD1 4.44
B ASN H 91 -71.3 -32.8 N 3.6 CA 3.55 C 3.53 O 3.42 CB 3.5 CG 3.4 OD1 3.39 ND2 3.29
B THR H 76 -62.8 -44.5 N 3.52 CA 3.48 C 3.46 O 3.47 CB 3.52 OG1 3.49 CG2 3.49
B VAL H 17 -65.6 -37.7 N 3.42 CA 3.4 C 3.46 O 3.44 CB 3.33 CG1 3.2 CG2 3.06
B CYS H 8 -64.7 -49.1 N 3.54 CA 3.55 C 3.63 O 3.64 CB 3.57 SG 3.22
B ASP H 118 -63.1 -35.2 N 3.76 CA 3.81 C 3.78 O 3.78 CB 3.87 CG 4.22 OD1 4.89 OD2 4.56
B GLU H 139 -72.8 -43.2 N 3.75 CA 3.76 C 3.66 O 3.5 CB 3.83 CG 4.29 CD 4.9 OE1 4.39 OE2 5.41
B LEU H 49 -86.1 -0.8 N 3.54 CA 3.5 C 3.46 O 3.42 CB 3.5 CG 3.46 CD1 3.39 CD2 3.14
B TYR T 203 58.9 43.7 N 3.46 CA 3.51 C 3.52 O 3.5 CB 3.52 CG 3.6 CD1 3.68 CD2 3.64 CE1 3.58 CE2 3.45 CZ 3.53 OH 3.57
B ILE - 11 -91.2 123.6 N 3.54 CA 3.53 C 3.61 O 3.62 CB 3.57 CG1 3.53 CG2 3.31 CD1 3.25
B TYR - 185 -120.5 126.9 N 3.65 CA 3.71 C 3.74 O 3.86 CB 3.71 CG 3.8 CD1 4.0 CD2 3.8 CE1 4.01 CE2 3.78 CZ 3.96 OH 3.97
B CYS - 38 -93.5 134.0 N 3.76 CA 3.89 C 3.8 O 3.82 CB 3.83 SG 4.46
B SER E 31 -86.7 178.0 N 3.69 CA 3.71 C 3.83 O 3.95 CB 3.64 OG 3.8
B ARG E 172 -116.6 139.1 N 3.91 CA 3.84 C 3.75 O 3.7 CB 3.92 CG 4.3 CD 4.69 NE 5.07 CZ 5.35 NH1 5.46 NH2 5.3
B CYS - 14 -59.6 142.5 N 3.83 CA 3.89 C 3.71 O 3.76 CB 3.94 SG 5.12
B THR - 73 -72.8 168.2 N 3.55 CA 3.32 C 3.28 O 3.23 CB 3.34 OG1 2.84 CG2 2.94
B SER H 102 -52.9 -47.6 N 3.25 CA 3.23 C 3.21 O 3.04 CB 3.19 OG 3.39
B ASP H 83 -68.1 -38.6 N 3.16 CA 3.2 C 3.16 O 3.05 CB 3.26 CG 3.19 OD1 3.03 OD2 3.22
B GLN H 16 -64.7 -46.6 N 3.11 CA 3.09 C 3.11 O 3.33 CB 3.05 CG 3.0 CD 2.83 OE1 3.15 NE2 2.23
B LEU H 22 -57.8 -42.8 N 3.09 CA 3.0 C 3.08 O 3.06 CB 2.98 CG 2.63 CD1 2.14 CD2 2.12
B HIS H 40 -68.5 -38.8 N 3.11 CA 3.14 C 3.26 O 3.24 CB 3.03 CG 2.68 ND1 2.0 CD2 2.27 CE1 2.0 NE2 2.0
B ILE H 23 -73.9 -27.5 N 3.33 CA 3.44 C 3.4 O 3.38 CB 3.49 CG1 3.56 CG2 3.51 CD1 3.87
B LEU H 1 -63.4 -31.1 N 3.37 CA 3.27 C 3.18 O 3.45 CB 3.23 CG 2.83 CD1 2.75 CD2 2.07
B LYS H 21 -74.7 -50.6 N 3.02 CA 3.01 C 3.07 O 2.84 CB 2.97 CG 2.83 CD 2.53 CE 2.16 NZ 2.0
B VAL H 13 -60.1 -42.1 N 3.04 CA 2.86 C 2.98 O 2.82 CB 2.9 CG1 2.28 CG2 2.81
B LEU T 7 -85.8 16.7 N 3.01 CA 2.95 C 2.95 O 2.88 CB 2.89 CG 2.8 CD1 2.66 CD2 2.27
B GLY T 0 82.1 6.4 N 3.15 CA 3.28 C 3.45 O 3.43
B ILE S 23 -81.9 -48.2 N 3.54 CA 3.64 C 3.83 O 4.23 CB 3.73 CG1 3.72 CG2 3.66 CD1 2.7
B LEU S 13 -107.4 152.2 N 3.59 CA 3.46 C 3.37 O 3.17 CB 3.6 CG 3.52 CD1 3.61 CD2 3.67
B PRO - 34 -69.1 145.8 N 3.2 CA 3.22 C 3.24 O 3.16 CB 3.38 CG 3.34 CD 3.19
B PHE T 5 -65.0 -20.5 N 3.19 CA 3.31 C 3.28 O 3.24 CB 3.26 CG 3.17 CD1 3.03 CD2 2.92 CE1 3.24 CE2 2.87 CZ 3.51
B ASN T 49 -75.0 -18.7 N 3.4 CA 3.51 C 3.59 O 3.91 CB 3.44 CG 3.39 OD1 3.83 ND2 2.7
B ALA - 14 -44.5 113.9 N 3.57 CA 3.6 C 3.63 O 3.58 CB 3.53
B PRO - 123 -73.2 -26.4 N 3.75 CA 3.72 C 3.76 O 3.87 CB 3.69 CG 3.51 CD 3.85
B SER - 42 -160.5 179.4 N 3.76 CA 3.78 C 3.81 O 4.07 CB 3.89 OG 4.17
B CYS - 4 -160.1 129.3 N 3.81 CA 3.83 C 3.62 O 3.58 CB 3.95 SG 5.08
B GLY E 15 -81.8 156.9 N 3.54 CA 3.55 C 3.57 O 3.41
B LEU E 3 -129.7 138.1 N 3.48 CA 3.32 C 3.24 O 3.08 CB 3.17 CG 3.07 CD1 2.0 CD2 2.83
B ILE E 2 -122.9 140.4 N 3.08 CA 3.02 C 3.15 O 3.3 CB 2.92 CG1 2.54 CG2 2.8 CD1 2.1
B THR E 20 -71.4 150.9 N 3.36 CA 3.37 C 3.44 O 3.45 CB 3.45 OG1 3.3 CG2 3.18
B LEU H 25 -55.8 -45.4 N 3.53 CA 3.59 C 3.65 O 3.74 CB 3.51 CG 3.56 CD1 3.47 CD2 3.45
B THR H 47 -56.9 -55.9 N 3.71 CA 3.8 C 3.86 O 3.84 CB 3.73 OG1 3.48 CG2 3.67
B ASP H 28 -59.0 -37.0 N 3.88 CA 3.87 C 3.75 O 3.63 CB 3.97 CG 4.09 OD1 4.61 OD2 4.21
B ALA H 0 -64.3 -41.6 N 3.69 CA 3.6 C 3.61 O 3.54 CB 3.61
B GLN H 23 -68.6 -36.1 N 3.54 CA 3.49 C 3.46 O 3.47 CB 3.42 CG 3.71 CD 3.81 OE1 4.14 NE2 4.01
B ARG H 50 -64.6 -47.6 N 3.44 CA 3.34 C 3.24 O 3.1 CB 3.35 CG 3.52 CD 3.66 NE 3.78 CZ 3.53 NH1 3.03 NH2 4.11
B LEU H 1 -57.3 -48.4 N 3.24 CA 3.21 C 3.26 O 3.21 CB 3.21 CG 3.07 CD1 2.8 CD2 3.05
B CYS H 0 -59.4 -47.1 N 3.32 CA 3.4 C 3.34 O 3.35 CB 3.44 SG 3.92
B ASN H 17 -52.0 -53.1 N 3.29 CA 3.25 C 3.29 O 3.25 CB 3.2 CG 2.99 OD1 2.95 ND2 2.75
B ALA H 38 -59.4 -36.7 N 3.31 CA 3.34 C 3.38 O 3.41 CB 3.33
B LEU H 14 -89.7 -42.5 N 3.4 CA 3.4 C 3.46 O 3.43 CB 3.36 CG 3.22 CD1 3.33 CD2 2.73
B LEU H 51 -85.2 -33.6 N 3.56 CA 3.62 C 3.65 O 3.67 CB 3.62 CG 3.59 CD1 3.43 CD2 3.32
B ARG S 75 -130.9 66.5 N 3.68 CA 3.72 C 3.79 O 3.82 CB 3.68 CG 3.67 CD 3.51 NE 3.39 CZ 3.22 NH1 3.3 NH2 3.17
B PRO - 98 -70.2 153.6 N 3.84 CA 3.92 C 4.02 O 4.08 CB 3.91 CG 3.88 CD 3.84
B ARG - 217 -100.1 360.0 N 4.08 CA 4.14 C 4.11 O 4.1 CB 4.17 CG 4.45 CD 4.93 NE 5.22 CZ 5.71 NH1 5.83 NH2 5.76
C SER - 70 360.0 -178.7 N 4.16 CA 4.2 C 4.28 O 4.44 CB 4.24 OG 4.18
C THR - 94 -152.2 -45.6 N 4.27 CA 4.23 C 4.22 O 4.28 CB 4.22 OG1 4.33 CG2 4.23
C GLU - 111 -71.9 132.2 N 4.2 CA 4.2 C 4.14 O 4.25 CB 4.25 CG 4.49 CD 4.87 OE1 5.18 OE2 5.01
C LEU E 26 -100.1 123.6 N 4.02 CA 3.89 C 3.77 O 3.89 CB 3.84 CG 4.08 CD1 3.92 CD2 4.0
C THR E 53 -114.6 -177.7 N 3.69 CA 3.69 C 3.7 O 3.7 CB 3.69 OG1 3.66 CG2 3.48
C GLN E 100 -134.7 144.1 N 3.76 CA 3.87 C 3.85 O 3.87 CB 3.88 CG 4.32 CD 4.66 OE1 4.93 NE2 4.59
C THR E 19 -137.3 151.7 N 3.89 CA 3.87 C 3.88 O 3.99 CB 3.9 OG1 3.85 CG2 3.84
C VAL E 93 -84.3 144.8 N 3.82 CA 3.78 C 3.72 O 3.73 CB 3.81 CG1 3.83 CG2 3.87
C LEU E 5 -153.5 121.6 N 3.61 CA 3.56 C 3.58 O 3.56 CB 3.48 CG 3.52 CD1 3.78 CD2 3.12
C GLU T 61 48.0 40.5 N 3.55 CA 3.58 C 3.57 O 3.51 CB 3.62 CG 3.54 CD 3.45 OE1 3.93 OE2 3.16
C GLY T 73 75.0 7.2 N 3.63 CA 3.61 C 3.63 O 3.6
C GLU E 71 -118.5 139.8 N 3.74 CA 3.82 C 3.84 O 3.88 CB 3.82 CG 4.07 CD 4.37 OE1 4.53 OE2 4.22
C SER E 64 -90.3 102.6 N 3.93 CA 3.97 C 3.98 O 4.19 CB 3.97 OG 4.34
C ILE E 4 -94.0 138.9 N 3.91 CA 3.78 C 3.73 O 3.72 CB 3.69 CG1 3.8 CG2 3.48 CD1 3.6
C SER E 1 -73.5 140.3 N 3.65 CA 3.62 C 3.66 O 3.72 CB 3.6 OG 3.58
C CYS E 0 -154.9 157.3 N 3.57 CA 3.58 C 3.66 O 3.6 CB 3.59 SG 3.73
C PHE E 1 -104.1 133.2 N 3.67 CA 3.66 C 3.63 O 3.51 CB 3.67 CG 3.62 CD1 3.77 CD2 3.55 CE1 3.98 CE2 3.77 CZ 3.79
C GLN E 42 -86.5 101.1 N 3.73 CA 3.75 C 3.72 O 3.72 CB 3.76 CG 4.0 CD 4.36 OE1 5.1 NE2 3.96
C VAL E 38 -106.4 85.3 N 3.73 CA 3.72 C 3.83 O 3.75 CB 3.8 CG1 3.59 CG2 3.55
C GLY T 49 58.6 40.0 N 3.92 CA 3.96 C 4.07 O 4.31
C GLY T 9 108.8 -17.2 N 4.03 CA 4.04 C 4.07 O 4.05
C GLU E 86 -105.3 138.8 N 4.15 CA 4.21 C 4.1 O 4.21 CB 4.34 CG 4.84 CD 5.51 OE1 5.71 OE2 5.9
C LYS E 44 -97.6 126.8 N 3.85 CA 3.78 C 3.75 O 3.71 CB 3.83 CG 4.04 CD 4.23 CE 4.33 NZ 4.7
C ARG E 75 -113.6 109.3 N 3.68 CA 3.71 C 3.67 O 3.59 CB 3.75 CG 3.96 CD 4.22 NE 4.57 CZ 4.69 NH1 4.57 NH2 4.63
C LEU E 0 -83.5 146.7 N 3.71 CA 3.73 C 3.81 O 3.78 CB 3.71 CG 3.61 CD1 3.39 CD2 3.19
C CYS E 2 -64.8 111.6 N 3.89 CA 3.88 C 3.8 O 3.88 CB 3.89 SG 4.7
C LEU H 27 -63.5 -44.4 N 3.74 CA 3.64 C 3.67 O 3.62 CB 3.52 CG 3.18 CD1 2.77 CD2 2.62
C PRO H 40 -56.0 -34.6 N 3.78 CA 3.78 C 3.78 O 3.93 CB 3.74 CG 3.76 CD 3.86
C GLN H 50 -64.3 -40.9 N 3.75 CA 3.77 C 3.84 O 3.91 CB 3.86 CG 3.83 CD 3.95 OE1 4.24 NE2 4.02
C VAL I 0 -67.4 -45.3 N 3.84 CA 3.78 C 3.87 O 4.01 CB 3.74 CG1 3.6 CG2 3.88
C LEU I 32 -72.7 -45.7 N 3.85 CA 3.94 C 3.97 O 4.02 CB 3.92 CG 3.69 CD1 3.0 CD2 3.43
C ASN I 59 -93.6 -4.6 N 3.96 CA 3.98 C 3.91 O 3.91 CB 4.03 CG 4.43 OD1 5.04 ND2 4.72
C SER I 59 -122.2 -61.5 N 3.85 CA 3.82 C 3.77 O 3.81 CB 3.85 OG 4.05
C VAL I 13 -67.3 -52.7 N 3.68 CA 3.6 C 3.61 O 3.56 CB 3.63 CG1 3.31 CG2 3.35
C LEU T 0 -100.7 32.6 N 3.53 CA 3.49 C 3.58 O 3.49 CB 3.39 CG 3.34 CD1 3.06 CD2 2.76
C ARG T 11 -67.2 -31.9 N 3.69 CA 3.69 C 3.62 O 3.56 CB 3.78 CG 3.68 CD 3.49 NE 3.42 CZ 2.95 NH1 2.78 NH2 2.35
C GLU T 115 -74.4 -3.9 N 3.65 CA 3.72 C 3.69 O 3.64 CB 3.77 CG 4.12 CD 4.37 OE1 4.98 OE2 4.32
C PHE S 21 -110.9 140.5 N 3.65 CA 3.65 C 3.69 O 3.71 CB 3.64 CG 3.54 CD1 3.21 CD2 3.49 CE1 3.38 CE2 3.34 CZ 3.33
C THR - 37 -67.1 152.9 N 3.72 CA 3.7 C 3.8 O 3.78 CB 3.75 OG1 3.48 CG2 3.66
C LEU H 74 -60.7 -32.5 N 3.93 CA 4.01 C 4.12 O 4.24 CB 3.96 CG 4.03 CD1 3.81 CD2 3.99
C GLN H 137 -62.7 -47.4 N 4.27 CA 4.46 C 4.49 O 4.69 CB 4.43 CG 5.02 CD 5.79 OE1 6.15 NE2 6.06
C GLN H 91 -65.7 -31.7 N 4.5 CA 4.51 C 4.35 O 4.57 CB 4.6 CG 5.03 CD 5.49 OE1 5.48 NE2 5.41
C ILE H 1 -72.4 -50.5 N 4.14 CA 3.89 C 3.87 O 3.83 CB 3.95 CG1 3.78 CG2 3.54 CD1 3.36
C ASN H 94 -62.8 -34.5 N 3.81 CA 3.79 C 3.71 O 3.5 CB 3.85 CG 4.2 OD1 5.24 ND2 4.55
C THR H 48 -54.8 -55.5 N 3.67 CA 3.64 C 3.67 O 3.75 CB 3.69 OG1 3.68 CG2 3.56
C VAL H 19 -58.8 -42.2 N 3.64 CA 3.63 C 3.56 O 3.46 CB 3.61 CG1 3.44 CG2 3.64
C CYS H 11 -60.3 -38.6 N 3.65 CA 3.73 C 3.79 O 3.77 CB 3.77 SG 3.85
C ASP H 118 -70.8 -31.2 N 3.83 CA 3.84 C 3.81 O 3.8 CB 3.85 CG 4.02 OD1 4.61 OD2 4.06
C GLU H 138 -82.2 -34.1 N 3.86 CA 3.98 C 3.9 O 3.88 CB 4.08 CG 4.55 CD 5.27 OE1 6.07 OE2 5.28
C LEU H 44 -89.1 -4.3 N 3.88 CA 3.88 C 3.9 O 3.95 CB 3.85 CG 3.96 CD1 3.57 CD2 3.81
C TYR T 166 61.0 41.4 N 3.91 CA 3.91 C 3.93 O 3.94 CB 3.89 CG 4.03 CD1 4.18 CD2 3.92 CE1 4.1 CE2 4.05 CZ 4.1 OH 3.98
C ILE - 10 -82.3 118.0 N 3.96 CA 3.93 C 3.97 O 3.91 CB 3.95 CG1 4.03 CG2 3.77 CD1 4.5
C TYR - 193 -108.7 120.5 N 4.02 CA 4.07 C 4.08 O 4.15 CB 4.16 CG 4.39 CD1 4.57 CD2 4.47 CE1 4.64 CE2 4.61 CZ 4.74 OH 5.03
C CYS - 63 -94.7 135.5 N 4.03 CA 4.03 C 3.91 O 3.82 CB 4.13 SG 4.53
C SER E 51 -93.3 179.9 N 3.88 CA 3.89 C 3.93 O 3.82 CB 3.88 OG 3.9
C ARG E 182 -118.5 142.4 N 3.98 CA 4.09 C 4.01 O 3.93 CB 4.12 CG 4.68 CD 5.36 NE 5.95 CZ 5.88 NH1 5.81 NH2 5.85
C CYS - 12 -60.1 142.1 N 4.06 CA 4.18 C 4.02 O 3.93 CB 4.24 SG 5.37
C THR - 76 -72.8 168.4 N 3.96 CA 3.94 C 3.95 O 4.01 CB 3.93 OG1 4.03 CG2 3.88
C SER H 94 -54.4 -41.5 N 3.98 CA 3.98 C 3.93 O 3.87 CB 3.96 OG 4.16
C ASP H 70 -70.2 -42.0 N 3.83 CA 3.8 C 3.71 O 3.69 CB 3.75 CG 3.97 OD1 3.86 OD2 4.23
C GLN H 10 -60.9 -44.0 N 3.63 CA 3.61 C 3.59 O 3.58 CB 3.62 CG 3.66 CD 3.76 OE1 3.63 NE2 3.42
C LEU H 22 -58.8 -45.3 N 3.53 CA 3.53 C 3.54 O 3.61 CB 3.49 CG 3.56 CD1 3.35 CD2 3.53
C HIS H 35 -65.0 -38.5 N 3.53 CA 3.54 C 3.52 O 3.35 CB 3.53 CG 3.66 ND1 3.63 CD2 3.78 CE1 3.67 NE2 3.89
C ILE H 24 -66.5 -37.4 N 3.56 CA 3.62 C 3.55 O 3.47 CB 3.75 CG1 4.2 CG2 3.98 CD1 4.54
C LEU H 0 -64.4 -31.1 N 3.51 CA 3.47 C 3.43 O 3.41 CB 3.56 CG 3.5 CD1 3.57 CD2 3.71
C LYS H 23 -74.7 -47.2 N 3.34 CA 3.39 C 3.41 O 3.43 CB 3.43 CG 3.55 CD 3.8 CE 3.79 NZ 3.99
C VAL H 13 -63.5 -42.5 N 3.38 CA 3.36 C 3.47 O 3.27 CB 3.32 CG1 3.09 CG2 3.13
C LEU T 7 -82.4 7.8 N 3.77 CA 3.9 C 4.02 O 4.31 CB 3.88 CG 4.06 CD1 4.22 CD2 4.51
C GLY T 0 84.6 14.8 N 3.95 CA 4.01 C 4.01 O 4.01
C ILE S 31 -85.7 -47.4 N 4.01 CA 4.02 C 4.05 O 4.08 CB 4.14 CG1 4.28 CG2 3.79 CD1 4.67
C LEU S 12 -105.3 147.9 N 4.07 CA 4.08 C 3.97 O 3.93 CB 4.18 CG 4.19 CD1 4.0 CD2 3.67
C PRO - 33 -64.3 149.0 N 3.94 CA 3.89 C 3.84 O 3.83 CB 3.84 CG 3.96 CD 3.9
C PHE T 8 -68.6 -22.5 N 3.81 CA 3.88 C 3.82 O 3.86 CB 3.85 CG 4.12 CD1 4.33 CD2 4.3 CE1 4.13 CE2 4.21 CZ 4.22
C ASN T 52 -74.6 -17.0 N 3.79 CA 3.75 C 3.69 O 3.78 CB 3.73 CG 3.88 OD1 3.73 ND2 3.81
C ALA - 16 -56.2 120.7 N 3.67 CA 3.71 C 3.78 O 3.67 CB 3.69
C PRO - 115 -78.6 -22.9 N 3.88 CA 4.0 C 4.05 O 4.09 CB 3.95 CG 3.92 CD 3.84
C SER - 55 -154.9 178.3 N 4.1 CA 4.12 C 4.14 O 4.23 CB 4.17 OG 4.27
C CYS - 4 -159.2 134.6 N 4.17 CA 4.25 C 4.25 O 4.47 CB 4.22 SG 5.11
C GLY E 18 -81.8 164.9 N 4.17 CA 4.18 C 4.2 O 4.29
C LEU E 2 -139.6 143.8 N 4.08 CA 4.05 C 4.08 O 4.2 CB 3.94 CG 3.83 CD1 3.33 CD2 3.37
C ILE E 2 -135.3 137.0 N 3.97 CA 3.86 C 3.83 O 3.75 CB 3.88 CG1 3.92 CG2 3.71 CD1 3.89
C THR E 21 -69.2 153.8 N 3.78 CA 3.7 C 3.64 O 3.77 CB 3.68 OG1 3.93 CG2 3.44
C LEU H 34 -57.7 -38.5 N 3.66 CA 3.59 C 3.61 O 3.63 CB 3.51 CG 3.4 CD1 3.48 CD2 2.82
C THR H 45 -63.2 -55.6 N 3.56 CA 3.58 C 3.61 O 3.64 CB 3.56 OG1 4.0 CG2 3.44
C ASP H 31 -57.9 -41.4 N 3.62 CA 3.69 C 3.69 O 3.61 CB 3.72 CG 3.72 OD1 4.27 OD2 2.85
C ALA H 0 -62.2 -38.1 N 3.71 CA 3.71 C 3.65 O 3.49 CB 3.65
C GLN H 21 -73.5 -42.6 N 3.69 CA 3.71 C 3.67 O 3.61 CB 3.7 CG 3.89 CD 4.49 OE1 5.11 NE2 4.58
C ARG H 53 -54.3 -47.5 N 3.63 CA 3.61 C 3.51 O 3.51 CB 3.62 CG 3.72 CD 3.79 NE 3.66 CZ 3.57 NH1 3.18 NH2 3.84
C LEU H 1 -60.8 -46.2 N 3.47 CA 3.51 C 3.59 O 3.58 CB 3.43 CG 3.26 CD1 2.79 CD2 2.8
C CYS H 0 -64.8 -37.6 N 3.62 CA 3.8 C 3.9 O 3.84 CB 3.81 SG 4.38
C ASN H 14 -59.2 -49.1 N 3.96 CA 3.95 C 3.98 O 4.13 CB 4.05 CG 4.1 OD1 4.44 ND2 4.21
C ALA H 37 -60.7 -34.1 N 3.88 CA 3.74 C 3.68 O 3.86 CB 3.73
C LEU H 15 -93.6 -46.1 N 3.58 CA 3.54 C 3.57 O 3.68 CB 3.56 CG 3.51 CD1 3.32 CD2 3.25
C LEU H 54 -82.1 -31.4 N 3.56 CA 3.56 C 3.6 O 3.46 CB 3.52 CG 3.47 CD1 2.86 CD2 3.03
C ARG S 65 -133.9 61.6 N 3.71 CA 3.79 C 3.89 O 3.96 CB 3.77 CG 3.93 CD 3.94 NE 4.09 CZ 4.35 NH1 4.81 NH2 4.02
C PRO - 91 -66.7 172.1 N 4.02 CA 4.07 C 4.12 O 4.21 CB 4.07 CG 3.99 CD 4.06
C ARG - 172 -142.5 360.0 N 4.17 CA 4.18 C 4.18 O 4.34 CB 4.2 CG 4.21 CD 4.27 NE 4.22 CZ 3.97 NH1 3.72 NH2 3.94
D SER - 96 360.0 -45.0 N 4.29 CA 4.29 C 4.28 O 4.33 CB 4.3 OG 4.3
D THR - 82 -105.9 0.8 N 4.26 CA 4.22 C 4.21 O 4.15 CB 4.22 OG1 4.3 CG2 4.17
D GLU - 115 -80.8 107.1 N 4.19 CA 4.2 C 4.14 O 4.22 CB 4.27 CG 4.59 CD 4.99 OE1 5.32 OE2 5.27
D LEU E 37 -87.2 126.5 N 4.05 CA 3.97 C 3.92 O 3.92 CB 4.0 CG 4.04 CD1 4.26 CD2 4.2
D THR E 60 -132.7 -162.3 N 3.9 CA 3.89 C 3.9 O 3.83 CB 3.86 OG1 3.85 CG2 3.91
D GLN E 126 -150.0 145.9 N 3.96 CA 4.02 C 3.96 O 3.87 CB 4.04 CG 4.43 CD 5.24 OE1 5.71 NE2 5.34
D THR E 19 -138.6 147.9 N 4.03 CA 4.05 C 4.04 O 4.14 CB 3.97 OG1 4.47 CG2 4.03
D VAL E 95 -79.1 127.0 N 4.07 CA 4.06 C 4.06 O 4.13 CB 4.04 CG1 4.13 CG2 3.95
D LEU E 3 -130.8 119.6 N 4.02 CA 4.02 C 4.03 O 4.01 CB 4.08 CG 4.03 CD1 3.62 CD2 3.85
D GLU T 78 50.0 42.8 N 4.01 CA 3.95 C 3.91 O 3.86 CB 3.97 CG 4.1 CD 4.33 OE1 4.47 OE2 4.19
D GLY T 73 81.2 -2.8 N 3.94 CA 3.94 C 4.02 O 4.04
D GLU E 79 -109.9 141.8 N 4.07 CA 4.16 C 4.08 O 4.15 CB 4.22 CG 4.86 CD 5.83 OE1 6.49 OE2 6.3
D SER E 63 -86.8 99.4 N 4.06 CA 3.99 C 3.85 O 3.89 CB 3.99 OG 4.39
D ILE E 4 -92.9 134.2 N 3.74 CA 3.64 C 3.64 O 3.75 CB 3.66 CG1 3.64 CG2 3.33 CD1 3.34
D SER E 6 -71.7 139.0 N 3.55 CA 3.57 C 3.59 O 3.64 CB 3.51 OG 3.46
D CYS E 2 -149.7 159.7 N 3.6 CA 3.64 C 3.63 O 3.56 CB 3.68 SG 3.74
D PHE E 1 -107.5 124.6 N 3.6 CA 3.62 C 3.66 O 3.67 CB 3.59 CG 3.38 CD1 3.19 CD2 3.16 CE1 3.42 CE2 3.11 CZ 3.04
D GLN E 58 -79.8 103.7 N 3.77 CA 3.85 C 3.86 O 3.84 CB 3.88 CG 4.0 CD 4.1 OE1 4.2 NE2 4.19
D VAL E 45 -106.8 69.0 N 3.9 CA 3.92 C 4.04 O 4.16 CB 3.91 CG1 3.71 CG2 3.76
D GLY T 80 51.6 73.0 N 4.08 CA 4.11 C 4.21 O 4.46
D GLY T 72 100.1 -38.6 N 4.19 CA 4.16 C 4.09 O 4.16
D GLU E 98 -98.4 134.3 N 4.0 CA 3.96 C 3.91 O 3.84 CB 3.98 CG 4.3 CD 4.77 OE1 4.74 OE2 4.88
D LYS E 72 -94.5 124.3 N 3.86 CA 3.84 C 3.83 O 3.76 CB 3.78 CG 3.92 CD 4.14 CE 4.34 NZ 4.76
D ARG E 64 -100.7 110.1 N 3.8 CA 3.87 C 3.81 O 3.97 CB 3.93 CG 4.44 CD 5.01 NE 5.4 CZ 5.87 NH1 5.93 NH2 6.28
D LEU E 0 -82.8 141.6 N 3.78 CA 3.68 C 3.84 O 3.88 CB 3.62 CG 3.56 CD1 3.02 CD2 3.51
D CYS E 1 -62.8 115.6 N 3.84 CA 3.83 C 3.81 O 3.72 CB 3.87 SG 4.18
D LEU H 26 -71.1 -38.0 N 3.85 CA 3.82 C 3.84 O 3.83 CB 3.72 CG 3.79 CD1 3.61 CD2 3.94
D PRO H 39 -56.0 -34.9 N 3.87 CA 3.97 C 4.04 O 4.22 CB 3.9 CG 3.91 CD 3.94
D GLN H 50 -71.3 -31.1 N 4.0 CA 4.01 C 4.03 O 4.13 CB 4.05 CG 4.12 CD 4.36 OE1 4.38 NE2 4.02
D VAL I 0 -72.3 -49.3 N 3.93 CA 3.92 C 3.99 O 4.11 CB 3.92 CG1 3.5 CG2 3.81
D LEU I 26 -70.5 -45.2 N 4.05 CA 4.06 C 4.18 O 4.44 CB 4.1 CG 3.97 CD1 3.91 CD2 4.47
D ASN I 60 -84.2 -8.4 N 4.12 CA 4.19 C 4.17 O 4.29 CB 4.18 CG 4.34 OD1 4.56 ND2 5.03
D SER I 55 -129.9 -64.9 N 4.03 CA 3.95 C 3.86 O 3.85 CB 3.93 OG 4.4
D VAL I 10 -58.4 -43.9 N 3.74 CA 3.67 C 3.65 O 3.69 CB 3.68 CG1 3.53 CG2 3.48
D LEU T 0 -112.5 22.7 N 3.58 CA 3.56 C 3.51 O 3.25 CB 3.61 CG 3.5 CD1 3.24 CD2 3.41
D ARG T 8 -57.6 -28.3 N 3.6 CA 3.61 C 3.64 O 3.61 CB 3.6 CG 3.59 CD 3.48 NE 3.36 CZ 3.14 NH1 2.79 NH2 3.17
D GLU T 112 -73.7 -9.4 N 3.66 CA 3.74 C 3.7 O 3.7 CB 3.81 CG 4.06 CD 4.61 OE1 4.93 OE2 4.6
D PHE S 22 -112.9 138.5 N 3.7 CA 3.7 C 3.74 O 3.78 CB 3.72 CG 3.68 CD1 3.49 CD2 3.46 CE1 3.67 CE2 3.83 CZ 3.68
D THR - 44 -70.0 158.4 N 3.73 CA 3.72 C 3.76 O 3.72 CB 3.69 OG1 3.6 CG2 3.61
D LEU H 75 -61.1 -38.8 N 3.74 CA 3.77 C 3.88 O 3.99 CB 3.71 CG 3.67 CD1 3.14 CD2 3.42
D GLN H 158 -63.2 -39.0 N 3.89 CA 3.96 C 3.94 O 3.9 CB 4.02 CG 4.2 CD 4.64 OE1 5.08 NE2 4.73
D GLN H 91 -66.0 -37.9 N 3.95 CA 3.92 C 3.92 O 4.01 CB 3.95 CG 4.19 CD 4.38 OE1 4.0 NE2 4.14
D ILE H 1 -69.1 -53.7 N 4.01 CA 3.99 C 3.96 O 3.96 CB 4.09 CG1 4.28 CG2 4.32 CD1 4.8
D ASN H 92 -61.3 -28.9 N 3.92 CA 3.96 C 3.78 O 3.74 CB 3.98 CG 4.66 OD1 5.45 ND2 5.36
D THR H 77 -66.1 -49.2 N 3.67 CA 3.55 C 3.55 O 3.5 CB 3.53 OG1 3.22 CG2 3.42
D VAL H 30 -62.7 -37.7 N 3.53 CA 3.42 C 3.47 O 3.52 CB 3.4 CG1 3.09 CG2 3.25
D CYS H 8 -60.3 -39.7 N 3.47 CA 3.46 C 3.61 O 3.65 CB 3.49 SG 2.87
D ASP H 110 -69.7 -39.3 N 3.66 CA 3.71 C 3.67 O 3.67 CB 3.72 CG 3.91 OD1 4.01 OD2 3.96
D GLU H 150 -66.6 -41.7 N 3.67 CA 3.67 C 3.69 O 3.65 CB 3.68 CG 3.68 CD 3.74 OE1 3.76 OE2 3.56
D LEU T 48 -88.3 5.0 N 3.8 CA 3.85 C 3.85 O 3.8 CB 3.96 CG 4.03 CD1 4.01 CD2 4.03
D TYR T 174 59.3 35.5 N 3.85 CA 3.83 C 3.86 O 3.88 CB 3.87 CG 3.82 CD1 3.87 CD2 3.92 CE1 4.01 CE2 3.77 CZ 3.87 OH 4.47
D ILE - 4 -85.5 119.9 N 3.88 CA 3.91 C 3.95 O 3.9 CB 3.95 CG1 3.96 CG2 3.64 CD1 4.04
D TYR - 176 -119.4 105.5 N 3.98 CA 4.06 C 4.11 O 4.12 CB 4.09 CG 4.36 CD1 4.48 CD2 4.29 CE1 4.41 CE2 4.43 CZ 4.52 OH 4.82
D CYS - 55 -73.5 137.9 N 4.16 CA 4.28 C 4.06 O 4.05 CB 4.27 SG 5.48
D SER E 49 -89.1 178.3 N 3.97 CA 3.94 C 3.86 O 3.76 CB 3.95 OG 3.97
D ARG E 174 -113.9 138.5 N 3.8 CA 3.77 C 3.72 O 3.65 CB 3.77 CG 4.06 CD 4.2 NE 4.24 CZ 4.11 NH1 3.95 NH2 3.95
D CYS - 15 -58.4 146.3 N 3.69 CA 3.78 C 3.62 O 3.7 CB 3.8 SG 4.26
D THR - 71 -79.2 170.4 N 3.52 CA 3.53 C 3.52 O 3.45 CB 3.52 OG1 3.49 CG2 3.4
D SER H 87 -52.1 -47.6 N 3.53 CA 3.55 C 3.54 O 3.55 CB 3.55 OG 3.69
D ASP H 76 -64.9 -37.7 N 3.55 CA 3.6 C 3.53 O 3.44 CB 3.66 CG 4.02 OD1 4.62 OD2 4.57
D GLN H 12 -72.8 -39.7 N 3.53 CA 3.58 C 3.55 O 3.54 CB 3.66 CG 3.54 CD 3.66 OE1 4.15 NE2 3.42
D LEU H 25 -60.8 -42.8 N 3.56 CA 3.54 C 3.58 O 3.48 CB 3.68 CG 3.7 CD1 3.86 CD2 3.85
D HIS H 35 -74.1 -37.4 N 3.62 CA 3.64 C 3.7 O 3.96 CB 3.57 CG 3.79 ND1 3.71 CD2 3.95 CE1 3.49 NE2 3.72
D ILE H 17 -67.6 -36.9 N 3.58 CA 3.53 C 3.44 O 3.35 CB 3.62 CG1 3.67 CG2 3.59 CD1 3.99
D LEU H 1 -61.1 -34.7 N 3.39 CA 3.33 C 3.38 O 3.41 CB 3.3 CG 3.14 CD1 3.13 CD2 2.6
D LYS H 23 -71.6 -50.6 N 3.28 CA 3.22 C 3.25 O 3.16 CB 3.24 CG 3.07 CD 2.82 CE 2.8 NZ 2.45
D VAL H 8 -58.9 -40.3 N 3.33 CA 3.36 C 3.37 O 3.33 CB 3.35 CG1 3.32 CG2 3.39
D LEU T 6 -84.0 5.6 N 3.48 CA 3.5 C 3.54 O 3.6 CB 3.46 CG 3.41 CD1 3.13 CD2 3.37
D GLY T 0 88.9 8.5 N 3.56 CA 3.52 C 3.52 O 3.3
D ILE S 32 -83.0 -43.9 N 3.63 CA 3.72 C 3.79 O 3.89 CB 3.7 CG1 3.88 CG2 3.75 CD1 4.08
D LEU S 12 -108.9 152.5 N 3.8 CA 3.73 C 3.64 O 3.67 CB 3.73 CG 3.66 CD1 3.29 CD2 3.26
D PRO - 30 -72.5 148.0 N 3.67 CA 3.59 C 3.61 O 3.61 CB 3.6 CG 3.56 CD 3.68
D PHE T 4 -65.3 -16.5 N 3.71 CA 3.71 C 3.82 O 4.06 CB 3.67 CG 3.5 CD1 3.35 CD2 3.52 CE1 3.27 CE2 3.45 CZ 3.36
D ASN T 51 -80.9 -15.1 N 3.81 CA 3.81 C 3.9 O 3.99 CB 3.76 CG 3.6 OD1 3.76 ND2 3.07
D ALA - 14 -50.3 115.0 N 3.89 CA 3.87 C 3.88 O 3.91 CB 3.83
D PRO - 118 -76.0 -37.8 N 3.92 CA 3.9 C 3.77 O 3.59 CB 3.91 CG 3.93 CD 3.91
D SER - 73 -144.7 172.0 N 3.77 CA 3.75 C 3.78 O 3.72 CB 3.75 OG 3.7
D CYS - 2 -151.6 128.3 N 3.88 CA 3.94 C 3.93 O 4.02 CB 3.92 SG 4.42
D GLY E 19 -77.5 158.5 N 3.9 CA 3.83 C 3.82 O 3.88
D LEU E 4 -137.8 134.1 N 3.72 CA 3.6 C 3.57 O 3.6 CB 3.53 CG 3.39 CD1 3.21 CD2 3.05
D ILE E 3 -128.1 140.0 N 3.55 CA 3.54 C 3.52 O 3.52 CB 3.52 CG1 3.59 CG2 3.49 CD1 3.41
D THR E 23 -70.7 148.2 N 3.46 CA 3.49 C 3.5 O 3.51 CB 3.54 OG1 3.52 CG2 3.37
D LEU H 34 -55.9 -40.9 N 3.5 CA 3.56 C 3.53 O 3.63 CB 3.55 CG 3.49 CD1 3.11 CD2 2.8
D THR H 93 -60.9 -49.6 N 3.48 CA 3.51 C 3.57 O 3.63 CB 3.43 OG1 3.34 CG2 3.45
D ASP H 32 -67.5 -41.6 N 3.62 CA 3.64 C 3.65 O 3.63 CB 3.75 CG 3.77 OD1 4.74 OD2 3.48
D ALA H 0 -51.5 -49.0 N 3.61 CA 3.55 C 3.57 O 3.49 CB 3.5
D GLN H 84 -65.5 -41.3 N 3.54 CA 3.59 C 3.55 O 3.44 CB 3.51 CG 3.59 CD 3.62 OE1 4.06 NE2 3.1
D ARG H 90 -60.3 -47.4 N 3.64 CA 3.69 C 3.69 O 3.63 CB 3.72 CG 3.93 CD 4.04 NE 4.02 CZ 4.21 NH1 4.23 NH2 3.91
D LEU H 1 -55.6 -50.6 N 3.73 CA 3.72 C 3.78 O 3.81 CB 3.74 CG 3.62 CD1 3.25 CD2 2.88
D CYS H 0 -58.6 -45.5 N 3.83 CA 3.93 C 3.85 O 3.85 CB 3.97 SG 4.75
D ASN H 80 -52.7 -42.7 N 3.76 CA 3.68 C 3.69 O 3.67 CB 3.62 CG 3.33 OD1 2.11 ND2 3.31
D ALA H 37 -70.6 -38.1 N 3.71 CA 3.68 C 3.71 O 3.71 CB 3.62
D LEU H 15 -88.7 -47.6 N 3.74 CA 3.73 C 3.74 O 3.77 CB 3.77 CG 3.8 CD1 3.4 CD2 4.07
D LEU H 51 -79.7 -32.7 N 3.74 CA 3.74 C 3.82 O 3.93 CB 3.75 CG 3.71 CD1 3.92 CD2 3.52
D ARG - 127 -136.0 69.8 N 3.83 CA 3.85 C 3.85 O 3.79 CB 3.86 CG 3.84 CD 3.75 NE 3.86 CZ 3.31 NH1 3.13 NH2 3.17
D PRO - 146 -63.1 360.0 N 3.87 CA 3.88 C 3.82 O 3.75 CB 3.89 CG 3.9 CD 3.83
E THR - 114 360.0 94.9 N 3.76 CA 3.79 C 3.8 O 3.76 CB 3.79 OG1 3.81 CG2 3.83
E GLU - 75 -89.9 136.8 N 3.83 CA 3.85 C 3.85 O 3.83 CB 3.88 CG 3.97 CD 3.98 OE1 4.05 OE2 3.91
E LEU E 16 -85.4 131.1 N 3.82 CA 3.81 C 3.81 O 3.86 CB 3.83 CG 3.85 CD1 3.69 CD2 3.96
E THR E 61 -119.5 -168.4 N 3.78 CA 3.75 C 3.76 O 3.78 CB 3.78 OG1 3.67 CG2 3.72
E GLN E 127 -145.2 149.8 N 3.77 CA 3.77 C 3.73 O 3.72 CB 3.8 CG 3.85 CD 4.29 OE1 4.22 NE2 4.43
E THR E 23 -149.7 145.7 N 3.7 CA 3.69 C 3.67 O 3.73 CB 3.76 OG1 3.75 CG2 3.74
E VAL E 98 -74.2 138.3 N 3.66 CA 3.64 C 3.63 O 3.72 CB 3.61 CG1 3.56 CG2 3.58
E LEU E 6 -144.6 113.5 N 3.6 CA 3.56 C 3.57 O 3.54 CB 3.53 CG 3.43 CD1 3.36 CD2 3.25
E GLU T 79 53.1 45.4 N 3.55 CA 3.55 C 3.54 O 3.52 CB 3.54 CG 3.52 CD 3.41 OE1 3.35 OE2 3.52
E GLY T 73 70.7 22.2 N 3.57 CA 3.57 C 3.56 O 3.59
E GLU E 86 -130.9 132.3 N 3.55 CA 3.56 C 3.5 O 3.45 CB 3.59 CG 3.78 CD 3.94 OE1 4.02 OE2 4.18
E SER E 65 -81.9 97.8 N 3.48 CA 3.47 C 3.48 O 3.43 CB 3.47 OG 3.49
E ILE E 1 -91.6 133.0 N 3.5 CA 3.5 C 3.48 O 3.49 CB 3.48 CG1 3.48 CG2 3.53 CD1 3.13
E SER E 5 -71.0 142.8 N 3.46 CA 3.43 C 3.42 O 3.37 CB 3.44 OG 3.41
E CYS E 2 -157.7 157.0 N 3.44 CA 3.46 C 3.4 O 3.38 CB 3.42 SG 3.56
E PHE E 4 -103.6 127.1 N 3.4 CA 3.44 C 3.44 O 3.38 CB 3.46 CG 3.36 CD1 3.34 CD2 3.35 CE1 3.33 CE2 3.48 CZ 3.44
E GLN E 96 -79.3 99.0 N 3.48 CA 3.51 C 3.51 O 3.54 CB 3.53 CG 3.5 CD 3.44 OE1 3.55 NE2 3.38
E VAL E 67 -108.1 98.9 N 3.54 CA 3.54 C 3.6 O 3.61 CB 3.56 CG1 3.32 CG2 3.54
E GLY T 68 65.5 -125.6 N 3.63 CA 3.63 C 3.67 O 3.68
E GLY T 85 -93.0 9.0 N 3.7 CA 3.71 C 3.74 O 3.75
E GLU E 82 -118.4 146.2 N 3.76 CA 3.8 C 3.75 O 3.78 CB 3.85 CG 4.16 CD 4.47 OE1 4.65 OE2 4.59
E LYS E 78 -102.5 123.0 N 3.7 CA 3.69 C 3.63 O 3.57 CB 3.72 CG 3.83 CD 3.85 CE 3.85 NZ 3.96
E ARG E 58 -99.1 106.0 N 3.61 CA 3.59 C 3.56 O 3.53 CB 3.6 CG 3.66 CD 3.65 NE 3.68 CZ 3.67 NH1 3.54 NH2 3.73
E LEU E 0 -78.9 151.6 N 3.55 CA 3.48 C 3.41 O 3.35 CB 3.5 CG 3.43 CD1 3.14 CD2 3.3
E CYS E 1 -71.1 116.3 N 3.37 CA 3.34 C 3.29 O 3.27 CB 3.36 SG 3.32
E LEU H 28 -65.9 -46.4 N 3.24 CA 3.24 C 3.23 O 3.15 CB 3.18 CG 3.04 CD1 2.92 CD2 2.94
E PRO H 35 -50.4 -40.8 N 3.25 CA 3.33 C 3.32 O 3.3 CB 3.3 CG 3.34 CD 3.24
E GLN H 51 -64.5 -37.6 N 3.32 CA 3.32 C 3.42 O 3.47 CB 3.3 CG 3.19 CD 3.1 OE1 3.03 NE2 3.25
E VAL I 0 -70.7 -46.0 N 3.45 CA 3.47 C 3.49 O 3.47 CB 3.51 CG1 3.43 CG2 3.42
E LEU I 30 -69.4 -38.3 N 3.52 CA 3.54 C 3.56 O 3.49 CB 3.54 CG 3.44 CD1 3.28 CD2 3.32
E ASN I 62 -95.9 3.7 N 3.64 CA 3.7 C 3.66 O 3.67 CB 3.74 CG 3.98 OD1 4.19 ND2 4.18
E SER I 52 -140.5 -58.3 N 3.63 CA 3.61 C 3.55 O 3.6 CB 3.59 OG 3.8
E VAL I 13 -64.6 -42.9 N 3.5 CA 3.43 C 3.39 O 3.37 CB 3.43 CG1 3.31 CG2 3.35
E LEU T 0 -115.1 35.4 N 3.32 CA 3.31 C 3.33 O 3.29 CB 3.28 CG 3.23 CD1 3.02 CD2 3.06
E ARG T 9 -65.9 -33.9 N 3.3 CA 3.33 C 3.31 O 3.24 CB 3.32 CG 3.25 CD 3.14 NE 2.98 CZ 2.84 NH1 2.65 NH2 2.84
E GLU T 116 -68.3 -12.4 N 3.3 CA 3.28 C 3.23 O 3.15 CB 3.28 CG 3.24 CD 3.11 OE1 3.04 OE2 3.0
E PHE S 31 -106.6 141.2 N 3.23 CA 3.27 C 3.23 O 3.19 CB 3.26 CG 3.28 CD1 3.32 CD2 3.33 CE1 3.27 CE2 3.27 CZ 3.23
E THR - 47 -71.2 150.1 N 3.28 CA 3.34 C 3.36 O 3.37 CB 3.37 OG1 3.37 CG2 3.21
E LEU H 87 -60.3 -34.4 N 3.4 CA 3.4 C 3.52 O 3.42 CB 3.42 CG 3.4 CD1 2.96 CD2 3.27
E GLN H 168 -66.3 -41.0 N 3.58 CA 3.6 C 3.56 O 3.58 CB 3.61 CG 3.77 CD 3.87 OE1 3.71 NE2 3.95
E GLN H 99 -74.4 -24.1 N 3.54 CA 3.56 C 3.54 O 3.56 CB 3.58 CG 3.66 CD 3.73 OE1 3.95 NE2 3.76
E ILE H 2 -74.2 -49.6 N 3.57 CA 3.54 C 3.57 O 3.63 CB 3.59 CG1 3.74 CG2 3.33 CD1 4.0
E ASN H 79 -67.6 -25.4 N 3.54 CA 3.59 C 3.59 O 3.55 CB 3.61 CG 3.76 OD1 4.01 ND2 3.51
E THR H 72 -73.7 -39.0 N 3.6 CA 3.56 C 3.52 O 3.47 CB 3.57 OG1 3.49 CG2 3.65
E VAL H 22 -70.8 -29.9 N 3.53 CA 3.56 C 3.58 O 3.61 CB 3.55 CG1 3.41 CG2 3.66
E CYS H 12 -65.5 -40.3 N 3.58 CA 3.57 C 3.57 O 3.52 CB 3.56 SG 3.47
E ASP H 100 -72.6 -26.5 N 3.58 CA 3.63 C 3.56 O 3.5 CB 3.63 CG 3.77 OD1 3.95 OD2 3.95
E GLU H 139 -66.2 -43.4 N 3.58 CA 3.64 C 3.61 O 3.62 CB 3.71 CG 3.84 CD 4.04 OE1 3.84 OE2 3.96
E LEU T 43 -101.3 8.2 N 3.57 CA 3.55 C 3.55 O 3.56 CB 3.55 CG 3.52 CD1 3.27 CD2 3.36
E TYR T 172 57.6 45.0 N 3.54 CA 3.55 C 3.55 O 3.54 CB 3.56 CG 3.53 CD1 3.49 CD2 3.57 CE1 3.61 CE2 3.6 CZ 3.66 OH 3.75
E ILE - 7 -95.5 125.0 N 3.61 CA 3.59 C 3.58 O 3.53 CB 3.57 CG1 3.52 CG2 3.59 CD1 3.33
E TYR - 181 -127.7 113.6 N 3.62 CA 3.64 C 3.61 O 3.66 CB 3.69 CG 3.92 CD1 4.06 CD2 4.28 CE1 4.23 CE2 4.38 CZ 4.44 OH 4.89
E CYS - 56 -83.1 137.4 N 3.59 CA 3.61 C 3.51 O 3.46 CB 3.68 SG 4.05
E SER E 55 -83.9 173.5 N 3.44 CA 3.4 C 3.38 O 3.37 CB 3.39 OG 3.32
E ARG E 186 -112.9 143.5 N 3.36 CA 3.34 C 3.29 O 3.27 CB 3.33 CG 3.35 CD 3.34 NE 3.29 CZ 3.3 NH1 3.31 NH2 3.29
E CYS - 16 -60.0 151.2 N 3.28 CA 3.25 C 3.25 O 3.22 CB 3.26 SG 3.06
E THR - 73 -77.0 173.1 N 3.26 CA 3.27 C 3.29 O 3.24 CB 3.26 OG1 3.19 CG2 3.23
E SER H 95 -56.4 -42.4 N 3.32 CA 3.35 C 3.39 O 3.38 CB 3.34 OG 3.28
E ASP H 99 -72.0 -37.2 N 3.44 CA 3.46 C 3.47 O 3.44 CB 3.45 CG 3.41 OD1 3.37 OD2 3.33
E GLN H 15 -70.2 -42.9 N 3.49 CA 3.55 C 3.51 O 3.43 CB 3.55 CG 3.75 CD 3.94 OE1 4.25 NE2 3.79
E LEU H 25 -55.5 -51.4 N 3.51 CA 3.41 C 3.44 O 3.45 CB 3.38 CG 3.23 CD1 3.15 CD2 2.73
E HIS H 34 -60.8 -42.1 N 3.48 CA 3.58 C 3.66 O 3.83 CB 3.54 CG 3.54 ND1 3.51 CD2 3.66 CE1 3.62 NE2 3.61
E ILE H 21 -69.4 -30.0 N 3.61 CA 3.63 C 3.65 O 3.72 CB 3.72 CG1 3.79 CG2 3.69 CD1 3.74
E LEU H 1 -67.1 -35.8 N 3.63 CA 3.67 C 3.7 O 3.75 CB 3.67 CG 3.82 CD1 3.96 CD2 3.73
E LYS H 22 -73.7 -48.7 N 3.7 CA 3.7 C 3.75 O 3.7 CB 3.74 CG 3.79 CD 3.62 CE 3.63 NZ 3.5
E VAL H 11 -58.8 -41.2 N 3.84 CA 3.82 C 3.79 O 3.78 CB 3.85 CG1 3.85 CG2 3.75
E LEU T 2 -84.7 11.1 N 3.74 CA 3.76 C 3.79 O 3.77 CB 3.77 CG 3.76 CD1 3.71 CD2 3.84
E GLY T 0 80.1 13.0 N 3.78 CA 3.71 C 3.7 O 3.63
E ILE S 30 -79.4 -52.6 N 3.68 CA 3.66 C 3.64 O 3.72 CB 3.71 CG1 3.81 CG2 3.43 CD1 3.72
E LEU S 13 -106.1 154.4 N 3.61 CA 3.58 C 3.55 O 3.57 CB 3.56 CG 3.48 CD1 3.31 CD2 3.39
E PRO - 31 -72.2 148.0 N 3.56 CA 3.59 C 3.59 O 3.57 CB 3.6 CG 3.62 CD 3.54
E PHE T 9 -64.6 -25.6 N 3.57 CA 3.66 C 3.69 O 3.71 CB 3.71 CG 3.76 CD1 3.62 CD2 3.88 CE1 3.81 CE2 3.89 CZ 3.92
E ASN T 43 -74.1 -20.7 N 3.74 CA 3.8 C 3.77 O 3.85 CB 3.81 CG 3.92 OD1 4.13 ND2 3.63
E ALA - 17 -47.8 116.8 N 3.8 CA 3.8 C 3.83 O 3.74 CB 3.78
E PRO - 116 -73.6 -31.5 N 3.88 CA 3.87 C 3.84 O 3.84 CB 3.87 CG 3.96 CD 3.9
E SER - 54 -154.4 174.4 N 3.84 CA 3.8 C 3.83 O 3.86 CB 3.82 OG 3.78
E CYS - 4 -154.7 130.7 N 3.89 CA 3.99 C 3.86 O 3.79 CB 4.02 SG 4.88
E GLY E 19 -81.7 153.1 N 3.79 CA 3.82 C 3.83 O 3.94
E LEU E 6 -128.2 135.1 N 3.71 CA 3.72 C 3.64 O 3.55 CB 3.73 CG 3.81 CD1 3.42 CD2 3.82
E ILE E 3 -129.8 135.6 N 3.58 CA 3.49 C 3.48 O 3.39 CB 3.5 CG1 3.34 CG2 3.34 CD1 3.23
E THR E 10 -68.4 155.3 N 3.53 CA 3.57 C 3.55 O 3.63 CB 3.55 OG1 3.62 CG2 3.65
E LEU H 35 -56.0 -44.4 N 3.5 CA 3.52 C 3.54 O 3.51 CB 3.49 CG 3.39 CD1 3.07 CD2 2.92
E THR H 86 -60.8 -46.5 N 3.58 CA 3.59 C 3.62 O 3.53 CB 3.6 OG1 3.53 CG2 3.56
E ASP H 37 -66.8 -40.5 N 3.73 CA 3.82 C 3.83 O 3.87 CB 3.91 CG 4.21 OD1 4.66 OD2 4.65
E ALA H 0 -61.0 -37.5 N 3.87 CA 3.82 C 3.85 O 3.86 CB 3.81
E GLN H 85 -73.4 -33.5 N 3.8 CA 3.78 C 3.74 O 3.71 CB 3.78 CG 3.82 CD 3.87 OE1 4.0 NE2 3.69
E ARG H 100 -68.9 -26.2 N 3.74 CA 3.72 C 3.75 O 3.84 CB 3.74 CG 3.57 CD 3.35 NE 3.17 CZ 3.16 NH1 3.11 NH2 3.32
E LEU H 1 -82.2 -42.4 N 3.72 CA 3.64 C 3.66 O 3.71 CB 3.61 CG 3.48 CD1 3.33 CD2 3.24
E CYS H 1 -64.7 -45.3 N 3.63 CA 3.66 C 3.65 O 3.67 CB 3.67 SG 3.97
E ASN H 79 -68.0 -37.9 N 3.65 CA 3.62 C 3.6 O 3.57 CB 3.62 CG 3.52 OD1 3.88 ND2 3.13
E ALA H 45 -59.4 -39.3 N 3.58 CA 3.59 C 3.63 O 3.65 CB 3.56
E LEU H 18 -83.2 -53.7 N 3.63 CA 3.68 C 3.7 O 3.74 CB 3.67 CG 3.65 CD1 3.71 CD2 3.51
E LEU H 51 -81.3 -5.3 N 3.73 CA 3.73 C 3.76 O 3.74 CB 3.75 CG 3.67 CD1 3.5 CD2 3.59
E ARG - 120 -126.5 174.2 N 3.85 CA 3.88 C 3.9 O 3.88 CB 3.91 CG 4.05 CD 4.24 NE 4.5 CZ 4.91 NH1 4.98 NH2 5.05
E PRO - 175 -64.7 360.0 N 3.96 CA 3.97 C 3.96 O 4.0 CB 3.98 CG 3.99 CD 3.97
F SER - 150 360.0 171.9 N 4.62 CA 4.68 C 4.56 O 4.49 CB 4.75 OG 5.0
F THR - 104 -172.6 73.5 N 4.5 CA 4.43 C 4.31 O 4.46 CB 4.48 OG1 4.49 CG2 4.44
F GLU S 104 67.4 -69.6 N 4.14 CA 4.07 C 3.99 O 4.01 CB 4.09 CG 4.1 CD 4.12 OE1 4.44 OE2 3.94
F LEU - 20 -72.9 116.4 N 3.89 CA 3.8 C 3.75 O 3.56 CB 3.74 CG 3.85 CD1 4.05 CD2 4.01
F THR E 37 -116.5 -174.8 N 3.75 CA 3.79 C 3.76 O 3.6 CB 3.79 OG1 3.94 CG2 4.02
F GLN E 117 -135.1 148.9 N 3.82 CA 3.84 C 3.71 O 3.62 CB 3.97 CG 4.43 CD 4.82 OE1 5.56 NE2 5.08
F THR E 23 -135.3 161.6 N 3.53 CA 3.48 C 3.36 O 3.2 CB 3.56 OG1 3.86 CG2 3.16
F VAL E 99 -100.5 134.3 N 3.4 CA 3.46 C 3.64 O 3.86 CB 3.54 CG1 3.54 CG2 3.11
F LEU E 5 -141.0 121.7 N 3.64 CA 3.61 C 3.69 O 3.54 CB 3.67 CG 3.42 CD1 3.37 CD2 3.04
F GLU T 79 49.0 49.8 N 3.74 CA 3.83 C 3.77 O 3.9 CB 3.7 CG 4.04 CD 4.37 OE1 4.56 OE2 5.16
F GLY T 70 68.1 18.8 N 3.68 CA 3.68 C 3.64 O 3.84
F GLU E 55 -136.9 131.0 N 3.6 CA 3.62 C 3.57 O 3.52 CB 3.6 CG 3.9 CD 4.16 OE1 3.94 OE2 4.76
F SER E 58 -83.4 114.1 N 3.62 CA 3.57 C 3.52 O 3.48 CB 3.52 OG 3.57
F ILE E 0 -111.8 134.8 N 3.58 CA 3.58 C 3.55 O 3.47 CB 3.64 CG1 3.78 CG2 3.5 CD1 3.88
F SER E 2 -65.0 146.6 N 3.62 CA 3.71 C 3.68 O 3.71 CB 3.77 OG 4.26
F CYS E 1 -156.0 158.5 N 3.59 CA 3.68 C 3.51 O 3.46 CB 3.66 SG 4.43
F PHE E 2 -117.2 147.7 N 3.45 CA 3.51 C 3.59 O 3.59 CB 3.5 CG 3.42 CD1 3.16 CD2 3.21 CE1 2.86 CE2 3.11 CZ 3.03
F GLN E 109 -86.7 114.2 N 3.61 CA 3.75 C 3.77 O 3.77 CB 3.86 CG 4.26 CD 4.84 OE1 5.22 NE2 5.25
F VAL E 53 -132.5 122.1 N 3.87 CA 3.93 C 3.93 O 3.94 CB 3.98 CG1 4.02 CG2 4.0
F GLY T 83 52.7 37.3 N 4.02 CA 4.1 C 4.13 O 4.19
F GLY T 62 69.7 27.7 N 4.1 CA 4.1 C 4.12 O 4.18
F GLU E 88 -137.3 138.7 N 4.07 CA 4.08 C 4.01 O 3.9 CB 4.16 CG 4.45 CD 4.86 OE1 4.94 OE2 5.24
F LYS E 91 -75.4 117.7 N 4.01 CA 4.01 C 3.95 O 3.95 CB 3.99 CG 4.24 CD 4.22 CE 4.5 NZ 4.62
F ARG E 34 -104.4 107.0 N 3.92 CA 3.92 C 3.86 O 3.87 CB 3.93 CG 4.01 CD 4.32 NE 4.46 CZ 4.69 NH1 4.84 NH2 4.63
F LEU E 0 -79.3 149.3 N 3.8 CA 3.71 C 3.74 O 3.84 CB 3.64 CG 3.37 CD1 2.89 CD2 3.35
F CYS E 1 -72.4 116.1 N 3.84 CA 4.05 C 4.11 O 4.22 CB 4.03 SG 4.84
F LEU H 5 -68.8 -47.2 N 4.04 CA 4.08 C 4.09 O 4.06 CB 4.08 CG 4.36 CD1 4.42 CD2 3.73
F PRO H 27 -58.5 -30.2 N 4.09 CA 4.03 C 4.06 O 4.11 CB 3.97 CG 3.98 CD 4.06
F GLN H 25 -70.6 -44.3 N 3.91 CA 3.87 C 3.87 O 3.82 CB 3.94 CG 4.03 CD 4.6 OE1 4.83 NE2 4.16
F VAL H 0 -55.4 -45.2 N 3.84 CA 3.82 C 3.82 O 3.7 CB 3.84 CG1 3.86 CG2 3.93
F LEU H 20 -60.4 -46.7 N 3.93 CA 3.84 C 3.81 O 3.72 CB 3.89 CG 4.17 CD1 4.08 CD2 4.49
F ASN H 68 -77.3 -22.3 N 3.91 CA 4.14 C 4.22 O 4.29 CB 4.26 CG 5.18 OD1 5.63 ND2 6.18
F SER H 11 -99.9 -45.8 N 4.19 CA 4.23 C 4.11 O 4.22 CB 4.32 OG 4.93
F VAL T 21 -108.9 -41.5 N 3.99 CA 3.94 C 3.97 O 4.07 CB 4.03 CG1 4.0 CG2 3.52
F LEU - 1 -104.0 50.2 N 3.98 CA 3.91 C 3.97 O 3.8 CB 3.89 CG 3.65 CD1 3.2 CD2 3.4
F ARG T 105 -63.6 -24.3 N 4.15 CA 4.09 C 4.09 O 4.18 CB 4.18 CG 4.33 CD 3.98 NE 3.77 CZ 3.87 NH1 4.13 NH2 3.61
F GLU T 112 -76.7 -15.2 N 4.07 CA 4.06 C 3.87 O 3.78 CB 4.18 CG 4.83 CD 6.05 OE1 6.39 OE2 6.09
F PHE S 41 -114.2 164.5 N 3.76 CA 3.76 C 3.69 O 3.81 CB 3.7 CG 3.75 CD1 3.85 CD2 3.42 CE1 3.87 CE2 3.39 CZ 3.57
F THR - 71 -99.0 170.0 N 3.7 CA 3.64 C 3.76 O 3.68 CB 3.52 OG1 3.2 CG2 3.21
F LEU H 77 -64.1 -42.6 N 3.8 CA 3.74 C 3.77 O 3.8 CB 3.69 CG 3.58 CD1 3.05 CD2 3.1
F GLN H 124 -54.6 -53.3 N 3.8 CA 3.94 C 3.83 O 3.8 CB 4.07 CG 4.74 CD 6.0 OE1 6.66 NE2 6.4
F GLN H 24 -55.2 -48.9 N 3.72 CA 3.73 C 3.79 O 3.95 CB 3.71 CG 3.51 CD 3.35 OE1 4.01 NE2 2.6
F ILE H 0 -58.8 -40.8 N 3.63 CA 3.7 C 3.71 O 3.83 CB 3.66 CG1 3.71 CG2 3.48 CD1 3.36
F ASN H 79 -63.1 -43.6 N 3.69 CA 3.8 C 3.85 O 3.89 CB 3.81 CG 3.88 OD1 4.65 ND2 4.56
F THR H 23 -71.1 -34.4 N 3.84 CA 3.89 C 3.85 O 3.89 CB 3.88 OG1 4.31 CG2 3.74
F VAL H 1 -65.6 -42.8 N 3.73 CA 3.71 C 3.86 O 3.94 CB 3.8 CG1 3.3 CG2 3.54
F CYS H 5 -58.2 -35.8 N 3.89 CA 3.89 C 3.75 O 3.68 CB 3.91 SG 4.24
F ASP H 63 -62.3 -45.7 N 3.65 CA 3.58 C 3.52 O 3.43 CB 3.68 CG 3.62 OD1 3.76 OD2 4.25
F GLU H 7 -63.6 -41.5 N 3.45 CA 3.34 C 3.23 O 3.09 CB 3.35 CG 3.13 CD 2.63 OE1 2.38 OE2 2.57
F LEU T 3 -80.2 0.7 N 3.24 CA 3.15 C 3.11 O 3.04 CB 3.07 CG 2.87 CD1 2.71 CD2 2.46
F TYR T 37 60.5 38.3 N 3.18 CA 3.17 C 3.17 O 3.11 CB 3.12 CG 2.95 CD1 2.84 CD2 3.01 CE1 2.64 CE2 2.88 CZ 2.7 OH 2.37
F ILE - 13 -97.1 128.5 N 3.22 CA 3.28 C 3.35 O 3.37 CB 3.26 CG1 3.19 CG2 3.09 CD1 2.86
F TYR - 124 -106.4 122.7 N 3.44 CA 3.51 C 3.54 O 3.34 CB 3.51 CG 3.5 CD1 3.35 CD2 3.58 CE1 3.55 CE2 3.67 CZ 3.85 OH 4.16
F CYS - 34 -105.3 114.3 N 3.68 CA 3.74 C 3.75 O 3.73 CB 3.76 SG 4.05
F SER E 21 -74.8 155.3 N 3.76 CA 3.81 C 3.79 O 3.85 CB 3.85 OG 3.77
F ARG E 168 -88.9 143.6 N 3.78 CA 3.76 C 3.74 O 3.7 CB 3.79 CG 3.87 CD 3.92 NE 3.82 CZ 3.85 NH1 3.85 NH2 3.86
F CYS - 12 -74.5 155.8 N 3.71 CA 3.77 C 3.67 O 3.62 CB 3.82 SG 4.49
F THR - 76 -79.5 166.4 N 3.59 CA 3.51 C 3.52 O 3.43 CB 3.49 OG1 3.42 CG2 3.3
F SER H 101 -51.1 -48.4 N 3.57 CA 3.61 C 3.59 O 3.55 CB 3.64 OG 3.79
F ASP H 108 -62.7 -38.7 N 3.62 CA 3.67 C 3.58 O 3.58 CB 3.71 CG 3.87 OD1 4.41 OD2 3.93
F GLN H 21 -70.1 -38.5 N 3.5 CA 3.47 C 3.46 O 3.44 CB 3.41 CG 3.43 CD 3.33 OE1 3.48 NE2 3.2
F LEU H 27 -65.3 -36.1 N 3.5 CA 3.47 C 3.52 O 3.48 CB 3.47 CG 3.29 CD1 3.02 CD2 3.26
F HIS H 95 -65.4 -44.9 N 3.58 CA 3.62 C 3.58 O 3.58 CB 3.65 CG 3.89 ND1 4.17 CD2 3.98 CE1 4.24 NE2 4.14
F ILE H 46 -60.9 -40.6 N 3.58 CA 3.54 C 3.47 O 3.38 CB 3.61 CG1 3.74 CG2 3.5 CD1 4.06
F LEU H 0 -67.6 -41.4 N 3.4 CA 3.36 C 3.31 O 3.2 CB 3.37 CG 3.34 CD1 3.3 CD2 2.76
F LYS H 37 -65.5 -40.5 N 3.34 CA 3.39 C 3.42 O 3.42 CB 3.39 CG 3.45 CD 3.63 CE 3.77 NZ 4.02
F VAL H 59 -63.1 -39.9 N 3.47 CA 3.52 C 3.56 O 3.61 CB 3.5 CG1 3.3 CG2 3.41
F LEU T 78 -79.2 -5.6 N 3.57 CA 3.61 C 3.62 O 3.78 CB 3.61 CG 3.84 CD1 4.08 CD2 3.63
F GLY T 0 77.5 11.9 N 3.59 CA 3.57 C 3.55 O 3.46
F ILE S 29 -67.8 -34.7 N 3.4 CA 3.3 C 3.29 O 3.05 CB 3.3 CG1 3.44 CG2 3.33 CD1 3.55
F LEU S 9 -120.2 153.2 N 3.3 CA 3.37 C 3.41 O 3.42 CB 3.33 CG 3.18 CD1 2.75 CD2 2.79
F PRO - 38 -74.7 164.6 N 3.48 CA 3.53 C 3.54 O 3.49 CB 3.52 CG 3.44 CD 3.46
F PHE T 82 -61.4 -27.9 N 3.56 CA 3.59 C 3.71 O 3.65 CB 3.54 CG 3.52 CD1 3.41 CD2 3.48 CE1 3.48 CE2 3.42 CZ 3.43
F ASN T 114 -53.9 -45.1 N 3.84 CA 3.96 C 3.9 O 3.81 CB 4.07 CG 4.56 OD1 5.07 ND2 5.23
F ALA - 10 -33.0 122.7 N 3.9 CA 3.95 C 4.0 O 3.92 CB 3.92
F PRO - 92 -70.8 -54.1 N 4.14 CA 4.21 C 4.21 O 4.36 CB 4.26 CG 4.21 CD 4.12
F SER - 37 -157.4 -154.3 N 4.16 CA 4.21 C 4.23 O 4.33 CB 4.19 OG 4.24
F CYS - 4 -163.0 123.0 N 4.19 CA 4.26 C 4.08 O 4.08 CB 4.26 SG 5.46
F GLY E 14 -73.4 145.6 N 3.93 CA 3.81 C 3.78 O 3.81
F LEU E 2 -122.6 126.4 N 3.67 CA 3.56 C 3.55 O 3.58 CB 3.51 CG 3.26 CD1 2.81 CD2 2.72
F ILE E 0 -116.4 136.9 N 3.53 CA 3.56 C 3.58 O 3.7 CB 3.54 CG1 3.58 CG2 3.42 CD1 3.28
F THR E 4 -68.1 149.6 N 3.52 CA 3.54 C 3.61 O 3.64 CB 3.5 OG1 3.39 CG2 3.41
F LEU H 40 -55.6 -34.9 N 3.61 CA 3.68 C 3.75 O 3.75 CB 3.64 CG 3.78 CD1 3.76 CD2 3.79
F THR H 83 -73.8 -39.8 N 3.91 CA 4.03 C 3.99 O 4.05 CB 4.13 OG1 4.27 CG2 4.49
F ASP H 20 -69.5 -34.4 N 3.93 CA 3.87 C 3.79 O 3.72 CB 3.85 CG 3.98 OD1 4.23 OD2 4.04
F ALA H 0 -62.2 -46.1 N 3.75 CA 3.73 C 3.75 O 3.74 CB 3.7
F GLN H 85 -62.6 -40.9 N 3.75 CA 3.77 C 3.81 O 3.95 CB 3.72 CG 3.64 CD 3.46 OE1 3.3 NE2 3.37
F ARG H 40 -65.1 -46.0 N 3.82 CA 3.84 C 3.86 O 3.86 CB 3.84 CG 4.09 CD 4.34 NE 4.58 CZ 4.45 NH1 4.45 NH2 4.61
F LEU H 0 -53.4 -50.9 N 3.79 CA 3.77 C 3.84 O 4.0 CB 3.7 CG 3.55 CD1 2.93 CD2 2.69
F CYS H 0 -61.8 -41.0 N 3.84 CA 3.79 C 3.7 O 3.73 CB 3.86 SG 4.31
F ASN H 50 -62.9 -44.0 N 3.61 CA 3.57 C 3.52 O 3.43 CB 3.59 CG 3.7 OD1 3.76 ND2 3.79
F ALA H 12 -60.0 -45.9 N 3.56 CA 3.56 C 3.53 O 3.6 CB 3.53
F LEU H 21 -82.0 -43.9 N 3.53 CA 3.53 C 3.49 O 3.56 CB 3.54 CG 3.44 CD1 3.32 CD2 3.55
F LEU H 69 -87.3 -30.2 N 3.41 CA 3.37 C 3.39 O 3.25 CB 3.26 CG 3.03 CD1 3.24 CD2 2.47
F ARG S 106 -134.4 65.5 N 3.54 CA 3.64 C 3.64 O 3.7 CB 3.58 CG 3.7 CD 3.43 NE 3.34 CZ 3.22 NH1 3.01 NH2 3.2
F PRO - 51 -68.6 143.5 N 3.73 CA 3.83 C 3.91 O 4.09 CB 3.82 CG 3.8 CD 3.74
F ARG - 122 -71.0 155.2 N 3.92 CA 3.93 C 3.88 O 3.87 CB 3.95 CG 4.23 CD 4.57 NE 4.65 CZ 4.92 NH1 4.94 NH2 5.13
F THR - 166 -166.7 360.0 N 3.94 CA 3.99 C 4.0 O 4.01 CB 4.05 OG1 3.92 CG2 4.03 OXT 3.97
G SER - 103 360.0 174.3 N 3.81 CA 3.8 C 3.76 O 3.62 CB 3.8 OG 3.79
G THR - 91 -90.8 -23.0 N 3.77 CA 3.81 C 3.83 O 3.88 CB 3.82 OG1 4.04 CG2 3.68
G GLU - 107 -66.1 113.0 N 3.83 CA 3.79 C 3.67 O 3.57 CB 3.88 CG 4.21 CD 4.53 OE1 4.91 OE2 4.38
G LEU E 24 -88.1 133.3 N 3.63 CA 3.59 C 3.54 O 3.57 CB 3.51 CG 3.55 CD1 3.16 CD2 3.68
G THR E 46 -136.1 -178.6 N 3.49 CA 3.47 C 3.44 O 3.27 CB 3.48 OG1 3.78 CG2 3.3
G GLN E 101 -128.4 145.3 N 3.45 CA 3.52 C 3.49 O 3.59 CB 3.48 CG 3.65 CD 3.8 OE1 3.82 NE2 3.36
G THR E 19 -141.6 152.1 N 3.44 CA 3.34 C 3.36 O 3.26 CB 3.35 OG1 3.03 CG2 3.31
G VAL E 94 -92.9 127.0 N 3.43 CA 3.4 C 3.41 O 3.37 CB 3.36 CG1 3.51 CG2 3.33
G LEU E 4 -130.1 127.9 N 3.5 CA 3.5 C 3.49 O 3.47 CB 3.49 CG 3.5 CD1 3.46 CD2 3.44
G GLU T 85 39.5 48.7 N 3.55 CA 3.59 C 3.54 O 3.53 CB 3.62 CG 3.83 CD 3.98 OE1 4.41 OE2 3.91
G GLY T 70 87.7 -34.8 N 3.59 CA 3.65 C 3.75 O 3.77
G GLU E 92 -83.5 148.9 N 3.83 CA 3.9 C 3.96 O 4.07 CB 3.97 CG 4.24 CD 4.75 OE1 5.11 OE2 5.13
G SER E 56 -96.6 111.6 N 3.91 CA 3.81 C 3.85 O 3.99 CB 3.81 OG 3.73
G ILE E 1 -104.8 139.8 N 3.77 CA 3.66 C 3.72 O 3.72 CB 3.64 CG1 3.61 CG2 3.59 CD1 3.44
G SER E 1 -75.8 139.7 N 3.64 CA 3.62 C 3.68 O 3.71 CB 3.62 OG 3.46
G CYS E 1 -150.2 150.8 N 3.6 CA 3.69 C 3.68 O 3.56 CB 3.67 SG 4.15
G PHE E 1 -98.5 137.7 N 3.72 CA 3.71 C 3.79 O 3.72 CB 3.69 CG 3.76 CD1 3.74 CD2 3.75 CE1 3.74 CE2 3.67 CZ 3.76
G GLN E 53 -96.1 118.1 N 3.95 CA 4.07 C 4.09 O 4.23 CB 4.07 CG 4.32 CD 4.41 OE1 4.59 NE2 4.64
G VAL E 33 -122.5 66.8 N 4.16 CA 4.22 C 4.28 O 4.37 CB 4.26 CG1 4.11 CG2 4.35
G GLY T 67 83.4 -101.8 N 4.35 CA 4.38 C 4.45 O 4.63
G GLY T 81 -108.3 5.1 N 4.41 CA 4.37 C 4.24 O 4.35
G GLU E 50 -104.4 132.9 N 4.11 CA 4.09 C 3.96 O 3.92 CB 4.12 CG 4.29 CD 4.5 OE1 4.28 OE2 4.78
G LYS E 64 -96.1 119.6 N 3.92 CA 3.89 C 3.8 O 3.8 CB 3.94 CG 4.22 CD 4.7 CE 5.13 NZ 5.31
G ARG E 44 -109.4 109.5 N 3.74 CA 3.68 C 3.6 O 3.57 CB 3.64 CG 3.74 CD 3.94 NE 4.17 CZ 4.22 NH1 4.71 NH2 4.15
G LEU E 1 -85.1 147.3 N 3.53 CA 3.53 C 3.52 O 3.59 CB 3.43 CG 3.38 CD1 3.25 CD2 3.34
G CYS E 1 -66.0 110.2 N 3.52 CA 3.6 C 3.46 O 3.49 CB 3.6 SG 4.16
G LEU H 29 -62.8 -44.1 N 3.49 CA 3.5 C 3.62 O 3.75 CB 3.47 CG 3.36 CD1 3.44 CD2 3.18
G PRO H 41 -50.4 -39.9 N 3.64 CA 3.7 C 3.78 O 3.78 CB 3.66 CG 3.69 CD 3.66
G GLN H 52 -63.2 -43.8 N 3.83 CA 3.92 C 3.92 O 3.93 CB 4.02 CG 4.27 CD 4.67 OE1 5.18 NE2 4.64
G VAL I 0 -66.2 -44.5 N 3.89 CA 3.83 C 3.84 O 3.94 CB 3.88 CG1 3.7 CG2 3.66
G LEU I 28 -69.5 -47.2 N 3.78 CA 3.83 C 3.79 O 3.82 CB 3.83 CG 4.09 CD1 4.09 CD2 4.03
G ASN I 62 -93.8 26.2 N 3.77 CA 3.77 C 3.75 O 3.76 CB 3.76 CG 3.72 OD1 3.32 ND2 3.9
G SER I 54 -156.5 -65.3 N 3.69 CA 3.62 C 3.59 O 3.56 CB 3.61 OG 3.55
G VAL I 18 -65.9 -42.2 N 3.53 CA 3.5 C 3.46 O 3.42 CB 3.55 CG1 3.44 CG2 3.52
G LEU T 0 -113.6 37.3 N 3.41 CA 3.39 C 3.38 O 3.32 CB 3.37 CG 3.3 CD1 3.13 CD2 3.2
G ARG T 12 -67.0 -30.9 N 3.37 CA 3.36 C 3.35 O 3.27 CB 3.35 CG 3.2 CD 3.15 NE 3.1 CZ 2.89 NH1 2.78 NH2 2.79
G GLU T 114 -73.5 -1.3 N 3.36 CA 3.39 C 3.44 O 3.5 CB 3.36 CG 3.32 CD 3.16 OE1 3.18 OE2 2.97
G PHE S 21 -117.4 153.8 N 3.48 CA 3.51 C 3.5 O 3.52 CB 3.53 CG 3.57 CD1 3.55 CD2 3.49 CE1 3.57 CE2 3.5 CZ 3.52
G THR - 45 -79.5 154.0 N 3.5 CA 3.52 C 3.5 O 3.53 CB 3.56 OG1 3.59 CG2 3.37
G LEU H 80 -58.9 -39.4 N 3.5 CA 3.49 C 3.58 O 3.63 CB 3.42 CG 3.31 CD1 3.02 CD2 3.06
G GLN H 139 -67.3 -37.3 N 3.65 CA 3.73 C 3.72 O 3.7 CB 3.75 CG 3.94 CD 4.25 OE1 4.27 NE2 4.43
G GLN H 83 -67.0 -39.8 N 3.75 CA 3.76 C 3.71 O 3.66 CB 3.8 CG 4.0 CD 4.27 OE1 4.38 NE2 4.23
G ILE H 3 -63.4 -46.1 N 3.67 CA 3.65 C 3.71 O 3.73 CB 3.62 CG1 3.55 CG2 3.49 CD1 3.27
G ASN H 98 -68.7 -25.9 N 3.74 CA 3.79 C 3.75 O 3.76 CB 3.82 CG 4.03 OD1 4.24 ND2 4.19
G THR H 67 -68.4 -41.9 N 3.75 CA 3.73 C 3.69 O 3.7 CB 3.72 OG1 3.78 CG2 3.69
G VAL H 17 -72.3 -34.9 N 3.64 CA 3.59 C 3.59 O 3.57 CB 3.58 CG1 3.52 CG2 3.58
G CYS H 8 -62.4 -42.1 N 3.59 CA 3.6 C 3.61 O 3.55 CB 3.6 SG 3.57
G ASP H 107 -68.6 -30.7 N 3.64 CA 3.65 C 3.62 O 3.6 CB 3.66 CG 3.74 OD1 3.86 OD2 3.83
G GLU H 132 -71.1 -47.8 N 3.61 CA 3.63 C 3.64 O 3.65 CB 3.64 CG 3.65 CD 3.61 OE1 3.18 OE2 3.56
G LEU T 48 -87.0 1.7 N 3.65 CA 3.66 C 3.69 O 3.67 CB 3.63 CG 3.62 CD1 3.69 CD2 3.51
G TYR T 170 61.8 42.5 N 3.7 CA 3.69 C 3.69 O 3.72 CB 3.69 CG 3.74 CD1 3.77 CD2 3.72 CE1 3.72 CE2 3.66 CZ 3.7 OH 3.69
G ILE - 6 -91.5 110.9 N 3.66 CA 3.65 C 3.64 O 3.64 CB 3.69 CG1 3.72 CG2 3.74 CD1 4.0
G TYR - 133 -111.8 102.9 N 3.65 CA 3.68 C 3.69 O 3.68 CB 3.72 CG 3.81 CD1 3.89 CD2 3.81 CE1 3.9 CE2 3.82 CZ 3.87 OH 3.87
G CYS - 52 -72.8 135.0 N 3.73 CA 3.76 C 3.7 O 3.68 CB 3.78 SG 4.05
G SER E 58 -83.5 177.8 N 3.68 CA 3.66 C 3.66 O 3.6 CB 3.67 OG 3.72
G ARG E 172 -114.2 155.2 N 3.66 CA 3.65 C 3.66 O 3.69 CB 3.67 CG 3.89 CD 4.12 NE 4.3 CZ 4.45 NH1 4.4 NH2 4.58
G CYS - 21 -71.8 149.4 N 3.65 CA 3.69 C 3.6 O 3.51 CB 3.73 SG 4.09
G THR - 51 -75.9 175.5 N 3.58 CA 3.59 C 3.57 O 3.59 CB 3.6 OG1 3.74 CG2 3.43
G SER H 102 -62.9 -40.1 N 3.58 CA 3.49 C 3.44 O 3.31 CB 3.5 OG 3.47
G ASP H 87 -66.5 -49.3 N 3.45 CA 3.47 C 3.5 O 3.46 CB 3.46 CG 3.58 OD1 3.76 OD2 3.6
G GLN H 17 -58.7 -47.6 N 3.44 CA 3.41 C 3.36 O 3.36 CB 3.39 CG 3.48 CD 3.36 OE1 3.11 NE2 3.1
G LEU H 22 -56.7 -46.5 N 3.33 CA 3.26 C 3.27 O 3.2 CB 3.29 CG 3.04 CD1 2.84 CD2 2.65
G HIS H 39 -64.8 -35.1 N 3.27 CA 3.31 C 3.4 O 3.34 CB 3.27 CG 3.04 ND1 2.91 CD2 2.94 CE1 2.84 NE2 2.93
G ILE H 13 -64.4 -39.8 N 3.41 CA 3.43 C 3.36 O 3.35 CB 3.44 CG1 3.48 CG2 3.31 CD1 3.99
G LEU H 1 -67.0 -25.7 N 3.4 CA 3.45 C 3.48 O 3.51 CB 3.47 CG 3.51 CD1 3.69 CD2 3.35
G LYS H 23 -80.4 -51.1 N 3.48 CA 3.45 C 3.51 O 3.52 CB 3.45 CG 3.26 CD 3.06 CE 2.82 NZ 2.33
G VAL H 13 -59.6 -38.3 N 3.62 CA 3.67 C 3.68 O 3.63 CB 3.66 CG1 3.91 CG2 3.68
G LEU T 5 -88.6 13.8 N 3.64 CA 3.61 C 3.57 O 3.52 CB 3.59 CG 3.62 CD1 3.69 CD2 3.21
G GLY T 1 76.8 13.8 N 3.58 CA 3.54 C 3.51 O 3.5
G ILE S 22 -82.0 -50.0 N 3.56 CA 3.57 C 3.61 O 3.65 CB 3.58 CG1 3.5 CG2 3.54 CD1 3.49
G LEU S 14 -104.0 152.7 N 3.69 CA 3.7 C 3.77 O 3.88 CB 3.7 CG 3.59 CD1 3.65 CD2 3.52
G PRO - 31 -70.5 148.2 N 3.79 CA 3.78 C 3.79 O 3.81 CB 3.74 CG 3.75 CD 3.78
G PHE T 9 -66.3 -19.8 N 3.82 CA 3.79 C 3.77 O 3.8 CB 3.83 CG 3.69 CD1 3.54 CD2 3.56 CE1 3.57 CE2 3.7 CZ 3.64
G ASN T 52 -73.2 -26.0 N 3.79 CA 3.77 C 3.74 O 3.74 CB 3.75 CG 3.86 OD1 4.21 ND2 3.37
G ALA - 15 -44.8 112.1 N 3.69 CA 3.66 C 3.67 O 3.6 CB 3.66
G PRO - 119 -72.3 -28.3 N 3.66 CA 3.71 C 3.71 O 3.74 CB 3.73 CG 3.65 CD 3.59
G SER - 53 -157.1 172.6 N 3.77 CA 3.8 C 3.83 O 3.85 CB 3.81 OG 3.91
G CYS - 5 -154.2 136.1 N 3.9 CA 3.99 C 3.89 O 4.03 CB 4.05 SG 4.77
G GLY E 14 -92.8 160.5 N 3.81 CA 3.79 C 3.76 O 3.86
G LEU E 3 -132.2 143.5 N 3.65 CA 3.62 C 3.6 O 3.58 CB 3.63 CG 3.61 CD1 3.15 CD2 3.08
G ILE E 4 -131.4 138.0 N 3.56 CA 3.49 C 3.46 O 3.36 CB 3.54 CG1 3.59 CG2 3.52 CD1 3.64
G THR E 20 -69.2 145.2 N 3.49 CA 3.44 C 3.43 O 3.34 CB 3.42 OG1 3.37 CG2 3.51
G LEU H 38 -50.9 -39.3 N 3.47 CA 3.52 C 3.52 O 3.62 CB 3.55 CG 3.59 CD1 3.74 CD2 3.55
G THR H 76 -67.9 -46.6 N 3.5 CA 3.51 C 3.52 O 3.51 CB 3.47 OG1 3.51 CG2 3.43
G ASP H 38 -71.7 -32.2 N 3.52 CA 3.56 C 3.6 O 3.58 CB 3.57 CG 3.64 OD1 4.08 OD2 3.57
G ALA H 1 -63.1 -39.7 N 3.54 CA 3.53 C 3.5 O 3.46 CB 3.54
G GLN H 81 -70.5 -34.5 N 3.54 CA 3.53 C 3.58 O 3.52 CB 3.47 CG 3.35 CD 3.33 OE1 3.02 NE2 3.15
G ARG H 97 -63.9 -42.1 N 3.61 CA 3.63 C 3.63 O 3.63 CB 3.65 CG 3.8 CD 3.88 NE 3.74 CZ 3.69 NH1 3.91 NH2 3.47
G LEU H 3 -64.6 -42.4 N 3.66 CA 3.65 C 3.65 O 3.66 CB 3.65 CG 3.56 CD1 3.47 CD2 3.44
G CYS H 0 -65.8 -42.9 N 3.65 CA 3.7 C 3.71 O 3.74 CB 3.71 SG 3.76
G ASN H 79 -54.4 -52.1 N 3.72 CA 3.74 C 3.73 O 3.64 CB 3.79 CG 3.89 OD1 4.39 ND2 3.88
G ALA H 56 -61.8 -43.7 N 3.73 CA 3.72 C 3.72 O 3.74 CB 3.72
G LEU H 20 -79.6 -31.7 N 3.68 CA 3.64 C 3.63 O 3.65 CB 3.61 CG 3.54 CD1 3.55 CD2 3.53
G LEU H 54 -97.4 -38.4 N 3.6 CA 3.59 C 3.6 O 3.57 CB 3.6 CG 3.63 CD1 3.56 CD2 3.57
G ARG - 180 -88.5 360.0 N 3.67 CA 3.71 C 3.69 O 3.53 CB 3.71 CG 4.04 CD 4.11 NE 4.16 CZ 4.07 NH1 3.95 NH2 4.07
H THR - 188 360.0 -2.6 N 3.88 CA 3.88 C 3.83 O 3.84 CB 3.92 OG1 4.08 CG2 3.9
H GLU - 141 -146.4 154.8 N 3.75 CA 3.7 C 3.68 O 3.63 CB 3.7 CG 3.59 CD 3.52 OE1 3.57 OE2 3.26
H LEU E 23 -106.9 124.4 N 3.67 CA 3.64 C 3.66 O 3.72 CB 3.61 CG 3.48 CD1 3.65 CD2 3.61
H THR E 47 -108.1 -172.1 N 3.71 CA 3.75 C 3.73 O 3.74 CB 3.81 OG1 3.77 CG2 3.73
H GLN E 37 -129.8 166.8 N 3.73 CA 3.77 C 3.84 O 3.89 CB 3.75 CG 3.6 CD 3.39 OE1 3.29 NE2 3.24
H THR E 10 -160.9 172.2 N 3.88 CA 3.88 C 3.83 O 3.94 CB 3.89 OG1 3.94 CG2 3.99
H VAL E 67 -115.7 135.4 N 3.77 CA 3.72 C 3.68 O 3.86 CB 3.74 CG1 3.38 CG2 3.71
H LEU E 5 -141.5 116.6 N 3.6 CA 3.6 C 3.67 O 3.7 CB 3.6 CG 3.52 CD1 3.16 CD2 3.23
H GLU T 50 55.6 48.1 N 3.76 CA 3.84 C 3.82 O 3.66 CB 3.87 CG 4.02 CD 4.57 OE1 4.66 OE2 5.06
H GLY T 17 65.6 11.3 N 3.87 CA 3.88 C 3.93 O 3.85
H GLU E 42 -124.5 135.7 N 3.87 CA 3.94 C 3.83 O 3.74 CB 3.94 CG 4.18 CD 4.52 OE1 4.27 OE2 4.36
H SER E 11 -81.0 129.9 N 3.8 CA 3.87 C 3.86 O 4.03 CB 3.93 OG 4.39
H ILE E 1 -131.0 138.6 N 3.81 CA 3.75 C 3.65 O 3.68 CB 3.79 CG1 3.86 CG2 3.63 CD1 3.91
H SER E 19 -70.8 140.9 N 3.52 CA 3.49 C 3.37 O 3.2 CB 3.52 OG 3.9
H CYS E 1 -150.6 145.1 N 3.3 CA 3.34 C 3.4 O 3.32 CB 3.35 SG 3.12
H PHE E 11 -96.9 133.8 N 3.34 CA 3.4 C 3.52 O 3.53 CB 3.43 CG 3.42 CD1 3.33 CD2 3.33 CE1 3.26 CE2 3.33 CZ 3.09
H GLN E 92 -78.8 122.9 N 3.67 CA 3.77 C 3.82 O 3.9 CB 3.82 CG 3.98 CD 4.27 OE1 4.37 NE2 4.33
H VAL - 61 -139.5 87.4 N 3.79 CA 3.8 C 3.81 O 3.7 CB 3.78 CG1 3.97 CG2 3.77
H GLY S 80 69.4 56.4 N 3.86 CA 3.87 C 3.89 O 3.98
H GLY S 71 76.9 2.7 N 3.87 CA 3.86 C 3.82 O 3.86
H GLU S 84 -124.3 139.6 N 3.8 CA 3.82 C 3.66 O 3.58 CB 3.87 CG 4.44 CD 5.12 OE1 5.67 OE2 5.5
H LYS E 62 -86.4 124.7 N 3.57 CA 3.58 C 3.53 O 3.42 CB 3.55 CG 3.76 CD 3.88 CE 4.1 NZ 4.05
H ARG E 44 -103.7 108.5 N 3.47 CA 3.5 C 3.39 O 3.29 CB 3.53 CG 3.88 CD 4.41 NE 5.2 CZ 5.72 NH1 5.37 NH2 6.09
H LEU E 0 -81.0 142.6 N 3.32 CA 3.36 C 3.42 O 3.46 CB 3.24 CG 3.06 CD1 2.76 CD2 2.87
H CYS E 1 -69.9 106.4 N 3.55 CA 3.73 C 3.8 O 3.79 CB 3.77 SG 4.2
H LEU H 14 -59.3 -45.4 N 3.88 CA 3.91 C 3.97 O 4.15 CB 3.88 CG 3.87 CD1 3.97 CD2 3.58
H PRO H 42 -53.6 -39.8 N 3.86 CA 3.85 C 3.85 O 3.87 CB 3.82 CG 3.81 CD 3.84
H GLN H 46 -74.1 -21.2 N 3.87 CA 3.82 C 3.8 O 3.76 CB 3.8 CG 4.21 CD 4.68 OE1 4.77 NE2 4.77
H VAL H 1 -77.2 -46.1 N 3.81 CA 3.73 C 3.84 O 3.97 CB 3.66 CG1 3.3 CG2 3.71
H LEU H 21 -65.5 -12.6 N 3.9 CA 3.96 C 4.01 O 4.12 CB 3.96 CG 4.2 CD1 4.38 CD2 4.02
H ASN H 96 -111.3 -36.1 N 3.93 CA 3.98 C 3.95 O 3.89 CB 4.05 CG 4.24 OD1 4.41 ND2 4.49
H SER H 56 -93.2 -7.5 N 3.89 CA 3.92 C 3.85 O 3.78 CB 3.95 OG 4.17
H VAL T 30 -135.3 -56.9 N 3.75 CA 3.61 C 3.55 O 3.51 CB 3.63 CG1 3.56 CG2 3.49
H LEU - 1 -101.1 44.9 N 3.53 CA 3.54 C 3.55 O 3.53 CB 3.54 CG 3.55 CD1 3.48 CD2 3.3
H ARG T 183 -59.4 -38.1 N 3.58 CA 3.6 C 3.57 O 3.55 CB 3.64 CG 3.8 CD 4.09 NE 4.13 CZ 4.4 NH1 4.72 NH2 4.57
H GLU T 151 -69.5 -19.1 N 3.59 CA 3.67 C 3.62 O 3.62 CB 3.73 CG 4.04 CD 4.35 OE1 4.65 OE2 4.74
H PHE S 47 -100.6 142.6 N 3.56 CA 3.6 C 3.63 O 3.62 CB 3.56 CG 3.49 CD1 3.45 CD2 3.63 CE1 3.45 CE2 3.46 CZ 3.43
H THR - 77 -77.9 161.9 N 3.73 CA 3.78 C 3.87 O 3.88 CB 3.76 OG1 3.76 CG2 3.71
H LEU H 103 -62.6 -41.9 N 4.02 CA 4.12 C 4.06 O 4.08 CB 4.18 CG 4.44 CD1 4.51 CD2 4.6
H GLN H 124 -57.0 -43.1 N 4.05 CA 4.09 C 4.07 O 4.14 CB 4.1 CG 4.3 CD 4.56 OE1 4.92 NE2 4.32
H GLN H 25 -64.6 -45.1 N 3.98 CA 3.87 C 3.88 O 3.86 CB 3.84 CG 3.7 CD 3.35 OE1 3.17 NE2 3.05
H ILE H 0 -61.7 -42.3 N 3.92 CA 3.92 C 3.89 O 3.9 CB 3.95 CG1 4.08 CG2 3.88 CD1 4.35
H ASN H 87 -61.8 -37.0 N 3.91 CA 3.92 C 3.92 O 4.01 CB 3.88 CG 3.94 OD1 4.37 ND2 4.12
H THR H 16 -65.5 -54.5 N 3.89 CA 3.88 C 3.89 O 3.92 CB 3.91 OG1 4.13 CG2 3.9
H VAL H 1 -54.9 -46.4 N 3.87 CA 3.83 C 3.93 O 4.03 CB 3.8 CG1 3.7 CG2 3.56
H CYS H 6 -52.9 -40.6 N 3.95 CA 4.04 C 4.05 O 4.06 CB 4.03 SG 4.77
H ASP H 65 -65.7 -53.1 N 3.97 CA 3.98 C 3.88 O 3.81 CB 4.0 CG 4.28 OD1 5.08 OD2 4.89
H GLU H 6 -52.4 -37.6 N 3.81 CA 3.77 C 3.73 O 3.75 CB 3.84 CG 4.0 CD 4.06 OE1 4.15 OE2 4.31
H LEU T 3 -85.5 -0.2 N 3.69 CA 3.63 C 3.63 O 3.58 CB 3.57 CG 3.51 CD1 3.22 CD2 3.09
H TYR T 32 56.7 41.4 N 3.61 CA 3.63 C 3.71 O 3.62 CB 3.6 CG 3.57 CD1 3.5 CD2 3.15 CE1 3.12 CE2 2.98 CZ 2.88 OH 2.67
H ILE - 12 -94.5 129.8 N 3.86 CA 3.98 C 4.06 O 4.09 CB 3.98 CG1 4.0 CG2 4.15 CD1 4.26
H TYR - 143 -105.6 115.8 N 4.14 CA 4.23 C 4.26 O 4.29 CB 4.28 CG 4.63 CD1 4.86 CD2 4.75 CE1 5.04 CE2 4.84 CZ 5.17 OH 5.83
H CYS - 41 -91.1 121.7 N 4.25 CA 4.22 C 4.12 O 4.1 CB 4.28 SG 4.95
H SER E 19 -80.9 174.2 N 3.98 CA 3.95 C 3.89 O 3.65 CB 3.91 OG 4.62
H ARG E 186 -117.6 133.6 N 4.08 CA 4.19 C 4.1 O 4.19 CB 4.26 CG 4.9 CD 5.21 NE 5.88 CZ 6.04 NH1 6.0 NH2 6.2
H CYS - 16 -51.3 142.9 N 4.02 CA 4.11 C 3.85 O 3.62 CB 4.09 SG 5.66
H THR - 77 -72.3 173.9 N 3.78 CA 3.76 C 3.73 O 3.6 CB 3.79 OG1 3.67 CG2 3.75
H SER H 105 -62.5 -45.9 N 3.77 CA 3.71 C 3.63 O 3.52 CB 3.67 OG 3.92
H ASP H 125 -58.7 -45.3 N 3.65 CA 3.72 C 3.58 O 3.57 CB 3.84 CG 4.27 OD1 5.02 OD2 4.66
H GLN H 29 -63.4 -45.0 N 3.48 CA 3.45 C 3.47 O 3.42 CB 3.41 CG 3.35 CD 2.78 OE1 3.32 NE2 2.36
H LEU H 33 -62.4 -35.4 N 3.53 CA 3.52 C 3.59 O 3.65 CB 3.59 CG 3.47 CD1 3.26 CD2 3.45
H HIS H 110 -69.0 -49.6 N 3.61 CA 3.65 C 3.77 O 3.82 CB 3.61 CG 3.64 ND1 3.51 CD2 3.47 CE1 3.4 NE2 3.42
H ILE H 55 -56.5 -43.7 N 3.83 CA 3.86 C 3.86 O 3.82 CB 3.84 CG1 4.2 CG2 4.04 CD1 4.55
H LEU H 0 -62.7 -40.1 N 3.93 CA 3.85 C 3.83 O 4.0 CB 3.82 CG 3.49 CD1 2.99 CD2 3.26
H LYS H 51 -64.5 -46.0 N 3.74 CA 3.75 C 3.66 O 3.55 CB 3.73 CG 3.92 CD 4.28 CE 4.74 NZ 5.15
H VAL H 101 -60.0 -43.6 N 3.64 CA 3.67 C 3.68 O 3.68 CB 3.65 CG1 3.83 CG2 3.61
H LEU T 108 -74.0 -8.1 N 3.64 CA 3.62 C 3.63 O 3.58 CB 3.56 CG 3.5 CD1 3.07 CD2 2.95
H GLY T 59 80.6 11.9 N 3.56 CA 3.5 C 3.48 O 3.2
H ILE S 60 -68.3 -43.8 N 3.54 CA 3.61 C 3.7 O 3.8 CB 3.59 CG1 4.13 CG2 3.7 CD1 4.38
H LEU S 17 -113.4 149.4 N 3.61 CA 3.64 C 3.72 O 3.86 CB 3.56 CG 3.35 CD1 3.4 CD2 2.76
H PRO - 85 -68.1 157.7 N 3.72 CA 3.67 C 3.7 O 3.63 CB 3.64 CG 3.6 CD 3.7
H PHE T 169 -59.2 -25.4 N 3.74 CA 3.81 C 3.88 O 3.8 CB 3.76 CG 3.92 CD1 3.88 CD2 3.89 CE1 4.03 CE2 3.98 CZ 4.17
H ASN T 120 -73.5 -17.7 N 4.02 CA 4.14 C 4.08 O 3.98 CB 4.26 CG 4.65 OD1 5.45 ND2 5.15
H ALA - 13 -47.7 112.6 N 4.05 CA 4.07 C 4.04 O 3.98 CB 4.0
H PRO - 120 -75.4 -28.3 N 4.07 CA 4.13 C 4.11 O 4.31 CB 4.06 CG 4.11 CD 4.07
H SER - 52 -161.5 -175.7 N 4.04 CA 3.97 C 3.98 O 3.99 CB 3.92 OG 3.71
H CYS - 3 -158.2 117.9 N 3.96 CA 3.98 C 4.01 O 4.06 CB 3.96 SG 4.37
H GLY E 19 -72.6 151.1 N 3.95 CA 3.89 C 3.91 O 3.84
H LEU E 1 -127.2 146.9 N 3.87 CA 3.92 C 3.91 O 3.76 CB 3.93 CG 3.92 CD1 3.41 CD2 3.09
H ILE E 0 -138.7 135.9 N 3.88 CA 3.89 C 3.87 O 3.87 CB 3.97 CG1 4.12 CG2 3.89 CD1 3.98
H THR E 6 -68.9 153.6 N 3.82 CA 3.85 C 3.86 O 3.92 CB 3.83 OG1 3.98 CG2 3.81
H LEU H 35 -57.9 -45.0 N 3.87 CA 3.85 C 3.83 O 3.91 CB 3.88 CG 3.81 CD1 3.41 CD2 3.58
H THR H 72 -62.7 -39.9 N 3.85 CA 3.87 C 3.84 O 3.92 CB 3.88 OG1 3.87 CG2 3.94
H ASP H 18 -71.2 -40.2 N 3.81 CA 3.78 C 3.7 O 3.72 CB 3.79 CG 4.2 OD1 4.6 OD2 4.08
H ALA H 1 -58.3 -43.7 N 3.61 CA 3.53 C 3.47 O 3.47 CB 3.46
H GLN H 91 -61.6 -39.9 N 3.39 CA 3.45 C 3.44 O 3.43 CB 3.43 CG 3.59 CD 3.84 OE1 4.04 NE2 3.53
H ARG H 32 -60.0 -45.1 N 3.43 CA 3.49 C 3.43 O 3.4 CB 3.55 CG 3.67 CD 4.0 NE 3.99 CZ 4.62 NH1 4.9 NH2 5.04
H LEU H 1 -63.6 -47.0 N 3.46 CA 3.54 C 3.58 O 3.52 CB 3.51 CG 3.48 CD1 3.23 CD2 3.52
H CYS H 0 -64.9 -41.3 N 3.68 CA 3.78 C 3.71 O 3.74 CB 3.8 SG 4.43
H ASN H 52 -63.1 -36.8 N 3.64 CA 3.58 C 3.51 O 3.52 CB 3.54 CG 3.48 OD1 3.75 ND2 2.81
H ALA H 9 -70.3 -41.2 N 3.47 CA 3.47 C 3.44 O 3.41 CB 3.45
H LEU H 20 -85.3 -42.6 N 3.51 CA 3.53 C 3.49 O 3.44 CB 3.55 CG 3.53 CD1 3.53 CD2 3.39
H LEU H 76 -87.8 -27.1 N 3.56 CA 3.6 C 3.65 O 3.67 CB 3.59 CG 3.49 CD1 3.24 CD2 3.42
H ARG S 107 -135.2 65.1 N 3.67 CA 3.67 C 3.67 O 3.58 CB 3.65 CG 3.67 CD 3.72 NE 3.82 CZ 3.91 NH1 3.96 NH2 3.99
H PRO - 42 -60.3 174.5 N 3.7 CA 3.73 C 3.83 O 3.85 CB 3.71 CG 3.71 CD 3.71
H ARG - 239 42.6 360.0 N 3.91 CA 3.97 C 3.99 O 4.01 CB 3.97 CG 4.12 CD 4.27 NE 4.39 CZ 4.48 NH1 4.52 NH2 4.55
I LEU - 79 360.0 93.3 N 3.98 CA 3.89 C 3.86 O 3.83 CB 3.9 CG 3.89 CD1 3.8 CD2 4.19
I THR E 84 -71.3 158.0 N 3.81 CA 3.8 C 3.81 O 3.79 CB 3.76 OG1 3.97 CG2 3.79
I GLN E 101 -115.2 131.0 N 3.84 CA 3.86 C 3.78 O 3.84 CB 3.91 CG 4.02 CD 4.39 OE1 4.8 NE2 4.55
I THR E 14 -126.2 138.5 N 3.75 CA 3.74 C 3.62 O 3.6 CB 3.76 OG1 4.1 CG2 3.83
I VAL E 99 -87.6 124.8 N 3.51 CA 3.41 C 3.31 O 3.32 CB 3.43 CG1 3.37 CG2 3.17
I LEU E 2 -125.5 121.5 N 3.25 CA 3.17 C 3.2 O 3.13 CB 3.13 CG 2.77 CD1 2.44 CD2 2.29
I GLU T 57 53.1 48.4 N 3.2 CA 3.24 C 3.26 O 3.11 CB 3.2 CG 3.46 CD 3.34 OE1 3.02 OE2 3.6
I GLY T 70 64.2 27.7 N 3.32 CA 3.35 C 3.37 O 3.35
I GLU E 56 -142.0 129.8 N 3.43 CA 3.43 C 3.43 O 3.37 CB 3.44 CG 3.49 CD 3.23 OE1 3.29 OE2 2.8
I SER E 58 -78.1 121.7 N 3.59 CA 3.66 C 3.68 O 3.72 CB 3.64 OG 3.85
I ILE E 0 -118.8 139.0 N 3.72 CA 3.71 C 3.7 O 3.7 CB 3.67 CG1 3.76 CG2 3.65 CD1 4.08
I SER E 6 -77.5 141.7 N 3.64 CA 3.59 C 3.51 O 3.41 CB 3.59 OG 3.73
I CYS E 1 -149.8 154.2 N 3.47 CA 3.54 C 3.51 O 3.47 CB 3.57 SG 3.73
I PHE E 30 -107.4 173.7 N 3.54 CA 3.57 C 3.68 O 3.72 CB 3.52 CG 3.44 CD1 3.42 CD2 3.32 CE1 3.36 CE2 3.41 CZ 3.41
I GLN E 112 -107.4 128.9 N 3.78 CA 3.82 C 3.83 O 3.8 CB 3.83 CG 4.03 CD 4.32 OE1 4.43 NE2 4.33
I VAL S 62 -139.8 106.2 N 3.85 CA 3.85 C 3.89 O 3.95 CB 3.87 CG1 3.82 CG2 3.8
I GLY S 76 60.9 39.4 N 3.9 CA 3.89 C 3.91 O 3.92
I GLY S 67 70.6 39.4 N 3.91 CA 3.88 C 3.89 O 3.89
I GLU - 92 -140.7 128.7 N 3.86 CA 3.81 C 3.73 O 3.71 CB 3.86 CG 3.92 CD 3.94 OE1 3.84 OE2 3.94
I LYS E 98 -70.1 118.9 N 3.63 CA 3.54 C 3.53 O 3.54 CB 3.51 CG 3.44 CD 3.4 CE 3.42 NZ 3.42
I ARG E 22 -113.3 119.7 N 3.49 CA 3.46 C 3.5 O 3.42 CB 3.45 CG 3.33 CD 3.28 NE 3.31 CZ 3.27 NH1 3.08 NH2 3.34
I LEU E 0 -93.3 145.8 N 3.53 CA 3.51 C 3.63 O 3.46 CB 3.45 CG 3.19 CD1 2.83 CD2 2.0
I CYS E 2 -61.3 112.7 N 3.84 CA 3.99 C 3.89 O 4.19 CB 3.98 SG 5.07
I LEU H 6 -67.4 -41.9 N 3.85 CA 3.77 C 3.65 O 3.62 CB 3.76 CG 3.87 CD1 3.24 CD2 3.98
I PRO H 25 -63.0 -30.4 N 3.6 CA 3.61 C 3.57 O 3.37 CB 3.48 CG 3.5 CD 3.49
I GLN H 26 -70.2 -35.2 N 3.67 CA 3.59 C 3.53 O 3.55 CB 3.6 CG 3.55 CD 3.59 OE1 3.65 NE2 3.63
I VAL H 0 -63.2 -41.0 N 3.55 CA 3.57 C 3.57 O 3.42 CB 3.64 CG1 3.5 CG2 3.38
I LEU H 13 -56.7 -51.9 N 3.65 CA 3.83 C 3.85 O 3.81 CB 3.84 CG 4.38 CD1 4.16 CD2 5.29
I ASN H 91 -82.3 -12.2 N 3.85 CA 4.03 C 3.89 O 3.97 CB 4.21 CG 5.03 OD1 6.41 ND2 5.41
I SER H 15 -109.1 -48.9 N 3.8 CA 3.84 C 3.74 O 3.85 CB 3.87 OG 4.51
I VAL T 21 -105.8 -50.4 N 3.64 CA 3.62 C 3.57 O 3.41 CB 3.56 CG1 3.86 CG2 3.49
I LEU S 0 -95.9 52.8 N 3.61 CA 3.68 C 3.73 O 3.72 CB 3.6 CG 3.5 CD1 3.61 CD2 3.18
I ARG T 114 -72.0 -23.5 N 3.91 CA 4.11 C 4.11 O 4.11 CB 4.22 CG 4.81 CD 5.38 NE 5.73 CZ 5.69 NH1 5.55 NH2 5.6
I GLU T 115 -84.9 5.5 N 4.08 CA 4.15 C 3.95 O 3.88 CB 4.29 CG 5.2 CD 6.5 OE1 6.86 OE2 6.88
I PHE S 33 -124.0 156.5 N 3.71 CA 3.58 C 3.57 O 3.48 CB 3.48 CG 3.48 CD1 3.26 CD2 3.09 CE1 3.46 CE2 3.5 CZ 3.34
I THR - 79 -87.5 164.6 N 3.58 CA 3.47 C 3.64 O 3.71 CB 3.43 OG1 3.04 CG2 3.12
I LEU H 86 -62.3 -43.7 N 3.66 CA 3.75 C 3.83 O 3.7 CB 3.71 CG 4.01 CD1 4.19 CD2 3.14
I GLN H 120 -62.9 -36.2 N 3.97 CA 4.03 C 3.73 O 3.83 CB 4.21 CG 4.84 CD 5.67 OE1 6.19 NE2 5.31
I GLN H 45 -62.9 -45.1 N 3.51 CA 3.34 C 3.25 O 3.18 CB 3.35 CG 3.01 CD 2.72 OE1 2.32 NE2 3.03
I ILE H 0 -60.7 -41.5 N 3.05 CA 3.02 C 3.06 O 3.09 CB 3.1 CG1 3.47 CG2 2.7 CD1 3.75
I ASN H 67 -64.5 -36.0 N 3.09 CA 3.2 C 3.24 O 3.32 CB 3.15 CG 3.27 OD1 3.49 ND2 2.76
I THR H 8 -69.8 -45.9 N 3.14 CA 3.07 C 3.13 O 2.89 CB 3.12 OG1 2.83 CG2 2.85
I VAL H 1 -62.1 -38.9 N 3.1 CA 3.05 C 2.98 O 2.52 CB 3.08 CG1 3.12 CG2 3.34
I CYS H 5 -58.6 -39.4 N 2.93 CA 2.91 C 3.06 O 3.16 CB 2.9 SG 2.08
I ASP H 67 -63.9 -45.2 N 3.07 CA 3.24 C 3.18 O 3.21 CB 3.32 CG 3.87 OD1 4.89 OD2 4.27
I GLU H 7 -61.0 -36.6 N 2.99 CA 2.9 C 2.81 O 2.7 CB 2.82 CG 2.57 CD 2.37 OE1 2.66 OE2 2.16
I LEU T 2 -86.6 6.9 N 2.76 CA 2.52 C 2.34 O 2.22 CB 2.39 CG 2.3 CD1 2.0 CD2 2.0
I TYR T 30 54.8 41.7 N 2.38 CA 2.43 C 2.43 O 2.28 CB 2.39 CG 2.0 CD1 2.0 CD2 2.0 CE1 2.0 CE2 2.0 CZ 2.0 OH 2.0
I ILE - 12 -99.1 126.1 N 2.62 CA 2.99 C 3.19 O 3.22 CB 3.0 CG1 3.3 CG2 3.04 CD1 2.74
I TYR - 120 -104.7 113.4 N 3.48 CA 3.76 C 3.9 O 3.96 CB 3.82 CG 3.91 CD1 4.06 CD2 3.97 CE1 3.97 CE2 3.47 CZ 3.95 OH 3.97
I CYS - 33 -96.5 119.8 N 4.05 CA 4.31 C 4.29 O 4.42 CB 4.14 SG 5.94
I SER E 17 -81.9 146.6 N 4.33 CA 4.61 C 4.74 O 5.22 CB 4.62 OG 5.17
I ARG E 164 -77.1 142.4 N 4.85 CA 4.86 C 4.8 O 4.95 CB 4.95 CG 5.76 CD 7.05 NE 8.23 CZ 8.91 NH1 9.13 NH2 9.31
I CYS - 10 -75.7 143.8 N 4.7 CA 4.77 C 4.5 O 4.59 CB 4.77 SG 6.76
I THR - 75 -74.5 160.0 N 4.27 CA 4.17 C 4.07 O 4.18 CB 4.15 OG1 4.04 CG2 4.02
I SER H 55 -51.1 -38.0 N 4.07 CA 4.1 C 4.09 O 3.97 CB 4.04 OG 4.43
I ASP H 131 -69.6 -44.8 N 4.13 CA 4.13 C 4.05 O 4.32 CB 4.18 CG 4.2 OD1 4.35 OD2 4.43
I GLN H 28 -60.7 -36.7 N 3.86 CA 3.87 C 3.68 O 3.72 CB 3.8 CG 4.05 CD 4.67 OE1 5.28 NE2 4.65
I LEU H 17 -65.9 -38.5 N 3.35 CA 3.04 C 2.98 O 2.6 CB 2.92 CG 2.6 CD1 2.71 CD2 2.0
I HIS H 87 -63.0 -44.6 N 3.28 CA 3.27 C 3.3 O 3.31 CB 3.39 CG 3.36 ND1 3.36 CD2 3.25 CE1 3.9 NE2 3.97
I ILE H 71 -57.6 -48.6 N 3.33 CA 3.36 C 3.42 O 3.56 CB 3.34 CG1 3.46 CG2 3.19 CD1 3.28
I LEU H 1 -61.0 -37.5 N 3.33 CA 3.26 C 3.25 O 3.29 CB 3.18 CG 2.9 CD1 2.88 CD2 2.57
I LYS H 33 -66.6 -44.3 N 3.33 CA 3.39 C 3.37 O 3.26 CB 3.42 CG 3.45 CD 3.49 CE 3.7 NZ 3.57
I VAL H 55 -65.7 -36.5 N 3.35 CA 3.34 C 3.42 O 3.42 CB 3.3 CG1 3.33 CG2 3.02
I LEU T 67 -82.7 -4.5 N 3.45 CA 3.39 C 3.35 O 3.13 CB 3.38 CG 3.31 CD1 3.14 CD2 3.17
I GLY T 0 84.1 -0.1 N 3.42 CA 3.46 C 3.54 O 3.63
I ILE S 30 -64.2 -43.1 N 3.57 CA 3.5 C 3.54 O 3.41 CB 3.54 CG1 3.5 CG2 3.15 CD1 3.65
I LEU S 9 -111.7 151.1 N 3.55 CA 3.59 C 3.61 O 3.61 CB 3.56 CG 3.58 CD1 3.37 CD2 3.08
I PRO - 48 -70.6 161.7 N 3.71 CA 3.78 C 3.86 O 3.98 CB 3.81 CG 3.82 CD 3.69
I PHE T 79 -61.3 -19.6 N 3.84 CA 3.97 C 4.0 O 4.22 CB 3.98 CG 4.13 CD1 4.49 CD2 4.33 CE1 4.64 CE2 4.28 CZ 4.33
I ASN T 118 -77.5 -26.0 N 3.93 CA 3.92 C 3.91 O 3.85 CB 3.93 CG 3.95 OD1 4.26 ND2 3.82
I ALA - 15 -35.6 125.3 N 3.98 CA 3.86 C 4.03 O 3.73 CB 3.75
I PRO - 101 -72.6 -41.0 N 4.27 CA 4.43 C 4.6 O 5.04 CB 4.52 CG 4.39 CD 4.36
I SER - 35 -173.3 -159.5 N 4.59 CA 4.71 C 4.72 O 4.98 CB 4.85 OG 5.15
I CYS - 3 -165.3 129.5 N 4.52 CA 4.73 C 4.39 O 4.5 CB 4.74 SG 6.52
I GLY E 4 -82.6 148.2 N 4.05 CA 3.89 C 3.78 O 3.74
I LEU E 2 -123.7 120.2 N 3.65 CA 3.71 C 4.08 O 4.34 CB 3.7 CG 3.21 CD1 2.48 CD2 2.48
I ILE E 0 -113.0 138.6 N 4.2 CA 4.26 C 4.42 O 4.61 CB 4.26 CG1 4.05 CG2 3.86 CD1 3.54
I THR E 10 -70.9 158.3 N 4.47 CA 4.49 C 4.53 O 4.56 CB 4.56 OG1 4.31 CG2 4.47
I LEU H 58 -60.1 -51.2 N 4.41 CA 4.31 C 4.4 O 4.22 CB 4.3 CG 4.23 CD1 4.02 CD2 3.61
I THR H 98 -55.8 -47.2 N 4.4 CA 4.35 C 4.29 O 4.41 CB 4.46 OG1 4.79 CG2 4.61
I ASP H 20 -63.5 -37.7 N 4.28 CA 4.39 C 4.37 O 4.49 CB 4.43 CG 5.04 OD1 7.07 OD2 6.46
I ALA H 0 -62.9 -41.6 N 4.34 CA 4.24 C 4.22 O 4.63 CB 4.18
I GLN H 60 -66.5 -34.9 N 4.17 CA 4.15 C 4.2 O 4.32 CB 4.11 CG 4.05 CD 4.06 OE1 4.06 NE2 4.14
I ARG H 30 -68.1 -46.1 N 4.28 CA 4.21 C 4.31 O 4.25 CB 4.12 CG 4.02 CD 3.67 NE 4.23 CZ 4.18 NH1 4.25 NH2 3.94
I LEU H 0 -54.2 -50.2 N 4.33 CA 4.34 C 4.56 O 4.8 CB 4.37 CG 4.56 CD1 4.57 CD2 3.85
I CYS H 0 -61.5 -46.2 N 4.64 CA 4.72 C 4.8 O 5.27 CB 4.86 SG 5.13
I ASN H 38 -59.4 -39.8 N 4.72 CA 4.56 C 4.45 O 4.74 CB 4.57 CG 4.76 OD1 5.86 ND2 4.34
I ALA H 10 -72.3 -24.6 N 4.24 CA 4.13 C 4.11 O 4.47 CB 3.92
I LEU H 20 -99.2 -39.2 N 4.01 CA 3.97 C 4.08 O 4.14 CB 4.09 CG 3.8 CD1 3.09 CD2 3.29
I LEU H 58 -93.2 -18.0 N 4.13 CA 4.17 C 4.18 O 4.22 CB 4.18 CG 4.14 CD1 3.49 CD2 4.02
I ARG S 113 -142.7 59.4 N 4.14 CA 4.07 C 3.92 O 3.94 CB 4.11 CG 4.5 CD 4.76 NE 5.12 CZ 5.48 NH1 5.04 NH2 5.83
I PRO - 56 -61.9 144.2 N 3.83 CA 3.8 C 4.04 O 3.65 CB 3.8 CG 3.67 CD 3.81
I ARG - 166 -78.9 360.0 N 4.31 CA 4.15 C 4.35 O 4.64 CB 4.2 CG 4.62 CD 4.84 NE 5.2 CZ 5.29 NH1 5.55 NH2 4.96
J GLU - 188 360.0 126.1 N 4.28 CA 4.29 C 4.3 O 4.38 CB 4.31 CG 4.49 CD 4.57 OE1 4.77 OE2 3.95
J LEU - 54 -166.6 135.6 N 4.23 CA 4.09 C 4.04 O 4.14 CB 4.0 CG 4.1 CD1 3.93 CD2 3.84
J THR E 68 -138.1 174.4 N 3.93 CA 3.88 C 3.86 O 3.7 CB 3.87 OG1 3.92 CG2 3.95
J GLN E 140 -108.7 149.1 N 3.88 CA 3.94 C 3.8 O 3.85 CB 4.01 CG 4.58 CD 5.53 OE1 6.32 NE2 5.88
J THR E 20 -138.9 143.9 N 3.69 CA 3.57 C 3.5 O 3.41 CB 3.59 OG1 3.64 CG2 3.48
J VAL E 98 -86.5 127.8 N 3.49 CA 3.48 C 3.47 O 3.59 CB 3.47 CG1 3.41 CG2 3.29
J LEU E 4 -133.9 118.5 N 3.45 CA 3.42 C 3.5 O 3.54 CB 3.41 CG 3.19 CD1 3.05 CD2 2.41
J GLU T 73 52.1 44.1 N 3.57 CA 3.61 C 3.6 O 3.59 CB 3.6 CG 3.77 CD 3.35 OE1 2.88 OE2 2.57
J GLY T 68 77.8 2.6 N 3.63 CA 3.66 C 3.69 O 3.69
J GLU E 99 -116.9 139.5 N 3.75 CA 3.83 C 3.76 O 3.67 CB 3.93 CG 4.57 CD 5.54 OE1 6.71 OE2 6.29
J SER E 55 -82.0 118.6 N 3.77 CA 3.73 C 3.67 O 3.57 CB 3.74 OG 3.97
J ILE E 0 -116.6 131.4 N 3.61 CA 3.51 C 3.46 O 3.3 CB 3.55 CG1 3.64 CG2 3.25 CD1 4.13
J SER E 8 -67.0 137.9 N 3.47 CA 3.49 C 3.4 O 3.31 CB 3.57 OG 3.9
J CYS E 1 -151.0 157.0 N 3.37 CA 3.47 C 3.44 O 3.51 CB 3.45 SG 3.85
J PHE E 6 -109.9 127.7 N 3.49 CA 3.56 C 3.52 O 3.52 CB 3.59 CG 3.91 CD1 4.09 CD2 4.03 CE1 4.21 CE2 4.09 CZ 3.99
J GLN E 98 -80.5 93.3 N 3.5 CA 3.46 C 3.47 O 3.53 CB 3.43 CG 3.45 CD 3.66 OE1 3.8 NE2 3.6
J VAL E 59 -117.8 102.2 N 3.57 CA 3.6 C 3.69 O 3.76 CB 3.61 CG1 3.55 CG2 3.51
J GLY T 79 56.8 58.2 N 3.76 CA 3.87 C 3.95 O 4.03
J GLY T 71 94.0 -39.6 N 3.97 CA 3.92 C 3.9 O 3.97
J GLU E 83 -102.8 152.0 N 3.82 CA 3.82 C 3.71 O 3.53 CB 3.93 CG 4.38 CD 5.25 OE1 5.84 OE2 5.34
J LYS E 69 -91.6 116.2 N 3.65 CA 3.7 C 3.66 O 3.64 CB 3.7 CG 3.93 CD 4.06 CE 4.05 NZ 3.46
J ARG E 62 -90.6 117.0 N 3.63 CA 3.61 C 3.44 O 3.34 CB 3.72 CG 4.17 CD 4.89 NE 5.52 CZ 5.89 NH1 6.32 NH2 5.79
J LEU E 0 -95.5 141.5 N 3.35 CA 3.23 C 3.12 O 2.85 CB 3.22 CG 3.02 CD1 2.84 CD2 2.31
J CYS E 1 -66.4 109.5 N 3.06 CA 3.06 C 3.14 O 3.13 CB 3.15 SG 2.53
J LEU H 13 -58.5 -48.8 N 3.27 CA 3.39 C 3.52 O 3.99 CB 3.36 CG 3.13 CD1 2.55 CD2 2.09
J PRO H 35 -51.7 -38.3 N 3.47 CA 3.49 C 3.33 O 3.19 CB 3.41 CG 3.53 CD 3.58
J GLN H 46 -64.3 -42.4 N 3.27 CA 3.32 C 3.48 O 3.41 CB 3.33 CG 3.25 CD 3.45 OE1 4.06 NE2 2.99
J VAL H 0 -63.6 -43.1 N 3.54 CA 3.64 C 3.72 O 3.79 CB 3.69 CG1 3.56 CG2 3.93
J LEU H 21 -67.6 -39.3 N 3.68 CA 3.74 C 3.67 O 3.73 CB 3.79 CG 4.06 CD1 4.12 CD2 3.4
J ASN H 128 -87.3 -15.1 N 3.71 CA 3.65 C 3.62 O 3.5 CB 3.66 CG 3.71 OD1 2.99 ND2 4.11
J SER T 38 -102.7 -79.3 N 3.71 CA 3.82 C 3.72 O 3.76 CB 3.91 OG 4.55
J VAL T 25 -71.2 -43.9 N 3.67 CA 3.65 C 3.67 O 3.83 CB 3.64 CG1 3.73 CG2 3.45
J LEU T 1 -104.8 43.9 N 3.66 CA 3.68 C 3.75 O 3.72 CB 3.78 CG 3.68 CD1 4.16 CD2 3.93
J ARG T 200 -58.6 -28.9 N 3.85 CA 3.88 C 3.88 O 3.81 CB 3.93 CG 4.38 CD 4.78 NE 5.31 CZ 6.12 NH1 6.52 NH2 6.05
J GLU T 108 -67.8 -23.1 N 3.93 CA 4.0 C 3.7 O 3.68 CB 4.2 CG 5.1 CD 6.24 OE1 6.54 OE2 7.26
J PHE S 24 -108.4 147.1 N 3.42 CA 3.37 C 3.34 O 3.14 CB 3.3 CG 3.32 CD1 3.1 CD2 3.09 CE1 3.14 CE2 3.09 CZ 2.99
J THR - 79 -78.8 166.4 N 3.33 CA 3.32 C 3.43 O 3.54 CB 3.26 OG1 2.96 CG2 3.04
J LEU H 105 -61.9 -41.0 N 3.61 CA 3.7 C 3.74 O 3.64 CB 3.74 CG 3.92 CD1 4.31 CD2 4.05
J GLN H 110 -63.9 -39.9 N 3.81 CA 3.77 C 3.67 O 3.78 CB 3.81 CG 4.23 CD 5.0 OE1 5.8 NE2 4.44
J GLN H 23 -62.7 -45.2 N 3.58 CA 3.36 C 3.43 O 3.39 CB 3.25 CG 2.79 CD 2.15 OE1 2.0 NE2 2.0
J ILE H 1 -63.1 -44.1 N 3.52 CA 3.67 C 3.67 O 3.72 CB 3.8 CG1 4.12 CG2 3.42 CD1 4.0
J ASN H 89 -59.1 -39.6 N 3.82 CA 3.93 C 4.05 O 4.12 CB 3.96 CG 4.34 OD1 5.01 ND2 4.06
J THR H 17 -66.5 -41.8 N 4.02 CA 3.98 C 4.08 O 4.22 CB 3.98 OG1 4.03 CG2 3.72
J VAL H 2 -71.6 -37.4 N 4.01 CA 3.82 C 3.87 O 3.85 CB 3.91 CG1 3.37 CG2 3.75
J CYS H 8 -58.5 -38.1 N 3.85 CA 3.68 C 3.39 O 3.18 CB 3.67 SG 4.46
J ASP H 61 -63.2 -47.4 N 3.12 CA 3.01 C 2.79 O 2.53 CB 2.88 CG 2.84 OD1 3.29 OD2 3.04
J GLU H 7 -59.2 -40.9 N 2.69 CA 2.61 C 2.25 O 2.14 CB 2.65 CG 2.58 CD 2.06 OE1 2.05 OE2 2.19
J LEU T 2 -82.3 0.5 N 2.07 CA 2.0 C 2.0 O 2.0 CB 2.0 CG 2.0 CD1 2.0 CD2 2.0
J TYR T 30 54.2 46.6 N 2.0 CA 2.0 C 2.04 O 2.0 CB 2.0 CG 2.0 CD1 2.0 CD2 2.0 CE1 2.0 CE2 2.0 CZ 2.0 OH 2.0
J ILE - 12 -101.1 121.9 N 2.12 CA 2.24 C 2.39 O 2.23 CB 2.21 CG1 2.0 CG2 2.24 CD1 2.0
J TYR - 139 -98.5 118.0 N 2.63 CA 2.83 C 2.89 O 2.87 CB 2.82 CG 3.22 CD1 3.2 CD2 3.16 CE1 3.82 CE2 3.76 CZ 3.78 OH 3.83
J CYS - 36 -95.3 117.7 N 2.95 CA 2.97 C 3.04 O 3.1 CB 2.95 SG 2.42
J SER E 27 -76.9 170.7 N 3.13 CA 3.15 C 3.3 O 3.28 CB 3.06 OG 2.91
J ARG E 178 -107.6 143.4 N 3.44 CA 3.61 C 3.52 O 3.53 CB 3.73 CG 4.31 CD 4.89 NE 5.0 CZ 5.24 NH1 5.72 NH2 5.4
J CYS - 16 -57.5 137.1 N 3.46 CA 3.52 C 3.48 O 3.42 CB 3.53 SG 3.8
J THR - 71 -70.7 160.1 N 3.45 CA 3.52 C 3.51 O 3.47 CB 3.56 OG1 3.69 CG2 3.27
J SER H 94 -42.5 -46.7 N 3.54 CA 3.59 C 3.55 O 3.59 CB 3.59 OG 3.64
J ASP H 115 -64.0 -54.9 N 3.5 CA 3.45 C 3.43 O 3.32 CB 3.47 CG 3.52 OD1 3.4 OD2 3.52
J GLN H 28 -53.8 -37.3 N 3.42 CA 3.41 C 3.35 O 3.08 CB 3.56 CG 3.56 CD 3.64 OE1 4.26 NE2 3.55
J LEU H 19 -57.9 -44.5 N 3.39 CA 3.47 C 3.55 O 3.56 CB 3.46 CG 3.33 CD1 2.79 CD2 2.88
J HIS H 105 -66.9 -32.4 N 3.67 CA 3.8 C 3.74 O 3.69 CB 3.83 CG 4.31 ND1 4.89 CD2 4.69 CE1 4.94 NE2 5.17
J ILE H 53 -64.2 -45.1 N 3.68 CA 3.72 C 3.69 O 3.62 CB 3.82 CG1 4.1 CG2 3.54 CD1 4.21
J LEU H 1 -66.5 -37.5 N 3.66 CA 3.59 C 3.62 O 3.71 CB 3.51 CG 3.42 CD1 2.95 CD2 2.89
J LYS H 23 -66.3 -38.5 N 3.54 CA 3.45 C 3.5 O 3.43 CB 3.37 CG 3.15 CD 3.01 CE 2.86 NZ 2.96
J VAL H 107 -68.6 -35.4 N 3.54 CA 3.61 C 3.7 O 3.81 CB 3.6 CG1 3.64 CG2 3.46
J LEU T 100 -77.7 -6.5 N 3.81 CA 3.89 C 3.93 O 3.95 CB 3.87 CG 3.97 CD1 4.13 CD2 3.56
J GLY T 58 80.4 11.8 N 3.92 CA 3.89 C 3.93 O 3.99
J ILE S 57 -72.1 -36.8 N 3.89 CA 3.83 C 3.83 O 3.84 CB 3.83 CG1 3.84 CG2 3.78 CD1 4.06
J LEU S 17 -116.2 149.8 N 3.78 CA 3.73 C 3.72 O 3.79 CB 3.7 CG 3.48 CD1 3.42 CD2 3.23
J PRO - 88 -73.3 151.9 N 3.76 CA 3.86 C 3.95 O 3.92 CB 3.83 CG 3.8 CD 3.66
J PHE T 135 -64.9 -23.3 N 4.13 CA 4.32 C 4.17 O 4.16 CB 4.55 CG 5.56 CD1 6.25 CD2 6.56 CE1 6.51 CE2 6.83 CZ 6.77
J ASN T 159 -63.2 -20.5 N 4.08 CA 4.09 C 3.96 O 3.93 CB 4.12 CG 4.83 OD1 5.97 ND2 5.68
J ALA - 12 -59.2 116.9 N 3.87 CA 3.79 C 3.75 O 3.65 CB 3.71
J PRO - 115 -74.2 -41.4 N 3.78 CA 3.8 C 3.76 O 3.79 CB 3.84 CG 3.87 CD 3.84
J SER - 55 -146.1 -174.8 N 3.62 CA 3.57 C 3.56 O 3.56 CB 3.57 OG 3.63
J CYS - 3 -160.8 121.3 N 3.47 CA 3.44 C 3.45 O 3.47 CB 3.46 SG 2.92
J GLY E 17 -72.3 151.0 N 3.39 CA 3.37 C 3.31 O 3.22
J LEU E 3 -128.7 139.2 N 3.23 CA 3.22 C 3.2 O 3.28 CB 3.23 CG 3.04 CD1 2.92 CD2 2.67
J ILE E 1 -132.5 132.2 N 3.06 CA 2.94 C 2.8 O 2.64 CB 2.84 CG1 2.77 CG2 2.91 CD1 2.0
J THR E 6 -62.4 147.7 N 2.71 CA 2.66 C 2.61 O 2.45 CB 2.63 OG1 2.46 CG2 2.32
J LEU H 32 -52.2 -47.9 N 2.68 CA 2.85 C 2.99 O 2.72 CB 2.85 CG 2.52 CD1 2.18 CD2 2.0
J THR H 70 -60.2 -40.2 N 3.2 CA 3.49 C 3.6 O 3.63 CB 3.59 OG1 3.91 CG2 3.64
J ASP H 25 -70.7 -37.2 N 3.78 CA 3.9 C 3.97 O 4.26 CB 3.91 CG 4.31 OD1 3.73 OD2 4.58
J ALA H 0 -64.7 -42.1 N 3.94 CA 3.84 C 3.73 O 3.84 CB 3.77
J GLN H 88 -59.0 -42.3 N 3.77 CA 3.69 C 3.66 O 3.64 CB 3.64 CG 3.88 CD 3.94 OE1 4.12 NE2 3.72
J ARG H 42 -66.5 -42.1 N 3.57 CA 3.57 C 3.61 O 3.48 CB 3.73 CG 4.04 CD 4.3 NE 4.77 CZ 5.37 NH1 5.92 NH2 5.27
J LEU H 0 -58.8 -47.0 N 3.62 CA 3.45 C 3.57 O 3.34 CB 3.45 CG 3.17 CD1 2.49 CD2 3.24
J CYS H 0 -66.4 -42.4 N 3.71 CA 3.74 C 3.95 O 4.33 CB 3.86 SG 3.87
J ASN H 50 -59.2 -40.6 N 3.85 CA 3.78 C 3.79 O 3.53 CB 3.8 CG 3.93 OD1 4.83 ND2 4.14
J ALA H 12 -73.2 -29.7 N 3.64 CA 3.66 C 3.68 O 3.77 CB 3.64
J LEU H 18 -94.0 -37.9 N 3.68 CA 3.69 C 3.69 O 3.71 CB 3.59 CG 3.86 CD1 3.07 CD2 3.37
J LEU H 69 -94.5 -30.8 N 3.73 CA 3.69 C 3.73 O 3.72 CB 3.68 CG 3.24 CD1 2.51 CD2 2.11
J ARG S 110 -134.9 63.7 N 3.74 CA 3.78 C 3.63 O 3.42 CB 3.81 CG 4.26 CD 4.71 NE 5.55 CZ 6.14 NH1 6.04 NH2 6.37
J PRO - 47 -63.6 146.3 N 3.63 CA 3.67 C 3.79 O 3.59 CB 3.75 CG 3.58 CD 3.54
J ARG - 122 -72.7 145.8 N 3.93 CA 4.05 C 4.05 O 3.98 CB 4.09 CG 4.5 CD 5.24 NE 5.74 CZ 5.84 NH1 6.76 NH2 5.19
J THR - 151 86.0 360.0 N 4.28 CA 4.37 C 4.4 O 4.42 CB 4.42 OG1 4.29 CG2 4.77 OXT 4.38
K GLU - 196 360.0 112.5 N 3.71 CA 3.78 C 3.8 O 3.88 CB 3.78 CG 3.91 CD 3.99 OE1 4.25 OE2 3.87
K LEU E 48 -105.0 145.1 N 3.79 CA 3.8 C 3.8 O 3.81 CB 3.77 CG 3.79 CD1 3.57 CD2 3.7
K THR E 71 -141.7 174.2 N 3.82 CA 3.84 C 3.86 O 3.88 CB 3.85 OG1 3.92 CG2 3.74
K GLN E 139 -122.5 143.9 N 3.89 CA 3.88 C 3.83 O 3.7 CB 3.92 CG 4.12 CD 4.57 OE1 4.92 NE2 4.66
K THR E 14 -140.1 143.2 N 3.82 CA 3.81 C 3.8 O 3.74 CB 3.78 OG1 3.81 CG2 3.89
K VAL E 99 -82.2 140.3 N 3.8 CA 3.76 C 3.69 O 3.75 CB 3.79 CG1 3.76 CG2 3.73
K LEU S 5 -152.8 117.5 N 3.68 CA 3.61 C 3.66 O 3.56 CB 3.59 CG 3.39 CD1 3.48 CD2 3.17
K GLU S 75 54.7 48.2 N 3.67 CA 3.73 C 3.75 O 3.75 CB 3.75 CG 3.86 CD 4.14 OE1 4.15 OE2 4.73
K GLY S 72 57.7 41.6 N 3.78 CA 3.81 C 3.89 O 3.85
K GLU - 85 -150.6 132.8 N 3.9 CA 3.84 C 3.82 O 3.79 CB 3.82 CG 3.92 CD 3.91 OE1 3.94 OE2 3.83
K SER E 60 -83.5 120.6 N 3.76 CA 3.73 C 3.72 O 3.8 CB 3.68 OG 3.64
K ILE E 0 -122.2 130.9 N 3.75 CA 3.77 C 3.8 O 3.83 CB 3.78 CG1 4.03 CG2 3.64 CD1 4.37
K SER E 7 -69.4 151.6 N 3.82 CA 3.84 C 3.87 O 3.84 CB 3.86 OG 3.81
K CYS E 1 -161.7 156.8 N 3.88 CA 3.9 C 3.86 O 3.86 CB 3.91 SG 4.36
K PHE E 8 -111.1 153.9 N 3.86 CA 3.86 C 3.87 O 3.95 CB 3.86 CG 3.84 CD1 3.86 CD2 3.8 CE1 3.93 CE2 3.91 CZ 3.92
K GLN E 114 -93.1 98.4 N 3.86 CA 3.85 C 3.85 O 3.89 CB 3.89 CG 3.88 CD 3.9 OE1 4.08 NE2 3.81
K VAL - 60 -130.8 128.5 N 3.84 CA 3.82 C 3.84 O 3.84 CB 3.86 CG1 3.75 CG2 3.75
K GLY S 67 66.6 28.4 N 3.86 CA 3.84 C 3.84 O 3.82
K GLY S 66 63.1 37.6 N 3.83 CA 3.83 C 3.84 O 3.89
K GLU S 78 -147.7 143.9 N 3.79 CA 3.77 C 3.75 O 3.77 CB 3.79 CG 4.0 CD 4.28 OE1 4.5 OE2 4.49
K LYS E 86 -76.4 110.7 N 3.71 CA 3.7 C 3.71 O 3.7 CB 3.67 CG 3.7 CD 3.67 CE 3.63 NZ 3.41
K ARG E 47 -107.8 114.6 N 3.71 CA 3.72 C 3.64 O 3.59 CB 3.69 CG 3.89 CD 4.09 NE 4.1 CZ 4.24 NH1 4.07 NH2 4.37
K LEU E 0 -86.8 157.7 N 3.64 CA 3.66 C 3.69 O 3.7 CB 3.64 CG 3.62 CD1 3.5 CD2 3.66
K CYS E 1 -80.3 105.8 N 3.76 CA 3.79 C 3.81 O 3.84 CB 3.77 SG 4.11
K LEU H 7 -56.2 -43.7 N 3.78 CA 3.74 C 3.84 O 3.91 CB 3.65 CG 3.45 CD1 3.17 CD2 3.11
K PRO H 32 -60.5 -34.2 N 3.88 CA 3.87 C 3.87 O 3.88 CB 3.86 CG 3.92 CD 3.92
K GLN H 39 -72.1 -17.4 N 3.91 CA 3.94 C 3.97 O 4.11 CB 3.99 CG 4.04 CD 4.31 OE1 4.85 NE2 4.19
K VAL H 1 -84.7 -37.8 N 3.88 CA 3.83 C 3.9 O 3.98 CB 3.85 CG1 3.71 CG2 3.71
K LEU H 14 -66.2 -52.4 N 3.94 CA 3.97 C 3.92 O 3.96 CB 4.02 CG 4.32 CD1 4.53 CD2 4.62
K ASN T 127 -75.4 -11.7 N 3.88 CA 3.86 C 3.85 O 3.93 CB 3.86 CG 3.95 OD1 3.91 ND2 4.06
K SER T 32 -114.7 -40.4 N 3.91 CA 3.94 C 3.88 O 4.02 CB 3.95 OG 4.18
K VAL T 22 -114.7 -38.2 N 3.73 CA 3.63 C 3.54 O 3.49 CB 3.67 CG1 3.65 CG2 3.64
K LEU - 2 -109.0 55.0 N 3.49 CA 3.53 C 3.61 O 3.62 CB 3.48 CG 3.24 CD1 3.08 CD2 3.09
K ARG T 174 -68.3 -24.4 N 3.74 CA 3.85 C 3.84 O 3.83 CB 3.88 CG 4.22 CD 4.44 NE 4.71 CZ 5.23 NH1 5.49 NH2 5.31
K GLU T 129 -84.0 0.4 N 3.86 CA 3.86 C 3.75 O 3.76 CB 3.92 CG 4.38 CD 5.22 OE1 5.98 OE2 5.76
K PHE S 42 -122.7 164.6 N 3.62 CA 3.58 C 3.55 O 3.51 CB 3.58 CG 3.5 CD1 3.32 CD2 3.52 CE1 3.28 CE2 3.5 CZ 3.35
K THR - 72 -99.5 170.2 N 3.54 CA 3.49 C 3.53 O 3.5 CB 3.54 OG1 3.29 CG2 3.28
K LEU H 91 -68.0 -40.8 N 3.55 CA 3.53 C 3.5 O 3.41 CB 3.53 CG 3.53 CD1 3.11 CD2 3.5
K GLN H 99 -59.3 -45.6 N 3.52 CA 3.57 C 3.55 O 3.52 CB 3.6 CG 3.88 CD 4.4 OE1 4.81 NE2 4.38
K GLN H 33 -60.8 -42.4 N 3.5 CA 3.44 C 3.45 O 3.36 CB 3.36 CG 3.24 CD 3.05 OE1 2.79 NE2 2.7
K ILE H 1 -66.0 -41.8 N 3.47 CA 3.45 C 3.5 O 3.5 CB 3.46 CG1 3.46 CG2 3.48 CD1 3.24
K ASN H 84 -61.2 -40.5 N 3.49 CA 3.47 C 3.42 O 3.36 CB 3.44 CG 3.53 OD1 3.52 ND2 3.61
K THR H 17 -64.5 -42.8 N 3.39 CA 3.33 C 3.36 O 3.23 CB 3.27 OG1 3.22 CG2 3.18
K VAL H 1 -71.1 -34.5 N 3.41 CA 3.43 C 3.45 O 3.49 CB 3.42 CG1 3.31 CG2 3.32
K CYS H 7 -60.8 -32.4 N 3.45 CA 3.5 C 3.45 O 3.41 CB 3.5 SG 3.86
K ASP H 70 -66.3 -47.4 N 3.38 CA 3.31 C 3.2 O 3.17 CB 3.29 CG 3.38 OD1 3.9 OD2 3.69
K GLU H 6 -60.2 -40.9 N 3.12 CA 3.04 C 3.06 O 2.96 CB 2.96 CG 2.65 CD 2.17 OE1 2.0 OE2 2.0
K LEU T 2 -83.0 -1.6 N 3.16 CA 3.19 C 3.15 O 3.07 CB 3.14 CG 3.04 CD1 3.12 CD2 2.68
K TYR T 32 64.2 44.1 N 3.15 CA 3.19 C 3.24 O 3.26 CB 3.17 CG 2.95 CD1 2.84 CD2 2.76 CE1 2.66 CE2 2.63 CZ 2.58 OH 2.62
K ILE - 13 -101.9 126.2 N 3.34 CA 3.43 C 3.49 O 3.45 CB 3.44 CG1 3.61 CG2 3.46 CD1 3.79
K TYR - 145 -102.7 109.3 N 3.58 CA 3.67 C 3.63 O 3.72 CB 3.73 CG 4.05 CD1 4.37 CD2 4.31 CE1 4.46 CE2 4.38 CZ 4.43 OH 4.37
K CYS - 36 -87.6 133.3 N 3.56 CA 3.52 C 3.55 O 3.62 CB 3.48 SG 3.33
K SER E 26 -95.9 166.2 N 3.6 CA 3.66 C 3.67 O 3.53 CB 3.66 OG 3.75
K ARG E 183 -96.2 149.9 N 3.77 CA 3.84 C 3.84 O 3.86 CB 3.9 CG 4.24 CD 4.62 NE 5.03 CZ 5.18 NH1 5.22 NH2 5.16
K CYS - 16 -67.4 145.8 N 3.83 CA 3.86 C 3.79 O 3.78 CB 3.89 SG 4.39
K THR - 72 -74.4 167.9 N 3.75 CA 3.75 C 3.77 O 3.78 CB 3.74 OG1 3.66 CG2 3.68
K SER H 104 -52.6 -45.4 N 3.77 CA 3.75 C 3.72 O 3.73 CB 3.74 OG 3.79
K ASP H 119 -70.2 -46.9 N 3.7 CA 3.7 C 3.68 O 3.67 CB 3.7 CG 3.72 OD1 3.68 OD2 3.68
K GLN H 27 -56.2 -40.5 N 3.67 CA 3.67 C 3.75 O 3.74 CB 3.61 CG 3.55 CD 3.35 OE1 3.27 NE2 3.07
K LEU H 28 -63.7 -40.3 N 3.77 CA 3.76 C 3.76 O 3.74 CB 3.79 CG 3.85 CD1 3.94 CD2 4.06
K HIS H 120 -64.7 -46.2 N 3.71 CA 3.66 C 3.64 O 3.65 CB 3.63 CG 3.6 ND1 3.63 CD2 3.58 CE1 3.6 NE2 3.65
K ILE H 54 -57.8 -39.2 N 3.61 CA 3.61 C 3.61 O 3.63 CB 3.63 CG1 3.65 CG2 3.55 CD1 3.65
K LEU H 1 -68.6 -35.5 N 3.57 CA 3.53 C 3.57 O 3.61 CB 3.51 CG 3.42 CD1 3.16 CD2 3.29
K LYS H 63 -70.2 -47.0 N 3.56 CA 3.54 C 3.52 O 3.47 CB 3.52 CG 3.48 CD 3.5 CE 3.54 NZ 3.64
K VAL H 104 -58.4 -35.7 N 3.56 CA 3.57 C 3.6 O 3.59 CB 3.56 CG1 3.69 CG2 3.57
K LEU H 101 -76.2 -18.2 N 3.63 CA 3.67 C 3.69 O 3.71 CB 3.67 CG 3.67 CD1 3.62 CD2 3.45
K GLY T 59 89.7 9.4 N 3.71 CA 3.68 C 3.72 O 3.72
K ILE S 55 -68.5 -35.7 N 3.73 CA 3.71 C 3.69 O 3.7 CB 3.77 CG1 3.89 CG2 3.67 CD1 4.03
K LEU S 15 -120.3 152.7 N 3.67 CA 3.67 C 3.65 O 3.59 CB 3.7 CG 3.73 CD1 3.86 CD2 3.67
K PRO - 77 -75.3 167.4 N 3.66 CA 3.72 C 3.74 O 3.71 CB 3.72 CG 3.73 CD 3.65
K PHE T 165 -60.7 -31.4 N 3.77 CA 3.79 C 3.79 O 3.78 CB 3.81 CG 3.91 CD1 4.07 CD2 4.0 CE1 4.1 CE2 4.09 CZ 4.1
K ASN T 116 -64.3 -26.6 N 3.8 CA 3.81 C 3.77 O 3.75 CB 3.83 CG 4.04 OD1 4.44 ND2 4.3
K ALA - 11 -52.0 111.7 N 3.78 CA 3.81 C 3.83 O 3.81 CB 3.81
K PRO - 119 -76.7 -35.3 N 3.88 CA 3.92 C 3.95 O 3.92 CB 3.94 CG 3.91 CD 3.89
K SER - 51 -152.5 -173.9 N 3.93 CA 3.96 C 3.97 O 3.98 CB 3.97 OG 4.05
K CYS - 4 -160.5 129.4 N 3.98 CA 4.06 C 3.96 O 3.99 CB 4.12 SG 4.87
K GLY E 24 -76.5 151.7 N 3.84 CA 3.74 C 3.68 O 3.66
K LEU E 5 -130.3 135.2 N 3.61 CA 3.58 C 3.54 O 3.52 CB 3.55 CG 3.49 CD1 3.42 CD2 3.34
K ILE E 2 -131.2 137.5 N 3.55 CA 3.52 C 3.47 O 3.43 CB 3.55 CG1 3.57 CG2 3.51 CD1 3.56
K THR E 6 -70.2 155.3 N 3.46 CA 3.46 C 3.47 O 3.49 CB 3.46 OG1 3.39 CG2 3.6
K LEU H 33 -60.7 -41.7 N 3.44 CA 3.41 C 3.41 O 3.4 CB 3.4 CG 3.33 CD1 3.23 CD2 3.18
K THR H 86 -65.7 -42.6 N 3.42 CA 3.41 C 3.38 O 3.33 CB 3.4 OG1 3.41 CG2 3.42
K ASP H 29 -69.2 -40.1 N 3.37 CA 3.38 C 3.33 O 3.33 CB 3.39 CG 3.49 OD1 3.68 OD2 3.58
K ALA H 1 -62.5 -35.6 N 3.29 CA 3.28 C 3.3 O 3.14 CB 3.27
K GLN H 86 -69.6 -37.0 N 3.35 CA 3.42 C 3.44 O 3.45 CB 3.43 CG 3.55 CD 3.65 OE1 3.93 NE2 3.58
K ARG H 45 -66.3 -43.3 N 3.4 CA 3.41 C 3.33 O 3.26 CB 3.43 CG 3.42 CD 3.41 NE 3.52 CZ 3.47 NH1 3.54 NH2 3.67
K LEU H 0 -57.7 -45.7 N 3.29 CA 3.33 C 3.32 O 3.11 CB 3.34 CG 3.1 CD1 2.98 CD2 2.94
K CYS H 0 -67.5 -40.7 N 3.37 CA 3.39 C 3.44 O 3.45 CB 3.42 SG 3.46
K ASN H 46 -66.3 -37.2 N 3.47 CA 3.44 C 3.42 O 3.46 CB 3.46 CG 3.5 OD1 3.6 ND2 3.61
K ALA H 9 -64.7 -41.9 N 3.43 CA 3.44 C 3.45 O 3.49 CB 3.38
K LEU H 10 -84.4 -40.8 N 3.45 CA 3.42 C 3.4 O 3.27 CB 3.42 CG 3.3 CD1 3.1 CD2 3.17
K LEU H 76 -97.0 -10.3 N 3.38 CA 3.37 C 3.41 O 3.42 CB 3.31 CG 3.19 CD1 3.0 CD2 2.87
K ARG - 114 -143.2 57.4 N 3.45 CA 3.5 C 3.5 O 3.46 CB 3.5 CG 3.63 CD 3.88 NE 4.01 CZ 4.01 NH1 4.18 NH2 4.03
K PRO - 51 -68.3 142.6 N 3.53 CA 3.53 C 3.53 O 3.53 CB 3.54 CG 3.55 CD 3.54
K ARG - 135 -79.4 143.9 N 3.58 CA 3.6 C 3.62 O 3.6 CB 3.58 CG 3.6 CD 3.5 NE 3.41 CZ 3.56 NH1 3.68 NH2 3.63
K THR - 159 -141.2 360.0 N 3.67 CA 3.7 C 3.7 O 3.69 CB 3.74 OG1 3.74 CG2 3.69 OXT 3.71
L LEU - 89 360.0 107.2 N 4.02 CA 4.08 C 4.07 O 4.07 CB 4.1 CG 4.13 CD1 4.3 CD2 4.11
L THR E 83 -115.0 -172.7 N 4.09 CA 4.09 C 4.08 O 4.11 CB 4.12 OG1 4.12 CG2 4.04
L GLN E 99 -135.5 137.9 N 4.07 CA 4.08 C 3.99 O 4.01 CB 4.14 CG 4.45 CD 5.1 OE1 5.74 NE2 5.43
L THR E 26 -122.0 155.9 N 3.91 CA 3.89 C 3.89 O 3.93 CB 3.87 OG1 3.95 CG2 3.72
L VAL E 91 -87.3 128.0 N 3.87 CA 3.89 C 3.9 O 3.97 CB 3.95 CG1 3.9 CG2 3.92
L LEU S 4 -129.9 112.6 N 3.93 CA 3.94 C 4.0 O 3.99 CB 3.96 CG 4.1 CD1 3.9 CD2 3.95
L GLU S 75 57.7 47.4 N 4.02 CA 4.06 C 4.06 O 3.96 CB 4.1 CG 4.33 CD 4.68 OE1 5.11 OE2 5.25
L GLY S 63 61.1 42.6 N 4.06 CA 4.04 C 4.05 O 4.11
L GLU - 84 -149.2 131.7 N 4.01 CA 3.96 C 3.94 O 4.03 CB 3.96 CG 4.25 CD 4.45 OE1 4.9 OE2 4.64
L SER E 62 -84.0 101.1 N 3.92 CA 3.97 C 3.91 O 3.88 CB 3.96 OG 4.2
L ILE E 0 -103.1 139.1 N 3.94 CA 3.98 C 3.98 O 4.07 CB 3.99 CG1 4.07 CG2 4.02 CD1 4.66
L SER E 0 -72.3 131.5 N 4.01 CA 4.06 C 4.11 O 4.1 CB 4.06 OG 4.18
L CYS E 0 -113.0 162.1 N 4.2 CA 4.24 C 4.14 O 4.14 CB 4.26 SG 5.33
L PHE E 17 -135.3 119.6 N 4.09 CA 4.0 C 4.04 O 4.03 CB 3.98 CG 3.92 CD1 3.96 CD2 3.9 CE1 4.1 CE2 4.03 CZ 4.05
L GLN E 122 -72.1 107.3 N 4.03 CA 3.99 C 3.99 O 3.96 CB 3.99 CG 4.04 CD 4.05 OE1 4.27 NE2 3.82
L VAL E 64 -139.7 111.5 N 4.02 CA 4.03 C 4.07 O 4.07 CB 4.06 CG1 4.01 CG2 4.08
L GLY T 79 65.2 36.8 N 4.08 CA 4.12 C 4.18 O 4.22
L GLY T 60 89.9 -46.6 N 4.21 CA 4.22 C 4.29 O 4.43
L GLU E 103 -80.0 135.5 N 4.28 CA 4.23 C 4.12 O 4.13 CB 4.29 CG 4.57 CD 5.06 OE1 5.2 OE2 5.26
L LYS E 75 -74.9 136.3 N 3.98 CA 3.87 C 3.84 O 3.8 CB 3.85 CG 3.85 CD 3.82 CE 3.83 NZ 3.75
L ARG E 41 -117.5 119.0 N 3.82 CA 3.82 C 3.75 O 3.78 CB 3.83 CG 3.98 CD 4.24 NE 4.57 CZ 4.84 NH1 4.61 NH2 5.16
L LEU E 0 -86.2 149.7 N 3.66 CA 3.57 C 3.48 O 3.38 CB 3.56 CG 3.53 CD1 3.44 CD2 3.33
L CYS E 0 -67.5 112.8 N 3.47 CA 3.42 C 3.4 O 3.4 CB 3.44 SG 3.09
L LEU H 7 -64.9 -46.8 N 3.39 CA 3.41 C 3.46 O 3.36 CB 3.39 CG 3.12 CD1 2.85 CD2 2.84
L PRO H 31 -58.2 -33.0 N 3.56 CA 3.57 C 3.57 O 3.53 CB 3.62 CG 3.63 CD 3.67
L GLN H 33 -69.9 -36.5 N 3.57 CA 3.6 C 3.68 O 3.72 CB 3.58 CG 3.4 CD 3.27 OE1 3.36 NE2 3.2
L VAL H 1 -64.3 -45.5 N 3.73 CA 3.82 C 3.9 O 3.96 CB 3.82 CG1 3.67 CG2 3.95
L LEU H 17 -58.7 -54.8 N 4.02 CA 4.11 C 4.16 O 4.35 CB 4.15 CG 4.24 CD1 4.41 CD2 4.7
L ASN H 114 -70.7 -23.2 N 4.12 CA 4.16 C 4.06 O 4.02 CB 4.26 CG 4.58 OD1 4.85 ND2 4.94
L SER H 32 -102.1 -43.0 N 3.99 CA 3.94 C 3.77 O 3.77 CB 3.95 OG 4.48
L VAL T 22 -108.0 -39.4 N 3.67 CA 3.58 C 3.51 O 3.42 CB 3.59 CG1 3.4 CG2 3.49
L LEU - 2 -107.6 51.8 N 3.48 CA 3.47 C 3.51 O 3.45 CB 3.46 CG 3.25 CD1 3.13 CD2 2.97
L ARG T 172 -59.9 -31.5 N 3.67 CA 3.78 C 3.81 O 3.81 CB 3.85 CG 4.0 CD 4.04 NE 4.02 CZ 4.0 NH1 3.95 NH2 3.99
L GLU T 146 -79.3 -7.9 N 3.84 CA 3.91 C 3.78 O 3.74 CB 4.06 CG 4.58 CD 5.6 OE1 6.38 OE2 6.32
L PHE S 15 -113.2 155.8 N 3.7 CA 3.71 C 3.7 O 3.69 CB 3.63 CG 3.62 CD1 3.78 CD2 3.64 CE1 3.86 CE2 3.6 CZ 3.72
L THR - 75 -89.8 168.6 N 3.73 CA 3.72 C 3.78 O 3.87 CB 3.67 OG1 3.64 CG2 3.51
L LEU H 85 -67.8 -38.4 N 3.78 CA 3.81 C 3.81 O 3.76 CB 3.81 CG 3.97 CD1 3.73 CD2 3.97
L GLN H 102 -59.6 -41.3 N 3.85 CA 3.9 C 3.85 O 3.9 CB 3.97 CG 4.47 CD 5.34 OE1 5.92 NE2 5.6
L GLN H 30 -67.0 -41.8 N 3.72 CA 3.59 C 3.55 O 3.49 CB 3.53 CG 3.24 CD 2.65 OE1 2.37 NE2 2.09
L ILE H 1 -60.8 -41.1 N 3.59 CA 3.63 C 3.63 O 3.55 CB 3.63 CG1 3.74 CG2 3.48 CD1 3.73
L ASN H 86 -61.8 -39.4 N 3.7 CA 3.75 C 3.77 O 3.91 CB 3.75 CG 3.87 OD1 4.04 ND2 3.79
L THR H 15 -67.5 -43.5 N 3.7 CA 3.66 C 3.7 O 3.71 CB 3.63 OG1 3.56 CG2 3.48
L VAL H 1 -68.0 -45.7 N 3.7 CA 3.75 C 3.85 O 3.91 CB 3.8 CG1 3.73 CG2 3.49
L CYS H 6 -51.6 -38.5 N 3.88 CA 4.01 C 3.87 O 3.87 CB 4.05 SG 4.86
L ASP H 64 -64.1 -50.3 N 3.83 CA 3.82 C 3.75 O 3.65 CB 3.87 CG 4.07 OD1 4.39 OD2 4.69
L GLU H 6 -56.7 -37.6 N 3.68 CA 3.61 C 3.53 O 3.63 CB 3.58 CG 3.58 CD 3.81 OE1 3.93 OE2 3.42
L LEU T 4 -88.5 2.9 N 3.45 CA 3.45 C 3.46 O 3.39 CB 3.44 CG 3.38 CD1 3.27 CD2 3.2
L TYR T 64 59.8 38.6 N 3.48 CA 3.45 C 3.55 O 3.57 CB 3.4 CG 3.05 CD1 2.7 CD2 2.73 CE1 2.72 CE2 2.75 CZ 2.69 OH 2.0
L ILE - 15 -90.8 123.9 N 3.59 CA 3.58 C 3.6 O 3.39 CB 3.67 CG1 3.9 CG2 3.5 CD1 4.35
L TYR - 167 -96.0 124.3 N 3.66 CA 3.75 C 3.67 O 3.55 CB 3.81 CG 4.24 CD1 4.53 CD2 4.65 CE1 4.8 CE2 4.77 CZ 4.93 OH 5.07
L CYS - 37 -103.3 119.6 N 3.72 CA 3.76 C 3.75 O 3.8 CB 3.72 SG 3.94
L SER E 23 -77.2 162.1 N 3.77 CA 3.78 C 3.76 O 3.68 CB 3.75 OG 3.89
L ARG E 204 -102.0 150.7 N 3.81 CA 3.93 C 3.94 O 3.97 CB 3.97 CG 4.31 CD 4.71 NE 5.03 CZ 5.11 NH1 4.94 NH2 5.07
L CYS - 22 -72.0 140.3 N 4.05 CA 4.16 C 4.09 O 4.18 CB 4.18 SG 5.03
L THR - 73 -77.4 162.2 N 4.06 CA 3.97 C 3.89 O 3.9 CB 3.97 OG1 4.04 CG2 3.9
L SER H 104 -60.6 -35.9 N 3.82 CA 3.81 C 3.77 O 3.72 CB 3.85 OG 4.02
L ASP H 57 -68.0 -40.9 N 3.76 CA 3.73 C 3.69 O 3.58 CB 3.71 CG 3.77 OD1 3.96 OD2 3.68
L GLN H 36 -70.0 -38.0 N 3.71 CA 3.69 C 3.74 O 3.71 CB 3.7 CG 3.58 CD 3.45 OE1 3.54 NE2 3.19
L LEU H 23 -68.0 -35.9 N 3.76 CA 3.73 C 3.76 O 3.86 CB 3.72 CG 3.73 CD1 3.74 CD2 3.67
L HIS H 125 -67.4 -45.5 N 3.71 CA 3.67 C 3.62 O 3.55 CB 3.68 CG 3.82 ND1 3.84 CD2 3.75 CE1 3.64 NE2 3.77
L ILE H 60 -57.3 -41.4 N 3.55 CA 3.58 C 3.54 O 3.5 CB 3.59 CG1 3.97 CG2 3.49 CD1 4.32
L LEU H 0 -64.0 -41.4 N 3.46 CA 3.43 C 3.42 O 3.35 CB 3.37 CG 3.22 CD1 2.97 CD2 3.06
L LYS H 66 -68.9 -34.7 N 3.41 CA 3.4 C 3.41 O 3.39 CB 3.34 CG 3.25 CD 3.02 CE 2.9 NZ 2.8
L VAL H 101 -70.8 -38.5 N 3.5 CA 3.5 C 3.54 O 3.53 CB 3.5 CG1 3.53 CG2 3.41
L LEU H 96 -72.0 -18.3 N 3.57 CA 3.62 C 3.57 O 3.59 CB 3.61 CG 3.81 CD1 3.99 CD2 3.83
L GLY T 56 90.4 7.2 N 3.56 CA 3.64 C 3.66 O 3.64
L ILE S 47 -65.9 -41.7 N 3.59 CA 3.53 C 3.48 O 3.42 CB 3.55 CG1 3.53 CG2 3.45 CD1 3.79
L LEU S 11 -111.0 150.9 N 3.43 CA 3.43 C 3.41 O 3.4 CB 3.46 CG 3.46 CD1 3.34 CD2 3.65
L PRO - 84 -73.1 161.5 N 3.44 CA 3.49 C 3.47 O 3.5 CB 3.45 CG 3.39 CD 3.42
L PHE T 173 -58.3 -22.8 N 3.49 CA 3.55 C 3.56 O 3.48 CB 3.54 CG 3.64 CD1 3.72 CD2 3.81 CE1 3.84 CE2 3.85 CZ 3.92
L ASN T 100 -81.4 -13.0 N 3.62 CA 3.62 C 3.55 O 3.43 CB 3.61 CG 3.81 OD1 4.02 ND2 3.88
L ALA - 13 -66.4 128.9 N 3.56 CA 3.63 C 3.71 O 3.68 CB 3.6
L PRO - 121 -79.3 -36.5 N 3.8 CA 3.87 C 3.87 O 3.87 CB 3.91 CG 3.85 CD 3.81
L SER - 66 -153.4 -175.6 N 3.84 CA 3.86 C 3.89 O 3.98 CB 3.87 OG 3.74
L CYS - 3 -159.3 127.3 N 3.86 CA 3.91 C 3.81 O 3.9 CB 3.94 SG 4.79
L GLY E 22 -74.0 155.3 N 3.63 CA 3.55 C 3.51 O 3.49
L LEU E 3 -134.6 126.9 N 3.51 CA 3.54 C 3.53 O 3.56 CB 3.57 CG 3.62 CD1 3.47 CD2 3.21
L ILE E 1 -122.2 140.1 N 3.54 CA 3.51 C 3.49 O 3.41 CB 3.51 CG1 3.59 CG2 3.47 CD1 3.73
L THR E 4 -72.1 152.4 N 3.43 CA 3.38 C 3.36 O 3.3 CB 3.36 OG1 3.23 CG2 3.11
L LEU H 35 -53.7 -45.3 N 3.36 CA 3.44 C 3.48 O 3.73 CB 3.41 CG 3.43 CD1 3.1 CD2 3.35
L THR H 85 -61.0 -46.3 N 3.62 CA 3.59 C 3.66 O 3.71 CB 3.52 OG1 3.13 CG2 3.4
L ASP H 25 -67.7 -34.1 N 3.73 CA 3.74 C 3.68 O 3.72 CB 3.79 CG 3.9 OD1 3.7 OD2 4.66
L ALA H 0 -66.6 -38.7 N 3.65 CA 3.58 C 3.58 O 3.55 CB 3.54
L GLN H 87 -66.8 -37.6 N 3.55 CA 3.57 C 3.51 O 3.43 CB 3.58 CG 3.72 CD 3.63 OE1 3.63 NE2 3.59
L ARG H 38 -69.4 -46.3 N 3.53 CA 3.53 C 3.48 O 3.4 CB 3.51 CG 3.62 CD 3.7 NE 3.86 CZ 4.21 NH1 4.47 NH2 4.24
L LEU H 0 -57.0 -45.6 N 3.47 CA 3.48 C 3.5 O 3.47 CB 3.45 CG 3.4 CD1 3.25 CD2 3.01
L CYS H 0 -64.6 -44.3 N 3.58 CA 3.68 C 3.62 O 3.54 CB 3.75 SG 4.1
L ASN H 53 -61.1 -44.2 N 3.58 CA 3.57 C 3.56 O 3.45 CB 3.54 CG 3.41 OD1 3.28 ND2 3.25
L ALA H 10 -60.0 -42.7 N 3.59 CA 3.58 C 3.58 O 3.62 CB 3.53
L LEU H 18 -83.9 -40.9 N 3.55 CA 3.56 C 3.54 O 3.64 CB 3.49 CG 3.47 CD1 3.14 CD2 3.45
L LEU H 72 -89.0 -26.7 N 3.51 CA 3.47 C 3.52 O 3.63 CB 3.42 CG 3.15 CD1 2.96 CD2 3.03
L ARG S 113 -134.6 71.3 N 3.54 CA 3.57 C 3.58 O 3.57 CB 3.56 CG 3.67 CD 3.64 NE 3.69 CZ 3.68 NH1 3.46 NH2 3.62
L PRO - 65 -70.3 160.4 N 3.61 CA 3.59 C 3.62 O 3.63 CB 3.62 CG 3.57 CD 3.59
L ARG - 158 -103.9 360.0 N 3.6 CA 3.6 C 3.64 O 3.77 CB 3.62 CG 3.62 CD 3.6 NE 3.72 CZ 3.76 NH1 3.9 NH2 3.6
