A HIS - 124 360.0 39.1 N 28.32 CA 29.11 C 29.0 O 28.11 CB 28.83 CG 30.68 ND1 29.66 CD2 31.26 CE1 31.52 NE2 30.38
A GLU H 175 -63.0 -51.3 N 29.26 CA 29.79 C 28.7 O 29.03 CB 30.43 CG 34.23 CD 38.88 OE1 43.52 OE2 42.39
A ALA H 64 -64.2 -35.0 N 28.25 CA 27.87 C 27.22 O 27.56 CB 27.51
A GLN H 60 -75.5 -36.2 N 27.03 CA 26.64 C 27.09 O 26.52 CB 26.79 CG 26.25 CD 27.98 OE1 30.1 NE2 28.76
A LYS H 57 -68.7 -35.1 N 27.82 CA 28.07 C 27.88 O 29.05 CB 28.23 CG 29.02 CD 29.26 CE 31.17 NZ 31.63
A ALA H 57 -61.5 -43.5 N 28.31 CA 28.48 C 28.12 O 27.34 CB 28.56
A ILE H 22 -59.3 -48.4 N 29.08 CA 28.5 C 29.65 O 30.66 CB 28.72 CG1 28.44 CG2 27.23 CD1 26.2
A ALA H 0 -56.1 -33.0 N 29.93 CA 29.89 C 30.23 O 28.57 CB 29.6
A ARG T 73 -67.4 -15.6 N 30.62 CA 31.01 C 31.62 O 31.73 CB 31.29 CG 31.66 CD 32.55 NE 33.53 CZ 34.95 NH1 35.12 NH2 37.26
A ASN T 80 -78.9 -10.1 N 31.01 CA 31.04 C 30.45 O 29.49 CB 30.88 CG 35.16 OD1 39.19 ND2 39.28
A SER S 0 -74.0 157.8 N 30.02 CA 30.41 C 31.35 O 31.13 CB 30.36 OG 28.16
A LEU H 19 -60.0 -39.5 N 31.93 CA 33.42 C 32.71 O 32.56 CB 33.98 CG 38.25 CD1 41.46 CD2 41.74
A LEU H 0 -57.2 -52.4 N 31.79 CA 30.36 C 31.4 O 30.94 CB 29.6 CG 29.46 CD1 29.21 CD2 26.82
A ILE H 4 -77.3 -36.9 N 31.06 CA 31.98 C 33.19 O 32.22 CB 32.2 CG1 29.82 CG2 30.71 CD1 28.06
A ARG H 161 -55.7 -39.3 N 33.85 CA 34.79 C 35.09 O 35.24 CB 34.8 CG 35.82 CD 37.04 NE 38.74 CZ 39.25 NH1 39.76 NH2 38.76
A SER T 2 -68.5 -13.8 N 35.11 CA 35.65 C 35.13 O 34.37 CB 36.51 OG 39.21
A LEU S 12 -92.3 145.5 N 35.18 CA 36.5 C 36.58 O 36.28 CB 36.39 CG 39.59 CD1 37.76 CD2 40.36
A PRO - 22 -65.5 135.2 N 37.05 CA 37.66 C 36.55 O 36.58 CB 37.86 CG 39.38 CD 37.68
A GLU H 106 -42.5 -44.3 N 36.57 CA 36.17 C 35.61 O 36.0 CB 36.22 CG 37.32 CD 38.63 OE1 37.35 OE2 43.14
A GLN H 152 -61.2 -15.7 N 35.38 CA 35.38 C 35.22 O 35.31 CB 35.28 CG 35.19 CD 33.86 OE1 31.18 NE2 33.6
A HIS H 51 -102.7 -8.7 N 35.28 CA 35.64 C 35.28 O 34.79 CB 36.04 CG 36.34 ND1 37.39 CD2 34.54 CE1 38.65 NE2 36.16
A VAL H 2 -64.7 -55.2 N 35.01 CA 34.76 C 35.77 O 35.36 CB 34.67 CG1 34.09 CG2 31.4
A ASP H 93 -61.2 -39.6 N 36.17 CA 37.45 C 37.01 O 37.5 CB 38.36 CG 41.43 OD1 45.42 OD2 46.48
A ALA H 65 -69.8 -28.8 N 36.21 CA 35.71 C 35.29 O 36.45 CB 35.51
A LEU H 5 -74.3 -45.4 N 34.85 CA 34.84 C 33.6 O 31.69 CB 34.91 CG 37.23 CD1 39.28 CD2 39.46
A LEU H 1 -65.1 -26.3 N 33.14 CA 32.83 C 32.65 O 31.91 CB 32.88 CG 33.12 CD1 32.24 CD2 32.94
A SER T 84 -68.1 -13.5 N 32.67 CA 32.42 C 31.68 O 32.84 CB 32.72 OG 36.22
A GLN T 101 -108.2 10.6 N 30.78 CA 30.31 C 29.1 O 27.98 CB 31.89 CG 33.04 CD 37.25 OE1 40.29 NE2 34.91
A ALA - 15 -61.6 148.1 N 27.09 CA 26.57 C 24.66 O 23.95 CB 26.22
A VAL E 50 -103.3 120.9 N 24.41 CA 23.67 C 24.55 O 25.42 CB 24.31 CG1 22.55 CG2 23.79
A TRP E 62 -101.9 129.2 N 23.66 CA 24.35 C 24.33 O 24.41 CB 24.24 CG 25.47 CD1 26.32 CD2 24.96 NE1 25.51 CE2 22.68 CE3 23.88 CZ2 23.0 CZ3 26.07 CH2 25.13
A ARG E 135 -144.3 146.1 N 24.29 CA 25.25 C 25.46 O 25.94 CB 24.84 CG 26.17 CD 28.2 NE 30.82 CZ 29.53 NH1 29.21 NH2 32.54
A SER E 86 -108.5 153.3 N 25.55 CA 25.49 C 26.12 O 25.11 CB 25.25 OG 26.57
A TYR E 36 -137.7 138.3 N 25.79 CA 26.57 C 26.78 O 26.35 CB 26.35 CG 27.04 CD1 26.7 CD2 27.44 CE1 25.96 CE2 26.78 CZ 27.82 OH 27.44
A ASP - 113 -77.6 159.1 N 27.17 CA 28.19 C 28.73 O 27.62 CB 28.8 CG 30.49 OD1 34.01 OD2 35.09
A ARG T 146 -55.2 131.9 N 29.58 CA 31.04 C 30.36 O 29.68 CB 32.04 CG 35.21 CD 40.9 NE 46.98 CZ 52.22 NH1 52.16 NH2 55.02
A GLY T 39 91.9 -11.7 N 30.48 CA 30.48 C 31.25 O 31.33
A GLU - 94 -80.0 144.8 N 31.84 CA 32.32 C 32.22 O 29.95 CB 32.12 CG 36.34 CD 40.23 OE1 35.63 OE2 46.3
A THR E 67 -79.2 131.3 N 33.16 CA 33.19 C 32.06 O 32.38 CB 33.12 OG1 37.11 CG2 33.65
A LEU E 24 -82.8 -43.0 N 30.53 CA 29.75 C 29.06 O 28.39 CB 29.49 CG 28.45 CD1 27.43 CD2 27.63
A PHE E 9 -164.8 165.7 N 29.37 CA 28.34 C 28.56 O 28.6 CB 28.77 CG 25.34 CD1 25.81 CD2 26.87 CE1 25.22 CE2 26.98 CZ 26.1
A LEU - 78 -119.5 149.3 N 28.58 CA 28.4 C 28.91 O 27.71 CB 28.83 CG 30.11 CD1 29.8 CD2 28.52
A GLN T 49 -49.9 139.3 N 28.65 CA 28.61 C 29.05 O 28.61 CB 28.43 CG 28.82 CD 29.16 OE1 28.67 NE2 27.59
A GLU T 154 79.4 -8.5 N 30.14 CA 31.86 C 32.35 O 33.2 CB 32.25 CG 35.65 CD 42.34 OE1 41.99 OE2 46.98
A GLU S 89 -73.4 164.1 N 33.01 CA 32.27 C 31.74 O 31.24 CB 32.25 CG 33.96 CD 35.31 OE1 32.69 OE2 37.83
A LYS - 133 -65.9 137.5 N 30.82 CA 31.76 C 31.13 O 30.88 CB 32.34 CG 36.82 CD 43.93 CE 46.03 NZ 50.07
A ALA - 2 -80.8 89.7 N 30.72 CA 31.55 C 31.55 O 32.69 CB 30.2
A GLN - 128 -90.0 -10.7 N 32.01 CA 32.21 C 29.92 O 29.35 CB 33.45 CG 39.37 CD 47.38 OE1 52.74 NE2 51.21
A ALA E 11 -153.9 161.0 N 27.91 CA 27.34 C 26.89 O 26.97 CB 27.28
A ILE E 0 -97.2 144.8 N 26.07 CA 26.22 C 26.36 O 25.67 CB 25.9 CG1 28.95 CG2 26.44 CD1 27.32
A HIS E 5 -118.9 128.9 N 26.27 CA 26.06 C 26.1 O 26.71 CB 25.75 CG 26.0 ND1 24.96 CD2 25.22 CE1 27.36 NE2 25.57
A VAL E 0 -121.9 111.7 N 25.15 CA 24.95 C 25.25 O 25.32 CB 25.55 CG1 25.41 CG2 23.97
A VAL E 0 -68.2 125.6 N 25.4 CA 24.34 C 25.44 O 25.72 CB 24.42 CG1 22.1 CG2 23.17
A ILE E 2 -99.8 -36.2 N 25.01 CA 25.43 C 26.61 O 26.2 CB 25.43 CG1 25.08 CG2 23.71 CD1 23.59
A ASP E 76 -151.0 145.4 N 26.56 CA 26.9 C 26.83 O 25.88 CB 26.89 CG 28.85 OD1 31.74 OD2 29.82
A GLY S 9 86.4 -162.8 N 27.07 CA 27.1 C 26.79 O 27.11
A TRP E 5 -134.4 133.9 N 26.03 CA 26.05 C 25.41 O 25.27 CB 26.41 CG 28.48 CD1 32.29 CD2 30.32 NE1 32.64 CE2 34.16 CE3 33.59 CZ2 36.79 CZ3 37.18 CH2 35.73
A VAL E 0 -125.2 134.2 N 25.99 CA 25.49 C 26.6 O 26.68 CB 25.53 CG1 22.18 CG2 24.31
A LYS E 28 -106.0 149.2 N 26.54 CA 27.08 C 27.26 O 27.3 CB 25.68 CG 28.47 CD 27.72 CE 28.06 NZ 26.59
A LEU E 14 -114.6 130.8 N 26.44 CA 26.55 C 27.45 O 27.86 CB 26.22 CG 27.1 CD1 24.19 CD2 28.34
A PHE E 11 -138.5 152.8 N 27.83 CA 27.9 C 27.99 O 27.47 CB 27.15 CG 26.76 CD1 28.67 CD2 28.1 CE1 30.62 CE2 29.48 CZ 30.68
A ARG E 107 -117.5 139.9 N 28.81 CA 30.01 C 31.11 O 31.57 CB 30.37 CG 31.53 CD 33.11 NE 30.37 CZ 31.38 NH1 29.59 NH2 32.02
A THR - 33 -98.8 163.9 N 31.4 CA 30.46 C 31.6 O 31.04 CB 29.74 OG1 27.13 CG2 27.65
A PRO T 137 -53.6 -40.1 N 33.57 CA 35.03 C 36.41 O 37.95 CB 35.26 CG 34.05 CD 33.21
A THR T 126 -85.5 10.0 N 37.2 CA 38.16 C 38.76 O 39.26 CB 38.37 OG1 39.62 CG2 38.01
A GLY S 48 87.0 5.0 N 39.16 CA 39.6 C 39.45 O 40.24
A SER - 70 -73.4 158.2 N 39.14 CA 38.77 C 37.77 O 37.82 CB 38.74 OG 41.43
A GLU E 101 -98.3 123.0 N 36.27 CA 35.7 C 34.14 O 34.94 CB 36.83 CG 38.22 CD 41.74 OE1 42.27 OE2 43.65
A ALA E 29 -102.3 116.5 N 31.87 CA 30.6 C 29.85 O 29.66 CB 29.91
A VAL E 74 -73.8 126.8 N 29.2 CA 28.42 C 28.14 O 27.49 CB 28.72 CG1 27.84 CG2 27.62
A VAL E 71 -101.3 -33.7 N 28.45 CA 30.36 C 30.31 O 31.03 CB 31.81 CG1 31.7 CG2 33.83
A SER E 36 -159.4 156.5 N 30.65 CA 30.21 C 29.44 O 28.85 CB 30.82 OG 33.63
A VAL E 7 -139.9 127.4 N 29.31 CA 29.96 C 30.2 O 28.81 CB 31.27 CG1 32.41 CG2 29.93
A PHE E 28 -119.8 152.7 N 28.09 CA 27.83 C 28.15 O 25.65 CB 27.55 CG 28.46 CD1 32.32 CD2 27.49 CE1 33.19 CE2 27.57 CZ 29.14
A THR E 6 -135.9 -170.5 N 28.19 CA 27.85 C 27.85 O 27.24 CB 27.55 OG1 27.62 CG2 27.32
A ARG T 97 -38.6 126.9 N 28.29 CA 29.34 C 28.61 O 28.64 CB 30.43 CG 34.67 CD 39.86 NE 44.08 CZ 48.63 NH1 50.14 NH2 48.55
A GLY T 8 81.2 15.6 N 28.02 CA 28.03 C 28.38 O 27.47
A GLU E 45 -123.7 136.7 N 28.46 CA 28.03 C 28.59 O 27.92 CB 28.21 CG 30.17 CD 31.97 OE1 32.13 OE2 34.58
A SER E 2 -103.5 157.8 N 27.79 CA 27.79 C 27.17 O 25.13 CB 28.86 OG 27.59
A PHE E 6 -156.0 164.0 N 26.93 CA 26.47 C 26.89 O 26.78 CB 26.64 CG 25.81 CD1 25.13 CD2 25.25 CE1 24.29 CE2 26.2 CZ 24.91
A GLY - 21 86.4 10.4 N 25.94 CA 26.27 C 27.34 O 28.02
A GLU H 2 -59.0 -51.6 N 28.08 CA 28.18 C 27.62 O 27.96 CB 28.5 CG 30.02 CD 32.5 OE1 33.59 OE2 36.35
A ALA H 15 -61.0 -48.0 N 26.39 CA 27.06 C 27.16 O 28.44 CB 25.54
A VAL H 22 -62.1 -42.3 N 27.45 CA 28.5 C 28.62 O 27.38 CB 29.42 CG1 30.55 CG2 28.01
A ALA H 3 -64.4 -40.7 N 28.63 CA 29.23 C 29.29 O 29.86 CB 28.45
A LEU H 10 -70.7 -30.9 N 29.88 CA 30.25 C 31.98 O 32.89 CB 30.22 CG 31.47 CD1 27.36 CD2 31.77
A ARG H 123 -87.8 -10.6 N 32.25 CA 32.08 C 32.58 O 31.74 CB 32.3 CG 32.92 CD 33.28 NE 33.89 CZ 35.55 NH1 39.17 NH2 35.66
A ASN T 100 45.8 48.9 N 33.09 CA 33.9 C 33.73 O 34.05 CB 34.04 CG 36.56 OD1 38.19 ND2 41.6
A THR - 62 -99.5 155.4 N 34.24 CA 34.61 C 33.04 O 31.83 CB 36.09 OG1 37.77 CG2 36.51
A PRO - 82 -58.0 148.5 N 30.82 CA 29.21 C 28.11 O 26.72 CB 29.98 CG 29.19 CD 31.32
A TYR - 14 -56.5 130.6 N 26.63 CA 26.81 C 26.47 O 26.41 CB 27.15 CG 27.09 CD1 26.84 CD2 26.02 CE1 26.35 CE2 27.01 CZ 28.63 OH 28.31
A PRO S 66 -86.0 -5.2 N 26.19 CA 26.35 C 26.63 O 26.41 CB 25.23 CG 27.02 CD 25.88
A VAL S 17 -144.3 164.8 N 27.23 CA 26.59 C 27.14 O 26.35 CB 27.65 CG1 25.92 CG2 25.83
A SER E 7 -99.3 157.0 N 26.54 CA 27.15 C 27.14 O 27.23 CB 27.85 OG 29.11
A ALA E 1 -128.9 132.6 N 27.7 CA 27.86 C 28.57 O 28.67 CB 27.26
A GLU E 45 -138.3 134.3 N 28.92 CA 29.18 C 28.6 O 28.21 CB 29.73 CG 32.6 CD 35.38 OE1 38.29 OE2 36.12
A ALA E 0 -67.4 125.0 N 27.35 CA 28.15 C 27.73 O 28.2 CB 25.92
A VAL S 9 -103.5 -14.0 N 28.31 CA 28.84 C 28.75 O 29.57 CB 29.69 CG1 30.16 CG2 30.33
A THR S 11 -131.4 175.8 N 27.7 CA 26.59 C 26.86 O 26.68 CB 26.52 OG1 24.33 CG2 25.61
A PRO S 83 -59.5 140.5 N 26.3 CA 27.07 C 27.63 O 28.14 CB 26.66 CG 26.23 CD 26.14
A CYS E 5 -134.0 159.7 N 27.72 CA 28.23 C 27.58 O 27.07 CB 28.43 SG 31.51
A GLU E 78 -128.3 133.2 N 26.99 CA 26.39 C 25.78 O 24.7 CB 26.28 CG 26.87 CD 29.17 OE1 28.01 OE2 34.33
A VAL E 1 -127.9 141.7 N 25.75 CA 24.27 C 24.79 O 25.18 CB 24.4 CG1 24.02 CG2 22.33
A HIS E 16 -101.2 125.8 N 25.38 CA 25.33 C 25.66 O 26.53 CB 24.47 CG 25.43 ND1 26.49 CD2 26.48 CE1 29.11 NE2 25.69
A ILE E 0 -98.1 111.9 N 25.7 CA 25.36 C 25.97 O 26.44 CB 25.07 CG1 25.83 CG2 24.81 CD1 24.11
A PRO E 28 -60.8 138.5 N 25.93 CA 27.0 C 26.82 O 24.23 CB 27.37 CG 28.32 CD 26.72
A SER H 10 -59.1 -43.7 N 27.65 CA 29.38 C 30.29 O 31.39 CB 28.86 OG 31.35
A PRO H 90 -62.6 -30.5 N 31.85 CA 33.45 C 33.5 O 34.55 CB 33.32 CG 34.16 CD 31.7
A VAL H 28 -65.5 -47.6 N 33.05 CA 32.65 C 33.22 O 33.46 CB 33.04 CG1 32.7 CG2 32.24
A PHE H 0 -73.1 -50.8 N 32.85 CA 33.48 C 33.72 O 32.83 CB 33.67 CG 35.41 CD1 36.82 CD2 36.94 CE1 38.19 CE2 38.17 CZ 35.94
A VAL H 8 -60.6 -41.7 N 34.48 CA 35.18 C 35.9 O 36.0 CB 36.12 CG1 35.69 CG2 35.82
A SER H 36 -68.4 -32.2 N 36.41 CA 37.35 C 36.87 O 36.99 CB 37.63 OG 40.13
A LEU H 30 -59.5 -43.3 N 36.59 CA 36.65 C 37.06 O 38.19 CB 36.99 CG 38.75 CD1 39.69 CD2 37.16
A ARG H 122 -68.7 -41.6 N 35.23 CA 35.2 C 33.25 O 34.04 CB 36.15 CG 39.58 CD 44.54 NE 48.19 CZ 54.34 NH1 57.19 NH2 58.08
A ARG H 167 -65.8 -42.2 N 31.54 CA 30.45 C 30.62 O 28.93 CB 30.02 CG 28.74 CD 26.03 NE 26.86 CZ 23.1 NH1 22.12 NH2 22.39
A ASP - 69 -133.3 89.0 N 30.64 CA 30.95 C 31.6 O 31.46 CB 31.16 CG 32.24 OD1 32.17 OD2 36.01
A PRO H 23 -59.4 -27.8 N 31.31 CA 30.83 C 29.83 O 29.48 CB 32.32 CG 31.71 CD 30.91
A GLU H 80 -56.9 -34.0 N 28.35 CA 29.45 C 28.05 O 27.91 CB 29.64 CG 36.0 CD 39.14 OE1 46.58 OE2 44.79
A ILE H 7 -67.9 -46.9 N 26.41 CA 26.89 C 27.71 O 27.0 CB 27.05 CG1 28.14 CG2 26.56 CD1 30.3
A CYS H 0 -59.6 -43.9 N 27.13 CA 27.29 C 26.12 O 25.57 CB 27.68 SG 33.0
A ILE H 4 -59.2 -40.5 N 25.37 CA 25.37 C 24.91 O 24.13 CB 25.0 CG1 26.2 CG2 24.3 CD1 22.79
A SER H 37 -71.1 -34.0 N 25.4 CA 26.5 C 25.76 O 26.39 CB 26.27 OG 31.51
A ILE H 0 -70.4 -42.7 N 26.07 CA 25.43 C 26.02 O 25.03 CB 25.65 CG1 26.92 CG2 23.04 CD1 26.08
A LEU H 0 -56.6 -43.2 N 26.23 CA 26.02 C 25.96 O 25.23 CB 25.51 CG 28.19 CD1 25.59 CD2 27.58
A ALA H 0 -56.4 -46.6 N 26.35 CA 25.36 C 25.61 O 24.61 CB 24.9
A THR H 41 -65.3 -40.6 N 25.47 CA 25.78 C 26.03 O 26.89 CB 26.34 OG1 26.0 CG2 25.9
A THR H 0 -68.5 -36.5 N 25.56 CA 25.71 C 25.26 O 25.04 CB 25.46 OG1 32.02 CG2 23.39
A PHE H 0 -61.8 -40.7 N 24.53 CA 24.56 C 24.51 O 24.05 CB 24.32 CG 27.71 CD1 29.42 CD2 24.61 CE1 30.63 CE2 28.8 CZ 30.32
A GLY H 30 -63.8 -42.9 N 24.18 CA 24.2 C 25.0 O 23.64
A HIS H 61 -70.5 -33.7 N 24.76 CA 25.42 C 25.04 O 24.75 CB 25.5 CG 27.09 ND1 28.95 CD2 27.2 CE1 25.89 NE2 27.17
A LEU H 0 -61.7 -47.5 N 24.44 CA 24.47 C 24.51 O 23.99 CB 24.6 CG 26.56 CD1 26.07 CD2 25.46
A HIS H 48 -61.5 -39.8 N 23.74 CA 24.29 C 24.57 O 22.41 CB 24.64 CG 27.08 ND1 31.78 CD2 28.3 CE1 32.83 NE2 29.82
A SER H 57 -65.5 -39.9 N 23.71 CA 24.64 C 24.47 O 24.74 CB 25.14 OG 29.73
A LEU H 7 -69.2 -40.0 N 24.39 CA 24.65 C 23.82 O 22.74 CB 25.1 CG 28.8 CD1 31.23 CD2 31.3
A VAL H 53 -57.2 -46.0 N 23.94 CA 22.84 C 23.2 O 22.32 CB 24.04 CG1 22.07 CG2 22.17
A ALA H 40 -63.5 -39.9 N 23.38 CA 23.02 C 22.91 O 22.76 CB 22.56
A GLN H 90 -62.9 -41.3 N 23.77 CA 25.13 C 25.47 O 25.67 CB 26.18 CG 29.87 CD 32.13 OE1 40.41 NE2 32.23
A LEU H 31 -65.9 -39.6 N 24.71 CA 24.99 C 24.51 O 25.36 CB 24.58 CG 25.86 CD1 28.3 CD2 25.41
A GLU H 49 -60.8 -26.1 N 24.97 CA 26.09 C 25.44 O 23.99 CB 26.58 CG 32.1 CD 37.05 OE1 39.6 OE2 42.39
A GLN H 86 -107.1 -0.5 N 26.26 CA 26.99 C 27.54 O 28.55 CB 26.62 CG 28.65 CD 32.46 OE1 33.11 NE2 39.34
A LEU - 47 -69.2 123.4 N 28.51 CA 29.67 C 30.45 O 30.41 CB 30.46 CG 31.99 CD1 32.52 CD2 32.75
A LYS - 112 -95.5 170.0 N 31.33 CA 31.73 C 31.36 O 31.0 CB 32.49 CG 34.6 CD 36.95 CE 38.78 NZ 41.73
A ALA - 56 -65.0 149.3 N 31.21 CA 31.09 C 31.24 O 30.5 CB 30.64
A GLN - 38 -146.4 167.3 N 31.13 CA 31.28 C 30.91 O 30.98 CB 31.55 CG 31.67 CD 33.56 OE1 33.3 NE2 34.04
A THR - 73 -77.9 164.3 N 30.43 CA 30.43 C 30.78 O 30.7 CB 30.24 OG1 30.62 CG2 28.35
A GLY H 18 -61.0 -39.7 N 31.38 CA 31.84 C 32.19 O 32.79
A ALA H 4 -62.7 -42.3 N 32.56 CA 33.04 C 33.45 O 33.55 CB 32.94
A GLN H 22 -62.3 -41.6 N 33.56 CA 34.07 C 33.72 O 33.63 CB 34.28 CG 36.46 CD 38.29 OE1 39.75 NE2 38.47
A ARG H 24 -60.6 -47.5 N 33.43 CA 33.42 C 33.48 O 33.48 CB 33.09 CG 33.2 CD 34.51 NE 33.39 CZ 33.21 NH1 33.78 NH2 31.96
A VAL H 0 -62.5 -41.7 N 33.63 CA 33.75 C 34.49 O 34.83 CB 33.49 CG1 32.69 CG2 30.68
A ALA H 0 -56.9 -50.0 N 35.35 CA 35.85 C 36.54 O 36.67 CB 35.18
A GLU H 58 -62.9 -40.5 N 37.13 CA 38.35 C 38.84 O 38.87 CB 38.18 CG 38.87 CD 40.32 OE1 41.53 OE2 38.56
A PHE H 3 -57.5 -49.0 N 39.89 CA 40.67 C 41.66 O 40.96 CB 40.82 CG 40.62 CD1 41.74 CD2 42.49 CE1 42.98 CE2 43.5 CZ 41.14
A LEU H 0 -60.3 -47.5 N 42.52 CA 43.38 C 44.75 O 45.02 CB 43.08 CG 42.11 CD1 40.57 CD2 39.41
A LEU H 31 -57.7 -41.9 N 46.64 CA 48.16 C 49.79 O 50.66 CB 48.22 CG 47.82 CD1 47.57 CD2 47.8
A GLU H 161 -61.4 -38.8 N 51.43 CA 52.8 C 52.94 O 53.22 CB 53.49 CG 56.9 CD 61.98 OE1 64.84 OE2 65.46
A LEU H 35 -64.0 -22.5 N 53.59 CA 54.16 C 55.41 O 55.27 CB 53.89 CG 52.96 CD1 51.88 CD2 49.96
A CYS - 22 -86.0 152.7 N 56.89 CA 57.88 C 58.78 O 58.71 CB 57.75 SG 59.28
A ASP - 157 -90.4 360.0 N 60.26 CA 61.16 C 60.99 O 61.23 CB 61.61 CG 62.9 OD1 63.38 OD2 64.63
A CYS - 87 360.0 153.4 N 55.06 CA 55.45 C 54.54 O 54.31 CB 55.52 SG 59.22
A GLU E 106 -129.4 143.5 N 53.57 CA 52.72 C 51.35 O 51.23 CB 53.04 CG 54.29 CD 56.0 OE1 56.18 OE2 58.35
A VAL E 14 -138.2 130.0 N 49.99 CA 48.47 C 47.6 O 47.62 CB 48.39 CG1 47.84 CG2 47.84
A THR E 62 -87.7 132.7 N 46.17 CA 45.54 C 43.85 O 44.03 CB 45.39 OG1 47.35 CG2 46.47
A LEU - 2 -117.3 162.4 N 42.41 CA 41.53 C 41.15 O 41.86 CB 41.3 CG 40.85 CD1 41.1 CD2 40.38
A PRO - 1 -60.5 146.3 N 40.32 CA 39.75 C 39.51 O 38.88 CB 39.38 CG 39.73 CD 40.17
A TYR S 43 -62.5 -33.4 N 39.17 CA 39.16 C 39.64 O 39.03 CB 38.9
A ASP - 76 -90.0 104.2 N 39.87 CA 40.5 C 40.2 O 39.81 CB 40.92 CG 42.99 OD1 46.01 OD2 45.33
A LYS T 70 -71.6 -15.6 N 40.05 CA 40.25 C 39.63 O 38.85 CB 40.83 CG 43.8 CD 46.9 CE 48.04 NZ 47.22
A LEU H 7 -64.0 -44.8 N 36.44 CA 35.9 C 34.91 O 34.43 CB 35.66 CG 35.05 CD1 37.34 CD2 36.14
A ILE H 1 -69.6 -43.5 N 34.83 CA 34.73 C 34.05 O 33.22 CB 35.33 CG1 36.55 CG2 36.35 CD1 33.19
A ALA H 0 -50.6 -48.7 N 32.37 CA 32.09 C 31.67 O 31.21 CB 31.68
A GLY H 43 -58.6 -52.2 N 31.63 CA 31.41 C 31.35 O 32.67
A ARG H 41 -57.1 -39.8 N 30.96 CA 30.42 C 30.04 O 30.1 CB 30.53 CG 30.52 CD 31.42 NE 32.69 CZ 34.48 NH1 35.17 NH2 33.94
A LEU T 0 -87.3 3.3 N 29.85 CA 30.67 C 31.09 O 31.06 CB 30.27 CG 30.14 CD1 27.66 CD2 29.07
A GLY T 40 62.4 37.2 N 31.62 CA 32.4 C 33.2 O 32.52
A LYS - 145 -69.8 142.7 N 40.75 CA 42.94 C 43.4 O 43.82 CB 43.74 CG 47.2 CD 51.38 CE 54.25 NZ 55.5
A PRO H 44 -44.5 -40.9 N 44.13 CA 44.36 C 44.56 O 44.47 CB 44.57 CG 44.5 CD 44.22
A GLU H 103 -65.0 -43.2 N 44.95 CA 45.12 C 44.39 O 43.91 CB 45.84 CG 48.68 CD 51.46 OE1 52.5 OE2 54.85
A SER H 38 -63.4 -40.6 N 43.58 CA 42.74 C 41.59 O 41.49 CB 43.04 OG 43.72
A LEU H 6 -60.2 -50.4 N 40.43 CA 39.89 C 40.04 O 40.16 CB 38.84 CG 37.49 CD1 34.16 CD2 32.93
A SER H 79 -52.6 -55.5 N 40.46 CA 40.98 C 40.81 O 40.64 CB 41.03 OG 41.13
A ARG H 131 -55.3 -40.8 N 41.15 CA 41.66 C 41.64 O 40.95 CB 42.04 CG 44.42 CD 48.04 NE 51.39 CZ 54.17 NH1 55.32 NH2 55.59
A ALA H 2 -61.9 -42.7 N 41.22 CA 41.59 C 41.89 O 41.64 CB 41.39
A PHE H 26 -66.9 -45.6 N 42.74 CA 43.4 C 43.4 O 43.22 CB 43.58 CG 45.09 CD1 45.98 CD2 45.54 CE1 46.23 CE2 46.11 CZ 46.56
A SER H 58 -64.3 -45.4 N 43.64 CA 44.3 C 44.43 O 44.2 CB 44.36 OG 45.06
A ARG H 153 -49.2 -40.2 N 44.69 CA 44.92 C 44.7 O 44.94 CB 45.4 CG 47.27 CD 50.05 NE 51.27 CZ 52.69 NH1 51.9 NH2 52.42
A LEU H 0 -74.4 -9.6 N 44.64 CA 44.52 C 44.4 O 43.59 CB 44.53 CG 44.6 CD1 43.67 CD2 43.73
A LYS G 126 -45.7 -51.0 N 44.72 CA 45.51 C 45.3 O 45.16 CB 45.63 CG 47.19 CD 48.68 CE 49.21 NZ 49.64
A ALA G 94 -59.8 -13.4 N 45.35 CA 45.48 C 45.83 O 45.56 CB 45.15
A ALA G 2 -98.3 7.2 N 46.12 CA 46.71 C 47.12 O 47.37 CB 46.37
A GLY T 4 85.3 28.0 N 47.48 CA 47.78 C 48.11 O 47.75
A VAL E 2 -113.2 128.5 N 48.55 CA 48.82 C 49.44 O 49.26 CB 48.73 CG1 47.81 CG2 47.99
A THR E 68 -137.7 148.8 N 50.27 CA 51.1 C 52.17 O 52.29 CB 50.94 OG1 50.39 CG2 50.44
A VAL - 66 -114.3 35.8 N 53.59 CA 54.67 C 55.68 O 55.95 CB 54.63 CG1 54.6 CG2 55.07
A LYS - 61 -49.3 118.4 N 56.23 CA 56.74 C 57.3 O 57.83 CB 56.58
A ARG T 81 65.8 -139.8 N 57.8 CA 57.81 C 57.9 O 58.15 CB 57.61
A ASN T 59 -106.7 52.1 N 57.9 CA 58.0 C 57.7 O 57.89 CB 58.27 CG 59.04 OD1 57.88 ND2 59.92
A HIS E 54 -135.4 137.4 N 57.54 CA 57.81 C 57.71 O 57.76 CB 58.03 CG 59.31 ND1 60.46 CD2 60.08 CE1 60.16 NE2 60.66
A ALA E 0 -97.6 136.7 N 57.43 CA 57.19 C 57.11 O 56.92 CB 57.01
A GLU E 65 -111.1 118.5 N 56.95 CA 57.1 C 56.76 O 56.1 CB 57.52 CG 58.88 CD 60.44 OE1 62.49 OE2 60.24
A ILE E 2 -108.0 113.2 N 56.62 CA 56.74 C 56.95 O 56.88 CB 56.67 CG1 56.66 CG2 56.66 CD1 55.96
A GLU S 146 -57.4 -45.2 N 57.04 CA 57.17 C 57.14 O 57.02 CB 57.08 CG 57.67 CD 58.64 OE1 58.31 OE2 59.24
A ASP - 78 -151.0 124.0 N 57.17 CA 56.99 C 56.47 O 55.98 CB 57.17 CG 57.97 OD1 59.88 OD2 58.46
A ILE H 55 -53.4 -51.2 N 56.22 CA 56.12 C 55.8 O 56.02 CB 56.3 CG1 56.47 CG2 56.8 CD1 56.23
A ALA H 45 -61.7 -39.9 N 55.38 CA 54.77 C 54.32 O 54.1 CB 54.7
A LEU H 75 -62.2 -47.8 N 53.74 CA 53.28 C 53.11 O 52.95 CB 53.16 CG 52.65 CD1 51.96 CD2 51.96
A LEU H 0 -60.7 -41.4 N 52.94 CA 52.67 C 52.86 O 52.62 CB 52.58 CG 51.69 CD1 49.75 CD2 50.49
A ARG H 119 -62.1 -34.0 N 53.34 CA 54.04 C 53.9 O 54.01 CB 54.41 CG 56.5 CD 59.65 NE 62.24 CZ 64.45 NH1 65.46 NH2 65.4
A ASP H 111 -59.5 -44.9 N 53.76 CA 53.64 C 53.34 O 53.36 CB 53.9 CG 54.31 OD1 55.89 OD2 55.03
A TYR H 68 -60.1 -46.5 N 53.12 CA 53.06 C 53.46 O 53.22 CB 52.75 CG 51.97 CD1 50.68 CD2 50.77 CE1 51.1 CE2 50.83 CZ 50.92 OH 52.08
A ALA H 9 -61.1 -34.3 N 54.14 CA 54.93 C 55.73 O 55.93 CB 54.53
A GLU - 141 -94.7 90.9 N 56.77 CA 57.53 C 57.66 O 57.99 CB 57.81 CG 59.16 CD 61.42 OE1 62.51 OE2 63.61
A SER - 133 -163.5 360.0 N 57.77 CA 57.7 C 57.7 O 57.57 CB 57.68 OG 57.32
B ALA - 104 360.0 151.9 N 36.78 CA 37.01 C 36.68 O 37.56 CB 36.97
B HIS - 96 44.7 36.2 N 36.47 CA 36.09 C 35.25 O 34.86 CB 36.39 CG 37.61 ND1 38.29 CD2 38.45 CE1 38.48 NE2 38.58
B GLU H 162 -60.2 -43.8 N 34.29 CA 33.28 C 31.44 O 30.19 CB 33.58 CG 34.58 CD 38.32 OE1 40.93 OE2 39.95
B ALA H 69 -65.3 -36.3 N 29.79 CA 28.66 C 28.14 O 28.16 CB 27.98
B GLN H 56 -70.8 -41.5 N 27.68 CA 28.03 C 27.64 O 26.92 CB 29.01 CG 30.6 CD 33.83 OE1 33.61 NE2 40.46
B LYS H 31 -63.5 -35.4 N 27.33 CA 27.37 C 27.68 O 27.92 CB 27.34 CG 27.93 CD 29.3 CE 30.32 NZ 30.2
B ALA H 53 -61.7 -44.3 N 27.34 CA 27.16 C 27.04 O 27.28 CB 25.74
B ILE H 29 -58.0 -46.2 N 27.6 CA 27.53 C 28.07 O 27.75 CB 27.77 CG1 28.47 CG2 26.85 CD1 28.84
B ALA H 0 -60.6 -30.2 N 27.68 CA 27.86 C 28.94 O 27.83 CB 27.49
B ARG T 96 -64.4 -17.4 N 30.17 CA 31.26 C 31.58 O 32.62 CB 31.87 CG 32.74 CD 35.78 NE 37.36 CZ 38.9 NH1 38.6 NH2 39.74
B ASN T 91 -79.2 -10.2 N 31.67 CA 31.82 C 31.42 O 31.11 CB 32.28 CG 32.23 OD1 32.54 ND2 32.98
B SER S 0 -75.4 152.1 N 30.97 CA 31.02 C 30.96 O 30.85 CB 30.98 OG 28.77
B LEU H 11 -49.1 -47.9 N 30.52 CA 31.87 C 31.5 O 31.46 CB 32.22 CG 35.14 CD1 37.61 CD2 33.24
B LEU H 1 -54.3 -54.8 N 30.31 CA 30.27 C 29.86 O 28.97 CB 29.67 CG 31.12 CD1 31.12 CD2 33.24
B ILE H 5 -76.6 -37.7 N 29.39 CA 29.56 C 30.21 O 29.89 CB 29.6 CG1 29.34 CG2 26.93 CD1 29.42
B ARG H 139 -59.0 -29.5 N 30.99 CA 33.57 C 33.06 O 33.36 CB 33.6 CG 38.94 CD 45.58 NE 50.58 CZ 51.92 NH1 51.61 NH2 52.08
B SER T 2 -77.3 -15.2 N 32.22 CA 32.06 C 31.59 O 31.54 CB 32.39 OG 32.31
B LEU S 15 -81.7 150.0 N 31.05 CA 31.19 C 30.63 O 30.55 CB 30.46 CG 33.27 CD1 31.12 CD2 33.98
B PRO - 20 -65.5 132.7 N 30.87 CA 31.18 C 30.79 O 29.28 CB 30.89 CG 32.07 CD 31.01
B GLU H 169 -52.8 -35.9 N 31.57 CA 32.21 C 31.77 O 31.92 CB 32.05 CG 34.96 CD 37.02 OE1 38.29 OE2 38.54
B GLN H 136 -70.3 -11.9 N 31.35 CA 31.75 C 31.03 O 29.89 CB 32.28 CG 35.09 CD 37.75 OE1 36.04 NE2 37.46
B HIS H 48 -105.5 -9.6 N 31.23 CA 31.23 C 30.95 O 31.55 CB 31.74 CG 31.73 ND1 34.22 CD2 32.15 CE1 34.05 NE2 34.82
B VAL H 4 -59.7 -49.5 N 30.02 CA 29.75 C 30.54 O 29.17 CB 29.61 CG1 26.39 CG2 29.05
B ASP H 104 -62.4 -45.2 N 31.92 CA 33.72 C 33.81 O 34.56 CB 34.37 CG 38.56 OD1 42.73 OD2 45.27
B ALA H 62 -60.5 -38.8 N 33.68 CA 33.69 C 33.25 O 33.97 CB 33.42
B LEU H 3 -73.8 -42.5 N 32.97 CA 32.78 C 32.37 O 31.74 CB 32.67 CG 34.7 CD1 35.36 CD2 36.12
B LEU H 1 -60.4 -31.3 N 31.28 CA 30.16 C 29.88 O 28.69 CB 30.2 CG 29.83 CD1 28.63 CD2 29.92
B SER T 86 -69.8 -13.4 N 29.72 CA 30.54 C 30.12 O 29.04 CB 31.34 OG 35.1
B GLN T 103 -102.6 11.0 N 30.0 CA 30.2 C 29.83 O 29.99 CB 30.59 CG 33.33 CD 36.31 OE1 39.71 NE2 37.59
B ALA - 15 -68.3 153.0 N 28.46 CA 28.36 C 27.86 O 27.58 CB 28.77
B VAL E 55 -108.6 123.4 N 27.42 CA 26.91 C 27.19 O 27.55 CB 27.33 CG1 27.72 CG2 25.82
B TRP E 55 -99.8 125.9 N 27.6 CA 28.49 C 28.29 O 28.57 CB 28.99 CG 30.25 CD1 30.95 CD2 30.59 NE1 32.93 CE2 30.71 CE3 29.78 CZ2 30.8 CZ3 29.57 CH2 31.01
B ARG E 140 -133.0 148.5 N 28.6 CA 28.47 C 28.86 O 28.21 CB 27.96 CG 31.74 CD 36.14 NE 38.12 CZ 40.86 NH1 40.66 NH2 40.71
B SER E 83 -109.1 147.8 N 29.05 CA 30.25 C 28.71 O 27.82 CB 30.18 OG 37.78
B TYR E 25 -132.7 134.9 N 28.51 CA 28.25 C 28.66 O 28.85 CB 27.58 CG 26.11 CD1 25.09 CD2 25.62 CE1 23.86 CE2 25.3 CZ 27.22 OH 25.31
B ASP - 117 -74.5 160.7 N 28.63 CA 29.14 C 28.52 O 27.74 CB 29.85 CG 32.16 OD1 36.71 OD2 35.13
B ARG T 149 -52.3 133.4 N 28.21 CA 28.34 C 27.25 O 27.09 CB 28.52 CG 30.71 CD 32.02 NE 32.8 CZ 32.64 NH1 30.43 NH2 32.83
B GLY T 38 81.4 -1.4 N 26.22 CA 25.73 C 25.49 O 23.72
B GLU - 78 -81.2 139.3 N 25.46 CA 25.13 C 25.47 O 23.99 CB 25.73 CG 27.65 CD 28.35 OE1 28.32 OE2 28.3
B THR E 60 -71.5 131.2 N 25.66 CA 26.65 C 27.03 O 27.01 CB 26.97 OG1 29.72 CG2 26.21
B LEU E 24 -90.7 -46.8 N 26.81 CA 26.9 C 27.23 O 27.08 CB 26.83 CG 26.09 CD1 24.82 CD2 26.11
B PHE E 9 -159.3 165.5 N 26.91 CA 26.79 C 26.66 O 26.68 CB 26.8 CG 26.78 CD1 26.63 CD2 27.36 CE1 28.03 CE2 26.54 CZ 26.46
B LEU - 75 -118.4 147.0 N 27.55 CA 28.31 C 28.9 O 28.15 CB 27.99 CG 28.72 CD1 21.93 CD2 26.45
B GLN T 56 -42.5 136.6 N 29.74 CA 30.11 C 30.04 O 29.5 CB 30.56 CG 33.38 CD 34.89 OE1 34.55 NE2 36.83
B GLU T 129 77.7 -10.1 N 30.11 CA 30.86 C 30.47 O 30.54 CB 31.55 CG 34.13 CD 38.73 OE1 39.56 OE2 42.11
B GLU S 89 -71.1 164.1 N 30.39 CA 30.4 C 31.1 O 30.7 CB 30.39 CG 28.59 CD 27.64 OE1 25.77 OE2 27.0
B LYS - 154 -75.3 139.3 N 32.09 CA 33.48 C 32.71 O 32.27 CB 34.32 CG 39.21 CD 44.35 CE 46.27 NZ 49.25
B ALA - 2 -86.0 89.9 N 32.74 CA 32.57 C 32.84 O 35.49 CB 32.2
B GLN - 139 -98.4 -2.7 N 32.13 CA 31.97 C 30.5 O 30.05 CB 32.46 CG 35.65 CD 38.52 OE1 38.38 NE2 36.3
B ALA E 15 -152.8 160.2 N 29.29 CA 28.5 C 28.26 O 28.45 CB 28.27
B ILE E 1 -105.2 144.5 N 26.91 CA 26.96 C 26.04 O 25.83 CB 27.06 CG1 29.46 CG2 27.03 CD1 29.79
B HIS E 8 -115.9 137.4 N 25.28 CA 25.57 C 25.4 O 26.03 CB 24.67 CG 25.01 ND1 25.42 CD2 26.56 CE1 25.12 NE2 26.07
B VAL E 0 -131.7 117.9 N 25.58 CA 24.99 C 25.53 O 25.59 CB 25.3 CG1 23.4 CG2 24.27
B VAL E 0 -73.0 126.7 N 25.44 CA 25.63 C 26.69 O 27.73 CB 26.14 CG1 24.18 CG2 24.93
B ILE E 3 -95.6 -35.5 N 26.54 CA 27.29 C 27.96 O 27.92 CB 27.14 CG1 27.98 CG2 27.71 CD1 25.64
B ASP E 71 -155.7 147.0 N 28.19 CA 28.94 C 28.95 O 30.0 CB 30.59 CG 31.44 OD1 36.85 OD2 34.16
B GLY S 2 92.0 -169.1 N 27.64 CA 27.02 C 26.69 O 26.91
B TRP E 1 -128.7 131.6 N 27.38 CA 27.12 C 26.98 O 27.51 CB 27.64 CG 28.55 CD1 29.73 CD2 29.77 NE1 30.46 CE2 30.93 CE3 31.31 CZ2 32.27 CZ3 33.53 CH2 31.24
B VAL E 0 -117.5 135.3 N 26.27 CA 26.37 C 27.02 O 26.94 CB 25.61 CG1 24.68 CG2 24.61
B LYS E 37 -107.9 144.9 N 27.06 CA 27.68 C 28.15 O 28.59 CB 27.67 CG 30.22 CD 30.87 CE 31.96 NZ 32.31
B LEU E 15 -110.5 137.8 N 27.81 CA 28.43 C 28.7 O 28.94 CB 27.77 CG 31.36 CD1 32.79 CD2 30.81
B PHE E 8 -150.8 151.1 N 29.09 CA 30.28 C 31.77 O 30.37 CB 30.23 CG 29.35 CD1 31.55 CD2 28.38 CE1 31.38 CE2 27.91 CZ 29.8
B ARG E 111 -115.0 154.2 N 34.4 CA 37.16 C 37.74 O 38.14 CB 38.25 CG 44.68 CD 52.52 NE 58.12 CZ 62.17 NH1 63.38 NH2 61.28
B THR - 34 -70.9 163.4 N 40.41 CA 41.34 C 42.18 O 42.08 CB 41.33 OG1 40.27 CG2 40.22
B PRO T 133 -75.5 -23.4 N 43.21 CA 42.88 C 42.15 O 42.57 CB 43.26 CG 43.98 CD 43.64
B THR T 129 -61.0 -12.3 N 41.87 CA 41.7 C 41.02 O 39.14 CB 41.95 OG1 44.14 CG2 42.74
B GLY S 46 91.7 10.7 N 41.04 CA 41.33 C 41.81 O 42.3
B SER - 67 -90.3 145.3 N 42.07 CA 42.95 C 42.58 O 41.42 CB 43.14 OG 45.47
B GLU E 96 -77.2 115.4 N 43.23 CA 43.27 C 41.85 O 43.14 CB 44.09 CG 47.0 CD 50.57 OE1 53.24 OE2 52.68
B ALA E 32 -98.0 109.3 N 39.63 CA 37.78 C 36.16 O 34.76 CB 37.42
B VAL E 71 -67.3 127.5 N 34.67 CA 34.02 C 34.48 O 35.75 CB 33.39 CG1 30.55 CG2 33.18
B VAL E 83 -100.4 -35.2 N 34.88 CA 35.43 C 35.06 O 36.65 CB 35.96 CG1 36.81 CG2 35.15
B SER E 36 -163.9 159.0 N 34.17 CA 32.18 C 30.23 O 29.25 CB 33.39 OG 36.7
B VAL E 6 -126.6 139.8 N 28.72 CA 28.5 C 27.91 O 29.04 CB 28.43 CG1 29.5 CG2 29.19
B PHE E 27 -126.8 152.8 N 27.39 CA 27.19 C 27.12 O 26.42 CB 26.49 CG 27.94 CD1 30.55 CD2 28.53 CE1 32.34 CE2 29.4 CZ 28.64
B THR E 5 -140.4 -171.4 N 27.24 CA 27.12 C 27.33 O 26.76 CB 27.44 OG1 27.89 CG2 24.62
B ARG T 70 -53.1 135.5 N 28.63 CA 30.81 C 30.19 O 30.31 CB 31.61 CG 35.99 CD 42.44 NE 45.42 CZ 49.36 NH1 50.96 NH2 50.24
B GLY T 9 81.6 12.3 N 29.69 CA 29.2 C 28.57 O 28.11
B GLU E 46 -118.8 138.1 N 28.32 CA 27.89 C 27.84 O 27.69 CB 28.99 CG 29.65 CD 34.16 OE1 32.26 OE2 36.97
B SER E 2 -104.1 157.5 N 26.77 CA 27.03 C 26.67 O 26.59 CB 26.92 OG 26.78
B PHE E 4 -157.2 166.1 N 26.48 CA 26.01 C 26.46 O 26.93 CB 26.62 CG 25.97 CD1 26.12 CD2 29.51 CE1 27.93 CE2 28.15 CZ 27.32
B GLY - 18 84.2 8.7 N 26.63 CA 26.02 C 27.31 O 26.77
B GLU H 2 -60.0 -53.6 N 27.33 CA 27.32 C 27.39 O 27.04 CB 27.5 CG 27.67 CD 29.74 OE1 29.54 OE2 34.07
B ALA H 17 -59.6 -48.2 N 26.73 CA 27.06 C 28.08 O 27.01 CB 26.16
B VAL H 21 -70.7 -31.3 N 28.3 CA 27.62 C 27.51 O 26.81 CB 28.61 CG1 28.87 CG2 28.83
B ALA H 4 -68.2 -41.0 N 27.19 CA 27.48 C 28.29 O 28.11 CB 26.76
B LEU H 18 -74.2 -28.7 N 27.82 CA 28.4 C 28.74 O 29.32 CB 27.21 CG 27.88 CD1 23.93 CD2 28.42
B ARG H 124 -82.6 -15.3 N 29.82 CA 30.78 C 31.51 O 30.37 CB 30.92 CG 32.02 CD 34.15 NE 34.5 CZ 36.5 NH1 37.4 NH2 36.89
B ASN T 117 51.5 46.5 N 32.89 CA 33.96 C 34.42 O 34.71 CB 34.91 CG 39.19 OD1 44.23 ND2 43.66
B THR - 69 -106.9 162.7 N 34.57 CA 35.23 C 34.13 O 33.69 CB 35.43 OG1 36.93 CG2 36.04
B PRO - 72 -67.4 148.0 N 32.73 CA 32.25 C 31.85 O 31.78 CB 32.46 CG 32.71 CD 33.1
B TYR - 10 -57.2 129.7 N 30.88 CA 30.49 C 29.87 O 30.26 CB 30.16 CG 29.94 CD1 31.44 CD2 30.12 CE1 29.95 CE2 30.67 CZ 31.8 OH 33.75
B PRO S 79 -86.5 -7.4 N 29.69 CA 30.24 C 30.03 O 31.8 CB 30.48 CG 29.6 CD 30.01
B VAL S 21 -141.3 163.9 N 29.73 CA 28.11 C 28.17 O 27.23 CB 28.44 CG1 28.82 CG2 26.76
B SER E 6 -100.0 160.1 N 27.24 CA 26.68 C 26.81 O 26.4 CB 26.98 OG 26.14
B ALA E 0 -131.1 136.5 N 26.82 CA 25.95 C 25.99 O 25.69 CB 25.37
B GLU E 42 -142.9 141.4 N 25.87 CA 26.9 C 25.93 O 25.82 CB 26.84 CG 30.59 CD 33.61 OE1 35.66 OE2 31.01
B ALA E 0 -69.2 128.0 N 25.55 CA 26.97 C 28.05 O 28.08 CB 26.2
B VAL S 10 -94.0 -32.5 N 29.83 CA 30.93 C 30.74 O 32.12 CB 31.73 CG1 32.43 CG2 33.48
B THR S 20 -121.5 173.9 N 29.81 CA 29.06 C 29.21 O 28.62 CB 29.07 OG1 27.74 CG2 26.28
B PRO S 91 -54.8 137.3 N 29.48 CA 30.03 C 30.07 O 29.76 CB 30.04 CG 29.47 CD 29.64
B CYS E 5 -128.8 150.5 N 30.76 CA 31.72 C 30.7 O 31.13 CB 31.45 SG 39.95
B GLU E 81 -117.6 135.2 N 30.55 CA 30.33 C 28.62 O 27.12 CB 31.0 CG 36.69 CD 42.76 OE1 46.51 OE2 48.07
B VAL E 0 -131.0 145.4 N 27.54 CA 25.85 C 25.54 O 25.75 CB 26.19 CG1 26.16 CG2 25.54
B HIS E 18 -106.9 127.7 N 25.35 CA 25.98 C 25.53 O 26.05 CB 25.62 CG 25.69 ND1 23.87 CD2 26.93 CE1 23.25 NE2 23.59
B ILE E 1 -101.9 116.2 N 26.31 CA 26.27 C 25.74 O 24.86 CB 26.63 CG1 28.1 CG2 27.25 CD1 25.58
B PRO E 36 -60.7 136.4 N 25.14 CA 25.88 C 26.19 O 24.8 CB 25.75 CG 26.75 CD 25.21
B SER H 11 -54.8 -46.3 N 26.66 CA 27.86 C 27.6 O 27.38 CB 28.39 OG 33.33
B PRO H 88 -62.0 -25.2 N 27.7 CA 28.45 C 29.04 O 28.91 CB 28.73 CG 28.52 CD 27.78
B VAL H 26 -64.9 -41.6 N 28.73 CA 29.37 C 30.44 O 30.19 CB 30.21 CG1 30.33 CG2 29.62
B PHE H 1 -77.3 -46.7 N 29.73 CA 30.01 C 29.27 O 29.52 CB 30.23 CG 33.19 CD1 36.35 CD2 35.2 CE1 36.27 CE2 36.05 CZ 34.9
B VAL H 15 -62.3 -42.5 N 28.29 CA 27.6 C 27.44 O 25.94 CB 27.79 CG1 26.43 CG2 26.06
B SER H 53 -67.1 -36.9 N 26.65 CA 28.17 C 28.19 O 27.54 CB 28.45 OG 34.09
B LEU H 32 -50.6 -50.2 N 27.81 CA 28.6 C 27.74 O 27.76 CB 29.56 CG 32.46 CD1 31.88 CD2 30.97
B ARG H 138 -77.3 -24.0 N 24.32 CA 24.41 C 24.74 O 23.54 CB 24.38 CG 28.36 CD 33.71 NE 40.46 CZ 45.29 NH1 46.03 NH2 46.72
B ARG H 194 -81.1 -33.8 N 24.75 CA 26.19 C 27.51 O 27.4 CB 26.3 CG 27.76 CD 31.79 NE 36.7 CZ 41.09 NH1 43.02 NH2 40.9
B ASP - 61 -144.2 91.0 N 28.82 CA 29.92 C 29.63 O 26.77 CB 30.68 CG 34.06 OD1 36.54 OD2 38.8
B PRO H 25 -69.0 -11.9 N 31.1 CA 31.65 C 29.76 O 31.14 CB 32.2 CG 32.59 CD 32.64
B GLU H 73 -60.6 -26.3 N 28.37 CA 27.92 C 27.07 O 25.29 CB 28.37 CG 32.36 CD 36.1 OE1 38.75 OE2 38.95
B ILE H 6 -70.3 -48.3 N 25.49 CA 24.73 C 25.4 O 25.08 CB 24.15 CG1 24.93 CG2 21.21 CD1 24.8
B CYS H 0 -65.3 -36.6 N 25.75 CA 26.08 C 24.92 O 25.6 CB 27.57 SG 32.56
B ILE H 2 -59.2 -44.3 N 24.45 CA 25.0 C 25.45 O 24.67 CB 24.75 CG1 25.76 CG2 25.27 CD1 22.58
B SER H 46 -64.9 -44.2 N 25.9 CA 25.76 C 24.24 O 23.91 CB 26.16 OG 31.47
B ILE H 0 -60.4 -44.8 N 23.86 CA 24.21 C 23.67 O 24.49 CB 23.98 CG1 24.31 CG2 23.52 CD1 22.82
B LEU H 0 -66.9 -35.7 N 23.88 CA 24.28 C 24.17 O 23.94 CB 24.0 CG 26.75 CD1 22.95 CD2 21.59
B ALA H 0 -57.5 -47.3 N 23.19 CA 23.4 C 23.95 O 22.93 CB 22.48
B THR H 44 -62.8 -44.0 N 24.33 CA 24.02 C 24.63 O 24.85 CB 24.44 OG1 21.91 CG2 23.45
B THR H 0 -70.6 -34.3 N 24.67 CA 24.44 C 24.3 O 24.35 CB 26.05 OG1 27.91 CG2 27.71
B PHE H 0 -62.1 -42.1 N 23.56 CA 24.12 C 24.02 O 23.28 CB 23.82 CG 26.95 CD1 30.16 CD2 26.96 CE1 31.41 CE2 29.97 CZ 28.32
B GLY H 31 -67.2 -38.4 N 24.27 CA 24.71 C 24.94 O 25.84
B HIS H 45 -66.0 -43.0 N 25.01 CA 26.43 C 25.91 O 25.34 CB 27.22 CG 31.74 ND1 36.63 CD2 34.91 CE1 35.32 NE2 34.62
B LEU H 0 -58.2 -45.7 N 25.79 CA 25.29 C 24.95 O 24.46 CB 26.07 CG 29.15 CD1 31.03 CD2 28.11
B HIS H 40 -58.7 -41.0 N 24.46 CA 24.23 C 23.8 O 21.9 CB 24.34 CG 27.23 ND1 30.52 CD2 28.78 CE1 29.62 NE2 30.31
B SER H 60 -65.3 -41.7 N 23.55 CA 25.37 C 23.96 O 23.02 CB 25.94 OG 32.8
B LEU H 12 -68.7 -38.8 N 23.98 CA 25.17 C 25.03 O 23.66 CB 25.14 CG 27.55 CD1 28.22 CD2 27.73
B VAL H 51 -62.2 -43.3 N 24.87 CA 24.99 C 25.47 O 24.63 CB 25.9 CG1 22.69 CG2 24.02
B ALA H 52 -65.0 -40.6 N 24.77 CA 24.61 C 25.06 O 24.11 CB 23.55
B GLN H 101 -62.4 -41.3 N 26.65 CA 28.81 C 28.8 O 28.7 CB 29.85 CG 35.6 CD 41.5 OE1 42.59 NE2 44.65
B LEU H 32 -64.8 -19.4 N 30.45 CA 31.45 C 32.02 O 33.33 CB 31.81 CG 34.01 CD1 34.81 CD2 33.03
B GLU H 34 -79.1 -20.2 N 32.03 CA 32.71 C 32.11 O 31.31 CB 32.93 CG 39.05 CD 43.55 OE1 49.35 OE2 43.72
B GLN S 86 -92.1 136.1 N 31.51 CA 32.2 C 31.73 O 30.77 CB 32.42 CG 35.32 CD 40.33 OE1 44.66 NE2 44.71
B LEU - 52 -51.8 122.8 N 31.98 CA 32.54 C 33.11 O 32.62 CB 31.78 CG 31.53 CD1 30.37 CD2 25.16
B LYS - 41 -93.1 130.7 N 34.27 CA 35.66 C 35.92 O 35.78 CB 36.42 CG 38.27 CD 41.13 CE 41.7 NZ 45.56
B ALA - 57 -119.2 -13.9 N 36.31 CA 36.31 C 36.17 O 36.71 CB 36.26
B GLN - 41 -56.9 137.5 N 35.88 CA 35.97 C 34.95 O 34.42 CB 36.28 CG 38.22 CD 42.19 OE1 44.58 NE2 43.35
B THR - 53 -76.0 167.4 N 33.93 CA 33.63 C 33.5 O 33.27 CB 33.76 OG1 32.18 CG2 32.1
B GLY H 29 -47.6 -51.8 N 32.86 CA 32.6 C 32.25 O 31.61
B ALA H 4 -58.4 -41.7 N 31.64 CA 31.82 C 31.88 O 32.36 CB 31.95
B GLN H 4 -63.9 -39.0 N 31.65 CA 31.62 C 31.41 O 30.91 CB 31.32 CG 33.06 CD 33.38 OE1 34.62 NE2 34.21
B ARG H 14 -64.9 -35.5 N 31.62 CA 32.19 C 31.42 O 30.62 CB 32.5 CG 34.86 CD 38.84 NE 43.01 CZ 42.11 NH1 42.37 NH2 44.01
B VAL H 1 -71.6 -40.6 N 31.44 CA 31.13 C 31.29 O 30.59 CB 31.14 CG1 30.28 CG2 31.02
B ALA H 0 -53.7 -46.6 N 31.18 CA 32.06 C 33.09 O 33.67 CB 31.34
B GLU H 61 -61.5 -44.0 N 33.89 CA 35.56 C 35.05 O 34.78 CB 36.36 CG 41.16 CD 44.06 OE1 45.09 OE2 46.04
B PHE H 17 -59.5 -49.0 N 34.6 CA 34.43 C 33.91 O 33.69 CB 35.01 CG 37.09 CD1 39.07 CD2 37.72 CE1 39.74 CE2 39.54 CZ 38.69
B LEU H 1 -59.4 -42.8 N 34.36 CA 35.13 C 36.39 O 35.55 CB 34.48 CG 34.74 CD1 32.9 CD2 32.98
B LEU H 9 -61.4 -41.9 N 38.24 CA 40.15 C 41.88 O 42.31 CB 40.26 CG 40.33 CD1 37.64 CD2 40.09
B GLU H 166 -63.5 -36.7 N 43.5 CA 45.53 C 45.98 O 46.45 CB 46.01 CG 50.26 CD 55.55 OE1 57.47 OE2 59.82
B LEU H 28 -66.0 -28.1 N 46.88 CA 47.98 C 49.17 O 48.98 CB 47.94 CG 48.39 CD1 48.7 CD2 47.9
B CYS S 13 -80.0 138.9 N 50.75 CA 52.3 C 53.36 O 54.21 CB 52.28 SG 53.62
B ASP S 106 -68.5 -45.0 N 54.55 CA 55.55 C 55.97 O 56.81 CB 55.94 CG 57.13 OD1 58.15 OD2 59.22
B CYS - 81 -91.3 172.5 N 55.82 CA 55.64 C 55.52 O 55.47 CB 55.45 SG 55.31
B ASP S 120 -107.3 -7.2 N 55.27 CA 54.63 C 53.47 O 53.27 CB 54.93 CG 55.76 OD1 57.23 OD2 54.97
B THR S 103 -148.4 167.4 N 52.4 CA 51.87 C 51.37 O 51.27 CB 51.98 OG1 51.37 CG2 51.31
B GLY S 38 92.0 -175.2 N 51.02 CA 50.83 C 50.68 O 50.42
B ALA - 82 -79.2 159.4 N 50.53 CA 50.33 C 50.23 O 50.17 CB 49.87
B CYS E 27 -151.2 150.1 N 50.24 CA 50.14 C 49.16 O 48.94 CB 50.47 SG 54.62
B GLU E 123 -136.6 125.4 N 48.43 CA 48.08 C 46.75 O 46.7 CB 48.45 CG 51.13 CD 53.68 OE1 54.33 OE2 56.37
B VAL E 11 -119.9 131.9 N 45.12 CA 44.05 C 42.88 O 42.92 CB 43.89 CG1 43.77 CG2 44.37
B THR E 65 -79.6 136.5 N 41.54 CA 40.41 C 38.61 O 38.42 CB 40.39 OG1 43.57 CG2 40.3
B LEU - 2 -125.4 159.4 N 36.19 CA 34.34 C 34.05 O 33.72 CB 33.52 CG 31.93 CD1 27.58 CD2 27.84
B PRO - 0 -60.4 147.5 N 33.57 CA 33.47 C 33.35 O 32.88 CB 33.66 CG 33.72 CD 33.32
B TYR S 149 -60.3 -41.3 N 33.08 CA 33.18 C 33.14 O 32.02 CB 33.89 CG 34.29 CD1 34.09 CD2 36.23 CE1 36.0 CE2 35.95 CZ 35.9 OH 36.74
B ASP - 80 -83.0 100.4 N 33.42 CA 33.75 C 33.35 O 31.44 CB 33.83 CG 35.36 OD1 36.96 OD2 39.3
B LYS T 45 -69.3 -13.0 N 33.75 CA 34.3 C 33.99 O 33.47 CB 34.93 CG 35.8 CD 37.35 CE 36.36 NZ 32.57
B LEU H 20 -64.6 -38.6 N 32.38 CA 31.41 C 30.7 O 29.23 CB 31.54 CG 31.53 CD1 29.2 CD2 30.06
B ILE H 2 -70.7 -39.2 N 30.45 CA 30.05 C 29.54 O 29.51 CB 30.49 CG1 32.6 CG2 30.7 CD1 31.94
B ALA H 2 -60.2 -47.3 N 28.54 CA 28.45 C 27.76 O 27.91 CB 27.31
B GLY H 43 -53.0 -48.0 N 27.96 CA 28.4 C 29.56 O 30.21
B ARG H 26 -62.7 -37.7 N 29.41 CA 30.48 C 30.34 O 30.49 CB 30.65 CG 34.19 CD 36.3 NE 37.79 CZ 39.01 NH1 35.77 NH2 39.8
B LEU T 6 -89.4 5.6 N 29.86 CA 30.41 C 30.49 O 30.37 CB 30.81 CG 30.65 CD1 30.44 CD2 30.63
B GLY T 22 61.3 34.3 N 31.46 CA 32.16 C 32.37 O 32.91
B LYS - 138 -62.2 143.5 N 34.67 CA 35.91 C 35.39 O 34.8 CB 36.56 CG 40.99 CD 45.63 CE 48.32 NZ 50.9
B PRO H 50 -43.4 -45.9 N 35.94 CA 36.02 C 35.52 O 35.55 CB 35.86 CG 36.4 CD 36.29
B GLU H 102 -72.6 -30.8 N 35.74 CA 35.86 C 35.47 O 34.76 CB 37.03 CG 39.03 CD 41.26 OE1 37.5 OE2 45.6
B SER H 33 -64.5 -43.5 N 34.93 CA 34.68 C 33.35 O 33.1 CB 34.99 OG 36.69
B LEU H 3 -58.9 -39.1 N 32.31 CA 32.01 C 32.4 O 32.5 CB 31.21 CG 30.24 CD1 29.11 CD2 27.72
B SER H 77 -66.0 -44.0 N 32.88 CA 33.55 C 33.72 O 32.8 CB 33.41 OG 35.06
B ARG H 135 -58.0 -44.4 N 34.44 CA 35.37 C 35.06 O 35.02 CB 36.25 CG 39.83 CD 44.59 NE 47.99 CZ 49.6 NH1 50.79 NH2 49.07
B ALA H 4 -58.8 -48.3 N 33.74 CA 33.72 C 33.54 O 32.76 CB 32.81
B PHE H 24 -58.3 -39.0 N 33.98 CA 35.18 C 36.38 O 36.52 CB 35.38 CG 36.02 CD1 37.51 CD2 39.31 CE1 38.83 CE2 41.01 CZ 40.42
B SER H 65 -62.7 -52.8 N 37.2 CA 38.47 C 39.05 O 39.38 CB 38.12 OG 40.85
B ARG H 153 -51.3 -40.5 N 39.28 CA 39.68 C 39.15 O 38.93 CB 40.07 CG 42.71 CD 46.48 NE 49.49 CZ 51.84 NH1 50.79 NH2 53.88
B LEU H 0 -74.1 -11.3 N 38.67 CA 38.03 C 37.84 O 37.33 CB 37.6 CG 37.0 CD1 33.8 CD2 35.56
B LYS H 148 -49.8 -47.8 N 37.99 CA 38.81 C 38.69 O 39.04 CB 38.65 CG 40.17 CD 42.3 CE 44.27 NZ 45.68
B ALA T 74 -61.0 -21.9 N 38.23 CA 37.88 C 37.71 O 37.54 CB 37.38
B ALA T 0 -98.2 11.8 N 37.11 CA 36.63 C 36.65 O 36.24 CB 36.18
B GLY T 7 93.4 14.3 N 37.08 CA 37.24 C 37.32 O 36.8
B VAL E 1 -105.1 126.5 N 37.65 CA 37.4 C 37.75 O 37.26 CB 37.64 CG1 35.98 CG2 37.05
B THR E 74 -119.1 122.9 N 38.23 CA 38.95 C 39.57 O 39.49 CB 39.15 OG1 40.05 CG2 39.34
B VAL E 42 -99.8 127.9 N 40.0 CA 40.1 C 40.26 O 40.53 CB 40.26 CG1 40.23 CG2 39.78
B LYS - 103 -114.5 -168.5 N 40.62 CA 41.11 C 41.12 O 41.57 CB 41.18 CG 42.73 CD 45.02 CE 47.08 NZ 48.22
B ARG S 48 -64.4 -45.9 N 40.42 CA 40.35 C 40.44 O 40.05 CB 39.92
B ASN S 89 -121.8 8.9 N 40.36 CA 40.54 C 40.88 O 40.54 CB 40.23 CG 41.33 OD1 42.26 ND2 39.38
B HIS E 32 -164.2 159.5 N 41.07 CA 41.73 C 41.08 O 40.8 CB 42.39 CG 44.82 ND1 49.01 CD2 47.89 CE1 48.8 NE2 48.99
B ALA E 0 -113.6 146.1 N 40.46 CA 40.37 C 40.68 O 40.61 CB 39.75
B GLU E 65 -117.8 120.9 N 41.28 CA 42.04 C 42.21 O 41.37 CB 42.08 CG 44.13 CD 47.43 OE1 49.0 OE2 51.52
B ILE E 3 -106.2 114.3 N 42.85 CA 43.76 C 44.18 O 43.76 CB 43.42 CG1 44.68 CG2 43.41 CD1 44.94
B GLU S 136 -71.7 -39.8 N 45.53 CA 46.33 C 46.41 O 46.68 CB 46.6 CG 48.66 CD 50.87 OE1 51.48 OE2 53.18
B ASP - 65 -141.5 108.0 N 46.33 CA 45.85 C 45.58 O 45.45 CB 45.9 CG 45.78 OD1 46.13 OD2 48.75
B ILE H 2 -53.9 -41.2 N 45.46 CA 45.5 C 45.29 O 45.43 CB 45.71 CG1 46.31 CG2 45.16 CD1 47.52
B ALA H 48 -64.9 -48.2 N 45.03 CA 44.53 C 44.2 O 44.0 CB 44.54
B LEU H 55 -54.3 -40.9 N 43.77 CA 43.85 C 43.8 O 43.75 CB 43.74 CG 44.72 CD1 45.04 CD2 44.51
B LEU H 0 -70.2 -45.3 N 43.82 CA 43.65 C 43.79 O 43.38 CB 43.33 CG 42.69 CD1 40.85 CD2 42.05
B ARG H 69 -56.5 -34.3 N 44.56 CA 45.5 C 45.04 O 44.25 CB 46.08 CG 49.14 CD 53.49 NE 58.16 CZ 61.96 NH1 62.56 NH2 62.61
B ASP H 88 -64.2 -47.7 N 45.56 CA 46.06 C 46.0 O 45.67 CB 46.53 CG 47.62 OD1 50.05 OD2 49.26
B TYR H 25 -52.5 -50.5 N 46.02 CA 46.09 C 46.33 O 45.73 CB 46.42 CG 45.37 CD1 43.6 CD2 45.49 CE1 43.67 CE2 45.96 CZ 45.22 OH 45.14
B ALA H 2 -60.7 -44.4 N 47.19 CA 48.18 C 49.32 O 48.98 CB 47.77
B GLU H 133 -82.6 -19.2 N 50.89 CA 52.21 C 52.95 O 52.85 CB 52.47 CG 54.23 CD 56.84 OE1 57.94 OE2 59.33
B SER S 26 -58.0 151.6 N 53.89 CA 54.85 C 56.23 O 55.97 CB 54.71 OG 53.94
B ASP - 86 -58.4 116.5 N 58.1 CA 59.51 C 60.72 O 60.87 CB 59.8 CG 60.51 OD1 60.99 OD2 62.55
B PRO T 42 -49.5 -34.6 N 61.96 CA 62.69 C 63.36 O 63.49 CB 62.77 CG 62.38 CD 62.08
B ALA T 90 -76.5 1.6 N 64.01 CA 64.42 C 64.96 O 64.75 CB 64.35
B ASP S 106 -106.6 146.2 N 65.53 CA 65.7 C 65.88 O 66.14 CB 65.68 CG 65.14 OD1 65.73 OD2 63.81
B SER - 128 -81.6 135.4 N 65.93 CA 65.72 C 65.43 O 65.6 CB 65.77 OG 66.13
B TRP - 52 -92.7 149.5 N 64.84 CA 64.17 C 64.54 O 64.57 CB 63.52 CG 60.58 CD1 58.61 CD2 57.53 NE1 57.45 CE2 57.19 CE3 56.46 CZ2 56.7 CZ3 56.17 CH2 56.2
B SER - 137 67.9 360.0 N 64.68 CA 64.8 C 64.82 O 65.07 CB 64.67 OG 64.44
