A GLY - 95 360.0 -144.0 N 54.73 CA 56.23 C 57.98 O 57.82
A TYR - 165 -66.3 139.0 N 60.26 CA 60.67 C 60.15 O 59.73 CB 61.56 CG 62.33 CD1 62.96 CD2 63.5 CE1 64.65 CE2 65.62 CZ 66.12 OH 64.19
A GLN - 76 -152.4 112.5 N 60.46 CA 59.91 C 58.63 O 57.77 CB 60.7 CG 64.4 CD 66.21 OE1 78.45 NE2 68.94
A PRO G 49 -52.5 -37.4 N 57.2 CA 56.21 C 53.46 O 53.46 CB 56.73 CG 56.39 CD 57.52
A GLU G 104 -61.1 -24.0 N 50.72 CA 50.18 C 47.09 O 47.21 CB 52.53 CG 58.79 CD 68.37 OE1 70.76 OE2 75.03
A LYS G 124 -72.7 -4.9 N 42.83 CA 42.11 C 38.2 O 37.93 CB 40.3 CG 48.25 CD 49.05 CE 59.58 NZ 63.68
A HIS G 93 -102.1 4.3 N 36.11 CA 35.94 C 31.89 O 29.36 CB 39.39 CG 47.09 ND1 53.83 CD2 55.67 CE1 55.4 NE2 57.32
A ALA S 9 -62.0 -39.3 N 26.61 CA 24.37 C 22.68 O 23.62 CB 21.25
A VAL S 70 -97.2 127.6 N 20.11 CA 19.33 C 22.75 O 21.32 CB 21.47 CG1 27.75 CG2 21.18
A VAL - 23 -86.2 123.1 N 21.32 CA 21.21 C 20.22 O 18.37 CB 22.17 CG1 23.08 CG2 19.97
A LYS - 150 -158.0 157.8 N 22.53 CA 24.02 C 20.79 O 19.51 CB 24.56 CG 32.56 CD 34.23 CE 36.9 NZ 40.13
A SER - 38 -71.2 140.5 N 20.36 CA 20.36 C 22.1 O 21.29 CB 21.52 OG 20.51
A ASP - 154 -104.9 15.6 N 20.02 CA 20.76 C 20.23 O 20.09 CB 23.46 CG 28.3 OD1 33.64 OD2 38.61
A ARG S 123 -109.6 143.9 N 20.29 CA 19.36 C 17.64 O 15.76 CB 19.06 CG 19.03 CD 21.27 NE 19.01 CZ 19.56 NH1 17.25 NH2 20.63
A GLY T 95 -60.5 -29.5 N 19.23 CA 20.78 C 22.21 O 20.61
A ASP T 86 -83.7 -0.4 N 21.5 CA 20.12 C 19.09 O 19.13 CB 20.75 CG 23.88 OD1 20.53 OD2 25.45
A GLY - 45 79.3 -2.9 N 21.73 CA 18.88 C 20.76 O 20.91
A ARG - 175 -75.0 153.3 N 17.3 CA 17.34 C 18.48 O 18.23 CB 16.68 CG 17.71 CD 17.55 NE 14.59 CZ 21.92 NH1 21.25 NH2 20.74
A LEU - 40 -106.6 134.4 N 19.12 CA 15.98 C 16.51 O 17.45 CB 16.05 CG 17.0 CD1 15.87 CD2 13.22
A LEU - 148 -101.1 -37.1 N 14.48 CA 18.34 C 17.66 O 19.37 CB 17.68 CG 17.45 CD1 16.91 CD2 19.38
A SER S 64 -74.0 140.3 N 18.68 CA 15.83 C 15.47 O 18.09 CB 16.92 OG 18.36
A THR H 104 -61.1 -39.6 N 15.48 CA 13.45 C 12.49 O 14.55 CB 14.36 OG1 14.12 CG2 14.73
A TYR H 84 -49.9 -53.7 N 13.93 CA 13.53 C 14.69 O 14.84 CB 15.64 CG 15.03 CD1 16.69 CD2 14.61 CE1 16.23 CE2 16.58 CZ 17.21 OH 15.48
A ALA H 5 -60.7 -39.4 N 14.64 CA 14.97 C 16.34 O 14.3 CB 16.56
A ILE H 63 -66.4 -46.3 N 15.61 CA 15.21 C 14.15 O 14.9 CB 16.44 CG1 18.65 CG2 12.97 CD1 14.51
A VAL H 73 -72.6 -35.7 N 16.42 CA 16.86 C 16.9 O 16.2 CB 16.51 CG1 16.14 CG2 14.08
A HIS H 11 -58.7 -42.4 N 17.64 CA 17.31 C 17.61 O 16.88 CB 16.7 CG 20.31 ND1 20.35 CD2 18.7 CE1 24.01 NE2 16.93
A GLU H 65 -64.7 -41.8 N 17.43 CA 18.32 C 18.73 O 17.38 CB 17.81 CG 22.22 CD 25.3 OE1 24.89 OE2 25.37
A LEU H 28 -67.5 -42.6 N 15.9 CA 14.74 C 15.08 O 15.87 CB 13.99 CG 15.29 CD1 12.57 CD2 14.05
A LYS H 86 -58.5 -35.0 N 20.38 CA 22.42 C 21.57 O 20.92 CB 23.73 CG 27.7 CD 27.24 CE 29.47 NZ 28.61
A ASP T 96 -86.0 4.8 N 21.37 CA 23.02 C 23.22 O 22.88 CB 23.41 CG 26.67 OD1 25.11 OD2 24.18
A THR - 43 -89.7 121.9 N 21.13 CA 19.63 C 18.34 O 19.62 CB 18.87 OG1 18.68 CG2 20.98
A HIS - 153 -110.0 102.0 N 17.64 CA 19.72 C 19.64 O 23.42 CB 22.12 CG 25.33 ND1 36.62 CD2 35.65 CE1 39.06 NE2 39.16
A PRO - 22 -58.7 133.1 N 16.91 CA 15.22 C 18.66 O 18.46 CB 14.05 CG 16.62 CD 20.36
A GLN T 122 -56.4 -42.0 N 21.26 CA 22.48 C 22.99 O 24.81 CB 22.65 CG 26.47 CD 30.17 OE1 28.83 NE2 35.57
A TYR T 51 -104.6 34.0 N 20.42 CA 20.21 C 21.26 O 21.37 CB 21.27 CG 23.23 CD1 25.7 CD2 25.98 CE1 27.13 CE2 28.26 CZ 26.87 OH 25.8
A ALA - 46 -59.9 135.3 N 18.54 CA 20.71 C 24.05 O 25.22 CB 19.51
A TYR - 27 -69.5 138.9 N 23.24 CA 23.46 C 23.4 O 25.78 CB 23.94 CG 22.84 CD1 27.25 CD2 29.76 CE1 25.32 CE2 26.46 CZ 25.16 OH 27.83
A ARG - 57 -126.1 132.6 N 26.48 CA 29.18 C 29.73 O 28.84 CB 30.66
A SER S 95 -75.9 159.7 N 33.62 CA 35.13 C 34.64 O 33.01 CB 35.67 OG 42.37
A GLY S 78 85.2 17.7 N 36.29 CA 37.19 C 38.64 O 40.26
A SER - 56 -67.8 165.8 N 38.97 CA 42.84 C 45.48 O 46.82 CB 44.28 OG 47.77
A ALA H 76 -59.3 -37.6 N 46.11 CA 47.67 C 48.07 O 46.72 CB 48.6
A GLN H 70 -67.9 -43.7 N 47.68 CA 47.17 C 45.93 O 44.47 CB 47.57 CG 48.21
A GLU H 97 -62.9 -40.5 N 42.64 CA 42.69 C 39.15 O 36.9 CB 43.19 CG 47.5 CD 49.35 OE1 57.82 OE2 58.53
A PHE H 7 -60.9 -47.5 N 35.38 CA 31.5 C 32.15 O 29.28 CB 29.03 CG 26.72 CD1 24.52 CD2 26.54 CE1 24.78 CE2 27.88 CZ 24.43
A THR H 70 -61.7 -40.7 N 31.7 CA 31.56 C 31.1 O 32.25 CB 32.47 OG1 29.78 CG2 30.16
A GLN H 119 -68.3 -37.6 N 30.1 CA 30.08 C 30.02 O 27.28 CB 30.93 CG 31.48 CD 34.02 OE1 40.8 NE2 34.54
A TRP H 18 -63.3 -44.3 N 27.93 CA 27.5 C 24.79 O 22.66 CB 27.08 CG 20.9 CD1 21.18 CD2 17.84 NE1 22.27 CE2 21.51 CE3 21.58 CZ2 21.19 CZ3 21.33 CH2 21.02
A GLN H 44 -62.2 -42.8 N 22.86 CA 26.3 C 25.87 O 24.9 CB 27.03 CG 34.48 CD 30.37 OE1 38.98 NE2 27.47
A ASP H 97 -66.3 -38.0 N 24.38 CA 24.26 C 24.84 O 20.78 CB 26.15 CG 28.67 OD1 36.18 OD2 37.15
A GLY H 9 -64.5 -40.9 N 23.12 CA 22.42 C 20.69 O 20.8
A VAL H 0 -59.0 -45.2 N 22.25 CA 21.66 C 22.3 O 20.16 CB 20.41 CG1 16.59 CG2 16.45
A ARG H 102 -64.9 -45.8 N 21.95 CA 22.29 C 22.68 O 25.29 CB 22.86 CG 20.82 CD 24.53 NE 28.53 CZ 32.45 NH1 31.35 NH2 25.07
A ALA H 59 -58.7 -43.3 N 21.23 CA 23.37 C 23.67 O 22.04 CB 20.91
A ALA H 3 -62.3 -42.7 N 20.83 CA 21.48 C 20.86 O 17.4 CB 20.55
A VAL H 71 -56.6 -47.5 N 21.12 CA 21.08 C 21.94 O 21.41 CB 23.42 CG1 20.94 CG2 18.22
A GLU H 115 -59.9 -46.8 N 21.47 CA 22.84 C 22.8 O 22.41 CB 22.14 CG 24.84 CD 30.32 OE1 33.52 OE2 34.58
A ILE H 14 -81.2 -21.7 N 19.87 CA 19.96 C 19.23 O 17.99 CB 18.27 CG1 17.95 CG2 13.76 CD1 18.53
A LYS - 118 48.4 50.2 N 22.85 CA 24.87 C 26.28 O 27.01 CB 25.12 CG 29.19 CD 32.79 CE 37.18 NZ 35.96
A PHE - 61 -62.2 130.7 N 24.19 CA 25.98 C 30.74 O 31.72 CB 24.27 CG 25.86 CD1 16.06 CD2 24.43 CE1 22.16 CE2 26.95 CZ 21.55
A PRO - 45 -81.9 160.3 N 33.48 CA 35.76 C 38.51 O 37.59 CB 37.04 CG 33.08 CD 35.28
A GLU - 105 -97.5 115.1 N 45.22 CA 49.9 C 51.52 O 52.48 CB 49.42
A ILE - 53 -107.6 119.9 N 52.87 CA 53.47 C 56.55 O 57.15 CB 52.21 CG1 42.95 CG2 51.71 CD1 36.6
A LYS - 91 -56.7 114.6 N 59.76 CA 61.5 C 59.4 O 59.69 CB 63.16
A ARG - 228 -36.0 123.3 N 57.85 CA 57.91 C 53.14 O 54.85 CB 59.65 CG 70.2 CD 82.14 NE 86.53 CZ 91.27 NH1 92.9 NH2 91.58
A GLN - 58 -94.5 170.2 N 45.94 CA 40.06 C 35.36 O 34.03 CB 39.01 CG 34.51 CD 30.72 OE1 39.23 NE2 22.26
A PRO - 87 -63.2 157.6 N 31.09 CA 30.85 C 28.81 O 28.35 CB 30.1 CG 32.24 CD 32.44
A SER - 92 -73.8 161.6 N 26.16 CA 27.4 C 26.56 O 24.42 CB 30.98 OG 38.26
A PRO - 45 -58.5 152.3 N 21.55 CA 20.66 C 22.56 O 24.91 CB 22.2 CG 19.03 CD 22.35
A VAL E 66 -135.7 131.6 N 22.09 CA 24.55 C 22.59 O 23.16 CB 25.32 CG1 32.1 CG2 25.02
A CYS E 52 -79.6 119.3 N 22.31 CA 23.0 C 26.18 O 28.1 CB 21.69 SG 27.29
A VAL E 66 -103.1 -9.6 N 25.77 CA 25.51 C 27.39 O 28.69 CB 23.01 CG1 19.88 CG2 21.52
A LYS E 114 -162.6 144.0 N 27.31 CA 29.99 C 31.12 O 27.68 CB 29.54 CG 37.75 CD 36.25 CE 46.46 NZ 53.71
A THR E 89 -142.3 131.4 N 30.81 CA 31.55 C 33.03 O 33.19 CB 32.42 OG1 31.36 CG2 33.51
A GLU E 69 -133.6 147.4 N 33.41 CA 35.87 C 35.4 O 32.9 CB 34.28 CG 46.19 CD 44.63 OE1 53.01 OE2 48.85
A LYS E 93 -89.3 130.8 N 36.15 CA 35.43 C 35.68 O 36.17 CB 38.61
A LYS E 57 -120.9 175.9 N 34.44 CA 36.46 C 37.31 O 39.04 CB 36.52 CG 37.29 CD 35.81 CE 44.53 NZ 46.17
A GLU T 100 -70.3 95.3 N 37.75 CA 36.26 C 35.18 O 37.48 CB 35.38
A GLY T 36 93.5 1.7 N 33.41 CA 34.13 C 34.48 O 34.91
A TYR E 25 -161.5 168.7 N 31.95 CA 29.44 C 28.71 O 31.03 CB 27.05 CG 23.26 CD1 23.03 CD2 30.27 CE1 28.61 CE2 20.83 CZ 25.92 OH 27.44
A ILE E 58 -111.8 134.6 N 26.62 CA 28.33 C 27.9 O 28.43 CB 29.85 CG1 32.92 CG2 31.18 CD1 39.32
A LEU E 12 -104.7 118.5 N 27.33 CA 26.79 C 27.24 O 27.9 CB 25.47 CG 27.53 CD1 22.62 CD2 28.44
A GLU E 23 -112.7 142.2 N 26.01 CA 25.72 C 27.05 O 22.61 CB 28.9 CG 28.72 CD 31.22 OE1 29.53 OE2 38.74
A LYS E 44 -113.7 130.4 N 24.76 CA 24.75 C 22.12 O 25.17 CB 25.76 CG 24.14 CD 28.45 CE 27.29 NZ 30.55
A TRP E 37 -121.9 144.9 N 19.3 CA 17.45 C 20.97 O 21.83 CB 20.46 CG 19.55 CD1 21.27 CD2 20.58 NE1 23.69 CE2 23.71 CE3 22.02 CZ2 24.22 CZ3 24.2 CH2 24.19
A GLU E 61 -103.1 144.2 N 20.09 CA 20.07 C 20.45 O 21.14 CB 18.94 CG 19.35 CD 18.36 OE1 17.45 OE2 19.5
A PHE E 8 -135.1 162.8 N 18.1 CA 18.69 C 17.7 O 20.22 CB 19.27 CG 16.9 CD1 18.89 CD2 21.35 CE1 20.21 CE2 19.02 CZ 18.21
A TYR - 52 -127.7 82.4 N 19.77 CA 19.02 C 17.91 O 19.54 CB 18.85 CG 20.16 CD1 15.5 CD2 20.56 CE1 21.07 CE2 20.01 CZ 16.64 OH 19.35
A PRO - 7 -69.0 -27.7 N 19.08 CA 18.59 C 18.89 O 19.7 CB 20.55 CG 16.61 CD 15.97
A PHE S 27 -146.6 162.7 N 16.94 CA 17.65 C 18.11 O 18.31 CB 20.1 CG 17.77 CD1 19.33 CD2 15.21 CE1 19.08 CE2 18.14 CZ 16.25
A PRO T 67 -52.5 141.2 N 18.87 CA 20.56 C 19.48 O 19.21 CB 20.98 CG 23.31 CD 20.23
A LYS T 216 64.4 17.2 N 19.53 CA 20.08 C 18.76 O 18.74 CB 21.27 CG 24.97 CD 22.85 CE 26.11 NZ 25.85
A SER - 45 -133.3 148.1 N 17.78 CA 15.99 C 15.89 O 16.52 CB 18.07 OG 21.39
A VAL - 87 -140.4 145.9 N 15.34 CA 17.24 C 17.87 O 16.92 CB 18.77 CG1 14.08 CG2 16.4
A SER E 24 -135.3 169.6 N 17.66 CA 17.33 C 16.01 O 16.65 CB 20.88 OG 20.94
A THR E 13 -139.7 161.0 N 16.03 CA 17.17 C 19.94 O 18.47 CB 18.54 OG1 19.96 CG2 19.56
A PHE E 0 -151.2 161.7 N 18.45 CA 18.61 C 20.41 O 20.29 CB 21.23 CG 21.95 CD1 20.17 CD2 21.45 CE1 22.56 CE2 20.26 CZ 17.98
A LEU E 11 -114.3 148.4 N 18.37 CA 16.35 C 19.5 O 18.23 CB 14.89 CG 18.06 CD1 15.13 CD2 19.49
A VAL E 0 -131.4 127.3 N 21.73 CA 22.19 C 25.11 O 24.04 CB 23.12 CG1 18.29 CG2 17.76
A LEU E 1 -108.6 125.4 N 25.14 CA 23.68 C 26.27 O 22.83 CB 23.73 CG 26.91 CD1 16.26 CD2 25.26
A LYS E 39 -120.5 130.2 N 26.87 CA 28.73 C 30.81 O 28.83 CB 30.21 CG 31.3 CD 34.98 CE 35.13 NZ 39.89
A PRO E 19 -64.7 144.3 N 32.84 CA 33.02 C 34.57 O 28.33 CB 33.33 CG 34.63 CD 33.02
A GLU T 103 -61.0 144.7 N 39.23 CA 47.56 C 50.31 O 52.29 CB 48.53 CG 54.29 CD 53.67 OE1 66.8 OE2 67.27
A HIS T 162 58.5 33.3 N 53.33 CA 55.78 C 56.0 O 56.47 CB 57.11 CG 59.0 ND1 60.15 CD2 59.83 CE1 64.73 NE2 63.78
A LEU - 47 -61.7 123.3 N 55.16 CA 54.99 C 55.74 O 57.74 CB 55.01 CG 52.93 CD1 50.27 CD2 53.3
A LYS - 96 -93.1 -99.7 N 55.25 CA 54.5 C 52.47 O 55.32 CB 54.59
A GLY S 49 -79.1 178.6 N 47.64 CA 45.08 C 40.93 O 42.68
A ALA - 44 -62.2 144.4 N 35.56 CA 31.99 C 32.01 O 30.27 CB 29.95
A VAL E 27 -131.0 165.2 N 30.32 CA 26.59 C 25.72 O 23.95 CB 28.26 CG1 28.51 CG2 27.1
A PRO E 17 -61.5 148.2 N 23.76 CA 23.8 C 20.88 O 23.43 CB 21.99 CG 23.88 CD 23.04
A GLY E 0 -117.1 136.9 N 22.26 CA 22.37 C 21.43 O 22.78
A VAL E 0 -120.4 118.7 N 20.99 CA 19.89 C 20.25 O 17.36 CB 19.6 CG1 18.18 CG2 22.26
A LEU E 0 -86.1 113.7 N 21.19 CA 20.51 C 19.84 O 21.47 CB 20.09 CG 21.27 CD1 20.89 CD2 20.79
A CYS E 0 -101.9 121.7 N 19.79 CA 19.26 C 19.46 O 16.6 CB 22.38 SG 23.09
A ILE E 0 -117.9 122.1 N 18.01 CA 16.97 C 18.11 O 17.79 CB 17.01 CG1 16.27 CG2 15.29 CD1 14.89
A PRO - 0 -79.8 173.2 N 17.62 CA 15.23 C 17.18 O 16.18 CB 17.87 CG 18.75 CD 17.62
A GLY - 0 -86.6 179.4 N 15.37 CA 17.36 C 16.49 O 19.29
A SER T 52 -63.0 136.3 N 18.16 CA 17.81 C 19.79 O 18.91 CB 20.99 OG 21.21
A GLY T 12 80.8 5.5 N 19.52 CA 20.03 C 18.69 O 22.22
A ARG - 88 -125.8 170.0 N 16.88 CA 18.62 C 19.92 O 22.46 CB 17.48 CG 18.0 CD 18.82 NE 19.88 CZ 24.01 NH1 22.08 NH2 29.18
A THR - 2 -138.5 164.2 N 20.66 CA 19.7 C 19.08 O 17.86 CB 20.74 OG1 23.21 CG2 20.46
A LYS H 0 -62.7 -29.0 N 18.66 CA 19.76 C 22.62 O 22.87 CB 19.06 CG 21.91 CD 20.38 CE 19.49 NZ 18.93
A GLU H 14 -66.6 -42.9 N 21.1 CA 21.21 C 21.85 O 23.61 CB 20.52 CG 18.1 CD 23.76 OE1 22.94 OE2 23.29
A GLY H 1 -59.3 -40.6 N 22.0 CA 21.36 C 21.97 O 21.68
A LEU H 8 -64.2 -36.3 N 21.3 CA 21.34 C 22.23 O 23.13 CB 20.76 CG 17.87 CD1 17.31 CD2 14.85
A VAL T 1 -90.6 5.5 N 22.29 CA 20.58 C 21.5 O 23.72 CB 20.15 CG1 16.35 CG2 18.35
A GLY T 10 71.7 38.4 N 22.09 CA 24.33 C 27.16 O 24.58
A GLU - 39 -124.1 156.1 N 25.59 CA 24.86 C 26.19 O 23.21 CB 25.72 CG 29.04 CD 36.96 OE1 36.17 OE2 31.63
A PRO - 58 -70.7 167.0 N 28.11 CA 27.32 C 25.09 O 25.4 CB 27.54 CG 28.28 CD 28.37
A GLY - 17 -65.5 163.3 N 28.6 CA 27.43 C 30.24 O 28.24
A ILE S 70 -68.1 -30.8 N 33.01 CA 35.56 C 34.55 O 34.99 CB 36.65 CG1 42.84 CG2 40.21 CD1 38.12
A CYS S 51 -131.3 150.6 N 32.97 CA 34.26 C 33.62 O 32.24 CB 34.95 SG 44.88
A ASP G 116 -55.5 -40.2 N 33.19 CA 33.25 C 31.94 O 31.18 CB 35.88 CG 36.35
A LYS G 116 -68.7 -14.8 N 29.89 CA 31.4 C 28.34 O 30.26 CB 34.0 CG 36.94 CD 35.76 CE 39.87 NZ 47.59
A LEU G 6 -94.5 -0.2 N 27.17 CA 28.03 C 29.21 O 31.68 CB 27.26 CG 26.47 CD1 23.3 CD2 28.24
A THR - 58 -69.6 140.0 N 29.59 CA 28.22 C 26.71 O 26.41 CB 27.08 OG1 26.36 CG2 26.04
A GLU - 25 -108.1 -179.3 N 26.83 CA 25.05 C 25.56 O 25.29 CB 25.34 CG 27.88 CD 25.74 OE1 26.47 OE2 24.27
A ASP - 98 -76.4 67.6 N 25.86 CA 26.44 C 27.37 O 26.31 CB 27.04 CG 32.38 OD1 28.25 OD2 34.8
A TYR T 65 -69.4 -18.6 N 26.65 CA 26.55 C 26.6 O 26.35 CB 28.4 CG 28.37 CD1 29.55 CD2 29.67 CE1 33.82 CE2 28.92 CZ 32.62 OH 35.46
A ASN T 128 -85.1 -2.2 N 28.47 CA 30.17 C 31.09 O 31.94 CB 30.02 CG 30.79 OD1 33.56 ND2 31.75
A ASN S 49 -85.9 120.5 N 27.71 CA 24.9 C 23.8 O 22.27 CB 24.99 CG 26.99 OD1 26.25 ND2 35.01
A PRO T 74 -61.5 -18.7 N 25.37 CA 25.99 C 24.41 O 28.34 CB 26.49 CG 28.07 CD 28.0
A LYS T 96 -66.8 -19.7 N 24.89 CA 25.55 C 24.59 O 28.98 CB 25.03 CG 26.02 CD 29.67 CE 33.98 NZ 42.95
A VAL T 19 -99.5 -46.9 N 23.63 CA 24.82 C 25.69 O 23.59 CB 24.17 CG1 28.16 CG2 24.61
A SER - 4 -76.0 58.4 N 24.69 CA 24.26 C 25.74 O 23.1 CB 24.45 OG 22.72
A ALA H 0 -65.3 -44.2 N 21.19 CA 22.45 C 20.35 O 22.16 CB 19.2
A LEU H 21 -59.7 -40.4 N 20.95 CA 21.19 C 24.24 O 22.05 CB 22.86 CG 24.36 CD1 20.53 CD2 19.68
A ASN H 19 -60.6 -38.0 N 23.14 CA 22.21 C 20.32 O 21.24 CB 22.73 CG 21.95 OD1 24.59 ND2 21.38
A VAL H 8 -68.9 -33.5 N 23.37 CA 24.66 C 25.1 O 27.61 CB 23.1 CG1 20.94 CG2 21.92
A LYS T 146 -65.4 -17.7 N 26.72 CA 26.48 C 26.38 O 25.35 CB 26.01 CG 25.59 CD 27.82 CE 31.68 NZ 34.63
A GLU T 58 -88.7 -3.2 N 25.41 CA 26.71 C 27.45 O 26.84 CB 25.91 CG 29.01 CD 26.68 OE1 32.9 OE2 34.34
A GLY T 32 90.7 14.1 N 26.57 CA 26.51 C 27.3 O 28.31
A TYR - 21 -100.5 158.6 N 26.78 CA 24.35 C 22.43 O 22.8 CB 25.94 CG 24.63 CD1 25.84 CD2 27.25 CE1 30.66 CE2 25.43 CZ 30.71 OH 27.14
A VAL E 0 -82.3 128.9 N 22.45 CA 22.37 C 24.2 O 24.88 CB 22.64 CG1 18.11 CG2 25.13
A ALA E 1 -112.9 132.7 N 21.15 CA 18.66 C 18.78 O 18.92 CB 17.57
A VAL E 0 -120.9 118.9 N 18.53 CA 19.01 C 21.85 O 21.07 CB 21.4 CG1 18.25 CG2 22.46
A ALA E 1 -107.4 124.7 N 20.64 CA 19.11 C 20.16 O 17.64 CB 17.4
A VAL - 3 -113.1 165.5 N 19.71 CA 16.38 C 17.48 O 16.8 CB 15.85 CG1 13.4 CG2 15.67
A ASP - 15 -98.9 164.3 N 20.1 CA 20.56 C 18.2 O 18.56 CB 21.18 CG 23.08 OD1 20.92 OD2 21.94
A ASN - 1 -96.3 145.6 N 17.52 CA 17.15 C 18.3 O 17.12 CB 15.64 CG 16.7 OD1 18.05 ND2 17.23
A ALA T 7 -54.3 132.9 N 16.57 CA 17.99 C 16.6 O 17.71 CB 17.06
A ALA T 12 83.8 -4.0 N 17.53 CA 17.0 C 17.85 O 16.9 CB 15.99
A ALA S 0 -112.7 156.6 N 15.01 CA 15.26 C 16.39 O 20.15 CB 13.47
A GLY G 0 60.7 -127.8 N 19.05 CA 20.33 C 20.48 O 18.81
A GLU G 65 -65.5 -18.8 N 19.92 CA 22.13 C 20.03 O 21.8 CB 20.29 CG 22.62 CD 25.65 OE1 22.25 OE2 25.27
A ALA G 55 -89.0 6.9 N 19.59 CA 18.22 C 16.02 O 17.59 CB 15.94
A SER - 29 -79.1 177.0 N 17.49 CA 17.95 C 18.01 O 19.83 CB 16.5 OG 23.03
A ASP S 122 -113.6 -93.6 N 19.27 CA 21.81 C 21.53 O 21.37 CB 22.28 CG 25.74 OD1 24.0 OD2 19.88
A LEU S 110 -101.6 6.1 N 22.03 CA 21.85 C 23.48 O 22.87 CB 22.98 CG 23.79 CD1 27.26 CD2 32.98
A GLU G 15 -61.5 -34.1 N 21.3 CA 20.05 C 20.07 O 22.25 CB 21.15 CG 20.7 CD 20.56 OE1 15.76 OE2 18.01
A CYS G 27 -60.1 -14.8 N 21.76 CA 26.05 C 28.8 O 30.38 CB 25.25 SG 33.05
A TYR G 172 -95.1 -16.3 N 29.25 CA 30.5 C 32.28 O 34.66 CB 32.02 CG 33.85 CD1 35.44 CD2 34.9 CE1 38.89 CE2 36.13 CZ 39.21 OH 43.31
A ASP T 106 -162.8 -70.3 N 29.74 CA 29.1 C 28.92 O 30.09 CB 29.13 CG 29.21 OD1 39.22 OD2 36.88
A LYS T 116 -64.7 -19.4 N 26.79 CA 27.1 C 26.43 O 26.56 CB 28.09 CG 29.15 CD 27.52 CE 31.56 NZ 27.46
A GLY T 5 55.1 -123.3 N 26.12 CA 26.21 C 26.77 O 24.46
A TRP T 173 -60.7 -20.0 N 26.08 CA 25.94 C 24.17 O 23.19 CB 26.84 CG 27.78 CD1 33.28 CD2 32.17 NE1 34.18 CE2 39.15 CE3 34.1 CZ2 37.92 CZ3 33.89 CH2 35.05
A ASN S 85 -81.0 70.1 N 22.76 CA 20.8 C 19.11 O 18.92 CB 20.63 CG 27.5 OD1 29.89 ND2 27.3
A TYR - 6 -69.6 143.4 N 20.2 CA 17.37 C 18.71 O 18.49 CB 19.31 CG 17.15 CD1 16.09 CD2 20.15 CE1 16.87 CE2 17.64 CZ 17.74 OH 18.07
A ASP - 84 -87.0 71.1 N 18.39 CA 16.79 C 17.86 O 14.39 CB 19.93 CG 20.36 OD1 15.75 OD2 17.46
A TYR H 12 -64.7 -35.1 N 15.7 CA 14.26 C 12.23 O 14.85 CB 13.35 CG 12.43 CD1 18.05 CD2 16.24 CE1 15.98 CE2 19.89 CZ 17.54 OH 17.18
A ASP H 60 -67.2 -40.8 N 13.19 CA 14.51 C 17.15 O 15.91 CB 15.35 CG 18.79 OD1 16.84 OD2 17.2
A VAL H 67 -64.7 -40.7 N 16.74 CA 16.49 C 16.02 O 14.91 CB 19.22 CG1 12.7 CG2 14.2
A VAL H 52 -59.9 -43.3 N 16.27 CA 15.73 C 15.76 O 16.25 CB 19.44 CG1 14.87 CG2 14.79
A SER H 0 -61.2 -41.2 N 16.8 CA 15.0 C 14.42 O 15.62 CB 14.39 OG 16.41
A ARG H 142 -60.4 -47.5 N 15.24 CA 16.22 C 15.6 O 13.85 CB 14.82 CG 14.53 CD 12.32 NE 14.97 CZ 12.03 NH1 14.03 NH2 13.89
A PHE H 146 -55.0 -46.7 N 16.19 CA 15.11 C 15.87 O 17.21 CB 15.57 CG 15.13 CD1 13.09 CD2 14.28 CE1 13.48 CE2 16.08 CZ 14.56
A LEU H 19 -64.1 -43.8 N 13.25 CA 14.12 C 14.62 O 15.19 CB 14.83 CG 15.71 CD1 15.5 CD2 11.88
A LEU H 35 -61.9 -41.5 N 13.83 CA 13.01 C 15.14 O 15.2 CB 11.96 CG 13.37 CD1 11.06 CD2 14.48
A GLU H 126 -57.4 -38.5 N 14.22 CA 12.58 C 14.51 O 13.96 CB 13.97 CG 16.5 CD 14.83 OE1 16.19 OE2 16.94
A LEU T 150 -83.3 9.6 N 16.77 CA 14.84 C 17.87 O 18.5 CB 17.49 CG 22.15 CD1 25.77 CD2 29.88
A GLY T 36 86.5 5.1 N 15.95 CA 15.62 C 17.18 O 19.27
A TRP - 42 -108.4 -158.0 N 17.65 CA 16.43 C 15.93 O 15.93 CB 15.7 CG 13.22 CD1 18.77 CD2 13.1 NE1 16.71 CE2 14.26 CE3 13.53 CZ2 14.41 CZ3 15.87 CH2 15.96
A SER - 1 -160.8 161.4 N 14.38 CA 13.9 C 14.27 O 16.83 CB 14.29 OG 13.14
A TRP H 1 -58.4 -47.0 N 13.09 CA 14.18 C 13.62 O 15.39 CB 15.88 CG 17.44 CD1 17.54 CD2 19.71 NE1 19.91 CE2 19.15 CE3 19.91 CZ2 19.09 CZ3 18.36 CH2 17.69
A LEU H 3 -67.7 -38.3 N 12.6 CA 14.44 C 13.97 O 16.53 CB 15.53 CG 13.23 CD1 16.96 CD2 12.33
A GLY H 0 -60.9 -43.9 N 15.48 CA 17.41 C 15.26 O 17.02
A TYR H 61 -62.3 -57.3 N 16.68 CA 16.0 C 16.72 O 16.48 CB 16.14 CG 14.78 CD1 14.27 CD2 18.79 CE1 17.13 CE2 18.4 CZ 19.29 OH 19.07
A THR H 2 -66.0 -32.7 N 15.44 CA 14.38 C 16.36 O 17.0 CB 13.47 OG1 12.01 CG2 13.1
A SER H 0 -69.1 -36.8 N 16.16 CA 15.81 C 17.83 O 15.84 CB 18.5 OG 13.03
A TYR H 19 -62.2 -43.4 N 17.7 CA 17.78 C 18.08 O 21.01 CB 21.56 CG 22.58 CD1 25.78 CD2 25.6 CE1 29.17 CE2 25.01 CZ 30.09 OH 30.25
A LEU H 11 -63.9 -47.8 N 18.26 CA 15.75 C 19.45 O 18.92 CB 15.8 CG 17.93 CD1 21.74 CD2 15.61
A ASP H 4 -61.8 -33.5 N 17.07 CA 17.91 C 16.56 O 20.32 CB 18.08 CG 19.79 OD1 21.46 OD2 19.26
A GLN H 50 -70.0 -35.7 N 20.34 CA 20.05 C 20.75 O 21.65 CB 20.54 CG 16.7 CD 19.88 OE1 25.56 NE2 24.1
A VAL H 0 -68.6 -42.3 N 18.91 CA 19.99 C 22.32 O 20.73 CB 19.01 CG1 15.99 CG2 21.25
A LEU H 0 -60.5 -43.5 N 21.38 CA 22.0 C 23.57 O 22.55 CB 22.04 CG 20.63 CD1 23.5 CD2 22.4
A ASN H 76 -60.5 -38.8 N 22.29 CA 25.37 C 24.57 O 23.87 CB 24.36 CG 32.71 OD1 37.6 ND2 32.3
A TRP H 18 -63.5 -42.7 N 25.26 CA 24.22 C 25.43 O 23.94 CB 23.67 CG 25.13 CD1 23.01 CD2 22.74 NE1 23.39 CE2 20.1 CE3 24.58 CZ2 25.38 CZ3 23.11 CH2 24.76
A LYS H 43 -69.8 -14.3 N 24.08 CA 28.36 C 29.88 O 31.96 CB 26.63 CG 32.65 CD 31.62 CE 41.1 NZ 40.83
A ALA T 77 -98.7 -4.2 N 30.65 CA 28.6 C 28.81 O 31.09 CB 28.13
A GLN - 36 -87.0 129.7 N 28.46 CA 28.38 C 29.41 O 29.9 CB 27.83 CG 25.55 CD 27.65 OE1 28.31 NE2 22.99
A SER T 115 -66.9 -26.3 N 31.8 CA 30.83 C 30.76 O 34.97 CB 28.68 OG 28.76
A TYR T 28 -90.7 -1.1 N 27.44 CA 27.24 C 27.2 O 28.94 CB 30.08 CG 37.15 CD1 39.52 CD2 36.17 CE1 40.07 CE2 34.76 CZ 35.82 OH 34.95
A ILE E 5 -108.1 124.9 N 26.37 CA 26.08 C 25.59 O 28.82 CB 24.41 CG1 27.26 CG2 23.82 CD1 27.01
A ARG E 79 -64.6 112.0 N 27.14 CA 29.75 C 31.12 O 29.78 CB 30.99 CG 33.82 CD 35.8 NE 45.01 CZ 44.46 NH1 41.88 NH2 42.85
A LYS E 123 -62.0 -26.1 N 32.36 CA 36.2 C 33.73 O 31.77 CB 35.27 CG 43.43 CD 43.8 CE 54.55 NZ 57.71
A ASP E 81 -94.8 7.9 N 31.64 CA 31.58 C 29.05 O 30.27 CB 33.82 CG 37.26 OD1 43.74 OD2 48.18
A ARG E 41 -136.8 50.2 N 24.91 CA 23.56 C 22.83 O 21.62 CB 24.17 CG 30.66 CD 34.0 NE 37.15 CZ 33.76 NH1 36.21 NH2 43.47
A ILE E 4 -96.2 127.6 N 22.83 CA 19.48 C 18.54 O 20.31 CB 19.47 CG1 24.01 CG2 16.71 CD1 21.53
A VAL E 0 -115.0 145.1 N 20.17 CA 20.09 C 18.68 O 18.03 CB 20.97 CG1 20.99 CG2 18.98
A ILE E 0 -114.7 127.9 N 18.83 CA 19.95 C 19.13 O 19.88 CB 19.18 CG1 17.1 CG2 18.85 CD1 23.24
A SER E 0 -122.3 115.6 N 18.89 CA 18.09 C 20.43 O 20.03 CB 18.54 OG 21.2
A GLY E 0 -114.7 136.2 N 17.99 CA 18.58 C 20.16 O 20.8
A PHE E 23 -108.3 128.0 N 18.07 CA 18.96 C 19.39 O 15.36 CB 17.3 CG 18.54 CD1 19.79 CD2 19.48 CE1 17.66 CE2 20.85 CZ 19.08
A SER G 21 56.3 -126.8 N 17.67 CA 19.22 C 19.19 O 18.75 CB 19.15 OG 31.65
A LEU G 6 -42.5 -37.5 N 18.31 CA 15.75 C 15.5 O 16.28 CB 16.65 CG 16.16 CD1 12.6 CD2 17.1
A GLY G 0 -58.7 -16.7 N 16.81 CA 16.73 C 17.07 O 16.55
A THR H 2 -69.1 -20.8 N 17.46 CA 17.62 C 16.55 O 15.22 CB 18.76 OG1 18.82 CG2 16.57
A GLU H 15 -72.9 -53.6 N 17.32 CA 17.32 C 18.61 O 16.8 CB 18.92 CG 18.21 CD 23.19 OE1 25.35 OE2 22.61
A PRO H 0 -61.8 -31.2 N 19.11 CA 16.65 C 17.76 O 21.52 CB 19.17 CG 20.41 CD 16.15
A VAL H 2 -62.1 -49.9 N 15.94 CA 17.22 C 16.61 O 17.56 CB 15.4 CG1 19.3 CG2 13.57
A LEU H 0 -61.5 -40.7 N 18.24 CA 20.41 C 20.0 O 20.54 CB 22.41 CG 26.47 CD1 19.81 CD2 22.13
A GLY H 0 -62.2 -42.9 N 20.49 CA 21.23 C 19.83 O 20.34
A VAL H 8 -65.2 -41.3 N 17.55 CA 18.39 C 21.29 O 19.55 CB 16.72 CG1 17.66 CG2 18.08
A LEU H 21 -76.8 -28.9 N 21.1 CA 21.06 C 22.13 O 25.92 CB 21.48 CG 18.51 CD1 20.22 CD2 27.22
A ASP - 15 -120.7 100.1 N 22.19 CA 20.67 C 22.13 O 22.19 CB 18.72 CG 30.27 OD1 26.49 OD2 32.75
A LYS T 86 -68.0 -13.7 N 24.25 CA 28.18 C 28.34 O 27.51 CB 27.48 CG 35.62
A ASP T 114 -84.1 -7.7 N 27.46 CA 28.92 C 25.97 O 27.51 CB 32.21 CG 37.69 OD1 43.79 OD2 48.64
A ILE - 3 -60.4 139.1 N 22.38 CA 20.42 C 17.49 O 20.11 CB 18.37 CG1 23.74 CG2 19.67 CD1 22.27
A TYR - 55 -84.7 -40.6 N 18.48 CA 20.2 C 22.78 O 21.64 CB 20.75 CG 22.42 CD1 27.65 CD2 25.72 CE1 25.91 CE2 29.48 CZ 29.6 OH 38.3
A ALA E 0 -156.1 163.9 N 22.05 CA 22.39 C 23.38 O 20.45 CB 19.33
A PHE E 0 -135.2 143.6 N 21.39 CA 17.89 C 18.7 O 17.56 CB 19.22 CG 22.29 CD1 21.99 CD2 16.24 CE1 18.24 CE2 18.67 CZ 19.1
A VAL E 0 -117.4 113.6 N 16.51 CA 16.33 C 19.29 O 17.89 CB 16.79 CG1 16.77 CG2 16.0
A TYR E 2 -104.3 85.4 N 18.27 CA 14.73 C 16.97 O 16.24 CB 14.28 CG 13.24 CD1 16.75 CD2 22.52 CE1 20.95 CE2 21.07 CZ 17.98 OH 17.66
A ASN E 0 -95.6 67.4 N 16.85 CA 17.01 C 16.98 O 16.52 CB 17.72 CG 19.53 OD1 19.08 ND2 18.58
A ASP S 33 -162.7 156.9 N 18.19 CA 18.68 C 18.06 O 19.19 CB 19.64 CG 25.5 OD1 23.45 OD2 25.2
A PHE - 12 -65.3 146.5 N 18.12 CA 17.29 C 18.2 O 18.45 CB 17.97 CG 17.54 CD1 19.31 CD2 16.8 CE1 20.76 CE2 19.2 CZ 18.66
A LEU B 2 -82.5 113.5 N 16.74 CA 16.3 C 17.65 O 18.49 CB 16.44 CG 17.42 CD1 13.75 CD2 16.84
A CYS - 6 -108.8 133.9 N 16.81 CA 16.34 C 16.47 O 17.49 CB 16.35 SG 17.11
A GLN - 38 -95.5 92.9 N 16.89 CA 16.62 C 17.38 O 14.28 CB 17.82 CG 13.7 CD 19.81 OE1 16.98 NE2 22.37
A THR H 12 -73.6 -24.4 N 16.68 CA 14.79 C 14.85 O 15.22 CB 15.52 OG1 14.16 CG2 12.4
A GLN H 13 -66.6 -50.5 N 14.1 CA 15.43 C 14.39 O 12.54 CB 15.42 CG 16.99 CD 15.4 OE1 20.38 NE2 21.21
A GLU H 20 -55.8 -43.2 N 15.53 CA 14.04 C 13.49 O 14.96 CB 14.19 CG 13.24 CD 14.69 OE1 15.34 OE2 17.18
A ARG H 32 -56.4 -47.7 N 14.72 CA 14.47 C 16.91 O 16.99 CB 13.72 CG 16.73 CD 15.4 NE 15.07 CZ 18.62 NH1 18.4 NH2 20.55
A ALA H 6 -63.7 -33.0 N 16.65 CA 14.15 C 16.27 O 17.78 CB 15.5
A VAL H 14 -72.2 -40.6 N 15.93 CA 16.28 C 15.68 O 15.04 CB 18.76 CG1 17.54 CG2 13.22
A VAL H 3 -90.2 -24.3 N 14.87 CA 15.5 C 16.39 O 15.97 CB 14.58 CG1 11.74 CG2 13.54
A THR - 0 -115.6 0.1 N 19.63 CA 18.29 C 19.74 O 17.97 CB 19.75 OG1 21.03 CG2 14.99
A LYS - 58 -68.4 125.7 N 19.64 CA 19.69 C 18.94 O 18.36 CB 20.21 CG 22.87 CD 23.24 CE 32.17 NZ 35.25
A PRO - 24 -62.1 146.1 N 19.79 CA 21.85 C 24.99 O 25.29 CB 21.44 CG 26.04 CD 22.81
A ASP - 63 -92.0 -168.4 N 23.67 CA 25.1 C 26.44 O 23.38 CB 26.0 CG 23.73 OD1 26.13 OD2 24.86
A LYS T 98 -63.8 -25.0 N 29.27 CA 32.05 C 34.17 O 35.66 CB 36.68
A GLU T 148 -89.3 3.5 N 33.17 CA 31.1 C 30.03 O 28.45 CB 31.6 CG 40.59 CD 46.53 OE1 47.18 OE2 52.03
A ASN S 104 63.9 35.4 N 28.17 CA 27.35 C 23.65 O 23.31 CB 28.34 CG 38.08 OD1 39.18 ND2 38.24
A ARG - 179 -113.3 161.1 N 21.68 CA 18.6 C 20.29 O 18.62 CB 21.59 CG 22.37 CD 22.42 NE 26.19 CZ 24.59 NH1 22.18 NH2 29.16
A ARG - 76 -109.0 86.7 N 18.38 CA 16.53 C 18.06 O 18.33 CB 14.76 CG 14.95 CD 13.92 NE 18.66 CZ 21.85 NH1 19.86 NH2 16.26
A PRO - 55 -64.1 140.1 N 16.28 CA 16.36 C 16.44 O 16.12 CB 17.39 CG 19.72 CD 17.54
A PHE - 124 -68.4 148.0 N 16.52 CA 17.27 C 17.45 O 17.27 CB 15.1 CG 15.48 CD1 14.24 CD2 13.41 CE1 15.52 CE2 14.76 CZ 15.51
A PRO S 31 -55.8 -28.2 N 15.15 CA 15.02 C 15.25 O 15.03 CB 15.56 CG 14.41 CD 16.83
A ASN S 45 -153.2 174.8 N 15.8 CA 15.24 C 16.52 O 15.59 CB 16.08 CG 16.27 OD1 14.63 ND2 17.59
A SER - 46 -90.7 179.2 N 15.25 CA 15.77 C 16.19 O 13.24 CB 18.69 OG 14.72
A ILE G 65 -64.4 -9.7 N 14.51 CA 13.41 C 13.66 O 16.44 CB 9.86 CG1 14.3 CG2 11.25 CD1 14.71
A ARG G 31 -55.0 -26.3 N 15.96 CA 15.1 C 15.51 O 16.55 CB 15.31 CG 14.89 CD 15.95 NE 16.12 CZ 15.98 NH1 16.84 NH2 16.59
A HIS G 34 -103.4 10.1 N 15.44 CA 13.98 C 15.54 O 16.71 CB 14.99 CG 15.04 ND1 13.53 CD2 18.52 CE1 15.62 NE2 17.01
A LEU - 76 -89.6 114.4 N 13.02 CA 14.84 C 16.07 O 16.51 CB 14.61 CG 13.58 CD1 13.05 CD2 13.45
A ILE - 12 -121.2 102.8 N 14.2 CA 14.19 C 16.49 O 15.98 CB 17.17 CG1 17.25 CG2 15.11 CD1 15.01
A PRO T 75 -54.8 132.1 N 14.53 CA 16.36 C 18.3 O 15.06 CB 16.74 CG 14.87 CD 17.46
A GLY T 35 84.5 -0.7 N 18.53 CA 17.91 C 19.38 O 19.96
A TYR G 18 -56.5 -49.6 N 16.12 CA 16.2 C 16.05 O 17.24 CB 17.92 CG 16.73 CD1 18.31 CD2 19.13 CE1 18.94 CE2 20.28 CZ 22.51 OH 19.49
A TRP G 58 -67.5 -14.2 N 16.21 CA 17.66 C 18.81 O 17.99 CB 15.6 CG 13.66 CD1 16.37 CD2 16.13 NE1 16.85 CE2 14.51 CE3 18.35 CZ2 15.73 CZ3 15.82 CH2 15.23
A ARG G 116 -70.1 -19.8 N 17.26 CA 19.17 C 17.07 O 20.23 CB 18.6 CG 24.84 CD 29.39 NE 39.92
A TYR T 38 -108.3 -43.2 N 15.62 CA 15.83 C 17.72 O 18.06 CB 20.52 CG 20.77 CD1 21.45 CD2 22.37 CE1 26.42 CE2 22.33 CZ 32.41 OH 27.99
A PHE - 0 -171.2 174.8 N 16.99 CA 16.62 C 18.14 O 17.4 CB 17.29 CG 19.11 CD1 16.65 CD2 16.29 CE1 19.66 CE2 19.88 CZ 17.23
A ASN - 3 -124.0 169.4 N 15.36 CA 14.93 C 15.31 O 16.46 CB 16.52 CG 20.71 OD1 16.53 ND2 14.82
A PHE H 18 -55.4 -41.6 N 15.38 CA 15.47 C 17.2 O 15.57 CB 17.71 CG 15.7 CD1 17.05 CD2 19.3 CE1 19.58 CE2 18.85 CZ 13.79
A PRO H 1 -60.7 -38.3 N 15.61 CA 16.88 C 14.86 O 17.51 CB 13.52 CG 14.81 CD 15.81
A ASP H 10 -66.2 -40.8 N 15.92 CA 17.29 C 17.45 O 15.82 CB 16.32 CG 21.14 OD1 19.93 OD2 22.61
A VAL H 0 -65.9 -50.9 N 14.98 CA 15.31 C 15.28 O 17.68 CB 15.25 CG1 16.78 CG2 12.83
A VAL H 0 -65.7 -34.8 N 17.93 CA 17.57 C 18.43 O 19.51 CB 19.63 CG1 20.61 CG2 13.94
A ALA H 0 -55.9 -37.6 N 19.04 CA 19.1 C 19.5 O 20.75 CB 15.91
A SER T 9 -71.0 -10.1 N 17.26 CA 16.66 C 17.72 O 21.8 CB 19.56 OG 17.17
A LEU T 0 -74.1 -11.1 N 17.8 CA 18.12 C 19.93 O 18.66 CB 16.71 CG 15.67 CD1 18.09 CD2 12.13
A ALA T 2 -54.9 144.4 N 20.39 CA 21.96 C 21.37 O 19.02 CB 19.88
A PRO T 57 -90.7 16.1 N 22.5 CA 21.8 C 23.06 O 21.48 CB 22.52 CG 22.57 CD 23.01
A ARG S 24 -59.1 130.7 N 22.81 CA 20.3 C 19.85 O 19.15 CB 19.72 CG 17.92 CD 21.99 NE 20.34 CZ 22.31 NH1 22.28 NH2 16.54
A PRO - 13 -48.9 132.4 N 19.64 CA 20.1 C 23.8 O 19.59 CB 18.04 CG 20.92 CD 20.36
A ILE E 0 -145.1 138.1 N 19.65 CA 18.44 C 19.7 O 22.34 CB 15.2 CG1 16.93 CG2 13.28 CD1 16.88
A ILE E 0 -119.7 133.8 N 18.08 CA 17.16 C 18.49 O 19.75 CB 18.21 CG1 19.6 CG2 16.23 CD1 18.47
A PHE E 0 -110.9 119.4 N 18.0 CA 14.66 C 17.69 O 19.06 CB 16.25 CG 18.66 CD1 16.92 CD2 18.13 CE1 18.45 CE2 15.8 CZ 16.58
A THR - 1 -109.6 -0.3 N 16.1 CA 16.52 C 17.57 O 17.56 CB 16.94 OG1 18.91 CG2 15.84
A GLU S 0 -141.3 42.9 N 18.34 CA 19.85 C 18.91 O 18.5 CB 19.99 CG 20.43 CD 23.54 OE1 19.36 OE2 19.6
A GLY - 0 64.0 -156.3 N 18.68 CA 17.08 C 18.21 O 17.93
A GLY B 0 134.4 -169.7 N 17.76 CA 16.48 C 18.13 O 16.08
A LEU - 2 -77.7 141.8 N 18.58 CA 17.12 C 17.06 O 17.18 CB 18.17 CG 16.07 CD1 17.31 CD2 15.11
A ASP H 16 -52.4 -37.3 N 18.66 CA 15.59 C 14.32 O 16.45 CB 19.5 CG 21.25 OD1 24.47 OD2 18.43
A ARG H 29 -54.1 -42.6 N 15.29 CA 14.93 C 16.5 O 17.14 CB 15.94 CG 15.42 CD 14.43 NE 15.84 CZ 16.02 NH1 14.4 NH2 16.18
A ASP H 5 -78.9 -34.6 N 15.89 CA 18.64 C 20.36 O 21.89 CB 18.23 CG 18.49 OD1 16.51 OD2 18.19
A PHE H 14 -62.4 -39.4 N 17.57 CA 18.98 C 19.31 O 17.98 CB 19.56 CG 20.12 CD1 20.42 CD2 21.36 CE1 21.91 CE2 24.84 CZ 20.19
A ARG H 99 -62.7 -38.4 N 19.14 CA 19.05 C 18.52 O 18.55 CB 20.25 CG 28.24 CD 22.55 NE 24.07 CZ 22.56 NH1 22.89 NH2 24.32
A LEU H 33 -62.0 -51.1 N 19.42 CA 16.57 C 14.86 O 17.77 CB 18.23 CG 21.3 CD1 23.59 CD2 21.92
A VAL H 0 -61.8 -41.4 N 19.27 CA 17.95 C 19.87 O 19.64 CB 18.29 CG1 14.76 CG2 19.05
A GLN H 70 -60.3 -41.2 N 21.55 CA 21.03 C 19.29 O 22.51 CB 23.46 CG 27.4 CD 38.82 OE1 36.44 NE2 45.0
A SER H 39 -61.4 -43.0 N 19.22 CA 18.49 C 22.62 O 19.09 CB 16.49 OG 19.55
A ALA H 0 -64.5 -44.2 N 19.54 CA 20.35 C 18.54 O 22.53 CB 17.82
A TYR H 0 -60.5 -37.3 N 19.1 CA 20.53 C 21.48 O 22.87 CB 20.18 CG 21.04 CD1 25.62 CD2 22.22 CE1 21.73 CE2 19.98 CZ 24.04 OH 19.64
A ALA H 53 -65.3 -43.6 N 21.15 CA 21.04 C 21.9 O 21.31 CB 19.75
A ALA H 46 -63.2 -30.2 N 20.33 CA 21.97 C 23.63 O 24.08 CB 20.89
A SER T 32 -78.6 -13.4 N 23.52 CA 25.02 C 27.64 O 29.05 CB 23.41 OG 21.14
A GLY T 51 98.1 0.9 N 28.94 CA 28.38 C 28.83 O 31.44
A LYS - 99 -132.6 65.8 N 27.88 CA 25.76 C 25.93 O 23.13 CB 26.22 CG 26.88 CD 35.06 CE 43.31 NZ 44.06
A PRO G 52 -56.9 -31.2 N 25.01 CA 25.37 C 24.16 O 26.22 CB 25.8 CG 25.48 CD 25.64
A GLU G 124 -74.5 -10.5 N 23.63 CA 21.69 C 20.35 O 23.0 CB 23.62 CG 24.21 CD 26.96 OE1 28.78 OE2 28.54
A ASN G 41 -76.2 -19.5 N 21.46 CA 22.02 C 23.0 O 23.61 CB 20.69 CG 26.35 OD1 23.44 ND2 19.74
A ALA E 6 -97.0 125.3 N 22.26 CA 21.89 C 22.93 O 24.33 CB 19.53
A GLU E 78 -119.7 133.4 N 22.64 CA 22.67 C 22.89 O 20.48 CB 23.55 CG 25.37 CD 25.38 OE1 33.16 OE2 26.26
A PHE E 48 -118.8 134.0 N 21.42 CA 18.48 C 20.15 O 21.13 CB 19.93 CG 16.34 CD1 22.16 CD2 20.1 CE1 17.55 CE2 20.31 CZ 21.08
A HIS - 48 -134.5 147.7 N 17.0 CA 16.94 C 18.61 O 18.41 CB 16.58 CG 24.31 ND1 23.39 CD2 21.73 CE1 25.7 NE2 24.2
A HIS - 28 -100.4 164.1 N 16.97 CA 18.81 C 17.61 O 18.23 CB 19.26 CG 21.35 ND1 15.55 CD2 21.57 CE1 16.07 NE2 21.84
A TYR - 2 -62.1 143.8 N 19.56 CA 19.79 C 20.33 O 20.46 CB 21.64 CG 19.77 CD1 21.24 CD2 23.53 CE1 22.19 CE2 20.82 CZ 19.85 OH 21.32
A PRO G 100 -47.5 -43.0 N 20.4 CA 21.21 C 21.14 O 20.65 CB 20.9 CG 20.84 CD 21.65
A LYS G 136 -53.8 -31.2 N 22.13 CA 20.79 C 20.27 O 21.21 CB 21.38 CG 23.45 CD 21.84 CE 29.95 NZ 32.41
A PHE G 21 -116.7 16.0 N 18.9 CA 18.5 C 19.54 O 18.74 CB 19.98 CG 17.76 CD1 25.1 CD2 18.28 CE1 23.03 CE2 16.59 CZ 19.63
A ALA - 63 -64.6 -27.2 N 19.05 CA 18.87 C 18.03 O 21.27 CB 18.54
A ASP S 99 -87.8 113.7 N 18.58 CA 20.65 C 18.9 O 20.35 CB 22.4 CG 23.13 OD1 22.85 OD2 22.56
A LYS G 99 -58.2 -23.5 N 20.35 CA 22.08 C 24.9 O 23.52 CB 22.23 CG 21.03 CD 19.78 CE 21.01 NZ 17.74
A ALA G 88 -58.5 -24.5 N 27.39 CA 25.87 C 23.1 O 23.0 CB 27.24
A VAL G 83 -94.7 -3.1 N 21.81 CA 20.34 C 21.44 O 21.43 CB 23.24 CG1 20.32 CG2 22.63
A ARG S 34 -100.6 158.6 N 20.99 CA 19.63 C 19.01 O 18.54 CB 18.77 CG 17.59 CD 16.16 NE 15.67 CZ 15.15 NH1 20.36 NH2 17.92
A LYS - 136 -112.5 106.9 N 18.83 CA 20.28 C 20.69 O 18.24 CB 21.31 CG 25.55 CD 29.28 CE 35.46
A ASP - 53 -91.2 96.5 N 18.45 CA 19.07 C 20.69 O 18.95 CB 19.62 CG 27.29 OD1 20.54 OD2 19.34
A VAL - 56 -120.8 151.5 N 18.85 CA 19.43 C 19.59 O 19.13 CB 20.74 CG1 20.7 CG2 19.44
A GLU S 105 -78.5 -24.3 N 19.15 CA 19.55 C 22.42 O 22.58 CB 21.84 CG 21.36 CD 26.23 OE1 27.35 OE2 28.42
A HIS S 148 -140.9 133.7 N 20.07 CA 20.83 C 20.32 O 20.91 CB 20.24 CG 27.9 ND1 26.61 CD2 26.3 CE1 31.5 NE2 35.15
A LEU - 18 -75.5 153.1 N 18.72 CA 17.43 C 18.81 O 17.56 CB 17.99 CG 18.14 CD1 17.27 CD2 19.13
A ASP - 130 -77.0 148.3 N 16.8 CA 19.12 C 20.24 O 18.47 CB 18.25 CG 26.56 OD1 20.78 OD2 25.84
A GLU S 48 -80.3 170.9 N 17.95 CA 18.39 C 18.11 O 20.08 CB 18.43 CG 20.97 CD 23.91 OE1 28.33 OE2 29.14
A GLY - 14 86.8 22.1 N 17.36 CA 18.63 C 18.31 O 20.24
A LEU - 25 -90.1 159.1 N 20.56 CA 18.23 C 20.53 O 17.59 CB 20.1 CG 15.66 CD1 14.42 CD2 18.97
A ASP - 46 -117.1 -178.7 N 18.87 CA 18.57 C 16.53 O 15.89 CB 19.93 CG 28.54 OD1 23.64 OD2 29.44
A SER H 63 -55.5 -43.3 N 16.49 CA 18.02 C 19.7 O 16.32 CB 19.88 OG 25.84
A LYS H 134 -64.3 -50.0 N 20.52 CA 21.04 C 18.81 O 21.03 CB 21.54 CG 25.86 CD 27.01 CE 27.3 NZ 37.66
A THR H 42 -71.1 -28.9 N 19.73 CA 18.5 C 19.41 O 16.76 CB 18.58 OG1 22.57 CG2 17.64
A TYR H 4 -67.0 -50.4 N 17.59 CA 17.98 C 16.53 O 16.67 CB 16.8 CG 14.11 CD1 13.64 CD2 16.15 CE1 15.54 CE2 13.23 CZ 14.11 OH 18.12
A PHE H 57 -56.3 -39.0 N 16.96 CA 16.56 C 19.59 O 19.71 CB 18.09 CG 18.73 CD1 22.93 CD2 25.84 CE1 24.85 CE2 28.27 CZ 21.93
A GLU H 93 -60.6 -45.8 N 19.45 CA 19.57 C 19.9 O 20.9 CB 19.31 CG 25.31 CD 25.47 OE1 27.13 OE2 26.79
A ALA H 28 -64.2 -34.5 N 19.24 CA 17.79 C 16.02 O 17.12 CB 16.37
A VAL T 3 -99.9 10.3 N 16.57 CA 16.98 C 19.24 O 15.92 CB 19.2 CG1 18.99 CG2 16.26
A ASN T 2 70.1 42.3 N 18.06 CA 16.84 C 17.74 O 22.23 CB 15.2 CG 15.42 OD1 17.74 ND2 18.46
A VAL - 9 -109.6 135.4 N 18.06 CA 19.24 C 22.96 O 21.21 CB 21.39 CG1 15.79 CG2 20.16
A ASP - 27 -121.2 81.8 N 24.44 CA 23.11 C 20.59 O 20.72 CB 23.63 CG 25.08 OD1 25.83 OD2 27.23
A PRO G 62 -50.0 -39.3 N 21.09 CA 20.8 C 21.23 O 18.41 CB 22.82 CG 20.54 CD 19.99
A PRO G 114 -62.9 -14.4 N 21.85 CA 22.84 C 22.72 O 22.42 CB 23.46 CG 25.41 CD 24.24
A SER G 39 -103.8 15.8 N 21.58 CA 21.2 C 22.07 O 21.76 CB 22.72 OG 26.99
A HIS - 55 -78.4 117.6 N 20.65 CA 19.34 C 19.45 O 19.78 CB 18.11 CG 16.67 ND1 17.6 CD2 19.25 CE1 23.3 NE2 19.86
A TYR S 48 -174.4 164.7 N 17.99 CA 18.08 C 20.5 O 19.54 CB 19.66 CG 23.84 CD1 23.82 CD2 22.65 CE1 27.86 CE2 24.48 CZ 25.76 OH 26.75
A PHE - 2 -67.2 117.0 N 17.78 CA 20.65 C 19.86 O 19.2 CB 19.73 CG 23.03 CD1 19.74 CD2 20.95 CE1 23.35 CE2 17.13 CZ 22.09
A LYS - 4 -80.9 72.5 N 20.7 CA 18.73 C 18.81 O 19.69 CB 17.77 CG 15.18 CD 16.55 CE 22.61 NZ 17.9
A ASN H 23 -55.0 -41.0 N 19.9 CA 21.46 C 21.14 O 21.51 CB 23.49 CG 20.56 OD1 26.21 ND2 24.92
A GLU H 104 -56.2 -25.1 N 21.0 CA 23.34 C 23.97 O 24.49 CB 25.64 CG 24.9 CD 28.33 OE1 22.66 OE2 23.98
A LEU H 49 -102.2 -37.9 N 22.01 CA 19.77 C 21.06 O 19.77 CB 18.95 CG 18.61 CD1 17.05 CD2 22.77
A VAL H 0 -76.2 -43.5 N 18.43 CA 18.96 C 17.75 O 17.74 CB 18.86 CG1 18.07 CG2 16.58
A ILE H 22 -58.6 -51.8 N 19.04 CA 21.88 C 23.0 O 23.4 CB 23.93 CG1 28.7 CG2 24.59 CD1 34.02
A PRO H 72 -61.7 -37.5 N 23.68 CA 23.94 C 22.99 O 19.85 CB 24.75 CG 25.49 CD 24.05
A TRP H 19 -63.1 -47.9 N 21.7 CA 20.81 C 22.96 O 21.12 CB 21.0 CG 18.83 CD1 21.3 CD2 18.0 NE1 18.97 CE2 18.0 CE3 22.09 CZ2 23.43 CZ3 19.66 CH2 20.53
A LEU H 0 -60.4 -41.4 N 22.49 CA 21.43 C 21.18 O 20.67 CB 20.13 CG 19.38 CD1 21.69 CD2 19.64
A ARG H 115 -53.4 -39.6 N 23.42 CA 27.97 C 28.78 O 29.58 CB 28.15 CG 35.88 CD 34.88 NE 30.84 CZ 40.39
A LYS H 173 -79.3 -47.8 N 26.32 CA 26.47 C 25.17 O 24.07 CB 27.14 CG 30.07 CD 27.88 CE 37.51 NZ 32.09
A VAL H 26 -70.5 -30.1 N 24.81 CA 24.08 C 24.54 O 24.63 CB 26.42 CG1 25.95 CG2 23.73
A LEU T 12 -81.0 -9.6 N 26.44 CA 31.58 C 37.91 O 40.15 CB 30.91 CG 27.52 CD1 24.87 CD2 26.42
A LYS - 130 -59.0 360.0 N 42.26 CA 45.35 C 48.6 O 52.06 CB 44.58 CG 41.6 OXT 51.12
