A ASN - 100 360.0 -53.3 N 53.72 CA 53.33 C 52.9 O 53.81 CB 53.12
A ALA H 85 -42.0 -51.8 N 51.41 CA 49.89 C 49.01 O 49.23 CB 49.73
A GLU H 41 -56.1 -66.3 N 45.98 CA 45.63 C 45.39 O 45.88 CB 45.7
A LEU H 19 -43.8 -49.8 N 44.11 CA 43.47 C 43.81 O 44.04 CB 42.73 CG 40.89 CD1 38.08 CD2 39.95
A GLU H 108 -57.2 -47.3 N 44.21 CA 44.62 C 44.42 O 44.57 CB 44.47 CG 47.65 CD 53.3 OE1 55.36 OE2 55.49
A GLN H 30 -63.4 -44.2 N 43.89 CA 43.01 C 42.3 O 41.9 CB 43.25 CG 43.16 CD 42.2 OE1 41.29 NE2 42.73
A LYS H 44 -61.5 -39.7 N 41.23 CA 40.67 C 39.97 O 40.22 CB 40.79 CG 42.4 CD 45.05 CE 46.23 NZ 46.96
A LEU H 0 -69.7 -37.3 N 39.07 CA 37.86 C 37.34 O 36.86 CB 38.17 CG 38.9 CD1 39.01 CD2 38.1
A ASN H 47 -67.1 -39.2 N 37.19 CA 36.26 C 35.59 O 35.87 CB 35.87 CG 36.27 OD1 37.84 ND2 38.45
A LEU H 1 -60.0 -59.3 N 33.95 CA 32.94 C 32.79 O 32.73 CB 32.44 CG 31.25 CD1 27.99 CD2 29.55
A LEU H 0 -55.8 -34.4 N 32.05 CA 30.56 C 30.23 O 30.8 CB 30.03 CG 29.63 CD1 29.85 CD2 29.19
A ASN H 34 -62.4 -41.3 N 30.02 CA 30.67 C 31.36 O 30.55 CB 30.41 CG 29.68 OD1 33.14 ND2 27.09
A ASP H 6 -69.8 -44.1 N 31.81 CA 32.37 C 31.07 O 30.22 CB 33.46 CG 40.01 OD1 47.24 OD2 47.4
A LEU H 1 -52.4 -47.0 N 30.08 CA 30.32 C 30.69 O 30.49 CB 30.02 CG 30.95 CD1 32.63 CD2 30.56
A ILE H 22 -63.1 -67.1 N 30.27 CA 30.67 C 31.75 O 32.89 CB 30.65 CG1 30.82 CG2 28.74 CD1 30.17
A VAL H 80 -60.7 -45.8 N 32.82 CA 33.55 C 34.55 O 34.78 CB 33.34 CG1 34.45 CG2 31.47
A ARG T 107 -89.7 7.7 N 35.89 CA 36.3 C 36.49 O 35.97 CB 36.39 CG 37.96 CD 43.1 NE 50.68 CZ 54.27 NH1 56.17 NH2 56.82
A GLU T 94 41.5 66.6 N 37.0 CA 36.89 C 35.42 O 35.0 CB 37.44 CG 42.15 CD 48.09 OE1 51.09 OE2 49.67
A ILE - 17 -135.8 171.5 N 33.99 CA 32.9 C 32.59 O 32.73 CB 33.12 CG1 33.95 CG2 30.76 CD1 34.02
A VAL - 6 -118.6 165.1 N 32.28 CA 32.25 C 32.77 O 33.34 CB 31.84 CG1 32.74 CG2 29.79
A ASN - 0 -107.5 102.4 N 32.61 CA 32.89 C 33.06 O 32.86 CB 33.13 CG 31.91 OD1 32.33 ND2 29.88
A PRO - 20 -66.7 59.5 N 33.72 CA 34.74 C 35.81 O 35.86 CB 34.05 CG 33.54 CD 33.4
A LEU - 12 -85.2 144.8 N 38.04 CA 39.95 C 41.24 O 40.57 CB 39.73 CG 41.06 CD1 42.57 CD2 42.34
A PRO - 92 -68.5 145.8 N 42.53 CA 42.89 C 43.8 O 44.44 CB 42.97 CG 42.04 CD 42.55
A PRO S 84 -59.6 173.1 N 43.99 CA 44.03 C 44.29 O 44.89 CB 44.04 CG 44.44 CD 43.99
A PRO - 82 -75.4 154.5 N 44.07 CA 43.54 C 43.39 O 43.92 CB 43.31 CG 43.72 CD 43.54
A TYR - 47 -113.9 157.1 N 42.73 CA 41.69 C 41.37 O 41.67 CB 41.77 CG 42.62 CD1 43.56 CD2 43.47 CE1 44.8 CE2 43.8 CZ 44.71 OH 47.15
A LYS E 16 -115.5 135.3 N 40.51 CA 39.58 C 39.19 O 39.24 CB 39.88 CG 40.48 CD 42.42 CE 45.1 NZ 47.17
A VAL E 6 -120.7 144.8 N 38.51 CA 37.85 C 38.15 O 37.96 CB 37.72 CG1 37.48 CG2 37.91
A GLY E 1 -141.6 135.9 N 37.96 CA 38.06 C 38.93 O 38.87
A VAL E 1 -115.0 133.8 N 39.67 CA 40.71 C 41.88 O 41.9 CB 40.69 CG1 40.43 CG2 39.57
A ASP E 13 -111.5 111.0 N 42.83 CA 43.83 C 43.5 O 43.2 CB 44.85 CG 49.93 OD1 54.71 OD2 54.81
A LEU - 4 -84.9 147.4 N 43.47 CA 43.86 C 44.44 O 45.93 CB 43.7 CG 42.6 CD1 41.7 CD2 42.19
A GLY - 9 -165.1 165.0 N 43.79 CA 42.45 C 42.04 O 42.56
A THR S 41 -66.3 -35.8 N 40.22 CA 39.2 C 38.36 O 38.62 CB 39.39 OG1 39.97 CG2 40.79
A ALA S 31 -121.7 -16.8 N 37.23 CA 35.55 C 34.76 O 35.4 CB 35.71
A ASP E 21 -157.0 157.7 N 33.21 CA 31.82 C 31.18 O 31.19 CB 31.53 CG 32.09 OD1 28.68 OD2 33.76
A ILE E 0 -118.3 136.5 N 30.39 CA 30.24 C 30.51 O 30.16 CB 30.64 CG1 31.03 CG2 31.06 CD1 34.3
A VAL E 0 -131.2 136.5 N 30.52 CA 31.33 C 33.01 O 34.02 CB 31.08 CG1 30.04 CG2 28.96
A LEU E 0 -120.4 135.8 N 33.36 CA 33.46 C 33.5 O 33.82 CB 33.95 CG 35.0 CD1 35.62 CD2 38.0
A VAL E 0 -136.6 134.9 N 33.03 CA 32.93 C 33.67 O 34.12 CB 33.08 CG1 31.92 CG2 33.28
A VAL E 0 -119.8 141.0 N 33.72 CA 33.93 C 34.97 O 34.33 CB 34.0 CG1 33.18 CG2 32.69
A THR E 0 -140.1 160.6 N 36.56 CA 37.91 C 39.2 O 39.01 CB 37.86 OG1 38.65 CG2 35.78
A ASP - 21 -69.1 -178.4 N 41.33 CA 43.87 C 44.78 O 45.1 CB 44.44 CG 49.07 OD1 52.79 OD2 55.31
A GLN T 85 -69.5 -16.0 N 45.63 CA 46.39 C 46.26 O 46.7 CB 46.85 CG 49.72 CD 53.28 OE1 54.72 NE2 54.25
A GLU T 147 -101.0 14.6 N 46.34 CA 46.29 C 45.28 O 46.04 CB 47.18 CG 51.1 CD 57.29 OE1 61.15 OE2 59.49
A GLY - 1 76.2 9.9 N 43.9 CA 42.19 C 40.88 O 40.8
A ILE - 13 -76.0 129.2 N 39.52 CA 38.79 C 37.56 O 37.51 CB 38.78 CG1 38.68 CG2 39.82 CD1 38.28
A PRO E 0 -54.2 131.2 N 36.15 CA 35.36 C 34.78 O 34.37 CB 35.39 CG 35.9 CD 35.74
A VAL E 0 -113.1 -37.6 N 35.24 CA 34.66 C 34.62 O 35.04 CB 34.12 CG1 33.82 CG2 33.78
A ALA E 1 -163.7 158.8 N 34.15 CA 33.52 C 32.94 O 32.79 CB 33.51
A GLY E 6 -169.7 155.0 N 32.04 CA 31.33 C 31.49 O 30.86
A ALA E 1 -143.1 159.1 N 31.64 CA 31.61 C 32.02 O 32.13 CB 31.32
A LEU E 38 -144.0 130.8 N 32.1 CA 33.09 C 34.8 O 34.94 CB 32.69 CG 30.39 CD1 30.46 CD2 26.55
A LYS E 90 -118.0 137.0 N 36.4 CA 38.17 C 38.13 O 37.09 CB 39.11 CG 41.08 CD 45.62 CE 48.4 NZ 50.63
A TRP E 124 -75.1 119.8 N 39.03 CA 40.41 C 40.64 O 40.7 CB 40.72 CG 43.48 CD1 44.21 CD2 45.66 NE1 45.42 CE2 45.96 CE3 47.12 CZ2 46.92 CZ3 48.74 CH2 47.97
A ALA - 16 -165.5 126.0 N 40.85 CA 40.85 C 41.49 O 41.32 CB 40.51
A SER - 75 -90.2 69.3 N 42.34 CA 42.77 C 42.81 O 43.74 CB 42.78 OG 43.22
A VAL - 3 -102.0 0.2 N 42.67 CA 42.11 C 43.2 O 43.31 CB 41.43 CG1 40.72 CG2 38.82
A VAL - 9 -124.6 116.7 N 44.07 CA 44.69 C 45.68 O 45.82 CB 44.03 CG1 41.86 CG2 43.58
A LYS B 129 -125.0 104.3 N 46.17 CA 46.73 C 47.37 O 47.93 CB 46.37 CG 47.08 CD 48.13 CE 51.43 NZ 53.3
A ASP T 148 75.5 18.0 N 47.89 CA 48.48 C 47.95 O 48.45 CB 49.16 CG 51.02 OD1 53.29 OD2 53.56
A GLY T 9 86.9 -18.2 N 47.15 CA 47.46 C 47.59 O 47.3
A LEU B 55 -77.1 121.1 N 47.69 CA 47.37 C 47.16 O 47.76 CB 46.37
A VAL - 30 -62.4 87.2 N 45.55 CA 44.8 C 44.24 O 44.46 CB 45.17 CG1 44.37 CG2 44.11
A VAL T 79 -78.9 -9.7 N 43.98 CA 43.59 C 43.92 O 44.05 CB 43.35 CG1 43.6 CG2 42.16
A ASP T 82 -140.3 55.4 N 43.34 CA 43.33 C 43.03 O 43.81 CB 43.54 CG 46.8 OD1 50.06 OD2 51.01
A TYR H 75 -46.5 -40.4 N 42.58 CA 41.79 C 41.29 O 40.98 CB 41.43 CG 40.82 CD1 41.14 CD2 41.32 CE1 43.05 CE2 44.04 CZ 44.41 OH 43.6
A ILE H 101 -68.2 -53.9 N 40.88 CA 40.49 C 40.1 O 40.86 CB 40.91 CG1 41.33 CG2 40.34 CD1 40.36
A GLY H 9 -43.0 -44.3 N 39.44 CA 37.96 C 37.28 O 37.38
A ALA H 0 -50.1 -60.8 N 36.14 CA 36.03 C 37.0 O 37.39 CB 35.31
A ILE H 28 -58.9 -45.3 N 37.42 CA 36.75 C 37.34 O 36.69 CB 36.7 CG1 36.29 CG2 36.77 CD1 34.1
A GLN H 111 -47.5 -51.5 N 38.03 CA 39.8 C 40.11 O 40.49 CB 40.18 CG 43.09 CD 47.36 OE1 49.1 NE2 47.56
A ILE H 19 -63.3 -58.5 N 40.05 CA 39.46 C 38.87 O 38.94 CB 39.88 CG1 39.7 CG2 39.69 CD1 40.04
A VAL H 1 -51.8 -46.9 N 37.73 CA 37.43 C 38.83 O 38.87 CB 36.84 CG1 33.3 CG2 36.2
A ARG H 147 -54.5 -48.0 N 40.01 CA 40.06 C 40.42 O 40.57 CB 39.55 CG 40.28 CD 41.96 NE 42.91 CZ 44.07 NH1 44.27 NH2 45.91
A GLU H 81 -67.9 -32.3 N 40.94 CA 42.21 C 41.41 O 40.94 CB 42.81 CG 48.98 CD 58.68 OE1 60.44 OE2 61.21
A LEU H 3 -66.4 -56.3 N 40.32 CA 38.92 C 38.45 O 38.95 CB 38.77 CG 38.35 CD1 37.77 CD2 37.37
A LYS H 24 -46.5 -38.2 N 37.18 CA 36.17 C 36.08 O 36.69 CB 35.78 CG 34.9 CD 35.97 CE 37.02 NZ 37.99
A ALA H 44 -77.2 -36.1 N 35.46 CA 35.33 C 35.47 O 35.56 CB 35.13
A LYS H 44 -63.7 -50.2 N 36.27 CA 37.09 C 37.13 O 37.16 CB 37.36 CG 39.24 CD 41.71 CE 44.85 NZ 49.88
A VAL H 2 -62.4 -42.0 N 36.86 CA 36.39 C 36.9 O 37.57 CB 36.1 CG1 35.12 CG2 34.4
A GLU H 36 -61.6 -37.3 N 36.59 CA 36.31 C 36.06 O 35.74 CB 36.18 CG 37.82 CD 40.12 OE1 38.92 OE2 42.16
A ARG H 174 -68.6 -31.1 N 36.48 CA 37.79 C 38.26 O 37.7 CB 37.63 CG 42.04 CD 47.96 NE 53.47 CZ 53.81 NH1 53.78 NH2 51.78
A LEU H 44 -85.6 -40.6 N 39.38 CA 39.57 C 41.05 O 41.82 CB 38.85 CG 37.29 CD1 33.44 CD2 34.05
A LEU S 2 -76.4 166.0 N 42.15 CA 43.4 C 44.7 O 45.45 CB 43.06 CG 42.6 CD1 42.64 CD2 42.91
A GLY S 49 -56.1 -61.3 N 45.78 CA 47.29 C 47.64 O 47.36
A SER S 55 -100.4 -163.2 N 48.15 CA 49.07 C 49.4 O 49.62 CB 49.51 OG 50.27
A GLU - 103 -117.1 159.7 N 49.58 CA 50.17 C 49.36 O 49.37 CB 50.56 CG 54.57 CD 60.56 OE1 62.78 OE2 62.82
A LEU - 6 -106.6 142.8 N 48.27 CA 46.83 C 46.56 O 46.3 CB 46.44 CG 44.01 CD1 44.07 CD2 42.78
A PHE - 113 -112.8 -24.8 N 46.25 CA 46.24 C 46.56 O 46.93 CB 45.86 CG 46.94 CD1 47.57 CD2 47.01 CE1 47.36 CE2 46.57 CZ 47.67
A GLN E 96 -154.5 156.5 N 46.68 CA 47.25 C 47.58 O 47.94 CB 46.97 CG 48.13 CD 50.22 OE1 54.17 NE2 50.63
A ALA E 0 -148.9 155.9 N 47.97 CA 48.15 C 48.86 O 48.81 CB 47.4
A ALA E 0 -99.5 156.8 N 49.95 CA 51.03 C 52.06 O 52.87 CB 50.93
A THR E 1 -133.1 161.8 N 53.3 CA 54.28 C 55.06 O 54.91 CB 54.37 OG1 56.56 CG2 53.88
A ALA E 0 -94.5 126.6 N 56.26 CA 57.81 C 59.23 O 59.68 CB 57.27
A ILE - 25 -93.1 70.3 N 60.42 CA 61.31 C 62.15 O 62.13 CB 60.78
A PRO - 20 -38.5 139.8 N 63.31 CA 63.82 C 63.92 O 63.84 CB 64.04 CG 63.53 CD 63.48
A PRO S 33 -84.4 134.2 N 64.22 CA 63.96 C 63.64 O 63.81 CB 63.97 CG 63.98 CD 63.93
A GLY - 38 94.9 93.8 N 63.16 CA 62.66 C 62.26 O 62.12
A THR - 91 -178.4 360.0 N 61.87 CA 61.35 C 61.12 O 60.68 CB 61.33 OG1 60.23 CG2 60.6
A ASN - 206 360.0 38.2 N 58.47 CA 58.93 C 59.04 O 59.07 CB 59.04 CG 57.93 OD1 58.38 ND2 53.81
A ALA T 17 -98.8 25.5 N 59.36 CA 59.14 C 59.32 O 60.49 CB 58.48
A GLU T 51 -77.6 -8.4 N 58.87 CA 58.01 C 57.45 O 57.45 CB 58.26
A ALA H 28 -39.8 -14.6 N 56.85 CA 56.59 C 56.59 O 56.42 CB 55.99
A CYS H 3 -51.1 -81.1 N 56.67 CA 56.1 C 54.84 O 54.73 CB 56.21 SG 60.41
A GLY H 3 -34.6 -52.2 N 53.23 CA 51.33 C 49.94 O 49.81
A HIS H 116 -58.5 -34.4 N 48.25 CA 47.08 C 45.68 O 45.66 CB 47.87 CG 50.83 ND1 53.47 CD2 52.63 CE1 53.76 NE2 54.58
A VAL H 1 -61.4 -40.6 N 43.83 CA 41.91 C 40.87 O 40.5 CB 41.88 CG1 40.5 CG2 42.6
A VAL H 3 -68.6 -49.2 N 39.78 CA 38.67 C 37.69 O 36.94 CB 38.13
A ALA H 51 -56.2 -51.6 N 37.52 CA 36.94 C 36.96 O 37.87 CB 35.72
A GLY H 36 -58.1 -19.0 N 36.84 CA 36.85 C 37.42 O 37.61
A ALA T 1 -95.0 -3.6 N 38.23 CA 38.4 C 38.71 O 38.55 CB 38.11
A GLY T 47 102.7 30.7 N 38.74 CA 39.41 C 40.4 O 41.43
A LEU - 2 -120.8 119.9 N 40.56 CA 40.79 C 41.3 O 41.33 CB 40.54 CG 40.47 CD1 36.82 CD2 40.53
A GLU E 138 -66.2 123.3 N 41.91 CA 43.28 C 43.72 O 43.55 CB 43.2 CG 48.52 CD 55.04 OE1 58.3 OE2 55.54
A LEU E 73 -60.6 124.8 N 44.74 CA 45.23 C 45.95 O 45.79 CB 44.99 CG 45.65 CD1 47.08 CD2 43.98
A VAL E 52 -86.1 -35.7 N 46.64 CA 47.34 C 48.01 O 47.48 CB 47.03 CG1 46.76 CG2 47.12
A THR E 62 171.7 158.3 N 49.04 CA 50.21 C 51.61 O 52.24 CB 49.73 OG1 48.9 CG2 49.53
A LEU E 63 -96.1 148.4 N 52.91 CA 53.84 C 54.44 O 54.19 CB 54.29 CG 55.5 CD1 57.06 CD2 57.69
A VAL E 8 -124.2 153.6 N 55.47 CA 55.79 C 55.96 O 55.28 CB 55.54
A ASP - 99 -87.8 134.3 N 56.72 CA 57.41 C 57.08 O 57.21 CB 57.91 CG 60.17 OD1 62.37 OD2 60.67
A GLU H 24 -53.6 -48.1 N 56.44 CA 55.94 C 55.77 O 56.08 CB 55.93 CG 57.14 CD 58.41 OE1 58.95 OE2 60.03
A PRO H 19 -42.1 -50.8 N 55.45 CA 54.76 C 54.07 O 54.01 CB 54.76 CG 55.26 CD 55.53
A VAL H 41 -61.8 -36.2 N 53.74 CA 53.53 C 53.34 O 53.41 CB 52.97
A ALA H 0 -73.5 -71.8 N 53.02 CA 52.91 C 52.81 O 52.94 CB 52.66
A ALA H 0 -21.8 -57.5 N 52.39 CA 51.42 C 51.14 O 51.1 CB 51.32
A ALA H 15 -54.7 -57.7 N 50.54 CA 49.89 C 49.34 O 49.55 CB 49.98
A ARG H 112 -54.7 -43.9 N 48.75 CA 47.8 C 47.21 O 46.87 CB 47.39 CG 47.49 CD 50.39 NE 52.14 CZ 53.06 NH1 52.93 NH2 53.06
A ALA H 12 -57.6 -52.2 N 46.55 CA 45.75 C 45.14 O 44.87 CB 45.54
A LEU H 17 -59.9 -25.8 N 44.92 CA 44.64 C 45.09 O 45.52 CB 44.27 CG 44.94 CD1 46.06 CD2 44.92
A GLY T 53 66.3 31.2 N 45.28 CA 45.89 C 46.68 O 46.88
A ILE - 19 -102.1 121.5 N 46.97 CA 47.56 C 48.47 O 48.56 CB 46.95
A ASN S 104 -75.5 -51.8 N 49.61 CA 50.34 C 50.55 O 50.63 CB 50.23 CG 50.39 OD1 51.27 ND2 48.14
A ASP S 86 -113.8 123.7 N 50.69 CA 50.84 C 50.43 O 50.92 CB 51.0 CG 52.6 OD1 53.36 OD2 55.09
A GLY E 4 168.5 -173.6 N 49.63 CA 48.77 C 48.33 O 48.28
A ILE E 0 -121.1 135.6 N 47.98 CA 48.53 C 48.72 O 49.73 CB 48.84 CG1 50.39 CG2 49.22 CD1 51.68
A VAL E 10 -115.5 132.7 N 47.78 CA 46.89 C 46.55 O 46.49 CB 46.93 CG1 46.6 CG2 46.01
A VAL E 0 -126.8 85.4 N 46.59 CA 47.27 C 48.4 O 48.99 CB 47.05 CG1 46.26 CG2 46.06
A ASP E 25 -73.3 108.2 N 49.03 CA 49.38 C 48.99 O 49.58 CB 49.96 CG 52.93 OD1 55.31 OD2 55.84
A ILE E 1 -101.8 87.0 N 48.77 CA 48.84 C 49.42 O 49.98 CB 48.83 CG1 47.9 CG2 48.62 CD1 46.68
A GLY - 19 -66.9 -162.0 N 49.59 CA 49.61 C 50.2 O 50.84
A GLY S 16 -88.6 -33.8 N 51.13 CA 52.25 C 53.39 O 53.51
A GLY S 19 -117.8 -30.6 N 53.98 CA 54.19 C 54.18 O 54.08
A THR - 38 -131.9 151.0 N 54.0 CA 54.96 C 55.39 O 56.07 CB 54.79 OG1 54.48 CG2 55.64
A THR E 9 -88.5 167.0 N 54.91 CA 54.41 C 53.7 O 53.8 CB 54.84 OG1 55.37 CG2 54.59
A GLY E 13 -159.1 85.7 N 53.39 CA 53.61 C 54.17 O 54.28
A ILE E 4 -66.6 156.2 N 54.37 CA 54.33 C 54.58 O 54.82 CB 54.15 CG1 52.96 CG2 54.73 CD1 50.82
A ALA E 5 -168.2 152.4 N 54.7 CA 55.08 C 55.47 O 55.68 CB 54.8
A VAL E 5 -130.7 115.4 N 55.89 CA 56.37 C 57.01 O 57.35 CB 56.3 CG1 56.17 CG2 55.94
A ILE E 16 -112.6 144.1 N 57.93 CA 58.55 C 58.78 O 58.91 CB 58.29
A GLU E 32 -153.3 154.1 N 59.19 CA 59.37 C 59.48 O 59.3 CB 59.51
A LYS T 68 59.3 -37.4 N 59.76 CA 60.43 C 61.02 O 61.22
A GLY T 52 138.7 43.5 N 61.0 CA 60.8 C 60.72 O 60.8
A LYS E 53 -153.7 139.8 N 60.66 CA 60.56 C 60.61 O 60.93 CB 60.4
A ILE E 58 -69.1 73.6 N 60.66 CA 60.9 C 61.44 O 61.89 CB 60.47
A THR E 83 -69.4 -7.1 N 62.24 CA 62.16 C 62.53 O 62.88 CB 61.83 OG1 61.19 CG2 61.01
A ALA E 12 -172.9 146.1 N 62.57 CA 63.09 C 63.51 O 63.66 CB 63.04
A THR E 65 -148.3 153.1 N 63.74 CA 63.95 C 63.86 O 63.88 CB 64.34 OG1 64.79 CG2 64.48
A PHE - 72 -154.7 -173.9 N 64.01 CA 64.37 C 64.26 O 64.89 CB 64.8 CG 66.34 CD1 67.08 CD2 66.93 CE1 67.32 CE2 67.06 CZ 67.61
A ASP - 66 175.3 145.6 N 63.59 CA 63.02 C 62.3 O 62.55 CB 63.4 CG 65.27 OD1 67.36 OD2 65.45
A GLU B 32 -152.7 126.0 N 61.48 CA 61.18 C 60.99 O 61.13 CB 61.36
A PRO S 99 -45.8 50.4 N 60.88 CA 60.62 C 60.07 O 60.16 CB 60.73 CG 61.16 CD 60.83
A THR - 12 -132.2 153.9 N 59.49 CA 58.91 C 58.68 O 58.65 CB 58.62 OG1 57.86 CG2 58.85
A GLY - 0 174.3 -169.4 N 57.93 CA 56.83 C 55.87 O 55.82
A GLY H 4 -41.7 -30.5 N 54.67 CA 53.87 C 53.5 O 53.56
A THR H 45 -74.3 -41.7 N 52.97 CA 52.72 C 52.4 O 52.11 CB 52.93 OG1 52.65 CG2 52.31
A HIS H 67 -58.0 -51.0 N 52.53 CA 52.9 C 52.48 O 52.32 CB 53.63 CG 56.87 ND1 59.05 CD2 57.45 CE1 58.83 NE2 58.12
A LEU H 0 -42.2 -59.5 N 51.87 CA 51.38 C 51.04 O 51.28 CB 51.46 CG 51.21 CD1 51.29 CD2 51.14
A SER H 0 -61.4 -37.8 N 50.39 CA 50.0 C 49.41 O 49.25 CB 49.84 OG 51.05
A LEU H 86 -66.1 -53.2 N 48.34 CA 47.8 C 47.68 O 48.01 CB 47.94 CG 47.5 CD1 44.91 CD2 46.43
A VAL H 41 -55.0 -33.0 N 46.71 CA 45.7 C 45.64 O 45.84 CB 44.87
A LEU H 2 -73.6 -46.6 N 45.64 CA 45.86 C 46.12 O 45.75 CB 45.84 CG 46.18 CD1 46.63 CD2 47.38
A ALA H 10 -51.2 -52.8 N 46.87 CA 46.99 C 47.67 O 47.67 CB 46.71
A GLY H 60 -58.2 -56.5 N 48.18 CA 48.53 C 49.13 O 49.38
A SER H 81 -54.6 -50.9 N 49.46 CA 49.96 C 50.16 O 49.78 CB 50.02 OG 50.06
A TYR H 99 -78.9 -16.0 N 50.94 CA 52.04 C 52.17 O 52.22 CB 52.52 CG 55.18 CD1 56.46 CD2 56.4 CE1 57.84 CE2 56.97 CZ 58.31 OH 58.31
A LYS T 88 61.9 63.8 N 52.29 CA 52.27 C 52.25 O 52.61 CB 51.97
A ILE - 12 -137.9 138.8 N 51.82 CA 52.04 C 52.11 O 52.54 CB 51.93
A PRO - 85 -46.7 142.6 N 51.58 CA 51.12 C 51.52 O 51.65 CB 50.78 CG 50.51 CD 51.16
A PHE H 83 -57.2 -40.5 N 52.05 CA 53.02 C 53.46 O 53.51 CB 53.2 CG 54.25 CD1 54.83 CD2 53.65 CE1 54.81 CE2 53.43 CZ 53.68
A GLU H 76 -61.8 -54.9 N 53.81 CA 53.79 C 54.26 O 55.11 CB 52.99
A GLU H 103 -41.9 -50.0 N 54.43 CA 54.95 C 54.45 O 54.17 CB 55.25 CG 58.73 CD 64.12 OE1 65.95 OE2 65.06
A ALA H 1 -66.8 -40.8 N 54.0 CA 53.48 C 53.1 O 53.56 CB 53.63
A GLU H 42 -62.0 -44.6 N 52.58 CA 51.94 C 51.6 O 51.33 CB 51.82 CG 51.0 CD 50.92 OE1 51.55 OE2 50.95
A THR H 64 -52.4 -49.1 N 51.29 CA 51.06 C 50.93 O 51.41 CB 51.0
A ILE H 33 -56.9 -67.7 N 50.42 CA 49.65 C 49.36 O 49.82 CB 49.75 CG1 49.26 CG2 49.28 CD1 48.57
A LYS H 31 -38.3 -35.1 N 48.67 CA 48.78 C 49.39 O 49.61 CB 48.73 CG 48.02 CD 48.8 CE 49.68 NZ 50.04
A LYS H 85 -86.0 -36.8 N 50.17 CA 51.18 C 51.58 O 51.66 CB 51.38 CG 51.39 CD 50.69 CE 50.17 NZ 51.13
A ASP S 76 -47.0 123.9 N 51.71 CA 51.24 C 50.73 O 51.07 CB 51.23 CG 52.39 OD1 52.92 OD2 53.16
A PHE S 115 -74.5 -27.3 N 49.6 CA 48.3 C 48.73 O 48.64 CB 47.24 CG 44.15 CD1 41.56 CD2 41.85 CE1 40.33 CE2 39.78 CZ 39.29
A SER T 74 -49.6 -44.1 N 49.35 CA 49.7 C 50.22 O 50.22 CB 49.29
A ARG T 73 -83.8 -11.5 N 50.48 CA 50.71 C 50.78 O 50.87 CB 50.74 CG 52.57 CD 56.06 NE 59.24 CZ 60.74 NH1 61.34 NH2 61.2
A HIS H 5 -51.8 -41.6 N 51.09 CA 51.95 C 52.76 O 52.87 CB 51.72 CG 52.28 ND1 52.34 CD2 52.82 CE1 53.46 NE2 52.77
A ARG H 233 -51.0 -52.5 N 54.04 CA 55.05 C 55.12 O 55.11 CB 55.52 CG 57.55 CD 59.85 NE 62.29 CZ 65.26 NH1 66.27 NH2 65.75
A GLU H 91 -89.3 -12.0 N 55.28 CA 55.35 C 55.49 O 56.21 CB 55.52 CG 56.48 CD 58.88 OE1 59.59 OE2 60.03
A ILE H 6 -91.7 -3.3 N 55.25 CA 54.36 C 54.28 O 54.26 CB 53.63
A ARG H 80 -34.7 -46.0 N 54.41 CA 54.55 C 54.77 O 55.08 CB 54.48
A VAL H 30 -69.0 -29.9 N 54.15 CA 53.28 C 52.91 O 52.62 CB 53.13 CG1 52.71 CG2 52.9
A VAL H 7 -103.2 -3.4 N 52.65 CA 52.5 C 52.75 O 52.8 CB 52.34 CG1 52.45 CG2 52.07
A ARG H 83 -59.9 -46.3 N 52.72 CA 52.4 C 51.53 O 50.77 CB 52.92 CG 54.25 CD 56.88 NE 59.34 CZ 60.44 NH1 60.57 NH2 59.91
A PRO H 67 -46.2 -45.1 N 51.27 CA 51.34 C 51.79 O 51.6 CB 51.35 CG 51.09 CD 51.12
A VAL H 15 -59.0 -43.7 N 52.18 CA 52.32 C 52.86 O 52.81 CB 52.3 CG1 50.65 CG2 52.3
A ILE H 0 -61.6 -42.0 N 53.15 CA 53.42 C 54.16 O 54.28 CB 53.27 CG1 52.5 CG2 52.23 CD1 50.53
A GLU H 77 -52.8 -59.5 N 54.79 CA 55.78 C 56.18 O 55.98 CB 56.1 CG 56.99 CD 56.59 OE1 56.08 OE2 56.4
A LYS H 125 -46.4 -54.8 N 56.57 CA 57.02 C 56.92 O 56.44 CB 57.18 CG 58.55 CD 59.81 CE 60.77 NZ 61.37
A ALA H 0 -54.3 -46.0 N 56.96 CA 56.02 C 55.31 O 54.6 CB 56.09
A LEU H 70 -65.9 -31.6 N 54.82 CA 54.7 C 54.73 O 54.61 CB 54.44 CG 54.36 CD1 53.15 CD2 52.28
A ILE H 59 -64.4 -38.4 N 54.64 CA 54.38 C 54.81 O 54.76 CB 54.35 CG1 53.85 CG2 53.53 CD1 53.4
A VAL H 4 -74.3 -48.7 N 55.17 CA 55.7 C 56.26 O 56.1 CB 55.89 CG1 54.84 CG2 55.67
A LYS H 116 -38.7 -51.7 N 57.27 CA 58.36 C 59.04 O 58.71 CB 58.27 CG 58.58 CD 58.75 CE 59.09 NZ 58.44
A GLU H 112 -53.7 -56.7 N 60.16 CA 61.41 C 62.05 O 62.36 CB 61.37 CG 63.15 CD 66.02 OE1 66.78 OE2 66.66
A VAL H 32 -64.1 -25.8 N 62.57 CA 63.2 C 63.75 O 63.69 CB 63.37 CG1 63.66 CG2 63.28
A ILE T 5 -88.1 -6.3 N 64.41 CA 65.12 C 65.33 O 65.47 CB 65.48 CG1 65.71 CG2 64.95 CD1 67.33
A LYS T 144 -72.1 6.4 N 65.42 CA 65.17 C 65.03 O 65.3 CB 65.16 CG 65.41 CD 65.65 CE 65.74 NZ 64.16
A ASN T 129 -128.8 -9.0 N 64.76 CA 64.42 C 64.17 O 64.12 CB 64.44 CG 64.75 OD1 64.75 ND2 64.93
A TYR S 79 -119.1 148.6 N 63.7 CA 62.89 C 62.44 O 62.19 CB 62.84 CG 62.78 CD1 61.99 CD2 62.88 CE1 62.66 CE2 63.29 CZ 63.42 OH 63.91
A ASP - 91 -32.6 127.3 N 62.01 CA 61.67 C 61.74 O 61.9 CB 61.33 CG 61.16 OD1 61.51 OD2 60.91
A GLN S 108 -85.3 -17.0 N 61.51 CA 61.62 C 61.12 O 61.03 CB 62.13 CG 64.51 CD 67.37 OE1 68.37 NE2 68.55
A THR S 119 -53.5 -34.3 N 60.47 CA 59.95 C 59.62 O 59.99 CB 59.83 OG1 60.61 CG2 60.11
A LEU - 12 -52.7 119.2 N 58.8 CA 57.96 C 57.04 O 57.06 CB 58.32 CG 58.32 CD1 57.76 CD2 57.61
A PRO - 51 -63.2 159.8 N 55.65 CA 54.32 C 52.84 O 53.18 CB 54.14 CG 54.97 CD 55.53
A VAL E 3 -136.0 124.0 N 51.11 CA 49.42 C 48.9 O 48.95 CB 49.01 CG1 48.02 CG2 48.68
A TYR E 45 -122.8 120.1 N 47.66 CA 46.15 C 45.04 O 45.73 CB 45.93 CG 46.84 CD1 46.58 CD2 48.56 CE1 46.64 CE2 49.4 CZ 48.13 OH 48.97
A VAL E 0 -106.8 111.5 N 43.69 CA 43.11 C 43.43 O 44.3 CB 42.8 CG1 42.36 CG2 42.34
A VAL E 0 -117.7 178.3 N 43.09 CA 42.51 C 42.57 O 42.81 CB 42.32 CG1 41.87 CG2 42.09
A GLY S 5 102.7 150.5 N 42.47 CA 41.84 C 42.04 O 42.76
A GLY G 25 -57.9 -18.6 N 41.98 CA 42.24 C 42.8 O 42.73
A THR G 4 -67.6 -32.6 N 43.24 CA 43.88 C 44.0 O 44.42 CB 44.29 OG1 43.04 CG2 43.5
A ALA G 8 -73.2 14.6 N 43.77 CA 43.78 C 44.57 O 45.13 CB 42.87
A TYR G 61 -82.0 1.7 N 45.53 CA 46.15 C 46.74 O 46.63 CB 46.5 CG 46.83 CD1 46.92 CD2 46.74 CE1 47.76 CE2 46.71 CZ 47.22 OH 46.59
A LEU S 14 -80.7 120.9 N 47.75 CA 48.11 C 48.17 O 47.89 CB 47.85 CG 47.94 CD1 47.93 CD2 47.06
A THR T 87 -62.4 133.1 N 48.62 CA 49.29 C 49.77 O 49.39 CB 48.94 OG1 49.26 CG2 48.99
A GLY T 42 83.4 -12.0 N 50.0 CA 50.39 C 50.63 O 50.88
A PHE H 0 -43.4 -47.6 N 50.59 CA 50.64 C 50.98 O 51.54 CB 50.66 CG 48.36 CD1 46.65 CD2 46.29 CE1 45.38 CE2 44.89 CZ 44.42
A SER H 45 -49.2 -48.4 N 50.91 CA 50.73 C 50.92 O 51.31 CB 50.59 OG 49.65
A GLU H 64 -67.9 -63.3 N 50.66 CA 49.84 C 49.26 O 48.94 CB 49.79
A GLU H 5 -44.7 -51.7 N 48.58 CA 48.3 C 48.15 O 48.05 CB 47.75
A PHE H 0 -64.1 -46.3 N 48.08 CA 47.91 C 48.28 O 48.7 CB 47.19 CG 45.76 CD1 45.64 CD2 44.19 CE1 44.59 CE2 43.91 CZ 43.17
A SER H 17 -54.0 -29.4 N 48.58 CA 48.99 C 49.52 O 49.92 CB 48.46
A ARG H 67 -69.7 -74.0 N 49.74 CA 50.08 C 50.59 O 50.87 CB 49.73
A PHE H 59 -50.7 -27.8 N 50.87 CA 51.08 C 51.27 O 51.39 CB 50.96 CG 51.95 CD1 52.08 CD2 53.75 CE1 53.05 CE2 54.36 CZ 53.84
A LEU H 14 -73.2 -42.8 N 51.83 CA 52.19 C 52.37 O 52.35 CB 52.04 CG 51.84 CD1 51.51 CD2 52.5
A GLY S 67 121.8 -46.4 N 52.29 CA 52.2 C 52.37 O 52.62
A LYS S 53 -111.1 154.7 N 52.35 CA 52.35 C 52.0 O 52.18 CB 52.6 CG 53.62 CD 56.17 CE 57.8 NZ 57.85
A GLU - 79 -64.3 147.6 N 51.26 CA 50.63 C 50.15 O 50.15 CB 50.31
A VAL - 12 -116.8 153.3 N 49.62 CA 48.88 C 48.58 O 48.24 CB 48.85 CG1 48.69 CG2 47.24
A GLN B 95 -97.6 116.6 N 48.58 CA 48.74 C 47.79 O 49.02 CB 48.84 CG 53.15 CD 58.43 OE1 60.97 NE2 59.49
A VAL - 39 -112.2 125.7 N 46.25 CA 44.47 C 43.68 O 43.33 CB 44.32 CG1 44.64 CG2 43.41
A PRO - 23 -84.2 166.5 N 42.65 CA 41.58 C 40.71 O 40.4 CB 41.25 CG 41.83 CD 42.63
A ILE S 46 -44.0 -53.3 N 40.65 CA 40.27 C 39.9 O 41.62 CB 39.17
A HIS S 26 -118.7 77.9 N 38.24 CA 36.89 C 36.57 O 36.37 CB 35.82 CG 32.76 ND1 31.24 CD2 30.0 CE1 27.11 NE2 28.25
A PRO G 3 -49.8 -50.5 N 36.11 CA 36.27 C 36.1 O 36.22 CB 36.14 CG 35.82 CD 35.42
A LEU G 21 -44.9 -25.6 N 35.33 CA 34.65 C 35.05 O 36.12 CB 34.13 CG 32.09 CD1 29.07 CD2 27.83
A LEU G 4 -94.0 -7.0 N 34.96 CA 35.52 C 36.21 O 35.39 CB 35.26 CG 35.28 CD1 32.39 CD2 35.33
A VAL H 0 -66.9 -48.4 N 37.56 CA 39.19 C 40.1 O 40.9 CB 39.07 CG1 36.6 CG2 38.72
A THR H 5 -66.2 -53.1 N 40.7 CA 41.45 C 40.79 O 39.97 CB 42.28 OG1 44.65 CG2 42.44
A PRO H 4 -45.3 -50.0 N 40.77 CA 41.32 C 42.77 O 43.49 CB 41.03 CG 39.86 CD 40.27
A LEU H 3 -61.3 -34.7 N 43.67 CA 44.39 C 45.54 O 46.48 CB 44.19 CG 44.6 CD1 44.38 CD2 44.91
A GLY H 0 -66.1 -44.8 N 46.45 CA 48.17 C 48.93 O 48.89
A ILE H 0 -56.4 -55.9 N 49.83 CA 50.74 C 51.95 O 52.13 CB 50.46 CG1 50.19 CG2 50.5 CD1 49.04
A ALA H 0 -46.0 -27.3 N 53.05 CA 53.86 C 54.63 O 54.95 CB 53.38
A LEU T 24 -68.0 -13.4 N 55.53 CA 57.15 C 58.7 O 58.63 CB 56.85 CG 56.49 CD1 55.05 CD2 54.35
A PHE T 69 -89.8 -49.3 N 60.42 CA 62.1 C 62.53 O 63.11 CB 62.36 CG 64.26 CD1 65.42 CD2 65.69 CE1 65.59 CE2 66.16 CZ 65.8
A GLY - 25 -47.8 360.0 N 62.32 CA 62.03 C 61.62 O 61.37
B SER - 162 360.0 -65.1 N 60.35 CA 60.79 C 61.52 O 61.55 CB 60.44 OG 58.89
B ASN - 76 -101.0 22.7 N 61.03 CA 59.88 C 58.38 O 58.75 CB 60.9 CG 62.85 OD1 64.46 ND2 65.41
B ALA H 56 -61.1 -47.0 N 56.13 CA 53.9 C 52.66 O 52.31 CB 53.84
B GLU H 42 -57.2 -54.2 N 45.58 CA 42.78 C 40.78 O 40.91 CB 42.92
B LEU H 19 -65.6 -36.8 N 37.74 CA 35.65 C 35.2 O 34.98 CB 34.6 CG 31.03 CD1 27.58 CD2 27.27
B GLU H 92 -61.8 -49.2 N 34.66 CA 34.99 C 34.49 O 34.63 CB 35.12 CG 39.53 CD 47.04 OE1 49.21 OE2 49.72
B GLN H 27 -59.5 -40.2 N 33.65 CA 33.19 C 33.24 O 33.95 CB 33.09 CG 33.32 CD 32.82 OE1 33.98 NE2 33.4
B LYS H 51 -55.3 -55.0 N 32.85 CA 31.99 C 31.7 O 31.73 CB 31.82 CG 31.02 CD 31.86 CE 36.33 NZ 41.01
B LEU H 0 -61.9 -43.4 N 31.16 CA 30.82 C 31.14 O 32.04 CB 30.4 CG 30.56 CD1 30.94 CD2 31.47
B ASN H 42 -60.3 -42.8 N 31.45 CA 32.09 C 32.44 O 32.96 CB 32.32 CG 32.62 OD1 38.4 ND2 31.52
B LEU H 1 -63.8 -48.5 N 32.25 CA 32.73 C 34.42 O 35.05 CB 31.64 CG 31.69 CD1 29.29 CD2 31.96
B LEU H 0 -63.1 -36.6 N 35.54 CA 36.07 C 36.55 O 37.22 CB 36.41 CG 37.04 CD1 39.44 CD2 36.91
B ASN H 31 -61.6 -38.7 N 35.79 CA 35.51 C 36.31 O 36.18 CB 35.22 CG 34.56 OD1 33.65 ND2 34.63
B ASP H 7 -69.2 -45.2 N 37.1 CA 37.79 C 36.55 O 36.08 CB 38.9 CG 45.96 OD1 50.61 OD2 52.75
B LEU H 0 -53.0 -51.5 N 35.33 CA 34.23 C 34.19 O 33.73 CB 33.7 CG 33.56 CD1 33.8 CD2 31.18
B ILE H 20 -59.8 -63.3 N 33.47 CA 33.05 C 33.17 O 34.1 CB 32.99 CG1 33.27 CG2 30.65 CD1 32.3
B VAL H 74 -64.9 -38.9 N 33.57 CA 33.82 C 34.08 O 34.41 CB 33.83 CG1 34.25 CG2 32.39
B ARG H 88 -97.1 5.8 N 34.48 CA 34.51 C 34.11 O 34.64 CB 34.25 CG 36.24 CD 42.35 NE 46.8 CZ 50.08 NH1 49.36 NH2 51.39
B GLU T 97 53.8 54.0 N 33.39 CA 32.96 C 31.88 O 31.89 CB 32.34 CG 34.95 CD 38.36 OE1 42.58 OE2 38.2
B ILE - 14 -128.0 170.6 N 31.33 CA 30.6 C 30.69 O 30.64 CB 30.5 CG1 29.13 CG2 29.24 CD1 21.7
B VAL - 6 -120.6 161.4 N 31.37 CA 31.83 C 33.16 O 33.42 CB 31.47 CG1 30.1 CG2 30.11
B ASN - 0 -112.9 91.5 N 34.34 CA 34.88 C 35.58 O 35.94 CB 34.46 CG 34.73 OD1 32.33 ND2 35.43
B PRO - 20 -62.0 58.9 N 36.47 CA 37.13 C 37.84 O 38.33 CB 36.49 CG 36.73 CD 36.72
B LEU - 5 -84.5 149.4 N 38.8 CA 39.7 C 40.3 O 40.47 CB 39.86 CG 39.94 CD1 39.62 CD2 39.01
B PRO - 95 -67.0 150.9 N 40.62 CA 40.4 C 40.5 O 40.75 CB 40.32 CG 39.82 CD 40.52
B PRO S 81 -65.6 173.2 N 40.09 CA 39.7 C 39.37 O 39.81 CB 39.63 CG 39.85 CD 40.27
B PRO - 82 -77.0 146.5 N 38.62 CA 37.67 C 36.65 O 36.01 CB 37.33 CG 37.3 CD 38.27
B TYR - 48 -101.6 166.7 N 35.9 CA 35.9 C 35.32 O 34.88 CB 36.06 CG 37.77 CD1 39.76 CD2 41.2 CE1 41.02 CE2 42.75 CZ 42.78 OH 45.55
B LYS E 39 -125.2 138.9 N 35.24 CA 34.92 C 35.03 O 35.7 CB 34.6 CG 34.93 CD 38.71 CE 41.02 NZ 44.06
B VAL E 8 -132.8 143.5 N 34.67 CA 33.86 C 34.68 O 34.78 CB 33.12 CG1 31.2 CG2 31.81
B GLY E 1 -140.6 135.9 N 35.22 CA 35.58 C 36.25 O 36.49
B VAL E 0 -117.9 132.0 N 36.31 CA 36.02 C 36.66 O 37.71 CB 36.03 CG1 35.9 CG2 34.72
B ASP E 13 -117.6 117.0 N 37.07 CA 37.77 C 37.24 O 37.21 CB 39.1 CG 43.98 OD1 50.46 OD2 49.12
B LEU E 5 -97.2 118.4 N 36.67 CA 35.35 C 34.88 O 35.15 CB 35.11 CG 36.27 CD1 36.75 CD2 37.25
B GLY - 13 -130.0 174.0 N 34.18 CA 33.78 C 33.8 O 33.78
B THR S 34 -66.3 -3.2 N 33.14 CA 33.03 C 33.87 O 34.69 CB 32.84 OG1 33.56 CG2 31.36
B ALA S 25 -145.2 -27.7 N 35.08 CA 34.64 C 34.81 O 35.01 CB 34.35
B ASP E 20 -158.2 170.4 N 34.73 CA 34.93 C 35.46 O 36.33 CB 35.36 CG 36.4 OD1 38.49 OD2 37.66
B ILE E 0 -127.4 133.7 N 35.83 CA 35.95 C 36.63 O 37.7 CB 35.69 CG1 36.17 CG2 35.3 CD1 39.22
B VAL E 0 -122.0 131.9 N 36.49 CA 36.06 C 36.35 O 36.5 CB 35.97 CG1 35.59 CG2 33.93
B LEU E 0 -102.6 142.5 N 36.76 CA 36.79 C 36.93 O 36.93 CB 36.42 CG 36.83 CD1 38.96 CD2 38.55
B VAL E 0 -144.7 113.8 N 36.57 CA 36.35 C 37.17 O 37.27 CB 36.46 CG1 36.28 CG2 33.15
B VAL E 0 -105.0 128.9 N 38.08 CA 38.54 C 39.3 O 39.83 CB 38.49 CG1 37.95 CG2 37.39
B THR E 0 -126.7 171.9 N 39.98 CA 39.99 C 41.49 O 41.17 CB 39.57 OG1 38.42 CG2 38.8
B ASP - 17 -81.2 -163.4 N 43.5 CA 45.61 C 46.21 O 46.46 CB 45.8 CG 49.34 OD1 53.81 OD2 51.95
B GLN T 90 -68.4 -38.5 N 47.1 CA 47.73 C 47.37 O 47.25 CB 48.2 CG 52.42 CD 56.79 OE1 58.86 NE2 56.37
B GLU T 141 -94.1 15.7 N 46.84 CA 46.24 C 44.73 O 45.65 CB 46.65 CG 52.27 CD 59.11 OE1 61.45 OE2 62.06
B GLY - 5 83.6 9.5 N 42.72 CA 40.96 C 39.99 O 39.95
B ILE - 11 -74.1 124.6 N 38.79 CA 38.13 C 37.24 O 37.61 CB 38.35 CG1 40.04 CG2 38.41 CD1 42.07
B PRO E 0 -55.1 127.8 N 36.44 CA 36.19 C 36.33 O 37.32 CB 36.18 CG 36.21 CD 36.18
B VAL E 0 -106.3 -46.2 N 35.56 CA 34.06 C 34.0 O 34.16 CB 33.49 CG1 32.21 CG2 32.23
B ALA E 1 -153.0 169.7 N 32.94 CA 32.52 C 32.28 O 31.55 CB 32.72
B GLY E 3 -164.0 147.3 N 32.52 CA 33.4 C 34.18 O 35.07
B ALA E 2 -142.8 161.1 N 34.46 CA 34.42 C 34.26 O 34.9 CB 34.06
B LEU E 33 -149.4 125.7 N 34.14 CA 34.51 C 34.97 O 34.76 CB 33.57 CG 33.68 CD1 33.98 CD2 32.09
B LYS E 88 -114.2 135.9 N 36.28 CA 38.11 C 38.97 O 39.86 CB 38.7 CG 38.72 CD 42.62 CE 47.54 NZ 49.54
B TRP E 111 -82.1 132.0 N 39.25 CA 40.04 C 40.4 O 40.86 CB 40.02 CG 41.6 CD1 42.68 CD2 43.8 NE1 42.69 CE2 43.12 CE3 43.51 CZ2 42.1 CZ3 42.75 CH2 42.29
B ALA - 26 171.6 141.3 N 40.8 CA 40.72 C 41.17 O 41.96 CB 40.4
B SER - 98 -95.6 91.1 N 41.73 CA 42.08 C 41.92 O 42.97 CB 41.84 OG 42.16
B VAL - 5 -90.5 -28.4 N 41.36 CA 41.68 C 41.65 O 42.65 CB 41.44 CG1 42.82 CG2 43.61
B VAL E 12 -111.8 125.1 N 41.45 CA 41.27 C 41.81 O 41.59 CB 41.04 CG1 41.01 CG2 40.38
B LYS E 136 -129.8 121.1 N 42.22 CA 42.78 C 42.67 O 43.06 CB 42.58 CG 45.27 CD 51.38 CE 55.38 NZ 55.87
B ASP T 140 39.9 62.8 N 42.44 CA 41.95 C 41.61 O 41.98 CB 41.79 CG 43.01 OD1 44.32 OD2 46.56
B GLY T 9 67.1 -2.6 N 41.84 CA 42.4 C 42.8 O 42.97
B LEU E 41 -104.0 127.7 N 42.67 CA 42.44 C 42.5 O 42.98 CB 42.92
B VAL E 16 -71.4 78.7 N 41.9 CA 41.48 C 41.31 O 40.97 CB 41.56 CG1 41.14 CG2 41.33
B VAL T 89 -41.4 -70.3 N 40.94 CA 41.43 C 41.69 O 42.0 CB 41.11 CG1 40.8 CG2 42.06
B ASP T 94 -78.0 69.4 N 41.77 CA 42.09 C 41.78 O 42.34 CB 42.63 CG 44.71 OD1 46.29 OD2 48.25
B TYR H 97 -45.6 -44.9 N 41.05 CA 40.8 C 40.91 O 40.44 CB 40.62 CG 40.43 CD1 39.7 CD2 38.53 CE1 39.24 CE2 38.49 CZ 40.16 OH 42.86
B ILE H 102 -71.1 -42.8 N 41.16 CA 40.94 C 41.04 O 41.58 CB 40.63 CG1 39.14 CG2 39.68 CD1 35.32
B GLY H 8 -56.5 -50.4 N 40.64 CA 40.94 C 40.78 O 41.04
B ALA H 1 -45.1 -54.0 N 40.63 CA 40.53 C 40.68 O 40.71 CB 40.59
B ILE H 22 -60.1 -33.7 N 40.98 CA 41.9 C 42.76 O 43.11 CB 41.91 CG1 41.68 CG2 41.06 CD1 37.53
B GLN H 115 -63.3 -56.8 N 42.92 CA 42.9 C 41.49 O 41.54 CB 43.41 CG 48.03 CD 54.09 OE1 56.48 NE2 52.88
B ILE H 22 -55.7 -51.0 N 39.91 CA 38.71 C 38.88 O 39.52 CB 38.16 CG1 36.26 CG2 37.47 CD1 35.82
B VAL H 0 -59.2 -39.3 N 38.61 CA 38.13 C 39.08 O 39.42 CB 37.64 CG1 36.42 CG2 35.95
B ARG H 143 -61.7 -34.1 N 39.98 CA 40.81 C 40.98 O 40.39 CB 41.05 CG 44.14 CD 48.14 NE 52.17 CZ 54.1 NH1 54.67 NH2 53.19
B GLU H 104 -69.0 -60.4 N 41.61 CA 42.74 C 42.57 O 43.04 CB 43.22 CG 47.23 CD 54.17 OE1 56.87 OE2 56.68
B LEU H 4 -43.2 -51.7 N 41.58 CA 40.33 C 39.86 O 39.86 CB 39.59 CG 39.4 CD1 39.81 CD2 38.3
B LYS H 23 -53.7 -42.5 N 39.1 CA 38.77 C 38.42 O 39.01 CB 38.63 CG 38.73 CD 40.52 CE 41.14 NZ 40.84
B ALA H 39 -72.2 -51.4 N 37.85 CA 37.54 C 37.43 O 36.53 CB 37.12
B LYS H 49 -43.9 -60.8 N 37.71 CA 37.72 C 37.74 O 37.87 CB 37.3 CG 37.85 CD 36.72 CE 36.82 NZ 37.0
B VAL H 0 -53.4 -47.7 N 37.86 CA 38.39 C 38.75 O 38.83 CB 38.55 CG1 39.63 CG2 37.26
B GLU H 38 -65.6 -37.8 N 39.2 CA 39.67 C 39.17 O 38.61 CB 40.12 CG 43.23 CD 47.98 OE1 48.35 OE2 49.32
B ARG H 175 -60.2 -46.0 N 39.37 CA 39.55 C 38.87 O 38.89 CB 40.02 CG 43.17 CD 48.57 NE 53.89 CZ 55.65 NH1 56.95 NH2 55.08
B LEU H 49 -72.6 -48.0 N 38.33 CA 36.83 C 36.86 O 36.5 CB 35.78 CG 34.43 CD1 33.08 CD2 32.03
B LEU S 5 -68.9 170.7 N 37.55 CA 38.92 C 39.82 O 40.91 CB 38.49 CG 39.01 CD1 39.82 CD2 40.44
B GLY S 62 -69.0 -48.8 N 40.44 CA 41.94 C 42.26 O 41.71
B SER S 59 -107.2 -166.3 N 42.52 CA 42.8 C 43.28 O 43.48 CB 42.89 OG 42.07
B GLU - 147 -108.0 157.0 N 43.23 CA 43.03 C 42.58 O 42.3 CB 43.46 CG 44.75 CD 46.65 OE1 47.02 OE2 47.16
B LEU - 6 -99.9 123.3 N 42.12 CA 42.05 C 42.65 O 42.95 CB 41.33 CG 39.37 CD1 37.93 CD2 37.12
B PHE - 63 -92.6 -49.8 N 42.92 CA 42.45 C 42.41 O 42.88 CB 41.67
B GLN E 89 -127.2 169.4 N 42.05 CA 41.08 C 40.49 O 41.78 CB 40.96 CG 42.4 CD 44.0 OE1 41.64 NE2 46.97
B ALA E 0 -162.7 150.1 N 39.11 CA 37.44 C 36.93 O 37.19 CB 37.2
B ALA E 0 -91.9 157.1 N 35.89 CA 34.45 C 34.01 O 34.0 CB 34.47
B THR E 0 -144.8 171.4 N 33.92 CA 33.64 C 32.9 O 32.2 CB 34.29 OG1 35.73 CG2 33.98
B ALA E 2 -96.4 171.0 N 32.79 CA 33.4 C 33.94 O 35.1 CB 32.19
B ILE E 38 -106.1 121.4 N 33.93 CA 33.72 C 34.26 O 33.95 CB 33.78 CG1 33.39 CG2 33.42 CD1 31.96
B PRO - 6 -61.1 135.4 N 35.29 CA 36.12 C 37.28 O 38.14 CB 35.59 CG 35.7 CD 35.51
B PRO T 39 -52.6 155.6 N 37.69 CA 37.64 C 37.62 O 37.98 CB 37.26 CG 37.75 CD 37.04
B GLY T 68 61.9 2.0 N 37.27 CA 35.87 C 35.23 O 35.09
B THR - 35 -76.4 164.7 N 34.42 CA 34.6 C 34.89 O 35.59 CB 34.89 OG1 33.92 CG2 35.8
B VAL - 108 -133.3 145.4 N 34.52 CA 34.27 C 34.99 O 35.56 CB 33.74 CG1 34.75 CG2 31.37
B GLY G 59 59.7 -155.6 N 35.26 CA 35.95 C 36.35 O 36.45
B ARG G 87 -42.9 -29.0 N 36.67 CA 36.76 C 36.73 O 36.65 CB 35.47
B ASN G 98 -53.1 -43.8 N 36.29 CA 36.63 C 38.23 O 38.24 CB 35.85 CG 32.89 OD1 29.06 ND2 29.26
B ALA G 28 -54.5 -22.5 N 39.44 CA 40.41 C 41.31 O 42.18 CB 40.73
B GLU G 91 -96.2 12.5 N 41.65 CA 42.89 C 42.36 O 41.9 CB 43.94 CG 48.96 CD 54.94 OE1 55.75 OE2 58.05
B ALA H 16 -52.8 -61.6 N 42.17 CA 42.25 C 42.85 O 42.95 CB 41.86
B CYS H 2 -47.3 -40.5 N 42.92 CA 43.28 C 43.22 O 44.01 CB 43.47 SG 47.21
B GLY H 3 -56.5 -44.2 N 42.91 CA 42.36 C 42.05 O 42.08
B HIS H 87 -60.8 -53.1 N 41.53 CA 41.03 C 40.23 O 40.17 CB 41.78 CG 43.72 ND1 46.04 CD2 43.76 CE1 44.87 NE2 45.41
B VAL H 0 -48.8 -53.0 N 38.46 CA 36.78 C 36.27 O 35.46 CB 36.21 CG1 35.44 CG2 35.03
B VAL H 0 -53.3 -53.4 N 35.99 CA 36.22 C 36.1 O 35.64 CB 35.82 CG1 35.13 CG2 34.44
B ALA H 55 -65.0 -40.6 N 36.65 CA 37.1 C 37.38 O 36.28 CB 36.57
B GLY H 22 -46.4 -50.9 N 37.89 CA 38.91 C 39.97 O 40.6
B ALA T 1 -70.5 -3.2 N 40.49 CA 40.09 C 39.92 O 40.43 CB 39.91
B GLY T 33 102.4 10.5 N 39.66 CA 39.86 C 40.15 O 39.73
B LEU - 0 -103.0 116.7 N 40.6 CA 41.12 C 41.61 O 42.21 CB 40.9 CG 41.29 CD1 40.96 CD2 41.82
B GLU E 126 -62.6 120.0 N 41.62 CA 42.82 C 42.62 O 43.11 CB 43.37 CG 48.12 CD 54.67 OE1 55.59 OE2 59.14
B LEU E 51 -68.3 112.1 N 42.06 CA 40.85 C 40.22 O 40.04 CB 40.51 CG 41.76 CD1 42.39 CD2 40.15
B VAL E 49 -68.6 -44.7 N 39.54 CA 38.31 C 37.64 O 37.98 CB 38.37 CG1 38.26 CG2 38.06
B THR E 61 177.6 167.0 N 36.12 CA 34.77 C 34.05 O 34.01 CB 34.83 OG1 35.3 CG2 35.6
B LEU E 47 -120.0 143.4 N 33.46 CA 33.93 C 34.05 O 34.79 CB 33.85 CG 36.35 CD1 36.72 CD2 38.06
B VAL E 8 -135.3 143.4 N 33.51 CA 33.09 C 32.57 O 31.8 CB 33.2 CG1 32.26 CG2 33.67
B ASP E 87 -66.6 146.1 N 32.71 CA 33.73 C 33.75 O 33.98 CB 33.7 CG 37.9 OD1 39.38 OD2 43.65
B GLU H 34 -65.6 -44.8 N 33.52 CA 33.22 C 33.27 O 33.76 CB 33.2 CG 33.75 CD 36.85 OE1 37.63 OE2 36.73
B PRO H 28 -60.8 -31.3 N 32.48 CA 31.56 C 31.15 O 32.68 CB 31.31 CG 32.31 CD 31.66
B VAL H 36 -64.9 -37.3 N 29.21 CA 28.11 C 29.7 O 30.03 CB 27.34 CG1 23.14 CG2 25.72
B ALA H 0 -78.1 -46.2 N 30.07 CA 29.88 C 30.02 O 29.61 CB 30.08
B ALA H 1 -51.0 -52.4 N 30.11 CA 30.4 C 31.2 O 31.53 CB 29.92
B ALA H 12 -65.4 -35.9 N 31.56 CA 31.24 C 31.35 O 31.57 CB 30.98
B ARG H 146 -63.1 -48.4 N 31.02 CA 31.1 C 31.38 O 31.76 CB 31.5 CG 33.27 CD 38.47 NE 43.08 CZ 44.99 NH1 46.56 NH2 44.8
B ALA H 13 -57.8 -44.8 N 31.23 CA 31.07 C 31.89 O 32.13 CB 30.72
B LEU H 7 -67.6 -26.0 N 32.68 CA 33.15 C 34.15 O 34.82 CB 32.8 CG 31.23 CD1 26.81 CD2 29.66
B GLY T 35 56.4 40.2 N 35.37 CA 36.03 C 36.65 O 36.97
B ILE - 27 -93.8 157.4 N 37.31 CA 37.75 C 38.33 O 37.88 CB 38.15 CG1 37.96 CG2 37.76 CD1 38.1
B ASN S 107 -104.3 -19.4 N 39.41 CA 40.43 C 40.48 O 40.23 CB 41.03 CG 43.25 OD1 45.42 ND2 46.48
B ASP S 68 -143.1 132.4 N 40.39 CA 40.79 C 40.69 O 41.99 CB 40.89 CG 43.03 OD1 45.85 OD2 44.67
B GLY E 0 160.4 179.7 N 39.69 CA 38.53 C 38.15 O 38.56
B ILE E 1 -110.5 136.7 N 37.47 CA 36.89 C 36.49 O 37.07 CB 36.8 CG1 35.85 CG2 36.79 CD1 35.58
B VAL E 3 -115.9 118.8 N 35.37 CA 34.32 C 33.64 O 33.88 CB 34.17 CG1 34.15 CG2 33.62
B VAL E 0 -111.3 108.1 N 32.78 CA 32.2 C 32.75 O 33.72 CB 31.78 CG1 30.74 CG2 32.34
B ASP E 28 -98.9 82.6 N 32.85 CA 33.37 C 33.79 O 35.3 CB 32.81 CG 34.24 OD1 38.94 OD2 32.89
B ILE E 2 -83.7 103.6 N 33.28 CA 33.77 C 33.87 O 34.71 CB 33.88 CG1 34.98 CG2 33.09 CD1 36.29
B GLY - 18 -100.8 -156.3 N 33.03 CA 32.73 C 33.63 O 32.56
B GLY S 12 -74.9 -59.8 N 34.09 CA 34.89 C 35.8 O 35.85
B GLY S 27 -91.2 -21.1 N 36.27 CA 37.1 C 37.97 O 37.98
B THR - 51 -153.9 152.6 N 38.52 CA 39.05 C 39.39 O 39.93 CB 38.94 OG1 37.09 CG2 40.66
B THR E 8 -125.9 130.7 N 39.39 CA 39.9 C 39.72 O 39.15 CB 40.47 OG1 41.68 CG2 40.22
B GLY E 18 -99.5 142.6 N 39.67 CA 39.2 C 39.0 O 39.83
B ILE E 1 -122.9 129.8 N 37.67 CA 36.68 C 36.0 O 35.96 CB 37.06 CG1 38.47 CG2 36.79 CD1 40.64
B ALA E 2 -129.0 132.9 N 34.68 CA 33.94 C 33.93 O 33.92 CB 33.53
B VAL E 0 -102.4 120.5 N 33.4 CA 33.1 C 33.59 O 34.08 CB 32.73 CG1 33.18 CG2 31.02
B ILE E 4 -114.4 126.5 N 33.75 CA 34.58 C 35.23 O 36.02 CB 34.56 CG1 34.72 CG2 34.57 CD1 36.77
B GLU E 44 -136.3 138.9 N 35.23 CA 35.34 C 35.16 O 34.39 CB 35.47 CG 38.8 CD 42.71 OE1 43.71 OE2 44.65
B LYS T 183 40.8 47.1 N 34.63 CA 34.47 C 34.49 O 35.43 CB 34.06 CG 36.7 CD 43.02 CE 45.79 NZ 46.94
B GLY T 45 71.8 -5.2 N 34.07 CA 33.74 C 33.67 O 33.74
B LYS E 62 -108.3 159.8 N 33.72 CA 33.72 C 34.65 O 35.15 CB 32.96
B ILE E 67 -82.2 130.5 N 35.11 CA 35.44 C 35.09 O 36.14 CB 35.48 CG1 36.53 CG2 35.24 CD1 35.97
B THR E 79 -89.5 -45.8 N 34.26 CA 33.34 C 33.16 O 32.19 CB 33.59 OG1 33.9 CG2 33.4
B ALA E 20 -157.5 153.6 N 33.25 CA 33.5 C 34.13 O 33.58 CB 33.44
B THR E 74 -135.6 144.2 N 34.69 CA 35.79 C 36.75 O 37.49 CB 35.73 OG1 34.96 CG2 36.32
B PHE E 57 -129.5 134.4 N 37.4 CA 38.44 C 40.11 O 40.39 CB 38.34 CG 37.83 CD1 36.1 CD2 37.5 CE1 35.7 CE2 36.91 CZ 36.29
B ASP E 85 -99.7 137.7 N 42.02 CA 44.53 C 45.77 O 46.04 CB 44.47 CG 47.96 OD1 50.97 OD2 52.76
B GLU E 39 -124.5 150.0 N 47.93 CA 49.99 C 50.93 O 50.4 CB 49.87 CG 53.67 CD 58.95 OE1 60.71 OE2 59.19
B PRO S 100 -71.0 -29.6 N 52.29 CA 52.9 C 53.05 O 53.23 CB 53.24 CG 52.42 CD 52.13
B THR - 8 -89.6 -168.9 N 52.34 CA 51.53 C 51.02 O 51.0 CB 51.64 OG1 51.81 CG2 52.1
B GLY - 0 153.4 -174.2 N 50.58 CA 49.88 C 49.61 O 49.34
B GLY T 2 -54.4 -33.2 N 49.88 CA 50.02 C 50.41 O 50.87
B THR H 58 -65.5 -30.3 N 50.02 CA 49.82 C 49.5 O 49.19 CB 49.77 OG1 49.95 CG2 49.96
B HIS H 84 -54.3 -29.5 N 49.2 CA 49.64 C 49.25 O 49.68 CB 49.99 CG 52.39 ND1 54.25 CD2 55.21 CE1 55.43 NE2 55.37
B LEU H 0 -80.8 -40.8 N 48.54 CA 48.14 C 48.02 O 47.45 CB 48.11 CG 48.75 CD1 48.02 CD2 47.37
B SER H 0 -58.8 -48.1 N 47.43 CA 47.19 C 47.37 O 47.91 CB 47.17 OG 46.58
B LEU H 55 -55.1 -50.1 N 47.31 CA 46.6 C 46.28 O 46.64 CB 46.47
B VAL H 39 -60.1 -36.6 N 45.94 CA 46.09 C 46.52 O 46.05 CB 45.74
B LEU H 2 -62.7 -57.2 N 47.0 CA 46.73 C 46.98 O 47.16 CB 46.65 CG 47.53 CD1 47.16 CD2 46.56
B ALA H 16 -51.9 -26.2 N 47.04 CA 47.28 C 47.6 O 47.95 CB 46.93
B GLY H 48 -72.7 -77.4 N 47.78 CA 47.9 C 48.15 O 48.29
B SER H 86 -35.1 -31.3 N 48.37 CA 48.72 C 49.22 O 49.66 CB 48.6 OG 47.89
B TYR T 86 -102.5 -4.0 N 49.4 CA 49.45 C 49.82 O 49.6 CB 49.25 CG 47.81 CD1 47.24 CD2 46.84 CE1 46.26 CE2 45.01 CZ 44.85 OH 43.6
B LYS - 95 56.4 11.1 N 50.67 CA 51.48 C 51.95 O 52.69 CB 50.97
B ILE - 15 -73.0 150.0 N 52.04 CA 51.84 C 51.93 O 51.84 CB 51.54
B PRO - 83 -65.5 173.5 N 52.01 CA 52.2 C 52.74 O 53.55 CB 51.67 CG 51.54 CD 51.89
B PHE H 96 -66.0 -63.3 N 52.56 CA 51.93 C 52.18 O 52.23 CB 51.54 CG 49.47 CD1 48.17 CD2 48.49 CE1 48.81 CE2 49.02 CZ 48.66
B GLU H 72 -45.9 -33.8 N 52.08 CA 52.3 C 52.86 O 52.96 CB 51.78
B GLU H 97 -64.5 -58.1 N 53.25 CA 53.58 C 53.39 O 53.54 CB 53.87 CG 54.51 CD 56.68 OE1 57.27 OE2 56.64
B ALA H 0 -53.7 -36.4 N 53.26 CA 52.96 C 52.58 O 52.5 CB 52.94
B GLU H 46 -58.7 -42.2 N 52.15 CA 51.92 C 51.48 O 51.6 CB 52.31 CG 51.6 CD 50.7 OE1 49.18 OE2 49.31
B THR H 89 -73.7 -40.6 N 51.39 CA 51.15 C 50.8 O 50.36 CB 50.81 OG1 51.33 CG2 51.58
B ILE H 31 -60.0 -36.1 N 50.28 CA 49.98 C 49.98 O 50.81 CB 50.31 CG1 50.73 CG2 49.12 CD1 51.47
B LYS H 28 -69.8 -43.7 N 49.37 CA 48.29 C 48.34 O 48.42 CB 48.12 CG 45.78 CD 43.79 CE 42.86 NZ 41.63
B LYS T 79 -73.6 0.2 N 48.03 CA 48.34 C 48.7 O 48.92 CB 48.22 CG 49.53 CD 50.56 CE 51.06 NZ 52.6
B ASP - 68 -97.7 109.6 N 48.51 CA 48.28 C 47.58 O 47.39 CB 48.61 CG 51.01 OD1 51.94 OD2 52.99
B PHE G 120 -66.0 -28.6 N 46.29 CA 45.27 C 46.23 O 46.52 CB 43.98 CG 41.71 CD1 37.88 CD2 39.7 CE1 33.34 CE2 33.39 CZ 32.89
B SER G 87 -59.9 -37.0 N 47.38 CA 47.44 C 47.81 O 48.64 CB 47.31
B ARG G 77 -80.8 -14.0 N 47.43 CA 46.76 C 47.25 O 47.34 CB 46.15 CG 43.69 CD 39.1 NE 34.48 CZ 34.13 NH1 31.08 NH2 32.15
B HIS H 4 -56.5 -51.0 N 47.21 CA 47.12 C 47.66 O 48.42 CB 46.78 CG 46.03 ND1 43.85 CD2 45.51 CE1 43.77 NE2 42.6
B ARG H 219 -60.0 -36.1 N 48.12 CA 48.48 C 48.25 O 48.37 CB 48.57 CG 51.71 CD 57.27 NE 61.73 CZ 64.19 NH1 65.09 NH2 65.21
B GLU H 86 -65.2 -61.3 N 47.96 CA 47.93 C 48.04 O 48.45 CB 47.67 CG 48.63 CD 50.23 OE1 47.84 OE2 52.89
B ILE H 1 -61.0 -27.2 N 48.23 CA 47.76 C 47.87 O 46.96 CB 47.84 CG1 49.04 CG2 46.74 CD1 53.13
B ARG H 164 -70.8 -30.8 N 49.56 CA 49.11 C 48.67 O 48.54 CB 49.0 CG 49.71 CD 52.4 NE 53.1 CZ 52.63 NH1 53.39 NH2 53.14
B VAL H 39 -60.4 -44.6 N 48.0 CA 46.96 C 47.33 O 47.89 CB 46.62 CG1 47.21 CG2 44.97
B VAL H 1 -95.9 -14.0 N 47.4 CA 46.94 C 46.88 O 46.52 CB 46.72 CG1 46.0 CG2 47.45
B ARG H 51 -46.2 -51.6 N 47.09 CA 47.88 C 48.32 O 48.48 CB 47.89 CG 50.35 CD 54.68 NE 60.7 CZ 63.14 NH1 63.3 NH2 64.21
B PRO H 74 -42.4 -46.4 N 48.83 CA 48.32 C 47.73 O 48.01 CB 48.21 CG 48.61 CD 48.64
B VAL H 17 -60.8 -43.6 N 47.29 CA 46.73 C 46.6 O 46.47 CB 46.62 CG1 45.91 CG2 46.54
B ILE H 1 -54.4 -40.7 N 46.94 CA 47.12 C 47.9 O 48.37 CB 47.07 CG1 46.5 CG2 46.4 CD1 45.85
B GLU H 95 -63.9 -52.4 N 48.61 CA 49.57 C 49.92 O 50.14 CB 49.79 CG 50.89 CD 52.51 OE1 54.08 OE2 51.93
B LYS H 62 -40.5 -64.1 N 49.93 CA 50.2 C 49.89 O 50.02 CB 50.55 CG 51.71 CD 52.6 CE 54.57 NZ 54.32
B ALA H 1 -64.6 -27.0 N 47.46 CA 47.22 C 47.45 O 48.37 CB 47.11
B LEU H 87 -75.9 -50.0 N 46.94 CA 46.54 C 46.32 O 46.94 CB 46.95 CG 47.26 CD1 48.29 CD2 46.26
B ILE H 38 -40.3 -48.9 N 45.14 CA 44.31 C 44.88 O 44.79 CB 43.88 CG1 41.8 CG2 43.3 CD1 40.22
B VAL H 3 -66.6 -45.1 N 45.14 CA 45.41 C 45.99 O 46.12 CB 45.5 CG1 44.46 CG2 45.27
B LYS H 121 -57.8 -37.5 N 46.42 CA 47.17 C 47.47 O 47.69 CB 47.13 CG 48.34 CD 50.98 CE 53.07 NZ 55.04
B GLU H 131 -46.1 -67.1 N 47.25 CA 47.63 C 47.2 O 47.45 CB 48.14 CG 51.67 CD 56.01 OE1 58.74 OE2 56.76
B VAL H 12 -55.5 -48.4 N 46.24 CA 45.42 C 45.67 O 45.68 CB 45.26 CG1 44.85 CG2 42.98
B ILE H 6 -50.0 -34.4 N 45.71 CA 45.65 C 45.34 O 45.27 CB 45.79 CG1 46.94 CG2 46.52 CD1 47.3
B LYS H 68 -54.5 -40.4 N 44.64 CA 43.74 C 42.94 O 43.23 CB 43.74
B ASN T 123 -71.8 7.6 N 41.59 CA 40.44 C 39.84 O 40.12 CB 39.95 CG 40.97 OD1 39.67 ND2 42.45
B TYR S 44 -138.8 161.2 N 38.88 CA 38.46 C 39.56 O 39.87 CB 37.89 CG 36.01 CD1 33.05 CD2 33.67 CE1 31.54 CE2 32.35 CZ 32.93 OH 35.24
B ASP - 75 -40.4 123.4 N 40.37 CA 41.5 C 41.72 O 42.02 CB 42.19 CG 44.77 OD1 47.7 OD2 48.58
B GLN T 109 -60.0 -24.0 N 42.42 CA 43.25 C 42.47 O 43.07 CB 43.96 CG 48.32 CD 52.73 OE1 53.85 NE2 53.84
B THR T 115 -75.2 -30.2 N 41.58 CA 40.45 C 39.82 O 40.51 CB 40.35 OG1 40.0 CG2 39.46
B LEU - 5 -45.8 122.5 N 38.74 CA 37.35 C 36.36 O 36.72 CB 37.14 CG 37.06 CD1 34.84 CD2 35.76
B PRO - 47 -72.9 140.3 N 35.51 CA 34.9 C 35.06 O 36.61 CB 34.11 CG 34.85 CD 35.3
B VAL E 0 -90.0 130.2 N 34.13 CA 32.71 C 32.03 O 32.11 CB 32.84 CG1 33.6 CG2 31.89
B TYR E 42 -113.5 137.9 N 31.48 CA 30.96 C 30.46 O 30.84 CB 30.89 CG 32.74 CD1 33.31 CD2 34.52 CE1 34.32 CE2 36.82 CZ 35.96 OH 32.72
B VAL E 0 -120.8 122.9 N 30.14 CA 29.1 C 29.21 O 28.99 CB 28.7 CG1 27.17 CG2 27.42
B VAL E 0 -123.2 -170.4 N 28.65 CA 28.21 C 28.73 O 28.72 CB 27.83 CG1 25.64 CG2 26.78
B GLY S 5 89.6 158.6 N 29.13 CA 30.3 C 31.12 O 32.31
B GLY G 22 -56.8 -33.0 N 31.55 CA 32.32 C 33.07 O 32.88
B THR G 7 -57.7 -29.3 N 33.97 CA 34.56 C 34.98 O 35.43 CB 34.01 OG1 35.39 CG2 33.02
B ALA G 7 -85.4 3.0 N 35.51 CA 36.49 C 36.71 O 36.22 CB 37.06
B TYR G 56 -57.2 -18.1 N 37.19 CA 37.83 C 38.47 O 39.45 CB 37.92 CG 38.15 CD1 37.09 CD2 39.83 CE1 38.82 CE2 42.41 CZ 42.45 OH 46.45
B LEU S 8 -67.1 118.1 N 38.36 CA 38.35 C 38.89 O 38.96 CB 38.6 CG 38.72 CD1 39.15 CD2 36.93
B THR T 86 -53.8 118.9 N 39.37 CA 39.89 C 40.28 O 40.76 CB 39.38 OG1 40.48 CG2 38.22
B GLY T 35 104.5 -10.4 N 41.05 CA 42.21 C 43.29 O 43.54
B PHE H 1 -47.5 -44.9 N 44.28 CA 45.32 C 45.79 O 46.01 CB 45.75 CG 46.64 CD1 49.45 CD2 47.62 CE1 48.56 CE2 48.82 CZ 49.4
B SER H 46 -64.3 -45.7 N 46.11 CA 46.73 C 47.36 O 47.35 CB 46.51 OG 46.52
B GLU H 75 -65.5 -44.0 N 48.22 CA 48.77 C 49.01 O 48.75 CB 48.72
B GLU H 39 -63.6 -57.1 N 49.35 CA 50.2 C 50.25 O 50.77 CB 50.6 CG 53.12 CD 56.15 OE1 57.84 OE2 57.76
B PHE H 0 -54.8 -48.3 N 49.53 CA 48.14 C 48.04 O 47.94 CB 47.72 CG 46.14 CD1 43.7 CD2 44.75 CE1 42.6 CE2 43.63 CZ 42.4
B SER H 18 -53.6 -46.1 N 48.17 CA 48.83 C 49.95 O 50.28 CB 47.63
B ARG H 80 -66.7 -43.7 N 51.03 CA 51.71 C 52.26 O 52.48 CB 51.32
B PHE H 67 -60.9 -53.7 N 52.77 CA 53.35 C 53.64 O 54.04 CB 53.66 CG 55.8 CD1 57.18 CD2 58.18 CE1 59.15 CE2 59.01 CZ 59.62
B LEU H 8 -52.9 -45.5 N 53.56 CA 52.91 C 52.65 O 53.29 CB 52.94 CG 52.92 CD1 52.54 CD2 54.7
B GLY S 68 108.5 -21.4 N 52.02 CA 51.67 C 51.43 O 51.59
B LYS S 62 -121.6 174.3 N 50.65 CA 49.04 C 48.1 O 48.0 CB 48.81 CG 48.36 CD 49.25 CE 50.96 NZ 52.31
B GLU - 81 -84.0 121.9 N 47.0 CA 46.15 C 45.58 O 46.0 CB 45.66
B VAL - 8 -87.8 152.0 N 44.49 CA 43.33 C 42.11 O 42.19 CB 43.43 CG1 44.29 CG2 44.08
B GLN B 107 -117.7 129.8 N 40.9 CA 39.88 C 39.16 O 40.08 CB 39.96 CG 42.04 CD 46.84 OE1 47.5 NE2 50.21
B VAL - 38 -113.0 131.3 N 37.15 CA 35.73 C 35.33 O 35.96 CB 35.13 CG1 34.31 CG2 35.84
B PRO - 29 -80.1 178.3 N 34.96 CA 35.1 C 35.34 O 35.89 CB 34.91 CG 34.41 CD 35.32
B ILE S 42 -66.3 -54.4 N 35.4 CA 35.66 C 35.62 O 37.34 CB 34.8
B HIS S 29 -117.9 78.8 N 34.36 CA 33.41 C 32.62 O 32.63 CB 33.26 CG 33.22 ND1 32.75 CD2 32.95 CE1 30.87 NE2 32.67
B PRO G 2 -59.8 -34.6 N 31.77 CA 31.16 C 30.5 O 31.06 CB 31.04 CG 30.9 CD 31.42
B LEU G 18 -47.0 -31.4 N 29.15 CA 27.91 C 28.16 O 29.75 CB 27.53 CG 23.98 CD1 21.55 CD2 22.76
B LEU G 4 -90.7 -3.9 N 26.77 CA 25.96 C 26.25 O 27.08 CB 25.88 CG 25.79 CD1 26.25 CD2 27.74
B VAL H 0 -61.9 -50.2 N 25.94 CA 25.79 C 26.39 O 26.35 CB 26.05 CG1 24.44 CG2 25.33
B THR H 6 -71.3 -43.3 N 26.33 CA 27.12 C 27.85 O 27.97 CB 27.81 OG1 28.03 CG2 28.41
B PRO H 3 -60.2 -35.7 N 28.33 CA 28.56 C 29.25 O 29.94 CB 27.79 CG 28.67 CD 28.37
B LEU H 6 -68.7 -36.5 N 29.02 CA 29.36 C 29.98 O 30.14 CB 29.53 CG 27.96 CD1 26.06 CD2 26.18
B GLY H 0 -55.9 -50.4 N 30.58 CA 31.4 C 32.04 O 31.69
B ILE H 0 -52.3 -52.5 N 32.28 CA 32.29 C 32.47 O 32.78 CB 32.31 CG1 32.39 CG2 31.12 CD1 30.04
B ALA H 0 -60.8 -21.8 N 32.66 CA 32.88 C 33.2 O 33.54 CB 32.71
B LEU T 63 -54.6 -28.2 N 33.69 CA 34.25 C 34.93 O 35.87 CB 34.23 CG 34.42 CD1 35.73 CD2 33.68
B PHE T 55 -88.2 -9.7 N 35.29 CA 35.6 C 36.26 O 37.0 CB 35.26 CG 34.57 CD1 33.53 CD2 35.43 CE1 32.18 CE2 35.88 CZ 33.36
B GLY - 20 -73.5 360.0 N 36.52 CA 36.67 C 36.63 O 36.81
