A PRO - 111 360.0 168.0 N 32.92 CA 32.03 C 32.34 O 34.76 CB 32.35 CG 34.22 CD 32.32
A ILE - 35 -62.2 143.1 N 28.68 CA 26.45 C 23.41 O 27.3 CB 25.79 CG1 30.73 CG2 23.41 CD1 28.22
A THR - 78 -103.2 159.3 N 22.21 CA 20.93 C 19.04 O 19.8 CB 22.03 OG1 19.6 CG2 21.46
A GLN H 73 -62.6 -40.3 N 19.24 CA 18.93 C 19.62 O 19.58 CB 21.94 CG 31.7 CD 20.61 OE1 48.41 NE2 21.24
A ALA H 77 -57.2 -49.1 N 20.69 CA 21.1 C 17.01 O 20.01 CB 19.88
A PHE H 64 -60.3 -48.5 N 15.69 CA 17.07 C 14.82 O 13.6 CB 16.48 CG 18.7 CD1 24.03 CD2 17.89 CE1 24.31 CE2 19.55 CZ 19.85
A ALA H 0 -58.2 -45.2 N 13.94 CA 13.09 C 13.27 O 14.24 CB 14.81
A GLN H 42 -69.0 -40.3 N 14.59 CA 15.44 C 15.71 O 15.79 CB 15.81 CG 19.5 CD 27.7 OE1 29.71 NE2 28.74
A GLN H 81 -65.6 -45.7 N 13.65 CA 13.32 C 13.04 O 15.11 CB 15.82 CG 14.64 CD 15.26 OE1 18.06 NE2 16.98
A PHE H 4 -53.4 -44.7 N 14.05 CA 12.37 C 15.2 O 14.66 CB 15.5 CG 15.54 CD1 19.33 CD2 14.71 CE1 20.84 CE2 20.15 CZ 18.69
A SER H 2 -65.3 -41.8 N 15.04 CA 15.26 C 14.89 O 15.61 CB 14.72 OG 13.79
A ARG H 132 -56.3 -43.9 N 15.33 CA 15.31 C 15.66 O 17.26 CB 18.73 CG 20.9 CD 26.76 NE 25.02 CZ 26.45 NH1 23.55 NH2 28.66
A GLU H 69 -64.9 -44.5 N 14.37 CA 13.71 C 14.25 O 17.14 CB 15.19 CG 12.06 CD 15.99 OE1 22.18 OE2 18.29
A TRP H 4 -71.8 -46.8 N 13.1 CA 12.04 C 11.59 O 13.51 CB 13.13 CG 12.45 CD1 16.75 CD2 16.04 NE1 16.75 CE2 12.55 CE3 15.14 CZ2 16.92 CZ3 16.13 CH2 15.29
A ILE H 11 -62.7 -45.5 N 14.46 CA 12.96 C 12.65 O 13.84 CB 14.38 CG1 13.28 CG2 15.37 CD1 13.75
A ASP H 107 -59.2 -44.5 N 13.11 CA 12.62 C 14.63 O 14.32 CB 15.98 CG 22.17 OD1 25.51 OD2 24.9
A ALA H 7 -60.2 -45.9 N 13.04 CA 12.76 C 13.06 O 14.27 CB 14.38
A TRP H 11 -60.3 -44.0 N 12.19 CA 11.74 C 11.25 O 14.24 CB 11.33 CG 14.07 CD1 16.3 CD2 14.61 NE1 17.8 CE2 16.58 CE3 14.39 CZ2 15.82 CZ3 15.36 CH2 16.6
A ASN H 38 -69.1 -23.4 N 12.37 CA 14.21 C 12.55 O 16.73 CB 14.09 CG 15.33 OD1 15.06 ND2 15.04
A ALA T 66 -84.7 -7.9 N 12.09 CA 12.16 C 12.92 O 13.25 CB 14.04
A HIS T 74 59.6 43.4 N 12.89 CA 12.39 C 10.36 O 12.47 CB 14.82 CG 15.82 ND1 21.84 CD2 14.96 CE1 20.49 NE2 16.39
A ASP - 68 -112.4 91.5 N 16.16 CA 13.93 C 13.85 O 14.73 CB 13.95 CG 15.08 OD1 15.87 OD2 17.15
A LEU H 23 -61.4 -43.3 N 16.36 CA 16.36 C 13.54 O 16.25 CB 17.54 CG 20.87 CD1 23.15 CD2 21.39
A ASP H 132 -57.8 -43.9 N 15.93 CA 16.45 C 14.19 O 17.64 CB 19.0 CG 24.67 OD1 27.27 OD2 22.33
A ALA H 24 -66.6 -43.0 N 11.93 CA 12.65 C 13.89 O 16.26 CB 15.31
A ILE H 0 -55.9 -52.5 N 15.66 CA 13.04 C 15.24 O 17.91 CB 12.65 CG1 13.44 CG2 15.11 CD1 15.64
A LEU H 20 -65.2 -26.1 N 14.82 CA 14.81 C 15.36 O 17.55 CB 15.27 CG 17.7 CD1 21.44 CD2 21.36
A SER T 62 -63.5 -21.4 N 14.64 CA 14.91 C 14.33 O 16.18 CB 15.71 OG 14.78
A HIS T 31 -80.7 -7.7 N 14.18 CA 15.41 C 15.91 O 15.07 CB 17.91 CG 20.32 ND1 33.35 CD2 24.22 CE1 21.84 NE2 24.88
A TYR E 1 -109.5 149.3 N 15.55 CA 13.79 C 13.77 O 13.98 CB 14.17 CG 14.12 CD1 17.29 CD2 13.69 CE1 13.52 CE2 14.04 CZ 12.2 OH 16.18
A ALA E 22 -73.0 149.6 N 12.21 CA 11.27 C 13.89 O 13.87 CB 12.36
A ASP E 135 -56.8 142.3 N 11.65 CA 10.78 C 11.68 O 13.43 CB 9.99 CG 16.3 OD1 22.03 OD2 19.22
A GLY E 28 73.6 12.8 N 12.31 CA 14.09 C 12.38 O 13.15
A PHE E 2 -61.0 151.2 N 11.51 CA 12.81 C 12.55 O 14.45 CB 11.51 CG 13.44 CD1 13.07 CD2 14.03 CE1 16.82 CE2 13.37 CZ 13.63
A GLU E 80 -102.9 144.1 N 11.86 CA 13.13 C 14.72 O 14.8 CB 14.9 CG 19.87 CD 32.39 OE1 34.91 OE2 31.38
A SER E 17 -123.1 144.5 N 15.91 CA 15.09 C 14.96 O 16.26 CB 18.72 OG 25.0
A SER - 0 -153.6 144.8 N 13.82 CA 14.58 C 16.24 O 15.05 CB 15.74 OG 18.2
A PRO H 19 -67.3 -18.1 N 16.79 CA 15.79 C 17.99 O 19.02 CB 19.69 CG 18.44 CD 18.62
A ILE H 6 -66.7 -37.7 N 19.78 CA 22.75 C 22.58 O 20.55 CB 22.42 CG1 27.56 CG2 20.92 CD1 26.38
A VAL H 17 -54.2 -45.4 N 21.44 CA 21.66 C 21.75 O 19.95 CB 18.47 CG1 19.09 CG2 22.33
A GLN H 136 -65.7 -49.4 N 24.12 CA 25.31 C 27.27 O 32.22 CB 26.0 CG 28.48 CD 37.01 OE1 44.04 NE2 39.81
A ILE H 123 -78.7 -60.6 N 26.24 CA 23.47 C 26.0 O 28.87 CB 22.94 CG1 22.31 CG2 22.46 CD1 21.21
A ALA H 73 -72.1 -17.5 N 25.98 CA 28.51 C 30.34 O 29.79 CB 27.57
A GLY - 59 92.0 360.0 N 30.52 CA 30.22 C 33.87 O 34.75
A PRO - 118 360.0 -41.3 N 33.01 CA 31.62 C 30.07 O 31.5 CB 34.25 CG 30.93 CD 34.12
A SER - 80 -67.4 -22.8 N 27.21 CA 28.11 C 25.31 O 26.38 CB 30.66 OG 32.44
A GLY - 2 67.4 28.3 N 23.98 CA 21.32 C 20.74 O 18.69
A ARG E 45 -111.0 141.3 N 19.6 CA 17.68 C 14.11 O 15.14 CB 23.93
A LEU E 18 -128.9 161.2 N 14.51 CA 15.27 C 14.53 O 16.88 CB 16.04 CG 18.05 CD1 17.25 CD2 19.48
A ARG E 147 -140.1 139.9 N 14.54 CA 13.5 C 12.45 O 14.42 CB 12.67 CG 13.62 CD 13.61 NE 19.34 CZ 27.6 NH1 24.55 NH2 32.86
A GLY H 14 87.8 154.7 N 14.33 CA 15.69 C 18.76 O 15.7
A LYS H 59 -67.3 -30.6 N 19.36 CA 17.4 C 19.36 O 16.9 CB 17.16 CG 19.67 CD 18.71 CE 15.99 NZ 17.65
A GLU H 89 -63.6 -54.2 N 17.51 CA 18.19 C 18.51 O 17.53 CB 15.38
A GLN H 102 -70.0 -48.1 N 16.63 CA 17.75 C 17.36 O 17.29 CB 20.53 CG 25.6 CD 33.62 OE1 21.38 NE2 32.56
A VAL H 0 -71.2 -37.6 N 15.09 CA 13.45 C 13.54 O 14.69 CB 16.18 CG1 15.86 CG2 17.77
A GLY H 0 -61.0 -35.9 N 14.04 CA 15.16 C 15.78 O 17.75
A ALA H 45 -59.8 -46.5 N 18.62 CA 17.72 C 17.97 O 19.22 CB 16.26
A TYR H 48 -64.6 -43.5 N 16.25 CA 14.92 C 16.35 O 17.57 CB 17.13 CG 22.34 CD1 25.87 CD2 26.3 CE1 29.85 CE2 26.27 CZ 33.01 OH 30.25
A TRP H 15 -74.2 -28.6 N 15.19 CA 12.17 C 16.75 O 16.33 CB 12.46 CG 13.73 CD1 18.16 CD2 16.08 NE1 18.89 CE2 15.71 CE3 18.11 CZ2 21.89 CZ3 19.37 CH2 20.08
A ARG H 138 -60.7 -45.0 N 15.03 CA 17.13 C 19.41 O 18.4 CB 17.35 CG 20.55 CD 22.41 NE 25.47 CZ 31.55 NH1 27.4 NH2 33.34
A GLU H 89 -64.2 -37.9 N 20.66 CA 19.65 C 17.42 O 20.17 CB 20.8 CG 21.28 CD 26.35 OE1 24.29 OE2 27.71
A ALA H 25 -60.5 -47.1 N 16.72 CA 16.39 C 17.79 O 16.92 CB 17.77
A LEU H 24 -67.8 -30.8 N 17.76 CA 17.29 C 20.1 O 19.94 CB 16.32 CG 17.84 CD1 21.62 CD2 18.01
A ARG H 162 -72.8 -41.7 N 20.0 CA 21.59 C 20.68 O 23.03 CB 20.55 CG 25.76 CD 26.58 NE 31.12 CZ 37.29 NH1 37.69 NH2 36.77
A ILE - 50 -128.0 74.5 N 18.68 CA 20.1 C 20.75 O 18.52 CB 22.51 CG1 27.08 CG2 23.75 CD1 29.14
A PRO T 92 -68.4 -15.5 N 19.12 CA 21.8 C 21.9 O 27.06 CB 23.73 CG 20.2 CD 18.61
A ASP T 128 -107.0 25.5 N 17.3 CA 18.73 C 17.11 O 17.58 CB 21.6 CG 27.66 OD1 31.87 OD2 40.1
A LEU - 7 -50.0 133.4 N 15.06 CA 17.07 C 15.6 O 15.09 CB 14.81 CG 20.83 CD1 31.55 CD2 21.8
A HIS - 100 -143.2 134.7 N 17.02 CA 15.55 C 17.51 O 22.66 CB 17.57 CG 18.62 ND1 27.53 CD2 25.35 CE1 24.62 NE2 21.5
A PHE - 13 -107.1 124.1 N 12.74 CA 13.5 C 19.02 O 18.47 CB 15.73 CG 13.51 CD1 13.99 CD2 14.86 CE1 16.22 CE2 13.91 CZ 14.43
A GLU E 113 -97.6 111.7 N 15.66 CA 15.46 C 14.49 O 16.08 CB 16.62 CG 20.57 CD 27.51 OE1 20.32 OE2 21.85
A TRP E 117 -62.1 138.4 N 13.62 CA 13.31 C 12.28 O 13.61 CB 13.5 CG 15.26 CD1 14.57 CD2 14.47 NE1 13.8 CE2 12.98 CE3 15.0 CZ2 12.72 CZ3 17.82 CH2 16.56
A ILE E 65 -115.8 -52.0 N 12.72 CA 13.24 C 12.91 O 14.35 CB 12.51 CG1 12.96 CG2 14.38 CD1 15.37
A ALA E 6 -163.3 152.1 N 12.41 CA 12.54 C 14.11 O 14.6 CB 11.38
A THR E 3 -130.0 135.3 N 10.37 CA 11.05 C 13.68 O 13.16 CB 16.75 OG1 22.2 CG2 16.01
A LEU E 0 -131.0 150.3 N 12.83 CA 11.16 C 14.13 O 14.85 CB 14.12 CG 16.23 CD1 13.92 CD2 16.67
A ALA E 7 -111.8 132.5 N 10.61 CA 10.92 C 12.4 O 11.62 CB 12.61
A GLY - 2 -107.8 -162.5 N 12.94 CA 12.68 C 15.24 O 18.44
A VAL S 11 -72.6 -51.7 N 14.62 CA 14.89 C 16.72 O 17.11 CB 14.23 CG1 16.8 CG2 18.13
A ASP S 57 -125.4 17.4 N 16.78 CA 20.3 C 20.34 O 19.76 CB 21.64 CG 34.95 OD1 47.03 OD2 45.3
A SER E 0 -138.2 159.1 N 15.79 CA 13.54 C 14.84 O 15.57 CB 17.84 OG 18.15
A VAL E 0 -123.7 143.6 N 13.21 CA 11.97 C 12.58 O 14.47 CB 13.32 CG1 13.4 CG2 15.02
A ALA E 0 -118.5 122.3 N 11.64 CA 11.57 C 12.61 O 15.17 CB 13.85
A ILE E 0 -108.6 117.6 N 13.39 CA 11.68 C 13.83 O 14.05 CB 11.16 CG1 13.82 CG2 12.89 CD1 13.52
A HIS E 4 -103.7 131.1 N 14.38 CA 13.81 C 12.58 O 12.95 CB 14.77 CG 13.41 ND1 13.0 CD2 15.31 CE1 16.62 NE2 16.46
A TYR E 6 -158.6 161.3 N 11.48 CA 12.63 C 14.35 O 14.41 CB 14.04 CG 14.05 CD1 14.35 CD2 12.01 CE1 13.3 CE2 14.2 CZ 16.75 OH 17.95
A ARG E 119 -95.0 120.3 N 13.26 CA 12.96 C 21.32 O 18.6 CB 17.21 CG 25.17 CD 31.29 NE 34.93 CZ 33.3 NH1 33.15 NH2 36.65
A GLY - 7 -97.7 -152.1 N 22.36 CA 24.13 C 23.99 O 20.88
A ALA G 39 -52.7 131.6 N 28.34 CA 28.18 C 27.5 O 26.13 CB 29.55
A LYS G 116 65.4 17.3 N 26.8 CA 28.16 C 28.24 O 28.33 CB 30.04
A GLY G 30 81.7 11.6 N 26.91 CA 23.42 C 21.32 O 24.11
A ARG - 113 -76.4 135.3 N 19.77 CA 18.95 C 14.4 O 17.67 CB 20.99 CG 18.37 CD 23.35 NE 22.36 CZ 31.65 NH1 29.33 NH2 22.04
A LEU E 41 -73.5 145.0 N 14.92 CA 15.07 C 14.55 O 15.11 CB 18.07 CG 27.44 CD1 26.51 CD2 24.29
A ALA E 0 -145.2 163.0 N 12.12 CA 12.96 C 13.84 O 14.67 CB 17.23
A LEU E 0 -148.4 138.3 N 16.17 CA 16.29 C 17.96 O 21.52 CB 19.19 CG 26.57 CD1 18.14 CD2 18.99
A GLU E 10 -125.8 131.3 N 15.68 CA 14.37 C 14.51 O 14.55 CB 15.97 CG 19.71 CD 24.64 OE1 29.52 OE2 26.29
A VAL E 2 -107.6 132.3 N 14.42 CA 13.03 C 16.84 O 17.81 CB 15.2 CG1 15.15 CG2 15.72
A PHE E 0 -123.2 126.1 N 13.5 CA 14.32 C 14.99 O 15.26 CB 13.42 CG 17.95 CD1 19.35 CD2 19.21 CE1 20.63 CE2 17.91 CZ 20.15
A HIS E 26 -104.5 135.1 N 14.63 CA 16.78 C 16.79 O 14.05 CB 15.83 CG 19.45 ND1 25.57 CD2 20.44 CE1 28.29 NE2 22.06
A PHE E 19 -108.5 149.1 N 17.26 CA 20.42 C 20.41 O 21.12 CB 18.82 CG 14.26 CD1 16.3 CD2 17.11 CE1 18.29 CE2 19.72 CZ 18.19
A GLY - 22 -96.0 -170.8 N 19.07 CA 24.08 C 27.78 O 24.37
A PRO T 130 -69.6 -22.7 N 31.86 CA 32.15 C 33.48 O 37.4 CB 33.92 CG 34.32 CD 32.15
A ASP T 122 -96.7 22.5 N 30.83 CA 29.35 C 26.8 O 25.82 CB 29.25 CG 40.4 OD1 42.78 OD2 55.37
A ARG S 51 61.7 25.1 N 24.15 CA 21.24 C 18.54 O 18.6 CB 25.43
A ARG S 119 -110.3 158.7 N 16.54 CA 15.94 C 15.98 O 17.7 CB 16.86 CG 18.7 CD 23.7 NE 23.63 CZ 32.09 NH1 27.2 NH2 27.56
A VAL E 0 -73.8 124.0 N 14.79 CA 14.46 C 12.26 O 13.55 CB 17.61 CG1 16.34 CG2 18.06
A VAL E 55 -100.0 -21.7 N 13.72 CA 16.92 C 13.45 O 12.21 CB 15.91 CG1 15.96 CG2 16.26
A LYS E 90 -151.3 134.6 N 13.4 CA 14.08 C 15.32 O 15.14 CB 14.68 CG 26.35 CD 33.21 CE 38.13 NZ 49.51
A ALA E 0 -134.8 149.1 N 13.23 CA 14.57 C 16.49 O 15.67 CB 18.25
A LEU E 7 -137.2 122.5 N 14.34 CA 13.27 C 16.13 O 15.76 CB 13.29 CG 22.49 CD1 22.91 CD2 27.03
A ALA E 1 -91.3 146.9 N 14.22 CA 13.86 C 13.88 O 15.66 CB 15.63
A HIS E 1 -139.4 145.4 N 13.57 CA 13.16 C 13.1 O 15.58 CB 15.86 CG 12.89 ND1 15.09 CD2 16.0 CE1 15.02 NE2 15.82
A TYR E 33 -135.2 147.4 N 12.65 CA 15.05 C 14.08 O 13.25 CB 14.3 CG 13.96 CD1 18.08 CD2 18.53 CE1 17.74 CE2 15.73 CZ 17.28 OH 23.78
A ALA - 17 -79.1 162.9 N 15.04 CA 16.71 C 21.64 O 22.53 CB 19.67
A GLY - 109 -134.2 360.0 N 25.32 CA 26.26 C 30.86 O 29.6 OXT 32.79
B GLU - 210 360.0 108.8 N 35.36 CA 34.46 C 34.25 O 36.54 CB 35.25 CG 34.41 CD 33.78 OE1 34.35 OE2 28.16
B PRO - 23 -62.2 166.9 N 33.2 CA 32.94 C 29.77 O 29.61 CB 33.59 CG 35.69 CD 32.5
B ILE - 33 -43.0 126.5 N 25.19 CA 22.61 C 21.13 O 22.75 CB 21.17 CG1 26.61 CG2 23.13 CD1 29.88
B THR - 46 -83.4 158.0 N 21.1 CA 22.7 C 23.31 O 21.53 CB 23.69 OG1 24.98 CG2 24.63
B GLN H 52 -72.0 -31.0 N 25.45 CA 26.87 C 26.98 O 29.49 CB 29.22 CG 26.29 CD 34.34 OE1 42.45 NE2 34.42
B ALA H 80 -48.5 -57.5 N 25.01 CA 25.33 C 23.77 O 20.77 CB 25.44
B PHE H 62 -62.1 -45.0 N 21.16 CA 21.26 C 18.93 O 17.29 CB 21.23 CG 19.18 CD1 23.91 CD2 21.96 CE1 27.06 CE2 21.41 CZ 26.74
B ALA H 0 -62.4 -40.6 N 15.63 CA 16.63 C 15.53 O 13.95 CB 15.97
B GLN H 76 -71.4 -43.9 N 19.65 CA 16.88 C 16.28 O 17.74 CB 20.0 CG 17.42 CD 19.41 OE1 31.31 NE2 25.26
B GLN H 103 -68.8 -40.2 N 15.6 CA 17.34 C 16.03 O 14.68 CB 17.85 CG 19.99 CD 18.96 OE1 19.52 NE2 10.02
B PHE H 8 -58.7 -50.1 N 14.71 CA 15.11 C 14.74 O 10.52 CB 15.11 CG 12.09 CD1 17.64 CD2 13.06 CE1 20.93 CE2 13.64 CZ 17.72
B SER H 0 -58.3 -45.9 N 12.97 CA 15.49 C 15.29 O 13.37 CB 16.94 OG 18.29
B ARG H 146 -64.7 -38.8 N 17.12 CA 16.82 C 15.44 O 16.43 CB 18.14 CG 20.59 CD 21.55 NE 27.37 CZ 21.07 NH1 32.33 NH2 25.72
B GLU H 84 -71.6 -41.3 N 13.71 CA 12.97 C 14.09 O 14.94 CB 15.1 CG 12.12 CD 18.18 OE1 20.78 OE2 18.84
B TRP H 0 -67.1 -46.7 N 10.98 CA 11.97 C 14.98 O 11.7 CB 13.46 CG 10.19 CD1 11.11 CD2 11.64 NE1 13.32 CE2 13.17 CE3 13.36 CZ2 13.69 CZ3 14.86 CH2 14.39
B ILE H 7 -60.1 -46.1 N 14.67 CA 11.48 C 13.75 O 13.37 CB 11.75 CG1 13.06 CG2 12.96 CD1 11.3
B ASP H 76 -65.0 -35.1 N 12.95 CA 15.62 C 12.45 O 16.16 CB 15.57 CG 15.92 OD1 20.82 OD2 17.81
B ALA H 7 -68.3 -44.6 N 11.91 CA 13.63 C 13.43 O 11.32 CB 11.66
B TRP H 12 -59.1 -45.5 N 12.66 CA 11.17 C 12.35 O 13.4 CB 10.73 CG 10.59 CD1 13.77 CD2 12.14 NE1 15.02 CE2 14.91 CE3 14.25 CZ2 15.93 CZ3 16.21 CH2 14.93
B ASN H 39 -67.5 -28.9 N 11.37 CA 11.63 C 13.02 O 13.77 CB 12.14 CG 13.96 OD1 13.07 ND2 14.77
B ALA T 65 -80.5 -6.9 N 10.86 CA 13.02 C 13.97 O 13.01 CB 13.86
B HIS T 67 53.4 41.9 N 12.61 CA 14.63 C 12.51 O 12.84 CB 12.69 CG 13.04 ND1 22.8 CD2 14.45 CE1 19.29 NE2 17.22
B ASP - 73 -112.8 90.9 N 12.84 CA 11.8 C 12.24 O 11.57 CB 12.46 CG 15.41 OD1 14.95 OD2 14.99
B LEU H 22 -63.0 -39.2 N 10.81 CA 13.86 C 12.82 O 12.16 CB 13.85 CG 12.28 CD1 14.74 CD2 15.68
B ASP H 133 -57.3 -42.5 N 10.57 CA 10.76 C 11.72 O 12.26 CB 10.33 CG 11.43 OD1 13.01 OD2 13.05
B ALA H 25 -65.3 -44.1 N 11.55 CA 10.57 C 11.67 O 11.44 CB 9.78
B ILE H 0 -55.4 -52.0 N 11.37 CA 10.52 C 12.93 O 11.41 CB 13.8 CG1 10.13 CG2 15.25 CD1 10.86
B LEU H 21 -68.5 -22.5 N 11.93 CA 10.83 C 12.96 O 12.07 CB 13.0 CG 15.99 CD1 18.58 CD2 18.16
B SER T 55 -61.8 -20.9 N 11.84 CA 14.13 C 11.37 O 13.22 CB 13.87 OG 13.31
B HIS T 25 -85.9 -7.5 N 13.18 CA 13.74 C 15.42 O 15.4 CB 15.84 CG 15.57 ND1 15.05 CD2 20.33 CE1 17.87 NE2 16.66
B TYR E 0 -110.6 145.0 N 12.44 CA 12.75 C 14.47 O 14.26 CB 12.11 CG 11.72 CD1 10.67 CD2 13.81 CE1 13.13 CE2 11.64 CZ 10.85 OH 14.69
B ALA E 19 -76.1 153.0 N 14.12 CA 13.35 C 12.88 O 13.01 CB 15.17
B ASP E 132 -56.2 139.2 N 13.54 CA 15.04 C 14.4 O 14.52 CB 13.53 CG 15.57 OD1 20.03 OD2 28.56
B GLY E 27 69.2 20.1 N 12.9 CA 12.47 C 11.97 O 15.01
B PHE E 1 -60.3 148.1 N 10.33 CA 11.17 C 12.12 O 14.14 CB 11.7 CG 11.73 CD1 14.26 CD2 14.54 CE1 15.44 CE2 12.9 CZ 15.95
B GLU E 59 -96.4 136.6 N 12.5 CA 14.41 C 12.96 O 15.29 CB 15.35 CG 15.98 CD 22.56 OE1 27.25 OE2 18.85
B SER E 7 -114.3 128.4 N 13.28 CA 14.26 C 14.64 O 14.08 CB 16.71 OG 19.72
B SER - 6 -154.7 144.2 N 13.9 CA 11.54 C 14.58 O 13.96 CB 12.9 OG 13.58
B PRO H 34 -56.5 -27.5 N 13.96 CA 16.2 C 17.17 O 14.65 CB 19.36 CG 15.7 CD 16.21
B ILE I 14 -70.8 -39.2 N 14.74 CA 15.95 C 21.01 O 20.82 CB 16.49 CG1 20.56 CG2 14.7 CD1 17.75
B VAL I 23 -60.8 -47.2 N 16.87 CA 17.29 C 19.78 O 18.11 CB 16.17 CG1 17.28 CG2 19.03
B GLN I 158 -72.0 -48.5 N 21.92 CA 24.03 C 23.57 O 25.03 CB 26.51 CG 30.07 CD 40.29 OE1 43.58 NE2 38.77
B ILE I 122 -86.8 -62.2 N 20.01 CA 22.5 C 26.59 O 27.26 CB 20.43 CG1 28.86 CG2 28.13 CD1 28.67
B ALA I 26 -64.0 -16.8 N 23.96 CA 26.98 C 25.46 O 27.66 CB 25.76
B GLY - 56 68.9 33.9 N 23.04 CA 24.01 C 24.49 O 22.4
B GLU - 76 -107.6 107.5 N 22.73 CA 23.72 C 25.24 O 22.81 CB 24.94 CG 27.1 CD 17.27 OE1 18.79 OE2 23.03
B PRO T 103 -54.2 -28.9 N 23.53 CA 25.74 C 26.76 O 28.07 CB 25.92 CG 27.19 CD 25.49
B SER T 30 -71.1 -22.0 N 24.47 CA 24.68 C 22.78 O 24.58 CB 21.42 OG 25.53
B GLY - 0 73.2 18.5 N 19.71 CA 17.2 C 15.38 O 14.95
B ARG E 117 -117.6 141.3 N 17.28 CA 15.53 C 17.51 O 18.5 CB 21.41 CG 28.16 CD 39.65 NE 52.46 CZ 56.99 NH1 61.49 NH2 60.0
B LEU E 11 -134.2 160.9 N 16.62 CA 14.66 C 16.08 O 15.15 CB 19.97 CG 22.36 CD1 19.3 CD2 23.22
B ARG E 149 -140.2 138.4 N 14.59 CA 13.03 C 13.11 O 16.12 CB 15.3 CG 15.75 CD 14.92 NE 18.53 CZ 19.65 NH1 15.7 NH2 29.38
B GLY S 11 90.3 157.7 N 13.89 CA 14.66 C 17.99 O 13.9
B LYS H 49 -69.0 -33.5 N 16.96 CA 13.01 C 14.66 O 18.78 CB 15.27 CG 17.09 CD 16.49 CE 15.99 NZ 14.39
B GLU H 178 -67.1 -51.6 N 14.89 CA 19.0 C 18.97 O 18.31 CB 21.09 CG 28.69 CD 33.06 OE1 46.59 OE2 51.23
B GLN H 92 -71.2 -50.8 N 14.54 CA 15.33 C 15.59 O 16.54 CB 17.96 CG 22.02 CD 34.04 OE1 25.03 NE2 29.6
B VAL H 1 -70.1 -40.4 N 13.28 CA 14.52 C 15.54 O 13.45 CB 14.76 CG1 16.62 CG2 14.36
B GLY H 0 -57.8 -36.3 N 15.26 CA 13.92 C 13.03 O 15.13
B ALA H 46 -59.5 -41.8 N 13.84 CA 14.19 C 11.97 O 15.93 CB 16.62
B TYR H 96 -69.7 -45.8 N 13.35 CA 14.47 C 11.35 O 13.61 CB 14.34 CG 18.13 CD1 25.79 CD2 19.86 CE1 26.87 CE2 19.68 CZ 27.48 OH 28.79
B TRP H 28 -62.9 -38.8 N 13.78 CA 12.08 C 9.93 O 11.58 CB 11.6 CG 12.56 CD1 14.34 CD2 12.98 NE1 16.31 CE2 12.79 CE3 14.98 CZ2 15.08 CZ3 18.3 CH2 14.69
B ARG H 136 -57.0 -46.3 N 12.02 CA 12.78 C 12.94 O 14.56 CB 11.7 CG 12.93 CD 16.53 NE 13.84 CZ 16.87 NH1 16.14 NH2 16.08
B GLU H 87 -70.5 -35.0 N 11.63 CA 13.01 C 11.06 O 14.15 CB 13.97 CG 19.34 CD 17.3 OE1 25.71 OE2 16.32
B ALA H 30 -55.7 -45.9 N 11.62 CA 12.81 C 15.15 O 13.0 CB 12.74
B LEU H 22 -68.6 -31.8 N 14.74 CA 16.44 C 17.54 O 16.35 CB 15.28 CG 16.54 CD1 16.98 CD2 14.9
B ARG H 190 -70.6 -44.6 N 17.53 CA 21.14 C 19.68 O 20.27 CB 20.53 CG 26.56 CD 21.4 NE 26.43 CZ 36.21 NH1 39.4 NH2 32.27
B ILE S 45 -117.6 73.8 N 18.72 CA 18.27 C 18.45 O 15.16 CB 19.57 CG1 21.77 CG2 21.33 CD1 26.26
B PRO T 75 -68.7 -19.2 N 18.37 CA 23.92 C 25.57 O 30.61 CB 25.82 CG 21.86 CD 19.51
B ASP T 142 -114.7 37.4 N 22.74 CA 25.45 C 24.05 O 27.36 CB 25.17 CG 30.25 OD1 34.76 OD2 35.45
B LEU - 9 -55.6 137.6 N 19.77 CA 17.38 C 16.19 O 14.69 CB 14.23 CG 16.16 CD1 16.95 CD2 15.37
B HIS - 110 -153.9 132.2 N 17.92 CA 15.48 C 14.69 O 17.29 CB 15.48 CG 15.3 ND1 18.08 CD2 14.82 CE1 18.8 NE2 22.81
B PHE - 16 -112.2 137.8 N 13.51 CA 12.9 C 16.68 O 16.82 CB 13.57 CG 12.55 CD1 13.32 CD2 13.39 CE1 15.88 CE2 11.17 CZ 13.71
B GLU E 111 -104.3 120.3 N 12.28 CA 12.02 C 13.45 O 13.97 CB 12.63 CG 15.61 CD 16.4 OE1 13.73 OE2 12.75
B TRP E 73 -74.1 119.3 N 13.56 CA 15.36 C 13.9 O 14.58 CB 15.69 CG 17.05 CD1 14.66 CD2 16.05 NE1 16.36 CE2 19.63 CE3 21.2 CZ2 17.02 CZ3 23.21 CH2 23.91
B ILE E 81 -97.7 -55.7 N 13.67 CA 11.87 C 12.12 O 14.9 CB 11.03 CG1 15.83 CG2 9.93 CD1 14.41
B ALA E 14 -155.9 159.0 N 11.19 CA 12.47 C 10.45 O 12.43 CB 12.88
B THR E 5 -128.1 137.5 N 12.02 CA 12.77 C 12.38 O 14.81 CB 17.47 OG1 20.37 CG2 22.36
B LEU E 0 -128.9 140.6 N 11.66 CA 11.6 C 12.2 O 15.03 CB 13.06 CG 15.41 CD1 13.43 CD2 14.32
B ALA E 6 -106.7 138.2 N 9.24 CA 11.53 C 10.96 O 9.57 CB 12.02
B GLY - 1 -113.7 -146.6 N 13.36 CA 12.29 C 15.74 O 19.19
B VAL S 18 -77.7 -59.0 N 14.28 CA 14.62 C 15.48 O 17.8 CB 15.54 CG1 14.8 CG2 14.04
B ASP S 71 -123.4 18.3 N 13.04 CA 17.69 C 17.32 O 19.03 CB 19.75 CG 30.37 OD1 39.92 OD2 44.82
B SER E 1 -135.5 157.2 N 15.8 CA 12.67 C 12.66 O 13.14 CB 14.53 OG 18.13
B VAL E 0 -123.4 140.8 N 11.76 CA 12.69 C 15.11 O 13.97 CB 16.53 CG1 18.06 CG2 19.2
B ALA E 0 -115.5 122.3 N 11.98 CA 8.99 C 13.68 O 13.62 CB 11.16
B ILE E 0 -105.2 123.5 N 11.57 CA 10.57 C 11.4 O 12.1 CB 13.33 CG1 11.13 CG2 14.24 CD1 11.72
B HIS E 5 -105.1 126.9 N 12.51 CA 12.6 C 15.07 O 11.03 CB 14.42 CG 16.29 ND1 11.93 CD2 13.46 CE1 16.55 NE2 15.79
B TYR E 3 -154.7 163.8 N 11.66 CA 14.28 C 13.31 O 14.02 CB 14.4 CG 13.53 CD1 14.99 CD2 11.24 CE1 13.42 CE2 12.89 CZ 13.86 OH 14.56
B ARG E 127 -97.8 122.1 N 12.36 CA 12.3 C 19.0 O 18.78 CB 13.39 CG 19.64 CD 24.85 NE 26.33 CZ 25.49 NH1 31.94 NH2 35.18
B GLY - 7 -70.3 173.2 N 22.04 CA 23.79 C 22.32 O 20.47
B ALA T 32 -53.3 -30.6 N 24.9 CA 24.86 C 25.17 O 24.65 CB 22.63
B LYS T 144 -115.9 20.2 N 23.7 CA 25.18 C 26.49 O 26.06 CB 23.66 CG 25.96 CD 28.4 CE 28.76 NZ 28.39
B GLY S 27 92.1 -2.6 N 22.54 CA 20.4 C 16.91 O 16.84
B ARG - 106 -66.7 150.1 N 17.29 CA 20.42 C 16.85 O 16.94 CB 25.14 CG 25.13 CD 27.04 NE 33.89 CZ 37.6 NH1 35.37 NH2 30.57
B LEU E 47 -83.9 138.0 N 16.08 CA 12.26 C 13.54 O 14.88 CB 15.74 CG 25.6 CD1 19.2 CD2 21.4
B ALA E 0 -133.8 152.6 N 11.51 CA 10.61 C 11.2 O 13.42 CB 11.16
B LEU E 0 -149.6 108.1 N 12.55 CA 12.3 C 13.03 O 12.86 CB 13.02 CG 13.46 CD1 12.09 CD2 16.71
B GLU E 7 -112.6 128.8 N 12.55 CA 11.85 C 11.3 O 12.48 CB 15.5 CG 18.28 CD 15.65 OE1 21.39 OE2 19.63
B VAL E 3 -106.0 131.0 N 10.88 CA 12.7 C 14.74 O 13.04 CB 14.41 CG1 14.72 CG2 17.26
B PHE E 0 -121.6 121.0 N 13.53 CA 13.68 C 10.68 O 13.32 CB 13.54 CG 13.94 CD1 12.83 CD2 14.15 CE1 12.37 CE2 13.87 CZ 13.86
B HIS E 24 -98.2 136.0 N 10.84 CA 11.05 C 12.96 O 14.98 CB 13.2 CG 14.16 ND1 18.28 CD2 16.32 CE1 22.19 NE2 17.48
B PHE E 18 -108.5 152.7 N 13.24 CA 14.01 C 15.55 O 16.2 CB 10.68 CG 12.23 CD1 13.29 CD2 12.9 CE1 14.36 CE2 17.97 CZ 14.47
B GLY - 20 -104.6 -171.1 N 15.69 CA 19.45 C 23.08 O 19.32
B PRO T 146 -55.3 -39.5 N 26.95 CA 28.8 C 30.82 O 35.56 CB 29.68 CG 33.31 CD 28.62
B ASP T 82 -84.7 15.0 N 28.33 CA 27.27 C 26.12 O 27.29 CB 24.96
B ARG S 53 62.1 22.8 N 24.76 CA 22.78 C 21.43 O 17.78 CB 25.37
B ARG S 82 -111.1 161.7 N 16.42 CA 14.72 C 15.53 O 14.53 CB 17.06 CG 20.36 CD 22.15 NE 22.94 CZ 29.0 NH1 22.26 NH2 25.52
B VAL E 0 -77.2 121.3 N 13.97 CA 11.63 C 12.82 O 14.55 CB 13.03 CG1 15.1 CG2 12.86
B VAL E 55 -100.0 -21.2 N 12.16 CA 12.12 C 11.39 O 11.45 CB 10.13 CG1 12.1 CG2 11.43
B LYS E 74 -153.5 132.4 N 10.53 CA 12.15 C 13.86 O 14.48 CB 15.57 CG 21.96 CD 25.32 CE 39.66 NZ 48.15
B ALA E 0 -135.2 142.9 N 13.03 CA 13.09 C 13.73 O 14.78 CB 13.57
B LEU E 5 -133.0 127.1 N 12.01 CA 12.21 C 13.31 O 13.29 CB 13.44 CG 23.06 CD1 20.14 CD2 27.04
B ALA E 0 -96.2 147.7 N 10.6 CA 12.95 C 12.44 O 14.21 CB 13.77
B HIS E 1 -140.9 142.8 N 11.91 CA 11.15 C 12.69 O 11.38 CB 11.52 CG 10.76 ND1 12.57 CD2 14.43 CE1 16.3 NE2 13.44
B TYR E 30 -138.5 159.3 N 10.19 CA 9.82 C 12.97 O 11.37 CB 13.08 CG 11.02 CD1 14.51 CD2 12.44 CE1 18.45 CE2 14.13 CZ 18.32 OH 17.46
B ALA E 10 -147.1 164.6 N 15.87 CA 20.29 C 21.43 O 24.73 CB 18.28
B GLY - 124 87.8 360.0 N 25.69 CA 27.72 C 32.31 O 35.63 OXT 34.22
