A SER - 88 360.0 67.4 N 21.5 CA 17.55 C 12.97 O 12.95 CB 22.55 OG 19.49
A ARG E 87 -132.7 166.4 N 10.2 CA 10.08 C 10.64 O 14.16 CB 11.63 CG 12.62 CD 13.42 NE 14.82 CZ 15.16 NH1 19.85 NH2 18.78
A VAL E 3 -139.8 142.1 N 8.47 CA 8.93 C 8.82 O 9.71 CB 9.46 CG1 9.9 CG2 10.63
A SER - 45 -70.1 156.1 N 8.02 CA 9.46 C 8.36 O 9.06 CB 9.06 OG 10.49
A VAL H 6 -66.9 -32.4 N 8.6 CA 8.92 C 8.47 O 8.64 CB 9.99 CG1 10.68 CG2 11.16
A THR H 56 -72.5 -35.9 N 8.31 CA 9.08 C 8.92 O 9.16 CB 11.16 OG1 13.0 CG2 12.53
A ASP H 77 -65.7 -39.6 N 8.69 CA 8.47 C 8.54 O 8.91 CB 8.09 CG 10.41 OD1 11.37 OD2 13.37
A TYR H 1 -63.5 -43.4 N 7.82 CA 8.07 C 8.17 O 8.05 CB 8.65 CG 8.27 CD1 9.24 CD2 8.96 CE1 8.82 CE2 9.38 CZ 8.34 OH 9.35
A LYS H 63 -60.8 -39.9 N 8.97 CA 9.83 C 9.17 O 8.2 CB 10.75 CG 10.71 CD 13.5 CE 16.28 NZ 18.66
A ARG H 146 -64.3 -44.2 N 8.71 CA 9.94 C 8.89 O 10.14 CB 10.61 CG 16.88 CD 16.81 NE 15.49 CZ 16.39 NH1 17.79 NH2 20.97
A LEU H 37 -57.5 -45.3 N 9.29 CA 9.88 C 10.41 O 13.49 CB 15.87 CG 18.84 CD1 18.3 CD2 19.08
A LEU H 44 -59.0 -44.7 N 9.52 CA 10.51 C 11.01 O 12.16 CB 12.31 CG 11.4 CD1 12.47 CD2 13.89
A ASP H 104 -72.4 -15.9 N 9.85 CA 13.39 C 10.72 O 11.38 CB 14.17 CG 19.76 OD1 22.82 OD2 21.03
A SER H 76 -71.5 -23.1 N 10.42 CA 12.06 C 10.91 O 11.59 CB 12.63 OG 12.59
A GLY T 67 73.7 7.2 N 10.02 CA 10.53 C 9.14 O 11.56
A ALA - 51 -66.7 146.9 N 10.96 CA 12.34 C 10.95 O 11.34 CB 13.17
A PHE - 56 -65.3 134.9 N 11.23 CA 11.22 C 10.09 O 12.06 CB 11.91 CG 11.59 CD1 13.24 CD2 14.04 CE1 14.56 CE2 14.42 CZ 14.0
A HIS - 22 -161.3 172.5 N 8.58 CA 9.66 C 8.65 O 9.94 CB 10.41 CG 9.44 ND1 11.66 CD2 10.28 CE1 11.5 NE2 9.71
A LEU E 23 -121.6 129.5 N 9.44 CA 9.06 C 9.02 O 11.69 CB 10.16 CG 13.03 CD1 14.92 CD2 11.52
A LEU E 3 -96.0 123.4 N 9.45 CA 9.32 C 8.79 O 9.64 CB 9.12 CG 10.57 CD1 11.42 CD2 12.56
A LEU E 0 -105.1 118.7 N 8.43 CA 9.65 C 8.2 O 10.15 CB 12.55 CG 18.44 CD1 17.77 CD2 18.6
A ASP E 4 -91.2 116.3 N 8.6 CA 8.59 C 9.17 O 10.16 CB 10.99 CG 10.84 OD1 10.83 OD2 12.72
A VAL - 1 -107.5 18.5 N 9.21 CA 8.95 C 10.46 O 11.66 CB 9.51 CG1 11.88 CG2 11.13
A ARG S 0 -73.5 159.0 N 10.01 CA 12.84 C 12.9 O 13.72 CB 11.59 CG 9.96 CD 10.12 NE 8.93 CZ 10.33 NH1 10.98 NH2 9.44
A PRO - 53 -67.3 160.8 N 16.96 CA 17.76 C 16.75 O 15.37 CB 19.09 CG 24.22 CD 16.97
A GLN H 98 -52.1 -41.2 N 17.89 CA 16.45 C 14.51 O 15.88 CB 21.35 CG 19.85 CD 23.25 OE1 27.07 NE2 25.57
A VAL H 103 -59.6 -37.8 N 13.84 CA 14.16 C 12.71 O 14.38 CB 16.33 CG1 17.66 CG2 16.23
A GLU H 41 -74.5 -42.2 N 11.11 CA 12.13 C 10.82 O 10.76 CB 13.05 CG 13.52 CD 14.77 OE1 12.92 OE2 19.72
A VAL H 7 -62.0 -31.7 N 10.97 CA 11.64 C 12.11 O 13.53 CB 14.61 CG1 19.74 CG2 13.39
A ASP H 104 -67.9 -25.8 N 13.03 CA 15.1 C 13.98 O 16.39 CB 15.64 CG 21.73 OD1 22.18 OD2 22.62
A ILE H 95 -74.9 -52.3 N 13.34 CA 13.13 C 12.29 O 13.22 CB 12.82 CG1 14.65 CG2 14.68 CD1 15.52
A CYS - 12 -161.8 153.6 N 11.52 CA 12.56 C 10.82 O 12.02 CB 15.74 SG 12.82
A ARG - 119 -159.8 160.7 N 10.67 CA 11.21 C 10.78 O 14.16 CB 13.96 CG 17.71 CD 23.35 NE 26.8 CZ 28.35 NH1 22.34 NH2 33.59
A LEU - 15 -83.7 118.2 N 11.71 CA 10.98 C 11.91 O 12.51 CB 10.63 CG 12.44 CD1 12.64 CD2 18.02
A PRO T 124 -59.4 -26.1 N 12.98 CA 12.33 C 11.68 O 14.45 CB 17.83 CG 21.24 CD 15.14
A HIS T 90 -78.1 -14.1 N 10.07 CA 9.84 C 10.99 O 10.87 CB 11.37 CG 10.17 ND1 10.99 CD2 10.79 CE1 10.14 NE2 10.12
A ALA S 23 -73.1 150.3 N 10.23 CA 10.61 C 11.29 O 12.11 CB 10.89
A LEU E 34 -91.1 130.0 N 10.69 CA 11.47 C 11.99 O 13.28 CB 15.79 CG 21.95 CD1 24.63 CD2 18.69
A HIS E 43 -91.0 115.3 N 12.79 CA 12.69 C 12.25 O 14.13 CB 15.54 CG 15.79 ND1 17.79 CD2 16.36 CE1 16.14 NE2 14.96
A ILE - 1 -137.3 101.1 N 11.49 CA 13.63 C 12.82 O 13.27 CB 16.05 CG1 18.73 CG2 19.54 CD1 21.85
A PRO - 15 -57.0 143.5 N 14.06 CA 14.55 C 13.83 O 14.92 CB 16.6 CG 20.42 CD 16.12
A LEU H 18 -47.0 -45.2 N 14.19 CA 14.64 C 14.62 O 16.21 CB 15.84 CG 16.5 CD1 15.87 CD2 17.63
A LYS H 56 -60.3 -33.6 N 16.43 CA 17.97 C 18.28 O 17.98 CB 21.19
A HIS H 68 -66.5 -37.8 N 15.92 CA 18.56 C 16.91 O 21.29 CB 17.84 CG 21.51 ND1 26.09 CD2 21.41 CE1 26.19 NE2 28.07
A LEU H 13 -67.5 -44.5 N 14.12 CA 14.87 C 17.63 O 18.15 CB 17.3 CG 16.17 CD1 14.58 CD2 20.05
A GLU H 107 -57.4 -44.8 N 16.5 CA 17.87 C 19.44 O 23.38 CB 20.2 CG 18.22 CD 23.63 OE1 25.42 OE2 23.92
A ARG T 81 -94.1 10.1 N 16.5 CA 19.46 C 25.32 O 27.05 CB 23.4
A ARG T 114 52.2 48.0 N 23.7 CA 24.13 C 22.38 O 24.75 CB 26.06 CG 27.84 CD 31.77 NE 33.15 CZ 32.69 NH1 35.41 NH2 36.17
A ASP - 61 -56.0 114.5 N 21.24 CA 21.73 C 21.74 O 23.77 CB 21.22 CG 24.92 OD1 28.99 OD2 28.91
A ALA H 71 -64.6 -33.2 N 22.56 CA 22.03 C 21.73 O 22.23 CB 23.8
A GLU H 125 -73.3 -31.9 N 22.64 CA 23.24 C 22.0 O 23.81 CB 25.41 CG 25.47 CD 26.34 OE1 27.9 OE2 28.71
A SER H 13 -75.4 -31.7 N 22.16 CA 20.45 C 21.03 O 21.52 CB 22.32 OG 24.44
A LEU H 40 -62.4 -41.2 N 21.19 CA 20.3 C 20.46 O 19.29 CB 23.71 CG 22.97 CD1 28.0 CD2 30.75
A LYS H 120 -62.2 -44.0 N 21.08 CA 19.36 C 18.02 O 18.45 CB 22.03 CG 26.69 CD 28.15 CE 31.13 NZ 32.92
A LEU H 49 -54.7 -44.1 N 20.83 CA 19.22 C 17.47 O 16.6 CB 22.31 CG 26.61 CD1 26.96 CD2 26.32
A LEU H 1 -66.7 -47.2 N 16.16 CA 15.08 C 15.4 O 14.22 CB 19.28 CG 19.2 CD1 19.18 CD2 20.23
A LYS H 97 -55.7 -41.9 N 16.28 CA 16.92 C 13.44 O 16.93 CB 18.83 CG 22.56 CD 27.24 CE 28.23 NZ 31.88
A GLU H 115 -65.8 -40.3 N 15.11 CA 15.43 C 14.46 O 13.86 CB 17.59 CG 21.12 CD 25.0 OE1 30.12 OE2 28.73
A ALA H 13 -62.1 -41.7 N 12.78 CA 12.68 C 12.1 O 13.44 CB 13.26
A ILE H 5 -65.9 -43.5 N 12.4 CA 12.61 C 13.57 O 13.69 CB 14.78 CG1 15.47 CG2 18.31 CD1 17.77
A TRP H 155 -63.3 -34.6 N 14.68 CA 16.31 C 14.77 O 15.81 CB 16.37 CG 17.66 CD1 20.04 CD2 17.78 NE1 20.44 CE2 21.01 CE3 22.71 CZ2 21.28 CZ3 23.62 CH2 22.98
A GLU H 161 -56.7 -40.3 N 14.27 CA 13.97 C 13.17 O 13.23 CB 16.61 CG 16.41 CD 16.31 OE1 18.35 OE2 21.05
A GLU H 102 -77.5 -44.6 N 12.98 CA 11.21 C 12.22 O 13.56 CB 12.56 CG 12.71 CD 14.17 OE1 13.12 OE2 18.02
A LYS H 60 -108.0 -23.8 N 14.22 CA 21.36 C 19.57 O 19.7 CB 17.41 CG 23.32 CD 25.11 CE 24.62 NZ 29.01
A GLN T 133 48.4 45.9 N 17.91 CA 19.8 C 21.07 O 24.46 CB 18.63 CG 16.52 CD 15.87 OE1 20.88 NE2 17.0
A GLY T 58 71.3 14.4 N 20.09 CA 23.77 C 25.59 O 29.18
A THR - 152 -103.2 360.0 N 24.08 CA 26.21 C 27.39 O 27.5 CB 28.89 OG1 30.97 CG2 28.57
A ALA - 132 360.0 144.2 N 29.48 CA 28.58 C 24.56 O 25.49 CB 20.58
A ALA - 36 -48.8 137.9 N 21.29 CA 17.37 C 14.78 O 21.18 CB 19.02
A VAL E 5 -72.8 125.9 N 14.07 CA 14.14 C 11.91 O 12.44 CB 14.87 CG1 17.63 CG2 20.06
A PRO E 42 -74.1 117.4 N 11.26 CA 13.07 C 11.39 O 10.98 CB 13.53 CG 17.25 CD 13.99
A ILE E 0 -115.6 127.9 N 10.36 CA 10.96 C 8.81 O 10.34 CB 11.21 CG1 13.29 CG2 13.18 CD1 15.11
A TYR E 28 -114.3 147.5 N 8.76 CA 8.44 C 9.36 O 11.34 CB 9.51 CG 9.25 CD1 11.1 CD2 11.56 CE1 12.83 CE2 13.04 CZ 13.02 OH 18.61
A VAL E 0 -128.4 133.5 N 9.72 CA 9.6 C 8.59 O 9.43 CB 10.19 CG1 11.77 CG2 12.05
A ILE E 1 -138.5 148.6 N 8.27 CA 8.55 C 8.59 O 8.81 CB 8.54 CG1 8.08 CG2 9.39 CD1 10.33
A CYS - 2 -143.1 -164.6 N 7.65 CA 8.75 C 7.67 O 8.54 CB 11.52 SG 13.81
A LYS S 57 -61.3 -47.3 N 8.51 CA 8.98 C 8.58 O 8.81 CB 10.06 CG 11.05 CD 11.15 CE 13.94 NZ 14.8
A LEU S 89 -126.8 -7.1 N 9.61 CA 10.9 C 9.67 O 11.14 CB 12.1 CG 14.71 CD1 16.17 CD2 16.42
A GLY S 0 95.5 8.6 N 9.56 CA 11.32 C 13.48 O 17.36
A ASN S 94 -83.1 -55.4 N 12.05 CA 17.52 C 17.72 O 25.21 CB 16.43 CG 20.02 OD1 24.76 ND2 20.11
A ASP H 49 -63.3 -36.6 N 16.99 CA 20.05 C 17.4 O 15.97 CB 20.4 CG 25.95 OD1 30.02 OD2 25.71
A SER H 0 -62.9 -33.9 N 15.77 CA 14.26 C 14.78 O 13.73 CB 13.69 OG 12.87
A GLN H 92 -60.5 -38.3 N 16.08 CA 16.6 C 20.2 O 21.26 CB 18.6 CG 20.6 CD 25.6 OE1 30.35 NE2 27.52
A LYS H 112 -67.6 -37.8 N 18.08 CA 18.34 C 16.78 O 17.76 CB 19.23 CG 20.32 CD 19.06 CE 25.78 NZ 28.16
A ALA H 0 -67.4 -41.1 N 13.53 CA 13.07 C 15.03 O 14.17 CB 13.01
A VAL H 6 -53.9 -47.5 N 13.7 CA 15.09 C 16.06 O 16.83 CB 14.41 CG1 17.84 CG2 14.03
A LYS H 50 -55.7 -46.5 N 15.38 CA 17.94 C 17.78 O 19.11 CB 19.98
A ILE H 27 -64.1 -43.2 N 16.95 CA 18.62 C 16.52 O 18.25 CB 16.57 CG1 19.33 CG2 18.73 CD1 19.21
A LEU H 0 -63.8 -40.7 N 16.49 CA 16.25 C 17.33 O 17.36 CB 16.1 CG 13.39 CD1 13.57 CD2 15.89
A GLN H 75 -62.1 -35.2 N 16.1 CA 18.82 C 21.98 O 23.01 CB 20.01 CG 19.36 CD 20.37 OE1 23.57 NE2 19.88
A SER H 66 -70.9 -36.5 N 23.24 CA 22.53 C 21.41 O 23.5 CB 21.94 OG 29.24
A LEU H 4 -64.2 -44.9 N 20.46 CA 20.01 C 20.31 O 24.98 CB 21.0 CG 23.61 CD1 24.29 CD2 24.54
A SER H 22 -57.7 -55.5 N 19.32 CA 20.8 C 22.42 O 23.63 CB 18.49 OG 22.74
A ALA H 85 -59.6 -30.1 N 21.67 CA 22.96 C 23.4 O 26.94 CB 24.95
A ALA T 59 -85.4 -1.0 N 24.25 CA 24.69 C 25.03 O 27.19 CB 24.97
A GLN T 172 60.2 27.9 N 25.32 CA 24.33 C 25.66 O 27.96 CB 25.63 CG 25.04 CD 29.68 OE1 31.25 NE2 30.45
A GLU S 86 -84.0 -22.6 N 27.65 CA 30.18 C 30.4 O 30.02 CB 32.5 CG 35.29 CD 37.86 OE1 38.38 OE2 40.14
A LEU S 8 -120.6 154.9 N 30.66 CA 29.28 C 28.5 O 28.03 CB 24.98 CG 29.12 CD1 29.25 CD2 28.9
A ASP S 82 -54.1 159.9 N 28.82 CA 27.67 C 24.23 O 26.63 CB 32.0 CG 34.09 OD1 34.92 OD2 34.96
A PRO - 87 -59.7 138.3 N 20.75 CA 17.93 C 16.06 O 15.86 CB 20.87 CG 21.74 CD 22.87
A LEU E 17 -127.7 149.8 N 15.89 CA 14.14 C 14.53 O 17.33 CB 14.9 CG 14.95 CD1 15.49 CD2 16.57
A THR E 79 -116.7 119.7 N 13.58 CA 16.34 C 12.97 O 13.59 CB 19.57 OG1 20.85 CG2 19.03
A VAL E 5 -121.2 131.3 N 11.56 CA 11.67 C 11.75 O 12.25 CB 12.52 CG1 12.33 CG2 14.49
A ARG E 82 -142.7 144.5 N 10.52 CA 11.37 C 10.59 O 13.54 CB 12.77 CG 14.65 CD 15.53 NE 16.81 CZ 16.07 NH1 17.61 NH2 8.38
A ASP E 3 -105.2 160.0 N 10.06 CA 10.37 C 9.52 O 10.94 CB 11.26 CG 13.18 OD1 13.68 OD2 14.83
A VAL E 0 -90.4 116.9 N 9.23 CA 9.62 C 9.78 O 9.67 CB 10.38 CG1 12.33 CG2 11.28
A VAL T 63 -63.3 127.5 N 10.2 CA 10.1 C 11.57 O 10.24 CB 12.31 CG1 15.69 CG2 11.32
A GLY T 28 87.4 -8.7 N 8.74 CA 9.84 C 8.49 O 9.52
A GLY H 0 59.6 -154.2 N 8.42 CA 9.86 C 7.45 O 7.83
A LEU H 0 -67.9 -23.4 N 7.48 CA 7.68 C 8.43 O 8.27 CB 9.41 CG 8.96 CD1 13.5 CD2 10.76
A ALA H 15 -67.0 -38.7 N 7.94 CA 8.56 C 7.53 O 9.49 CB 10.51
A TRP I 16 -56.0 -48.1 N 8.08 CA 8.36 C 8.27 O 9.28 CB 9.63 CG 10.31 CD1 13.87 CD2 12.2 NE1 18.14 CE2 14.19 CE3 14.53 CZ2 17.47 CZ3 15.8 CH2 14.15
A ALA I 9 -65.8 -38.7 N 9.15 CA 10.27 C 10.44 O 12.24 CB 11.6
A ALA I 82 -70.3 -38.9 N 8.55 CA 10.58 C 10.75 O 13.37 CB 11.81
A LYS I 151 -112.5 -32.9 N 9.52 CA 10.57 C 9.81 O 12.34 CB 10.16 CG 10.32 CD 10.21 CE 10.53 NZ 12.42
A ILE I 45 -105.3 -49.5 N 9.96 CA 10.68 C 12.83 O 15.56 CB 10.31 CG1 10.78 CG2 13.15 CD1 12.39
A ASP - 60 -149.0 100.5 N 12.87 CA 16.46 C 16.6 O 15.54 CB 19.11 CG 21.58 OD1 24.23 OD2 27.19
A GLY T 70 -67.1 -5.9 N 18.04 CA 18.1 C 20.67 O 23.24
A THR T 116 -79.1 -14.0 N 20.06 CA 20.35 C 19.21 O 19.34 CB 24.16 OG1 28.2 CG2 29.01
A PHE S 13 -72.7 124.8 N 16.31 CA 13.72 C 14.25 O 14.11 CB 14.43 CG 13.33 CD1 15.27 CD2 14.71 CE1 19.19 CE2 16.12 CZ 13.83
A PRO - 56 -83.2 157.0 N 12.4 CA 12.01 C 12.53 O 14.29 CB 14.72 CG 13.95 CD 14.82
A GLN - 141 -67.2 152.4 N 16.23 CA 16.18 C 15.72 O 19.24 CB 20.16 CG 22.46 CD 22.64 OE1 22.86 NE2 28.26
A TYR - 67 -156.6 360.0 N 14.31 CA 13.8 C 19.36 O 15.9 CB 14.9 CG 13.31 CD1 11.38 CD2 14.67 CE1 12.75 CE2 13.93 CZ 10.9 OH 11.09
