A PRO - 89 360.0 120.8 N 66.68 CA 66.47 C 66.07 O 66.24 CB 66.57 CG 67.14 CD 66.87
A GLN - 61 -39.8 136.1 N 65.08 CA 64.41 C 63.34 O 63.32 CB 64.64
A GLU H 84 -61.2 -13.8 N 61.3 CA 59.05 C 57.79 O 57.97 CB 59.11
A THR H 124 -78.0 -18.7 N 55.96 CA 53.39 C 50.09 O 50.21 CB 54.77 OG1 56.22 CG2 55.35
A LEU H 45 -60.0 -63.5 N 45.81 CA 40.49 C 36.41 O 36.71 CB 40.49 CG 41.89 CD1 41.56 CD2 42.66
A ASN H 12 -134.3 26.2 N 30.32 CA 24.97 C 22.9 O 22.65 CB 22.77 CG 19.31 OD1 16.26 ND2 18.56
A GLY H 12 -55.1 -34.2 N 20.48 CA 18.24 C 19.64 O 19.43
A GLY H 33 -64.0 -44.9 N 17.39 CA 19.22 C 18.12 O 20.07
A ILE H 3 -65.0 -47.5 N 17.11 CA 16.25 C 16.89 O 16.74 CB 15.82 CG1 17.64 CG2 13.95 CD1 18.42
A THR H 22 -67.0 -34.3 N 15.9 CA 19.08 C 18.68 O 19.14 CB 20.95 OG1 27.35 CG2 24.16
A ASP H 113 -63.3 -47.5 N 15.97 CA 15.86 C 13.36 O 13.27 CB 16.37 CG 17.26 OD1 19.56 OD2 21.46
A MET H 4 -58.5 -45.1 N 14.2 CA 14.53 C 12.78 O 13.93 CB 16.35 CG 16.34 SD 25.14 CE 22.69
A LEU H 0 -66.3 -36.8 N 12.06 CA 10.49 C 11.35 O 9.93 CB 11.44 CG 11.11 CD1 11.27 CD2 8.32
A THR H 62 -67.6 -41.4 N 12.07 CA 14.44 C 14.75 O 13.67 CB 16.92 OG1 18.61 CG2 19.61
A GLU H 47 -63.2 -40.5 N 13.88 CA 13.86 C 11.79 O 12.43 CB 16.24 CG 24.91 CD 28.67 OE1 29.57 OE2 31.45
A LEU H 16 -65.0 -41.5 N 8.89 CA 8.87 C 9.39 O 7.35 CB 7.86 CG 8.72 CD1 9.5 CD2 10.43
A ALA H 0 -55.1 -48.2 N 8.45 CA 9.69 C 11.13 O 11.84 CB 7.14
A ASN H 53 -60.7 -45.6 N 11.66 CA 12.03 C 12.78 O 11.1 CB 14.93 CG 16.46 OD1 15.52 ND2 17.01
A PHE H 10 -62.1 -35.8 N 12.85 CA 12.95 C 12.93 O 10.31 CB 13.33 CG 15.52 CD1 17.08 CD2 15.51 CE1 12.34 CE2 14.35 CZ 13.21
A GLU H 29 -62.8 -44.7 N 11.13 CA 12.97 C 13.25 O 13.85 CB 11.62 CG 8.45 CD 9.89 OE1 6.86 OE2 12.82
A LYS H 58 -72.1 -56.4 N 11.48 CA 12.85 C 10.91 O 11.63 CB 10.59 CG 14.94 CD 14.71 CE 19.7 NZ 22.6
A ASN H 7 -77.7 -23.4 N 10.38 CA 10.82 C 10.94 O 11.63 CB 8.28 CG 10.43 OD1 9.66 ND2 7.6
A VAL T 17 -113.1 -54.0 N 10.83 CA 10.03 C 9.05 O 9.73 CB 13.19 CG1 15.4 CG2 13.39
A SER S 75 -78.9 -15.3 N 9.34 CA 10.23 C 9.95 O 10.84 CB 12.27 OG 16.54
A GLN - 109 54.7 54.8 N 10.94 CA 11.28 C 11.26 O 8.85 CB 14.22 CG 17.67 CD 23.06 OE1 24.42 NE2 24.79
A ALA - 28 -125.9 74.8 N 9.97 CA 11.02 C 12.65 O 14.67 CB 10.98
A ILE H 78 -49.5 -34.2 N 12.14 CA 12.68 C 13.05 O 13.23 CB 15.16 CG1 13.72 CG2 12.78 CD1 19.57
A HIS H 156 -71.7 -34.3 N 11.11 CA 11.7 C 10.37 O 9.85 CB 11.8 CG 12.15 ND1 13.28 CD2 11.81 CE1 12.12 NE2 8.48
A LYS H 122 -72.6 -34.8 N 9.31 CA 10.01 C 10.31 O 11.12 CB 9.95 CG 11.4 CD 12.97 CE 16.57 NZ 14.72
A TYR H 34 -58.8 -51.3 N 12.05 CA 13.37 C 14.53 O 13.76 CB 12.95 CG 14.0 CD1 13.72 CD2 13.33 CE1 16.9 CE2 17.42 CZ 18.91 OH 18.55
A ASN H 69 -65.5 -31.6 N 14.79 CA 15.97 C 13.88 O 12.41 CB 17.77 CG 17.68 OD1 19.59 ND2 20.59
A ALA H 48 -63.6 -47.2 N 14.1 CA 11.75 C 13.59 O 14.17 CB 9.08
A TYR H 24 -64.2 -40.3 N 12.27 CA 13.56 C 15.78 O 18.09 CB 12.53 CG 11.22 CD1 11.49 CD2 11.5 CE1 12.66 CE2 10.21 CZ 9.92 OH 12.64
A ARG H 115 -62.7 -41.0 N 18.19 CA 19.74 C 19.6 O 20.29 CB 21.85 CG 28.49 CD 33.22 NE 36.03 CZ 37.69 NH1 38.88 NH2 38.62
A LYS H 127 -65.2 -40.6 N 17.78 CA 16.19 C 17.62 O 16.78 CB 18.14 CG 22.51 CD 22.7 CE 25.43 NZ 25.97
A ALA H 0 -64.6 -44.1 N 14.14 CA 15.64 C 16.07 O 16.05 CB 15.09
A ALA H 7 -63.5 -38.6 N 16.88 CA 18.23 C 20.89 O 20.87 CB 14.97
A SER H 57 -65.0 -54.9 N 20.99 CA 22.45 C 23.09 O 23.83 CB 22.5 OG 27.37
A VAL H 34 -57.8 -33.9 N 23.2 CA 23.76 C 24.26 O 24.78 CB 23.85 CG1 23.19 CG2 24.39
A ILE H 0 -76.1 -35.5 N 21.29 CA 21.63 C 21.97 O 22.71 CB 19.28 CG1 19.98 CG2 20.4 CD1 14.99
A ALA H 52 -64.1 -21.0 N 21.96 CA 22.42 C 24.9 O 24.38 CB 20.7
A LYS T 128 -101.1 -8.1 N 25.18 CA 27.12 C 26.73 O 26.6 CB 27.36 CG 32.45 CD 33.28 CE 35.24 NZ 35.98
A TYR - 47 -71.1 122.6 N 27.57 CA 28.3 C 29.07 O 29.65 CB 26.57 CG 23.66 CD1 22.55 CD2 22.68 CE1 20.55 CE2 20.97 CZ 21.59 OH 21.04
A PRO S 82 -87.3 46.5 N 31.5 CA 31.15 C 31.75 O 32.47 CB 31.32 CG 31.63 CD 30.99
A HIS S 106 -154.4 137.6 N 30.84 CA 31.06 C 30.02 O 29.0 CB 31.9 CG 32.04 ND1 30.97 CD2 31.49 CE1 31.29 NE2 30.48
A LYS - 142 -73.4 113.0 N 28.83 CA 26.46 C 25.3 O 24.19 CB 28.34 CG 29.65 CD 31.29 CE 32.89 NZ 35.63
A ILE - 5 -56.0 134.8 N 23.38 CA 21.63 C 22.6 O 22.56 CB 20.6 CG1 18.78 CG2 16.8 CD1 22.34
A LYS - 172 -107.2 -9.7 N 22.44 CA 23.84 C 22.69 O 21.17 CB 24.99 CG 26.5 CD 30.03 CE 32.26 NZ 34.86
A SER - 38 -171.7 161.3 N 20.55 CA 19.62 C 17.23 O 16.2 CB 19.18 OG 20.41
A GLY H 0 -64.7 -32.9 N 17.24 CA 17.45 C 17.76 O 17.14
A ALA H 66 -64.8 -36.7 N 18.36 CA 20.26 C 20.59 O 21.53 CB 22.62
A GLU H 35 -65.2 -47.8 N 19.2 CA 20.26 C 21.66 O 19.42 CB 20.88 CG 20.66 CD 21.58 OE1 22.41 OE2 19.87
A ALA H 0 -64.1 -39.2 N 22.29 CA 22.34 C 21.78 O 21.42 CB 21.29
A LYS H 95 -56.5 -24.3 N 22.74 CA 24.23 C 25.8 O 25.13 CB 24.32 CG 26.63 CD 27.24 CE 27.16 NZ 28.18
A LYS T 174 -64.3 -23.5 N 26.4 CA 27.14 C 28.16 O 29.05 CB 27.08 CG 28.94 CD 31.36 CE 33.93 NZ 37.47
A LEU S 26 -78.4 134.9 N 27.33 CA 28.05 C 27.39 O 28.04 CB 28.58 CG 30.04 CD1 28.71 CD2 31.21
A PRO T 92 -62.9 125.3 N 27.09 CA 25.54 C 23.79 O 23.53 CB 26.49 CG 27.55 CD 27.72
A GLY T 31 112.2 -18.6 N 23.34 CA 20.78 C 19.73 O 17.72
A VAL - 7 -105.2 115.6 N 18.41 CA 16.3 C 16.76 O 19.22 CB 14.21 CG1 11.33 CG2 11.89
A GLY - 30 -110.7 -156.9 N 16.6 CA 13.7 C 15.24 O 14.79
A THR H 86 -60.3 -49.4 N 15.59 CA 18.83 C 17.15 O 18.01 CB 18.22 OG1 22.34 CG2 21.97
A LYS H 141 -61.1 -50.8 N 16.43 CA 17.96 C 17.09 O 14.75 CB 18.83 CG 23.18 CD 27.26 CE 32.18 NZ 33.55
A ILE H 14 -66.2 -28.0 N 16.43 CA 15.69 C 14.93 O 16.36 CB 15.58 CG1 13.6 CG2 17.62 CD1 12.94
A ALA H 9 -64.5 -45.6 N 15.59 CA 16.79 C 16.23 O 17.36 CB 14.87
A GLU H 119 -63.4 -43.0 N 17.87 CA 19.06 C 18.63 O 17.57 CB 22.94 CG 30.7 CD 35.88 OE1 37.86 OE2 37.22
A LYS H 28 -64.0 -33.1 N 16.29 CA 15.75 C 15.98 O 14.92 CB 15.89 CG 16.3 CD 15.96 CE 15.41 NZ 16.02
A ILE H 0 -71.3 -38.3 N 14.88 CA 14.0 C 14.3 O 15.75 CB 12.29 CG1 11.32 CG2 7.5 CD1 6.31
A ASP H 76 -63.9 -40.6 N 16.87 CA 19.15 C 19.11 O 19.52 CB 20.29 CG 20.77 OD1 23.08 OD2 21.97
A GLU H 64 -63.9 -45.4 N 17.45 CA 19.06 C 19.79 O 18.69 CB 19.45 CG 22.39 CD 23.92 OE1 25.75 OE2 25.64
A PHE H 45 -61.0 -46.2 N 19.0 CA 19.75 C 19.44 O 20.22 CB 20.46 CG 21.88 CD1 24.81 CD2 23.7 CE1 24.72 CE2 22.62 CZ 23.39
A LEU H 71 -62.5 -44.8 N 20.39 CA 21.34 C 22.1 O 23.76 CB 20.16 CG 20.07 CD1 21.06 CD2 20.3
A ALA H 87 -72.3 -38.3 N 21.23 CA 22.76 C 23.84 O 25.75 CB 23.33
A THR H 82 -109.4 -13.5 N 21.64 CA 20.15 C 19.75 O 20.33 CB 19.36 OG1 19.6 CG2 17.7
A GLY S 51 79.4 13.5 N 20.05 CA 18.22 C 19.65 O 21.33
A LYS S 102 -168.7 175.9 N 19.11 CA 18.44 C 17.28 O 15.87 CB 19.48 CG 23.43 CD 24.19 CE 29.27 NZ 29.65
A LEU - 5 -125.0 119.7 N 17.09 CA 18.86 C 16.64 O 15.91 CB 20.31 CG 23.54 CD1 25.1 CD2 23.96
A ARG H 194 -52.2 -47.1 N 15.82 CA 17.91 C 16.58 O 15.04 CB 16.54 CG 22.22 CD 23.77 NE 27.84 CZ 27.45 NH1 26.36 NH2 26.23
A LYS H 152 -62.2 -44.1 N 17.55 CA 19.32 C 21.26 O 20.37 CB 20.78 CG 24.76 CD 27.95 CE 27.93 NZ 32.6
A LEU H 4 -64.5 -45.9 N 21.05 CA 20.06 C 19.55 O 20.52 CB 20.85 CG 22.11 CD1 20.13 CD2 21.77
A GLU H 62 -54.5 -46.6 N 20.4 CA 19.54 C 18.89 O 16.63 CB 21.98 CG 23.83 CD 25.92 OE1 28.36 OE2 27.39
A LYS H 136 -64.0 -44.6 N 18.23 CA 19.37 C 20.17 O 18.84 CB 20.39 CG 19.32 CD 22.6 CE 22.71 NZ 27.52
A ILE H 43 -71.5 -32.4 N 19.9 CA 20.39 C 21.17 O 18.37 CB 22.25 CG1 22.4 CG2 20.67 CD1 22.25
A ARG H 115 -57.9 -37.1 N 22.82 CA 25.02 C 25.61 O 24.11 CB 27.08 CG 29.82 CD 31.13 NE 30.4 CZ 33.81 NH1 33.31 NH2 32.87
A GLN T 132 -92.0 -0.8 N 25.84 CA 27.46 C 26.52 O 25.06 CB 30.2 CG 36.02 CD 39.9 OE1 41.35 NE2 40.44
A ASP - 71 -78.7 112.9 N 23.57 CA 22.39 C 22.14 O 19.38 CB 21.79 CG 24.76 OD1 26.81 OD2 22.06
A ASP H 90 -56.1 -39.4 N 24.16 CA 26.03 C 23.97 O 22.77 CB 30.38 CG 33.98 OD1 36.69 OD2 39.63
A THR H 62 -71.1 -50.2 N 19.16 CA 18.18 C 15.93 O 14.41 CB 20.33 OG1 23.7 CG2 20.75
A SER H 21 -66.0 -43.3 N 15.34 CA 15.46 C 13.34 O 10.07 CB 16.04 OG 18.52
A SER H 34 -63.6 -33.0 N 14.57 CA 14.25 C 14.97 O 15.2 CB 16.69 OG 21.71
A SER H 13 -72.3 -40.3 N 13.32 CA 13.82 C 12.74 O 14.34 CB 13.56 OG 15.25
A ILE H 3 -63.5 -52.1 N 12.34 CA 12.71 C 14.06 O 13.94 CB 12.75 CG1 10.85 CG2 11.32 CD1 10.47
A ASN H 32 -51.0 -48.6 N 15.11 CA 15.04 C 13.96 O 14.85 CB 15.56 CG 19.35 OD1 19.55 ND2 17.36
A PHE H 49 -61.2 -49.6 N 13.82 CA 14.36 C 13.34 O 14.76 CB 13.52 CG 16.24 CD1 16.41 CD2 14.46 CE1 16.63 CE2 17.4 CZ 18.12
A LEU H 0 -57.3 -24.4 N 11.53 CA 11.76 C 11.24 O 10.49 CB 11.9 CG 14.36 CD1 13.2 CD2 13.07
A THR T 22 -71.4 -8.2 N 11.34 CA 12.41 C 13.31 O 13.82 CB 12.14 OG1 12.53 CG2 11.73
A ARG T 124 -71.7 -14.5 N 13.68 CA 12.72 C 12.42 O 10.63 CB 11.43 CG 13.32 CD 15.1 NE 14.76 CZ 21.03 NH1 18.94 NH2 16.54
A VAL S 1 -82.0 121.5 N 12.34 CA 11.96 C 11.94 O 12.89 CB 12.49 CG1 14.68 CG2 14.2
A SER T 40 -58.6 128.2 N 10.82 CA 10.54 C 10.48 O 10.65 CB 7.59 OG 9.8
A GLY T 35 106.2 -27.9 N 10.02 CA 9.29 C 9.05 O 9.56
A ILE - 5 -96.4 113.8 N 9.25 CA 8.7 C 8.79 O 10.08 CB 10.25 CG1 11.22 CG2 9.82 CD1 8.71
A GLY - 27 -104.2 -166.0 N 8.02 CA 9.84 C 8.22 O 11.25
A PRO H 40 -55.8 -42.3 N 8.53 CA 8.19 C 9.27 O 9.92 CB 7.94 CG 7.78 CD 9.35
A SER H 79 -64.6 -54.4 N 8.86 CA 10.71 C 12.92 O 14.06 CB 12.28 OG 15.3
A ALA H 20 -62.2 -46.2 N 12.21 CA 12.53 C 14.05 O 15.19 CB 13.58
A ALA H 0 -56.6 -41.5 N 12.54 CA 12.6 C 13.78 O 11.04 CB 13.31
A ARG H 113 -64.1 -48.5 N 14.22 CA 15.51 C 17.27 O 15.43 CB 19.02 CG 24.74 CD 27.88 NE 33.78 CZ 33.92 NH1 37.39 NH2 36.52
A LYS H 126 -58.5 -44.5 N 16.05 CA 18.18 C 16.83 O 17.98 CB 20.77 CG 24.46 CD 28.06 CE 30.03 NZ 34.34
A PHE H 14 -60.6 -49.5 N 15.82 CA 15.45 C 16.26 O 15.21 CB 14.4 CG 17.49 CD1 16.09 CD2 14.93 CE1 18.91 CE2 18.23 CZ 17.56
A VAL H 9 -60.6 -40.6 N 15.7 CA 16.44 C 18.46 O 19.11 CB 14.92 CG1 13.68 CG2 13.57
A ASP H 109 -55.9 -29.1 N 20.12 CA 23.17 C 24.43 O 25.06 CB 25.75 CG 27.7 OD1 29.08 OD2 29.35
A GLU T 94 -107.9 20.0 N 24.56 CA 25.27 C 25.21 O 27.78 CB 27.01 CG 31.6 CD 35.41 OE1 37.85 OE2 37.98
A GLY T 45 94.8 -13.8 N 22.24 CA 21.87 C 21.79 O 23.03
A ILE - 6 -82.2 103.7 N 21.64 CA 19.4 C 21.09 O 18.07 CB 21.91 CG1 20.22 CG2 20.61 CD1 22.21
A LYS - 62 -119.0 -23.1 N 20.43 CA 23.52 C 23.02 O 23.85 CB 26.02 CG 27.37 CD 29.6 CE 31.63 NZ 36.38
A THR S 47 -119.2 167.9 N 22.9 CA 23.0 C 22.04 O 23.39 CB 24.32 OG1 23.82 CG2 23.1
A LEU H 32 -60.6 -36.7 N 20.81 CA 21.25 C 23.12 O 23.02 CB 21.66 CG 18.4 CD1 20.42 CD2 18.53
A GLU H 97 -59.1 -42.1 N 24.8 CA 25.82 C 24.25 O 24.52 CB 26.65 CG 31.23 CD 34.85 OE1 36.27 OE2 36.59
A ASP H 32 -65.8 -36.8 N 23.18 CA 22.04 C 20.08 O 19.13 CB 24.34 CG 27.38 OD1 25.49 OD2 31.9
A LEU H 0 -65.5 -44.3 N 18.78 CA 19.42 C 19.71 O 21.03 CB 17.81 CG 14.3 CD1 17.59 CD2 14.37
A ARG H 152 -57.6 -32.6 N 22.66 CA 26.18 C 26.4 O 26.2 CB 27.22 CG 30.93 CD 33.43 NE 36.71 CZ 37.42 NH1 38.13 NH2 36.25
A LYS H 151 -80.2 -15.8 N 27.06 CA 27.09 C 26.13 O 26.3 CB 27.69 CG 31.46 CD 32.44 CE 34.4 NZ 35.02
A ASN T 41 -119.6 54.7 N 27.04 CA 25.86 C 27.15 O 25.63 CB 24.04 CG 21.94 OD1 23.59 ND2 19.3
A GLU G 127 -54.2 -48.3 N 28.12 CA 28.87 C 28.98 O 28.04 CB 31.41 CG 34.69 CD 37.31 OE1 38.82 OE2 37.35
A ASP G 134 -62.6 -8.7 N 28.29 CA 28.43 C 27.94 O 28.52 CB 33.65 CG 37.17 OD1 39.82 OD2 40.32
A LYS G 100 -96.3 0.4 N 24.5 CA 23.53 C 22.37 O 21.14 CB 25.46 CG 27.04 CD 28.0 CE 29.83 NZ 32.93
A LEU S 5 -107.8 133.8 N 19.15 CA 19.03 C 17.01 O 15.04 CB 19.01 CG 22.0 CD1 22.78 CD2 22.04
A ASN - 87 -74.5 -178.6 N 16.26 CA 14.62 C 15.54 O 15.4 CB 12.46 CG 11.12 OD1 11.25 ND2 10.72
A HIS H 107 -60.6 -49.2 N 15.85 CA 15.06 C 14.66 O 13.42 CB 17.64 CG 18.87 ND1 20.86 CD2 19.85 CE1 21.03 NE2 20.86
A HIS H 50 -56.9 -49.3 N 14.59 CA 12.71 C 11.96 O 12.01 CB 13.09 CG 13.87 ND1 15.08 CD2 12.29 CE1 14.34 NE2 12.51
A GLN H 13 -59.1 -37.8 N 11.92 CA 9.31 C 9.7 O 10.33 CB 10.95 CG 9.2 CD 13.71 OE1 11.59 NE2 16.01
A ARG H 95 -65.3 -39.6 N 8.89 CA 10.02 C 9.96 O 9.63 CB 14.17 CG 17.32 CD 19.39 NE 25.63 CZ 28.75 NH1 32.24 NH2 29.5
A ILE H 11 -65.8 -43.5 N 9.36 CA 10.26 C 9.7 O 9.9 CB 10.17 CG1 12.22 CG2 11.03 CD1 17.7
A GLY H 0 -61.6 -35.1 N 9.54 CA 10.86 C 10.65 O 12.76
A LEU H 29 -71.3 -47.6 N 10.94 CA 11.97 C 13.31 O 14.83 CB 13.83 CG 13.05 CD1 14.88 CD2 14.73
A LYS H 137 -56.1 -38.3 N 14.35 CA 14.52 C 14.8 O 15.02 CB 15.67 CG 18.73 CD 20.89 CE 23.34 NZ 24.4
A TYR T 11 -110.6 26.3 N 14.57 CA 14.2 C 14.6 O 14.39 CB 15.28 CG 15.16 CD1 14.04 CD2 14.8 CE1 11.58 CE2 15.11 CZ 13.95 OH 14.44
A PHE H 25 -45.2 -54.0 N 14.28 CA 14.04 C 15.57 O 13.63 CB 15.85 CG 17.06 CD1 16.49 CD2 13.97 CE1 16.62 CE2 15.22 CZ 16.12
A GLY H 44 -64.8 -49.9 N 13.38 CA 12.57 C 11.97 O 12.24
A ASP H 37 -58.0 -44.5 N 12.72 CA 13.91 C 14.29 O 12.38 CB 13.44 CG 15.57 OD1 13.95 OD2 12.2
A PHE H 36 -61.1 -27.8 N 15.02 CA 16.59 C 18.07 O 18.5 CB 15.36 CG 12.14 CD1 14.67 CD2 14.07 CE1 15.46 CE2 12.76 CZ 12.95
A GLU T 96 -84.7 -5.6 N 17.66 CA 18.11 C 18.93 O 19.14 CB 17.69 CG 17.42 CD 19.21 OE1 17.15 OE2 16.14
A LYS S 112 -84.7 148.3 N 18.53 CA 19.91 C 19.44 O 18.39 CB 19.88 CG 21.26 CD 24.66 CE 26.92 NZ 30.59
A ARG - 136 -85.5 165.6 N 18.7 CA 20.53 C 19.4 O 18.26 CB 21.55 CG 25.04 CD 25.62 NE 26.43 CZ 25.43 NH1 24.27 NH2 27.35
A ILE E 1 -110.3 113.7 N 20.03 CA 17.83 C 17.07 O 18.04 CB 16.71 CG1 15.56 CG2 18.36 CD1 12.01
A PRO E 52 -64.7 139.4 N 16.97 CA 18.61 C 17.62 O 16.96 CB 18.03 CG 22.1 CD 18.13
A ARG H 57 -49.3 -34.4 N 17.21 CA 17.16 C 18.42 O 18.3 CB 16.03 CG 18.17 CD 18.38 NE 19.9 CZ 18.8 NH1 19.61 NH2 18.75
A GLU H 111 -62.6 -34.5 N 18.27 CA 18.63 C 17.51 O 16.97 CB 21.4 CG 25.76 CD 29.41 OE1 28.06 OE2 29.44
A GLU H 28 -78.0 -30.2 N 15.17 CA 14.98 C 14.6 O 14.71 CB 16.27 CG 17.08 CD 20.99 OE1 20.84 OE2 22.21
A MET H 1 -66.5 -39.6 N 13.57 CA 14.61 C 15.31 O 13.35 CB 15.05 CG 13.52 SD 16.53 CE 11.58
A LEU H 60 -64.3 -42.1 N 15.63 CA 15.79 C 17.2 O 19.11 CB 17.63 CG 16.94 CD1 19.0 CD2 16.8
A GLN H 58 -64.9 -36.6 N 17.19 CA 15.17 C 15.08 O 12.99 CB 17.0 CG 17.77 CD 22.07 OE1 23.64 NE2 25.74
A MET H 2 -67.9 -42.9 N 13.86 CA 14.23 C 13.56 O 13.62 CB 11.34 CG 12.92 SD 16.77 CE 11.03
A GLN H 47 -61.8 -42.0 N 13.99 CA 14.12 C 15.47 O 15.87 CB 15.42 CG 16.77 CD 18.77 OE1 20.15 NE2 21.14
A ASP H 103 -53.3 -50.4 N 13.29 CA 13.54 C 13.33 O 13.08 CB 14.11 CG 15.27 OD1 15.05 OD2 17.11
A ILE H 38 -62.5 -47.5 N 13.54 CA 12.15 C 12.35 O 13.07 CB 12.17 CG1 12.94 CG2 12.16 CD1 12.22
A VAL H 1 -59.7 -47.1 N 11.79 CA 10.16 C 11.17 O 10.21 CB 11.76 CG1 10.26 CG2 12.13
A LEU H 65 -66.0 -42.4 N 12.04 CA 13.06 C 12.16 O 12.08 CB 13.59 CG 15.51 CD1 14.9 CD2 16.35
A ASN H 91 -63.2 -50.5 N 12.89 CA 12.44 C 13.43 O 12.02 CB 14.11 CG 18.42 OD1 20.47 ND2 16.17
A GLU H 16 -64.5 -40.5 N 13.34 CA 12.71 C 13.07 O 13.56 CB 12.94 CG 13.54 CD 13.55 OE1 13.93 OE2 17.07
A VAL H 6 -58.1 -51.1 N 10.0 CA 11.35 C 12.67 O 12.01 CB 10.74 CG1 11.19 CG2 11.86
A LYS H 144 -61.2 -31.1 N 10.9 CA 11.27 C 13.03 O 13.37 CB 11.45 CG 14.44 CD 13.8 CE 14.48 NZ 12.87
A LYS H 122 -67.4 -34.9 N 13.39 CA 13.92 C 13.58 O 13.84 CB 16.25 CG 19.01 CD 20.25 CE 17.27 NZ 16.14
A VAL H 39 -70.4 -46.0 N 12.66 CA 12.86 C 12.56 O 12.55 CB 13.25 CG1 12.73 CG2 13.06
A ASP - 46 -161.5 114.6 N 11.17 CA 12.62 C 12.08 O 12.39 CB 13.32 CG 14.31 OD1 16.15 OD2 17.04
A SER T 88 -63.5 -7.3 N 11.45 CA 12.86 C 15.28 O 14.88 CB 13.75 OG 13.95
A GLU T 116 -87.6 -15.6 N 15.36 CA 18.75 C 18.3 O 20.01 CB 20.69 CG 26.04 CD 31.41 OE1 35.7 OE2 34.57
A TYR - 16 -59.9 156.0 N 16.62 CA 13.73 C 13.9 O 13.59 CB 13.47 CG 12.5 CD1 11.56 CD2 12.73 CE1 12.96 CE2 14.04 CZ 12.25 OH 13.86
A ILE E 49 -130.5 123.5 N 14.57 CA 14.77 C 15.26 O 14.02 CB 16.36 CG1 17.79 CG2 14.99 CD1 19.95
A ALA E 21 -128.0 138.7 N 15.35 CA 14.83 C 13.66 O 15.54 CB 15.67
A THR E 31 -136.0 122.0 N 13.4 CA 13.4 C 13.91 O 14.0 CB 13.26 OG1 13.15 CG2 10.84
A VAL E 4 -83.5 119.1 N 12.45 CA 14.34 C 14.33 O 15.19 CB 13.84 CG1 12.15 CG2 13.07
A CYS - 2 -102.4 -144.9 N 15.69 CA 16.95 C 16.31 O 18.83 CB 17.45 SG 18.59
A GLY H 22 72.6 -173.5 N 17.84 CA 17.14 C 18.31 O 17.47
A SER H 33 -54.8 -30.0 N 20.46 CA 21.34 C 21.59 O 24.28 CB 22.25 OG 23.05
A PHE H 6 -55.8 -43.8 N 20.56 CA 19.46 C 18.54 O 16.45 CB 20.72 CG 16.76 CD1 18.83 CD2 19.33 CE1 20.07 CE2 18.39 CZ 19.81
A ARG H 62 -67.2 -27.2 N 18.24 CA 18.5 C 18.43 O 18.76 CB 17.48 CG 17.0 CD 15.91 NE 16.9 CZ 16.22 NH1 15.96 NH2 18.16
A ARG H 65 -82.7 -5.7 N 19.35 CA 21.38 C 23.05 O 24.06 CB 22.78 CG 25.52 CD 26.99 NE 26.18 CZ 27.05 NH1 27.01 NH2 25.7
A GLY T 27 100.0 10.5 N 22.32 CA 22.73 C 22.88 O 22.43
A ALA - 31 -52.7 146.4 N 23.88 CA 23.41 C 23.0 O 20.8 CB 25.77
A GLU S 151 -77.0 -10.8 N 21.63 CA 22.46 C 21.14 O 17.89 CB 27.26 CG 34.04 CD 36.39 OE1 36.67 OE2 39.43
A SER E 37 -157.6 157.7 N 18.97 CA 18.1 C 17.67 O 16.85 CB 17.47 OG 17.28
A SER E 3 -135.8 161.3 N 16.97 CA 18.28 C 17.73 O 19.74 CB 19.27 OG 18.06
A GLY S 37 -92.7 -17.3 N 17.8 CA 16.59 C 17.72 O 15.31
A ASP S 70 -172.0 -173.2 N 17.96 CA 18.33 C 17.68 O 18.0 CB 19.56 CG 21.18 OD1 22.75 OD2 25.31
A MET E 0 -122.3 122.3 N 16.15 CA 14.1 C 14.92 O 15.23 CB 13.97 CG 13.88 SD 18.14 CE 13.96
A ASP E 17 -112.2 113.7 N 12.35 CA 13.81 C 13.6 O 11.82 CB 18.21 CG 22.21 OD1 23.86 OD2 23.07
A VAL E 2 -111.4 128.7 N 12.68 CA 13.24 C 14.37 O 14.27 CB 14.77 CG1 13.95 CG2 13.7
A LEU E 0 -105.0 128.4 N 13.19 CA 14.62 C 13.6 O 14.56 CB 14.27 CG 17.74 CD1 17.49 CD2 16.5
A LEU E 0 -125.2 150.5 N 12.81 CA 13.35 C 14.29 O 13.12 CB 12.66 CG 17.53 CD1 17.04 CD2 15.51
A THR E 0 -156.6 167.3 N 16.13 CA 16.74 C 17.91 O 15.86 CB 16.02 OG1 16.24 CG2 15.67
A HIS - 10 -150.8 131.9 N 17.59 CA 17.87 C 18.85 O 17.39 CB 17.26 CG 18.25 ND1 20.84 CD2 18.97 CE1 21.79 NE2 20.43
A PRO T 60 -47.4 -27.7 N 20.14 CA 21.62 C 22.36 O 24.0 CB 20.97 CG 21.2 CD 19.28
A SER T 59 -75.4 -8.9 N 22.97 CA 24.16 C 25.06 O 26.09 CB 24.42 OG 25.05
A PHE - 38 -114.1 104.3 N 25.08 CA 25.42 C 26.15 O 24.67 CB 25.04 CG 26.8 CD1 27.6 CD2 24.99 CE1 27.02 CE2 25.2 CZ 24.59
A THR - 47 -122.3 173.8 N 27.64 CA 29.17 C 30.38 O 28.9 CB 29.71 OG1 29.27 CG2 30.72
A SER T 62 -59.1 -34.4 N 33.44 CA 39.53 C 42.58 O 43.99 CB 40.16 OG 41.82
A GLU T 103 -118.2 46.9 N 45.23 CA 48.69 C 50.28 O 50.9 CB 48.81
A SER - 108 -133.2 360.0 N 51.91 CA 53.48 C 54.36 O 56.38 CB 54.17 OG 55.2
A GLN - 79 360.0 131.4 N 53.88 CA 53.46 C 53.41 O 53.5 CB 51.71
A PRO T 87 -71.9 18.4 N 53.13 CA 51.11 C 48.14 O 49.49 CB 52.36 CG 53.4 CD 53.43
A LYS T 122 -125.0 -5.1 N 43.88 CA 37.3 C 31.48 O 28.29 CB 40.35 CG 41.69 CD 45.16 CE 46.85 NZ 47.38
A LEU H 8 -53.3 -46.1 N 26.22 CA 23.77 C 21.37 O 22.67 CB 23.08 CG 23.28 CD1 23.16 CD2 24.88
A LEU H 1 -72.3 -46.5 N 18.76 CA 15.23 C 14.89 O 13.86 CB 8.46 CG 8.66 CD1 7.3 CD2 10.06
A HIS H 43 -53.4 -44.2 N 14.74 CA 14.07 C 12.59 O 10.1 CB 17.03 CG 18.83 ND1 21.95 CD2 21.32 CE1 20.47 NE2 22.4
A GLN H 88 -55.5 -44.2 N 12.92 CA 14.24 C 10.72 O 11.06 CB 16.91 CG 24.09 CD 26.87 OE1 28.3 NE2 29.32
A VAL H 3 -69.5 -45.7 N 7.42 CA 8.68 C 9.82 O 9.29 CB 9.59 CG1 8.02 CG2 8.98
A VAL H 0 -61.1 -40.8 N 10.27 CA 11.46 C 13.77 O 13.71 CB 13.08 CG1 13.11 CG2 13.47
A GLU H 97 -63.4 -43.5 N 12.86 CA 15.36 C 14.12 O 12.72 CB 17.93 CG 27.32 CD 32.65 OE1 37.15 OE2 35.31
A GLN H 32 -64.7 -38.9 N 13.23 CA 11.22 C 13.0 O 13.79 CB 13.57 CG 12.01 CD 12.79 OE1 15.99 NE2 10.99
A LEU H 0 -66.3 -30.2 N 12.2 CA 13.33 C 12.57 O 15.19 CB 12.24 CG 12.18 CD1 11.97 CD2 11.58
A GLN H 68 -76.9 -38.5 N 13.13 CA 12.37 C 14.68 O 13.61 CB 15.03 CG 15.05 CD 16.88 OE1 14.8 NE2 14.98
A LYS H 143 -61.2 -36.2 N 15.19 CA 17.74 C 17.77 O 20.33 CB 21.59 CG 29.03 CD 34.6 CE 37.41 NZ 40.96
A VAL T 51 -88.1 9.4 N 17.4 CA 16.37 C 16.34 O 13.96 CB 19.75 CG1 20.08 CG2 18.73
A HIS T 153 58.2 30.6 N 17.27 CA 18.63 C 17.73 O 17.04 CB 22.29 CG 23.24 ND1 26.46 CD2 25.74 CE1 25.91 NE2 25.46
A PHE - 5 -84.1 -51.6 N 14.75 CA 14.56 C 13.01 O 15.04 CB 13.17 CG 10.99 CD1 11.62 CD2 9.1 CE1 12.57 CE2 12.5 CZ 9.36
A ILE E 7 -82.5 126.3 N 11.19 CA 9.92 C 10.25 O 7.08 CB 11.83 CG1 11.71 CG2 10.84 CD1 11.27
A THR E 49 -107.9 -24.9 N 10.12 CA 10.94 C 13.1 O 13.62 CB 9.8 OG1 12.11 CG2 8.9
A ASP E 29 -149.1 159.1 N 11.92 CA 12.09 C 10.98 O 12.3 CB 11.84 CG 13.91 OD1 13.65 OD2 12.77
A THR E 35 -124.4 124.3 N 9.58 CA 10.1 C 10.76 O 10.03 CB 12.46 OG1 11.05 CG2 12.77
A LEU E 16 -88.4 -39.8 N 8.48 CA 10.73 C 11.31 O 11.71 CB 8.17 CG 9.98 CD1 8.72 CD2 6.99
A SER E 51 -164.1 153.1 N 10.8 CA 10.98 C 10.57 O 8.55 CB 10.72 OG 15.75
A LYS E 86 -160.4 125.4 N 10.17 CA 12.38 C 13.68 O 16.33 CB 11.8 CG 13.05 CD 14.96 CE 18.4 NZ 16.1
A GLY - 38 -132.3 -161.3 N 14.82 CA 16.19 C 18.48 O 19.39
A GLU S 134 -76.6 -17.3 N 21.9 CA 22.43 C 22.61 O 20.03 CB 27.61 CG 33.9 CD 39.49 OE1 41.61 OE2 41.44
A THR S 78 -127.7 -17.9 N 19.63 CA 19.59 C 18.63 O 17.72 CB 20.79 OG1 21.0 CG2 21.87
A LYS E 86 -138.3 129.8 N 18.0 CA 18.36 C 16.54 O 12.29 CB 21.88 CG 25.61 CD 28.23 CE 28.98 NZ 30.4
A PHE E 0 -120.3 136.4 N 14.02 CA 13.41 C 13.78 O 13.46 CB 12.05 CG 13.9 CD1 13.27 CD2 14.73 CE1 12.58 CE2 11.22 CZ 11.56
A MET E 45 -131.9 119.5 N 12.44 CA 12.53 C 14.03 O 12.94 CB 12.6 CG 12.93 SD 16.55 CE 13.45
A GLY E 0 -152.4 -153.8 N 12.91 CA 13.65 C 12.01 O 13.58
A VAL E 0 -129.8 145.9 N 12.83 CA 13.96 C 13.76 O 15.99 CB 11.97 CG1 9.78 CG2 12.77
A CYS E 0 -143.7 166.8 N 13.27 CA 14.3 C 15.13 O 15.0 CB 14.12 SG 14.17
A GLN - 39 -155.9 133.9 N 14.81 CA 15.19 C 14.85 O 15.47 CB 16.51 CG 15.3 CD 17.24 OE1 14.5 NE2 18.08
A LEU - 5 -67.2 149.3 N 16.3 CA 15.55 C 19.14 O 16.98 CB 16.72 CG 16.05 CD1 14.91 CD2 12.08
A PRO - 93 -66.3 144.2 N 22.13 CA 26.75 C 30.44 O 31.13 CB 26.47 CG 25.23 CD 23.51
A SER - 58 -77.5 140.6 N 35.62 CA 40.67 C 42.93 O 42.83 CB 41.22 OG 44.71
A LYS - 72 -59.7 14.0 N 46.11 CA 48.34 C 50.57 O 51.71 CB 47.44
A ASN S 102 78.7 -29.5 N 52.44 CA 53.7 C 54.43 O 55.01 CB 53.37
A ASP S 105 -141.3 6.1 N 54.84 CA 54.26 C 54.0 O 53.81 CB 54.55
A GLU S 50 -110.3 145.3 N 53.44 CA 52.11 C 50.9 O 52.16 CB 51.32
A LYS - 198 -44.3 127.6 N 48.82 CA 46.93 C 44.29 O 44.26 CB 48.11 CG 51.72 CD 53.43 CE 53.86 NZ 53.88
A GLU - 122 -58.3 151.5 N 40.88 CA 36.83 C 32.92 O 32.03 CB 39.13 CG 43.11 CD 46.37 OE1 46.54 OE2 48.92
A TYR - 67 -77.1 153.9 N 28.39 CA 24.14 C 21.73 O 18.85 CB 24.21 CG 22.58 CD1 23.44 CD2 23.68 CE1 26.06 CE2 25.01 CZ 27.83 OH 27.26
A PRO - 23 -75.7 155.3 N 21.24 CA 21.03 C 21.2 O 21.16 CB 22.62 CG 23.94 CD 21.05
A HIS - 23 -70.3 144.9 N 17.74 CA 16.03 C 15.74 O 13.49 CB 12.47 CG 14.41 ND1 13.14 CD2 12.23 CE1 13.31 NE2 14.68
A ARG E 13 -125.7 154.6 N 14.38 CA 12.66 C 12.1 O 10.71 CB 13.17 CG 17.05 CD 16.45 NE 16.25 CZ 16.13 NH1 15.61 NH2 15.06
A ARG E 36 -85.6 135.2 N 11.06 CA 10.91 C 10.84 O 11.27 CB 12.38 CG 12.19 CD 11.65 NE 9.26 CZ 11.84 NH1 9.98 NH2 8.71
A ILE E 0 -139.8 134.4 N 9.82 CA 9.37 C 9.81 O 10.45 CB 10.41 CG1 9.88 CG2 10.63 CD1 12.53
A ASP E 14 -118.7 146.3 N 8.88 CA 8.44 C 10.26 O 9.6 CB 8.58 CG 10.97 OD1 11.62 OD2 13.77
A ILE E 2 -136.0 126.8 N 10.52 CA 11.27 C 12.66 O 11.42 CB 11.95 CG1 12.55 CG2 14.05 CD1 14.33
A ARG E 40 -120.4 129.6 N 12.68 CA 15.15 C 14.25 O 13.53 CB 15.61 CG 22.69 CD 22.39 NE 25.06 CZ 29.05 NH1 28.48 NH2 31.25
A LEU E 9 -95.9 124.6 N 12.68 CA 12.83 C 13.64 O 13.09 CB 12.9 CG 14.55 CD1 9.75 CD2 13.59
A ILE - 15 -126.1 141.0 N 14.21 CA 15.28 C 15.55 O 12.64 CB 14.97 CG1 17.25 CG2 17.33 CD1 18.88
A PRO - 19 -56.4 140.5 N 17.01 CA 17.33 C 18.44 O 16.49 CB 18.72 CG 19.68 CD 17.09
A LYS H 57 -50.6 -41.9 N 18.69 CA 19.6 C 18.98 O 18.26 CB 21.34 CG 25.56 CD 27.28 CE 29.5 NZ 32.93
A ASP H 69 -72.7 -1.1 N 19.13 CA 19.44 C 18.08 O 17.27 CB 21.3 CG 22.3 OD1 23.96 OD2 24.76
A GLN H 39 -127.1 -2.8 N 18.35 CA 19.11 C 18.49 O 18.17 CB 21.17 CG 24.51 CD 27.47 OE1 28.92 NE2 25.71
A TYR H 0 -54.4 -50.8 N 16.29 CA 17.28 C 18.24 O 20.51 CB 15.66 CG 14.74 CD1 12.99 CD2 15.7 CE1 13.11 CE2 13.91 CZ 13.51 OH 15.11
A TYR H 52 -69.4 -33.2 N 17.1 CA 16.09 C 18.13 O 17.74 CB 17.52 CG 18.47 CD1 19.7 CD2 19.33 CE1 22.31 CE2 19.8 CZ 21.03 OH 22.81
A CYS H 2 -63.9 -35.7 N 18.03 CA 18.74 C 18.93 O 18.44 CB 18.82 SG 20.86
A GLY H 1 -67.2 -46.1 N 19.33 CA 19.57 C 18.09 O 18.65
A VAL H 2 -61.7 -42.0 N 17.84 CA 18.35 C 17.16 O 16.3 CB 18.59 CG1 19.45 CG2 18.11
A LEU H 6 -58.1 -50.7 N 16.99 CA 18.64 C 19.44 O 21.14 CB 17.1 CG 18.53 CD1 18.16 CD2 18.11
A TYR H 83 -60.1 -53.8 N 19.34 CA 20.88 C 19.68 O 18.95 CB 23.4 CG 28.23 CD1 29.26 CD2 28.33 CE1 31.11 CE2 30.86 CZ 32.39 OH 34.62
A PHE T 38 -76.0 7.4 N 18.29 CA 18.1 C 18.76 O 20.81 CB 18.18 CG 20.11 CD1 21.37 CD2 19.61 CE1 22.76 CE2 21.05 CZ 21.99
A THR T 1 -102.3 -27.4 N 20.23 CA 19.64 C 21.46 O 21.93 CB 18.77 OG1 18.34 CG2 17.95
A GLY - 4 54.1 -146.4 N 22.08 CA 24.97 C 26.92 O 26.46
A SER - 15 -68.4 -179.6 N 26.64 CA 27.68 C 28.51 O 26.99 CB 29.23 OG 28.51
A ASP H 141 -61.3 -42.1 N 29.08 CA 31.2 C 31.19 O 30.55 CB 32.31 CG 34.89 OD1 35.82 OD2 34.9
A ILE H 75 -66.7 -36.4 N 31.24 CA 32.0 C 33.14 O 34.55 CB 32.37 CG1 32.37 CG2 32.67 CD1 32.35
A PHE H 0 -65.2 -50.7 N 31.09 CA 29.88 C 30.02 O 29.01 CB 28.86 CG 27.35 CD1 26.59 CD2 27.13 CE1 27.38 CE2 26.36 CZ 27.18
A ASN H 13 -53.2 -45.9 N 29.6 CA 30.64 C 30.91 O 30.51 CB 31.22 CG 32.19 OD1 32.3 ND2 32.74
A LYS H 149 -57.0 -45.7 N 30.87 CA 31.51 C 31.33 O 31.26 CB 31.45 CG 32.37 CD 33.88 CE 34.75 NZ 36.44
A ASN H 62 -66.5 -47.4 N 31.52 CA 31.81 C 32.93 O 32.25 CB 32.57 CG 34.36 OD1 36.99 ND2 33.02
A MET H 3 -58.9 -39.7 N 33.56 CA 34.01 C 34.83 O 35.74 CB 33.14 CG 32.74 SD 34.43 CE 32.15
A ARG H 75 -70.8 -32.4 N 35.57 CA 37.1 C 38.06 O 37.55 CB 38.49 CG 40.77 CD 42.56 NE 44.45 CZ 44.85 NH1 44.2 NH2 45.54
A ALA H 42 -66.8 -49.8 N 38.69 CA 39.49 C 40.07 O 41.01 CB 38.49
A HIS H 29 -59.8 -47.5 N 38.77 CA 38.62 C 39.0 O 38.12 CB 38.55 CG 39.35 ND1 37.56 CD2 39.4 CE1 38.31 NE2 39.29
A ALA H 0 -53.6 -43.1 N 38.75 CA 37.9 C 37.97 O 35.17 CB 38.47
A LEU H 93 -60.4 -54.4 N 38.78 CA 39.86 C 40.31 O 40.44 CB 39.37 CG 40.94 CD1 42.02 CD2 39.9
A GLU T 149 -63.7 3.9 N 40.81 CA 41.53 C 40.36 O 41.75 CB 42.67 CG 45.14 CD 47.22 OE1 47.72 OE2 48.19
A LYS T 67 -115.5 -2.5 N 36.95 CA 35.1 C 34.34 O 36.55 CB 35.4 CG 36.22 CD 36.11 CE 37.73 NZ 38.69
A GLY T 30 89.1 28.2 N 32.58 CA 30.88 C 29.61 O 28.99
A PHE E 35 -134.1 145.7 N 29.26 CA 30.02 C 29.64 O 30.66 CB 28.53 CG 28.74 CD1 28.9 CD2 27.97 CE1 28.91 CE2 26.86 CZ 27.96
A THR E 34 -116.7 120.1 N 29.77 CA 29.04 C 28.68 O 28.85 CB 29.22 OG1 28.35 CG2 30.08
A ILE E 11 -117.3 117.2 N 28.41 CA 29.19 C 28.99 O 29.67 CB 29.08 CG1 29.75 CG2 28.15 CD1 29.51
A ASN - 44 -115.7 -173.7 N 28.49 CA 27.08 C 27.13 O 24.7 CB 25.99 CG 25.86 OD1 26.48 ND2 23.29
A GLU S 48 -64.9 -20.6 N 26.92 CA 26.46 C 23.98 O 22.3 CB 29.59 CG 31.88 CD 34.29 OE1 32.88 OE2 32.21
A TYR S 119 -97.1 -42.8 N 21.63 CA 22.19 C 22.47 O 22.68 CB 23.46 CG 26.49 CD1 26.63 CD2 27.71 CE1 27.19 CE2 29.39 CZ 27.96 OH 30.53
A THR - 19 -149.3 179.2 N 21.58 CA 22.23 C 23.74 O 24.09 CB 20.36 OG1 23.23 CG2 17.68
A ILE E 0 -132.5 119.9 N 25.73 CA 26.7 C 27.43 O 27.79 CB 26.27 CG1 27.16 CG2 28.32 CD1 26.21
A ARG E 79 -125.2 151.4 N 28.57 CA 29.95 C 30.06 O 30.5 CB 30.55 CG 32.46 CD 33.47 NE 37.03 CZ 40.77 NH1 42.22 NH2 41.66
A PRO E 42 -77.3 148.9 N 30.01 CA 29.58 C 29.4 O 28.86 CB 30.26 CG 32.01 CD 31.4
A LEU B 54 -110.1 126.7 N 28.74 CA 29.56 C 31.08 O 31.98 CB 28.99 CG 29.34 CD1 27.45 CD2 30.59
A GLY - 40 -72.5 171.4 N 31.55 CA 31.76 C 32.93 O 30.4
A VAL T 157 -61.3 -18.1 N 34.26 CA 36.34 C 36.24 O 37.25 CB 36.22 CG1 36.19 CG2 37.04
A THR T 116 -104.5 6.5 N 36.97 CA 37.53 C 37.43 O 38.46 CB 37.74 OG1 37.05 CG2 37.66
A GLY S 51 98.2 -13.4 N 36.51 CA 34.08 C 32.79 O 32.95
A VAL - 100 -67.7 118.7 N 32.59 CA 31.47 C 30.86 O 29.06 CB 31.53 CG1 31.09 CG2 32.88
A ALA B 36 -73.4 138.5 N 30.89 CA 30.51 C 30.42 O 32.04 CB 29.73
A GLY - 26 -93.4 -174.5 N 30.81 CA 30.76 C 32.28 O 32.44
A GLU S 163 -65.5 146.4 N 33.14 CA 34.26 C 34.01 O 33.87 CB 36.79 CG 42.19 CD 45.48 OE1 48.15 OE2 49.34
A PRO - 69 -54.4 138.9 N 33.97 CA 33.01 C 31.03 O 29.38 CB 33.39 CG 35.2 CD 34.5
A LEU - 45 -85.7 148.2 N 28.9 CA 29.25 C 28.92 O 30.28 CB 28.69 CG 27.99 CD1 25.62 CD2 28.47
A PRO - 87 -60.6 127.8 N 28.57 CA 27.53 C 26.12 O 23.79 CB 29.23 CG 27.93 CD 28.17
A VAL - 10 -127.6 125.7 N 26.12 CA 25.45 C 27.08 O 25.9 CB 24.17 CG1 21.96 CG2 24.58
A ASP S 113 -125.9 6.5 N 28.6 CA 30.57 C 30.19 O 32.36 CB 32.96 CG 34.92 OD1 36.77 OD2 38.57
A SER S 37 -175.5 160.9 N 30.69 CA 30.09 C 30.3 O 30.39 CB 30.24 OG 33.36
A GLU H 9 -59.0 -39.2 N 29.21 CA 29.2 C 29.94 O 28.78 CB 29.63 CG 27.47 CD 27.68 OE1 27.29 OE2 24.59
A LYS H 104 -56.7 -36.2 N 30.39 CA 29.93 C 28.85 O 29.5 CB 30.59 CG 34.14 CD 34.4 CE 35.69 NZ 36.77
A ASP H 47 -57.1 -41.5 N 28.71 CA 27.68 C 26.97 O 25.39 CB 27.75 CG 27.79 OD1 28.48 OD2 27.24
A ILE H 0 -61.0 -46.4 N 26.44 CA 25.71 C 25.02 O 24.9 CB 23.8 CG1 24.75 CG2 22.96 CD1 24.87
A PHE H 0 -63.4 -39.4 N 25.08 CA 25.74 C 26.22 O 28.17 CB 24.21 CG 22.89 CD1 21.27 CD2 21.72 CE1 19.97 CE2 21.86 CZ 22.24
A ASP H 82 -62.0 -41.8 N 25.26 CA 26.33 C 26.86 O 26.92 CB 24.81 CG 25.33 OD1 24.24 OD2 26.2
A TYR H 62 -58.2 -41.8 N 27.89 CA 29.76 C 30.55 O 31.41 CB 28.64 CG 30.61 CD1 29.67 CD2 30.21 CE1 29.24 CE2 30.73 CZ 31.02 OH 33.04
A ILE T 0 -95.3 23.3 N 31.5 CA 33.67 C 36.8 O 37.23 CB 32.4 CG1 32.11 CG2 33.23 CD1 31.14
A GLN T 124 46.3 69.0 N 38.92 CA 42.7 C 43.6 O 45.1 CB 44.02 CG 48.64 CD 50.54 OE1 52.46 NE2 51.52
A TRP - 62 -148.8 131.4 N 43.66 CA 43.62 C 43.34 O 44.01 CB 44.65 CG 44.39 CD1 45.16 CD2 43.84 NE1 45.46 CE2 44.73 CE3 43.57 CZ2 45.07 CZ3 43.02 CH2 44.09
A LYS - 176 -66.8 138.8 N 42.78 CA 41.98 C 40.79 O 40.36 CB 43.16 CG 44.79 CD 46.82 CE 46.61 NZ 47.27
A TYR - 59 -57.2 130.0 N 39.97 CA 39.49 C 38.76 O 39.42 CB 40.02 CG 40.77 CD1 40.19 CD2 40.83 CE1 41.33 CE2 42.08 CZ 41.68 OH 40.56
A ARG - 56 -114.6 120.1 N 37.94 CA 36.36 C 36.71 O 34.35 CB 37.42 CG 38.09 CD 38.75 NE 39.34 CZ 41.45 NH1 42.75 NH2 43.57
A GLU - 107 -52.2 146.2 N 36.09 CA 37.09 C 36.46 O 36.1 CB 39.04 CG 43.08 CD 45.31 OE1 46.96 OE2 47.08
A PRO G 13 -50.4 -35.1 N 36.15 CA 36.12 C 35.24 O 35.11 CB 34.93 CG 36.34 CD 35.91
A LYS G 161 -56.9 -29.2 N 34.61 CA 34.9 C 34.68 O 33.78 CB 35.72 CG 37.09 CD 38.16 CE 39.18 NZ 38.37
A ASP G 87 -101.8 22.1 N 34.59 CA 34.78 C 35.1 O 34.97 CB 34.78 CG 35.67 OD1 34.14 OD2 37.35
A ARG - 0 -107.5 32.1 N 34.25 CA 34.14 C 34.29 O 33.99 CB 31.91 CG 30.54 CD 29.08 NE 26.72 CZ 26.41 NH1 21.44 NH2 24.49
A SER - 75 -62.6 -22.6 N 35.95 CA 38.17 C 39.72 O 39.81 CB 38.63 OG 39.95
A GLU - 131 -171.9 360.0 N 41.04 CA 43.05 C 43.01 O 43.4 CB 44.41 CG 46.74 CD 48.86 OE1 49.14 OE2 50.15 OXT 43.5
