A ALA - 56 360.0 14.8 N 48.64 CA 44.22 C 42.06 O 47.21 CB 45.81
A SER - 21 -179.6 -177.2 N 47.99 CA 33.17 C 44.63 O 52.33 CB 39.64 OG 31.95
A GLU - 79 -120.5 -94.6 N 36.02 CA 33.31 C 35.74 O 37.4 CB 37.54 CG 32.47 CD 40.08 OE1 34.85 OE2 51.38
A ILE E 32 -76.3 135.1 N 20.46 CA 23.49 C 22.15 O 20.66 CB 21.28 CG1 28.23 CG2 23.66 CD1 32.06
A GLU E 9 -107.8 146.0 N 18.31 CA 18.16 C 21.54 O 22.14 CB 21.12 CG 25.69 CD 29.72 OE1 29.49 OE2 31.01
A LEU E 0 -152.0 162.2 N 17.3 CA 19.59 C 22.67 O 19.86 CB 21.63 CG 26.8 CD1 25.03 CD2 31.24
A VAL E 10 -116.9 126.2 N 19.63 CA 22.47 C 18.5 O 21.46 CB 30.81 CG1 24.64 CG2 36.68
A PHE E 0 -99.3 119.6 N 16.32 CA 19.41 C 23.32 O 19.75 CB 21.27 CG 25.81 CD1 26.16 CD2 34.06 CE1 28.37 CE2 29.32 CZ 29.55
A ARG E 82 -117.4 150.4 N 19.45 CA 22.57 C 22.56 O 19.99 CB 22.66 CG 25.88 CD 33.88 NE 44.28 CZ 39.39 NH1 40.37 NH2 47.2
A PRO E 31 -63.3 140.9 N 22.36 CA 23.09 C 23.05 O 21.69 CB 24.01 CG 29.93 CD 24.63
A HIS - 19 -56.9 139.3 N 22.12 CA 23.6 C 26.14 O 25.18 CB 20.41 CG 20.13 ND1 25.03 CD2 26.09 CE1 26.77 NE2 26.63
A PRO T 85 -68.8 -17.8 N 22.39 CA 23.2 C 29.14 O 27.19 CB 20.27 CG 28.64 CD 21.6
A THR T 112 -129.3 -19.7 N 28.2 CA 25.87 C 33.0 O 29.12 CB 22.26 OG1 26.67 CG2 29.38
A LEU T 84 -82.6 -15.7 N 27.45 CA 27.72 C 26.49 O 30.95 CB 27.16 CG 26.86 CD1 25.01 CD2 29.94
A MET - 42 -73.4 143.0 N 28.17 CA 34.62 C 38.08 O 38.51 CB 35.87 CG 26.75 SD 32.06 CE 33.91
A GLU - 149 -113.7 168.4 N 38.03 CA 44.14 C 44.14 O 41.83 CB 45.6 CG 45.33 CD 44.2 OE1 42.65 OE2 43.77
A LYS T 194 -51.2 -48.4 N 47.17 CA 49.9 C 44.75 O 53.48 CB 52.88 CG 54.63 CD 56.91 CE 55.6 NZ 54.91
A ASP T 112 -91.7 8.2 N 47.34 CA 46.12 C 40.19 O 41.31 CB 46.95 CG 54.76 OD1 55.48 OD2 61.24
A ASP S 33 -73.9 137.4 N 36.84 CA 31.9 C 31.43 O 34.03 CB 34.79 CG 37.77 OD1 38.38 OD2 37.37
A SER - 31 -65.3 126.3 N 29.2 CA 31.34 C 26.6 O 31.52 CB 30.2 OG 30.52
A ALA - 43 -133.2 48.1 N 25.42 CA 30.49 C 26.0 O 27.16 CB 25.8
A GLN - 98 -74.3 142.4 N 24.69 CA 28.83 C 25.84 O 26.6 CB 24.6 CG 31.48 CD 37.83 OE1 45.3 NE2 36.8
A THR - 54 -84.9 130.6 N 23.49 CA 23.51 C 24.45 O 26.1 CB 24.97 OG1 30.54 CG2 26.74
A ARG E 21 -120.3 147.9 N 19.54 CA 19.6 C 20.18 O 18.8 CB 23.92 CG 21.19 CD 22.86 NE 26.22 CZ 24.94 NH1 20.52 NH2 23.24
A TYR E 23 -122.0 119.1 N 16.9 CA 20.76 C 20.29 O 18.02 CB 20.39 CG 23.0 CD1 21.58 CD2 26.14 CE1 27.55 CE2 28.15 CZ 30.34 OH 36.43
A ILE E 0 -136.6 163.8 N 17.93 CA 15.89 C 16.5 O 14.54 CB 17.04 CG1 25.92 CG2 17.1 CD1 28.9
A LYS E 27 -137.9 145.8 N 17.41 CA 17.96 C 20.52 O 19.17 CB 23.35 CG 25.46 CD 28.22 CE 30.5 NZ 35.62
A THR E 0 -161.3 -179.4 N 17.4 CA 19.59 C 16.29 O 20.25 CB 20.17 OG1 19.0 CG2 17.4
A SER - 2 -76.5 152.4 N 17.06 CA 22.06 C 21.63 O 19.9 CB 21.53 OG 22.8
A GLY T 0 -65.6 -16.7 N 23.12 CA 25.4 C 22.79 O 25.81
A ASN T 33 -86.3 -7.5 N 22.77 CA 21.59 C 26.94 O 28.38 CB 37.7 CG 33.44 OD1 31.49 ND2 35.21
A ALA - 0 -60.5 143.0 N 22.21 CA 20.6 C 20.81 O 24.03 CB 22.43
A THR B 24 -100.7 170.0 N 18.36 CA 21.07 C 23.64 O 18.02 CB 20.7 OG1 22.53 CG2 24.33
A VAL H 2 -55.6 -37.0 N 19.07 CA 20.71 C 22.59 O 21.51 CB 16.51 CG1 20.98 CG2 18.0
A ASP H 39 -62.8 -38.4 N 17.47 CA 18.42 C 16.31 O 17.71 CB 21.93 CG 21.96 OD1 25.9 OD2 31.64
A HIS H 3 -62.7 -39.2 N 17.8 CA 14.54 C 17.33 O 15.43 CB 13.75 CG 17.35 ND1 18.32 CD2 14.28 CE1 17.48 NE2 15.28
A LEU H 0 -67.4 -40.6 N 15.7 CA 21.42 C 17.84 O 15.35 CB 18.86 CG 22.45 CD1 28.79 CD2 24.2
A SER H 3 -61.3 -45.7 N 18.26 CA 19.21 C 21.75 O 18.07 CB 19.04 OG 23.61
A LYS H 50 -64.1 -39.7 N 18.31 CA 16.6 C 16.4 O 16.13 CB 15.88 CG 14.19 CD 18.6 CE 19.41 NZ 21.83
A TYR H 0 -55.4 -48.0 N 15.95 CA 17.28 C 15.02 O 13.9 CB 17.39 CG 14.64 CD1 18.38 CD2 19.56 CE1 15.91 CE2 22.49 CZ 20.71 OH 21.56
A LEU H 3 -57.7 -38.7 N 14.19 CA 14.17 C 14.73 O 17.86 CB 16.72 CG 15.43 CD1 16.99 CD2 19.72
A ALA H 0 -70.0 -42.5 N 16.5 CA 16.17 C 16.58 O 17.89 CB 20.56
A VAL H 20 -69.8 -42.5 N 15.48 CA 14.29 C 13.21 O 14.84 CB 15.59 CG1 17.68 CG2 16.04
A ARG H 10 -62.3 -42.5 N 15.07 CA 19.72 C 16.34 O 17.46 CB 24.03 CG 23.12 CD 20.26 NE 20.28 CZ 23.03 NH1 21.34 NH2 19.86
A LEU H 9 -60.9 -45.1 N 15.28 CA 20.15 C 18.07 O 16.88 CB 19.39 CG 22.31 CD1 20.5 CD2 23.34
A ALA H 3 -57.7 -39.4 N 16.85 CA 12.6 C 15.92 O 16.52 CB 16.96
A LEU H 12 -67.1 -41.2 N 16.08 CA 13.54 C 16.49 O 16.16 CB 14.49 CG 16.4 CD1 20.18 CD2 18.6
A GLU H 44 -65.3 -32.5 N 17.16 CA 18.31 C 18.73 O 18.48 CB 22.26 CG 19.25 CD 26.81 OE1 24.89 OE2 23.94
A GLU H 19 -66.9 -22.8 N 17.75 CA 19.08 C 19.34 O 19.91 CB 17.88 CG 21.32 CD 23.82 OE1 22.12 OE2 23.93
A LEU T 114 -59.6 -24.6 N 17.52 CA 18.75 C 22.42 O 24.93 CB 15.5 CG 14.58 CD1 17.81 CD2 18.28
A ARG T 194 -118.2 11.3 N 27.62 CA 29.42 C 34.26 O 37.19 CB 27.8 CG 33.13 CD 41.34 NE 45.03 CZ 43.53 NH1 49.85 NH2 42.4
A SER S 48 -82.2 164.1 N 32.08 CA 32.56 C 40.34 O 35.87 CB 31.34 OG 32.01
A LYS - 185 -59.5 -34.5 N 39.53 CA 42.14 C 46.3 O 48.54 CB 50.99 CG 58.21 CD 54.04 CE 42.24 NZ 46.41
A GLY - 32 88.2 18.3 N 39.53 CA 38.76 C 34.41 O 39.79
A GLU S 156 -69.9 -44.7 N 33.97 CA 36.96 C 33.89 O 37.55 CB 44.93 CG 49.91 CD 55.5 OE1 60.93 OE2 60.66
A SER S 51 -126.4 42.7 N 30.42 CA 33.16 C 27.21 O 29.16 CB 40.35 OG 45.94
A ASN - 78 -54.6 139.0 N 34.4 CA 30.1 C 25.46 O 28.79 CB 23.77 CG 29.89 OD1 36.19 ND2 28.36
A GLN - 100 -119.8 -14.0 N 24.86 CA 30.4 C 31.91 O 29.0 CB 36.93 CG 37.64 CD 50.52 OE1 55.78 NE2 50.08
A MET - 24 -109.6 142.5 N 21.39 CA 23.56 C 16.85 O 21.4 CB 22.09 CG 24.15 SD 32.2 CE 34.54
A ASN - 78 -114.4 119.6 N 21.09 CA 24.81 C 25.27 O 23.63 CB 23.61 CG 26.4 OD1 21.35 ND2 26.73
A LEU G 27 -55.3 -38.9 N 22.74 CA 21.72 C 25.59 O 26.45 CB 23.42 CG 21.35 CD1 22.61 CD2 29.53
A ASP G 104 -54.2 -37.2 N 27.88 CA 32.4 C 33.25 O 38.36 CB 33.09 CG 37.17 OD1 42.98 OD2 41.22
A THR G 93 -116.5 6.3 N 26.29 CA 28.36 C 27.49 O 24.11 CB 24.56 OG1 30.49 CG2 37.54
A ALA - 6 -56.0 139.0 N 23.23 CA 24.13 C 25.12 O 25.53 CB 24.01
A SER - 30 -151.6 177.8 N 20.9 CA 19.74 C 20.86 O 23.28 CB 31.1 OG 28.16
A GLU G 36 -68.6 -13.7 N 19.3 CA 20.49 C 28.59 O 23.06 CB 23.83 CG 26.7 CD 33.0 OE1 27.36 OE2 35.39
A LYS G 129 -78.2 -7.5 N 24.6 CA 27.78 C 28.35 O 31.97 CB 29.01 CG 34.98 CD 38.32 CE 42.31 NZ 44.88
A GLN G 47 -89.4 -11.4 N 22.88 CA 26.85 C 26.06 O 25.26 CB 27.42 CG 33.76 CD 39.29 OE1 34.08 NE2 39.57
A TYR E 11 -135.7 141.9 N 20.83 CA 22.34 C 21.52 O 23.06 CB 21.59 CG 19.5 CD1 19.18 CD2 21.87 CE1 19.62 CE2 19.15 CZ 23.87 OH 21.53
A THR E 15 -99.3 135.7 N 18.38 CA 20.95 C 20.57 O 18.94 CB 23.1 OG1 26.53 CG2 24.55
A ILE E 2 -110.3 139.0 N 20.32 CA 17.21 C 20.02 O 20.09 CB 16.39 CG1 25.4 CG2 19.55 CD1 27.46
A TYR E 14 -128.2 156.2 N 18.68 CA 21.79 C 23.15 O 23.12 CB 23.31 CG 21.64 CD1 19.07 CD2 28.92 CE1 22.22 CE2 30.28 CZ 28.43 OH 29.33
A ILE E 0 -131.0 143.8 N 21.48 CA 22.83 C 23.94 O 22.83 CB 22.74 CG1 22.53 CG2 23.61 CD1 21.62
A ALA E 35 -77.1 148.5 N 22.34 CA 27.72 C 31.04 O 35.41 CB 26.05
A THR - 36 -114.3 167.5 N 36.41 CA 40.24 C 43.13 O 43.93 CB 31.66 OG1 41.17 CG2 39.68
A ALA T 53 -65.8 -18.5 N 45.69 CA 33.83 C 42.26 O 45.79 CB 44.88
A SER T 102 -80.0 -8.1 N 36.39 CA 40.6 C 34.81 O 42.46 CB 39.72 OG 47.34
A GLY S 57 87.2 6.4 N 35.58 CA 38.08 C 34.86 O 32.77
A GLN - 116 -81.9 150.5 N 31.85 CA 33.68 C 34.12 O 38.88 CB 33.54 CG 41.2 CD 41.83 OE1 40.61 NE2 46.15
A PHE E 53 -106.4 98.4 N 32.99 CA 27.47 C 30.25 O 38.16 CB 25.28 CG 28.33 CD1 29.22 CD2 34.25 CE1 26.16 CE2 35.14 CZ 31.94
A THR E 42 -81.6 130.7 N 25.37 CA 28.18 C 25.23 O 24.16 CB 33.58 OG1 37.24 CG2 32.08
A VAL E 75 -70.6 129.4 N 22.19 CA 25.35 C 24.39 O 24.98 CB 26.85 CG1 26.44 CG2 30.79
A LEU - 7 -91.6 131.7 N 21.16 CA 25.5 C 24.75 O 23.03 CB 25.23 CG 24.69 CD1 23.77 CD2 27.39
A ASP - 90 -66.1 137.3 N 28.03 CA 19.68 C 21.12 O 21.34 CB 32.62 CG 36.14 OD1 45.44 OD2 31.3
A GLY T 13 -55.1 -29.2 N 21.94 CA 21.92 C 25.71 O 20.89
A SER T 79 -75.7 -15.7 N 23.78 CA 24.31 C 23.17 O 24.32 CB 29.09 OG 31.41
A PHE - 55 -65.5 132.5 N 23.88 CA 23.45 C 24.7 O 23.63 CB 22.24 CG 28.78 CD1 26.29 CD2 33.49 CE1 35.07 CE2 29.17 CZ 31.59
A SER B 27 -75.2 151.8 N 23.45 CA 24.83 C 25.2 O 22.53 CB 24.96 OG 26.3
A LEU H 0 -61.5 -34.1 N 21.75 CA 22.27 C 23.08 O 27.56 CB 21.65 CG 22.59 CD1 25.09 CD2 29.08
A GLU H 99 -61.8 -41.9 N 24.11 CA 27.94 C 26.61 O 29.29 CB 33.74 CG 38.09 CD 48.27 OE1 57.73 OE2 45.4
A LEU H 48 -62.4 -44.1 N 25.36 CA 27.78 C 34.39 O 30.99 CB 25.58 CG 36.16 CD1 36.74 CD2 37.94
A VAL H 0 -64.1 -38.1 N 26.04 CA 28.91 C 24.99 O 29.57 CB 24.03 CG1 26.16 CG2 23.03
A SER I 40 -67.6 -45.6 N 27.21 CA 28.66 C 36.45 O 31.83 CB 33.51 OG 39.77
A GLU I 123 -62.9 -47.7 N 34.14 CA 33.89 C 36.15 O 39.36 CB 35.01 CG 45.98 CD 55.76 OE1 53.88 OE2 59.38
A LYS I 122 -94.7 -21.0 N 30.4 CA 36.82 C 35.09 O 32.44 CB 36.31 CG 48.93 CD 57.82 CE 57.69 NZ 63.53
A TYR I 80 -123.7 -26.7 N 25.47 CA 27.06 C 30.34 O 30.87 CB 28.65 CG 29.12 CD1 38.53 CD2 35.24 CE1 37.5 CE2 41.26 CZ 40.19 OH 48.22
A TRP I 34 -93.3 -60.7 N 25.5 CA 25.57 C 29.7 O 32.38 CB 25.33 CG 20.98 CD1 22.21 CD2 22.71 NE1 20.23 CE2 18.68 CE3 22.94 CZ2 22.75 CZ3 23.51 CH2 26.17
A LYS - 30 61.1 26.9 N 25.93 CA 23.36 C 26.33 O 25.49 CB 29.44 CG 30.87 CD 32.85 CE 38.75 NZ 38.23
A VAL B 22 -133.0 138.8 N 27.18 CA 27.62 C 27.74 O 25.95 CB 30.63 CG1 28.73 CG2 26.81
A ASN S 34 -82.4 62.4 N 25.86 CA 29.07 C 26.96 O 27.06 CB 29.58 CG 35.01 OD1 30.58 ND2 36.12
A LYS S 84 -149.1 163.8 N 25.88 CA 24.28 C 23.67 O 23.87 CB 30.78 CG 35.42 CD 38.67 CE 43.86 NZ 50.85
A PRO - 23 -56.0 142.5 N 24.73 CA 23.22 C 22.1 O 22.83 CB 26.46 CG 28.39 CD 25.4
A MET E 2 -72.4 144.0 N 18.09 CA 23.25 C 21.11 O 24.72 CB 23.28 CG 26.79 SD 41.02 CE 34.37
A GLU E 62 -111.4 117.0 N 19.36 CA 21.52 C 22.23 O 23.16 CB 25.85 CG 29.97 CD 38.64 OE1 37.8 OE2 39.68
A LEU E 0 -120.9 155.5 N 18.01 CA 18.55 C 19.39 O 20.74 CB 17.72 CG 19.95 CD1 19.88 CD2 21.03
A TYR E 37 -121.2 153.7 N 18.48 CA 17.55 C 16.91 O 19.49 CB 18.99 CG 21.29 CD1 20.99 CD2 20.04 CE1 21.05 CE2 24.75 CZ 23.63 OH 32.63
A TYR E 4 -133.1 157.3 N 18.06 CA 16.25 C 18.2 O 20.2 CB 15.13 CG 16.55 CD1 18.08 CD2 19.34 CE1 22.46 CE2 18.32 CZ 24.86 OH 22.7
A ALA E 3 -145.9 137.6 N 17.79 CA 19.5 C 20.03 O 20.06 CB 19.63
A PRO E 31 -63.8 139.8 N 21.41 CA 25.66 C 32.68 O 32.37 CB 32.25 CG 34.17 CD 26.36
A THR - 58 -80.7 144.6 N 28.37 CA 35.59 C 39.69 O 36.06 CB 38.92 OG1 38.68 CG2 28.18
A LYS - 211 112.6 360.0 N 42.6 CA 45.64 C 49.91 O 50.49 CB 46.7 CG 53.98 CD 49.17 CE 55.58 NZ 54.61 OXT 57.52
B PRO - 64 360.0 101.7 N 45.47 CA 37.85 C 37.74 O 39.37 CB 30.32 CG 37.38 CD 41.68
B ARG - 148 -107.0 148.3 N 41.01 CA 38.89 C 38.51 O 37.8 CB 36.92 CG 41.97 CD 51.46 NE 49.77 CZ 47.14 NH1 54.25 NH2 42.84
B LEU - 9 -63.3 144.2 N 31.81 CA 32.52 C 35.32 O 36.68 CB 28.45 CG 28.28 CD1 27.64 CD2 28.85
B LYS S 168 -115.3 -15.6 N 37.9 CA 43.66 C 44.64 O 49.77 CB 47.1 CG 48.57 CD 59.2 CE 59.63 NZ 63.92
B ASN S 61 -104.1 17.7 N 42.79 CA 38.98 C 33.9 O 38.87 CB 44.48 CG 47.98 OD1 41.99 ND2 49.35
B VAL E 3 -111.0 152.9 N 37.77 CA 31.09 C 33.65 O 28.3 CB 26.28 CG1 32.48 CG2 30.39
B ASP E 64 -89.6 103.8 N 25.49 CA 29.0 C 25.96 O 23.23 CB 27.39 CG 30.34 OD1 32.11 OD2 32.81
B ARG E 65 -55.0 -33.3 N 26.83 CA 26.4 C 24.78 O 26.32 CB 30.31 CG 33.71 CD 28.58 NE 35.06 CZ 34.65 NH1 28.66 NH2 36.49
B SER E 100 -66.3 -17.9 N 21.9 CA 23.04 C 21.0 O 21.14 CB 25.27 OG 24.5
B THR E 30 -82.2 -0.0 N 22.07 CA 19.64 C 19.62 O 21.87 CB 20.01 OG1 20.97 CG2 23.87
B ALA E 39 -43.3 123.8 N 20.6 CA 21.3 C 18.53 O 19.19 CB 21.54
B GLN E 62 -130.3 144.6 N 17.64 CA 16.24 C 13.63 O 17.45 CB 15.69 CG 20.82 CD 26.48 OE1 22.35 NE2 23.38
B GLN E 45 -112.7 143.0 N 13.98 CA 16.59 C 12.86 O 14.85 CB 14.78 CG 16.86 CD 20.74 OE1 21.8 NE2 24.39
B LEU E 1 -133.0 126.1 N 14.67 CA 15.37 C 13.62 O 16.45 CB 15.29 CG 14.75 CD1 16.09 CD2 18.01
B ALA E 10 -81.1 120.4 N 13.09 CA 12.51 C 15.36 O 19.21 CB 15.93
B VAL E 4 -117.4 125.2 N 14.32 CA 12.27 C 15.07 O 12.76 CB 16.38 CG1 16.41 CG2 16.55
B THR E 42 -112.4 130.9 N 15.1 CA 17.08 C 16.32 O 18.45 CB 20.13 OG1 17.12 CG2 16.2
B VAL E 25 -127.5 121.5 N 14.0 CA 19.2 C 19.33 O 16.62 CB 16.01 CG1 18.23 CG2 16.71
B GLY T 70 59.5 -123.6 N 20.68 CA 24.21 C 18.05 O 20.56
B ASN T 65 -109.4 24.0 N 16.37 CA 18.83 C 18.89 O 17.05 CB 21.5 CG 25.01 OD1 22.86 ND2 30.75
B VAL E 37 -119.1 119.1 N 17.42 CA 13.73 C 15.54 O 13.4 CB 17.46 CG1 17.79 CG2 20.42
B THR E 1 -110.6 138.7 N 13.24 CA 14.58 C 14.46 O 15.57 CB 13.38 OG1 17.3 CG2 15.32
B VAL E 0 -129.3 159.6 N 12.05 CA 11.91 C 14.96 O 16.49 CB 15.33 CG1 14.07 CG2 15.81
B ILE E 18 -102.7 120.8 N 14.96 CA 13.23 C 13.45 O 16.48 CB 13.57 CG1 16.8 CG2 17.76 CD1 20.67
B ILE E 0 -104.4 119.2 N 16.22 CA 12.09 C 17.03 O 15.75 CB 16.92 CG1 19.47 CG2 16.85 CD1 26.3
B THR E 6 -103.6 131.2 N 15.57 CA 17.92 C 18.52 O 19.33 CB 19.32 OG1 21.13 CG2 21.71
B ASP E 16 -121.3 165.0 N 17.24 CA 17.94 C 17.07 O 18.44 CB 19.08 CG 19.8 OD1 22.66 OD2 20.69
B PHE E 15 -135.6 152.2 N 17.36 CA 18.92 C 22.91 O 20.18 CB 17.21 CG 20.19 CD1 21.09 CD2 22.0 CE1 22.82 CE2 22.3 CZ 23.68
B LYS E 125 -86.3 142.3 N 19.86 CA 23.81 C 29.43 O 26.7 CB 25.45 CG 34.0 CD 45.64 CE 45.08 NZ 47.38
B GLU E 123 -60.7 146.3 N 28.02 CA 34.36 C 35.88 O 35.22 CB 39.55 CG 42.7 CD 51.06 OE1 49.24 OE2 55.17
B LYS - 172 -96.4 360.0 N 43.14 CA 44.03 C 47.87 O 52.48 CB 46.29 CG 51.46 CD 53.26 CE 49.29 NZ 49.91
C ALA - 92 360.0 149.1 N 27.24 CA 26.55 C 24.33 O 24.58 CB 27.69
C SER - 49 -63.4 138.7 N 23.11 CA 22.26 C 21.11 O 20.31 CB 23.32 OG 21.85
C GLU E 69 -64.4 145.5 N 20.09 CA 18.82 C 18.06 O 17.8 CB 19.3 CG 21.59 CD 25.78 OE1 22.15 OE2 26.94
C ILE E 23 -135.3 146.2 N 16.51 CA 14.06 C 15.55 O 15.47 CB 18.06 CG1 21.17 CG2 19.46 CD1 24.2
C GLU E 2 -121.9 146.5 N 13.89 CA 12.57 C 16.54 O 18.15 CB 15.35 CG 18.67 CD 17.0 OE1 19.57 OE2 18.86
C LEU E 0 -135.8 148.8 N 15.38 CA 17.57 C 20.18 O 16.26 CB 17.53 CG 25.03 CD1 29.46 CD2 25.83
C VAL E 19 -107.2 120.6 N 16.21 CA 18.1 C 19.88 O 20.14 CB 19.31 CG1 20.06 CG2 21.36
C PHE E 0 -124.0 117.1 N 14.3 CA 18.32 C 19.53 O 17.58 CB 16.21 CG 16.6 CD1 19.15 CD2 18.85 CE1 18.69 CE2 21.57 CZ 24.43
C ARG E 79 -138.8 160.8 N 17.61 CA 18.52 C 18.57 O 19.04 CB 20.96 CG 26.12 CD 21.85 NE 27.24 CZ 29.61 NH1 32.58 NH2 29.35
C PRO E 24 -66.3 143.0 N 21.27 CA 17.75 C 18.74 O 22.39 CB 20.54 CG 29.9 CD 25.15
C HIS - 13 -52.4 129.1 N 19.51 CA 19.29 C 23.34 O 22.48 CB 19.52 CG 17.01 ND1 23.93 CD2 19.72 CE1 24.63 NE2 21.76
C PRO T 78 -69.7 -17.2 N 22.15 CA 23.4 C 24.25 O 28.38 CB 27.48 CG 33.55 CD 20.49
C THR T 118 -120.0 -18.9 N 24.52 CA 23.03 C 26.63 O 33.07 CB 21.99 OG1 22.36 CG2 25.08
C LEU T 104 -84.8 -23.8 N 27.31 CA 25.57 C 30.44 O 34.01 CB 27.78 CG 27.76 CD1 25.54 CD2 32.71
C MET S 41 -119.5 144.9 N 27.7 CA 36.19 C 36.91 O 40.13 CB 28.84 CG 26.53 SD 29.64 CE 29.08
C GLU - 165 -82.9 154.6 N 49.85 CA 56.12 C 60.19 O 63.28 CB 60.34 CG 59.7 CD 69.2 OE1 70.86 OE2 64.67
C LYS - 205 -90.0 93.7 N 63.0 CA 68.62 C 71.44 O 76.21 CB 72.61 CG 81.94 CD 83.68 CE 84.56 NZ 86.58
C ASP - 84 -111.7 -171.2 N 69.11 CA 71.7 C 70.72 O 73.35 CB 71.11 CG 71.46 OD1 71.11 OD2 66.81
C ASP T 135 -123.5 124.9 N 70.54 CA 73.36 C 73.01 O 79.11 CB 72.69 CG 76.28 OD1 78.27 OD2 73.25
C SER T 69 -109.8 73.6 N 67.79 CA 62.61 C 64.34 O 62.93 CB 62.02 OG 68.08
C ALA S 12 -71.7 78.5 N 60.99 CA 54.75 C 51.46 O 60.88 CB 50.67
C GLN - 84 -118.8 157.1 N 49.09 CA 44.68 C 29.08 O 31.23 CB 49.92 CG 52.69 CD 59.87 OE1 63.56 NE2 63.49
C THR - 47 -69.0 132.6 N 28.78 CA 19.2 C 22.03 O 24.91 CB 27.61 OG1 32.7 CG2 23.24
C ARG E 17 -112.9 134.2 N 20.21 CA 17.66 C 21.66 O 17.14 CB 18.53 CG 26.17 CD 26.57 NE 24.15 CZ 24.7 NH1 32.41 NH2 23.74
C TYR E 34 -109.9 114.4 N 17.07 CA 15.7 C 15.65 O 17.21 CB 15.56 CG 17.12 CD1 19.48 CD2 19.65 CE1 19.9 CE2 24.12 CZ 25.63 OH 31.09
C ILE E 0 -126.1 146.8 N 14.28 CA 18.11 C 14.71 O 16.08 CB 18.25 CG1 20.53 CG2 24.27 CD1 24.5
C LYS E 37 -128.3 140.7 N 14.5 CA 15.13 C 18.1 O 15.79 CB 19.91 CG 27.22 CD 24.04 CE 25.62 NZ 32.68
C THR E 2 -154.4 -177.1 N 14.83 CA 15.71 C 17.37 O 19.31 CB 18.25 OG1 18.75 CG2 14.44
C SER E 30 -84.9 147.1 N 17.41 CA 16.45 C 15.82 O 16.85 CB 19.3 OG 19.86
C GLY T 1 -69.1 -14.1 N 18.18 CA 17.77 C 20.65 O 20.02
C ASN T 69 -78.5 -12.3 N 20.78 CA 18.64 C 20.47 O 21.03 CB 20.04 CG 23.17 OD1 21.78 ND2 23.68
C ALA - 0 -54.6 136.3 N 14.81 CA 16.65 C 16.03 O 17.77 CB 16.99
C THR B 5 -96.9 167.7 N 16.52 CA 19.77 C 21.94 O 16.64 CB 17.12 OG1 19.78 CG2 17.62
C VAL H 3 -52.6 -39.5 N 15.79 CA 17.35 C 18.24 O 18.06 CB 16.04 CG1 18.67 CG2 17.88
C ASP H 17 -66.3 -38.3 N 18.35 CA 19.83 C 17.52 O 17.98 CB 22.57 CG 20.38 OD1 24.83 OD2 36.06
C HIS H 0 -61.9 -43.6 N 17.43 CA 16.29 C 17.7 O 17.42 CB 15.13 CG 15.01 ND1 17.39 CD2 14.81 CE1 18.75 NE2 16.91
C LEU H 0 -63.6 -38.4 N 15.98 CA 16.88 C 19.31 O 18.28 CB 15.62 CG 18.45 CD1 24.78 CD2 21.92
C SER H 0 -65.5 -41.3 N 16.54 CA 18.23 C 16.84 O 19.51 CB 21.87 OG 25.92
C LYS H 6 -68.1 -42.7 N 16.99 CA 18.62 C 20.36 O 17.29 CB 16.46 CG 16.0 CD 17.8 CE 22.36 NZ 27.84
C TYR H 0 -54.9 -43.5 N 18.1 CA 19.63 C 18.44 O 15.25 CB 16.65 CG 17.91 CD1 19.33 CD2 20.55 CE1 18.38 CE2 18.28 CZ 20.46 OH 20.8
C LEU H 0 -65.8 -43.6 N 16.34 CA 16.81 C 15.14 O 17.1 CB 16.38 CG 20.59 CD1 20.65 CD2 20.6
C ALA H 7 -56.8 -43.5 N 18.48 CA 19.19 C 19.79 O 20.89 CB 23.81
C VAL H 8 -66.7 -51.6 N 16.84 CA 14.44 C 17.45 O 15.96 CB 14.76 CG1 17.23 CG2 17.22
C ARG H 19 -64.9 -42.8 N 14.55 CA 17.84 C 19.02 O 16.48 CB 16.18 CG 17.15 CD 20.63 NE 20.21 CZ 20.39 NH1 25.83 NH2 20.39
C LEU H 27 -64.0 -36.7 N 17.36 CA 17.89 C 19.08 O 18.72 CB 17.62 CG 22.38 CD1 22.98 CD2 24.64
C ALA H 25 -65.4 -47.2 N 19.77 CA 17.94 C 19.1 O 20.5 CB 18.9
C LEU H 38 -64.8 -36.1 N 16.09 CA 18.72 C 20.47 O 20.0 CB 19.93 CG 19.63 CD1 19.88 CD2 19.99
C GLU H 61 -68.9 -36.3 N 19.77 CA 20.94 C 22.33 O 24.28 CB 25.68 CG 32.82 CD 36.67 OE1 38.49 OE2 37.25
C GLU H 95 -65.3 -46.0 N 20.05 CA 20.13 C 22.29 O 22.06 CB 24.77 CG 27.3 CD 41.44 OE1 45.45 OE2 51.04
C LEU H 15 -59.0 -44.0 N 19.42 CA 22.34 C 25.73 O 23.86 CB 23.19 CG 18.83 CD1 24.43 CD2 27.17
C ARG H 208 -62.4 -46.7 N 22.33 CA 26.73 C 31.49 O 30.68 CB 35.09 CG 43.09 CD 57.04 NE 72.7 CZ 72.49 NH1 70.4 NH2 66.58
C SER H 85 -60.0 -34.0 N 21.73 CA 30.73 C 33.49 O 35.11 CB 30.1 OG 36.8
C LYS H 147 -89.5 -6.0 N 27.7 CA 28.94 C 29.92 O 29.23 CB 29.87 CG 31.4 CD 43.82 CE 46.59 NZ 43.08
C GLY T 64 65.1 35.1 N 26.7 CA 28.96 C 34.71 O 33.8
C GLU - 71 -101.9 113.6 N 26.08 CA 26.76 C 26.04 O 24.48 CB 26.95 CG 27.74 CD 32.93 OE1 34.6 OE2 24.76
C SER - 52 -87.0 -16.6 N 21.88 CA 23.61 C 22.61 O 25.84 CB 28.23 OG 32.56
C ASN - 25 -94.2 108.9 N 21.49 CA 17.05 C 15.98 O 15.32 CB 17.42 CG 14.91 OD1 16.62 ND2 15.73
C GLN G 51 -68.9 -10.7 N 14.2 CA 14.49 C 14.85 O 14.18 CB 17.04 CG 17.24 CD 16.08 OE1 16.25 NE2 20.46
C MET G 93 -76.5 -2.8 N 14.82 CA 14.56 C 17.29 O 17.79 CB 15.84 CG 17.57 SD 21.39 CE 25.62
C ASN G 93 -92.7 7.9 N 13.73 CA 12.94 C 16.51 O 19.84 CB 16.82 CG 21.94 OD1 35.6 ND2 24.92
C LEU S 41 -134.4 159.1 N 15.29 CA 18.38 C 16.56 O 16.73 CB 21.65 CG 19.68 CD1 25.76 CD2 23.94
C ASP - 136 -59.4 166.8 N 17.27 CA 14.48 C 15.39 O 19.12 CB 17.47 CG 25.25 OD1 21.85 OD2 24.38
C THR - 84 -62.2 156.3 N 15.11 CA 15.87 C 17.07 O 22.34 CB 23.1 OG1 23.63 CG2 19.57
C ALA - 10 -104.9 131.5 N 19.66 CA 22.01 C 16.23 O 20.07 CB 23.47
C SER - 30 -152.6 168.6 N 20.23 CA 22.06 C 22.15 O 26.66 CB 31.28 OG 29.81
C GLU G 23 -68.8 -17.0 N 24.94 CA 25.91 C 28.11 O 29.05 CB 25.29 CG 30.8 CD 37.65 OE1 30.71 OE2 40.59
C LYS G 134 -78.5 -5.5 N 26.46 CA 32.08 C 32.95 O 31.51 CB 30.97 CG 32.12 CD 40.87 CE 50.37 NZ 44.98
C GLN G 54 -86.3 -21.6 N 24.39 CA 25.79 C 27.87 O 26.22 CB 30.84 CG 38.14 CD 34.21 OE1 33.73 NE2 34.09
C TYR E 46 -129.3 140.6 N 22.88 CA 24.8 C 22.25 O 22.57 CB 23.58 CG 18.63 CD1 24.53 CD2 21.69 CE1 26.04 CE2 25.74 CZ 25.58 OH 38.9
C THR E 34 -97.7 136.6 N 22.81 CA 23.64 C 19.81 O 18.51 CB 25.47 OG1 27.98 CG2 24.68
C ILE E 3 -112.4 141.0 N 20.83 CA 15.86 C 19.58 O 21.84 CB 17.02 CG1 25.2 CG2 18.27 CD1 26.58
C TYR E 26 -130.2 153.9 N 18.05 CA 18.21 C 21.38 O 20.83 CB 18.35 CG 22.01 CD1 19.77 CD2 24.57 CE1 24.12 CE2 21.82 CZ 27.57 OH 28.07
C ILE E 0 -123.9 131.1 N 16.04 CA 14.32 C 22.32 O 23.12 CB 19.86 CG1 19.23 CG2 21.38 CD1 19.64
C ALA E 26 -82.9 131.1 N 21.17 CA 21.92 C 27.84 O 24.95 CB 22.88
C THR - 38 -109.4 176.7 N 27.48 CA 29.04 C 21.05 O 23.42 CB 31.62 OG1 25.07 CG2 29.95
C ALA T 78 -53.4 -32.7 N 30.16 CA 28.54 C 23.25 O 30.67 CB 32.97
C SER T 88 -75.7 -12.9 N 28.24 CA 27.08 C 24.15 O 25.69 CB 31.17 OG 26.66
C GLY S 53 92.9 0.6 N 21.29 CA 23.13 C 19.38 O 22.64
C GLN - 143 -89.5 165.1 N 21.58 CA 22.66 C 22.12 O 23.78 CB 24.82 CG 25.27 CD 34.24 OE1 38.99 NE2 28.31
C PHE E 74 -111.5 119.9 N 21.18 CA 21.79 C 26.76 O 27.95 CB 21.44 CG 26.25 CD1 28.02 CD2 26.51 CE1 34.68 CE2 24.87 CZ 34.42
C THR E 44 -90.7 128.0 N 18.34 CA 18.37 C 25.51 O 21.62 CB 26.36 OG1 31.07 CG2 24.15
C VAL E 90 -76.0 126.7 N 20.77 CA 19.52 C 23.99 O 22.29 CB 24.41 CG1 26.41 CG2 30.29
C LEU - 9 -88.7 132.3 N 21.33 CA 23.32 C 21.32 O 21.5 CB 19.45 CG 22.05 CD1 21.95 CD2 19.6
C ASP - 72 -57.6 123.3 N 20.62 CA 22.29 C 19.02 O 19.01 CB 24.12 CG 27.55 OD1 26.85 OD2 32.96
C GLY T 14 -56.7 -25.2 N 21.38 CA 20.68 C 20.8 O 20.84
C SER T 4 -83.9 -11.5 N 18.29 CA 19.94 C 17.6 O 20.31 CB 24.1 OG 23.45
C PHE B 34 -70.5 133.5 N 19.22 CA 19.34 C 18.91 O 19.29 CB 17.78 CG 19.75 CD1 22.89 CD2 25.31 CE1 25.64 CE2 23.65 CZ 22.66
C SER B 5 -67.4 153.5 N 16.64 CA 17.69 C 17.53 O 15.89 CB 16.73 OG 18.5
C LEU H 0 -64.9 -32.7 N 17.03 CA 18.1 C 13.46 O 17.43 CB 16.11 CG 21.08 CD1 20.27 CD2 22.52
C GLU H 49 -61.1 -45.6 N 16.51 CA 18.52 C 20.74 O 19.0 CB 21.42 CG 26.12 CD 30.95 OE1 35.34 OE2 35.44
C LEU H 16 -61.8 -43.7 N 17.34 CA 21.83 C 20.72 O 20.23 CB 18.65 CG 22.42 CD1 27.58 CD2 25.58
C VAL H 0 -56.1 -46.6 N 18.81 CA 17.4 C 20.28 O 20.06 CB 15.37 CG1 18.62 CG2 18.32
C SER H 33 -61.7 -47.0 N 17.1 CA 17.44 C 21.57 O 22.49 CB 21.73 OG 26.94
C GLU H 96 -64.6 -38.1 N 20.07 CA 21.82 C 23.63 O 25.31 CB 24.25 CG 31.59 CD 43.21 OE1 34.99 OE2 42.79
C LYS H 90 -79.2 -39.2 N 22.11 CA 23.75 C 25.99 O 21.86 CB 22.36 CG 25.06 CD 27.61 CE 35.36 NZ 32.07
C TYR H 60 -119.3 -20.3 N 21.45 CA 25.47 C 23.51 O 24.84 CB 22.02 CG 24.94 CD1 29.65 CD2 22.8 CE1 34.9 CE2 29.21 CZ 31.96 OH 36.55
C TRP - 30 -107.3 109.6 N 24.33 CA 25.46 C 26.14 O 29.42 CB 20.53 CG 23.85 CD1 27.76 CD2 22.38 NE1 19.8 CE2 23.03 CE3 22.66 CZ2 24.89 CZ3 19.34 CH2 24.67
C LYS - 174 -78.5 -16.1 N 23.91 CA 39.95 C 48.54 O 50.31 CB 44.16 CG 46.46 CD 49.83 CE 49.12 NZ 52.34
C VAL S 63 -105.8 151.9 N 47.55 CA 41.32 C 35.66 O 36.35 CB 40.17 CG1 48.48 CG2 45.22
C ASN S 112 -84.8 59.3 N 37.67 CA 37.64 C 32.73 O 34.64 CB 39.91 CG 43.19 OD1 42.56 ND2 49.06
C LYS S 89 -146.4 160.5 N 28.33 CA 24.84 C 26.92 O 26.44 CB 32.23 CG 37.0 CD 40.02 CE 40.15 NZ 48.01
C PRO - 18 -51.6 135.7 N 22.67 CA 22.77 C 20.07 O 22.15 CB 27.92 CG 24.1 CD 26.54
C MET E 2 -71.8 134.5 N 21.53 CA 20.31 C 20.66 O 18.82 CB 20.2 CG 21.61 SD 22.07 CE 18.93
C GLU E 54 -101.2 117.7 N 16.91 CA 18.9 C 19.12 O 21.34 CB 19.12 CG 24.32 CD 25.07 OE1 24.61 OE2 26.17
C LEU E 0 -122.2 159.7 N 17.01 CA 15.82 C 17.9 O 16.96 CB 17.53 CG 18.41 CD1 19.85 CD2 17.04
C TYR E 25 -132.8 153.9 N 15.83 CA 16.58 C 14.14 O 17.02 CB 15.8 CG 15.39 CD1 13.61 CD2 16.22 CE1 19.58 CE2 15.45 CZ 17.3 OH 21.15
C TYR E 1 -135.0 155.5 N 17.08 CA 15.59 C 16.86 O 18.46 CB 18.07 CG 20.72 CD1 17.94 CD2 18.86 CE1 18.8 CE2 23.47 CZ 24.08 OH 25.02
C ALA E 2 -151.2 145.9 N 17.5 CA 23.02 C 20.35 O 23.24 CB 21.86
C PRO E 48 -59.1 138.0 N 24.35 CA 25.67 C 27.02 O 33.67 CB 31.34 CG 33.57 CD 29.56
C THR - 56 -73.5 142.0 N 33.15 CA 37.67 C 42.68 O 44.73 CB 38.55 OG1 33.13 CG2 45.47
C LYS - 242 -99.9 360.0 N 54.67 CA 56.43 C 62.85 O 59.43 CB 55.63 CG 50.83 CD 54.35 CE 56.34 NZ 48.69 OXT 65.64
D GLY - 138 360.0 -177.5 N 55.21 CA 48.16 C 43.92 O 42.12
D THR - 112 -118.2 111.4 N 41.89 CA 36.98 C 35.85 O 39.41 CB 40.31 OG1 51.76 CG2 42.59
D ARG - 118 -130.3 106.6 N 23.49 CA 23.23 C 20.35 O 20.22 CB 20.0 CG 17.27 CD 18.66 NE 18.49 CZ 18.05 NH1 18.5 NH2 18.94
D PRO - 39 -68.7 148.2 N 18.25 CA 15.4 C 18.61 O 20.79 CB 24.43 CG 23.78 CD 22.8
D ARG - 86 -126.9 147.1 N 15.47 CA 18.53 C 17.94 O 19.24 CB 14.87 CG 17.4 CD 17.08 NE 16.45 CZ 19.97 NH1 17.28 NH2 16.47
D LEU - 10 -66.7 129.7 N 12.89 CA 15.76 C 18.63 O 18.1 CB 17.61 CG 17.94 CD1 21.62 CD2 23.86
D LYS S 186 -94.3 -17.2 N 18.53 CA 22.96 C 24.26 O 28.63 CB 23.36 CG 24.9 CD 29.43 CE 36.87 NZ 45.2
D ASN S 53 -99.2 -1.9 N 21.62 CA 25.07 C 26.63 O 28.0 CB 29.84 CG 30.26 OD1 29.61 ND2 38.15
D VAL E 4 -98.3 151.4 N 20.1 CA 19.25 C 21.53 O 23.31 CB 19.34 CG1 21.79 CG2 24.15
D ASP E 45 -94.8 105.6 N 20.22 CA 22.87 C 18.88 O 18.06 CB 21.05 CG 23.49 OD1 22.54 OD2 26.25
D ARG E 93 -69.9 -15.6 N 17.06 CA 15.26 C 14.75 O 18.17 CB 15.92 CG 17.73 CD 23.18 NE 25.48 CZ 19.15 NH1 22.92 NH2 14.97
D SER E 102 -73.6 -10.1 N 16.92 CA 16.78 C 15.85 O 17.63 CB 18.0 OG 20.61
D THR E 28 -93.5 8.8 N 15.77 CA 16.94 C 15.88 O 17.31 CB 17.74 OG1 16.21 CG2 20.68
D ALA E 18 -47.1 127.5 N 15.29 CA 15.32 C 19.76 O 17.49 CB 16.88
D GLN E 74 -120.2 130.3 N 16.72 CA 19.8 C 17.08 O 21.43 CB 18.85 CG 19.51 CD 26.37 OE1 28.68 NE2 31.64
D GLN E 64 -109.8 137.0 N 15.59 CA 14.05 C 16.63 O 15.74 CB 16.26 CG 20.88 CD 26.66 OE1 34.86 NE2 37.42
D LEU E 0 -128.8 124.4 N 15.5 CA 13.82 C 15.93 O 16.93 CB 13.24 CG 15.28 CD1 18.07 CD2 15.87
D ALA E 6 -85.2 124.6 N 17.07 CA 14.49 C 18.45 O 18.57 CB 18.88
D VAL E 2 -125.5 131.6 N 18.73 CA 21.18 C 19.54 O 21.82 CB 22.53 CG1 26.33 CG2 22.82
D THR E 6 -116.6 132.7 N 21.95 CA 23.04 C 21.02 O 23.4 CB 28.91 OG1 28.39 CG2 28.15
D VAL E 1 -137.3 133.2 N 24.41 CA 24.77 C 30.08 O 27.73 CB 24.97 CG1 24.53 CG2 23.33
D GLY T 14 59.7 -130.9 N 31.14 CA 39.66 C 34.26 O 44.64
D ASN T 95 -108.8 31.8 N 36.11 CA 41.27 C 39.31 O 39.81 CB 45.53 CG 48.28 OD1 51.67 ND2 50.09
D VAL E 33 -124.9 122.8 N 30.9 CA 27.46 C 22.01 O 22.94 CB 29.37 CG1 26.67 CG2 35.66
D THR E 35 -111.3 130.6 N 22.28 CA 21.76 C 19.84 O 24.08 CB 29.19 OG1 28.73 CG2 25.49
D VAL E 5 -129.0 163.4 N 17.41 CA 16.79 C 20.79 O 20.35 CB 17.25 CG1 17.93 CG2 16.78
D ILE E 63 -104.4 124.8 N 17.7 CA 16.41 C 18.01 O 18.73 CB 20.63 CG1 23.55 CG2 20.56 CD1 32.42
D ILE E 0 -109.5 119.5 N 15.75 CA 14.23 C 15.41 O 16.72 CB 15.0 CG1 18.5 CG2 16.92 CD1 22.63
D THR E 2 -106.2 136.7 N 13.05 CA 15.76 C 17.31 O 15.26 CB 14.74 OG1 16.79 CG2 18.7
D ASP E 16 -120.6 162.3 N 15.28 CA 16.9 C 15.97 O 16.55 CB 21.3 CG 25.77 OD1 25.3 OD2 24.55
D PHE E 16 -133.3 153.2 N 15.18 CA 15.13 C 18.85 O 19.97 CB 14.88 CG 16.08 CD1 15.94 CD2 19.29 CE1 19.7 CE2 20.4 CZ 21.17
D LYS E 148 -86.5 155.4 N 17.64 CA 19.93 C 19.77 O 21.4 CB 19.73 CG 27.67 CD 35.74 CE 42.58 NZ 50.2
D GLU E 110 -71.2 150.1 N 28.09 CA 27.66 C 31.91 O 34.84 CB 30.59 CG 33.06 CD 39.76 OE1 43.25 OE2 42.27
D LYS - 181 -67.0 360.0 N 30.15 CA 32.88 C 39.42 O 37.98 CB 35.83 CG 36.48 CD 45.65 CE 35.99 NZ 40.72
E ALA - 48 360.0 67.2 N 60.12 CA 55.69 C 52.36 O 59.21 CB 53.1
E SER - 51 -61.7 163.2 N 56.47 CA 55.59 C 44.79 O 45.47 CB 53.28 OG 49.85
E GLU - 56 -62.2 146.9 N 41.08 CA 38.01 C 37.65 O 38.26 CB 39.93 CG 38.08 CD 48.26 OE1 56.19 OE2 56.09
E ILE E 34 -118.7 136.7 N 30.52 CA 27.37 C 26.75 O 25.01 CB 30.82 CG1 43.19 CG2 29.74 CD1 47.42
E GLU E 11 -107.7 148.5 N 29.52 CA 25.96 C 26.24 O 25.37 CB 32.04 CG 34.43 CD 39.14 OE1 38.34 OE2 40.03
E LEU E 0 -152.5 160.6 N 24.55 CA 23.99 C 25.48 O 24.04 CB 31.32 CG 30.62 CD1 30.68 CD2 33.37
E VAL E 10 -113.7 130.6 N 22.27 CA 25.03 C 26.75 O 25.37 CB 24.35 CG1 31.82 CG2 33.23
E PHE E 0 -108.4 112.0 N 23.36 CA 23.39 C 22.93 O 27.25 CB 28.73 CG 27.35 CD1 30.74 CD2 37.61 CE1 28.88 CE2 35.51 CZ 35.33
E ARG E 79 -109.0 151.0 N 22.88 CA 24.17 C 20.83 O 22.49 CB 22.29 CG 30.42 CD 36.02 NE 43.53 CZ 41.39 NH1 43.32 NH2 48.06
E PRO E 28 -63.9 140.8 N 23.21 CA 24.35 C 23.62 O 26.15 CB 28.52 CG 33.22 CD 25.01
E HIS - 18 -50.5 137.3 N 23.0 CA 24.56 C 25.42 O 27.89 CB 25.97 CG 26.26 ND1 24.07 CD2 26.29 CE1 28.2 NE2 28.08
E PRO T 79 -62.5 -25.6 N 26.67 CA 31.76 C 30.89 O 31.95 CB 31.03 CG 37.05 CD 27.93
E THR T 113 -128.1 -18.4 N 28.77 CA 32.86 C 34.99 O 33.29 CB 30.09 OG1 31.89 CG2 28.54
E LEU T 81 -84.9 -18.0 N 30.09 CA 30.26 C 32.69 O 35.88 CB 28.33 CG 31.96 CD1 29.03 CD2 32.02
E MET - 42 -67.0 139.5 N 28.71 CA 34.08 C 41.05 O 38.35 CB 35.86 CG 31.76 SD 35.91 CE 36.49
E GLU - 142 -105.4 159.9 N 41.06 CA 44.38 C 43.38 O 42.14 CB 46.64 CG 45.71 CD 48.02 OE1 52.67 OE2 50.83
E LYS T 209 -40.2 -44.6 N 50.67 CA 49.24 C 48.13 O 46.09 CB 52.94 CG 53.69 CD 52.74 CE 54.21 NZ 59.07
E ASP T 162 -97.7 6.1 N 45.07 CA 44.3 C 40.08 O 40.11 CB 37.26 CG 51.58 OD1 45.18 OD2 52.12
E ASP S 51 -75.0 137.3 N 42.03 CA 39.37 C 37.27 O 37.16 CB 37.47 CG 42.73 OD1 44.93 OD2 43.47
E SER - 45 -65.5 125.1 N 35.99 CA 34.22 C 37.44 O 32.87 CB 39.0 OG 41.96
E ALA - 46 -132.8 44.5 N 34.55 CA 34.2 C 28.78 O 33.53 CB 33.1
E GLN - 91 -71.9 139.8 N 33.15 CA 35.8 C 31.8 O 30.08 CB 36.51 CG 43.99 CD 53.79 OE1 54.21 NE2 49.81
E THR - 47 -81.7 129.4 N 30.23 CA 28.98 C 28.52 O 32.16 CB 30.3 OG1 31.29 CG2 28.94
E ARG E 13 -116.9 150.1 N 26.41 CA 27.55 C 28.18 O 27.73 CB 27.6 CG 29.71 CD 35.12 NE 36.82 CZ 43.06 NH1 40.88 NH2 39.61
E TYR E 20 -126.9 111.7 N 25.94 CA 27.66 C 31.74 O 27.89 CB 29.25 CG 24.87 CD1 29.15 CD2 29.78 CE1 37.07 CE2 29.28 CZ 36.94 OH 33.73
E ILE E 0 -130.8 163.8 N 24.97 CA 27.74 C 29.9 O 26.33 CB 28.68 CG1 28.95 CG2 29.64 CD1 33.83
E LYS E 44 -136.4 138.8 N 26.12 CA 28.81 C 26.86 O 30.63 CB 33.14 CG 37.48 CD 37.76 CE 42.78 NZ 49.47
E THR E 1 -162.2 174.8 N 25.86 CA 29.2 C 26.45 O 32.03 CB 31.59 OG1 31.11 CG2 30.78
E SER - 5 -72.6 149.6 N 31.97 CA 32.85 C 37.4 O 34.25 CB 33.73 OG 41.82
E GLY T 1 -63.6 -14.1 N 33.23 CA 36.21 C 36.77 O 33.25
E ASN T 49 -72.3 -28.1 N 34.22 CA 40.51 C 36.07 O 37.32 CB 41.74 CG 44.13 OD1 51.08 ND2 49.77
E ALA - 0 -56.7 142.0 N 33.27 CA 31.12 C 29.46 O 34.56 CB 33.18
E THR B 27 -98.1 169.4 N 27.51 CA 31.69 C 30.36 O 26.3 CB 31.26 OG1 29.9 CG2 35.07
E VAL H 2 -58.4 -36.7 N 26.81 CA 29.1 C 27.24 O 29.46 CB 28.31 CG1 27.37 CG2 27.74
E ASP H 49 -63.4 -38.0 N 25.56 CA 25.13 C 26.95 O 27.04 CB 33.47 CG 34.59 OD1 38.89 OD2 37.92
E HIS H 3 -57.8 -43.1 N 26.96 CA 24.26 C 27.33 O 24.6 CB 24.55 CG 28.7 ND1 29.61 CD2 27.19 CE1 30.69 NE2 27.18
E LEU H 0 -66.5 -39.7 N 28.42 CA 27.74 C 24.35 O 26.14 CB 24.78 CG 32.71 CD1 30.28 CD2 29.22
E SER H 1 -63.1 -42.3 N 23.97 CA 27.55 C 31.29 O 25.35 CB 30.77 OG 40.82
E LYS H 49 -65.9 -42.2 N 28.32 CA 26.21 C 27.33 O 29.27 CB 24.76 CG 30.25 CD 33.3 CE 38.14 NZ 35.7
E TYR H 0 -53.2 -51.8 N 27.24 CA 28.67 C 31.31 O 29.87 CB 28.01 CG 29.54 CD1 31.56 CD2 35.47 CE1 34.85 CE2 31.7 CZ 36.22 OH 35.63
E LEU H 5 -53.2 -38.4 N 26.23 CA 28.11 C 30.38 O 32.99 CB 29.62 CG 33.15 CD1 27.82 CD2 36.26
E ALA H 3 -71.3 -44.4 N 30.8 CA 32.7 C 34.84 O 39.54 CB 29.59
E VAL H 16 -64.3 -43.3 N 33.95 CA 38.22 C 42.25 O 45.83 CB 42.05 CG1 48.19 CG2 36.41
E ARG H 15 -67.3 -33.2 N 38.71 CA 43.39 C 45.91 O 51.76 CB 39.95 CG 45.97 CD 43.61 NE 51.67 CZ 55.28 NH1 59.36 NH2 56.55
E LEU H 31 -70.5 -41.5 N 38.33 CA 38.42 C 50.5 O 52.74 CB 39.65 CG 46.04 CD1 47.72 CD2 48.45
E ALA H 23 -52.6 -51.8 N 46.27 CA 49.48 C 52.7 O 55.86 CB 48.02
E LEU H 31 -56.2 -51.6 N 50.61 CA 52.55 C 59.71 O 61.05 CB 53.98 CG 54.29 CD1 55.14 CD2 58.46
E GLU H 76 -54.4 -24.2 N 57.95 CA 60.91 C 64.56 O 69.75 CB 59.9 CG 56.97 CD 53.0 OE1 52.94 OE2 55.0
E GLU H 147 -96.0 -13.9 N 59.71 CA 63.51 C 65.5 O 65.64 CB 64.2 CG 61.98 CD 64.11 OE1 61.51 OE2 65.51
E LEU - 123 -121.4 54.2 N 67.45 CA 66.34 C 67.65 O 69.93 CB 64.0 CG 64.75 CD1 55.25 CD2 59.66
E ARG - 205 -174.3 360.0 N 70.22 CA 69.86 C 74.97 O 74.68 CB 72.45 CG 79.65 CD 82.31 NE 92.66 CZ 91.8 NH1 87.04 NH2 86.49
E LEU - 102 360.0 28.9 N 60.74 CA 56.37 C 56.97 O 56.75 CB 52.62 CG 53.38 CD1 55.34 CD2 58.08
E ASP T 171 -66.3 -15.8 N 59.28 CA 61.11 C 61.6 O 61.87 CB 62.96 CG 67.23 OD1 65.11 OD2 61.38
E THR T 131 -99.5 30.5 N 59.57 CA 60.72 C 61.62 O 65.64 CB 62.58 OG1 63.86 CG2 62.39
E ALA - 10 -105.1 136.9 N 55.33 CA 47.48 C 49.57 O 45.43 CB 49.15
E SER - 28 -140.9 148.8 N 45.27 CA 44.29 C 38.94 O 37.05 CB 42.28 OG 43.68
E GLU G 42 -64.3 -12.6 N 41.97 CA 39.34 C 39.09 O 45.8 CB 40.09 CG 41.11 CD 44.39 OE1 47.78 OE2 49.93
E LYS G 159 -81.9 -7.7 N 36.88 CA 36.64 C 35.02 O 38.07 CB 43.17 CG 49.11 CD 54.06 CE 55.67 NZ 55.67
E GLN G 78 -81.4 -19.1 N 35.09 CA 31.74 C 31.97 O 31.07 CB 31.94 CG 37.03 CD 43.22 OE1 53.77 NE2 48.96
E TYR E 25 -132.1 143.5 N 27.82 CA 30.06 C 27.18 O 31.67 CB 31.13 CG 29.96 CD1 30.76 CD2 30.16 CE1 32.58 CE2 30.38 CZ 29.06 OH 36.15
E THR E 35 -102.7 136.8 N 26.05 CA 27.22 C 27.26 O 25.4 CB 32.3 OG1 34.11 CG2 29.37
E ILE E 4 -113.0 135.6 N 25.38 CA 22.1 C 23.47 O 25.71 CB 21.25 CG1 29.01 CG2 22.69 CD1 34.6
E TYR E 26 -125.9 157.0 N 23.07 CA 21.79 C 22.61 O 19.63 CB 22.23 CG 24.34 CD1 25.38 CD2 30.7 CE1 29.84 CE2 29.6 CZ 30.37 OH 32.13
E ILE E 0 -132.1 146.0 N 21.98 CA 19.79 C 23.57 O 25.65 CB 22.58 CG1 23.34 CG2 23.16 CD1 21.97
E ALA E 38 -77.6 146.7 N 22.4 CA 26.03 C 30.8 O 25.92 CB 27.59
E THR - 40 -112.3 169.3 N 32.44 CA 31.45 C 30.19 O 32.43 CB 28.77 OG1 27.88 CG2 32.38
E ALA T 39 -68.4 -21.1 N 31.67 CA 32.68 C 33.28 O 35.73 CB 33.39
E SER T 90 -83.1 -3.7 N 31.19 CA 34.69 C 32.95 O 36.44 CB 37.33 OG 45.45
E GLY S 57 87.9 12.0 N 30.22 CA 33.85 C 32.81 O 30.3
E GLN - 106 -87.8 156.7 N 30.72 CA 34.3 C 33.77 O 31.7 CB 38.21 CG 39.96 CD 43.57 OE1 44.98 NE2 53.67
E PHE E 76 -108.2 103.0 N 30.79 CA 25.4 C 29.95 O 34.09 CB 26.92 CG 29.54 CD1 37.01 CD2 35.98 CE1 39.63 CE2 32.33 CZ 33.25
E THR E 44 -90.6 131.1 N 28.99 CA 30.51 C 26.8 O 25.39 CB 37.67 OG1 39.48 CG2 32.36
E VAL E 91 -68.3 129.2 N 25.51 CA 27.5 C 30.31 O 30.67 CB 29.62 CG1 29.09 CG2 32.04
E LEU - 7 -91.8 132.9 N 24.81 CA 26.57 C 29.41 O 28.36 CB 26.35 CG 24.26 CD1 25.61 CD2 26.97
E ASP - 84 -57.0 130.7 N 26.71 CA 31.5 C 28.16 O 24.85 CB 35.54 CG 43.64 OD1 41.79 OD2 52.64
E GLY T 14 -55.2 -26.2 N 29.46 CA 29.38 C 25.62 O 23.4
E SER T 77 -83.9 -14.2 N 29.04 CA 34.23 C 32.1 O 33.86 CB 37.39 OG 41.93
E PHE - 46 -63.8 134.6 N 31.06 CA 32.31 C 30.16 O 31.69 CB 29.02 CG 35.09 CD1 36.14 CD2 36.08 CE1 38.26 CE2 36.69 CZ 41.36
E SER B 31 -73.4 156.2 N 30.55 CA 32.27 C 27.69 O 29.84 CB 31.25 OG 33.7
E LEU H 0 -64.0 -32.0 N 26.0 CA 31.11 C 28.54 O 30.11 CB 29.34 CG 30.85 CD1 30.21 CD2 32.76
E GLU H 78 -60.8 -47.7 N 36.71 CA 32.59 C 33.36 O 34.47 CB 35.07 CG 43.89 CD 55.78 OE1 60.81 OE2 60.54
E LEU H 54 -61.2 -44.2 N 30.54 CA 32.4 C 31.76 O 31.12 CB 33.94 CG 36.69 CD1 36.41 CD2 35.52
E VAL H 0 -58.7 -44.8 N 29.55 CA 28.05 C 28.41 O 30.22 CB 23.38 CG1 27.93 CG2 27.72
E SER I 36 -56.9 -46.6 N 30.65 CA 30.06 C 32.12 O 29.37 CB 36.78 OG 45.73
E GLU I 109 -76.2 -45.8 N 35.19 CA 34.64 C 37.94 O 43.23 CB 40.45 CG 44.6 CD 54.03 OE1 51.83 OE2 49.44
E LYS I 136 -86.5 -21.6 N 31.96 CA 33.14 C 32.74 O 32.33 CB 28.51 CG 43.34 CD 49.61 CE 57.02 NZ 51.38
E TYR I 83 -122.6 -36.8 N 31.32 CA 26.73 C 25.51 O 29.91 CB 29.93 CG 25.81 CD1 34.17 CD2 32.98 CE1 38.34 CE2 30.42 CZ 39.87 OH 49.9
E TRP I 33 -85.0 -61.9 N 28.12 CA 23.22 C 26.2 O 30.15 CB 26.01 CG 19.08 CD1 21.38 CD2 23.13 NE1 22.17 CE2 24.13 CE3 25.53 CZ2 23.5 CZ3 29.42 CH2 26.82
E LYS - 35 69.3 21.0 N 26.6 CA 24.28 C 20.47 O 23.84 CB 23.28 CG 31.18 CD 32.22 CE 35.38 NZ 37.95
E VAL B 20 -128.3 140.4 N 20.56 CA 20.0 C 21.57 O 22.14 CB 23.01 CG1 23.39 CG2 25.53
E ASN S 17 -84.3 60.1 N 23.61 CA 28.23 C 28.19 O 27.69 CB 31.37 CG 41.36 OD1 33.24 ND2 44.31
E LYS S 72 -145.3 166.2 N 26.37 CA 25.61 C 23.31 O 24.05 CB 29.66 CG 27.7 CD 40.27 CE 42.53 NZ 43.7
E PRO - 20 -55.6 138.3 N 25.66 CA 27.78 C 28.21 O 26.23 CB 27.81 CG 30.81 CD 30.82
E MET E 2 -63.0 144.3 N 23.0 CA 22.35 C 29.19 O 27.19 CB 26.75 CG 39.27 SD 39.78 CE 27.72
E GLU E 58 -112.5 112.3 N 23.37 CA 26.88 C 23.91 O 23.74 CB 25.14 CG 24.67 CD 39.68 OE1 38.78 OE2 42.23
E LEU E 0 -116.2 157.9 N 21.73 CA 19.39 C 20.18 O 22.09 CB 21.98 CG 24.12 CD1 25.11 CD2 21.65
E TYR E 34 -122.5 154.8 N 22.69 CA 23.46 C 22.2 O 23.13 CB 22.28 CG 25.4 CD1 23.23 CD2 24.4 CE1 26.22 CE2 24.94 CZ 28.45 OH 26.71
E TYR E 5 -135.8 152.2 N 21.95 CA 21.35 C 23.55 O 24.04 CB 25.03 CG 21.84 CD1 24.13 CD2 21.95 CE1 25.18 CE2 23.75 CZ 29.59 OH 30.66
E ALA E 2 -144.3 140.0 N 23.49 CA 26.5 C 28.0 O 27.47 CB 25.31
E PRO E 44 -59.9 138.6 N 30.57 CA 34.62 C 33.75 O 35.07 CB 38.27 CG 35.7 CD 31.12
E THR - 121 -82.5 360.0 N 31.48 CA 43.55 C 41.83 O 44.91 CB 35.16 OG1 41.6 CG2 45.4
F ARG - 118 360.0 174.5 N 56.13 CA 54.53 C 55.3 O 56.25 CB 50.48 CG 51.93 CD 47.72 NE 55.0 CZ 52.63 NH1 48.59 NH2 56.08
F PRO - 36 -90.6 111.5 N 50.34 CA 45.41 C 44.99 O 44.04 CB 36.21 CG 39.16 CD 45.63
F ARG - 144 -105.6 149.0 N 39.38 CA 38.79 C 35.5 O 33.11 CB 44.85 CG 49.59 CD 55.53 NE 56.46 CZ 50.7 NH1 57.7 NH2 44.98
F LEU - 13 -61.3 130.4 N 34.57 CA 36.37 C 42.13 O 42.43 CB 33.74 CG 30.85 CD1 31.16 CD2 31.57
F LYS S 173 -92.4 -25.1 N 43.59 CA 48.06 C 48.37 O 46.88 CB 52.99 CG 60.18 CD 59.59 CE 58.91 NZ 55.93
F ASN S 62 -105.8 34.5 N 46.8 CA 49.93 C 46.12 O 48.36 CB 45.48 CG 52.62 OD1 43.26 ND2 57.81
F VAL B 16 -127.4 149.3 N 46.37 CA 48.88 C 51.07 O 49.57 CB 41.6 CG1 39.86 CG2 39.28
F ASP - 67 -86.0 102.5 N 50.36 CA 51.88 C 48.58 O 48.52 CB 54.74 CG 54.34 OD1 52.38 OD2 59.05
F ARG G 74 -61.1 -19.9 N 50.69 CA 45.33 C 52.59 O 49.19 CB 49.78 CG 49.19 CD 49.09 NE 50.27 CZ 42.63 NH1 40.65 NH2 43.51
F SER G 100 -78.4 -28.1 N 53.49 CA 55.38 C 51.55 O 51.73 CB 50.81 OG 49.35
F THR G 42 -72.7 2.3 N 51.79 CA 51.94 C 48.47 O 50.19 CB 52.47 OG1 46.24 CG2 49.6
F ALA - 34 -49.7 116.4 N 46.4 CA 43.4 C 46.81 O 46.86 CB 43.34
F GLN E 58 -108.8 135.7 N 44.42 CA 44.77 C 46.5 O 37.03 CB 49.49 CG 52.55 CD 65.13 OE1 69.27 NE2 70.49
F GLN E 50 -106.6 145.7 N 40.27 CA 44.46 C 45.0 O 44.82 CB 45.74 CG 47.86 CD 54.61 OE1 64.62 NE2 62.18
F LEU E 13 -146.6 134.5 N 40.0 CA 38.23 C 39.98 O 35.55 CB 40.01 CG 46.61 CD1 42.46 CD2 45.49
F ALA E 31 -89.0 134.3 N 34.67 CA 32.87 C 34.62 O 38.93 CB 39.1
F VAL E 2 -128.9 125.8 N 30.25 CA 30.17 C 30.42 O 28.84 CB 27.74 CG1 28.27 CG2 32.35
F THR E 37 -114.0 132.8 N 28.73 CA 28.66 C 29.3 O 33.31 CB 31.55 OG1 31.13 CG2 32.29
F VAL E 23 -130.0 125.9 N 29.65 CA 32.73 C 32.45 O 30.6 CB 34.82 CG1 34.81 CG2 28.62
F GLY T 72 56.9 -127.5 N 34.18 CA 28.19 C 27.7 O 28.95
F ASN T 59 -105.3 19.5 N 29.42 CA 28.73 C 31.61 O 27.19 CB 29.45 CG 33.63 OD1 37.06 ND2 32.68
F VAL E 33 -113.4 122.6 N 27.82 CA 27.93 C 29.01 O 27.82 CB 28.81 CG1 26.61 CG2 27.78
F THR E 0 -112.5 132.5 N 27.84 CA 27.63 C 28.99 O 26.14 CB 26.56 OG1 28.91 CG2 24.47
F VAL E 0 -124.3 159.4 N 28.66 CA 22.32 C 26.06 O 28.11 CB 29.67 CG1 24.4 CG2 27.48
F ILE E 29 -104.8 121.8 N 28.73 CA 27.42 C 28.13 O 30.86 CB 36.15 CG1 30.98 CG2 38.87 CD1 38.02
F ILE E 0 -105.8 121.1 N 31.94 CA 30.3 C 34.32 O 35.6 CB 29.1 CG1 31.26 CG2 28.74 CD1 38.61
F THR E 8 -97.0 132.2 N 32.34 CA 32.22 C 35.11 O 29.74 CB 32.3 OG1 35.94 CG2 34.84
F ASP E 13 -125.3 164.9 N 32.29 CA 33.48 C 37.13 O 36.41 CB 35.64 CG 38.34 OD1 43.71 OD2 38.29
F PHE E 15 -133.0 155.7 N 32.61 CA 36.2 C 35.22 O 31.87 CB 35.88 CG 38.63 CD1 41.05 CD2 36.42 CE1 42.32 CE2 32.62 CZ 36.45
F LYS - 150 -87.3 150.0 N 40.92 CA 42.74 C 42.26 O 41.59 CB 46.59 CG 53.9 CD 60.91 CE 61.98 NZ 65.88
F GLU B 120 -81.3 128.7 N 44.98 CA 50.7 C 50.52 O 52.15 CB 47.91 CG 50.01 CD 54.43 OE1 59.27 OE2 59.63
F LYS - 197 142.2 360.0 N 51.95 CA 56.42 C 53.38 O 58.67 CB 59.65 CG 50.34 CD 56.05 CE 55.28 NZ 49.79
G SER - 82 360.0 155.7 N 49.88 CA 50.97 C 50.21 O 45.59 CB 56.63 OG 56.6
G GLU E 106 -107.8 133.2 N 47.1 CA 45.75 C 44.07 O 46.36 CB 45.9 CG 52.26 CD 50.87 OE1 51.67 OE2 55.99
G ILE E 7 -122.6 134.0 N 34.23 CA 31.23 C 28.78 O 30.84 CB 36.55 CG1 47.26 CG2 33.4 CD1 47.49
G GLU E 9 -111.8 142.8 N 28.63 CA 27.84 C 28.79 O 27.45 CB 27.67 CG 31.77 CD 36.27 OE1 34.25 OE2 35.78
G LEU E 0 -149.6 162.1 N 23.88 CA 25.13 C 23.6 O 25.17 CB 30.57 CG 26.04 CD1 30.49 CD2 28.5
G VAL E 11 -108.3 129.0 N 25.53 CA 24.92 C 25.69 O 26.8 CB 31.72 CG1 30.21 CG2 29.56
G PHE E 0 -113.4 110.3 N 24.9 CA 26.07 C 27.54 O 30.36 CB 30.07 CG 27.85 CD1 30.15 CD2 39.59 CE1 28.99 CE2 32.93 CZ 35.06
G ARG E 76 -115.1 151.7 N 27.37 CA 23.3 C 25.57 O 27.76 CB 25.47 CG 33.23 CD 32.78 NE 38.5 CZ 48.04 NH1 41.72 NH2 45.2
G PRO E 28 -63.2 137.0 N 29.46 CA 28.3 C 26.72 O 28.87 CB 30.35 CG 37.39 CD 31.25
G HIS - 4 -52.4 131.5 N 27.48 CA 31.85 C 29.27 O 31.83 CB 30.21 CG 32.76 ND1 32.82 CD2 33.47 CE1 32.5 NE2 34.84
G PRO T 53 -57.6 -29.3 N 31.53 CA 38.99 C 40.52 O 40.74 CB 37.14 CG 42.87 CD 27.91
G THR T 45 -122.9 -19.5 N 39.73 CA 39.1 C 43.18 O 46.52 CB 39.89 OG1 39.2 CG2 40.17
G LEU T 56 -80.8 -31.8 N 36.96 CA 42.5 C 50.39 O 54.99 CB 37.79 CG 37.02 CD1 33.96 CD2 41.46
G MET - 85 -87.0 360.0 N 51.53 CA 52.41 C 64.56 O 71.56 CB 54.07 CG 35.62 SD 52.08 CE 46.92
G SER - 76 360.0 124.6 N 57.53 CA 56.52 C 52.39 O 53.93 CB 52.38 OG 53.61
G ALA - 58 -135.2 61.0 N 45.68 CA 43.44 C 41.62 O 44.79 CB 43.27
G GLN - 107 -85.7 146.1 N 38.22 CA 37.1 C 34.16 O 33.39 CB 42.1 CG 47.84 CD 51.29 OE1 52.26 NE2 54.03
G THR - 50 -89.1 128.0 N 29.03 CA 30.66 C 28.15 O 29.98 CB 29.78 OG1 34.11 CG2 29.14
G ARG E 23 -118.3 148.4 N 24.31 CA 24.92 C 25.66 O 27.03 CB 29.19 CG 32.29 CD 34.17 NE 42.9 CZ 42.52 NH1 38.72 NH2 38.73
G TYR E 26 -117.3 118.6 N 23.06 CA 22.12 C 24.05 O 25.42 CB 26.47 CG 27.85 CD1 30.91 CD2 29.54 CE1 28.08 CE2 30.68 CZ 32.18 OH 38.92
G ILE E 0 -121.2 142.9 N 22.21 CA 26.63 C 27.45 O 25.7 CB 26.06 CG1 39.05 CG2 36.36 CD1 32.04
G LYS E 57 -129.0 134.3 N 25.27 CA 25.74 C 27.3 O 24.78 CB 31.18 CG 34.31 CD 36.43 CE 44.89 NZ 44.84
G THR E 2 -158.6 179.2 N 23.88 CA 22.42 C 29.28 O 32.94 CB 26.66 OG1 28.24 CG2 28.21
G SER E 25 -79.8 150.6 N 28.77 CA 26.31 C 25.33 O 25.19 CB 31.97 OG 36.97
G GLY T 1 -59.5 -21.2 N 28.28 CA 27.5 C 27.46 O 27.55
G ASN T 93 -85.0 -7.8 N 25.07 CA 24.97 C 26.69 O 24.78 CB 28.83 CG 35.74 OD1 37.87 ND2 35.06
G ALA - 0 -58.3 141.0 N 24.56 CA 23.75 C 24.88 O 26.43 CB 23.57
G THR B 3 -101.4 166.9 N 22.14 CA 23.52 C 25.95 O 24.73 CB 26.12 OG1 22.92 CG2 25.11
G VAL H 3 -52.7 -40.5 N 22.6 CA 24.17 C 26.69 O 26.06 CB 26.97 CG1 25.69 CG2 26.02
G ASP H 42 -62.9 -38.2 N 24.6 CA 31.04 C 23.37 O 26.62 CB 25.81 CG 32.91 OD1 41.03 OD2 38.29
G HIS H 0 -56.9 -43.5 N 22.64 CA 26.01 C 26.33 O 23.69 CB 24.85 CG 26.66 ND1 27.44 CD2 33.63 CE1 35.17 NE2 33.71
G LEU H 0 -66.1 -40.8 N 24.43 CA 24.7 C 25.1 O 23.36 CB 23.46 CG 26.18 CD1 28.81 CD2 27.94
G SER H 1 -62.4 -41.7 N 26.55 CA 28.08 C 30.57 O 27.21 CB 31.28 OG 28.15
G LYS H 37 -69.4 -39.5 N 26.15 CA 28.98 C 28.81 O 32.4 CB 31.82 CG 36.61 CD 38.08 CE 45.83 NZ 43.29
G TYR H 0 -55.1 -46.1 N 25.03 CA 25.94 C 24.61 O 25.35 CB 25.12 CG 26.47 CD1 28.4 CD2 25.32 CE1 28.62 CE2 28.96 CZ 29.81 OH 32.28
G LEU H 4 -60.5 -43.4 N 23.0 CA 24.55 C 28.21 O 31.83 CB 30.21 CG 29.78 CD1 27.26 CD2 30.46
G ALA H 4 -64.8 -43.9 N 27.99 CA 31.79 C 33.66 O 29.02 CB 34.31
G VAL H 5 -72.5 -45.6 N 25.9 CA 27.97 C 31.55 O 27.77 CB 31.49 CG1 28.02 CG2 33.17
G ARG H 10 -58.1 -42.4 N 29.13 CA 32.01 C 37.83 O 34.96 CB 31.92 CG 37.6 CD 40.53 NE 43.17 CZ 49.69 NH1 50.09 NH2 41.61
G LEU H 25 -65.1 -42.1 N 32.68 CA 38.89 C 41.95 O 45.6 CB 38.04 CG 43.71 CD1 45.17 CD2 44.84
G ALA H 11 -61.9 -40.5 N 35.3 CA 39.0 C 44.62 O 43.26 CB 41.22
G LEU H 9 -65.6 -45.1 N 37.19 CA 42.96 C 47.92 O 51.46 CB 40.25 CG 38.62 CD1 38.11 CD2 43.73
G GLU H 60 -57.2 -38.5 N 43.58 CA 47.98 C 51.28 O 52.86 CB 43.27 CG 47.08 CD 48.87 OE1 54.78 OE2 47.29
G GLU H 120 -68.5 -40.3 N 48.68 CA 47.93 C 51.48 O 58.86 CB 50.79 CG 48.39 CD 49.55 OE1 50.03 OE2 52.45
G LEU H 117 -65.6 -21.6 N 54.61 CA 57.05 C 59.58 O 64.06 CB 57.24 CG 55.88 CD1 56.25 CD2 55.0
G ARG T 140 -80.5 -6.3 N 58.3 CA 63.58 C 66.19 O 66.22 CB 60.66 CG 63.71 CD 63.02 NE 61.09 CZ 63.6 NH1 67.87 NH2 61.98
G SER - 139 -100.3 360.0 N 64.71 CA 64.75 C 68.44 O 74.57 CB 64.76 OG 66.15
G ASN - 134 360.0 178.4 N 68.09 CA 64.78 C 65.18 O 59.01 CB 63.68 CG 68.61 OD1 71.76 ND2 67.06
G LEU T 8 -60.3 -39.9 N 59.87 CA 62.51 C 59.84 O 58.6 CB 56.83 CG 52.61 CD1 48.77 CD2 49.46
G ASP T 76 -61.1 -14.7 N 59.72 CA 62.43 C 63.53 O 67.05 CB 61.9 CG 63.05 OD1 63.29 OD2 63.01
G THR T 84 -105.0 -29.1 N 63.15 CA 62.83 C 59.16 O 57.88 CB 61.67 OG1 66.05 CG2 65.49
G ALA - 7 -44.3 116.0 N 61.77 CA 55.97 C 55.96 O 57.22 CB 49.47
G SER - 28 -146.8 161.5 N 53.01 CA 50.74 C 47.58 O 43.97 CB 55.66 OG 50.17
G GLU G 41 -64.0 -11.7 N 46.43 CA 37.86 C 43.22 O 42.67 CB 42.87 CG 46.69 CD 53.96 OE1 53.31 OE2 58.26
G LYS G 150 -86.2 -2.2 N 45.96 CA 48.99 C 43.27 O 47.87 CB 54.07 CG 56.68 CD 58.45 CE 65.62 NZ 69.26
G GLN G 53 -91.1 -10.6 N 43.1 CA 42.46 C 33.91 O 38.51 CB 46.84 CG 51.84 CD 58.25 OE1 61.65 NE2 61.99
G TYR E 26 -136.4 135.6 N 34.67 CA 32.67 C 30.85 O 33.24 CB 31.02 CG 30.45 CD1 30.71 CD2 32.12 CE1 29.96 CE2 31.85 CZ 35.4 OH 38.96
G THR E 40 -95.7 137.4 N 27.1 CA 28.51 C 27.45 O 25.2 CB 35.45 OG1 42.76 CG2 30.16
G ILE E 2 -110.2 136.3 N 28.31 CA 25.5 C 27.97 O 26.05 CB 25.89 CG1 30.32 CG2 26.42 CD1 31.85
G TYR E 18 -127.5 159.9 N 27.55 CA 25.91 C 26.25 O 26.41 CB 29.0 CG 31.68 CD1 28.84 CD2 36.34 CE1 32.29 CE2 34.31 CZ 35.27 OH 37.84
G ILE E 0 -135.0 145.2 N 26.14 CA 22.57 C 28.6 O 30.19 CB 30.53 CG1 28.29 CG2 28.41 CD1 32.19
G ALA E 17 -82.4 128.8 N 32.68 CA 38.22 C 39.38 O 38.97 CB 39.75
G THR - 51 -84.7 153.8 N 43.44 CA 46.55 C 51.22 O 47.51 CB 48.35 OG1 49.56 CG2 58.76
G ALA T 99 -56.7 -22.2 N 57.73 CA 56.29 C 55.8 O 58.34 CB 54.81
G SER T 62 -69.0 -19.5 N 53.6 CA 56.33 C 56.52 O 59.23 CB 55.55 OG 62.72
G GLY S 1 95.3 15.6 N 53.57 CA 49.13 C 48.28 O 42.46
G GLN - 76 -101.4 161.4 N 41.99 CA 39.33 C 38.37 O 37.13 CB 48.41 CG 49.24 CD 50.58 OE1 54.07 NE2 51.24
G PHE E 1 -111.4 111.3 N 37.28 CA 41.86 C 39.33 O 42.22 CB 38.1 CG 44.02 CD1 43.37 CD2 45.61 CE1 39.69 CE2 48.34 CZ 47.47
G THR E 40 -89.8 126.4 N 31.92 CA 30.34 C 31.58 O 31.84 CB 37.31 OG1 45.17 CG2 37.51
G VAL E 89 -70.9 127.7 N 30.14 CA 32.74 C 33.05 O 36.28 CB 34.37 CG1 37.77 CG2 35.51
G LEU - 9 -92.8 128.8 N 28.5 CA 31.02 C 31.8 O 30.07 CB 27.24 CG 28.1 CD1 28.56 CD2 29.7
G ASP - 71 -55.3 126.9 N 28.19 CA 33.03 C 29.91 O 25.97 CB 34.63 CG 37.11 OD1 33.08 OD2 43.13
G GLY T 14 -57.6 -27.1 N 30.3 CA 27.84 C 25.78 O 24.6
G SER T 5 -84.5 -9.5 N 25.95 CA 24.3 C 23.98 O 23.76 CB 26.77 OG 36.58
G PHE B 32 -70.2 134.0 N 24.46 CA 24.69 C 22.78 O 25.18 CB 23.85 CG 28.85 CD1 29.22 CD2 35.32 CE1 34.57 CE2 32.5 CZ 37.27
G SER B 7 -69.8 154.7 N 20.59 CA 21.8 C 24.18 O 24.19 CB 24.52 OG 26.38
G LEU H 0 -67.0 -30.8 N 22.92 CA 24.01 C 25.99 O 28.21 CB 25.32 CG 29.16 CD1 28.04 CD2 26.33
G GLU H 37 -61.3 -43.8 N 25.42 CA 31.31 C 28.81 O 31.33 CB 36.22 CG 41.2 CD 50.38 OE1 54.94 OE2 53.48
G LEU H 18 -64.9 -44.7 N 25.38 CA 29.01 C 28.2 O 32.48 CB 27.3 CG 29.89 CD1 32.23 CD2 32.17
G VAL H 0 -57.2 -41.8 N 26.09 CA 26.74 C 27.74 O 33.09 CB 26.74 CG1 28.02 CG2 26.22
G SER H 26 -63.7 -45.5 N 25.11 CA 33.33 C 36.32 O 36.83 CB 36.97 OG 38.73
G GLU H 86 -69.4 -35.8 N 30.68 CA 36.28 C 33.95 O 36.09 CB 34.82 CG 40.83 CD 43.51 OE1 45.04 OE2 50.18
G LYS H 77 -79.2 -50.7 N 32.81 CA 36.72 C 39.57 O 37.33 CB 38.01 CG 42.04 CD 36.82 CE 45.03 NZ 38.84
G TYR H 74 -113.9 -17.5 N 34.96 CA 33.47 C 34.2 O 36.74 CB 32.65 CG 34.51 CD1 39.28 CD2 39.03 CE1 36.84 CE2 38.45 CZ 39.26 OH 38.44
G TRP - 26 -129.8 77.9 N 36.38 CA 38.51 C 40.67 O 49.74 CB 30.98 CG 31.94 CD1 33.84 CD2 29.56 NE1 32.18 CE2 27.91 CE3 30.93 CZ2 30.64 CZ3 26.72 CH2 30.99
G LYS - 177 -93.4 55.8 N 49.66 CA 52.49 C 54.75 O 55.59 CB 60.72 CG 58.53 CD 60.5 CE 57.32 NZ 62.76
G VAL S 77 -127.3 140.7 N 47.99 CA 46.86 C 44.63 O 44.03 CB 44.43 CG1 44.25 CG2 48.67
G ASN S 142 -81.3 39.8 N 42.67 CA 36.11 C 43.11 O 40.9 CB 42.99 CG 45.89 OD1 41.01 ND2 48.97
G LYS S 94 -138.4 164.7 N 36.89 CA 38.29 C 34.03 O 33.45 CB 43.12 CG 42.39 CD 46.71 CE 44.07 NZ 51.32
G PRO - 24 -49.5 137.9 N 36.73 CA 35.16 C 29.8 O 28.41 CB 31.67 CG 34.42 CD 31.86
G MET E 5 -59.4 142.3 N 25.41 CA 27.04 C 29.54 O 28.96 CB 27.49 CG 37.06 SD 35.04 CE 33.72
G GLU E 38 -112.1 117.4 N 23.46 CA 22.72 C 24.37 O 27.4 CB 28.08 CG 29.14 CD 40.8 OE1 46.41 OE2 46.34
G LEU E 0 -118.6 157.1 N 21.72 CA 21.92 C 20.41 O 24.6 CB 22.29 CG 25.31 CD1 25.92 CD2 24.32
G TYR E 13 -122.8 156.3 N 24.32 CA 25.15 C 26.71 O 25.63 CB 30.06 CG 26.09 CD1 37.89 CD2 29.59 CE1 31.68 CE2 35.09 CZ 35.75 OH 39.35
G TYR E 4 -139.5 158.0 N 24.99 CA 25.76 C 28.37 O 27.54 CB 24.4 CG 24.34 CD1 27.56 CD2 26.8 CE1 29.29 CE2 32.64 CZ 31.56 OH 38.0
G ALA E 2 -150.3 146.2 N 25.9 CA 32.9 C 31.68 O 33.49 CB 35.61
G PRO E 45 -69.0 142.6 N 34.29 CA 37.87 C 41.13 O 43.56 CB 40.55 CG 37.78 CD 37.83
G THR - 73 -72.0 -19.8 N 40.58 CA 48.08 C 46.45 O 50.98 CB 44.39 OG1 46.18 CG2 44.14
G LYS - 241 -117.1 360.0 N 51.41 CA 55.03 C 60.7 O 62.21 CB 58.97 CG 64.64 CD 65.47 CE 65.62 NZ 69.04 OXT 62.45
H THR - 178 360.0 160.8 N 49.79 CA 56.71 C 56.69 O 54.35 CB 61.78 OG1 62.32 CG2 55.59
H ARG - 71 -58.5 128.5 N 53.74 CA 50.48 C 44.25 O 49.66 CB 48.59 CG 55.64 CD 55.46 NE 56.73 CZ 59.54 NH1 60.74 NH2 63.63
H PRO - 37 -65.2 133.8 N 44.13 CA 42.33 C 43.73 O 45.25 CB 41.89 CG 44.88 CD 43.72
H ARG - 144 -97.6 154.5 N 35.52 CA 37.41 C 37.9 O 34.29 CB 39.83 CG 44.23 CD 46.11 NE 51.73 CZ 42.65 NH1 49.34 NH2 50.75
H LEU - 7 -64.3 134.3 N 33.25 CA 32.92 C 33.0 O 34.22 CB 33.28 CG 30.19 CD1 31.21 CD2 34.5
H LYS S 204 -111.1 2.4 N 33.97 CA 35.78 C 39.61 O 43.2 CB 38.91 CG 41.65 CD 47.64 CE 56.97 NZ 62.91
H ASN S 56 -114.1 12.9 N 36.9 CA 33.57 C 35.35 O 34.06 CB 40.17 CG 45.38 OD1 37.7 ND2 45.35
H VAL E 16 -106.9 149.5 N 33.1 CA 32.96 C 32.67 O 32.22 CB 35.13 CG1 31.71 CG2 39.95
H ASP E 41 -88.6 100.4 N 29.96 CA 30.44 C 33.25 O 31.52 CB 33.26 CG 35.46 OD1 32.14 OD2 40.35
H ARG E 75 -59.0 -28.3 N 32.53 CA 32.4 C 36.87 O 30.92 CB 35.13 CG 37.47 CD 36.37 NE 39.85 CZ 36.14 NH1 34.84 NH2 37.61
H SER E 104 -70.7 -11.4 N 34.14 CA 33.04 C 34.95 O 33.44 CB 33.69 OG 40.33
H THR E 24 -94.5 6.1 N 28.48 CA 34.63 C 30.62 O 31.1 CB 33.01 OG1 29.88 CG2 35.2
H ALA E 19 -50.9 130.0 N 27.34 CA 26.17 C 33.06 O 30.35 CB 26.21
H GLN E 70 -127.2 129.4 N 25.95 CA 25.07 C 25.59 O 24.12 CB 31.37 CG 30.77 CD 35.92 OE1 28.86 NE2 33.73
H GLN E 67 -103.2 137.3 N 25.96 CA 26.89 C 30.26 O 25.52 CB 28.69 CG 32.28 CD 43.05 OE1 38.25 NE2 47.67
H LEU E 1 -128.5 131.3 N 25.86 CA 26.47 C 28.64 O 28.87 CB 29.56 CG 30.64 CD1 30.78 CD2 29.66
H ALA E 7 -86.4 122.5 N 25.77 CA 28.26 C 30.84 O 32.84 CB 31.98
H VAL E 4 -121.0 124.0 N 31.39 CA 32.0 C 33.34 O 30.35 CB 30.5 CG1 30.67 CG2 31.06
H THR E 14 -114.7 127.0 N 36.72 CA 37.21 C 30.27 O 38.31 CB 39.58 OG1 43.43 CG2 42.12
H VAL E 10 -132.4 130.9 N 39.27 CA 42.01 C 45.65 O 44.36 CB 42.37 CG1 39.87 CG2 36.46
H GLY T 73 56.6 -117.9 N 51.28 CA 56.37 C 55.49 O 50.83
H ASN T 94 -121.8 32.3 N 47.71 CA 52.63 C 56.63 O 53.17 CB 61.62 CG 64.92 OD1 62.23 ND2 66.09
H VAL E 28 -117.7 126.2 N 50.47 CA 46.67 C 35.48 O 35.87 CB 44.13 CG1 38.45 CG2 51.08
H THR E 14 -117.7 127.0 N 41.9 CA 35.55 C 34.48 O 36.57 CB 44.56 OG1 39.8 CG2 41.35
H VAL E 6 -125.6 163.0 N 35.04 CA 29.27 C 29.33 O 27.93 CB 30.73 CG1 32.9 CG2 29.63
H ILE E 43 -99.0 122.9 N 29.77 CA 32.04 C 27.53 O 31.74 CB 31.55 CG1 33.38 CG2 33.13 CD1 34.55
H ILE E 0 -110.3 118.5 N 23.26 CA 23.92 C 25.47 O 24.99 CB 20.27 CG1 28.35 CG2 24.87 CD1 33.89
H THR E 8 -103.0 132.3 N 26.75 CA 26.88 C 27.27 O 25.43 CB 27.48 OG1 29.43 CG2 25.17
H ASP E 18 -120.3 159.6 N 23.8 CA 25.78 C 27.1 O 27.22 CB 26.16 CG 34.25 OD1 36.96 OD2 34.75
H PHE E 15 -134.0 159.1 N 24.65 CA 28.69 C 30.66 O 28.54 CB 24.82 CG 26.37 CD1 26.24 CD2 31.02 CE1 28.14 CE2 30.2 CZ 33.93
H LYS E 146 -86.5 147.9 N 26.35 CA 27.46 C 29.89 O 29.58 CB 28.52 CG 35.22 CD 43.01 CE 49.07 NZ 50.65
H GLU E 105 -63.9 140.8 N 28.82 CA 28.18 C 31.96 O 33.5 CB 33.88 CG 35.16 CD 45.59 OE1 43.24 OE2 51.48
H LYS - 116 -75.4 126.0 N 32.56 CA 33.46 C 35.98 O 38.96 CB 34.85 CG 39.95 CD 37.85 CE 45.12 NZ 48.78
H THR - 106 -101.1 145.8 N 40.37 CA 47.29 C 43.95 O 40.4 CB 46.22 OG1 49.66 CG2 49.84
H ARG - 242 -63.9 134.1 N 45.65 CA 43.6 C 48.95 O 48.83 CB 43.28 CG 48.23 CD 36.74 NE 35.04 CZ 31.07 NH1 34.38 NH2 33.0
H SER - 162 -65.0 360.0 N 50.42 CA 58.1 C 58.07 O 57.96 CB 59.13 OG 57.04
I SER - 104 360.0 132.6 N 57.99 CA 57.99 C 54.76 O 55.31 CB 62.27 OG 62.06
I GLU E 140 -104.5 134.3 N 52.88 CA 54.73 C 52.7 O 54.08 CB 55.59 CG 61.68 CD 70.17 OE1 71.39 OE2 74.54
I ILE E 18 -121.3 138.1 N 39.54 CA 40.89 C 40.54 O 42.44 CB 42.66 CG1 41.36 CG2 42.02 CD1 46.22
I GLU E 15 -109.4 142.6 N 39.18 CA 39.53 C 41.43 O 43.37 CB 41.16 CG 50.03 CD 55.0 OE1 51.53 OE2 57.77
I LEU E 0 -149.7 154.3 N 33.04 CA 34.07 C 33.81 O 33.82 CB 40.18 CG 33.54 CD1 36.04 CD2 43.37
I VAL E 13 -102.0 123.9 N 30.49 CA 30.65 C 32.36 O 29.74 CB 36.24 CG1 39.79 CG2 38.2
I PHE E 0 -116.2 101.5 N 30.4 CA 30.52 C 33.89 O 31.31 CB 33.84 CG 29.97 CD1 29.75 CD2 29.74 CE1 30.39 CE2 29.87 CZ 34.32
I ARG E 79 -105.2 151.8 N 30.16 CA 33.02 C 29.11 O 29.51 CB 31.39 CG 32.08 CD 40.43 NE 40.53 CZ 46.26 NH1 46.49 NH2 49.45
I PRO E 29 -67.1 138.7 N 30.43 CA 31.96 C 32.9 O 33.53 CB 35.1 CG 39.27 CD 35.22
I HIS - 0 -49.4 127.3 N 31.1 CA 33.82 C 40.75 O 37.28 CB 35.5 CG 42.07 ND1 39.29 CD2 36.71 CE1 38.26 NE2 38.19
I PRO T 47 -59.3 -20.6 N 39.71 CA 40.9 C 43.11 O 47.26 CB 37.87 CG 41.55 CD 40.12
I THR T 41 -122.5 -29.9 N 44.53 CA 47.8 C 51.29 O 53.25 CB 49.31 OG1 45.97 CG2 48.76
I LEU T 65 -74.9 -17.7 N 49.16 CA 51.33 C 59.25 O 59.71 CB 47.17 CG 46.78 CD1 42.56 CD2 52.55
I MET - 35 -151.7 123.1 N 55.87 CA 61.41 C 67.77 O 65.81 CB 61.13 CG 47.36 SD 47.85 CE 48.23
I GLU - 211 -94.2 360.0 N 72.47 CA 72.54 C 73.6 O 75.74 CB 79.47 CG 80.75 CD 84.7 OE1 84.39 OE2 83.36
I ALA - 86 360.0 161.5 N 73.46 CA 67.19 C 58.23 O 64.55 CB 59.6
I GLN - 113 -122.6 150.5 N 57.32 CA 49.48 C 47.79 O 46.07 CB 59.03 CG 58.09 CD 66.34 OE1 67.08 NE2 70.86
I THR - 36 -81.1 131.2 N 42.27 CA 41.39 C 42.27 O 43.05 CB 44.73 OG1 41.58 CG2 50.68
I ARG E 22 -108.6 144.7 N 36.62 CA 37.41 C 37.11 O 36.67 CB 40.55 CG 40.69 CD 46.88 NE 53.21 CZ 53.74 NH1 49.89 NH2 52.68
I TYR E 39 -114.5 116.8 N 32.48 CA 32.63 C 35.93 O 34.15 CB 32.9 CG 40.09 CD1 44.54 CD2 41.06 CE1 50.6 CE2 45.63 CZ 47.31 OH 53.58
I ILE E 0 -126.7 143.1 N 30.03 CA 32.88 C 35.45 O 35.69 CB 34.99 CG1 37.69 CG2 34.4 CD1 38.34
I LYS E 55 -129.8 132.4 N 31.27 CA 32.45 C 31.59 O 32.02 CB 38.84 CG 39.63 CD 48.74 CE 53.15 NZ 57.37
I THR E 6 -159.0 -177.5 N 29.4 CA 32.62 C 35.32 O 38.25 CB 33.17 OG1 34.22 CG2 30.19
I SER E 31 -86.8 158.1 N 31.75 CA 38.86 C 38.3 O 34.36 CB 37.55 OG 34.63
I GLY T 2 -67.0 -25.5 N 39.06 CA 37.22 C 40.78 O 42.29
I ASN T 83 -79.0 -8.1 N 36.1 CA 35.11 C 32.02 O 36.88 CB 42.01 CG 35.79 OD1 39.33 ND2 38.91
I ALA - 0 -58.7 141.5 N 30.29 CA 29.54 C 31.08 O 34.81 CB 29.0
I THR B 22 -106.5 169.8 N 30.05 CA 35.07 C 31.19 O 26.48 CB 32.45 OG1 35.25 CG2 32.09
I VAL H 3 -58.0 -34.1 N 31.81 CA 30.19 C 30.53 O 28.17 CB 27.88 CG1 31.13 CG2 30.37
I ASP H 45 -60.4 -38.4 N 31.03 CA 35.16 C 29.7 O 28.18 CB 31.75 CG 41.99 OD1 41.62 OD2 43.93
I HIS H 2 -65.0 -40.2 N 27.69 CA 27.13 C 30.62 O 27.86 CB 29.84 CG 28.99 ND1 27.45 CD2 30.05 CE1 34.11 NE2 31.55
I LEU H 0 -65.4 -38.4 N 26.06 CA 28.39 C 26.4 O 29.74 CB 27.42 CG 31.51 CD1 34.96 CD2 31.98
I SER H 1 -66.5 -44.4 N 27.73 CA 29.14 C 33.27 O 29.69 CB 36.81 OG 42.23
I LYS H 19 -62.8 -44.5 N 30.99 CA 33.47 C 30.56 O 30.39 CB 34.14 CG 37.72 CD 44.81 CE 42.74 NZ 47.91
I TYR H 0 -51.2 -50.5 N 26.34 CA 29.86 C 32.28 O 30.19 CB 29.92 CG 28.28 CD1 32.32 CD2 29.43 CE1 32.03 CE2 33.91 CZ 34.3 OH 31.73
I LEU H 0 -60.3 -43.3 N 28.24 CA 29.59 C 33.29 O 34.1 CB 31.62 CG 31.46 CD1 27.81 CD2 34.19
I ALA H 1 -59.3 -38.0 N 33.89 CA 36.02 C 36.38 O 39.8 CB 38.48
I VAL H 9 -80.3 -49.7 N 36.06 CA 36.47 C 41.52 O 40.62 CB 32.42 CG1 39.67 CG2 41.5
I ARG H 20 -64.5 -33.2 N 37.24 CA 37.95 C 46.72 O 50.49 CB 40.86 CG 46.95 CD 49.52 NE 44.78 CZ 45.56 NH1 42.11 NH2 37.38
I LEU H 22 -81.8 -35.3 N 45.12 CA 49.18 C 54.44 O 58.87 CB 45.8 CG 42.66 CD1 43.99 CD2 46.61
I ALA H 42 -70.1 -30.6 N 50.35 CA 52.07 C 57.42 O 56.25 CB 47.03
I LEU H 44 -70.8 -36.7 N 56.04 CA 55.02 C 62.69 O 64.32 CB 46.31 CG 56.53 CD1 46.76 CD2 41.97
I GLU H 71 -76.8 -35.5 N 62.5 CA 66.4 C 67.17 O 69.1 CB 60.14 CG 60.35 CD 62.89 OE1 61.42 OE2 66.44
I GLU H 166 -71.5 -39.0 N 64.56 CA 71.39 C 72.26 O 70.12 CB 70.2 CG 76.61 CD 83.26 OE1 87.28 OE2 84.88
I LEU H 152 -61.0 -36.5 N 69.08 CA 70.66 C 71.16 O 72.44 CB 70.09 CG 71.37 CD1 64.14 CD2 70.97
I ARG - 253 -111.3 360.0 N 72.14 CA 74.95 C 72.54 O 74.07 CB 77.1 CG 77.07 CD 82.37 NE 89.34 CZ 93.06 NH1 92.67 NH2 91.53
I ASP - 120 360.0 37.3 N 62.89 CA 66.78 C 66.54 O 67.97 CB 64.6 CG 64.83 OD1 63.87 OD2 64.51
I THR - 121 -153.6 -1.3 N 70.1 CA 71.31 C 74.37 O 75.15 CB 76.08 OG1 76.73 CG2 72.06
I ALA - 23 -30.6 127.7 N 71.65 CA 63.81 C 67.67 O 67.86 CB 61.98
I SER - 37 -108.9 154.8 N 64.74 CA 60.35 C 51.79 O 49.33 CB 58.95 OG 57.29
I GLU T 61 -80.4 -0.3 N 49.94 CA 51.59 C 53.48 O 54.52 CB 48.95 CG 52.99 CD 57.74 OE1 60.51 OE2 67.22
I LYS T 162 -118.9 34.8 N 52.98 CA 56.02 C 55.87 O 59.66 CB 60.4 CG 59.14 CD 63.59 CE 75.82 NZ 79.92
I GLN S 85 -98.2 -16.7 N 49.11 CA 48.27 C 46.35 O 43.17 CB 48.39 CG 50.53 CD 56.51 OE1 54.37 NE2 59.47
I TYR E 35 -130.6 139.1 N 43.36 CA 41.74 C 39.4 O 40.99 CB 37.53 CG 42.94 CD1 39.27 CD2 39.4 CE1 40.4 CE2 41.5 CZ 42.23 OH 46.84
I THR E 34 -96.0 136.7 N 37.69 CA 39.73 C 31.4 O 33.11 CB 43.56 OG1 55.36 CG2 42.72
I ILE E 3 -116.1 137.6 N 33.28 CA 32.12 C 31.7 O 28.03 CB 31.04 CG1 38.0 CG2 31.59 CD1 41.92
I TYR E 13 -124.2 152.6 N 29.94 CA 30.94 C 29.54 O 29.26 CB 34.57 CG 35.73 CD1 35.46 CD2 39.18 CE1 40.37 CE2 41.25 CZ 43.5 OH 44.31
I ILE E 1 -126.8 146.3 N 31.94 CA 26.65 C 29.97 O 29.1 CB 31.25 CG1 28.49 CG2 30.94 CD1 31.22
I ALA E 13 -86.6 141.4 N 26.69 CA 34.81 C 34.25 O 33.74 CB 35.04
I THR - 45 -83.7 164.1 N 36.11 CA 40.23 C 34.0 O 35.49 CB 42.34 OG1 37.56 CG2 36.88
I ALA T 104 -58.7 -24.0 N 35.68 CA 40.36 C 38.84 O 38.43 CB 37.39
I SER T 96 -87.1 -4.1 N 39.52 CA 39.38 C 39.82 O 38.58 CB 45.57 OG 43.31
I GLY S 3 91.1 25.1 N 37.42 CA 32.55 C 33.49 O 35.12
I GLN - 56 -104.3 144.9 N 37.15 CA 35.29 C 36.35 O 34.45 CB 34.85 CG 44.81 CD 46.25 OE1 43.05 NE2 39.18
I PHE E 4 -94.3 120.8 N 32.98 CA 35.06 C 37.36 O 37.58 CB 32.86 CG 37.16 CD1 37.58 CD2 44.21 CE1 36.4 CE2 40.41 CZ 41.43
I THR E 41 -106.0 127.1 N 34.84 CA 33.28 C 37.65 O 34.75 CB 41.15 OG1 42.09 CG2 39.7
I VAL E 81 -72.8 137.5 N 35.81 CA 36.65 C 37.35 O 34.91 CB 38.98 CG1 37.17 CG2 38.48
I LEU - 8 -102.7 138.6 N 33.02 CA 35.47 C 34.08 O 34.61 CB 32.91 CG 31.28 CD1 30.92 CD2 28.19
I ASP - 93 -65.8 138.1 N 29.97 CA 33.27 C 34.31 O 32.46 CB 36.78 CG 43.85 OD1 42.96 OD2 36.14
I GLY T 15 -55.8 -28.5 N 34.03 CA 32.67 C 36.2 O 37.31
I SER T 77 -73.4 -14.3 N 32.26 CA 33.53 C 34.61 O 35.26 CB 38.44 OG 43.19
I PHE - 48 -68.8 128.1 N 31.3 CA 32.46 C 35.66 O 31.27 CB 35.4 CG 39.2 CD1 36.7 CD2 40.15 CE1 45.9 CE2 41.68 CZ 43.77
I SER B 34 -73.6 154.7 N 33.87 CA 32.86 C 34.8 O 32.32 CB 37.3 OG 38.01
I LEU H 0 -68.8 -30.0 N 29.24 CA 32.04 C 32.27 O 37.09 CB 31.88 CG 34.62 CD1 32.26 CD2 35.49
I GLU H 64 -62.3 -47.2 N 38.07 CA 42.53 C 38.18 O 38.84 CB 42.23 CG 49.83 CD 59.44 OE1 56.33 OE2 65.52
I LEU H 67 -64.1 -42.8 N 39.37 CA 37.35 C 40.22 O 34.55 CB 39.76 CG 39.81 CD1 46.67 CD2 43.08
I VAL H 0 -61.5 -41.1 N 32.24 CA 33.26 C 34.23 O 38.82 CB 32.49 CG1 33.26 CG2 32.27
I SER I 29 -63.9 -38.0 N 35.31 CA 35.99 C 38.0 O 42.27 CB 41.72 OG 46.49
I GLU I 110 -82.3 -33.9 N 40.03 CA 41.6 C 43.7 O 43.22 CB 43.84 CG 53.59 CD 59.49 OE1 67.98 OE2 66.23
I LYS I 115 -97.7 -25.5 N 41.66 CA 39.01 C 41.47 O 39.38 CB 43.49 CG 48.54 CD 50.59 CE 63.57 NZ 60.53
I TYR I 85 -119.6 -44.2 N 38.49 CA 35.71 C 36.08 O 38.78 CB 35.29 CG 35.16 CD1 42.55 CD2 38.57 CE1 45.08 CE2 44.55 CZ 46.51 OH 47.05
I TRP I 45 -73.5 -59.1 N 38.36 CA 34.66 C 39.86 O 41.53 CB 32.85 CG 33.24 CD1 37.28 CD2 32.05 NE1 33.58 CE2 29.79 CE3 28.36 CZ2 30.24 CZ3 32.91 CH2 31.64
I LYS - 154 60.1 34.6 N 38.35 CA 47.39 C 48.92 O 58.27 CB 43.39 CG 46.22 CD 48.61 CE 50.03 NZ 48.51
I VAL S 86 -148.0 145.1 N 44.8 CA 50.07 C 52.98 O 50.77 CB 46.01 CG1 51.93 CG2 47.07
I ASN S 169 -83.5 59.5 N 59.94 CA 59.84 C 58.89 O 60.73 CB 61.83 CG 66.14 OD1 68.42 ND2 62.85
I LYS S 152 -142.5 158.1 N 51.51 CA 49.97 C 46.05 O 44.42 CB 50.99 CG 59.75 CD 67.26 CE 73.0 NZ 72.21
I PRO - 31 -46.8 130.3 N 45.61 CA 40.88 C 36.83 O 36.88 CB 38.77 CG 44.14 CD 46.38
I MET E 2 -67.3 147.9 N 36.58 CA 36.59 C 34.81 O 32.08 CB 32.95 CG 35.65 SD 41.3 CE 39.07
I GLU E 63 -117.3 115.3 N 28.21 CA 29.34 C 32.34 O 31.33 CB 34.46 CG 33.5 CD 39.61 OE1 41.84 OE2 44.84
I LEU E 0 -120.0 159.3 N 26.22 CA 25.32 C 26.24 O 28.27 CB 24.78 CG 28.72 CD1 30.44 CD2 31.76
I TYR E 13 -128.7 154.8 N 27.62 CA 28.34 C 26.32 O 28.22 CB 30.96 CG 33.71 CD1 36.08 CD2 36.52 CE1 35.02 CE2 33.46 CZ 34.51 OH 46.11
I TYR E 0 -135.0 159.1 N 26.96 CA 28.89 C 29.67 O 32.84 CB 30.62 CG 29.52 CD1 32.3 CD2 32.26 CE1 35.14 CE2 31.92 CZ 35.07 OH 38.65
I ALA E 3 -155.8 146.3 N 34.48 CA 33.59 C 37.23 O 35.65 CB 34.88
I PRO E 76 -55.7 131.1 N 38.86 CA 41.84 C 44.44 O 45.81 CB 45.62 CG 40.51 CD 40.57
I THR - 116 -75.9 360.0 N 42.2 CA 48.08 C 52.23 O 54.05 CB 46.78 OG1 54.7 CG2 52.21
J ARG - 173 360.0 134.5 N 54.74 CA 51.51 C 49.71 O 50.89 CB 59.2 CG 59.45 CD 64.04 NE 66.82 CZ 67.35 NH1 66.57 NH2 64.78
J LEU - 10 -57.6 145.4 N 47.47 CA 45.63 C 51.23 O 48.2 CB 47.14 CG 46.29 CD1 43.69 CD2 40.8
J LYS - 183 -124.8 156.9 N 45.43 CA 50.94 C 50.02 O 54.35 CB 54.17 CG 56.21 CD 58.3 CE 57.61 NZ 60.9
J ASN S 106 57.6 35.3 N 49.32 CA 55.16 C 53.02 O 57.01 CB 57.97 CG 64.62 OD1 64.89 ND2 67.75
J VAL E 1 -109.3 150.3 N 47.28 CA 50.17 C 51.18 O 47.14 CB 45.76 CG1 46.2 CG2 44.51
J ASP E 55 -89.2 94.3 N 52.75 CA 50.96 C 51.21 O 49.82 CB 55.6 CG 62.34 OD1 62.01 OD2 63.54
J ARG E 79 -61.0 -28.0 N 52.66 CA 49.86 C 52.48 O 55.7 CB 54.09 CG 58.01 CD 54.65 NE 59.85 CZ 58.65 NH1 55.88 NH2 50.14
J SER E 105 -71.4 -16.3 N 55.53 CA 56.77 C 53.29 O 58.98 CB 55.35 OG 56.18
J THR E 27 -94.4 22.6 N 53.07 CA 54.17 C 48.77 O 45.65 CB 51.8 OG1 50.13 CG2 53.72
J ALA E 20 -60.5 132.9 N 47.29 CA 38.9 C 39.97 O 44.45 CB 32.44
J GLN E 58 -122.7 138.0 N 37.05 CA 36.78 C 33.36 O 30.49 CB 36.14 CG 44.49 CD 51.42 OE1 51.02 NE2 53.49
J GLN E 67 -114.4 144.0 N 29.59 CA 32.09 C 33.17 O 29.51 CB 36.84 CG 48.03 CD 57.52 OE1 50.4 NE2 59.06
J LEU E 0 -134.5 126.1 N 29.71 CA 30.3 C 34.01 O 31.9 CB 33.77 CG 33.17 CD1 31.18 CD2 35.85
J ALA E 2 -93.6 121.8 N 25.04 CA 29.33 C 29.3 O 31.21 CB 27.34
J VAL E 1 -122.8 134.5 N 30.82 CA 33.35 C 32.32 O 32.45 CB 37.08 CG1 36.22 CG2 38.53
J THR E 17 -121.7 130.6 N 28.02 CA 33.04 C 32.96 O 30.72 CB 33.62 OG1 33.13 CG2 33.59
J VAL E 21 -133.1 128.4 N 31.25 CA 34.29 C 36.77 O 36.46 CB 34.61 CG1 38.12 CG2 33.48
J GLY T 59 61.2 -133.7 N 37.23 CA 43.68 C 43.98 O 45.68
J ASN T 118 -105.2 26.9 N 46.05 CA 45.61 C 42.86 O 44.82 CB 49.49 CG 54.28 OD1 53.05 ND2 63.63
J VAL E 57 -113.2 120.6 N 39.84 CA 39.27 C 38.94 O 34.77 CB 39.75 CG1 36.11 CG2 45.16
J THR E 4 -112.4 127.5 N 33.55 CA 32.31 C 30.59 O 35.56 CB 35.85 OG1 35.56 CG2 34.16
J VAL E 1 -128.2 163.7 N 29.01 CA 29.14 C 26.63 O 29.46 CB 30.61 CG1 33.89 CG2 30.14
J ILE E 48 -106.1 123.4 N 28.23 CA 29.58 C 26.65 O 31.15 CB 36.84 CG1 40.65 CG2 36.62 CD1 33.48
J ILE E 0 -109.5 112.6 N 26.57 CA 30.38 C 30.77 O 29.92 CB 29.84 CG1 30.55 CG2 28.72 CD1 34.13
J THR E 10 -97.6 137.3 N 26.26 CA 32.04 C 31.93 O 29.97 CB 34.4 OG1 34.86 CG2 31.76
J ASP E 8 -128.1 154.6 N 32.94 CA 35.81 C 35.56 O 34.01 CB 33.32 CG 36.38 OD1 39.53 OD2 40.15
J PHE E 13 -128.4 157.5 N 35.85 CA 36.01 C 39.35 O 41.07 CB 34.88 CG 34.02 CD1 38.93 CD2 40.3 CE1 40.57 CE2 40.78 CZ 39.36
J LYS E 105 -92.0 166.7 N 43.95 CA 48.06 C 47.3 O 44.91 CB 47.93 CG 46.27 CD 59.5 CE 60.84 NZ 60.76
J GLU E 109 -72.6 144.9 N 51.62 CA 54.67 C 53.88 O 53.54 CB 56.37 CG 57.17 CD 70.32 OE1 70.29 OE2 67.45
J LYS - 153 -59.6 360.0 N 55.24 CA 59.62 C 61.34 O 59.89 CB 58.34 CG 57.66 CD 60.06 CE 57.56 NZ 54.81
K ALA - 73 360.0 -163.8 N 48.44 CA 52.82 C 51.89 O 51.25 CB 51.32
K SER - 55 -131.4 173.2 N 43.4 CA 53.95 C 47.0 O 46.76 CB 55.93 OG 61.9
K GLU E 23 -112.6 132.6 N 37.85 CA 40.25 C 38.77 O 43.93 CB 47.35 CG 43.73 CD 50.6 OE1 55.1 OE2 51.16
K ILE E 30 -123.7 138.5 N 29.35 CA 31.18 C 23.99 O 25.69 CB 29.48 CG1 32.67 CG2 31.16 CD1 35.43
K GLU E 11 -110.0 145.7 N 29.49 CA 33.38 C 26.32 O 27.76 CB 33.8 CG 31.57 CD 50.95 OE1 51.91 OE2 51.17
K LEU E 0 -154.0 159.0 N 26.17 CA 29.05 C 27.99 O 26.37 CB 30.77 CG 31.51 CD1 32.09 CD2 34.6
K VAL E 6 -106.6 134.9 N 28.09 CA 25.34 C 23.51 O 28.08 CB 30.8 CG1 34.68 CG2 30.3
K PHE E 0 -101.4 115.8 N 25.35 CA 25.74 C 27.88 O 27.77 CB 28.06 CG 29.06 CD1 30.15 CD2 38.43 CE1 39.17 CE2 36.0 CZ 33.77
K ARG E 73 -109.6 138.4 N 23.23 CA 27.97 C 28.77 O 22.27 CB 28.08 CG 30.26 CD 32.0 NE 47.14 CZ 48.31 NH1 43.43 NH2 43.36
K PRO E 24 -62.8 140.6 N 26.15 CA 24.86 C 23.8 O 21.72 CB 33.42 CG 34.13 CD 32.39
K HIS - 19 -56.0 126.0 N 23.88 CA 21.63 C 23.43 O 22.27 CB 22.54 CG 26.11 ND1 19.63 CD2 22.04 CE1 23.07 NE2 22.3
K PRO T 71 -63.5 -26.6 N 24.8 CA 24.86 C 28.97 O 30.08 CB 23.07 CG 31.12 CD 24.77
K THR T 93 -102.7 -46.4 N 22.15 CA 27.23 C 31.67 O 29.6 CB 28.59 OG1 26.43 CG2 28.3
K LEU T 105 -66.4 -28.4 N 23.25 CA 26.77 C 27.98 O 29.02 CB 23.99 CG 25.72 CD1 24.93 CD2 26.99
K MET T 5 -110.7 16.8 N 26.71 CA 28.37 C 31.0 O 35.24 CB 29.15 CG 31.12 SD 29.77 CE 32.68
K GLU T 153 -54.3 -38.5 N 29.05 CA 36.13 C 32.91 O 36.98 CB 31.96 CG 37.4 CD 40.43 OE1 37.01 OE2 42.75
K LYS T 196 -114.7 28.2 N 37.18 CA 45.58 C 46.36 O 44.86 CB 47.55 CG 47.25 CD 63.49 CE 63.28 NZ 72.97
K ASP - 55 -102.4 133.8 N 41.12 CA 40.19 C 48.28 O 46.17 CB 40.17 CG 43.94 OD1 39.53 OD2 46.62
K ASP T 167 -75.7 -25.4 N 46.13 CA 47.14 C 46.48 O 43.78 CB 52.23 CG 51.39 OD1 51.13 OD2 54.77
K SER T 30 -84.0 5.6 N 44.52 CA 45.34 C 45.29 O 48.55 CB 41.71 OG 43.28
K ALA - 35 -67.7 117.3 N 43.02 CA 38.38 C 41.99 O 43.74 CB 45.1
K GLN - 99 -144.8 131.1 N 37.46 CA 36.27 C 34.71 O 33.38 CB 40.71 CG 42.16 CD 49.84 OE1 57.37 NE2 52.46
K THR - 50 -77.9 125.8 N 32.41 CA 34.1 C 36.58 O 33.41 CB 33.06 OG1 36.39 CG2 33.32
K ARG E 22 -118.5 152.4 N 27.62 CA 30.29 C 28.55 O 25.74 CB 32.79 CG 35.34 CD 45.08 NE 55.22 CZ 49.27 NH1 45.09 NH2 55.96
K TYR E 35 -122.4 120.2 N 28.67 CA 34.18 C 27.98 O 34.89 CB 33.15 CG 28.36 CD1 37.5 CD2 36.59 CE1 38.93 CE2 38.95 CZ 40.21 OH 47.4
K ILE E 0 -135.6 164.7 N 28.51 CA 29.74 C 26.46 O 27.09 CB 30.55 CG1 33.62 CG2 34.76 CD1 38.08
K LYS E 44 -142.4 142.1 N 32.29 CA 29.34 C 28.1 O 29.59 CB 38.72 CG 38.91 CD 43.34 CE 46.01 NZ 53.51
K THR E 2 -157.9 177.5 N 31.89 CA 29.12 C 28.61 O 30.88 CB 31.09 OG1 29.46 CG2 23.93
K SER E 3 -70.5 153.1 N 26.05 CA 28.6 C 29.22 O 29.31 CB 25.44 OG 28.75
K GLY T 4 -68.3 -13.6 N 26.64 CA 27.61 C 25.24 O 25.78
K ASN T 36 -84.1 -8.4 N 24.63 CA 27.32 C 26.43 O 24.19 CB 33.29 CG 31.44 OD1 32.04 ND2 33.26
K ALA - 0 -58.1 143.4 N 24.28 CA 22.74 C 22.96 O 24.03 CB 20.65
K THR B 27 -105.5 167.9 N 22.72 CA 20.47 C 19.08 O 20.45 CB 20.57 OG1 19.94 CG2 25.56
K VAL H 6 -55.4 -38.0 N 18.42 CA 18.47 C 20.07 O 20.86 CB 16.8 CG1 19.95 CG2 18.25
K ASP H 47 -54.1 -41.5 N 19.21 CA 20.88 C 19.69 O 22.33 CB 23.37 CG 32.47 OD1 33.34 OD2 36.55
K HIS H 4 -64.6 -37.7 N 18.98 CA 19.58 C 24.09 O 22.61 CB 20.54 CG 21.76 ND1 25.91 CD2 25.55 CE1 24.99 NE2 24.18
K LEU H 0 -70.1 -42.3 N 21.62 CA 21.33 C 22.7 O 24.62 CB 25.46 CG 27.56 CD1 34.51 CD2 28.16
K SER H 2 -56.7 -46.5 N 20.8 CA 23.19 C 29.06 O 24.43 CB 22.46 OG 25.98
K LYS H 46 -66.4 -38.6 N 24.57 CA 26.59 C 25.47 O 28.96 CB 27.17 CG 35.72 CD 36.83 CE 47.23 NZ 38.86
K TYR H 0 -58.1 -44.5 N 22.37 CA 27.86 C 30.09 O 29.57 CB 27.07 CG 32.49 CD1 33.3 CD2 33.71 CE1 37.95 CE2 38.0 CZ 38.79 OH 41.64
K LEU H 6 -60.7 -40.2 N 23.81 CA 26.33 C 27.18 O 33.64 CB 27.61 CG 27.96 CD1 26.09 CD2 29.31
K ALA H 2 -70.8 -44.8 N 25.7 CA 29.87 C 35.91 O 39.47 CB 33.59
K VAL H 30 -64.3 -43.0 N 37.95 CA 36.25 C 42.29 O 44.18 CB 33.86 CG1 41.33 CG2 33.73
K ARG H 17 -64.2 -43.8 N 36.35 CA 43.98 C 44.71 O 49.98 CB 41.2 CG 49.45 CD 45.78 NE 49.29 CZ 52.53 NH1 59.25 NH2 51.75
K LEU H 25 -61.6 -43.4 N 40.29 CA 46.84 C 52.32 O 50.54 CB 41.88 CG 48.77 CD1 48.24 CD2 44.2
K ALA H 45 -62.9 -35.3 N 47.98 CA 52.14 C 55.84 O 56.57 CB 46.86
K LEU H 66 -67.7 -40.9 N 51.95 CA 56.03 C 61.25 O 63.97 CB 54.34 CG 54.5 CD1 50.89 CD2 54.04
K GLU H 74 -68.6 -21.8 N 58.73 CA 61.13 C 63.57 O 68.89 CB 57.47 CG 56.38 CD 55.48 OE1 55.69 OE2 57.55
K GLU T 121 -82.0 -7.3 N 65.73 CA 66.91 C 70.14 O 71.03 CB 63.97 CG 66.78 CD 67.86 OE1 65.04 OE2 66.15
K LEU T 144 -89.5 34.7 N 71.2 CA 70.93 C 73.39 O 78.35 CB 68.82 CG 64.89 CD1 66.21 CD2 65.85
K ARG T 214 -150.6 35.6 N 76.98 CA 80.03 C 79.99 O 82.27 CB 82.46 CG 82.16 CD 86.48 NE 89.03 CZ 92.7 NH1 91.53 NH2 94.68
K SER - 144 -153.3 360.0 N 79.17 CA 80.58 C 81.44 O 85.65 CB 83.12 OG 78.62
K ALA - 75 360.0 -146.4 N 57.6 CA 51.86 C 51.4 O 54.32 CB 51.02
K SER - 37 -140.0 134.6 N 51.01 CA 45.53 C 41.14 O 37.98 CB 45.45 OG 44.78
K GLU T 49 -71.6 -7.9 N 39.14 CA 37.48 C 39.34 O 42.33 CB 40.16 CG 41.31 CD 47.11 OE1 43.53 OE2 56.6
K LYS T 153 -97.7 2.6 N 38.93 CA 37.53 C 37.11 O 33.3 CB 40.11 CG 49.24 CD 47.34 CE 55.05 NZ 52.44
K GLN S 88 -82.4 -19.1 N 35.31 CA 31.63 C 31.53 O 29.98 CB 36.32 CG 45.64 CD 47.43 OE1 50.29 NE2 44.53
K TYR E 19 -131.1 144.5 N 23.82 CA 22.56 C 27.7 O 26.43 CB 24.06 CG 29.16 CD1 25.3 CD2 27.57 CE1 27.97 CE2 32.35 CZ 33.34 OH 38.52
K THR E 33 -97.3 137.3 N 21.52 CA 21.28 C 22.17 O 21.25 CB 23.6 OG1 22.73 CG2 20.05
K ILE E 2 -121.4 136.1 N 17.18 CA 18.69 C 20.03 O 17.4 CB 17.75 CG1 20.24 CG2 20.3 CD1 28.25
K TYR E 28 -129.1 158.6 N 21.04 CA 22.13 C 15.91 O 18.39 CB 17.55 CG 17.73 CD1 21.58 CD2 18.39 CE1 18.15 CE2 22.77 CZ 22.97 OH 25.0
K ILE E 2 -118.0 133.2 N 19.51 CA 22.75 C 19.68 O 20.99 CB 29.13 CG1 31.22 CG2 30.67 CD1 33.65
K ALA E 36 -80.3 118.9 N 23.13 CA 23.37 C 24.45 O 29.86 CB 26.47
K THR - 44 -82.4 165.2 N 26.73 CA 34.18 C 38.12 O 32.37 CB 31.02 OG1 33.56 CG2 29.7
K ALA T 114 -57.3 -24.8 N 38.23 CA 33.38 C 34.89 O 35.24 CB 33.71
K SER T 115 -89.2 0.9 N 33.66 CA 37.54 C 31.69 O 37.2 CB 38.71 OG 51.45
K GLY S 62 82.9 21.3 N 29.34 CA 28.19 C 29.47 O 23.12
K GLN - 122 -98.7 153.6 N 26.31 CA 26.53 C 25.97 O 25.43 CB 29.32 CG 26.87 CD 22.4 OE1 26.11 NE2 25.18
K PHE E 47 -107.0 105.4 N 19.2 CA 19.83 C 19.35 O 23.09 CB 20.37 CG 23.32 CD1 25.29 CD2 33.65 CE1 30.49 CE2 29.76 CZ 23.46
K THR E 45 -89.1 134.2 N 23.79 CA 23.28 C 18.22 O 19.75 CB 26.46 OG1 38.99 CG2 22.49
K VAL E 86 -81.7 127.2 N 17.07 CA 19.96 C 17.44 O 22.0 CB 21.73 CG1 24.47 CG2 28.57
K LEU - 7 -92.0 133.9 N 16.36 CA 14.97 C 16.7 O 18.43 CB 18.38 CG 19.31 CD1 17.3 CD2 21.14
K ASP - 88 -70.6 142.3 N 15.81 CA 17.02 C 17.63 O 14.59 CB 16.7 CG 17.68 OD1 16.92 OD2 19.56
K GLY T 15 -58.7 -26.0 N 18.81 CA 18.16 C 17.28 O 16.96
K SER T 79 -78.3 -10.3 N 17.1 CA 17.15 C 19.07 O 18.78 CB 17.39 OG 19.41
K PHE - 38 -68.2 130.3 N 17.35 CA 17.38 C 18.57 O 18.52 CB 15.36 CG 18.74 CD1 15.4 CD2 17.42 CE1 16.95 CE2 18.56 CZ 21.79
K SER B 27 -70.7 152.8 N 17.77 CA 19.77 C 20.27 O 20.94 CB 21.98 OG 24.65
K LEU H 1 -61.1 -32.1 N 22.24 CA 21.87 C 20.9 O 23.87 CB 24.15 CG 32.51 CD1 36.61 CD2 30.21
K GLU H 108 -58.4 -49.0 N 22.0 CA 28.03 C 25.56 O 25.51 CB 33.3 CG 40.26 CD 53.49 OE1 56.96 OE2 57.46
K LEU H 58 -62.6 -43.2 N 23.3 CA 22.68 C 24.0 O 25.27 CB 25.6 CG 31.2 CD1 30.66 CD2 28.4
K VAL H 2 -59.8 -45.5 N 23.7 CA 25.67 C 27.12 O 27.24 CB 23.6 CG1 26.35 CG2 21.47
K SER H 46 -57.7 -48.6 N 28.82 CA 31.21 C 33.47 O 36.78 CB 32.54 OG 40.88
K GLU H 143 -67.6 -41.6 N 30.28 CA 37.76 C 34.99 O 38.61 CB 31.84 CG 45.7 CD 53.03 OE1 56.4 OE2 50.44
K LYS H 115 -95.5 -36.6 N 31.38 CA 33.09 C 35.36 O 36.75 CB 37.43 CG 40.05 CD 40.21 CE 47.6 NZ 43.68
K TYR T 48 -110.2 -21.0 N 35.67 CA 41.12 C 41.67 O 49.18 CB 29.03 CG 31.07 CD1 33.07 CD2 35.0 CE1 32.3 CE2 32.83 CZ 30.81 OH 32.26
K TRP - 33 -113.9 117.7 N 40.75 CA 45.92 C 49.71 O 48.91 CB 41.6 CG 47.21 CD1 47.5 CD2 44.87 NE1 49.44 CE2 47.6 CE3 44.31 CZ2 43.01 CZ3 43.81 CH2 45.19
K LYS - 173 -111.4 -29.1 N 54.62 CA 60.62 C 64.28 O 67.47 CB 63.95 CG 56.74 CD 47.52 CE 50.64 NZ 53.32
K VAL S 82 -73.9 175.6 N 64.82 CA 63.93 C 65.47 O 62.45 CB 64.52 CG1 64.81 CG2 60.7
K ASN S 139 -99.4 -8.2 N 65.92 CA 65.37 C 66.98 O 71.24 CB 69.79 CG 69.66 OD1 67.66 ND2 67.45
K LYS S 105 -69.4 167.8 N 60.65 CA 60.66 C 55.51 O 56.95 CB 56.46 CG 54.83 CD 52.9 CE 49.62 NZ 56.64
K PRO - 29 -54.8 145.5 N 54.45 CA 45.45 C 44.41 O 42.18 CB 44.82 CG 50.43 CD 52.54
K MET E 5 -60.5 142.6 N 38.09 CA 36.96 C 31.03 O 31.4 CB 34.07 CG 33.78 SD 44.08 CE 29.57
K GLU E 34 -117.7 127.7 N 32.08 CA 26.4 C 25.09 O 26.49 CB 30.09 CG 39.62 CD 42.1 OE1 43.17 OE2 52.98
K LEU E 2 -121.5 141.3 N 21.49 CA 19.81 C 23.33 O 28.31 CB 22.16 CG 24.22 CD1 24.28 CD2 20.33
K TYR E 42 -104.4 153.9 N 19.28 CA 20.9 C 25.5 O 24.47 CB 19.0 CG 23.37 CD1 25.0 CD2 22.26 CE1 24.27 CE2 25.66 CZ 30.19 OH 32.94
K TYR E 4 -138.5 157.1 N 18.61 CA 20.02 C 26.71 O 22.27 CB 23.17 CG 22.31 CD1 21.78 CD2 22.32 CE1 24.06 CE2 29.12 CZ 24.89 OH 33.32
K ALA E 1 -153.8 143.3 N 21.9 CA 20.68 C 25.72 O 23.66 CB 21.06
K PRO E 49 -57.7 137.3 N 28.66 CA 31.79 C 28.65 O 33.25 CB 33.83 CG 34.67 CD 28.91
K THR - 60 -77.8 145.8 N 29.13 CA 32.36 C 38.46 O 35.61 CB 35.02 OG1 37.03 CG2 39.37
K LYS - 261 34.2 360.0 N 44.09 CA 55.42 C 61.65 O 63.74 CB 52.83 CG 54.78 CD 58.65 CE 54.95 NZ 54.29 OXT 58.11
L ARG - 127 360.0 46.6 N 74.64 CA 67.65 C 65.91 O 65.1 CB 66.39 CG 66.27 CD 67.73 NE 67.64 CZ 59.82 NH1 59.81 NH2 55.72
L PRO - 64 -63.8 131.2 N 65.28 CA 62.0 C 58.05 O 57.91 CB 63.2 CG 63.94 CD 66.69
L ARG - 142 -110.9 161.3 N 59.8 CA 55.02 C 52.33 O 51.78 CB 58.96 CG 61.4 CD 56.78 NE 64.68 CZ 62.42 NH1 66.96 NH2 66.06
L LEU - 15 -75.3 133.9 N 51.87 CA 53.65 C 56.47 O 57.44 CB 44.65 CG 43.75 CD1 37.49 CD2 42.44
L LYS S 190 -109.5 8.2 N 63.61 CA 64.29 C 65.35 O 66.15 CB 69.59 CG 67.7 CD 69.06 CE 77.01 NZ 78.41
L ASN S 64 -114.8 9.8 N 62.17 CA 67.28 C 63.58 O 61.77 CB 70.38 CG 73.51 OD1 73.87 ND2 68.23
L VAL B 4 -102.2 140.9 N 61.43 CA 61.37 C 61.15 O 59.55 CB 56.61 CG1 57.4 CG2 56.56
L ASP - 59 -85.8 80.7 N 58.52 CA 62.41 C 59.74 O 58.57 CB 60.87 CG 68.83 OD1 65.87 OD2 66.83
L ARG G 73 -43.8 -31.6 N 59.09 CA 60.62 C 60.05 O 59.5 CB 57.39 CG 57.11 CD 54.74 NE 58.98 CZ 54.49 NH1 54.94 NH2 55.09
L SER G 110 -60.0 -24.1 N 63.69 CA 63.16 C 62.54 O 62.84 CB 62.75 OG 71.32
L THR G 41 -94.5 8.4 N 61.62 CA 59.16 C 56.69 O 54.1 CB 59.97 OG1 55.43 CG2 63.1
L ALA - 47 -47.2 112.1 N 53.71 CA 49.82 C 50.96 O 56.1 CB 53.85
L GLN E 89 -106.2 139.0 N 47.21 CA 49.48 C 51.71 O 44.56 CB 54.52 CG 62.99 CD 70.28 OE1 69.71 NE2 73.47
L GLN E 48 -110.5 140.6 N 48.74 CA 45.92 C 49.26 O 50.61 CB 37.54 CG 47.64 CD 48.82 OE1 54.78 NE2 51.32
L LEU E 9 -131.3 131.9 N 40.12 CA 37.27 C 36.87 O 34.44 CB 39.58 CG 36.04 CD1 43.8 CD2 40.96
L ALA E 35 -88.5 126.6 N 38.43 CA 35.05 C 33.88 O 33.03 CB 30.95
L VAL E 2 -124.2 124.9 N 29.3 CA 26.74 C 22.93 O 23.93 CB 28.62 CG1 29.22 CG2 29.78
L THR E 40 -111.0 130.4 N 25.93 CA 28.86 C 26.93 O 29.65 CB 25.78 OG1 31.37 CG2 29.48
L VAL E 23 -124.9 118.3 N 25.5 CA 31.27 C 28.58 O 29.06 CB 27.54 CG1 33.01 CG2 26.47
L GLY T 68 62.5 -124.1 N 27.89 CA 30.74 C 32.17 O 30.45
L ASN T 73 -104.5 15.5 N 30.25 CA 31.75 C 34.17 O 30.11 CB 31.9 CG 41.67 OD1 44.11 ND2 52.16
L VAL E 30 -116.6 121.7 N 27.07 CA 26.83 C 24.57 O 26.35 CB 28.07 CG1 27.2 CG2 33.65
L THR E 0 -111.9 135.5 N 22.22 CA 25.95 C 25.55 O 27.35 CB 24.98 OG1 26.8 CG2 21.97
L VAL E 0 -124.3 168.1 N 24.59 CA 23.54 C 23.14 O 26.96 CB 26.11 CG1 25.57 CG2 23.27
L ILE E 21 -115.2 121.4 N 27.16 CA 29.26 C 29.04 O 31.55 CB 33.12 CG1 35.31 CG2 32.36 CD1 40.93
L ILE E 0 -104.2 122.5 N 29.58 CA 27.71 C 32.61 O 39.8 CB 29.24 CG1 36.13 CG2 32.14 CD1 35.67
L THR E 4 -96.0 128.8 N 34.67 CA 38.82 C 36.61 O 37.33 CB 44.8 OG1 41.71 CG2 38.76
L ASP E 10 -105.7 152.1 N 34.71 CA 42.62 C 45.14 O 44.56 CB 44.58 CG 44.21 OD1 51.49 OD2 45.66
L PHE E 17 -138.4 145.4 N 42.04 CA 44.49 C 48.67 O 42.13 CB 43.56 CG 44.75 CD1 40.63 CD2 49.6 CE1 42.55 CE2 44.99 CZ 45.54
L LYS - 120 -82.8 158.2 N 49.69 CA 54.06 C 54.97 O 53.71 CB 58.74 CG 60.3 CD 64.75 CE 75.71 NZ 75.39
L GLU B 107 -74.4 173.3 N 60.18 CA 64.28 C 64.14 O 58.48 CB 62.94 CG 65.06 CD 70.2 OE1 68.28 OE2 70.61
L LYS - 168 -117.5 360.0 N 67.29 CA 67.56 C 67.65 O 70.16 CB 70.18 CG 68.07 CD 68.03 CE 72.47 NZ 68.76
