A PRO - 48 -86.0 12.5 N 32.02 CA 28.76 C 24.45 O 20.86 CB 27.63 CG 31.64 CD 32.34
A THR E 5 -134.0 119.1 N 23.04 CA 21.25 C 21.94 O 25.57 CB 21.82 OG1 22.54 CG2 22.07
A ARG E 139 -111.4 127.6 N 19.62 CA 19.43 C 20.04 O 16.54 CB 22.05 CG 32.39 CD 42.37 NE 51.68 CZ 56.72 NH1 60.01 NH2 56.8
A VAL E 21 -82.0 123.2 N 18.75 CA 18.91 C 19.21 O 20.61 CB 18.06 CG1 14.43 CG2 21.72
A ILE - 20 -89.7 116.9 N 19.15 CA 20.05 C 25.94 O 24.45 CB 20.66 CG1 26.58 CG2 24.54 CD1 28.13
A GLU - 114 -98.0 168.5 N 32.48 CA 35.93 C 37.84 O 38.12 CB 36.23 CG 37.06 CD 40.46 OE1 31.6 OE2 44.04
A ASP - 39 -64.5 146.3 N 41.67 CA 44.2 C 46.76 O 47.58 CB 44.26 CG 47.49 OD1 42.3 OD2 49.66
A LYS - 122 -160.6 360.0 N 49.04 CA 50.35 C 51.72 O 52.32 CB 51.01
A THR - 86 -66.2 131.6 N 49.1 CA 47.37 C 43.97 O 44.17 CB 47.78 OG1 52.56 CG2 47.63
A PRO - 11 -80.7 159.5 N 39.09 CA 35.16 C 30.86 O 30.47 CB 35.82 CG 37.35 CD 37.66
A SER - 38 -150.5 -177.6 N 25.57 CA 23.85 C 20.07 O 17.54 CB 26.32 OG 21.29
A PHE - 4 -95.7 143.1 N 16.5 CA 15.94 C 14.59 O 14.87 CB 14.63 CG 16.77 CD1 16.11 CD2 17.19 CE1 18.53 CE2 17.92 CZ 16.43
A GLY - 32 -76.1 160.6 N 13.67 CA 13.55 C 14.09 O 10.81
A ILE T 26 -68.3 -22.6 N 13.23 CA 13.49 C 14.9 O 13.36 CB 14.18 CG1 16.7 CG2 13.68 CD1 17.54
A ASP T 95 -78.9 -3.8 N 12.34 CA 14.13 C 13.48 O 12.02 CB 14.32 CG 22.11 OD1 18.38 OD2 24.88
A ASP B 6 -71.7 137.6 N 12.59 CA 10.86 C 10.26 O 8.32 CB 11.06 CG 14.67 OD1 10.84 OD2 15.82
A ARG G 6 -70.8 -5.9 N 10.94 CA 11.85 C 9.15 O 7.5 CB 12.34 CG 14.16 CD 15.38 NE 13.66 CZ 15.88 NH1 14.09 NH2 15.25
A ILE G 7 -57.8 -29.4 N 9.63 CA 10.52 C 11.1 O 11.07 CB 9.71 CG1 8.76 CG2 9.87 CD1 9.47
A PHE G 8 -75.9 -5.2 N 9.25 CA 10.01 C 11.77 O 12.42 CB 9.52 CG 8.22 CD1 17.08 CD2 9.65 CE1 17.61 CE2 8.91 CZ 18.7
A LEU G 33 -99.0 0.4 N 10.1 CA 12.06 C 12.53 O 12.39 CB 12.64 CG 16.49 CD1 19.82 CD2 20.44
A GLY T 2 97.0 2.4 N 10.03 CA 8.94 C 6.51 O 9.22
A GLU - 4 -85.2 77.9 N 7.8 CA 8.18 C 9.7 O 8.86 CB 8.07 CG 7.33 CD 7.26 OE1 12.75 OE2 14.6
A GLY E 0 -155.9 146.4 N 7.47 CA 9.08 C 9.05 O 10.85
A LEU E 1 -126.5 155.5 N 6.56 CA 5.94 C 7.97 O 8.83 CB 6.36 CG 5.27 CD1 4.42 CD2 6.23
A PHE E 18 -141.7 159.1 N 8.39 CA 8.56 C 8.95 O 9.29 CB 8.84 CG 9.74 CD1 11.75 CD2 11.47 CE1 15.96 CE2 15.72 CZ 17.33
A GLU E 2 -133.6 141.8 N 9.34 CA 7.96 C 8.12 O 8.4 CB 7.6 CG 8.59 CD 11.04 OE1 11.59 OE2 10.21
A THR E 15 -117.9 115.1 N 8.96 CA 10.05 C 11.38 O 12.75 CB 15.08 OG1 17.69 CG2 12.13
A ILE E 0 -114.5 124.7 N 10.27 CA 9.66 C 11.29 O 11.71 CB 8.24 CG1 14.96 CG2 10.86 CD1 17.01
A ARG E 48 -75.8 143.6 N 8.69 CA 8.31 C 10.02 O 10.95 CB 6.7 CG 11.12 CD 15.93 NE 20.48 CZ 26.87 NH1 23.29 NH2 18.62
A VAL E 1 -123.0 129.0 N 8.2 CA 7.11 C 9.56 O 7.91 CB 9.0 CG1 5.21 CG2 10.47
A ASN E 23 -129.8 119.0 N 9.94 CA 12.72 C 12.11 O 10.86 CB 13.36 CG 26.03 OD1 32.88 ND2 23.71
A SER T 56 50.6 42.6 N 10.65 CA 13.17 C 12.92 O 12.37 CB 15.86 OG 18.51
A SER T 45 78.0 3.4 N 9.3 CA 11.21 C 12.88 O 14.11 CB 14.93 OG 19.34
A LYS E 154 -110.4 126.2 N 12.32 CA 13.32 C 12.21 O 12.58 CB 16.27 CG 25.41 CD 40.2 CE 44.62 NZ 47.98
A PRO E 17 -69.0 143.5 N 12.21 CA 11.29 C 11.46 O 16.06 CB 13.95 CG 14.0 CD 13.03
A SER S 16 -93.9 128.7 N 10.97 CA 13.55 C 12.51 O 9.81 CB 15.11 OG 22.28
A PHE S 63 53.4 43.8 N 12.62 CA 11.51 C 9.03 O 10.51 CB 13.75 CG 18.55 CD1 25.06 CD2 25.36 CE1 30.15 CE2 30.17 CZ 25.18
A ALA H 7 -58.9 -36.9 N 8.26 CA 8.87 C 10.22 O 9.36 CB 8.61
A TYR H 118 -65.8 -47.8 N 9.46 CA 9.77 C 6.56 O 8.29 CB 10.8 CG 15.65 CD1 16.38 CD2 16.78 CE1 17.96 CE2 18.29 CZ 18.69 OH 21.63
A HIS H 2 -64.6 -44.7 N 8.87 CA 8.4 C 8.62 O 8.75 CB 7.81 CG 4.45 ND1 7.2 CD2 9.99 CE1 10.67 NE2 8.25
A TRP H 55 -62.3 -42.1 N 8.05 CA 8.67 C 7.96 O 7.46 CB 9.94 CG 9.13 CD1 9.46 CD2 9.42 NE1 10.18 CE2 10.46 CE3 12.36 CZ2 11.89 CZ3 14.9 CH2 11.89
A GLU H 83 -62.1 -47.6 N 8.98 CA 9.61 C 9.51 O 8.71 CB 11.02 CG 14.71 CD 24.14 OE1 22.94 OE2 24.82
A ARG H 19 -62.7 -48.9 N 7.16 CA 6.93 C 7.36 O 9.56 CB 6.53 CG 9.38 CD 9.53 NE 8.91 CZ 13.6 NH1 11.09 NH2 9.69
A LEU H 2 -57.2 -44.1 N 7.57 CA 8.23 C 10.35 O 7.9 CB 5.78 CG 9.06 CD1 10.56 CD2 7.81
A GLY H 3 -62.7 -43.3 N 9.41 CA 12.36 C 10.13 O 9.36
A ASN H 83 -59.8 -48.4 N 12.04 CA 11.74 C 11.32 O 9.49 CB 11.86 CG 14.51 OD1 17.74 ND2 18.69
A SER H 13 -62.1 -42.6 N 9.24 CA 10.77 C 8.16 O 9.63 CB 10.54 OG 10.3
A ALA H 0 -62.3 -43.3 N 7.67 CA 8.47 C 10.26 O 12.52 CB 8.44
A ARG H 156 -60.4 -44.7 N 12.98 CA 14.13 C 15.65 O 14.53 CB 15.62 CG 25.85 CD 32.44 NE 36.31 CZ 33.56 NH1 31.75 NH2 36.77
A GLN H 120 -55.9 -37.6 N 14.44 CA 14.22 C 14.74 O 18.43 CB 17.17 CG 26.38 CD 30.36 OE1 27.49 NE2 27.06
A LEU H 10 -92.3 1.5 N 12.36 CA 13.16 C 16.29 O 16.55 CB 15.66 CG 14.66 CD1 13.14 CD2 13.4
A GLY T 35 64.1 18.2 N 14.26 CA 14.46 C 14.6 O 15.12
A ILE - 8 -83.3 125.7 N 11.23 CA 11.25 C 12.91 O 13.59 CB 11.48 CG1 15.0 CG2 11.87 CD1 14.75
A PRO - 31 -59.5 136.8 N 13.1 CA 15.96 C 15.74 O 15.64 CB 15.97 CG 16.43 CD 13.76
A PHE - 18 -141.4 74.3 N 15.56 CA 15.19 C 18.02 O 20.76 CB 13.36 CG 11.98 CD1 16.48 CD2 14.21 CE1 14.28 CE2 14.1 CZ 14.82
A GLU - 123 -97.7 71.1 N 18.88 CA 20.94 C 21.2 O 26.15 CB 22.51 CG 28.46 CD 34.11 OE1 38.19 OE2 32.07
A ILE - 8 -133.6 120.2 N 16.99 CA 14.21 C 12.74 O 10.48 CB 13.29 CG1 13.22 CG2 11.21 CD1 13.31
A SER - 67 -72.2 160.6 N 12.05 CA 12.22 C 10.47 O 10.0 CB 12.21 OG 13.01
A PHE H 53 -58.4 -41.0 N 11.08 CA 10.39 C 10.44 O 9.34 CB 8.2 CG 11.34 CD1 8.62 CD2 18.03 CE1 10.33 CE2 15.6 CZ 14.37
A ASP H 126 -62.1 -41.3 N 10.58 CA 10.71 C 10.55 O 11.1 CB 12.75 CG 17.57 OD1 19.8 OD2 26.66
A ASP H 50 -62.2 -46.2 N 9.68 CA 10.79 C 8.83 O 10.67 CB 14.12 CG 26.57 OD1 37.17 OD2 36.7
A TRP H 0 -55.2 -50.2 N 10.52 CA 8.6 C 9.39 O 8.9 CB 9.46 CG 12.82 CD1 9.05 CD2 7.9 NE1 9.48 CE2 8.03 CE3 8.74 CZ2 11.17 CZ3 8.7 CH2 10.59
A PHE H 81 -62.6 -43.7 N 11.05 CA 9.81 C 9.97 O 8.4 CB 9.62 CG 13.29 CD1 17.22 CD2 13.57 CE1 16.15 CE2 19.12 CZ 15.82
A GLU H 102 -57.8 -43.9 N 9.52 CA 9.33 C 10.94 O 9.62 CB 9.68 CG 11.08 CD 10.69 OE1 14.53 OE2 13.79
A HIS H 30 -59.1 -42.8 N 9.99 CA 10.57 C 11.02 O 10.6 CB 11.14 CG 13.23 ND1 23.78 CD2 21.39 CE1 22.03 NE2 26.73
A LEU H 0 -60.0 -49.1 N 10.19 CA 12.01 C 10.51 O 11.39 CB 10.76 CG 10.82 CD1 10.05 CD2 8.51
A ILE H 36 -64.5 -40.4 N 10.54 CA 11.54 C 10.4 O 8.08 CB 13.7 CG1 19.05 CG2 18.41 CD1 19.08
A GLN H 95 -63.0 -36.9 N 11.43 CA 12.07 C 12.96 O 10.9 CB 15.53 CG 18.81 CD 23.94 OE1 24.15 NE2 25.96
A LYS H 18 -72.0 -41.8 N 10.23 CA 14.21 C 11.38 O 11.51 CB 16.48 CG 24.84 CD 19.87 CE 21.21 NZ 28.4
A ILE H 5 -56.1 -49.9 N 11.88 CA 13.84 C 15.34 O 14.71 CB 15.02 CG1 14.38 CG2 17.51 CD1 13.42
A GLN H 128 -59.6 -51.0 N 14.31 CA 15.41 C 15.1 O 13.08 CB 16.14 CG 27.14 CD 36.39 OE1 41.88 NE2 29.54
A LYS H 123 -58.8 -40.8 N 13.92 CA 15.82 C 14.37 O 13.69 CB 18.08 CG 29.01 CD 37.01 CE 42.11 NZ 45.35
A ASP T 59 -90.7 3.4 N 14.69 CA 14.47 C 14.27 O 12.01 CB 14.73 CG 18.42 OD1 19.2 OD2 14.16
A ASN T 147 54.2 39.4 N 12.69 CA 15.67 C 13.3 O 13.91 CB 18.3 CG 25.63 OD1 39.74 ND2 23.43
A LEU - 7 -79.3 124.7 N 9.43 CA 9.24 C 11.03 O 11.51 CB 7.78 CG 7.72 CD1 8.82 CD2 12.27
A TYR S 131 -110.4 -61.6 N 8.03 CA 8.3 C 8.96 O 10.0 CB 7.04 CG 3.9 CD1 8.93 CD2 6.65 CE1 11.41 CE2 8.02 CZ 8.53 OH 10.5
A HIS S 105 -115.6 128.1 N 6.14 CA 9.38 C 8.63 O 9.29 CB 9.81 CG 14.55 ND1 19.07 CD2 15.54 CE1 19.49 NE2 15.79
A GLY E 4 162.8 -143.6 N 9.46 CA 6.56 C 8.2 O 9.49
A GLY E 0 -140.4 160.5 N 8.66 CA 9.77 C 8.29 O 7.52
A ILE E 0 -127.5 126.9 N 7.48 CA 9.21 C 10.64 O 12.66 CB 10.9 CG1 14.19 CG2 14.57 CD1 14.77
A LYS E 30 -105.1 128.1 N 9.89 CA 10.0 C 11.68 O 13.15 CB 11.55 CG 15.07 CD 15.91 CE 24.49 NZ 18.21
A ALA E 0 -108.8 126.7 N 9.39 CA 9.41 C 10.23 O 11.47 CB 7.94
A ILE E 10 -119.3 124.7 N 10.39 CA 7.71 C 9.11 O 9.44 CB 8.8 CG1 13.9 CG2 10.31 CD1 17.95
A LEU E 0 -110.8 118.1 N 7.5 CA 7.94 C 9.2 O 9.32 CB 9.21 CG 8.39 CD1 10.54 CD2 8.62
A SER E 0 -100.9 156.6 N 8.36 CA 10.23 C 10.19 O 9.91 CB 10.41 OG 11.73
A GLY - 1 -62.8 -29.2 N 10.73 CA 11.71 C 14.31 O 13.94
A GLY - 0 97.1 173.5 N 13.02 CA 13.41 C 13.85 O 12.59
A PRO B 52 -58.6 142.6 N 17.0 CA 19.82 C 18.82 O 20.3 CB 18.55 CG 22.42 CD 18.28
A ALA - 27 -158.9 161.2 N 17.5 CA 19.6 C 22.18 O 21.16 CB 19.39
A SER - 76 -63.5 161.2 N 21.18 CA 22.6 C 23.59 O 22.2 CB 23.69 OG 25.17
A ARG S 122 -64.6 137.7 N 23.53 CA 25.36 C 23.02 O 23.85 CB 26.54 CG 34.38 CD 42.73 NE 49.2 CZ 54.73 NH1 55.86 NH2 58.4
A GLY S 27 142.4 141.0 N 19.55 CA 17.69 C 20.25 O 22.08
A LEU T 28 -64.1 -37.7 N 20.42 CA 19.18 C 20.43 O 17.99 CB 21.22 CG 22.62 CD1 18.12 CD2 25.6
A ALA T 23 -96.6 9.6 N 19.02 CA 20.48 C 21.29 O 24.29 CB 22.38
A GLU - 84 -61.9 171.6 N 18.84 CA 18.74 C 19.03 O 19.51 CB 19.52 CG 20.51 CD 29.48 OE1 27.94 OE2 34.49
A ARG - 124 -137.0 132.5 N 20.57 CA 21.2 C 20.43 O 19.29 CB 24.9 CG 36.06 CD 39.54 NE 43.61 CZ 39.02 NH1 23.78 NH2 42.44
A GLY - 4 -72.2 121.9 N 16.64 CA 17.97 C 17.46 O 20.7
A GLN S 171 -69.5 -31.3 N 18.74 CA 20.37 C 20.14 O 19.34 CB 19.0 CG 19.8 CD 29.14 OE1 25.85 NE2 31.62
A VAL S 52 -133.1 110.8 N 18.22 CA 17.2 C 15.27 O 14.62 CB 17.96 CG1 17.24 CG2 21.51
A SER E 0 -73.5 157.8 N 14.85 CA 13.87 C 14.87 O 14.88 CB 13.67 OG 17.93
A GLN E 13 -124.1 140.2 N 12.15 CA 11.76 C 10.24 O 11.59 CB 12.49 CG 18.8 CD 26.92 OE1 25.63 NE2 25.71
A LEU E 0 -127.8 131.6 N 8.71 CA 9.7 C 10.97 O 11.57 CB 12.3 CG 15.11 CD1 12.89 CD2 14.71
A ILE E 2 -132.4 138.2 N 10.16 CA 10.6 C 11.12 O 13.39 CB 10.46 CG1 16.7 CG2 17.76 CD1 21.26
A PHE E 11 -115.4 138.2 N 11.22 CA 9.81 C 11.78 O 12.11 CB 8.47 CG 8.55 CD1 14.49 CD2 10.68 CE1 12.86 CE2 9.82 CZ 10.74
A GLN E 42 -137.6 138.7 N 8.67 CA 9.17 C 10.18 O 11.01 CB 13.66 CG 22.02 CD 28.33 OE1 32.89 NE2 23.03
A THR E 31 -100.1 163.8 N 10.14 CA 9.54 C 9.45 O 9.43 CB 11.74 OG1 12.22 CG2 11.67
A PHE E 30 -160.6 149.9 N 8.92 CA 10.61 C 10.99 O 9.4 CB 9.59 CG 9.1 CD1 13.59 CD2 8.35 CE1 16.11 CE2 14.81 CZ 16.19
A ASN - 129 -88.2 155.2 N 8.75 CA 8.89 C 10.83 O 10.09 CB 10.3 CG 11.29 OD1 14.79 ND2 16.56
A TYR - 50 -150.5 163.5 N 7.85 CA 9.26 C 11.13 O 11.03 CB 9.65 CG 9.45 CD1 10.77 CD2 9.23 CE1 12.88 CE2 15.15 CZ 12.55 OH 13.37
A SER - 75 -104.6 143.3 N 13.06 CA 14.07 C 14.04 O 14.13 CB 15.46 OG 18.07
A ILE - 95 -92.1 126.0 N 10.4 CA 12.1 C 11.4 O 10.55 CB 15.5 CG1 20.22 CG2 15.16 CD1 27.92
A GLN - 77 -114.0 122.4 N 14.76 CA 16.58 C 14.71 O 15.82 CB 19.62 CG 30.69 CD 40.69 OE1 50.2 NE2 50.07
A LYS - 179 -110.7 -10.2 N 14.04 CA 13.81 C 11.26 O 10.47 CB 14.91 CG 22.76 CD 31.62 CE 41.47 NZ 42.39
A HIS S 96 -63.1 137.0 N 10.49 CA 7.94 C 9.75 O 10.73 CB 8.88 CG 12.26 ND1 15.63 CD2 17.27 CE1 18.14 NE2 18.9
A PRO - 41 -58.5 136.4 N 6.97 CA 8.91 C 11.59 O 11.12 CB 8.64 CG 11.57 CD 8.89
A VAL E 4 -91.9 154.9 N 8.58 CA 9.51 C 9.58 O 9.0 CB 10.04 CG1 14.78 CG2 7.99
A ARG E 105 -105.7 128.1 N 7.78 CA 7.11 C 8.25 O 9.65 CB 8.92 CG 12.57 CD 17.37 NE 12.63 CZ 23.5 NH1 22.55 NH2 23.77
A LEU E 3 -107.3 154.0 N 9.17 CA 9.34 C 9.05 O 8.36 CB 9.42 CG 9.2 CD1 12.24 CD2 10.45
A ILE E 30 -118.8 150.6 N 8.98 CA 7.39 C 10.03 O 10.61 CB 13.24 CG1 16.81 CG2 12.62 CD1 19.43
A SER E 25 -83.9 136.3 N 8.02 CA 9.91 C 9.3 O 11.81 CB 12.8 OG 17.41
A ILE E 6 -89.3 140.6 N 7.99 CA 9.12 C 10.8 O 12.31 CB 8.55 CG1 7.2 CG2 7.99 CD1 11.58
A ASN E 104 -76.5 -35.2 N 11.38 CA 13.22 C 11.83 O 13.04 CB 13.86 CG 22.16 OD1 20.91 ND2 23.89
A TRP E 3 -80.6 147.5 N 9.41 CA 8.36 C 9.27 O 9.1 CB 6.2 CG 9.5 CD1 8.81 CD2 7.46 NE1 10.05 CE2 11.32 CE3 10.72 CZ2 9.32 CZ3 8.98 CH2 9.98
A LEU E 38 -109.1 152.2 N 9.83 CA 9.47 C 10.35 O 12.66 CB 9.93 CG 10.61 CD1 11.23 CD2 12.65
A ARG E 16 -107.9 137.4 N 8.38 CA 9.65 C 11.77 O 9.44 CB 11.33 CG 14.4 CD 15.76 NE 17.25 CZ 18.95 NH1 11.15 NH2 18.77
A ASP - 22 -75.8 127.7 N 9.44 CA 7.39 C 8.47 O 8.82 CB 8.64 CG 10.33 OD1 10.54 OD2 11.49
A LYS T 63 -60.3 -25.4 N 10.25 CA 9.98 C 12.11 O 11.27 CB 8.37 CG 12.8 CD 17.19 CE 21.13 NZ 28.35
A ALA T 44 -77.5 -4.7 N 8.8 CA 10.31 C 12.14 O 10.86 CB 13.27
A ASN - 2 -81.3 115.6 N 8.89 CA 8.79 C 9.85 O 8.89 CB 8.27 CG 12.24 OD1 12.82 ND2 10.22
A PRO G 21 -65.8 -18.6 N 8.84 CA 11.75 C 12.59 O 14.2 CB 14.91 CG 16.95 CD 10.17
A LEU G 18 -53.6 -40.6 N 11.76 CA 12.3 C 11.25 O 13.45 CB 15.62 CG 14.59 CD1 14.53 CD2 19.92
A TYR G 18 -75.2 -8.3 N 8.04 CA 10.82 C 12.77 O 15.74 CB 11.1 CG 7.32 CD1 10.37 CD2 9.36 CE1 13.89 CE2 8.14 CZ 12.86 OH 11.77
A GLN G 73 -100.6 2.0 N 10.86 CA 12.69 C 12.97 O 14.03 CB 14.57 CG 18.09 CD 29.89 OE1 22.48 NE2 29.81
A LEU S 4 -108.0 134.1 N 11.8 CA 9.47 C 9.77 O 12.41 CB 10.39 CG 11.83 CD1 11.52 CD2 13.55
A SER B 2 -103.8 173.8 N 13.21 CA 9.71 C 11.39 O 13.07 CB 9.48 OG 11.94
A VAL S 6 -77.3 1.0 N 8.62 CA 10.85 C 10.66 O 14.16 CB 12.32 CG1 13.24 CG2 12.52
A ASN - 10 -88.3 62.6 N 7.45 CA 7.4 C 9.96 O 12.19 CB 8.94 CG 11.84 OD1 10.58 ND2 11.84
A TYR - 30 -102.7 19.9 N 9.1 CA 9.88 C 9.82 O 10.47 CB 13.64 CG 14.76 CD1 20.62 CD2 19.5 CE1 22.2 CE2 21.59 CZ 23.88 OH 23.62
A LEU H 0 -63.3 -39.0 N 7.76 CA 7.92 C 8.52 O 9.4 CB 7.39 CG 10.18 CD1 10.57 CD2 12.2
A GLU H 12 -53.4 -48.0 N 10.26 CA 12.25 C 11.04 O 10.37 CB 17.22 CG 17.27 CD 7.95 OE1 16.23 OE2 14.16
A ALA H 6 -64.6 -42.5 N 10.75 CA 10.7 C 10.32 O 11.45 CB 8.98
A ILE H 1 -54.7 -50.6 N 9.43 CA 7.68 C 7.62 O 8.37 CB 8.03 CG1 11.6 CG2 9.36 CD1 11.83
A ILE H 24 -59.9 -46.8 N 9.58 CA 10.56 C 10.64 O 8.33 CB 11.22 CG1 10.1 CG2 12.56 CD1 11.53
A ALA H 0 -59.8 -48.6 N 10.28 CA 9.68 C 9.48 O 9.89 CB 9.94
A GLN H 31 -59.8 -41.8 N 9.83 CA 9.15 C 10.09 O 11.6 CB 8.96 CG 18.42 CD 26.94 OE1 38.51 NE2 34.45
A ARG H 42 -62.3 -39.1 N 10.15 CA 12.11 C 12.17 O 11.67 CB 12.67 CG 15.45 CD 21.62 NE 21.57 CZ 20.22 NH1 29.11 NH2 19.03
A GLN H 80 -62.4 -40.4 N 10.11 CA 13.65 C 12.88 O 10.6 CB 12.88 CG 19.82 CD 19.03 OE1 19.79 NE2 20.46
A ALA H 0 -63.6 -48.5 N 10.53 CA 8.74 C 11.59 O 10.53 CB 9.93
A ILE H 88 -62.2 -36.1 N 10.29 CA 11.14 C 14.1 O 12.87 CB 13.78 CG1 18.25 CG2 17.33 CD1 21.52
A ALA H 84 -58.5 -33.2 N 10.81 CA 12.58 C 13.95 O 11.73 CB 13.67
A VAL T 108 -103.3 14.4 N 11.11 CA 13.39 C 17.04 O 18.84 CB 14.83 CG1 13.9 CG2 11.67
A GLY T 60 80.8 16.7 N 15.43 CA 17.97 C 18.82 O 21.1
A ALA - 10 -93.6 167.3 N 16.47 CA 16.39 C 14.03 O 17.58 CB 14.21
A ASP S 50 -100.7 -29.6 N 11.16 CA 9.69 C 12.49 O 13.45 CB 13.07 CG 17.44 OD1 17.95 OD2 12.16
A ASP E 10 -158.1 167.0 N 10.87 CA 10.29 C 9.78 O 9.76 CB 11.36 CG 16.88 OD1 16.07 OD2 17.66
A ALA E 0 -125.5 138.2 N 8.39 CA 9.16 C 9.88 O 9.1 CB 11.02
A LEU E 0 -106.8 127.4 N 9.7 CA 6.89 C 8.31 O 7.43 CB 9.25 CG 9.92 CD1 10.02 CD2 11.7
A PHE E 0 -99.1 151.0 N 6.53 CA 6.55 C 10.38 O 9.4 CB 8.97 CG 7.03 CD1 9.49 CD2 9.23 CE1 10.34 CE2 9.52 CZ 11.57
A PHE E 11 -125.0 153.6 N 11.22 CA 11.15 C 11.24 O 9.21 CB 9.61 CG 11.81 CD1 9.04 CD2 12.67 CE1 13.87 CE2 13.27 CZ 13.48
A ASN E 1 -91.8 174.7 N 9.1 CA 7.38 C 7.24 O 9.88 CB 5.88 CG 8.79 OD1 6.82 ND2 6.14
A THR T 41 -72.9 -6.9 N 9.76 CA 11.92 C 12.88 O 13.74 CB 13.2 OG1 11.54 CG2 11.24
A GLU T 88 -95.1 18.0 N 10.26 CA 11.19 C 11.72 O 13.73 CB 11.23 CG 21.83 CD 29.76 OE1 36.17 OE2 32.18
A ASN S 102 55.4 36.4 N 12.8 CA 14.37 C 12.68 O 12.81 CB 16.56 CG 19.57 OD1 32.65 ND2 23.6
A HIS B 36 -108.4 142.3 N 10.14 CA 10.06 C 11.04 O 8.22 CB 11.28 CG 10.93 ND1 10.39 CD2 13.21 CE1 11.26 NE2 10.79
A VAL E 0 -60.7 140.5 N 9.52 CA 9.15 C 8.65 O 10.01 CB 11.93 CG1 19.72 CG2 18.38
A THR E 1 -113.2 -82.5 N 7.26 CA 6.72 C 8.91 O 10.37 CB 6.86 OG1 10.29 CG2 10.39
A GLU E 5 -160.4 174.6 N 8.41 CA 7.97 C 9.91 O 8.51 CB 10.23 CG 12.83 CD 25.68 OE1 29.23 OE2 28.23
A THR E 0 -93.0 -160.5 N 7.89 CA 9.32 C 10.41 O 11.11 CB 10.46 OG1 9.6 CG2 10.22
A THR S 2 -76.2 -10.4 N 10.31 CA 9.1 C 12.51 O 15.48 CB 9.53 OG1 11.76 CG2 12.34
A CYS S 48 -157.7 7.6 N 10.87 CA 12.71 C 10.86 O 12.44 CB 13.37 SG 21.11
A ALA - 2 -155.8 148.9 N 11.41 CA 10.88 C 7.47 O 10.05 CB 8.32
A ASN E 1 -78.2 162.6 N 7.9 CA 8.18 C 7.65 O 7.67 CB 6.94 CG 7.48 OD1 10.21 ND2 6.52
A LEU E 1 -118.0 139.9 N 6.77 CA 6.97 C 7.41 O 7.88 CB 6.8 CG 9.91 CD1 12.69 CD2 9.98
A PHE E 0 -129.1 152.2 N 6.74 CA 5.98 C 9.93 O 8.07 CB 8.41 CG 7.04 CD1 7.31 CD2 7.49 CE1 6.84 CE2 8.6 CZ 8.28
A LEU E 0 -134.8 157.0 N 8.11 CA 8.71 C 9.94 O 8.92 CB 11.33 CG 9.15 CD1 11.09 CD2 12.23
A ILE E 0 -117.0 132.9 N 7.16 CA 8.18 C 8.23 O 10.59 CB 7.38 CG1 9.88 CG2 7.66 CD1 10.45
A GLU E 41 -143.8 122.7 N 8.51 CA 8.95 C 9.17 O 7.46 CB 12.07 CG 19.23 CD 24.84 OE1 21.04 OE2 35.18
A ASN T 116 52.4 47.2 N 8.85 CA 8.84 C 10.17 O 8.39 CB 9.59 CG 17.57 OD1 22.72 ND2 22.42
A ASN T 111 61.3 24.1 N 9.36 CA 10.93 C 12.45 O 12.58 CB 10.27 CG 10.54 OD1 13.5 ND2 14.25
A ILE E 49 -120.7 137.0 N 9.22 CA 7.67 C 8.75 O 7.92 CB 7.27 CG1 11.67 CG2 10.5 CD1 13.71
A LEU E 1 -92.4 140.3 N 9.63 CA 9.6 C 8.32 O 8.3 CB 9.84 CG 13.63 CD1 21.61 CD2 17.99
A TYR E 27 -133.7 145.3 N 7.56 CA 8.0 C 8.63 O 7.34 CB 6.56 CG 7.81 CD1 9.3 CD2 11.52 CE1 7.87 CE2 11.87 CZ 7.57 OH 11.59
A THR E 1 -152.0 146.9 N 7.4 CA 7.95 C 6.75 O 7.58 CB 8.49 OG1 8.08 CG2 7.86
A PRO - 1 -57.7 146.0 N 6.63 CA 7.51 C 9.31 O 8.61 CB 7.35 CG 9.41 CD 8.24
A ARG - 78 -70.4 152.8 N 11.86 CA 12.12 C 12.69 O 11.23 CB 15.48 CG 16.87 CD 27.96 NE 35.18 CZ 52.29 NH1 49.92 NH2 55.3
A VAL G 37 -60.9 -34.1 N 15.64 CA 17.62 C 17.02 O 21.86 CB 19.83 CG1 24.16 CG2 17.47
A GLU G 121 -64.7 -16.6 N 16.12 CA 20.6 C 18.12 O 16.61 CB 19.93 CG 30.83 CD 38.32 OE1 30.47 OE2 43.78
A ASP G 0 -72.8 -5.7 N 12.77 CA 10.59 C 12.38 O 9.88 CB 11.79 CG 13.26 OD1 14.26 OD2 12.11
A GLY T 3 93.0 56.6 N 15.44 CA 16.98 C 16.88 O 21.47
A ILE - 1 -126.4 162.1 N 14.5 CA 11.93 C 10.24 O 10.4 CB 15.11 CG1 16.12 CG2 16.33 CD1 13.98
A LEU - 2 -73.9 126.2 N 11.68 CA 11.51 C 9.77 O 10.28 CB 16.61 CG 21.61 CD1 30.53 CD2 19.79
A PRO - 47 -73.7 87.4 N 8.88 CA 11.29 C 9.25 O 9.53 CB 11.31 CG 16.32 CD 12.42
A GLY - 2 -60.9 144.6 N 8.26 CA 9.41 C 7.28 O 7.58
A ILE H 7 -67.8 -41.4 N 8.93 CA 11.41 C 7.96 O 8.1 CB 11.6 CG1 17.2 CG2 9.2 CD1 17.04
A THR H 0 -67.6 -42.8 N 7.64 CA 7.52 C 9.4 O 8.91 CB 9.05 OG1 11.09 CG2 7.89
A ARG H 11 -53.4 -50.8 N 6.36 CA 8.33 C 7.79 O 6.96 CB 7.27 CG 6.89 CD 8.69 NE 7.83 CZ 7.27 NH1 9.3 NH2 8.1
A ALA H 34 -62.9 -43.4 N 8.11 CA 10.56 C 10.31 O 8.97 CB 11.92
A ARG H 26 -57.6 -41.2 N 9.18 CA 9.17 C 9.42 O 9.18 CB 10.5 CG 15.22 CD 25.59 NE 24.01 CZ 25.29 NH1 28.26 NH2 34.38
A LEU H 0 -67.3 -43.7 N 9.78 CA 9.18 C 10.87 O 9.33 CB 10.26 CG 12.11 CD1 8.95 CD2 9.56
A ILE H 9 -55.8 -44.5 N 8.59 CA 10.1 C 10.52 O 8.78 CB 8.44 CG1 8.96 CG2 12.67 CD1 11.36
A SER H 54 -62.4 -48.1 N 9.52 CA 10.03 C 8.17 O 9.88 CB 11.67 OG 8.1
A HIS H 14 -59.8 -41.7 N 8.4 CA 8.69 C 9.78 O 10.4 CB 11.18 CG 13.33 ND1 12.51 CD2 16.54 CE1 19.32 NE2 16.84
A CYS H 0 -60.4 -45.8 N 10.93 CA 11.95 C 13.37 O 16.4 CB 13.0 SG 17.61
A GLN H 117 -59.9 -44.5 N 11.68 CA 13.37 C 12.69 O 12.06 CB 15.31 CG 25.15 CD 34.68 OE1 36.88 NE2 26.03
A GLN H 131 -61.3 -32.3 N 8.87 CA 11.54 C 13.4 O 15.06 CB 12.03 CG 10.14 CD 18.04 OE1 25.22 NE2 13.45
A HIS T 73 -104.9 19.4 N 10.51 CA 12.42 C 15.7 O 18.88 CB 14.01 CG 14.75 ND1 18.55 CD2 13.96 CE1 20.81 NE2 19.09
A LYS T 198 62.8 33.4 N 12.85 CA 15.89 C 18.58 O 16.72 CB 18.31 CG 17.26 CD 26.29 CE 26.77 NZ 26.14
A SER - 57 -65.3 122.1 N 20.75 CA 19.24 C 17.73 O 17.12 CB 18.42 OG 26.66
A VAL E 14 -135.5 116.3 N 13.97 CA 18.43 C 16.31 O 20.32 CB 16.79 CG1 19.15 CG2 15.08
A GLN E 76 -111.5 121.3 N 9.07 CA 9.73 C 10.56 O 10.03 CB 14.52 CG 19.16 CD 25.64 OE1 36.5 NE2 19.13
A GLU E 81 -94.7 104.1 N 7.62 CA 9.31 C 9.95 O 9.79 CB 9.57 CG 10.77 CD 13.63 OE1 12.51 OE2 13.7
A ILE - 53 -148.9 163.0 N 9.63 CA 11.79 C 10.29 O 9.73 CB 13.89 CG1 12.85 CG2 16.94 CD1 20.75
A SER - 31 -71.6 134.2 N 9.61 CA 8.33 C 10.36 O 9.39 CB 10.08 OG 9.69
A LEU - 0 -121.9 126.2 N 9.29 CA 9.99 C 9.66 O 10.17 CB 9.33 CG 11.09 CD1 11.94 CD2 9.42
A THR B 59 -77.1 166.1 N 10.59 CA 10.4 C 12.49 O 9.17 CB 10.23 OG1 9.47 CG2 12.58
A LYS H 73 -58.6 -36.0 N 13.39 CA 13.75 C 12.38 O 15.23 CB 13.76 CG 18.99 CD 32.09 CE 35.99 NZ 45.27
A LYS H 125 -62.0 -37.7 N 13.8 CA 18.58 C 16.19 O 13.55 CB 18.88 CG 23.28 CD 33.0 CE 38.92 NZ 35.46
A ARG H 62 -59.0 -40.8 N 14.19 CA 14.27 C 9.73 O 10.6 CB 16.45 CG 22.57 CD 24.24 NE 18.13 CZ 25.41 NH1 27.37 NH2 37.06
A ILE H 1 -74.2 -43.0 N 10.49 CA 8.36 C 12.3 O 11.87 CB 8.29 CG1 7.07 CG2 14.15 CD1 8.92
A GLU H 69 -55.3 -35.1 N 11.6 CA 15.73 C 13.56 O 17.67 CB 19.21 CG 20.94 CD 28.99 OE1 34.99 OE2 30.65
A ASP T 84 -90.2 4.5 N 11.25 CA 13.95 C 11.36 O 12.68 CB 17.87 CG 19.15 OD1 22.07 OD2 20.59
A ALA - 10 -74.0 151.4 N 9.89 CA 9.13 C 8.41 O 8.76 CB 6.85
A ASP S 69 -69.8 -40.8 N 8.17 CA 8.14 C 9.87 O 11.76 CB 9.24 CG 12.68 OD1 13.59 OD2 13.34
A ALA E 0 -152.3 159.3 N 7.6 CA 7.54 C 7.6 O 6.95 CB 10.18
A VAL E 3 -139.9 139.6 N 8.45 CA 6.47 C 6.84 O 7.46 CB 8.03 CG1 5.67 CG2 9.91
A PHE E 0 -148.8 162.5 N 8.13 CA 6.06 C 6.37 O 8.5 CB 7.67 CG 7.31 CD1 11.3 CD2 8.77 CE1 8.41 CE2 10.97 CZ 8.79
A LEU E 6 -117.6 158.5 N 7.27 CA 7.78 C 7.59 O 8.94 CB 7.66 CG 9.7 CD1 10.66 CD2 8.32
A THR E 1 -136.6 137.8 N 7.65 CA 7.78 C 8.92 O 8.1 CB 9.87 OG1 9.46 CG2 6.68
A ASN E 22 -158.1 172.2 N 8.86 CA 8.42 C 8.55 O 7.93 CB 10.07 CG 12.2 OD1 11.11 ND2 12.54
A SER T 14 -66.5 -39.4 N 8.63 CA 10.58 C 8.95 O 10.23 CB 10.18 OG 17.83
A LEU T 16 -78.5 -38.0 N 9.48 CA 11.36 C 12.54 O 11.06 CB 10.22 CG 15.78 CD1 21.87 CD2 14.13
A GLN T 35 -102.8 -13.7 N 11.08 CA 11.35 C 12.89 O 14.06 CB 12.01 CG 14.44 CD 15.01 OE1 17.93 NE2 14.16
A GLY E 15 72.6 -139.8 N 11.4 CA 13.64 C 10.1 O 11.73
A ILE E 23 -79.2 125.1 N 9.57 CA 8.19 C 9.33 O 13.85 CB 8.83 CG1 11.01 CG2 9.24 CD1 13.66
A ARG E 33 -118.8 124.7 N 8.92 CA 8.65 C 8.22 O 8.06 CB 11.85 CG 14.13 CD 18.64 NE 14.96 CZ 15.84 NH1 19.91 NH2 13.75
A ARG E 46 -73.7 151.2 N 8.43 CA 7.12 C 7.72 O 8.12 CB 7.52 CG 8.05 CD 11.13 NE 12.41 CZ 9.13 NH1 11.4 NH2 12.06
A VAL E 0 -116.2 120.0 N 7.05 CA 5.91 C 6.01 O 7.66 CB 6.11 CG1 6.83 CG2 8.86
A LEU E 46 -82.2 -37.5 N 8.98 CA 8.97 C 10.48 O 7.23 CB 10.79 CG 8.89 CD1 13.38 CD2 9.98
A SER E 2 -156.9 151.3 N 7.85 CA 9.33 C 8.4 O 8.23 CB 9.05 OG 9.75
A LEU E 2 -124.8 114.9 N 7.71 CA 6.91 C 9.18 O 9.61 CB 6.76 CG 8.7 CD1 10.06 CD2 9.98
A ASP T 52 54.4 -125.1 N 8.26 CA 9.03 C 11.66 O 10.39 CB 9.99 CG 14.6 OD1 11.69 OD2 14.44
A ASN T 129 -89.6 -1.3 N 11.68 CA 15.94 C 15.32 O 14.43 CB 18.09 CG 21.71 OD1 20.38 ND2 25.25
A ILE E 43 -89.9 124.3 N 9.73 CA 12.41 C 11.5 O 9.27 CB 15.21 CG1 19.56 CG2 14.54 CD1 19.44
A ILE E 106 -102.8 135.4 N 11.73 CA 11.09 C 9.6 O 9.7 CB 10.6 CG1 17.11 CG2 15.31 CD1 13.84
A PHE - 14 -108.0 148.7 N 8.91 CA 7.17 C 9.24 O 10.55 CB 7.41 CG 6.26 CD1 12.77 CD2 9.76 CE1 11.47 CE2 8.63 CZ 8.42
A GLU - 113 -65.7 131.3 N 9.36 CA 8.11 C 10.26 O 11.36 CB 12.1 CG 19.9 CD 27.69 OE1 26.49 OE2 16.17
A VAL - 32 -88.5 -20.2 N 9.48 CA 9.34 C 11.02 O 11.54 CB 11.02 CG1 10.55 CG2 14.3
A ASN - 98 -82.2 142.0 N 10.64 CA 11.54 C 12.07 O 12.99 CB 15.49 CG 18.45 OD1 21.16 ND2 18.37
A HIS - 22 -163.9 137.7 N 14.08 CA 11.34 C 12.58 O 13.9 CB 12.31 CG 10.74 ND1 10.66 CD2 12.55 CE1 12.7 NE2 14.75
A PRO H 97 -55.2 -32.8 N 14.84 CA 14.91 C 13.89 O 14.87 CB 15.68 CG 21.74 CD 18.12
A ILE H 17 -65.8 -38.6 N 12.08 CA 12.87 C 12.92 O 13.89 CB 12.13 CG1 13.71 CG2 14.08 CD1 14.66
A ILE H 1 -65.7 -46.5 N 11.57 CA 10.32 C 9.54 O 11.49 CB 8.8 CG1 7.13 CG2 11.34 CD1 11.31
A ASP H 83 -54.5 -44.9 N 10.67 CA 13.42 C 13.03 O 13.8 CB 13.66 CG 15.98 OD1 21.33 OD2 19.28
A LYS H 94 -64.4 -45.6 N 13.05 CA 12.21 C 12.03 O 12.38 CB 13.64 CG 18.18 CD 22.65 CE 24.13 NZ 26.91
A LEU H 1 -64.1 -37.7 N 10.17 CA 11.54 C 11.35 O 11.56 CB 13.54 CG 14.16 CD1 14.47 CD2 18.28
A ILE H 47 -62.4 -44.0 N 11.44 CA 11.59 C 11.4 O 13.21 CB 12.34 CG1 13.4 CG2 15.5 CD1 10.84
A PHE H 129 -57.1 -50.1 N 11.36 CA 14.46 C 16.97 O 17.73 CB 17.43 CG 19.0 CD1 20.88 CD2 23.93 CE1 28.51 CE2 27.84 CZ 22.43
A LEU H 4 -62.5 -45.1 N 15.0 CA 16.21 C 19.31 O 21.33 CB 15.34 CG 15.62 CD1 14.96 CD2 20.41
A LEU H 10 -65.6 -30.1 N 19.48 CA 22.44 C 27.22 O 28.61 CB 24.27 CG 27.12 CD1 26.11 CD2 24.95
A ASN H 102 -72.6 -27.0 N 28.36 CA 30.83 C 32.31 O 34.64 CB 31.11 CG 37.1 OD1 46.44 ND2 38.76
A GLN H 114 -58.4 -48.6 N 34.28 CA 38.76 C 41.22 O 40.75 CB 39.0 CG 42.4 CD 48.48 OE1 53.34 NE2 44.53
A ASP H 60 -60.0 -35.3 N 44.47 CA 47.26 C 48.55 O 48.87 CB 48.88 CG 47.7 OD1 50.49 OD2 47.39
A GLU - 51 -86.8 360.0 N 49.93 CA 50.33 C 51.06 O 51.25 CB 50.3
B PRO - 43 -93.8 10.8 N 27.2 CA 25.49 C 22.28 O 18.52 CB 25.07 CG 30.32 CD 29.9
B THR E 4 -133.8 124.5 N 20.03 CA 20.27 C 21.01 O 22.97 CB 20.24 OG1 20.63 CG2 16.56
B ARG E 139 -116.7 127.5 N 19.51 CA 20.9 C 18.48 O 16.56 CB 22.54 CG 31.54 CD 42.69 NE 49.66 CZ 56.08 NH1 60.02 NH2 56.65
B VAL E 25 -83.1 124.1 N 17.75 CA 18.98 C 20.26 O 22.44 CB 18.07 CG1 19.5 CG2 19.79
B ILE - 25 -83.9 114.5 N 20.86 CA 21.75 C 25.16 O 22.07 CB 20.64 CG1 25.3 CG2 23.83 CD1 26.54
B GLU - 114 -95.7 160.7 N 29.79 CA 32.83 C 34.65 O 34.19 CB 33.01 CG 32.4 CD 29.99 OE1 27.91 OE2 28.69
B ASP - 53 -59.9 130.6 N 39.13 CA 43.13 C 45.73 O 46.42 CB 44.19 CG 46.58 OD1 46.89 OD2 49.84
B LYS - 121 -156.7 360.0 N 48.32 CA 50.43 C 51.14 O 52.1 CB 50.9
B THR - 87 -71.9 136.6 N 49.82 CA 47.91 C 43.65 O 43.25 CB 48.21 OG1 52.55 CG2 48.41
B PRO - 11 -77.9 154.0 N 37.35 CA 33.35 C 28.61 O 27.95 CB 33.99 CG 36.83 CD 37.44
B SER - 35 -143.6 -179.5 N 23.22 CA 21.53 C 18.4 O 18.12 CB 20.47 OG 20.7
B PHE - 3 -92.9 143.9 N 15.61 CA 13.75 C 15.47 O 18.13 CB 11.14 CG 14.0 CD1 15.87 CD2 17.24 CE1 16.51 CE2 14.87 CZ 15.47
B GLY - 34 -79.2 163.1 N 13.23 CA 14.67 C 15.76 O 12.44
B ILE T 24 -71.7 -19.4 N 14.52 CA 13.4 C 13.3 O 15.78 CB 13.49 CG1 16.92 CG2 10.48 CD1 17.4
B ASP T 93 -82.7 2.7 N 12.08 CA 14.79 C 15.62 O 12.74 CB 17.11 CG 25.58 OD1 23.51 OD2 30.35
B ASP B 6 -75.1 137.8 N 11.93 CA 11.79 C 10.12 O 9.37 CB 10.79 CG 10.82 OD1 12.33 OD2 12.64
B ARG G 6 -68.5 -11.1 N 10.49 CA 11.11 C 9.55 O 6.59 CB 13.26 CG 12.37 CD 11.22 NE 10.47 CZ 12.16 NH1 13.8 NH2 12.17
B ILE G 7 -55.2 -27.6 N 9.28 CA 9.95 C 9.77 O 8.67 CB 8.68 CG1 10.82 CG2 9.91 CD1 13.08
B PHE G 7 -72.3 -7.8 N 8.53 CA 10.08 C 10.92 O 13.01 CB 12.43 CG 10.05 CD1 20.7 CD2 11.64 CE1 21.27 CE2 12.14 CZ 20.33
B LEU G 35 -101.0 -0.4 N 11.84 CA 12.98 C 10.74 O 14.16 CB 13.28 CG 17.46 CD1 23.51 CD2 23.28
B GLY T 2 98.2 4.8 N 10.33 CA 9.22 C 9.3 O 10.21
B GLU - 4 -86.4 79.3 N 7.84 CA 8.35 C 9.6 O 10.95 CB 7.48 CG 8.77 CD 9.82 OE1 12.16 OE2 10.07
B GLY E 0 -159.9 149.8 N 8.69 CA 8.4 C 8.5 O 9.15
B LEU E 1 -128.0 155.6 N 8.01 CA 9.9 C 10.97 O 9.72 CB 8.6 CG 9.12 CD1 9.69 CD2 9.97
B PHE E 19 -141.5 163.2 N 9.05 CA 11.27 C 11.13 O 9.68 CB 9.84 CG 10.22 CD1 16.37 CD2 17.46 CE1 19.54 CE2 18.1 CZ 19.19
B GLU E 2 -136.2 137.7 N 10.02 CA 8.89 C 9.75 O 10.08 CB 9.78 CG 10.98 CD 12.82 OE1 12.62 OE2 9.33
B THR E 19 -116.2 118.1 N 11.07 CA 12.57 C 12.95 O 12.14 CB 16.29 OG1 22.65 CG2 20.55
B ILE E 0 -116.3 126.5 N 11.59 CA 11.84 C 11.22 O 10.12 CB 8.71 CG1 14.0 CG2 9.24 CD1 13.52
B ARG E 46 -73.3 138.2 N 10.26 CA 11.42 C 11.43 O 12.35 CB 10.31 CG 16.75 CD 31.41 NE 38.18 CZ 43.93 NH1 43.08 NH2 45.11
B VAL E 0 -114.8 123.3 N 9.86 CA 10.26 C 13.24 O 8.01 CB 10.84 CG1 12.1 CG2 11.0
B ASN E 49 -123.3 124.4 N 12.45 CA 14.45 C 16.21 O 16.56 CB 18.18 CG 26.13 OD1 36.37 ND2 28.48
B SER T 51 51.8 42.7 N 15.85 CA 15.86 C 15.92 O 16.64 CB 18.78 OG 20.43
B SER T 44 70.9 12.0 N 12.34 CA 13.06 C 14.41 O 18.51 CB 16.62 OG 21.49
B LYS E 146 -116.6 130.2 N 16.53 CA 17.79 C 16.09 O 16.27 CB 19.76 CG 27.99 CD 40.56 CE 44.86 NZ 48.69
B PRO E 6 -69.3 127.1 N 15.34 CA 14.24 C 15.95 O 20.61 CB 13.87 CG 15.15 CD 15.93
B SER T 14 -80.5 126.2 N 15.12 CA 16.3 C 15.47 O 14.29 CB 20.07 OG 27.49
B PHE T 14 56.6 39.2 N 13.52 CA 11.82 C 13.07 O 11.21 CB 13.6 CG 20.34 CD1 24.93 CD2 29.43 CE1 29.33 CE2 31.74 CZ 26.83
B ALA H 2 -51.9 -38.3 N 10.71 CA 10.15 C 10.74 O 8.06 CB 9.49
B TYR H 112 -63.5 -51.8 N 11.2 CA 10.9 C 10.14 O 8.7 CB 13.35 CG 13.09 CD1 14.18 CD2 20.19 CE1 17.8 CE2 22.4 CZ 23.21 OH 31.59
B HIS H 1 -64.8 -45.3 N 9.87 CA 8.96 C 8.69 O 6.49 CB 7.06 CG 7.73 ND1 10.97 CD2 11.43 CE1 11.1 NE2 10.82
B TRP H 61 -59.6 -43.0 N 7.22 CA 6.47 C 7.81 O 8.22 CB 8.92 CG 9.63 CD1 9.14 CD2 10.31 NE1 10.89 CE2 11.64 CE3 11.93 CZ2 10.2 CZ3 10.48 CH2 8.38
B GLU H 76 -61.6 -49.7 N 8.87 CA 8.22 C 8.29 O 9.48 CB 9.69 CG 14.81 CD 20.11 OE1 20.19 OE2 23.27
B ARG H 22 -64.8 -45.0 N 9.04 CA 6.91 C 7.74 O 9.72 CB 9.82 CG 11.2 CD 9.37 NE 8.77 CZ 13.84 NH1 13.14 NH2 10.1
B LEU H 1 -59.4 -43.4 N 8.76 CA 11.07 C 10.47 O 10.05 CB 9.45 CG 9.93 CD1 9.36 CD2 11.46
B GLY H 5 -67.4 -40.6 N 9.78 CA 11.93 C 11.22 O 10.01
B ASN H 81 -60.2 -45.3 N 11.24 CA 11.42 C 10.48 O 9.56 CB 12.23 CG 16.69 OD1 19.94 ND2 15.98
B SER H 12 -63.8 -42.7 N 8.92 CA 9.23 C 10.98 O 11.39 CB 10.83 OG 12.82
B ALA H 0 -59.2 -48.2 N 8.49 CA 9.95 C 10.85 O 13.93 CB 7.76
B ARG H 168 -55.3 -44.3 N 10.98 CA 12.66 C 14.81 O 13.39 CB 14.59 CG 24.33 CD 32.25 NE 40.06 CZ 37.47 NH1 39.36 NH2 35.46
B GLN H 120 -63.8 -34.6 N 15.59 CA 15.81 C 13.88 O 18.16 CB 16.01 CG 24.74 CD 30.9 OE1 31.37 NE2 19.87
B LEU T 12 -90.4 -1.2 N 12.47 CA 13.95 C 14.83 O 15.59 CB 14.63 CG 13.59 CD1 11.33 CD2 13.2
B GLY T 33 72.3 16.1 N 14.38 CA 13.9 C 14.01 O 16.05
B ILE - 8 -87.4 123.5 N 13.08 CA 11.89 C 11.74 O 12.43 CB 10.5 CG1 15.65 CG2 16.29 CD1 15.07
B PRO - 32 -56.4 141.9 N 13.94 CA 14.68 C 15.1 O 15.51 CB 15.39 CG 15.57 CD 17.84
B PHE - 27 -138.9 71.2 N 13.87 CA 15.59 C 17.2 O 17.67 CB 11.94 CG 10.83 CD1 14.04 CD2 11.35 CE1 15.23 CE2 11.58 CZ 14.46
B GLU - 125 -99.9 67.0 N 18.76 CA 21.11 C 21.01 O 23.56 CB 25.44 CG 30.89 CD 44.04 OE1 50.09 OE2 49.14
B ILE - 18 -132.7 126.2 N 15.78 CA 13.15 C 10.86 O 11.31 CB 16.53 CG1 13.99 CG2 17.1 CD1 17.77
B SER - 56 -71.9 160.3 N 11.68 CA 10.56 C 9.76 O 9.14 CB 12.03 OG 6.71
B PHE H 57 -58.1 -44.7 N 9.21 CA 8.68 C 8.2 O 9.78 CB 8.06 CG 8.59 CD1 8.61 CD2 16.73 CE1 6.81 CE2 19.33 CZ 16.8
B ASP H 121 -59.4 -42.9 N 7.88 CA 10.13 C 10.01 O 9.78 CB 11.26 CG 16.36 OD1 20.35 OD2 21.38
B ASP H 93 -67.1 -40.0 N 9.7 CA 12.17 C 10.78 O 10.18 CB 13.49 CG 18.56 OD1 25.97 OD2 26.34
B TRP H 0 -56.1 -53.0 N 8.53 CA 9.29 C 10.36 O 9.27 CB 8.22 CG 8.08 CD1 10.77 CD2 8.64 NE1 7.42 CE2 9.92 CE3 10.17 CZ2 10.23 CZ3 10.53 CH2 11.34
B PHE H 78 -59.7 -45.9 N 9.36 CA 11.36 C 10.79 O 11.19 CB 12.07 CG 11.98 CD1 13.1 CD2 17.88 CE1 15.49 CE2 18.44 CZ 13.83
B GLU H 93 -58.1 -41.4 N 12.97 CA 13.86 C 14.13 O 15.04 CB 14.34 CG 17.34 CD 25.83 OE1 26.24 OE2 13.15
B HIS H 43 -61.3 -41.1 N 11.58 CA 14.52 C 12.78 O 14.22 CB 13.28 CG 16.14 ND1 22.85 CD2 16.38 CE1 20.75 NE2 22.6
B LEU H 0 -62.8 -45.5 N 12.57 CA 13.97 C 14.22 O 12.9 CB 11.78 CG 14.69 CD1 11.51 CD2 12.55
B ILE H 26 -63.7 -41.1 N 13.45 CA 14.46 C 14.49 O 13.86 CB 14.49 CG1 18.29 CG2 18.53 CD1 17.86
B GLN H 88 -67.8 -32.7 N 14.42 CA 15.14 C 15.0 O 14.73 CB 16.67 CG 23.27 CD 29.11 OE1 34.72 NE2 33.27
B LYS H 15 -68.1 -46.9 N 13.62 CA 14.54 C 15.28 O 18.28 CB 18.08 CG 22.54 CD 24.97 CE 25.06 NZ 26.54
B ILE H 3 -57.7 -48.6 N 14.09 CA 14.81 C 16.89 O 16.73 CB 15.83 CG1 16.12 CG2 17.1 CD1 14.74
B GLN H 114 -62.1 -46.2 N 15.81 CA 18.05 C 18.3 O 18.89 CB 17.45 CG 25.23 CD 34.48 OE1 39.37 NE2 27.33
B LYS H 107 -65.6 -40.8 N 19.17 CA 19.05 C 18.89 O 18.11 CB 18.52 CG 29.68 CD 37.55 CE 44.47 NZ 47.16
B ASP T 52 -90.8 5.9 N 18.65 CA 17.82 C 19.27 O 19.49 CB 18.64 CG 19.66 OD1 21.75 OD2 20.52
B ASN T 146 56.8 37.6 N 17.84 CA 18.71 C 17.39 O 18.16 CB 21.2 CG 29.57 OD1 42.95 ND2 30.25
B LEU - 5 -80.5 137.1 N 13.52 CA 13.51 C 16.25 O 18.1 CB 15.31 CG 17.02 CD1 16.78 CD2 13.26
B TYR S 136 -112.9 -72.9 N 13.99 CA 13.12 C 12.93 O 14.88 CB 11.09 CG 13.15 CD1 13.02 CD2 13.8 CE1 16.27 CE2 16.24 CZ 14.74 OH 17.22
B HIS S 107 -101.7 140.6 N 12.42 CA 12.28 C 11.78 O 10.24 CB 14.59 CG 20.3 ND1 18.07 CD2 17.31 CE1 19.11 NE2 18.92
B GLY E 3 161.9 -150.9 N 9.84 CA 8.0 C 9.05 O 10.0
B GLY E 0 -137.0 160.2 N 8.07 CA 9.25 C 9.92 O 9.19
B ILE E 0 -129.1 132.6 N 12.44 CA 13.98 C 13.37 O 12.4 CB 16.23 CG1 23.15 CG2 18.84 CD1 27.16
B LYS E 47 -107.8 126.4 N 12.55 CA 11.97 C 12.92 O 13.15 CB 12.85 CG 17.59 CD 18.59 CE 19.96 NZ 19.1
B ALA E 0 -104.7 128.2 N 12.45 CA 10.36 C 11.86 O 11.24 CB 11.93
B ILE E 11 -119.0 125.5 N 10.87 CA 9.2 C 9.86 O 10.49 CB 9.55 CG1 16.01 CG2 11.31 CD1 16.54
B LEU E 0 -111.6 118.7 N 11.15 CA 10.21 C 9.65 O 10.06 CB 10.79 CG 8.79 CD1 10.1 CD2 12.46
B SER E 0 -100.3 154.4 N 10.87 CA 11.24 C 10.41 O 10.74 CB 9.98 OG 11.22
B GLY - 1 -63.5 -25.8 N 12.37 CA 10.53 C 13.13 O 14.47
B GLY - 0 98.3 172.8 N 13.64 CA 13.9 C 14.02 O 11.82
B PRO B 53 -58.3 140.5 N 16.71 CA 17.59 C 16.32 O 19.07 CB 17.46 CG 22.83 CD 20.9
B ALA - 28 -159.1 162.9 N 16.59 CA 16.97 C 19.51 O 19.1 CB 18.14
B SER - 92 -64.4 158.4 N 20.4 CA 22.84 C 23.35 O 22.13 CB 23.64 OG 20.82
B ARG S 128 -66.7 141.8 N 25.11 CA 24.33 C 20.83 O 20.05 CB 25.8 CG 32.96 CD 42.0 NE 51.15 CZ 55.25 NH1 56.54 NH2 59.82
B GLY S 28 141.6 137.6 N 18.8 CA 18.85 C 18.84 O 17.6
B LEU T 35 -60.4 -35.2 N 16.89 CA 16.21 C 18.3 O 19.01 CB 16.46 CG 20.2 CD1 19.86 CD2 23.84
B ALA T 23 -107.1 13.7 N 19.2 CA 21.17 C 20.68 O 23.05 CB 21.5
B GLU - 89 -64.3 166.9 N 17.43 CA 17.87 C 18.26 O 16.84 CB 17.68 CG 23.82 CD 29.21 OE1 24.98 OE2 31.25
B ARG - 132 -130.7 129.9 N 19.23 CA 21.04 C 20.02 O 20.03 CB 24.64 CG 36.87 CD 40.7 NE 41.22 CZ 37.74 NH1 22.36 NH2 39.47
B GLY - 4 -78.6 125.9 N 16.63 CA 15.67 C 15.09 O 15.94
B GLN S 168 -71.6 -33.0 N 16.17 CA 18.0 C 18.4 O 18.73 CB 20.21 CG 25.17 CD 34.19 OE1 37.86 NE2 35.91
B VAL S 50 -126.8 112.5 N 16.07 CA 15.2 C 12.7 O 12.74 CB 17.79 CG1 14.27 CG2 17.85
B SER E 0 -76.4 158.3 N 11.26 CA 11.29 C 10.91 O 12.96 CB 11.69 OG 10.89
B GLN E 14 -126.1 136.8 N 12.46 CA 9.98 C 10.01 O 10.44 CB 11.52 CG 15.43 CD 25.32 OE1 22.39 NE2 20.74
B LEU E 0 -121.8 131.7 N 10.12 CA 10.26 C 10.67 O 14.12 CB 8.55 CG 16.59 CD1 13.21 CD2 16.41
B ILE E 1 -123.8 135.6 N 9.29 CA 10.64 C 12.19 O 14.56 CB 12.32 CG1 13.04 CG2 12.06 CD1 14.08
B PHE E 9 -111.5 136.5 N 13.26 CA 11.94 C 13.69 O 12.3 CB 10.6 CG 13.59 CD1 16.08 CD2 12.93 CE1 14.16 CE2 13.92 CZ 13.17
B GLN E 47 -137.2 135.6 N 12.42 CA 11.97 C 12.85 O 12.33 CB 15.43 CG 23.72 CD 29.41 OE1 37.13 NE2 22.37
B THR E 28 -96.6 160.7 N 14.46 CA 13.49 C 13.87 O 13.65 CB 14.69 OG1 15.85 CG2 14.53
B PHE E 35 -158.2 158.4 N 12.3 CA 11.15 C 11.68 O 9.78 CB 12.45 CG 12.54 CD1 12.09 CD2 11.22 CE1 12.99 CE2 12.42 CZ 16.03
B ASN - 117 -108.9 143.5 N 12.66 CA 12.79 C 15.37 O 16.15 CB 13.04 CG 15.46 OD1 25.02 ND2 13.82
B TYR - 38 -156.2 157.4 N 15.51 CA 14.09 C 15.02 O 12.73 CB 15.82 CG 13.04 CD1 15.07 CD2 9.58 CE1 16.88 CE2 16.16 CZ 16.19 OH 18.58
B SER - 97 -96.1 134.6 N 17.94 CA 18.31 C 19.75 O 20.78 CB 21.7 OG 24.53
B ILE - 78 -70.9 122.3 N 20.36 CA 22.23 C 20.64 O 20.68 CB 24.22 CG1 26.69 CG2 23.14 CD1 32.1
B GLN - 78 -82.9 122.8 N 23.21 CA 24.2 C 24.73 O 30.65 CB 24.08 CG 35.09 CD 44.15 OE1 51.59 NE2 51.66
B LYS - 189 -108.9 -12.8 N 25.88 CA 25.58 C 23.71 O 27.1 CB 26.55 CG 30.22 CD 34.48 CE 41.74 NZ 42.0
B HIS S 109 -61.8 137.5 N 21.58 CA 21.09 C 19.21 O 17.92 CB 22.33 CG 24.48 ND1 24.93 CD2 27.05 CE1 26.94 NE2 29.47
B PRO - 39 -68.3 150.2 N 15.62 CA 13.95 C 13.27 O 13.01 CB 12.86 CG 18.95 CD 13.49
B VAL E 4 -91.5 145.5 N 14.49 CA 12.9 C 12.07 O 10.01 CB 14.91 CG1 22.52 CG2 14.95
B ARG E 101 -103.6 127.5 N 11.2 CA 11.85 C 12.09 O 11.93 CB 12.08 CG 16.86 CD 15.8 NE 22.52 CZ 18.29 NH1 14.52 NH2 21.72
B LEU E 4 -112.4 149.9 N 9.39 CA 10.24 C 9.04 O 7.29 CB 9.18 CG 8.94 CD1 9.34 CD2 10.71
B ILE E 30 -124.2 149.2 N 8.92 CA 9.37 C 9.96 O 11.54 CB 11.6 CG1 16.8 CG2 11.33 CD1 23.15
B SER E 27 -84.9 136.4 N 9.88 CA 11.45 C 11.49 O 12.95 CB 14.12 OG 18.65
B ILE E 7 -85.1 143.6 N 8.89 CA 7.8 C 9.18 O 10.92 CB 8.68 CG1 12.28 CG2 6.78 CD1 9.88
B ASN E 110 -81.3 -34.1 N 11.46 CA 15.43 C 13.65 O 16.14 CB 15.45 CG 22.21 OD1 19.45 ND2 27.71
B TRP E 2 -77.5 146.9 N 11.13 CA 9.25 C 9.5 O 10.76 CB 7.11 CG 9.69 CD1 10.56 CD2 7.2 NE1 10.08 CE2 7.46 CE3 10.67 CZ2 8.7 CZ3 7.81 CH2 10.18
B LEU E 40 -107.6 155.7 N 9.27 CA 9.82 C 9.63 O 9.6 CB 9.58 CG 10.42 CD1 10.9 CD2 11.8
B ARG E 15 -109.2 136.9 N 6.99 CA 7.8 C 10.03 O 10.1 CB 9.14 CG 9.45 CD 15.86 NE 19.54 CZ 13.87 NH1 13.01 NH2 15.52
B ASP - 21 -76.2 122.9 N 9.77 CA 9.03 C 6.86 O 7.8 CB 10.95 CG 9.21 OD1 11.13 OD2 9.02
B LYS T 68 -59.2 -18.3 N 10.52 CA 10.57 C 10.59 O 11.87 CB 9.03 CG 14.69 CD 18.44 CE 20.39 NZ 32.39
B ALA T 43 -83.4 -6.0 N 8.72 CA 9.22 C 10.38 O 11.33 CB 13.0
B ASN - 2 -79.2 115.4 N 10.28 CA 10.39 C 11.2 O 9.42 CB 8.69 CG 12.35 OD1 10.43 ND2 9.51
B PRO G 25 -66.6 -17.8 N 8.08 CA 11.76 C 11.89 O 11.26 CB 12.76 CG 11.95 CD 10.9
B LEU G 17 -54.9 -34.2 N 11.77 CA 10.61 C 10.23 O 11.24 CB 11.12 CG 20.72 CD1 17.62 CD2 22.54
B TYR G 25 -81.1 -4.3 N 7.79 CA 8.06 C 11.62 O 14.36 CB 9.85 CG 9.98 CD1 11.81 CD2 9.64 CE1 14.04 CE2 11.42 CZ 12.31 OH 11.91
B GLN G 74 -107.8 8.2 N 9.76 CA 10.89 C 12.42 O 13.69 CB 12.86 CG 20.99 CD 34.14 OE1 31.12 NE2 36.56
B LEU S 3 -114.2 135.2 N 11.56 CA 11.83 C 12.8 O 11.82 CB 10.17 CG 13.68 CD1 16.67 CD2 13.29
B SER B 1 -103.0 171.1 N 13.13 CA 10.98 C 9.4 O 13.51 CB 12.76 OG 12.36
B VAL S 6 -73.5 -0.8 N 8.49 CA 9.08 C 9.19 O 13.63 CB 10.38 CG1 13.75 CG2 12.35
B ASN - 21 -87.1 63.0 N 9.04 CA 9.42 C 11.88 O 12.75 CB 11.28 CG 13.4 OD1 12.03 ND2 11.16
B TYR - 28 -99.6 11.9 N 8.76 CA 10.02 C 9.74 O 10.34 CB 12.1 CG 15.97 CD1 20.73 CD2 19.46 CE1 23.89 CE2 22.28 CZ 22.68 OH 22.7
B LEU H 0 -56.2 -39.1 N 6.93 CA 7.6 C 6.88 O 8.04 CB 6.58 CG 7.38 CD1 10.73 CD2 10.48
B GLU H 11 -55.3 -46.6 N 7.18 CA 9.63 C 10.96 O 10.16 CB 11.71 CG 11.89 CD 10.51 OE1 12.28 OE2 12.33
B ALA H 5 -63.2 -42.5 N 13.22 CA 12.16 C 10.93 O 10.37 CB 11.46
B ILE H 0 -59.7 -49.7 N 9.72 CA 9.37 C 9.63 O 11.47 CB 8.72 CG1 8.33 CG2 7.63 CD1 10.79
B ILE H 21 -59.5 -47.3 N 8.98 CA 10.86 C 10.52 O 12.74 CB 8.68 CG1 9.13 CG2 11.03 CD1 6.78
B ALA H 0 -60.8 -44.8 N 9.38 CA 10.36 C 10.9 O 11.44 CB 9.26
B GLN H 30 -65.4 -41.8 N 11.55 CA 12.47 C 11.57 O 12.83 CB 14.8 CG 20.69 CD 26.85 OE1 29.68 NE2 30.42
B ARG H 35 -56.9 -36.1 N 10.48 CA 11.35 C 12.43 O 12.92 CB 13.78 CG 14.81 CD 20.33 NE 23.02 CZ 19.94 NH1 30.45 NH2 21.1
B GLN H 78 -68.1 -43.3 N 12.79 CA 15.33 C 12.39 O 12.84 CB 16.66 CG 21.14 CD 22.73 OE1 31.48 NE2 25.73
B ALA H 0 -53.7 -53.4 N 11.23 CA 14.12 C 15.2 O 15.95 CB 14.08
B ILE H 89 -58.6 -40.2 N 14.72 CA 15.96 C 17.73 O 16.78 CB 16.21 CG1 20.36 CG2 23.04 CD1 23.58
B ALA H 85 -61.7 -31.4 N 15.07 CA 16.56 C 15.66 O 13.84 CB 15.18
B VAL T 101 -101.0 17.9 N 17.32 CA 17.41 C 19.02 O 19.63 CB 16.08 CG1 18.25 CG2 15.81
B GLY T 61 91.5 -0.0 N 19.55 CA 19.18 C 21.25 O 22.85
B ALA - 10 -97.8 -178.7 N 16.38 CA 17.31 C 15.83 O 19.92 CB 15.43
B ASP S 54 -108.2 -34.8 N 14.46 CA 13.78 C 15.9 O 18.25 CB 12.94 CG 19.43 OD1 16.9 OD2 12.74
B ASP E 10 -154.2 168.2 N 15.51 CA 12.22 C 12.31 O 11.26 CB 12.15 CG 19.33 OD1 20.27 OD2 22.54
B ALA E 0 -119.7 144.5 N 8.58 CA 7.65 C 6.59 O 12.56 CB 7.02
B LEU E 0 -113.7 126.4 N 8.68 CA 8.29 C 7.44 O 8.34 CB 7.71 CG 10.49 CD1 7.1 CD2 11.23
B PHE E 0 -98.5 148.1 N 7.76 CA 8.31 C 9.93 O 11.1 CB 9.04 CG 7.36 CD1 7.41 CD2 9.07 CE1 11.09 CE2 13.11 CZ 10.84
B PHE E 13 -119.8 152.0 N 10.56 CA 10.78 C 11.01 O 10.91 CB 10.73 CG 8.87 CD1 10.18 CD2 11.02 CE1 14.28 CE2 12.97 CZ 12.23
B ASN E 1 -89.5 175.3 N 8.01 CA 7.68 C 10.18 O 11.12 CB 9.36 CG 10.97 OD1 11.28 ND2 10.92
B THR T 48 -72.9 -2.6 N 10.68 CA 9.18 C 13.36 O 12.8 CB 11.3 OG1 11.38 CG2 8.21
B GLU T 84 -98.4 12.9 N 12.72 CA 15.06 C 15.18 O 14.56 CB 13.75 CG 21.49 CD 31.93 OE1 39.87 OE2 33.63
B ASN S 103 58.7 33.8 N 13.48 CA 14.48 C 12.59 O 14.78 CB 15.09 CG 19.37 OD1 26.47 ND2 17.04
B HIS - 41 -106.6 140.3 N 10.61 CA 10.73 C 11.77 O 12.53 CB 8.41 CG 13.66 ND1 12.66 CD2 16.91 CE1 13.86 NE2 18.93
B VAL E 0 -57.8 139.2 N 10.31 CA 11.43 C 9.13 O 11.93 CB 14.13 CG1 19.54 CG2 12.25
B THR E 1 -111.8 -80.8 N 7.99 CA 10.55 C 10.95 O 12.78 CB 10.54 OG1 11.0 CG2 9.76
B GLU E 5 -160.9 175.6 N 12.39 CA 9.87 C 9.03 O 9.79 CB 11.03 CG 14.0 CD 26.92 OE1 28.1 OE2 25.74
B THR E 0 -90.8 -165.4 N 7.89 CA 9.02 C 12.01 O 10.38 CB 11.89 OG1 9.95 CG2 11.76
B THR S 1 -67.3 -18.6 N 10.14 CA 11.04 C 15.16 O 15.61 CB 9.75 OG1 10.83 CG2 14.43
B CYS S 48 -151.0 11.6 N 11.31 CA 13.07 C 11.87 O 12.13 CB 13.9 SG 22.34
B ALA - 3 -159.3 150.2 N 11.08 CA 10.44 C 11.05 O 11.79 CB 8.56
B ASN E 1 -81.3 157.9 N 8.92 CA 9.63 C 8.5 O 10.2 CB 7.96 CG 8.01 OD1 10.57 ND2 9.87
B LEU E 1 -114.1 139.7 N 7.74 CA 8.22 C 7.88 O 6.5 CB 8.82 CG 9.66 CD1 13.91 CD2 12.34
B PHE E 0 -128.6 150.5 N 7.72 CA 10.28 C 10.03 O 10.54 CB 9.7 CG 7.7 CD1 8.81 CD2 12.6 CE1 8.33 CE2 9.67 CZ 10.72
B LEU E 1 -132.1 164.2 N 10.34 CA 10.69 C 8.06 O 9.42 CB 15.29 CG 13.5 CD1 14.03 CD2 10.11
B ILE E 0 -125.0 127.8 N 7.92 CA 6.49 C 6.51 O 8.56 CB 7.06 CG1 7.42 CG2 7.98 CD1 9.68
B GLU E 38 -139.2 129.1 N 10.11 CA 11.86 C 10.78 O 8.04 CB 12.57 CG 20.12 CD 29.41 OE1 30.23 OE2 35.41
B ASN T 116 48.3 47.7 N 9.69 CA 10.9 C 9.95 O 7.9 CB 12.06 CG 16.06 OD1 14.52 ND2 9.47
B ASN T 112 61.2 20.0 N 9.16 CA 9.1 C 8.85 O 10.32 CB 8.66 CG 7.63 OD1 9.12 ND2 7.74
B ILE E 49 -116.0 136.6 N 10.58 CA 7.88 C 9.21 O 7.46 CB 9.15 CG1 12.86 CG2 7.58 CD1 16.66
B LEU E 1 -90.8 137.4 N 7.52 CA 8.05 C 7.45 O 9.01 CB 9.44 CG 12.6 CD1 15.66 CD2 16.93
B TYR E 31 -130.4 145.6 N 8.05 CA 8.58 C 10.16 O 9.74 CB 9.74 CG 9.8 CD1 11.25 CD2 15.75 CE1 12.24 CE2 16.96 CZ 12.51 OH 14.77
B THR E 1 -153.1 146.5 N 10.04 CA 8.53 C 7.41 O 9.79 CB 8.99 OG1 11.25 CG2 9.14
B PRO - 2 -56.4 147.5 N 9.09 CA 10.81 C 10.14 O 10.16 CB 7.52 CG 7.66 CD 7.87
B ARG - 67 -68.9 152.2 N 13.17 CA 15.5 C 17.76 O 16.49 CB 18.94 CG 21.34 CD 25.16 NE 31.17 CZ 30.93 NH1 33.06 NH2 30.9
B VAL G 48 -54.8 -38.3 N 18.5 CA 21.99 C 19.88 O 22.47 CB 23.96 CG1 25.85 CG2 25.22
B GLU G 117 -68.4 -12.0 N 21.07 CA 23.13 C 22.06 O 21.83 CB 22.97 CG 32.06 CD 37.9 OE1 32.01 OE2 44.89
B ASP G 0 -74.0 -7.0 N 14.33 CA 12.22 C 11.79 O 12.01 CB 12.34 CG 14.31 OD1 14.47 OD2 12.02
B GLY T 3 94.1 49.3 N 14.61 CA 17.11 C 17.3 O 19.37
B ILE - 1 -112.3 162.1 N 16.51 CA 14.04 C 12.99 O 14.71 CB 15.34 CG1 14.16 CG2 18.99 CD1 12.35
B LEU - 2 -73.2 123.6 N 12.23 CA 13.47 C 13.39 O 12.63 CB 16.39 CG 20.63 CD1 17.11 CD2 16.66
B PRO - 48 -74.8 85.1 N 14.57 CA 15.91 C 13.53 O 13.61 CB 18.64 CG 21.3 CD 13.73
B GLY - 1 -63.9 147.9 N 11.01 CA 8.76 C 8.59 O 10.18
B ILE H 6 -68.0 -40.1 N 10.08 CA 11.75 C 8.64 O 10.01 CB 10.85 CG1 13.98 CG2 9.37 CD1 11.4
B THR H 0 -68.5 -45.0 N 9.94 CA 8.52 C 10.73 O 11.55 CB 11.38 OG1 11.03 CG2 10.54
B ARG H 12 -50.8 -51.2 N 11.03 CA 10.46 C 10.32 O 9.06 CB 9.51 CG 11.54 CD 11.66 NE 9.47 CZ 9.91 NH1 13.49 NH2 13.57
B ALA H 33 -60.1 -43.3 N 9.4 CA 11.72 C 13.06 O 13.16 CB 12.5
B ARG H 29 -63.1 -42.4 N 10.62 CA 11.1 C 11.06 O 9.72 CB 10.82 CG 16.1 CD 20.22 NE 23.42 CZ 24.97 NH1 23.61 NH2 34.24
B LEU H 0 -62.8 -46.2 N 11.16 CA 10.62 C 11.85 O 12.38 CB 10.88 CG 9.45 CD1 2.0 CD2 8.72
B ILE H 9 -57.5 -44.8 N 11.74 CA 11.28 C 11.35 O 13.36 CB 12.51 CG1 10.75 CG2 15.86 CD1 11.13
B SER H 56 -59.4 -49.8 N 11.63 CA 12.39 C 11.41 O 12.95 CB 13.35 OG 10.99
B HIS H 17 -53.6 -43.7 N 11.77 CA 11.87 C 10.83 O 12.86 CB 12.73 CG 15.19 ND1 18.08 CD2 17.67 CE1 22.67 NE2 17.12
B CYS H 0 -64.4 -43.4 N 11.4 CA 12.61 C 13.13 O 17.59 CB 10.93 SG 14.1
B GLN H 120 -61.7 -43.9 N 14.29 CA 16.46 C 14.6 O 17.04 CB 16.93 CG 22.26 CD 29.52 OE1 33.07 NE2 33.4
B GLN H 139 -63.4 -36.6 N 12.6 CA 14.99 C 15.05 O 15.48 CB 16.46 CG 19.3 CD 26.11 OE1 33.22 NE2 29.22
B HIS T 78 -93.4 8.6 N 16.02 CA 14.42 C 15.51 O 17.83 CB 13.37 CG 14.63 ND1 20.19 CD2 18.6 CE1 21.7 NE2 17.14
B LYS T 117 46.3 42.0 N 16.38 CA 16.89 C 19.33 O 16.29 CB 18.48 CG 14.6
B SER - 57 -67.8 125.6 N 18.98 CA 17.82 C 17.21 O 10.66 CB 21.21 OG 22.88
B VAL E 20 -136.2 128.1 N 15.61 CA 16.2 C 17.44 O 21.34 CB 18.37 CG1 18.26 CG2 14.27
B GLN E 79 -120.6 121.5 N 12.92 CA 12.1 C 13.09 O 13.83 CB 14.45 CG 19.91 CD 26.8 OE1 37.13 NE2 22.04
B GLU E 78 -93.2 98.4 N 11.53 CA 11.19 C 13.18 O 13.65 CB 10.67 CG 13.73 CD 10.77 OE1 16.19 OE2 16.3
B ILE - 54 -141.6 164.8 N 11.99 CA 13.65 C 11.91 O 11.59 CB 15.17 CG1 18.09 CG2 16.55 CD1 20.19
B SER - 36 -77.5 132.1 N 12.69 CA 13.14 C 14.23 O 14.01 CB 11.16 OG 14.89
B LEU - 0 -122.0 126.7 N 12.2 CA 11.4 C 12.38 O 10.39 CB 13.17 CG 11.18 CD1 13.7 CD2 12.14
B THR - 58 -82.9 170.6 N 12.3 CA 15.35 C 15.71 O 16.21 CB 16.67 OG1 16.99 CG2 16.64
B LYS H 77 -63.7 -35.9 N 15.36 CA 14.93 C 15.68 O 16.06 CB 17.73 CG 21.61 CD 30.91 CE 36.68 NZ 45.93
B LYS H 127 -60.7 -37.9 N 13.67 CA 17.37 C 16.57 O 17.86 CB 19.39 CG 25.27 CD 32.97 CE 38.99 NZ 36.38
B ARG H 61 -59.2 -40.4 N 16.09 CA 15.57 C 14.09 O 13.86 CB 16.53 CG 22.19 CD 25.26 NE 26.13 CZ 31.08 NH1 27.74 NH2 38.43
B ILE H 1 -67.3 -47.7 N 10.81 CA 16.73 C 17.83 O 17.65 CB 18.41 CG1 23.4 CG2 17.01 CD1 20.88
B GLU H 65 -58.4 -36.1 N 16.38 CA 18.42 C 17.21 O 23.09 CB 19.45 CG 21.79 CD 27.79 OE1 29.55 OE2 31.41
B ASP T 80 -85.9 -1.6 N 15.44 CA 14.97 C 13.93 O 14.8 CB 16.1 CG 23.62 OD1 24.95 OD2 23.31
B ALA - 10 -66.1 152.7 N 12.98 CA 11.79 C 10.79 O 14.07 CB 11.18
B ASP S 72 -74.1 -39.8 N 8.04 CA 10.55 C 11.2 O 11.71 CB 9.16 CG 11.47 OD1 12.17 OD2 10.96
B ALA E 0 -151.3 161.0 N 9.72 CA 7.34 C 8.71 O 6.95 CB 10.52
B VAL E 3 -141.2 140.0 N 8.74 CA 8.27 C 9.58 O 10.34 CB 10.68 CG1 5.81 CG2 11.58
B PHE E 0 -152.6 162.6 N 11.83 CA 7.19 C 7.95 O 9.27 CB 7.89 CG 8.96 CD1 7.46 CD2 8.93 CE1 9.73 CE2 12.7 CZ 10.81
B LEU E 6 -119.4 158.6 N 8.6 CA 8.68 C 11.23 O 9.54 CB 9.01 CG 10.62 CD1 12.25 CD2 9.28
B THR E 0 -136.2 139.1 N 8.88 CA 10.06 C 8.67 O 8.71 CB 9.2 OG1 10.32 CG2 6.68
B ASN E 22 -160.9 171.9 N 8.58 CA 9.61 C 9.54 O 9.16 CB 9.9 CG 13.41 OD1 15.26 ND2 14.6
B SER T 10 -70.5 -37.2 N 9.0 CA 9.86 C 9.85 O 11.09 CB 13.24 OG 19.02
B LEU T 23 -77.1 -38.8 N 9.28 CA 11.81 C 13.16 O 13.59 CB 12.39 CG 15.99 CD1 24.0 CD2 14.86
B GLN T 23 -101.9 -13.3 N 11.53 CA 13.4 C 14.08 O 13.69 CB 15.97 CG 20.91 CD 29.93 OE1 32.09 NE2 28.78
B GLY E 11 65.6 -132.4 N 11.69 CA 13.02 C 11.92 O 13.23
B ILE E 23 -90.0 131.5 N 10.08 CA 10.24 C 10.84 O 13.15 CB 10.44 CG1 12.52 CG2 10.85 CD1 12.88
B ARG E 28 -122.6 126.6 N 10.57 CA 10.67 C 12.1 O 11.22 CB 15.26 CG 21.31 CD 24.09 NE 22.35 CZ 20.73 NH1 28.51 NH2 24.19
B ARG E 44 -77.5 146.7 N 10.03 CA 8.9 C 8.24 O 10.89 CB 10.0 CG 10.73 CD 14.21 NE 19.48 CZ 15.77 NH1 15.99 NH2 18.38
B VAL E 0 -108.3 122.3 N 6.34 CA 7.51 C 7.44 O 9.13 CB 8.73 CG1 9.1 CG2 9.64
B LEU E 46 -83.0 -36.6 N 8.59 CA 9.78 C 9.73 O 11.22 CB 12.5 CG 12.28 CD1 15.99 CD2 16.95
B SER E 3 -160.9 154.1 N 7.47 CA 9.84 C 10.0 O 8.33 CB 9.02 OG 9.6
B LEU E 2 -126.7 119.4 N 9.88 CA 9.51 C 10.66 O 12.15 CB 8.99 CG 8.39 CD1 9.58 CD2 8.46
B ASP T 49 53.2 -124.2 N 12.14 CA 9.43 C 13.97 O 14.78 CB 10.11 CG 11.4 OD1 9.61 OD2 10.57
B ASN T 145 -98.3 45.1 N 13.28 CA 19.53 C 19.64 O 19.29 CB 21.33 CG 25.93 OD1 31.12 ND2 28.75
B ILE E 33 -134.9 119.3 N 17.56 CA 16.1 C 16.99 O 15.75 CB 16.77 CG1 22.16 CG2 18.16 CD1 25.63
B ILE E 109 -98.2 136.2 N 15.0 CA 13.7 C 14.07 O 16.64 CB 14.65 CG1 16.63 CG2 13.74 CD1 16.78
B PHE - 14 -112.4 152.1 N 11.67 CA 9.58 C 11.29 O 10.73 CB 9.23 CG 8.91 CD1 15.51 CD2 11.23 CE1 9.96 CE2 9.59 CZ 11.91
B GLU - 113 -63.5 130.0 N 9.63 CA 11.23 C 11.37 O 13.78 CB 12.23 CG 15.4 CD 25.85 OE1 27.04 OE2 13.35
B VAL - 27 -90.2 -15.1 N 11.98 CA 12.57 C 14.05 O 15.84 CB 13.76 CG1 10.98 CG2 12.32
B ASN - 96 -98.4 141.6 N 14.15 CA 13.91 C 12.72 O 13.33 CB 15.47 CG 20.48 OD1 29.26 ND2 25.09
B HIS - 21 -160.8 136.8 N 14.3 CA 12.8 C 11.85 O 11.67 CB 12.39 CG 10.22 ND1 10.99 CD2 8.58 CE1 8.36 NE2 8.48
B PRO H 97 -57.7 -31.7 N 11.33 CA 11.54 C 8.36 O 6.17 CB 11.88 CG 14.66 CD 12.6
B ILE H 23 -62.4 -40.2 N 7.74 CA 6.8 C 9.36 O 9.51 CB 6.96 CG1 8.61 CG2 10.98 CD1 9.68
B ILE H 1 -64.1 -45.1 N 8.36 CA 10.03 C 7.79 O 10.33 CB 11.2 CG1 8.44 CG2 10.35 CD1 9.27
B ASP H 83 -62.1 -40.1 N 7.45 CA 8.51 C 8.76 O 9.57 CB 9.89 CG 15.77 OD1 19.03 OD2 20.19
B LYS H 89 -61.5 -47.8 N 8.5 CA 10.87 C 9.32 O 7.85 CB 9.72 CG 15.88 CD 22.35 CE 18.4 NZ 24.0
B LEU H 1 -64.0 -39.6 N 8.73 CA 9.04 C 8.83 O 9.05 CB 10.98 CG 13.71 CD1 14.38 CD2 14.18
B ILE H 49 -57.8 -45.1 N 8.97 CA 10.24 C 12.18 O 10.95 CB 10.92 CG1 12.33 CG2 11.95 CD1 8.1
B PHE H 125 -59.9 -49.4 N 11.87 CA 11.81 C 12.58 O 14.48 CB 13.67 CG 11.46 CD1 19.4 CD2 21.6 CE1 24.74 CE2 20.6 CZ 17.91
B LEU H 5 -64.2 -44.5 N 10.81 CA 13.58 C 15.96 O 15.23 CB 13.28 CG 15.08 CD1 13.3 CD2 16.95
B LEU H 16 -60.2 -38.0 N 16.33 CA 21.2 C 21.83 O 22.89 CB 19.75 CG 23.89 CD1 23.95 CD2 20.82
B ASN H 109 -65.8 -36.8 N 23.26 CA 26.97 C 27.98 O 27.16 CB 27.22 CG 32.88 OD1 38.73 ND2 37.97
B GLN H 121 -74.0 -20.2 N 28.96 CA 30.15 C 32.58 O 34.27 CB 28.97 CG 27.81 CD 26.43 OE1 32.6 NE2 28.72
B ASP - 37 -65.2 117.4 N 35.4 CA 38.8 C 41.99 O 43.49 CB 39.15 CG 38.19 OD1 53.2 OD2 42.27
B GLU - 106 -103.0 16.6 N 45.04 CA 46.92 C 47.72 O 49.79 CB 46.2
B SER - 89 -76.1 360.0 N 46.01 CA 44.11 C 42.06 O 36.6 CB 43.97 OXT 41.97
