A THR - 117 -88.7 127.7 N 29.75 CA 29.06 C 32.5 O 33.78 CB 31.46 OG1 34.21 CG2 32.65
A PRO - 33 -65.1 152.8 N 28.59 CA 28.62 C 33.08 O 28.92 CB 31.12 CG 31.93 CD 28.57
A LEU - 83 -63.3 152.6 N 32.44 CA 35.88 C 37.92 O 36.78 CB 35.54 CG 39.37 CD1 31.84 CD2 36.45
A ASP - 164 -81.6 132.3 N 41.02 CA 43.93 C 43.95 O 44.53 CB 47.09 CG 50.11 OD1 51.97 OD2 58.99
A ALA - 58 -171.3 148.6 N 42.68 CA 43.29 C 43.9 O 42.12 CB 42.67
A ASN - 102 -84.3 126.1 N 44.86 CA 44.1 C 42.11 O 43.76 CB 45.43
A VAL - 39 -109.6 127.4 N 39.31 CA 35.76 C 31.69 O 31.32 CB 36.27 CG1 30.13 CG2 32.0
A GLU - 191 -114.1 104.3 N 32.18 CA 30.72 C 28.05 O 25.11 CB 32.3 CG 34.24 CD 41.81 OE1 43.75 OE2 39.3
A LEU - 20 -79.8 150.1 N 25.16 CA 22.25 C 21.46 O 23.67 CB 20.15 CG 20.39 CD1 21.93 CD2 21.02
A PRO - 17 -64.5 153.4 N 20.37 CA 21.32 C 21.74 O 19.41 CB 22.82 CG 23.31 CD 21.59
A THR H 104 -45.8 -46.4 N 23.08 CA 22.52 C 19.25 O 19.74 CB 24.73 OG1 31.0 CG2 25.55
A GLU H 99 -66.4 -37.3 N 19.05 CA 21.04 C 20.1 O 20.51 CB 22.08 CG 29.29 CD 38.58 OE1 28.05 OE2 50.94
A VAL H 0 -66.4 -44.0 N 19.16 CA 17.28 C 18.15 O 17.51 CB 17.28 CG1 17.27 CG2 20.9
A LYS H 120 -59.9 -37.5 N 18.12 CA 19.24 C 19.2 O 18.91 CB 19.16 CG 22.45 CD 28.81 CE 36.57 NZ 37.07
A ALA H 43 -60.3 -48.9 N 19.74 CA 22.48 C 22.68 O 22.76 CB 27.13
A ILE H 5 -64.0 -48.8 N 16.02 CA 15.93 C 17.56 O 17.82 CB 16.33 CG1 15.44 CG2 19.03 CD1 19.36
A GLU H 163 -56.6 -34.2 N 18.53 CA 20.13 C 19.79 O 20.92 CB 19.26 CG 27.81 CD 36.48 OE1 46.7 OE2 34.74
A GLN H 166 -81.3 -18.4 N 19.97 CA 22.17 C 22.01 O 21.59 CB 23.61 CG 23.26 CD 32.88 OE1 41.01 NE2 36.6
A SER S 29 -65.5 170.7 N 20.4 CA 18.07 C 18.97 O 19.79 CB 17.58 OG 19.73
A SER S 112 -87.2 4.9 N 18.24 CA 19.82 C 19.2 O 22.32 CB 22.34 OG 29.53
A ASP - 54 -162.0 91.8 N 16.11 CA 16.03 C 16.33 O 15.47 CB 14.89 CG 14.9 OD1 12.84 OD2 16.21
A ALA H 43 -61.9 -35.4 N 16.71 CA 15.19 C 14.51 O 13.74 CB 14.1
A GLN H 135 -59.1 -55.4 N 13.83 CA 12.97 C 12.84 O 12.95 CB 11.9 CG 13.23 CD 14.42 OE1 15.89 NE2 20.88
A ALA H 22 -70.5 -33.0 N 12.75 CA 12.22 C 11.57 O 12.12 CB 14.39
A ALA H 2 -69.2 -40.8 N 11.73 CA 12.35 C 12.69 O 12.62 CB 13.89
A THR H 49 -62.3 -47.4 N 13.56 CA 13.14 C 11.9 O 12.34 CB 12.83 OG1 14.82 CG2 13.01
A ALA H 44 -56.9 -42.4 N 12.97 CA 13.63 C 13.56 O 13.78 CB 14.37
A LEU H 8 -68.3 -49.4 N 11.79 CA 11.8 C 11.74 O 13.08 CB 11.35 CG 10.4 CD1 11.94 CD2 13.02
A VAL H 0 -56.4 -47.2 N 12.78 CA 11.68 C 12.97 O 13.63 CB 12.86 CG1 18.73 CG2 15.09
A ASN H 35 -55.3 -46.4 N 14.06 CA 15.33 C 14.98 O 16.04 CB 15.83 CG 20.39 OD1 20.23 ND2 19.8
A TYR H 32 -57.7 -47.1 N 14.05 CA 14.06 C 12.65 O 12.8 CB 14.92 CG 13.41 CD1 14.67 CD2 14.14 CE1 16.5 CE2 15.35 CZ 15.08 OH 21.89
A VAL H 0 -64.6 -42.0 N 12.29 CA 12.66 C 12.66 O 13.48 CB 11.33 CG1 12.8 CG2 13.07
A ILE H 37 -60.0 -47.2 N 13.11 CA 13.44 C 15.12 O 15.06 CB 14.76 CG1 15.61 CG2 17.83 CD1 17.4
A LYS H 53 -66.8 -38.6 N 15.22 CA 16.37 C 16.05 O 15.82 CB 16.7 CG 24.4 CD 27.52 CE 33.35 NZ 36.48
A LEU H 0 -65.2 -46.9 N 14.27 CA 14.68 C 15.41 O 15.8 CB 14.44 CG 16.7 CD1 22.68 CD2 15.91
A ALA H 0 -62.6 -42.1 N 15.12 CA 15.86 C 16.18 O 17.38 CB 16.43
A ALA H 19 -62.6 -37.2 N 16.13 CA 17.98 C 21.59 O 21.57 CB 21.1
A ALA H 25 -61.4 -34.6 N 20.06 CA 20.73 C 21.07 O 23.73 CB 21.46
A ALA T 10 -84.7 8.3 N 19.76 CA 18.88 C 19.72 O 20.52 CB 20.82
A GLU T 169 62.7 37.2 N 21.71 CA 22.62 C 22.52 O 23.97 CB 24.91 CG 28.82 CD 44.7 OE1 49.95 OE2 45.91
A ILE - 4 -117.0 131.9 N 19.39 CA 20.19 C 20.0 O 19.79 CB 18.74 CG1 22.02 CG2 19.02 CD1 22.74
A HIS - 128 -128.5 145.9 N 19.82 CA 19.03 C 16.97 O 19.8 CB 22.57 CG 26.8 ND1 36.83 CD2 32.38 CE1 27.99 NE2 34.75
A PHE - 32 -104.8 136.3 N 17.73 CA 17.59 C 18.64 O 21.42 CB 17.26 CG 18.42 CD1 17.79 CD2 19.17 CE1 21.18 CE2 20.52 CZ 18.55
A THR - 79 -66.9 162.5 N 16.58 CA 18.83 C 19.2 O 16.9 CB 18.74 OG1 18.64 CG2 19.65
A ASP H 104 -61.2 -33.8 N 18.71 CA 19.63 C 19.55 O 18.36 CB 22.97 CG 31.16 OD1 32.47 OD2 34.07
A LEU H 126 -66.2 -44.9 N 18.23 CA 17.94 C 16.6 O 16.75 CB 20.94 CG 32.55 CD1 34.48 CD2 30.84
A GLN H 44 -60.2 -38.7 N 16.31 CA 16.76 C 15.79 O 15.45 CB 16.16 CG 16.99 CD 18.48 OE1 17.74 NE2 21.27
A LEU H 11 -65.4 -34.8 N 14.08 CA 15.02 C 14.86 O 16.48 CB 14.46 CG 14.83 CD1 15.41 CD2 13.33
A GLN H 47 -60.1 -49.8 N 16.01 CA 17.19 C 16.6 O 17.25 CB 19.6 CG 24.08 CD 25.52 OE1 35.71 NE2 33.89
A VAL H 47 -63.8 -41.4 N 14.86 CA 16.82 C 15.06 O 14.66 CB 19.08 CG1 19.15 CG2 19.48
A LEU H 0 -60.2 -46.9 N 13.18 CA 13.52 C 13.01 O 12.91 CB 13.4 CG 12.91 CD1 14.97 CD2 17.87
A THR H 0 -59.9 -45.0 N 13.44 CA 13.01 C 12.85 O 12.99 CB 14.31 OG1 14.57 CG2 16.34
A ASN H 61 -56.1 -44.5 N 13.01 CA 12.94 C 11.85 O 13.26 CB 14.4 CG 20.54 OD1 25.83 ND2 23.23
A HIS H 17 -70.2 -40.4 N 13.59 CA 12.08 C 12.68 O 12.32 CB 11.93 CG 12.17 ND1 14.84 CD2 12.1 CE1 14.64 NE2 13.88
A LEU H 1 -62.0 -41.4 N 11.76 CA 11.16 C 12.98 O 11.67 CB 12.84 CG 12.18 CD1 13.07 CD2 13.07
A ILE H 40 -61.1 -41.5 N 12.23 CA 12.53 C 11.41 O 11.92 CB 15.16 CG1 16.18 CG2 16.05 CD1 18.46
A GLU H 81 -61.1 -45.1 N 12.22 CA 12.21 C 11.91 O 12.4 CB 15.05 CG 15.25 CD 18.11 OE1 19.82 OE2 16.62
A LEU H 25 -58.0 -43.3 N 10.72 CA 10.47 C 10.86 O 10.86 CB 12.22 CG 13.2 CD1 15.27 CD2 15.66
A GLY H 31 -57.7 -43.9 N 11.79 CA 12.16 C 11.81 O 12.79
A ARG H 16 -67.8 -35.5 N 10.75 CA 12.41 C 11.28 O 11.89 CB 14.63 CG 21.28 CD 14.01 NE 12.87 CZ 12.65 NH1 16.58 NH2 14.37
A SER H 18 -59.3 -30.0 N 10.23 CA 10.66 C 12.92 O 13.89 CB 11.68 OG 12.43
A LYS H 114 -91.4 -39.0 N 10.93 CA 11.02 C 12.12 O 12.58 CB 11.51 CG 14.82 CD 23.89 CE 26.26 NZ 30.92
A SER H 69 -83.4 -27.3 N 11.36 CA 13.55 C 14.31 O 16.94 CB 14.15 OG 13.38
A GLY - 66 82.1 5.3 N 13.46 CA 14.97 C 14.53 O 16.95
A GLU - 142 -59.9 143.6 N 11.9 CA 12.4 C 13.26 O 11.01 CB 15.05 CG 13.15 CD 22.9 OE1 26.03 OE2 30.99
A GLN - 151 -64.3 143.6 N 15.57 CA 15.36 C 13.33 O 17.17 CB 18.41 CG 24.52 CD 31.93 OE1 37.1 NE2 33.34
A LEU - 44 -45.5 126.1 N 14.21 CA 16.15 C 14.38 O 14.28 CB 16.09 CG 17.32 CD1 18.54 CD2 18.98
A PRO - 38 -57.9 132.8 N 14.05 CA 13.53 C 13.91 O 12.89 CB 15.0 CG 16.53 CD 17.06
A ALA - 32 -50.4 137.1 N 13.18 CA 11.74 C 12.3 O 12.17 CB 14.69
A VAL - 25 -146.6 144.5 N 11.66 CA 12.3 C 13.06 O 13.48 CB 12.78 CG1 14.86 CG2 13.11
A ASP - 6 -112.1 101.1 N 12.34 CA 12.09 C 13.47 O 13.62 CB 13.6 CG 15.6 OD1 16.76 OD2 19.05
A PRO G 51 -55.1 -27.3 N 12.95 CA 14.88 C 14.21 O 14.01 CB 15.01 CG 15.6 CD 14.66
A THR G 99 -63.2 -25.9 N 15.06 CA 14.76 C 14.71 O 17.3 CB 19.2 OG1 24.64 CG2 21.45
A PHE G 27 -109.2 15.6 N 13.39 CA 14.18 C 15.42 O 15.73 CB 13.75 CG 12.24 CD1 12.97 CD2 13.04 CE1 12.52 CE2 13.13 CZ 13.25
A ALA T 70 -57.2 -34.9 N 15.34 CA 15.06 C 18.12 O 21.92 CB 16.52
A GLU T 160 -99.2 11.1 N 16.82 CA 22.82 C 21.06 O 20.92 CB 28.0 CG 31.63 CD 41.45 OE1 37.73 OE2 23.0
A VAL S 18 -69.9 136.6 N 15.64 CA 15.19 C 14.38 O 14.12 CB 13.92 CG1 14.95 CG2 17.54
A SER - 29 -61.4 147.9 N 13.49 CA 13.61 C 12.67 O 13.19 CB 14.54 OG 15.51
A GLN H 119 -59.4 -37.2 N 13.54 CA 13.95 C 15.49 O 13.33 CB 16.02 CG 20.23 CD 25.08 OE1 26.45 NE2 21.72
A LYS H 92 -60.4 -45.6 N 13.28 CA 13.17 C 12.97 O 13.1 CB 16.78 CG 19.42 CD 25.93 CE 33.9 NZ 28.74
A SER H 0 -63.5 -45.3 N 11.81 CA 11.54 C 12.25 O 11.87 CB 13.54 OG 15.54
A LEU H 20 -62.9 -42.0 N 11.68 CA 11.86 C 11.63 O 11.54 CB 11.93 CG 16.9 CD1 18.07 CD2 19.64
A ASP H 92 -68.0 -42.1 N 11.75 CA 11.77 C 10.79 O 11.2 CB 13.93 CG 19.6 OD1 21.54 OD2 24.6
A LEU H 5 -62.2 -45.1 N 10.69 CA 11.11 C 11.18 O 11.69 CB 12.66 CG 17.19 CD1 18.29 CD2 20.03
A ALA H 0 -60.3 -43.5 N 10.73 CA 10.23 C 9.63 O 9.64 CB 11.49
A ASP H 54 -59.2 -41.9 N 9.47 CA 9.98 C 11.11 O 11.15 CB 11.19 CG 12.56 OD1 12.96 OD2 13.48
A GLN H 48 -61.3 -42.3 N 9.87 CA 10.65 C 10.24 O 10.91 CB 11.74 CG 16.3 CD 19.32 OE1 20.27 NE2 24.58
A VAL H 0 -64.4 -44.7 N 9.8 CA 9.82 C 9.33 O 10.09 CB 9.28 CG1 11.82 CG2 11.25
A VAL H 1 -59.1 -46.7 N 9.2 CA 9.85 C 10.05 O 10.98 CB 9.42 CG1 10.24 CG2 10.43
A GLN H 102 -65.7 -37.6 N 9.24 CA 9.95 C 11.33 O 12.6 CB 10.26 CG 10.63 CD 11.79 OE1 14.65 NE2 9.96
A HIS H 99 -60.6 -43.8 N 9.95 CA 9.83 C 10.08 O 12.88 CB 10.0 CG 12.7 ND1 20.09 CD2 15.41 CE1 17.16 NE2 18.43
A ILE H 28 -63.6 -45.0 N 9.55 CA 9.64 C 10.04 O 11.91 CB 10.72 CG1 9.89 CG2 11.91 CD1 11.3
A GLY - 21 81.8 163.9 N 10.62 CA 10.82 C 10.85 O 10.35
A HIS S 175 53.9 34.1 N 9.97 CA 9.11 C 9.75 O 11.3 CB 11.21 CG 10.39 ND1 11.52 CD2 10.18 CE1 12.3 NE2 11.12
A LEU S 23 -125.1 156.6 N 9.52 CA 9.82 C 12.03 O 13.0 CB 9.48 CG 9.62 CD1 12.46 CD2 10.94
A GLU - 125 -76.6 144.9 N 11.02 CA 9.93 C 10.26 O 10.8 CB 12.49 CG 13.94 CD 16.3 OE1 16.82 OE2 15.7
A VAL T 76 -50.0 -44.9 N 9.45 CA 9.58 C 10.37 O 10.41 CB 10.56 CG1 12.17 CG2 13.32
A ALA T 24 -66.2 -5.2 N 10.83 CA 9.92 C 10.28 O 11.35 CB 12.08
A GLU H 8 -54.8 -24.9 N 9.44 CA 8.7 C 9.38 O 10.79 CB 9.43 CG 10.6 CD 12.26 OE1 13.27 OE2 13.07
A LYS H 45 -60.6 -29.4 N 9.21 CA 9.0 C 9.86 O 10.49 CB 9.65 CG 8.89 CD 10.63 CE 12.03 NZ 16.14
A TYR H 45 -64.8 -55.3 N 9.0 CA 9.7 C 10.45 O 10.98 CB 10.04 CG 10.88 CD1 12.61 CD2 11.51 CE1 10.93 CE2 11.16 CZ 12.79 OH 15.72
A VAL H 64 -63.0 -40.7 N 10.84 CA 11.48 C 12.98 O 12.09 CB 12.21 CG1 13.87 CG2 14.36
A LEU H 0 -61.9 -35.6 N 11.22 CA 11.05 C 10.81 O 11.95 CB 9.98 CG 10.58 CD1 11.12 CD2 11.75
A SER H 0 -58.3 -30.4 N 10.81 CA 10.98 C 11.37 O 12.35 CB 11.74 OG 11.75
A ILE H 48 -65.0 -31.0 N 11.21 CA 12.38 C 13.52 O 14.7 CB 13.92 CG1 16.88 CG2 16.14 CD1 18.9
A HIS H 33 -63.7 -45.9 N 13.05 CA 12.06 C 14.4 O 15.4 CB 12.93 CG 11.99 ND1 15.67 CD2 12.71 CE1 16.18 NE2 14.96
A PHE H 0 -65.8 -39.9 N 13.36 CA 14.83 C 14.61 O 15.91 CB 14.22 CG 13.76 CD1 21.14 CD2 16.29 CE1 21.78 CE2 15.25 CZ 18.54
A GLU H 10 -63.6 -45.1 N 13.18 CA 15.3 C 17.75 O 18.31 CB 16.03 CG 20.57 CD 19.48 OE1 16.55 OE2 21.25
A ALA H 14 -62.6 -39.9 N 15.82 CA 18.1 C 19.04 O 20.56 CB 18.99
A ALA H 13 -65.5 -23.1 N 17.72 CA 19.29 C 20.4 O 21.0 CB 19.23
A GLN T 42 -90.5 -0.4 N 18.64 CA 21.39 C 25.94 O 28.85 CB 20.69 CG 18.85 CD 24.26 OE1 28.22 NE2 23.1
A ASP T 143 56.3 46.9 N 26.4 CA 29.25 C 31.1 O 31.74 CB 30.39 CG 32.79 OD1 27.81 OD2 34.6
A LYS - 101 -110.5 8.5 N 31.42 CA 35.51 C 38.83 O 38.61 CB 32.66 CG 31.19 CD 32.22 CE 38.92
A ILE - 88 -112.2 360.0 N 43.77 CA 50.87 C 56.35 O 57.99 CB 51.58 CG1 53.82 CG2 53.62 CD1 52.39 OXT 59.88
B ASN - 139 360.0 44.4 N 60.23 CA 62.6 C 61.75 O 64.26 CB 63.21
B VAL - 51 -121.0 150.1 N 58.11 CA 55.64 C 51.54 O 50.46 CB 56.89
B GLU - 129 -90.9 112.0 N 46.28 CA 42.91 C 37.25 O 39.46 CB 43.4 CG 46.77
B LEU - 18 -86.4 148.9 N 27.41 CA 23.69 C 22.91 O 27.93 CB 21.1 CG 19.69 CD1 19.37 CD2 21.82
B PRO - 21 -58.2 152.6 N 23.08 CA 24.76 C 24.93 O 21.48 CB 26.33 CG 25.92 CD 24.64
B THR H 116 -58.3 -41.8 N 25.36 CA 24.34 C 21.88 O 17.9 CB 27.08 OG1 29.76 CG2 20.48
B GLU H 71 -67.1 -34.7 N 22.12 CA 23.38 C 20.35 O 19.8 CB 25.24 CG 29.05 CD 48.53 OE1 52.35 OE2 54.42
B VAL H 0 -64.3 -48.2 N 17.45 CA 15.63 C 14.79 O 15.42 CB 13.91 CG1 16.4 CG2 15.69
B LYS H 82 -61.4 -39.0 N 15.72 CA 15.42 C 16.73 O 17.52 CB 20.55 CG 22.76 CD 36.63 CE 47.06
B ALA H 40 -63.4 -41.3 N 16.33 CA 17.97 C 17.63 O 18.83 CB 19.06
B ILE H 2 -61.0 -38.3 N 14.16 CA 14.83 C 16.59 O 16.75 CB 12.84 CG1 15.23 CG2 17.21 CD1 17.7
B GLU H 141 -70.0 -25.5 N 15.09 CA 16.36 C 16.54 O 19.62 CB 18.56 CG 21.95 CD 25.48 OE1 23.08 OE2 29.74
B GLN H 119 -78.5 -12.5 N 16.96 CA 21.09 C 20.81 O 22.55 CB 18.61 CG 28.98 CD 31.15
B SER S 27 -83.7 165.8 N 20.49 CA 18.37 C 20.37 O 20.86 CB 17.52 OG 18.39
B SER S 132 -77.0 -13.5 N 19.36 CA 19.49 C 21.35 O 21.98 CB 19.36 OG 22.09
B ASP - 49 -148.6 76.0 N 18.68 CA 20.63 C 17.81 O 18.0 CB 22.07 CG 33.85 OD1 23.1 OD2 33.65
B ALA H 30 -63.6 -32.7 N 17.5 CA 15.62 C 17.12 O 16.73 CB 16.35
B GLN H 139 -62.0 -52.9 N 14.76 CA 13.24 C 12.47 O 12.78 CB 12.54 CG 14.82 CD 18.85 OE1 19.41 NE2 25.18
B ALA H 19 -69.8 -36.6 N 13.85 CA 13.42 C 11.79 O 12.92 CB 15.34
B ALA H 1 -65.0 -42.5 N 12.27 CA 11.73 C 12.6 O 13.18 CB 13.81
B THR H 47 -62.5 -48.1 N 12.52 CA 12.23 C 12.49 O 12.64 CB 12.66 OG1 15.48 CG2 13.39
B ALA H 44 -57.1 -41.9 N 11.64 CA 11.55 C 11.55 O 12.65 CB 13.51
B LEU H 8 -67.0 -46.2 N 11.1 CA 10.59 C 11.82 O 11.21 CB 11.29 CG 11.29 CD1 11.75 CD2 11.41
B VAL H 2 -61.6 -44.2 N 11.42 CA 11.25 C 12.57 O 13.02 CB 11.25 CG1 16.0 CG2 14.05
B ASN H 30 -55.0 -47.4 N 11.96 CA 12.96 C 12.98 O 13.94 CB 13.72 CG 10.66 OD1 17.76 ND2 14.27
B TYR H 56 -59.4 -45.8 N 12.35 CA 12.97 C 12.43 O 13.05 CB 12.77 CG 12.77 CD1 16.52 CD2 14.51 CE1 17.91 CE2 16.46 CZ 17.84 OH 20.76
B VAL H 0 -66.3 -42.5 N 11.07 CA 11.62 C 11.48 O 12.13 CB 9.58 CG1 13.29 CG2 10.9
B ILE H 37 -61.5 -44.8 N 11.54 CA 13.11 C 13.14 O 14.26 CB 12.76 CG1 12.94 CG2 16.06 CD1 15.49
B LYS H 94 -67.2 -40.2 N 14.24 CA 15.36 C 14.86 O 16.59 CB 17.15 CG 23.34 CD 32.13
B LEU H 29 -63.8 -47.0 N 13.05 CA 12.77 C 15.27 O 15.46 CB 13.63 CG 18.58 CD1 23.4 CD2 19.25
B ALA H 0 -62.1 -45.8 N 12.79 CA 13.82 C 14.4 O 14.93 CB 13.46
B ALA H 38 -60.3 -37.0 N 14.07 CA 16.39 C 17.88 O 21.3 CB 18.52
B ALA H 89 -66.4 -29.2 N 17.93 CA 18.26 C 21.32 O 25.26 CB 20.34
B ALA T 21 -91.2 13.3 N 19.28 CA 18.44 C 17.49 O 20.59 CB 20.11
B GLU T 165 63.7 36.6 N 20.48 CA 20.84 C 19.21 O 21.45 CB 23.07 CG 30.4 CD 45.29 OE1 45.02 OE2 57.37
B ILE - 4 -122.2 127.9 N 16.4 CA 17.25 C 16.73 O 16.17 CB 15.15 CG1 17.19 CG2 17.45 CD1 19.32
B HIS - 127 -128.7 152.4 N 16.48 CA 16.65 C 15.91 O 15.99 CB 20.74 CG 23.84 ND1 30.78 CD2 27.61 CE1 26.1 NE2 30.32
B PHE - 33 -112.8 140.3 N 16.38 CA 15.69 C 17.33 O 19.44 CB 13.86 CG 14.45 CD1 16.84 CD2 17.6 CE1 16.96 CE2 15.67 CZ 15.43
B THR - 78 -73.3 167.8 N 17.09 CA 17.56 C 18.67 O 14.92 CB 21.16 OG1 19.6 CG2 22.98
B ASP H 105 -60.3 -40.0 N 19.25 CA 15.87 C 15.74 O 14.81 CB 17.53 CG 21.91 OD1 24.62 OD2 31.89
B LEU H 73 -61.9 -46.3 N 16.07 CA 15.54 C 13.38 O 13.77 CB 17.6 CG 19.72 CD1 20.94 CD2 24.98
B GLN H 20 -59.6 -39.4 N 15.08 CA 14.14 C 13.77 O 12.53 CB 13.92 CG 17.16 CD 18.3 OE1 18.55 NE2 17.69
B LEU H 13 -67.3 -39.5 N 12.28 CA 11.64 C 13.23 O 12.74 CB 13.91 CG 17.99 CD1 18.77 CD2 20.2
B GLN H 53 -60.9 -46.3 N 12.38 CA 13.77 C 11.48 O 12.15 CB 16.55 CG 20.15 CD 24.18 OE1 31.24 NE2 31.15
B VAL H 10 -64.9 -43.7 N 11.72 CA 11.63 C 12.35 O 12.38 CB 14.33 CG1 17.3 CG2 14.9
B LEU H 1 -61.0 -45.3 N 11.02 CA 11.91 C 12.53 O 11.64 CB 12.97 CG 12.09 CD1 14.82 CD2 15.99
B THR H 0 -58.4 -47.6 N 11.42 CA 11.94 C 11.76 O 12.8 CB 12.94 OG1 13.12 CG2 14.16
B ASN H 35 -60.9 -40.8 N 11.35 CA 11.49 C 10.86 O 11.89 CB 13.7 CG 18.54 OD1 22.18 ND2 19.18
B HIS H 23 -60.7 -47.0 N 11.44 CA 10.89 C 11.22 O 11.76 CB 13.1 CG 14.28 ND1 23.18 CD2 19.87 CE1 28.1 NE2 18.81
B LEU H 1 -63.9 -38.8 N 10.81 CA 11.08 C 10.68 O 11.53 CB 10.98 CG 10.93 CD1 11.55 CD2 12.65
B ILE H 27 -63.4 -39.7 N 10.39 CA 11.56 C 11.97 O 12.76 CB 13.52 CG1 16.36 CG2 16.93 CD1 18.39
B GLU H 87 -73.2 -34.2 N 11.11 CA 10.69 C 10.24 O 10.96 CB 13.76 CG 15.2 CD 28.31 OE1 34.13 OE2 44.38
B LEU H 23 -58.0 -44.3 N 11.08 CA 11.13 C 11.03 O 11.47 CB 11.83 CG 13.86 CD1 15.25 CD2 16.58
B GLY H 35 -55.1 -44.6 N 10.79 CA 12.36 C 12.1 O 12.57
B ARG H 18 -66.0 -34.6 N 10.44 CA 10.56 C 10.84 O 11.5 CB 10.64 CG 13.0 CD 13.02 NE 11.96 CZ 14.06 NH1 15.06 NH2 13.47
B SER H 17 -66.2 -25.9 N 9.83 CA 9.9 C 10.79 O 11.45 CB 8.77 OG 6.95
B LYS H 119 -89.1 -43.3 N 10.84 CA 10.75 C 11.37 O 12.8 CB 13.46 CG 14.69 CD 19.74 CE 28.79 NZ 33.2
B SER H 66 -81.3 -30.3 N 12.06 CA 12.38 C 13.18 O 15.05 CB 12.11 OG 13.26
B GLY - 53 90.7 -3.3 N 11.62 CA 13.36 C 13.08 O 14.49
B GLU - 141 -62.7 145.7 N 12.8 CA 12.5 C 13.74 O 13.05 CB 14.22 CG 11.26 CD 24.53 OE1 20.78 OE2 24.99
B GLN - 134 -123.3 144.2 N 15.9 CA 15.58 C 16.73 O 19.16 CB 16.32 CG 19.28 CD 25.5 OE1 24.9 NE2 25.89
B LEU - 84 -80.0 163.0 N 16.87 CA 16.6 C 18.25 O 17.1 CB 16.78 CG 17.81 CD1 22.13 CD2 19.89
B PRO - 38 -59.2 151.4 N 18.56 CA 17.49 C 19.19 O 22.2 CB 20.04 CG 23.4 CD 21.76
B ALA - 83 -62.2 139.6 N 19.37 CA 21.65 C 24.35 O 23.57 CB 26.25
B VAL - 53 -94.2 159.6 N 23.95 CA 24.83 C 20.91 O 21.68 CB 29.87 CG1 32.8 CG2 28.91
B ASP - 68 -95.3 107.6 N 20.99 CA 19.82 C 16.32 O 16.67 CB 21.6 CG 23.37 OD1 21.8 OD2 28.33
B PRO G 62 -62.0 -22.4 N 16.75 CA 15.97 C 15.89 O 15.33 CB 16.08 CG 20.79 CD 20.76
B THR G 102 -62.8 -23.0 N 16.06 CA 16.55 C 15.87 O 17.81 CB 18.91 OG1 27.12 CG2 21.78
B PHE G 23 -100.0 14.4 N 14.11 CA 13.78 C 12.94 O 14.2 CB 11.94 CG 11.65 CD1 14.23 CD2 12.57 CE1 14.27 CE2 11.97 CZ 12.79
B ALA T 85 -60.8 -27.7 N 14.79 CA 16.21 C 18.55 O 23.95 CB 19.23
B GLU T 130 -91.8 -1.3 N 15.49 CA 19.92 C 18.31 O 20.11 CB 22.76 CG 30.17 CD 41.17
B VAL S 21 -74.4 135.2 N 15.72 CA 14.75 C 13.52 O 14.83 CB 13.82 CG1 16.06 CG2 15.89
B SER - 30 -59.1 150.0 N 13.16 CA 12.0 C 13.33 O 12.72 CB 14.84 OG 16.98
B GLN H 126 -63.4 -36.4 N 13.97 CA 13.23 C 13.69 O 13.15 CB 15.84 CG 17.39 CD 24.84 OE1 27.9 NE2 26.13
B LYS H 90 -59.0 -45.3 N 13.06 CA 14.19 C 13.36 O 13.54 CB 16.3 CG 20.18 CD 24.07 CE 26.91 NZ 25.7
B SER H 0 -66.0 -44.4 N 12.23 CA 11.83 C 11.58 O 11.77 CB 11.44 OG 14.09
B LEU H 23 -60.3 -42.4 N 11.87 CA 10.68 C 11.07 O 11.53 CB 13.17 CG 18.32 CD1 22.14 CD2 19.67
B ASP H 91 -66.0 -42.7 N 11.51 CA 11.7 C 11.55 O 11.65 CB 12.37 CG 20.24 OD1 22.8 OD2 25.77
B LEU H 14 -62.1 -43.9 N 11.16 CA 10.78 C 10.8 O 10.01 CB 11.73 CG 15.79 CD1 17.75 CD2 20.24
B ALA H 0 -63.2 -42.7 N 9.21 CA 9.95 C 10.68 O 10.67 CB 10.14
B ASP H 54 -61.1 -40.7 N 10.18 CA 10.22 C 10.5 O 10.39 CB 10.52 CG 12.18 OD1 12.78 OD2 13.54
B GLN H 91 -65.0 -36.6 N 9.9 CA 8.37 C 8.85 O 9.05 CB 9.28 CG 8.39 CD 13.98 OE1 16.57 NE2 14.55
B VAL H 0 -67.1 -47.1 N 9.8 CA 9.12 C 9.06 O 9.74 CB 9.55 CG1 11.24 CG2 10.92
B VAL H 0 -57.3 -48.4 N 10.4 CA 9.17 C 9.98 O 10.56 CB 9.7 CG1 11.06 CG2 12.19
B GLN H 104 -70.3 -33.4 N 9.54 CA 9.8 C 9.8 O 12.22 CB 11.35 CG 10.96 CD 11.27 OE1 15.75 NE2 12.25
B HIS H 100 -59.9 -47.6 N 9.64 CA 10.47 C 11.74 O 13.24 CB 11.51 CG 13.83 ND1 21.81 CD2 15.03 CE1 17.49 NE2 19.67
B ILE H 29 -63.9 -45.6 N 10.34 CA 10.48 C 11.09 O 12.66 CB 9.86 CG1 10.06 CG2 11.9 CD1 11.92
B GLY - 19 82.7 164.6 N 11.63 CA 9.78 C 9.05 O 10.28
B HIS S 174 55.6 33.8 N 9.38 CA 10.22 C 10.18 O 12.12 CB 10.32 CG 10.61 ND1 12.8 CD2 11.67 CE1 13.05 NE2 11.59
B LEU S 29 -121.1 158.5 N 10.03 CA 9.71 C 10.88 O 12.41 CB 9.92 CG 10.64 CD1 12.02 CD2 11.87
B GLU - 72 -63.9 137.8 N 10.6 CA 11.99 C 11.67 O 11.3 CB 12.2 CG 14.31 CD 21.17 OE1 21.89 OE2 26.21
B VAL G 87 -53.4 -38.1 N 11.44 CA 11.42 C 10.91 O 11.45 CB 13.87 CG1 17.15 CG2 16.04
B ALA G 40 -68.4 -4.1 N 10.58 CA 9.83 C 10.66 O 11.72 CB 12.62
B GLU G 17 -60.3 -17.6 N 10.4 CA 11.21 C 11.07 O 12.94 CB 10.64 CG 11.61 CD 12.88 OE1 13.49 OE2 12.95
B LYS H 48 -63.7 -29.5 N 10.05 CA 9.95 C 10.53 O 10.89 CB 9.98 CG 11.17 CD 12.76 CE 14.31 NZ 17.33
B TYR H 48 -65.4 -57.2 N 10.81 CA 11.58 C 9.89 O 10.73 CB 11.71 CG 12.31 CD1 12.22 CD2 14.75 CE1 12.86 CE2 15.22 CZ 13.65 OH 17.77
B VAL H 60 -64.3 -37.6 N 11.7 CA 13.11 C 11.01 O 12.87 CB 13.48 CG1 18.14 CG2 14.32
B LEU H 0 -61.1 -37.4 N 11.15 CA 11.3 C 10.99 O 11.97 CB 10.61 CG 11.01 CD1 12.42 CD2 12.12
B SER H 0 -58.2 -29.5 N 10.88 CA 10.17 C 10.42 O 12.0 CB 10.99 OG 11.68
B ILE H 47 -65.9 -32.8 N 11.02 CA 12.57 C 11.99 O 13.35 CB 13.85 CG1 16.71 CG2 16.13 CD1 19.86
B HIS H 17 -65.3 -45.2 N 12.29 CA 13.17 C 12.59 O 13.46 CB 13.43 CG 15.54 ND1 20.96 CD2 17.28 CE1 26.54 NE2 17.16
B PHE H 0 -60.0 -44.5 N 11.01 CA 12.25 C 12.16 O 11.84 CB 10.66 CG 9.85 CD1 9.85 CD2 7.78 CE1 11.19 CE2 10.24 CZ 12.23
B GLU H 12 -66.5 -37.8 N 10.7 CA 13.25 C 14.0 O 15.89 CB 13.81 CG 21.09 CD 14.69 OE1 13.15 OE2 15.97
B ALA H 8 -62.9 -38.3 N 13.85 CA 17.61 C 16.94 O 17.27 CB 18.1
B ALA H 15 -71.5 -16.9 N 14.09 CA 16.04 C 17.1 O 19.85 CB 17.15
B GLN T 43 -97.3 6.4 N 16.73 CA 16.92 C 18.69 O 21.43 CB 15.04 CG 16.97 CD 20.29 OE1 20.8 NE2 17.61
B ASP T 146 57.9 37.2 N 18.47 CA 21.77 C 23.21 O 24.21 CB 25.13 CG 37.81 OD1 40.64 OD2 51.61
B LYS - 112 -108.7 6.3 N 19.29 CA 21.83 C 26.31 O 30.73 CB 22.8 CG 25.24 CD 25.8 CE 34.3 NZ 45.03
B ILE - 116 -80.8 360.0 N 28.04 CA 36.21 C 42.2 O 44.05 CB 35.61 CG1 34.41 CG2 38.4 CD1 38.3 OXT 46.36
