A MET - 187 360.0 164.1 N 57.1 CA 56.76 C 55.49 O 55.66 CB 57.06 CG 59.5 SD 63.94 CE 64.0
A ALA - 57 -59.1 146.1 N 52.95 CA 50.21 C 48.28 O 48.26 CB 51.03
A GLN - 107 -98.5 157.2 N 45.13 CA 41.48 C 38.47 O 36.73 CB 42.12 CG 44.37 CD 47.8 OE1 50.2 NE2 46.69
A LEU - 1 -60.2 141.0 N 35.07 CA 33.18 C 32.09 O 30.85 CB 32.42 CG 31.02 CD1 26.91 CD2 24.61
A LYS - 117 -80.1 151.3 N 31.7 CA 31.5 C 30.91 O 30.54 CB 31.54 CG 32.69 CD 38.09 CE 40.89 NZ 43.68
A ALA T 67 -49.1 -33.2 N 29.61 CA 28.84 C 27.5 O 27.06 CB 28.68
A ASP T 61 -90.5 1.0 N 27.11 CA 26.5 C 25.81 O 26.48 CB 25.88 CG 27.58 OD1 25.47 OD2 30.67
A LEU - 0 64.7 15.9 N 25.48 CA 26.64 C 25.73 O 25.29 CB 25.33 CG 30.49 CD1 29.04 CD2 26.87
A SER T 58 -71.6 -14.8 N 25.7 CA 26.08 C 26.8 O 27.42 CB 25.94 OG 26.7
A ASN T 11 -123.8 34.2 N 27.48 CA 28.5 C 29.35 O 29.73 CB 28.02 CG 29.12 OD1 31.41 ND2 28.07
A LEU H 7 -63.3 -45.1 N 29.21 CA 29.57 C 29.68 O 28.99 CB 28.07 CG 29.52 CD1 28.01 CD2 29.18
A GLU H 83 -44.9 -45.5 N 30.02 CA 32.23 C 32.36 O 33.02 CB 31.73 CG 35.81 CD 40.61 OE1 42.09 OE2 41.28
A GLU H 117 -77.3 -21.6 N 32.17 CA 33.39 C 33.02 O 32.02 CB 32.7 CG 38.8 CD 43.75 OE1 44.67 OE2 49.01
A CYS H 6 -86.4 -11.5 N 33.47 CA 33.7 C 34.24 O 33.99 CB 33.71 SG 35.33
A LEU S 2 -88.1 123.2 N 34.53 CA 35.06 C 35.7 O 34.82 CB 34.82 CG 33.72 CD1 30.24 CD2 30.63
A PRO - 22 -52.5 135.9 N 36.35 CA 37.6 C 39.12 O 38.64 CB 37.9 CG 37.33 CD 35.21
A SER T 119 -39.4 -44.0 N 41.06 CA 42.49 C 42.36 O 43.15 CB 43.35 OG 46.07
A THR T 131 -74.6 -15.0 N 41.68 CA 41.12 C 40.99 O 41.65 CB 41.29 OG1 41.79 CG2 41.43
A LEU - 14 -58.3 136.2 N 38.96 CA 37.4 C 36.43 O 36.85 CB 36.45 CG 35.61 CD1 36.06 CD2 32.05
A SER - 55 -69.8 163.3 N 34.91 CA 35.7 C 35.57 O 36.07 CB 35.85 OG 37.32
A GLN H 101 -56.6 -43.3 N 34.64 CA 34.2 C 33.82 O 33.09 CB 34.33 CG 37.1 CD 43.44 OE1 48.1 NE2 38.97
A GLU H 125 -58.6 -59.5 N 32.46 CA 32.0 C 30.42 O 30.51 CB 32.52 CG 34.61 CD 42.15 OE1 43.43 OE2 45.86
A GLN H 55 -46.2 -48.1 N 29.6 CA 28.88 C 28.28 O 27.7 CB 29.64 CG 29.72 CD 30.57 OE1 27.68 NE2 24.48
A ARG H 47 -61.3 -49.1 N 27.26 CA 26.25 C 25.59 O 24.25 CB 26.27 CG 28.49 CD 29.1 NE 32.57 CZ 35.58 NH1 34.77 NH2 37.57
A ALA H 3 -58.5 -44.2 N 25.2 CA 25.58 C 25.69 O 25.25 CB 25.63
A VAL H 55 -68.3 -42.2 N 26.5 CA 25.16 C 25.27 O 27.1 CB 26.37 CG1 24.34 CG2 26.07
A ALA H 0 -65.5 -34.6 N 24.15 CA 23.48 C 22.32 O 22.49 CB 23.24
A LYS H 9 -61.4 -38.6 N 21.46 CA 20.89 C 20.85 O 20.62 CB 20.86 CG 23.36 CD 24.76 CE 26.42 NZ 28.61
A THR H 5 -66.2 -52.7 N 20.69 CA 20.34 C 20.74 O 21.73 CB 19.79 OG1 19.7 CG2 20.05
A GLN H 25 -61.7 -39.9 N 21.84 CA 21.69 C 21.94 O 23.02 CB 21.62 CG 23.55 CD 24.76 OE1 25.65 NE2 14.79
A PHE H 0 -58.5 -52.2 N 21.59 CA 21.2 C 21.27 O 21.69 CB 20.34 CG 22.95 CD1 22.31 CD2 22.88 CE1 24.85 CE2 23.86 CZ 22.66
A TYR H 2 -67.2 -37.2 N 20.36 CA 20.73 C 21.47 O 22.89 CB 20.05 CG 20.3 CD1 16.11 CD2 18.13 CE1 16.82 CE2 16.92 CZ 19.1 OH 23.27
A LYS H 42 -62.2 -47.2 N 21.38 CA 20.31 C 20.48 O 20.15 CB 21.85 CG 23.71 CD 24.93 CE 28.12 NZ 28.28
A GLU H 16 -66.6 -37.9 N 21.33 CA 21.64 C 21.17 O 20.85 CB 21.98 CG 23.85 CD 27.46 OE1 27.72 OE2 29.95
A LEU H 0 -65.5 -41.7 N 20.97 CA 20.67 C 21.35 O 23.43 CB 20.7 CG 19.18 CD1 16.27 CD2 17.67
A ALA H 0 -51.4 -49.7 N 20.41 CA 20.94 C 21.61 O 21.42 CB 18.08
A GLU H 42 -54.8 -52.4 N 21.82 CA 22.82 C 22.7 O 23.5 CB 22.5 CG 23.33 CD 27.36 OE1 31.71 OE2 29.97
A LYS H 75 -60.5 -53.1 N 23.19 CA 23.01 C 22.4 O 24.08 CB 22.46 CG 27.2 CD 29.67 CE 34.53 NZ 37.12
A VAL H 0 -70.6 -32.1 N 21.26 CA 20.05 C 19.42 O 19.58 CB 20.09 CG1 19.06 CG2 19.6
A HIS H 0 -69.2 -43.7 N 19.77 CA 19.52 C 19.92 O 18.88 CB 19.3 CG 17.68 ND1 20.54 CD2 14.41 CE1 18.76 NE2 17.16
A LYS H 99 -64.5 -44.8 N 21.44 CA 21.89 C 21.64 O 21.95 CB 22.74 CG 27.2 CD 33.79 CE 37.94 NZ 43.1
A PHE H 82 -49.6 -48.0 N 20.46 CA 20.65 C 20.65 O 20.52 CB 20.32 CG 21.25 CD1 18.11 CD2 21.73 CE1 18.68 CE2 24.57 CZ 23.53
A TYR H 23 -97.9 -2.9 N 21.13 CA 20.35 C 20.75 O 20.71 CB 20.99 CG 21.03 CD1 18.49 CD2 17.62 CE1 15.47 CE2 20.74 CZ 20.0 OH 20.2
A LYS T 101 55.8 51.5 N 19.88 CA 19.7 C 19.49 O 18.68 CB 19.49 CG 23.95 CD 31.63 CE 37.23 NZ 37.74
A GLY S 0 113.8 -160.7 N 19.05 CA 19.24 C 18.2 O 19.04
A LYS S 0 -133.3 -28.4 N 17.16 CA 16.73 C 18.04 O 18.93 CB 15.65 CG 14.44 CD 12.86 CE 15.63 NZ 12.67
A ILE E 1 -124.0 161.6 N 17.62 CA 18.09 C 18.17 O 18.97 CB 18.3 CG1 17.84 CG2 15.67 CD1 16.36
A GLN E 20 -147.9 169.0 N 18.49 CA 19.42 C 20.42 O 20.78 CB 19.71 CG 22.09 CD 19.67 OE1 15.02 NE2 16.7
A ILE E 0 -96.8 151.6 N 22.33 CA 23.44 C 22.66 O 22.58 CB 24.13 CG1 25.79 CG2 26.51 CD1 26.86
A MET E 0 -149.0 147.5 N 23.52 CA 21.87 C 20.16 O 18.41 CB 23.6 CG 27.61 SD 34.43 CE 30.02
A PRO E 0 -61.9 149.8 N 19.66 CA 19.32 C 20.18 O 20.93 CB 19.68 CG 18.86 CD 19.48
A LYS - 30 -124.9 10.3 N 19.52 CA 19.85 C 19.8 O 20.74 CB 18.71 CG 20.52 CD 19.92 CE 22.53 NZ 17.34
A CYS S 0 -116.1 167.5 N 19.47 CA 20.5 C 20.99 O 19.86 CB 19.52 SG 22.64
A THR - 8 -68.8 136.7 N 20.87 CA 19.82 C 20.22 O 19.4 CB 18.96 OG1 20.26 CG2 18.88
A LEU - 9 -126.1 45.3 N 21.78 CA 23.22 C 23.95 O 24.07 CB 23.09 CG 24.89 CD1 26.79 CD2 25.7
A ALA S 46 -65.8 -15.7 N 23.01 CA 22.69 C 22.12 O 22.83 CB 22.69
A GLY S 23 -173.7 159.1 N 21.91 CA 21.64 C 20.9 O 21.71
A PHE G 45 -46.7 -49.2 N 21.32 CA 20.9 C 22.07 O 22.3 CB 21.64 CG 22.16 CD1 19.2 CD2 18.7 CE1 20.02 CE2 21.18 CZ 19.59
A ASN G 37 -58.0 -25.1 N 21.99 CA 22.06 C 21.56 O 21.91 CB 22.85 CG 27.25 OD1 26.24 ND2 32.22
A TRP G 2 -50.4 -25.0 N 21.13 CA 20.08 C 19.25 O 18.98 CB 19.63 CG 21.12 CD1 16.32 CD2 15.91 NE1 21.54 CE2 18.24 CE3 20.45 CZ2 17.83 CZ3 18.17 CH2 21.01
A PHE H 8 -71.4 -29.8 N 18.32 CA 19.49 C 19.76 O 20.75 CB 19.46 CG 20.79 CD1 22.66 CD2 22.33 CE1 21.91 CE2 21.84 CZ 22.11
A ASN H 0 -57.2 -20.9 N 20.64 CA 22.33 C 22.53 O 23.79 CB 23.3 CG 25.42 OD1 25.07 ND2 23.96
A ALA H 0 -91.1 -31.4 N 23.38 CA 23.92 C 23.88 O 23.6 CB 25.15
A TYR H 1 -88.3 -6.0 N 23.82 CA 23.26 C 23.29 O 22.91 CB 23.3 CG 21.78 CD1 20.99 CD2 19.86 CE1 20.21 CE2 19.8 CZ 17.77 OH 21.71
A TYR S 9 -155.1 -169.5 N 22.77 CA 23.67 C 23.33 O 24.75 CB 22.92 CG 21.71 CD1 19.49 CD2 23.34 CE1 21.41 CE2 19.48 CZ 25.32 OH 24.13
A THR T 1 -66.1 137.2 N 23.08 CA 20.77 C 20.12 O 20.08 CB 21.89 OG1 20.97 CG2 19.17
A PRO T 0 -91.7 -26.1 N 19.36 CA 19.83 C 19.71 O 19.55 CB 19.66 CG 19.89 CD 20.96
A GLY T 0 -51.1 -39.5 N 20.22 CA 19.53 C 20.88 O 21.21
A VAL H 1 -59.1 -17.1 N 21.32 CA 22.16 C 23.46 O 24.06 CB 21.8 CG1 19.35 CG2 21.97
A SER H 2 -61.9 -37.0 N 24.96 CA 25.52 C 24.28 O 25.75 CB 25.35 OG 31.23
A ARG H 30 -53.2 -39.6 N 24.25 CA 22.96 C 22.35 O 21.86 CB 23.11 CG 22.73 CD 20.41 NE 21.07 CZ 24.22 NH1 23.63 NH2 23.15
A ILE H 0 -68.3 -42.7 N 21.69 CA 21.58 C 23.69 O 24.98 CB 22.85 CG1 18.96 CG2 23.06 CD1 12.85
A SER H 0 -58.7 -45.8 N 24.47 CA 25.82 C 26.31 O 26.38 CB 25.3 OG 28.02
A THR H 28 -77.0 -39.2 N 27.14 CA 27.21 C 27.65 O 28.1 CB 27.5 OG1 24.52 CG2 25.22
A ASN H 35 -53.1 -49.3 N 26.88 CA 26.64 C 26.17 O 26.4 CB 25.77 CG 26.83 OD1 27.34 ND2 24.13
A ILE H 0 -62.7 -47.2 N 26.41 CA 27.17 C 27.83 O 28.33 CB 26.35 CG1 27.33 CG2 26.69 CD1 27.12
A ARG H 92 -50.2 -47.3 N 28.82 CA 29.06 C 29.14 O 27.68 CB 29.22 CG 31.77 CD 34.44 NE 35.56 CZ 32.42 NH1 27.81 NH2 33.18
A ASP H 119 -85.5 -12.6 N 30.1 CA 31.28 C 31.29 O 31.59 CB 31.27 CG 32.13 OD1 31.69 OD2 31.36
A ASN - 90 -149.4 85.0 N 31.51 CA 30.66 C 29.6 O 28.73 CB 30.59 CG 34.37 OD1 38.79 ND2 39.26
A ASN G 61 -54.9 -35.4 N 28.64 CA 27.79 C 28.06 O 27.83 CB 26.86 CG 27.68 OD1 26.21 ND2 24.27
A ASP G 89 -61.9 -28.5 N 28.17 CA 28.63 C 28.69 O 29.53 CB 29.76 CG 32.78 OD1 34.5 OD2 35.55
A SER G 2 -65.6 -14.9 N 28.27 CA 28.41 C 28.34 O 26.95 CB 28.31 OG 28.59
A SER H 0 -55.3 -24.8 N 27.33 CA 28.23 C 27.6 O 27.14 CB 26.84 OG 28.29
A LEU H 31 -74.9 -19.9 N 27.89 CA 27.92 C 27.65 O 28.45 CB 27.77 CG 29.16 CD1 25.85 CD2 34.35
A PHE H 56 -122.0 -6.4 N 26.71 CA 26.16 C 25.44 O 25.58 CB 26.49 CG 24.97 CD1 26.23 CD2 27.7 CE1 26.79 CE2 28.36 CZ 26.46
A TYR H 20 -94.3 -1.0 N 24.19 CA 23.84 C 22.46 O 23.18 CB 23.38 CG 25.78 CD1 25.67 CD2 26.53 CE1 25.76 CE2 27.04 CZ 26.28 OH 23.3
A SER S 0 -149.7 169.1 N 21.27 CA 20.55 C 21.85 O 21.98 CB 19.52 OG 15.55
A LEU G 1 -59.1 -19.1 N 23.54 CA 23.56 C 23.58 O 24.62 CB 24.49 CG 23.84 CD1 26.41 CD2 27.19
A ARG G 15 -39.7 -47.4 N 23.09 CA 22.11 C 22.03 O 20.2 CB 22.33 CG 19.82 CD 22.1 NE 21.76 CZ 22.28 NH1 22.26 NH2 20.03
A GLY G 24 -55.4 -22.4 N 22.28 CA 21.52 C 22.28 O 23.41
A ASN G 31 -119.7 23.8 N 21.87 CA 22.56 C 22.53 O 23.23 CB 22.37 CG 23.3 OD1 21.88 ND2 18.32
A PHE E 0 -110.9 121.3 N 21.34 CA 21.1 C 21.13 O 21.44 CB 20.71 CG 22.43 CD1 22.98 CD2 20.17 CE1 22.16 CE2 23.04 CZ 22.85
A VAL E 0 -115.3 132.2 N 20.38 CA 19.85 C 20.51 O 20.98 CB 20.22 CG1 15.54 CG2 20.01
A GLY E 0 -98.0 125.3 N 19.07 CA 19.42 C 19.07 O 19.24
A VAL E 0 -97.0 96.9 N 18.18 CA 18.53 C 19.54 O 20.63 CB 18.65 CG1 13.55 CG2 20.68
A VAL E 0 -99.3 123.3 N 19.5 CA 20.8 C 20.62 O 20.68 CB 20.86 CG1 20.14 CG2 20.17
A SER E 0 -144.4 150.1 N 20.89 CA 20.78 C 20.77 O 21.33 CB 20.32 OG 22.37
A ASP - 2 -102.4 7.6 N 20.39 CA 21.98 C 23.2 O 23.02 CB 22.47 CG 23.9 OD1 26.17 OD2 22.26
A SER S 0 57.8 38.8 N 23.89 CA 24.67 C 25.05 O 25.36 CB 23.07 OG 23.75
A THR S 4 -100.3 -25.9 N 25.52 CA 26.06 C 27.74 O 26.41 CB 26.29 OG1 28.02 CG2 22.09
A ARG S 71 -130.6 65.0 N 28.81 CA 29.09 C 28.35 O 28.14 CB 30.06 CG 34.5 CD 42.7 NE 49.49 CZ 52.56 NH1 49.36 NH2 53.45
A VAL B 0 -95.7 106.5 N 28.51 CA 28.42 C 27.74 O 27.98 CB 29.21 CG1 27.83 CG2 28.3
A LEU G 26 42.9 -145.8 N 25.74 CA 25.51 C 26.32 O 27.13 CB 24.43 CG 25.42 CD1 18.24 CD2 20.36
A GLY G 14 -83.8 -0.0 N 27.51 CA 28.34 C 29.62 O 30.11
A ASP G 42 -81.1 -22.0 N 29.69 CA 29.92 C 30.09 O 30.89 CB 29.82 CG 31.97 OD1 37.06 OD2 30.67
A GLY B 2 81.1 -130.4 N 29.0 CA 28.85 C 28.62 O 27.69
A ASP - 83 -84.5 113.4 N 27.59 CA 27.29 C 25.71 O 24.21 CB 27.66 CG 30.35 OD1 29.98 OD2 36.08
A VAL - 0 -114.1 21.7 N 24.74 CA 23.2 C 23.54 O 23.79 CB 23.86 CG1 21.94 CG2 22.29
A THR - 40 64.6 157.3 N 22.79 CA 22.8 C 23.55 O 24.13 CB 23.4 OG1 20.88 CG2 20.73
A PRO G 12 -52.9 -48.3 N 24.29 CA 23.99 C 23.71 O 23.86 CB 24.07 CG 23.15 CD 22.76
A PRO G 0 -70.1 -13.9 N 23.7 CA 22.17 C 21.25 O 20.62 CB 21.68 CG 23.22 CD 22.69
A GLY G 0 -63.7 -24.0 N 20.39 CA 18.45 C 18.91 O 18.64
A GLY G 0 -77.7 -7.1 N 17.83 CA 18.17 C 19.72 O 20.76
A LEU H 0 -58.3 -38.6 N 18.3 CA 18.43 C 18.81 O 19.1 CB 15.26 CG 17.53 CD1 16.0 CD2 16.18
A GLY H 0 -59.4 -50.2 N 20.02 CA 19.53 C 20.54 O 22.05
A VAL H 2 -71.6 -40.9 N 20.96 CA 19.58 C 20.12 O 20.71 CB 20.27 CG1 18.55 CG2 19.24
A MET H 0 -73.7 -30.8 N 19.03 CA 19.69 C 18.35 O 17.93 CB 19.85 CG 22.6 SD 23.91 CE 14.22
A GLU H 0 -67.3 -37.6 N 17.73 CA 18.55 C 19.05 O 18.44 CB 17.83 CG 18.96 CD 20.46 OE1 20.4 OE2 22.91
A GLY H 1 -65.0 -39.4 N 19.71 CA 19.33 C 19.16 O 18.92
A LYS H 7 -61.8 -44.1 N 19.84 CA 20.16 C 20.72 O 21.02 CB 19.92 CG 19.54 CD 21.1 CE 21.06 NZ 17.77
A ALA H 0 -67.0 -40.4 N 19.82 CA 20.48 C 21.97 O 21.56 CB 20.14
A LEU H 2 -57.0 -45.1 N 21.02 CA 19.56 C 19.58 O 18.57 CB 17.97 CG 18.42 CD1 15.18 CD2 11.4
A LEU H 2 -70.0 -32.9 N 18.63 CA 19.26 C 19.05 O 16.82 CB 18.7 CG 21.23 CD1 15.1 CD2 12.16
A MET H 0 -63.9 -35.0 N 20.1 CA 22.36 C 21.51 O 21.53 CB 22.78 CG 26.47 SD 30.91 CE 30.24
A LYS H 9 -74.0 -51.0 N 20.3 CA 19.94 C 18.65 O 18.56 CB 18.41 CG 19.92 CD 21.99 CE 22.69 NZ 21.69
A TYR H 18 -77.2 -26.3 N 19.0 CA 18.7 C 17.91 O 17.21 CB 19.52 CG 19.84 CD1 22.35 CD2 23.21 CE1 26.06 CE2 23.63 CZ 24.16 OH 27.19
A LEU H 0 -103.0 -36.5 N 16.52 CA 17.11 C 17.39 O 17.41 CB 16.65 CG 19.2 CD1 15.64 CD2 13.99
A GLY H 0 -108.1 -8.2 N 16.96 CA 18.22 C 19.47 O 19.39
A GLY - 3 73.1 18.1 N 19.08 CA 19.66 C 20.44 O 20.66
A ILE - 0 -99.9 135.7 N 19.95 CA 20.63 C 21.23 O 21.33 CB 21.36 CG1 22.1 CG2 21.11 CD1 24.97
A ASP E 4 -85.9 125.0 N 20.62 CA 19.77 C 19.72 O 19.99 CB 18.14 CG 18.72 OD1 14.88 OD2 16.08
A ALA E 0 -148.0 146.5 N 20.95 CA 20.1 C 21.6 O 21.39 CB 19.03
A VAL E 0 -132.7 148.1 N 21.14 CA 21.68 C 21.35 O 20.64 CB 23.0 CG1 22.42 CG2 21.23
A PRO E 0 -63.5 138.5 N 21.16 CA 20.89 C 21.96 O 21.43 CB 21.38 CG 21.23 CD 19.64
A ILE E 0 -127.6 86.3 N 21.71 CA 20.0 C 20.04 O 20.13 CB 20.8 CG1 19.99 CG2 16.64 CD1 14.22
A CYS E 0 -92.1 121.2 N 21.38 CA 21.28 C 21.42 O 21.54 CB 20.91 SG 23.71
A ILE - 0 -123.8 159.2 N 22.54 CA 22.67 C 22.32 O 21.57 CB 22.9 CG1 24.43 CG2 23.57 CD1 23.96
A ASP - 33 -88.7 122.7 N 22.41 CA 22.87 C 22.88 O 21.34 CB 22.34 CG 26.46 OD1 25.13 OD2 27.03
A SER - 0 -104.0 13.2 N 24.06 CA 24.45 C 26.42 O 27.61 CB 22.48 OG 22.28
A LYS B 71 -79.3 139.6 N 28.31 CA 28.84 C 30.12 O 31.15 CB 27.9 CG 28.93 CD 31.39 CE 33.6 NZ 32.88
A ASN - 36 -89.5 -175.7 N 31.36 CA 33.41 C 34.91 O 34.88 CB 31.41 CG 31.47 OD1 36.25 ND2 32.84
A LYS T 198 -53.0 -42.6 N 37.99 CA 41.02 C 41.77 O 41.88 CB 41.45 CG 45.07 CD 49.72 CE 49.06 NZ 47.43
A GLU T 123 -74.6 0.9 N 43.52 CA 44.41 C 43.07 O 43.57 CB 45.83 CG 50.6 CD 58.46 OE1 60.22 OE2 60.71
A GLY S 42 75.4 25.6 N 41.66 CA 39.55 C 37.88 O 37.44
A LYS - 155 -106.6 139.2 N 36.33 CA 35.53 C 33.31 O 31.55 CB 36.9 CG 41.08 CD 51.67 CE 55.68 NZ 58.61
A ASN B 45 -61.6 123.8 N 30.7 CA 30.52 C 29.57 O 29.28 CB 29.06 CG 31.22 OD1 32.95 ND2 24.02
A ASP - 38 -112.4 109.3 N 29.07 CA 30.02 C 29.38 O 28.94 CB 30.73 CG 32.74 OD1 35.48 OD2 40.4
A PRO H 16 -56.7 -37.8 N 29.71 CA 29.81 C 31.0 O 30.79 CB 29.89 CG 30.28 CD 29.62
A ASP H 79 -62.1 -29.1 N 30.66 CA 30.87 C 29.58 O 29.34 CB 32.2 CG 36.16 OD1 35.05 OD2 42.99
A ALA H 3 -66.7 -42.5 N 28.75 CA 28.16 C 27.17 O 27.1 CB 27.05
A VAL H 0 -64.8 -44.4 N 26.16 CA 26.06 C 26.42 O 25.65 CB 26.02 CG1 26.17 CG2 25.66
A ILE H 15 -58.5 -48.3 N 26.42 CA 27.13 C 27.26 O 27.37 CB 26.52 CG1 27.85 CG2 25.33 CD1 27.01
A GLU H 61 -62.3 -44.5 N 27.72 CA 27.38 C 26.86 O 26.64 CB 26.89 CG 27.01 CD 31.48 OE1 29.46 OE2 30.96
A PHE H 6 -58.3 -51.6 N 26.65 CA 25.23 C 24.47 O 23.41 CB 25.03 CG 23.99 CD1 23.26 CD2 25.33 CE1 23.82 CE2 23.79 CZ 24.21
A VAL H 0 -65.5 -42.2 N 24.14 CA 23.56 C 24.9 O 23.97 CB 22.98 CG1 21.45 CG2 20.27
A GLN H 67 -55.0 -34.1 N 25.67 CA 26.87 C 27.13 O 26.69 CB 27.63 CG 29.96 CD 36.32 OE1 39.15 NE2 34.24
A ARG H 29 -77.9 -34.7 N 26.77 CA 26.03 C 26.11 O 25.76 CB 26.45 CG 26.96 CD 30.55 NE 32.44 CZ 33.48 NH1 30.64 NH2 28.72
A ILE H 0 -92.3 -16.5 N 24.79 CA 23.32 C 23.19 O 22.55 CB 22.84 CG1 19.6 CG2 20.37 CD1 20.17
A GLN G 14 -50.0 -25.2 N 24.65 CA 25.7 C 25.99 O 26.64 CB 27.25 CG 27.27 CD 30.55 OE1 28.2 NE2 29.29
A HIS G 24 -71.0 -14.2 N 25.65 CA 25.58 C 25.11 O 24.02 CB 24.87 CG 26.69 ND1 30.41 CD2 26.58 CE1 29.01 NE2 28.79
A THR G 0 -85.3 -23.8 N 25.05 CA 24.59 C 23.91 O 22.58 CB 25.99 OG1 27.65 CG2 22.72
A PHE - 0 -120.9 158.6 N 22.7 CA 21.84 C 21.64 O 20.29 CB 21.06 CG 21.72 CD1 23.06 CD2 21.62 CE1 24.24 CE2 25.26 CZ 25.77
A GLY S 8 -97.3 -22.5 N 21.6 CA 21.25 C 22.47 O 21.99
A ALA E 2 -156.6 166.6 N 22.66 CA 22.29 C 23.19 O 24.43 CB 23.07
A ILE E 0 -119.7 132.6 N 21.19 CA 21.17 C 21.47 O 20.77 CB 21.89 CG1 18.61 CG2 19.9 CD1 19.14
A ASN E 0 -116.0 89.8 N 21.2 CA 21.3 C 21.46 O 22.05 CB 21.13 CG 21.11 OD1 21.56 ND2 15.75
A LEU E 1 -64.6 137.3 N 21.69 CA 21.76 C 21.78 O 22.38 CB 22.27 CG 20.89 CD1 18.7 CD2 21.31
A GLU - 0 -136.8 147.0 N 21.9 CA 22.65 C 23.53 O 21.92 CB 23.26 CG 23.5 CD 25.64 OE1 27.99 OE2 25.89
A ASP S 6 56.5 47.7 N 23.51 CA 24.8 C 24.72 O 24.47 CB 25.16 CG 27.48 OD1 30.39 OD2 32.08
A ILE - 4 -111.7 129.4 N 24.46 CA 25.4 C 26.04 O 25.65 CB 24.63 CG1 23.06 CG2 22.76 CD1 23.52
A SER - 17 -60.8 148.2 N 26.19 CA 26.62 C 26.41 O 26.71 CB 26.93 OG 28.33
A GLN T 57 -89.3 148.5 N 27.52 CA 29.34 C 29.55 O 29.91 CB 29.78 CG 31.96 CD 35.98 OE1 41.45 NE2 34.95
A PRO T 22 -89.2 2.4 N 29.25 CA 28.98 C 28.09 O 27.27 CB 29.99 CG 29.24 CD 30.32
A ASN H 30 -51.3 -48.3 N 27.05 CA 27.47 C 27.4 O 26.11 CB 28.61 CG 30.21 OD1 35.46 ND2 30.72
A CYS H 1 -52.9 -31.8 N 26.68 CA 27.42 C 27.5 O 27.56 CB 26.95 SG 25.97
A TYR H 3 -68.6 -50.2 N 27.08 CA 27.48 C 27.33 O 27.74 CB 27.75 CG 27.25 CD1 29.69 CD2 25.61 CE1 25.61 CE2 30.55 CZ 28.58 OH 30.45
A LYS H 97 -58.7 -48.1 N 26.83 CA 25.91 C 26.2 O 27.0 CB 25.3 CG 24.78 CD 26.58 CE 24.76 NZ 23.06
A ILE H 0 -60.4 -50.5 N 25.74 CA 25.35 C 25.74 O 26.3 CB 25.07 CG1 24.33 CG2 26.52 CD1 20.98
A LEU H 6 -64.4 -52.3 N 27.0 CA 27.46 C 28.76 O 30.3 CB 25.92 CG 25.32 CD1 20.01 CD2 18.19
A ASP H 42 -58.1 -43.6 N 30.04 CA 30.71 C 30.42 O 30.99 CB 31.65 CG 33.55 OD1 40.21 OD2 33.73
A VAL H 60 -69.9 -53.5 N 29.71 CA 28.27 C 28.27 O 29.62 CB 28.23 CG1 27.23 CG2 25.36
A LEU H 0 -60.3 -36.4 N 27.6 CA 26.89 C 26.76 O 26.83 CB 25.92 CG 23.14 CD1 19.75 CD2 21.22
A ARG H 54 -63.3 -22.3 N 27.89 CA 30.38 C 31.35 O 31.49 CB 29.53 CG 31.82 CD 33.68 NE 32.6 CZ 31.45 NH1 26.62 NH2 25.4
A GLU H 126 -95.5 -34.8 N 33.19 CA 33.99 C 34.52 O 35.41 CB 34.06 CG 36.47 CD 41.53 OE1 40.8 OE2 44.79
A SER H 51 -85.1 -26.4 N 34.88 CA 35.26 C 35.91 O 36.08 CB 36.2 OG 37.44
A CYS - 10 -87.1 153.8 N 35.03 CA 33.53 C 32.75 O 32.11 CB 33.6 SG 32.96
A ASP S 120 -91.0 1.7 N 32.25 CA 32.51 C 31.27 O 32.26 CB 32.66 CG 39.47 OD1 41.97 OD2 43.07
A ILE S 6 -117.6 158.6 N 29.5 CA 27.83 C 26.43 O 25.54 CB 27.44 CG1 29.17 CG2 28.03 CD1 29.63
A PRO - 4 -65.2 132.0 N 25.13 CA 25.04 C 24.5 O 22.75 CB 24.76 CG 24.58 CD 24.94
A VAL E 0 -123.8 131.4 N 23.81 CA 24.58 C 24.88 O 25.82 CB 24.92 CG1 23.19 CG2 23.31
A TRP E 1 -146.8 170.6 N 24.34 CA 24.18 C 23.8 O 23.91 CB 23.66 CG 24.46 CD1 23.02 CD2 23.96 NE1 23.96 CE2 23.81 CE3 26.15 CZ2 23.68 CZ3 20.93 CH2 21.18
A HIS E 1 -123.8 109.0 N 24.87 CA 25.44 C 24.96 O 25.14 CB 25.8 CG 27.28 ND1 29.97 CD2 27.41 CE1 27.83 NE2 31.1
A ASP I 0 -54.1 -45.4 N 24.53 CA 24.03 C 24.12 O 23.65 CB 24.47 CG 24.44 OD1 23.09 OD2 19.77
A ASP I 25 -60.1 -19.2 N 23.54 CA 24.54 C 23.21 O 23.35 CB 24.76 CG 26.29 OD1 28.44 OD2 29.04
A GLN I 1 -88.5 -91.9 N 22.53 CA 23.82 C 23.6 O 24.16 CB 23.53 CG 24.18 CD 20.49 OE1 21.79 NE2 20.6
A GLN I 6 -67.3 -32.3 N 23.27 CA 24.64 C 23.74 O 21.57 CB 24.81 CG 25.63 CD 26.24 OE1 23.73 NE2 25.85
A GLY I 0 -56.2 -59.0 N 23.3 CA 23.03 C 22.6 O 23.01
A THR H 11 -58.4 -44.1 N 21.71 CA 21.45 C 20.74 O 22.65 CB 22.07 OG1 22.11 CG2 20.53
A ALA H 0 -67.7 -37.3 N 21.59 CA 20.59 C 20.92 O 21.17 CB 19.69
A SER H 1 -50.7 -54.6 N 21.19 CA 22.93 C 22.37 O 22.39 CB 22.27 OG 23.8
A VAL H 0 -75.3 -27.3 N 22.16 CA 21.69 C 22.73 O 22.19 CB 22.16 CG1 22.99 CG2 18.62
A THR H 6 -63.8 -50.3 N 22.51 CA 23.99 C 23.73 O 24.37 CB 23.27 OG1 22.59 CG2 23.41
A LEU H 0 -51.9 -48.0 N 25.0 CA 24.99 C 25.38 O 26.19 CB 23.82 CG 23.41 CD1 23.46 CD2 25.72
A ALA H 0 -55.4 -49.9 N 25.78 CA 25.62 C 25.87 O 26.05 CB 25.12
A GLY H 0 -59.8 -46.7 N 25.49 CA 26.02 C 26.66 O 26.13
A LEU H 0 -52.6 -46.0 N 28.49 CA 29.85 C 29.55 O 29.48 CB 29.86 CG 30.03 CD1 29.51 CD2 28.54
A LEU H 31 -53.9 -52.3 N 29.63 CA 29.27 C 28.37 O 28.24 CB 29.39 CG 29.99 CD1 29.32 CD2 31.28
A ASN H 1 -70.1 -41.9 N 28.09 CA 28.56 C 29.5 O 30.09 CB 27.68 CG 28.9 OD1 27.54 ND2 25.69
A ALA H 0 -50.0 -49.4 N 30.11 CA 29.22 C 29.43 O 30.89 CB 27.79
A LEU H 8 -60.5 -40.6 N 29.93 CA 29.55 C 30.11 O 29.76 CB 28.81 CG 28.71 CD1 31.95 CD2 30.86
A LYS H 115 -60.4 -47.0 N 29.98 CA 30.53 C 30.41 O 30.01 CB 30.05 CG 33.37 CD 37.13 CE 40.51 NZ 41.45
A LEU H 38 -58.8 -36.5 N 30.23 CA 30.42 C 30.39 O 30.86 CB 29.8 CG 30.14 CD1 27.32 CD2 30.94
A VAL H 13 -94.7 1.5 N 30.73 CA 31.28 C 32.52 O 32.89 CB 30.81 CG1 31.24 CG2 26.88
A LYS T 193 53.5 55.6 N 34.0 CA 35.26 C 35.98 O 37.14 CB 34.65 CG 35.66 CD 36.52 CE 39.75 NZ 38.12
A LYS - 45 -127.9 142.3 N 36.12 CA 35.8 C 36.56 O 36.97 CB 34.93 CG 32.94 CD 26.59 CE 26.32 NZ 25.32
A ASP - 97 -77.2 135.2 N 36.71 CA 37.52 C 36.42 O 36.38 CB 38.69 CG 44.02 OD1 49.67 OD2 51.49
A ILE G 22 -50.9 -41.0 N 35.03 CA 33.52 C 34.49 O 33.79 CB 33.14 CG1 31.5 CG2 32.78 CD1 32.63
A HIS G 74 -76.3 -12.8 N 34.29 CA 34.83 C 34.96 O 34.77 CB 34.81 CG 37.22 ND1 40.19 CD2 40.18 CE1 39.56 NE2 40.12
A GLU G 120 -105.5 4.8 N 35.12 CA 37.12 C 37.48 O 38.01 CB 37.49 CG 43.05 CD 49.81 OE1 50.86 OE2 50.62
A CYS - 2 -92.4 131.3 N 37.0 CA 36.95 C 36.3 O 36.4 CB 36.36 SG 39.5
A ARG - 56 -81.2 123.9 N 35.81 CA 34.98 C 33.9 O 33.38 CB 34.97 CG 35.33 CD 34.73 NE 36.03 CZ 35.65 NH1 34.85 NH2 36.92
A MET E 0 -120.0 125.5 N 33.14 CA 33.08 C 33.53 O 33.92 CB 32.42 CG 29.76 SD 31.74 CE 29.98
A VAL E 1 -106.3 122.1 N 32.93 CA 32.77 C 33.59 O 33.97 CB 32.04 CG1 32.0 CG2 32.52
A PHE E 0 -101.9 115.4 N 32.74 CA 32.88 C 32.83 O 33.01 CB 31.94 CG 32.59 CD1 31.03 CD2 32.36 CE1 33.43 CE2 31.07 CZ 31.16
A ILE E 16 -94.7 105.7 N 31.8 CA 31.76 C 32.2 O 31.69 CB 31.18 CG1 30.58 CG2 30.3 CD1 31.63
A GLY - 18 114.4 139.0 N 31.71 CA 31.98 C 31.97 O 33.85
A ALA - 6 -114.7 28.7 N 30.67 CA 30.07 C 29.61 O 30.22 CB 30.52
A GLY S 14 -66.9 -176.8 N 29.52 CA 29.82 C 29.45 O 29.77
A SER H 13 -70.8 -35.1 N 29.25 CA 28.88 C 28.92 O 30.09 CB 27.89 OG 27.93
A SER H 7 -63.3 -56.7 N 29.82 CA 30.47 C 29.17 O 28.52 CB 29.38 OG 33.36
A ASN H 2 -58.2 -42.0 N 28.79 CA 29.99 C 29.84 O 29.96 CB 30.33 CG 34.93 OD1 38.02 ND2 38.05
A THR H 1 -55.2 -47.2 N 29.27 CA 29.95 C 29.33 O 30.19 CB 29.07 OG1 34.21 CG2 31.82
A THR H 0 -74.4 -31.9 N 28.98 CA 27.73 C 27.64 O 26.12 CB 27.67 OG1 27.76 CG2 24.07
A CYS H 1 -61.5 -46.3 N 28.19 CA 29.47 C 29.99 O 30.12 CB 28.55 SG 32.26
A LEU H 5 -61.5 -49.0 N 30.6 CA 30.3 C 30.57 O 31.32 CB 31.12 CG 29.05 CD1 26.2 CD2 25.42
A ARG H 38 -61.1 -42.6 N 30.19 CA 29.28 C 30.17 O 30.45 CB 30.04 CG 31.06 CD 32.6 NE 32.41 CZ 34.23 NH1 36.61 NH2 30.02
A LEU H 0 -69.0 -37.8 N 28.76 CA 27.89 C 27.27 O 28.37 CB 27.62 CG 27.05 CD1 28.81 CD2 21.47
A ILE H 0 -65.3 -36.6 N 26.86 CA 26.4 C 27.67 O 26.87 CB 26.16 CG1 25.98 CG2 25.15 CD1 26.08
A VAL H 42 -64.5 -54.9 N 27.98 CA 28.62 C 28.01 O 28.88 CB 28.75 CG1 28.01 CG2 29.35
A THR H 81 -56.5 -33.9 N 28.44 CA 29.29 C 30.99 O 31.18 CB 29.37 OG1 27.03 CG2 28.37
A ALA T 20 -76.8 -8.5 N 31.23 CA 32.07 C 31.75 O 30.55 CB 31.64
A GLY T 29 128.4 8.9 N 32.16 CA 32.42 C 32.38 O 31.45
A ALA - 6 -72.6 161.9 N 32.92 CA 33.71 C 34.61 O 34.27 CB 32.71
A ASP - 23 -89.1 116.0 N 36.9 CA 38.55 C 38.59 O 39.28 CB 38.71 CG 41.67 OD1 42.65 OD2 45.45
A PRO G 39 -57.3 -28.7 N 39.2 CA 39.41 C 39.6 O 40.09 CB 39.52 CG 39.5 CD 39.76
A LYS G 152 -67.9 -22.9 N 39.97 CA 40.24 C 40.14 O 39.41 CB 41.4 CG 44.0 CD 50.59 CE 53.74 NZ 51.35
A LYS G 46 -95.7 8.0 N 38.64 CA 38.1 C 37.26 O 37.19 CB 37.6 CG 38.07 CD 39.43 CE 38.78 NZ 38.12
A ILE E 1 -113.3 130.8 N 36.79 CA 36.19 C 36.42 O 35.84 CB 35.95 CG1 34.26 CG2 36.24 CD1 34.98
A VAL E 1 -122.9 129.1 N 35.52 CA 35.53 C 35.58 O 34.74 CB 35.63 CG1 34.2 CG2 35.93
A MET E 0 -99.6 140.0 N 35.35 CA 37.08 C 38.1 O 38.62 CB 36.18 CG 37.57 SD 41.94 CE 39.76
A PHE E 7 -113.5 136.6 N 38.83 CA 39.64 C 40.53 O 41.0 CB 38.68 CG 39.64 CD1 37.79 CD2 39.42 CE1 37.19 CE2 37.05 CZ 36.97
A ASP E 22 -103.7 -166.7 N 40.81 CA 40.53 C 41.56 O 40.65 CB 40.38 CG 37.13 OD1 34.78 OD2 33.97
A SER T 117 -59.3 -33.6 N 42.86 CA 45.51 C 46.48 O 46.83 CB 45.65 OG 47.67
A LYS T 145 -94.9 8.2 N 46.9 CA 47.59 C 47.4 O 47.88 CB 47.37 CG 49.87 CD 51.57 CE 54.24 NZ 52.67
A GLY E 27 110.7 178.9 N 46.88 CA 45.0 C 44.85 O 44.84
A SER E 6 -60.2 155.7 N 43.32 CA 42.59 C 41.53 O 41.41 CB 42.33 OG 44.53
A LEU - 0 -93.6 138.4 N 40.37 CA 39.8 C 40.73 O 38.96 CB 39.31 CG 37.91 CD1 36.91 CD2 33.28
A HIS - 35 -170.9 170.3 N 42.14 CA 43.26 C 44.16 O 43.34 CB 43.12 CG 45.42 ND1 47.2 CD2 47.54 CE1 48.97 NE2 46.98
A ASN T 97 -72.8 -3.4 N 46.15 CA 47.48 C 48.18 O 47.63 CB 47.43 CG 48.13 OD1 45.65 ND2 49.91
A GLY T 34 -96.8 21.8 N 49.32 CA 51.75 C 53.02 O 52.45
A ARG - 15 -94.9 84.5 N 53.86 CA 54.59 C 55.17 O 54.87 CB 54.57 CG 55.23 CD 55.75 NE 56.28 CZ 55.83 NH1 57.1 NH2 56.97
A GLU H 144 -58.0 -51.4 N 56.24 CA 57.34 C 57.4 O 57.6 CB 57.5 CG 59.47 CD 63.52 OE1 62.66 OE2 61.27
A ASP H 93 -4.4 -83.0 N 58.35 CA 58.87 C 58.51 O 58.79 CB 59.54 CG 62.04 OD1 64.82 OD2 63.39
A ILE H 4 -72.9 -35.4 N 57.85 CA 57.35 C 58.01 O 57.51 CB 56.43 CG1 55.55 CG2 55.94 CD1 54.76
A LYS H 79 -35.3 -70.1 N 59.45 CA 60.95 C 61.08 O 61.95 CB 61.38 CG 61.74 CD 61.51 CE 61.29 NZ 57.92
A LYS H 186 -92.2 -18.5 N 61.19 CA 61.3 C 60.4 O 60.14 CB 62.16 CG 64.16 CD 66.27 CE 67.22 NZ 67.8
A ASP - 62 -71.3 80.1 N 59.15 CA 57.22 C 56.61 O 56.86 CB 56.67 CG 55.87 OD1 53.66 OD2 51.86
A THR G 103 -76.6 8.3 N 55.16 CA 53.88 C 52.64 O 52.26 CB 54.24 OG1 55.34 CG2 54.5
A ARG G 144 -69.8 -25.3 N 51.04 CA 48.7 C 47.42 O 46.69 CB 48.52 CG 48.46 CD 48.01 NE 45.82 CZ 48.3 NH1 50.65 NH2 47.73
A PHE G 33 -100.2 30.6 N 46.04 CA 44.29 C 42.21 O 41.93 CB 44.5 CG 48.92 CD1 51.44 CD2 49.57 CE1 51.93 CE2 50.97 CZ 50.85
A TYR H 88 -53.1 -37.0 N 40.83 CA 41.04 C 41.61 O 41.4 CB 40.68 CG 44.12 CD1 46.7 CD2 47.37 CE1 45.71 CE2 49.24 CZ 49.63 OH 50.73
A ARG H 60 -60.3 -41.4 N 40.08 CA 38.57 C 37.83 O 37.23 CB 38.24 CG 35.33 CD 36.47 NE 33.66 CZ 34.78 NH1 27.34 NH2 32.08
A LYS H 20 -66.3 -33.1 N 37.58 CA 37.35 C 37.78 O 36.85 CB 37.19 CG 36.96 CD 39.29 CE 39.62 NZ 41.8
A TRP H 40 -64.3 -48.7 N 38.57 CA 41.34 C 42.01 O 42.57 CB 40.96 CG 45.19 CD1 44.29 CD2 44.24 NE1 47.22 CE2 46.14 CE3 45.09 CZ2 47.62 CZ3 44.15 CH2 46.29
A GLU H 112 -52.6 -43.5 N 42.58 CA 43.5 C 43.31 O 43.88 CB 43.87 CG 48.18 CD 53.01 OE1 54.41 OE2 54.05
A ILE H 8 -67.5 -30.7 N 42.85 CA 41.44 C 41.27 O 41.21 CB 41.04 CG1 39.81 CG2 39.21 CD1 40.93
A CYS H 1 -66.6 -43.1 N 41.0 CA 40.7 C 41.24 O 39.61 CB 41.21 SG 39.3
A GLU H 111 -63.8 -35.2 N 41.73 CA 43.03 C 42.55 O 42.26 CB 43.46 CG 47.63 CD 53.3 OE1 51.33 OE2 56.02
A THR H 56 -108.4 -12.1 N 41.95 CA 40.17 C 39.79 O 40.32 CB 40.3 OG1 38.65 CG2 37.47
A THR S 5 -119.9 169.0 N 38.73 CA 38.27 C 38.83 O 39.01 CB 38.1 OG1 35.61 CG2 36.94
A ASN - 3 52.2 56.6 N 39.6 CA 40.44 C 41.99 O 40.68 CB 39.91 CG 36.96 OD1 39.17 ND2 32.9
A PRO T 80 -55.7 -44.4 N 43.16 CA 43.97 C 44.37 O 44.47 CB 44.54 CG 45.1 CD 43.42
A SER T 81 -50.1 -14.5 N 44.92 CA 45.84 C 46.56 O 45.75 CB 45.8 OG 46.03
A LYS - 95 53.9 44.9 N 47.56 CA 48.34 C 48.97 O 49.94 CB 48.31 CG 49.74 CD 50.97 CE 53.02 NZ 53.76
A PHE - 42 -46.7 136.5 N 49.2 CA 49.42 C 49.1 O 50.03 CB 49.55 CG 49.72 CD1 48.56 CD2 49.57 CE1 48.84 CE2 48.97 CZ 48.98
A GLY - 59 -101.0 -6.8 N 48.28 CA 47.82 C 47.11 O 46.99
A SER S 41 -161.2 144.5 N 46.19 CA 44.97 C 44.69 O 44.42 CB 44.38 OG 43.68
A ILE H 41 -43.6 -45.0 N 43.28 CA 41.97 C 41.34 O 41.4 CB 41.28 CG1 41.23 CG2 40.36 CD1 39.6
A ALA H 38 -62.1 -34.0 N 40.97 CA 40.49 C 40.87 O 40.73 CB 39.96
A GLU H 112 -70.1 -44.6 N 40.67 CA 40.77 C 39.32 O 38.49 CB 40.76 CG 46.18 CD 48.96 OE1 47.08 OE2 50.73
A ALA H 0 -58.1 -43.5 N 37.91 CA 37.89 C 38.12 O 38.23 CB 37.76
A CYS H 0 -71.9 -35.1 N 37.78 CA 37.68 C 38.09 O 37.68 CB 37.9 SG 36.59
A VAL T 85 -53.3 131.2 N 38.02 CA 37.82 C 36.56 O 36.19 CB 38.39 CG1 39.5 CG2 40.15
A GLY T 37 67.9 0.9 N 35.71 CA 35.62 C 35.22 O 35.53
A ALA - 0 -69.3 155.6 N 34.03 CA 32.83 C 32.49 O 33.43 CB 32.35
A ASP S 24 -97.0 -41.4 N 31.11 CA 30.48 C 29.33 O 29.29 CB 29.81 CG 30.13 OD1 31.64 OD2 28.48
A VAL E 0 -131.6 136.9 N 29.53 CA 29.86 C 30.8 O 30.91 CB 30.22 CG1 28.63 CG2 28.23
A LEU E 0 -135.4 123.3 N 31.24 CA 30.26 C 30.65 O 29.65 CB 30.8 CG 29.26 CD1 29.94 CD2 29.97
A ILE E 4 -130.5 118.3 N 29.45 CA 31.06 C 32.33 O 33.05 CB 30.36 CG1 31.22 CG2 29.4 CD1 31.15
A SER E 1 -125.5 137.3 N 32.77 CA 34.34 C 35.48 O 34.06 CB 35.01 OG 34.23
A LEU - 31 -142.5 65.8 N 37.56 CA 40.25 C 42.39 O 41.81 CB 40.24 CG 41.56 CD1 38.65 CD2 43.24
A SER - 29 -66.1 112.5 N 44.89 CA 47.65 C 48.53 O 50.07 CB 48.41 OG 50.94
A THR - 51 -133.0 125.8 N 49.54 CA 50.4 C 50.77 O 51.39 CB 50.65 OG1 51.06 CG2 50.53
A PRO S 48 -122.8 175.3 N 50.84 CA 50.26 C 49.68 O 50.23 CB 50.76 CG 50.2 CD 50.72
A GLY S 30 -95.5 -120.8 N 48.83 CA 46.19 C 44.27 O 44.96
A PRO - 134 -60.1 130.7 N 42.16 CA 41.14 C 40.69 O 41.72 CB 40.6 CG 40.07 CD 41.22
A GLY - 17 -90.0 -172.8 N 39.24 CA 37.08 C 35.62 O 35.6
A VAL - 82 -132.7 124.3 N 35.11 CA 33.71 C 32.54 O 32.51 CB 34.37 CG1 32.89 CG2 36.26
A VAL - 8 -127.7 127.8 N 32.11 CA 30.81 C 31.54 O 32.66 CB 30.92 CG1 26.95 CG2 27.97
A LYS - 97 -97.1 145.4 N 32.32 CA 32.31 C 32.68 O 33.7 CB 33.23 CG 32.93 CD 36.87 CE 36.67 NZ 40.97
A ALA H 53 -56.0 -39.5 N 32.31 CA 32.65 C 33.75 O 33.99 CB 31.72
A GLU H 117 -70.0 -37.4 N 34.88 CA 35.68 C 34.52 O 34.85 CB 35.48 CG 40.78 CD 48.78 OE1 52.34 OE2 49.18
A TRP H 10 -56.3 -44.5 N 34.57 CA 35.18 C 35.73 O 36.75 CB 34.67 CG 35.39 CD1 36.13 CD2 34.79 NE1 32.09 CE2 35.08 CE3 35.4 CZ2 34.89 CZ3 33.97 CH2 35.85
A ILE H 1 -66.3 -51.0 N 36.03 CA 35.09 C 36.9 O 37.65 CB 33.6 CG1 32.67 CG2 33.57 CD1 29.22
A LYS H 162 -51.7 -33.3 N 37.31 CA 38.12 C 37.73 O 36.92 CB 38.53 CG 43.02 CD 50.35 CE 53.88 NZ 55.37
A SER T 43 -84.5 -9.5 N 38.29 CA 38.84 C 39.31 O 39.47 CB 38.8 OG 38.98
A MET S 14 -67.5 169.8 N 39.22 CA 38.82 C 38.07 O 38.13 CB 38.99 CG 39.78 SD 42.28 CE 38.42
A GLY - 29 -74.6 -156.4 N 38.54 CA 39.4 C 39.47 O 38.61
A GLU S 134 -64.2 123.1 N 38.94 CA 38.14 C 36.61 O 35.64 CB 39.29 CG 46.21 CD 54.59 OE1 56.57 OE2 55.3
A LYS S 77 58.8 64.7 N 34.37 CA 32.29 C 31.07 O 30.18 CB 32.32 CG 33.79 CD 37.54 CE 38.1 NZ 40.86
A PRO - 8 -59.6 136.2 N 28.76 CA 28.6 C 28.6 O 29.49 CB 28.14 CG 28.15 CD 28.73
A ILE E 1 -100.0 119.2 N 27.53 CA 26.63 C 26.24 O 26.36 CB 25.42 CG1 25.23 CG2 23.25 CD1 23.56
A VAL E 0 -124.3 116.8 N 25.38 CA 25.74 C 26.5 O 26.15 CB 26.78 CG1 24.99 CG2 25.08
A PHE E 1 -103.9 118.2 N 27.11 CA 27.12 C 27.52 O 27.15 CB 25.76 CG 25.92 CD1 23.35 CD2 23.17 CE1 21.84 CE2 23.8 CZ 18.76
A CYS E 0 -120.1 90.5 N 28.61 CA 28.17 C 26.69 O 25.53 CB 28.82 SG 36.05
A CYS - 9 -104.5 10.4 N 24.83 CA 25.39 C 25.33 O 25.59 CB 24.42 SG 26.65
A ALA - 4 -62.1 142.7 N 25.55 CA 26.14 C 25.02 O 24.38 CB 25.61
A ASN S 20 -121.9 147.8 N 25.13 CA 24.77 C 25.13 O 25.34 CB 24.87 CG 24.79 OD1 30.24 ND2 23.98
A PRO S 13 -85.0 -15.0 N 24.8 CA 24.25 C 24.32 O 25.03 CB 21.99 CG 23.22 CD 24.5
A VAL S 57 -109.8 121.7 N 24.21 CA 23.6 C 22.77 O 22.75 CB 24.38 CG1 24.87 CG2 22.8
A PRO - 6 -66.6 163.2 N 22.55 CA 23.26 C 23.27 O 22.89 CB 23.54 CG 24.28 CD 21.8
A GLU S 18 -54.2 -31.1 N 23.62 CA 24.47 C 24.29 O 25.54 CB 23.67 CG 22.14 CD 24.74 OE1 21.54 OE2 24.64
A ILE S 10 -151.9 146.0 N 23.32 CA 24.31 C 24.65 O 24.71 CB 23.78 CG1 25.43 CG2 25.12 CD1 27.18
A TYR - 29 -80.4 151.4 N 25.28 CA 26.03 C 26.63 O 27.39 CB 24.76 CG 24.24 CD1 21.61 CD2 25.4 CE1 19.95 CE2 22.02 CZ 22.72 OH 22.64
A PRO H 18 -47.8 -48.2 N 27.23 CA 27.2 C 27.19 O 28.42 CB 26.51 CG 27.54 CD 27.16
A TYR H 39 -64.4 -29.5 N 27.46 CA 28.28 C 29.02 O 29.49 CB 28.28 CG 27.17 CD1 26.19 CD2 27.32 CE1 26.4 CE2 28.13 CZ 28.1 OH 25.71
A GLU H 65 -71.5 -45.5 N 29.12 CA 30.16 C 31.41 O 31.22 CB 28.71 CG 27.12 CD 30.34 OE1 28.19 OE2 28.88
A ALA H 0 -62.7 -36.9 N 32.02 CA 33.11 C 33.66 O 34.99 CB 32.5
A LYS H 80 -66.3 -46.6 N 34.92 CA 35.42 C 36.09 O 35.75 CB 34.81 CG 36.17 CD 40.67 CE 38.44 NZ 39.57
A GLU H 146 -57.9 -35.7 N 36.93 CA 36.62 C 35.82 O 36.93 CB 37.74 CG 40.74 CD 44.9 OE1 43.68 OE2 46.73
A ALA T 17 -82.2 1.8 N 34.58 CA 32.96 C 32.88 O 32.31 CB 32.12
A GLY T 44 110.6 4.6 N 32.83 CA 33.14 C 33.11 O 33.95
A ALA - 6 -70.7 139.0 N 32.74 CA 31.79 C 31.26 O 30.76 CB 31.35
A TYR S 80 -91.4 -42.3 N 30.2 CA 28.71 C 28.07 O 28.94 CB 28.51 CG 30.76 CD1 33.71 CD2 32.44 CE1 35.65 CE2 33.06 CZ 34.96 OH 38.73
A ILE E 0 -126.7 129.7 N 26.86 CA 25.7 C 24.89 O 24.99 CB 24.63 CG1 25.48 CG2 24.19 CD1 19.84
A VAL E 4 -133.5 129.4 N 24.06 CA 23.2 C 23.05 O 21.05 CB 23.02 CG1 20.9 CG2 22.87
A ALA E 0 -117.9 148.8 N 22.83 CA 23.17 C 23.77 O 24.65 CB 22.71
A THR E 0 -129.6 179.3 N 23.42 CA 23.1 C 22.96 O 23.71 CB 23.38 OG1 19.85 CG2 24.54
A GLY S 0 -82.3 -3.2 N 23.36 CA 23.49 C 22.75 O 24.97
A ARG - 0 -100.7 145.5 N 22.72 CA 23.2 C 23.65 O 24.28 CB 22.35 CG 20.69 CD 19.91 NE 22.37 CZ 22.9 NH1 21.42 NH2 21.59
A GLY T 9 -84.7 3.4 N 23.39 CA 22.05 C 22.32 O 20.84
A ASP T 12 -99.4 3.5 N 22.68 CA 22.11 C 22.78 O 22.91 CB 21.29 CG 20.71 OD1 17.37 OD2 18.78
A PHE S 24 -124.4 155.7 N 21.89 CA 22.68 C 23.12 O 23.48 CB 22.35 CG 23.69 CD1 23.51 CD2 27.23 CE1 27.16 CE2 26.26 CZ 25.99
A PRO S 68 -56.8 156.7 N 24.25 CA 25.03 C 25.17 O 25.04 CB 25.49 CG 25.12 CD 23.66
A ASN S 9 64.3 64.1 N 25.53 CA 25.31 C 25.4 O 24.9 CB 25.49 CG 25.11 OD1 19.94 ND2 21.52
A GLN B 16 -79.1 105.9 N 25.65 CA 24.61 C 24.74 O 25.81 CB 23.82 CG 21.81 CD 21.48 OE1 21.24 NE2 17.13
A VAL - 5 -102.3 95.6 N 23.74 CA 22.69 C 23.33 O 25.05 CB 22.9 CG1 24.56 CG2 20.2
A ASN - 14 -147.8 140.9 N 21.03 CA 21.13 C 20.55 O 20.43 CB 18.33 CG 23.55 OD1 22.89 ND2 24.77
A ASN G 7 -53.9 -20.9 N 19.79 CA 20.34 C 19.78 O 19.48 CB 20.74 CG 20.78 OD1 20.8 ND2 15.5
A SER G 0 -57.6 -18.1 N 19.22 CA 20.68 C 20.96 O 22.11 CB 20.93 OG 21.56
A VAL G 3 -98.2 7.2 N 21.31 CA 21.95 C 22.48 O 24.02 CB 21.87 CG1 22.06 CG2 21.08
A GLY T 0 -133.6 -41.4 N 21.66 CA 20.41 C 20.39 O 20.95
A PHE H 0 -58.4 -36.9 N 20.18 CA 20.02 C 19.21 O 18.85 CB 19.52 CG 19.9 CD1 17.19 CD2 22.13 CE1 17.05 CE2 22.48 CZ 19.35
A PRO H 0 -62.5 -38.2 N 17.13 CA 16.38 C 16.06 O 15.31 CB 14.56 CG 15.28 CD 16.95
A GLY H 0 -76.6 -45.8 N 17.13 CA 19.23 C 19.44 O 20.14
A ILE H 0 -55.7 -55.8 N 19.97 CA 21.02 C 21.36 O 20.99 CB 20.73 CG1 22.01 CG2 21.49 CD1 25.85
A LEU H 2 -62.8 -42.6 N 20.75 CA 21.6 C 22.26 O 22.62 CB 20.17 CG 23.48 CD1 18.26 CD2 19.43
A LYS H 2 -61.7 -43.3 N 22.11 CA 23.76 C 24.75 O 23.91 CB 23.36 CG 22.08 CD 22.4 CE 18.43 NZ 20.86
A GLY H 0 -60.6 -48.0 N 25.55 CA 26.84 C 27.97 O 28.34
A ALA H 2 -62.9 -36.1 N 26.01 CA 25.45 C 23.98 O 23.78 CB 25.17
A LEU H 16 -68.1 -39.5 N 22.91 CA 23.22 C 24.6 O 24.45 CB 22.38 CG 23.29 CD1 16.97 CD2 21.25
A ILE H 28 -65.2 -46.0 N 24.45 CA 25.11 C 25.57 O 26.41 CB 24.21 CG1 23.29 CG2 26.82 CD1 21.24
A VAL T 0 -99.7 11.6 N 27.44 CA 27.98 C 28.62 O 28.78 CB 28.05 CG1 25.46 CG2 26.59
A ARG T 65 53.2 51.8 N 27.84 CA 27.46 C 26.98 O 24.58 CB 27.05 CG 27.51 CD 32.21 NE 35.1 CZ 32.99 NH1 30.8 NH2 33.24
A ALA - 0 -63.7 141.1 N 26.86 CA 29.47 C 30.63 O 30.94 CB 28.53
A ARG S 134 -76.5 -34.0 N 31.53 CA 32.23 C 31.69 O 33.83 CB 31.84 CG 31.96 CD 36.8 NE 37.45 CZ 42.3 NH1 38.05 NH2 43.0
A LYS S 60 -142.5 156.4 N 31.79 CA 32.26 C 30.85 O 30.24 CB 33.2 CG 38.56 CD 41.08 CE 44.88 NZ 44.98
A ILE - 1 -93.2 112.0 N 28.72 CA 27.24 C 28.64 O 28.58 CB 27.4 CG1 25.2 CG2 25.06 CD1 21.99
A THR - 17 -87.7 165.7 N 28.85 CA 28.53 C 28.03 O 27.84 CB 28.94 OG1 27.4 CG2 27.42
A ASP H 40 -63.3 -37.9 N 27.59 CA 27.87 C 27.74 O 29.09 CB 26.5 CG 29.93 OD1 31.93 OD2 29.11
A ASN H 68 -58.0 -42.3 N 27.8 CA 27.54 C 26.44 O 25.6 CB 26.81 CG 28.32 OD1 27.84 ND2 25.82
A MET H 0 -64.8 -45.7 N 25.95 CA 26.07 C 27.15 O 27.87 CB 25.78 CG 24.23 SD 25.5 CE 24.04
A ALA H 0 -54.8 -39.6 N 25.85 CA 25.09 C 24.32 O 21.58 CB 25.06
A ILE H 13 -73.0 -37.3 N 25.25 CA 26.14 C 25.32 O 26.05 CB 26.5 CG1 27.37 CG2 26.13 CD1 24.95
A ALA H 10 -59.1 -42.8 N 24.96 CA 25.12 C 24.69 O 24.65 CB 23.46
A ALA H 0 -61.1 -37.4 N 23.27 CA 22.76 C 23.27 O 24.12 CB 21.23
A SER H 0 -61.8 -43.8 N 23.18 CA 23.15 C 23.73 O 23.7 CB 23.69 OG 21.83
A ARG H 106 -69.4 -42.0 N 24.74 CA 24.94 C 25.15 O 26.18 CB 25.39 CG 28.08 CD 35.0 NE 45.25 CZ 46.1 NH1 45.6 NH2 48.51
A ALA H 0 -57.2 -43.1 N 25.24 CA 25.05 C 25.72 O 26.58 CB 25.02
A LEU H 0 -69.1 -46.7 N 25.02 CA 23.42 C 23.69 O 23.81 CB 20.95 CG 19.86 CD1 18.99 CD2 19.5
A ALA H 4 -65.4 -45.4 N 23.95 CA 24.55 C 24.85 O 25.06 CB 24.53
A GLU H 81 -66.8 -39.3 N 25.83 CA 27.55 C 26.4 O 24.88 CB 27.58 CG 36.8 CD 45.38 OE1 49.57 OE2 48.46
A PHE H 47 -56.2 -45.5 N 26.13 CA 25.93 C 26.86 O 27.03 CB 25.72 CG 23.58 CD1 21.35 CD2 24.21 CE1 20.64 CE2 20.77 CZ 21.65
A ALA H 0 -64.3 -47.5 N 26.04 CA 27.13 C 27.86 O 27.79 CB 26.04
A GLU H 84 -60.1 -36.1 N 28.77 CA 29.18 C 29.54 O 30.84 CB 29.37 CG 31.46 CD 36.67 OE1 34.83 OE2 39.73
A LYS H 178 -59.2 -39.8 N 29.28 CA 30.07 C 29.64 O 29.22 CB 31.13 CG 36.18 CD 39.09 CE 42.56 NZ 43.48
A ARG T 80 -93.3 10.9 N 28.38 CA 27.28 C 26.99 O 26.93 CB 27.05 CG 26.96 CD 26.27 NE 27.83 CZ 26.14 NH1 21.91 NH2 23.98
A GLY - 39 97.0 123.7 N 27.35 CA 27.39 C 27.69 O 27.1
A ILE - 34 -119.2 158.8 N 26.49 CA 27.56 C 28.86 O 28.42 CB 27.11 CG1 27.16 CG2 26.48 CD1 27.85
A ASN B 72 -164.8 165.7 N 29.11 CA 29.61 C 29.87 O 31.01 CB 29.32 CG 31.69 OD1 35.89 ND2 27.83
A PRO T 30 -50.1 -32.6 N 29.86 CA 29.84 C 29.91 O 31.1 CB 30.18 CG 29.83 CD 29.95
A ASP T 83 -95.6 11.7 N 29.25 CA 30.37 C 29.41 O 28.97 CB 30.71 CG 35.44 OD1 36.92 OD2 44.04
A ASN B 50 -159.1 87.9 N 28.54 CA 28.14 C 27.75 O 27.31 CB 27.46 CG 30.57 OD1 27.09 ND2 30.68
A ILE - 0 -103.1 -3.1 N 25.72 CA 25.04 C 25.48 O 24.79 CB 25.14 CG1 23.39 CG2 21.9 CD1 22.35
A ILE S 2 -153.7 154.4 N 24.4 CA 24.44 C 23.43 O 24.94 CB 23.54 CG1 24.53 CG2 25.03 CD1 26.52
A GLY - 0 -73.2 154.8 N 23.7 CA 22.92 C 22.28 O 22.23
A THR - 42 -112.8 166.2 N 21.28 CA 21.05 C 20.96 O 20.75 CB 20.92 OG1 21.97 CG2 19.56
A MET T 1 -67.7 -16.0 N 19.57 CA 20.9 C 20.3 O 19.32 CB 20.53 CG 20.21 SD 24.45 CE 19.91
A ASP T 92 -79.2 1.5 N 20.27 CA 22.01 C 22.46 O 22.18 CB 22.83 CG 25.53 OD1 28.16 OD2 28.28
A GLU - 40 -116.8 77.5 N 22.74 CA 24.23 C 22.8 O 22.26 CB 24.38 CG 25.52 CD 27.18 OE1 28.84 OE2 27.01
A PRO T 44 -59.9 -16.1 N 22.34 CA 22.34 C 22.74 O 23.01 CB 23.22 CG 22.2 CD 22.51
A GLY T 26 -74.7 -22.0 N 21.83 CA 21.55 C 23.18 O 22.07
A ILE H 0 -49.1 -40.6 N 23.22 CA 22.46 C 21.85 O 23.81 CB 23.0 CG1 21.76 CG2 23.23 CD1 25.28
A PHE H 0 -82.3 -35.5 N 20.62 CA 19.53 C 20.02 O 21.16 CB 19.66 CG 17.84 CD1 15.8 CD2 16.41 CE1 20.8 CE2 16.92 CZ 18.59
A PRO H 3 -67.1 -28.8 N 18.75 CA 19.26 C 19.89 O 20.82 CB 17.79 CG 19.58 CD 17.98
A LYS H 42 -69.7 -48.2 N 21.24 CA 22.05 C 23.32 O 23.55 CB 23.02 CG 21.92 CD 25.47 CE 25.84 NZ 34.02
A GLU H 0 -50.6 -44.3 N 22.83 CA 22.63 C 22.18 O 22.16 CB 21.66 CG 20.02 CD 18.19 OE1 21.24 OE2 19.53
A ALA H 0 -64.9 -43.3 N 22.41 CA 22.8 C 23.65 O 23.37 CB 23.3
A ALA H 0 -71.2 -42.8 N 23.71 CA 23.72 C 23.28 O 23.79 CB 24.15
A ASP H 35 -63.2 -46.2 N 23.36 CA 23.53 C 24.15 O 24.15 CB 23.34 CG 24.59 OD1 25.45 OD2 25.38
A VAL H 0 -58.2 -38.7 N 22.66 CA 23.07 C 24.11 O 25.38 CB 22.91 CG1 18.47 CG2 19.61
A ALA H 0 -64.5 -39.2 N 25.09 CA 26.04 C 27.05 O 28.14 CB 25.42
A MET H 50 -72.7 -46.3 N 27.24 CA 27.62 C 27.88 O 27.59 CB 26.27 CG 28.04 SD 27.29 CE 23.55
A GLN H 44 -53.9 -42.0 N 28.32 CA 29.54 C 28.95 O 27.88 CB 29.6 CG 33.55 CD 38.07 OE1 38.04 NE2 39.21
A ALA H 0 -61.7 -49.7 N 29.09 CA 28.96 C 29.13 O 28.0 CB 27.56
A ILE H 45 -51.2 -50.4 N 30.06 CA 30.51 C 31.29 O 32.28 CB 31.16 CG1 27.96 CG2 29.98 CD1 27.22
A LYS H 166 -61.2 -36.6 N 31.38 CA 31.97 C 33.1 O 33.56 CB 31.32 CG 34.47 CD 38.56 CE 41.27 NZ 39.9
A ASP H 45 -72.7 -17.1 N 32.98 CA 32.93 C 32.8 O 33.47 CB 32.38 CG 35.38 OD1 36.06 OD2 34.78
A GLY T 58 85.2 12.8 N 31.86 CA 31.56 C 31.95 O 30.26
A VAL - 11 -94.7 -8.2 N 30.83 CA 30.59 C 30.42 O 29.34 CB 31.33 CG1 31.38 CG2 29.05
A ALA - 10 -79.4 138.0 N 30.16 CA 30.31 C 31.66 O 31.45 CB 29.01
A ARG S 61 -100.6 -3.2 N 33.06 CA 34.94 C 35.97 O 36.98 CB 34.97 CG 36.23 CD 36.31 NE 35.54 CZ 38.21 NH1 38.9 NH2 39.67
A VAL - 46 -129.2 106.3 N 37.19 CA 37.57 C 37.29 O 36.7 CB 38.53 CG1 38.44 CG2 36.76
A THR - 73 -113.2 -7.8 N 36.56 CA 35.92 C 34.55 O 35.07 CB 36.27 OG1 36.0 CG2 37.7
A ASP - 147 -111.9 19.1 N 32.54 CA 31.47 C 30.36 O 29.83 CB 32.19 CG 34.32 OD1 34.83 OD2 38.67
A LEU - 48 -89.6 148.9 N 28.07 CA 27.21 C 26.17 O 26.93 CB 26.87 CG 27.55 CD1 27.46 CD2 27.07
A THR - 78 -91.6 176.9 N 24.02 CA 24.37 C 25.1 O 24.84 CB 24.41 OG1 23.07 CG2 23.54
A TRP H 86 -58.6 -45.3 N 24.88 CA 25.85 C 26.43 O 25.71 CB 24.15 CG 26.17 CD1 24.22 CD2 26.85 NE1 25.96 CE2 24.04 CE3 26.85 CZ2 25.38 CZ3 27.21 CH2 29.14
A GLN H 98 -66.0 -40.3 N 26.23 CA 25.8 C 25.81 O 26.46 CB 25.99 CG 24.47 CD 29.43 OE1 26.25 NE2 26.16
A GLN H 86 -63.1 -36.1 N 25.53 CA 25.6 C 25.45 O 26.18 CB 25.27 CG 25.02 CD 22.41 OE1 20.1 NE2 23.31
A VAL H 0 -75.7 -43.7 N 25.11 CA 25.24 C 25.08 O 25.3 CB 25.77 CG1 23.52 CG2 26.68
A TYR H 47 -53.5 -48.3 N 25.02 CA 23.88 C 23.89 O 23.54 CB 23.23 CG 24.01 CD1 21.6 CD2 22.73 CE1 21.03 CE2 22.73 CZ 24.49 OH 25.35
A ASP H 75 -59.1 -41.0 N 24.1 CA 23.48 C 23.35 O 23.1 CB 24.55 CG 27.09 OD1 25.4 OD2 28.55
A ILE H 66 -69.0 -37.7 N 21.38 CA 21.9 C 22.1 O 24.25 CB 22.03 CG1 20.33 CG2 21.43 CD1 18.6
A ALA H 0 -72.5 -46.7 N 21.87 CA 21.71 C 21.87 O 20.76 CB 21.03
A GLU H 86 -63.9 -40.5 N 22.25 CA 23.07 C 22.56 O 21.68 CB 24.45 CG 30.05 CD 40.45 OE1 44.98 OE2 44.51
A HIS H 99 -65.3 -42.3 N 22.02 CA 21.97 C 21.68 O 22.78 CB 22.46 CG 24.26 ND1 29.59 CD2 21.61 CE1 27.74 NE2 22.42
A ASP H 48 -63.7 -41.9 N 21.48 CA 23.34 C 22.55 O 23.13 CB 23.96 CG 27.21 OD1 30.9 OD2 28.05
A ILE H 6 -71.5 -48.6 N 22.12 CA 23.45 C 25.19 O 26.18 CB 22.33 CG1 20.68 CG2 22.71 CD1 15.52
A LYS H 86 -54.4 -45.8 N 25.46 CA 26.8 C 25.44 O 25.45 CB 27.67 CG 33.94 CD 38.89 CE 43.02 NZ 45.07
A GLU H 38 -61.5 -38.4 N 24.15 CA 23.04 C 21.81 O 22.63 CB 23.03 CG 27.41 CD 31.49 OE1 28.51 OE2 35.08
A ALA H 3 -71.5 -45.8 N 20.0 CA 19.78 C 19.66 O 19.06 CB 18.82
A ARG H 30 -62.2 -46.9 N 18.46 CA 19.15 C 18.78 O 18.44 CB 19.03 CG 20.43 CD 23.87 NE 19.23 CZ 21.72 NH1 21.52 NH2 18.03
A GLU H 74 -69.3 -36.3 N 18.73 CA 18.82 C 18.85 O 19.05 CB 19.39 CG 22.25 CD 30.17 OE1 32.45 OE2 30.82
A SER H 4 -59.7 -49.9 N 19.52 CA 20.84 C 21.02 O 21.53 CB 20.11 OG 18.88
A ALA H 0 -58.1 -41.3 N 21.15 CA 21.21 C 21.35 O 21.39 CB 18.78
A GLN H 70 -67.0 -39.9 N 22.68 CA 22.12 C 21.39 O 20.75 CB 23.44 CG 28.15 CD 35.64 OE1 32.9 NE2 33.65
A LEU H 45 -62.1 -39.3 N 21.32 CA 21.86 C 23.15 O 23.79 CB 21.69 CG 23.3 CD1 25.05 CD2 20.91
A LEU H 0 -66.9 -41.1 N 23.32 CA 23.09 C 23.84 O 25.28 CB 21.48 CG 22.0 CD1 21.73 CD2 23.39
A GLN H 21 -62.0 -54.7 N 25.24 CA 26.09 C 27.0 O 27.49 CB 25.38 CG 24.21 CD 22.29 OE1 21.48 NE2 22.74
A ASP H 127 -56.7 -42.9 N 27.45 CA 27.85 C 27.25 O 26.95 CB 28.4 CG 31.11 OD1 36.21 OD2 31.42
A SER T 45 -60.0 -12.6 N 26.7 CA 26.63 C 24.65 O 24.01 CB 26.05 OG 34.87
A LYS T 132 75.2 11.8 N 24.24 CA 25.24 C 24.32 O 24.14 CB 24.42 CG 29.75 CD 30.99 CE 37.08 NZ 39.05
A HIS S 41 -75.3 -32.1 N 23.87 CA 24.85 C 24.71 O 24.43 CB 24.37 CG 24.18 ND1 24.94 CD2 21.51 CE1 17.08 NE2 20.81
A ILE S 6 -96.1 112.5 N 24.02 CA 24.02 C 25.72 O 26.74 CB 23.46 CG1 22.94 CG2 21.16 CD1 22.69
A VAL - 80 -70.4 146.2 N 25.96 CA 27.81 C 28.24 O 28.59 CB 27.17 CG1 33.38 CG2 27.67
A ASP - 99 -66.8 146.3 N 26.77 CA 26.53 C 25.95 O 26.44 CB 27.11 CG 28.59 OD1 29.09 OD2 29.58
A PHE - 18 -76.4 138.8 N 25.45 CA 24.02 C 24.48 O 23.23 CB 23.37 CG 22.35 CD1 17.39 CD2 21.92 CE1 18.1 CE2 22.87 CZ 21.07
A PRO - 46 -64.1 127.6 N 25.28 CA 26.7 C 28.13 O 27.68 CB 27.07 CG 24.37 CD 24.34
A GLN H 60 -52.7 -39.6 N 29.29 CA 31.53 C 31.99 O 32.28 CB 31.99 CG 34.92 CD 37.89 OE1 38.24 NE2 40.58
A GLU H 143 -56.8 -30.8 N 32.04 CA 32.6 C 31.94 O 31.01 CB 33.83 CG 39.85 CD 48.52 OE1 47.43 OE2 52.43
A THR H 29 -83.8 -30.8 N 30.77 CA 29.26 C 29.25 O 28.68 CB 29.78 OG1 27.49 CG2 25.25
A LEU H 3 -58.8 -48.9 N 29.09 CA 29.99 C 30.21 O 30.55 CB 28.74 CG 29.08 CD1 23.17 CD2 25.84
A ASN H 57 -63.1 -41.0 N 30.65 CA 30.06 C 30.09 O 30.74 CB 29.16 CG 27.21 OD1 27.91 ND2 27.34
A GLU H 97 -61.9 -44.1 N 30.36 CA 31.71 C 31.56 O 32.66 CB 31.99 CG 38.7 CD 42.4 OE1 43.57 OE2 42.16
A CYS H 0 -63.2 -37.0 N 29.85 CA 28.75 C 27.49 O 25.63 CB 28.64 SG 30.5
A LEU H 16 -59.8 -60.9 N 27.62 CA 28.1 C 28.39 O 28.26 CB 28.12 CG 29.88 CD1 30.74 CD2 30.95
A ALA H 60 -45.8 -46.0 N 28.78 CA 29.82 C 30.48 O 31.37 CB 29.07
A TYR H 68 -56.2 -46.9 N 31.21 CA 31.16 C 32.17 O 31.52 CB 31.38 CG 30.88 CD1 29.66 CD2 29.83 CE1 29.38 CE2 31.26 CZ 33.17 OH 32.48
A ALA H 0 -66.4 -45.3 N 31.94 CA 32.33 C 32.11 O 31.75 CB 31.37
A ILE H 37 -61.9 -49.4 N 32.49 CA 32.41 C 34.64 O 34.47 CB 32.3 CG1 29.08 CG2 31.59 CD1 24.14
A ASN H 97 -54.4 -44.1 N 36.87 CA 38.96 C 38.94 O 39.96 CB 39.13 CG 44.45 OD1 48.53 ND2 46.44
A LYS H 112 -54.2 -34.2 N 38.78 CA 38.52 C 38.9 O 39.51 CB 38.31 CG 39.82 CD 41.85 CE 43.38 NZ 42.34
A VAL H 25 -95.6 -25.0 N 38.42 CA 39.28 C 40.46 O 40.76 CB 37.69 CG1 38.53 CG2 37.14
A THR H 85 -101.4 -2.2 N 42.53 CA 44.28 C 46.22 O 47.08 CB 44.99 OG1 43.42 CG2 43.4
A GLY - 80 96.1 360.0 N 47.56 CA 48.46 C 49.29 O 50.0
B MET - 244 360.0 -73.7 N 46.02 CA 46.27 C 44.15 O 43.57 CB 48.08 CG 51.8 SD 64.31 CE 62.21
B ALA - 56 -70.5 141.9 N 40.85 CA 37.51 C 34.71 O 35.54 CB 37.02
B GLN - 108 -125.9 136.2 N 32.01 CA 29.67 C 27.6 O 26.49 CB 29.59 CG 31.03 CD 34.28 OE1 36.21 NE2 36.41
B LEU - 2 -63.5 135.5 N 25.22 CA 24.24 C 24.22 O 23.36 CB 23.99 CG 24.96 CD1 23.05 CD2 27.03
B LYS - 118 -69.4 153.5 N 23.56 CA 24.06 C 23.88 O 22.17 CB 23.97 CG 25.12 CD 30.21 CE 30.59 NZ 35.88
B ALA T 64 -57.1 -30.8 N 24.55 CA 22.76 C 22.77 O 22.73 CB 22.55
B ASP T 57 -85.3 4.7 N 21.83 CA 23.59 C 23.36 O 22.15 CB 22.91 CG 25.05 OD1 29.69 OD2 24.27
B LEU - 0 55.8 21.0 N 23.52 CA 23.7 C 24.21 O 26.43 CB 23.61 CG 24.18 CD1 25.75 CD2 19.88
B SER T 56 -80.1 -1.0 N 22.83 CA 23.48 C 23.35 O 23.02 CB 23.37 OG 23.55
B ASN T 24 -131.3 34.8 N 23.9 CA 23.81 C 23.75 O 22.91 CB 23.88 CG 22.58 OD1 22.95 ND2 18.9
B LEU T 8 -63.7 -36.6 N 24.27 CA 25.83 C 26.25 O 26.49 CB 25.81 CG 26.43 CD1 22.97 CD2 22.85
B GLU G 74 -62.6 -42.7 N 27.06 CA 28.35 C 28.89 O 29.77 CB 27.77 CG 31.24 CD 33.49 OE1 34.86 OE2 30.9
B GLU G 130 -68.5 -15.4 N 28.17 CA 28.57 C 28.33 O 29.05 CB 27.95 CG 30.62 CD 34.8 OE1 34.27 OE2 36.33
B CYS G 7 -96.3 -5.7 N 29.01 CA 29.07 C 29.96 O 30.26 CB 28.63 SG 27.52
B LEU S 6 -90.8 128.1 N 30.43 CA 31.37 C 32.39 O 33.23 CB 31.17 CG 30.6 CD1 33.96 CD2 31.52
B PRO - 45 -52.0 141.3 N 33.81 CA 35.16 C 36.06 O 35.69 CB 35.4 CG 34.02 CD 33.09
B SER T 118 -65.4 -20.9 N 37.27 CA 38.13 C 37.56 O 37.45 CB 38.47 OG 41.12
B THR T 119 -69.4 -24.7 N 37.57 CA 37.81 C 36.99 O 37.15 CB 38.67 OG1 41.7 CG2 39.46
B LEU S 14 -64.8 149.3 N 34.87 CA 33.89 C 33.34 O 33.32 CB 33.69 CG 32.4 CD1 31.33 CD2 29.09
B SER - 56 -77.5 173.4 N 32.76 CA 33.29 C 32.56 O 33.07 CB 32.55 OG 34.72
B GLN H 109 -67.0 -34.7 N 31.99 CA 32.63 C 31.93 O 32.26 CB 32.95 CG 36.23 CD 45.42 OE1 47.28 NE2 44.64
B GLU H 94 -71.0 -29.4 N 32.09 CA 33.94 C 32.29 O 32.42 CB 34.5 CG 42.48 CD 51.61 OE1 53.19 OE2 53.2
B GLN H 46 -70.8 -41.8 N 32.31 CA 31.17 C 30.12 O 29.34 CB 31.99 CG 32.09 CD 31.25 OE1 30.17 NE2 30.77
B ARG H 49 -57.4 -43.3 N 29.92 CA 30.02 C 29.75 O 29.72 CB 30.83 CG 32.41 CD 34.47 NE 36.32 CZ 35.05 NH1 32.39 NH2 33.06
B ALA H 3 -66.3 -44.1 N 29.14 CA 28.13 C 28.39 O 27.45 CB 28.1
B VAL H 37 -74.1 -38.9 N 28.83 CA 28.98 C 28.51 O 29.52 CB 30.04 CG1 28.67 CG2 29.54
B ALA H 0 -59.3 -49.7 N 27.71 CA 27.4 C 27.74 O 28.71 CB 24.42
B LYS H 10 -49.4 -50.5 N 27.84 CA 28.34 C 28.61 O 28.63 CB 27.83 CG 28.36 CD 25.79 CE 17.55 NZ 20.53
B THR H 4 -66.4 -35.8 N 28.07 CA 28.99 C 28.84 O 29.91 CB 29.59 OG1 32.89 CG2 27.09
B GLN H 34 -68.1 -44.5 N 28.91 CA 28.18 C 26.85 O 26.51 CB 28.88 CG 30.48 CD 35.34 OE1 40.08 NE2 38.0
B PHE H 0 -49.8 -60.8 N 25.54 CA 25.56 C 25.32 O 25.74 CB 25.45 CG 26.37 CD1 24.75 CD2 25.15 CE1 26.51 CE2 22.75 CZ 25.48
B TYR H 1 -60.4 -31.9 N 24.7 CA 24.85 C 25.02 O 24.81 CB 24.56 CG 23.72 CD1 20.79 CD2 23.95 CE1 23.76 CE2 22.79 CZ 22.36 OH 20.54
B LYS H 36 -66.1 -47.3 N 25.48 CA 25.54 C 25.96 O 26.74 CB 25.96 CG 27.56 CD 31.25 CE 34.18 NZ 38.82
B GLU H 23 -67.5 -45.5 N 25.46 CA 24.87 C 24.27 O 24.01 CB 25.16 CG 25.63 CD 32.5 OE1 34.69 OE2 33.54
B LEU H 0 -56.9 -45.1 N 23.58 CA 23.44 C 23.94 O 25.58 CB 22.29 CG 19.81 CD1 15.68 CD2 16.4
B ALA H 0 -51.3 -47.2 N 22.97 CA 22.2 C 22.31 O 21.1 CB 21.8
B GLU H 40 -55.9 -46.7 N 23.24 CA 23.4 C 23.43 O 23.47 CB 24.1 CG 26.03 CD 31.25 OE1 32.2 OE2 33.11
B LYS H 80 -73.6 -41.0 N 23.39 CA 23.49 C 23.31 O 21.65 CB 22.55 CG 26.96 CD 34.3 CE 37.86 NZ 42.83
B VAL H 0 -73.4 -40.8 N 23.48 CA 23.12 C 23.58 O 24.67 CB 23.72 CG1 21.2 CG2 21.58
B HIS H 0 -63.1 -39.1 N 23.77 CA 23.56 C 23.43 O 22.34 CB 22.67 CG 23.48 ND1 19.21 CD2 20.34 CE1 22.56 NE2 20.71
B LYS H 93 -71.6 -40.6 N 23.66 CA 24.99 C 24.83 O 25.82 CB 26.62 CG 31.28 CD 37.44 CE 44.52 NZ 46.94
B PHE H 81 -54.5 -48.5 N 24.88 CA 24.77 C 24.86 O 24.44 CB 24.08 CG 26.87 CD1 27.65 CD2 27.6 CE1 29.42 CE2 28.19 CZ 26.91
B TYR T 22 -95.7 1.0 N 24.53 CA 25.21 C 25.15 O 24.89 CB 26.0 CG 26.94 CD1 27.07 CD2 25.81 CE1 28.39 CE2 28.57 CZ 27.96 OH 27.57
B LYS T 105 55.4 45.3 N 24.83 CA 26.95 C 26.43 O 26.98 CB 26.35 CG 30.34 CD 34.48 CE 41.5 NZ 39.84
B GLY S 0 113.0 -158.8 N 27.35 CA 27.12 C 26.79 O 26.84
B LYS S 0 -134.5 -30.2 N 24.31 CA 23.67 C 23.07 O 22.45 CB 24.66 CG 22.48 CD 24.81 CE 23.19 NZ 23.22
B ILE E 0 -116.5 171.3 N 21.68 CA 20.09 C 19.39 O 18.86 CB 19.33 CG1 18.87 CG2 18.98 CD1 16.85
B GLN E 22 -155.8 162.8 N 18.01 CA 18.04 C 17.17 O 17.45 CB 17.31 CG 16.57 CD 16.18 OE1 20.42 NE2 15.43
B ILE E 0 -96.1 145.8 N 18.8 CA 20.56 C 21.08 O 21.79 CB 19.95 CG1 22.0 CG2 22.08 CD1 19.68
B MET E 0 -136.0 151.3 N 21.5 CA 21.44 C 20.28 O 21.07 CB 21.07 CG 28.13 SD 35.7 CE 32.59
B PRO E 1 -56.7 152.1 N 19.77 CA 18.13 C 18.9 O 18.84 CB 16.7 CG 18.75 CD 18.89
B LYS - 33 -131.0 14.0 N 17.95 CA 17.48 C 18.46 O 18.97 CB 18.37 CG 15.74 CD 11.19 CE 13.17 NZ 10.02
B CYS S 0 -123.5 161.0 N 19.69 CA 19.8 C 19.99 O 22.02 CB 18.08 SG 21.04
B THR - 8 -60.2 129.0 N 21.48 CA 21.8 C 22.22 O 22.52 CB 21.64 OG1 22.58 CG2 20.16
B LEU - 18 -117.1 49.3 N 22.34 CA 22.91 C 24.24 O 24.53 CB 21.02 CG 22.58 CD1 19.09 CD2 21.08
B ALA - 44 -63.6 -21.9 N 25.04 CA 25.93 C 25.39 O 26.24 CB 25.9
B GLY S 22 178.6 166.2 N 24.83 CA 23.85 C 24.1 O 23.21
B PHE G 41 -53.6 -42.6 N 24.27 CA 24.17 C 23.49 O 23.26 CB 24.58 CG 25.69 CD1 29.77 CD2 26.94 CE1 30.99 CE2 29.96 CZ 32.12
B ASN G 34 -70.0 -12.4 N 22.83 CA 23.14 C 23.16 O 21.6 CB 24.03 CG 26.9 OD1 31.52 ND2 24.13
B TRP G 3 -61.1 -28.1 N 22.29 CA 22.01 C 22.71 O 21.03 CB 21.47 CG 22.61 CD1 19.92 CD2 21.0 NE1 19.18 CE2 21.76 CE3 20.68 CZ2 18.49 CZ3 22.98 CH2 22.35
B PHE H 9 -58.7 -33.2 N 20.44 CA 20.69 C 19.78 O 19.52 CB 19.89 CG 23.93 CD1 26.88 CD2 25.21 CE1 31.09 CE2 27.91 CZ 29.69
B ASN H 0 -60.7 -18.0 N 19.48 CA 19.43 C 19.74 O 20.05 CB 18.69 CG 21.36 OD1 19.78 ND2 19.02
B ALA H 0 -102.6 -32.9 N 18.54 CA 18.48 C 18.75 O 19.58 CB 16.3
B TYR H 2 -78.3 -16.1 N 17.83 CA 18.68 C 19.85 O 20.87 CB 17.65 CG 17.09 CD1 16.89 CD2 19.41 CE1 18.25 CE2 19.87 CZ 18.92 OH 22.93
B TYR S 6 -147.4 -163.7 N 19.83 CA 21.81 C 22.23 O 23.53 CB 21.81 CG 22.72 CD1 23.35 CD2 23.74 CE1 24.37 CE2 21.7 CZ 19.28 OH 18.26
B THR T 1 -72.4 142.1 N 24.03 CA 25.13 C 23.18 O 23.53 CB 26.94 OG1 29.57 CG2 28.32
B PRO T 0 -87.5 -20.3 N 21.38 CA 20.11 C 19.84 O 19.13 CB 19.17 CG 21.64 CD 20.34
B GLY T 0 -55.4 -37.2 N 17.83 CA 17.31 C 17.65 O 17.58
B VAL H 1 -61.0 -19.5 N 18.17 CA 17.95 C 18.7 O 17.71 CB 18.95 CG1 16.37 CG2 18.93
B SER H 2 -54.2 -41.6 N 19.32 CA 21.38 C 21.6 O 23.48 CB 22.34 OG 24.68
B ARG H 30 -60.0 -34.2 N 20.16 CA 20.24 C 21.07 O 20.52 CB 19.59 CG 19.94 CD 18.8 NE 24.33 CZ 27.47 NH1 25.71 NH2 28.92
B ILE H 0 -64.4 -45.7 N 20.6 CA 20.04 C 20.78 O 20.46 CB 20.05 CG1 21.19 CG2 17.21 CD1 16.17
B SER H 0 -62.7 -40.8 N 22.06 CA 22.45 C 23.17 O 24.49 CB 22.69 OG 22.95
B THR H 25 -76.4 -37.4 N 23.37 CA 23.41 C 23.76 O 23.33 CB 24.06 OG1 22.17 CG2 21.32
B ASN H 34 -55.9 -42.8 N 23.18 CA 22.47 C 22.86 O 22.36 CB 23.19 CG 25.62 OD1 31.19 ND2 23.08
B ILE H 0 -71.3 -45.6 N 21.79 CA 23.3 C 24.62 O 25.96 CB 21.71 CG1 23.38 CG2 21.13 CD1 23.69
B ARG H 89 -48.4 -41.8 N 25.34 CA 26.75 C 28.39 O 28.86 CB 26.12 CG 24.78 CD 20.94 NE 22.75 CZ 23.84 NH1 22.76 NH2 23.01
B ASP H 114 -87.9 -16.7 N 28.65 CA 29.59 C 29.91 O 30.28 CB 30.65 CG 31.6 OD1 32.06 OD2 31.74
B ASN - 84 -154.4 80.7 N 28.83 CA 27.36 C 26.44 O 24.78 CB 27.15 CG 31.91 OD1 32.9 ND2 35.01
B ASN G 66 -51.9 -37.1 N 24.48 CA 24.35 C 23.72 O 23.9 CB 23.95 CG 24.56 OD1 25.59 ND2 21.06
B ASP G 92 -61.6 -19.2 N 22.32 CA 22.74 C 22.67 O 23.52 CB 23.96 CG 25.74 OD1 25.53 OD2 30.53
B SER G 1 -78.2 -4.6 N 22.34 CA 22.72 C 22.09 O 22.4 CB 21.63 OG 22.86
B SER H 0 -67.2 -19.3 N 21.65 CA 22.07 C 21.62 O 21.38 CB 21.48 OG 23.25
B LEU H 31 -71.9 -30.0 N 21.23 CA 22.48 C 21.21 O 19.87 CB 22.45 CG 25.57 CD1 24.95 CD2 27.27
B PHE H 57 -110.9 -9.7 N 21.15 CA 21.66 C 22.04 O 22.27 CB 20.9 CG 24.12 CD1 23.0 CD2 24.57 CE1 25.67 CE2 25.77 CZ 22.65
B TYR H 21 -96.4 -11.8 N 19.92 CA 19.39 C 19.06 O 19.11 CB 19.87 CG 20.04 CD1 16.98 CD2 17.75 CE1 18.91 CE2 18.75 CZ 18.17 OH 20.3
B SER S 0 -138.8 175.5 N 16.67 CA 16.94 C 17.16 O 17.61 CB 17.28 OG 16.07
B LEU G 1 -69.0 -7.6 N 16.72 CA 17.34 C 18.39 O 18.33 CB 16.0 CG 18.0 CD1 20.07 CD2 18.92
B ARG G 18 -49.4 -42.7 N 19.3 CA 18.13 C 18.73 O 18.14 CB 19.6 CG 20.11 CD 22.45 NE 20.45 CZ 22.48 NH1 18.65 NH2 20.72
B GLY G 23 -56.9 -22.1 N 17.51 CA 17.55 C 19.34 O 19.04
B ASN G 28 -126.6 27.1 N 18.19 CA 20.5 C 21.19 O 22.22 CB 18.16 CG 20.31 OD1 23.09 ND2 15.91
B PHE E 0 -122.5 119.4 N 22.36 CA 21.49 C 21.98 O 22.65 CB 20.05 CG 20.39 CD1 20.92 CD2 22.32 CE1 21.39 CE2 21.52 CZ 20.7
B VAL E 0 -113.1 126.6 N 22.25 CA 21.21 C 21.44 O 20.82 CB 19.72 CG1 21.69 CG2 18.62
B GLY E 0 -84.4 132.7 N 21.26 CA 19.72 C 20.63 O 20.7
B VAL E 0 -108.5 85.0 N 19.22 CA 20.44 C 21.88 O 21.16 CB 20.8 CG1 21.47 CG2 19.75
B VAL E 0 -93.1 126.7 N 22.14 CA 22.2 C 23.05 O 21.9 CB 22.45 CG1 21.56 CG2 17.71
B SER E 0 -146.8 154.9 N 23.92 CA 24.18 C 25.04 O 25.76 CB 24.82 OG 28.66
B ASP - 3 -106.4 5.6 N 25.29 CA 26.07 C 26.05 O 27.14 CB 25.74 CG 25.69 OD1 27.3 OD2 25.73
B SER S 0 59.5 31.0 N 26.81 CA 27.19 C 28.37 O 27.7 CB 27.07 OG 25.45
B THR S 9 -86.2 -18.5 N 28.42 CA 28.99 C 29.15 O 29.06 CB 29.1 OG1 29.15 CG2 29.75
B ARG S 68 -144.9 76.3 N 29.98 CA 30.29 C 29.28 O 28.83 CB 31.47 CG 36.59 CD 44.6 NE 52.94 CZ 56.7 NH1 58.56 NH2 55.41
B VAL - 0 -94.1 102.1 N 28.04 CA 26.58 C 25.6 O 25.15 CB 26.83 CG1 27.75 CG2 26.22
B LEU G 22 50.1 -155.1 N 26.94 CA 28.29 C 29.25 O 28.88 CB 26.7 CG 26.35 CD1 23.31 CD2 24.45
B GLY G 32 -72.6 -0.1 N 30.02 CA 29.22 C 30.62 O 29.63
B ASP G 39 -83.0 -6.1 N 29.84 CA 29.64 C 29.58 O 28.69 CB 28.79 CG 30.35 OD1 32.5 OD2 29.71
B GLY - 23 82.1 -143.0 N 29.01 CA 30.0 C 30.5 O 30.42
B ASP - 86 -80.7 106.4 N 30.71 CA 31.82 C 32.4 O 33.36 CB 31.62 CG 32.47 OD1 32.97 OD2 33.88
B VAL - 0 -105.2 11.6 N 32.06 CA 31.56 C 31.87 O 31.6 CB 32.3 CG1 29.64 CG2 30.39
B THR - 38 84.1 155.4 N 31.65 CA 31.27 C 30.51 O 30.42 CB 32.01 OG1 37.32 CG2 28.1
B PRO G 10 -56.1 -48.8 N 29.92 CA 29.4 C 28.04 O 27.53 CB 29.38 CG 29.24 CD 30.73
B PRO G 0 -70.4 -10.6 N 27.37 CA 26.66 C 25.67 O 25.56 CB 26.53 CG 27.02 CD 27.18
B GLY G 0 -62.3 -21.9 N 24.87 CA 24.24 C 24.06 O 24.41
B GLY G 0 -85.4 -0.1 N 22.59 CA 23.01 C 22.56 O 21.37
B LEU H 0 -57.5 -43.5 N 23.32 CA 22.78 C 23.13 O 22.64 CB 23.42 CG 22.01 CD1 22.56 CD2 14.65
B GLY H 0 -58.8 -49.9 N 22.22 CA 20.49 C 21.99 O 20.34
B VAL H 3 -67.6 -46.6 N 21.67 CA 20.6 C 20.06 O 19.66 CB 21.06 CG1 19.96 CG2 20.99
B MET H 0 -68.0 -43.6 N 19.4 CA 20.53 C 20.18 O 19.42 CB 19.44 CG 21.92 SD 24.26 CE 14.89
B GLU H 0 -56.6 -36.0 N 18.36 CA 19.35 C 20.14 O 20.84 CB 18.04 CG 20.74 CD 18.41 OE1 21.09 OE2 21.76
B GLY H 1 -66.7 -39.8 N 19.79 CA 19.66 C 20.03 O 18.92
B LYS H 10 -59.9 -43.3 N 20.83 CA 20.6 C 20.13 O 20.33 CB 20.35 CG 22.23 CD 22.41 CE 20.19 NZ 25.13
B ALA H 0 -65.9 -43.7 N 20.17 CA 19.95 C 19.91 O 18.83 CB 19.54
B LEU H 1 -53.6 -45.4 N 19.69 CA 19.27 C 19.19 O 19.59 CB 18.47 CG 20.26 CD1 16.82 CD2 17.98
B LEU H 2 -73.2 -32.2 N 18.62 CA 18.83 C 18.65 O 18.93 CB 18.99 CG 20.59 CD1 17.2 CD2 19.93
B MET H 0 -60.4 -43.0 N 19.36 CA 20.67 C 21.52 O 22.44 CB 19.92 CG 23.67 SD 28.05 CE 30.06
B LYS H 12 -67.2 -60.1 N 21.84 CA 22.26 C 21.94 O 23.69 CB 21.28 CG 18.97 CD 20.45 CE 18.19 NZ 19.61
B TYR H 18 -66.7 -29.7 N 22.85 CA 22.1 C 21.77 O 21.15 CB 22.47 CG 24.88 CD1 24.95 CD2 22.19 CE1 26.68 CE2 23.78 CZ 23.58 OH 26.17
B LEU H 0 -99.9 -37.3 N 21.13 CA 20.49 C 19.19 O 18.85 CB 22.4 CG 24.76 CD1 21.89 CD2 22.55
B GLY H 0 -111.1 -11.2 N 17.08 CA 17.54 C 18.81 O 16.84
B GLY - 2 64.8 34.5 N 17.96 CA 18.7 C 19.59 O 20.05
B ILE - 0 -114.3 139.0 N 19.73 CA 18.92 C 18.58 O 17.43 CB 20.14 CG1 19.69 CG2 19.85 CD1 29.93
B ASP E 4 -93.5 122.4 N 18.99 CA 19.79 C 21.06 O 23.13 CB 18.87 CG 20.28 OD1 21.7 OD2 18.31
B ALA E 0 -146.6 146.6 N 21.29 CA 20.44 C 20.95 O 19.12 CB 20.48
B VAL E 0 -128.9 156.6 N 22.26 CA 22.17 C 23.83 O 22.93 CB 22.83 CG1 22.39 CG2 22.63
B PRO E 0 -75.1 141.4 N 24.05 CA 24.38 C 25.18 O 24.68 CB 24.48 CG 24.06 CD 23.42
B ILE E 0 -138.9 84.8 N 25.1 CA 24.88 C 25.73 O 25.89 CB 25.23 CG1 22.98 CG2 23.64 CD1 21.0
B CYS E 0 -95.4 125.0 N 24.81 CA 25.06 C 26.12 O 26.49 CB 24.28 SG 24.74
B ILE - 0 -125.5 167.3 N 25.61 CA 26.12 C 27.16 O 27.15 CB 26.26 CG1 25.12 CG2 26.66 CD1 21.76
B ASP - 36 -99.7 111.6 N 28.11 CA 29.02 C 28.61 O 29.02 CB 28.02 CG 29.06 OD1 30.38 OD2 26.99
B SER - 0 -92.9 8.5 N 29.33 CA 29.99 C 31.14 O 32.0 CB 29.29 OG 28.09
B LYS B 75 -69.3 130.4 N 30.54 CA 30.89 C 30.96 O 30.97 CB 29.88 CG 32.15 CD 34.44 CE 33.5 NZ 34.67
B ASN - 34 -76.5 -176.3 N 31.78 CA 32.41 C 33.86 O 33.14 CB 31.78 CG 32.57 OD1 28.03 ND2 27.13
B LYS T 216 -66.4 -22.9 N 36.1 CA 37.37 C 38.1 O 38.96 CB 37.12 CG 37.73 CD 34.68 CE 36.66 NZ 35.75
B GLU T 141 -87.0 3.7 N 40.26 CA 41.13 C 41.05 O 41.04 CB 42.02 CG 45.37 CD 53.01 OE1 56.33 OE2 58.94
B GLY S 40 83.4 14.2 N 39.93 CA 38.8 C 38.42 O 39.12
B LYS - 140 -102.8 138.9 N 37.94 CA 38.28 C 36.25 O 33.93 CB 38.91 CG 44.77 CD 47.61 CE 53.88 NZ 55.13
B ASN B 46 -68.1 123.7 N 35.05 CA 35.2 C 34.75 O 35.19 CB 34.93 CG 35.96 OD1 37.96 ND2 34.58
B ASP - 40 -126.6 114.7 N 33.34 CA 32.68 C 32.25 O 32.85 CB 32.45 CG 36.23 OD1 35.92 OD2 39.61
B PRO H 17 -50.7 -33.8 N 31.07 CA 30.15 C 30.04 O 28.72 CB 29.92 CG 31.15 CD 30.92
B ASP H 79 -72.5 -23.9 N 29.32 CA 29.11 C 28.53 O 27.71 CB 29.54 CG 35.06 OD1 35.98 OD2 37.11
B ALA H 4 -67.9 -44.0 N 28.08 CA 27.91 C 26.93 O 26.6 CB 26.24
B VAL H 1 -72.5 -39.5 N 26.63 CA 27.65 C 28.3 O 29.49 CB 26.74 CG1 26.66 CG2 27.32
B ILE H 13 -59.7 -51.3 N 27.78 CA 27.66 C 27.94 O 28.21 CB 27.6 CG1 26.6 CG2 23.92 CD1 28.06
B GLU H 58 -55.9 -56.2 N 27.12 CA 26.72 C 25.61 O 25.79 CB 26.35 CG 30.45 CD 36.47 OE1 42.11 OE2 38.96
B PHE H 5 -39.4 -56.4 N 24.39 CA 24.78 C 24.48 O 24.47 CB 23.18 CG 25.81 CD1 23.81 CD2 27.93 CE1 22.39 CE2 25.43 CZ 21.65
B VAL H 0 -69.8 -35.7 N 24.37 CA 24.82 C 25.98 O 26.43 CB 25.27 CG1 24.05 CG2 23.24
B GLN H 64 -63.2 -37.9 N 25.42 CA 24.16 C 23.74 O 23.99 CB 23.66 CG 26.6 CD 27.67 OE1 29.96 NE2 24.93
B ARG H 36 -66.9 -35.0 N 23.37 CA 23.41 C 23.09 O 24.1 CB 23.79 CG 23.8 CD 25.08 NE 28.2 CZ 32.86 NH1 31.88 NH2 33.74
B ILE H 0 -98.5 -7.6 N 23.1 CA 22.55 C 23.42 O 24.18 CB 21.77 CG1 20.24 CG2 21.34 CD1 13.08
B GLN G 16 -52.3 -27.5 N 23.47 CA 23.14 C 22.91 O 22.31 CB 24.06 CG 23.27 CD 25.91 OE1 30.59 NE2 18.83
B HIS G 23 -73.0 -11.5 N 22.17 CA 23.22 C 22.04 O 22.62 CB 22.9 CG 26.56 ND1 27.8 CD2 26.4 CE1 25.51 NE2 28.43
B THR G 0 -87.8 -23.8 N 22.26 CA 21.52 C 22.37 O 23.93 CB 21.21 OG1 23.39 CG2 20.08
B PHE - 0 -115.4 168.2 N 21.95 CA 20.8 C 21.15 O 19.71 CB 20.44 CG 20.27 CD1 20.78 CD2 16.42 CE1 20.17 CE2 19.92 CZ 20.2
B GLY S 8 -103.9 -22.2 N 20.42 CA 20.71 C 21.27 O 22.1
B ALA E 1 -157.9 156.4 N 19.84 CA 19.93 C 19.94 O 21.16 CB 18.93
B ILE E 0 -116.4 130.1 N 20.97 CA 20.17 C 21.46 O 22.16 CB 21.33 CG1 20.6 CG2 16.07 CD1 16.12
B ASN E 0 -114.4 98.6 N 20.96 CA 20.9 C 20.55 O 19.29 CB 19.38 CG 20.86 OD1 19.32 ND2 19.32
B LEU E 1 -78.4 146.8 N 20.56 CA 19.73 C 21.07 O 21.06 CB 20.25 CG 19.96 CD1 20.98 CD2 18.24
B GLU - 0 -146.7 140.5 N 21.9 CA 23.61 C 23.94 O 23.46 CB 23.05 CG 26.25 CD 29.4 OE1 29.26 OE2 34.06
B ASP S 4 55.4 52.4 N 25.14 CA 27.03 C 26.65 O 27.92 CB 27.21 CG 31.83 OD1 39.0 OD2 41.05
B ILE - 2 -122.5 127.6 N 25.91 CA 25.69 C 25.95 O 25.92 CB 25.85 CG1 23.88 CG2 26.35 CD1 26.47
B SER - 32 -62.5 150.1 N 25.8 CA 26.77 C 27.6 O 27.34 CB 26.21 OG 26.42
B GLN T 71 -87.6 146.1 N 29.41 CA 31.06 C 32.22 O 32.43 CB 31.12 CG 32.12 CD 32.72 OE1 36.72 NE2 29.63
B PRO T 18 -94.2 4.7 N 32.07 CA 31.14 C 30.42 O 31.5 CB 31.11 CG 31.91 CD 31.16
B ASN H 24 -42.5 -47.9 N 29.43 CA 29.33 C 28.17 O 27.65 CB 29.32 CG 32.73 OD1 31.55 ND2 31.38
B CYS H 1 -57.5 -35.0 N 27.19 CA 27.49 C 28.52 O 28.54 CB 27.38 SG 27.16
B TYR H 4 -62.5 -53.2 N 27.44 CA 28.19 C 28.23 O 29.71 CB 27.26 CG 26.69 CD1 28.97 CD2 23.71 CE1 26.52 CE2 25.96 CZ 26.27 OH 28.66
B LYS H 93 -60.3 -52.6 N 27.75 CA 26.55 C 25.9 O 26.48 CB 26.03 CG 26.88 CD 28.67 CE 28.74 NZ 29.78
B ILE H 0 -46.8 -55.1 N 24.79 CA 24.12 C 24.36 O 24.49 CB 22.76 CG1 23.01 CG2 21.74 CD1 25.39
B LEU H 7 -69.1 -40.7 N 24.26 CA 24.74 C 25.95 O 27.04 CB 23.54 CG 24.65 CD1 24.98 CD2 24.14
B ASP H 45 -66.5 -37.6 N 27.11 CA 26.98 C 26.8 O 27.45 CB 26.94 CG 27.32 OD1 27.2 OD2 30.44
B VAL H 56 -73.1 -56.2 N 26.89 CA 26.61 C 26.63 O 28.36 CB 26.83 CG1 25.16 CG2 28.86
B LEU H 0 -53.8 -38.8 N 24.15 CA 22.95 C 23.94 O 22.96 CB 20.84 CG 19.84 CD1 17.09 CD2 18.53
B ARG H 59 -62.5 -21.0 N 23.98 CA 26.03 C 25.51 O 24.72 CB 26.61 CG 33.61 CD 38.34 NE 31.54 CZ 30.25 NH1 22.08 NH2 22.82
B GLU H 119 -112.2 -15.4 N 26.4 CA 27.68 C 27.37 O 28.78 CB 28.22 CG 31.1 CD 35.04 OE1 35.83 OE2 35.02
B SER H 47 -97.8 -18.1 N 27.2 CA 27.86 C 28.04 O 29.19 CB 27.22 OG 28.68
B CYS - 12 -96.3 154.8 N 28.11 CA 27.81 C 27.77 O 27.79 CB 28.23 SG 27.95
B ASP S 109 -90.2 5.4 N 27.21 CA 27.24 C 25.17 O 25.65 CB 27.74 CG 32.89 OD1 39.08 OD2 34.81
B ILE S 7 -126.5 155.4 N 22.91 CA 21.51 C 22.04 O 21.98 CB 20.63 CG1 22.31 CG2 18.34 CD1 20.12
B PRO - 5 -66.8 139.3 N 21.72 CA 21.69 C 22.94 O 22.02 CB 22.56 CG 19.81 CD 20.92
B VAL E 1 -127.5 136.1 N 22.73 CA 22.06 C 23.08 O 22.37 CB 22.89 CG1 20.96 CG2 21.72
B TRP E 2 -150.2 173.4 N 22.05 CA 21.78 C 21.97 O 21.89 CB 21.22 CG 21.64 CD1 22.74 CD2 20.06 NE1 23.11 CE2 22.06 CE3 17.65 CZ2 18.19 CZ3 19.5 CH2 18.05
B HIS E 1 -123.2 107.7 N 21.23 CA 22.54 C 23.77 O 23.59 CB 23.36 CG 23.86 ND1 27.06 CD2 23.57 CE1 24.92 NE2 31.75
B ASP I 0 -45.3 -49.9 N 23.73 CA 24.01 C 24.27 O 23.86 CB 22.99 CG 25.4 OD1 23.5 OD2 26.61
B ASP I 12 -58.5 -24.3 N 24.27 CA 25.03 C 25.29 O 25.67 CB 26.02 CG 29.02 OD1 32.18 OD2 28.19
B GLN I 0 -84.3 -93.5 N 23.36 CA 23.59 C 22.79 O 22.67 CB 22.75 CG 20.48 CD 22.92 OE1 23.0 NE2 24.13
B GLN I 4 -67.3 -23.3 N 23.21 CA 22.48 C 22.11 O 22.15 CB 22.14 CG 23.95 CD 24.24 OE1 23.32 NE2 25.43
B GLY I 0 -72.6 -50.4 N 20.82 CA 20.84 C 20.61 O 21.94
B THR H 14 -57.9 -46.7 N 19.3 CA 20.0 C 20.31 O 20.19 CB 20.32 OG1 22.12 CG2 17.0
B ALA H 0 -58.2 -39.2 N 20.86 CA 21.27 C 21.56 O 22.52 CB 20.69
B SER H 1 -61.8 -48.0 N 22.21 CA 22.04 C 21.41 O 21.27 CB 22.27 OG 22.76
B VAL H 0 -75.0 -31.0 N 20.01 CA 20.21 C 20.41 O 20.21 CB 20.63 CG1 17.11 CG2 19.09
B THR H 4 -65.0 -44.7 N 21.57 CA 21.67 C 21.87 O 22.1 CB 21.69 OG1 20.15 CG2 24.83
B LEU H 0 -61.8 -40.5 N 21.04 CA 21.83 C 22.44 O 22.7 CB 21.36 CG 21.62 CD1 21.19 CD2 18.13
B ALA H 0 -64.8 -46.6 N 23.95 CA 23.3 C 23.55 O 24.51 CB 22.68
B GLY H 0 -53.3 -49.8 N 21.9 CA 23.18 C 24.19 O 23.4
B LEU H 0 -65.0 -40.2 N 24.81 CA 26.0 C 26.21 O 25.86 CB 27.53 CG 28.24 CD1 24.64 CD2 26.19
B LEU H 34 -50.5 -46.3 N 25.08 CA 25.35 C 25.33 O 26.65 CB 25.29 CG 25.39 CD1 26.83 CD2 25.02
B ASN H 2 -82.1 -35.4 N 24.51 CA 24.85 C 23.93 O 24.55 CB 24.08 CG 24.22 OD1 23.94 ND2 14.38
B ALA H 0 -58.4 -36.6 N 22.86 CA 24.22 C 25.8 O 27.51 CB 23.58
B LEU H 8 -72.3 -33.7 N 26.45 CA 27.0 C 27.68 O 28.19 CB 26.87 CG 26.45 CD1 24.26 CD2 25.75
B LYS H 114 -65.1 -37.4 N 28.64 CA 28.96 C 29.09 O 28.94 CB 30.33 CG 32.43 CD 34.74 CE 37.26 NZ 38.25
B LEU H 39 -77.4 -21.9 N 28.82 CA 28.72 C 29.19 O 29.98 CB 26.74 CG 27.75 CD1 23.57 CD2 24.66
B VAL T 11 -101.6 7.8 N 29.95 CA 30.28 C 31.38 O 32.21 CB 29.9 CG1 29.71 CG2 27.13
B LYS T 190 38.8 52.3 N 31.81 CA 33.17 C 32.77 O 32.32 CB 34.03 CG 36.28 CD 39.3 CE 44.11 NZ 47.89
B LYS - 43 -116.5 153.9 N 32.24 CA 31.78 C 32.1 O 31.56 CB 30.14 CG 28.82 CD 25.98 CE 23.7 NZ 23.3
B ASP - 86 -88.2 141.9 N 32.62 CA 32.81 C 31.63 O 31.98 CB 35.15 CG 39.26 OD1 39.98 OD2 47.28
B ILE G 24 -55.1 -33.4 N 30.42 CA 28.99 C 29.79 O 28.3 CB 28.69 CG1 27.67 CG2 27.9 CD1 28.54
B HIS G 80 -74.8 -21.9 N 29.74 CA 31.07 C 30.85 O 32.03 CB 30.09 CG 31.99 ND1 31.26 CD2 31.28 CE1 31.79 NE2 33.81
B GLU G 117 -89.4 -14.1 N 31.52 CA 33.54 C 32.88 O 33.1 CB 34.56 CG 42.34 CD 52.12 OE1 53.36 OE2 56.32
B CYS - 1 -80.1 129.7 N 31.56 CA 31.24 C 30.27 O 30.14 CB 30.94 SG 35.25
B ARG - 57 -81.5 141.6 N 29.36 CA 29.0 C 28.24 O 26.96 CB 29.1 CG 32.23 CD 32.93 NE 37.95 CZ 39.26 NH1 39.87 NH2 36.53
B MET E 0 -141.9 135.1 N 27.44 CA 26.9 C 26.16 O 27.02 CB 27.54 CG 28.2 SD 28.6 CE 24.94
B VAL E 0 -114.5 133.0 N 25.66 CA 24.33 C 25.27 O 24.97 CB 24.68 CG1 22.81 CG2 23.52
B PHE E 0 -117.9 118.3 N 25.04 CA 24.35 C 25.5 O 26.07 CB 23.21 CG 23.94 CD1 24.2 CD2 25.04 CE1 19.79 CE2 18.81 CZ 22.47
B ILE E 7 -103.7 113.8 N 25.21 CA 26.27 C 26.45 O 27.93 CB 26.95 CG1 26.16 CG2 26.33 CD1 29.0
B GLY - 11 102.7 148.7 N 26.16 CA 24.85 C 25.23 O 26.16
B ALA - 6 -141.1 27.7 N 25.12 CA 25.93 C 26.38 O 25.39 CB 25.84
B GLY S 22 -67.1 -171.1 N 26.84 CA 27.4 C 27.54 O 27.83
B SER H 6 -67.7 -33.7 N 27.79 CA 29.77 C 29.94 O 30.72 CB 29.44 OG 34.61
B SER H 6 -66.3 -58.1 N 29.98 CA 29.6 C 29.23 O 30.0 CB 28.23 OG 30.25
B ASN H 3 -61.1 -40.0 N 29.0 CA 29.19 C 27.82 O 27.98 CB 29.78 CG 34.44 OD1 38.2 ND2 37.9
B THR H 2 -65.4 -38.6 N 26.79 CA 27.33 C 26.52 O 27.11 CB 27.95 OG1 30.25 CG2 27.92
B THR H 0 -69.2 -36.9 N 26.08 CA 24.25 C 23.78 O 23.2 CB 24.32 OG1 23.02 CG2 19.59
B CYS H 2 -60.4 -47.7 N 24.39 CA 25.84 C 25.12 O 25.84 CB 25.83 SG 29.89
B LEU H 5 -57.3 -45.8 N 24.94 CA 23.76 C 24.01 O 24.05 CB 25.25 CG 22.23 CD1 21.53 CD2 22.4
B ARG H 44 -57.6 -47.9 N 24.0 CA 23.8 C 23.72 O 23.71 CB 25.04 CG 25.48 CD 25.5 NE 24.88 CZ 21.48 NH1 20.03 NH2 25.38
B LEU H 0 -68.6 -39.9 N 22.79 CA 22.34 C 21.44 O 21.66 CB 21.4 CG 24.1 CD1 23.36 CD2 20.65
B ILE H 0 -59.3 -45.2 N 22.25 CA 23.46 C 23.84 O 23.66 CB 23.47 CG1 24.52 CG2 24.0 CD1 18.8
B VAL H 44 -60.1 -52.8 N 23.8 CA 24.46 C 25.11 O 25.06 CB 24.08 CG1 23.39 CG2 27.03
B THR H 82 -51.8 -32.4 N 25.22 CA 25.16 C 26.47 O 26.08 CB 24.95 OG1 24.54 CG2 25.12
B ALA T 19 -81.1 -7.4 N 26.46 CA 26.23 C 26.64 O 26.98 CB 25.31
B GLY T 28 128.6 2.1 N 27.69 CA 26.84 C 27.35 O 26.88
B ALA - 4 -71.8 145.4 N 27.05 CA 27.77 C 27.96 O 29.35 CB 26.82
B ASP - 24 -83.8 111.4 N 28.16 CA 28.04 C 27.44 O 26.5 CB 27.97 CG 29.57 OD1 25.89 OD2 31.39
B PRO G 35 -59.5 -24.2 N 27.64 CA 27.94 C 28.02 O 28.53 CB 27.82 CG 28.3 CD 28.05
B LYS G 139 -66.6 -26.9 N 27.98 CA 28.4 C 27.47 O 27.39 CB 29.15 CG 32.11 CD 37.6 CE 43.0 NZ 45.51
B LYS G 64 -88.9 14.2 N 26.87 CA 27.08 C 26.71 O 26.59 CB 26.89 CG 27.22 CD 28.44 CE 29.96 NZ 27.55
B ILE E 1 -118.2 140.8 N 26.14 CA 25.35 C 25.82 O 25.41 CB 24.76 CG1 24.52 CG2 24.57 CD1 25.54
B VAL E 2 -132.5 128.2 N 26.34 CA 26.85 C 27.31 O 28.18 CB 26.19 CG1 27.39 CG2 28.69
B MET E 0 -110.4 149.8 N 27.94 CA 28.57 C 29.23 O 29.95 CB 28.02 CG 26.54 SD 26.29 CE 21.22
B PHE E 8 -123.3 129.9 N 29.15 CA 29.82 C 30.31 O 30.06 CB 30.11 CG 30.28 CD1 28.25 CD2 31.78 CE1 29.78 CE2 32.24 CZ 29.92
B ASP E 27 -97.9 -167.1 N 30.67 CA 32.53 C 33.04 O 34.18 CB 32.52 CG 32.89 OD1 32.2 OD2 34.12
B SER T 121 -69.5 -17.0 N 33.35 CA 34.93 C 35.22 O 35.02 CB 35.23 OG 36.74
B LYS T 169 -98.0 -12.9 N 35.42 CA 36.27 C 36.21 O 36.61 CB 35.31 CG 37.21 CD 43.02 CE 46.82 NZ 48.39
B GLY E 24 143.4 -165.0 N 35.4 CA 34.35 C 33.55 O 33.68
B SER E 5 -74.9 160.6 N 32.47 CA 31.32 C 31.12 O 30.07 CB 32.04 OG 32.56
B LEU - 0 -96.4 134.4 N 31.02 CA 32.31 C 33.47 O 33.92 CB 31.94 CG 31.77 CD1 32.89 CD2 30.45
B HIS S 34 -175.2 171.5 N 35.6 CA 37.08 C 38.23 O 37.67 CB 37.41 CG 37.1 ND1 37.81 CD2 37.95 CE1 38.45 NE2 37.47
B ASN T 87 -39.5 -47.4 N 39.51 CA 41.43 C 40.89 O 40.31 CB 42.37 CG 46.28 OD1 51.86 ND2 50.43
B GLY T 42 -76.3 -1.1 N 40.59 CA 40.54 C 40.43 O 39.35
B ARG - 20 -77.9 80.5 N 40.85 CA 40.72 C 41.41 O 42.93 CB 40.84 CG 38.43 CD 35.8 NE 32.74 CZ 30.62 NH1 27.72 NH2 21.98
B GLU H 104 -68.6 -35.4 N 41.97 CA 42.3 C 41.33 O 41.16 CB 42.9 CG 46.08 CD 51.39 OE1 51.78 OE2 54.06
B ASP H 66 -53.5 -35.8 N 40.12 CA 40.26 C 39.5 O 40.01 CB 40.45 CG 42.97 OD1 42.78 OD2 45.87
B ILE H 6 -83.7 -42.0 N 38.84 CA 37.19 C 37.28 O 36.21 CB 36.16 CG1 34.02 CG2 33.2 CD1 29.93
B LYS H 94 -59.7 -37.5 N 37.9 CA 38.37 C 37.99 O 38.72 CB 39.41 CG 41.35 CD 47.42 CE 50.9 NZ 52.86
B LYS T 162 -78.2 -14.7 N 38.2 CA 39.41 C 39.32 O 39.1 CB 39.48 CG 42.71 CD 50.71 CE 53.23 NZ 54.12
B ASP - 47 -111.1 101.4 N 38.76 CA 39.24 C 38.93 O 39.44 CB 39.14 CG 40.69 OD1 41.58 OD2 41.92
B THR G 112 -73.5 -13.4 N 38.21 CA 38.43 C 37.45 O 36.83 CB 38.89 OG1 40.66 CG2 38.42
B ARG G 136 -58.2 -30.0 N 36.94 CA 36.2 C 35.41 O 35.97 CB 35.66 CG 36.12 CD 34.63 NE 35.11 CZ 37.91 NH1 39.42 NH2 35.63
B PHE G 37 -95.9 32.5 N 33.98 CA 32.65 C 31.96 O 30.77 CB 32.38 CG 34.35 CD1 34.25 CD2 35.27 CE1 35.55 CE2 36.15 CZ 36.9
B TYR H 87 -55.5 -30.9 N 32.26 CA 31.46 C 31.29 O 32.14 CB 32.21 CG 32.34 CD1 31.28 CD2 27.49 CE1 33.7 CE2 29.44 CZ 32.4 OH 32.73
B ARG H 63 -65.8 -42.3 N 28.81 CA 29.02 C 27.81 O 27.88 CB 28.73 CG 31.39 CD 31.51 NE 28.14 CZ 27.73 NH1 23.82 NH2 23.78
B LYS H 21 -63.9 -39.7 N 26.91 CA 28.8 C 29.54 O 29.53 CB 27.78 CG 26.35 CD 25.28 CE 23.26 NZ 18.47
B TRP H 33 -68.1 -38.6 N 29.78 CA 30.63 C 30.94 O 31.93 CB 30.55 CG 34.01 CD1 34.23 CD2 34.86 NE1 36.29 CE2 34.96 CE3 34.29 CZ2 37.62 CZ3 39.98 CH2 36.66
B GLU H 112 -58.4 -35.8 N 31.26 CA 31.0 C 29.98 O 29.66 CB 30.41 CG 36.5 CD 41.97 OE1 44.0 OE2 42.14
B ILE H 10 -69.7 -39.5 N 29.64 CA 28.34 C 28.55 O 27.84 CB 27.1 CG1 26.66 CG2 24.62 CD1 17.88
B CYS H 1 -57.5 -37.8 N 29.39 CA 31.36 C 32.58 O 33.37 CB 30.57 SG 31.23
B GLU H 99 -78.9 -21.7 N 33.75 CA 34.06 C 34.01 O 34.26 CB 33.93 CG 37.25 CD 46.37 OE1 48.31 OE2 49.53
B THR H 55 -118.0 -9.9 N 32.74 CA 31.17 C 30.83 O 30.81 CB 31.07 OG1 31.5 CG2 29.64
B THR S 5 -128.4 178.6 N 29.58 CA 28.01 C 28.49 O 28.58 CB 27.39 OG1 23.97 CG2 26.87
B ASN - 2 47.1 59.6 N 29.38 CA 30.96 C 31.79 O 31.49 CB 30.07 CG 30.91 OD1 31.76 ND2 29.12
B PRO T 75 -64.4 -26.2 N 32.16 CA 34.14 C 36.06 O 36.79 CB 33.57 CG 31.2 CD 32.51
B SER T 87 -81.5 -4.6 N 37.09 CA 37.92 C 38.15 O 38.03 CB 37.83 OG 41.53
B LYS - 87 50.4 42.0 N 38.7 CA 39.73 C 40.65 O 41.3 CB 39.58 CG 42.0 CD 45.83 CE 48.14 NZ 51.82
B PHE - 52 -38.4 133.8 N 40.75 CA 40.67 C 39.27 O 39.25 CB 42.09 CG 45.63 CD1 47.95 CD2 47.94 CE1 51.83 CE2 49.94 CZ 51.36
B GLY - 61 -91.7 -19.0 N 38.26 CA 36.01 C 34.97 O 34.98
B SER - 40 -145.4 149.3 N 34.87 CA 34.53 C 33.32 O 32.94 CB 34.86 OG 36.46
B ILE H 39 -55.0 -50.1 N 32.75 CA 31.21 C 30.64 O 29.5 CB 32.32 CG1 32.99 CG2 28.19 CD1 34.55
B ALA H 38 -53.5 -45.6 N 29.94 CA 30.08 C 30.46 O 30.43 CB 30.13
B GLU H 108 -66.4 -41.1 N 30.58 CA 30.09 C 28.9 O 27.89 CB 31.4 CG 34.25 CD 37.52 OE1 33.79 OE2 38.21
B ALA H 0 -62.2 -34.7 N 27.93 CA 28.89 C 29.01 O 30.08 CB 27.99
B CYS H 0 -76.0 -22.1 N 29.23 CA 30.05 C 30.84 O 31.12 CB 29.95 SG 31.54
B VAL T 90 -60.5 123.6 N 30.73 CA 29.25 C 30.16 O 30.31 CB 30.45 CG1 28.15 CG2 28.85
B GLY T 36 79.2 -10.6 N 29.23 CA 28.52 C 28.19 O 26.68
B ALA - 0 -62.2 153.8 N 26.2 CA 25.33 C 24.53 O 24.05 CB 25.31
B ASP S 26 -98.3 -31.9 N 23.77 CA 23.43 C 23.53 O 24.0 CB 23.07 CG 26.88 OD1 25.83 OD2 32.07
B VAL E 0 -137.9 136.2 N 22.36 CA 22.64 C 23.37 O 23.6 CB 23.22 CG1 23.74 CG2 20.51
B LEU E 0 -129.5 121.5 N 23.45 CA 22.63 C 23.59 O 22.24 CB 21.33 CG 23.12 CD1 25.31 CD2 26.79
B ILE E 4 -124.1 119.4 N 24.73 CA 27.21 C 29.6 O 30.72 CB 27.36 CG1 24.28 CG2 25.57 CD1 24.81
B SER E 1 -127.5 132.0 N 29.84 CA 30.11 C 31.6 O 30.73 CB 29.26 OG 30.5
B LEU - 35 -146.1 74.7 N 32.8 CA 34.94 C 36.1 O 36.72 CB 35.35 CG 38.72 CD1 36.99 CD2 38.08
B SER - 44 -120.6 -136.3 N 37.92 CA 39.36 C 39.94 O 40.05 CB 38.85 OG 41.2
B THR S 87 -79.4 141.6 N 40.75 CA 41.55 C 40.96 O 40.5 CB 42.22 OG1 43.84 CG2 42.44
B PRO - 35 -55.5 140.2 N 40.76 CA 40.74 C 41.05 O 40.5 CB 40.51 CG 40.1 CD 40.4
B GLY - 14 -67.7 -162.3 N 41.39 CA 43.31 C 44.75 O 44.79
B PRO S 95 -63.0 163.7 N 45.83 CA 46.06 C 45.38 O 44.82 CB 46.1 CG 46.44 CD 46.27
B GLY S 45 64.4 28.4 N 44.8 CA 43.41 C 42.61 O 42.61
B VAL S 42 -91.2 -36.9 N 40.51 CA 38.63 C 37.88 O 37.86 CB 39.22 CG1 36.43 CG2 37.27
B VAL S 2 -98.0 132.1 N 36.13 CA 35.02 C 34.54 O 35.67 CB 34.09 CG1 32.25 CG2 35.86
B LYS - 124 -100.0 141.0 N 33.83 CA 33.58 C 33.8 O 33.69 CB 34.05 CG 35.31 CD 42.38 CE 48.35 NZ 48.12
B ALA H 30 -57.1 -36.6 N 33.14 CA 32.85 C 32.67 O 32.73 CB 32.87
B GLU H 104 -55.1 -46.5 N 32.93 CA 32.3 C 31.26 O 31.63 CB 32.4 CG 32.08 CD 36.78 OE1 39.08 OE2 36.58
B TRP H 37 -49.9 -50.1 N 31.26 CA 29.79 C 29.97 O 28.86 CB 29.32 CG 29.77 CD1 29.53 CD2 29.05 NE1 28.69 CE2 29.77 CE3 29.69 CZ2 31.94 CZ3 29.89 CH2 31.1
B ILE H 1 -69.6 -36.1 N 29.31 CA 28.24 C 28.99 O 28.02 CB 28.56 CG1 27.52 CG2 24.54 CD1 22.41
B LYS H 154 -61.2 -33.3 N 30.34 CA 31.08 C 29.82 O 30.13 CB 32.09 CG 33.55 CD 36.32 CE 39.9 NZ 43.7
B SER T 24 -84.9 -5.0 N 28.85 CA 29.81 C 29.53 O 28.96 CB 29.71 OG 29.91
B MET S 16 -70.3 166.3 N 28.49 CA 27.29 C 27.15 O 27.7 CB 27.19 CG 23.49 SD 25.3 CE 20.01
B GLY - 26 -70.3 -158.1 N 26.19 CA 24.99 C 27.9 O 26.6
B GLU S 120 -59.5 134.8 N 27.5 CA 29.32 C 28.66 O 29.28 CB 29.63 CG 35.17 CD 45.0 OE1 46.05 OE2 49.15
B LYS S 73 41.8 66.3 N 27.11 CA 26.13 C 24.7 O 24.33 CB 25.52 CG 27.75 CD 27.01 CE 27.83 NZ 32.78
B PRO - 9 -58.5 140.5 N 22.93 CA 23.37 C 24.96 O 25.6 CB 22.79 CG 21.47 CD 22.32
B ILE E 0 -107.1 118.1 N 24.32 CA 24.12 C 24.47 O 25.93 CB 24.2 CG1 21.72 CG2 22.69 CD1 20.72
B VAL E 0 -126.2 116.8 N 24.63 CA 25.04 C 25.56 O 26.0 CB 25.26 CG1 22.91 CG2 24.78
B PHE E 0 -116.7 119.9 N 24.96 CA 25.35 C 27.07 O 27.55 CB 25.52 CG 22.5 CD1 23.16 CD2 22.53 CE1 21.63 CE2 21.43 CZ 21.05
B CYS E 0 -126.5 105.4 N 27.38 CA 29.15 C 29.29 O 29.47 CB 28.89 SG 35.0
B CYS - 7 -118.7 16.2 N 29.4 CA 30.21 C 29.55 O 30.22 CB 30.5 SG 34.06
B ALA - 2 -62.4 147.9 N 28.3 CA 28.05 C 27.3 O 27.28 CB 29.06
B ASN S 22 -130.9 142.1 N 27.27 CA 26.48 C 25.96 O 26.36 CB 26.34 CG 24.79 OD1 26.71 ND2 23.78
B PRO S 5 -82.8 -12.7 N 24.82 CA 24.82 C 25.5 O 24.2 CB 23.99 CG 24.18 CD 25.13
B VAL S 16 -116.7 122.7 N 25.59 CA 26.56 C 27.76 O 28.82 CB 26.91 CG1 27.65 CG2 24.7
B PRO - 0 -68.9 160.3 N 27.36 CA 27.43 C 28.08 O 27.59 CB 27.73 CG 28.01 CD 27.4
B GLU S 0 -57.4 -24.7 N 27.49 CA 28.42 C 29.45 O 30.57 CB 28.0 CG 27.89 CD 30.97 OE1 32.02 OE2 28.3
B ILE S 1 -151.8 148.6 N 29.28 CA 28.8 C 28.01 O 27.37 CB 29.34 CG1 28.38 CG2 29.22 CD1 29.17
B TYR - 14 -79.5 148.5 N 27.94 CA 29.01 C 29.31 O 29.52 CB 29.06 CG 29.88 CD1 28.61 CD2 31.76 CE1 32.94 CE2 31.68 CZ 36.88 OH 42.21
B PRO H 19 -57.0 -31.3 N 29.2 CA 28.21 C 28.44 O 28.72 CB 27.59 CG 27.24 CD 29.62
B TYR H 55 -65.0 -36.7 N 28.17 CA 29.37 C 29.92 O 29.81 CB 28.2 CG 29.59 CD1 28.93 CD2 30.85 CE1 31.32 CE2 32.86 CZ 34.93 OH 40.89
B GLU H 68 -71.6 -46.5 N 30.93 CA 32.96 C 33.04 O 33.01 CB 34.09 CG 38.39 CD 43.53 OE1 42.65 OE2 46.81
B ALA H 0 -58.6 -34.4 N 32.74 CA 32.5 C 33.03 O 33.5 CB 31.46
B LYS H 82 -73.2 -39.7 N 33.36 CA 34.74 C 35.73 O 36.26 CB 34.5 CG 38.83 CD 39.52 CE 38.55 NZ 38.66
B GLU H 143 -53.8 -50.9 N 35.75 CA 36.63 C 35.82 O 34.76 CB 36.77 CG 40.84 CD 44.6 OE1 44.91 OE2 46.1
B ALA T 19 -58.9 -9.7 N 34.3 CA 33.62 C 32.4 O 32.86 CB 33.56
B GLY T 42 110.0 7.7 N 29.93 CA 27.86 C 26.73 O 26.18
B ALA - 7 -65.4 144.3 N 26.46 CA 26.72 C 27.03 O 27.64 CB 26.05
B TYR S 77 -93.5 -32.5 N 27.04 CA 26.09 C 25.45 O 26.08 CB 26.52 CG 26.76 CD1 27.1 CD2 27.87 CE1 28.42 CE2 26.33 CZ 25.11 OH 28.97
B ILE E 0 -138.8 129.3 N 24.36 CA 23.6 C 23.17 O 23.57 CB 24.1 CG1 23.31 CG2 23.63 CD1 25.62
B VAL E 6 -135.0 135.7 N 23.55 CA 22.32 C 21.76 O 22.92 CB 22.85 CG1 24.45 CG2 20.17
B ALA E 0 -132.3 151.1 N 22.17 CA 21.67 C 21.05 O 20.22 CB 19.89
B THR B 1 -135.3 -171.8 N 21.15 CA 21.57 C 22.48 O 23.5 CB 22.14 OG1 22.81 CG2 21.44
B GLY S 1 -98.6 -2.8 N 20.9 CA 20.93 C 22.4 O 21.22
B ARG S 0 -97.5 156.7 N 20.76 CA 21.22 C 21.07 O 20.44 CB 21.03 CG 18.31 CD 24.03 NE 27.12 CZ 26.94 NH1 25.72 NH2 31.92
B GLY T 7 -85.5 -4.3 N 22.16 CA 22.74 C 23.69 O 24.7
B ASP T 13 -96.2 9.3 N 24.38 CA 25.14 C 24.4 O 23.99 CB 24.66 CG 25.67 OD1 29.14 OD2 24.93
B PHE S 25 -127.6 164.0 N 23.35 CA 23.76 C 23.11 O 22.37 CB 23.25 CG 25.26 CD1 22.45 CD2 25.14 CE1 21.67 CE2 25.18 CZ 22.27
B PRO S 69 -61.7 161.1 N 22.65 CA 21.82 C 22.19 O 20.84 CB 21.13 CG 21.41 CD 22.37
B ASN S 11 57.6 64.1 N 21.11 CA 22.08 C 21.76 O 22.03 CB 21.18 CG 20.37 OD1 18.56 ND2 19.95
B GLN B 13 -81.2 101.6 N 21.43 CA 22.08 C 22.15 O 20.57 CB 21.26 CG 23.01 CD 20.61 OE1 20.97 NE2 15.66
B VAL - 3 -94.7 95.1 N 23.78 CA 24.32 C 24.37 O 25.64 CB 24.78 CG1 26.23 CG2 23.53
B ASN - 12 -149.0 141.5 N 23.87 CA 23.81 C 22.77 O 22.87 CB 23.5 CG 22.93 OD1 23.66 ND2 25.98
B ASN G 6 -60.8 -12.9 N 20.67 CA 21.78 C 22.38 O 23.1 CB 21.4 CG 23.69 OD1 25.24 ND2 22.63
B SER G 0 -59.3 -18.8 N 21.66 CA 21.39 C 20.6 O 20.93 CB 22.65 OG 20.0
B VAL G 1 -101.0 9.9 N 19.03 CA 17.79 C 18.66 O 18.55 CB 17.34 CG1 18.29 CG2 15.85
B GLY T 0 -118.8 -46.7 N 18.11 CA 17.25 C 17.11 O 17.61
B PHE H 0 -60.6 -35.3 N 18.31 CA 18.26 C 19.48 O 19.73 CB 18.89 CG 20.59 CD1 20.51 CD2 17.02 CE1 20.19 CE2 21.19 CZ 20.57
B PRO H 0 -67.4 -36.7 N 18.66 CA 18.34 C 18.87 O 19.34 CB 17.93 CG 17.62 CD 18.18
B GLY H 0 -77.0 -32.7 N 19.38 CA 18.57 C 20.74 O 20.55
B ILE H 0 -69.9 -53.5 N 20.38 CA 20.85 C 20.47 O 18.84 CB 19.74 CG1 19.46 CG2 22.68 CD1 21.67
B LEU H 1 -50.8 -50.5 N 19.76 CA 18.16 C 18.06 O 17.35 CB 17.69 CG 19.91 CD1 17.25 CD2 18.52
B LYS H 3 -64.6 -38.5 N 18.07 CA 18.83 C 18.88 O 19.13 CB 18.27 CG 18.44 CD 18.46 CE 18.97 NZ 18.86
B GLY H 0 -60.2 -44.4 N 19.06 CA 19.98 C 21.08 O 20.07
B ALA H 1 -72.8 -40.0 N 20.78 CA 21.76 C 22.03 O 22.78 CB 21.85
B LEU H 14 -57.9 -48.4 N 20.37 CA 21.38 C 21.39 O 22.56 CB 19.58 CG 20.7 CD1 19.25 CD2 17.44
B ILE H 25 -65.5 -39.5 N 21.6 CA 20.31 C 20.83 O 21.47 CB 20.09 CG1 19.1 CG2 17.62 CD1 15.96
B VAL T 0 -103.9 15.0 N 21.11 CA 21.15 C 21.57 O 21.23 CB 22.2 CG1 19.7 CG2 21.92
B ARG T 60 50.4 53.1 N 21.04 CA 22.51 C 23.22 O 23.55 CB 23.05 CG 23.44 CD 27.77 NE 29.21 CZ 30.14 NH1 27.47 NH2 30.99
B ALA B 0 -66.5 140.7 N 21.9 CA 22.33 C 23.5 O 23.24 CB 21.42
B ARG S 132 -69.4 -27.4 N 24.75 CA 25.64 C 26.54 O 27.07 CB 25.46 CG 28.17 CD 30.46 NE 35.04 CZ 34.26 NH1 33.6 NH2 28.98
B LYS S 53 -160.1 168.1 N 26.34 CA 25.85 C 24.22 O 23.42 CB 27.74 CG 30.45 CD 36.74 CE 39.22 NZ 43.19
B ILE - 2 -98.3 111.6 N 24.03 CA 23.78 C 24.51 O 24.32 CB 23.56 CG1 24.62 CG2 21.64 CD1 21.11
B THR - 21 -85.0 159.0 N 24.65 CA 25.85 C 26.56 O 27.16 CB 25.47 OG1 23.36 CG2 26.65
B ASP H 38 -56.3 -41.6 N 25.94 CA 25.57 C 24.92 O 24.71 CB 24.73 CG 25.95 OD1 24.88 OD2 28.63
B ASN H 74 -62.6 -38.4 N 24.17 CA 24.3 C 23.92 O 24.42 CB 22.61 CG 25.99 OD1 29.42 ND2 24.0
B MET H 0 -57.4 -56.2 N 22.98 CA 22.94 C 22.94 O 23.28 CB 22.0 CG 21.6 SD 20.65 CE 17.02
B ALA H 0 -45.4 -47.0 N 23.06 CA 23.25 C 23.08 O 22.76 CB 22.59
B ILE H 12 -67.6 -40.0 N 23.27 CA 23.03 C 23.97 O 25.42 CB 23.17 CG1 24.56 CG2 22.73 CD1 21.01
B ALA H 13 -57.9 -37.5 N 22.61 CA 22.63 C 23.03 O 24.67 CB 21.04
B ALA H 0 -72.7 -32.5 N 22.5 CA 21.84 C 21.55 O 21.96 CB 21.85
B SER H 0 -60.9 -43.3 N 21.45 CA 20.52 C 21.4 O 21.29 CB 19.03 OG 21.32
B ARG H 106 -68.0 -46.6 N 21.78 CA 23.1 C 23.04 O 23.76 CB 24.15 CG 27.76 CD 34.26 NE 43.47 CZ 46.89 NH1 44.84 NH2 49.23
B ALA H 0 -55.6 -51.4 N 22.86 CA 21.68 C 20.56 O 19.62 CB 20.69
B LEU H 0 -60.9 -46.1 N 20.14 CA 21.03 C 21.53 O 22.77 CB 20.3 CG 20.05 CD1 14.42 CD2 17.32
B ALA H 5 -64.9 -42.4 N 20.34 CA 21.7 C 21.18 O 20.47 CB 21.78
B GLU H 91 -66.3 -44.6 N 21.34 CA 24.39 C 24.13 O 25.06 CB 25.2 CG 33.03 CD 40.29 OE1 43.28 OE2 41.72
B PHE H 46 -48.6 -54.9 N 23.68 CA 22.55 C 23.39 O 23.09 CB 22.16 CG 23.03 CD1 21.56 CD2 24.43 CE1 26.23 CE2 25.46 CZ 25.25
B ALA H 0 -63.2 -47.2 N 21.88 CA 22.41 C 23.39 O 23.02 CB 20.73
B GLU H 80 -52.4 -48.6 N 23.82 CA 25.27 C 25.5 O 26.64 CB 25.05 CG 27.63 CD 32.38 OE1 30.06 OE2 37.43
B LYS H 195 -67.4 -17.1 N 25.86 CA 26.4 C 25.92 O 27.21 CB 27.6 CG 31.72 CD 39.28 CE 41.02 NZ 44.29
B ARG H 81 -103.3 1.8 N 23.64 CA 23.21 C 23.07 O 22.59 CB 22.07 CG 22.52 CD 20.93 NE 21.55 CZ 24.31 NH1 23.94 NH2 18.7
B GLY - 40 107.3 124.7 N 24.05 CA 21.57 C 22.32 O 20.32
B ILE - 32 -128.1 156.3 N 22.75 CA 22.8 C 23.89 O 23.6 CB 23.02 CG1 21.14 CG2 21.31 CD1 15.63
B ASN B 75 -160.4 178.1 N 24.68 CA 25.78 C 26.25 O 26.88 CB 26.37 CG 27.75 OD1 32.91 ND2 28.78
B PRO T 31 -54.1 -29.9 N 27.08 CA 26.28 C 26.5 O 25.61 CB 26.34 CG 27.86 CD 25.69
B ASP T 83 -98.3 9.0 N 27.14 CA 28.3 C 27.68 O 26.71 CB 29.51 CG 31.56 OD1 32.12 OD2 40.28
B ASN B 52 -153.0 91.7 N 26.31 CA 25.44 C 24.62 O 24.37 CB 25.49 CG 27.08 OD1 26.21 ND2 25.02
B ILE - 0 -103.6 -13.5 N 23.48 CA 23.78 C 23.27 O 22.57 CB 22.73 CG1 24.37 CG2 22.64 CD1 22.4
B ILE S 3 -140.0 147.4 N 22.49 CA 21.43 C 22.75 O 21.94 CB 20.75 CG1 20.99 CG2 19.53 CD1 20.59
B GLY - 0 -56.1 144.2 N 23.75 CA 23.48 C 22.49 O 22.46
B THR - 40 -108.8 165.3 N 21.21 CA 21.88 C 20.96 O 19.78 CB 23.56 OG1 24.07 CG2 22.84
B MET T 1 -57.7 -14.5 N 21.39 CA 21.79 C 22.23 O 23.05 CB 21.94 CG 21.86 SD 23.57 CE 19.7
B ASP T 92 -90.1 3.5 N 23.52 CA 23.23 C 22.32 O 22.0 CB 23.51 CG 27.68 OD1 27.02 OD2 30.25
B GLU - 44 -119.1 84.1 N 21.07 CA 20.53 C 21.48 O 20.64 CB 20.92 CG 19.15 CD 22.8 OE1 22.32 OE2 24.01
B PRO T 38 -53.2 -24.6 N 21.92 CA 20.83 C 21.56 O 21.7 CB 20.8 CG 20.94 CD 21.62
B GLY T 27 -63.8 -17.6 N 22.05 CA 22.47 C 22.76 O 22.31
B ILE H 0 -63.4 -41.7 N 22.72 CA 23.15 C 23.27 O 24.89 CB 22.3 CG1 19.2 CG2 23.06 CD1 17.25
B PHE H 1 -73.8 -40.6 N 22.71 CA 22.58 C 22.04 O 22.11 CB 21.32 CG 22.13 CD1 21.26 CD2 19.83 CE1 22.17 CE2 19.99 CZ 21.44
B PRO H 4 -69.2 -30.5 N 21.98 CA 21.66 C 21.98 O 22.81 CB 22.04 CG 21.02 CD 22.15
B LYS H 52 -61.5 -47.9 N 22.55 CA 22.27 C 21.05 O 20.43 CB 22.49 CG 24.89 CD 31.21 CE 32.8 NZ 30.32
B GLU H 1 -58.5 -46.7 N 21.01 CA 20.96 C 21.85 O 21.23 CB 20.19 CG 21.28 CD 20.29 OE1 22.68 OE2 22.0
B ALA H 0 -63.7 -43.0 N 21.42 CA 20.7 C 21.62 O 23.03 CB 20.59
B ALA H 0 -69.7 -45.0 N 20.58 CA 20.42 C 21.72 O 22.62 CB 19.93
B ASP H 35 -59.4 -41.7 N 22.19 CA 23.06 C 23.71 O 23.63 CB 23.15 CG 23.1 OD1 26.73 OD2 26.06
B VAL H 0 -64.9 -42.2 N 23.53 CA 23.48 C 24.0 O 24.46 CB 23.35 CG1 21.48 CG2 24.74
B ALA H 0 -61.3 -45.5 N 23.11 CA 22.92 C 22.76 O 23.04 CB 21.35
B MET H 51 -67.9 -39.7 N 24.25 CA 24.8 C 24.08 O 23.58 CB 25.77 CG 24.51 SD 29.58 CE 20.2
B GLN H 40 -60.8 -40.3 N 23.68 CA 24.15 C 25.29 O 25.16 CB 23.7 CG 25.56 CD 29.05 OE1 31.75 NE2 26.14
B ALA H 0 -64.1 -42.2 N 23.98 CA 23.4 C 23.64 O 24.14 CB 23.22
B ILE H 51 -59.1 -50.1 N 23.62 CA 22.94 C 23.51 O 24.24 CB 22.62 CG1 20.09 CG2 21.24 CD1 18.26
B LYS H 164 -55.4 -43.1 N 24.16 CA 24.13 C 24.74 O 26.1 CB 24.47 CG 26.36 CD 28.22 CE 27.21 NZ 28.31
B ASP T 45 -71.2 -7.5 N 24.22 CA 24.58 C 24.75 O 25.94 CB 23.67 CG 26.75 OD1 26.95 OD2 24.96
B GLY T 59 81.0 13.5 N 24.96 CA 25.89 C 26.17 O 26.11
B VAL - 14 -102.7 -5.5 N 26.18 CA 25.28 C 25.55 O 25.19 CB 26.21 CG1 23.24 CG2 23.56
B ALA B 13 -75.4 137.0 N 25.64 CA 25.88 C 27.18 O 26.61 CB 24.85
B ARG S 60 -87.6 -24.3 N 27.31 CA 26.92 C 27.57 O 28.82 CB 26.83 CG 27.49 CD 32.19 NE 33.05 CZ 31.24 NH1 26.08 NH2 23.61
B VAL - 35 -98.4 123.4 N 27.9 CA 27.63 C 28.56 O 26.27 CB 28.3 CG1 28.63 CG2 27.78
B THR - 98 -124.5 -5.9 N 29.18 CA 30.03 C 30.63 O 31.03 CB 30.59 OG1 31.81 CG2 25.29
B ASP S 126 -82.6 11.0 N 32.09 CA 33.09 C 32.54 O 33.23 CB 33.5 CG 38.61 OD1 43.55 OD2 40.58
B LEU - 37 -114.2 136.6 N 31.22 CA 29.65 C 29.02 O 28.93 CB 29.03 CG 28.25 CD1 26.69 CD2 21.22
B THR - 73 -82.6 168.4 N 28.6 CA 27.4 C 27.52 O 26.43 CB 28.24 OG1 30.14 CG2 27.06
B TRP H 87 -47.0 -51.2 N 26.54 CA 26.45 C 26.85 O 27.2 CB 26.89 CG 24.42 CD1 25.48 CD2 26.13 NE1 24.69 CE2 25.5 CE3 25.27 CZ2 25.65 CZ3 26.31 CH2 27.31
B GLN H 97 -63.6 -49.1 N 26.56 CA 27.59 C 26.33 O 25.15 CB 28.36 CG 28.74 CD 31.6 OE1 30.29 NE2 29.36
B GLN H 86 -53.4 -45.0 N 26.27 CA 25.31 C 23.83 O 24.89 CB 26.32 CG 28.37 CD 30.57 OE1 26.26 NE2 35.75
B VAL H 0 -61.8 -53.2 N 23.2 CA 22.25 C 22.0 O 21.69 CB 21.15 CG1 19.95 CG2 23.94
B TYR H 48 -44.2 -50.7 N 22.52 CA 23.06 C 22.93 O 24.92 CB 21.87 CG 22.54 CD1 22.82 CD2 19.62 CE1 22.82 CE2 20.88 CZ 21.49 OH 24.75
B ASP H 72 -63.5 -47.4 N 23.69 CA 23.55 C 22.75 O 22.71 CB 22.71 CG 24.86 OD1 21.0 OD2 28.28
B ILE H 66 -55.0 -53.3 N 22.79 CA 21.49 C 21.92 O 21.8 CB 22.07 CG1 23.58 CG2 17.86 CD1 24.41
B ALA H 0 -63.5 -43.0 N 20.93 CA 21.49 C 21.6 O 19.65 CB 21.2
B GLU H 60 -55.7 -47.3 N 22.93 CA 23.05 C 22.61 O 22.49 CB 23.44 CG 26.88 CD 31.46 OE1 30.55 OE2 35.65
B HIS H 108 -61.2 -47.6 N 24.16 CA 23.73 C 24.13 O 23.48 CB 24.83 CG 28.89 ND1 34.93 CD2 32.19 CE1 35.4 NE2 35.47
B ASP H 47 -63.8 -39.9 N 24.62 CA 23.59 C 23.05 O 22.79 CB 23.96 CG 25.55 OD1 27.31 OD2 27.01
B ILE H 4 -66.5 -51.7 N 21.78 CA 21.36 C 22.38 O 23.2 CB 20.79 CG1 20.15 CG2 16.78 CD1 15.15
B LYS H 106 -57.9 -44.3 N 22.81 CA 24.55 C 23.7 O 23.82 CB 24.17 CG 31.29 CD 38.12 CE 41.42 NZ 40.73
B GLU H 49 -62.3 -40.5 N 22.76 CA 23.12 C 22.7 O 23.36 CB 23.26 CG 25.58 CD 32.69 OE1 29.73 OE2 33.37
B ALA H 3 -65.8 -43.6 N 22.04 CA 20.72 C 20.85 O 20.1 CB 19.98
B ARG H 43 -72.2 -32.7 N 20.86 CA 22.04 C 22.47 O 22.47 CB 22.32 CG 23.0 CD 20.5 NE 19.29 CZ 24.29 NH1 20.41 NH2 24.45
B GLU H 94 -75.2 -38.3 N 21.69 CA 23.59 C 24.01 O 24.32 CB 23.27 CG 22.24 CD 24.43 OE1 26.55 OE2 27.39
B SER H 4 -59.4 -49.2 N 23.21 CA 22.57 C 22.44 O 22.3 CB 21.9 OG 22.85
B ALA H 0 -64.7 -35.3 N 21.92 CA 22.44 C 22.47 O 22.03 CB 20.94
B GLN H 74 -66.7 -44.6 N 23.43 CA 24.99 C 24.85 O 25.04 CB 24.48 CG 30.4 CD 34.62 OE1 34.09 NE2 38.77
B LEU H 41 -55.1 -45.0 N 24.05 CA 25.41 C 25.98 O 25.74 CB 25.45 CG 27.33 CD1 27.97 CD2 29.4
B LEU H 1 -67.1 -29.5 N 26.2 CA 26.49 C 27.31 O 27.33 CB 26.74 CG 28.75 CD1 27.65 CD2 24.67
B GLN H 12 -74.6 -49.7 N 26.97 CA 28.56 C 28.75 O 29.75 CB 28.58 CG 29.72 CD 29.87 OE1 31.48 NE2 28.73
B ASP H 108 -56.0 -33.2 N 28.26 CA 30.06 C 30.31 O 32.42 CB 29.73 CG 29.42 OD1 28.42 OD2 33.04
B SER T 45 -85.0 -8.6 N 29.44 CA 28.73 C 28.59 O 28.66 CB 30.17 OG 30.31
B LYS T 91 70.8 19.0 N 28.54 CA 28.14 C 27.53 O 26.11 CB 29.5 CG 32.35 CD 34.68 CE 38.26 NZ 31.27
B HIS S 42 -65.5 -29.1 N 26.05 CA 25.19 C 25.24 O 25.16 CB 25.03 CG 23.81 ND1 22.31 CD2 23.78 CE1 23.62 NE2 23.18
B ILE S 7 -104.1 111.5 N 25.99 CA 26.2 C 26.6 O 26.03 CB 27.22 CG1 25.7 CG2 26.24 CD1 26.42
B VAL - 80 -69.3 145.5 N 26.31 CA 27.05 C 26.46 O 24.1 CB 26.48 CG1 30.53 CG2 25.17
B ASP - 96 -67.9 143.8 N 27.06 CA 26.57 C 24.94 O 25.03 CB 26.68 CG 29.81 OD1 26.75 OD2 34.67
B PHE - 22 -76.5 143.1 N 23.96 CA 23.9 C 23.36 O 24.69 CB 22.54 CG 21.49 CD1 20.79 CD2 18.95 CE1 18.31 CE2 19.11 CZ 17.57
B PRO - 45 -70.6 125.8 N 23.15 CA 23.64 C 24.79 O 25.36 CB 23.3 CG 22.61 CD 21.98
B GLN H 66 -47.7 -36.4 N 26.49 CA 27.75 C 29.15 O 29.44 CB 27.5 CG 29.59 CD 29.08 OE1 26.66 NE2 30.13
B GLU H 116 -73.4 -41.8 N 27.94 CA 29.27 C 28.73 O 27.64 CB 29.65 CG 39.16 CD 47.16 OE1 52.29 OE2 48.5
B THR H 30 -59.2 -36.8 N 27.79 CA 26.17 C 25.91 O 25.63 CB 27.59 OG1 27.97 CG2 28.24
B LEU H 3 -59.7 -46.2 N 24.86 CA 25.25 C 25.29 O 26.19 CB 24.85 CG 27.13 CD1 25.07 CD2 24.46
B ASN H 48 -64.2 -38.9 N 24.61 CA 25.21 C 25.94 O 26.25 CB 23.68 CG 23.72 OD1 21.46 ND2 19.58
B GLU H 103 -65.9 -30.9 N 26.47 CA 29.14 C 28.81 O 29.33 CB 29.36 CG 33.0 CD 38.02 OE1 36.2 OE2 41.31
B CYS H 1 -75.7 -39.9 N 27.63 CA 26.64 C 27.16 O 27.89 CB 26.15 SG 24.95
B LEU H 14 -60.8 -50.5 N 27.05 CA 27.32 C 28.18 O 27.4 CB 26.14 CG 24.99 CD1 21.16 CD2 24.03
B ALA H 62 -56.2 -45.3 N 28.84 CA 28.63 C 29.32 O 30.28 CB 27.73
B TYR H 62 -52.0 -50.1 N 30.34 CA 30.97 C 32.09 O 32.13 CB 31.42 CG 33.55 CD1 33.58 CD2 33.26 CE1 33.26 CE2 31.96 CZ 34.39 OH 36.75
B ALA H 0 -64.1 -46.0 N 32.87 CA 33.7 C 34.15 O 33.68 CB 32.18
B ILE H 39 -63.1 -41.8 N 34.17 CA 34.91 C 36.14 O 35.43 CB 34.88 CG1 34.11 CG2 33.75 CD1 37.96
B ASN H 101 -59.8 -41.0 N 37.47 CA 39.27 C 40.08 O 40.93 CB 39.61 CG 43.19 OD1 44.73 ND2 43.25
B LYS H 117 -60.3 -29.6 N 40.91 CA 42.19 C 43.08 O 43.23 CB 42.23 CG 43.86 CD 46.67 CE 47.28 NZ 51.08
B VAL H 20 -108.4 4.8 N 43.96 CA 45.22 C 46.25 O 46.15 CB 45.13 CG1 44.43 CG2 43.36
B THR H 87 -128.8 -16.7 N 47.41 CA 48.69 C 49.91 O 50.79 CB 48.87 OG1 46.29 CG2 48.57
B GLY - 96 -119.9 360.0 N 51.01 CA 52.03 C 53.06 O 53.22
