A LYS - 233 360.0 146.7 N 48.65 CA 48.35 C 47.35 O 47.14 CB 48.81 CG 50.44 CD 52.65 CE 53.46 NZ 54.17
A LEU - 91 -61.0 146.6 N 45.77 CA 44.43 C 43.49 O 43.24 CB 44.79 CG 45.19 CD1 45.34 CD2 46.34
A ASP - 64 -122.7 -175.0 N 41.47 CA 40.23 C 39.84 O 38.21 CB 40.63 CG 41.6 OD1 38.33 OD2 42.28
A HIS T 43 -69.0 -16.6 N 38.47 CA 39.44 C 40.34 O 39.75 CB 38.58 CG 38.07 ND1 36.81 CD2 35.35 CE1 36.25 NE2 37.68
A GLU T 164 -88.6 -24.5 N 40.86 CA 42.37 C 42.26 O 42.7 CB 42.42 CG 45.6 CD 51.14 OE1 51.29 OE2 50.69
A SER T 69 -108.9 -13.2 N 42.32 CA 42.53 C 42.68 O 42.82 CB 43.28 OG 43.87
A VAL S 53 -70.8 150.9 N 41.95 CA 41.48 C 42.54 O 42.54 CB 41.64 CG1 39.29 CG2 39.97
A THR - 124 -70.4 134.6 N 42.92 CA 43.96 C 43.95 O 43.93 CB 44.73 OG1 46.22 CG2 45.77
A GLN - 97 -96.2 89.0 N 43.16 CA 42.47 C 42.4 O 42.94 CB 42.45 CG 41.73 CD 43.9 OE1 42.87 NE2 43.17
A ALA - 92 -87.5 1.6 N 41.1 CA 40.73 C 40.58 O 41.14 CB 40.76
A MET - 123 -109.3 41.8 N 40.4 CA 40.67 C 40.75 O 41.23 CB 39.63 CG 39.88 SD 35.94 CE 34.66
A GLN - 156 -99.8 103.5 N 41.34 CA 41.87 C 40.83 O 41.26 CB 43.19 CG 48.42 CD 54.98 OE1 55.91 NE2 56.73
A PRO - 60 -74.2 158.1 N 38.68 CA 37.44 C 35.76 O 34.96 CB 36.75 CG 37.66 CD 38.91
A LYS - 178 -64.6 131.0 N 34.03 CA 33.79 C 31.93 O 31.06 CB 34.01 CG 38.33 CD 43.63 CE 48.28 NZ 49.48
A ASP - 118 -82.2 85.7 N 30.74 CA 30.62 C 30.85 O 30.2 CB 30.94 CG 31.48 OD1 33.59 OD2 32.66
A THR - 49 -116.9 168.1 N 30.05 CA 30.01 C 30.44 O 30.14 CB 30.29 OG1 30.08 CG2 29.72
A PRO H 84 -58.0 -33.3 N 30.84 CA 30.87 C 30.67 O 31.04 CB 31.21 CG 30.82 CD 30.68
A GLU H 139 -69.3 -37.9 N 30.51 CA 31.12 C 30.32 O 29.0 CB 31.23 CG 34.96 CD 40.21 OE1 39.59 OE2 43.74
A LEU H 25 -66.7 -48.4 N 29.12 CA 29.38 C 29.31 O 28.65 CB 29.04 CG 30.84 CD1 28.9 CD2 32.85
A ARG H 128 -63.1 -35.1 N 28.98 CA 28.79 C 29.13 O 29.32 CB 29.23 CG 29.9 CD 31.02 NE 31.64 CZ 31.96 NH1 27.26 NH2 30.55
A ALA H 60 -65.5 -46.2 N 28.3 CA 29.2 C 29.51 O 29.04 CB 28.43
A LEU H 82 -52.5 -49.4 N 28.88 CA 28.54 C 28.79 O 28.44 CB 28.4 CG 27.72 CD1 28.35 CD2 26.38
A TYR H 60 -67.5 -30.6 N 28.21 CA 29.2 C 30.2 O 30.01 CB 29.4 CG 29.84 CD1 27.77 CD2 30.74 CE1 29.95 CE2 31.15 CZ 30.96 OH 33.53
A LYS H 124 -69.3 -41.2 N 29.4 CA 29.58 C 29.49 O 28.43 CB 30.92 CG 33.31 CD 42.71 CE 46.14 NZ 47.36
A SER H 49 -60.7 -36.9 N 29.01 CA 29.38 C 29.38 O 29.65 CB 29.41 OG 29.21
A PHE H 35 -54.4 -51.1 N 28.9 CA 27.71 C 28.93 O 27.52 CB 26.97 CG 24.38 CD1 25.37 CD2 24.55 CE1 22.91 CE2 24.32 CZ 21.65
A GLU H 151 -54.9 -48.9 N 29.07 CA 31.01 C 30.81 O 30.55 CB 31.5 CG 37.07 CD 43.28 OE1 45.01 OE2 46.94
A GLU H 119 -61.6 -34.4 N 29.59 CA 30.75 C 30.21 O 29.7 CB 30.63 CG 34.49 CD 38.72 OE1 42.88 OE2 36.19
A GLU T 130 -97.7 11.8 N 28.07 CA 27.92 C 26.95 O 26.28 CB 27.69 CG 30.87 CD 34.86 OE1 32.57 OE2 32.1
A SER T 114 57.4 51.3 N 26.17 CA 27.43 C 27.2 O 26.09 CB 28.21 OG 31.14
A ILE - 87 -121.9 136.7 N 26.66 CA 25.96 C 26.95 O 26.24 CB 27.27 CG1 27.64 CG2 25.23 CD1 26.32
A ILE - 137 -132.9 119.7 N 26.77 CA 26.21 C 27.13 O 26.53 CB 27.13 CG1 25.52 CG2 23.42 CD1 23.86
A PRO - 18 -73.3 143.5 N 26.88 CA 27.08 C 27.38 O 26.99 CB 27.14 CG 26.44 CD 26.78
A LEU G 91 -65.3 -35.6 N 27.94 CA 27.84 C 28.18 O 28.21 CB 27.61 CG 26.88 CD1 27.51 CD2 27.3
A TRP G 98 -64.4 -21.8 N 28.72 CA 29.96 C 30.6 O 30.63 CB 29.46 CG 27.63 CD1 27.49 CD2 25.89 NE1 27.17 CE2 25.99 CE3 26.74 CZ2 25.94 CZ3 26.31 CH2 24.84
A THR G 73 -93.8 -5.6 N 30.41 CA 31.13 C 32.6 O 33.0 CB 31.01 OG1 32.12 CG2 29.39
A GLN T 73 -124.3 -7.2 N 32.57 CA 34.19 C 34.07 O 32.93 CB 33.99 CG 39.4 CD 44.3 OE1 47.03 NE2 45.54
A LEU H 70 -48.0 -52.1 N 34.5 CA 34.7 C 34.36 O 33.6 CB 35.12 CG 36.77 CD1 38.24 CD2 37.04
A GLY H 31 -69.7 -30.3 N 33.54 CA 33.69 C 33.53 O 33.59
A ASP H 81 -69.5 -46.4 N 32.05 CA 31.63 C 30.6 O 30.96 CB 30.85
A LEU H 113 -73.7 -31.8 N 29.14 CA 28.99 C 28.61 O 27.77 CB 28.92 CG 31.26 CD1 30.19 CD2 26.78
A MET S 119 -135.2 70.9 N 27.2 CA 27.85 C 26.81 O 26.98 CB 26.99 CG 29.77 SD 36.59 CE 22.9
A PRO - 55 -66.0 157.8 N 27.03 CA 26.86 C 27.52 O 27.16 CB 27.17 CG 26.53 CD 26.34
A ILE S 106 -58.1 -41.5 N 26.26 CA 26.53 C 25.95 O 25.54 CB 26.29 CG1 28.04 CG2 27.17 CD1 32.31
A HIS S 96 -145.2 170.4 N 24.59 CA 24.74 C 24.06 O 23.62 CB 24.52 CG 27.82 ND1 30.12 CD2 28.67 CE1 31.04 NE2 30.64
A PRO - 49 -62.6 142.1 N 24.22 CA 24.25 C 25.12 O 24.46 CB 22.58 CG 24.58 CD 24.06
A LYS - 118 -135.9 88.4 N 25.35 CA 27.12 C 26.69 O 26.68 CB 27.77 CG 31.49 CD 36.09
A SER - 47 -72.2 150.6 N 26.08 CA 25.6 C 26.26 O 24.8 CB 25.01 OG 26.85
A LYS S 168 -70.2 -31.8 N 25.91 CA 26.31 C 26.86 O 25.83 CB 27.38 CG 29.23 CD 36.32 CE 42.16 NZ 46.88
A ALA S 5 -64.3 143.8 N 25.5 CA 25.56 C 25.74 O 26.41 CB 24.83
A VAL - 61 -112.8 153.9 N 25.28 CA 25.32 C 24.82 O 24.59 CB 25.49 CG1 24.23 CG2 25.91
A PRO - 34 -58.3 142.8 N 24.14 CA 23.14 C 23.39 O 23.08 CB 23.76 CG 24.63 CD 23.43
A HIS E 67 -159.8 151.4 N 24.12 CA 23.8 C 24.37 O 24.23 CB 25.14 CG 26.81 ND1 29.38 CD2 29.04 CE1 30.97 NE2 29.31
A VAL E 31 -121.4 135.3 N 24.0 CA 23.44 C 24.5 O 24.28 CB 24.14 CG1 22.27 CG2 22.97
A TRP E 43 -115.0 130.5 N 24.25 CA 25.43 C 25.73 O 25.02 CB 23.93 CG 24.16 CD1 20.96 CD2 25.16 NE1 23.74 CE2 22.57 CE3 23.66 CZ2 26.13 CZ3 23.44 CH2 22.77
A LYS - 69 -78.9 133.8 N 26.32 CA 27.63 C 28.29 O 27.93 CB 27.88 CG 31.37 CD 37.41 CE 38.96 NZ 37.37
A TRP H 11 -59.4 -36.7 N 28.94 CA 30.02 C 30.47 O 29.61 CB 29.45 CG 29.83 CD1 29.73 CD2 30.2 NE1 30.35 CE2 30.62 CE3 31.32 CZ2 30.58 CZ3 33.08 CH2 30.32
A SER H 75 -61.3 -37.7 N 31.09 CA 31.5 C 31.71 O 33.14 CB 31.47 OG 33.77
A THR H 49 -71.3 -43.2 N 30.9 CA 31.01 C 30.3 O 29.7 CB 31.43 OG1 32.76 CG2 30.55
A LEU H 8 -61.0 -43.1 N 28.87 CA 28.16 C 28.43 O 28.23 CB 27.76 CG 27.93 CD1 26.84 CD2 24.87
A LEU H 18 -63.1 -43.3 N 28.04 CA 30.2 C 30.29 O 31.34 CB 29.86 CG 34.11 CD1 34.98 CD2 36.56
A ARG H 149 -59.1 -52.7 N 30.11 CA 30.39 C 30.17 O 31.46 CB 30.28 CG 31.56 CD 29.94 NE 30.52 CZ 32.91 NH1 29.65 NH2 33.32
A LEU H 88 -62.4 -41.5 N 29.43 CA 29.39 C 28.47 O 28.12 CB 28.32 CG 32.2 CD1 31.39 CD2 33.19
A ALA H 0 -65.4 -42.6 N 28.12 CA 28.58 C 28.85 O 28.54 CB 27.52
A ARG H 132 -63.8 -43.5 N 29.46 CA 31.24 C 30.8 O 31.09 CB 31.44 CG 35.45 CD 38.71 NE 42.5 CZ 43.2 NH1 41.23 NH2 44.21
A LYS H 104 -65.2 -35.7 N 30.48 CA 29.8 C 30.13 O 30.11 CB 29.49 CG 32.0 CD 34.82 CE 37.81 NZ 40.94
A SER H 28 -65.1 -38.0 N 29.45 CA 28.22 C 28.41 O 26.88 CB 28.5 OG 27.88
A GLY H 21 -59.5 -31.9 N 28.69 CA 30.37 C 31.92 O 31.89
A GLU H 135 -77.2 -42.6 N 31.99 CA 33.59 C 32.81 O 34.07 CB 33.65 CG 38.57 CD 45.64 OE1 46.3 OE2 50.77
A LEU H 129 -99.1 -19.4 N 31.79 CA 31.17 C 31.91 O 31.85 CB 29.84 CG 30.44 CD1 29.21 CD2 27.39
A VAL - 73 -124.0 121.6 N 31.0 CA 31.6 C 31.78 O 31.26 CB 31.65 CG1 32.17 CG2 31.59
A PRO - 117 -76.5 151.6 N 32.74 CA 33.3 C 33.58 O 33.42 CB 33.0 CG 34.66 CD 33.18
A VAL - 29 -99.1 143.0 N 34.24 CA 34.14 C 34.2 O 33.18 CB 34.21 CG1 35.13 CG2 34.35
A GLY - 27 168.5 -157.6 N 33.72 CA 33.39 C 33.74 O 33.3
A ARG T 87 -58.0 149.1 N 32.58 CA 32.61 C 32.6 O 32.11 CB 33.32 CG 33.27 CD 35.14 NE 32.61 CZ 34.41 NH1 31.68 NH2 33.46
A GLY T 56 97.2 -75.0 N 32.25 CA 32.39 C 32.61 O 32.52
A GLY T 71 -71.0 -24.1 N 32.27 CA 31.36 C 31.7 O 32.05
A GLU - 11 70.5 -49.3 N 31.27 CA 30.33 C 30.57 O 30.53 CB 30.63 CG 29.92 CD 31.92 OE1 29.34 OE2 29.9
A ARG - 42 -142.4 141.9 N 29.89 CA 28.51 C 28.22 O 27.89 CB 28.71 CG 28.39 CD 28.27 NE 29.81 CZ 30.95 NH1 29.81 NH2 29.66
A ARG - 12 -86.4 71.4 N 27.18 CA 26.81 C 26.21 O 25.16 CB 26.25 CG 26.27 CD 24.75 NE 28.83 CZ 27.94 NH1 26.75 NH2 25.21
A ALA E 30 -114.2 133.8 N 25.9 CA 25.37 C 24.7 O 25.4 CB 24.67
A LEU E 39 -109.6 107.7 N 24.3 CA 24.22 C 24.54 O 24.41 CB 23.97 CG 26.21 CD1 25.84 CD2 26.78
A GLY E 32 -77.5 138.7 N 23.6 CA 24.74 C 25.31 O 25.71
A LEU - 4 -79.9 117.5 N 23.88 CA 22.91 C 22.53 O 22.51 CB 23.54 CG 22.31 CD1 22.7 CD2 21.63
A ALA - 48 -107.4 114.7 N 21.33 CA 22.01 C 22.48 O 22.08 CB 22.31
A ASN - 3 -61.0 127.8 N 23.53 CA 23.05 C 23.55 O 24.73 CB 22.69 CG 21.92 OD1 22.88 ND2 22.57
A PRO T 82 -56.7 -21.7 N 24.09 CA 24.45 C 25.4 O 25.43 CB 25.52 CG 26.61 CD 23.47
A GLY T 28 -91.4 -3.6 N 24.87 CA 24.1 C 24.92 O 24.77
A LEU S 19 -104.5 27.2 N 24.75 CA 25.85 C 27.14 O 27.57 CB 23.99 CG 24.1 CD1 21.72 CD2 19.04
A GLY T 74 68.6 26.8 N 28.7 CA 29.01 C 28.99 O 30.1
A GLY T 79 92.8 -2.5 N 28.35 CA 27.92 C 28.15 O 28.97
A ASN - 74 -74.9 140.1 N 27.52 CA 27.11 C 26.51 O 26.27 CB 27.13 CG 30.1 OD1 33.12 ND2 31.83
A ALA S 47 -78.4 62.2 N 25.13 CA 25.47 C 25.53 O 25.77 CB 25.32
A TYR - 13 -124.0 126.6 N 24.44 CA 23.85 C 23.13 O 22.39 CB 23.8 CG 23.87 CD1 22.34 CD2 23.51 CE1 22.23 CE2 24.79 CZ 24.69 OH 24.7
A ILE S 0 -74.2 -30.6 N 22.73 CA 22.62 C 22.24 O 22.77 CB 22.66 CG1 21.86 CG2 21.78 CD1 22.32
A SER S 0 -143.7 176.1 N 22.01 CA 21.54 C 22.39 O 21.28 CB 21.42 OG 22.19
A PRO S 44 -63.6 -20.2 N 22.28 CA 22.97 C 22.36 O 22.55 CB 22.98 CG 24.72 CD 22.13
A THR S 13 -109.1 -29.2 N 22.51 CA 22.85 C 23.21 O 23.27 CB 22.53 OG1 24.21 CG2 23.88
A MET - 1 -118.4 142.9 N 22.19 CA 21.99 C 22.41 O 22.66 CB 21.36 CG 21.62 SD 25.54 CE 18.7
A TRP E 43 -100.5 140.2 N 22.33 CA 22.95 C 23.09 O 21.99 CB 22.29 CG 23.01 CD1 20.46 CD2 22.49 NE1 23.17 CE2 23.73 CE3 23.89 CZ2 22.89 CZ3 24.49 CH2 23.0
A ALA E 1 -136.0 143.1 N 23.79 CA 23.54 C 24.17 O 24.94 CB 23.26
A ALA E 0 -149.2 149.7 N 24.3 CA 24.12 C 24.39 O 25.5 CB 24.44
A ILE E 0 -91.1 125.9 N 24.39 CA 23.73 C 24.2 O 23.26 CB 23.73 CG1 24.25 CG2 25.03 CD1 25.71
A GLN E 2 -112.8 142.8 N 24.89 CA 25.39 C 26.04 O 25.83 CB 23.87 CG 25.99 CD 28.04 OE1 32.49 NE2 26.81
A TYR E 30 -129.3 124.7 N 27.34 CA 27.94 C 28.17 O 28.52 CB 28.93 CG 30.53 CD1 34.47 CD2 35.59 CE1 33.85 CE2 35.08 CZ 38.08 OH 41.5
A LEU E 0 -122.4 118.9 N 29.34 CA 29.4 C 29.43 O 29.17 CB 29.12 CG 28.23 CD1 26.67 CD2 28.27
A GLY - 3 -81.9 174.4 N 30.05 CA 30.13 C 30.71 O 29.5
A PRO T 60 -40.2 124.9 N 31.67 CA 31.35 C 31.36 O 30.57 CB 31.5 CG 31.73 CD 31.63
A ARG T 135 59.1 10.1 N 31.4 CA 32.33 C 32.71 O 31.95 CB 32.95 CG 35.46 CD 42.65 NE 46.32 CZ 46.47 NH1 46.05 NH2 44.96
A GLU - 48 -75.8 149.4 N 31.88 CA 33.07 C 32.2 O 32.24 CB 33.13 CG 33.88 CD 34.0 OE1 32.43 OE2 35.4
A THR E 30 -118.4 146.1 N 32.44 CA 33.09 C 33.06 O 32.04 CB 34.1 OG1 40.17 CG2 30.9
A ALA E 0 -111.7 120.5 N 32.55 CA 32.51 C 31.85 O 32.5 CB 32.44
A PRO E 4 -70.2 163.0 N 31.85 CA 31.12 C 31.39 O 30.86 CB 30.44 CG 32.17 CD 31.66
A GLU E 9 -80.0 136.6 N 30.34 CA 30.46 C 28.78 O 28.4 CB 30.56 CG 33.69 CD 35.45 OE1 34.31 OE2 35.83
A HIS E 9 -150.4 174.4 N 27.4 CA 26.16 C 26.13 O 26.64 CB 25.15 CG 25.84 ND1 24.98 CD2 23.73 CE1 27.04 NE2 28.32
A ARG E 57 -143.8 158.9 N 24.9 CA 25.62 C 25.38 O 25.32 CB 24.35 CG 24.72 CD 27.58 NE 31.64 CZ 34.69 NH1 35.52 NH2 35.29
A HIS E 14 -157.8 155.5 N 25.44 CA 23.76 C 23.14 O 22.12 CB 24.03 CG 23.75 ND1 25.18 CD2 26.57 CE1 23.74 NE2 24.6
A SER S 34 -63.9 -29.5 N 22.79 CA 22.47 C 22.51 O 22.21 CB 21.91 OG 21.28
A GLN S 35 -59.8 132.5 N 23.33 CA 22.87 C 23.69 O 23.83 CB 22.14 CG 23.88 CD 25.06 OE1 24.02 NE2 25.14
A ASN - 18 -83.0 153.7 N 23.07 CA 23.01 C 23.31 O 22.95 CB 22.98 CG 22.89 OD1 22.95 ND2 22.6
A ALA E 0 -150.6 151.4 N 22.47 CA 23.2 C 23.32 O 23.23 CB 23.27
A PHE E 0 -140.3 163.1 N 23.35 CA 23.92 C 25.55 O 25.43 CB 23.01 CG 24.27 CD1 20.06 CD2 23.06 CE1 21.72 CE2 26.21 CZ 21.06
A ARG E 8 -118.9 134.9 N 26.11 CA 26.94 C 27.12 O 29.04 CB 26.74 CG 24.47 CD 23.7 NE 23.31 CZ 21.81 NH1 21.4 NH2 16.48
A PHE E 0 -128.8 142.2 N 27.75 CA 27.5 C 28.29 O 27.16 CB 26.65 CG 26.25 CD1 23.77 CD2 24.3 CE1 25.56 CE2 26.03 CZ 24.99
A VAL - 0 -118.8 106.6 N 30.07 CA 29.89 C 31.25 O 31.68 CB 31.55 CG1 30.07 CG2 26.93
A VAL S 1 -76.1 -29.0 N 31.01 CA 31.96 C 32.1 O 32.38 CB 31.64 CG1 32.97 CG2 32.05
A GLU S 60 -164.4 151.6 N 31.85 CA 32.83 C 33.47 O 33.53 CB 32.6 CG 35.56 CD 40.4 OE1 42.43 OE2 39.8
A GLY - 36 113.8 169.6 N 33.8 CA 35.1 C 36.1 O 36.6
A GLU E 139 -162.9 175.8 N 36.88 CA 37.61 C 36.97 O 37.17 CB 39.09 CG 43.53 CD 52.36 OE1 55.51 OE2 56.14
A GLY E 6 117.1 -24.7 N 35.68 CA 34.23 C 34.01 O 33.4
A VAL E 0 -89.2 140.8 N 33.08 CA 32.7 C 32.67 O 32.1 CB 32.81 CG1 32.83 CG2 34.25
A TRP E 28 -113.2 135.8 N 31.74 CA 32.31 C 32.83 O 33.51 CB 33.01 CG 33.32 CD1 33.38 CD2 32.5 NE1 34.52 CE2 35.27 CE3 35.29 CZ2 36.24 CZ3 37.55 CH2 37.02
A THR E 2 -108.7 126.8 N 31.49 CA 30.31 C 30.04 O 30.93 CB 30.36 OG1 27.77 CG2 31.28
A VAL E 0 -102.3 112.6 N 29.07 CA 28.59 C 28.95 O 28.1 CB 29.19 CG1 27.17 CG2 28.99
A VAL E 20 -113.7 116.3 N 29.35 CA 30.05 C 30.19 O 30.49 CB 30.57 CG1 30.02 CG2 29.09
A ASN T 95 45.1 42.7 N 31.19 CA 32.03 C 32.69 O 32.42 CB 32.72 CG 35.09 OD1 37.44 ND2 30.15
A GLY T 15 85.1 2.4 N 32.25 CA 33.15 C 33.24 O 33.87
A ASP E 25 -107.8 108.7 N 32.45 CA 31.67 C 31.89 O 31.98 CB 32.26 CG 32.74 OD1 29.89 OD2 32.77
A PRO E 0 -72.1 128.9 N 31.8 CA 30.99 C 30.12 O 29.24 CB 31.68 CG 32.16 CD 32.4
A VAL E 2 -121.8 111.8 N 29.25 CA 28.96 C 30.03 O 30.95 CB 28.43 CG1 26.82 CG2 25.4
A ARG E 43 -61.7 140.8 N 31.11 CA 31.46 C 31.78 O 31.79 CB 32.42 CG 32.13 CD 31.84 NE 31.93 CZ 33.89 NH1 34.29 NH2 33.02
A MET E 0 -113.4 123.4 N 30.36 CA 31.46 C 31.59 O 32.42 CB 31.23 CG 32.75 SD 36.68 CE 33.2
A SER E 11 -142.0 165.9 N 30.78 CA 30.16 C 30.11 O 30.78 CB 30.49 OG 32.62
A ARG T 96 -48.6 127.3 N 29.49 CA 30.15 C 29.09 O 29.41 CB 30.57 CG 34.75 CD 38.34 NE 41.24 CZ 37.61 NH1 35.7 NH2 35.38
A GLY T 0 88.7 -3.9 N 28.4 CA 27.14 C 26.74 O 26.65
A ASP - 4 -84.2 137.5 N 25.31 CA 25.78 C 25.83 O 25.02 CB 25.1 CG 27.84 OD1 28.37 OD2 28.85
A LEU E 0 -95.0 122.4 N 25.44 CA 25.12 C 25.39 O 25.44 CB 25.03 CG 23.26 CD1 20.36 CD2 20.8
A LEU E 1 -110.3 139.7 N 25.32 CA 25.72 C 26.49 O 27.38 CB 26.13 CG 26.12 CD1 26.81 CD2 28.4
A LEU E 4 -111.2 146.9 N 26.24 CA 26.51 C 26.05 O 25.85 CB 25.57 CG 26.9 CD1 27.19 CD2 24.95
A THR E 2 -142.9 89.4 N 26.23 CA 26.34 C 26.66 O 26.52 CB 27.14 OG1 26.88 CG2 27.32
A PRO - 18 -63.2 152.7 N 25.51 CA 24.98 C 25.03 O 25.22 CB 24.72 CG 24.42 CD 25.49
A GLY T 23 -50.4 137.7 N 24.08 CA 24.29 C 25.08 O 24.01
A TRP T 102 79.6 2.5 N 25.14 CA 26.88 C 26.8 O 27.41 CB 26.56 CG 31.4 CD1 34.53 CD2 31.52 NE1 34.84 CE2 33.64 CE3 34.49 CZ2 34.38 CZ3 35.03 CH2 35.25
A CYS - 24 -85.5 128.7 N 26.9 CA 26.51 C 26.02 O 25.29 CB 26.57 SG 29.21
A PHE - 44 -62.6 137.1 N 26.22 CA 26.2 C 25.44 O 25.87 CB 26.21 CG 26.33 CD1 27.62 CD2 29.03 CE1 30.49 CE2 27.45 CZ 28.0
A HIS E 1 -148.9 139.4 N 25.04 CA 25.5 C 25.99 O 26.27 CB 24.66 CG 24.25 ND1 25.52 CD2 25.66 CE1 22.54 NE2 22.33
A GLY E 0 -146.6 170.7 N 26.9 CA 27.64 C 28.43 O 27.06
A HIS E 0 -141.0 154.0 N 29.8 CA 32.2 C 33.73 O 33.83 CB 32.92 CG 36.13 ND1 38.71 CD2 39.39 CE1 37.94 NE2 40.6
A MET E 5 -146.1 138.9 N 33.92 CA 35.24 C 34.62 O 34.47 CB 36.07 CG 40.26 SD 50.7 CE 49.23
A ASN E 3 -91.1 117.8 N 34.15 CA 33.52 C 35.07 O 35.61 CB 32.48 CG 31.36 OD1 31.26 ND2 28.36
A ASP - 58 -90.2 20.6 N 36.31 CA 37.88 C 37.67 O 38.41 CB 37.86 CG 38.91 OD1 39.85 OD2 41.46
A THR S 43 -143.6 169.5 N 38.14 CA 38.59 C 38.82 O 38.68 CB 39.09 OG1 41.82 CG2 37.72
A ASP S 106 -98.0 14.0 N 38.24 CA 38.67 C 38.38 O 37.69 CB 39.1 CG 42.06 OD1 45.19 OD2 44.92
A GLN S 129 -120.8 144.2 N 38.01 CA 38.25 C 36.99 O 35.04 CB 39.4 CG 45.68 CD 50.24 OE1 53.92 NE2 51.28
A PRO - 56 -72.1 158.5 N 36.43 CA 35.99 C 35.33 O 35.89 CB 36.2 CG 36.71 CD 36.92
A MET E 3 -132.0 142.1 N 34.24 CA 33.26 C 32.43 O 31.75 CB 32.79 CG 34.53 SD 35.62 CE 33.86
A ALA E 12 -120.4 151.7 N 31.94 CA 31.6 C 30.88 O 30.16 CB 31.57
A TRP E 1 -151.0 -178.8 N 30.71 CA 29.46 C 28.96 O 29.21 CB 29.06 CG 28.99 CD1 26.89 CD2 28.14 NE1 28.21 CE2 28.92 CE3 31.44 CZ2 29.28 CZ3 29.61 CH2 30.61
A ILE E 0 -113.8 145.4 N 27.57 CA 27.02 C 26.67 O 26.51 CB 27.23 CG1 27.86 CG2 26.71 CD1 26.46
A ASP E 4 -107.8 141.9 N 25.07 CA 25.22 C 23.66 O 24.18 CB 24.13 CG 28.77 OD1 30.71 OD2 30.05
A GLY E 0 -124.0 137.8 N 23.06 CA 22.25 C 23.28 O 23.54
A LEU E 12 -141.7 165.3 N 22.52 CA 22.24 C 22.54 O 22.63 CB 21.37 CG 23.16 CD1 20.68 CD2 21.14
A ASP - 3 -95.0 29.2 N 22.3 CA 22.64 C 22.86 O 23.27 CB 22.92 CG 22.28 OD1 25.35 OD2 22.92
A ILE H 50 -44.5 -51.5 N 23.09 CA 22.04 C 21.58 O 20.7 CB 22.53 CG1 22.18 CG2 21.97 CD1 23.1
A PRO H 0 -67.2 -42.9 N 21.82 CA 21.97 C 23.15 O 23.15 CB 21.85 CG 20.81 CD 20.26
A PHE H 56 -54.1 -50.5 N 22.55 CA 22.84 C 22.96 O 23.5 CB 21.79 CG 23.86 CD1 25.06 CD2 22.86 CE1 26.73 CE2 25.92 CZ 24.88
A SER H 4 -67.1 -40.2 N 22.72 CA 22.75 C 23.83 O 23.66 CB 22.47 OG 22.32
A GLN H 114 -63.5 -49.5 N 23.84 CA 24.55 C 24.86 O 24.79 CB 25.09 CG 26.28 CD 27.94 OE1 30.93 NE2 22.16
A GLN H 96 -67.8 -33.0 N 23.93 CA 23.43 C 23.38 O 24.64 CB 23.4 CG 23.72 CD 24.95 OE1 30.53 NE2 21.88
A MET H 106 -90.5 -9.2 N 22.54 CA 24.1 C 23.4 O 23.81 CB 24.17 CG 27.53 SD 34.46 CE 23.8
A ASP T 143 69.8 53.6 N 22.49 CA 22.23 C 21.56 O 22.93 CB 21.71 CG 23.91 OD1 25.87 OD2 25.43
A VAL - 62 -119.3 5.8 N 21.84 CA 22.2 C 22.79 O 22.52 CB 22.19 CG1 20.07 CG2 21.78
A GLY - 42 -76.5 126.2 N 22.32 CA 23.14 C 22.77 O 23.48
A PHE - 147 -127.6 154.0 N 23.27 CA 23.79 C 25.2 O 24.84 CB 23.66 CG 23.02 CD1 23.71 CD2 22.81 CE1 22.21 CE2 24.05 CZ 24.29
A PHE E 96 -151.3 140.2 N 25.86 CA 25.8 C 27.53 O 27.21 CB 25.77 CG 27.11 CD1 28.25 CD2 28.25 CE1 25.86 CE2 28.13 CZ 29.27
A GLU E 77 -139.0 126.4 N 27.68 CA 29.26 C 28.95 O 28.38 CB 29.09 CG 31.91 CD 36.07 OE1 37.75 OE2 33.29
A PHE E 113 -72.8 136.5 N 28.8 CA 29.43 C 30.52 O 30.86 CB 28.87 CG 27.8 CD1 24.64 CD2 26.05 CE1 28.24 CE2 26.66 CZ 28.68
A GLY - 23 -110.3 -149.5 N 31.83 CA 33.28 C 35.05 O 34.33
A SER - 49 -57.1 139.9 N 37.02 CA 38.89 C 40.06 O 39.4 CB 38.74 OG 40.77
A ASP S 116 -66.9 -23.0 N 41.26 CA 43.55 C 44.23 O 45.21 CB 43.73 CG 45.5 OD1 47.38 OD2 47.75
A ARG S 149 -120.7 154.4 N 44.91 CA 46.22 C 45.7 O 47.09 CB 46.99 CG 50.37 CD 55.23 NE 59.98 CZ 61.16 NH1 61.39 NH2 60.83
A VAL - 6 -57.0 146.1 N 43.96 CA 42.89 C 43.22 O 42.6 CB 42.79 CG1 42.77 CG2 40.13
A THR S 86 -80.2 -8.2 N 42.71 CA 42.61 C 41.93 O 42.13 CB 42.43 OG1 43.04 CG2 42.95
A ASP - 56 -151.3 116.8 N 41.52 CA 40.98 C 40.41 O 39.62 CB 41.31 CG 42.86 OD1 44.97 OD2 44.23
A TYR - 75 -88.8 -4.7 N 39.28 CA 37.87 C 37.16 O 35.84 CB 37.35 CG 38.05 CD1 38.21 CD2 38.87 CE1 38.47 CE2 38.82 CZ 39.2 OH 38.56
A ALA - 49 -58.2 149.0 N 36.52 CA 36.38 C 36.2 O 36.7 CB 35.95
A THR - 53 -125.2 60.3 N 35.97 CA 36.33 C 36.41 O 36.1 CB 37.83 OG1 35.14 CG2 37.38
A PRO - 49 -62.3 152.1 N 36.76 CA 36.53 C 36.66 O 35.85 CB 36.48 CG 36.89 CD 36.1
A ASN S 97 -57.8 -33.8 N 36.66 CA 37.35 C 35.97 O 36.51 CB 38.97 CG 43.01 OD1 49.43 ND2 47.01
A PHE S 80 -139.7 143.0 N 34.21 CA 32.82 C 31.7 O 32.83 CB 32.29 CG 33.45 CD1 33.15 CD2 37.18 CE1 34.46 CE2 39.0 CZ 37.8
A SER - 0 -82.6 167.4 N 29.66 CA 27.93 C 28.42 O 27.69 CB 29.67 OG 26.55
A ARG H 124 -65.0 -38.2 N 27.53 CA 27.94 C 27.86 O 27.95 CB 27.41 CG 31.34 CD 34.27 NE 37.47 CZ 40.96 NH1 42.87 NH2 40.38
A GLY H 14 -57.1 -48.5 N 27.18 CA 26.67 C 26.6 O 25.7
A GLU H 8 -63.8 -37.4 N 25.58 CA 27.85 C 28.45 O 28.66 CB 27.94 CG 28.13 CD 28.42 OE1 26.23 OE2 27.27
A ARG H 169 -67.6 -25.6 N 28.42 CA 28.27 C 27.83 O 27.74 CB 27.76 CG 29.35 CD 29.4 NE 31.15 CZ 33.92 NH1 30.76 NH2 33.36
A LEU H 87 -86.6 -40.3 N 27.49 CA 28.14 C 27.49 O 26.92 CB 28.28 CG 32.04 CD1 33.15 CD2 29.48
A TRP H 30 -109.9 -10.3 N 26.97 CA 28.0 C 29.41 O 29.75 CB 26.75 CG 24.44 CD1 21.16 CD2 24.11 NE1 24.67 CE2 24.26 CE3 22.74 CZ2 22.83 CZ3 23.98 CH2 23.06
A CYS - 44 -100.0 43.4 N 28.47 CA 29.99 C 30.47 O 32.34 CB 29.94 SG 31.06
A HIS S 92 -116.2 116.5 N 29.78 CA 29.33 C 28.48 O 27.92 CB 29.53 CG 30.46 ND1 27.1 CD2 28.09 CE1 27.42 NE2 29.12
A PRO T 127 -57.6 127.5 N 27.72 CA 27.05 C 25.93 O 25.3 CB 27.27 CG 27.92 CD 26.94
A GLY T 87 74.3 8.4 N 25.51 CA 23.73 C 24.17 O 22.78
A LEU - 121 -117.9 137.7 N 23.04 CA 23.84 C 24.32 O 25.6 CB 22.72 CG 24.3 CD1 17.52 CD2 21.07
A ARG - 84 -128.0 129.7 N 22.55 CA 23.62 C 22.84 O 22.82 CB 22.2 CG 23.76 CD 20.92 NE 22.74 CZ 21.99 NH1 18.21 NH2 20.69
A PRO - 24 -64.8 137.9 N 23.1 CA 22.61 C 23.46 O 23.39 CB 22.12 CG 22.14 CD 21.77
A LEU G 150 -60.9 -18.5 N 23.44 CA 24.02 C 25.14 O 26.0 CB 23.66 CG 26.01 CD1 24.5 CD2 26.17
A SER G 108 -83.9 -3.3 N 25.34 CA 26.09 C 26.35 O 26.09 CB 25.2 OG 27.71
A GLY G 13 -125.1 46.9 N 25.91 CA 24.84 C 24.25 O 23.92
A LEU - 109 -84.3 -20.6 N 23.57 CA 24.12 C 25.08 O 23.85 CB 23.93 CG 24.52 CD1 23.73 CD2 24.68
A GLN S 161 -69.3 128.5 N 24.6 CA 25.97 C 24.79 O 24.05 CB 26.99 CG 35.29 CD 44.68 OE1 47.52 NE2 47.3
A ASN - 78 -69.6 154.3 N 24.55 CA 25.44 C 25.91 O 26.48 CB 23.99 CG 27.31 OD1 28.68 ND2 19.87
A THR - 50 -117.6 154.4 N 26.89 CA 28.82 C 28.7 O 27.75 CB 29.85 OG1 30.41 CG2 32.71
A VAL S 126 -75.2 -26.1 N 28.46 CA 29.65 C 28.93 O 29.22 CB 30.57 CG1 32.23 CG2 31.79
A ALA S 14 -127.0 157.0 N 27.49 CA 27.03 C 26.25 O 25.9 CB 26.51
A SER - 5 -59.8 135.2 N 27.33 CA 26.42 C 27.47 O 27.58 CB 25.9 OG 24.78
A PRO S 39 -84.6 3.2 N 27.57 CA 27.34 C 27.36 O 28.26 CB 27.46 CG 27.06 CD 27.27
A ILE - 14 -83.0 117.0 N 26.5 CA 24.74 C 25.99 O 26.03 CB 25.33 CG1 22.13 CG2 22.96 CD1 20.68
A GLY - 15 -82.2 -21.5 N 26.28 CA 26.26 C 26.03 O 27.26
A ALA E 1 -139.1 124.8 N 25.02 CA 24.34 C 24.08 O 25.24 CB 24.26
A TYR E 29 -103.1 97.6 N 23.21 CA 24.19 C 24.47 O 24.59 CB 22.33 CG 24.29 CD1 21.28 CD2 22.79 CE1 24.0 CE2 23.16 CZ 24.44 OH 26.33
A ARG - 7 -76.8 146.3 N 24.91 CA 25.84 C 26.07 O 24.84 CB 26.36 CG 28.56 CD 32.06 NE 29.7 CZ 29.7 NH1 28.38 NH2 29.71
A TRP H 34 -52.7 -42.0 N 26.29 CA 26.76 C 27.04 O 27.44 CB 25.67 CG 26.83 CD1 26.78 CD2 25.25 NE1 28.68 CE2 27.93 CE3 27.02 CZ2 27.66 CZ3 29.34 CH2 27.76
A GLU H 97 -47.7 -49.1 N 28.08 CA 29.22 C 28.47 O 27.39 CB 29.85 CG 38.05 CD 44.53 OE1 47.08 OE2 48.45
A PHE H 99 -69.9 -40.2 N 27.43 CA 26.91 C 26.52 O 27.2 CB 26.34 CG 28.91 CD1 30.67 CD2 29.49 CE1 32.74 CE2 30.52 CZ 29.23
A THR H 9 -62.8 -48.0 N 26.11 CA 25.92 C 26.49 O 25.89 CB 26.43 OG1 26.24 CG2 23.73
A ASP H 58 -58.7 -42.7 N 27.91 CA 28.35 C 28.1 O 28.31 CB 29.02 CG 31.32 OD1 30.46 OD2 36.15
A ARG H 114 -68.9 -43.8 N 28.21 CA 28.33 C 27.79 O 28.25 CB 28.39 CG 33.05 CD 39.98 NE 43.01 CZ 44.93 NH1 45.23 NH2 42.59
A ALA H 38 -59.9 -46.2 N 27.04 CA 26.52 C 26.52 O 26.24 CB 26.19
A LEU H 0 -66.5 -39.7 N 25.87 CA 26.71 C 26.88 O 27.39 CB 25.55 CG 29.66 CD1 26.64 CD2 30.72
A THR H 51 -63.0 -52.1 N 27.39 CA 28.67 C 28.44 O 28.54 CB 28.23 OG1 30.09 CG2 30.31
A GLU H 95 -51.9 -39.8 N 28.28 CA 27.67 C 26.98 O 26.12 CB 28.06 CG 29.17 CD 35.27 OE1 36.17 OE2 35.03
A GLN H 31 -59.6 -43.1 N 26.88 CA 26.76 C 27.52 O 27.29 CB 26.81 CG 24.42 CD 27.6 OE1 25.91 NE2 26.45
A LEU H 13 -71.6 -35.3 N 28.24 CA 29.53 C 30.57 O 31.06 CB 28.28 CG 27.32 CD1 25.81 CD2 27.89
A LEU H 65 -63.5 -45.0 N 31.64 CA 32.83 C 32.87 O 32.06 CB 32.17 CG 35.2 CD1 35.9 CD2 31.38
A LEU H 64 -61.3 -44.6 N 32.11 CA 32.32 C 33.22 O 32.98 CB 31.42 CG 30.92 CD1 30.78 CD2 27.25
A GLU H 45 -55.3 -44.3 N 33.61 CA 34.38 C 34.74 O 34.95 CB 34.27 CG 35.08 CD 35.82 OE1 34.64 OE2 37.07
A ASP H 103 -55.5 -38.0 N 35.14 CA 36.08 C 36.74 O 37.56 CB 35.61 CG 35.45 OD1 36.48 OD2 35.29
A GLU T 121 -84.8 5.5 N 36.03 CA 36.02 C 36.39 O 36.96 CB 35.13 CG 35.27 CD 36.85 OE1 36.25 OE2 38.3
A GLY T 65 78.2 23.0 N 36.03 CA 36.1 C 36.78 O 36.92
A GLN - 105 -112.2 141.3 N 36.35 CA 36.22 C 35.89 O 35.46 CB 36.45 CG 38.0 CD 40.74 OE1 44.22 NE2 38.97
A PRO S 122 -66.5 142.7 N 35.54 CA 34.89 C 33.67 O 32.88 CB 35.47 CG 36.5 CD 35.86
A ALA - 40 -177.5 -52.9 N 31.97 CA 31.18 C 31.57 O 31.08 CB 31.21
A THR S 30 -70.6 150.9 N 30.05 CA 29.6 C 30.33 O 29.76 CB 29.55 OG1 27.49 CG2 25.7
A VAL S 102 -69.4 -29.5 N 30.48 CA 30.9 C 30.98 O 31.64 CB 31.32 CG1 30.94 CG2 32.21
A ALA B 42 -156.7 162.3 N 30.78 CA 30.33 C 30.46 O 30.91 CB 29.95
A PRO T 113 -56.8 129.8 N 30.9 CA 30.69 C 30.51 O 31.28 CB 30.85 CG 31.81 CD 31.71
A GLY T 6 61.9 15.3 N 29.14 CA 29.45 C 28.89 O 29.91
A HIS E 22 -121.2 93.5 N 28.6 CA 27.09 C 26.97 O 27.71 CB 27.25 CG 26.04 ND1 24.94 CD2 24.89 CE1 26.98 NE2 26.98
A ALA E 0 -85.1 147.3 N 26.45 CA 26.61 C 25.97 O 26.59 CB 25.43
A ALA E 22 -166.4 143.9 N 25.39 CA 25.54 C 24.99 O 25.17 CB 25.49
A ILE E 38 -128.4 162.0 N 24.11 CA 23.09 C 22.74 O 23.29 CB 23.28 CG1 22.96 CG2 21.13 CD1 18.87
A ARG E 110 -116.0 131.5 N 22.52 CA 21.26 C 21.37 O 21.06 CB 21.35 CG 18.62 CD 22.2 NE 21.93 CZ 20.94 NH1 19.37 NH2 18.63
A TYR - 7 -76.1 134.8 N 21.74 CA 22.59 C 23.44 O 24.5 CB 22.91 CG 23.07 CD1 22.98 CD2 22.81 CE1 21.21 CE2 20.71 CZ 24.34 OH 26.07
A VAL B 52 -129.7 155.6 N 22.92 CA 23.03 C 22.64 O 21.92 CB 23.31 CG1 22.53 CG2 21.91
A ASN - 1 -72.8 110.7 N 22.53 CA 22.58 C 23.0 O 24.06 CB 21.61 CG 21.89 OD1 22.52 ND2 23.04
A PRO T 53 -65.8 -14.5 N 23.29 CA 22.62 C 23.25 O 23.25 CB 23.22 CG 22.39 CD 23.46
A THR T 7 -74.8 -20.2 N 23.33 CA 23.09 C 23.11 O 22.39 CB 23.47 OG1 23.17 CG2 22.66
A THR T 79 -130.3 -19.9 N 23.02 CA 22.27 C 22.37 O 22.8 CB 22.65 OG1 23.23 CG2 20.37
A GLY S 54 79.6 5.7 N 22.63 CA 22.63 C 23.16 O 23.39
A GLY S 28 -96.0 -162.8 N 22.98 CA 22.03 C 23.21 O 21.68
A ASP B 31 -72.8 157.9 N 22.54 CA 23.34 C 24.4 O 23.49 CB 23.87 CG 25.43 OD1 26.37 OD2 25.02
A VAL S 0 -59.9 -37.0 N 24.01 CA 24.76 C 24.67 O 25.17 CB 24.87 CG1 24.8 CG2 21.23
A MET S 2 -142.7 161.5 N 24.12 CA 24.15 C 24.0 O 24.51 CB 24.53 CG 25.03 SD 27.54 CE 27.41
A PRO S 67 -62.3 -25.4 N 23.1 CA 23.18 C 23.25 O 23.57 CB 22.85 CG 23.7 CD 22.67
A THR S 16 -111.9 -11.7 N 23.27 CA 23.2 C 23.9 O 24.68 CB 23.47 OG1 21.74 CG2 21.08
A LEU - 2 -132.4 131.8 N 23.44 CA 22.77 C 22.61 O 23.21 CB 22.79 CG 23.21 CD1 22.07 CD2 23.25
A ARG E 14 -110.6 133.4 N 22.65 CA 21.74 C 22.63 O 22.9 CB 21.61 CG 21.08 CD 22.34 NE 21.56 CZ 23.98 NH1 20.53 NH2 21.48
A CYS E 0 -118.9 133.1 N 21.67 CA 21.83 C 22.58 O 23.91 CB 21.32 SG 23.21
A GLU E 17 -134.1 167.0 N 21.52 CA 21.84 C 22.23 O 20.07 CB 21.92 CG 23.97 CD 25.55 OE1 24.97 OE2 25.44
A PHE E 0 -136.7 131.0 N 22.3 CA 22.58 C 23.52 O 23.47 CB 23.02 CG 24.16 CD1 25.23 CD2 24.08 CE1 27.2 CE2 25.0 CZ 26.2
A HIS E 12 -117.2 141.5 N 23.77 CA 24.2 C 24.65 O 25.52 CB 23.01 CG 24.57 ND1 24.99 CD2 22.82 CE1 23.93 NE2 23.53
A ARG E 7 -132.5 118.6 N 25.31 CA 25.14 C 25.77 O 26.33 CB 25.32 CG 25.94 CD 26.69 NE 26.02 CZ 27.09 NH1 27.78 NH2 24.91
A LEU E 0 -108.7 130.1 N 25.31 CA 27.81 C 28.08 O 29.92 CB 25.27 CG 28.81 CD1 29.76 CD2 26.89
A ARG - 76 -56.3 147.1 N 29.63 CA 29.41 C 29.86 O 29.93 CB 29.75 CG 31.67 CD 34.0 NE 32.45 CZ 34.04 NH1 29.88 NH2 33.99
A ALA T 65 -42.3 130.5 N 31.12 CA 31.58 C 32.42 O 32.07 CB 32.1
A GLY T 57 92.6 -16.5 N 32.82 CA 33.27 C 33.82 O 34.05
A THR - 20 -64.7 134.9 N 33.58 CA 34.32 C 33.93 O 34.64 CB 34.01 OG1 35.1 CG2 34.79
A GLU B 134 -128.1 115.7 N 33.34 CA 34.01 C 32.98 O 32.94 CB 34.75 CG 39.43 CD 44.5 OE1 48.05 OE2 48.35
A THR - 20 -75.0 151.1 N 31.59 CA 30.02 C 30.51 O 30.39 CB 29.14 OG1 26.77 CG2 26.72
A ALA - 43 -67.6 139.2 N 29.75 CA 29.8 C 29.75 O 29.91 CB 29.67
A THR - 40 -63.5 129.4 N 29.02 CA 29.19 C 28.76 O 29.53 CB 29.14 OG1 29.73 CG2 27.89
A ARG E 81 -115.2 142.3 N 27.79 CA 26.32 C 26.15 O 25.11 CB 27.0 CG 27.69 CD 27.24 NE 29.78 CZ 31.26 NH1 31.08 NH2 27.82
A ASN E 18 -110.6 130.0 N 25.44 CA 25.22 C 25.06 O 24.61 CB 25.38 CG 25.72 OD1 26.25 ND2 23.29
A GLU E 33 -132.6 138.6 N 23.58 CA 23.52 C 22.99 O 21.82 CB 24.27 CG 25.38 CD 27.03 OE1 28.8 OE2 29.55
A VAL S 22 -71.4 141.7 N 22.63 CA 22.16 C 22.26 O 21.92 CB 22.99 CG1 20.04 CG2 21.03
A GLY S 10 84.7 173.0 N 22.64 CA 23.23 C 24.42 O 24.78
A SER - 4 -108.0 154.8 N 24.11 CA 23.02 C 23.13 O 22.58 CB 23.7 OG 24.41
A THR E 5 -139.2 152.9 N 22.81 CA 22.02 C 23.2 O 22.33 CB 23.09 OG1 21.51 CG2 21.43
A VAL E 0 -130.6 136.3 N 21.91 CA 22.64 C 21.69 O 20.16 CB 22.58 CG1 21.9 CG2 20.98
A PHE E 0 -117.3 150.9 N 21.92 CA 22.62 C 22.88 O 23.69 CB 23.49 CG 24.33 CD1 24.38 CD2 24.57 CE1 24.73 CE2 25.6 CZ 22.17
A GLN E 0 -123.2 129.3 N 23.69 CA 23.21 C 23.55 O 23.08 CB 23.53 CG 22.29 CD 26.63 OE1 29.03 NE2 23.47
A VAL E 0 -66.8 123.2 N 24.66 CA 24.16 C 24.8 O 25.3 CB 23.34 CG1 25.47 CG2 24.12
A PHE E 1 -91.7 -40.6 N 25.3 CA 26.58 C 27.3 O 27.45 CB 26.69 CG 25.75 CD1 27.69 CD2 26.88 CE1 29.88 CE2 30.37 CZ 29.3
A GLU E 85 -161.5 148.4 N 28.88 CA 31.15 C 30.87 O 31.6 CB 32.59 CG 38.46 CD 48.52 OE1 51.73 OE2 50.89
A GLY S 24 91.9 -170.1 N 31.33 CA 30.74 C 31.12 O 32.71
A ALA - 25 -136.3 146.1 N 31.41 CA 30.25 C 29.62 O 30.07 CB 30.68
A GLY E 8 179.5 -155.0 N 28.71 CA 27.63 C 28.14 O 29.63
A ALA E 8 -148.8 159.7 N 27.86 CA 27.65 C 27.14 O 25.91 CB 28.0
A VAL E 0 -119.2 145.3 N 26.4 CA 25.62 C 25.53 O 26.66 CB 26.22 CG1 25.02 CG2 25.27
A VAL E 20 -115.6 126.2 N 25.01 CA 25.11 C 24.82 O 24.46 CB 25.6 CG1 24.23 CG2 26.19
A MET E 10 -135.3 131.9 N 23.8 CA 23.89 C 24.54 O 23.98 CB 23.17 CG 24.03 SD 27.59 CE 25.31
A ASN T 98 50.0 32.7 N 25.18 CA 26.01 C 26.73 O 27.34 CB 25.08 CG 27.82 OD1 31.46 ND2 21.75
A GLY T 67 84.3 -3.8 N 27.71 CA 28.66 C 29.67 O 29.63
A GLU E 135 -100.9 125.7 N 29.05 CA 29.65 C 28.87 O 27.86 CB 29.97 CG 34.63 CD 39.45 OE1 38.19 OE2 40.82
A THR E 77 -90.0 130.4 N 28.66 CA 27.83 C 28.45 O 28.74 CB 28.58 OG1 29.75 CG2 27.98
A THR E 39 -125.0 124.0 N 28.14 CA 28.51 C 29.59 O 28.65 CB 28.62 OG1 30.12 CG2 28.64
A LYS E 157 -71.4 143.6 N 29.06 CA 31.32 C 30.9 O 30.49 CB 32.06 CG 38.21 CD 45.15 CE 50.35 NZ 52.63
A LEU E 3 -129.2 147.5 N 31.02 CA 31.32 C 31.34 O 30.96 CB 31.06 CG 31.35 CD1 26.7 CD2 30.62
A GLU - 126 -129.3 166.3 N 31.77 CA 31.8 C 30.86 O 29.95 CB 32.88 CG 39.71 CD 47.91 OE1 50.53 OE2 50.04
A LYS T 67 -36.4 122.5 N 30.04 CA 29.99 C 29.02 O 27.47 CB 30.6 CG 32.73 CD 39.01 CE 45.01 NZ 49.63
A GLY T 0 90.3 -19.0 N 28.04 CA 27.08 C 26.71 O 26.65
A ASP - 2 -62.2 150.6 N 25.62 CA 25.13 C 25.71 O 26.03 CB 24.86 CG 27.46 OD1 25.8 OD2 27.9
A MET E 0 -128.5 139.1 N 25.42 CA 25.87 C 25.39 O 25.97 CB 25.42 CG 27.07 SD 31.2 CE 29.91
A PHE E 0 -138.5 153.3 N 25.13 CA 24.09 C 23.04 O 22.52 CB 23.64 CG 25.2 CD1 25.23 CD2 24.64 CE1 26.91 CE2 25.6 CZ 23.3
A VAL E 0 -118.1 133.8 N 23.41 CA 23.48 C 23.54 O 23.59 CB 23.58 CG1 22.63 CG2 23.85
A VAL E 4 -113.2 102.2 N 22.11 CA 20.84 C 22.54 O 22.78 CB 20.79 CG1 20.69 CG2 18.93
A PRO - 1 -65.8 166.0 N 21.79 CA 21.69 C 22.23 O 21.65 CB 21.21 CG 23.45 CD 22.12
A SER T 24 -47.1 128.2 N 20.54 CA 21.74 C 21.3 O 21.73 CB 20.11 OG 21.84
A TRP T 39 71.4 4.2 N 22.54 CA 22.45 C 23.03 O 23.95 CB 22.14 CG 21.73 CD1 24.15 CD2 23.45 NE1 23.3 CE2 24.4 CE3 21.84 CZ2 24.93 CZ3 22.97 CH2 25.27
A VAL - 16 -72.5 124.1 N 21.97 CA 22.52 C 22.55 O 22.0 CB 21.18 CG1 22.35 CG2 20.54
A PRO - 38 -65.0 131.4 N 23.01 CA 23.25 C 22.99 O 22.98 CB 22.94 CG 24.56 CD 23.07
A TRP E 11 -141.9 149.8 N 23.0 CA 22.83 C 23.46 O 24.76 CB 22.11 CG 24.08 CD1 23.51 CD2 22.53 NE1 26.23 CE2 22.06 CE3 26.04 CZ2 25.85 CZ3 26.62 CH2 25.58
A SER E 9 -153.6 154.2 N 23.91 CA 23.41 C 23.81 O 24.72 CB 23.49 OG 19.8
A LEU E 1 -113.1 141.9 N 24.01 CA 25.7 C 26.38 O 27.37 CB 25.04 CG 25.86 CD1 25.5 CD2 25.4
A GLN E 55 -125.8 126.0 N 28.25 CA 29.23 C 29.32 O 29.21 CB 29.81 CG 33.18 CD 41.86 OE1 43.29 NE2 42.15
A ALA E 8 -100.2 121.4 N 28.63 CA 28.85 C 29.94 O 29.83 CB 28.3
A GLU S 129 -82.5 -63.7 N 31.33 CA 32.44 C 32.0 O 32.74 CB 32.3 CG 33.65 CD 36.34 OE1 35.78 OE2 40.27
A THR S 62 -93.0 -171.2 N 32.77 CA 32.92 C 33.25 O 33.13 CB 33.18 OG1 33.33 CG2 35.24
A GLN S 91 -60.3 131.5 N 33.32 CA 32.9 C 32.23 O 32.64 CB 33.02 CG 34.7 CD 36.11 OE1 37.48 NE2 35.68
A PHE E 0 -128.8 111.3 N 30.7 CA 29.83 C 29.52 O 29.68 CB 29.16 CG 29.96 CD1 29.0 CD2 27.57 CE1 28.6 CE2 27.57 CZ 26.52
A ASP E 2 -107.7 130.4 N 28.99 CA 28.53 C 28.01 O 27.64 CB 29.69 CG 34.75 OD1 42.09 OD2 39.97
A LEU E 0 -139.3 138.0 N 26.23 CA 25.98 C 25.71 O 25.86 CB 25.25 CG 26.43 CD1 22.4 CD2 23.62
A PHE E 0 -89.5 146.2 N 24.57 CA 23.77 C 23.21 O 22.72 CB 23.84 CG 24.57 CD1 24.72 CD2 24.75 CE1 22.8 CE2 23.02 CZ 23.07
A ARG E 23 -139.3 140.1 N 23.58 CA 22.53 C 22.9 O 22.57 CB 22.61 CG 23.85 CD 22.69 NE 21.19 CZ 21.0 NH1 20.43 NH2 19.11
A PHE E 1 -134.7 159.8 N 21.95 CA 21.98 C 22.62 O 23.94 CB 21.5 CG 22.82 CD1 24.2 CD2 22.28 CE1 26.25 CE2 25.56 CZ 25.27
A SER E 7 -160.1 167.7 N 21.13 CA 21.9 C 20.81 O 20.76 CB 21.96 OG 23.64
A ASP S 4 -94.2 13.5 N 20.82 CA 20.78 C 20.26 O 21.33 CB 19.99 CG 23.97 OD1 23.08 OD2 22.6
A ALA H 7 -54.3 -32.5 N 19.96 CA 20.08 C 20.18 O 20.89 CB 20.16
A PRO H 11 -64.0 -31.3 N 20.83 CA 21.25 C 21.35 O 22.02 CB 21.43 CG 20.96 CD 20.1
A ILE H 18 -61.4 -48.8 N 20.96 CA 21.24 C 22.1 O 22.19 CB 21.21 CG1 21.0 CG2 20.52 CD1 19.12
A MET H 30 -64.6 -42.0 N 21.98 CA 22.75 C 22.9 O 23.65 CB 23.23 CG 24.23 SD 29.04 CE 26.28
A GLU H 84 -72.4 -42.0 N 22.64 CA 23.51 C 23.43 O 22.68 CB 23.83 CG 25.27 CD 26.08 OE1 26.68 OE2 25.91
A ALA H 79 -56.7 -35.6 N 22.47 CA 23.26 C 23.05 O 23.94 CB 22.08
A LEU T 105 -99.1 8.7 N 22.22 CA 21.84 C 22.49 O 22.78 CB 21.3 CG 22.11 CD1 19.87 CD2 22.07
A SER T 112 61.0 29.4 N 22.88 CA 22.96 C 22.96 O 22.1 CB 22.87 OG 25.89
A PHE - 135 -97.4 -4.4 N 22.25 CA 21.61 C 22.28 O 22.58 CB 20.31 CG 22.31 CD1 20.47 CD2 22.7 CE1 21.79 CE2 23.15 CZ 22.31
A MET - 48 -70.7 137.2 N 23.44 CA 24.3 C 25.2 O 25.48 CB 24.65 CG 26.84 SD 32.37 CE 28.31
A ARG - 188 -143.4 151.0 N 25.6 CA 26.03 C 25.74 O 25.07 CB 25.41 CG 29.1 CD 30.76 NE 34.75 CZ 34.66 NH1 31.74 NH2 35.41
A THR E 71 -139.5 132.1 N 25.78 CA 27.31 C 28.41 O 27.92 CB 27.2 OG1 31.1 CG2 28.14
A LYS E 112 -118.1 126.7 N 29.8 CA 32.08 C 32.94 O 32.54 CB 32.2 CG 37.83 CD 42.76 CE 45.89 NZ 49.77
A ILE E 26 -119.3 125.7 N 33.24 CA 35.19 C 37.05 O 36.68 CB 34.76 CG1 34.13 CG2 35.78 CD1 35.53
A GLU T 116 -59.8 135.4 N 38.67 CA 40.36 C 41.84 O 41.27 CB 40.2 CG 39.64 CD 38.28 OE1 38.34 OE2 33.56
A GLY T 89 78.3 18.8 N 44.5 CA 48.08 C 50.84 O 51.42
A GLN - 186 -172.6 360.0 N 52.59 CA 54.19 C 54.85 O 55.81 CB 54.74 CG 56.27 CD 59.11 OE1 59.14 NE2 58.42
