A ALA - 155 360.0 59.7 N 58.07 CA 57.02 C 56.29 O 57.51 CB 58.0
A VAL - 54 -79.9 161.1 N 53.37 CA 49.38 C 44.57 O 45.77 CB 52.08 CG1 53.56 CG2 53.68
A SER - 57 -127.5 159.6 N 36.25 CA 28.61 C 23.97 O 18.82 CB 27.66 OG 24.0
A GLU H 110 -59.1 -33.9 N 20.85 CA 19.05 C 18.56 O 13.7 CB 19.83 CG 26.28 CD 28.0 OE1 30.65 OE2 33.81
A SER H 92 -63.2 -46.5 N 17.95 CA 19.85 C 18.16 O 18.75 CB 20.12 OG 32.16
A GLN H 84 -65.1 -39.2 N 16.84 CA 20.07 C 17.38 O 18.6 CB 24.57 CG 33.66 CD 39.44 OE1 42.23 NE2 41.34
A LEU H 1 -64.0 -41.5 N 13.59 CA 11.63 C 13.7 O 11.95 CB 9.16 CG 10.2 CD1 12.39 CD2 12.73
A LYS H 101 -59.1 -35.6 N 12.78 CA 15.91 C 16.66 O 17.56 CB 16.68 CG 23.92 CD 30.94 CE 29.83 NZ 37.41
A LYS H 147 -61.5 -49.0 N 17.82 CA 22.93 C 20.03 O 21.05 CB 27.29 CG 32.88 CD 37.24 CE 40.01 NZ 42.84
A MET H 27 -57.9 -30.4 N 14.62 CA 13.02 C 12.2 O 11.04 CB 14.0 CG 18.27 SD 24.72 CE 28.15
A VAL T 0 -104.3 28.5 N 10.08 CA 9.26 C 7.87 O 7.3 CB 10.44 CG1 12.27 CG2 13.71
A SER T 86 -53.1 -32.7 N 10.74 CA 8.62 C 10.62 O 10.6 CB 16.4 OG 29.16
A LYS T 189 -91.8 -3.4 N 7.4 CA 7.49 C 5.86 O 7.38 CB 9.87 CG 17.53 CD 20.21 CE 26.69 NZ 26.03
A TYR - 6 -72.4 154.9 N 5.12 CA 5.04 C 4.66 O 5.67 CB 4.01 CG 4.64 CD1 5.35 CD2 6.68 CE1 7.08 CE2 5.36 CZ 6.65 OH 6.07
A LYS S 140 -84.7 -24.3 N 4.49 CA 5.71 C 5.72 O 6.6 CB 7.25 CG 22.39 CD 9.48 CE 17.68 NZ 11.44
A TYR S 79 -134.8 79.4 N 4.39 CA 4.17 C 5.14 O 6.93 CB 5.03 CG 4.7 CD1 6.5 CD2 5.27 CE1 6.28 CE2 4.62 CZ 6.96 OH 9.46
A ARG H 124 -67.8 -57.9 N 6.31 CA 5.84 C 6.99 O 5.95 CB 5.67 CG 6.54 CD 6.69 NE 6.39 CZ 6.51 NH1 7.68 NH2 7.64
A ASP H 101 -61.1 -38.2 N 6.37 CA 6.51 C 7.15 O 8.06 CB 5.71 CG 10.59 OD1 16.48 OD2 12.12
A LEU H 59 -64.3 -37.8 N 5.55 CA 7.14 C 6.12 O 7.91 CB 7.94 CG 7.06 CD1 6.16 CD2 11.17
A THR H 0 -70.0 -44.1 N 5.55 CA 7.45 C 7.41 O 6.87 CB 5.91 OG1 6.56 CG2 7.26
A VAL H 2 -63.6 -46.0 N 6.58 CA 6.75 C 5.39 O 7.01 CB 7.14 CG1 8.7 CG2 8.76
A ARG H 145 -56.2 -48.8 N 7.06 CA 7.95 C 7.69 O 8.54 CB 10.38 CG 22.11 CD 34.19 NE 43.43 CZ 48.46 NH1 51.59 NH2 51.2
A GLU H 16 -68.5 -35.9 N 7.02 CA 7.02 C 6.79 O 6.15 CB 8.35 CG 9.11 CD 12.64 OE1 11.57 OE2 9.95
A THR H 0 -61.3 -43.9 N 5.31 CA 7.53 C 6.88 O 7.15 CB 7.47 OG1 7.66 CG2 8.34
A VAL H 30 -60.4 -42.9 N 7.64 CA 10.3 C 9.15 O 10.25 CB 8.77 CG1 10.35 CG2 10.63
A ASN H 67 -60.6 -41.5 N 8.71 CA 9.4 C 7.53 O 11.07 CB 10.86 CG 11.86 OD1 14.6 ND2 12.03
A VAL H 0 -66.8 -53.3 N 7.54 CA 9.03 C 10.18 O 11.17 CB 7.15 CG1 7.77 CG2 10.29
A ILE H 29 -69.5 -11.6 N 10.03 CA 10.52 C 12.42 O 15.71 CB 12.09 CG1 13.26 CG2 12.41 CD1 19.37
A THR H 81 -83.7 -39.2 N 11.96 CA 15.12 C 14.22 O 17.64 CB 13.26 OG1 15.95 CG2 15.44
A LEU H 105 -84.0 -37.6 N 11.96 CA 11.56 C 11.09 O 12.89 CB 11.91 CG 12.5 CD1 16.23 CD2 15.35
A TYR - 29 -110.4 87.5 N 11.05 CA 10.13 C 11.79 O 10.98 CB 9.44 CG 10.28 CD1 9.63 CD2 10.64 CE1 10.08 CE2 10.68 CZ 9.07 OH 11.9
A LYS T 157 -56.7 -20.9 N 12.72 CA 16.05 C 15.9 O 18.61 CB 23.21 CG 28.36 CD 31.79 CE 32.79 NZ 36.37
A ASP T 41 -100.5 17.0 N 10.67 CA 11.33 C 10.82 O 11.95 CB 12.58 CG 19.74 OD1 20.7 OD2 22.16
A LEU E 2 -108.9 126.9 N 9.33 CA 10.24 C 10.38 O 12.55 CB 7.79 CG 7.8 CD1 9.99 CD2 7.12
A LYS E 105 -119.7 139.1 N 9.01 CA 10.89 C 10.93 O 10.76 CB 13.87 CG 23.71 CD 29.78 CE 33.21 NZ 37.77
A PRO E 12 -84.0 133.5 N 8.49 CA 9.06 C 10.02 O 12.01 CB 9.34 CG 14.95 CD 9.92
A VAL E 66 -144.2 142.4 N 11.67 CA 15.85 C 14.26 O 11.1 CB 17.63 CG1 22.42 CG2 22.66
A LEU E 60 -96.8 114.5 N 12.81 CA 10.96 C 13.84 O 16.29 CB 15.2 CG 16.05 CD1 16.81 CD2 19.63
A ASP E 77 -141.5 169.6 N 12.04 CA 11.91 C 11.51 O 13.64 CB 15.81 CG 22.0 OD1 24.17 OD2 31.09
A SER E 45 -92.6 132.9 N 13.42 CA 12.47 C 9.92 O 12.18 CB 15.16 OG 22.4
A TYR S 80 -109.8 111.6 N 9.14 CA 10.29 C 9.35 O 10.89 CB 10.38 CG 9.58 CD1 11.67 CD2 11.89 CE1 11.51 CE2 15.38 CZ 13.19 OH 18.04
A GLY S 82 78.0 -46.1 N 15.02 CA 13.97 C 14.69 O 15.54
A THR S 83 -131.0 141.3 N 13.66 CA 14.62 C 15.55 O 13.97 CB 13.76 OG1 11.58 CG2 15.73
A GLY T 57 -54.3 -28.3 N 12.46 CA 13.02 C 13.43 O 15.86
A SER T 105 -86.1 -12.5 N 12.88 CA 12.71 C 10.96 O 15.69 CB 13.63 OG 18.62
A ARG - 102 -89.8 71.5 N 7.8 CA 7.31 C 8.15 O 10.44 CB 7.24 CG 5.52 CD 5.57 NE 6.21 CZ 5.13 NH1 6.61 NH2 5.27
A GLU E 117 -78.7 130.3 N 6.82 CA 9.01 C 8.47 O 8.98 CB 13.48 CG 20.67 CD 27.07 OE1 33.34 OE2 32.79
A LEU E 1 -145.6 154.4 N 7.36 CA 5.93 C 6.99 O 7.63 CB 6.59 CG 5.26 CD1 8.33 CD2 7.91
A MET E 0 -88.0 141.2 N 6.39 CA 8.0 C 6.9 O 7.27 CB 9.35 CG 9.5 SD 14.2 CE 17.17
A ASN E 5 -136.5 156.9 N 6.94 CA 8.17 C 9.07 O 11.61 CB 13.53 CG 14.02 OD1 15.11 ND2 17.51
A LEU E 0 -108.5 114.5 N 7.22 CA 7.09 C 8.35 O 8.36 CB 7.79 CG 15.02 CD1 15.14 CD2 16.86
A THR E 55 -119.8 145.9 N 8.54 CA 7.0 C 6.49 O 8.56 CB 11.64 OG1 17.09 CG2 14.64
A GLY E 17 148.1 -145.0 N 7.72 CA 7.66 C 8.09 O 11.72
A THR E 4 -130.2 159.4 N 8.7 CA 7.85 C 8.2 O 8.59 CB 10.43 OG1 12.75 CG2 10.04
A ILE E 0 -125.5 143.6 N 8.13 CA 10.06 C 9.59 O 9.61 CB 9.2 CG1 8.74 CG2 11.01 CD1 9.6
A PRO E 56 -75.1 114.7 N 10.68 CA 11.34 C 8.87 O 11.72 CB 15.24 CG 14.83 CD 11.86
A VAL E 3 -122.1 110.4 N 10.52 CA 12.12 C 14.05 O 12.17 CB 11.43 CG1 12.82 CG2 11.87
A PRO E 65 -73.3 128.0 N 17.27 CA 19.76 C 20.55 O 20.16 CB 20.76 CG 23.7 CD 21.04
A TYR - 34 -132.2 106.4 N 18.77 CA 22.18 C 22.82 O 23.38 CB 20.25 CG 20.18 CD1 17.91 CD2 21.2 CE1 19.62 CE2 24.32 CZ 22.93 OH 29.01
A ARG S 205 57.1 54.5 N 26.2 CA 30.04 C 31.8 O 33.44 CB 30.47 CG 33.11 CD 35.15 NE 37.62 CZ 37.58 NH1 39.95 NH2 36.69
A GLY S 78 67.3 25.5 N 34.05 CA 35.7 C 35.28 O 37.22
A ASN - 91 -146.5 134.9 N 32.08 CA 30.04 C 27.88 O 26.47 CB 33.81 CG 36.94 OD1 36.72 ND2 36.96
A THR E 90 -94.7 129.0 N 25.45 CA 21.47 C 18.96 O 20.3 CB 20.96 OG1 26.79 CG2 20.72
A TYR E 49 -117.6 144.5 N 16.69 CA 13.27 C 12.09 O 13.63 CB 14.83 CG 14.71 CD1 17.94 CD2 17.6 CE1 16.6 CE2 18.09 CZ 15.73 OH 22.31
A ASN E 41 -95.4 88.8 N 13.37 CA 11.43 C 11.1 O 12.25 CB 12.78 CG 12.85 OD1 13.72 ND2 20.3
A ILE E 3 -73.1 122.1 N 9.09 CA 9.54 C 8.79 O 8.43 CB 8.92 CG1 11.15 CG2 12.73 CD1 10.51
A PRO E 7 -77.6 124.0 N 8.44 CA 7.34 C 7.99 O 8.31 CB 9.25 CG 11.36 CD 11.6
A ILE E 1 -136.3 169.1 N 7.77 CA 7.0 C 6.93 O 6.61 CB 7.57 CG1 8.9 CG2 10.03 CD1 9.1
A CYS E 5 -144.8 124.4 N 6.94 CA 6.93 C 6.82 O 9.56 CB 10.49 SG 14.47
A LEU E 0 -115.2 109.1 N 5.07 CA 4.35 C 5.16 O 7.08 CB 6.39 CG 6.25 CD1 11.0 CD2 11.9
A TRP E 19 -85.5 123.6 N 4.52 CA 4.27 C 4.75 O 5.79 CB 5.32 CG 7.17 CD1 8.72 CD2 7.54 NE1 11.83 CE2 9.01 CE3 8.84 CZ2 11.01 CZ3 9.18 CH2 8.16
A LEU - 0 -95.5 117.3 N 4.23 CA 4.01 C 4.85 O 5.15 CB 5.36 CG 4.6 CD1 7.89 CD2 6.4
A LEU - 33 -71.7 161.6 N 4.14 CA 4.98 C 4.73 O 4.06 CB 5.57 CG 5.99 CD1 9.72 CD2 9.72
A ASP T 45 -66.4 -1.1 N 5.09 CA 4.03 C 4.73 O 6.5 CB 4.64 CG 5.81 OD1 8.4 OD2 5.82
A THR T 34 -108.6 7.1 N 4.66 CA 5.81 C 4.53 O 5.87 CB 5.89 OG1 6.93 CG2 7.97
A TYR T 2 -64.5 142.0 N 4.63 CA 4.38 C 5.52 O 5.87 CB 4.57 CG 5.63 CD1 5.59 CD2 6.44 CE1 5.88 CE2 6.18 CZ 6.38 OH 7.95
A PRO T 5 -91.0 10.1 N 4.87 CA 5.67 C 5.43 O 6.53 CB 6.47 CG 7.07 CD 5.38
A TYR T 106 -77.4 -20.3 N 5.53 CA 5.37 C 6.03 O 8.83 CB 6.96 CG 7.09 CD1 8.4 CD2 7.33 CE1 10.17 CE2 8.76 CZ 8.09 OH 13.24
A ASN S 75 -123.7 146.0 N 5.78 CA 5.75 C 6.55 O 6.05 CB 6.79 CG 11.53 OD1 17.59 ND2 11.98
A PRO - 35 -70.6 157.1 N 6.26 CA 6.06 C 5.23 O 5.3 CB 6.04 CG 5.24 CD 5.61
A PRO - 4 -75.6 162.5 N 4.01 CA 3.84 C 4.17 O 5.96 CB 6.33 CG 6.36 CD 5.08
A ILE E 51 -102.5 120.6 N 4.76 CA 5.11 C 6.01 O 6.01 CB 6.57 CG1 10.54 CG2 7.7 CD1 21.09
A CYS E 2 -114.7 141.0 N 5.39 CA 4.66 C 3.58 O 4.89 CB 6.23 SG 6.58
A PHE E 30 -134.9 151.4 N 4.8 CA 5.28 C 6.24 O 6.96 CB 7.0 CG 6.48 CD1 8.97 CD2 7.59 CE1 8.98 CE2 9.33 CZ 9.12
A VAL E 2 -95.8 135.3 N 7.71 CA 8.15 C 8.37 O 10.92 CB 9.21 CG1 17.01 CG2 17.87
A LYS - 113 -115.6 85.3 N 8.8 CA 8.97 C 9.11 O 11.65 CB 11.8 CG 13.74 CD 18.44 CE 21.64 NZ 26.13
A PRO - 52 -61.2 143.8 N 10.89 CA 10.79 C 11.0 O 11.79 CB 14.2 CG 13.28 CD 12.28
A THR - 48 -91.7 -174.7 N 12.21 CA 15.07 C 16.38 O 17.99 CB 14.71 OG1 17.36 CG2 18.59
A SER T 110 -69.0 -14.1 N 17.43 CA 19.1 C 18.75 O 24.58 CB 17.33 OG 22.36
A SER T 59 -97.8 6.5 N 18.95 CA 19.34 C 19.95 O 20.59 CB 21.91 OG 23.14
A MET E 1 -141.7 170.4 N 18.26 CA 17.18 C 14.67 O 16.11 CB 22.17 CG 20.23 SD 15.23 CE 18.06
A THR E 56 -134.1 146.7 N 14.22 CA 15.71 C 13.38 O 14.31 CB 20.46 OG1 26.52 CG2 19.15
A ILE E 48 -69.7 132.3 N 12.36 CA 9.1 C 10.29 O 12.58 CB 7.64 CG1 13.02 CG2 11.05 CD1 12.91
A LYS - 120 -98.4 92.7 N 9.54 CA 9.92 C 10.42 O 12.5 CB 13.32 CG 16.24 CD 14.94 CE 20.05 NZ 24.75
A THR - 84 -63.6 132.7 N 8.86 CA 8.38 C 7.3 O 7.81 CB 6.61 OG1 9.55 CG2 8.56
A GLY B 46 -169.7 -153.7 N 5.56 CA 6.98 C 5.39 O 6.74
A LYS T 167 -51.7 -47.7 N 7.2 CA 8.79 C 7.48 O 8.5 CB 8.39 CG 10.91 CD 14.54 CE 22.71 NZ 22.39
A HIS T 34 -106.8 9.7 N 6.41 CA 5.45 C 6.15 O 6.33 CB 5.86 CG 8.68 ND1 11.57 CD2 10.94 CE1 10.93 NE2 11.48
A VAL B 6 -146.9 129.9 N 5.22 CA 6.89 C 4.47 O 6.39 CB 7.47 CG1 10.4 CG2 11.2
A ASP - 33 -95.1 -176.9 N 5.04 CA 6.13 C 6.51 O 6.23 CB 5.41 CG 6.02 OD1 5.15 OD2 6.36
A ALA T 73 -54.2 -32.5 N 7.29 CA 9.37 C 7.63 O 9.43 CB 9.46
A ASN T 126 -88.3 1.2 N 5.9 CA 6.02 C 5.94 O 7.89 CB 7.08 CG 8.29 OD1 9.88 ND2 10.27
A GLY - 0 86.3 7.1 N 6.01 CA 5.98 C 4.88 O 6.22
A LYS B 79 -71.9 135.1 N 4.61 CA 4.97 C 3.88 O 4.97 CB 6.76 CG 9.26 CD 13.17 CE 19.33 NZ 24.52
A ILE B 8 -91.1 136.2 N 4.0 CA 5.15 C 6.49 O 5.05 CB 5.34 CG1 6.48 CG2 5.25 CD1 7.54
A TYR - 106 -122.5 124.1 N 4.03 CA 4.97 C 4.77 O 6.12 CB 8.34 CG 6.49 CD1 6.03 CD2 7.86 CE1 6.92 CE2 7.07 CZ 6.89 OH 7.8
A LEU - 7 -146.6 145.0 N 5.56 CA 5.5 C 5.96 O 5.22 CB 6.26 CG 5.59 CD1 6.82 CD2 9.09
A PRO H 87 -54.6 -36.9 N 6.07 CA 5.59 C 6.18 O 6.46 CB 6.67 CG 8.61 CD 7.38
A TYR H 50 -58.1 -37.8 N 4.94 CA 4.81 C 5.07 O 6.85 CB 5.23 CG 3.34 CD1 5.13 CD2 5.41 CE1 4.8 CE2 4.01 CZ 4.21 OH 6.18
A LEU H 18 -77.9 -44.0 N 5.23 CA 6.09 C 5.87 O 6.74 CB 5.97 CG 5.11 CD1 7.18 CD2 6.22
A HIS H 174 -58.7 -38.0 N 5.19 CA 5.55 C 7.26 O 8.47 CB 7.21 CG 9.63 ND1 12.66 CD2 13.11 CE1 11.74 NE2 13.3
A GLU T 144 -106.4 12.4 N 5.91 CA 5.79 C 6.06 O 6.36 CB 6.96 CG 7.99 CD 8.56 OE1 9.28 OE2 7.55
A TRP - 18 -41.4 131.7 N 5.77 CA 5.87 C 5.91 O 7.7 CB 5.36 CG 4.45 CD1 6.4 CD2 4.57 NE1 5.77 CE2 4.6 CE3 4.62 CZ2 5.29 CZ3 5.51 CH2 5.29
A LYS - 124 -157.7 134.3 N 6.84 CA 8.59 C 8.12 O 8.74 CB 12.74 CG 12.76 CD 17.39 CE 15.16 NZ 23.64
A HIS T 63 -79.4 141.9 N 7.98 CA 8.03 C 9.31 O 10.12 CB 8.22 CG 7.78 ND1 7.33 CD2 11.95 CE1 8.13 NE2 11.35
A PRO T 85 -94.5 0.8 N 7.16 CA 6.56 C 6.44 O 7.55 CB 8.85 CG 10.69 CD 9.92
A GLN T 124 -62.1 -34.7 N 5.78 CA 5.28 C 6.24 O 6.02 CB 6.03 CG 5.83 CD 7.67 OE1 10.65 NE2 9.17
A SER - 9 -100.0 135.4 N 5.9 CA 5.32 C 4.71 O 6.05 CB 5.04 OG 5.41
A ASP - 57 -148.5 171.5 N 4.62 CA 5.0 C 4.42 O 5.29 CB 5.99 CG 8.36 OD1 9.54 OD2 12.76
A LEU H 0 -65.3 -37.5 N 5.1 CA 4.6 C 5.19 O 6.13 CB 7.95 CG 5.28 CD1 8.65 CD2 10.15
A LEU H 54 -62.3 -42.2 N 5.51 CA 6.63 C 5.1 O 6.37 CB 7.25 CG 8.39 CD1 12.63 CD2 14.06
A GLY H 10 -64.5 -41.5 N 5.76 CA 6.04 C 4.36 O 5.46
A LEU H 0 -60.3 -47.9 N 4.41 CA 5.96 C 4.73 O 5.5 CB 5.09 CG 4.09 CD1 6.87 CD2 5.92
A ILE H 0 -65.6 -34.0 N 4.36 CA 5.61 C 6.38 O 7.09 CB 6.14 CG1 7.24 CG2 7.12 CD1 8.32
A GLN H 132 -62.2 -42.7 N 7.63 CA 10.39 C 8.44 O 9.2 CB 12.0 CG 19.57 CD 25.82 OE1 33.29 NE2 30.6
A VAL H 39 -63.0 -46.1 N 5.86 CA 7.55 C 7.84 O 7.2 CB 6.91 CG1 6.53 CG2 9.2
A MET H 0 -56.8 -41.5 N 6.4 CA 6.2 C 8.04 O 8.3 CB 7.74 CG 6.05 SD 9.8 CE 9.75
A ILE H 34 -61.9 -40.8 N 7.8 CA 9.09 C 7.54 O 10.12 CB 10.18 CG1 11.17 CG2 9.56 CD1 11.01
A VAL H 102 -71.4 -50.9 N 8.02 CA 11.21 C 11.71 O 11.49 CB 8.99 CG1 10.71 CG2 14.58
A VAL H 31 -62.9 -46.1 N 8.47 CA 9.56 C 9.41 O 11.89 CB 10.05 CG1 11.6 CG2 12.27
A PHE H 3 -72.6 -23.5 N 9.43 CA 9.23 C 8.85 O 9.76 CB 10.04 CG 10.46 CD1 12.37 CD2 10.9 CE1 12.43 CE2 8.79 CZ 11.16
A GLY H 18 -71.7 -26.4 N 9.99 CA 12.01 C 13.83 O 16.88
A ASP H 120 -88.0 -40.1 N 12.38 CA 11.82 C 12.4 O 13.93 CB 14.41 CG 13.51 OD1 16.18 OD2 14.99
A GLU S 93 -138.4 94.3 N 10.95 CA 12.75 C 14.37 O 13.72 CB 17.13 CG 23.45 CD 28.14 OE1 32.35 OE2 31.75
A PRO - 11 -55.9 136.4 N 12.17 CA 10.81 C 11.03 O 12.44 CB 13.43 CG 13.21 CD 14.88
A PRO S 2 -83.9 -8.4 N 10.38 CA 10.13 C 11.35 O 10.02 CB 9.81 CG 10.96 CD 11.38
A VAL E 0 -146.3 152.1 N 11.71 CA 13.16 C 12.32 O 14.08 CB 14.35 CG1 16.11 CG2 14.29
A PHE E 22 -138.1 150.8 N 13.68 CA 15.58 C 20.45 O 17.48 CB 16.15 CG 17.96 CD1 20.28 CD2 16.61 CE1 20.99 CE2 19.02 CZ 19.89
A SER E 30 -71.0 151.7 N 23.68 CA 29.31 C 33.0 O 33.76 CB 28.04 OG 34.32
A ARG - 140 -69.5 120.6 N 39.07 CA 45.68 C 49.14 O 50.49 CB 47.85 CG 51.53 CD 55.32 NE 58.25 CZ 58.94 NH1 59.42 NH2 59.36
A PRO - 169 -68.1 360.0 N 51.19 CA 52.95 C 53.86 O 54.58 CB 52.93 CG 52.32 CD 52.15 OXT 54.28
B PRO - 136 360.0 22.7 N 36.29 CA 32.87 C 30.09 O 31.62 CB 33.71 CG 36.44 CD 36.77
B THR - 106 -110.1 132.0 N 27.55 CA 25.04 C 20.49 O 19.03 CB 27.84 OG1 32.41 CG2 29.86
B PRO - 50 -55.1 133.8 N 15.49 CA 15.5 C 16.57 O 18.59 CB 17.41 CG 16.9 CD 18.9
B SER - 34 -142.4 156.6 N 16.82 CA 17.12 C 17.12 O 16.3 CB 15.6 OG 15.83
B ALA - 6 -144.3 149.5 N 16.52 CA 18.34 C 18.25 O 19.35 CB 16.28
B PRO - 3 -68.2 157.6 N 17.95 CA 17.73 C 19.16 O 17.93 CB 18.36 CG 19.45 CD 16.26
B VAL - 109 -74.0 149.1 N 22.78 CA 26.7 C 27.5 O 27.46 CB 27.99 CG1 29.87 CG2 31.56
B PRO - 50 -67.8 156.6 N 28.15 CA 31.2 C 31.86 O 31.86 CB 31.19 CG 31.25 CD 30.97
B LEU - 209 -79.7 360.0 N 32.67 CA 33.48 C 35.7 O 33.72 CB 33.95 CG 33.06 CD1 32.04 CD2 32.22 OXT 42.12
