A TYR - 105 360.0 -61.8 N 28.8 CA 31.62 C 31.83 O 30.93 CB 31.56 CG 28.52 CD1 29.35 CD2 31.12 CE1 29.31 CE2 28.76 CZ 29.44 OH 27.51
A GLU H 164 -61.6 -32.1 N 33.16 CA 33.62 C 30.64 O 30.59 CB 37.8 CG 41.89 CD 56.15 OE1 59.39 OE2 59.31
A TRP H 81 -65.6 -45.5 N 30.64 CA 31.41 C 29.94 O 28.51 CB 33.09 CG 34.19 CD1 36.44 CD2 34.45 NE1 39.26 CE2 38.42 CE3 35.34 CZ2 38.89 CZ3 34.67 CH2 37.73
A LEU H 9 -62.0 -40.2 N 28.54 CA 27.79 C 28.17 O 28.41 CB 26.29 CG 26.79 CD1 25.36 CD2 29.48
A ASN H 36 -68.7 -21.7 N 27.27 CA 26.58 C 26.44 O 26.96 CB 27.19 CG 24.06 OD1 23.37 ND2 26.25
A ALA H 56 -81.6 -26.5 N 27.07 CA 26.29 C 26.66 O 25.45 CB 27.23
A LEU S 15 -51.3 132.0 N 25.38 CA 25.46 C 24.72 O 23.98 CB 27.48 CG 30.9 CD1 34.69 CD2 31.32
A PRO - 71 -66.3 133.2 N 25.16 CA 24.44 C 24.54 O 22.15 CB 22.62 CG 22.21 CD 23.71
A LYS E 1 -140.5 161.1 N 22.89 CA 22.91 C 23.52 O 22.95 CB 21.23 CG 22.15 CD 21.48 CE 23.14 NZ 22.64
A ALA E 0 -117.6 128.2 N 21.22 CA 21.54 C 21.86 O 20.56 CB 21.3
A GLU E 2 -96.0 126.3 N 20.12 CA 19.52 C 19.19 O 20.54 CB 18.26 CG 19.18 CD 20.77 OE1 21.01 OE2 20.26
A LEU - 0 -122.6 -8.9 N 19.14 CA 19.47 C 19.04 O 18.74 CB 18.42 CG 19.39 CD1 20.31 CD2 19.3
A HIS S 0 -132.7 87.5 N 17.48 CA 18.92 C 19.29 O 19.33 CB 18.5 CG 19.73 ND1 19.95 CD2 19.81 CE1 18.54 NE2 19.91
A LEU B 1 -146.7 135.1 N 17.62 CA 18.32 C 16.04 O 16.83 CB 19.27 CG 17.74 CD1 16.66 CD2 15.75
A HIS B 6 -99.9 119.3 N 15.57 CA 16.29 C 16.8 O 16.65 CB 16.48 CG 17.07 ND1 17.92 CD2 17.74 CE1 17.93 NE2 19.01
A LEU G 1 -54.5 -43.8 N 16.76 CA 15.12 C 16.44 O 16.15 CB 14.41 CG 14.65 CD1 12.56 CD2 12.52
A GLU G 7 -60.1 -26.8 N 15.8 CA 16.76 C 17.25 O 17.76 CB 17.37 CG 16.24 CD 16.89 OE1 16.87 OE2 14.02
A GLY G 0 -86.4 10.9 N 17.63 CA 17.66 C 18.32 O 18.24
A THR G 6 -105.6 8.4 N 16.23 CA 17.46 C 16.65 O 16.63 CB 16.52 OG1 16.28 CG2 16.59
A LEU - 1 -73.0 91.6 N 17.59 CA 16.98 C 17.78 O 18.52 CB 16.78 CG 16.78 CD1 15.73 CD2 14.76
A GLU - 52 -63.4 141.6 N 18.44 CA 19.27 C 19.22 O 18.01 CB 18.35 CG 16.33 CD 18.71 OE1 19.76 OE2 19.55
A PRO H 0 -44.6 -45.9 N 20.53 CA 20.21 C 19.47 O 18.78 CB 21.2 CG 21.51 CD 19.77
A GLU H 98 -59.4 -47.8 N 19.85 CA 19.37 C 17.41 O 18.43 CB 18.06 CG 21.58 CD 22.61 OE1 22.68 OE2 22.34
A LEU H 37 -61.6 -42.9 N 17.6 CA 16.94 C 16.99 O 17.2 CB 16.46 CG 16.72 CD1 14.58 CD2 15.47
A LEU H 1 -53.8 -47.5 N 16.4 CA 17.1 C 17.22 O 16.32 CB 16.19 CG 15.6 CD1 18.55 CD2 18.76
A PHE H 46 -65.8 -35.6 N 16.12 CA 16.9 C 17.81 O 16.83 CB 18.38 CG 19.47 CD1 20.58 CD2 20.96 CE1 24.19 CE2 23.67 CZ 26.35
A ALA H 49 -70.6 -41.9 N 16.61 CA 17.19 C 16.88 O 16.45 CB 15.35
A LEU H 2 -64.8 -44.9 N 15.69 CA 16.56 C 17.02 O 16.81 CB 16.64 CG 16.74 CD1 14.08 CD2 15.99
A ALA H 2 -53.3 -46.5 N 16.76 CA 16.92 C 17.35 O 19.14 CB 15.6
A GLU H 160 -59.3 -52.9 N 18.77 CA 19.25 C 18.43 O 19.41 CB 20.72 CG 22.94 CD 31.88 OE1 33.89 OE2 38.04
A ARG H 110 -57.5 -34.7 N 18.6 CA 18.39 C 17.81 O 17.03 CB 16.25 CG 17.97 CD 19.64 NE 22.08 CZ 18.2 NH1 17.33 NH2 16.08
A ASN T 19 -93.8 3.3 N 16.74 CA 17.53 C 17.99 O 16.8 CB 16.84 CG 16.61 OD1 16.37 ND2 16.59
A ARG T 213 58.6 44.2 N 17.02 CA 18.35 C 18.41 O 17.29 CB 17.1 CG 16.98 CD 19.32 NE 19.27 CZ 20.76 NH1 20.85 NH2 18.32
A ILE - 25 -102.6 127.3 N 17.39 CA 18.0 C 19.56 O 19.69 CB 18.77 CG1 16.99 CG2 16.29 CD1 15.77
A ALA - 101 -82.9 115.3 N 19.05 CA 20.48 C 22.58 O 24.28 CB 20.49
A LEU - 39 -83.5 148.8 N 23.72 CA 23.85 C 26.19 O 25.25 CB 22.6 CG 22.48 CD1 21.28 CD2 19.74
A PRO S 108 -65.5 -26.4 N 26.75 CA 26.04 C 30.08 O 32.81 CB 28.73 CG 30.0 CD 27.47
A TRP S 46 -87.4 128.8 N 29.12 CA 29.72 C 29.38 O 30.56 CB 30.0 CG 29.05 CD1 29.33 CD2 29.55 NE1 30.49 CE2 31.15 CE3 28.51 CZ2 31.75 CZ3 28.74 CH2 29.24
A ASN S 140 -62.2 -46.4 N 30.4 CA 31.18 C 31.13 O 31.31 CB 33.27 CG 36.94 OD1 38.38 ND2 37.75
A ASP S 61 -151.7 169.6 N 32.68 CA 31.1 C 30.85 O 31.82 CB 33.65 CG 35.66 OD1 32.62 OD2 35.68
A VAL H 34 -52.9 -45.5 N 29.44 CA 29.41 C 30.2 O 30.43 CB 26.6 CG1 25.87 CG2 24.45
A GLU H 108 -53.8 -42.5 N 31.24 CA 34.52 C 33.86 O 34.29 CB 36.46 CG 38.44 CD 44.18 OE1 42.52 OE2 45.04
A THR H 42 -69.1 -43.4 N 32.46 CA 33.51 C 32.48 O 32.96 CB 31.59 OG1 31.65 CG2 29.68
A LEU H 0 -59.1 -42.2 N 30.33 CA 29.32 C 31.2 O 29.53 CB 28.26 CG 26.49 CD1 28.37 CD2 24.33
A ARG H 103 -64.5 -33.0 N 31.88 CA 31.75 C 32.57 O 31.94 CB 29.76 CG 31.25 CD 31.84 NE 30.74 CZ 27.88 NH1 27.84 NH2 25.99
A LYS H 129 -69.0 -26.3 N 34.19 CA 32.57 C 31.56 O 31.72 CB 31.51 CG 34.41 CD 35.14 CE 32.64 NZ 32.68
A ALA T 39 -68.5 -5.2 N 30.56 CA 28.68 C 29.24 O 29.97 CB 25.56
A TYR - 17 -84.3 59.1 N 29.17 CA 30.78 C 30.9 O 30.56 CB 29.5 CG 27.91 CD1 28.64 CD2 27.98 CE1 28.32 CE2 26.67 CZ 25.87 OH 27.21
A ALA - 69 -128.0 122.1 N 29.77 CA 30.2 C 28.04 O 27.7 CB 30.0
A PHE - 14 -129.1 145.7 N 29.33 CA 29.56 C 31.01 O 31.01 CB 28.7 CG 27.85 CD1 26.43 CD2 27.37 CE1 26.48 CE2 27.1 CZ 27.15
A ASN S 114 -111.3 -10.8 N 31.39 CA 32.06 C 31.43 O 30.71 CB 35.07 CG 36.98 OD1 37.87 ND2 39.58
A ASN S 58 -168.4 -179.3 N 29.96 CA 29.33 C 27.46 O 27.22 CB 27.34 CG 27.86 OD1 29.77 ND2 28.96
A LEU H 7 -60.7 -40.5 N 25.64 CA 25.06 C 25.94 O 25.22 CB 23.54 CG 23.06 CD1 23.17 CD2 21.64
A GLN H 71 -66.6 -46.3 N 25.89 CA 25.34 C 25.6 O 24.07 CB 26.17 CG 26.64 CD 26.42 OE1 25.8 NE2 24.8
A GLU H 83 -55.2 -42.0 N 24.77 CA 26.73 C 24.16 O 23.73 CB 28.29 CG 31.52 CD 35.09 OE1 34.37 OE2 38.15
A PHE H 6 -63.9 -47.3 N 25.69 CA 23.68 C 22.82 O 21.27 CB 23.38 CG 23.53 CD1 21.6 CD2 21.33 CE1 20.59 CE2 20.81 CZ 20.18
A LEU H 6 -56.0 -46.7 N 22.3 CA 22.2 C 23.09 O 21.74 CB 22.03 CG 21.68 CD1 21.69 CD2 20.04
A ASP H 100 -54.9 -44.2 N 23.09 CA 22.69 C 22.23 O 21.13 CB 23.83 CG 26.48 OD1 26.75 OD2 30.74
A LEU H 22 -71.4 -48.0 N 21.19 CA 22.6 C 22.73 O 23.04 CB 23.59 CG 27.16 CD1 28.07 CD2 28.3
A TYR H 8 -51.0 -43.1 N 20.74 CA 21.14 C 20.79 O 20.47 CB 20.74 CG 18.81 CD1 18.87 CD2 18.79 CE1 19.65 CE2 17.91 CZ 19.42 OH 17.95
A TYR H 47 -72.5 -35.5 N 21.18 CA 20.13 C 18.85 O 17.6 CB 19.69 CG 19.95 CD1 18.76 CD2 18.77 CE1 17.72 CE2 21.32 CZ 20.28 OH 17.76
A ALA H 47 -58.6 -42.9 N 18.8 CA 19.82 C 18.35 O 18.9 CB 21.62
A GLY H 1 -60.3 -29.3 N 19.27 CA 19.38 C 17.93 O 18.41
A ALA G 4 -67.2 -11.0 N 18.43 CA 17.32 C 19.55 O 18.88 CB 17.36
A ASP G 63 -53.1 -38.8 N 18.74 CA 18.01 C 17.94 O 19.08 CB 16.08 CG 18.08 OD1 18.89 OD2 19.34
A VAL G 2 -72.9 -12.7 N 15.49 CA 15.95 C 16.54 O 15.91 CB 15.26 CG1 14.83 CG2 15.74
A LEU - 1 -82.0 100.8 N 16.93 CA 15.75 C 16.13 O 15.99 CB 15.65 CG 16.2 CD1 15.28 CD2 15.16
A ARG - 103 -125.8 -37.3 N 16.54 CA 16.47 C 16.07 O 17.75 CB 15.29 CG 16.7 CD 16.91 NE 19.22 CZ 18.26 NH1 16.23 NH2 17.28
A THR S 54 -113.5 166.4 N 16.07 CA 15.66 C 15.82 O 16.08 CB 16.42 OG1 16.01 CG2 16.59
A GLU H 99 -55.8 -44.4 N 16.65 CA 15.74 C 15.96 O 16.16 CB 16.11 CG 17.13 CD 18.91 OE1 18.08 OE2 18.16
A GLN H 98 -60.2 -35.5 N 16.08 CA 15.6 C 15.61 O 15.59 CB 14.5 CG 17.41 CD 21.21 OE1 22.19 NE2 20.63
A ASP H 0 -56.3 -52.8 N 14.11 CA 14.79 C 15.4 O 14.61 CB 15.15 CG 15.38 OD1 14.63 OD2 17.02
A PHE H 2 -66.9 -29.8 N 14.32 CA 15.37 C 15.87 O 15.7 CB 15.48 CG 15.45 CD1 15.91 CD2 15.37 CE1 15.85 CE2 15.87 CZ 15.24
A TYR H 38 -67.8 -45.7 N 14.61 CA 15.37 C 15.09 O 16.1 CB 16.37 CG 15.99 CD1 16.89 CD2 16.7 CE1 17.54 CE2 17.26 CZ 17.09 OH 17.27
A ASP H 35 -61.8 -43.1 N 14.63 CA 15.5 C 14.41 O 14.39 CB 15.12 CG 17.35 OD1 16.76 OD2 16.62
A LEU H 2 -56.3 -51.1 N 14.57 CA 15.74 C 15.9 O 16.89 CB 17.67 CG 17.57 CD1 15.02 CD2 16.27
A THR H 1 -75.0 -39.3 N 14.84 CA 15.04 C 14.25 O 14.16 CB 14.2 OG1 13.98 CG2 13.01
A TRP H 52 -64.9 -40.2 N 14.72 CA 16.01 C 16.61 O 17.02 CB 15.94 CG 17.44 CD1 17.52 CD2 17.56 NE1 18.5 CE2 18.8 CE3 16.12 CZ2 17.9 CZ3 16.75 CH2 19.07
A ALA H 46 -57.7 -41.1 N 15.19 CA 16.19 C 15.87 O 16.33 CB 14.1
A TYR H 3 -69.0 -46.2 N 15.14 CA 16.14 C 16.54 O 16.81 CB 16.98 CG 16.64 CD1 16.97 CD2 16.0 CE1 17.71 CE2 17.08 CZ 17.56 OH 17.51
A LEU H 1 -53.9 -37.8 N 15.8 CA 16.51 C 17.23 O 17.26 CB 15.91 CG 14.97 CD1 15.38 CD2 16.64
A GLN H 100 -65.3 -40.7 N 17.04 CA 18.3 C 19.3 O 18.54 CB 18.11 CG 19.24 CD 20.29 OE1 22.98 NE2 20.47
A LYS H 74 -58.1 -40.1 N 19.2 CA 18.71 C 19.89 O 20.39 CB 19.38 CG 20.01 CD 21.51 CE 20.12 NZ 21.69
A CYS H 3 -61.7 -47.5 N 17.71 CA 19.15 C 19.94 O 19.5 CB 19.32 SG 18.55
A LYS H 109 -54.8 -45.8 N 20.67 CA 20.5 C 21.68 O 22.71 CB 19.35 CG 19.98 CD 19.88 CE 20.28 NZ 19.58
A ALA H 65 -67.8 -25.1 N 20.32 CA 19.39 C 20.85 O 20.51 CB 18.54
A GLN T 7 -109.8 11.8 N 21.08 CA 21.81 C 22.11 O 23.09 CB 21.09 CG 21.53 CD 23.02 OE1 24.33 NE2 21.75
A ASN T 60 55.2 34.2 N 21.79 CA 23.07 C 23.13 O 22.15 CB 25.8 CG 29.42 OD1 32.86 ND2 27.99
A VAL E 2 -72.9 115.6 N 22.22 CA 21.75 C 20.96 O 20.25 CB 20.1 CG1 20.26 CG2 19.76
A VAL E 50 -97.5 -7.6 N 20.54 CA 21.13 C 20.02 O 21.01 CB 22.37 CG1 21.57 CG2 20.59
A HIS E 18 -151.9 130.4 N 20.83 CA 20.38 C 20.15 O 21.45 CB 20.16 CG 21.17 ND1 20.9 CD2 21.41 CE1 21.48 NE2 21.82
A VAL E 0 -129.7 134.5 N 19.58 CA 18.54 C 18.41 O 17.87 CB 18.76 CG1 18.78 CG2 16.72
A GLU - 1 -124.3 78.9 N 17.82 CA 18.67 C 17.52 O 16.58 CB 17.46 CG 19.17 CD 21.57 OE1 20.74 OE2 21.5
A PRO - 2 -83.1 150.6 N 17.13 CA 16.26 C 16.29 O 16.23 CB 15.22 CG 17.38 CD 17.14
A PHE E 0 -87.5 151.8 N 15.21 CA 16.46 C 15.84 O 15.55 CB 15.91 CG 16.17 CD1 17.25 CD2 16.32 CE1 17.24 CE2 17.09 CZ 17.91
A PHE E 2 -136.2 161.8 N 15.07 CA 16.1 C 15.56 O 15.32 CB 15.16 CG 16.17 CD1 15.77 CD2 15.25 CE1 16.56 CE2 14.9 CZ 16.9
A ASP - 0 -115.2 80.1 N 15.22 CA 15.87 C 15.09 O 14.78 CB 15.92 CG 16.59 OD1 17.15 OD2 17.61
A PRO H 1 -45.2 -44.2 N 15.46 CA 16.32 C 15.85 O 15.74 CB 17.27 CG 17.51 CD 15.51
A GLN H 1 -59.3 -35.2 N 16.32 CA 16.71 C 16.31 O 16.45 CB 17.42 CG 17.55 CD 19.65 OE1 19.71 NE2 19.6
A THR H 16 -57.5 -31.8 N 16.92 CA 16.7 C 15.55 O 15.46 CB 16.9 OG1 17.48 CG2 15.62
A HIS H 0 -96.3 -45.0 N 15.52 CA 15.66 C 15.38 O 16.13 CB 14.35 CG 14.83 ND1 14.93 CD2 15.21 CE1 14.7 NE2 15.89
A THR H 24 -59.6 -38.9 N 15.25 CA 16.71 C 15.94 O 15.29 CB 16.2 OG1 15.78 CG2 16.95
A ASP T 101 -68.5 -13.6 N 16.52 CA 17.16 C 17.36 O 18.47 CB 17.84 CG 18.12 OD1 18.91 OD2 17.22
A ARG T 81 -98.8 -0.2 N 16.18 CA 15.79 C 18.65 O 17.19 CB 15.52 CG 15.1 CD 15.96 NE 19.78 CZ 17.41 NH1 16.61 NH2 17.33
A GLY T 60 103.2 -7.2 N 16.72 CA 15.59 C 17.26 O 16.2
A ILE - 16 -71.7 127.7 N 17.35 CA 17.04 C 18.38 O 17.93 CB 16.18 CG1 16.98 CG2 15.61 CD1 16.14
A PRO - 73 -62.0 139.5 N 18.46 CA 19.05 C 19.49 O 19.37 CB 18.32 CG 17.52 CD 16.82
A PHE H 14 -53.9 -41.7 N 19.63 CA 17.95 C 18.6 O 18.17 CB 17.77 CG 19.33 CD1 19.62 CD2 18.12 CE1 19.31 CE2 18.8 CZ 19.43
A GLU H 67 -63.5 -32.6 N 18.77 CA 18.63 C 20.02 O 19.11 CB 20.24 CG 23.0 CD 30.86 OE1 31.38 OE2 34.26
A VAL H 38 -68.6 -49.5 N 18.9 CA 17.52 C 16.98 O 15.71 CB 17.47 CG1 16.76 CG2 17.35
A VAL H 1 -49.7 -56.5 N 17.87 CA 18.79 C 16.94 O 16.45 CB 17.49 CG1 16.71 CG2 15.6
A LEU H 0 -61.5 -45.2 N 16.64 CA 17.75 C 17.27 O 15.74 CB 18.2 CG 19.28 CD1 18.61 CD2 19.89
A ALA H 6 -50.6 -52.3 N 16.65 CA 16.54 C 17.48 O 16.59 CB 15.39
A GLY H 0 -60.1 -49.3 N 16.22 CA 14.92 C 16.16 O 14.77
A ILE H 2 -63.4 -47.4 N 15.9 CA 15.61 C 15.54 O 14.78 CB 15.24 CG1 14.9 CG2 14.26 CD1 15.2
A ARG H 12 -60.4 -47.0 N 15.55 CA 15.75 C 16.83 O 17.61 CB 17.51 CG 17.27 CD 18.18 NE 18.27 CZ 19.12 NH1 18.79 NH2 17.64
A ALA H 19 -52.5 -48.4 N 16.27 CA 16.46 C 16.43 O 17.58 CB 15.28
A ALA H 0 -62.9 -44.4 N 15.33 CA 15.63 C 16.33 O 16.54 CB 15.27
A LEU H 2 -59.6 -35.1 N 16.2 CA 16.06 C 17.07 O 16.35 CB 16.23 CG 17.01 CD1 16.22 CD2 15.95
A ARG H 32 -64.7 -41.0 N 17.36 CA 17.52 C 17.57 O 17.46 CB 18.37 CG 18.37 CD 18.86 NE 19.17 CZ 19.99 NH1 20.78 NH2 18.93
A ASP H 28 -66.7 -45.8 N 17.81 CA 18.15 C 17.48 O 17.71 CB 17.54 CG 18.8 OD1 18.71 OD2 19.79
A GLY H 1 -48.8 -43.9 N 16.49 CA 17.43 C 17.9 O 17.17
A GLU H 57 -79.9 -49.5 N 18.28 CA 20.33 C 18.5 O 18.84 CB 19.65 CG 21.79 CD 26.8 OE1 27.35 OE2 28.95
A LYS H 78 -72.7 -29.0 N 17.66 CA 18.92 C 18.47 O 19.75 CB 18.45 CG 20.96 CD 21.27 CE 19.86 NZ 21.23
A LEU H 108 -102.5 -35.8 N 18.71 CA 18.93 C 17.82 O 19.36 CB 18.26 CG 17.63 CD1 16.92 CD2 18.41
A LEU H 26 -102.8 -11.3 N 18.91 CA 18.53 C 18.05 O 19.83 CB 17.79 CG 18.01 CD1 15.02 CD2 18.79
A GLY - 48 76.6 21.6 N 18.54 CA 19.26 C 21.2 O 22.66
A ILE - 4 -101.8 115.9 N 19.73 CA 20.93 C 21.13 O 20.27 CB 20.38 CG1 20.06 CG2 18.73 CD1 17.29
A ARG E 164 -74.4 151.1 N 21.75 CA 20.51 C 20.69 O 18.94 CB 22.29 CG 27.81 CD 33.68 NE 46.72 CZ 53.69 NH1 51.25 NH2 54.17
A HIS E 41 -141.8 150.6 N 19.89 CA 19.5 C 19.45 O 19.76 CB 19.28 CG 19.42 ND1 19.85 CD2 18.46 CE1 17.89 NE2 20.21
A GLY - 4 -140.9 96.6 N 19.48 CA 18.62 C 18.75 O 19.05
A LEU - 3 -62.8 136.2 N 18.27 CA 17.76 C 17.66 O 17.41 CB 18.18 CG 16.17 CD1 14.99 CD2 16.79
A ILE E 0 -118.4 124.1 N 17.92 CA 18.55 C 17.73 O 16.57 CB 17.82 CG1 18.03 CG2 16.35 CD1 17.65
A LEU E 0 -87.7 117.5 N 16.6 CA 16.11 C 16.58 O 17.01 CB 17.36 CG 16.6 CD1 17.87 CD2 15.38
A SER E 0 -103.8 133.4 N 16.79 CA 16.66 C 17.61 O 16.2 CB 17.68 OG 18.37
A PHE E 0 -85.6 144.0 N 16.58 CA 17.71 C 17.7 O 17.73 CB 16.9 CG 17.98 CD1 16.86 CD2 17.43 CE1 16.87 CE2 16.66 CZ 17.24
A LEU E 4 -81.3 112.6 N 17.84 CA 19.25 C 18.59 O 18.88 CB 18.05 CG 18.34 CD1 17.56 CD2 18.04
A ARG T 0 -80.0 -11.6 N 18.68 CA 18.6 C 19.67 O 20.03 CB 17.79 CG 19.48 CD 18.53 NE 18.98 CZ 19.56 NH1 17.64 NH2 20.71
A HIS T 68 -82.3 -17.3 N 19.71 CA 20.29 C 20.31 O 19.9 CB 19.23 CG 19.84 ND1 19.33 CD2 19.43 CE1 19.8 NE2 19.98
A LEU S 33 -88.2 175.7 N 18.51 CA 18.75 C 17.91 O 18.77 CB 19.45 CG 19.71 CD1 18.37 CD2 17.05
A SER - 42 -79.0 161.5 N 16.79 CA 18.37 C 19.75 O 17.77 CB 18.47 OG 19.47
A GLU H 32 -67.1 -34.2 N 20.01 CA 19.3 C 18.82 O 17.98 CB 19.45 CG 19.89 CD 22.53 OE1 23.61 OE2 21.97
A GLU H 132 -56.6 -48.8 N 19.72 CA 20.36 C 19.14 O 18.7 CB 23.62 CG 28.68 CD 36.94 OE1 38.37 OE2 37.06
A GLN H 72 -59.5 -38.2 N 18.71 CA 18.05 C 17.74 O 17.82 CB 18.44 CG 18.71 CD 20.1 OE1 21.03 NE2 20.18
A ALA H 0 -66.9 -38.4 N 17.39 CA 16.95 C 18.57 O 17.56 CB 16.05
A GLN H 45 -59.4 -43.8 N 17.29 CA 17.79 C 18.79 O 19.74 CB 19.38 CG 19.16 CD 20.75 OE1 20.95 NE2 20.74
A LYS H 122 -61.8 -39.6 N 17.01 CA 18.61 C 18.19 O 17.66 CB 19.38 CG 21.43 CD 26.56 CE 30.99 NZ 37.51
A THR H 4 -64.1 -41.8 N 17.82 CA 18.01 C 18.6 O 18.71 CB 18.55 OG1 19.61 CG2 18.53
A LEU H 0 -62.1 -40.7 N 17.43 CA 18.08 C 19.21 O 18.01 CB 18.2 CG 18.27 CD1 16.29 CD2 18.5
A ASP H 84 -57.1 -39.4 N 18.15 CA 18.77 C 18.55 O 19.36 CB 18.41 CG 19.56 OD1 17.91 OD2 20.65
A GLN H 65 -64.8 -36.3 N 18.26 CA 19.59 C 20.23 O 20.92 CB 19.0 CG 19.9 CD 21.72 OE1 21.78 NE2 21.1
A ALA H 0 -73.2 -20.8 N 18.66 CA 19.2 C 18.95 O 18.65 CB 16.09
A LEU G 26 -58.5 -50.8 N 18.87 CA 18.58 C 17.97 O 19.51 CB 17.6 CG 19.51 CD1 17.67 CD2 18.95
A PRO G 5 -57.7 -27.5 N 17.98 CA 18.7 C 19.75 O 19.5 CB 19.13 CG 19.42 CD 18.99
A PHE G 5 -94.3 -2.7 N 18.62 CA 18.43 C 18.4 O 18.84 CB 19.3 CG 19.63 CD1 21.93 CD2 20.24 CE1 24.47 CE2 21.17 CZ 23.15
A ARG G 13 -42.5 -31.9 N 17.81 CA 18.17 C 18.89 O 20.43 CB 17.64 CG 17.11 CD 18.02 NE 17.97 CZ 17.51 NH1 16.33 NH2 18.56
A ASP G 52 -72.0 -5.5 N 17.2 CA 18.53 C 20.04 O 20.42 CB 18.21 CG 17.3 OD1 16.71 OD2 16.86
A ALA G 7 -88.8 -7.4 N 20.33 CA 19.26 C 17.99 O 16.3 CB 19.91
A PHE - 12 -124.5 140.4 N 18.42 CA 19.2 C 19.86 O 21.95 CB 19.5 CG 18.86 CD1 17.43 CD2 18.2 CE1 16.33 CE2 19.11 CZ 17.82
A ILE S 49 -94.2 -19.4 N 19.64 CA 19.9 C 20.52 O 21.97 CB 21.13 CG1 19.94 CG2 20.68 CD1 21.4
A ALA E 0 -158.8 170.0 N 19.5 CA 19.32 C 18.25 O 17.48 CB 18.67
A VAL E 0 -111.6 143.4 N 17.62 CA 15.71 C 16.41 O 16.86 CB 16.57 CG1 16.72 CG2 15.76
A GLY E 0 -118.8 -173.9 N 16.09 CA 16.6 C 17.59 O 18.4
A LEU E 0 -149.2 114.5 N 18.83 CA 17.92 C 19.16 O 18.73 CB 17.19 CG 18.92 CD1 17.83 CD2 16.09
A ASP E 5 -130.1 -168.9 N 19.42 CA 19.29 C 18.47 O 17.55 CB 19.0 CG 19.33 OD1 19.23 OD2 18.51
A SER S 6 93.3 -164.5 N 18.71 CA 18.38 C 19.4 O 18.63 CB 18.27 OG 18.17
A SER - 17 -55.5 106.8 N 19.82 CA 21.37 C 21.21 O 21.55 CB 22.59 OG 22.78
A GLU - 1 -73.9 -57.5 N 20.29 CA 21.63 C 23.58 O 23.52 CB 20.69 CG 21.46 CD 22.83 OE1 22.04 OE2 20.64
A VAL T 84 -61.2 122.1 N 22.5 CA 24.18 C 23.64 O 21.68 CB 27.01 CG1 26.01 CG2 26.01
A GLY T 53 89.8 0.6 N 22.61 CA 23.23 C 22.83 O 22.95
A HIS - 49 -129.4 75.1 N 22.3 CA 22.27 C 23.03 O 23.19 CB 20.94 CG 20.67 ND1 22.35 CD2 21.26 CE1 22.45 NE2 22.66
A PRO - 30 -68.5 160.0 N 22.14 CA 22.64 C 21.33 O 21.01 CB 21.01 CG 22.31 CD 21.28
A PRO G 0 -53.4 -36.5 N 21.99 CA 21.75 C 21.44 O 21.19 CB 20.76 CG 21.34 CD 21.3
A SER G 38 -50.0 -35.3 N 22.69 CA 22.42 C 20.99 O 21.51 CB 21.72 OG 21.35
A LYS G 60 -55.3 -19.3 N 20.06 CA 19.45 C 20.37 O 21.75 CB 19.92 CG 18.28 CD 18.86 CE 17.4 NZ 17.09
A PHE G 0 -123.4 17.6 N 18.31 CA 19.88 C 20.47 O 19.54 CB 18.55 CG 19.15 CD1 19.05 CD2 18.06 CE1 17.45 CE2 18.82 CZ 17.74
A GLN H 56 -62.3 -40.3 N 21.58 CA 21.06 C 20.07 O 18.98 CB 22.27 CG 20.35 CD 24.01 OE1 29.95 NE2 22.75
A ARG H 115 -62.3 -50.3 N 19.65 CA 19.89 C 19.52 O 19.07 CB 21.19 CG 21.23 CD 22.11 NE 23.89 CZ 23.38 NH1 22.11 NH2 20.94
A VAL H 0 -65.8 -38.2 N 18.57 CA 20.24 C 19.88 O 17.82 CB 20.18 CG1 17.76 CG2 18.78
A PHE H 0 -62.2 -44.4 N 19.06 CA 19.88 C 20.0 O 19.17 CB 20.62 CG 21.07 CD1 19.16 CD2 20.44 CE1 19.08 CE2 20.07 CZ 19.3
A ASP H 60 -54.1 -45.9 N 19.87 CA 19.83 C 18.91 O 18.88 CB 20.7 CG 22.09 OD1 21.01 OD2 26.24
A ARG H 60 -69.1 -41.5 N 18.38 CA 18.34 C 19.06 O 18.53 CB 18.08 CG 17.95 CD 17.29 NE 20.26 CZ 19.65 NH1 19.94 NH2 17.16
A ALA H 0 -56.3 -44.9 N 18.97 CA 19.1 C 19.49 O 19.83 CB 19.58
A ARG H 68 -66.0 -47.2 N 19.67 CA 19.33 C 19.62 O 19.58 CB 19.78 CG 22.02 CD 21.37 NE 24.66 CZ 24.94 NH1 25.62 NH2 22.73
A SER H 51 -48.1 -35.6 N 19.95 CA 19.77 C 20.25 O 19.03 CB 20.22 OG 23.55
A GLU T 37 -88.9 4.2 N 19.94 CA 19.71 C 20.08 O 19.11 CB 19.07 CG 18.57 CD 20.42 OE1 19.36 OE2 24.7
A GLY T 49 98.1 17.1 N 20.78 CA 19.68 C 21.61 O 23.61
A PHE - 8 -90.8 141.1 N 19.93 CA 20.23 C 20.0 O 21.57 CB 19.73 CG 20.82 CD1 19.32 CD2 20.72 CE1 20.29 CE2 19.58 CZ 19.24
A LEU E 66 -81.9 168.1 N 17.75 CA 19.39 C 19.38 O 18.46 CB 20.72 CG 19.45 CD1 18.77 CD2 19.18
A THR E 2 -131.2 147.3 N 19.25 CA 19.47 C 18.44 O 19.4 CB 19.42 OG1 20.29 CG2 19.64
A VAL - 0 -139.8 174.5 N 19.28 CA 18.36 C 16.74 O 16.51 CB 17.29 CG1 17.92 CG2 15.68
A ALA E 0 -166.1 147.9 N 16.73 CA 17.14 C 18.39 O 18.65 CB 18.91
A HIS E 6 -74.7 131.6 N 19.36 CA 19.16 C 18.11 O 17.73 CB 17.9 CG 18.96 ND1 19.04 CD2 18.67 CE1 19.29 NE2 19.1
A ALA E 0 -158.9 127.4 N 18.33 CA 20.32 C 20.67 O 19.73 CB 18.23
A GLY S 0 75.4 33.0 N 20.89 CA 21.38 C 21.73 O 21.11
A GLU S 8 -81.5 -68.0 N 21.55 CA 22.14 C 23.15 O 23.75 CB 21.08 CG 20.65 CD 22.49 OE1 20.51 OE2 21.9
A GLU S 57 -106.8 -22.7 N 21.8 CA 24.31 C 24.05 O 23.72 CB 25.09 CG 26.25 CD 28.5 OE1 29.33 OE2 27.99
A GLY S 0 -74.2 161.4 N 23.02 CA 22.53 C 23.34 O 22.6
A PRO - 33 -78.5 159.6 N 24.19 CA 24.52 C 24.38 O 23.35 CB 23.16 CG 23.37 CD 23.16
A PRO H 7 -39.3 -42.1 N 23.69 CA 24.73 C 24.15 O 23.6 CB 28.16 CG 26.16 CD 25.13
A GLU H 112 -53.0 -42.3 N 24.7 CA 25.8 C 24.97 O 22.18 CB 26.21 CG 28.97 CD 30.84 OE1 31.28 OE2 32.27
A TYR H 30 -57.6 -33.2 N 24.66 CA 23.3 C 22.94 O 22.23 CB 22.02 CG 23.98 CD1 23.72 CD2 23.29 CE1 23.44 CE2 22.38 CZ 23.01 OH 22.28
A ILE H 1 -73.1 -38.5 N 21.84 CA 21.31 C 21.91 O 21.94 CB 21.71 CG1 21.62 CG2 20.67 CD1 21.17
A TRP H 44 -61.0 -41.1 N 22.2 CA 22.57 C 20.9 O 20.07 CB 23.7 CG 25.54 CD1 26.52 CD2 27.27 NE1 27.18 CE2 28.62 CE3 27.57 CZ2 30.56 CZ3 29.46 CH2 33.0
A GLU H 53 -62.4 -46.9 N 19.93 CA 21.53 C 21.98 O 21.48 CB 22.53 CG 21.8 CD 23.85 OE1 23.84 OE2 25.52
A ALA I 0 -57.2 -46.6 N 20.85 CA 20.88 C 21.16 O 19.51 CB 19.69
A LEU I 13 -60.4 -47.3 N 20.95 CA 22.3 C 21.24 O 20.73 CB 21.93 CG 23.05 CD1 24.5 CD2 22.36
A ASP I 70 -100.8 -31.3 N 21.2 CA 22.11 C 21.97 O 23.61 CB 22.47 CG 23.78 OD1 22.07 OD2 24.03
A LEU I 49 -89.8 -51.0 N 22.83 CA 22.47 C 22.36 O 21.99 CB 21.07 CG 24.28 CD1 23.0 CD2 22.11
A LEU I 0 -86.9 -18.8 N 22.68 CA 21.22 C 21.41 O 21.85 CB 21.19 CG 20.83 CD1 19.81 CD2 19.7
A LYS - 107 61.2 38.1 N 21.7 CA 22.07 C 20.9 O 20.78 CB 22.37 CG 24.67 CD 27.15 CE 31.84 NZ 34.16
A VAL - 13 -59.8 154.4 N 20.61 CA 20.9 C 20.57 O 21.08 CB 20.42 CG1 20.02 CG2 18.91
A GLU S 92 -86.2 -22.7 N 21.05 CA 19.42 C 21.5 O 21.95 CB 21.33 CG 22.22 CD 22.73 OE1 23.24 OE2 24.14
A ARG S 1 -152.1 153.5 N 20.62 CA 20.18 C 20.77 O 20.55 CB 20.72 CG 20.62 CD 19.99 NE 20.68 CZ 21.24 NH1 20.41 NH2 20.62
A ILE E 0 -92.2 128.9 N 19.07 CA 18.79 C 19.89 O 20.32 CB 21.55 CG1 21.45 CG2 20.59 CD1 19.94
A ASP E 0 -89.9 127.1 N 19.07 CA 18.88 C 18.99 O 18.92 CB 18.22 CG 19.22 OD1 19.86 OD2 17.16
A HIS E 0 74.8 -97.6 N 20.18 CA 20.38 C 21.35 O 20.21 CB 20.08 CG 20.92 ND1 21.65 CD2 21.1 CE1 21.54 NE2 21.35
A GLY - 0 76.2 8.6 N 20.65 CA 20.5 C 22.9 O 22.12
A VAL G 4 -60.0 -36.3 N 23.57 CA 24.49 C 25.62 O 27.78 CB 23.5 CG1 23.95 CG2 25.37
A ARG G 77 -69.5 1.5 N 24.73 CA 25.05 C 25.86 O 26.7 CB 23.51 CG 24.41 CD 24.05 NE 23.96 CZ 25.3 NH1 24.35 NH2 25.15
A ALA G 1 -65.7 -19.6 N 24.59 CA 26.81 C 28.65 O 29.18 CB 24.83
A PHE G 76 -62.1 -24.9 N 28.28 CA 29.81 C 31.06 O 32.25 CB 28.73 CG 32.06 CD1 33.14 CD2 32.95 CE1 32.93 CE2 33.49 CZ 35.67
A GLU G 118 -77.4 -12.5 N 29.18 CA 28.69 C 30.92 O 32.07 CB 26.07 CG 27.95 CD 27.57 OE1 28.16 OE2 25.29
A ASP - 33 -123.8 103.7 N 29.81 CA 31.05 C 30.93 O 29.66 CB 30.55 CG 31.96 OD1 32.74 OD2 30.96
A GLU H 93 -67.2 -37.5 N 32.74 CA 33.26 C 32.42 O 31.08 CB 36.38 CG 41.72 CD 40.61 OE1 39.23 OE2 39.06
A ARG H 157 -62.5 -39.8 N 34.18 CA 34.46 C 31.34 O 30.02 CB 36.81 CG 39.66 CD 44.41 NE 48.04 CZ 55.74 NH1 62.85 NH2 52.34
A LEU H 0 -68.6 -44.8 N 30.56 CA 30.18 C 29.26 O 27.88 CB 28.87 CG 28.31 CD1 29.16 CD2 26.33
A ARG H 145 -63.1 -37.2 N 29.2 CA 30.74 C 28.92 O 27.54 CB 33.03 CG 34.28 CD 37.18 NE 38.43 CZ 42.01 NH1 41.24 NH2 39.56
A ARG H 48 -65.7 -47.2 N 29.94 CA 27.79 C 28.25 O 28.52 CB 28.33 CG 28.57 CD 27.72 NE 27.76 CZ 26.32 NH1 25.9 NH2 25.8
A LEU H 1 -54.5 -56.9 N 27.28 CA 27.64 C 28.01 O 25.99 CB 26.85 CG 26.87 CD1 23.9 CD2 24.84
A ILE H 43 -52.4 -37.9 N 29.08 CA 28.86 C 29.12 O 28.81 CB 29.05 CG1 28.23 CG2 27.96 CD1 28.81
A ASP H 131 -80.0 -36.9 N 29.34 CA 28.97 C 28.25 O 30.76 CB 30.92 CG 32.76 OD1 32.32 OD2 34.34
A GLU H 98 -92.6 -9.2 N 29.28 CA 28.47 C 28.07 O 26.63 CB 27.7 CG 30.05 CD 31.35 OE1 31.26 OE2 31.4
A GLN T 82 56.6 37.3 N 26.33 CA 26.89 C 25.89 O 25.39 CB 27.35 CG 26.91 CD 28.85 OE1 27.54 NE2 28.6
A ILE - 14 -69.4 124.8 N 25.64 CA 25.1 C 23.81 O 22.08 CB 25.74 CG1 28.77 CG2 24.85 CD1 29.98
A PRO - 18 -70.9 146.0 N 22.99 CA 22.16 C 21.28 O 21.53 CB 21.76 CG 21.66 CD 22.65
A LEU E 1 -114.9 127.1 N 20.38 CA 21.47 C 21.91 O 21.67 CB 20.81 CG 21.48 CD1 20.46 CD2 21.33
A THR E 0 -94.2 85.0 N 20.28 CA 19.71 C 20.07 O 19.12 CB 19.37 OG1 19.21 CG2 19.64
A VAL E 0 -81.6 142.2 N 20.47 CA 20.69 C 20.52 O 20.67 CB 22.89 CG1 20.64 CG2 22.18
A CYS - 0 -127.8 96.7 N 19.64 CA 20.14 C 21.99 O 21.72 CB 21.71 SG 18.84
A PRO H 0 -57.7 -56.9 N 21.64 CA 22.5 C 23.27 O 24.16 CB 23.78 CG 22.73 CD 20.61
A LEU H 28 -67.7 -33.7 N 22.66 CA 23.53 C 22.77 O 23.14 CB 23.3 CG 23.47 CD1 21.93 CD2 21.85
A SER H 0 -61.0 -46.0 N 21.99 CA 22.95 C 23.66 O 22.8 CB 21.97 OG 22.39
A ASN H 0 -64.0 -44.0 N 22.82 CA 23.38 C 26.22 O 24.82 CB 23.67 CG 23.76 OD1 24.15 ND2 21.78
A THR H 41 -55.9 -55.8 N 25.54 CA 24.96 C 24.9 O 26.11 CB 26.82 OG1 30.78 CG2 28.88
A LYS H 63 -66.3 -32.5 N 23.52 CA 24.51 C 25.43 O 27.08 CB 23.76 CG 25.8 CD 24.96 CE 27.43 NZ 30.5
A LEU T 3 -89.2 4.5 N 23.73 CA 24.75 C 25.19 O 23.74 CB 22.89 CG 23.92 CD1 20.25 CD2 23.47
A CYS T 58 72.7 19.5 N 26.58 CA 28.33 C 29.28 O 30.47 CB 25.21 SG 29.91
A VAL S 40 -60.3 -45.8 N 27.58 CA 27.77 C 29.41 O 30.32 CB 27.26 CG1 27.68 CG2 24.62
A PHE S 29 -114.4 139.6 N 30.29 CA 31.67 C 33.24 O 32.46 CB 32.05 CG 29.93 CD1 29.54 CD2 26.56 CE1 29.67 CE2 27.55 CZ 29.1
A ASP S 138 -72.4 -14.1 N 34.28 CA 36.11 C 35.76 O 35.19 CB 38.51 CG 41.53 OD1 40.45 OD2 43.97
A ASP S 85 -160.5 159.1 N 36.65 CA 35.72 C 34.83 O 34.65 CB 35.95 CG 39.62 OD1 38.53 OD2 38.96
A SER G 69 -68.0 -15.7 N 34.77 CA 34.3 C 32.98 O 34.74 CB 32.33 OG 36.71
A GLN G 103 -98.5 5.0 N 32.44 CA 33.61 C 31.42 O 30.51 CB 34.36 CG 36.54 CD 41.04 OE1 44.4 NE2 39.56
A HIS - 4 -73.3 142.6 N 31.22 CA 28.54 C 29.54 O 29.25 CB 28.91 CG 28.44 ND1 27.82 CD2 25.65 CE1 24.64 NE2 25.93
A THR - 16 -104.0 12.3 N 28.84 CA 27.32 C 28.72 O 29.44 CB 30.03 OG1 30.32 CG2 29.07
A ILE H 1 -68.4 -34.9 N 28.27 CA 28.72 C 29.47 O 28.91 CB 27.17 CG1 25.47 CG2 27.29 CD1 23.89
A LEU H 13 -74.7 -33.9 N 29.99 CA 30.97 C 30.02 O 30.73 CB 30.66 CG 32.9 CD1 31.36 CD2 32.36
A ASP H 86 -58.2 -54.3 N 29.19 CA 28.97 C 30.5 O 32.03 CB 30.58 CG 31.37 OD1 35.57 OD2 31.44
A LEU H 4 -54.2 -52.3 N 30.23 CA 30.19 C 30.23 O 28.66 CB 29.5 CG 28.89 CD1 27.14 CD2 30.7
A GLU H 103 -63.2 -37.3 N 30.15 CA 32.2 C 31.73 O 32.41 CB 32.6 CG 32.15 CD 34.56 OE1 37.42 OE2 34.64
A ARG H 93 -65.5 -22.3 N 31.51 CA 31.2 C 29.88 O 29.88 CB 30.17 CG 31.36 CD 32.57 NE 31.19 CZ 35.47 NH1 37.06 NH2 35.95
A GLY T 28 112.4 1.9 N 30.91 CA 27.13 C 26.1 O 24.44
A VAL - 1 -63.7 132.6 N 27.07 CA 26.77 C 27.29 O 27.37 CB 27.29 CG1 25.82 CG2 28.22
A LYS - 29 -82.2 66.0 N 26.29 CA 25.24 C 24.06 O 23.15 CB 26.55 CG 27.99 CD 29.82 CE 30.18 NZ 29.13
A VAL E 0 -80.1 156.3 N 25.06 CA 23.54 C 23.65 O 25.29 CB 24.74 CG1 24.86 CG2 24.5
A THR E 0 -130.3 169.8 N 22.53 CA 21.58 C 21.28 O 22.12 CB 21.72 OG1 20.24 CG2 20.65
A VAL E 3 -111.6 131.2 N 20.81 CA 20.38 C 20.32 O 20.18 CB 21.64 CG1 20.46 CG2 21.99
A ASN - 0 -143.8 159.0 N 20.19 CA 19.25 C 19.98 O 19.79 CB 18.68 CG 19.68 OD1 21.63 ND2 16.52
A SER - 0 -96.3 -21.0 N 19.75 CA 20.28 C 19.6 O 19.72 CB 19.73 OG 19.03
A ASP B 2 71.5 -82.9 N 18.98 CA 19.83 C 19.51 O 18.09 CB 19.42 CG 20.87 OD1 20.46 OD2 22.05
A ASP S 5 -131.9 77.9 N 20.11 CA 18.76 C 19.68 O 20.37 CB 20.0 CG 20.12 OD1 18.14 OD2 19.64
A PRO H 1 -61.3 -31.5 N 20.34 CA 20.06 C 20.93 O 21.54 CB 20.16 CG 19.18 CD 18.95
A ALA H 6 -73.6 -22.5 N 19.88 CA 18.55 C 20.08 O 21.7 CB 17.71
A TYR H 2 -100.2 -24.0 N 19.68 CA 21.39 C 22.54 O 23.66 CB 22.51 CG 21.52 CD1 20.62 CD2 21.34 CE1 20.88 CE2 23.73 CZ 21.66 OH 21.28
A PHE H 7 -108.6 4.9 N 21.77 CA 23.17 C 23.6 O 23.3 CB 21.77 CG 21.06 CD1 22.19 CD2 21.69 CE1 22.83 CE2 22.91 CZ 21.37
A GLY T 68 68.3 40.5 N 24.61 CA 23.46 C 24.85 O 26.18
A GLY - 6 178.2 145.6 N 23.58 CA 21.42 C 20.9 O 21.02
A TYR - 18 -95.2 -168.8 N 20.69 CA 20.95 C 20.6 O 20.33 CB 20.43 CG 19.92 CD1 18.58 CD2 20.19 CE1 18.46 CE2 19.13 CZ 19.47 OH 18.37
A VAL H 1 -59.2 -44.8 N 20.41 CA 21.54 C 21.85 O 20.32 CB 21.75 CG1 20.37 CG2 19.74
A THR H 0 -58.9 -32.2 N 21.99 CA 21.93 C 21.73 O 23.33 CB 23.45 OG1 22.98 CG2 24.65
A GLU H 47 -76.2 -23.0 N 20.55 CA 22.52 C 21.72 O 22.92 CB 22.38 CG 23.96 CD 25.13 OE1 22.97 OE2 25.92
A ASN H 0 -75.3 -44.5 N 21.06 CA 22.61 C 24.34 O 23.67 CB 22.62 CG 20.76 OD1 20.54 ND2 19.52
A PHE H 2 -56.0 -41.7 N 22.94 CA 24.62 C 26.85 O 25.46 CB 24.24 CG 25.15 CD1 22.82 CD2 24.92 CE1 22.73 CE2 26.11 CZ 23.41
A HIS H 39 -64.5 -47.0 N 26.15 CA 26.41 C 27.1 O 29.87 CB 26.32 CG 29.51 ND1 32.4 CD2 30.81 CE1 31.33 NE2 31.92
A ALA H 9 -53.9 -38.7 N 25.98 CA 27.89 C 28.95 O 28.62 CB 26.49
A LEU H 0 -64.3 -41.7 N 27.11 CA 29.11 C 31.36 O 31.28 CB 29.25 CG 26.48 CD1 25.13 CD2 24.72
A GLN H 85 -66.9 -48.2 N 32.24 CA 33.3 C 34.24 O 35.03 CB 34.86 CG 37.5 CD 41.22 OE1 42.13 NE2 40.83
A GLN H 128 -64.3 -51.4 N 32.47 CA 34.51 C 34.1 O 32.79 CB 33.82 CG 33.93 CD 39.56 OE1 39.24 NE2 42.39
A SER H 52 -92.6 -18.0 N 33.15 CA 32.49 C 32.4 O 31.89 CB 31.94 OG 31.91
A LEU H 45 -127.2 14.8 N 31.53 CA 32.46 C 33.77 O 34.88 CB 31.67 CG 32.28 CD1 30.54 CD2 31.47
A GLY - 52 44.3 41.9 N 33.1 CA 30.6 C 33.61 O 34.8
A THR - 65 -98.8 162.6 N 34.17 CA 33.49 C 35.57 O 35.73 CB 35.13 OG1 34.1 CG2 32.89
A GLU H 110 -56.7 -38.7 N 35.26 CA 36.55 C 37.55 O 37.67 CB 39.3 CG 41.75 CD 43.97 OE1 42.7 OE2 43.44
A GLU H 105 -49.4 -54.3 N 38.88 CA 38.04 C 36.12 O 35.68 CB 38.61 CG 40.78 CD 42.94 OE1 43.0 OE2 45.47
A GLN H 24 -74.2 -24.4 N 34.53 CA 34.85 C 35.5 O 33.96 CB 33.27 CG 32.23 CD 33.15 OE1 34.92 NE2 31.34
A ALA H 1 -64.3 -47.2 N 35.3 CA 32.54 C 32.41 O 31.66 CB 35.88
A ARG H 129 -65.0 -38.6 N 32.52 CA 31.99 C 29.59 O 26.99 CB 34.46 CG 36.93 CD 43.32 NE 45.35 CZ 47.95 NH1 45.67 NH2 46.13
A ARG H 79 -66.2 -44.5 N 29.49 CA 31.24 C 29.1 O 25.43 CB 33.12 CG 38.94 CD 39.5 NE 40.42 CZ 40.68 NH1 39.46 NH2 39.23
A LEU H 0 -61.1 -45.8 N 26.51 CA 25.96 C 24.41 O 21.77 CB 26.28 CG 26.32 CD1 25.52 CD2 26.43
A ALA H 6 -61.1 -36.5 N 24.92 CA 24.1 C 23.12 O 22.92 CB 23.41
A GLN H 92 -73.7 -38.2 N 24.2 CA 24.36 C 23.62 O 22.7 CB 24.61 CG 23.99 CD 25.13 OE1 24.98 NE2 24.66
A ASN H 20 -59.1 -41.5 N 23.03 CA 23.97 C 23.96 O 24.22 CB 23.86 CG 25.32 OD1 26.03 ND2 23.61
A SER H 3 -62.0 -38.6 N 23.07 CA 21.73 C 22.98 O 23.41 CB 20.97 OG 21.28
A LEU H 27 -66.3 -45.9 N 21.78 CA 23.25 C 23.47 O 24.14 CB 22.52 CG 23.05 CD1 21.91 CD2 22.58
A ASP H 88 -62.2 -30.5 N 23.05 CA 24.45 C 23.44 O 23.34 CB 24.65 CG 26.18 OD1 26.06 OD2 27.2
A ALA T 8 -89.8 4.0 N 23.63 CA 22.48 C 21.59 O 22.68 CB 20.77
A ARG - 118 -58.6 147.3 N 23.92 CA 23.19 C 23.28 O 24.07 CB 22.54 CG 23.1 CD 23.33 NE 26.27 CZ 29.78 NH1 26.94 NH2 26.84
A LEU - 73 -95.8 360.0 N 24.08 CA 23.06 C 25.4 O 25.61 CB 22.68 CG 24.03 CD1 22.73 CD2 22.66
B TYR - 101 360.0 -52.6 N 26.42 CA 27.44 C 27.82 O 26.34 CB 28.19 CG 29.03 CD1 29.8 CD2 29.46 CE1 27.79 CE2 27.87 CZ 28.71 OH 24.95
B GLU H 132 -63.6 -33.6 N 29.42 CA 29.18 C 26.88 O 26.9 CB 28.97 CG 31.94 CD 40.93 OE1 38.91 OE2 40.03
B TRP H 84 -69.2 -38.7 N 25.24 CA 25.56 C 25.43 O 24.45 CB 25.93 CG 26.73 CD1 27.22 CD2 26.77 NE1 30.08 CE2 29.03 CE3 26.48 CZ2 29.59 CZ3 26.84 CH2 29.83
B LEU H 7 -66.1 -47.5 N 24.11 CA 25.08 C 24.54 O 22.43 CB 23.63 CG 23.82 CD1 25.53 CD2 23.18
B ASN H 16 -61.7 -26.2 N 25.3 CA 23.3 C 24.01 O 24.93 CB 23.79 CG 23.17 OD1 21.48 ND2 22.45
B ALA H 58 -80.2 -22.6 N 23.37 CA 22.31 C 22.37 O 21.51 CB 23.74
B LEU S 18 -57.8 123.8 N 22.18 CA 21.15 C 21.54 O 20.48 CB 21.59 CG 23.68 CD1 24.15 CD2 24.49
B PRO - 70 -62.4 134.1 N 21.28 CA 20.51 C 20.65 O 21.12 CB 21.32 CG 21.41 CD 21.12
B LYS E 2 -136.8 145.4 N 20.54 CA 19.26 C 18.74 O 18.63 CB 19.14 CG 20.49 CD 21.85 CE 21.31 NZ 21.3
B ALA E 0 -106.7 130.8 N 20.09 CA 19.24 C 18.24 O 19.32 CB 19.69
B GLU E 2 -101.0 119.3 N 19.04 CA 17.68 C 16.8 O 16.82 CB 16.23 CG 16.64 CD 17.78 OE1 17.89 OE2 19.01
B LEU - 0 -118.4 5.3 N 17.23 CA 18.18 C 18.47 O 18.91 CB 17.12 CG 19.47 CD1 20.77 CD2 18.9
B HIS S 0 -144.5 88.8 N 17.57 CA 18.15 C 18.82 O 19.72 CB 18.58 CG 20.22 ND1 20.41 CD2 19.71 CE1 20.58 NE2 18.5
B LEU B 0 -151.1 125.8 N 19.52 CA 18.22 C 19.6 O 18.48 CB 17.15 CG 18.96 CD1 16.89 CD2 17.37
B HIS B 6 -91.1 119.8 N 19.33 CA 18.11 C 18.69 O 18.19 CB 18.57 CG 20.81 ND1 19.2 CD2 19.64 CE1 19.38 NE2 19.22
B LEU G 2 -53.9 -43.0 N 17.81 CA 18.03 C 19.64 O 17.9 CB 16.97 CG 16.96 CD1 15.79 CD2 14.57
B GLU G 8 -61.5 -27.0 N 18.15 CA 19.14 C 19.41 O 18.33 CB 17.94 CG 18.42 CD 18.77 OE1 18.11 OE2 15.68
B GLY G 0 -87.0 7.7 N 19.11 CA 18.84 C 18.7 O 19.45
B THR G 6 -104.6 6.5 N 16.78 CA 19.09 C 18.29 O 19.21 CB 19.38 OG1 18.49 CG2 17.43
B LEU - 1 -71.5 89.3 N 19.22 CA 19.13 C 19.75 O 20.78 CB 18.82 CG 19.3 CD1 17.86 CD2 17.06
B GLU - 58 -55.7 142.3 N 19.98 CA 19.51 C 21.06 O 19.5 CB 18.69 CG 18.66 CD 23.89 OE1 22.21 OE2 24.55
B PRO H 1 -49.4 -42.3 N 21.82 CA 21.18 C 22.4 O 22.49 CB 22.83 CG 24.96 CD 22.51
B GLU H 102 -62.1 -45.2 N 20.8 CA 21.67 C 20.7 O 20.94 CB 20.71 CG 21.44 CD 24.41 OE1 23.3 OE2 22.96
B LEU H 37 -68.8 -30.6 N 19.95 CA 19.87 C 19.81 O 20.65 CB 19.35 CG 20.39 CD1 18.59 CD2 18.81
B LEU H 2 -68.6 -43.3 N 18.79 CA 20.3 C 20.5 O 19.54 CB 19.49 CG 18.59 CD1 17.91 CD2 20.04
B PHE H 51 -64.8 -38.4 N 19.26 CA 20.66 C 21.1 O 20.32 CB 22.05 CG 23.43 CD1 25.69 CD2 24.89 CE1 27.26 CE2 25.77 CZ 27.4
B ALA H 56 -67.2 -46.0 N 19.52 CA 19.3 C 20.37 O 21.04 CB 18.76
B LEU H 2 -64.2 -42.7 N 18.7 CA 18.82 C 19.04 O 18.78 CB 19.33 CG 19.64 CD1 17.81 CD2 18.19
B ALA H 2 -56.1 -42.7 N 18.7 CA 18.93 C 19.13 O 19.31 CB 17.29
B GLU H 165 -66.6 -39.0 N 18.83 CA 20.51 C 20.75 O 19.38 CB 21.21 CG 23.83 CD 27.54 OE1 31.26 OE2 29.7
B ARG H 105 -65.1 -38.5 N 19.79 CA 19.65 C 19.73 O 19.56 CB 20.3 CG 19.54 CD 18.5 NE 19.53 CZ 19.67 NH1 17.53 NH2 16.31
B ASN T 20 -89.0 5.1 N 20.44 CA 19.64 C 18.78 O 17.78 CB 18.17 CG 19.52 OD1 19.69 ND2 19.69
B ARG T 214 59.1 35.1 N 18.12 CA 18.38 C 17.53 O 16.01 CB 17.98 CG 18.4 CD 19.79 NE 18.4 CZ 19.08 NH1 18.54 NH2 19.41
B ILE - 25 -92.6 122.8 N 17.65 CA 17.66 C 17.17 O 17.42 CB 18.05 CG1 17.24 CG2 18.23 CD1 17.25
B ALA - 100 -76.0 113.2 N 17.18 CA 19.16 C 20.83 O 21.74 CB 18.45
B LEU - 35 -78.8 152.0 N 21.98 CA 23.33 C 24.77 O 23.15 CB 24.2 CG 22.63 CD1 23.82 CD2 21.09
B PRO S 105 -67.8 -12.2 N 25.31 CA 26.17 C 30.39 O 34.18 CB 28.96 CG 27.58 CD 25.54
B TRP S 41 -107.9 131.4 N 30.68 CA 30.3 C 32.22 O 33.38 CB 29.49 CG 28.88 CD1 29.09 CD2 29.01 NE1 27.71 CE2 27.59 CE3 28.1 CZ2 27.99 CZ3 28.62 CH2 26.63
B ASN S 148 -52.2 -54.3 N 35.89 CA 39.4 C 37.54 O 39.16 CB 43.63 CG 50.15 OD1 48.43 ND2 53.34
B ASP S 57 -153.8 177.4 N 36.03 CA 34.69 C 33.21 O 33.22 CB 36.46 CG 40.8 OD1 37.38 OD2 44.95
B VAL H 41 -66.3 -31.8 N 31.79 CA 31.05 C 32.66 O 31.73 CB 29.09 CG1 31.77 CG2 28.09
B GLU H 112 -59.9 -45.0 N 35.44 CA 36.43 C 35.79 O 34.45 CB 36.01 CG 37.21 CD 43.62 OE1 44.02 OE2 45.2
B THR H 47 -63.7 -38.3 N 35.55 CA 34.87 C 33.97 O 33.68 CB 35.73 OG1 35.66 CG2 34.72
B LEU H 1 -65.2 -44.8 N 33.06 CA 30.48 C 30.56 O 30.63 CB 27.06 CG 25.9 CD1 27.68 CD2 24.73
B ARG H 118 -66.9 -24.7 N 31.47 CA 31.67 C 30.7 O 29.27 CB 31.95 CG 32.94 CD 35.03 NE 35.91 CZ 35.98 NH1 32.81 NH2 32.88
B LYS T 147 -72.1 -10.2 N 30.89 CA 30.65 C 30.11 O 29.53 CB 31.9 CG 35.5 CD 36.31 CE 39.52 NZ 39.1
B ALA T 39 -89.6 -1.8 N 28.45 CA 27.88 C 27.69 O 27.0 CB 26.09
B TYR - 25 -82.5 46.2 N 27.9 CA 26.36 C 26.37 O 26.22 CB 27.0 CG 27.44 CD1 29.07 CD2 26.53 CE1 27.75 CE2 27.51 CZ 27.99 OH 31.51
B ALA - 70 -129.9 134.8 N 27.01 CA 26.31 C 26.01 O 25.16 CB 24.73
B PHE - 21 -135.7 136.0 N 25.44 CA 23.79 C 25.77 O 25.84 CB 23.44 CG 25.88 CD1 25.84 CD2 25.56 CE1 25.02 CE2 25.25 CZ 25.21
B ASN S 110 -96.0 -21.9 N 24.55 CA 23.93 C 25.03 O 24.64 CB 24.63 CG 24.97 OD1 25.19 ND2 24.39
B ASN S 59 -163.8 -179.6 N 25.17 CA 24.36 C 24.0 O 25.25 CB 23.5 CG 25.43 OD1 25.81 ND2 24.19
B LEU H 8 -57.9 -48.1 N 24.11 CA 23.01 C 23.42 O 22.31 CB 23.65 CG 22.45 CD1 20.08 CD2 22.03
B GLN H 72 -56.3 -42.3 N 24.08 CA 22.88 C 22.1 O 22.03 CB 22.86 CG 22.2 CD 22.14 OE1 21.32 NE2 22.99
B GLU H 89 -61.3 -43.3 N 23.09 CA 23.11 C 23.04 O 21.4 CB 23.69 CG 24.73 CD 25.64 OE1 26.15 OE2 24.39
B PHE H 4 -62.6 -46.1 N 22.88 CA 22.67 C 22.1 O 21.32 CB 22.88 CG 22.17 CD1 21.88 CD2 21.97 CE1 21.57 CE2 21.05 CZ 20.53
B LEU H 6 -55.9 -35.4 N 22.14 CA 22.09 C 21.99 O 20.55 CB 20.57 CG 20.62 CD1 20.89 CD2 21.59
B ASP H 96 -65.3 -47.4 N 21.18 CA 22.4 C 22.25 O 24.43 CB 21.91 CG 22.28 OD1 23.06 OD2 25.62
B LEU H 20 -63.8 -45.5 N 22.05 CA 21.19 C 21.27 O 20.61 CB 22.09 CG 23.7 CD1 23.87 CD2 25.03
B TYR H 7 -58.8 -44.0 N 22.29 CA 20.36 C 20.12 O 20.37 CB 20.56 CG 19.96 CD1 19.31 CD2 18.82 CE1 18.81 CE2 18.96 CZ 19.67 OH 18.95
B TYR H 48 -74.5 -37.9 N 20.03 CA 19.87 C 20.66 O 19.69 CB 19.01 CG 19.29 CD1 18.83 CD2 18.95 CE1 18.12 CE2 18.98 CZ 19.11 OH 19.13
B ALA H 53 -59.1 -33.2 N 18.72 CA 18.33 C 19.5 O 19.12 CB 17.96
B GLY H 1 -69.3 -34.8 N 19.19 CA 17.66 C 19.54 O 19.87
B ALA G 4 -58.5 -21.8 N 19.15 CA 18.71 C 19.0 O 18.84 CB 21.31
B ASP G 59 -44.8 -34.2 N 19.02 CA 18.37 C 18.9 O 16.75 CB 19.51 CG 18.73 OD1 18.85 OD2 19.92
B VAL G 1 -70.6 -19.2 N 17.98 CA 18.13 C 18.92 O 19.28 CB 17.97 CG1 17.74 CG2 16.74
B LEU - 1 -87.4 104.6 N 18.53 CA 19.69 C 19.26 O 20.07 CB 17.36 CG 18.17 CD1 18.7 CD2 17.13
B ARG - 102 -130.9 -34.6 N 18.61 CA 20.04 C 20.46 O 20.42 CB 18.34 CG 17.74 CD 19.42 NE 18.03 CZ 17.55 NH1 15.8 NH2 17.2
B THR S 59 -99.1 152.0 N 18.7 CA 18.45 C 18.63 O 17.32 CB 18.22 OG1 20.16 CG2 19.81
B GLU H 92 -51.7 -44.9 N 17.7 CA 16.91 C 16.68 O 15.95 CB 16.31 CG 16.54 CD 17.42 OE1 18.69 OE2 17.82
B GLN H 94 -59.6 -39.0 N 16.55 CA 17.64 C 17.54 O 16.64 CB 16.27 CG 17.35 CD 18.98 OE1 20.7 NE2 19.23
B ASP H 0 -54.1 -51.9 N 17.34 CA 17.64 C 17.59 O 16.91 CB 18.0 CG 19.21 OD1 18.55 OD2 19.97
B PHE H 2 -64.9 -35.0 N 16.35 CA 16.72 C 16.89 O 15.74 CB 15.48 CG 16.4 CD1 16.39 CD2 15.85 CE1 16.43 CE2 17.97 CZ 17.02
B TYR H 40 -63.5 -52.1 N 16.38 CA 15.69 C 16.73 O 15.5 CB 15.54 CG 16.46 CD1 16.02 CD2 15.73 CE1 15.59 CE2 15.94 CZ 15.7 OH 14.97
B ASP H 37 -55.0 -42.3 N 16.91 CA 16.46 C 17.01 O 17.35 CB 16.48 CG 18.23 OD1 17.87 OD2 18.23
B LEU H 3 -63.4 -52.0 N 16.28 CA 16.97 C 16.71 O 15.36 CB 16.42 CG 17.32 CD1 16.03 CD2 17.81
B THR H 0 -66.8 -43.1 N 15.93 CA 16.25 C 16.72 O 15.8 CB 15.64 OG1 16.22 CG2 14.28
B TRP H 54 -61.7 -42.5 N 16.91 CA 16.92 C 18.17 O 18.33 CB 16.1 CG 18.64 CD1 16.6 CD2 17.59 NE1 16.08 CE2 17.04 CE3 17.01 CZ2 17.91 CZ3 17.59 CH2 17.41
B ALA H 44 -60.0 -42.1 N 16.1 CA 17.19 C 16.94 O 16.26 CB 13.78
B TYR H 3 -64.2 -37.3 N 15.44 CA 15.94 C 15.75 O 15.51 CB 16.0 CG 15.96 CD1 15.86 CD2 15.29 CE1 15.98 CE2 16.68 CZ 16.7 OH 16.14
B LEU H 2 -69.3 -38.1 N 15.99 CA 17.35 C 17.39 O 16.92 CB 16.07 CG 14.7 CD1 15.9 CD2 15.71
B GLN H 98 -63.3 -38.9 N 15.77 CA 18.23 C 17.07 O 17.69 CB 18.91 CG 18.52 CD 19.88 OE1 20.5 NE2 19.69
B LYS H 73 -54.6 -43.4 N 16.58 CA 17.39 C 18.52 O 19.08 CB 17.65 CG 18.47 CD 19.37 CE 19.32 NZ 20.06
B CYS H 2 -67.1 -40.7 N 16.21 CA 17.77 C 18.4 O 17.8 CB 18.14 SG 13.66
B LYS H 107 -55.4 -45.6 N 18.03 CA 18.09 C 19.23 O 20.09 CB 17.95 CG 19.4 CD 20.12 CE 22.24 NZ 24.62
B ALA H 62 -68.1 -23.6 N 17.14 CA 18.15 C 19.76 O 19.19 CB 17.48
B GLN T 7 -110.4 18.5 N 19.69 CA 19.46 C 19.83 O 19.7 CB 19.72 CG 19.53 CD 20.23 OE1 20.88 NE2 21.64
B ASN T 64 53.9 27.4 N 19.68 CA 20.04 C 19.75 O 18.65 CB 20.91 CG 23.43 OD1 24.21 ND2 22.22
B VAL E 3 -68.4 117.0 N 19.74 CA 18.74 C 18.51 O 19.89 CB 19.11 CG1 17.56 CG2 19.55
B VAL E 62 -104.7 -15.0 N 18.89 CA 17.13 C 18.16 O 18.76 CB 17.16 CG1 15.49 CG2 14.54
B HIS E 3 -140.2 134.0 N 17.87 CA 19.98 C 18.12 O 16.8 CB 20.21 CG 20.51 ND1 19.98 CD2 19.43 CE1 20.09 NE2 20.86
B VAL E 1 -129.2 137.8 N 17.01 CA 17.89 C 19.06 O 17.58 CB 17.61 CG1 15.41 CG2 17.36
B GLU - 0 -131.7 63.6 N 18.57 CA 18.41 C 17.68 O 19.09 CB 18.31 CG 20.79 CD 20.17 OE1 20.42 OE2 21.19
B PRO - 0 -76.1 157.9 N 17.28 CA 18.41 C 17.42 O 17.25 CB 19.67 CG 19.14 CD 17.96
B PHE E 0 -94.6 154.4 N 18.36 CA 18.83 C 18.81 O 18.99 CB 18.93 CG 19.62 CD1 19.54 CD2 19.31 CE1 18.25 CE2 19.87 CZ 19.8
B PHE E 1 -136.6 155.0 N 17.99 CA 17.14 C 17.09 O 18.4 CB 16.54 CG 17.51 CD1 17.06 CD2 17.1 CE1 17.73 CE2 15.81 CZ 17.63
B ASP - 0 -110.4 85.9 N 17.09 CA 16.18 C 16.1 O 16.42 CB 17.24 CG 16.86 OD1 16.42 OD2 17.58
B PRO H 0 -51.3 -41.8 N 16.3 CA 16.7 C 17.4 O 17.9 CB 16.54 CG 16.66 CD 17.04
B GLN H 1 -61.4 -36.6 N 15.49 CA 16.56 C 17.94 O 17.19 CB 15.8 CG 14.8 CD 16.29 OE1 18.08 NE2 17.87
B THR H 13 -52.8 -38.8 N 17.61 CA 16.05 C 17.09 O 18.56 CB 16.79 OG1 17.75 CG2 16.46
B HIS H 0 -90.1 -48.5 N 16.84 CA 17.23 C 17.1 O 19.26 CB 16.08 CG 17.27 ND1 17.86 CD2 16.54 CE1 17.48 NE2 17.54
B THR H 22 -57.5 -43.6 N 16.5 CA 17.68 C 17.51 O 17.73 CB 17.14 OG1 16.65 CG2 17.19
B ASP T 101 -56.1 -28.3 N 17.28 CA 19.07 C 18.39 O 18.61 CB 16.92 CG 18.99 OD1 17.05 OD2 21.94
B ARG T 78 -86.2 3.9 N 18.69 CA 19.03 C 18.3 O 18.8 CB 18.4 CG 18.02 CD 18.25 NE 21.78 CZ 20.17 NH1 18.46 NH2 18.88
B GLY T 64 98.1 -1.6 N 17.33 CA 16.77 C 17.94 O 17.99
B ILE - 16 -77.8 129.9 N 17.83 CA 17.15 C 17.4 O 17.54 CB 16.67 CG1 18.93 CG2 16.7 CD1 19.98
B PRO - 72 -66.1 140.2 N 17.17 CA 16.61 C 16.72 O 16.73 CB 16.19 CG 16.37 CD 16.54
B PHE H 11 -53.2 -42.6 N 17.4 CA 17.81 C 17.67 O 16.84 CB 18.09 CG 19.48 CD1 20.13 CD2 20.89 CE1 19.76 CE2 19.28 CZ 19.55
B GLU H 66 -68.8 -31.1 N 19.31 CA 18.63 C 18.46 O 19.02 CB 20.84 CG 25.57 CD 33.71 OE1 35.3 OE2 35.42
B VAL H 37 -67.7 -43.3 N 16.82 CA 18.08 C 18.13 O 16.93 CB 19.12 CG1 17.07 CG2 16.02
B VAL H 1 -59.4 -48.1 N 17.86 CA 17.0 C 17.76 O 16.09 CB 16.89 CG1 16.85 CG2 16.19
B LEU H 0 -68.3 -37.7 N 18.25 CA 17.65 C 16.09 O 16.8 CB 18.07 CG 18.41 CD1 17.4 CD2 20.47
B ALA H 6 -59.1 -54.6 N 16.05 CA 17.2 C 16.44 O 15.88 CB 18.47
B GLY H 0 -54.7 -47.5 N 15.08 CA 15.74 C 16.09 O 15.06
B ILE H 3 -64.4 -54.8 N 16.29 CA 15.73 C 15.76 O 15.24 CB 17.1 CG1 15.87 CG2 15.46 CD1 15.77
B ARG H 13 -55.3 -42.4 N 15.47 CA 15.29 C 15.56 O 15.35 CB 15.88 CG 16.78 CD 15.6 NE 16.06 CZ 15.85 NH1 15.84 NH2 14.74
B ALA H 22 -57.5 -49.8 N 15.47 CA 15.58 C 15.12 O 17.24 CB 14.93
B ALA H 0 -63.3 -38.3 N 14.77 CA 15.61 C 16.55 O 15.57 CB 15.72
B LEU H 3 -62.0 -37.7 N 15.63 CA 15.78 C 16.82 O 16.5 CB 16.33 CG 16.25 CD1 17.39 CD2 15.55
B ARG H 36 -60.7 -47.3 N 16.61 CA 17.15 C 17.71 O 17.5 CB 17.24 CG 17.18 CD 18.42 NE 20.38 CZ 19.38 NH1 17.98 NH2 19.73
B ASP H 26 -61.9 -38.7 N 16.67 CA 18.23 C 18.55 O 18.88 CB 17.68 CG 17.69 OD1 16.93 OD2 18.15
B GLY I 1 -59.5 -51.0 N 16.25 CA 16.38 C 18.16 O 18.23
B GLU I 43 -57.5 -62.3 N 17.96 CA 18.59 C 19.38 O 20.05 CB 17.96 CG 20.49 CD 25.48 OE1 25.33 OE2 28.59
B LYS I 88 -74.2 -34.5 N 19.01 CA 19.31 C 20.83 O 20.87 CB 18.73 CG 21.65 CD 21.4 CE 23.41 NZ 27.99
B LEU I 108 -93.8 -32.5 N 19.73 CA 18.24 C 18.65 O 19.45 CB 18.84 CG 19.05 CD1 16.25 CD2 18.69
B LEU I 30 -108.1 -12.8 N 18.46 CA 16.58 C 19.15 O 19.02 CB 18.27 CG 18.06 CD1 16.74 CD2 16.41
B GLY - 51 73.7 15.4 N 19.41 CA 17.07 C 18.46 O 20.98
B ILE - 4 -89.0 117.2 N 18.12 CA 19.93 C 19.53 O 18.49 CB 19.09 CG1 19.9 CG2 18.44 CD1 18.32
B ARG E 144 -78.8 156.5 N 21.15 CA 20.25 C 17.41 O 17.77 CB 21.81 CG 26.27 CD 32.04 NE 39.98 CZ 42.38 NH1 36.39 NH2 47.65
B HIS E 28 -147.0 155.5 N 18.94 CA 19.5 C 19.63 O 19.93 CB 17.39 CG 18.99 ND1 17.38 CD2 18.62 CE1 17.41 NE2 19.16
B GLY - 3 -147.5 95.5 N 19.66 CA 19.51 C 18.38 O 17.73
B LEU E 2 -66.7 133.1 N 18.91 CA 18.88 C 17.23 O 16.67 CB 18.36 CG 17.66 CD1 16.01 CD2 16.47
B ILE E 0 -114.3 118.9 N 17.64 CA 17.89 C 17.58 O 17.27 CB 17.83 CG1 17.76 CG2 17.94 CD1 15.72
B LEU E 0 -82.7 119.6 N 17.17 CA 17.39 C 17.7 O 17.05 CB 16.59 CG 17.14 CD1 18.25 CD2 15.49
B SER E 0 -103.6 138.3 N 18.15 CA 16.99 C 17.33 O 16.14 CB 16.98 OG 17.38
B PHE E 0 -93.5 140.4 N 17.12 CA 16.62 C 17.16 O 17.12 CB 17.49 CG 16.87 CD1 16.25 CD2 18.21 CE1 17.18 CE2 17.39 CZ 16.69
B LEU E 5 -79.7 109.2 N 18.01 CA 17.45 C 17.47 O 16.78 CB 17.5 CG 18.05 CD1 17.3 CD2 15.37
B ARG T 0 -69.0 -20.1 N 17.54 CA 17.25 C 18.33 O 18.81 CB 17.5 CG 18.82 CD 18.15 NE 20.02 CZ 19.76 NH1 18.63 NH2 18.46
B HIS T 67 -80.8 -9.3 N 18.78 CA 18.0 C 18.97 O 20.59 CB 19.01 CG 19.29 ND1 18.49 CD2 18.4 CE1 18.34 NE2 18.36
B LEU S 30 -93.9 172.1 N 18.98 CA 19.13 C 19.97 O 18.96 CB 20.37 CG 19.8 CD1 18.4 CD2 17.23
B SER - 45 -69.9 157.4 N 19.07 CA 18.95 C 19.48 O 19.67 CB 20.47 OG 22.19
B GLU H 37 -60.0 -32.0 N 19.44 CA 19.64 C 19.87 O 19.36 CB 19.14 CG 20.21 CD 23.99 OE1 26.83 OE2 24.95
B GLU H 134 -64.9 -42.1 N 19.26 CA 21.04 C 19.35 O 19.57 CB 24.79 CG 30.38 CD 41.0 OE1 41.86 OE2 47.42
B GLN H 69 -59.8 -43.4 N 19.29 CA 19.45 C 18.35 O 18.02 CB 19.49 CG 19.31 CD 23.26 OE1 24.95 NE2 21.32
B ALA H 0 -60.8 -41.0 N 17.68 CA 18.15 C 17.19 O 14.81 CB 17.64
B GLN H 45 -57.4 -42.4 N 18.59 CA 18.68 C 17.87 O 18.31 CB 18.03 CG 18.2 CD 19.55 OE1 18.91 NE2 19.97
B LYS H 131 -66.6 -32.3 N 17.33 CA 18.23 C 18.79 O 19.0 CB 20.94 CG 24.23 CD 28.35 CE 38.92 NZ 43.48
B THR H 4 -73.0 -43.3 N 17.42 CA 17.21 C 18.13 O 19.57 CB 17.08 OG1 16.68 CG2 15.86
B LEU H 1 -54.1 -36.1 N 17.66 CA 17.76 C 18.92 O 18.83 CB 17.61 CG 17.74 CD1 17.23 CD2 18.11
B ASP H 79 -66.9 -45.8 N 18.11 CA 18.4 C 18.07 O 17.65 CB 19.21 CG 18.79 OD1 18.98 OD2 17.95
B GLN H 66 -60.7 -27.4 N 17.88 CA 19.19 C 19.22 O 20.9 CB 20.31 CG 18.84 CD 20.22 OE1 21.05 NE2 20.96
B ALA H 0 -89.0 -17.5 N 17.94 CA 19.06 C 18.04 O 16.82 CB 18.33
B LEU G 25 -53.9 -48.3 N 17.36 CA 18.11 C 17.62 O 18.1 CB 17.68 CG 18.8 CD1 15.55 CD2 17.35
B PRO G 4 -65.6 -21.5 N 17.76 CA 17.79 C 18.28 O 18.6 CB 18.61 CG 18.27 CD 17.73
B PHE G 3 -94.7 4.3 N 18.21 CA 19.04 C 18.28 O 18.0 CB 19.98 CG 21.21 CD1 23.69 CD2 20.65 CE1 24.03 CE2 24.16 CZ 25.99
B ARG G 11 -48.8 -37.1 N 17.54 CA 17.46 C 17.85 O 18.09 CB 18.16 CG 17.54 CD 18.49 NE 17.81 CZ 18.83 NH1 17.46 NH2 19.22
B ASP G 54 -61.7 -14.0 N 17.68 CA 18.48 C 19.05 O 20.92 CB 19.59 CG 20.21 OD1 19.35 OD2 19.2
B ALA G 11 -81.4 -14.5 N 17.82 CA 16.68 C 17.81 O 17.41 CB 17.11
B PHE E 11 -118.7 134.4 N 18.29 CA 18.52 C 18.83 O 18.57 CB 17.53 CG 18.67 CD1 17.84 CD2 17.95 CE1 16.99 CE2 17.78 CZ 17.73
B ILE E 39 -85.2 -19.1 N 18.51 CA 19.44 C 20.22 O 18.48 CB 19.62 CG1 18.54 CG2 19.68 CD1 20.39
B ALA E 0 -166.4 166.9 N 19.37 CA 19.32 C 19.15 O 18.1 CB 16.89
B VAL E 0 -110.5 154.6 N 18.02 CA 17.3 C 18.11 O 18.0 CB 17.68 CG1 17.31 CG2 17.75
B GLY E 0 -136.4 175.5 N 16.61 CA 16.2 C 16.6 O 15.95
B LEU E 0 -134.2 126.4 N 16.68 CA 17.05 C 17.77 O 18.13 CB 17.09 CG 17.62 CD1 15.5 CD2 17.84
B ASP E 4 -142.5 -168.8 N 17.67 CA 18.06 C 17.79 O 16.31 CB 18.07 CG 18.69 OD1 18.04 OD2 18.3
B SER S 10 86.9 -167.2 N 16.7 CA 18.16 C 19.21 O 18.78 CB 18.05 OG 18.58
B SER - 19 -51.2 118.3 N 19.68 CA 19.61 C 19.94 O 21.67 CB 20.77 OG 21.68
B GLU - 1 -87.4 -55.4 N 18.85 CA 20.86 C 21.93 O 20.09 CB 20.44 CG 21.2 CD 23.44 OE1 23.75 OE2 23.27
B VAL T 85 -66.1 131.8 N 21.95 CA 24.33 C 23.28 O 21.46 CB 25.27 CG1 26.08 CG2 24.07
B GLY T 57 95.6 -9.0 N 23.48 CA 22.22 C 22.13 O 22.25
B HIS - 39 -130.1 76.7 N 21.36 CA 20.95 C 20.84 O 19.52 CB 20.52 CG 20.24 ND1 20.22 CD2 20.29 CE1 20.06 NE2 20.93
B PRO - 31 -66.3 160.1 N 21.68 CA 21.34 C 20.98 O 20.29 CB 22.32 CG 22.45 CD 22.59
B PRO G 0 -51.1 -34.9 N 20.64 CA 20.98 C 22.12 O 20.83 CB 21.05 CG 19.9 CD 20.72
B SER G 32 -60.6 -23.3 N 22.69 CA 22.7 C 21.71 O 21.21 CB 22.44 OG 22.68
B LYS G 56 -63.5 -21.0 N 19.94 CA 19.95 C 21.82 O 19.72 CB 18.93 CG 19.65 CD 19.45 CE 18.3 NZ 19.1
B PHE G 0 -126.6 28.4 N 21.15 CA 20.95 C 21.54 O 22.25 CB 19.89 CG 18.44 CD1 19.22 CD2 18.58 CE1 19.75 CE2 19.49 CZ 19.04
B GLN H 50 -62.7 -41.0 N 20.25 CA 22.2 C 22.39 O 20.29 CB 22.66 CG 20.81 CD 24.19 OE1 25.29 NE2 23.36
B ARG H 116 -72.4 -40.3 N 22.37 CA 22.81 C 21.19 O 20.05 CB 24.88 CG 24.73 CD 27.12 NE 29.22 CZ 28.86 NH1 31.2 NH2 26.42
B VAL H 0 -65.1 -36.6 N 20.67 CA 20.77 C 20.22 O 19.41 CB 19.85 CG1 20.56 CG2 18.38
B PHE H 0 -70.6 -39.7 N 18.77 CA 19.7 C 20.48 O 20.72 CB 19.13 CG 18.78 CD1 19.29 CD2 18.31 CE1 18.0 CE2 17.9 CZ 17.89
B ASP H 59 -56.2 -50.4 N 20.51 CA 20.8 C 19.3 O 20.42 CB 20.73 CG 23.72 OD1 23.17 OD2 23.2
B ARG H 64 -64.4 -43.1 N 19.15 CA 18.55 C 19.3 O 20.17 CB 17.56 CG 18.5 CD 17.39 NE 17.88 CZ 18.04 NH1 18.27 NH2 14.81
B ALA H 0 -58.4 -45.5 N 19.9 CA 20.74 C 20.05 O 19.81 CB 18.64
B ARG H 79 -62.1 -35.3 N 18.72 CA 20.08 C 20.13 O 19.3 CB 20.23 CG 20.89 CD 20.06 NE 22.58 CZ 22.96 NH1 18.5 NH2 21.74
B SER H 53 -65.6 -38.8 N 20.34 CA 20.99 C 20.22 O 19.99 CB 20.64 OG 22.68
B GLU H 34 -80.9 -2.9 N 20.23 CA 19.79 C 19.22 O 20.33 CB 20.09 CG 19.03 CD 19.14 OE1 18.85 OE2 19.94
B GLY T 45 116.4 -0.0 N 18.69 CA 20.1 C 20.16 O 18.33
B PHE - 6 -85.5 145.3 N 19.01 CA 18.91 C 19.96 O 20.37 CB 18.21 CG 19.34 CD1 18.89 CD2 19.66 CE1 18.71 CE2 18.56 CZ 18.56
B LEU E 63 -81.1 173.3 N 18.99 CA 19.59 C 18.53 O 16.96 CB 18.18 CG 19.86 CD1 17.91 CD2 17.0
B THR E 0 -131.2 149.2 N 18.13 CA 18.6 C 18.1 O 19.29 CB 18.22 OG1 19.97 CG2 17.79
B VAL E 0 -146.4 163.4 N 17.45 CA 17.59 C 19.24 O 17.74 CB 18.33 CG1 18.9 CG2 16.47
B ALA E 0 -158.2 148.2 N 17.66 CA 19.1 C 20.38 O 21.86 CB 19.84
B HIS E 6 -73.3 137.7 N 18.95 CA 20.07 C 22.15 O 20.1 CB 19.37 CG 20.48 ND1 18.92 CD2 19.33 CE1 18.61 NE2 19.07
B ALA E 0 -170.7 131.5 N 22.72 CA 23.36 C 24.38 O 23.53 CB 20.21
B GLY S 0 85.4 18.4 N 23.41 CA 24.48 C 24.72 O 23.76
B GLU S 7 -83.8 -68.5 N 24.4 CA 23.27 C 24.76 O 25.52 CB 22.68 CG 22.69 CD 23.57 OE1 22.03 OE2 24.59
B GLU S 53 -111.1 -15.1 N 24.63 CA 25.26 C 26.47 O 26.25 CB 24.33 CG 26.33 CD 25.25 OE1 26.9 OE2 26.67
B GLY S 0 -82.7 153.5 N 25.19 CA 25.64 C 26.0 O 25.82
B PRO - 31 -71.4 160.5 N 27.07 CA 25.99 C 26.31 O 26.99 CB 25.81 CG 24.55 CD 25.25
B PRO H 8 -48.8 -27.9 N 25.49 CA 25.74 C 26.23 O 26.07 CB 26.06 CG 27.58 CD 27.34
B GLU H 113 -67.7 -30.6 N 24.97 CA 25.71 C 24.26 O 22.39 CB 26.85 CG 30.14 CD 30.1 OE1 28.95 OE2 33.78
B TYR H 30 -67.3 -31.3 N 22.23 CA 22.59 C 22.41 O 22.76 CB 22.24 CG 22.59 CD1 22.54 CD2 22.1 CE1 20.56 CE2 22.08 CZ 22.29 OH 23.09
B ILE H 0 -69.7 -38.4 N 22.81 CA 22.48 C 22.16 O 22.11 CB 24.8 CG1 24.43 CG2 22.07 CD1 24.1
B TRP H 55 -61.7 -44.2 N 22.2 CA 23.18 C 22.47 O 22.55 CB 24.53 CG 27.54 CD1 26.31 CD2 27.26 NE1 27.31 CE2 26.09 CE3 26.82 CZ2 28.62 CZ3 27.06 CH2 27.61
B GLU H 47 -63.4 -44.6 N 20.58 CA 21.44 C 21.5 O 21.0 CB 22.3 CG 21.52 CD 24.21 OE1 24.21 OE2 25.03
B ALA H 0 -59.9 -40.5 N 21.4 CA 20.96 C 21.21 O 20.83 CB 21.28
B LEU H 9 -71.0 -46.0 N 20.39 CA 21.2 C 21.57 O 19.21 CB 23.55 CG 22.98 CD1 22.0 CD2 22.48
B ASP H 69 -93.6 -34.2 N 21.76 CA 21.6 C 22.29 O 22.72 CB 21.72 CG 25.78 OD1 25.47 OD2 27.66
B LEU T 46 -91.1 -46.4 N 21.01 CA 20.27 C 21.46 O 19.84 CB 19.55 CG 20.21 CD1 19.85 CD2 17.74
B LEU S 0 -89.5 -13.2 N 19.59 CA 19.74 C 20.17 O 18.12 CB 18.9 CG 20.68 CD1 19.73 CD2 18.92
B LYS - 107 54.2 45.8 N 19.95 CA 19.48 C 18.47 O 19.03 CB 20.95 CG 21.8 CD 23.22 CE 29.69 NZ 33.03
B VAL - 15 -66.1 149.8 N 19.34 CA 19.22 C 19.78 O 19.65 CB 19.92 CG1 18.81 CG2 18.58
B GLU S 85 -78.9 -26.7 N 20.96 CA 21.31 C 20.78 O 19.29 CB 21.01 CG 21.5 CD 23.93 OE1 25.2 OE2 23.54
B ARG E 1 -153.8 167.3 N 20.17 CA 21.24 C 21.56 O 20.03 CB 20.3 CG 21.89 CD 21.57 NE 21.3 CZ 21.03 NH1 20.11 NH2 18.54
B ILE E 1 -110.5 135.5 N 20.85 CA 20.57 C 22.0 O 20.31 CB 20.4 CG1 21.59 CG2 19.7 CD1 21.35
B ASP E 0 -101.6 125.0 N 21.37 CA 21.34 C 22.75 O 22.4 CB 20.53 CG 22.01 OD1 22.42 OD2 18.89
B HIS E 0 72.6 -102.4 N 22.26 CA 22.79 C 24.14 O 23.05 CB 21.39 CG 23.13 ND1 22.54 CD2 22.39 CE1 23.05 NE2 22.06
B GLY - 0 81.6 2.7 N 22.49 CA 22.82 C 23.61 O 24.51
B VAL G 6 -53.2 -33.1 N 24.34 CA 25.47 C 26.63 O 28.28 CB 23.03 CG1 24.38 CG2 22.45
B ARG G 78 -76.8 11.6 N 26.56 CA 27.21 C 27.69 O 27.82 CB 26.79 CG 27.46 CD 26.93 NE 30.32 CZ 31.28 NH1 29.31 NH2 30.61
B ALA G 0 -75.3 -15.2 N 26.43 CA 29.32 C 30.87 O 32.92 CB 26.32
B PHE S 66 -65.5 -33.7 N 31.25 CA 33.18 C 34.25 O 33.38 CB 32.61 CG 32.62 CD1 33.38 CD2 31.69 CE1 32.73 CE2 31.82 CZ 32.36
B GLU S 115 -56.8 -47.3 N 35.01 CA 35.56 C 35.75 O 36.24 CB 34.44 CG 35.24 CD 37.44 OE1 37.27 OE2 35.9
B ASP - 42 -92.0 113.7 N 32.59 CA 31.81 C 31.72 O 31.69 CB 31.42 CG 31.9 OD1 32.02 OD2 33.52
B GLU H 109 -66.9 -51.9 N 31.09 CA 30.29 C 30.71 O 31.89 CB 29.87 CG 29.34 CD 28.53 OE1 30.47 OE2 26.37
B ARG H 195 -53.0 -48.8 N 30.79 CA 30.83 C 31.11 O 29.96 CB 34.21 CG 36.09 CD 40.87 NE 45.21 CZ 47.07 NH1 45.89 NH2 50.05
B LEU H 0 -56.8 -51.6 N 31.22 CA 30.45 C 30.27 O 29.98 CB 28.84 CG 26.69 CD1 26.73 CD2 25.19
B ARG H 141 -60.8 -48.9 N 30.35 CA 31.47 C 29.95 O 29.97 CB 32.25 CG 33.27 CD 36.56 NE 39.18 CZ 41.59 NH1 39.7 NH2 43.45
B ARG H 55 -61.2 -50.5 N 29.96 CA 29.52 C 28.94 O 29.05 CB 28.91 CG 31.78 CD 32.2 NE 30.58 CZ 31.23 NH1 28.39 NH2 32.99
B LEU H 1 -43.6 -48.4 N 28.54 CA 27.82 C 27.79 O 26.83 CB 26.7 CG 26.96 CD1 25.9 CD2 25.43
B ILE H 34 -74.6 -48.0 N 28.2 CA 28.0 C 28.16 O 27.38 CB 28.11 CG1 28.34 CG2 26.85 CD1 27.8
B ASP H 104 -54.1 -40.2 N 28.26 CA 29.26 C 29.7 O 30.29 CB 32.44 CG 37.07 OD1 36.65 OD2 38.92
B GLU H 104 -96.5 -8.9 N 30.77 CA 29.91 C 27.13 O 24.42 CB 31.16 CG 33.77 CD 37.46 OE1 35.67 OE2 37.8
B GLN T 83 55.4 44.8 N 26.28 CA 26.96 C 26.14 O 24.3 CB 28.06 CG 29.7 CD 30.55 OE1 29.09 NE2 26.91
B ILE - 17 -76.4 121.8 N 24.95 CA 24.3 C 23.48 O 24.03 CB 24.59 CG1 25.83 CG2 22.29 CD1 27.74
B PRO - 17 -68.5 140.1 N 22.31 CA 22.25 C 22.37 O 20.23 CB 21.83 CG 21.33 CD 21.53
B LEU E 1 -109.4 128.2 N 22.0 CA 21.73 C 21.9 O 22.66 CB 20.69 CG 21.45 CD1 21.81 CD2 21.92
B THR E 0 -92.9 98.8 N 22.04 CA 20.79 C 21.8 O 22.95 CB 20.8 OG1 20.53 CG2 19.17
B VAL E 0 -92.9 148.5 N 21.59 CA 20.87 C 19.56 O 17.74 CB 21.3 CG1 20.88 CG2 20.06
B CYS - 0 -135.5 85.8 N 19.2 CA 19.72 C 21.78 O 20.73 CB 19.43 SG 18.99
B PRO H 0 -56.6 -54.0 N 18.9 CA 20.67 C 21.72 O 20.99 CB 21.56 CG 21.65 CD 19.87
B LEU H 27 -65.9 -30.4 N 20.82 CA 21.42 C 21.64 O 22.26 CB 20.39 CG 23.44 CD1 19.8 CD2 19.0
B SER H 0 -64.3 -56.4 N 20.93 CA 21.46 C 21.79 O 23.09 CB 21.82 OG 21.65
B ASN H 0 -52.8 -34.7 N 21.68 CA 23.16 C 25.17 O 24.92 CB 23.08 CG 22.03 OD1 22.99 ND2 20.04
B THR H 39 -73.8 -51.1 N 23.3 CA 23.53 C 24.43 O 24.16 CB 24.24 OG1 27.25 CG2 26.09
B LYS H 72 -63.5 -20.6 N 23.69 CA 23.25 C 23.5 O 22.39 CB 22.57 CG 22.71 CD 23.68 CE 26.24 NZ 29.7
B LEU T 3 -106.5 6.0 N 23.66 CA 23.64 C 25.11 O 25.78 CB 22.8 CG 23.47 CD1 22.8 CD2 21.46
B CYS T 69 66.7 28.6 N 25.44 CA 26.27 C 27.2 O 30.32 CB 25.91 SG 27.37
B VAL S 36 -71.2 -34.2 N 27.26 CA 26.71 C 27.67 O 28.69 CB 26.29 CG1 25.26 CG2 24.99
B PHE S 33 -125.0 144.6 N 27.49 CA 27.61 C 27.67 O 27.08 CB 26.98 CG 26.1 CD1 24.53 CD2 24.62 CE1 25.83 CE2 24.54 CZ 24.98
B ASP S 163 -73.0 -21.0 N 29.81 CA 30.95 C 32.21 O 31.16 CB 34.78 CG 42.04 OD1 40.27 OD2 44.68
B ASP S 82 -161.9 153.5 N 30.38 CA 31.2 C 29.4 O 28.7 CB 31.15 CG 33.72 OD1 37.98 OD2 34.5
B SER G 56 -58.0 -22.0 N 28.57 CA 29.4 C 29.29 O 29.88 CB 30.28 OG 32.01
B GLN G 118 -94.0 -5.6 N 29.09 CA 28.28 C 28.03 O 27.5 CB 26.89 CG 28.94 CD 33.09 OE1 34.05 NE2 30.57
B HIS - 3 -66.1 139.9 N 26.46 CA 26.88 C 25.94 O 26.12 CB 27.66 CG 25.95 ND1 24.3 CD2 24.65 CE1 25.44 NE2 24.06
B THR - 16 -103.8 16.9 N 25.33 CA 25.67 C 25.51 O 26.41 CB 25.93 OG1 24.88 CG2 25.3
B ILE H 1 -62.3 -42.0 N 24.43 CA 24.81 C 24.83 O 25.61 CB 25.55 CG1 23.69 CG2 23.39 CD1 24.04
B LEU H 13 -71.8 -40.9 N 25.05 CA 26.01 C 24.8 O 24.35 CB 25.93 CG 26.53 CD1 25.08 CD2 23.87
B ASP H 88 -52.5 -44.6 N 24.64 CA 25.29 C 26.48 O 26.18 CB 25.77 CG 26.62 OD1 27.98 OD2 26.1
B LEU H 9 -41.7 -54.8 N 24.68 CA 25.12 C 26.77 O 25.8 CB 24.74 CG 24.33 CD1 21.65 CD2 26.45
B GLU H 105 -63.8 -24.3 N 27.06 CA 27.31 C 27.44 O 27.91 CB 27.51 CG 28.97 CD 31.29 OE1 32.46 OE2 32.92
B ARG T 90 -88.9 3.5 N 27.02 CA 26.58 C 28.49 O 30.04 CB 25.5 CG 24.91 CD 27.7 NE 27.72 CZ 26.91 NH1 25.87 NH2 27.13
B GLY T 32 89.6 10.7 N 25.96 CA 26.72 C 28.6 O 28.25
B VAL - 3 -69.8 139.7 N 25.15 CA 25.54 C 25.27 O 25.83 CB 26.17 CG1 22.68 CG2 26.42
B LYS - 27 -79.9 62.4 N 24.79 CA 24.19 C 23.31 O 22.54 CB 23.56 CG 23.98 CD 24.8 CE 25.1 NZ 23.02
B VAL E 0 -76.5 148.2 N 22.42 CA 21.25 C 22.59 O 21.57 CB 22.65 CG1 23.15 CG2 22.81
B THR E 0 -130.1 165.9 N 21.64 CA 20.21 C 20.88 O 22.1 CB 22.55 OG1 22.34 CG2 20.72
B VAL E 3 -108.6 130.6 N 20.83 CA 21.61 C 20.23 O 19.72 CB 20.02 CG1 18.44 CG2 21.72
B ASN - 0 -146.8 154.5 N 19.84 CA 19.66 C 20.0 O 19.39 CB 18.58 CG 19.57 OD1 22.42 ND2 17.91
B SER - 0 -82.4 -32.3 N 18.57 CA 18.72 C 19.16 O 18.88 CB 18.74 OG 18.3
B ASP B 3 75.2 -95.1 N 18.84 CA 19.25 C 19.13 O 19.73 CB 20.66 CG 20.78 OD1 20.69 OD2 21.38
B ASP S 4 -116.6 76.1 N 19.99 CA 20.52 C 20.09 O 19.53 CB 20.05 CG 22.27 OD1 20.47 OD2 22.21
B PRO H 1 -56.6 -39.6 N 20.68 CA 19.43 C 20.62 O 20.59 CB 19.67 CG 18.86 CD 19.02
B ALA H 5 -72.0 -19.5 N 21.01 CA 21.34 C 20.06 O 20.11 CB 18.78
B TYR H 2 -95.9 -28.4 N 19.93 CA 21.11 C 21.3 O 22.16 CB 21.26 CG 23.27 CD1 20.21 CD2 24.2 CE1 20.3 CE2 22.52 CZ 21.43 OH 21.94
B PHE H 3 -107.0 5.7 N 20.51 CA 20.88 C 21.85 O 22.84 CB 20.7 CG 20.5 CD1 20.52 CD2 20.23 CE1 21.93 CE2 20.88 CZ 20.97
B GLY T 66 75.5 23.3 N 21.85 CA 20.73 C 21.46 O 21.23
B GLY - 4 -164.6 141.5 N 20.71 CA 21.05 C 21.17 O 21.26
B TYR - 18 -93.7 -178.0 N 19.4 CA 19.46 C 19.44 O 19.39 CB 20.39 CG 20.24 CD1 20.89 CD2 19.97 CE1 20.34 CE2 18.82 CZ 19.72 OH 21.03
B VAL H 1 -51.8 -44.3 N 19.72 CA 20.33 C 19.73 O 20.36 CB 21.51 CG1 19.3 CG2 21.47
B THR H 0 -57.7 -40.5 N 20.04 CA 20.46 C 20.56 O 20.24 CB 21.37 OG1 20.93 CG2 22.84
B GLU H 50 -63.4 -33.3 N 21.01 CA 20.47 C 19.86 O 20.66 CB 20.83 CG 20.95 CD 20.86 OE1 21.74 OE2 22.25
B ASN H 0 -67.2 -44.4 N 19.28 CA 20.5 C 21.57 O 22.51 CB 21.48 CG 20.69 OD1 20.83 ND2 19.88
B PHE H 4 -55.9 -46.6 N 20.14 CA 21.41 C 24.01 O 24.1 CB 21.6 CG 21.25 CD1 24.19 CD2 20.41 CE1 24.93 CE2 21.49 CZ 21.84
B HIS H 41 -66.7 -34.2 N 23.92 CA 24.11 C 24.26 O 25.28 CB 25.54 CG 27.59 ND1 29.27 CD2 30.09 CE1 32.41 NE2 33.73
B ALA H 16 -60.9 -34.5 N 23.66 CA 24.14 C 25.4 O 25.92 CB 22.1
B LEU H 0 -71.1 -39.8 N 23.16 CA 25.69 C 26.33 O 26.13 CB 23.63 CG 23.77 CD1 23.73 CD2 21.5
B GLN H 79 -65.7 -42.7 N 24.51 CA 27.08 C 27.88 O 27.54 CB 26.59 CG 28.84 CD 33.19 OE1 33.98 NE2 34.58
B GLN H 134 -77.1 -31.9 N 28.73 CA 28.56 C 29.14 O 30.59 CB 27.46 CG 32.51 CD 36.23 OE1 36.33 NE2 34.43
B SER H 59 -110.5 -20.8 N 28.69 CA 27.34 C 27.63 O 29.92 CB 28.89 OG 28.42
B LEU H 47 -120.6 0.0 N 26.8 CA 27.19 C 29.5 O 30.85 CB 27.32 CG 28.06 CD1 26.22 CD2 27.04
B GLY - 54 63.5 39.6 N 27.35 CA 26.84 C 27.66 O 26.62
B THR - 66 -85.5 162.7 N 26.39 CA 27.85 C 29.73 O 29.94 CB 27.44 OG1 28.59 CG2 24.37
B GLU H 120 -59.1 -35.1 N 28.22 CA 32.33 C 30.58 O 28.42 CB 33.69 CG 32.0 CD 37.32 OE1 39.57 OE2 36.46
B GLU H 123 -67.9 -41.6 N 30.79 CA 33.15 C 30.3 O 27.96 CB 34.69 CG 39.52 CD 48.6 OE1 53.41 OE2 50.5
B GLN H 21 -63.6 -40.9 N 30.31 CA 28.98 C 27.35 O 26.3 CB 27.84 CG 26.91 CD 27.81 OE1 28.01 NE2 27.05
B ALA H 0 -57.7 -47.9 N 27.72 CA 26.56 C 25.84 O 23.57 CB 26.27
B ARG H 129 -60.7 -36.7 N 26.68 CA 24.74 C 25.33 O 23.07 CB 25.51 CG 29.57 CD 30.17 NE 31.83 CZ 32.6 NH1 34.73 NH2 31.72
B ARG H 75 -70.1 -43.9 N 24.98 CA 26.1 C 24.53 O 23.09 CB 27.67 CG 32.65 CD 38.32 NE 39.69 CZ 38.89 NH1 39.01 NH2 35.01
B LEU H 0 -60.6 -52.1 N 24.1 CA 24.22 C 23.4 O 21.9 CB 23.29 CG 24.82 CD1 24.11 CD2 22.19
B ALA H 5 -54.7 -46.5 N 23.64 CA 22.69 C 21.65 O 22.87 CB 21.11
B GLN H 95 -66.5 -37.9 N 21.42 CA 21.79 C 22.32 O 22.36 CB 22.36 CG 21.16 CD 21.91 OE1 20.08 NE2 19.81
B ASN H 16 -53.1 -44.0 N 21.69 CA 21.72 C 22.29 O 23.29 CB 20.82 CG 21.21 OD1 20.72 ND2 19.93
B SER H 4 -67.4 -36.2 N 21.33 CA 21.45 C 21.94 O 21.54 CB 19.4 OG 18.56
B LEU H 29 -66.4 -43.3 N 20.78 CA 21.85 C 21.4 O 22.69 CB 21.22 CG 22.5 CD1 21.01 CD2 19.36
B ASP H 89 -63.9 -36.6 N 20.7 CA 22.38 C 21.83 O 22.51 CB 23.03 CG 25.47 OD1 23.57 OD2 27.49
B ALA T 8 -81.3 3.0 N 21.41 CA 23.25 C 21.65 O 22.51 CB 21.49
B ARG - 105 -59.4 147.8 N 20.24 CA 21.96 C 24.27 O 23.48 CB 21.65 CG 21.83 CD 21.25 NE 21.47 CZ 23.8 NH1 25.45 NH2 22.73
B LEU - 49 -97.6 -14.5 N 23.96 CA 23.71 C 24.17 O 24.12 CB 20.81 CG 22.18 CD1 20.98 CD2 23.64
B VAL - 98 -136.4 360.0 N 24.29 CA 24.73 C 24.98 O 24.65 CB 24.3 CG1 22.79 CG2 26.64
