A LYS - 164 360.0 -22.2 N 55.62 CA 54.72 C 57.24 O 62.5 CB 63.46 CG 67.65 CD 75.52 CE 80.28 NZ 78.76
A LYS - 181 -126.5 -30.1 N 50.61 CA 51.76 C 47.38 O 50.98 CB 53.56 CG 58.85 CD 62.56 CE 65.62 NZ 55.6
A ILE E 66 -125.2 123.3 N 41.24 CA 37.23 C 32.27 O 31.02 CB 34.62 CG1 38.37 CG2 43.16 CD1 45.36
A GLU E 138 -86.6 132.5 N 35.18 CA 32.55 C 30.88 O 29.45 CB 35.48 CG 37.19 CD 44.36 OE1 46.04 OE2 42.45
A PHE E 28 -140.1 118.8 N 26.38 CA 25.83 C 24.0 O 25.36 CB 23.54 CG 25.22 CD1 23.85 CD2 23.58 CE1 22.71 CE2 27.08 CZ 20.78
A GLU T 117 51.3 49.4 N 25.66 CA 24.3 C 26.05 O 24.35 CB 23.99 CG 22.18 CD 24.95 OE1 23.59 OE2 26.5
A GLY T 61 82.8 -0.7 N 22.11 CA 25.76 C 29.31 O 24.22
A LYS E 131 -127.1 149.2 N 29.07 CA 28.39 C 34.24 O 35.42 CB 27.23 CG 36.36 CD 39.89 CE 40.36 NZ 37.07
A THR E 75 -95.5 137.3 N 29.66 CA 33.64 C 35.21 O 33.03 CB 32.87 OG1 42.25 CG2 47.5
A TYR E 36 -134.0 158.1 N 35.62 CA 33.12 C 34.64 O 35.05 CB 34.8 CG 33.92 CD1 34.16 CD2 29.12 CE1 32.69 CE2 28.88 CZ 23.51 OH 28.79
A ASP S 23 -67.3 -48.1 N 37.43 CA 42.32 C 41.04 O 40.89 CB 41.05 CG 46.39 OD1 48.26 OD2 47.03
A TYR E 91 -129.8 142.9 N 40.83 CA 42.4 C 34.75 O 35.32 CB 46.64 CG 48.86 CD1 54.3 CD2 47.83 CE1 57.44 CE2 52.71 CZ 58.95 OH 69.0
A VAL E 20 -135.2 106.9 N 32.24 CA 34.4 C 39.79 O 39.87 CB 36.62 CG1 35.62 CG2 32.53
A PHE E 22 -119.8 152.0 N 31.55 CA 37.36 C 35.9 O 35.54 CB 42.77 CG 41.25 CD1 43.29 CD2 42.84 CE1 45.17 CE2 44.82 CZ 43.8
A ASP E 79 -80.3 125.8 N 34.05 CA 35.88 C 35.7 O 38.95 CB 39.31 CG 43.78 OD1 52.31 OD2 50.95
A VAL E 2 -122.2 134.1 N 29.09 CA 30.1 C 31.39 O 29.9 CB 33.3 CG1 36.34 CG2 29.14
A ASP - 75 -99.2 95.0 N 29.81 CA 35.74 C 34.22 O 37.41 CB 38.03 CG 41.39 OD1 40.57 OD2 46.54
A ILE - 19 -91.4 -62.3 N 27.48 CA 24.64 C 29.21 O 26.01 CB 28.08 CG1 32.87 CG2 27.57 CD1 34.23
A GLU S 45 -85.7 129.5 N 24.0 CA 24.74 C 30.0 O 24.35 CB 26.24 CG 25.94 CD 30.11 OE1 29.24 OE2 29.5
A ASP T 59 -40.3 115.6 N 26.68 CA 25.13 C 23.51 O 27.73 CB 26.98 CG 26.32 OD1 28.06 OD2 24.7
A GLY T 19 79.0 -4.0 N 28.77 CA 27.68 C 31.06 O 31.65
A LYS - 120 -81.7 150.1 N 28.65 CA 29.42 C 26.55 O 28.78 CB 29.69 CG 28.23 CD 34.41 CE 35.45 NZ 33.01
A PRO - 70 -58.9 158.9 N 26.98 CA 26.81 C 28.46 O 27.93 CB 29.61 CG 26.15 CD 25.66
A PRO - 51 -63.4 154.0 N 32.07 CA 31.49 C 28.23 O 29.3 CB 32.48 CG 35.5 CD 34.01
A LEU E 51 -112.9 143.4 N 28.45 CA 24.98 C 31.11 O 29.15 CB 24.18 CG 28.76 CD1 25.31 CD2 24.23
A LYS E 85 -81.6 130.6 N 24.8 CA 25.17 C 25.53 O 27.4 CB 24.46 CG 31.49 CD 31.0 CE 38.36 NZ 37.9
A LEU E 1 -118.5 108.5 N 25.04 CA 25.23 C 32.19 O 33.67 CB 28.64 CG 30.48 CD1 31.2 CD2 33.33
A PRO E 31 -84.0 135.9 N 34.17 CA 30.22 C 27.79 O 33.29 CB 27.56 CG 28.48 CD 29.16
A ILE E 4 -159.8 144.0 N 34.5 CA 36.92 C 37.41 O 38.01 CB 38.86 CG1 41.54 CG2 38.06 CD1 39.9
A ASN - 40 -104.8 163.1 N 39.3 CA 46.06 C 47.03 O 45.05 CB 42.68 CG 40.93 OD1 35.93 ND2 39.98
A VAL T 97 -58.6 -39.3 N 51.22 CA 53.41 C 53.56 O 55.39 CB 59.08 CG1 59.16 CG2 58.28
A SER T 106 -70.9 -4.7 N 55.28 CA 59.1 C 57.69 O 56.1 CB 62.29 OG 65.72
A ASP - 58 -80.5 137.2 N 53.98 CA 52.26 C 50.16 O 47.3 CB 47.73 CG 49.9 OD1 51.19 OD2 45.98
A ASN - 89 -77.7 121.0 N 47.32 CA 45.13 C 47.91 O 47.52 CB 42.09 CG 46.53 OD1 47.32 ND2 48.35
A PRO H 31 -50.8 -38.1 N 48.6 CA 46.1 C 45.03 O 42.52 CB 43.79 CG 44.74 CD 45.82
A TYR H 104 -69.4 -36.0 N 45.56 CA 44.08 C 41.43 O 43.51 CB 45.19 CG 55.17 CD1 53.21 CD2 54.23 CE1 56.78 CE2 58.85 CZ 59.26 OH 59.72
A THR H 73 -71.0 -45.4 N 43.25 CA 43.18 C 37.79 O 35.42 CB 46.16 OG1 47.83 CG2 40.59
A ALA H 9 -60.4 -31.8 N 36.97 CA 38.1 C 37.35 O 30.66 CB 34.83
A ALA H 0 -76.5 -44.7 N 35.81 CA 35.43 C 33.56 O 30.31 CB 31.62
A ASP H 53 -58.3 -44.8 N 32.23 CA 35.87 C 31.47 O 33.57 CB 42.42 CG 43.46 OD1 38.48 OD2 39.88
A ASN H 104 -55.7 -47.7 N 31.0 CA 33.03 C 32.75 O 28.47 CB 32.17 CG 43.42 OD1 45.8 ND2 41.7
A PHE H 5 -57.1 -51.5 N 27.76 CA 27.63 C 24.67 O 23.99 CB 29.63 CG 27.29 CD1 22.78 CD2 24.24 CE1 24.83 CE2 24.58 CZ 26.42
A LEU H 1 -62.6 -37.6 N 24.31 CA 28.01 C 27.86 O 24.86 CB 31.55 CG 28.82 CD1 32.58 CD2 28.05
A ALA H 59 -68.7 -48.8 N 27.94 CA 27.8 C 27.67 O 27.42 CB 28.29
A ARG H 123 -50.1 -46.1 N 25.06 CA 21.93 C 25.55 O 22.47 CB 24.48 CG 22.29 CD 24.3 NE 19.96 CZ 18.8 NH1 19.02 NH2 19.1
A TYR H 46 -101.1 4.9 N 22.62 CA 22.19 C 23.38 O 22.65 CB 22.21 CG 22.88 CD1 23.2 CD2 22.12 CE1 20.92 CE2 24.03 CZ 20.76 OH 23.5
A GLU T 165 50.1 48.8 N 24.48 CA 27.35 C 30.81 O 27.62 CB 27.18 CG 25.8 CD 34.08 OE1 35.95 OE2 29.79
A LEU - 16 -93.0 153.8 N 28.88 CA 28.09 C 30.11 O 28.6 CB 22.37 CG 26.33 CD1 28.6 CD2 31.56
A PRO - 16 -51.1 131.5 N 28.28 CA 24.39 C 28.0 O 24.6 CB 31.62 CG 26.38 CD 24.94
A MET G 108 -63.4 -18.5 N 28.29 CA 32.16 C 32.29 O 31.06 CB 38.1 CG 42.03 SD 46.7 CE 43.41
A SER G 61 -60.7 -16.5 N 32.21 CA 33.23 C 34.65 O 37.51 CB 30.74 OG 32.29
A TYR G 5 -82.7 -3.0 N 28.8 CA 29.52 C 29.46 O 33.38 CB 27.92 CG 26.77 CD1 31.66 CD2 22.64 CE1 26.72 CE2 26.41 CZ 26.39 OH 25.92
A ARG H 90 -50.5 -51.8 N 31.12 CA 29.94 C 33.8 O 32.43 CB 37.18 CG 35.15 CD 39.02 NE 49.61 CZ 53.7 NH1 56.63 NH2 48.21
A ASP H 94 -63.3 -41.4 N 38.44 CA 37.04 C 34.59 O 38.26 CB 38.68 CG 44.54 OD1 44.0 OD2 42.56
A GLN H 93 -63.0 -37.8 N 33.9 CA 34.82 C 38.46 O 35.77 CB 38.45 CG 45.03 CD 43.78 OE1 51.56 NE2 36.6
A VAL H 0 -62.5 -48.8 N 33.52 CA 36.46 C 35.18 O 34.85 CB 30.77 CG1 29.0 CG2 24.86
A VAL H 7 -55.8 -43.3 N 32.78 CA 36.92 C 40.43 O 38.04 CB 40.12 CG1 42.52 CG2 40.4
A GLN H 120 -58.2 -44.5 N 40.11 CA 41.04 C 46.48 O 41.58 CB 42.44 CG 49.51 CD 50.44 OE1 51.5 NE2 50.39
A LEU H 34 -64.1 -34.6 N 40.56 CA 38.12 C 42.41 O 41.36 CB 41.16 CG 45.87 CD1 43.33 CD2 43.71
A ILE H 0 -67.1 -44.1 N 42.72 CA 39.08 C 48.05 O 50.75 CB 41.87 CG1 35.52 CG2 46.33 CD1 33.97
A LEU H 103 -63.8 -44.1 N 43.01 CA 48.05 C 48.31 O 49.5 CB 43.65 CG 43.04 CD1 48.21 CD2 51.88
A LYS H 161 -57.9 -39.3 N 46.63 CA 51.12 C 52.11 O 53.34 CB 51.14 CG 54.71 CD 60.21 CE 61.09 NZ 59.37
A ASN H 81 -79.9 -40.0 N 52.31 CA 52.62 C 54.32 O 58.79 CB 50.16 CG 47.07 OD1 47.4 ND2 43.2
A THR - 85 -90.4 360.0 N 53.03 CA 52.6 C 57.62 O 65.74 CB 55.24 OG1 56.93 CG2 54.31
A VAL - 36 360.0 71.6 N 49.62 CA 36.23 C 45.28 O 57.59 CB 41.65 CG1 44.69 CG2 39.69
A MET - 162 -154.2 -71.0 N 46.46 CA 46.29 C 42.09 O 48.33 CB 57.55 CG 63.52 SD 84.04 CE 66.08
A LYS S 153 -84.4 -44.1 N 41.73 CA 44.91 C 42.3 O 43.41 CB 45.95 CG 48.17 CD 49.77 CE 49.95 NZ 48.31
A VAL S 38 -104.5 -54.0 N 37.53 CA 30.29 C 32.07 O 30.56 CB 35.24 CG1 36.45 CG2 42.13
A LEU - 9 -73.1 145.2 N 26.57 CA 27.55 C 31.61 O 28.91 CB 26.93 CG 27.64 CD1 30.19 CD2 24.47
A PRO - 49 -81.2 148.3 N 25.94 CA 24.87 C 28.58 O 24.93 CB 28.59 CG 30.65 CD 29.95
A VAL - 40 -92.6 104.3 N 24.89 CA 25.7 C 22.37 O 23.32 CB 25.65 CG1 26.52 CG2 25.04
A LYS - 109 -86.6 -5.8 N 25.71 CA 24.45 C 32.34 O 33.51 CB 29.88 CG 30.73 CD 34.89 CE 39.74 NZ 41.99
A GLN - 135 -77.0 146.9 N 29.25 CA 28.07 C 29.56 O 28.43 CB 29.76 CG 36.05 CD 35.97 OE1 46.82 NE2 25.83
A TYR - 22 -92.6 139.7 N 23.36 CA 28.41 C 25.42 O 26.79 CB 24.96 CG 23.61 CD1 23.57 CD2 21.44 CE1 27.16 CE2 20.67 CZ 24.3 OH 24.95
A LEU - 58 -79.0 148.2 N 23.61 CA 23.15 C 25.86 O 20.58 CB 19.23 CG 20.37 CD1 21.97 CD2 22.26
A ILE - 70 -123.7 143.1 N 23.47 CA 21.76 C 20.71 O 22.05 CB 26.4 CG1 31.33 CG2 29.66 CD1 32.76
A MET - 23 -112.9 76.9 N 17.68 CA 19.6 C 22.91 O 16.71 CB 23.12 CG 22.43 SD 22.28 CE 20.06
A GLU - 47 -120.8 25.4 N 20.67 CA 20.86 C 22.82 O 23.26 CB 20.53 CG 22.99 CD 32.34 OE1 27.9 OE2 30.98
A ASN - 140 -74.4 129.9 N 23.37 CA 26.71 C 21.63 O 23.93 CB 28.42 CG 34.56 OD1 38.49 ND2 37.84
A TYR - 80 -164.3 170.9 N 21.74 CA 21.06 C 20.68 O 26.49 CB 23.0 CG 25.13 CD1 28.66 CD2 25.09 CE1 30.06 CE2 32.82 CZ 33.92 OH 38.86
A ASN - 9 -131.3 122.5 N 20.24 CA 26.28 C 21.97 O 24.41 CB 22.7 CG 24.12 OD1 27.28 ND2 25.17
A PRO H 20 -56.1 -42.3 N 24.41 CA 23.36 C 24.86 O 27.85 CB 26.46 CG 30.48 CD 25.92
A ASP H 47 -64.3 -47.1 N 27.59 CA 28.07 C 26.04 O 26.74 CB 29.99 CG 36.78 OD1 37.71 OD2 35.77
A THR H 30 -56.4 -44.3 N 24.81 CA 24.92 C 26.7 O 25.03 CB 23.36 OG1 23.55 CG2 25.29
A ILE H 10 -67.4 -46.0 N 25.32 CA 26.66 C 23.01 O 27.25 CB 29.71 CG1 25.64 CG2 26.45 CD1 24.78
A LEU H 36 -61.1 -47.9 N 27.2 CA 31.22 C 32.82 O 34.92 CB 27.97 CG 37.91 CD1 39.0 CD2 36.76
A ASN H 92 -50.2 -43.7 N 31.6 CA 31.45 C 34.75 O 31.91 CB 35.91 CG 33.46 OD1 36.57 ND2 31.02
A GLY H 30 -66.2 -39.0 N 32.62 CA 28.22 C 32.08 O 32.62
A ILE H 1 -68.5 -47.4 N 30.68 CA 31.92 C 35.69 O 40.72 CB 34.56 CG1 31.69 CG2 33.71 CD1 31.39
A VAL H 64 -53.3 -46.6 N 32.45 CA 41.53 C 40.26 O 46.8 CB 36.64 CG1 42.97 CG2 40.07
A LYS H 160 -57.4 -52.6 N 38.28 CA 42.05 C 43.52 O 41.19 CB 39.29 CG 41.94 CD 47.43 CE 50.46 NZ 45.06
A ILE H 19 -64.9 -32.5 N 42.61 CA 41.5 C 46.32 O 47.2 CB 38.83 CG1 36.56 CG2 39.62 CD1 35.09
A ASN H 11 -67.7 -31.6 N 42.65 CA 44.94 C 50.23 O 48.24 CB 43.29 CG 48.92 OD1 47.68 ND2 52.25
A SER H 73 -55.4 -29.7 N 44.38 CA 45.72 C 47.4 O 51.49 CB 44.91 OG 45.27
A ASN H 123 -90.2 -62.1 N 48.79 CA 45.31 C 53.58 O 57.34 CB 46.97 CG 53.58 OD1 46.99 ND2 47.24
A GLU H 68 -57.8 -29.2 N 46.08 CA 46.67 C 44.53 O 47.89 CB 45.21 CG 39.72 CD 42.26 OE1 41.94 OE2 45.44
A LYS - 161 48.0 58.4 N 44.15 CA 48.71 C 51.28 O 48.84 CB 54.79 CG 51.75 CD 57.52 CE 53.34 NZ 53.49
A THR - 56 -99.5 -42.0 N 50.79 CA 47.5 C 48.73 O 50.15 CB 42.87 OG1 44.58 CG2 48.78
A PHE - 21 -108.8 132.1 N 45.11 CA 50.44 C 56.09 O 51.59 CB 51.34 CG 48.15 CD1 48.45 CD2 48.59 CE1 45.99 CE2 44.0 CZ 46.93
A ASP - 85 -70.5 -178.0 N 56.25 CA 60.71 C 60.19 O 59.75 CB 64.56 CG 71.16 OD1 70.94 OD2 73.6
A ASP H 135 -84.9 -17.9 N 61.88 CA 62.0 C 59.82 O 57.44 CB 62.87 CG 67.34 OD1 66.04 OD2 75.49
A GLU H 137 -77.7 -39.2 N 61.76 CA 62.94 C 58.25 O 54.94 CB 65.67 CG 73.3 CD 82.27 OE1 80.32 OE2 84.16
A ILE H 34 -64.2 -51.5 N 56.52 CA 59.28 C 52.73 O 51.96 CB 57.4 CG1 60.55 CG2 52.99 CD1 64.39
A LEU H 19 -50.2 -38.1 N 52.53 CA 50.0 C 48.8 O 47.35 CB 49.65 CG 52.8 CD1 53.66 CD2 52.51
A ALA H 67 -69.5 -32.4 N 48.77 CA 45.46 C 44.47 O 43.72 CB 50.38
A GLN H 76 -69.3 -47.1 N 50.24 CA 48.95 C 40.59 O 40.44 CB 51.56 CG 54.77 CD 63.17 OE1 67.55 NE2 63.02
A ILE H 2 -47.6 -52.1 N 39.63 CA 40.61 C 38.22 O 38.2 CB 43.79 CG1 49.15 CG2 45.65 CD1 49.71
A GLY H 8 -53.6 -46.0 N 40.96 CA 34.4 C 39.19 O 39.59
A GLY H 47 -63.8 -41.0 N 35.1 CA 41.79 C 33.01 O 36.78
A ALA H 3 -63.2 -36.7 N 35.53 CA 37.05 C 36.95 O 38.56 CB 31.91
A LEU H 1 -69.0 -18.4 N 36.54 CA 34.37 C 36.01 O 33.72 CB 29.01 CG 29.0 CD1 26.14 CD2 29.15
A HIS T 113 -90.7 -2.7 N 33.37 CA 34.46 C 41.77 O 42.49 CB 40.03 CG 35.61 ND1 39.37 CD2 33.34 CE1 32.2 NE2 38.1
A ASP S 82 -152.1 66.3 N 41.0 CA 39.53 C 39.07 O 39.6 CB 45.05 CG 51.05 OD1 50.77 OD2 52.24
A ILE G 12 -58.5 -46.7 N 34.37 CA 34.77 C 36.99 O 35.22 CB 35.23 CG1 37.83 CG2 33.2 CD1 39.44
A ASP G 57 -66.7 -21.0 N 27.91 CA 35.97 C 34.65 O 34.1 CB 36.88 CG 32.57 OD1 38.03 OD2 30.89
A GLU G 149 -99.5 -14.7 N 32.67 CA 37.65 C 36.22 O 36.92 CB 43.68 CG 44.95 CD 52.49 OE1 51.82 OE2 50.75
A SER S 29 -113.4 22.8 N 29.7 CA 27.31 C 25.19 O 22.82 CB 35.72 OG 34.89
A TRP H 65 -62.4 -35.0 N 25.62 CA 24.61 C 23.35 O 24.62 CB 29.23 CG 21.64 CD1 24.69 CD2 22.14 NE1 26.33 CE2 27.04 CE3 23.8 CZ2 26.3 CZ3 26.88 CH2 25.68
A GLU H 148 -64.1 -50.6 N 26.82 CA 25.18 C 26.12 O 26.01 CB 29.82 CG 30.87 CD 35.27 OE1 38.52 OE2 31.73
A LEU H 71 -60.4 -41.7 N 29.9 CA 31.44 C 29.54 O 27.92 CB 31.43 CG 38.55 CD1 36.29 CD2 31.65
A LEU H 0 -64.5 -37.9 N 26.15 CA 24.94 C 24.2 O 25.39 CB 21.75 CG 30.88 CD1 28.79 CD2 31.25
A LEU H 19 -66.3 -39.1 N 25.6 CA 26.34 C 26.01 O 25.26 CB 22.12 CG 26.0 CD1 28.39 CD2 25.7
A SER H 54 -64.4 -46.0 N 27.78 CA 32.45 C 29.47 O 30.31 CB 32.76 OG 40.99
A PHE H 16 -56.9 -48.7 N 33.4 CA 34.26 C 33.17 O 29.54 CB 34.04 CG 41.34 CD1 47.93 CD2 40.29 CE1 49.24 CE2 46.58 CZ 48.26
A ALA H 0 -55.7 -47.8 N 26.9 CA 26.74 C 29.15 O 32.52 CB 22.29
A ASN H 54 -60.1 -39.4 N 26.84 CA 29.64 C 31.39 O 35.83 CB 29.87 CG 32.38 OD1 33.7 ND2 26.34
A THR H 50 -61.4 -47.7 N 32.83 CA 35.86 C 33.66 O 30.4 CB 37.05 OG1 38.12 CG2 40.51
A ILE H 0 -61.3 -45.4 N 33.33 CA 30.34 C 35.39 O 35.5 CB 33.12 CG1 33.6 CG2 28.87 CD1 31.81
A ARG H 40 -65.4 -31.8 N 29.18 CA 34.88 C 34.36 O 32.14 CB 30.35 CG 33.89 CD 33.52 NE 36.27 CZ 38.86 NH1 34.02 NH2 40.71
A SER H 73 -83.2 -18.6 N 37.22 CA 40.13 C 44.67 O 44.16 CB 37.52 OG 42.7
A ASN H 105 -127.1 -42.9 N 38.16 CA 41.31 C 45.45 O 45.52 CB 37.54 CG 45.23 OD1 48.07 ND2 40.85
A TRP - 3 -72.0 153.8 N 37.42 CA 35.59 C 35.78 O 42.55 CB 34.86 CG 35.72 CD1 35.62 CD2 34.14 NE1 31.75 CE2 34.37 CE3 33.43 CZ2 41.28 CZ3 36.04 CH2 39.77
A GLU S 174 -87.1 -28.9 N 35.71 CA 40.39 C 35.2 O 38.94 CB 45.8 CG 50.07 CD 61.73 OE1 58.88 OE2 70.0
A ILE - 90 -103.8 106.2 N 37.96 CA 37.69 C 34.59 O 33.5 CB 38.19 CG1 41.55 CG2 39.11 CD1 37.97
A LYS - 40 -102.1 0.7 N 33.41 CA 30.13 C 32.45 O 27.98 CB 35.23 CG 37.64 CD 37.94 CE 37.24 NZ 45.93
A THR H 35 -55.2 -34.1 N 30.36 CA 29.65 C 28.0 O 27.0 CB 31.6 OG1 34.63 CG2 38.49
A PRO H 11 -65.1 -29.3 N 28.34 CA 26.43 C 27.18 O 25.44 CB 28.97 CG 28.85 CD 31.33
A ALA H 0 -65.2 -44.6 N 25.75 CA 29.0 C 22.19 O 23.7 CB 25.39
A TYR H 0 -69.5 -33.0 N 22.32 CA 21.87 C 23.11 O 22.48 CB 20.18 CG 23.94 CD1 26.3 CD2 24.55 CE1 28.18 CE2 30.34 CZ 30.66 OH 31.23
A ASP H 25 -67.3 -47.3 N 23.09 CA 21.3 C 21.24 O 18.7 CB 22.45 CG 26.64 OD1 25.7 OD2 27.07
A ILE H 2 -59.0 -45.6 N 18.56 CA 19.56 C 18.33 O 18.21 CB 24.55 CG1 25.37 CG2 20.85 CD1 25.37
A VAL H 0 -59.5 -42.6 N 17.55 CA 22.37 C 20.57 O 20.99 CB 23.04 CG1 20.23 CG2 21.22
A ARG H 2 -65.4 -26.9 N 20.4 CA 18.98 C 19.17 O 18.93 CB 19.42 CG 20.94 CD 18.34 NE 18.73 CZ 18.77 NH1 19.79 NH2 17.95
A LEU H 4 -76.2 -24.9 N 16.97 CA 18.06 C 16.84 O 20.22 CB 19.47 CG 17.16 CD1 23.05 CD2 19.81
A ILE H 0 -112.0 -3.5 N 15.6 CA 19.37 C 20.09 O 17.61 CB 19.67 CG1 18.67 CG2 24.83 CD1 19.73
A VAL G 0 -61.3 -30.9 N 20.2 CA 20.01 C 19.63 O 17.62 CB 19.67 CG1 21.32 CG2 21.44
A LYS G 47 -65.0 -19.5 N 16.36 CA 20.69 C 18.9 O 23.83 CB 20.87 CG 24.08 CD 26.22 CE 27.96 NZ 30.31
A LYS G 81 -92.8 -17.1 N 19.47 CA 16.83 C 21.22 O 20.68 CB 22.25 CG 23.67 CD 23.63 CE 25.59 NZ 30.41
A LEU - 0 -68.2 133.7 N 19.68 CA 21.66 C 18.42 O 20.79 CB 19.34 CG 23.55 CD1 21.67 CD2 24.09
A PRO S 47 -58.9 -41.6 N 20.78 CA 21.53 C 22.58 O 23.19 CB 25.3 CG 23.96 CD 21.85
A TYR - 154 -129.3 142.1 N 23.11 CA 25.73 C 26.14 O 21.74 CB 23.8 CG 24.8 CD1 20.87 CD2 24.31 CE1 23.1 CE2 24.01 CZ 22.87 OH 27.67
A SER G 54 -59.8 -32.5 N 24.62 CA 26.31 C 27.03 O 23.95 CB 27.72 OG 31.37
A SER G 76 -59.2 -26.1 N 22.86 CA 24.03 C 27.7 O 27.34 CB 30.29 OG 28.39
A ASP G 43 -54.7 -28.1 N 25.53 CA 25.5 C 28.06 O 28.95 CB 22.83 CG 32.98 OD1 29.43 OD2 24.76
A ILE G 2 -112.7 6.6 N 22.45 CA 21.28 C 26.86 O 23.03 CB 22.96 CG1 26.36 CG2 19.21 CD1 24.71
A LYS H 107 -47.4 -52.8 N 26.36 CA 28.5 C 27.84 O 27.39 CB 30.45 CG 39.62 CD 48.47 CE 53.12 NZ 44.09
A ASP H 75 -64.1 -31.7 N 28.89 CA 30.52 C 30.17 O 27.1 CB 34.2 CG 36.47 OD1 37.82 OD2 34.93
A TYR H 1 -71.6 -44.8 N 26.73 CA 22.62 C 27.28 O 26.08 CB 21.45 CG 24.93 CD1 26.79 CD2 24.14 CE1 22.57 CE2 23.69 CZ 27.89 OH 24.39
A ILE H 38 -61.6 -48.1 N 25.79 CA 29.13 C 33.12 O 28.8 CB 26.83 CG1 25.73 CG2 31.91 CD1 27.23
A GLU H 126 -65.1 -41.5 N 31.76 CA 36.64 C 32.49 O 35.49 CB 34.17 CG 39.7 CD 55.56 OE1 54.05 OE2 52.87
A GLU H 58 -80.2 -39.9 N 33.01 CA 33.33 C 35.08 O 31.13 CB 29.2 CG 34.32 CD 36.62 OE1 30.35 OE2 41.76
A GLY H 0 -86.0 -34.2 N 32.22 CA 27.3 C 33.57 O 32.38
A LEU T 10 -65.0 -51.8 N 36.17 CA 36.51 C 39.68 O 39.78 CB 36.84 CG 41.19 CD1 31.29 CD2 36.55
A GLY T 55 -94.0 28.2 N 39.87 CA 39.8 C 46.57 O 49.82
A ASN - 36 -76.2 143.0 N 44.45 CA 43.19 C 46.42 O 46.46 CB 38.45 CG 42.12 OD1 45.33 ND2 42.21
A LYS S 192 -65.0 -26.9 N 49.67 CA 47.41 C 47.88 O 46.92 CB 54.11 CG 59.55 CD 65.48 CE 68.58 NZ 69.52
A ASN S 63 -85.0 118.4 N 42.9 CA 43.39 C 41.01 O 39.68 CB 40.74 CG 41.56 OD1 48.08 ND2 48.69
A ILE H 9 -62.8 -29.4 N 39.31 CA 35.48 C 32.92 O 33.78 CB 33.9 CG1 33.49 CG2 34.47 CD1 31.83
A THR H 36 -70.9 -38.8 N 32.97 CA 33.73 C 30.57 O 25.66 CB 29.46 OG1 26.81 CG2 27.69
A LEU H 9 -67.9 -35.3 N 27.6 CA 31.06 C 30.14 O 25.78 CB 33.59 CG 34.49 CD1 36.77 CD2 31.96
A THR H 1 -67.4 -48.5 N 28.61 CA 29.23 C 25.82 O 26.22 CB 31.45 OG1 35.27 CG2 29.51
A MET H 7 -57.6 -45.6 N 24.64 CA 26.73 C 22.59 O 23.75 CB 27.07 CG 23.63 SD 27.61 CE 26.62
A LEU H 8 -70.0 -33.4 N 23.2 CA 21.87 C 23.3 O 20.56 CB 21.24 CG 20.73 CD1 24.89 CD2 21.56
A THR H 0 -68.5 -37.6 N 21.69 CA 22.44 C 19.61 O 22.69 CB 24.62 OG1 29.15 CG2 26.87
A VAL H 0 -60.8 -40.8 N 20.54 CA 20.66 C 19.31 O 18.27 CB 23.73 CG1 18.85 CG2 23.68
A ARG H 13 -59.5 -43.3 N 20.41 CA 21.15 C 18.38 O 19.52 CB 16.97 CG 21.45 CD 23.02 NE 20.94 CZ 24.55 NH1 24.33 NH2 23.84
A ILE H 0 -52.2 -50.7 N 22.12 CA 19.29 C 17.99 O 18.79 CB 19.1 CG1 19.19 CG2 20.0 CD1 21.44
A LEU H 2 -64.4 -41.3 N 16.57 CA 16.22 C 18.42 O 17.69 CB 18.97 CG 23.44 CD1 29.43 CD2 25.16
A VAL H 0 -52.7 -47.9 N 17.18 CA 19.08 C 18.08 O 19.09 CB 21.15 CG1 16.91 CG2 17.29
A ASN H 0 -73.2 -20.5 N 17.82 CA 16.23 C 17.65 O 17.89 CB 18.5 CG 24.16 OD1 20.09 ND2 20.59
A CYS H 0 -57.6 -30.9 N 17.82 CA 19.98 C 19.13 O 22.54 CB 15.82 SG 21.73
A PHE T 6 -56.3 -28.3 N 19.09 CA 16.7 C 19.61 O 20.28 CB 19.98 CG 19.48 CD1 19.8 CD2 19.86 CE1 22.16 CE2 22.67 CZ 22.45
A ASN T 38 -97.2 5.8 N 21.44 CA 17.87 C 22.16 O 21.89 CB 19.67 CG 30.86 OD1 37.67 ND2 24.72
A ASN - 2 -85.0 111.3 N 20.27 CA 19.8 C 23.56 O 19.02 CB 17.6 CG 20.46 OD1 20.89 ND2 17.53
A GLU T 179 -87.3 0.1 N 22.25 CA 24.27 C 22.97 O 23.58 CB 24.81 CG 23.25 CD 25.37 OE1 27.25 OE2 27.22
A ASN T 131 -93.3 -43.8 N 22.43 CA 23.45 C 27.33 O 29.27 CB 22.62 CG 27.05 OD1 29.26 ND2 22.31
A TRP T 21 -139.5 -10.4 N 20.99 CA 23.99 C 25.33 O 24.19 CB 28.33 CG 22.8 CD1 23.34 CD2 20.03 NE1 21.92 CE2 22.19 CE3 21.23 CZ2 23.48 CZ3 24.2 CH2 21.31
A GLY H 0 -52.1 -60.3 N 18.31 CA 19.29 C 21.66 O 23.4
A VAL H 42 -64.8 -33.2 N 22.39 CA 26.9 C 28.0 O 29.48 CB 28.72 CG1 32.09 CG2 22.15
A LYS H 153 -62.6 -45.3 N 29.1 CA 29.7 C 33.7 O 33.48 CB 36.01 CG 41.3 CD 45.13 CE 46.27 NZ 53.06
A LEU H 38 -60.6 -57.6 N 29.81 CA 29.8 C 33.06 O 32.89 CB 25.63 CG 35.29 CD1 29.05 CD2 40.35
A LEU H 0 -61.6 -32.3 N 25.46 CA 26.31 C 25.95 O 31.18 CB 21.49 CG 20.84 CD1 27.45 CD2 23.35
A GLU T 55 -88.1 -2.6 N 30.52 CA 36.75 C 34.27 O 38.54 CB 31.17 CG 35.77 CD 39.05 OE1 42.93 OE2 40.57
A SER S 28 -77.9 136.5 N 36.26 CA 39.3 C 42.61 O 36.3 CB 40.83 OG 40.29
A ASN H 52 -44.6 -50.9 N 43.86 CA 43.34 C 42.52 O 44.13 CB 51.04 CG 57.12 OD1 57.11 ND2 58.04
A GLN H 141 -52.7 -36.1 N 43.61 CA 46.89 C 42.8 O 39.24 CB 51.1 CG 54.64 CD 55.36 OE1 53.95 NE2 63.41
A VAL H 25 -80.8 -62.7 N 39.29 CA 38.37 C 40.33 O 45.64 CB 43.84 CG1 40.08 CG2 45.02
A TYR H 0 -62.1 -35.3 N 36.63 CA 39.05 C 41.64 O 44.79 CB 34.15 CG 39.9 CD1 41.23 CD2 38.1 CE1 42.15 CE2 40.21 CZ 41.73 OH 45.85
A LYS H 116 -61.1 -31.8 N 39.78 CA 42.96 C 42.45 O 48.94 CB 42.87 CG 47.84 CD 54.46 CE 63.78 NZ 64.36
A SER H 51 -101.0 -30.0 N 39.89 CA 45.06 C 47.15 O 46.45 CB 48.21 OG 48.84
A ILE H 4 -52.1 -47.5 N 45.9 CA 39.57 C 38.77 O 39.1 CB 40.02 CG1 42.11 CG2 31.36 CD1 42.96
A PHE H 5 -74.7 -22.1 N 41.2 CA 45.57 C 44.74 O 49.7 CB 49.75 CG 43.26 CD1 43.32 CD2 43.94 CE1 41.65 CE2 37.02 CZ 34.85
A GLU H 109 -86.2 -29.3 N 49.04 CA 51.35 C 43.97 O 50.82 CB 53.0 CG 53.83 CD 58.94 OE1 55.49 OE2 56.7
A THR H 50 -75.5 -38.2 N 46.02 CA 44.39 C 42.24 O 46.76 CB 41.13 OG1 46.01 CG2 41.19
A ILE S 8 -78.7 -19.2 N 43.38 CA 47.65 C 52.93 O 56.46 CB 45.26 CG1 35.08 CG2 44.2
A ASP - 67 -74.4 74.4 N 53.91 CA 54.67 C 58.01 O 58.28 CB 58.73 CG 58.85 OD1 56.83 OD2 57.78
A THR - 68 -140.7 -171.3 N 59.05 CA 58.83 C 59.9 O 61.71 CB 58.02 OG1 62.32 CG2 56.71
A GLU - 157 -143.8 146.6 N 54.3 CA 62.23 C 58.59 O 62.45 CB 68.93 CG 68.15 CD 77.45 OE1 76.19 OE2 81.25
A PHE - 37 -124.8 90.0 N 57.76 CA 54.6 C 58.65 O 53.28 CB 53.2 CG 46.32 CD1 45.31 CD2 47.53 CE1 47.48 CE2 44.92 CZ 43.3
A SER T 122 -74.3 -9.7 N 61.57 CA 61.18 C 62.84 O 65.13 CB 64.87 OG 66.45
A GLN T 177 -90.9 -25.3 N 59.1 CA 63.33 C 62.89 O 62.13 CB 67.14 CG 71.7 CD 72.71 OE1 72.1 NE2 72.87
A ALA - 20 -57.4 145.4 N 56.76 CA 46.19 C 43.31 O 44.22 CB 45.2
A SER - 55 -75.8 172.0 N 37.27 CA 37.32 C 37.2 O 33.52 CB 39.02 OG 36.0
A ALA H 90 -62.2 -37.5 N 32.28 CA 36.32 C 32.1 O 34.17 CB 38.46
A LYS H 30 -68.5 -43.0 N 35.08 CA 34.99 C 33.67 O 34.79 CB 31.52 CG 31.54 CD 32.44 CE 34.46 NZ 35.98
A GLN H 65 -62.6 -40.2 N 27.13 CA 31.3 C 31.26 O 25.85 CB 32.4 CG 33.47 CD 40.73 OE1 35.82 NE2 42.09
A SER H 27 -65.1 -32.0 N 29.73 CA 30.94 C 27.76 O 27.92 CB 32.69 OG 33.77
A GLN H 60 -67.0 -52.0 N 30.83 CA 29.41 C 25.87 O 25.28 CB 31.03 CG 26.99 CD 32.95 OE1 34.5 NE2 33.57
A ASN H 16 -48.4 -47.1 N 27.33 CA 24.41 C 25.08 O 24.61 CB 27.45 CG 28.94 OD1 28.74 ND2 24.16
A LEU H 18 -66.7 -44.1 N 23.56 CA 25.23 C 23.8 O 21.6 CB 26.84 CG 28.03 CD1 26.15 CD2 27.04
A ALA H 1 -64.6 -39.3 N 25.57 CA 23.91 C 25.02 O 21.8 CB 23.52
A ILE H 31 -65.0 -41.6 N 22.87 CA 23.64 C 19.78 O 21.27 CB 22.9 CG1 21.47 CG2 23.4 CD1 24.92
A ALA H 0 -64.8 -48.3 N 19.88 CA 20.72 C 21.37 O 18.19 CB 20.88
A VAL H 0 -64.1 -42.2 N 20.68 CA 20.87 C 20.91 O 21.44 CB 23.66 CG1 23.35 CG2 25.91
A SER H 0 -65.6 -32.7 N 20.65 CA 17.18 C 20.51 O 17.95 CB 20.28 OG 22.65
A THR H 1 -68.2 -41.7 N 19.07 CA 19.65 C 18.55 O 18.07 CB 19.25 OG1 21.66 CG2 19.06
A LEU H 0 -60.4 -48.3 N 18.75 CA 17.91 C 20.19 O 22.78 CB 18.63 CG 22.71 CD1 18.54 CD2 24.27
A ILE H 0 -57.4 -44.1 N 20.51 CA 21.78 C 20.61 O 21.13 CB 18.44 CG1 23.58 CG2 23.07 CD1 24.01
A PHE H 7 -61.6 -44.3 N 20.43 CA 20.74 C 24.72 O 20.59 CB 21.68 CG 20.64 CD1 19.71 CD2 17.3 CE1 21.97 CE2 20.36 CZ 22.39
A ASN H 0 -59.9 -44.9 N 22.07 CA 23.89 C 21.88 O 24.02 CB 18.7 CG 24.55 OD1 20.86 ND2 19.6
A TYR H 0 -57.7 -38.8 N 20.6 CA 21.04 C 22.79 O 22.97 CB 24.01 CG 22.46 CD1 23.13 CD2 29.33 CE1 27.17 CE2 25.93 CZ 25.81 OH 25.6
A SER H 0 -65.8 -34.9 N 22.7 CA 24.67 C 25.18 O 24.87 CB 21.55 OG 21.57
A ALA H 0 -68.5 -42.6 N 21.93 CA 24.68 C 25.21 O 26.34 CB 22.64
A LEU H 6 -56.5 -47.5 N 24.67 CA 25.6 C 27.99 O 26.32 CB 21.04 CG 27.19 CD1 26.62 CD2 24.38
A VAL H 19 -60.4 -39.0 N 23.87 CA 27.66 C 30.15 O 33.19 CB 30.67 CG1 27.56 CG2 32.29
A THR H 14 -68.9 -12.4 N 27.42 CA 29.35 C 32.69 O 30.92 CB 29.54 OG1 30.18 CG2 27.9
A LYS H 101 -77.4 -22.2 N 30.73 CA 36.4 C 39.4 O 40.02 CB 34.49 CG 30.67 CD 35.29 CE 34.33 NZ 37.26
A GLY S 58 95.0 -2.7 N 35.91 CA 45.12 C 48.19 O 49.26
A ASN - 142 -105.0 8.7 N 44.99 CA 49.12 C 49.41 O 51.85 CB 48.77 CG 55.86 OD1 54.06 ND2 54.97
A SER S 18 -105.9 168.2 N 45.35 CA 45.85 C 41.37 O 44.51 CB 42.02 OG 41.76
A ASP - 68 -50.0 147.6 N 39.49 CA 45.07 C 41.81 O 41.31 CB 41.4 CG 45.03 OD1 41.93 OD2 46.7
A LEU T 151 -71.2 -25.8 N 43.78 CA 44.21 C 40.16 O 49.1 CB 49.06 CG 51.14 CD1 52.88 CD2 48.42
A GLU T 98 -62.8 -20.9 N 36.64 CA 38.76 C 37.44 O 34.94 CB 37.9 CG 47.86 CD 56.28 OE1 52.76 OE2 56.67
A LEU H 0 -66.0 -50.9 N 37.48 CA 34.9 C 30.16 O 34.08 CB 31.66 CG 33.98 CD1 29.07 CD2 31.19
A LEU H 27 -57.2 -48.1 N 31.64 CA 34.17 C 34.56 O 32.59 CB 36.88 CG 34.56 CD1 35.42 CD2 35.94
A PRO H 74 -57.9 -40.5 N 34.33 CA 34.32 C 30.88 O 33.44 CB 36.07 CG 41.28 CD 38.25
A ILE H 37 -64.0 -40.6 N 29.79 CA 32.13 C 31.76 O 33.16 CB 35.67 CG1 34.31 CG2 32.61 CD1 43.97
A VAL H 0 -70.8 -51.3 N 29.48 CA 30.93 C 28.67 O 29.1 CB 30.65 CG1 24.68 CG2 30.06
A ALA H 16 -53.6 -43.3 N 26.68 CA 32.67 C 33.18 O 32.5 CB 32.89
A ASP H 84 -57.9 -49.3 N 33.29 CA 36.92 C 38.92 O 36.67 CB 41.27 CG 50.92 OD1 55.23 OD2 54.61
A ALA I 4 -56.3 -49.1 N 32.79 CA 32.27 C 29.87 O 33.85 CB 34.18
A ILE I 0 -64.7 -55.6 N 26.0 CA 26.99 C 37.48 O 31.53 CB 24.74 CG1 26.81 CG2 31.5 CD1 24.49
A ASN I 55 -73.2 -34.6 N 35.13 CA 34.55 C 37.79 O 38.73 CB 37.35 CG 44.42 OD1 43.69 ND2 44.4
A THR I 83 -119.0 -14.5 N 32.1 CA 37.6 C 40.77 O 48.76 CB 41.36 OG1 43.5 CG2 37.67
A LYS I 56 -107.7 -63.6 N 39.69 CA 34.33 C 37.52 O 39.12 CB 36.0 CG 39.57 CD 50.0 CE 47.16 NZ 42.06
A TYR I 8 -92.3 -36.0 N 33.12 CA 27.99 C 23.69 O 26.43 CB 28.63 CG 29.13 CD1 29.3 CD2 30.58 CE1 32.41 CE2 29.94 CZ 33.94 OH 37.46
A GLY T 0 -49.7 -52.8 N 24.2 CA 22.77 C 27.25 O 25.77
A PRO T 65 -71.0 -1.9 N 28.09 CA 27.63 C 29.55 O 26.79 CB 30.58 CG 36.6 CD 30.42
A LEU S 48 -87.0 135.8 N 27.95 CA 24.74 C 27.66 O 25.98 CB 29.37 CG 34.04 CD1 33.76 CD2 31.71
A GLU H 131 -58.8 -40.8 N 26.66 CA 34.21 C 31.86 O 27.85 CB 37.97 CG 39.31 CD 43.53 OE1 43.93 OE2 41.12
A GLU H 76 -70.8 -9.6 N 30.77 CA 31.65 C 28.33 O 28.97 CB 37.49 CG 34.19 CD 43.9 OE1 45.8 OE2 46.37
A TYR H 7 -95.3 -57.4 N 27.24 CA 26.06 C 24.5 O 23.42 CB 21.67 CG 22.61 CD1 17.59 CD2 24.53 CE1 22.06 CE2 25.94 CZ 23.75 OH 24.08
A GLN H 17 -75.5 -13.4 N 23.36 CA 24.57 C 26.39 O 24.8 CB 24.96 CG 25.58 CD 25.83 OE1 27.08 NE2 23.01
A GLU T 108 -115.6 15.0 N 25.68 CA 26.65 C 27.87 O 24.41 CB 31.19 CG 29.65 CD 34.78 OE1 31.18 OE2 29.94
A CYS S 16 -109.7 114.1 N 24.08 CA 24.09 C 24.46 O 23.56 CB 26.05 SG 27.0
A GLU H 70 -52.8 -47.9 N 23.55 CA 21.44 C 23.88 O 20.69 CB 25.57 CG 24.51 CD 31.81 OE1 33.0 OE2 34.61
A GLU H 74 -64.0 -41.2 N 23.15 CA 23.65 C 22.45 O 21.3 CB 25.89 CG 23.21 CD 27.94 OE1 26.25 OE2 26.48
A ALA H 0 -67.8 -45.8 N 21.16 CA 20.36 C 22.52 O 22.28 CB 19.26
A ALA H 0 -58.8 -41.6 N 20.97 CA 21.99 C 21.96 O 20.37 CB 20.57
A TYR H 54 -58.1 -49.6 N 21.78 CA 21.29 C 18.31 O 20.71 CB 20.94 CG 22.76 CD1 22.0 CD2 22.85 CE1 23.78 CE2 24.6 CZ 25.37 OH 28.89
A ARG H 41 -61.9 -42.7 N 21.68 CA 21.23 C 20.19 O 21.97 CB 22.16 CG 20.04 CD 22.31 NE 23.33 CZ 22.8 NH1 25.45 NH2 24.01
A LEU H 0 -64.8 -33.6 N 20.26 CA 20.85 C 17.98 O 22.12 CB 23.1 CG 17.77 CD1 19.82 CD2 17.36
A THR H 1 -67.1 -50.1 N 18.31 CA 21.2 C 21.65 O 21.82 CB 24.4 OG1 21.1 CG2 21.52
A VAL H 4 -64.1 -37.8 N 22.01 CA 18.0 C 18.91 O 20.24 CB 20.61 CG1 19.98 CG2 23.36
A ALA H 0 -61.7 -44.3 N 19.44 CA 18.61 C 21.54 O 21.98 CB 21.55
A TYR H 12 -63.6 -44.1 N 22.25 CA 22.81 C 22.5 O 23.38 CB 22.44 CG 30.04 CD1 33.61 CD2 31.6 CE1 39.87 CE2 26.37 CZ 32.26 OH 38.72
A GLY H 0 -54.1 -45.3 N 20.26 CA 19.47 C 26.18 O 21.76
A ASN H 0 -55.9 -50.7 N 21.71 CA 21.4 C 23.9 O 24.52 CB 20.96 CG 26.93 OD1 26.14 ND2 22.62
A LEU H 0 -59.9 -36.4 N 21.11 CA 27.73 C 24.51 O 26.76 CB 24.76 CG 25.92 CD1 28.13 CD2 26.97
A ALA H 3 -60.8 -27.6 N 24.75 CA 26.89 C 30.66 O 27.89 CB 27.98
A THR H 38 -74.5 -19.5 N 27.01 CA 27.23 C 28.14 O 30.19 CB 28.13 OG1 26.92 CG2 26.26
A VAL H 58 -107.2 -25.2 N 27.98 CA 31.42 C 33.05 O 37.49 CB 37.12 CG1 36.77 CG2 37.22
A GLU - 87 -113.6 99.0 N 27.72 CA 32.54 C 27.8 O 30.16 CB 30.18 CG 37.83 CD 48.17 OE1 44.09 OE2 46.17
A PRO H 96 -54.8 -36.4 N 27.7 CA 30.41 C 29.8 O 30.47 CB 30.8 CG 32.26 CD 29.16
A THR H 94 -68.9 -37.1 N 27.85 CA 29.85 C 31.59 O 29.17 CB 33.77 OG1 30.8 CG2 33.47
A LEU H 21 -60.7 -39.4 N 31.59 CA 27.67 C 27.36 O 26.34 CB 30.34 CG 32.19 CD1 23.68 CD2 32.07
A ARG H 83 -68.1 -45.3 N 28.34 CA 25.59 C 28.11 O 26.35 CB 30.58 CG 35.08 CD 43.7 NE 43.22 CZ 51.48 NH1 50.26 NH2 50.15
A GLN H 138 -56.6 -42.6 N 27.99 CA 25.23 C 23.24 O 27.59 CB 25.66 CG 27.53 CD 26.81 OE1 26.12 NE2 31.84
A PHE H 127 -96.3 -2.3 N 25.44 CA 25.98 C 30.93 O 27.02 CB 26.25 CG 24.2 CD1 21.75 CD2 25.05 CE1 23.72 CE2 25.32 CZ 23.4
A ALA H 2 -60.5 -45.1 N 28.13 CA 29.73 C 35.39 O 33.33 CB 34.04
A ASN T 74 -67.1 16.6 N 36.62 CA 40.67 C 34.5 O 36.11 CB 41.07 CG 48.72 OD1 45.46 ND2 44.25
A SER T 94 -138.7 -4.6 N 38.79 CA 32.36 C 37.47 O 42.05 CB 39.47 OG 33.68
A VAL - 23 -78.2 130.1 N 32.18 CA 31.61 C 29.99 O 30.38 CB 31.87 CG1 34.24 CG2 33.54
A THR H 99 -67.3 -44.9 N 23.49 CA 24.14 C 22.33 O 23.95 CB 26.78 OG1 28.57 CG2 28.19
A TRP H 14 -56.2 -41.4 N 24.08 CA 23.84 C 25.34 O 24.88 CB 25.57 CG 31.28 CD1 32.74 CD2 29.92 NE1 32.88 CE2 33.39 CE3 27.68 CZ2 34.16 CZ3 26.1 CH2 27.61
A LEU H 4 -72.2 -31.1 N 25.7 CA 25.32 C 25.56 O 23.55 CB 26.79 CG 25.21 CD1 25.85 CD2 28.7
A ALA H 29 -66.5 -38.5 N 25.35 CA 26.64 C 24.06 O 22.25 CB 26.14
A ASN H 52 -60.0 -45.2 N 23.1 CA 22.47 C 23.62 O 25.62 CB 20.84 CG 26.18 OD1 21.21 ND2 24.5
A ILE H 0 -60.3 -42.4 N 21.77 CA 23.39 C 21.15 O 22.94 CB 22.11 CG1 24.75 CG2 20.02 CD1 25.68
A LYS H 98 -61.5 -42.7 N 25.77 CA 23.1 C 26.78 O 24.65 CB 27.46 CG 28.57 CD 30.75 CE 28.84 NZ 38.2
A ARG H 175 -62.5 -34.7 N 23.15 CA 24.71 C 25.83 O 23.29 CB 28.83 CG 29.91 CD 29.6 NE 26.11 CZ 29.3 NH1 31.03 NH2 32.09
A SER H 68 -78.5 -48.1 N 27.06 CA 27.77 C 29.92 O 26.58 CB 26.08 OG 26.37
A TYR H 39 -127.1 7.5 N 23.24 CA 22.96 C 25.95 O 27.57 CB 27.3 CG 25.87 CD1 27.87 CD2 23.01 CE1 27.21 CE2 26.03 CZ 25.94 OH 26.07
A GLY T 9 -57.8 -20.4 N 25.21 CA 28.17 C 28.63 O 33.95
A ASN T 140 -100.8 0.5 N 34.47 CA 37.32 C 31.43 O 34.16 CB 40.89 CG 43.81 OD1 47.76 ND2 48.03
A VAL S 43 -72.6 124.4 N 29.91 CA 30.83 C 27.65 O 29.36 CB 33.38 CG1 31.77 CG2 29.43
A PRO H 97 -49.1 -45.7 N 31.18 CA 30.63 C 28.22 O 31.24 CB 32.13 CG 30.22 CD 27.98
A ARG H 67 -61.9 -34.2 N 28.4 CA 28.74 C 31.2 O 30.02 CB 28.77 CG 25.33 CD 27.37 NE 24.86 CZ 25.78 NH1 25.51 NH2 28.97
A PHE H 0 -73.3 -47.0 N 27.77 CA 30.14 C 30.67 O 30.14 CB 27.14 CG 24.74 CD1 24.37 CD2 26.08 CE1 23.46 CE2 26.69 CZ 23.41
A LYS H 81 -57.3 -36.5 N 29.46 CA 32.18 C 35.74 O 32.84 CB 33.81 CG 36.63 CD 45.91 CE 48.32 NZ 45.76
A ASP H 54 -50.4 -47.5 N 31.85 CA 32.97 C 33.93 O 35.2 CB 38.39 CG 38.3 OD1 38.49 OD2 41.15
A ILE H 1 -72.9 -46.4 N 33.58 CA 29.58 C 33.53 O 32.97 CB 29.18 CG1 33.59 CG2 28.07 CD1 32.06
A PHE H 6 -64.4 -37.0 N 32.19 CA 32.5 C 34.51 O 35.89 CB 26.78 CG 29.5 CD1 28.29 CD2 26.63 CE1 26.88 CE2 25.91 CZ 27.34
A ASP H 82 -60.9 -40.3 N 34.29 CA 35.52 C 36.5 O 40.89 CB 34.14 CG 37.81 OD1 37.95 OD2 43.73
A ASP H 11 -66.5 -40.5 N 38.11 CA 37.55 C 39.9 O 43.3 CB 38.97 CG 40.89 OD1 38.46 OD2 36.58
A LEU H 0 -76.9 -11.0 N 38.72 CA 41.64 C 41.69 O 45.89 CB 35.76 CG 38.54 CD1 33.17 CD2 27.19
A SER - 100 -83.0 360.0 N 42.77 CA 48.64 C 45.53 O 52.55 CB 45.56 OG 48.89
