A GLY - 54 360.0 -152.2 N 57.35 CA 57.45 C 57.06 O 57.26
A GLY - 3 -63.4 166.0 N 55.96 CA 54.09 C 54.0 O 53.29
A ILE E 5 -134.8 136.5 N 53.85 CA 53.76 C 50.01 O 48.74 CB 54.89 CG1 59.71 CG2 59.57 CD1 70.26
A LEU E 7 -124.4 148.7 N 45.31 CA 43.6 C 43.86 O 40.89 CB 45.99 CG 44.84 CD1 41.72 CD2 27.99
A LEU E 10 -121.9 122.0 N 43.08 CA 40.32 C 39.21 O 36.54 CB 42.06 CG 41.25 CD1 32.34 CD2 39.4
A VAL E 1 -126.2 150.7 N 39.95 CA 39.96 C 37.73 O 37.87 CB 44.92 CG1 39.04 CG2 46.99
A ALA E 7 -152.3 164.5 N 38.36 CA 43.38 C 48.26 O 49.06 CB 40.55
A ASN - 25 -123.9 112.9 N 57.41 CA 66.3 C 69.81 O 72.15 CB 67.75 CG 72.86 OD1 74.59 ND2 67.07
A PRO T 12 -69.4 175.9 N 72.61 CA 75.75 C 77.5 O 75.46 CB 74.92 CG 73.68 CD 74.3
A VAL T 77 66.8 -24.0 N 79.25 CA 80.06 C 80.5 O 82.37 CB 80.3 CG1 81.83 CG2 80.49
A ILE S 68 -116.9 28.4 N 79.23 CA 79.36 C 79.29 O 79.75 CB 77.56 CG1 78.05 CG2 80.24 CD1 79.31
A PRO - 48 -51.7 160.2 N 78.89 CA 78.59 C 76.76 O 79.67 CB 78.79 CG 78.1 CD 79.69
A ASP S 66 89.7 -15.7 N 73.28 CA 69.97 C 68.61 O 71.05 CB 71.24 CG 76.39 OD1 81.0 OD2 78.31
A VAL - 62 -116.1 110.3 N 65.06 CA 60.62 C 59.15 O 60.88 CB 61.39 CG1 55.11 CG2 56.89
A SER - 18 -118.3 139.0 N 56.79 CA 52.73 C 51.46 O 47.17 CB 52.51 OG 52.12
A VAL E 5 -101.6 130.0 N 48.99 CA 46.48 C 44.63 O 45.77 CB 47.73 CG1 42.15 CG2 48.74
A LEU E 11 -97.2 113.8 N 42.99 CA 41.4 C 39.84 O 38.57 CB 41.32 CG 44.67 CD1 41.62 CD2 42.28
A ILE E 1 -116.2 128.4 N 42.23 CA 36.8 C 41.14 O 41.02 CB 39.11 CG1 32.79 CG2 38.42 CD1 36.21
A SER E 4 -145.5 149.6 N 43.14 CA 41.52 C 44.32 O 42.78 CB 40.15 OG 39.03
A GLY S 10 149.6 174.8 N 47.22 CA 49.43 C 52.45 O 53.81
A PRO T 118 -39.1 -43.2 N 52.24 CA 51.29 C 49.07 O 46.67 CB 52.16 CG 53.55 CD 50.54
A PRO T 18 -72.4 -16.0 N 47.65 CA 48.37 C 49.06 O 47.55 CB 46.14 CG 48.87 CD 46.59
A ILE S 8 -79.3 117.7 N 46.1 CA 48.09 C 48.87 O 48.79 CB 45.28 CG1 41.03 CG2 43.18 CD1 37.93
A LYS - 101 -59.7 159.5 N 47.89 CA 49.69 C 48.43 O 50.25 CB 50.27 CG 56.11 CD 66.15 CE 72.34 NZ 67.22
A ASP - 68 -53.8 120.6 N 47.69 CA 48.8 C 48.69 O 50.49 CB 45.66 CG 53.45 OD1 59.13 OD2 48.29
A PRO H 1 -48.0 -57.5 N 48.69 CA 48.7 C 44.19 O 41.73 CB 53.29 CG 52.11 CD 49.57
A GLU H 52 -54.5 -42.1 N 42.93 CA 41.15 C 41.79 O 45.55 CB 42.51 CG 44.31 CD 54.14 OE1 52.44 OE2 46.8
A ALA H 8 -64.5 -40.8 N 39.44 CA 38.46 C 41.62 O 46.07 CB 36.36
A LEU H 38 -60.6 -43.4 N 43.42 CA 44.59 C 43.82 O 45.43 CB 44.19 CG 42.74 CD1 36.64 CD2 42.29
A LEU H 14 -66.5 -40.9 N 42.9 CA 44.1 C 42.53 O 45.86 CB 42.71 CG 40.69 CD1 39.34 CD2 30.11
A ARG H 16 -60.1 -42.4 N 42.87 CA 38.39 C 38.59 O 38.18 CB 40.03 CG 37.05 CD 43.05 NE 49.27 CZ 42.33 NH1 39.64 NH2 41.12
A TYR H 92 -76.2 -16.6 N 40.17 CA 41.41 C 42.97 O 43.3 CB 43.77 CG 36.88 CD1 42.86 CD2 36.85 CE1 45.62 CE2 43.96 CZ 51.28 OH 48.79
A ALA H 17 -86.9 -9.6 N 45.09 CA 43.88 C 46.76 O 47.82 CB 44.41
A LEU S 10 -63.7 136.1 N 47.04 CA 47.07 C 50.58 O 50.78 CB 43.14 CG 42.75 CD1 35.58 CD2 42.3
A PRO - 22 -83.8 57.5 N 52.56 CA 53.15 C 57.21 O 60.09 CB 52.21 CG 51.79 CD 48.53
A ILE - 15 -108.0 145.1 N 57.31 CA 56.39 C 57.11 O 56.17 CB 56.37 CG1 57.73 CG2 51.54 CD1 56.96
A ASP - 112 -124.0 84.6 N 61.03 CA 61.08 C 60.58 O 60.87 CB 62.7 CG 66.82 OD1 76.09 OD2 75.87
A ASN - 13 -147.7 96.9 N 59.93 CA 60.4 C 59.83 O 60.27 CB 59.28 CG 56.37 OD1 52.69 ND2 55.13
A LYS H 147 -60.7 -34.9 N 57.5 CA 57.94 C 55.33 O 57.86 CB 58.04 CG 64.47 CD 65.74 CE 68.49 NZ 73.84
A ALA H 12 -55.0 -46.6 N 48.18 CA 46.52 C 47.32 O 45.83 CB 46.33
A ILE H 1 -77.2 -24.8 N 46.55 CA 45.04 C 45.28 O 44.63 CB 47.61 CG1 46.32 CG2 41.57 CD1 41.11
A ARG H 52 -70.7 -32.0 N 45.77 CA 45.25 C 48.39 O 47.88 CB 44.43 CG 43.68 CD 42.83 NE 37.93 CZ 42.15 NH1 33.65 NH2 45.64
A GLU H 59 -70.0 -29.9 N 50.94 CA 51.28 C 50.96 O 52.26 CB 53.7 CG 60.63 CD 72.57 OE1 80.09 OE2 77.4
A VAL H 0 -78.0 -37.5 N 48.92 CA 45.52 C 46.69 O 47.8 CB 44.49 CG1 39.96 CG2 36.23
A GLN H 0 -66.8 -44.9 N 45.83 CA 44.68 C 44.76 O 41.78 CB 45.39 CG 46.08 CD 41.64 OE1 53.76 NE2 47.1
A LYS H 107 -50.9 -62.5 N 46.88 CA 47.52 C 46.48 O 48.8 CB 48.99 CG 48.73 CD 62.62 CE 61.49 NZ 62.43
A PRO H 6 -67.3 -151.4 N 46.12 CA 43.08 C 45.94 O 52.6 CB 44.08 CG 44.68 CD 47.91
A LEU H 0 63.1 -53.3 N 44.51 CA 41.33 C 42.37 O 40.77 CB 40.85 CG 36.34 CD1 28.45 CD2 30.12
A GLU H 26 -78.4 -37.1 N 43.95 CA 44.35 C 48.33 O 49.26 CB 41.5 CG 41.35 CD 53.52 OE1 50.27 OE2 50.77
A ASP T 37 -67.0 -9.2 N 50.48 CA 48.38 C 49.04 O 51.53 CB 48.1 CG 48.36 OD1 43.78 OD2 50.52
A ILE H 0 -58.7 -33.7 N 50.9 CA 51.19 C 52.43 O 51.86 CB 52.37 CG1 53.54 CG2 52.6 CD1 57.58
A THR H 68 -64.6 -30.5 N 55.79 CA 57.88 C 60.21 O 64.55 CB 57.3 OG1 58.83 CG2 52.9
A ASP H 100 -68.5 -38.0 N 60.13 CA 59.86 C 59.73 O 59.65 CB 59.38 CG 61.5 OD1 65.75 OD2 64.23
A SER H 4 -59.8 -27.3 N 60.07 CA 62.42 C 64.41 O 65.07 CB 61.85 OG 57.02
A LEU T 44 -82.6 -4.6 N 64.8 CA 65.14 C 66.27 O 66.28 CB 62.49 CG 59.23 CD1 58.04 CD2 59.5
A LYS T 178 -85.6 4.7 N 68.38 CA 68.86 C 71.07 O 72.15 CB 68.15 CG 70.47 CD 78.6 CE 83.38 NZ 78.83
A ILE S 63 -100.4 135.8 N 71.16 CA 70.71 C 72.83 O 72.6 CB 70.75 CG1 68.12 CG2 71.79 CD1 66.17
A ALA - 92 -80.3 129.2 N 75.21 CA 76.13 C 76.43 O 75.48 CB 75.5
A GLY S 37 81.8 166.7 N 77.96 CA 78.52 C 78.35 O 79.54
A VAL T 61 -35.3 -18.4 N 77.79 CA 76.93 C 75.09 O 76.16 CB 77.51 CG1 75.41 CG2 77.85
A LYS T 156 -69.5 -23.0 N 72.68 CA 71.37 C 68.88 O 70.97 CB 70.84 CG 72.72 CD 74.8 CE 80.44 NZ 81.74
A ALA T 0 -64.6 -39.2 N 64.38 CA 57.33 C 55.27 O 53.62 CB 55.56
A LEU H 15 -68.4 -28.1 N 51.84 CA 52.96 C 54.32 O 52.8 CB 51.63 CG 54.85 CD1 50.23 CD2 47.91
A ASP H 67 -90.7 24.5 N 55.76 CA 56.48 C 55.02 O 56.64 CB 57.81 CG 68.06 OD1 78.75 OD2 66.69
A SER H 28 -125.2 -47.0 N 51.03 CA 51.6 C 49.74 O 50.54 CB 50.54 OG 59.86
A VAL H 17 -68.5 -32.5 N 49.06 CA 49.12 C 50.67 O 52.28 CB 47.07 CG1 50.16 CG2 47.17
A GLU H 68 -60.8 -34.3 N 53.66 CA 53.64 C 52.89 O 53.67 CB 53.05 CG 56.21 CD 55.96 OE1 60.86 OE2 61.16
A ARG H 178 -69.5 -43.9 N 51.17 CA 50.25 C 49.54 O 51.51 CB 49.86 CG 57.38 CD 68.43 NE 72.17 CZ 77.63 NH1 80.48 NH2 82.14
A ASN H 26 -69.7 -39.9 N 48.21 CA 44.73 C 43.83 O 42.02 CB 46.81 CG 45.02 OD1 44.37 ND2 41.51
A VAL H 3 -64.6 -45.4 N 43.2 CA 45.57 C 47.35 O 49.53 CB 47.12 CG1 48.31 CG2 51.16
A ARG H 128 -64.9 -27.3 N 45.46 CA 46.31 C 45.88 O 48.33 CB 50.2 CG 48.6 CD 48.59 NE 54.17 CZ 55.77 NH1 57.26 NH2 50.61
A GLN H 99 -68.1 -58.9 N 43.58 CA 44.7 C 46.93 O 47.11 CB 47.69 CG 56.0 CD 65.97 OE1 71.82 NE2 68.56
A ALA H 0 -57.4 -47.9 N 45.69 CA 43.9 C 43.48 O 44.77 CB 39.51
A SER H 43 -56.1 -45.9 N 43.2 CA 43.54 C 43.49 O 42.8 CB 46.57 OG 47.26
A ARG H 200 -61.9 -53.4 N 43.85 CA 45.45 C 45.87 O 46.68 CB 49.5 CG 51.16 CD 62.02 NE 60.77 CZ 66.83 NH1 60.28 NH2 69.62
A THR H 20 -58.4 -26.8 N 46.6 CA 49.64 C 49.96 O 52.64 CB 48.47 OG1 46.77 CG2 49.99
A LEU H 3 -64.8 -57.7 N 50.41 CA 51.73 C 53.45 O 56.76 CB 47.69 CG 44.99 CD1 37.03 CD2 35.18
A GLN S 126 -52.9 86.8 N 54.06 CA 53.77 C 53.39 O 52.69 CB 55.1 CG 63.15 CD 69.74 OE1 74.28 NE2 72.36
A GLN - 98 166.5 29.2 N 58.26 CA 59.01 C 57.48 O 53.37 CB 56.97 CG 62.86 CD 76.33 OE1 79.47 NE2 75.83
A GLY H 25 -71.1 8.8 N 57.59 CA 62.36 C 64.87 O 67.25
A LYS H 165 -88.3 -25.9 N 64.41 CA 66.2 C 64.43 O 62.95 CB 67.22 CG 70.65 CD 76.62 CE 77.34 NZ 84.54
A SER I 54 -88.4 -24.0 N 61.61 CA 62.6 C 62.96 O 64.02 CB 62.21 OG 66.32
A ILE I 0 -77.3 -56.0 N 61.1 CA 59.45 C 60.49 O 62.36 CB 58.46 CG1 54.39 CG2 58.73 CD1 53.0
A ILE I 41 -65.6 -72.5 N 60.17 CA 60.35 C 62.5 O 62.45 CB 60.97 CG1 58.84 CG2 58.31 CD1 58.93
A VAL I 89 -62.7 -92.9 N 64.54 CA 65.36 C 65.71 O 64.8 CB 66.75 CG1 65.11 CG2 61.67
A ALA I 81 -4.7 -74.6 N 68.06 CA 69.62 C 70.39 O 72.25 CB 68.94
A GLY I 17 -108.7 -5.1 N 68.98 CA 65.24 C 62.42 O 61.97
A PHE - 0 -53.7 -21.5 N 62.01 CA 63.28 C 67.27 O 71.13 CB 64.28 CG 63.63 CD1 67.53 CD2 64.21 CE1 64.99 CE2 67.05 CZ 68.39
A ALA - 31 68.1 137.3 N 68.54 CA 69.73 C 72.17 O 71.42 CB 68.43
A GLU G 141 5.7 -105.0 N 74.23 CA 74.86 C 74.5 O 74.19 CB 72.11 CG 73.42 CD 78.32 OE1 87.66 OE2 75.62
A SER G 97 -85.4 7.7 N 75.62 CA 77.18 C 77.65 O 77.44 CB 77.05 OG 77.9
A LYS G 54 -116.8 -3.2 N 76.76 CA 74.9 C 75.55 O 76.01 CB 74.99 CG 71.56 CD 62.27 CE 60.21 NZ 64.05
A LYS H 90 -58.2 -15.3 N 74.38 CA 73.55 C 72.85 O 75.07 CB 71.66 CG 71.54 CD 69.41 CE 71.1 NZ 60.48
A ASP H 135 -90.2 -45.1 N 71.21 CA 69.94 C 67.89 O 66.86 CB 72.32 CG 74.13 OD1 75.65 OD2 79.01
A HIS H 76 -73.1 -23.1 N 66.34 CA 64.3 C 63.42 O 60.82 CB 63.93 CG 58.87 ND1 57.93 CD2 56.12 CE1 60.41 NE2 61.85
A GLY H 0 -64.8 -38.8 N 63.43 CA 65.43 C 67.34 O 67.35
A ASN H 47 -77.1 -23.2 N 67.76 CA 66.2 C 64.67 O 66.63 CB 67.35 CG 71.54 OD1 74.0 ND2 71.85
A GLU H 97 -70.9 -32.7 N 63.64 CA 64.93 C 63.69 O 64.05 CB 64.04 CG 66.74 CD 70.12 OE1 75.77 OE2 71.85
A MET H 22 -77.9 -40.1 N 60.92 CA 58.22 C 58.18 O 56.32 CB 57.31 CG 49.74 SD 57.8 CE 51.57
A ILE H 14 -60.8 -37.9 N 57.73 CA 58.75 C 62.36 O 64.54 CB 57.08 CG1 57.7 CG2 53.5 CD1 56.51
A GLU H 129 -64.2 -49.6 N 62.45 CA 63.99 C 62.78 O 64.75 CB 66.52 CG 70.02 CD 77.37 OE1 76.79 OE2 78.29
A LYS H 82 -68.0 -27.1 N 63.21 CA 60.02 C 58.67 O 58.62 CB 59.15 CG 61.88 CD 61.24 CE 68.97 NZ 63.73
A LEU H 0 -69.7 -42.1 N 56.27 CA 54.57 C 54.67 O 56.31 CB 52.6 CG 47.86 CD1 35.85 CD2 42.99
A GLU H 71 -65.7 -42.3 N 54.97 CA 52.3 C 53.54 O 56.94 CB 52.32 CG 53.75 CD 65.24 OE1 63.07 OE2 72.43
A ALA H 50 -68.9 -33.5 N 52.77 CA 50.1 C 52.6 O 55.2 CB 51.72
A GLY H 1 -72.3 -32.9 N 52.9 CA 52.64 C 52.47 O 52.88
A MET H 6 -69.2 -34.5 N 52.04 CA 53.12 C 54.05 O 54.68 CB 52.28 CG 49.54 SD 51.89 CE 39.95
A GLN H 141 -70.5 -35.8 N 56.97 CA 58.08 C 57.85 O 56.75 CB 60.87 CG 64.08 CD 72.67 OE1 71.08 NE2 72.63
A ASP H 60 -66.2 -37.6 N 59.74 CA 60.89 C 59.98 O 60.38 CB 60.76 CG 65.19 OD1 67.72 OD2 72.5
A MET H 8 -62.4 -33.5 N 59.34 CA 60.38 C 61.67 O 59.91 CB 59.36 CG 62.02 SD 57.6 CE 52.68
A LEU H 37 -69.3 -47.2 N 64.69 CA 67.77 C 68.18 O 66.12 CB 68.52 CG 71.11 CD1 74.64 CD2 72.01
A LYS - 129 -63.7 92.4 N 68.56 CA 69.89 C 69.18 O 69.21 CB 70.26 CG 72.87 CD 78.21 CE 81.11 NZ 75.84
A ILE - 19 170.7 34.3 N 71.49 CA 73.05 C 75.24 O 72.94 CB 71.87 CG1 72.73 CG2 68.84 CD1 68.92
A VAL - 102 -80.2 -0.9 N 78.11 CA 80.49 C 80.88 O 81.48 CB 81.59 CG1 81.29 CG2 79.86
A GLU S 83 -86.3 53.2 N 81.03 CA 81.98 C 82.9 O 80.67 CB 81.84 CG 82.37 CD 84.63 OE1 83.14 OE2 87.14
A ASP S 68 -23.6 124.5 N 86.62 CA 88.62 C 89.9 O 91.45 CB 88.26 CG 87.78 OD1 83.1 OD2 86.31
A ARG - 118 95.7 -179.2 N 91.15 CA 90.69 C 90.4 O 90.08 CB 92.37 CG 95.59 CD 104.59 NE 110.2 CZ 108.45 NH1 107.72 NH2 106.26
A LYS - 90 79.2 28.8 N 89.5 CA 86.62 C 83.03 O 83.7 CB 85.7 CG 86.59 CD 83.96 CE 86.35 NZ 82.61
A ARG - 45 -78.0 -2.6 N 79.4 CA 75.43 C 75.99 O 76.58 CB 74.1 CG 70.8 CD 70.09 NE 57.41 CZ 64.8 NH1 62.77 NH2 66.11
A ASP S 132 -115.7 -67.5 N 76.92 CA 78.01 C 78.71 O 78.16 CB 76.97 CG 78.75 OD1 79.84 OD2 77.14
A ALA S 86 -70.5 26.3 N 79.72 CA 79.92 C 78.84 O 80.75 CB 78.07
A VAL S 35 -161.3 -33.8 N 74.33 CA 72.35 C 69.89 O 69.51 CB 74.11 CG1 68.99 CG2 73.65
A ALA G 7 -49.7 -70.5 N 67.01 CA 64.17 C 64.27 O 63.53 CB 64.71
A PRO G 63 -66.3 57.3 N 63.35 CA 61.56 C 62.17 O 62.85 CB 61.36 CG 59.43 CD 63.82
A LYS G 45 -95.6 -2.4 N 59.71 CA 56.11 C 52.16 O 50.33 CB 54.61 CG 59.66 CD 68.95 CE 72.98 NZ 75.22
A GLN H 9 -66.6 -36.0 N 48.78 CA 49.07 C 48.8 O 46.13 CB 49.37 CG 44.62 CD 50.51 OE1 47.91 NE2 49.01
A LYS H 116 -64.8 -52.6 N 52.07 CA 55.99 C 55.57 O 55.6 CB 56.93 CG 60.6 CD 63.11 CE 64.57 NZ 56.82
A GLU H 67 -50.9 -61.9 N 56.73 CA 55.71 C 54.69 O 58.02 CB 54.47 CG 56.32 CD 54.94 OE1 62.37 OE2 56.16
A ILE H 0 -62.3 -23.3 N 53.89 CA 51.9 C 49.07 O 48.81 CB 53.46 CG1 53.97 CG2 52.91 CD1 55.03
A LEU H 10 -80.0 -19.0 N 46.92 CA 47.07 C 51.06 O 52.84 CB 47.05 CG 42.55 CD1 31.59 CD2 29.32
A LYS H 93 -69.8 -43.1 N 52.7 CA 52.25 C 50.17 O 50.81 CB 54.93 CG 57.46 CD 65.35 CE 70.14 NZ 78.84
A TYR H 38 -61.7 -34.9 N 49.51 CA 48.62 C 48.1 O 49.38 CB 49.71 CG 48.71 CD1 51.85 CD2 59.18 CE1 56.28 CE2 54.51 CZ 58.83 OH 51.18
A VAL H 0 -70.4 -42.7 N 47.87 CA 45.26 C 46.9 O 46.09 CB 46.7 CG1 38.69 CG2 38.56
A GLY H 3 -55.9 -48.6 N 47.63 CA 44.97 C 45.18 O 46.84
A GLY H 10 -58.5 -38.1 N 44.53 CA 45.76 C 49.14 O 47.91
A ILE H 1 -58.8 -51.2 N 47.67 CA 48.61 C 46.8 O 48.37 CB 49.97 CG1 49.65 CG2 50.39 CD1 58.71
A GLU H 0 -66.9 -38.2 N 49.03 CA 47.61 C 47.05 O 42.18 CB 47.72 CG 44.98 CD 51.09 OE1 46.5 OE2 41.58
A GLU H 97 -68.2 -35.2 N 48.25 CA 49.35 C 50.33 O 53.51 CB 50.66 CG 56.83 CD 63.67 OE1 70.41 OE2 59.15
A ASP H 8 -70.7 -17.0 N 48.93 CA 47.79 C 49.4 O 47.68 CB 44.73 CG 44.85 OD1 56.93 OD2 50.37
A MET S 0 -70.6 -119.8 N 51.76 CA 55.77 C 58.52 O 61.56 CB 54.95 CG 56.28 SD 58.31 CE 53.66
A VAL S 49 -61.1 111.2 N 62.59 CA 64.86 C 67.79 O 66.74 CB 66.39 CG1 67.99 CG2 66.52
A ASP - 25 -115.9 -154.4 N 70.39 CA 72.24 C 74.39 O 72.52 CB 74.63 CG 79.86 OD1 87.22 OD2 80.49
A GLY S 55 92.2 -2.2 N 75.37 CA 78.46 C 80.73 O 80.42
A PHE S 98 51.4 172.2 N 83.76 CA 85.78 C 86.6 O 85.26 CB 86.95 CG 85.62 CD1 86.54 CD2 83.83 CE1 85.26 CE2 86.53 CZ 84.41
A PRO - 42 17.1 104.5 N 86.67 CA 87.71 C 87.72 O 88.07 CB 87.65 CG 86.18 CD 85.83
A TYR S 149 -65.8 -50.8 N 88.85 CA 90.63 C 90.85 O 90.93 CB 91.51 CG 91.59 CD1 95.07 CD2 92.58 CE1 90.62 CE2 93.76 CZ 92.5 OH 90.2
A GLU S 163 -126.1 -141.7 N 90.55 CA 90.78 C 90.13 O 89.6 CB 92.18 CG 92.83 CD 91.84 OE1 92.14 OE2 91.85
A VAL - 105 -159.3 165.7 N 89.38 CA 89.07 C 88.82 O 87.71 CB 89.56 CG1 86.26 CG2 88.43
A PRO - 32 -71.7 168.2 N 88.69 CA 88.59 C 88.28 O 87.5 CB 88.01 CG 87.41 CD 88.49
A GLU S 144 -96.1 -59.0 N 88.62 CA 88.85 C 89.4 O 89.31 CB 89.76 CG 91.55 CD 93.37 OE1 89.34 OE2 96.18
A GLU S 168 -136.8 -22.5 N 88.22 CA 85.84 C 84.05 O 83.13 CB 86.34 CG 86.65 CD 87.37 OE1 84.55 OE2 89.72
A TYR - 51 -89.1 27.7 N 81.85 CA 78.49 C 76.18 O 75.03 CB 77.44 CG 76.38 CD1 69.79 CD2 75.42 CE1 72.52 CE2 74.49 CZ 74.41 OH 74.5
A ARG T 162 -65.3 15.0 N 73.1 CA 73.87 C 73.72 O 74.69 CB 74.32 CG 74.7 CD 76.29 NE 85.71 CZ 89.8 NH1 86.2 NH2 89.7
A ASN T 139 -139.1 9.6 N 73.55 CA 71.8 C 68.69 O 71.2 CB 74.94 CG 81.54 OD1 80.52 ND2 86.26
A MET S 99 -95.6 167.8 N 62.87 CA 61.1 C 53.62 O 52.07 CB 62.45 CG 64.93 SD 76.14 CE 71.93
A PRO - 19 -57.6 148.1 N 50.08 CA 47.87 C 45.82 O 48.76 CB 49.15 CG 49.46 CD 50.29
A LEU E 7 -139.1 134.8 N 42.73 CA 41.44 C 41.68 O 47.26 CB 36.78 CG 40.71 CD1 41.07 CD2 31.46
A LEU E 0 -98.8 95.5 N 39.5 CA 38.07 C 40.19 O 42.33 CB 33.96 CG 35.22 CD1 31.11 CD2 33.4
A LYS - 83 -84.2 51.0 N 43.36 CA 43.32 C 43.66 O 44.58 CB 43.76 CG 48.24 CD 50.89 CE 57.1 NZ 56.69
A GLY S 0 169.7 -147.6 N 42.55 CA 42.28 C 41.85 O 40.9
A ARG E 33 -116.5 158.0 N 40.61 CA 40.29 C 38.71 O 34.9 CB 40.37 CG 46.73 CD 49.48 NE 51.57 CZ 48.55 NH1 52.58 NH2 36.2
A ALA E 2 -156.8 153.7 N 37.68 CA 36.09 C 38.11 O 40.25 CB 36.2
A SER E 18 -116.5 152.7 N 38.73 CA 37.84 C 37.07 O 38.27 CB 35.01 OG 43.93
A VAL E 0 -141.4 141.6 N 36.33 CA 40.46 C 40.23 O 41.37 CB 42.38 CG1 41.72 CG2 38.46
A ASP E 47 -106.3 129.6 N 41.2 CA 40.71 C 42.21 O 39.32 CB 39.56 CG 47.32 OD1 46.84 OD2 54.74
A MET E 13 -114.5 109.7 N 43.32 CA 42.24 C 41.23 O 39.56 CB 36.01 CG 40.47 SD 48.62 CE 34.44
A LYS E 63 -96.7 117.8 N 45.04 CA 47.23 C 49.07 O 48.64 CB 46.64 CG 51.34 CD 53.56 CE 61.98 NZ 68.88
A VAL E 0 -109.7 142.9 N 49.19 CA 50.87 C 53.43 O 51.73 CB 51.77 CG1 57.03 CG2 49.41
A LYS E 82 -102.6 114.8 N 54.08 CA 52.99 C 50.89 O 51.72 CB 53.42 CG 56.6 CD 68.23 CE 70.47 NZ 70.59
A ILE - 5 -102.6 116.3 N 51.72 CA 51.55 C 53.7 O 53.18 CB 51.35 CG1 52.08 CG2 49.18 CD1 56.23
A LYS - 64 -86.3 163.9 N 57.64 CA 60.35 C 61.32 O 60.05 CB 59.15 CG 57.35 CD 51.04 CE 61.33 NZ 64.96
A ASP S 157 43.9 50.5 N 61.97 CA 63.47 C 62.33 O 62.15 CB 64.68 CG 71.45 OD1 81.46 OD2 79.31
A ASN - 53 -142.6 125.2 N 64.56 CA 66.3 C 68.41 O 68.81 CB 65.49 CG 68.66 OD1 72.36 ND2 67.4
A PRO S 102 -89.3 137.9 N 70.7 CA 71.87 C 73.11 O 74.28 CB 70.18 CG 69.51 CD 68.91
A ASN S 147 82.5 86.7 N 74.09 CA 74.9 C 75.04 O 77.36 CB 75.29 CG 75.93 OD1 76.16 ND2 68.89
A ILE - 41 93.8 110.9 N 73.99 CA 73.03 C 73.08 O 71.46 CB 71.63 CG1 71.1 CG2 71.22 CD1 69.2
A GLU S 161 -100.9 -21.4 N 73.77 CA 75.39 C 74.92 O 77.4 CB 75.37 CG 78.71 CD 80.25 OE1 84.44 OE2 82.11
A ASP E 65 -174.0 153.3 N 72.51 CA 70.06 C 68.48 O 68.74 CB 68.47 CG 68.07 OD1 73.2 OD2 62.92
A CYS E 9 -135.4 152.5 N 65.61 CA 60.5 C 58.04 O 57.39 CB 58.45 SG 55.57
A VAL E 51 -115.5 128.3 N 54.01 CA 49.05 C 49.31 O 48.71 CB 49.96 CG1 43.45 CG2 45.71
A PHE E 0 -114.3 140.9 N 45.78 CA 42.09 C 41.11 O 43.02 CB 40.59 CG 44.75 CD1 42.26 CD2 42.82 CE1 41.59 CE2 43.11 CZ 39.98
A ARG E 84 -105.0 129.9 N 38.17 CA 35.74 C 34.97 O 35.48 CB 31.53 CG 35.59 CD 38.9 NE 40.45 CZ 39.97 NH1 39.01 NH2 38.06
A ILE E 3 -129.6 132.0 N 35.44 CA 34.74 C 33.9 O 33.02 CB 34.91 CG1 35.39 CG2 32.65 CD1 48.89
A VAL E 22 -102.7 136.9 N 34.09 CA 33.76 C 34.21 O 34.87 CB 33.6 CG1 28.17 CG2 34.45
A LEU E 0 -109.2 135.4 N 35.76 CA 34.23 C 36.58 O 37.55 CB 34.76 CG 40.92 CD1 33.69 CD2 37.4
A ASP E 0 -100.4 86.9 N 39.32 CA 41.11 C 42.83 O 43.27 CB 38.74 CG 43.18 OD1 49.07 OD2 37.07
A GLY T 2 -73.0 -12.3 N 41.94 CA 40.57 C 42.79 O 47.25
A TYR T 44 -67.2 -33.8 N 46.02 CA 45.11 C 48.04 O 51.25 CB 45.93 CG 49.2 CD1 41.72 CD2 45.34 CE1 44.15 CE2 49.42 CZ 47.47 OH 52.36
A ASN T 57 -110.7 -18.5 N 47.83 CA 47.01 C 48.07 O 51.84 CB 44.81 CG 50.74 OD1 58.26 ND2 48.69
A ALA - 0 -134.3 58.3 N 44.54 CA 42.79 C 43.52 O 41.61 CB 43.67
A PRO H 34 -53.3 -49.0 N 44.73 CA 43.05 C 42.3 O 43.54 CB 43.73 CG 43.46 CD 42.77
A VAL H 25 -73.8 -48.6 N 41.27 CA 37.72 C 39.83 O 42.49 CB 39.45 CG1 36.05 CG2 33.29
A THR H 8 -70.3 -36.8 N 41.73 CA 37.89 C 34.89 O 35.3 CB 41.05 OG1 44.29 CG2 40.09
A ALA H 0 -73.8 -36.5 N 31.78 CA 32.14 C 33.14 O 34.35 CB 26.59
A GLY H 0 -58.7 -47.1 N 35.43 CA 36.99 C 37.61 O 38.77
A ASN H 38 -61.1 -48.2 N 37.75 CA 36.25 C 37.26 O 38.66 CB 41.01 CG 47.36 OD1 47.71 ND2 49.29
A PHE H 8 -57.6 -48.5 N 35.25 CA 32.44 C 32.37 O 29.8 CB 31.55 CG 31.73 CD1 28.16 CD2 32.37 CE1 28.02 CE2 30.99 CZ 29.22
A VAL H 0 -66.2 -34.8 N 35.01 CA 33.46 C 34.87 O 34.8 CB 36.24 CG1 32.94 CG2 36.64
A ASP H 6 -61.1 -48.3 N 35.42 CA 38.18 C 39.04 O 43.82 CB 38.86 CG 43.16 OD1 40.88 OD2 43.96
A LEU H 1 -67.9 -28.1 N 39.21 CA 39.66 C 43.37 O 46.82 CB 38.87 CG 38.04 CD1 43.06 CD2 48.83
A VAL H 4 -66.8 -42.7 N 44.04 CA 44.22 C 46.16 O 44.53 CB 44.7 CG1 39.62 CG2 41.96
A GLU H 74 -57.6 -52.4 N 48.09 CA 48.44 C 52.66 O 55.79 CB 50.07 CG 47.67 CD 49.64 OE1 50.05 OE2 52.5
A ARG T 151 -74.1 23.4 N 55.04 CA 52.38 C 51.72 O 52.14 CB 53.96 CG 62.16 CD 61.03 NE 76.97 CZ 86.13 NH1 89.91 NH2 84.41
A HIS T 126 53.3 27.1 N 49.98 CA 50.02 C 45.96 O 44.1 CB 52.93 CG 50.47 ND1 61.8 CD2 55.69 CE1 61.31 NE2 59.8
A PHE T 97 -60.0 -20.7 N 46.54 CA 44.77 C 44.78 O 46.67 CB 45.85 CG 50.21 CD1 51.08 CD2 40.65 CE1 48.04 CE2 49.42 CZ 45.29
A TYR T 10 -103.2 -1.7 N 44.47 CA 45.19 C 47.26 O 49.08 CB 45.11 CG 38.61 CD1 36.22 CD2 35.76 CE1 28.36 CE2 35.97 CZ 36.27 OH 43.32
A ASP T 62 -74.4 125.0 N 48.07 CA 48.95 C 51.68 O 51.75 CB 48.0 CG 49.08 OD1 45.22 OD2 56.08
A GLY T 50 82.6 10.6 N 54.85 CA 54.5 C 54.67 O 54.99
A MET E 42 -81.7 147.2 N 53.36 CA 54.24 C 54.24 O 56.33 CB 54.05 CG 58.39 SD 60.53 CE 62.91
A GLU E 89 -102.2 160.6 N 54.27 CA 52.24 C 49.11 O 48.26 CB 51.82 CG 51.68 CD 55.58 OE1 61.41 OE2 69.68
A ILE - 1 -118.1 168.6 N 47.67 CA 49.56 C 50.58 O 48.36 CB 49.14 CG1 47.88 CG2 42.91 CD1 48.79
A GLN E 64 -123.5 147.7 N 50.86 CA 54.6 C 53.57 O 56.77 CB 52.77 CG 60.89 CD 63.07 OE1 71.84 NE2 68.75
A ARG E 73 -136.4 153.4 N 54.97 CA 54.51 C 54.87 O 56.6 CB 53.1 CG 53.46 CD 58.93 NE 68.75 CZ 67.69 NH1 71.34 NH2 58.81
A SER E 62 178.6 -178.7 N 55.57 CA 56.14 C 56.89 O 57.93 CB 56.18 OG 56.94
A ASP E 54 -107.1 141.7 N 55.44 CA 53.54 C 50.14 O 51.95 CB 53.08 CG 63.29 OD1 76.02 OD2 74.82
A GLY E 1 -139.7 -175.2 N 46.05 CA 42.93 C 43.03 O 44.67
A PHE E 34 -127.7 143.8 N 44.17 CA 44.01 C 47.77 O 49.55 CB 41.44 CG 41.48 CD1 42.3 CD2 34.53 CE1 39.79 CE2 33.24 CZ 36.28
A VAL E 1 -114.0 113.1 N 49.93 CA 54.61 C 55.41 O 52.12 CB 53.13 CG1 54.9 CG2 50.94
A VAL E 25 -81.9 85.6 N 63.56 CA 67.42 C 77.07 O 79.01 CB 66.57 CG1 65.68 CG2 65.55
A GLN - 57 -77.4 87.4 N 83.93 CA 90.01 C 94.93 O 95.58 CB 88.98 CG 88.73 CD 88.85 OE1 85.91 NE2 79.56
A THR - 81 -50.0 -39.7 N 100.41 CA 104.9 C 106.86 O 107.46 CB 103.81 OG1 104.84 CG2 101.88
A GLY - 56 159.2 141.1 N 109.56 CA 112.05 C 114.05 O 113.01
A ASP - 137 -137.1 -77.9 N 116.53 CA 119.14 C 121.26 O 120.69 CB 119.15 CG 117.92 OD1 113.27 OD2 117.22
A PRO - 129 -54.5 159.0 N 123.45 CA 124.68 C 127.99 O 128.2 CB 124.88 CG 122.97 CD 123.6
A GLU - 197 -110.2 -141.6 N 131.16 CA 134.89 C 136.27 O 136.38 CB 134.56 CG 134.16 CD 133.97 OE1 132.64 OE2 130.66
A GLY - 64 -128.5 -71.8 N 138.36 CA 140.35 C 142.61 O 142.32
A PRO - 129 -32.9 137.5 N 144.28 CA 145.22 C 148.01 O 148.34 CB 145.15 CG 144.83 CD 144.3
A ALA - 99 -120.9 139.9 N 150.18 CA 152.69 C 153.49 O 153.93 CB 151.79
A GLU S 130 -81.7 162.3 N 154.8 CA 155.88 C 157.03 O 156.95 CB 155.61 CG 153.68 CD 150.61 OE1 148.92 OE2 148.15
A GLY - 56 100.1 78.9 N 158.25 CA 159.74 C 160.94 O 160.95
A PHE - 211 -52.6 126.4 N 161.85 CA 162.84 C 163.58 O 163.67 CB 162.77 CG 162.96 CD1 163.26 CD2 162.15 CE1 162.46 CE2 162.72 CZ 162.64
A ILE - 156 -123.6 -80.3 N 164.67 CA 165.44 C 166.38 O 166.6 CB 165.4 CG1 164.66 CG2 165.07 CD1 162.13
A ASP S 154 -135.8 -160.1 N 167.14 CA 167.47 C 167.8 O 168.11 CB 168.03 CG 169.23 OD1 170.21 OD2 169.9
A PRO - 119 -102.6 128.7 N 167.71 CA 167.34 C 167.17 O 167.03 CB 167.45 CG 167.51 CD 167.64
A SER - 113 -138.3 -11.2 N 166.61 CA 166.12 C 165.49 O 165.31 CB 165.9 OG 165.35
A THR - 134 -136.4 170.6 N 165.05 CA 164.26 C 164.1 O 164.22 CB 164.54 OG1 163.99 CG2 164.19
A GLU - 183 141.3 109.4 N 163.24 CA 162.38 C 162.08 O 161.85 CB 162.44 CG 161.52 CD 161.19 OE1 159.04 OE2 159.12
A LYS - 167 136.8 132.1 N 161.86 CA 161.45 C 161.6 O 161.88 CB 161.47 CG 160.33 CD 159.76 CE 155.42 NZ 151.97
A THR - 140 -80.2 -28.8 N 161.27 CA 160.98 C 160.88 O 160.54 CB 160.65 OG1 159.55 CG2 159.71
A ARG - 187 62.6 -146.2 N 160.97 CA 161.08 C 161.51 O 161.72 CB 160.86 CG 159.26 CD 155.88 NE 153.81 CZ 152.97 NH1 152.49 NH2 153.23
A THR S 76 -101.3 110.4 N 161.85 CA 161.72 C 161.8 O 161.86 CB 161.69 OG1 161.04 CG2 160.92
A VAL S 72 -124.2 -12.9 N 161.51 CA 160.95 C 160.93 O 160.64 CB 161.0 CG1 160.67 CG2 160.28
A PRO S 101 -67.0 -98.7 N 160.76 CA 160.37 C 160.17 O 160.05 CB 160.2 CG 160.48 CD 160.77
A LEU S 156 -56.6 111.5 N 159.63 CA 159.01 C 157.56 O 157.38 CB 159.25 CG 159.56 CD1 159.89 CD2 158.12
A GLU S 94 -166.9 -88.5 N 155.62 CA 153.8 C 152.43 O 152.43 CB 153.86 CG 153.18 CD 152.07 OE1 151.9 OE2 150.84
A ILE S 108 102.7 18.5 N 150.6 CA 148.96 C 147.67 O 147.15 CB 148.97 CG1 148.11 CG2 148.91 CD1 145.27
A MET - 55 33.9 159.1 N 146.36 CA 144.78 C 144.68 O 144.75 CB 144.96 CG 144.93 SD 143.8 CE 143.06
A VAL S 107 -12.4 -178.0 N 144.08 CA 143.35 C 142.84 O 142.48 CB 143.3 CG1 142.78 CG2 142.57
A THR S 146 -60.2 -78.6 N 142.47 CA 142.07 C 141.76 O 141.65 CB 142.19 OG1 140.95 CG2 142.4
A GLY S 70 -105.3 41.2 N 141.23 CA 140.24 C 138.71 O 138.58
A GLU S 140 -146.7 73.0 N 137.62 CA 135.92 C 135.78 O 135.8 CB 136.28 CG 135.17 CD 132.86 OE1 131.33 OE2 131.86
A LYS - 140 144.8 -102.5 N 134.41 CA 132.98 C 132.29 O 132.38 CB 133.28 CG 132.52 CD 132.87 CE 133.32 NZ 131.24
A THR - 86 37.2 131.9 N 130.47 CA 128.99 C 127.57 O 128.09 CB 129.86 OG1 130.01 CG2 129.91
A PRO S 102 -24.5 118.5 N 125.31 CA 122.51 C 120.17 O 120.09 CB 122.59 CG 123.2 CD 125.13
A PHE - 196 8.1 -170.6 N 116.55 CA 114.0 C 108.2 O 107.2 CB 114.41 CG 115.85 CD1 115.64 CD2 115.59 CE1 114.89 CE2 116.36 CZ 115.67
A TYR - 170 169.9 108.8 N 102.56 CA 97.61 C 92.27 O 91.99 CB 98.65 CG 100.46 CD1 102.99 CD2 98.96 CE1 101.84 CE2 99.98 CZ 101.84 OH 100.4
A GLY - 40 -128.2 -179.2 N 83.83 CA 73.06 C 70.31 O 72.25
A SER S 90 172.3 -28.0 N 62.92 CA 60.3 C 57.62 O 54.43 CB 58.81 OG 59.14
A THR S 73 -143.5 162.0 N 55.23 CA 53.3 C 52.67 O 53.72 CB 54.17 OG1 58.52 CG2 51.65
A LEU T 90 -58.8 -40.8 N 50.34 CA 48.91 C 50.33 O 47.89 CB 46.8 CG 36.41 CD1 36.99 CD2 33.47
A GLU G 106 -57.9 -36.9 N 51.9 CA 52.09 C 54.86 O 56.88 CB 50.82 CG 57.11 CD 66.66 OE1 67.76 OE2 68.04
A GLU G 75 -64.9 -15.5 N 56.29 CA 58.64 C 57.41 O 58.49 CB 59.54 CG 63.35 CD 69.59 OE1 78.77 OE2 71.33
A LEU G 97 -103.2 12.4 N 56.58 CA 55.19 C 56.02 O 56.99 CB 53.07 CG 53.28 CD1 50.79 CD2 58.71
A GLY T 21 82.3 24.3 N 54.63 CA 53.86 C 54.42 O 56.84
A LEU E 41 -115.3 100.7 N 51.33 CA 46.98 C 48.41 O 51.42 CB 46.79 CG 46.0 CD1 41.47 CD2 43.22
A TYR E 74 -99.9 138.0 N 48.71 CA 47.36 C 47.27 O 46.59 CB 46.52 CG 46.65 CD1 43.64 CD2 53.0 CE1 48.15 CE2 53.46 CZ 48.9 OH 54.1
A LYS E 105 -78.9 135.0 N 48.5 CA 47.55 C 47.02 O 46.63 CB 47.16 CG 51.35 CD 58.18 CE 66.36 NZ 76.31
A ALA E 5 -147.0 155.0 N 44.0 CA 40.93 C 40.53 O 45.38 CB 39.81
A GLN E 18 -75.1 140.9 N 41.74 CA 40.22 C 39.39 O 38.81 CB 43.71 CG 46.96 CD 45.14 OE1 50.84 NE2 42.0
A VAL E 10 -129.3 112.7 N 42.85 CA 43.38 C 44.16 O 45.24 CB 43.8 CG1 41.12 CG2 40.03
A VAL E 8 -114.3 127.3 N 43.77 CA 44.81 C 45.35 O 43.84 CB 45.25 CG1 42.66 CG2 44.71
A ILE E 37 -133.1 178.0 N 47.21 CA 48.83 C 51.43 O 50.96 CB 49.0 CG1 53.0 CG2 44.46 CD1 49.86
A PRO - 16 -53.1 -61.2 N 52.76 CA 56.64 C 60.55 O 61.81 CB 54.67 CG 51.39 CD 54.17
A PHE - 124 120.7 94.4 N 65.72 CA 75.39 C 77.82 O 78.34 CB 73.32 CG 75.09 CD1 76.85 CD2 75.53 CE1 82.72 CE2 79.11 CZ 76.85
A ASN - 89 -133.1 -115.4 N 82.36 CA 84.67 C 90.18 O 91.01 CB 84.61 CG 84.09 OD1 83.98 ND2 83.18
A ALA - 93 -154.9 -165.8 N 94.69 CA 99.23 C 102.66 O 101.93 CB 98.64
A PHE - 199 -130.7 132.5 N 107.39 CA 111.69 C 112.66 O 112.76 CB 111.69 CG 113.67 CD1 113.96 CD2 115.38 CE1 113.64 CE2 114.28 CZ 114.03
A GLY - 75 -130.2 130.0 N 114.26 CA 115.71 C 117.99 O 118.17
A THR - 107 -115.3 156.6 N 119.96 CA 122.37 C 122.99 O 123.12 CB 121.78 OG1 121.89 CG2 121.55
A MET - 139 -157.7 61.1 N 124.42 CA 125.39 C 125.97 O 125.33 CB 125.43 CG 125.96 SD 124.88 CE 126.05
A ALA - 97 -61.6 106.1 N 127.58 CA 128.64 C 130.59 O 131.26 CB 128.68
A MET - 152 -157.9 -119.8 N 132.29 CA 133.54 C 133.68 O 133.52 CB 133.28 CG 133.03 SD 134.78 CE 136.0
A ALA S 71 71.2 -151.9 N 134.29 CA 134.53 C 134.94 O 134.84 CB 134.36
A ARG S 239 -110.9 96.8 N 135.39 CA 135.96 C 136.18 O 135.93 CB 135.92 CG 136.85 CD 139.23 NE 138.84 CZ 137.3 NH1 137.21 NH2 133.95
A GLU - 109 -122.7 -142.9 N 136.49 CA 136.01 C 135.99 O 135.7 CB 135.51 CG 134.01 CD 130.66 OE1 130.11 OE2 127.19
A GLU - 164 120.6 17.4 N 136.02 CA 136.09 C 136.64 O 136.82 CB 135.97 CG 135.77 CD 134.54 OE1 129.42 OE2 133.4
A PHE - 166 -120.1 70.1 N 136.95 CA 137.03 C 137.0 O 136.52 CB 137.65 CG 138.18 CD1 138.99 CD2 137.32 CE1 139.14 CE2 138.52 CZ 139.32
A GLU - 130 -131.9 -143.6 N 136.63 CA 136.15 C 136.41 O 136.3 CB 135.81 CG 133.82 CD 128.93 OE1 126.71 OE2 126.42
A ASN - 136 59.0 158.0 N 136.82 CA 136.49 C 136.52 O 136.84 CB 136.54 CG 136.8 OD1 135.93 ND2 135.97
A ASP - 164 83.5 -158.6 N 136.01 CA 135.33 C 134.74 O 134.82 CB 136.08 CG 136.73 OD1 136.8 OD2 137.56
A SER - 111 -156.9 -93.1 N 133.55 CA 132.05 C 131.18 O 130.59 CB 132.29 OG 131.11
A GLY S 90 44.2 -32.5 N 129.81 CA 128.06 C 124.79 O 124.88
A SER S 115 -140.9 -71.5 N 121.86 CA 118.85 C 117.03 O 115.89 CB 118.75 OG 115.21
A SER - 86 -58.3 170.5 N 115.37 CA 113.07 C 112.5 O 111.66 CB 113.86 OG 114.18
A GLN - 146 85.9 142.1 N 111.48 CA 109.85 C 108.44 O 108.35 CB 110.76 CG 111.22 CD 112.56 OE1 110.32 NE2 114.99
A VAL - 115 -150.4 -37.1 N 107.21 CA 103.99 C 102.63 O 102.77 CB 104.35 CG1 103.42 CG2 100.67
A PHE - 157 84.3 66.2 N 99.52 CA 96.14 C 93.41 O 91.38 CB 98.56 CG 100.17 CD1 102.09 CD2 102.29 CE1 103.65 CE2 103.9 CZ 104.75
A TRP - 219 -153.4 -175.6 N 88.94 CA 84.64 C 80.46 O 77.88 CB 87.83 CG 91.69 CD1 93.35 CD2 92.94 NE1 93.47 CE2 94.8 CE3 90.17 CZ2 94.66 CZ3 90.77 CH2 93.45
A LEU - 111 48.3 96.3 N 74.56 CA 69.49 C 63.46 O 61.42 CB 67.37 CG 72.07 CD1 75.82 CD2 67.35
A LEU - 120 -63.2 141.5 N 58.58 CA 52.97 C 49.07 O 45.77 CB 52.47 CG 54.74 CD1 51.43 CD2 55.62
A LYS E 120 -109.5 138.1 N 47.45 CA 49.35 C 49.81 O 48.37 CB 48.91 CG 50.12 CD 57.69 CE 59.46 NZ 57.41
A GLU E 3 -121.4 111.2 N 50.41 CA 49.9 C 50.99 O 51.14 CB 49.0 CG 48.16 CD 54.11 OE1 48.96 OE2 46.6
A SER E 20 -87.0 120.2 N 50.91 CA 52.88 C 55.44 O 54.94 CB 51.21 OG 58.53
A GLU E 30 -94.1 118.4 N 56.28 CA 59.25 C 60.58 O 60.36 CB 57.57 CG 63.79 CD 71.99 OE1 80.05 OE2 78.7
A LEU E 54 -138.1 175.6 N 61.63 CA 62.44 C 61.78 O 58.93 CB 63.84 CG 64.82 CD1 60.2 CD2 66.65
A THR - 89 -95.2 150.8 N 63.47 CA 64.97 C 64.17 O 61.92 CB 65.39 OG1 69.69 CG2 66.6
A PRO S 49 -56.9 101.5 N 65.71 CA 66.61 C 70.69 O 69.57 CB 67.82 CG 63.19 CD 65.74
A SER - 94 -154.5 53.1 N 76.7 CA 77.91 C 79.89 O 78.74 CB 76.57 OG 84.08
A ASN - 33 -145.3 152.5 N 83.19 CA 87.24 C 89.66 O 89.64 CB 86.5 CG 79.68 OD1 80.75 ND2 64.55
A SER - 93 -115.3 -120.1 N 94.93 CA 95.54 C 97.29 O 96.54 CB 97.36 OG 97.61
A ASN S 115 -111.1 155.3 N 98.57 CA 97.62 C 98.27 O 98.0 CB 97.99 CG 99.15 OD1 99.51 ND2 98.68
A ILE S 102 101.9 -90.6 N 97.77 CA 96.66 C 96.65 O 96.59 CB 96.54 CG1 97.32 CG2 96.31 CD1 96.39
A LEU S 94 -155.9 149.0 N 95.19 CA 92.74 C 91.34 O 91.15 CB 93.59 CG 94.38 CD1 92.06 CD2 90.23
A ASP - 127 41.5 169.4 N 88.25 CA 84.29 C 81.44 O 80.37 CB 83.74 CG 85.96 OD1 88.47 OD2 85.3
A GLY S 44 71.9 120.8 N 77.99 CA 73.66 C 72.47 O 73.99
A ARG - 109 96.5 139.9 N 67.49 CA 60.92 C 56.85 O 57.66 CB 60.66 CG 59.7 CD 62.14 NE 65.85 CZ 72.19 NH1 67.2 NH2 72.08
A TYR E 44 -136.8 154.1 N 52.93 CA 50.36 C 47.48 O 49.08 CB 50.11 CG 49.88 CD1 43.25 CD2 50.83 CE1 38.08 CE2 47.61 CZ 44.62 OH 52.54
A ALA E 0 -109.0 143.2 N 47.8 CA 45.4 C 44.19 O 42.62 CB 44.27
A VAL E 24 -92.9 128.7 N 42.6 CA 41.43 C 42.03 O 40.18 CB 41.31 CG1 36.95 CG2 38.99
A PHE E 1 -131.3 -21.9 N 38.35 CA 36.8 C 34.81 O 36.44 CB 34.81 CG 37.84 CD1 34.08 CD2 24.73 CE1 35.1 CE2 27.93 CZ 30.39
A GLY E 0 -120.4 158.1 N 33.36 CA 30.22 C 34.7 O 35.99
A TYR E 20 -142.8 122.7 N 37.3 CA 39.04 C 37.02 O 38.31 CB 39.35 CG 39.59 CD1 32.77 CD2 34.57 CE1 35.61 CE2 30.08 CZ 36.56 OH 37.46
A VAL E 0 -82.5 115.4 N 32.65 CA 35.59 C 39.57 O 42.16 CB 36.1 CG1 31.75 CG2 33.57
A THR E 23 -105.6 6.8 N 43.86 CA 44.15 C 44.59 O 47.99 CB 43.05 OG1 42.77 CG2 43.42
A ASP E 85 -158.2 130.3 N 47.22 CA 47.52 C 50.7 O 54.49 CB 48.85 CG 52.35 OD1 61.98 OD2 59.88
A ASN S 57 72.5 24.9 N 52.13 CA 52.16 C 53.89 O 53.61 CB 53.56 CG 52.5 OD1 48.85 ND2 51.21
A GLU T 45 -59.0 -16.1 N 54.63 CA 56.63 C 55.81 O 56.61 CB 55.43 CG 63.58 CD 67.45 OE1 77.86 OE2 75.53
A ASP T 126 -84.3 -20.6 N 55.32 CA 55.65 C 53.79 O 50.71 CB 59.61 CG 65.78 OD1 68.61 OD2 70.9
A PHE G 82 -86.7 2.8 N 51.04 CA 48.06 C 45.41 O 47.85 CB 47.32 CG 49.21 CD1 54.42 CD2 43.84 CE1 52.58 CE2 48.76 CZ 54.26
A LEU G 0 -70.3 -32.4 N 41.39 CA 40.91 C 44.06 O 45.48 CB 38.73 CG 39.81 CD1 32.79 CD2 32.39
A ALA G 68 -60.2 -16.7 N 44.88 CA 48.74 C 50.02 O 54.16 CB 50.75
A ASP G 59 -90.2 6.2 N 50.64 CA 51.99 C 49.94 O 51.57 CB 54.23 CG 57.28 OD1 65.19 OD2 61.81
A LEU - 2 -86.1 126.2 N 49.53 CA 50.62 C 51.7 O 50.77 CB 47.84 CG 48.02 CD1 43.99 CD2 39.4
A LYS - 70 -123.9 164.8 N 52.02 CA 52.89 C 54.03 O 55.97 CB 54.49 CG 52.13 CD 51.84 CE 55.28 NZ 58.76
A VAL T 92 -59.3 140.8 N 55.5 CA 55.3 C 54.96 O 53.16 CB 57.05 CG1 56.46 CG2 58.64
A GLY T 20 102.6 -26.8 N 50.4 CA 49.99 C 50.32 O 48.27
A ASP - 1 -69.2 153.1 N 48.87 CA 48.29 C 47.44 O 45.17 CB 48.63 CG 48.48 OD1 44.72 OD2 56.86
A VAL E 19 -111.6 133.9 N 44.85 CA 45.48 C 46.23 O 44.37 CB 48.05 CG1 46.79 CG2 47.62
A ILE E 8 -83.6 105.5 N 45.76 CA 46.04 C 50.14 O 48.98 CB 46.84 CG1 39.54 CG2 43.69 CD1 42.6
A GLU E 81 -67.5 -45.5 N 49.93 CA 48.79 C 50.02 O 46.92 CB 50.45 CG 58.77 CD 75.72 OE1 76.09 OE2 79.44
A SER E 21 -161.1 149.3 N 49.33 CA 48.89 C 46.16 O 46.89 CB 50.78 OG 46.06
A ILE E 8 -131.4 111.2 N 43.71 CA 42.09 C 40.81 O 42.28 CB 42.23 CG1 37.88 CG2 37.42 CD1 33.76
A GLN E 124 -117.4 128.7 N 41.53 CA 46.85 C 44.72 O 47.73 CB 45.29 CG 52.45 CD 52.93 OE1 69.2 NE2 44.83
A VAL E 30 -60.5 140.9 N 42.51 CA 40.27 C 42.29 O 43.07 CB 40.24 CG1 36.1 CG2 35.83
A VAL E 63 -117.2 -23.0 N 43.36 CA 40.88 C 42.71 O 46.93 CB 41.99 CG1 41.53 CG2 43.82
A SER E 59 -169.6 160.8 N 40.54 CA 39.28 C 36.88 O 39.14 CB 39.8 OG 44.44
A GLY - 14 84.8 -2.5 N 36.02 CA 36.1 C 36.15 O 38.97
A LEU G 64 -51.7 -27.9 N 35.51 CA 33.57 C 38.53 O 42.12 CB 25.44 CG 33.41 CD1 22.11 CD2 28.24
A GLU G 163 -67.8 -19.1 N 39.82 CA 43.66 C 44.56 O 45.66 CB 47.59 CG 56.1 CD 65.41 OE1 68.14 OE2 66.24
A ASN G 27 -79.3 -7.9 N 44.26 CA 42.78 C 41.03 O 37.96 CB 46.53 CG 49.19 OD1 56.26 ND2 37.96
A LEU E 20 -80.2 115.2 N 39.71 CA 40.18 C 41.06 O 40.3 CB 41.28 CG 39.53 CD1 35.88 CD2 34.43
A ALA E 28 -105.5 155.1 N 42.99 CA 43.87 C 44.68 O 45.98 CB 46.4
A ASN S 68 52.5 44.0 N 46.57 CA 41.96 C 43.96 O 45.85 CB 42.71 CG 47.27 OD1 48.61 ND2 42.44
A PRO - 86 -66.3 150.9 N 45.16 CA 47.11 C 52.76 O 54.47 CB 42.93 CG 43.26 CD 43.81
A SER - 83 -107.7 -46.9 N 59.6 CA 64.03 C 69.25 O 71.39 CB 65.3 OG 64.03
A TYR - 121 -60.7 360.0 N 72.55 CA 73.93 C 73.77 O 73.21 CB 76.58 CG 76.74 CD1 80.81 CD2 82.43 CE1 81.9 CE2 82.85 CZ 81.02 OH 80.84
