A SER - 121 360.0 128.5 N 59.95 CA 59.61 C 58.47 O 58.28 CB 60.1 OG 62.09
A ARG T 99 -43.0 -43.7 N 57.43 CA 55.6 C 53.44 O 52.26 CB 56.21 CG 57.46 CD 60.83 NE 62.6 CZ 62.52 NH1 63.15 NH2 62.97
A LEU T 26 -83.9 -10.7 N 51.7 CA 50.21 C 48.93 O 49.24 CB 50.02 CG 50.66 CD1 52.8 CD2 49.95
A ASP S 35 -146.6 57.6 N 47.17 CA 46.23 C 44.99 O 44.61 CB 46.25 CG 48.25 OD1 51.7 OD2 49.62
A PRO - 18 -61.5 151.1 N 43.98 CA 42.72 C 40.87 O 40.33 CB 43.09 CG 44.26 CD 43.8
A VAL - 7 -68.7 133.0 N 39.45 CA 37.82 C 37.34 O 37.99 CB 37.84 CG1 36.54 CG2 37.46
A ARG - 38 -102.9 151.0 N 36.23 CA 35.37 C 34.48 O 34.21 CB 35.42 CG 36.95 CD 38.86 NE 41.26 CZ 41.82 NH1 39.86 NH2 40.83
A PRO G 31 -57.2 -37.0 N 33.91 CA 33.18 C 32.46 O 31.45 CB 33.39 CG 33.48 CD 33.56
A GLY G 1 -63.9 -20.7 N 32.15 CA 32.14 C 32.28 O 33.39
A GLN G 29 -76.1 -4.7 N 31.77 CA 30.63 C 31.29 O 30.95 CB 30.78 CG 29.85 CD 31.37 OE1 29.6 NE2 30.82
A LEU G 0 -111.3 8.5 N 31.42 CA 31.64 C 31.15 O 30.99 CB 32.07 CG 32.62 CD1 32.08 CD2 31.47
A LEU E 1 -118.1 148.7 N 31.09 CA 31.01 C 30.64 O 31.04 CB 30.83 CG 32.85 CD1 33.39 CD2 32.68
A ILE E 1 -118.2 165.5 N 32.78 CA 34.27 C 35.54 O 35.42 CB 33.99 CG1 34.32 CG2 32.48 CD1 35.76
A ASP - 18 -102.0 163.0 N 37.24 CA 39.38 C 40.72 O 40.77 CB 39.55 CG 41.08 OD1 42.99 OD2 41.88
A LEU - 5 -117.5 153.3 N 42.66 CA 44.1 C 46.09 O 45.57 CB 43.82 CG 43.71 CD1 44.03 CD2 41.55
A PRO S 77 -69.8 -37.4 N 48.25 CA 49.68 C 51.2 O 52.03 CB 49.96 CG 49.45 CD 48.22
A GLY S 15 -150.9 -166.4 N 51.86 CA 53.24 C 53.44 O 52.88
A PRO S 28 -75.9 -11.8 N 54.48 CA 54.26 C 53.9 O 53.27 CB 54.45 CG 55.04 CD 54.61
A GLU S 124 -121.8 144.9 N 53.7 CA 54.43 C 52.66 O 52.56 CB 55.93 CG 61.92 CD 69.24 OE1 72.75 OE2 72.78
A LEU - 1 -85.9 94.3 N 50.93 CA 49.58 C 49.65 O 49.44 CB 48.95 CG 48.07 CD1 48.54 CD2 45.82
A ASP - 62 -69.1 155.5 N 49.77 CA 50.61 C 49.93 O 48.9 CB 51.1 CG 53.51 OD1 57.57 OD2 54.72
A LYS H 111 -53.6 -40.8 N 50.56 CA 50.52 C 49.33 O 48.6 CB 51.68 CG 56.23 CD 61.61 CE 65.7 NZ 67.74
A ASP H 106 -65.3 -39.1 N 48.87 CA 48.0 C 45.8 O 45.48 CB 49.18 CG 53.56 OD1 58.69 OD2 57.01
A THR H 1 -66.2 -42.4 N 43.97 CA 42.18 C 40.97 O 40.98 CB 42.5 OG1 43.89 CG2 40.94
A ALA H 0 -59.4 -46.6 N 39.7 CA 38.3 C 38.14 O 38.15 CB 37.59
A ALA H 33 -60.9 -40.9 N 37.09 CA 37.24 C 36.78 O 36.9 CB 36.22
A TYR H 8 -67.0 -47.8 N 36.62 CA 36.18 C 34.93 O 33.7 CB 36.84 CG 38.76 CD1 40.17 CD2 40.2 CE1 41.99 CE2 42.12 CZ 43.24 OH 46.08
A LEU H 3 -54.8 -44.7 N 34.05 CA 34.55 C 35.57 O 35.23 CB 34.22 CG 34.03 CD1 32.03 CD2 33.71
A ARG H 63 -69.1 -47.1 N 36.95 CA 38.87 C 38.9 O 38.99 CB 40.04 CG 45.13 CD 50.74 NE 52.32 CZ 53.94 NH1 54.25 NH2 54.01
A GLU H 94 -50.5 -42.8 N 39.14 CA 40.35 C 39.34 O 39.14 CB 41.29 CG 46.15 CD 53.2 OE1 55.53 OE2 56.79
A HIS H 46 -102.1 -1.7 N 38.27 CA 37.6 C 36.96 O 37.43 CB 37.52 CG 37.84 ND1 39.58 CD2 37.84 CE1 38.03 NE2 38.08
A GLY T 21 61.0 37.6 N 36.14 CA 35.24 C 34.82 O 35.39
A ILE - 4 -62.0 133.1 N 33.95 CA 34.3 C 34.06 O 33.7 CB 34.96 CG1 34.22 CG2 34.8 CD1 34.91
A GLY - 21 -109.2 -3.8 N 34.07 CA 34.0 C 33.4 O 34.12
A ALA E 2 -145.3 139.0 N 32.03 CA 31.6 C 31.7 O 31.58 CB 30.5
A VAL E 0 -137.1 145.7 N 32.2 CA 32.71 C 33.5 O 33.84 CB 32.73 CG1 33.03 CG2 31.98
A CYS E 0 -116.0 133.2 N 33.93 CA 35.49 C 36.03 O 36.79 CB 35.6 SG 38.84
A LEU E 0 -100.7 146.1 N 36.85 CA 38.35 C 40.13 O 40.23 CB 37.72 CG 37.82 CD1 38.54 CD2 37.68
A PHE - 53 -132.3 -180.0 N 42.51 CA 44.28 C 45.82 O 46.05 CB 44.27 CG 44.15 CD1 44.52 CD2 43.29 CE1 44.6 CE2 43.32 CZ 43.38
A GLY G 64 -48.0 -44.2 N 47.5 CA 49.55 C 50.85 O 51.07
A LYS G 100 -55.6 -15.4 N 51.38 CA 52.11 C 52.28 O 52.71 CB 52.46 CG 51.85 CD 51.64 CE 50.2 NZ 49.34
A ASN G 0 -104.9 1.0 N 52.12 CA 52.32 C 54.01 O 53.56 CB 51.13 CG 49.23 OD1 46.82 ND2 45.65
A VAL - 60 -124.0 118.3 N 56.34 CA 58.99 C 61.46 O 61.5 CB 58.89 CG1 58.4 CG2 58.58
A GLU S 136 -120.5 -50.7 N 64.3 CA 67.27 C 68.17 O 68.75 CB 68.13 CG 70.78 CD 75.44 OE1 78.08 OE2 77.07
A SER - 60 -149.7 167.6 N 68.17 CA 68.47 C 67.83 O 67.79 CB 68.7 OG 69.65
A ALA H 45 -62.8 -38.0 N 67.42 CA 66.76 C 66.36 O 66.21 CB 66.72
A GLU H 142 -63.6 -46.5 N 65.89 CA 65.55 C 63.17 O 63.13 CB 67.0 CG 72.08 CD 78.53 OE1 81.01 OE2 80.47
A GLN H 5 -67.2 -43.6 N 60.5 CA 57.35 C 55.2 O 54.62 CB 57.11 CG 54.43 CD 51.55 OE1 48.83 NE2 49.36
A LEU H 14 -64.7 -39.3 N 53.03 CA 50.91 C 50.18 O 49.08 CB 50.22 CG 49.25 CD1 48.14 CD2 48.71
A ARG H 103 -61.7 -42.7 N 49.91 CA 50.52 C 49.89 O 49.63 CB 51.04 CG 53.57 CD 61.43 NE 66.16 CZ 69.71 NH1 70.99 NH2 71.4
A ARG H 112 -61.9 -45.7 N 49.42 CA 49.41 C 46.98 O 46.43 CB 51.08 CG 57.46 CD 66.9 NE 73.46 CZ 76.8 NH1 76.99 NH2 78.13
A LEU H 3 -61.6 -44.6 N 44.51 CA 42.1 C 41.13 O 40.47 CB 41.32 CG 40.4 CD1 40.2 CD2 39.11
A CYS H 1 -73.5 -30.4 N 40.29 CA 39.9 C 40.14 O 39.43 CB 39.94 SG 41.9
A ALA H 56 -68.0 -45.7 N 40.18 CA 40.34 C 40.3 O 40.69 CB 40.5
A ASP H 22 -57.2 -43.1 N 39.87 CA 39.3 C 38.54 O 38.75 CB 39.25 CG 40.99 OD1 42.79 OD2 40.68
A LEU H 0 -65.8 -39.0 N 37.55 CA 36.62 C 37.23 O 37.52 CB 35.04 CG 33.74 CD1 29.78 CD2 31.06
A ARG H 57 -66.0 -36.8 N 37.63 CA 38.52 C 39.38 O 39.36 CB 38.57 CG 38.61 CD 39.52 NE 41.93 CZ 42.89 NH1 40.54 NH2 44.88
A GLU H 123 -67.3 -43.3 N 39.71 CA 40.07 C 39.52 O 39.55 CB 40.56 CG 42.99 CD 45.75 OE1 48.58 OE2 46.44
A VAL H 9 -71.3 -45.5 N 39.23 CA 37.48 C 36.8 O 36.26 CB 37.61 CG1 36.58 CG2 37.31
A GLY - 23 87.8 -171.9 N 36.17 CA 36.97 C 38.3 O 37.75
A GLU T 133 -64.5 -24.5 N 39.28 CA 40.45 C 39.9 O 41.43 CB 41.18 CG 45.15 CD 50.3 OE1 52.26 OE2 52.23
A HIS T 52 -83.0 -0.9 N 38.47 CA 37.6 C 36.29 O 36.18 CB 37.74 CG 39.49 ND1 39.79 CD2 39.85 CE1 40.19 NE2 40.31
A ALA - 1 -44.2 124.7 N 34.83 CA 33.75 C 33.27 O 33.73 CB 32.64
A LEU E 4 -106.8 114.6 N 32.72 CA 33.21 C 33.5 O 33.61 CB 32.26 CG 33.18 CD1 33.43 CD2 30.67
A ILE E 0 -116.4 103.9 N 33.66 CA 34.21 C 35.32 O 35.39 CB 34.12 CG1 34.16 CG2 34.49 CD1 33.81
A ALA E 0 -103.9 156.2 N 35.54 CA 36.75 C 38.55 O 38.45 CB 35.19
A ILE E 17 -133.6 147.4 N 40.98 CA 43.94 C 45.31 O 45.23 CB 44.47 CG1 45.68 CG2 44.44 CD1 47.25
A ASP - 54 -98.6 90.1 N 46.69 CA 47.91 C 45.31 O 47.14 CB 49.98 CG 54.8 OD1 57.99 OD2 58.4
A HIS - 129 107.8 360.0 N 109.71 CA 98.25 C 97.89 O 90.97 CB 97.28 CG 88.39 ND1 79.06 CD2 88.36 CE1 76.35 NE2 80.72
A ALA - 140 360.0 105.3 N 129.48 CA 124.61 C 120.92 O 124.61 CB 129.08
A PRO - 74 -89.1 172.2 N 112.58 CA 108.05 C 102.33 O 102.06 CB 105.04 CG 104.04 CD 109.21
A SER - 43 -77.6 162.9 N 98.04 CA 92.99 C 86.8 O 83.81 CB 93.98 OG 89.81
A ALA H 13 -71.4 -32.1 N 84.62 CA 80.69 C 78.59 O 76.35 CB 82.09
A SER H 68 -50.5 -56.5 N 81.36 CA 81.14 C 77.53 O 77.75 CB 83.5 OG 87.53
A LEU H 11 -59.6 -48.7 N 74.07 CA 70.81 C 70.11 O 69.75 CB 69.89 CG 70.02 CD1 69.18 CD2 67.49
A GLY H 2 -49.7 -39.7 N 71.17 CA 72.87 C 75.15 O 75.87
A ALA H 75 -78.5 -43.7 N 77.12 CA 80.58 C 81.84 O 84.29 CB 82.38
A ALA H 71 -61.1 -35.8 N 80.46 CA 80.11 C 77.46 O 79.35 CB 80.05
A ASP - 52 59.9 36.7 N 72.22 CA 69.68 C 67.97 O 69.24 CB 71.95 CG 72.05 OD1 71.37 OD2 73.25
A ASP - 85 -102.2 102.2 N 64.92 CA 63.98 C 62.01 O 60.54 CB 64.55 CG 65.36 OD1 64.52 OD2 68.03
A GLN H 64 -52.5 -45.9 N 62.8 CA 62.94 C 61.44 O 60.35 CB 66.44 CG 72.8 CD 82.15 OE1 86.67 NE2 83.03
A GLN H 101 -62.8 -37.8 N 52.87 CA 52.31 C 50.77 O 50.44 CB 53.14 CG 56.09 CD 58.66 OE1 61.07 NE2 58.33
A LEU H 71 -60.1 -47.2 N 49.83 CA 49.32 C 48.61 O 48.8 CB 49.64 CG 49.72 CD1 48.92 CD2 51.69
A THR H 0 -57.5 -47.4 N 47.32 CA 46.08 C 46.01 O 45.6 CB 45.97 OG1 46.21 CG2 44.42
A GLU H 39 -57.6 -48.2 N 46.59 CA 47.38 C 48.01 O 47.56 CB 47.19 CG 49.29 CD 52.93 OE1 52.9 OE2 57.71
A ASP H 69 -66.5 -34.0 N 49.12 CA 50.13 C 49.62 O 49.9 CB 51.37 CG 53.41 OD1 55.7 OD2 55.24
A VAL H 41 -68.7 -39.7 N 48.97 CA 48.63 C 47.49 O 47.34 CB 49.02 CG1 49.17 CG2 49.45
A ASN H 10 -69.1 -34.4 N 46.28 CA 45.31 C 45.44 O 45.02 CB 44.53 CG 44.82 OD1 45.44 ND2 43.87
A ALA H 0 -63.1 -43.1 N 45.9 CA 46.59 C 47.46 O 47.38 CB 46.39
A ALA H 41 -65.8 -39.5 N 48.1 CA 48.62 C 48.41 O 48.65 CB 48.54
A LEU H 51 -63.5 -43.4 N 47.98 CA 47.65 C 46.75 O 46.2 CB 47.93 CG 50.07 CD1 52.7 CD2 51.3
A ALA H 0 -64.2 -37.6 N 46.56 CA 46.5 C 47.08 O 46.79 CB 45.68
A ARG H 123 -62.8 -40.2 N 47.64 CA 49.03 C 49.77 O 49.95 CB 49.31 CG 50.06 CD 52.21 NE 52.66 CZ 52.85 NH1 50.66 NH2 53.78
A GLN H 115 -64.6 -42.4 N 50.13 CA 51.31 C 50.06 O 49.94 CB 52.21 CG 58.17 CD 64.72 OE1 68.01 NE2 66.79
A LEU H 12 -63.8 -47.7 N 48.74 CA 47.87 C 48.34 O 47.84 CB 46.75 CG 46.28 CD1 44.75 CD2 45.17
A ARG H 46 -55.9 -41.3 N 49.64 CA 50.91 C 51.27 O 51.26 CB 51.78 CG 55.44 CD 60.61 NE 63.75 CZ 63.82 NH1 63.31 NH2 65.55
A SER H 47 -68.1 -22.0 N 51.31 CA 52.04 C 51.1 O 51.14 CB 52.97 OG 55.78
A VAL H 6 -96.4 -10.8 N 49.51 CA 47.95 C 46.65 O 46.99 CB 48.1 CG1 47.19 CG2 47.27
A GLY T 4 103.1 27.6 N 45.08 CA 42.77 C 41.71 O 41.3
A ILE - 0 -99.3 135.6 N 40.3 CA 39.03 C 38.51 O 38.92 CB 38.97 CG1 39.46 CG2 37.87 CD1 39.62
A ASN - 0 -120.8 10.9 N 37.24 CA 36.71 C 36.58 O 36.19 CB 36.62 CG 36.27 OD1 36.6 ND2 36.13
A TRP E 0 -149.9 127.1 N 36.78 CA 37.35 C 37.11 O 37.41 CB 37.59 CG 41.76 CD1 45.16 CD2 43.54 NE1 46.45 CE2 45.1 CE3 44.22 CZ2 43.67 CZ3 44.13 CH2 42.86
A ASN E 0 -125.1 134.4 N 36.55 CA 36.59 C 36.98 O 37.44 CB 35.58 CG 36.02 OD1 38.6 ND2 32.26
A PHE - 1 -84.5 69.1 N 37.48 CA 38.56 C 39.4 O 39.79 CB 38.28 CG 40.35 CD1 43.29 CD2 40.46 CE1 45.49 CE2 41.61 CZ 44.03
A THR - 17 -148.0 162.8 N 40.61 CA 41.6 C 41.09 O 40.69 CB 42.31 OG1 45.56 CG2 42.88
A PRO - 0 -86.7 154.7 N 40.77 CA 41.02 C 41.37 O 41.08 CB 40.84 CG 40.88 CD 40.72
A VAL B 8 -68.0 123.9 N 41.74 CA 41.8 C 42.07 O 42.4 CB 41.91 CG1 41.23 CG2 41.14
A LEU - 0 -111.7 10.4 N 42.04 CA 42.41 C 43.74 O 43.74 CB 41.9 CG 40.99 CD1 38.49 CD2 39.44
A ASP - 0 -61.3 146.1 N 45.31 CA 47.2 C 48.61 O 48.01 CB 47.2 CG 47.65 OD1 47.14 OD2 48.9
A ILE - 7 -109.0 120.3 N 50.87 CA 53.49 C 56.34 O 56.32 CB 53.06 CG1 51.96 CG2 52.46 CD1 51.63
A ASN - 24 -75.4 67.6 N 62.48 CA 66.97 C 69.98 O 70.05 CB 67.22 CG 68.97 OD1 70.55 ND2 69.3
A VAL - 62 -82.5 -36.0 N 73.32 CA 76.66 C 79.69 O 79.9 CB 76.43 CG1 76.25 CG2 76.66
A ASN - 60 -96.5 114.0 N 83.53 CA 88.02 C 91.06 O 91.09 CB 87.92 CG 88.89 OD1 88.67 ND2 88.57
A PRO T 115 -63.3 -38.2 N 94.6 CA 97.0 C 98.81 O 99.28 CB 97.41 CG 96.91 CD 95.04
A ALA T 95 -81.1 6.8 N 99.68 CA 99.83 C 98.53 O 98.75 CB 100.41
A ASN - 48 -144.4 70.8 N 95.98 CA 93.18 C 91.14 O 90.93 CB 92.92 CG 92.43 OD1 92.34 ND2 91.26
A PRO - 85 -83.3 82.2 N 89.61 CA 87.7 C 85.65 O 85.87 CB 88.0 CG 88.94 CD 89.61
A VAL S 57 -69.3 -40.2 N 82.91 CA 80.46 C 79.01 O 78.65 CB 80.18 CG1 79.66 CG2 79.73
A ILE S 16 -99.9 -46.9 N 77.66 CA 76.41 C 76.93 O 76.59 CB 75.92 CG1 75.18 CG2 75.51 CD1 73.97
A GLY G 12 68.1 -120.9 N 77.45 CA 78.66 C 78.96 O 78.81
A ASP G 107 -49.7 -33.9 N 79.63 CA 79.77 C 77.16 O 76.78 CB 81.29 CG 85.76 OD1 89.12 OD2 89.75
A ARG G 101 -81.2 -10.9 N 74.02 CA 70.81 C 68.09 O 67.62 CB 70.96 CG 72.38 CD 75.73 NE 77.94 CZ 78.58 NH1 78.37 NH2 79.0
A ALA S 1 -90.8 154.4 N 65.87 CA 63.9 C 62.88 O 62.19 CB 63.87
A TYR S 15 -81.4 -15.4 N 62.04 CA 61.69 C 62.04 O 62.37 CB 61.12 CG 61.05 CD1 60.67 CD2 59.94 CE1 60.56 CE2 60.57 CZ 60.9 OH 61.96
A GLY - 17 -179.9 -168.8 N 62.16 CA 63.3 C 63.82 O 63.25
A SER S 70 -115.0 7.0 N 64.79 CA 65.36 C 65.03 O 64.76 CB 65.74 OG 66.54
A ASP S 69 -140.9 156.3 N 64.31 CA 63.77 C 62.01 O 61.4 CB 64.68 CG 67.2 OD1 70.09 OD2 69.36
A ALA H 17 -59.2 -39.7 N 60.73 CA 59.11 C 58.61 O 57.83 CB 58.95
A ALA H 67 -58.9 -46.5 N 58.07 CA 57.76 C 57.13 O 57.33 CB 57.62
A ARG H 85 -69.7 -39.7 N 54.32 CA 53.34 C 51.23 O 51.22 CB 54.0 CG 56.49 CD 60.68 NE 64.95 CZ 66.11 NH1 65.38 NH2 66.42
A VAL H 0 -67.8 -43.7 N 49.2 CA 46.97 C 46.64 O 46.1 CB 46.76 CG1 45.26 CG2 45.46
A THR H 18 -55.9 -47.7 N 46.8 CA 47.11 C 47.32 O 47.25 CB 47.29 OG1 47.51 CG2 47.94
A ARG H 87 -65.5 -43.4 N 47.56 CA 48.32 C 47.79 O 47.71 CB 49.01 CG 51.08 CD 54.85 NE 56.65 CZ 56.74 NH1 55.84 NH2 57.12
A HIS H 0 -80.0 -29.5 N 47.28 CA 46.8 C 45.78 O 45.94 CB 46.69 CG 49.07 ND1 51.08 CD2 50.7 CE1 52.48 NE2 52.06
A GLY H 0 -59.1 -43.0 N 44.81 CA 43.91 C 43.79 O 43.35
A ARG H 96 -58.9 -44.1 N 44.57 CA 45.51 C 44.89 O 44.72 CB 46.08 CG 48.88 CD 55.32 NE 59.73 CZ 61.88 NH1 62.99 NH2 62.05
A ALA H 1 -64.2 -43.0 N 44.09 CA 43.74 C 43.19 O 43.38 CB 43.49
A ALA H 0 -63.8 -43.8 N 42.66 CA 41.77 C 41.36 O 41.28 CB 41.72
A LEU H 0 -60.8 -46.1 N 40.94 CA 40.48 C 41.12 O 41.47 CB 39.66 CG 39.53 CD1 40.68 CD2 38.53
A ALA H 32 -69.5 -36.7 N 41.39 CA 42.5 C 42.85 O 43.42 CB 42.5
A GLY H 0 -61.5 -34.5 N 43.35 CA 42.94 C 43.03 O 43.46
A HIS H 0 -77.8 -52.8 N 42.52 CA 42.44 C 42.94 O 42.68 CB 42.17 CG 42.01 ND1 43.32 CD2 41.34 CE1 43.42 NE2 42.11
A THR H 42 -52.6 -49.0 N 44.05 CA 45.64 C 47.04 O 47.32 CB 45.68 OG1 46.11 CG2 48.3
A ARG T 118 -68.7 -17.4 N 48.17 CA 49.99 C 50.08 O 50.19 CB 50.29 CG 53.02 CD 58.2 NE 59.44 CZ 62.77 NH1 63.38 NH2 61.16
A GLU T 47 -99.6 8.5 N 49.55 CA 49.35 C 48.76 O 49.61 CB 49.0 CG 51.35 CD 52.8 OE1 54.35 OE2 56.49
A GLY T 22 74.8 26.8 N 47.25 CA 45.28 C 44.0 O 44.16
A VAL - 0 -118.5 130.8 N 42.35 CA 41.05 C 40.43 O 40.18 CB 41.21 CG1 40.71 CG2 40.9
A ALA E 0 -71.5 126.9 N 38.58 CA 37.99 C 37.66 O 38.13 CB 37.2
A PRO E 0 -94.3 159.5 N 37.33 CA 37.46 C 38.23 O 39.43 CB 36.71 CG 36.65 CD 36.89
A CYS - 0 -131.8 114.0 N 38.88 CA 39.34 C 40.22 O 40.77 CB 39.17 SG 39.13
A ALA E 0 -69.1 139.1 N 40.47 CA 41.1 C 41.94 O 42.33 CB 40.75
A LYS E 4 -144.8 159.9 N 42.22 CA 42.82 C 43.34 O 43.39 CB 42.49 CG 42.41 CD 42.46 CE 42.53 NZ 41.38
A HIS E 15 -113.0 108.4 N 43.96 CA 44.72 C 44.43 O 45.01 CB 44.64 CG 47.11 ND1 48.46 CD2 49.39 CE1 50.94 NE2 51.07
A PHE E 0 -65.6 136.3 N 43.62 CA 43.72 C 44.4 O 44.21 CB 43.33 CG 42.48 CD1 42.4 CD2 40.44 CE1 42.76 CE2 41.16 CZ 41.98
A PRO T 0 -91.3 15.5 N 44.96 CA 45.56 C 46.16 O 46.12 CB 45.53 CG 45.74 CD 45.26
A GLY - 1 129.9 116.4 N 46.97 CA 48.21 C 49.94 O 49.99
A HIS - 30 -93.0 -0.3 N 51.5 CA 53.47 C 54.93 O 55.28 CB 53.53 CG 56.54 ND1 58.21 CD2 57.86 CE1 58.93 NE2 59.61
A GLY T 1 -56.6 -35.4 N 55.96 CA 58.3 C 59.8 O 59.78
A ASP T 26 -140.9 54.7 N 61.3 CA 63.13 C 63.81 O 63.26 CB 63.35 CG 64.6 OD1 65.81 OD2 65.94
A THR - 10 -92.9 151.2 N 65.62 CA 67.16 C 68.19 O 68.44 CB 66.96 OG1 67.47 CG2 67.28
A HIS B 96 -122.5 127.2 N 71.3 CA 72.61 C 70.26 O 69.44 CB 75.39 CG 79.93 ND1 84.15 CD2 82.69 CE1 84.55 NE2 84.27
A GLN - 108 -104.3 123.6 N 68.7 CA 66.26 C 66.3 O 66.86 CB 66.29 CG 65.66 CD 66.43 OE1 66.18 NE2 67.8
A ASP S 146 -69.3 -34.7 N 64.8 CA 64.99 C 62.38 O 63.7 CB 66.13 CG 70.29 OD1 74.09 OD2 72.77
A SER S 54 -156.9 173.7 N 57.6 CA 54.07 C 51.03 O 49.41 CB 54.06 OG 51.97
A HIS T 119 -66.6 -12.2 N 48.96 CA 46.88 C 45.1 O 45.62 CB 47.38 CG 47.28 ND1 46.82 CD2 45.96 CE1 45.96 NE2 46.05
A LEU T 73 -102.6 -2.8 N 43.02 CA 41.24 C 40.6 O 41.04 CB 41.21 CG 40.84 CD1 40.59 CD2 39.68
A ALA S 22 -96.0 148.1 N 39.4 CA 39.65 C 39.62 O 39.66 CB 39.33
A LEU - 25 -66.7 136.7 N 40.12 CA 41.43 C 41.73 O 42.21 CB 41.96 CG 44.24 CD1 45.28 CD2 44.19
A PRO - 14 -63.4 148.9 N 42.67 CA 43.59 C 44.6 O 44.56 CB 43.95 CG 43.95 CD 42.96
A ARG E 88 -121.5 153.4 N 46.34 CA 48.1 C 48.53 O 49.23 CB 49.45 CG 52.3 CD 59.29 NE 63.02 CZ 64.16 NH1 62.97 NH2 64.66
A VAL E 2 -125.0 122.4 N 47.58 CA 47.65 C 48.55 O 48.11 CB 47.3 CG1 45.55 CG2 46.95
A SER - 74 -107.1 8.6 N 50.18 CA 52.39 C 53.0 O 53.56 CB 52.75 OG 55.01
A LYS - 37 -61.4 151.6 N 53.39 CA 53.47 C 53.07 O 52.85 CB 53.63 CG 55.19 CD 56.09 CE 57.6 NZ 58.62
A SER - 54 -67.9 163.6 N 53.07 CA 53.04 C 52.34 O 52.09 CB 53.41 OG 54.73
A ARG H 73 -56.6 -48.9 N 52.01 CA 51.82 C 52.1 O 51.55 CB 51.61 CG 50.43 CD 49.59 NE 48.7 CZ 48.43 NH1 48.06 NH2 48.03
A ALA H 71 -57.3 -41.7 N 52.9 CA 53.9 C 54.11 O 54.53 CB 53.85
A GLU H 106 -61.2 -43.2 N 54.08 CA 53.98 C 52.35 O 52.24 CB 54.94 CG 59.46 CD 65.43 OE1 66.12 OE2 69.06
A LEU H 1 -61.7 -45.4 N 50.57 CA 48.92 C 48.77 O 48.29 CB 48.48 CG 46.97 CD1 45.56 CD2 44.91
A ASP H 66 -55.7 -40.1 N 49.26 CA 49.84 C 50.04 O 50.19 CB 50.15 CG 50.93 OD1 51.83 OD2 52.81
A ALA H 76 -82.5 -22.9 N 50.0 CA 50.09 C 49.58 O 49.79 CB 49.48
A GLY T 17 -116.1 -103.9 N 48.26 CA 46.64 C 45.85 O 45.59
A GLU T 8 -40.6 -49.9 N 44.47 CA 43.48 C 42.3 O 42.15 CB 43.38 CG 44.68 CD 47.01 OE1 47.49 OE2 49.23
A LEU T 2 -77.9 -23.4 N 41.51 CA 40.67 C 40.84 O 41.4 CB 40.45 CG 39.36 CD1 38.91 CD2 38.61
A ALA H 24 -58.6 -47.1 N 40.56 CA 41.05 C 41.21 O 41.69 CB 40.68
A PRO H 0 -66.0 -37.2 N 41.22 CA 41.45 C 41.19 O 40.95 CB 41.43 CG 41.23 CD 41.06
A PHE H 1 -66.7 -43.7 N 40.76 CA 40.92 C 42.65 O 43.48 CB 39.61 CG 38.46 CD1 37.8 CD2 36.04 CE1 37.62 CE2 36.47 CZ 37.47
A ARG H 133 -62.7 -45.8 N 44.37 CA 46.53 C 46.68 O 47.47 CB 47.4 CG 52.51 CD 61.08 NE 68.39 CZ 71.65 NH1 72.29 NH2 72.93
A ALA H 48 -65.5 -27.5 N 46.71 CA 47.14 C 46.99 O 46.74 CB 46.87
A LEU H 0 -105.2 5.0 N 46.65 CA 46.21 C 45.93 O 45.31 CB 45.56 CG 45.98 CD1 43.44 CD2 44.97
A LEU G 23 -50.8 -51.3 N 46.22 CA 46.26 C 46.85 O 46.41 CB 46.42 CG 46.08 CD1 47.14 CD2 44.86
A PRO G 112 -64.0 -15.2 N 47.79 CA 48.81 C 49.21 O 50.4 CB 48.84 CG 48.79 CD 48.12
A GLU G 85 -102.3 -0.6 N 48.09 CA 47.48 C 45.28 O 44.63 CB 48.46 CG 54.1 CD 59.82 OE1 62.65 OE2 62.65
A THR - 6 -107.0 103.0 N 43.02 CA 41.35 C 39.86 O 39.58 CB 41.47 OG1 42.29 CG2 41.22
A PRO S 12 -75.8 -19.0 N 38.79 CA 37.87 C 36.97 O 35.97 CB 37.54 CG 38.86 CD 38.64
A ALA E 0 -150.6 145.0 N 36.17 CA 35.44 C 35.83 O 36.02 CB 34.79
A ILE E 0 -131.5 133.7 N 35.24 CA 35.32 C 35.44 O 34.86 CB 35.41 CG1 36.19 CG2 36.31 CD1 34.9
A THR E 0 -90.8 157.8 N 37.26 CA 39.17 C 40.1 O 41.96 CB 39.41 OG1 41.51 CG2 39.08
A ALA - 0 -102.5 138.0 N 40.86 CA 41.38 C 40.82 O 39.97 CB 41.64
A HIS S 11 -75.7 60.4 N 41.4 CA 41.72 C 41.39 O 41.02 CB 42.32 CG 45.26 ND1 46.97 CD2 45.74 CE1 47.38 NE2 47.0
A ILE - 0 -127.0 140.8 N 41.22 CA 41.18 C 40.37 O 39.68 CB 41.71 CG1 43.65 CG2 40.71 CD1 47.62
A VAL E 4 -93.8 120.7 N 40.22 CA 40.59 C 41.36 O 41.48 CB 40.61 CG1 40.34 CG2 39.62
A TYR E 0 -104.7 105.3 N 41.99 CA 43.1 C 44.58 O 45.07 CB 42.33 CG 43.08 CD1 42.94 CD2 44.25 CE1 44.07 CE2 45.1 CZ 45.08 OH 47.2
A ASP T 64 -46.6 -37.8 N 45.89 CA 47.96 C 48.3 O 49.0 CB 48.71 CG 50.82 OD1 52.44 OD2 55.01
A ALA T 41 -80.6 -11.4 N 48.05 CA 47.77 C 47.08 O 47.39 CB 47.17
A LEU T 14 -112.4 -45.1 N 46.29 CA 45.42 C 46.47 O 47.45 CB 44.09 CG 42.73 CD1 40.3 CD2 41.63
A ASP B 11 -165.7 102.4 N 46.96 CA 47.48 C 47.9 O 47.55 CB 47.21 CG 47.29 OD1 49.46 OD2 46.3
A ALA S 55 -77.1 -7.5 N 48.74 CA 49.93 C 50.7 O 50.77 CB 49.69
A GLU S 157 -105.2 -20.8 N 51.57 CA 52.56 C 50.96 O 51.98 CB 53.84 CG 59.87 CD 66.49 OE1 68.24 OE2 69.4
A HIS S 45 -135.8 144.1 N 48.05 CA 45.76 C 42.82 O 43.27 CB 45.73 CG 48.33 ND1 50.17 CD2 49.37 CE1 51.17 NE2 50.56
A PRO - 1 -62.0 153.5 N 40.17 CA 38.31 C 37.09 O 36.55 CB 38.0 CG 38.68 CD 39.45
A ALA G 0 -49.3 -41.5 N 35.97 CA 35.07 C 34.92 O 34.07 CB 34.78
A THR G 0 -63.2 -19.8 N 35.16 CA 35.99 C 35.65 O 35.45 CB 36.65 OG1 41.87 CG2 35.33
A LEU G 1 -118.7 16.8 N 35.42 CA 35.35 C 35.44 O 36.35 CB 35.16 CG 34.9 CD1 34.67 CD2 33.2
A SER - 0 -105.0 106.5 N 34.91 CA 35.3 C 35.17 O 35.43 CB 35.34 OG 36.84
A PRO H 51 -59.5 -32.8 N 35.86 CA 36.41 C 37.35 O 37.48 CB 35.77 CG 35.89 CD 35.41
A ARG I 171 -61.2 -36.3 N 38.12 CA 39.73 C 39.06 O 39.22 CB 40.84 CG 47.05 CD 56.6 NE 64.23 CZ 67.85 NH1 70.1 NH2 68.97
A ILE I 1 -86.6 -52.4 N 37.88 CA 37.1 C 37.15 O 37.29 CB 36.92 CG1 36.68 CG2 36.13 CD1 34.35
A LEU I 0 -70.3 -39.2 N 36.22 CA 35.7 C 36.53 O 37.22 CB 34.49 CG 33.56 CD1 33.04 CD2 31.81
A THR I 43 -98.6 -55.5 N 36.79 CA 37.57 C 38.73 O 38.99 CB 37.77 OG1 37.49 CG2 36.58
A GLY I 21 -53.7 -56.8 N 39.91 CA 41.09 C 41.54 O 42.15
A LEU I 4 -80.7 -67.0 N 41.24 CA 41.45 C 41.2 O 41.39 CB 41.79 CG 42.28 CD1 42.94 CD2 43.14
A LEU I 0 -56.6 -53.1 N 40.58 CA 40.75 C 41.15 O 41.05 CB 40.64 CG 41.87 CD1 41.67 CD2 42.37
A ARG I 35 -79.0 -46.9 N 41.76 CA 43.11 C 44.56 O 45.38 CB 42.74 CG 41.81 CD 41.32 NE 39.29 CZ 36.55 NH1 33.74 NH2 36.51
A GLU I 144 -90.3 -54.1 N 46.13 CA 47.91 C 47.98 O 48.67 CB 48.33 CG 51.16 CD 54.97 OE1 56.58 OE2 55.94
A GLU I 115 -65.3 -46.8 N 47.81 CA 48.03 C 46.57 O 45.99 CB 49.08 CG 53.44 CD 58.5 OE1 59.9 OE2 60.8
A TRP S 31 -92.1 -14.0 N 44.8 CA 43.23 C 42.97 O 43.12 CB 42.25 CG 40.77 CD1 39.36 CD2 39.14 NE1 37.87 CE2 38.6 CE3 38.93 CZ2 38.57 CZ3 39.17 CH2 40.39
A GLY - 56 70.5 19.0 N 42.81 CA 42.11 C 41.38 O 41.62
A TYR - 11 -64.0 124.6 N 40.23 CA 39.27 C 39.55 O 40.06 CB 38.11 CG 36.29 CD1 34.07 CD2 34.19 CE1 32.76 CE2 34.11 CZ 34.4 OH 35.57
A ASP - 118 -116.5 13.9 N 39.82 CA 40.63 C 39.55 O 40.27 CB 41.78 CG 45.85 OD1 48.3 OD2 50.79
A GLY S 15 -85.3 -171.6 N 37.33 CA 35.58 C 34.52 O 33.66
A VAL E 2 -79.0 130.5 N 33.7 CA 32.53 C 32.24 O 31.78 CB 32.59 CG1 31.0 CG2 31.61
A ILE E 0 -107.1 123.8 N 31.44 CA 31.17 C 31.36 O 31.1 CB 31.25 CG1 32.17 CG2 30.92 CD1 32.98
A VAL E 0 -118.4 142.6 N 31.95 CA 33.56 C 35.08 O 35.2 CB 33.55 CG1 34.9 CG2 31.84
A THR E 0 -79.9 148.4 N 36.66 CA 39.52 C 41.93 O 43.56 CB 39.66 OG1 40.95 CG2 37.38
A ASP - 16 -59.4 165.4 N 43.87 CA 45.89 C 47.15 O 46.58 CB 46.55 CG 48.89 OD1 51.07 OD2 50.51
A SER - 18 -48.0 124.5 N 49.15 CA 51.64 C 52.96 O 52.15 CB 51.9 OG 54.24
A GLY T 34 -89.6 6.9 N 67.38 CA 72.58 C 75.78 O 76.35
A GLN H 116 -52.5 -48.0 N 81.05 CA 81.2 C 79.76 O 80.07 CB 82.17 CG 83.91 CD 87.44 OE1 86.38 NE2 88.24
A ALA H 15 -60.4 -40.6 N 78.32 CA 75.98 C 74.21 O 73.92 CB 76.04
A ILE H 3 -67.5 -48.6 N 71.9 CA 69.48 C 68.68 O 67.95 CB 69.36 CG1 68.67 CG2 69.65 CD1 67.34
A ASP H 82 -57.6 -33.4 N 68.35 CA 68.49 C 68.19 O 68.91 CB 69.65 CG 70.41 OD1 70.42 OD2 71.44
A ALA H 57 -80.0 -17.4 N 66.66 CA 66.14 C 64.88 O 65.94 CB 65.8
A ASN H 88 -110.7 -18.5 N 62.44 CA 60.84 C 59.25 O 58.75 CB 60.69 CG 61.91 OD1 65.34 ND2 60.52
A TYR S 58 -139.0 157.7 N 56.91 CA 55.19 C 55.48 O 54.79 CB 53.91 CG 53.18 CD1 52.78 CD2 52.15 CE1 53.28 CE2 52.91 CZ 53.7 OH 53.88
A GLY - 36 -77.6 149.3 N 55.73 CA 56.69 C 56.06 O 55.25
A ARG H 41 -57.2 -57.4 N 56.34 CA 55.48 C 52.9 O 51.7 CB 57.41 CG 60.2 CD 61.93 NE 62.08 CZ 61.13 NH1 59.89 NH2 57.91
A GLY H 11 -61.4 -46.2 N 49.47 CA 46.25 C 44.79 O 44.01
A GLU H 123 -52.2 -48.9 N 44.4 CA 45.38 C 43.85 O 44.8 CB 47.1 CG 52.94 CD 61.82 OE1 64.08 OE2 66.32
A ALA H 1 -61.4 -42.0 N 41.52 CA 39.25 C 37.8 O 37.04 CB 37.91
A ALA H 1 -67.0 -40.8 N 36.17 CA 35.2 C 35.34 O 35.2 CB 34.71
A VAL H 15 -65.3 -43.6 N 35.29 CA 35.65 C 36.19 O 35.72 CB 35.7 CG1 34.9 CG2 35.12
A ARG H 90 -61.9 -40.5 N 37.14 CA 38.29 C 37.24 O 38.43 CB 39.09 CG 43.95 CD 48.63 NE 50.67 CZ 52.31 NH1 53.05 NH2 53.03
A ALA H 0 -60.6 -45.2 N 34.94 CA 33.88 C 33.74 O 33.25 CB 32.66
A LEU H 0 -65.2 -45.0 N 33.3 CA 34.06 C 35.35 O 35.81 CB 33.36 CG 31.64 CD1 30.03 CD2 27.93
A ARG H 155 -61.2 -44.3 N 36.59 CA 37.66 C 38.08 O 39.15 CB 37.79 CG 39.81 CD 44.33 NE 47.52 CZ 50.04 NH1 52.21 NH2 52.27
A ALA H 2 -61.0 -26.6 N 37.45 CA 37.09 C 36.7 O 36.25 CB 37.32
A GLY T 6 140.3 -5.3 N 36.15 CA 35.79 C 35.33 O 36.28
A ALA - 0 -63.2 144.7 N 33.93 CA 32.54 C 32.35 O 31.93 CB 32.25
A ASP S 0 -91.5 -22.2 N 31.68 CA 31.12 C 30.71 O 30.24 CB 30.89 CG 32.49 OD1 36.93 OD2 31.46
A LEU B 1 -146.3 130.5 N 29.96 CA 30.29 C 31.0 O 30.83 CB 30.04 CG 29.2 CD1 27.15 CD2 26.95
A VAL E 0 -110.7 126.6 N 31.68 CA 32.18 C 33.02 O 32.21 CB 32.56 CG1 32.25 CG2 32.93
A ALA - 1 -109.2 77.2 N 37.52 CA 37.35 C 38.29 O 38.96 CB 36.29
A LEU - 19 -91.2 149.8 N 38.95 CA 39.31 C 40.49 O 40.94 CB 39.1 CG 38.32 CD1 38.56 CD2 35.32
A GLY S 29 132.7 -171.2 N 41.19 CA 42.05 C 42.59 O 42.64
A ARG S 162 -66.2 163.2 N 42.68 CA 43.05 C 43.08 O 42.31 CB 43.21 CG 42.79 CD 44.75 NE 43.31 CZ 44.64 NH1 44.36 NH2 45.47
A ARG H 72 -53.5 -41.7 N 43.74 CA 44.87 C 45.29 O 44.89 CB 45.67 CG 47.71 CD 52.11 NE 54.22 CZ 54.32 NH1 53.12 NH2 53.22
A GLU H 106 -57.8 -43.5 N 45.5 CA 46.64 C 45.64 O 45.86 CB 47.65 CG 53.03 CD 57.31 OE1 57.94 OE2 61.0
A VAL H 26 -70.2 -33.6 N 43.83 CA 42.62 C 41.45 O 41.68 CB 42.91 CG1 42.76 CG2 42.13
A GLN H 4 -63.2 -43.7 N 40.39 CA 39.77 C 40.27 O 39.58 CB 39.02 CG 39.2 CD 40.44 OE1 44.32 NE2 39.1
A GLN H 92 -61.3 -40.1 N 40.96 CA 42.27 C 42.13 O 42.86 CB 42.94 CG 46.5 CD 52.78 OE1 56.59 NE2 53.64
A ALA H 52 -67.0 -33.9 N 41.26 CA 40.94 C 40.5 O 41.25 CB 40.64
A THR H 2 -69.4 -49.9 N 39.02 CA 38.0 C 37.97 O 38.65 CB 37.63 OG1 38.41 CG2 36.12
A LEU H 11 -47.6 -48.3 N 37.72 CA 37.75 C 37.6 O 37.58 CB 38.12 CG 40.02 CD1 42.9 CD2 40.61
A ALA H 57 -59.7 -42.1 N 37.24 CA 38.1 C 38.33 O 38.82 CB 38.29
A ALA H 26 -68.8 -43.0 N 37.51 CA 36.75 C 36.11 O 36.4 CB 36.73
A VAL H 0 -68.5 -29.6 N 34.97 CA 34.15 C 35.34 O 34.82 CB 34.19 CG1 31.9 CG2 33.5
A ALA H 37 -60.9 -27.8 N 36.52 CA 38.73 C 40.53 O 40.97 CB 38.56
A GLU H 152 -82.9 -28.6 N 42.32 CA 44.08 C 42.85 O 43.61 CB 45.36 CG 52.05 CD 61.31 OE1 65.6 OE2 65.26
A TYR H 10 -76.7 -46.2 N 40.61 CA 38.74 C 37.69 O 37.74 CB 38.06 CG 37.63 CD1 38.41 CD2 34.93 CE1 37.0 CE2 35.0 CZ 36.1 OH 37.0
A VAL G 6 -52.9 -47.2 N 36.95 CA 36.69 C 37.57 O 37.72 CB 36.44 CG1 35.98 CG2 35.44
A PRO G 76 -62.5 -28.1 N 38.32 CA 39.89 C 41.42 O 41.64 CB 39.34 CG 39.31 CD 38.01
A GLU G 165 -95.1 5.2 N 42.85 CA 44.71 C 44.07 O 44.61 CB 45.69 CG 50.9 CD 57.38 OE1 62.27 OE2 58.95
A ASN - 49 -137.6 37.0 N 42.71 CA 42.3 C 41.92 O 41.57 CB 41.62 CG 42.95 OD1 46.11 ND2 39.71
A GLN H 59 -58.9 -43.3 N 41.54 CA 42.26 C 41.81 O 41.98 CB 42.99 CG 46.32 CD 51.24 OE1 54.89 NE2 51.13
A ALA H 80 -67.1 -43.3 N 41.33 CA 41.52 C 41.17 O 41.56 CB 41.66
A ALA H 48 -61.5 -46.7 N 40.15 CA 38.87 C 37.9 O 38.39 CB 38.96
A VAL H 0 -72.8 -25.6 N 36.31 CA 35.66 C 35.67 O 34.96 CB 35.23 CG1 35.04 CG2 34.44
A ALA H 33 -61.5 -44.1 N 35.75 CA 36.16 C 36.21 O 36.81 CB 35.2
A THR H 75 -61.2 -45.2 N 36.29 CA 36.63 C 36.02 O 37.05 CB 37.04 OG1 37.72 CG2 37.5
A LYS H 16 -61.3 -46.3 N 34.6 CA 33.88 C 33.67 O 33.8 CB 33.3 CG 32.97 CD 32.59 CE 31.74 NZ 33.35
A ARG H 21 -62.7 -40.6 N 33.36 CA 33.53 C 33.85 O 33.82 CB 32.71 CG 33.18 CD 33.51 NE 34.74 CZ 35.25 NH1 33.72 NH2 35.74
A GLU H 95 -61.2 -36.6 N 34.48 CA 35.49 C 35.13 O 35.77 CB 36.62 CG 41.79 CD 49.6 OE1 52.82 OE2 50.99
A ARG H 44 -60.4 -39.7 N 34.37 CA 34.2 C 33.81 O 33.2 CB 33.87 CG 35.72 CD 39.21 NE 41.99 CZ 41.4 NH1 39.8 NH2 41.66
A LEU H 12 -69.8 -38.7 N 33.34 CA 33.77 C 35.45 O 34.84 CB 33.05 CG 31.2 CD1 29.08 CD2 29.15
A ARG H 29 -72.4 -37.5 N 35.17 CA 37.39 C 37.54 O 37.09 CB 38.71 CG 41.71 CD 43.91 NE 49.68 CZ 51.57 NH1 52.68 NH2 49.83
A ALA H 40 -63.4 -38.7 N 37.78 CA 38.21 C 37.98 O 37.93 CB 37.88
A LEU H 9 -61.1 -51.9 N 37.27 CA 37.0 C 37.15 O 36.79 CB 36.32 CG 36.29 CD1 36.77 CD2 36.13
A ALA H 3 -60.1 -32.2 N 37.72 CA 39.44 C 41.21 O 41.58 CB 39.02
A ARG H 138 -67.7 -39.5 N 42.78 CA 45.48 C 45.02 O 45.0 CB 46.89 CG 52.89 CD 60.41 NE 63.19 CZ 62.44 NH1 61.98 NH2 61.3
A ARG H 149 -73.1 -37.9 N 44.25 CA 44.06 C 42.99 O 42.56 CB 44.3 CG 45.82 CD 47.49 NE 49.6 CZ 49.09 NH1 46.95 NH2 49.87
A PHE S 5 -126.2 70.2 N 41.7 CA 40.97 C 41.48 O 41.04 CB 39.95 CG 39.01 CD1 37.93 CD2 36.76 CE1 37.26 CE2 36.72 CZ 36.88
A PRO - 74 -63.1 140.8 N 42.59 CA 44.04 C 46.3 O 45.32 CB 43.69 CG 43.58 CD 42.58
A ALA - 2 -68.3 -47.0 N 49.09 CA 52.81 C 56.51 O 56.79 CB 52.44
A GLN - 136 -39.5 117.6 N 60.9 CA 66.38 C 68.1 O 68.37 CB 67.43 CG 72.9 CD 78.87 OE1 81.32 NE2 81.35
A ALA - 85 -60.8 360.0 N 70.46 CA 72.07 C 73.45 O 74.3 CB 72.3
B GLU - 157 360.0 138.1 N 75.75 CA 75.85 C 74.59 O 75.1 CB 76.46 CG 78.5 CD 80.87 OE1 81.53 OE2 81.34
B PRO - 23 -81.2 159.5 N 84.28 CA 82.02 C 79.67 O 79.17 CB 82.27 CG 83.44 CD 84.12
B SER - 73 -61.1 137.9 N 76.23 CA 72.71 C 69.46 O 68.6 CB 73.03 OG 73.08
B ARG T 101 -43.5 -39.1 N 65.93 CA 61.76 C 58.36 O 56.72 CB 62.21 CG 62.14 CD 64.01 NE 64.48 CZ 64.07 NH1 64.32 NH2 64.88
B LEU T 22 -87.0 -7.8 N 55.13 CA 52.54 C 50.62 O 50.27 CB 52.33 CG 52.35 CD1 52.61 CD2 51.13
B ASP S 34 -146.4 57.6 N 48.53 CA 46.63 C 45.04 O 44.35 CB 46.91 CG 48.42 OD1 51.12 OD2 50.99
B PRO - 16 -59.8 148.6 N 43.7 CA 42.27 C 40.17 O 39.36 CB 42.41 CG 43.77 CD 43.3
B VAL - 6 -69.5 132.6 N 38.93 CA 37.65 C 37.01 O 37.01 CB 37.44 CG1 36.56 CG2 38.3
B ARG - 38 -102.7 151.0 N 36.28 CA 35.25 C 34.64 O 34.64 CB 35.29 CG 36.83 CD 39.26 NE 41.97 CZ 41.5 NH1 39.34 NH2 42.18
B PRO G 28 -56.9 -38.2 N 34.36 CA 33.84 C 33.26 O 32.82 CB 34.24 CG 33.82 CD 33.73
B GLY G 1 -65.8 -20.3 N 32.91 CA 32.7 C 32.81 O 33.67
B GLN G 27 -74.6 -6.1 N 32.22 CA 31.37 C 31.59 O 31.62 CB 31.54 CG 30.42 CD 31.63 OE1 31.42 NE2 31.0
B LEU G 0 -110.8 8.4 N 31.84 CA 32.09 C 31.58 O 31.59 CB 32.37 CG 33.58 CD1 33.68 CD2 31.84
B LEU E 1 -115.9 150.0 N 31.16 CA 30.93 C 30.1 O 29.63 CB 30.92 CG 32.18 CD1 31.46 CD2 33.48
B ILE E 1 -116.9 166.8 N 31.12 CA 32.24 C 34.01 O 34.38 CB 31.79 CG1 31.81 CG2 29.33 CD1 32.02
B ASP - 19 -103.4 164.6 N 35.81 CA 37.83 C 39.23 O 39.31 CB 37.96 CG 39.25 OD1 39.7 OD2 42.16
B LEU - 5 -119.5 153.4 N 41.28 CA 43.06 C 44.94 O 44.82 CB 42.9 CG 42.95 CD1 42.94 CD2 41.67
B PRO S 79 -73.3 -29.3 N 46.98 CA 48.45 C 50.01 O 50.71 CB 48.49 CG 48.3 CD 46.96
B GLY S 12 -161.1 -160.7 N 50.5 CA 52.1 C 52.47 O 52.07
B PRO S 30 -82.1 -10.8 N 53.57 CA 53.64 C 53.44 O 52.75 CB 54.01 CG 54.53 CD 54.05
B GLU S 127 -119.8 141.9 N 53.72 CA 54.37 C 52.63 O 52.66 CB 55.47 CG 61.28 CD 67.98 OE1 71.33 OE2 71.07
B LEU - 2 -81.1 97.5 N 51.14 CA 49.91 C 50.28 O 50.3 CB 49.14 CG 46.75 CD1 45.9 CD2 43.38
B ASP - 61 -70.8 159.9 N 50.65 CA 51.45 C 50.63 O 49.58 CB 51.98 CG 54.57 OD1 59.07 OD2 55.24
B LYS H 117 -52.0 -49.0 N 51.58 CA 51.55 C 50.05 O 49.26 CB 52.73 CG 57.46 CD 64.1 CE 66.27 NZ 69.26
B ASP H 106 -59.5 -43.1 N 49.34 CA 48.54 C 46.15 O 45.78 CB 49.59 CG 54.23 OD1 58.12 OD2 58.48
B THR H 1 -64.5 -43.1 N 44.12 CA 42.27 C 41.13 O 40.75 CB 42.42 OG1 42.7 CG2 40.7
B ALA H 0 -58.8 -46.6 N 40.28 CA 39.38 C 39.15 O 39.09 CB 38.85
B ALA H 33 -60.6 -38.8 N 38.52 CA 38.62 C 38.08 O 38.1 CB 37.97
B TYR H 7 -69.6 -48.1 N 37.58 CA 37.15 C 36.06 O 35.18 CB 37.31 CG 39.28 CD1 40.91 CD2 39.54 CE1 42.99 CE2 42.09 CZ 43.72 OH 46.08
B LEU H 2 -56.4 -43.4 N 35.49 CA 36.01 C 36.84 O 36.59 CB 35.93 CG 35.48 CD1 33.38 CD2 34.23
B ARG H 62 -69.6 -47.5 N 38.15 CA 39.75 C 40.03 O 40.11 CB 40.73 CG 45.22 CD 50.41 NE 52.32 CZ 53.76 NH1 54.37 NH2 54.01
B GLU H 96 -51.3 -42.5 N 40.33 CA 41.29 C 40.53 O 41.02 CB 42.22 CG 47.42 CD 54.57 OE1 57.14 OE2 58.12
B HIS H 43 -99.6 -3.0 N 38.94 CA 38.0 C 37.04 O 37.34 CB 37.82 CG 38.97 ND1 41.21 CD2 39.1 CE1 39.74 NE2 38.86
B GLY T 22 58.0 39.3 N 36.11 CA 35.11 C 34.81 O 34.64
B ILE - 4 -60.3 133.2 N 34.42 CA 34.79 C 35.12 O 35.27 CB 34.89 CG1 33.94 CG2 34.73 CD1 33.66
B GLY - 21 -106.9 -1.1 N 35.7 CA 35.71 C 34.88 O 35.63
B ALA E 2 -152.7 135.9 N 33.76 CA 32.72 C 32.81 O 32.49 CB 31.86
B VAL E 0 -134.6 151.6 N 32.94 CA 33.82 C 34.64 O 34.66 CB 33.9 CG1 32.62 CG2 34.17
B CYS E 1 -118.3 133.6 N 35.42 CA 36.89 C 37.34 O 38.35 CB 36.23 SG 39.81
B LEU E 0 -99.1 146.5 N 37.91 CA 39.17 C 40.88 O 40.99 CB 38.62 CG 38.9 CD1 39.54 CD2 38.42
B PHE - 54 -131.5 178.7 N 42.99 CA 44.83 C 46.25 O 46.16 CB 44.92 CG 44.95 CD1 45.42 CD2 44.1 CE1 45.31 CE2 44.42 CZ 43.93
B GLY G 65 -47.6 -42.6 N 47.78 CA 49.69 C 51.21 O 51.18
B LYS G 101 -56.8 -17.0 N 51.94 CA 52.84 C 53.12 O 53.81 CB 53.11 CG 51.97 CD 51.54 CE 50.2 NZ 48.8
B ASN G 0 -103.4 2.4 N 52.75 CA 52.53 C 54.31 O 53.97 CB 51.04 CG 48.9 OD1 45.5 ND2 45.62
B VAL - 58 -124.5 121.2 N 56.58 CA 59.04 C 61.74 O 62.11 CB 58.86 CG1 58.33 CG2 58.05
B GLU S 138 -125.0 -51.8 N 64.62 CA 67.68 C 68.7 O 69.36 CB 68.55 CG 71.45 CD 76.46 OE1 79.42 OE2 78.24
B SER - 58 -146.4 164.3 N 68.75 CA 69.29 C 68.74 O 68.71 CB 69.58 OG 70.22
B ALA H 47 -62.1 -39.0 N 68.58 CA 68.02 C 67.7 O 67.54 CB 68.15
B GLU H 143 -62.2 -49.5 N 67.25 CA 66.76 C 64.47 O 64.26 CB 68.21 CG 72.54 CD 78.93 OE1 80.43 OE2 81.59
B GLN H 4 -64.7 -40.7 N 62.04 CA 59.04 C 56.62 O 55.95 CB 59.22 CG 58.09 CD 56.73 OE1 54.34 NE2 54.87
B LEU H 14 -66.7 -39.9 N 54.06 CA 51.66 C 50.89 O 49.76 CB 50.77 CG 49.6 CD1 47.86 CD2 48.88
B ARG H 103 -61.5 -41.2 N 50.82 CA 51.57 C 51.24 O 50.75 CB 52.03 CG 54.01 CD 61.99 NE 66.83 CZ 70.19 NH1 71.92 NH2 71.51
B ARG H 111 -63.0 -48.7 N 51.08 CA 51.44 C 49.04 O 48.24 CB 53.31 CG 59.97 CD 72.02 NE 78.91 CZ 82.99 NH1 85.3 NH2 84.57
B LEU H 3 -58.6 -46.7 N 46.41 CA 43.65 C 42.4 O 41.91 CB 42.92 CG 41.76 CD1 41.18 CD2 40.15
B CYS H 1 -71.3 -32.3 N 41.34 CA 40.49 C 40.42 O 39.77 CB 40.75 SG 41.25
B ALA H 56 -66.6 -42.0 N 39.98 CA 40.88 C 41.12 O 42.05 CB 40.75
B ASP H 22 -63.3 -44.1 N 41.03 CA 40.68 C 39.92 O 40.43 CB 40.87 CG 43.23 OD1 45.02 OD2 44.39
B LEU H 0 -57.9 -46.3 N 38.6 CA 37.4 C 37.61 O 37.66 CB 35.85 CG 34.99 CD1 31.31 CD2 32.98
B ARG H 56 -63.4 -36.5 N 38.21 CA 39.01 C 40.03 O 40.45 CB 39.25 CG 38.92 CD 38.63 NE 40.41 CZ 40.65 NH1 38.18 NH2 42.06
B GLU H 126 -68.0 -40.0 N 40.77 CA 41.37 C 40.25 O 39.52 CB 42.74 CG 49.22 CD 58.13 OE1 63.09 OE2 62.67
B VAL H 10 -75.8 -45.6 N 38.87 CA 37.1 C 36.38 O 35.06 CB 37.3 CG1 36.46 CG2 37.12
B GLY - 23 89.4 -173.7 N 36.0 CA 37.14 C 38.22 O 37.43
B GLU T 137 -64.4 -22.5 N 39.31 CA 40.45 C 39.83 O 41.2 CB 41.43 CG 45.11 CD 50.18 OE1 52.56 OE2 51.74
B HIS T 58 -86.8 3.0 N 38.22 CA 36.87 C 35.28 O 34.31 CB 36.97 CG 38.6 ND1 39.29 CD2 39.37 CE1 40.28 NE2 40.46
B ALA - 0 -46.7 125.7 N 33.68 CA 32.86 C 32.69 O 32.82 CB 31.99
B LEU E 4 -109.6 118.6 N 32.01 CA 31.85 C 32.26 O 32.55 CB 30.88 CG 32.1 CD1 31.27 CD2 30.34
B ILE E 0 -121.7 103.1 N 32.21 CA 32.89 C 34.2 O 34.68 CB 32.77 CG1 32.75 CG2 33.47 CD1 32.5
B ALA E 0 -103.5 158.4 N 34.79 CA 36.45 C 38.35 O 38.83 CB 34.99
B ILE E 16 -134.2 148.2 N 40.94 CA 44.42 C 47.34 O 46.5 CB 44.39 CG1 45.28 CG2 44.64 CD1 46.22
B ASP - 45 -102.5 94.9 N 52.13 CA 58.45 C 61.54 O 63.0 CB 58.54 CG 60.94 OD1 62.19 OD2 63.15
B HIS - 137 106.0 360.0 N 120.31 CA 117.81 C 122.48 O 118.29 CB 118.9 CG 105.06 ND1 88.86 CD2 100.5 CE1 83.81 NE2 89.49
B ALA - 148 360.0 78.2 N 125.28 CA 122.19 C 118.33 O 122.02 CB 128.71
B PRO - 73 -78.8 171.4 N 109.82 CA 105.53 C 99.65 O 99.12 CB 101.87 CG 100.35 CD 106.09
B SER - 39 -80.0 159.3 N 95.77 CA 90.14 C 82.81 O 79.41 CB 92.28 OG 89.12
B ALA H 13 -65.6 -36.6 N 79.66 CA 74.61 C 73.35 O 70.67 CB 74.23
B SER H 68 -54.3 -54.6 N 79.67 CA 79.43 C 74.89 O 75.03 CB 82.16 OG 87.07
B LEU H 12 -61.3 -46.1 N 70.72 CA 66.46 C 65.1 O 64.28 CB 65.45 CG 66.24 CD1 65.03 CD2 64.13
B GLY H 2 -53.8 -35.7 N 65.76 CA 67.17 C 70.31 O 70.98
B ALA H 74 -77.8 -43.4 N 73.01 CA 76.92 C 77.59 O 79.92 CB 79.54
B ALA H 69 -61.2 -36.5 N 75.85 CA 74.42 C 71.51 O 72.75 CB 74.17
B ASP T 50 59.7 36.4 N 66.3 CA 63.65 C 62.26 O 63.86 CB 65.96 CG 65.77 OD1 64.43 OD2 67.65
B ASP - 85 -102.6 101.1 N 59.58 CA 59.11 C 57.38 O 56.49 CB 59.6 CG 60.94 OD1 60.55 OD2 63.53
B GLN H 64 -52.5 -43.0 N 57.95 CA 57.6 C 55.85 O 54.57 CB 61.07 CG 68.05 CD 77.96 OE1 84.1 NE2 78.13
B GLN H 98 -65.3 -36.1 N 53.18 CA 51.78 C 50.17 O 49.75 CB 52.37 CG 54.38 CD 56.1 OE1 57.87 NE2 55.9
B LEU H 73 -61.0 -48.5 N 48.86 CA 48.44 C 47.72 O 47.64 CB 48.85 CG 49.09 CD1 48.22 CD2 51.34
B THR H 0 -55.4 -48.7 N 46.66 CA 45.87 C 45.64 O 45.22 CB 45.64 OG1 45.17 CG2 44.49
B GLU H 39 -56.8 -46.0 N 46.3 CA 47.09 C 47.72 O 47.82 CB 47.09 CG 48.91 CD 52.24 OE1 52.69 OE2 56.14
B ASP H 69 -68.7 -35.3 N 48.81 CA 49.75 C 49.57 O 49.59 CB 50.77 CG 53.05 OD1 53.5 OD2 52.76
B VAL H 44 -68.2 -43.5 N 48.84 CA 48.47 C 47.89 O 47.89 CB 48.61 CG1 48.79 CG2 48.88
B ASN H 10 -64.1 -38.1 N 46.87 CA 46.38 C 46.69 O 46.98 CB 45.54 CG 45.69 OD1 47.34 ND2 44.1
B ALA H 0 -60.0 -43.3 N 47.09 CA 47.45 C 48.15 O 48.13 CB 47.18
B ALA H 43 -65.1 -38.9 N 48.66 CA 49.06 C 49.01 O 49.07 CB 48.87
B LEU H 61 -64.5 -44.4 N 48.87 CA 49.0 C 48.33 O 47.96 CB 49.44 CG 51.44 CD1 52.43 CD2 53.43
B ALA H 0 -63.3 -36.0 N 47.85 CA 47.73 C 48.46 O 48.43 CB 46.72
B ARG H 121 -64.5 -38.7 N 48.68 CA 50.0 C 50.78 O 51.04 CB 49.89 CG 50.07 CD 50.75 NE 50.24 CZ 50.19 NH1 47.74 NH2 50.4
B GLN H 114 -67.2 -45.2 N 51.07 CA 51.85 C 50.6 O 50.69 CB 52.7 CG 58.11 CD 64.44 OE1 66.94 NE2 66.35
B LEU H 11 -59.3 -48.1 N 49.15 CA 47.82 C 48.2 O 47.68 CB 46.79 CG 45.77 CD1 44.39 CD2 45.68
B ARG H 46 -56.7 -40.9 N 48.98 CA 50.12 C 50.53 O 50.58 CB 50.96 CG 54.69 CD 59.22 NE 62.02 CZ 61.29 NH1 60.14 NH2 63.22
B SER H 48 -70.0 -19.8 N 50.49 CA 51.37 C 50.42 O 50.43 CB 52.05 OG 54.89
B VAL H 6 -95.9 -9.6 N 48.9 CA 47.36 C 46.08 O 46.88 CB 47.29 CG1 46.79 CG2 47.01
B GLY T 3 100.3 25.4 N 44.38 CA 42.33 C 41.35 O 41.1
B ILE - 0 -97.7 136.1 N 40.05 CA 38.83 C 38.54 O 39.0 CB 38.48 CG1 38.69 CG2 36.52 CD1 37.48
B ASN - 0 -122.7 8.8 N 37.39 CA 36.89 C 36.73 O 36.01 CB 36.86 CG 37.58 OD1 39.24 ND2 37.54
B TRP E 0 -146.2 128.1 N 36.79 CA 37.05 C 36.53 O 36.2 CB 37.41 CG 40.97 CD1 43.63 CD2 42.4 NE1 45.59 CE2 43.57 CE3 42.5 CZ2 41.71 CZ3 42.38 CH2 40.98
B ASN E 0 -125.9 132.6 N 35.86 CA 36.42 C 36.8 O 37.3 CB 35.36 CG 35.23 OD1 36.81 ND2 32.13
B PHE - 1 -83.2 67.7 N 37.37 CA 38.66 C 39.46 O 40.02 CB 38.57 CG 40.9 CD1 43.41 CD2 41.3 CE1 45.63 CE2 41.91 CZ 44.18
B THR - 21 -145.4 165.8 N 40.54 CA 41.6 C 40.68 O 40.01 CB 42.6 OG1 45.88 CG2 43.78
B PRO - 0 -83.1 154.6 N 40.2 CA 40.15 C 40.5 O 40.37 CB 40.09 CG 40.11 CD 40.05
B VAL B 8 -71.3 123.7 N 40.91 CA 41.11 C 41.28 O 41.42 CB 41.31 CG1 41.09 CG2 41.04
B LEU - 0 -110.2 10.8 N 41.33 CA 42.08 C 43.05 O 42.93 CB 41.66 CG 40.98 CD1 39.69 CD2 40.09
B ASP - 1 -63.9 148.9 N 44.72 CA 46.71 C 48.21 O 47.82 CB 46.61 CG 47.36 OD1 46.83 OD2 49.31
B ILE - 8 -109.3 120.3 N 50.46 CA 53.4 C 56.87 O 56.81 CB 52.85 CG1 51.74 CG2 51.48 CD1 51.83
B ASN - 22 -76.8 69.5 N 63.03 CA 68.79 C 72.34 O 72.8 CB 69.22 CG 71.98 OD1 74.15 ND2 72.87
B VAL - 60 -85.6 -35.3 N 75.93 CA 79.97 C 83.71 O 84.19 CB 79.64 CG1 79.61 CG2 80.5
B ASN - 60 -97.7 109.1 N 87.81 CA 93.26 C 96.76 O 96.61 CB 93.08 CG 94.8 OD1 95.13 ND2 94.25
B PRO T 113 -57.3 -39.3 N 101.09 CA 104.04 C 106.4 O 106.77 CB 105.06 CG 104.45 CD 101.9
B ALA T 93 -76.3 1.3 N 107.81 CA 108.43 C 106.53 O 107.02 CB 109.63
B ASN - 48 -144.9 76.0 N 102.87 CA 99.13 C 95.98 O 95.33 CB 98.87 CG 97.67 OD1 97.71 ND2 96.77
B PRO - 83 -87.7 73.9 N 94.0 CA 91.19 C 88.18 O 88.34 CB 91.8 CG 93.74 CD 94.5
B VAL S 56 -62.6 -40.6 N 84.78 CA 81.79 C 79.96 O 79.72 CB 81.27 CG1 80.42 CG2 81.14
B ILE S 9 -101.3 -33.6 N 78.17 CA 76.43 C 77.2 O 76.85 CB 75.49 CG1 74.68 CG2 74.62 CD1 73.57
B GLY G 16 65.2 -128.2 N 78.0 CA 79.47 C 79.46 O 79.37
B ASP G 96 -73.5 -8.4 N 79.7 CA 79.0 C 76.39 O 75.92 CB 80.79 CG 83.25 OD1 83.91 OD2 86.49
B ARG G 94 -74.9 -13.3 N 73.16 CA 69.92 C 67.13 O 66.39 CB 70.12 CG 71.68 CD 73.98 NE 76.36 CZ 77.1 NH1 77.66 NH2 76.33
B ALA S 1 -96.1 152.8 N 65.34 CA 63.33 C 62.29 O 62.11 CB 63.47
B TYR S 13 -80.6 -12.2 N 61.19 CA 60.91 C 61.37 O 61.7 CB 59.99 CG 59.82 CD1 59.32 CD2 58.98 CE1 59.66 CE2 59.6 CZ 60.1 OH 61.24
B GLY - 17 -179.0 -173.9 N 61.88 CA 63.68 C 64.61 O 64.1
B SER S 68 -113.9 8.6 N 65.93 CA 66.87 C 66.44 O 66.61 CB 67.61 OG 68.78
B ASP S 69 -142.5 154.9 N 65.18 CA 64.64 C 62.67 O 61.86 CB 65.69 CG 67.67 OD1 69.48 OD2 69.83
B ALA H 16 -56.2 -39.9 N 61.38 CA 59.35 C 58.52 O 57.79 CB 59.56
B ALA H 71 -59.1 -45.5 N 57.78 CA 56.94 C 55.59 O 55.39 CB 57.02
B ARG H 85 -69.3 -39.3 N 54.44 CA 52.84 C 50.7 O 50.83 CB 53.21 CG 55.69 CD 60.45 NE 65.09 CZ 66.34 NH1 66.08 NH2 67.64
B VAL H 0 -70.8 -40.3 N 48.32 CA 46.15 C 45.92 O 45.25 CB 45.91 CG1 44.81 CG2 44.21
B THR H 18 -58.8 -47.1 N 46.22 CA 46.81 C 47.07 O 46.94 CB 46.9 OG1 47.47 CG2 47.35
B ARG H 85 -71.6 -33.4 N 47.33 CA 47.74 C 47.15 O 47.09 CB 48.48 CG 49.88 CD 53.74 NE 55.71 CZ 57.87 NH1 58.4 NH2 58.11
B HIS H 0 -83.8 -30.3 N 46.49 CA 45.6 C 44.43 O 44.52 CB 45.51 CG 47.56 ND1 48.69 CD2 48.55 CE1 49.47 NE2 49.21
B GLY H 0 -57.6 -45.8 N 43.42 CA 42.5 C 42.36 O 42.13
B ARG H 97 -57.3 -43.2 N 43.17 CA 43.82 C 43.34 O 43.41 CB 44.24 CG 47.54 CD 53.6 NE 58.74 CZ 60.67 NH1 61.6 NH2 61.1
B ALA H 1 -67.2 -41.4 N 42.84 CA 42.46 C 42.16 O 42.14 CB 42.29
B ALA H 0 -65.7 -42.7 N 41.94 CA 41.6 C 41.38 O 41.68 CB 41.71
B LEU H 0 -60.6 -46.6 N 40.86 CA 40.64 C 41.38 O 41.75 CB 39.63 CG 39.58 CD1 39.98 CD2 38.85
B ALA H 31 -67.9 -36.8 N 41.98 CA 42.94 C 43.28 O 43.61 CB 43.39
B GLY H 0 -63.6 -36.0 N 43.77 CA 43.43 C 43.26 O 43.83
B HIS H 0 -74.9 -54.8 N 42.57 CA 42.55 C 42.75 O 42.83 CB 42.04 CG 42.33 ND1 43.1 CD2 42.96 CE1 44.67 NE2 44.24
B THR H 42 -50.7 -45.1 N 43.18 CA 44.35 C 45.47 O 45.49 CB 44.29 OG1 44.42 CG2 46.57
B ARG T 121 -73.6 -13.7 N 46.39 CA 48.22 C 48.35 O 48.74 CB 48.33 CG 51.5 CD 56.51 NE 57.94 CZ 61.07 NH1 58.74 NH2 61.73
B GLU T 49 -103.4 10.4 N 47.69 CA 47.41 C 46.84 O 47.65 CB 47.46 CG 48.95 CD 52.35 OE1 53.4 OE2 53.96
B GLY T 23 75.8 29.1 N 45.38 CA 44.07 C 43.28 O 43.43
B VAL - 0 -124.0 126.2 N 41.89 CA 40.45 C 39.56 O 39.41 CB 40.83 CG1 40.75 CG2 40.76
B ALA E 0 -68.5 126.1 N 37.93 CA 37.29 C 37.26 O 38.13 CB 36.67
B PRO E 0 -94.7 159.2 N 37.08 CA 37.29 C 37.77 O 39.11 CB 36.55 CG 36.38 CD 36.48
B CYS - 0 -129.1 114.7 N 38.47 CA 38.75 C 39.54 O 40.45 CB 38.55 SG 38.26
B ALA E 0 -69.2 143.9 N 39.53 CA 39.89 C 40.75 O 41.02 CB 39.24
B LYS E 3 -151.3 161.1 N 41.39 CA 42.12 C 42.64 O 42.83 CB 41.97 CG 42.39 CD 42.91 CE 42.72 NZ 42.56
B HIS E 14 -111.0 116.4 N 43.31 CA 44.4 C 44.28 O 45.28 CB 44.09 CG 46.87 ND1 48.07 CD2 49.0 CE1 49.97 NE2 50.98
B PHE E 0 -72.6 135.0 N 43.46 CA 43.2 C 43.7 O 43.68 CB 42.63 CG 41.39 CD1 41.1 CD2 39.7 CE1 41.84 CE2 39.45 CZ 40.63
B PRO T 0 -96.0 20.7 N 44.19 CA 44.57 C 45.1 O 45.1 CB 44.91 CG 44.35 CD 44.42
B GLY - 1 129.6 114.5 N 45.62 CA 46.98 C 48.61 O 48.2
B HIS - 32 -91.9 -0.3 N 50.16 CA 52.2 C 53.52 O 54.06 CB 52.26 CG 55.51 ND1 57.22 CD2 56.68 CE1 58.2 NE2 58.37
B GLY T 1 -57.6 -33.7 N 54.28 CA 56.31 C 57.51 O 57.25
B ASP T 27 -143.3 54.7 N 58.9 CA 60.86 C 61.48 O 61.07 CB 61.13 CG 62.88 OD1 64.14 OD2 64.77
B THR - 10 -94.5 154.7 N 63.16 CA 64.66 C 65.55 O 65.58 CB 64.42 OG1 65.45 CG2 64.8
B HIS B 95 -124.7 132.0 N 67.65 CA 67.86 C 66.66 O 66.09 CB 68.65 CG 69.17 ND1 70.18 CD2 69.54 CE1 69.39 NE2 69.36
B GLN - 106 -110.8 130.2 N 66.64 CA 64.45 C 64.32 O 64.75 CB 64.45 CG 63.99 CD 63.21 OE1 62.13 NE2 64.27
B ASP S 148 -74.8 -28.9 N 62.86 CA 62.84 C 60.58 O 61.3 CB 63.77 CG 67.34 OD1 70.08 OD2 71.26
B SER S 52 -161.5 175.8 N 56.81 CA 53.47 C 51.01 O 49.73 CB 53.16 OG 52.03
B HIS T 122 -67.2 -17.6 N 48.85 CA 46.69 C 44.87 O 45.27 CB 46.83 CG 46.46 ND1 46.35 CD2 44.83 CE1 45.38 NE2 44.2
B LEU T 77 -96.5 1.9 N 42.79 CA 41.32 C 41.11 O 41.54 CB 40.49 CG 39.98 CD1 38.05 CD2 39.0
B ALA S 24 -100.2 146.4 N 40.32 CA 40.72 C 41.14 O 41.55 CB 40.02
B LEU - 27 -66.6 133.1 N 41.54 CA 42.57 C 42.82 O 42.33 CB 42.42 CG 45.0 CD1 45.86 CD2 44.76
B PRO - 13 -61.5 148.1 N 44.39 CA 45.33 C 46.04 O 45.82 CB 46.04 CG 45.98 CD 44.84
B ARG E 87 -122.1 151.9 N 47.24 CA 48.27 C 48.74 O 48.9 CB 49.08 CG 51.37 CD 56.95 NE 60.24 CZ 60.28 NH1 59.42 NH2 58.47
B VAL E 2 -125.0 119.5 N 48.22 CA 48.57 C 49.39 O 49.33 CB 48.43 CG1 47.3 CG2 48.37
B SER - 75 -106.7 10.0 N 50.81 CA 52.76 C 53.09 O 53.49 CB 53.24 OG 55.49
B LYS - 38 -59.4 150.5 N 53.2 CA 53.36 C 53.07 O 52.67 CB 53.23 CG 54.04 CD 54.53 CE 56.64 NZ 58.99
B SER - 55 -66.0 162.7 N 53.19 CA 53.36 C 52.86 O 52.6 CB 53.54 OG 54.74
B ARG H 77 -59.7 -43.3 N 52.86 CA 52.73 C 52.9 O 52.69 CB 52.54 CG 51.47 CD 50.53 NE 49.66 CZ 49.73 NH1 49.9 NH2 49.33
B ALA H 71 -62.7 -39.2 N 53.55 CA 54.29 C 54.36 O 54.36 CB 54.51
B GLU H 111 -60.2 -39.9 N 54.39 CA 54.17 C 52.61 O 52.6 CB 55.2 CG 59.67 CD 65.5 OE1 65.98 OE2 69.29
B LEU H 2 -67.5 -43.4 N 50.69 CA 48.98 C 48.81 O 47.87 CB 48.25 CG 46.85 CD1 44.96 CD2 44.43
B ASP H 77 -57.7 -36.1 N 49.37 CA 50.21 C 50.28 O 50.74 CB 50.62 CG 51.95 OD1 53.5 OD2 54.31
B ALA H 75 -87.7 -19.6 N 50.24 CA 50.25 C 49.56 O 49.49 CB 49.74
B GLY T 17 -117.9 -107.8 N 48.08 CA 46.53 C 45.6 O 45.2
B GLU T 8 -37.5 -50.1 N 44.56 CA 43.7 C 42.64 O 42.72 CB 43.46 CG 45.41 CD 48.56 OE1 48.79 OE2 51.79
B LEU T 2 -76.6 -23.2 N 42.08 CA 41.48 C 41.52 O 42.45 CB 41.19 CG 40.7 CD1 40.85 CD2 40.24
B ALA H 24 -60.5 -49.0 N 41.38 CA 41.46 C 41.64 O 41.77 CB 41.0
B PRO H 0 -64.1 -40.0 N 41.84 CA 41.8 C 41.32 O 41.38 CB 41.47 CG 41.67 CD 41.72
B PHE H 1 -62.6 -43.8 N 41.2 CA 41.31 C 43.11 O 43.81 CB 39.91 CG 38.57 CD1 36.93 CD2 37.12 CE1 36.56 CE2 37.1 CZ 37.83
B ARG H 132 -66.1 -42.1 N 44.84 CA 46.78 C 46.79 O 47.6 CB 47.77 CG 53.06 CD 60.55 NE 67.92 CZ 70.3 NH1 70.88 NH2 71.15
B ALA H 48 -67.8 -27.5 N 46.48 CA 46.68 C 46.53 O 46.54 CB 46.27
B LEU H 0 -106.5 4.1 N 45.99 CA 45.47 C 45.44 O 45.12 CB 45.11 CG 44.82 CD1 41.69 CD2 43.81
B LEU G 17 -47.3 -53.0 N 45.58 CA 45.69 C 46.4 O 46.26 CB 45.86 CG 45.1 CD1 46.47 CD2 43.58
B PRO G 111 -63.8 -17.9 N 47.46 CA 48.33 C 48.81 O 49.93 CB 48.55 CG 48.34 CD 47.75
B GLU G 84 -98.1 1.4 N 48.04 CA 47.4 C 45.25 O 44.59 CB 48.23 CG 53.39 CD 58.52 OE1 60.91 OE2 61.63
B THR - 6 -109.4 103.1 N 42.85 CA 41.42 C 40.17 O 40.34 CB 41.39 OG1 41.41 CG2 41.28
B PRO S 12 -74.1 -18.8 N 39.08 CA 38.14 C 37.34 O 36.7 CB 37.8 CG 39.16 CD 38.94
B ALA E 0 -154.3 144.5 N 36.4 CA 35.23 C 35.4 O 35.22 CB 34.58
B ILE E 0 -132.0 134.0 N 34.81 CA 34.9 C 34.91 O 34.82 CB 35.26 CG1 35.19 CG2 35.5 CD1 34.4
B THR E 0 -92.7 156.4 N 37.37 CA 39.43 C 40.14 O 41.5 CB 39.9 OG1 41.43 CG2 40.51
B ALA - 0 -104.9 143.9 N 40.92 CA 41.51 C 40.88 O 40.1 CB 42.2
B HIS S 14 -78.4 61.0 N 41.38 CA 41.44 C 41.53 O 41.6 CB 41.67 CG 44.29 ND1 46.68 CD2 44.18 CE1 46.36 NE2 45.55
B ILE - 0 -127.5 143.1 N 41.22 CA 41.05 C 40.31 O 39.53 CB 41.49 CG1 43.75 CG2 40.22 CD1 47.1
B VAL E 4 -95.8 120.5 N 40.34 CA 40.72 C 41.4 O 41.27 CB 40.9 CG1 40.56 CG2 39.92
B TYR E 1 -106.0 105.5 N 41.76 CA 43.05 C 44.51 O 44.7 CB 42.39 CG 42.92 CD1 42.89 CD2 43.21 CE1 43.02 CE2 43.5 CZ 43.62 OH 46.16
B ASP T 62 -47.9 -41.7 N 46.18 CA 48.12 C 48.67 O 49.48 CB 48.56 CG 50.43 OD1 52.13 OD2 53.64
B ALA T 45 -75.8 -14.1 N 48.59 CA 48.46 C 48.14 O 48.52 CB 47.95
B LEU T 17 -109.2 -46.7 N 47.69 CA 46.94 C 47.51 O 47.99 CB 45.93 CG 45.19 CD1 43.35 CD2 45.04
B ASP B 11 -163.0 103.5 N 47.64 CA 47.76 C 48.09 O 47.48 CB 47.44 CG 47.65 OD1 49.63 OD2 46.54
B ALA S 55 -76.0 -8.5 N 49.17 CA 50.24 C 50.93 O 50.88 CB 50.13
B GLU S 156 -104.6 -24.4 N 51.77 CA 52.62 C 50.94 O 51.94 CB 53.73 CG 59.85 CD 66.82 OE1 69.16 OE2 69.84
B HIS S 47 -131.6 140.7 N 48.28 CA 45.71 C 42.55 O 42.93 CB 45.79 CG 49.09 ND1 51.13 CD2 50.01 CE1 51.76 NE2 51.52
B PRO - 0 -60.9 153.8 N 39.87 CA 37.79 C 36.4 O 35.7 CB 37.35 CG 38.48 CD 39.13
B ALA G 0 -50.8 -39.7 N 35.49 CA 34.89 C 34.92 O 33.87 CB 34.28
B THR G 0 -65.6 -18.9 N 35.24 CA 36.09 C 35.98 O 35.69 CB 36.8 OG1 42.79 CG2 34.73
B LEU G 1 -117.3 17.4 N 35.75 CA 35.92 C 35.83 O 36.65 CB 35.72 CG 35.56 CD1 35.55 CD2 32.57
B SER - 0 -108.4 107.3 N 35.24 CA 35.48 C 35.36 O 35.32 CB 35.38 OG 36.24
B PRO H 50 -58.7 -33.5 N 36.38 CA 36.81 C 37.73 O 37.56 CB 36.52 CG 36.21 CD 35.92
B ARG I 175 -60.5 -39.3 N 38.61 CA 40.28 C 39.5 O 39.79 CB 41.41 CG 47.61 CD 56.61 NE 63.35 CZ 67.09 NH1 69.19 NH2 68.19
B ILE I 1 -82.4 -53.6 N 38.1 CA 37.31 C 37.17 O 37.55 CB 37.06 CG1 36.88 CG2 36.49 CD1 34.69
B LEU I 0 -69.3 -42.0 N 36.56 CA 36.3 C 37.42 O 37.86 CB 35.37 CG 35.17 CD1 34.99 CD2 34.91
B THR I 44 -95.8 -55.8 N 37.98 CA 38.43 C 39.26 O 39.23 CB 38.67 OG1 38.61 CG2 37.5
B GLY I 21 -54.0 -56.5 N 40.07 CA 41.47 C 41.96 O 42.48
B LEU I 4 -77.5 -67.8 N 41.69 CA 41.65 C 41.72 O 42.26 CB 41.81 CG 42.38 CD1 43.82 CD2 43.64
B LEU I 0 -59.5 -52.1 N 41.02 CA 40.97 C 41.44 O 41.07 CB 40.72 CG 41.59 CD1 41.0 CD2 41.94
B ARG I 35 -78.2 -49.4 N 42.44 CA 43.33 C 44.5 O 45.4 CB 43.21 CG 42.28 CD 41.54 NE 40.15 CZ 36.47 NH1 32.83 NH2 36.12
B GLU I 148 -87.0 -55.2 N 45.69 CA 47.53 C 47.52 O 48.2 CB 47.77 CG 50.53 CD 54.89 OE1 55.67 OE2 56.6
B GLU I 113 -64.1 -49.5 N 47.49 CA 47.6 C 46.1 O 45.61 CB 48.47 CG 52.84 CD 57.28 OE1 58.13 OE2 59.11
B TRP S 22 -89.6 -15.8 N 44.43 CA 42.81 C 42.55 O 42.79 CB 41.99 CG 41.08 CD1 39.37 CD2 38.74 NE1 37.01 CE2 38.19 CE3 37.88 CZ2 38.28 CZ3 38.64 CH2 39.35
B GLY - 54 70.7 24.4 N 42.19 CA 41.59 C 41.13 O 41.14
B TYR - 12 -70.1 123.8 N 40.23 CA 39.62 C 40.12 O 40.45 CB 38.87 CG 36.62 CD1 34.53 CD2 34.8 CE1 34.26 CE2 34.74 CZ 35.53 OH 37.26
B ASP - 117 -115.0 13.0 N 40.62 CA 41.58 C 40.41 O 41.62 CB 42.73 CG 46.27 OD1 48.62 OD2 50.55
B GLY S 16 -85.3 -173.0 N 38.06 CA 35.81 C 34.54 O 33.84
B VAL E 2 -79.6 131.0 N 32.88 CA 31.94 C 31.75 O 31.55 CB 32.0 CG1 30.43 CG2 31.98
B ILE E 0 -107.7 126.3 N 30.94 CA 30.69 C 30.98 O 30.42 CB 30.78 CG1 31.34 CG2 30.23 CD1 30.81
B VAL E 0 -121.0 143.1 N 31.77 CA 33.38 C 34.56 O 34.98 CB 33.6 CG1 34.5 CG2 32.35
B THR E 0 -80.2 149.4 N 35.81 CA 38.86 C 41.55 O 43.39 CB 38.84 OG1 38.97 CG2 36.67
B ASP - 20 -61.3 167.0 N 43.6 CA 45.82 C 47.07 O 46.46 CB 46.66 CG 49.18 OD1 51.26 OD2 50.84
B SER - 17 -51.9 127.0 N 48.89 CA 51.43 C 52.88 O 51.79 CB 51.51 OG 53.12
B GLY T 33 -82.9 11.1 N 76.92 CA 84.71 C 89.75 O 92.73
B GLN H 122 -53.7 -47.7 N 92.51 CA 91.09 C 86.74 O 86.2 CB 94.11 CG 95.18 CD 101.49 OE1 104.89 NE2 100.5
B ALA H 16 -57.0 -42.8 N 84.39 CA 80.18 C 77.24 O 75.99 CB 80.32
B ILE H 3 -67.1 -50.3 N 75.28 CA 72.41 C 71.63 O 70.49 CB 72.94 CG1 73.24 CG2 72.22 CD1 72.11
B ASP H 83 -61.4 -28.7 N 72.65 CA 73.86 C 74.29 O 75.83 CB 77.0 CG 79.36 OD1 77.71 OD2 84.16
B ALA T 57 -80.3 -10.7 N 72.59 CA 73.18 C 71.53 O 73.21 CB 73.17
B ASN T 89 -115.8 -20.7 N 68.87 CA 67.64 C 66.76 O 67.08 CB 66.8 CG 67.99 OD1 70.3 ND2 67.27
B TYR S 52 -135.7 157.8 N 64.45 CA 63.1 C 63.96 O 64.06 CB 60.95 CG 60.02 CD1 60.1 CD2 57.46 CE1 60.85 CE2 58.67 CZ 60.04 OH 61.2
B GLY - 33 -81.8 152.2 N 64.92 CA 66.47 C 64.02 O 62.43
B ARG H 42 -55.3 -56.0 N 63.96 CA 61.33 C 56.86 O 54.7 CB 64.53 CG 68.81 CD 69.22 NE 73.58 CZ 75.28 NH1 78.31 NH2 71.13
B GLY H 12 -63.1 -46.9 N 51.81 CA 47.77 C 45.6 O 44.79
B GLU H 118 -52.7 -47.9 N 45.28 CA 45.59 C 43.94 O 44.77 CB 47.04 CG 52.43 CD 59.16 OE1 62.43 OE2 62.56
B ALA H 1 -64.7 -41.0 N 41.65 CA 39.01 C 37.69 O 37.46 CB 38.05
B ALA H 1 -66.5 -42.9 N 35.89 CA 34.63 C 34.65 O 34.34 CB 33.95
B VAL H 15 -63.3 -43.9 N 34.91 CA 35.11 C 35.55 O 34.81 CB 35.22 CG1 34.95 CG2 34.8
B ARG H 91 -61.6 -41.8 N 36.29 CA 37.34 C 36.7 O 37.38 CB 38.12 CG 42.66 CD 46.84 NE 48.42 CZ 48.81 NH1 49.26 NH2 48.34
B ALA H 0 -61.0 -43.3 N 34.87 CA 33.92 C 33.79 O 33.29 CB 33.05
B LEU H 0 -64.9 -43.9 N 33.64 CA 34.44 C 35.72 O 36.36 CB 33.84 CG 32.53 CD1 30.88 CD2 29.02
B ARG H 160 -62.8 -41.6 N 36.88 CA 37.78 C 38.25 O 39.07 CB 37.84 CG 40.32 CD 45.44 NE 50.21 CZ 53.0 NH1 54.59 NH2 55.92
B ALA H 2 -62.8 -24.4 N 37.71 CA 37.06 C 36.53 O 35.85 CB 36.53
B GLY T 6 135.4 -5.6 N 36.15 CA 36.11 C 35.63 O 36.62
B ALA - 0 -63.6 144.1 N 34.69 CA 33.3 C 33.05 O 33.47 CB 32.62
B ASP S 0 -90.5 -23.1 N 32.41 CA 32.02 C 31.53 O 31.56 CB 31.86 CG 33.21 OD1 37.79 OD2 32.09
B LEU B 1 -145.1 128.6 N 30.77 CA 30.89 C 31.16 O 31.29 CB 30.26 CG 29.88 CD1 28.49 CD2 28.14
B VAL E 0 -108.4 125.3 N 31.53 CA 32.06 C 32.84 O 32.01 CB 32.04 CG1 32.67 CG2 31.23
B ALA E 1 -107.3 78.4 N 37.76 CA 37.44 C 38.3 O 39.53 CB 36.42
B LEU - 19 -87.8 145.7 N 38.92 CA 38.98 C 39.92 O 39.67 CB 38.66 CG 38.6 CD1 39.05 CD2 36.52
B GLY S 27 135.1 -170.1 N 40.41 CA 41.62 C 41.98 O 41.66
B ARG - 164 -67.5 163.2 N 42.18 CA 42.57 C 42.62 O 41.68 CB 42.85 CG 42.55 CD 44.53 NE 43.74 CZ 45.08 NH1 45.16 NH2 45.65
B ARG H 71 -52.1 -43.0 N 43.4 CA 44.86 C 45.28 O 45.35 CB 45.81 CG 48.69 CD 53.07 NE 56.65 CZ 57.13 NH1 57.24 NH2 55.22
B GLU H 109 -58.8 -40.8 N 45.7 CA 46.64 C 45.23 O 45.91 CB 48.03 CG 53.83 CD 59.05 OE1 60.14 OE2 62.18
B VAL H 25 -74.2 -31.3 N 43.57 CA 42.13 C 40.7 O 40.43 CB 42.6 CG1 42.15 CG2 42.98
B GLN H 5 -62.4 -44.4 N 39.99 CA 39.37 C 39.79 O 38.95 CB 38.5 CG 39.02 CD 39.39 OE1 41.98 NE2 38.02
B GLN H 89 -63.9 -38.3 N 41.02 CA 42.2 C 42.31 O 43.11 CB 42.92 CG 45.26 CD 51.49 OE1 54.24 NE2 52.17
B ALA H 51 -68.1 -35.2 N 41.51 CA 41.22 C 40.89 O 42.03 CB 40.86
B THR H 3 -67.5 -47.9 N 39.69 CA 38.55 C 38.2 O 38.64 CB 38.44 OG1 39.15 CG2 37.33
B LEU H 11 -52.5 -46.2 N 37.73 CA 37.71 C 37.89 O 37.74 CB 38.25 CG 39.97 CD1 43.43 CD2 40.14
B ALA H 62 -59.9 -41.6 N 37.75 CA 38.46 C 38.5 O 38.9 CB 38.41
B ALA H 26 -69.7 -43.7 N 37.79 CA 37.08 C 36.35 O 36.99 CB 37.01
B VAL H 0 -67.2 -29.4 N 35.07 CA 34.06 C 35.0 O 34.43 CB 33.92 CG1 31.67 CG2 31.99
B ALA H 36 -62.8 -29.2 N 35.82 CA 37.7 C 39.57 O 39.76 CB 37.09
B GLU H 158 -77.9 -31.4 N 41.37 CA 43.67 C 42.58 O 43.29 CB 45.09 CG 51.59 CD 60.23 OE1 65.78 OE2 62.34
B TYR H 10 -75.7 -49.6 N 40.53 CA 38.7 C 37.74 O 38.25 CB 38.01 CG 37.72 CD1 39.02 CD2 35.45 CE1 37.02 CE2 35.27 CZ 36.11 OH 35.29
B VAL G 5 -49.8 -46.2 N 36.62 CA 36.3 C 36.9 O 37.19 CB 36.02 CG1 35.95 CG2 35.05
B PRO G 75 -62.6 -26.5 N 37.48 CA 38.9 C 40.41 O 40.46 CB 38.06 CG 37.86 CD 37.17
B GLU G 170 -98.7 4.9 N 42.35 CA 44.79 C 44.55 O 45.4 CB 45.54 CG 50.89 CD 57.0 OE1 61.18 OE2 57.71
B ASN - 51 -137.4 36.5 N 43.26 CA 42.66 C 42.34 O 41.84 CB 42.1 CG 42.75 OD1 44.86 ND2 40.23
B GLN H 32 -57.2 -44.4 N 42.01 CA 42.64 C 42.1 O 42.1 CB 43.17 CG 46.24 CD 51.89 OE1 55.75 NE2 52.13
B ALA H 42 -65.2 -44.2 N 41.82 CA 41.99 C 41.85 O 42.35 CB 42.18
B ALA H 48 -64.7 -45.2 N 40.78 CA 39.37 C 38.4 O 39.29 CB 39.37
B VAL H 0 -73.6 -27.4 N 36.53 CA 35.13 C 35.3 O 34.56 CB 34.93 CG1 33.81 CG2 33.59
B ALA H 13 -57.6 -44.9 N 35.17 CA 35.68 C 35.75 O 36.26 CB 34.74
B THR H 72 -62.1 -44.5 N 35.95 CA 35.99 C 35.64 O 36.38 CB 36.35 OG1 37.25 CG2 36.02
B LYS H 17 -60.9 -48.3 N 34.23 CA 33.14 C 32.68 O 32.41 CB 32.54 CG 32.69 CD 33.52 CE 33.47 NZ 34.25
B ARG H 21 -62.2 -38.4 N 32.31 CA 32.24 C 32.59 O 31.46 CB 31.28 CG 31.82 CD 31.39 NE 33.79 CZ 33.64 NH1 31.92 NH2 34.53
B GLU H 94 -62.2 -35.5 N 33.71 CA 35.27 C 35.17 O 35.95 CB 35.83 CG 40.89 CD 48.4 OE1 50.43 OE2 51.5
B ARG H 42 -63.6 -40.3 N 34.46 CA 34.16 C 33.9 O 33.47 CB 33.88 CG 34.62 CD 38.05 NE 40.34 CZ 39.89 NH1 37.76 NH2 39.75
B LEU H 11 -65.8 -44.1 N 33.58 CA 33.94 C 35.18 O 35.42 CB 33.02 CG 31.45 CD1 30.81 CD2 28.84
B ARG H 33 -67.1 -36.4 N 34.17 CA 35.62 C 36.14 O 36.19 CB 36.07 CG 36.5 CD 41.08 NE 43.34 CZ 46.27 NH1 45.78 NH2 47.01
B ALA H 38 -64.0 -37.7 N 36.42 CA 37.1 C 36.81 O 37.03 CB 36.9
B LEU H 9 -63.0 -51.4 N 36.15 CA 35.86 C 36.41 O 36.67 CB 35.02 CG 34.72 CD1 35.02 CD2 35.72
B ALA H 3 -61.6 -31.5 N 37.38 CA 39.17 C 40.91 O 41.48 CB 38.59
B ARG H 148 -70.4 -38.6 N 42.24 CA 44.47 C 44.32 O 44.15 CB 45.89 CG 51.12 CD 58.19 NE 61.18 CZ 61.51 NH1 61.37 NH2 60.57
B ARG H 147 -76.1 -37.5 N 43.62 CA 43.35 C 42.38 O 41.61 CB 43.62 CG 44.98 CD 46.43 NE 47.88 CZ 47.52 NH1 45.46 NH2 48.07
B PHE S 5 -123.7 71.7 N 41.19 CA 40.71 C 41.57 O 41.06 CB 39.85 CG 39.25 CD1 38.58 CD2 37.3 CE1 37.85 CE2 37.15 CZ 37.7
B PRO - 74 -64.2 140.4 N 42.98 CA 44.71 C 47.07 O 46.26 CB 44.48 CG 44.37 CD 42.97
B ALA - 1 -70.5 -46.7 N 50.16 CA 53.79 C 57.5 O 57.89 CB 54.06
B GLN - 135 -38.3 120.2 N 61.7 CA 67.18 C 68.42 O 68.32 CB 68.3 CG 73.9 CD 80.34 OE1 82.91 NE2 82.6
B ALA - 84 -64.0 360.0 N 70.76 CA 72.07 C 73.25 O 74.43 CB 72.7
