A SER - 98 360.0 146.9 N 11.02 CA 9.82 C 8.08 O 8.12 CB 10.95 OG 11.93
A TRP G 6 -63.2 -21.3 N 6.48 CA 5.23 C 4.84 O 4.45 CB 5.29 CG 5.0 CD1 5.34 CD2 4.46 NE1 5.9 CE2 4.82 CE3 4.58 CZ2 5.74 CZ3 5.12 CH2 5.69
A THR G 43 -67.2 -14.0 N 5.22 CA 6.08 C 6.28 O 6.98 CB 6.69 OG1 8.27 CG2 7.51
A SER G 87 -65.7 -29.3 N 6.68 CA 7.53 C 6.73 O 7.66 CB 8.48 OG 11.75
A PHE T 22 -111.7 -34.1 N 5.9 CA 5.54 C 5.35 O 6.54 CB 5.45 CG 4.68 CD1 4.29 CD2 5.12 CE1 4.33 CE2 5.12 CZ 4.93
A VAL S 0 -92.9 88.6 N 4.87 CA 4.87 C 4.81 O 5.46 CB 5.1 CG1 5.25 CG2 5.56
A THR - 48 -82.9 169.1 N 5.3 CA 5.62 C 5.36 O 5.01 CB 5.8 OG1 5.84 CG2 6.67
A PRO H 78 -52.7 -40.4 N 5.66 CA 6.0 C 5.73 O 6.3 CB 6.55 CG 6.76 CD 6.05
A ALA H 75 -64.1 -40.5 N 5.62 CA 5.78 C 5.33 O 5.65 CB 6.39
A VAL H 30 -63.4 -47.7 N 4.86 CA 4.69 C 4.38 O 4.42 CB 4.67 CG1 5.17 CG2 5.12
A PHE H 1 -60.0 -46.5 N 4.47 CA 4.31 C 4.47 O 4.64 CB 4.69 CG 4.58 CD1 6.17 CD2 6.15 CE1 7.57 CE2 7.41 CZ 8.16
A GLU H 81 -65.1 -36.5 N 4.88 CA 5.45 C 5.51 O 6.34 CB 5.74 CG 6.84 CD 6.72 OE1 7.45 OE2 7.75
A GLY H 57 -64.3 -36.3 N 5.55 CA 5.54 C 5.05 O 5.74
A TRP H 28 -75.1 -33.6 N 4.6 CA 4.52 C 4.35 O 5.01 CB 4.65 CG 4.38 CD1 4.79 CD2 4.56 NE1 4.62 CE2 4.34 CE3 5.55 CZ2 4.92 CZ3 5.71 CH2 5.35
A PHE - 1 -127.8 58.4 N 4.08 CA 4.22 C 4.33 O 4.9 CB 4.3 CG 3.96 CD1 4.64 CD2 4.78 CE1 5.28 CE2 5.26 CZ 5.12
A PRO T 76 -69.0 -21.0 N 5.0 CA 5.35 C 5.55 O 6.29 CB 6.1 CG 6.49 CD 5.44
A ASN T 117 -111.0 20.9 N 5.21 CA 5.75 C 5.28 O 6.16 CB 6.98 CG 8.77 OD1 11.34 ND2 10.67
A ARG - 67 -55.1 143.7 N 4.96 CA 4.79 C 4.87 O 5.31 CB 5.0 CG 5.38 CD 5.74 NE 6.08 CZ 5.81 NH1 6.32 NH2 6.83
A ASN - 54 -58.0 135.7 N 4.74 CA 4.98 C 4.83 O 4.91 CB 5.44 CG 6.01 OD1 5.67 ND2 9.17
A PRO T 107 -62.3 -13.7 N 4.9 CA 5.19 C 4.91 O 5.16 CB 5.6 CG 6.18 CD 5.34
A PHE T 34 -52.5 -36.9 N 4.89 CA 4.84 C 4.67 O 5.49 CB 5.23 CG 4.88 CD1 5.51 CD2 5.23 CE1 5.5 CE2 5.38 CZ 5.54
A TYR - 0 -98.7 116.5 N 4.46 CA 4.7 C 4.88 O 5.79 CB 4.83 CG 4.68 CD1 5.15 CD2 4.79 CE1 5.23 CE2 4.97 CZ 4.93 OH 5.82
A THR - 50 -122.7 154.0 N 5.01 CA 5.55 C 5.18 O 5.3 CB 6.05 OG1 6.95 CG2 6.91
A TYR H 29 -56.1 -48.2 N 5.3 CA 5.6 C 5.59 O 5.41 CB 5.94 CG 5.36 CD1 5.29 CD2 5.75 CE1 5.48 CE2 5.78 CZ 5.37 OH 6.26
A ASP H 113 -61.0 -34.3 N 6.32 CA 7.0 C 6.6 O 6.89 CB 7.87 CG 10.03 OD1 11.47 OD2 12.65
A GLY H 14 -62.9 -45.3 N 6.44 CA 6.37 C 5.76 O 6.08
A LEU H 0 -61.1 -47.6 N 5.31 CA 4.95 C 4.69 O 5.09 CB 5.29 CG 6.25 CD1 7.42 CD2 7.6
A VAL H 30 -59.1 -50.1 N 4.84 CA 5.37 C 5.76 O 5.95 CB 5.79 CG1 6.93 CG2 5.96
A SER H 80 -59.9 -46.4 N 6.34 CA 7.38 C 7.08 O 7.39 CB 7.94 OG 11.95
A ALA H 8 -63.8 -36.4 N 6.79 CA 6.71 C 6.18 O 6.44 CB 6.88
A SER H 5 -65.7 -22.6 N 5.67 CA 5.66 C 5.49 O 5.57 CB 5.75 OG 6.73
A ASN T 115 -60.2 -26.0 N 5.98 CA 6.6 C 5.85 O 6.24 CB 7.89 CG 10.53 OD1 12.58 ND2 12.8
A GLY T 57 -80.1 -4.3 N 5.27 CA 5.28 C 5.31 O 5.92
A TYR - 38 -130.8 72.0 N 5.54 CA 6.3 C 6.75 O 6.34 CB 6.41 CG 7.18 CD1 8.72 CD2 8.55 CE1 9.74 CE2 9.75 CZ 9.47 OH 11.06
A PRO T 82 -60.7 -23.7 N 8.05 CA 8.65 C 8.07 O 8.73 CB 9.33 CG 9.98 CD 8.58
A GLU T 103 -75.2 -21.2 N 7.03 CA 6.39 C 4.97 O 5.08 CB 7.14 CG 10.97 CD 16.45 OE1 18.34 OE2 18.88
A PHE T 2 -65.7 122.8 N 4.38 CA 4.02 C 4.09 O 4.33 CB 4.11 CG 3.75 CD1 3.86 CD2 4.27 CE1 4.61 CE2 4.86 CZ 4.63
A GLY T 0 72.2 11.5 N 4.16 CA 4.44 C 4.57 O 5.24
A THR T 68 -131.8 11.5 N 4.97 CA 5.7 C 5.49 O 6.81 CB 6.38 OG1 7.29 CG2 7.32
A THR S 40 -103.4 133.0 N 4.83 CA 5.26 C 5.21 O 5.77 CB 5.34 OG1 5.79 CG2 6.2
A GLY S 47 84.5 -159.3 N 5.75 CA 6.12 C 6.1 O 6.75
A SER S 59 -71.7 171.3 N 5.96 CA 5.94 C 5.15 O 4.82 CB 6.48 OG 6.93
A LEU H 85 -55.6 -40.3 N 5.2 CA 5.05 C 4.45 O 4.39 CB 5.53 CG 6.34 CD1 8.2 CD2 7.98
A ASP H 68 -66.6 -34.1 N 4.47 CA 4.48 C 3.83 O 3.65 CB 4.9 CG 6.76 OD1 8.44 OD2 8.25
A ASP H 12 -63.6 -40.1 N 3.97 CA 4.04 C 3.72 O 4.17 CB 4.56 CG 4.99 OD1 6.32 OD2 6.7
A GLN H 37 -62.4 -44.4 N 3.82 CA 3.87 C 3.37 O 3.22 CB 4.68 CG 7.01 CD 10.14 OE1 11.3 NE2 12.15
A LYS H 38 -64.5 -46.7 N 3.22 CA 3.09 C 2.88 O 3.01 CB 3.35 CG 3.83 CD 4.85 CE 6.62 NZ 6.91
A ARG H 28 -59.5 -39.3 N 2.81 CA 2.98 C 2.65 O 2.96 CB 3.05 CG 3.6 CD 3.84 NE 3.97 CZ 4.23 NH1 4.57 NH2 5.37
A GLU H 0 -61.6 -46.7 N 2.77 CA 2.62 C 2.53 O 2.65 CB 2.86 CG 3.45 CD 3.08 OE1 3.55 OE2 3.91
A LEU H 0 -64.0 -43.3 N 2.59 CA 2.77 C 2.76 O 2.92 CB 3.07 CG 3.75 CD1 4.09 CD2 3.99
A ALA H 0 -61.9 -38.1 N 2.8 CA 2.77 C 2.6 O 2.9 CB 3.4
A ALA H 0 -71.0 -44.6 N 2.49 CA 2.64 C 2.48 O 2.87 CB 2.99
A PHE H 1 -61.4 -52.1 N 2.47 CA 2.68 C 2.52 O 2.82 CB 2.94 CG 2.91 CD1 4.06 CD2 3.84 CE1 5.31 CE2 4.98 CZ 5.25
A LEU H 0 -72.5 -30.7 N 2.57 CA 3.09 C 2.9 O 3.12 CB 3.36 CG 4.23 CD1 5.37 CD2 5.18
A GLY H 0 -65.9 -44.3 N 3.22 CA 3.34 C 3.09 O 3.52
A ASN H 1 -61.2 -42.6 N 3.15 CA 3.27 C 3.3 O 3.93 CB 3.4 CG 3.53 OD1 6.09 ND2 3.27
A ILE H 0 -62.2 -39.2 N 3.43 CA 3.29 C 3.29 O 3.42 CB 3.77 CG1 4.21 CG2 4.19 CD1 5.49
A ASN H 23 -56.0 -44.1 N 3.33 CA 3.62 C 3.62 O 4.37 CB 3.98 CG 4.4 OD1 5.63 ND2 7.08
A GLN H 37 -65.3 -51.7 N 3.88 CA 4.59 C 4.5 O 5.27 CB 4.82 CG 5.97 CD 6.24 OE1 6.97 NE2 6.05
A ALA H 27 -63.3 -41.8 N 4.29 CA 4.54 C 4.29 O 4.55 CB 5.42
A SER H 1 -103.6 2.0 N 4.18 CA 4.34 C 4.54 O 5.0 CB 4.81 OG 4.77
A GLY T 28 61.3 55.4 N 4.74 CA 5.15 C 4.99 O 5.87
A GLY T 13 66.2 33.9 N 4.81 CA 4.81 C 4.32 O 4.86
A LEU T 0 61.9 20.0 N 4.15 CA 4.25 C 4.41 O 4.86 CB 4.58 CG 4.95 CD1 6.42 CD2 5.41
A GLN T 95 -74.6 -28.6 N 4.74 CA 5.33 C 5.44 O 6.53 CB 6.11 CG 8.59 CD 12.17 OE1 14.19 NE2 13.64
A PHE - 84 -114.7 137.1 N 5.27 CA 5.45 C 4.81 O 5.32 CB 6.01 CG 7.75 CD1 9.73 CD2 8.91 CE1 10.73 CE2 10.45 CZ 11.13
A ILE S 28 -92.8 -42.8 N 5.34 CA 5.76 C 5.81 O 6.93 CB 6.06 CG1 6.95 CG2 7.68 CD1 8.19
A GLN B 82 -109.3 147.6 N 6.23 CA 6.79 C 6.2 O 6.42 CB 7.6 CG 9.65 CD 11.62 OE1 13.95 NE2 12.56
A GLU - 43 -51.5 133.8 N 6.22 CA 6.73 C 7.23 O 7.16 CB 7.02 CG 8.51 CD 9.58 OE1 8.61 OE2 12.83
A GLN S 102 -86.4 130.7 N 8.14 CA 9.88 C 11.12 O 11.65 CB 10.07 CG 11.36 CD 12.4 OE1 13.23 NE2 12.82
A ASN - 157 49.5 55.5 N 12.84 CA 14.84 C 15.11 O 15.61 CB 15.59 CG 18.09 OD1 20.26 ND2 19.37
A PRO - 69 -64.0 360.0 N 15.35 CA 15.6 C 16.12 O 16.6 CB 15.44 CG 15.41 CD 15.24
A SER - 85 360.0 155.6 N 14.17 CA 13.87 C 13.1 O 13.27 CB 14.17 OG 13.64
A ASP - 76 -88.7 -4.0 N 11.94 CA 10.66 C 8.9 O 8.42 CB 11.61 CG 12.57 OD1 13.22 OD2 14.78
A TYR - 43 57.3 35.6 N 7.38 CA 6.36 C 5.76 O 5.44 CB 6.39 CG 7.85 CD1 8.57 CD2 9.36 CE1 10.89 CE2 11.58 CZ 12.23 OH 14.5
A CYS - 37 -96.2 111.1 N 6.39 CA 6.75 C 6.43 O 7.63 CB 7.44 SG 9.35
A ASP - 44 -94.0 104.0 N 5.6 CA 5.69 C 5.33 O 5.51 CB 6.16 CG 7.05 OD1 7.32 OD2 8.96
A THR T 125 -75.9 -8.2 N 5.56 CA 6.29 C 6.83 O 7.51 CB 6.04 OG1 7.13 CG2 6.48
A SER T 98 -83.3 -11.6 N 7.41 CA 7.96 C 7.76 O 8.12 CB 8.47 OG 8.53
A SER - 29 -105.7 92.7 N 7.26 CA 7.08 C 6.71 O 7.06 CB 7.05 OG 7.38
A THR - 120 -95.4 -13.4 N 6.93 CA 7.03 C 6.49 O 7.11 CB 7.2 OG1 7.94 CG2 7.92
A GLN S 151 -61.3 -37.1 N 6.03 CA 5.77 C 5.12 O 6.66 CB 5.89 CG 7.03 CD 8.19 OE1 10.66 NE2 10.17
A TYR S 42 -119.8 89.4 N 5.22 CA 5.58 C 5.44 O 6.29 CB 6.24 CG 6.1 CD1 7.43 CD2 7.7 CE1 8.39 CE2 8.0 CZ 8.85 OH 10.77
A PRO - 80 -64.8 135.3 N 5.38 CA 5.42 C 5.33 O 5.69 CB 6.07 CG 6.59 CD 5.8
A CYS - 43 -67.6 144.6 N 5.85 CA 5.91 C 5.91 O 6.53 CB 6.2 SG 8.03
A ALA - 21 -93.5 135.3 N 5.8 CA 6.16 C 5.6 O 5.89 CB 6.76
A ALA T 106 -54.0 127.5 N 5.78 CA 5.86 C 5.7 O 6.27 CB 6.62
A GLY T 77 84.7 -17.2 N 5.62 CA 5.76 C 5.56 O 6.52
A LYS - 76 -79.7 152.2 N 5.22 CA 5.16 C 5.21 O 6.02 CB 5.28 CG 6.5 CD 7.96 CE 10.1 NZ 10.76
A GLN - 78 -125.3 138.9 N 5.53 CA 6.07 C 5.27 O 5.63 CB 7.24 CG 10.23 CD 14.12 OE1 16.76 NE2 16.37
A TYR - 0 -112.3 34.1 N 4.4 CA 4.05 C 3.95 O 3.84 CB 4.02 CG 4.04 CD1 3.91 CD2 4.65 CE1 4.32 CE2 5.22 CZ 4.3 OH 5.32
A TYR - 22 -66.5 170.6 N 4.43 CA 4.53 C 4.1 O 3.9 CB 5.46 CG 6.13 CD1 6.51 CD2 7.77 CE1 7.5 CE2 8.79 CZ 8.77 OH 10.59
A GLY - 0 -60.6 132.2 N 4.21 CA 4.14 C 3.75 O 4.08
A ARG B 1 -140.3 146.2 N 3.62 CA 3.63 C 3.36 O 3.63 CB 3.59 CG 3.78 CD 3.9 NE 4.24 CZ 4.08 NH1 4.08 NH2 4.72
A GLY T 0 80.8 -175.1 N 3.83 CA 4.01 C 3.91 O 4.44
A PRO T 0 -57.6 -38.6 N 4.09 CA 4.26 C 4.26 O 4.82 CB 4.59 CG 4.82 CD 4.32
A ILE T 12 -97.7 5.2 N 4.68 CA 5.24 C 5.07 O 6.04 CB 5.62 CG1 6.88 CG2 6.0 CD1 8.72
A GLN T 33 55.8 49.9 N 4.78 CA 4.47 C 4.15 O 4.69 CB 4.6 CG 5.77 CD 7.47 OE1 8.03 NE2 8.5
A LEU B 3 -50.4 128.2 N 3.82 CA 3.47 C 3.13 O 3.44 CB 3.8 CG 4.16 CD1 5.54 CD2 5.32
A SER - 22 -137.3 149.6 N 3.16 CA 3.53 C 3.54 O 3.96 CB 4.16 OG 4.37
A TRP S 79 86.5 142.9 N 3.39 CA 3.42 C 3.35 O 3.41 CB 3.99 CG 4.49 CD1 5.89 CD2 5.54 NE1 7.13 CE2 6.62 CE3 6.41 CZ2 8.2 CZ3 8.12 CH2 8.96
A ASN H 1 -53.5 -37.2 N 3.53 CA 3.85 C 3.64 O 3.86 CB 3.8 CG 4.17 OD1 5.83 ND2 5.68
A TYR H 75 -65.7 -32.5 N 3.73 CA 3.95 C 3.77 O 4.65 CB 3.99 CG 3.94 CD1 5.08 CD2 4.67 CE1 5.89 CE2 5.35 CZ 5.95 OH 7.34
A ASN H 17 -80.5 -43.7 N 3.38 CA 3.37 C 3.34 O 3.86 CB 3.65 CG 3.64 OD1 5.61 ND2 4.1
A TYR H 0 -60.0 -40.8 N 3.47 CA 3.38 C 3.56 O 4.02 CB 3.35 CG 3.19 CD1 3.39 CD2 3.57 CE1 3.24 CE2 3.56 CZ 2.95 OH 3.52
A GLY H 3 -65.9 -48.2 N 3.89 CA 4.51 C 4.61 O 5.25
A GLU H 35 -67.3 -41.5 N 4.72 CA 4.66 C 4.6 O 4.89 CB 5.03 CG 5.57 CD 6.63 OE1 7.3 OE2 8.63
A ALA H 0 -60.1 -46.0 N 4.2 CA 4.33 C 4.37 O 4.91 CB 4.15
A GLY H 5 -58.5 -43.7 N 4.74 CA 5.22 C 5.51 O 6.16
A ALA H 62 -62.4 -47.8 N 5.95 CA 6.49 C 6.52 O 7.56 CB 7.08
A ASP H 82 -69.5 -33.6 N 6.2 CA 6.67 C 7.0 O 7.7 CB 6.48 CG 6.93 OD1 9.47 OD2 8.07
A LEU H 15 -90.8 -10.9 N 7.14 CA 7.78 C 8.2 O 9.12 CB 7.8 CG 7.79 CD1 8.2 CD2 8.94
A GLY T 67 65.3 43.5 N 8.4 CA 8.57 C 8.42 O 9.75
A LEU - 48 -129.0 151.7 N 7.86 CA 7.84 C 7.48 O 7.23 CB 8.16 CG 9.16 CD1 10.07 CD2 10.66
A ASP - 92 -81.5 43.0 N 7.42 CA 7.3 C 6.54 O 6.43 CB 7.89 CG 9.37 OD1 10.94 OD2 10.99
A LEU T 0 -72.6 -28.0 N 6.0 CA 5.86 C 5.82 O 6.15 CB 5.66 CG 5.94 CD1 6.95 CD2 6.8
A LEU T 28 -68.5 -46.9 N 5.89 CA 6.04 C 5.85 O 6.53 CB 6.04 CG 6.81 CD1 6.56 CD2 7.4
A ASN T 89 -85.8 -17.8 N 5.77 CA 6.01 C 5.6 O 6.64 CB 6.54 CG 8.1 OD1 10.28 ND2 10.26
A ASN - 46 -134.8 67.5 N 4.94 CA 4.96 C 4.48 O 4.61 CB 5.34 CG 6.93 OD1 7.99 ND2 8.92
A PRO T 0 -64.2 -23.5 N 4.13 CA 4.07 C 3.75 O 3.61 CB 4.27 CG 4.77 CD 4.65
A ASP T 34 -61.5 -19.6 N 4.03 CA 4.37 C 4.07 O 4.31 CB 5.1 CG 5.86 OD1 7.08 OD2 7.46
A LEU H 40 -51.4 -34.2 N 4.4 CA 4.78 C 4.47 O 5.17 CB 5.26 CG 6.81 CD1 7.94 CD2 8.44
A VAL H 0 -66.9 -28.7 N 4.21 CA 4.31 C 4.34 O 5.7 CB 4.2 CG1 4.79 CG2 4.53
A ALA H 11 -95.1 -8.5 N 4.32 CA 4.75 C 4.85 O 5.63 CB 5.33
A GLN H 133 -114.0 -14.9 N 4.98 CA 5.22 C 5.33 O 6.52 CB 5.15 CG 5.36 CD 5.15 OE1 6.14 NE2 6.14
A ASP - 66 -130.1 111.7 N 5.31 CA 5.32 C 4.96 O 4.9 CB 5.71 CG 6.64 OD1 7.91 OD2 8.98
A SER H 40 -70.3 -26.3 N 5.27 CA 5.64 C 5.17 O 5.2 CB 6.42 OG 7.87
A THR H 80 -64.1 -44.1 N 5.38 CA 5.9 C 5.17 O 5.76 CB 6.58 OG1 8.85 CG2 8.68
A VAL H 7 -61.9 -44.6 N 5.16 CA 4.83 C 4.32 O 4.61 CB 5.06 CG1 5.17 CG2 6.2
A ALA H 0 -55.8 -52.7 N 4.24 CA 4.13 C 3.8 O 3.79 CB 4.37
A TRP H 0 -63.6 -40.8 N 3.86 CA 3.95 C 3.82 O 3.94 CB 4.21 CG 4.43 CD1 5.45 CD2 4.64 NE1 6.36 CE2 5.64 CE3 5.4 CZ2 6.96 CZ3 6.39 CH2 7.19
A ARG H 76 -60.0 -38.0 N 3.78 CA 3.95 C 3.55 O 3.66 CB 4.32 CG 5.51 CD 7.43 NE 11.97 CZ 14.05 NH1 15.56 NH2 14.97
A THR H 0 -66.0 -36.7 N 3.62 CA 3.55 C 3.22 O 3.34 CB 3.93 OG1 4.31 CG2 4.89
A ALA H 0 -67.7 -45.8 N 3.53 CA 3.72 C 3.43 O 3.54 CB 4.27
A LEU H 0 -66.2 -41.1 N 3.18 CA 3.35 C 3.18 O 3.27 CB 3.83 CG 5.21 CD1 7.07 CD2 7.45
A TRP H 5 -54.0 -50.7 N 3.27 CA 3.54 C 3.35 O 3.58 CB 3.71 CG 3.68 CD1 4.39 CD2 3.63 NE1 4.54 CE2 4.29 CE3 3.75 CZ2 4.87 CZ3 4.59 CH2 5.19
A PHE H 15 -62.0 -47.8 N 3.33 CA 3.27 C 2.95 O 3.26 CB 3.63 CG 3.88 CD1 4.41 CD2 4.23 CE1 4.74 CE2 5.01 CZ 4.99
A TRP H 0 -55.7 -44.3 N 3.01 CA 3.1 C 2.94 O 3.35 CB 3.26 CG 3.07 CD1 3.38 CD2 2.81 NE1 3.53 CE2 2.93 CE3 3.25 CZ2 3.63 CZ3 3.26 CH2 3.71
A MET H 33 -81.5 -51.1 N 3.2 CA 3.59 C 3.94 O 4.87 CB 3.89 CG 4.57 SD 4.33 CE 6.58
A LYS H 97 -66.3 -42.1 N 3.82 CA 4.16 C 4.08 O 5.0 CB 4.36 CG 5.21 CD 6.74 CE 7.77 NZ 7.88
A ARG T 71 -83.9 -2.8 N 4.16 CA 4.79 C 4.96 O 5.8 CB 4.98 CG 5.61 CD 6.27 NE 5.98 CZ 5.82 NH1 7.43 NH2 5.44
A ASP T 90 73.1 30.3 N 5.22 CA 5.22 C 4.3 O 4.55 CB 6.16 CG 7.58 OD1 7.96 OD2 10.52
A CYS H 0 -56.1 -37.3 N 3.85 CA 3.51 C 3.33 O 3.63 CB 3.59 SG 5.01
A HIS H 24 -51.4 -50.9 N 3.42 CA 3.52 C 3.69 O 3.87 CB 3.8 CG 3.92 ND1 4.23 CD2 5.07 CE1 5.14 NE2 5.72
A GLY H 25 -66.8 -36.0 N 4.04 CA 4.61 C 4.28 O 5.17
A ALA H 21 -62.1 -49.1 N 3.83 CA 3.77 C 3.32 O 3.91 CB 4.22
A ILE H 0 -78.3 -33.4 N 3.23 CA 3.44 C 3.5 O 4.28 CB 3.63 CG1 3.91 CG2 4.01 CD1 4.92
A THR H 16 -88.2 -3.8 N 3.71 CA 4.55 C 5.08 O 6.24 CB 4.61 OG1 5.04 CG2 5.0
A ALA S 43 -64.7 162.4 N 5.33 CA 5.74 C 6.25 O 6.28 CB 6.44
A SER S 109 -112.8 107.7 N 7.02 CA 8.26 C 8.14 O 9.48 CB 9.09 OG 11.42
A PRO S 108 -82.5 158.9 N 7.45 CA 6.46 C 5.55 O 5.64 CB 7.02 CG 7.67 CD 7.64
A PRO - 19 -69.2 151.1 N 5.0 CA 5.02 C 4.79 O 6.77 CB 5.48 CG 6.33 CD 5.79
A SER - 18 -129.2 95.4 N 4.17 CA 4.3 C 3.88 O 5.28 CB 4.56 OG 5.33
A PHE H 1 -66.6 -38.6 N 3.38 CA 3.21 C 3.02 O 2.99 CB 3.34 CG 3.17 CD1 3.19 CD2 3.79 CE1 3.29 CE2 3.85 CZ 3.47
A SER H 0 -56.1 -37.9 N 3.15 CA 3.52 C 3.2 O 3.5 CB 4.03 OG 5.01
A GLY H 9 -60.1 -36.6 N 3.28 CA 3.33 C 3.09 O 3.54
A THR H 0 -64.2 -39.3 N 2.88 CA 3.27 C 3.04 O 3.6 CB 3.54 OG1 3.34 CG2 3.73
A ILE H 0 -65.2 -44.1 N 3.16 CA 3.37 C 3.11 O 3.39 CB 3.78 CG1 4.18 CG2 4.65 CD1 5.12
A ARG H 119 -56.5 -45.9 N 3.01 CA 3.37 C 3.27 O 3.84 CB 3.5 CG 4.98 CD 7.6 NE 11.95 CZ 14.75 NH1 16.44 NH2 16.36
A ILE H 62 -68.4 -42.5 N 3.24 CA 3.62 C 3.6 O 4.28 CB 3.75 CG1 4.07 CG2 4.72 CD1 5.21
A ILE H 28 -71.1 -44.8 N 3.4 CA 3.79 C 3.8 O 4.4 CB 3.72 CG1 4.1 CG2 4.91 CD1 5.14
A ASN H 54 -158.8 37.2 N 3.85 CA 4.07 C 3.89 O 4.18 CB 4.54 CG 4.99 OD1 5.03 ND2 5.66
A GLY H 13 -63.1 -35.9 N 4.15 CA 4.31 C 4.47 O 4.95
A GLY H 71 -57.2 -39.1 N 4.48 CA 5.34 C 5.34 O 6.89
A LEU H 116 -95.5 -23.2 N 4.95 CA 5.12 C 4.85 O 5.61 CB 5.39 CG 6.59 CD1 8.0 CD2 8.6
A GLU H 4 -113.1 -23.7 N 4.59 CA 4.79 C 4.97 O 5.7 CB 5.06 CG 5.57 CD 5.5 OE1 6.3 OE2 6.73
A CYS S 3 -95.9 156.6 N 4.92 CA 5.55 C 5.67 O 5.9 CB 5.8 SG 6.67
A ASN S 145 56.9 36.1 N 6.48 CA 7.66 C 7.69 O 8.49 CB 8.4 CG 10.18 OD1 12.58 ND2 11.72
A GLN - 61 -104.1 145.6 N 7.46 CA 7.8 C 8.36 O 8.68 CB 7.68 CG 8.18 CD 8.8 OE1 10.03 NE2 9.59
A PRO - 90 -56.3 139.5 N 9.01 CA 9.28 C 8.73 O 7.77 CB 9.92 CG 10.35 CD 9.47
A ALA T 97 -51.9 126.4 N 8.8 CA 8.59 C 8.33 O 8.44 CB 9.18
A GLY T 49 88.5 -9.2 N 8.08 CA 7.96 C 7.63 O 8.27
A SER S 34 -67.2 163.6 N 7.38 CA 7.21 C 6.83 O 6.42 CB 7.67 OG 8.16
A ILE H 128 -57.6 -45.3 N 7.06 CA 7.32 C 6.46 O 6.24 CB 8.22 CG1 9.89 CG2 8.81 CD1 12.62
A GLY H 3 -62.8 -41.3 N 5.85 CA 5.35 C 4.98 O 4.72
A ASN H 19 -64.3 -37.5 N 4.93 CA 4.88 C 4.66 O 4.68 CB 5.32 CG 5.55 OD1 6.68 ND2 6.47
A MET H 102 -67.8 -37.7 N 5.15 CA 5.53 C 5.05 O 5.27 CB 6.24 CG 8.0 SD 12.28 CE 12.95
A GLN H 61 -61.8 -45.6 N 4.64 CA 4.62 C 3.99 O 4.25 CB 4.78 CG 6.19 CD 8.29 OE1 9.89 NE2 9.92
A MET H 1 -58.1 -50.2 N 4.0 CA 3.87 C 3.45 O 3.53 CB 4.16 CG 4.89 SD 5.46 CE 7.4
A GLU H 52 -62.2 -35.2 N 3.48 CA 3.9 C 3.71 O 3.75 CB 4.64 CG 6.69 CD 8.51 OE1 8.35 OE2 11.48
A ASN H 65 -63.3 -41.4 N 3.73 CA 3.94 C 3.54 O 3.7 CB 4.55 CG 6.55 OD1 8.82 ND2 7.47
A ARG H 10 -54.8 -46.4 N 3.53 CA 3.34 C 3.16 O 3.36 CB 3.43 CG 3.73 CD 4.17 NE 5.19 CZ 6.18 NH1 7.04 NH2 7.54
A VAL H 5 -62.8 -44.6 N 3.21 CA 3.61 C 3.35 O 3.52 CB 3.95 CG1 4.74 CG2 4.6
A THR H 52 -56.6 -48.2 N 3.47 CA 3.67 C 3.36 O 3.59 CB 4.27 OG1 4.93 CG2 5.42
A TYR H 56 -65.3 -44.7 N 3.44 CA 3.51 C 3.22 O 3.5 CB 3.8 CG 3.86 CD1 4.88 CD2 4.45 CE1 5.69 CE2 5.38 CZ 5.65 OH 7.35
A TYR H 0 -55.1 -48.5 N 3.27 CA 3.32 C 3.27 O 3.4 CB 3.36 CG 3.05 CD1 3.11 CD2 3.39 CE1 3.13 CE2 3.08 CZ 3.07 OH 3.45
A THR H 48 -67.7 -35.3 N 3.46 CA 3.95 C 3.35 O 3.71 CB 5.05 OG1 7.52 CG2 6.95
A GLN H 94 -65.5 -42.1 N 3.53 CA 3.88 C 3.45 O 4.01 CB 4.3 CG 5.28 CD 7.69 OE1 10.4 NE2 8.69
A PHE H 10 -68.7 -37.4 N 3.15 CA 3.29 C 3.18 O 3.38 CB 3.24 CG 3.3 CD1 4.45 CD2 4.25 CE1 4.92 CE2 4.87 CZ 4.57
A CYS H 1 -60.6 -40.0 N 3.13 CA 3.35 C 3.47 O 4.0 CB 3.37 SG 3.48
A GLN H 157 -59.6 -45.3 N 3.87 CA 4.46 C 4.13 O 4.48 CB 5.22 CG 7.51 CD 11.87 OE1 14.48 NE2 13.93
A THR H 80 -55.9 -44.5 N 4.01 CA 4.23 C 4.12 O 4.62 CB 4.59 OG1 5.15 CG2 5.51
A LEU H 11 -80.9 -5.9 N 4.14 CA 4.36 C 4.69 O 5.96 CB 4.31 CG 4.26 CD1 4.67 CD2 5.27
A GLY T 64 71.7 32.2 N 4.5 CA 4.78 C 4.34 O 5.38
A VAL - 10 -121.4 144.3 N 4.14 CA 4.3 C 4.17 O 4.37 CB 4.44 CG1 4.33 CG2 5.32
A ASP - 108 -72.0 129.6 N 4.34 CA 4.6 C 4.15 O 4.59 CB 5.74 CG 6.71 OD1 6.19 OD2 8.92
A PRO - 33 -75.2 -13.5 N 3.79 CA 3.68 C 3.7 O 3.97 CB 4.02 CG 4.61 CD 4.21
A GLY - 16 85.5 172.1 N 4.27 CA 4.49 C 4.58 O 5.28
A THR S 139 -97.6 -19.5 N 4.83 CA 5.4 C 4.96 O 5.94 CB 5.89 OG1 6.76 CG2 7.03
A ASP - 62 -90.8 80.5 N 4.83 CA 4.66 C 4.45 O 5.33 CB 4.88 CG 5.4 OD1 6.87 OD2 6.38
A LEU - 24 -108.0 -48.3 N 4.31 CA 4.25 C 4.26 O 4.99 CB 4.63 CG 5.24 CD1 7.38 CD2 6.33
A ARG - 135 -104.0 158.8 N 5.05 CA 5.73 C 6.11 O 6.75 CB 6.28 CG 8.62 CD 10.1 NE 10.97 CZ 10.87 NH1 11.53 NH2 11.58
A CYS - 28 -138.4 360.0 N 6.88 CA 7.43 C 7.49 O 8.09 CB 7.71 SG 6.92 OXT 8.22
