A VAL - 134 360.0 -49.2 N 101.21 CA 99.73 C 101.95 O 99.82 CB 104.63 CG1 103.09 CG2 105.96
A SER H 91 -57.1 -36.0 N 98.98 CA 97.63 C 99.64 O 97.73 CB 102.31 OG 111.18
A ARG H 133 -69.4 -44.7 N 96.31 CA 94.94 C 96.27 O 94.56 CB 95.98 CG 104.37 CD 113.61 NE 120.18 CZ 133.04 NH1 122.6 NH2 115.37
A GLN H 31 -62.9 -36.1 N 92.23 CA 90.35 C 91.53 O 90.03 CB 92.24 CG 111.2 CD 134.66 OE1 131.06 NE2 128.04
A ARG H 88 -75.6 -40.4 N 87.09 CA 85.2 C 86.17 O 83.68 CB 86.24 CG 98.22 CD 107.73 NE 115.83 CZ 131.2 NH1 119.38 NH2 119.51
A GLN H 124 -67.3 -33.0 N 82.74 CA 81.72 C 83.16 O 81.8 CB 84.44 CG 101.62 CD 121.48 OE1 117.16 NE2 112.09
A GLU H 33 -68.1 -43.4 N 78.6 CA 76.99 C 76.32 O 75.33 CB 79.39 CG 92.33 CD 119.65 OE1 115.28 OE2 116.78
A LEU H 0 -63.4 -40.7 N 70.28 CA 68.13 C 67.97 O 66.35 CB 68.84 CG 74.91 CD1 76.57 CD2 75.88
A GLN H 123 -65.4 -37.9 N 62.88 CA 61.08 C 61.41 O 59.37 CB 63.37 CG 77.41 CD 100.46 OE1 98.2 NE2 90.98
A GLU H 102 -68.4 -44.4 N 57.29 CA 56.52 C 57.53 O 56.18 CB 59.09 CG 72.41 CD 101.61 OE1 105.6 OE2 97.12
A LEU H 1 -68.3 -38.2 N 53.95 CA 53.41 C 55.85 O 54.02 CB 53.99 CG 60.32 CD1 61.17 CD2 63.49
A ARG H 61 -64.0 -40.7 N 52.81 CA 51.93 C 54.23 O 52.71 CB 54.17 CG 69.85 CD 85.69 NE 93.71 CZ 104.98 NH1 93.34 NH2 88.0
A ARG H 148 -65.4 -45.3 N 50.74 CA 50.72 C 52.68 O 52.1 CB 54.02 CG 69.0 CD 83.95 NE 93.21 CZ 105.9 NH1 91.47 NH2 92.66
A GLU H 74 -58.5 -41.6 N 47.61 CA 46.41 C 46.08 O 44.81 CB 48.76 CG 59.63 CD 86.93 OE1 89.08 OE2 83.26
A LEU H 17 -63.4 -40.9 N 41.36 CA 40.33 C 42.92 O 42.09 CB 40.39 CG 46.07 CD1 46.92 CD2 47.81
A GLU H 116 -65.2 -34.6 N 38.69 CA 37.98 C 42.28 O 42.03 CB 39.44 CG 50.94 CD 72.15 OE1 73.94 OE2 57.34
A GLU H 43 -70.6 -18.5 N 39.53 CA 39.11 C 39.9 O 38.8 CB 41.84 CG 52.11 CD 70.49 OE1 61.93 OE2 65.99
A LEU T 37 -86.9 -2.4 N 33.98 CA 31.91 C 34.2 O 33.22 CB 31.8 CG 35.46 CD1 35.31 CD2 33.35
A SER - 27 -79.6 101.5 N 29.03 CA 28.01 C 29.97 O 27.84 CB 30.5 OG 37.55
A VAL B 36 -137.2 139.8 N 26.33 CA 26.33 C 29.63 O 29.23 CB 31.73 CG1 32.21 CG2 31.64
A GLY - 11 -62.4 151.6 N 25.85 CA 24.73 C 30.84 O 31.19
A SER B 45 -97.4 105.4 N 28.33 CA 28.66 C 32.15 O 29.34 CB 32.8 OG 43.08
A ASP T 148 54.7 43.6 N 30.63 CA 31.61 C 32.9 O 33.54 CB 35.45 CG 52.62 OD1 54.42 OD2 62.18
A GLY T 1 79.1 4.4 N 27.63 CA 26.98 C 29.75 O 28.78
A VAL E 34 -101.6 128.1 N 27.05 CA 26.15 C 27.96 O 27.88 CB 29.82 CG1 29.02 CG2 29.52
A LEU E 13 -113.7 131.7 N 23.84 CA 24.07 C 24.93 O 22.64 CB 24.87 CG 30.62 CD1 31.56 CD2 35.59
A ILE E 24 -116.0 116.7 N 21.55 CA 21.02 C 24.97 O 26.17 CB 23.52 CG1 23.53 CG2 23.51 CD1 30.91
A TRP E 20 -107.7 116.8 N 18.65 CA 18.12 C 18.52 O 18.23 CB 16.1 CG 16.31 CD1 19.3 CD2 15.69 NE1 17.73 CE2 19.18 CE3 17.05 CZ2 18.72 CZ3 18.82 CH2 20.16
A LYS E 90 -92.5 119.3 N 15.87 CA 15.29 C 18.92 O 19.99 CB 16.47 CG 14.44 CD 16.57 CE 24.25 NZ 18.49
A ILE E 0 -100.3 103.1 N 15.65 CA 15.12 C 16.91 O 16.78 CB 18.28 CG1 18.11 CG2 17.4 CD1 24.91
A GLY - 26 -84.9 170.2 N 15.2 CA 14.7 C 18.61 O 16.25
A SER - 69 51.4 44.1 N 16.44 CA 17.76 C 19.78 O 19.98 CB 20.1 OG 25.16
A TYR H 2 -53.0 -47.4 N 16.75 CA 16.82 C 19.83 O 19.21 CB 17.03 CG 18.03 CD1 19.02 CD2 20.25 CE1 19.87 CE2 21.03 CZ 22.44 OH 19.61
A GLY H 24 -56.8 -45.8 N 17.52 CA 18.87 C 21.92 O 22.22
A ARG H 183 -70.2 -48.3 N 18.92 CA 18.99 C 21.11 O 19.5 CB 20.56 CG 24.09 CD 33.02 NE 32.72 CZ 50.47 NH1 31.92 NH2 35.12
A ARG H 87 -62.5 -35.4 N 18.45 CA 19.51 C 21.5 O 20.18 CB 19.66 CG 28.77 CD 31.31 NE 48.51 CZ 59.43 NH1 41.0 NH2 56.48
A LEU H 15 -63.4 -42.9 N 17.49 CA 18.38 C 21.54 O 20.69 CB 17.81 CG 22.05 CD1 22.05 CD2 21.73
A GLN H 134 -68.1 -35.0 N 18.6 CA 18.91 C 22.44 O 20.17 CB 20.44 CG 24.86 CD 30.85 OE1 26.49 NE2 27.02
A GLU H 91 -62.6 -40.6 N 21.48 CA 21.51 C 23.9 O 23.36 CB 23.02 CG 31.25 CD 58.74 OE1 54.45 OE2 37.96
A ALA H 5 -68.4 -31.7 N 18.88 CA 17.64 C 25.05 O 27.17 CB 16.69
A LYS H 107 -72.9 -28.9 N 23.05 CA 23.51 C 30.52 O 32.86 CB 24.51 CG 24.47 CD 31.25 CE 37.67 NZ 44.8
A ALA H 88 -82.3 -24.7 N 27.83 CA 29.81 C 34.51 O 35.73 CB 31.13
A LYS S 130 -132.1 96.6 N 29.24 CA 29.54 C 33.51 O 31.9 CB 31.03 CG 37.06 CD 46.57 CE 53.81 NZ 54.41
A PRO T 77 -52.9 146.4 N 31.22 CA 30.22 C 31.83 O 29.56 CB 33.06 CG 39.28 CD 34.34
A ASN T 87 61.2 25.7 N 28.89 CA 29.42 C 33.28 O 34.1 CB 32.62 CG 56.61 OD1 51.48 ND2 48.53
A LEU - 41 -72.5 123.4 N 29.71 CA 28.67 C 26.52 O 22.76 CB 28.77 CG 34.46 CD1 36.92 CD2 35.78
A GLU - 52 -111.3 134.6 N 25.83 CA 24.27 C 28.82 O 28.28 CB 25.04 CG 26.78 CD 39.56 OE1 35.96 OE2 34.78
A CYS E 15 -94.0 141.5 N 26.09 CA 26.87 C 25.39 O 21.12 CB 29.02 SG 34.84
A PHE E 95 -121.8 139.1 N 23.06 CA 22.92 C 25.44 O 24.62 CB 25.89 CG 28.26 CD1 31.65 CD2 31.02 CE1 33.1 CE2 33.35 CZ 31.66
A SER - 3 -78.5 168.1 N 21.18 CA 19.36 C 23.1 O 21.98 CB 19.45 OG 20.36
A PRO - 79 -65.1 151.6 N 21.79 CA 22.57 C 24.05 O 21.34 CB 24.9 CG 28.77 CD 23.87
A ALA - 27 -65.4 148.8 N 21.91 CA 23.29 C 24.78 O 23.29 CB 25.08
A PHE E 0 -146.1 149.5 N 21.4 CA 21.44 C 23.65 O 21.82 CB 22.9 CG 24.76 CD1 27.8 CD2 26.13 CE1 27.64 CE2 29.07 CZ 26.54
A TYR E 4 -87.7 135.8 N 19.2 CA 19.9 C 24.1 O 22.94 CB 22.02 CG 24.96 CD1 26.9 CD2 26.69 CE1 29.11 CE2 29.29 CZ 35.29 OH 35.04
A THR S 1 -56.1 -38.9 N 22.26 CA 22.83 C 28.63 O 28.85 CB 25.75 OG1 25.59 CG2 21.49
A HIS S 70 -155.5 161.9 N 24.89 CA 25.06 C 25.95 O 23.53 CB 26.93 CG 30.34 ND1 31.34 CD2 32.65 CE1 30.71 NE2 31.77
A LYS T 52 -56.6 127.7 N 23.55 CA 23.45 C 25.63 O 24.83 CB 27.82 CG 42.25 CD 46.87 CE 51.08 NZ 57.33
A TYR T 23 69.9 21.8 N 21.97 CA 22.47 C 25.5 O 26.26 CB 23.74 CG 24.52 CD1 26.3 CD2 25.96 CE1 26.27 CE2 26.65 CZ 31.94 OH 35.91
A GLY S 0 -102.0 -155.5 N 21.5 CA 21.32 C 24.29 O 25.07
A TYR - 5 -76.3 141.6 N 19.61 CA 19.46 C 24.11 O 25.35 CB 20.31 CG 21.75 CD1 23.55 CD2 22.61 CE1 23.48 CE2 23.42 CZ 25.66 OH 22.87
A LYS E 28 -96.6 120.5 N 21.81 CA 20.79 C 22.89 O 22.15 CB 22.79 CG 23.84 CD 34.27 CE 43.83 NZ 57.88
A LEU E 0 -123.5 166.7 N 20.07 CA 20.58 C 22.64 O 21.33 CB 20.76 CG 26.72 CD1 28.11 CD2 26.01
A GLN E 37 -149.5 128.7 N 18.62 CA 18.13 C 22.63 O 23.88 CB 19.04 CG 18.89 CD 29.48 OE1 25.94 NE2 24.71
A VAL E 1 -91.0 147.3 N 19.23 CA 18.45 C 22.09 O 21.28 CB 22.52 CG1 21.28 CG2 23.43
A SER E 0 -138.5 157.0 N 16.95 CA 16.85 C 21.75 O 20.95 CB 20.33 OG 27.49
A ALA E 0 -144.1 145.7 N 18.9 CA 17.67 C 20.54 O 20.0 CB 17.52
A PHE E 14 -111.6 103.0 N 16.24 CA 16.66 C 19.89 O 19.32 CB 18.32 CG 18.75 CD1 19.75 CD2 19.68 CE1 21.99 CE2 23.22 CZ 21.14
A LEU T 2 -62.1 -30.6 N 16.14 CA 15.97 C 20.5 O 20.72 CB 14.87 CG 17.14 CD1 16.96 CD2 17.97
A ASN T 21 -104.6 10.4 N 18.84 CA 19.07 C 24.6 O 26.41 CB 20.78 CG 30.83 OD1 27.16 ND2 21.26
A GLY - 3 79.8 163.3 N 21.11 CA 20.95 C 25.39 O 24.02
A ASN - 26 -140.8 168.5 N 22.35 CA 23.9 C 27.19 O 23.24 CB 28.28 CG 34.92 OD1 22.81 ND2 26.27
A GLY G 53 54.1 -128.5 N 24.96 CA 25.6 C 29.43 O 29.41
A SER G 80 -67.1 -15.7 N 27.38 CA 27.0 C 30.55 O 30.46 CB 28.7 OG 32.32
A GLY G 0 -97.8 2.9 N 25.08 CA 24.09 C 28.38 O 28.31
A GLU T 96 -59.8 122.3 N 25.78 CA 27.05 C 30.21 O 29.97 CB 29.14 CG 40.0 CD 57.28 OE1 50.32 OE2 43.18
A GLY T 36 82.0 -6.9 N 26.58 CA 24.84 C 27.05 O 26.75
A THR T 66 -128.5 -19.1 N 22.87 CA 21.02 C 20.09 O 17.93 CB 26.52 OG1 29.7 CG2 27.28
A HIS E 33 -137.9 165.4 N 19.56 CA 18.87 C 23.06 O 22.13 CB 19.42 CG 23.1 ND1 25.43 CD2 23.5 CE1 24.22 NE2 23.86
A LEU E 3 -85.3 136.6 N 20.12 CA 18.39 C 20.15 O 21.08 CB 17.82 CG 20.72 CD1 20.43 CD2 23.37
A SER E 0 -119.2 141.1 N 15.61 CA 15.91 C 19.72 O 18.18 CB 16.77 OG 19.5
A LEU E 0 -129.6 136.5 N 15.91 CA 15.99 C 21.12 O 21.39 CB 16.16 CG 20.28 CD1 19.66 CD2 20.19
A TYR E 33 -139.0 160.0 N 17.53 CA 17.1 C 23.14 O 20.59 CB 17.22 CG 18.63 CD1 19.23 CD2 19.57 CE1 18.55 CE2 21.06 CZ 24.81 OH 26.35
A ILE E 0 -132.0 152.2 N 21.63 CA 21.58 C 23.01 O 21.27 CB 25.32 CG1 27.5 CG2 25.23 CD1 39.82
A ARG E 15 -138.4 146.8 N 20.29 CA 20.27 C 23.8 O 21.79 CB 23.65 CG 37.94 CD 52.72 NE 67.6 CZ 78.97 NH1 70.96 NH2 49.77
A VAL E 18 -86.2 129.8 N 21.29 CA 21.54 C 26.51 O 26.26 CB 25.73 CG1 25.38 CG2 25.31
A LEU E 36 -109.7 158.7 N 23.12 CA 23.49 C 27.97 O 24.91 CB 23.37 CG 26.92 CD1 27.09 CD2 30.02
A PRO - 97 -62.1 127.7 N 27.25 CA 28.4 C 32.72 O 33.52 CB 31.29 CG 35.24 CD 29.25
A GLY - 14 -115.8 157.8 N 28.62 CA 28.69 C 31.94 O 30.32
A ALA T 30 -63.7 -24.9 N 28.95 CA 29.95 C 31.89 O 31.5 CB 31.12
A PHE T 19 -109.7 13.1 N 27.16 CA 26.43 C 27.62 O 26.05 CB 27.9 CG 29.28 CD1 32.17 CD2 30.08 CE1 32.74 CE2 31.91 CZ 29.81
A ASP G 15 -48.2 -39.4 N 22.75 CA 22.63 C 27.65 O 27.86 CB 24.09 CG 28.04 OD1 28.23 OD2 32.8
A ASN G 19 -66.2 -12.8 N 25.94 CA 26.89 C 29.24 O 27.2 CB 29.76 CG 43.34 OD1 32.48 ND2 32.03
A LEU G 31 -97.8 -6.5 N 24.84 CA 24.32 C 28.15 O 28.25 CB 23.39 CG 27.51 CD1 27.76 CD2 30.38
A LEU S 17 -102.2 161.7 N 24.65 CA 23.59 C 26.46 O 24.59 CB 22.52 CG 25.99 CD1 24.1 CD2 30.04
A GLU - 83 -81.8 135.9 N 24.85 CA 25.77 C 30.08 O 29.34 CB 27.84 CG 43.24 CD 79.32 OE1 80.63 OE2 79.12
A TRP S 29 -129.3 140.2 N 26.83 CA 26.42 C 31.6 O 30.16 CB 25.41 CG 25.85 CD1 29.05 CD2 25.13 NE1 28.33 CE2 28.93 CE3 25.8 CZ2 28.18 CZ3 26.95 CH2 27.7
A PRO S 38 -70.1 158.5 N 27.94 CA 26.4 C 25.59 O 23.46 CB 28.42 CG 33.07 CD 30.12
A PHE - 1 -61.2 123.0 N 22.73 CA 22.02 C 27.11 O 27.11 CB 23.3 CG 25.09 CD1 26.85 CD2 27.8 CE1 27.12 CE2 29.16 CZ 25.83
A ALA - 62 -131.6 22.3 N 25.9 CA 26.89 C 31.51 O 33.31 CB 28.77
A ARG - 83 -83.8 141.0 N 25.2 CA 23.9 C 28.21 O 27.26 CB 20.58 CG 22.72 CD 23.02 NE 35.49 CZ 48.04 NH1 33.2 NH2 36.1
A ARG - 61 -61.4 133.3 N 25.14 CA 24.45 C 27.34 O 26.67 CB 25.64 CG 36.63 CD 42.83 NE 44.32 CZ 49.63 NH1 19.43 NH2 41.65
A VAL E 0 -121.9 126.8 N 23.33 CA 21.22 C 23.66 O 22.78 CB 24.64 CG1 23.11 CG2 24.59
A THR E 19 -111.4 117.8 N 18.06 CA 18.24 C 22.48 O 23.1 CB 24.91 OG1 25.27 CG2 21.68
A PHE E 1 -96.8 136.5 N 17.38 CA 16.7 C 19.13 O 18.12 CB 19.58 CG 21.98 CD1 26.46 CD2 26.04 CE1 26.97 CE2 28.7 CZ 25.96
A SER E 0 -139.7 145.6 N 14.1 CA 14.48 C 19.12 O 19.39 CB 16.69 OG 23.54
A LEU E 0 -108.0 118.6 N 16.28 CA 16.41 C 18.01 O 17.97 CB 17.07 CG 22.46 CD1 22.5 CD2 28.97
A LEU - 5 -79.7 135.5 N 13.1 CA 12.14 C 16.57 O 17.4 CB 11.19 CG 14.93 CD1 13.66 CD2 17.98
A ASP - 1 -83.0 113.7 N 13.35 CA 13.42 C 17.33 O 18.12 CB 15.17 CG 18.74 OD1 17.64 OD2 18.63
A GLN - 0 -83.0 58.8 N 14.26 CA 14.28 C 19.12 O 17.46 CB 14.46 CG 15.33 CD 16.1 OE1 20.33 NE2 12.33
A SER - 8 -111.9 145.5 N 19.38 CA 20.26 C 23.58 O 23.82 CB 23.33 OG 26.67
A ASP - 21 -65.4 117.6 N 20.61 CA 20.38 C 26.09 O 27.1 CB 21.5 CG 24.58 OD1 20.79 OD2 25.28
A PRO T 50 -63.3 -20.7 N 25.62 CA 26.02 C 29.66 O 28.74 CB 28.09 CG 30.31 CD 25.69
A GLY T 53 -77.7 -19.2 N 26.5 CA 26.72 C 30.72 O 30.13
A LEU T 148 -102.4 -36.1 N 25.56 CA 26.58 C 31.93 O 32.62 CB 26.5 CG 32.31 CD1 31.88 CD2 36.26
A ALA S 44 -152.9 141.3 N 28.02 CA 28.85 C 31.61 O 31.16 CB 29.18
A LYS - 179 -70.5 124.2 N 27.46 CA 26.72 C 27.05 O 24.59 CB 30.68 CG 54.3 CD 72.48 CE 87.28 NZ 95.48
A PRO - 32 -61.7 140.9 N 23.83 CA 22.01 C 24.04 O 24.17 CB 23.22 CG 27.59 CD 24.96
A GLN - 110 -112.8 76.9 N 18.86 CA 18.47 C 20.88 O 19.04 CB 20.58 CG 25.27 CD 41.53 OE1 36.98 NE2 31.45
A HIS - 70 -70.5 150.1 N 17.73 CA 17.75 C 23.18 O 22.33 CB 18.33 CG 21.47 ND1 22.28 CD2 22.86 CE1 21.72 NE2 22.58
A VAL E 37 -99.2 117.2 N 19.75 CA 20.58 C 21.82 O 20.66 CB 25.88 CG1 27.11 CG2 26.38
A THR E 63 -133.3 149.3 N 16.87 CA 17.05 C 20.81 O 19.78 CB 25.8 OG1 34.85 CG2 23.03
A GLU E 108 -153.0 136.5 N 17.76 CA 18.54 C 23.26 O 22.73 CB 19.99 CG 28.94 CD 33.42 OE1 23.85 OE2 43.94
A THR E 50 -103.3 123.9 N 20.6 CA 20.36 C 24.48 O 23.03 CB 30.9 OG1 36.38 CG2 26.67
A PHE E 22 -95.9 123.8 N 20.11 CA 21.11 C 26.06 O 23.23 CB 22.86 CG 25.88 CD1 29.02 CD2 28.94 CE1 29.98 CE2 31.35 CZ 29.22
A HIS - 144 -111.3 99.5 N 25.3 CA 27.34 C 30.94 O 30.5 CB 30.24 CG 34.34 ND1 36.41 CD2 37.09 CE1 36.1 NE2 36.8
A PRO - 19 -54.6 132.1 N 27.11 CA 27.99 C 33.83 O 34.49 CB 29.07 CG 31.92 CD 27.72
A ASP - 67 -79.7 123.8 N 32.01 CA 34.89 C 42.7 O 42.76 CB 36.08 CG 40.38 OD1 41.65 OD2 46.7
A PRO T 80 -62.5 -14.0 N 43.17 CA 44.13 C 48.84 O 50.23 CB 46.64 CG 51.31 CD 45.92
A ASN T 137 -87.0 -21.9 N 44.5 CA 44.9 C 47.69 O 48.45 CB 47.02 CG 75.46 OD1 63.18 ND2 70.82
A TRP S 115 -66.8 132.1 N 42.16 CA 40.73 C 43.18 O 41.24 CB 38.54 CG 39.55 CD1 43.01 CD2 38.81 NE1 41.97 CE2 42.68 CE3 39.07 CZ2 41.33 CZ3 40.27 CH2 41.41
A LYS G 166 -61.2 -26.9 N 39.88 CA 39.19 C 40.1 O 38.91 CB 42.69 CG 60.22 CD 74.15 CE 85.09 NZ 88.97
A ASN G 31 -50.8 -36.0 N 33.81 CA 31.79 C 33.28 O 31.18 CB 28.71 CG 47.28 OD1 42.75 ND2 33.97
A PHE G 0 -94.9 -4.6 N 30.63 CA 30.21 C 32.51 O 31.99 CB 32.22 CG 33.81 CD1 35.6 CD2 36.65 CE1 36.63 CE2 38.93 CZ 36.15
A GLN S 74 -69.5 159.8 N 29.55 CA 30.16 C 32.75 O 28.48 CB 32.49 CG 54.84 CD 78.39 OE1 74.92 NE2 72.16
A LYS - 32 -53.9 126.6 N 32.21 CA 32.96 C 39.55 O 40.36 CB 35.83 CG 38.6 CD 49.34 CE 53.58 NZ 64.3
A PRO S 33 -58.9 141.3 N 37.63 CA 39.16 C 50.67 O 51.08 CB 39.72 CG 43.05 CD 39.16
A GLY - 94 87.1 -61.4 N 52.16 CA 54.93 C 63.65 O 64.78
A THR - 137 -71.4 360.0 N 61.4 CA 91.69 C 110.72 O 68.35 CB 99.75 OG1 99.14 CG2 99.41
A SER - 135 360.0 176.6 N 57.21 CA 56.6 C 57.96 O 58.03 CB 59.59 OG 68.73
A LEU - 91 -85.0 36.8 N 50.68 CA 48.61 C 45.04 O 44.65 CB 49.6 CG 56.53 CD1 57.6 CD2 60.02
A GLY - 23 -58.8 146.1 N 35.53 CA 32.7 C 31.23 O 31.98
A PHE E 3 -133.6 135.9 N 24.29 CA 22.86 C 21.76 O 18.63 CB 24.86 CG 26.85 CD1 28.22 CD2 28.97 CE1 28.17 CE2 30.79 CZ 28.05
A GLY E 21 170.1 -150.0 N 19.51 CA 18.3 C 20.91 O 21.32
A TYR E 45 -122.5 117.1 N 16.44 CA 16.59 C 19.85 O 18.96 CB 17.62 CG 18.36 CD1 20.95 CD2 18.71 CE1 21.52 CE2 19.62 CZ 23.1 OH 18.76
A PRO E 39 -71.8 -29.2 N 18.87 CA 18.57 C 20.87 O 20.04 CB 21.03 CG 26.12 CD 20.92
A LYS E 122 -116.1 61.3 N 17.2 CA 18.57 C 21.57 O 21.69 CB 22.01 CG 27.73 CD 36.9 CE 46.95 NZ 55.56
A PHE E 22 -66.9 -50.6 N 16.55 CA 14.79 C 19.03 O 18.54 CB 15.63 CG 16.21 CD1 18.14 CD2 17.66 CE1 18.92 CE2 19.86 CZ 18.61
A ILE E 9 -151.6 135.4 N 17.75 CA 18.63 C 20.79 O 19.09 CB 21.82 CG1 23.86 CG2 22.26 CD1 25.81
A SER E 17 -73.6 158.5 N 18.55 CA 18.61 C 21.47 O 19.32 CB 22.16 OG 26.42
A HIS H 29 -60.3 -32.0 N 18.85 CA 18.63 C 24.54 O 22.55 CB 19.65 CG 22.31 ND1 23.12 CD2 24.07 CE1 22.79 NE2 23.75
A GLN H 134 -71.1 -45.8 N 22.76 CA 24.24 C 26.12 O 25.89 CB 27.18 CG 48.0 CD 71.16 OE1 62.11 NE2 67.11
A ASP H 73 -68.3 -34.1 N 19.42 CA 18.54 C 20.79 O 20.2 CB 19.82 CG 34.36 OD1 36.65 OD2 36.58
A ILE H 3 -62.0 -24.6 N 16.76 CA 16.03 C 19.53 O 19.27 CB 18.26 CG1 17.59 CG2 16.28 CD1 22.34
A ARG T 151 -86.8 -9.3 N 19.1 CA 18.84 C 22.86 O 21.51 CB 21.59 CG 26.08 CD 37.63 NE 42.85 CZ 50.85 NH1 33.79 NH2 27.21
A LYS T 146 -82.1 -15.6 N 18.89 CA 18.82 C 21.01 O 19.28 CB 21.4 CG 23.86 CD 32.37 CE 37.33 NZ 47.88
A ARG T 75 -135.9 179.6 N 17.97 CA 17.22 C 20.79 O 20.78 CB 15.43 CG 22.02 CD 31.69 NE 32.71 CZ 52.29 NH1 42.89 NH2 40.2
A ASN T 67 -77.4 45.3 N 17.47 CA 17.26 C 18.51 O 18.83 CB 15.14 CG 23.86 OD1 31.41 ND2 16.22
A TYR T 14 -70.1 -36.1 N 15.58 CA 14.62 C 18.84 O 18.2 CB 16.25 CG 16.2 CD1 17.38 CD2 15.82 CE1 18.11 CE2 16.55 CZ 22.34 OH 23.87
A VAL S 29 -111.5 119.6 N 15.06 CA 16.74 C 20.5 O 20.65 CB 19.82 CG1 20.05 CG2 19.0
A ARG B 73 -146.5 135.5 N 16.62 CA 17.19 C 20.29 O 19.49 CB 16.03 CG 21.45 CD 22.41 NE 20.4 CZ 36.11 NH1 23.07 NH2 28.45
A ASP T 123 52.4 39.3 N 18.79 CA 18.55 C 21.89 O 21.29 CB 20.79 CG 28.23 OD1 34.05 OD2 29.25
A ASP T 79 57.5 34.5 N 19.12 CA 18.18 C 19.06 O 17.16 CB 20.46 CG 23.31 OD1 22.04 OD2 28.17
A ALA B 5 -143.5 153.9 N 16.2 CA 16.21 C 19.12 O 17.08 CB 17.31
A VAL E 1 -125.7 149.9 N 15.08 CA 15.87 C 19.12 O 20.04 CB 20.54 CG1 20.35 CG2 21.16
A PHE E 1 -112.1 123.6 N 12.89 CA 12.23 C 16.57 O 15.33 CB 13.64 CG 13.88 CD1 15.62 CD2 15.9 CE1 17.0 CE2 18.96 CZ 15.94
A ILE E 2 -105.8 126.3 N 14.47 CA 15.17 C 19.56 O 21.09 CB 18.68 CG1 18.55 CG2 17.63 CD1 24.37
A ARG E 68 -112.0 131.2 N 15.09 CA 15.62 C 19.68 O 19.73 CB 14.76 CG 15.36 CD 22.86 NE 31.68 CZ 44.2 NH1 27.06 NH2 28.68
A ALA E 1 -123.1 111.1 N 16.98 CA 18.57 C 22.07 O 20.43 CB 19.45
A ALA E 17 -108.5 116.4 N 19.01 CA 19.87 C 24.0 O 23.93 CB 20.35
A VAL E 4 -102.3 125.3 N 21.92 CA 22.11 C 25.18 O 24.45 CB 26.46 CG1 27.16 CG2 25.92
A GLU - 105 -68.1 118.4 N 25.26 CA 26.96 C 34.22 O 36.56 CB 29.79 CG 44.69 CD 82.19 OE1 87.95 OE2 77.85
A LEU - 110 -82.6 360.0 N 30.5 CA 48.94 C 77.48 O 37.96 CB 48.84 CG 52.89 CD1 52.72 CD2 54.05
B SER - 87 360.0 -43.6 N 79.1 CA 78.02 C 81.0 O 79.17 CB 82.24 OG 88.97
B ARG H 198 -64.0 -42.1 N 77.78 CA 76.78 C 78.47 O 77.08 CB 78.84 CG 90.32 CD 101.85 NE 109.17 CZ 122.68 NH1 108.87 NH2 108.95
B GLN H 66 -74.1 -32.0 N 74.19 CA 72.31 C 72.37 O 69.74 CB 74.56 CG 92.91 CD 117.25 OE1 112.93 NE2 112.74
B ARG H 109 -70.9 -37.0 N 68.61 CA 67.07 C 67.77 O 66.14 CB 68.84 CG 80.96 CD 95.84 NE 106.91 CZ 123.51 NH1 111.8 NH2 111.55
B GLN H 124 -67.3 -42.6 N 62.36 CA 60.42 C 60.85 O 58.64 CB 62.96 CG 86.3 CD 111.93 OE1 108.4 NE2 105.37
B GLU H 35 -62.9 -39.7 N 56.01 CA 54.63 C 54.9 O 52.64 CB 57.09 CG 71.35 CD 100.33 OE1 96.15 OE2 97.3
B LEU H 0 -65.5 -38.1 N 50.87 CA 49.69 C 48.08 O 45.76 CB 51.27 CG 57.92 CD1 59.87 CD2 60.12
B GLN H 64 -72.5 -31.6 N 42.93 CA 41.33 C 40.66 O 37.05 CB 43.58 CG 63.51 CD 74.84 OE1 74.06 NE2 54.93
B GLU H 95 -68.0 -42.0 N 38.09 CA 38.75 C 42.54 O 41.82 CB 41.74 CG 59.04 CD 91.76 OE1 94.24 OE2 86.57
B LEU H 1 -68.9 -36.7 N 38.36 CA 37.0 C 36.21 O 34.3 CB 38.21 CG 44.4 CD1 46.09 CD2 44.78
B ARG H 47 -63.0 -38.3 N 30.79 CA 30.96 C 32.93 O 31.76 CB 34.15 CG 49.69 CD 63.55 NE 78.25 CZ 93.52 NH1 84.43 NH2 78.18
B ARG H 138 -68.7 -41.9 N 30.83 CA 31.12 C 31.16 O 27.42 CB 34.6 CG 53.1 CD 69.73 NE 77.56 CZ 89.36 NH1 71.29 NH2 74.0
B GLU H 81 -61.9 -41.2 N 27.35 CA 26.97 C 29.62 O 29.43 CB 29.58 CG 43.78 CD 68.03 OE1 66.56 OE2 57.38
B LEU H 7 -65.4 -42.3 N 26.45 CA 26.83 C 27.02 O 25.84 CB 28.16 CG 34.64 CD1 37.04 CD2 35.85
B GLU H 82 -60.8 -39.4 N 22.64 CA 21.41 C 22.01 O 21.72 CB 23.29 CG 34.94 CD 55.67 OE1 54.41 OE2 35.35
B GLU H 58 -64.5 -23.3 N 20.1 CA 19.8 C 24.79 O 23.78 CB 21.9 CG 25.45 CD 29.58 OE1 24.79 OE2 22.21
B LEU T 34 -88.0 -1.7 N 20.16 CA 20.47 C 22.24 O 21.49 CB 21.87 CG 27.41 CD1 28.42 CD2 28.29
B SER - 28 -81.5 102.8 N 17.83 CA 16.57 C 19.38 O 18.29 CB 20.77 OG 24.88
B VAL B 38 -133.9 138.2 N 17.62 CA 17.91 C 21.38 O 21.86 CB 22.46 CG1 20.83 CG2 23.62
B GLY - 11 -61.2 152.8 N 18.28 CA 18.63 C 21.91 O 19.54
B SER B 45 -96.4 105.0 N 19.5 CA 21.36 C 24.98 O 23.71 CB 27.51 OG 39.73
B ASP T 148 53.9 44.6 N 23.0 CA 22.79 C 24.37 O 24.56 CB 25.87 CG 48.29 OD1 49.49 OD2 59.76
B GLY T 0 78.5 5.6 N 20.56 CA 20.97 C 22.41 O 21.28
B VAL E 34 -103.0 128.6 N 19.83 CA 19.07 C 22.48 O 19.32 CB 22.68 CG1 22.18 CG2 22.44
B LEU E 10 -112.3 130.0 N 20.1 CA 20.51 C 22.22 O 19.72 CB 21.0 CG 27.07 CD1 27.79 CD2 31.7
B ILE E 24 -115.4 118.7 N 18.65 CA 19.23 C 24.88 O 24.55 CB 23.07 CG1 23.42 CG2 24.11 CD1 31.49
B TRP E 23 -110.3 116.8 N 20.5 CA 19.42 C 22.67 O 21.56 CB 17.65 CG 18.89 CD1 22.09 CD2 18.79 NE1 21.63 CE2 23.01 CE3 19.91 CZ2 22.1 CZ3 21.16 CH2 22.0
B LYS E 91 -91.7 121.6 N 19.36 CA 20.0 C 23.25 O 23.11 CB 22.44 CG 23.78 CD 28.95 CE 31.65 NZ 28.68
B ILE E 3 -104.9 105.3 N 19.96 CA 19.58 C 24.55 O 22.63 CB 23.36 CG1 23.5 CG2 23.66 CD1 27.98
B GLY - 30 -85.8 170.3 N 23.71 CA 25.57 C 30.28 O 28.91
B SER - 55 51.2 44.7 N 26.19 CA 27.1 C 30.27 O 27.38 CB 30.39 OG 36.85
B TYR H 1 -50.3 -49.6 N 27.24 CA 26.42 C 30.04 O 27.08 CB 26.76 CG 27.63 CD1 27.96 CD2 29.1 CE1 26.85 CE2 28.9 CZ 34.58 OH 33.87
B GLY H 27 -55.5 -52.2 N 29.34 CA 30.1 C 32.4 O 30.04
B ARG H 126 -61.8 -45.8 N 30.3 CA 30.52 C 31.41 O 30.29 CB 32.19 CG 44.03 CD 45.85 NE 42.61 CZ 46.01 NH1 28.65 NH2 30.16
B ARG H 82 -64.8 -35.9 N 26.02 CA 23.91 C 25.28 O 24.19 CB 22.57 CG 27.1 CD 34.28 NE 37.62 CZ 66.81 NH1 63.44 NH2 59.45
B LEU H 9 -62.7 -44.7 N 22.05 CA 23.11 C 26.06 O 25.44 CB 23.38 CG 28.26 CD1 26.04 CD2 31.26
B GLN H 118 -63.1 -40.3 N 23.8 CA 24.35 C 27.86 O 27.06 CB 26.55 CG 35.66 CD 57.26 OE1 49.29 NE2 53.45
B GLU H 82 -62.0 -42.1 N 25.76 CA 24.35 C 25.61 O 24.71 CB 24.26 CG 31.91 CD 39.81 OE1 42.42 OE2 41.21
B ALA H 4 -67.9 -35.2 N 23.48 CA 22.49 C 26.55 O 23.94 CB 21.94
B LYS H 104 -64.6 -31.8 N 23.6 CA 24.93 C 27.23 O 26.95 CB 28.79 CG 35.61 CD 46.22 CE 58.35 NZ 69.65
B ALA H 85 -85.0 -23.4 N 21.27 CA 22.13 C 28.14 O 28.54 CB 22.97
B LYS S 101 -130.9 88.3 N 25.67 CA 26.03 C 28.75 O 27.85 CB 28.96 CG 44.57 CD 53.67 CE 50.6 NZ 44.56
B PRO T 71 -50.6 -34.8 N 27.26 CA 27.26 C 30.51 O 29.33 CB 30.24 CG 34.94 CD 30.63
B ASN T 104 -82.7 2.5 N 28.32 CA 28.44 C 29.7 O 29.46 CB 30.94 CG 50.31 OD1 34.84 ND2 46.46
B LEU - 49 -61.3 109.9 N 25.81 CA 25.04 C 25.98 O 23.09 CB 25.5 CG 30.93 CD1 31.87 CD2 29.83
B GLU - 62 -116.0 132.9 N 24.36 CA 23.75 C 26.09 O 26.29 CB 24.95 CG 26.81 CD 40.49 OE1 31.08 OE2 36.56
B CYS E 13 -93.2 141.8 N 20.22 CA 20.48 C 23.14 O 22.4 CB 22.08 SG 27.63
B PHE E 94 -121.2 138.4 N 18.45 CA 18.48 C 21.46 O 21.14 CB 21.09 CG 23.17 CD1 26.83 CD2 28.03 CE1 28.7 CE2 30.32 CZ 28.28
B SER - 2 -79.0 167.3 N 17.39 CA 16.81 C 21.05 O 19.3 CB 18.6 OG 17.11
B PRO - 76 -65.5 151.2 N 19.08 CA 19.23 C 21.67 O 20.74 CB 20.8 CG 26.6 CD 20.04
B ALA - 12 -64.7 147.9 N 17.21 CA 16.49 C 20.46 O 19.63 CB 16.74
B PHE E 0 -148.0 148.6 N 16.12 CA 16.13 C 19.15 O 20.59 CB 16.42 CG 17.37 CD1 21.48 CD2 18.71 CE1 22.41 CE2 21.76 CZ 21.49
B TYR E 3 -85.5 137.1 N 14.27 CA 13.01 C 16.59 O 15.09 CB 14.0 CG 14.27 CD1 15.75 CD2 15.63 CE1 15.04 CE2 17.72 CZ 22.8 OH 23.74
B THR S 1 -56.8 -41.0 N 16.05 CA 15.19 C 18.43 O 19.69 CB 18.25 OG1 21.7 CG2 13.68
B HIS S 43 -156.8 162.7 N 14.77 CA 15.66 C 18.27 O 15.28 CB 17.22 CG 20.45 ND1 21.97 CD2 21.25 CE1 20.8 NE2 21.27
B LYS T 60 -56.8 127.3 N 15.63 CA 15.94 C 17.92 O 18.09 CB 18.8 CG 40.14 CD 52.59 CE 60.09 NZ 69.97
B TYR T 26 70.1 21.5 N 15.52 CA 16.79 C 18.69 O 18.17 CB 18.78 CG 20.54 CD1 22.4 CD2 21.55 CE1 22.52 CE2 22.38 CZ 26.07 OH 30.49
B GLY S 0 -102.2 -154.7 N 15.99 CA 14.86 C 17.24 O 15.35
B TYR - 13 -79.0 142.1 N 15.16 CA 14.16 C 18.15 O 17.44 CB 14.86 CG 15.05 CD1 17.18 CD2 14.72 CE1 15.8 CE2 15.7 CZ 20.37 OH 20.68
B LYS E 7 -96.4 120.6 N 14.43 CA 13.43 C 15.73 O 15.7 CB 16.01 CG 20.18 CD 20.57 CE 29.5 NZ 39.41
B LEU E 1 -124.0 166.8 N 13.94 CA 13.71 C 18.41 O 18.05 CB 13.08 CG 15.84 CD1 16.68 CD2 14.96
B GLN E 28 -150.1 129.4 N 15.45 CA 14.49 C 15.94 O 16.23 CB 15.93 CG 17.36 CD 24.43 OE1 21.02 NE2 25.73
B VAL E 0 -91.8 145.0 N 14.03 CA 15.19 C 18.0 O 19.21 CB 19.57 CG1 19.45 CG2 20.05
B SER E 5 -135.0 149.0 N 17.07 CA 17.12 C 19.23 O 17.66 CB 17.92 OG 28.61
B ALA E 0 -138.4 141.7 N 15.92 CA 17.22 C 20.04 O 20.73 CB 18.19
B PHE E 14 -111.0 104.2 N 16.87 CA 17.24 C 21.46 O 19.4 CB 19.17 CG 19.37 CD1 22.06 CD2 21.76 CE1 23.75 CE2 23.88 CZ 22.49
B LEU T 2 -61.6 -31.6 N 18.47 CA 19.17 C 22.81 O 20.89 CB 19.09 CG 23.64 CD1 24.49 CD2 24.09
B ASN T 20 -103.8 9.6 N 22.2 CA 23.42 C 25.91 O 25.3 CB 23.8 CG 31.09 OD1 24.58 ND2 22.55
B GLY - 3 84.3 160.0 N 20.19 CA 19.41 C 25.44 O 24.83
B ASN - 58 -137.0 148.4 N 22.11 CA 22.01 C 25.48 O 24.46 CB 20.79 CG 31.17 OD1 27.26 ND2 22.07
B GLY G 51 62.5 -125.5 N 23.13 CA 22.6 C 26.51 O 24.8
B SER G 77 -68.0 -17.4 N 26.18 CA 26.94 C 29.68 O 29.3 CB 28.95 OG 31.97
B GLY G 0 -97.1 0.9 N 24.3 CA 24.26 C 27.0 O 26.41
B GLU T 109 -57.7 121.4 N 23.51 CA 23.82 C 29.45 O 31.19 CB 25.56 CG 31.08 CD 46.26 OE1 46.8 OE2 42.71
B GLY T 37 81.2 -5.3 N 24.93 CA 24.75 C 28.88 O 29.53
B THR T 65 -127.0 -19.9 N 24.52 CA 23.35 C 24.54 O 21.8 CB 27.29 OG1 26.42 CG2 28.82
B HIS E 32 -142.5 164.7 N 19.93 CA 18.98 C 21.74 O 22.1 CB 18.8 CG 22.46 ND1 25.54 CD2 24.04 CE1 25.4 NE2 24.7
B LEU E 1 -87.8 133.8 N 18.23 CA 16.64 C 20.86 O 20.04 CB 16.12 CG 19.05 CD1 17.11 CD2 20.37
B SER E 0 -113.7 134.4 N 17.37 CA 16.69 C 20.95 O 19.77 CB 16.76 OG 19.67
B LEU E 0 -117.3 136.7 N 18.92 CA 18.96 C 21.06 O 19.22 CB 19.56 CG 26.64 CD1 24.71 CD2 31.26
B TYR E 31 -141.0 155.9 N 17.68 CA 17.55 C 21.72 O 20.17 CB 18.75 CG 20.1 CD1 21.65 CD2 20.11 CE1 22.67 CE2 21.26 CZ 25.09 OH 22.65
B ILE E 2 -136.4 143.1 N 17.83 CA 16.53 C 19.15 O 17.74 CB 18.11 CG1 17.43 CG2 19.45 CD1 19.63
B ARG E 59 -139.5 156.7 N 15.59 CA 16.07 C 20.23 O 18.82 CB 19.89 CG 29.96 CD 39.25 NE 47.77 CZ 52.88 NH1 29.85 NH2 41.82
B VAL E 7 -86.4 133.6 N 17.11 CA 17.37 C 21.8 O 21.73 CB 22.43 CG1 23.28 CG2 21.81
B LEU E 25 -111.9 158.3 N 18.3 CA 17.48 C 20.84 O 19.29 CB 17.45 CG 22.34 CD1 22.44 CD2 26.7
B PRO - 97 -58.6 124.9 N 19.98 CA 20.45 C 24.1 O 24.63 CB 22.13 CG 26.78 CD 22.42
B GLY - 12 -112.7 156.9 N 20.15 CA 18.38 C 20.3 O 19.77
B ALA T 25 -64.6 -24.5 N 16.37 CA 16.59 C 19.5 O 19.57 CB 17.89
B PHE T 20 -107.2 10.8 N 17.46 CA 17.83 C 21.16 O 19.89 CB 18.45 CG 19.79 CD1 23.8 CD2 21.98 CE1 25.86 CE2 23.48 CZ 23.45
B ASP G 12 -48.5 -41.4 N 17.89 CA 18.14 C 21.63 O 20.98 CB 19.53 CG 21.05 OD1 22.41 OD2 20.54
B ASN G 14 -67.5 -11.1 N 18.97 CA 19.78 C 23.85 O 26.48 CB 18.58 CG 24.12 OD1 22.88 ND2 20.4
B LEU G 36 -97.0 -5.6 N 17.52 CA 17.08 C 20.67 O 21.22 CB 15.97 CG 18.13 CD1 17.1 CD2 17.01
B LEU S 19 -103.5 161.9 N 17.7 CA 17.03 C 22.2 O 18.78 CB 16.26 CG 20.45 CD1 19.74 CD2 22.34
B GLU - 109 -80.8 135.9 N 22.19 CA 23.47 C 27.79 O 27.4 CB 24.92 CG 33.83 CD 59.33 OE1 52.12 OE2 57.02
B TRP S 48 -128.3 142.5 N 24.38 CA 23.57 C 30.19 O 31.22 CB 21.92 CG 21.97 CD1 24.89 CD2 20.23 NE1 22.84 CE2 23.6 CE3 21.25 CZ2 22.65 CZ3 21.88 CH2 22.23
B PRO S 43 -68.7 158.9 N 26.54 CA 24.99 C 26.52 O 24.67 CB 26.67 CG 31.93 CD 28.32
B PHE - 1 -59.6 125.8 N 21.0 CA 18.87 C 22.91 O 22.29 CB 19.93 CG 20.04 CD1 20.54 CD2 22.13 CE1 20.87 CE2 23.85 CZ 21.79
B ALA - 42 -134.4 14.3 N 21.4 CA 22.25 C 27.29 O 27.59 CB 23.49
B ARG - 52 -78.2 135.2 N 21.69 CA 20.08 C 21.16 O 21.4 CB 18.35 CG 24.76 CD 36.67 NE 44.17 CZ 54.68 NH1 30.77 NH2 45.82
B ARG - 106 -57.5 134.6 N 17.91 CA 17.27 C 20.04 O 19.61 CB 18.22 CG 24.27 CD 28.3 NE 32.69 CZ 47.39 NH1 35.71 NH2 26.51
B VAL E 0 -121.2 131.6 N 17.7 CA 16.7 C 20.68 O 18.79 CB 18.55 CG1 17.24 CG2 18.35
B THR E 38 -119.8 118.4 N 17.31 CA 16.41 C 20.89 O 20.02 CB 22.45 OG1 22.17 CG2 25.58
B PHE E 0 -96.4 138.9 N 16.25 CA 17.55 C 20.37 O 17.22 CB 19.92 CG 22.94 CD1 27.23 CD2 27.71 CE1 29.73 CE2 31.33 CZ 29.52
B SER E 0 -141.1 139.1 N 17.19 CA 18.34 C 23.01 O 23.71 CB 19.6 OG 27.81
B LEU E 0 -104.6 117.1 N 18.13 CA 17.35 C 20.1 O 20.55 CB 17.44 CG 22.93 CD1 22.68 CD2 27.57
B LEU - 4 -75.6 130.7 N 17.33 CA 17.22 C 21.77 O 21.13 CB 17.32 CG 22.66 CD1 23.77 CD2 23.89
B ASP - 1 -85.8 109.2 N 19.89 CA 22.0 C 27.94 O 28.38 CB 23.53 CG 30.4 OD1 29.68 OD2 32.5
B GLN - 0 -76.2 55.2 N 24.1 CA 23.42 C 29.65 O 29.45 CB 23.7 CG 26.92 CD 33.08 OE1 28.38 NE2 22.36
B SER S 13 -108.8 145.9 N 28.74 CA 30.61 C 35.29 O 31.9 CB 35.3 OG 51.72
B ASP - 22 -62.5 116.3 N 35.03 CA 36.22 C 44.28 O 45.35 CB 39.46 CG 39.74 OD1 35.38 OD2 42.87
B PRO T 51 -63.0 -23.7 N 42.04 CA 43.31 C 53.7 O 55.36 CB 43.75 CG 46.93 CD 42.67
B GLY T 56 -73.2 -26.5 N 53.18 CA 55.62 C 63.76 O 65.24
B LEU T 142 -108.4 -22.5 N 61.39 CA 62.88 C 66.21 O 66.81 CB 64.07 CG 68.51 CD1 69.19 CD2 71.14
B ALA S 46 -152.5 141.9 N 61.15 CA 60.58 C 61.62 O 61.46 CB 61.54
B LYS - 164 -70.3 117.5 N 54.95 CA 52.4 C 49.6 O 48.41 CB 56.18 CG 74.14 CD 86.05 CE 97.87 NZ 104.43
B PRO - 18 -71.3 138.7 N 41.76 CA 39.61 C 40.83 O 42.57 CB 40.5 CG 45.69 CD 42.35
B GLN - 106 -107.0 83.6 N 32.17 CA 28.91 C 27.58 O 26.29 CB 30.49 CG 56.72 CD 92.12 OE1 90.14 NE2 90.17
B HIS - 68 -67.9 146.7 N 24.45 CA 23.99 C 27.64 O 29.52 CB 24.11 CG 27.84 ND1 29.42 CD2 29.82 CE1 29.42 NE2 29.88
B VAL E 36 -96.7 121.1 N 21.26 CA 19.3 C 23.44 O 23.15 CB 21.54 CG1 19.92 CG2 22.94
B THR E 69 -129.0 145.3 N 20.56 CA 20.25 C 23.26 O 22.32 CB 28.66 OG1 30.65 CG2 30.26
B GLU E 79 -135.6 133.8 N 18.06 CA 17.16 C 21.32 O 21.2 CB 17.01 CG 18.44 CD 31.35 OE1 26.99 OE2 27.71
B THR E 69 -122.5 142.0 N 18.34 CA 18.69 C 21.81 O 19.97 CB 22.86 OG1 23.58 CG2 19.08
B PHE E 15 -150.3 154.1 N 17.75 CA 18.55 C 23.65 O 19.23 CB 20.03 CG 21.04 CD1 23.1 CD2 24.57 CE1 23.46 CE2 26.47 CZ 23.64
B HIS - 103 -101.7 111.7 N 22.28 CA 22.58 C 25.36 O 23.73 CB 24.94 CG 29.29 ND1 31.74 CD2 31.43 CE1 31.55 NE2 31.77
B PRO - 1 -47.3 127.6 N 23.85 CA 23.71 C 30.02 O 30.76 CB 25.51 CG 29.41 CD 25.32
B ASP - 67 -73.1 122.5 N 27.54 CA 28.94 C 33.94 O 32.12 CB 30.6 CG 42.65 OD1 41.89 OD2 56.26
B PRO T 71 -61.5 -14.5 N 34.78 CA 37.31 C 46.66 O 48.26 CB 39.65 CG 43.85 CD 37.9
B ASN T 136 -88.2 -13.0 N 43.51 CA 44.22 C 46.64 O 44.86 CB 45.06 CG 62.95 OD1 59.06 ND2 57.76
B TRP S 118 -76.2 116.9 N 43.86 CA 44.68 C 46.59 O 44.23 CB 44.62 CG 47.42 CD1 50.87 CD2 48.24 NE1 51.22 CE2 52.96 CE3 50.1 CZ2 53.0 CZ3 51.88 CH2 52.85
B LYS G 169 -49.1 -38.2 N 44.15 CA 44.39 C 46.65 O 47.92 CB 47.81 CG 63.92 CD 70.95 CE 77.52 NZ 83.64
B ASN G 7 -61.9 -47.0 N 39.49 CA 38.87 C 42.12 O 44.22 CB 38.4 CG 42.89 OD1 31.39 ND2 31.94
B PHE G 1 -61.1 -5.2 N 34.07 CA 31.18 C 33.51 O 32.89 CB 30.69 CG 30.11 CD1 32.08 CD2 31.61 CE1 31.62 CE2 33.06 CZ 30.25
B GLN S 71 -78.8 163.5 N 30.97 CA 31.62 C 32.39 O 30.01 CB 34.41 CG 51.65 CD 66.64 OE1 60.54 NE2 59.93
B LYS - 66 -54.1 120.9 N 30.09 CA 29.69 C 35.11 O 35.5 CB 31.82 CG 34.49 CD 37.43 CE 39.46 NZ 56.1
B PRO - 29 -62.8 139.3 N 33.15 CA 34.03 C 40.23 O 38.52 CB 34.76 CG 37.15 CD 33.38
B GLY - 117 74.9 360.0 N 39.45 CA 75.61 C 107.54 O 73.97
B ARG - 304 360.0 124.2 N 59.59 CA 59.49 C 64.24 O 64.12 CB 59.41 CG 70.88 CD 81.05 NE 85.1 CZ 94.54 NH1 73.88 NH2 81.23
B GLY - 56 -117.2 172.1 N 60.32 CA 60.5 C 62.0 O 60.93
B SER S 132 -63.8 -18.7 N 57.12 CA 56.68 C 60.02 O 59.35 CB 60.21 OG 63.62
B LEU - 140 -94.6 104.6 N 56.42 CA 55.88 C 60.14 O 59.04 CB 55.88 CG 60.06 CD1 60.92 CD2 61.13
B ASP - 141 -122.4 103.6 N 57.5 CA 56.68 C 58.7 O 56.51 CB 59.86 CG 75.26 OD1 85.26 OD2 75.65
B GLU - 150 -131.4 170.1 N 55.63 CA 55.43 C 59.95 O 59.88 CB 56.99 CG 70.38 CD 89.68 OE1 86.84 OE2 77.87
B SER - 96 -129.9 85.1 N 56.75 CA 56.28 C 62.97 O 62.39 CB 57.92 OG 62.02
B SER - 100 -134.1 -1.1 N 61.35 CA 61.8 C 66.28 O 66.67 CB 66.2 OG 73.34
B LEU - 75 -48.8 -74.2 N 61.94 CA 60.85 C 61.71 O 62.68 CB 61.13 CG 66.97 CD1 66.85 CD2 70.21
B GLY - 21 -31.1 132.3 N 54.17 CA 51.18 C 49.18 O 49.95
B PHE E 43 -88.8 144.5 N 38.31 CA 34.54 C 33.8 O 32.65 CB 34.62 CG 33.48 CD1 32.92 CD2 34.78 CE1 33.12 CE2 37.24 CZ 33.86
B GLY E 15 -175.7 -155.8 N 27.79 CA 24.18 C 23.72 O 21.28
B TYR E 33 -122.2 102.1 N 17.85 CA 17.28 C 21.1 O 20.88 CB 18.66 CG 20.01 CD1 21.41 CD2 20.45 CE1 22.08 CE2 21.52 CZ 26.16 OH 23.76
B PRO E 40 -66.5 -25.3 N 19.32 CA 19.89 C 22.82 O 20.97 CB 23.04 CG 27.62 CD 21.66
B LYS E 113 -119.2 59.3 N 19.15 CA 19.57 C 23.1 O 21.16 CB 22.28 CG 24.52 CD 30.22 CE 32.3 NZ 44.36
B PHE E 11 -65.0 -51.2 N 19.77 CA 18.02 C 21.78 O 20.56 CB 18.64 CG 19.99 CD1 20.69 CD2 20.6 CE1 18.99 CE2 19.77 CZ 16.48
B ILE E 6 -150.5 134.3 N 19.31 CA 20.75 C 24.1 O 25.38 CB 23.2 CG1 24.58 CG2 20.89 CD1 28.66
B SER E 17 -73.0 158.4 N 20.44 CA 20.8 C 26.0 O 25.7 CB 24.99 OG 28.58
B HIS H 33 -62.3 -33.9 N 24.23 CA 26.13 C 32.14 O 32.89 CB 27.33 CG 30.17 ND1 30.99 CD2 32.19 CE1 30.31 NE2 30.98
B GLN H 135 -64.2 -47.5 N 29.27 CA 29.83 C 32.25 O 34.42 CB 31.78 CG 62.69 CD 91.63 OE1 85.46 NE2 87.51
B ASP H 72 -68.4 -36.1 N 27.28 CA 26.57 C 29.64 O 29.77 CB 27.55 CG 44.36 OD1 48.14 OD2 49.27
B ILE H 2 -64.4 -22.8 N 24.75 CA 23.13 C 27.95 O 25.6 CB 24.75 CG1 24.2 CG2 23.85 CD1 19.65
B ARG T 151 -84.5 -5.9 N 27.1 CA 28.95 C 35.74 O 37.1 CB 30.89 CG 46.31 CD 65.66 NE 79.82 CZ 91.37 NH1 72.4 NH2 79.91
B LYS S 123 -90.7 163.5 N 32.55 CA 33.33 C 35.84 O 34.54 CB 35.9 CG 39.01 CD 45.78 CE 64.19 NZ 72.84
B ARG T 125 48.2 -143.1 N 31.69 CA 30.87 C 33.32 O 30.8 CB 31.17 CG 37.6 CD 43.88 NE 65.77 CZ 82.07 NH1 68.54 NH2 71.63
B ASN T 57 -119.3 41.1 N 29.37 CA 28.53 C 27.75 O 26.95 CB 29.56 CG 46.29 OD1 40.7 ND2 35.76
B TYR S 17 -66.5 -36.7 N 23.35 CA 22.23 C 25.77 O 23.06 CB 23.07 CG 22.6 CD1 22.9 CD2 22.66 CE1 22.67 CE2 22.93 CZ 26.46 OH 26.29
B VAL S 30 -110.8 120.1 N 23.48 CA 24.05 C 28.26 O 27.59 CB 28.12 CG1 28.26 CG2 27.07
B ARG B 75 -144.6 136.2 N 25.52 CA 26.04 C 29.51 O 28.56 CB 27.4 CG 31.8 CD 33.13 NE 37.41 CZ 51.7 NH1 44.32 NH2 38.56
B ASP T 127 50.4 41.7 N 27.84 CA 28.43 C 31.12 O 30.85 CB 30.97 CG 38.9 OD1 40.31 OD2 45.22
B ASP T 80 56.0 34.7 N 27.55 CA 27.18 C 28.72 O 28.38 CB 30.2 CG 32.96 OD1 32.63 OD2 37.16
B ALA B 6 -142.5 153.2 N 24.15 CA 22.47 C 22.73 O 21.71 CB 23.35
B VAL E 0 -124.1 151.5 N 18.61 CA 17.28 C 20.94 O 23.47 CB 20.88 CG1 21.21 CG2 20.7
B PHE E 0 -117.6 123.7 N 17.61 CA 16.35 C 21.48 O 23.11 CB 17.66 CG 19.62 CD1 21.17 CD2 22.69 CE1 22.44 CE2 26.03 CZ 22.69
B ILE E 2 -105.7 125.4 N 16.5 CA 16.74 C 20.88 O 20.33 CB 19.48 CG1 20.59 CG2 20.13 CD1 32.79
B ARG E 75 -110.4 134.2 N 17.45 CA 17.9 C 20.56 O 20.17 CB 19.41 CG 21.61 CD 23.95 NE 28.46 CZ 42.53 NH1 25.35 NH2 25.58
B ALA E 1 -125.4 113.2 N 15.71 CA 16.8 C 21.15 O 18.79 CB 17.69
B ALA E 26 -109.3 121.7 N 17.27 CA 18.84 C 20.9 O 21.1 CB 20.02
B VAL E 7 -110.1 136.0 N 17.24 CA 17.12 C 21.56 O 18.31 CB 19.05 CG1 19.0 CG2 17.74
B GLU - 51 -61.3 127.7 N 19.62 CA 21.92 C 25.65 O 23.75 CB 24.12 CG 31.33 CD 40.1 OE1 28.03 OE2 36.36
B LEU - 48 -100.2 162.4 N 21.8 CA 22.29 C 25.2 O 24.64 CB 22.28 CG 25.93 CD1 26.67 CD2 27.91
B PRO - 60 -56.9 136.9 N 23.13 CA 22.95 C 24.14 O 23.15 CB 25.76 CG 30.27 CD 25.0
B ARG - 183 -72.8 141.5 N 20.05 CA 20.1 C 24.99 O 23.94 CB 18.49 CG 21.35 CD 29.58 NE 28.71 CZ 48.05 NH1 37.46 NH2 36.47
B LYS - 181 -72.2 138.1 N 24.34 CA 24.32 C 29.03 O 25.49 CB 27.12 CG 44.02 CD 52.69 CE 65.52 NZ 74.0
B ILE - 158 -90.6 151.8 N 28.45 CA 30.03 C 35.78 O 36.03 CB 34.36 CG1 36.02 CG2 34.97 CD1 51.68
B LEU - 137 -144.2 134.0 N 30.8 CA 32.17 C 34.19 O 31.85 CB 32.8 CG 39.86 CD1 39.81 CD2 46.99
B SER - 118 -99.0 126.5 N 30.83 CA 31.37 C 37.07 O 38.33 CB 35.2 OG 43.26
B LEU - 206 -84.7 360.0 N 33.93 CA 47.68 C 81.72 O 55.36 CB 48.09 CG 51.1 CD1 51.11 CD2 54.06
C ARG - 184 360.0 -69.5 N 78.49 CA 78.77 C 82.02 O 80.97 CB 80.28 CG 91.47 CD 101.75 NE 111.44 CZ 125.18 NH1 109.56 NH2 114.85
C GLN H 15 -74.1 -19.7 N 78.23 CA 76.55 C 76.9 O 74.97 CB 78.77 CG 94.04 CD 115.74 OE1 111.46 NE2 107.36
C ARG H 175 -59.6 -35.8 N 72.52 CA 70.56 C 72.21 O 69.8 CB 71.43 CG 80.16 CD 91.7 NE 103.06 CZ 118.95 NH1 107.76 NH2 104.11
C GLN H 127 -87.3 -25.1 N 69.15 CA 67.93 C 70.24 O 69.88 CB 70.07 CG 84.62 CD 101.44 OE1 98.68 NE2 88.25
C GLU H 22 -70.2 -39.0 N 65.33 CA 63.92 C 64.16 O 62.32 CB 66.45 CG 76.18 CD 99.57 OE1 91.74 OE2 94.04
C LEU H 0 -73.8 -34.6 N 58.66 CA 57.2 C 59.41 O 57.58 CB 57.53 CG 63.64 CD1 64.45 CD2 66.42
C GLN H 91 -72.0 -30.9 N 55.27 CA 53.36 C 52.83 O 51.75 CB 55.42 CG 71.53 CD 94.81 OE1 90.98 NE2 86.43
C GLU H 116 -63.9 -45.3 N 47.54 CA 47.0 C 48.51 O 47.32 CB 49.51 CG 65.26 CD 95.65 OE1 93.73 OE2 94.3
C LEU H 13 -68.2 -38.8 N 43.46 CA 42.44 C 41.15 O 37.48 CB 43.69 CG 49.88 CD1 51.23 CD2 51.64
C ARG H 66 -62.8 -40.1 N 37.33 CA 36.15 C 39.01 O 37.13 CB 37.82 CG 48.87 CD 64.15 NE 79.16 CZ 95.73 NH1 86.07 NH2 79.23
C ARG H 126 -66.4 -44.4 N 34.67 CA 34.51 C 33.31 O 30.73 CB 39.18 CG 52.24 CD 65.28 NE 76.37 CZ 87.2 NH1 78.86 NH2 62.84
C GLU H 94 -62.6 -40.0 N 28.89 CA 28.35 C 26.52 O 22.46 CB 30.72 CG 46.96 CD 63.04 OE1 52.4 OE2 40.5
C LEU H 8 -61.9 -38.8 N 24.53 CA 24.25 C 26.1 O 24.73 CB 25.25 CG 31.97 CD1 33.0 CD2 34.84
C GLU H 81 -62.8 -39.1 N 22.97 CA 22.24 C 23.33 O 22.6 CB 23.41 CG 28.14 CD 46.5 OE1 47.5 OE2 36.64
C GLU H 41 -64.1 -25.1 N 20.04 CA 19.79 C 24.05 O 23.52 CB 21.24 CG 26.33 CD 28.29 OE1 21.08 OE2 22.17
C LEU T 31 -86.6 -6.0 N 19.7 CA 19.12 C 21.45 O 21.66 CB 19.58 CG 24.91 CD1 25.38 CD2 28.62
C SER - 26 -80.6 105.0 N 17.34 CA 16.71 C 18.92 O 18.72 CB 20.2 OG 25.15
C VAL B 32 -134.4 137.5 N 14.63 CA 15.01 C 20.31 O 18.83 CB 18.46 CG1 18.14 CG2 18.77
C GLY - 12 -58.6 150.2 N 17.48 CA 18.13 C 22.41 O 22.13
C SER B 44 -97.3 105.0 N 19.42 CA 19.48 C 22.8 O 21.26 CB 21.23 OG 30.43
C ASP T 134 53.8 44.5 N 21.12 CA 21.15 C 21.95 O 22.44 CB 24.36 CG 43.96 OD1 45.05 OD2 57.46
C GLY T 1 78.7 6.2 N 17.11 CA 17.81 C 20.94 O 20.78
C VAL E 34 -105.2 130.8 N 17.05 CA 15.98 C 19.78 O 18.73 CB 20.77 CG1 20.62 CG2 21.11
C LEU E 9 -114.7 131.8 N 18.09 CA 19.03 C 20.88 O 20.06 CB 19.64 CG 24.5 CD1 24.95 CD2 28.04
C ILE E 24 -115.7 117.6 N 15.87 CA 16.57 C 21.16 O 19.97 CB 18.92 CG1 19.05 CG2 17.88 CD1 23.5
C TRP E 18 -109.0 115.6 N 16.73 CA 16.32 C 17.41 O 16.82 CB 14.38 CG 16.0 CD1 19.15 CD2 16.5 NE1 19.49 CE2 19.91 CE3 17.54 CZ2 19.88 CZ3 19.24 CH2 20.2
C LYS E 89 -90.2 120.6 N 13.3 CA 13.42 C 18.19 O 18.21 CB 13.93 CG 13.31 CD 18.79 CE 16.84 NZ 20.25
C ILE E 0 -102.3 102.9 N 17.8 CA 17.41 C 21.81 O 20.66 CB 19.4 CG1 18.73 CG2 18.9 CD1 20.66
C GLY - 26 -86.5 169.6 N 20.77 CA 22.44 C 27.63 O 26.81
C SER S 54 50.9 45.2 N 26.56 CA 27.4 C 28.61 O 27.3 CB 31.9 OG 44.25
C TYR H 2 -51.0 -49.9 N 23.5 CA 22.82 C 26.67 O 25.7 CB 23.53 CG 23.56 CD1 25.14 CD2 24.94 CE1 23.29 CE2 25.3 CZ 25.95 OH 27.16
C GLY H 28 -58.2 -47.4 N 24.27 CA 24.41 C 30.33 O 30.53
C ARG H 142 -64.8 -45.3 N 28.08 CA 28.7 C 30.86 O 29.24 CB 30.17 CG 45.61 CD 64.2 NE 77.07 CZ 94.28 NH1 79.94 NH2 83.35
C ARG H 82 -68.1 -35.7 N 24.35 CA 22.85 C 24.86 O 24.02 CB 21.05 CG 25.38 CD 35.71 NE 53.49 CZ 73.86 NH1 62.47 NH2 66.36
C LEU H 9 -64.7 -45.4 N 22.2 CA 21.84 C 26.35 O 26.34 CB 22.27 CG 26.46 CD1 25.43 CD2 28.08
C GLN H 117 -61.9 -38.7 N 25.14 CA 26.26 C 30.66 O 29.16 CB 28.58 CG 55.96 CD 84.11 OE1 79.54 NE2 76.91
C GLU H 85 -64.9 -39.9 N 28.49 CA 28.74 C 30.7 O 29.97 CB 30.47 CG 48.27 CD 83.13 OE1 88.67 OE2 78.74
C ALA H 7 -63.2 -38.2 N 25.78 CA 24.15 C 28.11 O 28.23 CB 23.28
C LYS H 94 -66.3 -31.7 N 25.12 CA 26.42 C 32.95 O 33.68 CB 30.17 CG 34.56 CD 39.29 CE 43.75 NZ 46.8
C ALA H 83 -87.5 -20.3 N 29.07 CA 29.09 C 30.95 O 32.24 CB 29.71
C LYS - 103 -133.3 84.9 N 25.58 CA 23.77 C 24.38 O 22.68 CB 25.09 CG 24.59 CD 21.08 CE 30.77 NZ 42.07
C PRO T 76 -55.8 -27.4 N 21.82 CA 21.3 C 24.34 O 24.7 CB 22.66 CG 28.06 CD 23.67
C ASN T 117 -82.9 5.4 N 21.44 CA 21.38 C 26.29 O 24.62 CB 21.81 CG 32.96 OD1 28.35 ND2 29.23
C LEU - 52 -73.0 109.0 N 24.14 CA 22.57 C 21.9 O 20.04 CB 23.1 CG 28.01 CD1 29.34 CD2 27.69
C GLU - 36 -113.1 133.0 N 19.5 CA 17.47 C 23.63 O 23.4 CB 17.42 CG 20.63 CD 26.06 OE1 23.15 OE2 26.15
C CYS E 11 -90.9 140.5 N 18.98 CA 19.51 C 23.14 O 19.81 CB 21.04 SG 27.03
C PHE E 92 -122.6 140.3 N 18.54 CA 17.38 C 20.48 O 19.6 CB 20.08 CG 21.25 CD1 24.25 CD2 23.94 CE1 24.44 CE2 25.85 CZ 23.3
C SER - 3 -77.4 165.8 N 16.95 CA 15.87 C 17.05 O 18.09 CB 15.57 OG 16.69
C PRO - 77 -61.4 149.5 N 16.83 CA 17.41 C 19.44 O 18.73 CB 19.73 CG 24.28 CD 18.47
C ALA - 8 -65.6 148.0 N 18.08 CA 17.63 C 21.54 O 20.67 CB 18.87
C PHE E 0 -147.0 149.3 N 17.55 CA 15.77 C 18.67 O 18.19 CB 17.25 CG 19.32 CD1 22.06 CD2 21.6 CE1 23.57 CE2 25.39 CZ 22.79
C TYR E 2 -86.6 134.8 N 16.01 CA 14.88 C 18.54 O 17.67 CB 15.1 CG 14.54 CD1 16.36 CD2 14.74 CE1 17.57 CE2 15.98 CZ 21.57 OH 16.87
C THR S 1 -55.5 -39.3 N 16.28 CA 16.33 C 21.93 O 22.71 CB 21.87 OG1 17.39 CG2 20.1
C HIS S 72 -156.1 162.9 N 18.23 CA 19.86 C 21.77 O 18.08 CB 21.53 CG 25.81 ND1 27.42 CD2 28.22 CE1 27.02 NE2 28.1
C LYS T 61 -57.1 126.5 N 19.36 CA 19.19 C 21.55 O 21.43 CB 22.08 CG 23.83 CD 31.71 CE 31.52 NZ 33.32
C TYR T 29 70.2 22.2 N 16.99 CA 16.81 C 20.05 O 18.94 CB 17.3 CG 18.86 CD1 21.25 CD2 21.04 CE1 25.03 CE2 22.38 CZ 29.65 OH 36.61
C GLY S 0 -101.4 -155.2 N 17.74 CA 16.44 C 18.45 O 16.87
C TYR - 15 -77.3 140.6 N 16.37 CA 15.18 C 17.7 O 16.95 CB 15.92 CG 16.04 CD1 17.99 CD2 15.48 CE1 18.73 CE2 16.63 CZ 20.36 OH 21.51
C LYS E 6 -95.5 121.4 N 14.76 CA 13.34 C 16.98 O 15.35 CB 13.37 CG 14.96 CD 23.74 CE 21.83 NZ 27.31
C LEU E 1 -125.2 166.0 N 13.49 CA 14.75 C 18.34 O 18.67 CB 15.93 CG 20.06 CD1 20.68 CD2 19.53
C GLN E 42 -150.5 129.7 N 14.1 CA 13.91 C 18.31 O 18.74 CB 15.59 CG 17.83 CD 25.72 OE1 26.19 NE2 19.0
C VAL E 0 -92.5 148.1 N 15.03 CA 15.56 C 19.05 O 19.17 CB 19.77 CG1 20.44 CG2 19.91
C SER E 0 -138.5 159.3 N 15.67 CA 15.44 C 18.31 O 18.5 CB 17.9 OG 28.02
C ALA E 0 -148.3 145.1 N 15.57 CA 15.88 C 20.14 O 19.12 CB 16.2
C PHE E 15 -113.2 107.5 N 15.25 CA 15.11 C 19.76 O 20.53 CB 16.33 CG 16.68 CD1 18.26 CD2 19.36 CE1 17.94 CE2 21.59 CZ 19.15
C LEU T 2 -62.9 -31.9 N 17.76 CA 17.1 C 21.04 O 20.12 CB 17.12 CG 21.74 CD1 22.28 CD2 22.32
C ASN T 21 -100.5 9.8 N 16.32 CA 17.38 C 22.18 O 23.51 CB 18.32 CG 27.91 OD1 21.43 ND2 18.03
C GLY - 4 77.4 160.8 N 18.14 CA 17.68 C 21.2 O 22.16
C ASN - 22 -139.4 170.3 N 16.94 CA 17.84 C 20.46 O 17.91 CB 19.73 CG 26.01 OD1 24.44 ND2 21.84
C GLY G 59 51.6 -127.0 N 19.89 CA 19.26 C 21.36 O 20.68
C SER G 80 -69.2 -13.1 N 19.27 CA 20.02 C 23.2 O 22.96 CB 22.33 OG 20.98
C GLY G 0 -99.2 2.6 N 18.81 CA 19.54 C 21.92 O 20.53
C GLU T 111 -59.3 121.1 N 19.11 CA 19.75 C 23.9 O 23.58 CB 21.03 CG 27.18 CD 44.43 OE1 32.12 OE2 36.79
C GLY T 36 80.5 -3.7 N 21.82 CA 22.85 C 24.22 O 23.7
C THR T 67 -130.3 -18.0 N 19.53 CA 18.89 C 21.41 O 18.79 CB 27.75 OG1 25.49 CG2 23.99
C HIS E 38 -141.8 165.8 N 18.92 CA 18.27 C 20.74 O 20.16 CB 18.32 CG 21.28 ND1 23.61 CD2 21.92 CE1 22.83 NE2 22.4
C LEU E 1 -89.0 129.9 N 18.62 CA 18.83 C 19.96 O 20.54 CB 19.83 CG 25.78 CD1 25.78 CD2 29.08
C SER E 0 -108.1 135.8 N 15.35 CA 14.88 C 19.66 O 18.04 CB 16.55 OG 19.73
C LEU E 0 -125.6 132.8 N 18.53 CA 18.58 C 20.61 O 17.33 CB 19.02 CG 25.96 CD1 24.34 CD2 30.86
C TYR E 11 -138.7 165.0 N 16.56 CA 15.97 C 20.36 O 19.45 CB 17.73 CG 17.92 CD1 20.01 CD2 18.43 CE1 21.24 CE2 18.8 CZ 22.24 OH 18.58
C ILE E 2 -136.7 148.4 N 18.01 CA 17.74 C 20.44 O 19.32 CB 19.65 CG1 20.24 CG2 20.53 CD1 21.96
C ARG E 31 -135.7 151.6 N 16.11 CA 17.8 C 18.7 O 16.75 CB 21.2 CG 26.59 CD 31.27 NE 48.39 CZ 64.66 NH1 53.7 NH2 45.84
C VAL E 4 -90.6 132.8 N 15.6 CA 16.18 C 17.94 O 17.22 CB 21.28 CG1 22.39 CG2 20.76
C LEU E 39 -111.8 158.8 N 14.01 CA 14.76 C 19.33 O 17.36 CB 15.48 CG 21.93 CD1 24.22 CD2 28.41
C PRO - 97 -59.5 127.1 N 16.79 CA 17.12 C 19.55 O 18.22 CB 19.56 CG 25.88 CD 19.89
C GLY - 13 -115.8 158.0 N 15.71 CA 15.02 C 18.31 O 15.42
C ALA T 28 -64.2 -24.6 N 16.3 CA 16.32 C 19.19 O 18.36 CB 17.03
C PHE T 20 -109.8 13.6 N 16.03 CA 16.12 C 18.96 O 17.74 CB 18.32 CG 20.95 CD1 24.12 CD2 22.85 CE1 25.47 CE2 24.79 CZ 22.98
C ASP G 14 -49.6 -39.4 N 15.93 CA 14.87 C 16.98 O 16.92 CB 16.13 CG 18.45 OD1 18.63 OD2 21.04
C ASN G 17 -67.3 -10.9 N 15.42 CA 16.64 C 21.2 O 19.29 CB 20.02 CG 28.3 OD1 18.15 ND2 21.72
C LEU G 30 -96.9 -7.3 N 18.87 CA 17.49 C 20.25 O 19.34 CB 16.74 CG 20.81 CD1 21.3 CD2 19.99
C LEU S 17 -102.9 161.6 N 17.62 CA 16.44 C 18.54 O 16.13 CB 15.92 CG 19.31 CD1 17.1 CD2 19.19
C GLU - 97 -81.1 136.3 N 16.49 CA 17.74 C 21.54 O 21.28 CB 20.37 CG 29.62 CD 55.52 OE1 40.08 OE2 54.18
C TRP S 28 -130.1 140.8 N 19.34 CA 18.96 C 21.91 O 20.62 CB 17.86 CG 18.16 CD1 21.0 CD2 16.88 NE1 18.95 CE2 20.09 CE3 17.52 CZ2 18.51 CZ3 18.05 CH2 18.57
C PRO S 49 -70.4 159.4 N 18.51 CA 17.24 C 19.69 O 17.99 CB 18.79 CG 24.23 CD 19.96
C PHE - 1 -60.8 124.4 N 17.04 CA 16.33 C 21.18 O 17.85 CB 16.74 CG 16.87 CD1 18.96 CD2 18.27 CE1 20.79 CE2 20.61 CZ 18.95
C ALA - 40 -135.5 19.2 N 18.46 CA 18.31 C 24.47 O 27.07 CB 19.32
C ARG - 94 -82.7 130.9 N 19.72 CA 18.58 C 21.55 O 20.6 CB 15.63 CG 9.22 CD 21.2 NE 27.23 CZ 43.78 NH1 33.43 NH2 29.29
C ARG - 85 -54.2 135.1 N 16.66 CA 16.16 C 20.44 O 18.6 CB 16.11 CG 24.13 CD 31.74 NE 38.01 CZ 51.76 NH1 29.36 NH2 36.31
C VAL E 0 -119.0 129.6 N 18.09 CA 18.65 C 22.96 O 23.34 CB 21.94 CG1 20.64 CG2 22.15
C THR E 38 -118.3 117.8 N 17.93 CA 17.3 C 20.64 O 19.3 CB 26.99 OG1 24.57 CG2 24.97
C PHE E 0 -96.2 139.0 N 16.12 CA 16.97 C 18.96 O 17.99 CB 20.43 CG 23.11 CD1 28.03 CD2 24.63 CE1 28.6 CE2 26.97 CZ 25.4
C SER E 0 -140.1 139.6 N 14.29 CA 15.33 C 21.55 O 22.07 CB 19.02 OG 26.09
C LEU E 0 -100.0 119.3 N 20.56 CA 20.4 C 21.63 O 21.28 CB 20.29 CG 26.23 CD1 25.54 CD2 31.57
C LEU - 5 -79.1 132.8 N 16.63 CA 17.02 C 21.4 O 20.08 CB 16.8 CG 21.77 CD1 22.21 CD2 24.12
C ASP - 2 -82.4 108.9 N 19.37 CA 18.56 C 23.85 O 25.09 CB 20.89 CG 29.06 OD1 27.77 OD2 35.14
C GLN - 0 -76.9 45.3 N 19.18 CA 19.22 C 27.74 O 25.28 CB 19.24 CG 20.09 CD 26.53 OE1 22.53 NE2 17.3
C SER - 13 -93.8 140.3 N 30.83 CA 34.02 C 41.93 O 39.02 CB 35.99 OG 38.54
C ASP - 64 -55.6 111.3 N 45.49 CA 47.49 C 51.8 O 52.12 CB 52.35 CG 72.43 OD1 73.71 OD2 82.68
C PRO T 48 -63.0 -22.4 N 48.24 CA 49.53 C 59.96 O 61.88 CB 50.19 CG 53.33 CD 49.27
C GLY T 57 -74.0 -22.1 N 59.09 CA 60.98 C 66.45 O 67.32
C LEU T 131 -87.5 -66.3 N 63.19 CA 64.16 C 65.92 O 67.44 CB 64.37 CG 70.53 CD1 70.75 CD2 73.02
C ALA S 46 -140.6 153.9 N 58.37 CA 56.95 C 55.65 O 54.49 CB 58.0
C LYS - 163 -64.8 120.1 N 48.26 CA 45.68 C 43.54 O 42.54 CB 48.38 CG 52.78 CD 61.92 CE 63.62 NZ 65.69
C PRO - 22 -65.6 137.9 N 35.67 CA 32.98 C 33.15 O 32.42 CB 34.14 CG 39.51 CD 36.16
C GLN - 101 -105.1 84.7 N 26.71 CA 25.17 C 24.94 O 24.67 CB 26.93 CG 52.42 CD 76.86 OE1 70.77 NE2 77.28
C HIS - 69 -69.4 146.1 N 22.08 CA 21.04 C 24.8 O 25.95 CB 20.84 CG 23.45 ND1 24.21 CD2 24.93 CE1 23.36 NE2 24.23
C VAL E 35 -97.6 117.5 N 19.55 CA 19.58 C 24.13 O 22.49 CB 23.79 CG1 23.59 CG2 25.21
C THR E 65 -128.1 140.7 N 19.65 CA 19.02 C 21.97 O 20.64 CB 29.33 OG1 28.96 CG2 28.18
C GLU E 83 -133.3 142.2 N 19.31 CA 20.23 C 23.92 O 21.33 CB 21.31 CG 31.69 CD 48.88 OE1 34.08 OE2 42.8
C THR E 68 -128.1 144.5 N 21.11 CA 21.52 C 25.56 O 25.37 CB 27.65 OG1 31.83 CG2 22.7
C PHE E 19 -148.9 155.1 N 20.41 CA 19.72 C 23.21 O 21.33 CB 20.6 CG 21.4 CD1 23.38 CD2 22.62 CE1 23.82 CE2 24.51 CZ 22.15
C HIS - 107 -99.0 124.1 N 20.87 CA 21.05 C 21.52 O 19.98 CB 24.03 CG 28.81 ND1 31.44 CD2 31.75 CE1 31.26 NE2 31.66
C PRO - 1 -55.0 132.5 N 18.46 CA 17.54 C 21.44 O 21.42 CB 18.96 CG 22.46 CD 19.44
C ASP - 66 -73.4 118.9 N 20.21 CA 21.24 C 25.6 O 24.67 CB 23.36 CG 35.28 OD1 31.62 OD2 47.31
C PRO T 68 -61.7 -17.1 N 23.29 CA 23.25 C 28.1 O 28.07 CB 25.02 CG 29.41 CD 24.36
C ASN T 133 -88.0 -10.5 N 25.19 CA 25.96 C 30.84 O 30.84 CB 21.69 CG 42.13 OD1 37.62 ND2 34.08
C TRP - 80 -75.5 114.2 N 25.6 CA 24.12 C 26.77 O 25.4 CB 21.76 CG 22.14 CD1 23.94 CD2 22.87 NE1 22.63 CE2 25.92 CE3 25.72 CZ2 26.12 CZ3 27.93 CH2 28.11
C LYS G 128 -52.4 -39.1 N 22.58 CA 22.68 C 24.7 O 24.03 CB 25.6 CG 46.11 CD 59.85 CE 73.85 NZ 85.65
C ASN G 56 -68.5 -17.2 N 19.24 CA 17.89 C 21.06 O 21.14 CB 20.03 CG 24.31 OD1 18.33 ND2 14.26
C PHE G 1 -84.0 -11.4 N 19.09 CA 18.81 C 24.1 O 22.65 CB 19.59 CG 19.97 CD1 23.04 CD2 21.25 CE1 24.47 CE2 23.82 CZ 22.41
C GLN S 71 -77.3 164.3 N 23.75 CA 24.51 C 26.86 O 25.09 CB 26.46 CG 39.27 CD 58.77 OE1 51.84 NE2 51.91
C LYS - 36 -55.5 125.8 N 23.23 CA 22.38 C 25.63 O 25.45 CB 23.52 CG 27.48 CD 28.45 CE 35.06 NZ 46.02
C PRO T 33 -58.6 141.0 N 21.91 CA 22.64 C 31.47 O 29.52 CB 23.72 CG 26.77 CD 22.96
C GLY T 91 94.3 -14.6 N 31.43 CA 33.73 C 43.09 O 45.86
C THR - 138 -98.0 360.0 N 39.16 CA 54.5 C 99.47 O 71.03 CB 59.07 OG1 55.06 CG2 55.97
C GLU - 180 360.0 154.0 N 72.3 CA 71.19 C 73.08 O 72.71 CB 72.36 CG 82.41 CD 98.44 OE1 84.13 OE2 89.58
C SER - 103 -68.6 147.7 N 67.19 CA 65.36 C 65.29 O 65.01 CB 68.86 OG 79.14
C SER - 113 -89.0 5.0 N 58.21 CA 55.88 C 52.96 O 51.69 CB 61.12 OG 71.4
C LEU - 58 -71.5 149.4 N 44.53 CA 42.16 C 36.93 O 34.67 CB 43.53 CG 49.08 CD1 49.04 CD2 53.44
C GLY - 3 -78.5 -174.7 N 28.66 CA 26.11 C 25.95 O 23.76
C PHE E 44 -106.6 129.5 N 21.12 CA 19.64 C 21.35 O 19.19 CB 21.5 CG 24.92 CD1 29.6 CD2 28.0 CE1 32.27 CE2 33.14 CZ 31.76
C GLY E 26 168.3 -138.6 N 17.1 CA 17.69 C 23.17 O 23.25
C TYR E 51 -125.9 104.2 N 19.08 CA 19.17 C 21.34 O 21.18 CB 19.92 CG 21.74 CD1 23.13 CD2 21.75 CE1 21.91 CE2 22.77 CZ 27.4 OH 29.3
C PRO E 40 -64.0 -27.3 N 15.38 CA 15.48 C 18.13 O 18.39 CB 16.94 CG 21.73 CD 17.3
C LYS E 125 -117.1 59.9 N 14.27 CA 14.27 C 20.88 O 21.45 CB 15.85 CG 24.2 CD 24.71 CE 34.44 NZ 41.73
C PHE E 11 -66.4 -52.3 N 19.14 CA 17.58 C 20.25 O 19.01 CB 18.11 CG 18.39 CD1 20.56 CD2 19.36 CE1 20.62 CE2 20.35 CZ 19.14
C ILE E 7 -148.6 135.7 N 17.43 CA 18.2 C 21.19 O 18.4 CB 21.14 CG1 23.26 CG2 21.7 CD1 23.48
C SER E 17 -72.6 158.1 N 19.39 CA 19.85 C 23.15 O 21.5 CB 25.12 OG 25.86
C HIS H 29 -61.9 -32.6 N 21.96 CA 22.48 C 27.77 O 28.29 CB 24.01 CG 25.96 ND1 25.95 CD2 26.77 CE1 24.34 NE2 25.42
C GLN H 134 -65.4 -47.7 N 24.13 CA 25.21 C 28.46 O 29.59 CB 27.13 CG 45.61 CD 64.69 OE1 58.59 NE2 53.06
C ASP H 74 -68.8 -35.6 N 23.56 CA 23.42 C 26.46 O 25.8 CB 24.38 CG 34.4 OD1 34.96 OD2 37.42
C ILE H 3 -63.9 -23.4 N 21.9 CA 21.26 C 26.53 O 27.35 CB 22.44 CG1 21.91 CG2 21.6 CD1 22.2
C ARG T 151 -82.4 -9.2 N 24.9 CA 25.53 C 29.88 O 29.79 CB 28.35 CG 45.34 CD 65.93 NE 77.8 CZ 90.52 NH1 71.95 NH2 76.06
C LYS S 121 -86.5 159.4 N 26.98 CA 28.32 C 32.64 O 31.77 CB 31.15 CG 38.55 CD 48.2 CE 60.94 NZ 70.35
C ARG T 127 51.0 -136.5 N 29.55 CA 28.86 C 30.87 O 31.19 CB 28.64 CG 35.63 CD 44.9 NE 59.67 CZ 76.98 NH1 65.01 NH2 70.69
C ASN T 53 -127.3 43.3 N 24.73 CA 24.22 C 24.88 O 22.74 CB 22.93 CG 44.68 OD1 36.69 ND2 32.04
C TYR S 17 -64.7 -37.3 N 20.84 CA 19.33 C 23.75 O 24.01 CB 19.95 CG 20.6 CD1 20.72 CD2 21.82 CE1 19.72 CE2 22.47 CZ 23.8 OH 23.78
C VAL S 31 -113.1 121.5 N 19.27 CA 19.98 C 25.48 O 23.71 CB 24.23 CG1 24.97 CG2 22.99
C ARG B 59 -146.0 134.0 N 22.07 CA 23.41 C 25.6 O 22.49 CB 24.2 CG 31.53 CD 36.53 NE 43.24 CZ 60.35 NH1 49.86 NH2 48.92
C ASP T 124 52.2 40.5 N 26.11 CA 26.11 C 27.56 O 26.47 CB 27.62 CG 35.4 OD1 39.41 OD2 33.4
C ASP T 80 58.3 34.8 N 23.56 CA 21.6 C 23.84 O 23.2 CB 23.41 CG 28.39 OD1 30.45 OD2 31.18
C ALA B 4 -144.6 153.8 N 19.16 CA 19.04 C 22.19 O 21.61 CB 19.65
C VAL E 1 -126.5 150.1 N 19.49 CA 19.2 C 21.0 O 19.73 CB 23.35 CG1 24.49 CG2 23.35
C PHE E 1 -114.4 125.9 N 14.63 CA 13.43 C 17.48 O 18.39 CB 15.22 CG 17.13 CD1 20.36 CD2 20.0 CE1 21.23 CE2 22.85 CZ 20.29
C ILE E 1 -107.3 123.3 N 15.23 CA 15.86 C 20.77 O 19.89 CB 19.31 CG1 20.25 CG2 18.97 CD1 24.71
C ARG E 73 -107.7 131.5 N 17.46 CA 17.92 C 21.88 O 21.88 CB 18.83 CG 17.13 CD 24.59 NE 31.69 CZ 44.94 NH1 33.33 NH2 30.48
C ALA E 0 -124.1 111.5 N 17.57 CA 16.34 C 19.74 O 20.55 CB 16.56
C ALA E 24 -108.4 121.7 N 15.6 CA 16.96 C 22.7 O 22.97 CB 18.28
C VAL E 6 -105.3 124.8 N 19.66 CA 19.16 C 24.75 O 25.42 CB 21.57 CG1 21.71 CG2 20.23
C GLU - 112 -68.4 113.9 N 22.86 CA 25.85 C 30.44 O 30.66 CB 28.53 CG 41.13 CD 65.46 OE1 56.03 OE2 65.2
C LEU - 103 -84.5 360.0 N 28.5 CA 34.61 C 61.34 O 32.56 CB 33.93 CG 37.17 CD1 37.25 CD2 35.92
