A ALA - 116 360.0 -146.0 N 32.79 CA 34.18 C 35.66 O 39.43 CB 36.31
A ASN - 65 -68.0 175.8 N 33.17 CA 31.28 C 30.08 O 32.77 CB 36.28 CG 33.18 OD1 38.73 ND2 37.18
A PRO T 110 -59.6 -26.2 N 33.76 CA 36.97 C 28.25 O 32.7 CB 41.48 CG 46.88 CD 41.52
A ASN T 26 -90.0 -8.1 N 29.91 CA 26.69 C 19.08 O 21.66 CB 28.04 CG 27.46 OD1 31.27 ND2 36.24
A TYR - 116 -62.2 128.8 N 20.59 CA 19.72 C 20.14 O 21.51 CB 22.45 CG 22.57 CD1 25.36 CD2 18.94 CE1 25.45 CE2 19.38 CZ 21.95 OH 21.9
A PHE - 5 -154.0 172.8 N 18.53 CA 16.11 C 15.73 O 18.51 CB 16.92 CG 15.5 CD1 16.46 CD2 15.19 CE1 17.43 CE2 15.62 CZ 15.9
A THR - 67 -130.6 -14.3 N 15.77 CA 15.49 C 14.49 O 15.3 CB 17.61 OG1 16.61 CG2 19.24
A TYR - 70 -157.3 159.8 N 13.37 CA 12.13 C 12.53 O 13.35 CB 13.35 CG 13.04 CD1 13.77 CD2 15.51 CE1 15.47 CE2 16.99 CZ 15.19 OH 20.03
A PHE E 1 -134.0 171.6 N 12.97 CA 12.02 C 11.42 O 11.85 CB 12.6 CG 11.16 CD1 11.54 CD2 12.63 CE1 12.64 CE2 13.4 CZ 12.86
A ARG E 64 -141.9 144.6 N 10.83 CA 11.12 C 10.69 O 12.84 CB 13.19 CG 13.68 CD 16.05 NE 19.36 CZ 21.32 NH1 22.34 NH2 25.35
A TYR - 7 -101.5 -21.2 N 11.58 CA 11.83 C 10.87 O 13.47 CB 12.06 CG 10.87 CD1 11.47 CD2 11.97 CE1 12.05 CE2 13.75 CZ 13.34 OH 14.76
A GLY - 3 73.7 -148.6 N 10.84 CA 11.84 C 11.17 O 11.79
A ASN B 25 -153.4 158.7 N 11.36 CA 12.36 C 13.33 O 14.86 CB 11.58 CG 11.39 OD1 13.23 ND2 13.19
A ASN S 75 -107.5 29.0 N 14.02 CA 14.25 C 13.64 O 16.67 CB 14.63 CG 13.49 OD1 14.57 ND2 15.92
A LEU S 33 -104.4 -1.9 N 15.02 CA 17.11 C 18.69 O 20.56 CB 18.71 CG 20.5 CD1 22.07 CD2 23.1
A GLY - 70 77.0 15.9 N 17.2 CA 19.93 C 16.82 O 20.64
A LEU - 28 -87.2 130.3 N 15.61 CA 15.43 C 15.63 O 15.34 CB 14.9 CG 17.37 CD1 18.35 CD2 20.61
A THR S 105 -140.7 157.5 N 15.41 CA 16.33 C 15.81 O 17.43 CB 18.43 OG1 21.27 CG2 21.37
A PRO S 54 -71.3 156.7 N 15.37 CA 15.26 C 14.2 O 13.77 CB 16.44 CG 17.76 CD 16.37
A ILE G 40 -64.8 -25.5 N 13.91 CA 12.73 C 12.26 O 13.72 CB 14.13 CG1 13.75 CG2 16.18 CD1 15.22
A GLU G 102 -72.1 -10.1 N 13.5 CA 14.16 C 13.76 O 18.34 CB 16.23 CG 16.68 CD 16.67 OE1 16.05 OE2 21.75
A ASN G 39 -88.1 2.8 N 13.32 CA 14.35 C 14.37 O 14.46 CB 16.57 CG 19.44 OD1 21.87 ND2 22.36
A TYR S 33 -137.4 157.0 N 12.12 CA 12.3 C 11.73 O 12.26 CB 12.6 CG 12.2 CD1 13.67 CD2 14.29 CE1 14.88 CE2 14.7 CZ 14.2 OH 18.49
A ALA - 3 -62.6 160.7 N 11.03 CA 11.07 C 10.5 O 10.83 CB 12.0
A ASP - 11 -74.8 115.8 N 11.46 CA 11.43 C 10.18 O 12.2 CB 11.52 CG 11.32 OD1 12.9 OD2 13.43
A GLN E 0 -155.9 136.5 N 10.53 CA 10.81 C 10.61 O 12.06 CB 11.28 CG 11.77 CD 10.67 OE1 11.91 NE2 11.78
A PHE E 16 -133.7 128.6 N 12.06 CA 12.2 C 12.66 O 13.08 CB 12.74 CG 12.05 CD1 13.31 CD2 13.44 CE1 13.16 CE2 13.63 CZ 13.85
A ARG E 22 -99.8 136.9 N 13.22 CA 12.94 C 13.5 O 14.24 CB 13.47 CG 13.2 CD 13.88 NE 13.24 CZ 12.71 NH1 15.27 NH2 14.41
A ILE E 2 -96.6 117.3 N 14.77 CA 14.58 C 14.39 O 16.31 CB 15.24 CG1 18.05 CG2 17.8 CD1 20.48
A GLU - 142 -61.4 153.0 N 16.96 CA 17.13 C 16.32 O 19.87 CB 22.22 CG 28.46 CD 37.74 OE1 44.8 OE2 41.27
A ALA T 29 -50.2 130.5 N 19.31 CA 18.89 C 18.73 O 21.4 CB 18.79
A GLY T 74 76.8 3.9 N 21.01 CA 22.23 C 22.71 O 24.77
A GLY - 20 -89.3 -169.4 N 21.53 CA 20.92 C 21.52 O 21.77
A LYS - 71 -125.7 137.5 N 21.33 CA 21.09 C 16.88 O 18.62 CB 24.47 CG 29.35
A LEU G 24 -57.0 -35.3 N 18.68 CA 17.16 C 19.02 O 19.73 CB 20.41 CG 20.31 CD1 22.6 CD2 22.33
A ASN G 115 -69.8 -2.4 N 18.74 CA 20.61 C 22.08 O 22.28 CB 22.25 CG 24.76 OD1 24.46 ND2 26.81
A SER G 79 -89.3 -9.7 N 17.88 CA 18.81 C 16.78 O 23.07 CB 21.63 OG 21.96
A VAL - 18 -122.6 100.0 N 16.63 CA 16.61 C 16.23 O 16.1 CB 18.04 CG1 20.95 CG2 21.07
A LYS - 87 -129.8 81.3 N 15.17 CA 15.07 C 14.07 O 17.69 CB 15.53 CG 17.13 CD 21.33 CE 20.46 NZ 25.75
A PRO - 11 -70.5 146.7 N 13.52 CA 14.76 C 13.44 O 14.35 CB 17.78 CG 17.78 CD 15.0
A VAL - 67 -119.6 150.9 N 14.55 CA 13.87 C 14.11 O 15.67 CB 13.97 CG1 15.97 CG2 14.76
A PRO - 11 -68.7 152.9 N 12.98 CA 13.15 C 11.64 O 14.41 CB 14.12 CG 15.42 CD 15.45
A THR - 88 -127.4 -4.9 N 11.47 CA 11.47 C 11.12 O 13.15 CB 10.98 OG1 10.59 CG2 13.46
A ALA E 23 -155.2 152.2 N 11.29 CA 11.37 C 11.54 O 13.13 CB 12.57
A THR E 31 -167.4 158.2 N 13.19 CA 13.49 C 13.07 O 14.74 CB 13.03 OG1 13.7 CG2 14.57
A ASP - 55 -97.9 5.4 N 14.12 CA 14.4 C 16.62 O 20.04 CB 15.05 CG 16.06 OD1 16.16 OD2 16.94
A ALA - 12 -62.5 127.3 N 14.53 CA 16.22 C 17.01 O 15.93 CB 16.48
A LYS T 131 -65.2 -33.4 N 19.59 CA 19.24 C 18.63 O 18.77 CB 22.37 CG 30.11 CD 32.61
A ASP T 115 -83.2 -8.2 N 18.2 CA 18.02 C 14.89 O 17.9 CB 21.19 CG 26.51 OD1 31.89 OD2 29.87
A GLY - 19 84.0 179.2 N 15.1 CA 14.4 C 14.65 O 17.36
A LEU G 49 -62.5 -28.0 N 13.74 CA 14.5 C 16.42 O 20.81 CB 14.12 CG 13.4 CD1 15.59 CD2 13.92
A SER G 109 -91.7 10.3 N 17.2 CA 18.02 C 21.66 O 27.32 CB 19.54 OG 19.49
A SER G 51 -107.1 -3.8 N 20.55 CA 22.81 C 22.35 O 31.66 CB 24.15 OG 24.73
A LEU S 7 -97.4 146.5 N 18.79 CA 18.22 C 18.92 O 20.25 CB 17.72 CG 18.22 CD1 18.08 CD2 22.21
A LYS E 40 -88.8 121.4 N 18.21 CA 19.93 C 15.59 O 19.33 CB 21.14 CG 24.37
A TRP E 2 -101.4 128.8 N 15.74 CA 15.91 C 16.75 O 17.35 CB 16.02 CG 16.24 CD1 16.75 CD2 15.48 NE1 15.9 CE2 14.65 CE3 14.43 CZ2 14.9 CZ3 14.77 CH2 16.05
A GLU E 102 -128.7 154.4 N 16.13 CA 15.99 C 14.75 O 15.21 CB 17.51 CG 20.55 CD 24.24 OE1 27.13 OE2 35.07
A VAL E 36 -137.0 146.3 N 15.29 CA 15.29 C 14.15 O 18.05 CB 14.87 CG1 17.38 CG2 16.31
A GLU E 116 -129.7 121.2 N 15.1 CA 16.0 C 15.05 O 15.07 CB 18.18 CG 23.4 CD 30.23 OE1 32.29 OE2 41.12
A LEU E 38 -67.1 125.5 N 15.42 CA 14.73 C 14.75 O 18.06 CB 15.9 CG 16.21 CD1 17.79 CD2 18.93
A LYS E 45 -100.9 -48.0 N 14.18 CA 13.95 C 15.4 O 16.27 CB 16.35 CG 19.16 CD 27.43 CE 27.67 NZ 36.46
A HIS E 1 -135.4 134.0 N 14.32 CA 14.87 C 15.05 O 14.28 CB 13.58 CG 13.25 ND1 13.96 CD2 14.36 CE1 16.07 NE2 15.19
A ASN - 15 -102.5 121.9 N 16.89 CA 18.04 C 17.31 O 17.44 CB 20.18 CG 20.06 OD1 23.54 ND2 23.63
A PRO T 79 -61.6 -21.2 N 21.12 CA 22.93 C 22.01 O 25.92 CB 25.19 CG 26.15 CD 21.98
A ASN T 129 -74.4 -22.3 N 21.03 CA 19.96 C 22.96 O 25.64 CB 24.57 CG 21.08 OD1 30.17 ND2 23.92
A ASN T 55 -150.0 -9.0 N 20.23 CA 20.53 C 18.17 O 22.56 CB 19.73 CG 18.91 OD1 19.78 ND2 25.79
A THR - 7 -108.6 146.1 N 17.12 CA 17.23 C 17.58 O 18.65 CB 16.69 OG1 18.66 CG2 18.17
A LYS E 70 -130.2 159.1 N 16.8 CA 18.46 C 16.98 O 17.0 CB 21.33 CG 23.09
A ALA E 21 -142.5 143.8 N 16.66 CA 15.69 C 16.07 O 20.76 CB 18.67
A THR E 91 -131.2 166.3 N 16.81 CA 16.9 C 17.33 O 16.45 CB 18.82 OG1 19.72 CG2 20.04
A ILE E 34 -141.3 143.6 N 16.32 CA 15.98 C 16.48 O 18.86 CB 15.41 CG1 15.41 CG2 17.82 CD1 16.16
A ASN - 75 -76.6 117.4 N 17.05 CA 16.49 C 15.39 O 16.14 CB 17.13 CG 16.08 OD1 19.25 ND2 20.74
A GLU T 131 -62.1 -25.9 N 17.3 CA 18.32 C 19.04 O 19.01 CB 21.74 CG 26.88 CD 36.82 OE1 45.76 OE2 38.92
A SER T 72 -92.5 -45.0 N 17.14 CA 19.54 C 20.41 O 23.66 CB 21.3 OG 24.48
A THR T 64 -93.9 -17.3 N 20.23 CA 18.86 C 16.71 O 17.53 CB 20.8 OG1 18.89 CG2 24.61
A GLY - 0 77.8 7.9 N 15.38 CA 14.75 C 13.67 O 14.44
A GLN - 73 -67.2 127.6 N 14.33 CA 15.32 C 13.84 O 15.78 CB 16.73 CG 18.46 CD 26.25 OE1 22.8 NE2 28.24
A ILE E 0 -99.6 139.6 N 13.96 CA 13.7 C 15.29 O 15.43 CB 14.13 CG1 15.27 CG2 16.26 CD1 15.11
A THR E 32 -124.3 131.0 N 16.14 CA 15.93 C 14.92 O 17.94 CB 17.56 OG1 18.79 CG2 19.22
A ILE E 6 -112.0 140.0 N 16.86 CA 17.78 C 17.49 O 18.24 CB 19.24 CG1 21.55 CG2 21.83 CD1 25.5
A THR E 76 -131.6 153.3 N 17.62 CA 18.99 C 17.08 O 18.99 CB 20.73 OG1 23.12 CG2 21.12
A GLY S 40 83.6 -14.4 N 18.31 CA 17.74 C 17.69 O 19.83
A LEU - 6 -56.2 133.0 N 18.0 CA 17.69 C 16.76 O 20.16 CB 17.63 CG 17.47 CD1 18.37 CD2 18.62
A LYS - 129 -87.8 147.4 N 17.22 CA 18.46 C 16.49 O 16.75 CB 21.3 CG 24.81 CD 28.9 CE 31.15 NZ 34.58
A GLN T 108 -56.9 136.4 N 18.71 CA 17.55 C 16.15 O 18.16 CB 22.97 CG 28.16 CD 33.47 OE1 49.0 NE2 27.31
A GLY T 3 87.8 1.3 N 15.38 CA 17.11 C 15.02 O 16.31
A GLN B 38 -117.7 157.6 N 14.52 CA 15.4 C 14.22 O 13.24 CB 17.48 CG 20.96 CD 27.08 OE1 28.32 NE2 24.36
A CYS E 0 -102.6 154.4 N 14.54 CA 14.39 C 15.28 O 14.85 CB 13.61 SG 14.47
A GLY E 2 -126.9 169.1 N 14.34 CA 14.39 C 12.44 O 13.61
A MET E 1 -146.6 134.8 N 12.69 CA 11.54 C 12.81 O 14.2 CB 12.41 CG 13.14 SD 14.0 CE 15.72
A VAL E 1 -122.4 156.6 N 12.19 CA 12.51 C 12.59 O 14.4 CB 14.0 CG1 16.7 CG2 13.97
A MET E 14 -107.0 122.8 N 13.54 CA 13.61 C 12.99 O 14.18 CB 15.41 CG 17.3 SD 17.86 CE 19.79
A VAL E 0 -98.2 129.3 N 13.12 CA 13.55 C 12.92 O 13.82 CB 12.67 CG1 13.74 CG2 14.55
A THR E 34 -113.1 128.7 N 13.97 CA 14.17 C 14.83 O 17.08 CB 16.65 OG1 17.2 CG2 18.34
A ALA E 0 -113.4 132.2 N 15.71 CA 15.35 C 14.63 O 17.13 CB 14.97
A THR E 22 -122.8 130.7 N 16.18 CA 16.71 C 18.06 O 18.78 CB 21.6 OG1 21.91 CG2 21.39
A ALA E 7 -102.8 127.5 N 18.97 CA 19.82 C 23.79 O 26.02 CB 20.39
A GLY S 43 82.8 -169.7 N 27.28 CA 29.27 C 34.12 O 37.13
A GLU S 82 -145.3 158.5 N 36.92 CA 43.38 C 46.9 O 49.65 CB 45.51
A GLY G 68 71.5 -146.9 N 48.69 CA 46.08 C 48.89 O 47.79
A LYS G 111 -65.0 -33.1 N 49.63 CA 48.63 C 42.35 O 49.78 CB 58.74
A THR G 76 -96.5 7.6 N 45.54 CA 41.38 C 35.66 O 34.93 CB 41.44 OG1 43.91 CG2 47.44
A ALA - 35 -61.6 147.3 N 35.76 CA 32.15 C 28.27 O 32.4 CB 33.22
A VAL E 25 -130.0 130.4 N 23.52 CA 20.88 C 20.17 O 21.26 CB 19.28 CG1 21.09 CG2 25.9
A SER E 74 -116.8 141.9 N 18.14 CA 18.01 C 17.49 O 19.02 CB 20.52 OG 24.27
A VAL E 20 -126.4 132.5 N 15.69 CA 15.36 C 14.24 O 14.18 CB 15.33 CG1 16.47 CG2 15.39
A LYS E 92 -118.3 140.8 N 14.42 CA 14.24 C 12.76 O 13.96 CB 20.11 CG 21.87 CD 26.55
A GLN E 35 -148.9 148.4 N 12.83 CA 12.75 C 11.04 O 12.57 CB 12.64 CG 13.31 CD 12.7 OE1 14.47 NE2 12.43
A PRO E 4 -76.5 152.7 N 11.64 CA 11.61 C 11.3 O 12.77 CB 12.39 CG 12.5 CD 12.97
A VAL E 0 -128.0 135.6 N 11.22 CA 11.44 C 11.64 O 13.14 CB 12.4 CG1 12.77 CG2 14.06
A PHE E 0 -116.3 151.6 N 11.4 CA 11.14 C 11.02 O 12.11 CB 11.98 CG 11.24 CD1 11.66 CD2 11.77 CE1 12.05 CE2 12.57 CZ 11.2
A PHE E 2 -133.4 142.9 N 12.23 CA 12.41 C 12.04 O 13.14 CB 13.58 CG 12.55 CD1 13.7 CD2 14.6 CE1 14.36 CE2 16.02 CZ 14.4
A HIS E 3 -129.8 122.9 N 12.11 CA 12.28 C 12.62 O 14.61 CB 11.89 CG 12.43 ND1 12.8 CD2 13.88 CE1 15.05 NE2 13.84
A PHE E 17 -97.4 101.5 N 15.26 CA 14.45 C 13.59 O 15.33 CB 15.5 CG 16.29 CD1 16.73 CD2 18.93 CE1 16.84 CE2 20.3 CZ 19.83
A SER - 1 -77.4 165.8 N 14.86 CA 15.17 C 15.53 O 19.17 CB 15.87 OG 17.94
A MET - 48 -163.0 161.9 N 16.61 CA 17.46 C 16.77 O 17.98 CB 19.11 CG 19.28 SD 20.84 CE 23.16
A ILE - 88 -90.9 115.8 N 17.51 CA 20.71 C 19.71 O 22.61 CB 22.52 CG1 24.02 CG2 22.87 CD1 27.17
A SER - 14 -98.4 -162.5 N 18.77 CA 18.16 C 16.51 O 20.75 CB 20.13 OG 18.62
A ASP G 67 -56.9 151.4 N 17.57 CA 18.22 C 18.32 O 18.29 CB 19.25 CG 20.87 OD1 21.44 OD2 21.53
A SER G 73 62.8 29.4 N 20.11 CA 20.0 C 21.19 O 21.52 CB 19.81 OG 20.99
A ASN G 115 65.7 18.3 N 21.69 CA 21.23 C 18.01 O 21.9 CB 26.05 CG 38.66 OD1 43.33 ND2 49.08
A VAL - 0 -76.8 134.1 N 17.62 CA 17.51 C 17.42 O 17.93 CB 17.01 CG1 18.28 CG2 19.4
A GLN - 63 -129.4 84.6 N 18.08 CA 16.61 C 16.19 O 18.15 CB 19.66 CG 19.06 CD 26.11 OE1 26.6 NE2 35.11
A LEU - 6 -87.3 115.2 N 16.69 CA 15.01 C 14.17 O 16.24 CB 15.99 CG 15.05 CD1 16.15 CD2 17.27
A GLU B 28 -134.6 120.7 N 14.39 CA 13.46 C 12.54 O 15.06 CB 16.22 CG 17.33 CD 20.72 OE1 30.79 OE2 18.41
A TYR - 0 -94.7 130.1 N 12.51 CA 11.52 C 12.65 O 12.73 CB 12.67 CG 11.29 CD1 12.78 CD2 12.14 CE1 12.28 CE2 12.34 CZ 11.69 OH 13.51
A THR S 48 -130.6 102.3 N 13.41 CA 12.73 C 11.72 O 13.7 CB 14.28 OG1 17.28 CG2 16.05
A PRO S 20 -73.6 153.3 N 11.92 CA 12.23 C 12.05 O 11.7 CB 11.83 CG 11.76 CD 12.4
A PHE S 0 -92.6 0.7 N 11.45 CA 11.43 C 10.49 O 12.24 CB 11.38 CG 10.85 CD1 12.35 CD2 12.59 CE1 12.07 CE2 12.06 CZ 12.6
A VAL E 2 -111.3 111.1 N 10.97 CA 10.88 C 10.39 O 12.14 CB 11.19 CG1 12.12 CG2 11.68
A PHE E 20 -89.7 111.8 N 10.08 CA 10.56 C 11.26 O 11.48 CB 12.08 CG 13.51 CD1 16.88 CD2 16.85 CE1 18.56 CE2 18.62 CZ 21.26
A GLN E 41 -89.5 113.4 N 11.55 CA 12.14 C 12.7 O 17.52 CB 12.96 CG 12.78 CD 13.34 OE1 14.86 NE2 15.31
A VAL E 3 -130.5 143.2 N 10.95 CA 11.3 C 11.2 O 11.18 CB 11.51 CG1 12.44 CG2 13.11
A ASN - 19 -88.7 115.4 N 11.34 CA 11.9 C 12.0 O 13.59 CB 13.77 CG 13.78 OD1 16.72 ND2 26.75
A PRO T 0 -66.0 -18.2 N 12.38 CA 12.84 C 12.89 O 15.56 CB 13.29 CG 13.68 CD 13.72
A ALA T 33 -72.4 -39.8 N 13.02 CA 13.8 C 16.67 O 27.32 CB 15.52
A ARG T 187 -95.5 -25.5 N 14.33 CA 14.78 C 13.81 O 17.63 CB 17.11 CG 20.85 CD 23.35 NE 25.29 CZ 27.35 NH1 24.39 NH2 29.13
A GLY - 8 71.4 -173.9 N 13.96 CA 13.95 C 12.38 O 14.13
A GLY E 21 164.3 -170.2 N 12.65 CA 12.84 C 10.85 O 13.96
A GLU E 83 -135.3 140.8 N 12.26 CA 12.37 C 11.01 O 13.32 CB 17.37 CG 21.1 CD 28.75 OE1 30.67 OE2 33.3
A SER - 5 -71.9 175.6 N 11.66 CA 11.38 C 11.09 O 12.79 CB 11.44 OG 11.86
A ILE - 77 -58.4 154.7 N 10.9 CA 11.88 C 12.47 O 12.75 CB 12.96 CG1 15.43 CG2 14.63 CD1 17.58
A ALA - 44 -80.3 133.7 N 12.21 CA 13.43 C 13.5 O 14.07 CB 14.1
A PRO - 15 -79.7 159.1 N 12.67 CA 12.65 C 13.6 O 16.8 CB 13.96 CG 14.31 CD 13.71
A SER B 65 -86.1 145.6 N 14.49 CA 14.74 C 15.85 O 16.15 CB 14.24 OG 14.73
A LEU - 19 -102.4 -24.0 N 17.79 CA 17.06 C 17.8 O 20.96 CB 18.7 CG 19.34 CD1 20.46 CD2 19.21
A GLY - 24 119.7 149.6 N 19.98 CA 22.72 C 22.94 O 21.54
A ALA T 98 -56.2 131.9 N 26.94 CA 28.1 C 23.78 O 26.94 CB 35.61
A GLY T 87 90.9 -6.6 N 23.12 CA 21.44 C 18.63 O 21.58
A ILE - 35 -77.8 132.2 N 17.59 CA 18.99 C 17.66 O 19.41 CB 16.42 CG1 18.4 CG2 17.38 CD1 21.43
A ASP - 87 -82.0 106.5 N 14.88 CA 15.17 C 15.07 O 16.87 CB 16.73 CG 14.42 OD1 16.25 OD2 16.3
A LYS G 142 -64.9 -29.2 N 15.2 CA 16.34 C 16.87 O 20.22 CB 18.84 CG 23.5 CD 30.39 CE 30.64 NZ 47.38
A SER G 77 -68.4 -25.4 N 20.38 CA 18.92 C 17.69 O 20.81 CB 18.83 OG 20.69
A THR G 49 -105.8 4.4 N 17.04 CA 17.66 C 18.3 O 19.45 CB 18.88 OG1 18.31 CG2 22.21
A PHE - 0 -82.2 137.4 N 16.59 CA 15.58 C 14.59 O 15.23 CB 15.9 CG 15.07 CD1 15.92 CD2 14.17 CE1 16.26 CE2 14.91 CZ 16.38
A ARG E 60 -131.6 143.8 N 14.43 CA 14.67 C 13.29 O 14.94 CB 16.62 CG 16.52 CD 17.04 NE 19.73 CZ 20.41 NH1 22.63 NH2 25.55
A LEU E 0 -147.7 126.9 N 12.93 CA 13.58 C 11.97 O 12.86 CB 12.77 CG 13.34 CD1 14.7 CD2 13.55
A ASP E 0 -153.4 140.2 N 12.9 CA 12.64 C 11.83 O 12.84 CB 12.92 CG 13.6 OD1 14.38 OD2 16.65
A TYR E 0 -55.7 151.4 N 11.1 CA 12.24 C 12.74 O 12.43 CB 13.43 CG 12.06 CD1 13.4 CD2 12.27 CE1 11.84 CE2 12.59 CZ 11.27 OH 12.23
A ARG E 63 -136.2 -52.0 N 12.69 CA 12.34 C 11.69 O 13.38 CB 13.14 CG 14.17 CD 14.59 NE 16.82 CZ 16.61 NH1 17.26 NH2 20.78
A ARG E 54 -166.2 175.5 N 12.4 CA 12.84 C 13.4 O 13.8 CB 13.9 CG 14.92 CD 13.96 NE 14.67 CZ 15.94 NH1 15.2 NH2 17.56
A ASP E 89 58.8 60.6 N 12.74 CA 13.52 C 11.71 O 12.63 CB 14.18 CG 16.53 OD1 21.13 OD2 17.73
A PHE E 3 -94.0 135.3 N 11.65 CA 11.9 C 12.35 O 13.26 CB 12.71 CG 12.27 CD1 13.12 CD2 12.98 CE1 13.43 CE2 13.21 CZ 13.21
A PHE E 21 -135.8 145.2 N 12.32 CA 12.41 C 11.54 O 12.07 CB 12.91 CG 13.89 CD1 14.42 CD2 15.04 CE1 15.76 CE2 15.8 CZ 16.65
A TYR E 1 -130.4 138.2 N 11.49 CA 11.75 C 11.55 O 13.82 CB 12.6 CG 11.52 CD1 12.34 CD2 11.92 CE1 12.46 CE2 11.81 CZ 11.25 OH 12.11
A TYR E 12 -125.1 112.3 N 12.13 CA 12.15 C 11.66 O 12.33 CB 13.7 CG 13.57 CD1 13.58 CD2 13.76 CE1 13.84 CE2 12.69 CZ 12.69 OH 14.62
A ASN E 21 -62.6 136.0 N 11.9 CA 12.41 C 13.07 O 15.36 CB 14.13 CG 14.62 OD1 14.41 ND2 22.05
A ILE S 28 -107.4 -65.5 N 12.6 CA 13.83 C 13.68 O 17.42 CB 12.41 CG1 14.03 CG2 15.61 CD1 15.5
A ALA S 75 -133.5 21.2 N 14.59 CA 15.24 C 15.84 O 18.91 CB 17.93
A GLY S 16 -83.4 -175.9 N 15.21 CA 15.51 C 16.46 O 18.43
A PRO - 39 -66.9 146.8 N 17.66 CA 19.29 C 19.97 O 19.0 CB 23.52 CG 24.61 CD 18.04
A ASP T 152 -59.9 -22.6 N 25.88 CA 26.08 C 22.66 O 24.03 CB 33.81 CG 38.82 OD1 34.05 OD2 42.48
A SER T 53 -69.5 -11.9 N 20.84 CA 21.67 C 20.11 O 22.42 CB 24.77 OG 25.1
A HIS S 1 -80.1 83.1 N 17.08 CA 15.08 C 14.92 O 18.85 CB 13.07 CG 14.03 ND1 13.96 CD2 14.42 CE1 15.16 NE2 14.38
A ILE - 93 -70.1 128.7 N 15.12 CA 14.94 C 13.34 O 13.86 CB 16.35 CG1 19.71 CG2 16.25 CD1 24.11
A SER - 46 -76.9 155.4 N 14.29 CA 13.58 C 14.02 O 15.56 CB 15.19 OG 14.76
A GLY E 19 132.3 -174.2 N 14.38 CA 14.97 C 14.74 O 13.97
A ALA E 37 -68.3 140.5 N 14.43 CA 13.71 C 14.3 O 16.33 CB 16.49
A LEU - 21 -62.7 119.3 N 15.0 CA 14.63 C 15.22 O 15.89 CB 14.51 CG 14.7 CD1 17.04 CD2 17.62
A ALA - 31 -150.9 150.6 N 16.04 CA 17.02 C 18.72 O 19.23 CB 20.15
A GLN T 148 -59.6 138.2 N 22.21 CA 23.51 C 23.79 O 25.67 CB 27.93 CG 32.28 CD 33.96 OE1 37.39 NE2 37.25
A LYS T 110 66.0 12.7 N 27.31 CA 33.6 C 33.55 O 50.14 CB 34.31
A VAL - 67 -111.6 124.2 N 21.8 CA 22.17 C 17.27 O 20.63 CB 19.43 CG1 21.2 CG2 21.67
A ASP - 138 -93.3 109.4 N 20.07 CA 22.23 C 19.32 O 25.05 CB 26.38 CG 30.64 OD1 39.18 OD2 39.53
A ASN S 9 -149.0 -172.8 N 16.56 CA 16.05 C 15.04 O 16.01 CB 15.28 CG 15.62 OD1 16.18 ND2 16.51
A PHE H 0 -62.0 -40.6 N 13.67 CA 12.95 C 12.57 O 13.91 CB 13.74 CG 12.73 CD1 14.93 CD2 12.65 CE1 14.76 CE2 13.42 CZ 14.89
A LEU H 0 -68.1 -38.2 N 13.2 CA 14.14 C 13.33 O 14.41 CB 14.18 CG 13.37 CD1 15.47 CD2 16.42
A SER H 13 -64.8 -35.6 N 13.87 CA 15.67 C 15.69 O 16.68 CB 16.07 OG 18.26
A GLU H 84 -65.5 -46.5 N 15.4 CA 14.74 C 14.32 O 15.84 CB 18.37 CG 19.68 CD 23.33 OE1 25.53 OE2 26.68
A MET H 3 -58.5 -47.9 N 14.17 CA 14.86 C 14.72 O 15.0 CB 15.5 CG 14.71 SD 16.31 CE 20.36
A TRP H 0 -58.5 -48.5 N 14.25 CA 14.63 C 15.02 O 16.08 CB 15.65 CG 15.6 CD1 16.12 CD2 15.21 NE1 17.17 CE2 16.55 CE3 15.03 CZ2 17.83 CZ3 15.97 CH2 17.32
A ASN H 83 -61.3 -32.1 N 14.96 CA 17.53 C 16.19 O 19.03 CB 20.87 CG 33.77 OD1 35.38 ND2 44.05
A SER H 75 -67.8 -27.3 N 17.0 CA 17.59 C 17.51 O 22.41 CB 19.62 OG 18.1
A TYR H 57 -73.5 -48.9 N 15.05 CA 17.7 C 17.14 O 18.25 CB 16.27 CG 16.61 CD1 16.68 CD2 16.07 CE1 16.48 CE2 16.78 CZ 15.51 OH 19.38
A ASP - 73 -163.0 133.5 N 17.39 CA 18.63 C 17.18 O 19.49 CB 21.78 CG 25.03 OD1 26.17 OD2 34.17
A ALA T 87 -59.6 -23.6 N 21.28 CA 22.05 C 19.67 O 25.65 CB 27.24
A THR T 108 -96.7 4.4 N 22.84 CA 24.58 C 21.7 O 26.54 CB 23.82 OG1 28.01 CG2 32.24
A ALA - 2 -61.8 -28.8 N 20.93 CA 20.12 C 17.98 O 20.35 CB 19.83
A GLY T 41 59.1 -123.2 N 20.22 CA 21.69 C 19.18 O 21.83
A THR T 56 -116.8 21.5 N 18.73 CA 18.61 C 16.56 O 17.48 CB 18.3 OG1 20.17 CG2 20.31
A SER S 33 -75.3 170.0 N 16.78 CA 16.52 C 14.42 O 15.11 CB 17.93 OG 17.26
A ARG S 4 -75.2 -8.3 N 15.13 CA 13.73 C 14.09 O 13.82 CB 13.69 CG 15.19 CD 15.81 NE 14.88 CZ 14.59 NH1 14.68 NH2 16.0
A LYS G 84 -54.1 -44.9 N 13.15 CA 14.7 C 14.41 O 14.05 CB 16.04 CG 20.04 CD 23.83 CE 30.18 NZ 34.23
A PRO G 0 -65.9 -16.3 N 13.23 CA 14.27 C 13.26 O 13.19 CB 14.55 CG 15.32 CD 14.37
A MET G 0 -116.3 12.6 N 11.72 CA 11.21 C 11.66 O 12.71 CB 12.67 CG 13.63 SD 15.35 CE 15.78
A SER - 0 -108.7 129.1 N 12.26 CA 12.47 C 12.13 O 14.72 CB 14.25 OG 13.65
A TYR S 63 -62.9 -50.2 N 12.08 CA 12.98 C 13.75 O 14.8 CB 12.98 CG 12.75 CD1 14.78 CD2 14.85 CE1 17.25 CE2 16.47 CZ 16.39 OH 23.15
A PHE T 44 -65.3 -22.4 N 13.9 CA 14.74 C 15.29 O 18.34 CB 15.38 CG 15.7 CD1 17.01 CD2 16.23 CE1 17.23 CE2 18.11 CZ 19.58
A GLU T 70 -94.4 0.8 N 14.66 CA 16.13 C 15.61 O 17.69 CB 17.02 CG 20.98 CD 23.82 OE1 25.69 OE2 35.91
A ASN - 1 -137.3 25.4 N 14.29 CA 15.02 C 15.03 O 15.67 CB 15.54 CG 15.34 OD1 18.31 ND2 14.87
A THR T 75 -59.6 -29.3 N 15.4 CA 15.96 C 16.0 O 19.01 CB 17.62 OG1 20.24 CG2 19.45
A THR T 129 -102.6 4.6 N 15.03 CA 17.4 C 15.15 O 16.74 CB 21.13 OG1 24.86 CG2 26.07
A ASN - 73 -151.5 56.0 N 14.7 CA 15.0 C 15.03 O 16.81 CB 18.46 CG 19.56 OD1 28.47 ND2 22.71
A LEU G 44 -61.6 -29.8 N 13.69 CA 15.13 C 14.85 O 15.86 CB 14.95 CG 14.95 CD1 15.47 CD2 16.39
A SER G 101 -67.2 -14.7 N 15.66 CA 18.45 C 17.14 O 18.91 CB 20.5 OG 25.94
A LYS G 49 -88.8 -18.6 N 16.72 CA 18.36 C 15.79 O 16.46 CB 24.06
A ALA S 0 -66.2 150.2 N 14.35 CA 13.87 C 12.91 O 14.27 CB 15.95
A LEU S 2 -59.7 -34.7 N 11.93 CA 12.31 C 11.08 O 13.13 CB 12.18 CG 13.21 CD1 15.08 CD2 15.46
A GLY E 0 -173.7 168.6 N 11.73 CA 12.42 C 11.56 O 12.62
A TYR E 31 -168.0 162.0 N 11.35 CA 11.78 C 11.49 O 12.55 CB 12.71 CG 12.43 CD1 13.68 CD2 14.43 CE1 15.1 CE2 14.37 CZ 14.65 OH 19.65
A ILE E 0 -98.8 130.1 N 11.32 CA 11.75 C 12.9 O 13.55 CB 11.68 CG1 13.23 CG2 12.0 CD1 13.54
A ASP - 21 -80.2 153.3 N 12.72 CA 14.01 C 12.81 O 14.9 CB 15.53 CG 15.42 OD1 18.27 OD2 16.77
A GLN T 25 -96.5 14.0 N 14.49 CA 14.28 C 14.91 O 17.82 CB 14.25 CG 13.96 CD 13.64 OE1 14.59 NE2 12.98
A THR T 100 -103.4 -54.4 N 15.99 CA 18.18 C 16.25 O 18.66 CB 20.5 OG1 28.38 CG2 24.36
A ASP T 82 -114.1 -10.9 N 16.43 CA 16.42 C 13.51 O 14.48 CB 20.19 CG 22.56 OD1 28.19 OD2 30.34
A PHE - 4 68.8 24.9 N 14.5 CA 12.77 C 11.88 O 13.23 CB 13.44 CG 13.0 CD1 14.41 CD2 13.69 CE1 15.75 CE2 14.49 CZ 16.49
A LYS - 47 -72.4 148.4 N 12.57 CA 12.24 C 11.93 O 12.78 CB 13.08 CG 13.45 CD 14.05 CE 17.78 NZ 21.21
A VAL E 0 -84.5 125.8 N 11.77 CA 10.87 C 10.49 O 12.28 CB 11.51 CG1 14.19 CG2 13.55
A HIS E 26 -102.9 133.8 N 10.61 CA 11.58 C 11.92 O 13.26 CB 13.58 CG 13.25 ND1 17.86 CD2 15.31 CE1 18.03 NE2 16.77
A ILE E 3 -114.6 122.2 N 11.52 CA 11.67 C 11.48 O 13.16 CB 12.22 CG1 13.67 CG2 13.39 CD1 15.84
A ASN - 22 -81.7 150.8 N 11.98 CA 13.17 C 12.85 O 13.24 CB 14.14 CG 14.12 OD1 17.26 ND2 14.98
A PRO T 65 -73.1 152.9 N 13.43 CA 13.34 C 13.44 O 14.87 CB 16.95 CG 16.96 CD 15.94
A ASN T 88 68.1 19.2 N 13.07 CA 13.71 C 13.39 O 18.11 CB 15.68 CG 14.8 OD1 16.62 ND2 17.92
A LEU - 53 -113.0 -34.6 N 13.35 CA 13.48 C 11.83 O 13.95 CB 13.12 CG 13.9 CD1 14.83 CD2 18.93
A TRP S 0 -88.6 74.5 N 12.5 CA 12.39 C 11.97 O 11.94 CB 12.03 CG 11.42 CD1 12.68 CD2 11.92 NE1 12.46 CE2 11.68 CE3 12.15 CZ2 12.59 CZ3 13.91 CH2 13.74
A ARG E 106 -168.9 160.6 N 13.21 CA 12.93 C 14.47 O 16.51 CB 14.72 CG 16.04 CD 14.28 NE 14.74 CZ 14.2 NH1 15.89 NH2 17.16
A ASN E 25 -150.1 -176.4 N 17.59 CA 16.77 C 15.99 O 17.9 CB 16.79 CG 17.82 OD1 17.35 ND2 21.14
A LYS T 110 -59.8 -37.6 N 19.84 CA 21.29 C 20.22 O 24.49 CB 26.62
A ASP T 105 -65.8 -24.5 N 18.49 CA 17.57 C 17.18 O 22.09 CB 18.39 CG 21.78 OD1 23.68 OD2 32.6
A GLY E 21 156.7 167.5 N 15.06 CA 14.77 C 12.4 O 13.43
A TYR E 75 -62.1 149.8 N 11.96 CA 11.88 C 11.04 O 12.91 CB 11.52 CG 11.76 CD1 13.6 CD2 12.11 CE1 14.36 CE2 13.18 CZ 13.48 OH 14.38
A ALA - 0 -54.4 135.6 N 11.11 CA 10.29 C 10.83 O 11.96 CB 11.98
A ASN - 23 -143.2 90.4 N 11.01 CA 11.03 C 10.08 O 11.58 CB 11.64 CG 12.01 OD1 13.16 ND2 15.82
A GLY E 0 170.7 -175.6 N 10.2 CA 10.87 C 9.83 O 10.71
A ALA E 0 -129.9 134.5 N 10.57 CA 10.45 C 10.18 O 12.25 CB 12.44
A MET E 0 -118.0 133.0 N 10.52 CA 9.98 C 11.33 O 11.19 CB 11.58 CG 11.89 SD 13.82 CE 17.52
A ILE E 1 -123.8 141.8 N 11.2 CA 10.96 C 10.25 O 12.96 CB 11.4 CG1 14.14 CG2 13.2 CD1 17.47
A GLY E 0 -142.0 153.7 N 10.95 CA 12.17 C 11.82 O 12.77
A GLN E 20 -73.2 138.5 N 11.93 CA 12.05 C 11.32 O 12.24 CB 13.84 CG 14.5 CD 14.53 OE1 15.12 NE2 16.6
A ILE E 0 -119.7 136.6 N 12.1 CA 12.86 C 12.61 O 13.39 CB 12.98 CG1 12.69 CG2 17.06 CD1 14.68
A THR E 0 -112.8 157.5 N 13.05 CA 13.09 C 12.82 O 13.94 CB 14.86 OG1 15.01 CG2 16.1
A TYR E 5 -136.9 161.8 N 13.95 CA 14.41 C 14.81 O 16.26 CB 14.36 CG 13.79 CD1 15.69 CD2 14.97 CE1 15.43 CE2 14.92 CZ 14.82 OH 17.29
A ASP E 34 -136.6 138.0 N 15.45 CA 16.16 C 14.66 O 17.17 CB 17.55 CG 18.91 OD1 20.19 OD2 21.61
A VAL S 48 -105.4 13.5 N 16.13 CA 16.27 C 16.79 O 20.43 CB 17.85 CG1 19.13 CG2 19.21
A THR S 100 -125.2 23.7 N 19.63 CA 20.18 C 21.15 O 25.52 CB 24.53 OG1 25.82 CG2 29.98
A GLY S 25 79.3 16.5 N 17.63 CA 20.23 C 19.89 O 23.47
A LYS S 83 -115.7 157.0 N 17.92 CA 19.67 C 16.41 O 17.64 CB 21.95 CG 26.15 CD 31.77
A ASP - 59 -53.4 124.4 N 17.88 CA 16.11 C 15.61 O 17.89 CB 17.85 CG 15.34 OD1 16.64 OD2 18.43
A PRO - 1 -89.0 20.1 N 15.08 CA 15.84 C 14.49 O 15.81 CB 16.24 CG 15.01 CD 15.35
A GLN T 87 -46.0 -45.0 N 14.35 CA 14.97 C 16.04 O 17.48 CB 17.79 CG 17.97 CD 25.52 OE1 29.95 NE2 26.12
A ALA T 89 -102.4 18.3 N 18.1 CA 17.62 C 17.85 O 19.64 CB 19.71
A ALA - 14 -50.5 138.8 N 17.3 CA 16.43 C 16.37 O 17.53 CB 17.64
A THR - 95 -77.6 174.1 N 17.62 CA 18.3 C 19.16 O 17.38 CB 19.37 OG1 19.98 CG2 22.79
A SER G 96 -59.2 -31.2 N 18.59 CA 18.52 C 18.58 O 22.73 CB 24.81 OG 31.68
A GLY G 22 -79.1 -5.2 N 18.02 CA 18.74 C 17.61 O 19.28
A ALA G 8 -112.9 37.4 N 16.44 CA 16.27 C 15.03 O 16.75 CB 18.4
A ARG E 79 -132.7 130.9 N 15.07 CA 14.93 C 14.72 O 17.93 CB 15.38 CG 15.84 CD 16.98 NE 17.62 CZ 17.57 NH1 19.27 NH2 18.82
A VAL E 7 -146.8 162.5 N 13.74 CA 14.01 C 12.67 O 13.42 CB 15.41 CG1 18.15 CG2 16.36
A SER B 4 -128.1 80.9 N 12.91 CA 13.07 C 12.47 O 13.63 CB 12.53 OG 10.93
A PRO - 1 -91.0 -4.5 N 11.94 CA 12.74 C 11.16 O 13.29 CB 14.28 CG 14.43 CD 12.62
A ILE - 1 -144.3 137.1 N 11.26 CA 10.75 C 10.48 O 11.64 CB 11.68 CG1 12.38 CG2 12.82 CD1 12.89
A PHE E 0 -105.5 135.8 N 10.87 CA 10.87 C 10.79 O 12.58 CB 12.04 CG 11.82 CD1 11.72 CD2 12.93 CE1 12.3 CE2 14.49 CZ 13.61
A ILE E 0 -103.3 123.2 N 10.96 CA 9.77 C 10.19 O 12.27 CB 10.67 CG1 13.72 CG2 11.52 CD1 16.85
A TRP E 30 -111.8 109.2 N 9.71 CA 9.78 C 9.32 O 10.88 CB 10.23 CG 10.57 CD1 11.12 CD2 10.7 NE1 11.71 CE2 10.58 CE3 11.07 CZ2 11.86 CZ3 12.73 CH2 12.45
A PHE E 0 -88.6 128.0 N 9.75 CA 9.82 C 10.24 O 10.64 CB 11.38 CG 10.53 CD1 11.76 CD2 12.01 CE1 11.48 CE2 12.58 CZ 11.99
A ASP - 25 -159.2 125.4 N 10.76 CA 11.22 C 10.22 O 11.72 CB 11.62 CG 11.28 OD1 13.7 OD2 15.16
A THR T 60 -59.9 -15.4 N 11.17 CA 12.09 C 11.53 O 14.21 CB 13.48 OG1 15.37 CG2 14.46
A LYS T 119 -80.2 -11.2 N 12.65 CA 13.67 C 14.18 O 17.43 CB 18.66 CG 27.53 CD 21.42
A PHE - 36 -78.2 129.2 N 14.3 CA 15.45 C 18.17 O 20.13 CB 15.0 CG 13.68 CD1 16.06 CD2 13.57 CE1 16.77 CE2 14.61 CZ 16.89
A LEU - 128 -119.4 138.4 N 22.61 CA 24.24 C 27.08 O 32.71 CB 30.07 CG 32.02 CD1 41.86 CD2 37.59
A GLU - 107 -64.3 142.3 N 24.29 CA 23.43 C 21.26 O 29.16 CB 28.35 CG 27.6 CD 46.01 OE1 55.21 OE2 58.1
A HIS - 84 -102.9 101.4 N 21.13 CA 19.26 C 19.53 O 24.11 CB 22.34 CG 22.57 ND1 27.9 CD2 25.42 CE1 27.16 NE2 28.41
A HIS - 87 -89.5 -7.7 N 18.28 CA 18.34 C 18.35 O 19.99 CB 20.93 CG 22.61 ND1 29.11 CD2 24.66 CE1 30.87 NE2 26.53
A HIS T 118 53.9 42.5 N 17.29 CA 18.43 C 18.06 O 20.44 CB 20.01 CG 20.47 ND1 24.9 CD2 25.7 CE1 27.42 NE2 30.44
A HIS T 195 60.6 19.9 N 16.56 CA 19.09 C 21.39 O 26.09 CB 19.94 CG 18.61 ND1 20.66 CD2 19.27 CE1 19.51 NE2 19.72
A HIS - 190 61.0 360.0 N 20.4 CA 21.33 C 28.2 O 36.52 CB 23.71 CG 25.47 ND1 23.86 CD2 24.26 CE1 23.33 NE2 27.45
