A ARG - 171 360.0 145.2 N 189.66 CA 195.55 C 204.36 O 201.32 CB 194.29 CG 190.61 CD 188.5 NE 189.03 CZ 191.02 NH1 192.74 NH2 190.61 HA 234.66 HB2 233.14 HB3 233.14 HG2 228.73 HG3 228.73 HD2 226.2 HD3 226.2 HE 226.84 HH11 231.29 HH12 231.29 HH21 228.73 HH22 228.73
A LEU E 47 -125.8 153.0 N 216.31 CA 221.76 C 223.37 O 221.82 CB 222.75 CG 222.59 CD1 222.45 CD2 220.23 H 259.57 HA 266.12 HB2 267.3 HB3 267.3 HG 267.11 HD11 266.94 HD12 266.94 HD13 266.94 HD21 264.28 HD22 264.28 HD23 264.28
A GLN E 106 -145.4 141.6 N 226.12 CA 227.28 C 224.02 O 227.15 CB 227.32 CG 224.93 CD 224.16 OE1 225.29 NE2 222.54 H 271.34 HA 272.73 HB2 272.78 HB3 272.78 HG2 269.92 HG3 269.92 HE21 267.05 HE22 267.05
A VAL E 12 -103.1 169.6 N 214.64 CA 204.73 C 204.9 O 205.45 CB 198.31 CG1 197.21 CG2 196.95 H 257.56 HA 245.68 HB 237.98 HG11 236.66 HG12 236.66 HG13 236.66 HG21 236.34 HG22 236.34 HG23 236.34
A GLU E 110 -168.6 137.4 N 204.94 CA 203.4 C 200.69 O 205.24 CB 202.48 CG 201.0 CD 200.53 OE1 201.51 OE2 198.87 H 245.93 HA 244.09 HB2 242.98 HB3 242.98 HG2 241.2 HG3 241.2
A GLY S 48 108.9 19.0 N 190.6 CA 179.61 C 173.75 O 170.82 H 228.72 HA2 215.53 HA3 215.53
A LEU - 12 -124.9 133.9 N 173.51 CA 173.49 C 170.98 O 169.93 CB 174.27 CG 170.95 CD1 167.31 CD2 172.02 H 208.22 HA 208.18 HB2 209.12 HB3 209.12 HG 205.14 HD11 200.78 HD12 200.78 HD13 200.78 HD21 206.43 HD22 206.43 HD23 206.43
A SER - 111 -95.9 -61.2 N 167.13 CA 164.11 C 164.57 O 164.96 CB 162.51 OG 164.27 H 200.56 HA 196.94 HB2 195.02 HB3 195.02 HG 197.12
A GLY S 41 -114.7 -119.6 N 165.93 CA 169.33 C 171.83 O 170.73 H 199.12 HA2 203.19 HA3 203.19
A GLN T 105 -57.7 -26.8 N 175.9 CA 178.81 C 182.23 O 180.9 CB 175.03 CG 177.76 CD 187.78 OE1 190.28 NE2 193.32 H 211.08 HA 214.57 HB2 210.04 HB3 210.04 HG2 213.32 HG3 213.32 HE21 231.98 HE22 231.98
A LEU H 24 -59.0 -35.6 N 183.99 CA 182.36 C 189.07 O 195.04 CB 170.91 CG 162.14 CD1 160.17 CD2 158.47 H 220.78 HA 218.83 HB2 205.09 HB3 205.09 HG 194.57 HD11 192.2 HD12 192.2 HD13 192.2 HD21 190.16 HD22 190.16 HD23 190.16
A GLU H 58 -85.4 -7.4 N 184.62 CA 177.53 C 169.47 O 170.81 CB 177.13 CG 177.84 CD 180.42 OE1 179.44 OE2 184.06 H 221.55 HA 213.03 HB2 212.56 HB3 212.56 HG2 213.41 HG3 213.41
A LYS H 138 -92.8 -42.1 N 160.27 CA 156.76 C 164.85 O 155.89 CB 145.72 CG 140.56 CD 138.29 CE 139.9 NZ 145.32 H 192.32 HA 188.11 HB2 174.86 HB3 174.86 HG2 168.68 HG3 168.68 HD2 165.95 HD3 165.95 HE2 167.87 HE3 167.87 HZ1 174.38 HZ2 174.38 HZ3 174.38
A ASN H 37 -73.0 -35.5 N 181.52 CA 189.52 C 189.79 O 194.41 CB 187.8 CG 182.36 OD1 182.43 ND2 177.24 H 217.83 HA 227.43 HB2 225.36 HB3 225.36 HD21 212.68 HD22 212.68
A VAL H 1 -66.7 -36.6 N 181.98 CA 179.08 C 180.11 O 178.04 CB 179.07 CG1 179.42 CG2 178.36 H 218.37 HA 214.89 HB 214.88 HG11 215.31 HG12 215.31 HG13 215.31 HG21 214.03 HG22 214.03 HG23 214.03
A ARG H 106 -73.0 -29.5 N 182.94 CA 183.22 C 180.09 O 182.38 CB 185.1 CG 186.24 CD 186.11 NE 187.96 CZ 188.78 NH1 188.43 NH2 187.32 H 219.53 HA 219.86 HB2 222.12 HB3 222.12 HG2 223.49 HG3 223.49 HD2 223.33 HD3 223.33 HE 225.55 HH11 226.12 HH12 226.12 HH21 224.79 HH22 224.79
A ALA H 62 -78.1 -23.6 N 171.84 CA 163.6 C 168.35 O 157.95 CB 154.85 H 206.21 HA 196.32 HB1 185.82 HB2 185.82 HB3 185.82
A GLN H 67 -82.8 -33.3 N 186.77 CA 194.61 C 196.86 O 200.69 CB 192.51 CG 189.29 CD 186.84 OE1 186.03 NE2 185.38 H 224.12 HA 233.53 HB2 231.01 HB3 231.01 HG2 227.15 HG3 227.15 HE21 222.46 HE22 222.46
A LEU H 11 -79.2 -25.4 N 192.15 CA 189.38 C 188.52 O 186.17 CB 189.85 CG 190.49 CD1 189.03 CD2 192.26 H 230.58 HA 227.26 HB2 227.82 HB3 227.82 HG 228.59 HD11 226.84 HD12 226.84 HD13 226.84 HD21 230.71 HD22 230.71 HD23 230.71
A SER T 97 -83.0 38.8 N 190.05 CA 191.93 C 193.62 O 186.48 CB 191.46 OG 190.29 H 228.06 HA 230.32 HB2 229.76 HB3 229.76 HG 228.35
A THR T 110 -121.9 -20.0 N 200.66 CA 202.79 C 207.67 O 206.94 CB 194.9 OG1 188.08 CG2 193.54 H 240.8 HA 243.34 HB 233.89 HG1 225.7 HG21 232.24 HG22 232.24 HG23 232.24
A ILE S 54 -109.7 150.4 N 211.19 CA 214.07 C 215.42 O 214.92 CB 196.79 CG1 196.71 CG2 194.51 CD1 195.52 H 253.42 HA 256.88 HB 236.15 HG12 236.05 HG13 236.05 HG21 233.41 HG22 233.41 HG23 233.41 HD11 234.62 HD12 234.62 HD13 234.62
A GLU - 115 -75.7 131.3 N 215.33 CA 214.05 C 218.64 O 216.82 CB 208.47 CG 203.07 CD 196.86 OE1 196.01 OE2 192.05 H 258.39 HA 256.86 HB2 250.17 HB3 250.17 HG2 243.68 HG3 243.68
A SER - 51 -87.8 -84.6 N 225.39 CA 228.54 C 230.14 O 231.05 CB 228.81 OG 230.28 H 270.47 HA 274.25 HB2 274.57 HB3 274.57 HG 276.34
A ASP S 98 -62.2 103.3 N 227.66 CA 222.78 C 227.64 O 223.59 CB 212.55 CG 202.56 OD1 196.77 OD2 201.5 H 273.19 HA 267.34 HB2 255.06 HB3 255.06
A GLU S 113 -166.0 159.9 N 234.19 CA 235.73 C 237.59 O 236.67 CB 231.35 CG 228.31 CD 224.43 OE1 220.89 OE2 224.61 H 281.03 HA 282.88 HB2 277.62 HB3 277.62 HG2 273.97 HG3 273.97
A VAL S 154 -76.1 90.6 N 239.17 CA 237.59 C 241.22 O 242.56 CB 231.62 CG1 228.97 CG2 229.44 H 287.0 HA 285.11 HB 277.95 HG11 274.77 HG12 274.77 HG13 274.77 HG21 275.33 HG22 275.33 HG23 275.33
A THR - 50 -137.4 165.1 N 241.82 CA 240.29 C 237.43 O 235.93 CB 239.48 OG1 241.98 CG2 236.78 H 290.18 HA 288.35 HB 287.37 HG1 290.37 HG21 284.14 HG22 284.14 HG23 284.14
A PRO - 53 -61.1 178.0 N 234.64 CA 231.54 C 229.85 O 230.1 CB 228.68 CG 229.13 CD 232.17 HA 277.85 HB2 274.42 HB3 274.42 HG2 274.96 HG3 274.96 HD2 278.6 HD3 278.6
A ASP S 106 -127.6 -0.1 N 228.0 CA 226.39 C 226.62 O 230.06 CB 223.61 CG 220.48 OD1 222.54 OD2 215.7 H 273.6 HA 271.67 HB2 268.33 HB3 268.33
A ARG S 158 -138.3 -6.3 N 221.3 CA 212.68 C 206.5 O 200.4 CB 210.37 CG 207.08 CD 204.88 NE 205.81 CZ 205.84 NH1 207.47 NH2 203.6 H 265.56 HA 255.22 HB2 252.44 HB3 252.44 HG2 248.5 HG3 248.5 HD2 245.86 HD3 245.86 HE 246.97 HH11 248.97 HH12 248.97 HH21 244.32 HH22 244.32
A ARG S 195 -105.4 -23.4 N 208.56 CA 208.38 C 213.34 O 207.49 CB 205.26 CG 201.75 CD 200.37 NE 199.74 CZ 200.77 NH1 201.44 NH2 200.29 H 250.27 HA 250.06 HB2 246.31 HB3 246.31 HG2 242.1 HG3 242.1 HD2 240.44 HD3 240.44 HE 239.69 HH11 241.72 HH12 241.72 HH21 240.35 HH22 240.35
A PHE S 11 -86.0 -42.5 N 226.08 CA 234.66 C 234.76 O 239.25 CB 237.14 CG 235.78 CD1 234.48 CD2 234.14 CE1 233.15 CE2 232.82 CZ 232.53 H 271.29 HA 281.6 HB2 284.57 HB3 284.57 HD1 281.38 HD2 280.97 HE1 279.79 HE2 279.38 HZ 279.03
A ARG H 109 -69.8 -6.5 N 225.96 CA 216.45 C 211.2 O 210.76 CB 212.5 CG 209.87 CD 207.21 NE 202.24 CZ 194.61 NH1 192.08 NH2 190.27 H 271.15 HA 259.74 HB2 255.0 HB3 255.0 HG2 251.85 HG3 251.85 HD2 248.65 HD3 248.65 HE 242.69 HH11 230.5 HH12 230.5 HH21 228.32 HH22 228.32
A ALA H 44 -88.2 -22.7 N 206.43 CA 200.8 C 203.47 O 205.0 CB 196.53 H 247.71 HA 240.96 HB1 235.84 HB2 235.84 HB3 235.84
A ARG H 138 -79.2 -36.8 N 205.42 CA 206.58 C 206.47 O 204.75 CB 209.41 CG 211.8 CD 213.59 NE 212.13 CZ 210.42 NH1 209.92 NH2 209.33 H 246.5 HA 247.89 HB2 251.29 HB3 251.29 HG2 254.16 HG3 254.16 HD2 256.31 HD3 256.31 HE 254.55 HH11 251.9 HH12 251.9 HH21 251.2 HH22 251.2
A VAL H 5 -68.0 -37.2 N 207.75 CA 206.47 C 203.95 O 208.64 CB 205.63 CG1 202.71 CG2 208.86 H 249.29 HA 247.77 HB 246.75 HG11 243.26 HG12 243.26 HG13 243.26 HG21 250.63 HG22 250.63 HG23 250.63
A ASP H 36 -64.3 -42.4 N 194.19 CA 184.68 C 184.1 O 182.11 CB 179.75 CG 176.21 OD1 173.15 OD2 175.84 H 233.03 HA 221.61 HB2 215.7 HB3 215.7
A ASP H 102 -65.1 -36.6 N 186.8 CA 185.26 C 182.71 O 182.2 CB 183.46 CG 178.5 OD1 175.38 OD2 176.36 H 224.16 HA 222.31 HB2 220.15 HB3 220.15
A ALA H 20 -68.0 -49.1 N 179.06 CA 176.67 C 182.6 O 181.12 CB 172.31 H 214.87 HA 212.0 HB1 206.78 HB2 206.78 HB3 206.78
A ILE H 0 -58.8 -46.6 N 191.1 CA 194.1 C 188.11 O 187.43 CB 196.1 CG1 195.23 CG2 195.79 CD1 192.72 H 229.32 HA 232.92 HB 235.32 HG12 234.28 HG13 234.28 HG21 234.94 HG22 234.94 HG23 234.94 HD11 231.26 HD12 231.26 HD13 231.26
A ARG H 82 -64.6 -27.6 N 179.97 CA 168.72 C 163.54 O 160.07 CB 162.16 CG 158.84 CD 159.86 NE 163.61 CZ 165.5 NH1 170.3 NH2 161.46 H 215.96 HA 202.46 HB2 194.59 HB3 194.59 HG2 190.61 HG3 190.61 HD2 191.84 HD3 191.84 HE 196.33 HH11 204.36 HH12 204.36 HH21 193.75 HH22 193.75
A GLU H 93 -76.4 -39.0 N 161.45 CA 158.5 C 149.44 O 141.52 CB 160.82 CG 159.63 CD 158.32 OE1 161.33 OE2 153.81 H 193.75 HA 190.2 HB2 192.98 HB3 192.98 HG2 191.56 HG3 191.56
A GLY H 1 -68.9 -33.2 N 147.75 CA 146.66 C 145.82 O 139.19 H 177.3 HA2 176.0 HA3 176.0
A LEU H 0 -76.8 -38.6 N 150.42 CA 147.82 C 140.14 O 142.1 CB 150.47 CG 151.5 CD1 150.56 CD2 151.36 H 180.5 HA 177.39 HB2 180.56 HB3 180.56 HG 181.8 HD11 180.67 HD12 180.67 HD13 180.67 HD21 181.63 HD22 181.63 HD23 181.63
A LYS H 67 -59.6 -37.6 N 131.06 CA 125.83 C 126.41 O 118.77 CB 120.15 CG 118.27 CD 124.19 CE 138.73 NZ 146.19 H 157.27 HA 150.99 HB2 144.18 HB3 144.18 HG2 141.93 HG3 141.93 HD2 149.03 HD3 149.03 HE2 166.48 HE3 166.48 HZ1 175.42 HZ2 175.42 HZ3 175.42
A ALA T 38 -68.1 -21.6 N 130.6 CA 132.36 C 134.67 O 127.74 CB 128.41 H 156.72 HA 158.83 HB1 154.1 HB2 154.1 HB3 154.1
A LEU T 39 -106.7 -1.4 N 137.27 CA 138.76 C 133.25 O 132.94 CB 145.07 CG 146.84 CD1 153.84 CD2 137.79 H 164.72 HA 166.51 HB2 174.08 HB3 174.08 HG 176.21 HD11 184.61 HD12 184.61 HD13 184.61 HD21 165.35 HD22 165.35 HD23 165.35
A GLY T 0 122.3 -17.2 N 126.7 CA 124.45 C 127.36 O 124.3 H 152.04 HA2 149.34 HA3 149.34
A TYR E 45 -89.9 107.6 N 134.73 CA 136.99 C 133.53 O 134.46 CB 140.68 CG 146.93 CD1 144.41 CD2 154.94 CE1 143.69 CE2 154.04 CZ 149.26 OH 150.68 H 161.68 HA 164.39 HB2 168.82 HB3 168.82 HD1 173.3 HD2 185.93 HE1 172.43 HE2 184.85 HH 180.82
A TYR E 53 -100.0 -25.9 N 128.74 CA 135.85 C 140.81 O 135.79 CB 137.85 CG 130.62 CD1 134.31 CD2 127.61 CE1 134.74 CE2 133.04 CZ 134.62 OH 139.09 H 154.49 HA 163.02 HB2 165.42 HB3 165.42 HD1 161.17 HD2 153.13 HE1 161.68 HE2 159.65 HH 166.91
A GLN E 87 -121.0 66.7 N 148.87 CA 149.89 C 149.16 O 142.65 CB 142.71 CG 134.82 CD 130.53 OE1 130.97 NE2 130.48 H 178.65 HA 179.87 HB2 171.26 HB3 171.26 HG2 161.78 HG3 161.78 HE21 156.57 HE22 156.57
A PRO E 10 -87.1 -172.6 N 153.15 CA 158.55 C 159.64 O 157.39 CB 157.57 CG 153.02 CD 150.62 HA 190.26 HB2 189.09 HB3 189.09 HG2 183.62 HG3 183.62 HD2 180.74 HD3 180.74
A THR E 76 -146.4 130.5 N 161.05 CA 161.28 C 164.19 O 161.78 CB 157.14 OG1 153.1 CG2 157.15 H 193.26 HA 193.53 HB 188.57 HG1 183.72 HG21 188.58 HG22 188.58 HG23 188.58
A ILE - 22 -129.2 148.2 N 170.11 CA 178.26 C 188.51 O 190.68 CB 177.48 CG1 179.49 CG2 177.23 CD1 183.55 H 204.14 HA 213.92 HB 212.97 HG12 215.39 HG13 215.39 HG21 212.68 HG22 212.68 HG23 212.68 HD11 220.26 HD12 220.26 HD13 220.26
A GLU - 100 -157.5 147.1 N 194.24 CA 195.63 C 200.48 O 199.52 CB 190.16 CG 186.49 CD 183.25 OE1 178.94 OE2 184.63 H 233.09 HA 234.75 HB2 228.2 HB3 228.2 HG2 223.79 HG3 223.79
A PHE E 48 -121.3 153.7 N 204.68 CA 206.08 C 203.28 O 199.26 CB 205.04 CG 201.08 CD1 198.48 CD2 200.98 CE1 198.8 CE2 200.78 CZ 199.97 H 245.62 HA 247.29 HB2 246.05 HB3 246.05 HD1 238.17 HD2 241.18 HE1 238.55 HE2 240.93 HZ 239.96
A ASP E 96 -140.5 153.1 N 202.15 CA 199.85 C 202.37 O 199.87 CB 195.31 CG 190.98 OD1 186.11 OD2 191.25 H 242.58 HA 239.81 HB2 234.37 HB3 234.37
A LEU - 151 56.1 360.0 N 205.41 CA 204.6 C 202.68 O 201.31 CB 202.42 CG 194.7 CD1 194.04 CD2 188.67 H 246.49 HA 245.52 HB2 242.9 HB3 242.9 HG 233.64 HD11 232.84 HD12 232.84 HD13 232.84 HD21 226.4 HD22 226.4 HD23 226.4
A VAL - 124 360.0 150.9 N 213.51 CA 214.32 C 218.77 O 217.28 CB 208.56 CG1 210.69 CG2 202.34 HA 257.18 HB 250.27 HG11 252.83 HG12 252.83 HG13 252.83 HG21 242.8 HG22 242.8 HG23 242.8
A LEU E 45 -90.0 137.1 N 220.77 CA 214.03 C 206.69 O 204.39 CB 210.76 CG 203.15 CD1 199.44 CD2 200.69 H 264.93 HA 256.83 HB2 252.91 HB3 252.91 HG 243.78 HD11 239.33 HD12 239.33 HD13 239.33 HD21 240.83 HD22 240.83 HD23 240.83
A ILE E 43 -126.6 148.7 N 201.97 CA 198.81 C 200.85 O 200.44 CB 193.78 CG1 189.73 CG2 192.52 CD1 187.54 H 242.36 HA 238.58 HB 232.54 HG12 227.67 HG13 227.67 HG21 231.02 HG22 231.02 HG23 231.02 HD11 225.04 HD12 225.04 HD13 225.04
A ALA E 7 -133.1 112.1 N 202.18 CA 199.93 C 198.7 O 197.08 CB 197.95 H 242.61 HA 239.92 HB1 237.54 HB2 237.54 HB3 237.54
A LYS E 108 -83.1 96.1 N 196.27 CA 187.87 C 184.45 O 179.76 CB 181.74 CG 178.06 CD 174.03 CE 171.37 NZ 168.47 H 235.53 HA 225.44 HB2 218.08 HB3 218.08 HG2 213.67 HG3 213.67 HD2 208.83 HD3 208.83 HE2 205.64 HE3 205.64 HZ1 202.16 HZ2 202.16 HZ3 202.16
A VAL - 2 -93.6 136.3 N 188.03 CA 188.82 C 185.48 O 183.4 CB 173.56 CG1 173.03 CG2 173.8 H 225.63 HA 226.58 HB 208.27 HG11 207.63 HG12 207.63 HG13 207.63 HG21 208.56 HG22 208.56 HG23 208.56
A THR E 68 -120.6 127.2 N 182.11 CA 173.81 C 175.28 O 177.47 CB 156.67 OG1 150.7 CG2 148.81 H 218.53 HA 208.58 HB 188.01 HG1 180.84 HG21 178.57 HG22 178.57 HG23 178.57
A PRO E 34 -54.9 -51.5 N 169.72 CA 162.75 C 149.63 O 146.6 CB 167.8 CG 170.97 CD 171.13 HA 195.31 HB2 201.37 HB3 201.37 HG2 205.16 HG3 205.16 HD2 205.35 HD3 205.35
A GLY E 39 84.1 -164.8 N 139.26 CA 130.28 C 130.43 O 124.13 H 167.11 HA2 156.34 HA3 156.34
A VAL E 67 -72.8 131.5 N 133.05 CA 127.03 C 126.39 O 114.7 CB 113.73 CG1 109.12 CG2 112.51 H 159.66 HA 152.43 HB 136.48 HG11 130.95 HG12 130.95 HG13 130.95 HG21 135.02 HG22 135.02 HG23 135.02
A PRO E 33 -94.3 148.2 N 134.06 CA 140.51 C 146.64 O 150.9 CB 138.5 CG 132.44 CD 135.47 HA 168.61 HB2 166.21 HB3 166.21 HG2 158.93 HG3 158.93 HD2 162.57 HD3 162.57
A VAL - 0 -82.3 134.7 N 148.32 CA 134.68 C 120.5 O 120.11 CB 127.52 CG1 120.1 CG2 125.75 H 177.98 HA 161.61 HB 153.02 HG11 144.12 HG12 144.12 HG13 144.12 HG21 150.91 HG22 150.91 HG23 150.91
A LEU E 60 -109.0 167.6 N 115.17 CA 116.51 C 115.99 O 114.09 CB 112.85 CG 115.77 CD1 122.14 CD2 114.94 H 138.21 HA 139.82 HB2 135.42 HB3 135.42 HG 138.93 HD11 146.57 HD12 146.57 HD13 146.57 HD21 137.93 HD22 137.93 HD23 137.93
A ILE E 4 -80.6 122.7 N 115.96 CA 115.41 C 120.27 O 119.66 CB 115.01 CG1 114.5 CG2 120.77 CD1 106.3 H 139.15 HA 138.5 HB 138.02 HG12 137.4 HG13 137.4 HG21 144.93 HG22 144.93 HG23 144.93 HD11 127.56 HD12 127.56 HD13 127.56
A GLY E 16 -97.7 -30.9 N 118.39 CA 111.9 C 111.96 O 108.59 H 142.07 HA2 134.28 HA3 134.28
A GLY E 4 -167.2 136.5 N 107.54 CA 105.8 C 104.32 O 104.24 H 129.05 HA2 126.96 HA3 126.96
A THR E 22 -113.1 50.8 N 103.25 CA 105.0 C 112.16 O 121.19 CB 104.83 OG1 107.1 CG2 101.91 H 123.9 HA 126.0 HB 125.8 HG1 128.52 HG21 122.29 HG22 122.29 HG23 122.29
A ASP E 104 -63.5 119.5 N 105.23 CA 103.43 C 104.77 O 103.81 CB 105.37 CG 110.45 OD1 111.56 OD2 110.97 H 126.28 HA 124.12 HB2 126.44 HB3 126.44
A VAL E 20 -139.1 129.6 N 100.18 CA 98.2 C 100.21 O 105.39 CB 96.65 CG1 95.33 CG2 97.01 H 120.22 HA 117.84 HB 115.97 HG11 114.4 HG12 114.4 HG13 114.4 HG21 116.41 HG22 116.41 HG23 116.41
A VAL E 76 -118.5 135.5 N 99.32 CA 100.83 C 101.59 O 103.58 CB 98.93 CG1 98.73 CG2 100.36 H 119.18 HA 120.99 HB 118.71 HG11 118.48 HG12 118.48 HG13 118.48 HG21 120.43 HG22 120.43 HG23 120.43
A LEU E 17 -117.6 135.3 N 98.94 CA 97.31 C 105.78 O 114.06 CB 97.24 CG 98.65 CD1 93.99 CD2 92.16 H 118.73 HA 116.77 HB2 116.69 HB3 116.69 HG 118.38 HD11 112.78 HD12 112.78 HD13 112.78 HD21 110.59 HD22 110.59 HD23 110.59
A ARG E 124 -121.8 150.3 N 105.39 CA 100.42 C 94.67 O 94.84 CB 105.56 CG 112.8 CD 122.55 NE 131.55 CZ 126.95 NH1 137.8 NH2 107.4 H 126.46 HA 120.51 HB2 126.68 HB3 126.68 HG2 135.36 HG3 135.36 HD2 147.05 HD3 147.05 HE 157.86 HH11 165.36 HH12 165.36 HH21 128.88 HH22 128.88
A GLY E 30 92.7 -152.7 N 93.8 CA 91.26 C 91.6 O 90.8 H 112.56 HA2 109.51 HA3 109.51
A GLY G 22 -68.3 -17.0 N 89.08 CA 92.36 C 95.69 O 95.62 H 106.9 HA2 110.83 HA3 110.83
A ALA G 0 -67.2 -32.6 N 94.67 CA 92.57 C 98.05 O 97.24 CB 89.09 H 113.61 HA 111.09 HB1 106.91 HB2 106.91 HB3 106.91
A ARG G 151 -59.3 -24.4 N 107.36 CA 115.33 C 113.1 O 116.84 CB 123.99 CG 139.32 CD 152.98 NE 158.1 CZ 150.6 NH1 148.74 NH2 141.49 H 128.83 HA 138.4 HB2 148.78 HB3 148.78 HG2 167.18 HG3 167.18 HD2 183.58 HD3 183.58 HE 189.72 HH11 178.49 HH12 178.49 HH21 169.79 HH22 169.79
A THR G 96 -124.8 5.8 N 106.54 CA 102.38 C 99.75 O 103.32 CB 106.66 OG1 111.01 CG2 103.49 H 127.85 HA 122.85 HB 127.99 HG1 133.21 HG21 124.19 HG22 124.19 HG23 124.19
A ASP - 13 -84.1 133.2 N 95.66 CA 95.04 C 95.89 O 100.66 CB 97.08 CG 95.89 OD1 96.92 OD2 90.51 H 114.79 HA 114.05 HB2 116.49 HB3 116.49
A LYS H 148 -62.7 -37.0 N 97.82 CA 99.14 C 101.2 O 112.82 CB 100.43 CG 107.76 CD 110.07 CE 103.79 NZ 102.76 H 117.38 HA 118.96 HB2 120.51 HB3 120.51 HG2 129.31 HG3 129.31 HD2 132.09 HD3 132.09 HE2 124.54 HE3 124.54 HZ1 123.31 HZ2 123.31 HZ3 123.31
A ASP H 19 -69.0 -39.1 N 91.01 CA 91.19 C 99.14 O 112.17 CB 89.56 CG 102.98 OD1 117.62 OD2 104.04 H 109.22 HA 109.43 HB2 107.47 HB3 107.47
A TYR H 1 -70.0 -42.0 N 89.17 CA 92.22 C 99.0 O 95.65 CB 89.97 CG 90.2 CD1 88.91 CD2 86.24 CE1 87.37 CE2 86.96 CZ 88.6 OH 92.8 H 107.0 HA 110.67 HB2 107.97 HB3 107.97 HD1 106.69 HD2 103.48 HE1 104.84 HE2 104.35 HH 111.35
A LEU H 82 -60.2 -41.1 N 98.91 CA 101.3 C 103.82 O 105.43 CB 102.57 CG 103.71 CD1 111.04 CD2 94.9 H 118.69 HA 121.56 HB2 123.08 HB3 123.08 HG 124.46 HD11 133.25 HD12 133.25 HD13 133.25 HD21 113.88 HD22 113.88 HD23 113.88
A LYS H 142 -64.3 -35.5 N 104.74 CA 102.63 C 107.57 O 114.8 CB 93.27 CG 93.33 CD 102.77 CE 100.71 NZ 95.81 H 125.69 HA 123.16 HB2 111.92 HB3 111.92 HG2 112.0 HG3 112.0 HD2 123.33 HD3 123.33 HE2 120.85 HE3 120.85 HZ1 114.97 HZ2 114.97 HZ3 114.97
A LEU H 16 -68.7 -32.2 N 98.71 CA 95.66 C 93.61 O 96.42 CB 91.11 CG 91.55 CD1 92.12 CD2 90.4 H 118.46 HA 114.8 HB2 109.33 HB3 109.33 HG 109.86 HD11 110.55 HD12 110.55 HD13 110.55 HD21 108.48 HD22 108.48 HD23 108.48
A LEU G 30 -60.6 -22.7 N 94.54 CA 98.01 C 105.14 O 111.43 CB 100.43 CG 97.17 CD1 95.01 CD2 99.67 H 113.45 HA 117.61 HB2 120.51 HB3 120.51 HG 116.61 HD11 114.01 HD12 114.01 HD13 114.01 HD21 119.6 HD22 119.6 HD23 119.6
A ASP G 134 -82.0 -19.7 N 106.18 CA 113.36 C 120.32 O 133.31 CB 120.85 CG 135.6 OD1 145.38 OD2 139.98 H 127.42 HA 136.03 HB2 145.03 HB3 145.03
A THR G 93 -68.6 -15.8 N 112.09 CA 105.86 C 102.33 O 99.3 CB 106.91 OG1 113.33 CG2 96.23 H 134.5 HA 127.03 HB 128.3 HG1 135.99 HG21 115.47 HG22 115.47 HG23 115.47
A ARG S 69 -59.9 141.3 N 101.16 CA 108.25 C 112.39 O 112.1 CB 109.49 CG 104.5 CD 102.36 NE 98.69 CZ 101.07 NH1 99.98 NH2 103.03 H 121.39 HA 129.9 HB2 131.39 HB3 131.39 HG2 125.4 HG3 125.4 HD2 122.83 HD3 122.83 HE 118.43 HH11 119.98 HH12 119.98 HH21 123.64 HH22 123.64
A PRO - 19 -71.2 140.8 N 116.56 CA 117.34 C 118.41 O 120.15 CB 115.24 CG 113.83 CD 115.21 HA 140.81 HB2 138.28 HB3 138.28 HG2 136.6 HG3 136.6 HD2 138.25 HD3 138.25
A ALA - 64 -68.0 152.3 N 118.33 CA 111.81 C 109.92 O 111.33 CB 106.88 H 141.99 HA 134.17 HB1 128.25 HB2 128.25 HB3 128.25
A ILE T 119 -64.4 137.4 N 109.29 CA 116.09 C 116.59 O 113.77 CB 117.73 CG1 119.41 CG2 113.15 CD1 113.47 H 131.15 HA 139.3 HB 141.28 HG12 143.29 HG13 143.29 HG21 135.78 HG22 135.78 HG23 135.78 HD11 136.17 HD12 136.17 HD13 136.17
A GLY T 45 102.7 -33.2 N 116.29 CA 123.58 C 125.14 O 132.63 H 139.54 HA2 148.3 HA3 148.3
A THR S 59 -64.4 156.5 N 113.03 CA 113.91 C 120.76 O 122.06 CB 114.8 OG1 116.96 CG2 115.4 H 135.63 HA 136.69 HB 137.76 HG1 140.36 HG21 138.48 HG22 138.48 HG23 138.48
A VAL B 65 -72.2 141.7 N 126.35 CA 126.13 C 127.05 O 126.34 CB 120.56 CG1 116.38 CG2 123.66 H 151.62 HA 151.36 HB 144.68 HG11 139.65 HG12 139.65 HG13 139.65 HG21 148.4 HG22 148.4 HG23 148.4
A LEU - 1 -67.2 135.7 N 125.63 CA 119.56 C 123.49 O 126.85 CB 117.47 CG 113.55 CD1 107.42 CD2 110.11 H 150.75 HA 143.47 HB2 140.97 HB3 140.97 HG 136.26 HD11 128.91 HD12 128.91 HD13 128.91 HD21 132.13 HD22 132.13 HD23 132.13
A ASN - 48 -131.0 119.8 N 123.77 CA 125.19 C 122.51 O 122.02 CB 129.39 CG 134.36 OD1 131.79 ND2 135.53 H 148.52 HA 150.23 HB2 155.27 HB3 155.27 HD21 162.64 HD22 162.64
A GLN H 75 -67.6 -22.8 N 124.53 CA 131.4 C 133.37 O 144.49 CB 137.88 CG 146.24 CD 156.75 OE1 153.55 NE2 163.91 H 149.44 HA 157.68 HB2 165.46 HB3 165.46 HG2 175.49 HG3 175.49 HE21 196.69 HE22 196.69
A GLY H 25 -63.2 -34.8 N 113.65 CA 109.43 C 106.05 O 100.75 H 136.38 HA2 131.32 HA3 131.32
A ASP H 68 -65.7 -37.9 N 106.12 CA 108.58 C 108.32 O 103.32 CB 100.95 CG 105.06 OD1 115.43 OD2 106.88 H 127.35 HA 130.3 HB2 121.14 HB3 121.14
A TYR H 17 -65.2 -56.8 N 103.97 CA 101.97 C 98.48 O 97.28 CB 101.35 CG 101.14 CD1 102.8 CD2 101.15 CE1 101.61 CE2 103.08 CZ 101.75 OH 100.75 H 124.76 HA 122.37 HB2 121.62 HB3 121.62 HD1 123.35 HD2 121.38 HE1 121.93 HE2 123.7 HH 120.9
A GLU H 85 -65.8 -32.2 N 99.05 CA 99.34 C 99.8 O 95.8 CB 101.54 CG 115.62 CD 134.59 OE1 143.47 OE2 135.75 H 118.86 HA 119.21 HB2 121.85 HB3 121.85 HG2 138.74 HG3 138.74
A ASN H 82 -71.8 -34.0 N 97.49 CA 99.23 C 94.95 O 93.33 CB 105.51 CG 107.11 OD1 102.98 ND2 108.56 H 116.99 HA 119.08 HB2 126.61 HB3 126.61 HD21 130.28 HD22 130.28
A PHE H 5 -63.6 -37.6 N 95.04 CA 94.18 C 94.2 O 93.32 CB 95.12 CG 94.51 CD1 94.33 CD2 94.32 CE1 93.98 CE2 93.96 CZ 93.79 H 114.05 HA 113.01 HB2 114.14 HB3 114.14 HD1 113.2 HD2 113.19 HE1 112.77 HE2 112.75 HZ 112.55
A LYS H 66 -65.4 -43.8 N 94.06 CA 95.31 C 92.51 O 92.59 CB 96.07 CG 99.7 CD 105.13 CE 114.47 NZ 122.09 H 112.87 HA 114.37 HB2 115.28 HB3 115.28 HG2 119.65 HG3 119.65 HD2 126.15 HD3 126.15 HE2 137.37 HE3 137.37 HZ1 146.51 HZ2 146.51 HZ3 146.51
A LYS H 133 -58.3 -39.9 N 92.64 CA 91.69 C 90.34 O 93.1 CB 95.36 CG 110.01 CD 121.06 CE 135.18 NZ 142.81 H 111.17 HA 110.02 HB2 114.43 HB3 114.43 HG2 132.01 HG3 132.01 HD2 145.27 HD3 145.27 HE2 162.22 HE3 162.22 HZ1 171.37 HZ2 171.37 HZ3 171.37
A SER H 42 -68.0 -41.0 N 91.3 CA 89.51 C 88.68 O 88.13 CB 90.21 OG 90.95 H 109.57 HA 107.41 HB2 108.25 HB3 108.25 HG 109.14
A LEU H 1 -56.4 -48.7 N 89.33 CA 89.12 C 94.65 O 91.64 CB 90.13 CG 91.0 CD1 92.2 CD2 90.61 H 107.2 HA 106.94 HB2 108.16 HB3 108.16 HG 109.2 HD11 110.65 HD12 110.65 HD13 110.65 HD21 108.74 HD22 108.74 HD23 108.74
A THR H 69 -67.3 -34.2 N 88.88 CA 87.79 C 89.44 O 85.69 CB 90.09 OG1 90.44 CG2 88.35 H 106.66 HA 105.35 HB 108.11 HG1 108.52 HG21 106.03 HG22 106.03 HG23 106.03
A SER H 64 -70.8 -43.3 N 91.99 CA 87.76 C 87.02 O 89.59 CB 88.3 OG 98.8 H 110.38 HA 105.31 HB2 105.95 HB3 105.95 HG 118.56
A ILE H 14 -64.9 -38.5 N 86.28 CA 84.17 C 83.58 O 86.57 CB 88.32 CG1 85.66 CG2 84.59 CD1 87.02 H 103.54 HA 101.0 HB 105.99 HG12 102.79 HG13 102.79 HG21 101.51 HG22 101.51 HG23 101.51 HD11 104.42 HD12 104.42 HD13 104.42
A ALA H 2 -60.8 -39.7 N 84.06 CA 83.56 C 82.57 O 82.17 CB 84.63 H 100.88 HA 100.27 HB1 101.55 HB2 101.55 HB3 101.55
A LEU H 119 -66.6 -48.5 N 82.77 CA 86.96 C 82.8 O 83.47 CB 88.85 CG 98.13 CD1 100.22 CD2 99.52 H 99.32 HA 104.36 HB2 106.62 HB3 106.62 HG 117.75 HD11 120.27 HD12 120.27 HD13 120.27 HD21 119.43 HD22 119.43 HD23 119.43
A ARG H 92 -56.8 -52.3 N 85.74 CA 80.36 C 80.68 O 78.57 CB 90.08 CG 96.75 CD 106.38 NE 104.85 CZ 97.27 NH1 85.61 NH2 98.39 H 102.88 HA 96.43 HB2 108.1 HB3 108.1 HG2 116.1 HG3 116.1 HD2 127.66 HD3 127.66 HE 125.82 HH11 102.73 HH12 102.73 HH21 118.07 HH22 118.07
A LYS H 4 -98.6 9.4 N 82.28 CA 82.45 C 82.51 O 84.86 CB 84.32 CG 80.9 CD 83.76 CE 91.06 NZ 92.42 H 98.73 HA 98.94 HB2 101.18 HB3 101.18 HG2 97.08 HG3 97.08 HD2 100.51 HD3 100.51 HE2 109.27 HE3 109.27 HZ1 110.9 HZ2 110.9 HZ3 110.9
A GLY T 0 79.3 29.8 N 79.47 CA 79.28 C 82.49 O 87.32 H 95.36 HA2 95.14 HA3 95.14
A TYR - 9 -85.2 74.6 N 81.34 CA 84.28 C 85.98 O 90.34 CB 83.49 CG 83.42 CD1 89.45 CD2 82.94 CE1 89.72 CE2 83.54 CZ 85.62 OH 84.41 H 97.61 HA 101.13 HB2 100.18 HB3 100.18 HD1 107.34 HD2 99.53 HE1 107.66 HE2 100.25 HH 101.29
A PHE T 42 -82.2 3.7 N 83.42 CA 85.97 C 84.45 O 85.57 CB 82.01 CG 81.34 CD1 82.55 CD2 79.63 CE1 80.28 CE2 78.94 CZ 78.8 H 100.1 HA 103.16 HB2 98.41 HB3 98.41 HD1 99.07 HD2 95.55 HE1 96.33 HE2 94.72 HZ 94.56
A ASP T 51 -110.0 12.0 N 85.84 CA 92.87 C 100.3 O 99.41 CB 89.29 CG 94.78 OD1 98.22 OD2 100.14 H 103.01 HA 111.45 HB2 107.15 HB3 107.15
A SER - 40 -67.1 138.6 N 104.44 CA 100.12 C 101.46 O 103.36 CB 92.25 OG 93.1 H 125.32 HA 120.15 HB2 110.69 HB3 110.69 HG 111.72
A GLU E 113 -155.7 142.2 N 96.44 CA 94.31 C 95.75 O 98.2 CB 99.51 CG 113.61 CD 120.61 OE1 129.26 OE2 113.49 H 115.73 HA 113.17 HB2 119.41 HB3 119.41 HG2 136.34 HG3 136.34
A PHE E 62 -77.8 123.2 N 99.6 CA 99.72 C 101.93 O 106.64 CB 96.14 CG 94.4 CD1 93.21 CD2 94.72 CE1 95.23 CE2 93.86 CZ 92.74 H 119.52 HA 119.66 HB2 115.37 HB3 115.37 HD1 111.85 HD2 113.66 HE1 114.28 HE2 112.63 HZ 111.29
A THR E 68 -87.0 -27.7 N 102.08 CA 107.95 C 110.18 O 117.16 CB 112.89 OG1 115.49 CG2 110.69 H 122.5 HA 129.55 HB 135.47 HG1 138.59 HG21 132.83 HG22 132.83 HG23 132.83
A LYS E 94 -150.7 139.5 N 108.8 CA 107.29 C 107.35 O 114.68 CB 108.45 CG 110.17 CD 111.63 CE 113.9 NZ 121.65 H 130.56 HA 128.75 HB2 130.14 HB3 130.14 HG2 132.2 HG3 132.2 HD2 133.96 HD3 133.96 HE2 136.68 HE3 136.68 HZ1 145.98 HZ2 145.98 HZ3 145.98
A ALA E 34 -154.7 100.1 N 105.08 CA 105.18 C 110.22 O 116.59 CB 99.32 H 126.1 HA 126.21 HB1 119.19 HB2 119.19 HB3 119.19
A GLN E 124 -143.9 146.4 N 108.56 CA 114.44 C 112.03 O 106.03 CB 114.44 CG 121.81 CD 137.24 OE1 138.66 NE2 146.51 H 130.28 HA 137.33 HB2 137.33 HB3 137.33 HG2 146.17 HG3 146.17 HE21 175.81 HE22 175.81
A LEU E 41 -120.8 104.4 N 114.23 CA 112.9 C 110.04 O 109.54 CB 111.79 CG 111.39 CD1 110.91 CD2 111.68 H 137.07 HA 135.48 HB2 134.14 HB3 134.14 HG 133.67 HD11 133.09 HD12 133.09 HD13 133.09 HD21 134.02 HD22 134.02 HD23 134.02
A GLY E 41 -85.3 119.0 N 112.31 CA 112.76 C 110.88 O 109.52 H 134.77 HA2 135.32 HA3 135.32
A ILE E 58 -105.1 112.8 N 112.61 CA 115.41 C 114.94 O 115.03 CB 120.12 CG1 123.28 CG2 122.17 CD1 119.94 H 135.13 HA 138.49 HB 144.14 HG12 147.93 HG13 147.93 HG21 146.6 HG22 146.6 HG23 146.6 HD11 143.93 HD12 143.93 HD13 143.93
A ALA E 32 -107.8 92.9 N 119.32 CA 118.95 C 118.09 O 116.78 CB 115.67 H 143.19 HA 142.74 HB1 138.81 HB2 138.81 HB3 138.81
A LEU T 72 -62.9 -27.7 N 117.91 CA 119.07 C 125.54 O 128.44 CB 121.28 CG 127.5 CD1 123.13 CD2 135.81 H 141.49 HA 142.88 HB2 145.53 HB3 145.53 HG 153.01 HD11 147.76 HD12 147.76 HD13 147.76 HD21 162.97 HD22 162.97 HD23 162.97
A GLY T 77 -62.3 -37.3 N 120.65 CA 126.63 C 126.15 O 122.09 H 144.78 HA2 151.95 HA3 151.95
A LEU T 110 -96.3 -9.3 N 124.51 CA 119.76 C 119.65 O 127.71 CB 117.53 CG 118.69 CD1 117.11 CD2 119.59 H 149.41 HA 143.72 HB2 141.03 HB3 141.03 HG 142.42 HD11 140.53 HD12 140.53 HD13 140.53 HD21 143.5 HD22 143.5 HD23 143.5
A HIS T 54 54.7 41.1 N 118.31 CA 117.18 C 117.88 O 115.0 CB 118.29 CG 127.71 ND1 129.07 CD2 126.42 CE1 128.66 NE2 128.78 H 141.97 HA 140.62 HB2 141.95 HB3 141.95 HD2 151.71 HE1 154.39 HE2 154.53
A LYS E 96 -131.3 146.3 N 122.89 CA 120.46 C 114.82 O 113.65 CB 118.75 CG 119.91 CD 125.91 CE 132.52 NZ 139.87 H 147.47 HA 144.55 HB2 142.5 HB3 142.5 HG2 143.89 HG3 143.89 HD2 151.09 HD3 151.09 HE2 159.02 HE3 159.02 HZ1 167.85 HZ2 167.85 HZ3 167.85
A ALA E 0 -120.9 143.2 N 112.05 CA 109.3 C 108.82 O 111.64 CB 108.65 H 134.46 HA 131.15 HB1 130.38 HB2 130.38 HB3 130.38
A PHE E 81 -131.4 120.2 N 107.64 CA 106.85 C 105.81 O 105.74 CB 107.74 CG 109.64 CD1 116.14 CD2 111.06 CE1 116.11 CE2 119.84 CZ 114.68 H 129.17 HA 128.22 HB2 129.28 HB3 129.28 HD1 139.36 HD2 133.27 HE1 139.33 HE2 143.81 HZ 137.62
A TRP E 5 -68.3 154.7 N 105.27 CA 103.21 C 106.71 O 121.88 CB 103.13 CG 101.78 CD1 102.15 CD2 99.92 NE1 101.71 CE2 100.34 CE3 99.19 CZ2 102.59 CZ3 97.93 CH2 99.33 H 126.33 HA 123.85 HB2 123.75 HB3 123.75 HD1 122.58 HE1 122.05 HE3 119.03 HZ2 123.11 HZ3 117.51 HH2 119.2
A ASP E 56 -153.4 87.3 N 105.97 CA 108.54 C 104.51 O 102.46 CB 109.23 CG 118.53 OD1 119.53 OD2 126.76 H 127.17 HA 130.25 HB2 131.08 HB3 131.08
A ILE E 2 -115.9 130.6 N 99.91 CA 98.61 C 98.28 O 98.29 CB 98.54 CG1 97.77 CG2 106.13 CD1 96.93 H 119.9 HA 118.33 HB 118.25 HG12 117.32 HG13 117.32 HG21 127.36 HG22 127.36 HG23 127.36 HD11 116.31 HD12 116.31 HD13 116.31
A ASP E 26 -125.8 108.4 N 98.15 CA 99.73 C 100.5 O 99.84 CB 102.22 CG 114.7 OD1 126.31 OD2 115.66 H 117.78 HA 119.68 HB2 122.66 HB3 122.66
A TYR E 0 -118.1 125.9 N 101.8 CA 95.75 C 97.03 O 100.87 CB 92.7 CG 91.65 CD1 91.47 CD2 90.78 CE1 90.1 CE2 94.09 CZ 90.19 OH 87.73 H 122.16 HA 114.9 HB2 111.24 HB3 111.24 HD1 109.76 HD2 108.94 HE1 108.12 HE2 112.91 HH 105.28
A ASN E 43 -114.2 114.1 N 95.44 CA 96.76 C 100.13 O 106.12 CB 97.59 CG 112.4 OD1 117.25 ND2 119.66 H 114.53 HA 116.11 HB2 117.11 HB3 117.11 HD21 143.6 HD22 143.6
A SER E 0 -86.2 -28.4 N 93.28 CA 94.39 C 99.17 O 99.52 CB 90.04 OG 88.36 H 111.94 HA 113.27 HB2 108.05 HB3 108.05 HG 106.03
A GLY E 15 80.8 -158.4 N 103.93 CA 96.33 C 93.7 O 88.61 H 124.72 HA2 115.6 HA3 115.6
A GLU - 116 -102.2 157.5 N 85.96 CA 86.68 C 86.96 O 83.65 CB 97.25 CG 107.33 CD 108.67 OE1 106.5 OE2 108.96 H 103.15 HA 104.01 HB2 116.71 HB3 116.71 HG2 128.79 HG3 128.79
A ARG - 31 -71.8 132.4 N 89.62 CA 86.97 C 88.83 O 87.16 CB 84.87 CG 89.93 CD 85.12 NE 80.01 CZ 80.71 NH1 79.9 NH2 78.64 H 107.54 HA 104.36 HB2 101.85 HB3 101.85 HG2 107.92 HG3 107.92 HD2 102.14 HD3 102.14 HE 96.01 HH11 95.89 HH12 95.89 HH21 94.37 HH22 94.37
A TYR - 0 -75.1 148.5 N 76.89 CA 75.83 C 76.34 O 79.16 CB 82.26 CG 84.1 CD1 87.74 CD2 84.07 CE1 97.29 CE2 88.07 CZ 96.03 OH 99.12 H 92.27 HA 90.99 HB2 98.71 HB3 98.71 HD1 105.29 HD2 100.89 HE1 116.75 HE2 105.68 HH 118.94
A ARG E 114 -115.6 155.3 N 73.16 CA 74.22 C 71.67 O 69.55 CB 79.49 CG 86.64 CD 96.85 NE 107.44 CZ 107.98 NH1 98.24 NH2 110.59 H 87.8 HA 89.07 HB2 95.39 HB3 95.39 HG2 103.97 HG3 103.97 HD2 116.22 HD3 116.22 HE 128.92 HH11 117.89 HH12 117.89 HH21 132.71 HH22 132.71
A PHE E 0 -70.3 137.0 N 75.28 CA 72.65 C 73.93 O 80.49 CB 73.45 CG 72.14 CD1 70.42 CD2 68.8 CE1 69.03 CE2 65.98 CZ 65.53 H 90.34 HA 87.18 HB2 88.14 HB3 88.14 HD1 84.5 HD2 82.55 HE1 82.83 HE2 79.18 HZ 78.64
A GLY E 4 -98.3 -149.4 N 73.49 CA 76.03 C 69.58 O 57.34 H 88.19 HA2 91.23 HA3 91.23
A HIS E 95 -86.1 147.8 N 72.17 CA 60.73 C 57.0 O 54.78 CB 58.73 CG 68.86 ND1 73.08 CD2 67.16 CE1 71.84 NE2 66.33 H 86.61 HA 72.87 HB2 70.48 HB3 70.48 HD2 80.59 HE1 86.21 HE2 79.6
A VAL E 3 -101.0 119.6 N 52.88 CA 51.26 C 50.77 O 52.88 CB 53.39 CG1 43.51 CG2 55.18 H 63.45 HA 61.51 HB 64.06 HG11 52.21 HG12 52.21 HG13 52.21 HG21 66.22 HG22 66.22 HG23 66.22
A THR E 69 -105.7 127.9 N 47.28 CA 47.79 C 50.86 O 54.54 CB 50.75 OG1 56.94 CG2 52.37 H 56.73 HA 57.35 HB 60.9 HG1 68.32 HG21 62.85 HG22 62.85 HG23 62.85
A PHE E 20 -101.1 143.2 N 52.01 CA 45.69 C 47.07 O 55.25 CB 39.99 CG 46.94 CD1 45.72 CD2 40.63 CE1 42.78 CE2 46.33 CZ 45.67 H 62.41 HA 54.83 HB2 47.99 HB3 47.99 HD1 54.86 HD2 48.76 HE1 51.34 HE2 55.59 HZ 54.8
A GLU E 105 -133.8 136.2 N 48.55 CA 45.56 C 56.88 O 52.87 CB 47.33 CG 61.27 CD 72.77 OE1 64.46 OE2 82.23 H 58.26 HA 54.67 HB2 56.8 HB3 56.8 HG2 73.52 HG3 73.52
A GLY S 54 87.1 3.0 N 54.64 CA 41.99 C 40.67 O 43.33 H 65.57 HA2 50.38 HA3 50.38
A SER - 36 -76.8 134.1 N 39.51 CA 41.13 C 44.12 O 39.25 CB 36.28 OG 33.97 H 47.41 HA 49.36 HB2 43.54 HB3 43.54 HG 40.76
A GLN S 35 -92.0 -10.9 N 37.52 CA 34.16 C 39.02 O 32.85 CB 32.63 CG 31.8 CD 36.3 OE1 34.8 NE2 29.98 H 45.02 HA 40.99 HB2 39.15 HB3 39.15 HG2 38.16 HG3 38.16 HE21 35.98 HE22 35.98
A ILE S 5 -90.2 142.3 N 38.07 CA 34.61 C 35.92 O 34.09 CB 37.16 CG1 29.4 CG2 35.52 CD1 31.95 H 45.69 HA 41.53 HB 44.59 HG12 35.28 HG13 35.28 HG21 42.62 HG22 42.62 HG23 42.62 HD11 38.34 HD12 38.34 HD13 38.34
A ARG - 107 -57.4 140.5 N 32.91 CA 33.59 C 37.26 O 37.85 CB 39.38 CG 40.7 CD 45.27 NE 60.54 CZ 64.22 NH1 48.99 NH2 66.67 H 39.49 HA 40.3 HB2 47.25 HB3 47.25 HG2 48.84 HG3 48.84 HD2 54.32 HD3 54.32 HE 72.65 HH11 58.79 HH12 58.79 HH21 80.0 HH22 80.0
A ASP H 69 -60.5 -34.9 N 39.43 CA 36.48 C 37.54 O 37.32 CB 39.72 CG 47.48 OD1 49.86 OD2 49.5 H 47.32 HA 43.78 HB2 47.66 HB3 47.66
A GLU H 64 -59.3 -31.1 N 37.36 CA 37.76 C 38.93 O 40.56 CB 36.23 CG 47.38 CD 50.22 OE1 41.64 OE2 39.99 H 44.83 HA 45.31 HB2 43.47 HB3 43.47 HG2 56.85 HG3 56.85
A TYR H 20 -66.6 -40.0 N 36.34 CA 38.4 C 36.85 O 37.9 CB 34.06 CG 29.84 CD1 29.66 CD2 29.63 CE1 34.97 CE2 32.7 CZ 31.84 OH 35.62 H 43.6 HA 46.09 HB2 40.87 HB3 40.87 HD1 35.59 HD2 35.55 HE1 41.97 HE2 39.24 HH 42.75
A LEU H 0 -71.0 -40.6 N 35.97 CA 34.85 C 41.61 O 37.28 CB 35.43 CG 39.24 CD1 41.0 CD2 40.19 H 43.16 HA 41.82 HB2 42.52 HB3 42.52 HG 47.09 HD11 49.2 HD12 49.2 HD13 49.2 HD21 48.23 HD22 48.23 HD23 48.23
A GLN H 48 -60.2 -34.9 N 38.22 CA 43.41 C 44.27 O 45.9 CB 41.71 CG 51.48 CD 51.71 OE1 50.82 NE2 50.92 H 45.87 HA 52.1 HB2 50.05 HB3 50.05 HG2 61.78 HG3 61.78 HE21 61.1 HE22 61.1
A ASN T 70 -77.3 0.1 N 37.34 CA 42.09 C 44.41 O 44.61 CB 37.97 CG 42.61 OD1 46.73 ND2 37.7 H 44.81 HA 50.5 HB2 45.57 HB3 45.57 HD21 45.23 HD22 45.23
A LEU T 4 -103.9 -6.4 N 39.55 CA 40.04 C 40.71 O 47.81 CB 39.34 CG 37.62 CD1 37.97 CD2 41.93 H 47.45 HA 48.04 HB2 47.2 HB3 47.2 HG 45.15 HD11 45.57 HD12 45.57 HD13 45.57 HD21 50.32 HD22 50.32 HD23 50.32
A VAL - 24 -68.6 115.8 N 43.59 CA 49.98 C 54.47 O 49.95 CB 47.02 CG1 46.13 CG2 48.03 H 52.31 HA 59.97 HB 56.43 HG11 55.36 HG12 55.36 HG13 55.36 HG21 57.64 HG22 57.64 HG23 57.64
A PRO - 37 -74.2 -9.5 N 50.01 CA 57.7 C 63.95 O 71.62 CB 53.36 CG 46.75 CD 45.24 HA 69.24 HB2 64.03 HB3 64.03 HG2 56.1 HG3 56.1 HD2 54.29 HD3 54.29
A PHE S 20 -117.9 163.0 N 62.92 CA 62.87 C 64.03 O 73.06 CB 61.91 CG 60.06 CD1 56.72 CD2 58.01 CE1 58.07 CE2 60.56 CZ 57.16 H 75.51 HA 75.44 HB2 74.29 HB3 74.29 HD1 68.06 HD2 69.62 HE1 69.68 HE2 72.67 HZ 68.6
A LYS - 160 -95.6 148.6 N 69.8 CA 74.54 C 81.93 O 86.87 CB 91.16 CG 107.53 CD 122.64 CE 125.94 NZ 125.4 H 83.76 HA 89.45 HB2 109.39 HB3 109.39 HG2 129.03 HG3 129.03 HD2 147.17 HD3 147.17 HE2 151.12 HE3 151.12 HZ1 150.48 HZ2 150.48 HZ3 150.48
A GLU T 138 -60.5 128.3 N 78.92 CA 73.81 C 69.47 O 76.45 CB 82.04 CG 102.02 CD 108.57 OE1 102.11 OE2 112.57 H 94.7 HA 88.57 HB2 98.45 HB3 98.45 HG2 122.42 HG3 122.42
A GLY T 24 102.4 -14.0 N 72.56 CA 72.07 C 76.07 O 81.61 H 87.08 HA2 86.49 HA3 86.49
A ASP - 69 -62.9 144.5 N 79.84 CA 84.74 C 80.84 O 80.95 CB 86.39 CG 92.86 OD1 107.59 OD2 84.71 H 95.81 HA 101.69 HB2 103.67 HB3 103.67
A GLU B 87 -62.5 135.0 N 76.22 CA 73.72 C 72.24 O 67.37 CB 81.86 CG 94.32 CD 104.08 OE1 111.65 OE2 105.85 H 91.46 HA 88.46 HB2 98.23 HB3 98.23 HG2 113.18 HG3 113.18
A TYR - 18 -60.2 138.5 N 75.12 CA 72.82 C 80.76 O 79.24 CB 70.64 CG 72.61 CD1 74.36 CD2 74.11 CE1 70.39 CE2 72.17 CZ 70.14 OH 62.76 H 90.14 HA 87.38 HB2 84.77 HB3 84.77 HD1 89.24 HD2 88.93 HE1 84.46 HE2 86.6 HH 75.32
A GLU - 62 -146.3 123.4 N 74.99 CA 71.57 C 64.13 O 60.52 CB 85.36 CG 110.56 CD 130.63 OE1 136.64 OE2 137.45 H 89.99 HA 85.88 HB2 102.43 HB3 102.43 HG2 132.67 HG3 132.67
A SER H 46 -53.8 -34.4 N 73.27 CA 70.35 C 68.56 O 68.99 CB 70.74 OG 87.75 H 87.93 HA 84.42 HB2 84.89 HB3 84.89 HG 105.3
A LYS H 127 -71.1 -17.1 N 64.46 CA 79.37 C 83.27 O 89.36 CB 60.93 CG 69.83 CD 86.41 CE 92.01 NZ 99.08 H 77.35 HA 95.25 HB2 73.12 HB3 73.12 HG2 83.79 HG3 83.79 HD2 103.69 HD3 103.69 HE2 110.41 HE3 110.41 HZ1 118.89 HZ2 118.89 HZ3 118.89
A ASP H 30 -75.0 -34.9 N 77.23 CA 67.96 C 60.91 O 64.07 CB 70.86 CG 80.92 OD1 82.89 OD2 92.14 H 92.68 HA 81.56 HB2 85.03 HB3 85.03
A LEU H 22 -65.1 -42.3 N 61.89 CA 62.48 C 64.21 O 60.96 CB 69.92 CG 82.07 CD1 94.27 CD2 86.37 H 74.27 HA 74.97 HB2 83.9 HB3 83.9 HG 98.48 HD11 113.12 HD12 113.12 HD13 113.12 HD21 103.64 HD22 103.64 HD23 103.64
A ALA H 61 -61.6 -40.5 N 58.82 CA 52.85 C 51.06 O 52.11 CB 52.18 H 70.59 HA 63.42 HB1 62.62 HB2 62.62 HB3 62.62
A GLU H 42 -69.5 -36.3 N 49.48 CA 45.15 C 45.38 O 47.92 CB 45.97 CG 50.31 CD 51.85 OE1 52.96 OE2 46.88 H 59.38 HA 54.18 HB2 55.16 HB3 55.16 HG2 60.37 HG3 60.37
A LEU H 0 -64.5 -45.4 N 46.69 CA 50.1 C 52.09 O 48.22 CB 53.55 CG 53.4 CD1 45.8 CD2 54.78 H 56.03 HA 60.12 HB2 64.26 HB3 64.26 HG 64.07 HD11 54.96 HD12 54.96 HD13 54.96 HD21 65.73 HD22 65.73 HD23 65.73
A ASN H 56 -60.3 -44.5 N 51.31 CA 52.0 C 50.02 O 52.33 CB 61.72 CG 70.38 OD1 65.05 ND2 72.45 H 61.57 HA 62.4 HB2 74.07 HB3 74.07 HD21 86.93 HD22 86.93
A ARG H 98 -59.9 -50.2 N 45.59 CA 49.23 C 41.17 O 50.26 CB 52.96 CG 52.56 CD 46.09 NE 50.88 CZ 42.45 NH1 48.01 NH2 47.53 H 54.7 HA 59.08 HB2 63.55 HB3 63.55 HG2 63.08 HG3 63.08 HD2 55.31 HD3 55.31 HE 61.06 HH11 57.61 HH12 57.61 HH21 57.03 HH22 57.03
A ARG H 57 -58.5 -47.9 N 44.05 CA 39.55 C 39.97 O 36.95 CB 44.3 CG 46.9 CD 43.56 NE 45.53 CZ 50.85 NH1 41.64 NH2 51.39 H 52.86 HA 47.46 HB2 53.17 HB3 53.17 HG2 56.28 HG3 56.28 HD2 52.28 HD3 52.28 HE 54.64 HH11 49.97 HH12 49.97 HH21 61.66 HH22 61.66
A LEU H 0 -59.5 -43.2 N 41.37 CA 42.46 C 45.26 O 39.61 CB 42.31 CG 44.15 CD1 44.62 CD2 40.6 H 49.64 HA 50.95 HB2 50.77 HB3 50.77 HG 52.97 HD11 53.54 HD12 53.54 HD13 53.54 HD21 48.72 HD22 48.72 HD23 48.72
A SER H 59 -67.6 -35.3 N 35.41 CA 40.78 C 41.5 O 36.45 CB 42.69 OG 49.04 H 42.5 HA 48.94 HB2 51.23 HB3 51.23 HG 58.85
A ALA H 52 -69.2 -18.6 N 34.28 CA 36.81 C 31.53 O 38.54 CB 35.09 H 41.13 HA 44.18 HB1 42.11 HB2 42.11 HB3 42.11
A THR T 21 -68.4 -25.8 N 34.27 CA 34.31 C 36.18 O 34.78 CB 39.37 OG1 32.04 CG2 40.78 H 41.13 HA 41.17 HB 47.25 HG1 38.44 HG21 48.94 HG22 48.94 HG23 48.94
A GLY S 25 77.4 5.0 N 34.7 CA 29.89 C 30.4 O 36.2 H 41.63 HA2 35.86 HA3 35.86
A TRP - 4 -75.4 -19.0 N 29.15 CA 35.2 C 33.32 O 33.85 CB 37.75 CG 32.02 CD1 30.55 CD2 31.47 NE1 29.09 CE2 30.6 CE3 30.72 CZ2 34.09 CZ3 32.93 CH2 30.52 H 34.98 HA 42.24 HB2 45.3 HB3 45.3 HD1 36.66 HE1 34.9 HE3 36.86 HZ2 40.9 HZ3 39.51 HH2 36.63
A PHE E 12 -128.4 145.6 N 31.92 CA 42.34 C 44.61 O 41.67 CB 36.98 CG 33.33 CD1 41.07 CD2 32.81 CE1 40.29 CE2 36.9 CZ 37.12 H 38.31 HA 50.81 HB2 44.38 HB3 44.38 HD1 49.28 HD2 39.38 HE1 48.34 HE2 44.28 HZ 44.55
A ASN E 83 -77.6 -32.6 N 49.97 CA 53.11 C 54.25 O 48.28 CB 50.89 CG 50.11 OD1 46.94 ND2 46.07 H 59.96 HA 63.73 HB2 61.07 HB3 61.07 HD21 55.28 HD22 55.28
A SER E 56 -147.1 148.7 N 47.96 CA 52.54 C 51.68 O 47.62 CB 55.85 OG 67.32 H 57.55 HA 63.05 HB2 67.02 HB3 67.02 HG 80.78
A VAL E 19 -139.6 123.9 N 50.95 CA 49.09 C 55.83 O 59.38 CB 44.51 CG1 45.08 CG2 42.13 H 61.14 HA 58.91 HB 53.42 HG11 54.09 HG12 54.09 HG13 54.09 HG21 50.56 HG22 50.56 HG23 50.56
A VAL E 81 -136.3 111.1 N 57.85 CA 60.63 C 66.37 O 75.7 CB 64.4 CG1 65.58 CG2 67.31 H 69.42 HA 72.75 HB 77.28 HG11 78.7 HG12 78.7 HG13 78.7 HG21 80.77 HG22 80.77 HG23 80.77
A VAL E 23 -97.4 116.4 N 65.42 CA 69.74 C 72.16 O 71.44 CB 68.43 CG1 67.78 CG2 66.95 H 78.5 HA 83.69 HB 82.11 HG11 81.33 HG12 81.33 HG13 81.33 HG21 80.34 HG22 80.34 HG23 80.34
A ALA E 33 -117.9 121.5 N 66.43 CA 68.23 C 67.8 O 67.09 CB 71.84 H 79.72 HA 81.87 HB1 86.2 HB2 86.2 HB3 86.2
A PRO E 31 -69.0 145.4 N 76.93 CA 79.55 C 77.98 O 83.47 CB 81.47 CG 84.58 CD 79.81 HA 95.46 HB2 97.76 HB3 97.76 HG2 101.5 HG3 101.5 HD2 95.77 HD3 95.77
A GLN - 54 -104.8 86.1 N 70.14 CA 74.58 C 81.1 O 85.22 CB 66.9 CG 61.76 CD 74.18 OE1 93.63 NE2 63.12 H 84.17 HA 89.49 HB2 80.28 HB3 80.28 HG2 74.12 HG3 74.12 HE21 75.74 HE22 75.74
A PHE H 69 -71.8 -26.5 N 87.95 CA 91.58 C 104.39 O 112.78 CB 85.9 CG 85.03 CD1 82.08 CD2 92.38 CE1 78.6 CE2 90.03 CZ 83.14 H 105.54 HA 109.9 HB2 103.08 HB3 103.08 HD1 98.5 HD2 110.85 HE1 94.32 HE2 108.03 HZ 99.77
A ASP H 139 -55.4 -24.7 N 112.49 CA 127.58 C 125.59 O 130.81 CB 135.61 CG 133.23 OD1 122.55 OD2 134.81 H 134.99 HA 153.1 HB2 162.73 HB3 162.73
A LYS H 129 -98.5 -41.1 N 111.99 CA 111.45 C 124.96 O 137.04 CB 100.44 CG 105.33 CD 123.66 CE 132.52 NZ 136.8 H 134.39 HA 133.74 HB2 120.53 HB3 120.53 HG2 126.4 HG3 126.4 HD2 148.39 HD3 148.39 HE2 159.03 HE3 159.03 HZ1 164.16 HZ2 164.16 HZ3 164.16
A ALA H 0 -76.5 7.0 N 119.12 CA 112.07 C 104.7 O 98.62 CB 109.98 H 142.94 HA 134.48 HB1 131.98 HB2 131.98 HB3 131.98
A ARG H 113 -67.9 -35.1 N 105.84 CA 109.63 C 106.26 O 109.2 CB 124.95 CG 131.21 CD 127.65 NE 121.58 CZ 115.6 NH1 110.17 NH2 112.73 H 127.0 HA 131.56 HB2 149.94 HB3 149.94 HG2 157.46 HG3 157.46 HD2 153.18 HD3 153.18 HE 145.9 HH11 132.2 HH12 132.2 HH21 135.27 HH22 135.27
A GLU H 164 -94.0 -39.5 N 104.04 CA 106.07 C 98.08 O 97.08 CB 120.53 CG 135.26 CD 137.0 OE1 123.75 OE2 146.09 H 124.84 HA 127.28 HB2 144.64 HB3 144.64 HG2 162.31 HG3 162.31
A THR H 88 -85.6 -22.2 N 91.14 CA 92.1 C 94.2 O 100.15 CB 98.2 OG1 99.08 CG2 103.08 H 109.36 HA 110.52 HB 117.84 HG1 118.89 HG21 123.69 HG22 123.69 HG23 123.69
A LYS - 41 61.7 17.0 N 88.93 CA 89.4 C 86.25 O 89.49 CB 90.72 CG 95.7 CD 97.38 CE 93.93 NZ 87.35 H 106.72 HA 107.27 HB2 108.86 HB3 108.86 HG2 114.84 HG3 114.84 HD2 116.85 HD3 116.85 HE2 112.72 HE3 112.72 HZ1 104.82 HZ2 104.82 HZ3 104.82
A VAL E 51 -110.2 122.8 N 77.05 CA 79.27 C 80.68 O 78.62 CB 73.87 CG1 65.72 CG2 71.3 H 92.46 HA 95.13 HB 88.65 HG11 78.86 HG12 78.86 HG13 78.86 HG21 85.56 HG22 85.56 HG23 85.56
A LEU E 0 -104.2 100.1 N 79.62 CA 77.6 C 74.81 O 73.22 CB 75.23 CG 82.02 CD1 81.98 CD2 91.57 H 95.55 HA 93.12 HB2 90.28 HB3 90.28 HG 98.43 HD11 98.37 HD12 98.37 HD13 98.37 HD21 109.88 HD22 109.88 HD23 109.88
A PRO E 36 -70.5 146.3 N 67.11 CA 61.09 C 61.22 O 65.35 CB 68.67 CG 71.37 CD 68.24 HA 73.31 HB2 82.41 HB3 82.41 HG2 85.65 HG3 85.65 HD2 81.89 HD3 81.89
A LEU E 1 -113.2 148.7 N 55.69 CA 56.36 C 57.42 O 56.59 CB 56.81 CG 66.18 CD1 74.21 CD2 65.69 H 66.82 HA 67.64 HB2 68.17 HB3 68.17 HG 79.42 HD11 89.05 HD12 89.05 HD13 89.05 HD21 78.82 HD22 78.82 HD23 78.82
A THR E 21 -120.3 112.8 N 57.76 CA 52.11 C 51.54 O 65.83 CB 58.1 OG1 68.67 CG2 58.65 H 69.31 HA 62.54 HB 69.73 HG1 82.41 HG21 70.37 HG22 70.37 HG23 70.37
A GLY E 0 -99.3 92.4 N 47.01 CA 46.02 C 54.37 O 62.44 H 56.41 HA2 55.23 HA3 55.23
A VAL E 56 -88.6 129.0 N 53.52 CA 64.03 C 52.01 O 49.3 CB 54.42 CG1 50.86 CG2 55.49 H 64.22 HA 76.83 HB 65.31 HG11 61.03 HG12 61.03 HG13 61.03 HG21 66.59 HG22 66.59 HG23 66.59
A VAL E 7 -127.2 159.5 N 44.0 CA 40.2 C 45.67 O 46.51 CB 42.18 CG1 38.32 CG2 43.74 H 52.8 HA 48.24 HB 50.62 HG11 45.98 HG12 45.98 HG13 45.98 HG21 52.48 HG22 52.48 HG23 52.48
A SER E 47 -120.3 138.1 N 42.91 CA 51.51 C 48.09 O 40.76 CB 46.48 OG 81.18 H 51.49 HA 61.81 HB2 55.77 HB3 55.77 HG 97.41
A PRO E 47 -60.4 143.0 N 40.59 CA 37.45 C 37.09 O 42.29 CB 39.24 CG 36.83 CD 39.48 HA 44.94 HB2 47.09 HB3 47.09 HG2 44.2 HG3 44.2 HD2 47.37 HD3 47.37
A ARG - 87 -65.2 147.2 N 33.81 CA 41.52 C 46.19 O 44.16 CB 32.26 CG 42.02 CD 41.29 NE 65.01 CZ 84.16 NH1 73.39 NH2 93.13 H 40.57 HA 49.82 HB2 38.72 HB3 38.72 HG2 50.42 HG3 50.42 HD2 49.55 HD3 49.55 HE 78.02 HH11 88.07 HH12 88.07 HH21 111.76 HH22 111.76
A THR - 70 -47.4 131.1 N 46.66 CA 42.01 C 36.04 O 33.34 CB 51.48 OG1 51.8 CG2 53.24 H 55.99 HA 50.42 HB 61.78 HG1 62.16 HG21 63.88 HG22 63.88 HG23 63.88
A GLU S 112 -68.4 -30.3 N 33.13 CA 36.71 C 31.19 O 34.2 CB 36.51 CG 40.29 CD 46.47 OE1 41.96 OE2 49.91 H 39.75 HA 44.05 HB2 43.81 HB3 43.81 HG2 48.34 HG3 48.34
A ASN - 64 -135.6 133.2 N 35.76 CA 31.16 C 32.53 O 36.44 CB 35.95 CG 30.94 OD1 31.93 ND2 31.67 H 42.92 HA 37.4 HB2 43.14 HB3 43.14 HD21 38.0 HD22 38.0
A THR E 36 -132.4 137.9 N 34.57 CA 47.7 C 42.71 O 37.65 CB 57.73 OG1 59.05 CG2 75.47 H 41.48 HA 57.24 HB 69.28 HG1 70.86 HG21 90.57 HG22 90.57 HG23 90.57
A ILE E 121 -132.1 114.6 N 50.53 CA 56.94 C 61.39 O 72.55 CB 64.98 CG1 77.45 CG2 53.93 CD1 79.28 H 60.64 HA 68.33 HB 77.98 HG12 92.94 HG13 92.94 HG21 64.72 HG22 64.72 HG23 64.72 HD11 95.13 HD12 95.13 HD13 95.13
A GLU E 122 -108.1 140.2 N 61.52 CA 70.33 C 67.93 O 62.99 CB 75.86 CG 97.12 CD 112.1 OE1 94.97 OE2 131.28 H 73.82 HA 84.39 HB2 91.03 HB3 91.03 HG2 116.54 HG3 116.54
A THR E 113 -122.1 166.5 N 59.78 CA 58.18 C 61.26 O 65.99 CB 62.71 OG1 83.33 CG2 58.83 H 71.74 HA 69.81 HB 75.25 HG1 100.0 HG21 70.59 HG22 70.59 HG23 70.59
A GLY E 19 -159.9 144.8 N 57.63 CA 61.3 C 57.51 O 40.02 H 69.16 HA2 73.56 HA3 73.56
A VAL E 106 -132.8 146.4 N 44.2 CA 40.75 C 45.78 O 46.41 CB 53.66 CG1 67.8 CG2 59.19 H 53.04 HA 48.9 HB 64.39 HG11 81.36 HG12 81.36 HG13 81.36 HG21 71.02 HG22 71.02 HG23 71.02
A GLY E 20 -148.6 170.2 N 48.0 CA 49.08 C 47.0 O 38.49 H 57.6 HA2 58.9 HA3 58.9
A TYR E 97 -150.5 141.0 N 42.81 CA 34.8 C 44.91 O 43.62 CB 35.85 CG 39.23 CD1 42.15 CD2 44.2 CE1 46.53 CE2 43.79 CZ 46.56 OH 50.31 H 51.37 HA 41.76 HB2 43.02 HB3 43.02 HD1 50.58 HD2 53.04 HE1 55.84 HE2 52.55 HH 60.37
A SER E 14 -141.6 145.6 N 36.04 CA 37.76 C 43.61 O 47.75 CB 36.76 OG 56.46 H 43.25 HA 45.31 HB2 44.12 HB3 44.12 HG 67.75
A THR T 49 -59.8 -31.2 N 37.37 CA 38.82 C 35.79 O 44.59 CB 40.27 OG1 50.89 CG2 44.4 H 44.84 HA 46.58 HB 48.33 HG1 61.07 HG21 53.28 HG22 53.28 HG23 53.28
A ASP T 45 -84.6 -46.5 N 38.51 CA 49.1 C 47.02 O 42.89 CB 54.84 CG 63.46 OD1 76.79 OD2 56.22 H 46.21 HA 58.92 HB2 65.81 HB3 65.81
A VAL T 26 -88.4 -33.8 N 40.1 CA 50.34 C 53.27 O 49.07 CB 39.95 CG1 44.28 CG2 46.86 H 48.12 HA 60.4 HB 47.94 HG11 53.13 HG12 53.13 HG13 53.13 HG21 56.23 HG22 56.23 HG23 56.23
A GLY E 14 95.1 -162.5 N 43.0 CA 32.11 C 36.38 O 31.74 H 51.6 HA2 38.53 HA3 38.53
A PRO E 87 -67.5 150.6 N 37.82 CA 37.74 C 40.09 O 36.14 CB 44.77 CG 45.89 CD 45.36 HA 45.29 HB2 53.73 HB3 53.73 HG2 55.06 HG3 55.06 HD2 54.43 HD3 54.43
A ARG E 97 -141.0 135.8 N 36.66 CA 46.12 C 49.69 O 48.11 CB 46.23 CG 74.36 CD 97.49 NE 111.44 CZ 126.26 NH1 142.95 NH2 118.81 H 43.99 HA 55.34 HB2 55.48 HB3 55.48 HG2 89.24 HG3 89.24 HD2 116.99 HD3 116.99 HE 133.73 HH11 171.54 HH12 171.54 HH21 142.58 HH22 142.58
A VAL E 69 -127.3 135.5 N 39.53 CA 33.12 C 36.02 O 36.26 CB 41.42 CG1 47.14 CG2 47.19 H 47.43 HA 39.74 HB 49.7 HG11 56.57 HG12 56.57 HG13 56.57 HG21 56.62 HG22 56.62 HG23 56.62
A LYS E 102 -122.4 146.3 N 40.69 CA 37.38 C 51.1 O 40.84 CB 45.53 CG 61.96 CD 76.31 CE 90.9 NZ 98.15 H 48.82 HA 44.86 HB2 54.64 HB3 54.64 HG2 74.35 HG3 74.35 HD2 91.58 HD3 91.58 HE2 109.08 HE3 109.08 HZ1 117.77 HZ2 117.77 HZ3 117.77
A ALA E 26 -149.1 139.0 N 36.22 CA 34.62 C 36.0 O 35.78 CB 34.38 H 43.47 HA 41.55 HB1 41.26 HB2 41.26 HB3 41.26
A THR E 35 -128.7 135.7 N 37.62 CA 44.65 C 47.35 O 50.15 CB 48.31 OG1 75.53 CG2 41.74 H 45.14 HA 53.58 HB 57.97 HG1 90.63 HG21 50.09 HG22 50.09 HG23 50.09
A TRP E 118 -117.3 110.7 N 31.58 CA 29.46 C 35.18 O 32.06 CB 27.9 CG 37.71 CD1 43.68 CD2 66.11 NE1 45.18 CE2 72.06 CE3 78.21 CZ2 96.79 CZ3 90.92 CH2 100.92 H 37.89 HA 35.35 HB2 33.48 HB3 33.48 HD1 52.42 HE1 54.22 HE3 93.85 HZ2 116.14 HZ3 109.1 HH2 121.11
A LYS E 95 -103.8 134.3 N 34.52 CA 35.53 C 36.75 O 33.84 CB 34.0 CG 48.02 CD 57.46 CE 68.3 NZ 80.42 H 41.43 HA 42.64 HB2 40.8 HB3 40.8 HG2 57.62 HG3 57.62 HD2 68.96 HD3 68.96 HE2 81.96 HE3 81.96 HZ1 96.5 HZ2 96.5 HZ3 96.5
A LYS E 44 -119.5 87.5 N 29.72 CA 32.1 C 31.97 O 29.37 CB 30.62 CG 35.96 CD 40.37 CE 28.26 NZ 37.99 H 35.67 HA 38.52 HB2 36.74 HB3 36.74 HG2 43.16 HG3 43.16 HD2 48.44 HD3 48.44 HE2 33.91 HE3 33.91 HZ1 45.59 HZ2 45.59 HZ3 45.59
A PRO S 22 -66.6 -10.7 N 36.43 CA 42.79 C 34.63 O 38.6 CB 40.54 CG 44.62 CD 38.1 HA 51.35 HB2 48.65 HB3 48.65 HG2 53.54 HG3 53.54 HD2 45.72 HD3 45.72
A TRP - 48 -148.7 130.0 N 32.17 CA 36.68 C 40.25 O 36.68 CB 34.5 CG 39.33 CD1 31.24 CD2 34.6 NE1 35.61 CE2 34.91 CE3 35.57 CZ2 34.46 CZ3 34.74 CH2 33.49 H 38.61 HA 44.02 HB2 41.4 HB3 41.4 HD1 37.49 HE1 42.74 HE3 42.69 HZ2 41.35 HZ3 41.69 HH2 40.18
A MET S 74 -105.5 -15.1 N 37.43 CA 33.55 C 32.13 O 41.75 CB 33.22 CG 45.16 SD 45.39 CE 40.35 H 44.92 HA 40.26 HB2 39.86 HB3 39.86 HG2 54.19 HG3 54.19 HE1 48.42 HE2 48.42 HE3 48.42
A ASN S 42 -171.0 -179.4 N 32.31 CA 28.92 C 36.36 O 30.79 CB 28.43 CG 43.03 OD1 32.56 ND2 32.54 H 38.77 HA 34.7 HB2 34.12 HB3 34.12 HD21 39.04 HD22 39.04
A SER T 44 -75.5 -5.7 N 29.92 CA 30.63 C 33.11 O 32.11 CB 31.29 OG 37.28 H 35.9 HA 36.75 HB2 37.55 HB3 37.55 HG 44.74
A TYR T 104 -91.6 0.7 N 29.52 CA 32.85 C 38.71 O 36.29 CB 30.94 CG 30.28 CD1 30.18 CD2 35.81 CE1 42.44 CE2 37.61 CZ 45.15 OH 60.85 H 35.42 HA 39.41 HB2 37.12 HB3 37.12 HD1 36.22 HD2 42.97 HE1 50.93 HE2 45.14 HH 73.02
A GLY - 0 78.3 17.4 N 34.88 CA 28.92 C 32.81 O 33.06 H 41.85 HA2 34.7 HA3 34.7
A HIS - 26 -65.2 153.6 N 29.22 CA 31.84 C 35.85 O 30.37 CB 29.59 CG 35.62 ND1 33.72 CD2 37.32 CE1 37.49 NE2 37.3 H 35.06 HA 38.21 HB2 35.51 HB3 35.51 HD2 44.79 HE1 44.99 HE2 44.76
A SER E 21 -140.6 156.1 N 27.89 CA 30.6 C 31.22 O 29.56 CB 29.66 OG 34.72 H 33.46 HA 36.73 HB2 35.59 HB3 35.59 HG 41.66
A LEU E 36 -132.5 136.6 N 33.02 CA 32.31 C 37.66 O 39.59 CB 27.92 CG 32.77 CD1 39.84 CD2 33.42 H 39.63 HA 38.77 HB2 33.51 HB3 33.51 HG 39.33 HD11 47.81 HD12 47.81 HD13 47.81 HD21 40.11 HD22 40.11 HD23 40.11
A THR E 40 -128.7 125.9 N 35.97 CA 36.33 C 38.11 O 46.37 CB 39.76 OG1 41.44 CG2 45.65 H 43.17 HA 43.6 HB 47.71 HG1 49.73 HG21 54.78 HG22 54.78 HG23 54.78
A THR E 28 -112.8 132.6 N 35.47 CA 37.56 C 38.61 O 34.7 CB 37.19 OG1 41.42 CG2 34.19 H 42.56 HA 45.07 HB 44.63 HG1 49.7 HG21 41.03 HG22 41.03 HG23 41.03
A SER E 32 -137.6 150.2 N 32.17 CA 34.6 C 34.47 O 29.67 CB 39.8 OG 61.42 H 38.6 HA 41.52 HB2 47.76 HB3 47.76 HG 73.7
A THR E 45 -144.5 144.8 N 31.38 CA 35.12 C 34.62 O 34.67 CB 39.79 OG1 34.31 CG2 39.43 H 37.66 HA 42.14 HB 47.75 HG1 41.17 HG21 47.32 HG22 47.32 HG23 47.32
A SER E 15 -130.8 123.4 N 37.21 CA 33.48 C 30.6 O 31.67 CB 34.3 OG 54.86 H 44.65 HA 40.18 HB2 41.16 HB3 41.16 HG 65.83
A ILE E 75 -125.2 124.8 N 30.85 CA 36.18 C 39.63 O 30.34 CB 42.4 CG1 45.4 CG2 41.13 CD1 59.31 H 37.02 HA 43.41 HB 50.88 HG12 54.48 HG13 54.48 HG21 49.35 HG22 49.35 HG23 49.35 HD11 71.17 HD12 71.17 HD13 71.17
A SER E 6 -145.6 171.3 N 34.1 CA 32.89 C 34.17 O 32.99 CB 32.54 OG 36.52 H 40.92 HA 39.47 HB2 39.05 HB3 39.05 HG 43.82
A ALA S 82 -56.4 -50.9 N 31.52 CA 34.52 C 41.15 O 42.54 CB 31.72 H 37.83 HA 41.42 HB1 38.06 HB2 38.06 HB3 38.06
A PRO S 13 -81.8 -21.1 N 36.93 CA 40.88 C 50.54 O 40.35 CB 41.06 CG 43.31 CD 40.96 HA 49.06 HB2 49.27 HB3 49.27 HG2 51.98 HG3 51.98 HD2 49.15 HD3 49.15
A GLU E 20 -141.1 136.8 N 38.4 CA 36.91 C 33.46 O 37.01 CB 38.31 CG 55.37 CD 56.25 OE1 55.49 OE2 63.37 H 46.08 HA 44.29 HB2 45.97 HB3 45.97 HG2 66.45 HG3 66.45
A GLN E 52 -135.7 134.3 N 28.61 CA 34.87 C 34.58 O 34.28 CB 34.03 CG 33.31 CD 33.69 OE1 37.77 NE2 31.69 H 34.33 HA 41.84 HB2 40.84 HB3 40.84 HG2 39.97 HG3 39.97 HE21 38.02 HE22 38.02
A THR E 27 -133.0 150.0 N 30.39 CA 34.41 C 36.78 O 34.79 CB 39.5 OG1 45.25 CG2 39.31 H 36.47 HA 41.29 HB 47.4 HG1 54.3 HG21 47.17 HG22 47.17 HG23 47.17
A LEU E 67 -138.8 125.6 N 34.23 CA 30.07 C 35.31 O 32.95 CB 36.32 CG 38.5 CD1 37.22 CD2 49.54 H 41.08 HA 36.09 HB2 43.59 HB3 43.59 HG 46.2 HD11 44.67 HD12 44.67 HD13 44.67 HD21 59.45 HD22 59.45 HD23 59.45
A ASP E 65 -133.3 149.3 N 29.02 CA 30.76 C 32.8 O 32.54 CB 28.72 CG 49.19 OD1 63.94 OD2 60.27 H 34.82 HA 36.91 HB2 34.46 HB3 34.46
A PHE E 81 -126.6 140.8 N 35.29 CA 40.37 C 40.51 O 37.02 CB 43.23 CG 58.19 CD1 57.69 CD2 61.34 CE1 49.13 CE2 51.9 CZ 52.58 H 42.35 HA 48.45 HB2 51.88 HB3 51.88 HD1 69.23 HD2 73.61 HE1 58.96 HE2 62.28 HZ 63.09
A SER E 24 -135.2 118.2 N 33.86 CA 37.74 C 34.32 O 35.3 CB 39.19 OG 49.72 H 40.63 HA 45.29 HB2 47.02 HB3 47.02 HG 59.67
A TYR E 66 -113.1 122.2 N 31.86 CA 31.65 C 34.53 O 31.55 CB 30.38 CG 35.22 CD1 36.19 CD2 35.95 CE1 30.82 CE2 29.19 CZ 34.26 OH 36.86 H 38.23 HA 37.98 HB2 36.45 HB3 36.45 HD1 43.43 HD2 43.14 HE1 36.98 HE2 35.03 HH 44.24
A LYS E 59 -113.5 135.3 N 31.05 CA 27.37 C 30.2 O 29.54 CB 31.53 CG 35.29 CD 35.78 CE 36.29 NZ 41.71 H 37.27 HA 32.84 HB2 37.84 HB3 37.84 HG2 42.35 HG3 42.35 HD2 42.94 HD3 42.94 HE2 43.55 HE3 43.55 HZ1 50.06 HZ2 50.06 HZ3 50.06
A MET E 67 -131.1 96.8 N 31.71 CA 29.6 C 34.38 O 35.84 CB 29.69 CG 37.22 SD 41.16 CE 69.17 H 38.05 HA 35.52 HB2 35.62 HB3 35.62 HG2 44.66 HG3 44.66 HE1 83.01 HE2 83.01 HE3 83.01
A PRO E 11 -58.4 138.9 N 33.49 CA 32.04 C 30.34 O 31.8 CB 35.09 CG 35.54 CD 34.35 HA 38.45 HB2 42.11 HB3 42.11 HG2 42.64 HG3 42.64 HD2 41.22 HD3 41.22
A LEU - 35 -79.0 137.2 N 30.5 CA 35.57 C 35.5 O 37.68 CB 40.14 CG 43.87 CD1 44.74 CD2 46.35 H 36.6 HA 42.68 HB2 48.16 HB3 48.16 HG 52.64 HD11 53.69 HD12 53.69 HD13 53.69 HD21 55.62 HD22 55.62 HD23 55.62
A LEU T 73 -57.6 -40.6 N 34.37 CA 33.62 C 41.02 O 35.84 CB 34.05 CG 39.58 CD1 40.35 CD2 42.25 H 41.24 HA 40.34 HB2 40.86 HB3 40.86 HG 47.49 HD11 48.42 HD12 48.42 HD13 48.42 HD21 50.69 HD22 50.69 HD23 50.69
A LYS T 175 -65.3 -31.3 N 42.94 CA 43.93 C 47.06 O 50.4 CB 54.36 CG 104.63 CD 136.33 CE 139.51 NZ 139.04 H 51.53 HA 52.71 HB2 65.23 HB3 65.23 HG2 125.56 HG3 125.56 HD2 163.59 HD3 163.59 HE2 167.41 HE3 167.41 HZ1 166.85 HZ2 166.85 HZ3 166.85
A ASN S 52 -150.3 75.6 N 44.82 CA 34.28 C 40.26 O 40.75 CB 44.85 CG 80.29 OD1 73.23 ND2 64.45 H 53.79 HA 41.13 HB2 53.82 HB3 53.82 HD21 77.34 HD22 77.34
A PRO T 3 -59.2 -32.3 N 36.77 CA 37.18 C 34.44 O 33.9 CB 37.34 CG 39.23 CD 34.24 HA 44.61 HB2 44.81 HB3 44.81 HG2 47.08 HG3 47.08 HD2 41.09 HD3 41.09
A LEU T 32 -87.6 -42.9 N 35.89 CA 35.94 C 36.06 O 38.14 CB 41.49 CG 45.28 CD1 34.08 CD2 41.29 H 43.07 HA 43.12 HB2 49.78 HB3 49.78 HG 54.34 HD11 40.89 HD12 40.89 HD13 40.89 HD21 49.55 HD22 49.55 HD23 49.55
A GLU T 57 -80.8 -30.5 N 35.35 CA 37.74 C 36.78 O 36.46 CB 34.34 CG 45.34 CD 49.42 OE1 51.81 OE2 58.93 H 42.42 HA 45.29 HB2 41.21 HB3 41.21 HG2 54.41 HG3 54.41
A GLN E 38 -127.6 136.3 N 32.45 CA 34.77 C 34.49 O 29.95 CB 35.68 CG 39.44 CD 43.38 OE1 47.9 NE2 37.6 H 38.94 HA 41.72 HB2 42.81 HB3 42.81 HG2 47.33 HG3 47.33 HE21 45.12 HE22 45.12
A TYR E 11 -166.7 156.9 N 29.24 CA 27.25 C 30.89 O 31.31 CB 26.99 CG 31.79 CD1 34.46 CD2 38.89 CE1 35.67 CE2 35.96 CZ 36.45 OH 42.13 H 35.08 HA 32.69 HB2 32.39 HB3 32.39 HD1 41.35 HD2 46.67 HE1 42.81 HE2 43.15 HH 50.56
A TYR E 125 -95.3 149.3 N 32.03 CA 26.68 C 28.46 O 32.89 CB 28.66 CG 37.19 CD1 49.65 CD2 47.89 CE1 72.42 CE2 63.23 CZ 85.72 OH 108.02 H 38.44 HA 32.02 HB2 34.4 HB3 34.4 HD1 59.58 HD2 57.47 HE1 86.91 HE2 75.88 HH 129.62
A LEU E 16 -124.6 129.2 N 35.21 CA 29.99 C 34.26 O 41.18 CB 32.6 CG 45.25 CD1 45.82 CD2 54.05 H 42.26 HA 35.99 HB2 39.12 HB3 39.12 HG 54.3 HD11 54.98 HD12 54.98 HD13 54.98 HD21 64.86 HD22 64.86 HD23 64.86
A VAL E 72 -118.6 116.6 N 31.53 CA 39.01 C 47.93 O 45.46 CB 41.51 CG1 46.43 CG2 42.99 H 37.83 HA 46.82 HB 49.81 HG11 55.71 HG12 55.71 HG13 55.71 HG21 51.58 HG22 51.58 HG23 51.58
A GLN E 61 -122.3 144.3 N 52.33 CA 50.01 C 50.68 O 53.41 CB 42.83 CG 49.82 CD 63.24 OE1 80.18 NE2 65.5 H 62.8 HA 60.01 HB2 51.4 HB3 51.4 HG2 59.79 HG3 59.79 HE21 78.6 HE22 78.6
A GLY E 15 -137.7 139.5 N 43.84 CA 45.36 C 42.27 O 44.59 H 52.61 HA2 54.44 HA3 54.44
A GLY E 2 -146.5 154.7 N 41.82 CA 40.41 C 34.88 O 36.71 H 50.18 HA2 48.49 HA3 48.49
A PHE E 108 -127.6 140.1 N 36.76 CA 40.83 C 41.34 O 31.14 CB 46.78 CG 68.13 CD1 91.78 CD2 69.64 CE1 96.42 CE2 69.17 CZ 74.69 H 44.11 HA 49.0 HB2 56.14 HB3 56.14 HD1 110.13 HD2 83.57 HE1 115.71 HE2 83.0 HZ 89.63
A LYS E 56 -140.5 142.9 N 32.88 CA 35.86 C 42.15 O 38.92 CB 37.53 CG 51.52 CD 68.01 CE 85.87 NZ 88.93 H 39.45 HA 43.03 HB2 45.03 HB3 45.03 HG2 61.82 HG3 61.82 HD2 81.62 HD3 81.62 HE2 103.04 HE3 103.04 HZ1 106.72 HZ2 106.72 HZ3 106.72
A ARG E 157 -129.6 130.2 N 31.05 CA 33.57 C 39.49 O 36.14 CB 36.03 CG 40.82 CD 48.93 NE 81.63 CZ 69.55 NH1 79.83 NH2 53.26 H 37.26 HA 40.28 HB2 43.23 HB3 43.23 HG2 48.99 HG3 48.99 HD2 58.71 HD3 58.71 HE 97.95 HH11 63.91 HH12 63.91 HH21 95.79 HH22 95.79
A THR E 8 -121.4 134.6 N 35.9 CA 37.94 C 37.04 O 35.9 CB 34.91 OG1 43.38 CG2 41.53 H 43.09 HA 45.53 HB 41.89 HG1 52.06 HG21 49.84 HG22 49.84 HG23 49.84
A ASP E 106 -140.6 87.9 N 31.11 CA 30.73 C 36.0 O 37.21 CB 43.93 CG 55.26 OD1 59.31 OD2 76.4 H 37.33 HA 36.87 HB2 52.71 HB3 52.71
A LEU E 21 -149.2 127.8 N 37.11 CA 35.31 C 43.18 O 33.09 CB 36.33 CG 41.92 CD1 43.57 CD2 38.1 H 44.53 HA 42.37 HB2 43.59 HB3 43.59 HG 50.3 HD11 52.28 HD12 52.28 HD13 52.28 HD21 45.72 HD22 45.72 HD23 45.72
A ASN T 80 53.8 -113.5 N 38.07 CA 36.34 C 40.55 O 47.54 CB 36.75 CG 42.87 OD1 43.88 ND2 41.0 H 45.68 HA 43.61 HB2 44.1 HB3 44.1 HD21 49.2 HD22 49.2
A ASP T 53 -107.3 17.6 N 43.84 CA 45.04 C 43.22 O 40.14 CB 37.18 CG 46.7 OD1 47.02 OD2 42.43 H 52.61 HA 54.05 HB2 44.61 HB3 44.61
A THR E 11 -111.8 122.0 N 35.09 CA 32.99 C 38.27 O 37.45 CB 37.77 OG1 43.37 CG2 38.25 H 42.1 HA 39.58 HB 45.33 HG1 52.04 HG21 45.9 HG22 45.9 HG23 45.9
A GLU E 113 -119.9 126.8 N 36.02 CA 38.32 C 38.02 O 40.39 CB 41.81 CG 44.24 CD 52.85 OE1 66.74 OE2 39.45 H 43.22 HA 45.98 HB2 50.18 HB3 50.18 HG2 53.09 HG3 53.09
A SER E 8 -156.2 146.9 N 36.07 CA 37.58 C 35.68 O 33.73 CB 43.65 OG 63.97 H 43.29 HA 45.09 HB2 52.38 HB3 52.38 HG 76.77
A ASP E 62 -129.0 137.9 N 31.72 CA 42.68 C 42.17 O 43.33 CB 43.5 CG 61.68 OD1 80.8 OD2 79.77 H 38.07 HA 51.22 HB2 52.2 HB3 52.2
A SER E 15 -135.7 142.1 N 42.42 CA 44.77 C 47.77 O 48.28 CB 38.22 OG 67.6 H 50.9 HA 53.73 HB2 45.86 HB3 45.86 HG 81.12
A THR E 42 -127.0 137.6 N 35.62 CA 37.11 C 35.68 O 35.56 CB 36.83 OG1 40.54 CG2 38.55 H 42.75 HA 44.53 HB 44.2 HG1 48.65 HG21 46.27 HG22 46.27 HG23 46.27
A THR E 22 -142.1 146.8 N 33.54 CA 41.42 C 40.65 O 37.3 CB 48.27 OG1 94.86 CG2 42.0 H 40.25 HA 49.71 HB 57.93 HG1 113.84 HG21 50.4 HG22 50.4 HG23 50.4
A LEU E 95 -129.1 141.7 N 40.99 CA 32.91 C 37.61 O 43.92 CB 43.01 CG 57.6 CD1 75.48 CD2 60.05 H 49.19 HA 39.49 HB2 51.61 HB3 51.61 HG 69.12 HD11 90.58 HD12 90.58 HD13 90.58 HD21 72.06 HD22 72.06 HD23 72.06
A VAL E 6 -139.6 132.9 N 33.74 CA 37.4 C 40.36 O 38.51 CB 48.89 CG1 40.55 CG2 56.1 H 40.49 HA 44.88 HB 58.67 HG11 48.66 HG12 48.66 HG13 48.66 HG21 67.32 HG22 67.32 HG23 67.32
A ALA E 51 -115.7 129.9 N 36.31 CA 43.32 C 38.32 O 31.77 CB 33.37 H 43.57 HA 51.98 HB1 40.04 HB2 40.04 HB3 40.04
A SER E 3 -136.3 149.0 N 30.09 CA 35.07 C 38.67 O 35.99 CB 36.61 OG 38.65 H 36.11 HA 42.09 HB2 43.93 HB3 43.93 HG 46.38
A ARG E 40 -117.4 123.7 N 32.67 CA 36.19 C 32.54 O 33.47 CB 33.52 CG 37.83 CD 35.39 NE 39.03 CZ 43.69 NH1 44.01 NH2 43.61 H 39.2 HA 43.42 HB2 40.22 HB3 40.22 HG2 45.39 HG3 45.39 HD2 42.47 HD3 42.47 HE 46.83 HH11 52.81 HH12 52.81 HH21 52.33 HH22 52.33
A TYR E 30 -110.8 145.0 N 30.77 CA 27.16 C 31.29 O 30.02 CB 29.77 CG 34.07 CD1 29.4 CD2 32.11 CE1 33.73 CE2 28.52 CZ 29.89 OH 46.99 H 36.93 HA 32.59 HB2 35.72 HB3 35.72 HD1 35.28 HD2 38.53 HE1 40.48 HE2 34.22 HH 56.38
A TRP E 80 -127.3 106.6 N 30.23 CA 38.06 C 43.75 O 43.58 CB 37.87 CG 39.74 CD1 41.38 CD2 41.14 NE1 47.67 CE2 42.7 CE3 37.87 CZ2 42.93 CZ3 45.07 CH2 52.73 H 36.27 HA 45.68 HB2 45.45 HB3 45.45 HD1 49.65 HE1 57.2 HE3 45.45 HZ2 51.52 HZ3 54.09 HH2 63.28
A ASP E 30 -103.0 147.4 N 44.76 CA 40.06 C 41.31 O 47.89 CB 46.37 CG 53.95 OD1 44.54 OD2 60.69 H 53.71 HA 48.07 HB2 55.64 HB3 55.64
A LEU - 64 -120.3 150.0 N 41.68 CA 51.94 C 47.09 O 40.24 CB 55.87 CG 59.85 CD1 57.35 CD2 61.96 H 50.01 HA 62.32 HB2 67.04 HB3 67.04 HG 71.82 HD11 68.82 HD12 68.82 HD13 68.82 HD21 74.35 HD22 74.35 HD23 74.35
A SER T 90 -64.6 -19.5 N 50.36 CA 59.65 C 57.2 O 49.97 CB 59.76 OG 63.56 H 60.43 HA 71.58 HB2 71.71 HB3 71.71 HG 76.28
A SER T 67 -65.8 -20.5 N 56.6 CA 59.1 C 68.71 O 65.89 CB 49.95 OG 53.35 H 67.92 HA 70.92 HB2 59.94 HB3 59.94 HG 64.02
A GLY S 24 116.1 -14.0 N 74.77 CA 66.26 C 61.15 O 56.23 H 89.72 HA2 79.51 HA3 79.51
A TRP E 65 -72.0 134.7 N 52.87 CA 57.98 C 52.07 O 50.3 CB 55.35 CG 69.73 CD1 61.01 CD2 66.28 NE1 60.61 CE2 62.22 CE3 59.81 CZ2 55.22 CZ3 63.58 CH2 59.44 H 63.45 HA 69.58 HB2 66.43 HB3 66.43 HD1 73.21 HE1 72.73 HE3 71.77 HZ2 66.26 HZ3 76.3 HH2 71.33
A GLN E 59 -117.5 137.1 N 42.79 CA 39.44 C 42.9 O 31.81 CB 42.36 CG 60.01 CD 68.77 OE1 90.56 NE2 57.83 H 51.34 HA 47.33 HB2 50.83 HB3 50.83 HG2 72.02 HG3 72.02 HE21 69.4 HE22 69.4
A ARG E 98 -132.8 129.3 N 36.73 CA 33.14 C 35.11 O 29.33 CB 47.98 CG 52.59 CD 83.16 NE 76.24 CZ 72.89 NH1 76.12 NH2 64.54 H 44.08 HA 39.77 HB2 57.58 HB3 57.58 HG2 63.11 HG3 63.11 HD2 99.79 HD3 99.79 HE 91.49 HH11 91.34 HH12 91.34 HH21 77.45 HH22 77.45
A ALA E 1 -141.3 144.5 N 27.48 CA 30.52 C 37.73 O 31.71 CB 28.39 H 32.98 HA 36.62 HB1 34.06 HB2 34.06 HB3 34.06
A ILE E 92 -104.9 131.0 N 33.26 CA 38.81 C 31.79 O 35.32 CB 37.44 CG1 43.18 CG2 41.87 CD1 57.83 H 39.92 HA 46.58 HB 44.93 HG12 51.82 HG13 51.82 HG21 50.24 HG22 50.24 HG23 50.24 HD11 69.4 HD12 69.4 HD13 69.4
A ASN E 22 -116.6 148.3 N 32.86 CA 33.16 C 37.47 O 35.2 CB 33.89 CG 40.78 OD1 37.45 ND2 36.62 H 39.43 HA 39.79 HB2 40.66 HB3 40.66 HD21 43.95 HD22 43.95
A LEU E 73 -135.1 104.1 N 34.7 CA 33.79 C 34.21 O 41.7 CB 35.35 CG 43.42 CD1 38.8 CD2 54.66 H 41.64 HA 40.55 HB2 42.42 HB3 42.42 HG 52.11 HD11 46.56 HD12 46.56 HD13 46.56 HD21 65.59 HD22 65.59 HD23 65.59
A ARG E 76 -107.1 138.4 N 34.6 CA 40.89 C 36.29 O 36.38 CB 44.47 CG 63.79 CD 80.19 NE 70.99 CZ 64.3 NH1 64.81 NH2 65.04 H 41.51 HA 49.07 HB2 53.37 HB3 53.37 HG2 76.55 HG3 76.55 HD2 96.23 HD3 96.23 HE 85.19 HH11 78.05 HH12 78.05 HH21 77.77 HH22 77.77
A TRP E 76 -119.0 143.3 N 34.46 CA 33.31 C 43.51 O 40.84 CB 32.09 CG 42.06 CD1 47.38 CD2 45.75 NE1 42.22 CE2 44.0 CE3 47.36 CZ2 49.0 CZ3 44.58 CH2 48.54 H 41.35 HA 39.97 HB2 38.51 HB3 38.51 HD1 56.85 HE1 50.67 HE3 56.84 HZ2 58.81 HZ3 53.5 HH2 58.25
A SER E 5 -154.3 152.0 N 41.1 CA 37.77 C 28.64 O 36.2 CB 40.34 OG 41.6 H 49.32 HA 45.33 HB2 48.4 HB3 48.4 HG 49.92
A LEU E 38 -129.9 123.9 N 37.31 CA 39.97 C 36.09 O 39.23 CB 33.0 CG 42.28 CD1 47.43 CD2 44.76 H 44.77 HA 47.96 HB2 39.6 HB3 39.6 HG 50.74 HD11 56.92 HD12 56.92 HD13 56.92 HD21 53.71 HD22 53.71 HD23 53.71
A ASP E 5 -127.5 113.5 N 41.17 CA 39.32 C 39.92 O 47.79 CB 42.78 CG 52.18 OD1 49.25 OD2 56.4 H 49.4 HA 47.18 HB2 51.34 HB3 51.34
A HIS E 69 -97.7 120.1 N 38.65 CA 41.31 C 42.3 O 42.1 CB 38.39 CG 40.16 ND1 47.08 CD2 43.38 CE1 44.23 NE2 46.61 H 46.39 HA 49.58 HB2 46.07 HB3 46.07 HD1 56.49 HD2 52.05 HE1 53.07 HE2 70.19
A PHE E 5 -147.1 158.7 N 40.5 CA 33.86 C 35.56 O 41.61 CB 33.11 CG 34.93 CD1 37.77 CD2 41.85 CE1 42.58 CE2 43.23 CZ 41.05 H 48.6 HA 40.63 HB2 39.73 HB3 39.73 HD1 45.32 HD2 50.22 HE1 51.1 HE2 51.88 HZ 49.26
A THR E 35 -130.0 115.7 N 37.13 CA 40.11 C 43.23 O 42.07 CB 41.85 OG1 57.13 CG2 48.25 H 44.56 HA 48.14 HB 50.23 HG1 68.56 HG21 57.9 HG22 57.9 HG23 57.9
A GLN E 0 -114.6 112.0 N 47.06 CA 39.75 C 42.72 O 46.95 CB 39.51 CG 41.07 CD 46.75 OE1 37.62 NE2 37.13 H 56.47 HA 47.7 HB2 47.41 HB3 47.41 HG2 49.28 HG3 49.28 HE21 44.55 HE22 44.55
A GLY T 13 63.4 -115.8 N 43.22 CA 47.56 C 50.13 O 55.14 H 51.86 HA2 57.08 HA3 57.08
A GLU T 147 -105.4 -3.9 N 58.61 CA 66.71 C 66.77 O 77.34 CB 73.46 CG 89.19 CD 108.26 OE1 116.5 OE2 112.71 H 70.33 HA 80.05 HB2 88.15 HB3 88.15 HG2 107.03 HG3 107.03
A ILE E 53 -85.2 121.5 N 56.19 CA 59.22 C 52.32 O 45.57 CB 66.5 CG1 60.49 CG2 64.07 CD1 52.93 H 67.42 HA 71.07 HB 79.8 HG12 72.58 HG13 72.58 HG21 76.89 HG22 76.89 HG23 76.89 HD11 63.52 HD12 63.52 HD13 63.52
A THR E 92 -117.2 136.7 N 47.53 CA 56.28 C 53.19 O 51.17 CB 57.25 OG1 63.25 CG2 48.5 H 57.03 HA 67.54 HB 68.7 HG1 75.9 HG21 58.2 HG22 58.2 HG23 58.2
A ASN E 42 -154.2 153.5 N 48.02 CA 42.76 C 40.54 O 35.66 CB 48.18 CG 58.25 OD1 57.38 ND2 55.36 H 57.62 HA 51.31 HB2 57.81 HB3 57.81 HD21 66.43 HD22 66.43
A THR E 86 -114.6 117.6 N 37.11 CA 42.81 C 40.12 O 40.05 CB 45.74 OG1 51.17 CG2 39.72 H 44.53 HA 51.37 HB 54.88 HG1 61.41 HG21 47.67 HG22 47.67 HG23 47.67
A THR E 3 -122.5 122.8 N 42.12 CA 41.68 C 40.9 O 38.41 CB 42.19 OG1 41.56 CG2 34.87 H 50.54 HA 50.02 HB 50.63 HG1 49.87 HG21 41.84 HG22 41.84 HG23 41.84
A MET E 75 -104.8 129.9 N 44.15 CA 41.0 C 41.95 O 39.53 CB 39.7 CG 47.95 SD 72.5 CE 104.62 H 52.98 HA 49.2 HB2 47.64 HB3 47.64 HG2 57.54 HG3 57.54 HE1 125.55 HE2 125.55 HE3 125.55
A LEU E 0 -122.7 148.7 N 41.1 CA 38.51 C 37.37 O 32.65 CB 35.84 CG 39.99 CD1 34.42 CD2 31.2 H 49.32 HA 46.22 HB2 43.01 HB3 43.01 HG 47.99 HD11 41.3 HD12 41.3 HD13 41.3 HD21 37.44 HD22 37.44 HD23 37.44
A PHE E 75 -146.4 113.7 N 36.62 CA 37.1 C 37.35 O 43.46 CB 46.4 CG 66.91 CD1 71.82 CD2 77.85 CE1 71.28 CE2 79.87 CZ 74.66 H 43.94 HA 44.52 HB2 55.68 HB3 55.68 HD1 86.19 HD2 93.42 HE1 85.53 HE2 95.85 HZ 89.6
A TYR E 10 -155.0 141.2 N 31.25 CA 39.43 C 32.17 O 31.8 CB 40.84 CG 33.04 CD1 38.13 CD2 30.05 CE1 37.0 CE2 29.56 CZ 38.88 OH 43.52 H 37.5 HA 47.31 HB2 49.01 HB3 49.01 HD1 45.75 HD2 36.06 HE1 44.4 HE2 35.48 HH 52.23
A PRO E 46 -83.6 171.9 N 30.45 CA 30.66 C 35.56 O 33.28 CB 34.92 CG 33.13 CD 38.23 HA 36.79 HB2 41.9 HB3 41.9 HG2 39.76 HG3 39.76 HD2 45.87 HD3 45.87
A GLY E 11 -168.8 169.3 N 29.62 CA 34.79 C 36.51 O 30.75 H 35.55 HA2 41.75 HA3 41.75
A VAL E 59 -129.8 152.8 N 33.06 CA 35.73 C 40.65 O 38.12 CB 43.33 CG1 38.22 CG2 73.9 H 39.67 HA 42.87 HB 51.99 HG11 45.87 HG12 45.87 HG13 45.87 HG21 88.68 HG22 88.68 HG23 88.68
A MET E 10 -144.3 132.1 N 33.82 CA 37.81 C 43.95 O 38.63 CB 40.93 CG 46.96 SD 45.44 CE 46.42 H 40.58 HA 45.37 HB2 49.11 HB3 49.11 HG2 56.35 HG3 56.35 HE1 55.7 HE2 55.7 HE3 55.7
A ILE E 56 -124.9 131.6 N 35.87 CA 40.63 C 42.62 O 34.93 CB 49.12 CG1 69.89 CG2 51.23 CD1 90.59 H 43.04 HA 48.76 HB 58.94 HG12 83.86 HG13 83.86 HG21 61.48 HG22 61.48 HG23 61.48 HD11 108.71 HD12 108.71 HD13 108.71
A SER E 13 -149.2 166.2 N 35.19 CA 34.65 C 43.99 O 46.86 CB 36.65 OG 42.43 H 42.23 HA 41.58 HB2 43.98 HB3 43.98 HG 50.92
A ARG E 34 -161.3 141.0 N 45.44 CA 54.65 C 60.03 O 58.0 CB 44.09 CG 56.12 CD 73.8 NE 87.83 CZ 86.85 NH1 86.55 NH2 76.23 H 54.53 HA 65.58 HB2 52.91 HB3 52.91 HG2 67.34 HG3 67.34 HD2 88.56 HD3 88.56 HE 105.4 HH11 103.86 HH12 103.86 HH21 91.48 HH22 91.48
A THR E 81 -137.2 125.0 N 64.61 CA 61.33 C 69.14 O 80.62 CB 65.57 OG1 75.63 CG2 79.94 H 77.54 HA 73.59 HB 78.69 HG1 90.75 HG21 95.92 HG22 95.92 HG23 95.92
A ARG E 82 -123.0 150.4 N 62.16 CA 63.15 C 73.02 O 70.98 CB 55.29 CG 50.28 CD 51.45 NE 53.13 CZ 62.02 NH1 70.43 NH2 67.68 H 74.59 HA 75.78 HB2 66.35 HB3 66.35 HG2 60.33 HG3 60.33 HD2 61.74 HD3 61.74 HE 63.75 HH11 84.51 HH12 84.51 HH21 81.22 HH22 81.22
A SER E 67 -165.1 133.0 N 71.86 CA 61.45 C 72.5 O 77.12 CB 62.53 OG 83.42 H 86.23 HA 73.74 HB2 75.04 HB3 75.04 HG 100.11
A ARG E 148 -144.0 129.6 N 73.42 CA 69.83 C 73.2 O 83.57 CB 62.39 CG 64.06 CD 76.8 NE 91.61 CZ 97.05 NH1 105.16 NH2 90.71 H 88.1 HA 83.8 HB2 74.87 HB3 74.87 HG2 76.87 HG3 76.87 HD2 92.16 HD3 92.16 HE 109.93 HH11 126.19 HH12 126.19 HH21 108.85 HH22 108.85
A GLY S 51 128.9 0.7 N 73.55 CA 76.8 C 79.84 O 102.83 H 88.25 HA2 92.16 HA3 92.16
A GLY S 52 100.1 -145.1 N 68.63 CA 67.92 C 75.63 O 74.98 H 82.35 HA2 81.5 HA3 81.5
A LEU S 132 -75.9 -36.3 N 89.02 CA 96.98 C 97.17 O 98.3 CB 100.85 CG 100.48 CD1 104.36 CD2 92.77 H 106.82 HA 116.38 HB2 121.02 HB3 121.02 HG 120.57 HD11 125.23 HD12 125.23 HD13 125.23 HD21 111.33 HD22 111.33 HD23 111.33
A MET S 11 -106.7 83.0 N 87.02 CA 74.81 C 50.3 O 53.34 CB 67.56 CG 65.9 SD 66.06 CE 62.04 H 104.43 HA 89.78 HB2 81.07 HB3 81.07 HG2 79.08 HG3 79.08 HE1 74.44 HE2 74.44 HE3 74.44
A PRO - 5 -64.6 149.8 N 58.47 CA 65.75 C 55.98 O 62.68 CB 57.99 CG 49.72 CD 54.23 HA 78.9 HB2 69.59 HB3 69.59 HG2 59.66 HG3 59.66 HD2 65.07 HD3 65.07
A THR S 72 -84.7 -15.9 N 56.45 CA 59.34 C 62.04 O 63.68 CB 69.1 OG1 71.37 CG2 76.58 H 67.73 HA 71.21 HB 82.92 HG1 85.65 HG21 91.9 HG22 91.9 HG23 91.9
A TRP E 44 -160.0 140.9 N 66.77 CA 56.08 C 60.16 O 66.75 CB 53.36 CG 72.04 CD1 67.42 CD2 70.17 NE1 72.64 CE2 71.88 CE3 63.52 CZ2 68.36 CZ3 57.67 CH2 59.05 H 80.13 HA 67.29 HB2 64.03 HB3 64.03 HD1 80.9 HE1 87.17 HE3 76.22 HZ2 82.04 HZ3 69.2 HH2 70.86
A GLY E 0 163.1 176.3 N 55.64 CA 49.99 C 51.57 O 45.27 H 66.77 HA2 59.99 HA3 59.99
A ASP E 0 -169.1 155.6 N 51.66 CA 43.19 C 45.99 O 45.48 CB 45.84 CG 68.93 OD1 63.38 OD2 79.46 H 62.0 HA 51.83 HB2 55.01 HB3 55.01
A SER E 11 -136.0 136.2 N 44.57 CA 42.82 C 47.3 O 44.83 CB 38.39 OG 47.46 H 53.48 HA 51.39 HB2 46.07 HB3 46.07 HG 56.96
A GLN E 22 -132.2 139.4 N 50.11 CA 45.35 C 46.47 O 43.02 CB 44.9 CG 56.07 CD 64.57 OE1 42.79 NE2 84.2 H 60.13 HA 54.42 HB2 53.88 HB3 53.88 HG2 67.28 HG3 67.28 HE21 101.03 HE22 101.03
A ARG E 77 -143.2 126.0 N 45.0 CA 43.55 C 38.98 O 39.32 CB 35.28 CG 32.35 CD 40.32 NE 47.62 CZ 57.21 NH1 52.53 NH2 46.22 H 54.0 HA 52.26 HB2 42.33 HB3 42.33 HG2 38.81 HG3 38.81 HD2 48.39 HD3 48.39 HE 57.15 HH11 63.04 HH12 63.04 HH21 55.46 HH22 55.46
A TYR E 86 -128.5 135.9 N 29.52 CA 29.38 C 34.47 O 33.59 CB 30.83 CG 38.38 CD1 37.61 CD2 38.47 CE1 39.53 CE2 38.94 CZ 45.76 OH 44.87 H 35.43 HA 35.26 HB2 37.0 HB3 37.0 HD1 45.14 HD2 46.16 HE1 47.43 HE2 46.73 HH 53.84
A SER E 6 -144.0 151.7 N 32.43 CA 33.59 C 40.05 O 43.08 CB 33.34 OG 34.48 H 38.92 HA 40.31 HB2 40.01 HB3 40.01 HG 41.38
A ILE E 80 -134.6 131.0 N 33.81 CA 36.74 C 35.3 O 32.73 CB 43.71 CG1 40.09 CG2 34.56 CD1 45.06 H 40.57 HA 44.08 HB 52.45 HG12 48.11 HG13 48.11 HG21 41.47 HG22 41.47 HG23 41.47 HD11 54.07 HD12 54.07 HD13 54.07
A ASP E 23 -124.3 141.7 N 31.44 CA 29.97 C 39.31 O 39.45 CB 34.85 CG 50.98 OD1 45.7 OD2 58.69 H 37.72 HA 35.97 HB2 41.81 HB3 41.81
A TYR E 107 -135.7 111.1 N 37.64 CA 36.59 C 42.05 O 43.26 CB 44.22 CG 53.41 CD1 47.43 CD2 69.6 CE1 52.23 CE2 70.17 CZ 68.42 OH 72.91 H 45.17 HA 43.91 HB2 53.07 HB3 53.07 HD1 56.91 HD2 83.52 HE1 62.68 HE2 84.2 HH 87.5
A SER E 1 -105.2 139.8 N 42.55 CA 36.77 C 41.78 O 43.21 CB 37.53 OG 38.69 H 51.07 HA 44.13 HB2 45.04 HB3 45.04 HG 46.43
A ASN - 34 -143.9 131.4 N 38.13 CA 39.3 C 44.58 O 41.9 CB 51.93 CG 60.91 OD1 59.0 ND2 65.67 H 45.75 HA 47.16 HB2 62.32 HB3 62.32 HD21 78.8 HD22 78.8
A THR G 70 -64.0 -18.0 N 50.02 CA 52.73 C 58.16 O 69.47 CB 53.16 OG1 55.27 CG2 51.15 H 60.03 HA 63.28 HB 63.79 HG1 66.33 HG21 61.38 HG22 61.38 HG23 61.38
A ALA G 86 -62.9 -25.5 N 63.1 CA 67.25 C 67.47 O 62.55 CB 69.14 H 75.72 HA 80.7 HB1 82.96 HB2 82.96 HB3 82.96
A TRP G 104 -115.8 27.7 N 69.21 CA 55.23 C 48.63 O 55.82 CB 57.2 CG 57.96 CD1 56.58 CD2 66.82 NE1 54.56 CE2 69.83 CE3 61.64 CZ2 69.52 CZ3 66.04 CH2 67.64 H 83.05 HA 66.27 HB2 68.64 HB3 68.64 HD1 67.89 HE1 65.47 HE3 73.96 HZ2 83.42 HZ3 79.25 HH2 81.17
A GLY T 55 103.5 -14.5 N 52.01 CA 62.4 C 61.44 O 61.97 H 62.42 HA2 74.88 HA3 74.88
A SER - 5 -65.9 147.8 N 48.54 CA 46.63 C 45.5 O 49.67 CB 40.29 OG 38.48 H 58.25 HA 55.95 HB2 48.35 HB3 48.35 HG 46.18
A ASP S 74 -76.1 -24.1 N 42.2 CA 44.89 C 42.97 O 52.54 CB 48.41 CG 53.15 OD1 62.86 OD2 51.79 H 50.64 HA 53.87 HB2 58.09 HB3 58.09
A VAL S 3 -136.2 140.8 N 41.11 CA 43.18 C 41.16 O 40.97 CB 53.41 CG1 59.08 CG2 46.26 H 49.34 HA 51.81 HB 64.09 HG11 70.89 HG12 70.89 HG13 70.89 HG21 55.52 HG22 55.52 HG23 55.52
A ASP - 77 -84.6 124.0 N 41.96 CA 45.98 C 46.36 O 45.98 CB 47.34 CG 51.03 OD1 53.76 OD2 63.69 H 50.35 HA 55.17 HB2 56.81 HB3 56.81
A PHE E 5 -158.5 165.0 N 37.06 CA 39.76 C 41.83 O 39.76 CB 42.04 CG 44.52 CD1 48.37 CD2 45.95 CE1 44.2 CE2 41.81 CZ 31.7 H 44.48 HA 47.72 HB2 50.45 HB3 50.45 HD1 58.05 HD2 55.14 HE1 53.04 HE2 50.17 HZ 38.04
A SER E 27 -133.8 129.7 N 39.39 CA 38.53 C 38.04 O 43.17 CB 46.02 OG 67.83 H 47.26 HA 46.24 HB2 55.23 HB3 55.23 HG 81.4
A VAL E 6 -118.7 124.7 N 31.85 CA 32.34 C 38.38 O 33.31 CB 36.18 CG1 31.99 CG2 34.25 H 38.23 HA 38.8 HB 43.41 HG11 38.38 HG12 38.38 HG13 38.38 HG21 41.1 HG22 41.1 HG23 41.1
A PHE E 92 -114.7 133.1 N 38.92 CA 37.72 C 39.47 O 37.73 CB 38.5 CG 41.46 CD1 48.36 CD2 42.08 CE1 56.16 CE2 40.03 CZ 46.46 H 46.7 HA 45.26 HB2 46.2 HB3 46.2 HD1 58.03 HD2 50.49 HE1 67.39 HE2 48.03 HZ 55.75
A GLN E 59 -138.9 146.1 N 30.34 CA 29.15 C 33.98 O 27.84 CB 28.17 CG 33.0 CD 38.6 OE1 40.2 NE2 33.49 H 36.4 HA 34.98 HB2 33.81 HB3 33.81 HG2 39.6 HG3 39.6 HE21 40.19 HE22 40.19
A ALA E 26 -149.5 137.9 N 29.19 CA 34.0 C 38.08 O 36.64 CB 34.69 H 35.03 HA 40.8 HB1 41.63 HB2 41.63 HB3 41.63
A GLN E 77 -150.2 145.5 N 34.19 CA 34.14 C 40.81 O 39.68 CB 33.73 CG 55.35 CD 66.67 OE1 56.9 NE2 72.51 H 41.03 HA 40.97 HB2 40.47 HB3 40.47 HG2 66.42 HG3 66.42 HE21 87.01 HE22 87.01
A ASN E 40 -134.3 143.2 N 39.4 CA 38.61 C 41.27 O 35.19 CB 42.81 CG 47.01 OD1 52.17 ND2 46.43 H 47.28 HA 46.33 HB2 51.37 HB3 51.37 HD21 55.72 HD22 55.72
A VAL E 12 -133.4 130.5 N 37.93 CA 31.79 C 37.11 O 37.66 CB 41.91 CG1 36.77 CG2 40.59 H 45.51 HA 38.14 HB 50.29 HG11 44.12 HG12 44.12 HG13 44.12 HG21 48.71 HG22 48.71 HG23 48.71
A TRP E 86 -126.3 126.5 N 41.36 CA 47.63 C 43.55 O 40.5 CB 53.76 CG 56.78 CD1 47.92 CD2 61.92 NE1 48.4 CE2 54.79 CE3 64.95 CZ2 56.5 CZ3 67.38 CH2 58.99 H 49.64 HA 57.15 HB2 64.51 HB3 64.51 HD1 57.5 HE1 58.08 HE3 77.94 HZ2 67.8 HZ3 80.85 HH2 70.78
A ILE E 0 -122.8 125.7 N 45.21 CA 48.37 C 51.71 O 53.61 CB 49.16 CG1 41.75 CG2 48.24 CD1 54.64 H 54.25 HA 58.05 HB 58.99 HG12 50.1 HG13 50.1 HG21 57.89 HG22 57.89 HG23 57.89 HD11 65.56 HD12 65.56 HD13 65.56
A ARG E 85 -139.4 147.5 N 48.3 CA 57.78 C 58.02 O 53.07 CB 66.58 CG 68.56 CD 72.19 NE 65.97 CZ 67.8 NH1 69.66 NH2 68.99 H 57.96 HA 69.34 HB2 79.9 HB3 79.9 HG2 82.27 HG3 82.27 HD2 86.63 HD3 86.63 HE 79.16 HH11 83.6 HH12 83.6 HH21 82.79 HH22 82.79
A THR E 44 -121.6 133.1 N 58.53 CA 51.34 C 57.44 O 77.06 CB 45.96 OG1 52.13 CG2 46.97 H 70.24 HA 61.61 HB 55.15 HG1 62.55 HG21 56.37 HG22 56.37 HG23 56.37
A LEU E 90 -115.1 126.9 N 53.16 CA 56.77 C 61.24 O 65.18 CB 61.69 CG 79.35 CD1 85.96 CD2 82.08 H 63.79 HA 68.12 HB2 74.03 HB3 74.03 HG 95.22 HD11 103.15 HD12 103.15 HD13 103.15 HD21 98.5 HD22 98.5 HD23 98.5
A TYR T 189 55.6 38.9 N 61.39 CA 53.23 C 61.53 O 73.3 CB 66.68 CG 75.22 CD1 89.88 CD2 75.34 CE1 98.92 CE2 78.82 CZ 99.41 OH 117.86 H 73.66 HA 63.88 HB2 80.02 HB3 80.02 HD1 107.85 HD2 90.41 HE1 118.71 HE2 94.58 HH 141.43
A ASP T 139 67.5 -21.8 N 65.14 CA 70.41 C 71.03 O 71.89 CB 77.57 CG 90.16 OD1 90.76 OD2 78.53 H 78.17 HA 84.49 HB2 93.08 HB3 93.08
A ARG T 107 -116.7 -16.2 N 67.18 CA 60.84 C 56.19 O 55.48 CB 80.77 CG 92.67 CD 90.58 NE 110.87 CZ 134.33 NH1 135.29 NH2 146.53 H 80.61 HA 73.01 HB2 96.92 HB3 96.92 HG2 111.21 HG3 111.21 HD2 108.69 HD3 108.69 HE 133.05 HH11 162.35 HH12 162.35 HH21 175.83 HH22 175.83
A HIS E 56 -117.0 107.9 N 51.34 CA 46.39 C 54.22 O 54.23 CB 46.29 CG 48.27 ND1 48.52 CD2 57.01 CE1 50.52 NE2 54.06 H 61.61 HA 55.67 HB2 55.55 HB3 55.55 HD2 68.41 HE1 60.62 HE2 64.87
A ARG E 2 -111.9 128.7 N 51.34 CA 44.12 C 51.96 O 49.57 CB 40.59 CG 41.67 CD 46.64 NE 43.81 CZ 49.51 NH1 44.35 NH2 51.85 H 61.61 HA 52.94 HB2 48.7 HB3 48.7 HG2 50.01 HG3 50.01 HD2 55.97 HD3 55.97 HE 52.57 HH11 53.22 HH12 53.22 HH21 62.22 HH22 62.22
A PHE E 76 -116.6 125.9 N 44.35 CA 39.63 C 42.55 O 50.0 CB 38.72 CG 40.9 CD1 41.85 CD2 40.75 CE1 43.81 CE2 44.67 CZ 46.3 H 53.23 HA 47.55 HB2 46.46 HB3 46.46 HD1 50.23 HD2 48.9 HE1 52.58 HE2 53.6 HZ 55.56
A VAL E 0 -117.8 118.7 N 46.93 CA 42.28 C 42.98 O 40.13 CB 37.3 CG1 38.57 CG2 37.98 H 56.32 HA 50.73 HB 44.76 HG11 46.29 HG12 46.29 HG13 46.29 HG21 45.58 HG22 45.58 HG23 45.58
A THR E 56 -119.1 135.0 N 38.68 CA 42.71 C 42.89 O 38.94 CB 43.64 OG1 45.79 CG2 44.21 H 46.42 HA 51.25 HB 52.37 HG1 54.94 HG21 53.05 HG22 53.05 HG23 53.05
A ARG E 39 -133.4 153.5 N 40.25 CA 39.39 C 36.92 O 37.73 CB 41.94 CG 46.17 CD 52.59 NE 58.35 CZ 60.71 NH1 60.31 NH2 51.82 H 48.3 HA 47.27 HB2 50.32 HB3 50.32 HG2 55.4 HG3 55.4 HD2 63.1 HD3 63.1 HE 70.02 HH11 72.37 HH12 72.37 HH21 62.18 HH22 62.18
A GLY E 25 -155.9 137.2 N 39.93 CA 37.08 C 35.93 O 29.97 H 47.92 HA2 44.5 HA3 44.5
A THR E 33 -132.9 134.0 N 39.15 CA 37.09 C 38.87 O 41.49 CB 37.51 OG1 47.79 CG2 38.3 H 46.98 HA 44.5 HB 45.01 HG1 57.34 HG21 45.96 HG22 45.96 HG23 45.96
A LEU E 94 -127.0 139.1 N 36.85 CA 35.47 C 37.39 O 30.42 CB 33.67 CG 36.75 CD1 41.25 CD2 39.11 H 44.22 HA 42.56 HB2 40.4 HB3 40.4 HG 44.11 HD11 49.5 HD12 49.5 HD13 49.5 HD21 46.93 HD22 46.93 HD23 46.93
A GLY E 6 -145.7 137.4 N 30.85 CA 29.16 C 30.9 O 34.31 H 37.01 HA2 35.0 HA3 35.0
A TRP E 90 -143.7 119.0 N 30.79 CA 30.73 C 37.15 O 33.51 CB 33.23 CG 41.0 CD1 38.04 CD2 41.46 NE1 38.64 CE2 38.18 CE3 45.29 CZ2 38.8 CZ3 44.28 CH2 35.82 H 36.95 HA 36.87 HB2 39.88 HB3 39.88 HD1 45.64 HE1 46.36 HE3 54.35 HZ2 46.56 HZ3 53.14 HH2 42.99
A ILE E 2 -113.7 120.0 N 31.73 CA 32.87 C 38.53 O 41.94 CB 43.43 CG1 50.41 CG2 52.87 CD1 49.7 H 38.07 HA 39.45 HB 52.12 HG12 60.49 HG13 60.49 HG21 63.45 HG22 63.45 HG23 63.45 HD11 59.64 HD12 59.64 HD13 59.64
A GLU E 103 -101.7 124.3 N 41.02 CA 45.33 C 42.34 O 45.91 CB 40.49 CG 50.99 CD 62.88 OE1 50.73 OE2 78.45 H 49.23 HA 54.4 HB2 48.59 HB3 48.59 HG2 61.19 HG3 61.19
A THR E 31 -164.7 158.6 N 41.74 CA 47.15 C 51.02 O 50.57 CB 43.57 OG1 49.43 CG2 41.76 H 50.09 HA 56.58 HB 52.29 HG1 59.32 HG21 50.11 HG22 50.11 HG23 50.11
A GLY S 86 -107.0 1.9 N 48.85 CA 52.77 C 59.43 O 65.69 H 58.62 HA2 63.32 HA3 63.32
A ASP - 72 -137.0 64.6 N 58.5 CA 55.04 C 50.84 O 47.07 CB 67.91 CG 93.77 OD1 91.9 OD2 112.52 H 70.2 HA 66.04 HB2 81.49 HB3 81.49
A PHE G 29 -62.6 -34.2 N 47.29 CA 44.62 C 41.62 O 37.46 CB 44.72 CG 38.28 CD1 38.49 CD2 34.89 CE1 36.37 CE2 37.24 CZ 35.36 H 56.75 HA 53.55 HB2 53.67 HB3 53.67 HD1 46.19 HD2 41.87 HE1 43.64 HE2 44.69 HZ 42.43
A ASP G 60 -61.5 -24.8 N 38.87 CA 47.03 C 50.43 O 50.28 CB 54.79 CG 66.51 OD1 58.29 OD2 80.62 H 46.65 HA 56.43 HB2 65.75 HB3 65.75
A LYS G 77 -90.6 -13.1 N 46.82 CA 44.28 C 46.18 O 42.91 CB 57.26 CG 71.81 CD 88.16 CE 93.5 NZ 90.8 H 56.19 HA 53.14 HB2 68.72 HB3 68.72 HG2 86.17 HG3 86.17 HD2 105.79 HD3 105.79 HE2 112.2 HE3 112.2 HZ1 108.96 HZ2 108.96 HZ3 108.96
A VAL S 0 -69.6 129.4 N 38.48 CA 37.18 C 40.22 O 39.24 CB 33.15 CG1 29.75 CG2 34.47 H 46.17 HA 44.61 HB 39.77 HG11 35.7 HG12 35.7 HG13 35.7 HG21 41.37 HG22 41.37 HG23 41.37
A PRO - 1 -63.1 143.1 N 40.56 CA 45.52 C 41.03 O 42.16 CB 37.65 CG 45.08 CD 42.3 HA 54.63 HB2 45.18 HB3 45.18 HG2 54.09 HG3 54.09 HD2 50.76 HD3 50.76
A PRO G 8 -50.3 -32.7 N 37.69 CA 41.45 C 40.07 O 40.69 CB 43.36 CG 47.13 CD 50.75 HA 49.74 HB2 52.03 HB3 52.03 HG2 56.56 HG3 56.56 HD2 60.9 HD3 60.9
A ASP G 56 -62.3 -27.0 N 33.37 CA 40.45 C 33.15 O 44.04 CB 60.62 CG 84.5 OD1 82.94 OD2 97.25 H 40.04 HA 48.54 HB2 72.74 HB3 72.74
A LEU G 47 -95.4 -10.4 N 30.28 CA 33.62 C 36.75 O 53.45 CB 37.36 CG 44.43 CD1 39.88 CD2 50.61 H 36.34 HA 40.34 HB2 44.83 HB3 44.83 HG 53.32 HD11 47.86 HD12 47.86 HD13 47.86 HD21 60.73 HD22 60.73 HD23 60.73
A ARG S 9 -81.7 167.7 N 37.75 CA 39.31 C 37.25 O 34.57 CB 37.0 CG 37.23 CD 30.13 NE 39.55 CZ 37.77 NH1 32.32 NH2 41.47 H 45.3 HA 47.17 HB2 44.4 HB3 44.4 HG2 44.67 HG3 44.67 HD2 36.15 HD3 36.15 HE 47.47 HH11 38.79 HH12 38.79 HH21 49.76 HH22 49.76
A PHE B 16 -108.3 135.2 N 37.9 CA 34.5 C 29.88 O 32.77 CB 32.97 CG 33.85 CD1 30.57 CD2 37.78 CE1 26.74 CE2 41.86 CZ 33.18 H 45.49 HA 41.4 HB2 39.56 HB3 39.56 HD1 36.68 HD2 45.34 HE1 32.09 HE2 50.23 HZ 39.82
A PHE - 27 -132.3 147.0 N 31.98 CA 36.86 C 40.52 O 41.28 CB 31.69 CG 33.56 CD1 34.65 CD2 29.32 CE1 28.06 CE2 35.48 CZ 35.88 H 38.38 HA 44.23 HB2 38.02 HB3 38.02 HD1 41.58 HD2 35.18 HE1 33.67 HE2 42.58 HZ 43.06
A ALA B 0 -117.7 169.5 N 33.99 CA 32.69 C 32.64 O 31.92 CB 37.62 H 40.79 HA 39.22 HB1 45.14 HB2 45.14 HB3 45.14
A GLY - 2 105.4 143.0 N 32.13 CA 34.56 C 41.99 O 36.34 H 38.56 HA2 41.48 HA3 41.48
A GLY B 0 105.6 176.3 N 37.85 CA 31.61 C 36.47 O 37.07 H 45.42 HA2 37.93 HA3 37.93
A ASP T 54 -59.6 142.1 N 38.12 CA 41.78 C 48.81 O 47.85 CB 46.99 CG 69.19 OD1 63.03 OD2 71.98 H 45.74 HA 50.13 HB2 56.39 HB3 56.39
A ARG T 120 62.2 11.7 N 51.77 CA 53.92 C 39.43 O 43.57 CB 66.06 CG 71.21 CD 81.64 NE 100.12 CZ 102.81 NH1 83.62 NH2 115.67 H 62.12 HA 64.71 HB2 79.27 HB3 79.27 HG2 85.45 HG3 85.45 HD2 97.96 HD3 97.96 HE 120.14 HH11 138.8 HH12 138.8 HH21 100.35 HH22 100.35
A SER T 24 -126.9 -81.6 N 39.46 CA 37.82 C 37.37 O 38.93 CB 37.07 OG 36.52 H 47.36 HA 45.38 HB2 44.49 HB3 44.49 HG 43.83
A ILE B 0 -138.7 97.2 N 32.98 CA 31.68 C 35.94 O 36.31 CB 42.9 CG1 42.58 CG2 41.88 CD1 41.71 H 39.58 HA 38.02 HB 51.48 HG12 51.09 HG13 51.09 HG21 50.26 HG22 50.26 HG23 50.26 HD11 50.06 HD12 50.06 HD13 50.06
A ARG T 6 -61.3 142.4 N 31.98 CA 35.68 C 33.72 O 34.89 CB 34.87 CG 35.18 CD 33.89 NE 41.33 CZ 36.63 NH1 37.8 NH2 34.38 H 38.37 HA 42.82 HB2 41.85 HB3 41.85 HG2 42.22 HG3 42.22 HD2 40.67 HD3 40.67 HE 49.6 HH11 45.37 HH12 45.37 HH21 41.26 HH22 41.26
A GLY T 3 101.7 -22.9 N 35.04 CA 35.26 C 47.21 O 36.5 H 42.04 HA2 42.31 HA3 42.31
A TYR S 11 -107.3 147.0 N 37.62 CA 34.54 C 38.17 O 36.51 CB 37.34 CG 38.8 CD1 36.0 CD2 31.76 CE1 36.82 CE2 40.78 CZ 30.84 OH 42.61 H 45.15 HA 41.45 HB2 44.81 HB3 44.81 HD1 43.2 HD2 38.12 HE1 44.18 HE2 48.94 HH 51.13
A LYS - 96 -64.0 145.5 N 32.46 CA 39.65 C 40.83 O 37.39 CB 36.97 CG 51.29 CD 59.06 CE 88.68 NZ 104.54 H 38.95 HA 47.58 HB2 44.36 HB3 44.36 HG2 61.55 HG3 61.55 HD2 70.88 HD3 70.88 HE2 106.41 HE3 106.41 HZ1 125.44 HZ2 125.44 HZ3 125.44
A TYR T 57 -47.5 113.1 N 41.58 CA 35.18 C 33.43 O 33.19 CB 36.17 CG 34.8 CD1 39.02 CD2 38.6 CE1 41.6 CE2 39.6 CZ 45.25 OH 46.85 H 49.89 HA 42.21 HB2 43.4 HB3 43.4 HD1 46.82 HD2 46.32 HE1 49.92 HE2 47.52 HH 56.22
A LYS T 48 59.4 30.8 N 36.72 CA 30.86 C 30.85 O 36.25 CB 37.99 CG 42.42 CD 44.06 CE 57.3 NZ 73.38 H 44.07 HA 37.03 HB2 45.59 HB3 45.59 HG2 50.9 HG3 50.9 HD2 52.87 HD3 52.87 HE2 68.76 HE3 68.76 HZ1 88.06 HZ2 88.06 HZ3 88.06
A SER - 29 -86.1 -12.2 N 34.25 CA 35.78 C 35.42 O 34.4 CB 36.86 OG 45.88 H 41.1 HA 42.94 HB2 44.23 HB3 44.23 HG 55.06
A ILE B 13 -101.0 114.4 N 29.81 CA 29.95 C 33.86 O 31.1 CB 35.32 CG1 37.11 CG2 34.48 CD1 39.33 H 35.77 HA 35.94 HB 42.38 HG12 44.53 HG13 44.53 HG21 41.37 HG22 41.37 HG23 41.37 HD11 47.2 HD12 47.2 HD13 47.2
A ALA S 16 -174.1 165.4 N 36.19 CA 36.57 C 36.3 O 38.3 CB 31.41 H 43.43 HA 43.89 HB1 37.69 HB2 37.69 HB3 37.69
A PRO - 37 -63.8 162.0 N 36.12 CA 34.67 C 42.03 O 39.52 CB 37.1 CG 39.89 CD 35.58 HA 41.6 HB2 44.52 HB3 44.52 HG2 47.87 HG3 47.87 HD2 42.7 HD3 42.7
A LYS B 138 -125.7 150.7 N 42.15 CA 45.19 C 50.12 O 58.04 CB 42.57 CG 51.07 CD 56.37 CE 61.58 NZ 70.63 H 50.58 HA 54.23 HB2 51.09 HB3 51.09 HG2 61.29 HG3 61.29 HD2 67.64 HD3 67.64 HE2 73.89 HE3 73.89 HZ1 84.76 HZ2 84.76 HZ3 84.76
A TYR - 40 -65.8 168.8 N 48.55 CA 46.61 C 53.61 O 54.45 CB 41.94 CG 50.65 CD1 50.67 CD2 54.36 CE1 48.29 CE2 50.14 CZ 51.25 OH 56.06 H 58.26 HA 55.93 HB2 50.33 HB3 50.33 HD1 60.81 HD2 65.23 HE1 57.95 HE2 60.17 HH 67.27
A ALA T 117 -61.3 -27.2 N 61.66 CA 62.72 C 62.09 O 69.71 CB 65.92 H 73.99 HA 75.27 HB1 79.1 HB2 79.1 HB3 79.1
A ASN T 89 -83.4 -1.1 N 65.13 CA 69.83 C 70.05 O 76.4 CB 62.22 CG 67.84 OD1 67.36 ND2 70.6 H 78.16 HA 83.79 HB2 74.67 HB3 74.67 HD21 84.72 HD22 84.72
A GLY S 39 100.4 -10.1 N 54.24 CA 44.65 C 47.46 O 46.14 H 65.09 HA2 53.58 HA3 53.58
A ASP - 39 -72.1 146.2 N 41.36 CA 42.01 C 45.43 O 44.97 CB 47.76 CG 55.97 OD1 57.44 OD2 54.01 H 49.63 HA 50.41 HB2 57.31 HB3 57.31
A LEU B 13 -65.5 142.4 N 35.93 CA 41.32 C 44.1 O 39.67 CB 43.25 CG 51.82 CD1 48.28 CD2 49.81 H 43.12 HA 49.58 HB2 51.9 HB3 51.9 HG 62.19 HD11 57.94 HD12 57.94 HD13 57.94 HD21 59.78 HD22 59.78 HD23 59.78
A LYS - 63 -115.3 -29.9 N 43.95 CA 41.04 C 42.75 O 43.54 CB 45.91 CG 52.57 CD 52.91 CE 65.69 NZ 74.28 H 52.74 HA 49.24 HB2 55.09 HB3 55.09 HG2 63.09 HG3 63.09 HD2 63.49 HD3 63.49 HE2 78.82 HE3 78.82 HZ1 89.14 HZ2 89.14 HZ3 89.14
A GLY - 0 95.9 157.4 N 33.94 CA 32.34 C 33.53 O 31.08 H 40.73 HA2 38.81 HA3 38.81
A ALA B 0 -110.5 159.3 N 30.71 CA 35.18 C 34.46 O 35.29 CB 32.97 H 36.85 HA 42.21 HB1 39.56 HB2 39.56 HB3 39.56
A SER S 12 -99.4 -8.6 N 34.67 CA 37.71 C 38.56 O 36.73 CB 31.24 OG 36.75 H 41.6 HA 45.26 HB2 37.48 HB3 37.48 HG 44.1
A LYS E 28 -134.1 146.3 N 30.05 CA 31.3 C 35.6 O 32.55 CB 33.38 CG 32.51 CD 36.22 CE 38.6 NZ 44.12 H 36.06 HA 37.56 HB2 40.06 HB3 40.06 HG2 39.01 HG3 39.01 HD2 43.47 HD3 43.47 HE2 46.32 HE3 46.32 HZ1 52.95 HZ2 52.95 HZ3 52.95
A LEU E 18 -138.1 130.3 N 32.45 CA 31.91 C 32.49 O 29.73 CB 32.37 CG 39.39 CD1 45.53 CD2 41.79 H 38.95 HA 38.3 HB2 38.84 HB3 38.84 HG 47.27 HD11 54.64 HD12 54.64 HD13 54.64 HD21 50.14 HD22 50.14 HD23 50.14
A ILE E 47 -139.4 118.0 N 33.34 CA 35.38 C 40.81 O 38.27 CB 45.8 CG1 58.46 CG2 42.2 CD1 59.84 H 40.01 HA 42.46 HB 54.96 HG12 70.15 HG13 70.15 HG21 50.64 HG22 50.64 HG23 50.64 HD11 71.81 HD12 71.81 HD13 71.81
A THR E 13 -141.9 153.3 N 28.86 CA 28.15 C 32.17 O 33.13 CB 34.27 OG1 38.76 CG2 34.47 H 34.63 HA 33.78 HB 41.12 HG1 46.51 HG21 41.36 HG22 41.36 HG23 41.36
A GLY E 24 -154.9 164.6 N 35.52 CA 35.67 C 33.92 O 30.37 H 42.63 HA2 42.81 HA3 42.81
A SER E 10 -153.6 139.4 N 29.59 CA 33.18 C 34.81 O 37.93 CB 41.61 OG 53.07 H 35.51 HA 39.82 HB2 49.93 HB3 49.93 HG 63.69
A LEU E 106 -117.4 125.1 N 31.66 CA 38.69 C 42.89 O 45.54 CB 42.53 CG 56.67 CD1 61.85 CD2 52.79 H 37.99 HA 46.43 HB2 51.03 HB3 51.03 HG 68.01 HD11 74.22 HD12 74.22 HD13 74.22 HD21 63.35 HD22 63.35 HD23 63.35
A GLU E 7 -132.5 134.1 N 41.55 CA 41.31 C 40.34 O 39.44 CB 35.75 CG 40.4 CD 40.63 OE1 38.94 OE2 37.71 H 49.86 HA 49.57 HB2 42.9 HB3 42.9 HG2 48.48 HG3 48.48
A TYR E 83 -119.1 131.5 N 39.96 CA 37.78 C 40.87 O 42.29 CB 38.71 CG 41.75 CD1 48.26 CD2 49.27 CE1 44.25 CE2 61.83 CZ 58.26 OH 57.41 H 47.95 HA 45.34 HB2 46.45 HB3 46.45 HD1 57.92 HD2 59.12 HE1 53.1 HE2 74.2 HH 68.89
A GLN E 0 -128.2 137.0 N 42.02 CA 44.47 C 46.7 O 53.32 CB 40.89 CG 41.74 CD 47.89 OE1 51.0 NE2 43.65 H 50.43 HA 53.37 HB2 49.07 HB3 49.07 HG2 50.09 HG3 50.09 HE21 52.38 HE22 52.38
A TYR E 94 -121.8 123.9 N 46.34 CA 45.94 C 51.22 O 55.4 CB 45.81 CG 48.03 CD1 51.18 CD2 52.9 CE1 51.24 CE2 52.15 CZ 52.44 OH 54.77 H 55.61 HA 55.13 HB2 54.97 HB3 54.97 HD1 61.41 HD2 63.48 HE1 61.49 HE2 62.58 HH 65.73
A ASN E 21 -73.0 90.3 N 54.63 CA 56.04 C 49.64 O 55.04 CB 63.17 CG 69.07 OD1 77.73 ND2 63.47 H 65.56 HA 67.25 HB2 75.8 HB3 75.8 HD21 76.16 HD22 76.16
A VAL E 87 -59.9 -53.1 N 61.8 CA 60.89 C 67.9 O 63.05 CB 61.41 CG1 58.22 CG2 55.04 H 74.16 HA 73.07 HB 73.69 HG11 69.87 HG12 69.87 HG13 69.87 HG21 66.05 HG22 66.05 HG23 66.05
A THR E 90 -160.3 136.3 N 65.47 CA 62.88 C 69.14 O 66.59 CB 69.43 OG1 79.66 CG2 62.7 H 78.56 HA 75.46 HB 83.32 HG1 95.59 HG21 75.24 HG22 75.24 HG23 75.24
A GLY T 56 52.3 -102.3 N 70.92 CA 55.79 C 59.49 O 66.43 H 85.1 HA2 66.95 HA3 66.95
A LYS T 114 -113.7 10.4 N 51.09 CA 54.33 C 53.26 O 59.59 CB 68.81 CG 77.47 CD 81.21 CE 89.5 NZ 97.08 H 61.31 HA 65.19 HB2 82.57 HB3 82.57 HG2 92.97 HG3 92.97 HD2 97.45 HD3 97.45 HE2 107.41 HE3 107.41 HZ1 116.5 HZ2 116.5 HZ3 116.5
A TRP E 118 -108.4 130.9 N 57.33 CA 59.89 C 56.41 O 51.25 CB 63.14 CG 73.65 CD1 76.9 CD2 72.55 NE1 76.99 CE2 76.23 CE3 70.16 CZ2 75.89 CZ3 73.97 CH2 76.56 H 68.8 HA 71.87 HB2 75.77 HB3 75.77 HD1 92.28 HE1 92.39 HE3 84.2 HZ2 91.07 HZ3 88.77 HH2 91.87
A TRP E 19 -125.0 148.3 N 49.52 CA 52.64 C 55.92 O 46.57 CB 49.15 CG 54.75 CD1 53.41 CD2 54.59 NE1 53.07 CE2 57.04 CE3 43.87 CZ2 52.57 CZ3 64.67 CH2 57.78 H 59.43 HA 63.17 HB2 58.98 HB3 58.98 HD1 64.09 HE1 63.68 HE3 52.65 HZ2 63.08 HZ3 77.6 HH2 69.33
A GLY E 28 -101.8 147.8 N 51.43 CA 42.45 C 43.33 O 48.03 H 61.72 HA2 50.94 HA3 50.94
A ALA E 8 -135.2 142.7 N 42.29 CA 38.39 C 39.51 O 42.7 CB 41.0 H 50.75 HA 46.07 HB1 49.2 HB2 49.2 HB3 49.2
A VAL E 68 -132.4 141.6 N 40.67 CA 37.16 C 35.91 O 38.73 CB 45.7 CG1 46.93 CG2 48.94 H 48.8 HA 44.59 HB 54.84 HG11 56.32 HG12 56.32 HG13 56.32 HG21 58.73 HG22 58.73 HG23 58.73
A PHE E 4 -152.1 157.1 N 34.92 CA 36.31 C 38.79 O 38.17 CB 37.07 CG 33.0 CD1 32.18 CD2 38.06 CE1 40.42 CE2 37.23 CZ 38.65 H 41.9 HA 43.57 HB2 44.48 HB3 44.48 HD1 38.62 HD2 45.68 HE1 48.51 HE2 44.68 HZ 46.37
A VAL E 58 -134.4 129.2 N 32.77 CA 36.25 C 31.33 O 36.69 CB 32.88 CG1 36.73 CG2 33.46 H 39.33 HA 43.5 HB 39.46 HG11 44.08 HG12 44.08 HG13 44.08 HG21 40.15 HG22 40.15 HG23 40.15
A ASP E 2 -114.1 141.0 N 34.78 CA 29.95 C 38.83 O 36.44 CB 33.84 CG 34.61 OD1 41.81 OD2 35.31 H 41.73 HA 35.94 HB2 40.61 HB3 40.61
A SER E 40 -148.2 147.3 N 35.7 CA 32.62 C 35.68 O 35.5 CB 37.2 OG 37.04 H 42.84 HA 39.15 HB2 44.64 HB3 44.64 HG 44.45
A GLY E 1 176.6 -179.3 N 30.29 CA 36.76 C 40.21 O 33.56 H 36.35 HA2 44.12 HA3 44.12
A GLU E 3 -149.3 155.5 N 37.58 CA 32.85 C 38.12 O 36.18 CB 32.05 CG 33.69 CD 38.8 OE1 37.61 OE2 35.62 H 45.09 HA 39.42 HB2 38.47 HB3 38.47 HG2 40.43 HG3 40.43
A ALA E 5 -129.9 105.5 N 30.47 CA 31.1 C 31.51 O 33.85 CB 34.94 H 36.56 HA 37.32 HB1 41.93 HB2 41.93 HB3 41.93
A VAL E 13 -133.6 164.3 N 34.56 CA 32.03 C 31.08 O 35.06 CB 35.06 CG1 37.24 CG2 31.15 H 41.48 HA 38.43 HB 42.07 HG11 44.68 HG12 44.68 HG13 44.68 HG21 37.38 HG22 37.38 HG23 37.38
A SER S 48 -103.9 -10.0 N 32.45 CA 44.42 C 39.46 O 40.3 CB 56.48 OG 74.07 H 38.95 HA 53.3 HB2 67.78 HB3 67.78 HG 88.88
A ASP - 44 -131.7 107.6 N 41.8 CA 34.41 C 34.23 O 34.66 CB 35.56 CG 54.75 OD1 47.02 OD2 53.94 H 50.16 HA 41.29 HB2 42.67 HB3 42.67
A ILE T 70 -69.0 -15.4 N 39.04 CA 42.07 C 45.25 O 42.15 CB 55.08 CG1 72.38 CG2 46.71 CD1 88.68 H 46.85 HA 50.48 HB 66.09 HG12 86.86 HG13 86.86 HG21 56.05 HG22 56.05 HG23 56.05 HD11 106.42 HD12 106.42 HD13 106.42
A ARG T 191 -79.3 -6.8 N 48.68 CA 42.62 C 46.94 O 44.81 CB 37.25 CG 41.88 CD 57.89 NE 39.09 CZ 50.41 NH1 42.25 NH2 43.22 H 58.42 HA 51.14 HB2 44.7 HB3 44.7 HG2 50.26 HG3 50.26 HD2 69.47 HD3 69.47 HE 46.9 HH11 50.7 HH12 50.7 HH21 51.86 HH22 51.86
A ARG S 170 -123.1 85.0 N 43.28 CA 47.51 C 47.3 O 50.45 CB 49.93 CG 61.59 CD 58.55 NE 60.91 CZ 56.33 NH1 60.3 NH2 64.84 H 51.93 HA 57.01 HB2 59.92 HB3 59.92 HG2 73.91 HG3 73.91 HD2 70.25 HD3 70.25 HE 73.09 HH11 72.37 HH12 72.37 HH21 77.8 HH22 77.8
A SER - 81 -65.8 149.7 N 46.44 CA 46.68 C 45.69 O 47.89 CB 45.44 OG 63.96 H 55.73 HA 56.02 HB2 54.53 HB3 54.53 HG 76.75
A ASP - 87 -152.3 63.3 N 41.33 CA 40.33 C 32.68 O 33.04 CB 44.42 CG 44.66 OD1 52.31 OD2 52.87 H 49.59 HA 48.39 HB2 53.31 HB3 53.31
A PHE - 98 -72.5 136.9 N 34.51 CA 36.82 C 38.75 O 48.12 CB 35.74 CG 40.33 CD1 46.16 CD2 46.91 CE1 42.66 CE2 52.24 CZ 48.24 H 41.42 HA 44.18 HB2 42.89 HB3 42.89 HD1 55.39 HD2 56.29 HE1 51.19 HE2 62.68 HZ 57.89
A LYS E 41 -114.6 138.2 N 36.93 CA 35.38 C 37.96 O 36.4 CB 38.28 CG 35.82 CD 38.5 CE 45.39 NZ 48.83 H 44.32 HA 42.46 HB2 45.94 HB3 45.94 HG2 42.99 HG3 42.99 HD2 46.2 HD3 46.2 HE2 54.47 HE3 54.47 HZ1 58.6 HZ2 58.6 HZ3 58.6
A THR E 42 -126.5 132.2 N 38.68 CA 36.16 C 39.05 O 36.45 CB 40.86 OG1 41.53 CG2 33.83 H 46.42 HA 43.39 HB 49.03 HG1 49.84 HG21 40.6 HG22 40.6 HG23 40.6
A GLY E 0 -123.6 151.1 N 38.63 CA 31.06 C 36.83 O 42.58 H 46.36 HA2 37.27 HA3 37.27
A THR E 51 -143.4 155.1 N 32.23 CA 40.2 C 38.5 O 41.17 CB 46.77 OG1 45.31 CG2 43.82 H 38.68 HA 48.24 HB 56.13 HG1 54.37 HG21 52.59 HG22 52.59 HG23 52.59
A GLY E 11 -176.7 -175.2 N 40.42 CA 34.57 C 35.33 O 46.21 H 48.5 HA2 41.48 HA3 41.48
A VAL E 85 -133.0 163.5 N 35.98 CA 36.92 C 42.69 O 41.62 CB 38.38 CG1 38.56 CG2 42.55 H 43.17 HA 44.3 HB 46.06 HG11 46.28 HG12 46.28 HG13 46.28 HG21 51.06 HG22 51.06 HG23 51.06
A GLY E 9 -160.6 175.9 N 39.8 CA 38.92 C 43.75 O 42.86 H 47.76 HA2 46.7 HA3 46.7
A VAL E 56 -119.9 147.2 N 43.6 CA 47.94 C 44.58 O 39.71 CB 46.11 CG1 44.46 CG2 47.61 H 52.32 HA 57.53 HB 55.33 HG11 53.35 HG12 53.35 HG13 53.35 HG21 57.13 HG22 57.13 HG23 57.13
A ARG E 9 -131.1 136.3 N 47.1 CA 42.93 C 44.44 O 43.98 CB 43.57 CG 56.39 CD 60.57 NE 53.57 CZ 42.54 NH1 49.58 NH2 42.2 H 56.52 HA 51.52 HB2 52.29 HB3 52.29 HG2 67.67 HG3 67.67 HD2 72.68 HD3 72.68 HE 64.28 HH11 59.49 HH12 59.49 HH21 50.64 HH22 50.64
A TRP E 91 -131.4 120.0 N 48.04 CA 51.0 C 47.58 O 50.17 CB 62.61 CG 84.21 CD1 91.94 CD2 95.76 NE1 99.01 CE2 106.29 CE3 93.51 CZ2 113.81 CZ3 108.77 CH2 114.04 H 57.65 HA 61.2 HB2 75.13 HB3 75.13 HD1 110.33 HE1 118.82 HE3 112.22 HZ2 136.57 HZ3 130.53 HH2 136.85
A GLU E 55 -76.6 73.1 N 56.85 CA 74.99 C 85.64 O 98.41 CB 75.38 CG 64.22 CD 82.76 OE1 69.6 OE2 105.35 H 68.22 HA 89.98 HB2 90.45 HB3 90.45 HG2 77.06 HG3 77.06
A SER E 9 -70.3 164.4 N 85.44 CA 86.73 C 81.13 O 68.99 CB 81.37 OG 64.18 H 102.53 HA 104.08 HB2 97.65 HB3 97.65 HG 77.01
A PRO T 128 -54.1 -32.9 N 89.94 CA 102.39 C 105.86 O 104.78 CB 106.25 CG 100.31 CD 96.16 HA 122.86 HB2 127.5 HB3 127.5 HG2 120.38 HG3 120.38 HD2 115.39 HD3 115.39
A VAL T 121 -95.5 15.9 N 110.49 CA 109.31 C 106.37 O 100.41 CB 99.83 CG1 104.75 CG2 78.87 H 132.58 HA 131.18 HB 119.8 HG11 125.7 HG12 125.7 HG13 125.7 HG21 94.65 HG22 94.65 HG23 94.65
A GLY E 5 109.2 174.4 N 108.61 CA 102.24 C 82.99 O 71.9 H 130.33 HA2 122.69 HA3 122.69
A PRO E 22 -63.9 128.3 N 68.41 CA 65.09 C 63.6 O 77.61 CB 61.79 CG 75.07 CD 69.1 HA 78.11 HB2 74.15 HB3 74.15 HG2 90.08 HG3 90.08 HD2 82.93 HD3 82.93
A ILE E 50 -113.1 128.5 N 54.1 CA 46.57 C 49.31 O 46.8 CB 46.25 CG1 63.66 CG2 42.57 CD1 71.83 H 64.92 HA 55.88 HB 55.5 HG12 76.4 HG13 76.4 HG21 51.08 HG22 51.08 HG23 51.08 HD11 86.2 HD12 86.2 HD13 86.2
A LYS E 25 -113.5 152.3 N 51.17 CA 54.4 C 53.27 O 53.91 CB 57.92 CG 62.69 CD 67.68 CE 64.82 NZ 30.62 H 61.4 HA 65.28 HB2 69.51 HB3 69.51 HG2 75.23 HG3 75.23 HD2 81.22 HD3 81.22 HE2 77.78 HE3 77.78 HZ1 36.74 HZ2 36.74 HZ3 36.74
A LEU E 48 -142.1 116.2 N 53.72 CA 44.79 C 35.42 O 44.92 CB 40.69 CG 45.25 CD1 64.87 CD2 58.19 H 64.46 HA 53.75 HB2 48.83 HB3 48.83 HG 54.3 HD11 77.84 HD12 77.84 HD13 77.84 HD21 69.83 HD22 69.83 HD23 69.83
A ASP E 1 -120.0 139.5 N 35.9 CA 38.81 C 39.72 O 36.26 CB 35.91 CG 39.82 OD1 46.36 OD2 46.02 H 43.08 HA 46.58 HB2 43.09 HB3 43.09
A PHE E 79 -114.1 141.0 N 34.94 CA 34.99 C 41.87 O 37.12 CB 38.41 CG 45.87 CD1 42.13 CD2 54.74 CE1 39.64 CE2 53.73 CZ 52.46 H 41.93 HA 41.99 HB2 46.1 HB3 46.1 HD1 50.56 HD2 65.69 HE1 47.56 HE2 64.48 HZ 62.95
A ALA E 2 -154.7 146.8 N 34.92 CA 33.22 C 36.25 O 34.93 CB 39.63 H 41.9 HA 39.86 HB1 47.56 HB2 47.56 HB3 47.56
A VAL E 61 -131.0 152.0 N 37.28 CA 39.38 C 35.83 O 39.68 CB 39.73 CG1 41.45 CG2 42.72 H 44.74 HA 47.26 HB 47.67 HG11 49.74 HG12 49.74 HG13 49.74 HG21 51.26 HG22 51.26 HG23 51.26
A PRO E 17 -72.4 140.5 N 38.36 CA 52.33 C 57.5 O 60.86 CB 42.94 CG 45.98 CD 38.26 HA 62.79 HB2 51.53 HB3 51.53 HG2 55.17 HG3 55.17 HD2 45.92 HD3 45.92
A VAL S 60 -101.2 128.1 N 49.25 CA 53.94 C 55.06 O 47.86 CB 49.57 CG1 53.4 CG2 45.98 H 59.1 HA 64.73 HB 59.49 HG11 64.08 HG12 64.08 HG13 64.08 HG21 55.17 HG22 55.17 HG23 55.17
A ALA S 106 52.5 52.8 N 55.67 CA 43.13 C 52.91 O 53.74 CB 39.66 H 66.8 HA 51.76 HB1 47.59 HB2 47.59 HB3 47.59
A ASP - 27 -129.9 105.7 N 49.26 CA 53.7 C 53.62 O 55.65 CB 54.01 CG 57.95 OD1 60.81 OD2 54.42 H 59.11 HA 64.44 HB2 64.81 HB3 64.81
A LYS T 195 -64.5 -18.4 N 59.34 CA 68.88 C 66.4 O 76.18 CB 81.69 CG 94.61 CD 96.79 CE 95.21 NZ 98.6 H 71.21 HA 82.66 HB2 98.02 HB3 98.02 HG2 113.54 HG3 113.54 HD2 116.15 HD3 116.15 HE2 114.25 HE3 114.25 HZ1 118.32 HZ2 118.32 HZ3 118.32
A ASP T 96 -97.0 -21.9 N 63.69 CA 66.11 C 67.65 O 62.82 CB 76.68 CG 74.6 OD1 80.29 OD2 76.27 H 76.43 HA 79.33 HB2 92.02 HB3 92.02
A GLU - 76 -126.8 131.7 N 67.77 CA 66.58 C 66.55 O 64.92 CB 55.78 CG 64.64 CD 76.95 OE1 84.65 OE2 89.96 H 81.32 HA 79.9 HB2 66.94 HB3 66.94 HG2 77.57 HG3 77.57
A HIS - 164 -139.0 167.5 N 68.94 CA 80.56 C 69.41 O 64.39 CB 100.27 CG 115.24 ND1 121.94 CD2 108.47 CE1 114.31 NE2 102.92 H 82.72 HA 96.67 HB2 120.32 HB3 120.32 HD2 130.16 HE1 137.17 HE2 123.51
A GLY S 35 96.7 149.4 N 60.32 CA 57.58 C 53.54 O 50.53 H 72.39 HA2 69.1 HA3 69.1
A LEU - 96 -78.4 135.5 N 55.64 CA 44.54 C 42.9 O 41.65 CB 49.58 CG 57.5 CD1 61.99 CD2 65.39 H 66.77 HA 53.45 HB2 59.5 HB3 59.5 HG 69.0 HD11 74.39 HD12 74.39 HD13 74.39 HD21 78.46 HD22 78.46 HD23 78.46
A GLN E 26 -110.0 141.5 N 33.64 CA 37.7 C 37.4 O 41.25 CB 36.99 CG 40.75 CD 43.92 OE1 44.83 NE2 40.36 H 40.37 HA 45.24 HB2 44.39 HB3 44.39 HG2 48.9 HG3 48.9 HE21 48.43 HE22 48.43
A PHE E 66 -131.5 157.6 N 39.97 CA 45.19 C 39.12 O 35.78 CB 51.3 CG 49.85 CD1 60.99 CD2 64.78 CE1 61.14 CE2 75.49 CZ 76.68 H 47.96 HA 54.23 HB2 61.56 HB3 61.56 HD1 73.19 HD2 77.74 HE1 73.37 HE2 90.59 HZ 92.01
A TYR E 3 -139.8 140.8 N 39.97 CA 42.35 C 54.31 O 38.73 CB 37.78 CG 35.42 CD1 36.43 CD2 43.49 CE1 45.41 CE2 36.42 CZ 46.82 OH 37.44 H 47.96 HA 50.82 HB2 45.33 HB3 45.33 HD1 43.71 HD2 52.18 HE1 54.49 HE2 43.71 HH 44.92
A ILE E 70 -142.8 136.3 N 36.01 CA 41.7 C 46.02 O 46.44 CB 51.06 CG1 51.97 CG2 69.33 CD1 48.55 H 43.21 HA 50.04 HB 61.27 HG12 62.36 HG13 62.36 HG21 83.2 HG22 83.2 HG23 83.2 HD11 58.26 HD12 58.26 HD13 58.26
A GLY E 12 174.0 -164.8 N 44.09 CA 57.13 C 53.36 O 53.04 H 52.9 HA2 68.55 HA3 68.55
A LEU - 93 -110.3 34.6 N 52.63 CA 72.29 C 89.37 O 98.21 CB 84.93 CG 106.85 CD1 111.66 CD2 112.72 H 63.15 HA 86.75 HB2 101.92 HB3 101.92 HG 128.22 HD11 133.99 HD12 133.99 HD13 133.99 HD21 135.27 HD22 135.27 HD23 135.27
A GLY - 25 -41.0 140.2 N 103.76 CA 120.38 C 130.76 O 118.83 H 124.51 HA2 144.45 HA3 144.45
A PRO - 78 -92.1 -18.6 N 148.63 CA 145.29 C 130.95 O 143.05 CB 147.51 CG 150.22 CD 153.07 HA 174.35 HB2 177.01 HB3 177.01 HG2 180.26 HG3 180.26 HD2 183.68 HD3 183.68
A GLU - 18 69.0 -65.3 N 106.14 CA 90.84 C 74.98 O 84.25 CB 91.79 CG 95.44 CD 93.25 OE1 89.99 OE2 74.28 H 127.37 HA 109.0 HB2 110.15 HB3 110.15 HG2 114.53 HG3 114.53
A LEU - 49 -70.0 360.0 N 69.06 CA 78.34 C 89.76 O 67.43 CB 59.82 CG 49.77 CD1 55.88 CD2 55.94 OXT 99.71 H 82.87 HA 94.01 HB2 71.78 HB3 71.78 HG 59.72 HD11 67.05 HD12 67.05 HD13 67.05 HD21 67.13 HD22 67.13 HD23 67.13
