A GLN - 157 360.0 53.4 N 171.08 CA 162.62 C 159.13 O 154.96 CB 163.71 CG 167.03 CD 168.69 OE1 167.81 NE2 170.19
A ALA H 11 -75.0 -16.0 N 162.9 CA 164.19 C 158.93 O 154.49 CB 167.21
A LEU H 21 -68.6 -35.8 N 158.75 CA 154.14 C 151.29 O 147.87 CB 155.04 CG 161.04 CD1 161.35 CD2 160.09
A LYS H 154 -65.7 -39.0 N 152.77 CA 147.86 C 147.65 O 143.71 CB 148.88 CG 145.49 CD 141.6 CE 134.55 NZ 132.12
A LYS H 130 -79.1 -50.6 N 152.26 CA 153.05 C 149.94 O 147.75 CB 157.59 CG 160.48 CD 168.49 CE 170.14 NZ 168.78
A TYR H 27 -101.0 2.6 N 148.62 CA 145.22 C 139.38 O 139.71 CB 151.42 CG 157.46 CD1 157.85 CD2 162.32 CE1 164.14 CE2 168.4 CZ 169.77 OH 176.76
A THR E 16 -135.4 155.9 N 136.21 CA 129.18 C 121.75 O 119.02 CB 131.33 OG1 134.39 CG2 136.83
A ILE E 83 -106.4 132.6 N 119.15 CA 116.82 C 115.9 O 116.2 CB 109.87 CG1 113.69 CG2 103.05 CD1 111.58
A ASP E 21 -89.3 111.8 N 113.22 CA 109.17 C 100.1 O 100.79 CB 115.53 CG 120.7 OD1 120.76 OD2 124.05
A LEU H 11 -79.4 -35.4 N 93.92 CA 85.03 C 88.22 O 90.29 CB 75.49 CG 74.47 CD1 73.71 CD2 73.7
A THR H 5 -66.6 -32.3 N 90.29 CA 90.68 C 98.79 O 99.69 CB 85.51 OG1 95.33 CG2 72.18
A GLU H 95 -66.9 -42.3 N 103.7 CA 111.03 C 106.2 O 108.48 CB 122.84 CG 130.72 CD 136.99 OE1 139.4 OE2 138.73
A ARG H 95 -65.2 -45.7 N 99.41 CA 90.42 C 86.53 O 89.76 CB 85.02 CG 90.88 CD 97.75 NE 106.57 CZ 114.06 NH1 118.12 NH2 113.75
A ALA H 10 -62.0 -36.1 N 85.4 CA 85.58 C 89.1 O 87.16 CB 86.32
A GLU H 100 -63.1 -34.3 N 95.74 CA 104.29 C 107.53 O 114.12 CB 113.01 CG 122.03 CD 132.78 OE1 133.36 OE2 139.61
A GLN T 86 -85.3 -0.4 N 102.23 CA 100.94 C 99.35 O 97.77 CB 105.38 CG 117.43 CD 124.05 OE1 119.58 NE2 131.86
A GLY T 15 67.2 23.7 N 101.45 CA 97.09 C 90.25 O 92.92
A LYS - 124 -93.9 4.2 N 84.34 CA 79.39 C 70.63 O 68.11 CB 90.66 CG 104.92 CD 115.23 CE 117.42 NZ 119.69
A LEU S 7 -96.3 135.0 N 71.85 CA 76.41 C 76.94 O 74.91 CB 78.96 CG 79.16 CD1 73.8 CD2 80.95
A ASP - 65 -66.7 147.1 N 77.5 CA 76.96 C 68.34 O 68.61 CB 82.83 CG 88.83 OD1 92.41 OD2 88.41
A PRO - 49 -57.4 149.0 N 58.85 CA 54.91 C 61.02 O 70.46 CB 50.57 CG 56.54 CD 57.02
A VAL - 36 -112.9 114.6 N 58.5 CA 57.95 C 61.58 O 67.52 CB 56.99 CG1 54.06 CG2 56.54
A ILE - 45 -106.0 123.9 N 59.47 CA 60.23 C 66.9 O 70.73 CB 53.98 CG1 57.59 CG2 47.41 CD1 59.51
A GLY S 52 82.8 -151.2 N 69.97 CA 70.66 C 69.59 O 67.81
A ARG - 32 57.0 28.6 N 70.41 CA 70.72 C 67.34 O 64.17 CB 75.15 CG 78.68 CD 79.29 NE 77.91 CZ 72.75 NH1 71.24 NH2 72.02
A ASP H 73 -63.6 -50.4 N 72.08 CA 85.01 C 92.09 O 94.07 CB 92.92 CG 104.05 OD1 105.54 OD2 111.21
A GLU H 151 -64.9 -40.5 N 94.06 CA 95.48 C 87.05 O 89.35 CB 106.53 CG 120.04 CD 128.54 OE1 131.48 OE2 130.94
A GLU H 40 -65.6 -42.8 N 80.95 CA 77.56 C 73.44 O 72.77 CB 76.96 CG 80.33 CD 79.23 OE1 76.74 OE2 80.91
A ILE H 5 -63.6 -48.3 N 73.11 CA 72.01 C 75.3 O 74.47 CB 61.17 CG1 53.66 CG2 62.68 CD1 55.32
A ARG H 133 -57.7 -41.4 N 76.09 CA 78.9 C 79.11 O 79.52 CB 83.3 CG 93.73 CD 104.09 NE 111.81 CZ 115.35 NH1 115.52 NH2 114.94
A ARG H 85 -62.0 -50.4 N 81.11 CA 87.96 C 83.15 O 84.35 CB 97.69 CG 108.77 CD 119.78 NE 132.17 CZ 144.51 NH1 147.63 NH2 150.73
A THR H 3 -56.1 -42.5 N 80.14 CA 83.93 C 86.28 O 85.41 CB 85.77 OG1 86.22 CG2 88.7
A ILE H 11 -61.1 -45.1 N 89.13 CA 91.03 C 97.11 O 99.68 CB 88.52 CG1 90.56 CG2 90.6 CD1 92.28
A GLN H 103 -58.7 -36.3 N 99.68 CA 104.17 C 106.78 O 111.93 CB 108.17 CG 119.36 CD 127.73 OE1 129.74 NE2 131.66
A VAL H 0 -81.6 -29.1 N 106.03 CA 108.79 C 109.79 O 110.72 CB 93.66 CG1 82.6 CG2 91.01
A LEU H 7 -63.9 -32.9 N 107.64 CA 106.88 C 109.53 O 108.33 CB 99.29 CG 96.32 CD1 101.41 CD2 90.61
A GLN T 104 -93.4 7.1 N 111.09 CA 115.88 C 114.84 O 115.36 CB 120.97 CG 123.53 CD 125.37 OE1 126.74 NE2 123.94
A ARG - 53 -53.3 137.4 N 114.36 CA 115.15 C 119.45 O 122.04 CB 111.98 CG 111.99 CD 111.92 NE 115.4 CZ 114.84 NH1 112.92 NH2 115.96
A ARG S 190 -61.7 -40.7 N 120.25 CA 128.67 C 136.72 O 113.37 CB 132.75 CG 134.35 CD 128.68 NE 131.86 CZ 132.06 NH1 131.18 NH2 131.52
A THR S 71 -144.4 153.2 N 137.03 CA 137.52 C 130.95 O 126.07 CB 145.2 OG1 147.59 CG2 151.46
A LYS S 105 58.2 39.1 N 132.58 CA 130.68 C 126.12 O 119.9 CB 133.86 CG 138.21 CD 140.87 CE 139.34 NZ 131.63
A ASN - 39 -58.2 -64.2 N 129.3 CA 133.54 C 128.83 O 130.31 CB 142.71 CG 142.98 OD1 142.86 ND2 142.56
A ASN - 8 -55.0 147.7 N 123.57 CA 117.36 C 116.11 O 119.39 CB 121.91 CG 129.12 OD1 128.22 ND2 135.76
A PRO E 0 -119.5 156.1 N 111.72 CA 103.45 C 100.35 O 96.64 CB 98.42 CG 101.6 CD 109.86
A VAL E 0 -121.0 125.9 N 103.79 CA 106.13 C 103.48 O 105.5 CB 111.37 CG1 109.95 CG2 115.31
A LEU E 1 -83.1 122.2 N 98.02 CA 91.34 C 95.33 O 97.05 CB 85.14 CG 81.07 CD1 80.28 CD2 77.92
A ILE E 4 -127.6 116.0 N 97.82 CA 99.76 C 100.66 O 100.23 CB 94.19 CG1 97.93 CG2 89.12 CD1 103.26
A GLY - 11 -179.5 158.8 N 99.79 CA 95.43 C 95.6 O 96.95
A GLU - 70 -64.5 146.4 N 95.93 CA 99.38 C 93.07 O 90.48 CB 105.74 CG 115.37 CD 121.61 OE1 121.81 OE2 127.43
A PRO T 78 -51.2 137.2 N 93.68 CA 92.49 C 88.78 O 91.8 CB 92.39 CG 95.92 CD 96.58
A GLY T 23 92.5 7.9 N 82.11 CA 79.54 C 77.86 O 82.31
A VAL S 3 -95.1 3.9 N 70.74 CA 66.13 C 65.34 O 63.49 CB 69.23 CG1 72.16 CG2 73.72
A GLY - 20 79.2 48.4 N 68.2 CA 71.93 C 72.95 O 78.81
A LYS H 16 -69.5 -49.3 N 64.4 CA 61.17 C 63.38 O 65.91 CB 57.03 CG 72.52 CD 74.82 CE 74.4 NZ 69.73
A THR H 52 -57.3 -36.2 N 65.68 CA 66.23 C 63.37 O 59.66 CB 62.36 OG1 69.96 CG2 56.43
A ALA H 34 -59.2 -40.4 N 62.06 CA 59.92 C 59.32 O 64.7 CB 57.7
A ILE H 1 -65.7 -42.7 N 56.8 CA 61.27 C 66.21 O 70.83 CB 63.69 CG1 61.86 CG2 63.81 CD1 60.69
A VAL H 4 -58.8 -49.1 N 67.79 CA 68.98 C 69.27 O 67.75 CB 66.84 CG1 64.77 CG2 68.8
A GLU H 46 -62.5 -35.0 N 66.91 CA 67.35 C 64.53 O 66.43 CB 68.55 CG 74.77 CD 80.69 OE1 80.72 OE2 85.8
A GLY H 3 -64.6 -41.0 N 59.7 CA 60.94 C 69.15 O 75.99
A LEU H 4 -60.6 -43.7 N 67.21 CA 65.57 C 68.48 O 69.93 CB 63.3 CG 67.73 CD1 75.0 CD2 62.48
A ALA H 0 -58.8 -45.7 N 66.36 CA 65.31 C 60.85 O 60.02 CB 56.04
A GLN H 40 -62.7 -36.8 N 61.45 CA 66.65 C 61.93 O 62.17 CB 71.49 CG 74.9 CD 78.85 OE1 81.94 NE2 79.43
A ARG H 49 -69.3 -38.3 N 57.78 CA 61.5 C 69.13 O 71.95 CB 60.76 CG 59.17 CD 64.94 NE 66.27 CZ 69.24 NH1 71.19 NH2 68.61
A ILE H 9 -62.4 -46.5 N 72.88 CA 73.17 C 75.55 O 76.15 CB 70.07 CG1 67.43 CG2 73.32 CD1 68.55
A ILE H 29 -63.5 -40.4 N 79.71 CA 86.28 C 87.83 O 90.23 CB 88.08 CG1 89.95 CG2 89.22 CD1 93.25
A ASN H 80 -77.2 -16.3 N 86.65 CA 85.24 C 81.16 O 86.28 CB 87.58 CG 89.92 OD1 90.8 ND2 88.87
A GLY T 30 78.8 24.9 N 75.86 CA 81.73 C 83.01 O 84.44
A GLU - 125 -88.7 10.4 N 82.79 CA 87.67 C 92.42 O 94.46 CB 90.22 CG 98.42 CD 102.64 OE1 103.28 OE2 102.96
A VAL S 3 -107.5 155.1 N 91.82 CA 83.84 C 79.16 O 82.65 CB 80.87 CG1 79.56 CG2 80.85
A PRO - 59 -53.8 152.9 N 79.35 CA 88.45 C 97.24 O 98.86 CB 70.13 CG 67.54 CD 77.63
A GLU G 148 -51.7 -29.5 N 100.63 CA 103.06 C 101.56 O 98.24 CB 109.61 CG 111.24 CD 111.55 OE1 115.18 OE2 110.19
A GLY G 43 -63.0 -31.5 N 103.67 CA 108.09 C 107.58 O 112.28
A LEU G 2 -97.1 0.1 N 99.87 CA 94.58 C 94.38 O 97.6 CB 92.79 CG 93.45 CD1 89.01 CD2 95.84
A LYS T 82 -69.4 129.1 N 93.3 CA 91.44 C 96.64 O 105.23 CB 89.78 CG 86.07 CD 87.37 CE 84.81 NZ 68.9
A GLY T 55 84.0 -2.1 N 95.17 CA 103.75 C 107.02 O 114.05
A ARG - 65 -69.8 155.4 N 102.26 CA 76.66 C 88.11 O 80.89 CB 111.55 CG 116.11 CD 123.79 NE 128.63 CZ 129.59 NH1 128.72 NH2 129.74
A ARG E 92 -116.3 137.9 N 94.56 CA 95.46 C 93.35 O 93.72 CB 103.66 CG 113.0 CD 128.46 NE 136.99 CZ 146.5 NH1 151.2 NH2 148.87
A VAL E 2 -111.2 118.3 N 92.5 CA 91.92 C 94.93 O 93.14 CB 86.75 CG1 83.86 CG2 85.64
A LEU E 2 -120.0 124.2 N 101.92 CA 108.94 C 109.23 O 113.23 CB 115.2 CG 116.66 CD1 116.2 CD2 122.88
A ALA E 15 -88.4 119.6 N 104.97 CA 107.42 C 119.76 O 123.92 CB 100.35
A LEU E 8 -73.8 125.0 N 124.23 CA 127.59 C 123.27 O 118.92 CB 133.31 CG 136.82 CD1 139.31 CD2 138.02
A ASP - 46 -96.8 128.1 N 125.92 CA 129.22 C 134.39 O 134.63 CB 131.56 CG 141.12 OD1 147.43 OD2 142.21
A GLY H 51 -71.0 -50.8 N 138.92 CA 142.71 C 151.18 O 157.0
A ALA H 25 -66.6 -18.7 N 150.49 CA 152.87 C 158.0 O 163.07 CB 149.19
A LEU H 1 -75.5 -42.0 N 157.82 CA 165.57 C 171.89 O 178.63 CB 162.37 CG 155.7 CD1 154.4 CD2 159.55
A VAL - 97 -92.4 7.1 N 166.89 CA 167.36 C 162.17 O 164.02 CB 129.08 CG1 137.26 CG2 122.39
A ALA - 102 -57.4 360.0 N 154.45 CA 148.18 C 152.67 O 154.66 CB 143.03
A GLY - 78 360.0 -17.2 N 195.18 CA 199.97 C 196.69 O 195.0
A GLU H 127 -68.2 -29.5 N 195.53 CA 192.96 C 189.24 O 188.26 CB 189.52 CG 193.06 CD 203.37 OE1 206.68 OE2 208.7
A PHE H 40 -57.4 -55.5 N 187.9 CA 182.05 C 186.77 O 184.32 CB 177.52 CG 168.26 CD1 157.41 CD2 169.18 CE1 150.18 CE2 162.81 CZ 153.92
A GLU H 103 -63.6 -40.5 N 193.7 CA 197.89 C 201.36 O 202.27 CB 204.81 CG 203.93 CD 206.67 OE1 212.51 OE2 203.18
A GLU H 131 -67.8 -47.2 N 202.95 CA 201.43 C 194.55 O 194.15 CB 202.85 CG 203.05 CD 207.27 OE1 211.78 OE2 206.72
A ARG H 67 -60.7 -46.6 N 187.88 CA 177.02 C 169.2 O 167.49 CB 172.01 CG 174.81 CD 172.25 NE 173.32 CZ 171.08 NH1 167.06 NH2 173.41
A LEU H 7 -61.0 -35.0 N 164.12 CA 155.52 C 158.56 O 154.71 CB 152.41 CG 146.13 CD1 138.31 CD2 144.68
A LYS H 101 -63.1 -45.0 N 166.88 CA 171.22 C 170.64 O 169.78 CB 174.12 CG 172.84 CD 177.51 CE 180.75 NZ 189.09
A GLY H 24 -60.9 -39.3 N 169.98 CA 167.19 C 159.85 O 159.94
A VAL H 0 -59.2 -50.8 N 153.59 CA 146.16 C 147.45 O 146.9 CB 141.65 CG1 135.87 CG2 140.52
A LEU H 26 -61.5 -35.0 N 150.54 CA 150.75 C 155.24 O 153.01 CB 154.47 CG 151.23 CD1 154.69 CD2 143.77
A ASN H 86 -59.5 -54.4 N 162.52 CA 166.92 C 162.93 O 161.4 CB 170.62 CG 175.89 OD1 179.56 ND2 177.49
A ASP H 20 -58.0 -35.5 N 160.58 CA 156.58 C 151.41 O 148.68 CB 154.78 CG 161.53 OD1 166.21 OD2 162.37
A LEU H 11 -74.9 -25.1 N 150.14 CA 145.86 C 150.44 O 146.5 CB 143.05 CG 140.82 CD1 140.54 CD2 134.56
A ALA H 37 -86.1 -10.1 N 158.6 CA 162.17 C 167.13 O 171.35 CB 166.17
A LYS H 148 -70.9 -47.5 N 168.17 CA 172.76 C 172.46 O 174.3 CB 171.09 CG 175.83 CD 173.78 CE 178.01 NZ 176.2
A GLN H 123 -88.6 -14.9 N 171.27 CA 173.9 C 175.86 O 174.33 CB 169.38 CG 167.95 CD 175.12 OE1 176.76 NE2 178.32
A GLU T 150 48.9 71.9 N 178.33 CA 177.19 C 168.38 O 169.7 CB 182.83 CG 183.96 CD 189.46 OE1 190.94 OE2 192.32
A GLY S 35 109.7 -6.8 N 159.47 CA 153.42 C 149.72 O 147.92
A ASN S 54 -89.4 -10.6 N 147.4 CA 138.37 C 125.78 O 124.76 CB 142.09 CG 137.1 OD1 137.22 ND2 132.37
A VAL E 14 -118.1 125.8 N 116.72 CA 107.72 C 102.67 O 105.47 CB 114.7 CG1 114.74 CG2 117.97
A ILE E 2 -106.5 125.5 N 99.79 CA 98.5 C 99.79 O 98.06 CB 88.88 CG1 88.87 CG2 81.83 CD1 81.93
A LEU E 4 -92.9 142.3 N 103.55 CA 107.22 C 106.32 O 105.93 CB 116.07 CG 121.13 CD1 121.65 CD2 128.81
A PHE E 8 -115.4 124.8 N 104.1 CA 98.4 C 97.95 O 98.4 CB 94.47 CG 93.86 CD1 94.78 CD2 92.8 CE1 91.55 CE2 90.86 CZ 89.69
A ILE E 1 -114.4 107.3 N 99.34 CA 103.0 C 96.2 O 92.86 CB 111.18 CG1 114.62 CG2 113.67 CD1 96.26
A ASP E 55 -81.2 146.4 N 96.33 CA 103.57 C 114.11 O 122.38 CB 105.12 CG 104.04 OD1 104.07 OD2 102.08
A ALA T 23 53.9 55.6 N 114.19 CA 116.28 C 114.95 O 116.01 CB 117.1
A LEU H 8 -50.9 -28.3 N 111.46 CA 118.01 C 128.28 O 134.8 CB 117.0 CG 122.02 CD1 96.26 CD2 121.55
A HIS H 34 -61.4 -33.5 N 128.81 CA 134.08 C 134.46 O 139.08 CB 136.77 CG 135.5 ND1 131.08 CD2 136.1 CE1 126.8 NE2 130.28
A THR H 53 -63.3 -35.8 N 131.23 CA 135.9 C 144.96 O 151.1 CB 130.38 OG1 126.3 CG2 127.07
A VAL - 23 -121.1 112.5 N 155.92 CA 159.42 C 155.76 O 153.95 CB 158.01 CG1 163.9 CG2 154.66
A GLY - 60 149.8 360.0 N 155.09 CA 152.71 C 158.22 O 167.83
A ASP - 153 360.0 17.8 N 144.53 CA 155.14 C 162.5 O 170.22 CB 156.15 CG 152.11 OD1 149.96 OD2 151.64
A ALA - 48 57.7 65.3 N 159.43 CA 162.72 C 164.82 O 150.09 CB 168.93
A GLY - 7 -68.6 121.5 N 159.07 CA 140.95 C 174.64 O 139.35
A ASN S 129 -82.9 -34.7 N 179.55 CA 181.23 C 181.87 O 182.77 CB 186.34 CG 184.0 OD1 182.34 ND2 183.51
A LEU H 8 -71.3 -26.8 N 156.31 CA 147.41 C 147.47 O 141.98 CB 141.65 CG 135.95 CD1 130.98 CD2 136.02
A LYS H 115 -52.2 -48.0 N 154.82 CA 158.23 C 162.52 O 157.41 CB 161.37 CG 156.03 CD 155.48 CE 151.08 NZ 152.13
A PRO H 57 -59.8 -47.1 N 172.55 CA 180.65 C 176.14 O 144.27 CB 187.58 CG 161.5 CD 175.63
A ALA H 6 -56.1 -25.9 N 172.39 CA 168.81 C 167.5 O 162.85 CB 163.14
A LEU H 31 -68.0 -54.8 N 172.13 CA 172.43 C 175.69 O 173.27 CB 176.67 CG 177.09 CD1 181.55 CD2 169.03
A ALA H 90 -75.6 -35.1 N 180.91 CA 182.21 C 183.14 O 184.24 CB 188.19
A ARG H 178 -70.7 -27.8 N 182.35 CA 180.1 C 171.91 O 174.54 CB 180.52 CG 185.45 CD 186.8 NE 190.88 CZ 192.14 NH1 191.68 NH2 195.05
A GLY T 42 86.2 18.9 N 161.93 CA 151.98 C 149.14 O 146.22
A GLU S 78 -69.7 -29.1 N 151.77 CA 152.31 C 146.16 O 144.15 CB 159.96 CG 169.32 CD 174.39 OE1 173.68 OE2 179.25
A LEU - 8 -132.2 143.6 N 144.68 CA 140.21 C 135.56 O 136.8 CB 140.63 CG 135.3 CD1 131.96 CD2 138.67
A HIS E 26 -121.4 113.9 N 129.48 CA 124.54 C 117.72 O 118.48 CB 124.46 CG 125.13 ND1 129.25 CD2 125.28 CE1 130.42 NE2 128.94
A CYS E 0 -126.7 161.4 N 112.21 CA 106.97 C 104.2 O 105.08 CB 108.18 SG 107.15
A VAL E 5 -121.4 124.6 N 99.56 CA 94.33 C 95.2 O 91.27 CB 88.29 CG1 86.64 CG2 87.43
A GLY E 0 -86.4 150.6 N 99.54 CA 99.88 C 100.29 O 99.21
A ALA E 0 -130.7 108.2 N 102.98 CA 97.89 C 97.92 O 98.32 CB 94.2
A THR E 5 -145.8 153.7 N 100.16 CA 106.75 C 113.88 O 116.85 CB 108.71 OG1 110.88 CG2 107.56
A THR - 31 -70.8 150.6 N 118.5 CA 119.61 C 128.07 O 130.59 CB 117.7 OG1 120.97 CG2 114.99
A LEU H 53 -62.1 -41.0 N 135.7 CA 150.18 C 161.16 O 160.58 CB 151.91 CG 149.99 CD1 152.79 CD2 142.73
A ASP H 116 -46.7 -53.1 N 169.7 CA 179.1 C 178.36 O 182.86 CB 185.11 CG 185.13 OD1 184.31 OD2 185.29
A GLU H 50 -75.2 -17.5 N 172.74 CA 170.59 C 171.4 O 178.89 CB 163.42 CG 162.13 CD 154.32 OE1 148.59 OE2 154.78
A TYR H 21 -85.0 -15.4 N 164.46 CA 162.18 C 166.54 O 170.37 CB 153.95 CG 152.21 CD1 152.11 CD2 149.73 CE1 151.35 CE2 148.41 CZ 148.71 OH 147.46
A ARG H 118 -72.6 -39.0 N 165.41 CA 168.59 C 166.6 O 168.42 CB 169.28 CG 162.16 CD 162.08 NE 156.87 CZ 147.8 NH1 143.43 NH2 144.74
A GLN H 102 -64.9 -41.4 N 162.17 CA 160.31 C 161.55 O 169.17 CB 152.86 CG 151.77 CD 143.69 OE1 143.78 NE2 137.56
A TYR H 60 -77.6 -34.3 N 157.87 CA 163.83 C 160.67 O 167.43 CB 173.03 CG 190.63 CD1 201.62 CD2 196.54 CE1 209.62 CE2 204.67 CZ 211.91 OH 218.3
A ILE - 138 -79.8 360.0 N 152.94 CA 152.59 C 157.92 O 159.6 CB 146.58 CG1 145.34 CG2 139.57 CD1 119.28
A PHE - 48 360.0 148.3 N 136.42 CA 135.51 C 136.38 O 140.59 CB 139.78 CG 146.77 CD1 142.94 CD2 156.55 CE1 145.34 CE2 158.25 CZ 152.54
A GLN E 33 -117.2 140.7 N 132.34 CA 129.03 C 123.66 O 117.67 CB 126.68 CG 125.99 CD 132.47 OE1 136.01 NE2 133.83
A LYS E 105 -75.0 121.7 N 126.7 CA 125.8 C 119.46 O 115.78 CB 130.32 CG 132.27 CD 129.87 CE 125.43 NZ 123.84
A VAL E 6 -126.7 112.5 N 120.17 CA 119.47 C 120.92 O 120.39 CB 111.92 CG1 102.22 CG2 115.23
A PHE E 122 -94.5 120.8 N 120.96 CA 119.59 C 110.45 O 107.76 CB 127.3 CG 138.51 CD1 143.94 CD2 144.12 CE1 152.3 CE2 150.36 CZ 154.77
A VAL - 7 -101.0 111.4 N 105.28 CA 99.0 C 99.43 O 107.95 CB 96.74 CG1 88.93 CG2 101.06
A ALA - 64 -75.3 177.8 N 91.11 CA 86.11 C 88.38 O 93.22 CB 83.95
A GLU - 86 -101.4 126.3 N 89.21 CA 84.53 C 77.48 O 79.46 CB 89.42 CG 88.7 CD 92.02 OE1 97.97 OE2 87.35
A PRO - 12 -62.2 147.9 N 71.3 CA 68.35 C 67.4 O 66.96 CB 64.42 CG 63.38 CD 67.23
A SER - 61 -75.6 -178.2 N 67.99 CA 70.38 C 68.27 O 66.49 CB 76.9 OG 77.76
A VAL H 40 -62.3 -44.8 N 69.42 CA 71.55 C 79.23 O 79.08 CB 68.79 CG1 69.37 CG2 63.78
A GLU H 155 -61.2 -48.1 N 84.84 CA 88.67 C 86.5 O 88.07 CB 99.37 CG 111.78 CD 124.71 OE1 128.93 OE2 129.34
A ASP H 79 -56.1 -49.4 N 82.59 CA 82.17 C 75.06 O 69.06 CB 86.99 CG 91.69 OD1 99.03 OD2 87.96
A THR H 0 -57.3 -40.9 N 69.92 CA 65.56 C 64.13 O 70.37 CB 63.7 OG1 67.36 CG2 59.76
A ILE H 18 -62.5 -45.4 N 55.48 CA 51.48 C 53.47 O 47.58 CB 49.44 CG1 40.94 CG2 40.9 CD1 42.73
A ALA H 43 -59.9 -44.0 N 55.28 CA 54.5 C 57.57 O 61.54 CB 48.53
A ILE H 23 -56.9 -49.8 N 53.65 CA 54.48 C 55.73 O 54.17 CB 52.31 CG1 53.62 CG2 50.1 CD1 39.58
A LEU H 9 -64.2 -35.9 N 53.67 CA 53.59 C 64.08 O 71.88 CB 47.96 CG 46.3 CD1 47.17 CD2 45.27
A ARG H 130 -66.9 -32.9 N 60.08 CA 53.46 C 51.41 O 52.91 CB 48.72 CG 50.3 CD 57.64 NE 58.21 CZ 59.25 NH1 63.09 NH2 58.19
A GLY H 31 -70.8 -40.6 N 48.45 CA 50.03 C 54.42 O 57.78
A LEU H 15 -78.7 -7.3 N 52.7 CA 54.13 C 56.17 O 60.89 CB 51.92 CG 53.74 CD1 50.38 CD2 62.98
A LYS H 58 -55.5 -48.1 N 50.76 CA 52.34 C 60.88 O 63.65 CB 55.78 CG 61.04 CD 68.71 CE 77.22 NZ 84.74
A GLU H 67 -66.3 -46.5 N 63.68 CA 65.05 C 61.44 O 62.97 CB 74.92 CG 87.53 CD 93.46 OE1 95.31 OE2 94.41
A ARG H 55 -57.1 -43.8 N 62.24 CA 68.5 C 67.21 O 64.66 CB 71.39 CG 75.65 CD 81.4 NE 91.58 CZ 100.87 NH1 104.28 NH2 103.75
A TYR H 40 -70.7 -36.4 N 67.34 CA 67.71 C 69.85 O 74.57 CB 66.68 CG 73.26 CD1 73.85 CD2 81.88 CE1 77.54 CE2 85.81 CZ 82.57 OH 81.08
A GLU H 21 -60.9 -43.9 N 66.43 CA 61.74 C 62.93 O 61.1 CB 62.18 CG 64.44 CD 71.57 OE1 81.15 OE2 67.22
A LEU H 25 -65.2 -42.6 N 67.98 CA 75.09 C 77.99 O 80.81 CB 81.15 CG 91.28 CD1 95.66 CD2 92.4
A HIS H 129 -62.8 -40.6 N 75.56 CA 74.35 C 71.33 O 68.05 CB 73.97 CG 82.49 ND1 87.14 CD2 88.18 CE1 90.07 NE2 91.65
A HIS H 4 -99.4 3.3 N 69.18 CA 68.97 C 75.79 O 80.38 CB 67.22 CG 71.48 ND1 76.12 CD2 68.78 CE1 75.2 NE2 69.23
A HIS T 112 60.7 28.5 N 74.01 CA 73.87 C 65.85 O 69.19 CB 84.48 CG 91.73 ND1 89.61 CD2 97.73 CE1 91.64 NE2 97.48
A VAL S 1 -132.3 168.5 N 57.91 CA 53.76 C 53.5 O 56.53 CB 49.13 CG1 48.47 CG2 42.59
A GLN E 26 -99.9 142.5 N 54.61 CA 62.81 C 55.68 O 57.43 CB 76.37 CG 90.73 CD 99.92 OE1 97.42 NE2 106.6
A ILE E 8 -119.9 119.4 N 48.65 CA 48.43 C 54.05 O 59.89 CB 47.08 CG1 46.53 CG2 44.29 CD1 38.29
A THR - 34 -75.6 143.7 N 54.52 CA 57.69 C 57.58 O 57.58 CB 60.55 OG1 65.87 CG2 66.68
A ASP H 48 -64.7 -40.1 N 57.5 CA 58.01 C 62.86 O 67.2 CB 59.13 CG 60.65 OD1 56.29 OD2 65.14
A PRO H 65 -50.8 -36.4 N 62.64 CA 61.93 C 57.85 O 55.89 CB 62.19 CG 67.37 CD 65.19
A ALA H 0 -66.4 -35.0 N 53.5 CA 51.32 C 50.82 O 54.84 CB 49.05
A ILE H 2 -65.6 -55.6 N 45.49 CA 46.08 C 50.74 O 53.89 CB 42.65 CG1 45.35 CG2 38.04 CD1 48.52
A VAL H 54 -62.6 -38.5 N 50.71 CA 54.38 C 55.41 O 56.61 CB 49.47 CG1 54.93 CG2 47.7
A ALA H 16 -63.3 -40.5 N 54.12 CA 54.25 C 50.46 O 50.38 CB 53.58
A ALA H 0 -59.6 -56.3 N 48.58 CA 49.44 C 46.83 O 39.94 CB 52.81
A ALA H 0 -58.1 -52.6 N 46.53 CA 46.44 C 50.52 O 53.63 CB 46.99
A THR H 52 -59.8 -55.2 N 52.4 CA 54.74 C 53.87 O 59.68 CB 55.07 OG1 54.64 CG2 58.65
A LEU H 18 -66.9 -35.2 N 49.3 CA 56.13 C 56.26 O 59.46 CB 62.28 CG 61.86 CD1 60.55 CD2 61.43
A SER H 0 -65.0 -38.7 N 54.44 CA 56.95 C 64.48 O 69.31 CB 55.68 OG 59.11
A HIS H 47 -62.8 -50.3 N 66.61 CA 69.0 C 65.44 O 68.61 CB 73.71 CG 74.07 ND1 74.3 CD2 70.47 CE1 70.88 NE2 67.17
A ARG H 62 -67.2 -57.6 N 65.25 CA 68.06 C 64.53 O 65.36 CB 69.64 CG 76.27 CD 84.7 NE 95.71 CZ 102.81 NH1 102.25 NH2 109.18
A TYR H 43 -82.7 -38.3 N 61.04 CA 62.27 C 65.68 O 68.21 CB 64.1 CG 68.49 CD1 70.87 CD2 70.52 CE1 75.7 CE2 73.77 CZ 78.25 OH 83.85
A ILE - 18 -83.8 112.6 N 68.45 CA 71.17 C 74.34 O 69.65 CB 69.88 CG1 71.93 CG2 72.53 CD1 75.99
A ALA - 45 -84.2 -45.0 N 83.15 CA 86.11 C 92.33 O 99.83 CB 85.29
A ASP S 127 -80.4 -31.2 N 91.33 CA 99.05 C 94.49 O 94.8 CB 112.01 CG 127.68 OD1 131.62 OD2 134.17
A ARG S 90 -89.2 177.2 N 90.57 CA 85.61 C 80.45 O 76.17 CB 85.95 CG 89.93 CD 91.27 NE 95.7 CZ 101.49 NH1 109.31 NH2 96.96
A GLN - 36 -127.1 157.8 N 79.33 CA 76.73 C 71.91 O 70.07 CB 77.27 CG 86.23 CD 99.1 OE1 108.66 NE2 101.44
A LEU T 3 -84.2 155.4 N 69.15 CA 63.76 C 65.63 O 74.03 CB 57.63 CG 54.41 CD1 44.79 CD2 47.35
A PRO T 13 -73.9 -13.9 N 57.1 CA 55.68 C 62.08 O 68.57 CB 48.72 CG 50.8 CD 56.29
A ASP H 59 -46.9 -49.2 N 58.07 CA 63.47 C 67.03 O 73.26 CB 67.29 CG 69.48 OD1 71.5 OD2 69.31
A LYS H 7 -65.6 -38.6 N 61.05 CA 60.38 C 59.93 O 59.14 CB 58.95 CG 60.05 CD 62.33 CE 64.21 NZ 63.99
A ALA H 0 -63.0 -43.5 N 57.05 CA 55.68 C 63.55 O 73.21 CB 51.43
A ILE H 20 -61.7 -36.5 N 57.64 CA 56.76 C 61.56 O 64.67 CB 55.04 CG1 43.77 CG2 44.79 CD1 44.89
A ASP H 46 -64.6 -42.2 N 63.15 CA 66.04 C 58.62 O 60.76 CB 78.45 CG 88.12 OD1 91.83 OD2 88.79
A LEU H 0 -57.5 -54.3 N 52.84 CA 55.27 C 62.73 O 69.76 CB 52.16 CG 54.93 CD1 59.6 CD2 53.55
A ILE H 8 -51.4 -52.1 N 58.17 CA 56.23 C 58.08 O 58.73 CB 58.13 CG1 57.64 CG2 44.98 CD1 60.92
A ASP H 49 -54.0 -54.4 N 62.5 CA 68.5 C 64.28 O 62.61 CB 80.91 CG 97.33 OD1 106.83 OD2 99.51
A GLU H 62 -62.0 -43.7 N 63.08 CA 65.37 C 65.65 O 60.72 CB 70.66 CG 84.6 CD 94.16 OE1 96.49 OE2 96.54
A ALA H 0 -59.6 -39.4 N 66.08 CA 62.9 C 65.54 O 67.94 CB 59.16
A ALA H 0 -64.6 -40.8 N 65.82 CA 67.38 C 73.41 O 71.73 CB 63.6
A SER H 56 -60.9 -47.6 N 76.74 CA 76.42 C 76.49 O 77.51 CB 73.59 OG 75.71
A SER H 45 -55.1 -49.0 N 74.29 CA 75.8 C 69.93 O 69.75 CB 80.87 OG 85.63
A ILE H 1 -61.6 -40.3 N 64.83 CA 67.63 C 69.9 O 70.91 CB 74.79 CG1 82.28 CG2 74.32 CD1 85.72
A ARG H 114 -58.1 -53.2 N 72.06 CA 74.36 C 81.22 O 89.86 CB 74.0 CG 80.88 CD 87.12 NE 98.06 CZ 108.69 NH1 109.72 NH2 113.37
A GLN H 92 -61.7 -38.5 N 73.99 CA 77.54 C 74.95 O 75.02 CB 87.38 CG 100.6 CD 110.96 OE1 113.48 NE2 113.35
A ILE H 25 -66.4 -49.3 N 72.25 CA 67.71 C 70.56 O 78.32 CB 62.65 CG1 59.47 CG2 62.4 CD1 60.26
A ASP H 132 -58.9 -41.2 N 70.73 CA 76.21 C 77.0 O 76.94 CB 84.0 CG 85.04 OD1 76.42 OD2 92.16
A SER S 65 -63.8 150.1 N 76.39 CA 73.1 C 71.51 O 71.45 CB 75.84 OG 77.67
A LYS - 59 -61.4 133.8 N 72.66 CA 74.77 C 82.42 O 89.92 CB 71.63 CG 71.27 CD 75.2 CE 76.4 NZ 74.03
A PRO - 5 -60.2 159.6 N 82.02 CA 85.59 C 91.52 O 89.41 CB 86.37 CG 84.7 CD 82.95
A GLU H 118 -62.0 -54.7 N 96.44 CA 102.11 C 98.68 O 99.99 CB 111.87 CG 121.69 CD 129.51 OE1 131.49 OE2 129.9
A GLU H 70 -55.3 -33.5 N 95.75 CA 99.63 C 100.76 O 103.04 CB 100.07 CG 104.9 CD 103.8 OE1 102.8 OE2 101.27
A LEU H 0 -71.7 -39.1 N 99.26 CA 100.95 C 104.28 O 105.73 CB 99.24 CG 93.23 CD1 90.14 CD2 89.83
A ASP H 48 -65.0 -47.7 N 106.14 CA 108.22 C 109.62 O 111.08 CB 109.35 CG 112.37 OD1 111.31 OD2 115.15
A ARG H 141 -52.2 -53.6 N 108.49 CA 110.81 C 113.18 O 116.92 CB 110.37 CG 114.33 CD 126.69 NE 132.26 CZ 133.0 NH1 134.98 NH2 130.34
A LEU H 25 -66.0 -36.6 N 110.61 CA 111.34 C 106.8 O 108.26 CB 112.59 CG 114.53 CD1 112.33 CD2 117.94
A ASP H 56 -65.2 -46.0 N 103.74 CA 109.29 C 120.37 O 122.06 CB 109.06 CG 112.71 OD1 109.41 OD2 118.54
A ARG H 158 -63.6 -41.1 N 125.92 CA 129.95 C 128.78 O 132.12 CB 135.5 CG 139.85 CD 146.58 NE 151.78 CZ 159.2 NH1 162.49 NH2 161.28
A ARG H 139 -63.3 -48.7 N 123.93 CA 122.13 C 119.18 O 114.71 CB 122.71 CG 128.02 CD 128.72 NE 127.86 CZ 126.68 NH1 127.91 NH2 123.71
A ILE H 14 -68.8 -29.4 N 124.68 CA 128.52 C 129.07 O 127.77 CB 132.24 CG1 128.84 CG2 131.49 CD1 124.19
A ILE H 96 -67.2 -38.3 N 130.39 CA 131.62 C 133.71 O 135.3 CB 88.91 CG1 85.19 CG2 93.12 CD1 81.76
A GLN H 116 -64.1 -52.5 N 134.78 CA 137.98 C 142.96 O 148.62 CB 134.7 CG 136.82 CD 137.11 OE1 137.8 NE2 136.28
A LEU H 30 -62.1 -35.1 N 138.29 CA 131.46 C 130.13 O 134.8 CB 127.18 CG 131.38 CD1 130.4 CD2 137.03
A LYS H 105 -59.4 -52.7 N 130.03 CA 134.16 C 138.66 O 136.31 CB 133.08 CG 133.28 CD 137.23 CE 136.27 NZ 135.33
A LEU H 106 -49.1 -61.7 N 143.7 CA 148.34 C 150.02 O 152.51 CB 151.5 CG 149.84 CD1 150.71 CD2 148.98
A GLU H 88 -49.8 -54.6 N 147.44 CA 148.99 C 148.01 O 147.53 CB 150.25 CG 158.38 CD 161.55 OE1 155.47 OE2 169.04
A GLN H 22 -55.6 -48.3 N 149.77 CA 152.39 C 155.79 O 163.89 CB 149.38 CG 153.73 CD 156.91 OE1 157.16 NE2 158.71
A GLN H 116 -68.2 -29.6 N 150.69 CA 149.3 C 149.89 O 149.38 CB 147.01 CG 146.76 CD 149.82 OE1 147.12 NE2 154.96
A ALA H 84 -67.4 -36.3 N 151.92 CA 158.16 C 158.86 O 161.89 CB 160.82
A LEU H 89 -72.7 -22.7 N 154.07 CA 149.79 C 148.66 O 157.12 CB 144.86 CG 147.15 CD1 144.48 CD2 155.23
A LEU - 129 360.0 -3.0 N 154.16 CA 159.56 C 162.83 O 168.72 CB 156.21 CG 158.38 CD1 155.7 CD2 160.55
A ASP - 116 50.2 -137.1 N 158.48 CA 153.53 C 150.24 O 148.38 CB 155.42 CG 151.17 OD1 145.46 OD2 152.31
A LEU H 24 -40.0 -38.8 N 156.71 CA 154.07 C 149.57 O 148.84 CB 159.76 CG 161.91 CD1 165.04 CD2 164.67
A ASN H 68 -48.8 -47.7 N 149.21 CA 145.32 C 140.68 O 134.6 CB 145.95 CG 143.08 OD1 143.9 ND2 140.06
A GLU H 104 -60.3 -53.0 N 143.51 CA 144.37 C 144.03 O 140.83 CB 150.47 CG 154.04 CD 160.15 OE1 164.41 OE2 160.98
A GLU H 63 -65.8 -27.2 N 146.15 CA 142.2 C 130.73 O 126.27 CB 150.27 CG 155.0 CD 157.88 OE1 161.7 OE2 155.41
A LEU H 15 -57.6 -64.3 N 127.09 CA 121.65 C 123.15 O 127.34 CB 119.69 CG 115.1 CD1 113.05 CD2 115.05
A SER H 77 -50.7 -49.6 N 119.47 CA 111.4 C 112.48 O 112.96 CB 105.33 OG 100.56
A ASP H 52 -56.0 -48.9 N 113.57 CA 114.04 C 109.7 O 106.43 CB 123.22 CG 128.47 OD1 128.53 OD2 131.38
A LYS H 58 -65.1 -25.7 N 110.26 CA 105.51 C 97.37 O 100.7 CB 109.95 CG 109.87 CD 107.22 CE 102.2 NZ 100.29
A GLU H 95 -78.4 -29.0 N 92.24 CA 96.53 C 99.13 O 97.41 CB 102.77 CG 110.92 CD 116.0 OE1 116.79 OE2 117.23
A ARG H 143 -67.0 -53.5 N 102.85 CA 100.01 C 98.94 O 103.36 CB 104.95 CG 108.98 CD 117.91 NE 125.92 CZ 128.18 NH1 128.07 NH2 129.12
A GLN H 72 -54.5 -54.2 N 95.98 CA 95.94 C 87.88 O 83.26 CB 106.96 CG 114.74 CD 119.06 OE1 122.95 NE2 115.97
A TYR H 40 -58.7 -30.8 N 89.23 CA 90.76 C 88.98 O 91.12 CB 94.15 CG 97.71 CD1 102.1 CD2 98.02 CE1 101.57 CE2 98.1 CZ 98.87 OH 96.72
A SER H 66 -66.5 -54.1 N 83.85 CA 74.95 C 73.18 O 75.87 CB 68.65 OG 60.05
A GLU H 99 -53.9 -56.1 N 69.32 CA 71.14 C 79.71 O 85.2 CB 71.68 CG 78.2 CD 90.08 OE1 91.6 OE2 95.73
A LEU H 13 -50.9 -46.8 N 80.72 CA 76.21 C 71.71 O 74.16 CB 75.76 CG 78.71 CD1 78.41 CD2 78.84
A GLU H 70 -57.0 -48.0 N 64.84 CA 61.5 C 61.3 O 55.75 CB 62.82 CG 73.55 CD 87.43 OE1 95.77 OE2 88.55
A GLU H 128 -60.9 -45.5 N 70.43 CA 73.65 C 72.79 O 76.23 CB 76.55 CG 80.91 CD 81.09 OE1 77.6 OE2 80.86
A GLU H 59 -55.3 -45.4 N 67.7 CA 64.72 C 63.34 O 58.51 CB 68.45 CG 74.0 CD 86.57 OE1 95.09 OE2 87.12
A TRP H 31 -52.6 -55.3 N 67.18 CA 68.25 C 72.65 O 75.23 CB 65.08 CG 67.65 CD1 72.75 CD2 68.5 NE1 73.47 CE2 72.87 CE3 68.49 CZ2 74.29 CZ3 70.99 CH2 72.88
A LYS H 78 -54.1 -47.0 N 70.87 CA 65.6 C 65.88 O 69.68 CB 67.72 CG 77.03 CD 89.39 CE 86.51 NZ 56.21
A ALA H 54 -55.5 -50.1 N 63.32 CA 62.2 C 62.54 O 66.13 CB 62.5
A GLU H 1 -57.1 -49.1 N 60.92 CA 64.9 C 63.65 O 68.4 CB 72.29 CG 79.24 CD 83.54 OE1 87.34 OE2 84.62
A LYS H 78 -52.8 -46.9 N 58.26 CA 55.69 C 63.44 O 69.47 CB 54.47 CG 62.45 CD 69.29 CE 69.36 NZ 66.84
A ALA H 63 -54.4 -51.2 N 62.45 CA 60.28 C 58.12 O 58.01 CB 64.05
A SER H 19 -52.0 -52.4 N 60.38 CA 66.21 C 64.42 O 69.09 CB 71.89 OG 76.34
A LEU H 22 -52.7 -52.5 N 63.52 CA 67.99 C 72.41 O 72.22 CB 66.22 CG 65.57 CD1 68.09 CD2 61.82
A SER H 73 -55.4 -47.1 N 49.37 CA 58.87 C 53.05 O 53.98 CB 67.16 OG 75.89
A GLY H 32 -56.8 -51.6 N 50.47 CA 51.39 C 54.38 O 59.03
A THR H 4 -57.3 -30.6 N 55.7 CA 58.05 C 52.37 O 53.19 CB 62.57 OG1 73.31 CG2 58.11
A GLN H 24 -76.5 -46.8 N 64.39 CA 62.66 C 60.14 O 68.4 CB 67.74 CG 77.25 CD 88.57 OE1 89.88 NE2 92.75
A THR H 72 -57.4 -53.9 N 57.81 CA 62.88 C 62.91 O 68.45 CB 71.2 OG1 76.7 CG2 75.3
A ILE H 14 -55.3 -41.6 N 62.31 CA 67.24 C 68.67 O 70.31 CB 69.13 CG1 75.49 CG2 67.67 CD1 79.61
A LYS H 11 -54.6 -52.1 N 65.09 CA 56.41 C 65.93 O 70.27 CB 70.13 CG 74.14 CD 76.95 CE 78.96 NZ 74.8
A ALA H 44 -55.5 -48.5 N 59.29 CA 57.69 C 72.81 O 77.94 CB 56.93
A GLU H 113 -58.2 -41.9 N 69.01 CA 76.59 C 81.89 O 84.12 CB 82.21 CG 89.54 CD 98.37 OE1 104.71 OE2 97.63
A LEU H 3 -56.5 -46.9 N 81.56 CA 82.19 C 81.5 O 88.62 CB 81.8 CG 78.6 CD1 66.11 CD2 75.75
A GLU H 25 -58.2 -48.5 N 77.52 CA 81.42 C 88.42 O 92.08 CB 85.91 CG 92.5 CD 99.61 OE1 99.82 OE2 105.85
A GLN H 126 -63.1 -26.9 N 93.76 CA 99.19 C 95.86 O 94.15 CB 105.9 CG 113.58 CD 122.03 OE1 123.72 NE2 123.51
A ALA H 10 -71.0 -48.4 N 95.22 CA 94.41 C 86.48 O 88.3 CB 96.81
A LYS H 54 -60.6 -52.4 N 79.12 CA 81.49 C 90.04 O 98.94 CB 78.71 CG 78.55 CD 78.4 CE 79.55 NZ 81.28
A ILE H 18 -50.6 -43.4 N 73.02 CA 74.47 C 89.88 O 89.37 CB 95.84 CG1 96.71 CG2 74.54 CD1 101.12
A ALA H 19 -60.3 -43.8 N 94.9 CA 102.47 C 102.23 O 99.49 CB 106.1
A ILE H 13 -68.2 -30.4 N 104.92 CA 112.94 C 120.51 O 122.42 CB 131.78 CG1 137.39 CG2 129.28 CD1 138.82
A GLU H 64 -72.7 -20.6 N 122.91 CA 124.0 C 119.61 O 124.58 CB 129.91 CG 137.02 CD 148.62 OE1 150.73 OE2 154.47
A GLN H 63 -75.5 -39.3 N 115.21 CA 119.77 C 129.14 O 132.13 CB 119.5 CG 119.38 CD 124.87 OE1 129.93 NE2 121.64
A ALA H 9 -67.4 -30.7 N 132.13 CA 132.62 C 133.52 O 134.71 CB 130.4
A ARG H 145 -68.1 -31.8 N 133.92 CA 136.42 C 131.29 O 128.93 CB 140.41 CG 145.68 CD 147.37 NE 145.17 CZ 138.7 NH1 136.15 NH2 134.4
A ARG H 70 -72.6 -56.1 N 129.97 CA 134.17 C 137.38 O 139.35 CB 132.94 CG 133.43 CD 129.28 NE 127.22 CZ 127.62 NH1 126.83 NH2 127.92
A VAL H 130 -97.0 -4.5 N 138.27 CA 141.36 C 143.9 O 146.82 CB 137.83 CG1 139.64 CG2 131.81
A GLY T 46 77.3 40.5 N 142.95 CA 146.59 C 148.67 O 154.84
A ASP - 97 -70.6 158.6 N 144.68 CA 146.45 C 149.02 O 150.85 CB 146.63 CG 153.07 OD1 156.66 OD2 153.78
A LEU S 133 -111.6 -76.3 N 153.14 CA 160.66 C 159.3 O 155.07 CB 170.01 CG 174.64 CD1 174.64 CD2 172.47
A ALA H 77 -67.7 -19.9 N 161.35 CA 157.13 C 148.48 O 142.44 CB 159.28
A ARG H 84 -47.3 -62.1 N 148.53 CA 145.56 C 150.9 O 151.73 CB 140.57 CG 136.72 CD 140.2 NE 142.56 CZ 141.61 NH1 143.57 NH2 137.85
A SER H 58 -76.4 -31.7 N 162.42 CA 154.95 C 152.63 O 150.41 CB 146.64 OG 135.72
A GLU I 87 -66.4 -39.0 N 150.04 CA 142.66 C 134.12 O 135.78 CB 142.43 CG 139.47 CD 138.44 OE1 135.06 OE2 139.38
A LEU I 1 -74.0 -47.9 N 125.94 CA 127.01 C 141.57 O 145.57 CB 121.62 CG 118.54 CD1 117.47 CD2 116.86
A GLN I 91 -61.3 -50.7 N 149.83 CA 154.96 C 158.86 O 155.28 CB 157.8 CG 154.22 CD 151.5 OE1 150.7 NE2 150.2
A TYR I 164 -83.9 -44.9 N 164.86 CA 166.88 C 163.44 O 164.66 CB 173.21 CG 179.48 CD1 179.68 CD2 184.41 CE1 183.01 CE2 187.42 CZ 186.89 OH 189.53
A GLY I 39 -83.6 -56.7 N 157.36 CA 146.91 C 136.25 O 136.7
A LYS I 81 -80.3 -53.1 N 125.79 CA 110.65 C 109.02 O 109.36 CB 101.23 CG 97.27 CD 93.73 CE 94.87 NZ 96.5
A ILE H 23 -59.6 -51.1 N 113.5 CA 121.79 C 126.32 O 122.91 CB 109.58 CG1 105.44 CG2 107.51 CD1 100.9
A PRO H 47 -73.0 -26.3 N 131.72 CA 133.11 C 136.75 O 138.39 CB 132.92 CG 133.67 CD 133.44
A GLU H 76 -67.8 -49.2 N 135.57 CA 127.77 C 122.16 O 120.63 CB 124.94 CG 124.18 CD 127.49 OE1 127.31 OE2 130.41
A LEU H 7 -62.5 -35.3 N 119.15 CA 117.48 C 123.68 O 125.26 CB 115.95 CG 65.35 CD1 67.19 CD2 65.58
A GLU H 91 -68.0 -33.6 N 127.8 CA 130.45 C 124.43 O 117.24 CB 140.57 CG 145.35 CD 151.17 OE1 155.21 OE2 149.59
A LYS H 128 -77.6 -42.2 N 125.29 CA 121.33 C 115.05 O 112.23 CB 121.47 CG 121.74 CD 124.44 CE 121.64 NZ 118.25
A GLN H 85 -79.2 -12.6 N 111.5 CA 105.87 C 106.94 O 112.05 CB 96.6 CG 87.58 CD 82.34 OE1 85.35 NE2 74.64
A LEU H 14 -74.4 -48.4 N 105.51 CA 111.67 C 124.99 O 126.77 CB 107.11 CG 104.53 CD1 103.99 CD2 106.44
A GLU H 119 -77.3 -18.4 N 132.39 CA 135.65 C 134.25 O 134.29 CB 139.95 CG 142.68 CD 144.44 OE1 144.7 OE2 145.38
A ALA H 41 -72.1 -32.2 N 130.68 CA 127.36 C 127.52 O 129.86 CB 125.76
A ALA H 15 -77.1 -31.8 N 125.1 CA 119.12 C 121.01 O 123.9 CB 113.52
A THR H 27 -74.4 -35.3 N 123.26 CA 129.79 C 135.12 O 135.08 CB 131.71 OG1 135.59 CG2 127.91
A GLN H 129 -75.1 -26.8 N 137.98 CA 139.27 C 133.41 O 133.48 CB 145.71 CG 148.12 CD 151.32 OE1 152.94 NE2 152.36
A LEU H 90 -68.7 -42.4 N 126.34 CA 117.91 C 119.61 O 123.08 CB 105.96 CG 93.97 CD1 93.49 CD2 87.02
A GLU H 10 -55.8 -44.6 N 118.03 CA 116.44 C 122.53 O 125.75 CB 113.16 CG 112.61 CD 115.35 OE1 116.85 OE2 114.57
A GLY H 63 -54.1 -40.5 N 125.95 CA 130.81 C 135.08 O 133.52
A LYS H 172 -77.3 -47.7 N 137.82 CA 138.71 C 132.93 O 129.13 CB 141.05 CG 142.45 CD 139.68 CE 138.71 NZ 139.66
A THR H 45 -80.8 -28.7 N 130.89 CA 128.58 C 127.08 O 131.13 CB 84.24 OG1 86.07 CG2 87.95
A ARG S 128 -132.8 -65.9 N 100.6 CA 92.72 C 88.06 O 89.43 CB 93.1 CG 96.47 CD 101.76 NE 109.74 CZ 112.43 NH1 108.62 NH2 116.61
A LEU S 19 -71.2 -21.3 N 84.17 CA 82.22 C 83.77 O 92.16 CB 77.6 CG 76.55 CD1 75.44 CD2 80.23
A LEU - 6 -124.4 133.3 N 75.35 CA 71.99 C 82.15 O 84.88 CB 64.21 CG 64.02 CD1 64.3 CD2 63.67
A ARG - 167 -115.0 111.8 N 87.03 CA 89.98 C 85.53 O 91.83 CB 97.23 CG 104.32 CD 113.16 NE 122.17 CZ 127.78 NH1 128.13 NH2 130.26
A ASN - 11 -93.1 -9.2 N 76.92 CA 70.2 C 71.4 O 82.1 CB 70.39 CG 78.58 OD1 86.84 ND2 76.32
A LYS E 119 -80.1 120.0 N 66.88 CA 67.31 C 67.72 O 71.91 CB 71.76 CG 82.95 CD 90.24 CE 94.81 NZ 98.04
A VAL E 0 -84.9 115.1 N 63.2 CA 60.42 C 60.77 O 63.99 CB 46.77 CG1 46.11 CG2 46.8
A THR - 37 -107.3 -178.8 N 57.1 CA 58.35 C 63.52 O 71.04 CB 60.63 OG1 67.19 CG2 60.8
A ASP H 62 -63.7 -26.9 N 59.91 CA 57.61 C 57.64 O 59.11 CB 61.16 CG 71.0 OD1 82.57 OD2 68.95
A ALA H 33 -64.6 -40.3 N 57.86 CA 66.21 C 71.22 O 73.05 CB 71.07
A GLU H 24 -65.8 -47.1 N 69.32 CA 68.61 C 62.86 O 65.56 CB 74.64 CG 82.93 CD 92.37 OE1 95.49 OE2 93.63
A ILE H 0 -53.7 -44.4 N 56.9 CA 44.34 C 84.89 O 84.55 CB 43.8 CG1 44.11 CG2 42.68 CD1 43.86
A ALA H 1 -60.1 -39.1 N 45.11 CA 51.58 C 56.64 O 55.4 CB 53.64
A GLU H 99 -71.0 -38.6 N 57.39 CA 62.17 C 59.43 O 66.87 CB 78.78 CG 92.65 CD 105.54 OE1 108.34 OE2 110.49
A VAL H 9 -66.3 -48.3 N 56.08 CA 60.45 C 58.54 O 62.54 CB 66.58 CG1 61.59 CG2 73.43
A LEU H 0 -68.5 -18.4 N 56.29 CA 55.78 C 51.56 O 48.78 CB 41.88 CG 47.59 CD1 54.23 CD2 44.46
A ALA H 23 -67.7 -49.7 N 60.69 CA 66.33 C 68.94 O 60.88 CB 70.5
A ARG H 167 -55.1 -42.2 N 81.25 CA 87.28 C 90.21 O 93.3 CB 91.84 CG 99.19 CD 107.65 NE 114.62 CZ 118.31 NH1 119.02 NH2 119.26
A TRP H 84 -71.0 -54.8 N 93.5 CA 95.13 C 99.19 O 99.22 CB 91.26 CG 93.32 CD1 96.11 CD2 93.33 NE1 96.19 CE2 95.65 CE3 90.49 CZ2 96.79 CZ3 90.78 CH2 94.77
A THR H 50 -76.9 -50.2 N 101.04 CA 100.05 C 102.47 O 108.77 CB 100.36 OG1 103.71 CG2 100.65
A GLY - 65 104.0 3.4 N 99.57 CA 101.64 C 104.08 O 111.93
A ILE - 38 -67.6 147.5 N 99.84 CA 98.11 C 99.04 O 98.54 CB 84.69 CG1 86.44 CG2 86.02 CD1 89.23
A PRO - 70 -61.1 -37.5 N 102.94 CA 107.78 C 109.71 O 114.61 CB 111.33 CG 109.3 CD 107.39
A VAL S 33 92.9 -9.2 N 104.08 CA 100.85 C 89.21 O 87.32 CB 118.04 CG1 117.95 CG2 117.79
A SER H 75 -64.4 -41.9 N 95.34 CA 102.34 C 102.72 O 98.93 CB 112.18 OG 117.35
A ARG H 135 -64.4 -41.0 N 109.19 CA 112.08 C 109.15 O 110.21 CB 114.95 CG 119.83 CD 125.36 NE 133.14 CZ 138.24 NH1 140.86 NH2 138.65
A GLU S 85 -52.2 139.9 N 97.38 CA 107.37 C 110.77 O 109.37 CB 110.87 CG 112.42 CD 116.45 OE1 118.08 OE2 116.77
A SER - 70 -56.5 123.7 N 112.03 CA 106.25 C 102.91 O 102.18 CB 104.57 OG 99.26
A GLU H 86 -79.2 -32.5 N 98.26 CA 92.37 C 91.56 O 92.4 CB 91.61 CG 90.47 CD 90.36 OE1 92.61 OE2 86.2
A ARG H 182 -67.6 -38.1 N 89.19 CA 86.51 C 82.39 O 80.63 CB 95.94 CG 107.2 CD 115.94 NE 122.15 CZ 124.08 NH1 122.61 NH2 125.72
A GLU H 84 -71.3 -33.4 N 82.14 CA 84.54 C 75.51 O 69.08 CB 96.04 CG 105.52 CD 110.96 OE1 112.11 OE2 111.08
A LYS H 29 -63.9 -44.1 N 73.11 CA 70.33 C 62.11 O 60.31 CB 75.86 CG 81.79 CD 85.68 CE 89.16 NZ 87.24
A LEU H 19 -70.8 -45.0 N 51.02 CA 68.96 C 66.32 O 60.12 CB 48.39 CG 45.48 CD1 47.18 CD2 44.84
A LEU H 110 -65.8 -27.6 N 66.97 CA 72.26 C 76.74 O 77.3 CB 79.9 CG 58.44 CD1 89.56 CD2 65.29
A ARG T 118 -96.7 5.4 N 81.83 CA 84.85 C 66.74 O 61.55 CB 99.79 CG 113.0 CD 122.73 NE 132.59 CZ 140.74 NH1 141.82 NH2 144.75
A GLU H 37 -59.8 -43.7 N 53.73 CA 54.37 C 60.25 O 60.5 CB 73.66 CG 53.27 CD 63.21 OE1 65.86 OE2 58.5
A GLN H 95 -61.1 -51.5 N 62.03 CA 71.36 C 67.74 O 68.33 CB 86.11 CG 97.04 CD 98.9 OE1 95.54 NE2 104.82
A GLU H 65 -56.4 -44.3 N 58.77 CA 63.82 C 58.35 O 57.94 CB 70.25 CG 87.5 CD 100.15 OE1 100.35 OE2 107.32
A LEU H 1 -69.2 -27.0 N 52.73 CA 50.46 C 52.56 O 60.9 CB 47.75 CG 45.24 CD1 85.96 CD2 43.54
A HIS H 56 -81.9 -12.9 N 55.7 CA 61.25 C 60.91 O 62.97 CB 60.74 CG 58.82 ND1 57.31 CD2 82.0 CE1 55.76 NE2 56.36
A HIS H 97 -61.9 -34.2 N 60.98 CA 76.2 C 67.79 O 63.98 CB 88.71 CG 99.0 ND1 100.71 CD2 103.65 CE1 104.03 NE2 107.39
A ARG H 68 -102.4 -61.9 N 59.78 CA 55.97 C 54.8 O 56.23 CB 59.09 CG 68.28 CD 71.18 NE 70.23 CZ 64.23 NH1 59.5 NH2 65.63
A VAL S 4 -72.6 123.7 N 52.23 CA 50.97 C 54.26 O 55.87 CB 56.35 CG1 58.64 CG2 44.4
A ILE - 50 -106.1 132.6 N 55.42 CA 80.29 C 56.65 O 53.93 CB 79.38 CG1 84.81 CG2 60.38 CD1 94.61
A GLY S 5 79.5 -164.5 N 58.01 CA 66.66 C 61.74 O 63.88
A GLN - 2 55.0 64.8 N 56.54 CA 54.2 C 53.68 O 48.16 CB 52.64 CG 55.74 CD 57.16 OE1 59.97 NE2 55.96
A ASN H 94 -75.3 -38.9 N 57.55 CA 59.61 C 59.72 O 47.3 CB 54.25 CG 72.77 OD1 59.85 ND2 72.32
A GLU H 75 -65.0 -36.3 N 63.25 CA 66.32 C 55.96 O 55.85 CB 77.84 CG 86.51 CD 82.84 OE1 82.72 OE2 73.22
A ALA H 0 -63.2 -54.4 N 40.53 CA 54.94 C 50.44 O 50.7 CB 57.06
A VAL H 0 -58.5 -42.5 N 50.46 CA 42.49 C 64.8 O 62.78 CB 46.1 CG1 79.03 CG2 45.87
A ASP H 74 -59.5 -52.0 N 44.06 CA 54.61 C 55.7 O 59.13 CB 56.44 CG 69.24 OD1 76.23 OD2 74.66
A ALA H 14 -59.5 -49.6 N 55.57 CA 56.55 C 50.47 O 40.02 CB 63.03
A VAL H 0 -59.4 -53.0 N 38.85 CA 52.67 C 50.22 O 37.89 CB 37.26 CG1 36.67 CG2 37.05
A SER H 0 -59.1 -41.9 N 46.81 CA 47.63 C 48.38 O 41.5 CB 53.78 OG 54.86
A ASN H 72 -64.2 -45.6 N 41.05 CA 42.01 C 41.38 O 41.86 CB 43.51 CG 47.24 OD1 47.07 ND2 49.89
A ALA H 3 -61.0 -48.5 N 40.43 CA 41.55 C 39.08 O 41.34 CB 39.05
A ILE H 0 -63.9 -35.8 N 38.23 CA 53.22 C 55.55 O 57.88 CB 36.82 CG1 42.14 CG2 42.63 CD1 39.9
A ARG H 55 -63.3 -43.1 N 39.53 CA 41.81 C 42.85 O 45.98 CB 44.22 CG 46.21 CD 58.39 NE 49.14 CZ 71.06 NH1 75.14 NH2 50.12
A ARG H 85 -59.0 -45.4 N 43.82 CA 47.54 C 50.08 O 49.9 CB 52.79 CG 56.97 CD 57.41 NE 59.27 CZ 66.24 NH1 66.75 NH2 69.17
A SER H 35 -63.2 -46.5 N 48.38 CA 48.35 C 51.92 O 56.0 CB 47.14 OG 51.44
A ARG H 69 -74.1 -23.6 N 50.02 CA 50.5 C 49.14 O 42.14 CB 53.7 CG 56.69 CD 64.98 NE 84.27 CZ 99.09 NH1 107.93 NH2 96.08
A ALA H 68 -76.2 -13.9 N 50.49 CA 53.61 C 51.6 O 46.4 CB 52.51
A GLY T 58 82.7 29.0 N 57.54 CA 59.34 C 60.77 O 63.06
A LEU - 137 -94.4 5.4 N 59.71 CA 79.24 C 81.98 O 62.96 CB 78.31 CG 78.0 CD1 76.67 CD2 79.16
A ALA S 46 -130.8 169.4 N 79.07 CA 75.19 C 75.77 O 71.05 CB 72.24
A ASP - 79 -55.6 120.1 N 82.1 CA 82.83 C 76.13 O 72.29 CB 88.23 CG 92.04 OD1 94.59 OD2 92.22
A PRO T 104 -69.1 -17.7 N 78.81 CA 82.44 C 89.37 O 88.68 CB 85.31 CG 85.73 CD 83.09
A ASN T 67 -89.7 7.9 N 95.0 CA 92.31 C 84.62 O 95.2 CB 92.11 CG 91.16 OD1 90.21 ND2 92.08
A ARG S 35 -116.0 159.9 N 70.78 CA 72.16 C 58.71 O 74.56 CB 80.95 CG 95.44 CD 105.69 NE 114.11 CZ 119.29 NH1 123.84 NH2 117.54
A PRO - 5 -58.3 159.1 N 57.84 CA 54.93 C 63.03 O 69.66 CB 54.91 CG 68.26 CD 70.98
A ILE S 11 -52.1 -44.7 N 54.27 CA 53.9 C 57.56 O 61.16 CB 56.2 CG1 58.49 CG2 57.48 CD1 56.95
A GLY E 0 -150.7 153.9 N 59.4 CA 48.17 C 63.34 O 63.55
A SER E 0 -137.0 118.2 N 51.41 CA 60.69 C 53.98 O 86.46 CB 76.62 OG 88.2
A PHE E 1 -129.4 145.1 N 53.27 CA 53.75 C 56.21 O 56.24 CB 50.39 CG 48.29 CD1 48.97 CD2 46.18 CE1 47.58 CE2 46.9 CZ 54.12
A LEU E 3 -111.9 111.8 N 58.8 CA 61.48 C 64.87 O 66.63 CB 66.44 CG 70.15 CD1 70.41 CD2 75.5
A PHE E 0 -87.3 126.5 N 63.0 CA 64.58 C 72.02 O 79.1 CB 54.0 CG 50.15 CD1 65.62 CD2 66.96 CE1 66.75 CE2 44.05 CZ 44.25
A LEU E 2 -126.4 140.6 N 71.72 CA 78.78 C 76.5 O 73.62 CB 85.57 CG 85.19 CD1 79.4 CD2 77.19
A GLY S 0 148.9 -170.9 N 77.11 CA 77.14 C 79.05 O 83.53
A PRO - 5 -73.4 -173.1 N 79.5 CA 82.52 C 76.41 O 62.12 CB 83.62 CG 78.65 CD 78.88
A THR S 64 -105.4 144.8 N 75.67 CA 61.28 C 57.63 O 66.66 CB 63.94 OG1 114.86 CG2 93.85
A GLY S 20 86.2 12.6 N 53.13 CA 53.76 C 56.89 O 60.82
A VAL S 6 -97.6 1.9 N 57.36 CA 54.83 C 55.02 O 44.41 CB 61.87 CG1 70.15 CG2 65.75
A GLY S 18 100.7 20.3 N 61.08 CA 61.09 C 58.13 O 53.42
A LYS H 20 -59.1 -57.4 N 59.44 CA 54.72 C 50.55 O 54.0 CB 46.97 CG 54.04 CD 63.22 CE 71.31 NZ 79.03
A THR H 24 -61.1 -32.3 N 45.13 CA 45.09 C 46.92 O 53.01 CB 40.1 OG1 66.46 CG2 39.47
A GLU H 61 -61.0 -42.3 N 43.22 CA 43.61 C 47.03 O 46.68 CB 47.37 CG 55.86 CD 57.18 OE1 56.8 OE2 54.85
A LEU H 0 -71.2 -31.1 N 49.75 CA 43.38 C 43.31 O 40.17 CB 41.41 CG 43.0 CD1 42.67 CD2 46.54
A CYS H 0 -62.3 -53.1 N 43.91 CA 35.69 C 38.64 O 37.96 CB 37.74 SG 64.64
A LYS H 74 -61.7 -35.6 N 41.03 CA 48.63 C 41.52 O 42.88 CB 55.21 CG 59.92 CD 64.1 CE 71.21 NZ 73.41
A ALA H 3 -65.7 -40.1 N 31.72 CA 32.44 C 42.57 O 47.06 CB 29.85
A LEU H 0 -66.1 -49.5 N 41.19 CA 37.49 C 39.55 O 38.21 CB 34.4 CG 58.18 CD1 47.07 CD2 35.36
A ALA H 0 -52.2 -47.2 N 40.47 CA 33.9 C 54.14 O 57.03 CB 48.58
A ASN H 64 -62.4 -52.4 N 50.53 CA 53.34 C 46.86 O 46.03 CB 61.98 CG 70.01 OD1 72.89 ND2 74.44
A PHE H 21 -55.8 -58.1 N 47.46 CA 46.82 C 50.46 O 57.07 CB 42.84 CG 49.36 CD1 56.74 CD2 54.07 CE1 58.28 CE2 54.11 CZ 55.9
A PHE H 13 -97.2 7.4 N 51.21 CA 48.9 C 50.07 O 53.6 CB 51.65 CG 56.61 CD1 61.07 CD2 55.12 CE1 61.6 CE2 57.3 CZ 59.75
A ASP S 44 65.7 22.0 N 52.58 CA 58.52 C 62.63 O 72.79 CB 69.32 CG 82.82 OD1 89.58 OD2 85.68
A SER S 39 -179.1 159.6 N 60.15 CA 59.54 C 64.72 O 71.61 CB 65.83 OG 70.24
A ASP S 58 -82.3 -15.1 N 64.75 CA 64.89 C 76.08 O 80.29 CB 64.04 CG 69.57 OD1 76.75 OD2 66.08
A GLU S 151 -70.4 -17.8 N 82.99 CA 89.97 C 89.14 O 95.06 CB 97.35 CG 103.0 CD 110.97 OE1 114.65 OE2 111.73
A ALA S 3 -97.2 92.2 N 81.88 CA 80.09 C 73.58 O 79.44 CB 83.3
A VAL E 15 -123.0 110.0 N 83.41 CA 85.14 C 77.44 O 76.99 CB 93.49 CG1 59.33 CG2 54.53
A ARG E 115 -96.1 121.7 N 73.75 CA 75.09 C 72.5 O 79.13 CB 85.54 CG 90.34 CD 93.84 NE 104.55 CZ 110.66 NH1 106.74 NH2 117.27
A ILE E 16 -130.6 120.5 N 70.33 CA 77.6 C 79.96 O 75.49 CB 80.04 CG1 80.49 CG2 74.92 CD1 77.92
A ASP E 56 -80.4 126.9 N 86.21 CA 88.88 C 99.33 O 100.9 CB 85.21 CG 88.64 OD1 77.37 OD2 91.97
A SER G 54 -61.4 -29.7 N 125.26 CA 125.33 C 130.94 O 139.48 CB 115.89 OG 108.34
A GLU G 105 -90.2 -4.7 N 125.95 CA 129.71 C 127.75 O 131.64 CB 129.58 CG 129.17 CD 127.29 OE1 121.29 OE2 129.24
A PHE - 0 -114.5 92.2 N 124.12 CA 129.67 C 135.34 O 131.79 CB 122.36 CG 98.8 CD1 103.84 CD2 102.33 CE1 89.89 CE2 113.77 CZ 93.55
A GLU S 102 -108.4 -173.7 N 155.52 CA 165.52 C 164.47 O 159.08 CB 173.09 CG 170.69 CD 177.57 OE1 184.51 OE2 175.52
A LYS H 117 -75.1 -34.9 N 171.07 CA 173.93 C 177.95 O 174.92 CB 182.08 CG 182.88 CD 177.58 CE 179.99 NZ 175.52
A HIS H 119 -64.8 -9.6 N 185.8 CA 188.01 C 180.26 O 177.91 CB 192.53 CG 196.63 ND1 193.09 CD2 205.07 CE1 199.61 NE2 206.77
A SER H 0 -75.7 -64.5 N 175.33 CA 165.54 C 161.38 O 159.62 CB 163.81 OG 168.05
A VAL H 16 -58.1 -26.5 N 160.21 CA 156.25 C 157.11 O 155.06 CB 127.78 CG1 139.07 CG2 118.75
A SER H 41 -59.7 -67.9 N 159.77 CA 157.16 C 147.79 O 140.47 CB 161.19 OG 165.07
A ARG H 70 -51.1 -42.2 N 147.47 CA 144.51 C 139.76 O 138.04 CB 144.45 CG 154.41 CD 156.03 NE 157.15 CZ 156.15 NH1 154.33 NH2 156.32
A LEU T 6 -82.4 -12.2 N 136.54 CA 122.99 C 117.21 O 107.03 CB 114.11 CG 113.16 CD1 109.01 CD2 113.15
A VAL T 19 -113.9 -61.1 N 123.39 CA 127.7 C 135.87 O 137.7 CB 133.41 CG1 137.38 CG2 127.36
A GLY - 21 160.9 -154.1 N 141.87 CA 149.06 C 159.71 O 162.11
A ALA - 137 -136.7 360.0 N 168.26 CA 176.07 C 151.82 O 159.82 CB 152.4
A GLY - 85 360.0 -158.8 N 143.11 CA 144.64 C 143.26 O 148.85
A GLY - 1 -84.7 146.4 N 134.57 CA 126.55 C 120.92 O 116.73
A TYR H 128 -61.9 -36.8 N 120.5 CA 115.81 C 103.8 O 97.63 CB 123.58 CG 139.26 CD1 146.76 CD2 146.46 CE1 154.99 CE2 153.53 CZ 158.23 OH 166.29
A LEU H 11 -78.5 -61.8 N 101.89 CA 92.18 C 91.53 O 92.96 CB 87.04 CG 81.19 CD1 69.19 CD2 83.05
A THR H 1 -50.4 -40.8 N 91.68 CA 97.31 C 100.3 O 81.46 CB 107.58 OG1 114.53 CG2 109.39
A GLU H 56 -64.5 -49.9 N 101.68 CA 98.95 C 95.64 O 97.33 CB 102.7 CG 119.57 CD 134.44 OE1 141.99 OE2 135.96
A ALA H 32 -60.3 -42.3 N 92.02 CA 84.86 C 88.58 O 94.8 CB 77.29
A VAL H 1 -71.3 -30.2 N 88.38 CA 89.37 C 96.58 O 94.81 CB 92.24 CG1 90.4 CG2 91.21
A ARG H 97 -71.6 -39.6 N 106.52 CA 114.92 C 114.61 O 114.11 CB 125.75 CG 130.47 CD 135.37 NE 140.3 CZ 140.3 NH1 132.73 NH2 147.01
A ARG H 140 -77.6 -31.0 N 114.46 CA 117.48 C 115.43 O 121.67 CB 121.7 CG 126.05 CD 130.07 NE 132.39 CZ 129.12 NH1 125.05 NH2 128.87
A ARG - 74 -131.6 80.1 N 107.15 CA 95.0 C 80.27 O 75.24 CB 96.99 CG 97.24 CD 98.14 NE 103.44 CZ 101.34 NH1 99.48 NH2 99.09
A PRO S 24 -62.8 -30.5 N 75.41 CA 74.09 C 69.45 O 67.99 CB 73.59 CG 77.26 CD 77.2
A TYR S 35 -102.2 105.7 N 66.66 CA 58.76 C 63.45 O 64.33 CB 52.73 CG 55.51 CD1 61.94 CD2 55.35 CE1 67.76 CE2 59.93 CZ 67.19 OH 72.51
A SER - 0 -162.1 162.5 N 66.11 CA 63.3 C 62.95 O 58.93 CB 64.82 OG 69.11
A VAL E 0 -96.8 116.2 N 64.17 CA 65.81 C 44.76 O 66.02 CB 64.22 CG1 40.46 CG2 38.18
A ILE E 3 -92.1 111.5 N 52.01 CA 50.12 C 50.15 O 50.51 CB 59.99 CG1 53.43 CG2 57.22 CD1 56.91
A LEU E 0 -105.3 118.1 N 54.64 CA 50.49 C 54.69 O 56.13 CB 47.72 CG 48.61 CD1 54.29 CD2 45.87
A LEU E 7 -106.1 108.9 N 57.09 CA 74.36 C 75.11 O 71.29 CB 64.86 CG 88.56 CD1 63.23 CD2 68.86
A ASP E 36 -93.7 137.3 N 85.29 CA 94.28 C 90.27 O 86.92 CB 105.76 CG 116.04 OD1 122.4 OD2 117.7
A ALA S 14 51.9 63.4 N 88.66 CA 91.98 C 95.25 O 98.63 CB 93.16
A VAL G 0 -72.6 -16.1 N 92.18 CA 92.48 C 97.44 O 101.75 CB 88.83 CG1 92.25 CG2 86.07
A GLU G 32 -69.9 -23.0 N 99.68 CA 107.51 C 117.54 O 120.64 CB 108.83 CG 111.72 CD 105.86 OE1 108.13 OE2 97.95
A LYS G 69 -77.3 -10.7 N 123.14 CA 130.19 C 132.87 O 138.2 CB 126.03 CG 123.03 CD 131.82 CE 133.56 NZ 131.35
A ALA S 10 -62.7 149.5 N 129.68 CA 132.79 C 144.15 O 115.03 CB 98.26
A HIS - 38 -70.8 139.7 N 148.25 CA 153.9 C 146.78 O 143.37 CB 158.09 CG 163.22 ND1 167.8 CD2 163.78 CE1 173.58 NE2 170.83
A PRO H 86 -51.7 -32.6 N 146.42 CA 125.74 C 123.56 O 132.4 CB 134.47 CG 137.6 CD 133.64
A ASP H 55 -68.9 -24.9 N 138.93 CA 144.35 C 129.92 O 114.47 CB 150.17 CG 160.14 OD1 142.17 OD2 171.28
A VAL H 0 -74.6 -36.8 N 121.61 CA 113.49 C 105.16 O 96.95 CB 108.69 CG1 99.53 CG2 107.42
A PHE H 29 -57.5 -36.0 N 107.47 CA 104.42 C 98.99 O 108.21 CB 114.43 CG 121.44 CD1 114.45 CD2 132.28 CE1 116.54 CE2 133.08 CZ 125.43
A ASN H 72 -64.2 -44.2 N 110.94 CA 114.58 C 109.03 O 97.2 CB 128.25 CG 134.29 OD1 131.29 ND2 140.27
A ILE H 24 -58.7 -42.1 N 99.63 CA 95.53 C 94.92 O 85.94 CB 96.55 CG1 101.74 CG2 95.38 CD1 154.67
A LEU H 9 -62.5 -40.6 N 93.25 CA 88.55 C 85.6 O 80.62 CB 91.88 CG 96.34 CD1 95.45 CD2 93.78
A LEU H 15 -62.2 -42.7 N 91.14 CA 94.96 C 92.15 O 95.41 CB 107.23 CG 111.43 CD1 109.84 CD2 114.14
A GLN H 81 -59.8 -38.5 N 89.2 CA 91.36 C 91.53 O 94.92 CB 97.78 CG 114.18 CD 126.63 OE1 129.24 NE2 132.44
A VAL H 7 -68.4 -49.0 N 78.99 CA 83.43 C 78.43 O 76.25 CB 86.16 CG1 67.33 CG2 89.78
A LEU H 0 -63.1 -19.0 N 78.22 CA 79.62 C 89.04 O 92.61 CB 77.93 CG 68.94 CD1 71.09 CD2 64.21
A ASP H 47 -106.2 -63.8 N 90.29 CA 91.05 C 87.39 O 88.78 CB 105.43 CG 116.32 OD1 116.99 OD2 124.76
A ASP H 90 -69.9 -23.1 N 86.97 CA 92.13 C 90.57 O 95.08 CB 102.66 CG 109.3 OD1 105.69 OD2 118.12
A GLY S 0 66.1 18.3 N 84.57 CA 68.67 C 102.58 O 100.12
A ARG E 103 -150.1 156.8 N 106.78 CA 109.56 C 112.59 O 110.65 CB 112.2 CG 111.97 CD 117.04 NE 122.27 CZ 133.11 NH1 141.76 NH2 132.56
A LEU E 3 -141.1 125.0 N 117.14 CA 120.44 C 129.79 O 137.06 CB 110.49 CG 112.5 CD1 114.27 CD2 107.58
A THR E 75 -81.6 126.8 N 129.87 CA 133.96 C 138.2 O 137.81 CB 108.5 OG1 121.68 CG2 114.36
A ASP - 13 -90.0 -171.4 N 141.57 CA 144.6 C 150.85 O 153.61 CB 142.49 CG 141.9 OD1 148.19 OD2 135.54
A GLY T 45 -68.9 -16.6 N 151.34 CA 158.07 C 162.9 O 170.34
A GLN T 92 -92.5 -10.8 N 158.71 CA 161.17 C 161.76 O 169.3 CB 157.16 CG 166.04 CD 169.57 OE1 177.05 NE2 162.75
A GLY S 54 100.3 -3.0 N 154.97 CA 154.91 C 150.4 O 122.23
A ARG - 84 -98.6 144.9 N 145.45 CA 140.54 C 133.03 O 129.12 CB 140.13 CG 137.86 CD 142.21 NE 146.9 CZ 152.61 NH1 156.31 NH2 153.74
A THR E 88 -93.8 125.6 N 130.4 CA 120.91 C 112.4 O 110.89 CB 119.44 OG1 120.89 CG2 123.88
A VAL E 5 -95.8 139.1 N 108.49 CA 104.82 C 102.03 O 100.87 CB 105.59 CG1 105.07 CG2 109.6
A ASP E 40 -95.6 112.2 N 101.05 CA 100.45 C 96.93 O 96.69 CB 102.77 CG 100.93 OD1 100.2 OD2 100.07
A PHE - 2 -98.5 2.5 N 92.82 CA 87.94 C 82.55 O 78.6 CB 86.16 CG 83.19 CD1 89.59 CD2 74.04 CE1 91.28 CE2 76.0 CZ 85.68
A ARG T 101 -66.7 -18.0 N 82.41 CA 82.1 C 78.86 O 82.04 CB 91.36 CG 98.62 CD 101.49 NE 105.11 CZ 110.36 NH1 112.59 NH2 112.63
A ASN T 35 -95.0 7.3 N 75.45 CA 69.51 C 61.46 O 62.86 CB 79.66 CG 91.42 OD1 93.67 ND2 99.05
A THR - 0 -112.3 155.2 N 59.72 CA 58.08 C 56.32 O 48.78 CB 66.03 OG1 64.26 CG2 76.75
A VAL E 0 -107.6 115.4 N 55.48 CA 56.09 C 46.56 O 61.68 CB 55.46 CG1 58.97 CG2 55.11
A VAL E 6 -95.8 116.0 N 51.37 CA 51.11 C 62.82 O 51.52 CB 65.93 CG1 69.05 CG2 65.21
A ILE E 0 -116.7 131.8 N 50.18 CA 57.2 C 60.08 O 54.02 CB 53.14 CG1 44.37 CG2 50.29 CD1 44.48
A THR E 4 -109.5 150.3 N 72.61 CA 72.83 C 74.77 O 71.67 CB 67.78 OG1 66.22 CG2 62.08
A SER E 3 -152.9 145.0 N 80.02 CA 88.24 C 89.93 O 81.64 CB 92.26 OG 98.59
A ASN S 77 -95.9 6.3 N 100.26 CA 108.16 C 108.09 O 112.31 CB 117.5 CG 127.7 OD1 132.1 ND2 129.57
A LEU T 46 -58.7 -43.9 N 105.31 CA 113.4 C 116.25 O 124.74 CB 98.49 CG 102.6 CD1 101.4 CD2 116.55
A GLY T 1 -81.0 -6.3 N 110.83 CA 112.47 C 110.22 O 108.86
A SER H 11 -48.4 -45.7 N 108.92 CA 110.4 C 118.18 O 117.95 CB 111.75 OG 108.08
A ASP H 125 -69.3 -49.2 N 124.4 CA 131.11 C 130.09 O 128.92 CB 144.45 CG 148.47 OD1 141.26 OD2 157.51
A LEU H 52 -68.4 -28.9 N 131.09 CA 131.89 C 126.34 O 125.24 CB 133.74 CG 139.49 CD1 147.11 CD2 140.8
A ILE H 4 -75.1 -44.3 N 121.69 CA 114.12 C 113.85 O 113.54 CB 104.35 CG1 101.44 CG2 97.98 CD1 93.63
A GLN H 81 -66.6 -25.7 N 115.81 CA 120.1 C 129.0 O 131.73 CB 122.64 CG 116.65 CD 115.91 OE1 122.83 NE2 107.39
A GLU T 149 -86.2 0.0 N 135.26 CA 145.16 C 146.11 O 147.78 CB 152.51 CG 159.39 CD 160.29 OE1 158.27 OE2 162.85
A ARG - 95 -117.6 130.4 N 145.02 CA 143.5 C 134.81 O 125.63 CB 143.89 CG 151.72 CD 156.93 NE 165.98 CZ 174.54 NH1 173.75 NH2 184.11
A PHE - 169 45.1 360.0 N 137.3 CA 146.07 C 145.34 O 143.93 CB 147.88 CG 140.72 CD1 140.54 CD2 134.56 CE1 136.86 CE2 130.08 CZ 132.04
A LEU - 62 360.0 156.5 N 148.13 CA 152.44 C 150.73 O 145.93 CB 151.67 CG 153.55 CD1 157.51 CD2 145.63
A ASP - 76 -68.3 161.6 N 154.82 CA 154.78 C 146.1 O 142.28 CB 161.25 CG 160.22 OD1 164.81 OD2 154.67
A TYR T 170 -69.6 -5.1 N 143.03 CA 135.98 C 124.23 O 112.88 CB 142.71 CG 155.49 CD1 160.44 CD2 162.34 CE1 166.05 CE2 169.34 CZ 170.94 OH 174.61
A ALA T 54 -112.9 -60.0 N 126.88 CA 122.34 C 118.56 O 111.15 CB 126.23
A HIS T 113 -54.2 -18.5 N 123.46 CA 130.39 C 128.12 O 130.75 CB 143.03 CG 150.47 ND1 157.91 CD2 149.75 CE1 160.02 NE2 155.11
A LYS H 87 -60.5 -37.2 N 113.53 CA 112.29 C 119.21 O 118.81 CB 108.53 CG 102.28 CD 102.1 CE 103.63 NZ 103.74
A GLU H 136 -66.2 -55.4 N 123.75 CA 128.43 C 128.95 O 128.46 CB 136.84 CG 148.08 CD 149.09 OE1 144.24 OE2 152.9
A LEU H 69 -49.9 -45.3 N 132.22 CA 142.29 C 139.36 O 116.44 CB 148.23 CG 158.7 CD1 126.6 CD2 126.24
A VAL H 3 -79.4 -28.4 N 131.02 CA 125.27 C 122.09 O 120.24 CB 127.79 CG1 120.4 CG2 127.61
A LEU H 69 -55.7 -35.6 N 123.07 CA 129.4 C 138.72 O 141.13 CB 134.7 CG 139.01 CD1 135.51 CD2 138.56
A GLY H 43 -49.6 -48.3 N 146.62 CA 158.92 C 164.32 O 169.31
A VAL H 50 -80.4 -18.4 N 164.34 CA 167.0 C 163.62 O 163.51 CB 164.36 CG1 167.48 CG2 166.6
A VAL H 8 -69.0 -42.6 N 159.96 CA 156.3 C 159.38 O 159.83 CB 151.16 CG1 149.76 CG2 144.61
A SER H 72 -56.7 -31.0 N 161.61 CA 166.07 C 169.61 O 172.78 CB 173.19 OG 169.85
A HIS H 166 -60.5 -55.8 N 168.83 CA 170.0 C 160.59 O 166.41 CB 173.07 CG 181.3 ND1 187.75 CD2 183.18 CE1 193.5 NE2 190.53
A ASN H 89 -92.3 -11.4 N 146.69 CA 139.0 C 137.1 O 136.21 CB 128.11 CG 130.12 OD1 130.72 ND2 122.27
A PHE - 13 -125.5 139.5 N 135.78 CA 131.2 C 135.36 O 138.49 CB 122.78 CG 114.77 CD1 113.68 CD2 109.19 CE1 109.96 CE2 105.7 CZ 106.12
A ARG - 106 -87.0 154.1 N 137.21 CA 142.0 C 140.34 O 137.11 CB 141.73 CG 143.95 CD 136.65 NE 136.47 CZ 131.57 NH1 125.16 NH2 133.81
A PRO H 91 -49.7 -38.0 N 141.57 CA 134.05 C 122.27 O 119.26 CB 141.5 CG 149.17 CD 149.05
A GLU H 111 -52.2 -52.2 N 117.56 CA 110.78 C 110.17 O 114.09 CB 110.96 CG 119.03 CD 126.03 OE1 131.13 OE2 126.04
A PHE H 4 -63.6 -48.9 N 105.93 CA 104.88 C 108.71 O 109.6 CB 111.83 CG 113.42 CD1 116.74 CD2 109.56 CE1 115.77 CE2 110.79 CZ 113.98
A ILE H 32 -60.4 -38.3 N 112.97 CA 115.5 C 114.18 O 109.17 CB 125.15 CG1 130.29 CG2 125.44 CD1 135.82
A ASN H 120 -79.2 -25.6 N 118.81 CA 118.9 C 115.3 O 119.48 CB 125.13 CG 132.88 OD1 139.32 ND2 132.41
A ARG H 72 -89.6 -5.1 N 108.41 CA 99.27 C 89.64 O 87.98 CB 102.45 CG 112.2 CD 116.78 NE 121.84 CZ 124.57 NH1 123.88 NH2 126.45
A ILE S 12 -96.9 139.0 N 86.4 CA 80.95 C 74.88 O 77.49 CB 84.9 CG1 92.81 CG2 87.07 CD1 95.48
A ASP S 42 -63.7 -47.6 N 69.69 CA 70.14 C 71.35 O 74.67 CB 68.37 CG 73.9 OD1 76.15 OD2 77.4
A GLU E 41 -139.3 142.0 N 71.48 CA 73.98 C 69.14 O 63.05 CB 75.6 CG 78.66 CD 85.62 OE1 90.77 OE2 82.96
A VAL E 29 -105.6 115.2 N 70.82 CA 69.45 C 66.69 O 67.22 CB 74.89 CG1 73.18 CG2 78.9
A VAL E 1 -101.6 135.1 N 61.68 CA 67.46 C 74.1 O 77.29 CB 62.83 CG1 59.06 CG2 63.65
A VAL E 15 -108.3 124.6 N 73.53 CA 66.08 C 70.13 O 61.26 CB 70.98 CG1 73.82 CG2 74.72
A PHE - 0 -102.4 125.8 N 69.41 CA 66.93 C 73.3 O 76.57 CB 56.92 CG 59.48 CD1 59.27 CD2 53.89 CE1 54.08 CE2 50.31 CZ 50.48
A HIS - 63 -88.7 153.8 N 62.65 CA 82.43 C 80.19 O 75.59 CB 81.38 CG 75.91 ND1 74.68 CD2 72.41 CE1 69.76 NE2 68.33
A PRO - 43 -64.4 161.8 N 81.4 CA 84.22 C 86.3 O 90.31 CB 89.92 CG 90.64 CD 85.0
A LEU - 12 -90.8 128.0 N 82.82 CA 81.36 C 85.24 O 80.7 CB 79.31 CG 78.15 CD1 78.66 CD2 75.45
A GLY - 33 -76.1 174.3 N 94.93 CA 102.89 C 102.23 O 101.1
A GLU H 138 -62.1 -56.0 N 101.88 CA 98.16 C 89.63 O 85.33 CB 109.33 CG 118.02 CD 131.79 OE1 137.5 OE2 135.66
A GLN H 165 -58.1 -35.0 N 88.89 CA 87.12 C 83.45 O 82.34 CB 93.65 CG 102.74 CD 105.62 OE1 103.83 NE2 108.91
A HIS H 52 -55.7 -63.5 N 82.79 CA 77.86 C 64.41 O 61.75 CB 86.72 CG 94.61 ND1 99.82 CD2 98.11 CE1 105.42 NE2 104.1
A ILE H 10 -53.3 -36.6 N 57.61 CA 52.86 C 49.15 O 41.99 CB 48.14 CG1 62.14 CG2 46.35 CD1 67.19
A ALA H 19 -58.3 -48.5 N 52.31 CA 55.0 C 55.1 O 50.07 CB 58.4
A SER H 37 -65.6 -40.0 N 57.16 CA 57.05 C 50.79 O 42.54 CB 60.05 OG 67.15
A ILE H 30 -57.2 -44.1 N 34.93 CA 32.98 C 45.75 O 41.1 CB 34.8 CG1 37.15 CG2 59.83 CD1 76.4
A ALA H 0 -57.0 -51.4 N 47.62 CA 47.08 C 52.62 O 57.1 CB 51.23
A GLN H 100 -58.1 -43.7 N 51.58 CA 48.66 C 53.39 O 55.26 CB 51.37 CG 66.28 CD 79.17 OE1 83.53 NE2 84.69
A ILE H 43 -60.8 -40.7 N 54.59 CA 49.77 C 52.75 O 57.84 CB 46.31 CG1 59.5 CG2 37.71 CD1 63.5
A GLN H 32 -66.1 -28.6 N 54.15 CA 56.9 C 57.93 O 58.15 CB 58.59 CG 62.13 CD 67.73 OE1 71.57 NE2 70.47
A LEU H 3 -77.9 -19.1 N 57.65 CA 57.01 C 63.65 O 63.36 CB 50.55 CG 45.82 CD1 40.12 CD2 48.26
A LYS H 125 -53.5 -47.0 N 68.73 CA 72.09 C 66.47 O 66.51 CB 81.35 CG 89.54 CD 93.37 CE 94.34 NZ 93.58
A ARG H 107 -61.4 -50.2 N 61.98 CA 68.39 C 68.41 O 70.56 CB 79.69 CG 94.93 CD 107.93 NE 118.94 CZ 126.06 NH1 128.83 NH2 126.6
A LEU H 18 -55.8 -49.1 N 65.63 CA 57.13 C 58.31 O 58.76 CB 47.51 CG 47.69 CD1 48.99 CD2 46.95
A TYR H 64 -51.4 -40.8 N 54.78 CA 54.41 C 59.08 O 63.37 CB 58.12 CG 58.77 CD1 54.16 CD2 67.22 CE1 56.2 CE2 68.5 CZ 60.9 OH 59.49
A LYS H 135 -70.4 -47.9 N 61.85 CA 68.26 C 63.96 O 63.51 CB 77.43 CG 87.82 CD 93.13 CE 95.02 NZ 91.84
A ARG H 155 -61.1 -32.9 N 60.45 CA 57.78 C 62.15 O 63.77 CB 53.48 CG 61.74 CD 72.65 NE 76.2 CZ 78.7 NH1 79.23 NH2 77.6
A LEU H 13 -78.7 -29.6 N 60.9 CA 63.39 C 72.54 O 75.7 CB 64.29 CG 60.29 CD1 61.31 CD2 54.6
A GLU H 126 -65.5 -30.8 N 77.76 CA 85.26 C 82.96 O 83.2 CB 96.63 CG 111.19 CD 121.32 OE1 124.77 OE2 124.95
A GLU H 134 -68.0 -31.4 N 82.88 CA 88.34 C 88.97 O 97.44 CB 92.94 CG 100.28 CD 105.69 OE1 104.84 OE2 108.75
A ARG T 195 -96.6 1.6 N 84.19 CA 88.41 C 89.15 O 90.23 CB 91.48 CG 99.84 CD 109.27 NE 113.66 CZ 116.3 NH1 118.53 NH2 117.5
A GLY T 41 89.6 19.6 N 86.61 CA 82.73 C 73.04 O 72.69
A TYR - 24 -97.2 140.2 N 67.88 CA 63.54 C 64.26 O 63.31 CB 60.43 CG 62.87 CD1 62.26 CD2 64.72 CE1 60.91 CE2 64.53 CZ 64.07 OH 66.72
A GLU E 109 -116.0 120.1 N 65.75 CA 64.93 C 56.31 O 62.17 CB 71.58 CG 75.31 CD 80.25 OE1 74.15 OE2 86.89
A ILE E 10 -117.0 128.5 N 42.76 CA 42.56 C 46.02 O 54.2 CB 48.32 CG1 61.25 CG2 46.43 CD1 67.38
A HIS E 103 -122.5 143.0 N 42.69 CA 49.22 C 47.47 O 50.04 CB 66.07 CG 80.58 ND1 85.96 CD2 87.7 CE1 91.25 NE2 91.86
A ILE E 29 -112.9 132.3 N 45.12 CA 49.63 C 55.3 O 39.45 CB 32.93 CG1 49.76 CG2 60.84 CD1 46.81
A SER - 16 -61.5 149.7 N 56.42 CA 60.85 C 67.72 O 74.47 CB 70.93 OG 86.66
A ASP H 134 -61.5 -39.4 N 72.92 CA 83.01 C 84.81 O 82.71 CB 99.08 CG 109.81 OD1 111.74 OD2 113.92
A GLU H 101 -71.1 -34.1 N 90.02 CA 93.32 C 83.4 O 86.71 CB 102.7 CG 113.51 CD 121.61 OE1 126.15 OE2 120.57
A ALA H 0 -66.2 -38.8 N 72.16 CA 68.58 C 69.5 O 74.01 CB 40.42
A LEU H 27 -65.3 -34.6 N 62.53 CA 56.02 C 54.56 O 49.65 CB 53.79 CG 53.28 CD1 55.3 CD2 58.59
A LYS H 109 -66.6 -40.9 N 57.15 CA 65.64 C 69.21 O 80.59 CB 73.47 CG 80.51 CD 93.26 CE 102.46 NZ 112.62
A LEU H 28 -60.4 -45.6 N 61.34 CA 61.67 C 61.45 O 70.61 CB 61.55 CG 61.88 CD1 69.03 CD2 58.96
A LEU H 0 -59.2 -49.1 N 53.9 CA 56.05 C 67.07 O 69.11 CB 52.22 CG 53.92 CD1 54.04 CD2 55.43
A SER H 13 -61.7 -32.4 N 70.94 CA 71.76 C 76.94 O 82.95 CB 76.83 OG 88.36
A GLU H 124 -73.8 -48.0 N 79.43 CA 88.86 C 85.48 O 82.24 CB 102.84 CG 117.14 CD 133.35 OE1 138.81 OE2 140.48
A ASN H 85 -72.3 -8.7 N 88.6 CA 93.54 C 89.08 O 89.97 CB 97.7 CG 103.29 OD1 106.52 ND2 103.3
A GLY H 1 -103.1 -13.1 N 88.82 CA 87.25 C 85.32 O 85.93
A TYR - 53 -127.1 116.9 N 83.37 CA 85.78 C 91.8 O 98.13 CB 87.93 CG 96.16 CD1 97.0 CD2 101.52 CE1 102.63 CE2 106.17 CZ 106.6 OH 107.38
A ASP B 56 -129.9 143.2 N 92.17 CA 99.23 C 94.6 O 90.65 CB 110.37 CG 116.54 OD1 117.26 OD2 118.84
A PRO T 86 -51.0 -29.2 N 94.21 CA 90.46 C 89.95 O 92.72 CB 96.51 CG 99.93 CD 97.76
A VAL T 91 -80.8 -40.2 N 91.66 CA 97.29 C 94.86 O 94.36 CB 85.37 CG1 118.63 CG2 83.15
A TYR T 143 -98.3 -4.8 N 92.32 CA 90.4 C 81.24 O 80.04 CB 101.97 CG 116.25 CD1 126.5 CD2 121.88 CE1 137.38 CE2 133.99 CZ 142.95 OH 153.09
A GLY B 2 60.1 -132.4 N 77.31 CA 68.22 C 59.81 O 60.37
A ALA T 15 -91.0 4.6 N 48.91 CA 53.58 C 52.59 O 49.36 CB 51.44
A ARG T 150 -50.5 -46.9 N 54.33 CA 56.72 C 64.96 O 67.21 CB 65.94 CG 80.13 CD 94.87 NE 104.45 CZ 112.66 NH1 112.03 NH2 117.89
A PRO T 40 -67.3 -15.8 N 65.36 CA 62.49 C 56.04 O 60.43 CB 64.51 CG 65.94 CD 63.98
A LEU H 2 -53.6 -48.3 N 50.92 CA 47.98 C 52.76 O 47.57 CB 45.25 CG 47.57 CD1 52.08 CD2 54.44
A LYS H 55 -57.0 -56.4 N 66.03 CA 67.36 C 65.3 O 69.46 CB 66.9 CG 66.04 CD 79.55 CE 83.93 NZ 73.86
A ARG H 168 -80.9 1.8 N 64.78 CA 73.85 C 68.61 O 70.45 CB 92.53 CG 108.64 CD 116.81 NE 119.66 CZ 118.83 NH1 117.07 NH2 118.64
A ALA H 9 -80.1 -30.1 N 65.66 CA 61.84 C 53.11 O 60.86 CB 64.05
A ILE H 1 -78.8 -43.3 N 46.61 CA 45.66 C 49.18 O 47.47 CB 41.87 CG1 44.47 CG2 34.92 CD1 46.31
A GLN I 84 -56.3 -43.7 N 56.47 CA 57.95 C 54.74 O 51.9 CB 65.26 CG 77.66 CD 86.65 OE1 89.7 NE2 87.64
A GLN I 140 -80.1 -44.9 N 54.43 CA 58.88 C 57.63 O 63.09 CB 66.1 CG 80.96 CD 95.97 OE1 101.45 NE2 99.7
A GLN I 50 -83.6 -21.5 N 51.7 CA 51.32 C 49.43 O 51.42 CB 53.23 CG 62.26 CD 74.07 OE1 82.13 NE2 74.13
A ILE I 3 -118.6 -60.2 N 43.83 CA 38.13 C 39.74 O 40.85 CB 39.0 CG1 44.35 CG2 26.25 CD1 49.25
A GLU I 49 -59.7 -35.6 N 43.38 CA 45.72 C 38.25 O 36.07 CB 55.61 CG 64.07 CD 75.55 OE1 84.83 OE2 73.5
A ASN H 87 -63.9 -58.2 N 36.89 CA 43.34 C 42.42 O 51.12 CB 45.81 CG 46.81 OD1 45.03 ND2 52.75
A PRO H 47 -68.1 -25.3 N 36.51 CA 48.81 C 49.61 O 54.44 CB 52.82 CG 44.65 CD 36.43
A LEU H 5 -65.5 -49.5 N 46.01 CA 44.39 C 43.86 O 50.25 CB 42.05 CG 40.58 CD1 36.91 CD2 46.28
A ALA H 46 -61.5 -38.1 N 37.57 CA 40.77 C 51.46 O 53.22 CB 38.19
A GLN H 143 -56.0 -51.0 N 59.58 CA 64.84 C 66.89 O 74.16 CB 67.14 CG 70.16 CD 70.31 OE1 68.01 NE2 70.49
A GLN H 23 -71.3 -35.0 N 63.92 CA 59.66 C 55.58 O 60.46 CB 58.34 CG 61.86 CD 62.31 OE1 63.51 NE2 63.85
A ILE H 51 -64.7 -47.6 N 49.85 CA 49.06 C 54.26 O 56.17 CB 39.44 CG1 33.22 CG2 37.89 CD1 30.67
A LEU H 155 -68.4 -30.0 N 53.01 CA 52.89 C 59.88 O 63.98 CB 51.17 CG 48.5 CD1 56.82 CD2 41.5
A SER H 84 -64.6 -37.9 N 61.52 CA 64.38 C 69.73 O 75.06 CB 65.14 OG 69.32
A GLY T 46 96.8 -1.3 N 71.16 CA 76.62 C 78.11 O 81.3
A GLU S 120 -64.2 -43.9 N 74.59 CA 72.58 C 71.19 O 75.61 CB 78.13 CG 89.58 CD 102.41 OE1 106.7 OE2 107.62
A LEU S 3 -95.2 125.3 N 69.0 CA 65.07 C 67.0 O 64.55 CB 60.96 CG 61.52 CD1 65.59 CD2 64.17
A VAL - 72 -119.5 141.3 N 68.84 CA 68.61 C 68.66 O 76.16 CB 69.07 CG1 71.08 CG2 69.96
A PRO T 59 -59.2 151.9 N 61.51 CA 65.92 C 68.91 O 71.9 CB 69.54 CG 65.89 CD 60.81
A GLY T 74 91.1 0.7 N 69.85 CA 78.25 C 82.62 O 91.39
A LYS S 127 -128.0 135.1 N 78.34 CA 76.54 C 71.66 O 71.26 CB 76.52 CG 81.31 CD 84.79 CE 87.37 NZ 84.4
A VAL E 69 -70.5 126.9 N 68.91 CA 68.79 C 67.01 O 72.95 CB 78.33 CG1 76.81 CG2 89.46
A ILE E 0 -94.8 113.7 N 59.92 CA 50.36 C 48.56 O 51.02 CB 47.12 CG1 44.88 CG2 52.76 CD1 45.49
A ARG E 102 -95.6 134.7 N 49.98 CA 47.49 C 42.19 O 39.85 CB 37.43 CG 58.77 CD 64.39 NE 70.85 CZ 81.29 NH1 85.39 NH2 85.89
A LEU E 2 -100.2 109.4 N 39.92 CA 45.34 C 56.78 O 57.6 CB 49.66 CG 53.31 CD1 50.33 CD2 53.97
A GLU E 36 -116.0 -174.5 N 63.48 CA 62.54 C 61.75 O 60.9 CB 65.19 CG 66.81 CD 79.61 OE1 86.22 OE2 83.89
A VAL E 27 -112.2 131.4 N 68.22 CA 73.31 C 73.39 O 63.47 CB 50.8 CG1 51.3 CG2 82.72
A ASN E 89 -116.8 126.8 N 85.33 CA 95.6 C 99.76 O 104.77 CB 99.47 CG 102.51 OD1 105.93 ND2 100.86
A GLU T 149 49.6 -129.8 N 103.15 CA 113.31 C 115.65 O 120.63 CB 120.59 CG 130.75 CD 132.65 OE1 133.17 OE2 130.95
A ASP T 144 -96.9 5.6 N 112.48 CA 109.48 C 98.47 O 98.04 CB 116.56 CG 123.58 OD1 122.59 OD2 130.0
A ARG E 188 -109.1 149.2 N 89.22 CA 77.8 C 63.48 O 61.32 CB 89.12 CG 107.84 CD 117.37 NE 121.85 CZ 119.6 NH1 114.32 NH2 122.33
A ILE E 18 -83.0 129.5 N 59.45 CA 57.89 C 62.5 O 65.37 CB 52.89 CG1 58.91 CG2 43.68 CD1 37.74
A VAL E 39 -121.3 152.3 N 61.74 CA 61.23 C 57.03 O 56.11 CB 115.31 CG1 115.23 CG2 116.42
A ALA E 8 -105.8 137.4 N 50.1 CA 46.44 C 57.18 O 59.72 CB 30.91
A VAL E 31 -137.1 150.7 N 60.6 CA 60.38 C 60.4 O 59.99 CB 62.17 CG1 65.58 CG2 62.57
A GLN E 44 -114.1 109.7 N 62.08 CA 67.28 C 75.42 O 83.35 CB 74.38 CG 84.4 CD 91.17 OE1 100.25 NE2 85.06
A HIS - 178 -90.9 360.0 N 71.61 CA 69.24 C 69.52 O 69.49 CB 73.84 CG 72.52 ND1 68.11 CD2 72.5 CE1 66.78 NE2 67.56
