A ARG - 191 360.0 -31.9 N 91.01 CA 91.1 C 92.31 O 92.49 CB 94.27 CG 110.02 CD 126.03 NE 139.15 CZ 155.87 NH1 142.52 NH2 144.19
A LYS - 191 -89.0 -31.7 N 85.44 CA 83.55 C 80.4 O 80.61 CB 86.81 CG 105.66 CD 117.32 CE 127.16 NZ 134.8
A ALA S 47 -70.2 134.0 N 70.19 CA 66.91 C 64.12 O 62.2 CB 67.06
A PRO B 23 -59.1 137.1 N 57.26 CA 56.01 C 56.66 O 55.38 CB 57.72 CG 62.99 CD 58.77
A CYS - 1 -67.1 121.1 N 50.87 CA 49.73 C 53.85 O 53.44 CB 49.38 SG 52.43
A LYS H 68 -54.3 -34.7 N 51.35 CA 50.76 C 53.9 O 53.73 CB 52.84 CG 68.37 CD 79.82 CE 94.71 NZ 104.6
A TYR H 27 -72.7 -40.3 N 50.18 CA 49.75 C 52.91 O 53.05 CB 51.11 CG 52.76 CD1 53.82 CD2 53.98 CE1 53.85 CE2 54.59 CZ 60.86 OH 60.34
A GLU H 7 -67.8 -36.8 N 49.0 CA 48.35 C 53.25 O 54.43 CB 49.64 CG 56.72 CD 67.63 OE1 61.92 OE2 57.81
A VAL H 0 -62.7 -31.8 N 49.42 CA 49.09 C 53.95 O 53.38 CB 52.36 CG1 51.83 CG2 52.3
A ARG H 5 -94.6 -7.9 N 51.83 CA 51.67 C 57.0 O 58.09 CB 50.1 CG 55.44 CD 56.01 NE 51.49 CZ 63.94 NH1 49.41 NH2 55.39
A GLY S 0 161.1 -109.3 N 54.09 CA 54.28 C 59.16 O 59.6
A LYS - 83 -125.9 126.7 N 57.56 CA 58.62 C 65.1 O 65.56 CB 61.12 CG 82.07 CD 90.57 CE 97.86 NZ 104.94
A CYS - 23 -68.4 121.4 N 63.58 CA 64.38 C 74.87 O 74.3 CB 63.68 SG 66.69
A ASN S 49 -80.4 -42.5 N 76.96 CA 79.24 C 87.53 O 87.73 CB 79.67 CG 111.69 OD1 107.27 ND2 105.7
A ARG - 82 -44.0 -35.3 N 86.84 CA 88.26 C 95.99 O 95.75 CB 87.85 CG 95.31 CD 105.39 NE 113.8 CZ 128.59 NH1 114.95 NH2 116.73
A GLY - 44 54.7 -110.5 N 94.63 CA 95.64 C 101.32 O 100.87
A SER T 106 -62.5 130.6 N 98.94 CA 99.1 C 101.26 O 100.68 CB 104.26 OG 114.77
A GLU T 157 71.2 34.5 N 96.63 CA 95.46 C 94.89 O 94.44 CB 97.26 CG 111.88 CD 137.85 OE1 135.99 OE2 128.12
A CYS - 23 -102.1 110.0 N 87.22 CA 84.31 C 86.02 O 86.03 CB 83.69 SG 86.49
A LYS - 97 -56.7 -37.8 N 80.88 CA 80.15 C 80.37 O 80.27 CB 83.16 CG 106.03 CD 118.67 CE 131.25 NZ 140.27
A PHE S 97 -68.3 163.9 N 74.25 CA 72.46 C 71.93 O 71.19 CB 73.6 CG 75.43 CD1 78.04 CD2 78.99 CE1 80.92 CE2 79.81 CZ 78.87
A ASN B 27 -82.2 124.8 N 65.05 CA 63.72 C 63.57 O 61.93 CB 63.78 CG 77.25 OD1 66.7 ND2 71.89
A HIS - 66 -114.0 9.5 N 58.55 CA 57.73 C 60.17 O 59.9 CB 58.51 CG 61.59 ND1 63.65 CD2 62.32 CE1 62.29 NE2 61.95
A ASN - 77 -100.2 109.8 N 56.28 CA 55.94 C 57.42 O 57.22 CB 58.28 CG 79.11 OD1 75.63 ND2 67.32
A TYR G 7 -58.0 -34.2 N 53.27 CA 52.28 C 57.39 O 55.48 CB 52.67 CG 52.95 CD1 54.18 CD2 53.43 CE1 53.01 CE2 53.84 CZ 57.56 OH 49.93
A TRP G 75 -59.1 -29.3 N 56.82 CA 58.28 C 62.77 O 61.97 CB 57.65 CG 58.95 CD1 61.78 CD2 59.15 NE1 61.52 CE2 63.19 CE3 60.85 CZ2 63.03 CZ3 62.84 CH2 63.52
A SER G 57 -90.1 -7.4 N 59.42 CA 59.27 C 63.17 O 63.66 CB 61.89 OG 70.24
A TRP S 2 -82.1 147.3 N 57.92 CA 56.13 C 57.66 O 54.99 CB 54.29 CG 54.92 CD1 58.01 CD2 54.19 NE1 57.13 CE2 57.99 CE3 55.1 CZ2 56.83 CZ3 56.34 CH2 56.99
A PRO - 65 -66.0 151.0 N 54.23 CA 53.96 C 57.37 O 55.58 CB 55.38 CG 59.69 CD 55.16
A ASP H 69 -51.7 -41.3 N 53.42 CA 52.28 C 55.36 O 54.65 CB 54.09 CG 64.19 OD1 64.61 OD2 70.69
A ARG H 65 -59.4 -42.1 N 50.62 CA 49.73 C 51.23 O 49.63 CB 52.86 CG 64.85 CD 71.31 NE 67.04 CZ 72.23 NH1 57.56 NH2 56.15
A TYR H 37 -63.0 -40.4 N 48.06 CA 47.37 C 49.25 O 48.39 CB 49.36 CG 52.43 CD1 54.86 CD2 53.28 CE1 56.71 CE2 54.56 CZ 63.89 OH 63.58
A LEU H 0 -66.3 -42.8 N 45.27 CA 45.23 C 50.31 O 50.25 CB 45.63 CG 50.12 CD1 50.61 CD2 51.69
A LEU H 8 -66.7 -40.2 N 47.19 CA 47.26 C 50.36 O 49.86 CB 48.18 CG 54.37 CD1 54.6 CD2 58.01
A ILE H 0 -70.9 -42.4 N 47.18 CA 46.46 C 46.88 O 45.78 CB 50.17 CG1 51.33 CG2 50.63 CD1 58.62
A ARG H 0 -57.3 -43.0 N 42.3 CA 42.26 C 45.84 O 45.66 CB 43.03 CG 40.18 CD 44.58 NE 58.78 CZ 62.85 NH1 47.74 NH2 56.66
A SER H 5 -54.5 -45.4 N 42.67 CA 42.53 C 45.23 O 45.08 CB 44.98 OG 57.43
A ASN H 0 -65.6 -40.1 N 41.48 CA 40.27 C 43.02 O 43.46 CB 40.06 CG 53.19 OD1 45.08 ND2 45.72
A TYR H 0 -66.4 -41.5 N 41.0 CA 41.64 C 46.24 O 47.35 CB 42.92 CG 44.48 CD1 46.22 CD2 45.63 CE1 46.32 CE2 46.31 CZ 54.1 OH 56.5
A LEU H 0 -71.4 -34.8 N 42.27 CA 42.39 C 45.6 O 44.3 CB 43.15 CG 48.28 CD1 48.01 CD2 50.24
A LEU H 3 -64.2 -36.3 N 42.28 CA 41.63 C 44.84 O 44.39 CB 41.21 CG 45.58 CD1 45.56 CD2 46.76
A ASN H 26 -58.0 -46.2 N 41.58 CA 42.12 C 48.48 O 48.2 CB 40.27 CG 46.6 OD1 39.74 ND2 33.4
A GLN H 9 -63.4 -41.6 N 46.54 CA 46.42 C 49.56 O 49.1 CB 47.14 CG 49.62 CD 64.67 OE1 58.17 NE2 56.16
A LEU H 5 -64.9 -36.2 N 45.8 CA 46.13 C 51.77 O 51.21 CB 45.95 CG 51.21 CD1 50.96 CD2 54.14
A LEU H 28 -65.6 -42.5 N 51.02 CA 51.97 C 55.03 O 53.53 CB 52.33 CG 58.81 CD1 60.18 CD2 61.02
A ARG H 32 -60.5 -48.2 N 51.55 CA 52.54 C 59.53 O 60.27 CB 53.66 CG 66.51 CD 78.41 NE 85.06 CZ 93.9 NH1 77.29 NH2 78.76
A ASN H 10 -62.2 -35.9 N 57.11 CA 58.06 C 63.94 O 63.81 CB 57.35 CG 61.02 OD1 52.76 ND2 51.83
A THR H 22 -101.7 2.4 N 62.06 CA 62.3 C 67.62 O 66.52 CB 68.65 OG1 78.88 CG2 60.26
A ASP - 36 -59.6 120.2 N 66.89 CA 68.3 C 76.24 O 75.78 CB 69.9 CG 78.54 OD1 79.52 OD2 81.88
A ARG - 89 -55.7 -49.1 N 75.83 CA 77.2 C 82.49 O 82.99 CB 79.29 CG 93.18 CD 105.96 NE 115.73 CZ 130.01 NH1 119.72 NH2 113.96
A ALA - 79 47.2 360.0 N 79.13 CA 116.32 C 150.59 O 114.77 CB 117.12
A GLY - 103 360.0 -86.7 N 131.94 CA 131.44 C 135.2 O 134.96
A ALA - 112 76.3 6.7 N 131.4 CA 131.19 C 132.99 O 132.79 CB 132.32
A GLY - 53 27.9 137.7 N 127.41 CA 126.03 C 127.37 O 127.9
A ARG - 177 -145.0 -176.9 N 120.44 CA 118.84 C 117.53 O 116.62 CB 119.63 CG 131.51 CD 143.15 NE 152.71 CZ 167.42 NH1 153.49 NH2 155.55
A GLU H 149 -64.6 -37.7 N 110.47 CA 108.28 C 106.4 O 105.67 CB 110.33 CG 123.15 CD 146.51 OE1 139.71 OE2 142.4
A ASP H 31 -58.0 -38.0 N 98.71 CA 95.96 C 92.67 O 91.71 CB 98.15 CG 110.85 OD1 112.23 OD2 117.19
A ARG H 79 -65.5 -37.0 N 84.37 CA 81.72 C 80.43 O 79.28 CB 82.49 CG 94.91 CD 108.16 NE 119.57 CZ 134.17 NH1 120.88 NH2 120.8
A THR H 82 -68.4 -44.3 N 74.25 CA 72.28 C 71.13 O 70.14 CB 80.08 OG1 81.85 CG2 77.15
A GLN H 47 -60.7 -41.7 N 64.77 CA 63.46 C 64.12 O 62.91 CB 65.34 CG 85.12 CD 101.79 OE1 94.27 NE2 96.4
A ASP H 16 -63.1 -43.8 N 59.53 CA 58.52 C 60.49 O 59.3 CB 59.98 CG 70.67 OD1 74.31 OD2 71.84
A PHE H 77 -69.4 -43.7 N 55.65 CA 55.0 C 57.53 O 56.02 CB 56.76 CG 58.18 CD1 60.88 CD2 60.8 CE1 61.8 CE2 63.44 CZ 61.28
A VAL H 97 -67.9 -51.6 N 54.99 CA 54.77 C 58.43 O 58.47 CB 59.05 CG1 58.8 CG2 58.83
A LEU H 63 -84.1 -35.9 N 55.12 CA 54.99 C 56.96 O 55.12 CB 55.43 CG 60.28 CD1 60.52 CD2 62.51
A GLY - 6 99.5 135.6 N 53.11 CA 52.21 C 55.21 O 55.41
A SER H 0 -46.7 -47.8 N 51.51 CA 51.18 C 56.14 O 55.8 CB 52.28 OG 58.47
A THR H 7 -60.2 -40.0 N 54.1 CA 54.66 C 58.68 O 58.03 CB 61.04 OG1 62.11 CG2 57.13
A ASN H 18 -70.3 -40.2 N 55.48 CA 55.5 C 60.18 O 61.22 CB 53.5 CG 66.02 OD1 57.44 ND2 61.52
A VAL H 0 -60.3 -48.8 N 56.17 CA 56.34 C 61.08 O 61.47 CB 59.7 CG1 59.88 CG2 59.01
A VAL H 2 -67.7 -43.6 N 57.0 CA 56.98 C 64.22 O 64.06 CB 59.31 CG1 58.7 CG2 58.7
A GLN H 67 -61.0 -38.9 N 63.11 CA 63.88 C 70.81 O 70.68 CB 64.81 CG 75.18 CD 90.42 OE1 83.23 NE2 81.34
A GLY H 9 -56.6 -46.9 N 68.8 CA 69.57 C 75.4 O 74.62
A TYR H 22 -62.4 -38.9 N 73.91 CA 75.2 C 80.12 O 80.01 CB 76.97 CG 80.85 CD1 83.45 CD2 81.89 CE1 84.46 CE2 83.35 CZ 92.64 OH 95.28
A ILE H 25 -66.4 -41.8 N 76.8 CA 76.87 C 82.95 O 82.92 CB 79.1 CG1 78.84 CG2 79.18 CD1 82.52
A ASP T 111 -82.0 9.9 N 81.34 CA 82.38 C 88.75 O 89.5 CB 83.91 CG 92.45 OD1 91.6 OD2 100.56
A ASP T 95 59.9 39.7 N 86.34 CA 87.35 C 93.32 O 94.2 CB 89.63 CG 97.74 OD1 97.33 OD2 102.89
A ASN - 79 -70.8 124.0 N 89.55 CA 89.66 C 94.32 O 93.43 CB 89.52 CG 111.76 OD1 104.56 ND2 103.07
A GLN T 199 -62.0 -30.4 N 91.84 CA 91.93 C 94.47 O 94.0 CB 94.17 CG 106.99 CD 119.58 OE1 111.57 NE2 111.04
A SER T 74 -75.0 -13.8 N 90.06 CA 89.15 C 90.9 O 90.37 CB 92.54 OG 100.83
A ILE - 13 -99.5 109.2 N 85.49 CA 83.88 C 88.31 O 87.54 CB 85.6 CG1 85.08 CG2 84.78 CD1 85.31
A THR - 75 -80.1 160.0 N 85.81 CA 86.5 C 91.14 O 90.52 CB 96.62 OG1 95.15 CG2 96.96
A LYS H 69 -60.0 -42.9 N 87.59 CA 86.68 C 89.11 O 88.13 CB 89.78 CG 103.58 CD 111.69 CE 119.76 NZ 127.47
A ALA H 32 -61.0 -41.0 N 84.89 CA 84.1 C 86.67 O 86.27 CB 85.33
A ALA H 0 -68.3 -46.8 N 82.12 CA 80.7 C 81.28 O 79.85 CB 81.67
A ALA H 4 -61.4 -38.1 N 76.42 CA 75.3 C 78.96 O 78.59 CB 76.03
A CYS H 0 -69.1 -41.9 N 75.08 CA 74.01 C 76.16 O 75.75 CB 74.53 SG 78.61
A TYR H 36 -62.4 -45.7 N 71.3 CA 70.15 C 70.65 O 70.02 CB 71.69 CG 73.24 CD1 75.4 CD2 73.92 CE1 76.54 CE2 74.82 CZ 82.88 OH 82.37
A SER H 0 -64.2 -40.1 N 64.98 CA 63.14 C 63.97 O 62.33 CB 65.5 OG 70.62
A LEU H 1 -64.6 -39.3 N 60.12 CA 60.42 C 66.27 O 65.12 CB 60.62 CG 64.55 CD1 63.56 CD2 67.61
A HIS H 9 -57.1 -39.4 N 65.51 CA 66.35 C 68.66 O 68.29 CB 68.51 CG 72.9 ND1 75.43 CD2 75.32 CE1 75.15 NE2 75.38
A ASN H 20 -64.5 -40.4 N 64.39 CA 63.18 C 64.98 O 65.12 CB 64.77 CG 94.87 OD1 92.23 ND2 88.35
A ILE H 1 -66.6 -42.4 N 59.99 CA 59.22 C 64.6 O 64.09 CB 61.3 CG1 60.82 CG2 59.95 CD1 58.83
A ILE H 0 -55.4 -44.0 N 62.89 CA 64.04 C 71.79 O 71.44 CB 66.72 CG1 66.65 CG2 67.13 CD1 71.87
A LYS H 13 -59.1 -28.2 N 70.53 CA 71.1 C 75.76 O 76.93 CB 74.24 CG 91.07 CD 102.31 CE 115.12 NZ 122.39
A GLN H 31 -92.1 -14.7 N 71.15 CA 70.32 C 72.57 O 72.67 CB 71.97 CG 84.24 CD 96.01 OE1 88.0 NE2 90.79
A LEU - 3 -61.9 141.9 N 67.45 CA 66.62 C 70.47 O 69.53 CB 66.55 CG 70.85 CD1 70.75 CD2 72.6
A GLN - 8 -92.4 114.1 N 66.85 CA 66.18 C 71.18 O 71.05 CB 67.07 CG 69.45 CD 72.69 OE1 62.5 NE2 63.5
A GLU H 39 -53.4 -40.0 N 68.14 CA 68.11 C 72.19 O 71.37 CB 69.62 CG 82.58 CD 108.23 OE1 103.19 OE2 106.94
A VAL H 3 -62.1 -39.2 N 69.99 CA 70.48 C 75.8 O 75.88 CB 74.34 CG1 73.69 CG2 74.47
A GLU H 12 -76.8 -36.4 N 72.49 CA 72.58 C 75.03 O 74.17 CB 74.01 CG 83.99 CD 103.22 OE1 95.41 OE2 98.31
A VAL H 1 -69.7 -37.7 N 70.39 CA 70.06 C 75.61 O 74.62 CB 72.98 CG1 72.73 CG2 72.33
A ARG H 12 -65.5 -46.7 N 74.17 CA 74.8 C 79.15 O 78.63 CB 76.31 CG 88.9 CD 98.28 NE 108.81 CZ 125.9 NH1 118.88 NH2 109.59
A GLN H 62 -59.8 -44.5 N 76.58 CA 77.41 C 83.58 O 83.82 CB 78.74 CG 93.81 CD 111.3 OE1 103.39 NE2 106.61
A ALA H 23 -62.7 -44.3 N 81.55 CA 82.14 C 87.77 O 87.4 CB 82.67
A ARG H 3 -66.9 -56.4 N 85.83 CA 86.59 C 93.46 O 92.69 CB 85.15 CG 89.77 CD 92.52 NE 95.71 CZ 103.97 NH1 89.3 NH2 86.05
A ASP H 32 -67.2 -13.0 N 92.66 CA 94.05 C 101.52 O 101.27 CB 95.88 CG 104.84 OD1 105.32 OD2 109.02
A ASN H 130 -62.0 -42.2 N 100.77 CA 101.82 C 106.95 O 106.87 CB 104.71 CG 137.72 OD1 135.52 ND2 130.41
A LYS T 86 -124.6 70.0 N 104.32 CA 104.61 C 108.76 O 107.85 CB 107.19 CG 124.34 CD 136.49 CE 148.67 NZ 157.69
A LEU - 91 -59.2 -35.9 N 106.24 CA 106.35 C 111.87 O 111.14 CB 106.44 CG 110.77 CD1 111.06 CD2 112.7
A SER S 118 -58.3 -47.4 N 110.4 CA 111.13 C 115.71 O 115.46 CB 115.64 OG 125.78
A ASP - 60 -73.1 123.1 N 112.48 CA 112.46 C 116.18 O 115.55 CB 114.44 CG 124.42 OD1 124.7 OD2 130.24
A SER H 100 -60.7 -50.4 N 112.45 CA 111.72 C 113.61 O 112.74 CB 115.94 OG 124.95
A LYS H 96 -64.5 -47.8 N 108.83 CA 107.81 C 109.42 O 109.01 CB 110.67 CG 126.01 CD 136.42 CE 147.13 NZ 155.16
A HIS H 36 -57.1 -46.9 N 103.98 CA 102.67 C 103.98 O 103.31 CB 103.62 CG 106.84 ND1 108.42 CD2 108.46 CE1 107.76 NE2 108.13
A VAL H 28 -63.2 -46.3 N 98.7 CA 97.33 C 98.33 O 97.63 CB 101.3 CG1 100.93 CG2 101.19
A ALA H 42 -63.9 -35.3 N 92.7 CA 91.3 C 91.99 O 91.03 CB 92.14
A LEU H 19 -69.5 -39.8 N 86.5 CA 85.09 C 85.24 O 84.52 CB 85.36 CG 90.46 CD1 90.85 CD2 92.5
A HIS H 9 -69.1 -36.5 N 78.66 CA 77.21 C 78.7 O 78.44 CB 78.0 CG 81.4 ND1 83.1 CD2 83.15 CE1 82.74 NE2 83.05
A ASN H 29 -64.1 -36.2 N 73.16 CA 71.79 C 72.72 O 72.38 CB 72.35 CG 91.36 OD1 84.93 ND2 85.15
A LEU H 51 -64.3 -40.9 N 66.98 CA 66.49 C 68.46 O 67.99 CB 67.05 CG 72.36 CD1 72.46 CD2 76.04
A VAL H 0 -64.1 -45.3 N 63.94 CA 63.62 C 66.61 O 64.73 CB 67.39 CG1 67.09 CG2 67.11
A LEU H 3 -59.8 -40.3 N 64.01 CA 64.35 C 69.32 O 68.27 CB 64.31 CG 68.78 CD1 68.81 CD2 71.01
A SER H 34 -59.7 -37.3 N 67.57 CA 68.73 C 74.6 O 74.18 CB 72.99 OG 84.9
A TYR H 6 -71.5 -40.2 N 72.02 CA 72.17 C 74.38 O 73.25 CB 74.22 CG 77.79 CD1 80.24 CD2 78.97 CE1 81.75 CE2 80.31 CZ 89.25 OH 93.37
A MET H 7 -61.9 -40.3 N 71.0 CA 70.73 C 79.97 O 80.25 CB 71.93 CG 73.99 SD 76.8 CE 73.2
A GLU H 58 -60.7 -39.6 N 80.05 CA 81.85 C 89.9 O 90.08 CB 83.45 CG 94.67 CD 118.26 OE1 111.49 OE2 119.03
A MET G 34 -76.6 3.4 N 89.23 CA 90.75 C 97.74 O 97.56 CB 93.32 CG 97.62 SD 102.53 CE 99.51
A SER G 4 -57.1 -34.1 N 96.33 CA 97.2 C 104.65 O 105.12 CB 100.08 OG 107.54
A LYS G 59 -62.1 -36.6 N 102.6 CA 103.17 C 108.82 O 108.7 CB 105.69 CG 116.49 CD 122.54 CE 129.1 NZ 135.79
A THR S 63 -97.6 64.9 N 106.31 CA 106.74 C 110.61 O 110.26 CB 116.33 OG1 115.6 CG2 115.36
A PRO H 24 -55.1 -41.5 N 106.92 CA 106.56 C 110.29 O 109.84 CB 108.3 CG 112.69 CD 108.44
A ALA H 64 -58.7 -47.0 N 106.6 CA 106.58 C 110.17 O 110.01 CB 107.66
A SER H 68 -69.0 -31.5 N 106.15 CA 105.56 C 107.15 O 106.76 CB 109.77 OG 119.93
A LEU H 0 -67.7 -48.1 N 101.8 CA 100.32 C 103.12 O 102.5 CB 99.78 CG 103.94 CD1 103.88 CD2 106.25
A ILE H 27 -62.2 -42.6 N 99.1 CA 98.78 C 102.36 O 101.75 CB 101.92 CG1 101.87 CG2 102.9 CD1 109.28
A ASN H 90 -68.0 -37.6 N 99.32 CA 99.35 C 101.44 O 100.99 CB 101.73 CG 128.53 OD1 123.73 ND2 120.13
A ASN H 64 -67.2 -39.2 N 97.0 CA 96.45 C 98.82 O 98.51 CB 97.84 CG 125.59 OD1 121.67 ND2 117.98
A LEU H 0 -66.2 -40.7 N 94.12 CA 93.37 C 98.75 O 97.99 CB 92.69 CG 96.1 CD1 95.69 CD2 97.6
A LYS H 81 -66.2 -32.5 N 97.03 CA 98.05 C 104.02 O 103.95 CB 100.72 CG 114.14 CD 124.43 CE 133.63 NZ 141.62
A ARG H 212 -70.7 -27.2 N 101.54 CA 102.08 C 106.41 O 106.42 CB 103.2 CG 117.74 CD 136.35 NE 150.94 CZ 167.53 NH1 155.61 NH2 154.98
A LEU S 21 -60.7 142.2 N 102.88 CA 102.8 C 107.95 O 107.72 CB 102.36 CG 106.56 CD1 106.2 CD2 109.05
A PRO - 81 -65.7 140.9 N 105.42 CA 105.69 C 108.77 O 107.94 CB 107.69 CG 111.95 CD 107.02
A ARG H 111 -37.5 -49.4 N 105.17 CA 104.69 C 106.78 O 106.45 CB 106.85 CG 121.92 CD 139.66 NE 155.07 CZ 173.0 NH1 161.92 NH2 160.76
A GLU H 117 -76.0 -25.0 N 101.86 CA 100.76 C 100.73 O 99.73 CB 102.8 CG 114.63 CD 134.46 OE1 128.25 OE2 126.61
A LYS H 105 -75.1 -42.7 N 94.77 CA 93.05 C 94.01 O 93.19 CB 95.61 CG 110.52 CD 118.27 CE 125.9 NZ 133.96
A LEU H 2 -61.0 -42.4 N 88.25 CA 86.43 C 87.24 O 86.44 CB 86.56 CG 90.85 CD1 91.47 CD2 92.27
A LYS H 23 -66.1 -36.5 N 81.69 CA 80.73 C 82.21 O 82.01 CB 83.81 CG 97.31 CD 107.73 CE 118.5 NZ 127.64
A LYS H 111 -70.2 -41.4 N 76.64 CA 75.34 C 75.88 O 74.53 CB 78.43 CG 98.07 CD 106.85 CE 116.2 NZ 124.19
A LEU H 3 -68.2 -48.8 N 70.51 CA 69.17 C 71.01 O 70.51 CB 69.16 CG 73.52 CD1 74.07 CD2 74.78
A ALA H 2 -60.8 -34.9 N 66.12 CA 65.39 C 68.13 O 67.42 CB 66.35
A LYS H 116 -65.3 -48.7 N 64.51 CA 64.3 C 65.9 O 65.22 CB 68.09 CG 89.09 CD 101.86 CE 113.95 NZ 123.99
A LEU H 26 -62.5 -42.3 N 61.33 CA 60.82 C 62.41 O 61.9 CB 61.29 CG 66.36 CD1 66.55 CD2 68.92
A ILE H 0 -60.1 -46.4 N 58.78 CA 58.6 C 63.87 O 62.41 CB 61.03 CG1 60.86 CG2 61.0 CD1 65.72
A ILE H 11 -59.9 -45.4 N 62.27 CA 63.03 C 69.04 O 68.39 CB 66.15 CG1 66.12 CG2 67.17 CD1 67.79
A ASP H 84 -58.1 -48.4 N 67.96 CA 68.99 C 72.81 O 72.86 CB 72.0 CG 92.05 OD1 94.78 OD2 101.04
A LEU H 19 -61.6 -33.4 N 68.59 CA 68.05 C 71.28 O 71.08 CB 67.99 CG 72.64 CD1 72.56 CD2 75.2
A SER H 18 -67.3 -23.8 N 66.85 CA 66.14 C 70.52 O 68.88 CB 67.91 OG 71.73
A ALA T 14 -84.0 -12.8 N 69.39 CA 70.27 C 76.86 O 76.86 CB 71.22
A GLY - 19 90.1 -159.2 N 75.23 CA 76.32 C 83.85 O 83.31
A ALA - 78 -101.3 19.2 N 83.84 CA 85.79 C 92.35 O 92.77 CB 86.8
A GLU - 175 -138.2 360.0 N 88.99 CA 121.75 C 143.81 O 102.46 CB 123.23 CG 133.38 CD 152.59 OE1 145.96 OE2 143.82
B ARG - 221 360.0 -25.6 N 114.27 CA 113.81 C 114.46 O 114.07 CB 117.11 CG 134.08 CD 151.0 NE 165.52 CZ 182.67 NH1 170.74 NH2 170.56
B LYS - 168 -91.7 -28.5 N 107.99 CA 105.85 C 103.78 O 103.6 CB 109.09 CG 127.43 CD 139.16 CE 151.31 NZ 159.85
B ALA S 18 -68.4 140.2 N 95.41 CA 92.52 C 90.15 O 89.4 CB 93.28
B PRO B 6 -59.3 137.4 N 81.9 CA 79.49 C 77.99 O 76.58 CB 81.13 CG 86.45 CD 82.83
B CYS - 0 -64.6 119.3 N 71.24 CA 69.39 C 71.4 O 70.34 CB 69.17 SG 72.5
B LYS H 29 -55.5 -34.3 N 67.25 CA 66.07 C 67.68 O 67.14 CB 68.6 CG 83.38 CD 96.81 CE 113.02 NZ 124.3
B TYR H 35 -71.4 -41.6 N 62.66 CA 61.97 C 62.23 O 60.88 CB 64.24 CG 67.22 CD1 69.25 CD2 68.61 CE1 71.17 CE2 69.94 CZ 79.02 OH 81.27
B GLU H 3 -66.3 -38.3 N 57.7 CA 57.06 C 61.76 O 61.4 CB 58.15 CG 60.23 CD 63.13 OE1 59.67 OE2 64.78
B VAL H 0 -60.5 -28.5 N 59.64 CA 60.13 C 66.73 O 66.36 CB 63.84 CG1 63.78 CG2 63.66
B ARG T 5 -93.8 -8.2 N 64.25 CA 63.8 C 68.73 O 69.47 CB 62.54 CG 71.7 CD 76.81 NE 89.04 CZ 104.69 NH1 90.48 NH2 92.83
B GLY S 2 158.0 -108.6 N 65.63 CA 65.81 C 70.82 O 70.82
B LYS - 56 -118.5 138.5 N 68.09 CA 68.21 C 72.05 O 72.12 CB 70.78 CG 84.76 CD 91.19 CE 100.23 NZ 109.06
B CYS - 0 -75.5 126.8 N 67.83 CA 67.31 C 74.43 O 74.26 CB 66.86 SG 70.49
B ASN - 12 -111.3 20.8 N 72.78 CA 73.76 C 80.07 O 79.5 CB 72.91 CG 86.81 OD1 80.43 ND2 74.43
B ARG S 70 -92.8 -4.7 N 78.59 CA 79.75 C 85.95 O 86.32 CB 80.32 CG 93.75 CD 111.32 NE 127.76 CZ 144.64 NH1 130.72 NH2 133.37
B GLY G 7 58.9 -125.3 N 83.63 CA 84.62 C 89.43 O 87.88
B SER G 33 -76.7 -14.5 N 87.95 CA 88.78 C 93.08 O 92.52 CB 94.01 OG 104.69
B GLU G 118 -76.4 -26.2 N 90.0 CA 89.96 C 92.83 O 93.06 CB 91.26 CG 103.78 CD 129.08 OE1 124.42 OE2 125.98
B CYS - 12 -73.0 124.0 N 87.51 CA 86.23 C 89.89 O 89.46 CB 85.62 SG 88.88
B LYS - 144 -93.2 -13.4 N 86.28 CA 86.3 C 87.57 O 86.73 CB 90.01 CG 108.38 CD 120.53 CE 130.28 NZ 139.18
B PHE S 71 -74.0 172.8 N 82.18 CA 80.72 C 78.35 O 77.95 CB 83.18 CG 86.56 CD1 91.01 CD2 90.17 CE1 92.76 CE2 93.54 CZ 92.12
B ASN B 28 -83.0 120.5 N 70.38 CA 68.49 C 68.03 O 67.04 CB 68.12 CG 85.52 OD1 77.5 ND2 80.3
B HIS - 18 -110.3 7.8 N 62.38 CA 61.46 C 63.2 O 62.64 CB 62.8 CG 66.8 ND1 69.24 CD2 68.45 CE1 68.74 NE2 68.58
B ASN - 39 -95.9 106.4 N 58.83 CA 58.43 C 60.52 O 60.04 CB 58.8 CG 72.89 OD1 67.38 ND2 61.25
B TYR G 1 -57.0 -31.9 N 55.07 CA 54.25 C 60.13 O 59.15 CB 53.99 CG 54.51 CD1 55.36 CD2 55.36 CE1 53.85 CE2 56.08 CZ 59.38 OH 55.77
B TRP G 47 -60.2 -27.8 N 58.77 CA 59.67 C 64.39 O 64.78 CB 59.02 CG 60.14 CD1 63.12 CD2 60.19 NE1 62.54 CE2 64.06 CE3 61.74 CZ2 63.54 CZ3 63.19 CH2 63.85
B SER G 63 -94.6 -5.8 N 60.48 CA 60.63 C 64.83 O 65.09 CB 64.11 OG 72.94
B TRP S 2 -81.4 152.2 N 60.46 CA 59.16 C 63.3 O 62.98 CB 56.69 CG 57.02 CD1 59.88 CD2 56.22 NE1 58.96 CE2 59.98 CE3 56.97 CZ2 59.0 CZ3 58.2 CH2 58.89
B PRO - 53 -69.4 157.5 N 60.36 CA 60.08 C 63.23 O 62.79 CB 61.79 CG 66.42 CD 61.98
B ASP H 68 -55.5 -40.7 N 59.01 CA 58.12 C 61.9 O 61.62 CB 60.16 CG 71.55 OD1 71.05 OD2 79.59
B ARG H 62 -57.1 -40.7 N 58.32 CA 57.55 C 60.11 O 59.56 CB 57.87 CG 69.41 CD 78.24 NE 84.01 CZ 96.44 NH1 76.25 NH2 86.6
B TYR H 23 -68.4 -37.2 N 55.29 CA 54.26 C 52.86 O 49.82 CB 57.05 CG 60.8 CD1 63.7 CD2 62.06 CE1 65.52 CE2 63.41 CZ 72.92 OH 77.09
B LEU H 0 -68.1 -39.6 N 49.62 CA 49.71 C 53.95 O 53.61 CB 50.22 CG 55.67 CD1 56.23 CD2 56.32
B LEU H 9 -67.5 -42.7 N 50.0 CA 49.81 C 53.62 O 51.91 CB 50.19 CG 55.18 CD1 54.96 CD2 56.36
B ILE H 0 -68.1 -43.3 N 51.49 CA 51.01 C 51.77 O 50.19 CB 54.45 CG1 55.58 CG2 54.99 CD1 62.94
B ARG H 0 -59.9 -40.2 N 45.9 CA 44.62 C 49.53 O 49.97 CB 40.79 CG 50.46 CD 51.88 NE 68.05 CZ 72.44 NH1 48.56 NH2 62.1
B SER H 5 -56.9 -44.2 N 45.95 CA 46.26 C 49.42 O 49.18 CB 49.69 OG 62.23
B ASN H 0 -68.3 -38.6 N 44.91 CA 44.32 C 47.25 O 46.05 CB 43.83 CG 62.51 OD1 54.04 ND2 54.42
B TYR H 3 -67.4 -41.7 N 45.01 CA 45.74 C 50.38 O 49.73 CB 47.26 CG 49.93 CD1 52.45 CD2 51.38 CE1 52.27 CE2 53.03 CZ 58.32 OH 60.89
B LEU H 0 -67.3 -40.3 N 47.87 CA 47.68 C 48.65 O 47.93 CB 48.21 CG 54.07 CD1 54.2 CD2 57.3
B LEU H 2 -62.1 -34.6 N 43.34 CA 43.58 C 47.75 O 46.41 CB 43.52 CG 47.95 CD1 48.3 CD2 50.01
B ASN H 14 -62.4 -43.9 N 45.3 CA 45.46 C 50.18 O 49.99 CB 42.36 CG 53.77 OD1 48.43 ND2 45.89
B GLN H 7 -63.4 -42.2 N 46.8 CA 46.64 C 51.47 O 51.87 CB 47.75 CG 58.8 CD 70.07 OE1 63.5 NE2 60.6
B LEU H 2 -66.0 -37.2 N 48.22 CA 48.82 C 54.99 O 55.93 CB 48.88 CG 54.07 CD1 53.61 CD2 57.16
B LEU H 31 -64.1 -38.0 N 53.09 CA 53.91 C 57.57 O 56.75 CB 54.28 CG 59.54 CD1 59.6 CD2 62.53
B ARG H 18 -69.7 -52.0 N 54.52 CA 55.08 C 61.56 O 61.58 CB 54.94 CG 71.15 CD 87.61 NE 100.28 CZ 111.86 NH1 99.01 NH2 93.01
B ASN H 20 -57.3 -31.3 N 58.98 CA 59.51 C 65.12 O 64.47 CB 59.94 CG 76.91 OD1 66.52 ND2 67.96
B THR T 18 -108.7 4.2 N 63.55 CA 64.67 C 72.91 O 72.39 CB 64.14 OG1 58.85 CG2 60.33
B ASP - 75 -61.3 127.7 N 73.48 CA 75.84 C 84.38 O 83.75 CB 77.86 CG 91.9 OD1 93.64 OD2 98.7
B ARG - 151 -83.9 -15.8 N 85.01 CA 87.04 C 93.14 O 92.64 CB 88.86 CG 101.82 CD 116.8 NE 129.61 CZ 145.99 NH1 135.0 NH2 132.06
B ALA - 62 -75.1 170.3 N 91.49 CA 92.15 C 98.09 O 98.09 CB 92.63
B ASP - 214 -133.8 360.0 N 95.5 CA 132.29 C 162.74 O 124.74 CB 134.52 CG 144.58 OD1 144.74 OD2 151.15
B GLY - 60 360.0 -28.6 N 111.07 CA 110.9 C 114.44 O 114.21
B ALA - 8 -133.2 148.1 N 110.35 CA 109.9 C 112.72 O 112.72 CB 110.53
B GLY - 39 -47.8 156.8 N 107.27 CA 105.89 C 106.49 O 105.92
B ARG H 57 -59.5 -33.3 N 100.89 CA 99.58 C 100.04 O 99.38 CB 100.43 CG 111.44 CD 124.25 NE 133.94 CZ 145.93 NH1 132.03 NH2 131.56
B GLU H 119 -63.7 -37.4 N 94.03 CA 92.54 C 90.19 O 89.1 CB 94.44 CG 107.51 CD 134.12 OE1 133.07 OE2 128.21
B ASP H 8 -68.0 -41.2 N 82.35 CA 80.45 C 80.18 O 80.97 CB 82.26 CG 95.49 OD1 96.99 OD2 100.82
B ARG H 32 -69.9 -42.7 N 71.58 CA 68.52 C 67.49 O 66.04 CB 65.83 CG 68.42 CD 77.71 NE 82.95 CZ 96.48 NH1 84.7 NH2 87.62
B THR H 0 -60.9 -43.3 N 62.2 CA 61.72 C 64.09 O 63.34 CB 69.21 OG1 68.44 CG2 65.15
B GLN H 34 -62.0 -43.6 N 59.79 CA 59.31 C 60.74 O 61.21 CB 60.55 CG 64.98 CD 74.25 OE1 70.37 NE2 62.02
B ASP H 13 -59.0 -41.8 N 55.27 CA 54.57 C 58.17 O 57.74 CB 55.77 CG 65.24 OD1 64.59 OD2 71.1
B PHE H 22 -71.6 -44.3 N 54.62 CA 54.29 C 59.12 O 59.06 CB 55.66 CG 57.05 CD1 60.13 CD2 59.04 CE1 61.46 CE2 62.14 CZ 60.31
B VAL H 35 -67.4 -53.5 N 57.01 CA 57.29 C 60.67 O 60.59 CB 61.45 CG1 61.63 CG2 61.27
B LEU H 71 -85.1 -30.1 N 56.27 CA 55.42 C 57.89 O 58.57 CB 55.32 CG 60.11 CD1 59.79 CD2 61.55
B GLY - 27 94.9 145.4 N 52.39 CA 50.49 C 50.5 O 48.51
B SER H 23 -54.8 -44.7 N 47.08 CA 47.06 C 50.05 O 48.9 CB 50.34 OG 56.24
B THR H 62 -60.0 -47.2 N 47.49 CA 47.59 C 50.49 O 49.89 CB 58.8 OG1 61.57 CG2 57.78
B ASN H 106 -62.6 -38.2 N 47.21 CA 47.46 C 51.0 O 52.15 CB 48.76 CG 69.25 OD1 70.46 ND2 58.12
B VAL H 0 -64.3 -48.8 N 45.91 CA 44.39 C 47.63 O 46.73 CB 47.65 CG1 46.73 CG2 47.56
B VAL H 1 -64.2 -44.7 N 44.25 CA 43.79 C 48.43 O 49.79 CB 46.1 CG1 45.22 CG2 45.12
B GLN H 58 -61.0 -39.5 N 43.43 CA 43.17 C 46.66 O 44.83 CB 44.45 CG 46.37 CD 57.96 OE1 51.97 NE2 44.23
B GLY H 7 -58.3 -42.0 N 44.35 CA 45.13 C 51.1 O 51.02
B TYR H 10 -66.0 -43.5 N 49.39 CA 49.67 C 52.59 O 51.84 CB 51.61 CG 54.88 CD1 57.48 CD2 55.71 CE1 59.33 CE2 56.94 CZ 65.28 OH 67.58
B ILE H 31 -60.3 -38.7 N 49.74 CA 50.26 C 56.17 O 56.63 CB 52.72 CG1 51.79 CG2 52.87 CD1 52.51
B ASP T 107 -82.4 -2.2 N 52.23 CA 52.19 C 58.69 O 58.85 CB 53.17 CG 57.87 OD1 56.99 OD2 64.82
B ASP T 83 69.7 32.0 N 56.82 CA 57.5 C 60.95 O 60.11 CB 60.85 CG 80.47 OD1 83.16 OD2 90.74
B ASN - 79 -70.9 117.1 N 57.13 CA 57.23 C 61.69 O 60.77 CB 53.99 CG 56.48 OD1 50.06 ND2 46.23
B GLN T 181 -58.0 -26.2 N 58.83 CA 59.03 C 62.38 O 63.62 CB 61.45 CG 87.82 CD 111.79 OE1 107.2 NE2 108.46
B SER T 70 -77.6 -4.8 N 57.06 CA 55.76 C 58.55 O 58.26 CB 57.96 OG 63.19
B ILE - 13 -106.5 112.3 N 54.29 CA 52.93 C 55.9 O 54.66 CB 55.26 CG1 55.72 CG2 54.45 CD1 61.1
B THR - 71 -81.7 159.5 N 53.29 CA 53.33 C 56.97 O 56.43 CB 65.74 OG1 67.75 CG2 64.97
B LYS H 67 -60.7 -42.4 N 54.49 CA 54.5 C 58.21 O 58.25 CB 57.44 CG 64.17 CD 67.45 CE 69.94 NZ 70.89
B ALA H 25 -61.3 -42.4 N 54.15 CA 53.77 C 56.93 O 56.39 CB 54.41
B ALA H 0 -66.5 -37.9 N 53.4 CA 52.56 C 54.32 O 52.82 CB 53.32
B ALA H 3 -67.4 -42.7 N 51.34 CA 51.95 C 57.18 O 56.95 CB 52.54
B CYS H 0 -64.2 -39.1 N 53.58 CA 51.67 C 52.5 O 52.17 CB 51.75 SG 56.01
B TYR H 3 -64.4 -47.4 N 48.0 CA 47.67 C 50.55 O 49.16 CB 48.53 CG 50.37 CD1 52.51 CD2 51.13 CE1 52.47 CE2 52.37 CZ 61.61 OH 66.27
B SER H 0 -63.3 -39.2 N 47.28 CA 46.45 C 48.51 O 47.37 CB 49.66 OG 57.12
B LEU H 2 -65.2 -40.4 N 44.26 CA 44.73 C 49.59 O 49.26 CB 44.84 CG 48.14 CD1 47.65 CD2 48.23
B HIS H 8 -60.3 -37.6 N 45.86 CA 45.97 C 49.67 O 48.53 CB 46.81 CG 50.23 ND1 51.69 CD2 52.38 CE1 51.28 NE2 52.06
B ASN H 4 -63.6 -39.8 N 46.33 CA 46.28 C 51.58 O 52.3 CB 46.95 CG 64.62 OD1 58.45 ND2 49.7
B ILE H 6 -70.4 -44.4 N 48.16 CA 47.56 C 51.83 O 52.32 CB 50.14 CG1 50.06 CG2 49.56 CD1 51.94
B ILE H 1 -54.6 -39.5 N 48.58 CA 49.03 C 54.58 O 54.81 CB 51.38 CG1 50.89 CG2 51.55 CD1 52.43
B LYS H 51 -63.3 -30.6 N 52.32 CA 52.6 C 55.47 O 56.76 CB 55.17 CG 71.02 CD 80.13 CE 88.66 NZ 96.2
B GLN T 121 -84.5 -5.9 N 51.14 CA 50.96 C 54.11 O 53.66 CB 52.38 CG 67.6 CD 86.82 OE1 82.14 NE2 78.14
B LEU - 19 -77.2 142.4 N 49.27 CA 48.22 C 52.35 O 52.89 CB 47.4 CG 50.17 CD1 49.41 CD2 50.54
B GLN - 121 -104.7 126.5 N 49.24 CA 49.31 C 53.14 O 52.66 CB 51.23 CG 68.21 CD 98.24 OE1 96.83 NE2 95.81
B GLU H 94 -57.8 -39.4 N 51.41 CA 51.84 C 55.04 O 53.71 CB 54.05 CG 70.64 CD 103.48 OE1 108.09 OE2 98.57
B VAL H 90 -62.1 -43.3 N 50.97 CA 50.82 C 51.8 O 50.98 CB 55.92 CG1 55.94 CG2 56.57
B GLU H 130 -70.5 -38.0 N 47.15 CA 46.38 C 47.08 O 46.17 CB 47.66 CG 57.58 CD 75.07 OE1 72.15 OE2 66.43
B VAL H 4 -69.8 -38.3 N 43.28 CA 42.89 C 47.75 O 48.13 CB 46.06 CG1 45.27 CG2 45.17
B ARG H 82 -66.1 -40.2 N 45.49 CA 46.06 C 49.11 O 48.51 CB 48.27 CG 66.16 CD 78.64 NE 90.81 CZ 112.93 NH1 100.88 NH2 104.66
B GLN H 112 -66.1 -39.6 N 45.18 CA 44.74 C 46.17 O 44.92 CB 46.25 CG 57.51 CD 70.11 OE1 65.31 NE2 60.4
B ALA H 24 -64.2 -39.2 N 42.07 CA 41.38 C 47.55 O 48.64 CB 41.35
B ARG H 51 -61.1 -47.9 N 43.47 CA 43.25 C 47.99 O 47.26 CB 42.16 CG 48.07 CD 47.57 NE 47.73 CZ 60.76 NH1 52.33 NH2 49.56
B ASP H 74 -70.1 -10.2 N 45.39 CA 45.54 C 48.95 O 50.11 CB 47.94 CG 61.55 OD1 61.12 OD2 69.01
B ASN T 136 -71.9 -21.2 N 46.18 CA 46.15 C 49.63 O 49.33 CB 47.93 CG 72.55 OD1 59.84 ND2 68.74
B LYS T 110 -141.8 61.9 N 45.94 CA 45.71 C 46.16 O 45.03 CB 48.04 CG 66.7 CD 76.37 CE 86.49 NZ 94.02
B LEU T 101 -65.1 -22.8 N 41.47 CA 41.78 C 46.48 O 46.09 CB 41.98 CG 45.31 CD1 43.95 CD2 47.7
B SER T 129 -77.3 -9.7 N 43.3 CA 43.63 C 48.32 O 48.19 CB 44.99 OG 52.65
B ASP - 59 -100.0 104.9 N 45.07 CA 44.72 C 48.78 O 48.13 CB 47.19 CG 63.25 OD1 65.51 OD2 71.07
B SER H 99 -60.1 -43.7 N 46.55 CA 46.32 C 50.2 O 49.42 CB 48.97 OG 54.65
B LYS H 176 -61.8 -42.2 N 49.03 CA 49.1 C 50.57 O 50.51 CB 52.57 CG 74.3 CD 86.98 CE 100.73 NZ 110.97
B HIS H 36 -59.6 -47.5 N 45.18 CA 44.08 C 48.17 O 48.04 CB 44.41 CG 47.21 ND1 48.94 CD2 47.47 CE1 47.48 NE2 47.13
B VAL H 28 -61.9 -48.2 N 44.31 CA 43.78 C 47.03 O 45.93 CB 47.56 CG1 47.38 CG2 47.57
B ALA H 57 -58.6 -43.7 N 43.89 CA 43.96 C 47.07 O 46.72 CB 44.4
B LEU H 31 -66.9 -40.7 N 44.27 CA 44.0 C 47.35 O 47.17 CB 43.87 CG 49.17 CD1 49.48 CD2 50.05
B HIS H 6 -66.9 -36.5 N 42.81 CA 42.71 C 48.9 O 48.37 CB 43.06 CG 45.4 ND1 46.84 CD2 46.02 CE1 45.67 NE2 45.78
B ASN H 70 -63.0 -35.7 N 46.89 CA 47.25 C 52.51 O 52.84 CB 46.64 CG 57.83 OD1 48.17 ND2 49.92
B LEU H 57 -65.5 -45.0 N 51.29 CA 51.61 C 53.61 O 54.03 CB 52.28 CG 59.46 CD1 61.11 CD2 62.01
B VAL H 0 -60.2 -45.1 N 47.13 CA 45.38 C 48.61 O 47.88 CB 47.39 CG1 46.18 CG2 46.67
B LEU H 10 -61.4 -39.3 N 45.9 CA 46.77 C 51.72 O 51.0 CB 47.24 CG 50.9 CD1 49.71 CD2 52.28
B SER H 48 -66.8 -36.9 N 49.84 CA 51.2 C 55.27 O 55.54 CB 55.3 OG 65.33
B TYR H 17 -68.8 -34.6 N 51.86 CA 52.09 C 54.59 O 53.41 CB 53.69 CG 56.24 CD1 59.03 CD2 56.7 CE1 60.24 CE2 57.62 CZ 66.8 OH 68.39
B MET H 19 -63.3 -34.5 N 51.22 CA 50.81 C 59.84 O 59.73 CB 52.15 CG 54.07 SD 57.36 CE 53.18
B GLU H 126 -64.5 -40.5 N 59.96 CA 61.9 C 69.64 O 70.48 CB 63.88 CG 77.03 CD 105.2 OE1 105.96 OE2 99.93
B MET G 37 -70.1 -12.9 N 67.25 CA 67.69 C 74.7 O 74.06 CB 69.73 CG 73.94 SD 78.29 CE 74.93
B SER G 31 -58.3 -14.6 N 74.65 CA 75.35 C 81.97 O 82.25 CB 78.59 OG 87.5
B LYS G 169 -67.1 -43.5 N 79.94 CA 80.54 C 83.51 O 82.56 CB 84.43 CG 101.61 CD 112.03 CE 122.27 NZ 128.38
B THR S 74 -104.5 82.5 N 79.13 CA 77.99 C 77.44 O 75.96 CB 92.72 OG1 96.8 CG2 91.87
B PRO H 49 -55.4 -42.4 N 72.45 CA 71.26 C 72.49 O 71.57 CB 73.09 CG 78.2 CD 74.08
B ALA H 47 -56.0 -49.9 N 67.68 CA 66.81 C 69.15 O 69.37 CB 67.69
B SER H 52 -63.5 -37.0 N 64.84 CA 64.47 C 65.47 O 65.18 CB 69.01 OG 80.31
B LEU H 0 -64.3 -50.8 N 60.09 CA 59.1 C 62.88 O 62.61 CB 58.32 CG 60.81 CD1 59.76 CD2 61.14
B ILE H 1 -56.5 -43.3 N 59.48 CA 59.24 C 65.21 O 65.22 CB 61.71 CG1 61.38 CG2 62.35 CD1 66.14
B ASN H 62 -70.7 -32.4 N 63.02 CA 63.49 C 68.23 O 67.58 CB 66.66 CG 89.29 OD1 84.41 ND2 82.48
B ASN H 51 -69.2 -40.5 N 66.22 CA 66.68 C 69.96 O 70.51 CB 69.95 CG 100.98 OD1 98.52 ND2 93.3
B LEU H 0 -64.6 -44.6 N 64.5 CA 62.83 C 68.05 O 67.52 CB 61.64 CG 64.31 CD1 64.12 CD2 63.85
B LYS H 71 -62.1 -25.9 N 66.17 CA 67.04 C 73.68 O 73.73 CB 69.18 CG 78.45 CD 85.91 CE 97.02 NZ 102.86
B ARG H 168 -73.9 -29.9 N 71.49 CA 72.22 C 75.54 O 75.84 CB 75.71 CG 92.24 CD 104.74 NE 115.17 CZ 130.45 NH1 118.01 NH2 117.53
B LEU S 24 -63.8 140.1 N 71.01 CA 70.07 C 73.54 O 72.88 CB 69.73 CG 74.3 CD1 73.47 CD2 78.05
B PRO - 89 -64.4 147.3 N 70.03 CA 69.77 C 73.35 O 72.36 CB 71.45 CG 75.88 CD 71.27
B ARG H 101 -48.9 -41.3 N 70.66 CA 70.68 C 73.45 O 72.15 CB 72.91 CG 87.04 CD 99.18 NE 108.5 CZ 124.2 NH1 113.27 NH2 111.12
B GLU H 112 -70.7 -31.0 N 70.46 CA 70.2 C 73.09 O 72.2 CB 71.94 CG 85.18 CD 104.88 OE1 90.72 OE2 100.41
B LYS H 82 -74.5 -42.4 N 69.43 CA 68.59 C 67.13 O 66.18 CB 72.32 CG 90.1 CD 100.37 CE 109.29 NZ 116.12
B LEU H 2 -62.4 -42.7 N 60.6 CA 59.09 C 60.47 O 59.61 CB 58.73 CG 63.15 CD1 62.4 CD2 64.94
B LYS H 19 -62.9 -44.2 N 55.15 CA 54.17 C 55.75 O 55.23 CB 56.75 CG 64.76 CD 72.58 CE 81.94 NZ 87.78
B LYS H 127 -64.9 -42.7 N 51.3 CA 50.69 C 52.62 O 51.2 CB 54.2 CG 78.95 CD 92.33 CE 108.76 NZ 120.32
B LEU H 0 -64.7 -45.9 N 48.13 CA 47.43 C 50.13 O 49.97 CB 47.05 CG 51.64 CD1 51.32 CD2 52.99
B ALA H 2 -62.4 -39.5 N 44.46 CA 44.46 C 48.33 O 48.02 CB 45.24
B LYS H 97 -61.8 -44.8 N 45.53 CA 45.74 C 47.9 O 47.29 CB 48.98 CG 64.59 CD 77.51 CE 87.3 NZ 89.74
B LEU H 23 -65.7 -41.5 N 43.87 CA 42.72 C 46.12 O 45.77 CB 42.38 CG 46.03 CD1 44.99 CD2 47.9
B ILE H 0 -63.2 -39.9 N 43.15 CA 42.78 C 47.16 O 46.63 CB 44.98 CG1 44.87 CG2 43.34 CD1 42.72
B ILE H 16 -61.8 -43.5 N 44.99 CA 45.03 C 49.96 O 49.95 CB 47.21 CG1 46.94 CG2 46.91 CD1 50.05
B ASP H 88 -62.8 -43.9 N 47.21 CA 47.71 C 51.39 O 52.07 CB 50.29 CG 68.55 OD1 69.92 OD2 77.62
B LEU H 44 -62.7 -37.1 N 48.49 CA 48.43 C 53.78 O 53.46 CB 48.07 CG 52.1 CD1 52.03 CD2 50.17
B SER H 54 -75.5 -27.8 N 51.97 CA 52.77 C 58.85 O 60.39 CB 55.17 OG 69.52
B ALA - 118 -84.8 360.0 N 54.72 CA 77.34 C 118.16 O 88.5 CB 77.89
C SER - 118 360.0 139.9 N 97.55 CA 97.37 C 99.81 O 99.25 CB 100.69 OG 109.93
C ARG - 248 -97.5 21.1 N 94.48 CA 92.86 C 90.56 O 90.27 CB 95.87 CG 113.11 CD 130.54 NE 143.64 CZ 159.18 NH1 145.54 NH2 147.44
C LYS S 95 -78.9 139.6 N 82.08 CA 79.58 C 77.89 O 76.74 CB 81.41 CG 98.25 CD 110.94 CE 123.87 NZ 133.66
C ALA - 56 -70.6 139.9 N 70.9 CA 68.62 C 67.63 O 65.41 CB 69.65
C PRO B 31 -52.0 136.8 N 61.7 CA 60.2 C 62.59 O 62.1 CB 61.31 CG 66.21 CD 62.84
C CYS - 3 -65.4 122.4 N 58.23 CA 57.84 C 61.36 O 59.33 CB 58.0 SG 62.16
C LYS H 133 -56.5 -31.5 N 59.06 CA 59.2 C 62.73 O 61.31 CB 62.75 CG 78.69 CD 89.58 CE 100.24 NZ 110.17
C TYR H 130 -75.2 -36.9 N 60.08 CA 60.07 C 60.53 O 58.89 CB 62.95 CG 67.56 CD1 70.04 CD2 69.63 CE1 72.13 CE2 71.65 CZ 80.8 OH 84.44
C GLU H 0 -67.5 -39.7 N 55.83 CA 54.66 C 60.1 O 59.14 CB 55.48 CG 57.36 CD 68.14 OE1 58.28 OE2 55.07
C VAL H 5 -65.4 -28.9 N 58.73 CA 59.47 C 64.41 O 63.12 CB 63.72 CG1 63.21 CG2 64.5
C ARG H 132 -94.5 -11.4 N 62.79 CA 62.67 C 66.28 O 66.73 CB 64.86 CG 81.36 CD 99.15 NE 115.52 CZ 133.2 NH1 117.68 NH2 123.61
C GLY S 12 169.9 -112.3 N 63.22 CA 63.43 C 68.36 O 67.75
C LYS - 58 -127.2 127.5 N 66.66 CA 67.4 C 73.59 O 73.31 CB 69.84 CG 85.98 CD 97.13 CE 107.82 NZ 111.02
C CYS - 6 -78.6 116.6 N 71.95 CA 72.89 C 79.69 O 77.73 CB 73.07 SG 77.56
C ASN - 160 -96.3 4.4 N 80.57 CA 82.33 C 88.84 O 88.11 CB 85.03 CG 117.9 OD1 115.18 ND2 112.56
C ARG S 131 -67.5 -23.0 N 87.77 CA 89.4 C 94.89 O 94.59 CB 91.41 CG 108.13 CD 124.51 NE 136.33 CZ 151.21 NH1 138.89 NH2 137.66
C GLY G 23 74.4 -137.8 N 92.43 CA 92.67 C 97.87 O 97.34
C SER G 60 -75.2 -16.1 N 95.12 CA 94.99 C 97.39 O 97.23 CB 99.88 OG 109.98
C GLU G 131 -74.8 -17.9 N 92.76 CA 92.56 C 92.62 O 93.06 CB 94.78 CG 108.38 CD 136.86 OE1 135.31 OE2 134.06
C CYS - 15 -70.4 127.3 N 84.76 CA 82.29 C 83.49 O 82.01 CB 81.2 SG 84.29
C LYS - 158 -91.5 9.0 N 79.71 CA 79.37 C 80.58 O 80.76 CB 83.27 CG 102.36 CD 112.15 CE 119.86 NZ 126.36
C PHE S 108 -99.8 171.1 N 73.86 CA 72.01 C 70.98 O 70.08 CB 73.88 CG 76.43 CD1 79.88 CD2 79.26 CE1 81.68 CE2 82.71 CZ 81.22
C ASN B 6 -87.2 123.0 N 64.02 CA 61.97 C 63.35 O 63.38 CB 61.38 CG 82.36 OD1 71.35 ND2 80.38
C HIS - 32 -114.7 5.8 N 57.38 CA 56.28 C 58.66 O 59.18 CB 56.78 CG 59.91 ND1 61.84 CD2 61.21 CE1 61.26 NE2 61.14
C ASN - 55 -91.7 108.8 N 53.75 CA 53.35 C 57.52 O 56.47 CB 51.13 CG 76.91 OD1 70.26 ND2 71.51
C TYR G 2 -58.6 -27.4 N 53.65 CA 52.48 C 57.7 O 56.73 CB 52.19 CG 52.09 CD1 53.35 CD2 52.46 CE1 52.18 CE2 52.89 CZ 56.97 OH 57.44
C TRP G 34 -64.5 -23.8 N 56.4 CA 57.24 C 61.1 O 60.56 CB 56.76 CG 58.04 CD1 60.75 CD2 58.24 NE1 60.46 CE2 62.16 CE3 60.07 CZ2 61.92 CZ3 61.97 CH2 62.53
C SER G 47 -97.5 -5.0 N 56.99 CA 57.07 C 60.32 O 60.91 CB 60.93 OG 70.31
C TRP S 3 -82.2 147.9 N 54.5 CA 52.55 C 56.46 O 55.23 CB 50.31 CG 50.56 CD1 53.33 CD2 49.92 NE1 52.24 CE2 53.29 CE3 50.56 CZ2 52.32 CZ3 51.71 CH2 52.37
C PRO - 58 -70.2 147.8 N 53.77 CA 53.24 C 55.26 O 53.24 CB 54.99 CG 59.73 CD 55.54
C ASP H 65 -51.4 -44.5 N 51.31 CA 50.55 C 52.92 O 51.8 CB 52.74 CG 67.59 OD1 69.15 OD2 75.98
C ARG H 62 -57.7 -39.4 N 50.05 CA 49.7 C 51.48 O 50.72 CB 51.93 CG 58.58 CD 62.47 NE 67.29 CZ 71.69 NH1 53.08 NH2 58.51
C TYR H 78 -68.3 -40.2 N 48.37 CA 48.34 C 49.74 O 49.32 CB 50.38 CG 53.3 CD1 55.24 CD2 54.48 CE1 56.39 CE2 55.7 CZ 61.73 OH 59.86
C LEU H 0 -64.1 -37.6 N 45.62 CA 44.81 C 48.83 O 49.06 CB 44.65 CG 48.53 CD1 48.33 CD2 50.05
C LEU H 7 -69.8 -42.1 N 46.52 CA 46.27 C 49.51 O 48.97 CB 46.75 CG 52.71 CD1 52.94 CD2 54.8
C ILE H 0 -67.8 -45.3 N 45.96 CA 45.82 C 48.2 O 48.37 CB 49.46 CG1 50.54 CG2 48.59 CD1 58.3
C ARG H 0 -56.1 -45.6 N 44.78 CA 44.42 C 47.71 O 47.38 CB 42.46 CG 45.58 CD 44.63 NE 46.69 CZ 58.6 NH1 44.12 NH2 40.33
C SER H 5 -47.3 -50.3 N 44.89 CA 44.34 C 47.92 O 48.09 CB 47.46 OG 60.88
C ASN H 0 -63.2 -41.2 N 44.49 CA 44.09 C 48.21 O 48.45 CB 43.77 CG 55.76 OD1 53.2 ND2 41.27
C TYR H 44 -65.9 -42.6 N 45.31 CA 46.06 C 48.98 O 48.94 CB 48.57 CG 51.19 CD1 53.78 CD2 52.43 CE1 56.91 CE2 53.99 CZ 63.91 OH 69.16
C LEU H 1 -68.1 -37.4 N 44.52 CA 44.95 C 48.04 O 48.97 CB 45.73 CG 51.56 CD1 51.61 CD2 56.25
C LEU H 3 -63.2 -35.3 N 43.89 CA 43.11 C 46.64 O 45.51 CB 42.72 CG 47.52 CD1 48.39 CD2 50.18
C ASN H 9 -63.1 -43.9 N 45.04 CA 45.53 C 50.28 O 48.62 CB 44.41 CG 57.57 OD1 47.07 ND2 48.23
C GLN H 72 -65.8 -38.7 N 47.77 CA 47.77 C 52.87 O 52.63 CB 48.81 CG 64.35 CD 76.78 OE1 72.94 NE2 60.35
C LEU H 3 -65.7 -35.6 N 50.26 CA 51.13 C 54.23 O 52.93 CB 51.91 CG 57.48 CD1 58.35 CD2 59.78
C LEU H 20 -67.6 -32.8 N 52.9 CA 54.0 C 59.63 O 60.42 CB 54.51 CG 61.3 CD1 62.5 CD2 63.22
C ARG H 126 -71.7 -43.3 N 55.38 CA 56.31 C 61.88 O 62.63 CB 57.05 CG 64.76 CD 71.67 NE 84.57 CZ 96.68 NH1 87.64 NH2 76.34
C ASP H 20 -64.6 -30.8 N 57.88 CA 57.24 C 63.52 O 63.83 CB 58.22 CG 57.54 OD1 56.74 OD2 59.48
C THR H 22 -106.0 0.1 N 61.48 CA 61.61 C 68.62 O 67.72 CB 60.04 OG1 56.1 CG2 55.48
C ASP - 53 -57.7 129.8 N 69.62 CA 71.35 C 77.71 O 77.2 CB 73.71 CG 87.07 OD1 87.56 OD2 95.58
C ARG - 76 -82.1 74.7 N 76.36 CA 77.19 C 82.81 O 82.56 CB 76.91 CG 85.93 CD 98.23 NE 108.55 CZ 118.29 NH1 104.02 NH2 100.34
C ALA - 69 -160.0 360.0 N 80.37 CA 110.76 C 142.95 O 100.93 CB 111.28
C ALA - 138 360.0 88.8 N 108.31 CA 107.96 C 109.92 O 109.84 CB 109.03
C GLY - 13 146.2 20.0 N 104.06 CA 101.93 C 101.44 O 100.55
C ARG H 149 -69.9 -18.0 N 94.71 CA 92.53 C 89.98 O 89.16 CB 94.95 CG 109.92 CD 125.45 NE 138.56 CZ 155.72 NH1 142.94 NH2 144.42
C GLU H 107 -80.0 -41.1 N 82.29 CA 80.06 C 77.21 O 76.3 CB 81.95 CG 93.1 CD 112.09 OE1 98.12 OE2 108.95
C ASP H 28 -62.3 -39.4 N 69.43 CA 67.37 C 66.93 O 64.38 CB 68.67 CG 77.87 OD1 79.27 OD2 80.58
C ARG H 101 -62.5 -43.2 N 63.74 CA 63.67 C 67.02 O 66.26 CB 66.23 CG 82.85 CD 102.37 NE 118.87 CZ 135.3 NH1 125.81 NH2 119.51
C THR H 80 -67.4 -49.8 N 64.18 CA 64.12 C 66.6 O 65.79 CB 73.65 OG1 74.09 CG2 71.23
C GLN H 50 -59.5 -42.3 N 63.18 CA 62.93 C 65.07 O 63.46 CB 64.26 CG 84.43 CD 110.97 OE1 104.02 NE2 108.48
C ASP H 21 -60.0 -42.8 N 62.45 CA 62.28 C 66.92 O 64.91 CB 63.67 CG 71.1 OD1 70.41 OD2 75.44
C PHE H 179 -68.6 -48.8 N 65.95 CA 67.16 C 72.91 O 72.49 CB 69.98 CG 72.9 CD1 76.4 CD2 76.06 CE1 78.03 CE2 79.33 CZ 77.27
C VAL H 109 -61.0 -57.8 N 70.98 CA 71.79 C 74.52 O 74.6 CB 77.05 CG1 77.47 CG2 77.47
C LEU S 70 -90.1 169.3 N 69.55 CA 69.04 C 72.53 O 73.89 CB 69.13 CG 74.55 CD1 74.72 CD2 77.04
C GLY - 6 -82.5 157.6 N 66.82 CA 64.31 C 63.06 O 61.19
C SER H 2 -52.6 -43.0 N 57.85 CA 56.18 C 58.18 O 56.87 CB 58.19 OG 66.4
C THR H 8 -65.3 -40.0 N 54.81 CA 54.8 C 58.2 O 57.68 CB 59.74 OG1 58.62 CG2 54.97
C ASN H 82 -64.6 -38.7 N 55.29 CA 55.67 C 58.3 O 59.73 CB 57.41 CG 83.8 OD1 81.01 ND2 73.57
C VAL H 0 -64.4 -51.9 N 52.3 CA 51.54 C 54.94 O 54.51 CB 54.82 CG1 54.55 CG2 54.56
C VAL H 3 -65.0 -42.6 N 50.77 CA 49.83 C 54.48 O 54.63 CB 52.12 CG1 51.44 CG2 51.5
C GLN H 67 -63.8 -37.3 N 51.97 CA 52.26 C 57.1 O 56.64 CB 53.62 CG 58.46 CD 68.19 OE1 61.01 NE2 67.3
C GLY H 8 -59.9 -41.9 N 54.79 CA 55.18 C 59.49 O 59.81
C TYR H 12 -68.0 -37.6 N 54.93 CA 54.85 C 61.09 O 61.49 CB 54.75 CG 54.35 CD1 55.55 CD2 54.46 CE1 54.34 CE2 55.3 CZ 60.61 OH 62.14
C ILE H 17 -67.1 -38.6 N 58.07 CA 58.2 C 64.76 O 64.39 CB 60.03 CG1 59.16 CG2 60.21 CD1 57.55
C ASP T 105 -83.7 10.1 N 63.35 CA 64.46 C 69.88 O 70.8 CB 66.66 CG 79.44 OD1 79.52 OD2 86.82
C ASP T 93 59.9 36.9 N 66.0 CA 66.44 C 69.85 O 70.87 CB 68.81 CG 80.23 OD1 80.89 OD2 87.76
C ASN - 79 -69.8 122.4 N 64.65 CA 63.56 C 65.45 O 63.63 CB 60.34 CG 73.92 OD1 75.89 ND2 62.41
C GLN T 190 -57.7 -30.5 N 61.8 CA 61.36 C 62.29 O 61.2 CB 64.37 CG 88.56 CD 112.32 OE1 112.49 NE2 98.37
C SER T 72 -79.9 -11.1 N 57.92 CA 57.84 C 59.97 O 60.15 CB 62.92 OG 75.78
C ILE - 13 -99.5 111.0 N 53.94 CA 51.86 C 54.62 O 53.37 CB 53.58 CG1 53.57 CG2 52.8 CD1 56.83
C THR - 80 -82.6 162.7 N 50.47 CA 50.13 C 54.96 O 53.86 CB 55.23 OG1 52.63 CG2 56.0
C LYS H 65 -60.6 -42.7 N 51.93 CA 51.2 C 55.58 O 55.87 CB 52.82 CG 51.13 CD 48.76 CE 55.8 NZ 66.66
C ALA H 28 -57.5 -47.5 N 51.35 CA 50.26 C 53.47 O 52.1 CB 51.01
C ALA H 0 -63.7 -42.5 N 50.28 CA 49.17 C 51.26 O 50.48 CB 49.78
C ALA H 4 -62.1 -39.5 N 46.99 CA 45.97 C 50.98 O 50.5 CB 46.23
C CYS H 0 -74.1 -34.7 N 48.66 CA 48.78 C 51.52 O 50.19 CB 49.55 SG 53.74
C TYR H 21 -64.8 -48.4 N 48.58 CA 49.09 C 51.95 O 51.28 CB 51.97 CG 55.58 CD1 58.72 CD2 56.26 CE1 60.8 CE2 57.21 CZ 67.57 OH 74.04
C SER H 0 -65.6 -39.7 N 48.36 CA 47.06 C 49.61 O 49.09 CB 48.92 OG 52.96
C LEU H 1 -61.6 -42.0 N 46.25 CA 47.03 C 50.59 O 48.66 CB 47.38 CG 52.58 CD1 52.28 CD2 56.73
C HIS H 3 -57.2 -36.8 N 48.58 CA 48.94 C 51.95 O 50.49 CB 50.22 CG 53.89 ND1 55.7 CD2 56.13 CE1 55.45 NE2 55.95
C ASN H 19 -67.6 -37.5 N 48.86 CA 47.67 C 50.82 O 50.37 CB 46.45 CG 67.09 OD1 57.88 ND2 57.91
C ILE H 2 -68.7 -42.7 N 46.92 CA 46.53 C 50.41 O 49.6 CB 49.61 CG1 50.04 CG2 48.8 CD1 58.02
C ILE H 1 -58.0 -41.3 N 48.5 CA 47.88 C 52.32 O 51.85 CB 50.41 CG1 50.63 CG2 49.79 CD1 50.23
C LYS H 16 -59.9 -28.1 N 49.41 CA 49.56 C 54.34 O 55.65 CB 52.39 CG 63.32 CD 72.29 CE 85.57 NZ 91.2
C GLN T 38 -90.2 -4.8 N 50.79 CA 49.98 C 51.87 O 52.25 CB 51.3 CG 70.05 CD 86.81 OE1 83.17 NE2 81.72
C LEU - 16 -75.9 142.5 N 45.93 CA 45.21 C 47.32 O 46.54 CB 45.21 CG 48.74 CD1 48.01 CD2 49.27
C GLN - 8 -100.0 121.4 N 43.91 CA 44.03 C 47.85 O 46.34 CB 44.5 CG 40.73 CD 47.01 OE1 47.76 NE2 35.15
C GLU H 70 -59.2 -32.3 N 47.17 CA 48.95 C 53.96 O 53.34 CB 51.04 CG 67.4 CD 98.66 OE1 98.86 OE2 93.47
C VAL H 12 -69.1 -37.1 N 51.31 CA 51.81 C 54.1 O 54.72 CB 56.38 CG1 56.12 CG2 56.45
C GLU H 9 -72.0 -41.6 N 48.16 CA 47.78 C 50.78 O 50.67 CB 48.82 CG 57.24 CD 69.79 OE1 53.76 OE2 63.04
C VAL H 2 -70.2 -38.3 N 46.32 CA 45.35 C 49.5 O 49.14 CB 48.21 CG1 47.62 CG2 47.36
C ARG H 51 -62.6 -38.5 N 46.66 CA 46.63 C 50.3 O 49.74 CB 46.27 CG 56.12 CD 63.84 NE 70.73 CZ 83.62 NH1 62.47 NH2 71.32
C GLN H 60 -62.2 -44.6 N 48.02 CA 48.74 C 52.71 O 53.21 CB 50.1 CG 68.06 CD 90.61 OE1 76.74 NE2 91.08
C ALA H 21 -63.7 -41.3 N 48.22 CA 48.2 C 52.84 O 53.88 CB 48.48
C ARG H 33 -62.5 -44.3 N 48.52 CA 48.33 C 51.96 O 51.7 CB 46.4 CG 49.97 CD 49.3 NE 47.85 CZ 55.55 NH1 43.84 NH2 43.98
C ASP H 75 -73.4 -8.2 N 48.95 CA 49.77 C 56.71 O 57.83 CB 51.39 CG 60.34 OD1 58.38 OD2 67.81
C ASN T 128 -72.5 -30.4 N 55.09 CA 55.82 C 60.31 O 61.47 CB 60.3 CG 84.5 OD1 80.41 ND2 76.38
C LYS T 109 -130.0 66.5 N 55.93 CA 55.53 C 57.33 O 57.01 CB 58.56 CG 81.42 CD 96.2 CE 111.19 NZ 122.27
C LEU T 110 -72.2 -24.7 N 52.94 CA 52.39 C 59.2 O 58.55 CB 51.97 CG 54.31 CD1 53.41 CD2 53.54
C SER T 114 -73.2 -20.0 N 57.25 CA 57.21 C 60.18 O 60.22 CB 61.55 OG 74.3
C ASP - 54 -93.0 100.0 N 56.05 CA 55.49 C 58.35 O 57.93 CB 57.02 CG 67.84 OD1 69.2 OD2 72.81
C SER H 97 -57.2 -42.2 N 54.18 CA 53.36 C 56.98 O 57.24 CB 56.15 OG 60.31
C LYS H 166 -65.1 -41.1 N 53.97 CA 52.84 C 54.25 O 53.02 CB 55.85 CG 76.69 CD 89.71 CE 104.09 NZ 113.73
C HIS H 46 -59.5 -47.1 N 50.18 CA 49.79 C 52.99 O 53.31 CB 50.7 CG 53.81 ND1 56.0 CD2 54.84 CE1 54.8 NE2 54.74
C VAL H 30 -60.2 -50.3 N 48.25 CA 47.29 C 50.2 O 48.57 CB 50.12 CG1 49.54 CG2 49.73
C ALA H 61 -59.1 -40.2 N 47.64 CA 48.11 C 53.19 O 52.45 CB 48.76
C LEU H 53 -64.6 -43.3 N 52.01 CA 52.67 C 53.95 O 52.7 CB 53.8 CG 60.59 CD1 61.76 CD2 63.5
C HIS H 9 -69.9 -36.2 N 49.43 CA 48.9 C 50.63 O 50.22 CB 50.17 CG 53.46 ND1 55.39 CD2 54.62 CE1 54.31 NE2 54.37
C ASN H 65 -64.0 -36.7 N 46.24 CA 45.98 C 51.48 O 50.21 CB 39.5 CG 58.98 OD1 51.98 ND2 46.27
C LEU H 51 -62.5 -44.7 N 49.58 CA 50.43 C 51.18 O 49.62 CB 51.83 CG 58.92 CD1 59.81 CD2 63.4
C VAL H 0 -61.0 -45.9 N 47.28 CA 46.2 C 49.32 O 49.15 CB 49.93 CG1 49.31 CG2 49.57
C LEU H 9 -61.0 -40.8 N 45.91 CA 45.3 C 49.06 O 49.2 CB 45.48 CG 49.2 CD1 49.38 CD2 50.22
C SER H 40 -66.0 -38.5 N 46.15 CA 47.04 C 52.19 O 52.41 CB 51.21 OG 65.59
C TYR H 10 -64.1 -37.3 N 49.39 CA 49.73 C 53.13 O 52.08 CB 51.29 CG 54.33 CD1 56.82 CD2 55.11 CE1 57.66 CE2 56.37 CZ 64.7 OH 67.58
C MET H 20 -62.2 -38.0 N 49.73 CA 49.14 C 55.44 O 55.45 CB 50.82 CG 52.94 SD 56.15 CE 52.13
C GLU H 54 -66.0 -44.4 N 52.8 CA 52.91 C 58.21 O 57.54 CB 54.44 CG 62.69 CD 86.46 OE1 80.54 OE2 87.38
C MET H 36 -60.7 -27.3 N 56.1 CA 56.5 C 57.04 O 54.87 CB 59.55 CG 65.01 SD 70.94 CE 67.96
C SER T 0 -57.7 -16.7 N 53.75 CA 53.62 C 61.13 O 62.1 CB 54.68 OG 57.48
C LYS T 40 -63.4 -33.3 N 59.29 CA 59.57 C 64.74 O 65.1 CB 62.07 CG 72.44 CD 82.01 CE 95.91 NZ 104.96
C THR S 75 -116.1 84.7 N 62.22 CA 62.46 C 64.49 O 63.58 CB 73.68 OG1 80.77 CG2 70.51
C PRO H 20 -51.9 -46.9 N 60.67 CA 60.48 C 64.83 O 64.12 CB 62.19 CG 66.26 CD 62.03
C ALA H 63 -56.3 -45.0 N 61.41 CA 61.16 C 64.15 O 63.15 CB 62.21
C SER H 50 -63.2 -41.7 N 60.98 CA 60.3 C 61.34 O 61.05 CB 64.74 OG 78.57
C LEU H 0 -64.0 -49.6 N 56.32 CA 54.95 C 58.36 O 58.08 CB 53.94 CG 57.18 CD1 56.98 CD2 58.04
C ILE H 26 -57.0 -48.2 N 54.46 CA 54.23 C 59.41 O 58.33 CB 56.84 CG1 56.51 CG2 57.17 CD1 61.99
C ASN H 78 -61.5 -38.5 N 57.0 CA 57.13 C 61.75 O 61.52 CB 60.76 CG 92.99 OD1 88.28 ND2 86.67
C ASN H 46 -65.6 -41.0 N 58.53 CA 58.11 C 60.21 O 59.8 CB 59.05 CG 88.17 OD1 87.62 ND2 80.38
C LEU H 0 -68.0 -40.7 N 55.73 CA 54.93 C 59.15 O 58.23 CB 54.28 CG 57.22 CD1 56.29 CD2 57.73
C LYS H 79 -65.2 -23.3 N 56.98 CA 57.8 C 64.21 O 64.32 CB 59.53 CG 65.65 CD 77.34 CE 91.32 NZ 103.27
C ARG T 171 -87.6 -11.0 N 62.51 CA 63.67 C 67.65 O 67.67 CB 66.45 CG 82.89 CD 103.32 NE 118.8 CZ 135.36 NH1 122.38 NH2 122.3
C LEU S 24 -70.3 137.0 N 63.09 CA 62.5 C 67.71 O 67.35 CB 61.64 CG 66.05 CD1 65.8 CD2 67.54
C PRO - 85 -62.1 143.6 N 63.85 CA 63.25 C 65.84 O 65.49 CB 65.07 CG 69.85 CD 65.29
C ARG H 119 -39.6 -49.2 N 62.45 CA 62.25 C 69.12 O 69.09 CB 60.35 CG 64.67 CD 65.29 NE 63.64 CZ 76.34 NH1 61.73 NH2 63.48
C GLU H 118 -67.2 -36.1 N 67.06 CA 66.8 C 66.55 O 65.21 CB 68.96 CG 84.5 CD 114.23 OE1 110.35 OE2 115.8
C LYS H 76 -70.4 -43.0 N 60.89 CA 59.72 C 60.35 O 59.07 CB 62.59 CG 79.11 CD 90.09 CE 94.89 NZ 99.08
C LEU H 2 -60.2 -46.1 N 56.09 CA 55.17 C 59.31 O 59.25 CB 55.11 CG 59.38 CD1 58.88 CD2 59.57
C LYS H 36 -61.3 -40.8 N 55.79 CA 55.25 C 60.14 O 60.5 CB 56.68 CG 62.73 CD 64.41 CE 68.65 NZ 75.45
C LYS H 118 -65.9 -46.1 N 56.83 CA 56.76 C 59.93 O 59.62 CB 59.82 CG 83.69 CD 95.4 CE 100.79 NZ 105.92
C LEU H 1 -66.2 -40.4 N 55.78 CA 55.35 C 57.55 O 57.3 CB 55.83 CG 60.76 CD1 60.61 CD2 62.45
C ALA H 2 -62.0 -42.3 N 53.37 CA 52.91 C 56.6 O 55.66 CB 53.54
C LYS H 91 -61.6 -45.8 N 53.28 CA 53.16 C 56.18 O 56.1 CB 56.41 CG 72.01 CD 86.28 CE 93.18 NZ 97.25
C LEU H 33 -65.5 -40.1 N 52.15 CA 51.44 C 54.29 O 54.53 CB 51.64 CG 55.99 CD1 56.34 CD2 55.75
C ILE H 0 -65.3 -42.3 N 50.88 CA 50.5 C 55.35 O 54.81 CB 52.8 CG1 52.42 CG2 52.07 CD1 52.17
C ILE H 15 -60.3 -45.3 N 52.31 CA 52.17 C 56.76 O 55.83 CB 55.1 CG1 54.96 CG2 55.97 CD1 56.92
C ASP H 112 -61.0 -45.7 N 54.66 CA 55.06 C 58.5 O 59.7 CB 57.45 CG 75.34 OD1 76.87 OD2 84.21
C LEU H 23 -65.3 -33.0 N 53.71 CA 52.94 C 56.42 O 56.26 CB 52.56 CG 56.54 CD1 56.69 CD2 54.66
C SER T 17 -59.2 -22.8 N 52.79 CA 52.6 C 60.85 O 60.15 CB 53.49 OG 59.59
C ALA T 18 -73.8 -19.6 N 61.43 CA 63.38 C 70.43 O 69.9 CB 64.46
C GLY - 20 85.5 179.1 N 69.6 CA 71.07 C 78.74 O 78.06
C ALA - 19 -71.9 162.2 N 79.41 CA 81.74 C 91.09 O 90.9 CB 82.7
C GLU G 129 -90.6 10.6 N 91.98 CA 94.01 C 101.98 O 102.6 CB 95.73 CG 106.77 CD 126.39 OE1 118.43 OE2 121.98
C ASN G 45 -67.3 -16.0 N 100.03 CA 100.45 C 105.06 O 104.71 CB 100.73 CG 125.06 OD1 119.49 ND2 118.39
C ASP G 20 -57.2 -47.7 N 101.79 CA 101.57 C 106.61 O 106.36 CB 102.57 CG 107.38 OD1 108.57 OD2 108.15
C SER - 112 -160.9 360.0 N 103.67 CA 130.68 C 130.0 O 81.66 CB 134.46 OG 143.66
