A LEU - 198 360.0 96.3 N 64.19 CA 65.45 C 67.63 O 71.95 CB 65.19 CG 66.98 CD1 73.2 CD2 63.87 HA 78.54 HB2 78.23 HB3 78.23 HG 80.38 HD11 87.84 HD12 87.84 HD13 87.84 HD21 76.64 HD22 76.64 HD23 76.64
A VAL - 80 -84.6 111.9 N 65.55 CA 65.31 C 66.51 O 69.84 CB 66.96 CG1 67.05 CG2 67.63 H 78.66 HA 78.38 HB 80.36 HG11 80.46 HG12 80.46 HG13 80.46 HG21 81.16 HG22 81.16 HG23 81.16
A LEU - 150 -67.4 -57.1 N 64.77 CA 65.95 C 70.71 O 72.5 CB 62.28 CG 62.36 CD1 62.36 CD2 63.59 H 77.72 HA 79.14 HB2 74.74 HB3 74.74 HG 74.84 HD11 74.83 HD12 74.83 HD13 74.83 HD21 76.31 HD22 76.31 HD23 76.31
A SER - 71 -112.6 160.3 N 72.33 CA 72.36 C 72.21 O 78.09 CB 70.02 OG 71.48 H 86.8 HA 86.83 HB2 84.02 HB3 84.02 HG 85.77
A GLU S 162 -96.6 24.5 N 69.29 CA 70.98 C 63.86 O 62.16 CB 84.16 CG 96.47 CD 112.18 OE1 118.91 OE2 117.99 H 83.15 HA 85.18 HB2 100.99 HB3 100.99 HG2 115.77 HG3 115.77
A LEU H 41 -70.4 -41.9 N 61.22 CA 61.83 C 58.56 O 56.79 CB 67.8 CG 74.45 CD1 78.68 CD2 75.78 H 73.46 HA 74.19 HB2 81.36 HB3 81.36 HG 89.34 HD11 94.42 HD12 94.42 HD13 94.42 HD21 90.94 HD22 90.94 HD23 90.94
A SER H 10 -68.8 -35.6 N 43.41 CA 44.67 C 42.37 O 40.02 CB 47.88 OG 48.17 H 52.09 HA 53.6 HB2 57.45 HB3 57.45 HG 57.8
A GLN H 91 -61.8 -44.3 N 42.84 CA 43.84 C 42.33 O 41.83 CB 50.13 CG 58.07 CD 66.4 OE1 72.12 NE2 67.38 H 51.4 HA 52.61 HB2 60.15 HB3 60.15 HG2 69.68 HG3 69.68 HE21 80.86 HE22 80.86
A GLY H 22 -63.0 -37.4 N 42.79 CA 41.53 C 39.3 O 38.49 H 51.35 HA2 49.83 HA3 49.83
A LEU H 7 -69.4 -39.5 N 37.88 CA 38.31 C 36.94 O 35.02 CB 42.18 CG 49.48 CD1 55.24 CD2 53.14 H 45.46 HA 45.97 HB2 50.61 HB3 50.61 HG 59.38 HD11 66.29 HD12 66.29 HD13 66.29 HD21 63.77 HD22 63.77 HD23 63.77
A ALA H 6 -67.7 -36.1 N 40.2 CA 38.9 C 37.83 O 39.71 CB 37.49 H 48.24 HA 46.68 HB1 44.99 HB2 44.99 HB3 44.99
A VAL H 89 -70.7 -43.2 N 35.31 CA 33.51 C 32.63 O 33.2 CB 36.89 CG1 37.1 CG2 40.67 H 42.37 HA 40.21 HB 44.26 HG11 44.52 HG12 44.52 HG13 44.52 HG21 48.81 HG22 48.81 HG23 48.81
A GLU H 69 -67.8 -47.2 N 33.39 CA 37.04 C 36.46 O 35.95 CB 46.47 CG 61.17 CD 78.76 OE1 83.9 OE2 87.96 H 40.07 HA 44.45 HB2 55.76 HB3 55.76 HG2 73.4 HG3 73.4
A LEU H 4 -59.9 -46.2 N 29.6 CA 30.42 C 27.65 O 27.01 CB 32.91 CG 35.27 CD1 37.74 CD2 37.59 H 35.52 HA 36.51 HB2 39.49 HB3 39.49 HG 42.33 HD11 45.29 HD12 45.29 HD13 45.29 HD21 45.1 HD22 45.1 HD23 45.1
A MET H 11 -61.0 -42.3 N 27.06 CA 28.31 C 25.46 O 26.36 CB 31.69 CG 33.9 SD 40.44 CE 34.2 H 32.47 HA 33.98 HB2 38.02 HB3 38.02 HG2 40.68 HG3 40.68 HE1 41.04 HE2 41.04 HE3 41.04
A GLU H 63 -67.2 -40.0 N 23.94 CA 25.56 C 28.42 O 29.78 CB 26.64 CG 30.73 CD 35.36 OE1 41.63 OE2 33.82 H 28.73 HA 30.67 HB2 31.97 HB3 31.97 HG2 36.87 HG3 36.87
A ARG H 146 -69.1 -45.0 N 29.18 CA 28.62 C 25.9 O 27.81 CB 34.38 CG 42.61 CD 50.69 NE 55.95 CZ 59.7 NH1 58.51 NH2 64.49 H 35.02 HA 34.34 HB2 41.26 HB3 41.26 HG2 51.14 HG3 51.14 HD2 60.83 HD3 60.83 HE 67.14 HH11 70.21 HH12 70.21 HH21 77.38 HH22 77.38
A VAL H 1 -63.6 -43.1 N 24.75 CA 25.91 C 28.54 O 32.16 CB 25.93 CG1 26.95 CG2 27.12 H 29.7 HA 31.1 HB 31.11 HG11 32.34 HG12 32.34 HG13 32.34 HG21 32.55 HG22 32.55 HG23 32.55
A MET H 2 -62.6 -48.4 N 27.23 CA 27.98 C 25.32 O 25.62 CB 31.83 CG 35.51 SD 40.13 CE 30.61 H 32.67 HA 33.57 HB2 38.19 HB3 38.19 HG2 42.62 HG3 42.62 HE1 36.73 HE2 36.73 HE3 36.73
A MET H 47 -59.2 -49.2 N 25.16 CA 25.84 C 27.06 O 28.24 CB 28.06 CG 32.04 SD 57.79 CE 21.94 H 30.19 HA 31.01 HB2 33.68 HB3 33.68 HG2 38.45 HG3 38.45 HE1 26.33 HE2 26.33 HE3 26.33
A GLU H 65 -59.6 -34.6 N 27.35 CA 29.82 C 29.69 O 31.09 CB 33.33 CG 37.28 CD 42.56 OE1 48.74 OE2 42.25 H 32.82 HA 35.79 HB2 40.0 HB3 40.0 HG2 44.73 HG3 44.73
A PHE H 2 -70.0 -37.8 N 28.31 CA 27.95 C 28.6 O 30.04 CB 27.02 CG 28.8 CD1 33.71 CD2 28.0 CE1 37.19 CE2 31.74 CZ 36.58 H 33.98 HA 33.54 HB2 32.43 HB3 32.43 HD1 40.45 HD2 33.59 HE1 44.62 HE2 38.09 HZ 43.89
A VAL H 0 -64.6 -44.7 N 27.76 CA 27.15 C 27.71 O 29.49 CB 25.61 CG1 24.31 CG2 26.27 H 33.31 HA 32.58 HB 30.74 HG11 29.17 HG12 29.17 HG13 29.17 HG21 31.53 HG22 31.53 HG23 31.53
A ARG H 154 -62.0 -46.0 N 26.74 CA 28.36 C 31.33 O 33.63 CB 28.95 CG 29.31 CD 31.18 NE 34.37 CZ 41.2 NH1 43.01 NH2 45.93 H 32.09 HA 34.03 HB2 34.75 HB3 34.75 HG2 35.17 HG3 35.17 HD2 37.42 HD3 37.42 HE 41.24 HH11 51.61 HH12 51.61 HH21 55.12 HH22 55.12
A GLU H 84 -63.6 -40.3 N 31.7 CA 30.98 C 26.2 O 25.65 CB 36.04 CG 43.85 CD 47.96 OE1 45.79 OE2 51.86 H 38.04 HA 37.18 HB2 43.25 HB3 43.25 HG2 52.62 HG3 52.62
A THR H 5 -67.3 -47.0 N 24.53 CA 25.91 C 25.85 O 23.71 CB 26.38 OG1 24.7 CG2 29.62 H 29.44 HA 31.09 HB 31.65 HG1 29.64 HG21 35.54 HG22 35.54 HG23 35.54
A CYS H 1 -62.6 -38.0 N 27.54 CA 27.11 C 28.52 O 29.99 CB 24.64 SG 29.82 H 33.05 HA 32.53 HB2 29.56 HB3 29.56 HG 35.78
A SER H 59 -65.5 -41.6 N 26.98 CA 28.45 C 28.69 O 28.13 CB 31.04 OG 37.65 H 32.38 HA 34.14 HB2 37.25 HB3 37.25 HG 45.18
A GLN H 86 -73.2 -39.2 N 31.03 CA 32.0 C 28.83 O 30.89 CB 36.08 CG 45.02 CD 51.69 OE1 56.57 NE2 51.77 H 37.23 HA 38.4 HB2 43.3 HB3 43.3 HG2 54.02 HG3 54.02 HE21 62.12 HE22 62.12
A GLU H 45 -64.5 -41.9 N 25.81 CA 26.04 C 26.58 O 28.57 CB 28.55 CG 34.48 CD 44.45 OE1 50.52 OE2 47.25 H 30.97 HA 31.25 HB2 34.26 HB3 34.26 HG2 41.38 HG3 41.38
A LEU H 19 -71.7 -37.2 N 26.13 CA 27.52 C 30.45 O 34.0 CB 25.73 CG 26.37 CD1 25.25 CD2 30.0 H 31.36 HA 33.02 HB2 30.87 HB3 30.87 HG 31.64 HD11 30.3 HD12 30.3 HD13 30.3 HD21 36.0 HD22 36.0 HD23 36.0
A LYS H 127 -61.8 -42.7 N 28.57 CA 31.2 C 30.32 O 32.01 CB 38.27 CG 49.93 CD 60.02 CE 67.32 NZ 70.09 H 34.28 HA 37.44 HB2 45.92 HB3 45.92 HG2 59.91 HG3 59.91 HD2 72.02 HD3 72.02 HE2 80.79 HE3 80.79 HZ1 84.11 HZ2 84.11 HZ3 84.11
A ASN H 58 -64.7 -45.4 N 29.18 CA 30.39 C 30.2 O 30.55 CB 31.0 CG 34.18 OD1 38.48 ND2 33.91 H 35.02 HA 36.47 HB2 37.2 HB3 37.2 HD21 40.69 HD22 40.69
A ALA H 25 -60.6 -43.8 N 29.3 CA 28.94 C 31.2 O 35.51 CB 26.39 H 35.16 HA 34.72 HB1 31.66 HB2 31.66 HB3 31.66
A VAL H 73 -67.5 -36.7 N 31.45 CA 32.86 C 34.06 O 35.56 CB 34.73 CG1 34.24 CG2 35.78 H 37.74 HA 39.43 HB 41.68 HG11 41.09 HG12 41.09 HG13 41.09 HG21 42.94 HG22 42.94 HG23 42.94
A GLU H 106 -65.4 -44.6 N 33.9 CA 35.18 C 32.24 O 32.25 CB 45.78 CG 59.01 CD 74.54 OE1 80.41 OE2 80.85 H 40.68 HA 42.22 HB2 54.93 HB3 54.93 HG2 70.81 HG3 70.81
A THR H 63 -64.2 -45.4 N 32.02 CA 33.32 C 30.98 O 32.63 CB 36.87 OG1 40.47 CG2 37.85 H 38.42 HA 39.99 HB 44.24 HG1 48.57 HG21 45.42 HG22 45.42 HG23 45.42
A ASP H 39 -61.7 -35.4 N 28.68 CA 29.05 C 28.93 O 27.58 CB 30.7 CG 32.7 OD1 35.37 OD2 32.22 H 34.41 HA 34.86 HB2 36.83 HB3 36.83
A GLN H 92 -61.0 -44.0 N 30.63 CA 30.96 C 29.16 O 30.98 CB 37.2 CG 46.47 CD 54.33 OE1 57.99 NE2 57.16 H 36.76 HA 37.15 HB2 44.64 HB3 44.64 HG2 55.76 HG3 55.76 HE21 68.59 HE22 68.59
A ARG H 139 -62.9 -38.5 N 27.6 CA 29.21 C 29.92 O 30.62 CB 33.64 CG 41.1 CD 51.9 NE 59.49 CZ 65.69 NH1 66.04 NH2 70.33 H 33.12 HA 35.05 HB2 40.37 HB3 40.37 HG2 49.32 HG3 49.32 HD2 62.28 HD3 62.28 HE 71.38 HH11 79.25 HH12 79.25 HH21 84.4 HH22 84.4
A VAL H 68 -62.4 -46.4 N 30.31 CA 28.55 C 27.89 O 30.17 CB 27.44 CG1 25.76 CG2 30.6 H 36.37 HA 34.25 HB 32.93 HG11 30.91 HG12 30.91 HG13 30.91 HG21 36.72 HG22 36.72 HG23 36.72
A ARG H 22 -67.1 -36.5 N 24.95 CA 23.62 C 25.15 O 26.86 CB 24.27 CG 27.87 CD 30.22 NE 34.21 CZ 41.61 NH1 45.87 NH2 44.93 H 29.94 HA 28.35 HB2 29.12 HB3 29.12 HG2 33.44 HG3 33.44 HD2 36.26 HD3 36.26 HE 41.05 HH11 55.05 HH12 55.05 HH21 53.92 HH22 53.92
A VAL H 45 -65.8 -44.8 N 26.65 CA 28.98 C 30.47 O 32.69 CB 29.66 CG1 30.62 CG2 30.87 H 31.98 HA 34.78 HB 35.59 HG11 36.75 HG12 36.75 HG13 36.75 HG21 37.05 HG22 37.05 HG23 37.05
A ALA H 28 -62.6 -45.3 N 30.43 CA 31.04 C 31.9 O 32.73 CB 31.47 H 36.52 HA 37.25 HB1 37.76 HB2 37.76 HB3 37.76
A ARG H 93 -62.6 -43.5 N 32.74 CA 33.78 C 32.13 O 33.51 CB 36.79 CG 41.28 CD 43.43 NE 41.04 CZ 38.81 NH1 38.95 NH2 38.37 H 39.29 HA 40.53 HB2 44.15 HB3 44.15 HG2 49.54 HG3 49.54 HD2 52.12 HD3 52.12 HE 49.25 HH11 46.75 HH12 46.75 HH21 46.04 HH22 46.04
A CYS H 0 -65.9 -35.1 N 29.96 CA 28.34 C 27.66 O 27.82 CB 28.14 SG 40.96 H 35.95 HA 34.0 HB2 33.77 HB3 33.77 HG 49.15
A CYS H 1 -64.1 -33.8 N 27.05 CA 27.04 C 25.65 O 24.22 CB 27.68 SG 35.13 H 32.46 HA 32.45 HB2 33.21 HB3 33.21 HG 42.16
A GLU H 96 -68.5 -43.3 N 27.73 CA 29.2 C 28.29 O 28.35 CB 33.67 CG 39.17 CD 48.09 OE1 52.41 OE2 52.24 H 33.28 HA 35.04 HB2 40.41 HB3 40.41 HG2 47.01 HG3 47.01
A ASP H 66 -63.7 -44.1 N 27.31 CA 30.88 C 27.28 O 28.23 CB 41.14 CG 52.52 OD1 56.31 OD2 58.29 H 32.77 HA 37.06 HB2 49.36 HB3 49.36
A VAL H 1 -62.0 -44.4 N 25.98 CA 28.6 C 27.62 O 29.84 CB 30.0 CG1 34.78 CG2 30.26 H 31.17 HA 34.32 HB 36.0 HG11 41.73 HG12 41.73 HG13 41.73 HG21 36.31 HG22 36.31 HG23 36.31
A CYS H 9 -60.8 -45.1 N 27.21 CA 29.87 C 30.86 O 32.13 CB 29.23 SG 40.38 H 32.66 HA 35.85 HB2 35.07 HB3 35.07 HG 48.46
A ALA H 60 -64.3 -35.3 N 31.19 CA 31.48 C 32.82 O 37.88 CB 32.77 H 37.42 HA 37.78 HB1 39.33 HB2 39.33 HB3 39.33
A HIS H 99 -69.8 -46.1 N 30.27 CA 36.38 C 34.42 O 35.57 CB 47.24 CG 65.75 ND1 74.06 CD2 76.45 CE1 82.92 NE2 84.53 H 36.32 HA 43.66 HB2 56.69 HB3 56.69 HD1 88.87 HD2 91.74 HE1 99.5 HE2 101.44
A LEU H 11 -63.2 -42.4 N 35.51 CA 40.42 C 43.23 O 48.97 CB 41.99 CG 46.07 CD1 47.17 CD2 51.59 H 42.61 HA 48.5 HB2 50.39 HB3 50.39 HG 55.29 HD11 56.61 HD12 56.61 HD13 56.61 HD21 61.91 HD22 61.91 HD23 61.91
A VAL H 13 -60.7 -51.3 N 39.16 CA 39.07 C 40.03 O 45.3 CB 39.51 CG1 39.8 CG2 39.75 H 46.99 HA 46.89 HB 47.42 HG11 47.75 HG12 47.75 HG13 47.75 HG21 47.7 HG22 47.7 HG23 47.7
A ASP H 53 -62.1 -31.2 N 60.2 CA 59.8 C 54.56 O 53.12 CB 72.26 CG 88.03 OD1 94.34 OD2 94.68 H 72.24 HA 71.75 HB2 86.71 HB3 86.71
A LEU H 86 -71.2 -57.0 N 53.79 CA 55.28 C 53.17 O 54.87 CB 62.55 CG 73.14 CD1 79.13 CD2 78.07 H 64.55 HA 66.34 HB2 75.07 HB3 75.07 HG 87.77 HD11 94.95 HD12 94.95 HD13 94.95 HD21 93.68 HD22 93.68 HD23 93.68
A PHE H 7 -56.4 -33.4 N 50.83 CA 49.19 C 49.06 O 48.59 CB 49.52 CG 52.24 CD1 52.71 CD2 54.95 CE1 54.43 CE2 56.49 CZ 55.91 H 60.99 HA 59.02 HB2 59.42 HB3 59.42 HD1 63.25 HD2 65.94 HE1 65.32 HE2 67.79 HZ 67.09
A LEU H 4 -70.6 -50.5 N 49.75 CA 51.48 C 53.4 O 53.74 CB 54.85 CG 57.43 CD1 54.93 CD2 62.39 H 59.7 HA 61.77 HB2 65.82 HB3 65.82 HG 68.91 HD11 65.92 HD12 65.92 HD13 65.92 HD21 74.87 HD22 74.87 HD23 74.87
A VAL H 77 -51.8 -30.2 N 55.92 CA 61.53 C 59.35 O 65.64 CB 69.52 CG1 76.3 CG2 72.31 H 67.11 HA 73.83 HB 83.42 HG11 91.56 HG12 91.56 HG13 91.56 HG21 86.77 HG22 86.77 HG23 86.77
A GLU H 79 -79.6 -41.2 N 70.92 CA 69.51 C 69.81 O 69.77 CB 73.4 CG 78.39 CD 86.37 OE1 90.2 OE2 89.99 H 85.11 HA 83.42 HB2 88.08 HB3 88.08 HG2 94.07 HG3 94.07
A GLU H 3 -72.0 -21.7 N 70.57 CA 72.24 C 69.42 O 70.59 CB 77.57 CG 88.35 CD 99.37 OE1 102.35 OE2 105.45 H 84.68 HA 86.69 HB2 93.09 HB3 93.09 HG2 106.02 HG3 106.02
A ILE H 1 -76.4 -24.6 N 66.83 CA 65.16 C 65.38 O 65.35 CB 62.93 CG1 62.99 CG2 61.78 CD1 61.1 H 80.2 HA 78.2 HB 75.52 HG12 75.59 HG13 75.59 HG21 74.14 HG22 74.14 HG23 74.14 HD11 73.32 HD12 73.32 HD13 73.32
A PHE H 97 -79.6 -45.4 N 65.94 CA 67.57 C 70.09 O 72.5 CB 67.93 CG 68.18 CD1 70.63 CD2 66.16 CE1 71.39 CE2 67.1 CZ 69.68 H 79.13 HA 81.09 HB2 81.51 HB3 81.51 HD1 84.75 HD2 79.39 HE1 85.66 HE2 80.52 HZ 83.62
A GLN H 89 -63.8 -39.8 N 70.76 CA 74.14 C 76.19 O 76.71 CB 79.58 CG 83.96 CD 89.52 OE1 94.93 NE2 88.07 H 84.92 HA 88.97 HB2 95.5 HB3 95.5 HG2 100.75 HG3 100.75 HE21 105.68 HE22 105.68
A THR H 6 -61.7 -50.8 N 77.19 CA 76.87 C 75.96 O 75.66 CB 72.95 OG1 73.5 CG2 71.4 H 92.63 HA 92.24 HB 87.54 HG1 88.2 HG21 85.68 HG22 85.68 HG23 85.68
A ALA H 2 -50.4 -44.9 N 75.61 CA 75.68 C 82.44 O 89.04 CB 71.18 H 90.73 HA 90.81 HB1 85.42 HB2 85.42 HB3 85.42
A LYS H 93 -58.5 -51.6 N 81.98 CA 83.51 C 80.93 O 79.94 CB 90.68 CG 96.14 CD 97.88 CE 102.58 NZ 102.93 H 98.38 HA 100.21 HB2 108.81 HB3 108.81 HG2 115.37 HG3 115.37 HD2 117.46 HD3 117.46 HE2 123.09 HE3 123.09 HZ1 123.51 HZ2 123.51 HZ3 123.51
A GLU H 146 -57.0 -30.4 N 81.97 CA 87.41 C 89.66 O 90.5 CB 88.88 CG 93.33 CD 94.69 OE1 89.35 OE2 101.41 H 98.36 HA 104.89 HB2 106.66 HB3 106.66 HG2 112.0 HG3 112.0
A THR H 18 -77.4 -19.6 N 90.61 CA 91.7 C 99.11 O 105.04 CB 81.89 OG1 76.44 CG2 79.12 H 108.74 HA 110.04 HB 98.26 HG1 91.73 HG21 94.94 HG22 94.94 HG23 94.94
A LEU - 69 -105.7 123.7 N 97.81 CA 96.08 C 97.72 O 96.87 CB 91.05 CG 82.13 CD1 76.47 CD2 79.55 H 117.38 HA 115.3 HB2 109.26 HB3 109.26 HG 98.56 HD11 91.76 HD12 91.76 HD13 91.76 HD21 95.46 HD22 95.46 HD23 95.46
A GLN - 222 -79.5 360.0 N 100.3 CA 102.51 C 100.59 O 99.72 CB 111.33 CG 120.78 CD 130.39 OE1 131.73 NE2 137.13 H 120.35 HA 123.02 HB2 133.6 HB3 133.6 HG2 144.94 HG3 144.94 HE21 164.56 HE22 164.56
B ASP - 124 360.0 137.0 N 92.37 CA 89.85 C 85.77 O 83.94 CB 88.22 CG 83.82 OD1 86.01 OD2 78.48 HA 107.82 HB2 105.86 HB3 105.86
B ALA H 71 -79.1 -33.2 N 84.15 CA 79.44 C 70.21 O 60.95 CB 83.79 H 100.97 HA 95.33 HB1 100.55 HB2 100.55 HB3 100.55
B GLN H 145 -58.1 -35.8 N 73.21 CA 71.28 C 66.0 O 63.22 CB 75.98 CG 81.69 CD 88.52 OE1 90.98 NE2 91.88 H 87.86 HA 85.54 HB2 91.17 HB3 91.17 HG2 98.03 HG3 98.03 HE21 110.26 HE22 110.26
B MET H 100 -66.7 -45.0 N 64.3 CA 60.18 C 53.77 O 50.67 CB 66.48 CG 73.31 SD 154.4 CE 95.77 H 77.16 HA 72.21 HB2 79.77 HB3 79.77 HG2 87.98 HG3 87.98 HE1 114.92 HE2 114.92 HE3 114.92
B ARG H 68 -60.3 -39.7 N 53.28 CA 52.62 C 52.58 O 53.8 CB 57.42 CG 66.08 CD 79.64 NE 89.09 CZ 95.21 NH1 96.9 NH2 97.4 H 63.94 HA 63.14 HB2 68.9 HB3 68.9 HG2 79.29 HG3 79.29 HD2 95.57 HD3 95.57 HE 106.91 HH11 116.28 HH12 116.28 HH21 116.88 HH22 116.88
B ALA H 62 -63.7 -40.2 N 51.04 CA 49.85 C 47.83 O 46.56 CB 52.3 H 61.25 HA 59.82 HB1 62.76 HB2 62.76 HB3 62.76
B ALA H 54 -65.4 -44.1 N 47.83 CA 47.88 C 47.49 O 49.76 CB 47.97 H 57.4 HA 57.46 HB1 57.56 HB2 57.56 HB3 57.56
B ILE H 36 -67.2 -46.2 N 45.52 CA 44.05 C 47.76 O 47.5 CB 45.99 CG1 53.47 CG2 42.24 CD1 57.8 H 54.62 HA 52.86 HB 55.18 HG12 64.17 HG13 64.17 HG21 50.69 HG22 50.69 HG23 50.69 HD11 69.36 HD12 69.36 HD13 69.36
B ASN H 56 -57.9 -37.7 N 54.96 CA 62.98 C 59.66 O 58.99 CB 76.34 CG 86.8 OD1 85.06 ND2 96.94 H 65.95 HA 75.57 HB2 91.6 HB3 91.6 HD21 116.33 HD22 116.33
B GLN H 97 -65.7 -37.1 N 51.72 CA 51.88 C 46.44 O 44.48 CB 61.31 CG 73.73 CD 83.41 OE1 84.4 NE2 89.57 H 62.06 HA 62.25 HB2 73.58 HB3 73.58 HG2 88.48 HG3 88.48 HE21 107.48 HE22 107.48
B LYS H 42 -69.3 -49.0 N 44.11 CA 41.77 C 39.08 O 37.63 CB 41.44 CG 47.09 CD 56.04 CE 61.38 NZ 68.28 H 52.93 HA 50.12 HB2 49.73 HB3 49.73 HG2 56.51 HG3 56.51 HD2 67.25 HD3 67.25 HE2 73.65 HE3 73.65 HZ1 81.93 HZ2 81.93 HZ3 81.93
B LEU H 5 -50.6 -38.7 N 39.29 CA 39.9 C 42.47 O 41.94 CB 38.31 CG 38.36 CD1 39.38 CD2 36.4 H 47.15 HA 47.88 HB2 45.97 HB3 45.97 HG 46.03 HD11 47.26 HD12 47.26 HD13 47.26 HD21 43.68 HD22 43.68 HD23 43.68
B ILE H 91 -74.0 -52.9 N 43.1 CA 42.6 C 44.87 O 47.1 CB 43.74 CG1 41.76 CG2 46.96 CD1 45.97 H 51.72 HA 51.12 HB 52.48 HG12 50.12 HG13 50.12 HG21 56.35 HG22 56.35 HG23 56.35 HD11 55.16 HD12 55.16 HD13 55.16
B GLU H 120 -70.4 -30.3 N 46.48 CA 54.37 C 48.64 O 52.98 CB 70.1 CG 82.51 CD 96.74 OE1 101.16 OE2 103.21 H 55.77 HA 65.25 HB2 84.12 HB3 84.12 HG2 99.02 HG3 99.02
B THR T 31 -75.1 -10.0 N 43.66 CA 46.86 C 48.37 O 50.12 CB 46.72 OG1 44.83 CG2 47.9 H 52.4 HA 56.23 HB 56.06 HG1 53.8 HG21 57.48 HG22 57.48 HG23 57.48
B GLY T 29 82.4 0.3 N 47.55 CA 46.43 C 41.77 O 42.67 H 57.06 HA2 55.72 HA3 55.72
B GLU H 19 -65.0 -40.1 N 36.78 CA 35.29 C 34.15 O 34.45 CB 34.65 CG 37.66 CD 47.61 OE1 51.91 OE2 53.24 H 44.14 HA 42.35 HB2 41.58 HB3 41.58 HG2 45.2 HG3 45.2
B ARG H 57 -61.5 -44.7 N 35.18 CA 37.89 C 39.06 O 38.77 CB 43.6 CG 50.09 CD 58.49 NE 64.15 CZ 62.64 NH1 68.46 NH2 53.98 H 42.22 HA 45.47 HB2 52.32 HB3 52.32 HG2 60.11 HG3 60.11 HD2 70.19 HD3 70.19 HE 76.98 HH11 82.15 HH12 82.15 HH21 64.77 HH22 64.77
B GLU H 147 -65.1 -34.8 N 42.5 CA 47.95 C 45.24 O 49.07 CB 59.13 CG 72.66 CD 84.74 OE1 85.92 OE2 92.83 H 51.0 HA 57.54 HB2 70.96 HB3 70.96 HG2 87.2 HG3 87.2
B ARG H 60 -70.8 -46.1 N 42.61 CA 45.84 C 43.37 O 44.05 CB 51.79 CG 60.84 CD 69.53 NE 72.1 CZ 72.95 NH1 71.37 NH2 74.55 H 51.13 HA 55.01 HB2 62.14 HB3 62.14 HG2 73.01 HG3 73.01 HD2 83.44 HD3 83.44 HE 86.52 HH11 85.65 HH12 85.65 HH21 89.47 HH22 89.47
B LEU H 4 -63.2 -40.7 N 29.39 CA 33.57 C 31.31 O 31.45 CB 39.01 CG 45.21 CD1 46.84 CD2 48.15 H 35.27 HA 40.29 HB2 46.81 HB3 46.81 HG 54.25 HD11 56.2 HD12 56.2 HD13 56.2 HD21 57.79 HD22 57.79 HD23 57.79
B LYS H 62 -59.1 -44.6 N 30.95 CA 31.5 C 32.42 O 31.39 CB 32.79 CG 36.91 CD 41.2 CE 42.66 NZ 41.95 H 37.15 HA 37.8 HB2 39.34 HB3 39.34 HG2 44.3 HG3 44.3 HD2 49.44 HD3 49.44 HE2 51.19 HE3 51.19 HZ1 50.34 HZ2 50.34 HZ3 50.34
B GLU H 40 -61.0 -47.1 N 34.58 CA 34.42 C 34.54 O 35.38 CB 35.71 CG 40.21 CD 47.02 OE1 50.74 OE2 49.54 H 41.49 HA 41.31 HB2 42.86 HB3 42.86 HG2 48.25 HG3 48.25
B LEU H 42 -68.6 -36.4 N 32.35 CA 32.6 C 33.29 O 36.19 CB 34.58 CG 39.02 CD1 39.94 CD2 44.62 H 38.82 HA 39.12 HB2 41.5 HB3 41.5 HG 46.82 HD11 47.92 HD12 47.92 HD13 47.92 HD21 53.54 HD22 53.54 HD23 53.54
B LEU H 12 -60.6 -50.8 N 32.0 CA 33.05 C 27.54 O 27.69 CB 39.66 CG 45.14 CD1 45.19 CD2 47.44 H 38.4 HA 39.66 HB2 47.6 HB3 47.6 HG 54.16 HD11 54.23 HD12 54.23 HD13 54.23 HD21 56.93 HD22 56.93 HD23 56.93
B ARG H 63 -59.2 -40.9 N 25.38 CA 27.11 C 29.48 O 30.46 CB 26.95 CG 26.31 CD 29.09 NE 35.92 CZ 40.43 NH1 40.59 NH2 43.26 H 30.45 HA 32.53 HB2 32.33 HB3 32.33 HG2 31.57 HG3 31.57 HD2 34.91 HD3 34.91 HE 43.1 HH11 48.71 HH12 48.71 HH21 51.91 HH22 51.91
B ALA H 4 -66.5 -36.9 N 30.08 CA 29.55 C 29.96 O 31.05 CB 28.96 H 36.1 HA 35.46 HB1 34.75 HB2 34.75 HB3 34.75
B LYS H 85 -71.9 -37.9 N 29.94 CA 33.04 C 30.25 O 30.64 CB 41.02 CG 54.95 CD 66.65 CE 73.81 NZ 76.76 H 35.93 HA 39.65 HB2 49.23 HB3 49.23 HG2 65.95 HG3 65.95 HD2 79.98 HD3 79.98 HE2 88.57 HE3 88.57 HZ1 92.11 HZ2 92.11 HZ3 92.11
B LEU H 1 -66.5 -36.0 N 29.28 CA 30.1 C 32.8 O 34.15 CB 28.73 CG 32.04 CD1 37.55 CD2 29.81 H 35.14 HA 36.12 HB2 34.47 HB3 34.47 HG 38.45 HD11 45.06 HD12 45.06 HD13 45.06 HD21 35.77 HD22 35.77 HD23 35.77
B ILE H 60 -68.5 -43.3 N 32.54 CA 30.91 C 33.19 O 36.54 CB 30.58 CG1 31.14 CG2 31.38 CD1 35.36 H 39.05 HA 37.09 HB 36.7 HG12 37.37 HG13 37.37 HG21 37.65 HG22 37.65 HG23 37.65 HD11 42.43 HD12 42.43 HD13 42.43
B GLU H 84 -62.8 -40.7 N 33.64 CA 38.45 C 40.88 O 43.08 CB 42.17 CG 49.8 CD 58.33 OE1 58.02 OE2 66.01 H 40.37 HA 46.14 HB2 50.61 HB3 50.61 HG2 59.77 HG3 59.77
B CYS T 72 -82.7 -2.7 N 41.2 CA 43.22 C 44.16 O 46.88 CB 42.68 SG 42.9 H 49.44 HA 51.87 HB2 51.21 HB3 51.21 HG 51.48
B GLY T 19 92.1 5.1 N 41.38 CA 39.87 C 37.49 O 36.86 H 49.66 HA2 47.85 HA3 47.85
B TRP H 2 -59.5 -40.0 N 35.74 CA 31.54 C 29.51 O 27.61 CB 28.68 CG 26.95 CD1 27.71 CD2 25.18 NE1 26.34 CE2 26.81 CE3 25.56 CZ2 31.1 CZ3 29.34 CH2 32.24 H 42.89 HA 37.85 HB2 34.41 HB3 34.41 HD1 33.25 HE1 31.61 HE3 30.67 HZ2 37.32 HZ3 35.21 HH2 38.68
B LYS H 60 -71.5 -34.9 N 30.0 CA 27.46 C 28.56 O 29.12 CB 27.66 CG 31.76 CD 40.27 CE 48.54 NZ 55.17 H 36.0 HA 32.96 HB2 33.19 HB3 33.19 HG2 38.12 HG3 38.12 HD2 48.33 HD3 48.33 HE2 58.25 HE3 58.25 HZ1 66.2 HZ2 66.2 HZ3 66.2
B ASP H 97 -63.6 -33.5 N 30.39 CA 33.35 C 33.33 O 33.7 CB 37.33 CG 42.69 OD1 42.76 OD2 48.02 H 36.47 HA 40.01 HB2 44.79 HB3 44.79
B GLN H 86 -66.0 -39.7 N 32.87 CA 31.85 C 29.18 O 27.62 CB 32.51 CG 36.72 CD 42.61 OE1 46.8 NE2 43.71 H 39.45 HA 38.21 HB2 39.02 HB3 39.02 HG2 44.06 HG3 44.06 HE21 52.45 HE22 52.45
B LEU H 6 -61.1 -45.9 N 28.42 CA 29.6 C 31.1 O 32.85 CB 31.18 CG 32.46 CD1 31.96 CD2 34.52 H 34.11 HA 35.51 HB2 37.41 HB3 37.41 HG 38.95 HD11 38.35 HD12 38.35 HD13 38.35 HD21 41.42 HD22 41.42 HD23 41.42
B LYS H 65 -65.0 -41.5 N 30.7 CA 30.6 C 29.94 O 30.22 CB 33.27 CG 37.18 CD 44.55 CE 49.95 NZ 53.79 H 36.84 HA 36.72 HB2 39.92 HB3 39.92 HG2 44.61 HG3 44.61 HD2 53.46 HD3 53.46 HE2 59.94 HE3 59.94 HZ1 64.55 HZ2 64.55 HZ3 64.55
B ALA H 58 -59.8 -42.4 N 30.4 CA 33.32 C 33.91 O 35.86 CB 35.31 H 36.48 HA 39.99 HB1 42.37 HB2 42.37 HB3 42.37
B HIS H 47 -67.4 -37.5 N 32.82 CA 32.45 C 31.18 O 32.48 CB 34.13 CG 34.33 ND1 33.6 CD2 36.15 CE1 34.27 NE2 35.77 H 39.38 HA 38.94 HB2 40.96 HB3 40.96 HD1 40.32 HD2 43.38 HE1 41.12 HE2 42.93
B CYS H 0 -60.5 -46.4 N 28.28 CA 29.31 C 32.47 O 36.79 CB 30.66 SG 43.16 H 33.93 HA 35.18 HB2 36.8 HB3 36.8 HG 51.79
B LYS H 139 -54.6 -42.7 N 32.76 CA 36.94 C 34.59 O 33.19 CB 45.44 CG 58.68 CD 70.69 CE 79.05 NZ 83.21 H 39.31 HA 44.32 HB2 54.53 HB3 54.53 HG2 70.41 HG3 70.41 HD2 84.83 HD3 84.83 HE2 94.86 HE3 94.86 HZ1 99.85 HZ2 99.85 HZ3 99.85
B GLU H 87 -70.4 -39.6 N 33.54 CA 35.13 C 33.74 O 36.21 CB 41.85 CG 54.16 CD 64.28 OE1 71.72 OE2 64.46 H 40.25 HA 42.16 HB2 50.22 HB3 50.22 HG2 65.0 HG3 65.0
B VAL H 11 -67.9 -38.1 N 32.6 CA 32.92 C 32.57 O 35.72 CB 33.65 CG1 31.57 CG2 38.22 H 39.12 HA 39.5 HB 40.38 HG11 37.89 HG12 37.89 HG13 37.89 HG21 45.86 HG22 45.86 HG23 45.86
B ILE H 24 -62.5 -47.9 N 30.49 CA 31.47 C 31.09 O 33.98 CB 32.41 CG1 30.3 CG2 35.53 CD1 30.95 H 36.59 HA 37.77 HB 38.89 HG12 36.36 HG13 36.36 HG21 42.64 HG22 42.64 HG23 42.64 HD11 37.14 HD12 37.14 HD13 37.14
B LYS H 137 -63.2 -30.6 N 28.22 CA 30.18 C 33.8 O 35.08 CB 33.75 CG 41.45 CD 51.83 CE 63.86 NZ 72.99 H 33.86 HA 36.22 HB2 40.5 HB3 40.5 HG2 49.74 HG3 49.74 HD2 62.2 HD3 62.2 HE2 76.63 HE3 76.63 HZ1 87.59 HZ2 87.59 HZ3 87.59
B GLU H 140 -79.9 -44.5 N 36.09 CA 38.33 C 34.88 O 34.79 CB 45.93 CG 54.79 CD 63.68 OE1 68.42 OE2 65.23 H 43.31 HA 45.99 HB2 55.11 HB3 55.11 HG2 65.75 HG3 65.75
B LYS H 123 -88.0 -39.0 N 33.01 CA 34.0 C 32.03 O 31.36 CB 36.21 CG 43.8 CD 56.58 CE 66.46 NZ 74.15 H 39.62 HA 40.8 HB2 43.45 HB3 43.45 HG2 52.56 HG3 52.56 HD2 67.89 HD3 67.89 HE2 79.76 HE3 79.76 HZ1 88.98 HZ2 88.98 HZ3 88.98
B GLY - 23 98.5 141.3 N 31.9 CA 32.0 C 30.13 O 28.24 H 38.28 HA2 38.39 HA3 38.39
B LEU T 54 -66.1 -23.4 N 30.57 CA 31.25 C 30.26 O 31.26 CB 33.02 CG 33.26 CD1 34.28 CD2 32.82 H 36.68 HA 37.5 HB2 39.62 HB3 39.62 HG 39.91 HD11 41.13 HD12 41.13 HD13 41.13 HD21 39.38 HD22 39.38 HD23 39.38
B GLU T 118 -75.3 -5.6 N 27.98 CA 31.32 C 34.26 O 38.23 CB 37.07 CG 43.23 CD 52.1 OE1 56.98 OE2 53.9 H 33.58 HA 37.58 HB2 44.49 HB3 44.49 HG2 51.87 HG3 51.87
B HIS T 140 -128.9 -39.2 N 34.52 CA 37.18 C 37.34 O 37.47 CB 39.04 CG 44.55 ND1 51.33 CD2 45.71 CE1 54.52 NE2 50.93 H 41.43 HA 44.62 HB2 46.84 HB3 46.84 HD1 61.59 HD2 54.86 HE1 65.43 HE2 61.12
B VAL - 10 -75.6 141.8 N 37.61 CA 37.6 C 36.82 O 32.99 CB 33.71 CG1 31.25 CG2 31.98 H 45.13 HA 45.12 HB 40.46 HG11 37.5 HG12 37.5 HG13 37.5 HG21 38.38 HG22 38.38 HG23 38.38
B THR - 65 -119.9 173.2 N 37.9 CA 36.04 C 32.03 O 31.45 CB 39.77 OG1 39.81 CG2 44.42 H 45.48 HA 43.25 HB 47.73 HG1 47.77 HG21 53.31 HG22 53.31 HG23 53.31
B VAL H 48 -63.9 -40.7 N 31.91 CA 31.49 C 27.15 O 24.47 CB 39.35 CG1 41.11 CG2 42.43 H 38.29 HA 37.79 HB 47.22 HG11 49.33 HG12 49.33 HG13 49.33 HG21 50.92 HG22 50.92 HG23 50.92
B ASP H 127 -59.1 -38.3 N 27.25 CA 30.9 C 30.66 O 29.8 CB 36.84 CG 44.46 OD1 47.15 OD2 48.43 H 32.71 HA 37.08 HB2 44.21 HB3 44.21
B ASP H 79 -63.7 -48.4 N 32.39 CA 32.13 C 27.64 O 29.14 CB 35.86 CG 41.79 OD1 43.56 OD2 44.8 H 38.86 HA 38.55 HB2 43.03 HB3 43.03
B LEU H 0 -59.7 -50.2 N 24.27 CA 25.25 C 27.25 O 30.32 CB 27.57 CG 32.98 CD1 35.57 CD2 35.76 H 29.12 HA 30.3 HB2 33.08 HB3 33.08 HG 39.58 HD11 42.69 HD12 42.69 HD13 42.69 HD21 42.91 HD22 42.91 HD23 42.91
B VAL H 21 -58.8 -45.1 N 26.8 CA 27.0 C 29.09 O 29.88 CB 26.9 CG1 28.04 CG2 26.68 H 32.16 HA 32.4 HB 32.28 HG11 33.64 HG12 33.64 HG13 33.64 HG21 32.02 HG22 32.02 HG23 32.02
B ALA H 70 -58.6 -41.7 N 30.48 CA 32.53 C 32.26 O 33.54 CB 35.64 H 36.58 HA 39.04 HB1 42.77 HB2 42.77 HB3 42.77
B GLU H 103 -77.0 -36.5 N 31.66 CA 34.78 C 33.29 O 36.01 CB 40.85 CG 51.23 CD 63.59 OE1 66.97 OE2 70.35 H 37.99 HA 41.73 HB2 49.02 HB3 49.02 HG2 61.47 HG3 61.47
B ILE H 0 -89.1 -25.2 N 31.72 CA 35.72 C 34.25 O 32.58 CB 41.63 CG1 41.87 CG2 45.2 CD1 39.99 H 38.07 HA 42.87 HB 49.95 HG12 50.25 HG13 50.25 HG21 54.25 HG22 54.25 HG23 54.25 HD11 47.99 HD12 47.99 HD13 47.99
B THR H 13 -58.7 -55.4 N 34.77 CA 35.99 C 40.6 O 41.5 CB 33.51 OG1 29.34 CG2 35.96 H 41.73 HA 43.19 HB 40.21 HG1 35.2 HG21 43.15 HG22 43.15 HG23 43.15
B PRO H 74 -46.3 -50.8 N 39.75 CA 37.78 C 35.23 O 34.93 CB 42.18 CG 44.62 CD 44.2 HA 45.33 HB2 50.61 HB3 50.61 HG2 53.54 HG3 53.54 HD2 53.04 HD3 53.04
B LYS H 99 -66.4 -39.2 N 35.37 CA 39.66 C 37.48 O 39.67 CB 49.05 CG 61.31 CD 78.52 CE 91.42 NZ 96.12 H 42.45 HA 47.59 HB2 58.86 HB3 58.86 HG2 73.57 HG3 73.57 HD2 94.23 HD3 94.23 HE2 109.71 HE3 109.71 HZ1 115.35 HZ2 115.35 HZ3 115.35
B GLY H 2 -57.3 -49.1 N 34.33 CA 31.6 C 30.31 O 32.84 H 41.19 HA2 37.92 HA3 37.92
B ARG H 103 -59.1 -38.1 N 28.44 CA 30.13 C 30.92 O 32.71 CB 32.0 CG 32.65 CD 31.6 NE 31.17 CZ 33.17 NH1 36.98 NH2 32.07 H 34.12 HA 36.15 HB2 38.39 HB3 38.39 HG2 39.18 HG3 39.18 HD2 37.92 HD3 37.92 HE 37.4 HH11 44.38 HH12 44.38 HH21 38.48 HH22 38.48
B ALA H 79 -77.1 -16.9 N 31.14 CA 33.35 C 33.61 O 37.82 CB 37.86 H 37.36 HA 40.02 HB1 45.43 HB2 45.43 HB3 45.43
B LEU H 65 -98.8 -3.4 N 31.85 CA 35.55 C 36.1 O 37.74 CB 38.4 CG 42.26 CD1 47.22 CD2 42.51 H 38.22 HA 42.66 HB2 46.08 HB3 46.08 HG 50.71 HD11 56.66 HD12 56.66 HD13 56.66 HD21 51.02 HD22 51.02 HD23 51.02
B VAL S 5 -62.0 117.2 N 35.42 CA 35.62 C 36.78 O 35.11 CB 35.77 CG1 38.83 CG2 32.84 H 42.51 HA 42.74 HB 42.92 HG11 46.6 HG12 46.6 HG13 46.6 HG21 39.41 HG22 39.41 HG23 39.41
B PRO - 34 -59.8 141.1 N 39.86 CA 43.77 C 41.87 O 38.11 CB 48.45 CG 46.97 CD 42.32 HA 52.52 HB2 58.14 HB3 58.14 HG2 56.36 HG3 56.36 HD2 50.78 HD3 50.78
B ASP H 123 -69.1 -17.6 N 46.78 CA 53.04 C 49.25 O 48.6 CB 66.9 CG 73.43 OD1 77.37 OD2 74.43 H 56.14 HA 63.64 HB2 80.28 HB3 80.28
B SER H 79 -69.0 -42.0 N 48.63 CA 53.38 C 52.81 O 56.22 CB 56.68 OG 56.34 H 58.36 HA 64.06 HB2 68.01 HB3 68.01 HG 67.61
B VAL H 12 -72.1 -34.1 N 49.1 CA 49.15 C 46.94 O 50.3 CB 50.96 CG1 50.0 CG2 53.43 H 58.91 HA 58.98 HB 61.15 HG11 60.0 HG12 60.0 HG13 60.0 HG21 64.12 HG22 64.12 HG23 64.12
B LYS H 82 -66.7 -34.3 N 41.47 CA 40.41 C 38.61 O 37.01 CB 46.81 CG 51.12 CD 52.88 CE 57.19 NZ 57.13 H 49.76 HA 48.49 HB2 56.18 HB3 56.18 HG2 61.34 HG3 61.34 HD2 63.45 HD3 63.45 HE2 68.63 HE3 68.63 HZ1 68.55 HZ2 68.55 HZ3 68.55
B LYS H 158 -68.5 -41.5 N 41.41 CA 44.86 C 46.02 O 44.61 CB 52.8 CG 60.52 CD 69.63 CE 73.5 NZ 72.66 H 49.69 HA 53.83 HB2 63.36 HB3 63.36 HG2 72.63 HG3 72.63 HD2 83.56 HD3 83.56 HE2 88.2 HE3 88.2 HZ1 87.19 HZ2 87.19 HZ3 87.19
B GLU H 91 -70.5 -38.8 N 49.11 CA 51.12 C 44.49 O 44.1 CB 61.34 CG 74.25 CD 91.83 OE1 99.3 OE2 98.49 H 58.94 HA 61.34 HB2 73.61 HB3 73.61 HG2 89.11 HG3 89.11
B LEU H 8 -60.4 -51.9 N 40.21 CA 37.64 C 37.56 O 39.7 CB 37.88 CG 37.39 CD1 35.62 CD2 40.44 H 48.25 HA 45.17 HB2 45.45 HB3 45.45 HG 44.87 HD11 42.74 HD12 42.74 HD13 42.74 HD21 48.53 HD22 48.53 HD23 48.53
B LEU H 24 -52.8 -40.7 N 36.87 CA 37.7 C 39.1 O 39.42 CB 39.81 CG 41.8 CD1 41.75 CD2 41.94 H 44.24 HA 45.24 HB2 47.77 HB3 47.77 HG 50.16 HD11 50.1 HD12 50.1 HD13 50.1 HD21 50.32 HD22 50.32 HD23 50.32
B GLN H 106 -66.2 -37.3 N 41.27 CA 44.71 C 40.52 O 40.41 CB 53.87 CG 66.52 CD 76.06 OE1 82.63 NE2 76.36 H 49.53 HA 53.66 HB2 64.65 HB3 64.65 HG2 79.83 HG3 79.83 HE21 91.63 HE22 91.63
B ARG H 90 -65.7 -41.9 N 39.23 CA 40.63 C 42.31 O 47.5 CB 42.5 CG 54.86 CD 70.9 NE 86.36 CZ 95.4 NH1 94.87 NH2 102.54 H 47.08 HA 48.75 HB2 51.0 HB3 51.0 HG2 65.84 HG3 65.84 HD2 85.08 HD3 85.08 HE 103.63 HH11 113.85 HH12 113.85 HH21 123.05 HH22 123.05
B ILE H 1 -60.6 -46.7 N 38.88 CA 37.39 C 37.39 O 39.07 CB 38.62 CG1 39.37 CG2 39.59 CD1 39.71 H 46.66 HA 44.86 HB 46.35 HG12 47.24 HG13 47.24 HG21 47.5 HG22 47.5 HG23 47.5 HD11 47.65 HD12 47.65 HD13 47.65
B ARG H 84 -63.1 -44.6 N 37.75 CA 40.67 C 42.39 O 41.26 CB 44.0 CG 44.52 CD 50.34 NE 54.39 CZ 59.48 NH1 66.43 NH2 56.83 H 45.3 HA 48.8 HB2 52.8 HB3 52.8 HG2 53.42 HG3 53.42 HD2 60.41 HD3 60.41 HE 65.26 HH11 79.72 HH12 79.72 HH21 68.2 HH22 68.2
B THR H 72 -57.3 -38.7 N 45.44 CA 48.07 C 44.77 O 47.39 CB 50.44 OG1 54.65 CG2 50.9 H 54.53 HA 57.69 HB 60.53 HG1 65.58 HG21 61.08 HG22 61.08 HG23 61.08
B PHE H 2 -68.9 -42.0 N 39.29 CA 38.18 C 38.32 O 41.31 CB 37.21 CG 39.47 CD1 39.24 CD2 41.63 CE1 39.52 CE2 42.0 CZ 40.56 H 47.15 HA 45.81 HB2 44.65 HB3 44.65 HD1 47.09 HD2 49.96 HE1 47.42 HE2 50.4 HZ 48.67
B LEU H 37 -64.7 -39.9 N 36.92 CA 40.14 C 40.96 O 43.19 CB 45.86 CG 47.43 CD1 48.42 CD2 48.84 H 44.3 HA 48.17 HB2 55.03 HB3 55.03 HG 56.91 HD11 58.1 HD12 58.1 HD13 58.1 HD21 58.61 HD22 58.61 HD23 58.61
B ALA H 81 -65.0 -30.3 N 41.31 CA 45.8 C 47.06 O 49.97 CB 48.5 H 49.57 HA 54.95 HB1 58.2 HB2 58.2 HB3 58.2
B GLN H 51 -93.8 -17.0 N 46.95 CA 51.87 C 47.65 O 46.8 CB 59.56 CG 63.81 CD 68.97 OE1 71.68 NE2 69.42 H 56.35 HA 62.25 HB2 71.47 HB3 71.47 HG2 76.57 HG3 76.57 HE21 83.3 HE22 83.3
B HIS H 36 -111.8 4.8 N 45.01 CA 47.95 C 54.07 O 57.28 CB 45.0 CG 47.05 ND1 47.96 CD2 49.93 CE1 50.14 NE2 51.24 H 54.01 HA 57.54 HB2 54.0 HB3 54.0 HD1 57.55 HD2 59.91 HE1 60.17 HE2 61.49
B ALA - 113 -157.0 360.0 N 56.3 CA 57.45 C 64.11 O 68.46 CB 52.13 H 67.56 HA 68.94 HB1 62.55 HB2 62.55 HB3 62.55
C ASN - 149 360.0 -76.6 N 66.5 CA 73.24 C 69.18 O 70.76 CB 86.47 CG 95.44 OD1 99.91 ND2 98.0 HA 87.89 HB2 103.76 HB3 103.76 HD21 117.6 HD22 117.6
C LYS H 92 -65.1 -36.8 N 65.74 CA 62.25 C 51.43 O 46.87 CB 71.72 CG 78.93 CD 86.82 CE 92.33 NZ 94.33 H 78.89 HA 74.7 HB2 86.07 HB3 86.07 HG2 94.72 HG3 94.72 HD2 104.18 HD3 104.18 HE2 110.8 HE3 110.8 HZ1 113.2 HZ2 113.2 HZ3 113.2
C ASP H 26 -65.5 -41.1 N 48.09 CA 45.16 C 44.93 O 43.11 CB 47.42 CG 52.52 OD1 54.02 OD2 56.42 H 57.71 HA 54.19 HB2 56.91 HB3 56.91
C ALA H 42 -62.7 -41.0 N 47.45 CA 45.06 C 40.41 O 38.78 CB 48.72 H 56.94 HA 54.07 HB1 58.47 HB2 58.47 HB3 58.47
C GLN H 134 -63.3 -41.4 N 39.31 CA 39.38 C 35.8 O 38.31 CB 47.78 CG 62.73 CD 77.77 OE1 82.08 NE2 85.84 H 47.17 HA 47.26 HB2 57.34 HB3 57.34 HG2 75.27 HG3 75.27 HE21 103.0 HE22 103.0
C MET H 40 -68.0 -39.1 N 33.6 CA 32.77 C 32.39 O 32.89 CB 33.27 CG 31.13 SD 42.43 CE 48.17 H 40.32 HA 39.32 HB2 39.92 HB3 39.92 HG2 37.36 HG3 37.36 HE1 57.8 HE2 57.8 HE3 57.8
C ARG H 80 -61.9 -40.5 N 31.97 CA 29.69 C 29.3 O 28.27 CB 31.14 CG 33.59 CD 38.71 NE 44.11 CZ 47.48 NH1 46.69 NH2 51.81 H 38.37 HA 35.63 HB2 37.37 HB3 37.37 HG2 40.31 HG3 40.31 HD2 46.45 HD3 46.45 HE 52.93 HH11 56.03 HH12 56.03 HH21 62.17 HH22 62.17
C ALA H 56 -65.2 -41.3 N 30.71 CA 32.53 C 35.75 O 40.49 CB 32.9 H 36.85 HA 39.03 HB1 39.48 HB2 39.48 HB3 39.48
C ALA H 57 -65.3 -45.8 N 33.79 CA 34.81 C 31.63 O 29.74 CB 38.8 H 40.55 HA 41.78 HB1 46.56 HB2 46.56 HB3 46.56
C ILE H 7 -60.1 -47.4 N 32.42 CA 30.35 C 30.62 O 29.06 CB 28.62 CG1 28.97 CG2 26.97 CD1 29.41 H 38.91 HA 36.42 HB 34.34 HG12 34.76 HG13 34.76 HG21 32.36 HG22 32.36 HG23 32.36 HD11 35.29 HD12 35.29 HD13 35.29
C ASN H 46 -55.7 -47.0 N 33.34 CA 35.85 C 29.72 O 27.01 CB 45.95 CG 55.18 OD1 61.96 ND2 56.57 H 40.01 HA 43.02 HB2 55.14 HB3 55.14 HD21 67.88 HD22 67.88
C GLN H 93 -67.2 -33.9 N 27.82 CA 28.26 C 30.33 O 32.22 CB 30.66 CG 36.18 CD 39.6 OE1 37.31 NE2 44.5 H 33.39 HA 33.91 HB2 36.8 HB3 36.8 HG2 43.42 HG3 43.42 HE21 53.4 HE22 53.4
C LYS H 64 -67.5 -35.3 N 31.78 CA 35.14 C 32.47 O 32.94 CB 42.49 CG 54.73 CD 65.52 CE 70.05 NZ 73.14 H 38.14 HA 42.17 HB2 50.99 HB3 50.99 HG2 65.67 HG3 65.67 HD2 78.62 HD3 78.62 HE2 84.06 HE3 84.06 HZ1 87.77 HZ2 87.77 HZ3 87.77
C LEU H 1 -67.7 -32.0 N 31.21 CA 30.24 C 28.25 O 27.76 CB 30.65 CG 29.64 CD1 30.52 CD2 28.56 H 37.45 HA 36.29 HB2 36.79 HB3 36.79 HG 35.56 HD11 36.63 HD12 36.63 HD13 36.63 HD21 34.27 HD22 34.27 HD23 34.27
C ILE H 63 -80.0 -45.7 N 27.98 CA 32.64 C 37.85 O 42.64 CB 32.98 CG1 34.68 CG2 32.33 CD1 35.63 H 33.58 HA 39.16 HB 39.58 HG12 41.62 HG13 41.62 HG21 38.8 HG22 38.8 HG23 38.8 HD11 42.75 HD12 42.75 HD13 42.75
C GLU H 134 -58.9 -35.2 N 37.37 CA 36.81 C 36.29 O 37.3 CB 37.56 CG 42.51 CD 47.22 OE1 46.79 OE2 51.05 H 44.85 HA 44.17 HB2 45.07 HB3 45.07 HG2 51.02 HG3 51.02
C THR T 49 -90.1 -12.7 N 35.21 CA 35.08 C 34.25 O 33.58 CB 32.25 OG1 32.12 CG2 28.99 H 42.25 HA 42.09 HB 38.7 HG1 38.55 HG21 34.78 HG22 34.78 HG23 34.78
C GLY T 20 85.4 8.2 N 34.99 CA 37.24 C 37.79 O 45.22 H 41.98 HA2 44.68 HA3 44.68
C GLU H 11 -68.6 -32.2 N 35.6 CA 31.22 C 29.44 O 27.56 CB 31.04 CG 35.51 CD 48.18 OE1 56.34 OE2 53.21 H 42.72 HA 37.46 HB2 37.25 HB3 37.25 HG2 42.61 HG3 42.61
C ARG H 86 -58.6 -40.1 N 33.11 CA 35.73 C 37.09 O 35.86 CB 39.62 CG 40.84 CD 47.87 NE 59.21 CZ 71.66 NH1 77.54 NH2 76.67 H 39.74 HA 42.88 HB2 47.55 HB3 47.55 HG2 49.0 HG3 49.0 HD2 57.44 HD3 57.44 HE 71.05 HH11 93.05 HH12 93.05 HH21 92.01 HH22 92.01
C GLU H 74 -68.4 -40.6 N 40.37 CA 46.83 C 45.31 O 48.26 CB 58.12 CG 67.34 CD 68.67 OE1 64.18 OE2 73.63 H 48.44 HA 56.19 HB2 69.74 HB3 69.74 HG2 80.81 HG3 80.81
C ARG H 99 -65.2 -36.0 N 41.24 CA 39.75 C 38.22 O 38.91 CB 42.25 CG 49.85 CD 53.79 NE 53.23 CZ 52.7 NH1 49.49 NH2 55.8 H 49.49 HA 47.7 HB2 50.7 HB3 50.7 HG2 59.82 HG3 59.82 HD2 64.55 HD3 64.55 HE 63.88 HH11 59.39 HH12 59.39 HH21 66.97 HH22 66.97
C LEU H 1 -66.8 -42.1 N 38.51 CA 38.49 C 36.6 O 34.93 CB 39.13 CG 38.09 CD1 39.87 CD2 33.62 H 46.21 HA 46.19 HB2 46.96 HB3 46.96 HG 45.71 HD11 47.84 HD12 47.84 HD13 47.84 HD21 40.34 HD22 40.34 HD23 40.34
C LYS H 52 -58.9 -47.6 N 36.75 CA 39.07 C 43.83 O 48.63 CB 41.45 CG 48.43 CD 56.92 CE 62.01 NZ 66.49 H 44.1 HA 46.88 HB2 49.74 HB3 49.74 HG2 58.12 HG3 58.12 HD2 68.3 HD3 68.3 HE2 74.41 HE3 74.41 HZ1 79.79 HZ2 79.79 HZ3 79.79
C GLU H 123 -66.8 -33.1 N 43.85 CA 46.23 C 43.56 O 43.31 CB 53.59 CG 66.44 CD 79.98 OE1 85.66 OE2 85.15 H 52.62 HA 55.47 HB2 64.3 HB3 64.3 HG2 79.73 HG3 79.73
C LEU H 25 -64.2 -46.2 N 43.7 CA 42.14 C 38.12 O 38.34 CB 42.7 CG 43.34 CD1 43.34 CD2 44.48 H 52.44 HA 50.57 HB2 51.24 HB3 51.24 HG 52.0 HD11 52.0 HD12 52.0 HD13 52.0 HD21 53.37 HD22 53.37 HD23 53.37
C LEU H 0 -60.6 -43.7 N 34.58 CA 34.36 C 36.34 O 37.66 CB 34.32 CG 37.17 CD1 36.01 CD2 40.75 H 41.49 HA 41.23 HB2 41.19 HB3 41.19 HG 44.6 HD11 43.21 HD12 43.21 HD13 43.21 HD21 48.9 HD22 48.9 HD23 48.9
C ARG H 77 -58.4 -45.1 N 38.07 CA 40.11 C 40.47 O 43.11 CB 42.87 CG 46.62 CD 50.27 NE 53.11 CZ 57.69 NH1 57.07 NH2 62.53 H 45.68 HA 48.13 HB2 51.44 HB3 51.44 HG2 55.95 HG3 55.95 HD2 60.33 HD3 60.33 HE 63.73 HH11 68.48 HH12 68.48 HH21 75.03 HH22 75.03
C ALA H 39 -63.0 -44.3 N 38.01 CA 37.34 C 35.79 O 40.32 CB 38.37 H 45.61 HA 44.81 HB1 46.04 HB2 46.04 HB3 46.04
C LYS H 24 -66.3 -36.1 N 32.39 CA 35.38 C 38.25 O 40.32 CB 37.23 CG 44.26 CD 56.32 CE 64.24 NZ 66.81 H 38.87 HA 42.45 HB2 44.68 HB3 44.68 HG2 53.11 HG3 53.11 HD2 67.58 HD3 67.58 HE2 77.09 HE3 77.09 HZ1 80.18 HZ2 80.18 HZ3 80.18
C LEU H 0 -66.8 -31.4 N 37.91 CA 37.93 C 39.51 O 40.03 CB 37.25 CG 37.92 CD1 42.31 CD2 36.58 H 45.49 HA 45.52 HB2 44.7 HB3 44.7 HG 45.5 HD11 50.77 HD12 50.77 HD13 50.77 HD21 43.9 HD22 43.9 HD23 43.9
C ILE H 17 -70.9 -48.0 N 42.0 CA 46.14 C 48.73 O 51.13 CB 46.77 CG1 51.35 CG2 45.4 CD1 55.32 H 50.4 HA 55.36 HB 56.13 HG12 61.62 HG13 61.62 HG21 54.48 HG22 54.48 HG23 54.48 HD11 66.38 HD12 66.38 HD13 66.38
C GLU H 99 -57.8 -41.4 N 48.91 CA 52.37 C 52.76 O 55.41 CB 57.26 CG 64.4 CD 70.59 OE1 76.73 OE2 69.19 H 58.69 HA 62.85 HB2 68.71 HB3 68.71 HG2 77.29 HG3 77.29
C CYS T 53 -85.5 -1.8 N 49.21 CA 51.03 C 58.42 O 62.17 CB 45.86 SG 45.71 H 59.06 HA 61.24 HB2 55.04 HB3 55.04 HG 54.85
C GLY T 16 81.1 20.1 N 58.86 CA 57.58 C 52.33 O 50.97 H 70.63 HA2 69.1 HA3 69.1
C TRP H 0 -57.0 -49.7 N 50.03 CA 46.93 C 46.06 O 43.17 CB 45.97 CG 40.46 CD1 37.46 CD2 37.18 NE1 35.39 CE2 35.87 CE3 37.5 CZ2 36.63 CZ3 38.44 CH2 38.18 H 60.03 HA 56.32 HB2 55.16 HB3 55.16 HD1 44.95 HE1 42.47 HE3 45.0 HZ2 43.96 HZ3 46.13 HH2 45.82
C LYS H 29 -56.0 -52.2 N 50.19 CA 58.62 C 53.36 O 50.77 CB 73.81 CG 82.99 CD 85.31 CE 85.79 NZ 83.47 H 60.23 HA 70.34 HB2 88.58 HB3 88.58 HG2 99.58 HG3 99.58 HD2 102.37 HD3 102.37 HE2 102.94 HE3 102.94 HZ1 100.17 HZ2 100.17 HZ3 100.17
C ASP H 76 -56.3 -46.4 N 53.34 CA 54.58 C 49.39 O 48.12 CB 59.43 CG 64.26 OD1 67.45 OD2 64.95 H 64.0 HA 65.5 HB2 71.32 HB3 71.32
C GLN H 96 -64.6 -35.7 N 46.35 CA 45.47 C 42.62 O 39.7 CB 48.36 CG 58.43 CD 69.82 OE1 73.07 NE2 76.33 H 55.62 HA 54.57 HB2 58.03 HB3 58.03 HG2 70.12 HG3 70.12 HE21 91.59 HE22 91.59
C LEU H 0 -71.4 -44.3 N 43.55 CA 41.93 C 45.16 O 41.37 CB 39.51 CG 40.13 CD1 35.97 CD2 44.31 H 52.26 HA 50.31 HB2 47.42 HB3 47.42 HG 48.15 HD11 43.16 HD12 43.16 HD13 43.16 HD21 53.17 HD22 53.17 HD23 53.17
C LYS H 45 -65.2 -35.1 N 50.47 CA 53.6 C 49.5 O 51.1 CB 63.12 CG 73.85 CD 88.49 CE 97.1 NZ 101.0 H 60.56 HA 64.32 HB2 75.74 HB3 75.74 HG2 88.62 HG3 88.62 HD2 106.19 HD3 106.19 HE2 116.51 HE3 116.51 HZ1 121.2 HZ2 121.2 HZ3 121.2
C ALA H 45 -63.0 -36.0 N 44.83 CA 44.36 C 42.75 O 43.65 CB 43.35 H 53.8 HA 53.24 HB1 52.02 HB2 52.02 HB3 52.02
C HIS H 37 -67.8 -37.8 N 39.61 CA 40.04 C 41.4 O 39.8 CB 43.24 CG 51.15 ND1 57.0 CD2 55.36 CE1 60.49 NE2 59.47 H 47.54 HA 48.04 HB2 51.89 HB3 51.89 HD1 68.4 HD2 66.44 HE1 72.58 HE2 71.36
C CYS H 0 -63.2 -42.0 N 45.29 CA 47.88 C 48.26 O 47.13 CB 51.34 SG 68.95 H 54.34 HA 57.46 HB2 61.61 HB3 61.61 HG 82.74
C LYS H 126 -64.7 -36.0 N 49.24 CA 52.61 C 47.72 O 47.45 CB 58.22 CG 66.17 CD 73.92 CE 82.15 NZ 85.87 H 59.09 HA 63.13 HB2 69.86 HB3 69.86 HG2 79.4 HG3 79.4 HD2 88.7 HD3 88.7 HE2 98.58 HE3 98.58 HZ1 103.04 HZ2 103.04 HZ3 103.04
C GLU H 112 -65.0 -49.6 N 45.12 CA 43.5 C 43.15 O 43.21 CB 43.44 CG 50.04 CD 55.87 OE1 56.57 OE2 60.03 H 54.15 HA 52.2 HB2 52.13 HB3 52.13 HG2 60.05 HG3 60.05
C VAL H 9 -65.5 -40.6 N 43.91 CA 47.5 C 46.19 O 45.92 CB 50.01 CG1 54.44 CG2 50.63 H 52.69 HA 57.0 HB 60.01 HG11 65.32 HG12 65.32 HG13 65.32 HG21 60.75 HG22 60.75 HG23 60.75
C ILE H 22 -56.2 -43.6 N 63.5 CA 63.48 C 62.72 O 63.44 CB 63.15 CG1 64.04 CG2 63.19 CD1 63.96 H 76.2 HA 76.17 HB 75.78 HG12 76.84 HG13 76.84 HG21 75.83 HG22 75.83 HG23 75.83 HD11 76.76 HD12 76.76 HD13 76.76
C LYS H 185 -63.2 -33.8 N 61.7 CA 62.34 C 62.33 O 62.71 CB 60.36 CG 61.16 CD 62.38 CE 62.98 NZ 60.5 H 74.04 HA 74.81 HB2 72.43 HB3 72.43 HG2 73.39 HG3 73.39 HD2 74.85 HD3 74.85 HE2 75.58 HE3 75.58 HZ1 72.6 HZ2 72.6 HZ3 72.6
C GLU H 158 -80.9 -49.6 N 62.7 CA 62.73 C 64.01 O 64.61 CB 62.73 CG 61.69 CD 61.9 OE1 62.7 OE2 61.41 H 75.24 HA 75.27 HB2 75.28 HB3 75.28 HG2 74.02 HG3 74.02
C LYS H 93 -69.0 -36.4 N 64.62 CA 65.91 C 66.3 O 67.42 CB 66.5 CG 67.97 CD 70.49 CE 72.56 NZ 73.52 H 77.54 HA 79.09 HB2 79.81 HB3 79.81 HG2 81.57 HG3 81.57 HD2 84.59 HD3 84.59 HE2 87.07 HE3 87.07 HZ1 88.22 HZ2 88.22 HZ3 88.22
C GLY - 27 88.5 143.2 N 65.51 CA 65.88 C 66.67 O 67.81 H 78.61 HA2 79.05 HA3 79.05
C LEU T 116 -62.3 -41.9 N 66.64 CA 67.49 C 71.91 O 76.42 CB 67.5 CG 67.01 CD1 65.5 CD2 68.22 H 79.97 HA 80.99 HB2 81.0 HB3 81.0 HG 80.41 HD11 78.6 HD12 78.6 HD13 78.6 HD21 81.86 HD22 81.86 HD23 81.86
C GLU T 189 -65.3 -46.7 N 70.86 CA 74.96 C 77.14 O 83.05 CB 78.93 CG 83.56 CD 89.77 OE1 95.44 OE2 89.15 H 85.03 HA 89.95 HB2 94.71 HB3 94.71 HG2 100.28 HG3 100.28
C HIS T 157 -70.5 -38.0 N 109.74 CA 110.29 C 109.42 O 109.8 CB 111.59 CG 114.35 ND1 117.25 CD2 115.14 CE1 119.6 NE2 118.33 H 131.68 HA 132.35 HB2 133.9 HB3 133.9 HD1 140.69 HD2 138.17 HE1 143.52 HE2 141.99
C VAL - 19 -69.6 144.7 N 107.7 CA 106.29 C 104.93 O 104.76 CB 104.45 CG1 102.96 CG2 105.15 H 129.24 HA 127.55 HB 125.34 HG11 123.55 HG12 123.55 HG13 123.55 HG21 126.18 HG22 126.18 HG23 126.18
C THR - 74 -123.6 160.3 N 105.11 CA 104.74 C 103.48 O 103.75 CB 107.07 OG1 108.02 CG2 109.1 H 126.13 HA 125.69 HB 128.48 HG1 129.62 HG21 130.92 HG22 130.92 HG23 130.92
C VAL H 37 -67.7 -41.0 N 102.72 CA 102.02 C 103.24 O 103.46 CB 101.27 CG1 100.92 CG2 100.81 H 123.27 HA 122.43 HB 121.53 HG11 121.1 HG12 121.1 HG13 121.1 HG21 120.97 HG22 120.97 HG23 120.97
C ASP H 132 -61.3 -40.4 N 104.81 CA 106.97 C 108.21 O 109.6 CB 111.44 CG 116.01 OD1 115.43 OD2 121.74 H 125.77 HA 128.36 HB2 133.73 HB3 133.73
C ASP H 57 -65.9 -39.8 N 108.09 CA 109.38 C 108.19 O 109.95 CB 109.59 CG 112.57 OD1 112.06 OD2 115.24 H 129.71 HA 131.26 HB2 131.51 HB3 131.51
C LEU H 1 -63.2 -49.1 N 67.91 CA 67.67 C 65.57 O 61.53 CB 70.77 CG 70.49 CD1 78.56 CD2 69.76 H 81.49 HA 81.21 HB2 84.92 HB3 84.92 HG 84.59 HD11 94.27 HD12 94.27 HD13 94.27 HD21 83.72 HD22 83.72 HD23 83.72
C VAL H 38 -55.8 -32.0 N 65.6 CA 59.28 C 57.63 O 52.04 CB 60.0 CG1 61.54 CG2 56.8 H 78.72 HA 71.13 HB 72.0 HG11 73.84 HG12 73.84 HG13 73.84 HG21 68.16 HG22 68.16 HG23 68.16
C ALA H 57 -63.5 -48.5 N 63.71 CA 66.45 C 62.59 O 60.09 CB 72.05 H 76.45 HA 79.74 HB1 86.46 HB2 86.46 HB3 86.46
C GLU H 81 -80.7 -17.7 N 62.62 CA 62.64 C 63.42 O 75.25 CB 66.34 CG 71.24 CD 76.65 OE1 76.35 OE2 82.62 H 75.14 HA 75.17 HB2 79.61 HB3 79.61 HG2 85.48 HG3 85.48
C ILE H 0 -92.5 -39.0 N 52.86 CA 52.05 C 50.33 O 49.47 CB 58.01 CG1 56.04 CG2 61.61 CD1 56.84 H 63.43 HA 62.47 HB 69.61 HG12 67.25 HG13 67.25 HG21 73.93 HG22 73.93 HG23 73.93 HD11 68.21 HD12 68.21 HD13 68.21
C THR H 30 -58.4 -41.9 N 51.02 CA 50.71 C 48.55 O 48.21 CB 56.8 OG1 65.29 CG2 56.3 H 61.23 HA 60.85 HB 68.16 HG1 78.34 HG21 67.57 HG22 67.57 HG23 67.57
C PRO H 81 -53.7 -46.4 N 49.59 CA 49.82 C 48.49 O 52.04 CB 52.41 CG 54.85 CD 53.57 HA 59.78 HB2 62.89 HB3 62.89 HG2 65.82 HG3 65.82 HD2 64.28 HD3 64.28
C LYS H 81 -63.7 -44.2 N 43.67 CA 41.85 C 42.09 O 39.71 CB 43.79 CG 46.65 CD 51.99 CE 58.18 NZ 65.83 H 52.41 HA 50.22 HB2 52.54 HB3 52.54 HG2 55.98 HG3 55.98 HD2 62.39 HD3 62.39 HE2 69.82 HE3 69.82 HZ1 78.99 HZ2 78.99 HZ3 78.99
C GLY H 0 -56.6 -42.4 N 47.78 CA 49.18 C 45.09 O 44.35 H 57.33 HA2 59.02 HA3 59.02
C ARG H 108 -71.5 -30.3 N 41.45 CA 40.02 C 41.75 O 41.53 CB 40.96 CG 46.48 CD 56.42 NE 69.3 CZ 81.56 NH1 88.32 NH2 85.24 H 49.74 HA 48.02 HB2 49.15 HB3 49.15 HG2 55.77 HG3 55.77 HD2 67.71 HD3 67.71 HE 83.16 HH11 105.98 HH12 105.98 HH21 102.28 HH22 102.28
C ALA H 79 -78.0 -25.6 N 43.51 CA 41.09 C 39.36 O 39.52 CB 40.8 H 52.21 HA 49.31 HB1 48.96 HB2 48.96 HB3 48.96
C LEU S 32 -72.9 -18.5 N 40.38 CA 45.17 C 46.1 O 49.5 CB 49.24 CG 48.27 CD1 47.17 CD2 48.71 H 48.46 HA 54.2 HB2 59.08 HB3 59.08 HG 57.92 HD11 56.61 HD12 56.61 HD13 56.61 HD21 58.45 HD22 58.45 HD23 58.45
C VAL S 10 -72.7 115.3 N 42.78 CA 39.3 C 38.34 O 38.15 CB 39.16 CG1 41.37 CG2 37.61 H 51.33 HA 47.16 HB 46.99 HG11 49.64 HG12 49.64 HG13 49.64 HG21 45.13 HG22 45.13 HG23 45.13
C PRO - 34 -68.6 143.6 N 37.11 CA 36.68 C 36.68 O 35.96 CB 38.18 CG 38.86 CD 38.72 HA 44.02 HB2 45.81 HB3 45.81 HG2 46.63 HG3 46.63 HD2 46.46 HD3 46.46
C ASP H 105 -61.4 -28.6 N 39.16 CA 43.79 C 40.33 O 39.86 CB 57.35 CG 69.91 OD1 78.17 OD2 71.31 H 47.0 HA 52.55 HB2 68.82 HB3 68.82
C SER H 64 -61.8 -39.1 N 39.16 CA 41.6 C 36.42 O 34.56 CB 48.25 OG 49.55 H 46.99 HA 49.92 HB2 57.91 HB3 57.91 HG 59.46
C VAL H 6 -64.8 -40.6 N 35.17 CA 36.98 C 36.61 O 38.98 CB 38.74 CG1 38.03 CG2 43.65 H 42.2 HA 44.37 HB 46.49 HG11 45.63 HG12 45.63 HG13 45.63 HG21 52.37 HG22 52.37 HG23 52.37
C LYS H 94 -64.8 -43.5 N 36.05 CA 36.41 C 35.88 O 38.11 CB 40.35 CG 42.87 CD 46.24 CE 50.92 NZ 56.66 H 43.25 HA 43.69 HB2 48.42 HB3 48.42 HG2 51.44 HG3 51.44 HD2 55.49 HD3 55.49 HE2 61.1 HE3 61.1 HZ1 68.0 HZ2 68.0 HZ3 68.0
C LYS H 132 -60.6 -38.9 N 34.73 CA 39.58 C 41.75 O 42.14 CB 47.71 CG 58.14 CD 68.23 CE 69.67 NZ 65.82 H 41.68 HA 47.49 HB2 57.25 HB3 57.25 HG2 69.77 HG3 69.77 HD2 81.87 HD3 81.87 HE2 83.6 HE3 83.6 HZ1 78.98 HZ2 78.98 HZ3 78.98
C GLU H 100 -70.7 -39.8 N 43.5 CA 46.04 C 39.67 O 41.47 CB 57.59 CG 72.04 CD 85.76 OE1 87.32 OE2 94.43 H 52.2 HA 55.25 HB2 69.1 HB3 69.1 HG2 86.45 HG3 86.45
C LEU H 6 -65.4 -41.0 N 34.03 CA 33.68 C 31.41 O 32.69 CB 39.28 CG 49.77 CD1 57.18 CD2 51.31 H 40.84 HA 40.41 HB2 47.14 HB3 47.14 HG 59.72 HD11 68.62 HD12 68.62 HD13 68.62 HD21 61.57 HD22 61.57 HD23 61.57
C LEU H 32 -59.8 -43.5 N 30.88 CA 34.2 C 38.34 O 40.74 CB 34.72 CG 37.06 CD1 37.94 CD2 38.39 H 37.05 HA 41.04 HB2 41.66 HB3 41.66 HG 44.47 HD11 45.53 HD12 45.53 HD13 45.53 HD21 46.07 HD22 46.07 HD23 46.07
C GLN H 97 -64.4 -41.1 N 40.13 CA 43.13 C 39.8 O 40.64 CB 50.63 CG 59.94 CD 68.21 OE1 73.35 NE2 69.59 H 48.15 HA 51.75 HB2 60.76 HB3 60.76 HG2 71.93 HG3 71.93 HE21 83.51 HE22 83.51
C ARG H 60 -65.6 -34.1 N 37.25 CA 41.61 C 40.45 O 41.63 CB 51.13 CG 64.27 CD 72.75 NE 77.47 CZ 80.67 NH1 83.11 NH2 81.44 H 44.7 HA 49.93 HB2 61.36 HB3 61.36 HG2 77.13 HG3 77.13 HD2 87.3 HD3 87.3 HE 92.97 HH11 99.74 HH12 99.74 HH21 97.73 HH22 97.73
C ILE H 1 -68.5 -42.5 N 30.33 CA 30.41 C 31.92 O 33.95 CB 29.41 CG1 30.83 CG2 27.26 CD1 30.35 H 36.4 HA 36.49 HB 35.29 HG12 37.0 HG13 37.0 HG21 32.71 HG22 32.71 HG23 32.71 HD11 36.42 HD12 36.42 HD13 36.42
C ARG H 81 -66.0 -43.9 N 32.91 CA 40.71 C 39.42 O 40.99 CB 54.96 CG 77.78 CD 94.26 NE 99.78 CZ 100.29 NH1 101.19 NH2 98.89 H 39.5 HA 48.85 HB2 65.96 HB3 65.96 HG2 93.33 HG3 93.33 HD2 113.12 HD3 113.12 HE 119.73 HH11 121.42 HH12 121.42 HH21 118.67 HH22 118.67
C THR H 40 -61.3 -48.6 N 40.05 CA 44.6 C 40.8 O 41.48 CB 48.7 OG1 50.12 CG2 55.3 H 48.06 HA 53.52 HB 58.45 HG1 60.14 HG21 66.36 HG22 66.36 HG23 66.36
C PHE H 7 -51.4 -44.0 N 37.19 CA 38.73 C 41.17 O 45.25 CB 35.82 CG 35.26 CD1 34.94 CD2 34.11 CE1 34.77 CE2 34.45 CZ 34.75 H 44.63 HA 46.47 HB2 42.98 HB3 42.98 HD1 41.93 HD2 40.93 HE1 41.73 HE2 41.34 HZ 41.7
C LEU H 25 -67.9 -33.9 N 39.97 CA 42.79 C 44.91 O 46.3 CB 45.56 CG 49.02 CD1 48.5 CD2 48.63 H 47.96 HA 51.35 HB2 54.68 HB3 54.68 HG 58.83 HD11 58.19 HD12 58.19 HD13 58.19 HD21 58.36 HD22 58.36 HD23 58.36
C ALA H 37 -71.1 -23.8 N 46.52 CA 51.17 C 52.26 O 55.08 CB 51.64 H 55.82 HA 61.41 HB1 61.97 HB2 61.97 HB3 61.97
C GLN T 41 -100.2 3.8 N 52.22 CA 58.33 C 60.4 O 62.69 CB 61.18 CG 67.52 CD 69.26 OE1 74.93 NE2 64.18 H 62.66 HA 70.0 HB2 73.42 HB3 73.42 HG2 81.03 HG3 81.03 HE21 77.02 HE22 77.02
C HIS - 68 -133.9 71.5 N 60.49 CA 62.73 C 72.76 O 75.15 CB 55.16 CG 54.11 ND1 52.21 CD2 55.95 CE1 51.54 NE2 53.75 H 72.59 HA 75.28 HB2 66.19 HB3 66.19 HD1 62.66 HD2 67.13 HE1 61.85 HE2 64.5
C ALA - 119 58.0 360.0 N 82.12 CA 93.53 C 98.9 O 103.26 CB 95.97 H 98.55 HA 112.24 HB1 115.16 HB2 115.16 HB3 115.16
D GLU - 178 360.0 -91.0 N 96.78 CA 100.46 C 99.46 O 104.04 CB 103.33 CG 109.28 CD 117.29 OE1 119.78 OE2 121.87 HA 120.55 HB2 124.0 HB3 124.0 HG2 131.14 HG3 131.14
D LEU H 46 -77.4 -40.0 N 91.03 CA 81.09 C 72.96 O 68.95 CB 79.97 CG 85.51 CD1 88.14 CD2 86.59 H 109.24 HA 97.31 HB2 95.96 HB3 95.96 HG 102.61 HD11 105.77 HD12 105.77 HD13 105.77 HD21 103.91 HD22 103.91 HD23 103.91
D SER H 11 -47.9 -58.7 N 72.74 CA 69.99 C 67.98 O 65.48 CB 71.2 OG 73.82 H 87.29 HA 83.99 HB2 85.45 HB3 85.45 HG 88.58
D GLN H 90 -61.4 -47.0 N 69.74 CA 70.08 C 66.65 O 62.39 CB 76.67 CG 78.78 CD 80.86 OE1 85.6 NE2 77.96 H 83.69 HA 84.1 HB2 92.0 HB3 92.0 HG2 94.54 HG3 94.54 HE21 93.55 HE22 93.55
D GLY H 24 -56.3 -29.8 N 68.15 CA 68.4 C 65.96 O 65.51 H 81.78 HA2 82.08 HA3 82.08
D LEU H 4 -81.2 -36.4 N 66.05 CA 66.99 C 61.59 O 60.88 CB 73.14 CG 80.6 CD1 86.49 CD2 83.39 H 79.26 HA 80.39 HB2 87.77 HB3 87.77 HG 96.72 HD11 103.79 HD12 103.79 HD13 103.79 HD21 100.07 HD22 100.07 HD23 100.07
D ALA H 10 -64.2 -44.3 N 59.17 CA 56.61 C 56.39 O 55.66 CB 56.31 H 71.0 HA 67.94 HB1 67.57 HB2 67.57 HB3 67.57
D VAL H 96 -66.8 -50.5 N 58.33 CA 61.22 C 62.97 O 64.51 CB 65.4 CG1 67.97 CG2 64.85 H 70.0 HA 73.46 HB 78.48 HG11 81.56 HG12 81.56 HG13 81.56 HG21 77.82 HG22 77.82 HG23 77.82
D GLU H 84 -58.0 -41.7 N 65.91 CA 71.23 C 67.36 O 66.61 CB 82.84 CG 91.84 CD 98.4 OE1 98.78 OE2 102.63 H 79.09 HA 85.48 HB2 99.41 HB3 99.41 HG2 110.21 HG3 110.21
D LEU H 4 -72.1 -48.2 N 47.64 CA 47.35 C 46.67 O 48.17 CB 48.22 CG 54.39 CD1 57.51 CD2 58.23 H 57.17 HA 56.82 HB2 57.86 HB3 57.86 HG 65.26 HD11 69.02 HD12 69.02 HD13 69.02 HD21 69.87 HD22 69.87 HD23 69.87
D MET H 13 -53.6 -49.9 N 44.02 CA 40.55 C 39.89 O 39.18 CB 41.49 CG 44.61 SD 59.4 CE 46.48 H 52.82 HA 48.66 HB2 49.78 HB3 49.78 HG2 53.53 HG3 53.53 HE1 55.78 HE2 55.78 HE3 55.78
D GLU H 51 -51.2 -62.8 N 41.98 CA 44.75 C 46.87 O 48.69 CB 46.67 CG 52.43 CD 58.8 OE1 61.31 OE2 62.97 H 50.38 HA 53.7 HB2 56.01 HB3 56.01 HG2 62.92 HG3 62.92
D ARG H 91 -50.9 -51.6 N 50.2 CA 56.42 C 52.04 O 51.92 CB 68.95 CG 84.59 CD 97.04 NE 103.87 CZ 103.41 NH1 99.82 NH2 106.55 H 60.24 HA 67.7 HB2 82.74 HB3 82.74 HG2 101.51 HG3 101.51 HD2 116.45 HD3 116.45 HE 124.65 HH11 119.78 HH12 119.78 HH21 127.87 HH22 127.87
D VAL H 2 -61.7 -42.1 N 49.24 CA 46.74 C 45.63 O 42.22 CB 43.5 CG1 39.45 CG2 46.41 H 59.09 HA 56.09 HB 52.2 HG11 47.34 HG12 47.34 HG13 47.34 HG21 55.69 HG22 55.69 HG23 55.69
D MET H 3 -59.9 -44.0 N 47.15 CA 43.06 C 42.19 O 40.28 CB 41.18 CG 40.42 SD 63.83 CE 51.8 H 56.58 HA 51.67 HB2 49.41 HB3 49.41 HG2 48.5 HG3 48.5 HE1 62.16 HE2 62.16 HE3 62.16
D MET H 58 -67.4 -33.0 N 43.62 CA 45.36 C 43.09 O 43.53 CB 52.47 CG 59.06 SD 77.66 CE 83.28 H 52.34 HA 54.43 HB2 62.96 HB3 62.96 HG2 70.88 HG3 70.88 HE1 99.93 HE2 99.93 HE3 99.93
D GLU H 81 -63.7 -43.4 N 44.66 CA 49.99 C 45.81 O 46.07 CB 60.85 CG 73.86 CD 84.4 OE1 83.52 OE2 93.12 H 53.59 HA 59.99 HB2 73.02 HB3 73.02 HG2 88.63 HG3 88.63
D PHE H 4 -65.8 -42.3 N 43.33 CA 45.52 C 45.89 O 49.69 CB 48.26 CG 50.43 CD1 50.57 CD2 50.81 CE1 50.33 CE2 49.68 CZ 49.49 H 52.0 HA 54.63 HB2 57.91 HB3 57.91 HD1 60.68 HD2 60.98 HE1 60.4 HE2 59.62 HZ 59.38
D VAL H 0 -62.6 -46.9 N 42.94 CA 41.42 C 40.53 O 39.14 CB 43.02 CG1 43.17 CG2 44.38 H 51.53 HA 49.7 HB 51.63 HG11 51.81 HG12 51.81 HG13 51.81 HG21 53.25 HG22 53.25 HG23 53.25
D ARG H 89 -59.6 -47.5 N 42.78 CA 46.91 C 45.86 O 45.51 CB 54.33 CG 61.62 CD 71.48 NE 80.89 CZ 90.06 NH1 90.67 NH2 96.93 H 51.33 HA 56.29 HB2 65.19 HB3 65.19 HG2 73.95 HG3 73.95 HD2 85.78 HD3 85.78 HE 97.07 HH11 108.8 HH12 108.8 HH21 116.32 HH22 116.32
D GLU H 65 -58.3 -45.0 N 45.16 CA 45.32 C 41.87 O 39.1 CB 47.36 CG 53.62 CD 61.63 OE1 60.69 OE2 69.63 H 54.19 HA 54.39 HB2 56.83 HB3 56.83 HG2 64.34 HG3 64.34
D THR H 0 -65.4 -45.9 N 41.83 CA 41.7 C 43.17 O 43.95 CB 41.41 OG1 42.39 CG2 42.14 H 50.2 HA 50.04 HB 49.69 HG1 50.86 HG21 50.57 HG22 50.57 HG23 50.57
D CYS H 0 -61.0 -40.3 N 43.3 CA 42.0 C 39.03 O 38.39 CB 44.66 SG 44.06 H 51.96 HA 50.4 HB2 53.59 HB3 53.59 HG 52.87
D SER H 48 -60.2 -47.2 N 40.28 CA 43.76 C 42.77 O 44.28 CB 50.84 OG 57.81 H 48.33 HA 52.51 HB2 61.01 HB3 61.01 HG 69.37
D GLN H 72 -65.1 -49.3 N 41.17 CA 44.49 C 40.91 O 38.65 CB 58.85 CG 80.58 CD 97.19 OE1 101.28 NE2 101.25 H 49.4 HA 53.39 HB2 70.62 HB3 70.62 HG2 96.7 HG3 96.7 HE21 121.5 HE22 121.5
D GLU H 16 -64.0 -46.3 N 41.51 CA 40.78 C 40.92 O 40.36 CB 40.79 CG 46.21 CD 52.92 OE1 62.43 OE2 49.27 H 49.81 HA 48.93 HB2 48.95 HB3 48.95 HG2 55.45 HG3 55.45
D LEU H 17 -64.1 -42.7 N 42.29 CA 42.22 C 41.33 O 40.8 CB 44.06 CG 47.62 CD1 51.59 CD2 47.87 H 50.74 HA 50.67 HB2 52.87 HB3 52.87 HG 57.14 HD11 61.91 HD12 61.91 HD13 61.91 HD21 57.44 HD22 57.44 HD23 57.44
D LYS H 115 -57.5 -41.4 N 44.13 CA 48.43 C 48.32 O 46.85 CB 51.53 CG 57.25 CD 68.93 CE 82.46 NZ 88.92 H 52.95 HA 58.12 HB2 61.84 HB3 61.84 HG2 68.7 HG3 68.7 HD2 82.72 HD3 82.72 HE2 98.95 HE3 98.95 HZ1 106.7 HZ2 106.7 HZ3 106.7
D ASN H 78 -69.2 -32.3 N 47.22 CA 42.1 C 38.12 O 36.97 CB 42.14 CG 43.61 OD1 47.98 ND2 42.65 H 56.66 HA 50.52 HB2 50.57 HB3 50.57 HD21 51.18 HD22 51.18
D ALA H 22 -73.9 -43.7 N 37.63 CA 39.33 C 40.58 O 42.84 CB 40.36 H 45.15 HA 47.2 HB1 48.43 HB2 48.43 HB3 48.43
D VAL H 59 -64.9 -37.5 N 41.22 CA 43.54 C 41.62 O 42.29 CB 49.33 CG1 45.35 CG2 56.99 H 49.46 HA 52.25 HB 59.19 HG11 54.42 HG12 54.42 HG13 54.42 HG21 68.38 HG22 68.38 HG23 68.38
D GLU H 85 -65.1 -48.4 N 39.98 CA 41.21 C 40.2 O 41.78 CB 48.79 CG 61.9 CD 76.32 OE1 80.14 OE2 83.14 H 47.98 HA 49.45 HB2 58.55 HB3 58.55 HG2 74.29 HG3 74.29
D THR H 71 -59.3 -47.7 N 40.1 CA 42.14 C 39.76 O 37.43 CB 43.95 OG1 42.63 CG2 47.92 H 48.12 HA 50.56 HB 52.74 HG1 51.15 HG21 57.5 HG22 57.5 HG23 57.5
D ASP H 31 -61.3 -40.4 N 39.75 CA 39.27 C 41.81 O 43.3 CB 37.16 CG 39.47 OD1 41.98 OD2 41.09 H 47.7 HA 47.12 HB2 44.59 HB3 44.59
D GLN H 94 -60.5 -37.4 N 42.66 CA 41.31 C 38.92 O 38.07 CB 46.43 CG 53.39 CD 59.74 OE1 59.97 NE2 64.19 H 51.2 HA 49.57 HB2 55.72 HB3 55.72 HG2 64.06 HG3 64.06 HE21 77.03 HE22 77.03
D ARG H 152 -67.5 -36.5 N 39.72 CA 42.72 C 41.0 O 39.72 CB 49.03 CG 52.82 CD 56.9 NE 59.0 CZ 60.94 NH1 60.53 NH2 63.13 H 47.67 HA 51.27 HB2 58.84 HB3 58.84 HG2 63.38 HG3 63.38 HD2 68.28 HD3 68.28 HE 70.8 HH11 72.63 HH12 72.63 HH21 75.75 HH22 75.75
D VAL H 68 -62.8 -45.8 N 41.41 CA 43.69 C 38.56 O 37.45 CB 46.88 CG1 50.97 CG2 46.06 H 49.69 HA 52.43 HB 56.25 HG11 61.17 HG12 61.17 HG13 61.17 HG21 55.27 HG22 55.27 HG23 55.27
D ARG H 63 -65.3 -40.5 N 35.71 CA 34.67 C 36.8 O 36.37 CB 34.75 CG 36.69 CD 39.84 NE 44.1 CZ 48.84 NH1 52.89 NH2 49.54 H 42.85 HA 41.61 HB2 41.7 HB3 41.7 HG2 44.02 HG3 44.02 HD2 47.81 HD3 47.81 HE 52.92 HH11 63.46 HH12 63.46 HH21 59.44 HH22 59.44
D VAL H 62 -64.9 -42.2 N 39.28 CA 40.64 C 38.99 O 37.88 CB 42.72 CG1 43.63 CG2 43.79 H 47.14 HA 48.77 HB 51.27 HG11 52.35 HG12 52.35 HG13 52.35 HG21 52.54 HG22 52.54 HG23 52.54
D ALA H 26 -67.1 -39.9 N 39.46 CA 39.18 C 38.23 O 38.51 CB 40.26 H 47.35 HA 47.01 HB1 48.31 HB2 48.31 HB3 48.31
D ARG H 114 -66.2 -40.5 N 37.82 CA 38.48 C 39.71 O 42.95 CB 39.52 CG 44.3 CD 49.67 NE 51.69 CZ 50.66 NH1 49.72 NH2 50.96 H 45.38 HA 46.17 HB2 47.42 HB3 47.42 HG2 53.16 HG3 53.16 HD2 59.61 HD3 59.61 HE 62.03 HH11 59.66 HH12 59.66 HH21 61.15 HH22 61.15
D CYS H 0 -71.2 -33.1 N 38.69 CA 37.56 C 35.02 O 33.6 CB 39.43 SG 47.84 H 46.43 HA 45.07 HB2 47.31 HB3 47.31 HG 57.41
D CYS H 2 -64.5 -37.5 N 34.13 CA 33.72 C 34.42 O 33.98 CB 34.25 SG 42.68 H 40.95 HA 40.46 HB2 41.11 HB3 41.11 HG 51.21
D GLU H 108 -65.0 -44.1 N 36.07 CA 36.19 C 31.94 O 28.54 CB 40.5 CG 48.27 CD 57.42 OE1 56.89 OE2 65.87 H 43.29 HA 43.43 HB2 48.6 HB3 48.6 HG2 57.93 HG3 57.93
D ASP H 65 -62.3 -42.4 N 32.68 CA 35.28 C 33.61 O 33.87 CB 42.07 CG 49.96 OD1 52.75 OD2 53.56 H 39.21 HA 42.33 HB2 50.48 HB3 50.48
D VAL H 1 -66.9 -46.3 N 33.9 CA 33.77 C 33.42 O 32.78 CB 32.92 CG1 32.39 CG2 33.37 H 40.68 HA 40.52 HB 39.5 HG11 38.87 HG12 38.87 HG13 38.87 HG21 40.04 HG22 40.04 HG23 40.04
D CYS H 8 -53.9 -48.1 N 33.51 CA 33.1 C 32.07 O 30.76 CB 33.62 SG 43.75 H 40.22 HA 39.72 HB2 40.34 HB3 40.34 HG 52.5
D ALA H 50 -62.6 -38.7 N 34.49 CA 35.88 C 35.81 O 34.02 CB 37.35 H 41.39 HA 43.06 HB1 44.82 HB2 44.82 HB3 44.82
D HIS H 64 -63.2 -44.8 N 37.33 CA 38.0 C 34.98 O 35.31 CB 42.27 CG 46.67 ND1 48.0 CD2 49.18 CE1 49.51 NE2 50.23 H 44.8 HA 45.6 HB2 50.72 HB3 50.72 HD1 57.59 HD2 59.02 HE1 59.41 HE2 60.28
D LEU H 1 -66.9 -45.3 N 33.03 CA 33.61 C 31.38 O 28.84 CB 38.98 CG 46.99 CD1 55.04 CD2 47.11 H 39.64 HA 40.34 HB2 46.77 HB3 46.77 HG 56.39 HD11 66.04 HD12 66.04 HD13 66.04 HD21 56.54 HD22 56.54 HD23 56.54
D VAL H 4 -57.5 -51.5 N 32.77 CA 32.57 C 30.11 O 29.38 CB 37.02 CG1 38.08 CG2 39.99 H 39.33 HA 39.09 HB 44.42 HG11 45.7 HG12 45.7 HG13 45.7 HG21 47.99 HG22 47.99 HG23 47.99
D ASP H 96 -55.8 -46.9 N 30.42 CA 34.47 C 36.32 O 37.67 CB 42.98 CG 56.67 OD1 61.48 OD2 65.23 H 36.5 HA 41.37 HB2 51.57 HB3 51.57
D LEU H 23 -63.0 -43.7 N 37.09 CA 40.81 C 36.63 O 39.92 CB 51.1 CG 64.2 CD1 69.51 CD2 69.86 H 44.51 HA 48.98 HB2 61.32 HB3 61.32 HG 77.04 HD11 83.42 HD12 83.42 HD13 83.42 HD21 83.83 HD22 83.83 HD23 83.83
D PHE H 4 -70.3 -29.0 N 32.68 CA 32.7 C 29.8 O 30.6 CB 38.67 CG 47.61 CD1 51.17 CD2 51.87 CE1 53.62 CE2 54.11 CZ 54.54 H 39.22 HA 39.23 HB2 46.41 HB3 46.41 HD1 61.4 HD2 62.25 HE1 64.34 HE2 64.93 HZ 65.45
D LEU H 7 -69.6 -33.9 N 29.31 CA 30.56 C 30.4 O 30.95 CB 33.74 CG 37.96 CD1 36.59 CD2 45.05 H 35.17 HA 36.67 HB2 40.49 HB3 40.49 HG 45.56 HD11 43.91 HD12 43.91 HD13 43.91 HD21 54.06 HD22 54.06 HD23 54.06
D VAL H 76 -57.6 -45.5 N 42.59 CA 39.96 C 41.55 O 42.02 CB 41.42 CG1 40.71 CG2 41.17 H 51.1 HA 47.96 HB 49.71 HG11 48.85 HG12 48.85 HG13 48.85 HG21 49.41 HG22 49.41 HG23 49.41
D GLU H 42 -68.0 -43.9 N 42.78 CA 45.29 C 39.1 O 40.91 CB 60.78 CG 76.93 CD 93.49 OE1 103.14 OE2 92.75 H 51.34 HA 54.35 HB2 72.94 HB3 72.94 HG2 92.32 HG3 92.32
D GLU H 7 -70.6 -32.6 N 34.82 CA 35.02 C 32.01 O 31.94 CB 39.81 CG 52.47 CD 62.67 OE1 58.57 OE2 73.45 H 41.78 HA 42.02 HB2 47.78 HB3 47.78 HG2 62.96 HG3 62.96
D ILE H 4 -69.8 -37.0 N 31.74 CA 30.89 C 33.06 O 34.09 CB 30.51 CG1 31.66 CG2 28.12 CD1 32.39 H 38.09 HA 37.07 HB 36.62 HG12 37.99 HG13 37.99 HG21 33.75 HG22 33.75 HG23 33.75 HD11 38.87 HD12 38.87 HD13 38.87
D PHE H 15 -68.5 -43.3 N 33.78 CA 33.97 C 34.39 O 34.3 CB 37.51 CG 40.09 CD1 38.15 CD2 44.58 CE1 39.78 CE2 47.37 CZ 44.86 H 40.53 HA 40.76 HB2 45.01 HB3 45.01 HD1 45.78 HD2 53.49 HE1 47.74 HE2 56.85 HZ 53.83
D GLN H 54 -64.6 -40.5 N 36.91 CA 40.54 C 36.41 O 37.03 CB 48.39 CG 57.87 CD 63.66 OE1 66.71 NE2 63.87 H 44.29 HA 48.65 HB2 58.07 HB3 58.07 HG2 69.44 HG3 69.44 HE21 76.64 HE22 76.64
D THR H 0 -63.7 -44.5 N 34.29 CA 34.28 C 34.3 O 37.28 CB 32.07 OG1 32.89 CG2 32.83 H 41.14 HA 41.14 HB 38.48 HG1 39.47 HG21 39.4 HG22 39.4 HG23 39.4
D ALA H 0 -63.9 -47.3 N 31.86 CA 29.56 C 30.54 O 29.03 CB 26.1 H 38.24 HA 35.47 HB1 31.32 HB2 31.32 HB3 31.32
D LYS H 101 -58.3 -47.9 N 32.5 CA 35.89 C 39.44 O 40.39 CB 39.25 CG 46.22 CD 56.22 CE 67.99 NZ 77.84 H 39.0 HA 43.07 HB2 47.1 HB3 47.1 HG2 55.47 HG3 55.47 HD2 67.46 HD3 67.46 HE2 81.59 HE3 81.59 HZ1 93.4 HZ2 93.4 HZ3 93.4
D GLU H 91 -65.7 -42.6 N 42.44 CA 44.17 C 40.81 O 43.35 CB 47.85 CG 58.93 CD 68.82 OE1 70.82 OE2 74.86 H 50.93 HA 53.01 HB2 57.42 HB3 57.42 HG2 70.71 HG3 70.71
D THR H 6 -65.0 -35.9 N 37.36 CA 37.35 C 37.76 O 37.99 CB 35.84 OG1 36.55 CG2 36.33 H 44.84 HA 44.82 HB 43.0 HG1 43.86 HG21 43.59 HG22 43.59 HG23 43.59
D LEU H 33 -68.0 -20.0 N 38.57 CA 42.49 C 48.73 O 50.87 CB 46.1 CG 50.9 CD1 45.72 CD2 58.48 H 46.29 HA 50.99 HB2 55.33 HB3 55.33 HG 61.08 HD11 54.87 HD12 54.87 HD13 54.87 HD21 70.17 HD22 70.17 HD23 70.17
D GLN H 170 -95.5 -9.4 N 54.48 CA 63.13 C 67.48 O 70.2 CB 73.29 CG 87.28 CD 92.87 OE1 93.79 NE2 95.9 H 65.37 HA 75.75 HB2 87.95 HB3 87.95 HG2 104.74 HG3 104.74 HE21 115.08 HE22 115.08
D GLU - 95 -82.6 360.0 N 71.18 CA 79.18 C 81.86 O 81.39 CB 78.02 H 85.41 HA 95.02 HB2 93.63 HB3 93.63
E ASP - 145 360.0 -99.7 N 104.54 CA 106.45 C 97.68 O 91.64 CB 118.95 CG 125.0 OD1 125.41 OD2 129.45 HA 127.74 HB2 142.74 HB3 142.74
E ALA H 35 -70.2 -26.4 N 97.08 CA 89.1 C 83.94 O 78.72 CB 88.74 H 116.49 HA 106.92 HB1 106.49 HB2 106.49 HB3 106.49
E GLN H 81 -65.3 -34.1 N 86.1 CA 84.76 C 79.96 O 76.48 CB 92.88 CG 97.89 CD 102.5 OE1 101.64 NE2 107.87 H 103.33 HA 101.72 HB2 111.45 HB3 111.45 HG2 117.47 HG3 117.47 HE21 129.44 HE22 129.44
E MET H 96 -77.8 -39.9 N 81.35 CA 78.11 C 73.02 O 69.35 CB 82.11 CG 87.9 SD 149.02 CE 111.72 H 97.62 HA 93.73 HB2 98.53 HB3 98.53 HG2 105.48 HG3 105.48 HE1 134.07 HE2 134.07 HE3 134.07
E ARG H 77 -62.0 -34.3 N 75.91 CA 78.59 C 71.96 O 69.25 CB 92.07 CG 105.67 CD 114.79 NE 122.66 CZ 124.68 NH1 121.28 NH2 130.25 H 91.1 HA 94.31 HB2 110.48 HB3 110.48 HG2 126.81 HG3 126.81 HD2 137.74 HD3 137.74 HE 147.19 HH11 145.53 HH12 145.53 HH21 156.29 HH22 156.29
E ALA H 10 -70.4 -38.3 N 70.35 CA 66.95 C 64.87 O 62.07 CB 69.89 H 84.42 HA 80.34 HB1 83.86 HB2 83.86 HB3 83.86
E ALA H 33 -66.2 -42.9 N 68.29 CA 68.18 C 65.22 O 60.41 CB 71.82 H 81.94 HA 81.82 HB1 86.18 HB2 86.18 HB3 86.18
E ILE H 20 -74.1 -30.0 N 66.93 CA 64.93 C 59.45 O 53.91 CB 71.83 CG1 81.34 CG2 72.98 CD1 84.34 H 80.31 HA 77.91 HB 86.19 HG12 97.61 HG13 97.61 HG21 87.58 HG22 87.58 HG23 87.58 HD11 101.21 HD12 101.21 HD13 101.21
E ASN H 27 -65.5 -39.5 N 62.8 CA 65.66 C 63.71 O 65.76 CB 74.18 CG 83.79 OD1 91.54 ND2 84.55 H 75.36 HA 78.79 HB2 89.02 HB3 89.02 HD21 101.46 HD22 101.46
E GLN H 108 -72.0 -32.8 N 61.68 CA 60.54 C 57.72 O 58.2 CB 68.94 CG 78.41 CD 90.3 OE1 93.04 NE2 97.15 H 74.01 HA 72.65 HB2 82.73 HB3 82.73 HG2 94.1 HG3 94.1 HE21 116.58 HE22 116.58
E LYS H 92 -66.5 -25.4 N 55.76 CA 56.09 C 53.57 O 51.56 CB 60.79 CG 65.72 CD 73.3 CE 76.33 NZ 78.99 H 66.92 HA 67.31 HB2 72.95 HB3 72.95 HG2 78.86 HG3 78.86 HD2 87.95 HD3 87.95 HE2 91.6 HE3 91.6 HZ1 94.79 HZ2 94.79 HZ3 94.79
E LEU H 2 -75.8 -39.3 N 54.92 CA 53.69 C 53.01 O 52.38 CB 56.69 CG 58.88 CD1 54.93 CD2 67.25 H 65.91 HA 64.43 HB2 68.03 HB3 68.03 HG 70.66 HD11 65.92 HD12 65.92 HD13 65.92 HD21 80.7 HD22 80.7 HD23 80.7
E ILE H 89 -78.8 -38.7 N 56.18 CA 61.65 C 63.75 O 64.97 CB 67.6 CG1 77.88 CG2 62.82 CD1 86.88 H 67.42 HA 73.98 HB 81.12 HG12 93.45 HG13 93.45 HG21 75.38 HG22 75.38 HG23 75.38 HD11 104.26 HD12 104.26 HD13 104.26
E GLU H 148 -57.1 -52.5 N 66.21 CA 70.9 C 64.46 O 65.78 CB 81.72 CG 93.59 CD 101.73 OE1 103.81 OE2 105.26 H 79.45 HA 85.08 HB2 98.06 HB3 98.06 HG2 112.31 HG3 112.31
E THR H 48 -74.3 -24.9 N 58.64 CA 55.24 C 57.87 O 56.22 CB 51.4 OG1 48.05 CG2 55.37 H 70.37 HA 66.29 HB 61.68 HG1 57.67 HG21 66.44 HG22 66.44 HG23 66.44
E GLY T 19 92.8 7.1 N 49.26 CA 49.7 C 47.24 O 47.41 H 59.11 HA2 59.64 HA3 59.64
E GLU H 15 -59.2 -35.5 N 45.74 CA 42.64 C 42.66 O 40.3 CB 42.79 CG 44.39 CD 46.8 OE1 46.04 OE2 50.85 H 54.89 HA 51.17 HB2 51.34 HB3 51.34 HG2 53.26 HG3 53.26
E ARG H 73 -58.9 -44.1 N 45.88 CA 47.3 C 45.39 O 39.85 CB 51.12 CG 57.65 CD 70.42 NE 83.57 CZ 94.92 NH1 96.35 NH2 103.04 H 55.06 HA 56.75 HB2 61.34 HB3 61.34 HG2 69.18 HG3 69.18 HD2 84.5 HD3 84.5 HE 100.29 HH11 115.62 HH12 115.62 HH21 123.65 HH22 123.65
E GLU H 96 -68.8 -40.5 N 49.57 CA 50.42 C 41.29 O 39.6 CB 61.8 CG 77.38 CD 88.07 OE1 91.08 OE2 92.91 H 59.49 HA 60.51 HB2 74.16 HB3 74.16 HG2 92.85 HG3 92.85
E ARG H 114 -63.8 -38.9 N 37.18 CA 35.37 C 34.23 O 31.5 CB 36.39 CG 40.64 CD 45.1 NE 46.73 CZ 43.44 NH1 40.61 NH2 43.0 H 44.62 HA 42.44 HB2 43.67 HB3 43.67 HG2 48.77 HG3 48.77 HD2 54.12 HD3 54.12 HE 56.08 HH11 48.74 HH12 48.74 HH21 51.6 HH22 51.6
E LEU H 0 -71.8 -33.7 N 36.47 CA 38.0 C 37.12 O 37.08 CB 41.04 CG 39.31 CD1 41.19 CD2 37.77 H 43.76 HA 45.6 HB2 49.24 HB3 49.24 HG 47.17 HD11 49.43 HD12 49.43 HD13 49.43 HD21 45.33 HD22 45.33 HD23 45.33
E LYS H 41 -62.0 -46.9 N 37.11 CA 37.12 C 34.2 O 34.5 CB 41.96 CG 49.59 CD 61.6 CE 70.97 NZ 78.03 H 44.53 HA 44.54 HB2 50.35 HB3 50.35 HG2 59.51 HG3 59.51 HD2 73.92 HD3 73.92 HE2 85.17 HE3 85.17 HZ1 93.63 HZ2 93.63 HZ3 93.63
E GLU H 85 -72.5 -26.9 N 31.41 CA 30.36 C 32.2 O 35.56 CB 29.35 CG 35.8 CD 45.47 OE1 48.02 OE2 50.64 H 37.69 HA 36.43 HB2 35.21 HB3 35.21 HG2 42.96 HG3 42.96
E LEU H 19 -61.1 -43.8 N 32.16 CA 33.38 C 33.69 O 35.59 CB 35.68 CG 39.79 CD1 39.35 CD2 43.01 H 38.59 HA 40.06 HB2 42.81 HB3 42.81 HG 47.75 HD11 47.22 HD12 47.22 HD13 47.22 HD21 51.61 HD22 51.61 HD23 51.61
E LEU H 1 -68.9 -36.2 N 32.59 CA 33.9 C 34.06 O 36.62 CB 36.93 CG 38.64 CD1 41.14 CD2 40.49 H 39.11 HA 40.68 HB2 44.32 HB3 44.32 HG 46.37 HD11 49.37 HD12 49.37 HD13 49.37 HD21 48.59 HD22 48.59 HD23 48.59
E ARG H 49 -62.8 -47.3 N 33.12 CA 33.78 C 33.66 O 35.84 CB 35.53 CG 39.94 CD 45.08 NE 50.62 CZ 56.49 NH1 56.9 NH2 60.74 H 39.75 HA 40.54 HB2 42.64 HB3 42.64 HG2 47.92 HG3 47.92 HD2 54.09 HD3 54.09 HE 60.75 HH11 68.28 HH12 68.28 HH21 72.89 HH22 72.89
E ALA H 43 -60.8 -46.2 N 31.95 CA 31.47 C 33.4 O 37.76 CB 29.08 H 38.34 HA 37.76 HB1 34.89 HB2 34.89 HB3 34.89
E LYS H 67 -70.4 -36.1 N 31.84 CA 33.88 C 34.96 O 37.06 CB 39.87 CG 46.54 CD 54.42 CE 59.59 NZ 64.32 H 38.2 HA 40.65 HB2 47.85 HB3 47.85 HG2 55.85 HG3 55.85 HD2 65.31 HD3 65.31 HE2 71.51 HE3 71.51 HZ1 77.18 HZ2 77.18 HZ3 77.18
E LEU H 2 -75.0 -29.2 N 34.93 CA 37.23 C 37.44 O 41.62 CB 39.18 CG 41.16 CD1 44.54 CD2 41.63 H 41.91 HA 44.67 HB2 47.02 HB3 47.02 HG 49.39 HD11 53.45 HD12 53.45 HD13 53.45 HD21 49.96 HD22 49.96 HD23 49.96
E ILE H 86 -71.8 -42.3 N 34.84 CA 36.69 C 40.92 O 42.23 CB 36.19 CG1 35.58 CG2 38.09 CD1 34.43 H 41.8 HA 44.03 HB 43.43 HG12 42.7 HG13 42.7 HG21 45.71 HG22 45.71 HG23 45.71 HD11 41.32 HD12 41.32 HD13 41.32
E GLU H 142 -72.6 -28.8 N 45.14 CA 50.76 C 53.19 O 57.6 CB 52.26 CG 51.77 CD 51.89 OE1 54.41 OE2 49.87 H 54.17 HA 60.92 HB2 62.71 HB3 62.71 HG2 62.13 HG3 62.13
E CYS T 65 -87.6 -8.9 N 49.87 CA 49.73 C 51.2 O 59.49 CB 49.36 SG 53.04 H 59.84 HA 59.68 HB2 59.24 HB3 59.24 HG 63.64
E GLY T 14 98.5 5.3 N 43.94 CA 43.15 C 44.4 O 47.77 H 52.73 HA2 51.78 HA3 51.78
E TRP H 5 -62.6 -40.7 N 41.9 CA 41.65 C 39.91 O 40.47 CB 40.94 CG 42.43 CD1 44.19 CD2 42.87 NE1 46.34 CE2 47.73 CE3 43.57 CZ2 55.01 CZ3 50.11 CH2 56.34 H 50.28 HA 49.98 HB2 49.13 HB3 49.13 HD1 53.03 HE1 55.61 HE3 52.29 HZ2 66.01 HZ3 60.13 HH2 67.6
E LYS H 29 -60.2 -47.1 N 48.27 CA 51.72 C 48.51 O 48.7 CB 60.69 CG 71.38 CD 80.83 CE 88.88 NZ 92.58 H 57.92 HA 62.07 HB2 72.83 HB3 72.83 HG2 85.65 HG3 85.65 HD2 97.0 HD3 97.0 HE2 106.66 HE3 106.66 HZ1 111.09 HZ2 111.09 HZ3 111.09
E ASP H 106 -60.1 -46.5 N 47.06 CA 50.76 C 50.03 O 50.44 CB 59.06 CG 64.01 OD1 64.3 OD2 67.57 H 56.47 HA 60.91 HB2 70.88 HB3 70.88
E GLN H 97 -60.8 -40.4 N 50.82 CA 55.02 C 51.16 O 52.46 CB 62.08 CG 72.44 CD 81.95 OE1 84.59 NE2 87.37 H 60.99 HA 66.03 HB2 74.49 HB3 74.49 HG2 86.93 HG3 86.93 HE21 104.84 HE22 104.84
E LEU H 8 -60.6 -42.4 N 48.66 CA 48.93 C 47.64 O 47.79 CB 49.52 CG 52.61 CD1 53.94 CD2 53.92 H 58.4 HA 58.71 HB2 59.43 HB3 59.43 HG 63.13 HD11 64.73 HD12 64.73 HD13 64.73 HD21 64.7 HD22 64.7 HD23 64.7
E LYS H 44 -63.8 -47.5 N 47.55 CA 48.27 C 51.65 O 51.27 CB 46.79 CG 45.98 CD 52.29 CE 58.26 NZ 63.23 H 57.06 HA 57.93 HB2 56.15 HB3 56.15 HG2 55.17 HG3 55.17 HD2 62.74 HD3 62.74 HE2 69.92 HE3 69.92 HZ1 75.87 HZ2 75.87 HZ3 75.87
E ALA H 49 -58.3 -47.2 N 55.6 CA 57.94 C 57.08 O 58.45 CB 58.21 H 66.72 HA 69.53 HB1 69.85 HB2 69.85 HB3 69.85
E HIS H 49 -61.2 -38.9 N 55.34 CA 56.12 C 53.19 O 54.38 CB 59.53 CG 69.0 ND1 76.83 CD2 72.75 CE1 82.03 NE2 79.72 H 66.41 HA 67.35 HB2 71.44 HB3 71.44 HD1 92.19 HD2 87.3 HE1 98.44 HE2 95.67
E CYS H 0 -61.2 -37.9 N 50.82 CA 52.76 C 57.62 O 59.75 CB 48.92 SG 72.69 H 60.98 HA 63.31 HB2 58.71 HB3 58.71 HG 87.23
E LYS H 114 -69.5 -27.5 N 58.77 CA 57.13 C 57.18 O 58.16 CB 57.23 CG 58.6 CD 64.75 CE 66.24 NZ 69.09 H 70.52 HA 68.56 HB2 68.68 HB3 68.68 HG2 70.32 HG3 70.32 HD2 77.7 HD3 77.7 HE2 79.49 HE3 79.49 HZ1 82.91 HZ2 82.91 HZ3 82.91
E GLU H 78 -73.3 -41.1 N 58.05 CA 63.25 C 60.34 O 60.81 CB 70.75 CG 79.45 CD 87.99 OE1 93.3 OE2 89.06 H 69.67 HA 75.89 HB2 84.9 HB3 84.9 HG2 95.34 HG3 95.34
E VAL H 11 -64.9 -36.3 N 58.59 CA 57.89 C 57.34 O 57.81 CB 56.04 CG1 54.57 CG2 56.96 H 70.31 HA 69.46 HB 67.24 HG11 65.48 HG12 65.48 HG13 65.48 HG21 68.35 HG22 68.35 HG23 68.35
E ILE H 19 -62.1 -38.8 N 55.52 CA 56.8 C 58.73 O 60.59 CB 56.86 CG1 57.44 CG2 56.14 CD1 59.26 H 66.62 HA 68.16 HB 68.23 HG12 68.93 HG13 68.93 HG21 67.37 HG22 67.37 HG23 67.37 HD11 71.11 HD12 71.11 HD13 71.11
E LYS H 154 -83.3 -23.4 N 61.67 CA 69.62 C 65.16 O 65.49 CB 82.71 CG 90.45 CD 92.48 CE 88.71 NZ 90.21 H 74.0 HA 83.55 HB2 99.25 HB3 99.25 HG2 108.53 HG3 108.53 HD2 110.98 HD3 110.98 HE2 106.46 HE3 106.46 HZ1 108.25 HZ2 108.25 HZ3 108.25
E GLU H 156 -87.6 -21.5 N 64.63 CA 73.35 C 76.03 O 84.6 CB 83.47 CG 100.75 CD 116.8 OE1 123.15 OE2 122.5 H 77.55 HA 88.02 HB2 100.17 HB3 100.17 HG2 120.9 HG3 120.9
E LYS H 72 -106.1 -22.7 N 71.4 CA 68.29 C 64.44 O 63.92 CB 68.71 CG 73.53 CD 78.49 CE 83.21 NZ 83.4 H 85.68 HA 81.95 HB2 82.46 HB3 82.46 HG2 88.23 HG3 88.23 HD2 94.19 HD3 94.19 HE2 99.85 HE3 99.85 HZ1 100.07 HZ2 100.07 HZ3 100.07
E GLY - 24 79.4 138.5 N 61.97 CA 64.71 C 62.59 O 63.76 H 74.36 HA2 77.65 HA3 77.65
E LEU T 54 -56.9 -21.2 N 57.22 CA 53.45 C 56.23 O 54.81 CB 53.62 CG 51.29 CD1 52.9 CD2 47.9 H 68.67 HA 64.14 HB2 64.34 HB3 64.34 HG 61.55 HD11 63.47 HD12 63.47 HD13 63.47 HD21 57.48 HD22 57.48 HD23 57.48
E GLU T 78 -67.9 -29.7 N 64.1 CA 73.92 C 75.24 O 80.03 CB 83.32 H 76.93 HA 88.7 HB2 99.99 HB3 99.99
E HIS T 146 -114.7 -25.3 N 69.59 CA 70.15 C 60.25 O 60.92 CB 78.81 CG 87.28 ND1 91.18 CD2 89.05 CE1 93.88 NE2 92.74 H 83.51 HA 84.19 HB2 94.57 HB3 94.57 HD1 109.41 HD2 106.86 HE1 112.65 HE2 111.28
E VAL - 13 -76.0 140.9 N 55.11 CA 54.91 C 52.48 O 50.32 CB 59.65 CG1 60.1 CG2 64.5 H 66.13 HA 65.89 HB 71.58 HG11 72.12 HG12 72.12 HG13 72.12 HG21 77.4 HG22 77.4 HG23 77.4
E THR - 61 -120.1 167.9 N 54.02 CA 51.32 C 47.05 O 43.79 CB 51.6 OG1 50.67 CG2 53.64 H 64.82 HA 61.58 HB 61.92 HG1 60.81 HG21 64.37 HG22 64.37 HG23 64.37
E VAL H 34 -59.0 -39.8 N 46.12 CA 43.89 C 43.27 O 42.14 CB 44.25 CG1 44.91 CG2 42.66 H 55.34 HA 52.67 HB 53.1 HG11 53.9 HG12 53.9 HG13 53.9 HG21 51.19 HG22 51.19 HG23 51.19
E ASP H 31 -65.7 -35.9 N 45.93 CA 50.85 C 49.75 O 47.16 CB 60.59 CG 66.23 OD1 61.24 OD2 75.74 H 55.11 HA 61.02 HB2 72.71 HB3 72.71
E ASP H 40 -61.1 -45.5 N 51.25 CA 50.32 C 46.51 O 46.2 CB 51.79 CG 56.59 OD1 59.36 OD2 59.38 H 61.51 HA 60.39 HB2 62.15 HB3 62.15
E LEU H 0 -61.2 -47.6 N 43.4 CA 43.02 C 42.06 O 40.57 CB 43.51 CG 46.34 CD1 46.04 CD2 46.7 H 52.08 HA 51.62 HB2 52.21 HB3 52.21 HG 55.61 HD11 55.25 HD12 55.25 HD13 55.25 HD21 56.03 HD22 56.03 HD23 56.03
E VAL H 4 -54.3 -52.5 N 43.35 CA 42.84 C 42.88 O 42.84 CB 42.78 CG1 43.39 CG2 42.06 H 52.02 HA 51.4 HB 51.34 HG11 52.07 HG12 52.07 HG13 52.07 HG21 50.48 HG22 50.48 HG23 50.48
E ALA H 38 -58.9 -39.7 N 45.29 CA 48.43 C 48.8 O 51.29 CB 51.24 H 54.35 HA 58.11 HB1 61.49 HB2 61.49 HB3 61.49
E GLU H 95 -69.7 -42.2 N 48.01 CA 49.83 C 48.41 O 48.54 CB 54.9 CG 66.7 CD 80.16 OE1 84.65 OE2 85.2 H 57.62 HA 59.8 HB2 65.88 HB3 65.88 HG2 80.04 HG3 80.04
E ILE H 0 -102.9 -7.7 N 47.72 CA 47.38 C 46.52 O 48.46 CB 46.08 CG1 50.16 CG2 42.07 CD1 50.89 H 57.26 HA 56.85 HB 55.29 HG12 60.19 HG13 60.19 HG21 50.49 HG22 50.49 HG23 50.49 HD11 61.07 HD12 61.07 HD13 61.07
E THR H 11 -62.9 -47.7 N 44.1 CA 44.19 C 47.44 O 47.69 CB 46.65 OG1 44.82 CG2 50.03 H 52.92 HA 53.03 HB 55.98 HG1 53.78 HG21 60.04 HG22 60.04 HG23 60.04
E PRO H 72 -48.8 -57.8 N 51.61 CA 58.43 C 58.43 O 59.08 CB 61.19 CG 57.78 CD 51.88 HA 70.12 HB2 73.43 HB3 73.43 HG2 69.34 HG3 69.34 HD2 62.26 HD3 62.26
E LYS H 110 -62.9 -37.4 N 58.37 CA 63.61 C 59.62 O 62.05 CB 72.69 CG 82.61 CD 88.7 CE 92.67 NZ 94.35 H 70.04 HA 76.34 HB2 87.23 HB3 87.23 HG2 99.13 HG3 99.13 HD2 106.45 HD3 106.45 HE2 111.2 HE3 111.2 HZ1 113.23 HZ2 113.23 HZ3 113.23
E GLY H 2 -57.7 -35.7 N 54.44 CA 48.77 C 46.34 O 44.06 H 65.33 HA2 58.53 HA3 58.53
E ARG H 97 -75.4 -21.5 N 49.22 CA 56.92 C 62.08 O 65.37 CB 61.96 CG 63.48 CD 63.07 NE 58.64 CZ 56.63 NH1 55.57 NH2 55.78 H 59.06 HA 68.3 HB2 74.36 HB3 74.36 HG2 76.18 HG3 76.18 HD2 75.68 HD3 75.68 HE 70.36 HH11 66.68 HH12 66.68 HH21 66.93 HH22 66.93
E ALA H 81 -95.5 -9.0 N 61.8 CA 61.61 C 56.65 O 56.8 CB 63.05 H 74.16 HA 73.93 HB1 75.66 HB2 75.66 HB3 75.66
E LEU - 57 -100.4 -8.0 N 53.67 CA 54.27 C 53.05 O 53.66 CB 55.28 CG 57.99 CD1 63.73 CD2 53.6 H 64.4 HA 65.12 HB2 66.34 HB3 66.34 HG 69.59 HD11 76.47 HD12 76.47 HD13 76.47 HD21 64.31 HD22 64.31 HD23 64.31
E VAL S 9 -60.3 115.2 N 50.95 CA 50.86 C 53.32 O 54.58 CB 55.1 CG1 48.84 CG2 65.21 H 61.14 HA 61.03 HB 66.12 HG11 58.6 HG12 58.6 HG13 58.6 HG21 78.26 HG22 78.26 HG23 78.26
E PRO - 38 -64.0 149.0 N 56.79 CA 60.91 C 66.09 O 64.25 CB 59.62 CG 57.69 CD 56.63 HA 73.09 HB2 71.55 HB3 71.55 HG2 69.22 HG3 69.22 HD2 67.96 HD3 67.96
E ASP H 127 -69.5 -29.9 N 72.97 CA 77.34 C 72.58 O 72.81 CB 87.15 CG 91.96 OD1 89.01 OD2 98.75 H 87.56 HA 92.81 HB2 104.58 HB3 104.58
E SER H 85 -64.0 -36.8 N 69.0 CA 70.48 C 67.19 O 68.5 CB 75.24 OG 76.22 H 82.81 HA 84.57 HB2 90.29 HB3 90.29 HG 91.46
E VAL H 8 -66.5 -43.7 N 48.92 CA 47.65 C 46.37 O 46.42 CB 46.55 CG1 46.11 CG2 46.33 H 58.7 HA 57.18 HB 55.87 HG11 55.33 HG12 55.33 HG13 55.33 HG21 55.6 HG22 55.6 HG23 55.6
E LYS H 86 -62.9 -34.5 N 47.31 CA 51.07 C 51.18 O 47.78 CB 59.77 CG 65.93 CD 74.25 CE 77.44 NZ 82.41 H 56.78 HA 61.28 HB2 71.72 HB3 71.72 HG2 79.12 HG3 79.12 HD2 89.1 HD3 89.1 HE2 92.93 HE3 92.93 HZ1 98.89 HZ2 98.89 HZ3 98.89
E LYS H 157 -65.7 -47.9 N 56.73 CA 62.14 C 61.5 O 65.25 CB 67.55 CG 72.45 CD 76.69 CE 81.96 NZ 86.65 H 68.08 HA 74.57 HB2 81.06 HB3 81.06 HG2 86.94 HG3 86.94 HD2 92.03 HD3 92.03 HE2 98.35 HE3 98.35 HZ1 103.98 HZ2 103.98 HZ3 103.98
E GLU H 60 -66.0 -36.5 N 56.57 CA 55.56 C 54.36 O 58.9 CB 59.11 CG 70.26 CD 84.84 OE1 92.18 OE2 88.38 H 67.89 HA 66.67 HB2 70.93 HB3 70.93 HG2 84.31 HG3 84.31
E LEU H 2 -60.0 -49.7 N 50.91 CA 47.25 C 46.85 O 46.32 CB 44.73 CG 41.01 CD1 37.9 CD2 41.77 H 61.09 HA 56.7 HB2 53.67 HB3 53.67 HG 49.22 HD11 45.48 HD12 45.48 HD13 45.48 HD21 50.12 HD22 50.12 HD23 50.12
E LEU H 28 -60.7 -43.7 N 47.82 CA 50.83 C 55.0 O 60.57 CB 52.33 CG 52.88 CD1 49.24 CD2 56.1 H 57.39 HA 60.99 HB2 62.8 HB3 62.8 HG 63.45 HD11 59.09 HD12 59.09 HD13 59.09 HD21 67.32 HD22 67.32 HD23 67.32
E GLN H 106 -52.5 -48.5 N 53.58 CA 56.86 C 53.37 O 53.14 CB 65.19 CG 79.11 CD 92.72 OE1 98.91 NE2 97.63 H 64.29 HA 68.23 HB2 78.22 HB3 78.22 HG2 94.94 HG3 94.94 HE21 117.16 HE22 117.16
E ARG H 84 -80.2 -15.7 N 52.19 CA 53.01 C 53.03 O 53.53 CB 51.35 CG 55.32 CD 56.37 NE 55.81 CZ 53.73 NH1 54.42 NH2 51.39 H 62.63 HA 63.61 HB2 61.62 HB3 61.62 HG2 66.39 HG3 66.39 HD2 67.64 HD3 67.64 HE 66.97 HH11 65.31 HH12 65.31 HH21 61.67 HH22 61.67
E ILE H 2 -75.0 -37.5 N 52.55 CA 51.65 C 51.77 O 52.07 CB 53.58 CG1 53.17 CG2 55.07 CD1 54.25 H 63.06 HA 61.98 HB 64.29 HG12 63.8 HG13 63.8 HG21 66.08 HG22 66.08 HG23 66.08 HD11 65.1 HD12 65.1 HD13 65.1
E ARG H 126 -63.1 -49.0 N 52.95 CA 58.42 C 66.83 O 73.73 CB 59.31 CG 59.65 CD 64.75 NE 67.71 CZ 74.13 NH1 80.45 NH2 74.31 H 63.54 HA 70.11 HB2 71.17 HB3 71.17 HG2 71.57 HG3 71.57 HD2 77.7 HD3 77.7 HE 81.25 HH11 96.54 HH12 96.54 HH21 89.17 HH22 89.17
E THR H 84 -58.4 -30.2 N 66.9 CA 69.2 C 62.37 O 61.68 CB 73.92 OG1 76.89 CG2 79.14 H 80.29 HA 83.04 HB 88.7 HG1 92.27 HG21 94.97 HG22 94.97 HG23 94.97
E PHE H 7 -77.1 -44.2 N 57.75 CA 56.73 C 57.55 O 58.93 CB 53.82 CG 54.72 CD1 56.08 CD2 54.6 CE1 55.83 CE2 54.4 CZ 54.68 H 69.31 HA 68.07 HB2 64.58 HB3 64.58 HD1 67.3 HD2 65.51 HE1 67.0 HE2 65.28 HZ 65.61
E LEU H 32 -68.6 -34.9 N 57.09 CA 58.96 C 63.42 O 68.97 CB 59.64 CG 58.24 CD1 60.45 CD2 55.91 H 68.5 HA 70.75 HB2 71.57 HB3 71.57 HG 69.89 HD11 72.54 HD12 72.54 HD13 72.54 HD21 67.09 HD22 67.09 HD23 67.09
E ALA H 88 -71.0 -15.6 N 61.81 CA 66.08 C 71.44 O 72.68 CB 67.16 H 74.17 HA 79.29 HB1 80.59 HB2 80.59 HB3 80.59
E GLN H 137 -101.1 -21.1 N 76.05 CA 86.14 C 85.37 O 91.24 CB 91.32 CG 101.32 CD 107.6 OE1 110.26 NE2 110.13 H 91.25 HA 103.37 HB2 109.58 HB3 109.58 HG2 121.58 HG3 121.58 HE21 132.15 HE22 132.15
E HIS H 64 -126.4 -10.0 N 78.69 CA 77.17 C 73.31 O 76.18 CB 76.85 CG 83.25 ND1 87.51 CD2 86.0 CE1 90.73 NE2 89.67 H 94.43 HA 92.6 HB2 92.22 HB3 92.22 HD1 105.01 HD2 103.2 HE1 108.88 HE2 107.6
E ALA - 52 -140.3 166.9 N 67.87 CA 64.18 C 65.62 O 66.35 CB 59.94 H 81.44 HA 77.01 HB1 71.92 HB2 71.92 HB3 71.92
E SER - 156 -146.4 360.0 N 66.44 CA 68.74 C 66.13 O 68.13 CB 72.19 H 79.73 HA 82.49 HB2 86.63 HB3 86.63
F ASP - 88 360.0 146.5 N 41.92 CA 47.15 C 46.93 O 46.82 CB 57.05 CG 70.87 OD1 82.65 OD2 73.11 HA 56.58 HB2 68.46 HB3 68.46
F ALA H 60 -69.6 -34.5 N 47.7 CA 47.8 C 45.44 O 42.84 CB 53.35 H 57.24 HA 57.35 HB1 64.01 HB2 64.01 HB3 64.01
F GLN H 157 -70.1 -29.1 N 47.17 CA 48.72 C 45.44 O 45.06 CB 57.47 CG 68.93 CD 83.96 OE1 86.4 NE2 93.56 H 56.61 HA 58.47 HB2 68.97 HB3 68.97 HG2 82.71 HG3 82.71 HE21 112.28 HE22 112.28
F MET H 41 -77.4 -39.7 N 44.12 CA 42.42 C 38.95 O 38.62 CB 43.4 CG 43.59 SD 53.1 CE 76.13 H 52.94 HA 50.9 HB2 52.08 HB3 52.08 HG2 52.31 HG3 52.31 HE1 91.36 HE2 91.36 HE3 91.36
F ARG H 88 -65.0 -37.0 N 37.42 CA 37.76 C 35.9 O 33.36 CB 39.45 CG 42.35 CD 46.06 NE 50.31 CZ 53.36 NH1 52.28 NH2 57.53 H 44.91 HA 45.32 HB2 47.33 HB3 47.33 HG2 50.82 HG3 50.82 HD2 55.27 HD3 55.27 HE 60.38 HH11 62.74 HH12 62.74 HH21 69.04 HH22 69.04
F ALA H 58 -67.3 -41.8 N 35.59 CA 34.53 C 35.21 O 34.61 CB 37.3 H 42.71 HA 41.44 HB1 44.76 HB2 44.76 HB3 44.76
F ALA H 61 -63.7 -42.3 N 36.95 CA 39.04 C 36.69 O 36.45 CB 42.95 H 44.34 HA 46.84 HB1 51.54 HB2 51.54 HB3 51.54
F ILE H 16 -64.3 -46.8 N 37.07 CA 38.89 C 38.64 O 36.85 CB 39.3 CG1 39.1 CG2 41.2 CD1 36.59 H 44.48 HA 46.67 HB 47.16 HG12 46.92 HG13 46.92 HG21 49.44 HG22 49.44 HG23 49.44 HD11 43.9 HD12 43.9 HD13 43.9
F ASN H 18 -59.0 -41.2 N 40.14 CA 38.86 C 34.75 O 33.89 CB 40.65 CG 42.22 OD1 44.83 ND2 41.49 H 48.17 HA 46.63 HB2 48.78 HB3 48.78 HD21 49.79 HD22 49.79
F GLN H 25 -58.1 -46.2 N 33.38 CA 34.11 C 33.85 O 34.46 CB 38.29 CG 42.82 CD 43.54 OE1 45.36 NE2 42.82 H 40.06 HA 40.93 HB2 45.95 HB3 45.95 HG2 51.38 HG3 51.38 HE21 51.39 HE22 51.39
F LYS H 73 -69.9 -37.5 N 34.98 CA 36.88 C 37.23 O 39.52 CB 39.17 CG 43.27 CD 51.91 CE 60.88 NZ 69.65 H 41.98 HA 44.25 HB2 47.01 HB3 47.01 HG2 51.93 HG3 51.93 HD2 62.29 HD3 62.29 HE2 73.05 HE3 73.05 HZ1 83.58 HZ2 83.58 HZ3 83.58
F LEU H 0 -63.4 -35.6 N 33.92 CA 32.49 C 32.95 O 32.9 CB 31.02 CG 31.73 CD1 31.08 CD2 33.3 H 40.71 HA 38.99 HB2 37.23 HB3 37.23 HG 38.08 HD11 37.3 HD12 37.3 HD13 37.3 HD21 39.96 HD22 39.96 HD23 39.96
F ILE H 29 -73.0 -55.0 N 33.21 CA 34.48 C 40.11 O 45.67 CB 34.2 CG1 31.23 CG2 38.95 CD1 31.72 H 39.85 HA 41.38 HB 41.04 HG12 37.48 HG13 37.48 HG21 46.74 HG22 46.74 HG23 46.74 HD11 38.06 HD12 38.06 HD13 38.06
F GLU H 78 -69.2 -23.7 N 41.67 CA 46.49 C 45.31 O 48.7 CB 54.05 CG 61.7 CD 69.46 OE1 70.51 OE2 75.07 H 50.0 HA 55.79 HB2 64.85 HB3 64.85 HG2 74.04 HG3 74.04
F THR H 49 -86.6 -15.9 N 42.7 CA 44.34 C 45.73 O 49.11 CB 44.6 OG1 42.7 CG2 47.41 H 51.24 HA 53.21 HB 53.51 HG1 51.24 HG21 56.89 HG22 56.89 HG23 56.89
F GLY S 23 93.0 -8.7 N 44.38 CA 42.85 C 41.32 O 46.28 H 53.26 HA2 51.42 HA3 51.42
F GLU H 17 -56.7 -37.8 N 35.4 CA 36.39 C 35.71 O 36.41 CB 39.7 CG 46.25 CD 53.82 OE1 55.58 OE2 58.27 H 42.48 HA 43.67 HB2 47.64 HB3 47.64 HG2 55.5 HG3 55.5
F ARG H 10 -59.1 -44.5 N 36.09 CA 37.78 C 37.41 O 36.0 CB 40.13 CG 44.57 CD 45.73 NE 45.96 CZ 44.42 NH1 39.07 NH2 49.2 H 43.31 HA 45.33 HB2 48.16 HB3 48.16 HG2 53.48 HG3 53.48 HD2 54.88 HD3 54.88 HE 55.15 HH11 46.88 HH12 46.88 HH21 59.03 HH22 59.03
F GLU H 111 -66.2 -35.5 N 39.38 CA 42.28 C 36.33 O 37.39 CB 53.57 CG 67.0 CD 80.09 OE1 87.1 OE2 82.65 H 47.26 HA 50.74 HB2 64.29 HB3 64.29 HG2 80.4 HG3 80.4
F ARG H 117 -70.0 -36.3 N 33.6 CA 33.78 C 33.47 O 35.34 CB 37.86 CG 41.68 CD 44.72 NE 48.04 CZ 50.51 NH1 50.18 NH2 53.92 H 40.31 HA 40.53 HB2 45.43 HB3 45.43 HG2 50.01 HG3 50.01 HD2 53.67 HD3 53.67 HE 57.65 HH11 60.22 HH12 60.22 HH21 64.71 HH22 64.71
F LEU H 2 -65.6 -36.5 N 32.98 CA 34.68 C 35.41 O 36.82 CB 37.99 CG 42.78 CD1 46.14 CD2 43.36 H 39.58 HA 41.62 HB2 45.59 HB3 45.59 HG 51.34 HD11 55.36 HD12 55.36 HD13 55.36 HD21 52.04 HD22 52.04 HD23 52.04
F LYS H 53 -62.7 -45.6 N 36.69 CA 41.66 C 39.25 O 38.45 CB 52.93 CG 61.78 CD 70.03 CE 77.77 NZ 84.2 H 44.03 HA 49.99 HB2 63.52 HB3 63.52 HG2 74.14 HG3 74.14 HD2 84.04 HD3 84.04 HE2 93.32 HE3 93.32 HZ1 101.03 HZ2 101.03 HZ3 101.03
F GLU H 144 -59.5 -43.3 N 39.26 CA 38.67 C 32.83 O 30.48 CB 45.1 CG 53.28 CD 61.75 OE1 64.26 OE2 65.89 H 47.12 HA 46.4 HB2 54.12 HB3 54.12 HG2 63.93 HG3 63.93
F LEU H 54 -70.6 -36.6 N 32.05 CA 32.89 C 33.41 O 35.04 CB 33.37 CG 33.58 CD1 34.19 CD2 33.67 H 38.45 HA 39.46 HB2 40.04 HB3 40.04 HG 40.29 HD11 41.03 HD12 41.03 HD13 41.03 HD21 40.41 HD22 40.41 HD23 40.41
F LEU H 4 -64.0 -44.0 N 32.33 CA 30.69 C 30.17 O 30.84 CB 34.61 CG 41.05 CD1 41.45 CD2 46.84 H 38.8 HA 36.82 HB2 41.53 HB3 41.53 HG 49.26 HD11 49.74 HD12 49.74 HD13 49.74 HD21 56.2 HD22 56.2 HD23 56.2
F ARG H 97 -59.5 -46.8 N 30.7 CA 33.71 C 32.6 O 32.91 CB 35.96 CG 38.25 CD 44.2 NE 57.25 CZ 74.1 NH1 81.54 NH2 80.74 H 36.84 HA 40.46 HB2 43.15 HB3 43.15 HG2 45.89 HG3 45.89 HD2 53.04 HD3 53.04 HE 68.7 HH11 97.85 HH12 97.85 HH21 96.89 HH22 96.89
F ALA H 57 -57.4 -44.3 N 31.56 CA 30.55 C 30.04 O 27.6 CB 30.75 H 37.87 HA 36.66 HB1 36.9 HB2 36.9 HB3 36.9
F LYS H 47 -66.4 -35.0 N 31.84 CA 31.45 C 30.26 O 30.49 CB 32.79 CG 35.24 CD 39.95 CE 45.54 NZ 48.91 H 38.21 HA 37.74 HB2 39.35 HB3 39.35 HG2 42.29 HG3 42.29 HD2 47.95 HD3 47.95 HE2 54.65 HE3 54.65 HZ1 58.7 HZ2 58.7 HZ3 58.7
F LEU H 1 -72.7 -43.2 N 30.67 CA 33.59 C 36.11 O 39.76 CB 35.17 CG 37.26 CD1 41.28 CD2 36.01 H 36.81 HA 40.31 HB2 42.2 HB3 42.2 HG 44.71 HD11 49.53 HD12 49.53 HD13 49.53 HD21 43.21 HD22 43.21 HD23 43.21
F ILE H 68 -64.4 -47.5 N 33.95 CA 33.49 C 29.62 O 28.33 CB 38.43 CG1 47.64 CG2 37.22 CD1 53.14 H 40.74 HA 40.18 HB 46.11 HG12 57.17 HG13 57.17 HG21 44.66 HG22 44.66 HG23 44.66 HD11 63.77 HD12 63.77 HD13 63.77
F GLU H 142 -54.6 -43.7 N 28.91 CA 31.34 C 30.19 O 30.72 CB 37.26 CG 48.29 CD 60.01 OE1 65.49 OE2 63.62 H 34.69 HA 37.61 HB2 44.71 HB3 44.71 HG2 57.95 HG3 57.95
F CYS T 46 -84.9 0.5 N 30.86 CA 31.34 C 33.69 O 35.61 CB 29.79 SG 40.91 H 37.03 HA 37.61 HB2 35.75 HB3 35.75 HG 49.09
F GLY T 12 91.5 10.0 N 37.46 CA 37.42 C 33.26 O 31.15 H 44.96 HA2 44.91 HA3 44.91
F TRP H 2 -58.2 -47.6 N 31.54 CA 29.8 C 29.97 O 30.2 CB 29.46 CG 29.8 CD1 31.11 CD2 29.49 NE1 31.82 CE2 30.38 CE3 31.67 CZ2 30.13 CZ3 32.78 CH2 31.72 H 37.84 HA 35.76 HB2 35.35 HB3 35.35 HD1 37.34 HE1 38.19 HE3 38.01 HZ2 36.16 HZ3 39.33 HH2 38.07
F LYS H 19 -69.7 -36.1 N 31.5 CA 31.52 C 32.09 O 31.07 CB 32.36 CG 33.6 CD 38.0 CE 42.66 NZ 47.62 H 37.8 HA 37.82 HB2 38.84 HB3 38.84 HG2 40.32 HG3 40.32 HD2 45.6 HD3 45.6 HE2 51.19 HE3 51.19 HZ1 57.14 HZ2 57.14 HZ3 57.14
F ASP H 97 -63.6 -40.4 N 33.91 CA 37.11 C 35.86 O 35.97 CB 42.8 CG 52.69 OD1 58.22 OD2 56.33 H 40.69 HA 44.53 HB2 51.36 HB3 51.36
F GLN H 101 -73.5 -29.2 N 34.96 CA 35.92 C 34.54 O 37.39 CB 40.74 CG 49.72 CD 60.05 OE1 61.12 NE2 68.33 H 41.96 HA 43.1 HB2 48.89 HB3 48.89 HG2 59.67 HG3 59.67 HE21 82.0 HE22 82.0
F LEU H 0 -76.7 -38.1 N 31.7 CA 30.1 C 29.35 O 28.34 CB 30.97 CG 31.78 CD1 29.82 CD2 35.06 H 38.04 HA 36.12 HB2 37.17 HB3 37.17 HG 38.13 HD11 35.79 HD12 35.79 HD13 35.79 HD21 42.07 HD22 42.07 HD23 42.07
F LYS H 73 -65.0 -38.9 N 29.66 CA 34.93 C 33.22 O 35.95 CB 45.91 CG 59.36 CD 73.58 CE 82.36 NZ 89.34 H 35.59 HA 41.92 HB2 55.09 HB3 55.09 HG2 71.24 HG3 71.24 HD2 88.29 HD3 88.29 HE2 98.84 HE3 98.84 HZ1 107.21 HZ2 107.21 HZ3 107.21
F ALA H 47 -65.1 -35.0 N 30.49 CA 31.36 C 32.1 O 33.87 CB 31.04 H 36.59 HA 37.63 HB1 37.25 HB2 37.25 HB3 37.25
F HIS H 42 -67.5 -39.6 N 30.57 CA 30.11 C 28.45 O 28.72 CB 33.22 CG 40.73 ND1 43.2 CD2 43.63 CE1 44.02 NE2 44.49 H 36.68 HA 36.13 HB2 39.86 HB3 39.86 HD1 51.85 HD2 52.36 HE1 52.83 HE2 53.38
F CYS H 0 -59.5 -48.6 N 28.73 CA 30.9 C 32.61 O 33.18 CB 31.5 SG 37.4 H 34.48 HA 37.07 HB2 37.8 HB3 37.8 HG 44.88
F LYS H 103 -59.6 -37.6 N 29.04 CA 31.33 C 30.29 O 32.04 CB 34.4 CG 36.69 CD 42.43 CE 52.55 NZ 60.24 H 34.85 HA 37.6 HB2 41.28 HB3 41.28 HG2 44.03 HG3 44.03 HD2 50.91 HD3 50.91 HE2 63.06 HE3 63.06 HZ1 72.28 HZ2 72.28 HZ3 72.28
F GLU H 110 -63.2 -43.8 N 28.23 CA 29.17 C 29.34 O 29.81 CB 31.57 CG 36.1 CD 41.8 OE1 43.98 OE2 44.34 H 33.88 HA 35.0 HB2 37.89 HB3 37.89 HG2 43.32 HG3 43.32
F VAL H 11 -66.6 -40.0 N 28.98 CA 28.15 C 26.52 O 27.01 CB 28.58 CG1 27.83 CG2 30.92 H 34.78 HA 33.78 HB 34.29 HG11 33.4 HG12 33.4 HG13 33.4 HG21 37.11 HG22 37.11 HG23 37.11
F ILE H 19 -63.9 -37.8 N 25.76 CA 27.44 C 29.15 O 30.8 CB 26.94 CG1 27.92 CG2 28.16 CD1 30.17 H 30.92 HA 32.93 HB 32.32 HG12 33.5 HG13 33.5 HG21 33.8 HG22 33.8 HG23 33.8 HD11 36.21 HD12 36.21 HD13 36.21
F LYS H 177 -82.7 -11.5 N 29.63 CA 34.54 C 33.58 O 34.79 CB 42.98 CG 50.35 CD 55.72 CE 59.63 NZ 62.46 H 35.56 HA 41.44 HB2 51.58 HB3 51.58 HG2 60.43 HG3 60.43 HD2 66.87 HD3 66.87 HE2 71.56 HE3 71.56 HZ1 74.95 HZ2 74.95 HZ3 74.95
F GLU H 148 -82.6 -48.7 N 32.04 CA 33.39 C 33.24 O 33.02 CB 34.04 CG 34.1 CD 34.74 OE1 37.18 OE2 33.73 H 38.45 HA 40.07 HB2 40.85 HB3 40.85 HG2 40.92 HG3 40.92
F LYS H 112 -82.8 -39.0 N 32.76 CA 34.95 C 34.08 O 36.52 CB 38.15 CG 44.16 CD 53.29 CE 58.55 NZ 62.83 H 39.31 HA 41.94 HB2 45.77 HB3 45.77 HG2 52.99 HG3 52.99 HD2 63.95 HD3 63.95 HE2 70.26 HE3 70.26 HZ1 75.39 HZ2 75.39 HZ3 75.39
F GLY - 24 95.3 135.3 N 31.52 CA 33.52 C 33.83 O 33.72 H 37.82 HA2 40.22 HA3 40.22
F LEU G 104 -54.8 -34.4 N 36.17 CA 38.97 C 43.63 O 46.18 CB 41.01 CG 41.47 CD1 45.48 CD2 41.33 H 43.41 HA 46.76 HB2 49.22 HB3 49.22 HG 49.77 HD11 54.57 HD12 54.57 HD13 54.57 HD21 49.59 HD22 49.59 HD23 49.59
F GLU G 176 -58.0 -31.1 N 45.97 CA 51.25 C 49.58 O 54.96 CB 58.77 CG 65.27 CD 71.84 OE1 69.6 OE2 79.31 H 55.16 HA 61.5 HB2 70.52 HB3 70.52 HG2 78.32 HG3 78.32
F HIS G 138 -110.7 -0.6 N 42.74 CA 43.42 C 42.93 O 45.26 CB 44.74 CG 48.76 ND1 52.12 CD2 49.66 CE1 55.17 NE2 53.59 H 51.29 HA 52.1 HB2 53.69 HB3 53.69 HD1 62.54 HD2 59.59 HE1 66.2 HE2 64.31
F VAL - 16 -110.5 124.2 N 42.47 CA 42.23 C 43.91 O 44.23 CB 41.36 CG1 39.72 CG2 42.65 H 50.97 HA 50.68 HB 49.63 HG11 47.66 HG12 47.66 HG13 47.66 HG21 51.18 HG22 51.18 HG23 51.18
F THR - 72 -104.3 168.9 N 43.96 CA 41.05 C 36.99 O 34.36 CB 40.94 OG1 42.69 CG2 39.08 H 52.76 HA 49.25 HB 49.13 HG1 51.23 HG21 46.89 HG22 46.89 HG23 46.89
F VAL H 26 -56.0 -43.0 N 39.4 CA 39.19 C 41.99 O 40.21 CB 41.51 CG1 50.67 CG2 36.02 H 47.28 HA 47.03 HB 49.81 HG11 60.8 HG12 60.8 HG13 60.8 HG21 43.22 HG22 43.22 HG23 43.22
F ASP H 27 -75.5 -27.2 N 47.02 CA 48.7 C 49.09 O 48.25 CB 52.42 CG 53.55 OD1 52.36 OD2 55.98 H 56.42 HA 58.44 HB2 62.9 HB3 62.9
F ASP H 87 -67.0 -38.4 N 50.54 CA 51.66 C 42.61 O 41.89 CB 59.16 CG 70.69 OD1 73.21 OD2 77.84 H 60.65 HA 61.99 HB2 71.0 HB3 71.0
F LEU H 1 -74.1 -45.9 N 36.65 CA 32.0 C 30.36 O 29.71 CB 31.24 CG 30.2 CD1 31.02 CD2 30.06 H 43.98 HA 38.4 HB2 37.49 HB3 37.49 HG 36.24 HD11 37.22 HD12 37.22 HD13 37.22 HD21 36.07 HD22 36.07 HD23 36.07
F VAL H 29 -51.0 -51.7 N 31.37 CA 32.9 C 34.01 O 32.95 CB 38.38 CG1 43.58 CG2 35.84 H 37.64 HA 39.48 HB 46.06 HG11 52.29 HG12 52.29 HG13 52.29 HG21 43.01 HG22 43.01 HG23 43.01
F ALA H 70 -57.5 -32.9 N 37.72 CA 42.6 C 41.64 O 41.57 CB 48.33 H 45.26 HA 51.12 HB1 57.99 HB2 57.99 HB3 57.99
F GLU H 102 -77.2 -36.9 N 41.76 CA 42.96 C 34.37 O 33.42 CB 51.2 CG 59.9 CD 68.98 OE1 67.49 OE2 77.01 H 50.11 HA 51.55 HB2 61.44 HB3 61.44 HG2 71.88 HG3 71.88
F ILE H 0 -99.7 -8.2 N 29.62 CA 29.68 C 30.25 O 28.84 CB 29.67 CG1 28.57 CG2 33.33 CD1 27.09 H 35.55 HA 35.61 HB 35.61 HG12 34.29 HG13 34.29 HG21 39.99 HG22 39.99 HG23 39.99 HD11 32.51 HD12 32.51 HD13 32.51
F THR H 21 -58.8 -50.3 N 33.2 CA 32.68 C 32.45 O 29.36 CB 36.07 OG1 32.65 CG2 39.64 H 39.84 HA 39.22 HB 43.29 HG1 39.18 HG21 47.56 HG22 47.56 HG23 47.56
F PRO H 82 -53.6 -42.3 N 36.7 CA 39.75 C 38.69 O 34.46 CB 42.59 CG 42.9 CD 39.09 HA 47.7 HB2 51.11 HB3 51.11 HG2 51.48 HG3 51.48 HD2 46.91 HD3 46.91
F LYS H 90 -64.1 -46.0 N 41.09 CA 40.38 C 34.54 O 34.76 CB 41.64 CG 40.64 CD 43.55 CE 46.12 NZ 51.19 H 49.3 HA 48.45 HB2 49.97 HB3 49.97 HG2 48.77 HG3 48.77 HD2 52.26 HD3 52.26 HE2 55.35 HE3 55.35 HZ1 61.43 HZ2 61.43 HZ3 61.43
F GLY H 0 -58.4 -43.1 N 31.68 CA 31.89 C 33.31 O 33.51 H 38.02 HA2 38.27 HA3 38.27
F ARG H 147 -65.3 -47.2 N 33.79 CA 33.3 C 36.21 O 39.12 CB 34.81 CG 37.82 CD 47.81 NE 56.55 CZ 66.21 NH1 75.5 NH2 65.05 H 40.54 HA 39.96 HB2 41.77 HB3 41.77 HG2 45.39 HG3 45.39 HD2 57.37 HD3 57.37 HE 67.86 HH11 90.6 HH12 90.6 HH21 78.06 HH22 78.06
F ALA H 88 -67.6 -17.0 N 36.88 CA 40.83 C 42.18 O 48.22 CB 44.92 H 44.25 HA 49.0 HB1 53.91 HB2 53.91 HB3 53.91
F LEU T 28 -83.4 -16.9 N 38.19 CA 39.98 C 38.07 O 39.5 CB 41.66 CG 46.12 CD1 43.61 CD2 51.56 H 45.83 HA 47.98 HB2 49.99 HB3 49.99 HG 55.35 HD11 52.33 HD12 52.33 HD13 52.33 HD21 61.87 HD22 61.87 HD23 61.87
F VAL S 9 -71.4 117.2 N 34.34 CA 32.28 C 31.48 O 30.64 CB 28.77 CG1 27.78 CG2 28.63 H 41.21 HA 38.73 HB 34.52 HG11 33.34 HG12 33.34 HG13 33.34 HG21 34.35 HG22 34.35 HG23 34.35
F PRO - 40 -63.5 141.1 N 32.5 CA 35.25 C 35.95 O 33.39 CB 38.24 CG 37.72 CD 33.08 HA 42.3 HB2 45.89 HB3 45.89 HG2 45.26 HG3 45.26 HD2 39.69 HD3 39.69
F ASP H 122 -71.6 -18.7 N 40.96 CA 43.7 C 41.1 O 41.67 CB 51.25 CG 58.77 OD1 65.99 OD2 56.68 H 49.15 HA 52.44 HB2 61.5 HB3 61.5
F SER H 41 -65.5 -38.5 N 39.4 CA 43.13 C 43.57 O 44.79 CB 46.63 OG 46.21 H 47.27 HA 51.75 HB2 55.96 HB3 55.96 HG 55.46
F VAL H 7 -67.6 -37.4 N 43.58 CA 42.95 C 40.39 O 40.86 CB 41.58 CG1 41.43 CG2 43.36 H 52.3 HA 51.54 HB 49.9 HG11 49.72 HG12 49.72 HG13 49.72 HG21 52.03 HG22 52.03 HG23 52.03
F LYS H 87 -68.0 -45.6 N 38.45 CA 35.2 C 34.55 O 33.6 CB 35.2 CG 36.54 CD 38.73 CE 38.83 NZ 37.48 H 46.14 HA 42.23 HB2 42.24 HB3 42.24 HG2 43.85 HG3 43.85 HD2 46.48 HD3 46.48 HE2 46.59 HE3 46.59 HZ1 44.98 HZ2 44.98 HZ3 44.98
F LYS H 126 -65.9 -33.2 N 34.8 CA 37.58 C 38.43 O 39.57 CB 46.49 CG 60.45 CD 71.86 CE 76.4 NZ 74.89 H 41.76 HA 45.1 HB2 55.79 HB3 55.79 HG2 72.54 HG3 72.54 HD2 86.23 HD3 86.23 HE2 91.67 HE3 91.67 HZ1 89.87 HZ2 89.87 HZ3 89.87
F GLU H 77 -69.1 -35.6 N 39.55 CA 44.86 C 38.96 O 39.54 CB 55.84 CG 68.04 CD 76.38 OE1 80.69 OE2 78.16 H 47.46 HA 53.83 HB2 67.0 HB3 67.0 HG2 81.64 HG3 81.64
F LEU H 2 -71.9 -39.6 N 36.27 CA 38.0 C 36.94 O 37.6 CB 43.02 CG 54.94 CD1 61.34 CD2 59.77 H 43.53 HA 45.6 HB2 51.63 HB3 51.63 HG 65.93 HD11 73.61 HD12 73.61 HD13 73.61 HD21 71.72 HD22 71.72 HD23 71.72
F LEU H 36 -59.7 -36.4 N 36.18 CA 37.96 C 43.81 O 49.33 CB 38.33 CG 42.64 CD1 42.93 CD2 43.54 H 43.42 HA 45.55 HB2 46.0 HB3 46.0 HG 51.17 HD11 51.52 HD12 51.52 HD13 51.52 HD21 52.25 HD22 52.25 HD23 52.25
F GLN H 111 -70.1 -41.1 N 42.61 CA 43.57 C 43.45 O 44.84 CB 47.59 CG 57.36 CD 66.45 OE1 72.64 NE2 67.79 H 51.13 HA 52.28 HB2 57.1 HB3 57.1 HG2 68.83 HG3 68.83 HE21 81.35 HE22 81.35
F ARG H 128 -64.1 -36.6 N 46.44 CA 50.02 C 49.32 O 53.43 CB 53.3 CG 60.11 CD 65.25 NE 68.6 CZ 70.2 NH1 70.53 NH2 72.18 H 55.73 HA 60.03 HB2 63.96 HB3 63.96 HG2 72.13 HG3 72.13 HD2 78.3 HD3 78.3 HE 82.32 HH11 84.63 HH12 84.63 HH21 86.62 HH22 86.62
F ILE H 1 -67.9 -46.2 N 45.59 CA 45.03 C 45.57 O 46.03 CB 44.48 CG1 42.84 CG2 47.3 CD1 41.11 H 54.71 HA 54.03 HB 53.37 HG12 51.41 HG13 51.41 HG21 56.76 HG22 56.76 HG23 56.76 HD11 49.33 HD12 49.33 HD13 49.33
F ARG H 97 -63.3 -37.4 N 45.65 CA 48.99 C 50.19 O 52.86 CB 55.37 CG 62.06 CD 70.94 NE 79.61 CZ 83.77 NH1 84.71 NH2 85.19 H 54.78 HA 58.79 HB2 66.45 HB3 66.45 HG2 74.47 HG3 74.47 HD2 85.13 HD3 85.13 HE 95.53 HH11 101.65 HH12 101.65 HH21 102.23 HH22 102.23
F THR H 70 -65.9 -52.7 N 49.97 CA 54.05 C 54.1 O 55.39 CB 58.83 OG1 60.2 CG2 64.11 H 59.96 HA 64.86 HB 70.6 HG1 72.23 HG21 76.93 HG22 76.93 HG23 76.93
F PHE H 15 -56.6 -38.4 N 53.28 CA 56.47 C 55.83 O 58.28 CB 56.36 CG 58.06 CD1 56.87 CD2 63.21 CE1 61.12 CE2 67.42 CZ 66.73 H 63.94 HA 67.76 HB2 67.63 HB3 67.63 HD1 68.25 HD2 75.86 HE1 73.34 HE2 80.91 HZ 80.07
F LEU H 30 -74.7 -44.7 N 53.94 CA 55.94 C 56.15 O 58.41 CB 58.37 CG 64.71 CD1 68.36 CD2 70.17 H 64.73 HA 67.12 HB2 70.05 HB3 70.05 HG 77.66 HD11 82.04 HD12 82.04 HD13 82.04 HD21 84.2 HD22 84.2 HD23 84.2
F ALA H 89 -63.2 -21.3 N 55.1 CA 56.21 C 58.02 O 59.45 CB 57.04 H 66.12 HA 67.46 HB1 68.44 HB2 68.44 HB3 68.44
F GLN T 144 -95.1 7.1 N 60.66 CA 69.63 C 75.91 O 81.29 CB 75.13 CG 86.53 CD 95.16 OE1 94.05 NE2 103.89 H 72.79 HA 83.55 HB2 90.15 HB3 90.15 HG2 103.84 HG3 103.84 HE21 124.67 HE22 124.67
F HIS - 73 -134.2 94.1 N 77.4 CA 85.44 C 90.21 O 89.73 CB 87.09 CG 93.77 ND1 94.18 CD2 101.21 CE1 99.1 NE2 103.42 H 92.88 HA 102.53 HB2 104.51 HB3 104.51 HD1 113.02 HD2 121.45 HE1 118.92 HE2 124.1
F ALA - 133 46.2 360.0 N 95.42 CA 97.43 C 94.8 O 92.8 CB 100.4 H 114.51 HA 116.91 HB1 120.48 HB2 120.48 HB3 120.48
