A ARG - 220 360.0 150.6 N 57.75 CA 70.31 C 71.86 O 74.78 CB 74.89 CG 77.29 CD 75.6 NE 67.69 CZ 64.87 NH1 62.56 NH2 63.44
A ASP - 47 -123.0 150.8 N 76.64 CA 75.21 C 81.56 O 91.85 CB 75.94 CG 81.56 OD1 81.26 OD2 83.7
A GLY - 27 -63.2 -80.8 N 78.22 CA 69.79 C 65.38 O 66.76
A ARG E 65 -161.2 144.4 N 49.91 CA 45.41 C 39.78 O 38.11 CB 51.95 CG 60.9 CD 63.21 NE 57.67 CZ 51.31 NH1 45.36 NH2 52.68
A THR E 39 -82.8 126.1 N 43.85 CA 46.28 C 45.0 O 39.24 CB 50.17 OG1 52.1 CG2 44.58
A PHE E 2 -119.3 163.3 N 36.37 CA 41.62 C 38.84 O 37.53 CB 42.39 CG 45.05 CD1 36.3 CD2 35.01 CE1 37.28 CE2 36.06 CZ 37.19
A VAL E 41 -122.0 136.2 N 36.73 CA 34.11 C 32.64 O 34.65 CB 40.84 CG1 38.39 CG2 47.96
A VAL E 2 -70.7 114.3 N 38.41 CA 30.2 C 31.07 O 31.71 CB 36.0 CG1 34.3 CG2 28.59
A ARG E 113 -88.0 -30.4 N 31.39 CA 34.35 C 35.46 O 32.06 CB 38.02 CG 49.49 CD 63.01 NE 71.83 CZ 82.06 NH1 86.24 NH2 79.6
A GLU E 46 -149.1 144.4 N 36.79 CA 38.62 C 34.74 O 29.62 CB 44.82 CG 60.69 CD 74.18 OE1 79.38 OE2 83.93
A LYS E 5 -136.9 101.0 N 26.62 CA 28.66 C 27.59 O 35.28 CB 27.47 CG 29.98 CD 29.78 CE 29.07 NZ 30.5
A GLN E 46 -118.8 124.6 N 27.59 CA 29.97 C 29.51 O 29.56 CB 28.4 CG 38.53 CD 42.11 OE1 37.33 NE2 46.19
A VAL E 14 -69.4 122.8 N 23.72 CA 25.47 C 27.24 O 27.33 CB 28.0 CG1 22.9 CG2 22.7
A GLU - 22 -94.8 -35.2 N 24.42 CA 25.42 C 30.6 O 37.01 CB 25.29 CG 31.0 CD 43.18 OE1 46.6 OE2 46.84
A SER S 3 -164.5 -177.0 N 26.74 CA 28.75 C 26.05 O 25.08 CB 27.14 OG 22.05
A ALA S 3 -48.0 -41.5 N 25.98 CA 25.05 C 23.51 O 24.32 CB 27.26
A TYR S 62 -118.2 -1.7 N 24.23 CA 27.29 C 31.2 O 29.7 CB 26.6 CG 28.25 CD1 26.73 CD2 32.89 CE1 34.53 CE2 36.03 CZ 39.21 OH 41.5
A VAL E 5 -113.4 128.6 N 27.01 CA 23.24 C 22.15 O 24.75 CB 28.71 CG1 30.34 CG2 21.39
A THR E 5 -127.1 133.5 N 23.23 CA 25.12 C 27.42 O 22.64 CB 26.93 OG1 29.34 CG2 21.55
A SER E 0 -91.1 151.5 N 22.27 CA 21.89 C 28.33 O 31.9 CB 21.39 OG 31.31
A PHE E 3 -128.8 125.9 N 25.05 CA 26.39 C 26.24 O 27.89 CB 23.75 CG 31.27 CD1 23.32 CD2 24.66 CE1 30.76 CE2 31.38 CZ 27.52
A VAL E 7 -97.8 121.9 N 27.97 CA 24.34 C 26.73 O 28.43 CB 26.66 CG1 27.59 CG2 25.35
A LEU E 2 -117.5 135.1 N 26.96 CA 28.49 C 31.9 O 29.08 CB 34.85 CG 39.26 CD1 36.44 CD2 41.74
A VAL E 35 -123.7 146.7 N 30.78 CA 34.85 C 37.27 O 34.76 CB 37.9 CG1 38.91 CG2 38.16
A PRO E 11 -64.6 138.3 N 36.85 CA 38.09 C 43.46 O 45.5 CB 39.62 CG 46.36 CD 43.83
A ALA S 56 -62.6 -19.9 N 41.22 CA 46.81 C 56.31 O 54.91 CB 48.53
A ASP S 125 -65.6 -48.0 N 62.75 CA 72.12 C 75.3 O 80.67 CB 76.39 CG 85.75 OD1 87.46 OD2 90.67
A GLY - 40 101.5 178.2 N 68.47 CA 66.81 C 67.01 O 70.05
A GLY S 42 77.3 -178.9 N 68.33 CA 68.86 C 60.47 O 53.7
A ALA - 72 -66.7 154.6 N 57.73 CA 54.87 C 51.96 O 43.43 CB 54.21
A VAL - 8 -112.2 160.0 N 49.8 CA 39.87 C 42.13 O 45.73 CB 37.85 CG1 40.1 CG2 32.63
A LEU - 107 -62.9 141.5 N 36.14 CA 39.99 C 40.22 O 37.94 CB 36.37 CG 41.06 CD1 38.9 CD2 41.82
A ASP - 115 -63.4 162.1 N 38.86 CA 42.23 C 36.34 O 35.04 CB 53.77 CG 63.54 OD1 51.84 OD2 64.95
A TYR - 8 -156.2 169.6 N 30.76 CA 31.27 C 35.81 O 35.4 CB 26.9 CG 32.14 CD1 29.88 CD2 31.04 CE1 28.95 CE2 28.13 CZ 30.19 OH 30.02
A GLN - 83 -95.9 137.1 N 30.55 CA 37.7 C 27.06 O 29.5 CB 35.3 CG 38.59 CD 46.34 OE1 50.58 NE2 46.09
A PRO T 8 -63.0 123.5 N 27.91 CA 25.12 C 26.82 O 27.59 CB 32.65 CG 27.45 CD 29.51
A GLY T 0 123.2 -25.4 N 22.99 CA 27.17 C 24.56 O 25.84
A GLN - 30 -78.1 167.7 N 27.19 CA 24.03 C 31.66 O 30.17 CB 23.37 CG 29.86 CD 34.45 OE1 35.92 NE2 29.81
A TYR E 63 -129.5 157.1 N 24.89 CA 24.68 C 28.18 O 27.35 CB 29.96 CG 29.57 CD1 32.87 CD2 26.32 CE1 35.94 CE2 28.3 CZ 34.93 OH 40.03
A ILE E 1 -106.7 179.0 N 29.45 CA 30.27 C 31.4 O 27.59 CB 26.17 CG1 32.83 CG2 28.19 CD1 34.04
A GLY E 8 -113.7 138.4 N 29.12 CA 23.22 C 29.72 O 27.76
A ILE E 2 -115.8 136.2 N 30.76 CA 32.73 C 38.79 O 32.64 CB 33.33 CG1 35.55 CG2 29.89 CD1 37.87
A GLU E 21 -128.0 129.6 N 29.58 CA 31.58 C 35.49 O 36.41 CB 32.81 CG 54.51 CD 64.68 OE1 61.66 OE2 70.92
A VAL E 11 -140.8 175.3 N 35.66 CA 39.23 C 41.71 O 40.44 CB 48.09 CG1 48.26 CG2 39.39
A THR - 59 -126.7 101.7 N 45.81 CA 49.25 C 57.92 O 61.4 CB 60.53 OG1 61.03 CG2 64.62
A PRO - 13 -65.1 161.6 N 56.91 CA 61.45 C 65.7 O 65.2 CB 63.7 CG 56.92 CD 53.27
A GLU S 126 -47.1 -29.5 N 67.98 CA 79.6 C 82.9 O 85.71 CB 81.65 CG 83.25 CD 89.59 OE1 88.01 OE2 91.48
A GLY S 54 -78.0 86.0 N 86.25 CA 95.62 C 98.56 O 91.48
A SER - 85 -84.7 25.0 N 105.91 CA 103.96 C 101.09 O 104.59 CB 109.85 OG 106.88
A ASP S 120 -71.7 -61.9 N 97.72 CA 97.56 C 84.51 O 83.71 CB 101.4 CG 100.31 OD1 98.58 OD2 97.58
A TYR S 167 -120.4 150.4 N 70.88 CA 63.51 C 59.04 O 53.44 CB 66.79 CG 71.74 CD1 76.9 CD2 75.01 CE1 82.19 CE2 80.76 CZ 84.9 OH 91.6
A ARG - 128 -74.1 153.5 N 47.95 CA 50.44 C 48.4 O 46.88 CB 46.59 CG 57.72 CD 69.91 NE 78.39 CZ 81.73 NH1 80.91 NH2 85.78
A GLU E 53 -131.5 138.4 N 37.71 CA 34.84 C 36.9 O 39.2 CB 35.09 CG 39.15 CD 50.13 OE1 61.63 OE2 46.88
A ILE E 86 -120.9 138.1 N 31.96 CA 30.27 C 26.18 O 26.67 CB 31.52 CG1 30.7 CG2 32.38 CD1 32.26
A ARG E 83 -137.8 145.4 N 24.69 CA 28.25 C 33.36 O 26.43 CB 23.62 CG 30.58 CD 26.32 NE 28.59 CZ 33.68 NH1 30.67 NH2 32.93
A GLN E 130 -76.3 132.5 N 23.6 CA 21.21 C 26.8 O 25.58 CB 28.21 CG 33.06 CD 33.79 OE1 36.79 NE2 34.28
A TYR E 34 -132.9 134.2 N 24.63 CA 22.68 C 27.64 O 24.34 CB 21.96 CG 27.49 CD1 32.18 CD2 27.35 CE1 31.88 CE2 29.67 CZ 31.13 OH 29.77
A SER E 10 -74.7 140.6 N 23.76 CA 22.4 C 25.01 O 25.13 CB 32.01 OG 33.03
A LEU B 0 -67.2 134.5 N 21.75 CA 20.46 C 26.26 O 23.16 CB 23.89 CG 30.87 CD1 35.47 CD2 30.85
A SER - 0 -118.2 14.4 N 20.88 CA 25.91 C 31.81 O 29.45 CB 24.05 OG 22.79
A HIS S 66 -131.3 168.8 N 28.0 CA 31.6 C 28.75 O 28.53 CB 27.69 CG 35.63 ND1 32.86 CD2 29.64 CE1 35.5 NE2 35.1
A ALA - 4 -64.6 148.8 N 25.94 CA 31.3 C 35.59 O 35.64 CB 29.52
A SER - 24 -68.5 135.2 N 32.6 CA 33.94 C 40.22 O 34.25 CB 34.67 OG 43.41
A ASN - 82 -141.3 6.9 N 38.41 CA 40.62 C 39.67 O 41.1 CB 41.71 CG 48.05 OD1 44.33 ND2 51.48
A GLY S 24 76.3 5.2 N 41.32 CA 43.33 C 43.07 O 41.29
A ARG S 159 -126.1 -42.3 N 41.16 CA 41.01 C 36.78 O 38.25 CB 45.68 CG 54.83 CD 74.39 NE 84.96 CZ 88.76 NH1 88.14 NH2 91.58
A GLU - 57 -148.6 161.9 N 33.66 CA 35.34 C 31.79 O 32.67 CB 40.19 CG 50.3 CD 59.43 OE1 62.35 OE2 61.84
A TYR E 5 -115.1 142.9 N 27.07 CA 29.25 C 30.01 O 33.86 CB 32.29 CG 31.72 CD1 29.63 CD2 26.74 CE1 31.08 CE2 28.45 CZ 30.93 OH 31.74
A ARG E 17 -116.0 131.5 N 27.75 CA 24.68 C 28.28 O 26.4 CB 23.46 CG 25.49 CD 24.85 NE 27.74 CZ 31.84 NH1 25.71 NH2 31.37
A ILE E 2 -121.6 162.0 N 20.63 CA 24.29 C 24.96 O 24.95 CB 23.89 CG1 25.17 CG2 22.64 CD1 27.59
A SER E 4 -137.0 120.6 N 25.06 CA 23.0 C 32.47 O 22.02 CB 22.57 OG 27.69
A VAL E 0 -119.4 120.5 N 28.79 CA 26.45 C 26.58 O 19.57 CB 25.18 CG1 22.61 CG2 17.74
A LYS E 73 -86.5 123.8 N 25.26 CA 24.02 C 25.84 O 27.8 CB 22.87 CG 27.31 CD 44.4 CE 51.77 NZ 63.9
A ARG - 36 -55.1 103.5 N 26.13 CA 33.63 C 35.51 O 35.67 CB 35.36 CG 37.51 CD 33.88 NE 32.68 CZ 34.71 NH1 31.35 NH2 37.35
A GLU T 82 -89.2 147.5 N 33.3 CA 36.49 C 34.32 O 35.21 CB 37.02 CG 79.01 CD 83.35 OE1 85.58 OE2 81.47
A GLY T 26 66.7 33.8 N 39.43 CA 35.04 C 37.44 O 37.39
A VAL T 71 -65.4 130.7 N 39.09 CA 38.35 C 41.65 O 46.61 CB 36.37 CG1 34.01 CG2 31.47
A GLY T 85 90.0 -4.2 N 41.64 CA 47.29 C 48.17 O 47.39
A SER S 57 -93.2 170.3 N 44.17 CA 42.97 C 43.82 O 46.16 CB 40.15 OG 37.41
A ASP S 154 -66.8 -23.2 N 43.95 CA 47.28 C 41.77 O 39.24 CB 54.51 CG 75.51 OD1 81.51 OD2 83.49
A ASN S 134 -129.0 74.7 N 36.28 CA 38.14 C 37.32 O 41.27 CB 39.96 CG 50.82 OD1 52.64 ND2 52.24
A PRO - 58 -60.6 139.6 N 36.04 CA 28.97 C 32.22 O 38.07 CB 32.86 CG 41.69 CD 37.16
A GLY - 20 -65.6 130.6 N 29.46 CA 25.06 C 24.99 O 29.72
A LEU H 98 -61.5 -54.9 N 27.2 CA 32.68 C 32.44 O 31.06 CB 39.82 CG 51.5 CD1 52.79 CD2 56.19
A VAL H 2 -72.4 -42.7 N 30.59 CA 29.14 C 27.44 O 25.39 CB 29.98 CG1 22.98 CG2 24.92
A SER H 8 -62.4 -39.0 N 25.28 CA 25.45 C 29.63 O 30.29 CB 24.88 OG 28.04
A HIS H 36 -74.3 -33.2 N 25.33 CA 27.8 C 30.57 O 31.95 CB 28.68 CG 39.93 ND1 42.96 CD2 38.95 CE1 40.73 NE2 44.77
A TYR H 57 -63.3 -45.8 N 28.67 CA 31.78 C 29.27 O 31.55 CB 30.78 CG 28.45 CD1 35.05 CD2 28.15 CE1 38.05 CE2 30.57 CZ 38.44 OH 44.35
A LEU H 3 -60.2 -54.6 N 30.55 CA 27.53 C 33.01 O 25.33 CB 23.46 CG 29.54 CD1 23.08 CD2 30.83
A HIS H 12 -54.9 -50.3 N 27.58 CA 31.58 C 30.02 O 29.0 CB 31.18 CG 24.9 ND1 27.42 CD2 25.65 CE1 23.47 NE2 24.25
A ASN H 60 -87.3 -29.0 N 26.18 CA 29.04 C 34.78 O 38.2 CB 31.38 CG 41.17 OD1 44.09 ND2 45.64
A ASN H 25 -119.0 -28.0 N 32.0 CA 28.97 C 28.31 O 34.93 CB 34.55 CG 36.36 OD1 42.03 ND2 34.66
A VAL - 5 -90.4 100.9 N 30.05 CA 32.19 C 31.77 O 25.79 CB 35.15 CG1 37.5 CG2 31.23
A LYS - 16 -88.8 164.1 N 30.99 CA 29.7 C 31.28 O 33.24 CB 32.6 CG 37.63 CD 36.79 CE 36.8 NZ 40.46
A VAL T 42 -51.1 126.2 N 28.72 CA 28.14 C 27.81 O 26.99 CB 30.22 CG1 26.79 CG2 29.49
A GLY T 23 98.3 -18.3 N 29.63 CA 28.04 C 34.97 O 32.47
A ASP - 50 -81.0 165.4 N 33.83 CA 36.6 C 36.75 O 41.28 CB 38.87 CG 44.66 OD1 41.14 OD2 46.7
A SER E 67 -120.9 157.7 N 37.93 CA 43.75 C 46.11 O 45.35 CB 48.87 OG 59.19
A VAL E 6 -140.3 167.8 N 41.98 CA 38.32 C 33.27 O 36.46 CB 42.43 CG1 37.86 CG2 35.67
A LYS E 70 -103.7 133.2 N 33.42 CA 36.29 C 37.99 O 33.95 CB 46.38 CG 64.58 CD 74.6 CE 82.24 NZ 85.98
A LEU E 6 -128.7 135.0 N 29.12 CA 38.54 C 39.59 O 42.11 CB 36.7 CG 43.77 CD1 25.69 CD2 51.62
A TYR E 45 -105.8 150.8 N 34.22 CA 36.46 C 36.02 O 36.73 CB 28.98 CG 39.26 CD1 38.79 CD2 37.51 CE1 38.79 CE2 41.61 CZ 40.11 OH 40.48
A ALA E 56 -67.7 157.1 N 34.74 CA 33.71 C 33.98 O 35.52 CB 42.07
A PRO E 25 -59.7 143.0 N 37.66 CA 34.49 C 37.66 O 36.14 CB 38.5 CG 39.56 CD 40.68
A ALA E 43 -153.2 176.6 N 44.31 CA 39.84 C 34.77 O 29.84 CB 32.6
A GLY - 13 117.7 147.6 N 30.42 CA 35.5 C 38.41 O 33.28
A ASP S 163 -99.4 -1.7 N 43.39 CA 45.35 C 39.72 O 37.37 CB 54.06 CG 71.45 OD1 71.53 OD2 81.39
A PHE - 11 -100.8 116.1 N 36.22 CA 32.37 C 31.98 O 32.6 CB 28.64 CG 33.38 CD1 30.96 CD2 29.69 CE1 30.62 CE2 27.68 CZ 32.67
A PHE - 63 -165.9 156.8 N 30.4 CA 32.41 C 29.76 O 30.0 CB 27.78 CG 35.84 CD1 35.18 CD2 37.71 CE1 34.66 CE2 41.4 CZ 40.44
A TYR - 8 -69.5 134.8 N 27.64 CA 24.79 C 29.92 O 31.84 CB 21.99 CG 27.96 CD1 28.17 CD2 29.7 CE1 32.71 CE2 38.43 CZ 38.57 OH 38.05
A VAL - 52 -124.7 126.8 N 28.61 CA 29.27 C 34.03 O 34.48 CB 36.59 CG1 37.76 CG2 28.28
A GLU - 80 -67.4 118.9 N 34.06 CA 30.72 C 31.2 O 35.36 CB 32.28 CG 37.25 CD 47.4 OE1 41.75 OE2 47.04
A ARG - 100 -130.1 12.0 N 33.68 CA 39.65 C 39.25 O 33.74 CB 42.98 CG 42.57 CD 45.64 NE 47.37 CZ 47.4 NH1 46.73 NH2 48.15
A GLU S 180 58.0 35.8 N 30.18 CA 30.7 C 33.25 O 36.33 CB 32.99 CG 35.43 CD 58.01 OE1 67.88 OE2 61.24
A ARG S 81 -111.4 158.7 N 33.91 CA 35.53 C 32.56 O 31.99 CB 33.39 CG 31.88 CD 32.1 NE 38.77 CZ 45.17 NH1 47.94 NH2 41.85
A PRO - 48 -61.8 151.1 N 27.45 CA 29.86 C 32.96 O 31.84 CB 25.07 CG 29.19 CD 29.21
A VAL E 0 -124.1 125.9 N 29.09 CA 28.31 C 32.1 O 28.59 CB 28.5 CG1 25.75 CG2 27.85
A VAL E 0 -112.0 124.2 N 26.98 CA 24.66 C 26.61 O 26.99 CB 24.84 CG1 24.91 CG2 21.97
A LEU E 0 -108.1 128.6 N 22.91 CA 23.29 C 31.61 O 23.95 CB 21.15 CG 27.98 CD1 28.23 CD2 26.47
A ILE E 0 -133.2 124.6 N 26.55 CA 28.47 C 26.04 O 26.17 CB 29.35 CG1 29.32 CG2 20.23 CD1 25.09
A SER E 0 -153.8 168.1 N 20.44 CA 23.71 C 26.37 O 28.27 CB 24.49 OG 27.35
A ALA E 13 -137.6 139.8 N 20.91 CA 23.04 C 28.02 O 30.02 CB 20.38
A GLY G 28 59.4 -125.2 N 27.74 CA 32.94 C 28.98 O 27.42
A VAL G 21 -84.9 -6.8 N 32.66 CA 38.56 C 32.09 O 31.86 CB 42.95 CG1 39.59 CG2 36.51
A GLY G 1 -53.6 -21.5 N 31.88 CA 29.68 C 27.91 O 29.1
A ALA H 0 -65.2 -22.2 N 22.23 CA 26.99 C 25.93 O 23.65 CB 25.72
A THR H 2 -56.4 -57.5 N 22.65 CA 20.67 C 27.58 O 28.79 CB 22.61 OG1 22.86 CG2 23.51
A PRO H 0 -65.6 -29.3 N 24.48 CA 23.68 C 28.22 O 27.76 CB 31.03 CG 32.79 CD 24.33
A MET H 0 -63.3 -31.5 N 23.49 CA 27.3 C 32.27 O 28.5 CB 31.35 CG 31.21 SD 35.31 CE 42.45
A GLN H 0 -65.0 -38.7 N 29.35 CA 32.17 C 22.22 O 22.45 CB 28.47 CG 24.04 CD 30.37 OE1 32.72 NE2 27.3
A ALA H 0 -62.4 -40.3 N 22.41 CA 26.07 C 26.78 O 28.39 CB 19.37
A ILE H 0 -68.0 -48.6 N 30.19 CA 24.24 C 31.62 O 28.26 CB 23.4 CG1 23.65 CG2 22.85 CD1 25.24
A LEU H 0 -50.5 -50.7 N 28.93 CA 26.62 C 26.41 O 26.86 CB 24.75 CG 32.62 CD1 21.48 CD2 29.27
A HIS H 25 -61.7 -37.2 N 25.44 CA 27.71 C 31.2 O 29.92 CB 25.57 CG 32.44 ND1 32.66 CD2 28.43 CE1 27.74 NE2 33.78
A THR H 14 -66.9 -44.1 N 29.47 CA 23.5 C 28.69 O 26.72 CB 22.59 OG1 27.75 CG2 26.93
A LEU H 0 -68.4 -30.0 N 33.35 CA 31.3 C 28.7 O 27.99 CB 23.18 CG 28.11 CD1 34.42 CD2 27.73
A ALA H 10 -66.0 -50.1 N 27.16 CA 29.22 C 33.98 O 36.85 CB 26.7
A LYS H 124 -52.2 -39.8 N 28.49 CA 32.37 C 33.54 O 33.61 CB 36.94 CG 53.08 CD 66.59 CE 68.54 NZ 68.28
A GLN T 106 -89.3 5.9 N 34.79 CA 34.75 C 31.47 O 32.32 CB 33.61 CG 36.1 CD 42.35 OE1 43.51 NE2 42.67
A ASN T 127 52.3 39.1 N 26.17 CA 34.78 C 30.45 O 30.93 CB 37.46 CG 47.71 OD1 45.28 ND2 57.09
A LYS - 26 -70.5 136.1 N 30.48 CA 32.25 C 35.25 O 32.57 CB 36.68 CG 35.29 CD 35.29 CE 33.02 NZ 31.34
A SER - 93 -105.4 168.2 N 30.6 CA 29.1 C 31.78 O 33.27 CB 34.7 OG 39.44
A GLY S 43 72.7 46.9 N 32.39 CA 32.67 C 30.9 O 34.07
A VAL E 3 -111.2 129.6 N 22.67 CA 24.41 C 29.26 O 29.84 CB 26.97 CG1 21.94 CG2 22.45
A THR E 24 -117.3 129.2 N 28.51 CA 28.46 C 28.27 O 30.81 CB 27.07 OG1 27.77 CG2 23.77
A TYR E 2 -112.4 118.9 N 23.74 CA 19.99 C 20.65 O 21.68 CB 24.66 CG 25.5 CD1 21.84 CD2 28.58 CE1 21.37 CE2 26.84 CZ 26.32 OH 21.04
A LEU E 4 -117.2 124.7 N 21.85 CA 21.54 C 27.31 O 26.03 CB 24.72 CG 25.51 CD1 23.41 CD2 23.8
A TYR E 0 -135.0 134.0 N 21.77 CA 23.61 C 23.96 O 23.38 CB 23.93 CG 26.15 CD1 26.72 CD2 25.27 CE1 27.25 CE2 24.36 CZ 26.88 OH 31.39
A ALA E 15 -122.2 131.5 N 22.21 CA 23.62 C 23.71 O 25.24 CB 25.13
A CYS E 7 -143.5 179.6 N 20.56 CA 18.6 C 22.83 O 27.18 CB 18.34 SG 28.07
A ASN S 38 -78.1 -33.8 N 26.7 CA 29.23 C 30.71 O 33.78 CB 32.45 CG 39.41 OD1 32.99 ND2 37.93
A SER S 5 -169.7 176.0 N 23.21 CA 21.08 C 29.93 O 29.24 CB 22.48 OG 28.41
A ALA G 30 -56.2 -45.2 N 23.6 CA 27.71 C 22.62 O 21.82 CB 25.46
A LYS G 46 -66.1 -18.5 N 24.27 CA 29.57 C 21.45 O 21.62 CB 28.32 CG 31.13 CD 34.61 CE 40.16 NZ 41.82
A GLU G 33 -103.1 15.2 N 23.39 CA 29.13 C 26.49 O 28.55 CB 25.48 CG 24.97 CD 50.69 OE1 45.34 OE2 46.84
A HIS - 18 -82.9 84.7 N 23.07 CA 20.94 C 28.77 O 27.39 CB 24.55 CG 22.45 ND1 25.62 CD2 23.85 CE1 22.12 NE2 27.9
A THR T 3 -64.1 133.3 N 21.85 CA 19.43 C 22.79 O 21.78 CB 28.15 OG1 33.09 CG2 22.78
A PHE T 3 66.1 23.0 N 21.77 CA 21.98 C 26.29 O 29.44 CB 23.43 CG 19.29 CD1 21.47 CD2 27.77 CE1 27.48 CE2 23.96 CZ 25.12
A ALA H 22 -51.6 -51.0 N 22.49 CA 25.55 C 27.75 O 22.81 CB 23.18
A GLN H 64 -72.2 -43.6 N 24.41 CA 27.95 C 29.15 O 25.69 CB 25.75 CG 33.71 CD 45.35 OE1 45.2 NE2 55.74
A GLU H 49 -65.6 -41.5 N 26.27 CA 26.25 C 23.6 O 25.47 CB 29.17 CG 33.9 CD 46.95 OE1 38.91 OE2 47.5
A THR H 1 -67.2 -41.8 N 24.11 CA 23.59 C 25.95 O 27.38 CB 19.51 OG1 24.91 CG2 15.86
A ALA H 38 -58.8 -42.9 N 24.08 CA 29.18 C 28.36 O 27.74 CB 22.99
A GLN H 93 -63.2 -47.1 N 30.38 CA 29.53 C 24.76 O 27.49 CB 37.83 CG 51.0 CD 66.86 OE1 62.31 NE2 73.85
A LEU H 13 -57.1 -49.5 N 22.29 CA 27.87 C 27.12 O 29.48 CB 22.25 CG 36.28 CD1 36.34 CD2 31.7
A ILE H 22 -58.9 -45.8 N 26.08 CA 28.02 C 30.15 O 30.79 CB 30.03 CG1 28.78 CG2 28.72 CD1 35.41
A ALA H 86 -65.4 -26.2 N 27.41 CA 32.15 C 32.71 O 31.59 CB 37.5
A GLN H 124 -84.6 -34.9 N 35.31 CA 34.59 C 35.77 O 36.08 CB 39.58 CG 53.66 CD 66.05 OE1 71.3 NE2 66.29
A GLN H 49 -98.2 -4.4 N 29.47 CA 29.88 C 31.93 O 30.71 CB 25.44 CG 27.15 CD 31.45 OE1 36.9 NE2 28.32
A GLY T 66 65.8 37.7 N 35.95 CA 34.54 C 33.6 O 38.56
A TRP - 14 -96.6 -179.8 N 27.64 CA 26.94 C 34.52 O 27.4 CB 24.03 CG 25.81 CD1 26.49 CD2 22.41 NE1 30.01 CE2 30.81 CE3 26.76 CZ2 29.61 CZ3 27.49 CH2 31.73
A MET E 122 -120.5 143.2 N 24.16 CA 32.83 C 30.31 O 23.6 CB 39.67 CG 41.8 SD 47.22 CE 40.95
A GLN E 59 -141.3 149.2 N 27.89 CA 30.77 C 30.33 O 26.59 CB 30.64 CG 35.91 CD 31.34 OE1 28.94 NE2 30.7
A GLN E 44 -132.5 132.8 N 23.25 CA 27.36 C 29.19 O 26.22 CB 28.8 CG 28.62 CD 35.7 OE1 36.48 NE2 28.62
A VAL E 7 -113.6 140.9 N 22.71 CA 21.36 C 28.19 O 26.19 CB 28.28 CG1 29.54 CG2 22.04
A TRP E 5 -117.3 136.4 N 21.77 CA 22.45 C 28.81 O 26.28 CB 22.5 CG 24.12 CD1 25.79 CD2 24.35 NE1 26.62 CE2 24.77 CE3 24.76 CZ2 25.01 CZ3 23.3 CH2 23.1
A TYR E 15 -112.3 124.3 N 26.04 CA 24.54 C 32.43 O 27.52 CB 27.16 CG 27.21 CD1 24.15 CD2 27.87 CE1 23.82 CE2 28.05 CZ 25.99 OH 26.55
A ARG S 119 -67.2 -35.7 N 29.69 CA 31.23 C 34.7 O 31.06 CB 27.33 CG 32.87 CD 35.18 NE 33.74 CZ 34.43 NH1 29.76 NH2 32.18
A ASP S 89 -112.5 -1.1 N 30.97 CA 35.09 C 37.91 O 35.92 CB 35.2 CG 40.81 OD1 40.63 OD2 43.03
A GLU - 56 -157.8 169.4 N 35.56 CA 39.87 C 41.93 O 32.33 CB 38.11 CG 38.43 CD 44.14 OE1 49.29 OE2 41.57
A SER - 83 -101.6 162.5 N 42.34 CA 46.51 C 44.51 O 41.56 CB 51.19 OG 57.98
A ALA - 39 -162.2 161.4 N 46.42 CA 46.27 C 49.25 O 42.29 CB 46.03
A ASP T 163 -57.2 126.3 N 57.76 CA 58.63 C 57.87 O 60.84 CB 69.75 CG 84.01 OD1 85.8 OD2 88.46
A ASP T 144 58.2 34.6 N 54.22 CA 54.99 C 46.06 O 48.48 CB 64.99 CG 76.63 OD1 85.5 OD2 74.46
A VAL - 25 -131.3 155.6 N 39.0 CA 37.41 C 36.49 O 39.24 CB 32.44 CG1 31.2 CG2 38.49
A LEU E 70 -96.8 139.9 N 31.69 CA 31.7 C 34.31 O 33.95 CB 33.34 CG 37.55 CD1 36.27 CD2 40.66
A GLN E 118 -90.6 127.8 N 39.4 CA 41.5 C 39.81 O 49.19 CB 39.87 CG 46.55 CD 55.9 OE1 58.25 NE2 48.95
A GLY S 23 122.4 -160.8 N 41.67 CA 38.49 C 35.2 O 35.82
A GLU S 97 -78.6 152.6 N 34.58 CA 38.66 C 35.01 O 31.91 CB 45.33 CG 64.31 CD 71.48 OE1 79.02 OE2 61.61
A MET - 1 -67.3 112.8 N 38.94 CA 35.24 C 39.49 O 44.75 CB 26.38 CG 29.9 SD 31.37 CE 23.95
A GLN - 114 -116.2 126.2 N 43.13 CA 42.4 C 40.32 O 40.86 CB 55.22 CG 64.88 CD 77.35 OE1 84.02 NE2 80.79
A LEU - 1 -96.1 -12.7 N 33.9 CA 37.76 C 43.14 O 44.14 CB 33.29 CG 38.71 CD1 41.48 CD2 33.15
A ALA T 81 -62.4 -25.8 N 43.56 CA 44.91 C 43.99 O 47.62 CB 45.11
A GLU T 120 -112.5 7.9 N 40.02 CA 50.78 C 44.08 O 43.37 CB 58.5 CG 70.26 CD 77.75 OE1 73.88 OE2 85.29
A LEU S 42 -87.9 147.5 N 31.14 CA 38.02 C 40.5 O 38.06 CB 35.19 CG 37.03 CD1 33.98 CD2 36.36
A ILE - 169 -78.2 114.2 N 35.37 CA 35.25 C 39.77 O 47.59 CB 38.1 CG1 34.93 CG2 33.11 CD1 37.28
A LEU - 24 -143.7 149.0 N 28.06 CA 26.8 C 30.53 O 29.88 CB 30.46 CG 33.63 CD1 37.75 CD2 28.92
A PRO - 33 -84.7 68.5 N 30.35 CA 29.34 C 32.94 O 28.66 CB 27.9 CG 29.69 CD 28.21
A ILE T 29 -56.7 -46.9 N 36.25 CA 35.87 C 40.23 O 35.88 CB 38.52 CG1 35.59 CG2 36.1 CD1 27.04
A GLU T 138 -74.7 -37.7 N 45.14 CA 49.95 C 47.02 O 45.06 CB 58.21 CG 76.9 CD 90.48 OE1 97.68 OE2 90.24
A ASP T 114 -113.4 -17.7 N 39.56 CA 40.25 C 38.75 O 42.74 CB 44.8 CG 57.31 OD1 58.65 OD2 69.66
A GLY - 0 -69.3 153.7 N 35.54 CA 27.66 C 29.26 O 29.19
A ASP E 1 -93.9 127.7 N 27.84 CA 29.48 C 27.81 O 27.7 CB 32.11 CG 41.87 OD1 43.71 OD2 42.72
A PHE E 0 -108.9 115.3 N 27.75 CA 29.17 C 32.53 O 29.82 CB 22.47 CG 22.88 CD1 26.11 CD2 21.95 CE1 29.35 CE2 28.74 CZ 27.55
A TYR E 2 -107.2 131.3 N 25.45 CA 31.34 C 32.16 O 29.34 CB 26.12 CG 28.88 CD1 30.6 CD2 27.07 CE1 31.6 CE2 32.67 CZ 36.14 OH 46.62
A LEU E 0 -128.3 135.4 N 29.79 CA 27.81 C 30.79 O 34.28 CB 34.33 CG 41.0 CD1 40.24 CD2 41.5
A CYS E 0 -146.9 131.6 N 26.78 CA 26.06 C 31.05 O 29.33 CB 25.26 SG 39.93
A GLY E 0 163.9 -172.1 N 28.61 CA 27.3 C 30.58 O 29.02
A PRO - 40 -63.7 155.5 N 28.39 CA 36.01 C 36.42 O 28.15 CB 37.09 CG 33.52 CD 29.04
A ILE H 86 -54.9 -43.1 N 38.38 CA 34.59 C 34.03 O 33.74 CB 37.41 CG1 37.18 CG2 40.68 CD1 35.54
A GLY H 50 -59.9 -49.7 N 34.58 CA 34.25 C 34.13 O 34.09
A PHE H 24 -59.5 -43.9 N 35.16 CA 30.59 C 31.43 O 31.35 CB 28.19 CG 37.09 CD1 37.28 CD2 36.52 CE1 36.11 CE2 35.17 CZ 35.22
A MET H 3 -58.3 -49.1 N 29.62 CA 27.35 C 31.68 O 30.91 CB 31.33 CG 32.53 SD 22.96 CE 37.42
A GLN H 89 -58.8 -46.0 N 32.25 CA 34.86 C 33.9 O 34.22 CB 34.58 CG 42.2 CD 39.85 OE1 42.8 NE2 39.51
A TYR H 72 -55.7 -46.2 N 30.2 CA 30.48 C 33.34 O 28.14 CB 31.47 CG 41.34 CD1 45.34 CD2 44.02 CE1 50.92 CE2 51.23 CZ 53.08 OH 54.19
A VAL H 0 -74.3 -44.4 N 27.53 CA 27.93 C 32.06 O 31.39 CB 29.62 CG1 32.26 CG2 32.27
A VAL H 30 -59.0 -44.2 N 30.67 CA 29.82 C 36.07 O 40.31 CB 35.57 CG1 33.08 CG2 31.71
A LYS H 133 -57.6 -44.0 N 32.4 CA 34.34 C 38.01 O 39.37 CB 32.06 CG 34.05 CD 36.51 CE 42.8 NZ 49.39
A GLN H 36 -59.3 -44.9 N 34.88 CA 37.31 C 38.9 O 36.64 CB 35.23 CG 33.8 CD 40.84 OE1 41.96 NE2 38.31
A LEU H 0 -60.7 -46.9 N 35.78 CA 37.77 C 35.74 O 35.39 CB 32.09 CG 29.19 CD1 27.87 CD2 25.21
A LEU H 85 -63.0 -44.0 N 36.04 CA 39.24 C 42.56 O 46.03 CB 44.54 CG 42.34 CD1 39.49 CD2 41.44
A ALA H 93 -61.4 -27.7 N 38.96 CA 39.0 C 40.41 O 38.32 CB 37.47
A LEU H 65 -80.9 -17.7 N 32.99 CA 38.93 C 43.45 O 40.62 CB 36.89 CG 40.09 CD1 39.3 CD2 39.4
A GLY T 43 111.5 11.4 N 40.99 CA 40.39 C 42.33 O 42.2
A VAL - 4 -71.5 127.3 N 34.2 CA 37.06 C 40.16 O 37.21 CB 35.0 CG1 24.3 CG2 35.2
A ASP - 87 -67.2 141.4 N 38.44 CA 40.68 C 39.54 O 35.38 CB 52.64 CG 65.98 OD1 75.34 OD2 71.71
A LYS G 166 -61.0 -32.5 N 37.88 CA 39.45 C 38.6 O 34.0 CB 41.78 CG 38.44 CD 41.89 CE 65.01 NZ 66.56
A ALA G 67 -63.8 -12.9 N 33.79 CA 40.02 C 38.42 O 41.26 CB 39.51
A ARG G 29 -107.8 14.2 N 30.69 CA 30.54 C 32.4 O 26.44 CB 31.21 CG 32.59 CD 36.0 NE 36.73 CZ 37.58 NH1 34.87 NH2 36.85
A ILE E 22 -110.4 119.9 N 32.48 CA 30.26 C 35.22 O 35.03 CB 32.0 CG1 30.58 CG2 32.31 CD1 34.2
A HIS E 35 -122.7 138.2 N 32.91 CA 29.81 C 36.43 O 34.06 CB 30.75 CG 36.45 ND1 38.19 CD2 38.33 CE1 45.08 NE2 43.04
A TYR E 143 -152.0 156.2 N 29.05 CA 29.91 C 33.04 O 34.43 CB 30.0 CG 37.42 CD1 37.68 CD2 49.66 CE1 48.59 CE2 58.36 CZ 56.95 OH 64.08
A GLU E 28 -140.2 130.8 N 31.74 CA 31.65 C 33.91 O 32.01 CB 33.59 CG 43.52 CD 61.71 OE1 63.13 OE2 75.01
A VAL E 62 -102.1 127.9 N 33.03 CA 33.67 C 37.02 O 39.75 CB 38.4 CG1 36.47 CG2 34.28
A PHE - 62 -154.5 144.8 N 37.33 CA 43.5 C 52.76 O 54.32 CB 49.4 CG 50.72 CD1 52.11 CD2 43.37 CE1 49.13 CE2 48.41 CZ 40.53
A GLY - 25 -124.4 -123.7 N 63.14 CA 72.04 C 82.3 O 87.3
A PRO - 119 -92.7 360.0 N 87.63 CA 85.96 C 77.9 O 73.88 CB 92.05 CG 94.16 CD 90.43
B ASP - 76 360.0 96.7 N 57.6 CA 52.14 C 45.7 O 47.18 CB 57.13 CG 57.08 OD1 63.25 OD2 45.63
B GLY T 46 -55.7 -11.3 N 40.14 CA 43.13 C 43.15 O 45.41
B ARG T 86 -88.4 -16.4 N 41.75 CA 35.17 C 31.77 O 30.31 CB 38.12 CG 38.79 CD 47.05 NE 52.84 CZ 57.68 NH1 55.94 NH2 64.93
B THR E 17 -79.0 119.7 N 25.55 CA 29.18 C 29.67 O 28.98 CB 33.91 OG1 30.25 CG2 29.34
B PHE E 4 -123.6 147.4 N 25.83 CA 23.73 C 30.72 O 28.77 CB 21.83 CG 25.96 CD1 21.11 CD2 23.37 CE1 26.65 CE2 23.94 CZ 28.45
B VAL E 36 -110.4 149.3 N 25.25 CA 24.96 C 23.88 O 19.76 CB 27.68 CG1 23.19 CG2 26.93
B VAL E 2 -81.6 117.6 N 22.34 CA 22.71 C 23.07 O 21.16 CB 21.74 CG1 23.78 CG2 19.23
B ARG E 106 -94.5 -28.8 N 20.87 CA 20.78 C 23.9 O 26.9 CB 28.13 CG 42.42 CD 53.36 NE 65.0 CZ 73.71 NH1 83.03 NH2 66.87
B GLU E 48 -145.7 150.9 N 21.74 CA 24.6 C 22.25 O 20.52 CB 30.84 CG 45.01 CD 63.04 OE1 69.98 OE2 67.36
B LYS E 4 -141.6 106.7 N 23.87 CA 26.43 C 30.06 O 29.9 CB 23.34 CG 21.44 CD 23.01 CE 24.08 NZ 24.3
B GLN E 33 -121.3 116.6 N 28.34 CA 28.82 C 27.05 O 23.69 CB 29.95 CG 41.55 CD 48.7 OE1 33.02 NE2 41.2
B VAL E 14 -65.5 124.2 N 26.06 CA 30.4 C 30.97 O 29.96 CB 32.31 CG1 27.77 CG2 28.01
B GLU - 22 -97.6 -38.8 N 25.45 CA 29.05 C 33.62 O 38.23 CB 30.97 CG 32.06 CD 43.49 OE1 50.66 OE2 45.71
B SER S 3 -155.9 -167.5 N 28.92 CA 29.43 C 29.57 O 29.27 CB 31.56 OG 31.15
B ALA S 18 -52.9 -39.7 N 30.71 CA 27.42 C 27.99 O 28.01 CB 28.48
B TYR S 67 -118.0 -6.3 N 28.54 CA 25.62 C 28.65 O 25.91 CB 29.97 CG 37.24 CD1 38.6 CD2 40.64 CE1 46.47 CE2 48.48 CZ 48.94 OH 57.33
B VAL E 4 -111.0 127.5 N 22.94 CA 25.7 C 27.4 O 29.24 CB 26.43 CG1 26.29 CG2 28.35
B THR E 9 -128.6 137.9 N 23.01 CA 22.23 C 26.3 O 24.37 CB 25.98 OG1 24.92 CG2 24.33
B SER E 0 -95.8 151.6 N 21.93 CA 26.92 C 29.15 O 28.47 CB 27.88 OG 29.12
B PHE E 2 -129.6 121.4 N 24.85 CA 21.36 C 27.32 O 23.14 CB 18.66 CG 27.06 CD1 22.01 CD2 26.98 CE1 23.11 CE2 25.9 CZ 22.0
B VAL E 4 -96.5 126.1 N 28.52 CA 27.63 C 26.02 O 25.24 CB 29.31 CG1 26.2 CG2 28.9
B LEU E 2 -124.8 136.2 N 25.65 CA 22.71 C 20.55 O 21.16 CB 23.83 CG 27.91 CD1 30.02 CD2 25.14
B VAL E 29 -131.4 154.2 N 18.03 CA 31.11 C 28.86 O 23.81 CB 31.69 CG1 29.3 CG2 31.59
B PRO E 37 -62.8 137.2 N 30.66 CA 28.47 C 31.97 O 35.68 CB 31.52 CG 32.69 CD 30.94
B ALA S 61 -96.8 -53.6 N 40.34 CA 48.98 C 65.67 O 70.36 CB 48.75
B ASP S 94 -101.4 48.0 N 72.93 CA 74.89 C 70.69 O 70.34 CB 73.35 CG 86.98 OD1 89.9 OD2 89.46
B GLY S 76 78.1 8.1 N 62.99 CA 62.2 C 59.94 O 62.67
B GLY - 19 -70.1 -167.3 N 49.05 CA 48.79 C 47.24 O 43.15
B ALA - 62 -157.1 159.9 N 50.05 CA 51.63 C 59.39 O 62.96 CB 55.1
B VAL - 18 -97.0 109.2 N 55.04 CA 45.2 C 40.87 O 36.47 CB 44.49 CG1 28.12 CG2 41.34
B LEU - 93 -81.3 154.1 N 36.2 CA 35.53 C 30.91 O 25.51 CB 38.1 CG 41.97 CD1 47.13 CD2 37.98
B ASP - 130 -71.6 160.6 N 27.18 CA 27.35 C 26.29 O 25.78 CB 32.0 CG 35.69 OD1 30.92 OD2 41.25
B TYR - 16 -160.3 166.7 N 23.8 CA 22.77 C 27.4 O 23.48 CB 24.29 CG 24.69 CD1 19.84 CD2 18.3 CE1 22.32 CE2 18.97 CZ 22.65 OH 23.61
B GLN - 107 -94.6 136.0 N 24.92 CA 27.3 C 25.31 O 27.77 CB 27.64 CG 25.58 CD 33.67 OE1 32.15 NE2 36.54
B PRO T 6 -58.3 132.2 N 30.47 CA 27.03 C 23.66 O 24.81 CB 25.44 CG 30.44 CD 26.5
B GLY T 0 116.7 -28.6 N 26.35 CA 20.86 C 26.81 O 30.12
B GLN - 30 -74.6 167.4 N 27.73 CA 27.8 C 28.29 O 24.86 CB 20.63 CG 22.88 CD 29.63 OE1 27.63 NE2 28.99
B TYR E 73 -127.9 160.4 N 20.93 CA 24.17 C 24.59 O 27.11 CB 16.69 CG 22.81 CD1 24.31 CD2 20.56 CE1 22.92 CE2 21.86 CZ 29.28 OH 35.38
B ILE E 0 -113.7 163.6 N 25.12 CA 25.91 C 27.8 O 29.33 CB 22.01 CG1 21.19 CG2 18.27 CD1 29.66
B GLY E 6 -100.2 137.2 N 25.63 CA 24.58 C 25.89 O 26.34
B ILE E 2 -115.6 128.7 N 23.34 CA 24.27 C 29.27 O 25.48 CB 29.63 CG1 39.85 CG2 34.74 CD1 47.9
B GLU E 19 -115.5 126.9 N 23.4 CA 23.19 C 29.87 O 30.68 CB 27.45 CG 32.04 CD 43.61 OE1 50.68 OE2 53.58
B VAL E 10 -137.8 171.7 N 25.02 CA 24.01 C 29.92 O 25.3 CB 32.02 CG1 29.36 CG2 31.61
B THR - 73 -123.1 98.0 N 27.39 CA 29.25 C 31.28 O 31.61 CB 39.73 OG1 40.81 CG2 43.39
B PRO - 5 -63.6 162.9 N 30.79 CA 38.13 C 40.79 O 38.82 CB 40.47 CG 38.22 CD 32.4
B GLU S 111 -66.8 141.1 N 52.14 CA 54.81 C 59.97 O 58.0 CB 60.42 CG 71.28 CD 83.82 OE1 87.63 OE2 87.49
B GLY S 79 78.8 -35.2 N 61.14 CA 68.28 C 73.44 O 74.05
B SER - 36 -68.8 146.0 N 73.24 CA 70.3 C 63.74 O 57.14 CB 71.9 OG 75.49
B ASP S 134 -80.3 -27.0 N 61.28 CA 58.62 C 52.52 O 51.19 CB 64.24 CG 68.86 OD1 70.68 OD2 66.01
B TYR S 159 -112.6 151.2 N 36.55 CA 36.25 C 33.45 O 32.39 CB 35.84 CG 37.89 CD1 44.96 CD2 40.06 CE1 47.72 CE2 41.94 CZ 43.94 OH 47.23
B ARG - 157 -71.7 149.5 N 31.68 CA 29.23 C 30.05 O 29.67 CB 29.43 CG 34.09 CD 39.69 NE 41.3 CZ 46.03 NH1 52.26 NH2 36.91
B GLU E 44 -134.2 141.2 N 29.12 CA 29.02 C 30.37 O 30.93 CB 24.94 CG 29.74 CD 40.3 OE1 44.29 OE2 43.64
B ILE E 62 -127.6 130.7 N 22.5 CA 31.09 C 29.13 O 29.0 CB 34.19 CG1 41.2 CG2 36.31 CD1 43.29
B ARG E 86 -132.8 151.3 N 25.44 CA 24.1 C 26.75 O 25.33 CB 20.86 CG 20.83 CD 22.94 NE 24.58 CZ 32.97 NH1 34.6 NH2 29.19
B GLN E 116 -92.0 142.6 N 20.24 CA 20.34 C 23.04 O 27.88 CB 18.85 CG 30.26 CD 42.22 OE1 42.03 NE2 45.95
B TYR E 38 -140.1 129.6 N 23.17 CA 23.4 C 28.26 O 23.05 CB 21.74 CG 25.75 CD1 22.29 CD2 22.4 CE1 28.67 CE2 27.13 CZ 29.7 OH 33.14
B SER E 7 -63.1 140.0 N 21.59 CA 22.22 C 24.46 O 25.2 CB 22.8 OG 30.48
B LEU B 0 -62.2 137.7 N 20.44 CA 23.08 C 22.46 O 26.05 CB 21.78 CG 30.61 CD1 19.36 CD2 29.5
B SER - 0 -114.4 12.0 N 21.53 CA 21.1 C 24.64 O 28.69 CB 20.27 OG 28.17
B HIS S 66 -142.4 175.4 N 26.13 CA 22.86 C 26.61 O 27.61 CB 27.23 CG 34.2 ND1 33.19 CD2 32.99 CE1 29.64 NE2 37.99
B ALA - 3 -78.0 148.1 N 27.47 CA 30.44 C 26.37 O 27.16 CB 22.81
B SER - 22 -66.4 126.9 N 30.3 CA 26.98 C 29.49 O 34.23 CB 28.27 OG 28.73
B ASN - 49 -133.9 -0.3 N 29.7 CA 32.44 C 27.23 O 31.01 CB 39.38 CG 43.21 OD1 29.65 ND2 50.96
B GLY S 43 77.4 8.1 N 26.03 CA 27.78 C 34.48 O 37.63
B ARG S 159 -121.5 -41.2 N 30.44 CA 34.96 C 36.66 O 38.75 CB 36.4 CG 49.13 CD 55.84 NE 66.69 CZ 71.83 NH1 74.26 NH2 70.55
B GLU - 48 -154.0 157.2 N 29.22 CA 28.78 C 30.82 O 29.14 CB 32.14 CG 45.8 CD 75.61 OE1 83.15 OE2 87.39
B TYR E 2 -110.5 147.5 N 25.47 CA 23.23 C 28.72 O 28.15 CB 20.01 CG 21.3 CD1 27.61 CD2 23.32 CE1 23.87 CE2 24.19 CZ 26.21 OH 27.28
B ARG E 17 -125.6 133.7 N 25.32 CA 21.59 C 21.73 O 19.7 CB 21.57 CG 23.64 CD 24.48 NE 28.29 CZ 30.47 NH1 25.74 NH2 26.97
B ILE E 2 -127.7 159.7 N 22.85 CA 25.07 C 25.54 O 24.36 CB 26.62 CG1 24.0 CG2 20.75 CD1 34.4
B SER E 4 -135.7 118.5 N 22.14 CA 26.58 C 24.19 O 24.78 CB 27.92 OG 28.84
B VAL E 1 -112.5 120.1 N 22.52 CA 23.52 C 25.83 O 28.48 CB 27.34 CG1 30.01 CG2 22.32
B LYS E 59 -76.2 132.3 N 26.85 CA 29.99 C 31.17 O 31.96 CB 32.26 CG 36.27 CD 46.45 CE 57.88 NZ 64.78
B ARG - 47 -67.3 105.2 N 33.22 CA 35.53 C 43.96 O 41.18 CB 37.98 CG 50.11 CD 56.09 NE 64.22 CZ 65.66 NH1 60.11 NH2 71.6
B GLU T 107 -85.7 139.5 N 42.89 CA 51.4 C 52.02 O 46.19 CB 60.22 CG 75.09 CD 86.63 OE1 88.63 OE2 90.65
B GLY T 18 63.9 35.1 N 53.18 CA 58.32 C 59.33 O 62.2
B VAL T 52 -56.2 138.3 N 62.83 CA 71.34 C 82.87 O 88.67 CB 72.7 CG1 56.33 CG2 79.62
B GLY T 93 48.9 36.7 N 88.85 CA 97.58 C 107.72 O 114.42
B SER S 54 -121.9 -172.8 N 108.76 CA 114.59 C 114.42 O 112.59 CB 113.3 OG 110.46
B ASP S 150 -62.8 -44.0 N 116.93 CA 117.43 C 107.83 O 108.35 CB 120.43 CG 117.81 OD1 111.97 OD2 118.95
B ASN S 134 -131.5 88.7 N 93.73 CA 87.4 C 77.67 O 78.13 CB 90.2 CG 97.29 OD1 100.44 ND2 96.28
B PRO - 68 -64.5 125.6 N 65.56 CA 59.61 C 51.29 O 57.98 CB 55.84 CG 60.53 CD 69.16
B GLY - 18 -50.3 137.1 N 47.7 CA 44.56 C 48.21 O 45.74
B LEU H 83 -73.8 -53.6 N 31.15 CA 30.86 C 28.52 O 26.54 CB 34.66 CG 40.16 CD1 40.64 CD2 42.02
B VAL H 1 -76.3 -41.6 N 27.41 CA 26.79 C 24.53 O 22.12 CB 32.18 CG1 27.88 CG2 30.26
B SER H 9 -60.6 -43.6 N 21.89 CA 24.78 C 24.24 O 29.11 CB 25.11 OG 25.42
B HIS H 32 -65.1 -43.9 N 27.24 CA 27.06 C 28.54 O 26.25 CB 25.42 CG 32.47 ND1 30.74 CD2 34.92 CE1 35.62 NE2 37.35
B TYR H 60 -59.8 -45.7 N 25.62 CA 25.19 C 19.99 O 27.88 CB 24.37 CG 27.93 CD1 29.28 CD2 29.3 CE1 32.88 CE2 21.9 CZ 31.03 OH 43.3
B LEU H 3 -58.5 -48.8 N 23.35 CA 22.44 C 25.02 O 24.26 CB 22.46 CG 31.93 CD1 30.59 CD2 32.31
B HIS H 7 -63.1 -49.2 N 21.08 CA 23.27 C 25.37 O 27.05 CB 25.69 CG 23.09 ND1 24.76 CD2 23.36 CE1 28.49 NE2 28.38
B ASN H 39 -84.9 -28.6 N 23.9 CA 28.87 C 29.87 O 28.23 CB 37.69 CG 48.06 OD1 58.62 ND2 41.03
B ASN H 20 -121.6 -24.9 N 21.76 CA 26.78 C 24.1 O 26.6 CB 25.18 CG 31.4 OD1 36.03 ND2 23.78
B VAL - 5 -90.9 101.2 N 23.91 CA 23.76 C 27.76 O 23.83 CB 27.64 CG1 23.83 CG2 23.11
B LYS - 16 -91.1 161.9 N 23.25 CA 25.9 C 32.47 O 24.01 CB 23.7 CG 38.07 CD 34.61 CE 31.18 NZ 34.42
B VAL T 41 -48.2 133.5 N 23.4 CA 24.2 C 25.28 O 25.7 CB 25.0 CG1 26.27 CG2 24.36
B GLY T 23 92.7 -12.1 N 25.58 CA 26.77 C 28.45 O 28.44
B ASP - 52 -92.1 158.2 N 25.97 CA 26.35 C 31.63 O 32.88 CB 24.24 CG 42.24 OD1 38.81 OD2 40.68
B SER E 72 -112.2 160.9 N 28.28 CA 31.17 C 30.08 O 33.78 CB 36.39 OG 43.68
B VAL E 8 -138.7 170.8 N 25.99 CA 26.89 C 27.62 O 27.8 CB 28.76 CG1 29.66 CG2 22.32
B LYS E 57 -106.4 142.5 N 23.07 CA 26.65 C 30.55 O 25.38 CB 34.42 CG 43.9 CD 56.52 CE 61.12 NZ 62.49
B LEU E 8 -129.8 140.2 N 22.61 CA 28.36 C 27.19 O 25.34 CB 26.97 CG 32.22 CD1 24.8 CD2 44.32
B TYR E 78 -113.9 147.4 N 25.18 CA 27.22 C 28.1 O 30.26 CB 22.32 CG 31.4 CD1 34.24 CD2 38.13 CE1 34.83 CE2 41.03 CZ 37.72 OH 42.83
B ALA E 58 -60.0 150.4 N 29.0 CA 27.24 C 21.98 O 28.62 CB 33.88
B PRO E 23 -51.3 142.6 N 28.58 CA 30.2 C 32.78 O 29.3 CB 27.0 CG 31.61 CD 33.32
B ALA E 45 -159.4 172.8 N 30.54 CA 27.06 C 24.82 O 23.73 CB 21.02
B GLY - 20 135.8 150.7 N 25.93 CA 26.44 C 24.89 O 24.96
B ASP S 135 -88.1 -6.3 N 26.82 CA 26.08 C 28.76 O 34.75 CB 28.64 CG 41.17 OD1 44.98 OD2 49.25
B PHE - 7 -115.3 123.5 N 27.98 CA 28.56 C 26.27 O 23.44 CB 30.26 CG 30.12 CD1 28.52 CD2 33.47 CE1 30.38 CE2 29.8 CZ 36.99
B PHE - 69 -170.9 151.6 N 25.66 CA 29.92 C 30.25 O 25.06 CB 22.31 CG 24.61 CD1 21.72 CD2 30.29 CE1 26.46 CE2 31.54 CZ 29.62
B TYR - 11 -63.5 139.8 N 28.06 CA 31.5 C 33.84 O 34.47 CB 31.0 CG 30.7 CD1 33.49 CD2 31.35 CE1 36.42 CE2 31.84 CZ 32.52 OH 37.1
B VAL - 53 -126.1 131.8 N 30.71 CA 31.35 C 37.4 O 36.66 CB 37.28 CG1 30.17 CG2 40.37
B GLU - 75 -78.0 117.6 N 33.0 CA 37.04 C 39.18 O 36.15 CB 32.19 CG 43.84 CD 46.08 OE1 48.22 OE2 44.14
B ARG - 92 -122.3 16.3 N 36.43 CA 41.6 C 44.64 O 46.43 CB 44.69 CG 45.35 CD 45.43 NE 53.6 CZ 53.45 NH1 53.72 NH2 54.55
B GLU S 145 40.9 44.3 N 41.48 CA 44.5 C 44.36 O 48.59 CB 44.73 CG 62.53 CD 78.22 OE1 79.09 OE2 84.67
B ARG S 134 -123.3 166.0 N 47.71 CA 48.33 C 42.09 O 38.85 CB 49.04 CG 53.39 CD 59.62 NE 73.12 CZ 80.94 NH1 85.08 NH2 77.93
B PRO - 34 -54.4 156.6 N 40.02 CA 39.09 C 41.08 O 40.25 CB 37.78 CG 44.05 CD 39.99
B VAL E 2 -131.3 131.2 N 37.08 CA 32.06 C 38.4 O 38.4 CB 29.23 CG1 30.02 CG2 30.4
B VAL E 0 -124.9 124.1 N 36.92 CA 29.37 C 38.09 O 33.24 CB 37.83 CG1 36.0 CG2 34.94
B LEU E 0 -109.6 125.9 N 35.21 CA 35.56 C 35.21 O 37.75 CB 29.0 CG 32.28 CD1 31.66 CD2 25.57
B ILE E 1 -130.3 127.0 N 31.93 CA 31.22 C 33.87 O 38.51 CB 33.32 CG1 39.31 CG2 36.6 CD1 37.84
B SER E 0 -151.4 172.3 N 36.54 CA 29.63 C 37.42 O 38.19 CB 27.24 OG 33.1
B ALA E 10 -139.6 146.4 N 36.87 CA 39.56 C 38.47 O 38.41 CB 37.6
B GLY G 23 62.0 -134.7 N 33.83 CA 34.3 C 35.35 O 32.92
B VAL G 25 -82.0 -3.1 N 35.7 CA 37.75 C 34.72 O 33.6 CB 35.5 CG1 37.05 CG2 23.03
B GLY G 1 -64.9 -10.5 N 31.19 CA 27.37 C 28.75 O 34.5
B ALA H 0 -63.7 -22.3 N 30.86 CA 25.88 C 30.04 O 27.34 CB 26.42
B THR H 3 -57.3 -52.2 N 27.09 CA 26.12 C 26.47 O 22.73 CB 22.83 OG1 23.86 CG2 24.39
B PRO H 0 -70.0 -28.5 N 27.69 CA 27.21 C 31.56 O 28.93 CB 28.88 CG 29.89 CD 29.18
B MET H 0 -62.8 -34.1 N 30.01 CA 26.37 C 25.91 O 30.75 CB 23.83 CG 26.06 SD 34.34 CE 36.14
B GLN H 0 -64.1 -38.4 N 23.76 CA 23.44 C 26.79 O 22.76 CB 22.81 CG 26.29 CD 27.73 OE1 29.8 NE2 27.58
B ALA H 0 -65.5 -42.4 N 26.61 CA 24.87 C 28.35 O 24.86 CB 21.12
B ILE H 0 -64.7 -44.4 N 26.97 CA 29.73 C 29.61 O 34.79 CB 27.37 CG1 25.95 CG2 26.11 CD1 29.89
B LEU H 0 -56.5 -49.1 N 28.39 CA 31.42 C 31.32 O 27.82 CB 32.53 CG 36.97 CD1 41.18 CD2 29.12
B HIS H 19 -65.4 -31.3 N 23.4 CA 27.25 C 27.94 O 26.15 CB 29.73 CG 32.11 ND1 37.82 CD2 29.94 CE1 37.4 NE2 34.96
B THR H 15 -71.0 -44.4 N 29.7 CA 26.91 C 31.12 O 27.66 CB 28.16 OG1 27.74 CG2 30.78
B LEU H 0 -65.4 -36.6 N 24.71 CA 29.0 C 35.96 O 30.41 CB 29.02 CG 28.73 CD1 33.36 CD2 28.83
B ALA H 11 -61.3 -45.6 N 36.96 CA 35.76 C 38.49 O 36.83 CB 30.8
B LYS H 132 -64.6 -21.2 N 35.36 CA 39.03 C 45.69 O 47.94 CB 37.96 CG 47.56 CD 50.51 CE 49.86 NZ 43.08
B GLN H 114 -97.1 -3.7 N 48.46 CA 46.61 C 44.54 O 45.81 CB 45.35 CG 34.65 CD 62.66 OE1 63.9 NE2 55.16
B ASN T 123 49.8 41.6 N 40.35 CA 51.07 C 50.86 O 48.37 CB 62.26 CG 69.61 OD1 67.77 ND2 73.03
B LYS - 26 -59.7 127.8 N 47.85 CA 44.76 C 43.92 O 50.06 CB 34.38 CG 37.82 CD 34.59 CE 33.59 NZ 34.78
B SER S 102 -84.6 165.0 N 38.54 CA 39.8 C 41.4 O 42.6 CB 44.12 OG 55.96
B GLY S 40 72.4 44.8 N 39.95 CA 41.34 C 42.27 O 44.31
B VAL E 3 -109.1 129.9 N 38.61 CA 31.94 C 39.21 O 34.02 CB 35.7 CG1 28.61 CG2 34.32
B THR E 29 -122.9 135.6 N 34.04 CA 38.45 C 38.23 O 34.93 CB 37.73 OG1 43.53 CG2 37.68
B TYR E 2 -121.8 116.3 N 38.05 CA 34.5 C 39.16 O 43.04 CB 29.11 CG 31.28 CD1 34.05 CD2 30.85 CE1 33.25 CE2 32.99 CZ 36.61 OH 33.49
B LEU E 3 -116.9 123.1 N 32.74 CA 36.29 C 35.1 O 28.83 CB 33.5 CG 38.75 CD1 41.46 CD2 42.14
B TYR E 0 -137.4 137.1 N 36.83 CA 33.43 C 34.66 O 36.85 CB 34.09 CG 36.61 CD1 34.05 CD2 36.82 CE1 32.36 CE2 36.91 CZ 32.1 OH 38.94
B ALA E 12 -123.0 139.2 N 31.48 CA 37.48 C 38.6 O 36.16 CB 38.52
B CYS E 7 -151.9 168.5 N 36.34 CA 35.59 C 39.02 O 39.65 CB 31.79 SG 41.4
B ASN S 50 -71.6 -32.4 N 39.55 CA 42.57 C 43.19 O 42.26 CB 49.34 CG 54.25 OD1 56.91 ND2 53.71
B SER S 11 -166.8 176.2 N 46.36 CA 47.23 C 44.0 O 38.76 CB 46.99 OG 47.31
B ALA G 28 -56.3 -41.8 N 38.96 CA 41.57 C 40.32 O 40.49 CB 40.24
B LYS G 41 -68.0 -20.4 N 40.03 CA 40.52 C 39.99 O 35.27 CB 45.07 CG 47.04 CD 56.24 CE 63.39 NZ 67.65
B GLU G 26 -103.7 20.9 N 34.33 CA 34.45 C 36.0 O 36.04 CB 34.11 CG 40.31 CD 54.01 OE1 54.16 OE2 58.3
B HIS - 19 -84.6 86.1 N 40.0 CA 33.08 C 33.44 O 36.54 CB 31.39 CG 41.22 ND1 44.14 CD2 32.72 CE1 41.65 NE2 35.2
B THR T 3 -69.1 135.0 N 26.83 CA 25.45 C 31.42 O 31.18 CB 28.81 OG1 35.71 CG2 27.02
B PHE T 4 59.1 29.8 N 31.96 CA 27.4 C 32.94 O 33.63 CB 22.82 CG 28.67 CD1 26.1 CD2 29.37 CE1 30.89 CE2 32.15 CZ 28.37
B ALA H 23 -55.6 -56.2 N 31.67 CA 35.81 C 38.65 O 39.57 CB 34.26
B GLN H 65 -64.8 -49.7 N 35.33 CA 39.28 C 35.14 O 29.93 CB 40.37 CG 44.46 CD 59.8 OE1 67.62 NE2 60.96
B GLU H 44 -55.4 -47.9 N 33.16 CA 35.55 C 38.11 O 29.64 CB 32.83 CG 39.84 CD 43.79 OE1 37.28 OE2 46.36
B THR H 2 -64.0 -42.9 N 34.68 CA 36.09 C 37.24 O 32.08 CB 30.34 OG1 36.27 CG2 28.66
B ALA H 41 -63.2 -44.1 N 30.49 CA 38.72 C 44.21 O 44.55 CB 37.05
B GLN H 117 -59.5 -46.1 N 44.22 CA 49.0 C 48.16 O 44.27 CB 55.28 CG 65.31 CD 75.97 OE1 77.98 NE2 79.16
B LEU H 16 -59.2 -45.4 N 40.71 CA 42.1 C 43.22 O 41.93 CB 37.46 CG 43.59 CD1 47.86 CD2 45.37
B ILE H 15 -61.6 -43.1 N 39.03 CA 36.18 C 42.07 O 46.33 CB 33.88 CG1 37.17 CG2 35.89 CD1 34.4
B ALA H 82 -70.8 -36.8 N 43.8 CA 44.46 C 48.12 O 53.85 CB 41.46
B GLN H 136 -70.2 -39.5 N 43.37 CA 48.69 C 42.7 O 42.87 CB 54.41 CG 68.03 CD 81.0 OE1 81.16 NE2 87.55
B GLN H 35 -92.8 -8.7 N 35.56 CA 37.27 C 49.13 O 52.3 CB 30.7 CG 37.89 CD 40.42 OE1 44.85 NE2 40.46
B GLY T 56 74.1 32.7 N 52.38 CA 52.24 C 49.7 O 47.54
B TRP - 12 -90.9 -171.1 N 41.37 CA 44.18 C 46.87 O 51.88 CB 40.3 CG 38.92 CD1 38.96 CD2 32.44 NE1 36.63 CE2 36.73 CE3 31.73 CZ2 36.01 CZ3 34.54 CH2 32.01
B MET E 131 -131.6 148.9 N 45.16 CA 47.47 C 48.19 O 46.56 CB 50.54 CG 64.61 SD 86.58 CE 74.13
B GLN E 59 -143.6 159.7 N 46.24 CA 47.82 C 52.08 O 50.57 CB 49.1 CG 50.14 CD 48.2 OE1 38.06 NE2 45.41
B GLN E 53 -146.5 129.5 N 47.11 CA 49.53 C 47.33 O 45.36 CB 55.11 CG 60.91 CD 67.03 OE1 57.49 NE2 71.39
B VAL E 8 -117.1 140.1 N 52.03 CA 53.28 C 58.36 O 60.13 CB 48.39 CG1 42.99 CG2 45.46
B TRP E 2 -113.5 128.8 N 47.38 CA 49.33 C 52.43 O 45.56 CB 52.03 CG 53.19 CD1 59.43 CD2 52.93 NE1 59.4 CE2 56.68 CE3 58.51 CZ2 57.47 CZ3 58.61 CH2 54.5
B TYR E 16 -100.9 120.1 N 49.01 CA 48.4 C 50.81 O 53.89 CB 49.01 CG 46.82 CD1 44.25 CD2 47.7 CE1 42.43 CE2 45.88 CZ 45.37 OH 45.05
B ARG S 115 -65.1 -37.7 N 50.13 CA 53.57 C 56.91 O 56.85 CB 53.73 CG 56.79 CD 61.62 NE 60.74 CZ 62.4 NH1 76.53 NH2 56.95
B ASP S 87 -106.8 -2.0 N 54.17 CA 57.32 C 59.7 O 58.95 CB 62.24 CG 65.7 OD1 68.03 OD2 64.8
B GLU S 65 -161.5 177.8 N 55.83 CA 68.87 C 68.0 O 69.21 CB 70.48 CG 67.69 CD 70.27 OE1 63.63 OE2 72.95
B SER - 88 -111.7 155.1 N 69.55 CA 70.26 C 70.7 O 75.63 CB 75.84 OG 74.23
B ALA B 37 -158.5 163.6 N 68.92 CA 67.29 C 65.39 O 70.15 CB 72.5
B ASP T 136 -69.6 138.6 N 68.39 CA 82.95 C 80.31 O 80.16 CB 99.21 CG 109.81 OD1 111.02 OD2 114.38
B ASP T 157 63.0 3.5 N 85.48 CA 85.62 C 77.52 O 79.23 CB 91.35 CG 100.3 OD1 104.87 OD2 100.4
B VAL E 26 -108.5 134.2 N 67.81 CA 59.94 C 63.12 O 67.32 CB 58.13 CG1 54.74 CG2 53.72
B LEU E 73 -79.7 142.5 N 59.34 CA 61.79 C 63.04 O 57.49 CB 66.19 CG 69.85 CD1 63.91 CD2 69.48
B GLN E 115 -93.0 141.7 N 64.67 CA 63.97 C 63.16 O 65.56 CB 65.53 CG 67.73 CD 72.27 OE1 67.89 NE2 72.84
B GLY S 22 109.1 -167.9 N 61.64 CA 67.66 C 65.21 O 62.81
B GLU S 103 -74.2 153.3 N 58.18 CA 66.06 C 67.0 O 70.57 CB 73.64 CG 82.61 CD 86.91 OE1 89.33 OE2 85.87
B MET - 4 -61.3 118.2 N 61.33 CA 63.93 C 67.31 O 66.53 CB 59.2 CG 54.97 SD 53.85 CE 44.23
B GLN - 105 -107.8 114.0 N 71.46 CA 78.81 C 78.77 O 76.45 CB 87.84 CG 94.53 CD 101.54 OE1 102.76 NE2 104.15
B LEU - 6 -104.8 41.1 N 78.47 CA 77.17 C 85.26 O 86.82 CB 72.19 CG 68.41 CD1 66.17 CD2 63.18
B ALA S 92 -112.8 -30.1 N 84.7 CA 80.3 C 80.47 O 83.11 CB 83.84
B GLU S 189 -93.8 11.5 N 82.54 CA 89.87 C 85.97 O 86.12 CB 96.8 CG 103.07 CD 105.57 OE1 100.87 OE2 110.45
B LEU S 50 -129.0 159.3 N 83.66 CA 85.44 C 81.79 O 72.23 CB 90.43 CG 94.01 CD1 95.22 CD2 89.84
B ILE - 166 -75.2 112.0 N 79.16 CA 81.19 C 74.05 O 71.71 CB 87.31 CG1 92.98 CG2 86.51 CD1 95.33
B LEU - 18 -124.1 150.5 N 72.36 CA 65.32 C 63.06 O 66.79 CB 64.72 CG 64.96 CD1 60.27 CD2 57.11
B PRO - 21 -80.5 69.1 N 59.48 CA 63.13 C 63.08 O 57.47 CB 60.13 CG 56.93 CD 55.26
B ILE T 46 -68.6 -32.7 N 64.07 CA 67.64 C 67.88 O 67.32 CB 83.07 CG1 85.35 CG2 85.9 CD1 85.73
B GLU T 130 -75.7 -30.2 N 71.56 CA 77.64 C 69.48 O 68.56 CB 91.66 CG 99.23 CD 103.78 OE1 104.53 OE2 102.23
B ASP T 53 -133.4 -13.0 N 60.45 CA 60.73 C 57.77 O 54.72 CB 67.75 CG 77.07 OD1 79.66 OD2 81.05
B GLY - 0 -72.4 160.7 N 59.91 CA 54.58 C 51.16 O 51.59
B ASP E 8 -106.6 128.6 N 49.64 CA 48.6 C 48.45 O 43.95 CB 50.95 CG 57.51 OD1 57.77 OD2 61.53
B PHE E 2 -105.9 119.4 N 48.4 CA 44.71 C 43.97 O 44.17 CB 47.72 CG 49.24 CD1 50.74 CD2 46.95 CE1 57.34 CE2 48.04 CZ 57.76
B TYR E 1 -110.7 132.7 N 42.1 CA 35.34 C 34.98 O 37.69 CB 33.22 CG 35.83 CD1 36.65 CD2 34.79 CE1 37.57 CE2 33.91 CZ 36.6 OH 39.35
B LEU E 3 -131.5 137.2 N 35.13 CA 37.39 C 35.93 O 35.58 CB 42.5 CG 45.46 CD1 56.24 CD2 45.21
B CYS E 0 -157.6 125.3 N 36.15 CA 36.53 C 38.75 O 41.88 CB 29.76 SG 37.3
B GLY S 11 174.8 -174.6 N 38.87 CA 40.09 C 45.23 O 37.56
B PRO - 68 -56.0 147.2 N 45.16 CA 43.3 C 48.36 O 47.56 CB 44.66 CG 46.08 CD 46.92
B ILE H 43 -56.0 -43.0 N 51.97 CA 53.58 C 60.73 O 64.62 CB 61.55 CG1 62.47 CG2 59.97 CD1 67.93
B GLY H 53 -56.8 -47.7 N 59.29 CA 61.67 C 57.47 O 58.97
B PHE H 21 -57.7 -44.0 N 54.77 CA 53.88 C 54.61 O 56.45 CB 52.28 CG 52.61 CD1 51.86 CD2 47.77 CE1 51.55 CE2 49.56 CZ 47.3
B MET H 5 -75.6 -51.1 N 52.99 CA 54.46 C 60.9 O 63.41 CB 54.37 CG 55.35 SD 45.36 CE 52.04
B GLN H 120 -55.4 -40.0 N 58.66 CA 60.48 C 60.39 O 60.59 CB 66.14 CG 66.38 CD 75.47 OE1 80.53 NE2 77.37
B TYR H 98 -48.5 -59.5 N 59.44 CA 60.48 C 58.1 O 59.61 CB 64.59 CG 71.69 CD1 77.53 CD2 74.72 CE1 83.97 CE2 80.3 CZ 85.83 OH 89.42
B VAL H 1 -78.0 -26.9 N 56.96 CA 53.8 C 52.9 O 54.53 CB 56.99 CG1 54.95 CG2 56.66
B VAL H 33 -63.4 -46.7 N 52.09 CA 52.38 C 56.05 O 55.94 CB 53.28 CG1 55.03 CG2 48.09
B LYS H 153 -64.1 -33.0 N 57.01 CA 62.6 C 61.9 O 62.41 CB 71.08 CG 74.72 CD 78.7 CE 81.06 NZ 83.08
B GLN H 41 -64.1 -36.1 N 61.3 CA 61.9 C 61.91 O 62.21 CB 62.45 CG 65.65 CD 65.13 OE1 63.33 NE2 64.58
B LEU H 6 -83.4 -39.6 N 60.45 CA 60.68 C 60.26 O 59.11 CB 61.22 CG 62.09 CD1 58.26 CD2 65.02
B LEU H 90 -48.6 -52.1 N 59.46 CA 62.75 C 65.76 O 66.56 CB 63.89 CG 62.43 CD1 62.53 CD2 60.01
B ALA H 81 -56.2 -50.2 N 64.51 CA 70.53 C 70.97 O 74.25 CB 69.71
B LEU H 96 -65.8 -4.7 N 66.6 CA 71.81 C 72.95 O 71.25 CB 70.61 CG 70.69 CD1 67.99 CD2 74.43
B GLY T 56 110.7 -16.3 N 75.28 CA 79.13 C 78.78 O 79.03
B VAL - 3 -57.3 131.0 N 74.38 CA 71.15 C 72.31 O 71.68 CB 62.72 CG1 58.71 CG2 57.52
B ASP - 94 -83.4 141.5 N 73.58 CA 75.78 C 74.27 O 70.52 CB 76.63 CG 77.15 OD1 78.3 OD2 74.61
B LYS G 160 -51.2 -27.0 N 78.3 CA 84.42 C 78.49 O 75.29 CB 92.98 CG 97.79 CD 101.94 CE 107.98 NZ 111.8
B ALA G 72 -66.5 -14.3 N 74.72 CA 70.03 C 63.72 O 67.9 CB 67.4
B ARG G 48 -108.6 12.3 N 58.24 CA 62.08 C 59.95 O 52.27 CB 65.67 CG 65.11 CD 66.81 NE 68.16 CZ 64.08 NH1 55.97 NH2 59.42
B ILE E 19 -119.6 123.7 N 59.96 CA 55.96 C 52.97 O 58.88 CB 58.53 CG1 57.19 CG2 62.02 CD1 62.27
B HIS E 38 -129.0 135.5 N 44.71 CA 45.12 C 48.73 O 50.78 CB 49.5 CG 59.82 ND1 64.93 CD2 59.03 CE1 66.2 NE2 65.45
B TYR E 136 -148.2 148.8 N 46.79 CA 43.48 C 44.12 O 44.7 CB 49.08 CG 57.16 CD1 59.25 CD2 59.61 CE1 63.77 CE2 63.69 CZ 65.74 OH 65.85
B GLU E 19 -119.7 145.7 N 34.23 CA 42.06 C 40.26 O 40.2 CB 32.18 CG 38.17 CD 46.11 OE1 38.89 OE2 48.32
B VAL - 54 -126.5 137.4 N 40.15 CA 42.93 C 40.96 O 42.09 CB 63.66 CG1 67.39 CG2 61.91
B PHE S 93 -87.6 46.6 N 36.32 CA 37.13 C 47.14 O 56.31 CB 30.62 CG 33.09 CD1 31.12 CD2 36.94 CE1 30.86 CE2 35.87 CZ 32.09
B GLY S 30 92.9 -177.4 N 53.26 CA 59.83 C 60.43 O 60.46
B PRO - 110 -82.0 62.8 N 61.28 CA 66.83 C 68.58 O 55.15 CB 67.25 CG 67.55 CD 60.07
B HIS - 163 -139.7 360.0 N 76.12 CA 81.73 C 83.1 O 88.77 CB 81.54 CG 79.22 ND1 78.66 CD2 76.62 CE1 79.25 NE2 77.44
