A CYS - 60 360.0 149.4 N 32.6 CA 28.45 C 27.11 O 30.83 CB 23.92 SG 20.75 HA 27.95 HB2 24.02 HB3 23.67 HG 22.69
A LYS - 174 -89.4 -26.8 N 26.15 CA 28.53 C 25.98 O 30.57 CB 35.59 CG 42.45 CD 49.78 CE 53.44 NZ 52.76 H 27.42 HA 28.83 HB2 35.06 HB3 35.21 HG2 41.63 HG3 42.15 HD2 48.75 HD3 48.75 HE2 52.4 HE3 52.4 HZ1 52.97 HZ2 52.97 HZ3 52.97
A TYR S 87 -121.4 -15.3 N 22.47 CA 24.28 C 23.19 O 26.6 CB 25.99 CG 28.08 CD1 33.38 CD2 32.93 CE1 33.09 CE2 35.28 CZ 38.63 OH 41.54 H 23.72 HA 24.15 HB2 26.14 HB3 26.26 HD1 32.06 HD2 32.32 HE1 34.17 HE2 35.03 HH 40.62
A CYS - 1 -59.4 164.2 N 17.34 CA 15.75 C 15.26 O 17.91 CB 15.77 SG 17.24 H 18.36 HA 15.58 HB2 16.05 HB3 16.33 HG 16.25
A LEU E 0 -98.8 133.0 N 13.62 CA 11.66 C 11.37 O 9.49 CB 11.0 CG 10.98 CD1 11.41 CD2 10.85 H 13.55 HA 11.92 HB2 10.98 HB3 11.15 HG 11.04 HD11 11.23 HD12 11.26 HD13 11.26 HD21 10.9 HD22 10.89 HD23 10.89
A GLN E 33 -107.8 125.1 N 10.83 CA 10.72 C 10.22 O 9.11 CB 12.77 CG 14.35 CD 19.78 OE1 23.73 NE2 21.45 H 10.99 HA 10.95 HB2 12.84 HB3 12.6 HG2 15.23 HG3 15.03 HE21 20.77 HE22 20.89
A LEU E 7 -119.9 116.4 N 9.58 CA 10.77 C 11.85 O 12.25 CB 12.19 CG 14.11 CD1 17.08 CD2 15.98 H 10.14 HA 10.97 HB2 12.44 HB3 12.39 HG 14.25 HD11 15.98 HD12 15.65 HD13 15.92 HD21 15.32 HD22 15.27 HD23 15.19
A TYR E 32 -103.0 144.9 N 10.56 CA 10.59 C 11.35 O 9.4 CB 10.34 CG 10.85 CD1 10.86 CD2 10.95 CE1 10.95 CE2 11.95 CZ 13.17 OH 16.01 H 10.84 HA 10.82 HB2 10.47 HB3 10.53 HD1 11.02 HD2 11.24 HE1 11.46 HE2 11.91 HH 14.98
A ASP S 108 -61.4 -41.9 N 12.19 CA 12.97 C 13.01 O 12.11 CB 15.11 CG 17.06 OD1 18.49 OD2 20.03 H 12.13 HA 13.34 HB2 14.88 HB3 14.94
A GLU S 87 -111.0 164.2 N 12.37 CA 12.81 C 11.67 O 10.2 CB 16.61 CG 20.49 CD 26.11 OE1 30.87 OE2 30.71 H 12.74 HA 13.12 HB2 16.3 HB3 16.18 HG2 20.97 HG3 20.85
A THR G 34 -69.1 162.9 N 10.53 CA 10.33 C 9.21 O 9.42 CB 10.58 OG1 11.66 CG2 11.71 H 10.79 HA 10.19 HB 10.84 HG1 11.31 HG21 11.35 HG22 11.35 HG23 11.35
A TYR G 134 50.5 41.8 N 8.44 CA 8.71 C 8.5 O 8.07 CB 9.75 CG 10.12 CD1 11.28 CD2 12.66 CE1 12.37 CE2 13.31 CZ 13.59 OH 16.5 H 8.74 HA 8.83 HB2 9.65 HB3 9.57 HD1 11.43 HD2 12.12 HE1 12.36 HE2 13.03 HH 15.54
A GLU G 58 61.7 37.5 N 7.89 CA 9.09 C 9.33 O 9.76 CB 8.92 CG 9.1 CD 8.67 OE1 8.86 OE2 9.13 H 8.32 HA 8.89 HB2 8.98 HB3 9.01 HG2 9.0 HG3 8.99
A ARG - 127 -109.3 155.7 N 11.01 CA 12.59 C 13.81 O 11.73 CB 13.1 CG 13.1 CD 13.45 NE 14.65 CZ 16.7 NH1 19.2 NH2 18.18 H 10.89 HA 12.54 HB2 13.0 HB3 12.99 HG2 13.15 HG3 13.01 HD2 13.7 HD3 13.65 HE 14.81 HH11 18.0 HH12 18.08 HH21 17.51 HH22 17.56
A GLY S 42 87.7 -167.9 N 15.05 CA 15.59 C 14.83 O 14.47 H 14.77 HA2 15.33 HA3 15.52
A SER - 97 -65.6 155.7 N 16.28 CA 16.35 C 15.94 O 13.62 CB 17.6 OG 18.83 H 15.84 HA 16.42 HB2 17.57 HB3 17.57 HG 18.4
A TYR E 131 -146.8 164.7 N 16.0 CA 16.62 C 15.45 O 15.11 CB 20.59 CG 24.99 CD1 28.77 CD2 29.63 CE1 35.07 CE2 31.33 CZ 38.89 OH 43.63 H 16.48 HA 16.73 HB2 20.31 HB3 20.23 HD1 28.83 HD2 29.03 HE1 33.62 HE2 32.21 HH 41.77
A ILE E 84 -124.9 141.9 N 14.9 CA 13.99 C 13.15 O 12.74 CB 15.32 CG1 17.73 CG2 16.08 CD1 19.38 H 15.03 HA 14.36 HB 15.67 HG12 17.46 HG13 17.44 HG21 15.95 HG22 15.8 HG23 15.77 HD11 18.81 HD12 18.7 HD13 18.76
A GLU E 55 -106.6 134.4 N 12.76 CA 13.85 C 12.83 O 12.59 CB 15.88 CG 20.2 CD 23.71 OE1 30.01 OE2 27.07 H 13.14 HA 13.62 HB2 16.55 HB3 16.28 HG2 19.77 HG3 19.81
A VAL E 14 -116.3 132.1 N 11.66 CA 11.53 C 10.55 O 11.67 CB 11.41 CG1 11.62 CG2 12.43 H 11.93 HA 11.38 HB 11.65 HG11 11.57 HG12 11.53 HG13 11.53 HG21 12.11 HG22 12.12 HG23 12.17
A TYR - 108 -109.4 -14.3 N 11.08 CA 11.79 C 11.62 O 10.67 CB 13.9 CG 17.84 CD1 22.97 CD2 18.56 CE1 23.37 CE2 21.9 CZ 21.99 OH 29.2 H 11.18 HA 12.04 HB2 14.32 HB3 14.16 HD1 21.39 HD2 19.32 HE1 22.42 HE2 21.08 HH 26.24
A LYS S 156 -159.1 169.7 N 11.25 CA 12.2 C 10.11 O 8.68 CB 16.15 CG 19.58 CD 27.12 CE 34.2 NZ 40.06 H 11.51 HA 12.14 HB2 15.63 HB3 15.88 HG2 19.95 HG3 19.92 HD2 26.6 HD3 26.08 HE2 33.61 HE3 33.61 HZ1 37.9 HZ2 38.1 HZ3 38.1
A SER - 48 -58.5 144.6 N 9.18 CA 7.83 C 7.8 O 8.83 CB 7.27 OG 7.03 H 9.32 HA 7.92 HB2 7.35 HB3 7.38 HG 7.11
A VAL B 45 -141.3 128.4 N 7.91 CA 7.29 C 7.08 O 6.41 CB 7.96 CG1 8.64 CG2 7.53 H 7.72 HA 7.48 HB 7.87 HG11 8.4 HG12 8.39 HG13 8.35 HG21 7.65 HG22 7.65 HG23 7.65
A GLY S 18 -84.6 -12.3 N 6.48 CA 6.25 C 6.29 O 6.21 H 6.59 HA2 6.33 HA3 6.32
A SER - 73 -157.8 134.1 N 6.23 CA 6.5 C 6.39 O 5.87 CB 6.39 OG 6.86 H 6.31 HA 6.41 HB2 6.52 HB3 6.52 HG 6.7
A LEU - 18 -128.3 119.1 N 6.81 CA 6.71 C 7.49 O 6.81 CB 7.18 CG 7.74 CD1 7.83 CD2 8.23 H 6.69 HA 6.95 HB2 7.21 HB3 7.22 HG 7.72 HD11 7.82 HD12 7.81 HD13 7.87 HD21 8.05 HD22 8.04 HD23 8.06
A SER S 113 -138.3 129.8 N 7.53 CA 9.17 C 9.22 O 9.91 CB 10.65 OG 11.72 H 7.86 HA 9.02 HB2 10.69 HB3 10.56 HG 11.29
A PRO S 97 -64.5 170.1 N 9.1 CA 9.71 C 8.09 O 7.53 CB 9.66 CG 11.85 CD 11.69 HA 9.25 HB2 10.08 HB3 10.13 HG2 11.19 HG3 11.24 HD2 11.0 HD3 11.04
A PRO - 62 -61.1 145.8 N 8.77 CA 8.52 C 8.95 O 10.52 CB 8.61 CG 9.62 CD 9.25 HA 8.61 HB2 8.81 HB3 8.81 HG2 9.28 HG3 9.28 HD2 9.22 HD3 9.23
A TRP B 82 -77.0 131.1 N 8.9 CA 9.73 C 9.45 O 9.64 CB 10.2 CG 11.93 CD1 12.55 CD2 12.06 NE1 14.62 CE2 13.45 CE3 14.11 CZ2 15.29 CZ3 15.95 CH2 14.73 H 9.18 HA 9.8 HB2 10.44 HB3 10.44 HD1 12.61 HE1 13.78 HE3 13.9 HZ2 14.49 HZ3 14.9 HH2 14.85
A THR - 103 -121.4 70.2 N 9.38 CA 9.36 C 9.22 O 11.43 CB 9.19 OG1 9.73 CG2 9.86 H 9.41 HA 9.27 HB 9.47 HG1 9.54 HG21 9.63 HG22 9.59 HG23 9.63
A PRO - 12 -72.1 156.0 N 9.14 CA 8.19 C 8.69 O 9.46 CB 8.25 CG 8.37 CD 8.87 HA 8.5 HB2 8.27 HB3 8.26 HG2 8.48 HG3 8.55 HD2 8.83 HD3 8.82
A GLY S 5 -76.0 -35.7 N 8.02 CA 7.68 C 7.26 O 6.93 H 8.1 HA2 7.7 HA3 7.72
A SER E 0 -152.2 159.2 N 7.85 CA 8.02 C 8.17 O 8.66 CB 8.09 OG 7.73 H 7.76 HA 8.0 HB2 8.0 HB3 8.01 HG 7.85
A VAL E 0 -144.2 138.1 N 8.17 CA 8.66 C 8.83 O 8.87 CB 9.23 CG1 9.93 CG2 8.37 H 8.28 HA 8.73 HB 9.07 HG11 9.66 HG12 9.74 HG13 9.65 HG21 8.66 HG22 8.63 HG23 8.62
A CYS E 4 -137.7 161.3 N 9.51 CA 9.24 C 9.42 O 9.23 CB 10.33 SG 11.51 H 9.26 HA 9.55 HB2 10.46 HB3 10.31 HG 10.87
A VAL - 2 -125.5 127.0 N 9.08 CA 10.14 C 11.24 O 11.72 CB 9.7 CG1 10.94 CG2 9.93 H 9.43 HA 10.16 HB 10.1 HG11 10.53 HG12 10.57 HG13 10.54 HG21 9.82 HG22 9.84 HG23 9.83
A PRO - 23 -60.7 154.7 N 12.4 CA 14.12 C 13.71 O 14.91 CB 15.76 CG 16.61 CD 13.8 HA 14.26 HB2 15.51 HB3 15.54 HG2 15.72 HG3 15.71 HD2 14.1 HD3 13.97
A PHE - 162 -69.9 148.5 N 14.46 CA 15.99 C 18.27 O 21.33 CB 17.42 CG 18.21 CD1 19.46 CD2 19.87 CE1 18.99 CE2 19.2 CZ 18.44 H 14.7 HA 16.5 HB2 17.23 HB3 17.26 HD1 19.02 HD2 19.19 HE1 18.95 HE2 19.12 HZ 18.78
A VAL - 110 -116.7 360.0 N 21.38 CA 25.63 C 29.23 O 36.4 CB 28.25 CG1 34.76 CG2 28.68 H 21.6 HA 25.71 HB 28.79 HG11 32.35 HG12 32.39 HG13 32.46 HG21 28.38 HG22 28.47 HG23 28.29
A GLU - 107 360.0 -117.5 N 50.36 CA 46.94 C 36.14 O 30.1 CB 50.56 CG 52.93 CD 64.96 OE1 71.85 OE2 66.44 H 49.28 HA 46.19 HB2 49.97 HB3 48.93 HG2 54.58 HG3 53.04
A ARG E 50 -96.5 125.5 N 31.39 CA 26.03 C 20.99 O 16.63 CB 28.59 CG 33.27 CD 38.09 NE 42.2 CZ 47.62 NH1 51.04 NH2 49.51 H 32.45 HA 26.1 HB2 29.04 HB3 28.99 HG2 33.24 HG3 33.65 HD2 38.31 HD3 37.89 HE 42.63 HH11 49.11 HH12 49.3 HH21 49.01 HH22 48.66
A PRO E 9 -66.3 147.5 N 17.26 CA 17.06 C 14.62 O 14.4 CB 18.09 CG 20.2 CD 19.23 HA 16.66 HB2 18.24 HB3 18.31 HG2 19.45 HG3 19.45 HD2 19.43 HD3 19.05
A TYR E 43 -141.1 133.6 N 12.52 CA 10.9 C 10.95 O 13.14 CB 11.7 CG 12.08 CD1 12.31 CD2 12.81 CE1 11.45 CE2 12.74 CZ 13.02 OH 13.69 H 12.68 HA 11.38 HB2 11.79 HB3 11.62 HD1 12.13 HD2 12.57 HE1 12.1 HE2 12.74 HH 13.35
A TRP E 0 -121.1 135.3 N 9.23 CA 8.24 C 8.15 O 8.23 CB 7.63 CG 7.27 CD1 7.64 CD2 7.21 NE1 7.96 CE2 7.01 CE3 7.44 CZ2 7.6 CZ3 7.73 CH2 7.05 H 9.39 HA 8.38 HB2 7.68 HB3 7.69 HD1 7.62 HE1 7.61 HE3 7.44 HZ2 7.46 HZ3 7.48 HH2 7.41
A TYR E 34 -108.8 131.6 N 8.28 CA 8.05 C 8.06 O 6.82 CB 8.66 CG 9.68 CD1 11.44 CD2 11.25 CE1 12.51 CE2 12.42 CZ 13.33 OH 19.71 H 8.22 HA 8.25 HB2 8.8 HB3 8.74 HD1 11.14 HD2 11.31 HE1 12.35 HE2 12.28 HH 17.47
A LEU E 0 -110.4 137.3 N 7.39 CA 7.81 C 7.36 O 7.02 CB 8.59 CG 10.67 CD1 11.7 CD2 11.68 H 7.68 HA 7.78 HB2 8.79 HB3 8.87 HG 10.53 HD11 11.33 HD12 11.21 HD13 11.34 HD21 11.28 HD22 11.2 HD23 11.1
A PHE E 7 -126.5 146.5 N 6.52 CA 6.26 C 6.56 O 6.34 CB 6.35 CG 6.42 CD1 6.67 CD2 6.68 CE1 6.6 CE2 6.71 CZ 6.71 H 6.68 HA 6.41 HB2 6.37 HB3 6.39 HD1 6.59 HD2 6.63 HE1 6.64 HE2 6.69 HZ 7.0
A ASP S 55 -93.3 8.1 N 6.66 CA 7.15 C 7.49 O 8.07 CB 7.15 CG 7.36 OD1 7.49 OD2 9.04 H 6.75 HA 7.09 HB2 7.2 HB3 7.22
A ASN S 80 -136.1 165.7 N 8.21 CA 9.12 C 8.48 O 7.54 CB 11.23 CG 12.87 OD1 12.95 ND2 19.77 H 8.17 HA 9.19 HB2 11.0 HB3 10.99 HD21 17.14 HD22 17.27
A VAL S 50 -70.2 162.7 N 8.07 CA 7.44 C 7.87 O 6.51 CB 7.99 CG1 8.43 CG2 8.22 H 8.13 HA 7.74 HB 8.0 HG11 8.28 HG12 8.26 HG13 8.28 HG21 8.14 HG22 8.13 HG23 8.14
A ASN T 108 57.8 37.0 N 6.86 CA 7.42 C 7.21 O 7.5 CB 7.58 CG 8.38 OD1 8.97 ND2 9.7 H 7.23 HA 7.34 HB2 7.73 HB3 7.72 HD21 9.23 HD22 9.26
A TYR T 71 63.3 46.9 N 6.84 CA 7.17 C 7.99 O 8.76 CB 7.48 CG 7.32 CD1 6.81 CD2 7.61 CE1 7.34 CE2 8.47 CZ 8.3 OH 9.69 H 7.01 HA 7.28 HB2 7.41 HB3 7.37 HD1 7.18 HD2 7.73 HE1 7.48 HE2 8.13 HH 9.22
A THR - 67 -130.7 172.1 N 8.89 CA 10.07 C 8.86 O 8.96 CB 11.74 OG1 13.64 CG2 13.61 H 8.9 HA 9.83 HB 11.92 HG1 12.76 HG21 12.96 HG22 12.91 HG23 12.85
A GLY S 51 92.9 -162.0 N 8.35 CA 7.67 C 7.1 O 6.91 H 8.45 HA2 7.69 HA3 7.72
A ARG S 153 -59.5 149.2 N 6.8 CA 6.93 C 6.76 O 6.59 CB 6.64 CG 7.0 CD 6.77 NE 6.99 CZ 7.23 NH1 7.31 NH2 7.63 H 6.91 HA 6.82 HB2 6.79 HB3 6.79 HG2 6.86 HG3 6.86 HD2 6.93 HD3 6.9 HE 7.01 HH11 7.27 HH12 7.28 HH21 7.45 HH22 7.46
A ILE E 75 -133.5 129.2 N 7.1 CA 7.36 C 7.76 O 7.53 CB 7.72 CG1 7.99 CG2 7.82 CD1 8.44 H 7.07 HA 7.42 HB 7.72 HG12 7.97 HG13 7.96 HG21 7.8 HG22 7.83 HG23 7.8 HD11 8.29 HD12 8.29 HD13 8.27
A THR E 24 -126.9 122.8 N 7.49 CA 8.02 C 8.49 O 8.39 CB 8.22 OG1 8.23 CG2 8.24 H 7.66 HA 8.07 HB 8.19 HG1 8.23 HG21 8.23 HG22 8.24 HG23 8.24
A GLY E 29 -111.1 149.0 N 9.46 CA 9.84 C 10.03 O 10.33 H 9.25 HA2 9.74 HA3 9.78
A LEU E 1 -139.9 124.1 N 10.51 CA 11.71 C 11.05 O 10.17 CB 12.0 CG 14.46 CD1 14.99 CD2 15.17 H 10.64 HA 11.37 HB2 12.49 HB3 12.56 HG 14.18 HD11 14.81 HD12 14.81 HD13 14.77 HD21 14.8 HD22 14.81 HD23 14.9
A GLY E 10 -86.5 174.2 N 12.05 CA 12.08 C 11.7 O 10.55 H 11.8 HA2 11.95 HA3 11.97
A HIS T 48 -65.0 141.5 N 11.82 CA 12.0 C 11.26 O 10.61 CB 13.64 CG 16.09 ND1 19.78 CD2 18.29 CE1 21.37 NE2 19.35 H 11.97 HA 12.0 HB2 13.77 HB3 13.73 HD1 24.09 HD2 18.07 HE1 20.17 HE2 19.36
A GLY T 16 78.8 -0.5 N 10.76 CA 13.02 C 14.69 O 21.75 H 11.44 HA2 12.94 HA3 13.01
A THR - 64 -89.1 136.0 N 13.39 CA 14.45 C 13.74 O 11.59 CB 16.23 OG1 19.47 CG2 19.66 H 13.89 HA 14.64 HB 16.85 HG1 18.24 HG21 18.46 HG22 18.33 HG23 18.38
A CYS E 56 -115.0 139.8 N 11.84 CA 10.65 C 10.23 O 11.94 CB 10.67 SG 10.85 H 12.01 HA 10.74 HB2 10.7 HB3 10.67 HG 10.95
A ILE E 35 -94.4 104.6 N 9.35 CA 9.29 C 9.24 O 8.63 CB 8.94 CG1 9.45 CG2 9.12 CD1 9.72 H 9.55 HA 9.27 HB 9.14 HG12 9.39 HG13 9.39 HG21 9.09 HG22 9.07 HG23 9.08 HD11 9.62 HD12 9.61 HD13 9.62
A ASP S 67 -69.9 -28.3 N 9.15 CA 9.05 C 9.14 O 9.2 CB 9.82 CG 10.52 OD1 10.05 OD2 10.93 H 9.2 HA 9.22 HB2 9.81 HB3 9.84
A ASP - 35 -134.1 89.5 N 9.05 CA 9.68 C 10.34 O 10.44 CB 10.82 CG 12.12 OD1 13.71 OD2 15.48 H 9.23 HA 9.89 HB2 10.82 HB3 10.81
A PHE G 0 -70.6 -21.8 N 10.03 CA 9.0 C 9.57 O 10.72 CB 8.71 CG 7.64 CD1 8.09 CD2 8.06 CE1 7.86 CE2 7.49 CZ 7.27 H 9.74 HA 9.22 HB2 8.53 HB3 8.54 HD1 7.9 HD2 7.83 HE1 7.83 HE2 7.61 HZ 7.52
A THR G 60 -64.3 -22.8 N 10.94 CA 11.86 C 12.09 O 15.54 CB 12.34 OG1 13.84 CG2 12.31 H 10.82 HA 11.78 HB 12.66 HG1 13.2 HG21 12.3 HG22 12.28 HG23 12.29
A LYS G 171 -103.0 11.1 N 13.25 CA 13.71 C 13.01 O 12.66 CB 16.71 CG 21.06 CD 23.5 CE 30.94 NZ 34.57 H 13.05 HA 14.0 HB2 16.76 HB3 16.78 HG2 20.43 HG3 20.3 HD2 24.54 HD3 24.3 HE2 29.76 HE3 29.76 HZ1 33.36 HZ2 33.22 HZ3 33.36
A SER S 36 -85.2 -165.7 N 11.3 CA 10.63 C 9.82 O 9.93 CB 10.87 OG 11.42 H 11.54 HA 10.94 HB2 10.94 HB3 10.94 HG 11.24
A GLY S 48 -60.6 -33.4 N 9.8 CA 10.24 C 9.72 O 10.5 H 9.96 HA2 10.02 HA3 10.01
A PHE - 16 -154.1 154.8 N 9.18 CA 8.44 C 8.74 O 9.45 CB 8.44 CG 7.77 CD1 8.32 CD2 8.6 CE1 7.95 CE2 8.18 CZ 8.16 H 9.15 HA 8.68 HB2 8.29 HB3 8.26 HD1 8.12 HD2 8.28 HE1 8.1 HE2 8.25 HZ 8.09
A LYS S 136 -88.3 -30.7 N 8.54 CA 8.55 C 7.39 O 7.07 CB 10.38 CG 13.58 CD 18.34 CE 23.47 NZ 27.7 H 8.65 HA 8.64 HB2 10.52 HB3 10.49 HG2 13.76 HG3 13.59 HD2 18.24 HD3 18.24 HE2 22.87 HE3 23.0 HZ1 26.16 HZ2 25.89 HZ3 25.89
A GLY - 17 -117.2 124.2 N 7.17 CA 7.05 C 7.24 O 8.01 H 7.24 HA2 7.2 HA3 7.14
A ILE B 0 -95.3 123.6 N 7.33 CA 7.1 C 6.72 O 6.89 CB 7.18 CG1 7.03 CG2 6.93 CD1 6.87 H 7.24 HA 7.08 HB 7.07 HG12 7.03 HG13 7.04 HG21 7.0 HG22 7.0 HG23 7.0 HD11 6.92 HD12 6.92 HD13 6.92
A SER - 12 -103.7 -22.0 N 6.71 CA 6.53 C 6.19 O 6.26 CB 6.96 OG 6.72 H 6.67 HA 6.58 HB2 6.87 HB3 6.79 HG 6.8
A SER E 0 -155.4 160.8 N 5.94 CA 6.09 C 5.93 O 5.77 CB 6.16 OG 6.66 H 6.06 HA 6.05 HB2 6.26 HB3 6.26 HG 6.51
A ILE E 0 -142.4 132.3 N 6.0 CA 6.26 C 7.34 O 6.76 CB 6.72 CG1 6.92 CG2 7.12 CD1 7.13 H 6.06 HA 6.5 HB 6.74 HG12 6.91 HG13 6.88 HG21 7.0 HG22 7.01 HG23 6.99 HD11 7.06 HD12 7.06 HD13 7.06
A LYS E 49 -118.3 127.8 N 7.62 CA 8.85 C 8.43 O 8.39 CB 9.78 CG 11.89 CD 13.76 CE 18.19 NZ 20.57 H 7.79 HA 8.72 HB2 10.0 HB3 9.97 HG2 11.77 HG3 11.86 HD2 14.11 HD3 14.18 HE2 17.24 HE3 17.19 HZ1 19.77 HZ2 19.77 HZ3 19.67
A ARG E 96 -92.4 124.4 N 8.99 CA 10.05 C 11.28 O 10.5 CB 10.56 CG 11.17 CD 12.42 NE 14.9 CZ 17.72 NH1 19.8 NH2 20.32 H 9.13 HA 10.17 HB2 10.44 HB3 10.52 HG2 11.3 HG3 11.3 HD2 12.66 HD3 12.73 HE 14.95 HH11 18.73 HH12 19.03 HH21 19.03 HH22 19.12
A CYS E 7 -129.9 -173.6 N 13.16 CA 14.89 C 15.41 O 15.29 CB 16.04 SG 16.06 H 12.97 HA 14.69 HB2 15.74 HB3 15.93 HG 15.33
A ILE E 102 -126.4 137.0 N 18.47 CA 21.32 C 20.18 O 21.84 CB 26.66 CG1 28.31 CG2 28.96 CD1 30.51 H 18.17 HA 21.29 HB 26.3 HG12 28.29 HG13 27.76 HG21 28.25 HG22 28.06 HG23 28.18 HD11 29.78 HD12 29.68 HD13 29.75
A GLN E 33 -105.7 122.9 N 21.19 CA 22.85 C 24.74 O 27.19 CB 24.88 CG 28.61 CD 29.63 OE1 36.78 NE2 32.27 H 21.38 HA 23.45 HB2 24.95 HB3 25.34 HG2 27.86 HG3 27.97 HE21 31.36 HE22 31.41
A THR - 43 -78.8 157.8 N 30.81 CA 37.81 C 44.81 O 39.38 CB 39.52 OG1 42.67 CG2 40.08 H 30.67 HA 37.39 HB 40.01 HG1 43.45 HG21 39.91 HG22 39.91 HG23 39.91
A LYS T 166 -52.0 -27.7 N 56.89 CA 66.12 C 62.07 O 62.18 CB 78.39 CG 88.29 CD 91.57 CE 87.04 NZ 86.9 H 56.97 HA 64.96 HB2 77.05 HB3 77.48 HG2 84.58 HG3 86.24 HD2 89.37 HD3 89.14 HE2 87.72 HE3 87.98 HZ1 86.51 HZ2 86.83 HZ3 86.83
A ASP T 140 -68.2 -15.5 N 65.36 CA 68.62 C 60.75 O 59.85 CB 80.34 CG 91.42 OD1 88.11 OD2 104.32 H 64.86 HA 68.35 HB2 78.51 HB3 79.93
A GLY S 35 98.8 2.0 N 52.98 CA 49.5 C 45.07 O 42.8 H 54.01 HA2 49.25 HA3 49.54
A LYS - 89 -103.1 157.8 N 40.63 CA 41.14 C 33.56 O 28.91 CB 49.76 CG 59.91 CD 68.56 CE 72.82 NZ 78.16 H 42.67 HA 40.6 HB2 49.81 HB3 50.24 HG2 57.51 HG3 58.87 HD2 67.3 HD3 67.02 HE2 72.76 HE3 71.75 HZ1 75.91 HZ2 76.28 HZ3 76.02
A VAL B 21 -127.8 123.5 N 29.27 CA 26.08 C 25.29 O 25.15 CB 24.08 CG1 22.9 CG2 23.87 H 29.72 HA 26.31 HB 24.21 HG11 23.27 HG12 23.29 HG13 23.26 HG21 23.92 HG22 23.94 HG23 24.01
A GLU - 109 -103.2 -6.5 N 28.12 CA 30.91 C 26.38 O 24.15 CB 38.33 CG 47.24 CD 58.01 OE1 65.56 OE2 59.16 H 28.31 HA 30.56 HB2 38.04 HB3 38.05 HG2 46.76 HG3 47.12
A CYS T 42 -69.3 -16.5 N 21.41 CA 18.9 C 21.48 O 25.19 CB 18.27 SG 17.83 H 21.87 HA 19.87 HB2 18.47 HB3 18.4 HG 18.44
A ILE T 81 -106.9 -2.2 N 20.94 CA 23.63 C 25.61 O 27.14 CB 22.59 CG1 22.3 CG2 21.01 CD1 21.23 H 21.86 HA 23.22 HB 22.52 HG12 22.1 HG13 22.3 HG21 21.51 HG22 21.63 HG23 21.48 HD11 21.55 HD12 21.58 HD13 21.54
A ASN - 86 -68.3 151.7 N 25.61 CA 30.6 C 39.88 O 35.89 CB 30.97 CG 28.95 OD1 31.08 ND2 33.26 H 26.38 HA 31.39 HB2 30.3 HB3 30.52 HD21 32.28 HD22 31.93
A GLN - 265 -74.2 360.0 N 45.92 CA 55.08 C 54.73 O 47.79 CB 60.45 CG 73.5 CD 87.18 OE1 111.3 NE2 85.22 OXT 50.33 H 46.12 HA 53.72 HB2 61.66 HB3 62.11 HG2 72.3 HG3 72.93 HE21 85.21 HE22 85.67
