A PHE - 179 360.0 -27.4 N 71.16 CA 69.73 C 68.21 O 68.39 CB 68.19 CG 73.88 CD1 80.23 CD2 97.24 CE1 90.66 CE2 93.02 CZ 88.78
A GLU - 56 -58.8 99.5 N 64.56 CA 61.15 C 57.41 O 80.65 CB 59.58 CG 65.31 CD 77.17 OE1 74.42 OE2 71.59
A GLU - 96 -50.1 148.5 N 50.52 CA 65.52 C 65.3 O 71.69 CB 63.66 CG 74.78 CD 98.54 OE1 83.19 OE2 98.77
A PRO H 95 -69.4 -40.8 N 82.95 CA 78.68 C 62.5 O 59.57 CB 66.19 CG 68.86 CD 78.98
A ASP H 109 -53.4 -34.1 N 65.38 CA 75.76 C 73.3 O 49.21 CB 83.71 CG 97.92 OD1 91.88 OD2 83.33
A PHE H 0 -68.6 -52.3 N 71.22 CA 74.11 C 59.89 O 57.98 CB 63.77 CG 73.13 CD1 60.8 CD2 66.62 CE1 60.43 CE2 61.73 CZ 54.79
A THR H 41 -60.6 -29.6 N 61.73 CA 67.7 C 66.84 O 71.07 CB 61.27 OG1 72.0 CG2 47.57
A ALA H 40 -64.3 -54.4 N 62.21 CA 63.62 C 74.17 O 74.29 CB 57.06
A LEU H 10 -55.9 -44.2 N 70.07 CA 67.16 C 66.76 O 63.43 CB 54.89 CG 56.24 CD1 57.81 CD2 52.31
A CYS H 3 -54.7 -36.6 N 53.12 CA 60.35 C 73.69 O 61.68 CB 64.71 SG 68.13
A GLN H 149 -75.0 -41.5 N 71.97 CA 81.92 C 70.29 O 80.55 CB 80.27 CG 83.7 CD 105.62 OE1 71.89 NE2 100.14
A LYS H 127 -61.7 -22.4 N 63.16 CA 59.51 C 64.77 O 78.48 CB 68.34 CG 65.74 CD 75.84 CE 80.94 NZ 67.52
A LEU T 5 -103.6 12.4 N 68.2 CA 70.14 C 59.1 O 53.21 CB 59.71 CG 55.85 CD1 65.44 CD2 56.4
A LYS T 160 51.9 38.2 N 59.44 CA 60.0 C 55.59 O 56.34 CB 70.89 CG 81.34 CD 100.08 CE 103.96 NZ 103.69
A ILE - 16 -69.4 124.3 N 62.69 CA 69.03 C 63.44 O 68.29 CB 65.34 CG1 61.24 CG2 50.8 CD1 66.3
A PRO - 41 -58.2 166.5 N 58.18 CA 66.85 C 72.02 O 74.18 CB 54.48 CG 64.46 CD 71.91
A ASP H 101 -70.1 -40.0 N 71.02 CA 76.88 C 76.37 O 73.02 CB 74.79 CG 86.78 OD1 82.36 OD2 72.6
A HIS H 149 -62.7 -37.6 N 79.41 CA 76.7 C 76.77 O 78.47 CB 74.03 CG 104.08 ND1 123.69 CD2 102.03 CE1 121.19 NE2 115.81
A VAL H 0 -71.8 -39.5 N 73.21 CA 66.92 C 57.56 O 63.44 CB 60.99 CG1 61.97 CG2 69.18
A ARG H 48 -60.7 -48.0 N 68.98 CA 65.47 C 72.08 O 54.91 CB 54.32 CG 65.58 CD 63.14 NE 68.36 CZ 77.21 NH1 72.43 NH2 81.6
A GLU H 113 -72.5 -11.8 N 74.2 CA 66.37 C 69.57 O 78.98 CB 69.39 CG 74.43 CD 89.7 OE1 86.51 OE2 90.31
A ARG H 124 -100.6 -29.6 N 71.81 CA 52.22 C 54.47 O 56.96 CB 50.87 CG 56.74 CD 67.32 NE 65.19 CZ 94.01 NH1 80.02 NH2 123.07
A ALA H 0 -65.4 -34.0 N 47.27 CA 54.47 C 65.97 O 68.13 CB 60.49
A TRP H 13 -75.2 -45.5 N 67.85 CA 59.76 C 66.96 O 64.57 CB 61.83 CG 68.45 CD1 67.99 CD2 70.86 NE1 60.83 CE2 60.8 CE3 66.35 CZ2 53.12 CZ3 58.44 CH2 52.12
A LEU H 88 -56.1 -35.9 N 61.83 CA 59.08 C 63.05 O 62.56 CB 53.42 CG 66.16 CD1 66.87 CD2 65.7
A THR H 17 -66.9 -43.6 N 61.53 CA 66.08 C 64.44 O 63.42 CB 57.09 OG1 48.07 CG2 48.98
A TRP H 15 -63.1 -31.9 N 56.85 CA 69.68 C 70.38 O 62.59 CB 67.8 CG 67.43 CD1 64.73 CD2 84.18 NE1 62.01 CE2 83.74 CE3 69.96 CZ2 83.85 CZ3 76.23 CH2 85.24
A GLU H 78 -65.6 -52.8 N 70.42 CA 60.1 C 66.76 O 60.76 CB 57.19 CG 66.0 CD 65.28 OE1 49.1 OE2 61.89
A LYS H 124 -68.6 -23.6 N 57.66 CA 65.11 C 55.53 O 69.9 CB 49.87 CG 58.13 CD 60.77 CE 74.99 NZ 62.66
A VAL H 13 -80.2 -44.9 N 48.78 CA 68.11 C 63.98 O 63.5 CB 65.02 CG1 54.05 CG2 67.65
A SER H 42 -66.5 -24.1 N 62.98 CA 66.67 C 58.7 O 65.24 CB 56.31 OG 67.94
A SER H 97 -66.7 -31.1 N 46.65 CA 48.16 C 57.95 O 55.08 CB 52.6 OG 44.39
A VAL H 110 -91.8 -26.9 N 59.04 CA 61.36 C 63.13 O 69.66 CB 59.2 CG1 46.14 CG2 69.11
A ASP - 106 59.5 173.2 N 60.99 CA 78.1 C 83.21 O 88.18 CB 69.52 CG 82.04 OD1 99.81 OD2 88.51
A GLY S 75 108.8 -3.0 N 88.49 CA 86.47 C 93.55 O 77.16
A VAL - 44 -114.4 -47.6 N 103.18 CA 99.13 C 105.96 O 97.34 CB 99.35 CG1 85.05 CG2 99.02
A LEU - 89 -64.6 360.0 N 107.29 CA 102.98 C 85.62 O 96.41 CB 100.04 CG 96.23 CD1 82.28 CD2 73.09
A LYS - 171 360.0 146.3 N 129.71 CA 121.89 C 123.35 O 124.59 CB 107.44 CG 112.39 CD 111.83 CE 101.24 NZ 72.88
A LYS - 107 -140.9 9.0 N 111.18 CA 106.78 C 96.33 O 82.39 CB 87.43 CG 96.76 CD 91.03 CE 115.33 NZ 103.46
A LYS H 61 -81.0 -37.2 N 106.65 CA 92.31 C 83.63 O 73.67 CB 78.97 CG 77.66 CD 89.04 CE 96.08 NZ 74.47
A GLU H 41 -51.8 -49.2 N 84.84 CA 76.13 C 67.32 O 81.37 CB 67.62 CG 82.74 CD 101.39 OE1 99.57 OE2 99.48
A LEU H 14 -64.6 -28.1 N 69.34 CA 62.82 C 67.96 O 63.65 CB 82.98 CG 88.95 CD1 68.38 CD2 50.05
A TRP H 11 -67.3 -50.3 N 73.28 CA 66.87 C 67.47 O 53.07 CB 68.13 CG 72.49 CD1 74.87 CD2 77.63 NE1 72.0 CE2 74.82 CE3 75.98 CZ2 75.25 CZ3 73.17 CH2 83.12
A GLY H 0 -61.9 -36.3 N 64.65 CA 60.54 C 64.99 O 64.74
A ILE H 0 -61.4 -42.8 N 58.52 CA 49.99 C 50.75 O 57.53 CB 55.98 CG1 53.1 CG2 48.88 CD1 63.81
A CYS H 3 -62.3 -38.2 N 43.88 CA 53.06 C 57.67 O 45.86 CB 65.91 SG 73.46
A ILE H 0 -65.1 -51.0 N 53.75 CA 53.26 C 55.21 O 49.54 CB 57.14 CG1 62.24 CG2 58.33 CD1 47.81
A PHE H 7 -52.9 -44.2 N 56.19 CA 53.18 C 52.85 O 51.53 CB 54.13 CG 58.29 CD1 56.63 CD2 54.35 CE1 53.81 CE2 70.13 CZ 56.19
A ILE H 8 -61.1 -43.3 N 50.64 CA 51.33 C 55.48 O 51.44 CB 54.9 CG1 49.61 CG2 61.38 CD1 60.63
A ALA H 1 -65.4 -41.4 N 57.9 CA 59.43 C 58.06 O 53.94 CB 53.15
A ALA H 0 -76.3 -9.3 N 52.34 CA 56.76 C 66.09 O 74.1 CB 50.29
A VAL H 20 -97.2 -46.8 N 64.15 CA 46.58 C 57.56 O 66.54 CB 55.37 CG1 53.69 CG2 43.88
A ASP H 52 -64.3 -27.4 N 61.95 CA 66.87 C 73.22 O 75.95 CB 64.12 CG 78.75 OD1 72.09 OD2 63.23
A LEU T 47 -98.0 -2.5 N 74.36 CA 73.06 C 75.29 O 75.7 CB 64.44 CG 61.67 CD1 67.42 CD2 56.72
A ASP T 120 57.8 47.3 N 70.83 CA 76.29 C 70.62 O 68.71 CB 84.87 CG 93.42 OD1 82.23 OD2 84.83
A GLU - 92 -139.2 66.1 N 60.59 CA 74.49 C 67.63 O 69.99 CB 78.53 CG 79.73 CD 98.26 OE1 94.04 OE2 105.72
A MET - 40 -79.7 90.8 N 74.13 CA 69.16 C 69.69 O 69.5 CB 66.41 CG 71.99 SD 77.69 CE 69.78
A SER - 45 -85.8 11.3 N 61.9 CA 55.98 C 58.89 O 61.91 CB 67.37 OG 65.04
A PHE S 2 -148.5 152.9 N 57.87 CA 51.3 C 61.06 O 58.33 CB 48.43 CG 58.71 CD1 55.76 CD2 60.13 CE1 52.56 CE2 59.34 CZ 45.24
A THR - 4 -83.3 151.6 N 55.42 CA 56.15 C 54.64 O 53.52 CB 56.29 OG1 38.1 CG2 66.03
A PHE H 1 -61.1 -31.5 N 60.54 CA 45.96 C 52.37 O 61.17 CB 50.14 CG 60.43 CD1 52.84 CD2 49.59 CE1 43.13 CE2 48.07 CZ 42.65
A THR H 5 -65.8 -37.1 N 46.54 CA 49.44 C 61.06 O 65.37 CB 57.93 OG1 44.06 CG2 35.8
A GLU H 71 -60.9 -46.6 N 57.97 CA 60.56 C 68.2 O 67.9 CB 61.67 CG 65.38 CD 71.44 OE1 69.85 OE2 70.72
A LEU H 0 -59.2 -40.3 N 53.35 CA 58.99 C 61.65 O 52.28 CB 52.59 CG 62.49 CD1 59.68 CD2 57.28
A GLN H 1 -69.8 -34.0 N 57.67 CA 56.83 C 53.07 O 55.7 CB 63.56 CG 56.89 CD 66.92 OE1 57.54 NE2 65.39
A LYS H 107 -67.2 -26.9 N 53.78 CA 54.78 C 72.6 O 67.94 CB 54.05 CG 59.74 CD 69.0 CE 60.03 NZ 76.54
A ASN H 35 -88.6 -46.4 N 70.21 CA 64.94 C 65.49 O 78.66 CB 78.26 CG 78.02 OD1 72.83 ND2 77.59
A ILE H 0 -89.7 8.8 N 61.76 CA 58.94 C 57.85 O 68.27 CB 60.8 CG1 53.63 CG2 58.56 CD1 61.1
A GLU T 150 39.6 54.3 N 55.46 CA 75.35 C 68.6 O 63.34 CB 65.09 CG 74.64 CD 86.17 OE1 91.08 OE2 86.78
A ILE - 12 -115.2 155.4 N 75.47 CA 65.12 C 71.58 O 59.51 CB 60.34 CG1 62.22 CG2 62.45 CD1 56.86
A SER - 12 -90.3 158.6 N 73.18 CA 63.53 C 70.29 O 64.45 CB 58.99 OG 57.28
A VAL H 1 -61.4 -46.6 N 56.9 CA 54.14 C 61.05 O 55.37 CB 58.78 CG1 49.51 CG2 58.44
A HIS H 49 -68.5 -38.4 N 58.57 CA 56.11 C 65.47 O 57.39 CB 52.59 CG 65.75 ND1 73.74 CD2 57.41 CE1 66.98 NE2 57.14
A LYS H 105 -60.6 -47.0 N 53.64 CA 61.73 C 58.78 O 60.85 CB 78.92 CG 89.46 CD 81.72 CE 95.31 NZ 72.25
A PHE H 0 -55.2 -48.1 N 62.66 CA 59.33 C 62.09 O 52.98 CB 43.74 CG 44.54 CD1 57.94 CD2 43.28 CE1 59.45 CE2 44.9 CZ 49.81
A PHE H 57 -59.6 -47.0 N 55.72 CA 52.95 C 71.84 O 69.64 CB 64.56 CG 58.81 CD1 69.48 CD2 60.74 CE1 78.77 CE2 68.58 CZ 72.54
A ASN H 74 -57.3 -51.6 N 64.73 CA 64.7 C 70.92 O 75.36 CB 63.8 CG 69.88 OD1 58.04 ND2 60.85
A LEU H 50 -59.4 -31.1 N 59.87 CA 62.08 C 68.21 O 64.93 CB 55.38 CG 70.79 CD1 69.96 CD2 78.77
A LEU H 4 -72.8 -22.7 N 65.78 CA 59.98 C 65.31 O 65.37 CB 55.65 CG 46.65 CD1 54.87 CD2 61.23
A LYS H 80 -69.9 -26.0 N 68.14 CA 85.33 C 84.65 O 75.46 CB 92.19 CG 87.57 CD 97.87 CE 95.6 NZ 90.41
A GLU H 108 -64.8 -49.9 N 85.81 CA 81.74 C 73.61 O 97.82 CB 70.64 CG 75.26 CD 95.4 OE1 90.34 OE2 77.96
A ILE S 16 -66.6 143.5 N 55.62 CA 65.73 C 64.61 O 72.5 CB 76.69 CG1 57.79 CG2 59.69 CD1 69.79
A ASP - 146 -74.9 66.1 N 61.54 CA 76.49 C 67.26 O 78.99 CB 79.69 CG 107.28 OD1 101.89 OD2 114.14
A THR - 4 -75.2 151.1 N 60.08 CA 58.94 C 65.51 O 65.46 CB 63.36 OG1 69.52 CG2 55.65
A SER - 40 -67.4 157.3 N 66.61 CA 64.89 C 68.08 O 64.0 CB 69.36 OG 61.07
A THR H 40 -59.0 -32.1 N 66.58 CA 61.25 C 65.01 O 54.76 CB 66.3 OG1 68.69 CG2 64.36
A LYS H 89 -67.5 -30.6 N 62.26 CA 46.55 C 47.42 O 36.12 CB 42.9 CG 34.96 CD 63.26 CE 56.05 NZ 74.13
A VAL H 0 -75.1 -40.9 N 48.73 CA 56.9 C 53.66 O 56.15 CB 60.42 CG1 42.81 CG2 57.0
A ASP H 29 -59.1 -41.5 N 57.42 CA 45.35 C 54.29 O 53.08 CB 70.01 CG 75.89 OD1 72.63 OD2 69.39
A ASN H 82 -62.1 -45.4 N 57.24 CA 50.86 C 54.59 O 47.97 CB 49.4 CG 63.03 OD1 43.18 ND2 69.78
A ALA H 16 -58.7 -49.9 N 49.36 CA 52.83 C 51.98 O 60.34 CB 43.95
A MET H 2 -70.2 -34.3 N 41.38 CA 50.42 C 50.56 O 45.85 CB 53.5 CG 52.28 SD 56.91 CE 47.38
A SER H 45 -55.7 -62.3 N 56.81 CA 59.95 C 57.32 O 54.93 CB 63.26 OG 82.2
A ARG H 129 -52.1 -39.1 N 56.5 CA 55.74 C 54.31 O 61.25 CB 60.02 CG 86.09 CD 94.28 NE 101.49 CZ 99.35 NH1 103.15 NH2 68.83
A LEU H 17 -71.0 -39.2 N 46.25 CA 45.59 C 49.84 O 50.68 CB 49.7 CG 37.58 CD1 36.77 CD2 74.53
A LEU H 12 -62.7 -46.8 N 48.75 CA 49.46 C 54.48 O 47.39 CB 55.67 CG 62.04 CD1 52.62 CD2 52.73
A LYS H 41 -60.4 -50.2 N 58.83 CA 60.44 C 45.88 O 40.69 CB 42.73 CG 61.37 CD 53.63 CE 45.91 NZ 54.77
A LYS H 18 -52.1 -47.1 N 48.69 CA 44.4 C 52.49 O 45.48 CB 44.98 CG 66.82 CD 65.17 CE 76.2 NZ 76.16
A TYR H 0 -61.7 -50.5 N 47.98 CA 34.51 C 40.79 O 37.62 CB 42.67 CG 42.1 CD1 41.75 CD2 42.06 CE1 47.27 CE2 51.21 CZ 47.38 OH 46.17
A ASP H 36 -59.2 -44.2 N 40.48 CA 41.85 C 48.89 O 50.06 CB 45.71 CG 57.66 OD1 52.48 OD2 55.07
A VAL H 1 -64.4 -49.6 N 49.48 CA 46.08 C 51.83 O 36.64 CB 51.49 CG1 56.26 CG2 46.46
A LEU H 8 -58.1 -43.4 N 37.67 CA 39.84 C 43.92 O 46.07 CB 43.73 CG 48.28 CD1 36.91 CD2 42.18
A PHE H 64 -62.5 -46.2 N 37.34 CA 46.24 C 44.85 O 43.53 CB 52.3 CG 45.29 CD1 41.85 CD2 54.74 CE1 48.82 CE2 48.25 CZ 33.79
A ALA H 9 -59.1 -51.5 N 37.69 CA 38.87 C 49.1 O 48.26 CB 31.6
A LEU H 0 -56.1 -52.5 N 42.44 CA 41.66 C 48.44 O 40.63 CB 37.67 CG 33.95 CD1 36.98 CD2 38.67
A PHE H 5 -61.3 -39.0 N 47.11 CA 56.97 C 56.32 O 53.91 CB 46.94 CG 53.1 CD1 55.51 CD2 47.92 CE1 54.14 CE2 47.37 CZ 51.56
A SER H 17 -61.1 -45.5 N 50.63 CA 61.16 C 63.42 O 60.43 CB 57.88 OG 58.79
A LYS H 8 -62.8 -39.6 N 46.76 CA 59.65 C 63.53 O 72.37 CB 59.78 CG 48.33 CD 65.38 CE 64.02 NZ 64.55
A LEU H 3 -64.7 -48.4 N 56.64 CA 53.32 C 62.04 O 53.02 CB 50.84 CG 54.96 CD1 48.59 CD2 50.81
A GLU H 43 -68.8 -32.1 N 63.87 CA 61.41 C 67.28 O 72.85 CB 58.72 CG 70.19 CD 79.94 OE1 69.4 OE2 81.29
A ARG H 144 -67.7 -41.1 N 64.37 CA 84.7 C 81.16 O 86.84 CB 80.09 CG 86.01 CD 80.21 NE 84.35 CZ 110.77 NH1 96.43 NH2 97.89
A THR H 10 -70.4 -34.8 N 74.21 CA 74.38 C 71.01 O 75.68 CB 66.77 OG1 68.15 CG2 53.17
A CYS H 5 -62.7 -40.7 N 71.1 CA 74.34 C 85.06 O 84.76 CB 73.68 SG 60.98
A GLU T 100 -66.1 -12.4 N 84.33 CA 81.03 C 84.4 O 87.33 CB 88.45 CG 95.44 CD 122.68 OE1 128.8 OE2 108.19
A LEU T 108 -104.2 -6.1 N 84.97 CA 85.24 C 90.36 O 95.9 CB 78.69 CG 105.63 CD1 107.63 CD2 92.37
A ILE T 0 -104.8 -41.3 N 82.85 CA 80.22 C 88.7 O 93.18 CB 75.12 CG1 85.39 CG2 76.98 CD1 77.41
A TYR B 1 -105.8 125.0 N 94.94 CA 90.38 C 101.55 O 103.52 CB 86.62 CG 77.62 CD1 71.13 CD2 95.32 CE1 73.52 CE2 90.21 CZ 87.65 OH 90.57
A LEU - 56 -62.2 145.1 N 97.87 CA 96.72 C 112.04 O 109.22 CB 87.79 CG 98.61 CD1 105.73 CD2 83.1
A THR - 91 -84.7 164.6 N 102.0 CA 107.43 C 112.85 O 101.06 CB 119.51 OG1 88.48 CG2 111.2
A GLN - 190 -126.8 360.0 N 119.45 CA 105.78 C 83.61 O 81.16 CB 103.32 CG 103.67 CD 113.8 OE1 105.9 NE2 108.45
A ILE - 100 360.0 131.2 N 73.34 CA 92.51 C 104.83 O 116.87 CB 74.89 CG1 77.76 CG2 79.9 CD1 70.95
A ASN - 72 -153.7 174.7 N 93.15 CA 83.84 C 89.21 O 91.18 CB 76.54 CG 100.3 OD1 104.39 ND2 102.93
A SER H 25 -52.5 -49.4 N 85.8 CA 85.72 C 84.52 O 75.14 CB 73.9 OG 75.98
A ALA H 70 -59.3 -37.1 N 80.02 CA 80.5 C 73.09 O 67.14 CB 69.34
A LEU H 52 -66.1 -49.7 N 54.89 CA 67.86 C 75.28 O 73.87 CB 76.41 CG 71.65 CD1 69.45 CD2 82.28
A VAL H 4 -65.4 -34.3 N 74.44 CA 66.1 C 63.16 O 62.38 CB 82.57 CG1 82.01 CG2 67.96
A LEU H 24 -60.4 -45.2 N 61.98 CA 62.42 C 61.29 O 61.58 CB 63.35 CG 56.05 CD1 37.87 CD2 52.07
A LYS H 76 -61.7 -48.5 N 47.28 CA 46.63 C 56.35 O 44.95 CB 46.03 CG 39.02 CD 48.31 CE 52.55 NZ 47.46
A VAL H 1 -72.7 -33.8 N 46.69 CA 48.82 C 58.23 O 51.62 CB 68.33 CG1 58.21 CG2 59.64
A SER H 1 -67.3 -43.6 N 61.97 CA 55.53 C 51.34 O 40.06 CB 47.5 OG 55.06
A TRP H 0 -66.5 -48.1 N 43.68 CA 46.38 C 47.93 O 42.39 CB 43.52 CG 43.45 CD1 56.67 CD2 39.28 NE1 48.42 CE2 47.98 CE3 48.35 CZ2 48.91 CZ3 51.34 CH2 54.5
A ILE H 3 -67.6 -36.7 N 45.38 CA 40.14 C 42.91 O 38.28 CB 46.43 CG1 46.72 CG2 41.84 CD1 41.33
A THR H 1 -61.7 -50.1 N 48.88 CA 48.78 C 54.86 O 47.85 CB 56.58 OG1 58.57 CG2 42.28
A PHE H 0 -60.3 -39.6 N 47.32 CA 45.91 C 45.12 O 38.04 CB 43.18 CG 50.2 CD1 47.45 CD2 44.68 CE1 41.72 CE2 47.5 CZ 50.06
A LEU H 13 -58.9 -38.9 N 41.23 CA 38.39 C 40.9 O 38.09 CB 43.02 CG 45.13 CD1 39.4 CD2 42.29
A LEU H 12 -80.9 -40.4 N 43.78 CA 49.23 C 40.73 O 44.47 CB 34.48 CG 35.6 CD1 41.4 CD2 36.04
A ALA H 0 -59.4 -41.4 N 41.62 CA 45.81 C 43.01 O 42.02 CB 45.99
A LYS H 17 -58.4 -48.3 N 49.86 CA 51.34 C 54.81 O 43.59 CB 47.07 CG 50.04 CD 50.47 CE 51.57 NZ 51.61
A GLY H 61 -65.2 -27.8 N 45.96 CA 32.4 C 43.33 O 49.5
A GLU H 147 -79.4 -45.4 N 47.03 CA 44.2 C 55.81 O 53.16 CB 55.81 CG 82.67 CD 104.63 OE1 83.27 OE2 116.83
A VAL H 16 -86.7 -34.9 N 41.91 CA 45.24 C 46.86 O 55.17 CB 57.58 CG1 48.06 CG2 58.63
A LEU - 16 -104.7 133.8 N 52.76 CA 43.29 C 43.95 O 58.18 CB 39.6 CG 45.42 CD1 48.81 CD2 56.78
A GLN S 141 -110.0 5.0 N 57.78 CA 59.27 C 65.87 O 88.32 CB 75.44 CG 79.68 CD 84.86 OE1 91.01 NE2 66.94
A MET S 10 -80.8 -42.6 N 54.82 CA 47.65 C 79.93 O 91.51 CB 65.51 CG 80.94 SD 66.03 CE 73.08
A GLU S 71 75.3 -9.5 N 74.73 CA 83.37 C 85.35 O 94.74 CB 77.84 CG 93.63 CD 111.97 OE1 107.02 OE2 102.36
A ASP - 14 -147.6 25.1 N 72.96 CA 84.2 C 81.16 O 74.54 CB 68.38 CG 85.93 OD1 80.86 OD2 69.67
A ASP - 9 -88.0 103.8 N 66.03 CA 66.89 C 65.71 O 59.3 CB 58.23 CG 80.75 OD1 73.34 OD2 65.94
A LEU H 4 -61.1 -45.6 N 47.33 CA 48.14 C 56.35 O 44.4 CB 46.35 CG 58.56 CD1 45.86 CD2 50.75
A VAL H 0 -65.8 -60.8 N 53.21 CA 53.31 C 42.65 O 42.65 CB 52.02 CG1 65.0 CG2 58.15
A ILE H 1 -57.6 -42.8 N 40.78 CA 49.32 C 43.48 O 47.75 CB 39.8 CG1 27.84 CG2 34.59 CD1 35.37
A SER H 0 -52.8 -48.6 N 38.98 CA 39.19 C 44.24 O 43.72 CB 46.84 OG 57.06
A PHE H 1 -68.1 -40.4 N 38.65 CA 37.68 C 37.77 O 47.23 CB 52.9 CG 42.24 CD1 46.05 CD2 42.6 CE1 53.9 CE2 46.59 CZ 61.41
A GLN H 0 -63.7 -43.1 N 44.91 CA 47.3 C 47.07 O 46.73 CB 45.73 CG 46.75 CD 46.13 OE1 54.19 NE2 52.84
A LEU H 0 -55.8 -47.3 N 49.16 CA 44.13 C 46.53 O 55.11 CB 36.72 CG 36.26 CD1 43.13 CD2 48.46
A MET H 7 -64.1 -30.2 N 49.63 CA 50.5 C 45.32 O 45.56 CB 44.87 CG 49.82 SD 59.24 CE 47.65
A LEU H 3 -69.5 -37.5 N 56.14 CA 47.52 C 56.32 O 51.92 CB 56.54 CG 67.25 CD1 56.01 CD2 57.08
A CYS H 2 -62.9 -48.9 N 44.53 CA 40.8 C 45.57 O 52.28 CB 42.44 SG 50.2
A VAL H 1 -54.0 -51.6 N 37.12 CA 42.32 C 47.45 O 58.06 CB 45.68 CG1 45.04 CG2 45.08
A LEU H 8 -55.0 -45.4 N 56.05 CA 61.87 C 63.22 O 68.78 CB 65.79 CG 74.3 CD1 58.31 CD2 78.55
A ASP H 21 -53.7 -48.1 N 56.79 CA 53.9 C 66.29 O 66.79 CB 45.6 CG 63.46 OD1 57.29 OD2 71.64
A TYR H 60 -54.1 -49.6 N 62.34 CA 60.54 C 60.7 O 66.15 CB 60.09 CG 74.92 CD1 60.8 CD2 68.5 CE1 69.28 CE2 72.38 CZ 81.82 OH 68.8
A PHE H 4 -81.0 -17.2 N 61.31 CA 56.6 C 68.77 O 71.59 CB 54.93 CG 63.56 CD1 66.61 CD2 54.02 CE1 62.47 CE2 57.77 CZ 62.18
A ILE H 0 -70.8 -40.0 N 63.3 CA 65.12 C 75.2 O 83.12 CB 84.35 CG1 85.68 CG2 88.08 CD1 74.95
A LYS H 113 -65.9 -40.7 N 66.02 CA 73.85 C 75.38 O 74.65 CB 68.37 CG 66.42 CD 63.45 CE 49.01 NZ 59.24
A LEU H 52 -58.3 -33.3 N 66.2 CA 75.03 C 73.58 O 89.2 CB 71.79 CG 67.38 CD1 61.59 CD2 71.69
A SER S 3 -68.1 136.2 N 80.39 CA 89.1 C 95.71 O 92.24 CB 76.21 OG 106.05
A PRO - 32 -64.8 133.0 N 89.81 CA 89.97 C 103.05 O 105.7 CB 81.06 CG 96.91 CD 90.72
A PRO G 53 -62.4 -13.3 N 89.48 CA 99.66 C 101.79 O 105.16 CB 99.93 CG 103.62 CD 85.82
A MET G 130 -56.5 -46.1 N 99.18 CA 105.51 C 112.11 O 107.53 CB 117.87 CG 126.39 SD 121.44 CE 113.65
A LEU G 18 -94.7 9.2 N 109.13 CA 110.12 C 105.85 O 106.7 CB 116.73 CG 108.36 CD1 104.69 CD2 105.23
A LEU B 0 -87.5 148.0 N 102.18 CA 104.98 C 98.37 O 91.2 CB 95.44 CG 86.43 CD1 84.37 CD2 79.03
A LYS - 78 -78.1 162.0 N 98.48 CA 98.48 C 104.33 O 104.55 CB 98.93 CG 88.29 CD 100.17 CE 92.35 NZ 84.96
A GLU H 99 -60.0 -34.4 N 100.05 CA 113.18 C 108.92 O 110.11 CB 119.07 CG 126.04 CD 123.47 OE1 106.34 OE2 113.64
A PRO H 78 -60.8 -55.5 N 105.02 CA 83.69 C 99.75 O 93.6 CB 72.75 CG 80.1 CD 85.68
A TYR H 13 -71.1 -32.3 N 94.73 CA 90.55 C 89.07 O 88.45 CB 89.29 CG 83.85 CD1 84.05 CD2 72.53 CE1 94.39 CE2 66.52 CZ 87.83 OH 87.51
A LYS H 58 -55.7 -62.3 N 94.83 CA 93.85 C 89.24 O 93.2 CB 96.93 CG 85.34 CD 96.18 CE 109.0 NZ 97.72
A THR T 93 -84.0 53.9 N 100.03 CA 106.64 C 97.92 O 100.81 CB 102.78 OG1 100.04 CG2 99.16
A ALA T 14 -148.5 -33.6 N 86.38 CA 75.26 C 88.2 O 95.32 CB 83.22
A VAL - 28 -73.1 -3.8 N 89.6 CA 94.07 C 107.06 O 110.52 CB 84.24 CG1 71.95 CG2 78.94
A ILE - 136 -114.9 360.0 N 104.84 CA 88.59 C 85.97 O 77.18 CB 74.26 CG1 77.31 CG2 76.76 CD1 71.35
A ASP - 99 360.0 167.6 N 105.64 CA 107.86 C 111.7 O 89.83 CB 92.62 CG 95.02 OD1 91.96 OD2 112.84
A THR T 79 -85.1 15.0 N 94.88 CA 99.53 C 104.52 O 81.08 CB 84.66 OG1 101.17 CG2 90.48
A ARG H 117 -72.0 -10.9 N 92.42 CA 83.33 C 86.68 O 87.33 CB 88.06 CG 102.19 CD 102.18 NE 103.41 CZ 103.77 NH1 95.87 NH2 83.93
A ILE H 0 -67.1 -43.6 N 81.27 CA 75.1 C 72.21 O 67.3 CB 66.35 CG1 78.67 CG2 61.53 CD1 82.92
A ILE H 30 -70.4 -22.1 N 74.5 CA 70.69 C 76.83 O 73.76 CB 61.25 CG1 63.52 CG2 52.1 CD1 55.43
A GLU H 81 -76.9 -47.9 N 74.27 CA 63.77 C 63.78 O 68.96 CB 67.34 CG 74.27 CD 95.66 OE1 105.15 OE2 84.44
A VAL H 46 -55.0 -42.4 N 61.61 CA 56.63 C 68.98 O 76.87 CB 65.92 CG1 56.64 CG2 55.71
A LEU H 0 -67.4 -45.5 N 67.94 CA 64.27 C 56.97 O 59.81 CB 70.2 CG 67.65 CD1 55.69 CD2 72.0
A CYS H 9 -65.7 -22.6 N 61.24 CA 61.37 C 77.01 O 80.02 CB 58.92 SG 68.4
A LYS H 164 -82.7 -48.5 N 70.91 CA 75.14 C 72.98 O 83.78 CB 67.98 CG 88.39 CD 96.12 CE 98.42 NZ 108.88
A GLU H 109 -64.0 -25.5 N 59.3 CA 61.53 C 65.59 O 78.33 CB 55.93 CG 80.03 CD 96.12 OE1 100.53 OE2 82.73
A HIS T 7 -117.9 11.3 N 59.36 CA 65.34 C 67.64 O 56.71 CB 74.11 CG 64.65 ND1 67.2 CD2 65.89 CE1 73.52 NE2 73.59
A GLU T 85 57.7 46.9 N 70.49 CA 74.2 C 72.08 O 69.68 CB 78.27 CG 91.91 CD 101.48 OE1 106.51 OE2 99.39
A CYS - 10 -110.4 148.2 N 64.85 CA 70.98 C 63.1 O 70.84 CB 76.07 SG 76.09
A ASN - 31 -66.0 135.6 N 64.94 CA 67.74 C 70.03 O 57.83 CB 61.58 CG 85.87 OD1 85.88 ND2 82.85
A ILE H 80 -73.9 -26.5 N 64.79 CA 64.7 C 61.04 O 58.28 CB 76.76 CG1 78.38 CG2 86.79 CD1 73.7
A ASP H 94 -83.4 -28.3 N 65.18 CA 58.7 C 46.64 O 54.41 CB 48.54 CG 86.66 OD1 95.36 OD2 97.9
A GLU H 6 -69.3 -47.0 N 56.48 CA 54.16 C 54.96 O 40.2 CB 54.48 CG 57.0 CD 66.06 OE1 48.86 OE2 64.33
A VAL H 0 -65.5 -50.4 N 53.36 CA 45.08 C 48.48 O 54.49 CB 50.83 CG1 44.4 CG2 41.02
A ALA H 53 -59.0 -32.7 N 45.02 CA 40.17 C 49.3 O 47.52 CB 32.2
A ASN H 33 -66.8 -41.0 N 41.24 CA 42.56 C 47.39 O 50.62 CB 42.18 CG 42.31 OD1 44.36 ND2 39.51
A VAL H 1 -65.2 -42.2 N 37.0 CA 39.75 C 44.49 O 41.29 CB 43.7 CG1 35.96 CG2 29.27
A ALA I 20 -60.7 -46.1 N 41.24 CA 46.77 C 47.44 O 49.24 CB 31.38
A PHE I 148 -71.3 -44.5 N 44.19 CA 37.68 C 41.28 O 42.3 CB 41.51 CG 47.04 CD1 46.32 CD2 54.47 CE1 47.58 CE2 49.9 CZ 54.69
A LYS I 100 -87.5 -29.2 N 39.24 CA 54.25 C 53.53 O 38.19 CB 38.03 CG 49.53 CD 54.59 CE 54.89 NZ 70.21
A ASN I 11 -124.2 -57.1 N 40.21 CA 38.62 C 47.45 O 41.78 CB 34.37 CG 46.28 OD1 46.33 ND2 46.3
A PHE I 8 -67.4 -54.7 N 36.52 CA 40.35 C 47.7 O 48.05 CB 35.73 CG 39.56 CD1 42.45 CD2 50.55 CE1 49.44 CE2 49.02 CZ 49.78
A ILE H 84 -62.1 -45.4 N 36.25 CA 43.28 C 45.24 O 38.35 CB 51.69 CG1 51.89 CG2 59.51 CD1 50.75
A PRO H 60 -53.6 -47.3 N 45.13 CA 34.9 C 39.32 O 55.2 CB 39.05 CG 41.13 CD 47.52
A PHE H 16 -56.2 -46.4 N 47.18 CA 49.07 C 49.35 O 50.0 CB 44.67 CG 33.15 CD1 37.66 CD2 44.45 CE1 44.52 CE2 34.78 CZ 30.35
A MET H 13 -61.9 -32.3 N 51.66 CA 41.05 C 46.26 O 47.36 CB 40.85 CG 53.74 SD 61.13 CE 43.6
A ASN H 128 -70.4 -15.1 N 38.45 CA 45.83 C 47.6 O 60.58 CB 45.94 CG 48.19 OD1 49.87 ND2 47.03
A SER T 76 -87.8 12.2 N 50.83 CA 57.58 C 54.64 O 47.6 CB 63.29 OG 56.95
A LEU T 4 -122.1 14.2 N 57.44 CA 56.6 C 60.29 O 54.78 CB 51.97 CG 43.76 CD1 55.94 CD2 40.78
A GLY G 44 -60.3 -36.5 N 48.5 CA 53.77 C 60.07 O 54.9
A LEU G 180 -68.1 -15.7 N 56.3 CA 68.98 C 72.53 O 68.23 CB 56.68 CG 59.61 CD1 60.77 CD2 42.92
A VAL G 22 -115.6 -2.7 N 58.71 CA 59.6 C 59.5 O 61.2 CB 55.23 CG1 74.3 CG2 52.17
A THR E 41 -101.7 130.2 N 54.15 CA 67.63 C 59.32 O 59.51 CB 63.4 OG1 71.94 CG2 54.69
A SER E 89 -125.5 132.6 N 43.75 CA 47.07 C 55.06 O 47.6 CB 43.49 OG 47.0
A ASN T 165 59.3 36.9 N 68.14 CA 63.62 C 68.07 O 67.94 CB 62.81 CG 71.01 OD1 85.96 ND2 90.9
A GLY T 25 88.0 -41.8 N 62.07 CA 63.19 C 66.27 O 60.3
A LEU E 45 -80.3 122.3 N 67.66 CA 51.3 C 53.76 O 61.29 CB 60.24 CG 61.14 CD1 71.83 CD2 52.68
A PRO E 0 -66.3 149.3 N 56.44 CA 59.93 C 64.49 O 65.35 CB 49.32 CG 48.52 CD 51.75
A GLU - 107 -62.9 111.1 N 66.57 CA 61.01 C 59.03 O 50.97 CB 70.72 CG 88.35 CD 94.54 OE1 93.34 OE2 90.06
A VAL H 21 -52.4 -43.0 N 43.13 CA 67.66 C 55.28 O 51.91 CB 63.97 CG1 51.12 CG2 64.82
A GLU H 107 -78.5 -28.1 N 51.94 CA 60.77 C 57.66 O 54.74 CB 67.7 CG 80.91 CD 82.56 OE1 76.03 OE2 64.51
A ASN H 50 -69.1 -38.9 N 52.64 CA 51.35 C 51.34 O 46.18 CB 58.0 CG 63.62 OD1 54.31 ND2 54.07
A LEU H 2 -70.1 -42.0 N 52.75 CA 49.04 C 52.06 O 50.25 CB 40.84 CG 59.05 CD1 56.9 CD2 61.14
A SER H 14 -57.4 -35.9 N 43.6 CA 47.62 C 48.67 O 50.17 CB 49.95 OG 50.9
A LYS H 123 -77.2 -34.8 N 38.45 CA 47.18 C 46.34 O 48.7 CB 54.23 CG 76.85 CD 93.8 CE 94.28 NZ 101.7
A ARG H 100 -68.0 -33.0 N 40.92 CA 42.9 C 52.87 O 54.3 CB 58.38 CG 61.18 CD 72.0 NE 62.33 CZ 66.99 NH1 57.99 NH2 59.73
A TYR H 22 -73.7 -40.0 N 46.13 CA 55.44 C 53.38 O 44.2 CB 48.03 CG 43.19 CD1 48.45 CD2 53.49 CE1 44.76 CE2 42.22 CZ 36.36 OH 45.47
A GLU H 62 -59.5 -36.2 N 43.76 CA 49.77 C 49.34 O 51.49 CB 43.61 CG 53.42 CD 66.29 OE1 57.62 OE2 66.7
A GLU H 107 -59.3 -37.6 N 42.53 CA 50.26 C 53.21 O 49.79 CB 66.51 CG 91.72 CD 112.11 OE1 111.3 OE2 122.7
A ILE H 62 -81.5 -37.6 N 54.55 CA 59.31 C 60.02 O 59.6 CB 55.84 CG1 53.89 CG2 56.81 CD1 49.95
A TYR H 17 -59.6 -47.7 N 46.05 CA 49.08 C 57.69 O 49.72 CB 42.41 CG 43.0 CD1 46.76 CD2 52.38 CE1 50.14 CE2 58.51 CZ 60.58 OH 52.95
A LEU H 73 -62.1 -29.6 N 45.3 CA 41.56 C 49.12 O 59.36 CB 49.96 CG 53.26 CD1 46.58 CD2 44.08
A LYS H 142 -76.3 -45.8 N 40.83 CA 43.49 C 55.92 O 51.53 CB 49.58 CG 57.57 CD 58.4 CE 72.0 NZ 64.66
A ASN H 87 -75.7 -17.1 N 56.0 CA 55.04 C 55.27 O 60.07 CB 59.03 CG 69.5 OD1 60.39 ND2 49.58
A LYS T 80 58.4 34.2 N 61.15 CA 70.2 C 51.0 O 51.92 CB 67.25 CG 65.87 CD 49.0 CE 61.18 NZ 50.53
A ASP - 14 -73.0 -149.5 N 73.13 CA 57.99 C 41.89 O 47.75 CB 67.31 CG 70.13 OD1 71.58 OD2 70.97
A LEU - 0 -110.4 138.4 N 48.17 CA 47.75 C 48.02 O 55.77 CB 47.77 CG 67.8 CD1 42.05 CD2 54.56
A ASP - 13 -71.7 97.1 N 48.82 CA 45.17 C 46.87 O 50.38 CB 40.95 CG 54.25 OD1 46.98 OD2 56.1
A ALA G 0 -72.8 -6.5 N 31.5 CA 43.64 C 46.93 O 58.87 CB 48.84
A ARG G 37 -67.6 -23.6 N 45.33 CA 52.56 C 60.17 O 60.69 CB 50.17 CG 53.21 CD 46.4 NE 53.75 CZ 57.76 NH1 52.17 NH2 52.7
A LEU G 29 -67.1 -17.7 N 56.46 CA 57.52 C 57.41 O 57.28 CB 50.01 CG 65.45 CD1 45.9 CD2 49.49
A PHE G 1 -59.8 -27.2 N 47.47 CA 44.04 C 50.54 O 53.68 CB 46.31 CG 50.63 CD1 44.17 CD2 51.34 CE1 48.77 CE2 40.5 CZ 50.02
A LEU G 35 -68.1 -26.9 N 59.58 CA 57.12 C 66.15 O 81.49 CB 50.7 CG 58.16 CD1 50.69 CD2 41.64
A ASP G 118 -100.4 7.4 N 66.71 CA 66.96 C 68.86 O 75.39 CB 72.99 CG 81.95 OD1 63.25 OD2 75.52
A HIS T 87 50.4 44.5 N 61.69 CA 64.12 C 60.82 O 63.21 CB 61.82 CG 69.4 ND1 81.73 CD2 68.99 CE1 86.08 NE2 86.52
A ASP - 23 -56.2 140.8 N 59.75 CA 49.8 C 46.6 O 55.83 CB 54.45 CG 66.59 OD1 67.98 OD2 56.13
A LYS G 152 -62.0 -36.7 N 64.39 CA 70.92 C 57.95 O 61.97 CB 82.93 CG 106.11 CD 110.99 CE 109.99 NZ 81.82
A THR G 9 -52.1 -28.5 N 50.51 CA 56.85 C 60.16 O 45.06 CB 63.17 OG1 51.38 CG2 53.56
A LEU G 0 -107.7 -3.1 N 61.78 CA 56.43 C 65.46 O 62.61 CB 52.14 CG 52.76 CD1 53.21 CD2 33.94
A GLN - 56 -75.9 150.1 N 77.62 CA 67.29 C 54.45 O 60.04 CB 69.27 CG 78.57 CD 81.41 OE1 80.88 NE2 75.32
A THR - 93 -94.3 360.0 N 63.93 CA 72.78 C 55.97 O 66.02 CB 84.41 OG1 74.41 CG2 70.34
A PRO - 170 360.0 -28.0 N 82.41 CA 92.64 C 92.67 O 84.13 CB 74.44 CG 83.4 CD 70.34
A HIS - 95 -159.8 137.9 N 100.58 CA 87.69 C 77.73 O 70.18 CB 77.54 CG 92.56 ND1 105.94 CD2 82.33 CE1 102.54 NE2 69.3
A PRO H 69 -45.5 -35.2 N 54.86 CA 60.2 C 54.56 O 51.37 CB 40.94 CG 42.14 CD 58.19
A VAL H 1 -80.8 -40.0 N 59.38 CA 49.79 C 54.47 O 65.23 CB 55.42 CG1 52.99 CG2 56.24
A ARG H 83 -69.6 -32.9 N 55.46 CA 63.29 C 51.78 O 60.72 CB 59.47 CG 63.24 CD 89.74 NE 84.44 CZ 82.2 NH1 80.98 NH2 79.77
A THR H 50 -51.6 -63.3 N 48.37 CA 48.11 C 45.11 O 57.34 CB 55.44 OG1 65.99 CG2 33.54
A VAL H 7 -66.8 -31.9 N 49.22 CA 52.97 C 50.44 O 46.06 CB 35.45 CG1 55.11 CG2 43.69
A MET H 1 -68.3 -31.6 N 51.39 CA 48.92 C 50.93 O 59.9 CB 53.9 CG 62.56 SD 54.81 CE 59.54
A ASN H 47 -73.3 -43.2 N 61.86 CA 62.36 C 56.24 O 52.97 CB 66.46 CG 92.6 OD1 94.03 ND2 94.27
A THR H 36 -62.4 -24.7 N 45.5 CA 53.55 C 53.3 O 59.96 CB 40.46 OG1 60.13 CG2 44.43
A ILE H 0 -68.7 -43.3 N 52.34 CA 39.27 C 49.21 O 47.32 CB 47.18 CG1 36.75 CG2 37.1 CD1 33.81
A GLN H 43 -63.8 -35.1 N 41.96 CA 51.82 C 58.08 O 60.0 CB 60.66 CG 61.67 CD 75.95 OE1 84.32 NE2 76.53
A GLN H 65 -60.7 -29.7 N 68.6 CA 65.58 C 59.98 O 64.15 CB 48.53 CG 65.04 CD 66.46 OE1 48.54 NE2 58.64
A LEU H 0 -79.7 -29.3 N 46.22 CA 46.96 C 53.43 O 59.54 CB 52.79 CG 45.52 CD1 52.62 CD2 45.91
A MET H 21 -72.8 -24.2 N 57.04 CA 54.39 C 67.8 O 69.68 CB 58.06 CG 73.66 SD 70.64 CE 70.1
A MET H 129 -67.9 -64.4 N 61.84 CA 66.86 C 68.36 O 60.57 CB 65.17 CG 81.22 SD 134.5 CE 78.56
A ILE H 13 -39.7 -35.7 N 58.38 CA 58.29 C 60.63 O 57.47 CB 54.62 CG1 52.64 CG2 50.5 CD1 37.14
A LEU T 0 -107.9 14.1 N 55.76 CA 49.24 C 69.42 O 66.66 CB 50.84 CG 52.7 CD1 48.37 CD2 57.43
A ASN T 127 -76.2 31.2 N 68.91 CA 85.91 C 73.47 O 76.79 CB 92.71 CG 102.24 OD1 83.11 ND2 91.08
A SER T 115 -165.3 3.2 N 71.2 CA 54.47 C 61.5 O 65.36 CB 58.74 OG 71.62
A ALA - 12 -95.3 122.3 N 58.0 CA 55.36 C 54.84 O 82.61 CB 58.89
A SER - 56 -79.4 165.7 N 69.6 CA 73.32 C 63.86 O 65.68 CB 61.21 OG 70.91
A ASP S 59 -80.2 4.9 N 58.67 CA 58.44 C 57.29 O 50.59 CB 79.2 CG 73.73 OD1 79.01 OD2 75.28
A GLN S 104 -128.1 151.7 N 57.43 CA 57.35 C 56.12 O 58.33 CB 59.77 CG 65.82 CD 80.61 OE1 70.9 NE2 66.64
A PRO - 14 -55.3 124.4 N 55.16 CA 53.07 C 38.6 O 52.0 CB 48.99 CG 54.46 CD 48.97
A SER - 38 -66.5 172.5 N 59.19 CA 66.33 C 70.21 O 67.03 CB 66.14 OG 66.47
A GLU H 143 -66.3 -33.0 N 63.72 CA 72.91 C 70.73 O 61.19 CB 86.51 CG 91.04 CD 102.57 OE1 96.03 OE2 97.78
A ASN H 86 -67.6 -39.3 N 63.92 CA 64.0 C 59.79 O 46.93 CB 58.66 CG 89.02 OD1 85.79 ND2 77.5
A LEU H 1 -61.1 -43.8 N 58.57 CA 56.34 C 60.18 O 58.21 CB 65.39 CG 58.06 CD1 59.38 CD2 47.21
A ILE H 33 -65.5 -32.2 N 60.13 CA 55.01 C 55.39 O 53.77 CB 69.01 CG1 57.07 CG2 65.05 CD1 75.56
A SER H 55 -55.7 -58.1 N 48.14 CA 49.05 C 59.92 O 62.23 CB 64.8 OG 73.96
A TYR H 21 -53.9 -36.8 N 56.28 CA 59.49 C 58.46 O 56.13 CB 62.49 CG 62.25 CD1 51.2 CD2 63.69 CE1 56.04 CE2 54.61 CZ 46.16 OH 62.78
A PHE H 0 -60.9 -51.9 N 61.85 CA 67.02 C 66.76 O 72.21 CB 62.37 CG 65.17 CD1 68.07 CD2 54.98 CE1 60.55 CE2 65.0 CZ 48.92
A ASN H 96 -67.3 -29.9 N 58.8 CA 73.22 C 64.94 O 56.54 CB 67.53 CG 74.82 OD1 70.69 ND2 62.39
A ASN T 70 -80.8 15.4 N 56.85 CA 66.11 C 60.35 O 61.96 CB 64.9 CG 69.64 OD1 70.7 ND2 66.82
A CYS S 13 -96.9 153.3 N 51.09 CA 59.18 C 53.31 O 70.57 CB 57.21 SG 61.41
A THR S 110 -55.2 -69.7 N 45.82 CA 54.84 C 54.2 O 58.6 CB 52.83 OG1 59.03 CG2 38.98
A VAL S 83 -93.3 124.3 N 52.12 CA 55.94 C 48.17 O 66.39 CB 47.83 CG1 53.25 CG2 33.8
A ASN - 73 -69.0 117.6 N 51.65 CA 58.6 C 58.74 O 58.98 CB 33.94 CG 55.64 OD1 61.55 ND2 50.04
A PRO - 0 -89.6 -6.1 N 62.41 CA 68.44 C 63.01 O 70.8 CB 51.87 CG 53.69 CD 66.31
A LYS H 64 -56.1 -34.3 N 56.55 CA 63.86 C 68.41 O 62.02 CB 46.05 CG 57.38 CD 60.93 CE 79.09 NZ 79.87
A GLU H 150 -65.8 -49.3 N 67.56 CA 67.53 C 67.02 O 59.76 CB 64.02 CG 86.18 CD 102.98 OE1 107.63 OE2 83.99
A SER H 42 -69.2 -27.5 N 61.21 CA 47.13 C 55.75 O 54.71 CB 41.42 OG 66.86
A ILE H 0 -76.5 -47.1 N 49.02 CA 44.72 C 54.38 O 49.72 CB 46.88 CG1 51.2 CG2 51.83 CD1 47.74
A LEU H 63 -65.2 -28.9 N 61.56 CA 45.53 C 43.05 O 38.27 CB 51.9 CG 51.41 CD1 41.56 CD2 47.32
A LYS H 122 -79.8 -40.9 N 45.62 CA 47.34 C 51.78 O 50.81 CB 46.04 CG 54.7 CD 49.01 CE 55.15 NZ 62.89
A ARG H 27 -60.7 -42.6 N 46.61 CA 57.99 C 53.41 O 42.51 CB 50.39 CG 49.61 CD 43.3 NE 56.44 CZ 51.25 NH1 55.94 NH2 56.89
A VAL H 19 -60.3 -45.2 N 47.96 CA 44.47 C 56.62 O 57.79 CB 43.28 CG1 50.49 CG2 46.94
A LYS H 162 -60.2 -54.7 N 56.77 CA 51.44 C 53.43 O 44.02 CB 51.42 CG 63.56 CD 59.53 CE 53.49 NZ 78.54
A ASP H 64 -56.9 -39.3 N 41.11 CA 53.35 C 58.1 O 55.22 CB 57.55 CG 65.11 OD1 66.88 OD2 65.32
A ILE H 16 -76.7 -37.7 N 54.4 CA 55.1 C 57.13 O 44.68 CB 52.28 CG1 37.12 CG2 37.04 CD1 54.47
A GLY H 6 -61.9 -21.4 N 43.39 CA 39.81 C 58.18 O 51.98
A TYR H 159 -79.9 -49.3 N 57.36 CA 58.99 C 64.43 O 68.21 CB 73.47 CG 96.86 CD1 105.73 CD2 91.49 CE1 104.58 CE2 100.75 CZ 112.39 OH 116.98
A ILE H 52 -66.1 -35.3 N 52.41 CA 57.33 C 55.36 O 49.19 CB 50.41 CG1 50.43 CG2 48.58 CD1 55.79
A PHE H 0 -62.5 -69.1 N 53.42 CA 47.22 C 48.76 O 53.21 CB 39.38 CG 40.78 CD1 31.49 CD2 50.32 CE1 36.32 CE2 46.84 CZ 31.92
A LYS H 59 -64.0 -16.3 N 60.44 CA 58.0 C 52.31 O 49.14 CB 53.75 CG 66.22 CD 82.07 CE 74.82 NZ 71.08
A GLU H 66 -74.7 -55.0 N 55.91 CA 49.72 C 52.39 O 61.31 CB 60.01 CG 79.54 CD 97.35 OE1 93.86 OE2 110.19
A LYS H 75 -61.3 -35.2 N 45.66 CA 55.51 C 47.75 O 46.08 CB 29.33 CG 41.87 CD 61.05 CE 56.58 NZ 79.18
A PHE H 1 -56.5 -56.1 N 40.23 CA 33.3 C 51.24 O 55.17 CB 49.43 CG 44.36 CD1 41.86 CD2 41.87 CE1 42.91 CE2 56.15 CZ 45.13
A ALA H 1 -57.9 -34.3 N 55.52 CA 50.19 C 50.34 O 48.09 CB 50.99
A LYS H 116 -63.3 -20.6 N 54.63 CA 38.7 C 53.79 O 68.08 CB 45.48 CG 97.34 CD 95.35 CE 92.38 NZ 99.71
A ALA H 23 -113.4 -21.9 N 59.65 CA 48.28 C 46.44 O 59.34 CB 33.75
A VAL H 0 -106.7 -30.8 N 48.74 CA 47.29 C 59.01 O 59.5 CB 40.36 CG1 35.69 CG2 43.66
A GLY - 3 145.1 134.5 N 52.45 CA 57.97 C 53.38 O 51.29
A GLN G 132 -61.9 -27.9 N 55.56 CA 53.75 C 52.35 O 55.59 CB 63.72 CG 101.76 CD 89.49 OE1 62.6 NE2 61.09
A GLY G 45 -84.2 25.2 N 42.92 CA 49.41 C 53.67 O 57.1
A CYS G 1 -130.6 21.9 N 51.2 CA 46.16 C 53.94 O 45.82 CB 51.4 SG 46.53
A VAL H 40 -59.5 -34.3 N 50.11 CA 51.67 C 49.73 O 62.58 CB 48.3 CG1 44.96 CG2 52.04
A GLU H 85 -75.6 -30.0 N 45.98 CA 51.03 C 57.49 O 44.53 CB 44.86 CG 75.08 CD 91.66 OE1 77.45 OE2 83.87
A ILE H 0 -75.8 -32.5 N 49.19 CA 55.13 C 53.62 O 55.74 CB 53.28 CG1 52.15 CG2 57.61 CD1 49.17
A GLY H 0 -59.1 -35.9 N 45.77 CA 44.74 C 49.56 O 52.3
A SER H 30 -64.4 -50.4 N 49.64 CA 56.52 C 56.63 O 45.67 CB 54.49 OG 59.3
A GLN H 38 -76.7 -10.8 N 48.92 CA 57.38 C 62.29 O 54.67 CB 51.21 CG 61.1 CD 64.05 OE1 63.54 NE2 38.69
A ARG H 5 -78.8 -47.9 N 53.12 CA 47.78 C 51.23 O 50.34 CB 39.95 CG 37.1 CD 37.59 NE 34.43 CZ 50.91 NH1 46.87 NH2 32.68
A TYR H 15 -63.3 -32.1 N 46.33 CA 53.03 C 46.74 O 37.77 CB 45.87 CG 48.42 CD1 43.76 CD2 40.45 CE1 43.87 CE2 49.41 CZ 51.69 OH 49.26
A LYS H 94 -63.0 -46.0 N 53.97 CA 55.09 C 46.94 O 44.32 CB 53.78 CG 53.52 CD 76.45 CE 76.67 NZ 74.16
A LEU H 13 -55.3 -43.4 N 36.66 CA 39.7 C 43.7 O 38.11 CB 42.2 CG 38.06 CD1 40.29 CD2 43.43
A GLY H 0 -60.6 -41.2 N 44.31 CA 36.5 C 38.63 O 43.98
A VAL H 6 -69.1 -40.0 N 37.58 CA 42.78 C 46.11 O 35.47 CB 40.11 CG1 33.97 CG2 37.35
A ARG H 50 -56.5 -47.9 N 42.46 CA 34.02 C 50.52 O 57.32 CB 35.0 CG 49.55 CD 45.53 NE 51.5 CZ 56.92 NH1 75.44 NH2 68.73
A LEU H 0 -61.9 -52.2 N 46.21 CA 48.34 C 51.92 O 46.9 CB 40.36 CG 36.09 CD1 41.73 CD2 41.86
A TYR H 1 -51.2 -48.0 N 47.17 CA 39.07 C 52.95 O 53.87 CB 37.53 CG 43.97 CD1 48.82 CD2 38.4 CE1 56.82 CE2 48.0 CZ 49.82 OH 45.48
A TYR H 7 -68.4 -35.4 N 53.08 CA 51.27 C 59.69 O 66.66 CB 46.72 CG 51.78 CD1 62.07 CD2 48.89 CE1 52.13 CE2 45.2 CZ 47.13 OH 55.54
A ARG H 74 -63.2 -53.6 N 49.69 CA 48.9 C 60.06 O 52.06 CB 44.03 CG 40.69 CD 53.59 NE 59.75 CZ 67.31 NH1 56.26 NH2 55.29
A VAL H 0 -60.9 -32.1 N 54.07 CA 47.67 C 50.63 O 43.55 CB 57.53 CG1 59.74 CG2 57.73
A MET H 1 -70.0 -28.7 N 44.37 CA 43.64 C 54.09 O 57.27 CB 45.84 CG 45.77 SD 55.77 CE 61.18
A GLU H 48 -76.3 -40.4 N 50.6 CA 56.26 C 54.45 O 68.05 CB 64.77 CG 65.51 CD 74.91 OE1 76.16 OE2 57.72
A SER H 39 -60.9 -38.9 N 50.96 CA 50.94 C 50.44 O 50.22 CB 31.06 OG 64.82
A MET H 18 -67.1 -54.9 N 44.75 CA 44.94 C 49.37 O 52.63 CB 37.62 CG 56.34 SD 63.4 CE 52.62
A LEU H 0 -57.4 -44.2 N 47.81 CA 53.75 C 53.45 O 60.9 CB 50.18 CG 53.22 CD1 58.26 CD2 46.51
A LYS H 136 -63.0 -48.5 N 49.45 CA 52.51 C 64.82 O 71.03 CB 44.81 CG 71.16 CD 68.39 CE 86.81 NZ 79.66
A SER H 77 -62.9 -27.8 N 60.29 CA 57.65 C 67.16 O 62.76 CB 52.67 OG 71.28
A GLU H 61 -78.4 -21.2 N 56.97 CA 58.42 C 71.15 O 65.92 CB 44.28 CG 53.85 CD 63.58 OE1 54.98 OE2 58.13
A GLU H 57 -90.6 -20.7 N 63.96 CA 71.44 C 67.44 O 82.66 CB 75.55 CG 70.26 CD 73.38 OE1 73.92 OE2 84.3
A GLU H 167 -70.3 -15.7 N 67.77 CA 69.78 C 72.07 O 95.47 CB 87.04 CG 92.09 CD 114.94 OE1 99.51 OE2 129.9
A ARG H 155 -110.6 -32.3 N 74.29 CA 82.39 C 75.97 O 76.62 CB 69.11 CG 59.87 CD 52.06 NE 58.18 CZ 49.98 NH1 49.28 NH2 38.77
A LEU H 74 -110.6 -10.5 N 58.25 CA 47.02 C 68.24 O 54.16 CB 53.27 CG 62.99 CD1 52.07 CD2 67.81
A SER - 109 57.5 32.3 N 64.21 CA 62.77 C 67.64 O 68.04 CB 60.38 OG 64.89
A ILE - 76 -131.4 169.3 N 64.15 CA 68.78 C 75.75 O 66.01 CB 56.89 CG1 53.33 CG2 42.02 CD1 53.14
A GLN S 105 -125.0 -5.0 N 76.34 CA 64.17 C 52.06 O 64.26 CB 69.58 CG 75.24 CD 94.28 OE1 82.86 NE2 86.98
A ASN - 67 -92.9 88.0 N 56.37 CA 62.18 C 70.21 O 67.81 CB 50.07 CG 56.76 OD1 69.42 ND2 60.9
A PHE - 12 -99.7 60.9 N 59.58 CA 60.2 C 47.17 O 47.48 CB 53.47 CG 59.15 CD1 60.08 CD2 62.0 CE1 65.07 CE2 62.17 CZ 63.78
A SER H 17 -82.8 -37.1 N 55.21 CA 50.05 C 44.18 O 55.56 CB 56.65 OG 46.89
A LYS H 188 -68.5 -41.8 N 41.15 CA 52.3 C 52.53 O 56.35 CB 48.48 CG 40.64 CD 68.99 CE 78.22 NZ 71.53
A LEU H 54 -57.6 -60.7 N 41.99 CA 44.85 C 55.65 O 57.96 CB 48.37 CG 47.6 CD1 43.05 CD2 43.68
A LEU H 0 -69.3 -10.7 N 49.22 CA 35.69 C 39.67 O 39.6 CB 34.39 CG 44.43 CD1 51.18 CD2 41.38
A ASN H 56 -105.8 -6.6 N 44.63 CA 46.49 C 58.01 O 48.8 CB 45.65 CG 48.97 OD1 57.53 ND2 49.05
A ASP - 73 -68.4 115.8 N 66.02 CA 47.17 C 57.83 O 48.88 CB 46.89 CG 68.09 OD1 78.46 OD2 60.43
A ASN H 77 -65.5 -45.2 N 59.17 CA 57.88 C 61.59 O 52.88 CB 52.44 CG 59.99 OD1 53.23 ND2 50.14
A ILE H 62 -62.6 -35.6 N 56.47 CA 60.42 C 54.34 O 38.9 CB 54.39 CG1 63.74 CG2 34.46 CD1 57.26
A PHE H 30 -62.8 -44.0 N 50.13 CA 49.11 C 52.39 O 54.59 CB 54.19 CG 46.76 CD1 37.59 CD2 41.72 CE1 39.94 CE2 44.01 CZ 46.36
A HIS H 0 -68.0 -45.0 N 43.71 CA 45.29 C 47.65 O 50.87 CB 52.13 CG 47.47 ND1 46.71 CD2 36.62 CE1 38.06 NE2 46.16
A MET H 22 -60.2 -39.2 N 44.15 CA 49.43 C 50.48 O 49.21 CB 47.09 CG 45.48 SD 87.43 CE 52.63
A SER H 6 -58.7 -55.3 N 49.88 CA 49.13 C 46.14 O 48.55 CB 52.45 OG 71.43
A LEU H 0 -62.9 -30.4 N 40.4 CA 44.24 C 44.92 O 47.04 CB 41.26 CG 37.32 CD1 42.64 CD2 40.9
A LEU H 1 -79.1 -44.0 N 52.75 CA 53.99 C 45.16 O 41.56 CB 51.17 CG 38.08 CD1 34.72 CD2 42.16
A ALA H 0 -58.8 -32.8 N 44.36 CA 34.5 C 36.71 O 40.85 CB 25.19
A CYS H 0 -76.4 -40.7 N 40.0 CA 40.22 C 38.47 O 44.03 CB 41.08 SG 51.21
A ALA H 0 -65.9 -38.5 N 41.02 CA 35.59 C 42.34 O 37.37 CB 23.23
A LEU H 1 -63.8 -42.9 N 42.25 CA 39.35 C 45.85 O 43.3 CB 31.32 CG 39.02 CD1 38.8 CD2 29.58
A GLU H 2 -60.1 -48.0 N 49.37 CA 40.64 C 36.03 O 50.13 CB 45.24 CG 50.37 CD 55.96 OE1 57.61 OE2 56.34
A VAL H 4 -51.6 -38.7 N 32.56 CA 31.52 C 41.6 O 41.11 CB 33.62 CG1 26.43 CG2 29.05
A VAL H 1 -74.8 -52.7 N 40.16 CA 39.14 C 44.59 O 46.44 CB 42.08 CG1 38.86 CG2 35.53
A MET H 5 -56.8 -37.0 N 45.72 CA 40.17 C 45.67 O 50.1 CB 35.77 CG 35.58 SD 47.27 CE 49.45
A ALA H 27 -76.8 -29.3 N 38.96 CA 44.05 C 41.97 O 49.51 CB 34.33
A THR H 8 -66.9 -29.9 N 43.08 CA 41.06 C 45.18 O 47.9 CB 48.59 OG1 58.8 CG2 47.69
A TYR H 5 -91.0 -17.2 N 44.88 CA 54.57 C 48.93 O 52.55 CB 46.23 CG 40.25 CD1 48.13 CD2 50.0 CE1 42.98 CE2 44.48 CZ 44.11 OH 48.23
A SER S 20 -86.0 166.9 N 59.17 CA 46.97 C 60.85 O 52.24 CB 42.93 OG 61.9
A ARG - 58 -69.1 129.1 N 71.34 CA 65.31 C 70.08 O 72.04 CB 65.21 CG 70.24 CD 52.35 NE 48.38 CZ 65.54 NH1 49.8 NH2 67.09
A SER - 91 -56.0 127.7 N 64.44 CA 79.42 C 77.3 O 87.12 CB 72.57 OG 60.16
A THR - 50 -93.7 62.0 N 85.39 CA 101.72 C 99.52 O 96.48 CB 95.81 OG1 119.9 CG2 70.12
A SER - 124 61.7 360.0 N 98.47 CA 90.57 C 81.81 O 95.4 CB 102.09 OG 91.53
A SER - 114 360.0 36.4 N 75.65 CA 96.85 C 99.74 O 79.44 CB 90.68 OG 92.78
A GLY - 9 -105.2 -110.4 N 102.88 CA 50.5 C 73.47 O 83.39
A THR - 33 -169.3 177.1 N 83.54 CA 87.62 C 85.3 O 89.36 CB 69.93 OG1 84.48 CG2 52.9
A ASP S 99 -88.3 -6.3 N 72.07 CA 77.06 C 76.28 O 64.38 CB 84.01 CG 90.64 OD1 71.38 OD2 98.54
A LEU S 5 -91.6 0.0 N 77.19 CA 65.69 C 65.68 O 54.67 CB 60.6 CG 47.31 CD1 39.79 CD2 50.0
A SER S 24 -73.4 154.1 N 66.21 CA 67.22 C 56.27 O 62.06 CB 68.21 OG 58.66
A PHE T 4 -50.9 132.4 N 40.42 CA 45.78 C 46.01 O 52.3 CB 43.72 CG 48.36 CD1 56.92 CD2 40.61 CE1 52.13 CE2 48.27 CZ 48.65
A PRO T 34 -98.1 45.7 N 39.52 CA 40.46 C 50.85 O 55.58 CB 40.42 CG 38.29 CD 45.51
A TRP H 33 -65.0 -42.8 N 54.31 CA 50.02 C 50.7 O 50.74 CB 47.13 CG 62.61 CD1 53.61 CD2 55.91 NE1 54.35 CE2 54.99 CE3 51.3 CZ2 49.75 CZ3 58.75 CH2 45.85
A ILE H 0 -66.4 -18.4 N 45.72 CA 46.76 C 44.5 O 48.0 CB 46.14 CG1 35.25 CG2 29.68 CD1 33.44
A LEU H 10 -79.7 -32.4 N 43.13 CA 54.82 C 50.57 O 54.41 CB 54.74 CG 53.21 CD1 54.96 CD2 40.24
A ASN H 124 -78.8 -28.1 N 53.68 CA 57.62 C 47.15 O 54.6 CB 63.6 CG 80.41 OD1 78.38 ND2 58.85
A VAL H 7 -63.8 -53.2 N 46.4 CA 47.25 C 51.99 O 70.41 CB 45.91 CG1 43.55 CG2 45.84
A LEU T 8 -82.6 -2.6 N 46.95 CA 54.95 C 53.8 O 46.72 CB 43.62 CG 41.54 CD1 51.17 CD2 33.83
A ASN T 134 54.9 46.4 N 48.42 CA 52.33 C 58.03 O 48.71 CB 45.73 CG 62.98 OD1 68.8 ND2 74.0
A LEU - 9 -109.5 125.9 N 59.98 CA 58.92 C 52.18 O 52.71 CB 47.12 CG 49.42 CD1 45.49 CD2 37.74
A LYS - 92 -67.2 137.8 N 53.6 CA 49.66 C 54.65 O 49.98 CB 38.51 CG 46.19 CD 44.05 CE 59.85 NZ 57.14
A ALA H 11 -57.2 -41.7 N 51.31 CA 43.19 C 47.96 O 42.06 CB 42.62
A PHE H 1 -55.0 -53.7 N 40.78 CA 45.76 C 51.01 O 56.18 CB 49.82 CG 57.39 CD1 63.65 CD2 65.6 CE1 58.15 CE2 76.32 CZ 68.63
A ASP H 32 -55.2 -40.6 N 53.28 CA 54.78 C 51.23 O 52.6 CB 46.84 CG 59.44 OD1 59.97 OD2 57.99
A PHE H 0 -63.0 -40.7 N 37.62 CA 47.25 C 53.28 O 54.38 CB 49.48 CG 49.0 CD1 43.55 CD2 44.49 CE1 46.55 CE2 40.85 CZ 42.28
A TYR H 14 -59.6 -41.6 N 52.32 CA 49.35 C 50.45 O 45.3 CB 45.56 CG 53.53 CD1 57.09 CD2 52.54 CE1 57.54 CE2 58.82 CZ 70.2 OH 72.69
A LYS H 93 -58.1 -22.8 N 45.84 CA 53.66 C 52.92 O 54.72 CB 48.94 CG 58.13 CD 78.89 CE 78.51 NZ 76.73
A VAL H 7 -91.1 -16.7 N 36.21 CA 31.63 C 42.52 O 42.46 CB 44.86 CG1 37.88 CG2 44.29
A ILE H 0 -58.5 -49.9 N 44.43 CA 41.22 C 53.6 O 48.33 CB 42.7 CG1 36.49 CG2 33.68 CD1 40.63
A GLU H 103 -57.6 -53.8 N 54.88 CA 42.92 C 53.88 O 57.5 CB 51.73 CG 67.22 CD 73.5 OE1 90.13 OE2 70.47
A SER H 53 -64.7 -28.7 N 40.0 CA 45.55 C 43.96 O 50.98 CB 38.94 OG 55.16
A PHE H 0 -66.6 -52.5 N 44.85 CA 50.06 C 50.23 O 47.71 CB 41.62 CG 45.68 CD1 44.18 CD2 49.21 CE1 44.19 CE2 51.47 CZ 64.74
A ILE H 24 -55.2 -41.9 N 41.86 CA 43.57 C 53.13 O 57.06 CB 47.91 CG1 39.18 CG2 40.87 CD1 38.63
A LYS H 151 -74.9 -38.0 N 50.94 CA 58.43 C 61.23 O 68.8 CB 54.04 CG 85.28 CD 73.72 CE 91.64 NZ 115.32
A ALA H 15 -67.9 -28.6 N 47.07 CA 48.99 C 52.74 O 58.77 CB 53.67
A GLU - 5 -107.1 90.6 N 57.97 CA 68.95 C 64.59 O 69.81 CB 68.42 CG 60.37 CD 66.51 OE1 60.88 OE2 71.11
A GLY T 69 -70.7 -0.5 N 56.25 CA 57.19 C 54.0 O 54.3
A ASN T 97 -107.7 3.2 N 52.02 CA 55.1 C 56.0 O 57.84 CB 59.57 CG 66.71 OD1 64.67 ND2 55.65
A LEU - 13 -58.5 134.0 N 59.43 CA 49.01 C 48.24 O 59.94 CB 38.53 CG 53.22 CD1 57.06 CD2 51.75
A THR - 23 -67.4 165.6 N 57.4 CA 48.33 C 51.34 O 46.86 CB 48.44 OG1 55.66 CG2 55.11
A ARG H 173 -61.4 -35.9 N 45.62 CA 53.55 C 61.05 O 51.75 CB 53.81 CG 69.92 CD 90.81 NE 96.17 CZ 105.81 NH1 98.62 NH2 97.74
A GLU H 102 -65.0 -45.3 N 49.72 CA 52.51 C 50.53 O 46.47 CB 63.78 CG 78.12 CD 98.29 OE1 65.13 OE2 106.25
A MET H 16 -60.2 -44.7 N 39.98 CA 40.88 C 51.08 O 56.87 CB 39.95 CG 52.38 SD 58.9 CE 54.35
A ILE H 49 -58.2 -50.9 N 41.5 CA 45.31 C 47.79 O 42.08 CB 61.24 CG1 53.03 CG2 32.47 CD1 56.56
A LYS H 95 -58.8 -38.6 N 43.29 CA 56.87 C 47.77 O 40.49 CB 63.66 CG 70.1 CD 92.23 CE 90.0 NZ 91.8
A HIS H 38 -66.3 -44.9 N 47.53 CA 58.43 C 49.04 O 40.11 CB 46.32 CG 45.81 ND1 48.33 CD2 40.43 CE1 48.56 NE2 35.03
A LEU H 0 -60.9 -40.3 N 35.85 CA 43.96 C 44.59 O 34.33 CB 43.6 CG 47.1 CD1 35.78 CD2 50.74
A GLU H 90 -61.9 -40.3 N 46.27 CA 49.34 C 44.28 O 41.84 CB 44.7 CG 66.83 CD 83.02 OE1 71.6 OE2 52.91
A ARG H 40 -65.6 -34.0 N 36.2 CA 36.53 C 43.22 O 39.19 CB 42.48 CG 63.91 CD 60.47 NE 67.15 CZ 69.14 NH1 68.39 NH2 75.01
A CYS H 2 -61.1 -44.6 N 38.16 CA 41.72 C 50.7 O 47.63 CB 36.38 SG 40.39
A GLU H 17 -61.2 -38.3 N 41.86 CA 38.8 C 45.24 O 36.53 CB 36.53 CG 41.84 CD 59.29 OE1 56.26 OE2 72.06
A HIS H 66 -59.5 -37.9 N 39.01 CA 45.2 C 38.12 O 42.43 CB 41.29 CG 52.75 ND1 56.53 CD2 48.17 CE1 38.61 NE2 53.26
A ARG H 78 -73.4 -37.6 N 31.0 CA 45.88 C 45.56 O 40.18 CB 41.3 CG 65.61 CD 68.95 NE 79.24 CZ 79.55 NH1 82.9 NH2 90.17
A ILE H 0 -62.9 -43.8 N 40.1 CA 38.91 C 36.26 O 39.27 CB 48.69 CG1 40.62 CG2 34.71 CD1 38.48
A MET H 5 -65.1 -42.1 N 41.52 CA 46.39 C 46.6 O 40.46 CB 45.79 CG 49.11 SD 78.63 CE 49.09
A GLU H 11 -79.8 -28.1 N 38.26 CA 35.82 C 39.53 O 43.28 CB 36.7 CG 44.23 CD 56.34 OE1 69.6 OE2 49.51
A SER T 24 -150.2 -50.6 N 49.56 CA 48.26 C 45.17 O 48.15 CB 41.31 OG 42.69
A LEU G 23 -55.7 -45.6 N 41.42 CA 42.97 C 39.46 O 56.42 CB 36.73 CG 45.02 CD1 42.46 CD2 30.54
A ALA G 0 -67.9 -12.6 N 38.82 CA 45.28 C 42.21 O 47.77 CB 46.93
A TRP G 0 -98.2 5.6 N 38.11 CA 38.71 C 48.84 O 41.61 CB 44.6 CG 49.13 CD1 44.46 CD2 39.7 NE1 36.0 CE2 47.59 CE3 43.97 CZ2 45.36 CZ3 42.27 CH2 38.35
A LEU S 78 -61.9 154.3 N 47.77 CA 47.81 C 47.91 O 51.48 CB 44.34 CG 52.15 CD1 32.09 CD2 40.21
A SER S 46 -56.3 -45.0 N 54.48 CA 59.01 C 60.45 O 71.04 CB 57.24 OG 71.17
A ASP S 130 -93.7 94.7 N 46.7 CA 75.2 C 67.18 O 76.32 CB 100.95 CG 113.45 OD1 101.51 OD2 99.32
A SER - 15 -158.9 132.5 N 45.6 CA 54.87 C 66.78 O 52.92 CB 54.47 OG 54.09
A PRO T 36 -51.2 -34.3 N 52.83 CA 57.02 C 64.87 O 59.59 CB 59.33 CG 45.41 CD 48.32
A LEU H 0 -44.0 -43.9 N 54.37 CA 55.67 C 58.88 O 60.54 CB 60.51 CG 55.87 CD1 55.01 CD2 45.87
A PHE H 17 -71.0 -15.2 N 54.15 CA 60.36 C 62.68 O 76.38 CB 57.82 CG 53.68 CD1 57.83 CD2 63.7 CE1 59.84 CE2 61.71 CZ 56.2
A ASP H 86 -89.3 -34.9 N 67.08 CA 75.83 C 72.9 O 85.2 CB 90.76 CG 102.71 OD1 93.29 OD2 82.09
A LEU H 46 -61.7 -34.1 N 59.96 CA 69.91 C 80.04 O 76.5 CB 67.87 CG 73.9 CD1 68.78 CD2 71.06
A ILE H 7 -75.1 -45.6 N 68.46 CA 60.11 C 79.61 O 93.17 CB 66.37 CG1 63.45 CG2 57.76 CD1 59.13
A LYS H 139 -60.8 -45.7 N 77.12 CA 92.56 C 93.2 O 90.56 CB 98.48 CG 101.19 CD 104.39 CE 132.94 NZ 103.23
A GLN T 133 -82.8 25.8 N 83.74 CA 87.87 C 92.8 O 89.5 CB 89.51 CG 99.08 CD 103.48 OE1 85.5 NE2 99.87
A SER T 29 -128.7 -12.5 N 88.19 CA 81.63 C 94.02 O 108.89 CB 88.84 OG 81.42
A LYS S 162 -75.2 68.6 N 85.41 CA 104.37 C 118.01 O 104.35 CB 114.86 CG 107.74 CD 107.99 CE 107.16 NZ 92.22
A ASP - 116 -149.1 -55.4 N 130.43 CA 117.04 C 119.58 O 119.27 CB 104.81 CG 116.31 OD1 126.9 OD2 101.1
A ARG - 271 -149.4 360.0 N 118.92 CA 123.35 C 113.39 O 99.74 CB 129.13 CG 134.54 CD 134.65 NE 143.53 CZ 142.33 NH1 121.65 NH2 143.75
A LYS - 238 360.0 26.5 N 92.56 CA 103.17 C 115.99 O 102.63 CB 102.34 CG 102.28 CD 108.98 CE 98.91 NZ 72.36
A SER - 60 -74.7 119.1 N 125.14 CA 94.67 C 91.97 O 88.12 CB 102.99 OG 110.9
A THR S 112 -140.8 -33.7 N 80.13 CA 88.98 C 81.57 O 74.32 CB 94.71 OG1 70.3 CG2 84.11
A SER H 36 -69.9 -37.0 N 91.03 CA 92.27 C 75.51 O 60.27 CB 85.88 OG 81.7
A LEU H 13 -66.5 -30.3 N 64.2 CA 64.72 C 60.66 O 65.59 CB 71.32 CG 62.02 CD1 58.98 CD2 62.93
A SER H 68 -83.9 -36.7 N 67.89 CA 53.23 C 44.69 O 51.69 CB 57.0 OG 88.32
A LEU H 86 -70.0 -32.0 N 53.74 CA 53.92 C 55.76 O 50.16 CB 56.59 CG 69.04 CD1 70.32 CD2 66.57
A PHE H 0 -65.7 -54.7 N 53.62 CA 45.58 C 51.11 O 46.79 CB 40.42 CG 48.58 CD1 44.63 CD2 52.41 CE1 49.76 CE2 43.33 CZ 46.61
A TYR H 18 -57.8 -32.8 N 40.72 CA 39.77 C 41.8 O 45.82 CB 30.09 CG 45.49 CD1 44.24 CD2 63.1 CE1 48.14 CE2 50.42 CZ 55.56 OH 51.81
A LYS H 131 -69.7 -32.0 N 39.94 CA 45.62 C 40.8 O 48.28 CB 50.33 CG 55.6 CD 61.64 CE 85.86 NZ 77.01
A LYS H 54 -78.9 -34.3 N 44.27 CA 43.91 C 45.89 O 45.17 CB 44.31 CG 57.18 CD 55.25 CE 79.03 NZ 81.97
A VAL H 0 -64.4 -49.4 N 39.65 CA 38.83 C 44.52 O 42.88 CB 38.81 CG1 30.63 CG2 36.3
A TYR H 49 -54.6 -43.2 N 41.45 CA 49.16 C 49.32 O 48.27 CB 36.83 CG 35.85 CD1 40.58 CD2 37.31 CE1 41.01 CE2 45.37 CZ 52.86 OH 59.24
A ARG H 186 -60.8 -42.2 N 44.49 CA 42.8 C 43.4 O 49.66 CB 45.61 CG 55.23 CD 68.56 NE 89.47 CZ 89.41 NH1 63.07 NH2 85.79
A LEU H 10 -68.1 -49.1 N 46.7 CA 40.41 C 48.13 O 40.22 CB 32.37 CG 35.2 CD1 36.95 CD2 42.29
A ALA H 0 -61.4 -43.5 N 41.07 CA 34.85 C 41.43 O 41.67 CB 32.32
A TYR H 86 -73.1 -38.8 N 39.24 CA 42.66 C 46.83 O 46.81 CB 38.87 CG 48.77 CD1 53.0 CD2 38.53 CE1 50.99 CE2 44.04 CZ 54.51 OH 56.99
A LEU H 109 -58.5 -41.9 N 42.56 CA 45.31 C 57.31 O 65.11 CB 57.5 CG 76.99 CD1 78.84 CD2 76.55
A ARG H 34 -72.6 -45.6 N 45.71 CA 39.19 C 46.06 O 47.18 CB 37.04 CG 43.53 CD 33.79 NE 32.69 CZ 41.21 NH1 37.48 NH2 48.86
A LEU H 0 -58.4 -31.7 N 50.27 CA 37.07 C 46.52 O 45.8 CB 34.57 CG 41.49 CD1 32.15 CD2 35.27
A ASN H 34 -79.8 -39.8 N 42.35 CA 48.14 C 53.5 O 55.34 CB 49.94 CG 44.19 OD1 41.84 ND2 53.17
A THR H 57 -69.4 -32.2 N 46.33 CA 50.96 C 57.42 O 43.5 CB 41.65 OG1 56.78 CG2 35.51
A LEU H 3 -65.6 -42.3 N 48.61 CA 54.68 C 51.4 O 53.56 CB 41.12 CG 43.11 CD1 49.76 CD2 43.17
A CYS H 5 -66.7 -40.1 N 44.01 CA 50.36 C 57.1 O 54.96 CB 44.6 SG 48.55
A GLU H 121 -69.7 -28.8 N 61.9 CA 53.7 C 49.83 O 71.78 CB 59.36 CG 79.49 CD 78.55 OE1 68.74 OE2 66.7
A ARG H 142 -80.7 -42.9 N 56.78 CA 64.28 C 61.5 O 68.85 CB 54.57 CG 81.69 CD 110.32 NE 97.96 CZ 104.19 NH1 98.47 NH2 100.14
A LEU H 40 -100.0 -16.2 N 53.68 CA 45.08 C 55.47 O 49.75 CB 50.83 CG 57.75 CD1 50.1 CD2 56.46
A LEU - 11 -138.2 47.8 N 63.81 CA 49.86 C 53.75 O 56.75 CB 50.83 CG 49.91 CD1 43.59 CD2 46.95
A SER T 88 -60.8 -41.7 N 59.14 CA 50.99 C 53.41 O 55.71 CB 39.74 OG 71.56
A GLU T 168 -79.5 -3.9 N 48.07 CA 59.58 C 59.37 O 70.89 CB 70.21 CG 78.78 CD 123.56 OE1 122.09 OE2 114.8
A HIS - 52 -141.0 67.8 N 55.22 CA 69.93 C 66.89 O 66.68 CB 70.82 CG 83.39 ND1 66.3 CD2 79.73 CE1 67.31 NE2 83.16
A PRO T 91 -69.5 -13.9 N 69.96 CA 61.4 C 48.16 O 58.8 CB 64.1 CG 68.94 CD 55.87
A GLU H 85 -73.5 -12.9 N 48.21 CA 55.02 C 54.5 O 52.03 CB 45.28 CG 47.75 CD 68.81 OE1 55.24 OE2 74.06
A LEU H 0 -78.8 -34.8 N 53.22 CA 53.78 C 51.14 O 37.32 CB 44.17 CG 46.38 CD1 46.68 CD2 48.02
A GLU H 28 -51.4 -54.3 N 44.89 CA 46.83 C 51.25 O 60.56 CB 46.0 CG 48.36 CD 58.23 OE1 57.95 OE2 50.56
A HIS H 115 -63.5 -32.0 N 47.11 CA 51.31 C 46.77 O 52.02 CB 54.19 CG 67.97 ND1 46.07 CD2 57.04 CE1 61.82 NE2 59.52
A ILE H 13 -65.3 -48.2 N 44.78 CA 52.02 C 56.98 O 46.8 CB 58.82 CG1 62.31 CG2 58.12 CD1 58.75
A ILE H 0 -56.3 -50.5 N 51.36 CA 51.58 C 43.29 O 45.32 CB 57.49 CG1 39.13 CG2 55.89 CD1 40.67
A TRP H 34 -56.9 -34.2 N 49.57 CA 52.87 C 51.42 O 48.87 CB 43.61 CG 53.41 CD1 53.8 CD2 64.06 NE1 58.22 CE2 61.88 CE3 53.58 CZ2 61.39 CZ3 53.9 CH2 52.16
A THR H 60 -66.2 -42.1 N 48.26 CA 42.19 C 49.27 O 49.45 CB 47.41 OG1 51.29 CG2 48.78
A LEU H 0 -69.5 -37.5 N 46.38 CA 47.66 C 57.74 O 58.62 CB 45.81 CG 45.16 CD1 51.08 CD2 57.67
A PHE H 1 -61.3 -52.7 N 44.88 CA 41.54 C 52.34 O 43.7 CB 41.14 CG 39.69 CD1 50.96 CD2 46.0 CE1 48.29 CE2 40.68 CZ 39.11
A GLN H 57 -56.8 -46.8 N 51.5 CA 52.77 C 47.72 O 65.12 CB 51.88 CG 53.39 CD 47.11 OE1 68.01 NE2 58.62
A HIS H 42 -55.8 -39.5 N 42.21 CA 55.64 C 61.89 O 65.48 CB 58.47 CG 61.36 ND1 61.58 CD2 63.79 CE1 74.26 NE2 66.56
A THR H 0 -70.8 -48.4 N 46.67 CA 54.49 C 55.38 O 60.7 CB 52.13 OG1 56.76 CG2 44.21
A LEU H 0 -60.3 -26.1 N 51.24 CA 46.64 C 59.48 O 59.31 CB 54.15 CG 50.06 CD1 48.1 CD2 52.94
A GLN H 93 -99.2 -48.9 N 53.63 CA 48.45 C 50.77 O 67.72 CB 51.35 CG 68.85 CD 76.46 OE1 67.44 NE2 75.84
A ASN H 98 -106.1 0.2 N 58.35 CA 64.79 C 68.35 O 77.52 CB 59.58 CG 61.75 OD1 60.03 ND2 85.93
A GLU - 25 -140.7 31.8 N 62.58 CA 51.48 C 61.98 O 64.51 CB 50.09 CG 57.17 CD 71.1 OE1 72.92 OE2 61.05
A TYR G 35 -54.1 -33.6 N 58.72 CA 53.46 C 55.33 O 62.72 CB 45.45 CG 59.28 CD1 69.9 CD2 53.77 CE1 68.38 CE2 65.36 CZ 79.6 OH 76.59
A GLU G 103 -67.8 25.7 N 51.44 CA 65.32 C 68.83 O 84.72 CB 69.99 CG 91.35 CD 101.48 OE1 95.98 OE2 90.24
A LEU G 5 -119.4 -18.0 N 57.89 CA 60.37 C 59.04 O 60.07 CB 58.45 CG 56.03 CD1 57.76 CD2 50.59
A MET S 0 -84.8 -4.3 N 59.93 CA 52.49 C 54.06 O 55.48 CB 50.95 CG 48.18 SD 52.17 CE 39.42
A ARG T 50 -63.0 110.5 N 56.03 CA 55.94 C 57.47 O 49.13 CB 62.7 CG 65.69 CD 70.78 NE 83.74 CZ 86.99 NH1 77.43 NH2 77.23
A ASP T 49 60.3 26.5 N 55.6 CA 59.58 C 53.09 O 55.88 CB 57.81 CG 71.95 OD1 49.93 OD2 80.19
A ARG S 24 -116.1 -168.9 N 52.12 CA 54.76 C 49.59 O 52.69 CB 48.36 CG 51.62 CD 46.06 NE 52.36 CZ 51.77 NH1 48.79 NH2 55.34
A HIS - 23 -124.4 140.8 N 49.56 CA 43.41 C 43.99 O 36.59 CB 40.69 CG 35.62 ND1 41.73 CD2 38.29 CE1 49.44 NE2 47.82
A LEU H 0 -54.5 -43.9 N 42.13 CA 39.56 C 52.36 O 41.19 CB 44.03 CG 35.18 CD1 41.74 CD2 28.06
A ASP H 6 -65.8 -20.3 N 46.0 CA 33.95 C 38.48 O 38.6 CB 36.69 CG 43.8 OD1 45.17 OD2 33.94
A GLN H 13 -76.8 -33.6 N 44.07 CA 50.02 C 47.28 O 47.61 CB 50.97 CG 41.83 CD 51.07 OE1 48.51 NE2 57.11
A ILE H 0 -76.8 -25.7 N 50.51 CA 50.75 C 51.97 O 47.78 CB 50.03 CG1 45.78 CG2 44.26 CD1 39.06
A MET H 1 -70.3 -56.0 N 42.39 CA 39.5 C 39.4 O 34.6 CB 34.51 CG 36.79 SD 42.5 CE 35.23
A MET H 0 -60.1 -41.0 N 46.33 CA 38.0 C 40.09 O 47.64 CB 27.57 CG 30.51 SD 43.82 CE 33.86
A CYS H 0 -65.2 -31.3 N 39.57 CA 45.76 C 51.77 O 55.07 CB 41.01 SG 48.12
A SER H 0 -70.6 -41.8 N 45.52 CA 42.86 C 45.33 O 45.16 CB 40.91 OG 46.0
A MET H 0 -56.9 -52.8 N 38.42 CA 44.12 C 54.0 O 51.5 CB 45.38 CG 43.51 SD 62.91 CE 41.24
A TYR H 45 -62.4 -50.9 N 54.99 CA 55.75 C 49.14 O 51.58 CB 44.3 CG 67.57 CD1 68.24 CD2 69.16 CE1 63.14 CE2 65.61 CZ 67.62 OH 66.71
A GLY H 0 -55.4 -36.0 N 39.88 CA 55.87 C 61.9 O 66.06
A ILE H 0 -81.8 -44.7 N 51.19 CA 48.13 C 59.22 O 60.04 CB 55.4 CG1 59.69 CG2 47.21 CD1 54.64
A CYS H 1 -53.3 -34.2 N 56.69 CA 51.79 C 59.59 O 78.77 CB 45.52 SG 60.44
A LYS H 111 -70.4 -49.2 N 61.34 CA 66.26 C 75.29 O 79.52 CB 65.62 CG 59.04 CD 77.76 CE 82.41 NZ 74.26
A VAL H 57 -69.2 -4.6 N 62.31 CA 69.11 C 67.25 O 87.61 CB 72.61 CG1 88.23 CG2 49.25
A LYS T 82 -120.9 17.8 N 69.15 CA 70.64 C 66.87 O 67.84 CB 51.75 CG 47.79 CD 65.8 CE 52.32 NZ 50.04
A ASN T 153 54.1 38.6 N 75.01 CA 55.68 C 63.38 O 73.89 CB 48.03 CG 77.39 OD1 76.0 ND2 55.02
A ILE - 37 -99.6 136.3 N 52.34 CA 58.45 C 65.04 O 68.9 CB 62.35 CG1 57.37 CG2 55.26 CD1 67.48
A ASP - 142 -72.7 93.9 N 77.6 CA 74.41 C 71.06 O 63.9 CB 74.91 CG 93.94 OD1 83.69 OD2 82.13
A LEU - 11 -136.6 90.6 N 63.77 CA 76.32 C 75.26 O 64.3 CB 57.54 CG 51.13 CD1 51.09 CD2 61.4
A LYS - 123 -81.6 156.2 N 72.17 CA 76.44 C 63.45 O 58.45 CB 79.42 CG 81.38 CD 64.81 CE 78.88 NZ 74.81
A PHE H 6 -60.8 -33.3 N 59.26 CA 61.46 C 61.58 O 58.21 CB 56.58 CG 52.93 CD1 53.3 CD2 47.91 CE1 49.1 CE2 60.38 CZ 58.96
A LYS H 138 -56.8 -39.6 N 63.98 CA 73.74 C 59.7 O 53.67 CB 67.52 CG 66.35 CD 65.07 CE 70.0 NZ 65.27
A ILE H 73 -67.1 -51.5 N 52.7 CA 58.78 C 50.42 O 45.9 CB 57.2 CG1 68.45 CG2 54.87 CD1 47.99
A ILE H 0 -53.2 -47.4 N 45.77 CA 51.41 C 50.71 O 49.36 CB 45.37 CG1 50.88 CG2 42.8 CD1 38.82
A VAL H 21 -71.3 -30.0 N 51.74 CA 61.0 C 55.19 O 51.32 CB 56.54 CG1 57.97 CG2 43.34
A THR H 50 -69.9 -43.2 N 47.35 CA 61.25 C 54.12 O 56.85 CB 62.8 OG1 58.05 CG2 54.05
A ALA H 4 -63.5 -37.5 N 51.87 CA 52.94 C 54.66 O 55.65 CB 43.51
A TYR H 1 -58.2 -37.5 N 43.86 CA 49.53 C 50.0 O 60.23 CB 47.3 CG 60.71 CD1 56.64 CD2 47.68 CE1 41.42 CE2 47.52 CZ 53.78 OH 39.87
A LYS H 64 -61.7 -24.7 N 49.02 CA 59.05 C 64.26 O 69.6 CB 57.52 CG 52.06 CD 67.38 CE 76.58 NZ 73.67
A ASP T 95 -86.8 -7.2 N 62.13 CA 65.31 C 64.76 O 64.85 CB 73.62 CG 77.26 OD1 84.18 OD2 72.17
A LEU S 21 -64.7 139.3 N 57.19 CA 59.84 C 62.92 O 57.74 CB 60.73 CG 50.91 CD1 48.36 CD2 56.09
A PRO T 115 -29.2 -46.5 N 81.49 CA 81.62 C 76.84 O 85.25 CB 93.77 CG 108.39 CD 85.07
A HIS T 68 -135.8 22.3 N 67.01 CA 76.7 C 68.57 O 76.63 CB 90.19 CG 88.35 ND1 71.03 CD2 85.83 CE1 83.12 NE2 89.49
A ALA - 24 -72.9 143.4 N 57.6 CA 46.24 C 56.1 O 52.54 CB 59.81
A VAL - 82 -124.9 143.4 N 54.22 CA 54.11 C 52.79 O 41.85 CB 50.57 CG1 55.15 CG2 48.61
A GLN T 38 -55.2 -36.1 N 44.15 CA 55.14 C 53.18 O 51.37 CB 60.53 CG 70.4 CD 83.91 OE1 64.66 NE2 71.83
A GLU H 86 -58.0 -18.8 N 47.33 CA 46.92 C 46.76 O 47.52 CB 47.15 CG 66.69 CD 90.41 OE1 93.63 OE2 70.69
A THR H 9 -70.2 -29.3 N 42.89 CA 44.0 C 47.55 O 45.31 CB 54.42 OG1 54.85 CG2 37.48
A PHE H 16 -107.6 -18.1 N 43.99 CA 59.47 C 54.91 O 47.41 CB 53.62 CG 50.17 CD1 48.4 CD2 42.96 CE1 54.88 CE2 45.77 CZ 61.6
A LYS H 35 -80.8 -31.4 N 57.74 CA 57.8 C 61.36 O 61.55 CB 42.81 CG 43.48 CD 46.01 CE 53.14 NZ 78.43
A ARG S 108 -131.1 97.2 N 58.5 CA 56.25 C 61.4 O 59.72 CB 68.42 CG 73.65 CD 74.06 NE 85.87 CZ 91.38 NH1 100.12 NH2 82.16
A VAL E 1 -127.5 133.0 N 51.37 CA 56.34 C 62.07 O 54.87 CB 54.8 CG1 43.26 CG2 46.94
A LEU E 15 -63.8 118.6 N 57.18 CA 51.78 C 54.29 O 54.5 CB 67.59 CG 59.76 CD1 65.18 CD2 72.19
A ILE E 18 -99.4 -62.2 N 72.11 CA 73.7 C 73.85 O 69.8 CB 68.03 CG1 51.21 CG2 61.89 CD1 49.98
A LYS E 124 -121.5 166.3 N 86.67 CA 76.14 C 86.0 O 88.59 CB 86.59 CG 84.13 CD 79.73 CE 92.14 NZ 60.57
A GLU T 154 -58.2 124.4 N 77.47 CA 81.35 C 73.37 O 83.22 CB 96.77 CG 97.13 CD 100.73 OE1 92.23 OE2 91.1
A GLU T 189 65.3 18.4 N 67.19 CA 80.02 C 83.94 O 82.39 CB 91.39 CG 102.29 CD 104.82 OE1 105.91 OE2 84.39
A GLU E 105 -118.9 115.5 N 78.08 CA 75.81 C 66.59 O 67.06 CB 81.51 CG 101.22 CD 97.57 OE1 103.52 OE2 94.89
A TYR E 103 -113.8 133.6 N 52.42 CA 62.64 C 78.5 O 73.75 CB 59.43 CG 73.57 CD1 72.71 CD2 85.11 CE1 79.51 CE2 95.05 CZ 94.81 OH 100.05
A ASP E 80 -139.2 -155.1 N 75.38 CA 64.74 C 65.73 O 71.86 CB 71.95 CG 74.89 OD1 61.49 OD2 74.28
A SER - 31 -91.8 164.4 N 70.23 CA 57.72 C 68.49 O 55.85 CB 64.52 OG 56.9
A ILE H 3 -65.6 -28.2 N 45.93 CA 43.64 C 52.83 O 49.17 CB 57.3 CG1 45.82 CG2 44.07 CD1 37.74
A ILE H 79 -68.4 -48.2 N 57.58 CA 58.79 C 60.13 O 51.09 CB 58.42 CG1 56.17 CG2 38.56 CD1 50.86
A VAL H 52 -56.9 -38.9 N 56.27 CA 54.48 C 63.49 O 60.7 CB 71.57 CG1 68.24 CG2 64.03
A PHE H 0 -64.5 -42.3 N 55.29 CA 56.03 C 54.75 O 52.24 CB 58.37 CG 55.1 CD1 56.15 CD2 56.17 CE1 56.11 CE2 42.74 CZ 58.99
A TYR I 5 -57.1 -47.2 N 54.93 CA 58.08 C 69.76 O 60.03 CB 63.37 CG 74.71 CD1 72.07 CD2 67.81 CE1 68.74 CE2 70.21 CZ 69.19 OH 76.76
A ASN I 101 -78.8 -36.9 N 66.81 CA 64.99 C 73.49 O 76.79 CB 58.25 CG 72.06 OD1 50.88 ND2 68.32
A SER I 57 -88.9 -37.9 N 55.57 CA 54.49 C 77.45 O 77.87 CB 54.03 OG 75.51
A VAL I 19 -112.7 -59.2 N 78.33 CA 63.25 C 62.34 O 68.45 CB 48.01 CG1 59.48 CG2 68.0
A PHE I 0 -55.6 -37.1 N 55.28 CA 61.41 C 72.89 O 76.3 CB 65.12 CG 70.23 CD1 62.1 CD2 63.02 CE1 63.72 CE2 54.22 CZ 48.65
A MET H 39 -85.1 -20.9 N 74.2 CA 66.41 C 79.49 O 72.32 CB 74.87 CG 79.54 SD 99.06 CE 86.11
A GLN H 125 -67.4 -41.6 N 79.41 CA 75.21 C 94.24 O 100.64 CB 86.65 CG 89.71 CD 106.82 OE1 108.82 NE2 87.04
A ARG H 111 -84.6 -24.5 N 91.45 CA 83.41 C 81.33 O 84.2 CB 78.35 CG 83.01 CD 93.14 NE 106.01 CZ 103.51 NH1 83.12 NH2 103.44
A LEU H 0 -112.2 8.7 N 86.16 CA 74.83 C 74.29 O 77.16 CB 68.38 CG 58.8 CD1 58.52 CD2 66.06
A LYS T 143 -53.1 -60.6 N 79.37 CA 87.39 C 99.02 O 93.53 CB 84.82 CG 100.73 CD 112.37 CE 111.23 NZ 96.82
A THR T 111 -77.7 33.6 N 100.6 CA 97.19 C 100.28 O 112.28 CB 107.99 OG1 93.56 CG2 100.53
A ASN T 20 -129.9 -35.0 N 89.65 CA 82.46 C 86.72 O 80.41 CB 65.95 CG 84.3 OD1 76.37 ND2 81.51
A ILE G 6 -79.3 2.0 N 82.55 CA 80.52 C 80.49 O 81.88 CB 81.38 CG1 71.11 CG2 82.07 CD1 69.61
A LEU G 117 -62.0 -40.3 N 83.57 CA 83.95 C 83.05 O 95.15 CB 104.34 CG 115.37 CD1 101.01 CD2 104.88
A GLN G 121 -64.6 -5.8 N 84.3 CA 79.17 C 94.41 O 104.48 CB 84.64 CG 97.02 CD 94.71 OE1 79.68 NE2 105.07
A TYR - 63 -117.6 360.0 N 81.74 CA 70.09 C 67.58 O 66.02 CB 73.79 CG 84.19 CD1 89.63 CD2 70.66 CE1 84.65 CE2 64.05 CZ 83.07 OH 87.49
