A MET - 76 360.0 137.8 N 57.01 CA 50.14 C 35.76 O 33.36 CB 44.43 CG 52.84 SD 60.71 CE 58.84 H1 68.35 H2 68.35 H3 68.35 HA 60.11 HB2 53.26 HB3 53.26 HG2 63.35 HG3 63.35 HE1 70.54 HE2 70.54 HE3 70.54
A ILE - 9 -120.4 121.7 N 35.13 CA 25.24 C 31.59 O 27.53 CB 32.41 CG1 35.71 CG2 32.25 CD1 42.96 H 42.09 HA 30.23 HB 38.83 HG12 42.8 HG13 42.8 HG21 38.64 HG22 38.64 HG23 38.64 HD11 51.49 HD12 51.49 HD13 51.49
A VAL E 0 -114.3 137.1 N 29.32 CA 29.35 C 26.37 O 23.89 CB 29.44 CG1 29.41 CG2 32.9 H 35.12 HA 35.16 HB 35.27 HG11 35.24 HG12 35.24 HG13 35.24 HG21 39.42 HG22 39.42 HG23 39.42
A ILE E 0 -117.0 120.3 N 22.18 CA 23.14 C 18.97 O 23.37 CB 27.07 CG1 25.29 CG2 26.33 CD1 35.91 H 26.55 HA 27.7 HB 32.42 HG12 30.29 HG13 30.29 HG21 31.53 HG22 31.53 HG23 31.53 HD11 43.04 HD12 43.04 HD13 43.04
A PHE E 0 -104.5 135.9 N 22.2 CA 20.78 C 22.84 O 21.48 CB 20.7 CG 17.9 CD1 21.26 CD2 22.27 CE1 19.48 CE2 21.96 CZ 21.44 H 26.58 HA 24.87 HB2 24.78 HB3 24.78 HD1 25.45 HD2 26.66 HE1 23.32 HE2 26.29 HZ 25.67
A VAL E 0 -126.5 131.3 N 19.08 CA 16.85 C 17.9 O 18.73 CB 18.14 CG1 18.72 CG2 17.48 H 22.83 HA 20.15 HB 21.7 HG11 22.4 HG12 22.4 HG13 22.4 HG21 20.92 HG22 20.92 HG23 20.92
A ASP E 7 -135.6 118.2 N 16.48 CA 17.25 C 14.13 O 16.92 CB 18.59 CG 31.91 OD1 32.37 OD2 27.13 H 19.72 HA 20.64 HB2 22.25 HB3 22.25
A PHE E 2 -73.2 139.2 N 17.67 CA 15.92 C 18.21 O 17.35 CB 16.18 CG 16.06 CD1 16.19 CD2 15.37 CE1 21.01 CE2 16.95 CZ 19.4 H 21.14 HA 19.05 HB2 19.36 HB3 19.36 HD1 19.37 HD2 18.39 HE1 25.15 HE2 20.28 HZ 23.22
A ASP T 2 -73.5 135.7 N 15.21 CA 18.82 C 15.02 O 14.86 CB 19.32 CG 26.75 OD1 29.24 OD2 21.97 H 18.19 HA 22.52 HB2 23.12 HB3 23.12
A TYR T 21 32.5 54.3 N 15.35 CA 15.35 C 14.65 O 13.17 CB 16.05 CG 18.15 CD1 18.51 CD2 23.3 CE1 19.69 CE2 22.31 CZ 20.6 OH 20.3 H 18.36 HA 18.35 HB2 19.2 HB3 19.2 HD1 22.15 HD2 27.9 HE1 23.57 HE2 26.71 HH 24.3
A PHE H 8 -50.2 -61.0 N 14.23 CA 12.41 C 17.16 O 15.78 CB 11.59 CG 13.34 CD1 16.93 CD2 15.2 CE1 15.86 CE2 13.68 CZ 18.36 H 17.01 HA 14.83 HB2 13.84 HB3 13.84 HD1 20.25 HD2 18.18 HE1 18.97 HE2 16.36 HZ 21.97
A PHE H 33 -62.9 -40.0 N 14.07 CA 16.62 C 16.47 O 14.66 CB 18.03 CG 15.22 CD1 15.19 CD2 15.5 CE1 17.84 CE2 17.9 CZ 15.99 H 16.82 HA 19.88 HB2 21.57 HB3 21.57 HD1 18.16 HD2 18.54 HE1 21.35 HE2 21.42 HZ 19.13
A ALA H 0 -67.3 -38.1 N 16.53 CA 15.64 C 15.81 O 16.98 CB 15.83 H 19.77 HA 18.71 HB1 18.93 HB2 18.93 HB3 18.93
A GLN H 4 -64.6 -44.1 N 14.9 CA 18.36 C 18.65 O 16.61 CB 18.27 CG 16.93 CD 21.98 OE1 18.94 NE2 19.95 H 17.81 HA 21.97 HB2 21.86 HB3 21.86 HG2 20.25 HG3 20.25 HE21 23.88 HE22 23.88
A VAL H 0 -57.1 -42.8 N 14.69 CA 16.47 C 20.95 O 16.37 CB 18.92 CG1 17.86 CG2 13.92 H 17.57 HA 19.7 HB 22.65 HG11 21.38 HG12 21.38 HG13 21.38 HG21 16.64 HG22 16.64 HG23 16.64
A GLU H 4 -62.9 -34.2 N 16.86 CA 17.34 C 17.74 O 18.52 CB 19.67 CG 17.54 CD 24.02 OE1 22.94 OE2 28.01 H 20.17 HA 20.75 HB2 23.54 HB3 23.54 HG2 20.98 HG3 20.98
A GLU H 8 -67.8 -36.4 N 17.23 CA 17.47 C 20.84 O 21.72 CB 15.94 CG 16.73 CD 24.29 OE1 22.24 OE2 22.94 H 20.61 HA 20.91 HB2 19.07 HB3 19.07 HG2 20.01 HG3 20.01
A VAL H 44 -64.6 -41.9 N 18.84 CA 18.16 C 22.16 O 24.6 CB 20.0 CG1 19.57 CG2 17.64 H 22.54 HA 21.73 HB 23.93 HG11 23.43 HG12 23.43 HG13 23.43 HG21 21.11 HG22 21.11 HG23 21.11
A LEU H 67 -75.5 -23.4 N 19.74 CA 20.84 C 24.58 O 22.8 CB 23.64 CG 32.84 CD1 28.75 CD2 31.48 H 23.63 HA 24.95 HB2 28.31 HB3 28.31 HG 39.34 HD11 34.44 HD12 34.44 HD13 34.44 HD21 37.72 HD22 37.72 HD23 37.72
A ASN - 34 -140.2 77.2 N 20.28 CA 21.88 C 24.34 O 21.94 CB 28.48 CG 40.8 OD1 42.19 ND2 35.37 H 24.28 HA 26.2 HB2 34.12 HB3 34.12 HD21 42.38 HD22 42.38
A PRO G 87 -66.5 -15.4 N 20.26 CA 22.3 C 26.79 O 23.11 CB 28.62 CG 25.2 CD 26.86 HA 26.7 HB2 34.28 HB3 34.28 HG2 30.18 HG3 30.18 HD2 32.17 HD3 32.17
A GLN G 128 -56.4 -21.9 N 24.66 CA 30.18 C 33.69 O 29.96 CB 27.09 CG 37.49 CD 37.26 OE1 34.39 NE2 41.48 H 29.53 HA 36.15 HB2 32.45 HB3 32.45 HG2 44.92 HG3 44.92 HE21 49.71 HE22 49.71
A TYR G 52 -78.3 -21.7 N 21.56 CA 19.42 C 23.03 O 24.16 CB 19.59 CG 22.53 CD1 30.86 CD2 30.34 CE1 35.34 CE2 28.94 CZ 36.1 OH 45.51 H 25.82 HA 23.24 HB2 23.45 HB3 23.45 HD1 36.98 HD2 36.35 HE1 42.34 HE2 34.66 HH 54.55
A LYS T 128 -65.6 142.2 N 21.89 CA 22.55 C 29.79 O 22.98 CB 23.92 CG 30.86 CD 35.62 CE 35.15 NZ 36.17 H 26.2 HA 27.0 HB2 28.64 HB3 28.64 HG2 36.97 HG3 36.97 HD2 42.68 HD3 42.68 HE2 42.11 HE3 42.11 HZ1 43.34 HZ2 43.34 HZ3 43.34
A GLY T 39 75.2 5.5 N 22.55 CA 29.8 C 34.15 O 25.38 H 27.0 HA2 35.7 HA3 35.7
A LYS S 139 -126.8 158.4 N 26.3 CA 26.01 C 22.64 O 20.15 CB 23.18 CG 39.13 CD 51.82 CE 64.77 NZ 67.57 H 31.5 HA 31.15 HB2 27.75 HB3 27.75 HG2 46.89 HG3 46.89 HD2 62.12 HD3 62.12 HE2 77.66 HE3 77.66 HZ1 81.02 HZ2 81.02 HZ3 81.02
A PRO - 33 -58.3 127.2 N 21.47 CA 23.4 C 17.85 O 16.67 CB 23.15 CG 24.76 CD 24.45 HA 28.02 HB2 27.71 HB3 27.71 HG2 29.66 HG3 29.66 HD2 29.27 HD3 29.27
A LEU E 0 -132.1 129.6 N 20.55 CA 18.97 C 13.87 O 16.65 CB 16.28 CG 15.65 CD1 20.8 CD2 19.27 H 24.6 HA 22.7 HB2 19.47 HB3 19.47 HG 18.72 HD11 24.9 HD12 24.9 HD13 24.9 HD21 23.06 HD22 23.06 HD23 23.06
A VAL E 0 -123.2 123.0 N 14.76 CA 18.17 C 17.22 O 18.61 CB 17.57 CG1 15.47 CG2 16.99 H 17.65 HA 21.74 HB 21.02 HG11 18.5 HG12 18.5 HG13 18.5 HG21 20.33 HG22 20.33 HG23 20.33
A VAL E 0 -95.4 122.3 N 16.94 CA 13.67 C 14.74 O 16.45 CB 16.26 CG1 16.94 CG2 19.59 H 20.26 HA 16.34 HB 19.45 HG11 20.27 HG12 20.27 HG13 20.27 HG21 23.44 HG22 23.44 HG23 23.44
A CYS E 0 -117.9 146.4 N 16.96 CA 18.87 C 19.08 O 17.22 CB 21.55 SG 23.05 H 20.29 HA 22.58 HB2 25.8 HB3 25.8 HG 27.59
A VAL E 59 -107.2 96.5 N 16.35 CA 17.67 C 14.56 O 17.11 CB 15.82 CG1 18.65 CG2 17.71 H 19.55 HA 21.14 HB 18.92 HG11 22.32 HG12 22.32 HG13 22.32 HG21 21.19 HG22 21.19 HG23 21.19
A TYR E 85 -84.2 123.2 N 15.39 CA 18.97 C 23.39 O 22.93 CB 21.0 CG 25.52 CD1 24.88 CD2 24.46 CE1 23.87 CE2 31.35 CZ 28.79 OH 26.32 H 18.41 HA 22.71 HB2 25.13 HB3 25.13 HD1 29.79 HD2 29.29 HE1 28.58 HE2 37.56 HH 31.53
A SER - 36 -82.7 -21.7 N 20.21 CA 25.21 C 33.67 O 30.93 CB 23.84 OG 29.86 H 24.2 HA 30.2 HB2 28.55 HB3 28.55 HG 35.77
A GLY S 57 94.5 -6.7 N 24.62 CA 33.9 C 40.1 O 43.53 H 29.49 HA2 40.62 HA3 40.62
A ARG S 52 -64.4 -40.0 N 30.69 CA 36.56 C 43.89 O 40.86 CB 33.87 CG 48.32 CD 39.37 NE 43.64 CZ 38.53 NH1 33.23 NH2 41.92 H 36.76 HA 43.82 HB2 40.58 HB3 40.58 HG2 57.93 HG3 57.93 HD2 47.19 HD3 47.19 HE 52.3 HH11 39.81 HH12 39.81 HH21 50.24 HH22 50.24
A THR S 77 -134.4 179.8 N 39.05 CA 39.08 C 44.16 O 32.1 CB 35.87 OG1 35.64 CG2 42.59 H 46.79 HA 46.83 HB 42.99 HG1 42.71 HG21 51.05 HG22 51.05 HG23 51.05
A LYS S 187 -59.4 -30.3 N 40.46 CA 36.41 C 35.62 O 39.3 CB 40.87 CG 57.12 CD 55.89 CE 57.67 NZ 66.66 H 48.49 HA 43.63 HB2 48.98 HB3 48.98 HG2 68.48 HG3 68.48 HD2 67.0 HD3 67.0 HE2 69.14 HE3 69.14 HZ1 79.93 HZ2 79.93 HZ3 79.93
A THR S 35 -127.4 5.7 N 31.33 CA 34.66 C 33.53 O 35.4 CB 35.14 OG1 36.76 CG2 36.11 H 37.53 HA 41.53 HB 42.1 HG1 44.06 HG21 43.27 HG22 43.27 HG23 43.27
A SER - 16 -69.3 136.8 N 27.0 CA 29.24 C 19.93 O 24.54 CB 28.44 OG 27.01 H 32.34 HA 35.03 HB2 34.07 HB3 34.07 HG 32.35
A GLY E 24 152.0 -173.1 N 26.76 CA 22.94 C 20.44 O 18.2 H 32.05 HA2 27.46 HA3 27.46
A ALA E 36 -130.7 159.6 N 18.96 CA 18.0 C 21.66 O 15.44 CB 25.6 H 22.69 HA 21.54 HB1 30.66 HB2 30.66 HB3 30.66
A VAL E 4 -82.9 128.1 N 16.55 CA 15.9 C 16.06 O 13.95 CB 22.56 CG1 16.57 CG2 23.17 H 19.79 HA 19.02 HB 27.02 HG11 19.82 HG12 19.82 HG13 19.82 HG21 27.74 HG22 27.74 HG23 27.74
A ALA E 30 -81.3 -46.5 N 14.73 CA 17.54 C 16.69 O 18.02 CB 19.36 H 17.62 HA 20.99 HB1 23.17 HB2 23.17 HB3 23.17
A THR E 18 -166.7 164.4 N 16.93 CA 16.07 C 18.74 O 17.23 CB 31.27 OG1 28.73 CG2 18.12 H 20.26 HA 19.22 HB 37.47 HG1 34.42 HG21 21.68 HG22 21.68 HG23 21.68
A ALA E 1 -132.8 150.5 N 15.56 CA 21.15 C 18.75 O 18.43 CB 21.45 H 18.62 HA 25.31 HB1 25.67 HB2 25.67 HB3 25.67
A ASN - 0 -72.3 170.0 N 18.21 CA 14.72 C 17.92 O 16.57 CB 17.45 CG 18.6 OD1 16.33 ND2 17.88 H 21.79 HA 17.6 HB2 20.88 HB3 20.88 HD21 21.39 HD22 21.39
A TYR H 50 -63.9 -32.9 N 19.95 CA 23.76 C 23.48 O 22.56 CB 22.86 CG 29.41 CD1 33.17 CD2 36.23 CE1 24.58 CE2 38.69 CZ 28.17 OH 39.72 H 23.88 HA 28.45 HB2 27.37 HB3 27.37 HD1 39.75 HD2 43.42 HE1 29.44 HE2 46.37 HH 47.6
A GLU H 55 -60.4 -40.2 N 19.43 CA 21.15 C 28.54 O 20.35 CB 22.76 CG 30.61 CD 38.82 OE1 24.17 OE2 32.26 H 23.26 HA 25.32 HB2 27.26 HB3 27.26 HG2 36.67 HG3 36.67
A ALA H 0 -72.4 -36.2 N 16.33 CA 13.8 C 17.43 O 19.87 CB 16.25 H 19.53 HA 16.5 HB1 19.44 HB2 19.44 HB3 19.44
A ARG H 105 -62.6 -34.7 N 17.65 CA 18.59 C 25.17 O 21.68 CB 24.31 CG 18.36 CD 22.91 NE 23.81 CZ 26.7 NH1 20.77 NH2 23.38 H 21.11 HA 22.25 HB2 29.11 HB3 29.11 HG2 21.97 HG3 21.97 HD2 27.43 HD3 27.43 HE 28.51 HH11 24.86 HH12 24.86 HH21 27.99 HH22 27.99
A LYS T 170 -60.4 -21.5 N 25.88 CA 25.89 C 24.5 O 29.97 CB 23.76 CG 31.37 CD 40.3 CE 50.92 NZ 63.71 H 30.99 HA 31.0 HB2 28.45 HB3 28.45 HG2 37.59 HG3 37.59 HD2 48.3 HD3 48.3 HE2 61.05 HE3 61.05 HZ1 76.39 HZ2 76.39 HZ3 76.39
A LEU T 90 -95.4 -0.5 N 22.39 CA 20.36 C 23.9 O 23.92 CB 21.16 CG 22.25 CD1 23.56 CD2 25.03 H 26.81 HA 24.37 HB2 25.33 HB3 25.33 HG 26.63 HD11 28.21 HD12 28.21 HD13 28.21 HD21 29.97 HD22 29.97 HD23 29.97
A GLY T 35 108.8 0.6 N 18.23 CA 24.21 C 25.99 O 27.91 H 21.81 HA2 28.99 HA3 28.99
A VAL - 0 -74.4 128.7 N 19.61 CA 17.43 C 18.96 O 20.05 CB 23.34 CG1 23.69 CG2 20.45 H 23.47 HA 20.86 HB 27.95 HG11 28.37 HG12 28.37 HG13 28.37 HG21 24.48 HG22 24.48 HG23 24.48
A LYS - 148 -131.4 146.8 N 21.41 CA 21.0 C 20.54 O 17.66 CB 28.41 CG 45.54 CD 49.37 CE 62.85 NZ 64.31 H 25.63 HA 25.14 HB2 34.03 HB3 34.03 HG2 54.59 HG3 54.59 HD2 59.18 HD3 59.18 HE2 75.36 HE3 75.36 HZ1 77.11 HZ2 77.11 HZ3 77.11
A ALA T 68 -54.4 140.0 N 18.71 CA 20.08 C 22.04 O 19.17 CB 20.84 H 22.39 HA 24.03 HB1 24.95 HB2 24.95 HB3 24.95
A GLY T 58 93.2 -15.9 N 20.91 CA 20.19 C 28.65 O 24.31 H 25.03 HA2 24.17 HA3 24.17
A MET - 16 -76.5 146.3 N 20.46 CA 16.18 C 21.88 O 22.1 CB 27.01 CG 30.56 SD 27.29 CE 43.68 H 24.48 HA 19.35 HB2 32.35 HB3 32.35 HG2 36.61 HG3 36.61 HE1 52.36 HE2 52.36 HE3 52.36
A PRO B 66 -53.9 137.6 N 19.71 CA 24.57 C 22.11 O 23.91 CB 22.69 CG 25.99 CD 28.74 HA 29.42 HB2 27.17 HB3 27.17 HG2 31.12 HG3 31.12 HD2 34.43 HD3 34.43
A ILE H 0 -57.3 -42.5 N 20.71 CA 18.97 C 32.91 O 21.78 CB 22.54 CG1 21.18 CG2 26.04 CD1 25.46 H 24.79 HA 22.7 HB 26.98 HG12 25.35 HG13 25.35 HG21 31.19 HG22 31.19 HG23 31.19 HD11 30.49 HD12 30.49 HD13 30.49
A ILE H 83 -60.0 -38.5 N 26.08 CA 36.13 C 29.48 O 33.29 CB 29.45 CG1 44.52 CG2 28.71 CD1 34.49 H 31.23 HA 43.3 HB 35.28 HG12 53.37 HG13 53.37 HG21 34.39 HG22 34.39 HG23 34.39 HD11 41.32 HD12 41.32 HD13 41.32
A LYS H 96 -68.6 -39.3 N 24.58 CA 25.19 C 31.87 O 29.54 CB 26.82 CG 41.14 CD 39.15 CE 39.44 NZ 52.48 H 29.44 HA 30.17 HB2 32.12 HB3 32.12 HG2 49.31 HG3 49.31 HD2 46.92 HD3 46.92 HE2 47.27 HE3 47.27 HZ1 62.92 HZ2 62.92 HZ3 62.92
A ALA H 0 -59.3 -48.1 N 24.63 CA 25.22 C 23.67 O 24.32 CB 23.82 H 29.49 HA 30.2 HB1 28.52 HB2 28.52 HB3 28.52
A MET H 41 -61.4 -31.1 N 24.33 CA 30.92 C 32.3 O 31.74 CB 31.82 CG 31.79 SD 30.46 CE 38.97 H 29.14 HA 37.04 HB2 38.13 HB3 38.13 HG2 38.08 HG3 38.08 HE1 46.7 HE2 46.7 HE3 46.7
A GLN H 141 -64.0 -44.0 N 33.88 CA 36.25 C 37.26 O 38.74 CB 39.35 CG 48.37 CD 60.62 OE1 62.89 NE2 56.66 H 40.6 HA 43.44 HB2 47.16 HB3 47.16 HG2 57.99 HG3 57.99 HE21 67.93 HE22 67.93
A ILE H 65 -92.5 -17.7 N 32.27 CA 30.51 C 35.41 O 31.66 CB 23.91 CG1 29.17 CG2 40.11 CD1 31.39 H 38.66 HA 36.55 HB 28.63 HG12 34.94 HG13 34.94 HG21 48.08 HG22 48.08 HG23 48.08 HD11 37.61 HD12 37.61 HD13 37.61
A ALA - 4 -141.8 60.8 N 18.95 CA 25.7 C 26.17 O 23.91 CB 19.88 H 22.68 HA 30.77 HB1 23.8 HB2 23.8 HB3 23.8
A PRO T 93 -68.6 -13.9 N 27.08 CA 26.92 C 27.38 O 32.34 CB 36.07 CG 33.21 CD 29.17 HA 32.24 HB2 43.22 HB3 43.22 HG2 39.79 HG3 39.79 HD2 34.94 HD3 34.94
A SER T 113 -99.4 2.3 N 25.28 CA 25.51 C 28.95 O 22.13 CB 33.67 OG 41.86 H 30.28 HA 30.55 HB2 40.34 HB3 40.34 HG 50.17
A ALA S 9 -64.6 159.5 N 22.42 CA 23.53 C 21.39 O 22.86 CB 21.46 H 26.85 HA 28.18 HB1 25.69 HB2 25.69 HB3 25.69
A ILE E 70 -88.9 128.0 N 22.73 CA 20.17 C 22.04 O 18.77 CB 22.41 CG1 33.77 CG2 23.73 CD1 46.41 H 27.22 HA 24.15 HB 26.82 HG12 40.46 HG13 40.46 HG21 28.41 HG22 28.41 HG23 28.41 HD11 55.63 HD12 55.63 HD13 55.63
A TYR E 43 -110.4 117.4 N 20.65 CA 22.31 C 23.98 O 23.1 CB 16.04 CG 19.96 CD1 23.24 CD2 20.39 CE1 18.53 CE2 19.65 CZ 22.41 OH 20.17 H 24.72 HA 26.72 HB2 19.19 HB3 19.19 HD1 27.83 HD2 24.4 HE1 22.17 HE2 23.52 HH 24.15
A VAL E 12 -125.2 150.4 N 19.92 CA 18.12 C 21.11 O 17.58 CB 18.05 CG1 22.18 CG2 16.85 H 23.84 HA 21.68 HB 21.6 HG11 26.56 HG12 26.56 HG13 26.56 HG21 20.16 HG22 20.16 HG23 20.16
A PRO E 74 -76.0 148.1 N 20.49 CA 19.78 C 16.45 O 18.3 CB 23.15 CG 24.97 CD 24.82 HA 23.67 HB2 27.72 HB3 27.72 HG2 29.9 HG3 29.9 HD2 29.72 HD3 29.72
A MET - 63 -66.5 133.8 N 19.6 CA 23.1 C 21.71 O 25.12 CB 26.05 CG 24.18 SD 33.06 CE 26.1 H 23.46 HA 27.66 HB2 31.19 HB3 31.19 HG2 28.96 HG3 28.96 HE1 31.26 HE2 31.26 HE3 31.26
A ARG - 93 -119.2 68.4 N 19.39 CA 20.21 C 19.56 O 18.04 CB 19.7 CG 21.61 CD 22.83 NE 24.28 CZ 26.44 NH1 28.74 NH2 25.72 H 23.21 HA 24.19 HB2 23.57 HB3 23.57 HG2 25.87 HG3 25.87 HD2 27.34 HD3 27.34 HE 29.07 HH11 34.43 HH12 34.43 HH21 30.8 HH22 30.8
A LYS H 96 -55.4 -36.3 N 20.44 CA 21.08 C 19.52 O 15.76 CB 23.58 CG 26.77 CD 41.7 CE 44.96 NZ 59.55 H 24.47 HA 25.23 HB2 28.23 HB3 28.23 HG2 32.06 HG3 32.06 HD2 49.97 HD3 49.97 HE2 53.89 HE3 53.89 HZ1 71.4 HZ2 71.4 HZ3 71.4
A PRO H 98 -61.1 -34.1 N 21.98 CA 19.75 C 19.64 O 15.59 CB 26.27 CG 26.3 CD 25.51 HA 23.64 HB2 31.46 HB3 31.46 HG2 31.49 HG3 31.49 HD2 30.55 HD3 30.55
A ILE H 50 -68.4 -41.2 N 18.97 CA 18.29 C 19.32 O 17.75 CB 17.44 CG1 22.83 CG2 20.39 CD1 26.79 H 22.71 HA 21.88 HB 20.87 HG12 27.33 HG13 27.33 HG21 24.41 HG22 24.41 HG23 24.41 HD11 32.08 HD12 32.08 HD13 32.08
A TYR H 0 -63.3 -36.8 N 16.63 CA 14.78 C 15.93 O 15.32 CB 15.49 CG 16.74 CD1 15.43 CD2 16.26 CE1 16.89 CE2 15.37 CZ 16.05 OH 16.99 H 19.9 HA 17.67 HB2 18.53 HB3 18.53 HD1 18.46 HD2 19.45 HE1 20.21 HE2 18.39 HH 20.33
A GLU H 83 -64.3 -34.4 N 15.63 CA 17.61 C 21.3 O 18.8 CB 18.53 CG 24.16 CD 43.97 OE1 46.89 OE2 42.11 H 18.69 HA 21.07 HB2 22.17 HB3 22.17 HG2 28.93 HG3 28.93
A ALA H 35 -69.1 -49.0 N 18.38 CA 21.1 C 23.22 O 15.48 CB 21.56 H 21.99 HA 25.26 HB1 25.81 HB2 25.81 HB3 25.81
A PHE H 13 -55.9 -48.1 N 17.52 CA 17.75 C 18.11 O 18.64 CB 20.28 CG 18.41 CD1 17.76 CD2 19.02 CE1 19.26 CE2 24.23 CZ 16.55 H 20.97 HA 21.24 HB2 24.27 HB3 24.27 HD1 21.25 HD2 22.76 HE1 23.05 HE2 29.02 HZ 19.8
A SER H 5 -58.7 -49.6 N 16.82 CA 15.56 C 17.69 O 16.61 CB 21.82 OG 18.57 H 20.12 HA 18.61 HB2 26.12 HB3 26.12 HG 22.22
A ASN H 102 -56.1 -41.4 N 19.82 CA 21.54 C 18.05 O 19.84 CB 22.2 CG 30.81 OD1 35.15 ND2 42.04 H 23.72 HA 25.78 HB2 26.58 HB3 26.58 HD21 50.39 HD22 50.39
A ARG H 101 -68.8 -40.2 N 17.48 CA 21.27 C 23.44 O 21.76 CB 18.56 CG 18.75 CD 24.62 NE 22.57 CZ 22.08 NH1 21.21 NH2 21.19 H 20.91 HA 25.47 HB2 22.21 HB3 22.21 HG2 22.44 HG3 22.44 HD2 29.49 HD3 29.49 HE 27.03 HH11 25.39 HH12 25.39 HH21 25.36 HH22 25.36
A ILE H 0 -64.5 -47.2 N 18.9 CA 22.63 C 22.0 O 26.28 CB 19.58 CG1 22.05 CG2 15.0 CD1 19.84 H 22.62 HA 27.1 HB 23.43 HG12 26.4 HG13 26.4 HG21 17.94 HG22 17.94 HG23 17.94 HD11 23.74 HD12 23.74 HD13 23.74
A MET H 11 -58.5 -36.0 N 21.03 CA 21.68 C 26.73 O 28.68 CB 24.94 CG 20.48 SD 19.26 CE 19.12 H 25.17 HA 25.95 HB2 29.87 HB3 29.87 HG2 24.51 HG3 24.51 HE1 22.89 HE2 22.89 HE3 22.89
A ASN H 117 -64.9 -36.6 N 25.98 CA 26.93 C 24.23 O 28.61 CB 28.58 CG 33.64 OD1 37.31 ND2 42.04 H 31.12 HA 32.26 HB2 34.23 HB3 34.23 HD21 50.39 HD22 50.39
A LEU H 24 -67.7 -41.0 N 24.59 CA 26.5 C 34.42 O 31.56 CB 29.42 CG 38.02 CD1 36.1 CD2 38.16 H 29.44 HA 31.74 HB2 35.24 HB3 35.24 HG 45.57 HD11 43.26 HD12 43.26 HD13 43.26 HD21 45.73 HD22 45.73 HD23 45.73
A LEU H 0 -62.0 -45.0 N 28.96 CA 26.06 C 30.64 O 32.9 CB 30.23 CG 27.48 CD1 27.2 CD2 27.62 H 34.69 HA 31.22 HB2 36.21 HB3 36.21 HG 32.91 HD11 32.57 HD12 32.57 HD13 32.57 HD21 33.08 HD22 33.08 HD23 33.08
A ASN H 85 -52.4 -34.2 N 34.51 CA 37.5 C 41.88 O 36.39 CB 39.24 CG 43.1 OD1 46.02 ND2 46.49 H 41.36 HA 44.94 HB2 47.03 HB3 47.03 HD21 55.73 HD22 55.73
A LYS T 106 -74.8 -11.9 N 43.33 CA 42.91 C 47.14 O 45.05 CB 51.69 CG 47.48 CD 59.46 CE 58.35 NZ 58.65 H 51.93 HA 51.43 HB2 61.97 HB3 61.97 HG2 56.91 HG3 56.91 HD2 71.29 HD3 71.29 HE2 69.95 HE3 69.95 HZ1 70.32 HZ2 70.32 HZ3 70.32
A HIS T 32 -99.8 -1.0 N 35.74 CA 40.43 C 43.3 O 46.72 CB 39.3 CG 37.28 ND1 34.38 CD2 37.36 CE1 45.32 NE2 33.72 H 42.83 HA 48.45 HB2 47.1 HB3 47.1 HD1 41.19 HD2 44.78 HE1 54.32 HE2 40.41
A ALA - 14 -117.8 138.0 N 32.9 CA 40.28 C 42.35 O 37.17 CB 29.86 H 39.42 HA 48.27 HB1 35.77 HB2 35.77 HB3 35.77
A ASP S 55 -54.6 -46.8 N 39.39 CA 45.63 C 42.28 O 41.33 CB 45.46 CG 44.19 OD1 48.65 OD2 54.43 H 47.21 HA 54.7 HB2 54.49 HB3 54.49
A LYS E 94 -144.8 147.7 N 40.2 CA 33.75 C 35.73 O 31.43 CB 29.05 CG 29.09 CD 28.82 CE 28.59 NZ 30.61 HA 40.44 HB2 34.8 HB3 34.8 HG2 34.84 HG3 34.84 HD2 34.52 HD3 34.52 HE2 34.25 HE3 34.25 HZ1 36.67 HZ2 36.67 HZ3 36.67
A ILE E 23 -130.7 138.7 N 29.83 CA 32.21 C 30.93 O 28.57 CB 32.4 CG1 29.58 CG2 34.94 CD1 34.55 H 35.74 HA 38.6 HB 38.82 HG12 35.43 HG13 35.43 HG21 41.87 HG22 41.87 HG23 41.87 HD11 41.4 HD12 41.4 HD13 41.4
A GLU E 0 -115.1 109.1 N 26.8 CA 28.23 C 32.04 O 25.7 CB 24.54 CG 23.52 CD 36.67 OE1 35.31 OE2 30.62 H 32.09 HA 33.81 HB2 29.38 HB3 29.38 HG2 28.16 HG3 28.16
A VAL E 58 -85.1 111.7 N 26.44 CA 25.28 C 27.04 O 28.38 CB 26.49 CG1 33.18 CG2 26.33 H 31.67 HA 30.27 HB 31.73 HG11 39.76 HG12 39.76 HG13 39.76 HG21 31.53 HG22 31.53 HG23 31.53
A ALA E 17 -91.5 -27.2 N 22.25 CA 28.96 C 36.56 O 26.67 CB 31.06 H 26.63 HA 34.69 HB1 37.21 HB2 37.21 HB3 37.21
A SER E 48 -165.5 -179.0 N 24.27 CA 25.85 C 20.84 O 21.34 CB 20.72 OG 25.87 H 29.07 HA 30.96 HB2 24.8 HB3 24.8 HG 30.99
A ILE T 50 -60.3 -21.5 N 24.8 CA 24.34 C 21.55 O 18.45 CB 21.99 CG1 23.35 CG2 22.84 CD1 21.88 H 29.7 HA 29.15 HB 26.33 HG12 27.96 HG13 27.96 HG21 27.34 HG22 27.34 HG23 27.34 HD11 26.19 HD12 26.19 HD13 26.19
A ASP T 28 -132.6 21.8 N 17.78 CA 21.04 C 19.18 O 17.29 CB 24.13 CG 24.53 OD1 28.24 OD2 17.58 H 21.28 HA 25.18 HB2 28.9 HB3 28.9
A GLU E 28 -149.3 148.7 N 16.79 CA 19.27 C 20.64 O 20.39 CB 25.95 CG 21.46 CD 32.91 OE1 37.02 OE2 27.75 H 20.09 HA 23.07 HB2 31.08 HB3 31.08 HG2 25.7 HG3 25.7
A ALA E 0 -147.3 154.5 N 18.09 CA 19.33 C 22.15 O 15.46 CB 23.74 H 21.65 HA 23.13 HB1 28.43 HB2 28.43 HB3 28.43
A TYR E 16 -107.4 129.2 N 21.63 CA 25.04 C 22.51 O 29.41 CB 24.1 CG 23.01 CD1 25.14 CD2 27.83 CE1 26.16 CE2 24.99 CZ 28.75 OH 31.26 H 25.9 HA 29.99 HB2 28.86 HB3 28.86 HD1 30.11 HD2 33.33 HE1 31.33 HE2 29.92 HH 37.45
A LEU E 0 -111.2 130.7 N 22.85 CA 28.65 C 30.87 O 26.04 CB 24.47 CG 27.77 CD1 30.42 CD2 29.26 H 27.36 HA 34.32 HB2 29.3 HB3 29.3 HG 33.27 HD11 36.44 HD12 36.44 HD13 36.44 HD21 35.05 HD22 35.05 HD23 35.05
A ASP E 21 -93.5 111.5 N 32.61 CA 28.79 C 32.35 O 34.13 CB 38.3 CG 43.36 OD1 36.64 OD2 43.28 H 39.07 HA 34.49 HB2 45.9 HB3 45.9
A VAL - 0 -116.7 16.1 N 32.53 CA 37.21 C 33.51 O 39.72 CB 30.42 CG1 32.01 CG2 29.47 H 38.97 HA 44.59 HB 36.44 HG11 38.35 HG12 38.35 HG13 38.35 HG21 35.31 HG22 35.31 HG23 35.31
A THR T 28 -47.0 -60.1 N 42.65 CA 38.99 C 41.74 O 36.52 CB 46.59 OG1 41.83 CG2 56.89 H 51.12 HA 46.72 HB 55.84 HG1 50.13 HG21 68.2 HG22 68.2 HG23 68.2
A ASN T 129 -71.8 -37.8 N 45.91 CA 48.35 C 51.09 O 55.62 CB 52.81 CG 62.5 OD1 65.11 ND2 63.56 H 55.03 HA 57.95 HB2 63.31 HB3 63.31 HD21 76.21 HD22 76.21
A LYS T 117 -51.7 -33.1 N 49.39 CA 52.83 C 49.74 O 57.74 CB 45.13 CG 60.54 CD 62.09 CE 66.96 NZ 66.42 H 59.2 HA 63.34 HB2 54.09 HB3 54.09 HG2 72.59 HG3 72.59 HD2 74.45 HD3 74.45 HE2 80.29 HE3 80.29 HZ1 79.64 HZ2 79.64 HZ3 79.64
A VAL T 12 -113.6 16.7 N 43.62 CA 46.77 C 52.76 O 48.19 CB 50.41 CG1 46.46 CG2 42.84 H 52.29 HA 56.06 HB 60.43 HG11 55.69 HG12 55.69 HG13 55.69 HG21 51.35 HG22 51.35 HG23 51.35
A GLU T 173 56.3 43.6 N 52.82 CA 63.37 C 57.48 O 56.45 CB 69.17 CG 70.13 CD 71.9 OE1 74.7 OE2 68.55 H 63.32 HA 75.99 HB2 82.95 HB3 82.95 HG2 84.09 HG3 84.09
A GLY T 50 53.4 16.9 N 51.39 CA 45.08 C 47.01 O 49.43 H 61.6 HA2 54.04 HA3 54.04
A ASN - 66 -93.5 107.7 N 39.47 CA 42.0 C 50.12 O 36.97 CB 43.76 CG 50.45 OD1 41.41 ND2 53.97 H 47.31 HA 50.34 HB2 52.46 HB3 52.46 HD21 64.7 HD22 64.7
A PHE H 23 -62.6 -40.5 N 46.55 CA 41.85 C 47.2 O 40.01 CB 40.43 CG 28.63 CD1 43.62 CD2 39.6 CE1 35.57 CE2 35.79 CZ 31.31 H 55.79 HA 50.16 HB2 48.46 HB3 48.46 HD1 52.28 HD2 47.46 HE1 42.62 HE2 42.88 HZ 37.51
A GLU H 88 -64.0 -41.2 N 43.84 CA 44.96 C 41.22 O 43.08 CB 53.28 CG 58.84 CD 63.44 OE1 56.16 OE2 54.62 H 52.54 HA 53.89 HB2 63.87 HB3 63.87 HG2 70.55 HG3 70.55
A ASN H 61 -59.0 -31.5 N 37.01 CA 44.13 C 43.9 O 36.22 CB 44.69 CG 45.61 OD1 39.08 ND2 52.66 H 44.35 HA 52.9 HB2 53.56 HB3 53.56 HD21 63.13 HD22 63.13
A GLY H 0 -61.4 -43.4 N 40.46 CA 37.22 C 32.58 O 36.43 H 48.5 HA2 44.61 HA3 44.61
A ILE H 11 -62.6 -47.5 N 29.41 CA 31.88 C 38.11 O 34.45 CB 33.93 CG1 37.31 CG2 43.9 CD1 41.65 H 35.23 HA 38.19 HB 40.66 HG12 44.72 HG13 44.72 HG21 52.62 HG22 52.62 HG23 52.62 HD11 49.92 HD12 49.92 HD13 49.92
A GLU H 119 -57.1 -40.1 N 35.68 CA 39.19 C 32.81 O 36.49 CB 40.54 CG 55.04 CD 63.46 OE1 59.67 OE2 63.12 H 42.75 HA 46.97 HB2 48.59 HB3 48.59 HG2 65.99 HG3 65.99
A LEU H 26 -62.0 -41.4 N 33.16 CA 29.08 C 37.42 O 31.88 CB 38.42 CG 28.36 CD1 27.6 CD2 34.65 H 39.73 HA 34.83 HB2 46.04 HB3 46.04 HG 33.97 HD11 33.06 HD12 33.06 HD13 33.06 HD21 41.52 HD22 41.52 HD23 41.52
A ALA H 0 -60.4 -43.0 N 30.28 CA 33.46 C 28.8 O 25.07 CB 32.19 H 36.28 HA 40.09 HB1 38.56 HB2 38.56 HB3 38.56
A ARG H 150 -63.5 -41.3 N 30.63 CA 33.27 C 29.39 O 31.0 CB 35.54 CG 43.78 CD 59.28 NE 64.45 CZ 75.73 NH1 71.13 NH2 73.98 H 36.7 HA 39.87 HB2 42.59 HB3 42.59 HG2 52.48 HG3 52.48 HD2 71.08 HD3 71.08 HE 77.27 HH11 85.29 HH12 85.29 HH21 88.71 HH22 88.71
A LYS H 109 -65.3 -34.3 N 28.66 CA 35.48 C 36.09 O 31.04 CB 35.04 CG 53.78 CD 60.5 CE 52.44 NZ 60.73 H 34.33 HA 42.51 HB2 41.99 HB3 41.99 HG2 64.48 HG3 64.48 HD2 72.54 HD3 72.54 HE2 62.87 HE3 62.87 HZ1 72.82 HZ2 72.82 HZ3 72.82
A ILE H 1 -65.3 -47.6 N 28.73 CA 31.98 C 25.39 O 28.35 CB 30.95 CG1 29.33 CG2 30.79 CD1 28.12 H 34.41 HA 38.32 HB 37.08 HG12 35.14 HG13 35.14 HG21 36.89 HG22 36.89 HG23 36.89 HD11 33.68 HD12 33.68 HD13 33.68
A LYS H 32 -60.9 -39.8 N 25.96 CA 24.44 C 29.14 O 23.77 CB 29.17 CG 31.45 CD 31.83 CE 34.12 NZ 24.29 H 31.09 HA 29.26 HB2 34.95 HB3 34.95 HG2 37.67 HG3 37.67 HD2 38.14 HD3 38.14 HE2 40.89 HE3 40.89 HZ1 29.08 HZ2 29.08 HZ3 29.08
A GLN H 85 -64.0 -44.8 N 29.16 CA 30.7 C 24.99 O 32.64 CB 34.94 CG 52.96 CD 66.94 OE1 62.06 NE2 63.03 H 34.94 HA 36.78 HB2 41.87 HB3 41.87 HG2 63.49 HG3 63.49 HE21 75.58 HE22 75.58
A GLU H 21 -65.8 -44.9 N 24.64 CA 32.76 C 32.77 O 24.37 CB 32.45 CG 41.25 CD 41.26 OE1 49.96 OE2 44.7 H 29.51 HA 39.25 HB2 38.88 HB3 38.88 HG2 49.43 HG3 49.43
A ILE H 1 -63.0 -38.5 N 22.2 CA 20.07 C 19.85 O 23.12 CB 20.77 CG1 24.31 CG2 22.83 CD1 22.47 H 26.58 HA 24.02 HB 24.86 HG12 29.11 HG13 29.11 HG21 27.33 HG22 27.33 HG23 27.33 HD11 26.9 HD12 26.9 HD13 26.9
A LEU H 84 -65.5 -48.9 N 16.97 CA 19.96 C 24.68 O 26.23 CB 23.23 CG 32.06 CD1 27.2 CD2 34.6 H 20.3 HA 23.89 HB2 27.82 HB3 27.82 HG 38.41 HD11 32.58 HD12 32.58 HD13 32.58 HD21 41.46 HD22 41.46 HD23 41.46
A GLU H 104 -58.3 -52.8 N 29.07 CA 38.59 C 33.07 O 31.76 CB 39.96 CG 59.53 CD 72.32 OE1 73.01 OE2 66.47 H 34.82 HA 46.25 HB2 47.89 HB3 47.89 HG2 71.37 HG3 71.37
A LYS H 107 -76.8 -37.2 N 23.52 CA 29.71 C 33.1 O 32.14 CB 30.35 CG 36.48 CD 45.52 CE 48.3 NZ 50.19 H 28.17 HA 35.59 HB2 36.36 HB3 36.36 HG2 43.71 HG3 43.71 HD2 54.56 HD3 54.56 HE2 57.9 HE3 57.9 HZ1 60.17 HZ2 60.17 HZ3 60.17
A GLU H 29 -118.3 -4.8 N 23.31 CA 26.15 C 26.94 O 21.74 CB 24.96 CG 20.91 CD 28.23 OE1 26.51 OE2 23.88 H 27.91 HA 31.32 HB2 29.89 HB3 29.89 HG2 25.03 HG3 25.03
A LYS - 127 60.0 30.6 N 20.4 CA 20.49 C 23.94 O 24.88 CB 32.41 CG 44.95 CD 45.35 CE 56.14 NZ 49.14 H 24.42 HA 24.52 HB2 38.83 HB3 38.83 HG2 53.88 HG3 53.88 HD2 54.35 HD3 54.35 HE2 67.3 HE3 67.3 HZ1 58.91 HZ2 58.91 HZ3 58.91
A ILE - 0 -108.9 127.8 N 19.64 CA 20.88 C 20.25 O 20.98 CB 15.28 CG1 20.77 CG2 15.16 CD1 21.43 H 23.51 HA 24.99 HB 18.28 HG12 24.87 HG13 24.87 HG21 18.13 HG22 18.13 HG23 18.13 HD11 25.65 HD12 25.65 HD13 25.65
A THR - 27 -87.3 143.5 N 17.27 CA 18.47 C 21.86 O 17.12 CB 24.99 OG1 28.68 CG2 26.19 H 20.66 HA 22.11 HB 29.93 HG1 34.36 HG21 31.37 HG22 31.37 HG23 31.37
A VAL E 1 -135.7 164.0 N 19.62 CA 17.2 C 22.59 O 18.55 CB 20.57 CG1 19.77 CG2 19.55 H 23.49 HA 20.58 HB 24.62 HG11 23.67 HG12 23.67 HG13 23.67 HG21 23.4 HG22 23.4 HG23 23.4
A THR E 0 -113.0 134.8 N 19.78 CA 19.32 C 21.0 O 21.22 CB 19.15 OG1 20.31 CG2 23.42 H 23.67 HA 23.13 HB 22.92 HG1 24.31 HG21 28.04 HG22 28.04 HG23 28.04
A VAL E 0 -122.0 152.2 N 22.98 CA 17.65 C 21.18 O 22.74 CB 25.67 CG1 29.57 CG2 25.27 H 27.52 HA 21.12 HB 30.74 HG11 35.42 HG12 35.42 HG13 35.42 HG21 30.27 HG22 30.27 HG23 30.27
A GLY E 0 -133.7 135.9 N 21.93 CA 26.36 C 27.07 O 18.72 H 26.25 HA2 31.57 HA3 31.57
A VAL E 0 -122.3 125.4 N 22.15 CA 20.29 C 22.12 O 24.06 CB 28.02 CG1 28.92 CG2 32.15 H 26.52 HA 24.28 HB 33.56 HG11 34.64 HG12 34.64 HG13 34.64 HG21 38.52 HG22 38.52 HG23 38.52
A ALA E 0 -160.8 171.1 N 24.67 CA 23.66 C 28.02 O 28.0 CB 22.17 H 29.54 HA 28.33 HB1 26.54 HB2 26.54 HB3 26.54
A PRO S 25 -71.3 -17.0 N 29.85 CA 25.71 C 30.0 O 33.3 CB 25.85 CG 26.75 CD 26.4 HA 30.79 HB2 30.96 HB3 30.96 HG2 32.04 HG3 32.04 HD2 31.61 HD3 31.61
A ASN S 2 -147.7 165.3 N 27.55 CA 36.08 C 31.32 O 25.4 CB 35.09 CG 38.66 OD1 37.92 ND2 40.37 H 32.99 HA 43.24 HB2 42.04 HB3 42.04 HD21 48.38 HD22 48.38
A LYS H 6 -54.8 -46.4 N 31.91 CA 27.03 C 28.31 O 22.92 CB 27.94 CG 27.37 CD 41.12 CE 34.08 NZ 30.37 H 38.23 HA 32.38 HB2 33.46 HB3 33.46 HG2 32.78 HG3 32.78 HD2 49.28 HD3 49.28 HE2 40.84 HE3 40.84 HZ1 36.38 HZ2 36.38 HZ3 36.38
A ILE H 9 -67.7 -41.1 N 32.73 CA 22.23 C 25.97 O 23.59 CB 40.47 CG1 31.09 CG2 38.85 CD1 48.05 H 39.22 HA 26.62 HB 48.5 HG12 37.25 HG13 37.25 HG21 46.56 HG22 46.56 HG23 46.56 HD11 57.6 HD12 57.6 HD13 57.6
A LEU H 1 -71.1 -32.1 N 27.65 CA 27.11 C 21.09 O 23.18 CB 33.67 CG 35.54 CD1 42.31 CD2 33.53 H 33.12 HA 32.47 HB2 40.34 HB3 40.34 HG 42.59 HD11 50.71 HD12 50.71 HD13 50.71 HD21 40.17 HD22 40.17 HD23 40.17
A ALA H 0 -60.9 -45.6 N 26.35 CA 23.66 C 24.38 O 21.16 CB 22.45 H 31.55 HA 28.33 HB1 26.88 HB2 26.88 HB3 26.88
A LYS H 32 -64.7 -49.3 N 23.6 CA 22.84 C 25.73 O 24.1 CB 24.93 CG 24.4 CD 32.88 CE 44.69 NZ 40.44 H 28.26 HA 27.35 HB2 29.85 HB3 29.85 HG2 29.21 HG3 29.21 HD2 39.4 HD3 39.4 HE2 53.57 HE3 53.57 HZ1 48.46 HZ2 48.46 HZ3 48.46
A ILE H 2 -56.4 -47.1 N 27.93 CA 27.26 C 20.98 O 27.09 CB 34.55 CG1 35.0 CG2 32.38 CD1 30.55 H 33.46 HA 32.65 HB 41.4 HG12 41.94 HG13 41.94 HG21 38.79 HG22 38.79 HG23 38.79 HD11 36.6 HD12 36.6 HD13 36.6
A ILE H 20 -69.0 -35.5 N 29.23 CA 25.49 C 26.56 O 27.59 CB 29.15 CG1 33.46 CG2 24.17 CD1 35.46 H 35.01 HA 30.53 HB 34.92 HG12 40.09 HG13 40.09 HG21 28.94 HG22 28.94 HG23 28.94 HD11 42.49 HD12 42.49 HD13 42.49
A ALA H 0 -59.6 -51.3 N 26.64 CA 25.22 C 22.13 O 24.43 CB 21.73 H 31.91 HA 30.2 HB1 26.01 HB2 26.01 HB3 26.01
A ASP H 66 -53.4 -36.6 N 21.95 CA 24.07 C 33.34 O 31.96 CB 30.64 CG 33.82 OD1 38.98 OD2 35.43 H 26.28 HA 28.82 HB2 36.71 HB3 36.71
A LYS H 111 -75.6 -10.0 N 30.99 CA 33.62 C 36.88 O 30.36 CB 37.55 CG 34.75 CD 50.72 CE 55.98 NZ 48.87 H 37.13 HA 40.29 HB2 45.0 HB3 45.0 HG2 41.64 HG3 41.64 HD2 60.8 HD3 60.8 HE2 67.12 HE3 67.12 HZ1 58.59 HZ2 58.59 HZ3 58.59
A SER H 34 -111.1 4.5 N 25.37 CA 24.18 C 26.55 O 26.12 CB 31.35 OG 29.61 H 30.38 HA 28.95 HB2 37.56 HB3 37.56 HG 35.47
A LYS - 95 -69.5 147.7 N 24.19 CA 25.38 C 28.43 O 35.31 CB 31.89 CG 30.52 CD 41.72 CE 41.56 NZ 29.85 H 28.97 HA 30.4 HB2 38.2 HB3 38.2 HG2 36.56 HG3 36.56 HD2 50.0 HD3 50.0 HE2 49.81 HE3 49.81 HZ1 35.76 HZ2 35.76 HZ3 35.76
A PRO S 70 -95.2 167.1 N 30.23 CA 27.79 C 26.82 O 26.85 CB 40.77 CG 37.53 CD 41.55 HA 33.29 HB2 48.87 HB3 48.87 HG2 44.97 HG3 44.97 HD2 49.79 HD3 49.79
A ASN S 89 50.2 42.3 N 21.79 CA 28.81 C 28.37 O 34.08 CB 31.48 CG 34.82 OD1 34.91 ND2 39.01 H 26.08 HA 34.51 HB2 37.71 HB3 37.71 HD21 46.76 HD22 46.76
A GLY - 10 -102.8 171.5 N 24.53 CA 27.17 C 27.85 O 22.85 H 29.37 HA2 32.54 HA3 32.54
A LEU E 38 -143.3 96.3 N 22.48 CA 26.21 C 29.54 O 29.55 CB 34.84 CG 38.63 CD1 43.91 CD2 37.3 H 26.92 HA 31.39 HB2 41.75 HB3 41.75 HG 46.3 HD11 52.62 HD12 52.62 HD13 52.62 HD21 44.7 HD22 44.7 HD23 44.7
A GLY E 4 -94.3 146.4 N 25.18 CA 26.13 C 26.8 O 23.91 H 30.15 HA2 31.29 HA3 31.29
A VAL E 35 -138.9 134.7 N 28.45 CA 26.81 C 23.99 O 22.32 CB 29.42 CG1 28.82 CG2 32.19 H 34.07 HA 32.11 HB 35.25 HG11 34.52 HG12 34.52 HG13 34.52 HG21 38.56 HG22 38.56 HG23 38.56
A ILE - 3 -131.5 110.5 N 31.14 CA 27.38 C 29.93 O 25.4 CB 31.74 CG1 31.29 CG2 35.31 CD1 38.3 H 37.3 HA 32.79 HB 38.02 HG12 37.49 HG13 37.49 HG21 42.31 HG22 42.31 HG23 42.31 HD11 45.89 HD12 45.89 HD13 45.89
A ARG - 79 -76.6 157.1 N 29.95 CA 35.45 C 34.77 O 32.28 CB 39.84 CG 33.65 CD 47.48 NE 50.13 CZ 54.73 NH1 53.05 NH2 48.09 H 35.87 HA 42.48 HB2 47.74 HB3 47.74 HG2 40.31 HG3 40.31 HD2 56.92 HD3 56.92 HE 60.09 HH11 63.6 HH12 63.6 HH21 57.65 HH22 57.65
A PRO G 79 -52.9 -33.4 N 30.26 CA 32.69 C 44.96 O 37.41 CB 45.47 CG 35.68 CD 35.4 HA 39.16 HB2 54.5 HB3 54.5 HG2 42.75 HG3 42.75 HD2 42.41 HD3 42.41
A THR G 131 -77.4 -19.9 N 41.91 CA 51.25 C 47.14 O 41.38 CB 47.52 OG1 49.16 CG2 51.15 H 50.24 HA 61.44 HB 56.96 HG1 58.93 HG21 61.32 HG22 61.32 HG23 61.32
A GLU G 78 -93.0 -9.3 N 35.82 CA 39.28 C 35.32 O 36.63 CB 40.68 CG 42.68 CD 55.67 OE1 53.64 OE2 41.93 H 42.93 HA 47.07 HB2 48.76 HB3 48.76 HG2 51.15 HG3 51.15
A VAL H 5 -58.2 -47.5 N 33.11 CA 33.9 C 37.61 O 30.16 CB 33.84 CG1 36.74 CG2 32.99 H 39.67 HA 40.62 HB 40.55 HG11 44.03 HG12 44.03 HG13 44.03 HG21 39.53 HG22 39.53 HG23 39.53
A GLN H 86 -66.6 -45.8 N 41.12 CA 50.85 C 34.69 O 40.98 CB 54.09 CG 69.89 CD 75.88 OE1 75.31 NE2 57.88 H 49.28 HA 60.96 HB2 64.84 HB3 64.84 HG2 83.8 HG3 83.8 HE21 69.4 HE22 69.4
A ASP H 111 -56.0 -46.3 N 39.34 CA 41.61 C 47.58 O 41.43 CB 51.22 CG 69.59 OD1 71.65 OD2 69.97 H 47.15 HA 49.87 HB2 61.4 HB3 61.4
A PHE H 35 -58.1 -44.3 N 39.5 CA 36.44 C 31.66 O 32.86 CB 36.89 CG 27.53 CD1 34.99 CD2 34.9 CE1 39.73 CE2 34.45 CZ 34.49 H 47.33 HA 43.67 HB2 44.2 HB3 44.2 HD1 41.93 HD2 41.81 HE1 47.62 HE2 41.28 HZ 41.32
A LEU H 1 -71.5 -27.8 N 33.6 CA 33.84 C 36.81 O 33.96 CB 36.22 CG 38.78 CD1 33.62 CD2 29.5 H 40.26 HA 40.55 HB2 43.4 HB3 43.4 HG 46.48 HD11 40.29 HD12 40.29 HD13 40.29 HD21 35.34 HD22 35.34 HD23 35.34
A ASN H 58 -71.6 -19.5 N 37.35 CA 49.19 C 50.24 O 51.62 CB 49.0 CG 61.26 OD1 68.45 ND2 64.86 H 44.76 HA 58.97 HB2 58.74 HB3 58.74 HD21 77.77 HD22 77.77
A GLU H 102 -109.4 -7.3 N 41.53 CA 42.86 C 45.03 O 37.0 CB 44.86 CG 57.39 CD 69.12 OE1 70.84 OE2 65.5 H 49.78 HA 51.37 HB2 53.77 HB3 53.77 HG2 68.81 HG3 68.81
A LEU - 4 -67.4 132.0 N 37.31 CA 36.34 C 33.29 O 33.15 CB 28.63 CG 38.24 CD1 37.52 CD2 36.08 H 44.71 HA 43.55 HB2 34.3 HB3 34.3 HG 45.83 HD11 44.97 HD12 44.97 HD13 44.97 HD21 43.24 HD22 43.24 HD23 43.24
A ASP B 54 -75.6 144.1 N 36.85 CA 35.55 C 47.45 O 38.8 CB 51.25 CG 58.12 OD1 50.63 OD2 60.81 H 44.16 HA 42.6 HB2 61.44 HB3 61.44
A ILE G 0 -59.3 -36.3 N 39.85 CA 39.72 C 38.73 O 37.75 CB 40.67 CG1 47.67 CG2 51.43 CD1 42.13 H 47.76 HA 47.61 HB 48.74 HG12 57.14 HG13 57.14 HG21 61.65 HG22 61.65 HG23 61.65 HD11 50.5 HD12 50.5 HD13 50.5
A ASP G 92 -78.4 -4.8 N 46.87 CA 51.47 C 49.56 O 50.94 CB 52.05 CG 61.53 OD1 57.52 OD2 62.46 H 56.19 HA 61.71 HB2 62.4 HB3 62.4
A GLU G 61 -93.7 9.2 N 42.83 CA 38.45 C 39.63 O 40.68 CB 34.95 CG 49.97 CD 57.03 OE1 58.64 OE2 55.49 H 51.34 HA 46.08 HB2 41.88 HB3 41.88 HG2 59.91 HG3 59.91
A ILE S 5 -97.5 124.4 N 28.03 CA 34.02 C 34.31 O 32.32 CB 29.77 CG1 39.48 CG2 32.88 CD1 40.42 H 33.57 HA 40.76 HB 35.66 HG12 47.31 HG13 47.31 HG21 39.4 HG22 39.4 HG23 39.4 HD11 48.44 HD12 48.44 HD13 48.44
A PRO T 24 -54.7 131.8 N 33.15 CA 32.89 C 32.67 O 36.06 CB 27.16 CG 33.72 CD 32.05 HA 39.41 HB2 32.53 HB3 32.53 HG2 40.41 HG3 40.41 HD2 38.4 HD3 38.4
A GLY T 52 95.1 -1.6 N 33.6 CA 37.37 C 38.28 O 42.07 H 40.26 HA2 44.78 HA3 44.78
A ILE - 12 -110.8 97.8 N 34.73 CA 35.93 C 38.31 O 41.82 CB 40.31 CG1 35.39 CG2 40.94 CD1 34.56 H 41.61 HA 43.06 HB 48.31 HG12 42.41 HG13 42.41 HG21 49.07 HG22 49.07 HG23 49.07 HD11 41.41 HD12 41.41 HD13 41.41
A GLY - 44 -69.8 168.6 N 41.53 CA 45.45 C 47.66 O 45.89 H 49.77 HA2 54.48 HA3 54.48
A SER H 105 -50.4 -44.3 N 47.22 CA 55.42 C 53.82 O 47.99 CB 56.51 OG 62.07 H 56.61 HA 66.44 HB2 67.75 HB3 67.75 HG 74.43
A VAL H 94 -63.6 -52.6 N 45.44 CA 57.56 C 58.01 O 50.55 CB 54.8 CG1 62.77 CG2 58.16 H 54.47 HA 69.01 HB 65.7 HG11 75.27 HG12 75.27 HG13 75.27 HG21 69.74 HG22 69.74 HG23 69.74
A LEU H 26 -68.5 -38.9 N 50.42 CA 47.92 C 49.06 O 44.78 CB 44.16 CG 54.94 CD1 48.97 CD2 49.15 H 60.44 HA 57.45 HB2 52.93 HB3 52.93 HG 65.87 HD11 58.7 HD12 58.7 HD13 58.7 HD21 58.92 HD22 58.92 HD23 58.92
A ALA H 6 -51.5 -51.8 N 43.67 CA 44.28 C 48.12 O 47.4 CB 39.35 H 52.34 HA 53.07 HB1 47.16 HB2 47.16 HB3 47.16
A ARG H 157 -64.2 -43.3 N 49.85 CA 51.42 C 44.58 O 54.97 CB 60.62 CG 64.21 CD 66.05 NE 71.64 CZ 71.24 NH1 66.08 NH2 65.26 H 59.76 HA 61.64 HB2 72.68 HB3 72.68 HG2 77.0 HG3 77.0 HD2 79.2 HD3 79.2 HE 85.91 HH11 79.24 HH12 79.24 HH21 78.25 HH22 78.25
A ARG H 102 -53.2 -54.4 N 42.06 CA 46.35 C 51.79 O 48.27 CB 46.92 CG 59.32 CD 57.7 NE 65.7 CZ 66.77 NH1 65.27 NH2 63.16 H 50.41 HA 55.56 HB2 56.24 HB3 56.24 HG2 71.12 HG3 71.12 HD2 69.17 HD3 69.17 HE 78.78 HH11 78.27 HH12 78.27 HH21 75.73 HH22 75.73
A LEU H 0 -55.6 -45.9 N 43.87 CA 41.71 C 43.92 O 37.1 CB 36.4 CG 43.34 CD1 44.06 CD2 38.55 H 52.58 HA 49.99 HB2 43.62 HB3 43.62 HG 51.94 HD11 52.81 HD12 52.81 HD13 52.81 HD21 46.2 HD22 46.2 HD23 46.2
A ASN H 48 -54.7 -40.7 N 41.65 CA 47.68 C 52.7 O 46.2 CB 51.71 CG 62.62 OD1 64.15 ND2 57.57 H 49.91 HA 57.16 HB2 62.0 HB3 62.0 HD21 69.02 HD22 69.02
A GLU H 151 -64.7 -26.4 N 50.37 CA 56.66 C 53.32 O 50.76 CB 53.98 CG 65.83 CD 69.48 OE1 68.61 OE2 68.65 H 60.38 HA 67.94 HB2 64.71 HB3 64.71 HG2 78.94 HG3 78.94
A LEU T 75 -97.3 15.2 N 41.93 CA 36.27 C 31.25 O 33.4 CB 46.06 CG 47.05 CD1 53.14 CD2 53.66 H 50.26 HA 43.46 HB2 55.21 HB3 55.21 HG 56.4 HD11 63.71 HD12 63.71 HD13 63.71 HD21 64.33 HD22 64.33 HD23 64.33
A GLY T 47 84.1 11.4 N 29.78 CA 41.0 C 40.43 O 32.25 H 35.68 HA2 49.14 HA3 49.14
A ILE - 2 -97.9 95.4 N 34.06 CA 37.36 C 36.83 O 38.13 CB 38.32 CG1 42.0 CG2 38.65 CD1 41.18 H 40.82 HA 44.77 HB 45.92 HG12 50.33 HG13 50.33 HG21 46.32 HG22 46.32 HG23 46.32 HD11 49.35 HD12 49.35 HD13 49.35
A GLN - 86 -105.8 -25.3 N 32.42 CA 43.96 C 46.03 O 39.86 CB 45.15 CG 53.36 CD 64.07 OE1 68.83 NE2 62.71 H 38.84 HA 52.69 HB2 54.12 HB3 54.12 HG2 63.98 HG3 63.98 HE21 75.19 HE22 75.19
A LYS B 46 -130.7 152.4 N 30.88 CA 36.98 C 34.46 O 27.16 CB 41.99 CG 42.1 CD 54.48 CE 55.72 NZ 58.15 H 36.99 HA 44.31 HB2 50.33 HB3 50.33 HG2 50.46 HG3 50.46 HD2 65.32 HD3 65.32 HE2 66.81 HE3 66.81 HZ1 69.72 HZ2 69.72 HZ3 69.72
A LEU G 1 -53.0 -45.1 N 31.01 CA 25.93 C 20.12 O 29.99 CB 21.7 CG 26.27 CD1 30.01 CD2 31.51 H 37.15 HA 31.06 HB2 25.97 HB3 25.97 HG 31.46 HD11 35.95 HD12 35.95 HD13 35.95 HD21 37.75 HD22 37.75 HD23 37.75
A ARG G 102 -56.2 -25.6 N 29.13 CA 33.47 C 30.68 O 30.18 CB 36.07 CG 42.93 CD 50.2 NE 56.16 CZ 57.81 NH1 56.59 NH2 60.33 H 34.89 HA 40.11 HB2 43.22 HB3 43.22 HG2 51.45 HG3 51.45 HD2 60.18 HD3 60.18 HE 67.33 HH11 67.84 HH12 67.84 HH21 72.33 HH22 72.33
A ASP G 44 -66.1 -16.6 N 29.93 CA 27.81 C 41.69 O 32.71 CB 36.64 CG 38.56 OD1 39.24 OD2 34.07 H 35.85 HA 33.32 HB2 43.91 HB3 43.91
A ILE G 0 -64.9 -33.0 N 32.92 CA 33.88 C 33.91 O 35.63 CB 27.65 CG1 35.94 CG2 30.65 CD1 38.04 H 39.44 HA 40.59 HB 33.12 HG12 43.07 HG13 43.07 HG21 36.72 HG22 36.72 HG23 36.72 HD11 45.59 HD12 45.59 HD13 45.59
A LEU G 90 -64.0 -22.8 N 33.12 CA 41.09 C 46.29 O 53.75 CB 36.65 CG 47.11 CD1 36.86 CD2 44.28 H 39.68 HA 49.24 HB2 43.92 HB3 43.92 HG 56.47 HD11 44.17 HD12 44.17 HD13 44.17 HD21 53.08 HD22 53.08 HD23 53.08
A SER G 90 -67.5 -37.0 N 43.62 CA 55.57 C 58.52 O 60.14 CB 54.47 OG 57.51 H 52.29 HA 66.62 HB2 65.3 HB3 65.3 HG 68.96
A LYS S 61 -88.9 160.0 N 51.6 CA 52.8 C 52.1 O 56.52 CB 54.56 CG 57.59 CD 64.09 CE 63.81 NZ 65.24 H 61.86 HA 63.3 HB2 65.41 HB3 65.41 HG2 69.05 HG3 69.05 HD2 76.84 HD3 76.84 HE2 76.51 HE3 76.51 HZ1 78.23 HZ2 78.23 HZ3 78.23
A ASN - 76 -107.2 174.7 N 52.97 CA 55.76 C 61.11 O 53.71 CB 63.68 CG 70.79 OD1 67.04 ND2 69.81 H 63.5 HA 66.86 HB2 76.35 HB3 76.35 HD21 83.71 HD22 83.71
A TYR H 71 -59.9 -53.1 N 48.8 CA 57.33 C 60.05 O 45.35 CB 51.59 CG 63.28 CD1 60.45 CD2 60.54 CE1 54.74 CE2 56.13 CZ 58.71 OH 57.22 H 58.49 HA 68.74 HB2 61.85 HB3 61.85 HD1 72.48 HD2 72.58 HE1 65.62 HE2 67.3 HH 68.6
A ASN H 109 -55.1 -38.5 N 57.71 CA 52.86 C 49.2 O 51.71 CB 43.23 CG 46.43 OD1 57.72 ND2 52.26 H 69.19 HA 63.38 HB2 51.81 HB3 51.81 HD21 62.65 HD22 62.65
A GLU H 89 -65.2 -49.3 N 45.21 CA 47.64 C 53.12 O 47.58 CB 41.94 CG 43.0 CD 48.21 OE1 50.78 OE2 58.04 H 54.19 HA 57.11 HB2 50.26 HB3 50.26 HG2 51.54 HG3 51.54
A LEU H 0 -71.1 -36.9 N 50.99 CA 48.87 C 39.72 O 42.95 CB 46.44 CG 36.28 CD1 37.82 CD2 40.32 H 61.13 HA 58.58 HB2 55.67 HB3 55.67 HG 43.48 HD11 45.33 HD12 45.33 HD13 45.33 HD21 48.33 HD22 48.33 HD23 48.33
A GLU H 75 -53.0 -42.3 N 43.78 CA 41.09 C 52.38 O 49.61 CB 48.02 CG 57.89 CD 59.61 OE1 51.29 OE2 56.92 H 52.48 HA 49.25 HB2 57.56 HB3 57.56 HG2 69.4 HG3 69.4
A LYS H 157 -60.1 -26.9 N 53.55 CA 51.86 C 49.06 O 49.48 CB 39.74 CG 42.69 CD 41.9 CE 46.13 NZ 53.09 H 64.2 HA 62.18 HB2 47.62 HB3 47.62 HG2 51.16 HG3 51.16 HD2 50.22 HD3 50.22 HE2 55.29 HE3 55.29 HZ1 63.65 HZ2 63.65 HZ3 63.65
A ILE H 22 -93.5 -33.4 N 46.99 CA 44.66 C 47.95 O 46.73 CB 49.52 CG1 55.02 CG2 49.99 CD1 58.96 H 56.32 HA 53.53 HB 59.36 HG12 65.96 HG13 65.96 HG21 59.93 HG22 59.93 HG23 59.93 HD11 70.69 HD12 70.69 HD13 70.69
A THR H 20 -118.7 -20.1 N 48.83 CA 43.47 C 44.63 O 40.11 CB 36.55 OG1 34.24 CG2 42.12 H 58.54 HA 52.1 HB 43.8 HG1 41.03 HG21 50.48 HG22 50.48 HG23 50.48
A GLY - 27 92.0 154.5 N 36.97 CA 41.31 C 35.73 O 45.51 H 44.3 HA2 49.51 HA3 49.51
A LYS H 136 -52.1 -60.4 N 31.75 CA 34.22 C 43.23 O 36.81 CB 34.22 CG 45.93 CD 49.42 CE 59.42 NZ 56.9 H 38.04 HA 41.0 HB2 41.0 HB3 41.0 HG2 55.05 HG3 55.05 HD2 59.24 HD3 59.24 HE2 71.25 HE3 71.25 HZ1 68.22 HZ2 68.22 HZ3 68.22
A ALA H 69 -50.5 -52.8 N 39.49 CA 37.84 C 28.83 O 27.62 CB 43.19 H 47.33 HA 45.35 HB1 51.77 HB2 51.77 HB3 51.77
A LYS H 83 -66.0 -34.5 N 27.16 CA 30.31 C 33.26 O 25.86 CB 39.85 CG 45.59 CD 48.41 CE 52.57 NZ 56.14 H 32.53 HA 36.31 HB2 47.76 HB3 47.76 HG2 54.64 HG3 54.64 HD2 58.03 HD3 58.03 HE2 63.02 HE3 63.02 HZ1 67.3 HZ2 67.3 HZ3 67.3
A ALA H 0 -66.1 -45.1 N 36.86 CA 34.02 C 27.63 O 32.04 CB 29.24 H 44.17 HA 40.76 HB1 35.03 HB2 35.03 HB3 35.03
A LEU H 81 -66.4 -39.1 N 23.63 CA 27.61 C 26.13 O 22.75 CB 39.27 CG 43.18 CD1 44.8 CD2 42.12 H 28.3 HA 33.07 HB2 47.06 HB3 47.06 HG 51.76 HD11 53.7 HD12 53.7 HD13 53.7 HD21 50.48 HD22 50.48 HD23 50.48
A TYR H 44 -61.8 -51.0 N 27.63 CA 27.52 C 24.49 O 23.07 CB 28.76 CG 26.2 CD1 25.67 CD2 27.09 CE1 30.83 CE2 30.83 CZ 30.03 OH 35.0 H 33.09 HA 32.96 HB2 34.45 HB3 34.45 HD1 30.74 HD2 32.45 HE1 36.93 HE2 36.94 HH 41.93
A LEU H 0 -64.4 -41.2 N 23.44 CA 21.46 C 25.98 O 22.89 CB 26.58 CG 29.67 CD1 34.87 CD2 31.93 H 28.07 HA 25.69 HB2 31.83 HB3 31.83 HG 35.54 HD11 41.78 HD12 41.78 HD13 41.78 HD21 38.26 HD22 38.26 HD23 38.26
A LEU H 29 -67.6 -37.1 N 25.17 CA 26.67 C 31.12 O 30.52 CB 36.35 CG 37.61 CD1 40.25 CD2 36.98 H 30.15 HA 31.94 HB2 43.55 HB3 43.55 HG 45.07 HD11 48.24 HD12 48.24 HD13 48.24 HD21 44.31 HD22 44.31 HD23 44.31
A LYS H 75 -67.5 -46.2 N 25.88 CA 30.08 C 24.69 O 23.96 CB 34.96 CG 38.12 CD 47.35 CE 45.04 NZ 49.76 H 31.0 HA 36.04 HB2 41.89 HB3 41.89 HG2 45.68 HG3 45.68 HD2 56.76 HD3 56.76 HE2 53.99 HE3 53.99 HZ1 59.65 HZ2 59.65 HZ3 59.65
A LEU H 2 -63.1 -41.1 N 22.77 CA 25.25 C 31.68 O 23.9 CB 24.65 CG 34.42 CD1 31.03 CD2 34.0 H 27.26 HA 30.24 HB2 29.51 HB3 29.51 HG 41.24 HD11 37.17 HD12 37.17 HD13 37.17 HD21 40.74 HD22 40.74 HD23 40.74
A ALA H 5 -62.6 -27.4 N 22.45 CA 34.04 C 29.61 O 32.8 CB 30.23 H 26.88 HA 40.79 HB1 36.21 HB2 36.21 HB3 36.21
A GLN T 96 -96.5 8.2 N 26.65 CA 35.31 C 35.29 O 36.85 CB 35.08 CG 35.5 CD 44.31 OE1 45.33 NE2 39.34 H 31.92 HA 42.31 HB2 42.03 HB3 42.03 HG2 42.54 HG3 42.54 HE21 47.14 HE22 47.14
A ASP T 66 49.9 47.8 N 29.18 CA 43.23 C 42.12 O 38.53 CB 45.14 CG 53.12 OD1 43.97 OD2 56.55 H 34.95 HA 51.81 HB2 54.11 HB3 54.11
A GLU - 109 -117.6 15.7 N 36.53 CA 40.98 C 44.29 O 46.51 CB 29.18 CG 31.77 CD 31.7 OE1 29.9 OE2 33.83 H 43.77 HA 49.12 HB2 34.95 HB3 34.95 HG2 38.07 HG3 38.07
A TYR - 31 -84.8 130.0 N 40.1 CA 41.06 C 47.79 O 39.95 CB 50.65 CG 44.82 CD1 44.85 CD2 48.56 CE1 50.5 CE2 39.09 CZ 51.85 OH 41.68 H 48.06 HA 49.21 HB2 60.71 HB3 60.71 HD1 53.76 HD2 58.21 HE1 60.54 HE2 46.84 HH 49.95
A ASN - 96 -157.8 31.3 N 41.22 CA 41.34 C 47.95 O 42.94 CB 48.65 CG 60.06 OD1 58.82 ND2 50.84 H 49.4 HA 49.55 HB2 58.32 HB3 58.32 HD21 60.95 HD22 60.95
A GLU - 83 -54.5 144.1 N 39.72 CA 41.78 C 35.92 O 33.99 CB 41.87 CG 51.57 CD 59.84 OE1 65.51 OE2 62.43 H 47.6 HA 50.07 HB2 50.19 HB3 50.19 HG2 61.82 HG3 61.82
A PRO - 71 -73.8 155.0 N 38.06 CA 36.97 C 28.79 O 27.11 CB 30.92 CG 44.11 CD 40.18 HA 44.31 HB2 37.05 HB3 37.05 HG2 52.87 HG3 52.87 HD2 48.15 HD3 48.15
A ILE - 4 -74.7 122.9 N 28.5 CA 36.69 C 40.12 O 36.84 CB 36.26 CG1 38.3 CG2 39.55 CD1 37.78 H 34.14 HA 43.97 HB 43.46 HG12 45.89 HG13 45.89 HG21 47.4 HG22 47.4 HG23 47.4 HD11 45.28 HD12 45.28 HD13 45.28
A ARG - 123 -129.0 143.5 N 29.91 CA 37.03 C 41.03 O 34.01 CB 38.76 CG 37.52 CD 43.31 NE 51.87 CZ 46.33 NH1 40.51 NH2 51.75 H 35.83 HA 44.38 HB2 46.45 HB3 46.45 HG2 44.96 HG3 44.96 HD2 51.92 HD3 51.92 HE 62.19 HH11 48.55 HH12 48.55 HH21 62.04 HH22 62.04
A THR - 119 -67.2 126.1 N 33.74 CA 38.71 C 31.37 O 36.39 CB 38.85 OG1 41.11 CG2 41.59 H 40.42 HA 46.4 HB 46.56 HG1 49.27 HG21 49.85 HG22 49.85 HG23 49.85
A ARG - 106 -88.5 141.5 N 32.82 CA 32.35 C 27.74 O 34.21 CB 50.39 CG 45.12 CD 42.24 NE 49.61 CZ 43.25 NH1 49.71 NH2 44.6 H 39.32 HA 38.76 HB2 60.4 HB3 60.4 HG2 54.08 HG3 54.08 HD2 50.63 HD3 50.63 HE 59.47 HH11 59.58 HH12 59.58 HH21 53.46 HH22 53.46
A VAL - 124 -121.9 125.5 N 37.75 CA 34.27 C 22.82 O 23.41 CB 39.59 CG1 42.24 CG2 42.67 H 45.23 HA 41.06 HB 47.45 HG11 50.63 HG12 50.63 HG13 50.63 HG21 51.15 HG22 51.15 HG23 51.15
A ARG - 131 -58.2 125.8 N 27.02 CA 28.75 C 27.95 O 26.58 CB 32.88 CG 34.56 CD 33.13 NE 30.49 CZ 42.22 NH1 45.53 NH2 36.75 H 32.37 HA 34.44 HB2 39.39 HB3 39.39 HG2 41.41 HG3 41.41 HD2 39.69 HD3 39.69 HE 36.52 HH11 54.58 HH12 54.58 HH21 44.04 HH22 44.04
A LYS - 167 -108.9 -12.1 N 22.66 CA 27.62 C 23.95 O 24.58 CB 26.49 CG 43.44 CD 58.93 CE 67.58 NZ 73.9 H 27.13 HA 33.08 HB2 31.72 HB3 31.72 HG2 52.07 HG3 52.07 HD2 70.65 HD3 70.65 HE2 81.04 HE3 81.04 HZ1 88.62 HZ2 88.62 HZ3 88.62
A SER E 30 -156.9 154.4 N 17.56 CA 15.77 C 17.72 O 22.7 CB 19.5 OG 19.83 H 21.02 HA 18.86 HB2 23.34 HB3 23.34 HG 23.73
A ILE E 1 -143.8 130.3 N 12.99 CA 13.93 C 15.53 O 14.93 CB 19.46 CG1 26.5 CG2 23.69 CD1 27.24 H 15.53 HA 16.65 HB 23.29 HG12 31.73 HG13 31.73 HG21 28.37 HG22 28.37 HG23 28.37 HD11 32.62 HD12 32.62 HD13 32.62
A GLY E 20 -153.8 179.4 N 12.72 CA 14.98 C 19.82 O 14.54 H 15.2 HA2 17.92 HA3 17.92
A ARG E 86 -156.2 136.8 N 13.45 CA 19.79 C 18.72 O 17.12 CB 18.41 CG 32.2 CD 30.27 NE 41.18 CZ 41.66 NH1 39.26 NH2 42.7 H 16.08 HA 23.69 HB2 22.04 HB3 22.04 HG2 38.58 HG3 38.58 HD2 36.26 HD3 36.26 HE 49.35 HH11 47.05 HH12 47.05 HH21 51.18 HH22 51.18
A ILE E 71 -144.5 135.3 N 11.84 CA 13.97 C 20.78 O 17.4 CB 15.41 CG1 16.38 CG2 27.5 CD1 21.85 H 14.15 HA 16.7 HB 18.43 HG12 19.6 HG13 19.6 HG21 32.94 HG22 32.94 HG23 32.94 HD11 26.16 HD12 26.16 HD13 26.16
A VAL E 13 -131.2 151.7 N 16.82 CA 18.37 C 24.17 O 21.32 CB 27.61 CG1 28.66 CG2 25.25 H 20.12 HA 21.98 HB 33.07 HG11 34.34 HG12 34.34 HG13 34.34 HG21 30.24 HG22 30.24 HG23 30.24
A THR E 26 -89.3 129.5 N 18.97 CA 20.26 C 24.02 O 25.49 CB 21.46 OG1 18.77 CG2 31.15 H 22.7 HA 24.25 HB 25.7 HG1 22.46 HG21 37.32 HG22 37.32 HG23 37.32
A MET E 1 -83.0 156.5 N 23.56 CA 28.73 C 32.56 O 34.67 CB 37.81 CG 28.87 SD 29.83 CE 26.92 H 28.21 HA 34.42 HB2 45.32 HB3 45.32 HG2 34.58 HG3 34.58 HE1 32.24 HE2 32.24 HE3 32.24
A LYS E 157 -62.3 -34.4 N 34.21 CA 41.12 C 38.63 O 41.14 CB 43.59 CG 55.49 CD 64.48 CE 60.06 NZ 66.76 H 41.0 HA 49.28 HB2 52.25 HB3 52.25 HG2 66.52 HG3 66.52 HD2 77.31 HD3 77.31 HE2 72.01 HE3 72.01 HZ1 80.05 HZ2 80.05 HZ3 80.05
A ARG E 162 -143.4 161.9 N 34.18 CA 42.11 C 37.97 O 36.42 CB 48.9 CG 46.62 CD 56.19 NE 66.14 CZ 74.2 NH1 69.22 NH2 70.65 H 40.96 HA 50.47 HB2 58.61 HB3 58.61 HG2 55.88 HG3 55.88 HD2 67.36 HD3 67.36 HE 79.31 HH11 83.0 HH12 83.0 HH21 84.71 HH22 84.71
A ASN E 31 -70.9 164.3 N 37.69 CA 39.57 C 49.67 O 40.57 CB 35.85 CG 47.31 OD1 42.53 ND2 40.57 H 45.17 HA 47.42 HB2 42.96 HB3 42.96 HD21 48.63 HD22 48.63
A SER E 9 -175.9 156.4 N 44.42 CA 41.39 C 45.86 O 36.45 CB 36.81 OG 48.44 H 53.24 HA 49.61 HB2 44.11 HB3 44.11 HG 58.07
A ARG - 94 -132.3 18.8 N 48.26 CA 42.9 C 35.92 O 50.91 CB 37.18 CG 38.47 CD 45.57 NE 54.21 CZ 43.5 NH1 41.21 NH2 45.34 H 57.85 HA 51.42 HB2 44.56 HB3 44.56 HG2 46.1 HG3 46.1 HD2 54.62 HD3 54.62 HE 64.99 HH11 49.4 HH12 49.4 HH21 54.34 HH22 54.34
A ASN - 84 -92.8 110.4 N 46.09 CA 39.67 C 51.67 O 44.86 CB 50.26 CG 45.97 OD1 47.78 ND2 57.54 H 55.25 HA 47.55 HB2 60.25 HB3 60.25 HD21 68.99 HD22 68.99
A LEU H 47 -48.3 -48.5 N 40.55 CA 42.86 C 46.96 O 40.42 CB 51.79 CG 36.34 CD1 30.33 CD2 32.29 H 48.59 HA 51.37 HB2 62.08 HB3 62.08 HG 43.55 HD11 36.33 HD12 36.33 HD13 36.33 HD21 38.69 HD22 38.69 HD23 38.69
A GLU H 128 -67.4 -23.5 N 38.01 CA 42.57 C 27.19 O 38.69 CB 54.34 CG 50.09 CD 54.88 OE1 50.93 OE2 52.41 H 45.55 HA 51.03 HB2 65.15 HB3 65.15 HG2 60.04 HG3 60.04
A GLU H 51 -77.9 -38.3 N 38.95 CA 43.5 C 43.17 O 36.45 CB 44.9 CG 51.6 CD 60.37 OE1 56.37 OE2 59.67 H 46.67 HA 52.14 HB2 53.82 HB3 53.82 HG2 61.86 HG3 61.86
A ILE H 0 -76.8 -38.7 N 44.41 CA 44.06 C 37.77 O 35.9 CB 41.59 CG1 38.65 CG2 37.83 CD1 34.57 H 53.24 HA 52.81 HB 49.85 HG12 46.32 HG13 46.32 HG21 45.33 HG22 45.33 HG23 45.33 HD11 41.43 HD12 41.43 HD13 41.43
A LYS H 49 -47.8 -45.0 N 33.82 CA 37.17 C 28.81 O 30.46 CB 42.63 CG 35.16 CD 46.5 CE 42.1 NZ 30.48 H 40.52 HA 44.55 HB2 51.09 HB3 51.09 HG2 42.13 HG3 42.13 HD2 55.74 HD3 55.74 HE2 50.46 HE3 50.46 HZ1 36.51 HZ2 36.51 HZ3 36.51
A PRO H 71 -60.4 -37.6 N 35.3 CA 40.08 C 23.87 O 30.44 CB 42.47 CG 38.81 CD 41.84 HA 48.03 HB2 50.9 HB3 50.9 HG2 46.52 HG3 46.52 HD2 50.15 HD3 50.15
A TYR H 23 -65.8 -43.7 N 28.19 CA 31.39 C 29.07 O 24.04 CB 26.99 CG 32.63 CD1 32.92 CD2 36.8 CE1 29.9 CE2 41.22 CZ 36.04 OH 36.87 H 33.77 HA 37.6 HB2 32.33 HB3 32.33 HD1 39.44 HD2 44.1 HE1 35.82 HE2 49.4 HH 44.19
A LEU H 0 -65.0 -41.4 N 27.54 CA 24.49 C 26.29 O 27.47 CB 33.21 CG 26.0 CD1 25.99 CD2 27.67 H 32.99 HA 29.33 HB2 39.79 HB3 39.79 HG 31.14 HD11 31.13 HD12 31.13 HD13 31.13 HD21 33.14 HD22 33.14 HD23 33.14
A PHE H 63 -70.3 -37.0 N 26.2 CA 25.57 C 22.94 O 26.53 CB 32.68 CG 34.5 CD1 34.54 CD2 40.06 CE1 37.1 CE2 37.28 CZ 37.13 H 31.37 HA 30.62 HB2 39.15 HB3 39.15 HD1 41.38 HD2 48.02 HE1 44.46 HE2 44.68 HZ 44.5
A ARG H 102 -62.5 -37.4 N 24.24 CA 20.41 C 15.6 O 24.43 CB 31.27 CG 49.03 CD 54.57 NE 54.61 CZ 55.55 NH1 54.13 NH2 51.64 H 29.03 HA 24.43 HB2 37.46 HB3 37.46 HG2 58.77 HG3 58.77 HD2 65.42 HD3 65.42 HE 65.47 HH11 64.89 HH12 64.89 HH21 61.91 HH22 61.91
A ALA H 0 -65.7 -39.8 N 19.9 CA 18.37 C 21.6 O 18.59 CB 21.38 H 23.82 HA 21.99 HB1 25.6 HB2 25.6 HB3 25.6
A ILE H 0 -62.7 -45.7 N 20.02 CA 20.67 C 19.57 O 21.22 CB 23.1 CG1 20.78 CG2 22.56 CD1 29.45 H 23.97 HA 24.74 HB 27.66 HG12 24.88 HG13 24.88 HG21 27.01 HG22 27.01 HG23 27.01 HD11 35.28 HD12 35.28 HD13 35.28
A GLU H 86 -60.9 -47.9 N 20.16 CA 20.51 C 22.67 O 26.07 CB 32.28 CG 47.34 CD 49.23 OE1 52.77 OE2 54.83 H 24.13 HA 24.55 HB2 38.68 HB3 38.68 HG2 56.74 HG3 56.74
A GLU H 65 -66.1 -34.8 N 27.04 CA 23.66 C 23.97 O 20.66 CB 25.91 CG 35.0 CD 44.11 OE1 51.67 OE2 40.87 H 32.39 HA 28.33 HB2 31.03 HB3 31.03 HG2 41.94 HG3 41.94
A SER H 0 -62.1 -45.2 N 22.2 CA 21.75 C 17.83 O 20.16 CB 17.53 OG 19.23 H 26.58 HA 26.04 HB2 20.98 HB3 20.98 HG 23.01
A TYR H 32 -68.9 -31.9 N 21.85 CA 20.77 C 24.47 O 24.33 CB 25.8 CG 24.3 CD1 23.34 CD2 23.99 CE1 20.4 CE2 21.53 CZ 20.51 OH 22.32 H 26.16 HA 24.86 HB2 30.9 HB3 30.9 HD1 27.95 HD2 28.73 HE1 24.42 HE2 25.77 HH 26.72
A TYR H 195 -59.5 -46.3 N 27.39 CA 30.7 C 28.66 O 26.7 CB 32.47 CG 38.33 CD1 49.83 CD2 49.68 CE1 50.2 CE2 60.14 CZ 56.91 OH 76.42 H 32.81 HA 36.77 HB2 38.9 HB3 38.9 HD1 59.73 HD2 59.55 HE1 60.18 HE2 72.11 HH 91.64
A LYS H 84 -68.7 -37.0 N 24.57 CA 29.71 C 30.46 O 26.26 CB 35.1 CG 50.98 CD 48.5 CE 59.61 NZ 57.74 H 29.42 HA 35.59 HB2 42.06 HB3 42.06 HG2 61.11 HG3 61.11 HD2 58.14 HD3 58.14 HE2 71.47 HE3 71.47 HZ1 69.23 HZ2 69.23 HZ3 69.23
A LEU H 1 -58.7 -39.9 N 25.88 CA 26.22 C 26.3 O 26.52 CB 25.94 CG 21.37 CD1 26.34 CD2 22.63 H 30.99 HA 31.4 HB2 31.07 HB3 31.07 HG 25.58 HD11 31.55 HD12 31.55 HD13 31.55 HD21 27.09 HD22 27.09 HD23 27.09
A ASP T 107 62.5 -106.9 N 32.07 CA 39.17 C 34.44 O 32.4 CB 35.83 CG 44.41 OD1 40.82 OD2 38.14 H 38.43 HA 46.95 HB2 42.93 HB3 42.93
A LYS T 148 -98.0 -2.2 N 32.45 CA 33.53 C 33.68 O 28.34 CB 42.52 CG 45.2 CD 60.05 CE 67.78 NZ 68.57 H 38.88 HA 40.17 HB2 50.96 HB3 50.96 HG2 54.18 HG3 54.18 HD2 72.0 HD3 72.0 HE2 81.28 HE3 81.28 HZ1 82.22 HZ2 82.22 HZ3 82.22
A ARG - 98 -75.7 137.4 N 27.07 CA 27.82 C 19.59 O 23.82 CB 28.97 CG 30.77 CD 32.14 NE 39.37 CZ 36.82 NH1 40.92 NH2 38.17 H 32.42 HA 33.32 HB2 34.71 HB3 34.71 HG2 36.87 HG3 36.87 HD2 38.51 HD3 38.51 HE 47.19 HH11 49.05 HH12 49.05 HH21 45.74 HH22 45.74
A ILE - 73 -117.1 117.0 N 21.04 CA 20.96 C 18.3 O 20.57 CB 19.45 CG1 30.89 CG2 19.65 CD1 38.69 H 25.19 HA 25.09 HB 23.28 HG12 37.01 HG13 37.01 HG21 23.52 HG22 23.52 HG23 23.52 HD11 46.37 HD12 46.37 HD13 46.37
A PRO E 0 -84.5 143.0 N 17.39 CA 19.2 C 16.94 O 20.41 CB 16.3 CG 19.39 CD 20.11 HA 22.97 HB2 19.5 HB3 19.5 HG2 23.21 HG3 23.21 HD2 24.07 HD3 24.07
A LYS E 59 -98.4 -9.4 N 16.1 CA 19.88 C 20.74 O 18.89 CB 17.65 CG 21.42 CD 28.93 CE 29.28 NZ 34.67 H 19.26 HA 23.79 HB2 21.12 HB3 21.12 HG2 25.65 HG3 25.65 HD2 34.66 HD3 34.66 HE2 35.07 HE3 35.07 HZ1 41.54 HZ2 41.54 HZ3 41.54
A ALA E 0 -128.0 143.7 N 16.09 CA 13.48 C 18.72 O 15.54 CB 18.06 H 19.25 HA 16.11 HB1 21.61 HB2 21.61 HB3 21.61
A ILE E 0 -134.4 132.7 N 17.88 CA 17.35 C 17.02 O 15.42 CB 17.47 CG1 19.48 CG2 17.66 CD1 21.14 H 21.4 HA 20.75 HB 20.9 HG12 23.31 HG13 23.31 HG21 21.13 HG22 21.13 HG23 21.13 HD11 25.3 HD12 25.3 HD13 25.3
A HIS E 65 -126.7 134.8 N 13.28 CA 15.94 C 16.91 O 15.74 CB 20.86 CG 27.78 ND1 23.36 CD2 26.54 CE1 24.7 NE2 22.27 H 15.87 HA 19.07 HB2 24.97 HB3 24.97 HD1 27.97 HD2 31.79 HE1 29.58 HE2 26.67
A VAL E 0 -100.6 133.2 N 15.64 CA 17.91 C 16.86 O 18.21 CB 17.99 CG1 17.13 CG2 19.94 H 18.71 HA 21.44 HB 21.53 HG11 20.5 HG12 20.5 HG13 20.5 HG21 23.87 HG22 23.87 HG23 23.87
A VAL E 17 -122.0 130.6 N 16.54 CA 16.58 C 25.39 O 18.07 CB 21.07 CG1 24.54 CG2 20.35 H 19.78 HA 19.84 HB 25.22 HG11 29.38 HG12 29.38 HG13 29.38 HG21 24.35 HG22 24.35 HG23 24.35
A ALA E 0 -121.0 130.6 N 19.59 CA 25.94 C 23.99 O 24.06 CB 26.06 H 23.45 HA 31.06 HB1 31.21 HB2 31.21 HB3 31.21
A VAL E 5 -98.8 119.4 N 23.12 CA 23.62 C 28.96 O 26.76 CB 22.44 CG1 25.77 CG2 23.56 H 27.69 HA 28.28 HB 26.87 HG11 30.87 HG12 30.87 HG13 30.87 HG21 28.21 HG22 28.21 HG23 28.21
A THR E 1 -84.7 172.8 N 29.33 CA 31.31 C 37.09 O 31.67 CB 28.59 OG1 36.8 CG2 35.68 H 35.14 HA 37.51 HB 34.25 HG1 44.1 HG21 42.75 HG22 42.75 HG23 42.75
A GLU T 92 -42.8 -41.2 N 41.32 CA 35.44 C 39.13 O 39.97 CB 40.64 CG 57.6 CD 66.47 OE1 57.14 OE2 64.52 H 49.52 HA 42.47 HB2 48.71 HB3 48.71 HG2 69.05 HG3 69.05
A ASP T 82 -96.4 15.1 N 31.21 CA 35.76 C 34.48 O 36.32 CB 43.41 CG 52.32 OD1 42.33 OD2 46.38 H 37.39 HA 42.86 HB2 52.03 HB3 52.03
A LEU S 97 70.5 17.2 N 30.58 CA 33.35 C 33.81 O 33.22 CB 38.37 CG 41.97 CD1 39.14 CD2 37.77 H 36.63 HA 39.96 HB2 45.98 HB3 45.98 HG 50.3 HD11 46.91 HD12 46.91 HD13 46.91 HD21 45.27 HD22 45.27 HD23 45.27
A ASP - 81 -75.3 162.9 N 36.25 CA 41.96 C 33.99 O 28.97 CB 33.4 CG 55.9 OD1 51.94 OD2 67.11 H 43.44 HA 50.29 HB2 40.02 HB3 40.02
A ILE E 119 -125.6 124.9 N 24.15 CA 28.56 C 32.37 O 32.18 CB 26.68 CG1 30.55 CG2 28.07 CD1 37.06 H 28.92 HA 34.21 HB 31.95 HG12 36.6 HG13 36.6 HG21 33.63 HG22 33.63 HG23 33.63 HD11 44.41 HD12 44.41 HD13 44.41
A VAL E 14 -122.9 132.6 N 31.37 CA 29.23 C 30.62 O 25.16 CB 25.47 CG1 31.77 CG2 46.55 H 37.58 HA 35.01 HB 30.5 HG11 38.06 HG12 38.06 HG13 38.06 HG21 55.8 HG22 55.8 HG23 55.8
A SER E 51 -127.9 136.7 N 19.59 CA 20.84 C 22.31 O 22.75 CB 23.18 OG 27.59 H 23.45 HA 24.94 HB2 27.76 HB3 27.76 HG 33.05
A ARG E 68 -133.5 135.6 N 15.85 CA 18.31 C 19.74 O 20.83 CB 20.62 CG 21.37 CD 25.81 NE 27.95 CZ 31.4 NH1 27.17 NH2 41.96 H 18.96 HA 21.91 HB2 24.68 HB3 24.68 HG2 25.59 HG3 25.59 HD2 30.91 HD3 30.91 HE 33.48 HH11 32.54 HH12 32.54 HH21 50.29 HH22 50.29
A GLY E 29 -145.2 174.3 N 16.6 CA 16.22 C 21.63 O 17.92 H 19.85 HA2 19.4 HA3 19.4
A ARG E 114 -155.7 135.6 N 14.78 CA 19.99 C 24.2 O 18.5 CB 20.47 CG 33.62 CD 36.1 NE 48.51 CZ 54.31 NH1 52.08 NH2 57.91 H 17.67 HA 23.92 HB2 24.5 HB3 24.5 HG2 40.29 HG3 40.29 HD2 43.26 HD3 43.26 HE 58.15 HH11 62.43 HH12 62.43 HH21 69.44 HH22 69.44
A THR E 65 -100.4 135.3 N 18.11 CA 21.95 C 23.37 O 20.81 CB 22.83 OG1 21.53 CG2 22.89 H 21.67 HA 26.28 HB 27.34 HG1 25.78 HG21 27.4 HG22 27.4 HG23 27.4
A PHE - 16 -103.7 159.3 N 21.73 CA 17.53 C 20.91 O 21.16 CB 20.31 CG 28.85 CD1 28.13 CD2 34.36 CE1 26.72 CE2 37.39 CZ 38.42 H 26.01 HA 20.98 HB2 24.31 HB3 24.31 HD1 33.69 HD2 41.18 HE1 32.01 HE2 44.8 HZ 46.04
A PRO S 120 -81.5 1.4 N 24.99 CA 25.83 C 27.14 O 27.69 CB 28.7 CG 24.97 CD 29.98 HA 30.93 HB2 34.37 HB3 34.37 HG2 29.9 HG3 29.9 HD2 35.91 HD3 35.91
A HIS S 99 -143.2 170.0 N 21.56 CA 22.02 C 20.62 O 20.79 CB 23.16 CG 27.18 ND1 34.9 CD2 23.21 CE1 28.48 NE2 32.84 H 25.81 HA 26.36 HB2 27.73 HB3 27.73 HD1 41.82 HD2 27.78 HE1 34.12 HE2 39.35
A GLY - 19 -66.6 150.6 N 19.39 CA 20.42 C 17.12 O 19.41 H 23.2 HA2 24.45 HA3 24.45
A ILE - 1 -101.8 119.6 N 15.68 CA 19.93 C 23.96 O 19.05 CB 21.49 CG1 21.28 CG2 22.8 CD1 20.74 H 18.76 HA 23.86 HB 25.73 HG12 25.47 HG13 25.47 HG21 27.3 HG22 27.3 HG23 27.3 HD11 24.82 HD12 24.82 HD13 24.82
A SER - 51 -71.3 160.9 N 19.41 CA 22.82 C 21.04 O 21.14 CB 23.55 OG 23.66 H 23.23 HA 27.32 HB2 28.2 HB3 28.2 HG 28.33
A LYS H 60 -61.6 -36.5 N 21.12 CA 25.71 C 20.21 O 19.45 CB 27.6 CG 34.13 CD 37.97 CE 47.27 NZ 44.27 H 25.28 HA 30.8 HB2 33.06 HB3 33.06 HG2 40.9 HG3 40.9 HD2 45.51 HD3 45.51 HE2 56.66 HE3 56.66 HZ1 53.07 HZ2 53.07 HZ3 53.07
A GLU H 127 -67.4 -37.1 N 25.08 CA 20.43 C 22.55 O 25.43 CB 32.03 CG 29.48 CD 39.14 OE1 30.14 OE2 48.13 H 30.03 HA 24.46 HB2 38.37 HB3 38.37 HG2 35.32 HG3 35.32
A THR H 46 -70.6 -33.1 N 22.84 CA 19.6 C 20.5 O 22.75 CB 28.99 OG1 28.27 CG2 30.63 H 27.34 HA 23.46 HB 34.73 HG1 33.86 HG21 36.7 HG22 36.7 HG23 36.7
A ALA H 0 -58.4 -43.3 N 24.07 CA 21.51 C 18.06 O 21.56 CB 18.07 H 28.82 HA 25.75 HB1 21.62 HB2 21.62 HB3 21.62
A TYR H 47 -60.2 -49.1 N 21.64 CA 23.84 C 25.68 O 21.17 CB 32.42 CG 35.59 CD1 42.27 CD2 44.33 CE1 44.91 CE2 46.61 CZ 48.74 OH 55.48 H 25.9 HA 28.55 HB2 38.84 HB3 38.84 HD1 50.66 HD2 53.14 HE1 53.83 HE2 55.88 HH 66.51
A SER H 66 -71.6 -40.9 N 22.84 CA 26.73 C 20.25 O 24.63 CB 29.12 OG 36.29 H 27.35 HA 32.01 HB2 34.88 HB3 34.88 HG 43.48
A GLU H 10 -69.3 -34.1 N 19.27 CA 22.9 C 19.27 O 20.95 CB 24.69 CG 22.96 CD 28.26 OE1 27.04 OE2 24.34 H 23.07 HA 27.42 HB2 29.56 HB3 29.56 HG2 27.5 HG3 27.5
A SER H 0 -60.3 -37.7 N 19.01 CA 16.63 C 19.31 O 18.76 CB 21.12 OG 22.23 H 22.75 HA 19.9 HB2 25.28 HB3 25.28 HG 26.61
A VAL H 18 -67.1 -39.4 N 22.85 CA 22.57 C 25.68 O 28.39 CB 30.91 CG1 33.26 CG2 33.2 H 27.36 HA 27.02 HB 37.03 HG11 39.85 HG12 39.85 HG13 39.85 HG21 39.78 HG22 39.78 HG23 39.78
A LYS H 117 -62.7 -39.5 N 24.38 CA 27.05 C 27.26 O 27.77 CB 26.44 CG 33.43 CD 37.15 CE 57.83 NZ 60.23 H 29.19 HA 32.4 HB2 31.67 HB3 31.67 HG2 40.06 HG3 40.06 HD2 44.52 HD3 44.52 HE2 69.33 HE3 69.33 HZ1 72.22 HZ2 72.22 HZ3 72.22
A LEU H 1 -66.0 -41.1 N 23.67 CA 17.91 C 21.1 O 23.43 CB 17.06 CG 23.15 CD1 21.14 CD2 21.07 H 28.35 HA 21.43 HB2 20.41 HB3 20.41 HG 27.72 HD11 25.31 HD12 25.31 HD13 25.31 HD21 25.23 HD22 25.23 HD23 25.23
A LEU H 0 -60.9 -44.5 N 24.52 CA 25.03 C 23.52 O 25.97 CB 24.18 CG 22.45 CD1 24.71 CD2 26.1 H 29.36 HA 29.98 HB2 28.96 HB3 28.96 HG 26.88 HD11 29.59 HD12 29.59 HD13 29.59 HD21 31.26 HD22 31.26 HD23 31.26
A GLN H 93 -56.9 -41.8 N 30.4 CA 34.94 C 33.31 O 35.6 CB 33.05 CG 35.64 CD 41.56 OE1 45.6 NE2 45.47 H 36.42 HA 41.86 HB2 39.6 HB3 39.6 HG2 42.71 HG3 42.71 HE21 54.5 HE22 54.5
A LYS H 87 -60.0 -45.6 N 30.22 CA 34.84 C 33.53 O 33.29 CB 28.02 CG 45.66 CD 50.88 CE 57.27 NZ 62.33 H 36.2 HA 41.75 HB2 33.56 HB3 33.56 HG2 54.73 HG3 54.73 HD2 61.0 HD3 61.0 HE2 68.66 HE3 68.66 HZ1 74.74 HZ2 74.74 HZ3 74.74
A ILE H 2 -59.0 -46.4 N 26.5 CA 22.09 C 24.41 O 34.43 CB 29.03 CG1 22.55 CG2 23.46 CD1 25.63 H 31.74 HA 26.45 HB 34.77 HG12 27.0 HG13 27.0 HG21 28.1 HG22 28.1 HG23 28.1 HD11 30.7 HD12 30.7 HD13 30.7
A LEU H 21 -63.3 -34.4 N 27.18 CA 35.02 C 39.32 O 36.85 CB 33.65 CG 34.35 CD1 39.83 CD2 31.83 H 32.56 HA 41.96 HB2 40.31 HB3 40.31 HG 41.16 HD11 47.73 HD12 47.73 HD13 47.73 HD21 38.13 HD22 38.13 HD23 38.13
A GLU H 155 -69.6 -40.1 N 38.43 CA 39.76 C 44.35 O 44.36 CB 37.66 CG 51.78 CD 50.89 OE1 45.19 OE2 61.93 H 46.06 HA 47.65 HB2 45.13 HB3 45.13 HG2 62.07 HG3 62.07
A GLU H 106 -100.5 -3.2 N 33.07 CA 39.32 C 38.82 O 38.87 CB 33.28 CG 42.51 CD 45.94 OE1 41.42 OE2 48.4 H 39.62 HA 47.12 HB2 39.87 HB3 39.87 HG2 50.95 HG3 50.95
A ASP - 26 -137.7 123.8 N 42.28 CA 37.33 C 39.1 O 39.48 CB 44.86 CG 45.11 OD1 42.74 OD2 49.49 H 50.67 HA 44.74 HB2 53.77 HB3 53.77
A GLU - 177 -82.2 -17.6 N 42.72 CA 49.59 C 48.54 O 45.33 CB 51.68 CG 52.74 CD 72.14 OE1 66.21 OE2 71.29 H 51.2 HA 59.44 HB2 61.96 HB3 61.96 HG2 63.23 HG3 63.23
A ARG S 76 -60.1 154.8 N 47.86 CA 38.65 C 47.91 O 40.96 CB 42.5 CG 43.75 CD 47.75 NE 38.64 CZ 40.96 NH1 42.76 NH2 39.92 H 57.37 HA 46.32 HB2 50.94 HB3 50.94 HG2 52.44 HG3 52.44 HD2 57.24 HD3 57.24 HE 46.31 HH11 51.25 HH12 51.25 HH21 47.84 HH22 47.84
A LYS - 104 -79.6 153.7 N 44.13 CA 40.98 C 31.87 O 29.79 CB 51.7 CG 56.48 CD 64.87 CE 67.22 NZ 69.72 H 52.9 HA 49.11 HB2 61.97 HB3 61.97 HG2 67.72 HG3 67.72 HD2 77.79 HD3 77.79 HE2 80.61 HE3 80.61 HZ1 83.6 HZ2 83.6 HZ3 83.6
A ILE E 2 -100.5 132.7 N 34.1 CA 35.88 C 29.24 O 27.96 CB 29.03 CG1 29.97 CG2 27.95 CD1 31.72 H 40.85 HA 42.99 HB 34.78 HG12 35.91 HG13 35.91 HG21 33.48 HG22 33.48 HG23 33.48 HD11 38.01 HD12 38.01 HD13 38.01
A ARG E 58 -98.8 -50.1 N 28.65 CA 30.66 C 32.75 O 24.93 CB 32.02 CG 30.87 CD 32.43 NE 37.34 CZ 40.99 NH1 33.52 NH2 29.82 H 34.32 HA 36.73 HB2 38.36 HB3 38.36 HG2 36.99 HG3 36.99 HD2 38.85 HD3 38.85 HE 44.74 HH11 40.16 HH12 40.16 HH21 35.72 HH22 35.72
A ARG E 92 -117.4 148.8 N 24.25 CA 21.52 C 19.39 O 20.77 CB 20.77 CG 23.07 CD 24.47 NE 23.41 CZ 23.48 NH1 22.26 NH2 26.35 H 29.04 HA 25.77 HB2 24.86 HB3 24.86 HG2 27.62 HG3 27.62 HD2 29.3 HD3 29.3 HE 28.03 HH11 26.66 HH12 26.66 HH21 31.56 HH22 31.56
A ILE E 0 -139.9 140.4 N 21.2 CA 23.51 C 20.68 O 18.59 CB 19.37 CG1 21.35 CG2 24.93 CD1 21.45 H 25.38 HA 28.15 HB 23.18 HG12 25.55 HG13 25.55 HG21 29.85 HG22 29.85 HG23 29.85 HD11 25.68 HD12 25.68 HD13 25.68
A GLY E 0 -166.3 -168.9 N 22.1 CA 16.23 C 16.37 O 17.42 H 26.46 HA2 19.41 HA3 19.41
A VAL E 1 -148.8 148.8 N 18.12 CA 16.43 C 16.25 O 17.19 CB 17.35 CG1 16.53 CG2 17.99 H 21.69 HA 19.65 HB 20.76 HG11 19.78 HG12 19.78 HG13 19.78 HG21 21.52 HG22 21.52 HG23 21.52
A ARG E 141 -130.4 132.0 N 12.58 CA 11.09 C 17.78 O 18.11 CB 12.6 CG 18.42 CD 19.48 NE 20.16 CZ 18.8 NH1 19.35 NH2 21.09 H 15.04 HA 13.25 HB2 15.05 HB3 15.05 HG2 22.04 HG3 22.04 HD2 23.31 HD3 23.31 HE 24.14 HH11 23.16 HH12 23.16 HH21 25.25 HH22 25.25
A PHE E 0 -113.9 140.7 N 14.61 CA 14.09 C 17.23 O 15.07 CB 15.67 CG 14.88 CD1 16.63 CD2 15.07 CE1 18.65 CE2 18.63 CZ 15.6 H 17.47 HA 16.84 HB2 18.74 HB3 18.74 HD1 19.9 HD2 18.02 HE1 22.32 HE2 22.29 HZ 18.66
A SER E 20 -153.8 -175.8 N 16.4 CA 15.46 C 18.99 O 17.15 CB 15.5 OG 17.82 H 19.61 HA 18.49 HB2 18.54 HB3 18.54 HG 21.32
A LYS E 106 59.5 62.1 N 20.28 CA 25.81 C 23.92 O 21.98 CB 17.0 CG 18.13 CD 22.06 CE 20.9 NZ 23.28 H 24.27 HA 30.91 HB2 20.33 HB3 20.33 HG2 21.69 HG3 21.69 HD2 26.42 HD3 26.42 HE2 25.01 HE3 25.01 HZ1 27.87 HZ2 27.87 HZ3 27.87
A PHE E 45 -77.3 144.8 N 17.53 CA 23.56 C 25.72 O 24.8 CB 21.39 CG 20.89 CD1 21.63 CD2 31.9 CE1 22.68 CE2 30.15 CZ 20.02 H 20.97 HA 28.21 HB2 25.61 HB3 25.61 HD1 25.89 HD2 38.22 HE1 27.16 HE2 36.12 HZ 23.97
A ILE - 138 -70.5 360.0 N 28.51 CA 31.15 C 34.22 O 33.61 CB 26.29 CG1 26.86 CG2 42.14 CD1 28.89 H 34.15 HA 37.32 HB 31.49 HG12 32.18 HG13 32.18 HG21 50.51 HG22 50.51 HG23 50.51 HD11 34.61 HD12 34.61 HD13 34.61
