A VAL - 67 360.0 101.7 N 30.08 CA 27.07 C 26.43 O 27.02 CB 28.68 CG1 27.52 CG2 29.41
A PRO T 110 -59.6 -25.0 N 22.58 CA 21.37 C 18.77 O 19.09 CB 21.93 CG 22.38 CD 23.15
A GLU T 37 -67.3 -19.0 N 16.58 CA 17.51 C 16.81 O 16.57 CB 18.7 CG 20.73 CD 24.74 OE1 20.23 OE2 24.88
A PHE E 46 -79.9 135.2 N 15.15 CA 15.17 C 14.61 O 15.78 CB 14.81 CG 13.62 CD1 14.15 CD2 16.53 CE1 14.62 CE2 16.81 CZ 16.17
A VAL E 24 -110.7 -56.3 N 15.45 CA 15.23 C 16.27 O 18.71 CB 14.03 CG1 13.72 CG2 17.85
A GLY E 14 -173.4 172.1 N 15.2 CA 16.05 C 16.81 O 15.67
A ALA E 40 -140.1 148.1 N 16.72 CA 19.02 C 20.8 O 22.52 CB 18.68
A SER E 27 -132.7 137.8 N 21.24 CA 20.56 C 20.7 O 19.66 CB 20.77 OG 21.39
A GLU T 178 -64.4 -20.9 N 20.81 CA 21.15 C 18.83 O 19.26 CB 22.91 CG 27.96 CD 35.4 OE1 38.4 OE2 38.95
A ILE T 31 -69.6 108.9 N 17.82 CA 17.46 C 17.39 O 15.76 CB 17.51 CG1 17.18 CG2 16.56 CD1 18.59
A GLY T 12 76.5 5.9 N 17.4 CA 17.14 C 16.03 O 14.1
A ASP T 27 42.9 68.4 N 15.29 CA 15.79 C 14.13 O 14.77 CB 16.9 CG 20.29 OD1 24.42 OD2 21.81
A THR E 0 -105.6 129.1 N 12.5 CA 12.17 C 12.88 O 15.09 CB 12.17 OG1 13.56 CG2 11.59
A ILE E 0 -124.9 138.2 N 12.57 CA 10.86 C 12.19 O 11.64 CB 10.65 CG1 11.3 CG2 13.28 CD1 13.04
A GLY E 0 -119.7 137.4 N 11.56 CA 12.62 C 13.32 O 13.88
A MET E 0 -143.6 154.4 N 12.15 CA 12.76 C 13.59 O 13.7 CB 12.87 CG 14.48 SD 15.93 CE 15.35
A VAL E 1 -129.4 133.3 N 12.59 CA 13.33 C 13.75 O 15.61 CB 13.15 CG1 15.12 CG2 14.45
A ILE E 0 -104.3 108.2 N 11.9 CA 13.12 C 12.9 O 14.76 CB 12.87 CG1 14.45 CG2 11.79 CD1 14.34
A PRO S 65 -59.9 -40.5 N 13.65 CA 13.21 C 14.17 O 14.12 CB 12.95 CG 11.99 CD 12.9
A ARG S 186 -145.3 90.6 N 14.71 CA 15.52 C 14.45 O 15.07 CB 17.76 CG 22.37 CD 31.46 NE 38.43 CZ 42.54 NH1 44.52 NH2 44.57
A VAL - 1 -65.9 143.6 N 13.01 CA 13.73 C 14.58 O 16.41 CB 14.54 CG1 14.53 CG2 14.05
A ASP - 36 -58.0 133.4 N 14.21 CA 14.79 C 15.94 O 15.93 CB 16.09 CG 18.4 OD1 20.23 OD2 20.54
A GLN H 76 -62.5 -40.8 N 15.83 CA 17.51 C 17.23 O 16.28 CB 18.03 CG 18.7 CD 21.63 OE1 23.65 NE2 22.2
A GLN H 97 -58.2 -39.4 N 16.06 CA 17.13 C 16.36 O 18.28 CB 17.49 CG 21.23 CD 25.73 OE1 29.75 NE2 29.37
A LEU H 0 -68.9 -47.6 N 15.75 CA 14.48 C 14.43 O 14.15 CB 14.32 CG 14.18 CD1 17.51 CD2 16.9
A LEU H 1 -50.9 -41.3 N 14.9 CA 15.62 C 15.66 O 13.95 CB 15.0 CG 15.75 CD1 16.92 CD2 17.28
A ASP T 98 -66.1 -14.7 N 16.72 CA 17.74 C 17.17 O 19.84 CB 16.74 CG 20.19 OD1 21.96 OD2 22.89
A LYS T 67 -100.9 -12.4 N 15.93 CA 16.27 C 14.57 O 16.82 CB 15.02 CG 20.27 CD 21.91 CE 23.43 NZ 26.86
A LEU S 19 -81.3 148.5 N 16.4 CA 17.59 C 17.98 O 19.35 CB 17.86 CG 19.66 CD1 17.17 CD2 25.82
A HIS - 85 -99.3 76.3 N 16.77 CA 16.86 C 16.74 O 18.37 CB 14.98 CG 19.07 ND1 20.42 CD2 19.79 CE1 20.74 NE2 21.12
A VAL - 29 -109.1 154.9 N 15.67 CA 14.8 C 15.8 O 16.14 CB 14.75 CG1 14.73 CG2 17.47
A THR S 88 -74.9 -25.6 N 15.96 CA 17.26 C 17.12 O 19.55 CB 16.08 OG1 19.91 CG2 15.96
A LYS S 110 -154.8 137.9 N 18.29 CA 17.0 C 17.01 O 15.44 CB 18.1 CG 19.19 CD 21.43 CE 23.77 NZ 28.49
A GLN - 95 -78.1 135.6 N 15.93 CA 18.06 C 16.4 O 17.99 CB 17.74 CG 20.78 CD 21.22 OE1 22.68 NE2 23.79
A TYR - 35 -140.0 152.9 N 16.88 CA 15.54 C 15.77 O 17.19 CB 16.02 CG 15.6 CD1 19.02 CD2 18.41 CE1 21.0 CE2 20.36 CZ 21.93 OH 25.01
A LYS S 61 -86.4 -29.8 N 16.37 CA 15.4 C 14.87 O 14.33 CB 17.14 CG 18.37 CD 22.5 CE 22.49 NZ 25.28
A THR E 8 -95.0 118.8 N 12.91 CA 12.03 C 13.06 O 14.27 CB 10.59 OG1 12.74 CG2 11.11
A LEU E 0 -114.1 135.9 N 12.94 CA 12.31 C 13.29 O 14.23 CB 12.69 CG 13.04 CD1 12.8 CD2 11.78
A GLY E 0 -104.7 149.6 N 10.72 CA 11.4 C 10.76 O 12.15
A ILE E 0 -136.5 127.6 N 10.46 CA 10.3 C 12.66 O 12.18 CB 10.86 CG1 12.01 CG2 12.32 CD1 18.18
A LEU E 1 -122.9 127.8 N 11.61 CA 9.94 C 12.17 O 12.52 CB 11.84 CG 10.84 CD1 16.51 CD2 16.2
A SER E 0 -141.3 130.6 N 10.28 CA 8.89 C 10.29 O 11.68 CB 7.86 OG 11.68
A ASP E 1 -143.4 155.5 N 9.68 CA 10.3 C 11.53 O 10.95 CB 11.8 CG 15.43 OD1 15.97 OD2 13.63
A ARG S 8 -83.0 -39.2 N 9.98 CA 11.28 C 10.4 O 12.18 CB 12.46 CG 14.42 CD 10.76 NE 13.46 CZ 11.94 NH1 13.51 NH2 10.65
A THR S 42 -126.4 117.4 N 10.36 CA 11.72 C 10.93 O 11.59 CB 11.81 OG1 14.99 CG2 14.41
A GLY - 10 110.9 144.4 N 13.4 CA 10.91 C 9.38 O 10.6
A ALA S 9 -127.0 -68.9 N 10.69 CA 11.25 C 9.16 O 9.94 CB 10.85
A GLY H 1 -44.8 -51.7 N 10.69 CA 12.82 C 11.31 O 12.01
A PRO H 2 -60.8 -41.8 N 11.96 CA 12.45 C 11.07 O 10.99 CB 11.05 CG 10.72 CD 12.5
A GLN H 0 -69.9 -36.2 N 11.77 CA 12.03 C 12.31 O 12.01 CB 12.54 CG 13.53 CD 14.18 OE1 11.94 NE2 12.95
A ILE H 1 -64.1 -46.8 N 11.26 CA 11.92 C 11.54 O 11.15 CB 12.01 CG1 9.43 CG2 13.1 CD1 9.1
A MET H 9 -66.8 -33.0 N 11.8 CA 11.69 C 12.67 O 13.58 CB 11.58 CG 12.18 SD 17.28 CE 19.19
A ALA H 0 -67.1 -44.7 N 11.85 CA 13.41 C 14.47 O 13.59 CB 13.89
A MET H 1 -61.4 -33.2 N 14.62 CA 15.21 C 15.42 O 13.72 CB 16.65 CG 16.48 SD 24.69 CE 16.82
A ASP H 1 -55.7 -41.0 N 14.04 CA 13.85 C 14.19 O 15.35 CB 11.88 CG 14.39 OD1 14.34 OD2 15.5
A GLU H 62 -65.4 -36.6 N 14.97 CA 14.98 C 13.41 O 14.5 CB 14.73 CG 16.96 CD 20.46 OE1 19.93 OE2 26.67
A GLY H 0 -62.5 -39.5 N 14.07 CA 13.49 C 12.46 O 13.64
A ILE H 22 -68.4 -49.3 N 11.5 CA 13.19 C 12.59 O 13.66 CB 13.1 CG1 13.33 CG2 14.14 CD1 14.9
A LYS H 95 -53.0 -35.9 N 12.73 CA 14.73 C 16.38 O 17.13 CB 15.68 CG 14.96 CD 13.98 CE 16.86 NZ 17.76
A ALA H 63 -81.4 -9.4 N 16.06 CA 15.93 C 15.15 O 15.85 CB 16.73
A THR S 20 -140.9 -169.7 N 14.44 CA 14.37 C 14.51 O 16.32 CB 13.51 OG1 15.7 CG2 13.13
A ASN S 149 -106.4 7.2 N 15.17 CA 14.98 C 15.55 O 16.07 CB 16.68 CG 16.96 OD1 21.44 ND2 21.82
A MET - 7 -67.3 149.8 N 14.05 CA 13.78 C 12.71 O 13.01 CB 15.12 CG 15.23 SD 15.96 CE 15.82
A GLU E 77 -117.6 138.0 N 13.2 CA 12.34 C 11.82 O 12.33 CB 13.14 CG 18.01 CD 26.46 OE1 28.75 OE2 30.11
A CYS E 9 -77.9 123.7 N 11.23 CA 12.4 C 12.94 O 13.21 CB 13.32 SG 14.26
A ILE E 1 -121.7 -9.2 N 13.09 CA 12.71 C 11.08 O 12.08 CB 11.52 CG1 10.84 CG2 12.17 CD1 12.26
A ASP E 14 -160.4 135.7 N 11.2 CA 10.94 C 12.32 O 14.25 CB 11.69 CG 13.1 OD1 14.9 OD2 13.88
A VAL E 17 -132.5 120.7 N 10.91 CA 10.43 C 11.15 O 13.44 CB 9.35 CG1 12.85 CG2 7.98
A GLU E 2 -122.9 162.5 N 11.42 CA 11.71 C 11.79 O 12.5 CB 12.3 CG 12.89 CD 10.09 OE1 11.21 OE2 12.24
A TRP - 62 -130.2 75.2 N 11.15 CA 13.35 C 12.73 O 13.98 CB 12.41 CG 15.89 CD1 15.94 CD2 17.68 NE1 16.74 CE2 17.88 CE3 14.61 CZ2 14.56 CZ3 17.73 CH2 16.84
A PRO - 0 -67.3 140.1 N 12.16 CA 12.7 C 11.77 O 10.64 CB 12.09 CG 13.88 CD 11.44
A ARG B 17 -79.2 119.9 N 11.58 CA 11.02 C 10.81 O 12.38 CB 11.51 CG 12.58 CD 11.18 NE 10.13 CZ 12.88 NH1 12.81 NH2 13.22
A ASP - 3 -156.7 -114.3 N 12.1 CA 10.73 C 11.11 O 11.11 CB 10.38 CG 11.67 OD1 12.61 OD2 11.78
A THR S 25 59.0 26.6 N 30.0 CA 30.0 C 30.0 O 30.0 CB 20.0 OG1 20.0 CG2 20.0
A LYS T 81 51.1 43.8 N 12.83 CA 15.54 C 16.54 O 18.03 CB 15.36 CG 17.89 CD 22.41 CE 23.35 NZ 25.55
A GLY T 22 102.1 -9.1 N 16.98 CA 18.12 C 19.05 O 18.83
A GLY S 23 -81.1 -169.5 N 18.45 CA 17.27 C 16.22 O 16.37
A GLY S 1 -88.9 8.2 N 15.08 CA 14.07 C 13.21 O 13.03
A GLY S 0 -118.2 -165.5 N 11.43 CA 10.52 C 8.5 O 10.32
A HIS B 10 -101.9 150.2 N 10.3 CA 10.22 C 10.5 O 11.54 CB 12.03 CG 12.29 ND1 11.99 CD2 12.73 CE1 10.96 NE2 12.54
A GLY - 0 -86.1 -160.7 N 8.61 CA 10.25 C 9.91 O 11.78
A CYS E 0 -158.0 142.7 N 10.48 CA 10.25 C 12.12 O 10.75 CB 10.35 SG 14.16
A LEU E 2 -120.6 120.6 N 8.73 CA 11.81 C 11.83 O 12.55 CB 8.87 CG 12.58 CD1 11.8 CD2 12.26
A ILE E 1 -117.9 125.4 N 11.35 CA 11.94 C 11.4 O 13.24 CB 11.89 CG1 12.87 CG2 12.96 CD1 16.84
A ILE E 2 -109.7 131.3 N 8.84 CA 11.09 C 11.14 O 12.38 CB 9.11 CG1 12.31 CG2 11.75 CD1 15.05
A ILE E 0 -116.3 146.9 N 12.38 CA 13.42 C 13.79 O 14.07 CB 12.03 CG1 15.53 CG2 14.13 CD1 14.54
A GLY E 0 -132.4 144.9 N 14.24 CA 13.94 C 13.44 O 15.3
A GLY E 5 -166.1 -168.1 N 13.42 CA 14.94 C 16.42 O 16.65
A ASP S 140 -110.4 -9.1 N 18.97 CA 20.99 C 20.17 O 21.45 CB 22.91 CG 28.63 OD1 33.83 OD2 36.09
A ASP - 82 -124.5 115.3 N 19.47 CA 19.04 C 17.81 O 17.09 CB 19.92 CG 22.66 OD1 28.19 OD2 29.35
A PRO H 47 -53.2 -38.4 N 17.72 CA 16.2 C 16.32 O 16.34 CB 17.85 CG 16.34 CD 17.69
A ALA H 61 -66.3 -39.5 N 14.74 CA 15.18 C 15.02 O 14.81 CB 14.37
A ASP H 29 -61.5 -43.8 N 13.59 CA 15.04 C 14.68 O 16.5 CB 14.74 CG 16.44 OD1 18.27 OD2 20.11
A ALA H 0 -62.8 -43.5 N 14.33 CA 12.29 C 13.03 O 12.4 CB 13.64
A ARG H 65 -63.5 -40.3 N 12.99 CA 14.2 C 15.17 O 15.14 CB 14.38 CG 16.81 CD 24.43 NE 28.8 CZ 30.53 NH1 29.15 NH2 30.19
A GLN H 91 -60.9 -41.3 N 14.92 CA 15.31 C 14.23 O 16.3 CB 15.95 CG 20.7 CD 24.56 OE1 29.63 NE2 28.76
A ALA H 0 -65.1 -38.8 N 14.43 CA 13.32 C 12.86 O 14.68 CB 13.75
A ILE H 0 -67.3 -42.8 N 11.53 CA 12.23 C 12.37 O 13.61 CB 13.55 CG1 13.1 CG2 13.26 CD1 16.05
A ARG H 106 -62.7 -42.3 N 12.92 CA 13.08 C 13.87 O 14.83 CB 13.26 CG 19.49 CD 26.61 NE 34.32 CZ 36.12 NH1 37.22 NH2 37.72
A VAL H 22 -60.9 -38.4 N 12.8 CA 13.31 C 13.26 O 14.88 CB 13.31 CG1 13.73 CG2 12.88
A ALA H 0 -65.0 -49.6 N 12.71 CA 13.96 C 14.35 O 16.76 CB 15.08
A LEU H 27 -59.3 -39.5 N 14.72 CA 15.75 C 17.32 O 18.44 CB 15.89 CG 12.17 CD1 16.34 CD2 14.81
A ASP H 113 -67.1 -17.3 N 16.95 CA 18.93 C 18.18 O 17.86 CB 19.68 CG 25.84 OD1 29.58 OD2 31.25
A ASN H 26 -100.7 -7.7 N 17.08 CA 15.72 C 15.5 O 14.78 CB 17.26 CG 17.47 OD1 23.02 ND2 19.84
A LEU H 0 -48.8 -44.3 N 14.66 CA 15.23 C 15.9 O 16.44 CB 15.27 CG 15.56 CD1 15.44 CD2 19.33
A HIS H 97 -65.0 -27.8 N 17.75 CA 18.9 C 18.37 O 19.1 CB 19.9 CG 22.96 ND1 24.39 CD2 26.31 CE1 27.36 NE2 27.18
A ARG H 91 -77.8 -46.1 N 17.43 CA 18.2 C 16.2 O 15.29 CB 19.51 CG 26.7 CD 33.81 NE 36.8 CZ 39.36 NH1 37.58 NH2 40.95
A THR H 3 -82.4 -6.0 N 14.53 CA 15.91 C 14.58 O 15.85 CB 15.44 OG1 15.08 CG2 15.87
A PHE T 23 -93.5 2.6 N 15.63 CA 14.42 C 14.16 O 16.44 CB 14.33 CG 11.85 CD1 13.23 CD2 13.28 CE1 13.92 CE2 10.77 CZ 14.36
A GLY T 0 -57.6 -28.6 N 14.6 CA 16.04 C 16.64 O 16.84
A ASP T 0 -120.0 39.5 N 15.62 CA 14.35 C 14.87 O 13.28 CB 14.65 CG 16.07 OD1 22.37 OD2 17.55
A VAL E 15 -103.3 124.4 N 14.71 CA 14.04 C 14.93 O 14.46 CB 15.26 CG1 15.75 CG2 15.14
A TYR E 20 -121.0 124.1 N 13.27 CA 14.81 C 15.12 O 17.34 CB 14.29 CG 15.74 CD1 14.26 CD2 17.04 CE1 12.89 CE2 17.11 CZ 19.46 OH 17.93
A ASN E 64 -109.4 145.6 N 16.23 CA 17.44 C 17.83 O 17.88 CB 18.84 CG 24.47 OD1 32.63 ND2 28.99
A ALA E 21 -146.3 165.2 N 17.49 CA 18.06 C 18.23 O 18.47 CB 18.4
A LYS T 166 -59.7 -34.7 N 17.99 CA 19.47 C 17.69 O 18.83 CB 19.39 CG 26.13 CD 32.78 CE 34.14 NZ 39.05
A ALA T 6 -85.3 -13.6 N 16.44 CA 14.37 C 15.03 O 13.54 CB 14.99
A GLY E 4 170.9 -155.6 N 13.87 CA 15.17 C 15.87 O 16.92
A HIS E 22 -159.4 162.6 N 15.69 CA 14.31 C 15.16 O 14.71 CB 15.35 CG 13.84 ND1 14.71 CD2 16.13 CE1 15.51 NE2 15.24
A LEU E 0 -121.6 150.3 N 13.35 CA 14.47 C 14.35 O 14.15 CB 14.14 CG 16.19 CD1 16.67 CD2 17.31
A GLU E 18 -136.4 131.8 N 12.07 CA 11.72 C 11.82 O 14.36 CB 12.13 CG 11.91 CD 13.98 OE1 17.89 OE2 15.34
A LEU E 1 -124.8 136.1 N 12.57 CA 13.11 C 13.1 O 12.82 CB 12.61 CG 15.25 CD1 19.53 CD2 22.41
A GLN E 0 -124.9 151.5 N 10.68 CA 12.44 C 12.68 O 13.42 CB 11.28 CG 13.59 CD 16.86 OE1 15.54 NE2 15.63
A PHE E 36 -151.2 134.8 N 12.67 CA 13.22 C 13.95 O 15.06 CB 12.25 CG 16.27 CD1 16.09 CD2 17.25 CE1 14.89 CE2 18.31 CZ 15.43
A THR E 14 -140.5 144.5 N 13.58 CA 14.0 C 13.31 O 13.57 CB 14.0 OG1 16.17 CG2 16.83
A ALA S 61 -74.3 -21.3 N 14.09 CA 14.85 C 15.7 O 14.61 CB 16.67
A ARG S 179 -150.6 103.3 N 13.85 CA 14.24 C 13.69 O 14.74 CB 15.49 CG 17.03 CD 19.3 NE 21.77 CZ 23.12 NH1 24.07 NH2 26.38
A ALA - 3 -71.9 149.0 N 13.67 CA 12.17 C 12.91 O 13.28 CB 13.5
A ALA - 6 -112.0 -154.0 N 13.12 CA 13.03 C 13.49 O 14.46 CB 13.7
A GLY H 16 -76.6 -25.2 N 13.09 CA 13.5 C 14.62 O 16.42
A ALA H 1 -78.8 -41.5 N 13.79 CA 14.05 C 13.94 O 14.05 CB 14.3
A ALA H 0 -58.2 -35.2 N 14.46 CA 12.96 C 12.17 O 13.9 CB 13.21
A HIS H 99 -68.2 -56.5 N 13.62 CA 12.36 C 11.15 O 12.96 CB 13.3 CG 16.29 ND1 18.15 CD2 19.93 CE1 18.14 NE2 21.02
A LEU H 64 -66.7 -37.5 N 11.06 CA 12.32 C 13.58 O 14.87 CB 12.48 CG 13.6 CD1 16.54 CD2 13.82
A GLY H 9 -82.8 -41.9 N 14.19 CA 14.87 C 13.98 O 15.23
A LEU H 27 -119.1 1.5 N 12.91 CA 13.59 C 13.0 O 15.82 CB 12.78 CG 14.87 CD1 15.42 CD2 15.24
A GLY - 42 81.5 14.3 N 13.97 CA 12.47 C 13.86 O 14.28
A ALA - 1 -64.7 152.8 N 13.09 CA 14.32 C 13.07 O 14.15 CB 13.92
A VAL - 60 -82.5 116.9 N 12.99 CA 12.65 C 12.55 O 14.12 CB 12.35 CG1 16.67 CG2 15.44
A GLU T 125 -63.6 131.0 N 12.83 CA 13.28 C 14.14 O 14.92 CB 15.82 CG 17.76 CD 22.06 OE1 23.6 OE2 25.03
A GLY T 48 100.2 -4.6 N 13.92 CA 13.26 C 13.47 O 14.75
A LYS S 88 -119.4 163.4 N 14.9 CA 15.81 C 15.32 O 16.16 CB 16.91 CG 17.92 CD 19.74 CE 20.62 NZ 24.9
A ALA - 6 -67.8 154.8 N 15.06 CA 12.67 C 13.03 O 12.81 CB 12.58
A PHE E 1 -146.8 136.3 N 10.98 CA 11.65 C 12.33 O 12.5 CB 12.1 CG 13.76 CD1 16.01 CD2 15.05 CE1 15.85 CE2 18.06 CZ 16.51
A GLY E 0 -132.7 147.1 N 11.65 CA 10.96 C 12.18 O 11.33
A LEU E 4 -129.1 130.6 N 8.04 CA 10.5 C 11.96 O 13.33 CB 11.78 CG 12.01 CD1 18.93 CD2 15.01
A ILE E 0 -136.9 110.3 N 10.71 CA 10.67 C 13.47 O 12.64 CB 10.73 CG1 10.47 CG2 12.41 CD1 14.74
A CYS E 2 -131.8 135.1 N 12.46 CA 14.65 C 13.4 O 13.47 CB 16.12 SG 27.84
A GLY E 0 -133.9 150.1 N 12.35 CA 12.21 C 12.74 O 11.2
A CYS E 0 -141.4 131.0 N 9.33 CA 10.75 C 11.29 O 12.31 CB 12.2 SG 14.03
A PRO S 0 -65.1 158.9 N 11.5 CA 10.68 C 10.71 O 11.08 CB 11.73 CG 12.3 CD 10.48
A SER H 0 -55.8 -33.1 N 10.3 CA 10.99 C 9.04 O 11.59 CB 10.22 OG 12.56
A GLY H 0 -56.3 -31.1 N 10.21 CA 10.62 C 10.89 O 11.81
A ILE H 0 -65.0 -39.5 N 11.82 CA 12.23 C 11.62 O 10.64 CB 13.31 CG1 14.47 CG2 12.63 CD1 17.99
A GLY H 0 -60.8 -36.5 N 12.04 CA 12.9 C 10.83 O 11.67
A VAL H 1 -61.7 -44.7 N 11.99 CA 12.51 C 13.41 O 13.68 CB 11.73 CG1 12.91 CG2 13.11
A VAL H 1 -70.5 -38.4 N 12.2 CA 12.65 C 11.75 O 12.85 CB 10.83 CG1 15.0 CG2 13.67
A MET H 0 -57.1 -46.2 N 11.22 CA 10.48 C 12.46 O 13.4 CB 12.21 CG 11.28 SD 13.47 CE 10.72
A GLY H 0 -61.3 -48.1 N 12.28 CA 12.28 C 11.49 O 13.35
A ASP H 2 -55.2 -48.4 N 12.15 CA 14.16 C 14.91 O 14.42 CB 15.35 CG 16.72 OD1 21.26 OD2 16.11
A LYS H 83 -63.5 -34.4 N 14.37 CA 14.64 C 13.36 O 15.72 CB 14.33 CG 19.89 CD 25.95 CE 31.7 NZ 34.47
A ALA H 0 -70.6 -44.6 N 13.02 CA 13.1 C 13.15 O 14.41 CB 13.82
A LEU H 15 -67.3 -30.6 N 13.45 CA 14.01 C 14.9 O 13.89 CB 12.72 CG 12.65 CD1 14.67 CD2 18.05
A LYS H 111 -77.8 -16.7 N 14.18 CA 15.61 C 16.32 O 18.53 CB 16.13 CG 15.11 CD 15.66 CE 16.16 NZ 17.65
A THR H 52 -76.9 -38.3 N 16.43 CA 17.35 C 16.69 O 15.38 CB 18.52 OG1 20.93 CG2 19.42
A ALA S 17 -151.9 160.4 N 17.33 CA 17.05 C 17.31 O 17.33 CB 17.57
A GLY - 75 -78.6 97.4 N 17.82 CA 17.8 C 17.58 O 19.42
A VAL - 10 -120.7 166.8 N 16.18 CA 17.56 C 17.96 O 19.24 CB 15.19 CG1 18.53 CG2 20.69
A GLU E 115 -106.6 118.7 N 19.7 CA 19.61 C 18.56 O 18.44 CB 20.4 CG 24.82 CD 29.79 OE1 30.33 OE2 30.89
A PRO E 21 -62.3 134.6 N 17.62 CA 16.23 C 16.67 O 17.97 CB 15.96 CG 18.4 CD 17.94
A LEU E 51 -96.4 -54.5 N 13.01 CA 12.88 C 14.18 O 14.91 CB 12.79 CG 15.72 CD1 19.13 CD2 17.66
A ASN E 78 -158.3 164.9 N 12.13 CA 13.15 C 12.64 O 12.47 CB 13.37 CG 15.9 OD1 18.58 ND2 18.25
A PHE E 5 -133.4 113.4 N 11.65 CA 11.75 C 12.28 O 14.23 CB 12.73 CG 11.44 CD1 14.92 CD2 12.63 CE1 12.76 CE2 12.97 CZ 13.16
A THR E 29 -104.2 153.9 N 12.52 CA 12.51 C 12.3 O 12.93 CB 14.2 OG1 13.93 CG2 12.94
A SER B 5 -153.5 177.7 N 11.17 CA 11.92 C 12.1 O 11.19 CB 11.41 OG 14.17
A PRO T 0 -59.3 -34.9 N 12.08 CA 11.17 C 12.3 O 11.89 CB 12.87 CG 13.75 CD 12.44
A SER T 39 -101.2 2.6 N 12.87 CA 13.59 C 13.74 O 13.51 CB 13.93 OG 15.25
A HIS B 63 -143.8 105.2 N 13.17 CA 13.3 C 12.52 O 13.39 CB 13.83 CG 14.43 ND1 19.57 CD2 17.97 CE1 18.47 NE2 18.6
A GLY S 68 86.0 13.1 N 14.15 CA 13.9 C 13.22 O 15.09
A THR S 21 -128.5 168.9 N 12.35 CA 12.08 C 12.31 O 14.03 CB 8.89 OG1 10.81 CG2 10.54
A SER S 5 -84.0 50.1 N 11.3 CA 11.52 C 11.25 O 11.99 CB 12.64 OG 14.41
A PHE S 48 55.5 45.0 N 10.64 CA 9.37 C 10.21 O 11.07 CB 9.63 CG 12.89 CD1 17.79 CD2 14.86 CE1 17.07 CE2 14.93 CZ 16.32
A SER - 0 -83.8 166.7 N 10.65 CA 10.35 C 12.63 O 13.22 CB 10.59 OG 11.53
A ASN S 0 -99.9 51.8 N 10.03 CA 11.1 C 11.56 O 12.14 CB 11.88 CG 11.59 OD1 10.95 ND2 10.99
A GLU - 16 -126.9 133.7 N 12.29 CA 9.88 C 11.88 O 12.03 CB 11.96 CG 12.69 CD 12.67 OE1 17.72 OE2 15.98
A GLY E 0 -103.8 125.8 N 10.26 CA 11.87 C 11.94 O 11.03
A CYS E 14 -130.3 122.0 N 10.6 CA 12.35 C 12.2 O 11.12 CB 13.93 SG 22.4
A LEU E 2 -100.0 131.1 N 11.29 CA 10.89 C 11.22 O 11.77 CB 10.82 CG 14.44 CD1 15.08 CD2 14.52
A THR E 13 -116.1 138.7 N 8.71 CA 11.79 C 12.17 O 12.26 CB 12.34 OG1 14.63 CG2 12.62
A ILE E 0 -137.1 156.6 N 11.69 CA 13.37 C 13.94 O 14.59 CB 11.84 CG1 14.88 CG2 13.37 CD1 15.41
A THR E 3 -133.2 -173.5 N 13.84 CA 12.79 C 12.31 O 13.93 CB 13.25 OG1 14.0 CG2 14.17
A GLY S 18 135.5 -162.4 N 12.53 CA 11.97 C 11.58 O 13.4
A ASP - 133 -73.4 140.8 N 13.14 CA 14.0 C 13.62 O 14.22 CB 15.37 CG 20.67 OD1 25.85 OD2 26.93
A SER H 64 -52.1 -43.5 N 13.05 CA 13.69 C 13.85 O 15.78 CB 14.46 OG 14.52
A GLY H 37 -63.5 -42.7 N 13.05 CA 12.99 C 14.1 O 13.49
A ALA H 14 -66.3 -35.8 N 10.75 CA 12.79 C 12.59 O 13.59 CB 12.1
A VAL H 0 -69.4 -45.6 N 12.42 CA 12.57 C 13.24 O 13.96 CB 11.68 CG1 12.8 CG2 11.12
A ARG H 122 -56.9 -46.1 N 14.94 CA 15.66 C 15.71 O 14.43 CB 16.93 CG 24.66 CD 30.61 NE 36.24 CZ 39.7 NH1 42.49 NH2 42.38
A GLN H 97 -59.2 -47.3 N 15.52 CA 15.15 C 15.51 O 14.54 CB 18.04 CG 26.09 CD 30.56 OE1 33.92 NE2 30.15
A ALA H 0 -59.5 -43.9 N 10.09 CA 10.6 C 10.3 O 12.17 CB 11.97
A VAL H 1 -63.1 -41.1 N 11.36 CA 12.75 C 11.22 O 14.03 CB 11.62 CG1 11.55 CG2 10.3
A MET H 63 -67.5 -39.5 N 14.6 CA 15.44 C 14.92 O 17.23 CB 16.37 CG 18.14 SD 28.29 CE 28.31
A ALA H 10 -59.2 -42.6 N 13.4 CA 14.05 C 13.8 O 14.14 CB 15.01
A GLY H 0 -65.7 -44.2 N 12.62 CA 12.92 C 14.17 O 16.2
A ARG H 40 -53.2 -49.9 N 14.16 CA 13.67 C 15.06 O 15.33 CB 13.73 CG 14.59 CD 14.74 NE 18.32 CZ 19.04 NH1 19.27 NH2 24.03
A GLU H 107 -58.4 -48.8 N 14.84 CA 15.38 C 15.61 O 15.71 CB 16.9 CG 22.68 CD 31.16 OE1 34.69 OE2 36.12
A VAL H 4 -70.3 -33.6 N 11.83 CA 14.88 C 14.44 O 14.24 CB 15.15 CG1 17.54 CG2 16.87
A GLY H 0 -67.0 -43.4 N 13.96 CA 14.4 C 15.0 O 16.69
A LEU H 50 -59.6 -50.0 N 16.03 CA 15.34 C 15.49 O 14.92 CB 16.06 CG 14.9 CD1 18.6 CD2 17.08
A LYS H 91 -51.2 -51.0 N 15.38 CA 15.89 C 15.7 O 15.08 CB 16.39 CG 18.39 CD 22.26 CE 28.04 NZ 32.58
A LEU H 1 -65.8 -48.1 N 13.9 CA 13.36 C 13.07 O 14.58 CB 12.48 CG 15.68 CD1 16.37 CD2 16.72
A LEU H 2 -63.9 -33.4 N 14.05 CA 14.52 C 14.96 O 16.91 CB 14.43 CG 14.48 CD1 16.18 CD2 17.09
A SER H 38 -61.2 -23.6 N 15.27 CA 15.76 C 16.19 O 15.76 CB 16.13 OG 16.81
A GLN T 93 -62.1 -15.8 N 15.94 CA 17.06 C 16.69 O 18.07 CB 16.37 CG 18.58 CD 22.58 OE1 23.7 NE2 22.67
A PHE T 50 -76.6 -5.4 N 17.64 CA 18.06 C 20.09 O 22.73 CB 17.64 CG 16.38 CD1 13.6 CD2 14.21 CE1 18.52 CE2 17.11 CZ 17.24
A GLY S 74 111.8 -10.2 N 19.54 CA 21.62 C 22.09 O 22.38
A GLU S 74 -123.9 128.5 N 22.16 CA 22.84 C 22.82 O 22.52 CB 21.28 CG 25.35 CD 28.74 OE1 30.06 OE2 32.3
A GLU - 169 -64.1 124.9 N 22.34 CA 24.36 C 24.27 O 24.47 CB 24.11 CG 30.48 CD 37.56 OE1 41.29 OE2 41.63
A PRO - 13 -61.3 139.3 N 24.68 CA 25.37 C 26.7 O 27.27 CB 25.51 CG 25.39 CD 25.06
A VAL B 65 -109.3 128.6 N 27.77 CA 29.64 C 29.63 O 29.52 CB 29.56 CG1 30.97 CG2 30.9
A ASN - 57 -103.8 141.6 N 31.17 CA 32.61 C 32.96 O 33.36 CB 32.82 CG 34.77 OD1 36.71 ND2 35.76
A ASP S 115 -89.7 -13.4 N 33.71 CA 33.79 C 33.03 O 33.85 CB 34.23 CG 36.48 OD1 39.52 OD2 37.45
A PHE S 58 -133.7 148.8 N 31.75 CA 30.88 C 30.41 O 29.49 CB 30.87 CG 31.54 CD1 30.45 CD2 32.2 CE1 33.87 CE2 33.4 CZ 32.63
A PRO - 115 -50.6 136.0 N 30.67 CA 31.33 C 31.4 O 31.55 CB 31.66 CG 31.65 CD 30.81
A SER - 54 -68.7 138.4 N 32.17 CA 32.78 C 33.58 O 34.27 CB 33.03 OG 32.21
A TYR - 62 -98.0 -14.4 N 33.88 CA 34.13 C 33.87 O 34.48 CB 34.62 CG 34.65 CD1 34.55 CD2 35.87 CE1 32.01 CE2 34.21 CZ 33.46 OH 28.94
A ILE - 34 -98.8 360.0 N 33.55 CA 33.09 C 33.09 O 32.28 CB 32.92 CG1 32.8 CG2 32.55 CD1 32.95
B VAL - 74 360.0 148.6 N 31.52 CA 29.47 C 27.8 O 27.64 CB 30.65 CG1 31.75 CG2 30.83
B PRO T 123 -64.5 -28.0 N 25.27 CA 23.59 C 21.64 O 21.72 CB 23.6 CG 23.9 CD 24.58
B GLU T 41 -66.5 -22.6 N 19.35 CA 20.14 C 19.3 O 20.25 CB 20.25 CG 23.79 CD 28.8 OE1 27.27 OE2 29.14
B PHE E 54 -72.7 130.1 N 18.45 CA 17.04 C 17.46 O 17.84 CB 17.12 CG 17.72 CD1 17.58 CD2 18.31 CE1 18.83 CE2 22.7 CZ 17.93
B VAL E 32 -105.7 -53.9 N 15.79 CA 16.38 C 17.09 O 19.19 CB 14.53 CG1 16.56 CG2 15.97
B GLY E 14 -173.7 166.1 N 16.28 CA 16.32 C 18.41 O 16.6
B ALA E 39 -135.5 153.6 N 18.44 CA 20.47 C 21.71 O 22.84 CB 20.65
B SER E 28 -140.4 139.3 N 20.87 CA 20.46 C 20.39 O 20.32 CB 20.24 OG 20.21
B GLU T 180 -65.0 -20.2 N 20.38 CA 21.84 C 20.63 O 20.86 CB 22.97 CG 28.89 CD 36.36 OE1 41.69 OE2 39.97
B ILE T 34 -67.2 109.8 N 19.15 CA 18.98 C 17.49 O 17.38 CB 18.24 CG1 20.78 CG2 16.01 CD1 22.73
B GLY T 12 67.2 8.0 N 17.81 CA 17.97 C 17.42 O 17.78
B ASP T 27 51.0 63.6 N 16.88 CA 15.89 C 15.07 O 15.67 CB 16.21 CG 21.97 OD1 20.54 OD2 22.57
B THR E 0 -105.0 126.0 N 13.02 CA 13.02 C 13.42 O 15.15 CB 11.81 OG1 12.75 CG2 11.96
B ILE E 0 -120.1 136.5 N 11.95 CA 11.33 C 13.74 O 12.46 CB 11.76 CG1 12.39 CG2 14.44 CD1 16.32
B GLY E 0 -118.4 137.2 N 12.93 CA 14.68 C 15.01 O 15.18
B MET E 0 -141.8 155.0 N 13.1 CA 14.17 C 14.59 O 14.42 CB 14.07 CG 16.98 SD 17.48 CE 16.13
B VAL E 4 -130.9 133.2 N 14.47 CA 13.93 C 14.63 O 15.77 CB 14.51 CG1 15.65 CG2 13.92
B ILE E 0 -108.3 115.5 N 12.38 CA 12.84 C 14.53 O 14.39 CB 13.56 CG1 14.04 CG2 12.74 CD1 12.8
B PRO S 61 -65.7 -40.4 N 16.16 CA 15.22 C 15.79 O 15.66 CB 15.84 CG 15.23 CD 16.49
B ARG S 176 -140.8 90.5 N 15.5 CA 16.27 C 15.84 O 16.14 CB 17.88 CG 22.85 CD 31.61 NE 38.15 CZ 40.42 NH1 42.63 NH2 41.93
B VAL - 1 -66.4 144.0 N 15.4 CA 16.49 C 17.53 O 17.77 CB 17.47 CG1 17.16 CG2 16.75
B ASP - 35 -59.3 134.9 N 15.76 CA 15.47 C 14.87 O 15.6 CB 15.69 CG 17.33 OD1 21.43 OD2 19.31
B GLN H 73 -63.3 -41.1 N 14.35 CA 15.15 C 15.87 O 16.06 CB 15.32 CG 18.39 CD 18.32 OE1 24.73 NE2 21.6
B GLN H 83 -61.1 -38.2 N 16.21 CA 17.57 C 17.0 O 17.88 CB 18.68 CG 22.34 CD 27.68 OE1 29.15 NE2 29.25
B LEU H 1 -66.4 -46.8 N 17.1 CA 15.81 C 15.5 O 15.71 CB 15.86 CG 14.83 CD1 14.17 CD2 15.17
B LEU H 2 -55.8 -35.7 N 15.91 CA 16.86 C 16.92 O 15.86 CB 16.73 CG 17.85 CD1 19.27 CD2 20.64
B ASP H 97 -67.9 -20.5 N 18.45 CA 18.39 C 18.84 O 19.53 CB 18.42 CG 20.39 OD1 23.17 OD2 24.48
B LYS H 70 -93.6 -15.3 N 18.1 CA 19.09 C 18.82 O 20.21 CB 19.67 CG 21.91 CD 26.51 CE 26.29 NZ 29.96
B LEU S 18 -79.4 138.6 N 18.79 CA 18.45 C 19.11 O 19.5 CB 18.04 CG 19.35 CD1 17.97 CD2 20.23
B HIS - 95 -89.5 75.6 N 17.79 CA 18.15 C 17.24 O 18.01 CB 16.29 CG 20.22 ND1 25.5 CD2 19.93 CE1 24.9 NE2 24.75
B VAL - 28 -107.1 153.8 N 17.58 CA 17.35 C 18.2 O 19.75 CB 17.79 CG1 17.52 CG2 18.95
B THR S 87 -73.1 -31.9 N 18.69 CA 18.98 C 18.76 O 18.71 CB 20.07 OG1 20.4 CG2 21.19
B LYS S 115 -150.7 132.3 N 18.05 CA 17.92 C 17.62 O 17.99 CB 17.54 CG 17.96 CD 20.71 CE 23.56 NZ 26.94
B GLN - 86 -74.2 135.5 N 16.8 CA 17.26 C 17.02 O 19.36 CB 16.85 CG 16.68 CD 20.37 OE1 21.76 NE2 22.09
B TYR - 46 -129.8 147.6 N 17.52 CA 16.9 C 17.57 O 17.49 CB 17.06 CG 15.51 CD1 18.65 CD2 17.56 CE1 18.56 CE2 19.8 CZ 19.87 OH 21.29
B LYS S 59 -75.1 -23.7 N 19.22 CA 18.81 C 18.38 O 18.13 CB 20.64 CG 23.68 CD 27.18 CE 30.04 NZ 32.25
B THR E 7 -106.6 120.1 N 15.5 CA 15.09 C 15.5 O 15.75 CB 14.74 OG1 15.4 CG2 16.49
B LEU E 0 -113.9 138.4 N 14.71 CA 13.59 C 14.84 O 16.22 CB 11.96 CG 16.07 CD1 14.57 CD2 15.52
B GLY E 0 -107.1 143.7 N 13.0 CA 13.27 C 13.1 O 13.92
B ILE E 0 -130.7 123.8 N 10.91 CA 10.24 C 11.3 O 12.21 CB 11.9 CG1 13.3 CG2 9.43 CD1 15.69
B LEU E 1 -121.2 126.9 N 11.61 CA 9.59 C 12.07 O 11.13 CB 10.9 CG 13.02 CD1 13.44 CD2 13.39
B SER E 0 -141.6 128.2 N 10.04 CA 8.26 C 9.73 O 10.42 CB 8.85 OG 12.43
B ASP E 0 -145.5 154.3 N 9.14 CA 11.23 C 11.92 O 9.49 CB 11.53 CG 15.32 OD1 18.11 OD2 12.18
B ARG S 8 -81.0 -34.4 N 9.95 CA 10.34 C 8.92 O 9.86 CB 11.19 CG 13.14 CD 10.88 NE 13.03 CZ 14.18 NH1 14.66 NH2 11.65
B THR S 41 -131.0 117.1 N 10.44 CA 11.75 C 11.4 O 12.24 CB 11.57 OG1 15.46 CG2 13.8
B GLY - 10 110.3 140.3 N 12.88 CA 11.52 C 12.18 O 11.75
B ALA S 8 -128.6 -65.0 N 11.05 CA 12.22 C 10.0 O 11.25 CB 10.69
B GLY H 2 -52.8 -48.0 N 12.01 CA 12.03 C 11.35 O 11.74
B PRO H 2 -65.5 -36.7 N 11.17 CA 12.83 C 10.88 O 13.22 CB 12.0 CG 12.26 CD 14.61
B GLN H 0 -71.8 -35.4 N 11.32 CA 11.61 C 10.97 O 12.8 CB 12.62 CG 14.38 CD 14.49 OE1 14.33 NE2 16.32
B ILE H 0 -64.6 -50.2 N 11.79 CA 11.23 C 10.27 O 12.23 CB 10.5 CG1 9.54 CG2 12.99 CD1 12.46
B MET H 7 -62.2 -33.3 N 11.35 CA 11.64 C 11.85 O 12.72 CB 12.89 CG 11.46 SD 18.3 CE 19.72
B ALA H 0 -65.4 -45.1 N 12.69 CA 13.46 C 14.02 O 13.5 CB 14.65
B MET H 1 -62.4 -31.2 N 13.93 CA 14.89 C 14.47 O 14.02 CB 14.39 CG 17.57 SD 23.68 CE 14.93
B ASP H 1 -56.3 -37.3 N 13.94 CA 15.2 C 14.51 O 15.06 CB 14.06 CG 18.41 OD1 20.67 OD2 17.77
B GLU H 58 -70.9 -38.1 N 14.02 CA 13.82 C 12.94 O 15.17 CB 14.13 CG 16.77 CD 21.6 OE1 24.21 OE2 26.72
B GLY H 0 -60.3 -39.3 N 13.24 CA 13.46 C 13.03 O 13.61
B ILE H 22 -65.3 -44.4 N 14.07 CA 15.7 C 16.25 O 16.71 CB 15.61 CG1 18.51 CG2 17.69 CD1 19.65
B LYS H 94 -62.6 -28.8 N 16.14 CA 16.29 C 17.4 O 17.03 CB 16.11 CG 17.56 CD 19.52 CE 21.1 NZ 21.59
B ALA T 66 -90.0 -9.3 N 16.71 CA 17.17 C 16.32 O 17.35 CB 18.09
B THR S 20 -140.2 -179.0 N 16.32 CA 15.21 C 16.23 O 17.09 CB 15.12 OG1 15.36 CG2 14.64
B ASN S 141 -94.3 13.2 N 16.84 CA 17.37 C 18.38 O 18.91 CB 17.76 CG 19.44 OD1 22.84 ND2 21.47
B MET - 8 -73.4 149.2 N 15.82 CA 15.28 C 14.84 O 15.12 CB 16.37 CG 14.89 SD 18.1 CE 19.67
B GLU E 75 -114.0 141.2 N 15.13 CA 15.76 C 14.33 O 14.04 CB 16.36 CG 22.3 CD 25.0 OE1 25.96 OE2 28.15
B CYS E 8 -81.0 120.3 N 13.4 CA 12.64 C 13.78 O 13.03 CB 11.47 SG 16.51
B ILE E 1 -115.9 -10.0 N 13.27 CA 12.78 C 13.26 O 14.39 CB 12.7 CG1 13.02 CG2 12.35 CD1 13.89
B ASP E 13 -159.9 133.3 N 12.64 CA 12.59 C 13.05 O 13.38 CB 12.5 CG 13.79 OD1 15.54 OD2 14.85
B VAL E 16 -128.5 121.3 N 11.94 CA 12.56 C 13.52 O 12.02 CB 11.14 CG1 14.75 CG2 12.13
B GLU E 3 -121.3 161.4 N 11.76 CA 12.22 C 12.86 O 13.73 CB 13.15 CG 12.3 CD 9.11 OE1 12.1 OE2 13.04
B TRP - 62 -128.6 79.2 N 11.7 CA 12.19 C 12.64 O 14.17 CB 10.96 CG 12.43 CD1 17.01 CD2 15.84 NE1 15.14 CE2 17.74 CE3 14.98 CZ2 16.85 CZ3 14.62 CH2 17.63
B PRO - 0 -68.9 140.8 N 13.28 CA 12.36 C 10.27 O 12.37 CB 12.41 CG 15.34 CD 13.48
B ARG B 19 -78.1 123.2 N 10.03 CA 10.27 C 10.28 O 10.51 CB 11.33 CG 10.5 CD 11.49 NE 13.29 CZ 10.95 NH1 13.28 NH2 15.58
B ASP - 2 -158.9 -114.0 N 12.13 CA 11.35 C 12.61 O 12.89 CB 12.8 CG 13.22 OD1 13.88 OD2 10.43
B THR G 26 57.2 26.1 N 12.98 CA 12.78 C 13.0 O 12.46 CB 12.29 OG1 12.45 CG2 12.31
B LYS G 86 54.9 41.0 N 12.94 CA 16.33 C 17.19 O 18.98 CB 15.98 CG 18.25 CD 20.07 CE 22.26 NZ 21.31
B GLY G 22 103.3 -11.8 N 17.3 CA 19.65 C 20.24 O 21.64
B GLY S 24 -76.4 -170.2 N 19.28 CA 16.65 C 15.51 O 15.32
B GLY S 1 -87.8 7.5 N 14.56 CA 13.08 C 13.45 O 13.39
B GLY S 0 -119.7 -157.4 N 12.88 CA 11.97 C 10.82 O 10.9
B HIS B 10 -104.5 152.5 N 10.38 CA 11.99 C 11.14 O 13.15 CB 13.49 CG 11.79 ND1 12.18 CD2 15.25 CE1 13.19 NE2 13.89
B GLY - 0 -87.8 -164.6 N 9.9 CA 12.52 C 11.38 O 11.93
B CYS E 0 -155.1 143.5 N 12.18 CA 11.36 C 13.03 O 10.8 CB 10.31 SG 14.34
B LEU E 2 -122.2 124.8 N 9.02 CA 11.22 C 11.46 O 13.22 CB 11.43 CG 10.14 CD1 13.56 CD2 11.36
B ILE E 1 -121.5 123.5 N 11.12 CA 11.45 C 12.28 O 12.04 CB 11.51 CG1 12.78 CG2 13.95 CD1 15.2
B ILE E 1 -111.5 131.6 N 9.6 CA 12.36 C 11.79 O 11.9 CB 11.37 CG1 14.14 CG2 13.31 CD1 14.54
B ILE E 0 -115.4 154.5 N 11.47 CA 11.89 C 13.81 O 12.73 CB 12.22 CG1 12.79 CG2 13.25 CD1 13.65
B GLY E 0 -140.6 146.6 N 14.89 CA 15.2 C 14.53 O 14.91
B GLY E 4 -165.9 -174.3 N 15.7 CA 17.9 C 19.94 O 19.74
B ASP S 138 -94.4 -15.4 N 22.78 CA 23.93 C 23.11 O 23.53 CB 26.5 CG 29.38 OD1 35.88 OD2 36.84
B ASP - 74 -118.0 112.9 N 22.44 CA 20.49 C 19.44 O 15.95 CB 20.36 CG 23.15 OD1 22.29 OD2 28.31
B PRO H 34 -50.5 -37.5 N 18.42 CA 18.06 C 18.11 O 17.37 CB 19.09 CG 20.18 CD 17.04
B ALA H 47 -63.9 -39.1 N 16.0 CA 16.4 C 15.74 O 14.95 CB 16.79
B ASP H 28 -68.5 -38.9 N 14.48 CA 15.54 C 14.98 O 14.9 CB 17.37 CG 21.02 OD1 25.26 OD2 23.88
B ALA H 0 -64.7 -44.7 N 14.11 CA 13.47 C 14.2 O 14.02 CB 15.25
B ARG H 84 -60.1 -45.9 N 13.39 CA 14.04 C 15.1 O 14.78 CB 14.06 CG 14.3 CD 13.33 NE 18.64 CZ 18.24 NH1 17.69 NH2 17.69
B GLN H 95 -55.6 -45.8 N 16.18 CA 15.96 C 16.27 O 16.1 CB 17.95 CG 20.59 CD 23.59 OE1 26.59 NE2 30.19
B ALA H 0 -62.6 -36.9 N 14.26 CA 13.34 C 12.57 O 13.02 CB 12.74
B ILE H 0 -72.5 -41.9 N 12.69 CA 12.11 C 12.72 O 15.48 CB 12.84 CG1 13.46 CG2 15.02 CD1 17.27
B ARG H 116 -59.3 -42.4 N 15.02 CA 14.45 C 14.98 O 15.33 CB 15.74 CG 19.73 CD 26.41 NE 34.36 CZ 37.24 NH1 38.65 NH2 39.85
B VAL H 26 -67.5 -38.2 N 12.52 CA 13.12 C 12.72 O 14.01 CB 12.74 CG1 14.38 CG2 14.52
B ALA H 0 -63.7 -49.2 N 11.26 CA 13.48 C 14.63 O 16.44 CB 12.73
B LEU H 26 -52.0 -43.7 N 14.92 CA 16.17 C 16.63 O 17.02 CB 15.43 CG 15.61 CD1 16.17 CD2 17.02
B ASP H 114 -70.7 -12.2 N 16.75 CA 18.95 C 18.71 O 20.85 CB 18.7 CG 24.96 OD1 30.9 OD2 31.57
B ASN H 33 -101.2 -7.5 N 16.72 CA 16.55 C 16.0 O 16.72 CB 15.54 CG 15.36 OD1 18.32 ND2 15.18
B LEU H 0 -54.5 -41.3 N 16.87 CA 17.13 C 18.3 O 16.21 CB 17.76 CG 17.6 CD1 19.8 CD2 21.34
B HIS H 105 -64.5 -24.5 N 18.55 CA 20.3 C 19.46 O 21.38 CB 20.8 CG 25.3 ND1 28.44 CD2 27.81 CE1 27.94 NE2 29.22
B ARG H 68 -81.5 -43.7 N 17.71 CA 17.31 C 16.26 O 15.11 CB 17.11 CG 18.67 CD 22.59 NE 23.06 CZ 24.01 NH1 27.24 NH2 25.94
B THR H 0 -80.6 -8.1 N 16.69 CA 16.14 C 16.02 O 16.55 CB 15.37 OG1 15.44 CG2 17.67
B PHE T 24 -91.1 2.6 N 13.97 CA 14.3 C 13.23 O 14.55 CB 13.56 CG 11.93 CD1 12.38 CD2 11.86 CE1 16.16 CE2 12.39 CZ 14.34
B GLY T 0 -53.8 -33.4 N 12.2 CA 13.94 C 15.9 O 17.96
B ASP T 0 -125.8 41.5 N 15.69 CA 15.96 C 16.26 O 15.56 CB 17.12 CG 20.61 OD1 20.49 OD2 19.79
B VAL E 13 -102.9 123.2 N 14.7 CA 13.75 C 14.6 O 14.83 CB 14.22 CG1 15.6 CG2 15.52
B TYR E 19 -123.2 126.2 N 14.41 CA 15.12 C 16.44 O 17.23 CB 15.19 CG 16.44 CD1 16.4 CD2 16.64 CE1 13.94 CE2 15.35 CZ 15.34 OH 19.21
B ASN E 63 -113.1 147.7 N 15.67 CA 18.36 C 19.28 O 20.07 CB 19.13 CG 24.43 OD1 31.93 ND2 28.08
B ALA E 22 -151.5 169.8 N 18.71 CA 19.21 C 18.25 O 18.47 CB 17.7
B LYS T 165 -61.4 -36.3 N 18.06 CA 18.71 C 16.54 O 16.87 CB 19.67 CG 25.08 CD 33.01 CE 35.09 NZ 38.15
B ALA T 6 -81.1 -18.7 N 14.67 CA 14.47 C 14.29 O 14.56 CB 14.62
B GLY E 5 171.2 -155.2 N 14.38 CA 13.37 C 15.57 O 15.65
B HIS E 22 -158.3 163.0 N 13.09 CA 12.67 C 13.32 O 13.36 CB 14.73 CG 14.7 ND1 17.79 CD2 19.68 CE1 16.54 NE2 15.35
B LEU E 0 -121.6 150.5 N 12.04 CA 12.17 C 13.22 O 13.77 CB 11.22 CG 12.94 CD1 20.0 CD2 16.17
B GLU E 16 -136.8 131.4 N 12.89 CA 12.95 C 13.15 O 13.72 CB 12.23 CG 14.07 CD 14.54 OE1 18.59 OE2 14.42
B LEU E 1 -121.6 137.8 N 13.17 CA 12.84 C 13.85 O 13.3 CB 14.55 CG 17.16 CD1 14.46 CD2 21.9
B GLN E 0 -130.2 153.4 N 11.9 CA 12.65 C 12.54 O 12.47 CB 13.02 CG 12.67 CD 12.76 OE1 14.18 NE2 15.59
B PHE E 35 -153.9 130.7 N 13.18 CA 13.84 C 15.26 O 14.16 CB 14.5 CG 14.34 CD1 14.82 CD2 17.96 CE1 14.4 CE2 17.43 CZ 15.67
B THR E 16 -137.2 142.3 N 13.14 CA 14.35 C 15.23 O 15.52 CB 14.98 OG1 13.97 CG2 15.58
B ALA S 59 -71.6 -18.6 N 15.44 CA 15.55 C 15.53 O 15.94 CB 16.51
B ARG S 172 -151.8 101.0 N 14.86 CA 16.24 C 16.1 O 16.75 CB 18.22 CG 21.39 CD 25.34 NE 28.53 CZ 29.13 NH1 28.55 NH2 28.62
B ALA - 3 -70.1 142.5 N 15.59 CA 15.87 C 16.16 O 17.4 CB 16.71
B ALA - 12 -114.0 -163.3 N 16.56 CA 16.18 C 15.38 O 16.72 CB 16.2
B GLY H 13 -61.7 -35.1 N 16.15 CA 15.71 C 14.66 O 15.35
B ALA H 0 -74.6 -40.4 N 12.79 CA 12.72 C 13.6 O 14.58 CB 15.54
B ALA H 0 -65.8 -35.7 N 14.57 CA 13.0 C 12.62 O 14.06 CB 14.32
B HIS H 93 -62.0 -62.2 N 12.77 CA 13.33 C 13.28 O 14.73 CB 14.34 CG 18.02 ND1 22.97 CD2 21.07 CE1 21.91 NE2 25.24
B LEU H 68 -61.1 -44.3 N 13.91 CA 14.78 C 14.92 O 16.97 CB 15.1 CG 16.79 CD1 20.13 CD2 19.89
B GLY H 10 -78.3 -39.9 N 15.22 CA 15.3 C 15.11 O 17.02
B LEU H 26 -122.5 -2.0 N 13.5 CA 13.69 C 14.11 O 15.32 CB 13.18 CG 14.66 CD1 15.98 CD2 15.98
B GLY - 44 85.3 15.6 N 14.9 CA 13.71 C 14.17 O 15.61
B ALA - 0 -64.0 152.0 N 13.72 CA 13.98 C 13.33 O 15.4 CB 13.28
B VAL - 63 -81.3 118.9 N 15.62 CA 16.17 C 16.82 O 16.02 CB 17.42 CG1 17.09 CG2 16.75
B GLU T 110 -60.2 132.4 N 17.8 CA 18.77 C 18.45 O 17.2 CB 20.82 CG 26.89 CD 32.2 OE1 34.91 OE2 35.41
B GLY T 31 93.4 -6.0 N 17.77 CA 17.78 C 17.57 O 19.25
B LYS S 113 -119.8 167.4 N 16.73 CA 16.51 C 15.65 O 16.45 CB 17.34 CG 21.45 CD 27.74 CE 31.59 NZ 36.02
B ALA - 6 -60.2 151.5 N 14.43 CA 12.1 C 12.32 O 12.67 CB 11.69
B PHE E 0 -149.0 138.6 N 10.69 CA 10.21 C 11.72 O 12.16 CB 10.64 CG 16.11 CD1 16.05 CD2 15.96 CE1 16.56 CE2 15.16 CZ 13.96
B GLY E 0 -130.7 153.8 N 11.09 CA 11.12 C 11.58 O 9.82
B LEU E 7 -131.8 133.2 N 8.58 CA 11.36 C 10.95 O 12.43 CB 11.19 CG 13.93 CD1 19.25 CD2 15.95
B ILE E 0 -139.1 110.2 N 11.42 CA 11.84 C 13.09 O 12.72 CB 12.62 CG1 11.89 CG2 15.45 CD1 13.1
B CYS E 3 -135.5 141.7 N 12.26 CA 13.86 C 12.95 O 11.69 CB 15.0 SG 24.29
B GLY E 0 -143.8 154.1 N 11.4 CA 10.51 C 11.13 O 10.61
B CYS E 0 -139.6 129.8 N 11.17 CA 10.28 C 11.99 O 12.27 CB 10.84 SG 14.33
B PRO S 0 -68.4 159.3 N 11.28 CA 11.76 C 10.13 O 12.07 CB 12.16 CG 11.69 CD 12.26
B SER T 1 -59.7 -34.3 N 10.85 CA 11.23 C 10.1 O 10.72 CB 10.13 OG 11.38
B GLY H 0 -55.3 -27.4 N 10.98 CA 11.33 C 11.21 O 12.67
B ILE H 0 -64.4 -40.6 N 10.13 CA 11.98 C 12.88 O 11.88 CB 12.47 CG1 16.03 CG2 12.7 CD1 16.84
B GLY H 0 -60.0 -37.8 N 13.2 CA 12.74 C 10.64 O 12.37
B VAL H 1 -58.8 -44.9 N 12.06 CA 11.48 C 12.45 O 12.89 CB 10.78 CG1 12.32 CG2 11.67
B VAL H 1 -73.6 -37.7 N 11.05 CA 11.93 C 10.8 O 10.66 CB 11.69 CG1 12.48 CG2 12.86
B MET H 0 -53.4 -46.3 N 10.68 CA 10.44 C 10.47 O 11.26 CB 11.0 CG 12.46 SD 12.56 CE 12.75
B GLY H 0 -59.7 -46.0 N 11.43 CA 11.18 C 11.11 O 11.79
B ASP H 1 -59.6 -48.5 N 11.9 CA 12.32 C 12.82 O 14.36 CB 13.25 CG 17.07 OD1 20.47 OD2 17.01
B LYS H 93 -61.2 -39.6 N 13.5 CA 13.63 C 14.1 O 15.09 CB 15.63 CG 21.21 CD 25.53 CE 30.79 NZ 35.28
B ALA H 0 -65.1 -44.5 N 13.58 CA 12.91 C 12.64 O 14.51 CB 13.82
B LEU H 14 -66.5 -30.9 N 12.32 CA 12.97 C 13.18 O 14.8 CB 11.95 CG 12.9 CD1 14.68 CD2 15.95
B LYS H 106 -80.6 -13.9 N 13.6 CA 14.47 C 15.91 O 17.22 CB 15.88 CG 16.1 CD 17.51 CE 17.33 NZ 18.18
B THR H 50 -82.5 -36.7 N 15.32 CA 16.36 C 16.43 O 14.92 CB 18.32 OG1 18.21 CG2 19.48
B ALA S 18 -153.9 163.6 N 16.47 CA 16.79 C 16.6 O 15.71 CB 17.91
B GLY - 75 -81.3 98.7 N 16.71 CA 15.7 C 14.45 O 16.91
B VAL - 14 -126.0 162.9 N 16.66 CA 16.91 C 18.25 O 19.37 CB 16.75 CG1 15.55 CG2 15.44
B GLU E 113 -102.9 108.6 N 18.11 CA 18.0 C 15.61 O 15.94 CB 18.95 CG 25.36 CD 30.69 OE1 32.88 OE2 34.18
B PRO E 16 -66.9 130.4 N 17.15 CA 16.84 C 17.12 O 18.23 CB 17.58 CG 18.75 CD 16.49
B LEU E 41 -91.8 -45.9 N 15.02 CA 13.68 C 15.41 O 16.82 CB 14.36 CG 13.98 CD1 16.08 CD2 16.13
B ASN E 79 -161.6 158.3 N 13.98 CA 12.73 C 13.07 O 12.76 CB 13.54 CG 15.17 OD1 17.5 ND2 18.28
B PHE E 4 -128.9 125.8 N 12.34 CA 12.15 C 12.71 O 13.68 CB 12.76 CG 12.41 CD1 16.34 CD2 11.34 CE1 12.65 CE2 14.99 CZ 14.93
B THR E 29 -118.8 154.2 N 10.78 CA 11.25 C 11.55 O 11.68 CB 13.48 OG1 11.38 CG2 11.46
B SER B 4 -154.7 -178.3 N 9.55 CA 11.38 C 10.44 O 10.07 CB 12.26 OG 14.82
B PRO T 0 -62.2 -33.0 N 10.38 CA 12.03 C 13.28 O 14.74 CB 12.23 CG 13.58 CD 10.62
B SER T 34 -101.0 -0.3 N 15.25 CA 16.27 C 16.69 O 17.04 CB 16.32 OG 17.58
B HIS B 61 -146.3 110.4 N 14.17 CA 14.01 C 13.43 O 14.51 CB 14.75 CG 15.61 ND1 18.7 CD2 19.77 CE1 17.2 NE2 18.41
B GLY S 69 75.7 11.9 N 13.69 CA 14.7 C 14.15 O 15.84
B THR S 20 -125.7 173.4 N 12.38 CA 11.94 C 12.24 O 14.25 CB 12.25 OG1 9.85 CG2 11.03
B SER S 5 -92.0 60.8 N 12.02 CA 12.7 C 12.66 O 11.61 CB 13.91 OG 14.57
B PHE S 50 46.3 49.1 N 11.22 CA 10.2 C 12.07 O 11.39 CB 11.46 CG 13.27 CD1 16.39 CD2 15.34 CE1 17.05 CE2 16.32 CZ 16.75
B SER - 0 -87.3 167.3 N 10.46 CA 10.83 C 11.53 O 13.92 CB 8.57 OG 12.18
B ASN S 0 -98.0 48.2 N 10.42 CA 10.05 C 11.62 O 12.54 CB 11.03 CG 9.81 OD1 11.97 ND2 9.4
B GLU - 15 -120.8 137.8 N 11.22 CA 10.83 C 12.31 O 12.83 CB 12.15 CG 9.31 CD 14.61 OE1 17.13 OE2 17.37
B GLY E 0 -109.9 124.8 N 11.08 CA 11.07 C 11.33 O 11.95
B CYS E 12 -133.0 119.9 N 10.87 CA 11.79 C 12.3 O 10.9 CB 12.62 SG 18.55
B LEU E 0 -96.3 130.7 N 11.61 CA 11.2 C 12.32 O 11.73 CB 12.33 CG 12.24 CD1 15.42 CD2 13.6
B THR E 13 -115.0 139.6 N 10.46 CA 11.76 C 11.96 O 12.7 CB 13.17 OG1 14.86 CG2 13.74
B ILE E 0 -140.3 156.2 N 11.97 CA 12.96 C 13.62 O 14.12 CB 11.28 CG1 15.12 CG2 13.43 CD1 16.31
B THR E 7 -131.4 -175.0 N 14.22 CA 13.86 C 13.44 O 16.51 CB 13.38 OG1 14.66 CG2 18.3
B GLY S 27 135.1 -165.4 N 14.22 CA 14.32 C 14.28 O 15.09
B ASP - 133 -65.1 139.6 N 16.6 CA 16.47 C 15.58 O 16.57 CB 17.88 CG 20.84 OD1 26.99 OD2 27.64
B SER H 61 -54.6 -42.5 N 14.49 CA 14.69 C 14.74 O 16.23 CB 14.84 OG 15.01
B GLY H 41 -60.0 -45.0 N 14.43 CA 14.42 C 14.51 O 14.89
B ALA H 15 -64.7 -39.6 N 11.71 CA 12.68 C 12.83 O 13.18 CB 12.7
B VAL H 0 -64.8 -46.8 N 14.56 CA 13.11 C 12.31 O 13.98 CB 13.44 CG1 13.55 CG2 13.63
B ARG H 120 -56.2 -51.3 N 13.91 CA 16.07 C 16.8 O 15.41 CB 18.1 CG 22.99 CD 30.41 NE 35.0 CZ 36.14 NH1 38.49 NH2 38.81
B GLN H 108 -49.7 -50.2 N 16.52 CA 15.89 C 15.9 O 14.44 CB 17.42 CG 22.63 CD 25.85 OE1 28.59 NE2 24.39
B ALA H 0 -62.9 -37.7 N 12.95 CA 12.2 C 11.66 O 10.82 CB 13.74
B VAL H 2 -72.6 -37.1 N 11.88 CA 12.12 C 11.99 O 14.02 CB 12.31 CG1 13.0 CG2 11.61
B MET H 62 -67.9 -37.6 N 13.32 CA 14.55 C 14.68 O 16.18 CB 15.7 CG 16.91 SD 27.68 CE 25.87
B ALA H 11 -63.4 -43.4 N 13.2 CA 14.54 C 14.22 O 14.25 CB 15.74
B GLY H 0 -62.4 -44.2 N 13.57 CA 13.81 C 13.65 O 15.62
B ARG H 40 -53.6 -52.3 N 13.43 CA 13.52 C 14.53 O 14.53 CB 14.1 CG 13.83 CD 14.77 NE 16.48 CZ 15.1 NH1 20.32 NH2 23.19
B GLU H 107 -58.1 -46.9 N 14.6 CA 14.96 C 14.63 O 13.6 CB 16.53 CG 22.44 CD 30.45 OE1 35.76 OE2 34.42
B VAL H 11 -73.3 -34.7 N 14.4 CA 14.08 C 14.15 O 14.99 CB 13.66 CG1 16.46 CG2 16.81
B GLY H 0 -59.6 -44.8 N 13.13 CA 14.85 C 14.44 O 16.64
B LEU H 49 -64.0 -46.6 N 15.17 CA 15.0 C 15.93 O 14.91 CB 15.13 CG 13.97 CD1 16.87 CD2 16.41
B LYS H 96 -53.2 -51.9 N 17.12 CA 15.68 C 16.12 O 17.63 CB 16.55 CG 17.14 CD 21.44 CE 25.82 NZ 27.39
B LEU H 0 -64.2 -48.6 N 14.04 CA 13.5 C 13.89 O 15.92 CB 13.87 CG 14.38 CD1 17.76 CD2 16.14
B LEU H 1 -62.8 -31.0 N 14.44 CA 14.93 C 14.85 O 14.82 CB 15.25 CG 14.47 CD1 18.42 CD2 14.31
B SER G 41 -66.2 -16.6 N 15.07 CA 15.36 C 15.83 O 15.21 CB 15.55 OG 13.53
B GLN G 90 -68.9 -16.6 N 15.25 CA 15.98 C 16.69 O 16.92 CB 16.86 CG 17.45 CD 23.32 OE1 23.56 NE2 26.76
B PHE G 50 -75.0 -12.1 N 16.94 CA 18.62 C 20.45 O 22.86 CB 18.09 CG 17.53 CD1 15.37 CD2 16.25 CE1 19.58 CE2 14.65 CZ 14.92
B GLY S 72 118.2 -3.5 N 20.66 CA 21.18 C 22.71 O 22.94
B GLU S 81 -127.8 132.1 N 23.3 CA 23.64 C 23.86 O 21.88 CB 25.18 CG 26.24 CD 29.91 OE1 33.34 OE2 33.82
B GLU - 166 -64.1 122.4 N 22.66 CA 24.62 C 23.79 O 23.04 CB 24.51 CG 30.67 CD 36.98 OE1 40.82 OE2 38.95
B PRO - 13 -64.6 142.4 N 24.45 CA 24.64 C 25.85 O 25.57 CB 24.95 CG 25.41 CD 24.69
B VAL B 67 -116.4 127.8 N 26.47 CA 29.18 C 28.75 O 28.22 CB 28.75 CG1 31.6 CG2 31.04
B ASN - 65 -101.0 142.4 N 30.53 CA 31.95 C 32.29 O 32.21 CB 32.2 CG 33.01 OD1 34.93 ND2 35.49
B ASP S 120 -94.8 -2.9 N 32.93 CA 33.6 C 33.12 O 33.81 CB 34.61 CG 36.31 OD1 41.21 OD2 39.94
B PHE S 58 -144.0 153.3 N 32.03 CA 31.5 C 30.78 O 29.1 CB 31.8 CG 32.17 CD1 33.04 CD2 32.32 CE1 33.48 CE2 32.45 CZ 32.97
B PRO - 107 -58.6 139.2 N 31.12 CA 31.13 C 31.33 O 29.31 CB 31.67 CG 31.76 CD 30.91
B SER - 51 -61.5 137.2 N 32.24 CA 33.38 C 34.34 O 34.62 CB 33.57 OG 33.76
B TYR - 62 -94.8 -11.2 N 34.95 CA 35.37 C 35.2 O 35.65 CB 35.42 CG 35.16 CD1 35.04 CD2 34.91 CE1 31.31 CE2 32.08 CZ 30.74 OH 23.12
B ILE - 23 -106.6 360.0 N 35.26 CA 34.94 C 35.0 O 34.52 CB 34.95 CG1 34.57 CG2 34.65 CD1 35.13
C VAL - 71 360.0 118.2 N 29.09 CA 27.57 C 26.26 O 25.11 CB 28.24 CG1 28.93 CG2 30.34
C PRO T 113 -69.0 -15.1 N 23.48 CA 22.75 C 21.42 O 20.94 CB 23.32 CG 24.1 CD 23.74
C GLU T 44 -75.6 -19.2 N 19.89 CA 20.81 C 19.3 O 19.67 CB 21.96 CG 24.87 CD 29.02 OE1 25.58 OE2 27.19
C PHE E 47 -73.1 125.8 N 17.25 CA 16.45 C 16.74 O 15.82 CB 17.58 CG 16.55 CD1 14.51 CD2 16.18 CE1 17.17 CE2 17.33 CZ 15.85
C VAL E 27 -97.4 -52.1 N 15.91 CA 15.84 C 16.74 O 18.93 CB 15.31 CG1 16.25 CG2 17.2
C GLY E 15 -175.3 157.9 N 15.53 CA 16.63 C 17.15 O 17.01
C ALA E 39 -128.5 143.5 N 16.94 CA 18.25 C 19.17 O 21.42 CB 18.04
C SER E 25 -123.4 141.5 N 19.31 CA 19.51 C 19.87 O 19.13 CB 20.16 OG 19.77
C GLU T 178 -65.5 -19.2 N 18.83 CA 20.69 C 18.93 O 20.68 CB 22.12 CG 28.03 CD 36.11 OE1 39.94 OE2 39.62
C ILE T 32 -75.3 107.3 N 18.3 CA 18.42 C 18.31 O 18.69 CB 18.57 CG1 20.48 CG2 16.4 CD1 19.57
C GLY T 13 73.1 8.6 N 18.53 CA 18.84 C 17.66 O 16.0
C ASP T 29 48.3 66.2 N 16.87 CA 16.0 C 15.11 O 16.03 CB 15.89 CG 21.63 OD1 22.03 OD2 22.44
C THR E 0 -107.8 127.4 N 13.3 CA 11.78 C 12.03 O 14.65 CB 11.37 OG1 14.33 CG2 13.06
C ILE E 0 -121.1 136.8 N 11.23 CA 9.96 C 13.76 O 11.6 CB 11.67 CG1 14.27 CG2 12.5 CD1 15.42
C GLY E 0 -119.8 136.7 N 12.5 CA 12.65 C 13.49 O 13.44
C MET E 0 -137.8 154.6 N 10.65 CA 10.8 C 12.29 O 13.36 CB 10.96 CG 16.28 SD 16.29 CE 16.49
C VAL E 2 -128.9 132.1 N 11.38 CA 13.85 C 14.21 O 17.51 CB 11.99 CG1 17.24 CG2 14.1
C ILE E 1 -106.6 112.9 N 13.94 CA 13.51 C 14.34 O 14.43 CB 14.25 CG1 13.67 CG2 11.98 CD1 14.58
C PRO S 65 -62.9 -40.4 N 15.47 CA 14.53 C 14.39 O 13.98 CB 15.99 CG 15.55 CD 14.41
C ARG S 188 -143.0 90.5 N 15.13 CA 16.73 C 15.16 O 15.11 CB 18.37 CG 26.62 CD 35.57 NE 42.32 CZ 44.94 NH1 46.84 NH2 46.46
C VAL - 2 -61.0 140.2 N 15.36 CA 15.63 C 16.49 O 17.46 CB 15.62 CG1 17.42 CG2 16.65
C ASP - 34 -53.2 132.3 N 15.1 CA 14.87 C 15.03 O 14.16 CB 16.22 CG 18.13 OD1 21.3 OD2 20.96
C GLN H 76 -64.3 -36.3 N 14.73 CA 16.32 C 16.75 O 18.24 CB 16.55 CG 19.73 CD 20.42 OE1 23.06 NE2 19.68
C GLN H 99 -64.4 -41.9 N 17.14 CA 18.65 C 17.9 O 18.28 CB 18.87 CG 20.0 CD 24.49 OE1 27.63 NE2 29.82
C LEU H 1 -61.1 -47.9 N 16.13 CA 15.95 C 15.36 O 15.62 CB 14.45 CG 14.32 CD1 16.86 CD2 15.23
C LEU H 1 -55.4 -39.0 N 15.85 CA 17.06 C 17.57 O 17.61 CB 16.77 CG 18.17 CD1 17.17 CD2 19.89
C ASP H 105 -65.4 -23.1 N 18.83 CA 19.01 C 18.79 O 21.19 CB 19.68 CG 19.78 OD1 23.99 OD2 23.89
C LYS H 60 -98.1 -5.0 N 18.59 CA 18.09 C 17.66 O 18.5 CB 18.74 CG 22.81 CD 28.14 CE 31.28 NZ 29.22
C LEU S 17 -84.6 140.8 N 15.77 CA 16.74 C 17.0 O 17.31 CB 15.53 CG 19.25 CD1 17.29 CD2 20.3
C HIS - 87 -92.0 69.0 N 15.87 CA 16.56 C 16.33 O 18.23 CB 15.14 CG 16.1 ND1 20.76 CD2 13.46 CE1 14.93 NE2 18.99
C VAL - 29 -106.5 152.8 N 16.07 CA 16.56 C 18.56 O 20.82 CB 14.88 CG1 16.97 CG2 16.49
C THR S 90 -68.4 -30.4 N 18.96 CA 21.25 C 22.46 O 24.34 CB 20.79 OG1 21.02 CG2 20.33
C LYS S 110 -155.4 132.8 N 22.74 CA 23.61 C 22.65 O 23.4 CB 24.55 CG 28.4 CD 33.03 CE 36.53 NZ 39.64
C GLN - 90 -72.9 135.4 N 21.88 CA 21.64 C 21.07 O 23.35 CB 21.2 CG 21.27 CD 22.43 OE1 22.36 NE2 21.69
C TYR - 37 -137.0 147.7 N 21.64 CA 21.0 C 21.1 O 22.35 CB 21.05 CG 19.94 CD1 22.21 CD2 20.6 CE1 21.65 CE2 20.51 CZ 20.4 OH 25.01
C LYS S 68 -79.4 -22.2 N 21.44 CA 20.73 C 19.09 O 19.07 CB 22.82 CG 27.06 CD 31.87 CE 32.85 NZ 36.19
C THR E 7 -105.6 120.3 N 17.66 CA 15.27 C 14.4 O 15.17 CB 14.24 OG1 15.96 CG2 15.6
C LEU E 0 -113.8 136.4 N 13.54 CA 12.46 C 13.47 O 14.04 CB 12.56 CG 13.5 CD1 15.47 CD2 13.64
C GLY E 0 -104.2 148.9 N 12.43 CA 11.94 C 12.3 O 11.44
C ILE E 0 -137.9 123.5 N 10.73 CA 11.67 C 12.4 O 13.59 CB 11.24 CG1 11.55 CG2 10.88 CD1 16.89
C LEU E 1 -121.1 127.8 N 12.12 CA 10.6 C 11.86 O 11.86 CB 12.18 CG 13.31 CD1 15.94 CD2 15.63
C SER E 0 -139.4 129.6 N 9.97 CA 10.86 C 11.29 O 11.5 CB 11.3 OG 13.58
C ASP E 1 -144.4 155.2 N 11.82 CA 12.06 C 12.87 O 10.0 CB 13.21 CG 16.28 OD1 17.52 OD2 15.75
C ARG S 7 -79.0 -37.1 N 8.71 CA 9.87 C 9.6 O 10.83 CB 10.6 CG 11.73 CD 13.92 NE 13.54 CZ 13.21 NH1 15.55 NH2 13.04
C THR S 41 -128.7 115.0 N 11.26 CA 13.3 C 12.42 O 12.11 CB 12.43 OG1 15.66 CG2 14.45
C GLY - 9 114.7 141.4 N 14.38 CA 12.4 C 12.44 O 12.87
C ALA S 8 -125.5 -74.5 N 11.3 CA 11.21 C 10.37 O 10.96 CB 10.93
C GLY H 2 -44.7 -47.8 N 11.02 CA 12.07 C 11.55 O 11.82
C PRO H 2 -63.0 -37.0 N 11.37 CA 12.0 C 11.78 O 13.19 CB 11.55 CG 10.85 CD 13.07
C GLN H 0 -74.4 -31.4 N 11.41 CA 11.97 C 11.36 O 11.9 CB 10.3 CG 14.53 CD 14.74 OE1 12.07 NE2 12.62
C ILE H 0 -71.7 -47.1 N 11.39 CA 12.2 C 11.61 O 10.25 CB 12.09 CG1 12.44 CG2 14.48 CD1 14.38
C MET H 10 -58.5 -37.2 N 11.12 CA 11.45 C 12.01 O 11.18 CB 12.04 CG 11.18 SD 16.8 CE 19.98
C ALA H 0 -67.2 -45.1 N 11.63 CA 13.16 C 13.49 O 13.92 CB 15.27
C MET H 1 -60.6 -32.0 N 11.86 CA 14.18 C 13.96 O 14.04 CB 13.7 CG 14.87 SD 22.16 CE 17.14
C ASP H 1 -59.5 -34.9 N 13.21 CA 13.68 C 13.55 O 12.98 CB 11.24 CG 16.9 OD1 15.25 OD2 17.53
C GLU H 64 -68.3 -41.3 N 13.32 CA 15.52 C 15.63 O 17.99 CB 15.81 CG 17.47 CD 21.24 OE1 20.95 OE2 24.32
C GLY H 0 -54.4 -43.3 N 15.82 CA 14.49 C 14.43 O 15.94
C ILE H 21 -67.1 -46.9 N 14.14 CA 14.46 C 14.89 O 15.92 CB 14.77 CG1 14.75 CG2 16.9 CD1 18.05
C LYS H 94 -54.3 -33.8 N 14.95 CA 15.47 C 16.16 O 17.35 CB 15.03 CG 16.36 CD 20.06 CE 25.21 NZ 25.32
C ALA T 64 -88.2 -6.8 N 15.8 CA 15.75 C 16.01 O 17.93 CB 16.89
C THR S 17 -140.1 -171.2 N 15.4 CA 15.97 C 15.9 O 17.12 CB 16.44 OG1 16.31 CG2 15.88
C ASN S 148 -105.9 10.9 N 16.18 CA 16.39 C 17.84 O 18.26 CB 17.03 CG 16.64 OD1 21.83 ND2 22.96
C MET - 7 -68.9 150.1 N 15.67 CA 16.29 C 14.42 O 14.99 CB 17.15 CG 17.36 SD 16.8 CE 19.48
C GLU E 77 -113.6 137.1 N 13.18 CA 14.26 C 12.06 O 14.06 CB 14.7 CG 21.34 CD 27.48 OE1 30.02 OE2 29.57
C CYS E 9 -72.5 119.2 N 12.88 CA 12.4 C 14.7 O 13.74 CB 11.91 SG 14.97
C ILE E 0 -117.0 -10.8 N 13.23 CA 13.95 C 14.25 O 14.43 CB 13.75 CG1 11.48 CG2 14.86 CD1 13.49
C ASP E 13 -156.9 138.1 N 13.19 CA 11.84 C 13.38 O 13.62 CB 11.98 CG 11.89 OD1 15.15 OD2 15.29
C VAL E 18 -131.2 120.4 N 11.51 CA 11.8 C 12.17 O 13.97 CB 9.45 CG1 14.3 CG2 13.42
C GLU E 4 -119.2 160.2 N 13.19 CA 13.26 C 13.26 O 13.65 CB 13.42 CG 14.99 CD 12.31 OE1 12.24 OE2 13.71
C TRP - 60 -128.7 77.4 N 13.67 CA 14.61 C 14.42 O 14.71 CB 15.35 CG 15.0 CD1 19.87 CD2 17.61 NE1 20.1 CE2 17.7 CE3 16.88 CZ2 15.25 CZ3 15.91 CH2 18.29
C PRO - 0 -65.6 137.5 N 11.39 CA 12.22 C 8.95 O 10.2 CB 11.64 CG 12.32 CD 13.58
C ARG B 17 -79.4 120.7 N 11.05 CA 10.04 C 9.65 O 10.65 CB 9.2 CG 10.87 CD 9.61 NE 12.23 CZ 13.66 NH1 12.25 NH2 14.95
C ASP - 2 -157.4 -112.7 N 10.91 CA 11.25 C 11.06 O 10.5 CB 12.87 CG 11.94 OD1 12.72 OD2 12.06
C THR G 26 56.5 27.9 N 11.96 CA 13.91 C 14.65 O 15.13 CB 12.68 OG1 12.59 CG2 12.33
C LYS G 82 48.8 46.1 N 13.07 CA 16.55 C 17.18 O 17.57 CB 16.43 CG 18.11 CD 22.26 CE 24.22 NZ 23.21
C GLY G 24 100.5 -8.0 N 15.68 CA 18.41 C 18.05 O 18.28
C GLY S 24 -80.0 -171.5 N 17.7 CA 16.53 C 15.04 O 16.8
C GLY S 1 -89.1 7.3 N 13.15 CA 13.57 C 13.98 O 13.51
C GLY S 0 -114.6 -164.6 N 11.13 CA 11.55 C 10.87 O 10.37
C HIS B 9 -103.2 154.3 N 11.34 CA 11.65 C 11.48 O 13.8 CB 11.24 CG 11.58 ND1 12.83 CD2 12.66 CE1 14.96 NE2 13.92
C GLY - 0 -90.1 -165.6 N 10.56 CA 12.2 C 12.76 O 12.27
C CYS E 0 -153.4 145.3 N 10.44 CA 10.47 C 11.78 O 9.52 CB 9.41 SG 13.59
C LEU E 3 -128.1 122.1 N 7.93 CA 9.08 C 10.32 O 12.77 CB 9.79 CG 9.91 CD1 14.76 CD2 13.22
C ILE E 2 -120.3 126.5 N 10.23 CA 9.92 C 10.6 O 12.64 CB 9.88 CG1 11.7 CG2 11.57 CD1 15.69
C ILE E 1 -112.1 133.1 N 9.58 CA 11.43 C 11.01 O 12.98 CB 11.14 CG1 14.72 CG2 10.34 CD1 14.65
C ILE E 1 -117.9 151.4 N 11.99 CA 11.26 C 13.21 O 13.26 CB 11.59 CG1 16.22 CG2 11.04 CD1 15.59
C GLY E 0 -134.4 152.1 N 13.41 CA 14.81 C 15.26 O 16.3
C GLY E 4 -169.3 -163.8 N 15.72 CA 18.31 C 19.16 O 19.29
C ASP S 144 -104.6 -22.9 N 21.24 CA 22.27 C 21.51 O 21.14 CB 24.38 CG 28.61 OD1 33.62 OD2 35.71
C ASP - 87 -119.5 115.7 N 20.14 CA 19.18 C 17.76 O 15.74 CB 19.02 CG 21.44 OD1 21.55 OD2 25.19
C PRO H 43 -54.8 -34.8 N 16.31 CA 16.31 C 17.04 O 16.54 CB 16.63 CG 17.42 CD 16.08
C ALA H 63 -64.1 -43.4 N 14.48 CA 13.91 C 13.82 O 13.32 CB 14.03
C ASP H 30 -62.2 -40.7 N 11.89 CA 12.34 C 12.62 O 14.35 CB 12.2 CG 17.3 OD1 17.95 OD2 22.27
C ALA H 0 -60.7 -50.4 N 14.13 CA 12.54 C 13.52 O 13.62 CB 13.04
C ARG H 75 -60.9 -41.3 N 14.17 CA 14.55 C 15.44 O 14.74 CB 14.07 CG 14.52 CD 15.25 NE 18.87 CZ 19.0 NH1 17.18 NH2 19.19
C GLN H 81 -58.0 -47.8 N 15.74 CA 15.19 C 14.27 O 13.81 CB 15.8 CG 20.44 CD 25.59 OE1 28.72 NE2 28.48
C ALA H 0 -58.1 -38.1 N 12.76 CA 12.49 C 12.15 O 11.58 CB 11.98
C ILE H 0 -71.9 -44.5 N 13.58 CA 13.75 C 14.44 O 14.71 CB 15.0 CG1 13.53 CG2 12.81 CD1 17.13
C ARG H 107 -54.4 -50.6 N 14.65 CA 14.8 C 14.53 O 14.16 CB 15.7 CG 18.41 CD 23.36 NE 27.22 CZ 28.8 NH1 30.5 NH2 29.85
C VAL H 26 -59.3 -40.8 N 13.55 CA 12.79 C 12.69 O 13.37 CB 11.94 CG1 14.01 CG2 11.49
C ALA H 0 -57.8 -53.6 N 11.96 CA 13.66 C 14.35 O 14.58 CB 14.9
C LEU H 27 -54.8 -45.4 N 14.82 CA 15.23 C 16.97 O 17.72 CB 15.71 CG 13.15 CD1 14.25 CD2 16.86
C ASP H 116 -65.1 -17.9 N 16.84 CA 17.84 C 18.14 O 19.73 CB 18.84 CG 23.54 OD1 26.51 OD2 29.31
C ASN H 26 -99.0 -5.0 N 15.74 CA 16.29 C 16.11 O 15.74 CB 17.2 CG 19.59 OD1 23.09 ND2 19.9
C LEU H 0 -54.5 -39.3 N 15.76 CA 16.79 C 18.32 O 16.2 CB 16.75 CG 19.06 CD1 16.06 CD2 20.47
C HIS H 96 -66.0 -25.1 N 18.82 CA 21.18 C 20.37 O 20.65 CB 21.77 CG 23.86 ND1 29.29 CD2 27.81 CE1 28.02 NE2 29.3
C ARG H 96 -81.4 -47.0 N 19.32 CA 19.97 C 18.31 O 16.64 CB 20.36 CG 26.55 CD 31.47 NE 35.0 CZ 36.21 NH1 36.41 NH2 37.5
C THR H 3 -77.5 -8.4 N 17.42 CA 17.22 C 15.86 O 16.41 CB 17.02 OG1 15.02 CG2 17.91
C PHE T 23 -91.1 4.7 N 15.41 CA 14.31 C 14.38 O 15.71 CB 13.17 CG 11.62 CD1 15.08 CD2 12.76 CE1 15.78 CE2 12.93 CZ 16.98
C GLY T 0 -62.1 -30.6 N 14.48 CA 14.38 C 16.4 O 18.91
C ASP T 0 -119.5 36.4 N 14.12 CA 14.08 C 14.06 O 13.85 CB 15.16 CG 19.61 OD1 22.98 OD2 19.2
C VAL E 15 -100.9 125.2 N 13.38 CA 13.91 C 14.34 O 14.84 CB 15.6 CG1 16.8 CG2 18.02
C TYR E 20 -121.6 127.3 N 14.96 CA 15.78 C 16.94 O 17.75 CB 15.15 CG 16.25 CD1 14.27 CD2 17.23 CE1 17.51 CE2 17.01 CZ 18.72 OH 19.15
C ASN E 68 -114.9 149.1 N 17.69 CA 19.08 C 19.32 O 20.02 CB 21.23 CG 25.63 OD1 31.9 ND2 28.54
C ALA E 21 -152.3 165.2 N 19.35 CA 19.53 C 19.21 O 18.74 CB 18.73
C LYS T 165 -54.5 -38.3 N 19.74 CA 20.49 C 18.97 O 19.06 CB 21.82 CG 26.99 CD 32.67 CE 35.56 NZ 39.94
C ALA T 5 -84.9 -15.9 N 16.98 CA 14.69 C 14.56 O 14.91 CB 14.97
C GLY E 5 171.2 -158.1 N 14.41 CA 15.32 C 14.94 O 16.78
C HIS E 22 -161.2 162.1 N 12.83 CA 12.08 C 12.45 O 13.75 CB 12.46 CG 11.92 ND1 14.71 CD2 17.66 CE1 16.03 NE2 16.9
C LEU E 0 -123.7 152.8 N 11.71 CA 13.23 C 13.44 O 13.23 CB 12.29 CG 13.69 CD1 14.98 CD2 17.22
C GLU E 17 -143.4 132.7 N 12.38 CA 12.96 C 12.63 O 13.26 CB 12.19 CG 10.67 CD 12.32 OE1 16.83 OE2 14.81
C LEU E 0 -126.6 138.9 N 12.36 CA 12.95 C 13.06 O 11.33 CB 13.18 CG 14.58 CD1 17.66 CD2 18.85
C GLN E 0 -128.1 154.7 N 9.66 CA 12.17 C 12.57 O 13.36 CB 11.3 CG 14.22 CD 13.14 OE1 14.97 NE2 14.31
C PHE E 36 -149.5 134.6 N 13.91 CA 15.13 C 15.07 O 16.35 CB 14.55 CG 16.06 CD1 20.69 CD2 19.0 CE1 19.15 CE2 21.59 CZ 22.0
C THR E 17 -140.3 146.0 N 13.81 CA 15.14 C 14.92 O 14.86 CB 15.21 OG1 14.36 CG2 15.22
C ALA S 58 -72.7 -19.4 N 14.33 CA 15.42 C 15.44 O 16.59 CB 15.61
C ARG S 169 -151.0 103.3 N 15.26 CA 15.95 C 15.34 O 16.83 CB 16.65 CG 19.77 CD 24.31 NE 26.44 CZ 25.58 NH1 26.64 NH2 26.41
C ALA - 3 -72.5 147.4 N 15.37 CA 15.22 C 16.33 O 16.54 CB 14.88
C ALA - 10 -115.8 -167.6 N 15.82 CA 15.52 C 15.1 O 15.17 CB 16.24
C GLY H 14 -60.9 -36.2 N 14.25 CA 13.97 C 13.25 O 14.27
C ALA H 1 -69.4 -45.7 N 13.87 CA 13.82 C 13.36 O 14.04 CB 14.68
C ALA H 0 -60.6 -36.0 N 12.87 CA 12.92 C 13.63 O 13.92 CB 14.52
C HIS H 94 -62.6 -56.8 N 14.32 CA 15.32 C 14.3 O 14.72 CB 16.37 CG 19.72 ND1 25.51 CD2 23.08 CE1 24.39 NE2 24.94
C LEU H 65 -67.4 -45.0 N 14.95 CA 15.33 C 15.51 O 17.4 CB 16.51 CG 17.85 CD1 21.45 CD2 16.04
C GLY H 11 -77.6 -36.9 N 15.64 CA 15.28 C 14.75 O 16.43
C LEU H 26 -123.3 -0.5 N 13.78 CA 15.05 C 14.74 O 15.45 CB 15.45 CG 16.79 CD1 19.34 CD2 18.42
C GLY - 43 81.6 18.8 N 15.34 CA 14.53 C 15.1 O 16.31
C ALA - 1 -64.2 154.7 N 15.53 CA 15.63 C 15.86 O 16.31 CB 15.78
C VAL - 62 -88.0 117.7 N 16.42 CA 16.76 C 16.68 O 16.82 CB 16.78 CG1 19.05 CG2 18.61
C GLU T 120 -59.2 130.2 N 17.71 CA 19.14 C 18.71 O 19.92 CB 20.35 CG 26.3 CD 29.33 OE1 34.16 OE2 34.02
C GLY T 37 90.8 1.3 N 16.83 CA 17.0 C 17.0 O 18.34
C LYS S 122 -122.0 165.5 N 16.75 CA 16.47 C 16.11 O 16.26 CB 17.24 CG 19.07 CD 22.76 CE 23.87 NZ 24.45
C ALA - 6 -63.5 154.7 N 15.27 CA 13.25 C 13.64 O 13.21 CB 13.87
C PHE E 0 -151.3 136.6 N 11.36 CA 11.49 C 12.17 O 13.19 CB 11.75 CG 15.52 CD1 15.73 CD2 17.48 CE1 17.35 CE2 20.21 CZ 17.41
C GLY E 0 -128.0 143.6 N 11.53 CA 12.52 C 12.47 O 11.93
C LEU E 6 -125.2 134.4 N 11.05 CA 11.12 C 11.18 O 12.01 CB 11.32 CG 10.18 CD1 10.56 CD2 10.6
C ILE E 0 -137.0 104.2 N 10.26 CA 11.43 C 12.29 O 12.71 CB 11.16 CG1 12.8 CG2 13.62 CD1 15.39
C CYS E 2 -130.7 146.4 N 12.81 CA 14.19 C 12.9 O 12.57 CB 15.3 SG 28.44
C GLY E 0 -139.3 145.0 N 12.25 CA 11.61 C 11.81 O 11.99
C CYS E 0 -136.1 132.4 N 11.74 CA 11.5 C 12.1 O 13.72 CB 12.72 SG 13.58
C PRO S 0 -65.7 159.7 N 12.57 CA 11.19 C 10.07 O 11.37 CB 12.22 CG 12.92 CD 13.52
C SER H 0 -57.4 -30.1 N 9.51 CA 10.75 C 11.05 O 11.07 CB 11.37 OG 12.61
C GLY H 0 -59.3 -30.7 N 9.07 CA 10.99 C 10.46 O 11.97
C ILE H 0 -62.2 -41.3 N 12.71 CA 12.87 C 12.24 O 12.07 CB 13.54 CG1 14.59 CG2 14.33 CD1 14.6
C GLY H 0 -60.1 -33.8 N 12.32 CA 12.93 C 12.54 O 11.45
C VAL H 1 -64.8 -45.8 N 13.95 CA 13.01 C 12.79 O 13.96 CB 12.43 CG1 14.77 CG2 11.83
C VAL H 1 -67.5 -38.4 N 12.67 CA 13.18 C 11.9 O 14.43 CB 13.59 CG1 12.5 CG2 13.46
C MET H 0 -60.6 -40.0 N 10.46 CA 10.03 C 12.35 O 12.5 CB 9.91 CG 12.33 SD 12.75 CE 12.23
C GLY H 0 -66.9 -45.3 N 12.67 CA 13.14 C 13.52 O 12.57
C ASP H 1 -59.1 -48.6 N 12.6 CA 13.19 C 13.83 O 15.97 CB 14.36 CG 15.58 OD1 17.68 OD2 16.55
C LYS H 65 -64.1 -39.9 N 14.26 CA 14.48 C 13.8 O 15.03 CB 15.94 CG 21.94 CD 27.75 CE 33.22 NZ 35.27
C ALA H 0 -60.1 -47.5 N 14.45 CA 14.2 C 14.33 O 13.89 CB 14.93
C LEU H 15 -62.2 -34.8 N 14.35 CA 13.6 C 14.53 O 15.85 CB 11.92 CG 12.82 CD1 15.19 CD2 16.1
C LYS H 105 -77.8 -12.8 N 14.88 CA 15.81 C 16.46 O 17.76 CB 16.12 CG 16.92 CD 17.29 CE 14.79 NZ 15.32
C THR H 56 -82.5 -35.4 N 15.98 CA 16.45 C 16.96 O 15.92 CB 17.59 OG1 17.97 CG2 17.62
C ALA S 17 -156.9 160.3 N 17.63 CA 16.81 C 17.59 O 16.89 CB 17.74
C GLY - 72 -81.3 101.7 N 17.35 CA 18.34 C 18.4 O 20.36
C VAL - 15 -131.6 165.6 N 18.33 CA 17.93 C 19.02 O 20.42 CB 16.93 CG1 15.93 CG2 17.02
C GLU E 111 -110.3 116.1 N 19.49 CA 20.89 C 18.86 O 19.15 CB 22.04 CG 26.88 CD 33.44 OE1 35.23 OE2 36.81
C PRO E 14 -70.2 133.6 N 18.11 CA 18.24 C 18.57 O 21.2 CB 18.02 CG 17.7 CD 18.17
C LEU E 37 -94.1 -47.3 N 15.74 CA 15.89 C 16.25 O 17.66 CB 15.57 CG 15.09 CD1 19.07 CD2 16.71
C ASN E 74 -162.9 158.8 N 14.69 CA 13.09 C 13.6 O 11.76 CB 13.29 CG 15.84 OD1 16.93 ND2 17.18
C PHE E 3 -125.5 118.7 N 12.12 CA 13.04 C 13.0 O 15.38 CB 12.88 CG 13.98 CD1 15.87 CD2 12.04 CE1 14.03 CE2 14.31 CZ 14.87
C THR E 29 -108.9 149.6 N 10.55 CA 11.82 C 12.95 O 13.1 CB 12.52 OG1 11.63 CG2 11.86
C SER B 4 -151.5 175.0 N 11.49 CA 11.6 C 11.41 O 10.39 CB 10.85 OG 14.45
C PRO T 0 -52.1 -37.1 N 10.64 CA 11.06 C 12.34 O 11.98 CB 13.07 CG 12.1 CD 11.5
C SER T 37 -103.0 0.3 N 13.21 CA 13.9 C 14.11 O 13.94 CB 13.05 OG 14.42
C HIS B 65 -148.2 103.8 N 12.87 CA 14.12 C 13.78 O 13.98 CB 15.01 CG 14.27 ND1 16.53 CD2 17.45 CE1 16.82 NE2 19.02
C GLY S 67 81.3 14.1 N 14.42 CA 14.72 C 13.33 O 14.34
C THR S 21 -123.9 173.4 N 12.74 CA 12.25 C 12.15 O 12.14 CB 11.0 OG1 11.14 CG2 12.74
C SER S 5 -93.0 63.5 N 11.27 CA 12.1 C 11.72 O 11.38 CB 13.05 OG 14.23
C PHE S 49 46.1 46.2 N 9.5 CA 8.55 C 10.93 O 9.79 CB 10.63 CG 11.33 CD1 16.21 CD2 12.18 CE1 16.99 CE2 12.9 CZ 17.28
C SER - 0 -84.9 166.2 N 10.07 CA 12.25 C 12.12 O 12.93 CB 12.82 OG 12.94
C ASN S 0 -96.7 49.1 N 10.6 CA 11.15 C 12.8 O 13.0 CB 10.67 CG 11.35 OD1 11.4 ND2 11.12
C GLU - 16 -122.8 135.9 N 12.88 CA 10.84 C 13.11 O 12.39 CB 12.94 CG 10.47 CD 14.82 OE1 15.92 OE2 16.01
C GLY E 1 -106.2 126.5 N 10.37 CA 11.46 C 11.92 O 10.77
C CYS E 13 -134.6 118.4 N 12.08 CA 13.45 C 12.35 O 12.03 CB 13.23 SG 24.06
C LEU E 0 -94.9 130.0 N 12.41 CA 10.66 C 11.97 O 11.54 CB 11.19 CG 11.89 CD1 16.42 CD2 11.6
C THR E 12 -112.9 135.2 N 10.6 CA 11.65 C 12.12 O 12.85 CB 11.64 OG1 13.91 CG2 12.04
C ILE E 0 -138.6 155.3 N 12.19 CA 14.0 C 14.67 O 16.0 CB 13.02 CG1 13.35 CG2 12.43 CD1 15.17
C THR E 9 -134.0 -176.1 N 15.11 CA 15.18 C 13.98 O 15.36 CB 15.08 OG1 16.22 CG2 17.23
C GLY S 30 134.6 -161.9 N 14.57 CA 14.32 C 13.94 O 14.83
C ASP - 131 -68.6 140.6 N 16.62 CA 15.69 C 15.74 O 17.18 CB 17.38 CG 21.44 OD1 30.05 OD2 28.23
C SER H 64 -49.2 -47.0 N 15.0 CA 14.29 C 15.22 O 16.13 CB 13.6 OG 16.16
C GLY H 45 -58.0 -46.5 N 14.0 CA 14.66 C 14.85 O 15.85
C ALA H 15 -69.8 -37.0 N 12.45 CA 13.55 C 13.11 O 13.16 CB 12.89
C VAL H 0 -64.7 -43.9 N 14.34 CA 12.79 C 13.03 O 15.12 CB 10.83 CG1 12.08 CG2 11.72
C ARG H 118 -61.1 -44.8 N 15.41 CA 15.7 C 16.34 O 15.03 CB 18.56 CG 22.72 CD 29.86 NE 34.89 CZ 37.03 NH1 36.0 NH2 40.09
C GLN H 105 -48.9 -51.4 N 15.59 CA 15.06 C 14.66 O 14.23 CB 16.91 CG 20.57 CD 23.46 OE1 24.4 NE2 23.55
C ALA H 0 -67.0 -38.8 N 12.23 CA 11.97 C 11.67 O 12.5 CB 12.93
C VAL H 1 -70.0 -40.0 N 12.02 CA 13.4 C 13.48 O 13.92 CB 13.78 CG1 13.09 CG2 14.13
C MET H 61 -67.6 -34.8 N 14.13 CA 13.99 C 14.56 O 13.47 CB 15.49 CG 17.38 SD 26.07 CE 22.92
C ALA H 10 -66.8 -42.4 N 12.16 CA 13.88 C 13.13 O 12.46 CB 14.44
C GLY H 0 -61.8 -42.6 N 13.42 CA 12.9 C 13.67 O 15.35
C ARG H 40 -55.0 -50.3 N 14.59 CA 13.23 C 14.75 O 14.43 CB 14.62 CG 13.46 CD 16.31 NE 17.71 CZ 16.75 NH1 22.91 NH2 23.09
C GLU H 108 -56.2 -52.6 N 14.52 CA 15.49 C 14.58 O 15.23 CB 16.83 CG 23.55 CD 30.47 OE1 34.14 OE2 35.56
C VAL H 6 -68.9 -36.3 N 12.57 CA 14.52 C 13.29 O 14.01 CB 16.54 CG1 18.22 CG2 15.65
C GLY H 0 -55.2 -48.0 N 13.28 CA 13.12 C 14.94 O 16.41
C LEU H 49 -58.8 -51.0 N 14.72 CA 15.5 C 15.2 O 15.15 CB 15.49 CG 15.03 CD1 17.16 CD2 17.53
C LYS H 102 -56.7 -48.7 N 15.28 CA 14.08 C 15.52 O 16.49 CB 15.52 CG 16.75 CD 21.31 CE 25.27 NZ 28.3
C LEU H 1 -63.6 -47.6 N 14.03 CA 14.12 C 14.31 O 14.77 CB 13.25 CG 14.64 CD1 18.49 CD2 14.91
C LEU H 1 -65.2 -30.4 N 15.26 CA 15.46 C 15.0 O 14.64 CB 16.74 CG 18.04 CD1 19.44 CD2 16.88
C SER G 40 -65.5 -13.9 N 14.62 CA 15.24 C 15.22 O 14.91 CB 15.72 OG 14.58
C GLN G 91 -69.0 -15.0 N 15.23 CA 16.83 C 16.16 O 17.52 CB 16.93 CG 18.35 CD 24.11 OE1 24.92 NE2 25.3
C PHE G 47 -81.1 -6.2 N 16.98 CA 17.05 C 18.79 O 20.44 CB 17.12 CG 15.17 CD1 13.7 CD2 14.14 CE1 14.32 CE2 17.77 CZ 14.69
C GLY S 72 112.3 -6.8 N 19.37 CA 20.29 C 21.97 O 22.26
C GLU S 72 -125.2 128.4 N 23.49 CA 23.65 C 24.33 O 22.87 CB 24.04 CG 26.2 CD 28.51 OE1 27.33 OE2 30.87
C GLU - 162 -63.4 121.5 N 23.83 CA 25.09 C 24.01 O 23.5 CB 25.6 CG 31.51 CD 37.5 OE1 38.93 OE2 42.23
C PRO - 9 -67.1 144.2 N 23.43 CA 24.53 C 25.41 O 25.73 CB 23.33 CG 24.29 CD 23.89
C VAL B 72 -118.4 135.6 N 26.9 CA 29.25 C 29.21 O 28.78 CB 29.44 CG1 31.51 CG2 31.67
C ASN - 66 -109.6 137.0 N 30.97 CA 32.33 C 32.76 O 33.66 CB 32.81 CG 33.17 OD1 36.41 ND2 32.3
C ASP S 120 -91.2 -7.3 N 33.7 CA 34.23 C 33.64 O 33.54 CB 34.89 CG 37.5 OD1 40.41 OD2 40.69
C PHE S 56 -139.2 153.6 N 32.83 CA 32.81 C 32.79 O 31.76 CB 32.8 CG 32.08 CD1 32.53 CD2 33.38 CE1 32.46 CE2 31.38 CZ 32.55
C PRO - 111 -56.0 143.9 N 33.4 CA 33.74 C 34.34 O 33.9 CB 34.03 CG 33.92 CD 33.19
C SER - 52 -69.5 140.4 N 34.78 CA 35.68 C 35.89 O 37.11 CB 35.62 OG 36.21
C TYR - 62 -98.9 -9.0 N 36.23 CA 36.11 C 35.87 O 36.09 CB 35.69 CG 35.95 CD1 32.57 CD2 34.35 CE1 32.37 CE2 32.26 CZ 32.41 OH 26.06
C ILE - 20 -104.5 360.0 N 35.6 CA 35.21 C 35.06 O 34.37 CB 35.11 CG1 34.45 CG2 35.48 CD1 33.69
