A LYS - 172 360.0 156.0 N 63.16 CA 62.64 C 57.1 O 58.97 CB 65.5 CG 70.21 CD 70.26 CE 73.22 NZ 73.01
A PRO - 102 -81.4 163.9 N 50.01 CA 43.55 C 33.37 O 35.75 CB 44.02 CG 45.6 CD 47.57
A ARG - 94 -70.1 140.2 N 25.77 CA 22.82 C 30.81 O 24.75 CB 29.38 CG 30.66 CD 32.69 NE 38.49 CZ 43.13 NH1 42.71 NH2 47.29
A ASP E 54 -144.1 178.2 N 21.74 CA 22.67 C 26.22 O 23.32 CB 27.35 CG 32.65 OD1 31.92 OD2 33.58
A VAL E 31 -122.7 129.6 N 21.44 CA 18.8 C 19.18 O 21.06 CB 18.17 CG1 11.7 CG2 19.84
A GLN E 41 -104.0 120.5 N 14.88 CA 22.09 C 25.39 O 21.41 CB 22.32 CG 27.37 CD 28.24 OE1 22.65 NE2 26.95
A VAL E 60 -113.5 133.4 N 18.51 CA 18.58 C 28.34 O 27.04 CB 23.29 CG1 20.85 CG2 22.56
A LEU E 64 -152.7 137.5 N 26.37 CA 23.95 C 22.92 O 22.31 CB 25.31 CG 38.55 CD1 37.05 CD2 40.32
A PRO E 40 -65.6 136.4 N 23.46 CA 17.4 C 20.55 O 23.16 CB 27.34 CG 31.5 CD 26.39
A ILE E 27 -122.6 -17.7 N 21.36 CA 24.44 C 25.35 O 28.27 CB 21.06 CG1 18.97 CG2 17.96 CD1 19.95
A ALA E 20 -165.4 177.1 N 21.34 CA 22.99 C 22.52 O 24.31 CB 19.31
A THR T 25 -54.5 119.2 N 24.32 CA 27.55 C 28.74 O 26.75 CB 31.87 OG1 30.13 CG2 34.45
A ASN T 14 61.5 19.6 N 21.88 CA 19.91 C 17.68 O 18.38 CB 21.35 CG 29.19 OD1 24.62 ND2 27.55
A THR E 2 -128.0 131.2 N 15.52 CA 18.12 C 15.72 O 17.28 CB 17.51 OG1 15.83 CG2 11.56
A LYS E 72 -128.1 151.8 N 12.44 CA 12.18 C 13.41 O 14.72 CB 13.75 CG 22.46 CD 29.86 CE 38.05 NZ 45.52
A VAL E 0 -106.5 142.8 N 14.36 CA 12.4 C 18.36 O 15.17 CB 12.86 CG1 15.03 CG2 17.49
A LEU E 1 -113.8 112.4 N 11.56 CA 14.72 C 16.59 O 17.42 CB 16.79 CG 16.68 CD1 18.29 CD2 22.46
A ARG E 1 -101.5 109.6 N 12.96 CA 14.27 C 13.86 O 16.85 CB 13.0 CG 19.67 CD 31.06 NE 34.13 CZ 26.99 NH1 22.49 NH2 24.99
A ALA E 1 -81.3 122.8 N 14.36 CA 15.07 C 20.46 O 15.75 CB 11.73
A ARG E 20 -112.9 141.1 N 18.45 CA 21.34 C 24.32 O 18.51 CB 18.38 CG 19.36 CD 22.75 NE 26.04 CZ 32.63 NH1 34.19 NH2 35.62
A SER E 1 -135.9 126.2 N 21.02 CA 20.98 C 22.82 O 20.98 CB 19.87 OG 22.2
A TRP S 69 -78.9 -8.2 N 24.36 CA 26.32 C 28.44 O 29.01 CB 37.27 CG 38.02 CD1 37.67 CD2 36.22 NE1 33.98 CE2 35.59 CE3 37.31 CZ2 37.95 CZ3 41.15 CH2 40.15
A SER S 51 -126.2 165.1 N 27.8 CA 27.79 C 29.02 O 25.81 CB 38.84 OG 40.7
A ARG - 92 -56.5 147.8 N 29.36 CA 27.68 C 28.51 O 27.18 CB 28.35 CG 31.95 CD 40.23 NE 41.98 CZ 49.71 NH1 36.04 NH2 37.02
A LEU S 22 -85.5 -31.0 N 25.66 CA 31.38 C 32.4 O 31.96 CB 31.18 CG 36.17 CD1 32.69 CD2 29.24
A ARG S 142 -138.3 156.0 N 29.62 CA 32.61 C 27.11 O 22.26 CB 33.86 CG 47.18 CD 60.1 NE 70.6 CZ 79.92 NH1 83.9 NH2 82.63
A PHE S 175 -83.9 68.8 N 24.72 CA 25.47 C 26.71 O 28.35 CB 28.22 CG 31.21 CD1 32.44 CD2 33.3 CE1 35.29 CE2 37.65 CZ 35.66
A GLU S 112 -135.1 162.1 N 24.8 CA 24.18 C 21.7 O 24.32 CB 31.51 CG 45.93 CD 58.48 OE1 58.2 OE2 66.87
A ILE G 107 -61.8 -30.4 N 19.37 CA 19.19 C 18.14 O 22.01 CB 21.7 CG1 20.61 CG2 21.75 CD1 26.76
A GLU G 45 -64.1 -19.0 N 16.39 CA 26.97 C 18.5 O 16.92 CB 27.06 CG 24.17 CD 37.79 OE1 26.21 OE2 41.72
A TYR G 21 -101.2 4.9 N 18.39 CA 21.44 C 24.88 O 24.47 CB 24.34 CG 21.72 CD1 24.2 CD2 22.94 CE1 23.46 CE2 25.67 CZ 24.09 OH 30.38
A ALA T 52 -69.0 -11.7 N 22.85 CA 25.6 C 27.38 O 30.22 CB 28.68
A LEU T 50 -79.3 -5.4 N 26.01 CA 28.63 C 34.41 O 31.32 CB 26.16 CG 45.96 CD1 45.55 CD2 24.12
A GLU - 116 51.9 52.8 N 28.52 CA 30.01 C 29.84 O 32.38 CB 33.72 CG 44.86 CD 44.73 OE1 34.52 OE2 38.92
A ARG - 90 -122.4 13.8 N 27.03 CA 26.76 C 24.54 O 26.42 CB 26.11 CG 38.92 CD 37.55 NE 44.38 CZ 44.31 NH1 39.28 NH2 46.63
A GLY - 3 74.7 -160.5 N 24.57 CA 23.61 C 22.13 O 20.58
A THR E 0 -167.0 163.3 N 17.93 CA 15.64 C 14.77 O 17.04 CB 25.21 OG1 27.14 CG2 29.38
A THR E 0 -127.0 153.7 N 13.83 CA 14.34 C 18.43 O 20.75 CB 12.7 OG1 20.12 CG2 17.05
A SER E 6 -115.1 119.8 N 11.89 CA 12.35 C 14.75 O 12.21 CB 12.79 OG 14.21
A ASN E 1 -101.0 128.9 N 13.76 CA 13.14 C 17.33 O 13.0 CB 10.12 CG 13.75 OD1 14.04 ND2 9.74
A SER E 1 -122.5 157.8 N 8.96 CA 10.46 C 14.47 O 12.9 CB 15.79 OG 30.13
A TYR E 2 -132.9 155.4 N 11.16 CA 10.67 C 10.58 O 16.21 CB 11.21 CG 13.06 CD1 8.46 CD2 12.65 CE1 9.69 CE2 14.46 CZ 14.03 OH 14.61
A VAL E 1 -131.3 123.7 N 15.32 CA 12.38 C 11.32 O 15.77 CB 19.86 CG1 19.51 CG2 17.72
A ILE E 0 -113.4 124.2 N 10.88 CA 15.83 C 17.14 O 17.59 CB 17.86 CG1 14.76 CG2 13.37 CD1 20.79
A GLU E 44 -112.4 96.6 N 21.39 CA 26.87 C 26.67 O 25.99 CB 33.28 CG 46.7 CD 61.54 OE1 66.98 OE2 64.95
A GLY S 9 -100.9 -142.1 N 27.86 CA 33.64 C 32.37 O 32.63
A ASP S 88 -57.0 -40.5 N 27.86 CA 29.58 C 36.06 O 36.05 CB 32.06 CG 35.36 OD1 35.44 OD2 36.62
A LYS S 83 -110.1 155.3 N 31.03 CA 25.84 C 25.83 O 23.72 CB 29.21 CG 33.38 CD 36.54 CE 46.35 NZ 49.03
A THR E 18 -110.6 132.4 N 25.76 CA 21.23 C 21.39 O 24.21 CB 26.71 OG1 26.93 CG2 22.39
A ALA E 0 -124.9 141.9 N 20.25 CA 14.72 C 12.66 O 14.07 CB 22.1
A ILE E 0 -107.4 147.0 N 12.1 CA 14.07 C 15.22 O 16.47 CB 18.62 CG1 24.17 CG2 18.62 CD1 30.94
A ILE E 2 -120.0 124.5 N 15.06 CA 24.63 C 22.89 O 19.52 CB 19.68 CG1 19.83 CG2 23.41 CD1 23.4
A ASP - 7 57.3 68.8 N 22.09 CA 23.2 C 20.39 O 23.09 CB 27.19 CG 35.22 OD1 40.75 OD2 37.28
A PRO - 1 -59.9 139.7 N 18.35 CA 17.6 C 17.48 O 19.66 CB 24.49 CG 25.5 CD 18.64
A PRO - 0 -75.6 176.2 N 18.5 CA 19.42 C 15.4 O 17.25 CB 17.27 CG 21.2 CD 20.82
A VAL - 20 -68.0 167.9 N 20.71 CA 20.28 C 25.41 O 24.28 CB 23.8 CG1 26.25 CG2 18.46
A GLU H 109 -52.0 -33.2 N 23.88 CA 27.27 C 28.08 O 25.84 CB 32.97 CG 41.08 CD 53.17 OE1 58.72 OE2 60.62
A SER H 43 -60.0 -30.1 N 27.6 CA 30.05 C 23.64 O 26.12 CB 34.71 OG 46.37
A PHE H 1 -105.3 0.8 N 19.47 CA 15.17 C 21.81 O 20.75 CB 13.7 CG 20.94 CD1 20.68 CD2 20.66 CE1 20.29 CE2 16.87 CZ 20.47
A LYS H 146 -62.2 -51.1 N 22.43 CA 28.67 C 21.98 O 19.72 CB 35.21 CG 46.72 CD 57.3 CE 64.68 NZ 68.38
A ILE H 51 -69.9 -30.7 N 20.09 CA 20.44 C 19.38 O 21.99 CB 19.59 CG1 20.53 CG2 29.42 CD1 20.52
A TYR H 1 -59.5 -54.5 N 18.26 CA 20.24 C 16.87 O 17.57 CB 15.96 CG 13.29 CD1 16.89 CD2 17.76 CE1 16.95 CE2 17.27 CZ 20.0 OH 24.91
A LEU H 22 -61.5 -39.9 N 15.39 CA 17.72 C 18.63 O 20.6 CB 18.57 CG 24.4 CD1 26.33 CD2 26.68
A GLU H 94 -57.4 -48.5 N 19.93 CA 20.66 C 24.86 O 19.49 CB 24.78 CG 39.23 CD 53.62 OE1 59.56 OE2 54.89
A ALA H 10 -65.0 -38.6 N 19.76 CA 20.96 C 19.29 O 19.71 CB 18.63
A LEU H 0 -66.5 -43.3 N 17.1 CA 17.34 C 17.93 O 18.95 CB 18.89 CG 20.67 CD1 23.21 CD2 21.78
A GLN H 119 -59.8 -31.0 N 23.2 CA 26.25 C 26.47 O 30.2 CB 29.05 CG 35.06 CD 39.28 OE1 37.14 NE2 40.29
A GLN H 164 -78.5 -17.1 N 21.96 CA 27.57 C 30.53 O 28.47 CB 33.37 CG 47.92 CD 60.15 OE1 63.9 NE2 64.22
A THR H 27 -100.3 -38.9 N 25.0 CA 24.62 C 25.09 O 28.91 CB 30.18 OG1 33.56 CG2 33.05
A VAL S 13 -135.6 155.1 N 24.45 CA 27.82 C 29.92 O 29.0 CB 35.32 CG1 41.3 CG2 27.69
A ASN - 80 -83.8 113.2 N 24.77 CA 25.74 C 25.65 O 25.77 CB 31.84 CG 40.65 OD1 42.41 ND2 45.68
A LEU G 11 -64.0 -19.5 N 25.33 CA 28.92 C 35.41 O 32.17 CB 33.05 CG 35.73 CD1 40.11 CD2 36.83
A LYS G 126 -75.9 -12.3 N 36.7 CA 44.22 C 37.58 O 40.61 CB 51.92 CG 60.27 CD 66.42 CE 69.91 NZ 66.8
A LYS G 131 -99.4 4.5 N 33.13 CA 37.49 C 34.61 O 30.84 CB 40.33 CG 52.79 CD 60.44 CE 60.2 NZ 60.34
A LEU E 1 -80.6 131.4 N 29.71 CA 26.26 C 25.45 O 26.21 CB 25.66 CG 29.21 CD1 31.51 CD2 26.26
A ASP E 51 -107.7 -45.0 N 22.97 CA 23.43 C 24.42 O 25.59 CB 26.88 CG 35.88 OD1 39.84 OD2 36.04
A TYR E 34 -133.0 143.2 N 16.16 CA 19.54 C 16.87 O 20.08 CB 19.98 CG 23.27 CD1 23.66 CD2 27.25 CE1 28.45 CE2 29.14 CZ 30.49 OH 31.13
A VAL E 0 -120.2 112.1 N 12.16 CA 10.13 C 14.75 O 19.52 CB 12.34 CG1 11.81 CG2 18.7
A ILE E 0 -98.7 131.8 N 13.35 CA 15.34 C 18.11 O 18.5 CB 14.18 CG1 21.53 CG2 18.32 CD1 20.84
A LEU - 2 -108.6 125.6 N 18.4 CA 17.65 C 18.73 O 18.2 CB 17.83 CG 25.7 CD1 26.68 CD2 24.61
A GLY S 5 -79.8 -14.4 N 16.33 CA 14.97 C 17.27 O 18.48
A HIS S 8 -173.6 177.1 N 13.26 CA 15.32 C 18.11 O 15.46 CB 14.23 CG 21.8 ND1 23.95 CD2 20.96 CE1 25.16 NE2 24.05
A PHE - 38 -117.6 128.3 N 17.73 CA 20.54 C 21.47 O 20.1 CB 28.43 CG 32.12 CD1 32.17 CD2 31.48 CE1 34.21 CE2 35.6 CZ 30.77
A SER - 23 -139.0 137.0 N 20.58 CA 25.27 C 24.34 O 20.19 CB 25.34 OG 27.71
A PRO G 97 -60.3 -25.3 N 26.2 CA 26.72 C 27.4 O 22.96 CB 31.68 CG 35.37 CD 29.99
A ASN G 79 -75.5 0.2 N 18.45 CA 22.56 C 23.8 O 25.19 CB 29.72 CG 31.67 OD1 26.84 ND2 31.66
A ARG G 13 -96.1 -11.9 N 21.23 CA 24.32 C 22.24 O 20.25 CB 24.7 CG 31.35 CD 32.23 NE 28.88 CZ 23.91 NH1 24.32 NH2 18.3
A ILE H 30 -53.8 -46.8 N 19.14 CA 25.42 C 25.72 O 30.41 CB 26.91 CG1 29.97 CG2 29.78 CD1 33.77
A PRO H 35 -58.8 -36.4 N 27.84 CA 28.9 C 27.55 O 21.89 CB 30.67 CG 31.28 CD 27.37
A THR H 0 -65.7 -41.4 N 22.99 CA 22.37 C 24.43 O 25.47 CB 25.23 OG1 24.77 CG2 25.73
A PHE H 3 -62.3 -40.3 N 25.67 CA 25.61 C 23.78 O 25.61 CB 20.37 CG 22.5 CD1 23.39 CD2 30.09 CE1 29.12 CE2 27.69 CZ 28.84
A LYS H 109 -63.0 -41.9 N 25.2 CA 29.4 C 29.76 O 28.82 CB 32.83 CG 41.14 CD 45.83 CE 53.65 NZ 56.38
A ALA H 23 -66.9 -42.4 N 30.41 CA 31.51 C 30.04 O 30.36 CB 31.34
A LEU H 0 -58.4 -48.4 N 24.31 CA 23.51 C 23.73 O 31.54 CB 21.79 CG 25.15 CD1 27.98 CD2 25.63
A LEU H 25 -54.1 -46.4 N 23.57 CA 32.73 C 36.28 O 33.54 CB 40.43 CG 46.16 CD1 50.48 CD2 41.07
A GLU H 136 -62.0 -40.4 N 38.5 CA 42.95 C 37.29 O 36.34 CB 53.6 CG 63.83 CD 78.23 OE1 83.4 OE2 81.48
A LEU H 69 -81.1 -28.3 N 31.83 CA 34.07 C 34.69 O 33.3 CB 33.45 CG 40.24 CD1 42.11 CD2 39.96
A ALA - 0 -140.0 74.7 N 30.28 CA 32.48 C 31.0 O 28.46 CB 35.95
A PRO T 79 -67.3 -15.9 N 31.61 CA 34.04 C 32.22 O 36.25 CB 38.56 CG 38.45 CD 34.6
A GLN T 62 -80.9 -9.7 N 31.11 CA 35.0 C 35.41 O 33.66 CB 31.7 CG 29.66 CD 30.95 OE1 33.9 NE2 30.62
A ILE - 1 -60.6 151.2 N 30.68 CA 24.67 C 25.94 O 26.62 CB 23.64 CG1 27.17 CG2 23.67 CD1 32.74
A THR E 34 -114.9 129.1 N 25.64 CA 26.7 C 21.77 O 17.82 CB 28.29 OG1 32.49 CG2 26.96
A PHE E 1 -79.7 133.3 N 18.97 CA 26.74 C 28.19 O 32.78 CB 26.08 CG 27.55 CD1 30.71 CD2 25.9 CE1 33.08 CE2 30.85 CZ 33.4
A VAL E 0 -120.4 120.0 N 23.74 CA 18.9 C 20.66 O 19.82 CB 22.03 CG1 20.11 CG2 19.09
A CYS E 0 -150.7 168.9 N 17.93 CA 18.09 C 19.19 O 21.09 CB 19.27 SG 27.88
A SER E 6 -73.5 146.2 N 21.41 CA 18.81 C 25.96 O 24.11 CB 18.78 OG 22.14
A LEU H 82 -42.5 -45.9 N 25.3 CA 26.75 C 27.15 O 29.62 CB 33.96 CG 38.36 CD1 40.84 CD2 33.98
A PRO H 60 -63.6 -15.8 N 25.71 CA 28.64 C 34.25 O 40.91 CB 30.73 CG 33.24 CD 29.55
A ALA H 1 -84.5 -17.9 N 25.85 CA 24.12 C 34.03 O 32.08 CB 15.18
A ALA H 14 -62.2 -43.3 N 33.83 CA 37.29 C 36.97 O 35.34 CB 38.34
A GLY H 51 -64.0 -45.3 N 34.53 CA 37.2 C 38.31 O 34.7
A ASP H 81 -57.8 -42.9 N 37.27 CA 39.83 C 32.31 O 31.18 CB 45.97 CG 56.83 OD1 62.91 OD2 60.08
A LEU H 0 -61.0 -51.7 N 25.3 CA 32.11 C 34.39 O 34.23 CB 32.77 CG 34.33 CD1 34.73 CD2 30.94
A ARG H 114 -62.6 -33.7 N 39.33 CA 42.67 C 45.02 O 49.7 CB 44.12 CG 44.91 CD 49.82 NE 52.3 CZ 56.84 NH1 60.55 NH2 55.23
A ALA H 73 -71.5 -30.9 N 37.3 CA 44.12 C 44.65 O 48.07 CB 46.54
A ALA H 38 -73.5 -19.9 N 38.52 CA 34.63 C 36.9 O 41.56 CB 26.7
A PHE S 10 -128.5 61.9 N 37.49 CA 41.16 C 44.6 O 39.14 CB 42.28 CG 45.81 CD1 49.53 CD2 39.31 CE1 50.86 CE2 42.33 CZ 45.38
A PRO T 101 -66.3 -35.8 N 50.87 CA 62.83 C 68.63 O 72.12 CB 63.62 CG 61.37 CD 53.47
A ASP T 143 -104.4 45.9 N 71.26 CA 80.01 C 75.96 O 78.24 CB 89.24 CG 93.64 OD1 93.08 OD2 97.52
A ASP S 97 -141.4 149.6 N 69.51 CA 64.37 C 57.39 O 57.44 CB 66.59 CG 71.68 OD1 76.58 OD2 70.85
A ASN - 143 -106.1 92.2 N 52.16 CA 56.7 C 47.33 O 40.51 CB 66.87 CG 74.01 OD1 73.27 ND2 77.44
A LEU - 9 -72.1 142.3 N 44.71 CA 42.0 C 37.86 O 39.27 CB 34.96 CG 37.92 CD1 37.52 CD2 37.98
A ASN - 79 -90.2 114.9 N 30.51 CA 31.78 C 34.81 O 28.78 CB 33.31 CG 37.12 OD1 38.3 ND2 38.62
A ILE E 22 -127.6 133.1 N 33.08 CA 36.44 C 39.48 O 40.6 CB 33.13 CG1 29.14 CG2 36.73 CD1 24.71
A LEU E 58 -113.2 94.2 N 31.04 CA 26.62 C 30.2 O 24.72 CB 32.97 CG 38.83 CD1 45.5 CD2 41.61
A PRO E 28 -73.9 143.1 N 25.48 CA 28.53 C 29.17 O 32.66 CB 28.98 CG 33.6 CD 32.71
A ARG - 178 -98.0 -7.9 N 26.35 CA 25.82 C 28.1 O 30.19 CB 28.06 CG 34.5 CD 31.14 NE 59.81 CZ 47.81 NH1 33.77 NH2 54.22
A GLY S 37 115.8 -17.5 N 27.27 CA 33.64 C 39.46 O 42.1
A LYS S 185 -89.0 -46.4 N 44.04 CA 44.65 C 46.42 O 39.8 CB 47.98 CG 55.51 CD 61.9 CE 68.1 NZ 74.03
A GLU - 135 -81.8 150.6 N 49.61 CA 51.62 C 42.84 O 36.18 CB 59.13 CG 71.53 CD 81.75 OE1 84.18 OE2 85.89
A THR - 68 -112.0 169.4 N 42.65 CA 34.59 C 34.64 O 39.04 CB 39.02 OG1 40.38 CG2 38.62
A LEU E 12 -125.6 114.1 N 29.4 CA 28.46 C 26.61 O 27.61 CB 27.05 CG 30.6 CD1 36.23 CD2 25.29
A ASP E 91 -91.1 116.2 N 26.9 CA 32.0 C 30.54 O 30.49 CB 39.16 CG 44.18 OD1 38.98 OD2 51.76
A LEU - 1 -86.2 -8.6 N 29.54 CA 31.87 C 31.7 O 28.81 CB 30.31 CG 27.99 CD1 23.83 CD2 19.89
A GLY S 6 90.9 171.3 N 31.4 CA 34.44 C 34.56 O 31.57
A LYS T 72 56.0 21.0 N 31.43 CA 32.77 C 35.24 O 31.4 CB 27.08 CG 31.78 CD 34.38 CE 38.3 NZ 38.41
A GLY T 30 99.9 -11.1 N 35.57 CA 33.55 C 31.2 O 29.81
A HIS - 0 -80.0 74.1 N 24.73 CA 25.07 C 28.31 O 32.0 CB 19.41 CG 24.49 ND1 20.41 CD2 22.82 CE1 25.24 NE2 23.96
A VAL E 40 -89.6 123.9 N 24.43 CA 25.38 C 23.53 O 27.87 CB 34.65 CG1 29.68 CG2 35.75
A LEU E 0 -94.4 126.3 N 22.39 CA 27.63 C 22.12 O 24.18 CB 26.7 CG 28.43 CD1 17.12 CD2 22.65
A LYS E 97 -100.1 142.6 N 21.94 CA 23.0 C 22.21 O 21.76 CB 28.02 CG 36.52 CD 38.53 CE 46.51 NZ 52.55
A PHE E 7 -116.8 130.4 N 21.3 CA 19.46 C 24.27 O 25.42 CB 24.02 CG 27.54 CD1 30.58 CD2 19.33 CE1 24.94 CE2 17.63 CZ 21.93
A LEU E 28 -124.9 94.6 N 22.36 CA 23.1 C 19.63 O 15.34 CB 25.58 CG 34.93 CD1 37.35 CD2 39.65
A PRO E 28 -65.3 133.3 N 19.3 CA 16.67 C 17.79 O 17.21 CB 17.26 CG 33.43 CD 19.59
A ILE - 19 -124.2 66.3 N 14.02 CA 17.46 C 18.77 O 18.61 CB 22.0 CG1 20.53 CG2 18.97 CD1 21.47
A PRO - 62 -64.2 137.2 N 17.12 CA 14.12 C 15.09 O 15.58 CB 19.06 CG 22.89 CD 17.7
A SER - 17 -142.6 160.8 N 17.25 CA 18.22 C 19.27 O 16.12 CB 18.36 OG 19.69
A PRO S 97 -53.9 -41.1 N 21.02 CA 20.4 C 20.14 O 21.68 CB 23.95 CG 23.12 CD 20.11
A ARG S 120 -69.8 -41.2 N 18.21 CA 19.35 C 20.54 O 18.05 CB 19.99 CG 21.34 CD 23.6 NE 27.31 CZ 30.36 NH1 30.23 NH2 32.95
A TRP - 18 -128.8 82.7 N 19.62 CA 12.21 C 10.37 O 14.01 CB 12.02 CG 10.99 CD1 14.01 CD2 13.99 NE1 14.91 CE2 15.65 CE3 16.58 CZ2 18.88 CZ3 18.05 CH2 22.7
A PRO T 71 -58.5 -27.0 N 13.95 CA 14.1 C 14.62 O 16.81 CB 17.57 CG 16.6 CD 10.62
A ALA T 6 -104.3 18.2 N 11.37 CA 12.55 C 13.96 O 11.56 CB 15.25
A GLY - 6 -53.1 132.7 N 12.83 CA 13.16 C 14.92 O 17.34
A LEU E 3 -146.1 131.4 N 11.77 CA 13.64 C 16.14 O 15.7 CB 17.13 CG 19.35 CD1 22.71 CD2 19.72
A CYS E 4 -102.6 147.8 N 16.25 CA 19.86 C 19.2 O 18.68 CB 19.95 SG 34.48
A THR E 2 -128.0 135.5 N 14.73 CA 16.33 C 15.06 O 15.55 CB 20.74 OG1 21.5 CG2 18.58
A TYR E 13 -122.3 125.6 N 17.0 CA 17.4 C 19.89 O 20.15 CB 19.31 CG 20.92 CD1 23.33 CD2 23.28 CE1 22.19 CE2 27.19 CZ 27.36 OH 29.78
A ASP E 0 -96.3 110.6 N 22.75 CA 18.67 C 20.51 O 20.46 CB 17.35 CG 22.96 OD1 22.91 OD2 24.0
A VAL T 47 -62.1 -30.6 N 22.64 CA 31.24 C 32.86 O 27.43 CB 33.08 CG1 29.73 CG2 37.25
A GLN T 58 -66.2 -43.8 N 29.17 CA 31.89 C 29.78 O 33.96 CB 33.48 CG 36.79 CD 44.51 OE1 45.02 NE2 46.06
A THR T 17 -103.3 -9.4 N 25.61 CA 25.32 C 22.9 O 21.69 CB 23.93 OG1 19.71 CG2 20.67
A GLN T 36 57.7 34.3 N 21.18 CA 21.61 C 19.42 O 20.62 CB 23.97 CG 26.45 CD 34.93 OE1 38.36 NE2 34.41
A ILE E 4 -97.2 133.8 N 17.52 CA 15.66 C 15.24 O 15.52 CB 14.09 CG1 14.4 CG2 13.46 CD1 18.6
A LEU E 0 -107.2 122.4 N 22.24 CA 15.58 C 12.4 O 11.85 CB 17.29 CG 18.37 CD1 15.67 CD2 15.81
A TYR E 3 -91.0 112.6 N 11.73 CA 10.35 C 13.87 O 14.71 CB 10.66 CG 11.47 CD1 14.75 CD2 14.63 CE1 14.33 CE2 13.42 CZ 16.26 OH 15.44
A THR E 2 -113.5 -3.6 N 9.65 CA 17.63 C 17.32 O 15.88 CB 16.02 OG1 13.52 CG2 21.59
A ASP E 5 52.0 -116.1 N 14.84 CA 17.32 C 15.52 O 14.33 CB 17.51 CG 34.1 OD1 36.01 OD2 39.07
A LYS T 35 -67.4 -20.8 N 13.64 CA 7.7 C 12.87 O 12.62 CB 12.86 CG 11.58 CD 18.17 CE 19.56 NZ 16.68
A ILE T 16 -80.1 138.0 N 12.45 CA 15.15 C 16.81 O 13.02 CB 13.87 CG1 22.46 CG2 18.51 CD1 24.97
A PHE T 2 75.7 12.2 N 12.89 CA 10.41 C 15.53 O 14.9 CB 11.29 CG 14.3 CD1 13.62 CD2 12.38 CE1 20.5 CE2 18.3 CZ 20.19
A GLY - 2 -88.2 -169.9 N 15.45 CA 20.4 C 19.61 O 15.02
A ALA - 1 -158.4 138.2 N 16.36 CA 16.68 C 16.74 O 17.18 CB 16.77
A HIS - 13 -86.7 85.1 N 15.39 CA 16.86 C 22.61 O 18.02 CB 19.49 CG 16.89 ND1 19.63 CD2 16.6 CE1 18.65 NE2 20.36
A ILE - 35 -153.0 131.6 N 19.04 CA 23.01 C 21.69 O 24.57 CB 23.49 CG1 28.62 CG2 24.09 CD1 32.47
A CYS - 10 -106.5 128.3 N 22.61 CA 23.74 C 30.27 O 37.29 CB 23.48 SG 28.44
A GLY - 25 -155.6 179.1 N 34.94 CA 36.84 C 29.65 O 28.91
A ASP S 105 -80.0 -28.7 N 25.28 CA 26.25 C 24.44 O 26.07 CB 33.3 CG 41.47 OD1 38.18 OD2 48.14
A ASP - 110 -70.1 122.5 N 26.3 CA 32.28 C 30.31 O 31.19 CB 43.29 CG 48.76 OD1 45.9 OD2 51.23
A VAL S 15 -77.6 -37.5 N 28.12 CA 27.07 C 26.45 O 20.48 CB 28.73 CG1 28.9 CG2 31.35
A PHE B 35 -107.9 154.2 N 24.55 CA 23.24 C 29.76 O 32.74 CB 25.74 CG 26.54 CD1 28.67 CD2 25.77 CE1 31.56 CE2 28.36 CZ 30.2
A ASP - 21 -60.3 360.0 N 24.72 CA 25.93 C 38.25 O 36.84 CB 31.91 CG 37.33 OD1 27.44 OD2 49.07
A GLU - 119 360.0 -167.9 N 64.99 CA 71.35 C 70.64 O 69.85 CB 76.19 CG 79.02 CD 83.6 OE1 86.24 OE2 82.75
A SER - 102 -91.5 73.0 N 70.99 CA 71.76 C 65.38 O 67.76 CB 80.06 OG 86.62
A PHE - 12 -129.6 32.6 N 55.28 CA 49.44 C 40.28 O 22.53 CB 42.96 CG 38.97 CD1 42.97 CD2 34.92 CE1 43.1 CE2 39.95 CZ 42.79
A LYS H 142 -56.6 -39.7 N 37.52 CA 34.44 C 29.03 O 25.9 CB 40.58 CG 48.11 CD 52.3 CE 56.68 NZ 61.39
A GLU H 111 -61.1 -37.9 N 27.66 CA 27.39 C 25.67 O 23.04 CB 41.95 CG 45.08 CD 56.84 OE1 60.2 OE2 59.68
A ASP H 10 -71.9 -40.2 N 25.35 CA 22.9 C 20.26 O 16.79 CB 22.39 CG 28.26 OD1 29.23 OD2 31.77
A GLN H 9 -65.4 -38.2 N 19.7 CA 19.04 C 16.73 O 15.71 CB 25.32 CG 25.71 CD 21.57 OE1 30.06 NE2 26.67
A ARG H 135 -67.4 -43.5 N 19.02 CA 19.29 C 18.43 O 16.97 CB 22.3 CG 27.25 CD 38.67 NE 53.12 CZ 64.57 NH1 67.89 NH2 67.99
A TYR H 64 -62.0 -39.2 N 19.56 CA 17.92 C 19.29 O 15.45 CB 23.07 CG 25.09 CD1 27.96 CD2 23.81 CE1 29.05 CE2 26.87 CZ 29.53 OH 26.73
A TYR H 4 -61.9 -47.3 N 18.57 CA 15.46 C 13.01 O 10.7 CB 11.53 CG 14.02 CD1 10.0 CD2 15.7 CE1 10.94 CE2 13.99 CZ 15.64 OH 16.8
A PHE I 0 -55.4 -51.2 N 14.15 CA 16.06 C 15.47 O 15.25 CB 13.28 CG 17.94 CD1 19.33 CD2 15.87 CE1 20.06 CE2 17.23 CZ 17.66
A ASN I 82 -61.8 -34.5 N 17.14 CA 19.08 C 22.78 O 17.55 CB 20.59 CG 23.64 OD1 27.96 ND2 29.1
A CYS I 21 -74.4 -48.8 N 16.42 CA 16.42 C 20.0 O 18.21 CB 19.07 SG 28.11
A LEU I 22 -112.0 -23.9 N 17.83 CA 18.35 C 17.91 O 17.32 CB 19.29 CG 26.95 CD1 28.17 CD2 33.5
A ALA G 4 -51.7 -42.2 N 16.39 CA 19.48 C 20.98 O 21.42 CB 19.37
A PRO G 75 -64.4 -12.4 N 18.45 CA 24.35 C 26.62 O 22.61 CB 21.69 CG 22.59 CD 21.58
A HIS G 41 -119.1 36.3 N 18.83 CA 17.38 C 18.19 O 16.61 CB 27.31 CG 33.6 ND1 32.63 CD2 34.0 CE1 38.05 NE2 40.64
A ALA H 1 -53.5 -41.1 N 21.72 CA 21.99 C 21.33 O 18.74 CB 24.4
A ILE H 104 -63.9 -32.9 N 16.93 CA 22.4 C 15.92 O 17.16 CB 24.83 CG1 25.68 CG2 29.39 CD1 36.69
A HIS H 66 -73.5 -33.3 N 17.28 CA 18.68 C 21.1 O 16.22 CB 15.86 CG 17.96 ND1 17.02 CD2 18.81 CE1 22.77 NE2 20.78
A VAL H 7 -60.5 -42.6 N 17.49 CA 16.13 C 15.8 O 16.34 CB 17.64 CG1 17.76 CG2 19.18
A GLU H 55 -60.9 -42.8 N 22.1 CA 28.48 C 19.86 O 21.36 CB 26.91 CG 35.53 CD 42.36 OE1 38.08 OE2 41.63
A ALA H 41 -62.7 -41.5 N 19.02 CA 20.3 C 19.26 O 20.69 CB 20.02
A ALA H 9 -62.0 -45.7 N 20.57 CA 21.3 C 19.06 O 20.06 CB 16.38
A LEU H 21 -59.1 -41.8 N 19.34 CA 23.56 C 28.15 O 23.77 CB 22.36 CG 26.11 CD1 28.55 CD2 22.02
A GLU H 127 -61.7 -44.0 N 23.4 CA 28.42 C 26.02 O 28.09 CB 38.72 CG 57.14 CD 70.68 OE1 74.49 OE2 76.2
A LYS H 88 -57.2 -43.8 N 24.0 CA 28.74 C 29.88 O 32.71 CB 30.42 CG 37.59 CD 41.28 CE 42.06 NZ 36.39
A ILE H 11 -84.7 -12.7 N 26.97 CA 27.29 C 29.07 O 28.2 CB 23.9 CG1 25.4 CG2 21.57 CD1 30.51
A SER T 73 -57.4 -29.3 N 28.21 CA 31.87 C 36.99 O 39.68 CB 35.25 OG 31.88
A ASP T 150 -82.1 -2.4 N 34.29 CA 41.51 C 36.07 O 36.36 CB 54.45 CG 69.45 OD1 75.9 OD2 72.92
A LEU S 40 -83.5 141.7 N 30.11 CA 29.12 C 32.4 O 30.9 CB 27.63 CG 26.11 CD1 22.03 CD2 30.04
A GLN - 127 -89.1 106.2 N 30.32 CA 30.61 C 27.53 O 26.58 CB 38.15 CG 50.15 CD 63.19 OE1 69.67 NE2 67.47
A VAL - 31 -118.3 130.0 N 26.25 CA 24.86 C 27.26 O 28.35 CB 25.17 CG1 20.48 CG2 22.27
A ARG S 179 -100.0 -21.2 N 22.27 CA 29.83 C 27.45 O 25.91 CB 29.04 CG 40.75 CD 43.85 NE 57.26 CZ 61.64 NH1 59.08 NH2 68.2
A LEU E 8 -151.5 135.3 N 22.38 CA 20.03 C 17.08 O 18.03 CB 20.5 CG 22.59 CD1 25.54 CD2 22.83
A TYR E 8 -92.7 105.6 N 14.84 CA 15.64 C 12.2 O 15.48 CB 12.75 CG 19.56 CD1 23.3 CD2 18.49 CE1 23.16 CE2 18.11 CZ 17.38 OH 19.18
A ALA E 1 -81.8 83.4 N 11.83 CA 15.89 C 12.23 O 13.93 CB 10.5
A VAL E 0 -78.9 163.6 N 14.69 CA 12.52 C 16.28 O 13.96 CB 10.67 CG1 12.89 CG2 13.18
A GLY S 3 -78.2 -26.6 N 8.52 CA 12.12 C 15.3 O 15.13
A HIS S 7 -136.0 131.0 N 12.78 CA 13.02 C 11.81 O 12.25 CB 15.17 CG 17.12 ND1 17.58 CD2 15.91 CE1 22.11 NE2 16.74
A GLY S 0 90.0 -166.0 N 13.28 CA 11.04 C 20.37 O 16.7
A PRO S 13 -63.4 143.2 N 20.08 CA 20.49 C 19.66 O 13.84 CB 21.45 CG 25.68 CD 21.07
A LEU B 0 -69.8 136.6 N 14.43 CA 16.19 C 16.68 O 18.42 CB 17.43 CG 18.47 CD1 16.54 CD2 21.6
A VAL B 1 -94.1 106.3 N 16.96 CA 16.07 C 19.56 O 19.01 CB 17.1 CG1 17.53 CG2 19.1
A ARG S 125 -112.1 -82.1 N 22.0 CA 27.81 C 28.23 O 31.06 CB 26.89 CG 33.35 CD 32.35 NE 31.7 CZ 33.33 NH1 26.36 NH2 33.66
A THR T 122 -68.6 -29.0 N 26.31 CA 29.82 C 27.31 O 29.57 CB 36.5 OG1 36.39 CG2 38.82
A SER T 20 -90.2 8.0 N 28.47 CA 34.47 C 25.24 O 30.24 CB 38.95 OG 47.06
A LEU H 15 -55.6 -53.0 N 26.33 CA 27.39 C 23.35 O 25.93 CB 31.93 CG 33.61 CD1 32.54 CD2 26.09
A ILE H 139 -67.7 -43.1 N 26.12 CA 28.22 C 29.96 O 28.5 CB 31.55 CG1 31.28 CG2 34.13 CD1 39.46
A ALA H 69 -64.6 -35.4 N 29.1 CA 32.65 C 29.08 O 27.13 CB 38.71
A LEU H 6 -73.0 -37.5 N 24.77 CA 21.66 C 24.47 O 22.22 CB 19.68 CG 17.05 CD1 17.82 CD2 15.03
A THR H 35 -63.8 -42.3 N 21.82 CA 23.3 C 28.23 O 23.05 CB 25.67 OG1 25.51 CG2 26.04
A GLN H 106 -63.7 -42.5 N 26.15 CA 28.28 C 28.11 O 27.52 CB 31.5 CG 44.83 CD 48.82 OE1 43.42 NE2 35.9
A ALA H 19 -59.2 -46.1 N 25.88 CA 24.8 C 25.09 O 27.21 CB 24.27
A TYR H 0 -55.4 -42.4 N 23.54 CA 21.51 C 20.32 O 19.74 CB 17.18 CG 15.1 CD1 15.06 CD2 13.57 CE1 13.39 CE2 12.03 CZ 11.88 OH 10.94
A ALA H 30 -62.6 -48.0 N 21.87 CA 23.5 C 25.57 O 25.56 CB 28.78
A ASP H 65 -65.8 -47.5 N 25.83 CA 29.47 C 25.13 O 26.0 CB 29.46 CG 37.31 OD1 32.88 OD2 40.22
A TRP H 39 -58.8 -39.4 N 23.1 CA 21.21 C 23.94 O 26.01 CB 19.5 CG 21.21 CD1 30.75 CD2 20.55 NE1 32.82 CE2 30.11 CE3 18.32 CZ2 31.71 CZ3 21.13 CH2 23.02
A SER H 0 -65.4 -45.8 N 21.54 CA 20.39 C 21.36 O 21.24 CB 22.78 OG 26.45
A LYS H 109 -66.3 -35.2 N 27.61 CA 33.73 C 30.24 O 25.65 CB 39.59 CG 47.36 CD 54.76 CE 59.18 NZ 62.88
A ALA H 47 -59.3 -45.3 N 29.22 CA 29.79 C 27.98 O 26.32 CB 28.99
A GLN H 46 -61.8 -36.8 N 20.56 CA 23.36 C 23.8 O 21.52 CB 25.65 CG 30.99 CD 30.34 OE1 35.69 NE2 28.68
A LYS H 82 -60.5 -31.0 N 24.42 CA 32.44 C 31.18 O 31.22 CB 38.79 CG 38.54 CD 42.84 CE 42.5 NZ 40.27
A LEU H 127 -67.8 -44.1 N 31.19 CA 40.81 C 42.22 O 40.55 CB 43.17 CG 48.04 CD1 51.33 CD2 47.54
A GLU H 123 -67.5 -48.7 N 35.9 CA 36.49 C 37.62 O 33.25 CB 44.43 CG 53.24 CD 66.16 OE1 70.78 OE2 71.86
A HIS H 81 -45.0 -52.1 N 43.18 CA 51.49 C 50.62 O 48.38 CB 58.15 CG 66.43 ND1 68.49 CD2 69.2 CE1 68.89 NE2 69.11
A HIS H 161 -59.5 -38.8 N 48.36 CA 49.77 C 52.68 O 56.39 CB 53.81 CG 57.61 ND1 60.17 CD2 58.58 CE1 60.51 NE2 59.69
A HIS - 190 97.0 360.0 N 52.81 CA 58.15 C 63.89 O 65.54 CB 65.06 CG 74.52 ND1 78.39 CD2 76.49 CE1 77.41 NE2 75.45
B LYS - 168 360.0 140.8 N 91.96 CA 87.0 C 82.88 O 81.78 CB 86.32 CG 89.45 CD 88.48 CE 90.44 NZ 88.25
B PRO - 110 -73.5 178.8 N 78.57 CA 75.34 C 67.95 O 65.11 CB 75.46 CG 74.03 CD 77.46
B ARG - 95 -85.6 137.3 N 62.71 CA 54.23 C 45.73 O 41.33 CB 55.34 CG 57.71 CD 59.93 NE 69.57 CZ 73.97 NH1 75.38 NH2 77.68
B ASP E 53 -135.2 168.2 N 43.3 CA 43.43 C 41.17 O 35.42 CB 46.26 CG 49.62 OD1 48.03 OD2 50.26
B VAL E 29 -112.8 121.0 N 37.33 CA 31.77 C 36.85 O 34.33 CB 31.9 CG1 37.8 CG2 33.61
B GLN E 40 -99.4 120.5 N 32.95 CA 32.88 C 33.85 O 32.17 CB 26.79 CG 26.89 CD 35.0 OE1 39.82 NE2 32.72
B VAL E 58 -110.0 133.2 N 21.72 CA 21.72 C 28.1 O 27.09 CB 27.19 CG1 16.88 CG2 21.12
B LEU E 61 -149.1 137.4 N 23.68 CA 22.9 C 24.58 O 20.29 CB 19.18 CG 28.41 CD1 31.36 CD2 34.64
B PRO E 77 -65.9 140.3 N 29.81 CA 26.54 C 21.03 O 18.18 CB 31.15 CG 32.9 CD 31.88
B ILE E 27 -128.4 -17.2 N 20.52 CA 18.15 C 21.24 O 24.4 CB 21.79 CG1 20.73 CG2 19.26 CD1 20.93
B ALA E 35 -165.0 -177.0 N 23.24 CA 26.63 C 28.9 O 27.21 CB 27.1
B THR T 80 -58.3 122.4 N 26.14 CA 33.53 C 30.15 O 27.68 CB 44.37 OG1 43.66 CG2 48.06
B ASN T 59 59.3 20.6 N 25.94 CA 26.35 C 21.46 O 24.37 CB 27.0 CG 37.63 OD1 34.26 ND2 36.63
B THR E 3 -127.3 131.8 N 22.05 CA 24.01 C 20.78 O 18.46 CB 21.56 OG1 25.4 CG2 24.11
B LYS E 34 -130.6 149.7 N 17.56 CA 16.36 C 17.06 O 18.37 CB 17.47 CG 20.84 CD 22.76 CE 31.36 NZ 34.82
B VAL E 0 -107.5 142.4 N 16.45 CA 17.2 C 23.51 O 17.31 CB 17.32 CG1 16.29 CG2 18.47
B LEU E 1 -116.4 108.6 N 17.96 CA 22.34 C 22.56 O 22.17 CB 24.23 CG 25.59 CD1 27.57 CD2 25.34
B ARG E 1 -99.4 110.0 N 22.22 CA 29.7 C 34.92 O 30.04 CB 26.38 CG 31.2 CD 41.27 NE 43.7 CZ 37.41 NH1 36.7 NH2 26.11
B ALA E 2 -76.0 110.9 N 31.88 CA 34.47 C 37.39 O 39.8 CB 33.14
B ARG E 18 -103.0 136.8 N 33.25 CA 39.04 C 41.63 O 42.2 CB 39.6 CG 34.62 CD 42.71 NE 41.55 CZ 43.59 NH1 43.99 NH2 43.23
B SER E 0 -130.2 126.0 N 47.42 CA 49.7 C 48.7 O 51.93 CB 51.9 OG 58.57
B TRP S 67 -80.9 -17.4 N 48.88 CA 51.44 C 51.77 O 47.44 CB 54.85 CG 53.47 CD1 54.96 CD2 53.21 NE1 56.38 CE2 55.76 CE3 56.76 CZ2 55.38 CZ3 58.43 CH2 55.69
B SER S 51 -107.9 -167.0 N 54.46 CA 58.7 C 56.77 O 48.78 CB 63.5 OG 66.3
B ARG - 104 -81.4 158.0 N 59.08 CA 57.8 C 57.42 O 57.4 CB 62.05 CG 63.29 CD 67.87 NE 76.11 CZ 82.09 NH1 78.04 NH2 89.66
B LEU S 29 -91.4 -22.1 N 60.69 CA 63.76 C 68.94 O 72.54 CB 62.82 CG 62.73 CD1 63.54 CD2 58.11
B ARG S 137 -161.3 158.8 N 71.15 CA 75.0 C 70.66 O 66.26 CB 81.58 CG 90.46 CD 93.48 NE 91.76 CZ 92.91 NH1 96.95 NH2 88.89
B PHE S 176 -80.4 68.1 N 68.75 CA 69.01 C 72.38 O 77.13 CB 73.28 CG 74.22 CD1 67.23 CD2 76.03 CE1 73.96 CE2 77.35 CZ 77.02
B GLU S 89 -120.6 165.9 N 72.69 CA 74.96 C 70.02 O 72.18 CB 79.85 CG 87.26 CD 96.76 OE1 101.54 OE2 100.84
B ILE G 107 -66.7 -22.5 N 59.06 CA 58.41 C 54.39 O 53.77 CB 57.78 CG1 55.0 CG2 60.82 CD1 61.47
B GLU G 47 -69.2 -22.4 N 49.84 CA 54.16 C 52.34 O 50.94 CB 50.21 CG 55.69 CD 68.08 OE1 63.24 OE2 75.59
B TYR G 30 -101.8 9.8 N 54.56 CA 57.32 C 64.33 O 68.99 CB 56.71 CG 58.94 CD1 57.97 CD2 59.45 CE1 56.97 CE2 57.83 CZ 59.57 OH 58.69
B ALA T 50 -74.9 -4.8 N 62.42 CA 65.09 C 62.55 O 61.53 CB 66.03
B LEU T 51 -85.9 -8.3 N 57.9 CA 54.05 C 53.2 O 53.25 CB 50.6 CG 54.68 CD1 55.34 CD2 51.71
B GLU - 110 62.4 36.0 N 52.94 CA 57.36 C 64.28 O 69.39 CB 65.85 CG 73.07 CD 76.91 OE1 77.84 OE2 78.06
B ARG - 92 -111.3 23.2 N 60.64 CA 57.04 C 52.13 O 50.5 CB 56.64 CG 61.47 CD 67.77 NE 77.56 CZ 82.39 NH1 81.96 NH2 86.21
B GLY - 5 70.7 -164.6 N 50.23 CA 43.69 C 46.64 O 49.83
B THR E 1 -165.3 169.0 N 49.45 CA 46.55 C 43.39 O 40.82 CB 48.29 OG1 48.12 CG2 44.25
B THR E 0 -132.3 153.3 N 37.67 CA 37.16 C 36.47 O 36.31 CB 29.85 OG1 28.51 CG2 30.24
B SER E 8 -112.2 115.7 N 27.25 CA 27.53 C 29.96 O 27.18 CB 38.44 OG 41.21
B ASN E 1 -99.3 129.3 N 25.63 CA 23.35 C 23.96 O 25.29 CB 22.8 CG 30.7 OD1 22.19 ND2 22.86
B SER E 2 -120.5 156.0 N 23.12 CA 23.8 C 22.31 O 20.78 CB 30.88 OG 37.24
B TYR E 2 -129.9 152.0 N 23.04 CA 22.08 C 22.68 O 33.68 CB 23.88 CG 26.6 CD1 20.79 CD2 23.3 CE1 20.64 CE2 25.47 CZ 21.74 OH 21.78
B VAL E 0 -127.3 128.1 N 21.55 CA 25.57 C 25.31 O 24.72 CB 31.39 CG1 23.6 CG2 28.72
B ILE E 0 -122.7 121.0 N 25.59 CA 28.22 C 28.89 O 31.28 CB 32.14 CG1 25.97 CG2 27.48 CD1 28.68
B GLU E 12 -111.4 94.2 N 27.05 CA 33.67 C 38.23 O 41.06 CB 28.75 CG 29.2 CD 31.02 OE1 27.38 OE2 26.82
B GLY S 9 -95.0 -137.3 N 41.92 CA 44.44 C 40.87 O 34.13
B ASP S 108 -75.5 -31.7 N 48.2 CA 50.58 C 47.98 O 50.69 CB 61.06 CG 64.63 OD1 62.0 OD2 66.49
B LYS S 83 -105.6 157.2 N 49.84 CA 46.24 C 37.27 O 35.1 CB 49.09 CG 56.64 CD 60.66 CE 65.18 NZ 69.65
B THR E 11 -117.5 132.0 N 37.49 CA 40.11 C 39.59 O 41.31 CB 42.5 OG1 46.22 CG2 41.03
B ALA E 0 -126.5 137.1 N 34.02 CA 36.87 C 36.31 O 30.99 CB 37.53
B ILE E 0 -109.7 152.1 N 38.49 CA 32.61 C 30.29 O 32.69 CB 31.79 CG1 39.47 CG2 28.53 CD1 43.03
B ILE E 2 -124.5 128.5 N 28.83 CA 37.07 C 35.5 O 34.9 CB 37.98 CG1 33.95 CG2 36.43 CD1 35.72
B ASP - 7 55.3 69.9 N 33.6 CA 36.67 C 35.45 O 34.47 CB 41.71 CG 51.53 OD1 52.81 OD2 55.46
B PRO - 0 -60.4 139.0 N 39.38 CA 39.13 C 39.67 O 42.45 CB 43.04 CG 43.63 CD 38.8
B PRO - 2 -74.6 179.9 N 38.24 CA 40.62 C 46.58 O 42.5 CB 41.72 CG 44.37 CD 41.02
B VAL - 19 -71.9 166.9 N 47.46 CA 49.01 C 50.58 O 40.29 CB 50.43 CG1 47.75 CG2 47.27
B GLU G 109 -52.4 -33.6 N 55.67 CA 56.11 C 53.36 O 54.83 CB 64.23 CG 66.19 CD 71.07 OE1 72.93 OE2 74.21
B SER G 57 -51.4 -43.7 N 54.28 CA 60.77 C 61.06 O 63.12 CB 65.98 OG 68.92
B PHE G 0 -97.5 9.0 N 56.47 CA 49.51 C 51.15 O 54.34 CB 44.97 CG 48.5 CD1 51.64 CD2 50.67 CE1 54.42 CE2 52.87 CZ 53.18
B LYS H 151 -59.8 -53.1 N 49.26 CA 52.55 C 49.05 O 50.81 CB 58.84 CG 64.71 CD 70.53 CE 71.93 NZ 74.49
B ILE H 47 -62.1 -30.1 N 46.13 CA 48.58 C 43.53 O 36.73 CB 48.16 CG1 42.33 CG2 50.93 CD1 39.66
B TYR H 3 -66.2 -54.6 N 42.54 CA 40.55 C 35.42 O 38.06 CB 40.51 CG 37.18 CD1 40.63 CD2 38.47 CE1 39.64 CE2 37.49 CZ 41.51 OH 43.94
B LEU H 19 -58.7 -34.2 N 30.26 CA 41.73 C 40.67 O 33.87 CB 51.72 CG 57.7 CD1 58.98 CD2 60.0
B GLU H 83 -66.8 -44.6 N 44.91 CA 42.31 C 37.76 O 33.01 CB 52.34 CG 66.43 CD 74.91 OE1 76.38 OE2 80.0
B ALA H 6 -64.4 -41.6 N 33.73 CA 29.59 C 25.8 O 26.53 CB 27.28
B LEU H 0 -63.2 -41.6 N 26.09 CA 23.34 C 30.11 O 34.94 CB 23.59 CG 34.26 CD1 36.33 CD2 38.08
B GLN H 76 -60.1 -40.1 N 35.22 CA 40.1 C 30.64 O 30.87 CB 48.63 CG 64.17 CD 75.44 OE1 78.55 NE2 78.44
B GLN H 75 -61.6 -19.1 N 28.15 CA 27.22 C 28.22 O 25.49 CB 28.88 CG 34.57 CD 39.69 OE1 38.21 NE2 43.1
B THR H 7 -103.4 -39.0 N 25.87 CA 21.25 C 19.51 O 26.44 CB 34.48 OG1 38.1 CG2 37.13
B VAL S 6 -148.3 150.9 N 23.08 CA 25.89 C 26.66 O 33.2 CB 47.08 CG1 49.36 CG2 46.9
B ASN - 50 -78.8 113.2 N 28.27 CA 33.02 C 34.67 O 35.13 CB 36.1 CG 46.55 OD1 48.73 ND2 47.46
B LEU G 12 -57.5 -33.0 N 36.31 CA 46.06 C 48.93 O 50.7 CB 49.49 CG 51.78 CD1 55.21 CD2 48.08
B LYS G 124 -69.3 -17.4 N 48.02 CA 51.04 C 49.76 O 57.3 CB 62.67 CG 70.33 CD 79.71 CE 85.02 NZ 86.93
B LYS G 109 -98.7 0.9 N 44.65 CA 52.67 C 49.56 O 47.46 CB 61.48 CG 68.77 CD 77.34 CE 81.0 NZ 85.68
B LEU - 0 -67.3 124.9 N 46.99 CA 50.91 C 51.22 O 52.09 CB 54.48 CG 59.42 CD1 57.41 CD2 61.3
B ASP - 23 -91.7 -67.7 N 47.61 CA 46.5 C 47.63 O 45.56 CB 45.37 CG 52.69 OD1 52.02 OD2 51.62
B TYR E 28 -111.6 148.3 N 45.83 CA 47.29 C 47.44 O 41.17 CB 45.88 CG 50.38 CD1 56.0 CD2 52.27 CE1 59.63 CE2 53.92 CZ 58.15 OH 59.1
B VAL E 0 -126.2 110.7 N 46.42 CA 43.41 C 43.71 O 43.32 CB 46.16 CG1 43.84 CG2 51.28
B ILE E 1 -100.9 130.5 N 38.29 CA 45.59 C 46.43 O 36.21 CB 37.71 CG1 38.48 CG2 40.32 CD1 39.95
B LEU - 2 -107.9 131.4 N 40.76 CA 40.68 C 40.41 O 46.2 CB 43.72 CG 53.11 CD1 54.22 CD2 49.94
B GLY S 7 -81.1 -20.5 N 44.68 CA 45.76 C 46.14 O 41.97
B HIS S 5 -168.1 172.3 N 41.96 CA 50.35 C 55.0 O 51.09 CB 51.55 CG 53.16 ND1 56.32 CD2 55.07 CE1 55.92 NE2 57.64
B PHE - 39 -114.6 132.8 N 60.04 CA 62.58 C 62.11 O 64.22 CB 68.88 CG 74.1 CD1 73.49 CD2 78.26 CE1 77.48 CE2 80.63 CZ 78.33
B SER - 17 -139.0 133.5 N 58.73 CA 60.52 C 63.98 O 62.81 CB 56.07 OG 54.2
B PRO G 98 -55.7 -42.3 N 58.01 CA 60.62 C 58.76 O 62.86 CB 64.98 CG 64.27 CD 59.89
B ASN G 82 -63.8 2.0 N 56.84 CA 65.66 C 66.1 O 65.22 CB 60.61 CG 56.92 OD1 56.97 ND2 54.29
B ARG G 13 -105.9 -8.9 N 51.17 CA 49.66 C 51.7 O 48.59 CB 49.42 CG 47.42 CD 49.49 NE 47.82 CZ 48.8 NH1 50.75 NH2 48.78
B ILE H 41 -48.5 -43.7 N 54.87 CA 61.09 C 61.38 O 61.34 CB 71.44 CG1 75.87 CG2 72.1 CD1 76.12
B PRO H 36 -59.9 -35.2 N 64.79 CA 65.96 C 59.3 O 55.82 CB 67.74 CG 70.8 CD 68.43
B THR H 0 -72.6 -43.5 N 53.38 CA 50.33 C 45.24 O 44.52 CB 45.14 OG1 45.57 CG2 44.75
B PHE H 6 -58.2 -36.5 N 47.09 CA 57.35 C 65.93 O 67.3 CB 50.67 CG 51.31 CD1 51.74 CD2 57.02 CE1 52.46 CE2 57.9 CZ 50.14
B LYS H 129 -69.3 -45.9 N 53.14 CA 66.55 C 63.87 O 63.56 CB 66.46 CG 72.4 CD 76.11 CE 81.21 NZ 82.46
B ALA H 12 -58.6 -33.4 N 61.65 CA 58.79 C 58.16 O 45.33 CB 55.37
B LEU H 1 -74.8 -41.9 N 55.61 CA 55.85 C 53.6 O 56.97 CB 58.23 CG 56.81 CD1 57.86 CD2 53.8
B LEU H 38 -62.5 -27.4 N 54.59 CA 60.78 C 67.27 O 68.12 CB 63.43 CG 68.5 CD1 65.85 CD2 70.2
B GLU H 131 -92.7 -17.4 N 68.93 CA 74.87 C 71.86 O 77.3 CB 82.98 CG 84.93 CD 90.3 OE1 91.37 OE2 91.31
B LEU H 68 -91.8 -29.2 N 63.33 CA 60.78 C 61.61 O 62.0 CB 56.99 CG 53.46 CD1 48.12 CD2 53.79
B ALA - 0 -141.3 81.2 N 61.2 CA 54.55 C 56.69 O 51.29 CB 47.67
B PRO T 70 -70.8 -21.8 N 60.51 CA 62.95 C 61.4 O 62.22 CB 68.88 CG 65.69 CD 58.29
B GLN T 64 -77.6 -12.3 N 59.12 CA 64.85 C 66.97 O 69.0 CB 66.55 CG 62.67 CD 61.63 OE1 64.34 NE2 55.94
B ILE - 0 -59.7 144.3 N 66.64 CA 66.22 C 65.19 O 68.96 CB 67.62 CG1 71.88 CG2 63.27 CD1 71.14
B THR E 39 -102.0 126.8 N 62.11 CA 53.82 C 53.53 O 49.69 CB 54.79 OG1 60.45 CG2 61.67
B PHE E 1 -79.5 133.2 N 53.68 CA 52.1 C 52.63 O 57.21 CB 54.11 CG 61.66 CD1 64.52 CD2 60.31 CE1 66.99 CE2 61.98 CZ 65.28
B VAL E 0 -121.3 113.6 N 49.7 CA 53.94 C 54.83 O 49.87 CB 54.3 CG1 52.93 CG2 55.54
B CYS E 1 -147.1 178.4 N 56.01 CA 51.4 C 57.16 O 59.5 CB 58.67 SG 68.33
B SER E 6 -77.2 144.7 N 58.91 CA 60.73 C 59.66 O 60.01 CB 54.48 OG 68.81
B LEU H 78 -42.3 -47.2 N 79.35 CA 80.91 C 67.77 O 69.85 CB 70.17 CG 79.89 CD1 82.08 CD2 76.55
B PRO H 52 -49.0 -47.7 N 66.35 CA 73.31 C 77.02 O 82.36 CB 69.48 CG 68.93 CD 64.75
B ALA H 1 -63.4 -39.2 N 75.38 CA 76.88 C 82.74 O 87.79 CB 57.09
B ALA H 2 -43.1 -37.6 N 81.01 CA 83.69 C 83.91 O 73.12 CB 86.53
B GLY H 44 -76.2 -44.2 N 85.77 CA 91.25 C 91.59 O 91.98
B ASP H 92 -72.5 -19.3 N 90.68 CA 91.35 C 84.37 O 83.81 CB 95.69 CG 102.97 OD1 106.28 OD2 104.36
B LEU H 6 -67.6 -50.6 N 80.17 CA 79.46 C 81.59 O 79.27 CB 75.21 CG 66.74 CD1 61.44 CD2 64.22
B ARG H 142 -56.2 -35.8 N 84.49 CA 89.37 C 93.55 O 100.19 CB 93.04 CG 90.45 CD 92.98 NE 91.85 CZ 85.87 NH1 81.15 NH2 84.24
B ALA H 85 -58.1 -56.9 N 91.43 CA 92.52 C 90.65 O 94.13 CB 91.35
B ALA - 80 -73.4 360.0 N 85.73 CA 84.12 C 77.45 O 78.73 CB 79.98
B ASP - 204 360.0 147.2 N 115.67 CA 110.91 C 108.56 O 108.37 CB 106.87 CG 108.17 OD1 108.06 OD2 109.03
B ASN - 163 -105.0 91.6 N 104.98 CA 101.6 C 93.08 O 90.51 CB 106.12 CG 106.2 OD1 101.81 ND2 108.75
B LEU - 33 -69.2 157.0 N 87.71 CA 84.09 C 85.62 O 91.13 CB 80.39 CG 78.19 CD1 74.65 CD2 75.68
B ASN - 62 -107.0 100.5 N 77.55 CA 78.64 C 75.31 O 69.69 CB 79.42 CG 79.75 OD1 78.95 ND2 76.48
B ILE E 20 -115.0 130.1 N 73.33 CA 66.24 C 72.88 O 75.17 CB 70.78 CG1 72.36 CG2 68.97 CD1 76.29
B LEU E 76 -114.1 89.7 N 71.17 CA 76.62 C 76.83 O 72.46 CB 77.56 CG 80.11 CD1 85.02 CD2 77.88
B PRO E 27 -69.1 129.6 N 81.66 CA 80.98 C 77.09 O 81.05 CB 86.46 CG 89.63 CD 86.87
B ARG - 174 -122.7 -7.7 N 81.5 CA 83.0 C 84.32 O 84.27 CB 85.62 CG 84.3 CD 88.04 NE 90.13 CZ 88.54 NH1 90.81 NH2 83.05
B GLY - 41 140.7 -12.6 N 85.43 CA 84.74 C 87.37 O 85.69
B LYS - 167 -60.1 360.0 N 91.99 CA 94.33 C 92.24 O 92.45 CB 96.42 CG 92.84 CD 95.82 CE 94.74 NZ 96.95
B THR - 54 360.0 -36.1 N 69.7 CA 73.66 C 71.64 O 74.06 CB 76.58 OG1 77.46 CG2 79.88
B LEU E 14 -135.9 107.1 N 69.86 CA 69.38 C 66.13 O 58.33 CB 68.06 CG 65.06 CD1 68.57 CD2 64.32
B ASP E 99 -89.1 114.3 N 68.77 CA 66.47 C 60.38 O 55.2 CB 73.5 CG 71.6 OD1 66.48 OD2 74.18
B LEU - 2 -86.4 -8.4 N 56.47 CA 56.03 C 57.64 O 59.74 CB 49.83 CG 48.91 CD1 51.73 CD2 44.8
B GLY S 10 92.9 167.5 N 57.37 CA 60.15 C 59.36 O 52.16
B LYS T 90 57.5 23.2 N 62.58 CA 61.72 C 62.52 O 62.19 CB 57.25 CG 56.04 CD 53.19 CE 54.35 NZ 52.98
B GLY T 36 95.9 -6.6 N 64.19 CA 63.06 C 61.44 O 60.6
B HIS - 0 -86.6 80.7 N 57.55 CA 51.88 C 48.04 O 44.67 CB 46.93 CG 44.54 ND1 40.78 CD2 44.27 CE1 39.92 NE2 42.17
B VAL E 39 -91.7 124.9 N 52.92 CA 56.39 C 49.5 O 46.91 CB 59.78 CG1 61.17 CG2 60.5
B LEU E 0 -96.9 114.8 N 42.85 CA 41.51 C 52.75 O 54.75 CB 47.49 CG 46.44 CD1 47.56 CD2 37.46
B LYS E 96 -96.0 129.2 N 54.1 CA 61.67 C 62.9 O 60.79 CB 64.1 CG 69.97 CD 74.9 CE 81.08 NZ 83.92
B PHE E 8 -101.4 134.6 N 62.86 CA 60.71 C 62.5 O 62.99 CB 61.79 CG 66.26 CD1 67.24 CD2 66.7 CE1 67.76 CE2 64.04 CZ 65.03
B LEU E 23 -124.6 89.7 N 57.82 CA 58.76 C 58.39 O 56.36 CB 56.12 CG 59.81 CD1 61.44 CD2 58.68
B PRO E 22 -54.6 142.4 N 59.09 CA 58.24 C 52.69 O 55.03 CB 64.63 CG 66.89 CD 63.46
B ILE - 17 -135.8 63.9 N 48.32 CA 50.03 C 51.63 O 52.88 CB 49.45 CG1 46.23 CG2 44.1 CD1 47.01
B PRO - 68 -61.5 140.8 N 53.82 CA 57.36 C 59.07 O 61.45 CB 59.82 CG 59.75 CD 57.54
B SER - 19 -147.3 162.4 N 53.69 CA 53.83 C 55.99 O 56.68 CB 50.84 OG 49.73
B PRO S 87 -59.5 -37.5 N 57.33 CA 60.32 C 60.45 O 60.67 CB 60.83 CG 60.0 CD 57.11
B ARG S 127 -76.6 -35.0 N 55.78 CA 58.62 C 55.87 O 57.35 CB 60.87 CG 63.55 CD 66.0 NE 63.15 CZ 66.16 NH1 66.21 NH2 66.78
B TRP - 18 -131.8 84.6 N 52.99 CA 51.36 C 53.99 O 51.55 CB 47.92 CG 46.59 CD1 46.67 CD2 51.93 NE1 51.19 CE2 48.52 CE3 54.32 CZ2 49.68 CZ3 53.07 CH2 49.76
B PRO T 74 -59.1 -30.4 N 56.06 CA 62.87 C 56.79 O 69.44 CB 66.74 CG 66.6 CD 58.25
B ALA T 6 -98.1 21.9 N 55.13 CA 56.52 C 52.05 O 48.7 CB 56.96
B GLY - 5 -54.3 136.1 N 49.06 CA 48.65 C 49.42 O 51.81
B LEU E 3 -152.6 128.1 N 46.18 CA 42.75 C 39.87 O 38.04 CB 43.91 CG 55.09 CD1 56.67 CD2 60.75
B CYS E 5 -104.0 145.2 N 43.43 CA 46.15 C 48.74 O 45.62 CB 50.33 SG 54.14
B THR E 4 -124.4 135.1 N 44.22 CA 45.7 C 41.1 O 35.54 CB 44.16 OG1 49.11 CG2 45.51
B TYR E 13 -120.9 121.0 N 36.14 CA 40.84 C 43.44 O 47.11 CB 44.4 CG 41.77 CD1 43.55 CD2 45.3 CE1 46.06 CE2 42.56 CZ 46.41 OH 45.1
B ASP E 0 -89.3 113.0 N 33.6 CA 35.53 C 38.25 O 42.9 CB 35.18 CG 41.14 OD1 46.8 OD2 36.82
B VAL T 46 -59.3 -39.1 N 48.28 CA 55.17 C 55.79 O 54.47 CB 62.54 CG1 63.42 CG2 69.89
B GLN T 88 -64.7 -46.1 N 53.99 CA 56.33 C 52.3 O 49.03 CB 59.35 CG 62.58 CD 65.13 OE1 67.44 NE2 65.4
B THR T 13 -97.4 -10.9 N 44.66 CA 35.67 C 35.76 O 34.46 CB 33.71 OG1 30.81 CG2 27.98
B GLN T 31 60.1 30.7 N 42.44 CA 43.81 C 39.19 O 36.47 CB 43.57 CG 48.52 CD 55.21 OE1 53.34 NE2 61.23
B ILE E 3 -92.9 133.5 N 33.2 CA 31.5 C 28.75 O 33.11 CB 30.85 CG1 27.51 CG2 27.79 CD1 23.55
B LEU E 0 -110.1 117.6 N 28.65 CA 32.19 C 29.93 O 27.63 CB 32.68 CG 32.55 CD1 34.57 CD2 33.25
B TYR E 5 -88.7 112.3 N 29.97 CA 28.67 C 30.14 O 31.96 CB 28.87 CG 27.53 CD1 25.67 CD2 30.4 CE1 24.5 CE2 30.36 CZ 27.53 OH 24.32
B THR E 2 -111.6 -6.3 N 29.68 CA 34.4 C 34.46 O 32.68 CB 32.89 OG1 28.73 CG2 33.84
B ASP E 7 51.9 -113.4 N 32.76 CA 33.78 C 31.44 O 30.2 CB 40.13 CG 52.61 OD1 54.3 OD2 59.23
B LYS T 33 -64.3 -27.9 N 33.4 CA 34.2 C 37.29 O 36.72 CB 36.7 CG 52.58 CD 49.67 CE 51.5 NZ 50.64
B ILE T 19 -79.5 139.4 N 33.41 CA 34.43 C 31.53 O 30.22 CB 34.11 CG1 35.89 CG2 34.77 CD1 40.62
B PHE T 4 77.4 10.3 N 31.72 CA 30.57 C 29.89 O 28.64 CB 29.73 CG 30.93 CD1 32.04 CD2 31.16 CE1 40.99 CE2 32.54 CZ 38.67
B GLY - 1 -85.7 -176.2 N 30.02 CA 29.28 C 32.3 O 31.18
B ALA - 1 -156.4 136.5 N 36.84 CA 38.35 C 33.13 O 33.07 CB 39.33
B HIS - 13 -87.7 93.4 N 35.78 CA 38.41 C 41.0 O 37.57 CB 46.39 CG 43.06 ND1 35.4 CD2 39.85 CE1 40.34 NE2 38.2
B ILE - 20 -156.8 125.7 N 35.8 CA 42.64 C 45.57 O 42.89 CB 48.08 CG1 53.76 CG2 45.54 CD1 56.12
B CYS - 12 -86.6 148.3 N 46.87 CA 43.06 C 48.53 O 41.8 CB 43.81 SG 53.61
B GLY - 20 -170.4 177.4 N 51.02 CA 50.5 C 48.05 O 40.89
B ASP S 93 -95.2 -23.7 N 49.27 CA 51.38 C 47.73 O 47.98 CB 55.18 CG 59.48 OD1 55.21 OD2 68.45
B ASP - 85 -74.0 115.7 N 41.54 CA 46.16 C 41.52 O 40.82 CB 57.24 CG 67.55 OD1 69.57 OD2 71.15
B VAL S 10 -63.8 -35.3 N 37.59 CA 30.46 C 29.76 O 30.51 CB 25.86 CG1 23.2 CG2 23.5
B PHE B 25 -108.2 165.8 N 26.91 CA 28.01 C 31.31 O 31.84 CB 30.67 CG 28.31 CD1 30.63 CD2 24.8 CE1 29.28 CE2 26.65 CZ 28.26
B ASP S 1 -86.3 43.0 N 32.53 CA 34.58 C 37.34 O 43.04 CB 35.56 CG 33.16 OD1 35.3 OD2 27.43
B ASP T 83 -60.4 -46.7 N 39.69 CA 39.59 C 43.11 O 48.78 CB 38.43 CG 43.36 OD1 46.65 OD2 43.13
B ASN T 90 -88.0 65.1 N 39.95 CA 44.21 C 47.53 O 48.89 CB 51.53 CG 60.37 OD1 65.28 ND2 60.91
B TRP - 123 -58.2 -39.0 N 44.53 CA 48.92 C 57.35 O 55.91 CB 51.8 CG 60.76 CD1 64.7 CD2 67.87 NE1 70.87 CE2 71.46 CE3 69.38 CZ2 72.66 CZ3 70.11 CH2 70.76
B GLU T 132 -84.3 85.2 N 63.76 CA 69.08 C 71.16 O 78.46 CB 76.98 CG 85.4 CD 91.32 OE1 92.31 OE2 94.99
B SER T 56 175.9 -5.8 N 65.9 CA 65.05 C 64.53 O 67.16 CB 64.42 OG 62.85
B PHE T 5 -148.9 4.2 N 61.67 CA 57.33 C 50.29 O 44.87 CB 57.97 CG 59.26 CD1 60.4 CD2 61.86 CE1 61.07 CE2 61.02 CZ 60.6
B LYS H 54 -65.3 -28.6 N 48.8 CA 62.09 C 61.29 O 64.4 CB 67.42 CG 74.41 CD 74.78 CE 74.63 NZ 72.17
B GLU H 126 -55.1 -41.7 N 61.58 CA 66.29 C 59.64 O 52.93 CB 73.42 CG 81.7 CD 90.85 OE1 93.44 OE2 93.88
B ASP H 3 -82.8 -23.9 N 58.12 CA 55.96 C 50.22 O 47.43 CB 59.59 CG 63.73 OD1 60.38 OD2 68.8
B GLN H 1 -74.5 -55.1 N 42.46 CA 39.68 C 45.4 O 42.32 CB 33.45 CG 38.68 CD 37.79 OE1 37.58 NE2 32.42
B ARG H 143 -60.0 -44.4 N 49.82 CA 50.78 C 46.83 O 50.24 CB 58.08 CG 64.52 CD 68.93 NE 74.76 CZ 79.98 NH1 83.78 NH2 79.41
B TYR H 57 -61.2 -32.2 N 42.67 CA 48.84 C 49.47 O 45.74 CB 46.13 CG 49.52 CD1 53.32 CD2 49.77 CE1 53.05 CE2 49.47 CZ 53.19 OH 55.62
B TYR H 4 -68.3 -42.7 N 39.29 CA 40.53 C 41.0 O 42.52 CB 36.04 CG 35.21 CD1 35.07 CD2 37.04 CE1 34.65 CE2 34.19 CZ 39.38 OH 33.99
B PHE I 0 -56.7 -44.8 N 38.77 CA 47.35 C 51.49 O 42.99 CB 42.23 CG 44.33 CD1 42.28 CD2 44.94 CE1 43.24 CE2 40.45 CZ 43.89
B ASN I 84 -66.6 -39.9 N 53.7 CA 55.88 C 55.5 O 56.06 CB 60.42 CG 63.27 OD1 65.9 ND2 63.88
B CYS I 20 -70.5 -51.6 N 50.07 CA 53.88 C 56.16 O 62.71 CB 53.95 SG 62.3
B LEU I 18 -105.8 -28.5 N 52.23 CA 52.42 C 43.71 O 44.61 CB 53.37 CG 55.46 CD1 52.94 CD2 59.22
B ALA G 7 -40.7 -46.5 N 45.3 CA 48.57 C 55.02 O 50.12 CB 48.05
B PRO G 90 -65.3 -17.0 N 55.27 CA 58.26 C 55.83 O 55.77 CB 54.12 CG 52.62 CD 50.17
B HIS G 44 -118.8 43.4 N 51.25 CA 56.81 C 55.66 O 48.56 CB 65.84 CG 74.46 ND1 77.7 CD2 79.78 CE1 80.86 NE2 83.33
B ALA H 8 -52.0 -37.7 N 49.67 CA 48.57 C 49.06 O 51.26 CB 55.56
B ILE H 110 -63.6 -42.5 N 51.5 CA 52.4 C 51.09 O 54.72 CB 55.64 CG1 60.18 CG2 56.23 CD1 61.93
B HIS H 77 -71.9 -25.1 N 50.65 CA 53.48 C 47.1 O 46.4 CB 50.3 CG 58.47 ND1 59.31 CD2 60.47 CE1 66.25 NE2 67.4
B VAL H 6 -66.2 -49.6 N 45.88 CA 48.91 C 51.19 O 50.97 CB 44.49 CG1 41.92 CG2 46.87
B GLU H 56 -55.4 -39.6 N 45.39 CA 46.16 C 52.57 O 52.13 CB 52.13 CG 53.35 CD 61.47 OE1 63.36 OE2 61.58
B ALA H 40 -69.0 -30.4 N 48.09 CA 55.03 C 54.32 O 53.45 CB 51.2
B ALA H 11 -75.3 -39.7 N 49.7 CA 48.46 C 46.84 O 47.73 CB 42.15
B LEU H 21 -66.8 -39.0 N 48.03 CA 50.0 C 56.04 O 57.62 CB 50.75 CG 45.06 CD1 43.27 CD2 38.09
B GLU H 135 -61.9 -41.9 N 58.26 CA 63.91 C 59.44 O 59.24 CB 75.24 CG 86.78 CD 95.92 OE1 98.25 OE2 99.15
B LYS H 100 -64.0 -25.1 N 56.74 CA 59.26 C 53.35 O 52.32 CB 64.83 CG 72.14 CD 74.23 CE 78.71 NZ 79.48
B ILE T 14 -108.7 6.6 N 48.96 CA 48.77 C 50.9 O 48.23 CB 42.1 CG1 43.99 CG2 42.04 CD1 36.6
B SER T 69 -68.2 -20.9 N 53.65 CA 55.88 C 58.69 O 60.14 CB 57.16 OG 60.69
B ASP T 153 -85.4 7.0 N 62.47 CA 68.1 C 63.48 O 62.74 CB 74.34 CG 83.68 OD1 87.75 OD2 85.48
B LEU - 41 -104.2 136.0 N 58.22 CA 51.04 C 50.57 O 48.08 CB 46.0 CG 50.41 CD1 50.65 CD2 54.03
B GLN - 128 -85.7 103.3 N 53.54 CA 60.06 C 54.93 O 53.66 CB 71.83 CG 78.31 CD 84.75 OE1 88.15 NE2 85.3
B VAL - 32 -113.8 127.7 N 53.33 CA 50.99 C 49.73 O 50.05 CB 47.09 CG1 44.39 CG2 41.38
B ARG S 168 -94.4 -22.9 N 46.87 CA 43.07 C 36.86 O 37.64 CB 41.41 CG 52.07 CD 61.32 NE 71.43 CZ 78.02 NH1 77.82 NH2 82.02
B LEU E 9 -156.6 136.8 N 35.16 CA 29.24 C 25.57 O 26.38 CB 27.74 CG 27.54 CD1 23.47 CD2 23.67
B TYR E 9 -94.2 106.5 N 25.41 CA 25.82 C 29.47 O 23.78 CB 30.0 CG 28.16 CD1 29.14 CD2 28.89 CE1 31.83 CE2 30.41 CZ 32.85 OH 37.02
B ALA E 1 -82.7 86.5 N 24.43 CA 28.77 C 24.32 O 25.33 CB 23.27
B VAL E 0 -80.4 164.3 N 24.23 CA 25.42 C 25.38 O 24.2 CB 25.71 CG1 26.3 CG2 24.53
B GLY S 3 -78.1 -30.7 N 26.86 CA 27.36 C 27.11 O 26.97
B HIS S 8 -130.1 130.6 N 27.3 CA 29.18 C 32.26 O 26.74 CB 29.71 CG 31.15 ND1 31.41 CD2 32.63 CE1 33.08 NE2 33.86
B GLY S 0 89.4 -168.1 N 31.01 CA 33.6 C 30.8 O 24.11
B PRO S 13 -64.1 146.9 N 32.51 CA 28.95 C 28.77 O 24.32 CB 31.02 CG 34.35 CD 31.72
B LEU B 0 -67.2 142.0 N 24.62 CA 22.9 C 24.08 O 26.47 CB 20.22 CG 22.72 CD1 24.09 CD2 22.29
B VAL B 1 -98.8 105.9 N 23.22 CA 24.22 C 24.45 O 25.16 CB 28.44 CG1 30.3 CG2 29.77
B ARG S 108 -128.8 -62.0 N 28.82 CA 33.94 C 33.25 O 29.06 CB 36.27 CG 41.09 CD 36.25 NE 32.62 CZ 29.44 NH1 23.16 NH2 33.84
B THR T 83 -64.9 -46.4 N 34.81 CA 39.18 C 45.15 O 44.1 CB 36.68 OG1 38.31 CG2 33.54
B SER T 9 -89.1 7.3 N 42.85 CA 43.25 C 43.04 O 45.47 CB 44.06 OG 37.62
B LEU H 18 -50.5 -71.3 N 39.99 CA 39.23 C 46.58 O 42.07 CB 37.88 CG 39.05 CD1 40.22 CD2 41.19
B ILE H 142 -56.4 -38.4 N 49.62 CA 48.95 C 47.76 O 50.16 CB 61.52 CG1 61.92 CG2 64.33 CD1 61.52
B ALA H 60 -65.8 -48.5 N 47.11 CA 47.71 C 45.52 O 40.25 CB 49.92
B LEU H 1 -60.6 -37.7 N 43.27 CA 38.7 C 34.28 O 40.58 CB 35.17 CG 34.15 CD1 32.79 CD2 32.17
B THR H 34 -68.8 -46.9 N 42.83 CA 40.41 C 45.52 O 46.72 CB 44.42 OG1 45.17 CG2 40.24
B GLN H 115 -65.0 -36.0 N 43.88 CA 47.62 C 40.02 O 45.47 CB 46.03 CG 54.98 CD 61.77 OE1 64.84 NE2 65.11
B ALA H 14 -66.6 -39.8 N 42.91 CA 48.14 C 52.54 O 52.83 CB 38.47
B TYR H 1 -57.9 -43.7 N 52.29 CA 48.38 C 49.55 O 42.71 CB 41.72 CG 39.21 CD1 35.48 CD2 37.59 CE1 41.04 CE2 35.43 CZ 37.91 OH 34.13
B ALA H 30 -62.4 -40.3 N 53.62 CA 54.15 C 53.83 O 49.28 CB 53.02
B ASP H 61 -70.9 -43.0 N 56.07 CA 58.85 C 56.16 O 56.56 CB 60.16 CG 61.68 OD1 67.03 OD2 60.03
B TRP H 34 -68.8 -34.6 N 49.37 CA 50.83 C 50.24 O 51.89 CB 49.99 CG 54.77 CD1 59.38 CD2 55.3 NE1 59.87 CE2 55.14 CE3 51.17 CZ2 52.25 CZ3 46.6 CH2 50.58
B SER H 0 -68.4 -50.1 N 45.08 CA 46.0 C 51.33 O 54.36 CB 48.29 OG 47.75
B LYS H 118 -60.6 -36.6 N 53.0 CA 61.14 C 60.37 O 64.9 CB 65.68 CG 68.88 CD 77.73 CE 81.49 NZ 85.74
B ALA H 56 -61.0 -36.5 N 59.11 CA 58.49 C 58.8 O 61.27 CB 57.62
B GLN H 81 -75.7 -29.7 N 59.36 CA 63.65 C 67.11 O 65.16 CB 64.9 CG 71.46 CD 77.18 OE1 75.65 NE2 83.04
B LYS H 102 -63.5 -31.5 N 71.45 CA 75.88 C 80.13 O 81.79 CB 76.32 CG 73.24 CD 75.57 CE 77.5 NZ 77.9
B LEU T 149 -79.6 -9.8 N 82.56 CA 90.1 C 93.2 O 95.95 CB 91.59 CG 92.58 CD1 93.67 CD2 94.7
B GLU - 202 60.5 360.0 N 91.47 CA 92.01 C 95.24 O 94.99 CB 91.89 CG 89.44 CD 91.73 OE1 92.28 OE2 92.59
