A SER - 111 360.0 106.7 N 43.2 CA 44.49 C 43.8 O 44.76 CB 45.53 OG 44.19
A LYS E 64 -115.7 113.1 N 22.57 CA 19.36 C 22.67 O 21.92 CB 21.82 CG 24.36 CD 30.91 CE 35.53 NZ 38.65
A VAL E 2 -113.9 130.4 N 20.5 CA 20.26 C 20.64 O 18.31 CB 21.7 CG1 21.38 CG2 24.41
A LEU E 0 -107.4 126.0 N 16.73 CA 16.86 C 16.73 O 15.91 CB 16.71 CG 17.61 CD1 18.45 CD2 19.3
A LEU E 6 -106.6 119.9 N 16.69 CA 17.92 C 17.51 O 17.15 CB 18.39 CG 20.65 CD1 21.26 CD2 23.59
A ILE E 0 -102.5 120.7 N 14.99 CA 14.84 C 15.13 O 14.84 CB 15.0 CG1 17.65 CG2 17.67 CD1 19.14
A TYR E 2 -130.9 126.2 N 15.1 CA 14.57 C 14.17 O 14.0 CB 15.27 CG 14.79 CD1 18.03 CD2 15.39 CE1 18.35 CE2 18.09 CZ 18.75 OH 23.13
A ALA - 0 -125.4 96.5 N 12.72 CA 13.97 C 15.44 O 15.08 CB 15.5
A HIS - 13 -155.2 139.6 N 14.12 CA 14.02 C 14.43 O 15.91 CB 14.22 CG 13.63 ND1 14.85 CD2 12.45 CE1 13.6 NE2 15.07
A PRO S 26 -78.3 -12.2 N 17.12 CA 21.35 C 22.44 O 24.74 CB 20.71 CG 22.46 CD 19.79
A GLU - 32 -124.6 118.9 N 16.72 CA 16.97 C 16.98 O 16.6 CB 18.08 CG 18.27 CD 20.62 OE1 22.02 OE2 21.19
A PRO T 93 -63.8 -27.0 N 19.94 CA 20.55 C 16.95 O 18.75 CB 21.2 CG 24.27 CD 22.09
A ARG T 150 -87.5 6.3 N 16.14 CA 15.58 C 17.33 O 17.31 CB 17.68 CG 17.83 CD 19.65 NE 19.48 CZ 23.4 NH1 24.05 NH2 25.96
A SER S 7 -67.3 168.5 N 16.62 CA 16.01 C 14.33 O 15.37 CB 14.56 OG 13.97
A LEU H 44 -56.1 -49.8 N 14.12 CA 14.63 C 14.71 O 14.3 CB 15.48 CG 16.84 CD1 18.73 CD2 17.57
A ASN H 4 -57.7 -42.4 N 13.65 CA 14.9 C 15.45 O 15.88 CB 14.76 CG 15.28 OD1 16.21 ND2 15.35
A GLY H 0 -59.6 -35.8 N 13.93 CA 16.09 C 16.94 O 17.13
A ALA H 37 -69.3 -44.8 N 16.38 CA 17.93 C 19.64 O 17.73 CB 17.59
A LEU H 1 -59.9 -39.3 N 17.38 CA 18.25 C 14.09 O 17.86 CB 18.37 CG 19.28 CD1 20.18 CD2 21.84
A LYS H 29 -63.7 -50.4 N 14.66 CA 14.72 C 18.56 O 17.36 CB 16.44 CG 21.51 CD 27.36 CE 32.76 NZ 35.72
A ASN H 52 -63.0 -41.4 N 19.02 CA 20.62 C 18.9 O 21.36 CB 22.11 CG 23.06 OD1 25.4 ND2 28.24
A PHE H 62 -56.2 -47.9 N 17.63 CA 20.21 C 21.86 O 21.87 CB 19.11 CG 23.41 CD1 22.23 CD2 25.0 CE1 26.35 CE2 25.83 CZ 29.11
A ALA H 4 -66.0 -40.1 N 17.44 CA 18.04 C 17.49 O 20.93 CB 17.97
A ILE H 24 -64.1 -48.9 N 17.19 CA 19.58 C 22.03 O 19.99 CB 20.9 CG1 20.51 CG2 22.99 CD1 22.78
A ARG H 146 -65.4 -43.5 N 22.07 CA 25.84 C 23.62 O 23.73 CB 26.11 CG 36.87 CD 45.59 NE 50.85 CZ 52.12 NH1 58.64 NH2 57.29
A HIS H 38 -56.7 -48.0 N 20.77 CA 21.23 C 21.35 O 23.49 CB 22.13 CG 25.08 ND1 30.6 CD2 25.66 CE1 30.67 NE2 28.0
A LEU H 6 -63.4 -43.4 N 20.89 CA 21.17 C 21.47 O 21.47 CB 20.76 CG 21.13 CD1 24.01 CD2 24.05
A GLN H 104 -65.9 -38.4 N 22.8 CA 25.52 C 29.57 O 25.98 CB 23.28 CG 24.13 CD 28.38 OE1 32.86 NE2 30.31
A GLN H 155 -67.0 -28.8 N 25.97 CA 31.62 C 34.8 O 33.14 CB 31.84 CG 34.5 CD 46.68 OE1 49.65 NE2 52.81
A ALA T 56 -77.0 -5.2 N 29.06 CA 29.69 C 26.15 O 36.07 CB 30.6
A GLY T 46 100.3 4.5 N 27.56 CA 28.03 C 31.25 O 25.66
A HIS - 49 -91.6 155.1 N 26.24 CA 22.64 C 23.06 O 25.88 CB 22.98 CG 24.25 ND1 30.27 CD2 27.41 CE1 28.79 NE2 32.8
A GLU E 103 -93.9 135.6 N 22.25 CA 23.99 C 24.22 O 24.0 CB 28.75 CG 39.97 CD 43.58 OE1 46.68 OE2 48.43
A VAL E 26 -126.7 131.2 N 21.62 CA 23.28 C 27.74 O 26.7 CB 24.43 CG1 25.2 CG2 25.41
A GLN E 70 -119.1 149.7 N 19.58 CA 18.69 C 20.12 O 19.85 CB 22.26 CG 26.43 CD 28.47 OE1 30.61 NE2 37.08
A VAL E 49 -125.8 141.1 N 19.05 CA 19.64 C 21.48 O 19.84 CB 21.87 CG1 22.8 CG2 24.08
A SER E 0 -120.2 96.4 N 15.95 CA 17.77 C 21.02 O 17.0 CB 19.02 OG 17.85
A ASP E 37 -93.2 96.6 N 18.97 CA 16.53 C 16.56 O 16.51 CB 17.76 CG 18.79 OD1 18.08 OD2 19.73
A LEU T 0 -58.7 -46.0 N 13.76 CA 13.7 C 15.14 O 16.0 CB 15.18 CG 14.86 CD1 15.81 CD2 17.99
A TYR T 26 -66.6 -37.9 N 14.23 CA 15.62 C 16.25 O 17.88 CB 15.73 CG 13.84 CD1 15.43 CD2 13.22 CE1 15.76 CE2 13.47 CZ 13.93 OH 15.29
A ALA T 72 -66.8 -35.6 N 18.52 CA 21.32 C 21.72 O 22.95 CB 22.64
A ARG T 213 52.4 49.4 N 16.18 CA 18.95 C 20.27 O 19.2 CB 23.68 CG 30.45 CD 43.73 NE 69.14 CZ 83.77 NH1 81.65 NH2 88.12
A TRP - 19 -59.8 133.0 N 17.34 CA 17.11 C 16.08 O 17.29 CB 16.96 CG 15.54 CD1 16.69 CD2 15.85 NE1 15.81 CE2 15.52 CE3 17.73 CZ2 16.82 CZ3 16.75 CH2 17.75
A LYS - 63 -76.1 120.2 N 16.73 CA 17.4 C 14.77 O 16.54 CB 17.87 CG 18.68 CD 21.5 CE 21.56 NZ 27.12
A ALA - 11 -90.0 -30.3 N 16.56 CA 15.76 C 14.88 O 17.73 CB 15.78
A GLY S 13 -89.3 106.8 N 15.19 CA 15.26 C 16.09 O 17.51
A TYR - 21 -58.5 124.2 N 14.08 CA 14.33 C 14.86 O 15.03 CB 14.53 CG 15.16 CD1 15.67 CD2 15.42 CE1 16.48 CE2 14.61 CZ 18.65 OH 18.24
A ASP - 37 -153.7 -171.1 N 16.87 CA 16.07 C 16.88 O 16.79 CB 18.14 CG 18.13 OD1 20.09 OD2 24.35
A ALA G 44 -69.1 -22.0 N 17.76 CA 20.53 C 21.22 O 24.25 CB 20.69
A ASP G 129 -63.2 -14.2 N 21.05 CA 21.38 C 28.89 O 31.05 CB 25.67 CG 32.49 OD1 32.41 OD2 43.5
A ASP G 5 -85.1 -14.9 N 21.34 CA 20.25 C 20.57 O 19.39 CB 19.2 CG 19.38 OD1 19.7 OD2 17.5
A SER S 4 -92.7 -12.6 N 25.53 CA 26.81 C 27.62 O 26.91 CB 31.28 OG 38.91
A GLY S 54 74.3 16.2 N 26.46 CA 28.66 C 32.72 O 33.39
A ALA S 37 -164.2 158.4 N 31.59 CA 31.35 C 34.29 O 29.81 CB 27.31
A PRO S 103 -62.3 166.6 N 32.95 CA 29.82 C 24.69 O 23.62 CB 32.99 CG 36.26 CD 35.05
A PRO - 64 -56.9 134.9 N 26.1 CA 24.41 C 30.63 O 26.26 CB 26.66 CG 27.04 CD 27.31
A VAL S 68 -65.9 -35.6 N 21.88 CA 22.56 C 28.35 O 28.2 CB 28.82 CG1 26.65 CG2 32.34
A GLY S 44 -113.0 -145.7 N 24.19 CA 26.02 C 21.03 O 22.61
A GLU S 159 -69.9 -33.0 N 23.37 CA 22.21 C 25.42 O 22.75 CB 25.94 CG 31.39 CD 32.68 OE1 33.02 OE2 25.77
A PHE S 60 -149.8 149.8 N 20.24 CA 16.4 C 17.55 O 16.07 CB 17.12 CG 17.15 CD1 16.26 CD2 17.82 CE1 16.63 CE2 20.24 CZ 18.43
A TRP - 5 -58.2 138.6 N 18.32 CA 19.4 C 15.34 O 16.55 CB 21.02 CG 18.62 CD1 21.86 CD2 18.54 NE1 23.89 CE2 20.32 CE3 19.74 CZ2 23.25 CZ3 19.8 CH2 20.45
A ARG - 77 -130.3 129.2 N 15.81 CA 15.5 C 15.56 O 16.55 CB 17.35 CG 18.56 CD 21.12 NE 18.13 CZ 24.83 NH1 24.41 NH2 22.39
A PRO H 14 -51.7 -39.1 N 16.29 CA 15.79 C 14.22 O 17.43 CB 15.71 CG 18.0 CD 16.35
A THR H 21 -72.8 -66.1 N 15.72 CA 15.01 C 17.75 O 17.97 CB 18.64 OG1 20.07 CG2 20.18
A LEU H 58 -66.0 -30.8 N 17.39 CA 19.4 C 18.73 O 20.6 CB 19.65 CG 24.85 CD1 29.11 CD2 29.87
A ASP H 2 -75.7 -24.8 N 17.4 CA 18.08 C 20.32 O 19.94 CB 18.5 CG 20.14 OD1 22.41 OD2 19.79
A SER H 10 -68.0 -45.6 N 19.06 CA 18.76 C 17.42 O 20.8 CB 18.99 OG 19.18
A LYS H 106 -50.2 -48.4 N 18.0 CA 17.9 C 21.79 O 21.23 CB 20.18 CG 23.23 CD 23.99 CE 34.6 NZ 44.08
A GLN H 68 -70.3 -39.8 N 21.42 CA 24.68 C 21.48 O 23.87 CB 26.44 CG 31.17 CD 37.3 OE1 38.99 NE2 34.65
A ALA H 2 -65.5 -39.6 N 19.39 CA 20.92 C 22.82 O 23.95 CB 23.63
A PHE H 67 -70.6 -43.3 N 20.76 CA 22.46 C 24.14 O 24.68 CB 21.94 CG 22.36 CD1 22.71 CD2 21.69 CE1 23.57 CE2 25.62 CZ 22.88
A ALA H 73 -67.8 -37.3 N 23.39 CA 26.58 C 28.47 O 29.88 CB 25.83
A GLN H 136 -96.4 -6.3 N 25.68 CA 29.58 C 32.82 O 28.37 CB 31.53 CG 34.84 CD 46.48 OE1 54.12 NE2 49.85
A GLY T 64 76.4 34.8 N 26.82 CA 25.84 C 28.86 O 28.61
A THR - 45 -114.4 10.1 N 21.42 CA 22.56 C 20.27 O 20.28 CB 24.73 OG1 25.62 CG2 25.4
A GLN S 24 -61.4 153.1 N 21.84 CA 21.65 C 22.42 O 22.65 CB 18.7 CG 20.91 CD 23.26 OE1 18.97 NE2 22.71
A SER - 28 -58.7 147.9 N 20.99 CA 22.75 C 25.15 O 20.68 CB 29.15 OG 34.34
A ALA H 83 -62.7 -32.3 N 21.51 CA 22.53 C 21.02 O 22.24 CB 23.79
A ASP H 54 -59.3 -43.8 N 22.68 CA 20.46 C 18.36 O 21.26 CB 20.21 CG 21.84 OD1 23.02 OD2 22.82
A ILE H 4 -63.0 -47.7 N 17.51 CA 17.12 C 19.07 O 16.43 CB 17.42 CG1 17.94 CG2 16.85 CD1 19.48
A VAL H 47 -59.6 -43.6 N 19.36 CA 20.81 C 18.74 O 19.81 CB 22.54 CG1 25.54 CG2 21.26
A ALA H 41 -62.5 -38.2 N 18.58 CA 20.2 C 18.28 O 18.49 CB 20.54
A GLU H 4 -68.3 -37.9 N 17.18 CA 17.45 C 15.28 O 17.33 CB 16.7 CG 16.53 CD 21.61 OE1 18.95 OE2 22.58
A GLN H 11 -62.6 -39.8 N 16.55 CA 15.88 C 17.72 O 17.91 CB 18.32 CG 16.64 CD 18.4 OE1 20.87 NE2 17.77
A GLU H 123 -60.6 -38.9 N 19.85 CA 20.62 C 19.99 O 20.05 CB 22.35 CG 24.83 CD 26.63 OE1 33.54 OE2 32.67
A LYS H 28 -62.6 -42.2 N 20.26 CA 19.44 C 18.87 O 18.55 CB 19.85 CG 21.87 CD 22.68 CE 26.5 NZ 22.37
A LEU H 0 -62.5 -43.9 N 18.47 CA 16.36 C 17.42 O 19.55 CB 17.34 CG 18.23 CD1 18.28 CD2 20.47
A LEU H 96 -67.0 -38.8 N 19.59 CA 21.38 C 21.65 O 21.66 CB 21.95 CG 24.85 CD1 32.87 CD2 27.76
A TRP H 56 -58.3 -38.5 N 20.97 CA 19.57 C 21.29 O 21.81 CB 21.9 CG 24.62 CD1 27.81 CD2 26.01 NE1 27.88 CE2 28.23 CE3 22.29 CZ2 26.28 CZ3 22.95 CH2 25.1
A ALA - 0 -79.0 148.5 N 20.12 CA 18.48 C 18.28 O 20.8 CB 19.78
A ASP S 43 -91.7 -31.6 N 17.95 CA 21.78 C 18.97 O 17.92 CB 30.11 CG 37.58 OD1 35.54 OD2 33.72
A THR E 0 -135.0 133.2 N 18.36 CA 18.86 C 18.07 O 17.4 CB 23.51 OG1 28.85 CG2 25.27
A VAL E 0 -123.7 127.7 N 16.52 CA 14.92 C 16.36 O 16.17 CB 14.49 CG1 15.07 CG2 16.76
A ILE E 2 -115.7 130.8 N 13.67 CA 14.88 C 15.32 O 14.67 CB 16.78 CG1 18.47 CG2 17.4 CD1 20.66
A PHE E 0 -110.9 116.4 N 13.62 CA 14.64 C 14.8 O 14.24 CB 14.49 CG 14.79 CD1 18.4 CD2 18.08 CE1 19.06 CE2 19.94 CZ 17.12
A GLN E 1 -117.1 123.7 N 12.84 CA 12.87 C 14.47 O 13.2 CB 13.55 CG 14.27 CD 18.2 OE1 19.55 NE2 16.67
A PHE E 0 -162.9 151.1 N 13.01 CA 13.37 C 13.63 O 14.62 CB 13.56 CG 13.48 CD1 16.26 CD2 14.41 CE1 15.33 CE2 15.23 CZ 14.87
A PRO E 9 -70.7 144.0 N 13.11 CA 12.56 C 11.39 O 11.52 CB 12.22 CG 11.97 CD 12.2
A LEU - 21 -74.8 118.3 N 12.52 CA 12.82 C 12.81 O 12.68 CB 11.97 CG 12.92 CD1 14.26 CD2 12.85
A TRP B 35 -122.7 116.0 N 12.58 CA 10.48 C 10.78 O 11.36 CB 11.67 CG 11.27 CD1 12.65 CD2 11.56 NE1 11.91 CE2 13.04 CE3 13.95 CZ2 13.18 CZ3 13.34 CH2 10.99
A TRP T 31 53.6 45.9 N 11.44 CA 12.15 C 11.74 O 12.96 CB 11.4 CG 11.6 CD1 13.17 CD2 11.88 NE1 13.67 CE2 13.2 CE3 12.15 CZ2 13.78 CZ3 13.95 CH2 16.66
A PHE T 18 59.7 32.9 N 11.54 CA 11.24 C 13.97 O 15.68 CB 13.1 CG 11.4 CD1 12.84 CD2 12.97 CE1 13.66 CE2 14.44 CZ 15.12
A SER B 22 -165.1 179.4 N 12.06 CA 13.5 C 12.64 O 13.27 CB 15.11 OG 18.26
A PRO - 0 -52.5 147.9 N 11.44 CA 12.72 C 11.91 O 10.69 CB 13.59 CG 13.84 CD 12.45
A ALA H 0 -54.9 -37.5 N 12.04 CA 11.21 C 11.03 O 12.2 CB 13.25
A ILE H 8 -61.9 -37.4 N 11.3 CA 11.7 C 13.78 O 13.18 CB 13.14 CG1 16.65 CG2 13.34 CD1 17.72
A LYS H 6 -59.7 -35.1 N 12.65 CA 12.88 C 13.29 O 12.57 CB 13.22 CG 13.42 CD 15.73 CE 16.73 NZ 14.26
A GLY H 0 -73.7 -28.1 N 13.41 CA 13.45 C 13.12 O 14.71
A TRP H 0 -61.0 -47.5 N 12.76 CA 12.91 C 13.5 O 14.28 CB 14.96 CG 14.73 CD1 14.73 CD2 16.08 NE1 16.06 CE2 16.12 CE3 16.88 CZ2 17.76 CZ3 18.88 CH2 18.0
A ILE H 0 -61.1 -51.7 N 13.2 CA 12.23 C 12.67 O 13.72 CB 13.01 CG1 13.87 CG2 14.73 CD1 14.47
A ASP H 11 -60.7 -38.4 N 12.66 CA 12.77 C 14.9 O 15.39 CB 12.15 CG 13.96 OD1 14.1 OD2 14.4
A ARG H 5 -92.8 -30.2 N 13.76 CA 14.16 C 16.38 O 15.58 CB 14.16 CG 13.19 CD 14.48 NE 16.68 CZ 18.08 NH1 16.24 NH2 19.15
A VAL H 0 -81.1 -37.1 N 14.39 CA 14.33 C 15.47 O 14.52 CB 14.88 CG1 15.9 CG2 15.26
A TYR S 2 -76.6 73.8 N 17.01 CA 16.53 C 20.15 O 20.11 CB 17.93 CG 16.24 CD1 14.68 CD2 17.39 CE1 15.63 CE2 15.74 CZ 15.21 OH 17.17
A ALA - 3 -79.4 164.1 N 19.25 CA 18.49 C 19.83 O 18.19 CB 20.6
A TRP B 59 -72.0 119.4 N 18.29 CA 20.38 C 23.25 O 23.27 CB 20.28 CG 23.54 CD1 26.06 CD2 27.26 NE1 30.39 CE2 28.34 CE3 32.21 CZ2 35.13 CZ3 47.28 CH2 44.05
A GLY T 28 107.1 -16.3 N 21.3 CA 23.11 C 25.42 O 23.63
A PHE T 6 -111.9 -65.3 N 20.08 CA 19.24 C 19.43 O 21.72 CB 19.13 CG 20.28 CD1 22.69 CD2 19.15 CE1 21.68 CE2 20.11 CZ 21.65
A ALA T 4 -99.4 -21.3 N 18.67 CA 18.8 C 19.48 O 19.75 CB 21.0
A TYR B 47 -149.7 168.0 N 19.24 CA 20.42 C 22.74 O 20.44 CB 19.01 CG 20.53 CD1 17.79 CD2 23.56 CE1 19.49 CE2 27.65 CZ 23.04 OH 23.84
A GLY S 30 76.6 13.0 N 24.42 CA 23.59 C 32.57 O 34.09
A VAL - 47 -93.7 135.2 N 29.51 CA 31.13 C 33.54 O 29.46 CB 37.5 CG1 43.18 CG2 39.77
A GLY S 38 98.6 178.1 N 35.6 CA 35.27 C 39.05 O 35.33
A GLU - 80 -70.2 138.1 N 40.52 CA 39.54 C 41.35 O 39.2 CB 48.41 CG 51.25 CD 61.03 OE1 53.52 OE2 56.24
A HIS B 96 -115.4 116.3 N 34.97 CA 36.35 C 43.12 O 48.14 CB 35.71 CG 36.54 ND1 40.14 CD2 35.35 CE1 32.57 NE2 40.03
A SER S 28 -156.2 -169.2 N 43.94 CA 44.64 C 47.04 O 43.74 CB 43.14 OG 42.94
A ASP S 134 -75.3 -7.6 N 45.36 CA 48.92 C 39.72 O 36.68 CB 55.37 CG 63.23 OD1 60.17 OD2 71.86
A ARG S 177 -120.6 0.1 N 39.48 CA 41.34 C 32.87 O 29.08 CB 53.07 CG 62.35 CD 74.43 NE 82.59 CZ 87.02 NH1 83.5 NH2 83.52
A HIS - 30 -162.2 136.9 N 29.94 CA 29.09 C 32.51 O 30.14 CB 32.31 CG 28.96 ND1 30.94 CD2 29.2 CE1 28.85 NE2 28.25
A TRP B 49 -130.5 70.1 N 26.57 CA 24.48 C 23.78 O 21.98 CB 25.11 CG 25.33 CD1 26.32 CD2 29.41 NE1 29.35 CE2 32.79 CE3 35.58 CZ2 40.93 CZ3 43.99 CH2 39.71
A GLY S 5 84.3 147.9 N 21.13 CA 22.62 C 20.15 O 19.95
A ASP S 51 -82.0 87.3 N 21.1 CA 20.75 C 19.65 O 20.31 CB 23.15 CG 29.44 OD1 28.67 OD2 31.84
A ARG - 28 -155.3 170.8 N 17.78 CA 15.71 C 15.82 O 16.07 CB 15.89 CG 15.58 CD 15.36 NE 14.88 CZ 19.08 NH1 18.87 NH2 18.99
A TYR S 0 58.1 79.0 N 14.33 CA 12.68 C 15.08 O 16.43 CB 14.02 CG 13.85 CD1 13.47 CD2 13.31 CE1 11.95 CE2 12.46 CZ 12.82 OH 13.91
A GLY S 13 86.7 9.1 N 15.6 CA 17.21 C 18.86 O 20.15
A GLU - 31 -144.5 163.1 N 18.36 CA 21.93 C 18.84 O 17.72 CB 26.88 CG 36.17 CD 36.11 OE1 26.37 OE2 36.28
A GLY S 20 125.8 -170.6 N 18.93 CA 19.62 C 19.93 O 19.77
A THR T 49 -58.4 -31.0 N 18.3 CA 21.4 C 22.02 O 23.09 CB 22.56 OG1 23.69 CG2 24.17
A PHE T 0 -94.2 7.5 N 18.76 CA 17.86 C 18.85 O 19.56 CB 17.97 CG 17.11 CD1 21.36 CD2 18.53 CE1 23.55 CE2 19.81 CZ 22.75
A VAL T 95 -57.8 140.5 N 19.19 CA 21.47 C 23.04 O 25.45 CB 21.53 CG1 21.64 CG2 21.57
A GLY T 45 89.9 -9.7 N 24.59 CA 27.74 C 30.19 O 29.51
A LYS - 27 -105.4 157.1 N 19.96 CA 17.73 C 17.32 O 17.66 CB 18.31 CG 18.9 CD 19.42 CE 23.59 NZ 22.27
A ARG E 22 -113.9 153.0 N 16.91 CA 16.77 C 15.35 O 16.16 CB 17.97 CG 24.84 CD 28.2 NE 35.54 CZ 29.89 NH1 24.63 NH2 38.08
A ALA E 0 -140.7 152.1 N 14.98 CA 13.91 C 14.34 O 16.17 CB 15.32
A LEU E 0 -96.0 140.5 N 14.19 CA 12.35 C 13.9 O 13.79 CB 11.56 CG 12.74 CD1 13.55 CD2 14.16
A ILE E 1 -122.1 111.5 N 11.81 CA 13.42 C 13.65 O 14.52 CB 15.76 CG1 16.63 CG2 16.96 CD1 20.24
A VAL E 0 -124.2 128.8 N 13.01 CA 13.46 C 13.7 O 13.98 CB 14.09 CG1 15.05 CG2 17.28
A THR E 5 -103.1 132.0 N 13.41 CA 12.99 C 13.7 O 11.93 CB 16.32 OG1 15.58 CG2 17.39
A ALA - 1 -126.1 147.0 N 13.89 CA 14.69 C 15.23 O 16.08 CB 14.52
A GLY S 32 -81.6 -28.8 N 13.54 CA 13.94 C 17.07 O 15.28
A GLY S 17 -71.1 161.9 N 15.16 CA 15.36 C 15.86 O 15.65
A TRP - 45 -78.4 153.7 N 15.22 CA 15.46 C 13.6 O 13.35 CB 15.95 CG 18.41 CD1 20.31 CD2 17.97 NE1 21.48 CE2 20.43 CE3 22.33 CZ2 25.72 CZ3 24.2 CH2 22.1
A ALA G 46 -50.0 -44.5 N 14.11 CA 14.68 C 15.42 O 15.83 CB 17.8
A GLU G 85 -61.5 -29.3 N 16.23 CA 16.52 C 15.14 O 15.19 CB 20.67 CG 27.6 CD 38.34 OE1 24.01 OE2 44.5
A HIS G 4 -67.8 -17.9 N 13.53 CA 13.7 C 13.65 O 12.68 CB 12.89 CG 14.41 ND1 15.68 CD2 15.78 CE1 16.13 NE2 15.25
A TYR G 16 -111.0 13.4 N 12.17 CA 12.42 C 13.14 O 13.91 CB 13.59 CG 13.29 CD1 12.96 CD2 12.4 CE1 12.65 CE2 13.49 CZ 12.73 OH 12.96
A SER S 32 -73.4 176.9 N 15.32 CA 15.25 C 15.44 O 14.05 CB 16.17 OG 15.58
A PRO T 79 -62.0 -30.8 N 15.21 CA 16.07 C 14.67 O 16.6 CB 19.08 CG 17.95 CD 19.49
A ARG T 44 -106.5 14.4 N 15.43 CA 16.22 C 17.53 O 15.79 CB 17.33 CG 18.31 CD 19.28 NE 17.77 CZ 17.95 NH1 19.38 NH2 18.71
A GLY B 0 -78.6 144.9 N 14.69 CA 14.12 C 12.88 O 14.15
A ILE T 0 -59.8 -26.6 N 11.5 CA 12.9 C 13.94 O 14.59 CB 13.49 CG1 15.28 CG2 14.56 CD1 15.42
A ASN T 4 -78.8 -13.4 N 12.73 CA 12.69 C 15.57 O 16.38 CB 13.31 CG 13.04 OD1 15.49 ND2 14.16
A GLY - 0 103.2 151.0 N 14.01 CA 13.58 C 13.05 O 13.31
A PRO - 16 -61.0 135.5 N 12.79 CA 12.87 C 13.46 O 12.19 CB 14.7 CG 14.77 CD 14.72
A ILE H 19 -52.8 -44.3 N 13.23 CA 12.92 C 12.82 O 14.35 CB 15.63 CG1 15.87 CG2 17.11 CD1 15.55
A ASP H 92 -70.9 -24.0 N 13.31 CA 15.12 C 14.72 O 17.54 CB 18.63 CG 23.75 OD1 26.52 OD2 34.19
A ASP H 38 -75.4 -42.6 N 13.44 CA 13.73 C 15.09 O 15.14 CB 16.61 CG 20.54 OD1 23.56 OD2 23.16
A ILE H 3 -60.0 -37.7 N 14.92 CA 14.64 C 13.82 O 14.51 CB 16.65 CG1 21.9 CG2 21.71 CD1 25.46
A LEU T 0 -86.6 -4.3 N 13.46 CA 14.32 C 14.25 O 13.47 CB 15.72 CG 16.4 CD1 18.09 CD2 17.37
A PHE H 7 -52.7 -48.0 N 11.99 CA 12.27 C 11.28 O 11.82 CB 13.45 CG 11.87 CD1 13.13 CD2 13.64 CE1 12.77 CE2 14.13 CZ 14.32
A PRO H 11 -55.5 -37.0 N 11.85 CA 11.78 C 13.12 O 14.26 CB 13.68 CG 14.96 CD 14.56
A ILE H 6 -75.2 -55.8 N 12.14 CA 10.2 C 10.69 O 11.8 CB 12.58 CG1 15.15 CG2 14.53 CD1 15.0
A GLN I 4 -67.2 -43.6 N 11.89 CA 11.8 C 11.0 O 12.32 CB 11.12 CG 12.26 CD 14.93 OE1 16.99 NE2 16.55
A HIS I 0 -88.2 -42.3 N 11.51 CA 11.68 C 11.9 O 13.27 CB 13.4 CG 11.85 ND1 12.36 CD2 14.4 CE1 13.62 NE2 13.45
A GLY I 2 -77.5 -31.9 N 12.73 CA 12.47 C 11.73 O 13.35
A LEU I 0 -109.9 -52.9 N 13.58 CA 12.79 C 11.83 O 13.29 CB 13.04 CG 16.56 CD1 16.22 CD2 19.74
A PHE I 16 -67.6 -33.9 N 13.1 CA 12.32 C 14.4 O 14.17 CB 13.72 CG 13.21 CD1 14.81 CD2 13.67 CE1 16.28 CE2 15.36 CZ 14.22
A TYR T 22 -52.6 -56.4 N 12.24 CA 12.39 C 13.67 O 14.89 CB 12.82 CG 11.88 CD1 14.11 CD2 13.38 CE1 14.58 CE2 15.25 CZ 16.35 OH 17.66
A PRO T 1 -84.0 8.5 N 14.02 CA 15.71 C 15.58 O 17.52 CB 16.4 CG 15.36 CD 14.27
A GLY T 3 113.5 0.8 N 14.67 CA 16.73 C 16.79 O 17.38
A PHE - 1 -63.6 147.4 N 15.19 CA 15.23 C 14.96 O 16.89 CB 15.41 CG 14.77 CD1 16.19 CD2 15.73 CE1 15.34 CE2 18.62 CZ 17.84
A GLU E 61 -80.8 125.3 N 17.75 CA 18.89 C 16.62 O 17.74 CB 25.06 CG 38.75 CD 52.19 OE1 41.11 OE2 66.32
A VAL E 1 -100.7 122.7 N 15.32 CA 14.42 C 15.25 O 16.0 CB 14.15 CG1 17.01 CG2 16.57
A LEU - 0 -83.3 157.2 N 14.31 CA 12.48 C 13.92 O 14.97 CB 13.84 CG 18.0 CD1 22.94 CD2 23.38
A PRO - 48 -56.9 142.2 N 14.28 CA 14.31 C 13.39 O 15.1 CB 16.89 CG 17.01 CD 16.24
A PRO - 19 -73.0 156.2 N 13.21 CA 14.32 C 16.43 O 14.88 CB 14.26 CG 14.5 CD 15.93
A LEU E 15 -101.7 111.3 N 13.67 CA 14.6 C 14.54 O 12.81 CB 13.21 CG 15.52 CD1 16.91 CD2 17.66
A VAL E 25 -122.4 124.9 N 12.46 CA 13.02 C 13.95 O 13.15 CB 13.87 CG1 15.02 CG2 14.48
A PHE E 18 -105.4 133.9 N 13.13 CA 14.19 C 14.69 O 14.21 CB 15.04 CG 14.71 CD1 16.8 CD2 16.79 CE1 18.67 CE2 16.57 CZ 16.59
A TYR - 55 -108.4 163.3 N 12.52 CA 12.61 C 16.27 O 16.01 CB 13.54 CG 14.3 CD1 13.8 CD2 15.13 CE1 14.91 CE2 16.36 CZ 16.96 OH 17.51
A ARG S 112 51.5 41.0 N 14.48 CA 17.59 C 18.67 O 17.32 CB 22.98 CG 30.54 CD 36.83 NE 41.87 CZ 46.57 NH1 40.81 NH2 50.83
A THR G 14 -73.7 -21.5 N 13.74 CA 13.54 C 14.48 O 15.97 CB 15.09 OG1 16.41 CG2 19.23
A ASP G 69 -72.0 -20.1 N 17.75 CA 16.65 C 22.53 O 21.4 CB 18.78 CG 26.58 OD1 23.05 OD2 36.01
A LYS G 158 -105.4 17.7 N 18.08 CA 27.44 C 24.74 O 22.41 CB 32.37 CG 44.98 CD 55.1 CE 71.19 NZ 68.95
A THR - 38 -59.7 129.0 N 20.0 CA 16.95 C 20.8 O 20.9 CB 17.02 OG1 16.71 CG2 16.64
A ASP - 102 -115.0 -175.6 N 22.56 CA 26.48 C 24.77 O 21.45 CB 24.5 CG 30.77 OD1 25.41 OD2 33.1
A ALA H 86 -59.9 -39.8 N 22.92 CA 20.87 C 15.49 O 20.22 CB 24.65
A GLY H 42 -64.6 -45.5 N 18.92 CA 18.24 C 18.85 O 19.91
A GLN H 47 -64.0 -40.0 N 20.65 CA 17.74 C 17.91 O 18.06 CB 17.7 CG 21.15 CD 24.27 OE1 28.62 NE2 22.75
A PHE H 64 -66.0 -39.9 N 16.67 CA 18.77 C 17.91 O 17.79 CB 18.27 CG 19.57 CD1 20.23 CD2 23.12 CE1 21.44 CE2 24.16 CZ 26.34
A ALA H 57 -60.1 -40.2 N 18.36 CA 20.95 C 19.05 O 17.95 CB 24.49
A ASP H 116 -64.7 -42.5 N 18.07 CA 20.47 C 19.2 O 19.25 CB 21.33 CG 30.59 OD1 29.68 OD2 29.89
A GLN H 7 -60.3 -48.6 N 19.43 CA 18.24 C 19.71 O 18.33 CB 17.89 CG 16.54 CD 16.58 OE1 17.61 NE2 16.97
A CYS H 19 -54.5 -44.5 N 19.02 CA 18.0 C 17.23 O 17.72 CB 21.71 SG 32.28
A ALA H 63 -67.4 -39.5 N 19.42 CA 21.52 C 20.05 O 19.23 CB 23.65
A ALA H 37 -63.5 -44.9 N 19.81 CA 20.05 C 15.91 O 16.94 CB 19.88
A LEU H 1 -61.8 -48.1 N 14.13 CA 16.39 C 17.77 O 17.18 CB 16.7 CG 16.4 CD1 19.74 CD2 18.04
A ALA H 17 -53.0 -45.5 N 18.49 CA 17.92 C 16.79 O 20.6 CB 19.76
A GLU H 105 -61.3 -46.4 N 18.84 CA 21.22 C 22.12 O 20.34 CB 23.32 CG 32.48 CD 46.06 OE1 42.3 OE2 51.88
A ARG H 29 -58.9 -43.5 N 19.89 CA 17.99 C 17.02 O 19.72 CB 17.79 CG 17.61 CD 17.6 NE 18.78 CZ 18.47 NH1 18.21 NH2 16.62
A LEU H 7 -66.0 -32.1 N 16.99 CA 17.49 C 19.68 O 21.72 CB 18.82 CG 17.27 CD1 19.99 CD2 20.28
A ASP H 91 -77.0 -15.2 N 20.74 CA 22.97 C 28.02 O 27.02 CB 25.73 CG 24.57 OD1 26.45 OD2 28.39
A THR T 21 -117.4 18.5 N 23.72 CA 23.12 C 22.86 O 24.59 CB 23.78 OG1 23.38 CG2 24.92
A LEU T 10 -57.0 -33.8 N 21.06 CA 22.16 C 26.76 O 22.89 CB 24.72 CG 24.15 CD1 23.01 CD2 23.69
A TRP T 96 -103.1 4.7 N 25.83 CA 30.58 C 29.57 O 33.23 CB 33.95 CG 38.88 CD1 44.7 CD2 38.62 NE1 45.2 CE2 40.64 CE3 38.56 CZ2 32.07 CZ3 38.21 CH2 38.99
A GLN T 153 -104.5 -26.3 N 25.72 CA 26.39 C 30.64 O 28.38 CB 31.76 CG 41.18 CD 53.71 OE1 52.9 NE2 54.29
A THR S 29 -71.5 141.7 N 20.33 CA 19.85 C 17.42 O 19.64 CB 22.14 OG1 22.6 CG2 20.8
A GLU - 164 -75.2 135.9 N 17.81 CA 18.24 C 15.81 O 16.42 CB 18.48 CG 22.68 CD 24.09 OE1 25.14 OE2 21.26
A PRO - 44 -68.1 159.9 N 17.94 CA 16.93 C 18.37 O 17.58 CB 18.82 CG 26.73 CD 20.27
A ILE - 25 -57.5 131.2 N 15.18 CA 14.47 C 14.69 O 15.77 CB 15.1 CG1 17.32 CG2 15.72 CD1 16.17
A PRO - 72 -87.0 54.4 N 14.58 CA 14.78 C 15.98 O 14.87 CB 15.43 CG 17.65 CD 17.64
A PHE B 21 -58.6 149.2 N 14.01 CA 14.21 C 14.59 O 14.53 CB 14.99 CG 13.98 CD1 13.76 CD2 14.1 CE1 13.58 CE2 14.46 CZ 13.87
A ARG - 27 -86.1 129.6 N 13.64 CA 14.35 C 16.54 O 13.81 CB 13.52 CG 15.41 CD 14.65 NE 14.89 CZ 17.31 NH1 17.22 NH2 16.68
A ARG - 122 -65.4 143.3 N 14.02 CA 13.7 C 14.91 O 14.34 CB 15.13 CG 17.61 CD 18.46 NE 18.34 CZ 21.91 NH1 22.18 NH2 22.25
A GLN S 0 -67.4 -44.0 N 13.17 CA 14.5 C 12.32 O 16.27 CB 13.71 CG 15.51 CD 15.47 OE1 15.68 NE2 18.79
A ASN T 15 -102.4 6.7 N 15.2 CA 16.54 C 20.84 O 20.44 CB 17.05 CG 18.05 OD1 17.18 ND2 21.63
A HIS T 96 -114.2 25.7 N 19.37 CA 18.92 C 20.02 O 19.69 CB 17.72 CG 20.6 ND1 26.99 CD2 23.62 CE1 30.78 NE2 27.62
A GLY T 43 111.6 -15.9 N 18.02 CA 21.37 C 18.94 O 17.26
A ASP T 43 -70.8 -25.7 N 16.27 CA 14.43 C 14.33 O 16.58 CB 14.47 CG 18.19 OD1 17.71 OD2 17.59
A TYR B 8 -117.4 145.5 N 15.56 CA 14.29 C 14.05 O 16.37 CB 13.5 CG 13.42 CD1 15.41 CD2 13.02 CE1 14.6 CE2 12.31 CZ 13.1 OH 16.71
A LEU - 83 -74.7 135.8 N 17.24 CA 17.67 C 21.23 O 19.87 CB 19.62 CG 23.08 CD1 26.18 CD2 24.01
A ILE T 34 -121.0 126.9 N 19.75 CA 21.25 C 22.91 O 22.1 CB 21.77 CG1 23.3 CG2 22.18 CD1 27.73
A PRO T 35 -102.5 9.7 N 21.66 CA 21.66 C 19.36 O 19.69 CB 23.66 CG 24.08 CD 25.09
A SER T 32 -69.2 -23.9 N 19.23 CA 18.28 C 16.73 O 16.69 CB 21.75 OG 21.83
A LEU - 0 54.1 44.3 N 17.2 CA 16.03 C 16.79 O 17.03 CB 14.78 CG 16.17 CD1 16.3 CD2 18.56
A THR B 27 -110.3 143.3 N 15.33 CA 15.91 C 16.42 O 15.28 CB 20.18 OG1 20.11 CG2 20.98
A LEU B 3 -61.1 132.5 N 14.96 CA 15.92 C 15.49 O 16.4 CB 15.97 CG 15.33 CD1 15.54 CD2 17.85
A ARG - 81 -60.4 146.4 N 18.65 CA 18.56 C 16.78 O 17.53 CB 19.71 CG 20.33 CD 20.08 NE 20.44 CZ 19.91 NH1 24.36 NH2 23.67
A PRO T 93 -68.1 -22.7 N 21.25 CA 23.16 C 21.44 O 24.97 CB 25.7 CG 26.73 CD 23.39
A GLU T 157 -75.1 -13.2 N 23.14 CA 22.68 C 24.28 O 24.85 CB 30.15 CG 39.2 CD 52.3 OE1 61.24 OE2 70.32
A LEU S 34 -94.8 140.0 N 20.71 CA 18.72 C 20.95 O 19.59 CB 19.27 CG 18.28 CD1 17.78 CD2 20.17
A ALA S 16 39.5 57.6 N 20.92 CA 21.31 C 23.68 O 19.9 CB 20.63
A PRO T 88 -67.2 134.3 N 23.85 CA 22.81 C 20.89 O 24.06 CB 26.05 CG 27.68 CD 26.44
A GLY T 88 81.9 -0.3 N 24.18 CA 27.27 C 32.11 O 31.71
A GLN - 105 -112.4 163.1 N 20.58 CA 19.97 C 18.05 O 19.22 CB 21.38 CG 29.01 CD 39.16 OE1 45.05 NE2 39.58
A SER - 73 -151.2 171.9 N 19.03 CA 19.75 C 17.93 O 16.88 CB 23.01 OG 23.34
A GLY S 10 98.3 -175.1 N 17.58 CA 16.75 C 15.57 O 16.15
A LEU G 9 -64.5 -27.6 N 15.81 CA 14.73 C 18.12 O 17.28 CB 15.46 CG 15.52 CD1 18.75 CD2 14.32
A ALA G 67 -70.8 -20.3 N 17.46 CA 19.47 C 17.46 O 16.83 CB 23.25
A VAL G 1 -70.9 -10.6 N 14.26 CA 15.33 C 16.23 O 17.89 CB 16.08 CG1 18.18 CG2 16.03
A HIS G 0 -90.4 7.1 N 14.2 CA 14.37 C 14.5 O 15.85 CB 13.85 CG 14.42 ND1 15.06 CD2 15.43 CE1 16.54 NE2 17.1
A LEU B 65 -116.7 136.6 N 16.76 CA 16.7 C 17.26 O 20.19 CB 20.15 CG 24.46 CD1 30.94 CD2 33.87
A ALA - 111 -92.9 360.0 N 19.84 CA 22.64 C 34.21 O 35.37 CB 25.53 OXT 37.93
B PHE - 184 360.0 -78.2 N 85.47 CA 82.86 C 86.25 O 91.57 CB 75.49 CG 65.9 CD1 63.02 CD2 67.17 CE1 59.75 CE2 65.31 CZ 59.25
B GLN - 155 84.2 81.1 N 85.03 CA 72.19 C 59.43 O 47.94 CB 75.88 CG 80.12 CD 83.74 OE1 82.78 NE2 82.89
B SER - 47 -64.3 116.6 N 46.67 CA 46.96 C 46.86 O 42.01 CB 46.18 OG 48.07
B LYS E 64 -111.0 114.7 N 23.18 CA 19.71 C 23.25 O 21.32 CB 22.98 CG 27.33 CD 30.03 CE 37.25 NZ 40.41
B VAL E 1 -116.3 129.6 N 20.6 CA 19.61 C 18.29 O 19.77 CB 20.13 CG1 23.44 CG2 22.9
B LEU E 0 -109.9 126.5 N 16.6 CA 16.69 C 18.83 O 17.01 CB 14.84 CG 16.03 CD1 18.72 CD2 18.9
B LEU E 5 -110.0 114.8 N 16.37 CA 17.52 C 18.81 O 17.57 CB 18.05 CG 18.47 CD1 20.05 CD2 21.11
B ILE E 0 -95.0 122.2 N 15.42 CA 15.13 C 16.52 O 15.73 CB 14.5 CG1 18.72 CG2 17.55 CD1 19.85
B TYR E 2 -132.1 125.8 N 16.32 CA 15.03 C 14.23 O 15.36 CB 15.84 CG 15.62 CD1 17.21 CD2 16.15 CE1 17.29 CE2 17.08 CZ 18.6 OH 21.85
B ALA - 0 -124.5 91.6 N 12.39 CA 13.99 C 14.95 O 16.55 CB 14.91
B HIS - 12 -153.6 133.8 N 14.51 CA 14.32 C 15.27 O 15.65 CB 14.93 CG 14.99 ND1 15.58 CD2 14.38 CE1 15.57 NE2 15.89
B PRO S 24 -72.5 -13.0 N 18.81 CA 19.95 C 23.45 O 23.47 CB 19.89 CG 22.07 CD 19.4
B GLU - 35 -125.0 116.9 N 17.35 CA 19.43 C 18.7 O 19.54 CB 20.21 CG 20.64 CD 22.83 OE1 22.83 OE2 22.23
B PRO T 89 -65.8 -26.2 N 21.49 CA 20.39 C 19.17 O 21.22 CB 24.31 CG 28.0 CD 25.55
B ARG T 145 -87.2 8.8 N 18.0 CA 16.95 C 17.89 O 16.78 CB 17.86 CG 18.8 CD 18.86 NE 19.78 CZ 23.42 NH1 23.62 NH2 28.56
B SER S 8 -71.3 168.3 N 16.51 CA 14.13 C 15.56 O 16.72 CB 16.82 OG 15.12
B LEU H 40 -50.0 -50.9 N 14.64 CA 15.05 C 14.22 O 14.57 CB 15.16 CG 16.96 CD1 18.23 CD2 18.39
B ASN H 4 -55.6 -41.7 N 13.83 CA 13.86 C 14.84 O 16.89 CB 13.75 CG 15.26 OD1 17.05 ND2 14.21
B GLY H 0 -59.7 -44.1 N 14.41 CA 16.24 C 16.74 O 17.79
B ALA H 39 -58.8 -47.1 N 17.12 CA 19.88 C 19.86 O 18.76 CB 21.72
B LEU H 0 -67.2 -34.0 N 16.56 CA 15.82 C 15.29 O 19.12 CB 17.47 CG 18.65 CD1 19.55 CD2 19.78
B LYS H 24 -62.3 -48.5 N 17.14 CA 17.39 C 17.71 O 17.9 CB 18.48 CG 22.19 CD 27.42 CE 32.02 NZ 36.48
B ASN H 49 -65.3 -37.8 N 18.24 CA 20.58 C 19.39 O 21.9 CB 21.9 CG 21.26 OD1 27.02 ND2 27.07
B PHE H 63 -57.9 -49.8 N 18.6 CA 22.57 C 26.18 O 20.58 CB 19.84 CG 22.95 CD1 26.88 CD2 23.21 CE1 28.98 CE2 30.79 CZ 31.29
B ALA H 3 -64.6 -42.3 N 20.19 CA 19.75 C 18.56 O 19.76 CB 21.43
B ILE H 26 -62.9 -49.4 N 18.29 CA 21.57 C 23.07 O 22.85 CB 21.51 CG1 19.5 CG2 23.98 CD1 20.61
B ARG H 140 -62.6 -40.9 N 21.37 CA 23.67 C 24.99 O 24.28 CB 27.2 CG 31.55 CD 43.42 NE 52.1 CZ 54.1 NH1 52.56 NH2 58.07
B HIS H 39 -59.6 -46.8 N 22.99 CA 23.35 C 24.92 O 24.57 CB 23.17 CG 24.08 ND1 30.79 CD2 26.6 CE1 29.56 NE2 34.63
B LEU H 5 -66.1 -40.0 N 21.19 CA 23.03 C 24.14 O 26.54 CB 21.43 CG 21.6 CD1 25.7 CD2 24.68
B GLN H 105 -66.6 -41.5 N 23.25 CA 29.28 C 31.24 O 30.64 CB 25.7 CG 25.89 CD 27.54 OE1 31.16 NE2 30.93
B GLN H 156 -64.7 -28.2 N 28.43 CA 31.93 C 35.09 O 32.97 CB 32.07 CG 34.83 CD 49.18 OE1 53.08 NE2 51.15
B ALA T 44 -80.5 -4.0 N 29.71 CA 30.47 C 31.2 O 35.21 CB 27.75
B GLY T 32 100.5 6.6 N 26.62 CA 29.56 C 33.54 O 27.47
B HIS - 25 -90.1 157.5 N 25.84 CA 24.83 C 23.08 O 25.86 CB 26.12 CG 25.9 ND1 29.9 CD2 28.77 CE1 31.35 NE2 34.03
B GLU E 102 -97.0 142.2 N 21.69 CA 22.1 C 26.16 O 24.65 CB 28.02 CG 40.29 CD 44.01 OE1 45.09 OE2 46.88
B VAL E 26 -131.5 124.9 N 23.88 CA 21.81 C 24.88 O 22.55 CB 22.44 CG1 26.61 CG2 23.99
B GLN E 71 -111.5 151.6 N 20.83 CA 21.51 C 23.33 O 19.21 CB 24.91 CG 28.84 CD 30.69 OE1 38.0 NE2 29.08
B VAL E 48 -128.1 136.5 N 20.8 CA 20.68 C 19.91 O 22.41 CB 22.34 CG1 23.78 CG2 25.23
B SER E 0 -116.3 96.8 N 16.05 CA 17.29 C 21.24 O 17.34 CB 19.36 OG 18.05
B ASP E 40 -90.8 96.2 N 17.67 CA 19.27 C 17.96 O 15.62 CB 19.92 CG 19.99 OD1 17.37 OD2 19.31
B LEU T 0 -61.0 -40.5 N 14.47 CA 13.3 C 14.96 O 15.43 CB 13.79 CG 13.88 CD1 13.39 CD2 16.36
B TYR T 32 -66.3 -41.4 N 14.85 CA 15.66 C 17.01 O 17.42 CB 16.49 CG 14.39 CD1 14.83 CD2 13.29 CE1 14.77 CE2 14.38 CZ 15.14 OH 15.12
B ALA T 72 -65.7 -33.6 N 17.26 CA 19.38 C 21.25 O 20.94 CB 19.07
B ARG T 219 52.3 49.5 N 18.41 CA 20.64 C 19.9 O 18.77 CB 26.15 CG 31.38 CD 42.92 NE 58.29 CZ 70.08 NH1 74.92 NH2 66.12
B TRP - 17 -59.6 132.1 N 17.91 CA 18.07 C 15.41 O 16.61 CB 15.58 CG 15.65 CD1 16.1 CD2 14.57 NE1 15.88 CE2 14.44 CE3 16.1 CZ2 16.11 CZ3 17.48 CH2 18.4
B LYS - 66 -76.3 119.2 N 16.86 CA 17.59 C 16.53 O 17.14 CB 18.38 CG 18.71 CD 22.46 CE 25.13 NZ 27.54
B ALA - 12 -88.1 -29.0 N 14.71 CA 15.81 C 17.66 O 18.29 CB 16.63
B GLY S 13 -92.0 105.5 N 14.66 CA 16.57 C 19.85 O 19.14
B TYR - 20 -62.1 132.4 N 14.85 CA 13.26 C 15.1 O 14.56 CB 13.29 CG 15.02 CD1 16.01 CD2 14.47 CE1 17.23 CE2 16.1 CZ 18.95 OH 17.5
B ASP - 31 -159.8 -178.2 N 14.15 CA 15.72 C 15.23 O 15.41 CB 16.75 CG 19.19 OD1 20.1 OD2 24.06
B ALA G 43 -65.4 -17.0 N 16.3 CA 18.68 C 21.57 O 25.63 CB 22.34
B ASP G 126 -73.7 -14.7 N 22.25 CA 25.51 C 29.63 O 28.01 CB 29.12 CG 34.61 OD1 35.93 OD2 37.88
B ASP G 7 -82.0 -11.0 N 21.68 CA 20.96 C 20.02 O 19.59 CB 17.94 CG 19.43 OD1 19.67 OD2 18.92
B SER S 4 -95.1 -12.8 N 21.02 CA 22.55 C 24.53 O 24.58 CB 29.09 OG 36.89
B GLY S 55 66.9 18.3 N 27.1 CA 27.27 C 32.93 O 36.82
B ALA S 35 -162.8 157.2 N 28.82 CA 25.21 C 29.61 O 28.38 CB 28.14
B PRO S 105 -63.6 165.1 N 29.56 CA 29.47 C 23.08 O 26.41 CB 32.84 CG 36.21 CD 33.43
B PRO - 64 -56.9 139.3 N 23.67 CA 25.29 C 27.64 O 22.39 CB 24.57 CG 27.68 CD 25.29
B VAL S 71 -67.6 -36.5 N 21.29 CA 24.34 C 25.3 O 25.33 CB 28.05 CG1 27.34 CG2 33.01
B GLY S 40 -111.4 -143.5 N 23.45 CA 25.79 C 20.95 O 21.39
B GLU S 157 -75.7 -28.2 N 21.83 CA 24.76 C 23.78 O 23.26 CB 26.33 CG 32.17 CD 36.68 OE1 33.19 OE2 27.93
B PHE S 61 -149.0 155.9 N 18.13 CA 15.49 C 17.16 O 16.11 CB 17.11 CG 17.2 CD1 16.98 CD2 17.77 CE1 16.69 CE2 19.62 CZ 18.92
B TRP - 5 -62.0 138.7 N 17.74 CA 17.7 C 16.15 O 15.44 CB 20.52 CG 19.19 CD1 25.03 CD2 19.1 NE1 21.86 CE2 22.2 CE3 19.05 CZ2 22.72 CZ3 20.89 CH2 19.19
B ARG - 79 -128.5 126.5 N 15.36 CA 15.0 C 16.87 O 16.65 CB 15.79 CG 16.54 CD 17.46 NE 17.46 CZ 22.56 NH1 22.95 NH2 24.62
B PRO H 17 -46.0 -40.1 N 15.99 CA 15.52 C 15.04 O 14.98 CB 16.58 CG 17.94 CD 16.86
B THR H 20 -73.6 -66.6 N 14.35 CA 13.89 C 15.18 O 15.27 CB 17.44 OG1 16.7 CG2 15.35
B LEU H 59 -67.4 -29.0 N 15.95 CA 17.38 C 15.65 O 17.77 CB 19.54 CG 24.37 CD1 27.85 CD2 29.53
B ASP H 2 -70.6 -32.8 N 16.06 CA 16.18 C 18.82 O 17.52 CB 16.35 CG 20.88 OD1 19.37 OD2 24.06
B SER H 10 -64.9 -46.0 N 17.09 CA 16.56 C 16.94 O 17.98 CB 15.95 OG 17.43
B LYS H 106 -54.5 -47.4 N 16.85 CA 16.01 C 19.05 O 19.09 CB 17.33 CG 19.61 CD 25.4 CE 34.67 NZ 39.12
B GLN H 67 -68.4 -44.8 N 19.0 CA 21.78 C 23.61 O 23.42 CB 23.78 CG 28.95 CD 35.86 OE1 41.5 NE2 29.69
B ALA H 2 -60.3 -42.1 N 20.51 CA 20.05 C 18.58 O 21.26 CB 21.13
B PHE H 69 -69.7 -45.3 N 19.62 CA 18.57 C 22.38 O 22.23 CB 19.62 CG 17.67 CD1 16.59 CD2 19.03 CE1 19.66 CE2 21.84 CZ 20.66
B ALA H 72 -66.8 -37.6 N 20.13 CA 22.92 C 25.1 O 26.11 CB 24.25
B GLN H 133 -93.4 -11.7 N 24.29 CA 27.84 C 27.77 O 27.44 CB 29.77 CG 33.98 CD 46.57 OE1 50.76 NE2 44.35
B GLY T 63 79.9 36.6 N 22.63 CA 22.91 C 25.57 O 27.34
B THR - 46 -113.1 5.1 N 19.8 CA 22.0 C 19.34 O 21.07 CB 26.36 OG1 24.02 CG2 29.46
B GLN S 25 -58.9 156.2 N 21.13 CA 20.48 C 20.46 O 20.85 CB 18.39 CG 18.36 CD 19.35 OE1 19.76 NE2 19.95
B SER - 27 -57.9 148.9 N 19.94 CA 22.51 C 22.8 O 20.0 CB 27.74 OG 34.68
B ALA H 81 -65.0 -31.0 N 20.29 CA 21.36 C 19.03 O 21.23 CB 26.51
B ASP H 53 -57.9 -45.9 N 20.05 CA 17.59 C 17.9 O 18.1 CB 19.22 CG 19.96 OD1 20.56 OD2 21.76
B ILE H 4 -58.8 -49.2 N 18.69 CA 17.72 C 18.56 O 16.27 CB 17.46 CG1 17.52 CG2 18.16 CD1 18.77
B VAL H 45 -61.3 -41.0 N 17.13 CA 19.46 C 16.39 O 17.95 CB 20.45 CG1 24.69 CG2 22.99
B ALA H 42 -65.5 -36.1 N 17.58 CA 18.07 C 16.88 O 17.51 CB 20.57
B GLU H 4 -66.2 -42.2 N 16.96 CA 14.81 C 15.57 O 16.36 CB 15.41 CG 16.57 CD 18.35 OE1 17.95 OE2 20.5
B GLN H 11 -60.8 -40.9 N 16.75 CA 16.62 C 17.1 O 17.18 CB 17.31 CG 17.55 CD 19.15 OE1 20.3 NE2 17.26
B GLU H 127 -64.4 -36.3 N 17.98 CA 20.82 C 19.64 O 21.23 CB 23.18 CG 31.32 CD 45.24 OE1 54.83 OE2 49.54
B LYS H 27 -61.2 -43.4 N 19.06 CA 18.75 C 18.09 O 18.85 CB 19.82 CG 22.13 CD 23.3 CE 26.02 NZ 22.36
B LEU H 0 -64.9 -44.0 N 17.44 CA 16.4 C 17.76 O 18.74 CB 17.72 CG 18.19 CD1 18.36 CD2 18.63
B LEU H 93 -61.2 -34.8 N 17.83 CA 20.78 C 21.09 O 19.56 CB 21.42 CG 24.07 CD1 27.4 CD2 23.72
B TRP H 57 -66.5 -41.5 N 20.41 CA 20.52 C 22.73 O 20.03 CB 22.8 CG 23.23 CD1 28.34 CD2 22.48 NE1 24.04 CE2 26.89 CE3 20.93 CZ2 25.09 CZ3 22.8 CH2 26.11
B ALA - 0 -70.2 144.7 N 19.32 CA 18.57 C 19.53 O 22.22 CB 19.6
B ASP S 47 -90.5 -30.1 N 18.91 CA 22.79 C 20.13 O 19.63 CB 26.62 CG 38.8 OD1 37.08 OD2 32.88
B THR E 0 -138.8 133.9 N 19.99 CA 20.22 C 18.35 O 17.53 CB 25.88 OG1 26.56 CG2 24.96
B VAL E 0 -125.6 124.4 N 15.73 CA 15.5 C 17.38 O 16.83 CB 16.56 CG1 19.03 CG2 17.12
B ILE E 3 -116.4 129.7 N 15.24 CA 16.23 C 15.16 O 15.6 CB 16.96 CG1 19.01 CG2 18.37 CD1 20.95
B PHE E 0 -107.5 120.6 N 15.29 CA 14.91 C 16.34 O 16.61 CB 15.07 CG 16.81 CD1 18.74 CD2 22.1 CE1 18.39 CE2 19.95 CZ 17.59
B GLN E 1 -121.7 124.9 N 14.24 CA 13.79 C 16.17 O 14.67 CB 14.55 CG 16.61 CD 19.66 OE1 19.76 NE2 20.61
B PHE E 0 -160.2 149.3 N 13.77 CA 14.73 C 14.35 O 14.55 CB 14.26 CG 13.75 CD1 16.52 CD2 14.24 CE1 19.45 CE2 14.84 CZ 15.39
B PRO E 9 -69.8 142.9 N 11.3 CA 13.08 C 12.67 O 12.78 CB 13.88 CG 13.26 CD 13.15
B LEU - 19 -70.6 116.3 N 12.45 CA 12.48 C 13.1 O 13.23 CB 12.86 CG 13.41 CD1 15.24 CD2 15.5
B TRP B 36 -122.5 114.4 N 11.58 CA 11.66 C 11.46 O 11.67 CB 13.01 CG 12.73 CD1 14.12 CD2 12.38 NE1 13.57 CE2 13.13 CE3 13.66 CZ2 14.23 CZ3 13.95 CH2 13.22
B TRP T 31 53.8 47.2 N 12.51 CA 11.95 C 12.37 O 12.95 CB 12.04 CG 12.77 CD1 14.31 CD2 13.14 NE1 16.59 CE2 14.86 CE3 13.49 CZ2 17.11 CZ3 15.93 CH2 17.58
B PHE T 16 59.9 30.5 N 11.92 CA 12.04 C 15.11 O 15.76 CB 12.3 CG 12.28 CD1 12.95 CD2 12.3 CE1 13.54 CE2 12.75 CZ 13.87
B SER B 22 -162.0 -179.8 N 13.25 CA 13.7 C 13.53 O 13.35 CB 16.69 OG 20.03
B PRO - 0 -52.3 144.2 N 14.1 CA 12.81 C 12.98 O 11.74 CB 14.41 CG 14.6 CD 13.17
B ALA H 1 -46.3 -42.3 N 12.32 CA 11.73 C 11.83 O 12.27 CB 12.35
B ILE H 8 -63.8 -33.1 N 12.37 CA 13.1 C 13.58 O 14.55 CB 13.02 CG1 15.24 CG2 14.36 CD1 16.22
B LYS H 6 -58.0 -34.2 N 12.54 CA 12.22 C 12.62 O 12.33 CB 13.03 CG 12.45 CD 14.86 CE 16.54 NZ 13.35
B GLY H 0 -71.2 -29.6 N 13.39 CA 13.58 C 13.31 O 15.2
B TRP H 0 -58.8 -48.3 N 12.2 CA 13.29 C 13.48 O 14.06 CB 13.3 CG 13.77 CD1 15.47 CD2 14.32 NE1 15.79 CE2 16.16 CE3 15.78 CZ2 16.12 CZ3 17.38 CH2 16.48
B ILE H 0 -56.8 -55.0 N 12.64 CA 12.79 C 11.79 O 13.95 CB 12.78 CG1 14.33 CG2 13.72 CD1 16.55
B ASP H 10 -59.6 -38.8 N 11.74 CA 11.97 C 14.67 O 14.52 CB 12.01 CG 14.54 OD1 14.68 OD2 14.16
B ARG H 6 -88.2 -34.4 N 12.56 CA 13.33 C 15.11 O 15.58 CB 14.13 CG 13.82 CD 15.72 NE 14.77 CZ 16.32 NH1 17.79 NH2 17.44
B VAL H 0 -82.7 -32.6 N 13.28 CA 13.57 C 15.32 O 14.94 CB 14.7 CG1 15.22 CG2 15.07
B TYR S 1 -83.0 70.9 N 14.81 CA 13.04 C 16.7 O 17.4 CB 13.95 CG 14.0 CD1 14.65 CD2 13.85 CE1 15.3 CE2 13.95 CZ 14.19 OH 15.82
B ALA - 4 -73.0 163.4 N 16.22 CA 15.51 C 14.55 O 14.98 CB 17.71
B TRP B 60 -69.7 114.2 N 14.32 CA 16.1 C 17.31 O 17.8 CB 17.02 CG 19.34 CD1 23.7 CD2 24.83 NE1 25.87 CE2 26.61 CE3 27.11 CZ2 30.72 CZ3 40.97 CH2 38.16
B GLY T 28 108.0 -12.4 N 18.32 CA 20.5 C 21.51 O 18.79
B PHE T 6 -116.9 -66.7 N 17.63 CA 16.64 C 17.74 O 17.43 CB 17.33 CG 16.21 CD1 19.57 CD2 17.82 CE1 17.96 CE2 19.08 CZ 18.28
B ALA T 4 -100.2 -22.4 N 15.94 CA 13.86 C 14.03 O 16.21 CB 15.36
B TYR B 50 -144.9 171.7 N 17.05 CA 15.92 C 17.36 O 17.48 CB 15.79 CG 16.22 CD1 16.4 CD2 20.72 CE1 15.68 CE2 21.96 CZ 19.72 OH 20.97
B GLY S 32 77.2 9.5 N 17.14 CA 18.29 C 20.41 O 24.16
B VAL - 36 -99.6 141.9 N 19.22 CA 20.26 C 22.02 O 20.92 CB 24.06 CG1 24.55 CG2 26.29
B GLY S 37 97.2 171.4 N 23.51 CA 20.55 C 22.2 O 22.92
B GLU - 118 -86.0 161.2 N 20.56 CA 18.75 C 17.67 O 19.6 CB 18.79 CG 18.78 CD 19.95 OE1 22.56 OE2 23.47
B HIS E 107 -119.6 107.7 N 16.65 CA 18.16 C 20.58 O 21.39 CB 19.44 CG 18.78 ND1 22.83 CD2 21.09 CE1 23.26 NE2 23.65
B SER E 41 -144.6 -167.2 N 19.1 CA 20.07 C 19.74 O 18.53 CB 18.67 OG 17.51
B ASP T 129 -52.8 -50.3 N 16.36 CA 15.93 C 16.62 O 17.79 CB 16.79 CG 20.67 OD1 18.06 OD2 18.98
B ARG T 190 -122.6 26.7 N 16.75 CA 16.58 C 18.11 O 19.79 CB 19.08 CG 23.68 CD 25.79 NE 28.56 CZ 27.47 NH1 26.06 NH2 27.32
B HIS E 30 -149.3 133.7 N 16.58 CA 15.86 C 17.92 O 18.49 CB 18.21 CG 17.55 ND1 19.28 CD2 17.13 CE1 20.17 NE2 19.31
B TRP E 53 -133.4 71.1 N 18.09 CA 15.66 C 17.35 O 17.65 CB 17.45 CG 21.31 CD1 22.63 CD2 20.6 NE1 21.88 CE2 22.04 CE3 22.38 CZ2 23.11 CZ3 26.32 CH2 26.48
B GLY S 5 79.8 154.9 N 14.43 CA 16.27 C 15.7 O 17.66
B ASP S 53 -86.4 85.8 N 16.43 CA 16.51 C 16.78 O 19.4 CB 16.71 CG 20.64 OD1 21.12 OD2 20.65
B ARG - 33 -153.9 171.0 N 14.69 CA 15.66 C 15.59 O 15.51 CB 14.82 CG 14.53 CD 15.62 NE 17.28 CZ 19.83 NH1 18.99 NH2 20.44
B TYR S 0 59.9 74.7 N 13.47 CA 13.46 C 15.79 O 15.55 CB 12.11 CG 12.65 CD1 12.77 CD2 11.7 CE1 12.66 CE2 12.85 CZ 12.9 OH 15.03
B GLY S 10 89.0 3.6 N 15.52 CA 18.68 C 20.13 O 19.1
B GLU - 25 -134.6 166.7 N 18.51 CA 18.6 C 19.22 O 18.3 CB 21.13 CG 25.93 CD 29.92 OE1 26.36 OE2 38.07
B GLY S 22 127.2 -169.1 N 18.67 CA 17.75 C 19.22 O 18.83
B THR T 49 -61.4 -28.6 N 17.52 CA 16.51 C 17.34 O 20.42 CB 19.96 OG1 20.47 CG2 22.5
B PHE T 0 -98.0 8.5 N 14.81 CA 16.79 C 19.44 O 18.89 CB 19.46 CG 18.63 CD1 19.81 CD2 19.9 CE1 22.09 CE2 19.93 CZ 23.05
B VAL T 80 -55.4 136.5 N 18.3 CA 19.94 C 19.9 O 22.53 CB 23.9 CG1 31.3 CG2 25.99
B GLY T 67 93.5 -9.0 N 26.62 CA 29.77 C 30.73 O 27.36
B LYS - 26 -107.1 159.9 N 20.84 CA 18.91 C 18.61 O 19.76 CB 19.7 CG 19.95 CD 19.44 CE 19.88 NZ 20.99
B ARG E 36 -116.5 149.3 N 17.23 CA 18.28 C 18.19 O 18.17 CB 22.19 CG 26.26 CD 30.07 NE 35.31 CZ 36.77 NH1 30.01 NH2 39.85
B ALA E 0 -137.3 151.4 N 16.5 CA 16.94 C 15.56 O 17.9 CB 17.25
B LEU E 0 -97.6 147.5 N 15.3 CA 14.15 C 15.59 O 16.0 CB 13.25 CG 13.27 CD1 14.17 CD2 14.51
B ILE E 1 -124.7 110.6 N 12.8 CA 13.78 C 13.9 O 14.81 CB 15.89 CG1 16.54 CG2 17.62 CD1 19.99
B VAL E 0 -123.3 134.0 N 13.61 CA 13.81 C 14.32 O 14.63 CB 15.82 CG1 16.24 CG2 17.55
B THR E 6 -109.2 135.3 N 13.39 CA 12.83 C 13.08 O 14.48 CB 16.49 OG1 18.04 CG2 16.04
B ALA - 1 -129.0 142.9 N 13.83 CA 13.86 C 15.3 O 17.3 CB 15.8
B GLY S 35 -75.5 -31.1 N 13.54 CA 13.5 C 16.59 O 16.41
B GLY S 18 -71.4 166.6 N 17.68 CA 14.72 C 15.92 O 16.67
B TRP - 39 -77.9 157.6 N 16.5 CA 16.75 C 16.19 O 15.07 CB 17.54 CG 20.38 CD1 21.68 CD2 21.23 NE1 22.2 CE2 22.0 CE3 22.66 CZ2 27.45 CZ3 26.03 CH2 23.01
B ALA G 45 -57.6 -39.0 N 16.41 CA 17.37 C 16.0 O 18.45 CB 19.15
B GLU G 92 -64.7 -28.5 N 17.13 CA 17.73 C 17.89 O 15.56 CB 22.18 CG 32.55 CD 44.31 OE1 24.95 OE2 44.55
B HIS G 1 -69.1 -14.8 N 16.3 CA 15.16 C 15.01 O 14.5 CB 13.81 CG 16.96 ND1 15.74 CD2 15.18 CE1 18.88 NE2 16.16
B TYR G 16 -116.0 15.4 N 14.21 CA 13.63 C 14.48 O 14.61 CB 14.35 CG 12.48 CD1 13.38 CD2 12.45 CE1 13.29 CE2 12.4 CZ 13.93 OH 13.89
B SER S 32 -76.3 172.3 N 14.9 CA 14.99 C 15.89 O 14.95 CB 16.57 OG 18.18
B PRO T 78 -54.4 -32.3 N 16.42 CA 17.88 C 15.37 O 16.57 CB 21.92 CG 21.49 CD 18.6
B ARG T 43 -110.0 16.0 N 15.18 CA 15.89 C 15.18 O 15.47 CB 16.73 CG 17.16 CD 19.03 NE 17.24 CZ 17.79 NH1 17.62 NH2 18.17
B GLY B 0 -79.2 142.5 N 14.47 CA 13.67 C 14.14 O 14.04
B ILE T 0 -58.4 -29.2 N 12.98 CA 13.08 C 14.17 O 14.68 CB 13.83 CG1 15.98 CG2 16.35 CD1 17.07
B ASN T 3 -74.8 -11.8 N 12.02 CA 13.25 C 15.44 O 17.36 CB 13.64 CG 12.92 OD1 14.36 ND2 14.82
B GLY - 0 96.9 151.8 N 13.74 CA 13.74 C 13.66 O 15.07
B PRO - 16 -63.0 135.5 N 14.75 CA 13.66 C 14.2 O 13.58 CB 15.64 CG 15.85 CD 16.45
B ILE H 17 -50.8 -41.7 N 14.28 CA 12.67 C 14.28 O 15.56 CB 13.64 CG1 16.81 CG2 15.99 CD1 17.48
B ASP H 91 -69.8 -23.8 N 14.21 CA 17.43 C 16.48 O 17.2 CB 20.04 CG 23.66 OD1 25.8 OD2 36.79
B ASP H 39 -79.8 -43.4 N 15.92 CA 16.44 C 14.94 O 15.44 CB 15.69 CG 21.79 OD1 24.66 OD2 24.24
B ILE H 5 -59.2 -33.8 N 14.22 CA 16.01 C 14.99 O 14.87 CB 17.23 CG1 22.36 CG2 19.67 CD1 26.41
B LEU T 1 -82.4 -8.8 N 13.99 CA 15.78 C 13.6 O 14.49 CB 14.7 CG 15.71 CD1 16.59 CD2 16.88
B PHE H 10 -55.2 -42.3 N 12.94 CA 12.62 C 11.56 O 12.91 CB 13.77 CG 11.64 CD1 13.57 CD2 14.56 CE1 13.13 CE2 14.95 CZ 15.45
B PRO H 12 -59.3 -32.2 N 12.89 CA 13.36 C 13.38 O 12.62 CB 13.34 CG 14.7 CD 13.44
B ILE H 7 -77.0 -58.0 N 12.42 CA 11.81 C 13.39 O 12.52 CB 12.45 CG1 13.4 CG2 13.91 CD1 14.49
B GLN I 3 -69.0 -42.9 N 12.2 CA 12.85 C 11.3 O 12.33 CB 13.87 CG 14.9 CD 18.91 OE1 19.62 NE2 18.93
B HIS I 0 -85.2 -42.4 N 12.05 CA 12.17 C 12.88 O 13.71 CB 13.65 CG 14.02 ND1 12.87 CD2 15.18 CE1 13.53 NE2 14.95
B GLY I 2 -82.9 -23.2 N 11.71 CA 12.4 C 13.26 O 12.28
B LEU I 0 -106.4 -58.7 N 14.69 CA 13.02 C 13.15 O 14.42 CB 14.1 CG 15.91 CD1 16.41 CD2 19.04
B PHE I 15 -65.6 -33.9 N 13.05 CA 13.82 C 13.51 O 13.74 CB 13.4 CG 14.32 CD1 15.01 CD2 13.75 CE1 14.24 CE2 16.92 CZ 14.65
B TYR T 22 -50.1 -56.3 N 13.63 CA 13.44 C 13.33 O 13.9 CB 14.43 CG 13.41 CD1 13.15 CD2 12.94 CE1 13.51 CE2 12.24 CZ 11.98 OH 14.01
B PRO T 1 -87.2 10.1 N 13.7 CA 13.37 C 13.8 O 17.01 CB 16.18 CG 15.48 CD 13.9
B GLY T 4 107.3 11.4 N 14.73 CA 16.04 C 17.51 O 17.09
B PHE - 2 -62.4 149.5 N 14.64 CA 15.14 C 16.27 O 16.35 CB 14.82 CG 15.59 CD1 16.19 CD2 17.05 CE1 17.39 CE2 17.16 CZ 17.08
B GLU E 87 -80.8 120.8 N 17.74 CA 17.62 C 17.85 O 19.57 CB 21.08 CG 29.37 CD 42.19 OE1 38.68 OE2 47.08
B VAL E 1 -98.5 122.4 N 16.49 CA 17.14 C 15.89 O 19.78 CB 16.67 CG1 17.1 CG2 18.71
B LEU - 0 -79.8 156.3 N 16.89 CA 17.41 C 18.09 O 17.61 CB 19.34 CG 21.97 CD1 25.94 CD2 27.93
B PRO - 48 -54.2 137.1 N 16.95 CA 18.02 C 15.97 O 16.82 CB 20.13 CG 22.13 CD 20.02
B PRO - 21 -69.6 156.5 N 15.44 CA 15.13 C 15.59 O 16.73 CB 15.68 CG 15.34 CD 15.53
B LEU E 15 -103.7 108.4 N 15.89 CA 16.39 C 15.79 O 15.56 CB 15.34 CG 16.99 CD1 18.27 CD2 18.54
B VAL E 24 -118.7 124.9 N 14.24 CA 13.7 C 14.57 O 14.33 CB 13.51 CG1 14.92 CG2 16.92
B PHE E 18 -102.9 137.1 N 14.57 CA 15.55 C 15.44 O 16.17 CB 14.12 CG 15.25 CD1 17.9 CD2 16.57 CE1 19.24 CE2 17.45 CZ 19.33
B TYR - 55 -112.4 163.8 N 14.36 CA 14.29 C 17.35 O 17.26 CB 14.91 CG 14.44 CD1 14.16 CD2 15.5 CE1 13.28 CE2 18.77 CZ 16.38 OH 19.37
B ARG S 117 53.0 42.5 N 15.12 CA 18.13 C 19.81 O 23.28 CB 25.18 CG 30.93 CD 35.67 NE 40.96 CZ 51.84 NH1 44.89 NH2 53.43
B THR G 14 -78.4 -19.9 N 16.95 CA 16.99 C 16.85 O 18.39 CB 15.87 OG1 18.52 CG2 18.42
B ASP G 70 -66.4 -21.8 N 18.79 CA 19.74 C 21.65 O 21.85 CB 21.83 CG 29.6 OD1 23.18 OD2 31.63
B LYS G 161 -104.5 12.4 N 19.8 CA 26.95 C 25.29 O 25.57 CB 35.45 CG 47.94 CD 58.68 CE 73.25 NZ 74.49
B THR - 38 -49.8 128.3 N 20.51 CA 18.67 C 19.76 O 19.24 CB 19.0 OG1 17.39 CG2 19.09
B ASP - 103 -116.0 -172.9 N 24.41 CA 26.83 C 26.51 O 21.23 CB 26.58 CG 31.28 OD1 25.7 OD2 35.34
B ALA H 87 -63.5 -36.6 N 23.53 CA 22.57 C 19.79 O 20.85 CB 25.51
B GLY H 43 -73.7 -35.3 N 21.9 CA 21.53 C 21.94 O 21.09
B GLN H 51 -67.0 -41.0 N 20.54 CA 20.92 C 17.58 O 18.33 CB 19.42 CG 20.6 CD 25.69 OE1 26.24 NE2 26.18
B PHE H 58 -59.5 -43.3 N 19.06 CA 17.47 C 19.59 O 18.94 CB 18.17 CG 17.78 CD1 17.9 CD2 19.88 CE1 21.87 CE2 23.92 CZ 27.97
B ALA H 56 -60.7 -39.3 N 21.13 CA 22.28 C 19.21 O 21.56 CB 26.07
B ASP H 119 -62.0 -44.7 N 20.5 CA 20.74 C 19.26 O 18.26 CB 23.4 CG 27.97 OD1 30.19 OD2 29.93
B GLN H 6 -57.8 -48.5 N 19.1 CA 18.83 C 19.08 O 18.69 CB 18.34 CG 18.15 CD 17.97 OE1 18.05 NE2 16.33
B CYS H 17 -58.9 -41.9 N 20.74 CA 19.67 C 17.8 O 19.71 CB 23.13 SG 32.84
B ALA H 65 -64.3 -41.7 N 19.75 CA 22.31 C 22.52 O 21.51 CB 25.31
B ALA H 39 -64.1 -43.0 N 22.32 CA 21.64 C 18.16 O 19.33 CB 21.63
B LEU H 1 -61.0 -47.4 N 16.98 CA 18.01 C 20.88 O 18.28 CB 19.35 CG 19.38 CD1 21.17 CD2 21.41
B ALA H 16 -63.5 -38.4 N 20.82 CA 20.3 C 20.21 O 22.59 CB 23.41
B GLU H 108 -63.6 -41.8 N 20.32 CA 24.16 C 23.99 O 22.3 CB 27.46 CG 42.39 CD 54.58 OE1 82.83 OE2 53.39
B ARG H 35 -65.0 -41.0 N 22.91 CA 19.88 C 19.54 O 21.81 CB 16.95 CG 16.83 CD 20.04 NE 21.03 CZ 20.17 NH1 19.25 NH2 19.77
B LEU H 4 -67.7 -30.4 N 18.78 CA 19.93 C 21.92 O 23.22 CB 21.58 CG 21.93 CD1 21.45 CD2 21.63
B ASP H 86 -71.0 -19.4 N 24.32 CA 27.1 C 30.49 O 31.86 CB 25.38 CG 26.63 OD1 28.26 OD2 33.2
B THR T 18 -122.1 17.1 N 25.26 CA 23.95 C 25.82 O 27.24 CB 28.15 OG1 25.71 CG2 28.82
B LEU T 1 -51.5 -35.1 N 25.09 CA 26.46 C 34.09 O 28.37 CB 27.36 CG 24.18 CD1 25.13 CD2 27.37
B TRP T 78 -102.1 5.2 N 29.98 CA 32.4 C 30.95 O 34.85 CB 37.54 CG 41.16 CD1 43.81 CD2 48.32 NE1 46.66 CE2 43.92 CE3 50.78 CZ2 33.63 CZ3 49.19 CH2 29.63
B GLN T 148 -111.9 -25.2 N 28.0 CA 31.6 C 31.89 O 32.62 CB 33.38 CG 46.26 CD 59.95 OE1 58.86 NE2 61.42
B THR S 30 -71.3 141.6 N 25.7 CA 23.06 C 19.96 O 23.63 CB 24.74 OG1 27.54 CG2 24.33
B GLU - 154 -72.7 131.3 N 22.32 CA 24.66 C 20.25 O 20.29 CB 28.86 CG 43.01 CD 55.44 OE1 59.27 OE2 54.53
B PRO - 17 -63.9 157.6 N 21.57 CA 20.89 C 21.82 O 21.78 CB 22.07 CG 29.71 CD 23.83
B ILE - 31 -59.4 134.2 N 16.93 CA 16.97 C 15.76 O 16.29 CB 15.43 CG1 17.34 CG2 17.82 CD1 17.76
B PRO - 67 -91.2 58.3 N 16.93 CA 18.65 C 18.3 O 18.41 CB 17.12 CG 20.16 CD 20.3
B PHE B 22 -63.2 147.6 N 16.37 CA 16.3 C 16.13 O 16.47 CB 16.72 CG 14.96 CD1 14.8 CD2 14.44 CE1 17.06 CE2 15.34 CZ 16.36
B ARG - 32 -82.4 133.7 N 16.17 CA 17.23 C 16.85 O 15.5 CB 15.87 CG 18.65 CD 21.56 NE 21.31 CZ 28.01 NH1 26.98 NH2 30.42
B ARG - 105 -69.4 145.6 N 15.23 CA 16.62 C 14.99 O 16.39 CB 17.77 CG 18.35 CD 22.35 NE 23.12 CZ 25.12 NH1 25.42 NH2 24.12
B GLN S 0 -71.9 -41.6 N 15.25 CA 15.07 C 16.49 O 17.93 CB 14.21 CG 15.47 CD 15.45 OE1 15.73 NE2 16.07
B ASN T 10 -103.5 14.8 N 16.82 CA 16.09 C 20.85 O 20.17 CB 16.65 CG 17.55 OD1 17.42 ND2 18.48
B HIS T 111 -126.4 30.0 N 18.3 CA 19.39 C 21.97 O 22.03 CB 19.72 CG 22.07 ND1 22.97 CD2 20.46 CE1 24.15 NE2 24.22
B GLY T 43 114.4 -20.9 N 18.98 CA 19.79 C 20.23 O 19.45
B ASP T 40 -70.9 -26.3 N 17.43 CA 18.88 C 15.72 O 18.15 CB 19.79 CG 25.71 OD1 21.53 OD2 22.08
B TYR E 8 -115.6 142.4 N 16.54 CA 14.57 C 15.25 O 19.27 CB 14.62 CG 14.99 CD1 14.29 CD2 16.52 CE1 14.96 CE2 15.74 CZ 14.08 OH 15.61
B LEU E 83 -70.9 142.4 N 17.16 CA 18.07 C 21.06 O 17.52 CB 19.48 CG 24.98 CD1 27.28 CD2 29.82
B ILE T 32 -125.0 130.9 N 16.66 CA 16.81 C 21.56 O 19.31 CB 17.66 CG1 21.32 CG2 18.03 CD1 25.8
B PRO T 50 -98.2 12.5 N 18.49 CA 16.27 C 17.53 O 17.61 CB 19.1 CG 20.0 CD 20.74
B SER T 31 -68.3 -24.6 N 17.25 CA 18.15 C 18.38 O 16.44 CB 21.72 OG 21.3
B LEU T 0 51.7 44.3 N 17.2 CA 17.33 C 18.49 O 18.07 CB 15.92 CG 17.62 CD1 16.0 CD2 18.28
B THR E 29 -108.0 143.7 N 17.18 CA 16.94 C 18.43 O 17.4 CB 20.3 OG1 20.52 CG2 20.57
B LEU E 3 -63.3 127.1 N 16.93 CA 17.26 C 19.29 O 19.87 CB 16.96 CG 16.19 CD1 19.02 CD2 19.67
B ARG - 79 -55.9 147.4 N 19.79 CA 20.93 C 19.36 O 19.83 CB 23.4 CG 24.18 CD 27.07 NE 26.72 CZ 35.17 NH1 33.83 NH2 30.48
B PRO T 95 -61.5 -27.8 N 24.18 CA 27.49 C 24.64 O 28.26 CB 29.66 CG 32.75 CD 28.49
B GLU T 149 -75.6 -14.1 N 27.56 CA 34.12 C 35.5 O 30.59 CB 40.26 CG 52.64 CD 69.47 OE1 82.88 OE2 60.59
B LEU S 32 -93.9 140.4 N 26.52 CA 22.92 C 23.45 O 22.8 CB 23.75 CG 26.38 CD1 23.21 CD2 26.94
B ALA S 17 43.6 52.4 N 26.12 CA 28.0 C 28.58 O 24.6 CB 26.78
B PRO T 91 -61.8 136.5 N 29.84 CA 26.15 C 27.74 O 28.77 CB 29.67 CG 29.73 CD 30.85
B GLY T 88 74.0 2.5 N 28.24 CA 33.12 C 34.25 O 35.7
B GLN - 104 -103.4 160.5 N 26.02 CA 23.99 C 20.78 O 19.75 CB 25.47 CG 32.8 CD 40.31 OE1 49.11 NE2 46.32
B SER - 77 -148.6 170.0 N 20.2 CA 20.88 C 17.11 O 19.35 CB 23.19 OG 25.38
B GLY S 11 100.1 -173.2 N 17.85 CA 18.3 C 18.36 O 18.07
B LEU G 12 -61.2 -33.9 N 16.36 CA 16.65 C 16.5 O 18.28 CB 16.05 CG 15.88 CD1 17.58 CD2 15.89
B ALA G 62 -66.9 -19.8 N 17.66 CA 19.46 C 20.95 O 19.09 CB 24.24
B VAL G 1 -67.9 -14.3 N 17.34 CA 17.95 C 18.75 O 18.82 CB 19.37 CG1 19.9 CG2 18.92
B HIS G 0 -92.2 6.2 N 14.06 CA 15.59 C 17.51 O 17.07 CB 17.07 CG 16.32 ND1 17.38 CD2 16.37 CE1 16.99 NE2 16.75
B LEU B 72 -105.9 133.4 N 16.76 CA 19.54 C 21.8 O 26.42 CB 21.98 CG 27.34 CD1 36.25 CD2 24.11
B ALA - 103 -86.6 360.0 N 19.57 CA 28.88 C 39.24 O 43.35 CB 26.46 OXT 37.13
