A SER - 168 360.0 -63.5 N 39.33 CA 58.99 C 58.9 O 62.15 CB 67.88 OG 56.74
A ASP - 65 -96.8 142.4 N 56.3 CA 49.97 C 48.86 O 52.3 CB 51.93 CG 53.89 OD1 52.02 OD2 49.84
A VAL S 63 -106.4 -18.3 N 41.35 CA 34.79 C 36.59 O 34.59 CB 36.04 CG1 41.04 CG2 35.34
A LEU S 2 -112.3 99.3 N 34.06 CA 27.4 C 26.33 O 27.61 CB 23.77 CG 25.0 CD1 21.39 CD2 22.4
A THR E 17 -133.1 164.4 N 22.27 CA 20.03 C 19.55 O 24.04 CB 19.83 OG1 19.55 CG2 25.87
A VAL E 6 -133.6 167.8 N 17.02 CA 19.63 C 21.43 O 21.86 CB 20.08 CG1 19.06 CG2 17.22
A SER E 48 -101.6 133.0 N 19.85 CA 21.27 C 20.52 O 22.74 CB 25.46 OG 23.22
A THR E 27 -121.6 154.9 N 16.99 CA 20.5 C 24.45 O 21.17 CB 20.97 OG1 19.41 CG2 18.66
A VAL E 70 -125.0 139.1 N 23.5 CA 26.24 C 24.92 O 23.04 CB 26.36 CG1 29.95 CG2 28.89
A ASN - 61 -103.0 175.6 N 24.89 CA 28.29 C 31.58 O 29.15 CB 26.36 CG 28.78 OD1 25.33 ND2 23.93
A SER T 121 -45.8 -48.3 N 31.57 CA 27.68 C 32.86 O 39.59 CB 32.33 OG 39.96
A GLN T 146 -76.4 27.6 N 33.46 CA 37.36 C 39.22 O 38.47 CB 41.6 CG 52.08 CD 62.73 OE1 64.3 NE2 53.14
A ASP - 122 50.4 17.1 N 36.91 CA 38.24 C 30.93 O 30.47 CB 41.39 CG 50.18 OD1 47.68 OD2 50.37
A GLN - 109 -77.5 139.4 N 26.73 CA 26.27 C 26.46 O 29.18 CB 25.79 CG 29.91 CD 35.78 OE1 31.58 NE2 41.13
A VAL E 97 -101.3 134.2 N 25.01 CA 21.38 C 21.94 O 26.85 CB 20.75 CG1 18.53 CG2 19.64
A THR E 64 -143.9 150.6 N 19.6 CA 19.32 C 21.58 O 23.45 CB 20.4 OG1 26.8 CG2 19.6
A GLN E 83 -89.1 142.3 N 18.37 CA 17.29 C 20.81 O 27.43 CB 18.05 CG 16.86 CD 16.35 OE1 17.96 NE2 12.94
A LYS E 64 -129.0 149.3 N 19.0 CA 17.5 C 16.19 O 17.85 CB 18.28 CG 17.38 CD 15.68 CE 18.32 NZ 17.25
A PRO E 22 -65.5 145.5 N 17.34 CA 20.18 C 21.35 O 16.95 CB 21.29 CG 17.99 CD 16.08
A LEU H 1 -50.1 -39.4 N 20.67 CA 19.5 C 18.11 O 15.58 CB 15.3 CG 11.76 CD1 12.45 CD2 10.56
A ARG H 61 -53.4 -36.3 N 16.5 CA 14.46 C 13.09 O 12.2 CB 14.67 CG 16.52 CD 17.41 NE 27.24 CZ 37.5 NH1 25.45 NH2 41.73
A ASP H 79 -63.1 -39.5 N 16.35 CA 14.68 C 15.6 O 17.18 CB 14.79 CG 17.48 OD1 18.31 OD2 16.77
A SER H 2 -64.3 -44.8 N 14.51 CA 13.01 C 15.21 O 16.8 CB 16.11 OG 23.25
A VAL H 0 -59.5 -46.0 N 14.12 CA 12.27 C 14.29 O 16.66 CB 11.97 CG1 13.34 CG2 12.99
A LYS H 61 -58.6 -43.2 N 14.97 CA 17.28 C 19.15 O 15.52 CB 15.45 CG 18.42 CD 30.82 CE 34.89 NZ 33.5
A GLN H 62 -61.9 -51.6 N 18.12 CA 20.11 C 17.67 O 18.85 CB 16.9 CG 19.61 CD 28.29 OE1 27.2 NE2 32.45
A ALA H 0 -49.3 -48.3 N 17.86 CA 17.65 C 20.09 O 24.53 CB 15.9
A LEU H 0 -69.9 -35.7 N 17.19 CA 16.87 C 17.5 O 16.97 CB 14.42 CG 11.59 CD1 10.49 CD2 11.76
A LYS H 110 -58.3 -42.4 N 16.86 CA 16.57 C 19.69 O 20.5 CB 17.23 CG 24.97 CD 29.44 CE 43.57 NZ 44.33
A ASN H 42 -63.8 -57.3 N 21.31 CA 21.55 C 23.34 O 25.34 CB 23.45 CG 31.1 OD1 33.03 ND2 30.18
A TYR H 49 -44.6 -52.7 N 22.64 CA 22.22 C 25.89 O 26.28 CB 14.64 CG 18.62 CD1 21.4 CD2 22.15 CE1 22.5 CE2 23.53 CZ 25.54 OH 29.1
A PHE H 20 -60.8 -39.5 N 24.08 CA 25.4 C 25.88 O 25.14 CB 21.82 CG 20.69 CD1 20.5 CD2 18.65 CE1 18.42 CE2 19.32 CZ 24.51
A ALA H 73 -65.4 -44.0 N 24.42 CA 21.03 C 24.17 O 31.35 CB 14.86
A GLN H 92 -64.2 -33.4 N 26.97 CA 29.13 C 32.46 O 40.49 CB 27.52 CG 32.81 CD 48.97 OE1 43.75 NE2 52.32
A LEU S 22 -88.0 141.2 N 32.46 CA 34.5 C 40.01 O 44.15 CB 36.34 CG 38.07 CD1 37.12 CD2 30.48
A ASN S 138 -114.6 78.2 N 41.26 CA 42.11 C 45.84 O 54.47 CB 46.91 CG 50.57 OD1 36.96 ND2 48.43
A GLY S 63 73.0 -0.4 N 42.06 CA 42.21 C 45.44 O 46.05
A GLN - 122 -60.8 132.1 N 46.47 CA 47.41 C 41.13 O 33.96 CB 39.36 CG 35.15 CD 31.62 OE1 27.83 NE2 33.26
A ASP - 149 -74.6 154.4 N 39.32 CA 42.49 C 40.01 O 34.23 CB 56.92 CG 59.95 OD1 60.36 OD2 40.2
A VAL - 12 -104.0 122.1 N 31.42 CA 31.73 C 40.09 O 38.23 CB 32.5 CG1 34.93 CG2 29.53
A ASN - 114 -86.9 -63.6 N 44.15 CA 47.28 C 51.16 O 51.22 CB 60.52 CG 59.15 OD1 57.57 ND2 47.32
A ASP - 77 -129.3 77.6 N 42.92 CA 36.87 C 30.97 O 30.72 CB 43.46 CG 51.37 OD1 55.89 OD2 47.52
A LEU H 0 -77.6 -28.3 N 27.16 CA 22.31 C 23.12 O 26.12 CB 20.13 CG 16.57 CD1 20.01 CD2 15.71
A TYR H 31 -70.0 -49.6 N 21.55 CA 19.68 C 20.24 O 21.69 CB 18.56 CG 15.95 CD1 15.87 CD2 17.83 CE1 16.68 CE2 17.75 CZ 16.68 OH 16.65
A GLU H 76 -60.7 -36.4 N 23.71 CA 22.83 C 24.55 O 24.36 CB 24.44 CG 26.49 CD 37.86 OE1 37.62 OE2 37.68
A LEU H 44 -55.8 -63.1 N 25.01 CA 24.6 C 21.05 O 22.65 CB 22.02 CG 23.83 CD1 25.37 CD2 24.47
A VAL H 2 -57.1 -46.3 N 20.99 CA 18.81 C 19.11 O 20.55 CB 16.98 CG1 17.38 CG2 24.57
A LEU H 24 -58.4 -46.4 N 18.2 CA 16.84 C 21.42 O 21.96 CB 18.54 CG 17.84 CD1 15.79 CD2 16.45
A ALA H 22 -64.3 -31.0 N 21.12 CA 17.13 C 19.76 O 21.84 CB 19.59
A GLU H 5 -74.2 -18.6 N 18.25 CA 17.69 C 18.24 O 20.14 CB 17.63 CG 22.31 CD 30.06 OE1 20.67 OE2 29.0
A VAL H 6 -110.9 -30.0 N 17.71 CA 17.36 C 19.53 O 18.12 CB 16.14 CG1 17.14 CG2 15.1
A GLU H 5 -70.6 -43.9 N 18.62 CA 17.78 C 20.73 O 21.67 CB 19.01 CG 17.6 CD 18.74 OE1 18.19 OE2 22.13
A GLN H 46 -49.1 -52.3 N 21.35 CA 21.25 C 24.24 O 26.28 CB 20.1 CG 26.31 CD 38.06 OE1 40.62 NE2 27.72
A PRO H 4 -76.8 -15.5 N 20.09 CA 21.21 C 21.55 O 22.25 CB 22.01 CG 20.73 CD 18.78
A LEU H 2 -72.9 -51.8 N 18.84 CA 18.32 C 21.21 O 25.15 CB 16.03 CG 16.72 CD1 17.48 CD2 16.25
A LEU H 1 -58.1 -44.4 N 21.19 CA 20.33 C 22.18 O 23.85 CB 18.91 CG 13.66 CD1 15.31 CD2 14.15
A ASP H 64 -56.3 -39.6 N 23.21 CA 28.2 C 30.41 O 31.65 CB 29.94 CG 39.88 OD1 48.9 OD2 43.94
A MET H 11 -84.3 -22.9 N 33.02 CA 25.2 C 27.63 O 34.33 CB 21.99 CG 25.21 SD 32.08 CE 38.34
A VAL H 0 -93.0 -17.7 N 24.82 CA 30.71 C 33.38 O 36.5 CB 23.15 CG1 26.01 CG2 25.34
A MET H 38 -79.5 -24.3 N 32.41 CA 30.15 C 34.85 O 40.01 CB 26.95 CG 32.62 SD 32.61 CE 29.44
A GLN H 127 -77.3 -44.6 N 30.19 CA 28.43 C 36.64 O 38.96 CB 26.31 CG 34.9 CD 47.82 OE1 50.4 NE2 45.77
A TYR H 87 -68.5 -36.1 N 30.9 CA 32.5 C 33.94 O 36.39 CB 29.42 CG 28.95 CD1 26.27 CD2 31.27 CE1 25.83 CE2 29.97 CZ 29.69 OH 33.26
A THR T 5 -93.7 13.7 N 34.14 CA 35.86 C 41.69 O 36.52 CB 32.9 OG1 33.52 CG2 30.01
A ARG T 235 53.5 23.1 N 42.16 CA 42.06 C 39.3 O 50.13 CB 47.07 CG 63.38 CD 72.69 NE 88.73 CZ 103.75 NH1 100.94 NH2 101.7
A GLY T 45 112.1 -12.9 N 33.89 CA 28.0 C 27.3 O 23.07
A ASN - 71 -69.3 101.3 N 28.71 CA 29.96 C 33.39 O 33.16 CB 30.09 CG 36.45 OD1 37.22 ND2 37.64
A GLN H 53 -66.0 -25.5 N 30.7 CA 31.23 C 32.41 O 34.79 CB 24.79 CG 24.06 CD 32.69 OE1 40.64 NE2 31.93
A THR H 73 -73.9 -46.3 N 32.88 CA 38.0 C 34.49 O 30.33 CB 36.68 OG1 35.72 CG2 31.78
A ARG H 123 -65.2 -45.8 N 34.37 CA 36.13 C 40.46 O 38.77 CB 38.33 CG 46.5 CD 54.21 NE 57.54 CZ 58.29 NH1 55.1 NH2 39.78
A ALA H 0 -51.1 -60.8 N 39.45 CA 33.17 C 28.2 O 30.27 CB 30.37
A ALA H 5 -52.4 -34.3 N 25.05 CA 24.96 C 27.28 O 33.06 CB 23.37
A LEU H 115 -70.0 -43.8 N 29.2 CA 29.8 C 31.33 O 30.03 CB 36.47 CG 30.83 CD1 29.82 CD2 22.76
A MET H 14 -60.4 -43.8 N 30.79 CA 32.25 C 35.56 O 39.35 CB 31.02 CG 39.81 SD 53.73 CE 37.13
A MET H 2 -71.7 -25.3 N 29.15 CA 27.99 C 32.85 O 37.56 CB 26.07 CG 24.8 SD 26.76 CE 22.21
A GLY T 48 79.0 27.1 N 28.02 CA 27.48 C 27.03 O 28.95
A ILE S 32 -122.4 167.6 N 23.14 CA 26.14 C 28.01 O 31.43 CB 28.36 CG1 24.73 CG2 25.51 CD1 21.33
A ASN - 106 -71.4 136.8 N 26.65 CA 27.31 C 28.91 O 26.94 CB 34.19 CG 33.47 OD1 31.46 ND2 33.22
A ARG H 143 -48.8 -40.7 N 30.2 CA 28.78 C 30.65 O 27.84 CB 33.92 CG 37.15 CD 42.04 NE 41.89 CZ 42.34 NH1 37.56 NH2 43.18
A GLY H 34 -65.8 -47.1 N 31.82 CA 28.72 C 32.85 O 33.48
A THR H 52 -48.4 -48.8 N 29.23 CA 26.65 C 26.86 O 26.37 CB 31.64 OG1 30.49 CG2 26.51
A LEU H 0 -63.6 -39.2 N 25.03 CA 21.48 C 27.07 O 26.75 CB 20.14 CG 23.86 CD1 20.21 CD2 25.75
A ARG H 132 -55.6 -54.2 N 29.94 CA 29.06 C 33.63 O 29.9 CB 33.09 CG 43.07 CD 44.85 NE 40.65 CZ 46.6 NH1 49.41 NH2 52.14
A LYS H 150 -47.7 -50.6 N 34.19 CA 27.42 C 27.78 O 32.28 CB 27.0 CG 32.62 CD 33.56 CE 38.11 NZ 39.35
A LYS H 36 -65.3 -37.5 N 25.95 CA 24.78 C 26.39 O 24.91 CB 20.75 CG 21.51 CD 17.42 CE 16.2 NZ 21.76
A LEU H 5 -70.1 -38.8 N 30.56 CA 34.63 C 34.49 O 33.8 CB 32.48 CG 27.09 CD1 26.7 CD2 26.18
A LYS H 133 -63.5 -42.8 N 32.45 CA 38.35 C 37.1 O 30.14 CB 42.46 CG 51.26 CD 58.79 CE 58.41 NZ 58.55
A LYS H 112 -53.9 -41.1 N 38.46 CA 32.64 C 27.63 O 30.34 CB 27.92 CG 26.21 CD 30.77 CE 32.86 NZ 47.25
A TYR T 36 -103.6 12.3 N 27.38 CA 33.56 C 33.81 O 34.57 CB 32.54 CG 26.38 CD1 29.02 CD2 26.31 CE1 27.77 CE2 24.73 CZ 26.31 OH 25.8
A GLY T 51 56.2 28.8 N 33.84 CA 39.37 C 39.01 O 41.32
A MET - 62 -98.0 87.7 N 42.68 CA 44.88 C 44.28 O 47.87 CB 44.84 CG 38.62 SD 33.77 CE 33.27
A ASN - 129 178.3 360.0 N 47.82 CA 50.68 C 52.17 O 63.09 CB 43.19 CG 48.01 OD1 45.08 ND2 51.2
B MET - 225 360.0 -35.4 N 52.13 CA 50.56 C 47.34 O 39.46 CB 45.03 CG 53.11 SD 110.63 CE 71.35
B PHE - 195 -102.8 111.8 N 45.21 CA 35.86 C 30.89 O 31.79 CB 27.17 CG 34.23 CD1 38.31 CD2 33.8 CE1 36.42 CE2 31.61 CZ 32.88
B GLU - 187 -78.5 146.5 N 25.08 CA 28.49 C 24.9 O 25.02 CB 19.94 CG 22.09 CD 28.2 OE1 28.84 OE2 29.1
B GLN - 172 -71.2 137.8 N 24.84 CA 24.96 C 23.75 O 24.52 CB 23.92 CG 24.23 CD 27.87 OE1 28.54 NE2 32.11
B ARG - 141 -129.0 108.3 N 21.45 CA 22.83 C 22.81 O 25.95 CB 21.6 CG 20.77 CD 17.63 NE 15.03 CZ 22.99 NH1 25.57 NH2 21.26
B VAL - 69 -84.9 168.3 N 23.98 CA 30.75 C 31.76 O 29.41 CB 27.84 CG1 35.07 CG2 18.32
B ASN H 106 -57.3 -38.4 N 30.99 CA 31.62 C 29.65 O 30.83 CB 33.36 CG 38.28 OD1 38.09 ND2 41.02
B SER H 38 -65.5 -11.5 N 25.48 CA 25.96 C 29.91 O 31.97 CB 28.08 OG 34.22
B ASP H 53 -106.6 -7.2 N 26.77 CA 29.58 C 26.42 O 21.41 CB 32.55 CG 38.58 OD1 41.21 OD2 39.56
B VAL H 28 -68.1 -49.7 N 22.45 CA 20.14 C 25.3 O 21.0 CB 16.51 CG1 16.16 CG2 18.46
B LEU S 1 -105.0 106.1 N 29.28 CA 24.15 C 21.83 O 25.7 CB 21.33 CG 19.88 CD1 18.09 CD2 18.9
B THR E 3 -129.3 164.7 N 17.79 CA 18.01 C 22.08 O 25.19 CB 20.93 OG1 23.44 CG2 22.87
B VAL E 9 -130.4 140.8 N 21.33 CA 20.86 C 23.34 O 30.53 CB 19.94 CG1 22.79 CG2 19.18
B SER E 56 -77.2 116.2 N 17.1 CA 17.59 C 23.4 O 25.13 CB 23.76 OG 33.25
B THR E 43 -106.9 162.4 N 26.99 CA 25.15 C 26.66 O 28.66 CB 31.62 OG1 35.65 CG2 27.99
B VAL E 69 -118.8 128.4 N 31.93 CA 34.2 C 37.73 O 41.66 CB 28.77 CG1 37.1 CG2 32.99
B ASN - 48 -98.8 -176.0 N 40.37 CA 44.18 C 47.88 O 49.4 CB 40.01 CG 38.79 OD1 40.0 ND2 38.44
B SER T 108 -58.9 8.8 N 50.77 CA 51.92 C 55.78 O 59.36 CB 48.97 OG 47.58
B GLN T 130 -138.6 16.1 N 46.51 CA 41.37 C 50.82 O 48.73 CB 37.65 CG 41.43 CD 49.63 OE1 42.06 NE2 54.36
B ASP S 116 49.8 44.5 N 52.43 CA 52.9 C 49.16 O 47.96 CB 56.62 CG 73.16 OD1 66.0 OD2 81.91
B GLN - 119 -108.0 129.5 N 46.58 CA 40.63 C 41.9 O 36.63 CB 36.39 CG 37.38 CD 49.03 OE1 43.82 NE2 46.66
B VAL E 102 -85.6 131.9 N 34.52 CA 29.42 C 27.38 O 23.85 CB 27.52 CG1 24.02 CG2 25.28
B THR E 43 -139.3 147.5 N 26.34 CA 28.52 C 29.18 O 28.4 CB 31.38 OG1 41.99 CG2 27.35
B GLN E 66 -87.5 126.4 N 26.58 CA 26.14 C 28.27 O 36.18 CB 28.78 CG 26.73 CD 26.6 OE1 29.87 NE2 22.11
B LYS E 76 -126.1 144.3 N 26.53 CA 26.52 C 23.02 O 22.02 CB 27.86 CG 40.2 CD 50.55 CE 45.59 NZ 41.51
B PRO E 20 -40.7 147.5 N 24.47 CA 25.26 C 23.94 O 22.14 CB 21.0 CG 21.34 CD 23.5
B LEU H 0 -64.4 -33.7 N 23.91 CA 20.8 C 20.58 O 21.83 CB 16.62 CG 14.64 CD1 15.73 CD2 12.56
B ARG H 51 -42.1 -49.4 N 19.55 CA 19.68 C 22.19 O 22.73 CB 20.12 CG 20.82 CD 21.54 NE 29.87 CZ 38.22 NH1 31.59 NH2 45.9
B ASP H 79 -68.2 -39.0 N 22.4 CA 18.44 C 19.53 O 24.84 CB 15.78 CG 25.02 OD1 25.21 OD2 30.52
B SER H 14 -57.3 -50.8 N 19.25 CA 18.01 C 19.74 O 19.31 CB 19.97 OG 24.04
B VAL H 0 -54.3 -54.4 N 19.67 CA 18.26 C 17.79 O 21.34 CB 17.53 CG1 16.19 CG2 18.5
B LYS H 78 -44.7 -50.5 N 18.22 CA 26.44 C 24.11 O 19.08 CB 26.32 CG 27.99 CD 42.14 CE 46.52 NZ 37.24
B GLN H 74 -68.0 -42.9 N 23.93 CA 24.16 C 22.72 O 26.26 CB 21.8 CG 29.17 CD 42.84 OE1 40.76 NE2 40.82
B ALA H 1 -54.5 -40.6 N 22.89 CA 22.03 C 21.82 O 25.46 CB 18.03
B LEU H 1 -71.0 -45.3 N 22.12 CA 22.47 C 27.37 O 25.36 CB 18.01 CG 17.92 CD1 17.15 CD2 17.91
B LYS H 137 -54.6 -43.2 N 24.59 CA 23.4 C 26.98 O 34.5 CB 26.8 CG 31.39 CD 34.81 CE 39.87 NZ 43.73
B ASN H 49 -68.8 -37.9 N 27.41 CA 28.3 C 28.24 O 34.21 CB 31.67 CG 33.85 OD1 34.52 ND2 32.96
B TYR H 32 -64.0 -35.7 N 26.69 CA 28.48 C 33.59 O 38.52 CB 25.16 CG 25.49 CD1 28.64 CD2 27.73 CE1 31.0 CE2 31.71 CZ 32.92 OH 33.46
B PHE H 20 -71.2 -63.0 N 32.94 CA 35.1 C 41.16 O 44.79 CB 27.37 CG 27.11 CD1 28.98 CD2 26.17 CE1 28.78 CE2 26.14 CZ 26.62
B ALA H 80 -51.8 -21.4 N 38.85 CA 37.13 C 36.75 O 50.86 CB 35.08
B GLN T 130 -105.1 32.1 N 37.19 CA 46.37 C 48.55 O 50.39 CB 50.05 CG 54.89 CD 65.09 OE1 67.33 NE2 56.21
B LEU - 18 -124.7 87.7 N 50.24 CA 57.45 C 71.59 O 69.93 CB 49.2 CG 55.31 CD1 59.02 CD2 41.2
B ASN - 155 -111.6 94.9 N 83.3 CA 87.12 C 88.89 O 84.4 CB 88.95 CG 86.16 OD1 82.09 ND2 72.06
B GLY S 59 -158.5 29.6 N 91.19 CA 83.31 C 83.83 O 78.88
B GLN - 116 -69.4 175.4 N 86.25 CA 87.81 C 85.23 O 73.54 CB 80.21 CG 79.67 CD 87.36 OE1 83.09 NE2 87.99
B ASP - 136 -77.2 157.4 N 81.99 CA 77.32 C 76.23 O 69.14 CB 73.19 CG 72.46 OD1 75.68 OD2 65.29
B VAL - 12 -117.2 142.0 N 66.93 CA 51.27 C 48.1 O 54.66 CB 49.16 CG1 46.93 CG2 41.66
B ASN S 111 -126.3 7.0 N 47.53 CA 47.06 C 48.85 O 48.46 CB 44.72 CG 53.94 OD1 56.83 ND2 47.82
B ASP - 68 -156.4 37.7 N 42.41 CA 38.28 C 35.22 O 36.94 CB 42.05 CG 61.8 OD1 61.91 OD2 65.02
B LEU H 0 -59.3 -37.1 N 32.18 CA 27.35 C 25.66 O 24.63 CB 23.92 CG 22.91 CD1 26.34 CD2 22.33
B TYR H 35 -67.1 -52.3 N 25.04 CA 24.22 C 22.63 O 21.16 CB 23.72 CG 20.83 CD1 20.88 CD2 21.71 CE1 23.15 CE2 22.45 CZ 20.72 OH 16.14
B GLU H 86 -63.5 -32.0 N 25.69 CA 21.73 C 25.48 O 24.93 CB 17.94 CG 24.27 CD 34.62 OE1 29.76 OE2 35.36
B LEU H 46 -59.3 -60.7 N 26.05 CA 23.42 C 21.87 O 22.78 CB 21.78 CG 22.2 CD1 20.33 CD2 23.32
B VAL H 4 -58.0 -46.1 N 22.45 CA 16.61 C 18.95 O 22.35 CB 17.0 CG1 11.94 CG2 24.35
B LEU H 25 -58.5 -43.6 N 17.27 CA 18.53 C 19.76 O 18.75 CB 20.37 CG 19.08 CD1 15.3 CD2 17.65
B ALA H 19 -69.0 -40.2 N 19.2 CA 17.83 C 19.39 O 21.45 CB 18.73
B GLU H 18 -62.1 -24.4 N 15.3 CA 15.12 C 16.81 O 17.51 CB 15.07 CG 15.15 CD 18.4 OE1 17.85 OE2 23.52
B VAL H 6 -99.9 -35.5 N 17.29 CA 16.34 C 17.42 O 19.22 CB 15.16 CG1 13.81 CG2 13.81
B GLU H 2 -62.6 -46.8 N 12.84 CA 13.02 C 15.11 O 14.09 CB 13.52 CG 12.87 CD 13.68 OE1 13.49 OE2 15.41
B GLN H 78 -45.8 -52.9 N 16.27 CA 12.59 C 18.94 O 18.57 CB 16.88 CG 25.43 CD 35.01 OE1 28.77 NE2 32.73
B PRO H 6 -75.5 -29.9 N 18.09 CA 17.96 C 16.14 O 15.14 CB 16.03 CG 15.5 CD 14.58
B LEU H 1 -64.5 -39.3 N 15.89 CA 15.56 C 15.68 O 16.09 CB 14.92 CG 10.46 CD1 9.72 CD2 10.19
B LEU H 2 -69.9 -38.0 N 17.53 CA 18.51 C 17.29 O 17.01 CB 15.96 CG 11.94 CD1 15.01 CD2 11.12
B ASP H 55 -64.1 -54.0 N 19.67 CA 22.46 C 20.24 O 24.84 CB 27.42 CG 33.32 OD1 34.96 OD2 41.79
B MET H 8 -62.2 -40.3 N 19.06 CA 17.59 C 21.08 O 27.63 CB 17.81 CG 19.1 SD 26.16 CE 25.04
B VAL H 0 -63.1 -45.9 N 20.62 CA 19.85 C 22.16 O 23.07 CB 15.61 CG1 18.68 CG2 17.26
B MET H 28 -61.3 -42.9 N 24.4 CA 24.88 C 28.45 O 29.22 CB 23.79 CG 24.17 SD 24.69 CE 25.34
B GLN H 116 -56.8 -43.0 N 23.2 CA 25.36 C 27.72 O 30.14 CB 23.95 CG 35.38 CD 41.28 OE1 41.13 NE2 34.9
B TYR H 72 -72.6 -21.6 N 25.05 CA 26.66 C 28.26 O 29.91 CB 24.96 CG 27.65 CD1 25.16 CD2 24.41 CE1 22.45 CE2 24.84 CZ 26.64 OH 32.96
B THR T 0 -106.6 14.8 N 23.64 CA 26.41 C 30.61 O 24.1 CB 27.59 OG1 25.94 CG2 27.17
B ARG T 201 45.6 51.1 N 34.04 CA 36.48 C 28.39 O 35.04 CB 35.14 CG 35.78 CD 44.73 NE 54.56 CZ 61.36 NH1 54.59 NH2 58.89
B GLY T 48 84.9 -10.8 N 23.17 CA 21.72 C 23.15 O 20.15
B ASN - 63 -72.8 114.1 N 24.67 CA 27.95 C 27.64 O 26.37 CB 23.7 CG 27.66 OD1 31.01 ND2 27.88
B GLN H 51 -79.2 -25.4 N 24.96 CA 26.6 C 27.06 O 26.26 CB 20.06 CG 19.86 CD 23.83 OE1 29.48 NE2 20.43
B THR H 78 -71.9 -47.7 N 30.19 CA 33.96 C 31.58 O 31.43 CB 32.8 OG1 36.83 CG2 31.82
B ARG H 96 -66.1 -43.6 N 30.81 CA 29.27 C 27.84 O 23.18 CB 34.3 CG 36.11 CD 42.06 NE 44.37 CZ 49.78 NH1 42.66 NH2 44.12
B ALA H 0 -52.0 -66.3 N 29.09 CA 23.06 C 21.83 O 25.04 CB 20.34
B ALA H 3 -54.0 -31.4 N 22.72 CA 19.66 C 22.26 O 25.98 CB 19.75
B LEU H 121 -70.1 -40.2 N 21.42 CA 22.93 C 24.56 O 25.16 CB 25.76 CG 19.62 CD1 16.41 CD2 22.64
B MET H 15 -82.9 -27.6 N 23.44 CA 25.69 C 26.86 O 28.94 CB 23.5 CG 26.0 SD 38.84 CE 28.29
B MET H 0 -70.1 -28.0 N 19.79 CA 19.55 C 26.23 O 32.15 CB 16.88 CG 13.19 SD 24.32 CE 10.5
B GLY T 38 90.1 23.9 N 22.85 CA 23.66 C 21.12 O 19.34
B ILE S 30 -124.6 152.9 N 20.2 CA 20.58 C 22.65 O 23.65 CB 20.03 CG1 15.76 CG2 15.63 CD1 12.15
B ASN - 116 -58.6 136.0 N 22.79 CA 25.45 C 23.55 O 24.55 CB 29.02 CG 27.89 OD1 24.13 ND2 38.15
B ARG H 142 -51.3 -30.5 N 22.55 CA 21.06 C 23.23 O 22.76 CB 19.12 CG 24.18 CD 31.35 NE 29.16 CZ 32.93 NH1 31.05 NH2 35.1
B GLY H 35 -70.5 -43.7 N 24.48 CA 22.52 C 23.82 O 27.46
B THR H 48 -71.1 -29.2 N 20.11 CA 20.36 C 19.97 O 21.03 CB 23.18 OG1 16.96 CG2 25.1
B LEU H 0 -63.1 -39.7 N 20.7 CA 16.17 C 19.57 O 19.71 CB 14.93 CG 17.81 CD1 17.13 CD2 20.49
B ARG H 136 -62.2 -47.7 N 22.39 CA 21.86 C 22.42 O 20.98 CB 27.11 CG 38.06 CD 41.82 NE 37.72 CZ 42.74 NH1 52.08 NH2 38.4
B LYS H 159 -51.9 -54.1 N 21.97 CA 21.34 C 20.45 O 20.81 CB 18.21 CG 18.54 CD 24.12 CE 34.15 NZ 44.22
B LYS H 41 -57.5 -47.0 N 15.8 CA 16.76 C 22.04 O 22.07 CB 12.43 CG 11.93 CD 10.27 CE 11.03 NZ 10.22
B LEU H 2 -57.8 -44.1 N 22.49 CA 23.8 C 27.4 O 25.39 CB 21.77 CG 21.45 CD1 20.87 CD2 19.63
B LYS H 167 -61.8 -49.3 N 25.72 CA 30.16 C 27.76 O 25.27 CB 35.22 CG 43.07 CD 46.73 CE 51.97 NZ 53.95
B LYS H 99 -52.1 -31.9 N 30.04 CA 28.13 C 27.97 O 35.67 CB 26.01 CG 20.1 CD 22.84 CE 28.69 NZ 36.92
B TYR T 33 -103.6 7.5 N 25.58 CA 27.61 C 31.95 O 36.44 CB 27.88 CG 21.95 CD1 21.92 CD2 18.68 CE1 23.13 CE2 19.47 CZ 22.7 OH 23.42
B GLY T 60 69.6 27.2 N 33.29 CA 37.74 C 35.53 O 42.18
B MET - 47 -97.4 74.9 N 37.06 CA 36.48 C 39.46 O 36.66 CB 31.84 CG 36.73 SD 22.16 CE 25.35
B ASN - 152 -143.4 360.0 N 50.28 CA 55.26 C 60.52 O 62.06 CB 44.26 CG 47.01 OD1 45.29 ND2 37.65
