A GLU - 113 360.0 131.0 N 48.41 CA 40.14 C 34.08 O 32.43 CB 53.55
A ASN E 106 -111.8 113.3 N 32.29 CA 25.62 C 23.9 O 28.89 CB 29.57 CG 32.38 OD1 30.64 ND2 42.51
A TYR E 141 -96.3 119.9 N 26.29 CA 26.54 C 22.72 O 21.15 CB 33.41 CG 43.1 CD1 74.66 CD2 68.77 CE1 80.32 CE2 77.52 CZ 82.14 OH 101.29
A LEU E 112 -72.2 132.5 N 21.36 CA 17.7 C 17.39 O 20.51 CB 17.93 CG 16.64 CD1 16.57 CD2 18.24
A ILE E 25 -110.5 -45.9 N 16.85 CA 17.99 C 15.39 O 18.26 CB 18.0 CG1 19.67 CG2 18.76 CD1 22.24
A TYR E 41 -156.6 139.9 N 14.79 CA 14.31 C 13.03 O 14.84 CB 15.85 CG 14.76 CD1 16.35 CD2 13.91 CE1 17.27 CE2 13.83 CZ 15.25 OH 17.23
A SER E 79 -133.5 129.3 N 13.02 CA 12.48 C 12.33 O 14.8 CB 13.51 OG 16.87
A GLY E 5 -172.6 -156.2 N 11.68 CA 11.67 C 11.96 O 12.61
A PHE E 158 -150.9 147.0 N 11.72 CA 11.66 C 11.57 O 11.71 CB 11.97 CG 12.75 CD1 14.27 CD2 15.17 CE1 16.5 CE2 19.99 CZ 20.56
A GLY E 18 125.7 -138.5 N 11.8 CA 12.67 C 12.08 O 12.51
A THR E 60 -131.8 3.8 N 11.97 CA 11.36 C 11.49 O 13.83 CB 12.57 OG1 13.66 CG2 13.46
A SER E 62 -157.6 175.4 N 12.05 CA 13.81 C 13.1 O 12.62 CB 16.39 OG 19.83
A LEU - 24 -99.2 141.6 N 12.59 CA 13.53 C 15.34 O 17.59 CB 13.53 CG 13.4 CD1 15.5 CD2 15.66
A PRO S 98 -78.4 -15.9 N 25.61 CA 27.03 C 27.94 O 31.58 CB 29.24 CG 27.84 CD 25.45
A GLN S 127 -150.8 176.8 N 26.78 CA 28.29 C 26.21 O 24.47 CB 31.46 CG 32.19 CD 38.4 OE1 47.19 NE2 38.74
A THR - 68 -87.6 155.5 N 26.64 CA 26.56 C 26.34 O 27.64 CB 28.25 OG1 32.0 CG2 28.51
A TYR E 22 -131.2 150.1 N 23.86 CA 24.24 C 24.69 O 24.88 CB 24.47 CG 24.54 CD1 25.48 CD2 23.09 CE1 26.62 CE2 24.35 CZ 25.82 OH 27.57
A THR E 80 -107.6 128.5 N 27.44 CA 28.29 C 28.26 O 32.51 CB 31.83 OG1 36.31 CG2 35.44
A ILE - 0 -81.7 125.6 N 26.22 CA 28.87 C 32.19 O 33.61 CB 34.6 CG1 35.42 CG2 38.79 CD1 36.76
A PRO - 58 -83.7 -17.6 N 34.31 CA 41.98 C 43.99 O 53.4 CB 48.52 CG 43.69 CD 37.1
A ALA S 32 -148.4 169.4 N 38.45 CA 36.95 C 37.57 O 32.32 CB 39.78
A ASN S 111 -68.9 138.5 N 34.87 CA 31.54 C 33.13 O 37.17 CB 36.05 CG 39.84 OD1 36.36 ND2 56.15
A GLY E 17 163.0 -150.3 N 29.86 CA 29.5 C 28.32 O 28.47
A TYR E 109 -114.3 120.5 N 26.86 CA 24.09 C 21.77 O 22.46 CB 27.11 CG 34.82 CD1 34.11 CD2 40.14 CE1 47.3 CE2 69.02 CZ 54.32 OH 108.8
A LEU E 0 -76.1 125.3 N 20.75 CA 18.58 C 18.26 O 20.54 CB 18.54 CG 17.95 CD1 18.36 CD2 19.81
A ILE E 0 -112.6 125.5 N 17.05 CA 17.5 C 16.27 O 16.11 CB 20.42 CG1 24.34 CG2 19.23 CD1 29.16
A ILE E 0 -117.2 110.9 N 15.84 CA 15.0 C 14.54 O 16.87 CB 16.46 CG1 17.82 CG2 16.46 CD1 21.13
A SER E 21 -105.0 112.6 N 14.52 CA 14.08 C 13.6 O 14.55 CB 16.63 OG 22.3
A ILE E 0 -110.7 118.0 N 20.41 CA 19.31 C 20.11 O 21.01 CB 19.03 CG1 19.28 CG2 19.35 CD1 19.2
A THR E 70 -121.8 138.9 N 19.77 CA 21.52 C 19.57 O 19.75 CB 26.35 OG1 25.99 CG2 27.79
A ASN - 44 -162.6 -171.7 N 19.3 CA 19.91 C 20.12 O 19.65 CB 20.9 CG 20.41 OD1 19.92 ND2 20.97
A THR S 159 -85.9 5.6 N 20.63 CA 21.76 C 22.12 O 25.72 CB 24.24 OG1 26.42 CG2 28.18
A SER S 80 -125.9 -172.9 N 23.82 CA 27.23 C 25.93 O 23.9 CB 37.8 OG 45.15
A THR - 124 -135.2 157.5 N 26.29 CA 27.35 C 29.16 O 32.71 CB 30.15 OG1 31.59 CG2 37.53
A GLY S 24 109.4 -161.5 N 20.55 CA 21.0 C 19.7 O 18.06
A ASN E 106 -61.8 141.2 N 18.23 CA 16.61 C 15.71 O 20.02 CB 19.51 CG 21.55 OD1 21.63 ND2 31.56
A ILE E 6 -137.8 -11.1 N 14.45 CA 14.15 C 13.49 O 13.92 CB 14.88 CG1 15.57 CG2 14.84 CD1 16.38
A GLY E 11 158.2 -148.2 N 14.0 CA 14.14 C 12.73 O 12.86
A GLN E 101 -144.8 148.9 N 12.15 CA 12.12 C 11.35 O 11.92 CB 12.13 CG 13.27 CD 18.51 OE1 28.0 NE2 16.66
A ILE E 0 -132.1 145.8 N 11.95 CA 11.1 C 11.48 O 13.21 CB 12.11 CG1 12.96 CG2 13.38 CD1 14.72
A THR E 22 -118.7 130.3 N 13.8 CA 13.73 C 13.34 O 13.87 CB 16.01 OG1 25.22 CG2 16.44
A LEU E 0 -118.5 147.5 N 13.36 CA 13.37 C 13.33 O 15.54 CB 14.83 CG 15.07 CD1 17.51 CD2 14.99
A THR E 33 -130.0 137.5 N 14.52 CA 15.05 C 16.64 O 18.39 CB 16.89 OG1 23.4 CG2 16.85
A ILE E 43 -139.1 119.1 N 20.22 CA 20.67 C 19.19 O 18.88 CB 23.57 CG1 27.16 CG2 22.53 CD1 27.93
A GLY T 80 57.6 -122.5 N 23.02 CA 21.51 C 20.25 O 24.47
A SER T 129 -97.4 10.5 N 18.97 CA 17.17 C 16.46 O 19.35 CB 18.5 OG 18.17
A THR E 70 -109.0 132.4 N 15.09 CA 15.0 C 13.49 O 16.68 CB 16.5 OG1 19.85 CG2 19.35
A THR E 94 -112.1 138.0 N 12.6 CA 12.06 C 11.19 O 11.95 CB 14.86 OG1 18.78 CG2 16.69
A MET E 56 -127.9 141.6 N 11.28 CA 11.17 C 11.27 O 10.97 CB 12.51 CG 12.92 SD 16.98 CE 19.27
A THR E 81 -122.2 129.0 N 11.41 CA 11.4 C 10.61 O 11.68 CB 12.84 OG1 17.71 CG2 13.49
A PHE E 63 -124.9 139.6 N 11.48 CA 11.43 C 11.82 O 12.6 CB 12.36 CG 13.29 CD1 13.54 CD2 15.58 CE1 15.24 CE2 16.7 CZ 16.55
A ASN E 92 -66.9 138.5 N 14.06 CA 13.52 C 14.6 O 15.29 CB 15.57 CG 16.34 OD1 18.44 ND2 17.71
A LEU E 0 -113.6 141.7 N 13.78 CA 14.29 C 13.86 O 14.63 CB 14.18 CG 14.67 CD1 14.41 CD2 15.88
A GLN E 97 -116.9 166.6 N 16.4 CA 17.18 C 16.03 O 16.34 CB 19.13 CG 22.92 CD 28.71 OE1 35.43 NE2 36.77
A THR S 29 -65.2 156.4 N 17.01 CA 17.74 C 17.89 O 19.75 CB 18.74 OG1 21.08 CG2 18.87
A GLY E 29 83.6 -152.5 N 18.44 CA 18.78 C 18.67 O 18.49
A GLU E 130 -89.7 130.5 N 20.04 CA 20.94 C 20.7 O 21.06 CB 24.13 CG 26.22 CD 33.44 OE1 35.71 OE2 37.91
A ASN E 20 -117.8 122.3 N 17.2 CA 16.2 C 18.42 O 20.21 CB 14.6 CG 14.38 OD1 16.07 ND2 14.99
A LYS E 117 -121.5 125.7 N 20.09 CA 20.62 C 20.85 O 22.6 CB 24.03 CG 28.57 CD 33.87 CE 32.14 NZ 33.87
A ILE E 13 -133.4 118.5 N 20.29 CA 20.17 C 22.43 O 20.97 CB 19.36 CG1 19.31 CG2 20.43 CD1 19.86
A PRO E 94 -60.0 133.5 N 23.97 CA 26.17 C 23.86 O 26.22 CB 32.88 CG 36.1 CD 27.92
A VAL E 13 -140.7 153.0 N 22.76 CA 22.81 C 25.08 O 25.11 CB 22.54 CG1 21.46 CG2 22.64
A ILE - 94 -105.5 156.1 N 26.07 CA 27.85 C 25.88 O 25.23 CB 32.62 CG1 31.37 CG2 38.05 CD1 36.02
A ALA T 45 -49.0 132.5 N 28.51 CA 28.54 C 26.62 O 29.2 CB 31.83
A GLY T 37 90.0 -2.7 N 26.99 CA 26.46 C 22.49 O 26.82
A THR - 2 -56.6 138.3 N 21.64 CA 19.85 C 18.27 O 21.02 CB 19.88 OG1 22.23 CG2 19.05
A GLN E 53 -103.6 139.4 N 17.68 CA 18.43 C 16.39 O 17.68 CB 20.87 CG 29.3 CD 33.63 OE1 39.19 NE2 39.15
A ILE E 0 -91.0 103.9 N 16.76 CA 14.41 C 14.83 O 17.68 CB 15.12 CG1 15.99 CG2 16.97 CD1 18.38
A THR E 55 -93.1 -26.4 N 15.35 CA 17.57 C 16.02 O 19.06 CB 16.92 OG1 15.33 CG2 23.98
A ASN E 69 -156.1 149.2 N 14.7 CA 13.94 C 13.82 O 14.74 CB 13.81 CG 15.28 OD1 17.98 ND2 19.29
A MET E 0 -142.3 139.5 N 13.56 CA 12.42 C 13.46 O 14.85 CB 10.43 CG 12.39 SD 12.56 CE 12.7
A THR E 73 -135.0 119.6 N 12.44 CA 12.86 C 13.01 O 15.2 CB 15.81 OG1 18.83 CG2 18.38
A LEU E 10 -105.4 153.2 N 11.98 CA 12.24 C 13.53 O 14.85 CB 11.49 CG 11.99 CD1 12.45 CD2 14.7
A THR E 112 -87.8 -15.1 N 14.32 CA 15.75 C 17.84 O 20.41 CB 18.58 OG1 20.63 CG2 20.0
A SER E 57 -152.3 150.5 N 17.19 CA 18.44 C 16.04 O 14.98 CB 25.4 OG 27.9
A SER E 88 -60.8 135.5 N 14.85 CA 13.97 C 13.86 O 15.6 CB 14.53 OG 16.6
A SER E 6 -143.6 164.5 N 13.18 CA 12.01 C 12.92 O 14.31 CB 13.36 OG 14.92
A ALA E 29 -82.5 137.0 N 13.49 CA 13.34 C 12.54 O 14.98 CB 14.21
A ILE E 2 -124.7 121.1 N 12.32 CA 11.94 C 11.63 O 13.5 CB 13.16 CG1 12.88 CG2 13.7 CD1 14.95
A LEU E 62 -125.4 124.9 N 12.06 CA 12.03 C 12.21 O 13.45 CB 12.76 CG 14.33 CD1 16.79 CD2 15.41
A ILE E 0 -126.8 125.9 N 12.05 CA 12.85 C 13.58 O 14.32 CB 13.15 CG1 13.97 CG2 15.1 CD1 15.08
A TYR E 32 -149.4 168.9 N 14.71 CA 15.24 C 16.89 O 17.59 CB 15.66 CG 17.1 CD1 17.32 CD2 20.44 CE1 20.05 CE2 21.42 CZ 21.17 OH 24.79
A GLU E 1 -123.3 130.3 N 19.07 CA 20.21 C 20.62 O 24.46 CB 21.98 CG 22.05 CD 21.29 OE1 24.68 OE2 25.62
A GLU E 63 -83.6 119.6 N 22.28 CA 25.08 C 30.56 O 28.61 CB 28.01 CG 28.58 CD 37.47 OE1 38.03 OE2 41.35
A VAL - 82 -124.2 360.0 N 28.39 CA 32.4 C 47.84 O 49.9 CB 37.7
