A GLN - 210 360.0 131.6 N 83.82 CA 80.66 C 79.76 O 78.54 CB 79.41 CG 97.44 CD 118.48 OE1 113.03 NE2 112.32
A GLU - 133 -67.7 145.2 N 72.84 CA 70.22 C 65.39 O 62.87 CB 73.97 CG 91.61 CD 127.14 OE1 127.47 OE2 130.02
A THR - 95 -75.0 120.3 N 57.45 CA 52.85 C 52.06 O 53.7 CB 57.32 OG1 59.61 CG2 48.76
A LEU - 12 -76.0 139.1 N 43.62 CA 44.07 C 48.19 O 46.91 CB 42.93 CG 47.86 CD1 44.76 CD2 54.73
A THR - 56 -126.0 157.9 N 46.35 CA 47.05 C 51.77 O 51.23 CB 53.69 OG1 56.99 CG2 49.3
A ALA H 46 -54.7 -42.5 N 49.62 CA 51.91 C 60.36 O 62.21 CB 53.75
A SER H 92 -67.1 -40.9 N 58.52 CA 63.42 C 68.85 O 72.58 CB 69.82 OG 78.02
A ARG H 96 -67.3 -32.7 N 62.61 CA 63.18 C 66.26 O 69.71 CB 62.88 CG 80.34 CD 97.61 NE 108.85 CZ 125.37 NH1 115.38 NH2 110.17
A LEU H 1 -78.0 -40.9 N 57.74 CA 55.71 C 66.09 O 67.2 CB 51.28 CG 50.55 CD1 47.48 CD2 49.87
A ALA H 72 -56.5 -27.0 N 65.92 CA 70.44 C 78.92 O 81.52 CB 73.34
A SER T 104 -73.7 -22.5 N 76.27 CA 80.92 C 83.75 O 88.0 CB 86.42 OG 92.94
A ALA S 20 -96.3 156.1 N 74.27 CA 72.36 C 74.52 O 72.5 CB 68.17
A PRO - 86 -59.2 149.2 N 71.69 CA 71.46 C 69.91 O 65.07 CB 75.32 CG 82.58 CD 74.84
A PRO H 100 -49.9 -45.8 N 67.23 CA 62.83 C 62.77 O 58.39 CB 67.35 CG 76.87 CD 73.57
A GLN H 64 -66.3 -30.7 N 61.06 CA 57.6 C 57.27 O 52.54 CB 61.62 CG 87.65 CD 109.14 OE1 104.04 NE2 100.43
A LYS H 85 -70.4 -36.4 N 55.56 CA 54.45 C 52.57 O 49.03 CB 62.08 CG 82.38 CD 96.3 CE 105.59 NZ 106.56
A GLN H 31 -58.2 -51.1 N 48.54 CA 44.78 C 45.37 O 42.77 CB 46.79 CG 60.29 CD 69.31 OE1 60.04 NE2 59.66
A LYS H 44 -59.4 -39.7 N 42.37 CA 39.53 C 40.42 O 38.67 CB 43.01 CG 65.62 CD 83.53 CE 97.35 NZ 105.23
A GLN H 33 -63.8 -43.6 N 37.42 CA 36.64 C 39.7 O 36.3 CB 40.84 CG 42.3 CD 54.13 OE1 45.66 NE2 49.78
A LEU H 0 -69.4 -40.0 N 34.36 CA 32.25 C 36.26 O 36.2 CB 32.79 CG 39.33 CD1 40.62 CD2 38.36
A GLY H 0 -59.5 -41.5 N 33.7 CA 31.89 C 37.3 O 37.26
A GLU H 93 -61.1 -34.0 N 35.06 CA 37.62 C 39.25 O 39.19 CB 42.39 CG 65.79 CD 109.63 OE1 114.32 OE2 109.65
A ARG H 59 -83.2 -40.2 N 33.46 CA 32.46 C 35.35 O 35.13 CB 33.35 CG 45.21 CD 56.41 NE 69.56 CZ 76.59 NH1 54.78 NH2 67.07
A LEU H 0 -70.3 -47.1 N 31.51 CA 31.47 C 35.1 O 33.61 CB 31.7 CG 38.58 CD1 40.1 CD2 40.52
A PHE H 19 -51.7 -53.3 N 31.2 CA 30.48 C 35.38 O 35.86 CB 31.77 CG 33.13 CD1 35.39 CD2 34.95 CE1 36.77 CE2 38.32 CZ 36.68
A PRO H 68 -58.8 -35.5 N 32.21 CA 33.13 C 36.28 O 38.09 CB 35.41 CG 39.5 CD 33.26
A LEU H 79 -70.7 -43.7 N 32.14 CA 31.92 C 34.76 O 35.9 CB 30.54 CG 33.48 CD1 31.87 CD2 35.13
A ILE H 0 -67.6 -40.3 N 30.4 CA 30.37 C 34.02 O 34.22 CB 31.7 CG1 32.04 CG2 30.37 CD1 33.03
A GLN H 91 -63.0 -35.3 N 29.61 CA 30.3 C 38.58 O 42.17 CB 30.78 CG 33.16 CD 44.48 OE1 42.01 NE2 33.81
A ALA H 88 -63.2 -32.4 N 34.78 CA 37.67 C 46.11 O 47.12 CB 37.88
A HIS - 50 -133.3 81.3 N 51.67 CA 53.06 C 53.97 O 51.91 CB 54.6 CG 60.85 ND1 65.89 CD2 63.36 CE1 67.79 NE2 66.61
A PRO T 84 -60.0 -33.3 N 52.22 CA 52.07 C 59.17 O 57.73 CB 55.86 CG 61.98 CD 56.13
A THR T 123 -71.5 -41.7 N 59.31 CA 60.36 C 60.15 O 60.69 CB 75.35 OG1 79.34 CG2 76.26
A LEU T 52 -100.7 5.2 N 52.25 CA 49.45 C 45.28 O 41.53 CB 51.49 CG 59.09 CD1 61.03 CD2 59.67
A ALA H 1 -45.7 -51.8 N 39.94 CA 38.12 C 39.27 O 39.1 CB 39.0
A GLY H 26 -59.4 -44.9 N 35.66 CA 34.85 C 38.56 O 38.88
A LYS H 49 -68.1 -46.9 N 34.29 CA 34.27 C 37.46 O 37.06 CB 37.19 CG 43.02 CD 59.71 CE 72.32 NZ 84.59
A ILE H 0 -61.4 -45.0 N 35.18 CA 35.3 C 38.52 O 39.94 CB 38.05 CG1 39.75 CG2 37.16 CD1 42.13
A THR H 0 -59.3 -50.8 N 33.45 CA 33.52 C 39.61 O 41.62 CB 37.28 OG1 36.08 CG2 31.47
A GLY H 3 -54.7 -41.5 N 36.23 CA 36.51 C 40.29 O 40.18
A LEU H 0 -64.2 -24.9 N 35.64 CA 35.22 C 37.96 O 39.3 CB 33.67 CG 38.24 CD1 37.47 CD2 40.52
A LEU T 3 -69.1 -8.4 N 33.16 CA 33.79 C 43.36 O 46.44 CB 33.04 CG 35.87 CD1 36.06 CD2 38.14
A GLU T 25 -81.6 -19.9 N 40.83 CA 42.79 C 46.85 O 49.62 CB 46.07 CG 54.62 CD 84.41 OE1 69.49 OE2 92.28
A ILE S 3 -64.3 148.2 N 40.62 CA 41.59 C 47.94 O 45.81 CB 41.92 CG1 42.53 CG2 43.03 CD1 41.86
A ASP - 66 -56.0 139.4 N 48.99 CA 50.15 C 50.06 O 46.77 CB 55.81 CG 69.78 OD1 69.95 OD2 78.49
A ASN H 39 -50.3 -40.2 N 46.8 CA 44.53 C 47.04 O 45.53 CB 46.45 CG 55.62 OD1 48.94 ND2 48.44
A SER H 73 -67.1 -38.3 N 45.01 CA 45.07 C 46.64 O 45.41 CB 50.8 OG 61.39
A GLU H 11 -69.7 -36.2 N 43.11 CA 41.43 C 40.99 O 39.56 CB 44.27 CG 53.27 CD 72.92 OE1 58.51 OE2 69.34
A LEU H 0 -64.5 -40.6 N 35.7 CA 34.2 C 38.92 O 38.86 CB 34.33 CG 39.11 CD1 38.64 CD2 40.94
A LEU H 19 -65.2 -38.1 N 35.42 CA 34.97 C 39.68 O 39.11 CB 36.12 CG 39.47 CD1 42.27 CD2 36.69
A TYR H 87 -62.2 -50.9 N 37.09 CA 36.89 C 39.04 O 38.1 CB 39.36 CG 40.97 CD1 42.61 CD2 41.38 CE1 44.94 CE2 43.78 CZ 53.5 OH 61.62
A LEU H 41 -66.3 -18.3 N 33.91 CA 32.73 C 36.41 O 37.37 CB 32.59 CG 37.32 CD1 38.51 CD2 35.73
A GLU T 139 -113.3 -0.2 N 33.47 CA 35.17 C 40.59 O 40.27 CB 37.34 CG 45.98 CD 58.72 OE1 44.97 OE2 49.48
A SER - 19 -128.9 90.7 N 37.08 CA 39.09 C 44.22 O 43.57 CB 42.34 OG 55.3
A PRO H 106 -57.0 -32.8 N 41.52 CA 41.33 C 47.17 O 47.43 CB 43.89 CG 47.0 CD 42.88
A GLU H 173 -62.6 -45.0 N 45.13 CA 48.16 C 48.16 O 48.46 CB 52.9 CG 73.91 CD 111.91 OE1 109.84 OE2 114.34
A SER H 19 -72.6 -37.3 N 42.52 CA 42.06 C 44.91 O 47.0 CB 44.6 OG 56.71
A LEU H 4 -64.6 -44.9 N 38.49 CA 35.81 C 40.68 O 40.93 CB 33.76 CG 36.45 CD1 35.59 CD2 35.24
A ARG H 99 -60.4 -44.6 N 38.83 CA 41.08 C 48.01 O 48.09 CB 43.18 CG 56.02 CD 64.27 NE 65.31 CZ 77.86 NH1 68.42 NH2 64.15
A SER H 58 -66.5 -34.3 N 45.24 CA 47.58 C 47.72 O 50.05 CB 54.46 OG 67.24
A LYS H 16 -71.6 -39.0 N 40.91 CA 39.77 C 43.92 O 45.34 CB 39.43 CG 44.84 CD 52.15 CE 50.03 NZ 58.11
A VAL H 0 -60.7 -46.3 N 38.0 CA 36.75 C 44.51 O 44.68 CB 38.25 CG1 38.12 CG2 35.01
A ASP H 73 -60.5 -39.0 N 44.49 CA 48.51 C 52.88 O 54.84 CB 53.96 CG 72.04 OD1 71.77 OD2 80.11
A GLU H 65 -66.4 -40.2 N 47.5 CA 48.91 C 51.04 O 53.6 CB 50.15 CG 62.02 CD 82.6 OE1 57.11 OE2 94.35
A ALA H 0 -66.7 -40.7 N 44.57 CA 42.38 C 48.52 O 48.73 CB 39.41
A VAL H 37 -60.3 -40.2 N 46.63 CA 47.89 C 57.05 O 58.9 CB 50.88 CG1 54.0 CG2 46.49
A ALA H 33 -65.0 -38.7 N 56.27 CA 60.59 C 64.54 O 68.56 CB 63.94
A VAL H 1 -63.7 -39.9 N 57.23 CA 56.93 C 58.43 O 59.18 CB 58.06 CG1 59.39 CG2 58.5
A LEU H 13 -73.5 -22.6 N 53.01 CA 52.55 C 62.93 O 64.82 CB 48.69 CG 49.28 CD1 46.66 CD2 49.71
A GLN - 136 -64.6 125.4 N 62.71 CA 66.01 C 72.12 O 73.12 CB 70.24 CG 89.46 CD 120.38 OE1 120.61 NE2 116.51
A ALA - 57 -75.3 159.8 N 70.35 CA 74.34 C 85.23 O 86.37 CB 74.7
A HIS - 93 -110.3 360.0 N 86.14 CA 97.94 C 122.02 O 88.26 CB 101.24
B GLU - 130 360.0 147.7 N 93.09 CA 90.6 C 90.44 O 89.25 CB 90.46
B THR - 124 -104.5 130.8 N 83.76 CA 78.95 C 73.84 O 74.14 CB 90.24 OG1 96.37 CG2 84.76
B LEU - 15 -76.5 111.5 N 62.09 CA 56.99 C 57.87 O 57.17 CB 53.67 CG 54.47 CD1 53.69 CD2 55.44
B THR - 66 -88.8 160.2 N 52.37 CA 51.1 C 50.59 O 47.38 CB 58.24 OG1 53.33 CG2 55.85
B ALA H 31 -63.6 -36.4 N 47.51 CA 44.99 C 48.09 O 46.14 CB 46.82
B SER H 16 -67.8 -38.1 N 47.5 CA 48.14 C 51.33 O 51.19 CB 52.19 OG 64.91
B ARG H 81 -67.0 -42.9 N 47.54 CA 48.07 C 47.62 O 47.28 CB 52.27 CG 73.15 CD 95.73 NE 110.93 CZ 123.53 NH1 107.24 NH2 109.98
B LEU H 7 -63.6 -42.8 N 41.46 CA 39.54 C 44.63 O 44.15 CB 38.31 CG 40.68 CD1 40.12 CD2 40.18
B ALA H 4 -63.8 -29.0 N 41.81 CA 42.35 C 46.63 O 47.54 CB 44.42
B SER H 13 -79.2 -16.1 N 43.66 CA 45.52 C 50.63 O 52.84 CB 49.7 OG 62.74
B ALA S 5 -81.6 149.7 N 45.22 CA 44.2 C 48.69 O 46.34 CB 42.71
B PRO - 68 -59.6 145.9 N 46.96 CA 45.67 C 42.71 O 41.39 CB 49.77 CG 56.24 CD 50.2
B PRO H 5 -55.3 -31.4 N 36.8 CA 34.56 C 39.12 O 36.84 CB 36.9 CG 42.58 CD 39.12
B GLN H 40 -60.1 -25.5 N 37.91 CA 37.5 C 42.42 O 43.23 CB 40.74 CG 38.45 CD 50.21 OE1 48.44 NE2 43.83
B LYS H 100 -101.5 -13.5 N 39.73 CA 40.62 C 43.67 O 43.36 CB 45.27 CG 70.17 CD 86.48 CE 103.1 NZ 112.63
B GLN H 14 -60.6 -48.6 N 39.19 CA 37.59 C 39.04 O 39.09 CB 38.24 CG 34.46 CD 41.88 OE1 43.23 NE2 36.17
B LYS H 37 -65.5 -37.2 N 34.02 CA 33.03 C 40.2 O 38.89 CB 33.07 CG 35.69 CD 31.98 CE 32.23 NZ 37.19
B GLN H 61 -59.7 -48.0 N 40.77 CA 43.38 C 48.8 O 50.01 CB 47.22 CG 70.38 CD 96.2 OE1 93.68 NE2 88.76
B LEU H 0 -68.3 -36.8 N 41.26 CA 40.44 C 46.09 O 47.37 CB 38.02 CG 40.8 CD1 39.4 CD2 41.17
B GLY H 5 -62.5 -42.6 N 43.7 CA 45.07 C 52.78 O 53.98
B GLU H 119 -61.4 -31.5 N 51.29 CA 53.7 C 59.1 O 60.82 CB 56.22 CG 68.17 CD 93.21 OE1 105.38 OE2 78.72
B ARG H 82 -85.6 -39.5 N 55.36 CA 57.08 C 62.31 O 64.29 CB 56.56 CG 66.42 CD 73.54 NE 80.89 CZ 96.06 NH1 76.38 NH2 91.9
B LEU H 0 -69.6 -44.3 N 57.24 CA 57.42 C 63.84 O 64.63 CB 55.02 CG 59.18 CD1 58.29 CD2 61.23
B PHE H 73 -51.3 -53.3 N 61.7 CA 64.76 C 72.21 O 72.41 CB 67.68 CG 72.03 CD1 75.03 CD2 78.09 CE1 78.28 CE2 83.56 CZ 80.75
B PRO H 68 -61.6 -35.0 N 71.23 CA 73.97 C 76.31 O 79.54 CB 77.63 CG 80.68 CD 72.93
B LEU H 74 -69.0 -43.5 N 68.74 CA 69.37 C 74.08 O 77.27 CB 67.96 CG 73.49 CD1 71.92 CD2 78.45
B ILE H 0 -66.7 -44.3 N 68.16 CA 67.46 C 73.49 O 73.03 CB 67.08 CG1 65.86 CG2 67.24 CD1 68.8
B GLN H 89 -58.3 -35.2 N 72.53 CA 76.03 C 86.72 O 87.95 CB 77.62 CG 85.06 CD 93.78 OE1 86.4 NE2 84.06
B ALA H 86 -62.8 -38.4 N 87.4 CA 92.3 C 100.33 O 104.04 CB 93.62
B HIS - 48 -147.5 74.1 N 91.95 CA 89.99 C 93.72 O 90.52 CB 87.38 CG 91.93 ND1 94.27 CD2 95.13 CE1 95.53 NE2 96.55
B PRO - 93 -64.9 -22.5 N 93.4 CA 93.06 C 95.7 O 94.74 CB 98.66 CG 105.12 CD 98.42
B THR S 102 -60.2 -85.0 N 91.89 CA 91.11 C 91.68 O 91.63 CB 97.58 OG1 97.4 CG2 93.9
B LEU S 78 -98.8 42.7 N 84.39 CA 81.05 C 82.41 O 81.03 CB 80.73 CG 87.4 CD1 88.53 CD2 89.71
B ALA H 2 -56.8 -43.2 N 77.88 CA 75.11 C 74.17 O 70.85 CB 77.72
B GLY H 48 -62.1 -43.9 N 69.51 CA 67.09 C 67.87 O 67.51
B LYS H 70 -68.1 -46.1 N 62.05 CA 59.44 C 58.52 O 57.35 CB 62.43 CG 66.36 CD 75.52 CE 92.6 NZ 103.81
B ILE H 0 -60.4 -45.7 N 52.39 CA 50.51 C 50.9 O 49.56 CB 54.8 CG1 56.8 CG2 54.27 CD1 64.62
B THR H 6 -57.5 -50.8 N 47.01 CA 46.14 C 48.29 O 46.12 CB 55.1 OG1 57.71 CG2 49.69
B GLY H 6 -57.0 -41.2 N 44.69 CA 43.75 C 45.96 O 45.38
B LEU H 0 -65.6 -23.3 N 41.77 CA 41.95 C 43.55 O 42.73 CB 42.88 CG 48.93 CD1 50.21 CD2 50.67
B LEU T 0 -69.8 -7.2 N 39.04 CA 37.03 C 39.38 O 39.43 CB 36.42 CG 40.65 CD1 41.49 CD2 39.48
B GLU T 8 -79.2 -20.1 N 35.88 CA 35.72 C 39.45 O 40.95 CB 38.31 CG 46.62 CD 55.09 OE1 46.89 OE2 57.7
B ILE S 1 -67.0 149.0 N 35.96 CA 36.2 C 39.64 O 37.32 CB 39.14 CG1 39.56 CG2 40.65 CD1 43.38
B ASP - 75 -56.8 138.9 N 39.73 CA 39.75 C 41.91 O 39.7 CB 44.47 CG 60.12 OD1 60.43 OD2 69.02
B ASN H 35 -50.5 -39.7 N 39.57 CA 38.79 C 43.45 O 42.14 CB 35.93 CG 48.69 OD1 38.29 ND2 35.53
B SER H 72 -63.5 -42.7 N 44.4 CA 48.08 C 55.07 O 58.3 CB 54.36 OG 67.61
B GLU H 20 -68.7 -34.3 N 50.05 CA 51.16 C 53.05 O 55.64 CB 53.31 CG 70.74 CD 96.84 OE1 90.9 OE2 92.35
B LEU H 0 -66.6 -37.3 N 45.29 CA 43.89 C 51.46 O 53.4 CB 41.11 CG 42.58 CD1 39.21 CD2 42.03
B LEU H 25 -66.7 -38.4 N 48.8 CA 49.53 C 57.92 O 58.17 CB 48.57 CG 49.36 CD1 49.61 CD2 47.82
B TYR H 76 -62.5 -46.3 N 58.29 CA 62.85 C 67.3 O 71.37 CB 66.97 CG 75.2 CD1 81.23 CD2 77.25 CE1 86.78 CE2 82.49 CZ 95.18 OH 101.87
B LEU H 39 -70.6 -24.9 N 64.08 CA 65.93 C 74.12 O 74.52 CB 64.29 CG 66.52 CD1 65.32 CD2 69.22
B GLU H 147 -96.4 -27.2 N 73.11 CA 78.14 C 86.53 O 90.29 CB 80.18 CG 93.18 CD 120.83 OE1 118.83 OE2 115.51
B SER - 14 -103.1 107.4 N 80.79 CA 82.45 C 85.62 O 82.73 CB 83.34 OG 88.87
B PRO H 96 -69.0 -24.7 N 84.62 CA 83.67 C 87.9 O 84.79 CB 89.0 CG 94.76 CD 89.42
B GLU H 153 -58.5 -62.6 N 87.95 CA 90.03 C 88.24 O 87.43 CB 95.6 CG 112.56 CD 144.24 OE1 143.3 OE2 143.78
B SER H 8 -63.2 -37.7 N 80.69 CA 75.69 C 72.37 O 71.6 CB 77.57 OG 86.34
B LEU H 4 -63.8 -48.4 N 63.86 CA 59.57 C 65.64 O 63.45 CB 58.16 CG 59.77 CD1 56.46 CD2 60.8
B ARG H 131 -58.2 -47.0 N 66.16 CA 68.14 C 70.96 O 69.87 CB 76.26 CG 90.43 CD 108.01 NE 120.23 CZ 136.9 NH1 125.21 NH2 123.08
B SER H 55 -66.5 -34.8 N 67.36 CA 67.67 C 69.17 O 69.16 CB 73.77 OG 81.67
B LYS H 15 -71.3 -38.3 N 63.2 CA 59.45 C 62.32 O 62.42 CB 58.18 CG 54.36 CD 53.74 CE 59.46 NZ 68.13
B VAL H 0 -62.5 -45.0 N 58.57 CA 58.32 C 65.72 O 65.51 CB 62.85 CG1 63.15 CG2 60.37
B ASP H 91 -61.5 -41.5 N 65.21 CA 67.85 C 70.14 O 70.82 CB 73.86 CG 88.8 OD1 88.14 OD2 99.34
B GLU H 62 -64.9 -39.0 N 64.26 CA 63.87 C 64.42 O 65.26 CB 64.91 CG 76.8 CD 98.99 OE1 92.18 OE2 97.25
B ALA H 0 -66.2 -40.1 N 57.26 CA 54.46 C 59.06 O 58.52 CB 52.69
B VAL H 41 -60.8 -40.6 N 57.44 CA 58.73 C 65.12 O 65.62 CB 64.23 CG1 66.68 CG2 62.4
B ALA H 36 -66.2 -36.2 N 63.41 CA 66.35 C 68.67 O 71.19 CB 69.44
B VAL H 0 -65.3 -40.9 N 60.68 CA 58.65 C 60.51 O 61.56 CB 60.46 CG1 59.67 CG2 61.13
B LEU H 19 -70.3 -27.0 N 55.08 CA 54.98 C 60.07 O 59.04 CB 53.93 CG 54.96 CD1 55.02 CD2 52.32
B GLN S 132 -61.0 121.8 N 58.25 CA 61.08 C 68.2 O 68.61 CB 64.65 CG 89.46 CD 115.36 OE1 112.17 NE2 110.07
B ALA - 37 -71.6 150.6 N 65.54 CA 66.65 C 73.54 O 74.97 CB 68.24
B HIS - 71 -63.5 151.2 N 71.88 CA 74.88 C 84.44 O 83.26 CB 75.84 CG 80.33 ND1 79.56 CD2 85.07 CE1 81.55 NE2 85.47
B GLN - 102 -99.9 120.9 N 88.01 CA 92.98 C 103.85 O 106.12 CB 96.33
B ALA - 138 -78.9 360.0 N 102.48 CA 131.81 C 165.61 O 127.32 CB 132.79
C GLU - 131 360.0 147.5 N 131.56 CA 132.44 C 132.58 O 128.42 CB 135.64
C THR - 117 -104.2 125.5 N 130.48 CA 127.2 C 129.81 O 133.6 CB 137.93 OG1 141.25 CG2 136.07
C LEU - 35 -79.7 108.7 N 121.01 CA 120.33 C 123.7 O 120.95 CB 116.27 CG 121.08 CD1 125.14 CD2 119.54
C THR - 65 -91.3 160.8 N 122.97 CA 124.17 C 124.6 O 123.3 CB 135.77 OG1 137.98 CG2 134.15
C ALA H 68 -63.8 -36.8 N 119.78 CA 119.07 C 125.31 O 124.78 CB 121.22
C SER H 94 -68.3 -39.0 N 124.21 CA 128.15 C 128.23 O 130.64 CB 136.93 OG 143.05
C ARG H 44 -65.6 -43.6 N 118.98 CA 116.87 C 115.35 O 117.33 CB 113.57
C LEU H 3 -64.0 -46.1 N 105.19 CA 101.09 C 107.98 O 107.36 CB 95.92 CG 95.97 CD1 92.69 CD2 95.03
C ALA H 69 -60.5 -27.5 N 107.88 CA 112.0 C 120.54 O 123.36 CB 116.03
C SER T 105 -72.7 -17.6 N 117.44 CA 122.0 C 122.6 O 127.15 CB 128.13 OG 132.0
C ALA S 18 -97.0 158.3 N 111.36 CA 108.7 C 108.72 O 106.39 CB 104.2
C PRO - 86 -59.6 154.0 N 104.53 CA 102.72 C 99.27 O 94.59 CB 106.56 CG 115.59 CD 108.54
C PRO H 106 -50.8 -44.2 N 94.4 CA 88.2 C 85.8 O 80.87 CB 91.42 CG 101.94 CD 100.31
C GLN H 102 -74.2 -33.3 N 82.14 CA 77.56 C 77.87 O 73.29 CB 81.16 CG 97.8 CD 116.53 OE1 112.56 NE2 104.41
C LYS H 119 -60.6 -35.2 N 75.57 CA 74.3 C 72.4 O 69.08 CB 82.02 CG 98.02 CD 112.91 CE 128.22 NZ 140.09
C GLN H 31 -63.0 -40.7 N 67.03 CA 62.97 C 59.4 O 55.79 CB 65.82 CG 77.29 CD 92.79 OE1 81.04 NE2 93.61
C LYS H 36 -70.1 -39.1 N 54.75 CA 50.3 C 53.17 O 51.06 CB 50.79 CG 47.41 CD 42.9 CE 50.08 NZ 50.81
C GLN H 55 -63.9 -42.2 N 51.83 CA 51.69 C 54.97 O 51.48 CB 56.97 CG 73.46 CD 93.93 OE1 90.77 NE2 88.97
C LEU H 0 -67.8 -39.6 N 46.02 CA 42.88 C 41.58 O 39.66 CB 42.84 CG 49.31 CD1 49.73 CD2 50.97
C GLY H 0 -58.4 -44.3 N 35.91 CA 35.56 C 40.1 O 36.84
C GLU H 115 -59.7 -32.5 N 40.34 CA 41.87 C 44.82 O 44.75 CB 47.14 CG 69.22 CD 109.17 OE1 101.87 OE2 114.67
C ARG H 91 -85.7 -39.9 N 40.82 CA 39.49 C 39.48 O 39.49 CB 40.28 CG 48.22 CD 76.63 NE 102.28 CZ 122.48 NH1 108.0 NH2 116.62
C LEU H 0 -69.5 -46.6 N 34.64 CA 33.11 C 37.73 O 37.12 CB 32.64 CG 39.07 CD1 39.87 CD2 38.27
C PHE H 21 -50.2 -53.5 N 32.92 CA 32.08 C 36.39 O 36.47 CB 34.44 CG 36.06 CD1 37.44 CD2 38.39 CE1 38.74 CE2 41.8 CZ 39.74
C PRO H 67 -60.7 -35.5 N 34.09 CA 34.24 C 35.56 O 35.03 CB 37.8 CG 42.76 CD 36.51
C LEU H 82 -69.7 -44.3 N 31.09 CA 30.21 C 34.8 O 35.44 CB 29.06 CG 33.05 CD1 31.35 CD2 34.98
C ILE H 0 -67.8 -40.4 N 31.51 CA 30.71 C 35.1 O 36.19 CB 33.08 CG1 31.88 CG2 33.65 CD1 38.07
C GLN H 89 -61.4 -35.4 N 31.73 CA 32.59 C 38.0 O 39.75 CB 35.09 CG 31.11 CD 47.14 OE1 45.89 NE2 35.63
C ALA H 88 -63.6 -32.7 N 35.39 CA 36.36 C 42.49 O 44.58 CB 36.29
C HIS - 51 -138.2 80.8 N 39.57 CA 40.14 C 45.57 O 43.72 CB 39.87 CG 44.4 ND1 48.93 CD2 45.84 CE1 49.34 NE2 47.97
C PRO T 84 -59.7 -33.5 N 46.0 CA 46.86 C 50.9 O 50.4 CB 50.83 CG 56.17 CD 49.3
C THR T 119 -74.7 -36.7 N 48.02 CA 49.07 C 50.0 O 51.57 CB 62.96 OG1 70.21 CG2 61.94
C LEU T 47 -99.4 1.5 N 41.11 CA 37.93 C 39.85 O 39.93 CB 37.06 CG 41.37 CD1 41.32 CD2 39.57
C ALA H 1 -50.2 -48.1 N 35.66 CA 33.93 C 36.65 O 36.32 CB 35.1
C GLY H 29 -61.1 -44.5 N 33.85 CA 34.24 C 37.86 O 38.58
C LYS H 47 -68.9 -45.4 N 32.8 CA 31.38 C 34.15 O 33.19 CB 33.81 CG 40.37 CD 48.87 CE 55.9 NZ 71.49
C ILE H 0 -62.2 -48.1 N 30.33 CA 30.02 C 35.31 O 35.82 CB 32.39 CG1 32.22 CG2 33.84 CD1 36.57
C THR H 0 -57.8 -49.6 N 32.02 CA 32.61 C 36.88 O 37.7 CB 37.31 OG1 37.86 CG2 29.5
C GLY H 5 -56.6 -41.3 N 32.61 CA 33.82 C 36.61 O 36.84
C LEU H 0 -65.9 -23.4 N 32.21 CA 32.85 C 36.79 O 37.52 CB 32.1 CG 36.54 CD1 36.93 CD2 36.96
C LEU T 9 -69.7 -7.3 N 32.6 CA 33.04 C 39.38 O 41.65 CB 32.58 CG 34.04 CD1 34.58 CD2 33.49
C GLU T 54 -81.5 -15.4 N 36.29 CA 38.36 C 43.03 O 43.98 CB 39.74 CG 54.09 CD 86.28 OE1 61.61 OE2 96.11
C ILE S 1 -69.6 149.2 N 37.36 CA 37.35 C 44.42 O 42.75 CB 38.31 CG1 36.55 CG2 40.6 CD1 35.36
C ASP - 107 -58.5 139.4 N 46.11 CA 48.84 C 50.62 O 46.72 CB 54.44 CG 71.85 OD1 73.27 OD2 81.48
C ASN H 34 -51.1 -39.1 N 48.87 CA 49.05 C 53.55 O 52.8 CB 51.8 CG 60.7 OD1 46.56 ND2 54.88
C SER H 91 -65.3 -40.7 N 51.9 CA 53.27 C 53.71 O 53.15 CB 61.79 OG 74.17
C GLU H 11 -69.3 -34.9 N 48.49 CA 46.19 C 43.66 O 42.0 CB 47.83 CG 63.98 CD 86.57 OE1 73.15 OE2 78.66
C LEU H 0 -65.9 -39.8 N 38.33 CA 35.5 C 41.81 O 39.52 CB 34.44 CG 36.47 CD1 35.65 CD2 34.0
C LEU H 25 -65.3 -36.1 N 44.05 CA 46.86 C 52.04 O 53.69 CB 51.48 CG 58.84 CD1 63.26 CD2 62.54
C TYR H 96 -65.1 -45.9 N 48.32 CA 48.94 C 48.0 O 48.66 CB 53.03 CG 57.13 CD1 62.96 CD2 56.78 CE1 66.56 CE2 59.63 CZ 72.38 OH 78.65
C LEU T 31 -70.7 -16.8 N 40.18 CA 39.82 C 46.95 O 48.6 CB 40.34 CG 43.2 CD1 45.56 CD2 42.8
C GLU T 158 -110.3 -0.4 N 44.74 CA 47.67 C 50.71 O 53.19 CB 52.99 CG 69.95 CD 104.14 OE1 108.41 OE2 96.82
C SER - 21 -131.7 92.8 N 44.29 CA 44.44 C 44.2 O 41.45 CB 49.51 OG 60.2
C PRO H 91 -55.5 -36.0 N 41.15 CA 39.34 C 45.01 O 42.84 CB 40.75 CG 45.45 CD 42.99
C GLU H 158 -65.3 -43.0 N 44.85 CA 46.61 C 48.6 O 47.42 CB 52.51 CG 75.19 CD 114.49 OE1 120.95 OE2 110.85
C SER H 16 -74.5 -32.2 N 45.44 CA 45.34 C 45.08 O 44.51 CB 53.31 OG 67.72
C LEU H 5 -65.5 -43.4 N 39.48 CA 35.84 C 39.06 O 37.72 CB 35.0 CG 36.8 CD1 35.38 CD2 36.57
C ARG H 118 -59.1 -45.5 N 38.21 CA 38.55 C 42.27 O 42.66 CB 38.87 CG 47.19 CD 54.18 NE 56.58 CZ 77.47 NH1 70.19 NH2 65.88
C SER H 59 -68.0 -33.7 N 39.51 CA 41.04 C 40.89 O 41.32 CB 48.95 OG 64.92
C LYS H 15 -70.1 -39.5 N 35.74 CA 34.63 C 39.05 O 41.22 CB 36.46 CG 48.21 CD 44.8 CE 43.37 NZ 56.73
C VAL H 0 -62.5 -44.8 N 35.95 CA 34.71 C 40.15 O 40.35 CB 37.53 CG1 36.69 CG2 36.23
C ASP H 78 -60.6 -41.3 N 38.07 CA 40.2 C 43.22 O 44.48 CB 44.86 CG 56.73 OD1 56.9 OD2 65.86
C GLU H 66 -64.5 -40.9 N 37.67 CA 38.03 C 40.8 O 41.48 CB 39.61 CG 49.36 CD 68.73 OE1 49.44 OE2 72.71
C ALA H 0 -66.2 -39.5 N 34.93 CA 33.71 C 38.47 O 39.35 CB 32.61
C VAL H 37 -60.6 -40.3 N 34.89 CA 35.9 C 41.79 O 42.77 CB 40.53 CG1 42.43 CG2 38.08
C ALA H 31 -66.2 -36.2 N 38.86 CA 41.17 C 43.32 O 45.82 CB 43.8
C VAL H 0 -63.2 -41.3 N 36.63 CA 36.02 C 40.47 O 41.52 CB 38.15 CG1 38.16 CG2 38.85
C LEU H 19 -75.2 -25.5 N 35.07 CA 35.67 C 46.64 O 49.38 CB 33.11 CG 35.18 CD1 33.74 CD2 37.74
C GLN - 128 -56.2 122.5 N 44.89 CA 48.13 C 55.15 O 56.6 CB 50.63 CG 63.08 CD 74.68 OE1 67.65 NE2 65.1
C ALA - 46 -72.3 159.0 N 53.34 CA 56.6 C 64.7 O 65.42 CB 59.07
C HIS - 108 -64.3 -28.6 N 64.8 CA 68.62 C 79.3 O 83.25 CB 71.34 CG 76.63 ND1 75.51 CD2 83.01 CE1 78.16 NE2 83.19
C GLN - 121 -93.2 360.0 N 76.77 CA 112.85 C 139.5 O 93.99 CB 116.47
D GLU - 131 360.0 151.5 N 96.86 CA 95.87 C 96.12 O 94.63 CB 96.77
D THR - 89 -103.0 130.7 N 89.74 CA 84.61 C 80.23 O 81.97 CB 95.93 OG1 101.71 CG2 89.29
D LEU - 12 -77.8 108.1 N 67.49 CA 62.07 C 63.19 O 63.24 CB 57.91 CG 59.16 CD1 60.05 CD2 56.88
D THR - 55 -90.0 164.0 N 56.45 CA 54.71 C 52.97 O 49.67 CB 59.81 OG1 57.93 CG2 58.32
D ALA H 32 -63.5 -37.1 N 48.89 CA 46.85 C 49.92 O 48.39 CB 48.7
D SER H 9 -68.8 -38.6 N 48.65 CA 49.18 C 53.04 O 52.91 CB 53.76 OG 66.51
D ARG H 65 -68.1 -40.0 N 50.03 CA 49.8 C 49.99 O 51.01 CB 53.52 CG 75.37 CD 99.83 NE 111.51 CZ 125.32 NH1 105.55 NH2 113.25
D LEU H 7 -67.4 -43.2 N 41.3 CA 38.16 C 44.39 O 45.85 CB 35.56 CG 36.36 CD1 34.83 CD2 35.5
D ALA H 4 -61.1 -30.2 N 41.03 CA 41.22 C 47.49 O 48.39 CB 43.17
D SER H 3 -76.8 -17.8 N 45.6 CA 47.72 C 51.8 O 54.64 CB 53.65 OG 66.13
D ALA S 4 -84.9 149.6 N 44.92 CA 43.56 C 46.25 O 42.75 CB 41.98
D PRO - 44 -59.2 144.4 N 44.92 CA 43.6 C 42.45 O 40.52 CB 47.06 CG 53.13 CD 48.05
D PRO H 3 -54.4 -30.6 N 35.5 CA 32.49 C 38.01 O 36.7 CB 34.14 CG 39.45 CD 36.51
D GLN H 46 -62.6 -23.3 N 37.68 CA 37.46 C 40.32 O 39.7 CB 41.14 CG 47.49 CD 59.66 OE1 48.48 NE2 54.82
D LYS H 111 -105.7 -8.3 N 37.15 CA 37.52 C 40.15 O 40.96 CB 41.19 CG 61.3 CD 78.54 CE 90.05 NZ 97.73
D GLN H 13 -65.1 -47.5 N 35.01 CA 33.68 C 36.65 O 37.16 CB 34.0 CG 30.35 CD 43.11 OE1 42.54 NE2 43.48
D LYS H 33 -64.8 -37.1 N 31.22 CA 30.07 C 35.99 O 35.63 CB 31.27 CG 28.15 CD 28.64 CE 28.51 NZ 28.6
D GLN H 64 -57.6 -50.7 N 34.43 CA 37.02 C 43.6 O 44.35 CB 40.19 CG 44.82 CD 68.28 OE1 65.96 NE2 61.74
D LEU H 0 -67.7 -38.7 N 32.51 CA 31.37 C 38.17 O 39.44 CB 29.43 CG 33.25 CD1 31.83 CD2 31.24
D GLY H 5 -60.1 -43.9 N 35.05 CA 35.18 C 40.84 O 41.11
D GLU H 115 -58.6 -34.3 N 38.79 CA 40.75 C 45.51 O 47.3 CB 43.83 CG 57.05 CD 80.11 OE1 84.78 OE2 71.72
D ARG H 85 -86.8 -37.0 N 40.62 CA 40.94 C 43.17 O 44.71 CB 40.25 CG 48.81 CD 60.55 NE 77.45 CZ 98.46 NH1 79.87 NH2 98.59
D LEU H 0 -67.5 -45.4 N 37.46 CA 36.4 C 38.46 O 40.01 CB 35.28 CG 40.59 CD1 41.94 CD2 42.03
D PHE H 74 -50.8 -54.2 N 32.08 CA 32.1 C 37.21 O 36.4 CB 33.84 CG 35.35 CD1 36.29 CD2 38.46 CE1 37.35 CE2 42.94 CZ 39.4
D PRO H 65 -61.3 -31.9 N 37.0 CA 38.83 C 42.7 O 43.79 CB 42.72 CG 45.85 CD 39.09
D LEU H 75 -71.8 -42.2 N 38.98 CA 38.51 C 39.91 O 40.47 CB 37.68 CG 43.18 CD1 43.11 CD2 45.95
D ILE H 0 -68.5 -37.8 N 35.28 CA 33.49 C 38.81 O 39.43 CB 34.16 CG1 33.13 CG2 33.14 CD1 36.22
D GLN H 90 -62.7 -29.2 N 34.51 CA 35.02 C 40.55 O 41.31 CB 37.26 CG 41.63 CD 56.11 OE1 55.18 NE2 46.27
D ALA T 90 -75.3 -14.9 N 37.99 CA 40.36 C 45.04 O 46.58 CB 42.13
D HIS - 76 -133.7 79.9 N 37.89 CA 36.64 C 39.6 O 36.81 CB 35.96 CG 40.29 ND1 43.07 CD2 42.03 CE1 43.34 NE2 43.49
D PRO T 85 -59.6 -31.7 N 38.73 CA 38.95 C 43.1 O 42.79 CB 42.04 CG 46.28 CD 40.93
D THR T 138 -66.5 -43.8 N 39.84 CA 39.98 C 42.79 O 43.61 CB 44.31 OG1 51.09 CG2 40.03
D LEU T 67 -104.1 6.9 N 37.34 CA 36.65 C 38.74 O 38.98 CB 36.62 CG 42.91 CD1 44.15 CD2 44.21
D ALA H 0 -51.7 -44.8 N 33.66 CA 32.45 C 35.94 O 34.06 CB 34.24
D GLY H 48 -59.4 -46.9 N 33.68 CA 33.49 C 36.61 O 36.75
D LYS H 77 -67.7 -45.8 N 34.32 CA 33.6 C 35.85 O 37.17 CB 35.85 CG 47.65 CD 48.84 CE 63.19 NZ 71.55
D ILE H 0 -63.4 -42.0 N 30.56 CA 29.2 C 31.93 O 31.87 CB 31.56 CG1 32.74 CG2 31.07 CD1 40.6
D THR H 8 -56.1 -50.7 N 28.92 CA 29.21 C 33.39 O 34.35 CB 34.13 OG1 35.82 CG2 31.83
D GLY H 9 -56.5 -41.0 N 30.04 CA 30.21 C 34.23 O 35.24
D LEU H 0 -67.3 -21.5 N 29.07 CA 28.93 C 32.19 O 32.39 CB 29.52 CG 34.99 CD1 35.42 CD2 39.24
D LEU T 0 -68.6 -7.4 N 27.3 CA 25.5 C 31.65 O 32.2 CB 25.13 CG 28.99 CD1 28.98 CD2 31.52
D GLU T 9 -76.1 -23.6 N 31.48 CA 31.82 C 34.5 O 35.83 CB 33.46 CG 39.03 CD 45.79 OE1 42.11 OE2 42.66
D ILE S 1 -65.5 146.6 N 29.68 CA 30.36 C 36.69 O 35.57 CB 32.84 CG1 32.57 CG2 34.69 CD1 30.84
D ASP - 82 -57.6 140.6 N 35.43 CA 35.96 C 36.37 O 36.77 CB 41.24 CG 63.53 OD1 64.41 OD2 72.89
D ASN H 35 -50.5 -41.1 N 31.78 CA 31.92 C 38.26 O 38.51 CB 26.92 CG 37.81 OD1 35.83 ND2 28.99
D SER H 74 -64.7 -41.8 N 35.6 CA 37.53 C 41.59 O 44.36 CB 42.98 OG 56.1
D GLU H 15 -68.2 -33.9 N 37.14 CA 37.13 C 39.11 O 40.33 CB 38.28 CG 48.28 CD 62.47 OE1 48.59 OE2 60.7
D LEU H 0 -66.4 -38.2 N 33.29 CA 31.98 C 36.58 O 36.38 CB 29.9 CG 31.09 CD1 27.93 CD2 33.16
D LEU H 24 -65.5 -39.9 N 35.37 CA 38.37 C 46.2 O 48.86 CB 39.18 CG 42.64 CD1 43.29 CD2 44.64
D TYR H 91 -61.2 -48.5 N 43.09 CA 46.05 C 49.03 O 51.29 CB 48.93 CG 55.61 CD1 61.4 CD2 56.18 CE1 66.12 CE2 60.32 CZ 74.45 OH 80.79
D LEU H 23 -66.5 -20.8 N 43.92 CA 45.21 C 55.78 O 57.34 CB 44.24 CG 46.78 CD1 46.88 CD2 47.39
D GLU H 134 -110.4 -2.3 N 55.18 CA 59.18 C 62.85 O 66.54 CB 62.9 CG 81.1 CD 114.23 OE1 130.36 OE2 94.85
D SER - 23 -124.2 94.5 N 55.8 CA 56.49 C 57.25 O 54.54 CB 60.98 OG 78.73
D PRO H 79 -59.1 -35.7 N 53.62 CA 51.69 C 55.82 O 53.59 CB 55.79 CG 61.84 CD 57.42
D GLU H 122 -75.2 -30.0 N 55.46 CA 55.13 C 52.71 O 50.69 CB 60.74 CG 74.85 CD 90.3 OE1 81.0 OE2 81.77
D SER H 25 -72.7 -40.6 N 47.24 CA 45.03 C 45.7 O 43.87 CB 48.74 OG 58.4
D LEU H 2 -64.9 -43.5 N 41.18 CA 37.92 C 42.68 O 42.25 CB 37.45 CG 39.99 CD1 36.85 CD2 42.93
D ARG H 92 -55.9 -49.7 N 41.2 CA 41.04 C 43.89 O 42.87 CB 42.43 CG 54.59 CD 64.75 NE 76.04 CZ 92.2 NH1 75.24 NH2 84.43
D SER H 53 -66.5 -33.4 N 41.42 CA 42.67 C 44.29 O 44.39 CB 50.65 OG 65.07
D LYS H 15 -71.1 -38.6 N 38.7 CA 36.25 C 38.31 O 36.28 CB 36.48 CG 41.64 CD 45.15 CE 43.74 NZ 59.23
D VAL H 0 -61.9 -44.8 N 34.75 CA 32.83 C 38.24 O 37.96 CB 37.06 CG1 35.81 CG2 36.54
D ASP H 84 -63.2 -40.5 N 37.37 CA 39.26 C 42.77 O 41.77 CB 43.67 CG 54.06 OD1 51.66 OD2 61.99
D GLU H 64 -66.0 -39.9 N 39.08 CA 39.72 C 43.15 O 45.27 CB 41.63 CG 51.28 CD 67.54 OE1 51.24 OE2 70.71
D ALA H 0 -65.0 -40.9 N 35.61 CA 33.99 C 38.65 O 39.84 CB 33.24
D VAL H 40 -59.0 -43.5 N 33.9 CA 33.4 C 40.51 O 40.4 CB 35.55 CG1 36.15 CG2 33.29
D ALA H 39 -65.5 -36.2 N 39.85 CA 42.43 C 45.94 O 47.97 CB 44.65
D VAL H 0 -61.8 -42.1 N 39.71 CA 39.94 C 44.18 O 45.29 CB 41.61 CG1 42.33 CG2 41.65
D LEU H 23 -70.9 -24.6 N 39.25 CA 39.03 C 47.65 O 48.41 CB 36.5 CG 37.68 CD1 36.19 CD2 37.21
D GLN S 131 -66.5 122.7 N 47.8 CA 51.4 C 60.82 O 61.23 CB 54.1 CG 83.08 CD 115.36 OE1 113.38 NE2 111.61
D ALA - 43 -69.5 161.3 N 61.93 CA 66.14 C 75.54 O 76.12 CB 68.33
D HIS - 92 -63.3 150.3 N 75.31 CA 79.02 C 86.44 O 85.95 CB 82.59 CG 88.19 ND1 88.54 CD2 94.04 CE1 91.4 NE2 95.14
D GLN - 145 -66.2 360.0 N 85.96 CA 111.58 C 136.6 O 101.25 CB 114.62
