A MET - 193 360.0 98.9 N 127.53 CA 124.35 C 114.02 O 110.67 CB 128.14 CG 132.61 SD 111.58 CE 73.83
A GLU - 164 -97.1 134.6 N 104.36 CA 96.07 C 84.65 O 81.29 CB 100.87 CG 111.66 CD 115.69 OE1 113.64 OE2 116.84
A GLU - 48 -72.1 -179.6 N 80.63 CA 74.49 C 67.52 O 83.26 CB 77.1 CG 79.84 CD 87.67 OE1 88.53 OE2 91.34
A LEU E 63 -141.0 108.2 N 58.22 CA 58.31 C 54.52 O 59.41 CB 64.55 CG 74.34 CD1 75.71 CD2 83.2
A ARG E 25 -77.8 121.8 N 44.96 CA 48.09 C 54.42 O 58.54 CB 54.39 CG 68.52 CD 85.25 NE 95.67 CZ 99.82 NH1 97.72 NH2 98.72
A VAL E 1 -138.7 156.9 N 50.72 CA 50.41 C 44.06 O 39.95 CB 48.78 CG1 54.32 CG2 39.07
A TYR E 0 -105.2 134.9 N 42.2 CA 38.97 C 40.76 O 45.25 CB 39.93 CG 47.99 CD1 52.38 CD2 42.94 CE1 53.63 CE2 51.26 CZ 61.6 OH 72.36
A ILE E 0 -111.4 115.0 N 37.21 CA 44.64 C 51.4 O 56.9 CB 47.55 CG1 52.33 CG2 46.92 CD1 59.19
A VAL E 0 -100.7 128.0 N 45.26 CA 41.0 C 40.28 O 44.89 CB 47.49 CG1 40.75 CG2 49.42
A ARG E 25 -109.6 141.2 N 44.26 CA 47.37 C 50.46 O 54.82 CB 47.36 CG 65.17 CD 80.32 NE 95.98 CZ 90.13 NH1 92.79 NH2 68.05
A TYR - 0 -134.2 -9.8 N 55.57 CA 63.29 C 65.51 O 64.23 CB 64.34 CG 58.37 CD1 53.49 CD2 47.77 CE1 63.94 CE2 43.8 CZ 62.06 OH 75.41
A SER G 59 -62.4 -8.7 N 79.2 CA 88.19 C 92.27 O 98.04 CB 96.09 OG 97.77
A GLU G 94 -99.7 13.8 N 92.7 CA 94.08 C 92.12 O 89.39 CB 93.88 CG 99.21 CD 108.15 OE1 106.9 OE2 116.69
A ILE G 8 -92.0 -13.7 N 84.47 CA 79.87 C 85.05 O 82.81 CB 76.08 CG1 62.72 CG2 78.8 CD1 55.51
A GLY - 50 120.8 -77.3 N 93.17 CA 106.13 C 112.86 O 124.99
A LEU - 15 72.9 -11.2 N 98.92 CA 96.06 C 103.28 O 109.7 CB 88.91 CG 87.95 CD1 83.15 CD2 89.6
A LYS T 149 -55.7 -44.0 N 98.37 CA 95.17 C 94.43 O 101.09 CB 102.37 CG 112.73 CD 110.83 CE 109.69 NZ 112.12
A GLY T 33 -105.0 9.7 N 94.29 CA 98.62 C 92.18 O 91.03
A LYS S 30 -114.3 157.1 N 86.28 CA 85.28 C 92.71 O 99.16 CB 80.08 CG 78.37 CD 75.11 CE 79.68 NZ 84.68
A ASN - 84 -83.3 97.4 N 91.87 CA 90.61 C 83.85 O 82.68 CB 96.13 CG 105.69 OD1 110.35 ND2 108.98
A ARG H 106 -59.2 -34.0 N 81.47 CA 86.4 C 82.32 O 61.91 CB 92.08 CG 95.06 CD 100.33 NE 98.58 CZ 104.4 NH1 102.8 NH2 112.76
A LYS H 121 -66.7 -45.0 N 90.86 CA 87.6 C 81.75 O 75.01 CB 92.83 CG 97.72 CD 106.37 CE 107.72 NZ 110.89
A ASP H 109 -69.8 -45.5 N 75.92 CA 66.37 C 66.23 O 66.49 CB 68.58 CG 96.16 OD1 102.95 OD2 109.89
A PHE H 10 -49.5 -56.1 N 57.93 CA 51.59 C 46.2 O 45.82 CB 60.92 CG 59.46 CD1 63.28 CD2 54.01 CE1 61.35 CE2 46.5 CZ 43.16
A GLU H 8 -58.7 -55.3 N 45.73 CA 53.09 C 56.85 O 53.58 CB 58.49 CG 57.43 CD 74.81 OE1 91.11 OE2 85.06
A GLU H 38 -68.0 -30.0 N 61.17 CA 63.31 C 55.13 O 65.91 CB 82.6 CG 105.22 CD 114.83 OE1 108.5 OE2 120.4
A ALA H 22 -72.2 -40.2 N 47.66 CA 51.33 C 42.22 O 41.01 CB 39.81
A LEU H 0 -62.7 -49.8 N 44.53 CA 45.95 C 47.03 O 45.41 CB 39.22 CG 37.85 CD1 40.71 CD2 40.86
A ARG H 63 -54.5 -51.9 N 40.47 CA 44.01 C 50.04 O 47.18 CB 47.54 CG 64.94 CD 82.42 NE 93.92 CZ 110.77 NH1 114.04 NH2 118.49
A ARG H 156 -59.6 -43.9 N 46.71 CA 53.88 C 46.77 O 45.38 CB 56.83 CG 76.88 CD 103.32 NE 119.86 CZ 122.23 NH1 127.68 NH2 113.61
A ASN H 2 -57.7 -52.9 N 48.01 CA 49.69 C 46.9 O 45.5 CB 39.81 CG 55.08 OD1 65.51 ND2 61.18
A ILE H 0 -55.4 -46.1 N 39.87 CA 43.59 C 51.83 O 50.33 CB 41.43 CG1 47.08 CG2 32.27 CD1 31.8
A GLU H 47 -62.3 -32.0 N 48.31 CA 40.99 C 48.81 O 59.63 CB 42.59 CG 49.46 CD 60.32 OE1 60.45 OE2 58.82
A ARG H 115 -74.0 -46.6 N 56.06 CA 60.17 C 60.65 O 65.11 CB 59.93 CG 73.54 CD 82.55 NE 83.24 CZ 86.92 NH1 92.7 NH2 88.8
A VAL H 41 -79.8 -37.0 N 50.51 CA 56.89 C 56.68 O 61.26 CB 43.87 CG1 39.45 CG2 49.72
A THR H 12 -82.9 -37.4 N 53.55 CA 55.01 C 54.38 O 61.63 CB 50.46 OG1 65.75 CG2 40.47
A GLY - 62 78.5 19.9 N 49.51 CA 57.01 C 63.97 O 77.45
A MET S 63 -110.1 172.7 N 60.0 CA 50.72 C 49.48 O 54.71 CB 50.73 CG 47.41 SD 66.03 CE 88.97
A LYS - 166 -97.2 134.8 N 53.29 CA 64.35 C 64.13 O 71.07 CB 78.8 CG 88.99 CD 99.71 CE 97.34 NZ 83.05
A VAL - 2 -115.8 120.2 N 62.72 CA 59.31 C 53.87 O 66.81 CB 59.37 CG1 57.66 CG2 55.66
A LYS E 97 -110.7 136.5 N 47.35 CA 55.94 C 58.0 O 64.06 CB 61.03 CG 72.86 CD 86.88 CE 90.92 NZ 86.6
A ARG E 113 -76.8 128.9 N 60.91 CA 63.08 C 62.19 O 68.87 CB 70.61 CG 87.36 CD 104.12 NE 115.13 CZ 121.29 NH1 125.5 NH2 120.04
A GLN E 66 -147.2 135.7 N 56.42 CA 55.05 C 52.53 O 50.21 CB 59.51 CG 72.79 CD 85.09 OE1 90.87 NE2 88.03
A TRP T 62 51.5 37.2 N 54.28 CA 52.47 C 51.81 O 52.94 CB 55.93 CG 67.47 CD1 71.09 CD2 63.78 NE1 70.45 CE2 71.11 CE3 52.6 CZ2 75.73 CZ3 57.96 CH2 70.09
A GLY T 33 75.0 23.1 N 53.89 CA 52.89 C 49.3 O 59.4
A ARG E 24 -143.5 176.3 N 50.33 CA 48.55 C 47.84 O 48.32 CB 45.68 CG 50.06 CD 57.71 NE 65.05 CZ 61.41 NH1 58.08 NH2 57.28
A PHE E 0 -110.1 134.9 N 38.61 CA 41.32 C 48.49 O 54.11 CB 47.75 CG 45.96 CD1 52.25 CD2 38.4 CE1 54.55 CE2 44.52 CZ 50.12
A LEU E 5 -113.6 131.8 N 47.69 CA 48.03 C 49.63 O 44.76 CB 61.52 CG 71.4 CD1 71.26 CD2 67.95
A ILE E 0 -119.9 97.1 N 54.96 CA 48.88 C 50.27 O 55.46 CB 52.41 CG1 54.5 CG2 65.3 CD1 57.52
A PRO E 45 -67.7 133.2 N 47.97 CA 44.18 C 47.39 O 61.18 CB 41.95 CG 49.2 CD 49.47
A ILE - 14 -128.7 164.7 N 47.18 CA 53.75 C 57.8 O 57.08 CB 54.8 CG1 55.29 CG2 46.64 CD1 56.3
A ASP - 130 -87.1 175.7 N 65.17 CA 71.71 C 78.33 O 74.44 CB 68.88 CG 84.06 OD1 99.81 OD2 81.91
A GLU T 123 -65.9 155.5 N 83.78 CA 81.89 C 82.03 O 85.88 CB 88.75 CG 95.5 CD 103.93 OE1 104.02 OE2 108.81
A ASN T 146 57.2 18.4 N 82.94 CA 93.07 C 89.43 O 91.51 CB 98.5 CG 104.46 OD1 108.12 ND2 106.38
A VAL - 32 -92.4 131.3 N 73.59 CA 61.1 C 65.33 O 63.78 CB 55.42 CG1 49.9 CG2 48.57
A THR - 89 -126.0 123.8 N 70.49 CA 66.87 C 62.47 O 68.57 CB 73.13 OG1 81.67 CG2 71.14
A LEU - 5 -119.0 1.6 N 60.44 CA 62.18 C 64.02 O 65.86 CB 55.15 CG 52.95 CD1 53.68 CD2 48.13
A ASP H 19 -48.8 -53.6 N 58.18 CA 58.18 C 60.57 O 67.29 CB 71.2 CG 86.36 OD1 91.8 OD2 86.31
A ASP H 101 -63.0 -21.4 N 62.53 CA 68.89 C 61.13 O 68.66 CB 78.72 CG 92.22 OD1 90.88 OD2 105.52
A LYS H 100 -88.4 -31.7 N 45.88 CA 48.73 C 58.29 O 65.76 CB 55.16 CG 66.36 CD 73.79 CE 85.4 NZ 92.26
A LEU H 0 -85.4 -19.4 N 49.62 CA 50.86 C 61.14 O 61.39 CB 44.73 CG 45.69 CD1 45.86 CD2 42.74
A LYS T 64 -73.3 -17.8 N 61.23 CA 50.66 C 50.46 O 63.11 CB 50.94 CG 69.03 CD 85.31 CE 93.05 NZ 94.82
A LYS T 47 -105.1 12.3 N 47.72 CA 49.25 C 52.49 O 66.83 CB 55.52 CG 62.94 CD 65.63 CE 76.24 NZ 86.27
A ILE - 3 -105.4 114.0 N 43.78 CA 44.31 C 48.47 O 47.36 CB 43.55 CG1 44.99 CG2 32.37 CD1 49.81
A PHE T 5 -73.2 131.0 N 48.16 CA 43.15 C 48.85 O 59.39 CB 39.8 CG 46.53 CD1 42.46 CD2 52.38 CE1 48.1 CE2 48.5 CZ 46.14
A GLY T 0 119.2 -35.6 N 42.34 CA 37.09 C 39.76 O 44.82
A ILE - 0 -78.1 122.1 N 44.55 CA 46.22 C 50.47 O 51.27 CB 35.54 CG1 44.26 CG2 34.96 CD1 30.7
A GLN - 18 -92.1 -51.8 N 41.74 CA 49.1 C 57.38 O 69.41 CB 37.55 CG 52.48 CD 59.98 OE1 65.38 NE2 53.32
A ASN E 49 -136.0 151.7 N 54.64 CA 56.21 C 50.99 O 62.57 CB 63.42 CG 75.85 OD1 81.68 ND2 84.76
A PHE E 1 -144.0 154.2 N 44.69 CA 47.3 C 45.54 O 37.96 CB 49.92 CG 52.24 CD1 55.57 CD2 49.01 CE1 57.63 CE2 55.41 CZ 54.61
A SER E 0 -133.3 159.9 N 48.33 CA 50.66 C 50.59 O 46.12 CB 52.65 OG 63.94
A LYS E 7 -124.5 140.5 N 53.27 CA 47.08 C 45.37 O 50.95 CB 42.3 CG 46.37 CD 59.21 CE 65.76 NZ 79.4
A GLY E 0 173.7 -141.8 N 40.81 CA 41.24 C 43.42 O 42.69
A PHE E 0 -143.3 156.5 N 43.91 CA 48.45 C 49.63 O 46.84 CB 43.58 CG 53.01 CD1 54.6 CD2 59.89 CE1 52.39 CE2 57.82 CZ 52.82
A LEU E 29 -112.0 115.4 N 45.95 CA 50.37 C 50.67 O 53.46 CB 58.28 CG 67.71 CD1 67.94 CD2 75.79
A VAL E 8 -120.2 -176.6 N 38.63 CA 47.54 C 50.14 O 41.32 CB 49.14 CG1 43.42 CG2 48.48
A SER - 24 -81.9 176.5 N 46.51 CA 52.1 C 59.54 O 65.79 CB 54.01 OG 65.28
A HIS S 51 -80.4 -16.0 N 57.92 CA 57.55 C 56.95 O 62.01 CB 65.49 CG 69.05 ND1 71.95 CD2 71.89 CE1 75.9 NE2 77.22
A ASP - 77 -60.1 107.3 N 59.62 CA 66.39 C 59.56 O 49.93 CB 75.24 CG 89.46 OD1 95.36 OD2 96.82
A PHE H 6 -58.4 -18.1 N 52.89 CA 46.8 C 47.5 O 48.35 CB 39.25 CG 47.15 CD1 42.16 CD2 49.42 CE1 54.14 CE2 44.85 CZ 54.51
A GLU H 114 -70.8 -36.8 N 37.4 CA 48.79 C 53.7 O 63.4 CB 53.12 CG 80.73 CD 99.23 OE1 100.3 OE2 108.78
A GLU H 58 -67.7 -38.4 N 46.81 CA 46.74 C 48.47 O 47.78 CB 44.47 CG 59.97 CD 78.04 OE1 81.27 OE2 86.59
A VAL H 2 -61.2 -43.9 N 37.04 CA 39.4 C 48.4 O 56.66 CB 42.6 CG1 32.69 CG2 46.99
A LYS H 58 -64.1 -48.3 N 46.29 CA 48.59 C 50.45 O 54.8 CB 43.77 CG 53.81 CD 62.88 CE 66.87 NZ 73.05
A LYS H 105 -56.3 -52.7 N 45.05 CA 50.42 C 56.67 O 64.16 CB 40.07 CG 48.06 CD 60.16 CE 71.74 NZ 80.38
A TYR H 20 -77.2 -16.0 N 59.61 CA 60.2 C 55.99 O 59.37 CB 51.95 CG 48.23 CD1 52.09 CD2 48.56 CE1 61.69 CE2 62.41 CZ 66.4 OH 65.63
A SER H 0 -70.3 -42.1 N 45.34 CA 41.62 C 45.29 O 46.52 CB 44.57 OG 52.89
A LEU H 35 -61.9 -45.0 N 50.34 CA 52.45 C 60.83 O 67.69 CB 44.09 CG 40.79 CD1 42.6 CD2 41.46
A ILE H 46 -63.2 -41.8 N 51.14 CA 49.84 C 54.77 O 58.64 CB 48.98 CG1 47.61 CG2 44.48 CD1 48.94
A ALA H 1 -57.5 -47.7 N 53.9 CA 51.78 C 59.51 O 65.63 CB 43.6
A VAL H 0 -63.0 -44.4 N 53.68 CA 58.79 C 62.19 O 63.35 CB 58.23 CG1 52.04 CG2 50.08
A LYS H 120 -50.0 -58.6 N 63.56 CA 66.73 C 73.47 O 82.39 CB 64.17 CG 78.4 CD 98.19 CE 119.51 NZ 124.01
A GLU H 36 -54.7 -42.2 N 67.71 CA 71.09 C 75.86 O 80.87 CB 62.88 CG 70.25 CD 88.27 OE1 94.81 OE2 95.36
A LYS H 8 -61.5 -40.4 N 69.94 CA 69.78 C 71.52 O 72.04 CB 59.74 CG 59.72 CD 60.07 CE 64.39 NZ 71.92
A LEU H 22 -68.2 -32.2 N 68.33 CA 74.01 C 81.27 O 79.38 CB 67.09 CG 65.99 CD1 71.01 CD2 63.98
A GLU T 138 -72.5 4.5 N 86.71 CA 96.51 C 94.08 O 98.91 CB 111.9 CG 127.6 CD 136.09 OE1 142.76 OE2 131.9
A LYS T 104 -109.6 -6.6 N 91.45 CA 92.9 C 98.46 O 106.06 CB 85.66 CG 83.5 CD 92.73 CE 108.49 NZ 114.91
A GLY S 34 179.2 -177.0 N 98.39 CA 104.44 C 106.39 O 106.5
A ASN - 172 -97.0 81.4 N 105.93 CA 105.25 C 98.5 O 97.72 CB 113.33 CG 119.85 OD1 121.56 ND2 122.23
A TYR - 41 -100.5 145.4 N 95.8 CA 92.65 C 89.18 O 92.75 CB 93.55 CG 95.8 CD1 95.12 CD2 95.85 CE1 96.42 CE2 99.87 CZ 99.74 OH 100.34
A ARG - 145 -130.4 -13.1 N 87.11 CA 97.9 C 94.31 O 91.16 CB 110.15 CG 121.64 CD 122.93 NE 119.78 CZ 120.12 NH1 115.78 NH2 123.98
A THR E 18 -135.4 147.7 N 90.89 CA 85.35 C 84.85 O 80.25 CB 82.85 OG1 87.53 CG2 81.07
A PHE E 1 -150.6 -176.9 N 84.66 CA 72.66 C 68.82 O 78.05 CB 56.87 CG 57.22 CD1 48.18 CD2 65.0 CE1 56.97 CE2 64.43 CZ 64.58
A LYS E 43 -160.8 147.0 N 65.08 CA 59.89 C 55.56 O 48.45 CB 63.56 CG 64.49 CD 63.2 CE 68.71 NZ 73.9
A VAL E 10 -103.6 135.2 N 52.67 CA 49.05 C 55.34 O 56.7 CB 48.83 CG1 46.5 CG2 48.01
A GLN E 98 -130.1 93.1 N 61.71 CA 58.81 C 52.86 O 57.61 CB 69.87 CG 84.28 CD 98.65 OE1 106.39 NE2 96.79
A ALA E 9 -88.8 154.6 N 56.91 CA 53.68 C 57.15 O 64.49 CB 40.67
A LYS E 129 -142.0 143.2 N 54.89 CA 51.33 C 58.82 O 53.92 CB 55.93 CG 69.47 CD 80.19 CE 91.77 NZ 100.28
A LYS E 66 -123.9 124.3 N 67.87 CA 60.24 C 64.42 O 73.88 CB 52.01 CG 57.98 CD 65.17 CE 68.77 NZ 69.36
A ALA S 60 -108.8 -32.9 N 63.04 CA 62.89 C 75.57 O 88.17 CB 59.4
A TYR S 76 -84.2 95.1 N 81.05 CA 87.37 C 90.68 O 91.67 CB 87.78 CG 95.99 CD1 99.8 CD2 100.68 CE1 106.0 CE2 111.07 CZ 114.36 OH 118.31
A LYS T 180 -64.8 -31.8 N 94.41 CA 99.07 C 92.47 O 88.9 CB 111.08 CG 120.1 CD 125.43 CE 125.6 NZ 122.74
A GLU T 159 -92.5 49.1 N 89.6 CA 93.76 C 87.5 O 92.85 CB 105.91 CG 117.36 CD 126.22 OE1 129.45 OE2 126.23
A TYR - 19 -98.8 153.1 N 79.74 CA 72.47 C 68.26 O 67.3 CB 73.87 CG 74.58 CD1 72.19 CD2 68.15 CE1 67.25 CE2 55.29 CZ 61.83 OH 62.2
A LYS S 142 -61.7 -38.7 N 66.91 CA 77.94 C 76.74 O 85.08 CB 85.5 CG 94.62 CD 96.85 CE 90.53 NZ 88.56
A LYS S 24 -109.7 152.9 N 66.73 CA 54.01 C 53.41 O 57.82 CB 52.1 CG 58.43 CD 58.61 CE 64.3 NZ 69.27
A GLY - 31 -90.1 175.6 N 49.36 CA 43.98 C 46.18 O 43.59
A VAL H 56 -62.9 -46.5 N 51.01 CA 51.74 C 55.5 O 50.33 CB 48.0 CG1 48.86 CG2 48.8
A TYR H 187 -59.6 -44.2 N 58.24 CA 62.55 C 56.38 O 60.92 CB 63.43 CG 63.85 CD1 62.92 CD2 70.43 CE1 68.33 CE2 71.44 CZ 73.65 OH 79.44
A GLU H 83 -57.9 -43.9 N 48.63 CA 52.32 C 48.09 O 47.68 CB 57.81 CG 79.53 CD 97.3 OE1 102.33 OE2 102.06
A ILE H 1 -69.2 -49.8 N 45.91 CA 45.6 C 48.67 O 55.15 CB 42.05 CG1 43.13 CG2 31.85 CD1 31.96
A ASN H 31 -54.7 -43.1 N 38.01 CA 52.81 C 58.89 O 49.77 CB 58.81 CG 56.08 OD1 52.08 ND2 54.46
A SER H 45 -65.5 -64.1 N 67.26 CA 67.75 C 64.84 O 66.9 CB 67.75 OG 72.13
A GLU H 71 -55.4 -47.1 N 58.67 CA 58.28 C 57.23 O 54.3 CB 53.58 CG 62.52 CD 70.24 OE1 80.31 OE2 66.12
A LEU H 0 -62.1 -42.2 N 51.81 CA 44.5 C 46.96 O 53.88 CB 45.42 CG 55.64 CD1 32.58 CD2 31.01
A GLY H 9 -57.7 -53.8 N 46.78 CA 38.88 C 55.15 O 60.4
A ALA H 58 -48.5 -55.9 N 48.45 CA 42.76 C 53.11 O 65.3 CB 44.88
A LEU H 24 -53.9 -48.2 N 60.45 CA 66.91 C 62.84 O 60.8 CB 59.69 CG 59.41 CD1 61.15 CD2 57.91
A ILE H 0 -60.3 -47.2 N 51.59 CA 58.84 C 62.13 O 53.77 CB 54.68 CG1 50.51 CG2 53.42 CD1 45.56
A LEU H 63 -53.2 -50.9 N 60.39 CA 65.81 C 70.17 O 79.03 CB 65.06 CG 61.78 CD1 54.51 CD2 64.91
A LYS H 161 -76.1 -0.0 N 64.93 CA 73.88 C 75.31 O 79.68 CB 78.83 CG 88.47 CD 97.15 CE 102.88 NZ 102.77
A ASN H 62 -112.9 -21.2 N 74.34 CA 71.83 C 78.27 O 89.0 CB 63.45 CG 69.34 OD1 76.49 ND2 69.96
A PHE - 35 -126.6 88.7 N 76.25 CA 75.56 C 89.32 O 94.72 CB 66.69 CG 70.63 CD1 70.23 CD2 75.34 CE1 78.97 CE2 76.92 CZ 80.61
A LYS T 161 -64.2 -29.0 N 96.01 CA 102.08 C 101.58 O 101.24 CB 110.41 CG 113.34 CD 113.7 CE 116.04 NZ 107.97
A GLU T 106 -69.1 -14.5 N 103.16 CA 108.94 C 102.7 O 99.35 CB 118.11 CG 120.73 CD 128.52 OE1 141.78 OE2 118.33
A LEU - 5 -91.7 159.4 N 97.94 CA 87.63 C 85.56 O 78.78 CB 82.59 CG 84.56 CD1 73.34 CD2 81.6
A SER E 34 -148.4 154.0 N 88.59 CA 88.93 C 92.9 O 96.97 CB 89.85 OG 100.07
A VAL E 79 -89.7 106.3 N 88.57 CA 79.07 C 85.42 O 95.87 CB 69.98 CG1 57.05 CG2 68.58
A ASP - 53 -109.2 95.5 N 83.82 CA 89.13 C 86.96 O 83.39 CB 96.31 CG 105.82 OD1 105.36 OD2 110.63
A VAL S 76 -74.2 -13.8 N 88.55 CA 82.28 C 81.57 O 73.26 CB 78.44 CG1 72.49 CG2 79.17
A ARG S 196 -89.8 -62.8 N 95.03 CA 99.46 C 96.3 O 93.96 CB 109.91 CG 117.62 CD 117.08 NE 116.96 CZ 109.96 NH1 100.46 NH2 111.97
A ASN S 131 -130.5 87.3 N 99.3 CA 102.69 C 91.66 O 97.16 CB 112.49 CG 117.38 OD1 120.6 ND2 114.94
A PRO - 37 -83.0 144.4 N 70.87 CA 70.14 C 70.89 O 67.67 CB 72.48 CG 69.47 CD 68.63
A ASP S 78 -63.4 -41.1 N 72.71 CA 73.0 C 70.29 O 81.72 CB 73.85 CG 88.59 OD1 89.02 OD2 96.3
A PHE E 5 -147.1 166.5 N 61.89 CA 65.0 C 68.06 O 73.47 CB 70.07 CG 72.85 CD1 73.22 CD2 69.12 CE1 71.03 CE2 61.26 CZ 64.62
A VAL E 45 -124.2 137.6 N 62.25 CA 60.79 C 62.38 O 69.16 CB 65.02 CG1 60.28 CG2 69.03
A LEU E 0 -92.4 112.3 N 56.63 CA 54.83 C 53.39 O 58.79 CB 53.33 CG 52.36 CD1 59.86 CD2 62.37
A GLY E 3 -89.4 136.2 N 45.5 CA 41.19 C 52.66 O 53.73
A VAL E 1 -140.7 112.4 N 51.31 CA 46.96 C 52.69 O 52.32 CB 49.81 CG1 52.03 CG2 51.07
A GLU E 18 -111.4 114.1 N 46.35 CA 44.66 C 47.81 O 42.98 CB 42.78 CG 63.31 CD 74.84 OE1 65.59 OE2 81.45
A VAL E 2 -90.5 117.8 N 50.86 CA 51.93 C 54.09 O 50.62 CB 56.25 CG1 57.59 CG2 47.79
A ARG E 30 -140.4 166.2 N 63.36 CA 63.64 C 61.74 O 53.77 CB 60.45 CG 66.27 CD 77.21 NE 84.89 CZ 86.97 NH1 86.51 NH2 88.14
A PRO T 80 -52.1 -34.0 N 60.1 CA 49.82 C 52.96 O 60.08 CB 47.89 CG 52.9 CD 59.5
A GLU T 101 -87.8 12.5 N 57.99 CA 65.61 C 59.98 O 62.47 CB 69.56 CG 68.37 CD 73.51 OE1 79.31 OE2 78.76
A GLY E 4 126.4 -168.5 N 54.78 CA 54.63 C 46.82 O 48.87
A VAL E 1 -115.4 121.2 N 38.87 CA 38.01 C 39.13 O 39.69 CB 40.21 CG1 27.39 CG2 28.45
A LEU E 0 -92.2 123.2 N 45.26 CA 48.52 C 48.5 O 58.3 CB 50.68 CG 54.83 CD1 48.82 CD2 50.16
A ILE E 0 -124.2 124.6 N 45.28 CA 42.42 C 48.48 O 49.55 CB 42.85 CG1 34.29 CG2 34.75 CD1 31.62
A PHE E 21 -147.9 166.1 N 53.28 CA 56.8 C 59.95 O 58.98 CB 51.76 CG 46.36 CD1 37.91 CD2 39.94 CE1 44.21 CE2 38.79 CZ 42.02
A THR E 0 -124.5 139.0 N 67.17 CA 68.71 C 76.71 O 73.74 CB 63.21 OG1 69.57 CG2 57.56
A ASP E 59 -65.0 153.4 N 85.58 CA 83.16 C 70.89 O 68.38 CB 101.8 CG 116.7 OD1 124.29 OD2 117.8
A ARG E 12 -129.7 154.9 N 72.04 CA 76.14 C 77.23 O 75.24 CB 73.26 CG 73.79 CD 74.25 NE 81.47 CZ 77.56 NH1 68.35 NH2 82.41
A VAL - 96 -76.8 105.1 N 68.68 CA 79.7 C 78.01 O 82.24 CB 88.24 CG1 96.93 CG2 79.09
A GLU - 27 -95.0 113.5 N 75.86 CA 75.11 C 74.84 O 81.25 CB 71.42 CG 70.38 CD 86.15 OE1 94.26 OE2 87.52
A CYS - 63 -62.0 -51.0 N 68.56 CA 76.08 C 73.57 O 69.5 CB 87.99 SG 120.88
A TYR - 41 -140.8 145.8 N 68.28 CA 61.15 C 59.67 O 68.25 CB 65.06 CG 77.83 CD1 73.6 CD2 79.03 CE1 79.24 CE2 77.91 CZ 85.97 OH 94.14
A GLY - 9 -77.3 -95.9 N 50.18 CA 45.88 C 41.04 O 40.52
A GLY - 0 87.4 -173.4 N 39.82 CA 42.07 C 41.37 O 40.81
A LEU B 7 -115.7 154.4 N 39.35 CA 40.02 C 41.57 O 45.74 CB 33.11 CG 34.3 CD1 29.34 CD2 36.42
A PRO - 0 -63.4 125.1 N 35.44 CA 30.38 C 35.71 O 32.59 CB 32.15 CG 34.03 CD 37.33
A VAL T 1 -58.4 127.0 N 42.82 CA 43.17 C 48.15 O 52.38 CB 35.91 CG1 34.79 CG2 37.12
A GLY T 41 112.9 -21.6 N 49.9 CA 50.04 C 54.52 O 69.06
A THR S 51 -77.4 -36.1 N 46.69 CA 38.82 C 41.96 O 48.9 CB 40.23 OG1 44.85 CG2 41.53
A GLY S 16 -83.6 -10.0 N 49.43 CA 56.38 C 47.03 O 44.93
A GLY E 21 109.9 -158.2 N 42.26 CA 31.88 C 41.88 O 54.71
A LYS E 55 -129.3 146.0 N 39.66 CA 35.99 C 41.47 O 47.67 CB 34.4 CG 49.26 CD 55.41 CE 52.63 NZ 66.92
A ALA E 0 -142.2 158.0 N 40.99 CA 46.33 C 38.2 O 37.51 CB 49.16
A VAL E 0 -100.0 123.3 N 36.99 CA 36.75 C 35.4 O 40.38 CB 40.26 CG1 20.46 CG2 32.09
A LEU E 0 -99.7 125.8 N 33.57 CA 33.78 C 33.33 O 34.71 CB 36.74 CG 34.75 CD1 34.17 CD2 33.68
A LEU E 10 -76.9 101.1 N 31.84 CA 32.83 C 36.98 O 51.22 CB 47.94 CG 62.02 CD1 73.02 CD2 68.36
A LEU - 1 -95.9 93.8 N 45.74 CA 45.21 C 49.51 O 52.44 CB 45.0 CG 47.23 CD1 43.88 CD2 50.39
A SER - 83 -74.1 -22.3 N 64.09 CA 69.33 C 70.65 O 79.99 CB 72.34 OG 73.67
A GLY S 1 88.7 10.3 N 63.56 CA 61.51 C 74.16 O 67.92
A GLY S 14 -86.3 -150.9 N 82.35 CA 73.46 C 71.13 O 75.69
A ILE S 7 -90.8 -35.5 N 57.77 CA 46.88 C 52.16 O 61.99 CB 47.39 CG1 54.86 CG2 39.96 CD1 66.28
A ASP H 22 -79.2 -49.3 N 53.36 CA 50.83 C 50.78 O 60.42 CB 58.35 CG 71.75 OD1 85.51 OD2 71.88
A SER H 4 -54.2 -43.8 N 54.29 CA 41.2 C 43.49 O 38.07 CB 41.72 OG 61.85
A PRO H 0 -60.2 -38.9 N 46.81 CA 42.23 C 39.61 O 34.15 CB 34.1 CG 30.23 CD 30.07
A VAL H 0 -64.4 -41.1 N 36.73 CA 33.84 C 33.9 O 40.96 CB 28.72 CG1 23.13 CG2 36.74
A ALA H 0 -58.1 -43.7 N 35.2 CA 34.07 C 37.75 O 48.68 CB 29.28
A GLY H 0 -64.5 -33.2 N 26.43 CA 29.36 C 36.79 O 29.61
A TRP H 0 -68.4 -39.4 N 27.71 CA 29.49 C 37.7 O 34.21 CB 39.57 CG 40.23 CD1 38.38 CD2 37.29 NE1 35.95 CE2 37.95 CE3 37.51 CZ2 40.9 CZ3 40.12 CH2 40.75
A TYR H 17 -68.8 -33.6 N 36.79 CA 32.41 C 40.46 O 39.05 CB 27.49 CG 39.93 CD1 44.68 CD2 36.47 CE1 46.64 CE2 36.95 CZ 44.44 OH 55.94
A ALA H 0 -57.4 -56.0 N 47.33 CA 44.4 C 37.1 O 31.59 CB 19.48
A LEU H 0 -58.6 -34.9 N 43.42 CA 45.21 C 39.36 O 40.79 CB 52.27 CG 42.94 CD1 29.75 CD2 40.01
A LYS H 0 -62.9 -29.5 N 34.84 CA 28.83 C 39.47 O 33.97 CB 24.08 CG 33.43 CD 23.12 CE 29.2 NZ 36.35
A ARG B 0 -100.7 22.2 N 42.57 CA 35.26 C 39.77 O 35.15 CB 27.79 CG 32.41 CD 35.44 NE 44.6 CZ 37.28 NH1 35.82 NH2 39.92
A GLY T 0 88.8 3.8 N 46.09 CA 44.54 C 44.73 O 39.97
A VAL E 0 -85.6 121.6 N 51.86 CA 45.19 C 43.5 O 38.39 CB 46.57 CG1 49.77 CG2 46.32
A LEU E 31 -77.8 134.7 N 46.22 CA 45.33 C 50.01 O 51.21 CB 44.04 CG 37.34 CD1 41.21 CD2 33.6
A ILE E 1 -108.6 137.7 N 49.71 CA 44.79 C 44.35 O 54.89 CB 42.96 CG1 40.44 CG2 39.24 CD1 31.35
A GLU E 5 -109.2 120.3 N 45.63 CA 49.65 C 48.93 O 47.43 CB 42.89 CG 53.51 CD 65.8 OE1 70.61 OE2 75.3
A SER E 0 -100.1 142.9 N 45.84 CA 45.19 C 46.43 O 47.35 CB 36.34 OG 51.74
A VAL E 0 -129.7 127.0 N 39.15 CA 33.74 C 41.56 O 39.2 CB 33.93 CG1 46.08 CG2 34.41
A THR E 4 -119.8 147.4 N 46.61 CA 44.88 C 49.85 O 48.97 CB 47.44 OG1 54.94 CG2 44.46
A PHE E 38 -115.7 127.8 N 56.02 CA 48.02 C 50.77 O 59.92 CB 34.41 CG 48.76 CD1 48.03 CD2 59.49 CE1 45.1 CE2 54.8 CZ 47.84
A VAL E 17 -121.5 153.6 N 45.64 CA 49.97 C 60.16 O 59.34 CB 42.31 CG1 34.02 CG2 37.75
A SER - 6 -134.0 75.0 N 63.37 CA 60.5 C 61.17 O 64.59 CB 59.78 OG 63.46
A PRO T 60 -76.9 150.6 N 58.86 CA 58.64 C 58.67 O 58.25 CB 52.43 CG 45.73 CD 50.71
A PRO T 116 -89.2 11.6 N 60.43 CA 62.11 C 67.49 O 78.88 CB 63.32 CG 59.82 CD 58.55
A PHE T 56 -68.9 -50.6 N 69.1 CA 72.37 C 86.17 O 100.12 CB 55.91 CG 60.29 CD1 66.75 CD2 59.35 CE1 64.43 CE2 62.83 CZ 64.52
A THR S 22 -70.8 165.9 N 81.85 CA 74.93 C 85.82 O 82.14 CB 64.9 OG1 69.57 CG2 59.18
A SER - 56 -64.2 162.7 N 92.33 CA 88.72 C 88.06 O 92.5 CB 91.37 OG 100.56
A GLU T 203 -81.2 -22.4 N 85.83 CA 87.69 C 90.66 O 98.16 CB 93.35 CG 99.85 CD 109.94 OE1 104.51 OE2 116.84
A GLY T 39 -123.6 27.4 N 85.71 CA 85.09 C 85.46 O 91.13
A ALA H 21 -68.9 -34.6 N 77.68 CA 68.53 C 69.81 O 63.61 CB 61.48
A VAL H 25 -68.1 -38.8 N 72.89 CA 64.03 C 64.97 O 60.74 CB 57.97 CG1 46.6 CG2 73.55
A GLU H 77 -70.9 -29.6 N 65.94 CA 66.64 C 62.56 O 54.21 CB 65.46 CG 74.13 CD 80.78 OE1 82.83 OE2 80.52
A LYS H 85 -58.4 -55.0 N 66.31 CA 60.98 C 54.39 O 53.3 CB 57.62 CG 69.48 CD 85.4 CE 96.22 NZ 104.53
A VAL H 2 -56.0 -42.5 N 51.13 CA 49.61 C 54.54 O 49.78 CB 46.16 CG1 47.48 CG2 52.25
A ARG H 50 -58.2 -37.4 N 52.75 CA 49.59 C 47.84 O 46.12 CB 51.17 CG 58.59 CD 56.17 NE 59.68 CZ 66.98 NH1 62.28 NH2 80.54
A ASP H 55 -71.5 -44.7 N 49.16 CA 56.58 C 57.15 O 56.89 CB 58.81 CG 65.53 OD1 71.31 OD2 67.71
A ILE H 0 -64.1 -29.9 N 54.11 CA 61.47 C 56.36 O 56.37 CB 54.94 CG1 55.45 CG2 60.54 CD1 65.87
A LEU H 0 -73.5 -30.4 N 51.3 CA 48.18 C 55.75 O 58.5 CB 44.84 CG 47.6 CD1 39.49 CD2 58.42
A ARG H 112 -71.0 -29.0 N 52.13 CA 37.59 C 47.08 O 55.12 CB 42.65 CG 51.26 CD 50.99 NE 62.68 CZ 61.34 NH1 67.38 NH2 57.19
A VAL H 24 -74.5 -44.5 N 54.0 CA 44.86 C 50.01 O 56.3 CB 42.94 CG1 41.71 CG2 42.97
A LEU H 0 -64.0 -23.4 N 42.62 CA 41.55 C 54.35 O 48.24 CB 35.96 CG 33.59 CD1 35.6 CD2 33.98
A ARG G 56 -61.7 -23.6 N 56.63 CA 53.0 C 55.26 O 45.45 CB 46.37 CG 46.69 CD 48.35 NE 60.16 CZ 68.7 NH1 77.24 NH2 71.88
A GLU G 105 -74.1 -9.7 N 54.67 CA 51.25 C 54.43 O 55.13 CB 48.49 CG 61.11 CD 77.41 OE1 70.32 OE2 94.3
A PHE G 18 -119.4 7.9 N 43.19 CA 39.73 C 37.71 O 48.49 CB 41.29 CG 45.12 CD1 41.99 CD2 48.96 CE1 41.75 CE2 46.26 CZ 36.48
A SER S 0 -89.0 13.1 N 35.05 CA 38.19 C 39.83 O 46.91 CB 52.1 OG 59.02
A GLY T 5 62.7 26.5 N 47.52 CA 29.07 C 55.15 O 50.11
A GLY T 12 88.9 -9.4 N 59.58 CA 57.58 C 49.91 O 49.35
A HIS - 29 -74.7 138.7 N 44.88 CA 51.54 C 55.77 O 59.18 CB 61.23 CG 67.65 ND1 74.19 CD2 69.51 CE1 77.03 NE2 76.11
A PRO - 61 -70.6 154.4 N 57.25 CA 54.3 C 44.53 O 41.05 CB 48.83 CG 45.05 CD 51.61
A LEU E 0 -117.0 118.6 N 46.76 CA 47.86 C 54.67 O 53.91 CB 47.85 CG 42.25 CD1 44.07 CD2 27.54
A ARG E 84 -86.9 147.4 N 56.24 CA 53.17 C 49.71 O 50.84 CB 55.97 CG 70.97 CD 74.7 NE 69.22 CZ 81.91 NH1 80.98 NH2 95.35
A LEU E 0 -130.0 130.4 N 49.49 CA 50.05 C 44.13 O 39.56 CB 50.44 CG 47.99 CD1 54.74 CD2 43.55
A HIS E 0 -111.9 120.9 N 38.96 CA 43.65 C 42.52 O 45.93 CB 38.95 CG 43.18 ND1 48.37 CD2 42.07 CE1 53.89 NE2 45.36
A ILE E 15 -102.3 113.8 N 42.8 CA 39.23 C 46.89 O 47.75 CB 46.45 CG1 52.75 CG2 48.9 CD1 61.86
A VAL E 0 -107.1 126.0 N 44.64 CA 33.45 C 38.25 O 42.75 CB 32.5 CG1 26.8 CG2 32.64
A ASN E 81 -88.2 123.2 N 45.2 CA 52.12 C 43.71 O 41.93 CB 51.38 CG 62.11 OD1 72.31 ND2 79.8
A LEU - 3 -120.0 11.3 N 39.99 CA 47.84 C 53.21 O 51.55 CB 37.51 CG 41.45 CD1 28.42 CD2 46.86
A THR H 17 -54.5 -55.2 N 50.71 CA 55.11 C 52.53 O 55.35 CB 62.3 OG1 67.52 CG2 56.55
A LYS H 115 -61.3 -44.7 N 39.28 CA 38.1 C 42.95 O 49.07 CB 37.37 CG 58.19 CD 74.11 CE 83.0 NZ 87.17
A LEU H 4 -63.5 -45.1 N 31.48 CA 46.64 C 46.23 O 49.4 CB 46.12 CG 55.83 CD1 60.25 CD2 55.63
A GLN H 18 -61.5 -33.0 N 41.2 CA 49.64 C 56.64 O 58.67 CB 54.96 CG 56.5 CD 61.41 OE1 68.36 NE2 59.72
A LEU H 55 -68.8 -46.9 N 49.01 CA 43.27 C 51.4 O 54.18 CB 35.55 CG 42.49 CD1 45.88 CD2 40.74
A GLU H 35 -60.6 -51.0 N 53.98 CA 60.73 C 57.39 O 62.63 CB 61.37 CG 78.66 CD 89.9 OE1 92.68 OE2 96.11
A VAL H 0 -54.1 -51.6 N 52.63 CA 49.13 C 44.84 O 47.9 CB 40.69 CG1 31.08 CG2 32.13
A LYS H 59 -57.5 -42.7 N 43.61 CA 41.77 C 46.62 O 51.92 CB 46.75 CG 63.02 CD 68.79 CE 77.07 NZ 87.76
A LYS H 140 -58.1 -43.8 N 58.09 CA 66.84 C 64.79 O 66.25 CB 63.29 CG 69.36 CD 75.78 CE 88.15 NZ 95.08
A ARG H 92 -106.4 9.4 N 62.53 CA 60.88 C 61.64 O 75.98 CB 58.41 CG 66.83 CD 83.61 NE 97.22 CZ 103.73 NH1 104.84 NH2 103.89
A VAL S 9 -132.0 138.4 N 63.62 CA 56.88 C 49.45 O 61.38 CB 57.54 CG1 64.0 CG2 61.7
A PRO - 59 -47.5 125.4 N 42.79 CA 42.25 C 45.92 O 49.59 CB 38.27 CG 34.63 CD 38.55
A ASP G 74 -51.0 -31.5 N 55.44 CA 64.42 C 60.76 O 70.88 CB 87.31 CG 109.97 OD1 120.6 OD2 114.57
A LYS G 80 -68.0 -17.5 N 54.22 CA 54.44 C 52.31 O 56.29 CB 57.15 CG 61.05 CD 66.2 CE 76.29 NZ 86.26
A TYR G 41 -107.5 -3.0 N 46.69 CA 47.61 C 44.02 O 52.84 CB 43.3 CG 41.38 CD1 43.38 CD2 49.06 CE1 56.91 CE2 52.94 CZ 63.9 OH 72.9
A SER H 0 -56.6 -38.9 N 42.96 CA 44.52 C 43.59 O 39.59 CB 41.65 OG 47.95
A LEU H 40 -67.6 -51.2 N 52.41 CA 50.22 C 46.34 O 38.99 CB 56.98 CG 62.75 CD1 62.14 CD2 65.66
A ILE H 2 -55.2 -43.8 N 42.5 CA 39.32 C 42.86 O 47.25 CB 38.3 CG1 45.33 CG2 34.2 CD1 58.6
A MET H 0 -59.3 -49.6 N 36.23 CA 39.28 C 37.31 O 43.86 CB 46.93 CG 53.2 SD 71.84 CE 57.41
A TYR H 7 -52.5 -47.9 N 28.8 CA 35.44 C 38.85 O 33.45 CB 36.33 CG 36.04 CD1 39.97 CD2 42.55 CE1 52.37 CE2 51.45 CZ 57.0 OH 55.01
A ARG H 33 -67.3 -39.8 N 30.11 CA 40.57 C 42.77 O 35.82 CB 41.15 CG 44.27 CD 57.99 NE 77.32 CZ 80.63 NH1 88.99 NH2 67.91
A ARG H 6 -57.1 -44.2 N 40.64 CA 37.26 C 40.28 O 36.19 CB 36.11 CG 35.68 CD 36.17 NE 46.05 CZ 45.24 NH1 45.65 NH2 45.79
A SER H 0 -65.6 -35.2 N 32.55 CA 38.72 C 43.01 O 42.81 CB 40.03 OG 44.04
A MET H 31 -66.1 -37.0 N 41.04 CA 40.2 C 43.81 O 50.19 CB 36.83 CG 53.81 SD 53.42 CE 38.45
A PHE H 1 -73.4 -35.7 N 34.42 CA 35.77 C 37.22 O 28.26 CB 35.03 CG 45.29 CD1 52.86 CD2 49.41 CE1 48.88 CE2 47.22 CZ 50.97
A ARG H 49 -65.5 -46.5 N 39.89 CA 36.05 C 44.82 O 46.29 CB 30.18 CG 28.49 CD 31.43 NE 44.46 CZ 42.14 NH1 34.81 NH2 49.3
A ILE H 0 -59.2 -44.8 N 41.05 CA 40.45 C 45.46 O 47.17 CB 43.65 CG1 40.21 CG2 32.73 CD1 37.74
A ALA H 0 -52.6 -43.4 N 44.85 CA 41.14 C 44.14 O 45.56 CB 20.28
A GLU H 16 -71.3 -30.1 N 36.22 CA 37.98 C 40.96 O 38.33 CB 29.49 CG 34.77 CD 46.26 OE1 54.88 OE2 39.86
A LYS H 46 -60.8 -42.6 N 39.98 CA 45.17 C 49.59 O 53.42 CB 37.63 CG 30.87 CD 32.86 CE 34.89 NZ 48.22
A ILE H 0 -63.2 -37.7 N 45.95 CA 46.65 C 49.2 O 42.18 CB 39.62 CG1 38.92 CG2 32.72 CD1 36.78
A ALA H 0 -60.3 -47.1 N 46.03 CA 42.72 C 41.92 O 33.07 CB 42.13
A GLU H 128 -62.1 -42.2 N 41.54 CA 40.14 C 49.79 O 54.8 CB 47.67 CG 70.78 CD 91.21 OE1 101.41 OE2 90.9
A GLU H 128 -64.4 -35.6 N 53.51 CA 55.82 C 55.05 O 66.65 CB 52.61 CG 56.05 CD 68.85 OE1 84.62 OE2 69.54
A THR H 20 -100.3 -20.1 N 45.7 CA 40.37 C 45.2 O 40.55 CB 39.9 OG1 42.78 CG2 41.67
A GLY T 49 95.9 17.5 N 37.49 CA 41.33 C 40.66 O 45.95
A ALA - 1 -73.9 155.8 N 48.23 CA 47.24 C 44.52 O 53.7 CB 34.48
A VAL - 8 -129.2 12.3 N 33.8 CA 33.19 C 31.12 O 31.84 CB 33.07 CG1 22.98 CG2 21.4
A ALA - 0 -165.9 177.3 N 30.04 CA 37.27 C 40.25 O 30.65 CB 30.73
A PHE E 0 -129.3 155.5 N 43.8 CA 37.32 C 35.57 O 36.22 CB 33.3 CG 33.67 CD1 37.83 CD2 37.84 CE1 47.01 CE2 37.27 CZ 38.35
A TYR E 0 -129.3 135.3 N 36.41 CA 34.49 C 37.89 O 31.62 CB 29.22 CG 29.13 CD1 36.18 CD2 32.56 CE1 41.01 CE2 41.08 CZ 45.98 OH 42.07
A THR - 2 -134.4 160.6 N 35.33 CA 34.77 C 31.84 O 39.72 CB 36.35 OG1 37.95 CG2 27.04
A GLY - 9 -89.1 11.3 N 35.64 CA 30.21 C 40.15 O 53.94
A GLU - 3 -58.2 124.1 N 41.8 CA 43.86 C 43.74 O 58.44 CB 47.01 CG 62.38 CD 58.5 OE1 55.24 OE2 54.77
A ASN - 0 -115.4 152.3 N 38.35 CA 49.38 C 44.45 O 50.29 CB 54.96 CG 61.76 OD1 73.84 ND2 56.98
A ILE T 0 -74.5 132.2 N 40.41 CA 47.32 C 54.58 O 55.38 CB 43.72 CG1 36.93 CG2 44.84 CD1 34.45
A GLY T 0 78.0 1.1 N 44.69 CA 46.46 C 51.85 O 53.66
A GLN S 23 -63.8 -62.0 N 58.52 CA 65.03 C 66.68 O 66.77 CB 73.47 CG 88.02 CD 98.58 OE1 102.58 NE2 102.88
A VAL S 63 -125.2 171.7 N 69.77 CA 67.56 C 71.45 O 67.52 CB 51.53 CG1 37.36 CG2 50.08
A ALA G 15 -53.6 -48.4 N 66.45 CA 57.95 C 55.97 O 52.53 CB 51.03
A SER G 12 -75.3 11.3 N 53.51 CA 51.03 C 58.47 O 56.4 CB 57.66 OG 73.22
A GLN G 27 -129.8 30.9 N 55.18 CA 50.9 C 58.03 O 49.97 CB 54.61 CG 64.41 CD 62.17 OE1 68.63 NE2 55.26
A THR S 3 -80.0 168.5 N 63.27 CA 47.23 C 50.19 O 63.85 CB 48.93 OG1 58.38 CG2 48.87
A LEU H 0 -66.4 -37.3 N 38.93 CA 43.68 C 46.74 O 45.62 CB 35.76 CG 35.08 CD1 35.58 CD2 27.22
A GLU H 47 -70.4 -39.6 N 40.57 CA 48.59 C 42.15 O 40.76 CB 56.85 CG 73.3 CD 85.68 OE1 86.99 OE2 90.91
A ASN H 0 -70.3 -33.6 N 41.86 CA 39.35 C 35.44 O 36.01 CB 47.59 CG 46.64 OD1 55.51 ND2 37.4
A LEU H 0 -64.8 -37.5 N 37.96 CA 33.22 C 35.81 O 36.18 CB 42.3 CG 37.67 CD1 41.14 CD2 28.53
A TRP H 12 -58.7 -58.3 N 37.95 CA 35.29 C 35.24 O 39.14 CB 37.57 CG 44.85 CD1 42.93 CD2 46.03 NE1 44.58 CE2 45.69 CE3 45.14 CZ2 41.08 CZ3 46.91 CH2 41.97
A SER H 0 -56.4 -29.6 N 28.87 CA 38.68 C 39.41 O 42.86 CB 40.87 OG 52.11
A ILE H 2 -86.8 -42.1 N 38.81 CA 41.91 C 48.55 O 49.96 CB 36.47 CG1 38.35 CG2 38.88 CD1 33.42
A GLU H 8 -69.1 -27.0 N 38.75 CA 36.26 C 41.83 O 43.47 CB 42.66 CG 59.47 CD 79.56 OE1 89.8 OE2 84.95
A SER T 46 -63.0 -7.9 N 44.73 CA 43.86 C 43.36 O 57.73 CB 42.68 OG 64.09
A VAL T 26 -87.1 -10.4 N 30.99 CA 29.2 C 27.05 O 40.6 CB 33.51 CG1 38.37 CG2 36.69
A THR - 20 -110.0 147.9 N 30.74 CA 42.68 C 37.9 O 43.22 CB 47.26 OG1 58.33 CG2 48.13
A THR S 70 -91.4 -39.3 N 30.84 CA 39.74 C 31.34 O 41.08 CB 46.39 OG1 56.83 CG2 30.1
A ARG S 28 -69.0 149.7 N 28.84 CA 29.74 C 37.48 O 42.12 CB 33.35 CG 43.88 CD 49.78 NE 47.09 CZ 44.44 NH1 42.59 NH2 52.22
A PRO - 1 -73.5 149.5 N 39.41 CA 39.87 C 41.86 O 43.1 CB 29.93 CG 32.65 CD 39.1
A VAL E 0 -110.3 118.2 N 42.19 CA 33.1 C 31.5 O 35.9 CB 35.8 CG1 29.84 CG2 37.76
A ILE E 0 -96.0 129.7 N 37.09 CA 28.65 C 37.04 O 40.35 CB 26.22 CG1 34.93 CG2 26.12 CD1 18.16
A ARG - 2 -127.8 81.5 N 40.53 CA 43.89 C 36.88 O 38.04 CB 42.82 CG 47.93 CD 54.25 NE 52.52 CZ 49.89 NH1 51.26 NH2 40.45
A PRO T 0 -65.5 -16.5 N 37.21 CA 38.41 C 34.85 O 46.37 CB 39.3 CG 39.16 CD 35.53
A LEU T 0 -101.3 7.3 N 31.07 CA 38.87 C 32.35 O 41.16 CB 44.1 CG 47.89 CD1 40.0 CD2 46.62
A SER T 0 -63.6 -2.7 N 28.15 CA 30.76 C 41.5 O 44.64 CB 31.55 OG 44.95
A GLY T 0 -124.8 7.4 N 29.1 CA 29.96 C 36.84 O 37.27
A PHE - 13 -100.5 151.5 N 44.67 CA 48.91 C 50.1 O 45.29 CB 38.72 CG 48.45 CD1 59.93 CD2 55.77 CE1 61.17 CE2 59.68 CZ 57.0
A ASP - 8 -86.1 162.8 N 49.23 CA 53.76 C 54.17 O 41.22 CB 49.8 CG 41.43 OD1 38.89 OD2 40.06
A LYS H 55 -62.4 -32.9 N 61.53 CA 51.45 C 54.23 O 55.72 CB 50.86 CG 59.87 CD 69.43 CE 65.24 NZ 59.62
A THR H 74 -65.0 -38.9 N 48.46 CA 50.04 C 53.09 O 55.44 CB 47.92 OG1 69.85 CG2 41.91
A GLU H 69 -67.8 -39.2 N 40.0 CA 40.38 C 41.53 O 47.32 CB 40.15 CG 51.65 CD 58.16 OE1 66.01 OE2 59.13
A ILE H 0 -64.6 -43.8 N 37.88 CA 48.29 C 45.08 O 45.8 CB 52.29 CG1 46.84 CG2 50.82 CD1 39.86
A VAL H 20 -60.9 -46.1 N 33.28 CA 41.01 C 50.07 O 52.59 CB 40.12 CG1 33.6 CG2 31.32
A GLU H 113 -62.4 -39.0 N 50.55 CA 52.73 C 50.54 O 62.51 CB 47.8 CG 77.26 CD 98.95 OE1 96.21 OE2 107.89
A LYS H 17 -66.7 -39.5 N 36.95 CA 40.08 C 42.07 O 41.39 CB 33.4 CG 41.47 CD 52.97 CE 60.55 NZ 67.5
A ALA H 0 -63.1 -29.3 N 43.46 CA 47.46 C 52.2 O 49.18 CB 40.75
A LYS H 102 -73.9 -29.8 N 51.38 CA 52.24 C 60.39 O 71.85 CB 42.69 CG 44.21 CD 52.14 CE 58.66 NZ 70.01
A GLU H 111 -77.2 -34.8 N 54.9 CA 39.7 C 41.19 O 56.12 CB 44.67 CG 64.73 CD 75.59 OE1 70.21 OE2 83.22
A ILE H 9 -93.7 -13.7 N 43.3 CA 46.42 C 48.28 O 55.9 CB 55.59 CG1 54.93 CG2 55.42 CD1 53.06
A GLY T 41 95.7 22.8 N 43.22 CA 41.67 C 47.35 O 53.78
A THR - 0 -99.3 -14.3 N 44.04 CA 48.29 C 49.59 O 57.11 CB 55.73 OG1 60.36 CG2 50.67
A TYR T 43 -55.6 -52.4 N 54.69 CA 59.32 C 63.7 O 61.94 CB 52.74 CG 52.66 CD1 55.85 CD2 62.16 CE1 63.37 CE2 69.13 CZ 69.98 OH 70.56
A GLU T 147 -67.7 -26.1 N 72.84 CA 79.28 C 78.69 O 94.84 CB 90.24 CG 103.76 CD 110.61 OE1 113.74 OE2 111.0
A ILE T 37 -77.4 -44.3 N 62.09 CA 54.83 C 57.44 O 63.46 CB 54.82 CG1 49.68 CG2 53.49 CD1 55.16
A SER S 0 -50.8 142.1 N 50.5 CA 55.68 C 82.36 O 85.42 CB 56.46 OG 66.18
A ILE - 51 -62.3 111.9 N 97.67 CA 112.34 C 122.36 O 125.09 CB 114.88 CG1 113.87 CG2 119.29 CD1 112.86
A LYS - 57 -137.9 132.3 N 129.07 CA 135.21 C 153.36 O 163.12 CB 122.36 CG 109.3 CD 95.69 CE 94.51 NZ 94.25
A PRO S 96 -116.8 -5.2 N 155.63 CA 149.56 C 147.44 O 141.31 CB 147.42 CG 152.56 CD 156.93
A TYR S 159 -66.9 159.3 N 153.02 CA 154.88 C 154.86 O 154.93 CB 156.3 CG 159.63 CD1 160.77 CD2 161.06 CE1 161.19 CE2 163.16 CZ 162.01 OH 160.43
A GLN - 143 -68.8 137.4 N 154.98 CA 154.55 C 160.69 O 162.78 CB 150.88 CG 148.46 CD 148.56 OE1 145.8 NE2 151.16
A ASP - 69 -123.6 -156.6 N 162.03 CA 161.19 C 159.29 O 157.72 CB 157.8 CG 156.41 OD1 155.12 OD2 155.86
A SER T 54 59.6 40.6 N 157.51 CA 153.23 C 150.04 O 148.07 CB 149.57 OG 147.22
A CYS T 84 71.8 -17.5 N 144.66 CA 135.1 C 127.77 O 121.25 CB 129.47 SG 74.33
A VAL - 65 41.3 22.4 N 120.93 CA 104.02 C 85.28 O 68.07 CB 78.23 CG1 85.98 CG2 64.8
A PHE S 88 -59.1 -31.2 N 81.05 CA 70.79 C 70.17 O 71.49 CB 66.02 CG 67.53 CD1 60.89 CD2 71.56 CE1 62.13 CE2 71.36 CZ 67.64
A PHE S 13 -88.9 -28.2 N 65.63 CA 62.56 C 69.5 O 76.71 CB 56.79 CG 66.35 CD1 70.52 CD2 68.71 CE1 76.49 CE2 74.2 CZ 80.5
A ALA S 30 -66.4 126.3 N 69.07 CA 54.41 C 50.81 O 52.32 CB 54.04
A PRO - 15 -63.7 153.3 N 50.02 CA 46.36 C 55.84 O 48.1 CB 47.13 CG 51.28 CD 52.11
A LYS S 195 -76.2 -33.6 N 73.29 CA 86.65 C 87.95 O 82.91 CB 96.75 CG 101.47 CD 105.5 CE 104.64 NZ 107.03
A ASN S 69 -144.8 80.5 N 95.27 CA 89.02 C 70.04 O 63.75 CB 106.69 CG 120.24 OD1 122.34 ND2 127.27
A PRO - 31 -66.7 155.8 N 64.24 CA 61.13 C 62.42 O 74.42 CB 60.11 CG 64.24 CD 64.29
A ALA - 3 -77.7 135.3 N 50.85 CA 52.67 C 59.02 O 64.1 CB 51.53
A THR S 8 -97.9 -12.1 N 62.64 CA 57.44 C 51.5 O 46.26 CB 54.98 OG1 52.09 CG2 50.63
A ARG - 138 -134.2 131.8 N 55.67 CA 61.6 C 55.76 O 65.04 CB 75.89 CG 98.77 CD 116.64 NE 130.13 CZ 136.62 NH1 140.14 NH2 134.45
A SER - 4 -152.0 177.7 N 50.12 CA 41.89 C 48.84 O 50.8 CB 45.78 OG 48.88
A HIS - 77 -143.9 132.7 N 51.78 CA 55.02 C 56.02 O 61.01 CB 61.81 CG 74.67 ND1 76.69 CD2 82.01 CE1 78.71 NE2 84.19
A PRO H 9 -58.6 -22.1 N 48.99 CA 46.56 C 47.39 O 43.83 CB 37.51 CG 42.55 CD 45.1
A SER H 40 -71.0 -43.6 N 39.53 CA 48.24 C 57.25 O 69.25 CB 64.67 OG 82.96
A ILE H 73 -59.2 -45.6 N 44.87 CA 51.51 C 46.49 O 52.2 CB 54.65 CG1 60.77 CG2 52.92 CD1 76.09
A LEU H 0 -71.3 -34.1 N 35.96 CA 43.61 C 45.55 O 47.91 CB 44.79 CG 52.74 CD1 56.36 CD2 53.19
A GLU H 120 -60.7 -32.9 N 41.48 CA 51.47 C 54.56 O 48.26 CB 62.4 CG 83.44 CD 100.21 OE1 104.83 OE2 101.86
A LYS H 107 -80.9 -29.9 N 47.76 CA 40.58 C 51.56 O 64.04 CB 36.19 CG 43.53 CD 49.43 CE 46.25 NZ 49.36
A LEU H 18 -66.5 -32.0 N 56.78 CA 56.41 C 48.2 O 33.12 CB 48.37 CG 48.12 CD1 51.24 CD2 49.69
A GLU G 31 -72.6 -11.2 N 49.78 CA 52.04 C 60.13 O 61.24 CB 54.48 CG 62.64 CD 64.27 OE1 60.87 OE2 56.48
A GLN G 158 -73.1 -17.6 N 62.77 CA 65.76 C 66.45 O 76.57 CB 74.81 CG 83.5 CD 89.29 OE1 80.09 NE2 97.64
A GLN G 109 -83.6 -16.7 N 57.49 CA 57.83 C 54.14 O 56.37 CB 64.41 CG 79.97 CD 101.56 OE1 106.01 NE2 114.51
A VAL S 7 -93.9 111.9 N 58.96 CA 54.61 C 64.5 O 59.05 CB 49.79 CG1 56.4 CG2 43.57
A PRO T 50 -71.4 130.4 N 82.33 CA 92.78 C 88.56 O 87.78 CB 94.72 CG 88.61 CD 84.32
A ASP T 110 66.3 23.6 N 76.42 CA 78.97 C 71.81 O 69.89 CB 84.87 CG 93.69 OD1 94.24 OD2 99.82
A LEU H 5 -55.7 -46.4 N 62.02 CA 59.88 C 56.12 O 47.63 CB 58.82 CG 50.58 CD1 52.33 CD2 45.33
A PRO H 89 -60.4 -35.0 N 52.28 CA 51.08 C 61.54 O 72.04 CB 46.8 CG 50.03 CD 45.28
A VAL H 82 -67.1 -41.6 N 32.06 CA 51.25 C 47.51 O 46.78 CB 41.71 CG1 36.66 CG2 37.89
A LEU H 13 -61.6 -41.3 N 42.23 CA 43.93 C 53.52 O 52.35 CB 39.29 CG 44.64 CD1 37.75 CD2 38.84
A GLU H 8 -66.3 -46.5 N 48.22 CA 40.35 C 42.87 O 52.0 CB 36.99 CG 43.46 CD 58.52 OE1 48.36 OE2 71.68
A GLU H 84 -64.1 -32.9 N 46.24 CA 48.58 C 52.05 O 49.81 CB 35.34 CG 49.28 CD 67.27 OE1 74.79 OE2 72.93
A GLU H 84 -68.0 -40.5 N 47.67 CA 56.26 C 56.3 O 57.05 CB 77.56 CG 102.56 CD 126.17 OE1 128.56 OE2 137.13
A ALA H 7 -68.4 -37.9 N 50.87 CA 45.44 C 57.45 O 71.12 CB 36.52
A PHE H 17 -62.4 -53.3 N 58.21 CA 56.59 C 51.75 O 48.44 CB 61.7 CG 59.63 CD1 54.8 CD2 54.31 CE1 50.12 CE2 56.54 CZ 47.86
A THR H 82 -72.9 -29.3 N 55.91 CA 54.16 C 54.37 O 58.96 CB 56.35 OG1 71.02 CG2 52.9
A SER T 63 -87.1 11.0 N 53.64 CA 52.51 C 52.86 O 54.47 CB 59.45 OG 73.52
A ARG - 46 -76.7 164.5 N 45.0 CA 49.9 C 48.63 O 52.15 CB 50.63 CG 44.84 CD 41.52 NE 50.48 CZ 49.71 NH1 50.72 NH2 48.61
A LYS E 137 -112.4 129.7 N 49.76 CA 55.48 C 60.15 O 58.93 CB 46.74 CG 72.8 CD 84.65 CE 91.23 NZ 93.26
A VAL E 64 -111.8 123.1 N 56.0 CA 49.18 C 45.78 O 53.42 CB 46.55 CG1 45.92 CG2 44.7
A GLU E 60 -119.1 166.4 N 49.04 CA 49.66 C 49.71 O 53.93 CB 55.86 CG 54.63 CD 61.8 OE1 60.53 OE2 68.95
A VAL E 66 -133.2 124.9 N 51.57 CA 51.04 C 52.75 O 56.13 CB 47.18 CG1 53.42 CG2 40.97
A ILE E 11 -88.5 118.5 N 54.24 CA 54.15 C 57.92 O 60.98 CB 51.03 CG1 50.22 CG2 51.06 CD1 49.35
A GLU - 184 -102.2 360.0 N 65.4 CA 76.75 C 91.55 O 100.03 CB 83.34 CG 92.21 CD 106.18 OE1 108.78 OE2 110.29 OXT 91.8
B MET - 149 360.0 155.9 N 146.8 CA 143.03 C 133.73 O 125.89 CB 147.09 CG 154.35 SD 226.31 CE 108.01
B GLU - 63 -54.7 -58.6 N 137.47 CA 138.43 C 129.78 O 132.1 CB 141.97 CG 148.57 CD 157.71 OE1 160.66 OE2 161.69
B GLU - 100 59.5 59.6 N 116.82 CA 105.65 C 91.24 O 100.75 CB 115.36 CG 123.48 CD 127.96 OE1 132.19 OE2 126.33
B LEU E 62 -125.1 129.8 N 80.48 CA 80.07 C 73.67 O 73.3 CB 81.89 CG 75.89 CD1 64.12 CD2 80.1
B ARG E 33 -100.0 121.1 N 65.01 CA 62.45 C 61.04 O 66.66 CB 61.61 CG 61.08 CD 65.86 NE 78.5 CZ 77.01 NH1 85.55 NH2 64.54
B VAL E 1 -132.7 160.1 N 57.71 CA 67.49 C 73.32 O 75.75 CB 60.29 CG1 63.86 CG2 46.43
B TYR E 0 -105.8 128.2 N 61.79 CA 55.4 C 60.69 O 65.07 CB 50.16 CG 54.3 CD1 60.47 CD2 44.92 CE1 58.34 CE2 44.29 CZ 50.71 OH 48.5
B ILE E 0 -100.0 113.6 N 58.14 CA 62.61 C 65.03 O 67.74 CB 64.98 CG1 70.42 CG2 60.43 CD1 79.69
B VAL E 0 -101.4 125.5 N 57.2 CA 54.25 C 54.23 O 50.39 CB 50.22 CG1 34.44 CG2 46.41
B ARG E 19 -108.1 151.0 N 51.46 CA 54.49 C 56.98 O 54.85 CB 55.99 CG 49.99 CD 44.17 NE 56.38 CZ 59.63 NH1 39.23 NH2 69.65
B TYR - 25 -153.8 148.7 N 61.41 CA 65.68 C 76.37 O 77.86 CB 65.95 CG 61.71 CD1 52.85 CD2 61.53 CE1 60.61 CE2 60.16 CZ 64.38 OH 62.67
B SER - 65 -93.7 143.0 N 84.99 CA 86.61 C 95.43 O 97.61 CB 83.49 OG 87.98
B GLU - 133 -89.5 116.5 N 100.49 CA 108.36 C 107.67 O 107.08 CB 119.61 CG 125.61 CD 132.54 OE1 133.49 OE2 135.61
B ILE - 55 -142.2 125.5 N 108.54 CA 106.5 C 109.01 O 114.26 CB 96.2 CG1 98.76 CG2 86.88 CD1 104.89
B GLY - 44 -165.7 -171.5 N 107.66 CA 108.95 C 109.19 O 116.12
B LEU - 36 -129.6 171.9 N 107.4 CA 113.74 C 119.33 O 120.78 CB 108.2 CG 90.15 CD1 93.71 CD2 73.75
B LYS - 141 -91.7 -161.7 N 123.0 CA 131.13 C 132.88 O 129.15 CB 136.53 CG 132.7 CD 126.15 CE 119.49 NZ 118.15
B GLY T 63 -63.9 23.6 N 134.45 CA 139.01 C 147.38 O 147.61
B LYS T 63 -86.6 34.1 N 151.12 CA 150.81 C 153.33 O 148.56 CB 139.67 CG 130.58 CD 133.39 CE 134.64 NZ 136.67
B ASN T 157 65.5 10.5 N 161.4 CA 170.52 C 168.54 O 171.06 CB 181.18 CG 185.97 OD1 183.51 ND2 190.3
B ARG - 44 -70.2 145.9 N 160.75 CA 149.7 C 142.62 O 143.1 CB 147.47 CG 145.46 CD 146.41 NE 147.94 CZ 146.2 NH1 140.75 NH2 149.28
B LYS - 108 -61.6 148.7 N 132.65 CA 115.34 C 103.8 O 107.03 CB 105.91 CG 104.24 CD 99.08 CE 103.5 NZ 102.29
B ASP - 92 -72.1 142.1 N 91.12 CA 81.78 C 76.5 O 75.06 CB 87.35 CG 95.45 OD1 95.16 OD2 104.16
B PHE H 9 -59.6 -54.0 N 73.64 CA 61.45 C 59.02 O 63.25 CB 50.1 CG 49.11 CD1 53.96 CD2 58.25 CE1 54.67 CE2 63.62 CZ 58.71
B GLU H 39 -57.2 -54.8 N 57.69 CA 63.23 C 62.04 O 63.53 CB 75.16 CG 91.67 CD 112.76 OE1 117.42 OE2 123.92
B GLU H 72 -67.8 -29.4 N 54.94 CA 70.39 C 63.77 O 66.79 CB 89.25 CG 118.24 CD 138.29 OE1 141.42 OE2 145.47
B ALA H 10 -72.5 -39.7 N 52.14 CA 45.68 C 46.74 O 61.44 CB 44.5
B LEU H 0 -63.0 -50.5 N 44.94 CA 45.23 C 53.69 O 59.36 CB 42.2 CG 46.1 CD1 38.96 CD2 43.8
B ARG H 40 -54.2 -51.1 N 52.15 CA 55.98 C 53.66 O 51.84 CB 60.09 CG 72.41 CD 92.66 NE 111.49 CZ 118.61 NH1 122.48 NH2 116.97
B ARG H 147 -60.6 -41.2 N 45.56 CA 40.21 C 48.9 O 56.12 CB 51.29 CG 78.2 CD 93.45 NE 101.21 CZ 104.98 NH1 100.17 NH2 107.16
B ASN H 3 -61.5 -52.1 N 45.3 CA 49.21 C 56.69 O 67.93 CB 51.51 CG 52.35 OD1 61.67 ND2 48.01
B ILE H 0 -55.3 -45.5 N 56.59 CA 56.23 C 57.9 O 57.31 CB 46.48 CG1 52.47 CG2 35.86 CD1 53.84
B GLU H 39 -61.6 -34.6 N 52.92 CA 47.05 C 51.08 O 57.71 CB 54.9 CG 68.96 CD 82.37 OE1 83.85 OE2 87.09
B ARG H 92 -73.0 -38.9 N 52.82 CA 59.16 C 66.15 O 72.64 CB 53.43 CG 54.69 CD 71.05 NE 90.58 CZ 105.18 NH1 108.99 NH2 107.16
B VAL H 37 -88.0 -38.1 N 60.34 CA 62.2 C 60.16 O 67.61 CB 53.19 CG1 57.7 CG2 48.01
B THR H 14 -78.5 -45.3 N 57.84 CA 59.46 C 66.84 O 70.96 CB 53.01 OG1 53.43 CG2 56.71
B GLY - 64 93.3 7.8 N 68.65 CA 72.15 C 69.4 O 71.19
B MET S 56 -105.3 157.9 N 65.46 CA 64.6 C 66.63 O 64.52 CB 62.26 CG 49.82 SD 95.61 CE 90.9
B LYS - 171 -81.9 138.8 N 75.88 CA 80.82 C 75.55 O 78.19 CB 93.61 CG 104.6 CD 112.16 CE 110.83 NZ 105.39
B VAL - 9 -112.6 128.9 N 69.49 CA 61.43 C 64.94 O 72.92 CB 61.79 CG1 62.24 CG2 65.08
B LYS E 120 -105.3 129.6 N 67.3 CA 77.04 C 72.73 O 71.61 CB 85.95 CG 105.17 CD 115.41 CE 121.68 NZ 122.46
B ARG E 138 -81.2 121.1 N 71.29 CA 72.03 C 70.76 O 73.9 CB 88.15 CG 96.0 CD 108.21 NE 124.68 CZ 136.32 NH1 140.38 NH2 137.44
B GLN E 33 -154.6 131.9 N 72.18 CA 83.92 C 84.5 O 85.78 CB 91.33 CG 96.08 CD 98.63 OE1 98.01 NE2 100.74
B TRP T 53 52.5 44.3 N 85.4 CA 78.84 C 82.16 O 88.49 CB 81.0 CG 96.04 CD1 97.0 CD2 105.04 NE1 99.28 CE2 100.47 CE3 107.61 CZ2 97.66 CZ3 105.45 CH2 100.47
B GLY T 64 62.0 23.2 N 84.21 CA 90.69 C 92.68 O 99.94
B ARG E 31 -140.9 174.0 N 80.76 CA 61.99 C 59.45 O 64.68 CB 49.32 CG 52.89 CD 58.15 NE 60.64 CZ 61.21 NH1 66.13 NH2 61.26
B PHE E 0 -104.6 146.7 N 54.61 CA 56.7 C 61.68 O 63.82 CB 57.68 CG 57.93 CD1 55.46 CD2 54.25 CE1 52.87 CE2 54.42 CZ 59.93
B LEU E 6 -128.6 130.1 N 56.9 CA 63.63 C 68.33 O 66.39 CB 65.38 CG 60.2 CD1 61.01 CD2 62.47
B ILE E 0 -118.4 97.1 N 68.1 CA 66.36 C 64.04 O 67.51 CB 58.8 CG1 51.92 CG2 56.03 CD1 55.89
B PRO E 50 -62.6 128.9 N 59.14 CA 56.72 C 56.67 O 59.23 CB 58.14 CG 58.77 CD 62.62
B ILE - 12 -129.1 154.7 N 57.59 CA 59.35 C 59.83 O 54.17 CB 51.33 CG1 49.13 CG2 51.5 CD1 56.2
B ASP - 119 -75.2 173.4 N 68.45 CA 76.37 C 77.67 O 73.43 CB 86.61 CG 101.83 OD1 110.58 OD2 103.32
B GLU T 113 -75.7 158.6 N 83.32 CA 91.14 C 89.56 O 91.03 CB 111.72 CG 126.78 CD 135.88 OE1 133.08 OE2 142.02
B ASN T 164 58.7 21.7 N 89.52 CA 94.48 C 87.33 O 93.68 CB 100.26 CG 108.41 OD1 113.94 ND2 113.14
B VAL - 33 -102.9 126.5 N 77.13 CA 75.81 C 75.4 O 77.9 CB 72.53 CG1 73.09 CG2 64.01
B THR - 103 -119.9 128.6 N 74.93 CA 72.83 C 66.45 O 69.61 CB 81.75 OG1 93.41 CG2 83.14
B LEU - 9 -124.9 10.4 N 58.99 CA 61.14 C 64.74 O 58.24 CB 55.42 CG 59.25 CD1 37.41 CD2 39.29
B ASP H 38 -48.2 -60.3 N 70.14 CA 74.53 C 73.82 O 70.94 CB 94.17 CG 115.23 OD1 120.52 OD2 123.79
B ASP H 101 -70.7 -14.3 N 77.37 CA 75.32 C 69.67 O 71.94 CB 86.34 CG 102.02 OD1 102.11 OD2 111.26
B LYS H 99 -90.0 -39.1 N 60.02 CA 52.89 C 67.06 O 75.92 CB 54.15 CG 71.66 CD 84.98 CE 97.87 NZ 105.64
B LEU H 0 -69.7 -32.8 N 66.23 CA 60.88 C 62.59 O 52.86 CB 52.85 CG 47.17 CD1 56.16 CD2 42.28
B LYS T 80 -65.9 -16.5 N 68.71 CA 67.91 C 68.1 O 82.19 CB 70.86 CG 78.39 CD 88.81 CE 97.13 NZ 104.94
B LYS T 33 -109.3 28.4 N 51.2 CA 37.21 C 52.99 O 58.76 CB 41.16 CG 51.75 CD 54.27 CE 51.39 NZ 65.66
B ILE - 3 -118.9 109.3 N 54.42 CA 47.88 C 45.95 O 44.66 CB 42.09 CG1 47.05 CG2 40.44 CD1 52.83
B PHE T 1 -70.4 138.1 N 41.72 CA 37.15 C 40.84 O 44.15 CB 34.93 CG 42.79 CD1 41.92 CD2 36.09 CE1 42.38 CE2 37.41 CZ 38.58
B GLY T 0 119.3 -36.1 N 46.11 CA 47.4 C 51.88 O 50.21
B ILE - 0 -77.8 121.8 N 51.51 CA 46.33 C 45.79 O 49.43 CB 53.49 CG1 53.46 CG2 39.6 CD1 41.57
B GLN - 48 -77.8 -51.1 N 50.43 CA 55.59 C 56.07 O 52.75 CB 59.19 CG 70.38 CD 78.57 OE1 83.53 NE2 79.09
B ASN E 25 -160.7 177.6 N 58.35 CA 52.99 C 44.19 O 39.09 CB 51.11 CG 59.44 OD1 58.3 ND2 62.85
B PHE E 3 -148.1 169.7 N 46.97 CA 46.9 C 48.79 O 48.8 CB 44.78 CG 51.93 CD1 62.37 CD2 52.77 CE1 69.11 CE2 54.11 CZ 60.29
B SER E 1 -140.7 157.2 N 49.32 CA 50.79 C 57.33 O 50.12 CB 46.11 OG 52.76
B LYS E 40 -117.6 143.9 N 60.62 CA 54.89 C 61.69 O 68.41 CB 53.71 CG 59.72 CD 71.53 CE 81.99 NZ 92.6
B GLY E 1 172.6 -142.8 N 64.27 CA 61.55 C 53.6 O 54.65
B PHE E 5 -140.5 153.4 N 47.27 CA 51.46 C 57.63 O 58.56 CB 50.51 CG 51.15 CD1 54.41 CD2 57.1 CE1 64.67 CE2 61.02 CZ 64.5
B LEU E 4 -116.4 116.7 N 57.53 CA 57.12 C 58.71 O 59.01 CB 58.29 CG 61.03 CD1 61.38 CD2 54.75
B VAL E 1 -127.1 -177.8 N 54.78 CA 65.65 C 75.03 O 73.78 CB 65.85 CG1 59.68 CG2 63.41
B SER - 17 -76.5 -179.7 N 58.2 CA 67.2 C 72.35 O 77.06 CB 74.94 OG 80.51
B HIS S 41 -83.9 -9.3 N 77.76 CA 82.37 C 81.59 O 82.71 CB 90.4 CG 98.04 ND1 104.83 CD2 99.68 CE1 110.19 NE2 108.81
B ASP - 84 -59.9 108.0 N 78.14 CA 74.98 C 77.05 O 80.24 CB 70.33 CG 79.28 OD1 89.34 OD2 83.17
B PHE H 15 -59.4 -20.6 N 71.47 CA 68.63 C 77.7 O 77.55 CB 58.97 CG 59.69 CD1 68.93 CD2 51.66 CE1 64.67 CE2 58.02 CZ 64.54
B GLU H 97 -69.0 -43.5 N 78.44 CA 77.72 C 68.99 O 59.8 CB 90.15 CG 104.96 CD 115.14 OE1 112.47 OE2 125.59
B GLU H 25 -63.8 -39.4 N 66.78 CA 67.75 C 64.96 O 67.63 CB 76.41 CG 90.01 CD 105.78 OE1 107.77 OE2 113.64
B VAL H 2 -59.3 -43.1 N 54.72 CA 56.19 C 59.48 O 75.69 CB 58.16 CG1 53.51 CG2 59.28
B LYS H 54 -67.2 -46.6 N 49.68 CA 53.71 C 56.55 O 62.34 CB 65.11 CG 66.27 CD 66.84 CE 70.92 NZ 78.37
B LYS H 123 -63.6 -48.3 N 55.72 CA 54.43 C 53.78 O 50.66 CB 45.33 CG 51.81 CD 61.32 CE 57.96 NZ 60.07
B TYR H 56 -68.9 -26.4 N 46.86 CA 47.65 C 54.53 O 61.81 CB 43.34 CG 52.32 CD1 49.01 CD2 51.9 CE1 45.18 CE2 52.73 CZ 55.63 OH 65.91
B SER H 1 -67.6 -40.9 N 49.42 CA 56.27 C 51.94 O 52.48 CB 58.51 OG 64.52
B LEU H 36 -61.6 -43.3 N 44.49 CA 45.03 C 53.98 O 51.42 CB 43.85 CG 54.39 CD1 58.04 CD2 52.0
B ILE H 61 -62.0 -47.7 N 50.2 CA 52.58 C 52.78 O 59.18 CB 48.4 CG1 50.16 CG2 43.06 CD1 48.19
B ALA H 1 -56.3 -38.6 N 40.81 CA 45.13 C 55.89 O 54.29 CB 44.72
B VAL H 0 -69.9 -43.6 N 56.16 CA 54.8 C 53.15 O 55.32 CB 53.92 CG1 44.42 CG2 56.09
B LYS H 97 -58.3 -51.9 N 54.74 CA 59.16 C 66.74 O 71.29 CB 58.26 CG 63.83 CD 83.0 CE 97.31 NZ 105.15
B GLU H 44 -55.1 -43.9 N 66.62 CA 64.82 C 68.54 O 68.98 CB 59.85 CG 64.1 CD 77.86 OE1 77.03 OE2 87.51
B LYS H 12 -63.8 -38.8 N 63.87 CA 59.96 C 68.38 O 71.4 CB 57.64 CG 54.97 CD 67.87 CE 76.19 NZ 68.09
B LEU H 26 -68.7 -24.3 N 68.74 CA 70.8 C 74.06 O 79.04 CB 71.72 CG 77.05 CD1 80.64 CD2 84.21
B GLU T 136 -74.4 -1.8 N 75.02 CA 80.26 C 86.96 O 93.51 CB 82.44 CG 95.31 CD 107.5 OE1 106.21 OE2 116.5
B LYS T 100 -102.5 -22.9 N 84.31 CA 88.69 C 97.69 O 103.63 CB 89.24 CG 102.68 CD 101.22 CE 99.25 NZ 93.64
B GLY S 32 -170.2 -176.8 N 96.22 CA 94.48 C 93.67 O 91.9
B ASN - 165 -89.7 70.8 N 99.17 CA 108.11 C 103.37 O 106.25 CB 123.78 CG 133.02 OD1 132.64 ND2 139.39
B TYR - 50 -94.0 135.0 N 100.7 CA 97.03 C 93.59 O 90.45 CB 94.05 CG 93.22 CD1 94.41 CD2 94.75 CE1 94.84 CE2 95.68 CZ 95.66 OH 95.16
B ARG - 129 -120.5 -25.5 N 92.05 CA 93.54 C 93.81 O 101.15 CB 96.2 CG 113.07 CD 128.89 NE 133.26 CZ 135.5 NH1 139.84 NH2 132.73
B THR E 21 -116.2 161.8 N 88.83 CA 88.26 C 80.87 O 82.62 CB 91.14 OG1 89.14 CG2 98.18
B PHE E 0 -161.6 176.0 N 65.93 CA 67.58 C 74.87 O 77.22 CB 66.58 CG 69.29 CD1 67.36 CD2 80.26 CE1 70.58 CE2 85.8 CZ 77.5
B LYS E 42 -159.9 142.8 N 77.26 CA 78.31 C 76.64 O 79.58 CB 82.02 CG 88.0 CD 89.89 CE 96.18 NZ 111.21
B VAL E 11 -92.1 134.8 N 72.3 CA 68.81 C 75.24 O 83.93 CB 66.71 CG1 57.57 CG2 61.93
B GLN E 96 -128.2 93.5 N 77.85 CA 74.34 C 62.71 O 66.4 CB 79.43 CG 93.83 CD 103.79 OE1 105.41 NE2 106.51
B ALA E 8 -88.1 145.9 N 58.58 CA 66.7 C 75.52 O 76.45 CB 68.79
B LYS E 129 -135.6 135.9 N 80.49 CA 79.74 C 82.36 O 80.98 CB 79.19 CG 90.62 CD 94.87 CE 96.86 NZ 98.62
B LYS E 69 -114.7 131.7 N 90.59 CA 98.64 C 101.98 O 105.16 CB 97.72 CG 95.54 CD 100.65 CE 102.73 NZ 104.22
B ALA - 45 -137.4 12.2 N 98.38 CA 100.81 C 122.32 O 129.94 CB 79.9
B TYR S 81 -92.4 -8.3 N 128.32 CA 129.46 C 134.96 O 137.05 CB 128.09 CG 131.76 CD1 136.74 CD2 130.72 CE1 139.56 CE2 132.8 CZ 137.14 OH 136.96
B LYS S 187 63.4 -115.4 N 139.29 CA 140.9 C 143.49 O 146.55 CB 133.61 CG 123.2 CD 123.47 CE 126.3 NZ 128.65
B GLU S 187 -68.8 86.2 N 139.1 CA 134.15 C 129.49 O 128.34 CB 133.06 CG 134.03 CD 134.31 OE1 132.38 OE2 135.35
B TYR - 21 -111.4 156.3 N 121.25 CA 109.96 C 105.75 O 100.84 CB 107.72 CG 101.78 CD1 102.5 CD2 94.65 CE1 100.41 CE2 94.79 CZ 94.86 OH 81.53
B LYS S 148 -50.5 -56.4 N 109.83 CA 114.25 C 114.81 O 119.23 CB 114.98 CG 115.38 CD 114.25 CE 109.6 NZ 98.96
B LYS S 33 -105.2 168.4 N 109.11 CA 103.76 C 107.21 O 109.47 CB 96.58 CG 91.59 CD 85.91 CE 94.48 NZ 101.98
B GLY - 22 -104.9 161.1 N 107.47 CA 102.35 C 95.57 O 94.63
B VAL H 39 -48.5 -39.8 N 95.6 CA 90.57 C 92.33 O 90.95 CB 83.29 CG1 82.65 CG2 77.69
B TYR H 184 -79.9 -30.0 N 98.95 CA 102.0 C 97.38 O 94.41 CB 107.07 CG 115.79 CD1 122.1 CD2 119.08 CE1 125.26 CE2 124.34 CZ 128.2 OH 132.98
B GLU H 97 -60.8 -54.4 N 96.59 CA 96.71 C 86.87 O 85.19 CB 108.35 CG 121.31 CD 129.25 OE1 131.06 OE2 131.87
B ILE H 2 -54.2 -50.8 N 81.9 CA 73.76 C 72.77 O 74.58 CB 64.52 CG1 64.35 CG2 56.82 CD1 62.15
B ASN H 26 -55.1 -44.9 N 74.5 CA 75.2 C 71.68 O 65.98 CB 80.89 CG 84.39 OD1 85.82 ND2 82.66
B SER H 80 -65.3 -55.8 N 76.51 CA 74.96 C 70.28 O 70.76 CB 82.54 OG 100.41
B GLU H 71 -64.0 -47.6 N 65.21 CA 66.95 C 64.44 O 74.63 CB 75.79 CG 90.5 CD 104.53 OE1 109.85 OE2 107.38
B LEU H 0 -63.5 -43.8 N 57.1 CA 58.2 C 61.44 O 62.79 CB 56.44 CG 62.8 CD1 59.89 CD2 67.73
B GLY H 8 -59.3 -45.3 N 56.03 CA 52.13 C 60.25 O 65.78
B ALA H 38 -59.3 -53.9 N 64.83 CA 74.76 C 76.76 O 72.0 CB 76.06
B LEU H 27 -51.3 -46.2 N 81.7 CA 76.44 C 70.9 O 63.82 CB 66.25 CG 71.08 CD1 74.19 CD2 77.91
B ILE H 1 -61.8 -37.8 N 67.26 CA 71.46 C 72.33 O 64.81 CB 61.61 CG1 51.16 CG2 51.62 CD1 51.65
B LEU H 69 -65.4 -36.6 N 70.16 CA 69.54 C 66.7 O 63.07 CB 72.64 CG 71.78 CD1 78.18 CD2 73.1
B LYS H 141 -77.0 -27.9 N 67.22 CA 64.88 C 70.96 O 77.32 CB 65.49 CG 71.66 CD 82.85 CE 89.54 NZ 84.2
B ASN H 74 -93.7 -23.8 N 69.5 CA 71.3 C 79.41 O 85.52 CB 67.4 CG 70.68 OD1 71.73 ND2 76.99
B PHE - 30 -123.5 92.8 N 78.18 CA 77.44 C 84.9 O 86.45 CB 73.83 CG 70.89 CD1 70.3 CD2 69.05 CE1 71.25 CE2 67.98 CZ 68.22
B LYS T 173 -62.0 -28.8 N 92.17 CA 100.4 C 111.67 O 121.52 CB 105.88 CG 111.53 CD 114.66 CE 113.36 NZ 106.96
B GLU T 95 -71.5 -17.8 N 112.75 CA 112.47 C 97.27 O 96.4 CB 118.06 CG 119.79 CD 130.46 OE1 138.61 OE2 130.49
B LEU - 4 -88.5 142.2 N 83.69 CA 79.63 C 84.61 O 89.29 CB 80.34 CG 84.41 CD1 84.78 CD2 82.33
B SER E 59 -130.5 150.3 N 84.18 CA 85.2 C 85.6 O 89.28 CB 88.86 OG 95.2
B VAL E 78 -81.3 116.3 N 84.08 CA 91.84 C 97.09 O 104.76 CB 91.41 CG1 90.21 CG2 83.95
B ASP - 55 -119.3 89.1 N 95.83 CA 100.33 C 98.71 O 96.5 CB 101.58 CG 104.88 OD1 102.39 OD2 107.35
B VAL S 87 -69.7 -15.7 N 95.65 CA 89.42 C 92.33 O 92.08 CB 82.89 CG1 82.57 CG2 83.78
B ARG S 228 -98.3 -43.4 N 95.02 CA 102.71 C 101.66 O 99.4 CB 111.83 CG 118.23 CD 123.96 NE 129.07 CZ 131.09 NH1 130.74 NH2 132.46
B ASN S 127 -141.3 68.7 N 100.88 CA 103.26 C 99.25 O 99.83 CB 107.74 CG 113.09 OD1 121.59 ND2 109.03
B PRO - 27 -75.1 145.5 N 91.25 CA 87.71 C 88.79 O 94.11 CB 83.95 CG 85.86 CD 88.68
B ASP S 67 -59.4 -40.5 N 89.8 CA 89.71 C 78.98 O 76.75 CB 95.85 CG 102.41 OD1 105.86 OD2 104.79
B PHE E 0 -146.3 158.1 N 74.07 CA 71.27 C 68.01 O 60.76 CB 75.59 CG 72.07 CD1 66.9 CD2 63.08 CE1 63.75 CE2 60.02 CZ 61.98
B VAL E 37 -115.7 127.3 N 71.85 CA 71.43 C 69.98 O 70.91 CB 62.63 CG1 53.53 CG2 48.77
B LEU E 0 -80.5 109.6 N 65.53 CA 58.49 C 60.76 O 68.03 CB 54.24 CG 47.9 CD1 44.36 CD2 49.33
B GLY E 5 -90.8 136.4 N 52.73 CA 58.64 C 62.94 O 70.4
B VAL E 2 -136.4 115.5 N 56.24 CA 62.1 C 66.92 O 68.16 CB 62.67 CG1 65.71 CG2 61.82
B GLU E 13 -112.5 115.6 N 61.31 CA 66.48 C 75.75 O 73.37 CB 66.81 CG 77.57 CD 81.54 OE1 76.34 OE2 84.92
B VAL E 1 -90.7 134.0 N 74.33 CA 71.13 C 71.11 O 63.64 CB 74.06 CG1 73.38 CG2 74.67
B ARG E 32 -160.3 163.9 N 76.98 CA 84.79 C 94.26 O 98.24 CB 85.54 CG 85.1 CD 89.33 NE 97.72 CZ 109.52 NH1 112.11 NH2 113.93
B PRO T 74 -41.1 -40.2 N 101.85 CA 107.2 C 109.77 O 112.17 CB 110.56 CG 109.83 CD 104.75
B GLU T 95 -102.1 17.3 N 107.2 CA 105.4 C 98.35 O 103.85 CB 114.66 CG 126.48 CD 134.13 OE1 132.75 OE2 140.54
B GLY E 0 136.0 -170.6 N 84.23 CA 72.48 C 65.93 O 68.72
B VAL E 1 -120.1 136.6 N 61.39 CA 62.62 C 66.99 O 68.19 CB 57.02 CG1 48.48 CG2 59.42
B LEU E 1 -110.1 121.8 N 62.29 CA 65.09 C 65.97 O 76.37 CB 71.46 CG 70.54 CD1 67.74 CD2 74.15
B ILE E 0 -119.6 126.8 N 60.85 CA 58.66 C 54.19 O 53.6 CB 51.99 CG1 49.91 CG2 47.99 CD1 44.5
B PHE E 6 -146.4 172.7 N 44.23 CA 46.22 C 50.64 O 48.6 CB 41.66 CG 52.5 CD1 54.87 CD2 56.95 CE1 54.39 CE2 57.98 CZ 52.97
B THR E 12 -120.6 88.8 N 60.7 CA 69.38 C 77.07 O 83.43 CB 66.34 OG1 72.3 CG2 66.42
B ASP - 47 56.4 178.0 N 76.16 CA 92.33 C 88.17 O 92.07 CB 106.14 CG 110.09 OD1 106.69 OD2 114.59
B ARG - 120 -116.3 121.0 N 76.98 CA 65.07 C 65.22 O 70.37 CB 60.58 CG 66.81 CD 72.87 NE 83.88 CZ 93.44 NH1 82.37 NH2 101.23
B VAL E 41 -79.5 110.1 N 62.52 CA 52.66 C 56.09 O 64.51 CB 48.23 CG1 46.05 CG2 51.31
B GLU E 165 -69.2 136.0 N 62.07 CA 62.57 C 59.36 O 66.08 CB 70.78 CG 82.45 CD 94.41 OE1 92.97 OE2 102.47
B CYS - 11 -121.3 -180.0 N 62.91 CA 70.31 C 72.49 O 76.64 CB 75.46 SG 96.85
B TYR - 43 -74.6 138.6 N 69.44 CA 59.99 C 63.92 O 80.27 CB 52.75 CG 57.96 CD1 58.1 CD2 62.83 CE1 64.54 CE2 67.92 CZ 63.61 OH 53.78
B GLY - 3 -77.2 -120.1 N 49.81 CA 51.01 C 49.92 O 51.36
B GLY - 6 96.1 -175.4 N 45.67 CA 43.78 C 44.73 O 43.54
B LEU B 3 -110.7 155.0 N 45.54 CA 46.05 C 47.66 O 48.79 CB 36.57 CG 36.06 CD1 35.32 CD2 43.7
B PRO - 0 -63.1 133.6 N 45.7 CA 44.56 C 45.67 O 42.15 CB 48.79 CG 45.16 CD 44.17
B VAL T 3 -63.5 127.1 N 49.69 CA 52.42 C 60.07 O 57.23 CB 43.18 CG1 41.58 CG2 45.97
B GLY T 21 114.6 -21.2 N 52.02 CA 42.43 C 50.09 O 77.6
B THR S 10 -80.3 -17.2 N 36.92 CA 42.16 C 52.56 O 63.38 CB 38.64 OG1 43.01 CG2 35.32
B GLY S 2 -104.2 -9.6 N 44.74 CA 56.19 C 67.89 O 79.42
B GLY - 24 111.9 178.7 N 53.41 CA 40.06 C 45.94 O 53.14
B LYS E 54 -122.8 139.5 N 46.8 CA 44.77 C 43.44 O 35.82 CB 42.1 CG 53.73 CD 57.93 CE 57.92 NZ 66.06
B ALA E 0 -133.2 163.7 N 43.78 CA 46.7 C 47.33 O 48.58 CB 41.48
B VAL E 0 -100.0 125.7 N 38.23 CA 38.05 C 40.08 O 46.33 CB 43.73 CG1 37.61 CG2 40.97
B LEU E 0 -96.7 125.2 N 42.6 CA 35.81 C 35.86 O 38.55 CB 41.59 CG 40.45 CD1 30.8 CD2 40.37
B LEU E 11 -77.4 101.7 N 31.82 CA 38.74 C 39.47 O 50.85 CB 41.55 CG 64.0 CD1 81.69 CD2 72.57
B LEU - 2 -96.1 115.6 N 36.63 CA 49.7 C 62.85 O 61.0 CB 46.69 CG 38.06 CD1 29.0 CD2 40.83
B SER - 71 -96.4 -18.9 N 68.23 CA 67.61 C 63.14 O 78.0 CB 76.07 OG 76.49
B GLY S 1 78.8 16.1 N 56.22 CA 63.08 C 67.4 O 63.72
B GLY S 3 -96.2 -150.9 N 70.72 CA 60.64 C 59.81 O 64.56
B ILE S 2 -89.4 -40.8 N 59.69 CA 53.22 C 54.15 O 53.16 CB 47.89 CG1 49.78 CG2 48.94 CD1 49.98
B ASP H 0 -76.8 -53.2 N 50.34 CA 48.53 C 44.87 O 51.26 CB 59.37 CG 68.23 OD1 72.93 OD2 59.24
B SER H 4 -50.6 -42.9 N 49.65 CA 49.61 C 53.19 O 51.76 CB 40.16 OG 60.64
B PRO H 0 -61.6 -36.3 N 46.84 CA 42.82 C 50.43 O 56.32 CB 34.13 CG 41.56 CD 37.63
B VAL H 0 -71.0 -35.9 N 42.06 CA 35.68 C 33.21 O 39.33 CB 36.06 CG1 20.72 CG2 35.12
B ALA H 0 -61.1 -40.5 N 26.27 CA 26.95 C 34.62 O 39.51 CB 29.92
B GLY H 0 -68.4 -36.2 N 33.61 CA 44.04 C 50.86 O 57.99
B TRP H 0 -60.7 -39.5 N 40.9 CA 37.42 C 44.21 O 48.98 CB 34.53 CG 37.35 CD1 40.61 CD2 44.67 NE1 36.94 CE2 45.91 CE3 46.79 CZ2 49.85 CZ3 47.16 CH2 44.39
B TYR H 15 -74.3 -31.6 N 35.23 CA 36.84 C 36.45 O 41.31 CB 33.58 CG 46.26 CD1 57.39 CD2 47.02 CE1 54.24 CE2 52.84 CZ 51.02 OH 52.16
B ALA H 0 -60.4 -52.5 N 35.99 CA 38.04 C 40.21 O 29.21 CB 37.18
B LEU H 0 -58.3 -34.0 N 39.6 CA 38.67 C 40.11 O 52.01 CB 46.91 CG 42.02 CD1 42.06 CD2 30.37
B LYS H 1 -65.6 -33.8 N 36.26 CA 44.76 C 51.71 O 56.3 CB 36.45 CG 42.39 CD 38.31 CE 29.81 NZ 43.41
B ARG B 0 -98.3 25.4 N 44.66 CA 32.8 C 42.29 O 39.72 CB 33.11 CG 37.2 CD 42.58 NE 49.32 CZ 48.17 NH1 34.96 NH2 47.09
B GLY T 0 88.3 3.4 N 50.64 CA 46.51 C 46.06 O 42.48
B VAL - 0 -90.9 127.8 N 46.73 CA 41.65 C 43.47 O 42.7 CB 41.59 CG1 40.55 CG2 33.53
B LEU E 34 -85.9 134.7 N 43.97 CA 46.61 C 50.24 O 46.12 CB 47.51 CG 49.45 CD1 41.87 CD2 46.12
B ILE E 3 -105.1 136.7 N 49.89 CA 46.81 C 44.75 O 44.05 CB 49.29 CG1 45.19 CG2 41.5 CD1 27.29
B GLU E 6 -112.0 107.0 N 46.03 CA 46.49 C 46.94 O 47.15 CB 52.18 CG 61.06 CD 77.73 OE1 80.22 OE2 86.75
B SER E 0 -89.3 131.5 N 49.96 CA 46.98 C 46.74 O 50.05 CB 48.88 OG 55.95
B VAL E 0 -116.7 129.6 N 43.84 CA 46.36 C 44.78 O 42.26 CB 46.82 CG1 41.89 CG2 45.38
B THR E 4 -122.4 152.2 N 47.16 CA 46.05 C 51.83 O 51.27 CB 47.99 OG1 66.58 CG2 47.59
B PHE E 31 -117.5 131.0 N 49.92 CA 45.73 C 47.22 O 59.29 CB 30.18 CG 38.62 CD1 45.43 CD2 40.21 CE1 38.38 CE2 42.71 CZ 38.23
B VAL E 15 -126.0 152.2 N 45.64 CA 62.3 C 63.47 O 61.84 CB 62.47 CG1 59.09 CG2 48.26
B SER - 4 -135.5 77.3 N 57.25 CA 58.02 C 60.19 O 68.17 CB 56.84 OG 66.46
B PRO T 57 -77.9 148.3 N 58.27 CA 62.31 C 65.23 O 64.27 CB 62.59 CG 61.05 CD 55.45
B PRO T 123 -87.6 19.8 N 67.35 CA 67.75 C 71.93 O 79.26 CB 67.81 CG 69.41 CD 55.06
B PHE T 45 -78.6 -69.3 N 68.76 CA 76.25 C 88.99 O 107.42 CB 67.71 CG 67.47 CD1 71.35 CD2 61.99 CE1 72.58 CE2 66.49 CZ 71.17
B THR S 19 -53.9 141.0 N 80.43 CA 81.71 C 95.49 O 99.06 CB 74.29 OG1 66.98 CG2 73.51
B SER - 24 -51.0 155.7 N 103.63 CA 106.88 C 107.36 O 112.87 CB 108.57 OG 111.01
B GLU T 179 -81.2 144.5 N 106.44 CA 117.73 C 117.1 O 118.61 CB 133.32 CG 145.26 CD 148.51 OE1 148.36 OE2 147.91
B GLY T 26 78.6 6.5 N 115.39 CA 112.46 C 103.5 O 102.69
B ALA H 12 -67.4 -35.5 N 90.71 CA 74.91 C 70.42 O 69.19 CB 64.25
B VAL H 24 -69.9 -34.9 N 67.85 CA 65.55 C 63.24 O 67.02 CB 71.16 CG1 61.69 CG2 87.58
B GLU H 75 -76.1 -28.0 N 44.69 CA 49.5 C 55.7 O 61.42 CB 58.39 CG 67.14 CD 72.42 OE1 79.68 OE2 71.51
B LYS H 80 -64.2 -51.3 N 59.67 CA 66.33 C 66.67 O 69.58 CB 74.2 CG 87.96 CD 99.92 CE 104.9 NZ 109.79
B VAL H 3 -56.4 -44.5 N 60.23 CA 57.21 C 59.99 O 59.29 CB 53.32 CG1 37.34 CG2 50.68
B ARG H 49 -55.3 -43.9 N 61.61 CA 62.75 C 67.4 O 62.43 CB 58.23 CG 62.61 CD 68.83 NE 72.64 CZ 76.25 NH1 82.32 NH2 79.36
B ASP H 57 -62.5 -48.4 N 70.11 CA 70.83 C 66.94 O 66.02 CB 71.25 CG 83.43 OD1 91.16 OD2 88.41
B ILE H 0 -62.8 -35.3 N 58.38 CA 58.02 C 60.69 O 65.96 CB 55.89 CG1 66.53 CG2 54.53 CD1 74.12
B LEU H 0 -70.0 -26.7 N 55.61 CA 53.93 C 51.07 O 53.71 CB 52.01 CG 52.12 CD1 44.87 CD2 54.95
B ARG H 103 -74.7 -26.0 N 45.87 CA 47.05 C 52.3 O 61.12 CB 49.04 CG 51.27 CD 61.41 NE 66.31 CZ 69.02 NH1 67.0 NH2 74.7
B VAL H 19 -74.4 -45.1 N 49.59 CA 55.34 C 53.01 O 53.01 CB 56.41 CG1 50.81 CG2 50.39
B LEU H 0 -61.5 -31.8 N 49.58 CA 47.0 C 53.22 O 50.31 CB 50.14 CG 42.58 CD1 32.24 CD2 42.9
B ARG G 54 -54.6 -30.3 N 56.29 CA 51.52 C 51.56 O 54.06 CB 47.1 CG 54.86 CD 59.55 NE 71.42 CZ 69.87 NH1 79.43 NH2 57.81
B GLU G 98 -72.1 -11.1 N 55.22 CA 52.34 C 51.39 O 58.67 CB 54.66 CG 56.48 CD 75.8 OE1 73.23 OE2 86.39
B PHE G 2 -113.1 2.9 N 45.42 CA 48.81 C 50.24 O 50.33 CB 43.4 CG 48.8 CD1 52.21 CD2 52.91 CE1 54.28 CE2 52.05 CZ 53.16
B SER S 0 -82.3 9.4 N 48.74 CA 41.51 C 45.22 O 58.86 CB 46.84 OG 63.29
B GLY T 3 62.1 22.8 N 44.03 CA 51.83 C 58.84 O 62.51
B GLY T 10 99.3 -7.0 N 60.73 CA 61.39 C 65.95 O 80.19
B HIS - 23 -82.8 138.9 N 58.23 CA 56.23 C 62.06 O 70.24 CB 57.5 CG 68.4 ND1 61.93 CD2 77.25 CE1 63.65 NE2 76.38
B PRO - 63 -73.4 157.4 N 62.65 CA 59.16 C 56.45 O 52.67 CB 54.64 CG 57.91 CD 62.24
B LEU E 0 -116.4 121.4 N 59.23 CA 52.17 C 50.18 O 50.03 CB 50.45 CG 47.24 CD1 47.99 CD2 40.05
B ARG E 89 -85.3 154.7 N 47.59 CA 50.69 C 53.32 O 48.58 CB 51.02 CG 59.72 CD 68.99 NE 74.54 CZ 82.7 NH1 80.13 NH2 86.48
B LEU E 0 -138.3 132.5 N 53.34 CA 46.83 C 49.4 O 50.37 CB 46.76 CG 47.78 CD1 46.7 CD2 57.85
B HIS E 0 -112.3 119.8 N 42.42 CA 42.11 C 46.77 O 49.47 CB 47.6 CG 51.74 ND1 54.0 CD2 48.52 CE1 56.86 NE2 55.3
B ILE E 19 -103.1 111.2 N 49.05 CA 48.47 C 50.31 O 53.11 CB 53.75 CG1 47.59 CG2 51.43 CD1 44.49
B VAL E 0 -109.5 127.9 N 40.96 CA 45.87 C 52.51 O 53.09 CB 44.48 CG1 46.03 CG2 35.75
B ASN E 83 -92.3 117.4 N 53.68 CA 53.78 C 58.48 O 59.72 CB 57.51 CG 75.11 OD1 76.5 ND2 97.54
B LEU - 2 -119.0 7.7 N 58.74 CA 58.59 C 53.05 O 46.23 CB 64.04 CG 65.81 CD1 57.18 CD2 68.49
B THR H 20 -46.6 -50.0 N 57.96 CA 57.47 C 57.04 O 59.27 CB 63.56 OG1 56.62 CG2 60.81
B LYS H 140 -67.7 -49.6 N 55.72 CA 60.85 C 59.72 O 62.37 CB 57.22 CG 50.2 CD 94.21 CE 100.75 NZ 100.97
B LEU H 4 -60.6 -41.0 N 59.25 CA 59.2 C 59.24 O 65.89 CB 50.71 CG 51.57 CD1 55.02 CD2 34.32
B GLN H 20 -66.2 -36.4 N 52.27 CA 59.76 C 62.98 O 54.75 CB 66.11 CG 70.14 CD 73.56 OE1 85.15 NE2 68.38
B LEU H 59 -71.4 -38.0 N 64.39 CA 57.72 C 62.43 O 65.46 CB 57.45 CG 60.03 CD1 62.21 CD2 58.17
B GLU H 22 -64.3 -49.7 N 61.5 CA 66.98 C 69.98 O 72.43 CB 55.95 CG 79.28 CD 97.94 OE1 102.74 OE2 102.6
B VAL H 0 -59.2 -46.7 N 59.7 CA 54.99 C 58.98 O 67.8 CB 59.45 CG1 58.45 CG2 55.47
B LYS H 50 -59.2 -42.7 N 52.81 CA 55.83 C 64.77 O 74.04 CB 59.8 CG 61.38 CD 58.58 CE 56.64 NZ 71.6
B LYS H 141 -62.0 -35.6 N 67.88 CA 70.38 C 75.93 O 85.65 CB 75.34 CG 85.8 CD 95.78 CE 97.48 NZ 104.19
B ARG H 87 -112.2 5.2 N 75.16 CA 70.91 C 68.0 O 70.74 CB 71.28 CG 81.97 CD 91.01 NE 94.88 CZ 95.07 NH1 94.29 NH2 96.18
B VAL S 7 -125.6 137.7 N 67.67 CA 63.4 C 59.69 O 67.31 CB 60.84 CG1 62.92 CG2 56.35
B PRO - 59 -49.7 133.1 N 56.6 CA 63.0 C 60.69 O 67.77 CB 46.2 CG 65.78 CD 63.37
B ASP H 82 -60.7 -30.3 N 53.61 CA 63.97 C 63.22 O 62.74 CB 87.12 CG 111.73 OD1 120.55 OD2 112.85
B LYS H 99 -65.4 -22.8 N 61.21 CA 52.79 C 63.31 O 77.02 CB 50.77 CG 62.33 CD 80.7 CE 96.3 NZ 107.86
B TYR H 44 -105.4 -4.1 N 59.44 CA 60.65 C 57.72 O 53.51 CB 61.79 CG 63.83 CD1 61.72 CD2 66.66 CE1 59.66 CE2 67.38 CZ 67.45 OH 73.69
B SER H 0 -53.4 -50.6 N 53.8 CA 54.3 C 54.33 O 48.79 CB 51.65 OG 59.78
B LEU H 48 -58.6 -44.9 N 50.8 CA 48.36 C 45.92 O 46.72 CB 48.46 CG 51.55 CD1 63.05 CD2 46.56
B ILE H 3 -63.6 -34.9 N 47.46 CA 49.54 C 47.8 O 46.43 CB 52.22 CG1 49.25 CG2 50.01 CD1 49.07
B MET H 0 -68.9 -44.8 N 46.46 CA 48.17 C 44.29 O 51.21 CB 44.78 CG 47.41 SD 86.37 CE 55.53
B TYR H 3 -51.6 -49.8 N 35.96 CA 32.86 C 36.69 O 30.77 CB 29.55 CG 53.1 CD1 49.8 CD2 53.77 CE1 55.47 CE2 60.85 CZ 65.09 OH 60.29
B ARG H 36 -71.8 -30.8 N 38.08 CA 49.48 C 47.99 O 39.88 CB 50.9 CG 54.66 CD 56.72 NE 64.58 CZ 72.42 NH1 78.47 NH2 62.92
B ARG H 4 -61.1 -42.9 N 43.33 CA 36.89 C 39.85 O 42.59 CB 39.38 CG 41.38 CD 40.25 NE 51.68 CZ 60.29 NH1 62.79 NH2 64.74
B SER H 0 -64.0 -45.4 N 39.37 CA 46.32 C 44.62 O 39.84 CB 48.3 OG 62.96
B MET H 30 -53.0 -46.4 N 43.63 CA 46.1 C 47.84 O 50.13 CB 44.32 CG 45.36 SD 56.19 CE 42.53
B PHE H 1 -66.2 -38.5 N 37.05 CA 31.15 C 39.55 O 42.54 CB 34.75 CG 47.21 CD1 54.55 CD2 62.98 CE1 54.67 CE2 72.85 CZ 65.14
B ARG H 49 -66.3 -38.7 N 39.41 CA 45.59 C 43.59 O 47.0 CB 26.91 CG 64.59 CD 28.99 NE 56.74 CZ 49.46 NH1 35.11 NH2 56.88
B ILE H 0 -67.0 -40.1 N 44.27 CA 49.43 C 53.36 O 61.55 CB 45.98 CG1 48.99 CG2 35.9 CD1 43.06
B ALA H 0 -63.9 -32.3 N 49.84 CA 46.83 C 48.79 O 44.29 CB 27.86
B GLU H 17 -74.1 -31.4 N 43.07 CA 45.54 C 51.45 O 44.57 CB 35.18 CG 48.8 CD 61.32 OE1 67.8 OE2 58.55
B LYS H 45 -59.1 -45.3 N 50.3 CA 47.98 C 51.08 O 62.42 CB 47.18 CG 42.79 CD 40.13 CE 46.17 NZ 45.56
B ILE H 0 -63.0 -37.3 N 45.98 CA 52.8 C 56.98 O 57.1 CB 48.82 CG1 52.1 CG2 43.36 CD1 48.98
B ALA H 0 -61.9 -44.9 N 56.31 CA 49.6 C 51.62 O 48.24 CB 36.76
B GLU H 129 -60.8 -43.0 N 42.83 CA 38.19 C 51.53 O 62.41 CB 32.22 CG 55.49 CD 80.1 OE1 97.91 OE2 80.03
B GLU H 125 -71.5 -27.5 N 48.7 CA 46.98 C 43.1 O 57.26 CB 48.1 CG 54.14 CD 66.04 OE1 83.08 OE2 57.2
B THR H 20 -109.4 -15.4 N 39.76 CA 41.65 C 48.45 O 51.84 CB 45.66 OG1 48.15 CG2 41.59
B GLY T 51 92.2 26.0 N 48.92 CA 49.68 C 58.57 O 71.97
B ALA - 0 -88.4 153.3 N 51.75 CA 44.93 C 46.7 O 48.05 CB 33.96
B VAL - 13 -122.6 7.4 N 39.63 CA 43.82 C 45.42 O 44.43 CB 41.5 CG1 23.69 CG2 39.59
B ALA E 0 -162.4 176.7 N 40.2 CA 43.13 C 36.83 O 38.85 CB 38.15
B PHE E 0 -125.8 151.3 N 32.29 CA 30.44 C 32.0 O 34.04 CB 23.99 CG 35.51 CD1 45.91 CD2 40.64 CE1 44.68 CE2 39.98 CZ 38.68
B TYR E 0 -117.4 139.7 N 32.09 CA 35.55 C 33.77 O 34.84 CB 24.19 CG 33.86 CD1 37.72 CD2 44.21 CE1 45.4 CE2 48.97 CZ 50.53 OH 44.11
B THR - 1 -132.3 164.5 N 30.8 CA 38.33 C 38.66 O 42.8 CB 39.62 OG1 36.93 CG2 40.05
B GLY - 8 -100.6 27.4 N 44.18 CA 43.57 C 46.12 O 49.7
B GLU - 1 -71.5 128.0 N 42.45 CA 42.38 C 41.47 O 51.08 CB 38.26 CG 45.46 CD 47.09 OE1 39.82 OE2 47.41
B ASN - 0 -121.5 132.0 N 36.92 CA 41.98 C 44.26 O 33.35 CB 39.94 CG 44.78 OD1 57.99 ND2 36.43
B ILE T 1 -60.7 121.1 N 41.86 CA 40.63 C 43.76 O 38.71 CB 35.38 CG1 40.57 CG2 53.4 CD1 50.02
B GLY T 15 90.4 1.8 N 35.43 CA 48.14 C 48.69 O 48.5
B GLN S 14 -67.3 -46.7 N 40.9 CA 46.01 C 45.88 O 41.2 CB 54.11 CG 65.75 CD 65.93 OE1 72.92 NE2 58.59
B VAL S 39 -131.7 -175.4 N 47.58 CA 48.86 C 53.15 O 55.7 CB 42.33 CG1 36.13 CG2 35.46
B ALA G 9 -71.2 -30.8 N 54.09 CA 51.73 C 51.93 O 50.83 CB 49.47
B SER G 14 -86.3 11.3 N 50.96 CA 50.8 C 56.91 O 57.77 CB 56.73 OG 70.98
B GLN G 12 -130.2 20.4 N 52.98 CA 45.6 C 48.27 O 43.62 CB 42.56 CG 54.9 CD 52.4 OE1 45.84 NE2 56.25
B THR S 24 -76.3 157.0 N 39.96 CA 42.99 C 45.41 O 48.75 CB 47.52 OG1 47.44 CG2 51.35
B LEU H 0 -58.2 -38.7 N 40.23 CA 36.07 C 45.47 O 57.22 CB 34.71 CG 44.45 CD1 23.55 CD2 21.04
B GLU H 20 -67.7 -41.2 N 42.65 CA 49.13 C 47.4 O 44.29 CB 63.2 CG 83.54 CD 93.66 OE1 79.23 OE2 104.51
B ASN H 0 -71.7 -28.6 N 42.74 CA 44.36 C 48.47 O 46.64 CB 35.88 CG 38.03 OD1 47.6 ND2 42.14
B LEU H 0 -69.3 -32.7 N 45.33 CA 36.54 C 37.1 O 45.76 CB 32.29 CG 23.78 CD1 31.7 CD2 22.2
B TRP H 13 -67.3 -50.4 N 33.89 CA 38.64 C 42.03 O 49.75 CB 34.01 CG 42.25 CD1 40.26 CD2 44.89 NE1 46.26 CE2 44.26 CE3 41.1 CZ2 38.59 CZ3 44.66 CH2 34.18
B SER H 0 -60.4 -31.0 N 32.29 CA 36.31 C 39.5 O 44.94 CB 31.27 OG 43.59
B ILE H 1 -83.9 -46.7 N 36.82 CA 36.09 C 42.43 O 49.5 CB 38.4 CG1 47.65 CG2 27.46 CD1 46.35
B GLU H 11 -67.8 -27.4 N 42.12 CA 39.78 C 46.13 O 45.2 CB 37.42 CG 61.67 CD 75.79 OE1 93.53 OE2 61.86
B SER T 37 -59.1 -7.5 N 43.01 CA 43.05 C 43.32 O 53.22 CB 49.76 OG 59.53
B VAL T 28 -91.1 -10.8 N 44.72 CA 42.76 C 38.01 O 44.48 CB 42.6 CG1 36.34 CG2 41.97
B THR - 20 -107.7 154.1 N 35.49 CA 39.71 C 34.28 O 36.04 CB 48.43 OG1 50.74 CG2 50.97
B THR S 67 -95.6 -39.0 N 31.01 CA 43.98 C 39.91 O 42.27 CB 46.47 OG1 50.42 CG2 32.18
B ARG S 30 -64.6 150.7 N 40.28 CA 42.71 C 43.84 O 46.92 CB 30.11 CG 39.44 CD 50.03 NE 50.12 CZ 47.87 NH1 47.48 NH2 47.07
B PRO - 0 -79.9 149.1 N 35.07 CA 37.51 C 36.44 O 41.21 CB 35.59 CG 37.33 CD 27.81
B VAL E 0 -105.9 123.7 N 40.92 CA 36.81 C 35.37 O 38.24 CB 32.95 CG1 27.39 CG2 29.32
B ILE E 0 -99.8 124.2 N 34.67 CA 31.73 C 38.62 O 43.27 CB 35.72 CG1 36.36 CG2 31.5 CD1 23.49
B ARG - 2 -122.5 84.5 N 35.86 CA 37.17 C 30.71 O 28.07 CB 40.51 CG 32.53 CD 41.12 NE 54.6 CZ 52.11 NH1 50.89 NH2 44.59
B PRO T 0 -70.8 -12.9 N 34.7 CA 40.38 C 37.17 O 37.56 CB 42.28 CG 39.53 CD 25.73
B LEU T 0 -105.7 9.3 N 37.5 CA 39.35 C 39.43 O 36.01 CB 32.71 CG 35.03 CD1 35.25 CD2 31.19
B SER T 0 -64.8 -10.8 N 32.26 CA 35.41 C 37.21 O 44.39 CB 36.26 OG 41.68
B GLY T 0 -114.9 13.8 N 31.15 CA 30.95 C 39.19 O 48.67
B PHE - 11 -103.0 149.3 N 38.86 CA 35.09 C 49.24 O 45.98 CB 33.37 CG 54.68 CD1 63.36 CD2 64.53 CE1 69.96 CE2 64.86 CZ 65.45
B ASP - 4 -87.5 159.8 N 48.72 CA 45.75 C 46.39 O 42.81 CB 53.18 CG 50.23 OD1 38.94 OD2 48.3
B LYS H 41 -56.6 -33.3 N 55.29 CA 52.46 C 48.39 O 55.57 CB 43.88 CG 58.2 CD 69.18 CE 72.42 NZ 67.17
B THR H 79 -68.0 -35.0 N 40.32 CA 53.11 C 54.03 O 52.55 CB 54.06 OG1 64.77 CG2 48.93
B GLU H 47 -73.7 -34.2 N 45.26 CA 50.03 C 48.46 O 45.76 CB 46.25 CG 57.25 CD 65.96 OE1 78.93 OE2 62.33
B ILE H 0 -68.9 -41.6 N 41.15 CA 38.35 C 43.37 O 52.19 CB 23.54 CG1 33.56 CG2 27.46 CD1 32.73
B VAL H 20 -65.7 -44.6 N 36.42 CA 36.31 C 45.19 O 49.21 CB 41.98 CG1 33.66 CG2 30.91
B GLU H 127 -54.8 -46.9 N 52.26 CA 59.47 C 57.7 O 59.95 CB 67.95 CG 90.81 CD 107.91 OE1 113.08 OE2 112.02
B LYS H 30 -65.6 -41.8 N 49.84 CA 49.38 C 50.99 O 55.88 CB 46.65 CG 45.87 CD 51.7 CE 58.09 NZ 74.27
B ALA H 0 -58.4 -38.8 N 48.02 CA 47.95 C 51.36 O 45.59 CB 46.62
B LYS H 129 -69.7 -32.2 N 52.69 CA 49.12 C 52.77 O 65.0 CB 45.56 CG 53.43 CD 63.63 CE 68.81 NZ 77.98
B GLU H 102 -70.1 -40.0 N 42.75 CA 45.05 C 40.25 O 54.86 CB 52.82 CG 70.21 CD 87.5 OE1 78.43 OE2 101.7
B ILE H 8 -86.3 -24.6 N 40.17 CA 48.81 C 49.79 O 49.23 CB 41.04 CG1 46.62 CG2 53.65 CD1 48.5
B GLY T 39 105.4 25.6 N 49.76 CA 45.0 C 49.56 O 57.67
B THR - 0 -109.1 -11.9 N 56.58 CA 60.65 C 62.49 O 64.24 CB 53.12 OG1 40.25 CG2 53.94
B TYR T 51 -61.1 -54.6 N 65.38 CA 66.99 C 72.23 O 76.9 CB 64.72 CG 60.9 CD1 60.87 CD2 58.92 CE1 65.42 CE2 62.81 CZ 68.73 OH 67.4
B GLU T 176 -53.5 -32.4 N 73.12 CA 76.37 C 74.39 O 81.44 CB 87.13 CG 101.47 CD 118.29 OE1 122.78 OE2 122.21
B ILE T 37 -82.7 -40.3 N 62.11 CA 60.44 C 64.47 O 59.55 CB 58.58 CG1 64.38 CG2 49.5 CD1 65.45
B SER S 2 -52.1 148.8 N 63.67 CA 54.9 C 68.43 O 72.89 CB 48.06 OG 65.38
B ILE - 27 -71.4 123.8 N 73.16 CA 90.36 C 107.17 O 116.7 CB 91.8 CG1 88.33 CG2 94.15 CD1 82.15
B LYS G 84 -66.2 153.9 N 114.23 CA 124.42 C 134.64 O 137.94 CB 126.96 CG 123.46 CD 106.83 CE 97.18 NZ 91.26
B PRO G 66 -12.1 64.8 N 141.48 CA 147.93 C 155.69 O 158.08 CB 147.42 CG 141.9 CD 141.84
B TYR G 78 45.7 62.8 N 161.01 CA 163.77 C 171.32 O 172.64 CB 157.71 CG 149.67 CD1 144.15 CD2 145.33 CE1 135.97 CE2 139.97 CZ 133.39 OH 125.35
B GLN - 126 -139.1 92.7 N 173.72 CA 169.84 C 174.0 O 177.43 CB 160.54 CG 148.45 CD 140.95 OE1 141.12 NE2 134.61
B ASP - 63 -59.2 145.0 N 173.35 CA 173.31 C 178.22 O 181.0 CB 167.16 CG 159.6 OD1 160.21 OD2 153.73
B SER T 100 -51.0 -24.0 N 178.01 CA 180.86 C 179.75 O 184.23 CB 183.51 OG 187.83
B CYS T 79 -163.2 87.9 N 171.55 CA 165.86 C 153.55 O 153.57 CB 170.07 SG 145.66
B VAL - 47 -126.1 103.9 N 142.85 CA 129.68 C 113.1 O 100.16 CB 128.19 CG1 127.72 CG2 120.47
B PHE T 85 -88.3 -3.0 N 105.49 CA 99.13 C 91.11 O 90.93 CB 98.1 CG 85.25 CD1 77.73 CD2 75.11 CE1 67.87 CE2 67.97 CZ 68.95
B PHE T 6 -70.7 -11.5 N 84.83 CA 80.94 C 79.64 O 80.89 CB 78.97 CG 83.19 CD1 79.77 CD2 83.46 CE1 78.08 CE2 76.88 CZ 75.34
B ALA S 36 -66.9 122.8 N 77.21 CA 67.32 C 77.91 O 86.9 CB 64.5
B PRO - 11 -56.0 -15.7 N 82.45 CA 83.73 C 97.56 O 107.81 CB 75.01 CG 74.4 CD 81.71
B LYS S 158 63.1 -8.7 N 96.14 CA 108.64 C 105.52 O 101.51 CB 116.07 CG 121.38 CD 117.94 CE 112.16 NZ 109.39
B ASN S 126 -162.5 65.5 N 96.62 CA 81.66 C 71.1 O 65.46 CB 96.12 CG 112.53 OD1 122.44 ND2 114.63
B PRO - 49 -65.2 150.4 N 71.62 CA 62.76 C 62.66 O 73.94 CB 62.25 CG 63.13 CD 65.73
B ALA - 7 -76.7 128.8 N 61.16 CA 56.44 C 61.26 O 58.15 CB 56.34
B THR S 71 -93.2 -14.2 N 71.13 CA 64.83 C 59.7 O 58.84 CB 54.46 OG1 53.83 CG2 44.02
B ARG - 166 -129.1 139.8 N 64.04 CA 68.64 C 62.65 O 75.06 CB 75.83 CG 88.44 CD 102.45 NE 112.56 CZ 116.77 NH1 115.55 NH2 117.94
B SER - 8 -160.8 171.0 N 53.33 CA 49.26 C 52.56 O 62.9 CB 47.64 OG 43.6
B HIS - 81 -139.0 142.9 N 57.69 CA 68.24 C 67.17 O 69.68 CB 86.4 CG 106.48 ND1 109.58 CD2 118.82 CE1 109.52 NE2 118.11
B PRO H 4 -47.5 -41.4 N 58.29 CA 51.17 C 55.92 O 49.49 CB 49.18 CG 55.22 CD 54.71
B SER H 44 -51.7 -53.3 N 56.85 CA 54.42 C 61.47 O 67.99 CB 48.62 OG 77.03
B ILE H 67 -50.1 -54.1 N 56.59 CA 64.23 C 63.08 O 62.8 CB 61.0 CG1 57.34 CG2 50.67 CD1 60.33
B LEU H 0 -71.6 -27.8 N 61.6 CA 59.68 C 56.24 O 53.6 CB 49.57 CG 53.19 CD1 47.3 CD2 55.02
B GLU H 93 -59.2 -47.0 N 60.86 CA 54.77 C 57.15 O 66.04 CB 57.91 CG 82.69 CD 97.14 OE1 104.56 OE2 94.33
B LYS H 110 -72.6 -20.9 N 53.56 CA 70.25 C 72.98 O 77.34 CB 84.31 CG 102.14 CD 111.97 CE 117.14 NZ 115.27
B LEU H 15 -73.6 -36.0 N 63.59 CA 52.99 C 53.97 O 55.86 CB 49.75 CG 52.79 CD1 58.98 CD2 54.07
B GLU G 34 -65.3 -14.7 N 64.03 CA 60.49 C 68.73 O 70.13 CB 50.95 CG 63.27 CD 72.23 OE1 67.4 OE2 75.41
B GLN G 158 -77.5 -11.5 N 73.08 CA 81.35 C 78.85 O 83.79 CB 96.34 CG 108.4 CD 116.51 OE1 120.09 NE2 114.38
B GLN G 113 -93.7 -13.6 N 69.75 CA 64.27 C 58.15 O 64.78 CB 71.24 CG 86.75 CD 105.5 OE1 112.87 NE2 113.16
B VAL S 7 -99.1 119.0 N 55.87 CA 66.23 C 79.83 O 75.17 CB 60.55 CG1 49.34 CG2 56.3
B PRO T 52 -81.5 140.3 N 94.35 CA 101.26 C 102.6 O 107.26 CB 106.08 CG 100.18 CD 95.39
B ASP T 106 67.5 18.9 N 98.14 CA 97.96 C 85.01 O 75.86 CB 108.06 CG 115.82 OD1 116.34 OD2 118.97
B LEU H 5 -54.8 -48.5 N 81.2 CA 69.16 C 61.66 O 53.79 CB 64.56 CG 60.13 CD1 52.03 CD2 61.48
B PRO H 88 -60.2 -34.8 N 57.64 CA 52.56 C 55.77 O 63.95 CB 54.22 CG 56.42 CD 54.96
B VAL H 87 -69.7 -40.7 N 49.21 CA 53.3 C 58.17 O 60.93 CB 48.66 CG1 50.58 CG2 70.39
B LEU H 30 -60.4 -45.8 N 56.51 CA 53.97 C 55.36 O 57.5 CB 54.04 CG 61.04 CD1 52.97 CD2 46.67
B GLU H 8 -61.1 -50.1 N 50.14 CA 49.14 C 48.93 O 53.43 CB 49.93 CG 58.91 CD 73.48 OE1 68.73 OE2 87.01
B GLU H 82 -61.7 -33.0 N 49.93 CA 56.73 C 57.6 O 53.78 CB 55.14 CG 61.75 CD 77.56 OE1 84.99 OE2 80.39
B GLU H 114 -68.5 -54.5 N 56.48 CA 59.92 C 57.14 O 53.43 CB 70.64 CG 95.27 CD 116.93 OE1 124.13 OE2 121.71
B ALA H 7 -52.3 -36.5 N 53.33 CA 53.45 C 57.9 O 59.7 CB 35.74
B PHE H 16 -69.2 -50.8 N 55.05 CA 56.93 C 55.67 O 60.21 CB 57.83 CG 52.94 CD1 48.27 CD2 49.76 CE1 52.39 CE2 44.0 CZ 45.85
B THR H 70 -68.4 -37.0 N 46.68 CA 52.13 C 63.24 O 69.19 CB 54.24 OG1 69.64 CG2 52.93
B SER T 68 -82.9 6.2 N 70.24 CA 68.94 C 62.12 O 58.76 CB 72.23 OG 88.08
B ARG - 46 -69.5 160.9 N 54.22 CA 53.39 C 55.7 O 53.12 CB 43.29 CG 49.89 CD 50.14 NE 56.1 CZ 56.77 NH1 60.1 NH2 53.93
B LYS E 115 -107.1 139.4 N 57.08 CA 61.95 C 63.65 O 72.78 CB 64.6 CG 73.89 CD 87.73 CE 89.32 NZ 82.57
B VAL E 55 -121.3 123.8 N 59.45 CA 56.86 C 59.77 O 63.76 CB 49.57 CG1 41.52 CG2 34.66
B GLU E 34 -119.6 168.6 N 56.57 CA 52.36 C 53.5 O 52.72 CB 55.51 CG 64.03 CD 75.3 OE1 79.38 OE2 80.91
B VAL E 66 -138.0 116.6 N 55.14 CA 52.74 C 58.42 O 72.53 CB 55.28 CG1 52.95 CG2 52.52
B ILE E 15 -79.8 104.7 N 57.17 CA 58.48 C 62.93 O 62.06 CB 56.34 CG1 57.65 CG2 57.97 CD1 52.09
B GLU - 185 -83.1 360.0 N 79.34 CA 93.97 C 99.43 O 100.39 CB 103.1 CG 118.95 CD 138.71 OE1 147.88 OE2 144.28 OXT 101.09
