A GLU - 191 360.0 142.8 N 52.05 CA 47.18 C 21.9 O 24.55 CB 55.43 CG 72.34 CD 43.45 OE1 49.76 OE2 31.58
A SER - 94 -63.7 143.3 N 16.18 CA 22.16 C 13.84 O 27.73 CB 17.38 OG 34.04
A TYR - 77 -55.8 134.9 N 11.13 CA 9.06 C 8.51 O 9.73 CB 10.1 CG 8.21 CD1 9.57 CD2 9.78 CE1 9.2 CE2 9.27 CZ 8.99 OH 10.44
A HIS - 113 -95.1 105.7 N 8.05 CA 7.93 C 8.11 O 10.61 CB 9.76 CG 10.29 ND1 14.59 CD2 10.66 CE1 14.59 NE2 12.27
A LYS - 153 -75.3 115.2 N 7.32 CA 7.31 C 7.06 O 8.77 CB 7.25 CG 8.65 CD 8.93 CE 13.82 NZ 14.96
A PRO - 12 -70.5 147.3 N 7.13 CA 8.23 C 7.47 O 8.34 CB 8.94 CG 10.48 CD 7.38
A ASP - 96 -83.5 170.1 N 8.58 CA 8.89 C 8.11 O 7.81 CB 9.88 CG 11.32 OD1 16.23 OD2 18.58
A GLN H 117 -61.1 -32.4 N 13.37 CA 14.11 C 12.16 O 10.76 CB 17.21 CG 38.39 CD 64.33 OE1 46.86 NE2 48.53
A GLN H 160 -68.8 -38.6 N 10.72 CA 9.84 C 7.78 O 7.85 CB 12.71 CG 16.88 CD 15.7 OE1 21.99 NE2 14.15
A LYS H 56 -63.7 -43.5 N 7.09 CA 6.51 C 6.04 O 6.53 CB 7.85 CG 8.36 CD 9.11 CE 10.29 NZ 12.17
A LEU H 2 -59.1 -44.7 N 6.72 CA 6.5 C 6.28 O 6.61 CB 7.68 CG 8.33 CD1 12.85 CD2 9.11
A GLN H 36 -62.7 -37.3 N 6.91 CA 7.05 C 6.38 O 6.91 CB 8.32 CG 10.1 CD 13.31 OE1 16.46 NE2 14.93
A ALA H 21 -64.9 -37.2 N 6.46 CA 6.67 C 6.22 O 6.38 CB 7.78
A LEU H 0 -67.5 -36.1 N 5.83 CA 5.65 C 5.73 O 5.91 CB 6.06 CG 5.72 CD1 6.36 CD2 6.96
A LYS H 80 -63.8 -46.6 N 5.86 CA 6.16 C 6.38 O 6.39 CB 7.39 CG 11.12 CD 18.44 CE 28.08 NZ 68.29
A ASP H 3 -56.7 -43.3 N 6.64 CA 6.69 C 6.33 O 6.86 CB 7.63 CG 10.83 OD1 12.22 OD2 13.33
A THR H 0 -60.1 -50.8 N 5.8 CA 5.37 C 5.22 O 5.8 CB 6.32 OG1 7.87 CG2 6.89
A ALA H 0 -55.0 -43.3 N 5.15 CA 5.38 C 4.9 O 5.25 CB 5.93
A ASN H 16 -68.3 -38.1 N 5.45 CA 5.64 C 4.94 O 5.52 CB 6.0 CG 6.72 OD1 10.98 ND2 5.29
A ARG H 35 -59.0 -39.7 N 5.22 CA 5.68 C 5.41 O 5.82 CB 6.43 CG 7.96 CD 8.24 NE 8.31 CZ 8.35 NH1 10.62 NH2 9.37
A LEU H 2 -66.1 -39.2 N 5.08 CA 4.98 C 5.18 O 5.65 CB 5.67 CG 5.8 CD1 6.7 CD2 7.01
A ARG H 3 -59.3 -50.2 N 4.8 CA 4.94 C 4.8 O 5.41 CB 5.62 CG 5.67 CD 6.38 NE 6.63 CZ 5.67 NH1 6.23 NH2 6.51
A ILE H 15 -58.3 -45.8 N 5.34 CA 5.43 C 5.07 O 5.75 CB 5.73 CG1 6.52 CG2 6.67 CD1 8.73
A SER H 10 -63.0 -42.7 N 5.4 CA 5.33 C 4.71 O 6.82 CB 5.7 OG 5.87
A SER H 0 -60.7 -39.8 N 5.02 CA 4.95 C 4.61 O 5.74 CB 5.66 OG 8.61
A ILE H 0 -66.5 -50.4 N 4.78 CA 5.15 C 5.26 O 5.41 CB 5.45 CG1 5.92 CG2 6.63 CD1 8.18
A GLN H 84 -58.1 -44.7 N 5.62 CA 5.84 C 5.54 O 6.51 CB 7.34 CG 8.35 CD 10.05 OE1 11.91 NE2 15.62
A ALA H 3 -67.6 -43.9 N 4.99 CA 5.41 C 4.57 O 5.4 CB 5.86
A THR H 0 -72.7 -35.0 N 4.24 CA 4.41 C 4.57 O 5.09 CB 4.19 OG1 4.48 CG2 4.84
A THR H 14 -62.8 -42.1 N 5.05 CA 5.91 C 6.59 O 7.54 CB 5.87 OG1 6.34 CG2 6.88
A ALA H 51 -62.5 -43.2 N 5.94 CA 6.72 C 6.94 O 9.17 CB 8.64
A ALA H 37 -68.1 -33.1 N 5.99 CA 6.59 C 7.0 O 9.4 CB 6.91
A GLY T 52 80.2 12.9 N 6.74 CA 7.79 C 6.84 O 7.76
A SER - 43 -160.3 166.2 N 6.12 CA 5.37 C 5.18 O 6.13 CB 6.74 OG 6.74
A GLY S 2 120.5 -170.2 N 5.17 CA 4.83 C 4.34 O 5.1
A HIS - 30 -133.1 58.1 N 4.15 CA 4.04 C 3.83 O 4.52 CB 3.98 CG 4.22 ND1 5.1 CD2 5.49 CE1 5.61 NE2 6.52
A PRO H 0 -60.9 -32.8 N 4.27 CA 4.51 C 4.04 O 4.57 CB 5.08 CG 5.06 CD 4.7
A THR H 1 -67.5 -28.5 N 3.9 CA 3.95 C 3.85 O 4.65 CB 4.1 OG1 4.47 CG2 5.05
A SER H 1 -75.1 -27.0 N 3.8 CA 4.25 C 4.38 O 6.07 CB 4.2 OG 4.31
A CYS H 0 -70.6 -46.3 N 4.85 CA 4.79 C 4.82 O 5.64 CB 5.3 SG 5.72
A CYS H 0 -65.5 -30.8 N 5.07 CA 5.15 C 4.52 O 5.52 CB 6.62 SG 8.89
A SER T 0 -65.6 -24.9 N 4.52 CA 4.53 C 4.31 O 5.73 CB 5.26 OG 5.23
A ALA T 0 -99.6 4.8 N 4.33 CA 4.69 C 4.16 O 4.68 CB 6.2
A ALA H 0 -66.0 -44.1 N 4.46 CA 4.54 C 4.48 O 4.96 CB 5.22
A GLU H 15 -66.8 -40.1 N 4.59 CA 4.52 C 4.24 O 5.03 CB 5.37 CG 5.64 CD 5.72 OE1 6.34 OE2 7.24
A ILE H 0 -54.9 -49.8 N 4.6 CA 4.64 C 4.59 O 5.13 CB 4.52 CG1 5.25 CG2 5.63 CD1 5.9
A MET H 0 -65.0 -42.9 N 4.42 CA 4.8 C 4.88 O 5.05 CB 5.13 CG 6.33 SD 6.72 CE 8.2
A ALA H 0 -58.7 -47.8 N 4.83 CA 5.1 C 4.94 O 5.54 CB 5.86
A VAL H 0 -67.7 -45.0 N 4.82 CA 5.08 C 4.65 O 5.86 CB 5.4 CG1 6.62 CG2 6.14
A LEU I 0 -59.4 -49.7 N 4.87 CA 5.01 C 5.25 O 5.83 CB 6.07 CG 7.22 CD1 9.6 CD2 9.97
A PHE I 2 -78.7 -25.3 N 4.91 CA 4.97 C 5.45 O 6.55 CB 5.55 CG 5.32 CD1 5.36 CD2 6.68 CE1 6.32 CE2 6.84 CZ 6.77
A PHE I 6 -123.7 14.4 N 5.67 CA 6.05 C 6.74 O 8.24 CB 6.69 CG 7.14 CD1 9.26 CD2 7.86 CE1 9.79 CE2 8.43 CZ 9.51
A HIS I 18 -140.9 -52.7 N 6.27 CA 6.46 C 5.85 O 7.57 CB 6.71 CG 7.81 ND1 9.54 CD2 8.51 CE1 10.56 NE2 9.07
A THR I 18 -82.7 -53.9 N 6.01 CA 5.96 C 6.13 O 7.32 CB 6.23 OG1 6.83 CG2 7.57
A MET - 5 -77.7 161.7 N 5.4 CA 5.2 C 5.71 O 6.21 CB 5.14 CG 5.44 SD 7.35 CE 10.69
A ARG - 51 -125.4 123.4 N 6.55 CA 7.22 C 6.07 O 7.65 CB 8.75 CG 9.6 CD 10.68 NE 12.49 CZ 11.38 NH1 9.99 NH2 13.97
A TYR - 6 -164.7 156.7 N 7.13 CA 7.4 C 7.62 O 8.25 CB 6.97 CG 7.02 CD1 7.12 CD2 7.23 CE1 7.69 CE2 6.67 CZ 6.69 OH 7.19
A LYS - 58 -84.8 114.1 N 7.54 CA 8.76 C 8.7 O 10.06 CB 10.13 CG 11.42 CD 19.32 CE 21.48 NZ 65.46
A SER T 32 -66.8 -27.8 N 9.79 CA 10.4 C 10.04 O 13.0 CB 15.22 OG 16.31
A GLN T 123 -93.2 1.5 N 10.14 CA 11.22 C 11.0 O 15.97 CB 15.3 CG 18.62 CD 27.96 OE1 45.41 NE2 35.06
A ASP - 72 -143.7 72.5 N 10.12 CA 8.77 C 7.61 O 7.52 CB 10.89 CG 12.47 OD1 15.47 OD2 16.07
A PRO T 6 -60.2 -29.3 N 7.75 CA 7.0 C 7.1 O 8.77 CB 8.85 CG 9.95 CD 8.81
A ARG T 89 -82.3 0.4 N 7.64 CA 9.59 C 8.5 O 9.42 CB 13.06 CG 17.8 CD 24.29 NE 22.06 CZ 14.03 NH1 13.19 NH2 37.64
A ASN - 16 -54.8 132.9 N 7.98 CA 8.27 C 7.23 O 7.58 CB 8.58 CG 10.24 OD1 12.35 ND2 15.68
A PRO T 39 -67.4 -14.0 N 8.13 CA 8.36 C 6.58 O 6.92 CB 10.76 CG 14.8 CD 10.96
A HIS T 28 -87.0 -13.6 N 6.95 CA 6.67 C 6.51 O 7.19 CB 7.41 CG 8.03 ND1 9.55 CD2 10.03 CE1 10.12 NE2 11.83
A ASN S 2 -69.0 146.5 N 6.32 CA 5.97 C 5.19 O 5.83 CB 5.8 CG 6.29 OD1 7.18 ND2 7.13
A ASP - 18 -54.1 150.7 N 5.62 CA 4.91 C 5.3 O 6.13 CB 6.01 CG 5.89 OD1 6.31 OD2 7.35
A ARG E 2 -104.0 141.1 N 4.89 CA 5.03 C 4.72 O 5.73 CB 5.61 CG 10.67 CD 10.46 NE 9.42 CZ 6.58 NH1 6.28 NH2 8.3
A PHE E 25 -124.8 131.0 N 4.78 CA 4.65 C 4.5 O 5.24 CB 5.45 CG 5.33 CD1 7.51 CD2 5.65 CE1 7.49 CE2 5.99 CZ 6.3
A VAL E 5 -119.7 119.6 N 4.46 CA 4.31 C 4.11 O 5.0 CB 5.08 CG1 6.18 CG2 7.05
A LEU E 8 -89.1 86.3 N 4.37 CA 4.24 C 4.3 O 5.64 CB 4.89 CG 5.2 CD1 9.07 CD2 5.91
A SER S 0 -64.2 -37.8 N 4.11 CA 4.14 C 4.11 O 4.74 CB 4.9 OG 5.62
A LYS S 3 -83.0 75.6 N 4.13 CA 4.27 C 4.11 O 4.73 CB 5.02 CG 4.62 CD 4.92 CE 4.62 NZ 4.5
A GLY G 0 -66.0 -20.6 N 4.1 CA 4.48 C 3.53 O 4.16
A HIS G 22 -67.3 -9.1 N 3.75 CA 3.88 C 4.06 O 5.05 CB 4.01 CG 3.6 ND1 4.06 CD2 4.05 CE1 3.81 NE2 4.32
A ALA G 0 -82.8 17.6 N 3.94 CA 4.28 C 4.29 O 4.83 CB 5.67
A ALA H 0 -47.3 -41.0 N 4.05 CA 4.21 C 3.89 O 4.7 CB 5.08
A PRO H 4 -57.2 -34.0 N 4.04 CA 4.67 C 4.32 O 5.42 CB 5.29 CG 5.65 CD 4.67
A ILE H 0 -78.6 -28.6 N 4.89 CA 4.92 C 4.64 O 5.86 CB 5.62 CG1 8.24 CG2 6.9 CD1 9.63
A LEU H 7 -60.6 -46.4 N 5.02 CA 5.3 C 4.86 O 5.23 CB 5.15 CG 5.9 CD1 7.77 CD2 8.48
A TYR H 3 -62.7 -42.4 N 4.56 CA 4.75 C 5.3 O 5.65 CB 4.78 CG 4.46 CD1 4.9 CD2 4.48 CE1 4.49 CE2 4.38 CZ 4.31 OH 4.56
A ALA H 4 -59.8 -42.4 N 5.49 CA 5.88 C 5.78 O 6.03 CB 6.81
A VAL H 0 -63.8 -37.9 N 5.02 CA 5.89 C 5.8 O 8.67 CB 7.41 CG1 5.6 CG2 3.51
A TRP H 15 -72.9 -25.1 N 5.58 CA 5.99 C 5.91 O 7.23 CB 6.23 CG 5.72 CD1 5.74 CD2 5.63 NE1 5.78 CE2 5.55 CE3 6.91 CZ2 6.65 CZ3 7.81 CH2 7.41
A ALA H 5 -72.1 -44.2 N 6.13 CA 6.4 C 6.27 O 7.89 CB 6.99
A GLU H 12 -59.4 -37.6 N 6.28 CA 6.92 C 7.08 O 8.77 CB 6.83 CG 8.16 CD 8.78 OE1 11.58 OE2 10.77
A ALA T 14 -74.5 -10.7 N 7.06 CA 8.09 C 8.53 O 10.32 CB 9.26
A GLY T 43 96.0 2.1 N 8.8 CA 9.44 C 9.78 O 12.78
A PHE S 61 -79.8 -48.2 N 8.54 CA 8.41 C 8.93 O 11.14 CB 8.76 CG 8.61 CD1 9.65 CD2 9.43 CE1 10.98 CE2 10.67 CZ 11.04
A LEU S 30 -92.4 145.1 N 9.05 CA 11.7 C 10.91 O 13.38 CB 8.96 CG 8.19 CD1 8.09 CD2 14.59
A ALA - 68 -70.1 135.2 N 11.45 CA 12.93 C 11.19 O 11.33 CB 16.45
A GLU G 104 -63.2 -33.8 N 10.13 CA 13.39 C 9.5 O 7.78 CB 15.55 CG 19.03 CD 23.81 OE1 59.01 OE2 39.72
A ALA G 76 -62.8 -28.0 N 10.08 CA 10.84 C 8.75 O 9.75 CB 14.4
A GLU G 60 -68.0 -24.0 N 8.66 CA 8.09 C 6.69 O 7.03 CB 9.61 CG 10.15 CD 10.81 OE1 11.86 OE2 13.8
A LEU G 16 -55.6 -34.2 N 6.98 CA 6.14 C 5.71 O 6.22 CB 6.09 CG 6.66 CD1 9.1 CD2 8.24
A LEU G 78 -71.6 -8.9 N 6.06 CA 6.41 C 5.81 O 6.96 CB 7.82 CG 9.62 CD1 14.81 CD2 11.4
A ASN G 41 -95.2 13.4 N 6.0 CA 5.61 C 5.37 O 5.84 CB 6.94 CG 8.52 OD1 13.24 ND2 8.71
A LEU T 2 -40.8 131.1 N 4.77 CA 4.72 C 4.54 O 4.89 CB 4.75 CG 4.33 CD1 5.49 CD2 5.39
A ARG T 81 70.4 4.7 N 4.44 CA 4.44 C 5.13 O 6.69 CB 4.38 CG 4.58 CD 4.98 NE 5.15 CZ 4.87 NH1 5.71 NH2 5.97
A LYS - 101 -80.9 149.5 N 5.13 CA 5.8 C 5.3 O 5.67 CB 6.95 CG 7.75 CD 9.81 CE 12.37 NZ 21.4
A ILE T 184 -67.5 -16.2 N 5.69 CA 5.94 C 6.01 O 6.8 CB 8.35 CG1 13.23 CG2 10.25 CD1 11.64
A SER T 97 -87.4 0.3 N 5.43 CA 6.4 C 5.65 O 7.46 CB 7.42 OG 8.92
A SER - 6 -124.9 160.9 N 5.74 CA 5.54 C 5.09 O 5.62 CB 6.37 OG 6.99
A ASP S 84 -101.6 8.0 N 5.03 CA 5.47 C 4.84 O 5.47 CB 6.82 CG 7.47 OD1 7.85 OD2 11.76
A LEU - 7 -86.3 69.6 N 4.76 CA 4.51 C 4.43 O 5.27 CB 5.17 CG 6.17 CD1 7.52 CD2 6.71
A ASP - 52 -77.4 174.4 N 4.59 CA 4.48 C 4.03 O 4.53 CB 4.88 CG 4.83 OD1 6.38 OD2 5.81
A GLY S 14 -62.2 -34.7 N 4.36 CA 4.06 C 4.39 O 5.3
A HIS S 67 -129.5 157.6 N 4.26 CA 4.02 C 3.98 O 4.68 CB 4.43 CG 4.2 ND1 5.29 CD2 4.61 CE1 5.99 NE2 5.71
A PRO - 3 -68.7 146.9 N 4.13 CA 4.58 C 4.23 O 4.65 CB 5.97 CG 5.89 CD 4.66
A VAL - 27 -148.1 151.7 N 4.35 CA 4.55 C 4.75 O 5.09 CB 5.56 CG1 6.97 CG2 6.28
A PRO T 13 -75.2 1.4 N 5.3 CA 6.12 C 5.35 O 6.33 CB 10.12 CG 13.28 CD 8.28
A LYS T 84 -63.8 -19.5 N 4.91 CA 5.76 C 5.7 O 7.32 CB 5.92 CG 6.21 CD 6.49 CE 6.66 NZ 7.93
A GLN S 7 -83.3 128.9 N 5.11 CA 5.08 C 5.38 O 6.26 CB 5.22 CG 5.65 CD 4.66 OE1 4.98 NE2 5.42
A ALA T 34 -61.9 -29.0 N 6.78 CA 7.44 C 7.48 O 9.21 CB 10.24
A PHE T 18 -84.5 2.8 N 6.51 CA 8.11 C 7.16 O 9.35 CB 8.97 CG 8.0 CD1 7.6 CD2 11.35 CE1 7.52 CE2 13.01 CZ 8.81
A THR - 8 -117.0 126.3 N 6.13 CA 5.69 C 6.29 O 9.25 CB 5.94 OG1 5.95 CG2 6.28
A ASP S 21 -92.7 -43.7 N 5.82 CA 5.99 C 6.35 O 9.15 CB 7.21 CG 9.71 OD1 13.69 OD2 17.26
A VAL S 11 -126.9 145.1 N 6.62 CA 6.71 C 5.98 O 7.97 CB 5.59 CG1 7.23 CG2 6.5
A ALA - 6 -73.4 135.3 N 7.21 CA 8.22 C 8.57 O 10.56 CB 7.83
A THR - 4 -135.7 11.4 N 5.32 CA 4.49 C 6.18 O 8.19 CB 5.94 OG1 5.84 CG2 6.84
A GLY - 29 -63.3 -27.7 N 11.47 CA 7.36 C 5.17 O 7.65
A SER S 18 -85.9 113.2 N 5.17 CA 5.0 C 5.02 O 7.03 CB 5.76 OG 11.44
A LEU T 61 -64.8 152.1 N 4.12 CA 3.84 C 3.92 O 5.07 CB 5.23 CG 5.77 CD1 7.77 CD2 9.21
A GLY T 1 88.8 6.5 N 4.0 CA 4.26 C 3.91 O 4.96
A GLN - 16 -106.6 -19.2 N 3.81 CA 4.33 C 4.52 O 5.43 CB 4.68 CG 4.95 CD 4.5 OE1 6.95 NE2 5.46
A GLY H 1 -66.6 -35.9 N 4.6 CA 5.12 C 4.03 O 4.53
A LEU H 0 -65.5 -37.9 N 4.1 CA 3.83 C 3.83 O 4.54 CB 4.52 CG 4.54 CD1 5.3 CD2 6.15
A GLY H 3 -63.7 -42.2 N 3.92 CA 4.02 C 3.71 O 4.13
A ALA H 5 -61.8 -42.0 N 3.82 CA 4.1 C 3.63 O 4.02 CB 5.23
A ALA H 0 -60.1 -40.5 N 3.53 CA 4.05 C 3.93 O 4.29 CB 4.19
A CYS H 0 -59.7 -41.8 N 3.83 CA 4.06 C 3.95 O 4.45 CB 4.73 SG 6.03
A GLY H 0 -63.1 -41.8 N 4.01 CA 4.02 C 4.05 O 4.45
A MET H 2 -60.3 -44.8 N 3.86 CA 3.96 C 4.04 O 4.63 CB 4.36 CG 4.55 SD 6.45 CE 7.71
A ALA H 0 -68.5 -42.2 N 4.04 CA 4.14 C 3.93 O 4.57 CB 4.59
A TYR H 20 -58.0 -46.5 N 4.09 CA 3.95 C 4.52 O 4.8 CB 4.3 CG 4.34 CD1 4.56 CD2 4.81 CE1 5.45 CE2 5.51 CZ 5.33 OH 7.72
A THR I 3 -59.6 -45.7 N 4.34 CA 4.62 C 4.77 O 5.38 CB 5.43 OG1 6.04 CG2 6.6
A GLY I 0 -59.9 -42.9 N 4.76 CA 5.14 C 5.28 O 6.81
A LYS I 64 -79.6 -40.1 N 5.14 CA 5.8 C 5.88 O 7.68 CB 6.4 CG 6.62 CD 7.62 CE 8.34 NZ 9.72
A TYR I 76 -108.7 -26.1 N 5.72 CA 6.3 C 7.41 O 11.36 CB 6.17 CG 5.87 CD1 7.14 CD2 5.55 CE1 7.55 CE2 5.69 CZ 6.77 OH 8.71
A PHE I 44 -105.0 -63.9 N 6.15 CA 7.07 C 7.6 O 9.29 CB 7.84 CG 6.9 CD1 8.22 CD2 7.06 CE1 8.66 CE2 7.35 CZ 8.28
A ASP S 10 -66.9 -32.2 N 7.53 CA 7.76 C 7.68 O 10.26 CB 6.92 CG 7.61 OD1 10.75 OD2 8.65
A LYS - 164 53.3 50.8 N 8.38 CA 8.69 C 9.52 O 13.68 CB 11.54 CG 16.1 CD 22.2 CE 39.82 NZ 25.65
A ALA - 17 -116.7 170.3 N 8.65 CA 8.39 C 8.02 O 9.9 CB 9.55
A SER S 51 -89.7 -5.2 N 7.08 CA 9.5 C 7.5 O 8.82 CB 14.68 OG 14.41
A TYR - 3 -67.3 150.7 N 7.16 CA 5.94 C 5.89 O 7.92 CB 6.18 CG 6.0 CD1 6.43 CD2 6.67 CE1 7.23 CE2 6.73 CZ 6.55 OH 7.77
A ARG - 47 -110.9 163.7 N 5.45 CA 5.2 C 4.89 O 6.04 CB 6.53 CG 9.44 CD 11.27 NE 12.13 CZ 15.65 NH1 17.23 NH2 33.75
A VAL E 0 -126.8 128.3 N 4.45 CA 4.06 C 3.89 O 5.08 CB 4.85 CG1 5.29 CG2 5.4
A TYR E 5 -123.1 131.5 N 4.05 CA 4.27 C 4.31 O 6.17 CB 5.1 CG 5.03 CD1 5.53 CD2 6.03 CE1 6.75 CE2 6.66 CZ 6.38 OH 8.31
A CYS E 0 -131.7 122.3 N 3.91 CA 4.09 C 3.74 O 4.73 CB 4.54 SG 5.38
A LEU E 0 -99.2 122.2 N 3.84 CA 3.69 C 3.54 O 4.08 CB 4.35 CG 4.96 CD1 5.37 CD2 7.09
A LEU E 0 -117.3 153.5 N 3.52 CA 3.5 C 3.72 O 4.91 CB 4.58 CG 4.8 CD1 7.94 CD2 13.82
A GLY E 10 -84.8 169.6 N 4.13 CA 4.05 C 4.1 O 6.6
A ASP S 4 -81.9 -45.3 N 3.63 CA 3.33 C 3.52 O 4.05 CB 4.13 CG 3.79 OD1 4.1 OD2 5.24
A GLY G 29 -54.0 -40.9 N 3.59 CA 3.6 C 3.47 O 3.76
A GLU G 7 -53.5 -30.2 N 3.72 CA 4.06 C 3.66 O 3.94 CB 5.52 CG 5.05 CD 4.85 OE1 5.65 OE2 5.72
A LEU G 13 -68.5 -8.0 N 3.94 CA 3.85 C 4.15 O 5.48 CB 4.03 CG 5.3 CD1 7.07 CD2 8.1
A SER G 86 -71.7 -16.7 N 3.72 CA 3.61 C 3.64 O 4.88 CB 4.64 OG 5.21
A GLU S 87 -74.0 129.1 N 3.51 CA 3.31 C 3.46 O 3.67 CB 3.58 CG 3.87 CD 4.15 OE1 4.69 OE2 4.9
A GLY H 44 -59.5 -32.3 N 3.76 CA 4.56 C 3.54 O 3.89
A SER H 6 -56.8 -32.2 N 3.76 CA 3.66 C 3.33 O 3.76 CB 5.24 OG 5.76
A VAL H 2 -61.5 -43.2 N 3.07 CA 3.24 C 3.21 O 3.68 CB 3.74 CG1 5.57 CG2 4.58
A TRP H 44 -72.9 -30.5 N 3.29 CA 3.7 C 3.03 O 3.8 CB 4.46 CG 4.54 CD1 6.4 CD2 4.65 NE1 6.91 CE2 6.0 CE3 5.4 CZ2 7.42 CZ3 7.17 CH2 7.68
A GLU H 44 -59.6 -44.6 N 3.25 CA 3.22 C 3.34 O 3.79 CB 3.35 CG 3.4 CD 3.35 OE1 5.04 OE2 4.27
A ALA H 0 -65.8 -41.5 N 3.21 CA 3.37 C 3.38 O 3.9 CB 3.62
A MET H 4 -53.5 -50.1 N 3.31 CA 3.53 C 3.36 O 4.11 CB 3.5 CG 3.91 SD 4.92 CE 6.29
A ALA H 30 -66.1 -41.4 N 3.48 CA 3.78 C 3.7 O 5.03 CB 5.04
A PHE H 6 -57.1 -47.0 N 3.61 CA 3.88 C 3.49 O 4.11 CB 4.34 CG 4.08 CD1 5.01 CD2 4.51 CE1 5.29 CE2 4.78 CZ 5.31
A ALA H 0 -62.0 -38.0 N 3.49 CA 3.54 C 4.05 O 4.92 CB 4.83
A SER H 32 -77.9 -37.3 N 4.02 CA 4.95 C 4.02 O 5.41 CB 4.23 OG 5.84
A ILE H 81 -53.1 -46.9 N 4.29 CA 4.9 C 4.63 O 5.55 CB 4.8 CG1 5.67 CG2 6.59 CD1 6.96
A TYR T 39 -94.7 10.9 N 4.18 CA 4.37 C 4.56 O 5.28 CB 4.71 CG 4.58 CD1 5.29 CD2 5.67 CE1 5.59 CE2 6.05 CZ 5.77 OH 7.18
A LYS T 134 54.9 51.8 N 4.46 CA 5.4 C 5.13 O 6.45 CB 6.46 CG 10.89 CD 15.19 CE 19.64 NZ 28.02
A LEU - 0 -84.0 74.7 N 4.46 CA 4.44 C 4.92 O 5.3 CB 4.67 CG 4.81 CD1 5.24 CD2 5.54
A ASP T 44 -80.3 7.5 N 5.22 CA 6.16 C 7.54 O 14.84 CB 8.41 CG 12.77 OD1 13.88 OD2 26.53
A ASN T 15 -104.7 9.1 N 5.0 CA 4.65 C 4.8 O 5.85 CB 4.97 CG 4.81 OD1 5.51 ND2 5.37
A LEU E 0 -117.2 135.5 N 4.64 CA 4.38 C 4.38 O 4.78 CB 4.72 CG 4.73 CD1 5.22 CD2 5.68
A VAL E 4 -127.8 127.3 N 4.22 CA 4.28 C 4.44 O 5.5 CB 5.92 CG1 7.2 CG2 9.48
A ALA E 0 -104.4 131.7 N 4.11 CA 4.56 C 4.4 O 6.86 CB 5.46
A ILE E 0 -111.0 121.4 N 4.13 CA 4.06 C 3.93 O 4.63 CB 5.35 CG1 6.08 CG2 6.15 CD1 7.47
A LEU E 4 -104.5 116.4 N 4.24 CA 4.02 C 3.98 O 4.84 CB 4.47 CG 5.89 CD1 6.58 CD2 6.57
A ASP E 0 -85.8 84.9 N 4.25 CA 4.01 C 3.78 O 4.2 CB 4.43 CG 4.6 OD1 6.19 OD2 5.15
A ILE E 0 -85.3 79.1 N 3.75 CA 3.67 C 3.48 O 4.26 CB 4.29 CG1 4.88 CG2 4.99 CD1 5.21
A ASN - 5 -96.4 13.4 N 3.68 CA 3.57 C 3.74 O 4.48 CB 3.91 CG 3.57 OD1 3.48 ND2 4.15
A ARG S 39 82.7 -27.8 N 3.85 CA 4.27 C 3.86 O 4.78 CB 4.28 CG 4.92 CD 5.68 NE 5.87 CZ 6.2 NH1 7.45 NH2 6.78
A LEU B 6 -122.0 144.3 N 3.91 CA 3.91 C 3.38 O 4.04 CB 4.61 CG 4.89 CD1 6.79 CD2 7.83
A GLY - 19 -100.0 -146.5 N 3.9 CA 4.03 C 3.99 O 4.42
A GLN S 149 -77.4 -45.1 N 3.88 CA 4.1 C 4.44 O 5.86 CB 4.26 CG 4.89 CD 6.51 OE1 9.45 NE2 10.84
A SER S 99 -126.7 6.9 N 4.49 CA 5.01 C 5.46 O 7.91 CB 5.61 OG 6.59
A ASP S 100 -176.9 169.2 N 5.87 CA 6.48 C 5.27 O 5.66 CB 9.95 CG 15.73 OD1 19.39 OD2 20.7
A PRO B 33 -57.4 145.7 N 5.51 CA 5.47 C 5.14 O 6.21 CB 6.38 CG 6.82 CD 6.91
A ALA - 3 -63.7 151.6 N 5.34 CA 5.41 C 5.33 O 6.46 CB 6.38
A PRO T 100 -48.1 -48.7 N 5.5 CA 6.53 C 5.87 O 8.15 CB 7.84 CG 7.6 CD 5.94
A LEU T 20 -86.2 -7.8 N 4.95 CA 5.19 C 5.17 O 6.09 CB 5.58 CG 7.0 CD1 8.03 CD2 10.05
A GLN T 77 49.5 -127.3 N 4.98 CA 5.16 C 4.8 O 5.6 CB 5.46 CG 6.6 CD 6.35 OE1 7.74 NE2 9.91
A HIS T 39 -104.4 33.5 N 5.22 CA 5.41 C 5.69 O 6.68 CB 5.64 CG 5.09 ND1 6.1 CD2 5.22 CE1 5.98 NE2 5.3
A GLN - 98 -80.2 73.9 N 5.8 CA 6.42 C 6.18 O 6.64 CB 6.91 CG 8.04 CD 11.58 OE1 17.06 NE2 18.62
A MET H 18 -61.5 -35.6 N 6.72 CA 6.35 C 6.12 O 6.85 CB 7.17 CG 7.86 SD 9.75 CE 11.92
A ASP H 89 -63.4 -31.8 N 6.7 CA 7.35 C 6.74 O 7.33 CB 9.77 CG 18.22 OD1 20.65 OD2 52.04
A ILE H 44 -73.7 -38.0 N 6.46 CA 6.07 C 6.01 O 7.82 CB 8.03 CG1 9.37 CG2 8.56 CD1 11.61
A TYR H 12 -58.7 -46.2 N 5.33 CA 5.57 C 5.33 O 5.74 CB 5.61 CG 5.48 CD1 5.26 CD2 6.97 CE1 5.43 CE2 6.71 CZ 5.42 OH 6.19
A GLN H 51 -58.9 -48.9 N 5.52 CA 6.3 C 5.34 O 5.85 CB 5.62 CG 9.16 CD 12.0 OE1 12.43 NE2 13.17
A LYS H 143 -54.3 -43.9 N 5.9 CA 5.15 C 5.02 O 6.05 CB 6.89 CG 8.75 CD 97.84 CE 102.5 NZ 171.98
A ARG H 126 -64.8 -47.6 N 5.25 CA 5.13 C 4.91 O 5.52 CB 5.9 CG 5.67 CD 7.69 NE 8.11 CZ 10.41 NH1 12.36 NH2 11.69
A CYS H 1 -61.9 -44.2 N 5.19 CA 5.0 C 5.25 O 5.89 CB 6.4 SG 7.13
A GLU H 98 -66.3 -36.8 N 4.97 CA 5.88 C 5.69 O 6.33 CB 7.36 CG 8.59 CD 11.96 OE1 17.1 OE2 15.73
A ALA H 84 -64.6 -27.8 N 5.53 CA 6.03 C 5.55 O 6.97 CB 6.4
A PHE T 83 -91.6 11.3 N 5.49 CA 5.3 C 5.37 O 6.53 CB 5.51 CG 5.78 CD1 9.18 CD2 6.13 CE1 12.03 CE2 7.88 CZ 9.4
A GLY T 26 92.3 9.7 N 5.54 CA 6.17 C 5.63 O 8.13
A TRP - 3 -94.2 150.6 N 4.99 CA 5.52 C 5.88 O 8.23 CB 5.34 CG 4.57 CD1 4.66 CD2 4.39 NE1 4.5 CE2 4.04 CE3 4.53 CZ2 4.37 CZ3 4.98 CH2 5.04
A HIS E 58 -81.0 122.0 N 5.81 CA 6.08 C 6.32 O 11.1 CB 7.14 CG 9.28 ND1 18.71 CD2 10.61 CE1 18.18 NE2 12.96
A ALA E 8 -117.9 127.0 N 6.01 CA 6.73 C 8.72 O 16.5 CB 11.37
A ILE E 32 -123.2 120.5 N 6.9 CA 7.39 C 6.8 O 7.89 CB 8.65 CG1 11.2 CG2 11.67 CD1 14.72
A ILE E 66 -86.1 130.1 N 6.6 CA 6.61 C 6.53 O 8.52 CB 7.5 CG1 7.81 CG2 9.03 CD1 9.33
A VAL E 8 -131.3 160.8 N 6.07 CA 6.39 C 5.78 O 6.47 CB 7.88 CG1 10.11 CG2 8.31
A ASP E 72 -73.5 107.3 N 6.29 CA 6.09 C 5.27 O 6.25 CB 7.09 CG 7.9 OD1 7.83 OD2 11.44
A GLY T 0 -69.4 -3.5 N 5.38 CA 5.47 C 4.96 O 5.95
A HIS T 19 -109.9 12.8 N 4.99 CA 5.49 C 5.64 O 7.68 CB 6.13 CG 4.77 ND1 5.17 CD2 5.3 CE1 5.5 NE2 5.12
A SER - 28 -102.8 106.2 N 5.62 CA 5.96 C 5.68 O 6.35 CB 6.6 OG 8.65
A VAL H 4 -59.8 -36.0 N 6.18 CA 6.8 C 7.05 O 8.03 CB 15.25 CG1 8.57 CG2 7.45
A GLU H 74 -65.3 -46.1 N 7.43 CA 9.36 C 7.24 O 8.52 CB 14.18 CG 14.82 CD 23.44 OE1 23.02 OE2 22.19
A GLU H 88 -62.8 -38.8 N 7.3 CA 7.52 C 6.57 O 7.08 CB 7.59 CG 9.95 CD 11.89 OE1 12.46 OE2 21.35
A LEU H 0 -66.0 -47.8 N 6.33 CA 6.19 C 6.29 O 6.77 CB 5.96 CG 5.76 CD1 6.69 CD2 7.52
A CYS H 0 -54.2 -45.3 N 6.18 CA 6.81 C 6.11 O 7.15 CB 7.56 SG 7.5
A LYS H 140 -67.0 -47.0 N 6.74 CA 7.46 C 7.73 O 9.08 CB 8.78 CG 14.29 CD 24.92 CE 32.98 NZ 42.05
A ALA H 8 -64.5 -40.2 N 6.47 CA 7.23 C 7.49 O 9.89 CB 8.45
A PHE H 10 -73.0 -20.7 N 6.94 CA 8.83 C 9.14 O 14.47 CB 9.53 CG 8.79 CD1 13.59 CD2 10.08 CE1 15.0 CE2 10.35 CZ 13.39
A GLY H 32 -85.8 -10.7 N 10.11 CA 10.48 C 11.8 O 14.73
A GLN - 76 -103.9 125.5 N 16.99 CA 13.87 C 10.98 O 18.36 CB 21.18 CG 50.66 CD 168.56 OE1 52.5 NE2 126.39
A ALA - 72 -72.1 148.1 N 23.24 CA 15.87 C 10.31 O 21.25 CB 23.61
A LYS - 57 -125.2 167.4 N 5.98 CA 8.58 C 7.35 O 10.78 CB 8.41 CG 10.32 CD 12.33 CE 15.92 NZ 23.99
A HIS S 170 -90.7 14.2 N 10.33 CA 15.03 C 11.97 O 19.57 CB 23.36 CG 20.82 ND1 37.63 CD2 40.61 CE1 30.84 NE2 32.32
A GLN S 78 -139.7 161.5 N 11.86 CA 10.18 C 6.03 O 6.93 CB 13.45 CG 18.66 CD 16.22 OE1 18.32 NE2 23.05
A PRO - 2 -56.7 140.0 N 5.33 CA 4.9 C 4.74 O 5.57 CB 6.71 CG 10.54 CD 7.55
A THR E 5 -118.0 130.0 N 4.9 CA 5.08 C 4.1 O 4.99 CB 9.52 OG1 17.13 CG2 10.88
A ALA E 0 -106.6 118.8 N 4.42 CA 4.71 C 4.68 O 5.94 CB 6.27
A ILE E 1 -97.6 108.5 N 4.72 CA 4.82 C 4.57 O 5.62 CB 6.33 CG1 8.55 CG2 8.07 CD1 11.03
A ILE E 0 -97.6 97.6 N 4.69 CA 4.95 C 4.9 O 5.48 CB 5.2 CG1 6.19 CG2 6.96 CD1 7.9
A ALA E 0 -99.2 116.6 N 4.23 CA 4.74 C 4.06 O 5.15 CB 5.44
A LYS E 85 -77.5 116.5 N 4.48 CA 4.68 C 4.15 O 5.18 CB 5.54 CG 5.97 CD 7.68 CE 8.73 NZ 13.26
A THR - 0 -134.3 171.5 N 4.19 CA 4.04 C 4.58 O 4.66 CB 4.33 OG1 5.06 CG2 4.79
A PHE - 54 -119.2 131.1 N 4.22 CA 4.4 C 4.08 O 4.82 CB 4.97 CG 5.96 CD1 6.99 CD2 9.8 CE1 8.94 CE2 12.71 CZ 11.55
A LYS T 12 -64.4 136.9 N 4.01 CA 3.8 C 4.21 O 5.05 CB 4.26 CG 3.91 CD 3.88 CE 4.0 NZ 4.35
A GLY T 0 69.9 20.5 N 4.3 CA 4.69 C 4.38 O 5.4
A ARG T 80 -48.8 129.0 N 4.55 CA 4.88 C 4.82 O 5.4 CB 4.99 CG 5.91 CD 5.81 NE 6.63 CZ 9.15 NH1 13.21 NH2 13.17
A GLY T 19 90.9 -7.9 N 5.53 CA 6.51 C 6.62 O 9.14
A ILE S 0 -98.5 101.0 N 6.14 CA 6.13 C 6.73 O 7.15 CB 6.2 CG1 6.78 CG2 7.43 CD1 8.08
A THR T 85 -60.7 131.7 N 7.06 CA 9.32 C 9.94 O 12.55 CB 13.92 OG1 15.93 CG2 15.2
A GLY T 56 80.4 -7.0 N 11.98 CA 14.95 C 13.67 O 18.77
A VAL T 2 -110.7 -32.5 N 6.82 CA 5.91 C 5.63 O 6.02 CB 6.04 CG1 6.76 CG2 7.86
A GLU T 52 -51.2 127.8 N 5.8 CA 5.69 C 5.23 O 5.99 CB 6.0 CG 6.72 CD 7.4 OE1 7.42 OE2 8.75
A ASP T 51 71.5 14.1 N 4.96 CA 4.92 C 5.35 O 6.86 CB 5.9 CG 6.41 OD1 6.77 OD2 10.5
A LYS - 112 -104.3 148.3 N 5.18 CA 5.48 C 5.4 O 5.46 CB 6.97 CG 8.88 CD 11.57 CE 20.2 NZ 33.36
A GLU S 98 -71.0 168.9 N 5.73 CA 5.5 C 5.31 O 7.67 CB 6.7 CG 10.38 CD 9.89 OE1 15.5 OE2 16.51
A SER S 111 71.2 23.0 N 5.96 CA 5.34 C 4.97 O 6.37 CB 6.91 OG 15.36
A TRP - 61 -127.5 1.1 N 4.76 CA 4.74 C 4.56 O 5.16 CB 5.43 CG 5.28 CD1 6.32 CD2 5.15 NE1 6.45 CE2 6.0 CE3 6.26 CZ2 7.23 CZ3 7.87 CH2 8.76
A HIS T 30 -68.1 129.2 N 4.09 CA 4.28 C 4.01 O 5.04 CB 4.22 CG 4.0 ND1 4.38 CD2 4.46 CE1 4.42 NE2 4.46
A GLY T 21 67.7 24.3 N 4.17 CA 4.73 C 4.7 O 5.85
A LYS - 120 -118.0 123.0 N 4.57 CA 5.4 C 5.42 O 7.3 CB 6.71 CG 8.44 CD 12.61 CE 16.96 NZ 29.35
A PRO - 38 -77.3 157.3 N 6.01 CA 5.73 C 5.26 O 5.19 CB 6.66 CG 8.1 CD 7.92
A LEU - 2 -76.7 138.1 N 5.98 CA 5.8 C 5.72 O 5.9 CB 5.97 CG 6.93 CD1 8.86 CD2 10.95
A PRO - 65 -71.9 161.8 N 6.57 CA 7.85 C 4.89 O 4.67 CB 9.72 CG 12.23 CD 6.48
A LYS H 123 -61.2 -40.4 N 5.42 CA 5.98 C 6.05 O 8.39 CB 7.99 CG 13.87 CD 17.47 CE 20.68 NZ 52.03
A ASN H 121 -61.6 -40.0 N 5.77 CA 5.94 C 5.88 O 7.61 CB 6.24 CG 6.08 OD1 7.79 ND2 6.18
A MET H 44 -70.2 -45.6 N 5.65 CA 5.73 C 5.75 O 6.88 CB 6.27 CG 7.1 SD 7.86 CE 12.02
A ALA H 4 -54.2 -44.1 N 5.72 CA 6.66 C 6.61 O 7.93 CB 7.51
A GLU H 145 -62.3 -41.8 N 6.08 CA 8.95 C 9.42 O 10.3 CB 14.56 CG 17.04 CD 28.43 OE1 35.57 OE2 30.39
A GLN H 91 -67.7 -44.7 N 7.26 CA 7.52 C 6.81 O 8.08 CB 9.57 CG 13.91 CD 12.61 OE1 13.78 NE2 17.22
A ILE H 2 -65.5 -43.8 N 6.24 CA 6.35 C 6.45 O 7.17 CB 6.34 CG1 7.32 CG2 7.17 CD1 8.63
A ILE H 30 -59.2 -42.2 N 6.42 CA 7.39 C 7.32 O 8.68 CB 7.01 CG1 8.31 CG2 8.51 CD1 10.62
A GLN H 143 -61.0 -42.0 N 7.98 CA 9.16 C 8.71 O 10.36 CB 11.47 CG 18.52 CD 19.96 OE1 24.91 NE2 43.17
A GLU H 57 -57.7 -51.8 N 10.36 CA 11.37 C 7.78 O 8.81 CB 10.32 CG 15.32 CD 17.21 OE1 27.49 OE2 96.28
A ILE H 0 -62.8 -44.9 N 8.01 CA 7.41 C 7.98 O 9.3 CB 7.71 CG1 8.79 CG2 7.96 CD1 10.75
A TYR H 116 -61.1 -31.7 N 8.28 CA 12.56 C 11.8 O 13.56 CB 13.29 CG 12.59 CD1 15.03 CD2 19.78 CE1 19.38 CE2 21.72 CZ 21.12 OH 34.41
A SER T 94 -67.1 -15.2 N 11.18 CA 12.71 C 12.04 O 17.42 CB 17.03 OG 18.16
A GLN T 103 -89.6 -10.0 N 11.23 CA 12.65 C 10.8 O 12.87 CB 14.23 CG 21.31 CD 99.82 OE1 67.94 NE2 92.68
A ILE - 27 -85.8 124.5 N 10.33 CA 9.53 C 10.89 O 14.06 CB 9.7 CG1 10.26 CG2 11.11 CD1 10.49
A GLN - 146 -83.0 -36.2 N 10.43 CA 13.87 C 10.51 O 12.02 CB 14.6 CG 30.39 CD 18.02 OE1 23.81 NE2 21.16
A SER - 53 -144.7 146.0 N 11.53 CA 12.82 C 11.45 O 11.3 CB 14.39 OG 18.37
A LYS - 152 -83.9 -10.4 N 14.09 CA 13.67 C 13.64 O 15.87 CB 22.72 CG 29.54 CD 37.95 CE 99.53 NZ 83.4
A LYS - 171 -70.0 133.8 N 13.88 CA 13.6 C 13.44 O 15.44 CB 16.91 CG 27.21 CD 119.59 CE 111.2 NZ 103.36
A LYS - 78 -95.1 146.2 N 12.04 CA 11.87 C 12.79 O 18.61 CB 13.23 CG 13.14 CD 14.43 CE 17.21 NZ 16.74
A ILE - 23 -74.9 143.2 N 9.58 CA 9.6 C 8.45 O 10.94 CB 9.45 CG1 11.4 CG2 10.86 CD1 10.07
A LEU - 146 -91.5 145.3 N 10.48 CA 10.21 C 10.84 O 12.76 CB 12.18 CG 14.82 CD1 18.79 CD2 21.5
A ALA - 23 -62.2 156.1 N 10.38 CA 10.03 C 10.61 O 14.27 CB 14.16
A THR - 58 -113.6 133.0 N 10.28 CA 10.58 C 9.19 O 9.11 CB 11.64 OG1 14.57 CG2 15.15
A PRO - 87 -80.4 161.8 N 10.18 CA 10.73 C 9.08 O 11.13 CB 13.07 CG 16.86 CD 14.12
A PRO - 16 -85.5 160.7 N 8.96 CA 9.38 C 10.28 O 11.65 CB 10.04 CG 9.32 CD 8.54
A GLN - 129 -66.9 128.3 N 15.11 CA 13.4 C 11.98 O 16.3 CB 17.21 CG 23.45 CD 65.95 OE1 65.34 NE2 75.64
A GLU - 118 -94.2 74.0 N 12.12 CA 12.85 C 13.39 O 18.54 CB 14.2 CG 16.61 CD 20.28 OE1 36.97 OE2 28.26
A ASP - 56 -121.8 7.0 N 10.96 CA 10.57 C 11.2 O 13.55 CB 12.39 CG 14.37 OD1 13.28 OD2 27.48
A ALA - 12 -67.7 134.5 N 10.05 CA 9.81 C 9.61 O 11.36 CB 10.76
A PRO - 56 -76.9 166.0 N 9.81 CA 10.04 C 10.38 O 11.12 CB 12.17 CG 12.54 CD 10.0
A SER - 120 -71.6 149.9 N 18.32 CA 22.25 C 23.27 O 25.01 CB 22.67 OG 27.32
A VAL - 43 -124.3 136.1 N 14.88 CA 17.78 C 17.48 O 28.19 CB 22.29 CG1 22.26 CG2 24.52
A ASP - 87 -84.5 155.1 N 20.38 CA 24.08 C 18.26 O 26.05 CB 83.75 CG 28.21 OD1 82.16 OD2 51.95
A ILE - 155 -112.9 4.4 N 19.71 CA 23.51 C 22.37 O 34.12 CB 26.25 CG1 36.97 CG2 33.29 CD1 46.36
A ALA S 56 -71.6 161.3 N 18.52 CA 19.87 C 16.51 O 18.08 CB 24.8
A ASN - 104 -49.9 137.5 N 25.95 CA 19.7 C 17.49 O 18.55 CB 32.72 CG 138.68 OD1 56.43 ND2 78.46
A ILE - 4 -101.1 119.6 N 13.7 CA 12.16 C 13.5 O 21.94 CB 18.88 CG1 16.39 CG2 27.5 CD1 21.71
A ARG - 186 -116.9 141.3 N 12.03 CA 12.92 C 11.0 O 13.41 CB 16.84 CG 18.49 CD 77.11 NE 92.43 CZ 93.76 NH1 55.98 NH2 87.21
A MET - 17 -56.4 143.4 N 11.07 CA 11.61 C 12.64 O 14.0 CB 10.77 CG 10.69 SD 11.4 CE 9.49
A PRO S 82 -70.7 -14.7 N 12.49 CA 13.75 C 15.13 O 20.63 CB 18.53 CG 23.59 CD 14.99
A SER S 71 -158.0 166.2 N 14.82 CA 15.82 C 13.36 O 11.38 CB 16.92 OG 15.33
A LEU - 92 -62.5 163.6 N 14.41 CA 14.44 C 12.39 O 13.22 CB 18.14 CG 21.03 CD1 27.04 CD2 25.64
A PRO - 6 -58.3 153.1 N 12.3 CA 11.85 C 12.94 O 14.74 CB 13.58 CG 13.94 CD 12.88
A SER - 98 -122.0 33.4 N 12.52 CA 13.74 C 13.75 O 21.17 CB 21.37 OG 27.39
A TYR - 31 -73.7 168.6 N 11.56 CA 12.08 C 16.29 O 17.67 CB 12.37 CG 10.85 CD1 14.8 CD2 13.44 CE1 15.13 CE2 13.25 CZ 11.79 OH 16.14
A LYS - 129 -127.3 127.0 N 13.08 CA 15.95 C 13.91 O 13.13 CB 20.09 CG 33.3 CD 66.05 CE 41.69 NZ 25.5
A VAL T 89 -51.5 130.1 N 13.74 CA 12.61 C 14.1 O 16.19 CB 13.17 CG1 17.76 CG2 15.89
A GLY T 51 91.3 -17.2 N 14.79 CA 16.54 C 17.21 O 24.54
A ASP - 68 -70.9 163.3 N 15.32 CA 16.57 C 13.79 O 20.2 CB 17.31 CG 30.27 OD1 32.09 OD2 24.48
A LYS E 126 -117.8 133.8 N 14.81 CA 16.98 C 13.94 O 17.69 CB 22.21 CG 26.22 CD 87.64 CE 25.79 NZ 49.71
A ILE E 19 -152.4 147.0 N 10.12 CA 8.27 C 7.43 O 8.66 CB 9.84 CG1 10.28 CG2 12.65 CD1 10.83
A ALA E 6 -75.6 142.3 N 6.79 CA 6.34 C 5.9 O 6.11 CB 7.04
A THR H 6 -64.8 -26.0 N 5.21 CA 5.65 C 5.16 O 5.78 CB 5.45 OG1 5.83 CG2 6.94
A ARG H 43 -60.9 -38.5 N 5.09 CA 5.43 C 5.62 O 6.13 CB 5.65 CG 5.84 CD 6.27 NE 6.46 CZ 6.48 NH1 8.41 NH2 8.12
A LYS H 70 -77.0 -36.3 N 5.26 CA 6.61 C 5.4 O 8.23 CB 6.91 CG 8.13 CD 13.11 CE 15.66 NZ 20.81
A ALA H 0 -60.2 -36.5 N 5.93 CA 5.91 C 6.36 O 6.27 CB 6.23
A TYR H 0 -58.8 -51.1 N 5.51 CA 5.07 C 5.49 O 5.83 CB 5.66 CG 5.08 CD1 6.14 CD2 5.95 CE1 6.66 CE2 6.04 CZ 6.02 OH 7.01
A GLY H 0 -62.9 -40.1 N 5.83 CA 6.19 C 5.96 O 6.37
A GLN H 75 -60.7 -45.7 N 5.92 CA 6.11 C 6.53 O 6.95 CB 6.78 CG 7.83 CD 10.08 OE1 14.48 NE2 13.28
A ALA H 0 -68.3 -39.0 N 5.51 CA 5.68 C 6.04 O 6.67 CB 6.46
A LEU H 0 -66.7 -43.2 N 5.78 CA 6.31 C 6.21 O 6.84 CB 8.08 CG 12.91 CD1 18.31 CD2 17.4
A ALA H 1 -60.7 -41.8 N 6.28 CA 6.64 C 6.52 O 7.87 CB 7.57
A LYS H 33 -61.7 -46.7 N 7.0 CA 7.55 C 8.1 O 9.12 CB 8.67 CG 12.15 CD 12.56 CE 12.08 NZ 13.24
A LEU H 0 -62.7 -33.9 N 7.69 CA 9.11 C 8.88 O 10.47 CB 9.86 CG 10.52 CD1 12.53 CD2 14.98
A GLY H 1 -60.8 -24.0 N 8.05 CA 7.75 C 8.58 O 11.18
A HIS H 121 -74.6 -21.6 N 8.83 CA 11.49 C 13.39 O 16.9 CB 12.57 CG 11.24 ND1 14.6 CD2 12.31 CE1 13.71 NE2 13.52
A ALA H 48 -88.8 -25.5 N 14.33 CA 15.77 C 14.58 O 16.93 CB 21.13
A SER - 13 -149.0 137.0 N 16.76 CA 17.88 C 13.54 O 11.99 CB 35.0 OG 34.44
A ASP T 132 -76.3 -8.3 N 16.42 CA 16.16 C 11.88 O 14.25 CB 24.1 CG 46.8 OD1 51.34 OD2 66.18
A ARG T 40 -73.2 -23.6 N 11.09 CA 9.72 C 6.66 O 7.01 CB 11.78 CG 20.76 CD 20.07 NE 14.51 CZ 18.95 NH1 24.21 NH2 20.39
A ILE E 0 -73.6 129.0 N 6.38 CA 5.65 C 5.81 O 6.84 CB 7.27 CG1 8.82 CG2 8.77 CD1 9.87
A ILE E 2 -127.9 156.3 N 5.37 CA 5.02 C 4.77 O 5.59 CB 5.92 CG1 5.57 CG2 6.97 CD1 7.24
A ALA E 0 -127.0 140.2 N 4.6 CA 4.61 C 4.03 O 5.64 CB 5.79
A LEU E 0 -130.2 145.4 N 3.9 CA 3.85 C 3.81 O 4.59 CB 4.22 CG 4.69 CD1 6.1 CD2 6.96
A ASP E 0 -153.1 152.0 N 4.2 CA 4.16 C 4.21 O 8.06 CB 5.59 CG 6.11 OD1 7.83 OD2 6.48
A GLY S 1 -105.4 67.6 N 4.93 CA 5.05 C 4.22 O 5.01
A ASP S 80 59.1 28.5 N 4.31 CA 4.18 C 4.27 O 6.27 CB 4.7 CG 4.58 OD1 5.49 OD2 4.78
A THR - 18 -126.0 15.8 N 4.18 CA 4.74 C 4.83 O 5.73 CB 6.04 OG1 7.66 CG2 7.28
A LYS H 48 -61.4 -29.3 N 4.52 CA 4.91 C 5.21 O 6.07 CB 5.23 CG 5.41 CD 6.82 CE 8.06 NZ 8.16
A ASN H 96 -75.7 -21.9 N 5.52 CA 5.7 C 8.55 O 15.57 CB 7.6 CG 6.56 OD1 6.59 ND2 9.85
A SER H 26 -89.3 -39.9 N 6.84 CA 7.52 C 5.64 O 6.5 CB 11.29 OG 15.11
A THR H 2 -85.9 -15.7 N 5.49 CA 5.23 C 5.27 O 6.22 CB 5.45 OG1 5.82 CG2 6.47
A PHE S 30 71.2 16.1 N 5.42 CA 5.79 C 5.56 O 6.04 CB 5.59 CG 6.58 CD1 10.02 CD2 6.96 CE1 11.22 CE2 8.66 CZ 10.81
A SER T 0 -63.7 -16.4 N 5.64 CA 5.69 C 5.44 O 6.6 CB 5.56 OG 6.79
A GLU H 76 -57.4 -26.8 N 5.44 CA 6.17 C 6.43 O 7.59 CB 6.92 CG 8.22 CD 11.33 OE1 12.33 OE2 15.94
A ILE H 36 -65.3 -43.1 N 6.64 CA 7.38 C 8.2 O 10.52 CB 8.41 CG1 8.3 CG2 12.77 CD1 10.15
A PHE H 0 -60.3 -44.9 N 7.33 CA 7.86 C 7.91 O 9.49 CB 7.35 CG 6.3 CD1 7.3 CD2 7.13 CE1 8.63 CE2 8.52 CZ 9.15
A LYS H 87 -56.5 -42.1 N 6.94 CA 7.63 C 8.21 O 9.74 CB 7.7 CG 9.87 CD 12.44 CE 20.66 NZ 33.93
A LYS H 174 -61.5 -43.5 N 8.4 CA 9.48 C 8.92 O 11.78 CB 11.21 CG 18.85 CD 25.35 CE 66.92 NZ 77.01
A GLU H 91 -84.1 -31.0 N 8.32 CA 9.05 C 7.81 O 10.39 CB 10.25 CG 13.3 CD 13.86 OE1 15.31 OE2 21.14
A HIS - 15 -134.2 55.2 N 6.96 CA 6.81 C 6.77 O 6.55 CB 7.39 CG 7.04 ND1 8.9 CD2 7.44 CE1 9.05 NE2 8.36
A PRO G 74 -60.6 -31.9 N 7.3 CA 8.0 C 6.73 O 7.82 CB 10.8 CG 10.47 CD 9.05
A ASP G 142 -68.8 -13.6 N 6.84 CA 7.14 C 6.44 O 7.45 CB 10.52 CG 19.41 OD1 27.95 OD2 30.7
A ARG G 30 -113.7 14.2 N 5.36 CA 5.28 C 5.23 O 5.78 CB 5.67 CG 6.67 CD 7.81 NE 8.87 CZ 9.24 NH1 10.21 NH2 13.06
A PHE E 11 -106.3 134.4 N 4.72 CA 4.72 C 4.48 O 6.04 CB 5.57 CG 5.52 CD1 7.87 CD2 6.59 CE1 9.25 CE2 7.32 CZ 8.22
A ILE E 0 -118.2 108.9 N 4.11 CA 4.47 C 4.21 O 4.98 CB 5.01 CG1 5.89 CG2 6.42 CD1 6.74
A GLU E 12 -72.3 116.8 N 4.51 CA 4.21 C 4.15 O 5.56 CB 4.9 CG 6.04 CD 6.06 OE1 8.3 OE2 7.97
A CYS - 5 -101.3 -6.3 N 4.19 CA 4.25 C 4.53 O 5.6 CB 5.55 SG 6.1
A TYR - 111 65.7 -169.2 N 4.02 CA 4.19 C 3.91 O 4.72 CB 5.19 CG 5.57 CD1 6.43 CD2 6.15 CE1 7.28 CE2 6.66 CZ 7.16 OH 10.52
A ILE S 124 -87.1 79.1 N 3.7 CA 3.73 C 3.76 O 4.28 CB 3.77 CG1 4.65 CG2 4.79 CD1 5.48
A ALA - 12 -161.8 70.2 N 3.84 CA 3.74 C 3.91 O 4.57 CB 4.43
A GLU H 11 -65.5 -36.0 N 3.72 CA 3.81 C 3.42 O 4.18 CB 4.45 CG 5.28 CD 4.46 OE1 4.79 OE2 5.7
A GLN H 38 -57.6 -54.7 N 3.9 CA 4.1 C 4.04 O 4.51 CB 5.0 CG 5.25 CD 10.82 OE1 7.27 NE2 37.28
A ASN H 3 -63.6 -38.9 N 3.82 CA 3.97 C 4.12 O 4.52 CB 4.59 CG 4.0 OD1 4.89 ND2 6.4
A MET H 0 -55.1 -47.7 N 3.94 CA 4.14 C 3.61 O 4.3 CB 4.5 CG 5.46 SD 7.26 CE 11.9
A VAL H 0 -61.5 -44.0 N 3.6 CA 3.58 C 3.72 O 4.03 CB 3.84 CG1 4.41 CG2 4.3
A SER H 8 -63.1 -38.7 N 3.59 CA 3.63 C 4.11 O 4.52 CB 4.59 OG 5.66
A ILE H 0 -58.5 -46.8 N 4.3 CA 4.43 C 4.23 O 4.86 CB 4.84 CG1 6.0 CG2 5.45 CD1 6.51
A ALA H 0 -59.2 -46.5 N 4.3 CA 4.38 C 4.07 O 4.66 CB 5.01
A VAL H 10 -57.0 -46.5 N 3.99 CA 4.18 C 3.98 O 4.75 CB 5.07 CG1 6.26 CG2 5.44
A GLY H 1 -62.9 -40.4 N 4.24 CA 4.62 C 5.03 O 5.8
A CYS H 0 -64.6 -30.5 N 4.75 CA 5.1 C 4.91 O 6.39 CB 5.53 SG 6.01
A ALA H 9 -81.3 -16.3 N 4.8 CA 4.79 C 5.03 O 6.1 CB 5.43
A THR G 15 -60.2 146.4 N 4.91 CA 5.64 C 5.84 O 5.91 CB 6.18 OG1 6.82 CG2 6.22
A ARG G 41 56.2 24.7 N 6.3 CA 6.59 C 6.99 O 7.75 CB 7.35 CG 9.61 CD 9.48 NE 16.8 CZ 8.0 NH1 9.42 NH2 10.97
A ASN G 103 56.5 32.7 N 6.91 CA 7.63 C 7.32 O 9.21 CB 9.69 CG 14.39 OD1 17.28 ND2 23.73
A ARG - 23 -75.8 -28.4 N 6.24 CA 6.78 C 7.22 O 11.24 CB 7.13 CG 7.02 CD 7.78 NE 7.76 CZ 8.17 NH1 9.88 NH2 9.48
A THR - 10 -145.4 168.6 N 5.65 CA 5.79 C 5.3 O 5.97 CB 6.89 OG1 7.92 CG2 10.24
A VAL E 15 -119.2 90.7 N 5.09 CA 5.14 C 5.1 O 5.42 CB 5.42 CG1 6.58 CG2 6.97
A PRO E 0 -81.6 140.0 N 3.74 CA 3.7 C 3.46 O 4.97 CB 3.75 CG 4.71 CD 6.17
A PHE E 0 -120.7 110.8 N 4.22 CA 4.07 C 4.43 O 5.26 CB 4.88 CG 5.3 CD1 5.47 CD2 5.96 CE1 6.13 CE2 6.84 CZ 6.65
A CYS E 0 -93.0 144.8 N 3.96 CA 4.66 C 4.12 O 4.26 CB 6.66 SG 8.2
A SER E 0 -144.8 149.4 N 5.02 CA 5.38 C 4.79 O 5.54 CB 6.51 OG 7.25
A THR E 0 -164.7 -171.4 N 4.74 CA 4.41 C 4.13 O 4.71 CB 5.44 OG1 7.33 CG2 7.05
A PHE E 15 -68.1 139.2 N 4.12 CA 4.19 C 4.44 O 4.8 CB 4.92 CG 5.89 CD1 14.69 CD2 7.66 CE1 16.38 CE2 8.83 CZ 9.12
A ALA G 0 -54.3 -35.3 N 4.24 CA 4.53 C 4.46 O 5.57 CB 5.91
A ALA G 7 -58.4 -36.3 N 4.18 CA 5.11 C 4.5 O 6.08 CB 5.83
A PHE G 54 -83.3 -9.2 N 4.54 CA 4.7 C 4.55 O 5.39 CB 5.27 CG 5.93 CD1 6.58 CD2 6.85 CE1 8.28 CE2 7.59 CZ 8.48
A PHE G 0 -66.5 -20.0 N 4.58 CA 5.02 C 4.34 O 5.06 CB 5.41 CG 5.34 CD1 5.79 CD2 8.16 CE1 7.01 CE2 8.55 CZ 7.68
A THR G 64 -61.1 -25.1 N 4.28 CA 4.07 C 4.13 O 5.73 CB 5.13 OG1 4.85 CG2 6.71
A ARG G 152 -65.9 -24.2 N 3.88 CA 4.53 C 3.55 O 5.23 CB 4.84 CG 5.69 CD 5.49 NE 4.05 CZ 4.62 NH1 4.2 NH2 4.71
A ALA G 0 -111.7 17.8 N 3.61 CA 3.83 C 3.49 O 3.75 CB 4.6
A PHE H 77 -59.2 -41.4 N 3.57 CA 3.45 C 3.09 O 3.71 CB 3.74 CG 3.84 CD1 4.96 CD2 5.22 CE1 5.65 CE2 6.26 CZ 6.03
A ASP H 57 -65.3 -36.5 N 3.15 CA 3.27 C 3.07 O 3.73 CB 3.44 CG 3.6 OD1 5.04 OD2 5.84
A GLN H 5 -63.3 -39.9 N 3.11 CA 3.47 C 3.08 O 4.0 CB 3.55 CG 3.52 CD 3.64 OE1 4.31 NE2 4.38
A ILE H 0 -66.6 -43.9 N 3.31 CA 3.53 C 3.45 O 4.1 CB 3.96 CG1 4.3 CG2 5.74 CD1 5.63
A ARG H 115 -57.1 -49.0 N 3.91 CA 3.94 C 3.9 O 4.53 CB 4.65 CG 5.12 CD 4.56 NE 4.66 CZ 4.32 NH1 5.09 NH2 5.59
A MET H 11 -68.5 -27.7 N 3.84 CA 3.97 C 4.1 O 4.7 CB 4.53 CG 5.52 SD 7.0 CE 10.36
A ALA H 2 -63.2 -38.8 N 4.09 CA 3.81 C 3.64 O 4.25 CB 4.35
A ALA H 8 -68.8 -40.0 N 3.89 CA 4.21 C 3.71 O 4.38 CB 5.21
A ILE H 71 -63.2 -28.7 N 3.8 CA 3.88 C 4.12 O 5.18 CB 4.08 CG1 4.09 CG2 5.05 CD1 5.83
A SER T 9 -82.3 1.9 N 3.84 CA 4.24 C 4.12 O 5.1 CB 4.57 OG 5.35
A GLU T 124 54.0 37.0 N 4.42 CA 4.62 C 4.35 O 6.27 CB 6.13 CG 7.8 CD 11.42 OE1 15.82 OE2 17.77
A SER - 9 -82.7 144.6 N 4.51 CA 4.59 C 4.54 O 6.11 CB 5.38 OG 5.98
A ASN - 54 -104.5 87.2 N 4.25 CA 4.65 C 4.45 O 5.62 CB 5.14 CG 5.7 OD1 6.36 ND2 7.92
A ILE E 0 -123.2 156.5 N 4.89 CA 4.57 C 4.12 O 5.21 CB 5.85 CG1 6.39 CG2 6.74 CD1 7.93
A ASN E 5 -120.3 127.4 N 4.27 CA 4.17 C 4.4 O 5.55 CB 4.71 CG 4.92 OD1 5.74 ND2 6.24
A LEU E 0 -115.8 133.7 N 4.18 CA 3.37 C 4.13 O 5.45 CB 3.62 CG 4.7 CD1 19.05 CD2 13.61
A CYS E 1 -124.4 118.1 N 4.37 CA 4.26 C 4.24 O 4.93 CB 5.85 SG 7.02
A GLY E 0 -110.6 118.5 N 4.53 CA 4.5 C 4.64 O 5.17
A SER E 0 -87.8 179.3 N 5.1 CA 5.05 C 3.66 O 3.25 CB 4.91 OG 6.5
A HIS S 5 62.8 39.5 N 4.94 CA 5.07 C 4.91 O 5.85 CB 5.05 CG 5.81 ND1 6.51 CD2 6.36 CE1 6.75 NE2 6.53
A CYS B 0 -76.4 145.7 N 5.11 CA 5.32 C 5.39 O 5.78 CB 6.66 SG 7.16
A GLY S 0 75.9 -177.2 N 6.68 CA 6.23 C 5.69 O 7.28
A VAL G 0 -70.4 -15.6 N 5.3 CA 5.62 C 5.54 O 6.33 CB 5.72 CG1 7.67 CG2 6.59
A SER G 1 -68.0 -5.8 N 5.43 CA 5.34 C 5.52 O 6.58 CB 6.08 OG 6.58
A ILE G 3 -65.1 -24.7 N 5.39 CA 5.26 C 5.33 O 5.99 CB 5.83 CG1 5.73 CG2 7.28 CD1 7.03
A GLY - 0 79.7 -114.7 N 5.26 CA 5.67 C 5.38 O 6.5
A GLU T 92 -75.3 -22.3 N 5.27 CA 5.03 C 5.06 O 5.08 CB 5.95 CG 8.15 CD 12.39 OE1 13.17 OE2 21.08
A ASP T 101 -63.0 -25.9 N 4.92 CA 4.91 C 5.46 O 6.36 CB 5.57 CG 6.16 OD1 7.1 OD2 7.39
A GLY - 2 88.7 -178.4 N 5.31 CA 5.5 C 4.52 O 4.93
A PRO G 49 -67.0 -27.4 N 4.38 CA 4.77 C 4.62 O 4.92 CB 6.01 CG 5.95 CD 5.34
A SER G 80 -52.8 -33.0 N 6.24 CA 4.98 C 4.94 O 7.12 CB 4.85 OG 4.89
A GLN G 44 -94.4 -10.0 N 5.07 CA 4.87 C 6.01 O 6.92 CB 5.15 CG 5.7 CD 6.34 OE1 7.03 NE2 8.51
A MET - 3 -89.0 119.7 N 4.78 CA 4.77 C 5.07 O 7.4 CB 5.6 CG 5.18 SD 6.37 CE 7.8
A ALA B 0 -82.0 114.1 N 5.01 CA 4.76 C 4.35 O 5.05 CB 5.69
A LEU S 2 -128.2 2.1 N 4.05 CA 4.37 C 3.98 O 4.51 CB 4.91 CG 5.39 CD1 8.64 CD2 7.29
A GLU S 67 -135.7 4.0 N 4.21 CA 4.2 C 4.61 O 5.35 CB 5.09 CG 5.73 CD 6.33 OE1 7.41 OE2 7.82
A ASP H 0 -73.1 -31.6 N 4.73 CA 4.97 C 4.89 O 5.55 CB 5.88 CG 5.97 OD1 6.46 OD2 8.26
A LEU H 0 -67.2 -42.9 N 5.82 CA 6.13 C 5.77 O 6.49 CB 6.04 CG 7.04 CD1 9.35 CD2 9.17
A ALA H 31 -56.4 -49.5 N 5.88 CA 6.77 C 5.64 O 6.4 CB 7.4
A MET H 11 -58.8 -57.8 N 7.05 CA 4.79 C 4.27 O 6.21 CB 10.37 CG 15.99 SD 13.94 CE 16.41
A PHE H 0 -70.8 -32.1 N 4.25 CA 4.43 C 4.78 O 5.57 CB 4.74 CG 4.6 CD1 5.49 CD2 5.24 CE1 6.24 CE2 5.51 CZ 6.1
A ARG H 68 -63.7 -30.2 N 4.36 CA 4.71 C 4.8 O 6.02 CB 5.12 CG 5.33 CD 6.53 NE 7.14 CZ 7.89 NH1 9.46 NH2 9.73
A SER T 73 -77.8 -5.2 N 5.05 CA 5.51 C 6.58 O 12.04 CB 6.15 OG 7.94
A VAL S 3 -86.9 118.7 N 5.42 CA 5.61 C 5.6 O 6.44 CB 6.06 CG1 7.78 CG2 7.26
A PRO T 107 -60.7 -31.6 N 5.89 CA 9.59 C 10.14 O 15.81 CB 16.32 CG 12.8 CD 7.42
A THR T 53 -95.0 14.0 N 9.37 CA 9.0 C 7.48 O 8.7 CB 9.27 OG1 11.36 CG2 10.38
A SER E 8 -83.4 153.9 N 5.49 CA 5.17 C 5.0 O 6.03 CB 5.35 OG 5.48
A THR E 14 -124.7 126.9 N 4.95 CA 5.55 C 5.18 O 6.42 CB 6.21 OG1 8.18 CG2 7.29
A VAL E 0 -115.0 110.5 N 5.13 CA 4.81 C 5.01 O 5.96 CB 5.83 CG1 7.55 CG2 6.98
A PHE E 0 -97.8 136.1 N 4.81 CA 5.18 C 4.84 O 5.88 CB 5.8 CG 5.75 CD1 5.94 CD2 6.25 CE1 6.99 CE2 6.95 CZ 7.12
A TYR - 0 -132.2 80.2 N 5.15 CA 5.22 C 5.84 O 7.32 CB 6.05 CG 5.6 CD1 6.26 CD2 5.67 CE1 6.0 CE2 5.91 CZ 5.74 OH 6.42
A PRO - 0 -72.5 141.2 N 5.8 CA 6.42 C 6.29 O 7.81 CB 7.42 CG 6.81 CD 5.87
A SER - 0 -101.3 -11.4 N 6.5 CA 6.81 C 6.62 O 8.74 CB 7.1 OG 8.46
A ASP S 1 -148.9 179.2 N 6.46 CA 6.33 C 6.34 O 6.34 CB 7.55 CG 7.72 OD1 8.55 OD2 9.27
A GLY H 0 -64.5 -37.6 N 6.52 CA 6.73 C 6.33 O 7.08
A VAL H 0 -62.5 -49.7 N 6.81 CA 6.67 C 6.42 O 6.66 CB 7.25 CG1 8.33 CG2 8.16
A ALA H 0 -59.9 -34.9 N 6.37 CA 6.48 C 5.5 O 6.06 CB 6.69
A THR H 0 -64.4 -48.0 N 5.46 CA 5.42 C 5.52 O 5.86 CB 5.62 OG1 6.36 CG2 5.97
A GLU H 7 -58.6 -43.4 N 5.75 CA 5.82 C 6.07 O 6.44 CB 6.95 CG 7.73 CD 9.95 OE1 11.93 OE2 13.45
A LYS H 26 -66.4 -36.4 N 6.52 CA 7.27 C 6.23 O 7.72 CB 9.35 CG 15.73 CD 22.15 CE 13.17 NZ 13.07
A ALA H 0 -62.7 -41.6 N 6.29 CA 6.38 C 5.79 O 6.31 CB 6.83
A VAL H 0 -60.7 -46.2 N 5.39 CA 5.67 C 5.7 O 6.0 CB 5.74 CG1 6.78 CG2 6.41
A GLU H 39 -63.4 -46.5 N 6.01 CA 6.47 C 6.17 O 6.87 CB 7.96 CG 9.59 CD 9.68 OE1 12.01 OE2 13.98
A LEU H 31 -62.6 -44.2 N 5.95 CA 6.11 C 5.97 O 6.95 CB 6.63 CG 7.3 CD1 8.28 CD2 8.96
A ALA H 0 -56.3 -45.3 N 5.6 CA 5.59 C 5.29 O 5.81 CB 5.96
A ALA H 13 -54.7 -34.3 N 5.85 CA 6.05 C 6.37 O 7.51 CB 7.6
A ASN T 53 -99.5 9.9 N 6.49 CA 8.3 C 8.4 O 13.44 CB 9.75 CG 10.09 OD1 14.54 ND2 12.57
A THR - 38 -112.0 132.0 N 6.61 CA 6.95 C 6.12 O 7.14 CB 7.48 OG1 8.76 CG2 9.8
A LYS - 163 -72.3 160.7 N 6.58 CA 6.64 C 6.37 O 8.83 CB 8.7 CG 15.94 CD 24.79 CE 155.56 NZ 67.73
A GLY S 8 92.4 -165.7 N 6.24 CA 6.03 C 5.8 O 7.97
A ILE E 0 -87.0 102.9 N 5.08 CA 4.49 C 5.03 O 8.14 CB 5.07 CG1 5.32 CG2 6.28 CD1 6.03
A CYS E 0 -94.8 130.1 N 4.82 CA 4.91 C 4.83 O 7.3 CB 6.13 SG 7.67
A PHE E 0 -119.9 131.4 N 4.46 CA 4.13 C 4.24 O 5.19 CB 4.79 CG 4.76 CD1 5.7 CD2 6.06 CE1 6.58 CE2 7.27 CZ 6.65
A ILE E 1 -117.9 118.1 N 4.19 CA 4.53 C 4.15 O 4.74 CB 4.68 CG1 5.94 CG2 6.35 CD1 7.77
A ARG E 0 -92.2 113.2 N 4.44 CA 4.5 C 4.88 O 6.08 CB 5.12 CG 5.64 CD 7.17 NE 6.44 CZ 5.36 NH1 6.94 NH2 5.79
A THR - 1 -110.2 163.8 N 4.89 CA 4.97 C 4.89 O 5.79 CB 5.5 OG1 6.86 CG2 6.96
A SER - 1 -124.5 149.0 N 5.63 CA 6.16 C 5.99 O 6.18 CB 7.73 OG 7.83
A ARG S 91 -78.2 -47.1 N 7.21 CA 7.73 C 7.76 O 9.44 CB 7.69 CG 7.73 CD 8.03 NE 8.77 CZ 14.9 NH1 24.1 NH2 21.21
A PRO S 31 -78.6 159.2 N 8.36 CA 9.99 C 9.05 O 10.17 CB 12.71 CG 12.18 CD 8.94
A GLU E 110 -74.9 134.9 N 10.38 CA 9.39 C 11.02 O 15.0 CB 11.35 CG 13.49 CD 31.56 OE1 35.71 OE2 53.16
A ASN E 26 -131.9 162.7 N 10.16 CA 11.2 C 9.5 O 9.45 CB 16.07 CG 19.56 OD1 46.66 ND2 23.69
A ALA E 27 -66.3 145.6 N 10.32 CA 9.96 C 8.98 O 12.61 CB 16.02
A ILE - 3 -72.5 127.2 N 9.17 CA 8.48 C 9.26 O 10.63 CB 9.2 CG1 10.3 CG2 10.65 CD1 12.25
A ILE - 49 -115.7 -19.9 N 8.51 CA 8.95 C 8.53 O 12.28 CB 10.94 CG1 12.05 CG2 13.86 CD1 14.06
A TYR S 11 -99.8 141.4 N 8.39 CA 8.39 C 7.84 O 8.45 CB 8.23 CG 7.74 CD1 8.82 CD2 7.51 CE1 8.99 CE2 8.0 CZ 8.4 OH 10.33
A ASN - 94 -60.9 149.6 N 8.74 CA 8.57 C 9.45 O 9.96 CB 8.64 CG 8.05 OD1 9.9 ND2 9.84
A ASN T 44 -62.3 -27.2 N 10.23 CA 12.21 C 10.61 O 11.82 CB 13.17 CG 11.32 OD1 15.5 ND2 10.85
A ASN T 117 -94.8 16.9 N 8.38 CA 9.79 C 11.01 O 12.46 CB 10.28 CG 8.87 OD1 14.93 ND2 9.43
A GLU - 59 -67.1 131.0 N 10.26 CA 10.92 C 12.05 O 12.64 CB 11.64 CG 13.78 CD 14.92 OE1 18.57 OE2 18.61
A ASP - 81 -81.1 131.6 N 14.43 CA 13.88 C 11.39 O 14.97 CB 20.82 CG 41.49 OD1 47.15 OD2 68.97
A PHE - 3 -121.4 143.6 N 9.27 CA 8.59 C 8.42 O 9.72 CB 9.84 CG 8.95 CD1 10.0 CD2 10.69 CE1 10.64 CE2 13.02 CZ 10.29
A GLN - 85 -143.5 150.9 N 7.86 CA 9.45 C 8.01 O 8.36 CB 10.32 CG 11.64 CD 14.19 OE1 21.45 NE2 19.1
A VAL T 50 -60.8 133.8 N 8.56 CA 8.2 C 8.12 O 9.81 CB 8.71 CG1 9.89 CG2 9.81
A GLY T 22 75.7 15.6 N 8.94 CA 8.67 C 9.32 O 12.28
A GLN - 67 -119.5 115.7 N 9.49 CA 9.57 C 9.49 O 10.23 CB 10.39 CG 14.7 CD 15.57 OE1 19.09 NE2 22.92
A ALA - 4 -84.3 174.9 N 8.41 CA 8.67 C 8.11 O 10.23 CB 8.94
A LYS E 26 -130.0 133.5 N 8.38 CA 8.84 C 8.66 O 9.84 CB 10.16 CG 13.44 CD 14.09 CE 13.76 NZ 16.61
A VAL E 44 -89.4 112.0 N 10.05 CA 10.72 C 11.23 O 14.28 CB 13.46 CG1 15.9 CG2 17.32
A VAL E 39 -96.5 -13.3 N 10.67 CA 11.14 C 12.59 O 15.99 CB 12.19 CG1 13.12 CG2 13.4
A LEU E 65 -150.8 130.8 N 12.41 CA 13.73 C 14.08 O 14.19 CB 15.55 CG 15.27 CD1 22.48 CD2 19.76
A LYS - 148 -153.7 157.6 N 15.39 CA 16.41 C 22.15 O 24.35 CB 17.8 CG 19.48 CD 23.97 CE 48.46 NZ 70.22
A SER - 37 -149.9 170.1 N 22.51 CA 28.04 C 30.87 O 37.79 CB 32.5 OG 30.55
A LYS T 187 -78.1 -18.4 N 47.05 CA 51.89 C 37.49 O 65.12 CB 85.22 CG 98.73 CD 86.1 CE 83.93 NZ 99.14
A ASP T 122 -110.5 43.1 N 32.45 CA 26.68 C 28.1 O 29.17 CB 47.02 CG 91.44 OD1 114.28 OD2 91.83
A ASP E 2 -72.8 137.2 N 22.51 CA 19.02 C 20.71 O 22.41 CB 18.72 CG 17.81 OD1 20.22 OD2 19.69
A GLN E 40 -102.8 -17.4 N 19.41 CA 19.99 C 19.23 O 20.93 CB 23.06 CG 39.96 CD 46.11 OE1 79.08 NE2 59.08
A VAL E 0 -162.0 150.9 N 16.82 CA 12.72 C 13.02 O 14.95 CB 12.48 CG1 13.46 CG2 14.65
A THR E 0 -93.1 115.4 N 13.09 CA 11.81 C 11.36 O 12.74 CB 12.81 OG1 14.69 CG2 13.13
A VAL E 0 -102.8 121.3 N 10.19 CA 10.0 C 8.93 O 10.1 CB 10.52 CG1 11.67 CG2 13.39
A ILE E 0 -102.8 118.2 N 8.01 CA 7.53 C 7.57 O 8.78 CB 7.95 CG1 9.09 CG2 8.62 CD1 11.75
A GLY - 0 -133.5 173.9 N 7.67 CA 7.48 C 6.77 O 8.11
A ALA - 0 -155.2 149.8 N 6.48 CA 6.28 C 5.92 O 6.46 CB 7.86
A GLY T 1 50.9 -129.3 N 6.79 CA 6.9 C 6.35 O 7.03
A VAL H 5 -59.6 -34.1 N 6.09 CA 6.51 C 5.93 O 8.68 CB 6.94 CG1 6.39 CG2 7.9
A THR H 0 -74.5 -19.9 N 6.1 CA 6.47 C 6.87 O 8.37 CB 6.26 OG1 6.56 CG2 6.86
A LEU H 0 -64.1 -47.1 N 7.1 CA 7.29 C 7.72 O 8.63 CB 7.52 CG 8.89 CD1 9.93 CD2 10.87
A HIS H 21 -64.7 -38.0 N 7.31 CA 8.62 C 8.58 O 10.08 CB 8.62 CG 8.6 ND1 10.58 CD2 8.39 CE1 10.83 NE2 9.02
A GLU H 21 -64.2 -37.5 N 8.16 CA 8.57 C 8.82 O 10.95 CB 8.54 CG 9.67 CD 10.21 OE1 11.76 OE2 14.7
A ALA H 0 -65.2 -41.5 N 8.69 CA 9.88 C 10.35 O 11.63 CB 9.91
A LEU H 39 -61.4 -38.9 N 10.47 CA 11.07 C 11.45 O 14.09 CB 10.98 CG 11.87 CD1 14.34 CD2 14.22
A ALA H 17 -69.5 -37.2 N 11.98 CA 13.02 C 12.06 O 14.61 CB 12.58
A ALA H 0 -60.2 -40.4 N 11.81 CA 12.83 C 13.71 O 16.36 CB 12.93
A ALA H 5 -60.8 -40.6 N 14.86 CA 16.17 C 16.81 O 20.99 CB 17.01
A GLU H 131 -66.2 -38.2 N 18.47 CA 19.75 C 19.51 O 27.14 CB 23.55 CG 58.99 CD 64.02 OE1 31.97 OE2 66.6
A LEU H 40 -60.7 -46.2 N 19.99 CA 21.44 C 20.2 O 26.74 CB 21.88 CG 41.8 CD1 79.64 CD2 29.09
A LEU H 0 -71.6 -29.1 N 19.08 CA 19.66 C 21.71 O 21.79 CB 19.55 CG 18.79 CD1 19.44 CD2 21.23
A LYS H 130 -55.2 -35.5 N 25.44 CA 24.13 C 22.2 O 24.53 CB 32.32 CG 185.75 CD 37.44 CE 36.22 NZ 38.24
A LYS T 169 -59.8 -28.9 N 28.13 CA 27.76 C 29.57 O 33.26 CB 44.8 CG 110.24 CD 108.57 CE 99.22 NZ 79.89
A GLU T 86 -99.2 4.0 N 28.98 CA 26.1 C 25.81 O 28.48 CB 41.68 CG 61.1 CD 53.72 OE1 48.54 OE2 57.7
A LYS T 190 59.1 35.3 N 27.93 CA 27.73 C 31.67 O 32.94 CB 33.04 CG 36.22 CD 45.36 CE 24.01 NZ 95.33
A ILE - 24 -113.9 121.5 N 20.69 CA 19.47 C 17.3 O 19.72 CB 21.5 CG1 21.93 CG2 23.08 CD1 21.21
A ASN E 42 -96.5 139.8 N 17.7 CA 18.97 C 18.1 O 19.83 CB 22.61 CG 29.03 OD1 40.06 ND2 35.55
A ILE E 2 -126.3 146.1 N 16.47 CA 14.0 C 14.38 O 16.19 CB 15.94 CG1 17.0 CG2 18.93 CD1 16.68
A ARG E 29 -86.5 137.1 N 13.51 CA 12.86 C 12.38 O 16.89 CB 13.97 CG 14.96 CD 16.9 NE 18.19 CZ 18.47 NH1 22.37 NH2 21.24
A VAL E 0 -122.9 126.7 N 11.2 CA 9.93 C 9.3 O 9.81 CB 11.19 CG1 10.51 CG2 12.52
A LEU E 0 -124.1 130.2 N 8.91 CA 9.06 C 8.55 O 9.08 CB 9.62 CG 10.29 CD1 13.63 CD2 10.51
A ASP E 0 -106.4 109.2 N 7.86 CA 7.58 C 6.85 O 8.16 CB 8.21 CG 8.43 OD1 9.76 OD2 9.01
A PRO - 0 -58.0 -35.9 N 8.13 CA 10.18 C 7.84 O 6.09 CB 9.56 CG 8.98 CD 5.86
A PHE S 0 73.8 -64.3 N 6.76 CA 6.64 C 6.4 O 7.35 CB 6.97 CG 6.81 CD1 7.45 CD2 7.08 CE1 7.39 CE2 7.8 CZ 7.19
A THR E 0 -105.5 132.4 N 6.48 CA 6.46 C 6.56 O 8.88 CB 6.98 OG1 8.27 CG2 7.83
A ILE E 2 -81.6 -29.2 N 6.71 CA 6.59 C 7.07 O 8.69 CB 7.1 CG1 7.17 CG2 8.92 CD1 7.01
A LYS E 50 -140.2 113.8 N 6.57 CA 6.34 C 6.67 O 6.75 CB 6.62 CG 6.86 CD 6.77 CE 7.73 NZ 8.78
A PRO S 62 -76.2 151.1 N 7.68 CA 8.0 C 8.45 O 11.59 CB 10.77 CG 10.93 CD 8.98
A LEU - 32 -94.1 136.3 N 11.59 CA 10.82 C 10.57 O 12.51 CB 11.85 CG 12.11 CD1 13.29 CD2 18.76
A ASP - 27 -75.0 77.7 N 10.99 CA 11.5 C 12.34 O 12.21 CB 10.57 CG 12.69 OD1 13.89 OD2 12.31
A ARG H 104 -59.8 -36.2 N 14.84 CA 15.15 C 15.09 O 15.74 CB 17.0 CG 18.16 CD 20.29 NE 21.0 CZ 30.76 NH1 34.31 NH2 25.51
A LYS H 143 -63.6 -48.8 N 15.94 CA 14.31 C 13.79 O 15.22 CB 18.97 CG 23.73 CD 16.78 CE 16.55 NZ 25.6
A LEU H 45 -67.9 -37.5 N 12.67 CA 12.88 C 12.07 O 12.48 CB 12.86 CG 12.85 CD1 16.21 CD2 16.45
A ILE H 1 -60.5 -45.8 N 12.31 CA 12.37 C 13.89 O 14.54 CB 14.02 CG1 15.14 CG2 18.14 CD1 16.04
A LEU H 4 -71.7 -35.6 N 14.51 CA 16.21 C 16.03 O 17.14 CB 17.43 CG 21.81 CD1 42.34 CD2 25.72
A ASP H 73 -63.4 -40.4 N 17.01 CA 17.51 C 15.16 O 16.71 CB 19.51 CG 30.06 OD1 36.69 OD2 48.16
A SER H 2 -61.3 -51.3 N 14.9 CA 14.94 C 14.97 O 15.73 CB 14.08 OG 15.1
A ALA H 0 -60.6 -39.0 N 14.25 CA 15.01 C 16.32 O 17.82 CB 17.29
A ARG H 139 -64.1 -22.2 N 15.78 CA 19.66 C 19.7 O 26.33 CB 21.65 CG 27.15 CD 99.07 NE 98.19 CZ 76.73 NH1 77.22 NH2 96.64
A ALA H 40 -82.1 -13.3 N 19.49 CA 20.83 C 20.17 O 24.54 CB 22.64
A THR T 0 -123.8 49.0 N 18.19 CA 18.86 C 19.52 O 21.3 CB 18.51 OG1 17.36 CG2 22.48
A LYS T 122 54.5 30.7 N 20.59 CA 20.91 C 19.19 O 23.39 CB 25.33 CG 42.77 CD 54.11 CE 92.89 NZ 76.62
A GLY T 6 77.1 -0.6 N 18.91 CA 18.91 C 21.52 O 22.88
A ARG E 48 -92.1 125.8 N 20.78 CA 21.19 C 16.96 O 16.49 CB 22.68 CG 27.16 CD 27.56 NE 37.97 CZ 55.74 NH1 48.4 NH2 63.51
A ILE E 0 -119.8 135.0 N 16.19 CA 13.81 C 12.47 O 15.1 CB 13.41 CG1 17.33 CG2 13.59 CD1 16.5
A LEU E 0 -121.4 126.6 N 10.97 CA 10.47 C 8.59 O 9.96 CB 11.73 CG 12.67 CD1 14.61 CD2 16.14
A THR E 0 -113.3 139.0 N 8.03 CA 8.47 C 6.44 O 8.52 CB 9.03 OG1 9.88 CG2 10.54
A VAL E 0 -134.4 125.2 N 6.6 CA 6.31 C 6.56 O 7.14 CB 8.17 CG1 10.51 CG2 7.69
A GLU E 0 -145.6 144.5 N 5.94 CA 5.3 C 5.02 O 5.65 CB 5.95 CG 6.61 CD 6.4 OE1 7.79 OE2 8.59
A ASP E 0 -90.3 73.4 N 5.18 CA 5.12 C 4.56 O 5.38 CB 5.12 CG 5.52 OD1 5.89 OD2 6.34
A HIS E 0 -168.1 159.9 N 4.66 CA 4.37 C 4.48 O 4.77 CB 5.14 CG 4.22 ND1 4.71 CD2 4.85 CE1 4.77 NE2 4.93
A TYR E 47 -65.2 165.1 N 4.24 CA 4.41 C 4.47 O 5.32 CB 4.84 CG 4.61 CD1 5.74 CD2 4.77 CE1 5.8 CE2 4.92 CZ 5.15 OH 6.28
A TYR S 77 -65.9 -37.0 N 5.07 CA 5.75 C 5.64 O 8.76 CB 6.27 CG 6.28 CD1 7.06 CD2 6.23 CE1 7.81 CE2 6.17 CZ 6.11 OH 7.19
A GLU T 129 -85.3 129.1 N 5.48 CA 5.99 C 6.45 O 7.46 CB 6.66 CG 7.37 CD 7.69 OE1 8.26 OE2 10.5
A GLY T 12 80.0 5.5 N 7.25 CA 7.16 C 7.11 O 9.37
A GLY S 0 -102.9 -151.2 N 7.74 CA 9.08 C 7.71 O 8.88
A ILE H 0 -63.1 -47.1 N 6.96 CA 6.64 C 6.42 O 7.38 CB 7.17 CG1 8.38 CG2 9.74 CD1 9.86
A GLY H 0 -58.8 -43.4 N 7.51 CA 8.0 C 8.12 O 8.89
A GLU H 87 -69.4 -37.6 N 8.17 CA 8.74 C 8.76 O 9.63 CB 11.67 CG 15.83 CD 15.74 OE1 15.99 OE2 23.49
A ALA H 7 -59.5 -44.8 N 7.77 CA 8.87 C 8.59 O 11.11 CB 8.91
A VAL H 0 -67.2 -43.8 N 8.31 CA 9.71 C 9.78 O 11.86 CB 10.11 CG1 13.09 CG2 10.91
A SER H 43 -58.5 -44.2 N 10.55 CA 11.94 C 12.85 O 13.26 CB 14.41 OG 16.99
A SER H 86 -64.3 -36.7 N 11.86 CA 11.8 C 15.48 O 18.87 CB 16.75 OG 22.72
A ALA H 26 -67.4 -36.4 N 12.11 CA 14.94 C 15.19 O 18.02 CB 15.54
A VAL H 5 -112.4 -6.0 N 13.63 CA 16.4 C 16.44 O 17.77 CB 16.37 CG1 24.12 CG2 18.28
A VAL T 120 -54.6 140.3 N 16.31 CA 16.89 C 20.77 O 21.36 CB 16.35 CG1 21.89 CG2 19.07
A GLY T 77 79.5 -3.5 N 25.5 CA 23.02 C 26.56 O 26.22
A GLU - 47 -72.9 125.7 N 22.74 CA 24.6 C 23.87 O 27.45 CB 25.95 CG 24.74 CD 29.73 OE1 37.41 OE2 39.65
A PRO T 107 -67.9 139.0 N 30.15 CA 29.98 C 28.21 O 30.48 CB 45.3 CG 59.63 CD 44.8
A GLY T 62 84.2 -5.7 N 25.96 CA 26.42 C 27.7 O 45.76
A ILE - 26 -97.8 129.2 N 25.16 CA 25.5 C 23.22 O 27.65 CB 26.6 CG1 26.61 CG2 23.56 CD1 27.3
A THR E 74 -121.0 146.8 N 23.11 CA 25.1 C 23.74 O 23.03 CB 26.68 OG1 33.82 CG2 34.97
A VAL E 41 -133.8 125.2 N 22.18 CA 16.8 C 18.54 O 20.45 CB 16.25 CG1 16.52 CG2 22.02
A THR E 50 -116.4 154.7 N 16.7 CA 17.89 C 11.52 O 12.96 CB 24.0 OG1 45.95 CG2 31.19
A HIS E 44 -143.8 122.4 N 7.59 CA 7.88 C 8.21 O 10.04 CB 9.26 CG 12.05 ND1 18.54 CD2 12.72 CE1 18.08 NE2 17.96
A LEU E 30 -112.8 127.6 N 6.88 CA 6.67 C 5.78 O 6.85 CB 7.16 CG 7.9 CD1 10.98 CD2 11.47
A ALA E 1 -155.6 -174.3 N 5.66 CA 5.06 C 4.7 O 5.85 CB 5.61
A VAL E 0 -91.4 122.4 N 5.04 CA 4.83 C 4.62 O 5.64 CB 4.91 CG1 5.87 CG2 5.59
A ASN - 102 -95.0 -1.4 N 5.01 CA 5.35 C 5.19 O 6.6 CB 6.35 CG 6.88 OD1 7.5 ND2 12.22
A ARG S 126 -168.8 169.5 N 5.11 CA 5.06 C 4.46 O 4.86 CB 6.06 CG 6.52 CD 8.7 NE 9.83 CZ 8.88 NH1 8.82 NH2 12.16
A VAL - 98 -55.6 127.4 N 4.52 CA 4.24 C 4.3 O 4.88 CB 4.44 CG1 4.99 CG2 4.61
A PRO - 9 -78.4 -160.7 N 4.08 CA 4.61 C 4.56 O 4.85 CB 5.25 CG 4.79 CD 3.53
A ARG - 138 -159.0 173.3 N 4.8 CA 4.46 C 4.91 O 6.04 CB 4.83 CG 5.78 CD 6.03 NE 6.59 CZ 5.32 NH1 6.4 NH2 6.47
A SER - 52 -81.9 144.4 N 4.88 CA 4.71 C 5.27 O 5.95 CB 5.09 OG 5.67
A GLY S 15 176.2 -178.3 N 5.2 CA 6.08 C 5.48 O 6.14
A LYS - 121 -67.3 150.8 N 6.36 CA 6.54 C 6.31 O 6.93 CB 8.18 CG 9.71 CD 15.21 CE 32.12 NZ 48.52
A PRO H 38 -47.2 -50.0 N 6.58 CA 7.04 C 7.23 O 7.79 CB 8.18 CG 7.86 CD 7.53
A ALA H 71 -65.5 -36.0 N 8.02 CA 8.42 C 7.69 O 9.06 CB 11.39
A GLU H 107 -63.1 -41.0 N 7.74 CA 7.29 C 7.23 O 7.92 CB 8.34 CG 8.65 CD 9.36 OE1 9.06 OE2 13.88
A LEU H 3 -71.8 -38.1 N 7.14 CA 6.24 C 6.6 O 7.1 CB 6.11 CG 5.92 CD1 6.55 CD2 7.33
A LEU H 9 -57.8 -38.9 N 6.96 CA 7.38 C 7.6 O 8.44 CB 8.34 CG 8.69 CD1 13.58 CD2 9.28
A LYS H 138 -66.4 -52.9 N 7.86 CA 8.8 C 7.91 O 9.05 CB 10.57 CG 14.41 CD 18.29 CE 34.56 NZ 44.39
A MET H 93 -54.2 -42.1 N 7.71 CA 7.36 C 6.63 O 7.72 CB 7.75 CG 7.56 SD 8.78 CE 10.11
A PHE T 11 -94.9 8.8 N 6.56 CA 6.69 C 7.09 O 8.36 CB 7.1 CG 6.44 CD1 6.71 CD2 7.29 CE1 6.7 CE2 7.56 CZ 6.69
A GLY T 24 77.2 32.2 N 7.24 CA 7.96 C 8.15 O 9.46
A ILE - 0 -133.9 18.3 N 7.31 CA 7.83 C 8.23 O 10.05 CB 7.39 CG1 7.5 CG2 8.22 CD1 7.46
A ASP S 15 -101.0 -179.7 N 9.58 CA 10.12 C 9.42 O 10.95 CB 8.35 CG 10.05 OD1 12.34 OD2 12.92
A ARG H 101 -50.8 -42.0 N 9.94 CA 10.0 C 10.66 O 11.47 CB 11.45 CG 12.67 CD 13.91 NE 14.13 CZ 14.12 NH1 17.59 NH2 17.6
A ASP H 87 -70.9 -37.6 N 11.76 CA 14.16 C 12.71 O 14.67 CB 15.09 CG 21.77 OD1 34.43 OD2 57.69
A ALA H 22 -63.9 -40.3 N 11.78 CA 10.73 C 10.4 O 11.36 CB 11.63
A ILE H 0 -64.9 -47.0 N 10.02 CA 9.86 C 11.76 O 11.95 CB 9.73 CG1 10.04 CG2 12.38 CD1 10.35
A ALA H 0 -59.1 -42.3 N 12.19 CA 12.82 C 12.28 O 15.2 CB 14.66
A GLN H 122 -64.0 -43.2 N 15.5 CA 13.63 C 14.13 O 15.59 CB 15.9 CG 19.74 CD 36.3 OE1 26.66 NE2 49.14
A ALA H 19 -62.5 -39.6 N 12.08 CA 12.99 C 14.06 O 18.04 CB 12.64
A VAL H 0 -63.2 -48.1 N 13.7 CA 13.56 C 15.09 O 18.28 CB 13.31 CG1 18.5 CG2 13.95
A ARG H 64 -58.6 -37.2 N 13.13 CA 18.0 C 17.97 O 23.16 CB 18.59 CG 23.22 CD 38.63 NE 35.33 CZ 31.51 NH1 23.01 NH2 38.03
A GLY H 45 -71.8 -30.9 N 20.29 CA 24.2 C 22.27 O 28.84
A LEU H 40 -59.6 -44.6 N 20.13 CA 25.06 C 36.43 O 42.49 CB 25.29 CG 26.97 CD1 31.1 CD2 37.19
A ILE H 42 -69.7 -31.8 N 27.65 CA 26.88 C 27.25 O 39.97 CB 24.43 CG1 27.22 CG2 33.95 CD1 39.66
A THR - 140 -102.7 360.0 N 26.08 CA 113.4 C 85.94 O 98.84 CB 136.85 OG1 96.26 CG2 93.85
