A GLY - 118 360.0 165.2 N 44.94 CA 40.07 C 40.24 O 31.97
A PRO - 134 -70.5 130.4 N 45.54 CA 45.61 C 44.29 O 38.25 CB 31.59 CG 38.61 CD 59.24
A SER - 121 -69.5 130.4 N 36.45 CA 35.78 C 33.45 O 35.19 CB 34.4 OG 44.51
A SER - 95 -71.2 168.7 N 34.61 CA 27.38 C 34.35 O 25.91 CB 40.12 OG 56.06
A PRO - 42 -76.5 138.6 N 31.34 CA 29.74 C 30.69 O 31.42 CB 24.24 CG 29.93 CD 47.26
A HIS H 162 -63.5 -36.2 N 28.66 CA 35.49 C 26.03 O 30.21 CB 36.07 CG 41.08 ND1 41.1 CD2 33.51 CE1 42.84 NE2 41.64
A SER H 33 -69.3 -41.9 N 24.63 CA 26.06 C 29.14 O 26.5 CB 31.59 OG 41.01
A LEU H 4 -58.2 -44.6 N 20.9 CA 32.22 C 27.94 O 21.55 CB 24.44 CG 27.92 CD1 10.96 CD2 25.1
A GLU H 98 -55.5 -52.8 N 26.03 CA 31.84 C 24.59 O 26.1 CB 30.13 CG 36.69 CD 41.97 OE1 37.82 OE2 44.18
A THR H 42 -70.0 -43.2 N 23.22 CA 20.61 C 25.54 O 27.4 CB 27.3 OG1 36.19 CG2 26.39
A LEU H 0 -60.7 -40.2 N 24.34 CA 23.69 C 20.18 O 21.68 CB 19.28 CG 25.01 CD1 22.68 CD2 22.13
A TYR H 31 -65.2 -41.5 N 18.28 CA 22.25 C 29.15 O 19.26 CB 21.63 CG 21.81 CD1 17.28 CD2 25.96 CE1 28.62 CE2 31.1 CZ 27.31 OH 29.2
A GLN H 158 -61.7 -45.8 N 24.84 CA 27.31 C 30.07 O 27.14 CB 25.41 CG 30.57 CD 26.43 OE1 42.48 NE2 28.09
A SER H 52 -64.5 -29.8 N 24.78 CA 26.38 C 30.42 O 27.35 CB 19.65 OG 37.78
A ALA H 9 -72.0 -33.0 N 27.68 CA 20.31 C 22.91 O 21.52 CB 21.16
A ASP T 130 55.3 61.4 N 27.42 CA 32.36 C 33.07 O 27.77 CB 38.12 CG 49.87 OD1 57.06 OD2 55.08
A CYS - 27 -65.7 134.8 N 28.65 CA 30.5 C 32.99 O 37.74 CB 25.59 SG 26.03
A SER - 86 -101.8 -16.2 N 29.66 CA 32.34 C 39.33 O 37.83 CB 29.3 OG 44.26
A ASP S 61 -159.6 -177.4 N 31.38 CA 32.09 C 30.06 O 27.69 CB 28.77 CG 35.38 OD1 36.03 OD2 33.13
A ALA H 17 -66.2 -33.3 N 24.63 CA 23.39 C 21.55 O 21.32 CB 22.7
A ASN H 38 -59.0 -46.7 N 20.04 CA 20.43 C 21.63 O 20.45 CB 16.86 CG 25.95 OD1 28.8 ND2 25.7
A ASP H 0 -59.3 -42.2 N 17.2 CA 20.01 C 21.37 O 24.05 CB 24.75 CG 27.41 OD1 22.21 OD2 26.12
A ALA H 0 -63.7 -36.5 N 16.55 CA 20.8 C 18.68 O 14.23 CB 20.44
A LEU H 0 -68.6 -42.4 N 16.67 CA 17.77 C 16.38 O 16.61 CB 16.08 CG 16.25 CD1 22.07 CD2 20.31
A ILE H 0 -63.2 -39.4 N 15.14 CA 14.86 C 9.75 O 12.6 CB 15.22 CG1 18.39 CG2 12.96 CD1 20.17
A VAL H 0 -57.8 -44.6 N 13.63 CA 14.83 C 14.48 O 13.74 CB 18.42 CG1 14.62 CG2 12.58
A LEU H 3 -68.2 -40.8 N 13.81 CA 12.04 C 14.77 O 18.38 CB 14.87 CG 26.5 CD1 27.91 CD2 31.7
A ILE H 0 -57.9 -47.4 N 12.9 CA 15.42 C 11.88 O 13.66 CB 20.65 CG1 32.39 CG2 19.89 CD1 22.72
A HIS H 0 -59.1 -43.5 N 12.71 CA 10.98 C 15.81 O 17.8 CB 11.73 CG 16.17 ND1 15.26 CD2 14.22 CE1 19.56 NE2 16.39
A LEU H 5 -60.1 -44.1 N 11.72 CA 13.74 C 12.81 O 16.12 CB 15.71 CG 20.01 CD1 18.19 CD2 20.88
A LEU H 2 -62.5 -35.1 N 11.31 CA 12.66 C 15.71 O 15.48 CB 12.57 CG 18.73 CD1 17.85 CD2 19.68
A LEU H 20 -61.0 -42.7 N 12.82 CA 17.58 C 14.79 O 15.97 CB 14.34 CG 21.36 CD1 18.74 CD2 19.11
A GLU H 113 -70.9 -15.4 N 14.02 CA 17.83 C 22.43 O 16.77 CB 16.12 CG 24.01 CD 29.18 OE1 25.55 OE2 29.57
A SER T 24 -96.8 1.0 N 16.1 CA 15.69 C 19.61 O 23.23 CB 27.67 OG 34.45
A GLY T 24 108.0 -3.9 N 17.85 CA 16.22 C 21.72 O 16.32
A TYR - 4 -67.7 139.2 N 18.5 CA 21.22 C 20.88 O 20.29 CB 15.38 CG 16.87 CD1 18.15 CD2 15.19 CE1 16.78 CE2 15.27 CZ 21.07 OH 23.27
A ILE E 68 -107.5 119.2 N 18.15 CA 19.75 C 17.58 O 18.0 CB 23.67 CG1 29.51 CG2 25.85 CD1 24.74
A PRO E 8 -83.9 149.3 N 20.95 CA 19.91 C 25.92 O 19.49 CB 19.74 CG 22.51 CD 25.32
A GLN S 68 -88.1 154.7 N 24.36 CA 24.62 C 28.58 O 28.0 CB 31.22 CG 39.7 CD 51.49 OE1 51.19 NE2 45.16
A GLY S 42 90.0 11.5 N 24.9 CA 25.71 C 23.25 O 31.66
A THR - 29 -148.4 148.0 N 28.69 CA 31.83 C 30.29 O 31.01 CB 35.14 OG1 37.14 CG2 26.67
A GLU S 156 -94.3 -25.4 N 38.18 CA 48.18 C 41.07 O 35.82 CB 50.84 CG 56.93 CD 66.54 OE1 52.48 OE2 64.18
A ALA - 29 -131.7 95.3 N 33.48 CA 34.29 C 29.04 O 27.26 CB 35.43
A LYS T 90 -56.2 -30.2 N 26.58 CA 26.27 C 20.28 O 25.36 CB 25.94 CG 24.86 CD 26.44 CE 26.57 NZ 34.51
A ALA T 38 -87.3 -8.0 N 24.25 CA 22.84 C 29.84 O 29.31 CB 28.17
A LEU T 107 -112.3 -33.9 N 24.39 CA 31.79 C 31.16 O 28.3 CB 28.15 CG 33.22 CD1 31.8 CD2 30.83
A SER S 24 -137.8 141.8 N 25.25 CA 35.03 C 31.24 O 25.55 CB 31.02 OG 45.87
A PRO - 5 -59.3 152.1 N 24.23 CA 29.52 C 29.7 O 23.13 CB 21.52 CG 23.42 CD 22.08
A GLU T 142 -63.7 139.8 N 30.25 CA 35.47 C 27.32 O 27.03 CB 38.97 CG 47.68 CD 55.3 OE1 62.21 OE2 66.91
A LYS T 149 60.3 30.2 N 29.67 CA 29.42 C 28.75 O 26.47 CB 36.77 CG 39.25 CD 54.19 CE 66.38 NZ 64.99
A TRP S 25 -67.5 -28.6 N 21.62 CA 18.8 C 23.26 O 20.48 CB 16.29 CG 14.51 CD1 18.06 CD2 15.44 NE1 20.64 CE2 17.37 CE3 17.93 CZ2 22.04 CZ3 17.44 CH2 21.03
A LYS E 83 -121.3 117.2 N 20.64 CA 27.01 C 29.35 O 32.65 CB 24.38 CG 26.32 CD 27.35 CE 33.41 NZ 42.93
A LEU E 56 -158.0 141.2 N 29.25 CA 39.95 C 40.83 O 41.99 CB 41.91 CG 51.48 CD1 50.45 CD2 48.82
A SER T 122 53.9 35.6 N 32.53 CA 35.62 C 35.27 O 36.62 CB 36.65 OG 43.55
A GLY T 57 82.5 -13.8 N 34.8 CA 40.08 C 37.19 O 41.33
A VAL E 48 -108.8 170.5 N 29.08 CA 32.02 C 27.84 O 22.64 CB 25.66 CG1 30.04 CG2 25.0
A TYR E 8 -122.6 143.3 N 20.3 CA 14.75 C 19.88 O 15.17 CB 16.73 CG 18.69 CD1 13.7 CD2 18.03 CE1 15.06 CE2 18.95 CZ 20.37 OH 22.49
A LYS E 93 -137.9 126.9 N 15.33 CA 21.28 C 21.15 O 22.56 CB 18.04 CG 40.7 CD 48.33 CE 41.95 NZ 40.91
A LEU E 1 -132.0 128.3 N 18.66 CA 18.77 C 17.5 O 15.39 CB 16.03 CG 22.05 CD1 17.95 CD2 15.9
A GLN E 76 -119.5 137.0 N 19.74 CA 19.89 C 21.15 O 19.58 CB 22.86 CG 33.62 CD 41.13 OE1 43.3 NE2 36.41
A TYR E 1 -136.6 157.7 N 15.17 CA 19.62 C 19.21 O 19.65 CB 15.3 CG 15.38 CD1 16.91 CD2 14.03 CE1 15.17 CE2 13.53 CZ 14.76 OH 15.05
A HIS - 17 -130.9 136.1 N 25.96 CA 24.22 C 29.11 O 29.37 CB 19.89 CG 25.15 ND1 27.41 CD2 20.84 CE1 27.34 NE2 26.03
A PRO T 87 -60.9 -25.2 N 24.16 CA 26.01 C 25.7 O 27.87 CB 27.28 CG 34.65 CD 22.95
A LEU T 87 -98.2 9.2 N 21.78 CA 25.2 C 31.17 O 38.92 CB 26.2 CG 34.71 CD1 38.39 CD2 39.27
A CYS S 2 -135.0 41.9 N 29.86 CA 29.55 C 40.18 O 31.62 CB 24.87 SG 30.25
A GLU T 173 -56.4 139.5 N 34.68 CA 36.86 C 39.2 O 46.06 CB 46.07 CG 56.1 CD 64.53 OE1 63.36 OE2 69.09
A GLY T 53 97.5 11.6 N 32.36 CA 36.11 C 47.24 O 35.0
A SER - 15 -155.6 161.5 N 32.33 CA 26.66 C 29.21 O 25.78 CB 29.46 OG 27.51
A SER E 24 -134.9 149.9 N 19.82 CA 23.47 C 21.98 O 27.08 CB 23.78 OG 26.66
A ALA E 3 -116.9 141.3 N 23.44 CA 22.58 C 21.31 O 18.52 CB 19.5
A THR E 18 -128.1 133.5 N 16.02 CA 12.42 C 15.1 O 17.03 CB 18.42 OG1 26.37 CG2 19.97
A LEU E 0 -104.5 120.3 N 14.21 CA 13.31 C 18.26 O 15.11 CB 13.7 CG 14.06 CD1 13.2 CD2 19.73
A THR E 47 -109.1 115.1 N 15.44 CA 11.21 C 16.84 O 18.34 CB 20.05 OG1 24.68 CG2 18.44
A CYS E 0 -110.5 124.3 N 14.0 CA 17.55 C 14.42 O 15.17 CB 18.46 SG 24.5
A VAL E 49 -127.6 121.8 N 13.41 CA 12.85 C 17.05 O 19.19 CB 17.52 CG1 14.8 CG2 23.13
A PRO E 46 -68.5 128.8 N 19.89 CA 21.15 C 21.49 O 20.21 CB 20.76 CG 28.59 CD 25.52
A LEU E 120 -139.9 111.9 N 22.63 CA 26.26 C 23.96 O 21.62 CB 20.01 CG 25.22 CD1 25.76 CD2 20.18
A GLY T 76 67.4 -128.5 N 25.85 CA 26.47 C 23.83 O 28.98
A ASN T 136 -96.1 3.0 N 25.49 CA 29.55 C 26.38 O 24.99 CB 41.17 CG 43.57 OD1 58.09 ND2 49.78
A LEU E 60 -104.1 163.7 N 23.4 CA 23.88 C 20.68 O 19.99 CB 25.93 CG 33.38 CD1 36.28 CD2 27.76
A ILE E 0 -116.2 124.1 N 18.95 CA 17.23 C 19.79 O 18.06 CB 21.73 CG1 25.07 CG2 19.81 CD1 40.93
A VAL E 13 -96.1 116.9 N 13.34 CA 16.54 C 16.75 O 19.8 CB 18.4 CG1 12.16 CG2 22.01
A VAL E 0 -98.5 111.3 N 13.82 CA 16.92 C 17.51 O 18.74 CB 19.76 CG1 16.76 CG2 18.29
A ASN E 54 -97.7 122.7 N 13.84 CA 12.79 C 17.06 O 20.07 CB 13.98 CG 24.0 OD1 21.73 ND2 20.29
A ALA E 0 -99.4 131.0 N 16.11 CA 13.43 C 17.87 O 18.16 CB 12.02
A THR E 33 -132.4 138.4 N 12.22 CA 19.43 C 22.7 O 17.32 CB 20.82 OG1 27.74 CG2 30.23
A LEU E 1 -113.3 133.8 N 15.24 CA 18.77 C 23.28 O 22.58 CB 16.95 CG 25.7 CD1 21.15 CD2 26.5
A LYS E 84 -112.9 115.8 N 23.02 CA 23.74 C 34.57 O 25.09 CB 23.37 CG 23.6 CD 33.31 CE 52.75 NZ 51.34
A ILE E 11 -128.7 127.6 N 25.81 CA 37.58 C 40.6 O 46.72 CB 40.48 CG1 39.73 CG2 43.02 CD1 37.91
A ASN T 152 49.7 56.9 N 50.0 CA 54.97 C 52.2 O 57.94 CB 57.77 CG 66.02 OD1 67.23 ND2 59.31
A ASN T 142 47.5 22.8 N 49.28 CA 50.5 C 47.54 O 52.88 CB 60.61 CG 71.36 OD1 58.8 ND2 69.93
A GLU E 102 -108.3 138.1 N 41.86 CA 43.76 C 36.87 O 25.97 CB 43.42 CG 50.03 CD 67.31 OE1 67.99 OE2 51.13
A ILE E 109 -109.5 124.8 N 23.73 CA 27.08 C 35.2 O 24.89 CB 29.5 CG1 36.3 CG2 24.48 CD1 33.74
A ARG E 82 -124.8 134.6 N 19.37 CA 15.15 C 25.43 O 22.06 CB 29.13 CG 26.75 CD 31.13 NE 48.67 CZ 55.66 NH1 44.39 NH2 57.35
A SER E 100 -79.0 132.7 N 18.93 CA 17.86 C 19.96 O 16.93 CB 20.74 OG 34.56
A VAL E 29 -110.1 -49.5 N 15.7 CA 17.16 C 22.96 O 27.93 CB 17.79 CG1 18.0 CG2 18.32
A LYS E 65 -156.3 141.5 N 18.17 CA 23.76 C 22.49 O 24.39 CB 33.87 CG 29.08 CD 29.51 CE 30.51 NZ 40.59
A ARG E 171 -115.1 126.4 N 21.17 CA 27.95 C 33.86 O 31.61 CB 27.21 CG 24.55 CD 37.91 NE 35.23 CZ 43.39 NH1 41.52 NH2 26.65
A LEU E 8 -123.4 129.2 N 20.84 CA 19.69 C 21.55 O 24.57 CB 26.73 CG 22.63 CD1 20.65 CD2 25.92
A GLN E 79 -91.6 127.6 N 18.97 CA 23.56 C 24.36 O 29.09 CB 21.35 CG 24.41 CD 35.13 OE1 27.91 NE2 31.47
A LEU E 2 -125.9 135.6 N 17.02 CA 21.21 C 27.23 O 19.79 CB 19.15 CG 21.65 CD1 16.68 CD2 19.72
A LEU - 59 -104.2 108.4 N 17.64 CA 22.92 C 18.67 O 22.24 CB 20.41 CG 24.86 CD1 22.37 CD2 29.71
A PRO G 5 -53.0 -39.3 N 18.94 CA 20.96 C 20.29 O 20.98 CB 26.91 CG 24.53 CD 20.68
A GLU G 117 -60.1 -27.2 N 21.63 CA 23.63 C 21.65 O 25.58 CB 25.04 CG 45.1 CD 71.57 OE1 60.28 OE2 76.25
A SER G 50 -67.8 -24.1 N 19.97 CA 20.08 C 28.42 O 28.94 CB 21.51 OG 24.39
A PHE T 20 -124.0 -16.7 N 19.41 CA 24.37 C 22.75 O 27.62 CB 22.3 CG 25.65 CD1 27.87 CD2 26.11 CE1 31.16 CE2 26.51 CZ 31.45
A ILE B 4 -117.4 127.3 N 20.81 CA 21.57 C 30.3 O 25.45 CB 24.31 CG1 21.7 CG2 21.85 CD1 22.85
A CYS - 29 -86.4 93.0 N 24.25 CA 31.25 C 32.65 O 37.27 CB 34.09 SG 62.53
A LYS G 120 -62.2 -23.4 N 33.07 CA 40.29 C 39.91 O 50.33 CB 45.49 CG 58.44 CD 56.29 CE 63.48 NZ 68.21
A GLU G 161 -81.3 -3.6 N 42.21 CA 53.74 C 48.6 O 48.08 CB 51.27 CG 62.6 CD 74.96 OE1 69.69 OE2 72.78
A LYS G 91 -116.4 20.2 N 45.6 CA 31.54 C 39.7 O 33.81 CB 43.03 CG 46.78 CD 37.31 CE 58.93 NZ 63.63
A LEU T 51 -63.4 -21.5 N 38.71 CA 38.95 C 36.79 O 36.7 CB 33.19 CG 35.47 CD1 36.22 CD2 25.25
A GLY T 81 -98.8 22.1 N 38.1 CA 33.21 C 39.5 O 54.12
A GLU S 99 -119.7 -143.4 N 34.65 CA 37.22 C 34.46 O 31.36 CB 33.25 CG 32.34 CD 59.41 OE1 59.74 OE2 63.5
A ASN - 111 -97.4 163.3 N 30.36 CA 28.22 C 28.84 O 26.47 CB 29.82 CG 37.49 OD1 40.95 ND2 31.83
A VAL H 19 -57.5 -36.1 N 27.8 CA 28.89 C 30.86 O 30.0 CB 30.22 CG1 33.05 CG2 33.96
A ALA H 93 -61.8 -25.5 N 22.6 CA 30.86 C 20.89 O 27.15 CB 23.63
A ASN H 56 -95.2 -30.1 N 20.91 CA 24.62 C 34.65 O 31.68 CB 23.13 CG 36.01 OD1 38.24 ND2 31.33
A ILE H 2 -70.8 -45.1 N 24.58 CA 23.2 C 22.63 O 26.03 CB 19.86 CG1 25.3 CG2 24.87 CD1 28.47
A TYR B 15 -95.0 135.8 N 21.98 CA 23.06 C 32.22 O 24.18 CB 28.1 CG 26.73 CD1 18.92 CD2 24.4 CE1 21.52 CE2 19.68 CZ 21.35 OH 18.29
A LYS - 83 -126.9 153.0 N 24.81 CA 27.95 C 40.35 O 44.41 CB 39.27 CG 21.79 CD 37.08 CE 31.92 NZ 32.19
A ASP - 87 55.0 54.4 N 35.67 CA 38.99 C 36.42 O 34.06 CB 44.1 CG 51.28 OD1 61.62 OD2 61.67
A LEU H 62 -68.4 -45.3 N 29.42 CA 33.47 C 31.47 O 29.25 CB 35.32 CG 35.24 CD1 42.93 CD2 42.01
A GLN H 128 -61.4 -32.9 N 24.98 CA 29.18 C 24.38 O 25.25 CB 30.79 CG 40.91 CD 51.69 OE1 41.55 NE2 38.22
A LYS H 136 -65.7 -44.0 N 24.39 CA 27.51 C 25.28 O 24.65 CB 31.54 CG 37.86 CD 43.11 CE 56.07 NZ 50.04
A LEU H 0 -67.0 -42.7 N 24.55 CA 23.31 C 22.39 O 18.98 CB 23.08 CG 25.82 CD1 16.36 CD2 31.32
A SER H 24 -58.6 -49.5 N 17.03 CA 19.83 C 20.7 O 15.82 CB 26.94 OG 42.36
A ARG H 156 -63.3 -44.4 N 17.06 CA 21.55 C 18.19 O 22.94 CB 18.65 CG 27.56 CD 25.93 NE 39.5 CZ 40.15 NH1 37.11 NH2 29.85
A LEU H 46 -59.5 -53.0 N 17.2 CA 16.82 C 18.24 O 17.99 CB 20.59 CG 25.59 CD1 28.09 CD2 33.25
A PHE H 0 -65.9 -42.4 N 19.66 CA 14.52 C 15.43 O 16.32 CB 13.4 CG 23.31 CD1 18.45 CD2 20.85 CE1 21.71 CE2 23.46 CZ 15.51
A LYS I 56 -66.5 -48.4 N 13.73 CA 18.06 C 16.39 O 17.26 CB 22.31 CG 21.11 CD 23.77 CE 28.63 NZ 43.47
A ASP I 103 -63.1 -41.9 N 13.7 CA 12.94 C 16.69 O 15.51 CB 12.7 CG 24.18 OD1 22.55 OD2 23.17
A GLN I 86 -98.3 -11.4 N 13.71 CA 15.59 C 21.36 O 20.68 CB 16.83 CG 23.81 CD 35.04 OE1 27.74 NE2 29.38
A LEU I 0 -133.8 -59.8 N 19.5 CA 11.94 C 16.11 O 19.0 CB 20.89 CG 21.81 CD1 20.9 CD2 13.28
A VAL I 0 -57.7 -52.3 N 15.14 CA 14.25 C 19.59 O 16.65 CB 20.61 CG1 18.22 CG2 18.3
A TYR H 74 -68.7 -42.4 N 15.44 CA 19.07 C 20.5 O 19.74 CB 17.42 CG 20.7 CD1 23.82 CD2 24.62 CE1 30.01 CE2 23.44 CZ 27.66 OH 30.24
A PRO H 45 -62.8 -32.2 N 20.87 CA 21.04 C 15.73 O 19.25 CB 19.28 CG 18.22 CD 21.09
A LEU H 1 -64.5 -46.3 N 14.73 CA 15.51 C 16.85 O 17.72 CB 15.64 CG 15.32 CD1 19.18 CD2 16.91
A LEU H 7 -61.5 -44.2 N 17.88 CA 17.47 C 16.78 O 24.87 CB 19.57 CG 20.23 CD1 22.46 CD2 18.25
A ALA H 54 -62.2 -48.2 N 15.22 CA 21.47 C 20.32 O 22.89 CB 17.57
A PHE H 67 -56.0 -47.0 N 18.37 CA 18.57 C 21.07 O 21.62 CB 22.85 CG 18.7 CD1 20.61 CD2 23.7 CE1 26.0 CE2 30.97 CZ 25.83
A THR H 2 -65.5 -43.7 N 16.99 CA 16.61 C 27.76 O 23.28 CB 18.46 OG1 21.17 CG2 22.4
A ARG H 39 -61.2 -42.5 N 20.74 CA 27.88 C 26.99 O 29.42 CB 19.76 CG 26.08 CD 31.56 NE 32.27 CZ 36.6 NH1 28.49 NH2 31.61
A GLN H 146 -59.6 -52.7 N 24.5 CA 29.55 C 32.95 O 31.16 CB 33.01 CG 39.45 CD 65.81 OE1 69.47 NE2 64.3
A ALA H 22 -57.9 -32.4 N 27.71 CA 29.26 C 29.32 O 29.52 CB 27.21
A LEU T 36 -88.7 2.6 N 29.56 CA 29.2 C 33.68 O 36.76 CB 31.98 CG 40.47 CD1 32.91 CD2 34.82
A ASN T 149 56.9 52.2 N 36.36 CA 37.99 C 45.55 O 37.5 CB 38.88 CG 48.23 OD1 56.73 ND2 41.99
A LEU - 68 -124.2 157.2 N 39.31 CA 36.0 C 35.3 O 40.74 CB 34.67 CG 36.08 CD1 36.88 CD2 39.52
A PRO - 93 -67.2 158.3 N 38.18 CA 42.2 C 41.91 O 41.6 CB 32.01 CG 45.9 CD 40.66
A ASP - 133 -60.9 141.5 N 34.7 CA 51.14 C 45.63 O 42.38 CB 54.1 CG 57.32 OD1 60.47 OD2 66.92
A VAL - 53 -76.4 -30.1 N 36.95 CA 38.27 C 46.58 O 43.47 CB 40.51 CG1 49.65 CG2 40.87
A PHE - 165 -109.8 360.0 N 47.49 CA 36.33 C 42.89 O 47.72 CB 38.73 CG 37.63 CD1 31.55 CD2 30.67 CE1 24.48 CE2 34.8 CZ 41.06
