A PRO - 107 360.0 135.5 N 55.28 CA 53.22 C 49.63 O 55.02 CB 51.66 CG 52.48 CD 54.34
A GLN - 67 -55.6 130.4 N 57.95 CA 56.81 C 57.56 O 53.02 CB 51.27
A GLU H 80 -44.1 -42.7 N 61.1 CA 60.26 C 58.12 O 59.43 CB 56.74
A THR H 129 -69.4 -4.4 N 54.6 CA 58.56 C 54.57 O 51.68 CB 60.09 OG1 59.9 CG2 58.4
A LEU H 59 -66.8 -59.6 N 50.8 CA 42.59 C 37.96 O 40.03 CB 40.87 CG 42.48 CD1 45.26 CD2 37.33
A ASN H 12 -130.0 21.0 N 32.33 CA 27.16 C 29.24 O 28.84 CB 23.5 CG 24.23 OD1 24.45 ND2 20.4
A GLY H 9 -53.8 -45.0 N 26.7 CA 27.38 C 28.92 O 30.79
A GLY H 35 -55.3 -41.8 N 27.46 CA 25.98 C 27.26 O 25.2
A ILE H 4 -68.6 -50.4 N 25.23 CA 24.34 C 23.81 O 20.38 CB 23.17 CG1 23.02 CG2 22.35 CD1 20.23
A THR H 20 -64.3 -34.3 N 23.48 CA 25.08 C 25.15 O 25.47 CB 26.8 OG1 27.93 CG2 24.94
A ASP H 108 -66.2 -35.7 N 22.13 CA 24.06 C 24.64 O 24.22 CB 25.14 CG 26.24 OD1 28.0 OD2 25.86
A MET H 7 -66.6 -46.3 N 22.93 CA 24.43 C 21.78 O 20.46 CB 25.55 CG 29.33 SD 35.0 CE 27.85
A LEU H 0 -63.9 -38.9 N 20.42 CA 20.93 C 23.68 O 27.16 CB 20.61 CG 20.04 CD1 20.53 CD2 21.84
A THR H 63 -66.0 -47.6 N 22.17 CA 24.62 C 23.15 O 23.65 CB 22.65 OG1 23.85 CG2 21.71
A GLU H 51 -63.3 -39.1 N 23.97 CA 24.04 C 20.93 O 19.35 CB 30.8 CG 36.53 CD 43.09 OE1 43.94 OE2 49.6
A LEU H 15 -61.3 -39.6 N 17.28 CA 16.37 C 15.42 O 16.93 CB 16.12 CG 16.21 CD1 14.16 CD2 15.04
A ALA H 1 -59.7 -41.0 N 16.01 CA 14.89 C 15.54 O 16.47 CB 15.31
A ASN H 53 -65.5 -41.8 N 15.25 CA 16.91 C 17.61 O 19.12 CB 18.23 CG 18.72 OD1 17.23 ND2 20.37
A PHE H 10 -65.5 -41.8 N 18.66 CA 19.95 C 19.24 O 18.82 CB 21.5 CG 27.29 CD1 31.27 CD2 31.69 CE1 31.87 CE2 36.41 CZ 33.84
A GLU I 28 -53.9 -54.0 N 18.42 CA 19.36 C 21.13 O 21.37 CB 18.41 CG 19.89 CD 20.2 OE1 21.66 OE2 19.83
A LYS I 60 -65.9 -52.3 N 21.08 CA 21.22 C 17.92 O 15.53 CB 21.83 CG 25.73 CD 29.45 CE 30.39 NZ 33.19
A ASN I 6 -81.5 -31.1 N 19.16 CA 20.51 C 22.12 O 22.11 CB 19.6 CG 21.0 OD1 20.59 ND2 16.99
A VAL I 12 -107.5 -56.3 N 21.15 CA 21.6 C 20.46 O 21.27 CB 21.32 CG1 19.06 CG2 19.92
A SER I 71 -69.3 -24.4 N 20.48 CA 20.29 C 20.64 O 17.92 CB 21.52 OG 24.13
A GLN - 107 58.4 48.4 N 20.41 CA 20.27 C 19.86 O 23.07 CB 21.3 CG 24.26 CD 29.18 OE1 31.0 NE2 28.61
A ALA - 23 -118.3 78.3 N 20.52 CA 19.21 C 19.47 O 17.85 CB 18.68
A ILE H 82 -56.5 -33.2 N 19.27 CA 18.57 C 19.85 O 23.61 CB 19.34 CG1 18.53 CG2 17.71 CD1 17.5
A HIS H 153 -72.6 -34.1 N 18.58 CA 19.86 C 20.53 O 22.44 CB 20.18 CG 20.41 ND1 21.6 CD2 19.48 CE1 18.54 NE2 20.11
A LYS H 118 -70.6 -31.9 N 19.26 CA 21.92 C 20.85 O 25.46 CB 19.06 CG 19.23 CD 21.07 CE 21.44 NZ 20.34
A TYR H 27 -62.5 -49.8 N 19.78 CA 18.79 C 18.69 O 19.13 CB 20.39 CG 20.7 CD1 21.76 CD2 21.93 CE1 24.96 CE2 23.33 CZ 25.78 OH 25.03
A ASN H 72 -63.9 -33.9 N 18.26 CA 19.93 C 19.56 O 18.13 CB 18.93 CG 23.24 OD1 22.95 ND2 20.62
A ALA H 51 -60.0 -51.0 N 18.23 CA 16.58 C 16.86 O 16.4 CB 16.78
A TYR H 23 -59.9 -38.6 N 18.24 CA 19.63 C 22.79 O 24.84 CB 18.1 CG 17.34 CD1 16.58 CD2 17.27 CE1 18.86 CE2 16.42 CZ 16.29 OH 16.41
A ARG H 98 -66.3 -44.6 N 22.32 CA 23.59 C 23.6 O 25.79 CB 24.76 CG 30.46 CD 35.38 NE 45.03 CZ 49.76 NH1 48.9 NH2 45.95
A LYS H 125 -60.4 -42.2 N 23.63 CA 24.6 C 23.48 O 25.79 CB 27.17 CG 26.4 CD 26.11 CE 28.3 NZ 29.95
A ALA H 0 -66.6 -45.3 N 21.1 CA 21.06 C 22.19 O 22.75 CB 17.76
A ALA H 8 -55.3 -45.7 N 20.2 CA 21.88 C 27.39 O 30.72 CB 22.23
A SER H 52 -62.5 -42.3 N 26.95 CA 31.92 C 33.7 O 31.3 CB 30.08 OG 37.32
A VAL H 37 -72.1 -25.2 N 33.45 CA 36.5 C 36.1 O 43.37 CB 37.08 CG1 33.04 CG2 33.78
A ILE H 0 -80.3 -45.4 N 32.83 CA 30.48 C 31.19 O 31.71 CB 28.79 CG1 26.85 CG2 29.4 CD1 25.46
A ALA H 53 -46.0 -43.0 N 28.28 CA 28.6 C 29.1 O 26.84 CB 26.49
A LYS T 94 -78.0 -9.1 N 34.79 CA 38.59 C 37.45 O 43.29 CB 38.99 CG 54.42 CD 58.41 CE 63.71 NZ 59.4
A TYR - 44 -82.5 126.3 N 35.93 CA 33.03 C 37.62 O 35.54 CB 30.63 CG 29.1 CD1 27.59 CD2 30.77 CE1 26.97 CE2 29.31 CZ 28.34 OH 26.55
A PRO - 81 -96.2 41.2 N 37.95 CA 35.29 C 35.09 O 33.56 CB 33.43 CG 36.65 CD 37.58
A HIS S 112 -151.6 143.5 N 33.93 CA 33.66 C 33.04 O 28.74 CB 30.15 CG 32.87 ND1 31.86 CD2 34.44 CE1 28.82 NE2 29.33
A LYS - 140 -68.9 117.2 N 33.47 CA 33.05 C 31.03 O 28.98 CB 34.97 CG 36.69 CD 40.51 CE 45.05 NZ 45.36
A ILE - 4 -63.7 133.2 N 29.14 CA 31.92 C 29.72 O 27.0 CB 31.35 CG1 31.61 CG2 29.82 CD1 29.01
A LYS - 178 -108.2 -15.2 N 29.76 CA 32.3 C 30.0 O 30.16 CB 34.96 CG 35.36 CD 39.91 CE 42.3 NZ 42.04
A SER S 44 -161.7 155.5 N 26.67 CA 27.23 C 25.46 O 25.55 CB 27.7 OG 29.65
A GLY H 0 -59.5 -33.9 N 22.76 CA 22.1 C 22.43 O 22.92
A ALA H 66 -67.1 -31.2 N 20.67 CA 21.05 C 22.39 O 23.04 CB 21.01
A GLU H 37 -73.2 -48.1 N 24.42 CA 25.48 C 24.12 O 22.28 CB 23.09 CG 24.88 CD 27.11 OE1 27.56 OE2 25.38
A ALA H 0 -52.5 -46.2 N 24.08 CA 25.24 C 26.04 O 27.28 CB 23.39
A LYS T 91 -52.1 -14.9 N 27.44 CA 28.93 C 28.83 O 29.29 CB 29.09 CG 28.98 CD 32.21 CE 33.98 NZ 35.03
A LYS T 159 -81.2 -22.3 N 28.0 CA 29.32 C 27.57 O 29.75 CB 28.02 CG 31.77 CD 35.43 CE 39.35 NZ 43.07
A LEU S 27 -67.8 139.8 N 26.43 CA 25.6 C 25.08 O 26.88 CB 26.51 CG 27.26 CD1 27.76 CD2 26.44
A PRO T 94 -64.9 128.6 N 24.14 CA 25.52 C 25.74 O 24.18 CB 26.01 CG 25.68 CD 26.13
A GLY T 33 101.5 -9.0 N 25.23 CA 22.28 C 24.44 O 21.79
A VAL - 8 -102.4 122.5 N 22.7 CA 21.6 C 22.91 O 23.59 CB 22.42 CG1 23.65 CG2 21.69
A GLY - 28 -126.8 -165.5 N 22.13 CA 22.1 C 22.78 O 24.88
A THR H 89 -59.4 -40.1 N 25.0 CA 23.21 C 24.68 O 25.69 CB 26.64 OG1 29.44 CG2 22.25
A LYS H 147 -82.0 -27.7 N 24.56 CA 24.02 C 23.34 O 26.76 CB 26.29 CG 27.57 CD 31.4 CE 37.67 NZ 40.13
A ILE H 19 -76.4 -37.4 N 22.88 CA 23.51 C 23.43 O 24.16 CB 24.08 CG1 23.85 CG2 24.87 CD1 20.33
A ALA H 9 -50.0 -49.6 N 21.66 CA 24.04 C 24.05 O 25.91 CB 24.55
A GLU H 118 -55.5 -50.3 N 26.79 CA 30.41 C 29.47 O 28.02 CB 35.72 CG 49.4 CD 59.23 OE1 58.92 OE2 53.41
A LYS H 32 -62.6 -34.4 N 26.74 CA 25.79 C 24.05 O 20.46 CB 25.08 CG 25.45 CD 28.47 CE 25.88 NZ 29.44
A ILE H 0 -62.4 -51.6 N 22.74 CA 25.12 C 25.71 O 28.41 CB 23.43 CG1 21.21 CG2 23.86 CD1 18.96
A ASP H 78 -48.8 -47.5 N 27.61 CA 25.76 C 26.13 O 27.06 CB 25.14 CG 28.41 OD1 29.13 OD2 32.89
A GLU H 66 -59.4 -44.7 N 24.41 CA 26.16 C 27.4 O 29.46 CB 24.78 CG 25.55 CD 27.08 OE1 28.68 OE2 27.33
A PHE H 51 -65.2 -39.6 N 25.94 CA 27.83 C 30.42 O 29.09 CB 28.5 CG 27.82 CD1 28.44 CD2 28.66 CE1 26.84 CE2 27.2 CZ 27.08
A LEU H 72 -60.6 -45.9 N 29.16 CA 31.77 C 32.11 O 32.75 CB 30.45 CG 33.11 CD1 30.87 CD2 29.17
A ALA H 87 -64.8 -29.5 N 30.38 CA 33.2 C 34.78 O 34.69 CB 29.63
A THR H 75 -135.6 -8.1 N 35.07 CA 31.45 C 33.14 O 33.49 CB 31.66 OG1 32.25 CG2 29.16
A GLY S 54 74.4 16.1 N 29.22 CA 28.64 C 29.88 O 29.13
A LYS S 98 -172.6 174.2 N 31.34 CA 30.98 C 33.09 O 34.31 CB 34.67 CG 40.17 CD 41.26 CE 46.94 NZ 46.25
A LEU - 5 -120.0 121.5 N 30.99 CA 29.58 C 29.32 O 28.74 CB 29.54 CG 34.23 CD1 30.2 CD2 31.39
A ARG H 194 -48.8 -45.4 N 27.64 CA 30.11 C 31.41 O 34.51 CB 32.78 CG 34.42 CD 34.67 NE 34.89 CZ 34.08 NH1 40.35 NH2 33.68
A LYS H 156 -66.4 -38.3 N 31.89 CA 32.68 C 30.94 O 28.4 CB 31.33 CG 32.33 CD 34.63 CE 37.71 NZ 34.55
A LEU H 4 -78.5 -39.5 N 31.1 CA 29.4 C 29.69 O 30.12 CB 30.05 CG 31.32 CD1 25.44 CD2 32.07
A GLU H 66 -53.4 -44.6 N 30.06 CA 32.48 C 30.63 O 31.84 CB 34.82 CG 40.14 CD 46.61 OE1 43.69 OE2 44.39
A LYS H 130 -66.5 -44.2 N 27.18 CA 30.72 C 28.72 O 32.05 CB 28.22 CG 27.85 CD 29.83 CE 29.87 NZ 30.44
A ILE H 42 -67.6 -28.9 N 29.57 CA 31.27 C 29.26 O 26.83 CB 34.42 CG1 39.26 CG2 32.97 CD1 40.88
A ARG H 112 -66.5 -39.5 N 31.78 CA 33.81 C 35.23 O 38.43 CB 33.39 CG 35.42 CD 39.59 NE 37.92 CZ 41.87 NH1 48.68 NH2 37.49
A GLN H 131 -83.9 -8.9 N 35.51 CA 33.47 C 31.51 O 34.21 CB 36.13 CG 48.17 CD 59.23 OE1 64.89 NE2 53.83
A ASP - 68 -78.8 118.1 N 30.91 CA 27.9 C 29.02 O 27.12 CB 26.47 CG 29.94 OD1 37.39 OD2 31.19
A ASP H 85 -54.0 -55.0 N 30.96 CA 33.37 C 30.13 O 28.89 CB 35.52 CG 41.9 OD1 43.16 OD2 48.35
A THR H 66 -54.1 -55.9 N 27.24 CA 25.52 C 24.89 O 24.82 CB 29.2 OG1 35.29 CG2 26.81
A SER H 22 -68.9 -39.2 N 23.36 CA 24.42 C 23.37 O 24.11 CB 25.77 OG 26.17
A SER H 41 -73.6 -25.6 N 22.18 CA 25.63 C 23.85 O 25.61 CB 27.93 OG 34.26
A SER H 13 -68.7 -43.8 N 23.63 CA 24.52 C 23.31 O 21.28 CB 22.91 OG 24.09
A ILE H 2 -59.3 -45.9 N 21.7 CA 20.0 C 22.5 O 23.54 CB 18.79 CG1 18.8 CG2 18.41 CD1 17.67
A ASN H 30 -65.5 -41.0 N 24.8 CA 23.78 C 24.85 O 24.04 CB 24.46 CG 23.85 OD1 27.65 ND2 23.05
A PHE H 58 -65.0 -47.0 N 24.92 CA 21.84 C 22.7 O 20.5 CB 21.04 CG 21.23 CD1 20.0 CD2 20.07 CE1 19.65 CE2 20.03 CZ 19.77
A LEU H 0 -59.1 -19.8 N 20.93 CA 19.8 C 20.08 O 19.38 CB 18.88 CG 19.82 CD1 18.43 CD2 18.85
A THR T 25 -73.2 -17.2 N 18.11 CA 18.1 C 19.08 O 18.85 CB 18.4 OG1 16.9 CG2 17.07
A ARG T 130 -63.8 -14.0 N 20.25 CA 18.84 C 21.33 O 20.06 CB 19.62 CG 18.53 CD 19.97 NE 21.07 CZ 24.43 NH1 24.25 NH2 21.42
A VAL S 1 -83.8 115.5 N 20.45 CA 19.51 C 19.69 O 18.11 CB 19.7 CG1 19.36 CG2 19.49
A SER T 38 -51.5 125.6 N 18.02 CA 17.16 C 16.56 O 16.52 CB 19.49 OG 17.48
A GLY T 33 98.2 -19.4 N 16.45 CA 16.59 C 17.07 O 18.88
A ILE - 6 -100.9 115.0 N 16.23 CA 16.68 C 17.32 O 17.49 CB 16.25 CG1 16.18 CG2 16.27 CD1 16.71
A GLY - 28 -105.9 -170.7 N 18.84 CA 19.24 C 19.66 O 19.87
A PRO H 38 -55.3 -40.6 N 20.12 CA 19.46 C 20.66 O 21.54 CB 19.51 CG 19.17 CD 18.17
A SER H 83 -71.6 -44.5 N 18.4 CA 20.11 C 19.63 O 19.02 CB 21.62 OG 26.48
A ALA H 23 -64.2 -35.4 N 19.52 CA 18.27 C 18.84 O 18.33 CB 15.72
A ALA H 0 -68.4 -42.4 N 18.85 CA 19.63 C 20.17 O 21.02 CB 17.95
A ARG H 99 -52.3 -56.3 N 19.45 CA 23.29 C 22.55 O 24.13 CB 24.93 CG 29.67 CD 41.7 NE 46.99 CZ 51.92 NH1 51.27 NH2 55.79
A LYS H 140 -60.6 -38.5 N 24.09 CA 26.26 C 26.39 O 26.51 CB 32.39 CG 40.51 CD 41.46 CE 45.09 NZ 48.67
A PHE H 8 -62.5 -49.4 N 24.03 CA 23.29 C 24.77 O 20.91 CB 20.53 CG 20.98 CD1 20.69 CD2 19.43 CE1 23.08 CE2 20.9 CZ 22.08
A VAL H 8 -67.4 -36.8 N 24.83 CA 23.93 C 26.37 O 32.12 CB 23.88 CG1 19.83 CG2 20.17
A ASP H 111 -51.6 -44.8 N 29.59 CA 32.93 C 33.04 O 35.49 CB 32.27 CG 36.91 OD1 39.24 OD2 40.12
A GLU T 88 -92.2 15.6 N 32.45 CA 33.27 C 32.99 O 33.76 CB 34.09 CG 37.74 CD 44.6 OE1 46.61 OE2 43.94
A GLY T 42 85.2 14.3 N 30.47 CA 27.91 C 28.51 O 29.7
A ILE - 9 -93.5 106.6 N 26.49 CA 23.84 C 24.66 O 29.29 CB 24.96 CG1 24.88 CG2 23.99 CD1 28.87
A LYS - 68 -119.1 -19.8 N 25.23 CA 26.96 C 29.04 O 32.81 CB 29.27 CG 32.89 CD 33.34 CE 38.78 NZ 41.65
A THR S 48 -130.9 167.1 N 29.12 CA 28.55 C 27.65 O 26.54 CB 32.51 OG1 31.98 CG2 27.78
A LEU H 37 -58.0 -39.1 N 25.88 CA 27.82 C 31.19 O 31.68 CB 28.84 CG 29.89 CD1 29.2 CD2 27.84
A GLU H 93 -56.5 -43.3 N 35.54 CA 37.45 C 34.77 O 37.62 CB 36.68 CG 44.84 CD 48.46 OE1 47.05 OE2 55.78
A ASP H 38 -66.1 -35.9 N 34.54 CA 31.77 C 30.53 O 28.58 CB 34.6 CG 37.98 OD1 37.97 OD2 38.12
A LEU H 0 -66.1 -44.9 N 28.92 CA 27.21 C 28.13 O 25.67 CB 24.51 CG 25.05 CD1 25.22 CD2 24.57
A ARG H 173 -57.2 -42.0 N 28.33 CA 30.36 C 33.0 O 31.57 CB 32.34 CG 33.21 CD 34.83 NE 45.58 CZ 50.9 NH1 49.0 NH2 46.13
A LYS T 161 -70.3 -10.8 N 33.94 CA 35.38 C 35.32 O 42.37 CB 36.33 CG 39.75 CD 44.06 CE 44.62 NZ 47.42
A ASN T 44 -130.6 40.5 N 34.1 CA 30.94 C 32.6 O 30.4 CB 29.98 CG 28.05 OD1 29.93 ND2 26.78
A GLU G 115 -55.6 -27.6 N 35.46 CA 39.11 C 38.96 O 37.03 CB 49.67 CG 56.9 CD 61.32 OE1 58.6 OE2 66.46
A ASP G 128 -71.2 -11.9 N 33.04 CA 35.55 C 34.59 O 36.3 CB 43.44 CG 45.98 OD1 44.87 OD2 50.79
A LYS G 104 -89.7 4.4 N 33.05 CA 32.48 C 32.17 O 33.89 CB 33.06 CG 31.05 CD 31.9 CE 29.2 NZ 32.63
A LEU S 4 -103.7 140.8 N 27.65 CA 26.85 C 24.52 O 28.68 CB 27.77 CG 28.47 CD1 28.42 CD2 31.35
A ASN - 81 -75.0 169.1 N 24.41 CA 20.35 C 20.3 O 21.43 CB 18.47 CG 19.05 OD1 20.02 ND2 18.54
A HIS H 106 -50.3 -52.8 N 22.86 CA 22.6 C 21.61 O 19.75 CB 25.87 CG 29.01 ND1 27.74 CD2 28.17 CE1 27.33 NE2 28.66
A HIS H 44 -53.0 -48.3 N 19.84 CA 17.54 C 18.04 O 17.98 CB 17.03 CG 16.4 ND1 18.39 CD2 16.41 CE1 17.54 NE2 17.14
A GLN H 16 -60.0 -40.8 N 19.06 CA 19.63 C 20.5 O 21.14 CB 20.21 CG 19.94 CD 19.93 OE1 23.3 NE2 18.33
A ARG H 87 -61.5 -41.6 N 21.85 CA 21.01 C 21.25 O 24.09 CB 22.9 CG 26.82 CD 29.08 NE 34.68 CZ 43.89 NH1 53.6 NH2 40.42
A ILE H 10 -68.1 -43.6 N 19.75 CA 20.35 C 19.53 O 18.46 CB 23.75 CG1 23.98 CG2 22.2 CD1 28.01
A GLY H 0 -52.3 -40.2 N 19.84 CA 19.72 C 21.06 O 22.05
A LEU H 23 -74.7 -55.1 N 21.24 CA 25.0 C 25.81 O 27.25 CB 24.62 CG 26.96 CD1 30.61 CD2 26.13
A LYS H 140 -52.1 -25.7 N 27.03 CA 26.19 C 25.31 O 23.91 CB 29.61 CG 32.3 CD 33.93 CE 38.1 NZ 40.64
A TYR T 12 -116.7 32.3 N 25.09 CA 24.33 C 25.81 O 24.97 CB 24.52 CG 23.79 CD1 22.37 CD2 22.45 CE1 23.72 CE2 21.95 CZ 22.81 OH 24.28
A PHE H 26 -55.0 -50.9 N 23.56 CA 23.55 C 24.64 O 26.96 CB 23.23 CG 23.94 CD1 23.52 CD2 22.63 CE1 24.56 CE2 23.28 CZ 23.26
A GLY H 45 -67.6 -50.4 N 24.05 CA 21.52 C 24.86 O 25.13
A ASP H 39 -52.4 -41.2 N 22.43 CA 24.34 C 23.89 O 22.35 CB 24.02 CG 25.88 OD1 25.21 OD2 27.77
A PHE H 39 -67.9 -17.8 N 22.95 CA 25.01 C 25.49 O 25.46 CB 25.76 CG 26.75 CD1 27.66 CD2 28.2 CE1 30.13 CE2 28.79 CZ 28.3
A GLU H 91 -97.6 -10.9 N 29.35 CA 30.37 C 28.11 O 28.54 CB 27.95 CG 30.92 CD 32.59 OE1 29.2 OE2 32.86
A LYS S 114 -71.1 161.7 N 28.49 CA 28.92 C 32.81 O 27.3 CB 29.59 CG 28.93 CD 30.67 CE 35.51 NZ 41.08
A ARG - 138 -103.8 163.4 N 32.58 CA 31.06 C 30.61 O 26.63 CB 34.08 CG 38.06 CD 37.81 NE 38.29 CZ 40.64 NH1 41.7 NH2 41.27
A ILE E 0 -115.8 107.7 N 28.25 CA 26.49 C 26.42 O 26.84 CB 25.79 CG1 24.73 CG2 22.89 CD1 22.14
A PRO E 59 -61.0 147.9 N 26.42 CA 25.79 C 29.07 O 30.02 CB 26.64 CG 26.26 CD 26.34
A ARG H 61 -47.4 -42.3 N 25.95 CA 28.06 C 29.86 O 31.05 CB 26.34 CG 26.38 CD 23.76 NE 23.56 CZ 22.93 NH1 24.18 NH2 21.86
A GLU H 115 -54.3 -44.0 N 31.45 CA 32.46 C 31.06 O 31.58 CB 35.38 CG 38.46 CD 43.39 OE1 37.9 OE2 43.29
A GLU H 29 -69.0 -33.7 N 28.92 CA 29.14 C 26.46 O 24.21 CB 29.86 CG 29.92 CD 31.82 OE1 32.17 OE2 28.16
A MET H 1 -61.1 -43.1 N 23.59 CA 23.51 C 26.61 O 24.5 CB 23.41 CG 25.01 SD 28.06 CE 22.54
A LEU H 63 -63.4 -34.7 N 25.67 CA 27.05 C 26.69 O 32.05 CB 25.94 CG 26.68 CD1 24.19 CD2 23.63
A GLN H 58 -78.0 -28.9 N 24.42 CA 24.76 C 25.14 O 26.27 CB 24.0 CG 28.84 CD 31.75 OE1 34.78 NE2 32.09
A MET H 2 -73.1 -43.6 N 25.94 CA 25.58 C 21.94 O 24.36 CB 21.76 CG 21.48 SD 24.43 CE 22.15
A GLN H 42 -57.8 -41.0 N 23.73 CA 25.95 C 25.63 O 26.98 CB 25.77 CG 27.54 CD 26.67 OE1 29.34 NE2 24.52
A ASP H 102 -54.1 -42.8 N 25.08 CA 23.27 C 24.65 O 24.89 CB 22.51 CG 24.98 OD1 24.01 OD2 28.01
A ILE H 39 -71.3 -41.4 N 21.25 CA 20.03 C 21.07 O 23.13 CB 20.57 CG1 21.32 CG2 19.47 CD1 20.96
A VAL H 0 -68.1 -46.2 N 19.81 CA 18.68 C 20.42 O 19.08 CB 17.67 CG1 16.1 CG2 17.98
A LEU H 67 -66.1 -46.7 N 22.45 CA 23.23 C 23.24 O 23.95 CB 21.45 CG 25.1 CD1 24.69 CD2 22.89
A ASN H 89 -53.3 -49.6 N 23.64 CA 22.54 C 22.94 O 24.69 CB 23.92 CG 25.8 OD1 25.56 ND2 26.59
A GLU H 15 -76.2 -32.4 N 23.6 CA 23.74 C 22.51 O 22.42 CB 23.85 CG 25.33 CD 25.89 OE1 25.96 OE2 25.58
A VAL H 4 -65.3 -50.3 N 20.97 CA 19.97 C 19.98 O 22.05 CB 18.06 CG1 19.36 CG2 19.81
A LYS H 144 -57.4 -47.4 N 19.34 CA 21.19 C 21.52 O 23.05 CB 22.0 CG 23.91 CD 25.08 CE 27.05 NZ 24.92
A LYS H 119 -53.8 -43.3 N 21.22 CA 21.78 C 23.92 O 24.43 CB 21.26 CG 23.79 CD 25.07 CE 24.34 NZ 24.01
A VAL H 44 -60.9 -49.5 N 27.2 CA 23.77 C 24.06 O 25.96 CB 26.31 CG1 22.44 CG2 24.3
A ASP - 47 -155.6 121.8 N 24.44 CA 24.61 C 27.59 O 28.65 CB 23.04 CG 23.23 OD1 22.8 OD2 25.99
A SER T 87 -69.1 -9.0 N 24.36 CA 26.65 C 26.58 O 23.52 CB 27.4 OG 29.21
A GLU T 112 -93.2 -9.1 N 30.54 CA 30.79 C 30.66 O 31.94 CB 32.14 CG 40.24 CD 41.09 OE1 49.09 OE2 40.64
A TYR - 18 -56.7 150.3 N 25.77 CA 27.09 C 25.68 O 22.73 CB 23.72 CG 22.87 CD1 23.61 CD2 24.64 CE1 23.8 CE2 24.96 CZ 23.93 OH 26.6
A ILE E 57 -121.0 125.7 N 28.71 CA 28.95 C 30.51 O 32.21 CB 27.46 CG1 26.48 CG2 27.69 CD1 24.28
A ALA E 25 -128.2 140.3 N 27.65 CA 27.31 C 29.37 O 28.36 CB 26.87
A THR E 35 -138.6 125.3 N 26.87 CA 27.91 C 27.31 O 32.62 CB 26.96 OG1 25.42 CG2 26.81
A VAL E 4 -78.3 124.5 N 25.14 CA 22.04 C 22.53 O 20.9 CB 23.07 CG1 24.83 CG2 22.59
A CYS - 1 -102.2 -144.2 N 22.31 CA 23.67 C 23.07 O 24.46 CB 22.02 SG 26.84
A GLY H 17 69.4 -162.2 N 24.75 CA 24.56 C 24.4 O 22.33
A SER H 22 -77.4 -24.5 N 26.25 CA 30.75 C 28.98 O 29.16 CB 25.72 OG 29.77
A PHE H 11 -47.1 -56.6 N 27.72 CA 30.3 C 27.61 O 31.12 CB 27.82 CG 25.36 CD1 26.45 CD2 26.01 CE1 27.46 CE2 25.71 CZ 24.54
A ARG H 60 -61.6 -23.4 N 26.82 CA 27.15 C 28.34 O 24.7 CB 25.27 CG 23.62 CD 20.67 NE 24.18 CZ 25.76 NH1 27.12 NH2 20.3
A ARG T 63 -88.7 5.1 N 27.81 CA 33.03 C 35.46 O 37.51 CB 34.02 CG 34.71 CD 32.5 NE 32.72 CZ 32.84 NH1 34.66 NH2 31.21
A GLY T 34 80.4 18.9 N 37.0 CA 33.21 C 33.58 O 33.86
A ALA - 31 -61.7 142.5 N 31.29 CA 32.29 C 36.3 O 37.01 CB 29.68
A GLU S 158 -63.7 -18.7 N 37.14 CA 38.82 C 37.49 O 36.82 CB 41.3 CG 46.98 CD 54.42 OE1 51.41 OE2 54.34
A SER E 33 -154.1 167.2 N 33.53 CA 32.41 C 31.08 O 33.43 CB 34.57 OG 33.67
A SER E 0 -141.8 155.6 N 30.83 CA 27.46 C 23.16 O 23.53 CB 27.43 OG 28.23
A GLY S 38 -87.8 -25.0 N 24.51 CA 22.13 C 21.06 O 20.01
A ASP S 64 -166.1 -174.1 N 17.9 CA 19.27 C 19.81 O 19.68 CB 18.43 CG 20.09 OD1 23.16 OD2 19.21
A MET E 0 -122.9 128.4 N 20.1 CA 21.53 C 22.63 O 23.74 CB 20.96 CG 22.51 SD 25.88 CE 22.01
A ASP E 19 -116.3 117.2 N 22.31 CA 23.06 C 22.86 O 23.36 CB 25.5 CG 30.95 OD1 35.74 OD2 33.83
A VAL E 1 -112.3 125.1 N 22.36 CA 20.41 C 22.29 O 22.61 CB 21.15 CG1 20.97 CG2 19.24
A LEU E 0 -101.4 128.7 N 24.0 CA 25.67 C 26.64 O 25.27 CB 25.96 CG 28.59 CD1 25.58 CD2 31.5
A LEU E 0 -117.6 138.7 N 25.44 CA 26.71 C 28.14 O 29.51 CB 28.18 CG 32.81 CD1 32.58 CD2 29.03
A THR E 1 -147.4 176.1 N 24.81 CA 24.95 C 28.41 O 30.57 CB 23.78 OG1 20.25 CG2 24.49
A HIS - 12 -155.7 140.8 N 30.16 CA 31.07 C 33.71 O 36.05 CB 29.95 CG 33.28 ND1 33.81 CD2 30.85 CE1 34.09 NE2 31.73
A PRO T 56 -58.4 -26.5 N 33.76 CA 34.16 C 35.89 O 39.56 CB 32.33 CG 33.31 CD 34.21
A SER T 87 -84.3 -3.1 N 34.72 CA 35.55 C 34.58 O 29.72 CB 36.59 OG 33.49
A PHE - 47 -110.6 107.9 N 33.83 CA 32.45 C 33.92 O 31.49 CB 30.11 CG 32.27 CD1 35.3 CD2 31.96 CE1 37.42 CE2 31.7 CZ 34.11
A THR - 79 -131.9 -174.5 N 36.57 CA 41.33 C 43.33 O 40.44 CB 40.45 OG1 49.26 CG2 42.97
A SER - 116 -65.3 360.0 N 51.67 CA 59.88 C 59.48 O 64.1 CB 62.96 OG 54.44
A PRO - 88 360.0 -73.4 N 62.53 CA 60.18 C 57.79 O 55.39 CB 60.92 CG 62.67 CD 64.17
A LYS H 121 -61.1 -20.3 N 48.73 CA 44.24 C 38.85 O 36.78 CB 46.35 CG 59.48 CD 61.61 CE 60.25 NZ 49.26
A LEU H 29 -64.1 -38.8 N 32.84 CA 29.05 C 27.44 O 27.56 CB 26.84 CG 29.94 CD1 26.55 CD2 27.93
A LEU H 0 -75.9 -51.3 N 23.47 CA 21.79 C 23.05 O 23.45 CB 20.52 CG 20.94 CD1 18.23 CD2 19.67
A HIS H 41 -60.8 -39.9 N 25.48 CA 26.66 C 27.28 O 25.48 CB 36.31 CG 50.01 ND1 50.53 CD2 52.19 CE1 53.92 NE2 55.49
A GLN H 84 -57.9 -43.5 N 24.4 CA 25.09 C 23.69 O 20.66 CB 27.78 CG 34.19 CD 40.33 OE1 39.27 NE2 38.3
A VAL H 3 -62.3 -48.0 N 20.61 CA 18.15 C 18.56 O 17.98 CB 17.89 CG1 14.93 CG2 17.39
A VAL H 1 -54.6 -48.6 N 17.43 CA 19.45 C 22.46 O 21.69 CB 19.02 CG1 20.04 CG2 17.97
A GLU H 96 -54.1 -45.1 N 25.84 CA 32.32 C 28.68 O 25.63 CB 38.19 CG 53.68 CD 65.98 OE1 68.53 OE2 67.0
A GLN H 29 -64.8 -42.6 N 24.39 CA 24.89 C 25.45 O 28.11 CB 22.94 CG 21.29 CD 22.0 OE1 22.49 NE2 20.47
A LEU H 0 -66.1 -22.1 N 24.09 CA 23.66 C 21.52 O 17.7 CB 23.28 CG 22.56 CD1 23.4 CD2 22.63
A GLN H 83 -79.5 -30.0 N 22.49 CA 23.26 C 26.63 O 26.13 CB 24.27 CG 25.78 CD 26.39 OE1 27.79 NE2 23.61
A LYS H 150 -68.8 -39.8 N 30.22 CA 29.41 C 26.14 O 27.67 CB 35.26 CG 35.0 CD 40.64 CE 41.35 NZ 41.05
A VAL T 58 -89.3 12.8 N 24.18 CA 22.61 C 23.93 O 24.11 CB 22.59 CG1 22.69 CG2 20.94
A HIS T 152 66.0 19.2 N 29.1 CA 28.89 C 26.74 O 30.68 CB 33.24 CG 36.68 ND1 43.38 CD2 38.05 CE1 40.6 NE2 39.48
A PHE - 4 -71.0 -57.8 N 24.17 CA 22.81 C 22.94 O 26.59 CB 22.65 CG 21.8 CD1 23.09 CD2 19.79 CE1 21.98 CE2 21.02 CZ 19.12
A ILE E 6 -75.8 127.3 N 21.04 CA 19.6 C 21.84 O 21.2 CB 19.49 CG1 20.06 CG2 16.93 CD1 21.26
A THR E 54 -108.2 -25.5 N 20.62 CA 21.96 C 23.85 O 21.01 CB 22.44 OG1 20.67 CG2 19.88
A ASP E 27 -148.7 161.6 N 20.8 CA 22.96 C 22.59 O 22.34 CB 21.47 CG 20.1 OD1 21.17 OD2 21.01
A THR E 35 -130.4 119.8 N 22.32 CA 21.49 C 21.56 O 19.85 CB 20.62 OG1 20.36 CG2 18.68
A LEU E 14 -86.3 -48.1 N 21.77 CA 22.22 C 22.29 O 25.39 CB 19.83 CG 18.14 CD1 18.48 CD2 18.72
A SER E 53 -156.9 155.8 N 20.45 CA 22.97 C 22.05 O 21.59 CB 21.95 OG 24.85
A LYS E 96 -156.7 126.6 N 23.52 CA 27.78 C 29.4 O 32.45 CB 30.7 CG 32.15 CD 33.3 CE 34.44 NZ 39.04
A GLY - 43 -127.9 -155.1 N 32.12 CA 29.97 C 31.75 O 27.09
A GLU S 149 -83.3 -20.6 N 33.77 CA 31.45 C 30.4 O 35.55 CB 33.04 CG 35.37 CD 38.28 OE1 39.99 OE2 39.98
A THR S 76 -123.0 -23.8 N 25.69 CA 26.08 C 24.75 O 25.46 CB 27.76 OG1 27.26 CG2 30.55
A LYS E 65 -128.1 137.8 N 23.34 CA 22.44 C 19.6 O 20.71 CB 24.41 CG 28.14 CD 31.65 CE 41.83 NZ 43.74
A PHE E 0 -120.4 137.1 N 17.26 CA 16.32 C 17.18 O 18.25 CB 15.21 CG 14.35 CD1 14.05 CD2 13.89 CE1 14.48 CE2 14.01 CZ 13.32
A MET E 33 -125.0 130.0 N 18.52 CA 21.37 C 21.63 O 21.56 CB 21.99 CG 24.98 SD 31.61 CE 28.66
A GLY E 0 -157.8 -161.7 N 20.57 CA 20.67 C 21.13 O 23.77
A VAL E 0 -135.6 141.3 N 20.64 CA 21.05 C 22.44 O 24.36 CB 21.39 CG1 18.89 CG2 20.06
A CYS E 0 -134.1 170.4 N 21.78 CA 22.62 C 26.54 O 32.23 CB 19.65 SG 25.41
A GLN - 36 -156.6 122.7 N 26.51 CA 26.72 C 26.42 O 27.7 CB 24.64 CG 24.02 CD 26.4 OE1 26.64 NE2 25.11
A LEU - 8 -58.5 143.3 N 27.17 CA 29.9 C 32.46 O 29.22 CB 31.33 CG 30.46 CD1 30.63 CD2 30.83
A PRO - 95 -67.5 149.7 N 33.02 CA 35.69 C 38.05 O 30.55 CB 35.75 CG 35.0 CD 33.12
A SER - 131 -75.2 360.0 N 48.23 CA 55.7 C 59.01 O 54.24 CB 58.43 OG 72.41
A GLU - 182 360.0 142.3 N 57.47 CA 54.01 C 47.18 O 49.46 CB 56.52 CG 67.79 CD 75.58 OE1 71.21 OE2 79.8
A TYR - 71 -65.6 152.7 N 42.15 CA 38.62 C 32.6 O 31.11 CB 38.49 CG 37.88 CD1 40.05 CD2 33.11 CE1 39.96 CE2 35.63 CZ 37.12 OH 38.59
A PRO - 28 -63.0 150.9 N 29.25 CA 27.38 C 25.68 O 24.39 CB 26.88 CG 25.99 CD 28.25
A HIS - 24 -72.0 146.9 N 24.07 CA 23.89 C 24.29 O 24.66 CB 24.4 CG 24.71 ND1 25.78 CD2 24.16 CE1 25.83 NE2 26.02
A ARG E 13 -132.3 148.8 N 22.78 CA 23.11 C 24.56 O 25.11 CB 23.5 CG 25.6 CD 25.66 NE 28.11 CZ 31.8 NH1 30.66 NH2 29.66
A ARG E 36 -77.4 131.2 N 23.57 CA 21.09 C 19.8 O 20.03 CB 20.49 CG 19.92 CD 21.12 NE 21.02 CZ 22.06 NH1 23.58 NH2 22.96
A ILE E 0 -132.0 130.2 N 16.13 CA 16.18 C 16.81 O 17.17 CB 15.36 CG1 14.46 CG2 13.1 CD1 14.0
A ASP E 12 -106.3 147.2 N 17.26 CA 18.46 C 18.5 O 17.81 CB 18.58 CG 20.32 OD1 21.24 OD2 22.73
A ILE E 1 -135.3 120.9 N 18.0 CA 17.41 C 20.22 O 19.1 CB 17.19 CG1 17.72 CG2 17.78 CD1 15.78
A ARG E 35 -121.0 134.5 N 21.0 CA 23.99 C 22.48 O 21.31 CB 25.85 CG 33.02 CD 36.23 NE 37.29 CZ 37.24 NH1 38.01 NH2 37.36
A LEU E 3 -99.9 123.0 N 21.2 CA 21.59 C 23.35 O 26.81 CB 19.0 CG 20.09 CD1 16.91 CD2 18.33
A ILE - 17 -120.9 147.5 N 23.78 CA 26.6 C 28.18 O 27.43 CB 28.83 CG1 33.02 CG2 30.15 CD1 29.74
A PRO - 16 -66.9 153.1 N 29.53 CA 29.14 C 32.85 O 38.09 CB 30.09 CG 27.65 CD 27.65
A LYS G 71 -57.7 -39.1 N 31.45 CA 30.3 C 30.55 O 28.84 CB 34.26 CG 38.77 CD 42.24 CE 44.71 NZ 41.82
A ASP G 74 -83.8 1.6 N 28.69 CA 32.02 C 32.27 O 31.54 CB 34.93 CG 39.86 OD1 42.63 OD2 44.3
A GLN G 39 -117.5 7.2 N 28.46 CA 29.98 C 27.63 O 31.12 CB 29.2 CG 31.83 CD 33.92 OE1 41.96 NE2 34.15
A TYR H 1 -71.2 -43.0 N 24.09 CA 26.66 C 26.97 O 32.76 CB 24.4 CG 24.83 CD1 23.26 CD2 26.52 CE1 22.29 CE2 25.49 CZ 24.85 OH 23.59
A TYR H 59 -72.4 -32.1 N 28.97 CA 29.51 C 28.99 O 32.16 CB 33.48 CG 36.84 CD1 39.5 CD2 37.88 CE1 40.17 CE2 38.27 CZ 37.53 OH 40.01
A CYS H 2 -56.7 -42.3 N 25.69 CA 26.65 C 27.39 O 28.96 CB 28.0 SG 29.34
A GLY H 1 -62.1 -45.9 N 27.63 CA 25.16 C 27.66 O 25.88
A VAL H 2 -61.3 -48.0 N 23.83 CA 25.44 C 25.23 O 23.79 CB 26.84 CG1 26.11 CG2 24.68
A LEU H 6 -53.9 -53.4 N 24.71 CA 24.02 C 24.77 O 25.16 CB 25.57 CG 24.94 CD1 28.66 CD2 26.42
A TYR H 82 -61.7 -55.4 N 24.11 CA 26.19 C 28.07 O 26.8 CB 29.44 CG 33.07 CD1 34.77 CD2 35.59 CE1 34.1 CE2 37.26 CZ 34.23 OH 30.17
A PHE H 31 -69.3 -8.5 N 23.61 CA 23.14 C 21.93 O 20.97 CB 21.27 CG 22.93 CD1 23.39 CD2 20.76 CE1 23.86 CE2 20.62 CZ 23.0
A THR H 1 -78.7 -41.5 N 23.53 CA 26.77 C 25.49 O 27.12 CB 27.32 OG1 29.86 CG2 26.56
A GLY - 4 57.6 -140.0 N 28.48 CA 28.81 C 30.34 O 29.0
A SER - 16 -67.0 169.5 N 31.81 CA 33.95 C 33.25 O 36.4 CB 38.66 OG 41.64
A ASP H 100 -8.7 -80.6 N 37.97 CA 40.19 C 37.34 O 35.13 CB 44.5 CG 45.49 OD1 51.78 OD2 46.85
A ILE H 62 -65.4 -42.1 N 37.33 CA 38.8 C 36.75 O 35.61 CB 45.3 CG1 49.53 CG2 48.72 CD1 49.45
A PHE H 0 -56.6 -50.2 N 35.58 CA 37.58 C 36.44 O 32.95 CB 37.74 CG 39.69 CD1 36.57 CD2 36.6 CE1 39.18 CE2 38.01 CZ 38.09
A ASN H 14 -61.1 -45.3 N 33.29 CA 36.95 C 38.4 O 35.04 CB 39.48 CG 40.11 OD1 39.83 ND2 38.09
A LYS H 119 -52.7 -59.3 N 43.98 CA 48.08 C 45.32 O 49.79 CB 47.61 CG 52.14 CD 49.73 CE 48.03 NZ 45.33
A ASN H 76 -50.1 -34.7 N 40.93 CA 42.35 C 41.44 O 37.45 CB 41.35 CG 49.84 OD1 57.66 ND2 50.97
A MET H 3 -81.3 -34.1 N 40.88 CA 41.4 C 38.98 O 36.52 CB 43.01 CG 40.62 SD 38.56 CE 32.59
A ARG H 83 -64.5 -45.5 N 39.08 CA 34.4 C 38.22 O 34.33 CB 33.21 CG 32.4 CD 31.83 NE 29.48 CZ 32.65 NH1 36.5 NH2 31.17
A ALA H 62 -60.0 -49.5 N 40.73 CA 45.53 C 48.82 O 55.4 CB 47.68
A HIS H 33 -59.3 -46.8 N 46.31 CA 46.78 C 46.71 O 45.81 CB 45.42 CG 49.95 ND1 50.58 CD2 46.36 CE1 52.62 NE2 46.99
A ALA H 0 -49.5 -43.7 N 48.73 CA 47.83 C 47.32 O 42.27 CB 41.18
A LEU H 101 -54.8 -55.0 N 45.57 CA 52.22 C 53.98 O 43.27 CB 55.32 CG 59.36 CD1 54.26 CD2 52.44
A GLU H 139 -59.0 -21.1 N 57.67 CA 59.56 C 54.54 O 56.76 CB 66.34 CG 73.28 CD 80.68 OE1 84.1 OE2 83.95
A LYS T 95 -99.6 12.9 N 53.66 CA 51.37 C 44.8 O 42.89 CB 55.47 CG 65.28 CD 71.68 CE 74.55 NZ 69.47
A GLY T 30 70.5 47.5 N 40.59 CA 45.49 C 52.34 O 51.98
A PHE E 37 -141.8 152.2 N 51.84 CA 47.82 C 45.85 O 45.71 CB 46.24 CG 45.42 CD1 40.23 CD2 45.18 CE1 44.06 CE2 42.32 CZ 41.95
A THR E 37 -119.5 148.6 N 47.44 CA 43.47 C 44.13 O 43.65 CB 43.45 OG1 37.73 CG2 41.65
A ILE E 15 -139.1 118.0 N 42.98 CA 39.68 C 43.42 O 41.26 CB 40.78 CG1 40.9 CG2 40.55 CD1 37.23
A ASN - 44 -108.8 -169.1 N 44.84 CA 43.46 C 44.26 O 38.63 CB 41.11 CG 42.95 OD1 40.34 ND2 39.37
A GLU S 52 -62.5 -13.8 N 39.38 CA 41.69 C 37.35 O 37.76 CB 38.54 CG 43.12 CD 41.21 OE1 36.54 OE2 48.23
A TYR S 106 -109.6 -46.4 N 35.69 CA 36.56 C 39.74 O 41.4 CB 41.33 CG 47.19 CD1 47.52 CD2 50.77 CE1 52.1 CE2 55.7 CZ 55.69 OH 57.66
A THR - 18 -142.2 164.7 N 39.07 CA 38.67 C 36.06 O 40.29 CB 38.23 OG1 40.53 CG2 39.06
A ILE E 0 -119.0 133.3 N 36.29 CA 35.48 C 37.97 O 40.18 CB 34.12 CG1 30.96 CG2 35.71 CD1 28.93
A ARG E 76 -129.7 139.6 N 36.03 CA 39.19 C 40.84 O 45.23 CB 37.97 CG 36.64 CD 39.45 NE 41.48 CZ 46.81 NH1 50.8 NH2 44.86
A PRO E 44 -73.5 150.7 N 38.61 CA 38.96 C 41.86 O 46.11 CB 36.45 CG 37.86 CD 39.16
A LEU B 52 -92.9 136.9 N 44.98 CA 45.14 C 49.25 O 47.65 CB 41.81 CG 40.35 CD1 41.64 CD2 37.31
A GLY - 58 -75.4 360.0 N 54.05 CA 56.3 C 62.72 O 57.37
A THR - 162 360.0 -2.5 N 68.21 CA 66.13 C 62.52 O 57.31 CB 70.85 OG1 71.91 CG2 73.14
A GLY - 54 113.5 2.9 N 61.34 CA 56.23 C 58.66 O 55.34
A VAL - 85 -73.6 104.9 N 60.64 CA 60.51 C 61.15 O 55.52 CB 66.02 CG1 62.93 CG2 56.49
A ALA B 35 -61.0 122.3 N 57.22 CA 52.53 C 47.91 O 44.44 CB 49.15
A GLY - 31 -93.3 -150.4 N 40.98 CA 43.42 C 46.52 O 47.26
A GLU - 159 -72.6 144.1 N 42.84 CA 48.22 C 52.46 O 51.35 CB 44.58 CG 47.29 CD 55.29 OE1 55.9 OE2 54.88
A PRO - 70 -50.3 133.6 N 52.83 CA 48.19 C 45.83 O 47.63 CB 47.36 CG 50.15 CD 51.02
A LEU - 51 -86.7 154.9 N 40.97 CA 41.74 C 45.4 O 47.57 CB 41.94 CG 40.56 CD1 38.15 CD2 37.06
A PRO - 94 -65.6 146.8 N 48.19 CA 41.62 C 43.76 O 43.41 CB 45.51 CG 45.54 CD 49.19
A VAL - 7 -141.6 129.2 N 39.39 CA 38.94 C 39.08 O 36.93 CB 40.02 CG1 36.8 CG2 38.68
A ASP S 119 -128.9 -8.6 N 40.17 CA 42.42 C 40.85 O 44.41 CB 46.37 CG 54.94 OD1 50.17 OD2 63.95
A SER S 42 -146.0 170.1 N 40.45 CA 36.85 C 35.85 O 35.61 CB 39.72 OG 41.67
A GLU H 9 -50.9 -42.8 N 35.44 CA 36.75 C 40.68 O 43.1 CB 36.45 CG 36.81 CD 40.47 OE1 38.2 OE2 40.5
A LYS H 106 -54.1 -48.8 N 42.42 CA 47.81 C 45.45 O 45.98 CB 48.56 CG 50.38 CD 53.23 CE 50.3 NZ 49.1
A ASP H 49 -39.8 -44.9 N 42.24 CA 44.48 C 45.11 O 45.9 CB 43.7 CG 43.56 OD1 47.84 OD2 43.27
A ILE H 0 -64.2 -62.0 N 45.24 CA 42.87 C 43.12 O 46.01 CB 39.03 CG1 32.31 CG2 37.91 CD1 29.38
A PHE H 0 -49.0 -34.5 N 42.06 CA 40.28 C 39.62 O 42.9 CB 39.1 CG 35.62 CD1 35.75 CD2 36.26 CE1 37.0 CE2 31.92 CZ 37.29
A ASP H 72 -63.1 -56.5 N 42.06 CA 44.96 C 48.96 O 48.19 CB 43.8 CG 42.8 OD1 35.99 OD2 41.51
A TYR H 72 -48.3 -36.3 N 46.57 CA 44.9 C 46.87 O 45.71 CB 44.94 CG 42.39 CD1 40.66 CD2 38.93 CE1 40.71 CE2 37.74 CZ 35.89 OH 39.43
A ILE T 1 -92.1 4.3 N 45.52 CA 52.58 C 57.21 O 55.82 CB 52.12 CG1 50.36 CG2 47.05 CD1 52.9
A GLN T 160 60.5 22.5 N 52.12 CA 58.01 C 58.92 O 62.47 CB 58.12 CG 59.42 CD 64.2 OE1 63.99 NE2 61.1
A TRP - 52 -91.8 146.8 N 60.04 CA 56.42 C 58.35 O 57.92 CB 54.92 CG 59.15 CD1 57.08 CD2 57.29 NE1 57.22 CE2 59.06 CE3 57.16 CZ2 60.5 CZ3 57.61 CH2 61.96
A LYS - 182 -77.3 132.3 N 58.17 CA 53.63 C 49.67 O 42.27 CB 56.65 CG 61.15 CD 63.36 CE 59.97 NZ 54.39
A TYR - 62 -38.7 132.5 N 42.32 CA 47.07 C 49.86 O 60.89 CB 48.83 CG 47.71 CD1 44.66 CD2 46.26 CE1 47.11 CE2 44.28 CZ 47.28 OH 44.83
A ARG - 70 -112.2 128.4 N 47.22 CA 47.25 C 44.35 O 44.71 CB 47.61 CG 55.68 CD 51.55 NE 50.94 CZ 52.83 NH1 50.42 NH2 54.15
A GLU - 104 -54.6 138.8 N 46.34 CA 50.85 C 50.06 O 50.63 CB 54.22 CG 58.59 CD 59.3 OE1 59.1 OE2 60.26
A PRO G 12 -49.7 -43.3 N 48.75 CA 41.84 C 42.87 O 43.21 CB 38.01 CG 38.51 CD 42.57
A LYS G 158 -26.4 -50.5 N 42.81 CA 42.99 C 42.59 O 41.56 CB 47.16 CG 45.76 CD 48.88 CE 49.12 NZ 58.58
A ASP G 80 -103.6 41.5 N 43.89 CA 46.19 C 46.01 O 48.54 CB 43.91 CG 43.44 OD1 49.1 OD2 37.25
A ARG - 0 -127.3 24.8 N 44.75 CA 42.75 C 44.62 O 43.76 CB 41.3 CG 40.85 CD 41.55 NE 41.8 CZ 40.62 NH1 37.56 NH2 40.71
A SER - 78 -55.5 -46.5 N 44.88 CA 56.49 C 55.79 O 57.05 CB 57.72 OG 67.77
A GLU - 99 -144.1 360.0 N 54.74 CA 58.02 C 52.34 O 45.92 CB 64.44 CG 73.49 CD 78.73 OE1 81.42 OE2 77.32 OXT 51.86
