A GLU - 137 360.0 139.7 N 21.57 CA 19.98 C 17.53 O 19.79 CB 21.7 CG 22.68 CD 26.03 OE1 26.97 OE2 26.89 HA 23.98 HB2 26.04 HB3 26.04 HG2 27.22 HG3 27.22
A LYS E 124 -93.7 153.4 N 15.44 CA 13.29 C 11.81 O 13.93 CB 15.4 CG 20.03 CD 24.12 CE 28.0 NZ 30.97 H 18.53 HA 15.95 HB2 18.48 HB3 18.48 HG2 24.04 HG3 24.04 HD2 28.95 HD3 28.95 HE2 33.6 HE3 33.6 HZ1 37.17 HZ2 37.17 HZ3 37.17
A ILE E 103 -126.0 128.7 N 11.14 CA 9.96 C 9.86 O 10.65 CB 12.03 CG1 16.7 CG2 14.91 CD1 19.88 H 13.37 HA 11.95 HB 14.44 HG12 20.04 HG13 20.04 HG21 17.89 HG22 17.89 HG23 17.89 HD11 23.86 HD12 23.86 HD13 23.86
A VAL E 0 -125.3 101.8 N 8.09 CA 7.9 C 6.92 O 8.18 CB 8.91 CG1 9.57 CG2 9.96 H 9.71 HA 9.47 HB 10.69 HG11 11.48 HG12 11.48 HG13 11.48 HG21 11.95 HG22 11.95 HG23 11.95
A SER E 32 -90.9 124.7 N 7.06 CA 7.51 C 7.07 O 7.54 CB 9.24 OG 11.83 H 8.47 HA 9.01 HB2 11.08 HB3 11.08 HG 14.19
A ILE E 0 -118.5 143.9 N 5.99 CA 5.84 C 5.83 O 6.72 CB 5.98 CG1 5.77 CG2 6.29 CD1 7.0 H 7.19 HA 7.01 HB 7.17 HG12 6.92 HG13 6.92 HG21 7.55 HG22 7.55 HG23 7.55 HD11 8.4 HD12 8.4 HD13 8.4
A GLY E 0 -137.8 165.3 N 6.57 CA 6.67 C 6.53 O 10.4 H 7.88 HA2 8.0 HA3 8.0
A GLY E 0 149.5 -149.1 N 7.1 CA 7.51 C 6.87 O 8.47 H 8.52 HA2 9.01 HA3 9.01
A SER - 3 -51.6 139.1 N 7.36 CA 8.48 C 8.66 O 8.63 CB 10.74 OG 13.9 H 8.83 HA 10.17 HB2 12.88 HB3 12.88 HG 16.68
A THR G 85 -72.3 -25.3 N 10.88 CA 12.38 C 12.79 O 16.3 CB 16.61 OG1 20.29 CG2 19.01 H 13.06 HA 14.85 HB 19.93 HG1 24.35 HG21 22.81 HG22 22.81 HG23 22.81
A THR G 62 -66.7 -17.2 N 11.45 CA 14.17 C 13.57 O 17.52 CB 16.74 OG1 18.73 CG2 18.07 H 13.75 HA 17.01 HB 20.09 HG1 22.47 HG21 21.69 HG22 21.69 HG23 21.69
A VAL G 0 -115.8 10.9 N 11.24 CA 11.09 C 9.07 O 8.61 CB 13.56 CG1 18.31 CG2 13.98 H 13.49 HA 13.31 HB 16.27 HG11 21.97 HG12 21.97 HG13 21.97 HG21 16.78 HG22 16.78 HG23 16.78
A SER H 29 -47.7 -52.9 N 8.8 CA 8.95 C 8.67 O 9.02 CB 10.54 OG 12.04 H 10.56 HA 10.74 HB2 12.64 HB3 12.64 HG 14.44
A PRO H 71 -70.5 -22.4 N 9.11 CA 9.49 C 9.1 O 9.5 CB 11.0 CG 10.37 CD 9.73 HA 11.39 HB2 13.2 HB3 13.2 HG2 12.45 HG3 12.45 HD2 11.68 HD3 11.68
A ILE H 2 -68.0 -51.6 N 8.69 CA 9.3 C 8.33 O 7.87 CB 10.19 CG1 12.01 CG2 10.94 CD1 14.94 H 10.43 HA 11.15 HB 12.23 HG12 14.41 HG13 14.41 HG21 13.13 HG22 13.13 HG23 13.13 HD11 17.93 HD12 17.93 HD13 17.93
A LEU H 0 -60.5 -40.7 N 7.46 CA 8.13 C 7.42 O 7.79 CB 8.56 CG 8.71 CD1 9.67 CD2 9.23 H 8.96 HA 9.76 HB2 10.28 HB3 10.28 HG 10.45 HD11 11.6 HD12 11.6 HD13 11.6 HD21 11.08 HD22 11.08 HD23 11.08
A ASP H 74 -62.9 -43.7 N 7.93 CA 8.47 C 8.62 O 9.02 CB 10.17 CG 11.31 OD1 12.38 OD2 13.73 H 9.51 HA 10.17 HB2 12.2 HB3 12.2
A GLU H 58 -67.2 -39.1 N 8.75 CA 7.92 C 8.34 O 8.86 CB 9.19 CG 9.71 CD 10.43 OE1 12.34 OE2 13.14 H 10.5 HA 9.5 HB2 11.02 HB3 11.02 HG2 11.65 HG3 11.65
A MET H 0 -59.2 -42.2 N 7.48 CA 6.96 C 7.54 O 7.56 CB 7.3 CG 7.85 SD 9.39 CE 10.37 H 8.98 HA 8.35 HB2 8.77 HB3 8.77 HG2 9.42 HG3 9.42 HE1 12.44 HE2 12.44 HE3 12.44
A ILE H 27 -59.7 -48.0 N 6.95 CA 7.82 C 8.22 O 8.49 CB 8.07 CG1 7.96 CG2 9.29 CD1 8.51 H 8.35 HA 9.38 HB 9.68 HG12 9.56 HG13 9.56 HG21 11.15 HG22 11.15 HG23 11.15 HD11 10.21 HD12 10.21 HD13 10.21
A LEU H 123 -71.6 -34.2 N 8.82 CA 9.73 C 10.18 O 10.91 CB 13.02 CG 15.42 CD1 18.54 CD2 18.42 H 10.58 HA 11.67 HB2 15.62 HB3 15.62 HG 18.51 HD11 22.25 HD12 22.25 HD13 22.25 HD21 22.1 HD22 22.1 HD23 22.1
A ARG H 97 -75.4 -35.5 N 9.4 CA 9.67 C 8.7 O 9.74 CB 10.34 CG 11.97 CD 12.58 NE 13.03 CZ 13.16 NH1 12.21 NH2 14.09 H 11.27 HA 11.6 HB2 12.4 HB3 12.4 HG2 14.37 HG3 14.37 HD2 15.1 HD3 15.1 HE 15.63 HH11 14.66 HH12 14.66 HH21 16.91 HH22 16.91
A TYR H 14 -64.2 -31.9 N 8.63 CA 7.79 C 7.5 O 9.32 CB 8.03 CG 7.29 CD1 7.5 CD2 8.39 CE1 8.58 CE2 8.53 CZ 8.58 OH 10.09 H 10.35 HA 9.35 HB2 9.64 HB3 9.64 HD1 9.0 HD2 10.06 HE1 10.29 HE2 10.24 HH 12.11
A ASP H 72 -61.2 -26.0 N 8.86 CA 9.83 C 10.07 O 12.02 CB 12.4 CG 16.0 OD1 18.02 OD2 19.3 H 10.63 HA 11.8 HB2 14.87 HB3 14.87
A LYS H 179 -67.5 -28.7 N 9.66 CA 10.4 C 10.42 O 12.64 CB 11.34 CG 12.5 CD 13.74 CE 13.98 NZ 16.65 H 11.59 HA 12.48 HB2 13.6 HB3 13.6 HG2 15.0 HG3 15.0 HD2 16.49 HD3 16.49 HE2 16.77 HE3 16.77 HZ1 19.99 HZ2 19.99 HZ3 19.99
A ILE H 120 -87.2 -44.9 N 8.52 CA 8.5 C 8.38 O 8.9 CB 8.72 CG1 10.77 CG2 10.15 CD1 12.8 H 10.22 HA 10.2 HB 10.46 HG12 12.92 HG13 12.92 HG21 12.18 HG22 12.18 HG23 12.18 HD11 15.35 HD12 15.35 HD13 15.35
A ASN - 27 -138.7 99.9 N 8.62 CA 8.31 C 10.71 O 13.01 CB 10.0 CG 10.35 OD1 12.48 ND2 12.04 H 10.34 HA 9.97 HB2 12.0 HB3 12.0 HD21 14.44 HD22 14.44
A ASN T 120 -90.4 11.6 N 11.15 CA 13.99 C 14.15 O 17.15 CB 18.58 CG 21.16 OD1 23.58 ND2 25.15 H 13.37 HA 16.79 HB2 22.3 HB3 22.3 HD21 30.19 HD22 30.19
A ASN T 75 -95.9 1.7 N 12.1 CA 13.1 C 12.7 O 14.34 CB 17.62 CG 23.3 OD1 25.57 ND2 25.42 H 14.52 HA 15.72 HB2 21.14 HB3 21.14 HD21 30.51 HD22 30.51
A THR E 7 -119.2 135.2 N 11.3 CA 9.72 C 10.33 O 12.18 CB 11.09 OG1 13.06 CG2 12.99 H 13.56 HA 11.67 HB 13.31 HG1 15.67 HG21 15.59 HG22 15.59 HG23 15.59
A LYS E 118 -99.7 117.0 N 9.82 CA 9.49 C 8.12 O 9.78 CB 10.48 CG 12.12 CD 13.11 CE 15.8 NZ 17.44 H 11.78 HA 11.39 HB2 12.58 HB3 12.58 HG2 14.54 HG3 14.54 HD2 15.73 HD3 15.73 HE2 18.96 HE3 18.96 HZ1 20.93 HZ2 20.93 HZ3 20.93
A VAL E 8 -115.6 135.6 N 7.51 CA 6.75 C 7.31 O 8.66 CB 7.5 CG1 7.27 CG2 8.53 H 9.01 HA 8.1 HB 9.0 HG11 8.72 HG12 8.72 HG13 8.72 HG21 10.24 HG22 10.24 HG23 10.24
A THR E 55 -131.3 156.0 N 7.25 CA 7.31 C 7.1 O 7.5 CB 9.15 OG1 9.39 CG2 10.28 H 8.7 HA 8.77 HB 10.98 HG1 11.27 HG21 12.34 HG22 12.34 HG23 12.34
A TYR E 28 -128.4 123.5 N 7.05 CA 7.11 C 8.1 O 9.28 CB 7.79 CG 6.59 CD1 6.87 CD2 7.14 CE1 6.86 CE2 7.57 CZ 7.14 OH 8.2 H 8.46 HA 8.53 HB2 9.34 HB3 9.34 HD1 8.25 HD2 8.56 HE1 8.23 HE2 9.08 HH 9.84
A ASP E 82 -119.5 114.1 N 8.5 CA 11.04 C 11.18 O 13.64 CB 16.32 CG 22.44 OD1 25.88 OD2 27.16 H 10.2 HA 13.24 HB2 19.58 HB3 19.58
A ALA E 30 -95.8 111.7 N 11.19 CA 13.03 C 11.95 O 12.7 CB 16.34 H 13.43 HA 15.63 HB1 19.61 HB2 19.61 HB3 19.61
A GLN S 80 -120.2 -15.4 N 10.82 CA 10.89 C 10.78 O 12.23 CB 13.95 CG 17.39 CD 18.26 OE1 17.79 NE2 20.77 H 12.98 HA 13.07 HB2 16.74 HB3 16.74 HG2 20.87 HG3 20.87 HE21 24.92 HE22 24.92
A GLY - 18 132.7 156.2 N 9.54 CA 9.21 C 7.19 O 7.95 H 11.45 HA2 11.06 HA3 11.06
A SER H 15 -58.2 -50.1 N 8.29 CA 8.24 C 8.19 O 8.17 CB 8.91 OG 9.26 H 9.95 HA 9.88 HB2 10.69 HB3 10.69 HG 11.12
A SER H 68 -65.1 -40.7 N 9.37 CA 9.72 C 8.22 O 8.75 CB 13.31 OG 19.16 H 11.25 HA 11.66 HB2 15.97 HB3 15.97 HG 22.99
A VAL H 71 -62.7 -41.1 N 8.42 CA 9.2 C 8.31 O 8.58 CB 11.01 CG1 11.19 CG2 12.27 H 10.1 HA 11.05 HB 13.21 HG11 13.43 HG12 13.43 HG13 13.43 HG21 14.72 HG22 14.72 HG23 14.72
A GLY H 0 -58.9 -48.2 N 7.7 CA 7.49 C 7.08 O 6.81 H 9.24 HA2 8.99 HA3 8.99
A ILE H 1 -64.0 -42.3 N 6.89 CA 5.87 C 6.15 O 6.36 CB 8.45 CG1 9.38 CG2 10.32 CD1 11.39 H 8.27 HA 7.05 HB 10.14 HG12 11.26 HG13 11.26 HG21 12.39 HG22 12.39 HG23 12.39 HD11 13.66 HD12 13.66 HD13 13.66
A ASN H 101 -60.2 -41.6 N 6.17 CA 5.81 C 5.97 O 7.04 CB 7.0 CG 7.52 OD1 10.43 ND2 8.53 H 7.41 HA 6.97 HB2 8.41 HB3 8.41 HD21 10.24 HD22 10.24
A GLY H 8 -65.3 -36.8 N 6.29 CA 6.37 C 5.98 O 7.79 H 7.55 HA2 7.64 HA3 7.64
A LEU H 6 -57.4 -49.8 N 6.72 CA 6.79 C 6.6 O 7.14 CB 6.62 CG 6.96 CD1 8.7 CD2 7.54 H 8.07 HA 8.15 HB2 7.94 HB3 7.94 HG 8.35 HD11 10.44 HD12 10.44 HD13 10.44 HD21 9.05 HD22 9.05 HD23 9.05
A PHE H 38 -66.1 -27.6 N 6.16 CA 6.93 C 7.8 O 9.46 CB 7.94 CG 8.04 CD1 13.32 CD2 10.24 CE1 14.93 CE2 11.71 CZ 12.06 H 7.39 HA 8.31 HB2 9.52 HB3 9.52 HD1 15.98 HD2 12.29 HE1 17.92 HE2 14.05 HZ 14.47
A ASN T 99 -95.3 13.1 N 6.87 CA 6.97 C 8.83 O 10.17 CB 7.47 CG 7.45 OD1 8.72 ND2 7.47 H 8.24 HA 8.36 HB2 8.96 HB3 8.96 HD21 8.97 HD22 8.97
A LYS T 161 66.8 19.7 N 7.94 CA 9.55 C 9.25 O 13.42 CB 11.91 CG 16.1 CD 17.15 CE 23.53 NZ 26.79 H 9.53 HA 11.46 HB2 14.29 HB3 14.29 HG2 19.32 HG3 19.32 HD2 20.58 HD3 20.58 HE2 28.23 HE3 28.23 HZ1 32.15 HZ2 32.15 HZ3 32.15
A ILE S 108 -80.7 -35.8 N 7.54 CA 8.29 C 7.96 O 10.34 CB 10.64 CG1 12.26 CG2 11.06 CD1 14.68 H 9.05 HA 9.94 HB 12.77 HG12 14.71 HG13 14.71 HG21 13.27 HG22 13.27 HG23 13.27 HD11 17.61 HD12 17.61 HD13 17.61
A TYR - 19 -119.4 150.2 N 7.15 CA 5.68 C 7.07 O 8.26 CB 5.86 CG 7.45 CD1 9.19 CD2 8.04 CE1 10.26 CE2 8.79 CZ 10.5 OH 14.41 H 8.58 HA 6.82 HB2 7.03 HB3 7.03 HD1 11.02 HD2 9.65 HE1 12.31 HE2 10.55 HH 17.29
A LYS S 75 -92.9 -18.2 N 6.28 CA 6.77 C 6.89 O 6.78 CB 7.49 CG 11.32 CD 13.58 CE 17.34 NZ 17.84 H 7.53 HA 8.13 HB2 8.99 HB3 8.99 HG2 13.58 HG3 13.58 HD2 16.29 HD3 16.29 HE2 20.81 HE3 20.81 HZ1 21.4 HZ2 21.4 HZ3 21.4
A ILE E 0 -139.3 140.0 N 5.61 CA 6.17 C 5.17 O 6.52 CB 5.84 CG1 7.94 CG2 7.8 CD1 7.42 H 6.74 HA 7.4 HB 7.0 HG12 9.52 HG13 9.52 HG21 9.36 HG22 9.36 HG23 9.36 HD11 8.91 HD12 8.91 HD13 8.91
A ALA E 0 -116.0 144.5 N 5.16 CA 6.01 C 6.22 O 7.22 CB 6.56 H 6.19 HA 7.21 HB1 7.87 HB2 7.87 HB3 7.87
A ILE E 0 -111.9 122.1 N 6.24 CA 6.82 C 6.27 O 7.87 CB 8.16 CG1 8.31 CG2 11.11 CD1 7.19 H 7.48 HA 8.18 HB 9.79 HG12 9.97 HG13 9.97 HG21 13.33 HG22 13.33 HG23 13.33 HD11 8.62 HD12 8.62 HD13 8.62
A SER E 0 -124.2 142.6 N 6.86 CA 6.82 C 7.07 O 7.6 CB 7.69 OG 8.61 H 8.23 HA 8.18 HB2 9.23 HB3 9.23 HG 10.33
A SER S 19 -98.8 5.8 N 7.3 CA 8.63 C 8.47 O 9.23 CB 11.05 OG 12.58 H 8.75 HA 10.35 HB2 13.26 HB3 13.26 HG 15.1
A ARG S 58 -128.4 153.9 N 9.53 CA 11.17 C 12.01 O 13.27 CB 13.67 CG 15.7 CD 17.02 NE 17.54 CZ 14.65 NH1 12.22 NH2 13.56 H 11.44 HA 13.4 HB2 16.41 HB3 16.41 HG2 18.84 HG3 18.84 HD2 20.43 HD3 20.43 HE 21.05 HH11 14.66 HH12 14.66 HH21 16.27 HH22 16.27
A ASP - 100 -70.1 143.0 N 15.03 CA 15.73 C 13.59 O 14.28 CB 21.09 CG 25.93 OD1 28.94 OD2 27.61 H 18.04 HA 18.87 HB2 25.31 HB3 25.31
A LEU - 30 -63.6 149.1 N 12.61 CA 11.5 C 10.38 O 12.63 CB 13.1 CG 14.97 CD1 16.82 CD2 16.78 H 15.13 HA 13.8 HB2 15.72 HB3 15.72 HG 17.97 HD11 20.18 HD12 20.18 HD13 20.18 HD21 20.14 HD22 20.14 HD23 20.14
A THR - 61 -90.7 165.7 N 9.92 CA 9.15 C 8.78 O 9.51 CB 10.75 OG1 11.51 CG2 13.06 H 11.91 HA 10.98 HB 12.9 HG1 13.81 HG21 15.67 HG22 15.67 HG23 15.67
A LYS H 168 -60.0 -39.4 N 9.5 CA 10.3 C 9.59 O 10.9 CB 10.8 CG 11.06 CD 12.07 CE 12.5 NZ 14.29 H 11.4 HA 12.36 HB2 12.96 HB3 12.96 HG2 13.28 HG3 13.28 HD2 14.48 HD3 14.48 HE2 15.0 HE3 15.0 HZ1 17.14 HZ2 17.14 HZ3 17.14
A GLU H 96 -59.5 -41.1 N 10.81 CA 11.64 C 9.92 O 10.88 CB 13.69 CG 19.12 CD 24.34 OE1 26.91 OE2 28.34 H 12.98 HA 13.96 HB2 16.42 HB3 16.42 HG2 22.95 HG3 22.95
A GLU H 15 -66.3 -41.7 N 9.15 CA 8.54 C 8.75 O 9.34 CB 9.25 CG 11.2 CD 11.31 OE1 12.23 OE2 13.28 H 10.99 HA 10.25 HB2 11.09 HB3 11.09 HG2 13.44 HG3 13.44
A ILE H 88 -60.5 -42.0 N 8.6 CA 9.52 C 9.26 O 10.76 CB 12.02 CG1 15.12 CG2 15.33 CD1 17.55 H 10.32 HA 11.42 HB 14.42 HG12 18.14 HG13 18.14 HG21 18.39 HG22 18.39 HG23 18.39 HD11 21.07 HD12 21.07 HD13 21.07
A GLU H 149 -64.4 -26.9 N 9.81 CA 12.0 C 12.74 O 16.06 CB 15.47 CG 18.79 CD 23.97 OE1 24.72 OE2 26.0 H 11.77 HA 14.4 HB2 18.57 HB3 18.57 HG2 22.54 HG3 22.54
A GLN T 110 -85.0 3.9 N 11.48 CA 12.57 C 14.08 O 19.58 CB 14.25 CG 16.23 CD 16.82 OE1 19.05 NE2 19.04 H 13.78 HA 15.09 HB2 17.1 HB3 17.1 HG2 19.48 HG3 19.48 HE21 22.85 HE22 22.85
A GLY T 33 104.0 5.2 N 11.62 CA 12.69 C 12.0 O 14.29 H 13.95 HA2 15.22 HA3 15.22
A ALA - 0 -67.5 141.9 N 10.61 CA 11.23 C 10.12 O 12.17 CB 12.66 H 12.73 HA 13.47 HB1 15.19 HB2 15.19 HB3 15.19
A LYS E 145 -132.9 147.2 N 10.17 CA 12.38 C 10.58 O 11.39 CB 18.41 CG 23.68 CD 28.47 CE 31.59 NZ 33.18 H 12.21 HA 14.85 HB2 22.1 HB3 22.1 HG2 28.42 HG3 28.42 HD2 34.16 HD3 34.16 HE2 37.91 HE3 37.91 HZ1 39.82 HZ2 39.82 HZ3 39.82
A GLU E 88 -134.6 153.4 N 11.48 CA 12.28 C 11.53 O 13.99 CB 16.49 CG 20.94 CD 26.74 OE1 31.37 OE2 26.3 H 13.78 HA 14.73 HB2 19.79 HB3 19.79 HG2 25.13 HG3 25.13
A THR E 73 -137.3 129.4 N 9.99 CA 11.34 C 8.38 O 9.28 CB 16.26 OG1 20.36 CG2 18.61 H 11.99 HA 13.61 HB 19.52 HG1 24.43 HG21 22.33 HG22 22.33 HG23 22.33
A VAL E 36 -75.0 140.5 N 9.2 CA 8.63 C 7.91 O 9.8 CB 9.48 CG1 12.65 CG2 11.33 H 11.04 HA 10.35 HB 11.37 HG11 15.18 HG12 15.18 HG13 15.18 HG21 13.59 HG22 13.59 HG23 13.59
A PHE E 0 -132.3 -5.3 N 7.57 CA 7.65 C 8.63 O 10.14 CB 8.73 CG 9.58 CD1 10.71 CD2 9.79 CE1 12.33 CE2 11.46 CZ 12.24 H 9.08 HA 9.18 HB2 10.48 HB3 10.48 HD1 12.85 HD2 11.75 HE1 14.79 HE2 13.75 HZ 14.69
A ALA E 0 -165.8 164.2 N 7.17 CA 7.32 C 6.7 O 7.61 CB 9.17 H 8.61 HA 8.78 HB1 11.01 HB2 11.01 HB3 11.01
A TYR E 8 -131.9 141.0 N 7.51 CA 7.62 C 7.75 O 9.86 CB 9.64 CG 12.02 CD1 12.53 CD2 13.0 CE1 14.75 CE2 17.14 CZ 15.62 OH 20.39 H 9.01 HA 9.14 HB2 11.57 HB3 11.57 HD1 15.04 HD2 15.6 HE1 17.69 HE2 20.56 HH 24.47
A ASP E 45 -116.0 92.3 N 8.49 CA 9.66 C 9.0 O 9.37 CB 12.35 CG 18.6 OD1 20.4 OD2 23.43 H 10.19 HA 11.59 HB2 14.82 HB3 14.82
A ALA E 5 -98.6 148.5 N 8.73 CA 8.32 C 7.15 O 8.27 CB 10.13 H 10.48 HA 9.98 HB1 12.16 HB2 12.16 HB3 12.16
A LEU E 1 -123.6 151.4 N 6.63 CA 7.63 C 7.07 O 8.16 CB 9.47 CG 12.26 CD1 15.46 CD2 16.99 H 7.95 HA 9.16 HB2 11.37 HB3 11.37 HG 14.72 HD11 18.55 HD12 18.55 HD13 18.55 HD21 20.39 HD22 20.39 HD23 20.39
A ILE E 0 -131.5 154.6 N 5.59 CA 4.88 C 4.72 O 5.95 CB 6.44 CG1 6.55 CG2 8.76 CD1 9.09 H 6.71 HA 5.86 HB 7.73 HG12 7.86 HG13 7.86 HG21 10.51 HG22 10.51 HG23 10.51 HD11 10.9 HD12 10.9 HD13 10.9
A PHE E 1 -106.2 129.5 N 5.27 CA 5.65 C 5.09 O 6.84 CB 6.19 CG 7.71 CD1 8.43 CD2 10.38 CE1 10.81 CE2 11.81 CZ 10.68 H 6.32 HA 6.78 HB2 7.43 HB3 7.43 HD1 10.11 HD2 12.46 HE1 12.97 HE2 14.17 HZ 12.82
A ILE E 0 -118.7 147.8 N 5.94 CA 6.38 C 6.48 O 7.29 CB 7.33 CG1 8.66 CG2 8.42 CD1 9.14 H 7.13 HA 7.66 HB 8.79 HG12 10.39 HG13 10.39 HG21 10.11 HG22 10.11 HG23 10.11 HD11 10.97 HD12 10.97 HD13 10.97
A THR E 0 -131.7 162.4 N 6.78 CA 7.34 C 7.76 O 7.55 CB 9.95 OG1 12.01 CG2 10.48 H 8.13 HA 8.81 HB 11.94 HG1 14.42 HG21 12.57 HG22 12.57 HG23 12.57
A SER - 4 -65.0 153.6 N 7.18 CA 9.14 C 10.48 O 11.9 CB 12.45 OG 12.51 H 8.61 HA 10.97 HB2 14.94 HB3 14.94 HG 15.01
A PRO T 90 -80.8 -4.9 N 12.77 CA 16.51 C 18.22 O 21.93 CB 18.3 CG 16.3 CD 14.73 HA 19.81 HB2 21.96 HB3 21.96 HG2 19.57 HG3 19.57 HD2 17.67 HD3 17.67
A GLU T 86 -88.6 -14.4 N 18.05 CA 19.71 C 22.0 O 23.95 CB 20.02 CG 19.66 CD 19.29 OE1 18.59 OE2 20.62 H 21.66 HA 23.65 HB2 24.02 HB3 24.02 HG2 23.6 HG3 23.6
A ILE - 5 -79.6 123.8 N 22.54 CA 22.38 C 24.32 O 26.04 CB 22.16 CG1 19.46 CG2 21.86 CD1 19.4 H 27.05 HA 26.86 HB 26.59 HG12 23.35 HG13 23.35 HG21 26.24 HG22 26.24 HG23 26.24 HD11 23.29 HD12 23.29 HD13 23.29
A LYS - 177 -85.3 -7.1 N 23.88 CA 27.3 C 26.42 O 27.82 CB 30.81 CG 32.84 CD 34.23 CE 35.35 NZ 36.04 H 29.0 HA 32.76 HB2 36.97 HB3 36.97 HG2 39.41 HG3 39.41 HD2 41.08 HD3 41.08 HE2 42.42 HE3 42.42 HZ1 43.25 HZ2 43.25 HZ3 43.25
A ILE - 28 -65.9 136.8 N 25.26 CA 22.44 C 19.65 O 21.01 CB 25.75 CG1 30.69 CG2 27.79 CD1 32.14 H 30.31 HA 26.92 HB 30.91 HG12 36.83 HG13 36.83 HG21 33.35 HG22 33.35 HG23 33.35 HD11 38.56 HD12 38.56 HD13 38.56
A THR - 75 -115.8 -16.4 N 14.48 CA 12.33 C 9.6 O 9.12 CB 18.51 OG1 22.57 CG2 21.41 H 17.37 HA 14.8 HB 22.21 HG1 27.08 HG21 25.69 HG22 25.69 HG23 25.69
A ASN E 56 -139.0 150.0 N 8.7 CA 8.37 C 8.84 O 10.6 CB 9.02 CG 8.4 OD1 8.39 ND2 10.21 H 10.43 HA 10.05 HB2 10.82 HB3 10.82 HD21 12.26 HD22 12.26
A ILE E 9 -149.9 144.7 N 8.26 CA 9.01 C 8.07 O 8.64 CB 9.89 CG1 11.81 CG2 10.24 CD1 13.03 H 9.91 HA 10.82 HB 11.87 HG12 14.17 HG13 14.17 HG21 12.29 HG22 12.29 HG23 12.29 HD11 15.63 HD12 15.63 HD13 15.63
A THR - 56 -79.6 157.4 N 8.44 CA 8.96 C 7.45 O 8.99 CB 9.73 OG1 10.43 CG2 11.75 H 10.13 HA 10.75 HB 11.68 HG1 12.52 HG21 14.1 HG22 14.1 HG23 14.1
A GLU H 45 -56.6 -41.0 N 9.06 CA 9.52 C 10.03 O 9.66 CB 13.28 CG 14.2 CD 16.1 OE1 14.25 OE2 19.2 H 10.87 HA 11.42 HB2 15.93 HB3 15.93 HG2 17.05 HG3 17.05
A GLU H 82 -59.9 -48.4 N 9.06 CA 9.38 C 8.8 O 10.02 CB 10.69 CG 13.32 CD 15.9 OE1 21.19 OE2 15.2 H 10.87 HA 11.26 HB2 12.83 HB3 12.83 HG2 15.99 HG3 15.99
A ASN H 53 -69.8 -35.4 N 8.69 CA 8.71 C 8.63 O 9.22 CB 9.57 CG 11.8 OD1 14.87 ND2 14.22 H 10.42 HA 10.46 HB2 11.48 HB3 11.48 HD21 17.07 HD22 17.07
A LEU H 0 -61.1 -45.3 N 8.64 CA 8.66 C 8.06 O 9.03 CB 9.44 CG 11.03 CD1 10.95 CD2 11.62 H 10.37 HA 10.39 HB2 11.33 HB3 11.33 HG 13.24 HD11 13.14 HD12 13.14 HD13 13.14 HD21 13.95 HD22 13.95 HD23 13.95
A ALA H 0 -61.0 -35.8 N 8.57 CA 8.84 C 8.27 O 9.11 CB 9.46 H 10.29 HA 10.61 HB1 11.36 HB2 11.36 HB3 11.36
A LYS H 60 -72.3 -27.8 N 8.19 CA 8.75 C 7.78 O 9.68 CB 9.85 CG 11.02 CD 14.1 CE 15.95 NZ 18.26 H 9.83 HA 10.5 HB2 11.82 HB3 11.82 HG2 13.22 HG3 13.22 HD2 16.91 HD3 16.91 HE2 19.14 HE3 19.14 HZ1 21.92 HZ2 21.92 HZ3 21.92
A ILE H 0 -67.9 -44.9 N 8.24 CA 8.12 C 8.24 O 9.5 CB 8.44 CG1 10.32 CG2 9.09 CD1 11.91 H 9.88 HA 9.74 HB 10.13 HG12 12.38 HG13 12.38 HG21 10.91 HG22 10.91 HG23 10.91 HD11 14.3 HD12 14.3 HD13 14.3
A LEU H 1 -63.6 -35.0 N 8.07 CA 8.48 C 7.82 O 9.19 CB 10.57 CG 14.37 CD1 16.81 CD2 15.42 H 9.68 HA 10.18 HB2 12.69 HB3 12.69 HG 17.25 HD11 20.17 HD12 20.17 HD13 20.17 HD21 18.51 HD22 18.51 HD23 18.51
A ASN T 21 -96.4 3.1 N 8.29 CA 9.77 C 10.26 O 11.95 CB 10.37 CG 11.39 OD1 11.07 ND2 12.39 H 9.95 HA 11.72 HB2 12.45 HB3 12.45 HD21 14.87 HD22 14.87
A GLY T 14 88.7 -0.6 N 10.34 CA 10.58 C 10.31 O 12.35 H 12.41 HA2 12.69 HA3 12.69
A GLU S 96 -69.6 -25.2 N 10.48 CA 12.13 C 11.58 O 14.93 CB 12.79 CG 13.67 CD 16.29 OE1 18.47 OE2 17.29 H 12.58 HA 14.56 HB2 15.35 HB3 15.35 HG2 16.4 HG3 16.4
A ILE - 13 -117.7 119.8 N 10.18 CA 9.58 C 9.73 O 10.38 CB 9.93 CG1 12.43 CG2 10.31 CD1 14.25 H 12.21 HA 11.5 HB 11.91 HG12 14.92 HG13 14.92 HG21 12.37 HG22 12.37 HG23 12.37 HD11 17.1 HD12 17.1 HD13 17.1
A GLN - 55 -128.5 4.2 N 9.79 CA 10.78 C 10.28 O 10.85 CB 12.99 CG 13.93 CD 15.97 OE1 18.74 NE2 17.93 H 11.75 HA 12.93 HB2 15.59 HB3 15.59 HG2 16.72 HG3 16.72 HE21 21.52 HE22 21.52
A ASN B 27 -137.9 133.5 N 10.36 CA 10.44 C 10.31 O 11.22 CB 11.6 CG 13.31 OD1 13.82 ND2 15.54 H 12.44 HA 12.53 HB2 13.93 HB3 13.93 HD21 18.65 HD22 18.65
A TRP G 1 -57.6 -25.4 N 9.64 CA 10.09 C 11.45 O 13.12 CB 10.13 CG 10.18 CD1 9.19 CD2 10.37 NE1 9.23 CE2 9.57 CE3 12.48 CZ2 11.46 CZ3 14.25 CH2 13.13 H 11.57 HA 12.11 HB2 12.16 HB3 12.16 HD1 11.02 HE1 11.08 HE3 14.97 HZ2 13.76 HZ3 17.1 HH2 15.76
A LYS G 119 -64.7 -25.6 N 11.8 CA 12.95 C 12.56 O 12.12 CB 14.49 CG 16.25 CD 16.68 CE 18.07 NZ 20.05 H 14.16 HA 15.54 HB2 17.39 HB3 17.39 HG2 19.5 HG3 19.5 HD2 20.01 HD3 20.01 HE2 21.68 HE3 21.68 HZ1 24.06 HZ2 24.06 HZ3 24.06
A GLN G 110 -64.1 -24.5 N 12.7 CA 11.11 C 12.85 O 13.73 CB 10.85 CG 12.42 CD 12.1 OE1 13.02 NE2 14.54 H 15.24 HA 13.33 HB2 13.02 HB3 13.02 HG2 14.9 HG3 14.9 HE21 17.45 HE22 17.45
A VAL G 50 -111.0 21.2 N 12.25 CA 16.59 C 17.49 O 20.19 CB 17.12 CG1 16.8 CG2 17.6 H 14.7 HA 19.9 HB 20.55 HG11 20.16 HG12 20.16 HG13 20.16 HG21 21.12 HG22 21.12 HG23 21.12
A GLY T 71 93.5 3.1 N 17.89 CA 20.07 C 21.25 O 23.31 H 21.46 HA2 24.08 HA3 24.08
A GLY S 18 -83.8 -167.0 N 20.46 CA 19.9 C 19.44 O 20.61 H 24.56 HA2 23.88 HA3 23.88
A PRO - 43 -67.1 158.7 N 20.2 CA 19.54 C 17.81 O 17.43 CB 20.95 CG 21.6 CD 20.92 HA 23.45 HB2 25.14 HB3 25.14 HG2 25.93 HG3 25.93 HD2 25.1 HD3 25.1
A ASP S 126 -72.3 93.9 N 18.13 CA 19.87 C 18.09 O 20.87 CB 23.55 CG 26.78 OD1 27.8 OD2 31.16 H 21.76 HA 23.84 HB2 28.26 HB3 28.26
A ALA - 9 -159.0 128.2 N 15.0 CA 14.68 C 13.75 O 12.75 CB 15.96 H 18.0 HA 17.62 HB1 19.15 HB2 19.15 HB3 19.15
A LYS B 105 -60.9 140.9 N 13.09 CA 13.38 C 11.36 O 12.16 CB 17.16 CG 22.05 CD 26.99 CE 27.57 NZ 27.09 H 15.71 HA 16.06 HB2 20.59 HB3 20.59 HG2 26.46 HG3 26.46 HD2 32.39 HD3 32.39 HE2 33.09 HE3 33.09 HZ1 32.51 HZ2 32.51 HZ3 32.51
A ILE - 0 -83.8 125.7 N 8.57 CA 7.7 C 7.49 O 8.7 CB 8.19 CG1 9.26 CG2 9.27 CD1 9.91 H 10.28 HA 9.24 HB 9.83 HG12 11.12 HG13 11.12 HG21 11.13 HG22 11.13 HG23 11.13 HD11 11.89 HD12 11.89 HD13 11.89
A ASN E 51 -96.4 100.7 N 6.69 CA 6.74 C 6.42 O 8.6 CB 7.13 CG 8.0 OD1 9.78 ND2 7.94 H 8.03 HA 8.09 HB2 8.56 HB3 8.56 HD21 9.53 HD22 9.53
A PHE E 4 -84.9 123.4 N 7.54 CA 7.0 C 7.42 O 8.67 CB 8.59 CG 9.28 CD1 8.38 CD2 9.29 CE1 9.56 CE2 9.7 CZ 9.97 H 9.05 HA 8.4 HB2 10.3 HB3 10.3 HD1 10.05 HD2 11.15 HE1 11.47 HE2 11.64 HZ 11.96
A ILE E 1 -103.2 115.4 N 6.3 CA 6.61 C 6.53 O 7.66 CB 6.77 CG1 8.67 CG2 7.56 CD1 8.34 H 7.56 HA 7.93 HB 8.12 HG12 10.4 HG13 10.4 HG21 9.07 HG22 9.07 HG23 9.07 HD11 10.01 HD12 10.01 HD13 10.01
A ASN E 9 -107.6 160.6 N 7.88 CA 7.09 C 7.81 O 8.71 CB 7.71 CG 8.12 OD1 8.72 ND2 9.87 H 9.46 HA 8.51 HB2 9.25 HB3 9.25 HD21 11.85 HD22 11.85
A ARG E 20 -88.5 161.3 N 8.24 CA 7.89 C 9.68 O 10.81 CB 8.27 CG 9.33 CD 9.85 NE 9.2 CZ 9.79 NH1 10.34 NH2 11.01 H 9.88 HA 9.47 HB2 9.92 HB3 9.92 HG2 11.19 HG3 11.19 HD2 11.82 HD3 11.82 HE 11.04 HH11 12.41 HH12 12.41 HH21 13.21 HH22 13.21
A ASP - 26 -64.6 145.7 N 10.99 CA 11.69 C 11.53 O 10.61 CB 13.38 CG 14.04 OD1 12.89 OD2 19.27 H 13.19 HA 14.03 HB2 16.05 HB3 16.05
A SER T 89 -67.5 -16.4 N 12.7 CA 14.43 C 15.41 O 16.88 CB 16.04 OG 18.75 H 15.25 HA 17.31 HB2 19.24 HB3 19.24 HG 22.5
A SER T 108 -89.5 0.4 N 14.24 CA 16.98 C 15.08 O 16.87 CB 20.27 OG 23.63 H 17.09 HA 20.37 HB2 24.33 HB3 24.33 HG 28.36
A SER S 17 -90.6 154.3 N 12.01 CA 10.35 C 10.36 O 10.84 CB 10.17 OG 10.44 H 14.41 HA 12.42 HB2 12.21 HB3 12.21 HG 12.53
A GLY H 52 -64.1 -37.1 N 12.77 CA 12.38 C 11.2 O 12.78 H 15.32 HA2 14.86 HA3 14.86
A SER H 21 -63.0 -44.8 N 10.75 CA 9.78 C 8.32 O 8.85 CB 11.75 OG 15.74 H 12.9 HA 11.74 HB2 14.09 HB3 14.09 HG 18.88
A TYR H 45 -57.7 -46.5 N 7.18 CA 7.74 C 7.87 O 7.03 CB 7.69 CG 8.67 CD1 8.08 CD2 10.2 CE1 8.98 CE2 11.41 CZ 10.71 OH 11.38 H 8.61 HA 9.29 HB2 9.23 HB3 9.23 HD1 9.69 HD2 12.24 HE1 10.78 HE2 13.69 HH 13.66
A SER H 50 -59.3 -42.4 N 9.27 CA 10.44 C 9.01 O 8.37 CB 13.22 OG 16.63 H 11.13 HA 12.53 HB2 15.86 HB3 15.86 HG 19.96
A SER H 3 -66.4 -42.2 N 9.25 CA 9.86 C 8.92 O 9.27 CB 11.33 OG 11.96 H 11.11 HA 11.84 HB2 13.59 HB3 13.59 HG 14.35
A ILE H 0 -70.2 -40.3 N 8.76 CA 8.38 C 9.88 O 10.35 CB 9.15 CG1 10.08 CG2 10.16 CD1 9.54 H 10.52 HA 10.05 HB 10.98 HG12 12.1 HG13 12.1 HG21 12.19 HG22 12.19 HG23 12.19 HD11 11.45 HD12 11.45 HD13 11.45
A LYS I 35 -60.1 -43.7 N 9.19 CA 9.97 C 10.67 O 11.7 CB 12.42 CG 17.85 CD 21.28 CE 26.16 NZ 28.24 H 11.03 HA 11.96 HB2 14.91 HB3 14.91 HG2 21.42 HG3 21.42 HD2 25.53 HD3 25.53 HE2 31.39 HE3 31.39 HZ1 33.88 HZ2 33.88 HZ3 33.88
A ASP I 55 -74.8 -38.6 N 9.4 CA 11.74 C 12.44 O 15.09 CB 13.49 CG 16.29 OD1 19.59 OD2 19.02 H 11.28 HA 14.09 HB2 16.18 HB3 16.18
A LEU I 19 -83.6 -31.3 N 11.57 CA 12.69 C 13.4 O 16.15 CB 13.43 CG 15.31 CD1 14.73 CD2 18.68 H 13.89 HA 15.22 HB2 16.11 HB3 16.11 HG 18.37 HD11 17.68 HD12 17.68 HD13 17.68 HD21 22.41 HD22 22.41 HD23 22.41
A LEU I 0 -112.6 -65.5 N 12.01 CA 11.71 C 11.84 O 13.88 CB 13.33 CG 14.26 CD1 14.34 CD2 16.28 H 14.41 HA 14.06 HB2 16.0 HB3 16.0 HG 17.12 HD11 17.21 HD12 17.21 HD13 17.21 HD21 19.54 HD22 19.54 HD23 19.54
A LEU I 0 -61.8 -48.1 N 10.3 CA 10.1 C 9.23 O 10.8 CB 10.93 CG 14.05 CD1 16.6 CD2 16.6 H 12.36 HA 12.12 HB2 13.11 HB3 13.11 HG 16.85 HD11 19.92 HD12 19.92 HD13 19.92 HD21 19.92 HD22 19.92 HD23 19.92
A ASN H 69 -71.4 -20.5 N 10.13 CA 12.12 C 14.62 O 17.53 CB 13.0 CG 15.48 OD1 18.1 ND2 16.3 H 12.15 HA 14.54 HB2 15.6 HB3 15.6 HD21 19.56 HD22 19.56
A LYS H 143 -91.4 -33.8 N 14.56 CA 15.07 C 15.33 O 18.38 CB 17.68 CG 19.96 CD 22.08 CE 23.63 NZ 25.53 H 17.47 HA 18.09 HB2 21.21 HB3 21.21 HG2 23.95 HG3 23.95 HD2 26.5 HD3 26.5 HE2 28.36 HE3 28.36 HZ1 30.64 HZ2 30.64 HZ3 30.64
A ILE H 45 -81.8 -36.9 N 12.86 CA 12.6 C 11.24 O 12.5 CB 14.56 CG1 20.8 CG2 16.45 CD1 23.17 H 15.43 HA 15.12 HB 17.47 HG12 24.96 HG13 24.96 HG21 19.74 HG22 19.74 HG23 19.74 HD11 27.8 HD12 27.8 HD13 27.8
A PHE - 19 -104.4 143.4 N 10.67 CA 10.22 C 11.65 O 13.82 CB 12.38 CG 11.85 CD1 11.25 CD2 12.73 CE1 12.3 CE2 13.67 CZ 13.88 H 12.8 HA 12.26 HB2 14.86 HB3 14.86 HD1 13.5 HD2 15.28 HE1 14.76 HE2 16.4 HZ 16.66
A LYS S 191 -76.5 -38.6 N 14.92 CA 16.74 C 17.12 O 19.54 CB 19.14 CG 20.57 CD 22.95 CE 25.03 NZ 25.61 H 17.91 HA 20.08 HB2 22.96 HB3 22.96 HG2 24.69 HG3 24.69 HD2 27.53 HD3 27.53 HE2 30.03 HE3 30.03 HZ1 30.73 HZ2 30.73 HZ3 30.73
A THR S 49 -109.2 156.5 N 16.94 CA 18.26 C 18.23 O 16.75 CB 19.34 OG1 19.39 CG2 20.02 H 20.33 HA 21.91 HB 23.21 HG1 23.27 HG21 24.02 HG22 24.02 HG23 24.02
A HIS T 158 -60.5 -41.8 N 19.12 CA 19.12 C 18.21 O 18.4 CB 24.13 CG 28.29 ND1 30.97 CD2 30.15 CE1 31.62 NE2 31.29 H 22.94 HA 22.94 HB2 28.96 HB3 28.96 HD1 37.16 HD2 36.18 HE1 37.94 HE2 37.55
A GLU T 150 -60.8 -40.9 N 18.13 CA 19.02 C 16.28 O 16.93 CB 21.63 CG 26.0 CD 31.34 OE1 32.83 OE2 33.42 H 21.75 HA 22.82 HB2 25.96 HB3 25.96 HG2 31.2 HG3 31.2
A GLU T 64 -71.2 -31.7 N 15.5 CA 14.2 C 13.33 O 14.24 CB 15.5 CG 20.06 CD 23.59 OE1 24.28 OE2 26.47 H 18.6 HA 17.04 HB2 18.6 HB3 18.6 HG2 24.07 HG3 24.07
A ALA S 3 -90.2 47.2 N 12.8 CA 13.72 C 16.27 O 20.68 CB 14.9 H 15.36 HA 16.47 HB1 17.88 HB2 17.88 HB3 17.88
A GLN S 66 -123.1 147.3 N 15.82 CA 14.92 C 12.26 O 12.12 CB 18.28 CG 22.56 CD 26.49 OE1 28.69 NE2 26.53 H 18.98 HA 17.91 HB2 21.94 HB3 21.94 HG2 27.08 HG3 27.08 HE21 31.84 HE22 31.84
A PHE - 5 -67.2 144.9 N 11.9 CA 11.45 C 11.48 O 13.07 CB 10.64 CG 9.35 CD1 9.14 CD2 10.33 CE1 9.89 CE2 9.14 CZ 10.21 H 14.28 HA 13.74 HB2 12.77 HB3 12.77 HD1 10.96 HD2 12.4 HE1 11.86 HE2 10.97 HZ 12.25
A ARG - 17 -43.9 126.5 N 11.75 CA 12.49 C 14.73 O 15.23 CB 13.41 CG 13.56 CD 13.27 NE 15.91 CZ 15.39 NH1 13.4 NH2 18.78 H 14.1 HA 14.99 HB2 16.09 HB3 16.09 HG2 16.27 HG3 16.27 HD2 15.92 HD3 15.92 HE 19.1 HH11 16.08 HH12 16.08 HH21 22.53 HH22 22.53
A GLN T 166 -78.9 -21.7 N 16.88 CA 18.69 C 19.1 O 20.51 CB 22.38 CG 27.25 CD 30.37 OE1 32.38 NE2 30.92 H 20.25 HA 22.43 HB2 26.85 HB3 26.85 HG2 32.7 HG3 32.7 HE21 37.11 HE22 37.11
A ASP T 100 -98.5 31.8 N 17.94 CA 19.5 C 18.88 O 22.48 CB 21.86 CG 23.54 OD1 25.13 OD2 25.53 H 21.53 HA 23.4 HB2 26.24 HB3 26.24
A GLY - 14 -66.1 154.6 N 17.36 CA 15.4 C 14.41 O 17.38 H 20.83 HA2 18.48 HA3 18.48
A ILE E 54 -89.1 112.8 N 12.07 CA 12.1 C 12.13 O 12.71 CB 10.73 CG1 12.58 CG2 13.25 CD1 16.08 H 14.49 HA 14.52 HB 12.88 HG12 15.1 HG13 15.1 HG21 15.9 HG22 15.9 HG23 15.9 HD11 19.3 HD12 19.3 HD13 19.3
A VAL E 91 -95.5 128.6 N 9.56 CA 8.56 C 8.62 O 9.89 CB 11.1 CG1 10.87 CG2 13.61 H 11.47 HA 10.27 HB 13.32 HG11 13.04 HG12 13.04 HG13 13.04 HG21 16.33 HG22 16.33 HG23 16.33
A VAL E 8 -128.9 163.7 N 7.84 CA 8.27 C 8.26 O 9.03 CB 7.97 CG1 9.6 CG2 8.97 H 9.41 HA 9.92 HB 9.56 HG11 11.51 HG12 11.51 HG13 11.51 HG21 10.76 HG22 10.76 HG23 10.76
A LYS S 171 -113.6 15.1 N 8.77 CA 9.86 C 8.94 O 11.27 CB 12.81 CG 16.0 CD 21.52 CE 25.85 NZ 28.78 H 10.52 HA 11.83 HB2 15.38 HB3 15.38 HG2 19.21 HG3 19.21 HD2 25.82 HD3 25.82 HE2 31.02 HE3 31.02 HZ1 34.54 HZ2 34.54 HZ3 34.54
A SER S 52 -162.2 161.2 N 8.69 CA 8.49 C 7.95 O 7.89 CB 8.83 OG 9.61 H 10.42 HA 10.19 HB2 10.59 HB3 10.59 HG 11.53
A ASN H 27 -59.4 -45.9 N 8.57 CA 8.58 C 8.54 O 8.14 CB 9.35 CG 9.63 OD1 9.71 ND2 11.3 H 10.28 HA 10.3 HB2 11.22 HB3 11.22 HD21 13.56 HD22 13.56
A GLY H 37 -60.7 -37.5 N 7.6 CA 8.07 C 7.65 O 8.89 H 9.11 HA2 9.69 HA3 9.69
A GLU H 51 -71.3 -30.3 N 7.48 CA 8.02 C 6.73 O 7.96 CB 9.53 CG 11.17 CD 12.68 OE1 13.53 OE2 15.49 H 8.98 HA 9.62 HB2 11.44 HB3 11.44 HG2 13.4 HG3 13.4
A VAL H 1 -58.1 -45.2 N 6.46 CA 6.12 C 6.21 O 6.43 CB 6.09 CG1 6.86 CG2 7.2 H 7.75 HA 7.34 HB 7.3 HG11 8.24 HG12 8.24 HG13 8.24 HG21 8.65 HG22 8.65 HG23 8.65
A ILE H 11 -60.9 -50.1 N 6.34 CA 6.63 C 6.63 O 7.35 CB 7.28 CG1 8.32 CG2 7.81 CD1 9.19 H 7.61 HA 7.96 HB 8.74 HG12 9.99 HG13 9.99 HG21 9.37 HG22 9.37 HG23 9.37 HD11 11.03 HD12 11.03 HD13 11.03
A GLU H 94 -62.0 -44.3 N 6.55 CA 7.76 C 6.7 O 7.14 CB 10.8 CG 16.42 CD 21.95 OE1 25.66 OE2 24.67 H 7.86 HA 9.31 HB2 12.96 HB3 12.96 HG2 19.7 HG3 19.7
A LYS H 64 -64.1 -41.2 N 6.67 CA 6.25 C 6.15 O 7.16 CB 6.84 CG 7.07 CD 6.57 CE 7.57 NZ 9.53 H 8.0 HA 7.5 HB2 8.21 HB3 8.21 HG2 8.48 HG3 8.48 HD2 7.88 HD3 7.88 HE2 9.08 HE3 9.08 HZ1 11.44 HZ2 11.44 HZ3 11.44
A THR H 0 -63.0 -40.0 N 6.25 CA 6.64 C 6.96 O 8.85 CB 7.61 OG1 8.72 CG2 7.71 H 7.5 HA 7.96 HB 9.14 HG1 10.46 HG21 9.25 HG22 9.25 HG23 9.25
A SER H 45 -64.7 -25.4 N 6.22 CA 8.61 C 8.51 O 12.36 CB 9.7 OG 12.18 H 7.46 HA 10.33 HB2 11.64 HB3 11.64 HG 14.61
A LEU H 127 -102.1 -11.4 N 7.18 CA 7.15 C 7.08 O 9.38 CB 8.94 CG 10.74 CD1 12.72 CD2 12.84 H 8.61 HA 8.58 HB2 10.73 HB3 10.73 HG 12.89 HD11 15.26 HD12 15.26 HD13 15.26 HD21 15.41 HD22 15.41 HD23 15.41
A THR S 21 -113.1 121.5 N 7.13 CA 6.65 C 6.7 O 7.5 CB 6.88 OG1 7.49 CG2 7.82 H 8.56 HA 7.98 HB 8.26 HG1 8.98 HG21 9.39 HG22 9.39 HG23 9.39
A PRO T 71 -68.0 152.3 N 7.59 CA 9.02 C 7.91 O 8.72 CB 12.73 CG 10.68 CD 9.1 HA 10.83 HB2 15.28 HB3 15.28 HG2 12.81 HG3 12.81 HD2 10.92 HD3 10.92
A HIS T 56 49.4 44.4 N 8.03 CA 8.68 C 8.3 O 8.64 CB 12.96 CG 16.86 ND1 19.51 CD2 21.6 CE1 19.84 NE2 22.22 H 9.64 HA 10.42 HB2 15.55 HB3 15.55 HD1 23.41 HD2 25.92 HE1 23.81 HE2 26.66
A SER E 0 -109.5 159.3 N 6.67 CA 6.02 C 5.41 O 6.56 CB 6.61 OG 7.95 H 8.01 HA 7.23 HB2 7.93 HB3 7.93 HG 9.54
A ILE E 2 -144.7 137.3 N 5.78 CA 5.09 C 5.84 O 6.36 CB 6.67 CG1 6.89 CG2 7.19 CD1 7.85 H 6.94 HA 6.11 HB 8.01 HG12 8.27 HG13 8.27 HG21 8.63 HG22 8.63 HG23 8.63 HD11 9.42 HD12 9.42 HD13 9.42
A GLY E 0 -145.7 179.0 N 5.55 CA 5.81 C 5.17 O 6.26 H 6.66 HA2 6.97 HA3 6.97
A TYR E 1 -131.7 143.1 N 5.91 CA 6.22 C 6.64 O 6.48 CB 6.7 CG 6.72 CD1 7.52 CD2 6.5 CE1 7.65 CE2 6.88 CZ 7.78 OH 8.48 H 7.09 HA 7.46 HB2 8.04 HB3 8.04 HD1 9.02 HD2 7.8 HE1 9.18 HE2 8.25 HH 10.17
A ILE E 0 -140.5 160.2 N 5.72 CA 5.66 C 5.58 O 6.23 CB 7.04 CG1 7.44 CG2 7.49 CD1 9.29 H 6.86 HA 6.79 HB 8.45 HG12 8.93 HG13 8.93 HG21 8.99 HG22 8.99 HG23 8.99 HD11 11.15 HD12 11.15 HD13 11.15
A GLY E 12 -63.6 149.4 N 5.85 CA 6.1 C 5.97 O 6.89 H 7.01 HA2 7.31 HA3 7.31
A LEU G 40 -53.4 -35.2 N 6.74 CA 6.92 C 8.04 O 9.38 CB 7.11 CG 8.54 CD1 10.58 CD2 11.01 H 8.08 HA 8.3 HB2 8.53 HB3 8.53 HG 10.25 HD11 12.7 HD12 12.7 HD13 12.7 HD21 13.21 HD22 13.21 HD23 13.21
A GLY G 58 -61.3 -16.1 N 8.71 CA 9.8 C 10.09 O 13.02 H 10.45 HA2 11.76 HA3 11.76
A TYR G 95 -97.5 7.7 N 7.85 CA 8.42 C 7.93 O 8.98 CB 8.78 CG 10.55 CD1 14.18 CD2 11.03 CE1 15.72 CE2 13.94 CZ 15.22 OH 18.32 H 9.42 HA 10.1 HB2 10.54 HB3 10.54 HD1 17.02 HD2 13.24 HE1 18.86 HE2 16.73 HH 21.98
A ALA H 22 -58.2 -48.2 N 7.59 CA 7.97 C 8.21 O 8.11 CB 9.19 H 9.11 HA 9.56 HB1 11.02 HB2 11.02 HB3 11.02
A LYS H 147 -57.5 -44.3 N 8.38 CA 9.16 C 8.95 O 10.17 CB 11.88 CG 13.97 CD 18.09 CE 21.99 NZ 24.64 H 10.06 HA 11.0 HB2 14.25 HB3 14.25 HG2 16.77 HG3 16.77 HD2 21.71 HD3 21.71 HE2 26.39 HE3 26.39 HZ1 29.57 HZ2 29.57 HZ3 29.57
A ASN H 72 -60.3 -37.1 N 8.32 CA 8.49 C 8.05 O 9.91 CB 10.07 CG 12.82 OD1 14.07 ND2 13.55 H 9.99 HA 10.18 HB2 12.08 HB3 12.08 HD21 16.26 HD22 16.26
A SER H 0 -71.4 -37.3 N 7.46 CA 7.72 C 8.13 O 8.69 CB 8.74 OG 8.19 H 8.95 HA 9.27 HB2 10.49 HB3 10.49 HG 9.83
A ILE H 98 -65.9 -48.1 N 7.68 CA 8.97 C 10.32 O 11.56 CB 9.27 CG1 11.11 CG2 11.91 CD1 12.36 H 9.22 HA 10.76 HB 11.12 HG12 13.33 HG13 13.33 HG21 14.29 HG22 14.29 HG23 14.29 HD11 14.83 HD12 14.83 HD13 14.83
A GLU H 132 -59.1 -24.8 N 11.95 CA 13.67 C 13.97 O 16.65 CB 15.29 CG 19.59 CD 23.92 OE1 25.14 OE2 27.14 H 14.34 HA 16.4 HB2 18.35 HB3 18.35 HG2 23.51 HG3 23.51
A LYS T 103 -87.1 -4.4 N 12.18 CA 12.39 C 13.73 O 16.86 CB 15.4 CG 19.39 CD 22.61 CE 24.73 NZ 26.47 H 14.62 HA 14.87 HB2 18.48 HB3 18.48 HG2 23.27 HG3 23.27 HD2 27.13 HD3 27.13 HE2 29.68 HE3 29.68 HZ1 31.76 HZ2 31.76 HZ3 31.76
A GLY T 44 83.1 22.4 N 12.18 CA 11.67 C 9.74 O 11.24 H 14.61 HA2 14.01 HA3 14.01
A LEU - 11 -92.2 173.5 N 9.53 CA 9.02 C 9.9 O 13.12 CB 8.78 CG 10.84 CD1 12.71 CD2 13.46 H 11.44 HA 10.82 HB2 10.54 HB3 10.54 HG 13.01 HD11 15.26 HD12 15.26 HD13 15.26 HD21 16.15 HD22 16.15 HD23 16.15
A ASN E 56 -115.8 130.3 N 9.44 CA 9.69 C 7.87 O 10.27 CB 12.34 CG 14.74 OD1 18.19 ND2 19.16 H 11.33 HA 11.63 HB2 14.81 HB3 14.81 HD21 22.99 HD22 22.99
A ILE E 26 -92.9 126.2 N 6.73 CA 6.41 C 6.49 O 7.77 CB 7.13 CG1 8.24 CG2 8.31 CD1 10.42 H 8.07 HA 7.7 HB 8.56 HG12 9.89 HG13 9.89 HG21 9.97 HG22 9.97 HG23 9.97 HD11 12.5 HD12 12.5 HD13 12.5
A LEU - 0 -77.3 144.0 N 6.13 CA 6.06 C 5.97 O 7.22 CB 6.69 CG 8.09 CD1 9.91 CD2 12.18 H 7.35 HA 7.27 HB2 8.02 HB3 8.02 HG 9.7 HD11 11.89 HD12 11.89 HD13 11.89 HD21 14.61 HD22 14.61 HD23 14.61
A SER E 6 -78.7 150.0 N 6.18 CA 6.59 C 6.34 O 6.64 CB 7.66 OG 8.23 H 7.42 HA 7.91 HB2 9.19 HB3 9.19 HG 9.88
A VAL E 0 -121.7 123.5 N 5.84 CA 5.76 C 6.17 O 6.72 CB 7.98 CG1 9.23 CG2 8.99 H 7.01 HA 6.91 HB 9.57 HG11 11.07 HG12 11.07 HG13 11.07 HG21 10.79 HG22 10.79 HG23 10.79
A ASN T 55 54.2 43.6 N 6.6 CA 6.74 C 6.95 O 7.6 CB 6.8 CG 8.11 OD1 8.71 ND2 12.43 H 7.92 HA 8.09 HB2 8.17 HB3 8.17 HD21 14.92 HD22 14.92
A SER T 96 63.6 23.3 N 6.77 CA 7.82 C 7.24 O 10.39 CB 9.89 OG 13.04 H 8.12 HA 9.39 HB2 11.87 HB3 11.87 HG 15.65
A THR B 6 -127.0 122.2 N 6.84 CA 7.29 C 6.84 O 7.1 CB 7.82 OG1 9.12 CG2 8.75 H 8.21 HA 8.75 HB 9.39 HG1 10.95 HG21 10.49 HG22 10.49 HG23 10.49
A TYR - 116 -82.2 145.5 N 8.24 CA 7.71 C 8.71 O 9.68 CB 8.68 CG 8.33 CD1 9.01 CD2 8.95 CE1 10.69 CE2 10.32 CZ 10.55 OH 13.13 H 9.89 HA 9.25 HB2 10.42 HB3 10.42 HD1 10.81 HD2 10.74 HE1 12.83 HE2 12.38 HH 15.76
A PRO - 19 -78.4 107.8 N 9.33 CA 11.09 C 11.94 O 13.05 CB 11.46 CG 12.11 CD 10.34 HA 13.31 HB2 13.75 HB3 13.75 HG2 14.53 HG3 14.53 HD2 12.41 HD3 12.41
A THR - 61 -134.7 165.5 N 9.77 CA 11.33 C 10.82 O 10.32 CB 13.55 OG1 13.65 CG2 14.68 H 11.72 HA 13.6 HB 16.26 HG1 16.38 HG21 17.61 HG22 17.61 HG23 17.61
A LYS H 79 -56.0 -38.8 N 11.75 CA 11.76 C 11.15 O 11.32 CB 13.21 CG 13.68 CD 14.52 CE 16.01 NZ 20.12 H 14.09 HA 14.11 HB2 15.85 HB3 15.85 HG2 16.41 HG3 16.41 HD2 17.43 HD3 17.43 HE2 19.22 HE3 19.22 HZ1 24.14 HZ2 24.14 HZ3 24.14
A GLU H 131 -68.2 -44.8 N 11.0 CA 11.57 C 8.79 O 9.51 CB 16.26 CG 25.03 CD 32.98 OE1 35.77 OE2 36.86 H 13.2 HA 13.88 HB2 19.51 HB3 19.51 HG2 30.03 HG3 30.03
A THR H 26 -75.8 -27.4 N 8.61 CA 7.91 C 7.83 O 8.38 CB 8.33 OG1 8.76 CG2 10.8 H 10.33 HA 9.49 HB 9.99 HG1 10.52 HG21 12.96 HG22 12.96 HG23 12.96
A ILE H 0 -74.2 -43.9 N 8.29 CA 8.53 C 8.9 O 10.52 CB 10.55 CG1 10.74 CG2 13.4 CD1 11.4 H 9.94 HA 10.23 HB 12.66 HG12 12.88 HG13 12.88 HG21 16.08 HG22 16.08 HG23 16.08 HD11 13.69 HD12 13.69 HD13 13.69
A ASN H 30 -60.8 -36.5 N 8.44 CA 9.11 C 10.21 O 11.73 CB 10.11 CG 11.91 OD1 15.19 ND2 12.26 H 10.12 HA 10.93 HB2 12.14 HB3 12.14 HD21 14.71 HD22 14.71
A SER T 74 -76.8 -12.0 N 9.05 CA 8.24 C 8.19 O 7.79 CB 10.39 OG 10.78 H 10.87 HA 9.89 HB2 12.47 HB3 12.47 HG 12.93
A ASN T 84 69.0 21.0 N 8.63 CA 9.01 C 8.88 O 10.49 CB 8.66 CG 8.33 OD1 9.21 ND2 9.39 H 10.36 HA 10.81 HB2 10.39 HB3 10.39 HD21 11.27 HD22 11.27
A LYS - 134 -77.3 -36.1 N 9.2 CA 8.93 C 8.9 O 9.8 CB 9.04 CG 11.28 CD 13.2 CE 14.39 NZ 16.6 H 11.04 HA 10.71 HB2 10.85 HB3 10.85 HG2 13.54 HG3 13.54 HD2 15.84 HD3 15.84 HE2 17.27 HE3 17.27 HZ1 19.92 HZ2 19.92 HZ3 19.92
A TYR S 0 -87.3 123.2 N 7.37 CA 7.78 C 8.35 O 9.3 CB 8.48 CG 7.63 CD1 7.71 CD2 7.14 CE1 7.84 CE2 8.09 CZ 7.29 OH 8.42 H 8.84 HA 9.34 HB2 10.18 HB3 10.18 HD1 9.25 HD2 8.57 HE1 9.41 HE2 9.71 HH 10.11
A THR - 37 -95.7 -15.7 N 8.53 CA 9.01 C 9.86 O 11.44 CB 11.28 OG1 13.3 CG2 11.49 H 10.24 HA 10.81 HB 13.53 HG1 15.96 HG21 13.79 HG22 13.79 HG23 13.79
A ILE S 0 -92.2 75.3 N 8.26 CA 7.73 C 7.71 O 7.84 CB 10.97 CG1 13.45 CG2 13.08 CD1 15.34 H 9.92 HA 9.27 HB 13.16 HG12 16.15 HG13 16.15 HG21 15.69 HG22 15.69 HG23 15.69 HD11 18.41 HD12 18.41 HD13 18.41
A LYS E 20 -158.8 151.9 N 7.39 CA 7.67 C 8.02 O 9.68 CB 8.63 CG 10.97 CD 14.04 CE 15.63 NZ 18.79 H 8.87 HA 9.2 HB2 10.36 HB3 10.36 HG2 13.16 HG3 13.16 HD2 16.84 HD3 16.84 HE2 18.75 HE3 18.75 HZ1 22.55 HZ2 22.55 HZ3 22.55
A ARG E 30 -91.3 137.7 N 7.84 CA 8.29 C 7.68 O 8.65 CB 11.23 CG 15.41 CD 18.9 NE 18.71 CZ 19.04 NH1 21.22 NH2 19.4 H 9.41 HA 9.94 HB2 13.47 HB3 13.47 HG2 18.49 HG3 18.49 HD2 22.68 HD3 22.68 HE 22.45 HH11 25.46 HH12 25.46 HH21 23.28 HH22 23.28
A ASN E 25 -94.5 116.7 N 8.68 CA 9.31 C 9.69 O 11.91 CB 10.42 CG 14.97 OD1 13.98 ND2 19.5 H 10.42 HA 11.17 HB2 12.51 HB3 12.51 HD21 23.4 HD22 23.4
A LEU E 0 -85.7 122.9 N 8.61 CA 8.23 C 7.57 O 8.5 CB 10.16 CG 15.34 CD1 16.38 CD2 15.59 H 10.33 HA 9.87 HB2 12.2 HB3 12.2 HG 18.41 HD11 19.66 HD12 19.66 HD13 19.66 HD21 18.71 HD22 18.71 HD23 18.71
A ILE E 2 -124.9 145.3 N 6.96 CA 6.81 C 5.75 O 7.15 CB 7.74 CG1 8.8 CG2 9.76 CD1 10.15 H 8.35 HA 8.18 HB 9.29 HG12 10.56 HG13 10.56 HG21 11.71 HG22 11.71 HG23 11.71 HD11 12.18 HD12 12.18 HD13 12.18
A ILE E 3 -93.7 123.3 N 5.86 CA 5.66 C 5.92 O 8.15 CB 6.24 CG1 7.37 CG2 8.33 CD1 7.73 H 7.03 HA 6.8 HB 7.49 HG12 8.85 HG13 8.85 HG21 10.0 HG22 10.0 HG23 10.0 HD11 9.27 HD12 9.27 HD13 9.27
A VAL E 0 -117.2 129.8 N 5.87 CA 6.82 C 6.0 O 6.42 CB 7.03 CG1 7.95 CG2 8.65 H 7.04 HA 8.18 HB 8.44 HG11 9.54 HG12 9.54 HG13 9.54 HG21 10.38 HG22 10.38 HG23 10.38
A THR E 17 -130.9 169.3 N 6.22 CA 7.18 C 8.15 O 9.1 CB 10.31 OG1 12.76 CG2 11.04 H 7.47 HA 8.62 HB 12.38 HG1 15.31 HG21 13.25 HG22 13.25 HG23 13.25
A ASN - 62 -120.7 360.0 N 9.93 CA 14.11 C 19.56 O 21.43 CB 20.57 CG 24.83 OD1 25.81 ND2 25.82 H 11.91 HA 16.94 HB2 24.69 HB3 24.69 HD21 30.98 HD22 30.98
A TYR - 275 360.0 120.5 N 27.13 CA 25.35 C 25.38 O 28.91 CB 25.54 CG 26.41 CD1 26.72 CD2 28.23 CE1 28.01 CE2 28.94 CZ 28.97 OH 30.61 HA 30.42 HB2 30.65 HB3 30.65 HD1 32.06 HD2 33.88 HE1 33.61 HE2 34.73 HH 36.73
A GLU - 66 -88.7 154.9 N 22.04 CA 19.57 C 17.56 O 18.17 CB 20.75 CG 22.24 CD 22.91 OE1 24.27 OE2 23.59 H 26.44 HA 23.49 HB2 24.9 HB3 24.9 HG2 26.68 HG3 26.68
A ASP - 80 -52.3 144.6 N 16.47 CA 14.85 C 12.49 O 11.21 CB 17.98 CG 22.7 OD1 24.82 OD2 24.15 H 19.77 HA 17.82 HB2 21.58 HB3 21.58
A LYS H 158 -55.3 -37.8 N 12.18 CA 12.43 C 9.76 O 8.74 CB 15.73 CG 19.18 CD 23.87 CE 27.45 NZ 29.59 H 14.61 HA 14.92 HB2 18.88 HB3 18.88 HG2 23.01 HG3 23.01 HD2 28.65 HD3 28.65 HE2 32.94 HE3 32.94 HZ1 35.51 HZ2 35.51 HZ3 35.51
A SER H 6 -62.3 -35.2 N 8.96 CA 9.19 C 8.47 O 8.4 CB 11.98 OG 16.03 H 10.76 HA 11.03 HB2 14.37 HB3 14.37 HG 19.23
A VAL H 0 -72.2 -48.0 N 7.99 CA 8.04 C 8.02 O 8.04 CB 8.42 CG1 9.04 CG2 9.64 H 9.59 HA 9.65 HB 10.1 HG11 10.85 HG12 10.85 HG13 10.85 HG21 11.56 HG22 11.56 HG23 11.56
A THR H 77 -56.2 -42.9 N 7.77 CA 8.29 C 6.99 O 7.05 CB 10.73 OG1 12.61 CG2 11.06 H 9.33 HA 9.95 HB 12.87 HG1 15.13 HG21 13.27 HG22 13.27 HG23 13.27
A GLN H 58 -61.1 -46.5 N 6.6 CA 6.07 C 6.34 O 7.14 CB 7.46 CG 8.43 CD 9.18 OE1 10.74 NE2 10.61 H 7.92 HA 7.28 HB2 8.95 HB3 8.95 HG2 10.12 HG3 10.12 HE21 12.73 HE22 12.73
A PHE H 0 -66.7 -42.0 N 6.43 CA 6.13 C 6.1 O 6.82 CB 6.96 CG 6.39 CD1 7.98 CD2 6.51 CE1 8.64 CE2 7.18 CZ 7.72 H 7.71 HA 7.35 HB2 8.35 HB3 8.35 HD1 9.57 HD2 7.81 HE1 10.37 HE2 8.61 HZ 9.26
A ILE H 29 -60.8 -40.6 N 6.62 CA 6.85 C 7.07 O 8.48 CB 7.72 CG1 8.14 CG2 8.08 CD1 9.77 H 7.94 HA 8.22 HB 9.26 HG12 9.77 HG13 9.77 HG21 9.69 HG22 9.69 HG23 9.69 HD11 11.72 HD12 11.72 HD13 11.72
A ASP H 109 -60.3 -35.9 N 6.58 CA 7.04 C 7.79 O 8.83 CB 9.07 CG 11.2 OD1 13.61 OD2 11.61 H 7.89 HA 8.45 HB2 10.89 HB3 10.89
A PHE H 10 -68.7 -42.0 N 6.8 CA 6.26 C 6.78 O 7.16 CB 7.32 CG 7.54 CD1 7.66 CD2 9.21 CE1 9.08 CE2 10.74 CZ 10.67 H 8.17 HA 7.51 HB2 8.79 HB3 8.79 HD1 9.2 HD2 11.05 HE1 10.89 HE2 12.89 HZ 12.8
A MET H 0 -56.5 -37.0 N 6.53 CA 6.88 C 7.55 O 8.33 CB 7.08 CG 7.9 SD 8.35 CE 9.45 H 7.83 HA 8.26 HB2 8.49 HB3 8.49 HG2 9.47 HG3 9.47 HE1 11.34 HE2 11.34 HE3 11.34
A THR T 36 -98.4 8.4 N 7.56 CA 9.2 C 8.86 O 12.51 CB 11.18 OG1 12.2 CG2 11.85 H 9.08 HA 11.04 HB 13.42 HG1 14.64 HG21 14.22 HG22 14.22 HG23 14.22
A SER S 32 -83.4 172.7 N 8.28 CA 9.74 C 9.97 O 10.19 CB 10.78 OG 10.7 H 9.94 HA 11.69 HB2 12.93 HB3 12.93 HG 12.84
A SER H 71 -52.3 -48.9 N 11.67 CA 12.59 C 11.21 O 10.58 CB 15.1 OG 17.3 H 14.01 HA 15.11 HB2 18.12 HB3 18.12 HG 20.76
A THR H 50 -64.9 -46.2 N 10.89 CA 11.03 C 8.97 O 8.28 CB 12.4 OG1 14.87 CG2 12.71 H 13.07 HA 13.24 HB 14.88 HG1 17.84 HG21 15.26 HG22 15.26 HG23 15.26
A GLY H 0 -53.2 -43.5 N 8.8 CA 7.78 C 8.05 O 8.19 H 10.56 HA2 9.34 HA3 9.34
A GLN H 9 -74.6 -30.8 N 7.83 CA 7.5 C 7.95 O 8.79 CB 8.54 CG 8.89 CD 8.8 OE1 11.42 NE2 8.91 H 9.4 HA 9.0 HB2 10.25 HB3 10.25 HG2 10.67 HG3 10.67 HE21 10.7 HE22 10.7
A ASP H 76 -62.3 -40.3 N 8.11 CA 7.98 C 7.46 O 8.31 CB 9.25 CG 12.86 OD1 14.66 OD2 16.98 H 9.73 HA 9.58 HB2 11.09 HB3 11.09
A ILE H 0 -60.2 -45.8 N 7.37 CA 7.89 C 7.59 O 7.98 CB 7.62 CG1 9.03 CG2 8.8 CD1 9.66 H 8.85 HA 9.47 HB 9.15 HG12 10.84 HG13 10.84 HG21 10.56 HG22 10.56 HG23 10.56 HD11 11.59 HD12 11.59 HD13 11.59
A VAL H 0 -53.4 -48.0 N 7.21 CA 8.01 C 7.38 O 8.57 CB 8.09 CG1 8.33 CG2 8.12 H 8.65 HA 9.61 HB 9.71 HG11 9.99 HG12 9.99 HG13 9.99 HG21 9.75 HG22 9.75 HG23 9.75
A GLU H 75 -75.6 -33.5 N 7.76 CA 8.38 C 9.06 O 11.12 CB 11.11 CG 13.69 CD 15.73 OE1 19.04 OE2 15.43 H 9.31 HA 10.06 HB2 13.34 HB3 13.34 HG2 16.43 HG3 16.43
A GLU H 118 -63.3 -20.7 N 7.69 CA 9.09 C 9.32 O 9.1 CB 10.44 CG 11.28 CD 12.84 OE1 14.95 OE2 13.84 H 9.23 HA 10.91 HB2 12.53 HB3 12.53 HG2 13.54 HG3 13.54
A GLN T 57 -105.8 17.5 N 10.91 CA 11.59 C 12.47 O 16.26 CB 10.71 CG 13.09 CD 11.69 OE1 13.65 NE2 15.55 H 13.09 HA 13.9 HB2 12.85 HB3 12.85 HG2 15.71 HG3 15.71 HE21 18.66 HE22 18.66
A GLY T 57 94.2 2.2 N 11.86 CA 13.11 C 12.32 O 14.02 H 14.24 HA2 15.74 HA3 15.74
A PHE - 42 -101.2 176.2 N 10.99 CA 10.34 C 9.01 O 11.12 CB 11.06 CG 15.26 CD1 18.33 CD2 19.33 CE1 19.34 CE2 21.73 CZ 21.36 H 13.19 HA 12.41 HB2 13.27 HB3 13.27 HD1 21.99 HD2 23.2 HE1 23.2 HE2 26.08 HZ 25.63
A LEU B 20 -106.9 135.1 N 9.28 CA 8.91 C 7.91 O 9.06 CB 11.46 CG 13.67 CD1 15.95 CD2 16.43 H 11.14 HA 10.7 HB2 13.75 HB3 13.75 HG 16.41 HD11 19.14 HD12 19.14 HD13 19.14 HD21 19.72 HD22 19.72 HD23 19.72
A GLY - 0 -89.6 172.0 N 8.49 CA 8.22 C 8.87 O 9.9 H 10.19 HA2 9.86 HA3 9.86
A ILE - 23 -96.0 173.8 N 10.63 CA 10.33 C 15.65 O 18.3 CB 10.64 CG1 12.57 CG2 12.8 CD1 12.54 H 12.76 HA 12.4 HB 12.77 HG12 15.09 HG13 15.09 HG21 15.35 HG22 15.35 HG23 15.35 HD11 15.04 HD12 15.04 HD13 15.04
A LYS - 86 -78.7 143.3 N 18.83 CA 23.38 C 25.34 O 27.62 CB 27.79 CG 30.07 CD 31.41 CE 32.02 NZ 31.9 H 22.59 HA 28.05 HB2 33.35 HB3 33.35 HG2 36.08 HG3 36.08 HD2 37.69 HD3 37.69 HE2 38.43 HE3 38.43 HZ1 38.29 HZ2 38.29 HZ3 38.29
A THR - 138 -124.3 360.0 N 25.35 CA 25.21 C 26.89 O 28.68 CB 25.02 OG1 26.72 CG2 22.72 OXT 26.28 H 30.42 HA 30.26 HB 30.03 HG1 32.06 HG21 27.26 HG22 27.26 HG23 27.26
