B DA - 74 -80.9 128.6 P 92.13 OP1 94.46 OP2 90.94 O5' 90.44 C5' 90.62 C4' 87.96 O4' 85.22 C3' 87.58 O3' 86.79 C2' 85.15 C1' 83.45 N9 80.67 C8 80.27 N7 78.59 C5 77.29 C6 75.33 N6 73.96 N1 74.79 C2 75.61 N3 78.18 C4 78.53
B DC - 131 -72.9 124.6 P 88.45 OP1 89.86 OP2 88.04 O5' 84.92 C5' 83.78 C4' 80.63 O4' 78.26 C3' 79.46 O3' 80.54 C2' 77.28 C1' 76.4 N1 75.75 C2 73.44 O2 71.85 N3 73.64 C4 75.16 N4 75.13 C5 77.03 C6 77.15
B DG H 63 -54.8 -47.4 P 64.22 OP1 65.51 OP2 63.01 O5' 63.52 C5' 62.32 C4' 62.24 O4' 61.77 C3' 61.75 O3' 63.57 C2' 60.35 C1' 60.46 N9 59.66 C8 60.72 N7 60.33 C5 58.88 C6 58.3 O6 59.54 N1 56.8 C2 55.82 N2 54.66 N3 56.07 C4 58.19
B DA H 115 -50.2 -51.7 P 79.41 OP1 80.85 OP2 79.54 O5' 78.94 C5' 79.64 C4' 79.28 O4' 77.44 C3' 79.05 O3' 81.14 C2' 76.79 C1' 76.59 N9 74.33 C8 72.54 N7 70.96 C5 71.64 C6 70.87 N6 68.38 N1 71.96 C2 73.52 N3 74.64 C4 73.43
B DA H 4 -63.4 -44.6 P 81.59 OP1 84.79 OP2 80.85 O5' 81.79 C5' 83.52 C4' 83.2 O4' 82.01 C3' 83.28 O3' 82.97 C2' 81.33 C1' 81.27 N9 79.8 C8 78.91 N7 77.23 C5 77.26 C6 76.24 N6 74.33 N1 77.04 C2 78.71 N3 80.23 C4 79.11
B DG H 26 -56.3 -55.8 P 82.98 OP1 84.1 OP2 83.13 O5' 79.86 C5' 78.66 C4' 76.73 O4' 74.13 C3' 77.19 O3' 77.45 C2' 74.78 C1' 71.94 N9 69.64 C8 70.34 N7 69.07 C5 67.06 C6 65.43 O6 65.73 N1 64.29 C2 64.35 N2 61.72 N3 65.37 C4 66.91
B DG H 1 -60.6 -46.0 P 69.49 OP1 68.86 OP2 71.09 O5' 66.93 C5' 63.89 C4' 59.89 O4' 57.64 C3' 56.34 O3' 56.59 C2' 54.32 C1' 54.93 N9 52.33 C8 50.72 N7 49.04 C5 49.25 C6 48.84 O6 49.5 N1 49.5 C2 49.44 N2 48.91 N3 50.04 C4 50.39
B DG H 123 -57.9 -42.7 P 52.14 OP1 53.96 OP2 50.39 O5' 52.48 C5' 53.3 C4' 55.18 O4' 56.17 C3' 55.26 O3' 56.98 C2' 55.08 C1' 55.78 N9 56.18 C8 57.59 N7 57.61 C5 56.0 C6 55.49 O6 54.68 N1 54.63 C2 54.85 N2 54.26 N3 55.3 C4 55.86
B DG H 2 -73.3 -45.7 P 57.61 OP1 58.6 OP2 54.23 O5' 58.37 C5' 59.92 C4' 60.34 O4' 60.23 C3' 60.2 O3' 61.58 C2' 60.49 C1' 60.86 N9 60.62 C8 60.13 N7 59.35 C5 60.42 C6 61.38 O6 59.41 N1 62.85 C2 63.53 N2 64.19 N3 63.19 C4 61.38
C ARG - 162 360.0 157.4 N 79.28 CA 76.89 C 77.3 O 78.28 CB 73.7
C GLN - 83 -93.2 156.6 N 76.68 CA 77.09 C 74.39 O 72.25 CB 78.49
C PRO - 123 -86.8 152.0 N 74.75 CA 72.45 C 71.36 O 73.0 CB 74.05 CG 77.0 CD 77.46
C LEU - 78 -123.3 158.6 N 68.62 CA 67.43 C 66.7 O 66.2 CB 65.4 CG 65.52 CD1 62.76 CD2 66.64
C THR - 93 -72.7 170.1 N 66.84 CA 66.48 C 64.04 O 62.52 CB 68.05 OG1 68.19 CG2 66.6
C SER H 80 -62.4 -39.7 N 63.79 CA 62.03 C 60.93 O 59.6 CB 62.8 OG 64.37
C SER H 64 -70.3 -31.2 N 61.89 CA 61.08 C 59.96 O 58.99 CB 63.53 OG 64.38
C GLU H 37 -86.4 -6.5 N 60.11 CA 59.4 C 57.13 O 57.27 CB 61.78
C ARG H 126 -87.1 -48.3 N 55.25 CA 52.57 C 50.54 O 49.25 CB 52.74 CG 53.23 CD 53.27 NE 54.96 CZ 54.89 NH1 53.75 NH2 55.74
C ILE H 6 -51.2 -50.0 N 50.07 CA 48.43 C 47.83 O 46.92 CB 49.03 CG1 48.73 CG2 48.25 CD1 48.06
C ASP H 33 -58.6 -36.8 N 49.12 CA 49.39 C 48.24 O 47.75 CB 51.83 CG 53.82 OD1 56.01 OD2 56.14
C LYS H 111 -79.2 -39.7 N 47.79 CA 46.8 C 44.79 O 43.5 CB 48.02 CG 48.75 CD 51.09 CE 51.69 NZ 52.84
C GLN H 34 -56.5 -39.5 N 44.22 CA 43.08 C 42.4 O 42.23 CB 42.69 CG 41.82 CD 42.49 OE1 43.41 NE2 39.91
C ILE H 1 -70.7 -55.5 N 42.88 CA 42.06 C 42.08 O 42.05 CB 43.02 CG1 42.4 CG2 42.13 CD1 42.0
C ARG H 117 -48.2 -43.8 N 42.68 CA 42.65 C 42.34 O 42.72 CB 44.05 CG 42.98 CD 41.52 NE 39.67 CZ 39.55 NH1 37.69 NH2 37.8
C TYR H 137 -56.4 -48.2 N 42.33 CA 41.7 C 40.5 O 40.23 CB 41.77 CG 42.94 CD1 45.29 CD2 40.94 CE1 45.63 CE2 42.59 CZ 44.67 OH 46.72
C ILE H 1 -63.2 -37.5 N 39.81 CA 38.87 C 39.83 O 39.38 CB 38.18 CG1 37.56 CG2 36.7 CD1 34.24
C LEU H 35 -68.1 -26.6 N 41.06 CA 42.13 C 43.2 O 43.73 CB 42.93 CG 43.1 CD1 43.45 CD2 40.94
C ASP H 112 -82.3 -32.0 N 44.08 CA 45.35 C 44.76 O 45.43 CB 46.99 CG 49.81 OD1 49.81 OD2 51.56
C GLY H 6 -72.9 -13.3 N 43.93 CA 43.33 C 43.16 O 43.0
C ILE H 4 -90.6 -46.0 N 43.21 CA 42.82 C 43.91 O 43.59 CB 42.74 CG1 41.5 CG2 42.6 CD1 43.52
C SER H 72 -51.2 -37.1 N 45.56 CA 47.75 C 48.74 O 49.49 CB 48.78 OG 50.92
C ALA H 44 -70.4 -49.7 N 49.7 CA 51.54 C 51.86 O 52.76 CB 51.8
C LEU H 2 -52.5 -65.5 N 51.89 CA 52.77 C 54.13 O 55.12 CB 51.45 CG 50.98 CD1 49.14 CD2 51.01
C ARG H 35 -48.0 -30.4 N 55.18 CA 56.82 C 58.69 O 59.11 CB 56.79
C LYS H 86 -61.6 -43.2 N 60.4 CA 62.77 C 63.76 O 65.17 CB 63.64
C GLU H 86 -66.3 -53.8 N 63.89 CA 64.87 C 64.89 O 66.1 CB 64.51
C THR - 55 -85.1 360.0 N 63.91 CA 64.25 C 64.58 O 63.99 CB 63.26 OG1 64.18 CG2 63.93
C ASN - 131 360.0 -41.5 N 67.22 CA 69.44 C 71.35 O 73.73 CB 68.25
C ASN - 102 -148.3 1.5 N 70.67 CA 72.56 C 71.46 O 72.99 CB 73.56
C LEU S 47 -83.0 177.8 N 69.16 CA 67.82 C 68.53 O 70.1 CB 65.22 CG 64.08 CD1 65.01 CD2 63.0
C ASN - 79 -128.5 94.7 N 67.53 CA 67.83 C 65.55 O 65.07 CB 69.88
C LEU - 36 -107.3 142.0 N 64.24 CA 61.87 C 62.24 O 63.75 CB 60.45 CG 59.95 CD1 57.94 CD2 59.5
C PRO - 7 -55.9 129.2 N 61.02 CA 61.75 C 62.1 O 60.82 CB 60.09 CG 59.27 CD 59.21
C LYS - 66 -140.3 120.4 N 64.3 CA 65.29 C 67.3 O 69.33 CB 66.52
C MET - 39 -57.0 134.9 N 67.06 CA 69.16 C 71.96 O 72.15 CB 68.44 CG 66.42 SD 67.5 CE 65.08
C ALA - 51 -135.8 168.9 N 74.34 CA 77.58 C 79.73 O 78.75 CB 78.99
C GLU G 88 -53.8 -39.4 N 82.94 CA 85.64 C 86.17 O 86.58 CB 89.61
C LYS G 97 -55.2 -29.2 N 86.29 CA 86.94 C 84.3 O 85.33 CB 87.16
C ASP G 18 -65.1 -38.6 N 80.98 CA 78.55 C 79.42 O 78.94 CB 75.31 CG 75.04 OD1 77.06 OD2 73.63
C GLY - 2 88.4 26.0 N 80.97 CA 82.45 C 80.19 O 81.05
C CYS - 7 -97.5 15.5 N 77.51 CA 75.35 C 76.85 O 75.47 CB 71.99 SG 69.34
C PHE S 125 -117.7 151.7 N 79.83 CA 81.62 C 84.98 O 86.61 CB 82.6 CG 80.24 CD1 81.2 CD2 77.64 CE1 79.63 CE2 75.81 CZ 76.8
C GLN S 89 -37.9 -39.8 N 86.28 CA 89.69 C 93.06 O 95.0 CB 91.36
C SER S 110 -114.5 149.2 N 93.88 CA 97.0 C 95.25 O 92.17 CB 100.78 OG 104.05
C GLY S 65 72.0 18.2 N 97.45 CA 96.06 C 92.34 O 90.49
C PHE - 63 -73.4 146.2 N 91.53 CA 88.04 C 88.56 O 91.91 CB 87.89 CG 83.98 CD1 83.57 CD2 80.67 CE1 80.37 CE2 77.28 CZ 77.32
C ASN - 75 -163.3 113.7 N 85.47 CA 85.56 C 81.95 O 79.53 CB 87.38 CG 87.98 OD1 85.49 ND2 91.51
C GLU H 47 -50.3 -48.3 N 81.65 CA 78.6 C 77.26 O 74.61 CB 79.53
C GLU H 62 -60.6 -56.2 N 79.12 CA 78.21 C 76.47 O 74.17 CB 81.39
C THR H 69 -63.8 -49.0 N 77.92 CA 76.61 C 73.49 O 71.64 CB 79.41 OG1 80.14 CG2 82.58
C CYS H 0 -51.3 -52.2 N 73.12 CA 70.38 C 67.48 O 65.4 CB 71.3 SG 69.77
C LEU H 27 -52.0 -52.8 N 67.35 CA 65.07 C 63.67 O 61.26 CB 66.53 CG 65.65 CD1 64.1 CD2 67.61
C VAL H 69 -52.4 -50.9 N 64.97 CA 64.16 C 62.08 O 60.63 CB 67.18 CG1 67.25 CG2 68.6
C LYS H 51 -63.6 -37.5 N 61.97 CA 60.26 C 57.27 O 56.0 CB 61.82 CG 60.61 CD 60.97 CE 59.97 NZ 61.95
C ILE H 1 -57.6 -46.8 N 56.37 CA 53.87 C 52.74 O 51.49 CB 53.87 CG1 54.65 CG2 51.88 CD1 54.34
C ILE H 9 -62.4 -65.2 N 53.24 CA 52.32 C 52.16 O 50.8 CB 53.95 CG1 53.83 CG2 52.63 CD1 54.6
C THR H 13 -40.9 -59.1 N 53.73 CA 54.01 C 52.13 O 51.89 CB 56.38 OG1 58.64 CG2 57.84
C GLY H 0 -55.2 -35.4 N 51.44 CA 49.65 C 47.43 O 46.79
C LEU H 1 -75.2 -29.2 N 46.83 CA 45.26 C 45.88 O 44.95 CB 44.83 CG 44.08 CD1 41.24 CD2 42.2
C LEU H 28 -68.4 -38.5 N 47.87 CA 48.72 C 49.09 O 49.08 CB 50.47 CG 50.96 CD1 52.53 CD2 50.88
C GLU H 67 -66.4 -38.8 N 49.73 CA 50.66 C 49.0 O 49.15 CB 52.31 CG 56.43 CD 60.54 OE1 60.13 OE2 64.0
C PHE H 0 -62.6 -29.7 N 48.02 CA 46.62 C 46.49 O 45.97 CB 45.89 CG 45.94 CD1 45.45 CD2 46.13 CE1 46.39 CE2 47.16 CZ 46.36
C GLU H 47 -48.6 -53.7 N 47.29 CA 47.77 C 47.83 O 47.66 CB 49.03 CG 50.17 CD 53.18 OE1 53.95 OE2 54.96
C VAL H 20 -54.6 -32.3 N 48.7 CA 49.12 C 48.11 O 48.62 CB 50.64 CG1 50.91 CG2 51.17
C TYR H 13 -76.2 -29.2 N 46.94 CA 46.36 C 45.32 O 45.15 CB 46.29 CG 47.68 CD1 48.31 CD2 47.95 CE1 50.33 CE2 50.85 CZ 51.5 OH 53.2
C LEU H 1 -78.6 -32.0 N 44.83 CA 44.37 C 45.23 O 45.11 CB 43.89 CG 43.74 CD1 41.73 CD2 42.21
C GLU H 86 -61.6 -39.6 N 46.48 CA 47.88 C 48.05 O 48.27 CB 49.17 CG 52.2 CD 53.56 OE1 53.27 OE2 53.57
C TYR T 4 -60.0 -25.4 N 48.07 CA 48.34 C 47.88 O 48.41 CB 48.24 CG 48.29 CD1 48.98 CD2 47.08 CE1 49.13 CE2 46.7 CZ 48.65 OH 49.32
C LEU T 3 -72.4 -36.2 N 47.43 CA 47.72 C 49.25 O 49.89 CB 46.53 CG 45.2 CD1 43.99 CD2 43.86
C GLN G 33 -35.1 -61.3 N 50.45 CA 52.12 C 53.32 O 53.53 CB 53.23 CG 53.35 CD 53.83 OE1 56.04 NE2 52.01
C ASN G 79 -70.6 -14.6 N 53.93 CA 55.11 C 54.52 O 55.76 CB 56.37
C ARG G 39 -80.9 0.4 N 52.85 CA 52.44 C 52.23 O 52.12 CB 51.45 CG 52.07 CD 54.75 NE 55.25 CZ 56.71 NH1 57.02 NH2 56.8
C PHE G 10 -140.8 55.1 N 52.29 CA 52.37 C 53.81 O 53.84 CB 51.57 CG 50.11 CD1 50.25 CD2 49.57 CE1 49.7 CE2 49.49 CZ 49.26
C GLU T 63 -57.0 -26.8 N 54.69 CA 56.39 C 57.19 O 58.75 CB 57.79
C SER T 128 -94.9 9.9 N 56.29 CA 56.83 C 55.46 O 56.32 CB 57.36 OG 58.44
C SER S 51 -153.5 51.6 N 53.36 CA 52.47 C 51.3 O 49.95 CB 51.71 OG 52.6
C GLU H 82 -58.2 -38.1 N 51.41 CA 50.45 C 49.44 O 48.55 CB 52.22 CG 54.21 CD 58.32 OE1 59.03 OE2 58.93
C GLU H 92 -74.0 -35.4 N 49.7 CA 49.2 C 47.13 O 46.32 CB 51.25 CG 54.42 CD 56.93 OE1 58.04 OE2 58.13
C GLN H 64 -63.8 -39.2 N 46.16 CA 44.5 C 42.17 O 41.67 CB 45.05 CG 47.94 CD 49.74 OE1 48.55 NE2 51.34
C ALA H 2 -65.6 -46.8 N 41.1 CA 39.59 C 39.03 O 38.59 CB 39.95
C ARG H 36 -60.9 -45.8 N 39.27 CA 39.0 C 37.91 O 37.8 CB 40.78 CG 42.03 CD 45.34 NE 47.03 CZ 49.04 NH1 50.07 NH2 48.26
C ALA H 32 -54.5 -59.3 N 37.31 CA 37.1 C 35.94 O 36.21 CB 37.12
C VAL H 4 -45.3 -46.0 N 35.32 CA 34.75 C 35.14 O 35.83 CB 34.33 CG1 32.5 CG2 34.81
C GLN H 12 -65.6 -47.0 N 35.63 CA 36.12 C 36.83 O 37.37 CB 36.7 CG 37.97 CD 41.0 OE1 41.37 NE2 42.63
C MET H 68 -80.4 -23.8 N 37.29 CA 38.05 C 38.22 O 39.31 CB 39.07 CG 38.47 SD 35.2 CE 37.24
C SER H 20 -73.7 -19.3 N 37.6 CA 37.68 C 37.04 O 36.67 CB 37.57 OG 38.32
C THR H 0 -84.4 -34.8 N 37.12 CA 37.72 C 38.74 O 39.72 CB 36.93 OG1 36.33 CG2 37.43
C LYS H 69 -53.8 -45.7 N 39.52 CA 40.95 C 41.22 O 42.69 CB 41.15 CG 43.04 CD 45.88 CE 45.59 NZ 45.94
C VAL H 54 -62.3 -53.4 N 40.84 CA 41.11 C 41.11 O 42.43 CB 40.75 CG1 42.43 CG2 41.18
C LEU H 1 -46.5 -47.9 N 39.95 CA 40.16 C 41.28 O 42.71 CB 39.0 CG 39.11 CD1 39.6 CD2 37.71
C ILE H 6 -54.3 -57.0 N 41.37 CA 42.52 C 44.3 O 45.41 CB 42.36 CG1 41.41 CG2 43.14 CD1 42.39
C GLN H 116 -49.0 -51.6 N 44.83 CA 46.84 C 47.68 O 48.83 CB 46.95 CG 47.83 CD 48.59 OE1 47.19 NE2 48.72
C PHE H 61 -50.5 -57.2 N 47.83 CA 49.14 C 50.72 O 52.47 CB 48.05 CG 47.33 CD1 47.28 CD2 45.39 CE1 47.42 CE2 46.51 CZ 46.48
C LEU H 0 -50.8 -39.2 N 50.62 CA 52.59 C 55.05 O 56.87 CB 51.35 CG 50.43 CD1 47.62 CD2 52.8
C GLN H 90 -68.6 -30.1 N 55.62 CA 58.45 C 61.18 O 63.34 CB 58.03 CG 57.26 CD 58.03 OE1 58.76 NE2 57.51
C LYS H 161 -72.4 -32.7 N 61.81 CA 64.27 C 65.85 O 68.19 CB 63.7 CG 64.75 CD 63.96 CE 64.2 NZ 65.86
C LYS - 86 -75.3 -4.4 N 65.29 CA 66.95 C 68.65 O 70.25 CB 65.68 CG 67.38 CD 66.39 CE 67.4 NZ 69.11
C ALA - 95 -101.1 360.0 N 68.93 CA 70.66 C 72.9 O 72.75 CB 69.51
C ILE - 113 360.0 -171.6 N 91.26 CA 90.62 C 90.61 O 91.46 CB 87.94
C THR - 87 -73.0 105.0 N 89.87 CA 89.69 C 87.27 O 85.06 CB 89.86 OG1 91.49 CG2 91.01
C THR - 109 -121.0 116.6 N 87.93 CA 86.11 C 87.2 O 89.7 CB 86.01 OG1 84.74 CG2 88.86
C PRO - 46 -62.1 160.7 N 85.57 CA 86.5 C 87.29 O 86.41 CB 84.39 CG 82.78 CD 82.96
C ASP - 42 -59.7 139.2 N 89.08 CA 90.36 C 88.24 O 86.24 CB 92.93
C PRO T 133 -81.3 17.4 N 88.81 CA 87.32 C 88.29 O 88.4 CB 88.46 CG 91.46 CD 91.31
C THR T 105 -136.9 -11.1 N 89.0 CA 90.04 C 89.08 O 90.12 CB 93.74 OG1 95.46 CG2 95.39
C THR T 94 -93.6 -28.2 N 87.02 CA 85.79 C 82.2 O 81.7 CB 86.65 OG1 89.77 CG2 87.29
C ASN H 53 -62.1 -26.3 N 79.53 CA 76.05 C 75.43 O 73.78 CB 74.49 CG 73.65 OD1 71.8 ND2 74.04
C ALA H 57 -76.4 -42.1 N 76.78 CA 76.59 C 77.15 O 76.36 CB 78.7
C SER H 79 -57.1 -36.6 N 78.49 CA 79.21 C 76.58 O 76.83 CB 81.67 OG 83.86
C LEU H 53 -71.2 -42.5 N 73.94 CA 71.29 C 69.17 O 68.56 CB 70.2 CG 68.35 CD1 69.65 CD2 67.0
C LEU H 38 -67.3 -45.0 N 68.03 CA 66.1 C 66.73 O 66.05 CB 65.91 CG 64.99 CD1 62.33 CD2 65.54
C THR H 96 -69.4 -31.8 N 68.22 CA 68.91 C 68.58 O 68.84 CB 71.8 OG1 73.11 CG2 74.09
C LYS H 128 -72.0 -52.5 N 67.88 CA 67.51 C 64.73 O 65.1 CB 68.82 CG 69.6 CD 69.95 CE 71.02 NZ 71.31
C LEU H 2 -43.9 -43.1 N 61.72 CA 58.9 C 58.54 O 58.33 CB 56.71 CG 55.71 CD1 52.75 CD2 55.25
C GLN T 97 -70.1 -12.9 N 58.39 CA 58.18 C 59.74 O 60.1 CB 58.74 CG 57.03 CD 58.47 OE1 60.93 NE2 57.11
C ALA T 86 -88.1 -6.4 N 60.66 CA 62.29 C 61.58 O 63.47 CB 64.62
C GLN S 38 -67.5 148.7 N 58.83 CA 57.79 C 57.11 O 56.25 CB 55.91 CG 55.77 CD 54.4 OE1 55.28 NE2 51.26
C ASN - 95 -66.8 169.6 N 57.36 CA 56.84 C 54.35 O 53.26 CB 58.62 CG 58.0 OD1 55.95 ND2 58.28
C GLN H 119 -69.4 -13.2 N 53.77 CA 51.46 C 50.12 O 48.69 CB 51.83 CG 53.85 CD 53.75 OE1 54.86 NE2 52.94
C TRP H 199 -79.8 -39.5 N 50.61 CA 49.54 C 49.22 O 48.21 CB 50.34 CG 49.24 CD1 49.38 CD2 47.55 NE1 49.92 CE2 47.72 CE3 44.89 CZ2 48.29 CZ3 43.97 CH2 46.22
C LEU H 89 -69.0 -40.0 N 50.24 CA 50.48 C 49.03 O 48.36 CB 51.8 CG 54.88 CD1 58.82 CD2 54.88
C GLN H 19 -58.3 -49.9 N 49.37 CA 48.7 C 48.09 O 47.42 CB 48.7 CG 50.65 CD 51.47 OE1 52.33 NE2 51.01
C ASP H 60 -52.6 -46.8 N 49.07 CA 49.28 C 49.41 O 48.29 CB 50.49 CG 51.81 OD1 52.48 OD2 54.42
C MET H 51 -66.8 -51.4 N 50.66 CA 51.3 C 50.73 O 50.47 CB 52.58
C THR H 6 -51.0 -37.2 N 51.24 CA 50.97 C 49.51 O 49.22 CB 51.23 OG1 53.11 CG2 51.49
C THR H 0 -68.5 -47.8 N 49.42 CA 48.96 C 48.88 O 48.53 CB 49.14 OG1 50.45 CG2 47.96
C HIS H 84 -65.7 -25.8 N 49.9 CA 50.51 C 50.52 O 50.7 CB 52.1 CG 54.67 ND1 55.31 CD2 57.16 CE1 56.93 NE2 58.47
C LEU H 32 -93.3 -19.7 N 50.29 CA 50.3 C 49.12 O 49.68 CB 51.96 CG 53.33 CD1 53.95 CD2 55.17
C ILE H 0 -63.5 -52.1 N 47.44 CA 45.61 C 44.83 O 44.94 CB 45.12 CG1 45.88 CG2 43.05 CD1 42.63
C LEU H 5 -60.0 -47.5 N 43.96 CA 43.18 C 43.75 O 43.64 CB 43.06 CG 42.94 CD1 43.68 CD2 41.97
C ARG H 133 -56.0 -54.5 N 44.3 CA 45.08 C 44.85 O 45.49 CB 46.59 CG 49.39 CD 52.6 NE 55.39 CZ 58.74 NH1 60.09 NH2 59.88
C SER H 34 -55.3 -57.7 N 43.91 CA 44.03 C 42.56 O 43.16 CB 44.12 OG 46.3
C PHE H 1 -52.6 -44.9 N 40.48 CA 39.34 C 39.53 O 39.82 CB 38.24 CG 37.18 CD1 36.69 CD2 36.3 CE1 35.65 CE2 36.41 CZ 36.71
C LYS H 102 -58.5 -55.8 N 39.34 CA 40.09 C 41.8 O 41.77 CB 40.6 CG 42.57 CD 44.85 CE 46.87 NZ 48.75
C GLU H 116 -56.4 -43.3 N 42.55 CA 44.58 C 44.55 O 46.06 CB 45.7 CG 47.96 CD 53.63 OE1 53.41 OE2 56.94
C PHE H 6 -59.4 -47.2 N 43.42 CA 43.66 C 43.3 O 44.13 CB 42.68 CG 43.52 CD1 45.55 CD2 42.68 CE1 46.97 CE2 43.6 CZ 45.84
C LEU H 0 -70.7 -31.3 N 41.88 CA 41.73 C 43.24 O 43.53 CB 40.3 CG 38.9 CD1 36.29 CD2 37.01
C GLN H 92 -62.3 -40.1 N 44.08 CA 45.76 C 47.25 O 48.35 CB 46.63 CG 47.94 CD 51.47 OE1 54.47 NE2 52.46
C SER H 19 -76.0 -42.1 N 47.43 CA 49.58 C 49.41 O 51.28 CB 50.33 OG 53.21
C SER H 1 -54.2 -45.4 N 47.95 CA 47.71 C 48.43 O 49.79 CB 45.88 OG 45.16
C LEU H 20 -63.1 -49.2 N 48.11 CA 49.02 C 51.87 O 53.28 CB 48.07 CG 48.84 CD1 49.22 CD2 48.5
C ARG H 183 -59.7 -41.8 N 53.11 CA 56.07 C 57.69 O 60.02 CB 57.01 CG 57.69 CD 58.74 NE 61.26 CZ 61.96 NH1 60.37 NH2 63.3
C ALA H 1 -65.4 -44.9 N 56.94 CA 58.53 C 58.81 O 61.12 CB 57.55
C LEU H 29 -68.8 -30.0 N 56.95 CA 57.21 C 59.17 O 60.34 CB 54.6 CG 53.21 CD1 50.79 CD2 53.0
C ARG T 153 -70.8 14.6 N 59.93 CA 62.67 C 66.3 O 68.64 CB 62.19 CG 59.96 CD 59.34 NE 57.8 CZ 58.93 NH1 59.9 NH2 58.2
C GLN T 134 -136.4 -47.7 N 67.3 CA 70.64 C 71.14 O 73.37 CB 71.47 CG 71.02 CD 73.56 OE1 73.6 NE2 74.69
C MET - 39 -162.0 360.0 N 69.56 CA 69.69 C 67.07 O 66.56 CB 72.48 OXT 65.66
