A ASP - 123 360.0 -74.3 N 49.4 CA 51.36 C 52.33 O 51.62 CB 57.8
A LYS - 79 -127.8 84.9 N 41.23 CA 38.94 C 37.69 O 30.35 CB 38.85 CG 40.46 CD 36.15 CE 39.84 NZ 43.07
A PRO H 45 -58.7 -38.3 N 31.03 CA 31.0 C 25.87 O 25.06 CB 35.0 CG 36.53 CD 36.64
A LEU H 1 -65.4 -31.2 N 23.87 CA 26.91 C 23.85 O 21.87 CB 22.72 CG 31.89 CD1 29.03 CD2 27.04
A ARG H 102 -77.0 -34.2 N 22.54 CA 25.12 C 23.82 O 21.94 CB 29.17 CG 28.08 CD 36.18 NE 36.0 CZ 42.61 NH1 40.48 NH2 38.94
A LYS H 117 -65.3 -40.8 N 19.24 CA 19.26 C 19.89 O 19.06 CB 24.29 CG 27.61 CD 45.55 CE 42.82 NZ 49.23
A ILE H 2 -61.8 -49.2 N 18.77 CA 18.51 C 20.08 O 17.95 CB 18.14 CG1 17.62 CG2 19.58 CD1 22.51
A SER H 8 -65.3 -36.3 N 20.01 CA 20.39 C 23.35 O 20.54 CB 19.38 OG 21.55
A ALA H 38 -66.2 -43.9 N 20.57 CA 21.35 C 20.28 O 18.84 CB 23.19
A ALA H 17 -65.3 -41.9 N 19.66 CA 18.99 C 18.08 O 19.11 CB 19.27
A PHE H 0 -76.4 -30.7 N 18.4 CA 19.53 C 20.23 O 18.84 CB 16.32 CG 19.29 CD1 17.2 CD2 19.89 CE1 19.29 CE2 20.88 CZ 18.34
A LYS H 116 -54.7 -45.1 N 21.35 CA 20.03 C 19.31 O 22.38 CB 24.14 CG 32.72 CD 39.58 CE 49.49 NZ 58.62
A LYS H 112 -62.6 -41.8 N 21.18 CA 21.8 C 19.12 O 17.45 CB 18.67 CG 20.43 CD 20.46 CE 25.55 NZ 27.25
A LEU H 0 -65.6 -40.1 N 20.35 CA 21.06 C 17.82 O 18.14 CB 17.91 CG 19.71 CD1 21.09 CD2 20.18
A ALA H 16 -63.0 -42.4 N 16.06 CA 19.33 C 21.04 O 18.07 CB 22.63
A ILE H 105 -57.1 -44.2 N 20.67 CA 21.64 C 20.63 O 22.91 CB 20.05 CG1 24.01 CG2 22.32 CD1 21.62
A ILE H 33 -62.8 -47.4 N 16.82 CA 18.58 C 21.13 O 22.79 CB 18.63 CG1 18.2 CG2 20.92 CD1 20.57
A VAL H 18 -63.7 -26.5 N 20.1 CA 19.7 C 20.41 O 22.64 CB 21.59 CG1 18.98 CG2 20.11
A ASN T 72 -99.0 5.3 N 21.88 CA 22.44 C 31.95 O 31.94 CB 26.02 CG 34.85 OD1 42.91 ND2 35.85
A SER S 37 -94.6 159.1 N 30.39 CA 31.98 C 26.9 O 25.2 CB 27.53 OG 36.78
A PRO S 107 -55.9 139.4 N 28.35 CA 29.41 C 33.03 O 31.18 CB 32.18 CG 36.32 CD 33.01
A ASN S 90 43.5 68.7 N 30.23 CA 35.43 C 37.45 O 35.78 CB 41.15
A PRO - 46 -69.6 133.6 N 29.51 CA 26.91 C 28.99 O 32.3 CB 28.54 CG 33.69 CD 30.29
A GLU - 134 -132.0 112.0 N 23.84 CA 24.1 C 22.39 O 24.03 CB 27.89 CG 28.16 CD 40.1 OE1 45.41 OE2 47.51
A VAL - 1 -92.4 112.1 N 24.0 CA 19.4 C 18.58 O 17.74 CB 18.43 CG1 21.15 CG2 21.95
A PRO B 42 -69.8 139.8 N 15.47 CA 17.46 C 19.7 O 19.82 CB 20.2 CG 23.79 CD 19.89
A VAL H 0 -72.1 -37.1 N 18.33 CA 22.33 C 17.81 O 20.88 CB 23.52 CG1 20.34 CG2 22.51
A THR H 56 -61.7 -55.0 N 15.64 CA 19.91 C 23.57 O 18.45 CB 25.92 OG1 21.32 CG2 28.03
A GLN H 69 -54.5 -49.1 N 17.55 CA 19.64 C 19.3 O 18.5 CB 16.61 CG 19.23 CD 19.66 OE1 21.17 NE2 20.25
A PHE H 0 -57.7 -50.1 N 20.71 CA 18.95 C 19.24 O 18.33 CB 17.21 CG 18.39 CD1 16.31 CD2 18.99 CE1 17.88 CE2 17.14 CZ 16.78
A SER H 1 -65.0 -38.6 N 18.45 CA 20.18 C 17.92 O 18.29 CB 21.73 OG 24.44
A HIS H 97 -60.3 -43.5 N 20.28 CA 20.7 C 20.42 O 18.19 CB 23.22 CG 30.94 ND1 39.11 CD2 33.94 CE1 37.61 NE2 32.64
A ALA H 4 -62.2 -43.9 N 18.98 CA 18.49 C 20.5 O 18.55 CB 21.5
A CYS H 1 -60.1 -33.5 N 15.63 CA 16.96 C 18.7 O 20.52 CB 20.86 SG 19.84
A SER H 40 -68.4 -25.7 N 18.67 CA 18.81 C 18.95 O 21.73 CB 19.77 OG 21.13
A LEU H 50 -68.5 -24.6 N 19.62 CA 21.01 C 22.22 O 20.07 CB 18.73 CG 22.51 CD1 23.25 CD2 26.23
A VAL H 0 -82.2 -27.1 N 20.0 CA 20.18 C 21.87 O 19.4 CB 21.56 CG1 21.25 CG2 19.09
A SER H 11 -47.7 -45.0 N 21.18 CA 20.91 C 18.03 O 23.89 CB 19.94 OG 21.14
A PRO H 85 -68.1 -15.6 N 21.27 CA 23.36 C 24.11 O 26.49 CB 27.2 CG 29.07 CD 23.56
A LEU H 15 -60.9 -36.5 N 23.99 CA 21.52 C 27.34 O 26.66 CB 21.68 CG 25.34 CD1 28.77 CD2 28.4
A PHE H 2 -63.6 -39.2 N 23.6 CA 24.07 C 25.95 O 26.77 CB 23.26 CG 20.09 CD1 22.2 CD2 23.59 CE1 20.55 CE2 22.58 CZ 22.11
A GLY H 47 -64.3 -36.6 N 25.11 CA 25.73 C 27.65 O 29.25
A CYS H 33 -57.4 -37.6 N 25.36 CA 29.03 C 26.53 O 27.22 CB 28.42 SG 32.65
A LEU H 4 -73.6 -15.9 N 22.85 CA 29.32 C 32.91 O 27.21 CB 24.79 CG 25.77 CD1 23.58 CD2 29.1
A GLY - 25 93.2 -165.2 N 31.46 CA 33.19 C 33.18 O 29.89
A ILE G 101 -60.7 -25.2 N 31.45 CA 28.16 C 26.96 O 30.59 CB 36.18 CG1 42.69 CG2 34.56 CD1 48.99
A ALA G 3 -55.3 -32.4 N 27.49 CA 28.04 C 25.22 O 24.04 CB 26.67
A PHE G 2 -107.5 24.5 N 25.82 CA 27.9 C 29.13 O 28.51 CB 24.2 CG 24.31 CD1 26.44 CD2 23.69 CE1 24.68 CE2 25.45 CZ 22.54
A LYS T 148 -55.9 -31.2 N 30.96 CA 28.99 C 26.23 O 28.13 CB 29.02 CG 35.98 CD 50.09 CE 58.31 NZ 56.81
A PHE H 28 -57.4 -30.0 N 25.68 CA 26.68 C 26.26 O 24.42 CB 26.02 CG 24.25 CD1 26.05 CD2 21.15 CE1 24.04 CE2 25.42 CZ 27.59
A ALA H 0 -69.1 -19.5 N 22.82 CA 22.55 C 25.39 O 24.57 CB 21.78
A GLU I 86 -59.5 -47.4 N 24.24 CA 24.99 C 25.3 O 25.5 CB 25.98 CG 32.73 CD 37.38 OE1 31.82 OE2 34.68
A MET I 118 -85.6 -36.9 N 25.75 CA 27.57 C 26.06 O 28.04 CB 32.7 CG 35.16 SD 52.14 CE 39.36
A ASP I 50 -74.3 -26.1 N 23.42 CA 24.37 C 21.4 O 22.3 CB 24.06 CG 29.14 OD1 29.83 OD2 33.26
A TYR I 0 -127.1 -59.8 N 23.06 CA 23.43 C 19.78 O 20.04 CB 23.46 CG 17.25 CD1 19.08 CD2 17.83 CE1 18.4 CE2 19.32 CZ 18.2 OH 18.11
A VAL I 19 -59.9 -48.7 N 19.56 CA 22.39 C 25.72 O 22.27 CB 21.84 CG1 22.03 CG2 22.1
A ALA H 23 -63.9 -31.3 N 22.19 CA 23.65 C 24.82 O 24.94 CB 24.8
A VAL H 2 -59.0 -48.1 N 19.97 CA 20.06 C 23.73 O 22.0 CB 16.2 CG1 20.85 CG2 19.21
A ASP H 73 -61.0 -36.0 N 22.72 CA 25.55 C 25.86 O 26.13 CB 27.86 CG 32.43 OD1 31.56 OD2 33.19
A ASP H 55 -62.2 -40.6 N 24.85 CA 25.26 C 29.05 O 28.31 CB 26.8 CG 34.38 OD1 32.04 OD2 34.54
A LEU H 1 -71.2 -38.1 N 21.75 CA 19.92 C 21.51 O 20.79 CB 19.68 CG 24.4 CD1 30.62 CD2 29.25
A VAL H 43 -60.6 -49.9 N 19.9 CA 21.81 C 26.25 O 23.08 CB 21.45 CG1 27.49 CG2 18.23
A ARG H 166 -55.2 -47.2 N 26.97 CA 27.12 C 27.37 O 30.87 CB 28.25 CG 37.59 CD 37.46 NE 45.8 CZ 42.58 NH1 39.23 NH2 51.73
A ALA H 19 -72.3 -25.6 N 25.99 CA 27.16 C 29.16 O 25.07 CB 30.5
A SER G 7 -57.3 -19.5 N 23.72 CA 24.02 C 22.98 O 24.19 CB 20.86 OG 22.02
A SER G 109 -65.0 -17.0 N 21.39 CA 24.54 C 29.14 O 26.58 CB 23.09 OG 25.83
A SER G 100 -118.4 9.0 N 20.66 CA 21.83 C 26.25 O 25.41 CB 25.53 OG 28.0
A ILE - 17 -126.8 135.4 N 20.46 CA 23.42 C 24.91 O 21.98 CB 25.89 CG1 30.5 CG2 27.5 CD1 31.35
A SER - 71 -82.6 -67.6 N 25.12 CA 21.78 C 22.43 O 21.56 CB 26.8 OG 25.49
A THR B 16 -127.7 161.7 N 19.25 CA 18.6 C 18.45 O 20.25 CB 18.76 OG1 20.36 CG2 22.77
A LEU H 0 -60.8 -39.0 N 17.04 CA 18.17 C 20.38 O 22.33 CB 16.3 CG 19.19 CD1 20.21 CD2 20.23
A VAL H 54 -61.3 -49.5 N 20.12 CA 20.07 C 21.69 O 23.58 CB 23.49 CG1 28.05 CG2 26.03
A VAL H 57 -60.1 -43.1 N 23.01 CA 22.21 C 21.32 O 20.75 CB 22.96 CG1 25.9 CG2 25.08
A MET H 1 -56.6 -49.5 N 21.65 CA 18.18 C 20.5 O 19.05 CB 23.58 CG 24.31 SD 22.3 CE 20.44
A MET H 5 -69.6 -39.5 N 18.36 CA 20.15 C 22.17 O 19.63 CB 18.29 CG 22.46 SD 23.02 CE 22.46
A ASP H 69 -58.8 -39.6 N 20.39 CA 20.55 C 20.68 O 23.97 CB 21.55 CG 25.15 OD1 27.99 OD2 28.97
A LYS H 128 -66.2 -34.1 N 21.61 CA 23.77 C 23.9 O 21.42 CB 20.35 CG 23.7 CD 34.95 CE 34.75 NZ 50.4
A ASP H 13 -69.2 -37.3 N 22.04 CA 22.33 C 24.48 O 22.86 CB 21.69 CG 24.09 OD1 20.45 OD2 23.08
A ILE H 60 -65.3 -41.2 N 19.11 CA 23.91 C 25.5 O 22.01 CB 22.13 CG1 26.11 CG2 25.22 CD1 26.64
A GLU H 166 -62.9 -40.2 N 22.87 CA 27.01 C 26.15 O 28.7 CB 28.79 CG 37.76 CD 59.24 OE1 56.18 OE2 74.23
A ALA T 68 -88.3 -3.1 N 22.87 CA 26.02 C 29.67 O 29.1 CB 23.21
A ASP T 146 56.3 44.4 N 24.59 CA 28.14 C 28.96 O 30.46 CB 30.98 CG 37.34 OD1 33.62 OD2 38.53
A CYS - 32 -123.6 22.9 N 22.54 CA 21.51 C 23.84 O 24.8 CB 25.47 SG 29.02
A VAL T 14 -50.6 -48.7 N 21.38 CA 20.5 C 23.03 O 22.63 CB 21.34 CG1 19.66 CG2 23.71
A ARG T 144 -94.4 3.5 N 24.97 CA 27.72 C 25.66 O 25.72 CB 27.28 CG 24.17 CD 25.68 NE 26.0 CZ 29.84 NH1 28.68 NH2 29.51
A LYS S 140 -63.3 143.6 N 25.5 CA 23.75 C 25.92 O 25.55 CB 25.93 CG 24.85 CD 30.02 CE 30.37 NZ 29.97
A ALA T 91 -54.3 134.2 N 24.97 CA 24.64 C 25.51 O 24.31 CB 30.15
A GLY T 52 75.7 2.6 N 23.44 CA 22.41 C 20.66 O 23.58
A SER - 11 -65.3 149.9 N 19.73 CA 19.99 C 21.21 O 20.09 CB 19.64 OG 21.43
A HIS H 60 -54.5 -41.3 N 20.74 CA 18.01 C 21.25 O 20.32 CB 21.66 CG 20.06 ND1 23.85 CD2 19.26 CE1 23.0 NE2 21.86
A THR H 0 -73.4 -38.8 N 19.23 CA 19.23 C 21.33 O 19.91 CB 21.96 OG1 20.89 CG2 23.22
A ARG H 72 -61.0 -45.3 N 17.54 CA 19.54 C 20.48 O 21.54 CB 24.81 CG 28.36 CD 27.65 NE 38.51 CZ 45.45 NH1 45.44 NH2 56.0
A ASN H 7 -66.1 -36.2 N 19.55 CA 19.36 C 19.32 O 17.56 CB 21.77 CG 23.81 OD1 34.67 ND2 27.52
A LEU H 0 -57.4 -45.2 N 15.9 CA 17.11 C 17.29 O 16.52 CB 17.12 CG 15.43 CD1 20.48 CD2 15.93
A LEU H 0 -60.2 -42.3 N 18.31 CA 18.22 C 18.43 O 17.95 CB 16.82 CG 20.38 CD1 19.39 CD2 22.26
A ARG H 36 -64.2 -42.0 N 17.95 CA 18.98 C 18.62 O 19.23 CB 21.95 CG 26.95 CD 31.06 NE 35.21 CZ 35.0 NH1 33.75 NH2 32.68
A VAL H 1 -63.4 -44.3 N 16.33 CA 17.21 C 18.12 O 17.03 CB 17.86 CG1 18.36 CG2 16.92
A LYS H 12 -52.3 -43.7 N 16.88 CA 20.24 C 19.87 O 18.33 CB 18.94 CG 19.96 CD 24.32 CE 26.92 NZ 27.79
A ARG H 14 -61.5 -40.3 N 18.93 CA 20.41 C 18.21 O 20.68 CB 20.46 CG 20.89 CD 25.76 NE 27.83 CZ 26.04 NH1 24.72 NH2 27.6
A GLY H 0 -61.0 -44.6 N 15.17 CA 17.51 C 17.5 O 16.65
A LEU H 0 -60.5 -39.4 N 15.63 CA 18.1 C 17.71 O 19.05 CB 17.12 CG 18.47 CD1 19.49 CD2 16.5
A ASP H 28 -67.9 -43.7 N 18.49 CA 16.7 C 19.25 O 19.78 CB 19.11 CG 25.84 OD1 23.39 OD2 22.27
A MET H 0 -59.5 -41.5 N 17.49 CA 21.33 C 21.71 O 20.31 CB 18.26 CG 18.78 SD 24.8 CE 28.13
A VAL H 1 -65.6 -42.6 N 16.81 CA 17.7 C 17.84 O 20.25 CB 16.79 CG1 16.07 CG2 18.58
A LYS H 33 -54.8 -47.9 N 16.97 CA 15.76 C 20.35 O 21.27 CB 17.79 CG 23.45 CD 24.78 CE 36.38 NZ 47.65
A VAL H 1 -68.9 -41.7 N 18.73 CA 20.33 C 22.79 O 21.18 CB 21.32 CG1 20.74 CG2 21.92
A LEU H 6 -51.3 -52.4 N 17.64 CA 19.1 C 20.33 O 22.4 CB 21.72 CG 19.52 CD1 23.67 CD2 19.57
A PHE H 3 -60.8 -46.3 N 19.97 CA 19.67 C 18.23 O 20.97 CB 18.32 CG 19.11 CD1 22.03 CD2 17.68 CE1 20.74 CE2 15.9 CZ 22.01
A GLU H 58 -54.7 -43.0 N 18.06 CA 19.47 C 21.39 O 20.83 CB 20.48 CG 23.99 CD 29.2 OE1 31.33 OE2 32.22
A GLN H 39 -74.8 -34.8 N 19.89 CA 22.67 C 24.45 O 20.76 CB 18.18 CG 20.53 CD 25.99 OE1 24.75 NE2 34.38
A ILE H 5 -60.7 -48.8 N 21.51 CA 19.82 C 24.35 O 25.08 CB 20.17 CG1 18.69 CG2 18.56 CD1 20.81
A ILE H 13 -59.3 -45.8 N 20.74 CA 23.83 C 26.93 O 28.29 CB 22.15 CG1 22.07 CG2 29.6 CD1 27.38
A ALA H 35 -66.4 -24.9 N 21.09 CA 24.72 C 29.53 O 31.07 CB 25.28
A SER T 16 -100.5 17.4 N 26.37 CA 30.79 C 29.66 O 30.8 CB 32.86 OG 31.49
A GLU T 106 -47.5 130.9 N 26.1 CA 28.21 C 28.26 O 28.6 CB 29.48 CG 30.83 CD 37.65 OE1 37.83 OE2 47.43
A GLY T 63 107.5 -21.6 N 27.27 CA 32.96 C 35.75 O 36.63
A ASP - 83 -85.7 133.8 N 30.54 CA 36.43 C 30.37 O 28.42 CB 28.8 CG 51.92 OD1 56.8 OD2 55.18
A ASN - 29 -90.0 -9.1 N 24.91 CA 22.91 C 23.92 O 25.04 CB 23.73 CG 29.25 OD1 31.86 ND2 23.23
A SER - 28 -98.8 150.7 N 23.56 CA 25.88 C 26.54 O 24.98 CB 28.13 OG 28.83
A LEU - 3 -99.1 2.8 N 23.31 CA 19.88 C 23.42 O 24.12 CB 23.03 CG 22.29 CD1 24.66 CD2 25.66
A LYS H 92 -59.6 -49.7 N 25.0 CA 25.31 C 26.8 O 25.34 CB 25.73 CG 32.56 CD 37.15 CE 46.02 NZ 51.48
A ASP H 60 -65.1 -48.2 N 26.54 CA 31.26 C 25.88 O 25.24 CB 30.15 CG 45.77 OD1 40.27 OD2 60.7
A PRO H 1 -59.4 -43.9 N 23.8 CA 22.32 C 21.88 O 23.6 CB 22.02 CG 29.29 CD 24.23
A ALA H 0 -66.1 -43.0 N 21.22 CA 21.51 C 22.62 O 19.82 CB 20.31
A THR H 7 -64.0 -45.2 N 20.87 CA 21.82 C 22.39 O 22.32 CB 20.64 OG1 25.48 CG2 23.3
A LYS H 66 -66.5 -39.3 N 23.39 CA 22.18 C 24.27 O 24.13 CB 24.24 CG 25.3 CD 29.45 CE 38.04 NZ 45.22
A SER H 0 -70.8 -38.5 N 20.67 CA 19.48 C 22.77 O 24.0 CB 22.37 OG 23.22
A TYR H 0 -65.0 -47.3 N 21.1 CA 20.12 C 20.59 O 19.77 CB 18.07 CG 21.05 CD1 24.06 CD2 25.5 CE1 22.69 CE2 19.74 CZ 24.98 OH 24.47
A ALA H 29 -65.7 -35.2 N 21.02 CA 19.23 C 24.03 O 23.94 CB 23.06
A GLN H 118 -73.7 -44.0 N 23.41 CA 26.47 C 25.89 O 25.04 CB 25.45 CG 32.06 CD 35.06 OE1 32.05 NE2 36.32
A VAL H 8 -94.7 -45.6 N 22.45 CA 21.24 C 24.11 O 26.96 CB 23.13 CG1 27.36 CG2 24.41
A PHE T 7 -104.1 -34.5 N 22.08 CA 22.88 C 27.26 O 26.1 CB 25.33 CG 22.66 CD1 27.49 CD2 26.04 CE1 24.84 CE2 27.56 CZ 23.9
A ALA G 9 -51.1 -39.6 N 23.26 CA 26.32 C 20.51 O 27.65 CB 23.11
A PRO G 89 -63.9 -12.6 N 27.23 CA 29.59 C 29.34 O 34.39 CB 27.11 CG 33.83 CD 26.03
A HIS G 68 -114.5 2.7 N 27.3 CA 27.46 C 30.41 O 31.0 CB 28.32 CG 26.13 ND1 27.7 CD2 32.48 CE1 32.17 NE2 37.08
A HIS S 19 -113.0 138.8 N 24.83 CA 21.8 C 27.19 O 28.12 CB 28.42 CG 28.02 ND1 27.76 CD2 29.88 CE1 27.7 NE2 25.82
A GLY - 48 -67.0 158.5 N 31.93 CA 36.98 C 31.7 O 30.02
A TRP H 21 -51.9 -43.5 N 32.21 CA 30.64 C 29.16 O 31.03 CB 29.84 CG 29.61 CD1 29.97 CD2 28.99 NE1 28.6 CE2 27.73 CE3 28.86 CZ2 27.69 CZ3 31.88 CH2 32.22
A ALA H 59 -62.1 -34.2 N 35.05 CA 28.13 C 31.0 O 28.54 CB 36.25
A ILE H 76 -68.8 -46.0 N 29.46 CA 28.71 C 27.72 O 28.64 CB 32.63 CG1 35.68 CG2 28.71 CD1 39.39
A ARG H 50 -55.9 -43.7 N 26.05 CA 26.76 C 29.01 O 23.93 CB 25.07 CG 27.49 CD 27.0 NE 32.81 CZ 35.56 NH1 30.93 NH2 34.77
A LYS H 89 -60.5 -46.6 N 25.34 CA 24.93 C 27.92 O 28.65 CB 26.31 CG 31.69 CD 38.53 CE 41.29 NZ 47.92
A ALA H 57 -58.3 -41.8 N 28.19 CA 24.24 C 26.08 O 28.17 CB 29.67
A VAL H 4 -59.8 -50.1 N 27.86 CA 28.37 C 27.55 O 26.17 CB 24.56 CG1 24.2 CG2 24.82
A SER H 8 -57.2 -30.0 N 27.97 CA 26.45 C 23.1 O 31.15 CB 25.77 OG 26.82
A LEU H 118 -80.5 -25.5 N 26.06 CA 32.61 C 37.85 O 40.82 CB 34.62 CG 37.12 CD1 40.07 CD2 39.95
A GLY H 7 -81.4 -9.4 N 32.96 CA 32.98 C 32.27 O 36.6
A MET G 7 -62.1 -28.3 N 32.21 CA 33.93 C 36.01 O 35.72 CB 33.72 CG 30.56 SD 31.66 CE 26.53
A TYR G 54 -65.4 -22.8 N 39.28 CA 36.67 C 32.7 O 41.9 CB 44.13
A ALA G 43 -96.5 12.6 N 33.99 CA 36.9 C 29.51 O 29.98 CB 28.56
A LEU - 11 -61.5 145.5 N 26.61 CA 28.31 C 28.25 O 30.26 CB 25.92 CG 28.91 CD1 28.6 CD2 27.56
A PRO - 16 -66.3 156.6 N 28.0 CA 26.33 C 25.87 O 25.73 CB 27.41 CG 27.73 CD 27.86
A THR - 12 -61.4 157.1 N 27.15 CA 24.88 C 26.93 O 26.74 CB 28.67 OG1 28.8 CG2 29.63
A ARG H 9 -58.3 -42.5 N 25.85 CA 27.45 C 23.64 O 27.73 CB 25.04 CG 26.91 CD 28.64 NE 32.05 CZ 28.38 NH1 24.45 NH2 27.12
A ALA H 38 -61.3 -39.3 N 24.42 CA 22.7 C 26.4 O 26.18 CB 25.78
A HIS H 94 -67.5 -39.7 N 27.85 CA 25.19 C 25.04 O 26.14 CB 27.59 CG 35.41 ND1 39.66 CD2 31.81 CE1 43.16 NE2 35.03
A LEU H 7 -60.7 -45.5 N 29.0 CA 27.39 C 25.45 O 27.2 CB 25.38 CG 23.13 CD1 25.66 CD2 24.29
A LEU H 11 -61.2 -36.1 N 23.51 CA 24.83 C 28.78 O 26.98 CB 24.65 CG 27.08 CD1 32.15 CD2 30.1
A ASN H 112 -63.7 -43.6 N 28.18 CA 28.72 C 28.61 O 31.09 CB 29.38 CG 31.33 OD1 34.18 ND2 38.42
A MET H 61 -61.6 -31.8 N 29.92 CA 28.76 C 29.86 O 34.74 CB 25.33 CG 34.26 SD 38.61 CE 38.46
A LEU T 5 -92.0 -0.4 N 27.01 CA 26.89 C 29.23 O 30.84 CB 27.96 CG 30.29 CD1 30.62 CD2 35.88
A LYS T 127 62.6 40.5 N 27.23 CA 35.53 C 31.83 O 35.73 CB 32.51 CG 36.84 CD 50.46 CE 62.24 NZ 72.81
A GLU - 14 -136.3 155.6 N 27.3 CA 28.25 C 26.6 O 30.99 CB 30.52 CG 27.98 CD 35.95 OE1 33.69 OE2 31.59
A ASP - 104 -93.1 174.1 N 29.35 CA 31.23 C 28.15 O 30.4 CB 36.07 CG 41.43 OD1 33.17 OD2 45.81
A GLU H 73 -53.7 -49.5 N 26.01 CA 32.52 C 32.54 O 26.84 CB 31.97 CG 36.35 CD 42.48 OE1 32.38 OE2 36.86
A ALA H 68 -58.3 -50.4 N 30.96 CA 25.88 C 28.68 O 29.67 CB 30.04
A ALA H 19 -68.9 -39.9 N 25.48 CA 25.62 C 27.94 O 26.6 CB 24.91
A ALA H 2 -62.2 -42.0 N 24.46 CA 27.64 C 26.21 O 25.69 CB 24.82
A LYS H 87 -59.2 -43.2 N 22.92 CA 29.22 C 26.47 O 27.74 CB 28.58 CG 27.93 CD 29.54 CE 32.27 NZ 32.54
A ILE H 112 -62.1 -46.2 N 23.43 CA 23.26 C 25.86 O 24.05 CB 29.98 CG1 28.85 CG2 29.67 CD1 34.17
A HIS H 39 -78.4 -30.3 N 22.84 CA 20.71 C 24.08 O 19.68 CB 21.48 CG 27.24 ND1 27.89 CD2 27.12 CE1 33.37 NE2 28.94
A MET H 3 -64.3 -47.8 N 20.1 CA 20.88 C 24.06 O 22.77 CB 20.63 CG 21.7 SD 24.85 CE 27.22
A GLN H 69 -61.3 -34.2 N 20.82 CA 20.89 C 20.36 O 22.47 CB 25.7 CG 26.65 CD 27.28 OE1 30.27 NE2 25.76
A SER H 26 -63.8 -48.5 N 18.31 CA 19.24 C 21.61 O 18.66 CB 23.25 OG 22.18
A TYR H 0 -57.3 -41.8 N 19.54 CA 18.05 C 21.9 O 18.46 CB 17.19 CG 17.02 CD1 20.21 CD2 17.82 CE1 19.52 CE2 18.73 CZ 20.78 OH 19.48
A VAL H 2 -60.9 -45.3 N 19.22 CA 20.03 C 22.76 O 23.46 CB 20.41 CG1 23.35 CG2 21.15
A ASN H 87 -68.1 -33.5 N 18.98 CA 23.27 C 24.32 O 21.08 CB 23.33 CG 25.71 OD1 25.86 ND2 32.22
A SER H 9 -82.3 -40.9 N 21.63 CA 18.09 C 21.93 O 20.78 CB 18.86 OG 22.25
A SER H 0 -70.4 -29.4 N 19.66 CA 18.31 C 23.58 O 22.48 CB 19.64 OG 21.58
A ALA H 0 -59.0 -53.4 N 21.72 CA 20.22 C 19.63 O 19.51 CB 22.75
A PRO H 23 -64.8 -32.6 N 22.66 CA 18.67 C 19.08 O 18.29 CB 21.88 CG 22.56 CD 22.25
A LEU H 0 -63.2 -46.3 N 19.3 CA 19.9 C 18.52 O 19.23 CB 20.44 CG 19.26 CD1 16.54 CD2 18.67
A ILE H 7 -63.3 -40.9 N 21.02 CA 20.05 C 22.27 O 21.37 CB 20.11 CG1 22.63 CG2 23.58 CD1 20.94
A THR H 35 -64.9 -43.0 N 21.84 CA 17.3 C 22.06 O 21.52 CB 26.36 OG1 27.17 CG2 25.95
A TYR H 31 -56.7 -43.4 N 18.97 CA 20.02 C 20.39 O 19.67 CB 19.78 CG 21.11 CD1 23.28 CD2 20.36 CE1 25.62 CE2 22.78 CZ 26.19 OH 29.62
A LEU H 0 -66.3 -52.9 N 16.6 CA 16.98 C 21.6 O 20.22 CB 18.56 CG 18.78 CD1 18.41 CD2 19.92
A ASP H 34 -47.9 -45.6 N 19.67 CA 23.66 C 21.09 O 24.26 CB 22.2 CG 28.96 OD1 24.92 OD2 31.65
A ASN H 83 -64.6 -34.1 N 21.75 CA 20.4 C 25.02 O 27.08 CB 23.58 CG 32.67 OD1 32.62 ND2 32.54
A LEU H 24 -55.3 -39.6 N 22.02 CA 21.61 C 23.98 O 24.12 CB 24.79 CG 24.06 CD1 27.6 CD2 25.64
A PHE H 1 -75.6 -50.2 N 21.37 CA 20.93 C 25.01 O 26.33 CB 20.74 CG 20.88 CD1 20.76 CD2 20.95 CE1 22.88 CE2 19.41 CZ 18.93
A LEU H 83 -67.4 -34.0 N 24.86 CA 24.55 C 25.97 O 26.46 CB 25.94 CG 27.0 CD1 25.54 CD2 28.96
A SER T 66 -72.9 -16.2 N 25.4 CA 26.0 C 31.27 O 34.56 CB 32.04 OG 27.91
A LYS T 98 -108.2 14.4 N 25.26 CA 29.98 C 30.79 O 28.62 CB 29.0 CG 32.66 CD 34.26 CE 36.32 NZ 38.05
A GLN T 166 56.5 34.8 N 27.29 CA 30.43 C 32.22 O 30.78 CB 30.24 CG 37.87 CD 44.62 OE1 45.95 NE2 43.25
A LEU - 24 -90.4 -16.9 N 21.82 CA 23.71 C 23.05 O 24.22 CB 21.43 CG 24.32 CD1 21.74 CD2 28.44
A GLY - 28 76.7 162.7 N 25.35 CA 25.23 C 24.6 O 23.37
A ILE S 28 -132.4 8.6 N 21.31 CA 21.84 C 27.83 O 25.67 CB 25.15 CG1 26.97 CG2 26.29 CD1 27.64
A ASP - 130 -106.3 12.4 N 26.79 CA 28.6 C 31.55 O 32.03 CB 32.97 CG 42.6 OD1 40.35 OD2 46.65
A TRP - 39 -101.6 360.0 N 29.75 CA 29.63 C 36.5 O 36.55 CB 28.7 CG 26.93 CD1 25.77 CD2 26.07 NE1 25.94 CE2 23.77 CE3 25.17 CZ2 24.75 CZ3 23.35 CH2 22.48 OXT 28.72
B ASP - 127 360.0 -43.3 N 47.25 CA 48.04 C 51.74 O 56.33 CB 20.0
B LYS - 84 -38.9 121.7 N 42.66 CA 33.59 C 32.32 O 29.92 CB 31.85 CG 39.74 CD 38.5 CE 37.99 NZ 45.07
B PRO H 39 -56.8 -41.5 N 32.71 CA 31.75 C 26.97 O 25.48 CB 28.33 CG 35.43 CD 31.32
B LEU H 2 -65.6 -29.1 N 23.37 CA 23.96 C 27.16 O 22.97 CB 24.83 CG 38.31 CD1 28.01 CD2 24.36
B ARG H 102 -83.6 -31.6 N 26.5 CA 22.14 C 24.38 O 25.27 CB 26.4 CG 25.23 CD 28.79 NE 35.12 CZ 41.09 NH1 39.53 NH2 37.7
B LYS H 106 -63.0 -41.2 N 24.06 CA 27.19 C 24.77 O 21.36 CB 30.02 CG 31.51 CD 46.6 CE 49.2 NZ 47.17
B ILE H 2 -62.5 -54.7 N 19.83 CA 20.99 C 22.24 O 19.49 CB 21.85 CG1 20.14 CG2 23.95 CD1 23.37
B SER H 9 -58.9 -39.8 N 20.8 CA 22.46 C 23.17 O 21.26 CB 23.69 OG 24.04
B ALA H 41 -65.3 -43.7 N 22.05 CA 28.53 C 22.92 O 22.12 CB 27.56
B ALA H 16 -70.2 -39.0 N 21.69 CA 19.68 C 20.58 O 21.19 CB 18.58
B PHE H 1 -77.2 -27.2 N 19.8 CA 19.4 C 20.44 O 20.9 CB 21.27 CG 19.24 CD1 20.22 CD2 16.93 CE1 21.58 CE2 18.97 CZ 18.88
B LYS H 107 -58.5 -44.0 N 19.32 CA 19.63 C 20.57 O 22.02 CB 20.59 CG 24.66 CD 30.47 CE 37.61 NZ 45.85
B LYS H 119 -65.6 -40.2 N 22.08 CA 20.37 C 25.27 O 22.69 CB 21.59 CG 22.61 CD 31.29 CE 37.42 NZ 50.96
B LEU H 0 -64.0 -42.4 N 22.53 CA 23.62 C 21.3 O 22.9 CB 25.04 CG 21.6 CD1 20.26 CD2 23.64
B ALA H 8 -64.5 -33.1 N 19.41 CA 23.87 C 23.95 O 21.45 CB 22.76
B ILE H 108 -59.6 -45.9 N 23.45 CA 24.46 C 23.99 O 26.36 CB 25.07 CG1 21.89 CG2 25.44 CD1 25.92
B ILE H 29 -61.9 -49.4 N 20.82 CA 22.49 C 25.99 O 25.21 CB 22.24 CG1 25.9 CG2 22.59 CD1 24.42
B VAL H 19 -61.2 -37.0 N 19.36 CA 19.21 C 24.88 O 24.49 CB 24.78 CG1 23.39 CG2 19.55
B ASN T 120 -85.5 -0.8 N 23.35 CA 23.16 C 24.24 O 23.77 CB 26.36 CG 32.5 OD1 37.12 ND2 25.93
B SER S 37 -84.2 168.3 N 25.03 CA 25.52 C 29.35 O 25.77 CB 28.6 OG 31.34
B PRO S 142 -62.7 -15.9 N 23.36 CA 25.76 C 30.26 O 27.78 CB 23.43 CG 24.44 CD 26.89
B ASN S 97 -136.6 81.5 N 29.34 CA 30.29 C 35.75 O 33.77 CB 30.94 CG 43.35 OD1 41.11 ND2 43.49
B PRO - 52 -83.0 72.4 N 31.38 CA 27.21 C 31.96 O 40.14 CB 23.05 CG 31.2 CD 32.58
B GLU - 118 -100.5 114.3 N 30.7 CA 22.6 C 27.57 O 26.26 CB 30.87 CG 39.68 CD 38.87 OE1 37.78 OE2 43.41
B VAL - 1 -100.4 115.0 N 22.51 CA 17.67 C 22.1 O 21.45 CB 21.1 CG1 21.82 CG2 24.63
B PRO B 38 -66.2 135.5 N 20.38 CA 19.67 C 17.02 O 19.26 CB 20.4 CG 22.8 CD 19.11
B VAL H 2 -60.5 -37.6 N 19.85 CA 18.9 C 22.04 O 18.23 CB 18.67 CG1 20.31 CG2 20.86
B THR H 71 -58.6 -58.1 N 19.31 CA 19.29 C 20.86 O 21.67 CB 23.04 OG1 23.73 CG2 22.99
B GLN H 63 -58.5 -44.8 N 18.2 CA 18.16 C 18.25 O 17.74 CB 21.29 CG 26.91 CD 27.57 OE1 30.23 NE2 30.96
B PHE H 1 -61.0 -50.2 N 18.55 CA 16.76 C 17.3 O 17.15 CB 18.18 CG 16.05 CD1 19.16 CD2 17.55 CE1 18.97 CE2 17.28 CZ 19.68
B SER H 2 -67.4 -36.1 N 18.82 CA 19.45 C 16.93 O 18.72 CB 20.05 OG 22.49
B HIS H 108 -62.3 -44.4 N 18.77 CA 20.9 C 20.5 O 18.69 CB 20.24 CG 23.46 ND1 27.98 CD2 21.2 CE1 19.93 NE2 24.16
B ALA H 1 -60.8 -46.3 N 20.4 CA 17.54 C 17.61 O 17.13 CB 17.63
B CYS H 1 -61.2 -35.4 N 17.49 CA 17.56 C 17.51 O 19.25 CB 16.97 SG 22.18
B SER H 34 -63.9 -26.9 N 17.67 CA 21.12 C 21.01 O 20.59 CB 22.49 OG 23.14
B LEU H 21 -72.5 -21.0 N 18.04 CA 19.01 C 18.82 O 19.56 CB 18.39 CG 22.53 CD1 21.15 CD2 27.51
B VAL H 0 -83.0 -25.9 N 18.63 CA 17.01 C 21.09 O 18.19 CB 16.74 CG1 18.81 CG2 20.27
B SER H 14 -44.8 -46.7 N 18.31 CA 18.25 C 19.38 O 19.82 CB 19.75 OG 18.58
B PRO H 79 -65.5 -20.3 N 16.74 CA 20.91 C 22.74 O 20.79 CB 25.96 CG 25.33 CD 16.74
B LEU H 13 -59.1 -37.5 N 19.96 CA 21.66 C 20.33 O 21.89 CB 22.05 CG 23.06 CD1 26.99 CD2 25.21
B PHE H 5 -64.0 -46.3 N 20.34 CA 23.66 C 23.18 O 22.9 CB 20.32 CG 20.76 CD1 22.59 CD2 18.95 CE1 21.06 CE2 20.78 CZ 21.2
B GLY H 63 -57.5 -32.8 N 22.18 CA 26.39 C 28.83 O 23.07
B CYS H 28 -60.5 -29.0 N 22.38 CA 25.4 C 25.46 O 25.88 CB 25.23 SG 28.26
B LEU T 5 -77.8 -10.8 N 21.61 CA 23.09 C 23.34 O 26.19 CB 20.82 CG 22.27 CD1 23.94 CD2 24.88
B GLY - 24 88.1 -170.4 N 24.42 CA 20.69 C 25.95 O 23.03
B ILE G 50 -52.8 -27.4 N 20.78 CA 23.08 C 20.4 O 21.0 CB 22.79 CG1 25.09 CG2 29.95 CD1 26.05
B ALA G 2 -60.2 -27.9 N 20.07 CA 19.29 C 19.86 O 21.9 CB 21.7
B PHE G 4 -108.9 25.6 N 21.01 CA 20.56 C 23.73 O 20.1 CB 21.72 CG 20.68 CD1 22.94 CD2 21.59 CE1 21.8 CE2 22.12 CZ 21.93
B LYS T 94 -56.1 -33.2 N 21.97 CA 23.27 C 20.33 O 21.67 CB 25.06 CG 33.29 CD 46.73 CE 51.75 NZ 57.47
B PHE H 21 -56.8 -23.5 N 18.73 CA 19.16 C 20.37 O 19.14 CB 20.32 CG 21.73 CD1 21.49 CD2 21.02 CE1 21.13 CE2 22.83 CZ 21.18
B ALA H 0 -73.5 -18.5 N 19.94 CA 17.94 C 17.04 O 19.02 CB 18.41
B GLU I 115 -63.1 -46.0 N 17.59 CA 19.26 C 19.55 O 21.39 CB 20.72 CG 26.94 CD 30.94 OE1 27.97 OE2 26.92
B MET I 32 -77.7 -41.7 N 18.02 CA 21.66 C 21.24 O 19.83 CB 22.87 CG 27.98 SD 34.43 CE 34.8
B ASP I 33 -91.1 -11.6 N 19.15 CA 16.98 C 17.28 O 17.99 CB 20.09 CG 27.06 OD1 29.51 OD2 33.13
B TYR I 0 -126.2 -63.8 N 18.33 CA 17.07 C 18.27 O 18.81 CB 15.62 CG 15.19 CD1 14.68 CD2 14.98 CE1 16.49 CE2 16.49 CZ 19.65 OH 17.08
B VAL I 13 -57.3 -50.5 N 17.65 CA 19.08 C 17.51 O 18.41 CB 17.56 CG1 21.38 CG2 18.76
B ALA H 24 -60.1 -35.5 N 17.24 CA 18.94 C 18.13 O 17.02 CB 19.52
B VAL H 1 -59.3 -45.5 N 16.65 CA 18.07 C 16.4 O 17.38 CB 18.42 CG1 21.84 CG2 20.48
B ASP H 56 -58.7 -39.4 N 16.81 CA 16.59 C 19.46 O 18.07 CB 18.11 CG 24.79 OD1 23.62 OD2 25.47
B ASP H 41 -65.3 -38.2 N 16.78 CA 17.2 C 18.33 O 18.9 CB 17.34 CG 23.16 OD1 17.28 OD2 22.7
B LEU H 2 -63.2 -44.2 N 16.94 CA 16.3 C 17.97 O 19.96 CB 15.16 CG 14.74 CD1 20.09 CD2 20.07
B VAL H 57 -54.8 -47.4 N 17.69 CA 19.74 C 22.25 O 20.64 CB 17.19 CG1 19.17 CG2 16.77
B ARG H 158 -60.1 -31.0 N 20.1 CA 22.89 C 23.88 O 23.64 CB 23.08 CG 27.95 CD 18.94 NE 23.08 CZ 24.62 NH1 21.03 NH2 25.94
B ALA H 14 -93.4 -16.6 N 23.57 CA 22.97 C 24.87 O 26.14 CB 25.15
B SER H 13 -61.4 -33.1 N 21.38 CA 22.73 C 25.72 O 24.86 CB 20.49 OG 26.85
B SER T 112 -70.5 -8.2 N 22.77 CA 26.13 C 29.27 O 31.56 CB 25.71 OG 27.75
B SER T 93 -109.3 -5.9 N 22.71 CA 26.06 C 28.55 O 28.8 CB 27.74 OG 24.71
B ILE - 21 -132.7 136.1 N 27.02 CA 25.44 C 25.02 O 28.07 CB 25.6 CG1 30.84 CG2 27.78 CD1 40.32
B SER - 71 -69.8 -75.6 N 25.35 CA 23.79 C 19.64 O 18.82 CB 23.19 OG 24.27
B THR B 19 -120.0 166.2 N 22.67 CA 21.92 C 19.35 O 20.63 CB 22.69 OG1 21.91 CG2 26.28
B LEU H 0 -60.5 -40.8 N 21.6 CA 19.37 C 21.83 O 18.88 CB 16.24 CG 19.72 CD1 20.88 CD2 21.43
B VAL H 45 -62.0 -45.4 N 22.11 CA 22.47 C 21.44 O 20.65 CB 17.76 CG1 26.15 CG2 24.78
B VAL H 48 -61.7 -43.0 N 19.34 CA 18.67 C 22.86 O 19.31 CB 20.65 CG1 25.26 CG2 23.41
B MET H 2 -54.9 -50.8 N 21.84 CA 22.14 C 20.33 O 22.09 CB 23.03 CG 20.04 SD 21.64 CE 21.27
B MET H 0 -64.5 -45.0 N 18.91 CA 20.27 C 22.17 O 20.01 CB 17.32 CG 20.81 SD 22.38 CE 18.59
B ASP H 71 -58.8 -36.9 N 21.91 CA 20.46 C 24.36 O 21.91 CB 20.32 CG 28.5 OD1 26.25 OD2 26.86
B LYS H 120 -63.7 -39.7 N 23.88 CA 22.36 C 23.65 O 22.81 CB 22.84 CG 29.45 CD 36.74 CE 53.44 NZ 54.96
B ASP H 13 -70.0 -36.7 N 21.81 CA 19.64 C 18.89 O 20.55 CB 18.22 CG 20.92 OD1 22.29 OD2 19.09
B ILE H 64 -60.4 -47.5 N 20.84 CA 20.97 C 22.64 O 23.09 CB 19.09 CG1 18.83 CG2 22.12 CD1 20.35
B GLU H 167 -63.3 -34.5 N 21.13 CA 23.8 C 27.41 O 27.53 CB 31.06 CG 36.68 CD 56.56 OE1 53.69 OE2 61.2
B ALA H 67 -85.5 -6.8 N 23.73 CA 26.79 C 27.28 O 27.9 CB 27.07
B ASP T 146 54.1 46.1 N 24.62 CA 26.19 C 27.93 O 27.87 CB 30.04 CG 35.0 OD1 26.56 OD2 42.77
B CYS - 38 -127.0 19.5 N 20.71 CA 22.72 C 23.46 O 23.81 CB 25.81 SG 24.17
B VAL T 15 -47.3 -51.5 N 19.06 CA 20.47 C 22.42 O 20.63 CB 22.09 CG1 19.34 CG2 21.32
B ARG T 143 -92.5 3.8 N 18.87 CA 18.59 C 21.58 O 20.51 CB 17.91 CG 19.11 CD 22.79 NE 19.57 CZ 26.23 NH1 23.04 NH2 26.27
B LYS S 113 -66.2 135.5 N 19.1 CA 21.57 C 22.53 O 20.04 CB 21.79 CG 21.52 CD 19.83 CE 22.54 NZ 33.36
B ALA T 48 -56.9 127.7 N 19.83 CA 21.57 C 19.98 O 21.84 CB 22.86
B GLY T 50 82.1 8.1 N 19.26 CA 16.94 C 19.07 O 18.25
B SER - 11 -72.5 155.2 N 17.76 CA 17.29 C 19.89 O 19.67 CB 18.43 OG 18.67
B HIS H 53 -62.2 -38.4 N 19.29 CA 18.79 C 17.31 O 16.98 CB 21.19 CG 22.36 ND1 24.48 CD2 28.59 CE1 24.75 NE2 25.04
B THR H 0 -72.0 -37.2 N 19.53 CA 19.2 C 17.7 O 16.13 CB 20.46 OG1 18.75 CG2 21.57
B ARG H 55 -65.7 -40.9 N 16.84 CA 17.79 C 16.7 O 15.15 CB 15.61 CG 17.55 CD 19.51 NE 22.03 CZ 23.01 NH1 28.71 NH2 23.53
B ASN H 2 -58.5 -42.6 N 16.53 CA 16.68 C 18.61 O 18.35 CB 19.58 CG 19.22 OD1 19.61 ND2 21.4
B LEU H 0 -59.1 -45.5 N 15.84 CA 15.03 C 16.3 O 15.52 CB 14.64 CG 15.4 CD1 15.55 CD2 16.53
B LEU H 0 -61.6 -42.0 N 17.38 CA 15.17 C 19.61 O 15.11 CB 16.77 CG 18.54 CD1 19.11 CD2 17.4
B ARG H 23 -65.5 -41.4 N 16.54 CA 18.62 C 15.45 O 16.86 CB 18.4 CG 26.28 CD 26.09 NE 22.16 CZ 24.78 NH1 23.55 NH2 20.85
B VAL H 0 -65.9 -39.1 N 17.24 CA 15.66 C 15.14 O 16.3 CB 20.14 CG1 19.2 CG2 18.15
B LYS H 11 -56.7 -43.8 N 17.67 CA 14.74 C 17.72 O 17.07 CB 15.32 CG 21.19 CD 19.78 CE 20.87 NZ 18.91
B ARG H 13 -61.0 -40.9 N 18.18 CA 18.03 C 17.5 O 19.5 CB 18.93 CG 16.9 CD 18.88 NE 24.07 CZ 22.61 NH1 21.21 NH2 23.56
B GLY H 0 -61.1 -45.1 N 17.63 CA 16.89 C 16.7 O 17.2
B LEU H 0 -58.5 -41.7 N 16.57 CA 15.97 C 18.49 O 19.21 CB 20.02 CG 18.67 CD1 19.05 CD2 18.69
B ASP H 30 -66.7 -39.9 N 17.46 CA 21.39 C 18.78 O 17.72 CB 15.77 CG 26.37 OD1 23.3 OD2 27.17
B MET H 0 -64.0 -40.1 N 17.43 CA 17.58 C 18.3 O 19.6 CB 18.13 CG 20.02 SD 22.62 CE 24.06
B VAL H 1 -66.7 -38.5 N 17.9 CA 21.42 C 18.34 O 21.78 CB 16.12 CG1 19.47 CG2 19.21
B LYS H 37 -57.4 -50.7 N 19.16 CA 17.94 C 23.43 O 22.91 CB 19.8 CG 19.63 CD 25.43 CE 42.55 NZ 42.72
B VAL H 0 -66.6 -43.1 N 23.49 CA 21.74 C 24.92 O 26.9 CB 22.87 CG1 25.59 CG2 26.07
B LEU H 9 -51.9 -50.6 N 21.87 CA 21.89 C 26.69 O 24.65 CB 20.53 CG 25.06 CD1 26.39 CD2 25.76
B PHE H 4 -62.6 -44.5 N 24.41 CA 26.6 C 26.38 O 27.04 CB 22.93 CG 19.65 CD1 24.44 CD2 22.94 CE1 19.76 CE2 22.06 CZ 22.05
B GLU H 59 -55.0 -44.2 N 25.14 CA 29.29 C 32.71 O 32.69 CB 28.12 CG 26.65 CD 30.48 OE1 29.5 OE2 33.75
B GLN H 57 -69.9 -39.0 N 26.36 CA 27.43 C 31.17 O 33.17 CB 25.61 CG 29.99 CD 40.02 OE1 41.01 NE2 41.55
B ILE H 3 -64.1 -43.9 N 25.07 CA 30.52 C 34.91 O 32.07 CB 25.94 CG1 30.6 CG2 28.42 CD1 26.69
B ILE H 29 -61.1 -44.3 N 31.41 CA 32.4 C 41.94 O 43.87 CB 31.57 CG1 29.32 CG2 35.33 CD1 25.35
B ALA H 80 -73.6 -11.8 N 31.36 CA 38.5 C 44.52 O 42.99 CB 38.35
B SER T 28 -117.9 22.5 N 40.69 CA 40.55 C 39.25 O 45.71 CB 40.1 OG 38.54
B GLU T 106 -52.5 145.1 N 42.4 CA 45.03 C 41.81 O 40.83 CB 48.82 CG 53.94 CD 61.97 OE1 61.89 OE2 62.61
B GLY T 79 97.5 -17.6 N 43.92 CA 47.39 C 50.84 O 49.16
B ASP - 77 -105.3 126.3 N 41.25 CA 42.12 C 39.35 O 40.7 CB 39.83 CG 46.23 OD1 50.47 OD2 49.62
B ASN - 80 -85.9 -10.5 N 32.89 CA 35.92 C 33.84 O 34.65 CB 32.23 CG 32.95 OD1 33.4 ND2 31.22
B SER - 54 -86.4 134.1 N 34.3 CA 32.87 C 29.8 O 36.18 CB 39.29 OG 38.45
B LEU - 4 -100.2 4.7 N 30.82 CA 30.92 C 31.02 O 30.28 CB 28.66 CG 30.73 CD1 31.25 CD2 29.14
B LYS H 107 -56.2 -47.9 N 33.09 CA 31.09 C 29.8 O 29.32 CB 35.69 CG 41.94 CD 50.98 CE 60.95 NZ 63.9
B ASP H 77 -63.9 -49.7 N 33.8 CA 35.01 C 30.73 O 30.11 CB 43.15 CG 52.76 OD1 46.7 OD2 59.81
B PRO H 2 -58.3 -44.6 N 31.58 CA 29.69 C 27.35 O 28.1 CB 34.23 CG 36.53 CD 37.91
B ALA H 1 -65.9 -43.5 N 28.89 CA 26.97 C 29.2 O 25.3 CB 28.84
B THR H 63 -67.0 -42.3 N 25.48 CA 25.42 C 25.38 O 26.99 CB 33.32 OG1 34.59 CG2 39.52
B LYS H 107 -67.2 -46.0 N 31.41 CA 27.36 C 21.67 O 27.82 CB 32.54 CG 44.73 CD 44.9 CE 53.38 NZ 58.7
B SER H 0 -64.4 -41.4 N 25.6 CA 25.16 C 22.61 O 24.34 CB 23.62 OG 27.08
B TYR H 14 -63.6 -43.2 N 22.21 CA 19.45 C 25.65 O 22.0 CB 22.01 CG 22.5 CD1 20.8 CD2 25.21 CE1 21.24 CE2 25.64 CZ 23.27 OH 22.59
B ALA H 50 -65.2 -38.5 N 21.81 CA 25.19 C 25.29 O 25.4 CB 30.31
B GLN H 120 -75.5 -43.1 N 28.45 CA 24.42 C 32.25 O 25.0 CB 25.37 CG 34.35 CD 41.34 OE1 36.79 NE2 39.46
B VAL H 6 -95.5 -44.6 N 23.38 CA 22.62 C 21.38 O 24.06 CB 20.76 CG1 19.05 CG2 24.88
B PHE T 6 -102.0 -39.6 N 21.64 CA 20.76 C 23.0 O 23.43 CB 21.77 CG 21.51 CD1 21.67 CD2 21.94 CE1 15.96 CE2 19.6 CZ 19.88
B ALA G 18 -48.5 -41.6 N 22.63 CA 24.73 C 29.84 O 25.4 CB 25.06
B PRO G 71 -62.2 -19.6 N 27.86 CA 31.55 C 29.84 O 33.35 CB 25.49 CG 30.31 CD 25.69
B HIS G 46 -104.0 1.6 N 27.85 CA 24.87 C 27.48 O 27.34 CB 25.53 CG 26.67 ND1 25.29 CD2 26.41 CE1 27.94 NE2 28.71
B HIS S 13 -111.0 147.1 N 25.25 CA 22.81 C 25.34 O 25.5 CB 25.05 CG 23.21 ND1 23.56 CD2 28.8 CE1 27.52 NE2 30.31
B GLY - 4 -76.2 167.7 N 24.49 CA 28.82 C 27.89 O 24.95
B TRP H 89 -65.5 -21.6 N 29.18 CA 30.81 C 26.27 O 27.21 CB 30.85 CG 31.76 CD1 42.61 CD2 37.42 NE1 33.93 CE2 35.26 CE3 39.15 CZ2 40.49 CZ3 39.48 CH2 42.01
B ALA H 13 -61.8 -48.8 N 24.57 CA 24.79 C 25.0 O 25.14 CB 26.29
B ILE H 45 -68.5 -40.7 N 20.78 CA 24.69 C 23.46 O 22.3 CB 24.31 CG1 29.95 CG2 25.16 CD1 38.29
B ARG H 92 -60.9 -40.5 N 18.74 CA 22.14 C 21.75 O 22.31 CB 23.71 CG 29.01 CD 34.03 NE 39.15 CZ 48.76 NH1 47.83 NH2 49.91
B LYS H 89 -67.9 -38.8 N 23.68 CA 25.8 C 26.24 O 26.33 CB 26.0 CG 35.18 CD 42.27 CE 47.55 NZ 52.17
B ALA H 57 -64.9 -40.6 N 22.37 CA 24.99 C 23.99 O 24.53 CB 25.29
B VAL H 5 -60.3 -49.2 N 20.81 CA 23.56 C 26.92 O 22.14 CB 22.61 CG1 21.29 CG2 19.68
B SER H 87 -58.1 -45.0 N 20.74 CA 24.82 C 27.22 O 25.79 CB 30.29 OG 31.94
B LEU H 42 -65.2 -27.0 N 24.54 CA 28.62 C 32.83 O 31.79 CB 29.02 CG 45.21 CD1 43.16 CD2 42.85
B GLY G 3 -88.3 0.2 N 20.79 CA 17.59 C 22.03 O 21.26
B MET G 28 -63.8 -21.5 N 21.82 CA 24.14 C 26.94 O 23.13 CB 24.54 CG 26.75 SD 26.35 CE 27.82
B TYR G 27 -64.6 -18.3 N 22.11 CA 22.73 C 26.08 O 27.02 CB 21.42 CG 22.17 CD1 24.59 CD2 23.51 CE1 23.56 CE2 22.87 CZ 23.96 OH 25.32
B ALA G 2 -104.1 5.4 N 19.64 CA 19.9 C 21.65 O 27.69 CB 25.02
B LEU - 11 -64.3 134.4 N 22.44 CA 24.25 C 30.43 O 30.63 CB 21.72 CG 26.46 CD1 27.27 CD2 29.34
B PRO - 2 -62.4 155.2 N 30.69 CA 29.97 C 26.84 O 26.74 CB 27.9 CG 26.93 CD 26.74
B THR - 24 -78.8 168.4 N 31.12 CA 30.05 C 29.74 O 29.64 CB 30.22 OG1 28.17 CG2 33.79
B ARG H 12 -52.1 -50.6 N 32.07 CA 28.4 C 29.37 O 27.06 CB 29.01 CG 32.54 CD 33.3 NE 46.8 CZ 40.15 NH1 36.29 NH2 45.43
B ALA H 58 -61.1 -41.1 N 31.12 CA 28.96 C 28.49 O 27.61 CB 30.36
B HIS H 68 -66.8 -39.4 N 26.96 CA 29.07 C 24.14 O 27.65 CB 31.09 CG 34.64 ND1 41.24 CD2 31.97 CE1 36.26 NE2 36.3
B LEU H 8 -61.6 -49.5 N 24.34 CA 27.77 C 25.54 O 24.27 CB 26.8 CG 26.45 CD1 26.5 CD2 23.63
B LEU H 13 -59.6 -36.9 N 29.26 CA 28.19 C 28.35 O 31.78 CB 28.77 CG 33.41 CD1 36.37 CD2 38.41
B ASN H 112 -62.0 -42.4 N 26.1 CA 28.37 C 28.61 O 28.57 CB 30.98 CG 43.71 OD1 41.43 ND2 41.62
B MET H 55 -62.9 -34.7 N 30.21 CA 31.04 C 27.9 O 28.1 CB 27.57 CG 29.98 SD 38.43 CE 35.91
B LEU T 5 -88.8 -1.4 N 28.67 CA 29.35 C 32.53 O 31.85 CB 27.17 CG 29.47 CD1 31.84 CD2 29.55
B LYS T 126 67.0 37.4 N 28.74 CA 36.71 C 32.91 O 37.2 CB 40.5 CG 37.62 CD 45.44 CE 55.06 NZ 61.13
B GLU - 17 -137.7 153.4 N 32.96 CA 34.62 C 32.73 O 28.46 CB 34.31 CG 34.09 CD 35.65 OE1 31.26 OE2 29.98
B ASP - 108 -90.3 171.7 N 31.98 CA 34.32 C 30.23 O 33.64 CB 37.83 CG 42.76 OD1 34.2 OD2 43.58
B GLU H 71 -51.1 -50.0 N 24.79 CA 30.92 C 31.58 O 26.18 CB 33.42 CG 39.33 CD 48.75 OE1 38.37 OE2 50.89
B ALA H 69 -58.0 -50.8 N 31.8 CA 31.01 C 27.57 O 28.12 CB 34.69
B ALA H 14 -67.0 -40.7 N 28.46 CA 28.32 C 26.24 O 25.0 CB 29.0
B ALA H 2 -61.9 -43.5 N 26.83 CA 28.58 C 28.42 O 27.69 CB 25.06
B LYS H 102 -58.1 -46.2 N 29.74 CA 31.13 C 30.27 O 30.78 CB 32.44 CG 34.6 CD 37.33 CE 42.69 NZ 55.04
B ILE H 110 -57.5 -50.9 N 26.51 CA 26.17 C 27.55 O 24.73 CB 33.31 CG1 34.4 CG2 30.64 CD1 33.8
B HIS H 37 -76.3 -31.4 N 28.84 CA 27.45 C 22.08 O 25.77 CB 28.82 CG 24.72 ND1 27.73 CD2 32.5 CE1 30.34 NE2 31.34
B MET H 3 -64.0 -47.7 N 24.23 CA 23.53 C 27.83 O 23.23 CB 20.27 CG 22.15 SD 28.02 CE 31.72
B GLN H 69 -63.3 -34.4 N 25.3 CA 25.28 C 20.12 O 23.57 CB 23.96 CG 27.26 CD 28.0 OE1 26.6 NE2 25.05
B SER H 20 -63.5 -47.2 N 20.51 CA 21.61 C 20.96 O 21.49 CB 24.91 OG 24.46
B TYR H 0 -60.2 -41.3 N 19.65 CA 20.36 C 19.11 O 21.65 CB 17.4 CG 17.94 CD1 19.29 CD2 23.17 CE1 19.48 CE2 19.35 CZ 20.87 OH 19.74
B VAL H 10 -57.2 -43.6 N 22.98 CA 21.48 C 21.89 O 22.28 CB 20.48 CG1 25.05 CG2 24.12
B ASN H 100 -67.5 -40.1 N 22.51 CA 24.44 C 22.03 O 22.35 CB 26.88 CG 26.09 OD1 30.25 ND2 33.35
B SER H 10 -80.2 -40.9 N 22.81 CA 24.02 C 22.13 O 20.6 CB 22.15 OG 24.74
B SER H 0 -69.8 -29.3 N 20.0 CA 19.12 C 23.39 O 20.57 CB 17.83 OG 21.02
B ALA H 31 -55.5 -54.5 N 21.48 CA 22.4 C 22.39 O 21.13 CB 24.63
B PRO H 32 -67.0 -29.3 N 21.56 CA 21.46 C 22.12 O 19.34 CB 23.35 CG 22.72 CD 23.53
B LEU H 1 -67.1 -44.0 N 21.58 CA 20.12 C 17.87 O 18.15 CB 19.09 CG 22.33 CD1 23.55 CD2 19.67
B ILE H 7 -62.4 -43.5 N 18.92 CA 19.95 C 21.47 O 17.33 CB 19.19 CG1 19.06 CG2 22.68 CD1 21.6
B THR H 75 -65.5 -39.3 N 20.76 CA 21.24 C 20.53 O 17.41 CB 22.22 OG1 24.12 CG2 26.12
B TYR H 39 -57.1 -48.5 N 19.23 CA 19.37 C 19.63 O 18.32 CB 20.71 CG 18.64 CD1 25.03 CD2 26.0 CE1 22.51 CE2 23.73 CZ 26.24 OH 33.21
B LEU H 0 -60.7 -51.3 N 18.76 CA 19.16 C 18.19 O 18.66 CB 19.09 CG 17.57 CD1 19.95 CD2 20.42
B ASP H 32 -50.0 -46.3 N 17.0 CA 15.73 C 19.93 O 18.66 CB 19.79 CG 28.52 OD1 23.71 OD2 24.72
B ASN H 84 -71.2 -23.9 N 19.71 CA 18.57 C 18.88 O 19.38 CB 19.05 CG 21.55 OD1 21.62 ND2 20.59
B LEU H 14 -60.0 -45.5 N 20.9 CA 20.31 C 20.35 O 19.51 CB 21.63 CG 24.56 CD1 25.72 CD2 22.65
B PHE H 0 -68.6 -50.7 N 16.91 CA 20.57 C 17.1 O 20.13 CB 18.81 CG 20.31 CD1 18.84 CD2 19.96 CE1 21.68 CE2 19.21 CZ 15.62
B LEU H 80 -64.5 -40.9 N 17.53 CA 19.64 C 17.66 O 18.08 CB 17.69 CG 20.79 CD1 20.28 CD2 28.12
B SER H 86 -66.4 -26.0 N 19.25 CA 18.43 C 21.79 O 20.34 CB 21.09 OG 20.75
B LYS T 55 -97.4 11.6 N 20.88 CA 21.03 C 22.27 O 21.22 CB 18.71 CG 25.01 CD 26.11 CE 21.63 NZ 25.56
B GLN T 174 60.3 33.9 N 20.1 CA 17.42 C 24.59 O 21.51 CB 24.19 CG 24.6 CD 31.72 OE1 29.11 NE2 25.95
B LEU - 25 -93.1 -21.6 N 21.34 CA 20.2 C 21.48 O 22.7 CB 19.0 CG 21.44 CD1 22.07 CD2 22.54
B GLY - 27 78.6 160.1 N 19.77 CA 21.86 C 22.29 O 20.59
B ILE S 27 -126.9 7.6 N 21.03 CA 20.87 C 23.17 O 21.19 CB 20.7 CG1 24.09 CG2 20.12 CD1 28.83
B ASP - 111 -106.8 11.0 N 21.13 CA 23.84 C 26.77 O 34.28 CB 31.18 CG 36.5 OD1 29.72 OD2 43.54
B TRP - 35 -99.4 360.0 N 23.28 CA 24.22 C 29.67 O 25.12 CB 21.73 CG 20.23 CD1 21.18 CD2 18.9 NE1 19.51 CE2 18.88 CE3 21.95 CZ2 21.72 CZ3 21.45 CH2 19.73 OXT 21.58
C ASP - 119 360.0 48.0 N 44.94 CA 52.2 C 54.66 O 51.66 CB 52.61
C LYS - 86 -121.9 80.2 N 49.99 CA 41.41 C 30.66 O 34.58 CB 39.91 CG 46.35 CD 45.45 CE 55.72 NZ 53.98
C PRO H 40 -50.2 -45.6 N 36.0 CA 32.93 C 29.42 O 31.05 CB 37.42 CG 35.98 CD 38.02
C LEU H 2 -62.0 -39.0 N 24.65 CA 24.3 C 24.52 O 28.08 CB 24.83 CG 26.79 CD1 27.73 CD2 24.39
C ARG H 106 -72.1 -34.4 N 24.85 CA 31.11 C 30.64 O 27.91 CB 26.52 CG 30.88 CD 43.68 NE 41.79 CZ 47.9 NH1 40.86 NH2 49.77
C LYS H 113 -67.7 -38.4 N 26.19 CA 28.87 C 26.46 O 25.09 CB 30.1 CG 32.99 CD 47.58 CE 49.07 NZ 64.38
C ILE H 1 -64.4 -50.3 N 26.34 CA 27.49 C 28.34 O 24.72 CB 23.66 CG1 29.29 CG2 22.81 CD1 26.86
C SER H 8 -64.0 -36.9 N 24.85 CA 25.28 C 26.11 O 25.46 CB 26.96 OG 26.73
C ALA H 43 -68.2 -43.1 N 27.27 CA 29.22 C 27.64 O 27.88 CB 30.25
C ALA H 14 -65.1 -40.3 N 28.19 CA 25.53 C 28.3 O 24.85 CB 20.65
C PHE H 1 -81.0 -25.9 N 24.31 CA 25.22 C 24.6 O 25.91 CB 20.99 CG 20.4 CD1 18.59 CD2 24.76 CE1 25.3 CE2 18.16 CZ 24.99
C LYS H 100 -60.3 -43.4 N 24.21 CA 27.91 C 29.73 O 25.48 CB 26.87 CG 35.79 CD 39.7 CE 52.11 NZ 53.83
C LYS H 116 -66.1 -40.7 N 27.96 CA 27.58 C 30.07 O 26.6 CB 27.42 CG 29.97 CD 35.58 CE 41.41 NZ 45.52
C LEU H 1 -65.5 -37.3 N 23.39 CA 26.99 C 26.53 O 25.17 CB 27.66 CG 23.84 CD1 25.79 CD2 23.99
C ALA H 8 -65.0 -35.2 N 23.51 CA 23.78 C 27.43 O 28.89 CB 25.23
C ILE H 98 -63.9 -39.8 N 29.08 CA 28.95 C 34.12 O 29.11 CB 32.42 CG1 34.2 CG2 34.91 CD1 37.13
C ILE H 35 -63.8 -53.5 N 29.95 CA 29.55 C 32.48 O 33.28 CB 29.22 CG1 32.57 CG2 31.36 CD1 32.53
C VAL H 18 -61.2 -25.5 N 30.69 CA 30.78 C 32.9 O 35.56 CB 30.16 CG1 29.75 CG2 29.65
C ASN T 116 -94.5 9.1 N 30.85 CA 34.56 C 39.95 O 45.42 CB 34.86 CG 42.49 OD1 44.85 ND2 42.78
C SER S 46 -98.7 160.6 N 40.05 CA 40.67 C 44.81 O 40.69 CB 43.3 OG 44.04
C PRO S 115 -63.9 137.6 N 48.77 CA 51.89 C 50.19 O 48.33 CB 50.68 CG 53.93 CD 48.15
C ASN S 152 53.0 63.8 N 51.3 CA 46.94 C 49.73 O 47.71 CB 54.81 CG 60.62 OD1 62.4 ND2 59.85
C PRO - 42 -63.4 136.3 N 45.87 CA 43.39 C 32.09 O 41.57 CB 37.9 CG 45.06 CD 43.06
C GLU - 142 -127.9 116.0 N 36.03 CA 35.16 C 30.13 O 29.48 CB 39.05 CG 42.28 CD 56.85 OE1 52.52 OE2 61.35
C VAL - 1 -104.8 109.5 N 28.29 CA 28.3 C 26.51 O 25.81 CB 30.44 CG1 27.39 CG2 27.72
C PRO B 44 -64.4 135.7 N 27.44 CA 28.67 C 27.94 O 26.51 CB 31.38 CG 34.53 CD 26.53
C VAL H 0 -60.5 -41.2 N 27.8 CA 26.5 C 28.29 O 26.45 CB 27.39 CG1 27.76 CG2 24.02
C THR H 78 -56.8 -52.0 N 26.96 CA 26.53 C 27.87 O 27.63 CB 34.36 OG1 35.78 CG2 42.91
C GLN H 65 -64.7 -45.3 N 25.63 CA 27.27 C 26.9 O 26.31 CB 28.84 CG 31.2 CD 33.92 OE1 33.58 NE2 28.18
C PHE H 0 -60.5 -52.9 N 28.45 CA 27.42 C 25.79 O 26.46 CB 27.9 CG 24.69 CD1 21.94 CD2 22.21 CE1 25.7 CE2 25.74 CZ 19.87
C SER H 2 -63.4 -36.5 N 24.62 CA 27.46 C 26.67 O 21.11 CB 24.85 OG 30.27
C HIS H 104 -59.1 -49.0 N 25.7 CA 22.62 C 26.33 O 25.82 CB 24.67 CG 29.61 ND1 36.05 CD2 30.78 CE1 33.88 NE2 34.64
C ALA H 1 -60.5 -44.9 N 21.17 CA 21.48 C 19.87 O 23.71 CB 20.53
C CYS H 0 -59.9 -36.8 N 21.33 CA 22.04 C 23.92 O 24.46 CB 19.69 SG 24.33
C SER H 36 -64.1 -25.1 N 18.92 CA 21.8 C 22.36 O 26.71 CB 21.31 OG 27.87
C LEU H 24 -70.8 -23.0 N 22.71 CA 20.5 C 23.48 O 21.86 CB 24.5 CG 24.5 CD1 28.73 CD2 30.1
C VAL H 0 -85.3 -28.7 N 23.3 CA 23.2 C 25.71 O 23.96 CB 20.47 CG1 24.37 CG2 26.6
C SER H 10 -43.4 -47.5 N 19.85 CA 20.98 C 21.98 O 23.08 CB 20.24 OG 20.51
C PRO H 84 -66.1 -19.2 N 22.18 CA 29.84 C 27.81 O 24.05 CB 29.24 CG 33.79 CD 23.31
C LEU H 12 -60.7 -36.0 N 26.5 CA 24.12 C 22.36 O 24.29 CB 25.58 CG 29.85 CD1 29.33 CD2 32.64
C PHE H 1 -62.2 -45.1 N 19.1 CA 20.3 C 22.36 O 21.86 CB 23.32 CG 23.97 CD1 23.15 CD2 22.93 CE1 23.21 CE2 22.83 CZ 22.0
C GLY H 49 -58.2 -36.1 N 25.23 CA 24.75 C 22.0 O 23.95
C CYS H 31 -61.9 -32.8 N 20.96 CA 26.26 C 20.53 O 21.22 CB 21.65 SG 29.23
C LEU H 5 -76.0 -13.2 N 19.43 CA 19.01 C 20.35 O 22.53 CB 20.17 CG 22.42 CD1 24.15 CD2 21.51
C GLY - 24 91.1 -170.8 N 19.08 CA 22.97 C 21.91 O 22.83
C ILE G 91 -59.9 -23.1 N 21.32 CA 22.55 C 25.33 O 21.01 CB 28.08 CG1 33.03 CG2 40.65 CD1 40.74
C ALA G 2 -56.1 -33.8 N 19.42 CA 18.65 C 22.61 O 18.29 CB 23.43
C PHE G 1 -101.7 25.0 N 20.46 CA 19.39 C 21.58 O 17.8 CB 17.86 CG 19.98 CD1 18.85 CD2 20.96 CE1 21.77 CE2 20.83 CZ 21.45
C LYS T 154 -54.5 -36.1 N 19.11 CA 21.19 C 19.42 O 23.38 CB 22.81 CG 29.25 CD 33.62 CE 43.69 NZ 52.34
C PHE H 24 -53.9 -28.2 N 15.64 CA 18.37 C 20.37 O 20.25 CB 20.18 CG 18.92 CD1 19.89 CD2 19.22 CE1 17.68 CE2 22.08 CZ 20.72
C ALA H 0 -72.1 -16.2 N 18.56 CA 21.76 C 23.36 O 21.87 CB 18.17
C GLU I 76 -62.0 -47.9 N 21.97 CA 25.85 C 22.46 O 25.68 CB 27.32 CG 31.22 CD 44.68 OE1 36.91 OE2 30.57
C MET I 98 -82.2 -36.7 N 22.78 CA 24.4 C 30.19 O 28.2 CB 27.35 CG 37.78 SD 46.5 CE 36.53
C ASP I 49 -90.7 -11.0 N 24.26 CA 23.39 C 20.51 O 22.31 CB 22.34 CG 33.47 OD1 33.25 OD2 34.91
C TYR I 0 -127.3 -68.2 N 22.48 CA 18.29 C 23.57 O 23.03 CB 20.14 CG 17.53 CD1 20.66 CD2 16.23 CE1 18.31 CE2 16.78 CZ 21.86 OH 19.43
C VAL I 21 -50.5 -50.3 N 19.79 CA 22.68 C 22.16 O 24.54 CB 22.39 CG1 25.66 CG2 22.94
C ALA H 25 -66.6 -30.2 N 21.94 CA 28.15 C 30.1 O 25.79 CB 29.07
C VAL H 0 -61.6 -41.0 N 18.88 CA 21.72 C 30.12 O 23.39 CB 18.58 CG1 23.69 CG2 21.57
C ASP H 68 -66.5 -34.7 N 24.44 CA 26.78 C 28.36 O 30.54 CB 27.22 CG 31.61 OD1 33.62 OD2 31.32
C ASP H 51 -63.7 -40.0 N 27.0 CA 31.44 C 31.46 O 28.19 CB 28.04 CG 45.09 OD1 45.45 OD2 45.67
C LEU H 1 -68.0 -40.0 N 27.52 CA 25.85 C 27.53 O 27.51 CB 24.71 CG 25.23 CD1 24.84 CD2 24.89
C VAL H 59 -58.9 -43.0 N 25.45 CA 26.62 C 27.56 O 29.07 CB 31.22 CG1 32.98 CG2 24.08
C ARG H 160 -60.3 -44.6 N 30.28 CA 34.85 C 36.27 O 39.85 CB 39.64 CG 49.64 CD 55.48 NE 58.58 CZ 52.47 NH1 48.57 NH2 46.66
C ALA H 10 -80.9 -11.6 N 28.69 CA 32.11 C 35.37 O 36.36 CB 32.86
C SER T 14 -66.5 -26.4 N 25.09 CA 31.39 C 35.14 O 35.0 CB 29.17 OG 30.35
C SER T 110 -66.7 -15.8 N 31.9 CA 38.59 C 37.29 O 46.28 CB 37.9 OG 46.0
C SER T 97 -124.2 -1.2 N 35.03 CA 38.92 C 42.63 O 40.18 CB 41.64 OG 40.92
C ILE - 14 -129.3 131.4 N 33.52 CA 30.77 C 34.48 O 31.88 CB 30.87 CG1 39.77 CG2 30.61 CD1 34.97
C SER - 75 -72.3 -67.1 N 34.6 CA 36.1 C 29.93 O 33.74 CB 33.66 OG 30.42
C THR B 15 -119.8 165.6 N 25.23 CA 27.96 C 25.23 O 27.63 CB 26.34 OG1 28.52 CG2 31.88
C LEU H 0 -59.8 -40.1 N 23.47 CA 24.0 C 26.08 O 24.56 CB 25.35 CG 21.33 CD1 21.91 CD2 22.88
C VAL H 44 -62.7 -45.9 N 26.51 CA 29.98 C 25.62 O 29.46 CB 29.34 CG1 33.49 CG2 30.4
C VAL H 56 -60.4 -44.1 N 29.15 CA 28.33 C 27.26 O 27.22 CB 32.84 CG1 32.21 CG2 30.59
C MET H 0 -54.3 -48.5 N 25.69 CA 27.89 C 28.98 O 24.56 CB 20.75 CG 24.15 SD 25.6 CE 25.56
C MET H 0 -70.3 -40.9 N 25.41 CA 23.88 C 27.77 O 25.26 CB 21.27 CG 23.91 SD 30.69 CE 28.14
C ASP H 69 -58.7 -37.0 N 26.99 CA 29.74 C 28.47 O 29.2 CB 29.91 CG 30.24 OD1 33.13 OD2 41.06
C LYS H 107 -65.6 -40.9 N 27.88 CA 28.57 C 31.48 O 26.11 CB 33.3 CG 37.29 CD 46.53 CE 51.97 NZ 62.5
C ASP H 14 -67.4 -38.7 N 27.33 CA 24.79 C 23.17 O 24.61 CB 25.46 CG 28.09 OD1 28.83 OD2 28.73
C ILE H 64 -63.7 -43.4 N 27.94 CA 27.0 C 26.71 O 30.61 CB 29.66 CG1 27.54 CG2 31.29 CD1 27.92
C GLU H 171 -63.3 -37.5 N 28.65 CA 28.7 C 32.92 O 32.66 CB 32.76 CG 39.99 CD 54.22 OE1 59.62 OE2 53.65
C ALA H 68 -81.2 -8.2 N 28.04 CA 29.96 C 30.21 O 26.3 CB 26.62
C ASP T 147 57.1 43.7 N 25.73 CA 27.6 C 23.61 O 26.95 CB 30.12 CG 32.61 OD1 33.06 OD2 29.28
C CYS - 40 -122.9 20.8 N 23.25 CA 28.29 C 27.14 O 25.46 CB 21.72 SG 25.73
C VAL T 15 -52.8 -49.6 N 24.6 CA 29.37 C 29.78 O 25.88 CB 31.43 CG1 33.78 CG2 32.2
C ARG T 63 -94.5 0.8 N 30.52 CA 31.16 C 32.99 O 29.24 CB 32.7 CG 30.53 CD 36.22 NE 36.79 CZ 45.9 NH1 45.01 NH2 44.7
C LYS S 84 -70.4 138.5 N 24.78 CA 30.61 C 25.32 O 27.32 CB 27.85 CG 27.15 CD 23.86 CE 25.64 NZ 25.3
C ALA T 54 -55.7 133.6 N 29.21 CA 26.0 C 27.58 O 28.99 CB 31.27
C GLY T 45 93.0 -8.6 N 25.12 CA 25.72 C 26.14 O 24.74
C SER - 11 -67.1 149.0 N 24.05 CA 24.53 C 26.55 O 23.75 CB 27.69 OG 28.43
C HIS H 54 -64.2 -37.5 N 26.74 CA 24.6 C 23.65 O 21.82 CB 25.51 CG 33.8 ND1 35.02 CD2 32.37 CE1 31.6 NE2 35.56
C THR H 0 -68.7 -40.3 N 20.3 CA 21.68 C 23.53 O 20.55 CB 25.27 OG1 28.34 CG2 25.93
C ARG H 38 -66.1 -38.6 N 18.65 CA 20.89 C 21.33 O 20.41 CB 25.4 CG 22.71 CD 25.5 NE 31.16 CZ 37.17 NH1 36.12 NH2 30.34
C ASN H 1 -60.9 -41.0 N 21.85 CA 22.63 C 20.55 O 18.16 CB 21.99 CG 25.99 OD1 28.53 ND2 26.65
C LEU H 0 -61.1 -42.0 N 21.69 CA 20.1 C 21.59 O 18.64 CB 18.13 CG 23.89 CD1 22.68 CD2 23.12
C LEU H 0 -60.7 -46.0 N 19.85 CA 20.09 C 22.3 O 20.62 CB 21.33 CG 27.1 CD1 28.44 CD2 26.55
C ARG H 20 -64.0 -39.6 N 21.96 CA 23.98 C 22.52 O 22.16 CB 23.02 CG 32.44 CD 33.12 NE 37.7 CZ 33.13 NH1 27.81 NH2 35.05
C VAL H 0 -67.2 -38.4 N 17.78 CA 19.56 C 19.64 O 19.45 CB 19.65 CG1 21.43 CG2 20.81
C LYS H 13 -55.3 -45.3 N 18.36 CA 20.17 C 18.95 O 17.36 CB 22.37 CG 22.22 CD 24.29 CE 27.4 NZ 30.12
C ARG H 14 -62.3 -38.4 N 17.94 CA 21.21 C 18.16 O 19.24 CB 15.42 CG 21.4 CD 26.73 NE 26.87 CZ 31.23 NH1 30.13 NH2 33.05
C GLY H 0 -61.3 -43.8 N 16.66 CA 16.96 C 18.23 O 17.19
C LEU H 0 -61.4 -36.2 N 17.82 CA 19.03 C 19.3 O 19.57 CB 18.31 CG 19.66 CD1 18.84 CD2 24.54
C ASP H 35 -71.9 -40.3 N 18.01 CA 19.65 C 20.07 O 19.03 CB 19.24 CG 26.05 OD1 24.22 OD2 26.38
C MET H 0 -63.3 -38.5 N 17.4 CA 18.52 C 20.45 O 18.53 CB 18.43 CG 17.38 SD 24.77 CE 26.68
C VAL H 2 -68.1 -37.9 N 18.58 CA 18.9 C 18.81 O 17.9 CB 17.02 CG1 18.13 CG2 18.81
C LYS H 35 -59.2 -48.3 N 19.07 CA 17.67 C 17.95 O 19.52 CB 19.98 CG 21.38 CD 23.19 CE 32.84 NZ 35.59
C VAL H 0 -68.3 -40.2 N 16.69 CA 14.7 C 21.04 O 19.44 CB 19.97 CG1 18.77 CG2 21.36
C LEU H 6 -55.8 -48.7 N 17.02 CA 17.46 C 17.64 O 16.9 CB 16.36 CG 16.8 CD1 16.13 CD2 17.89
C PHE H 4 -62.4 -45.8 N 15.23 CA 19.78 C 18.39 O 18.22 CB 17.67 CG 19.96 CD1 20.34 CD2 21.56 CE1 19.71 CE2 21.41 CZ 20.29
C GLU H 63 -51.7 -46.9 N 17.59 CA 16.94 C 18.32 O 18.67 CB 17.37 CG 22.36 CD 34.45 OE1 32.37 OE2 32.19
C GLN H 49 -72.6 -34.9 N 16.33 CA 18.13 C 18.74 O 18.98 CB 17.33 CG 19.08 CD 26.49 OE1 23.08 NE2 26.87
C ILE H 4 -64.8 -41.8 N 18.96 CA 18.7 C 19.97 O 21.35 CB 16.19 CG1 18.84 CG2 18.56 CD1 22.49
C ILE H 26 -60.3 -42.8 N 21.08 CA 21.8 C 23.25 O 25.38 CB 20.03 CG1 23.09 CG2 23.75 CD1 26.53
C ALA H 74 -68.2 -32.8 N 22.24 CA 26.15 C 26.56 O 28.89 CB 24.94
C SER T 23 -93.8 12.8 N 21.45 CA 21.94 C 23.63 O 26.62 CB 30.09 OG 28.42
C GLU T 91 -50.4 134.1 N 21.97 CA 26.13 C 27.52 O 30.69 CB 28.25 CG 32.18 CD 49.56 OE1 54.86 OE2 56.42
C GLY T 77 105.1 -15.9 N 29.91 CA 31.51 C 33.83 O 35.44
C ASP - 68 -109.8 124.7 N 25.61 CA 25.97 C 25.81 O 25.07 CB 26.18 CG 31.17 OD1 30.85 OD2 41.01
C ASN - 117 -79.0 -10.6 N 22.69 CA 19.61 C 21.4 O 24.25 CB 21.32 CG 22.16 OD1 24.11 ND2 20.56
C SER - 47 -92.0 140.4 N 20.96 CA 18.69 C 21.7 O 20.43 CB 23.37 OG 25.3
C LEU - 4 -97.2 2.6 N 17.22 CA 15.75 C 19.22 O 21.92 CB 16.01 CG 20.22 CD1 17.69 CD2 23.33
C LYS H 50 -58.7 -44.1 N 17.98 CA 21.91 C 20.49 O 17.51 CB 19.97 CG 25.41
C ASP H 89 -68.9 -48.0 N 18.68 CA 20.64 C 21.89 O 17.7 CB 27.73 CG 29.89 OD1 27.23 OD2 35.06
C PRO H 1 -60.7 -41.2 N 19.56 CA 16.82 C 20.03 O 19.73 CB 23.13 CG 25.07 CD 18.51
C ALA H 0 -66.2 -45.3 N 19.57 CA 22.54 C 20.99 O 20.53 CB 18.16
C THR H 64 -70.2 -39.4 N 15.87 CA 16.97 C 20.22 O 20.19 CB 20.57 OG1 20.54 CG2 23.28
C LYS H 92 -62.5 -44.2 N 19.56 CA 18.99 C 20.68 O 23.41 CB 21.14 CG 21.15 CD 26.97 CE 26.77 NZ 37.95
C SER H 0 -67.9 -43.6 N 19.22 CA 17.96 C 20.88 O 21.14 CB 18.21 OG 21.33
C TYR H 15 -57.2 -51.3 N 18.36 CA 19.04 C 17.35 O 17.55 CB 17.7 CG 16.7 CD1 18.81 CD2 19.03 CE1 19.38 CE2 20.98 CZ 23.88 OH 21.33
C ALA H 48 -58.1 -41.7 N 21.6 CA 21.85 C 20.8 O 21.53 CB 23.62
C GLN H 118 -71.6 -40.6 N 20.53 CA 19.35 C 23.33 O 21.58 CB 20.34 CG 33.91 CD 31.69 OE1 37.61 NE2 38.8
C VAL H 8 -103.2 -43.8 N 17.71 CA 19.79 C 20.0 O 19.14 CB 21.22 CG1 19.48 CG2 18.04
C PHE T 7 -103.2 -37.2 N 17.77 CA 15.94 C 21.46 O 19.78 CB 17.71 CG 17.44 CD1 21.21 CD2 18.1 CE1 20.3 CE2 18.75 CZ 18.7
C ALA G 11 -48.7 -41.2 N 17.99 CA 20.32 C 20.86 O 21.2 CB 21.53
C PRO G 9 -62.4 -19.6 N 19.4 CA 21.14 C 25.84 O 25.46 CB 21.93 CG 23.12 CD 18.15
C HIS G 51 -105.6 7.8 N 22.11 CA 20.97 C 24.62 O 26.35 CB 22.28 CG 21.25 ND1 26.23 CD2 25.47 CE1 24.61 NE2 27.47
C HIS - 13 -120.1 129.4 N 23.31 CA 22.81 C 24.9 O 22.3 CB 20.25 CG 21.04 ND1 19.0 CD2 19.15 CE1 20.05 NE2 21.15
C GLY - 13 -72.6 172.6 N 21.88 CA 19.62 C 24.98 O 21.78
C TRP H 140 -57.7 -41.5 N 25.08 CA 23.81 C 20.11 O 24.13 CB 22.21 CG 24.45 CD1 28.21 CD2 24.74 NE1 24.84 CE2 23.11 CE3 24.89 CZ2 31.17 CZ3 28.74 CH2 28.6
C ALA H 47 -49.1 -48.0 N 22.86 CA 22.18 C 22.0 O 21.71 CB 25.23
C ILE H 71 -72.4 -47.9 N 20.67 CA 17.56 C 20.13 O 17.63 CB 21.2 CG1 26.22 CG2 21.38 CD1 31.38
C ARG H 73 -57.8 -39.5 N 21.61 CA 19.8 C 22.39 O 19.69 CB 22.11 CG 22.7 CD 23.8 NE 25.91 CZ 31.03 NH1 27.53 NH2 33.79
C LYS H 102 -61.1 -43.5 N 17.69 CA 21.16 C 21.42 O 21.39 CB 19.27 CG 25.04 CD 33.76 CE 45.55 NZ 47.94
C ALA H 56 -64.1 -37.7 N 19.42 CA 19.89 C 18.76 O 23.02 CB 24.76
C VAL H 4 -64.0 -43.9 N 20.07 CA 16.53 C 22.72 O 23.02 CB 19.39 CG1 21.19 CG2 14.8
C SER H 86 -60.1 -44.9 N 26.33 CA 22.98 C 27.68 O 26.46 CB 26.32 OG 28.01
C LEU H 115 -67.1 -29.1 N 22.95 CA 29.84 C 33.42 O 34.65 CB 29.78 CG 41.33 CD1 38.6 CD2 34.57
C GLY H 2 -84.8 -10.5 N 29.74 CA 27.17 C 25.4 O 27.34
C MET G 26 -58.7 -25.7 N 26.74 CA 32.14 C 38.55 O 30.74 CB 27.57 CG 34.19 SD 32.89 CE 26.65
C TYR G 190 -57.4 -32.7 N 36.7 CA 38.46 C 35.41 O 41.2 CB 39.71 CG 46.7 CD1 44.78 CD2 49.65 CE1 45.26 CE2 50.56 CZ 55.26 OH 60.12
C ALA G 38 -88.1 0.1 N 28.4 CA 32.99 C 21.18 O 28.83 CB 32.72
C LEU - 18 -60.6 136.0 N 24.88 CA 19.66 C 20.79 O 20.42 CB 21.9 CG 31.64 CD1 21.92 CD2 26.87
C PRO - 13 -66.8 152.5 N 21.67 CA 23.01 C 22.08 O 18.15 CB 23.81 CG 22.92 CD 21.07
C THR - 82 -68.3 162.5 N 20.09 CA 21.18 C 21.03 O 20.95 CB 23.07 OG1 23.5 CG2 22.32
C ARG H 9 -58.7 -42.8 N 18.07 CA 18.39 C 22.08 O 18.94 CB 19.31 CG 18.85 CD 21.18 NE 22.39 CZ 24.89 NH1 21.57 NH2 23.87
C ALA H 59 -63.0 -35.1 N 19.7 CA 21.8 C 21.89 O 19.65 CB 21.76
C HIS H 97 -73.8 -39.0 N 17.91 CA 19.74 C 19.69 O 20.86 CB 19.35 CG 21.38 ND1 27.85 CD2 26.32 CE1 27.41 NE2 27.02
C LEU H 9 -61.5 -45.1 N 18.21 CA 19.08 C 21.21 O 22.94 CB 17.83 CG 21.73 CD1 22.11 CD2 22.1
C LEU H 13 -63.7 -39.8 N 21.18 CA 23.47 C 23.62 O 25.97 CB 23.4 CG 23.53 CD1 24.49 CD2 29.68
C ASN H 94 -60.5 -44.9 N 24.45 CA 26.09 C 29.82 O 30.55 CB 30.77 CG 30.81 OD1 43.23 ND2 35.5
C MET H 64 -61.6 -32.8 N 26.92 CA 25.66 C 30.81 O 31.35 CB 26.52 CG 29.41 SD 37.27 CE 28.39
C LEU H 4 -87.9 -5.6 N 24.17 CA 27.67 C 29.96 O 32.63 CB 28.22 CG 29.7 CD1 28.64 CD2 35.35
C LYS T 118 63.8 38.5 N 29.76 CA 33.18 C 33.81 O 31.2 CB 37.11 CG 36.7 CD 47.19 CE 50.15 NZ 39.07
C GLU - 15 -131.7 154.7 N 28.34 CA 27.81 C 22.32 O 28.01 CB 26.22 CG 26.88 CD 31.37 OE1 27.21 OE2 33.93
C ASP - 103 -90.8 175.2 N 21.19 CA 24.95 C 23.58 O 25.33 CB 25.05 CG 34.92 OD1 31.35 OD2 34.54
C GLU H 60 -56.7 -49.7 N 24.44 CA 24.21 C 26.26 O 25.29 CB 23.55 CG 27.14 CD 28.92 OE1 23.51 OE2 25.74
C ALA H 69 -57.9 -49.5 N 22.55 CA 24.0 C 25.7 O 28.07 CB 27.15
C ALA H 19 -67.6 -43.2 N 23.35 CA 22.31 C 24.01 O 21.23 CB 24.92
C ALA H 3 -59.4 -38.9 N 24.2 CA 21.41 C 20.99 O 21.19 CB 21.67
C LYS H 80 -58.9 -43.7 N 22.7 CA 24.72 C 22.53 O 23.64 CB 21.99 CG 28.23 CD 35.34 CE 39.31 NZ 50.14
C ILE H 116 -60.2 -46.8 N 20.97 CA 23.72 C 22.57 O 21.85 CB 25.8 CG1 25.94 CG2 26.05 CD1 28.85
C HIS H 35 -71.6 -38.6 N 21.14 CA 22.27 C 19.23 O 21.06 CB 22.83 CG 23.43 ND1 30.76 CD2 32.5 CE1 34.4 NE2 32.84
C MET H 4 -63.3 -42.7 N 19.01 CA 17.99 C 20.0 O 17.55 CB 18.35 CG 19.97 SD 22.42 CE 29.55
C GLN H 95 -58.3 -42.3 N 19.34 CA 22.31 C 19.59 O 19.73 CB 24.41 CG 28.19 CD 31.04 OE1 23.11 NE2 29.41
C SER H 36 -62.7 -46.4 N 20.1 CA 23.13 C 20.42 O 22.05 CB 25.74 OG 25.05
C TYR H 0 -60.9 -44.8 N 19.08 CA 22.13 C 19.37 O 19.05 CB 18.93 CG 17.9 CD1 19.62 CD2 21.45 CE1 18.4 CE2 15.93 CZ 17.63 OH 19.12
C VAL H 18 -57.5 -46.5 N 20.08 CA 18.21 C 19.43 O 22.08 CB 17.61 CG1 23.92 CG2 17.92
C ASN H 124 -63.6 -41.3 N 20.57 CA 24.29 C 24.12 O 23.58 CB 21.2 CG 32.84 OD1 31.44 ND2 30.25
C SER H 1 -79.5 -36.5 N 21.02 CA 22.14 C 24.36 O 24.93 CB 22.91 OG 28.0
C SER H 0 -74.8 -26.0 N 20.4 CA 21.72 C 23.71 O 23.18 CB 23.76 OG 22.76
C ALA H 33 -57.9 -56.6 N 21.05 CA 22.78 C 23.59 O 23.12 CB 25.01
C PRO H 29 -63.2 -32.2 N 22.8 CA 24.8 C 25.31 O 22.35 CB 24.04 CG 22.44 CD 24.51
C LEU H 1 -63.2 -49.3 N 22.87 CA 21.97 C 24.12 O 21.92 CB 22.42 CG 20.5 CD1 23.28 CD2 17.68
C ILE H 9 -61.1 -38.9 N 22.1 CA 20.89 C 26.98 O 24.06 CB 22.41 CG1 19.98 CG2 27.28 CD1 23.19
C THR H 50 -66.2 -42.8 N 23.58 CA 25.52 C 19.73 O 27.39 CB 25.09 OG1 24.08 CG2 25.42
C TYR H 28 -57.4 -45.5 N 22.73 CA 23.56 C 25.13 O 26.2 CB 21.02 CG 26.39 CD1 35.04 CD2 25.15 CE1 31.76 CE2 28.76 CZ 28.46 OH 35.37
C LEU H 0 -64.1 -52.3 N 24.5 CA 25.23 C 26.51 O 28.18 CB 22.28 CG 23.28 CD1 25.38 CD2 23.88
C ASP H 13 -47.7 -45.3 N 24.57 CA 28.18 C 29.05 O 30.53 CB 25.99 CG 33.67 OD1 27.96 OD2 34.31
C ASN H 36 -67.4 -33.0 N 28.29 CA 30.02 C 32.42 O 30.99 CB 30.08 CG 31.56 OD1 29.82 ND2 29.5
C LEU H 16 -60.0 -47.0 N 28.01 CA 29.46 C 29.64 O 34.19 CB 24.95 CG 28.78 CD1 30.72 CD2 31.24
C PHE H 1 -65.0 -44.0 N 31.56 CA 30.58 C 38.98 O 33.87 CB 29.75 CG 26.74 CD1 29.25 CD2 29.3 CE1 29.57 CE2 24.54 CZ 24.94
C LEU H 17 -69.4 -46.7 N 36.36 CA 37.38 C 30.75 O 37.01 CB 32.7 CG 29.57 CD1 32.89 CD2 33.41
C SER H 60 -68.1 -19.0 N 34.22 CA 36.16 C 42.15 O 40.19 CB 37.06 OG 37.44
C LYS T 45 -99.5 10.6 N 34.77 CA 37.93 C 38.18 O 42.67 CB 30.31 CG 30.61 CD 32.02 CE 31.59 NZ 28.61
C GLN T 98 65.4 32.9 N 37.07 CA 38.88 C 40.28 O 41.18 CB 40.69 CG 38.71 CD 41.79 OE1 45.4 NE2 42.34
C LEU - 19 -98.4 -28.4 N 36.06 CA 36.48 C 40.52 O 37.31 CB 35.26 CG 34.62 CD1 34.3 CD2 36.63
C GLY - 25 77.8 172.4 N 38.6 CA 36.04 C 36.71 O 34.62
C ILE S 26 -137.4 4.2 N 39.55 CA 33.09 C 36.3 O 36.37 CB 33.15 CG1 39.74 CG2 29.29 CD1 39.36
C ASP - 87 -105.6 11.9 N 34.39 CA 34.46 C 34.95 O 40.1 CB 46.62 CG 53.77 OD1 43.83 OD2 54.52
C TRP - 27 -95.0 360.0 N 37.06 CA 39.46 C 33.84 O 40.24 CB 33.63 CG 31.88 CD1 28.32 CD2 31.25 NE1 33.63 CE2 26.1 CE3 29.91 CZ2 29.42 CZ3 28.46 CH2 24.97 OXT 39.34
D ALA - 106 360.0 -1.8 N 40.54 CA 42.83 C 50.39 O 53.88 CB 51.52
D ASP - 87 -82.0 -11.0 N 50.33 CA 45.5 C 49.14 O 53.95 CB 48.93
D LYS S 50 -54.9 136.0 N 41.28 CA 34.03 C 29.77 O 31.57 CB 42.47 CG 43.04 CD 38.67 CE 38.05 NZ 41.67
D PRO H 38 -56.7 -42.3 N 33.86 CA 28.08 C 25.36 O 27.82 CB 28.33 CG 33.9 CD 29.17
D LEU H 1 -66.4 -27.7 N 23.93 CA 23.86 C 23.94 O 24.05 CB 23.95 CG 25.53 CD1 22.37 CD2 23.0
D ARG H 44 -80.0 -37.8 N 27.4 CA 23.13 C 25.84 O 26.35 CB 32.28 CG 28.87 CD 34.85 NE 33.21 CZ 43.64 NH1 40.75 NH2 35.56
D LYS H 99 -61.4 -43.5 N 27.55 CA 23.26 C 21.4 O 21.04 CB 29.66 CG 31.0 CD 47.4 CE 53.63 NZ 61.58
D ILE H 2 -60.4 -53.1 N 23.32 CA 21.22 C 23.36 O 22.2 CB 20.62 CG1 18.2 CG2 21.38 CD1 23.15
D SER H 10 -60.2 -39.8 N 23.1 CA 23.2 C 21.9 O 23.67 CB 25.5 OG 28.24
D ALA H 47 -65.0 -46.0 N 22.26 CA 23.49 C 26.92 O 24.47 CB 25.18
D ALA H 14 -65.0 -42.4 N 23.94 CA 22.98 C 23.18 O 22.52 CB 25.17
D PHE H 0 -75.7 -26.9 N 22.63 CA 20.47 C 20.76 O 21.69 CB 19.59 CG 17.23 CD1 18.93 CD2 19.22 CE1 24.22 CE2 22.36 CZ 17.57
D LYS H 48 -61.2 -40.1 N 20.24 CA 24.14 C 22.46 O 21.85 CB 25.87 CG 26.59 CD 31.52 CE 29.38 NZ 35.75
D LYS H 112 -61.1 -41.9 N 25.15 CA 27.62 C 27.07 O 24.29 CB 28.84 CG 32.02 CD 40.49 CE 54.67 NZ 51.05
D LEU H 0 -70.1 -36.1 N 26.61 CA 20.81 C 19.18 O 23.18 CB 23.34 CG 22.21 CD1 21.29 CD2 23.58
D ALA H 8 -63.4 -39.8 N 21.98 CA 23.62 C 20.61 O 25.15 CB 18.5
D ILE H 27 -58.0 -46.5 N 24.5 CA 24.03 C 30.11 O 28.03 CB 25.62 CG1 29.34 CG2 26.82 CD1 32.84
D ILE H 29 -62.6 -50.3 N 23.34 CA 24.41 C 27.5 O 26.86 CB 25.18 CG1 23.82 CG2 25.9 CD1 26.72
D VAL H 14 -72.5 -13.3 N 26.89 CA 23.72 C 24.66 O 25.24 CB 23.94 CG1 20.3 CG2 24.57
D ASN T 89 -89.6 1.6 N 25.2 CA 27.23 C 30.46 O 27.64 CB 28.0 CG 26.76 OD1 39.84 ND2 27.55
D SER S 38 -86.9 165.5 N 25.0 CA 28.3 C 29.72 O 26.36 CB 28.26 OG 32.92
D PRO S 75 -56.2 -39.6 N 27.42 CA 28.59 C 28.31 O 28.6 CB 29.17 CG 26.09 CD 30.43
D ASN S 139 -140.0 78.6 N 23.81 CA 30.32 C 29.11 O 31.14 CB 35.09 CG 37.4 OD1 41.27 ND2 44.48
D PRO - 20 -59.5 141.4 N 27.11 CA 27.56 C 26.93 O 28.79 CB 29.19 CG 23.7 CD 33.11
D GLU - 143 -123.2 101.6 N 21.66 CA 26.19 C 27.24 O 27.03 CB 35.7 CG 37.9 CD 54.29 OE1 54.61 OE2 53.43
D VAL - 0 -99.8 111.2 N 26.3 CA 24.39 C 23.0 O 25.06 CB 22.6 CG1 24.34 CG2 25.52
D PRO B 39 -68.2 137.8 N 23.68 CA 24.89 C 28.53 O 24.44 CB 26.73 CG 32.72 CD 28.02
D VAL H 0 -65.7 -37.6 N 24.52 CA 27.68 C 25.72 O 25.49 CB 26.92 CG1 26.22 CG2 28.83
D THR H 82 -58.4 -52.0 N 26.75 CA 27.51 C 25.06 O 26.8 CB 32.03 OG1 29.71 CG2 28.73
D GLN H 65 -62.4 -44.5 N 23.17 CA 25.57 C 21.16 O 25.37 CB 23.2 CG 28.08 CD 27.81 OE1 31.52 NE2 27.1
D PHE H 0 -63.2 -51.7 N 22.79 CA 24.83 C 20.18 O 21.73 CB 21.9 CG 25.44 CD1 24.38 CD2 22.79 CE1 22.63 CE2 20.9 CZ 18.38
D SER H 2 -62.7 -38.3 N 26.78 CA 24.94 C 23.67 O 21.44 CB 21.61 OG 26.46
D HIS H 100 -61.1 -47.8 N 23.83 CA 24.97 C 18.56 O 23.83 CB 23.82 CG 26.35 ND1 33.16 CD2 30.92 CE1 36.62 NE2 34.31
D ALA H 1 -55.3 -48.2 N 21.67 CA 21.51 C 18.63 O 19.54 CB 21.6
D CYS H 0 -62.2 -28.3 N 20.79 CA 21.78 C 21.0 O 19.65 CB 17.54 SG 21.38
D SER H 36 -72.3 -22.8 N 19.62 CA 18.57 C 21.89 O 20.43 CB 23.83 OG 27.49
D LEU H 22 -73.5 -22.8 N 19.87 CA 21.13 C 21.32 O 19.63 CB 18.99 CG 22.72 CD1 21.64 CD2 26.45
D VAL H 0 -81.7 -30.7 N 18.35 CA 16.83 C 17.3 O 19.33 CB 17.88 CG1 19.47 CG2 23.15
D SER T 12 -46.8 -45.9 N 20.2 CA 17.54 C 19.7 O 18.57 CB 19.83 OG 20.55
D PRO H 78 -56.3 -22.2 N 20.8 CA 24.07 C 20.02 O 19.09 CB 24.21 CG 26.48 CD 20.99
D LEU H 14 -61.1 -37.6 N 19.46 CA 18.7 C 18.01 O 20.0 CB 18.3 CG 19.12 CD1 23.46 CD2 23.55
D PHE H 2 -63.0 -39.1 N 20.24 CA 18.92 C 21.16 O 21.34 CB 18.43 CG 19.65 CD1 20.86 CD2 20.69 CE1 19.97 CE2 22.54 CZ 19.0
D GLY H 54 -61.4 -31.3 N 19.61 CA 19.3 C 21.39 O 18.58
D CYS H 27 -67.9 -24.8 N 19.61 CA 21.07 C 20.07 O 21.82 CB 20.14 SG 22.46
D LEU T 5 -88.8 -3.8 N 16.82 CA 16.75 C 18.51 O 20.32 CB 16.9 CG 20.48 CD1 21.15 CD2 20.14
D GLY - 26 86.9 -162.5 N 18.92 CA 21.71 C 21.63 O 20.37
D ILE G 110 -63.3 -25.8 N 20.46 CA 22.07 C 20.69 O 19.14 CB 22.85 CG1 24.06 CG2 29.5 CD1 36.04
D ALA G 4 -55.9 -32.8 N 19.17 CA 22.92 C 21.25 O 20.92 CB 20.34
D PHE G 1 -104.5 20.1 N 17.95 CA 18.47 C 17.32 O 20.9 CB 19.66 CG 21.2 CD1 20.33 CD2 20.49 CE1 25.35 CE2 19.48 CZ 21.93
D LYS T 147 -57.2 -31.8 N 19.58 CA 20.89 C 19.32 O 19.86 CB 21.74 CG 26.92 CD 31.06 CE 34.09 NZ 47.24
D PHE H 30 -55.2 -27.6 N 19.02 CA 17.78 C 14.81 O 16.05 CB 18.33 CG 17.18 CD1 18.34 CD2 16.46 CE1 19.72 CE2 17.58 CZ 18.85
D ALA H 0 -73.1 -18.2 N 18.02 CA 16.74 C 20.21 O 19.71 CB 19.35
D GLU I 90 -61.7 -36.8 N 19.34 CA 19.48 C 22.33 O 18.1 CB 24.95 CG 30.47 CD 35.7 OE1 34.43 OE2 28.84
D MET I 124 -92.6 -36.1 N 21.6 CA 20.2 C 17.67 O 20.03 CB 21.73 CG 24.89 SD 31.08 CE 28.88
D ASP I 41 -72.9 -29.2 N 19.4 CA 19.84 C 20.13 O 21.95 CB 16.89 CG 24.11 OD1 27.79 OD2 24.97
D TYR I 0 -123.5 -62.5 N 19.42 CA 19.41 C 20.54 O 18.78 CB 19.41 CG 18.83 CD1 16.54 CD2 21.7 CE1 16.01 CE2 16.61 CZ 19.84 OH 20.3
D VAL I 19 -55.9 -46.5 N 18.38 CA 20.38 C 21.4 O 20.1 CB 21.0 CG1 24.12 CG2 18.71
D ALA H 21 -62.0 -38.0 N 19.52 CA 22.92 C 23.37 O 23.83 CB 22.56
D VAL H 0 -58.2 -49.0 N 21.91 CA 21.62 C 23.99 O 25.19 CB 17.93 CG1 17.57 CG2 18.46
D ASP H 63 -57.5 -37.0 N 24.3 CA 27.52 C 28.77 O 29.58 CB 30.6 CG 34.88 OD1 35.12 OD2 33.51
D ASP H 56 -62.5 -40.3 N 23.87 CA 25.38 C 29.15 O 29.08 CB 28.12 CG 41.8 OD1 39.45 OD2 40.75
D LEU H 0 -66.3 -41.6 N 27.4 CA 25.51 C 25.23 O 26.66 CB 27.01 CG 27.29 CD1 25.77 CD2 32.89
D VAL H 60 -57.3 -45.4 N 27.44 CA 30.38 C 33.87 O 30.22 CB 25.69 CG1 26.63 CG2 25.31
D ARG H 157 -55.0 -49.5 N 30.77 CA 34.87 C 38.4 O 36.39 CB 38.38 CG 49.29 CD 47.01 NE 55.9 CZ 53.31 NH1 50.39 NH2 38.46
D ALA H 7 -67.9 -19.7 N 34.66 CA 31.98 C 34.32 O 34.87 CB 33.05
D SER T 19 -65.1 -13.7 N 29.62 CA 27.7 C 35.3 O 31.68 CB 29.51 OG 30.35
D SER T 112 -80.4 -19.7 N 32.33 CA 39.61 C 40.46 O 42.79 CB 36.04 OG 41.13
D SER T 90 -121.3 -5.1 N 40.15 CA 36.56 C 40.1 O 38.47 CB 42.54 OG 41.73
D ILE - 8 -126.4 122.7 N 33.22 CA 31.06 C 38.02 O 32.9 CB 32.07 CG1 39.55 CG2 32.81 CD1 32.65
D SER - 77 -72.1 -57.2 N 31.04 CA 34.4 C 27.08 O 30.02 CB 34.59 OG 31.36
D THR B 14 -129.6 168.8 N 30.28 CA 26.35 C 25.29 O 25.61 CB 27.33 OG1 27.73 CG2 29.69
D LEU H 1 -63.4 -36.8 N 26.69 CA 22.56 C 25.94 O 24.32 CB 24.0 CG 25.33 CD1 27.43 CD2 26.28
D VAL H 56 -61.2 -43.8 N 28.18 CA 28.87 C 22.97 O 27.13 CB 29.56 CG1 30.64 CG2 31.4
D VAL H 45 -65.3 -41.9 N 25.05 CA 25.6 C 30.28 O 30.35 CB 29.89 CG1 30.39 CG2 27.92
D MET H 0 -53.6 -45.4 N 28.68 CA 27.93 C 29.06 O 26.4 CB 26.78 CG 31.2 SD 27.88 CE 25.04
D MET H 11 -65.9 -47.5 N 27.77 CA 28.24 C 28.4 O 28.88 CB 26.31 CG 30.93 SD 36.16 CE 31.72
D ASP H 80 -57.5 -36.8 N 31.6 CA 32.13 C 32.13 O 40.04 CB 34.75 CG 39.56 OD1 42.77 OD2 40.46
D LYS H 104 -69.1 -39.0 N 30.74 CA 31.69 C 39.69 O 36.53 CB 33.48 CG 37.7 CD 47.14 CE 62.69 NZ 59.78
D ASP H 11 -71.6 -26.3 N 33.34 CA 36.15 C 37.14 O 37.39 CB 36.56 CG 32.88 OD1 29.84 OD2 26.98
D ILE H 77 -68.6 -45.3 N 34.58 CA 38.01 C 41.18 O 42.59 CB 39.95 CG1 36.3 CG2 45.41 CD1 40.09
D GLU H 159 -61.5 -40.0 N 39.88 CA 45.6 C 48.34 O 49.94 CB 49.25 CG 56.97 CD 71.56 OE1 67.06 OE2 73.6
D ALA T 70 -85.3 1.5 N 43.08 CA 38.43 C 42.56 O 46.11 CB 35.52
D ASP T 119 45.8 56.0 N 42.4 CA 44.22 C 47.05 O 46.24 CB 47.16 CG 55.45 OD1 58.21 OD2 61.36
D CYS - 34 -133.1 21.2 N 41.04 CA 32.5 C 34.25 O 29.27 CB 33.78 SG 36.73
D VAL T 51 -52.0 120.8 N 31.79 CA 31.55 C 31.31 O 31.7 CB 30.36 CG1 34.01 CG2 31.4
D ARG T 32 68.4 10.9 N 29.51 CA 27.01 C 27.76 O 31.35 CB 31.79
D LYS - 109 -83.6 158.3 N 27.84 CA 27.02 C 27.85 O 23.99 CB 26.45 CG 35.92 CD 32.58 CE 40.12 NZ 40.54
D ALA T 82 -45.2 130.3 N 23.1 CA 22.97 C 26.65 O 26.76 CB 22.97
D GLY T 80 86.6 0.5 N 24.5 CA 29.51 C 29.8 O 29.39
D SER - 7 -93.7 153.2 N 22.24 CA 22.91 C 24.76 O 23.27 CB 23.52 OG 23.83
D HIS H 65 -61.4 -37.2 N 23.92 CA 23.64 C 25.14 O 22.72 CB 23.54 CG 27.92 ND1 38.08 CD2 29.64 CE1 32.82 NE2 40.91
D THR H 0 -70.0 -31.3 N 23.77 CA 20.86 C 22.84 O 20.3 CB 21.91 OG1 25.46 CG2 27.78
D ARG H 82 -66.9 -42.5 N 23.45 CA 20.18 C 19.71 O 22.86 CB 20.74 CG 24.24 CD 25.92 NE 26.07 CZ 28.78 NH1 27.14 NH2 26.42
D ASN H 18 -58.3 -43.0 N 19.39 CA 21.67 C 20.29 O 19.73 CB 21.51 CG 25.24 OD1 24.33 ND2 33.78
D LEU H 0 -62.4 -42.0 N 19.17 CA 21.73 C 22.1 O 19.14 CB 22.57 CG 25.22 CD1 26.36 CD2 26.52
D LEU H 46 -63.8 -36.6 N 19.85 CA 20.37 C 20.01 O 18.67 CB 23.11 CG 28.99 CD1 38.99 CD2 34.73
D ARG H 73 -75.1 -31.8 N 19.8 CA 18.96 C 17.34 O 18.63 CB 23.17 CG 22.2 CD 30.58 NE 31.43 CZ 37.89 NH1 30.85 NH2 37.78
D VAL H 0 -65.8 -45.6 N 19.35 CA 16.55 C 18.04 O 15.95 CB 18.56 CG1 18.94 CG2 18.47
D LYS H 16 -50.3 -43.3 N 18.68 CA 20.44 C 18.82 O 16.93 CB 20.58 CG 25.66 CD 35.09 CE 38.9 NZ 42.64
D ARG H 38 -63.4 -39.5 N 18.14 CA 20.84 C 18.42 O 19.52 CB 20.99 CG 26.31 CD 23.58 NE 26.28 CZ 28.17 NH1 29.11 NH2 30.44
D GLY H 0 -62.0 -43.7 N 16.42 CA 20.1 C 19.89 O 16.25
D LEU H 0 -60.7 -39.3 N 17.09 CA 18.8 C 18.09 O 19.94 CB 18.02 CG 16.87 CD1 20.32 CD2 19.07
D ASP H 36 -68.9 -40.9 N 18.23 CA 20.62 C 21.63 O 18.59 CB 19.79 CG 26.45 OD1 26.78 OD2 26.2
D MET H 0 -62.2 -41.2 N 19.35 CA 17.88 C 18.67 O 17.96 CB 16.06 CG 20.01 SD 28.06 CE 23.53
D VAL H 2 -68.3 -36.9 N 18.05 CA 17.91 C 19.4 O 18.63 CB 16.58 CG1 16.22 CG2 16.94
D LYS H 35 -58.9 -48.4 N 17.18 CA 17.96 C 17.87 O 19.19 CB 15.33 CG 22.89 CD 26.48 CE 40.92 NZ 31.72
D VAL H 1 -66.6 -41.5 N 17.04 CA 16.47 C 16.52 O 19.7 CB 19.53 CG1 19.64 CG2 19.55
D LEU H 5 -56.9 -49.3 N 17.0 CA 15.75 C 17.24 O 19.71 CB 15.1 CG 16.32 CD1 16.72 CD2 19.41
D PHE H 4 -60.7 -46.4 N 17.15 CA 18.51 C 20.07 O 17.55 CB 17.55 CG 16.89 CD1 18.62 CD2 20.68 CE1 16.79 CE2 17.01 CZ 19.04
D GLU H 66 -53.9 -42.8 N 19.51 CA 19.42 C 21.11 O 20.46 CB 22.94 CG 24.56 CD 28.69 OE1 29.31 OE2 30.25
D GLN H 47 -73.2 -38.0 N 19.53 CA 22.99 C 17.84 O 18.71 CB 19.84 CG 23.09 CD 34.59 OE1 29.04 NE2 29.85
D ILE H 5 -62.6 -46.1 N 17.66 CA 21.21 C 22.16 O 22.33 CB 19.15 CG1 17.9 CG2 19.42 CD1 16.21
D ILE H 25 -59.9 -38.2 N 21.3 CA 20.37 C 22.84 O 25.37 CB 18.24 CG1 18.2 CG2 21.99 CD1 18.51
D ALA T 84 -84.4 -2.6 N 18.19 CA 22.52 C 24.04 O 26.9 CB 22.82
D SER T 20 -119.5 25.2 N 21.11 CA 21.62 C 25.43 O 24.66 CB 26.67 OG 31.4
D GLU T 102 -53.1 131.9 N 24.8 CA 24.99 C 26.3 O 26.77 CB 32.16 CG 44.19 CD 52.7 OE1 48.81 OE2 49.45
D GLY T 56 110.3 -22.1 N 29.34 CA 29.63 C 31.27 O 37.81
D ASP - 94 -95.0 125.9 N 27.89 CA 27.57 C 24.57 O 25.38 CB 30.66 CG 34.71 OD1 39.89 OD2 35.1
D ASN - 84 -82.8 -12.6 N 24.06 CA 27.38 C 25.12 O 24.62 CB 26.2 CG 23.05 OD1 22.33 ND2 23.1
D SER - 69 -85.0 132.5 N 25.84 CA 22.79 C 22.81 O 25.28 CB 29.76 OG 25.14
D LEU - 5 -96.7 7.9 N 18.63 CA 21.87 C 17.51 O 20.4 CB 21.33 CG 19.0 CD1 16.08 CD2 21.6
D LYS H 62 -56.9 -51.2 N 19.03 CA 18.1 C 21.05 O 19.99 CB 25.73 CG 27.72 CD 41.98 CE 51.67 NZ 42.41
D ASP H 120 -64.8 -47.0 N 22.08 CA 20.91 C 17.51 O 20.49 CB 25.12 CG 30.41 OD1 29.84 OD2 34.46
D PRO H 4 -61.5 -42.3 N 20.96 CA 18.79 C 24.03 O 20.28 CB 18.64 CG 18.77 CD 21.66
D ALA H 1 -65.3 -43.5 N 19.12 CA 19.03 C 19.83 O 19.1 CB 17.06
D THR H 55 -65.6 -43.7 N 19.54 CA 20.47 C 18.43 O 19.16 CB 21.97 OG1 25.13 CG2 21.08
D LYS H 101 -64.7 -45.0 N 19.24 CA 20.46 C 20.51 O 18.06 CB 22.19 CG 24.96 CD 39.11 CE 41.49 NZ 47.38
D SER H 0 -66.3 -43.5 N 19.72 CA 18.85 C 20.84 O 18.39 CB 19.65 OG 20.55
D TYR H 15 -59.0 -49.0 N 18.23 CA 18.46 C 16.89 O 18.68 CB 19.49 CG 19.57 CD1 18.43 CD2 21.64 CE1 14.93 CE2 22.75 CZ 22.73 OH 19.65
D ALA H 52 -60.7 -39.1 N 20.14 CA 20.33 C 21.02 O 20.35 CB 19.75
D GLN H 108 -72.0 -40.7 N 19.27 CA 20.04 C 22.47 O 21.75 CB 20.79 CG 23.47 CD 23.23 OE1 26.92 NE2 26.65
D VAL H 8 -104.1 -46.4 N 18.27 CA 17.31 C 19.39 O 17.62 CB 17.53 CG1 20.33 CG2 20.68
D PHE T 5 -99.2 -41.8 N 18.57 CA 16.86 C 20.54 O 19.2 CB 18.14 CG 19.27 CD1 19.35 CD2 19.69 CE1 20.13 CE2 19.34 CZ 20.08
D ALA G 17 -47.9 -41.8 N 18.06 CA 19.0 C 17.8 O 17.7 CB 20.72
D PRO G 90 -63.7 -13.5 N 18.56 CA 21.57 C 22.68 O 24.19 CB 22.55 CG 26.4 CD 20.1
D HIS G 104 -106.3 3.6 N 17.94 CA 19.13 C 21.28 O 21.23 CB 20.71 CG 22.88 ND1 20.94 CD2 20.44 CE1 20.92 NE2 22.05
D HIS S 19 -114.4 141.1 N 21.78 CA 18.15 C 19.2 O 20.65 CB 14.9 CG 16.36 ND1 18.01 CD2 17.82 CE1 15.9 NE2 19.27
D GLY - 45 -70.4 163.7 N 16.31 CA 19.58 C 20.37 O 19.66
D TRP H 188 -50.3 -46.6 N 17.61 CA 17.85 C 18.95 O 21.01 CB 19.45 CG 20.27 CD1 23.63 CD2 22.87 NE1 23.2 CE2 25.44 CE3 21.07 CZ2 28.61 CZ3 22.96 CH2 24.43
D ALA H 58 -61.1 -39.6 N 18.91 CA 18.52 C 19.82 O 19.94 CB 21.75
D ILE H 78 -66.2 -49.1 N 19.2 CA 20.06 C 17.69 O 18.7 CB 18.8 CG1 21.85 CG2 17.6 CD1 21.33
D ARG H 106 -57.5 -40.0 N 16.43 CA 21.09 C 21.84 O 21.22 CB 19.49 CG 21.25 CD 21.21 NE 26.95 CZ 31.88 NH1 31.38 NH2 22.32
D LYS H 90 -66.3 -42.6 N 20.74 CA 24.38 C 21.91 O 21.42 CB 22.98 CG 23.18 CD 27.96 CE 38.13 NZ 42.77
D ALA H 48 -63.6 -40.3 N 19.06 CA 22.14 C 21.32 O 21.26 CB 23.12
D VAL H 4 -63.7 -46.0 N 19.24 CA 18.76 C 21.79 O 20.7 CB 18.99 CG1 19.14 CG2 16.55
D SER H 70 -58.1 -42.9 N 21.39 CA 19.22 C 21.65 O 25.22 CB 25.99 OG 36.73
D LEU H 105 -65.7 -33.3 N 22.77 CA 23.56 C 28.92 O 29.02 CB 26.02 CG 32.91 CD1 39.39 CD2 37.08
D GLY H 2 -73.1 -16.6 N 21.12 CA 21.37 C 21.91 O 23.22
D MET G 10 -64.2 -24.5 N 22.58 CA 23.94 C 25.49 O 26.14 CB 25.08 CG 21.71 SD 23.47 CE 24.54
D TYR G 178 -72.9 -8.6 N 24.21 CA 26.62 C 25.1 O 29.08 CB 28.01 CG 39.32 CD1 47.59 CD2 43.36 CE1 51.21 CE2 45.19 CZ 55.24 OH 60.94
D ALA G 52 -115.5 22.6 N 22.72 CA 21.91 C 17.09 O 17.7 CB 19.71
D LEU - 28 -69.7 154.0 N 20.23 CA 17.23 C 15.23 O 21.14 CB 18.0 CG 18.1 CD1 18.7 CD2 22.6
D PRO - 11 -64.7 150.8 N 17.98 CA 17.97 C 24.65 O 20.0 CB 18.26 CG 21.29 CD 16.54
D THR - 35 -70.6 169.5 N 21.72 CA 18.81 C 18.01 O 19.65 CB 21.0 OG1 18.91 CG2 24.52
D ARG H 14 -57.3 -44.1 N 17.94 CA 16.52 C 21.61 O 19.13 CB 20.58 CG 26.04 CD 25.3 NE 39.25 CZ 21.98 NH1 22.65 NH2 33.16
D ALA H 48 -64.3 -38.6 N 21.26 CA 24.39 C 22.84 O 20.12 CB 24.61
D HIS H 102 -60.2 -44.6 N 24.67 CA 21.89 C 21.69 O 19.68 CB 26.25 CG 28.39 ND1 20.79 CD2 25.16 CE1 23.9 NE2 24.47
D LEU H 11 -63.8 -44.8 N 19.18 CA 17.29 C 18.1 O 19.14 CB 19.16 CG 22.33 CD1 20.71 CD2 19.49
D LEU H 16 -60.1 -41.9 N 21.22 CA 25.07 C 21.03 O 25.02 CB 20.08 CG 21.74 CD1 28.18 CD2 31.73
D ASN H 129 -58.7 -46.1 N 26.46 CA 26.73 C 27.37 O 26.37 CB 31.54 CG 37.49 OD1 38.35 ND2 35.59
D MET H 86 -57.5 -38.8 N 26.8 CA 20.73 C 24.54 O 24.71 CB 23.91 CG 21.71 SD 21.92 CE 19.93
D LEU H 5 -86.7 -4.2 N 22.91 CA 24.48 C 26.71 O 25.78 CB 23.9 CG 23.32 CD1 24.95 CD2 32.02
D LYS T 132 60.6 42.1 N 29.62 CA 31.15 C 29.95 O 31.73 CB 30.75 CG 32.9 CD 41.74 CE 48.18 NZ 54.91
D GLU - 14 -131.9 156.4 N 27.58 CA 31.55 C 29.06 O 29.09 CB 26.65 CG 26.05 CD 28.44 OE1 32.46 OE2 28.5
D ASP - 88 -92.5 177.6 N 27.81 CA 28.65 C 26.0 O 28.53 CB 32.59 CG 38.34 OD1 33.34 OD2 38.22
D GLU H 67 -54.9 -47.2 N 23.56 CA 29.33 C 30.36 O 25.56 CB 28.08 CG 34.72 CD 40.71 OE1 38.0 OE2 36.17
D ALA H 60 -65.0 -46.1 N 28.9 CA 27.51 C 27.25 O 23.41 CB 31.94
D ALA H 17 -69.3 -40.6 N 27.86 CA 24.26 C 23.75 O 23.12 CB 27.23
D ALA H 3 -63.2 -39.4 N 24.05 CA 25.34 C 23.61 O 23.43 CB 25.87
D LYS H 98 -60.9 -48.3 N 21.89 CA 23.88 C 22.7 O 22.84 CB 24.54 CG 31.72 CD 35.28 CE 49.37 NZ 55.22
D ILE H 64 -56.1 -48.7 N 20.71 CA 21.13 C 21.36 O 22.44 CB 29.89 CG1 33.62 CG2 28.83 CD1 31.56
D HIS H 30 -78.5 -32.5 N 20.8 CA 20.6 C 19.1 O 21.91 CB 23.46 CG 23.92 ND1 26.55 CD2 28.75 CE1 32.6 NE2 26.8
D MET H 3 -63.7 -43.9 N 19.52 CA 20.95 C 19.83 O 18.09 CB 18.9 CG 17.54 SD 20.36 CE 20.97
D GLN H 74 -63.2 -37.1 N 21.09 CA 18.63 C 19.93 O 22.4 CB 19.66 CG 18.82 CD 22.09 OE1 22.69 NE2 21.99
D SER H 29 -62.1 -46.0 N 21.35 CA 24.46 C 24.5 O 21.07 CB 24.33 OG 23.89
D TYR H 0 -60.2 -39.5 N 19.42 CA 17.51 C 18.92 O 19.77 CB 17.86 CG 19.15 CD1 17.58 CD2 20.21 CE1 17.66 CE2 18.69 CZ 18.51 OH 20.12
D VAL H 12 -62.5 -43.3 N 15.95 CA 17.81 C 22.41 O 20.07 CB 19.55 CG1 21.06 CG2 17.89
D ASN H 100 -62.7 -43.1 N 22.06 CA 21.36 C 23.82 O 23.75 CB 18.86 CG 23.48 OD1 25.53 ND2 30.97
D SER H 8 -79.4 -35.6 N 22.52 CA 20.43 C 25.25 O 23.12 CB 19.73 OG 22.71
D SER H 0 -76.2 -24.7 N 21.31 CA 22.11 C 23.74 O 22.95 CB 19.3 OG 20.5
D ALA H 36 -57.7 -55.8 N 19.65 CA 22.56 C 23.36 O 21.91 CB 21.84
D PRO H 27 -65.7 -32.6 N 24.75 CA 23.24 C 23.59 O 23.12 CB 22.2 CG 24.9 CD 23.05
D LEU H 0 -64.0 -45.4 N 20.14 CA 18.19 C 20.08 O 21.86 CB 23.04 CG 21.5 CD1 20.76 CD2 22.24
D ILE H 11 -59.6 -41.7 N 22.53 CA 21.02 C 24.61 O 24.24 CB 21.8 CG1 21.6 CG2 25.11 CD1 22.86
D THR H 93 -61.9 -44.9 N 22.59 CA 26.45 C 25.22 O 25.64 CB 24.02 OG1 25.94 CG2 25.19
D TYR H 32 -59.4 -45.2 N 24.52 CA 23.95 C 28.48 O 26.95 CB 20.18 CG 23.94 CD1 24.86 CD2 26.84 CE1 28.09 CE2 24.64 CZ 27.21 OH 33.49
D LEU H 0 -62.3 -42.9 N 24.31 CA 23.85 C 32.62 O 32.87 CB 26.88 CG 22.71 CD1 24.32 CD2 31.61
D ASP H 62 -59.5 -38.7 N 27.23 CA 33.98 C 36.06 O 38.32 CB 29.14 CG 37.62 OD1 37.9 OD2 34.59
D ASN H 89 -77.8 -18.7 N 32.9 CA 32.44 C 30.85 O 34.63 CB 28.05 CG 41.39 OD1 41.09 ND2 43.04
D LEU H 14 -63.4 -38.7 N 29.15 CA 32.58 C 33.42 O 36.9 CB 32.94 CG 37.43 CD1 35.74 CD2 37.4
D PHE H 33 -81.2 -43.2 N 33.1 CA 36.21 C 37.34 O 48.45 CB 33.52 CG 40.43 CD1 38.98 CD2 40.68 CE1 35.69 CE2 34.14 CZ 32.44
D LEU H 119 -62.7 -44.5 N 41.58 CA 46.82 C 48.16 O 51.79 CB 44.67 CG 53.78 CD1 52.17 CD2 56.38
D SER T 90 -58.3 -6.4 N 45.11 CA 51.73 C 56.79 O 57.78 CB 48.26 OG 49.56
D LYS - 194 51.9 360.0 N 58.55 CA 60.75 C 63.16 O 73.31 CB 63.79 CG 68.01 CD 63.57 CE 61.87 NZ 68.39
