A ARG - 239 360.0 -54.8 N 91.08 CA 90.73 C 88.84 O 87.1 CB 92.12 CG 91.68 CD 92.59 NE 92.24 CZ 92.95 NH1 94.2 NH2 92.47
A HIS - 83 -87.0 109.0 N 88.96 CA 87.43 C 86.74 O 87.84 CB 88.5 CG 89.42 ND1 90.34 CD2 89.86 CE1 91.28 NE2 91.15
A SER - 37 -151.4 138.9 N 85.05 CA 84.0 C 81.86 O 81.43 CB 85.23 OG 85.04
A ARG S 77 -107.2 0.4 N 80.7 CA 78.28 C 77.8 O 77.04 CB 78.64 CG 79.92 CD 80.46 NE 82.21 CZ 83.34 NH1 84.27 NH2 84.37
A LEU H 118 -63.4 -42.5 N 77.53 CA 76.59 C 74.9 O 74.55 CB 78.41 CG 79.61 CD1 80.29 CD2 81.52
A ILE H 71 -62.4 -37.6 N 73.53 CA 72.09 C 70.35 O 70.33 CB 72.19 CG1 73.71 CG2 71.47 CD1 74.04
A LEU H 0 -60.2 -38.4 N 69.05 CA 67.33 C 67.38 O 66.49 CB 66.93 CG 66.72 CD1 66.89 CD2 65.75
A ALA H 23 -69.0 -38.3 N 68.45 CA 68.5 C 68.65 O 68.51 CB 69.97
A ILE H 43 -69.9 -44.2 N 68.84 CA 68.91 C 67.02 O 66.75 CB 70.37 CG1 72.08 CG2 71.14 CD1 73.34
A LEU H 33 -70.8 -38.0 N 65.53 CA 63.96 C 62.44 O 61.9 CB 63.62 CG 64.81 CD1 64.38 CD2 65.24
A ALA H 0 -74.0 -28.4 N 61.85 CA 60.98 C 61.51 O 60.71 CB 61.31
A GLY H 13 -65.3 -50.2 N 63.24 CA 63.99 C 63.75 O 64.04
A LEU H 30 -61.4 -41.0 N 63.86 CA 64.19 C 62.9 O 62.86 CB 64.63 CG 66.91 CD1 67.15 CD2 68.48
A GLY H 0 -62.8 -45.5 N 62.44 CA 61.23 C 61.55 O 60.98
A SER H 12 -60.3 -40.3 N 62.87 CA 64.0 C 65.64 O 65.39 CB 65.22 OG 65.01
A LEU H 35 -67.4 -49.7 N 67.59 CA 69.3 C 68.8 O 69.23 CB 71.11 CG 72.96 CD1 74.13 CD2 74.31
A LEU H 30 -61.0 -45.2 N 68.54 CA 68.68 C 68.08 O 67.86 CB 68.3 CG 67.93 CD1 69.22 CD2 67.3
A THR H 12 -77.3 -16.7 N 68.17 CA 67.9 C 69.15 O 68.67 CB 67.32 OG1 67.32 CG2 67.71
A ALA H 21 -86.7 -29.2 N 70.85 CA 72.16 C 73.63 O 74.59 CB 73.4
A TYR H 18 -65.1 -42.7 N 74.05 CA 74.77 C 73.74 O 74.6 CB 75.23 CG 75.7 CD1 77.87 CD2 74.77 CE1 79.01 CE2 75.93 CZ 78.18 OH 79.66
A LEU H 18 -70.7 -28.4 N 71.76 CA 70.96 C 70.92 O 70.71 CB 69.64 CG 69.84 CD1 68.8 CD2 70.42
A THR H 14 -73.1 -43.4 N 71.22 CA 71.53 C 73.15 O 72.99 CB 71.92 OG1 70.78 CG2 72.32
A TYR H 66 -62.0 -43.3 N 75.25 CA 77.71 C 78.37 O 79.21 CB 79.0 CG 81.01 CD1 82.87 CD2 81.16 CE1 84.7 CE2 83.08 CZ 85.04 OH 87.92
A THR H 11 -57.3 -46.9 N 78.52 CA 79.35 C 79.07 O 79.91 CB 78.73 OG1 81.14 CG2 78.93
A LYS H 66 -69.1 -46.6 N 78.14 CA 77.68 C 79.34 O 79.23 CB 76.15 CG 75.36 CD 74.32 CE 73.17 NZ 71.82
A LEU H 118 -71.7 -34.0 N 81.5 CA 84.57 C 87.94 O 89.75 CB 84.93 CG 83.39 CD1 84.4 CD2 82.74
A THR T 57 -83.7 -1.1 N 90.41 CA 93.9 C 94.71 O 97.04 CB 95.19 OG1 95.35 CG2 98.82
A GLU T 175 69.6 12.6 N 93.43 CA 94.59 C 96.69 O 96.23 CB 95.98 CG 95.82 CD 97.66 OE1 99.78 OE2 97.03
A GLN - 66 -79.2 151.5 N 99.7 CA 102.41 C 101.01 O 99.35 CB 105.01 CG 108.45 CD 111.9 OE1 113.79 NE2 112.9
A PRO - 90 -88.3 144.2 N 102.36 CA 101.36 C 102.43 O 104.4 CB 101.87 CG 104.39 CD 104.61
A ALA - 9 -94.7 108.6 N 101.2 CA 101.57 C 102.74 O 102.02 CB 98.94
A ALA - 91 49.5 360.0 N 104.5 CA 105.81 C 105.55 O 106.81 CB 105.29
A GLY - 56 360.0 144.1 N 78.86 CA 77.19 C 77.48 O 79.78
A GLY - 18 -166.4 -95.4 N 75.27 CA 74.83 C 72.73 O 71.43
A CYS H 15 -72.6 -27.9 N 72.8 CA 71.33 C 70.6 O 69.63 CB 71.8 SG 72.54
A ASP H 81 -60.9 -38.9 N 71.31 CA 70.29 C 68.01 O 67.4 CB 72.49 CG 75.02 OD1 75.96 OD2 76.73
A LEU H 2 -74.4 -45.7 N 66.87 CA 64.77 C 63.66 O 62.93 CB 65.22 CG 64.46 CD1 63.7 CD2 63.26
A VAL H 14 -66.6 -52.0 N 63.81 CA 62.55 C 61.76 O 60.66 CB 63.41 CG1 62.72 CG2 64.05
A LEU H 36 -77.5 -12.1 N 62.16 CA 62.04 C 62.07 O 62.68 CB 62.8 CG 63.09 CD1 63.87 CD2 62.24
A SER H 78 -106.1 -3.2 N 62.14 CA 62.14 C 61.4 O 61.5 CB 62.97 OG 66.08
A SER S 10 -73.4 165.6 N 60.12 CA 59.24 C 58.61 O 58.52 CB 59.29 OG 57.93
A ARG T 70 -67.6 151.8 N 58.31 CA 58.96 C 59.5 O 61.36 CB 59.35 CG 59.6 CD 60.56 NE 61.7 CZ 62.33 NH1 61.88 NH2 62.54
A TRP T 33 99.8 -26.4 N 58.86 CA 59.1 C 59.49 O 60.16 CB 58.46 CG 58.7 CD1 59.05 CD2 58.66 NE1 59.31 CE2 59.06 CE3 58.23 CZ2 59.55 CZ3 58.67 CH2 59.36
A ALA S 11 -82.4 -2.1 N 59.29 CA 59.36 C 59.84 O 60.5 CB 59.43
A GLU E 94 -123.7 133.4 N 60.53 CA 61.84 C 61.88 O 61.71 CB 62.86 CG 64.43 CD 66.45 OE1 68.2 OE2 66.82
A PHE E 17 -136.5 114.5 N 62.33 CA 62.82 C 64.16 O 64.66 CB 62.86 CG 63.43 CD1 63.14 CD2 64.73 CE1 64.05 CE2 65.39 CZ 65.03
A LEU T 133 61.3 31.2 N 65.27 CA 66.65 C 66.95 O 68.33 CB 67.73 CG 69.29 CD1 69.15 CD2 69.61
A GLY T 64 90.6 -1.8 N 65.58 CA 66.01 C 65.82 O 66.91
A ILE E 78 -125.5 163.4 N 64.51 CA 63.63 C 62.1 O 61.31 CB 64.55 CG1 64.01 CG2 66.22 CD1 64.37
A PRO E 9 -60.4 145.0 N 61.79 CA 60.54 C 60.11 O 60.47 CB 61.26 CG 62.27 CD 62.81
A THR H 22 -62.0 -30.8 N 59.37 CA 59.63 C 60.04 O 60.62 CB 59.17 OG1 59.32 CG2 59.28
A ALA H 18 -66.1 -33.0 N 60.65 CA 61.08 C 62.18 O 62.58 CB 61.69
A ALA H 12 -67.2 -27.7 N 62.73 CA 63.7 C 63.52 O 64.64 CB 64.2
A VAL H 47 -72.1 -37.4 N 62.74 CA 63.24 C 63.4 O 64.42 CB 62.54 CG1 63.12 CG2 62.28
A GLY H 22 -68.7 -26.8 N 63.27 CA 63.81 C 65.19 O 65.65
A LEU H 39 -68.1 -43.2 N 65.82 CA 67.29 C 68.24 O 69.17 CB 67.74 CG 69.11 CD1 69.37 CD2 69.7
A LEU H 128 -63.2 -38.2 N 68.05 CA 68.72 C 68.13 O 69.11 CB 68.96 CG 70.59 CD1 72.54 CD2 70.22
A GLY H 8 -69.8 -53.7 N 66.34 CA 65.64 C 65.85 O 66.83
A PHE H 5 -61.8 -37.9 N 64.92 CA 64.78 C 66.13 O 67.17 CB 63.63 CG 62.1 CD1 62.06 CD2 60.84 CE1 61.36 CE2 60.05 CZ 60.47
A LEU H 85 -73.5 -27.6 N 66.86 CA 68.68 C 69.37 O 70.95 CB 69.42 CG 69.91 CD1 70.8 CD2 70.9
A GLY H 22 -67.8 -45.7 N 68.79 CA 69.3 C 69.77 O 70.83
A VAL H 0 -71.2 -32.8 N 69.32 CA 69.85 C 70.55 O 71.36 CB 69.13 CG1 68.98 CG2 69.56
A LEU H 44 -64.5 -47.7 N 70.97 CA 72.38 C 74.02 O 75.11 CB 72.29 CG 73.39 CD1 73.58 CD2 73.47
A ALA H 47 -59.1 -43.4 N 74.51 CA 76.44 C 77.56 O 78.99 CB 76.37
A LEU H 39 -66.1 -30.3 N 77.27 CA 78.39 C 79.19 O 80.08 CB 77.53 CG 77.68 CD1 76.81 CD2 79.41
A ALA H 5 -78.0 -38.4 N 79.42 CA 80.6 C 82.37 O 83.01 CB 79.77
A VAL H 98 -77.2 -46.4 N 83.83 CA 86.31 C 88.25 O 89.99 CB 86.47 CG1 88.68 CG2 85.93
A LEU S 77 -48.0 144.2 N 88.73 CA 91.15 C 92.74 O 92.07 CB 90.94 CG 90.99 CD1 90.36 CD2 93.36
A PRO - 84 -82.4 154.4 N 95.21 CA 96.39 C 97.43 O 98.19 CB 98.4 CG 98.8 CD 96.86
A ASP - 108 -92.3 360.0 N 98.08 CA 98.94 C 101.31 O 102.5 CB 98.29 CG 98.55 OD1 99.84 OD2 97.78
A LEU - 75 360.0 152.8 N 112.01 CA 111.91 C 112.36 O 111.84 CB 109.19
A PRO T 111 -76.0 138.9 N 113.68 CA 114.26 C 111.43 O 109.83 CB 116.38 CG 115.63 CD 114.88
A LEU T 127 62.7 6.3 N 111.12 CA 109.13 C 106.46 O 105.45 CB 108.93 CG 111.22 CD1 113.72 CD2 110.6
A VAL H 16 -79.7 -69.6 N 105.37 CA 102.56 C 101.77 O 100.38 CB 102.26 CG1 101.72 CG2 104.54
A LYS H 140 -45.9 -41.9 N 102.7 CA 102.92 C 102.83 O 102.78 CB 105.21 CG 106.57 CD 105.64 CE 106.7 NZ 105.53
A ARG H 184 -66.7 -47.0 N 103.39 CA 102.92 C 100.19 O 99.9 CB 105.4 CG 106.76 CD 109.88 NE 111.88 CZ 113.14 NH1 112.6 NH2 114.89
A TRP H 127 -106.8 -10.9 N 98.09 CA 95.7 C 92.2 O 90.96 CB 96.99 CG 100.32 CD1 102.55 CD2 101.58 NE1 105.12 CE2 104.72 CE3 100.97 CZ2 107.02 CZ3 103.53 CH2 106.25
A ARG H 5 -47.8 -55.1 N 90.45 CA 87.67 C 85.29 O 83.36 CB 88.71 CG 88.21 CD 89.99 NE 91.61 CZ 93.32 NH1 94.03 NH2 94.44
A TRP H 29 -81.7 -33.7 N 84.87 CA 83.19 C 83.06 O 81.84 CB 83.48 CG 82.77 CD1 83.24 CD2 81.48 NE1 82.62 CE2 81.56 CE3 80.39 CZ2 80.9 CZ3 79.71 CH2 80.21
A PRO H 55 -67.7 -31.9 N 84.35 CA 84.27 C 82.56 O 81.9 CB 86.56 CG 87.37 CD 86.07
A ALA H 41 -74.7 -30.0 N 81.66 CA 80.13 C 78.3 O 77.58 CB 80.49
A LEU H 0 -67.4 -41.9 N 77.91 CA 76.16 C 75.8 O 74.92 CB 76.21 CG 76.13 CD1 76.7 CD2 74.64
A PHE H 28 -67.2 -34.9 N 76.47 CA 75.89 C 75.47 O 74.8 CB 76.81 CG 76.86 CD1 76.5 CD2 77.45 CE1 77.06 CE2 77.96 CZ 77.88
A GLY H 23 -67.5 -51.9 N 75.6 CA 74.72 C 72.47 O 71.79
A LEU H 54 -64.5 -46.4 N 71.62 CA 69.96 C 68.54 O 68.08 CB 70.19 CG 69.48 CD1 69.8 CD2 69.79
A VAL H 4 -65.5 -39.4 N 68.05 CA 66.97 C 66.75 O 66.0 CB 67.38 CG1 67.23 CG2 66.84
A SER H 5 -61.0 -41.2 N 67.8 CA 68.19 C 67.52 O 67.19 CB 69.64 OG 70.57
A ALA H 29 -64.0 -35.0 N 67.57 CA 67.15 C 66.07 O 65.43 CB 67.28
A MET H 19 -74.6 -34.2 N 66.49 CA 65.99 C 66.47 O 66.41 CB 65.55 CG 65.46 SD 65.91 CE 65.33
A THR H 20 -70.1 -39.8 N 67.61 CA 68.22 C 68.81 O 69.15 CB 69.46 OG1 69.48 CG2 69.47
A ALA H 0 -66.3 -45.0 N 69.23 CA 69.84 C 68.91 O 68.67 CB 70.53
A PHE H 28 -62.2 -37.2 N 68.81 CA 68.22 C 68.88 O 68.52 CB 66.94 CG 66.11 CD1 65.29 CD2 66.38 CE1 64.69 CE2 65.56 CZ 64.9
A GLU H 33 -72.4 -32.4 N 70.86 CA 72.92 C 74.0 O 74.31 CB 74.37 CG 75.93 CD 76.2 OE1 75.88 OE2 77.19
A MET H 95 -68.5 -33.7 N 76.05 CA 77.79 C 77.39 O 77.86 CB 79.81 CG 81.68 SD 85.37 CE 84.29
A TYR H 34 -70.9 -36.3 N 76.51 CA 76.03 C 74.7 O 74.67 CB 75.72 CG 75.67 CD1 76.72 CD2 74.5 CE1 76.6 CE2 74.26 CZ 75.39 OH 75.82
A MET H 27 -65.4 -38.0 N 73.52 CA 72.48 C 72.71 O 72.97 CB 71.72 CG 71.25 SD 70.22 CE 70.26
A LEU H 68 -69.3 -39.6 N 73.08 CA 73.47 C 74.02 O 74.98 CB 74.07 CG 75.69 CD1 75.79 CD2 76.78
A TYR H 133 -60.6 -44.0 N 74.04 CA 74.55 C 73.37 O 74.29 CB 75.03 CG 75.67 CD1 77.73 CD2 74.47 CE1 78.3 CE2 75.11 CZ 77.09 OH 78.28
A LEU I 6 -60.9 -39.0 N 71.43 CA 70.15 C 70.69 O 70.95 CB 68.41 CG 67.97 CD1 66.27 CD2 68.37
A MET I 7 -70.6 -45.1 N 70.89 CA 71.61 C 72.81 O 73.28 CB 72.61 CG 72.1 SD 75.05 CE 73.53
A VAL I 90 -75.9 -40.6 N 73.07 CA 75.19 C 75.48 O 76.66 CB 76.71 CG1 78.85 CG2 76.45
A ALA I 53 -99.5 -47.5 N 74.33 CA 74.93 C 73.96 O 74.48 CB 75.4
A VAL I 74 -99.5 -40.6 N 72.44 CA 71.59 C 70.89 O 70.67 CB 70.6 CG1 69.75 CG2 70.93
A LEU S 16 -87.9 -21.6 N 70.69 CA 70.18 C 71.91 O 72.35 CB 69.08 CG 67.63 CD1 66.92 CD2 66.74
A ARG - 136 57.6 25.8 N 73.41 CA 75.53 C 75.84 O 77.66 CB 76.4 CG 77.33 CD 77.47 NE 79.55 CZ 80.19 NH1 82.38 NH2 78.63
A GLN - 24 -144.2 -178.0 N 74.2 CA 75.01 C 74.85 O 75.05 CB 73.86 CG 75.11 CD 75.48 OE1 74.55 NE2 77.65
A PHE - 99 -139.6 156.4 N 74.76 CA 74.09 C 73.27 O 73.25 CB 76.31 CG 76.82 CD1 77.99 CD2 76.07 CE1 78.18 CE2 76.44 CZ 77.27
A CYS - 2 -131.7 135.5 N 72.27 CA 71.89 C 72.94 O 72.16 CB 69.81 SG 69.91
A MET H 115 -69.9 -31.6 N 74.39 CA 75.34 C 73.29 O 73.14 CB 79.37 CG 81.06 SD 87.19 CE 86.83
A TYR H 42 -69.7 -35.4 N 70.86 CA 69.03 C 66.74 O 65.88 CB 68.69 CG 70.49 CD1 71.52 CD2 71.13 CE1 73.72 CE2 73.23 CZ 74.32 OH 76.58
A CYS H 23 -75.8 -37.2 N 65.22 CA 63.41 C 64.01 O 63.3 CB 62.61 SG 61.47
A THR H 46 -67.5 -37.6 N 65.06 CA 66.24 C 66.48 O 67.15 CB 68.02 OG1 67.74 CG2 69.97
A THR H 66 -66.3 -38.9 N 65.82 CA 65.96 C 64.62 O 65.48 CB 66.44 OG1 67.29 CG2 66.91
A ALA H 14 -61.0 -41.1 N 63.36 CA 62.59 C 62.97 O 63.22 CB 60.88
A ILE H 29 -61.1 -46.6 N 63.3 CA 63.82 C 65.24 O 65.36 CB 64.32 CG1 63.36 CG2 64.69 CD1 63.74
A ILE H 114 -66.8 -36.4 N 66.08 CA 67.42 C 67.17 O 67.86 CB 68.87 CG1 69.12 CG2 70.43 CD1 70.78
A LEU H 16 -65.3 -41.9 N 66.36 CA 66.53 C 66.63 O 67.64 CB 65.65 CG 66.69 CD1 65.95 CD2 67.96
A VAL H 1 -72.3 -36.1 N 65.9 CA 65.84 C 67.23 O 67.77 CB 64.89 CG1 64.8 CG2 64.06
A ALA H 57 -65.4 -38.5 N 67.93 CA 69.09 C 70.41 O 71.39 CB 69.75
A GLY H 22 -63.2 -39.9 N 70.1 CA 70.73 C 70.38 O 71.23
A LEU H 0 -62.8 -39.6 N 69.21 CA 69.04 C 70.2 O 71.18 CB 67.51 CG 67.14 CD1 66.19 CD2 67.74
A GLY H 19 -63.5 -38.9 N 70.61 CA 71.49 C 73.4 O 74.07
A LEU H 116 -74.3 -40.7 N 74.35 CA 76.21 C 76.74 O 78.1 CB 77.17 CG 79.38 CD1 80.25 CD2 80.34
A VAL H 33 -72.0 -34.2 N 75.93 CA 76.43 C 76.32 O 77.43 CB 75.98 CG1 76.37 CG2 76.86
A THR H 9 -69.5 -33.6 N 74.91 CA 75.26 C 76.98 O 77.77 CB 74.37 OG1 73.34 CG2 74.47
A VAL H 81 -74.5 -34.7 N 77.66 CA 79.65 C 81.25 O 82.44 CB 80.27 CG1 82.35 CG2 79.53
A LEU S 114 -107.3 16.4 N 81.79 CA 83.48 C 83.84 O 84.51 CB 83.6 CG 84.13 CD1 84.81 CD2 85.95
A GLY S 6 -121.4 12.0 N 84.03 CA 85.38 C 87.19 O 87.03
A HIS S 58 -152.1 154.9 N 89.72 CA 92.44 C 96.07 O 96.57 CB 91.38 CG 92.34 ND1 93.84 CD2 92.49 CE1 94.74 NE2 93.97
A ARG - 169 -106.1 107.7 N 100.24 CA 104.76 C 107.15 O 107.91 CB 106.49 CG 107.15 CD 109.83 NE 110.37 CZ 112.24 NH1 114.06 NH2 112.69
A TRP - 143 -121.8 89.5 N 109.73 CA 113.1 C 115.02 O 115.31 CB 114.43 CG 116.18 CD1 115.24 CD2 118.67 NE1 116.72 CE2 118.45 CE3 121.53 CZ2 120.34 CZ3 123.4 CH2 122.92
A LEU - 171 -73.5 360.0 N 116.85 CA 119.01 C 120.33 O 119.55 CB 120.78 CG 120.81 CD1 120.98 CD2 118.78
A GLY - 48 360.0 -90.1 N 89.55 CA 90.61 C 91.07 O 89.44
A GLY H 66 -72.2 -16.3 N 93.77 CA 93.91 C 92.25 O 92.1
A LYS H 141 -68.3 -44.4 N 91.32 CA 89.82 C 86.79 O 85.91 CB 89.92 CG 90.51 CD 93.9 CE 95.63 NZ 99.22
A LEU H 46 -69.0 -39.7 N 85.3 CA 82.39 C 82.05 O 80.15 CB 81.5 CG 81.45 CD1 81.61 CD2 79.66
A ALA H 63 -63.5 -35.0 N 83.93 CA 83.98 C 84.63 O 83.41 CB 86.19
A PHE H 133 -79.2 -39.5 N 86.64 CA 87.65 C 85.38 O 85.05 CB 90.82 CG 92.27 CD1 93.28 CD2 92.76 CE1 94.73 CE2 94.2 CZ 95.26
A SER H 38 -67.2 -24.3 N 83.97 CA 82.14 C 79.62 O 78.35 CB 81.8 OG 84.24
A TYR H 73 -72.9 -48.8 N 79.01 CA 77.09 C 76.97 O 75.49 CB 77.08 CG 75.59 CD1 73.82 CD2 76.08 CE1 72.5 CE2 74.82 CZ 73.02 OH 72.22
A ILE H 109 -63.3 -40.4 N 78.93 CA 79.38 C 79.35 O 78.38 CB 82.06 CG1 82.63 CG2 82.5 CD1 85.6
A LEU H 93 -57.8 -50.2 N 80.52 CA 80.77 C 78.21 O 78.13 CB 82.41 CG 83.52 CD1 85.96 CD2 84.76
A VAL H 34 -67.3 -43.0 N 76.11 CA 73.58 C 71.79 O 71.18 CB 72.56 CG1 70.65 CG2 74.17
A ALA H 9 -61.6 -44.4 N 71.07 CA 69.45 C 70.03 O 68.38 CB 69.68
A PHE H 141 -59.5 -48.6 N 72.11 CA 73.3 C 72.34 O 71.49 CB 76.74 CG 78.79 CD1 80.19 CD2 79.7 CE1 82.32 CE2 81.8 CZ 83.01
A LEU H 105 -63.9 -38.1 N 72.48 CA 72.3 C 70.26 O 69.94 CB 73.11 CG 75.81 CD1 76.15 CD2 77.5
A THR H 22 -64.0 -53.6 N 69.12 CA 67.21 C 66.64 O 66.11 CB 66.37 OG1 67.02 CG2 64.48
A LEU H 58 -60.5 -47.9 N 67.21 CA 67.03 C 68.22 O 67.28 CB 68.34 CG 68.33 CD1 70.0 CD2 66.54
A VAL H 87 -55.5 -47.2 N 70.05 CA 71.09 C 70.15 O 70.48 CB 73.88 CG1 75.11 CG2 75.38
A THR H 82 -65.9 -47.7 N 69.69 CA 69.43 C 67.84 O 67.82 CB 69.74 OG1 71.73 CG2 69.48
A THR H 4 -59.4 -53.5 N 66.85 CA 65.65 C 66.03 O 65.36 CB 65.11 OG1 65.03 CG2 63.49
A ILE H 79 -62.2 -37.9 N 66.97 CA 67.24 C 68.15 O 67.88 CB 68.76 CG1 68.03 CG2 69.45 CD1 69.85
A GLY H 40 -64.8 -39.7 N 69.14 CA 69.98 C 68.49 O 68.16
A VAL H 25 -66.0 -45.7 N 67.89 CA 67.35 C 66.38 O 65.72 CB 66.22 CG1 65.22 CG2 67.38
A TYR H 3 -70.5 -27.2 N 66.04 CA 65.64 C 66.94 O 66.58 CB 65.02 CG 64.32 CD1 63.75 CD2 64.43 CE1 63.59 CE2 63.74 CZ 63.59 OH 63.66
A ALA H 69 -75.3 -37.7 N 69.66 CA 71.15 C 72.38 O 73.43 CB 72.36
A ASN H 148 -78.8 -15.1 N 73.87 CA 75.65 C 74.39 O 75.07 CB 78.19 CG 81.17 OD1 82.69 ND2 82.57
A GLN H 63 -68.9 -60.4 N 73.11 CA 71.39 C 70.8 O 71.42 CB 70.01 CG 69.65 CD 68.47 OE1 68.12 NE2 68.07
A VAL S 53 -68.6 118.4 N 70.15 CA 69.42 C 70.17 O 70.44 CB 68.99 CG1 70.04 CG2 68.66
A PRO - 94 -73.7 158.8 N 69.55 CA 70.66 C 70.27 O 69.79 CB 70.68 CG 68.74 CD 68.19
A PRO - 114 -64.1 144.7 N 71.4 CA 70.93 C 69.06 O 69.48 CB 73.08 CG 74.27 CD 73.17
A PRO - 47 -62.2 143.4 N 67.28 CA 65.14 C 65.07 O 66.62 CB 65.35 CG 66.14 CD 67.66
A SER - 52 -69.4 152.5 N 62.81 CA 62.88 C 62.45 O 61.83 CB 62.1 OG 60.95
A PRO H 115 -50.0 -38.6 N 63.16 CA 62.73 C 60.72 O 61.0 CB 64.42 CG 65.49 CD 64.71
A LEU H 52 -59.7 -44.4 N 58.98 CA 57.15 C 55.68 O 55.27 CB 56.86 CG 55.7 CD1 55.96 CD2 55.74
A ALA H 1 -63.5 -42.7 N 54.97 CA 53.85 C 54.41 O 53.9 CB 53.77
A VAL H 74 -68.5 -44.3 N 55.75 CA 56.78 C 57.6 O 57.88 CB 58.32 CG1 59.45 CG2 57.84
A GLY H 20 -69.0 -49.7 N 58.08 CA 58.83 C 58.22 O 58.79
A LEU H 0 -58.7 -41.5 N 57.66 CA 57.36 C 57.51 O 57.34 CB 56.2 CG 55.75 CD1 55.9 CD2 55.33
A ALA H 0 -60.5 -45.9 N 57.82 CA 58.58 C 60.75 O 61.87 CB 58.25
A ALA H 38 -67.2 -32.7 N 62.2 CA 63.53 C 63.94 O 65.16 CB 64.83
A HIS H 50 -70.1 -42.4 N 63.43 CA 63.86 C 63.47 O 64.1 CB 63.56 CG 63.68 ND1 64.41 CD2 62.86 CE1 64.36 NE2 63.6
A LEU H 0 -66.3 -29.3 N 62.83 CA 62.92 C 64.12 O 64.93 CB 61.83 CG 61.08 CD1 60.33 CD2 61.77
A ARG H 156 -68.9 -37.2 N 64.5 CA 65.87 C 66.49 O 67.9 CB 67.02 CG 69.61 CD 71.36 NE 74.69 CZ 76.39 NH1 75.51 NH2 78.87
A GLN H 166 -73.8 -39.9 N 65.48 CA 65.9 C 65.31 O 66.16 CB 65.91 CG 66.92 CD 68.55 OE1 69.25 NE2 69.95
A ILE H 60 -89.0 -6.5 N 64.03 CA 63.6 C 63.83 O 64.63 CB 62.35 CG1 61.05 CG2 62.43 CD1 60.01
A GLY T 36 80.6 20.2 N 63.78 CA 64.22 C 63.21 O 64.08
A GLY - 0 -61.4 96.5 N 61.73 CA 60.95 C 61.27 O 60.43
A THR E 26 -96.5 142.7 N 62.29 CA 63.05 C 62.91 O 63.34 CB 64.72 OG1 65.61 CG2 65.04
A MET E 1 -107.8 124.7 N 62.91 CA 63.3 C 64.54 O 65.13 CB 62.43 CG 62.84 SD 63.42 CE 62.52
A TYR E 28 -103.5 121.6 N 65.2 CA 66.7 C 66.59 O 66.3 CB 68.21 CG 68.48 CD1 69.85 CD2 67.49 CE1 70.75 CE2 68.21 CZ 69.75 OH 70.08
A GLY E 0 -164.1 -168.2 N 66.89 CA 66.86 C 68.18 O 69.68
A ALA - 2 -129.5 155.1 N 67.98 CA 68.98 C 67.68 O 66.2 CB 70.1
A TYR S 53 -71.5 -31.6 N 68.78 CA 68.08 C 68.0 O 67.77 CB 69.07 CG 71.24 CD1 73.14 CD2 71.04 CE1 74.79 CE2 72.74 CZ 74.58 OH 76.6
A TRP S 31 -79.1 -16.3 N 69.31 CA 69.31 C 68.83 O 68.93 CB 70.88 CG 72.24 CD1 72.64 CD2 73.67 NE1 73.6 CE2 74.58 CE3 74.43 CZ2 76.51 CZ3 76.68 CH2 77.74
A CYS - 6 -68.8 114.9 N 69.06 CA 68.71 C 66.36 O 64.79 CB 70.09 SG 70.56
A PRO H 27 -66.0 -36.2 N 65.93 CA 64.47 C 63.8 O 62.36 CB 64.7 CG 66.07 CD 66.86
A HIS H 110 -71.1 -31.6 N 64.92 CA 65.07 C 64.4 O 63.27 CB 66.06 CG 67.63 ND1 68.99 CD2 68.46 CE1 69.68 NE2 69.62
A CYS H 7 -68.9 -27.9 N 65.13 CA 65.49 C 64.78 O 64.19 CB 66.77 SG 70.71
A GLN H 22 -74.7 -38.5 N 65.15 CA 64.76 C 64.86 O 64.48 CB 64.87 CG 64.56 CD 64.64 OE1 65.48 NE2 64.2
A ASP H 77 -58.4 -46.7 N 66.09 CA 66.53 C 65.65 O 65.89 CB 68.8 CG 70.87 OD1 71.58 OD2 72.68
A GLN H 0 -63.2 -39.7 N 64.56 CA 63.33 C 63.04 O 62.93 CB 63.15 CG 62.58 CD 61.89 OE1 61.24 NE2 62.24
A LYS H 110 -64.5 -38.2 N 62.99 CA 62.69 C 62.71 O 63.25 CB 62.63 CG 62.84 CD 63.02 CE 63.89 NZ 64.55
A GLU H 79 -77.4 -14.7 N 63.11 CA 63.22 C 62.92 O 63.48 CB 63.9 CG 65.48 CD 66.53 OE1 67.39 OE2 67.57
A LEU H 79 -76.5 -26.4 N 62.61 CA 62.53 C 62.42 O 63.04 CB 62.75 CG 63.55 CD1 64.21 CD2 63.5
A PHE H 1 -90.5 -32.2 N 61.84 CA 62.42 C 63.49 O 64.3 CB 62.05 CG 61.42 CD1 61.61 CD2 60.79 CE1 61.66 CE2 60.6 CZ 61.4
A GLY G 20 73.7 -138.1 N 63.49 CA 64.38 C 65.37 O 65.79
A ALA G 62 -64.7 -23.0 N 66.08 CA 66.95 C 67.74 O 69.21 CB 68.07
A ALA G 9 -65.8 -9.6 N 67.24 CA 67.25 C 66.97 O 67.0 CB 66.49
A PHE G 20 -65.6 -22.0 N 66.54 CA 66.35 C 68.01 O 68.55 CB 65.53 CG 65.55 CD1 64.78 CD2 66.32 CE1 65.45 CE2 67.19 CZ 66.58
A ASP G 133 -54.8 -37.0 N 69.23 CA 71.02 C 71.55 O 73.02 CB 73.21 CG 73.4 OD1 72.37 OD2 74.34
A GLN G 83 -70.1 -31.4 N 71.19 CA 71.63 C 69.59 O 70.17 CB 73.37 CG 75.62 CD 79.46 OE1 82.34 NE2 79.46
A VAL S 6 -66.4 122.2 N 67.22 CA 64.83 C 64.92 O 65.27 CB 63.13 CG1 63.06 CG2 61.92
A PRO - 32 -61.9 118.5 N 64.84 CA 65.5 C 64.36 O 63.72 CB 66.13 CG 65.72 CD 64.75
A TYR E 78 -129.2 134.7 N 64.53 CA 64.1 C 66.05 O 66.97 CB 62.74 CG 62.7 CD1 62.18 CD2 63.49 CE1 62.27 CE2 63.62 CZ 63.16 OH 63.91
A VAL E 14 -111.6 120.3 N 67.06 CA 69.65 C 70.04 O 69.36 CB 70.88 CG1 73.27 CG2 70.82
A GLU E 42 -73.1 113.7 N 71.83 CA 73.17 C 76.15 O 78.04 CB 73.7 CG 74.03 CD 72.14 OE1 70.0 OE2 72.68
A CYS S 0 -80.1 -25.8 N 77.25 CA 80.95 C 83.95 O 86.58 CB 80.64 SG 80.68
A SER - 2 -142.3 92.5 N 84.26 CA 87.63 C 87.23 O 85.61 CB 88.67 OG 91.1
A PRO S 70 -68.0 -32.3 N 88.9 CA 88.95 C 90.52 O 90.04 CB 90.94 CG 91.03 CD 90.84
A ASN S 133 -72.9 -26.4 N 92.81 CA 94.32 C 92.51 O 93.95 CB 97.91 CG 100.28 OD1 101.5 ND2 100.94
A GLY - 2 120.2 -170.8 N 90.09 CA 88.04 C 89.15 O 90.84
A PRO T 65 -70.8 142.1 N 88.38 CA 89.24 C 93.04 O 94.51 CB 87.52 CG 84.73 CD 86.24
A GLY T 89 89.0 -3.5 N 94.83 CA 98.37 C 100.73 O 104.33
A THR S 51 -107.5 143.6 N 98.91 CA 100.83 C 100.51 O 97.76 CB 99.67 OG1 95.56 CG2 100.56
A PRO - 118 -53.0 134.4 N 103.65 CA 103.52 C 100.36 O 99.9 CB 107.54 CG 110.26 CD 107.5
A GLN - 50 -67.8 156.1 N 98.41 CA 95.38 C 96.87 O 100.21 CB 93.14 CG 94.54 CD 92.07 OE1 88.86 NE2 93.55
A ALA - 28 -59.6 157.1 N 94.98 CA 96.15 C 97.85 O 97.14 CB 93.32
A GLN H 151 -61.3 -46.2 N 100.73 CA 102.67 C 100.05 O 100.31 CB 105.96 CG 109.42 CD 113.05 OE1 114.06 NE2 115.15
A GLU H 119 -53.8 -41.7 N 97.57 CA 95.05 C 92.93 O 92.67 CB 93.59 CG 92.51 CD 92.15 OE1 93.15 OE2 91.36
A CYS H 0 -75.6 -32.3 N 91.41 CA 89.26 C 91.51 O 90.67 CB 87.2 SG 83.92
A THR H 74 -69.0 -34.9 N 94.37 CA 97.21 C 98.12 O 99.62 CB 100.42 OG1 99.46 CG2 103.52
A GLU H 150 -69.1 -27.6 N 97.44 CA 97.98 C 95.22 O 96.37 CB 98.22 CG 101.16 CD 105.31 OE1 108.0 OE2 106.09
A ALA T 42 -89.9 -5.9 N 91.79 CA 88.88 C 89.13 O 87.7 CB 85.66
A GLY T 53 71.3 34.8 N 91.14 CA 91.84 C 89.38 O 89.81
A ILE - 7 -77.1 116.9 N 86.78 CA 83.73 C 84.9 O 86.13 CB 81.41 CG1 80.7 CG2 78.76 CD1 79.34
A THR - 132 -99.8 -32.2 N 84.41 CA 85.75 C 83.49 O 85.2 CB 87.9 OG1 86.42 CG2 90.3
A SER S 49 -137.5 164.8 N 80.07 CA 77.67 C 74.77 O 74.24 CB 77.9 OG 77.11
A TYR S 55 -120.7 141.0 N 72.86 CA 70.0 C 68.26 O 69.17 CB 69.53 CG 71.64 CD1 72.58 CD2 72.79 CE1 74.72 CE2 74.92 CZ 75.92 OH 78.55
A PRO S 0 -85.7 162.0 N 66.59 CA 66.17 C 67.0 O 67.91 CB 64.18 CG 63.95 CD 65.12
A THR E 4 -139.6 125.2 N 67.23 CA 67.87 C 67.28 O 67.82 CB 69.79 OG1 70.73 CG2 70.41
A TRP E 0 -99.5 135.4 N 66.59 CA 65.83 C 67.27 O 68.44 CB 64.24 CG 62.8 CD1 62.47 CD2 61.94 NE1 61.46 CE2 61.32 CE3 62.11 CZ2 60.66 CZ3 61.41 CH2 60.81
A ILE E 43 -116.3 107.6 N 67.52 CA 68.42 C 67.69 O 67.43 CB 69.98 CG1 70.85 CG2 70.9 CD1 72.35
A ILE E 1 -130.3 121.7 N 67.74 CA 67.45 C 68.85 O 69.26 CB 65.82 CG1 65.03 CG2 65.45 CD1 64.27
A ASN T 104 49.3 46.5 N 69.5 CA 70.99 C 72.62 O 73.08 CB 70.21 CG 69.56 OD1 69.89 ND2 68.73
A GLY T 73 81.6 -17.4 N 73.59 CA 75.41 C 75.31 O 76.61
A ARG E 144 -86.9 152.2 N 73.88 CA 73.65 C 72.5 O 71.65 CB 73.46 CG 75.73 CD 78.36 NE 81.1 CZ 82.56 NH1 82.2 NH2 84.65
A THR E 65 -114.9 126.9 N 72.91 CA 71.59 C 70.43 O 71.35 CB 73.54 OG1 74.58 CG2 73.53
A TYR E 51 -126.7 119.1 N 67.97 CA 66.59 C 66.66 O 65.76 CB 64.55 CG 64.64 CD1 64.94 CD2 63.92 CE1 64.88 CE2 63.64 CZ 64.27 OH 64.66
A THR E 68 -95.4 138.4 N 67.88 CA 68.01 C 66.91 O 67.29 CB 70.43 OG1 72.12 CG2 71.39
A GLY S 18 93.3 -176.3 N 65.64 CA 64.81 C 62.9 O 62.03
A VAL - 50 -76.2 128.9 N 62.24 CA 61.0 C 61.37 O 62.94 CB 60.3 CG1 59.12 CG2 60.37
A ARG - 86 -122.2 140.5 N 60.42 CA 60.54 C 59.23 O 58.23 CB 61.39 CG 63.05 CD 64.84 NE 67.22 CZ 69.0 NH1 69.32 NH2 70.48
A SER - 64 -68.3 161.8 N 58.69 CA 57.37 C 57.15 O 57.61 CB 57.91 OG 58.61
A LEU H 25 -60.1 -36.8 N 56.29 CA 55.83 C 56.61 O 57.33 CB 55.61 CG 54.42 CD1 54.64 CD2 53.63
A GLU H 136 -61.0 -44.7 N 57.3 CA 58.43 C 58.27 O 58.22 CB 59.84 CG 61.9 CD 63.66 OE1 64.17 OE2 65.58
A ALA H 42 -68.6 -35.4 N 57.76 CA 57.51 C 56.42 O 56.62 CB 57.73
A LEU H 1 -73.5 -29.7 N 55.15 CA 54.45 C 54.44 O 54.45 CB 53.74 CG 53.62 CD1 52.82 CD2 53.81
A ALA H 0 -66.7 -41.3 N 54.58 CA 55.13 C 56.13 O 56.84 CB 55.24
A VAL H 108 -64.8 -44.2 N 56.52 CA 57.39 C 57.51 O 58.0 CB 58.17 CG1 59.28 CG2 58.52
A ALA H 17 -65.9 -34.4 N 57.52 CA 58.17 C 58.09 O 59.03 CB 57.87
A SER H 4 -88.1 -14.3 N 57.83 CA 57.98 C 58.55 O 58.77 CB 57.1 OG 56.52
A GLY T 56 80.2 28.4 N 59.24 CA 60.73 C 61.78 O 62.54
A TYR - 60 -87.4 118.1 N 62.08 CA 63.36 C 65.46 O 65.52 CB 61.87 CG 61.67 CD1 62.01 CD2 61.36 CE1 62.37 CE2 62.01 CZ 62.36 OH 63.07
A PRO - 92 -65.8 120.7 N 68.28 CA 70.81 C 72.83 O 73.09 CB 71.51 CG 70.77 CD 69.07
A LEU - 73 -98.6 92.2 N 75.66 CA 78.6 C 83.09 O 84.35 CB 77.46 CG 75.48 CD1 75.12 CD2 74.61
A GLU - 148 -98.7 129.2 N 87.27 CA 92.49 C 95.15 O 95.95 CB 94.03 CG 97.72 CD 98.41 OE1 97.08 OE2 100.67
A GLU - 195 -128.9 8.8 N 97.34 CA 99.66 C 102.72 O 105.07 CB 99.24 CG 97.13 CD 97.25 OE1 95.16 OE2 98.85
A GLY - 106 -115.1 360.0 N 102.86 CA 105.89 C 106.52 O 109.19
B THR - 120 360.0 -37.0 N 120.75 CA 120.0 C 119.94 O 118.4 CB 122.41 OG1 123.21 CG2 121.51
B TRP H 222 -54.3 -40.7 N 121.67 CA 121.83 C 118.4 O 118.89 CB 125.15 CG 125.37 CD1 124.59 CD2 126.78 NE1 125.32 CE2 126.62 CE3 128.3 CZ2 127.62 CZ3 129.44 CH2 129.19
B LEU H 80 -88.1 -5.6 N 114.96 CA 110.52 C 106.67 O 104.19 CB 110.54 CG 108.72 CD1 110.59 CD2 107.82
B GLN H 71 -108.9 -39.3 N 105.76 CA 102.07 C 101.2 O 99.19 CB 102.71 CG 103.14 CD 102.83 OE1 104.74 NE2 101.14
B ARG H 85 -73.0 -27.7 N 102.63 CA 102.54 C 101.3 O 101.73 CB 105.86
B HIS T 38 -110.5 21.2 N 99.57 CA 98.2 C 94.43 O 93.87 CB 101.34
B SER H 4 -68.3 -33.8 N 91.05 CA 87.19 C 84.88 O 83.36 CB 86.32 OG 86.18
B ARG H 79 -63.8 -37.0 N 84.61 CA 83.11 C 83.23 O 81.9 CB 84.97 CG 84.13 CD 86.33 NE 87.64 CZ 90.2 NH1 91.79 NH2 91.32
B LEU H 116 -65.2 -46.2 N 84.44 CA 84.87 C 82.71 O 82.18 CB 88.06 CG 90.49 CD1 91.92 CD2 93.48
B ILE H 51 -63.1 -34.3 N 81.15 CA 79.38 C 76.3 O 75.57 CB 79.42 CG1 82.45 CG2 78.6 CD1 82.83
B LEU H 0 -65.9 -43.8 N 74.62 CA 72.0 C 71.95 O 70.31 CB 71.43 CG 70.8 CD1 70.78 CD2 69.02
B ALA H 24 -63.4 -37.1 N 73.75 CA 74.39 C 74.51 O 74.18 CB 77.09
B ILE H 94 -71.3 -52.4 N 74.99 CA 75.64 C 72.7 O 72.44 CB 78.1 CG1 81.11 CG2 79.21 CD1 83.2
B LEU H 37 -61.6 -43.0 N 70.64 CA 68.15 C 65.88 O 64.87 CB 67.23 CG 69.27 CD1 68.32 CD2 70.06
B ALA H 0 -69.1 -33.0 N 65.01 CA 63.45 C 64.49 O 63.31 CB 63.48
B GLY H 21 -61.8 -48.9 N 66.91 CA 68.65 C 68.23 O 67.98
B LEU H 93 -62.6 -39.5 N 68.43 CA 68.66 C 66.27 O 66.02 CB 69.37 CG 72.65 CD1 73.07 CD2 75.54
B GLY H 0 -62.7 -48.7 N 64.99 CA 63.22 C 63.8 O 63.06
B SER H 11 -55.5 -45.6 N 65.59 CA 66.94 C 69.0 O 68.84 CB 68.68 OG 67.83
B LEU H 128 -63.6 -53.8 N 71.49 CA 73.83 C 72.73 O 72.44 CB 76.68 CG 79.45 CD1 82.06 CD2 81.0
B LEU H 30 -52.8 -44.8 N 72.49 CA 71.92 C 70.19 O 69.4 CB 71.23 CG 69.92 CD1 71.89 CD2 69.02
B THR H 10 -81.0 -19.4 N 69.83 CA 69.17 C 70.58 O 70.27 CB 67.5 OG1 67.27 CG2 68.13
B ALA H 38 -75.3 -34.0 N 72.96 CA 75.23 C 76.49 O 77.01 CB 77.69
B TYR H 85 -64.4 -44.8 N 77.26 CA 78.44 C 77.04 O 77.35 CB 79.47 CG 80.0 CD1 82.28 CD2 78.44 CE1 82.9 CE2 79.05 CZ 81.38 OH 82.52
B LEU H 17 -67.1 -31.7 N 76.02 CA 74.8 C 75.41 O 75.15 CB 72.55 CG 72.76 CD1 70.74 CD2 73.36
B THR H 14 -69.0 -45.1 N 77.41 CA 79.2 C 82.44 O 82.95 CB 79.53 OG1 77.75 CG2 79.85
B TYR H 139 -62.2 -43.1 N 85.71 CA 89.57 C 89.99 O 90.93 CB 92.23 CG 95.05 CD1 97.38 CD2 95.83 CE1 100.46 CE2 98.67 CZ 100.99 OH 104.58
B THR H 11 -59.1 -43.8 N 89.96 CA 90.73 C 89.85 O 90.63 CB 90.19 OG1 92.89 CG2 88.88
B LYS H 64 -70.4 -45.3 N 88.85 CA 88.16 C 90.68 O 91.08 CB 85.98 CG 84.54 CD 83.04 CE 81.14 NZ 80.67
B LEU H 121 -69.5 -43.0 N 93.38 CA 96.32 C 100.17 O 101.15 CB 96.96 CG 95.17 CD1 96.55 CD2 94.66
B THR T 59 -79.6 -3.0 N 103.81 CA 108.46 C 109.68 O 111.46 CB 110.32 OG1 110.06 CG2 113.97
B GLU T 178 68.6 26.3 N 110.03 CA 112.08 C 114.98 O 115.86 CB 113.36 CG 113.23 CD 115.75 OE1 117.98 OE2 115.07
B GLN - 108 -91.3 144.6 N 117.97 CA 121.22 C 120.92 O 119.66 CB 123.54 CG 126.55 CD 129.52 OE1 131.6 NE2 129.9
B PRO - 96 -77.9 149.4 N 123.18 CA 122.89 C 124.38 O 126.55 CB 124.04 CG 127.07 CD 126.44
B ALA - 6 -111.0 110.4 N 123.52 CA 124.94 C 126.6 O 125.73 CB 122.49
B ALA - 92 52.4 360.0 N 130.24 CA 132.44 C 131.75 O 133.82 CB 131.88
B GLY - 58 360.0 152.5 N 87.75 CA 85.2 C 85.62 O 89.01
B GLY - 16 -177.5 -98.0 N 82.93 CA 82.14 C 79.0 O 77.32
B CYS H 12 -74.4 -22.5 N 79.1 CA 77.13 C 76.16 O 74.73 CB 78.25 SG 80.16
B ASP H 67 -68.2 -33.9 N 77.07 CA 76.29 C 74.42 O 74.13 CB 78.75 CG 81.55 OD1 82.67 OD2 82.66
B LEU H 3 -78.8 -43.6 N 73.72 CA 71.44 C 70.09 O 69.15 CB 72.44 CG 71.47 CD1 70.45 CD2 70.1
B VAL H 14 -70.7 -52.4 N 70.16 CA 68.67 C 67.44 O 66.65 CB 69.74 CG1 68.22 CG2 70.73
B LEU T 33 -74.0 -8.9 N 67.73 CA 67.01 C 66.25 O 66.53 CB 68.32 CG 68.83 CD1 70.4 CD2 67.91
B SER T 75 -109.4 -4.0 N 65.5 CA 64.92 C 63.67 O 63.25 CB 66.05 OG 68.67
B SER S 10 -75.1 167.2 N 62.99 CA 62.9 C 62.92 O 63.26 CB 62.53 OG 61.02
B ARG T 67 -65.9 151.7 N 63.18 CA 63.87 C 64.35 O 65.79 CB 63.99 CG 64.45 CD 65.66 NE 66.61 CZ 67.73 NH1 67.82 NH2 68.81
B TRP T 32 96.6 -24.7 N 63.79 CA 63.43 C 63.74 O 64.27 CB 62.78 CG 63.59 CD1 63.83 CD2 63.91 NE1 64.75 CE2 64.45 CE3 63.76 CZ2 65.35 CZ3 64.73 CH2 65.35
B ALA S 13 -80.0 -10.1 N 63.88 CA 64.18 C 64.82 O 65.31 CB 64.57
B GLU E 96 -118.6 134.2 N 65.7 CA 67.13 C 66.73 O 66.51 CB 68.76 CG 70.51 CD 72.82 OE1 74.62 OE2 73.43
B PHE E 18 -135.0 114.1 N 67.07 CA 67.22 C 69.1 O 69.68 CB 66.31 CG 66.47 CD1 66.01 CD2 67.52 CE1 66.74 CE2 68.28 CZ 67.69
B LEU T 130 58.9 40.5 N 69.95 CA 72.12 C 73.24 O 75.07 CB 73.12 CG 75.03 CD1 74.49 CD2 75.18
B GLY T 64 82.2 -3.2 N 72.45 CA 73.57 C 73.45 O 74.54
B ILE E 78 -124.1 160.8 N 72.31 CA 71.92 C 69.91 O 69.14 CB 73.16 CG1 72.92 CG2 75.45 CD1 73.79
B PRO E 10 -56.6 148.1 N 69.46 CA 67.68 C 66.76 O 67.24 CB 68.31 CG 69.97 CD 70.57
B THR H 18 -64.4 -32.3 N 65.28 CA 64.44 C 64.98 O 65.29 CB 63.34 OG1 63.14 CG2 63.35
B ALA H 18 -62.5 -35.6 N 65.44 CA 66.21 C 67.04 O 67.89 CB 67.18
B ALA H 11 -64.9 -33.8 N 67.02 CA 67.97 C 67.45 O 68.68 CB 68.59
B VAL H 49 -67.2 -39.5 N 66.07 CA 65.82 C 65.64 O 66.1 CB 64.85 CG1 64.96 CG2 65.07
B GLY H 23 -64.9 -33.4 N 65.43 CA 65.95 C 67.19 O 67.73
B LEU H 39 -63.4 -42.9 N 67.86 CA 70.11 C 71.06 O 72.76 CB 71.0 CG 73.41 CD1 74.31 CD2 74.72
B LEU H 123 -67.6 -36.9 N 70.48 CA 71.71 C 70.93 O 71.95 CB 72.07 CG 74.31 CD1 76.89 CD2 74.24
B GLY H 9 -68.6 -49.1 N 68.99 CA 68.04 C 68.62 O 69.67
B PHE H 7 -64.5 -40.2 N 68.47 CA 69.13 C 71.05 O 72.58 CB 68.54 CG 67.2 CD1 67.41 CD2 65.95 CE1 67.01 CE2 65.58 CZ 66.15
B LEU H 83 -69.3 -29.8 N 71.62 CA 74.11 C 74.6 O 76.43 CB 75.15 CG 76.1 CD1 76.77 CD2 78.54
B GLY H 22 -64.5 -51.8 N 73.7 CA 74.02 C 74.25 O 75.65
B VAL H 0 -65.9 -32.9 N 72.98 CA 73.46 C 75.35 O 76.53 CB 72.1 CG1 71.76 CG2 72.95
B LEU H 42 -64.7 -51.8 N 76.09 CA 78.02 C 79.95 O 81.59 CB 78.5 CG 80.98 CD1 81.78 CD2 81.38
B ALA H 47 -57.7 -41.5 N 80.09 CA 82.32 C 82.73 O 85.0 CB 82.3
B LEU H 40 -64.5 -33.2 N 80.76 CA 81.0 C 82.21 O 83.65 CB 78.88 CG 78.28 CD1 76.18 CD2 80.08
B ALA H 4 -78.6 -38.3 N 82.38 CA 83.79 C 86.91 O 88.32 CB 82.77
B VAL H 94 -75.7 -44.8 N 88.5 CA 92.44 C 95.22 O 97.88 CB 92.81 CG1 96.21 CG2 92.11
B LEU S 76 -48.4 140.6 N 95.44 CA 98.71 C 100.62 O 99.0 CB 97.37 CG 97.28 CD1 95.69 CD2 100.79
B PRO - 83 -78.3 154.7 N 104.6 CA 106.54 C 106.56 O 106.23 CB 110.18 CG 110.9 CD 107.52
B ASP T 96 -81.1 18.0 N 107.42 CA 107.74 C 111.31 O 112.13 CB 106.83 CG 108.5 OD1 111.5 OD2 107.18
B GLY T 73 -95.9 -16.8 N 113.92 CA 117.61 C 118.29 O 121.07
B LEU S 41 -73.9 172.2 N 116.2 CA 116.81 C 116.62 O 115.34 CB 114.22
B PRO T 108 -74.6 140.0 N 118.12 CA 117.9 C 113.91 O 111.79 CB 120.68 CG 120.82 CD 120.58
B LEU T 127 61.8 13.2 N 113.15 CA 110.19 C 106.75 O 104.67 CB 110.32 CG 113.19 CD1 117.15 CD2 112.51
B VAL H 16 -83.0 -67.2 N 106.58 CA 103.99 C 103.13 O 100.8 CB 104.55 CG1 104.34 CG2 107.99
B LYS H 126 -54.4 -30.3 N 105.34 CA 105.33 C 104.44 O 103.35 CB 108.61 CG 109.13 CD 107.77 CE 107.27 NZ 105.32
B ARG H 189 -74.9 -49.1 N 105.27 CA 104.71 C 101.56 O 100.5 CB 107.67 CG 108.38 CD 112.41 NE 114.39 CZ 115.06 NH1 114.27 NH2 116.78
B TRP H 133 -103.8 -11.4 N 100.18 CA 97.72 C 94.49 O 92.52 CB 99.21 CG 102.22 CD1 105.15 CD2 102.68 NE1 107.5 CE2 106.04 CE3 100.94 CZ2 107.68 CZ3 102.55 CH2 105.9
B ARG H 8 -51.3 -59.9 N 93.9 CA 91.56 C 88.81 O 86.89 CB 93.42 CG 92.59 CD 95.15 NE 97.71 CZ 100.61 NH1 101.23 NH2 102.77
B TRP H 28 -71.3 -39.4 N 88.3 CA 86.36 C 85.2 O 84.07 CB 87.42 CG 87.92 CD1 89.45 CD2 86.9 NE1 89.6 CE2 88.22 CE3 85.48 CZ2 88.44 CZ3 85.56 CH2 87.16
B PRO H 53 -65.4 -32.9 N 85.53 CA 84.29 C 82.35 O 81.67 CB 86.53 CG 87.95 CD 87.38
B ALA H 40 -69.2 -39.0 N 81.48 CA 79.51 C 77.48 O 76.58 CB 80.49
B LEU H 0 -61.7 -41.2 N 76.88 CA 74.66 C 73.17 O 71.63 CB 75.53 CG 76.17 CD1 77.42 CD2 75.22
B PHE H 27 -67.2 -33.2 N 73.71 CA 73.01 C 71.82 O 70.79 CB 74.61 CG 74.83 CD1 74.98 CD2 75.42 CE1 75.73 CE2 76.04 CZ 76.18
B GLY H 23 -69.8 -56.5 N 71.6 CA 70.66 C 68.63 O 68.05
B LEU H 56 -62.5 -42.3 N 68.2 CA 66.62 C 65.24 O 64.53 CB 66.93 CG 66.3 CD1 66.16 CD2 67.44
B VAL H 4 -71.7 -32.3 N 65.18 CA 64.6 C 64.44 O 63.89 CB 65.13 CG1 64.89 CG2 65.25
B SER H 6 -65.0 -41.4 N 65.46 CA 65.78 C 65.0 O 64.53 CB 67.23 OG 68.36
B ALA H 30 -63.5 -38.8 N 65.23 CA 65.2 C 64.43 O 64.25 CB 65.67
B MET H 19 -67.7 -38.1 N 64.64 CA 64.09 C 64.03 O 63.58 CB 65.2 CG 65.97 SD 67.86 CE 67.74
B THR H 22 -68.5 -36.6 N 65.08 CA 66.16 C 66.63 O 67.06 CB 67.67 OG1 68.1 CG2 68.04
B ALA H 0 -70.3 -43.1 N 67.17 CA 68.08 C 67.56 O 67.67 CB 68.53
B PHE H 29 -64.7 -37.4 N 67.16 CA 66.85 C 67.44 O 66.67 CB 66.06 CG 65.45 CD1 64.78 CD2 65.62 CE1 64.34 CE2 65.21 CZ 64.83
B GLU H 33 -70.6 -33.5 N 69.23 CA 70.84 C 72.04 O 72.64 CB 72.35 CG 74.2 CD 74.25 OE1 74.53 OE2 75.14
B MET H 96 -66.1 -36.6 N 73.53 CA 75.1 C 74.33 O 74.93 CB 77.4 CG 79.39 SD 83.17 CE 80.98
B TYR H 32 -71.4 -37.8 N 72.84 CA 72.17 C 71.14 O 71.34 CB 71.76 CG 71.8 CD1 73.03 CD2 70.77 CE1 73.19 CE2 71.1 CZ 72.13 OH 72.77
B MET H 33 -62.3 -37.2 N 70.1 CA 69.39 C 70.23 O 70.59 CB 69.01 CG 68.65 SD 68.06 CE 68.5
B LEU H 67 -69.1 -37.8 N 71.13 CA 72.33 C 73.21 O 74.39 CB 73.21 CG 75.38 CD1 75.72 CD2 76.14
B TYR H 130 -62.7 -42.0 N 73.36 CA 74.84 C 74.83 O 76.57 CB 74.72 CG 75.7 CD1 77.98 CD2 74.45 CE1 78.82 CE2 75.34 CZ 77.72 OH 79.49
B LEU I 7 -63.1 -38.5 N 73.36 CA 72.77 C 73.66 O 74.22 CB 70.8 CG 70.5 CD1 68.86 CD2 71.2
B MET I 6 -76.0 -33.9 N 74.4 CA 75.71 C 78.15 O 79.14 CB 75.76 CG 74.13 SD 75.44 CE 75.6
B VAL I 89 -78.8 -48.9 N 79.43 CA 82.14 C 82.73 O 84.18 CB 83.48 CG1 86.3 CG2 83.82
B ALA I 52 -99.9 -46.5 N 81.85 CA 83.25 C 82.23 O 83.52 CB 83.26
B VAL I 68 -91.8 -44.2 N 80.64 CA 80.24 C 79.61 O 80.16 CB 79.01 CG1 77.51 CG2 79.86
B LEU S 18 -89.7 -24.9 N 79.11 CA 78.6 C 80.88 O 82.04 CB 77.3 CG 75.92 CD1 75.32 CD2 75.05
B ARG - 130 61.6 25.2 N 82.17 CA 84.28 C 84.72 O 87.2 CB 85.79 CG 86.04 CD 86.88 NE 89.51 CZ 90.16 NH1 93.0 NH2 88.41
B GLN - 23 -147.1 162.6 N 82.64 CA 82.73 C 81.29 O 80.09 CB 82.11 CG 83.95 CD 84.42 OE1 83.08 NE2 87.04
B PHE - 102 -122.2 147.3 N 82.49 CA 81.7 C 81.06 O 82.45 CB 84.45 CG 84.86 CD1 86.41 CD2 83.78 CE1 87.03 CE2 83.93 CZ 85.7
B CYS - 1 -120.3 136.4 N 79.0 CA 78.43 C 79.72 O 79.56 CB 76.13 SG 76.84
B MET H 110 -70.1 -40.8 N 81.93 CA 83.56 C 82.0 O 82.09 CB 86.88 CG 87.86 SD 92.89 CE 92.74
B TYR H 48 -62.3 -35.6 N 80.62 CA 79.68 C 77.48 O 77.15 CB 79.2 CG 81.97 CD1 84.43 CD2 82.29 CE1 86.86 CE2 84.96 CZ 87.27 OH 90.39
B CYS H 28 -70.2 -43.3 N 75.97 CA 73.59 C 74.41 O 73.74 CB 73.0 SG 72.37
B THR H 45 -66.2 -37.9 N 75.92 CA 76.69 C 76.93 O 77.97 CB 79.35 OG1 78.9 CG2 81.31
B THR H 67 -62.8 -40.1 N 76.08 CA 76.06 C 73.76 O 74.08 CB 77.07 OG1 78.62 CG2 78.25
B ALA H 14 -62.1 -41.8 N 71.53 CA 70.0 C 69.45 O 69.14 CB 68.2
B ILE H 27 -60.2 -44.1 N 69.32 CA 69.7 C 71.03 O 71.15 CB 70.37 CG1 68.93 CG2 70.87 CD1 69.26
B ILE H 113 -65.3 -43.2 N 72.18 CA 73.91 C 73.39 O 73.88 CB 76.54 CG1 77.2 CG2 79.09 CD1 79.23
B LEU H 17 -60.2 -43.2 N 72.57 CA 72.48 C 71.52 O 72.7 CB 71.89 CG 74.03 CD1 72.96 CD2 76.03
B VAL H 2 -68.9 -38.3 N 69.62 CA 68.4 C 69.31 O 69.52 CB 66.82 CG1 66.03 CG2 65.98
B ALA H 60 -65.3 -34.4 N 70.01 CA 71.44 C 73.18 O 74.07 CB 72.38
B GLY H 22 -68.8 -32.2 N 73.86 CA 75.25 C 74.72 O 75.83
B LEU H 0 -70.9 -42.1 N 72.93 CA 72.59 C 72.86 O 73.17 CB 70.9 CG 71.3 CD1 69.75 CD2 72.55
B GLY H 18 -63.1 -39.5 N 72.95 CA 73.44 C 75.73 O 76.18
B LEU H 116 -69.6 -38.4 N 77.08 CA 79.51 C 80.41 O 81.18 CB 81.3 CG 84.09 CD1 84.73 CD2 85.92
B VAL H 16 -74.1 -38.4 N 80.51 CA 81.86 C 81.4 O 82.78 CB 82.05 CG1 83.11 CG2 83.68
B THR H 10 -65.3 -41.8 N 80.31 CA 80.57 C 81.77 O 82.96 CB 78.97 OG1 78.8 CG2 79.22
B VAL H 83 -67.1 -40.9 N 82.29 CA 84.07 C 86.78 O 88.29 CB 84.04 CG1 86.11 CG2 82.22
B LEU T 80 -96.6 22.4 N 88.56 CA 91.73 C 93.48 O 94.98 CB 92.73 CG 93.0 CD1 94.21 CD2 94.56
B GLY S 2 -103.3 -117.5 N 94.3 CA 97.67 C 100.91 O 102.99
B HIS S 72 -48.5 138.4 N 101.71 CA 103.89 C 105.14 O 105.1 CB 103.11 CG 104.29 ND1 104.6 CD2 106.26 CE1 106.3 NE2 107.73
B ARG - 174 -85.9 115.7 N 108.16 CA 109.39 C 109.76 O 110.52 CB 111.43 CG 112.38 CD 114.92 NE 116.67 CZ 119.14 NH1 120.34 NH2 120.3
B TRP - 109 -108.4 110.7 N 110.32 CA 111.77 C 112.57 O 112.58 CB 112.14 CG 113.31 CD1 112.41 CD2 115.34 NE1 113.5 CE2 115.17 CE3 117.96 CZ2 116.9 CZ3 119.73 CH2 119.35
B LEU T 141 -81.7 1.7 N 113.51 CA 114.59 C 114.82 O 117.39 CB 116.49 CG 117.01 CD1 117.44 CD2 115.31
B ASP T 24 -70.7 -28.8 N 112.54 CA 112.55 C 110.5 O 111.58 CB 112.91 CG 115.59 OD1 116.27 OD2 117.45
B GLY - 43 68.8 -79.1 N 106.66 CA 104.26 C 102.11 O 100.18
B GLY H 22 -63.5 -18.1 N 102.98 CA 101.26 C 98.24 O 97.47
B LYS H 32 -62.8 -43.6 N 96.43 CA 94.17 C 90.59 O 89.64 CB 94.65 CG 95.13 CD 95.35 CE 97.14 NZ 100.05
B LEU H 43 -67.4 -38.1 N 88.01 CA 84.28 C 83.26 O 81.83 CB 83.7 CG 83.44 CD1 83.51 CD2 82.02
B ALA H 60 -62.9 -39.1 N 84.09 CA 83.38 C 82.98 O 81.93 CB 85.6
B PHE H 51 -71.0 -38.5 N 83.83 CA 83.76 C 81.06 O 80.51 CB 86.3 CG 89.31 CD1 90.7 CD2 91.06 CE1 93.94 CE2 94.31 CZ 95.87
B SER H 40 -74.3 -24.5 N 79.1 CA 77.02 C 74.56 O 73.31 CB 76.82 OG 79.28
B TYR H 76 -75.6 -46.7 N 73.71 CA 71.65 C 71.74 O 70.25 CB 71.7 CG 70.55 CD1 68.8 CD2 71.27 CE1 67.82 CE2 70.33 CZ 68.47 OH 68.02
B ILE H 83 -62.8 -40.1 N 73.4 CA 74.11 C 73.91 O 73.27 CB 76.99 CG1 77.41 CG2 78.0 CD1 80.36
B LEU H 78 -61.0 -54.5 N 74.52 CA 74.92 C 72.42 O 72.38 CB 76.38 CG 77.08 CD1 79.4 CD2 78.46
B VAL H 36 -63.5 -42.5 N 70.42 CA 68.22 C 66.8 O 65.88 CB 67.36 CG1 65.5 CG2 68.89
B ALA H 9 -62.5 -44.6 N 66.74 CA 65.78 C 66.81 O 65.86 CB 66.19
B PHE H 61 -62.9 -47.3 N 69.25 CA 70.83 C 70.29 O 69.98 CB 74.32 CG 76.77 CD1 78.85 CD2 77.39 CE1 81.36 CE2 79.95 CZ 81.82
B LEU H 81 -60.0 -42.5 N 70.4 CA 70.64 C 68.56 O 68.79 CB 71.19 CG 74.01 CD1 74.2 CD2 76.61
B THR H 22 -60.7 -50.0 N 66.89 CA 65.29 C 65.45 O 64.92 CB 63.85 OG1 64.37 CG2 61.67
B LEU H 56 -64.3 -40.0 N 66.78 CA 67.71 C 69.53 O 69.11 CB 68.97 CG 68.11 CD1 70.17 CD2 66.42
B VAL H 56 -62.7 -48.7 N 71.57 CA 73.77 C 73.07 O 73.54 CB 76.55 CG1 78.37 CG2 78.32
B THR H 86 -65.5 -41.2 N 72.43 CA 72.27 C 70.34 O 70.67 CB 72.25 OG1 73.69 CG2 72.5
B THR H 4 -67.2 -50.3 N 68.92 CA 67.09 C 67.4 O 66.48 CB 65.9 OG1 65.24 CG2 64.59
B ILE H 80 -65.2 -34.3 N 69.11 CA 69.95 C 71.51 O 71.85 CB 71.27 CG1 70.19 CG2 72.61 CD1 71.99
B GLY H 40 -62.4 -42.5 N 73.13 CA 75.6 C 74.9 O 76.07
B VAL H 29 -65.1 -46.4 N 73.5 CA 72.64 C 71.63 O 71.85 CB 71.32 CG1 70.14 CG2 72.87
B TYR H 2 -72.5 -23.6 N 70.59 CA 69.63 C 71.53 O 71.22 CB 68.05 CG 66.86 CD1 66.06 CD2 66.56 CE1 65.29 CE2 65.43 CZ 64.92 OH 64.14
B ALA H 70 -75.7 -39.6 N 74.01 CA 76.31 C 78.01 O 78.82 CB 78.32
B ASN T 150 -88.1 2.1 N 79.35 CA 81.49 C 79.71 O 81.27 CB 84.21 CG 87.72 OD1 89.69 ND2 88.67
B GLN T 57 -70.5 -56.4 N 77.39 CA 75.86 C 75.9 O 76.75 CB 73.43 CG 72.21 CD 70.87 OE1 70.15 NE2 70.11
B VAL S 53 -75.0 120.1 N 75.55 CA 76.02 C 78.39 O 80.13 CB 75.44 CG1 76.6 CG2 75.99
B PRO - 93 -76.9 158.0 N 78.69 CA 80.94 C 81.35 O 79.99 CB 81.19 CG 78.83 CD 77.31
B PRO - 118 -59.7 138.2 N 83.74 CA 84.28 C 83.0 O 83.69 CB 87.95 CG 88.77 CD 86.19
B PRO - 46 -61.6 150.4 N 81.65 CA 80.09 C 81.32 O 83.95 CB 80.06 CG 80.24 CD 81.79
B SER - 55 -70.4 153.5 N 79.44 CA 80.62 C 81.29 O 79.89 CB 79.44 OG 77.52
B PRO H 117 -53.6 -31.7 N 83.66 CA 84.86 C 82.79 O 83.16 CB 87.94 CG 87.96 CD 85.8
B LEU H 53 -69.0 -44.7 N 80.7 CA 78.67 C 76.16 O 75.89 CB 78.11 CG 76.67 CD1 78.25 CD2 75.88
B ALA H 1 -59.2 -42.9 N 74.39 CA 72.27 C 73.22 O 72.38 CB 71.04
B VAL H 53 -80.5 -41.6 N 75.26 CA 76.63 C 78.16 O 78.52 CB 78.94 CG1 80.61 CG2 77.35
B GLY H 21 -59.4 -45.4 N 79.26 CA 81.13 C 79.85 O 81.12
B LEU H 0 -65.7 -45.6 N 77.72 CA 76.23 C 76.08 O 76.65 CB 74.23 CG 72.72 CD1 73.37 CD2 71.12
B ALA H 0 -60.4 -36.8 N 75.88 CA 76.39 C 79.65 O 80.33 CB 75.33
B ALA H 39 -73.5 -35.3 N 82.35 CA 85.7 C 86.78 O 88.97 CB 87.87
B HIS H 53 -68.7 -40.7 N 86.1 CA 87.38 C 86.5 O 87.96 CB 86.82 CG 87.76 ND1 90.38 CD2 86.62 CE1 90.4 NE2 88.34
B LEU H 0 -66.0 -31.0 N 84.42 CA 83.92 C 86.03 O 87.11 CB 81.29 CG 79.51 CD1 77.59 CD2 79.54
B ARG H 126 -61.3 -42.5 N 87.44 CA 89.82 C 92.02 O 93.91 CB 91.65 CG 96.14 CD 97.3 NE 97.4 CZ 97.89 NH1 98.75 NH2 97.85
B GLN H 160 -70.0 -52.7 N 92.22 CA 94.58 C 93.81 O 96.23 CB 95.94 CG 98.92 CD 101.98 OE1 103.95 NE2 102.67
B ILE H 61 -74.4 -5.9 N 90.85 CA 89.93 C 89.24 O 89.55 CB 87.88 CG1 85.05 CG2 88.99 CD1 83.17
B GLY T 37 81.2 25.4 N 88.67 CA 88.29 C 85.52 O 85.85
B GLY - 0 -64.7 104.0 N 83.15 CA 80.37 C 79.15 O 78.37
B THR E 23 -109.2 137.7 N 79.06 CA 78.53 C 76.72 O 76.49 CB 80.74 OG1 82.78 CG2 80.94
B MET E 1 -101.8 131.0 N 75.66 CA 74.62 C 75.88 O 76.83 CB 72.85 CG 71.68 SD 70.42 CE 69.49
B TYR E 27 -110.7 111.6 N 76.13 CA 77.45 C 75.94 O 75.47 CB 79.96 CG 81.87 CD1 84.44 CD2 81.32 CE1 86.31 CE2 83.0 CZ 85.54 OH 87.66
B GLY E 0 -152.6 -171.5 N 75.4 CA 74.29 C 75.06 O 76.77
B ALA - 2 -122.5 160.4 N 74.17 CA 75.01 C 72.89 O 70.86 CB 76.45
B TYR S 52 -75.2 -32.3 N 73.96 CA 72.25 C 71.43 O 69.91 CB 73.27 CG 75.25 CD1 77.99 CD2 74.67 CE1 80.22 CE2 76.74 CZ 79.48 OH 81.98
B TRP S 33 -79.3 -17.9 N 73.47 CA 73.47 C 72.38 O 72.09 CB 76.62 CG 78.78 CD1 79.1 CD2 81.49 NE1 81.3 CE2 82.73 CE3 83.22 CZ2 85.49 CZ3 85.91 CH2 87.01
B CYS - 8 -65.8 116.1 N 72.19 CA 71.33 C 68.46 O 67.19 CB 72.75 SG 72.43
B PRO H 27 -68.0 -35.2 N 67.74 CA 65.89 C 65.51 O 64.14 CB 66.6 CG 68.44 CD 69.3
B HIS H 114 -72.7 -27.5 N 67.31 CA 67.59 C 66.79 O 65.84 CB 69.85 CG 71.31 ND1 72.7 CD2 72.17 CE1 73.72 NE2 73.48
B CYS H 7 -71.7 -29.0 N 67.44 CA 67.68 C 66.34 O 65.9 CB 69.34 SG 72.33
B GLN H 21 -72.7 -38.9 N 65.88 CA 65.38 C 65.35 O 65.33 CB 64.95 CG 64.2 CD 64.27 OE1 64.65 NE2 63.63
B ASP H 80 -58.2 -36.9 N 66.42 CA 66.92 C 67.13 O 66.85 CB 68.55 CG 69.56 OD1 69.91 OD2 70.7
B GLN H 0 -74.7 -40.9 N 67.5 CA 67.89 C 68.11 O 68.65 CB 68.62 CG 69.22 CD 68.97 OE1 68.73 NE2 69.2
B LYS H 108 -62.1 -39.0 N 68.29 CA 68.4 C 68.19 O 68.6 CB 68.45 CG 69.51 CD 69.4 CE 70.9 NZ 71.83
B GLU H 85 -74.8 -15.2 N 68.35 CA 68.79 C 68.56 O 69.03 CB 68.97 CG 70.73 CD 71.55 OE1 71.76 OE2 72.67
B LEU H 76 -78.4 -24.9 N 68.13 CA 68.4 C 69.41 O 70.44 CB 67.98 CG 67.64 CD1 68.0 CD2 67.95
B PHE H 3 -91.6 -32.8 N 69.36 CA 70.79 C 71.15 O 73.26 CB 71.12 CG 71.3 CD1 72.44 CD2 70.26 CE1 72.86 CE2 70.62 CZ 71.99
B GLY G 22 77.9 -130.8 N 69.74 CA 70.51 C 72.08 O 71.74
B ALA G 54 -72.4 -17.1 N 74.08 CA 75.76 C 77.18 O 78.81 CB 77.58
B ALA G 5 -69.9 -3.8 N 77.16 CA 78.53 C 77.8 O 78.7 CB 78.64
B PHE G 19 -73.2 -19.4 N 76.52 CA 75.98 C 78.08 O 78.45 CB 74.2 CG 73.69 CD1 73.16 CD2 74.15 CE1 73.34 CE2 74.33 CZ 74.06
B ASP G 133 -55.0 -40.1 N 79.52 CA 81.6 C 83.26 O 84.91 CB 83.56 CG 82.31 OD1 80.46 OD2 83.02
B GLN T 66 -66.0 -39.5 N 83.3 CA 85.24 C 84.21 O 86.79 CB 85.7 CG 86.74 CD 90.44 OE1 92.85 NE2 91.94
B VAL S 5 -59.7 124.7 N 80.92 CA 79.25 C 80.05 O 80.18 CB 76.59 CG1 76.08 CG2 75.36
B PRO - 27 -61.6 118.2 N 81.02 CA 82.17 C 80.36 O 79.32 CB 83.7 CG 83.84 CD 81.67
B TYR E 78 -129.3 136.6 N 80.38 CA 78.94 C 81.57 O 83.57 CB 76.65 CG 75.75 CD1 74.27 CD2 76.41 CE1 73.77 CE2 76.0 CZ 74.84 OH 75.08
B VAL E 15 -116.1 125.6 N 82.27 CA 85.16 C 84.79 O 83.32 CB 87.09 CG1 90.21 CG2 87.81
B GLU E 43 -80.1 107.9 N 86.83 CA 87.3 C 90.28 O 93.36 CB 87.78 CG 87.82 CD 84.96 OE1 82.43 OE2 85.55
B CYS S 0 -73.4 -29.4 N 90.02 CA 93.12 C 95.83 O 99.5 CB 91.78 SG 91.21
B SER - 2 -139.5 93.0 N 94.62 CA 97.1 C 96.28 O 93.16 CB 97.16 OG 98.9
B PRO S 64 -72.4 -29.5 N 98.95 CA 98.66 C 100.11 O 99.2 CB 101.62 CG 102.65 CD 102.11
B ASN S 130 -72.8 -25.3 N 103.02 CA 104.66 C 101.98 O 102.72 CB 109.15 CG 112.65 OD1 115.1 ND2 113.06
B GLY - 3 117.2 -174.8 N 99.2 CA 96.33 C 97.28 O 99.81
B PRO T 62 -66.1 142.3 N 95.58 CA 96.73 C 100.94 O 102.48 CB 94.27 CG 90.73 CD 92.26
B GLY T 89 95.6 -23.8 N 103.34 CA 107.94 C 110.99 O 115.54
B THR S 55 -90.1 148.6 N 108.99 CA 111.7 C 111.19 O 107.51 CB 110.51 OG1 105.73 CG2 111.65
B PRO - 115 -57.9 139.9 N 115.35 CA 115.42 C 111.79 O 111.3 CB 120.76 CG 124.08 CD 120.54
B GLN - 54 -69.5 159.0 N 109.55 CA 106.31 C 108.73 O 113.14 CB 103.62 CG 106.04 CD 103.11 OE1 99.03 NE2 105.29
B ALA - 30 -66.9 160.4 N 106.27 CA 108.5 C 110.18 O 108.65 CB 105.44
B GLN H 143 -59.3 -47.8 N 113.78 CA 116.39 C 112.86 O 112.71 CB 120.77 CG 124.42 CD 129.76 OE1 132.13 NE2 131.58
B GLU H 117 -55.5 -35.4 N 110.15 CA 107.56 C 104.7 O 104.11 CB 105.41 CG 104.43 CD 103.21 OE1 103.54 OE2 102.06
B CYS H 0 -83.6 -26.8 N 103.04 CA 100.75 C 103.26 O 102.46 CB 98.41 SG 95.22
B THR H 77 -74.2 -31.2 N 106.53 CA 109.8 C 111.18 O 112.86 CB 113.83 OG1 112.26 CG2 117.29
B GLU H 146 -69.2 -31.5 N 110.47 CA 111.46 C 108.29 O 109.95 CB 112.01 CG 115.42 CD 120.43 OE1 123.06 OE2 121.92
B ALA H 47 -84.9 -23.0 N 103.79 CA 100.53 C 100.07 O 99.34 CB 96.77
B GLY T 51 87.2 38.1 N 100.95 CA 100.78 C 96.74 O 95.92
B ILE - 9 -76.0 116.6 N 94.23 CA 90.73 C 91.83 O 93.69 CB 88.51 CG1 88.0 CG2 85.25 CD1 86.02
B THR - 129 -99.3 -34.4 N 90.86 CA 92.2 C 89.37 O 90.7 CB 93.86 OG1 91.25 CG2 97.25
B SER S 51 -138.4 162.1 N 85.87 CA 83.22 C 80.21 O 79.74 CB 82.88 OG 82.22
B TYR S 55 -117.4 139.4 N 78.17 CA 75.51 C 73.24 O 73.4 CB 75.62 CG 78.44 CD1 80.2 CD2 79.72 CE1 83.16 CE2 82.68 CZ 84.58 OH 88.3
B PRO S 1 -87.1 156.8 N 71.44 CA 71.5 C 72.96 O 73.15 CB 69.31 CG 68.45 CD 69.52
B THR E 4 -135.6 125.9 N 74.11 CA 75.45 C 75.26 O 75.8 CB 78.06 OG1 78.9 CG2 79.08
B TRP E 0 -99.5 135.0 N 74.88 CA 75.06 C 77.04 O 77.57 CB 73.8 CG 72.5 CD1 71.56 CD2 72.11 NE1 70.58 CE2 70.91 CE3 73.15 CZ2 70.47 CZ3 72.76 CH2 71.37
B ILE E 41 -115.1 111.0 N 78.36 CA 80.44 C 80.33 O 80.58 CB 82.91 CG1 83.52 CG2 84.66 CD1 86.24
B ILE E 1 -135.4 125.2 N 80.4 CA 80.58 C 82.81 O 83.05 CB 78.1 CG1 76.61 CG2 78.4 CD1 74.85
B ASN T 104 48.9 39.3 N 84.99 CA 87.2 C 88.62 O 89.37 CB 86.69 CG 86.92 OD1 88.76 ND2 85.76
B GLY T 72 85.6 -17.6 N 89.5 CA 91.34 C 90.38 O 92.08
B ARG E 143 -87.6 151.1 N 88.13 CA 86.67 C 84.46 O 83.5 CB 86.45 CG 88.73 CD 89.52 NE 91.54 CZ 91.87 NH1 90.86 NH2 93.25
B THR E 62 -113.5 128.7 N 83.57 CA 81.66 C 79.45 O 80.31 CB 83.92 OG1 85.88 CG2 83.2
B TYR E 51 -128.7 127.1 N 76.83 CA 74.77 C 73.94 O 73.33 CB 73.04 CG 73.62 CD1 73.98 CD2 73.89 CE1 74.66 CE2 74.69 CZ 75.04 OH 76.21
B THR E 65 -108.5 133.6 N 74.31 CA 74.2 C 72.42 O 73.07 CB 76.93 OG1 78.85 CG2 77.37
B GLY S 20 102.2 -178.3 N 70.83 CA 69.06 C 67.23 O 66.98
B VAL - 52 -74.4 128.7 N 66.18 CA 64.64 C 65.19 O 66.49 CB 63.65 CG1 62.51 CG2 63.33
B ARG - 87 -122.0 139.5 N 65.24 CA 66.1 C 65.52 O 64.96 CB 67.55 CG 69.37 CD 70.93 NE 73.08 CZ 75.21 NH1 76.03 NH2 76.87
B SER - 65 -67.4 158.0 N 65.92 CA 66.07 C 66.79 O 67.28 CB 66.86 OG 67.5
B LEU H 23 -59.5 -30.3 N 67.44 CA 68.82 C 70.81 O 71.39 CB 69.09 CG 67.98 CD1 68.96 CD2 67.27
B GLU H 134 -70.2 -39.9 N 71.72 CA 73.79 C 73.71 O 74.96 CB 75.48 CG 78.66 CD 80.94 OE1 81.37 OE2 82.54
B ALA H 41 -72.3 -34.7 N 72.31 CA 71.96 C 71.45 O 72.65 CB 71.26
B LEU H 2 -72.5 -29.3 N 70.0 CA 69.68 C 70.84 O 71.67 CB 68.63 CG 67.39 CD1 66.28 CD2 68.1
B ALA H 0 -66.6 -41.0 N 71.05 CA 72.54 C 73.73 O 75.03 CB 73.24
B VAL H 107 -67.2 -41.6 N 73.68 CA 74.75 C 75.05 O 76.21 CB 74.48 CG1 75.7 CG2 75.14
B ALA H 17 -67.1 -38.1 N 74.23 CA 74.96 C 76.4 O 77.89 CB 73.61
B SER H 4 -85.2 -16.4 N 76.52 CA 77.97 C 79.87 O 81.29 CB 77.39 OG 76.9
B GLY T 54 84.4 21.8 N 80.29 CA 82.81 C 84.0 O 86.43
B TYR - 60 -79.7 121.6 N 82.8 CA 83.76 C 84.72 O 83.36 CB 82.24 CG 83.56 CD1 85.29 CD2 83.19 CE1 86.68 CE2 84.72 CZ 86.45 OH 88.08
B PRO - 104 -62.4 139.4 N 87.46 CA 88.88 C 88.14 O 88.08 CB 92.03 CG 92.13 CD 89.53
B LEU - 132 -116.0 360.0 N 88.26 CA 87.88 C 91.0 O 92.81 CB 85.47 CG 82.64 CD1 81.6 CD2 81.56
