A GLN - 213 360.0 139.9 N 68.08 CA 65.89 C 66.97 O 69.02 CB 69.4 CG 67.51 CD 68.42 OE1 67.57 NE2 64.24
A TRP - 177 -48.0 120.0 N 61.35 CA 61.39 C 60.71 O 61.19 CB 58.84 CG 57.88 CD1 58.72 CD2 58.25 NE1 60.26 CE2 59.09 CE3 58.44 CZ2 58.8 CZ3 58.32 CH2 58.05
A SER T 114 -64.6 -24.7 N 63.51 CA 63.54 C 63.11 O 64.07 CB 63.98 OG 64.67
A GLY T 21 -72.5 -2.8 N 48.18 CA 48.8 C 47.37 O 46.82
A ALA H 25 -66.7 -48.8 N 35.52 CA 35.73 C 34.3 O 33.54 CB 34.24
A ARG H 70 -59.8 -40.2 N 45.29 CA 46.09 C 46.43 O 45.85 CB 48.34
A ALA H 49 -71.7 -36.8 N 51.48 CA 50.97 C 51.43 O 49.13 CB 49.41
A LEU H 83 -62.0 -43.8 N 41.63 CA 40.73 C 42.02 O 42.07 CB 41.9 CG 43.1 CD1 41.91 CD2 42.16
A GLU H 135 -63.0 -43.6 N 51.73 CA 51.61 C 51.87 O 51.2 CB 53.24 CG 55.04 CD 59.25 OE1 59.61 OE2 61.23
A ALA H 34 -58.1 -48.6 N 41.55 CA 43.59 C 42.92 O 42.88 CB 42.07
A LEU H 20 -53.2 -46.1 N 41.63 CA 41.93 C 41.6 O 41.97 CB 43.41 CG 42.81 CD1 41.48 CD2 41.58
A LEU H 98 -73.3 -34.9 N 46.13 CA 45.11 C 44.15 O 44.99 CB 45.29 CG 45.66 CD1 44.47 CD2 45.9
A THR H 83 -62.2 -53.5 N 42.1 CA 43.61 C 44.0 O 43.16 CB 43.52 OG1 44.13 CG2 44.71
A VAL H 20 -61.5 -41.4 N 42.6 CA 42.93 C 42.83 O 41.73 CB 41.64 CG1 42.66 CG2 41.91
A ALA H 11 -58.8 -53.4 N 46.27 CA 46.1 C 46.51 O 47.03 CB 45.49
A GLY H 42 -52.9 -33.3 N 52.39 CA 52.16 C 52.62 O 53.5
A GLU H 101 -67.9 -40.0 N 65.5 CA 66.22 C 66.38 O 67.47 CB 66.0 CG 68.05 CD 72.67 OE1 74.14 OE2 69.4
A LEU H 4 -65.8 -15.9 N 40.0 CA 39.52 C 39.75 O 38.81 CB 39.42 CG 36.72 CD1 36.19 CD2 38.83
A ARG T 116 -67.8 -17.6 N 45.74 CA 46.64 C 47.28 O 47.4 CB 47.1 CG 47.42 CD 47.03 NE 47.81 CZ 46.41 NH1 47.21 NH2 47.0
A GLY S 23 -84.0 -176.5 N 56.31 CA 58.87 C 59.63 O 58.17
A PRO T 100 -66.1 154.4 N 52.26 CA 52.44 C 51.45 O 50.15 CB 54.21 CG 53.76 CD 55.71
A PRO T 43 -97.6 12.4 N 56.18 CA 54.22 C 57.03 O 56.74 CB 55.7 CG 55.73 CD 55.81
A LEU T 7 -105.3 -38.0 N 56.23 CA 55.86 C 56.3 O 56.16 CB 54.46 CG 54.64 CD1 54.38 CD2 53.93
A GLN - 115 45.3 64.2 N 60.93 CA 61.68 C 59.34 O 59.31 CB 63.48 CG 64.45 CD 66.11 OE1 66.54 NE2 66.39
A LEU - 5 -77.7 157.8 N 50.32 CA 50.06 C 50.69 O 50.89 CB 48.51 CG 50.15 CD1 47.17 CD2 49.77
A ASP - 83 -106.7 167.3 N 65.21 CA 63.77 C 65.37 O 68.28 CB 65.72 CG 66.97 OD1 69.26 OD2 63.93
A THR H 91 -49.7 -42.3 N 52.94 CA 53.09 C 50.39 O 49.82 CB 53.72 OG1 54.01 CG2 51.73
A GLY H 41 -56.0 -55.5 N 48.87 CA 49.02 C 47.28 O 46.87
A GLN H 40 -61.5 -39.8 N 44.15 CA 45.92 C 44.53 O 42.45 CB 45.08 CG 45.71 CD 47.67 OE1 48.0 NE2 51.82
A LEU H 13 -65.7 -43.6 N 32.91 CA 33.9 C 33.56 O 32.82 CB 32.45 CG 32.9 CD1 38.03 CD2 34.16
A LEU H 103 -61.5 -46.8 N 36.77 CA 37.12 C 35.78 O 36.07 CB 38.12 CG 40.52 CD1 40.03 CD2 42.79
A LYS H 112 -54.4 -51.5 N 37.67 CA 37.41 C 38.26 O 37.44 CB 37.48 CG 37.32 CD 37.55 CE 38.36 NZ 41.88
A ILE H 0 -61.2 -44.1 N 28.48 CA 28.21 C 28.62 O 26.94 CB 28.52 CG1 26.96 CG2 25.96 CD1 29.0
A ALA H 26 -63.1 -36.1 N 26.13 CA 27.88 C 25.96 O 26.56 CB 28.18
A LYS H 171 -72.6 -33.3 N 34.87 CA 36.51 C 36.71 O 36.04 CB 37.58 CG 39.07 CD 39.39 CE 40.31 NZ 41.93
A ARG H 125 -113.6 -48.2 N 30.29 CA 30.25 C 31.82 O 33.91 CB 28.93 CG 30.08 CD 28.92 NE 29.51 CZ 31.03 NH1 28.04 NH2 26.79
A GLY T 13 -75.6 -22.3 N 28.29 CA 29.8 C 30.7 O 28.27
A GLY H 23 76.7 -174.6 N 29.83 CA 30.6 C 31.43 O 29.56
A VAL H 44 -61.4 -40.2 N 32.77 CA 33.4 C 33.11 O 32.83 CB 34.36 CG1 33.39 CG2 34.77
A THR H 75 -54.4 -39.8 N 34.4 CA 34.35 C 33.97 O 33.55 CB 34.95 OG1 36.76 CG2 34.39
A ALA H 0 -72.4 -42.2 N 27.93 CA 28.24 C 29.82 O 28.85 CB 27.58
A VAL H 1 -61.4 -40.5 N 29.43 CA 29.37 C 27.75 O 30.22 CB 30.64 CG1 31.29 CG2 30.08
A GLU H 86 -70.4 -36.7 N 35.53 CA 37.52 C 39.33 O 37.61 CB 37.68 CG 39.17 CD 44.23 OE1 46.2 OE2 44.47
A ALA H 6 -66.3 -42.8 N 33.23 CA 33.43 C 34.25 O 33.55 CB 32.81
A VAL H 0 -56.1 -46.1 N 32.46 CA 34.69 C 35.52 O 36.08 CB 34.16 CG1 33.99 CG2 33.59
A HIS H 46 -62.3 -56.9 N 39.62 CA 41.19 C 41.33 O 41.57 CB 42.44 CG 43.72 ND1 44.35 CD2 44.25 CE1 45.63 NE2 45.21
A ALA H 61 -52.8 -30.2 N 51.47 CA 52.42 C 51.81 O 52.02 CB 54.54
A TRP T 73 -115.6 22.3 N 38.55 CA 38.66 C 38.93 O 39.52 CB 38.33 CG 37.3 CD1 36.68 CD2 37.34 NE1 35.89 CE2 36.35 CE3 37.84 CZ2 36.62 CZ3 36.72 CH2 36.06
A ARG H 73 -62.3 -40.7 N 48.98 CA 50.86 C 52.16 O 50.95 CB 51.76 CG 52.72 CD 54.12 NE 56.06 CZ 56.61 NH1 54.77 NH2 55.75
A ASN H 108 -76.6 -37.2 N 59.11 CA 60.49 C 61.15 O 62.72 CB 63.47 CG 63.79 OD1 65.15 ND2 63.6
A ALA H 52 -70.0 -23.3 N 50.88 CA 49.86 C 50.57 O 48.98 CB 50.02
A LEU H 1 -94.6 -29.4 N 54.0 CA 52.63 C 54.8 O 55.79 CB 52.78 CG 53.62 CD1 54.27 CD2 55.18
A THR H 27 -61.9 -64.3 N 68.17 CA 69.56 C 70.14 O 71.13 CB 68.99 OG1 68.15 CG2 69.87
A GLY S 26 -108.5 -161.2 N 62.74 CA 65.03 C 64.93 O 64.27
A ALA T 84 -52.0 137.2 N 76.98 CA 77.83 C 74.89 O 75.4 CB 78.54
A PRO T 117 -63.6 -58.8 N 62.71 CA 64.7 C 63.14 O 63.87 CB 61.72 CG 62.11 CD 60.99
A LEU T 24 -66.1 -38.2 N 55.72 CA 54.71 C 55.01 O 54.86 CB 54.04 CG 54.89 CD1 54.26 CD2 54.79
A ASN - 106 52.6 52.7 N 68.41 CA 69.77 C 67.61 O 68.44 CB 70.41 CG 72.47 OD1 73.09 ND2 71.56
A LEU - 5 -87.9 139.5 N 52.99 CA 51.34 C 50.2 O 52.13 CB 50.59 CG 51.49 CD1 50.92 CD2 50.58
A THR - 64 -68.5 160.4 N 43.49 CA 45.35 C 46.21 O 44.32 CB 45.19 OG1 45.92 CG2 46.48
A PRO H 48 -61.0 -39.3 N 50.09 CA 50.2 C 49.02 O 48.73 CB 51.16 CG 52.22 CD 51.55
A GLU H 145 -53.4 -44.4 N 53.42 CA 53.95 C 52.65 O 52.04 CB 55.08 CG 60.11 CD 64.12 OE1 61.48 OE2 64.48
A GLN H 46 -65.6 -40.2 N 37.58 CA 37.7 C 37.93 O 36.58 CB 37.54 CG 36.66 CD 37.53 OE1 40.71 NE2 35.94
A VAL H 2 -63.5 -43.0 N 35.37 CA 34.57 C 36.25 O 34.59 CB 35.24 CG1 33.1 CG2 37.2
A VAL H 6 -63.5 -41.4 N 34.01 CA 33.93 C 33.35 O 32.5 CB 34.69 CG1 34.15 CG2 34.33
A ALA H 29 -63.1 -38.5 N 34.27 CA 32.22 C 31.39 O 31.84 CB 32.98
A ILE H 1 -72.0 -44.4 N 26.83 CA 26.5 C 27.38 O 26.72 CB 26.36 CG1 27.09 CG2 26.03 CD1 27.23
A ALA H 0 -66.9 -30.5 N 23.34 CA 23.76 C 24.76 O 25.05 CB 24.8
A SER S 6 -83.9 47.7 N 25.24 CA 27.18 C 26.84 O 26.27 CB 28.04 OG 29.08
A HIS S 39 -146.0 164.5 N 20.05 CA 22.18 C 20.75 O 22.33 CB 20.03 CG 20.93 ND1 20.6 CD2 20.61 CE1 20.7 NE2 19.87
A ASP T 78 -59.9 133.2 N 23.6 CA 23.5 C 25.19 O 23.46 CB 23.74 CG 24.98 OD1 25.4 OD2 25.37
A GLY T 39 79.3 12.0 N 26.32 CA 25.67 C 27.11 O 26.3
A GLY H 1 -48.2 -41.8 N 26.33 CA 25.85 C 26.2 O 25.93
A LYS H 89 -55.8 -44.1 N 27.51 CA 28.85 C 28.13 O 26.4 CB 28.09 CG 30.88 CD 32.68 CE 34.84 NZ 36.52
A GLN H 77 -66.6 -37.9 N 28.73 CA 28.2 C 28.54 O 27.44 CB 27.6 CG 29.15 CD 31.02 OE1 33.71 NE2 28.66
A ALA H 1 -67.0 -37.5 N 24.89 CA 24.61 C 25.27 O 24.26 CB 23.87
A LEU H 0 -64.2 -45.0 N 24.4 CA 24.99 C 24.46 O 25.56 CB 25.97 CG 27.99 CD1 26.78 CD2 28.96
A GLU H 53 -59.1 -43.2 N 29.14 CA 30.92 C 31.08 O 29.91 CB 30.96 CG 34.53 CD 32.47 OE1 33.14 OE2 32.47
A THR H 0 -71.5 -37.6 N 23.51 CA 22.87 C 22.53 O 23.13 CB 22.57 OG1 22.98 CG2 22.13
A VAL H 1 -64.1 -41.5 N 25.37 CA 24.72 C 28.25 O 26.1 CB 25.76 CG1 27.79 CG2 26.35
A GLN H 78 -68.5 -27.0 N 34.79 CA 35.69 C 35.44 O 36.4 CB 35.47 CG 35.77 CD 34.02 OE1 34.95 NE2 34.79
A ARG H 91 -79.5 -46.4 N 31.24 CA 32.45 C 34.17 O 32.48 CB 33.23 CG 33.92 CD 33.64 NE 34.7 CZ 34.45 NH1 32.64 NH2 34.43
A LEU H 11 -99.7 -18.2 N 26.12 CA 25.61 C 27.15 O 26.12 CB 25.83 CG 26.58 CD1 25.98 CD2 27.26
A LEU H 11 -54.3 -47.4 N 27.62 CA 28.62 C 31.27 O 30.43 CB 27.75 CG 29.6 CD1 30.16 CD2 30.77
A PRO H 47 -67.7 -38.6 N 33.26 CA 32.8 C 31.54 O 32.12 CB 33.92 CG 35.56 CD 32.11
A VAL H 51 -53.9 -54.9 N 34.95 CA 35.81 C 37.45 O 36.11 CB 35.35 CG1 37.11 CG2 34.93
A LEU H 0 -63.7 -36.3 N 28.79 CA 29.57 C 29.7 O 29.78 CB 29.51 CG 29.4 CD1 28.54 CD2 30.03
A CYS H 22 -74.5 -43.1 N 38.49 CA 38.99 C 41.13 O 40.07 CB 41.12 SG 40.27
A GLN H 158 -92.0 -27.2 N 58.86 CA 59.24 C 59.42 O 61.77 CB 60.48 CG 61.39 CD 64.67 OE1 64.38 NE2 65.76
A ALA H 69 -96.5 -23.8 N 39.73 CA 37.33 C 40.56 O 38.33 CB 39.21
A HIS S 39 -119.8 -7.3 N 33.24 CA 33.52 C 33.27 O 33.98 CB 32.99 CG 33.83 ND1 33.21 CD2 35.57 CE1 33.47 NE2 35.82
A GLY - 59 77.6 28.7 N 33.96 CA 36.21 C 37.31 O 36.56
A LEU - 6 -84.3 159.5 N 35.16 CA 33.65 C 35.04 O 35.35 CB 33.43 CG 35.15 CD1 32.58 CD2 34.13
A THR - 65 -92.2 157.3 N 34.76 CA 33.43 C 34.44 O 33.07 CB 34.28 OG1 32.91 CG2 35.55
A PRO H 61 -56.7 -37.0 N 37.33 CA 35.81 C 34.1 O 35.65 CB 35.88 CG 36.26 CD 37.0
A GLN H 150 -60.1 -36.2 N 35.95 CA 39.3 C 38.16 O 36.58 CB 38.3 CG 40.94 CD 44.22 OE1 45.02 NE2 44.02
A GLN H 35 -71.6 -41.4 N 30.44 CA 30.48 C 29.22 O 29.65 CB 29.99 CG 29.07 CD 30.85 OE1 30.07 NE2 29.18
A VAL H 0 -59.9 -45.6 N 21.95 CA 21.53 C 23.2 O 22.63 CB 23.59 CG1 23.74 CG2 22.3
A VAL H 12 -63.4 -38.5 N 25.46 CA 27.67 C 26.95 O 26.04 CB 26.81 CG1 27.22 CG2 27.51
A ALA H 39 -60.5 -43.7 N 28.63 CA 28.8 C 28.68 O 29.07 CB 27.5
A ILE H 0 -64.5 -37.0 N 23.54 CA 23.48 C 23.51 O 23.69 CB 22.33 CG1 22.75 CG2 22.27 CD1 23.57
A ALA H 0 -73.2 -27.4 N 19.52 CA 21.38 C 20.0 O 20.76 CB 20.1
A SER S 18 -87.1 54.4 N 22.21 CA 23.11 C 23.54 O 22.59 CB 24.72 OG 25.02
A HIS S 48 -150.7 162.1 N 21.04 CA 21.82 C 21.66 O 22.6 CB 20.49 CG 21.84 ND1 21.29 CD2 20.97 CE1 21.69 NE2 20.85
A ASP T 28 -56.5 143.0 N 20.41 CA 20.4 C 20.26 O 21.2 CB 19.79 CG 22.15 OD1 21.24 OD2 21.78
A GLY T 35 69.0 24.7 N 23.33 CA 22.53 C 22.16 O 23.41
A GLY H 1 -56.0 -32.9 N 20.99 CA 20.77 C 21.8 O 20.46
A LYS H 54 -55.5 -46.2 N 23.36 CA 23.78 C 23.67 O 22.69 CB 24.33 CG 24.45 CD 24.1 CE 27.46 NZ 31.46
A GLN H 72 -64.7 -40.6 N 21.16 CA 22.02 C 21.49 O 22.07 CB 21.57 CG 21.78 CD 24.5 OE1 23.3 NE2 22.07
A ALA H 4 -62.5 -48.7 N 19.22 CA 18.96 C 20.33 O 19.03 CB 18.79
A LEU H 0 -59.9 -47.5 N 22.07 CA 22.42 C 22.98 O 22.89 CB 21.19 CG 22.54 CD1 22.47 CD2 21.49
A GLU H 56 -67.1 -31.0 N 26.7 CA 28.91 C 28.85 O 26.87 CB 27.53 CG 27.78 CD 28.96 OE1 28.18 OE2 30.16
A THR H 1 -76.7 -36.0 N 20.2 CA 21.62 C 21.1 O 21.29 CB 21.59 OG1 20.51 CG2 21.57
A VAL H 0 -63.0 -43.6 N 22.98 CA 24.15 C 26.12 O 25.54 CB 25.03 CG1 24.29 CG2 24.1
A GLN H 69 -61.7 -38.4 N 30.76 CA 31.61 C 31.0 O 31.68 CB 31.76 CG 32.98 CD 33.48 OE1 34.14 NE2 35.18
A ARG H 131 -79.0 -38.4 N 35.08 CA 34.26 C 36.19 O 35.61 CB 35.21 CG 38.01 CD 40.43 NE 40.41 CZ 40.9 NH1 40.42 NH2 39.63
A LEU H 9 -109.0 -14.2 N 25.31 CA 26.31 C 26.18 O 26.64 CB 24.43 CG 27.67 CD1 26.09 CD2 27.04
A LEU H 9 -51.3 -43.4 N 27.51 CA 25.89 C 28.86 O 28.14 CB 25.88 CG 28.61 CD1 29.83 CD2 28.98
A PRO H 45 -66.1 -43.3 N 27.56 CA 29.3 C 28.84 O 28.9 CB 28.69 CG 29.2 CD 28.34
A VAL H 51 -68.4 -32.4 N 28.57 CA 29.57 C 30.9 O 28.5 CB 29.9 CG1 31.22 CG2 32.58
A LEU H 0 -71.7 -36.8 N 26.39 CA 26.79 C 27.17 O 27.5 CB 25.54 CG 25.06 CD1 26.2 CD2 24.56
A CYS H 22 -78.8 -47.2 N 33.98 CA 34.97 C 37.28 O 38.76 CB 35.54 SG 36.44
A GLN H 159 -73.9 -57.0 N 56.34 CA 58.48 C 59.49 O 62.04 CB 57.84 CG 59.83 CD 61.09 OE1 62.03 NE2 60.43
A ALA T 74 -84.5 -24.6 N 41.91 CA 41.24 C 43.11 O 43.86 CB 41.93
A HIS T 52 -115.0 -3.9 N 38.08 CA 37.24 C 38.02 O 38.93 CB 36.3 CG 37.71 ND1 37.74 CD2 37.01 CE1 38.61 NE2 38.39
A GLY - 59 76.9 13.4 N 36.03 CA 35.22 C 36.19 O 34.8
A LEU - 6 -80.9 155.3 N 29.71 CA 29.41 C 29.77 O 30.19 CB 29.12 CG 31.17 CD1 31.46 CD2 28.69
A THR - 62 -87.8 160.2 N 30.29 CA 30.53 C 32.58 O 29.52 CB 30.98 OG1 29.98 CG2 31.2
A PRO H 42 -60.2 -35.8 N 31.69 CA 30.8 C 29.03 O 30.69 CB 31.92 CG 30.63 CD 32.1
A GLU H 114 -56.0 -43.0 N 34.06 CA 35.36 C 35.01 O 33.0 CB 36.08 CG 38.16 CD 37.45 OE1 39.79 OE2 38.97
A GLN H 36 -68.6 -39.4 N 25.6 CA 25.53 C 25.29 O 24.62 CB 24.51 CG 25.8 CD 24.79 OE1 26.38 NE2 24.62
A VAL H 0 -62.0 -41.1 N 23.38 CA 23.39 C 23.95 O 23.21 CB 22.75 CG1 24.17 CG2 25.05
A VAL H 13 -64.2 -44.2 N 24.1 CA 24.17 C 24.36 O 24.45 CB 25.41 CG1 24.65 CG2 25.12
A ALA H 38 -62.0 -44.5 N 24.7 CA 24.74 C 23.99 O 25.77 CB 24.69
A ILE H 0 -59.8 -42.5 N 19.74 CA 20.3 C 21.58 O 20.45 CB 19.91 CG1 19.81 CG2 19.22 CD1 20.26
A ALA H 0 -69.6 -27.0 N 17.92 CA 18.55 C 17.83 O 17.98 CB 18.05
A SER S 17 -86.3 51.1 N 20.55 CA 21.21 C 21.78 O 20.29 CB 21.92 OG 23.38
A HIS S 56 -152.8 158.2 N 20.11 CA 20.26 C 21.62 O 20.62 CB 19.98 CG 19.81 ND1 21.15 CD2 18.96 CE1 20.19 NE2 19.66
A ASP T 72 -55.3 142.2 N 19.4 CA 20.43 C 19.85 O 18.64 CB 18.4 CG 21.69 OD1 21.43 OD2 22.69
A GLY T 40 76.7 9.7 N 19.09 CA 18.24 C 18.34 O 18.14
A GLY H 2 -43.4 -43.1 N 17.43 CA 17.38 C 17.55 O 17.44
A LYS H 55 -57.9 -43.7 N 24.14 CA 24.96 C 23.56 O 23.4 CB 23.62 CG 24.39 CD 25.08 CE 27.22 NZ 28.72
A GLN H 80 -65.3 -42.0 N 20.72 CA 19.8 C 20.21 O 20.16 CB 19.99 CG 21.08 CD 22.44 OE1 22.24 NE2 22.94
A ALA H 3 -65.1 -44.7 N 19.11 CA 18.13 C 19.68 O 19.21 CB 17.53
A LEU H 0 -60.1 -46.9 N 20.0 CA 21.61 C 21.25 O 21.48 CB 20.36 CG 20.37 CD1 22.21 CD2 21.05
A GLU H 52 -66.6 -30.5 N 22.1 CA 24.08 C 24.65 O 23.63 CB 23.24 CG 24.77 CD 25.92 OE1 25.9 OE2 26.63
A THR H 9 -77.4 -34.0 N 20.54 CA 20.36 C 21.36 O 21.21 CB 20.49 OG1 20.63 CG2 20.5
A VAL H 1 -63.6 -47.8 N 18.41 CA 19.3 C 21.09 O 19.45 CB 20.3 CG1 19.59 CG2 19.4
A GLN H 64 -54.2 -45.8 N 24.71 CA 25.62 C 26.94 O 27.65 CB 27.13 CG 29.77 CD 29.53 OE1 29.33 NE2 32.23
A ALA H 70 -72.6 -39.9 N 25.92 CA 25.21 C 26.67 O 26.38 CB 25.41
A LEU H 25 -105.4 -11.4 N 21.81 CA 22.29 C 22.59 O 21.57 CB 20.36 CG 20.5 CD1 19.59 CD2 20.63
A LEU H 8 -48.5 -47.9 N 28.76 CA 28.92 C 28.69 O 28.38 CB 29.72 CG 30.47 CD1 32.79 CD2 28.52
A PRO H 38 -62.5 -54.1 N 34.91 CA 33.54 C 33.28 O 33.02 CB 35.31 CG 35.52 CD 33.78
A VAL H 27 -60.5 -33.1 N 28.0 CA 27.32 C 26.55 O 26.14 CB 28.81 CG1 26.55 CG2 29.66
A LEU H 1 -72.6 -36.9 N 21.24 CA 20.48 C 20.22 O 19.56 CB 20.91 CG 20.33 CD1 19.08 CD2 20.44
A CYS H 10 -80.3 -44.7 N 23.97 CA 25.31 C 25.51 O 26.06 CB 26.66 SG 27.31
A GLN H 37 -80.8 -54.7 N 26.52 CA 27.61 C 28.88 O 27.76 CB 26.49 CG 28.36 CD 31.33 OE1 30.61 NE2 30.65
A ALA T 39 -77.2 -25.4 N 26.8 CA 27.52 C 27.2 O 27.62 CB 28.6
A HIS T 48 -118.9 -2.3 N 27.94 CA 28.0 C 27.93 O 28.28 CB 28.78 CG 27.8 ND1 29.82 CD2 28.34 CE1 30.3 NE2 30.77
A GLY - 12 80.2 8.5 N 24.07 CA 24.41 C 24.45 O 23.71
A LEU - 2 -74.2 151.8 N 21.52 CA 22.75 C 24.06 O 24.68 CB 23.33 CG 23.1 CD1 23.62 CD2 23.88
A THR - 44 -82.5 158.6 N 25.46 CA 24.71 C 25.19 O 24.77 CB 24.9 OG1 25.1 CG2 24.71
A PRO H 50 -58.3 -34.0 N 24.14 CA 25.39 C 24.38 O 24.55 CB 25.53 CG 27.09 CD 25.52
A GLU H 115 -59.6 -40.8 N 26.77 CA 28.35 C 27.87 O 26.89 CB 28.71 CG 30.82 CD 32.16 OE1 30.13 OE2 36.53
A GLN H 42 -66.5 -43.0 N 22.9 CA 22.31 C 21.61 O 22.61 CB 21.7 CG 21.5 CD 23.69 OE1 22.34 NE2 21.87
A VAL H 0 -61.0 -43.1 N 19.37 CA 19.2 C 21.28 O 20.38 CB 18.73 CG1 20.22 CG2 19.73
A VAL H 13 -62.0 -43.1 N 20.3 CA 21.98 C 21.11 O 21.22 CB 21.2 CG1 21.26 CG2 22.36
A ALA H 44 -61.6 -38.9 N 22.2 CA 21.56 C 22.73 O 21.22 CB 22.12
A ILE H 0 -69.4 -42.6 N 20.06 CA 20.13 C 20.38 O 20.64 CB 19.36 CG1 21.09 CG2 20.12 CD1 19.78
A ALA H 0 -65.0 -28.1 N 17.01 CA 18.66 C 18.27 O 19.45 CB 17.82
A SER S 22 -85.1 51.8 N 22.01 CA 24.14 C 24.26 O 24.3 CB 22.16 OG 24.67
A ASN S 32 -146.8 155.9 N 23.82 CA 23.08 C 24.33 O 24.0 CB 23.59 CG 24.38 OD1 26.08 ND2 23.78
A GLY T 31 -56.0 145.1 N 22.82 CA 21.75 C 20.75 O 22.01
A GLY T 44 68.4 23.2 N 23.65 CA 23.59 C 23.75 O 23.1
A GLY H 4 -56.2 -41.6 N 21.38 CA 20.5 C 20.72 O 20.74
A LYS H 54 -56.3 -43.1 N 17.73 CA 17.94 C 17.68 O 17.7 CB 17.94 CG 19.13 CD 19.96 CE 22.81 NZ 24.03
A GLN H 79 -66.3 -38.1 N 19.29 CA 19.29 C 20.07 O 20.39 CB 20.73 CG 21.18 CD 23.21 OE1 22.19 NE2 21.86
A ALA H 2 -67.3 -43.6 N 17.36 CA 17.71 C 17.75 O 17.2 CB 17.03
A LEU H 0 -60.1 -47.7 N 16.61 CA 16.62 C 17.03 O 16.8 CB 16.67 CG 16.51 CD1 16.63 CD2 16.35
A GLU H 66 -64.5 -36.6 N 22.91 CA 24.21 C 24.4 O 23.63 CB 23.62 CG 25.44 CD 27.26 OE1 26.32 OE2 27.57
A THR H 1 -72.6 -38.4 N 22.43 CA 21.88 C 23.16 O 22.28 CB 22.55 OG1 22.57 CG2 21.72
A VAL H 1 -62.7 -43.2 N 22.9 CA 23.67 C 22.97 O 23.31 CB 23.09 CG1 25.51 CG2 22.52
A GLN H 64 -54.9 -40.6 N 25.31 CA 26.53 C 27.85 O 27.28 CB 25.98 CG 26.85 CD 30.19 OE1 29.11 NE2 29.25
A ARG H 125 -81.6 -37.2 N 34.19 CA 34.86 C 34.58 O 35.41 CB 34.43 CG 38.94 CD 39.81 NE 38.66 CZ 39.43 NH1 38.59 NH2 38.09
A LEU H 4 -100.3 -11.7 N 23.46 CA 24.35 C 25.67 O 24.01 CB 23.8 CG 26.26 CD1 25.66 CD2 25.13
A LEU H 5 -55.4 -52.5 N 25.87 CA 26.13 C 27.71 O 26.33 CB 26.1 CG 29.4 CD1 28.37 CD2 30.24
A PRO H 46 -66.8 -32.7 N 32.61 CA 34.15 C 33.34 O 31.83 CB 35.93 CG 35.32 CD 33.21
A VAL I 53 -63.9 -46.9 N 31.36 CA 31.67 C 31.48 O 30.14 CB 31.92 CG1 32.08 CG2 32.43
A LEU I 0 -71.8 -37.5 N 25.17 CA 25.06 C 25.56 O 24.64 CB 24.53 CG 24.94 CD1 24.73 CD2 25.92
A CYS I 30 -74.8 -50.1 N 26.39 CA 27.92 C 29.79 O 30.09 CB 28.77 SG 27.86
A GLN I 133 -77.7 -40.7 N 36.59 CA 40.25 C 40.67 O 40.79 CB 40.98 CG 40.59 CD 42.64 OE1 42.01 NE2 41.98
A ALA I 71 -79.2 -32.2 N 31.31 CA 33.37 C 34.27 O 32.31 CB 33.17
A HIS H 58 -121.7 0.2 N 42.91 CA 43.81 C 42.46 O 46.18 CB 43.15 CG 44.45 ND1 45.29 CD2 45.41 CE1 44.61 NE2 47.97
A GLY - 59 71.7 20.6 N 34.03 CA 35.58 C 35.53 O 35.47
A LEU - 7 -75.7 147.3 N 29.69 CA 29.62 C 30.48 O 30.19 CB 29.16 CG 29.35 CD1 30.48 CD2 32.5
A THR - 58 -82.4 157.8 N 32.46 CA 31.67 C 30.95 O 30.59 CB 32.58 OG1 31.36 CG2 31.95
A PRO H 58 -57.9 -32.8 N 29.95 CA 30.35 C 29.88 O 29.07 CB 29.74 CG 31.97 CD 32.66
A GLN H 142 -61.1 -41.5 N 26.89 CA 28.8 C 28.08 O 27.7 CB 30.79 CG 32.86 CD 33.44 OE1 33.9 NE2 34.63
A GLN H 46 -69.3 -39.4 N 24.09 CA 24.6 C 23.1 O 22.98 CB 23.32 CG 25.12 CD 26.08 OE1 26.31 NE2 26.08
A VAL H 0 -62.6 -43.9 N 18.95 CA 19.86 C 20.76 O 19.15 CB 19.52 CG1 20.38 CG2 20.76
A VAL H 12 -61.8 -39.1 N 22.92 CA 21.95 C 22.83 O 22.37 CB 22.61 CG1 23.29 CG2 22.44
A ALA H 39 -61.9 -41.0 N 23.38 CA 24.53 C 25.23 O 25.41 CB 23.94
A ILE H 0 -67.6 -40.0 N 20.2 CA 19.46 C 19.66 O 20.97 CB 19.76 CG1 20.25 CG2 18.93 CD1 20.52
A ALA H 0 -74.6 -28.6 N 22.16 CA 24.0 C 25.37 O 26.1 CB 23.88
A SER S 26 -81.4 55.4 N 32.96 CA 33.83 C 35.27 O 36.59 CB 33.39 OG 32.79
A ASN S 33 -154.4 158.9 N 39.5 CA 38.17 C 39.78 O 36.48 CB 40.62 CG 38.34 OD1 43.47 ND2 37.78
A GLY T 48 -59.0 150.9 N 29.57 CA 29.73 C 29.89 O 26.69
A GLY T 42 62.7 27.5 N 28.42 CA 26.89 C 27.71 O 26.14
A GLY H 3 -56.4 -48.7 N 24.32 CA 19.68 C 19.65 O 19.21
A LYS H 48 -55.1 -45.9 N 20.09 CA 20.16 C 20.88 O 20.45 CB 22.64 CG 22.43 CD 24.45 CE 28.31 NZ 30.57
A GLN H 70 -65.8 -39.3 N 19.52 CA 20.7 C 21.05 O 20.36 CB 21.32 CG 21.11 CD 23.91 OE1 23.78 NE2 24.26
A ALA H 3 -67.9 -40.3 N 18.44 CA 19.01 C 20.06 O 19.64 CB 18.76
A LEU H 0 -64.0 -46.0 N 21.08 CA 22.58 C 21.06 O 21.69 CB 20.27 CG 21.62 CD1 21.75 CD2 20.72
A GLU H 50 -67.9 -31.3 N 25.25 CA 25.94 C 26.6 O 25.49 CB 26.05 CG 25.83 CD 27.94 OE1 29.41 OE2 31.13
A THR H 5 -75.2 -33.8 N 22.46 CA 23.42 C 24.32 O 24.36 CB 24.33 OG1 24.09 CG2 23.14
A VAL H 0 -66.4 -43.6 N 25.17 CA 25.56 C 27.5 O 27.41 CB 27.48 CG1 25.87 CG2 25.45
A GLN H 71 -57.7 -49.2 N 30.74 CA 31.71 C 33.38 O 30.76 CB 31.62 CG 34.02 CD 35.53 OE1 37.38 NE2 34.44
A ARG H 127 -67.8 -41.4 N 29.74 CA 32.26 C 34.49 O 32.96 CB 32.12 CG 34.47 CD 34.22 NE 34.99 CZ 35.34 NH1 36.05 NH2 34.92
A LEU H 4 -100.0 -18.1 N 27.28 CA 27.44 C 27.93 O 27.89 CB 26.7 CG 27.64 CD1 26.0 CD2 30.61
A LEU H 5 -48.6 -51.3 N 29.05 CA 30.88 C 32.89 O 33.26 CB 29.84 CG 33.34 CD1 32.81 CD2 33.26
A PRO H 55 -59.3 -49.0 N 36.48 CA 36.44 C 38.47 O 39.56 CB 37.45 CG 38.53 CD 35.27
A VAL H 63 -61.7 -41.9 N 42.65 CA 42.34 C 44.22 O 45.08 CB 45.78 CG1 45.82 CG2 46.27
A LEU H 0 -72.1 -33.4 N 34.45 CA 34.55 C 36.22 O 36.99 CB 32.41 CG 31.47 CD1 34.82 CD2 32.37
A CYS H 32 -91.9 15.2 N 39.22 CA 41.02 C 45.43 O 44.86 CB 40.72 SG 40.39
A GLN H 149 -129.1 -63.7 N 64.69 CA 66.31 C 68.37 O 71.89 CB 66.32 CG 68.1 CD 67.67 OE1 67.38 NE2 66.64
A ALA H 78 -74.5 -20.0 N 78.25 CA 79.99 C 80.87 O 79.28 CB 79.29
A HIS T 46 -120.2 6.9 N 91.76 CA 91.45 C 90.36 O 90.77 CB 90.13 CG 88.34 ND1 90.71 CD2 88.72 CE1 88.63 NE2 88.57
A GLY - 61 52.4 22.2 N 71.08 CA 70.11 C 71.89 O 70.63
A LEU - 4 -75.8 143.9 N 51.79 CA 48.81 C 47.88 O 47.18 CB 46.12 CG 48.84 CD1 47.16 CD2 46.68
A THR - 61 -87.7 158.5 N 45.02 CA 44.61 C 44.25 O 43.12 CB 46.92 OG1 45.13 CG2 48.41
A PRO H 63 -56.0 -39.0 N 42.32 CA 42.62 C 43.39 O 41.6 CB 42.54 CG 45.59 CD 43.91
A GLN H 148 -57.0 -41.6 N 34.19 CA 35.24 C 33.83 O 32.48 CB 34.59 CG 35.57 CD 34.75 OE1 33.28 NE2 36.11
A GLN H 44 -68.4 -43.9 N 32.93 CA 36.61 C 33.4 O 33.5 CB 34.84 CG 37.03 CD 37.45 OE1 38.02 NE2 36.39
A VAL H 0 -60.8 -46.1 N 29.42 CA 28.0 C 28.62 O 25.59 CB 28.78 CG1 26.27 CG2 27.92
A VAL H 8 -58.4 -43.9 N 26.75 CA 27.52 C 27.42 O 26.71 CB 27.56 CG1 27.12 CG2 27.81
A ALA H 29 -61.8 -44.6 N 26.38 CA 26.76 C 26.22 O 26.06 CB 27.39
A ILE H 0 -60.2 -40.2 N 24.84 CA 24.61 C 24.3 O 25.46 CB 24.89 CG1 24.37 CG2 24.37 CD1 25.79
A ALA H 1 -76.9 -27.5 N 25.88 CA 25.52 C 26.82 O 26.19 CB 24.3
A SER H 26 -102.0 -7.5 N 31.34 CA 33.82 C 33.65 O 34.43 CB 31.54 OG 35.44
A ASN S 79 -91.9 6.2 N 41.24 CA 41.8 C 40.46 O 40.85 CB 41.71 CG 42.85 OD1 45.83 ND2 40.33
A GLY S 22 110.2 -28.5 N 33.91 CA 34.91 C 35.44 O 35.76
A GLY - 8 -59.1 -29.8 N 28.65 CA 33.73 C 34.64 O 29.47
A GLY H 9 46.7 -147.0 N 24.64 CA 21.71 C 22.55 O 20.91
A LYS H 61 -54.7 -41.8 N 20.45 CA 21.22 C 22.15 O 21.25 CB 21.61 CG 21.21 CD 21.03 CE 24.23 NZ 25.15
A GLN H 80 -65.4 -42.7 N 18.47 CA 18.59 C 20.63 O 19.37 CB 19.5 CG 19.04 CD 21.53 OE1 22.12 NE2 20.21
A ALA H 0 -62.1 -45.8 N 19.01 CA 18.8 C 20.44 O 20.01 CB 20.12
A LEU H 0 -59.8 -50.0 N 20.18 CA 20.62 C 23.14 O 21.81 CB 19.72 CG 22.42 CD1 20.95 CD2 21.78
A GLU H 47 -63.0 -34.1 N 25.67 CA 25.93 C 27.27 O 26.6 CB 24.93 CG 26.38 CD 27.01 OE1 26.92 OE2 26.95
A THR H 2 -73.5 -36.5 N 22.91 CA 23.1 C 24.2 O 25.85 CB 22.53 OG1 23.16 CG2 22.33
A VAL H 1 -61.9 -42.7 N 25.09 CA 25.61 C 26.65 O 26.55 CB 26.17 CG1 27.24 CG2 25.93
A GLN H 63 -55.4 -46.5 N 33.13 CA 34.14 C 36.03 O 35.6 CB 35.46 CG 37.36 CD 39.26 OE1 39.6 NE2 40.76
A ARG H 119 -66.7 -47.7 N 27.59 CA 26.53 C 29.26 O 28.04 CB 27.08 CG 27.07 CD 27.43 NE 26.81 CZ 26.29 NH1 25.84 NH2 25.91
A LEU H 9 -103.8 -9.6 N 26.09 CA 25.39 C 27.8 O 28.42 CB 25.18 CG 25.78 CD1 24.8 CD2 26.21
A LEU H 8 -55.2 -53.9 N 28.79 CA 30.01 C 32.66 O 32.46 CB 31.03 CG 33.4 CD1 33.17 CD2 34.58
A PRO H 45 -67.8 -35.9 N 31.84 CA 34.61 C 33.64 O 34.64 CB 34.5 CG 35.02 CD 32.72
A VAL H 58 -59.3 -52.7 N 34.12 CA 34.6 C 37.22 O 35.71 CB 35.24 CG1 35.52 CG2 36.23
A LEU H 0 -63.9 -44.0 N 30.92 CA 31.37 C 31.96 O 33.61 CB 31.34 CG 30.48 CD1 31.33 CD2 32.16
A CYS H 30 -60.1 -61.5 N 39.43 CA 41.54 C 44.8 O 42.96 CB 41.58 SG 43.77
A GLN H 167 -60.5 -51.1 N 56.09 CA 55.88 C 56.77 O 58.96 CB 56.39 CG 55.4 CD 58.32 OE1 60.72 NE2 57.3
A ALA H 69 -74.3 -26.9 N 40.97 CA 42.65 C 42.86 O 41.25 CB 42.26
A HIS H 47 -123.8 -7.3 N 52.94 CA 54.81 C 54.19 O 55.62 CB 54.6 CG 55.41 ND1 55.95 CD2 53.86 CE1 56.68 NE2 56.35
A GLY - 58 77.2 10.3 N 41.14 CA 41.81 C 43.66 O 42.75
A LEU - 6 -61.9 152.2 N 42.22 CA 40.71 C 40.97 O 41.22 CB 40.84 CG 41.04 CD1 39.46 CD2 40.27
A THR - 58 -91.2 159.0 N 40.14 CA 39.46 C 38.83 O 37.69 CB 41.61 OG1 40.5 CG2 39.88
A PRO H 61 -58.7 -36.1 N 39.7 CA 40.8 C 41.71 O 39.54 CB 40.49 CG 41.77 CD 42.16
A GLN H 142 -57.6 -43.0 N 41.99 CA 41.33 C 38.92 O 38.67 CB 43.11 CG 44.51 CD 44.51 OE1 46.34 NE2 43.83
A GLN H 28 -65.0 -42.4 N 35.02 CA 36.28 C 36.14 O 32.66 CB 37.7 CG 37.7 CD 39.68 OE1 37.71 NE2 37.73
A VAL H 0 -64.1 -41.6 N 30.11 CA 29.94 C 29.81 O 27.76 CB 29.43 CG1 28.12 CG2 28.09
A VAL H 14 -61.3 -41.1 N 27.35 CA 27.93 C 28.89 O 27.39 CB 29.53 CG1 28.9 CG2 29.82
A ALA H 40 -64.5 -42.1 N 27.63 CA 27.41 C 27.9 O 25.69 CB 28.53
A ILE H 0 -63.7 -38.1 N 26.19 CA 25.6 C 24.62 O 24.06 CB 24.58 CG1 27.22 CG2 24.23 CD1 27.9
A ALA H 0 -71.6 -28.3 N 21.15 CA 22.04 C 22.59 O 21.13 CB 20.84
A SER S 14 -83.9 51.8 N 27.5 CA 27.84 C 30.05 O 28.67 CB 28.52 OG 30.48
A ASN S 27 -149.1 170.2 N 23.8 CA 23.55 C 26.59 O 23.8 CB 24.74 CG 26.59 OD1 27.48 ND2 25.68
A LYS T 145 -62.6 135.0 N 26.95 CA 27.26 C 26.84 O 25.61 CB 25.19 CG 25.1 CD 25.21 CE 25.16 NZ 25.37
A GLY T 38 72.0 17.4 N 20.85 CA 20.58 C 21.34 O 21.73
A GLY H 0 -46.0 -39.3 N 19.58 CA 19.6 C 20.4 O 19.87
A LYS H 56 -58.7 -44.9 N 21.71 CA 20.11 C 21.43 O 21.98 CB 21.15 CG 21.18 CD 23.26 CE 24.47 NZ 25.31
A GLN H 69 -64.4 -42.1 N 22.09 CA 22.21 C 23.39 O 23.44 CB 23.43 CG 22.92 CD 24.11 OE1 24.99 NE2 23.45
A ALA H 1 -60.7 -49.2 N 24.62 CA 25.56 C 25.83 O 26.82 CB 24.59
A LEU H 0 -56.9 -53.4 N 23.51 CA 24.8 C 25.46 O 26.54 CB 23.06 CG 25.65 CD1 24.7 CD2 25.67
A GLU H 52 -61.8 -34.5 N 26.48 CA 27.14 C 28.85 O 28.14 CB 27.79 CG 25.85 CD 26.49 OE1 27.39 OE2 28.27
A THR H 3 -71.1 -37.8 N 25.85 CA 26.5 C 26.86 O 28.25 CB 27.96 OG1 26.72 CG2 27.39
A VAL H 0 -62.6 -43.5 N 27.04 CA 29.31 C 30.42 O 31.71 CB 30.1 CG1 32.29 CG2 29.1
A GLN H 84 -58.3 -41.8 N 34.19 CA 34.44 C 35.95 O 35.93 CB 34.82 CG 38.13 CD 36.32 OE1 36.71 NE2 40.8
A ARG H 125 -71.6 -47.2 N 41.05 CA 41.36 C 43.99 O 42.18 CB 42.63 CG 43.32 CD 44.35 NE 44.64 CZ 47.58 NH1 47.88 NH2 45.95
A LEU H 6 -101.9 -22.9 N 33.21 CA 32.76 C 33.64 O 34.71 CB 30.96 CG 35.71 CD1 36.02 CD2 33.08
A LEU H 8 -47.8 -49.7 N 32.7 CA 34.17 C 38.88 O 37.37 CB 34.07 CG 38.55 CD1 37.69 CD2 40.93
A PRO H 65 -65.2 -32.9 N 47.92 CA 46.85 C 47.99 O 50.3 CB 47.69 CG 46.88 CD 48.11
A VAL H 61 -67.4 -36.2 N 34.85 CA 35.85 C 39.4 O 39.0 CB 37.28 CG1 35.81 CG2 36.83
A LEU H 18 -80.6 -35.8 N 41.02 CA 42.65 C 44.12 O 45.14 CB 40.26 CG 40.7 CD1 40.55 CD2 40.64
A CYS S 27 -89.0 6.2 N 55.67 CA 58.23 C 61.87 O 63.36 CB 55.71 SG 58.39
A GLN G 128 -77.0 161.6 N 84.97 CA 87.83 C 90.18 O 89.71 CB 87.18 CG 85.41 CD 87.05 OE1 86.88 NE2 84.63
A ALA G 92 59.8 30.7 N 99.24 CA 99.2 C 99.78 O 99.65 CB 97.91
A HIS G 191 44.1 56.9 N 99.55 CA 99.22 C 98.88 O 100.02 CB 98.75 CG 99.84 ND1 99.36 CD2 98.99 CE1 99.03 NE2 99.94
A GLY - 40 -79.6 -121.3 N 86.61 CA 84.65 C 83.47 O 83.64
A LEU S 11 -69.6 150.7 N 47.4 CA 43.72 C 45.99 O 47.28 CB 44.47 CG 43.98 CD1 45.99 CD2 42.99
A THR - 57 -80.8 155.8 N 42.42 CA 43.47 C 44.47 O 42.99 CB 44.21 OG1 43.57 CG2 45.93
A PRO H 41 -49.1 -48.9 N 52.15 CA 51.29 C 48.69 O 47.18 CB 50.17 CG 50.25 CD 50.25
A GLN H 114 -51.7 -45.1 N 45.44 CA 45.69 C 42.63 O 42.77 CB 45.88 CG 48.47 CD 46.99 OE1 48.22 NE2 47.34
A GLN H 44 -65.7 -39.3 N 37.4 CA 36.89 C 38.22 O 34.58 CB 36.74 CG 38.71 CD 38.68 OE1 38.62 NE2 39.05
A VAL H 0 -62.5 -42.1 N 36.17 CA 35.89 C 33.22 O 32.56 CB 37.2 CG1 34.28 CG2 36.68
A VAL H 13 -62.0 -36.7 N 29.06 CA 30.4 C 32.25 O 30.1 CB 31.91 CG1 32.58 CG2 33.41
A ALA H 39 -67.7 -45.3 N 31.89 CA 34.06 C 30.38 O 32.27 CB 31.88
A ILE H 0 -61.7 -47.1 N 26.76 CA 26.87 C 26.31 O 26.06 CB 26.57 CG1 27.77 CG2 25.14 CD1 29.18
A ALA H 0 -62.3 -29.2 N 25.7 CA 26.84 C 25.34 O 25.72 CB 26.16
A SER T 27 -78.4 33.0 N 31.61 CA 30.32 C 31.1 O 30.44 CB 31.6 OG 33.06
A ASN S 33 -135.9 163.0 N 30.35 CA 29.69 C 30.22 O 28.4 CB 28.42 CG 29.28 OD1 29.31 ND2 30.11
A GLY T 12 -54.5 136.8 N 24.29 CA 24.04 C 25.21 O 25.35
A GLY T 36 67.9 24.5 N 29.42 CA 29.98 C 28.7 O 30.01
A GLY H 2 -49.0 -40.5 N 26.02 CA 26.13 C 27.61 O 26.52
A LYS H 56 -55.8 -46.7 N 24.68 CA 25.14 C 26.77 O 25.82 CB 24.15 CG 25.27 CD 24.77 CE 29.12 NZ 29.87
A GLN H 72 -63.6 -41.4 N 20.78 CA 20.88 C 21.23 O 23.6 CB 22.12 CG 22.53 CD 23.01 OE1 22.67 NE2 21.21
A ALA H 3 -63.0 -49.0 N 26.62 CA 27.01 C 27.78 O 28.54 CB 26.18
A LEU H 0 -52.2 -55.4 N 27.98 CA 29.07 C 29.74 O 30.31 CB 29.14 CG 30.94 CD1 30.17 CD2 31.61
A GLU H 59 -64.2 -32.7 N 29.53 CA 31.45 C 33.35 O 30.65 CB 30.83 CG 29.64 CD 31.38 OE1 32.46 OE2 33.25
A THR H 5 -74.4 -38.4 N 29.42 CA 29.15 C 29.48 O 32.9 CB 30.27 OG1 29.56 CG2 29.35
A VAL H 0 -56.5 -51.2 N 29.71 CA 32.19 C 35.1 O 35.79 CB 32.15 CG1 36.85 CG2 31.96
A GLN H 86 -54.6 -37.5 N 45.79 CA 45.61 C 46.76 O 47.88 CB 45.79 CG 48.21 CD 49.39 OE1 49.8 NE2 49.65
A ARG H 144 -76.6 -41.4 N 46.59 CA 46.73 C 47.67 O 48.8 CB 46.53 CG 49.53 CD 48.77 NE 52.95 CZ 53.85 NH1 54.2 NH2 49.47
A LEU H 3 -104.4 -20.3 N 37.31 CA 38.33 C 38.09 O 40.13 CB 37.49 CG 37.45 CD1 36.98 CD2 38.68
A LEU H 35 -42.8 -53.8 N 42.91 CA 45.84 C 49.16 O 48.92 CB 46.33 CG 48.6 CD1 50.87 CD2 47.65
A PRO H 78 -68.1 -40.4 N 49.19 CA 50.62 C 51.08 O 50.26 CB 49.87 CG 49.96 CD 48.18
A VAL H 45 -68.8 -37.7 N 47.38 CA 47.96 C 50.59 O 49.95 CB 48.72 CG1 48.9 CG2 48.32
A LEU H 0 -68.6 -41.7 N 44.32 CA 45.04 C 46.2 O 44.68 CB 40.18 CG 42.31 CD1 40.18 CD2 40.81
A CYS H 31 -71.6 -41.5 N 57.81 CA 58.62 C 60.18 O 60.21 CB 58.6 SG 58.11
A GLN H 163 -80.2 -68.3 N 78.46 CA 79.61 C 80.67 O 82.43 CB 81.71 CG 84.85 CD 86.15 OE1 85.02 NE2 88.78
A ALA H 64 -65.2 -28.1 N 60.37 CA 60.89 C 60.48 O 61.23 CB 59.02
A HIS S 50 -112.0 -6.8 N 56.42 CA 57.83 C 56.67 O 55.65 CB 56.54 CG 56.11 ND1 58.2 CD2 56.26 CE1 56.42 NE2 56.12
A GLY - 59 75.3 19.0 N 60.27 CA 59.76 C 59.26 O 59.38
A LEU - 6 -79.4 152.3 N 43.7 CA 42.95 C 43.8 O 43.06 CB 44.78 CG 42.75 CD1 41.66 CD2 40.98
A THR - 57 -77.2 156.1 N 43.6 CA 44.4 C 46.04 O 45.13 CB 42.72 OG1 44.04 CG2 46.84
A PRO H 66 -58.2 -37.6 N 55.15 CA 54.19 C 52.34 O 51.43 CB 56.1 CG 56.62 CD 56.68
A GLN H 146 -54.8 -40.5 N 40.82 CA 39.27 C 39.87 O 38.62 CB 43.05 CG 44.39 CD 45.54 OE1 45.83 NE2 45.55
A GLN H 31 -71.8 -38.7 N 40.36 CA 39.16 C 39.4 O 38.29 CB 39.61 CG 41.43 CD 41.02 OE1 41.0 NE2 41.77
A VAL H 0 -60.9 -45.5 N 34.68 CA 34.55 C 32.87 O 32.97 CB 35.38 CG1 35.42 CG2 36.14
A VAL H 12 -56.2 -45.0 N 34.13 CA 35.17 C 35.08 O 33.22 CB 35.25 CG1 35.24 CG2 36.31
A ALA H 39 -56.3 -52.1 N 38.54 CA 38.73 C 35.24 O 35.18 CB 39.01
A ILE H 0 -60.1 -39.3 N 29.53 CA 29.89 C 30.69 O 28.36 CB 30.84 CG1 29.87 CG2 29.38 CD1 28.81
A ALA H 0 -74.6 -22.3 N 28.8 CA 28.95 C 28.93 O 28.68 CB 27.88
A SER S 22 -88.4 48.6 N 28.73 CA 27.95 C 29.2 O 27.55 CB 30.57 OG 29.92
A HIS S 55 -147.7 158.5 N 26.91 CA 26.7 C 26.27 O 26.16 CB 25.29 CG 26.68 ND1 28.07 CD2 28.56 CE1 27.82 NE2 29.21
A ASP T 88 -49.8 136.1 N 21.37 CA 23.16 C 24.26 O 22.98 CB 23.12 CG 24.66 OD1 23.56 OD2 24.97
A GLY T 37 74.8 20.2 N 24.57 CA 23.87 C 23.97 O 24.35
A GLY H 3 -49.3 -36.5 N 24.07 CA 24.92 C 25.83 O 24.47
A LYS H 55 -60.5 -45.0 N 25.5 CA 25.27 C 27.15 O 26.77 CB 25.51 CG 26.52 CD 28.31 CE 29.45 NZ 31.95
A GLN H 73 -65.0 -44.4 N 23.22 CA 23.06 C 23.39 O 24.27 CB 23.75 CG 23.63 CD 25.36 OE1 24.42 NE2 23.83
A ALA H 3 -62.9 -47.8 N 22.32 CA 21.5 C 24.08 O 23.59 CB 22.27
A LEU H 0 -56.7 -46.8 N 27.28 CA 26.83 C 27.91 O 27.58 CB 27.56 CG 29.81 CD1 29.18 CD2 30.86
A GLU H 53 -66.9 -32.6 N 30.58 CA 31.24 C 32.18 O 30.0 CB 31.82 CG 33.39 CD 35.89 OE1 35.56 OE2 35.62
A THR H 3 -75.5 -34.3 N 24.44 CA 23.59 C 24.43 O 26.48 CB 23.93 OG1 23.49 CG2 24.29
A VAL H 0 -65.1 -46.0 N 26.5 CA 26.43 C 29.66 O 29.07 CB 28.7 CG1 29.46 CG2 25.83
A GLN H 59 -54.3 -44.0 N 35.19 CA 36.53 C 37.65 O 37.11 CB 38.3 CG 40.6 CD 42.75 OE1 41.86 NE2 42.67
A ARG H 123 -74.1 -40.8 N 37.52 CA 37.46 C 39.81 O 40.38 CB 37.58 CG 40.81 CD 43.14 NE 42.77 CZ 45.05 NH1 40.67 NH2 44.91
A LEU H 3 -107.9 -14.7 N 29.94 CA 31.22 C 31.29 O 32.77 CB 31.09 CG 31.42 CD1 29.54 CD2 32.42
A LEU H 9 -53.2 -50.6 N 38.05 CA 37.83 C 40.22 O 39.71 CB 37.28 CG 39.07 CD1 40.88 CD2 40.56
A PRO H 41 -54.2 -46.4 N 43.16 CA 43.39 C 43.02 O 43.02 CB 45.26 CG 45.02 CD 43.66
A VAL H 56 -72.1 -41.4 N 38.06 CA 35.35 C 37.46 O 36.12 CB 39.55 CG1 37.34 CG2 36.39
A LEU H 0 -64.1 -38.9 N 29.55 CA 28.92 C 29.63 O 29.92 CB 28.54 CG 28.28 CD1 27.21 CD2 28.63
A CYS H 19 -69.0 -51.1 N 35.54 CA 37.18 C 38.15 O 38.82 CB 34.8 SG 38.72
A GLN H 158 -79.2 -47.0 N 37.03 CA 38.48 C 36.99 O 37.28 CB 36.48 CG 40.84 CD 39.07 OE1 38.8 NE2 40.3
A ALA H 70 -84.0 -24.1 N 38.89 CA 38.12 C 39.18 O 39.28 CB 40.72
A HIS H 53 -121.1 -4.9 N 38.39 CA 39.21 C 38.54 O 38.82 CB 37.71 CG 37.83 ND1 37.42 CD2 38.61 CE1 40.74 NE2 38.39
A GLY - 61 68.8 30.5 N 34.88 CA 33.31 C 34.85 O 33.63
A LEU - 9 -89.2 160.6 N 27.81 CA 27.87 C 26.59 O 27.26 CB 26.52 CG 26.89 CD1 26.65 CD2 27.77
A THR - 59 -84.1 159.2 N 33.17 CA 34.75 C 34.4 O 33.03 CB 33.11 OG1 33.65 CG2 34.1
A PRO H 44 -58.1 -35.0 N 32.17 CA 31.61 C 29.83 O 28.98 CB 33.21 CG 32.34 CD 31.75
A GLU H 111 -59.3 -38.5 N 39.42 CA 38.04 C 38.91 O 37.36 CB 41.0 CG 43.71 CD 45.32 OE1 43.36 OE2 46.17
A GLN H 40 -71.0 -42.0 N 25.75 CA 25.14 C 25.09 O 25.53 CB 25.77 CG 25.29 CD 26.07 OE1 26.89 NE2 25.23
A VAL H 0 -60.2 -45.0 N 26.7 CA 26.22 C 26.38 O 25.53 CB 26.36 CG1 26.89 CG2 27.99
A VAL H 13 -62.0 -41.2 N 25.76 CA 26.97 C 26.86 O 27.27 CB 28.97 CG1 27.51 CG2 27.42
A ALA H 44 -62.6 -42.9 N 31.65 CA 30.89 C 30.34 O 31.29 CB 31.98
A ILE H 0 -65.8 -42.3 N 23.62 CA 24.61 C 24.46 O 23.63 CB 24.28 CG1 22.82 CG2 22.2 CD1 23.03
A ALA H 0 -66.1 -27.1 N 25.05 CA 24.47 C 24.34 O 24.25 CB 23.81
A SER S 22 -87.7 51.5 N 25.72 CA 27.65 C 26.33 O 27.25 CB 29.3 OG 28.14
A ASN S 31 -147.5 163.7 N 25.81 CA 25.96 C 24.45 O 24.94 CB 26.19 CG 26.38 OD1 26.55 ND2 25.94
A GLY T 18 -59.0 137.2 N 24.24 CA 23.49 C 23.6 O 23.15
A GLY T 40 74.3 22.0 N 21.19 CA 19.93 C 21.24 O 20.26
A GLY H 2 -53.6 -37.8 N 20.86 CA 21.03 C 21.9 O 21.06
A LYS H 59 -57.3 -43.7 N 25.16 CA 25.98 C 24.88 O 24.74 CB 24.6 CG 26.55 CD 27.91 CE 29.96 NZ 34.26
A GLN H 70 -66.5 -43.0 N 20.49 CA 20.16 C 20.39 O 20.64 CB 19.89 CG 20.62 CD 22.01 OE1 22.3 NE2 20.72
A ALA H 3 -64.7 -42.5 N 19.56 CA 19.81 C 20.15 O 20.43 CB 19.7
A LEU H 0 -59.3 -47.4 N 20.62 CA 20.94 C 21.13 O 21.48 CB 20.87 CG 21.49 CD1 20.69 CD2 21.15
A GLU H 48 -68.0 -28.0 N 24.82 CA 26.36 C 27.03 O 26.01 CB 26.82 CG 26.35 CD 29.31 OE1 29.38 OE2 29.86
A THR H 2 -79.0 -37.1 N 22.35 CA 21.76 C 22.11 O 22.42 CB 22.47 OG1 22.2 CG2 21.9
A VAL H 0 -59.8 -44.6 N 20.72 CA 21.08 C 21.44 O 21.82 CB 21.01 CG1 21.43 CG2 20.78
A GLN H 61 -57.8 -45.6 N 29.09 CA 30.67 C 30.88 O 31.61 CB 31.49 CG 33.14 CD 35.89 OE1 36.89 NE2 37.48
A ARG H 138 -70.9 -35.9 N 32.63 CA 33.43 C 34.92 O 34.17 CB 34.11 CG 37.42 CD 39.06 NE 39.79 CZ 41.86 NH1 39.02 NH2 43.74
A LEU H 16 -110.0 -9.9 N 24.57 CA 26.56 C 26.09 O 26.86 CB 24.68 CG 29.63 CD1 28.42 CD2 26.02
A LEU H 8 -53.5 -46.7 N 28.78 CA 28.84 C 29.55 O 28.84 CB 29.69 CG 31.06 CD1 30.59 CD2 32.35
A PRO H 52 -69.5 -36.6 N 25.31 CA 27.19 C 26.33 O 26.33 CB 27.47 CG 29.99 CD 27.33
A VAL H 50 -72.5 -41.0 N 25.31 CA 25.42 C 25.96 O 25.95 CB 26.34 CG1 24.55 CG2 26.55
A LEU H 0 -61.4 -44.1 N 24.48 CA 24.33 C 24.77 O 24.93 CB 23.84 CG 25.85 CD1 26.2 CD2 23.58
A CYS H 32 -75.4 -52.5 N 26.62 CA 28.67 C 30.3 O 30.63 CB 28.9 SG 28.77
A GLN H 169 -76.9 -39.3 N 35.46 CA 37.28 C 36.75 O 38.46 CB 36.61 CG 38.61 CD 41.16 OE1 38.92 NE2 40.76
A ALA T 72 -93.9 -35.4 N 40.4 CA 41.41 C 42.53 O 41.27 CB 42.87
A HIS T 35 -100.4 -8.6 N 38.48 CA 39.57 C 39.54 O 41.0 CB 38.92 CG 40.18 ND1 40.44 CD2 40.24 CE1 40.62 NE2 41.39
A GLY - 57 84.6 6.0 N 35.83 CA 37.01 C 37.72 O 37.58
A LEU - 5 -73.0 152.5 N 26.83 CA 26.79 C 27.36 O 26.92 CB 26.02 CG 26.49 CD1 26.7 CD2 27.36
A THR - 57 -87.1 159.1 N 26.69 CA 26.9 C 27.27 O 26.73 CB 28.54 OG1 26.48 CG2 27.25
A PRO H 50 -57.7 -38.0 N 27.37 CA 26.15 C 26.58 O 26.28 CB 28.5 CG 28.69 CD 28.88
A GLU H 117 -56.3 -40.7 N 28.99 CA 30.07 C 30.26 O 27.14 CB 30.59 CG 33.13 CD 33.67 OE1 37.44 OE2 32.8
A GLN H 40 -71.2 -38.2 N 24.37 CA 24.03 C 23.65 O 23.54 CB 24.31 CG 24.61 CD 24.95 OE1 25.2 NE2 25.03
A VAL H 0 -64.8 -43.4 N 21.72 CA 21.41 C 21.06 O 20.67 CB 21.69 CG1 21.38 CG2 22.02
A VAL H 11 -62.9 -39.7 N 23.34 CA 23.07 C 24.28 O 23.59 CB 23.57 CG1 23.59 CG2 23.65
A ALA H 39 -64.7 -38.2 N 23.65 CA 23.56 C 23.07 O 23.72 CB 23.01
A ILE H 0 -68.4 -37.6 N 22.36 CA 23.25 C 23.05 O 23.68 CB 22.24 CG1 23.29 CG2 21.95 CD1 22.87
A ALA H 0 -71.6 -22.7 N 20.12 CA 19.91 C 19.66 O 19.4 CB 20.19
A SER S 25 -91.3 46.3 N 21.44 CA 23.22 C 22.3 O 21.97 CB 22.92 OG 23.4
A HIS S 54 -148.5 159.1 N 23.58 CA 24.55 C 23.61 O 23.81 CB 24.64 CG 26.32 ND1 25.26 CD2 23.88 CE1 27.35 NE2 26.36
A ASP T 95 -49.0 136.1 N 23.17 CA 24.12 C 24.44 O 24.44 CB 23.72 CG 25.18 OD1 23.35 OD2 25.56
A GLY T 41 77.6 9.2 N 20.6 CA 21.57 C 22.07 O 21.55
A GLY H 3 -41.6 -46.1 N 21.8 CA 22.9 C 22.22 O 21.11
A LYS H 57 -54.3 -49.2 N 22.38 CA 23.29 C 23.27 O 23.56 CB 22.68 CG 23.9 CD 24.06 CE 27.24 NZ 29.96
A GLN H 65 -61.9 -43.0 N 23.0 CA 23.17 C 23.22 O 23.54 CB 24.26 CG 23.45 CD 24.73 OE1 24.41 NE2 23.8
A ALA H 3 -63.1 -43.7 N 19.17 CA 19.38 C 19.79 O 20.02 CB 19.31
A LEU H 0 -60.5 -44.3 N 20.0 CA 20.41 C 20.56 O 20.91 CB 20.47 CG 20.46 CD1 20.43 CD2 20.86
A GLU H 51 -68.7 -39.0 N 28.73 CA 30.01 C 29.35 O 28.52 CB 29.02 CG 30.7 CD 31.41 OE1 32.46 OE2 32.35
A THR H 2 -66.8 -37.5 N 25.75 CA 25.62 C 26.42 O 25.71 CB 26.3 OG1 25.82 CG2 25.11
A VAL H 0 -64.7 -48.5 N 24.94 CA 23.7 C 26.41 O 25.92 CB 23.99 CG1 26.68 CG2 23.6
A GLN H 62 -52.7 -42.5 N 27.91 CA 29.94 C 30.62 O 30.61 CB 31.55 CG 32.82 CD 33.38 OE1 35.24 NE2 32.87
A ARG H 139 -72.6 -43.4 N 32.57 CA 33.66 C 34.0 O 33.67 CB 33.53 CG 34.14 CD 34.18 NE 34.97 CZ 34.14 NH1 35.81 NH2 35.0
A LEU H 17 -107.5 -12.1 N 29.29 CA 29.85 C 29.17 O 30.12 CB 29.19 CG 29.64 CD1 29.5 CD2 31.4
A LEU H 9 -47.8 -49.5 N 31.43 CA 32.73 C 33.27 O 32.54 CB 33.69 CG 35.16 CD1 36.04 CD2 35.93
A PRO H 57 -62.4 -43.6 N 29.91 CA 30.78 C 30.61 O 30.0 CB 31.39 CG 31.0 CD 28.47
A VAL I 54 -71.4 -37.3 N 33.65 CA 36.6 C 35.75 O 34.06 CB 35.97 CG1 38.01 CG2 37.87
A LEU I 0 -63.3 -40.7 N 29.39 CA 29.53 C 29.17 O 29.02 CB 27.98 CG 29.86 CD1 29.06 CD2 29.59
A CYS I 26 -86.2 -59.6 N 30.61 CA 32.23 C 33.38 O 34.82 CB 33.32 SG 35.08
A GLN I 186 -64.1 -49.4 N 38.8 CA 41.34 C 40.42 O 40.85 CB 41.4 CG 44.78 CD 44.89 OE1 44.47 NE2 45.5
A ALA I 64 -84.4 -21.9 N 41.07 CA 41.6 C 41.68 O 42.24 CB 40.55
A HIS T 57 -132.3 2.2 N 36.68 CA 37.93 C 37.39 O 38.04 CB 37.74 CG 38.08 ND1 37.54 CD2 38.9 CE1 39.75 NE2 38.8
A GLY - 58 73.8 21.6 N 33.33 CA 34.06 C 34.28 O 33.54
A LEU - 6 -74.8 151.2 N 30.21 CA 28.79 C 29.51 O 29.16 CB 30.35 CG 32.72 CD1 29.73 CD2 31.77
A THR - 57 -85.9 150.4 N 32.14 CA 31.3 C 32.09 O 31.92 CB 31.01 OG1 31.32 CG2 32.83
A PRO H 48 -49.1 -41.3 N 30.05 CA 30.55 C 29.31 O 29.16 CB 32.12 CG 31.54 CD 31.58
A GLN H 118 -57.8 -40.0 N 31.07 CA 31.73 C 30.86 O 30.23 CB 32.15 CG 36.33 CD 37.01 OE1 36.63 NE2 42.87
A GLN H 35 -67.6 -41.9 N 26.25 CA 26.8 C 26.52 O 24.67 CB 26.92 CG 27.62 CD 27.75 OE1 26.66 NE2 27.79
A VAL H 0 -61.2 -45.5 N 23.97 CA 23.64 C 23.5 O 23.11 CB 23.73 CG1 24.56 CG2 24.27
A VAL H 13 -61.2 -39.8 N 23.28 CA 23.95 C 25.86 O 23.82 CB 23.6 CG1 23.43 CG2 23.87
A ALA H 42 -64.3 -43.1 N 22.76 CA 23.29 C 22.36 O 23.81 CB 24.14
A ILE H 1 -61.5 -43.1 N 25.52 CA 25.18 C 26.85 O 25.45 CB 25.82 CG1 25.52 CG2 23.79 CD1 27.05
A ALA H 0 -80.2 -12.6 N 22.06 CA 23.19 C 22.76 O 22.53 CB 22.96
A SER S 23 -90.3 46.7 N 26.92 CA 27.64 C 28.46 O 29.38 CB 29.12 OG 28.46
A ASN S 67 -145.2 161.5 N 28.84 CA 30.69 C 29.76 O 28.19 CB 28.43 CG 31.52 OD1 31.97 ND2 31.79
A GLY T 50 -58.9 146.6 N 23.66 CA 23.43 C 21.63 O 21.78
A GLY T 42 74.2 17.6 N 22.71 CA 24.98 C 25.34 O 24.13
A GLY H 3 -53.9 -46.7 N 23.48 CA 22.49 C 23.19 O 22.51
A ARG H 96 -61.8 -50.8 N 28.49 CA 28.78 C 29.13 O 28.09 CB 28.93 CG 29.83 CD 31.04 NE 34.98 CZ 36.56 NH1 35.48 NH2 34.87
A PRO H 26 -73.8 -22.1 N 25.87 CA 25.21 C 25.73 O 25.48 CB 25.8 CG 26.59 CD 26.27
A ALA H 2 -61.9 -45.8 N 24.37 CA 25.35 C 26.24 O 24.16 CB 23.61
A LEU H 0 -61.5 -41.1 N 24.59 CA 25.12 C 26.76 O 25.07 CB 23.15 CG 24.53 CD1 25.29 CD2 25.64
A GLU H 64 -69.6 -36.4 N 32.06 CA 32.38 C 33.01 O 32.75 CB 32.29 CG 32.06 CD 34.96 OE1 36.76 OE2 37.16
A SER H 21 -61.9 -45.9 N 30.97 CA 31.66 C 32.64 O 32.82 CB 32.29 OG 36.06
A ILE H 3 -57.9 -52.5 N 30.94 CA 30.52 C 32.15 O 32.05 CB 31.97 CG1 31.79 CG2 34.16 CD1 31.57
A VAL H 20 -56.5 -39.0 N 33.13 CA 33.14 C 35.02 O 35.03 CB 32.93 CG1 36.47 CG2 35.94
A ALA H 29 -63.9 -41.1 N 33.01 CA 34.34 C 35.11 O 35.38 CB 33.98
A GLN H 15 -71.4 -32.2 N 35.2 CA 36.51 C 37.49 O 37.95 CB 36.3 CG 37.23 CD 38.97 OE1 37.87 NE2 37.67
A LEU H 26 -77.4 -28.5 N 38.43 CA 39.07 C 41.82 O 42.64 CB 39.65 CG 39.91 CD1 39.73 CD2 41.9
A SER H 65 -94.5 -30.3 N 43.96 CA 44.21 C 46.76 O 46.36 CB 46.32 OG 47.68
A ARG S 167 -140.3 74.4 N 47.84 CA 47.96 C 49.91 O 48.49 CB 49.8 CG 50.64 CD 54.29 NE 55.91 CZ 54.99 NH1 55.09 NH2 53.64
A PRO - 86 -58.1 126.9 N 43.88 CA 43.98 C 45.35 O 45.02 CB 45.45 CG 44.9 CD 46.11
A ASP - 44 -88.0 123.5 N 47.99 CA 47.25 C 48.44 O 48.01 CB 48.67 CG 47.88 OD1 48.17 OD2 48.91
A PRO G 102 -53.7 -29.3 N 47.97 CA 47.02 C 46.45 O 46.94 CB 46.93 CG 47.84 CD 46.48
A ALA G 4 -55.2 -22.2 N 40.61 CA 42.77 C 43.31 O 42.03 CB 43.57
A LEU G 2 -113.4 -3.4 N 46.87 CA 45.74 C 47.92 O 44.43 CB 45.74 CG 47.65 CD1 44.45 CD2 44.92
A ALA T 71 -65.1 -14.0 N 55.64 CA 55.93 C 56.79 O 56.69 CB 57.75
A ALA T 60 -79.0 -11.4 N 47.33 CA 46.78 C 45.82 O 45.8 CB 43.85
A LEU S 11 -96.1 132.0 N 39.52 CA 38.79 C 38.18 O 38.36 CB 38.32 CG 39.53 CD1 40.39 CD2 40.43
A THR - 72 -68.4 165.0 N 26.55 CA 27.11 C 28.83 O 26.73 CB 27.25 OG1 26.2 CG2 28.72
A ASN H 56 -54.1 -43.4 N 34.86 CA 34.16 C 33.42 O 35.27 CB 33.16 CG 35.89 OD1 35.26 ND2 34.55
A ASP H 101 -60.1 -43.0 N 30.94 CA 29.7 C 31.2 O 30.53 CB 30.6 CG 35.64 OD1 33.92 OD2 38.32
A HIS H 26 -66.7 -44.6 N 30.58 CA 30.45 C 29.37 O 28.67 CB 30.52 CG 33.29 ND1 35.33 CD2 34.78 CE1 35.72 NE2 35.95
A LEU H 6 -58.0 -39.3 N 30.84 CA 31.77 C 31.16 O 31.5 CB 32.44 CG 34.73 CD1 34.2 CD2 34.58
A VAL H 12 -61.7 -46.0 N 24.38 CA 24.97 C 24.7 O 24.88 CB 25.27 CG1 24.61 CG2 23.31
A ALA H 46 -61.7 -43.3 N 25.2 CA 25.66 C 25.54 O 24.85 CB 24.9
A LEU H 1 -58.8 -50.3 N 28.61 CA 28.28 C 29.65 O 27.9 CB 28.54 CG 32.83 CD1 32.92 CD2 35.01
A ALA H 1 -59.1 -36.0 N 25.22 CA 27.2 C 27.34 O 26.7 CB 28.0
A CYS H 38 -74.5 -38.0 N 28.25 CA 29.08 C 31.74 O 32.36 CB 30.14 SG 30.99
A LEU H 75 -66.6 -42.5 N 35.95 CA 37.19 C 35.15 O 37.19 CB 34.89 CG 41.1 CD1 41.29 CD2 40.04
A GLY H 26 -152.2 19.7 N 28.62 CA 28.12 C 29.31 O 28.04
A GLY H 13 55.7 -155.0 N 27.42 CA 27.39 C 28.96 O 28.03
A ARG H 117 -51.3 -46.2 N 29.73 CA 30.15 C 33.04 O 32.14 CB 30.05 CG 32.53 CD 35.18 NE 33.87 CZ 33.76 NH1 33.85 NH2 32.98
A PRO H 87 -58.1 -42.1 N 35.77 CA 35.6 C 37.37 O 38.09 CB 35.97 CG 35.76 CD 35.65
A ALA H 6 -58.7 -44.3 N 30.93 CA 30.95 C 32.39 O 33.83 CB 30.34
A LEU H 4 -58.8 -49.2 N 34.04 CA 35.0 C 36.79 O 37.91 CB 35.88 CG 36.36 CD1 36.98 CD2 36.49
A ASP H 64 -59.7 -43.6 N 42.57 CA 44.79 C 43.27 O 46.65 CB 44.62 CG 45.77 OD1 47.57 OD2 45.81
A ALA H 46 -59.6 -41.0 N 44.3 CA 44.52 C 46.81 O 47.77 CB 43.49
A VAL H 4 -66.6 -36.6 N 40.95 CA 42.92 C 42.05 O 43.06 CB 42.57 CG1 41.46 CG2 41.17
A LYS H 62 -58.5 -46.9 N 50.62 CA 52.25 C 54.22 O 53.44 CB 52.13 CG 51.46 CD 52.51 CE 56.02 NZ 58.79
A LYS H 139 -58.6 -38.6 N 59.26 CA 60.96 C 61.12 O 61.41 CB 59.88 CG 60.63 CD 61.91 CE 63.92 NZ 60.27
A LEU H 45 -63.8 -46.6 N 56.99 CA 57.43 C 56.9 O 55.86 CB 54.05 CG 56.06 CD1 52.82 CD2 55.61
A GLU H 81 -47.1 -55.7 N 71.91 CA 72.1 C 71.99 O 72.05 CB 62.3 CG 62.58 CD 62.56 OE1 62.78 OE2 62.35
A HIS - 153 -110.0 360.0 N 81.79 CA 81.7 C 81.45 O 81.37 CB 71.78 CG 71.74 ND1 71.92 CD2 71.55 CE1 71.85 NE2 71.61
B GLN - 182 360.0 -48.6 N 87.13 CA 88.5 C 87.13 O 85.96 CB 92.43 CG 92.05 CD 92.92 OE1 89.44 NE2 93.79
B TRP - 256 -53.1 117.8 N 54.83 CA 52.75 C 50.34 O 50.84 CB 53.06 CG 49.53 CD1 48.04 CD2 51.56 NE1 46.36 CE2 48.54 CE3 51.16 CZ2 48.39 CZ3 48.31 CH2 51.36
B SER S 83 -164.7 169.9 N 49.31 CA 50.47 C 48.63 O 46.2 CB 47.98 OG 48.81
B GLY - 84 -97.1 23.8 N 48.55 CA 45.81 C 47.98 O 46.97
B ALA - 52 -56.2 145.1 N 44.15 CA 48.22 C 46.4 O 45.48 CB 47.47
B ARG - 200 -65.3 172.1 N 41.83 CA 43.53 C 40.74 O 41.78 CB 43.83 CG 45.18 CD 44.9 NE 45.46 CZ 43.36 NH1 40.29 NH2 40.91
B ALA H 63 -67.3 -51.6 N 43.75 CA 44.41 C 44.96 O 43.31 CB 43.92
B LEU H 114 -62.0 -42.2 N 52.87 CA 53.81 C 53.09 O 54.03 CB 56.4 CG 56.41 CD1 54.23 CD2 56.77
B GLU H 104 -56.6 -45.5 N 45.59 CA 46.17 C 45.23 O 43.76 CB 45.88 CG 46.93 CD 48.53 OE1 47.58 OE2 48.16
B ALA H 18 -60.8 -45.4 N 40.06 CA 41.69 C 40.34 O 40.58 CB 39.23
B LEU H 14 -58.6 -49.7 N 37.75 CA 36.75 C 38.42 O 38.08 CB 36.66 CG 37.92 CD1 37.44 CD2 37.26
B LEU H 104 -66.4 -38.9 N 42.51 CA 43.44 C 43.89 O 44.39 CB 42.62 CG 44.01 CD1 44.54 CD2 42.44
B THR H 81 -58.7 -43.5 N 41.26 CA 41.13 C 41.64 O 42.72 CB 42.94 OG1 41.89 CG2 41.76
B VAL H 12 -67.3 -37.6 N 40.85 CA 41.47 C 40.44 O 41.9 CB 40.4 CG1 42.0 CG2 41.25
B ALA H 26 -59.8 -41.6 N 47.67 CA 50.43 C 52.37 O 52.03 CB 50.8
B GLY H 37 -55.5 -42.4 N 68.75 CA 70.41 C 70.62 O 71.26
B GLU H 79 -82.8 -17.8 N 61.41 CA 62.74 C 61.67 O 62.04 CB 62.92 CG 63.14 CD 67.24 OE1 66.05 OE2 67.22
B LEU T 1 -91.3 23.2 N 50.04 CA 48.22 C 51.61 O 51.21 CB 48.6 CG 49.37 CD1 44.71 CD2 49.41
B ARG S 193 -105.2 50.0 N 101.17 CA 101.23 C 102.45 O 105.48 CB 88.64 CG 88.91 CD 88.88 NE 88.75 CZ 88.88 NH1 89.12 NH2 88.78
B GLY S 18 -176.2 -178.4 N 66.6 CA 66.6 C 66.4 O 65.45
B PRO S 121 -69.0 163.5 N 64.65 CA 63.48 C 63.76 O 62.69 CB 63.49 CG 64.55 CD 66.36
B PRO S 49 -78.3 -10.2 N 52.12 CA 50.21 C 50.67 O 49.38 CB 48.84 CG 48.73 CD 50.44
B LEU - 1 -128.6 87.9 N 68.01 CA 67.9 C 67.97 O 67.37 CB 67.65 CG 64.86 CD1 64.05 CD2 64.88
B GLN - 138 -95.4 111.8 N 80.25 CA 80.36 C 79.01 O 78.72 CB 82.34 CG 82.81 CD 84.74 OE1 87.69 NE2 82.9
B LEU - 15 -111.6 126.2 N 56.8 CA 58.81 C 58.06 O 57.75 CB 56.83 CG 58.91 CD1 55.46 CD2 53.96
B ASP - 87 -71.6 -159.2 N 83.63 CA 83.51 C 83.78 O 81.8 CB 82.91 CG 83.01 OD1 84.32 OD2 82.85
B THR H 107 -97.8 -16.0 N 67.87 CA 64.65 C 64.47 O 64.64 CB 67.66 OG1 66.13 CG2 62.37
B GLY H 53 -79.0 -16.9 N 80.11 CA 79.61 C 80.22 O 79.18
B GLN H 52 -103.0 -35.0 N 52.0 CA 50.6 C 48.44 O 47.63 CB 52.45 CG 48.83 CD 50.6 OE1 51.99 NE2 50.81
B LEU H 20 -59.7 -55.4 N 41.39 CA 40.97 C 40.8 O 38.57 CB 43.73 CG 45.28 CD1 44.56 CD2 45.39
B LEU H 99 -56.0 -42.3 N 34.45 CA 34.14 C 32.99 O 31.15 CB 34.93 CG 33.35 CD1 32.76 CD2 37.31
B LYS H 109 -63.0 -40.4 N 34.06 CA 38.22 C 36.22 O 35.5 CB 37.46 CG 38.42 CD 39.09 CE 41.16 NZ 43.29
B ILE H 2 -68.5 -42.6 N 25.81 CA 25.82 C 26.5 O 24.78 CB 27.63 CG1 25.63 CG2 25.41 CD1 28.9
B ALA H 34 -65.7 -31.9 N 30.7 CA 31.5 C 30.75 O 30.53 CB 32.86
B LYS H 170 -62.6 -29.4 N 37.43 CA 38.53 C 38.31 O 39.5 CB 38.4 CG 42.21 CD 41.06 CE 41.9 NZ 45.2
B ARG H 126 -122.3 -57.3 N 31.59 CA 32.53 C 33.4 O 33.88 CB 32.59 CG 33.75 CD 32.45 NE 30.48 CZ 31.42 NH1 30.35 NH2 29.93
B GLY T 10 -69.8 -20.6 N 29.17 CA 28.3 C 30.81 O 28.01
B GLY H 23 75.2 -174.4 N 28.27 CA 29.39 C 29.78 O 27.61
B VAL H 38 -66.9 -29.7 N 28.98 CA 28.55 C 28.86 O 27.69 CB 30.95 CG1 29.64 CG2 30.43
B THR H 71 -52.1 -49.3 N 29.49 CA 29.6 C 30.09 O 29.17 CB 29.8 OG1 29.86 CG2 30.46
B ALA H 0 -68.4 -36.8 N 24.76 CA 25.77 C 24.99 O 24.5 CB 24.12
B VAL H 2 -62.2 -41.9 N 27.14 CA 29.07 C 29.31 O 29.8 CB 30.11 CG1 30.41 CG2 29.76
B GLU H 79 -66.3 -38.3 N 31.34 CA 30.67 C 32.89 O 32.24 CB 32.63 CG 32.76 CD 33.71 OE1 32.37 OE2 33.18
B ALA H 5 -64.3 -40.7 N 26.24 CA 27.39 C 28.18 O 26.89 CB 25.47
B VAL H 0 -62.5 -43.5 N 28.05 CA 27.82 C 29.74 O 29.77 CB 28.39 CG1 29.61 CG2 27.53
B HIS H 20 -64.9 -44.2 N 33.01 CA 34.41 C 34.19 O 34.86 CB 34.07 CG 38.01 ND1 40.53 CD2 39.76 CE1 39.7 NE2 40.06
B ALA H 64 -62.5 -40.3 N 37.25 CA 38.17 C 39.08 O 40.43 CB 38.62
B TRP H 63 -106.3 12.6 N 32.52 CA 30.77 C 32.27 O 31.74 CB 31.12 CG 32.71 CD1 33.64 CD2 30.36 NE1 34.76 CE2 32.73 CE3 30.83 CZ2 33.93 CZ3 30.08 CH2 32.25
B ARG H 46 -56.1 -39.7 N 44.12 CA 46.48 C 44.99 O 44.57 CB 48.39 CG 48.64 CD 51.81 NE 52.17 CZ 51.75 NH1 50.55 NH2 52.52
B ASN H 100 -70.3 -44.5 N 39.97 CA 40.0 C 40.4 O 41.83 CB 41.32 CG 42.89 OD1 43.78 ND2 42.39
B ALA H 48 -66.6 -43.0 N 31.77 CA 32.05 C 31.92 O 32.6 CB 31.42
B LEU H 0 -59.2 -40.8 N 32.64 CA 33.21 C 32.79 O 33.49 CB 32.03 CG 31.78 CD1 32.31 CD2 31.68
B THR H 27 -89.6 -29.1 N 43.45 CA 43.39 C 45.66 O 45.32 CB 44.71 OG1 43.68 CG2 45.28
B GLY S 26 -82.4 173.4 N 43.87 CA 44.15 C 44.66 O 43.72
B ALA T 85 -62.6 149.1 N 41.51 CA 40.78 C 38.58 O 40.92 CB 42.28
B PRO T 109 -90.4 3.7 N 40.33 CA 39.91 C 41.12 O 40.64 CB 39.74 CG 40.82 CD 39.77
B LEU T 20 -70.9 -59.0 N 32.38 CA 32.8 C 33.47 O 32.63 CB 31.58 CG 31.56 CD1 31.72 CD2 31.1
B ASN - 103 58.0 36.7 N 39.45 CA 41.44 C 42.27 O 41.63 CB 40.87 CG 42.58 OD1 42.45 ND2 43.42
B LEU - 7 -72.1 142.9 N 42.57 CA 42.85 C 41.2 O 42.04 CB 41.2 CG 39.09 CD1 40.6 CD2 41.57
B THR - 68 -69.4 158.6 N 35.97 CA 35.35 C 35.82 O 35.37 CB 36.94 OG1 35.1 CG2 36.83
B PRO H 53 -55.9 -35.3 N 38.5 CA 37.91 C 40.32 O 37.93 CB 41.17 CG 40.48 CD 40.78
B GLU H 157 -61.9 -44.3 N 36.59 CA 38.4 C 35.79 O 34.03 CB 37.24 CG 39.33 CD 40.03 OE1 40.05 OE2 42.23
B GLN H 46 -67.6 -36.7 N 31.22 CA 31.58 C 30.42 O 29.86 CB 31.14 CG 32.82 CD 33.45 OE1 35.55 NE2 32.73
B VAL H 0 -65.2 -45.3 N 29.35 CA 29.52 C 30.51 O 29.18 CB 30.65 CG1 30.71 CG2 31.13
B VAL H 5 -63.3 -39.8 N 30.64 CA 30.52 C 29.12 O 29.64 CB 32.97 CG1 32.16 CG2 33.84
B ALA H 29 -62.1 -41.0 N 26.19 CA 26.7 C 27.03 O 25.0 CB 26.52
B ILE H 1 -71.4 -39.2 N 23.39 CA 22.43 C 22.95 O 23.71 CB 23.27 CG1 24.86 CG2 23.13 CD1 25.88
B ALA H 0 -67.8 -31.0 N 23.47 CA 24.98 C 26.1 O 24.56 CB 24.77
B SER S 10 -89.4 51.1 N 25.56 CA 24.57 C 24.59 O 23.87 CB 25.96 OG 27.81
B HIS S 41 -144.2 165.3 N 22.29 CA 21.98 C 22.48 O 21.9 CB 20.87 CG 21.68 ND1 21.15 CD2 22.12 CE1 21.46 NE2 21.98
B ASP T 76 -62.4 139.6 N 21.8 CA 23.05 C 23.49 O 22.35 CB 22.59 CG 24.16 OD1 24.03 OD2 24.16
B GLY T 38 73.1 14.8 N 20.52 CA 20.83 C 20.85 O 21.06
B GLY H 1 -46.9 -44.1 N 19.94 CA 19.97 C 20.41 O 20.5
B LYS H 82 -53.8 -44.7 N 24.75 CA 24.9 C 23.4 O 23.64 CB 25.03 CG 25.21 CD 26.25 CE 26.82 NZ 29.48
B GLN H 70 -64.9 -42.3 N 26.05 CA 25.43 C 25.47 O 24.98 CB 25.6 CG 26.63 CD 28.92 OE1 28.36 NE2 27.23
B ALA H 2 -64.6 -42.7 N 22.37 CA 22.52 C 22.41 O 23.02 CB 21.68
B LEU H 0 -59.5 -42.7 N 23.18 CA 24.85 C 24.68 O 25.58 CB 23.59 CG 23.97 CD1 23.54 CD2 24.3
B GLU H 82 -63.5 -49.2 N 26.51 CA 26.49 C 26.82 O 27.26 CB 27.23 CG 28.65 CD 31.44 OE1 32.11 OE2 32.85
B THR H 0 -64.6 -36.9 N 25.76 CA 25.74 C 26.86 O 26.62 CB 24.39 OG1 26.36 CG2 25.53
B VAL H 1 -66.4 -31.1 N 28.89 CA 28.51 C 30.27 O 29.91 CB 31.3 CG1 30.52 CG2 30.71
B GLN H 43 -62.8 -30.9 N 31.44 CA 32.6 C 33.37 O 35.21 CB 31.3 CG 32.2 CD 33.72 OE1 37.43 NE2 33.1
B ARG H 120 -89.4 -41.7 N 43.64 CA 45.43 C 45.37 O 44.36 CB 44.87 CG 48.15 CD 48.81 NE 51.49 CZ 49.3 NH1 47.4 NH2 49.39
B LEU H 2 -99.2 -20.7 N 30.16 CA 30.8 C 30.67 O 30.96 CB 30.27 CG 31.47 CD1 31.53 CD2 28.25
B LEU H 9 -57.0 -50.2 N 28.35 CA 30.01 C 29.56 O 28.9 CB 28.28 CG 29.12 CD1 27.85 CD2 29.44
B PRO H 39 -60.8 -41.4 N 31.01 CA 30.68 C 30.86 O 31.61 CB 31.76 CG 32.51 CD 30.72
B VAL H 47 -59.9 -55.1 N 32.97 CA 33.27 C 32.44 O 32.32 CB 34.43 CG1 32.88 CG2 34.85
B LEU H 0 -60.6 -41.8 N 30.05 CA 30.41 C 29.88 O 31.3 CB 29.3 CG 29.85 CD1 30.35 CD2 30.64
B CYS H 13 -72.4 -51.7 N 31.44 CA 32.83 C 34.85 O 35.52 CB 33.07 SG 34.71
B GLN H 162 -78.7 -32.5 N 41.73 CA 41.01 C 43.72 O 45.71 CB 42.81 CG 46.94 CD 48.06 OE1 47.98 NE2 48.41
B ALA H 69 -89.7 -36.7 N 34.29 CA 34.98 C 35.37 O 35.33 CB 34.14
B HIS H 65 -118.8 -1.6 N 38.79 CA 37.82 C 37.87 O 39.48 CB 37.93 CG 38.51 ND1 40.05 CD2 40.18 CE1 39.47 NE2 40.7
B GLY - 59 77.6 23.8 N 38.47 CA 37.52 C 38.8 O 37.23
B LEU - 8 -74.9 159.5 N 31.56 CA 32.19 C 31.88 O 34.17 CB 31.87 CG 33.72 CD1 31.33 CD2 33.54
B THR - 61 -90.7 156.1 N 30.57 CA 30.62 C 31.56 O 30.49 CB 33.18 OG1 30.66 CG2 32.84
B PRO H 65 -54.0 -38.7 N 32.79 CA 31.78 C 30.4 O 29.99 CB 33.73 CG 32.35 CD 31.57
B GLN H 156 -57.8 -43.2 N 33.31 CA 33.83 C 30.71 O 31.68 CB 34.02 CG 36.47 CD 37.39 OE1 38.91 NE2 38.71
B GLN H 37 -64.2 -43.2 N 29.08 CA 30.89 C 30.32 O 28.6 CB 29.28 CG 30.36 CD 33.14 OE1 33.5 NE2 31.79
B VAL H 0 -65.6 -42.1 N 25.87 CA 24.81 C 24.65 O 23.56 CB 26.86 CG1 26.97 CG2 26.35
B VAL H 13 -61.9 -40.0 N 23.2 CA 23.55 C 21.58 O 22.46 CB 23.94 CG1 22.46 CG2 23.7
B ALA H 38 -58.5 -49.6 N 26.2 CA 26.74 C 25.8 O 26.57 CB 25.31
B ILE H 0 -57.6 -41.1 N 22.5 CA 23.62 C 23.65 O 22.64 CB 24.05 CG1 24.66 CG2 23.47 CD1 24.99
B ALA H 0 -75.5 -19.9 N 22.51 CA 22.78 C 23.19 O 22.99 CB 25.38
B SER S 15 -91.7 52.8 N 20.56 CA 21.76 C 20.32 O 19.85 CB 21.46 OG 21.55
B HIS S 49 -149.8 158.5 N 19.33 CA 19.16 C 20.65 O 19.73 CB 18.99 CG 18.78 ND1 18.5 CD2 18.83 CE1 18.4 NE2 18.59
B ASP T 26 -51.9 138.0 N 23.25 CA 23.02 C 23.23 O 22.91 CB 22.47 CG 24.02 OD1 23.77 OD2 24.85
B GLY T 33 68.6 28.3 N 23.05 CA 23.81 C 24.1 O 24.51
B GLY H 1 -56.4 -29.7 N 20.22 CA 20.22 C 20.62 O 20.63
B LYS H 54 -57.3 -46.3 N 25.01 CA 25.22 C 24.67 O 25.08 CB 25.11 CG 26.16 CD 25.3 CE 30.02 NZ 31.4
B GLN H 78 -62.1 -42.5 N 22.93 CA 22.6 C 22.9 O 22.57 CB 21.9 CG 22.18 CD 24.85 OE1 23.84 NE2 23.31
B ALA H 4 -60.9 -45.7 N 23.6 CA 24.21 C 23.99 O 23.37 CB 21.98
B LEU H 0 -63.2 -46.6 N 21.85 CA 22.12 C 22.49 O 23.02 CB 22.34 CG 22.43 CD1 23.31 CD2 22.97
B GLU H 54 -65.8 -35.3 N 27.51 CA 27.52 C 28.31 O 26.99 CB 27.27 CG 28.19 CD 32.0 OE1 30.58 OE2 32.19
B THR H 3 -73.6 -33.9 N 23.5 CA 23.93 C 24.03 O 23.75 CB 23.26 OG1 23.71 CG2 22.8
B VAL H 0 -62.9 -48.7 N 26.68 CA 26.5 C 27.51 O 28.24 CB 27.24 CG1 27.19 CG2 25.15
B GLN H 69 -52.0 -48.1 N 27.99 CA 29.41 C 28.99 O 29.46 CB 29.23 CG 31.85 CD 31.66 OE1 30.7 NE2 34.23
B ARG H 120 -69.6 -36.1 N 33.73 CA 33.23 C 35.41 O 32.32 CB 34.65 CG 36.26 CD 36.7 NE 39.72 CZ 38.67 NH1 38.44 NH2 38.77
B LEU H 2 -107.1 -21.1 N 27.81 CA 26.43 C 27.49 O 27.89 CB 25.79 CG 30.85 CD1 30.01 CD2 28.5
B LEU H 11 -47.1 -50.8 N 34.07 CA 35.63 C 35.33 O 36.07 CB 37.7 CG 38.19 CD1 37.85 CD2 35.61
B PRO H 51 -64.2 -24.6 N 46.38 CA 45.94 C 46.74 O 49.42 CB 46.92 CG 47.98 CD 47.22
B VAL H 71 -91.0 -36.4 N 33.32 CA 32.81 C 33.33 O 34.46 CB 36.75 CG1 35.87 CG2 34.97
B LEU H 18 -72.6 -29.9 N 28.22 CA 27.09 C 27.99 O 26.16 CB 27.29 CG 29.4 CD1 29.46 CD2 26.76
B CYS T 37 -101.6 26.7 N 30.68 CA 29.06 C 32.42 O 32.21 CB 29.89 SG 31.38
B GLN S 126 -74.2 173.0 N 34.61 CA 35.23 C 35.69 O 35.25 CB 36.17 CG 35.11 CD 37.98 OE1 39.22 NE2 36.2
B ALA T 80 -54.2 134.4 N 37.41 CA 36.03 C 35.17 O 35.3 CB 38.22
B HIS T 198 64.6 25.9 N 38.57 CA 41.76 C 40.53 O 39.33 CB 41.71 CG 43.29 ND1 44.01 CD2 44.51 CE1 45.23 NE2 45.44
B GLY S 41 -108.3 -153.0 N 37.5 CA 35.37 C 37.09 O 34.97
B LEU - 11 -80.5 156.5 N 28.97 CA 29.78 C 29.9 O 29.83 CB 28.13 CG 28.79 CD1 29.84 CD2 27.93
B THR - 64 -77.4 158.5 N 28.8 CA 29.32 C 30.56 O 29.36 CB 29.9 OG1 28.85 CG2 31.67
B PRO H 46 -59.2 -36.9 N 29.79 CA 30.04 C 29.08 O 28.09 CB 30.7 CG 30.01 CD 32.0
B GLU H 107 -57.2 -40.7 N 31.28 CA 31.87 C 30.2 O 30.32 CB 34.12 CG 34.68 CD 35.27 OE1 39.36 OE2 35.31
B GLN H 30 -68.8 -42.4 N 24.61 CA 25.35 C 24.2 O 23.35 CB 24.39 CG 24.07 CD 24.26 OE1 23.66 NE2 25.45
B VAL H 0 -59.5 -43.0 N 23.04 CA 24.05 C 23.43 O 23.12 CB 24.2 CG1 25.33 CG2 26.21
B VAL H 11 -63.9 -40.5 N 22.75 CA 23.78 C 23.92 O 22.57 CB 25.25 CG1 25.34 CG2 25.82
B ALA H 39 -63.5 -44.6 N 22.93 CA 23.28 C 21.98 O 23.47 CB 22.83
B ILE H 0 -62.9 -41.8 N 19.8 CA 19.77 C 20.47 O 19.26 CB 19.31 CG1 19.76 CG2 20.64 CD1 20.69
B ALA H 0 -69.6 -21.7 N 20.98 CA 22.98 C 21.55 O 20.97 CB 22.35
B SER S 17 -86.8 49.7 N 21.93 CA 22.34 C 21.72 O 21.8 CB 22.39 OG 22.88
B HIS S 56 -151.4 153.9 N 19.1 CA 19.25 C 19.65 O 19.79 CB 18.76 CG 19.24 ND1 19.88 CD2 19.34 CE1 19.33 NE2 20.23
B ASP T 70 -51.2 139.3 N 19.34 CA 19.39 C 19.36 O 19.15 CB 20.11 CG 20.21 OD1 19.22 OD2 20.96
B GLY T 40 76.0 17.7 N 19.96 CA 20.38 C 20.56 O 20.73
B GLY H 2 -56.8 -35.0 N 17.3 CA 17.27 C 17.57 O 17.52
B LYS H 50 -57.6 -43.4 N 19.95 CA 20.99 C 20.21 O 20.32 CB 20.66 CG 21.04 CD 21.44 CE 23.87 NZ 24.8
B GLN H 70 -67.4 -41.3 N 20.44 CA 21.04 C 20.62 O 20.63 CB 20.3 CG 21.4 CD 22.7 OE1 21.48 NE2 22.16
B ALA H 2 -65.9 -43.7 N 18.66 CA 18.37 C 18.5 O 18.43 CB 18.06
B LEU H 0 -60.7 -46.9 N 20.73 CA 21.76 C 22.63 O 21.75 CB 22.9 CG 23.01 CD1 24.72 CD2 23.96
B GLU H 49 -63.4 -33.5 N 23.5 CA 24.63 C 24.78 O 23.6 CB 23.45 CG 26.11 CD 27.03 OE1 27.35 OE2 26.86
B THR H 10 -77.4 -34.8 N 19.98 CA 19.93 C 19.8 O 20.06 CB 19.55 OG1 19.81 CG2 20.56
B VAL H 1 -62.5 -43.8 N 20.57 CA 21.73 C 22.17 O 22.09 CB 21.75 CG1 23.1 CG2 22.11
B GLN H 83 -56.0 -44.2 N 28.71 CA 28.91 C 30.15 O 29.58 CB 30.57 CG 30.15 CD 34.75 OE1 36.45 NE2 35.9
B ALA H 67 -75.4 -39.1 N 23.23 CA 23.95 C 24.09 O 23.86 CB 23.34
B LEU H 31 -108.0 -15.3 N 24.51 CA 25.68 C 25.31 O 25.73 CB 25.43 CG 26.1 CD1 24.14 CD2 25.57
B LEU H 38 -47.4 -48.9 N 32.18 CA 32.35 C 34.8 O 32.99 CB 32.42 CG 36.42 CD1 38.14 CD2 32.65
B PRO H 60 -65.2 -42.5 N 31.57 CA 30.48 C 29.83 O 31.18 CB 31.53 CG 30.95 CD 30.75
B VAL H 43 -71.1 -36.6 N 30.76 CA 31.33 C 31.0 O 31.51 CB 33.69 CG1 29.55 CG2 33.77
B LEU H 0 -65.2 -34.0 N 24.13 CA 23.96 C 24.8 O 24.57 CB 23.61 CG 24.54 CD1 22.25 CD2 23.95
B CYS H 33 -80.7 -45.1 N 29.4 CA 31.08 C 32.49 O 33.26 CB 31.66 SG 32.95
B GLN H 153 -79.9 -49.0 N 38.16 CA 37.45 C 36.01 O 39.23 CB 36.95 CG 40.19 CD 43.14 OE1 39.92 NE2 41.38
B ALA T 47 -83.6 -34.0 N 32.21 CA 32.16 C 34.64 O 33.93 CB 32.77
B HIS T 59 -111.3 -4.0 N 31.87 CA 31.02 C 29.67 O 31.6 CB 29.95 CG 31.45 ND1 32.98 CD2 31.2 CE1 33.45 NE2 33.83
B GLY - 56 71.1 19.9 N 32.43 CA 33.07 C 34.8 O 32.24
B LEU - 10 -72.8 151.9 N 25.5 CA 24.96 C 23.84 O 26.18 CB 25.58 CG 25.04 CD1 24.15 CD2 26.02
B THR - 64 -81.0 157.4 N 26.25 CA 27.29 C 26.7 O 27.84 CB 27.98 OG1 26.87 CG2 27.82
B PRO H 53 -55.3 -39.5 N 27.57 CA 30.42 C 29.15 O 28.36 CB 30.39 CG 31.82 CD 31.26
B GLU H 110 -58.9 -36.8 N 28.86 CA 28.42 C 27.33 O 26.68 CB 29.34 CG 29.91 CD 31.14 OE1 31.91 OE2 33.0
B GLN H 60 -71.3 -43.0 N 21.99 CA 22.94 C 22.03 O 22.56 CB 22.59 CG 23.57 CD 23.51 OE1 22.73 NE2 24.22
B VAL H 0 -58.0 -44.4 N 20.2 CA 21.09 C 21.12 O 20.49 CB 21.23 CG1 21.78 CG2 21.78
B VAL H 14 -59.9 -41.9 N 19.75 CA 21.04 C 20.42 O 20.29 CB 21.13 CG1 21.51 CG2 23.17
B ALA H 39 -60.5 -42.1 N 21.33 CA 19.95 C 22.16 O 21.3 CB 20.82
B ILE H 0 -68.8 -45.1 N 16.63 CA 16.72 C 16.93 O 16.96 CB 16.79 CG1 16.6 CG2 16.96 CD1 16.67
B ALA H 0 -64.4 -26.5 N 16.32 CA 16.56 C 16.53 O 16.71 CB 16.76
B SER S 24 -85.8 53.2 N 19.75 CA 20.83 C 20.58 O 20.08 CB 21.06 OG 21.74
B ASN S 29 -145.2 154.3 N 20.23 CA 20.77 C 20.37 O 19.95 CB 20.46 CG 21.35 OD1 20.53 ND2 20.18
B GLY T 50 -56.3 140.1 N 19.07 CA 18.2 C 20.12 O 18.9
B GLY T 42 71.8 20.3 N 19.33 CA 19.15 C 20.15 O 19.05
B GLY H 2 -53.4 -37.8 N 19.06 CA 19.2 C 19.79 O 20.58
B LYS H 58 -59.5 -47.0 N 20.09 CA 19.76 C 20.16 O 20.69 CB 20.64 CG 21.05 CD 21.63 CE 23.66 NZ 27.44
B GLN H 73 -64.6 -39.1 N 18.93 CA 19.67 C 19.24 O 18.82 CB 19.34 CG 19.17 CD 21.67 OE1 22.38 NE2 19.77
B ALA H 1 -63.2 -41.5 N 19.24 CA 19.04 C 19.18 O 19.07 CB 18.53
B LEU H 0 -69.5 -46.9 N 18.43 CA 19.11 C 19.46 O 19.04 CB 18.59 CG 18.59 CD1 19.9 CD2 18.44
B GLU H 80 -59.7 -39.5 N 24.21 CA 25.3 C 25.61 O 25.0 CB 24.83 CG 28.11 CD 28.3 OE1 28.31 OE2 29.84
B THR H 2 -72.7 -36.5 N 21.53 CA 22.88 C 22.25 O 21.82 CB 21.9 OG1 21.54 CG2 22.95
B VAL H 0 -61.5 -43.8 N 22.45 CA 22.69 C 24.23 O 23.42 CB 21.16 CG1 21.9 CG2 20.73
B GLN H 63 -60.2 -46.7 N 33.16 CA 33.75 C 37.53 O 36.58 CB 35.64 CG 39.0 CD 39.38 OE1 39.94 NE2 41.13
B ARG H 116 -69.3 -41.9 N 30.07 CA 29.87 C 30.86 O 31.32 CB 31.59 CG 32.35 CD 34.6 NE 34.71 CZ 34.99 NH1 37.09 NH2 35.35
B LEU H 3 -99.7 -9.6 N 23.15 CA 23.95 C 25.97 O 24.55 CB 23.86 CG 24.33 CD1 23.13 CD2 25.56
B LEU H 11 -49.0 -48.9 N 25.82 CA 26.99 C 26.6 O 26.61 CB 26.33 CG 25.68 CD1 25.9 CD2 24.25
B PRO H 76 -67.6 -32.9 N 33.63 CA 35.45 C 36.61 O 37.79 CB 36.8 CG 36.01 CD 34.39
B VAL H 66 -70.3 -50.6 N 30.54 CA 31.48 C 30.83 O 31.41 CB 32.88 CG1 34.34 CG2 35.56
B LEU H 7 -71.0 -35.7 N 22.85 CA 22.65 C 23.87 O 22.84 CB 22.73 CG 22.81 CD1 23.91 CD2 22.1
B CYS S 15 -93.7 66.6 N 26.62 CA 27.49 C 27.83 O 27.82 CB 27.15 SG 26.31
B GLN S 107 -130.4 170.2 N 27.93 CA 28.45 C 28.22 O 26.45 CB 29.04 CG 29.45 CD 31.34 OE1 31.45 NE2 31.62
B ALA T 37 -51.0 143.0 N 29.46 CA 31.31 C 30.07 O 32.01 CB 30.14
B HIS T 181 76.6 -7.6 N 38.92 CA 39.96 C 39.04 O 40.81 CB 40.75 CG 43.19 ND1 43.43 CD2 43.91 CE1 44.79 NE2 45.2
B GLY S 11 -103.7 -140.9 N 30.15 CA 29.82 C 30.03 O 30.59
B LEU - 0 -109.7 163.6 N 26.17 CA 26.01 C 25.68 O 26.53 CB 24.64 CG 25.87 CD1 25.56 CD2 26.65
B THR - 24 -87.5 156.1 N 22.63 CA 22.71 C 23.67 O 21.98 CB 23.8 OG1 22.05 CG2 23.61
B PRO H 32 -53.8 -34.6 N 23.25 CA 24.57 C 24.69 O 23.27 CB 24.07 CG 25.51 CD 24.09
B GLN H 85 -62.4 -40.7 N 24.09 CA 26.21 C 24.38 O 22.06 CB 25.37 CG 27.71 CD 27.81 OE1 25.17 NE2 27.84
B GLN H 38 -69.8 -38.8 N 20.05 CA 21.57 C 20.87 O 19.45 CB 21.04 CG 21.22 CD 21.96 OE1 21.26 NE2 22.81
B VAL H 0 -62.8 -44.1 N 20.79 CA 21.01 C 20.92 O 21.4 CB 22.03 CG1 21.33 CG2 21.43
B VAL H 10 -62.1 -44.7 N 21.23 CA 23.24 C 22.44 O 23.32 CB 23.0 CG1 22.01 CG2 21.71
B ALA H 32 -56.6 -49.2 N 19.75 CA 20.15 C 20.4 O 19.1 CB 19.62
B ILE H 0 -58.2 -41.5 N 19.12 CA 20.07 C 21.83 O 21.41 CB 20.87 CG1 21.25 CG2 20.35 CD1 21.76
B ALA H 0 -78.2 -11.8 N 21.49 CA 21.26 C 22.04 O 22.22 CB 20.3
B SER H 18 -95.5 -18.0 N 24.32 CA 24.1 C 25.0 O 24.07 CB 24.66 OG 26.35
B ASN T 88 -118.5 19.1 N 38.47 CA 40.93 C 41.06 O 40.29 CB 41.95 CG 44.76 OD1 42.81 ND2 43.02
B GLY T 33 114.7 -19.4 N 27.85 CA 28.61 C 28.13 O 27.47
B GLY - 9 -67.4 -38.7 N 28.42 CA 29.64 C 28.13 O 25.97
B GLY H 12 55.5 -153.7 N 24.03 CA 22.21 C 21.99 O 23.61
B LYS H 55 -49.2 -47.5 N 20.67 CA 20.01 C 19.85 O 22.61 CB 20.05 CG 20.86 CD 22.58 CE 23.69 NZ 27.65
B GLN H 77 -62.4 -43.5 N 18.19 CA 19.32 C 19.57 O 19.27 CB 18.74 CG 18.49 CD 20.93 OE1 21.43 NE2 21.46
B ALA H 0 -64.6 -44.6 N 17.29 CA 17.83 C 17.18 O 17.22 CB 17.09
B LEU H 0 -62.1 -44.3 N 21.54 CA 21.81 C 23.24 O 23.46 CB 21.74 CG 22.83 CD1 22.93 CD2 22.46
B GLU H 47 -68.0 -34.3 N 22.3 CA 24.02 C 23.49 O 23.29 CB 23.58 CG 23.06 CD 25.51 OE1 25.81 OE2 26.34
B THR H 2 -73.5 -33.9 N 19.51 CA 20.11 C 20.05 O 20.69 CB 19.94 OG1 19.65 CG2 19.65
B VAL H 0 -67.8 -42.1 N 21.97 CA 22.69 C 23.11 O 24.3 CB 21.99 CG1 24.18 CG2 23.79
B GLN H 81 -55.9 -43.3 N 25.24 CA 26.09 C 26.91 O 27.82 CB 27.52 CG 28.17 CD 29.92 OE1 29.96 NE2 30.56
B ARG H 129 -73.5 -42.2 N 28.22 CA 28.5 C 28.81 O 27.95 CB 29.14 CG 32.03 CD 31.65 NE 30.62 CZ 31.06 NH1 31.51 NH2 30.7
B LEU H 6 -104.0 -16.1 N 24.32 CA 22.36 C 24.24 O 24.8 CB 23.23 CG 25.12 CD1 23.68 CD2 25.69
B LEU H 15 -44.6 -51.2 N 24.56 CA 25.53 C 25.83 O 26.22 CB 24.23 CG 25.8 CD1 24.68 CD2 26.46
B PRO H 84 -61.6 -48.3 N 24.94 CA 25.75 C 26.34 O 26.12 CB 26.92 CG 26.45 CD 25.46
B VAL H 48 -71.1 -37.6 N 23.94 CA 25.2 C 26.36 O 25.11 CB 26.99 CG1 25.53 CG2 27.09
B LEU H 0 -65.3 -41.6 N 23.02 CA 24.76 C 24.69 O 24.79 CB 23.83 CG 25.12 CD1 24.84 CD2 25.47
B CYS H 37 -77.7 -24.4 N 25.25 CA 26.82 C 29.32 O 28.23 CB 26.41 SG 27.24
B GLN T 169 -101.0 -84.7 N 30.82 CA 31.0 C 32.22 O 31.21 CB 30.66 CG 31.77 CD 33.15 OE1 33.75 NE2 33.9
B ALA T 79 -51.7 -36.0 N 28.63 CA 29.17 C 30.72 O 29.84 CB 28.87
B HIS T 40 -97.4 -6.3 N 29.69 CA 29.96 C 28.93 O 30.11 CB 28.52 CG 30.31 ND1 30.72 CD2 29.84 CE1 28.79 NE2 31.38
B GLY - 53 69.4 18.4 N 32.37 CA 32.71 C 33.26 O 32.41
B LEU - 5 -80.6 157.1 N 25.49 CA 25.4 C 24.81 O 25.95 CB 24.19 CG 24.77 CD1 25.81 CD2 25.93
B THR - 58 -86.3 157.1 N 24.17 CA 25.21 C 26.05 O 24.53 CB 26.58 OG1 23.96 CG2 27.05
B PRO H 45 -54.5 -38.8 N 28.44 CA 28.13 C 27.69 O 26.68 CB 29.06 CG 30.53 CD 30.1
B GLN H 123 -58.3 -42.4 N 23.6 CA 24.46 C 24.38 O 23.32 CB 24.35 CG 27.73 CD 26.79 OE1 27.32 NE2 28.94
B GLN H 32 -67.0 -40.4 N 21.68 CA 20.85 C 21.41 O 20.62 CB 21.49 CG 23.05 CD 25.08 OE1 23.45 NE2 24.22
B VAL H 0 -63.0 -43.7 N 21.34 CA 21.84 C 21.11 O 20.73 CB 22.02 CG1 20.87 CG2 22.24
B VAL H 11 -62.7 -40.4 N 19.68 CA 19.33 C 18.85 O 18.43 CB 18.55 CG1 17.68 CG2 19.7
B ALA H 41 -60.7 -45.7 N 18.24 CA 19.03 C 19.28 O 18.22 CB 19.03
B ILE H 0 -61.7 -43.1 N 20.13 CA 20.33 C 20.64 O 21.11 CB 20.72 CG1 21.74 CG2 21.45 CD1 23.4
B ALA H 0 -64.0 -45.8 N 20.25 CA 20.46 C 20.74 O 21.33 CB 19.8
B SER S 22 -65.1 45.6 N 37.69 CA 38.91 C 40.27 O 39.74 CB 38.57 OG 38.96
B ASN S 37 -155.1 154.0 N 70.72 CA 70.7 C 70.82 O 70.69 CB 20.0 CG 20.0 OD1 20.0 ND2 20.0
B GLY T 44 -50.3 -21.5 N 30.0 CA 30.0 C 30.0 O 30.0
B GLY T 13 -100.3 44.7 N 40.83 CA 40.89 C 41.09 O 41.24
B GLY H 1 -74.5 -78.6 N 25.14 CA 20.75 C 22.02 O 21.0
B LYS H 59 -44.1 -57.9 N 20.5 CA 21.42 C 20.77 O 20.9 CB 19.72 CG 21.07 CD 19.95 CE 21.51 NZ 23.11
B GLN H 79 -53.1 -49.5 N 19.09 CA 20.16 C 20.95 O 20.85 CB 19.58 CG 19.0 CD 21.09 OE1 21.36 NE2 20.4
B ALA H 0 -61.5 -43.3 N 17.93 CA 19.61 C 18.87 O 19.6 CB 18.97
B LEU H 0 -59.0 -49.7 N 18.76 CA 20.1 C 20.88 O 20.43 CB 18.8 CG 19.62 CD1 18.85 CD2 19.43
B GLU H 49 -64.9 -30.4 N 23.94 CA 24.95 C 26.24 O 26.17 CB 25.18 CG 25.39 CD 26.86 OE1 27.41 OE2 27.99
B THR H 1 -76.0 -36.1 N 22.61 CA 22.17 C 23.08 O 24.85 CB 22.72 OG1 22.44 CG2 23.0
B VAL H 0 -67.4 -38.7 N 27.38 CA 29.85 C 29.67 O 29.29 CB 29.49 CG1 29.35 CG2 27.65
B GLN H 66 -58.7 -41.1 N 25.88 CA 27.74 C 27.45 O 29.2 CB 27.54 CG 29.47 CD 29.0 OE1 28.12 NE2 30.1
B ARG H 126 -80.4 -37.3 N 32.62 CA 34.97 C 36.36 O 34.58 CB 34.31 CG 36.11 CD 38.69 NE 38.98 CZ 36.83 NH1 38.51 NH2 37.95
B LEU H 6 -98.8 -15.6 N 29.7 CA 31.0 C 32.39 O 32.79 CB 31.32 CG 30.86 CD1 30.33 CD2 31.94
B LEU H 9 -52.3 -50.2 N 31.31 CA 32.93 C 33.89 O 35.01 CB 32.45 CG 34.0 CD1 32.91 CD2 30.4
B PRO H 67 -64.1 -20.4 N 48.61 CA 50.9 C 51.63 O 54.51 CB 50.82 CG 50.43 CD 47.47
B VAL H 79 -89.8 -51.3 N 55.95 CA 55.73 C 57.33 O 58.01 CB 55.88 CG1 56.5 CG2 57.02
B LEU H 23 -76.6 -22.1 N 38.69 CA 38.29 C 37.67 O 38.15 CB 37.13 CG 40.4 CD1 37.41 CD2 40.87
B CYS S 30 -101.0 50.3 N 35.52 CA 35.43 C 36.81 O 36.22 CB 35.93 SG 36.46
B GLN B 125 -99.3 -171.1 N 38.05 CA 40.93 C 39.28 O 37.08 CB 40.04 CG 40.54 CD 40.43 OE1 39.68 NE2 38.86
B ALA T 79 -53.8 125.9 N 38.85 CA 39.78 C 40.38 O 42.83 CB 40.42
B HIS T 206 57.8 3.9 N 43.18 CA 43.93 C 46.63 O 45.81 CB 44.09 CG 45.52 ND1 44.65 CD2 40.26 CE1 42.33 NE2 42.39
B GLY B 29 -111.6 90.4 N 60.2 CA 56.46 C 57.74 O 57.49
B LEU - 26 64.7 132.3 N 39.84 CA 38.47 C 38.33 O 40.0 CB 36.65 CG 39.36 CD1 40.21 CD2 38.46
B THR - 63 -94.7 157.3 N 31.31 CA 33.81 C 33.39 O 31.96 CB 34.16 OG1 34.39 CG2 34.27
B PRO H 46 -56.5 -31.4 N 34.58 CA 34.46 C 35.21 O 33.72 CB 34.91 CG 36.96 CD 35.6
B GLN H 107 -68.9 -36.8 N 30.71 CA 30.51 C 30.28 O 30.62 CB 30.86 CG 32.78 CD 32.79 OE1 30.48 NE2 32.02
B GLN H 46 -68.0 -43.8 N 28.0 CA 29.13 C 29.44 O 27.92 CB 29.26 CG 29.3 CD 29.92 OE1 30.63 NE2 29.69
B VAL H 0 -60.0 -48.3 N 27.17 CA 27.34 C 27.34 O 27.6 CB 27.27 CG1 27.21 CG2 29.29
B VAL H 11 -58.4 -36.2 N 23.31 CA 23.37 C 22.29 O 21.71 CB 23.48 CG1 23.22 CG2 22.62
B ALA H 42 -67.5 -38.6 N 26.79 CA 27.37 C 26.9 O 27.13 CB 28.56
B ILE H 0 -71.6 -45.5 N 23.39 CA 23.7 C 25.42 O 24.12 CB 24.48 CG1 23.68 CG2 24.19 CD1 24.08
B ALA H 0 -66.3 -26.8 N 22.34 CA 23.68 C 22.64 O 25.17 CB 23.6
B SER T 22 -80.7 17.0 N 33.01 CA 34.34 C 36.28 O 38.2 CB 34.4 OG 34.78
B ASN S 39 -118.4 167.8 N 26.42 CA 25.22 C 27.57 O 26.64 CB 26.01 CG 26.54 OD1 27.45 ND2 27.04
B LYS T 122 -58.3 136.6 N 31.79 CA 33.06 C 32.97 O 32.22 CB 29.66 CG 29.35 CD 29.3 CE 29.05 NZ 29.0
B GLY T 33 68.3 21.7 N 21.11 CA 22.51 C 21.46 O 23.55
B GLY H 0 -48.7 -42.5 N 22.69 CA 22.48 C 23.52 O 23.87
B LYS H 55 -56.3 -48.9 N 21.52 CA 23.15 C 24.03 O 24.08 CB 21.3 CG 23.29 CD 22.79 CE 26.32 NZ 26.99
B GLN H 63 -64.5 -43.0 N 24.78 CA 24.33 C 25.0 O 24.84 CB 25.63 CG 23.83 CD 25.21 OE1 25.65 NE2 24.98
B ALA H 1 -58.4 -45.6 N 22.73 CA 23.31 C 24.29 O 22.76 CB 22.22
B LEU H 0 -64.2 -43.8 N 27.76 CA 28.8 C 29.4 O 29.43 CB 28.29 CG 29.56 CD1 30.98 CD2 29.76
B GLU H 63 -68.6 -31.7 N 29.92 CA 29.2 C 32.21 O 32.24 CB 31.25 CG 31.95 CD 34.41 OE1 32.54 OE2 33.52
B THR H 1 -72.8 -37.8 N 24.82 CA 24.08 C 24.34 O 25.64 CB 24.39 OG1 23.88 CG2 24.98
B VAL H 2 -58.8 -50.1 N 25.32 CA 26.05 C 26.84 O 26.75 CB 26.52 CG1 26.85 CG2 24.62
B GLN H 89 -56.3 -40.9 N 31.27 CA 32.45 C 34.24 O 33.69 CB 34.6 CG 35.74 CD 36.47 OE1 36.95 NE2 38.78
B ARG H 128 -74.2 -44.9 N 40.8 CA 41.9 C 42.93 O 44.03 CB 42.11 CG 46.03 CD 47.42 NE 46.73 CZ 47.19 NH1 45.58 NH2 45.97
B LEU H 7 -105.3 -14.7 N 28.93 CA 28.78 C 28.34 O 27.77 CB 27.08 CG 29.64 CD1 29.62 CD2 29.72
B LEU H 35 -53.5 -51.7 N 29.18 CA 30.52 C 30.76 O 31.13 CB 29.44 CG 30.93 CD1 31.98 CD2 30.98
B PRO H 62 -58.6 -42.3 N 38.46 CA 39.17 C 38.64 O 39.16 CB 39.66 CG 38.98 CD 38.81
B VAL H 49 -76.2 -30.4 N 41.25 CA 40.62 C 41.72 O 41.17 CB 41.21 CG1 44.06 CG2 42.38
B LEU H 0 -68.4 -35.7 N 29.32 CA 30.37 C 30.05 O 29.25 CB 28.74 CG 30.07 CD1 28.37 CD2 30.29
B CYS H 29 -74.1 -46.2 N 37.98 CA 39.01 C 40.72 O 42.43 CB 38.7 SG 39.68
B GLN H 162 -69.6 -60.1 N 42.19 CA 44.59 C 45.13 O 47.22 CB 42.27 CG 43.06 CD 44.49 OE1 45.74 NE2 45.13
B ALA H 73 -65.8 -45.9 N 46.76 CA 47.87 C 47.39 O 49.14 CB 48.53
B HIS H 43 -108.8 2.1 N 51.74 CA 51.74 C 50.86 O 52.45 CB 50.78 CG 50.06 ND1 51.53 CD2 52.6 CE1 52.15 NE2 51.87
B GLY - 55 72.1 15.0 N 44.66 CA 44.91 C 43.24 O 44.83
B LEU - 6 -70.5 163.6 N 32.68 CA 31.62 C 31.06 O 31.39 CB 31.11 CG 31.24 CD1 30.41 CD2 31.72
B THR - 66 -104.8 160.4 N 29.59 CA 31.34 C 31.63 O 30.65 CB 31.01 OG1 30.19 CG2 33.03
B PRO H 64 -53.7 -39.4 N 36.74 CA 35.98 C 35.8 O 34.97 CB 37.89 CG 39.29 CD 38.03
B GLN H 153 -57.0 -45.9 N 30.86 CA 31.66 C 30.07 O 31.2 CB 32.81 CG 37.45 CD 37.13 OE1 36.13 NE2 36.69
B GLN H 42 -62.8 -41.4 N 28.71 CA 29.61 C 28.76 O 28.11 CB 29.16 CG 30.32 CD 31.84 OE1 30.57 NE2 31.0
B VAL H 0 -61.4 -44.3 N 25.19 CA 24.91 C 25.65 O 24.73 CB 28.23 CG1 25.68 CG2 26.88
B VAL H 11 -60.9 -39.9 N 24.82 CA 24.74 C 24.05 O 23.66 CB 24.34 CG1 24.79 CG2 25.51
B ALA H 44 -65.8 -40.7 N 25.81 CA 26.42 C 26.08 O 26.24 CB 27.0
B ILE H 0 -66.2 -42.9 N 22.48 CA 23.89 C 24.93 O 23.63 CB 24.59 CG1 23.15 CG2 23.1 CD1 24.96
B ALA H 0 -69.0 -22.9 N 22.37 CA 22.92 C 23.46 O 22.93 CB 22.27
B SER S 29 -84.6 37.2 N 27.35 CA 26.73 C 27.94 O 26.57 CB 27.33 OG 29.8
B ASN S 36 -133.8 163.6 N 22.73 CA 23.57 C 23.6 O 22.44 CB 23.36 CG 23.39 OD1 27.14 ND2 23.94
B GLY T 15 -57.0 145.0 N 21.76 CA 21.8 C 20.45 O 21.37
B GLY T 33 63.1 26.6 N 25.4 CA 24.83 C 25.85 O 25.14
B GLY H 0 -51.8 -36.4 N 23.75 CA 24.06 C 24.78 O 24.02
B LYS H 52 -55.5 -44.9 N 22.82 CA 23.94 C 24.99 O 24.8 CB 23.95 CG 26.64 CD 26.83 CE 29.11 NZ 27.78
B GLN H 68 -63.6 -42.9 N 19.01 CA 19.84 C 21.25 O 21.28 CB 19.47 CG 20.8 CD 22.59 OE1 20.71 NE2 21.34
B ALA H 4 -64.3 -42.1 N 23.87 CA 24.4 C 23.22 O 23.94 CB 22.98
B LEU H 0 -66.3 -47.0 N 21.23 CA 24.07 C 24.9 O 23.16 CB 23.19 CG 22.34 CD1 22.07 CD2 23.43
B GLU H 53 -66.6 -29.8 N 27.42 CA 29.62 C 30.08 O 29.77 CB 29.38 CG 30.3 CD 30.72 OE1 30.49 OE2 32.63
B THR H 1 -76.8 -36.0 N 25.45 CA 26.32 C 26.06 O 27.2 CB 26.81 OG1 25.33 CG2 25.4
B VAL H 0 -61.0 -44.0 N 27.3 CA 27.43 C 28.3 O 28.72 CB 28.33 CG1 29.07 CG2 25.46
B GLN H 69 -58.7 -38.8 N 30.2 CA 31.23 C 32.87 O 32.59 CB 31.67 CG 33.72 CD 35.58 OE1 37.06 NE2 37.85
B ARG H 126 -78.5 -44.8 N 41.6 CA 43.58 C 44.2 O 43.99 CB 44.31 CG 46.38 CD 46.7 NE 48.84 CZ 46.72 NH1 47.18 NH2 44.75
B LEU H 6 -102.4 -14.7 N 30.29 CA 31.38 C 31.15 O 30.77 CB 30.29 CG 31.53 CD1 29.57 CD2 32.53
B LEU H 8 -51.8 -52.2 N 31.47 CA 31.49 C 33.2 O 32.72 CB 31.02 CG 34.72 CD1 32.22 CD2 33.26
B PRO H 56 -59.3 -46.6 N 36.82 CA 35.97 C 35.63 O 36.2 CB 37.37 CG 38.23 CD 35.35
B VAL H 53 -56.5 -44.6 N 43.39 CA 44.16 C 44.54 O 43.62 CB 44.1 CG1 45.91 CG2 46.49
B LEU H 0 -70.8 -35.0 N 32.68 CA 34.11 C 33.96 O 34.83 CB 32.43 CG 31.25 CD1 31.3 CD2 33.08
B CYS H 30 -80.1 -40.4 N 38.25 CA 40.89 C 42.16 O 42.74 CB 41.54 SG 40.86
B GLN H 173 -77.6 -67.1 N 77.37 CA 78.31 C 77.85 O 80.16 CB 78.63 CG 82.61 CD 85.12 OE1 86.38 NE2 83.53
B ALA T 73 -63.2 -39.7 N 70.12 CA 72.15 C 73.46 O 74.28 CB 71.77
B HIS T 51 -108.0 -1.2 N 48.68 CA 46.91 C 47.27 O 46.63 CB 43.88 CG 46.67 ND1 47.97 CD2 47.12 CE1 44.06 NE2 46.42
B GLY - 59 81.2 -2.6 N 49.36 CA 49.82 C 49.68 O 46.59
B LEU - 6 -62.4 154.6 N 44.47 CA 43.49 C 44.3 O 44.18 CB 44.35 CG 45.39 CD1 45.18 CD2 43.55
B THR - 55 -93.4 154.4 N 37.59 CA 39.17 C 39.36 O 38.41 CB 39.96 OG1 39.33 CG2 39.26
B PRO H 40 -53.2 -42.7 N 41.14 CA 39.51 C 39.37 O 37.85 CB 40.68 CG 41.47 CD 40.2
B GLN H 121 -58.0 -38.6 N 36.72 CA 36.01 C 35.31 O 35.43 CB 36.3 CG 39.61 CD 38.64 OE1 38.78 NE2 40.41
B GLN H 46 -67.4 -39.8 N 31.72 CA 31.64 C 32.43 O 31.06 CB 33.44 CG 34.28 CD 35.17 OE1 35.4 NE2 34.36
B VAL H 0 -65.6 -39.7 N 29.81 CA 30.82 C 30.06 O 29.18 CB 31.35 CG1 29.41 CG2 31.69
B VAL H 12 -61.6 -45.0 N 26.22 CA 25.38 C 24.08 O 24.07 CB 25.84 CG1 23.34 CG2 26.92
B ALA H 40 -60.4 -41.3 N 25.43 CA 26.27 C 25.26 O 26.35 CB 27.14
B ILE H 0 -66.0 -39.1 N 24.23 CA 24.82 C 24.67 O 23.49 CB 25.89 CG1 26.52 CG2 24.47 CD1 27.07
B ALA H 0 -72.5 -24.8 N 23.41 CA 23.4 C 22.67 O 23.21 CB 23.24
B SER S 24 -87.5 49.1 N 24.12 CA 23.85 C 24.68 O 23.91 CB 24.89 OG 25.62
B HIS S 49 -148.1 159.8 N 23.81 CA 23.4 C 23.2 O 23.1 CB 23.7 CG 25.08 ND1 24.99 CD2 24.32 CE1 25.5 NE2 25.12
B ASP T 92 -53.5 142.1 N 23.57 CA 24.31 C 23.52 O 23.63 CB 23.62 CG 25.69 OD1 24.83 OD2 24.82
B GLY T 38 73.6 16.2 N 21.93 CA 20.75 C 21.97 O 21.7
B GLY H 2 -50.6 -42.0 N 20.79 CA 20.16 C 20.7 O 20.61
B LYS H 58 -56.2 -46.7 N 23.06 CA 23.99 C 24.72 O 25.88 CB 22.96 CG 24.56 CD 24.74 CE 27.56 NZ 29.64
B GLN H 72 -62.4 -43.3 N 25.28 CA 25.39 C 26.7 O 25.53 CB 25.26 CG 25.18 CD 27.07 OE1 25.85 NE2 26.53
B ALA H 2 -62.8 -44.4 N 23.18 CA 24.28 C 23.67 O 22.74 CB 21.3
B LEU H 0 -61.2 -45.2 N 23.26 CA 24.29 C 24.98 O 25.3 CB 24.33 CG 23.4 CD1 23.12 CD2 24.4
B GLU H 59 -69.6 -34.1 N 31.69 CA 32.32 C 32.88 O 31.36 CB 32.22 CG 30.67 CD 33.13 OE1 33.28 OE2 32.98
B THR H 4 -70.1 -35.3 N 26.41 CA 25.73 C 27.16 O 27.91 CB 25.5 OG1 25.35 CG2 25.43
B VAL H 0 -67.0 -45.0 N 25.17 CA 26.24 C 28.06 O 27.14 CB 25.71 CG1 26.32 CG2 25.05
B GLN H 66 -54.8 -45.4 N 35.21 CA 37.97 C 37.37 O 38.48 CB 37.17 CG 38.85 CD 39.6 OE1 40.82 NE2 40.99
B ARG H 125 -72.6 -43.7 N 43.93 CA 46.63 C 47.79 O 47.42 CB 44.93 CG 48.08 CD 48.87 NE 51.06 CZ 51.54 NH1 48.56 NH2 53.18
B LEU H 3 -97.7 -16.5 N 36.89 CA 38.94 C 40.01 O 40.19 CB 37.28 CG 40.82 CD1 40.3 CD2 37.31
B LEU H 6 -51.9 -50.1 N 41.1 CA 42.73 C 44.39 O 45.31 CB 42.96 CG 44.64 CD1 44.09 CD2 45.64
B PRO H 41 -63.9 -47.2 N 52.85 CA 52.8 C 51.65 O 52.77 CB 53.82 CG 52.56 CD 50.94
B VAL H 54 -49.8 -55.1 N 53.22 CA 53.36 C 55.77 O 56.63 CB 56.82 CG1 56.02 CG2 57.59
B LEU H 0 -68.7 -31.7 N 43.87 CA 44.4 C 43.29 O 43.77 CB 42.67 CG 43.86 CD1 41.74 CD2 43.05
B CYS H 31 -82.1 -45.9 N 47.6 CA 49.29 C 51.08 O 50.93 CB 48.32 SG 47.69
B GLN H 164 -70.2 -57.1 N 83.71 CA 84.56 C 85.79 O 86.8 CB 85.85 CG 87.15 CD 88.52 OE1 90.07 NE2 86.14
B ALA H 77 -88.3 -13.9 N 64.47 CA 63.63 C 64.92 O 64.02 CB 65.63
B HIS S 48 -118.7 -8.2 N 65.9 CA 66.56 C 65.38 O 66.53 CB 65.87 CG 66.04 ND1 66.75 CD2 64.34 CE1 66.02 NE2 66.84
B GLY - 59 80.2 9.7 N 54.56 CA 54.3 C 53.47 O 54.18
B LEU - 6 -74.3 151.8 N 50.0 CA 48.18 C 46.99 O 46.52 CB 45.43 CG 47.42 CD1 47.37 CD2 46.39
B THR - 49 -90.2 154.1 N 45.25 CA 46.82 C 46.28 O 45.02 CB 47.79 OG1 44.2 CG2 46.27
B PRO H 46 -57.9 -28.1 N 50.59 CA 48.71 C 47.01 O 46.07 CB 47.61 CG 50.86 CD 50.05
B GLU H 114 -61.9 -44.6 N 41.29 CA 42.38 C 38.83 O 39.95 CB 42.42 CG 46.41 CD 44.17 OE1 44.02 OE2 45.86
B GLN H 29 -66.3 -44.5 N 33.82 CA 33.88 C 33.68 O 32.46 CB 34.32 CG 33.41 CD 35.07 OE1 37.0 NE2 35.76
B VAL H 0 -59.6 -42.2 N 27.96 CA 29.23 C 27.95 O 28.9 CB 30.14 CG1 30.41 CG2 30.07
B VAL H 12 -63.9 -42.2 N 26.75 CA 27.47 C 27.66 O 25.55 CB 27.83 CG1 27.28 CG2 28.38
B ALA H 42 -62.5 -41.1 N 26.23 CA 24.87 C 24.21 O 25.07 CB 24.28
B ILE H 0 -63.2 -42.2 N 27.26 CA 27.04 C 26.37 O 26.65 CB 28.09 CG1 27.38 CG2 27.57 CD1 28.76
B ALA H 0 -74.3 -24.9 N 24.22 CA 23.85 C 24.79 O 25.27 CB 25.35
B SER S 21 -82.7 47.9 N 25.67 CA 26.2 C 25.96 O 25.61 CB 26.18 OG 27.72
B ASN S 31 -144.9 164.9 N 25.06 CA 24.43 C 26.34 O 24.78 CB 25.37 CG 25.26 OD1 27.01 ND2 24.09
B GLY T 18 -57.8 134.9 N 24.73 CA 23.87 C 24.71 O 22.28
B GLY T 39 74.6 24.2 N 26.5 CA 24.87 C 24.25 O 24.41
B GLY H 3 -53.8 -34.0 N 20.8 CA 21.17 C 22.64 O 22.0
B LYS H 61 -63.1 -47.4 N 24.79 CA 25.47 C 26.25 O 25.89 CB 24.92 CG 26.36 CD 27.41 CE 28.59 NZ 31.52
B GLN H 78 -57.5 -44.9 N 22.2 CA 21.96 C 22.81 O 23.28 CB 21.55 CG 22.25 CD 25.55 OE1 24.58 NE2 22.38
B ALA H 3 -64.2 -45.7 N 25.07 CA 26.1 C 25.86 O 26.59 CB 24.17
B LEU H 0 -63.1 -43.6 N 26.31 CA 26.74 C 26.92 O 26.01 CB 25.07 CG 26.7 CD1 25.98 CD2 25.22
B GLU H 57 -67.8 -30.5 N 28.29 CA 28.09 C 30.64 O 29.31 CB 28.96 CG 30.97 CD 31.64 OE1 34.57 OE2 31.55
B THR H 2 -77.3 -33.8 N 24.07 CA 24.78 C 24.85 O 25.68 CB 24.37 OG1 24.14 CG2 23.82
B VAL H 0 -65.0 -47.7 N 26.65 CA 27.97 C 29.35 O 28.06 CB 28.28 CG1 30.1 CG2 26.83
B GLN H 65 -52.6 -40.7 N 35.17 CA 36.71 C 35.44 O 37.92 CB 35.9 CG 35.79 CD 38.9 OE1 39.83 NE2 37.83
B ARG H 133 -78.1 -40.9 N 36.12 CA 36.79 C 37.53 O 36.65 CB 35.31 CG 38.85 CD 41.68 NE 42.57 CZ 42.98 NH1 43.72 NH2 42.62
B LEU H 6 -104.2 -13.1 N 29.35 CA 30.25 C 29.42 O 30.73 CB 29.64 CG 29.82 CD1 28.93 CD2 33.25
B LEU H 12 -52.0 -51.0 N 31.8 CA 33.39 C 35.47 O 32.39 CB 32.45 CG 35.75 CD1 37.53 CD2 35.07
B PRO H 58 -61.0 -48.1 N 39.31 CA 37.67 C 38.47 O 39.44 CB 40.59 CG 40.76 CD 39.37
B VAL H 33 -67.6 -34.3 N 38.41 CA 38.72 C 38.69 O 38.06 CB 39.85 CG1 37.27 CG2 40.33
B LEU H 0 -65.6 -39.4 N 30.37 CA 30.02 C 30.43 O 31.72 CB 30.34 CG 30.35 CD1 27.63 CD2 29.15
B CYS H 30 -78.7 -52.1 N 39.35 CA 39.52 C 41.86 O 41.44 CB 39.16 SG 40.12
B GLN H 151 -63.5 -47.3 N 52.09 CA 52.97 C 53.11 O 54.44 CB 53.62 CG 57.45 CD 59.94 OE1 59.86 NE2 59.13
B ALA T 65 -103.0 -29.2 N 51.0 CA 50.94 C 53.43 O 53.79 CB 52.42
B HIS T 45 -106.7 -4.3 N 47.79 CA 48.11 C 46.96 O 50.26 CB 47.35 CG 48.85 ND1 49.93 CD2 47.55 CE1 48.73 NE2 50.89
B GLY - 57 77.2 14.1 N 41.88 CA 42.39 C 41.94 O 40.29
B LEU - 7 -74.7 155.7 N 31.1 CA 30.19 C 30.56 O 33.07 CB 30.12 CG 29.59 CD1 30.38 CD2 30.75
B THR - 59 -89.7 158.7 N 34.92 CA 33.96 C 35.15 O 33.35 CB 34.68 OG1 33.82 CG2 35.38
B PRO H 43 -57.3 -36.4 N 36.62 CA 37.27 C 35.4 O 33.78 CB 37.37 CG 38.52 CD 36.66
B GLU H 114 -61.3 -40.0 N 34.67 CA 34.14 C 32.9 O 32.44 CB 34.46 CG 36.39 CD 36.95 OE1 39.6 OE2 36.83
B GLN H 47 -67.0 -41.8 N 26.35 CA 26.61 C 27.33 O 25.87 CB 28.18 CG 27.47 CD 28.68 OE1 27.57 NE2 29.43
B VAL H 0 -62.1 -46.4 N 26.07 CA 27.6 C 26.83 O 25.43 CB 27.69 CG1 27.23 CG2 28.38
B VAL H 12 -60.8 -39.2 N 24.02 CA 25.06 C 26.94 O 24.78 CB 26.73 CG1 26.68 CG2 26.44
B ALA H 37 -62.0 -45.2 N 23.74 CA 25.7 C 23.71 O 23.7 CB 25.39
B ILE H 1 -60.4 -41.2 N 22.53 CA 22.88 C 23.01 O 22.87 CB 24.16 CG1 23.87 CG2 23.46 CD1 24.23
B ALA H 0 -80.0 -14.6 N 23.76 CA 22.98 C 23.18 O 22.08 CB 22.7
B SER S 21 -91.4 45.6 N 22.62 CA 23.72 C 23.19 O 22.92 CB 25.15 OG 24.44
B HIS S 55 -147.9 165.7 N 23.23 CA 22.95 C 23.02 O 22.32 CB 23.85 CG 23.46 ND1 25.49 CD2 23.57 CE1 24.27 NE2 24.33
B ASP T 97 -51.7 132.5 N 26.38 CA 26.03 C 25.86 O 25.82 CB 24.57 CG 25.89 OD1 28.88 OD2 25.73
B GLY T 39 75.7 22.2 N 23.33 CA 23.07 C 22.94 O 23.23
B GLY H 2 -50.4 -35.5 N 21.65 CA 22.67 C 22.61 O 22.22
B LYS H 44 -59.7 -45.8 N 26.42 CA 25.91 C 25.28 O 27.22 CB 25.73 CG 27.74 CD 27.04 CE 32.27 NZ 30.96
B GLN H 66 -64.9 -44.0 N 21.27 CA 21.79 C 23.11 O 23.34 CB 21.27 CG 23.35 CD 22.97 OE1 23.06 NE2 23.51
B ALA H 3 -59.7 -49.4 N 23.59 CA 23.58 C 24.32 O 24.88 CB 22.95
B LEU H 0 -55.6 -47.3 N 24.66 CA 25.65 C 27.02 O 26.55 CB 25.23 CG 26.5 CD1 25.18 CD2 26.2
B GLU H 46 -68.7 -29.2 N 29.48 CA 29.93 C 30.01 O 30.57 CB 29.46 CG 28.8 CD 31.18 OE1 32.29 OE2 32.26
B THR H 3 -76.7 -39.3 N 25.72 CA 25.39 C 25.62 O 26.51 CB 25.55 OG1 25.8 CG2 25.65
B VAL H 0 -56.9 -45.2 N 26.63 CA 26.54 C 26.72 O 27.31 CB 26.82 CG1 27.28 CG2 25.69
B GLN H 63 -59.4 -42.1 N 31.73 CA 33.12 C 34.68 O 37.65 CB 34.64 CG 36.42 CD 38.71 OE1 37.94 NE2 38.16
B ARG H 132 -64.4 -48.5 N 43.73 CA 42.46 C 43.27 O 45.44 CB 42.03 CG 46.26 CD 47.23 NE 46.99 CZ 47.67 NH1 45.36 NH2 47.68
B LEU H 17 -108.5 -12.3 N 32.92 CA 32.24 C 33.61 O 33.65 CB 31.46 CG 33.48 CD1 32.15 CD2 35.68
B LEU H 6 -51.9 -49.5 N 39.92 CA 40.67 C 41.03 O 41.44 CB 39.54 CG 42.35 CD1 40.97 CD2 44.07
B PRO H 38 -63.1 -45.8 N 47.75 CA 47.55 C 47.1 O 48.09 CB 47.11 CG 48.41 CD 44.88
B VAL H 51 -66.3 -38.7 N 44.29 CA 45.86 C 45.59 O 44.48 CB 45.49 CG1 45.04 CG2 45.76
B LEU H 0 -63.5 -39.0 N 37.74 CA 37.85 C 38.5 O 39.62 CB 36.25 CG 36.44 CD1 36.57 CD2 36.59
B CYS H 27 -82.4 -53.1 N 38.77 CA 40.9 C 40.86 O 42.19 CB 39.04 SG 38.48
B GLN H 167 -73.3 -35.2 N 55.79 CA 56.73 C 57.48 O 57.15 CB 57.22 CG 56.61 CD 60.3 OE1 61.07 NE2 58.91
B ALA T 65 -102.1 -12.5 N 50.41 CA 50.56 C 52.64 O 52.35 CB 53.65
B HIS T 44 -132.7 -0.2 N 53.27 CA 54.38 C 51.9 O 51.93 CB 54.77 CG 56.71 ND1 57.71 CD2 55.68 CE1 57.86 NE2 58.27
B GLY - 60 75.1 12.7 N 48.42 CA 48.59 C 48.53 O 48.15
B LEU - 11 -65.6 160.3 N 33.91 CA 32.93 C 31.6 O 31.63 CB 32.84 CG 34.19 CD1 33.38 CD2 33.14
B THR - 59 -100.0 155.9 N 31.96 CA 32.55 C 31.39 O 31.89 CB 30.55 OG1 29.58 CG2 31.75
B PRO H 55 -53.8 -39.0 N 32.57 CA 32.31 C 31.74 O 30.27 CB 31.57 CG 33.22 CD 31.25
B GLN H 122 -51.6 -43.7 N 36.08 CA 36.44 C 35.82 O 36.0 CB 39.46 CG 36.9 CD 40.25 OE1 39.37 NE2 40.95
B GLN H 38 -71.2 -43.4 N 30.2 CA 31.67 C 30.07 O 30.06 CB 30.59 CG 32.98 CD 33.16 OE1 33.3 NE2 34.72
B VAL H 0 -62.7 -44.8 N 25.28 CA 26.03 C 25.27 O 25.19 CB 26.94 CG1 27.87 CG2 27.69
B VAL H 12 -58.2 -43.4 N 26.16 CA 25.67 C 27.32 O 27.1 CB 26.83 CG1 27.15 CG2 27.71
B ALA H 34 -61.7 -45.1 N 25.43 CA 24.76 C 25.4 O 24.43 CB 25.92
B ILE H 1 -61.2 -43.0 N 24.62 CA 25.95 C 26.66 O 25.73 CB 26.87 CG1 25.26 CG2 25.84 CD1 24.89
B ALA H 0 -72.4 -23.0 N 25.74 CA 26.02 C 26.68 O 28.1 CB 25.77
B SER S 22 -85.7 53.1 N 25.21 CA 25.88 C 26.51 O 24.98 CB 27.85 OG 27.81
B ASN S 67 -152.5 158.7 N 27.95 CA 28.51 C 27.97 O 27.93 CB 29.04 CG 30.76 OD1 31.25 ND2 28.89
B GLY T 50 -54.2 144.3 N 25.42 CA 25.49 C 24.86 O 26.34
B GLY T 40 72.3 23.5 N 24.25 CA 23.87 C 24.35 O 25.73
B GLY H 4 -57.7 -44.3 N 20.97 CA 20.18 C 21.44 O 20.28
B ARG H 101 -58.9 -53.8 N 23.59 CA 24.61 C 24.38 O 25.05 CB 23.88 CG 24.91 CD 27.41 NE 30.03 CZ 31.59 NH1 26.49 NH2 32.96
B PRO H 24 -75.0 -18.8 N 26.51 CA 26.04 C 27.57 O 28.25 CB 27.39 CG 26.92 CD 27.73
B ALA H 2 -63.0 -50.0 N 27.75 CA 26.68 C 28.78 O 29.52 CB 27.15
B LEU H 0 -60.4 -44.6 N 26.0 CA 27.25 C 28.68 O 28.07 CB 25.62 CG 27.83 CD1 28.72 CD2 29.17
B GLU H 52 -63.4 -42.3 N 31.62 CA 31.52 C 33.16 O 33.07 CB 31.02 CG 29.94 CD 34.27 OE1 35.12 OE2 34.38
B SER H 21 -63.2 -36.8 N 36.06 CA 36.18 C 38.19 O 38.34 CB 37.99 OG 39.47
B ILE H 0 -79.8 -32.9 N 35.43 CA 36.29 C 37.98 O 39.26 CB 33.97 CG1 36.99 CG2 35.52 CD1 36.95
B VAL H 25 -70.4 -26.3 N 41.07 CA 43.96 C 46.8 O 48.91 CB 43.67 CG1 46.66 CG2 47.49
B ALA H 57 -66.4 -44.0 N 43.52 CA 46.17 C 48.48 O 49.4 CB 43.81
B GLN H 34 -61.7 -62.6 N 63.91 CA 66.38 C 68.12 O 69.91 CB 66.55 CG 68.2 CD 70.89 OE1 70.78 NE2 71.23
B LEU H 21 -52.5 -26.8 N 61.51 CA 63.31 C 64.75 O 66.49 CB 59.06 CG 60.29 CD1 59.89 CD2 58.96
B SER H 72 -96.7 -16.4 N 68.43 CA 70.08 C 71.22 O 70.43 CB 68.0 OG 70.83
B ARG S 213 -157.9 82.4 N 85.96 CA 86.56 C 86.79 O 86.71 CB 89.06 CG 90.98 CD 93.46 NE 96.66 CZ 96.9 NH1 94.96 NH2 94.84
B PRO - 98 -97.2 145.9 N 82.54 CA 83.12 C 84.95 O 86.68 CB 83.86 CG 83.81 CD 83.73
B ASP - 115 -148.5 360.0 N 75.78 CA 75.28 C 76.26 O 74.62 CB 75.68 CG 75.6 OD1 73.58 OD2 73.18
B ALA - 132 360.0 117.4 N 62.41 CA 61.86 C 65.32 O 62.59 CB 62.12
B LEU - 51 -90.8 167.2 N 64.85 CA 62.34 C 62.12 O 64.26 CB 62.07 CG 61.85 CD1 62.76 CD2 59.77
B THR - 81 -66.0 158.3 N 49.91 CA 51.36 C 51.67 O 49.81 CB 49.03 OG1 49.41 CG2 51.04
B ASN H 82 -59.1 -46.2 N 52.52 CA 52.26 C 54.01 O 52.42 CB 53.99 CG 55.76 OD1 54.77 ND2 53.98
B ASP H 102 -59.1 -32.4 N 51.42 CA 51.36 C 50.05 O 50.2 CB 51.31 CG 53.27 OD1 53.41 OD2 51.37
B HIS H 2 -68.7 -43.4 N 38.0 CA 38.98 C 36.23 O 35.35 CB 38.2 CG 37.91 ND1 39.36 CD2 38.88 CE1 37.44 NE2 38.14
B LEU H 15 -59.6 -43.7 N 42.07 CA 41.35 C 40.85 O 40.12 CB 41.61 CG 44.31 CD1 45.68 CD2 44.4
B VAL H 10 -61.8 -45.7 N 36.48 CA 35.96 C 36.04 O 33.12 CB 36.35 CG1 36.43 CG2 37.29
B ALA H 16 -61.5 -40.4 N 32.34 CA 29.95 C 30.95 O 32.41 CB 31.5
B LEU H 1 -64.5 -43.7 N 33.19 CA 33.84 C 33.59 O 32.75 CB 33.07 CG 36.27 CD1 37.12 CD2 33.95
B ALA H 1 -62.1 -38.7 N 28.39 CA 29.14 C 28.73 O 28.25 CB 28.72
B CYS H 33 -68.6 -39.6 N 28.48 CA 28.42 C 29.2 O 29.44 CB 30.22 SG 29.57
B LEU H 14 -68.9 -45.4 N 33.1 CA 32.66 C 32.09 O 34.62 CB 32.18 CG 34.21 CD1 33.25 CD2 33.16
B GLY H 15 -147.0 24.5 N 27.82 CA 29.25 C 30.63 O 29.88
B GLY H 11 48.5 -149.7 N 30.28 CA 28.76 C 31.81 O 30.52
B ARG H 114 -48.2 -46.2 N 32.53 CA 33.92 C 34.74 O 36.16 CB 33.96 CG 34.69 CD 37.24 NE 37.52 CZ 36.1 NH1 35.82 NH2 35.49
B PRO H 78 -62.8 -30.8 N 36.86 CA 38.64 C 39.89 O 37.8 CB 37.17 CG 38.46 CD 37.55
B ALA H 0 -63.4 -51.4 N 39.93 CA 39.17 C 40.26 O 43.06 CB 38.42
B LEU H 14 -60.6 -40.6 N 42.94 CA 43.25 C 46.32 O 45.1 CB 43.1 CG 45.75 CD1 44.84 CD2 45.49
B ASP H 62 -67.3 -40.2 N 45.9 CA 46.38 C 47.4 O 48.22 CB 45.61 CG 47.15 OD1 50.08 OD2 48.12
B ALA H 28 -66.8 -38.9 N 44.25 CA 46.7 C 48.75 O 49.19 CB 45.79
B VAL H 12 -73.5 -33.7 N 44.74 CA 44.12 C 46.3 O 46.13 CB 44.0 CG1 45.29 CG2 42.84
B LYS H 116 -59.6 -38.9 N 56.46 CA 56.78 C 57.2 O 57.8 CB 55.92 CG 58.29 CD 61.32 CE 59.73 NZ 59.73
B LYS H 162 -68.6 -40.6 N 68.4 CA 71.31 C 71.36 O 72.78 CB 71.96 CG 69.99 CD 69.57 CE 71.71 NZ 74.06
B LEU - 96 -50.2 360.0 N 61.4 CA 61.03 C 59.14 O 60.21 CB 58.46 CG 59.55 CD1 59.02 CD2 56.59
