A ARG - 189 360.0 175.5 N 103.93 CA 103.27 C 102.33 O 99.47 CB 101.84 CG 105.47 CD 118.41 NE 129.69 CZ 145.75 NH1 130.28 NH2 136.32
A ARG H 157 -59.8 -50.8 N 98.23 CA 96.0 C 90.84 O 89.05 CB 100.91 CG 118.18 CD 126.67 NE 135.16 CZ 147.12 NH1 131.73 NH2 135.58
A PHE H 44 -63.1 -45.4 N 81.79 CA 75.05 C 73.86 O 71.0 CB 74.42 CG 75.55 CD1 75.47 CD2 81.45 CE1 76.84 CE2 84.6 CZ 79.63
A GLN H 57 -60.4 -48.8 N 70.35 CA 68.7 C 74.62 O 72.69 CB 72.09 CG 68.78 CD 74.09 OE1 65.29 NE2 54.97
A GLU H 132 -67.1 -36.5 N 75.09 CA 77.75 C 80.19 O 81.69 CB 85.04 CG 99.91 CD 122.44 OE1 105.17 OE2 121.61
A THR H 57 -69.4 -42.9 N 74.88 CA 73.67 C 73.58 O 73.52 CB 82.18 OG1 84.45 CG2 81.07
A LEU H 1 -60.5 -49.5 N 66.46 CA 61.21 C 67.44 O 67.73 CB 57.39 CG 55.3 CD1 51.39 CD2 51.78
A ASP H 44 -61.4 -41.0 N 66.23 CA 67.51 C 73.11 O 73.04 CB 72.66 CG 83.96 OD1 80.87 OD2 93.32
A LYS H 151 -64.3 -52.2 N 72.76 CA 76.8 C 79.29 O 79.99 CB 83.56 CG 105.84 CD 120.69 CE 133.9 NZ 144.73
A ILE H 57 -60.3 -47.6 N 74.47 CA 74.38 C 76.02 O 78.83 CB 76.14 CG1 78.78 CG2 79.57 CD1 89.09
A ARG H 44 -55.8 -48.9 N 68.82 CA 66.6 C 75.34 O 75.58 CB 60.37 CG 56.93 CD 57.15 NE 51.71 CZ 73.14 NH1 62.12 NH2 60.25
A LYS H 133 -64.4 -47.8 N 75.79 CA 79.9 C 87.03 O 88.73 CB 85.28 CG 95.88 CD 107.35 CE 112.0 NZ 118.76
A GLU H 162 -66.4 -30.3 N 85.25 CA 89.31 C 92.06 O 96.34 CB 92.26 CG 106.49 CD 126.94 OE1 112.01 OE2 124.77
A GLU T 94 -87.9 -4.6 N 83.55 CA 82.21 C 83.69 O 84.4 CB 79.41 CG 95.07 CD 128.13 OE1 129.26 OE2 126.78
A GLY T 34 68.5 43.1 N 77.24 CA 76.14 C 71.85 O 71.79
A TYR - 9 -106.5 144.9 N 60.83 CA 56.03 C 60.09 O 61.74 CB 52.82 CG 54.16 CD1 54.26 CD2 56.5 CE1 54.39 CE2 57.72 CZ 63.62 OH 62.01
A ASP S 35 -73.8 -32.7 N 54.56 CA 53.99 C 54.81 O 54.74 CB 55.79 CG 64.4 OD1 69.76 OD2 65.02
A PHE E 0 -142.7 151.9 N 48.88 CA 45.31 C 47.35 O 47.25 CB 45.46 CG 43.61 CD1 46.52 CD2 41.55 CE1 45.63 CE2 42.47 CZ 41.04
A ALA E 0 -147.6 149.0 N 43.11 CA 42.45 C 46.25 O 47.07 CB 44.72
A ALA E 0 -154.7 159.5 N 41.85 CA 39.99 C 45.14 O 42.43 CB 39.32
A ILE E 9 -130.3 128.2 N 41.7 CA 41.71 C 44.3 O 42.84 CB 46.96 CG1 48.91 CG2 48.84 CD1 58.61
A ALA E 0 -108.0 146.4 N 40.33 CA 41.01 C 44.48 O 41.45 CB 40.7
A PHE E 38 -145.4 166.7 N 44.98 CA 48.42 C 52.22 O 49.6 CB 53.34 CG 55.17 CD1 58.92 CD2 58.65 CE1 60.95 CE2 62.52 CZ 60.63
A TYR E 91 -65.4 135.9 N 50.35 CA 54.09 C 56.33 O 55.66 CB 61.11 CG 65.33 CD1 68.85 CD2 66.48 CE1 71.57 CE2 68.01 CZ 79.51 OH 85.49
A GLU S 124 -58.1 -44.1 N 67.52 CA 68.09 C 73.85 O 72.92 CB 71.4 CG 86.51 CD 102.74 OE1 98.63 OE2 93.59
A SER - 44 -140.8 -178.7 N 72.92 CA 74.69 C 82.68 O 79.94 CB 79.37 OG 85.73
A ASN S 164 -75.8 -23.1 N 83.89 CA 86.86 C 96.37 O 97.52 CB 92.66 CG 122.18 OD1 121.14 ND2 108.73
A LYS S 137 -53.0 138.7 N 95.17 CA 97.52 C 102.42 O 101.0 CB 100.96 CG 118.99 CD 135.16 CE 147.9 NZ 155.41
A PRO T 142 -52.9 -42.7 N 101.37 CA 101.92 C 105.39 O 104.9 CB 105.95 CG 110.76 CD 104.37
A SER T 110 -98.9 36.4 N 101.54 CA 101.23 C 101.26 O 100.63 CB 107.89 OG 119.75
A SER - 10 -67.7 134.8 N 93.65 CA 89.68 C 88.2 O 88.3 CB 90.84 OG 91.12
A PRO - 27 -76.9 169.6 N 80.19 CA 77.76 C 75.17 O 72.39 CB 79.92 CG 84.94 CD 81.54
A ILE E 0 -104.2 141.3 N 58.04 CA 52.88 C 54.58 O 54.16 CB 54.21 CG1 57.23 CG2 50.39 CD1 66.81
A LYS E 40 -139.6 154.0 N 49.53 CA 48.6 C 50.32 O 45.75 CB 53.5 CG 68.7 CD 76.84 CE 87.02 NZ 87.39
A TRP E 6 -79.2 112.5 N 46.75 CA 45.71 C 52.71 O 53.69 CB 42.32 CG 42.28 CD1 45.56 CD2 40.43 NE1 43.76 CE2 43.64 CE3 40.66 CZ2 43.42 CZ3 42.07 CH2 43.25
A HIS E 107 -92.6 -46.8 N 51.4 CA 53.45 C 57.2 O 59.88 CB 55.79 CG 60.72 ND1 65.32 CD2 61.63 CE1 65.75 NE2 63.89
A TYR E 20 -119.3 142.1 N 48.71 CA 49.22 C 50.33 O 46.27 CB 51.94 CG 57.51 CD1 62.26 CD2 59.3 CE1 66.24 CE2 63.28 CZ 74.28 OH 81.0
A VAL E 15 -137.4 157.1 N 46.98 CA 45.71 C 51.91 O 53.86 CB 48.26 CG1 46.37 CG2 48.78
A SER E 1 -145.5 130.2 N 47.85 CA 49.15 C 52.66 O 50.54 CB 53.64 OG 63.22
A GLY S 28 75.4 15.2 N 53.37 CA 53.76 C 55.92 O 55.66
A ASN - 53 -66.6 144.6 N 50.27 CA 49.83 C 59.42 O 62.62 CB 48.25 CG 58.93 OD1 53.48 ND2 52.58
A LYS S 148 -87.5 -26.0 N 57.08 CA 59.65 C 63.94 O 65.75 CB 63.0 CG 71.28 CD 78.19 CE 94.61 NZ 100.85
A ASN - 26 -152.8 -176.3 N 58.74 CA 59.31 C 59.52 O 55.18 CB 60.03 CG 67.21 OD1 55.38 ND2 49.75
A ASN S 96 -106.1 12.8 N 56.89 CA 55.11 C 56.12 O 55.31 CB 60.39 CG 82.74 OD1 88.41 ND2 65.36
A ARG G 139 -65.1 -12.9 N 52.1 CA 52.87 C 55.37 O 56.67 CB 50.75 CG 51.54 CD 63.32 NE 59.78 CZ 78.22 NH1 65.77 NH2 71.05
A PHE G 9 -63.8 -24.6 N 50.5 CA 48.06 C 54.3 O 53.33 CB 46.82 CG 48.3 CD1 49.08 CD2 48.98 CE1 51.39 CE2 52.8 CZ 51.92
A LYS G 114 -68.9 -19.2 N 52.91 CA 54.99 C 62.64 O 64.64 CB 58.53 CG 62.86 CD 76.46 CE 84.12 NZ 94.3
A LEU G 135 -79.3 -12.8 N 59.03 CA 61.69 C 61.77 O 63.28 CB 64.0 CG 71.28 CD1 73.66 CD2 79.29
A ILE - 12 -80.2 119.0 N 52.25 CA 51.34 C 57.58 O 54.92 CB 49.52 CG1 48.19 CG2 49.0 CD1 51.82
A ILE - 101 -122.5 113.9 N 58.96 CA 63.3 C 70.51 O 72.4 CB 70.57 CG1 72.4 CG2 74.74 CD1 84.92
A LEU B 9 -115.9 132.2 N 66.95 CA 67.42 C 73.33 O 70.96 CB 64.78 CG 67.52 CD1 65.03 CD2 71.1
A ARG - 182 -85.3 161.8 N 75.26 CA 78.78 C 83.81 O 81.93 CB 81.8 CG 98.92 CD 116.7 NE 129.35 CZ 146.23 NH1 137.37 NH2 132.43
A LYS T 128 -58.9 134.2 N 81.4 CA 81.25 C 86.04 O 87.93 CB 86.24 CG 100.72 CD 114.93 CE 123.84 NZ 136.47
A GLY T 21 83.8 -0.7 N 80.46 CA 80.44 C 83.05 O 83.27
A ARG - 145 -114.1 139.1 N 77.76 CA 76.59 C 75.2 O 73.45 CB 80.29 CG 96.34 CD 112.75 NE 129.44 CZ 147.83 NH1 136.3 NH2 136.23
A GLY H 6 77.1 -175.6 N 68.65 CA 68.04 C 68.95 O 68.04
A LEU H 2 -65.9 -48.0 N 63.72 CA 61.65 C 61.75 O 60.03 CB 63.05 CG 70.52 CD1 73.71 CD2 74.25
A ALA H 0 -60.6 -49.5 N 57.42 CA 56.17 C 62.38 O 62.17 CB 57.32
A GLY H 0 -59.6 -40.8 N 60.06 CA 60.05 C 63.93 O 62.11
A THR H 41 -64.6 -47.6 N 60.4 CA 61.6 C 64.86 O 65.41 CB 74.13 OG1 79.6 CG2 71.11
A VAL H 1 -65.9 -41.1 N 59.85 CA 57.8 C 65.51 O 66.02 CB 57.2 CG1 54.99 CG2 56.11
A LYS H 139 -71.1 -51.2 N 71.2 CA 73.38 C 77.95 O 80.3 CB 77.02 CG 100.26 CD 112.14 CE 126.03 NZ 134.25
A THR H 76 -80.3 -34.5 N 72.55 CA 72.93 C 75.42 O 77.53 CB 75.96 OG1 65.42 CG2 78.78
A GLY - 18 74.8 23.6 N 69.39 CA 67.8 C 69.79 O 70.66
A LYS - 150 -122.5 141.4 N 63.25 CA 62.64 C 65.52 O 64.67 CB 66.89 CG 76.11 CD 89.96 CE 105.37 NZ 118.93
A ARG - 160 -62.7 153.0 N 63.29 CA 64.09 C 69.02 O 69.35 CB 66.34 CG 72.13 CD 85.36 NE 92.27 CZ 105.98 NH1 102.54 NH2 87.31
A VAL E 56 -127.6 128.1 N 57.21 CA 56.44 C 58.57 O 56.84 CB 61.43 CG1 61.13 CG2 61.6
A ILE E 9 -124.8 99.1 N 53.48 CA 53.97 C 55.76 O 54.36 CB 58.01 CG1 58.18 CG2 60.84 CD1 58.3
A ALA S 72 -67.7 -28.3 N 53.52 CA 54.62 C 57.38 O 58.56 CB 57.19
A ASN - 77 -152.0 102.8 N 52.85 CA 52.3 C 54.8 O 53.73 CB 48.37 CG 66.47 OD1 55.2 ND2 69.25
A VAL H 2 -59.4 -46.7 N 48.23 CA 48.62 C 53.44 O 52.03 CB 53.32 CG1 53.52 CG2 52.58
A GLY H 66 -56.2 -33.8 N 51.92 CA 52.48 C 53.12 O 53.41
A LEU H 150 -87.3 -39.9 N 47.68 CA 48.01 C 53.6 O 52.96 CB 48.76 CG 55.1 CD1 56.59 CD2 59.06
A ALA H 60 -73.6 -30.3 N 52.02 CA 53.11 C 54.53 O 55.0 CB 54.07
A LEU S 19 -130.8 141.5 N 49.12 CA 50.16 C 56.11 O 57.34 CB 49.52 CG 56.48 CD1 55.85 CD2 63.31
A GLY - 17 -70.2 144.6 N 52.47 CA 52.69 C 58.7 O 55.12
A PRO G 110 -53.6 -31.7 N 58.64 CA 59.57 C 65.86 O 65.27 CB 62.51 CG 67.42 CD 61.94
A GLU G 140 -73.7 -33.1 N 66.1 CA 68.17 C 72.41 O 72.72 CB 71.95 CG 78.8 CD 94.92 OE1 100.65 OE2 72.25
A GLU G 76 -79.0 -4.0 N 67.8 CA 67.63 C 70.75 O 69.72 CB 70.03 CG 82.73 CD 103.57 OE1 80.78 OE2 102.38
A LYS G 52 -63.1 -23.0 N 66.2 CA 64.37 C 66.62 O 64.99 CB 66.19 CG 69.96 CD 79.19 CE 86.84 NZ 93.05
A ILE G 112 -61.1 -21.6 N 63.77 CA 63.81 C 62.78 O 61.92 CB 69.1 CG1 71.07 CG2 71.72 CD1 78.79
A ASP G 53 -76.2 -16.3 N 57.94 CA 59.72 C 59.91 O 59.4 CB 64.77 CG 81.0 OD1 81.74 OD2 91.81
A TYR S 45 -129.2 71.9 N 52.18 CA 49.57 C 50.13 O 50.29 CB 51.72 CG 57.11 CD1 61.41 CD2 60.35 CE1 66.72 CE2 64.09 CZ 76.9 OH 85.27
A PRO H 32 -59.6 -25.0 N 43.57 CA 42.64 C 45.45 O 44.29 CB 44.82 CG 49.43 CD 45.21
A ILE H 1 -62.7 -31.1 N 42.02 CA 42.63 C 45.45 O 46.45 CB 45.91 CG1 48.21 CG2 44.58 CD1 47.3
A LEU H 0 -62.5 -37.0 N 41.41 CA 41.65 C 45.62 O 44.71 CB 42.59 CG 47.79 CD1 49.16 CD2 47.92
A LEU H 79 -75.6 -47.5 N 45.13 CA 46.52 C 50.15 O 51.34 CB 47.97 CG 54.84 CD1 56.81 CD2 59.44
A SER H 15 -69.1 -28.0 N 45.89 CA 47.06 C 50.84 O 52.27 CB 48.08 OG 48.06
A GLU T 1 -106.4 2.5 N 45.26 CA 45.7 C 49.81 O 49.34 CB 45.92 CG 51.99 CD 68.3 OE1 64.82 OE2 56.01
A SER T 78 50.0 52.2 N 45.06 CA 45.05 C 47.0 O 46.21 CB 50.72 OG 60.64
A LEU - 0 -83.9 133.7 N 41.24 CA 41.39 C 46.05 O 47.6 CB 40.09 CG 42.46 CD1 39.09 CD2 45.74
A THR S 46 -104.8 -16.7 N 43.31 CA 44.91 C 48.84 O 50.84 CB 55.84 OG1 54.32 CG2 53.1
A ALA E 1 -147.8 145.1 N 46.52 CA 47.4 C 49.79 O 49.6 CB 51.09
A VAL E 0 -143.6 150.3 N 46.45 CA 47.09 C 49.03 O 48.32 CB 50.81 CG1 48.87 CG2 51.73
A LEU E 13 -129.2 121.3 N 45.83 CA 47.15 C 48.37 O 49.1 CB 49.67 CG 55.89 CD1 56.22 CD2 62.42
A ALA E 0 -126.0 124.7 N 43.29 CA 42.74 C 49.36 O 48.22 CB 42.01
A VAL E 38 -121.2 147.4 N 46.96 CA 48.97 C 50.13 O 45.71 CB 56.46 CG1 58.32 CG2 55.99
A PRO E 18 -75.4 148.9 N 47.42 CA 47.15 C 50.55 O 51.28 CB 50.75 CG 57.58 CD 51.39
A LEU E 28 -106.9 126.5 N 48.04 CA 48.7 C 49.91 O 47.43 CB 47.74 CG 50.23 CD1 50.51 CD2 53.97
A TRP E 136 -108.8 140.8 N 52.12 CA 54.88 C 60.08 O 60.38 CB 57.36 CG 58.41 CD1 60.46 CD2 59.21 NE1 59.27 CE2 62.13 CE3 61.82 CZ2 63.37 CZ3 65.31 CH2 65.86
A TYR E 175 -139.2 114.7 N 56.39 CA 56.64 C 59.21 O 58.03 CB 57.49 CG 63.62 CD1 67.97 CD2 64.79 CE1 70.17 CE2 68.75 CZ 77.29 OH 81.44
A LYS T 182 52.1 47.3 N 56.36 CA 58.55 C 62.73 O 61.06 CB 61.72 CG 74.95 CD 89.49 CE 106.08 NZ 116.94
A ASN T 154 69.9 20.9 N 60.15 CA 61.01 C 64.94 O 66.9 CB 61.3 CG 81.01 OD1 81.7 ND2 73.51
A GLN E 139 -126.5 133.8 N 54.07 CA 54.23 C 56.49 O 55.55 CB 57.74 CG 69.71 CD 90.88 OE1 89.39 NE2 76.59
A VAL E 15 -77.1 120.2 N 55.01 CA 53.72 C 56.96 O 59.51 CB 57.97 CG1 55.84 CG2 58.49
A TYR E 84 -109.8 -15.9 N 51.75 CA 52.5 C 51.81 O 52.01 CB 55.26 CG 58.24 CD1 60.7 CD2 58.49 CE1 61.45 CE2 59.67 CZ 67.76 OH 69.46
A GLY E 0 -158.7 175.1 N 47.43 CA 45.47 C 49.16 O 48.67
A VAL E 0 -128.5 126.5 N 44.02 CA 43.15 C 45.67 O 44.38 CB 46.19 CG1 44.31 CG2 46.98
A LEU E 19 -103.0 123.3 N 44.52 CA 44.29 C 47.41 O 46.24 CB 46.53 CG 51.37 CD1 52.09 CD2 52.46
A LEU E 0 -119.1 138.9 N 44.15 CA 44.79 C 47.16 O 45.99 CB 44.45 CG 51.4 CD1 53.17 CD2 58.61
A PHE E 13 -122.0 136.1 N 44.5 CA 45.12 C 47.59 O 46.98 CB 48.86 CG 51.28 CD1 53.79 CD2 55.49 CE1 56.34 CE2 59.69 CZ 58.18
A GLY E 0 -138.1 150.4 N 43.75 CA 43.38 C 48.95 O 49.41
A GLN E 3 -114.9 151.6 N 46.47 CA 48.25 C 51.04 O 48.86 CB 52.24 CG 59.43 CD 69.0 OE1 61.13 NE2 68.68
A ARG - 14 -118.8 168.6 N 54.15 CA 54.27 C 59.57 O 60.33 CB 56.57 CG 58.34 CD 58.41 NE 52.12 CZ 62.36 NH1 50.85 NH2 49.5
A ASP T 146 55.1 26.1 N 58.19 CA 61.55 C 67.85 O 71.35 CB 66.02 CG 76.63 OD1 77.01 OD2 85.89
A GLY T 56 81.8 6.2 N 61.89 CA 61.99 C 65.74 O 66.66
A ARG - 108 -63.0 122.8 N 62.56 CA 63.18 C 62.81 O 60.47 CB 64.55 CG 83.43 CD 98.51 NE 111.5 CZ 126.25 NH1 120.56 NH2 103.03
A PRO - 102 -68.8 158.1 N 61.35 CA 59.73 C 64.37 O 64.34 CB 63.84 CG 71.26 CD 65.74
A LEU - 32 -67.9 130.2 N 60.78 CA 61.52 C 73.57 O 74.98 CB 60.13 CG 61.28 CD1 60.54 CD2 61.26
A PRO - 44 -67.8 171.3 N 73.86 CA 77.08 C 82.22 O 79.68 CB 79.66 CG 81.04 CD 74.07
A LYS - 201 -53.5 124.7 N 84.22 CA 85.58 C 89.15 O 90.45 CB 92.59 CG 107.9 CD 122.41 CE 134.15 NZ 142.67
A ILE - 110 -75.9 360.0 N 83.13 CA 91.34 C 120.75 O 96.13 CB 91.28 CG1 87.44 CG2 91.6 CD1 86.34
