A LEU - 107 360.0 133.8 N 135.7 CA 143.08 C 145.15 O 141.75 CB 138.25
A ARG G 199 -74.4 -38.1 N 149.25 CA 147.2 C 141.43 O 132.59 CB 148.96 CG 149.58 CD 150.72 NE 147.84 CZ 141.36 NH1 132.56 NH2 137.3
A ALA G 55 -87.1 28.7 N 140.23 CA 130.9 C 125.43 O 126.34 CB 130.33
A GLU G 69 -68.2 -18.8 N 122.54 CA 115.95 C 116.38 O 117.14 CB 109.13 CG 109.4 CD 114.75 OE1 115.32 OE2 114.92
A GLN H 117 -38.4 -44.3 N 116.66 CA 114.14 C 105.36 O 99.71 CB 122.7 CG 131.62 CD 136.21 OE1 136.53 NE2 138.43
A THR H 50 -48.2 -65.1 N 94.27 CA 87.96 C 87.05 O 88.68 CB 82.78 OG1 80.18 CG2 81.08
A ARG H 96 -51.9 -35.0 N 82.44 CA 78.39 C 77.52 O 75.28 CB 76.97 CG 82.1 CD 82.81 NE 85.39 CZ 86.24 NH1 87.54 NH2 84.84
A ALA H 40 -57.9 -51.6 N 77.39 CA 79.9 C 78.84 O 78.97 CB 84.06
A THR H 62 -78.2 -24.0 N 78.98 CA 78.19 C 74.51 O 75.63 CB 80.6 OG1 78.06 CG2 85.27
A ILE H 0 -63.2 -48.2 N 69.46 CA 65.89 C 67.07 O 63.64 CB 61.95 CG1 63.93 CG2 58.74 CD1 65.76
A ILE H 10 -64.3 -40.0 N 67.19 CA 67.1 C 71.29 O 73.93 CB 64.22 CG1 63.17 CG2 64.24 CD1 65.02
A GLY H 33 -42.5 -65.3 N 73.74 CA 76.11 C 78.38 O 79.21
A ALA H 8 -71.9 -32.9 N 79.73 CA 80.1 C 75.0 O 71.33 CB 86.88
A ALA H 0 -56.5 -51.9 N 70.24 CA 68.95 C 70.62 O 73.85 CB 67.67
A ALA H 0 -63.6 -45.2 N 72.21 CA 73.45 C 76.22 O 78.09 CB 75.79
A ASP H 31 -58.0 -43.4 N 80.34 CA 86.09 C 84.3 O 86.0 CB 93.1 CG 99.45 OD1 103.09 OD2 101.68
A LEU H 6 -66.6 -37.7 N 78.64 CA 76.09 C 76.31 O 77.34 CB 73.3 CG 74.28 CD1 77.83 CD2 73.4
A PHE H 0 -64.4 -49.4 N 75.8 CA 79.91 C 82.13 O 81.32 CB 81.09 CG 80.17 CD1 83.15 CD2 77.45 CE1 86.64 CE2 76.29 CZ 79.72
A ASP H 30 -75.8 4.5 N 82.66 CA 87.3 C 88.43 O 95.16 CB 88.63 CG 92.3 OD1 93.19 OD2 95.74
A ARG H 124 -115.4 -59.4 N 86.67 CA 86.13 C 84.61 O 86.64 CB 87.6 CG 91.84 CD 99.8 NE 103.47 CZ 105.3 NH1 104.53 NH2 103.69
A ARG H 115 -73.0 -42.4 N 82.61 CA 82.89 C 80.22 O 81.31 CB 88.93 CG 98.51 CD 104.15 NE 112.46 CZ 115.06 NH1 114.63 NH2 114.71
A GLY - 3 117.1 -174.6 N 77.3 CA 78.73 C 80.41 O 79.8
A TYR S 50 -73.5 -80.0 N 76.16 CA 70.91 C 75.12 O 78.18 CB 67.68 CG 64.39 CD1 63.0 CD2 61.71 CE1 60.75 CE2 60.15 CZ 60.3 OH 60.49
A GLU T 70 -72.0 -36.2 N 76.72 CA 76.42 C 72.43 O 71.08 CB 80.68 CG 85.4 CD 88.71 OE1 92.5 OE2 86.25
A SER T 35 -42.6 -17.1 N 70.02 CA 70.62 C 67.84 O 70.08 CB 75.43 OG 75.48
A THR S 0 -107.3 122.8 N 64.75 CA 63.32 C 62.43 O 60.59 CB 60.84 OG1 62.01 CG2 58.87
A THR - 60 -106.7 141.4 N 64.18 CA 64.2 C 61.4 O 60.11 CB 67.53 OG1 74.04 CG2 67.89
A LEU H 35 -37.9 -48.3 N 59.92 CA 61.15 C 64.81 O 63.89 CB 59.06 CG 57.19 CD1 57.74 CD2 55.35
A SER H 81 -31.3 -64.1 N 70.53 CA 75.81 C 79.5 O 80.17 CB 78.79 OG 82.28
A GLU H 67 -76.1 -21.2 N 82.24 CA 81.75 C 78.44 O 78.07 CB 86.84 CG 93.66 CD 106.51 OE1 117.78 OE2 106.17
A ILE H 0 -72.6 -58.9 N 74.91 CA 72.61 C 73.19 O 76.53 CB 70.45 CG1 72.16 CG2 66.33 CD1 76.0
A VAL H 20 -59.1 -42.7 N 71.62 CA 73.15 C 74.45 O 74.48 CB 74.49 CG1 75.09 CG2 76.18
A ALA H 72 -45.4 -59.5 N 79.01 CA 83.19 C 84.34 O 86.56 CB 83.02
A HIS H 106 -65.0 -64.2 N 85.14 CA 86.3 C 80.2 O 82.34 CB 97.11 CG 110.2 ND1 117.1 CD2 111.61 CE1 123.17 NE2 120.68
A ALA H 20 -30.4 -39.6 N 74.45 CA 75.34 C 76.68 O 75.64 CB 75.29
A GLY T 68 87.0 40.3 N 76.21 CA 74.56 C 71.19 O 74.98
A VAL - 23 -142.7 140.0 N 69.79 CA 67.1 C 65.42 O 66.73 CB 64.79 CG1 63.64 CG2 63.89
A THR - 89 -52.5 153.1 N 62.06 CA 60.05 C 56.26 O 57.5 CB 61.0 OG1 60.76 CG2 59.41
A LYS H 54 -58.7 -58.1 N 52.7 CA 51.59 C 50.75 O 49.17 CB 48.95
A GLY H 51 -46.3 -28.4 N 52.53 CA 54.57 C 52.89 O 51.86
A ALA H 27 -72.0 -39.2 N 52.9 CA 54.91 C 56.17 O 57.08 CB 55.87
A LEU H 2 -68.7 -38.2 N 55.95 CA 53.9 C 53.48 O 53.86 CB 52.09 CG 50.94 CD1 52.92 CD2 50.14
A TYR H 114 -77.0 -19.6 N 54.0 CA 56.11 C 58.53 O 60.93 CB 54.98 CG 55.47 CD1 56.37 CD2 55.26 CE1 56.7 CE2 56.65 CZ 57.68 OH 60.75
A PHE H 174 -76.5 -31.4 N 59.94 CA 62.69 C 63.42 O 66.39 CB 65.69 CG 67.09 CD1 67.67 CD2 68.33 CE1 69.55 CE2 69.32 CZ 69.74
A HIS H 54 -83.0 -57.3 N 61.95 CA 61.28 C 60.76 O 64.51 CB 61.04 CG 62.92 ND1 63.91 CD2 65.23 CE1 67.6 NE2 67.43
A PHE - 10 -104.6 165.4 N 58.86 CA 58.49 C 58.83 O 59.94 CB 57.28 CG 59.08 CD1 62.17 CD2 61.69 CE1 65.22 CE2 63.79 CZ 64.2
A ALA S 65 -100.6 -33.6 N 55.47 CA 53.23 C 53.01 O 54.29 CB 53.39
A ALA S 36 -160.9 167.0 N 51.51 CA 51.58 C 52.85 O 52.76 CB 51.35
A LYS T 47 -57.3 -43.1 N 55.09 CA 57.43 C 60.69 O 60.94 CB 55.59 CG 53.56 CD 53.14 CE 52.39 NZ 51.76
A GLU H 127 -61.6 -33.2 N 62.58 CA 63.82 C 63.7 O 64.89 CB 68.86 CG 77.63 CD 88.48 OE1 91.32 OE2 93.96
A ASP H 60 -56.1 -23.3 N 61.9 CA 60.47 C 59.25 O 61.09 CB 63.33 CG 66.23 OD1 64.47 OD2 69.8
A LEU H 0 -82.9 -35.6 N 56.93 CA 56.78 C 57.66 O 57.49 CB 57.27 CG 58.5 CD1 59.49 CD2 60.08
A ALA H 16 -64.3 -55.0 N 58.19 CA 60.14 C 63.0 O 64.55 CB 58.48
A HIS H 86 -48.0 -59.6 N 64.4 CA 66.62 C 63.67 O 63.39 CB 73.6 CG 79.35 ND1 78.39 CD2 84.12 CE1 83.31 NE2 86.87
A ALA H 13 -45.7 -32.0 N 61.24 CA 60.41 C 60.45 O 62.32 CB 62.11
A ILE H 0 -75.8 -51.6 N 62.7 CA 64.27 C 64.06 O 63.79 CB 64.8 CG1 63.31 CG2 64.07 CD1 61.87
A LEU H 18 -51.4 -44.6 N 63.95 CA 66.71 C 69.67 O 70.54 CB 66.26 CG 66.57 CD1 66.5 CD2 67.78
A GLU H 109 -49.2 -54.2 N 71.76 CA 72.26 C 71.2 O 73.65 CB 78.1 CG 94.43 CD 113.56 OE1 118.3 OE2 118.76
A ILE H 56 -55.1 -36.4 N 69.07 CA 70.16 C 72.43 O 72.18 CB 69.06 CG1 71.36 CG2 66.05 CD1 75.07
A GLN H 15 -67.0 -71.6 N 73.43 CA 77.98 C 83.98 O 90.19 CB 77.86 CG 78.5 CD 82.86 OE1 85.42 NE2 77.65
A SER H 24 -50.2 -26.4 N 83.7 CA 79.6 C 76.65 O 79.12 CB 80.27 OG 82.82
A ARG H 52 -82.9 30.6 N 76.23 CA 82.11 C 82.18 O 84.9 CB 86.71 CG 84.99
A THR H 37 -140.4 -29.9 N 79.62 CA 82.77 C 86.99 O 91.98 CB 80.86 OG1 79.06 CG2 83.52
A SER H 24 -40.9 -62.6 N 85.8 CA 87.63 C 91.1 O 93.91 CB 90.23 OG 91.17
A ARG H 118 -59.7 -77.0 N 93.57 CA 99.04 C 100.66 O 95.27 CB 104.34 CG 110.27 CD 116.22 NE 117.28 CZ 116.25 NH1 117.96 NH2 118.74
A ARG H 191 -25.3 -36.4 N 102.52 CA 100.38 C 99.39 O 101.69 CB 102.72 CG 106.53 CD 109.55 NE 109.0 CZ 106.66 NH1 109.14 NH2 101.05
A LEU H 35 -100.8 -34.9 N 91.4 CA 87.82 C 84.35 O 82.88 CB 90.0 CG 90.65 CD1 94.31 CD2 84.13
A ALA H 8 -64.8 -52.7 N 82.3 CA 84.46 C 89.65 O 96.09 CB 83.91
A LYS T 148 -81.2 70.0 N 91.1 CA 93.66 C 93.04 O 92.85 CB 98.45 CG 104.23 CD 101.63 CE 99.64 NZ 101.05
A ASP T 56 -171.7 -9.5 N 92.48 CA 97.57 C 96.61 O 98.39 CB 100.47 CG 106.39 OD1 107.91 OD2 106.61
A LEU T 22 -88.0 -53.6 N 94.82 CA 96.61 C 111.38 O 124.54 CB 85.34 CG 80.9 CD1 78.12 CD2 79.89
A ASP T 60 -71.8 18.9 N 114.69 CA 111.7 C 107.7 O 103.46 CB 114.84 CG 118.39 OD1 113.27 OD2 123.84
A GLY T 58 -86.6 -47.1 N 103.8 CA 102.14 C 100.69 O 103.28
A ARG T 132 -58.3 -178.0 N 92.9 CA 93.68 C 91.63 O 93.72 CB 95.85 CG 100.59 CD 100.97 NE 102.5 CZ 104.11 NH1 103.62 NH2 100.99
A GLY T 89 -89.0 26.9 N 87.19 CA 85.44 C 84.54 O 85.34
A TYR - 61 -68.9 145.3 N 79.36 CA 74.14 C 74.76 O 75.17 CB 72.79 CG 73.9 CD1 74.05 CD2 76.28 CE1 74.91 CE2 75.48 CZ 74.46 OH 76.0
A SER - 14 -64.8 142.1 N 74.62 CA 71.32 C 71.46 O 71.73 CB 69.19 OG 65.5
A SER H 5 -55.1 -58.5 N 68.91 CA 64.39 C 61.72 O 60.43 CB 64.31 OG 67.44
A LEU H 0 -57.9 -26.7 N 60.92 CA 60.13 C 60.67 O 60.07 CB 58.11 CG 56.81 CD1 56.85 CD2 56.82
A GLU H 24 -70.9 -52.4 N 65.25 CA 70.68 C 69.42 O 69.86 CB 75.89 CG 77.2 CD 81.36 OE1 83.5 OE2 79.73
A ALA H 2 -45.4 -45.8 N 66.48 CA 65.85 C 63.57 O 61.0 CB 66.13
A LEU H 10 -62.7 -46.2 N 63.49 CA 61.85 C 62.33 O 66.03 CB 60.87 CG 61.34 CD1 62.71 CD2 58.77
A MET H 0 -74.9 -33.7 N 61.58 CA 62.65 C 63.88 O 64.5 CB 66.03 CG 70.0 SD 82.61 CE 75.22
A ARG H 61 -48.8 -42.1 N 67.29 CA 72.03 C 69.1 O 67.4 CB 77.32 CG 79.71 CD 84.75 NE 89.89 CZ 93.11 NH1 95.97 NH2 95.57
A LEU H 23 -72.8 -53.8 N 65.4 CA 64.38 C 65.38 O 67.88 CB 63.76 CG 65.72 CD1 64.02 CD2 68.86
A THR H 22 -51.1 -3.9 N 64.8 CA 65.28 C 68.57 O 69.92 CB 63.04 OG1 63.18 CG2 61.34
A PHE H 24 -108.1 -39.9 N 75.6 CA 83.69 C 89.65 O 91.6 CB 84.11 CG 83.38 CD1 85.48 CD2 81.47 CE1 85.23 CE2 82.66 CZ 83.41
A GLY H 24 -58.4 -57.0 N 91.6 CA 89.18 C 87.95 O 81.39
A MET H 41 -55.2 -46.7 N 89.8 CA 90.97 C 93.24 O 99.22 CB 83.94
A ALA H 25 -74.5 -3.6 N 92.14 CA 90.72 C 89.93 O 89.87 CB 91.16
A ARG H 45 -94.4 -28.0 N 88.01 CA 90.39 C 92.17 O 95.73 CB 92.5
A LEU H 49 -72.0 -49.0 N 87.44 CA 84.76 C 84.3 O 83.27 CB 81.36 CG 79.36 CD1 78.43 CD2 78.55
A CYS H 36 -61.5 -22.5 N 83.7 CA 86.65 C 91.46 O 94.77 CB 83.09 SG 77.48
A VAL H 85 -64.2 -36.7 N 96.89 CA 104.15 C 104.25 O 104.32 CB 110.03 CG1 110.11 CG2 107.75
A GLN H 120 -128.0 -7.8 N 103.43 CA 110.85 C 113.52 O 116.95 CB 114.82 CG 120.95 CD 130.47 OE1 128.26 NE2 130.92
A GLY - 5 -85.6 111.5 N 109.01 CA 105.58 C 101.76 O 94.08
A PRO H 62 -67.1 -23.1 N 102.43 CA 99.86 C 95.25 O 94.03 CB 97.11 CG 98.89 CD 101.85
A VAL H 40 -85.5 -10.8 N 94.07 CA 91.71 C 93.14 O 91.44 CB 92.08 CG1 93.79 CG2 93.55
A LEU H 25 -122.2 -30.3 N 96.1 CA 95.22 C 98.09 O 99.88 CB 88.67 CG 86.95 CD1 88.28 CD2 87.53
A ARG H 79 -45.4 -51.3 N 97.31 CA 96.07 C 93.88 O 91.25 CB 96.73 CG 96.04 CD 95.85 NE 103.72 CZ 114.01 NH1 116.86 NH2 114.9
A ALA H 0 -61.2 -46.4 N 88.59 CA 86.47 C 83.58 O 79.78 CB 87.6
A GLY H 0 -48.1 -44.6 N 83.35 CA 82.12 C 78.69 O 76.42
A LEU H 25 -64.0 -50.7 N 78.14 CA 78.31 C 78.67 O 75.16 CB 77.97 CG 79.39 CD1 80.07 CD2 78.13
A ARG H 58 -62.0 -26.2 N 79.71 CA 82.5 C 80.03 O 79.7 CB 86.19 CG 93.98 CD 98.4 NE 105.62 CZ 111.65 NH1 116.46 NH2 108.92
A LEU H 15 -91.6 -24.8 N 78.91 CA 80.19 C 80.99 O 82.4 CB 83.67 CG 84.39 CD1 87.53 CD2 81.7
A ALA H 4 -63.0 -49.7 N 82.45 CA 82.36 C 84.14 O 89.1 CB 80.2
A THR H 31 -64.2 -51.8 N 82.8 CA 84.21 C 89.06 O 93.03 CB 81.71 OG1 79.57 CG2 78.71
A ALA - 57 -72.8 360.0 N 92.24 CA 92.68 C 93.56 O 95.26 CB 92.62
A PRO - 148 360.0 68.5 N 125.72 CA 123.6 C 122.69 O 117.0 CB 120.58 CG 125.25 CD 123.16
A VAL - 41 -83.1 125.1 N 122.24 CA 114.17 C 112.85 O 104.6 CB 110.05 CG1 108.47 CG2 103.96
A ARG - 38 -69.8 131.0 N 113.44 CA 120.87 C 129.3 O 123.59 CB 117.48
A PRO S 116 -61.4 153.3 N 139.4 CA 135.83 C 133.38 O 123.31 CB 137.45 CG 139.52 CD 144.02
A PRO S 133 -75.1 -30.3 N 135.6 CA 136.38 C 142.64 O 140.4 CB 129.98 CG 126.51 CD 132.94
A LEU S 47 -22.4 120.4 N 138.49 CA 123.28 C 118.27 O 118.73 CB 114.31
A PRO - 53 -81.6 130.5 N 116.93 CA 116.43 C 109.3 O 108.05 CB 117.04 CG 118.24 CD 113.55
A HIS - 49 -43.8 124.1 N 100.19 CA 99.84 C 96.68 O 111.56 CB 107.62 CG 113.92 ND1 108.44 CD2 115.81 CE1 107.23 NE2 113.27
A PRO H 6 -40.6 -54.0 N 86.0 CA 83.3 C 82.85 O 83.19 CB 79.08 CG 80.0 CD 81.23
A PHE H 17 -44.7 -54.3 N 82.02 CA 78.78 C 82.03 O 88.36 CB 81.11 CG 86.05 CD1 88.93 CD2 85.17 CE1 89.52 CE2 87.49 CZ 88.85
A THR H 49 -66.9 -33.9 N 82.93 CA 87.46 C 91.87 O 96.13 CB 88.78 OG1 92.1 CG2 94.33
A GLU H 4 -52.3 -53.6 N 90.91 CA 89.57 C 86.02 O 90.89 CB 94.99 CG 103.05 CD 110.8 OE1 113.33 OE2 113.23
A TRP H 62 -61.4 -41.5 N 80.27 CA 76.49 C 74.94 O 72.58 CB 73.82 CG 75.79 CD1 80.03 CD2 78.11 NE1 77.17 CE2 78.98 CE3 82.1 CZ2 81.26 CZ3 84.74 CH2 85.58
A ARG H 64 -68.8 -40.9 N 74.34 CA 79.58 C 82.65 O 81.56 CB 80.74 CG 83.9 CD 87.74 NE 94.89 CZ 98.89 NH1 97.17 NH2 100.97
A GLU H 116 -74.8 -2.8 N 84.29 CA 90.51 C 89.28 O 94.61 CB 99.16 CG 107.73 CD 118.79 OE1 116.68 OE2 129.87
A ILE H 50 -96.5 -51.0 N 80.74 CA 76.3 C 76.55 O 78.03 CB 75.19 CG1 78.6 CG2 74.84 CD1 86.29
A ALA H 14 -52.8 -47.3 N 71.36 CA 66.3 C 68.2 O 70.84 CB 61.91
A THR H 28 -53.3 -47.4 N 69.3 CA 70.83 C 68.68 O 69.4 CB 73.21 OG1 77.29 CG2 72.05
A SER H 75 -60.0 -45.7 N 68.91 CA 69.71 C 66.39 O 64.74 CB 75.63 OG 84.34
A ARG H 31 -72.3 -40.5 N 64.42 CA 63.8 C 62.64 O 62.64 CB 65.21 CG 73.86 CD 82.21 NE 85.52 CZ 87.36 NH1 87.99 NH2 90.54
A LEU H 13 -62.5 -43.0 N 61.89 CA 60.42 C 61.96 O 61.77 CB 58.57 CG 57.91 CD1 56.05 CD2 59.39
A LEU H 69 -66.6 -30.8 N 65.52 CA 69.6 C 70.41 O 69.81 CB 73.74 CG 79.48 CD1 82.1 CD2 81.2
A ASP H 61 -67.6 -54.0 N 73.1 CA 76.96 C 71.04 O 69.59 CB 88.51 CG 101.36 OD1 113.32 OD2 105.59
A ALA H 0 -56.3 -28.3 N 67.56 CA 66.68 C 65.47 O 64.87 CB 63.71
A VAL H 25 -64.7 -45.5 N 64.9 CA 64.53 C 66.5 O 68.05 CB 62.38 CG1 61.91 CG2 60.74
A ARG H 168 -58.4 -37.2 N 68.81 CA 71.75 C 67.75 O 66.07 CB 80.3 CG 92.18 CD 103.08 NE 113.74 CZ 118.31 NH1 120.15 NH2 120.25
A GLN H 75 -73.1 -14.1 N 64.96 CA 64.5 C 65.3 O 65.58 CB 63.88 CG 64.28 CD 67.58 OE1 66.67 NE2 72.01
A SER T 69 84.3 -1.3 N 65.38 CA 62.28 C 61.74 O 61.16 CB 63.45 OG 67.69
A ASP S 8 -59.1 -22.6 N 62.33 CA 62.49 C 61.04 O 58.77 CB 65.93 CG 71.06 OD1 78.26 OD2 72.15
A VAL S 4 -125.3 139.8 N 62.59 CA 63.52 C 64.22 O 64.36 CB 63.03 CG1 61.19 CG2 63.22
A HIS - 76 -61.9 156.2 N 66.31 CA 70.57 C 72.39 O 74.58 CB 74.17 CG 76.62 ND1 77.43 CD2 74.99 CE1 76.54 NE2 75.73
A GLN T 160 -87.2 12.0 N 77.01 CA 82.53 C 82.19 O 85.92 CB 87.79 CG 88.48 CD 91.32 OE1 89.68 NE2 97.57
A ASP T 153 -121.0 -13.7 N 80.96 CA 84.32 C 87.42 O 95.6 CB 84.53 CG 84.59 OD1 86.63 OD2 83.4
A ILE S 45 -92.7 139.1 N 87.31 CA 96.73 C 108.45 O 117.2 CB 94.4 CG1 88.67 CG2 96.11 CD1 87.47
A ASP - 115 -67.3 108.8 N 111.57 CA 112.78 C 110.29 O 109.92 CB 118.33 CG 123.36 OD1 123.86 OD2 121.09
A VAL S 32 -37.5 -31.2 N 103.41 CA 101.57 C 105.62 O 110.37 CB 96.85 CG1 94.5 CG2 96.1
A ASP - 41 -118.2 125.4 N 99.96 CA 91.63 C 89.32 O 86.97 CB 90.47 CG 92.43 OD1 91.87 OD2 87.53
A SER S 33 93.6 -74.5 N 92.5 CA 97.66 C 105.83 O 101.16 CB 88.04 OG 75.78
A VAL - 5 -71.1 -136.1 N 106.58 CA 96.8 C 98.52 O 89.26 CB 90.02 CG1 84.38 CG2 91.73
A ALA T 15 -41.4 -14.9 N 103.95 CA 98.3 C 96.08 O 83.97 CB 91.25
A HIS H 30 -61.9 -49.9 N 99.5 CA 99.05 C 101.46 O 91.7 CB 96.24 CG 101.04 ND1 98.95 CD2 98.36 CE1 99.49 NE2 100.95
A THR H 20 -40.0 -58.1 N 113.59 CA 113.65 C 108.29 O 92.68 CB 108.58 OG1 93.49 CG2 109.86
A LEU H 49 -90.1 -10.1 N 110.75 CA 106.01 C 105.27 O 94.28 CB 100.98 CG 98.77 CD1 87.1 CD2 95.9
A VAL H 23 -78.9 -56.9 N 109.78 CA 108.76 C 112.79 O 106.31 CB 105.82 CG1 96.94 CG2 106.3
A CYS H 2 -58.4 -41.0 N 117.96 CA 119.75 C 116.31 O 111.99 CB 122.28 SG 139.9
A SER H 20 -31.5 -23.1 N 115.25 CA 116.36 C 118.66 O 119.23 CB 117.28 OG 109.06
A VAL H 48 -101.5 -58.2 N 123.46 CA 123.58 C 119.58 O 121.86 CB 118.97 CG1 107.32 CG2 112.77
A VAL H 28 -46.4 -42.6 N 111.32 CA 112.04 C 111.17 O 107.82 CB 107.28 CG1 104.26 CG2 108.61
A GLY - 34 -76.0 51.2 N 110.99 CA 108.89 C 116.59 O 118.15
A THR - 158 -68.4 360.0 N 121.83 CA 122.2 C 118.96 O 107.74 CB 124.4 OG1 123.12 CG2 121.7
A ARG - 248 360.0 125.9 N 129.09 CA 136.98 C 139.7 O 133.52 CB 134.41 CG 130.94 CD 139.85 NE 144.32 CZ 145.3 NH1 147.3 NH2 142.81
A GLU - 29 -145.7 -21.1 N 144.93 CA 144.07 C 138.29 O 131.66 CB 147.23 CG 152.36 CD 157.39 OE1 161.99 OE2 157.77
A PRO H 25 -49.5 -42.2 N 131.79 CA 124.8 C 118.72 O 107.66 CB 124.16 CG 128.54 CD 130.79
A ARG H 34 -49.1 -25.9 N 124.0 CA 129.62 C 133.84 O 135.26 CB 129.0
A ARG H 71 -90.1 -34.8 N 134.58 CA 129.18 C 118.39 O 111.78 CB 131.71 CG 135.45 CD 136.32 NE 142.4 CZ 141.94 NH1 134.42 NH2 139.08
A LEU H 4 -69.4 -31.7 N 103.73 CA 94.14 C 87.61 O 82.86 CB 92.78 CG 89.67 CD1 88.73 CD2 89.87
A ALA H 0 -69.6 -42.0 N 84.33 CA 81.36 C 82.04 O 80.44 CB 82.07
A GLU H 7 -51.6 -48.7 N 83.33 CA 83.64 C 81.91 O 82.91 CB 87.69
A MET H 5 -67.7 -34.8 N 81.84 CA 85.66 C 81.73 O 81.86 CB 93.45 CG 100.46 SD 114.55 CE 116.86
A TRP H 5 -58.5 -53.3 N 77.17 CA 73.61 C 75.15 O 73.45 CB 68.97 CG 65.64 CD1 65.63 CD2 64.7 NE1 65.53 CE2 64.72 CE3 65.63 CZ2 66.13 CZ3 67.55 CH2 67.06
A TYR H 75 -39.0 -52.6 N 77.27 CA 77.63 C 75.96 O 76.54 CB 83.25 CG 91.06 CD1 94.52 CD2 94.21 CE1 95.39 CE2 98.44 CZ 99.65 OH 106.09
A ILE H 23 -66.3 -42.0 N 73.17 CA 74.76 C 74.79 O 77.23 CB 77.22 CG1 78.99 CG2 78.04 CD1 80.47
A LEU H 23 -64.8 -42.2 N 72.49 CA 69.05 C 67.42 O 66.1 CB 65.89 CG 63.96 CD1 62.96 CD2 62.33
A ILE H 0 -67.0 -38.0 N 67.58 CA 69.35 C 73.7 O 74.31 CB 69.21 CG1 68.8 CG2 72.39 CD1 69.8
A ARG H 95 -61.7 -17.7 N 78.64 CA 82.93 C 81.46 O 87.06 CB 88.62 CG 94.74 CD 101.82 NE 110.95 CZ 117.88 NH1 122.24 NH2 117.81
A GLY H 13 -115.8 -21.9 N 76.37 CA 71.97 C 68.64 O 71.2
A MET H 13 -112.5 -31.0 N 63.1 CA 63.93 C 63.12 O 63.64 CB 67.0 CG 69.42 SD 70.31 CE 64.58
A VAL S 0 -85.3 127.8 N 61.37 CA 57.15 C 55.99 O 58.15 CB 56.2 CG1 56.11 CG2 56.89
A PRO - 25 -55.8 159.4 N 54.53 CA 56.59 C 59.37 O 61.09 CB 56.38 CG 55.62 CD 55.05
A VAL S 108 -62.4 -50.7 N 60.87 CA 57.82 C 55.71 O 53.17 CB 57.09 CG1 56.21 CG2 55.21
A THR T 113 -34.2 -65.4 N 57.02 CA 58.6 C 60.43 O 62.98 CB 58.43 OG1 59.83 CG2 60.19
A ARG T 95 -75.9 8.6 N 60.45 CA 61.79 C 60.85 O 60.72 CB 66.01 CG 70.99 CD 75.73 NE 84.16 CZ 88.35 NH1 87.6 NH2 90.31
A ARG H 73 -74.0 -34.4 N 62.26 CA 64.76 C 68.47 O 74.5 CB 64.33 CG 63.4 CD 62.37 NE 61.61 CZ 61.51 NH1 61.62 NH2 61.7
A ALA H 67 -31.8 -77.8 N 68.07 CA 67.94 C 68.29 O 64.22 CB 68.71
A ARG H 118 -47.2 -47.9 N 71.89 CA 74.03 C 73.76 O 77.54 CB 76.24 CG 81.73 CD 86.22 NE 93.13 CZ 98.4 NH1 98.24 NH2 97.34
A TYR H 0 -74.4 -39.7 N 72.48 CA 71.57 C 73.15 O 72.37 CB 67.97 CG 65.99 CD1 65.43 CD2 67.17 CE1 67.66 CE2 66.85 CZ 67.75 OH 70.31
A VAL H 51 -61.7 -60.5 N 72.71 CA 71.96 C 73.45 O 73.69 CB 69.21 CG1 68.87 CG2 68.04
A THR H 87 -42.4 -47.0 N 74.52 CA 76.63 C 76.93 O 78.86 CB 76.2 OG1 80.64 CG2 75.63
A LEU H 9 -62.3 -45.1 N 76.42 CA 78.25 C 80.41 O 79.61 CB 73.27 CG 68.82 CD1 68.36 CD2 68.21
A ALA H 0 -57.5 -43.2 N 81.67 CA 84.65 C 89.83 O 94.14 CB 86.44
A ALA H 42 -56.4 -53.2 N 89.4 CA 90.44 C 95.29 O 97.63 CB 89.27
A ARG H 161 -55.8 -41.1 N 96.43 CA 96.64 C 97.49 O 103.02 CB 93.73 CG 97.72 CD 104.6 NE 117.08 CZ 120.48 NH1 115.29 NH2 119.37
A LEU - 15 -71.9 71.0 N 94.84 CA 96.81 C 107.32 O 115.62 CB 87.92 CG 84.59 CD1 82.56 CD2 82.92
A GLU S 66 -132.9 97.8 N 116.77 CA 130.07 C 138.62 O 139.37 CB 128.86 CG 130.48 CD 147.37 OE1 156.79 OE2 151.04
A GLN - 196 40.2 -39.1 N 136.02 CA 125.61 C 123.76 O 119.63 CB 127.84 CG 133.09 CD 136.11 OE1 136.05 NE2 134.97
A GLU - 97 -71.9 360.0 N 124.77 CA 128.82 C 125.17 O 120.59 CB 123.31
B LEU - 111 360.0 162.8 N 95.25 CA 100.27 C 103.89 O 106.45 CB 94.38
B ARG T 168 -63.0 34.2 N 103.41 CA 96.6 C 89.62 O 82.49 CB 100.6 CG 105.98 CD 108.64 NE 110.33 CZ 107.94 NH1 103.68 NH2 103.78
B ALA H 24 -63.2 -41.0 N 85.04 CA 83.38 C 83.79 O 80.86 CB 82.81
B GLU H 111 -52.5 -41.3 N 89.07 CA 90.47 C 83.64 O 77.94 CB 97.43 CG 105.45 CD 107.74 OE1 106.63 OE2 100.13
B GLN H 140 -50.3 -76.1 N 80.51 CA 81.35 C 78.0 O 72.28 CB 85.13 CG 84.78 CD 88.08 OE1 86.48 NE2 89.14
B THR H 40 -45.4 -60.1 N 77.56 CA 77.75 C 73.4 O 68.85 CB 75.13 OG1 72.44 CG2 75.86
B ARG H 87 -35.8 -51.9 N 69.44 CA 67.0 C 68.75 O 69.66 CB 65.97 CG 64.94 CD 65.47 NE 67.63 CZ 71.12 NH1 69.39 NH2 74.83
B ALA H 53 -69.0 -55.1 N 70.53 CA 66.42 C 63.67 O 61.55 CB 66.19
B THR H 65 -37.6 -54.5 N 62.15 CA 62.26 C 61.13 O 60.26 CB 61.77 OG1 65.31 CG2 59.72
B ILE H 0 -47.2 -53.9 N 60.77 CA 59.37 C 58.08 O 57.2 CB 60.53 CG1 61.25 CG2 60.03 CD1 62.83
B ILE H 13 -62.8 -37.4 N 57.26 CA 57.27 C 58.76 O 59.56 CB 55.86 CG1 56.75 CG2 54.93 CD1 56.56
B GLY H 26 -51.6 -71.7 N 57.92 CA 56.44 C 55.42 O 53.38
B ALA H 12 -36.6 -53.9 N 56.96 CA 56.63 C 55.16 O 55.67 CB 55.3
B ALA H 0 -62.7 -51.0 N 53.6 CA 55.14 C 56.91 O 55.83 CB 56.01
B ALA H 0 -57.7 -44.8 N 59.79 CA 61.51 C 63.39 O 61.76 CB 61.12
B ASP H 44 -53.4 -46.9 N 65.47 CA 67.39 C 68.55 O 73.56 CB 72.42 CG 80.47 OD1 76.53 OD2 89.62
B LEU H 0 -73.8 -48.7 N 65.26 CA 61.43 C 61.92 O 61.61 CB 59.09 CG 57.9 CD1 59.16 CD2 56.97
B PHE H 0 -54.5 -30.5 N 63.86 CA 65.08 C 66.14 O 67.43 CB 67.48 CG 67.49 CD1 68.1 CD2 70.08 CE1 69.27 CE2 68.38 CZ 68.22
B ASP H 35 -81.1 -55.2 N 69.84 CA 72.49 C 71.71 O 71.05 CB 79.47 CG 87.87 OD1 91.46 OD2 89.21
B ARG H 126 -60.0 -41.0 N 70.98 CA 71.98 C 74.45 O 83.33 CB 73.93 CG 79.63 CD 83.44 NE 94.04 CZ 102.15 NH1 104.79 NH2 101.34
B ARG H 89 -120.4 0.7 N 72.12 CA 71.65 C 70.0 O 71.96 CB 76.14 CG 87.99 CD 95.54 NE 101.29 CZ 98.32 NH1 93.41 NH2 93.16
B GLY - 9 91.0 166.8 N 66.73 CA 67.91 C 73.36 O 79.11
B TYR S 27 -78.5 -71.1 N 73.96 CA 70.48 C 69.99 O 66.83 CB 70.39 CG 70.6 CD1 73.87 CD2 72.58 CE1 73.84 CE2 75.46 CZ 74.37 OH 75.88
B GLU T 74 -31.1 -62.7 N 72.22 CA 74.58 C 72.97 O 77.34 CB 82.92 CG 94.37 CD 104.33 OE1 107.51 OE2 113.37
B SER T 54 -76.0 1.7 N 71.39 CA 68.78 C 68.2 O 70.34 CB 69.72 OG 71.81
B THR - 1 -96.0 130.8 N 65.81 CA 65.87 C 65.38 O 67.88 CB 65.59 OG1 65.99 CG2 67.02
B THR - 58 -87.3 145.4 N 60.74 CA 57.76 C 57.56 O 56.2 CB 57.74 OG1 56.85 CG2 59.27
B LEU H 58 -63.2 -11.7 N 58.49 CA 58.7 C 60.58 O 62.23 CB 56.83 CG 56.75 CD1 56.0 CD2 57.24
B SER H 66 -83.4 -35.2 N 62.92 CA 67.2 C 68.1 O 68.85 CB 72.23 OG 85.28
B GLU H 56 -67.9 -31.0 N 68.92 CA 68.08 C 67.97 O 70.76 CB 70.19 CG 76.52 CD 85.03 OE1 91.77 OE2 83.16
B ILE H 0 -72.4 -50.8 N 65.96 CA 63.39 C 66.69 O 67.47 CB 59.07 CG1 58.19 CG2 58.42 CD1 57.08
B VAL H 17 -63.4 -37.7 N 70.4 CA 72.29 C 73.81 O 78.57 CB 70.39 CG1 66.97 CG2 73.97
B ALA H 70 -52.7 -49.7 N 74.64 CA 79.49 C 78.62 O 78.47 CB 84.9
B HIS H 103 -73.7 -52.0 N 77.88 CA 78.13 C 74.04 O 77.85 CB 87.31 CG 98.72 ND1 100.26 CD2 103.12 CE1 106.75 NE2 111.1
B ALA H 16 -69.9 -1.0 N 69.37 CA 68.9 C 69.15 O 69.72 CB 68.17
B GLY T 63 57.9 30.7 N 68.84 CA 69.64 C 67.62 O 70.99
B VAL - 23 -106.5 170.0 N 61.8 CA 60.93 C 64.57 O 69.4 CB 58.54 CG1 60.32 CG2 57.08
B THR - 101 -96.4 153.9 N 63.39 CA 63.13 C 65.42 O 66.19 CB 62.04 OG1 61.29 CG2 62.07
B LYS H 127 -47.8 -42.6 N 65.85 CA 64.0 C 63.31 O 64.58 CB 64.39 CG 68.5 CD 69.37 CE 70.6 NZ 75.47
B GLY H 51 -77.4 -16.0 N 59.57 CA 58.13 C 60.58 O 62.21
B ALA H 27 -76.8 -43.6 N 60.5 CA 59.45 C 59.02 O 61.15 CB 60.28
B LEU H 5 -61.5 -33.9 N 54.92 CA 52.35 C 51.63 O 49.68 CB 51.03 CG 49.78 CD1 49.18 CD2 50.08
B TYR H 152 -73.8 -32.2 N 51.75 CA 52.29 C 53.36 O 54.01 CB 52.86 CG 54.11 CD1 55.96 CD2 55.64 CE1 57.75 CE2 57.52 CZ 58.21 OH 59.24
B PHE H 168 -58.1 -50.2 N 54.23 CA 56.61 C 57.49 O 58.9 CB 61.07 CG 65.86 CD1 68.26 CD2 68.81 CE1 72.65 CE2 71.83 CZ 71.6
B HIS H 40 -79.4 -29.1 N 57.07 CA 55.46 C 54.58 O 54.38 CB 55.95 CG 58.16 ND1 58.58 CD2 58.28 CE1 58.76 NE2 58.88
B PHE - 7 -146.5 109.2 N 55.25 CA 56.13 C 56.88 O 57.68 CB 54.18 CG 52.85 CD1 52.4 CD2 53.01 CE1 53.06 CE2 51.45 CZ 52.06
B ALA S 57 -55.9 -68.0 N 56.23 CA 56.49 C 59.15 O 61.28 CB 57.78
B ALA S 49 -93.1 167.7 N 59.87 CA 59.53 C 58.87 O 57.4 CB 61.13
B LYS H 45 -90.0 -10.5 N 58.66 CA 59.4 C 63.4 O 65.71 CB 56.3 CG 56.01 CD 54.17 CE 52.24 NZ 49.55
B GLU H 26 -57.1 -43.6 N 68.26 CA 72.42 C 72.28 O 76.78 CB 83.4 CG 97.24 CD 111.3 OE1 115.11 OE2 116.97
B ASP H 55 -48.4 -46.4 N 69.64 CA 68.91 C 67.21 O 71.14 CB 73.73 CG 82.67 OD1 85.79 OD2 88.01
B LEU H 0 -62.6 -29.3 N 63.57 CA 61.27 C 62.87 O 64.18 CB 59.94 CG 59.3 CD1 59.18 CD2 60.47
B ALA H 1 -84.4 -57.2 N 65.68 CA 64.01 C 65.23 O 64.75 CB 61.25
B HIS H 55 -47.9 -30.4 N 69.28 CA 73.82 C 70.65 O 71.04 CB 83.58 CG 100.46 ND1 106.4 CD2 107.08 CE1 110.28 NE2 110.43
B ALA H 13 -81.2 -20.3 N 68.66 CA 68.37 C 65.59 O 67.17 CB 67.58
B ILE H 0 -83.1 -33.7 N 62.17 CA 61.27 C 61.01 O 62.52 CB 61.79 CG1 60.51 CG2 62.03 CD1 57.65
B LEU H 4 -71.1 -52.3 N 62.34 CA 64.46 C 67.18 O 67.16 CB 65.79 CG 66.15 CD1 70.12 CD2 66.11
B GLU H 94 -38.3 -67.9 N 72.43 CA 73.01 C 70.37 O 70.06 CB 78.37 CG 87.27 CD 95.91 OE1 100.88 OE2 96.39
B ILE H 45 -52.8 -1.7 N 69.71 CA 66.0 C 65.03 O 64.95 CB 61.17
B GLN H 3 -114.6 -55.1 N 67.37 CA 69.14 C 70.23 O 72.24 CB 69.32 CG 73.97 CD 78.39 OE1 79.75 NE2 73.58
B SER H 9 -56.5 -45.8 N 73.36 CA 75.37 C 76.01 O 81.07 CB 78.95 OG 79.02
B ARG H 39 -58.5 -48.5 N 73.96 CA 73.81 C 71.87 O 70.65 CB 72.22
B THR H 25 -61.8 -16.0 N 71.51 CA 70.4 C 71.41 O 73.18 CB 68.03 OG1 67.98 CG2 64.59
B SER H 13 -83.2 -56.7 N 70.81 CA 73.05 C 79.16 O 83.74 CB 70.33 OG 72.28
B ARG H 117 -69.8 -2.2 N 82.09 CA 86.01 C 84.95 O 82.31 CB 87.87 CG 90.77 CD 94.44 NE 95.76 CZ 102.66 NH1 106.36 NH2 105.0
B ARG H 121 -76.0 -10.1 N 88.87 CA 96.61 C 101.47 O 110.71 CB 100.93 CG 108.39 CD 119.29 NE 126.03 CZ 124.82 NH1 127.81 NH2 117.16
B LEU H 22 -107.5 -24.8 N 95.56 CA 91.02 C 88.99 O 89.75 CB 86.64 CG 86.14 CD1 86.64 CD2 83.68
B ALA H 45 -65.0 -33.8 N 86.71 CA 86.64 C 89.63 O 91.45 CB 83.57
B LYS H 56 -73.1 -69.1 N 89.48 CA 92.29 C 91.66 O 88.39 CB 89.84
B ASP H 123 -49.6 -28.8 N 98.18 CA 110.64 C 111.22 O 111.17 CB 121.84 CG 128.77 OD1 123.11 OD2 132.19
B LEU S 49 -90.7 62.8 N 113.62 CA 109.8 C 110.89 O 104.25 CB 104.28 CG 103.83 CD1 104.24 CD2 102.26
B ASP - 93 -139.5 -136.8 N 114.28 CA 119.18 C 121.36 O 119.03 CB 122.7 CG 125.21 OD1 123.68 OD2 122.2
B GLY T 79 47.7 62.4 N 126.06 CA 122.27 C 125.1 O 117.68
B ARG T 100 21.7 43.1 N 130.76 CA 126.77 C 124.72 O 117.44 CB 124.69
B GLY S 28 -77.3 48.3 N 128.96 CA 130.27 C 120.17 O 100.43
B TYR - 111 100.5 -162.6 N 123.94 CA 118.05 C 114.74 O 116.34 CB 122.37 CG 125.13 CD1 122.02 CD2 126.05 CE1 124.29 CE2 129.11 CZ 129.59 OH 134.38
B SER - 36 -159.8 172.4 N 108.16 CA 104.25 C 97.88 O 87.78 CB 106.78 OG 104.51
B SER H 1 27.0 -121.3 N 98.01 CA 102.14 C 104.49 O 107.04 CB 109.25 OG 112.02
B LEU H 15 -46.1 -50.6 N 106.91 CA 104.28 C 99.8 O 98.1 CB 100.88
B GLU H 25 -56.6 -42.8 N 94.22 CA 92.2 C 89.65 O 90.13 CB 98.78 CG 103.95 CD 103.26 OE1 101.63 OE2 101.99
B ALA H 7 -66.4 -70.6 N 86.34 CA 81.42 C 79.01 O 77.34 CB 81.45
B LEU H 7 -28.5 -51.3 N 78.09 CA 74.6 C 73.94 O 74.18 CB 73.59 CG 72.17 CD1 73.5 CD2 70.71
B MET H 1 -59.6 -58.2 N 73.97 CA 78.47 C 78.22 O 76.59 CB 82.3 CG 83.14 SD 86.26 CE 84.2
B ARG H 79 -70.2 -31.3 N 80.2 CA 84.17 C 82.8 O 81.44 CB 88.62 CG 90.42 CD 96.07 NE 98.78 CZ 96.89 NH1 97.99 NH2 91.01
B LEU H 41 -52.2 -46.7 N 79.83 CA 75.42 C 72.65 O 70.57 CB 74.77 CG 74.31 CD1 70.4 CD2 76.16
B THR H 16 -64.0 -54.4 N 68.39 CA 66.5 C 68.49 O 71.6 CB 64.35 OG1 65.39 CG2 64.67
B PHE H 0 -49.8 -29.6 N 71.49 CA 74.82 C 76.87 O 77.8 CB 75.54 CG 72.75 CD1 73.56 CD2 72.29 CE1 74.46 CE2 73.13 CZ 74.61
B GLY H 11 -70.0 -51.6 N 75.45 CA 80.03 C 84.25 O 86.47
B MET H 31 -51.6 -44.5 N 82.54 CA 76.71 C 75.76 O 79.92 CB 77.0 CG 81.02 SD 90.69 CE 87.09
B ALA H 14 -68.1 -23.2 N 70.38 CA 68.65 C 71.76 O 75.56 CB 65.6
B ARG H 7 -70.5 -42.8 N 74.25 CA 79.72 C 83.8 O 92.47 CB 81.36
B LEU H 47 -75.9 -45.1 N 84.55 CA 85.75 C 86.46 O 88.19 CB 86.76 CG 88.66 CD1 88.48 CD2 90.57
B CYS H 39 -34.3 -51.5 N 83.58 CA 84.5 C 86.16 O 91.05 CB 85.22 SG 84.05
B VAL T 58 -59.4 -26.7 N 86.41 CA 91.95 C 93.11 O 94.82 CB 93.42 CG1 99.4 CG2 91.63
B GLN T 123 -115.0 -61.0 N 95.0 CA 100.14 C 100.19 O 92.45 CB 104.83 CG 109.84 CD 115.99 OE1 115.57 NE2 116.13
B GLY - 22 -67.2 102.7 N 103.99 CA 98.41 C 90.15 O 88.78
B PRO H 31 -58.4 -17.2 N 81.2 CA 76.87 C 73.11 O 71.28 CB 74.86 CG 78.11 CD 79.27
B VAL H 39 -63.7 -34.7 N 71.41 CA 69.27 C 68.98 O 68.44 CB 68.06 CG1 66.4 CG2 67.37
B LEU H 16 -80.0 -42.0 N 70.21 CA 69.02 C 66.43 O 63.42 CB 70.12 CG 71.41 CD1 75.21 CD2 70.0
B ARG H 63 -52.4 -61.7 N 66.21 CA 66.0 C 67.38 O 67.79 CB 65.1 CG 65.38 CD 65.98 NE 69.52 CZ 73.75 NH1 74.97 NH2 72.76
B ALA H 0 -52.4 -28.9 N 68.26 CA 68.11 C 68.23 O 67.75 CB 67.01
B GLY H 0 -50.6 -61.0 N 70.02 CA 75.61 C 77.58 O 77.66
B LEU H 38 -63.3 -49.1 N 78.4 CA 80.7 C 79.87 O 76.87 CB 73.88
B ARG H 51 -45.3 -24.4 N 79.5 CA 82.56 C 80.27 O 79.53 CB 86.29 CG 83.96 CD 87.7 NE 95.27 CZ 105.01 NH1 108.53 NH2 105.18
B LEU H 3 -91.0 -27.7 N 80.12 CA 82.2 C 87.44 O 92.8 CB 75.42 CG 69.11 CD1 66.73 CD2 69.17
B ALA H 20 -67.2 -44.2 N 88.9 CA 93.89 C 94.89 O 97.0 CB 96.75
B THR H 55 -65.3 -48.1 N 95.73 CA 98.94 C 103.44 O 109.41 CB 97.38 OG1 97.55 CG2 96.79
B ALA S 29 -77.1 -150.5 N 104.63 CA 106.45 C 115.47 O 109.56 CB 97.66
B GLY - 27 -88.2 121.6 N 131.03 CA 143.5 C 154.34 O 151.63
B VAL - 40 -105.6 94.9 N 164.13 CA 178.23 C 190.37 O 198.67 CB 172.99
B PRO - 42 -60.0 171.3 N 190.11 CA 184.83 C 175.69 O 171.62 CB 188.2 CG 184.47 CD 183.73
B VAL - 88 -73.5 173.5 N 167.46 CA 157.05 C 155.02 O 143.99 CB 148.29
B ARG S 48 112.8 138.5 N 165.52 CA 172.71 C 179.49 O 181.98 CB 166.63
B PRO S 119 -74.3 145.4 N 187.62 CA 193.8 C 200.96 O 218.78 CB 191.75 CG 186.37 CD 186.28
B PRO - 113 -101.4 -24.7 N 198.51 CA 200.95 C 203.91 O 209.41 CB 195.1 CG 191.91 CD 192.93
B LEU - 44 66.0 86.7 N 195.75 CA 186.94 C 196.67 O 205.57 CB 174.41 CG 164.83 CD1 160.06 CD2 152.76
B PRO - 41 -67.1 88.4 N 198.65 CA 190.08 C 187.27 O 191.2 CB 185.81 CG 192.89 CD 196.24
B HIS - 83 -54.2 113.1 N 169.49 CA 143.61 C 127.4 O 120.03 CB 142.28 CG 144.89 ND1 138.75 CD2 142.61 CE1 140.5 NE2 141.86
B PRO T 4 -70.1 0.6 N 112.99 CA 110.57 C 106.99 O 111.61 CB 108.85 CG 107.54 CD 109.09
B PHE T 22 -111.8 -51.4 N 101.02 CA 95.78 C 98.84 O 96.58 CB 92.55 CG 90.5 CD1 90.86 CD2 88.67 CE1 93.32 CE2 90.68 CZ 94.2
B THR H 108 -64.5 -7.1 N 104.77 CA 104.66 C 103.72 O 105.35 CB 104.12 OG1 102.88 CG2 102.6
B GLU H 30 -73.4 -43.7 N 104.9 CA 108.56 C 105.26 O 106.67 CB 113.97 CG 121.45 CD 129.68 OE1 137.86 OE2 129.86
B TRP H 45 -86.5 -41.4 N 100.26 CA 95.64 C 95.15 O 96.01 CB 91.51 CG 89.19 CD1 93.22 CD2 86.86 NE1 95.09 CE2 89.89 CE3 87.23 CZ2 87.92 CZ3 84.64 CH2 85.16
B ARG H 17 -43.2 -49.1 N 91.47 CA 90.54 C 89.6 O 91.97 CB 89.61
B GLU H 49 -56.4 -70.8 N 86.51 CA 87.3 C 84.03 O 81.43 CB 88.43
B ILE H 45 -46.3 -35.5 N 82.72 CA 81.38 C 84.09 O 85.44 CB 76.17
B ALA H 6 -77.7 -60.3 N 91.92 CA 91.98 C 94.03 O 93.63 CB 87.6
B THR H 26 -45.1 -35.5 N 93.98 CA 95.32 C 95.94 O 93.81 CB 97.33 OG1 98.39 CG2 98.34
B SER H 53 -66.6 -65.4 N 97.01 CA 101.87 C 100.21 O 106.72 CB 107.23 OG 123.81
B ARG H 87 -53.8 -42.2 N 95.65 CA 97.29 C 95.06 O 92.73 CB 97.4 CG 100.96 CD 108.76 NE 116.55 CZ 117.61 NH1 114.64 NH2 118.89
B LEU H 5 -68.4 -61.4 N 95.69 CA 97.19 C 100.78 O 98.83 CB 94.1 CG 88.62 CD1 82.83 CD2 86.74
B LEU T 93 -55.0 0.7 N 103.15 CA 100.85 C 98.96 O 96.59 CB 98.68 CG 102.65 CD1 103.49 CD2 105.43
B ASP T 61 -103.0 -13.1 N 98.34 CA 99.84 C 97.55 O 93.14 CB 103.84 CG 115.26 OD1 120.72 OD2 123.33
B ALA T 0 -93.3 -11.6 N 97.33 CA 100.54 C 107.11 O 103.6 CB 95.69
B VAL T 53 -65.3 -47.5 N 112.28 CA 113.62 C 120.55 O 123.25 CB 107.46 CG1 105.9 CG2 100.43
B ARG T 189 -69.9 0.8 N 122.15 CA 117.34 C 116.64 O 125.63 CB 115.32 CG 122.13 CD 129.01 NE 131.42 CZ 124.59 NH1 120.38 NH2 120.6
B GLN T 60 -134.2 29.2 N 113.12 CA 114.17 C 112.82 O 105.41 CB 114.69 CG 119.52 CD 120.4 OE1 117.76 NE2 121.16
B SER T 71 16.1 51.2 N 112.78 CA 105.54 C 98.58 O 89.82 CB 103.68 OG 108.2
B ASP S 15 -91.6 -10.8 N 97.39 CA 95.63 C 94.1 O 91.58 CB 94.31 CG 90.6 OD1 91.7 OD2 85.89
B VAL S 8 -123.0 -167.4 N 96.09 CA 103.91 C 104.87 O 107.08 CB 106.76 CG1 107.19 CG2 105.29
B HIS - 31 -106.5 140.3 N 105.45 CA 119.0 C 131.22 O 129.66 CB 119.24 CG 118.8 ND1 116.53 CD2 117.83 CE1 114.84 NE2 116.73
B GLN T 170 -46.6 -38.4 N 144.72 CA 145.19 C 146.16 O 148.84 CB 146.69 CG 149.78 CD 145.31 OE1 146.71 NE2 135.31
B ASP T 95 -69.7 -35.7 N 141.34 CA 142.42 C 148.47 O 158.7 CB 139.15 CG 139.51 OD1 138.53 OD2 138.85
B ILE S 21 -52.9 133.0 N 147.3 CA 140.84 C 140.38 O 148.44 CB 138.07 CG1 136.86 CG2 137.56 CD1 132.82
B ASP - 105 -86.0 90.8 N 129.88 CA 128.1 C 125.04 O 125.96 CB 133.4 CG 139.2 OD1 143.72 OD2 138.18
B VAL H 29 -46.5 -55.4 N 122.42 CA 118.76 C 121.95 O 122.72 CB 113.64 CG1 109.09 CG2 114.81
B ASP H 82 -62.6 -34.5 N 120.42 CA 118.62 C 114.6 O 113.25 CB 122.73 CG 126.9 OD1 126.53 OD2 126.35
B SER H 18 -59.9 -36.3 N 111.63 CA 106.66 C 99.43 O 94.06 CB 107.13 OG 113.78
B VAL H 9 -78.2 -30.7 N 94.53 CA 95.55 C 98.56 O 97.04 CB 92.97 CG1 88.42 CG2 96.05
B ALA H 0 -62.2 -50.4 N 100.69 CA 99.25 C 98.83 O 93.58 CB 101.39
B HIS H 60 -59.2 -39.8 N 97.21 CA 98.71 C 90.17 O 88.55 CB 112.7 CG 128.16 ND1 136.04 CD2 133.59 CE1 137.85 NE2 138.96
B THR H 10 -61.2 -59.8 N 86.28 CA 89.78 C 84.99 O 79.1 CB 97.66 OG1 103.34 CG2 96.94
B LEU H 7 -45.4 -62.0 N 84.36 CA 82.56 C 80.2 O 75.34 CB 85.08 CG 88.79 CD1 93.54 CD2 88.21
B VAL H 20 -52.6 -42.6 N 77.32 CA 77.55 C 80.25 O 80.85 CB 75.38 CG1 71.72 CG2 76.33
B CYS H 11 -59.2 -47.6 N 81.37 CA 84.99 C 85.51 O 83.95 CB 93.02 SG 109.03
B SER H 10 -78.4 -29.0 N 88.96 CA 97.84 C 99.48 O 96.12 CB 105.11 OG 109.74
B VAL H 48 -55.4 -45.5 N 99.13 CA 99.0 C 101.94 O 112.05 CB 99.24 CG1 100.07 CG2 101.0
B VAL H 48 -60.0 -28.0 N 96.52 CA 94.29 C 104.91 O 106.43 CB 87.69 CG1 80.92 CG2 85.8
B GLY - 2 55.9 -133.0 N 104.06 CA 103.44 C 113.62 O 116.61
B THR - 45 -142.2 -61.8 N 126.81 CA 124.94 C 117.54 O 113.19 CB 119.18 OG1 116.16 CG2 109.44
B ARG - 36 -5.3 360.0 N 110.23 CA 110.4 C 113.32 O 110.76 CB 109.5
B THR - 131 360.0 122.8 N 130.9 CA 136.32 C 138.23 O 148.45 CB 132.18 OG1 123.01 CG2 127.75
B LEU - 70 -76.9 -32.1 N 127.67 CA 122.25 C 126.84 O 120.08 CB 113.62 CG 106.79 CD1 106.27 CD2 104.81
B GLU S 88 -139.6 135.7 N 131.63 CA 131.09 C 125.73 O 112.94 CB 141.24 CG 149.38 CD 149.92 OE1 146.74 OE2 145.69
B PRO - 73 -35.0 105.2 N 128.51 CA 121.26 C 115.33 O 116.65 CB 118.66 CG 124.81 CD 131.93
B ALA T 56 -44.8 144.3 N 117.66 CA 123.73 C 131.22 O 139.39 CB 122.47
B GLY T 43 100.2 -18.0 N 127.21 CA 125.74 C 129.48 O 131.84
B ARG - 126 -100.7 45.4 N 125.13 CA 114.58 C 107.91 O 107.53 CB 112.55 CG 112.25 CD 118.81 NE 129.87 CZ 132.53 NH1 133.74 NH2 125.76
B GLU S 41 -110.4 -41.6 N 106.2 CA 109.6 C 105.41 O 98.19 CB 120.34 CG 131.39 CD 135.18 OE1 132.6 OE2 138.84
B PRO H 16 -80.9 -24.0 N 106.2 CA 101.53 C 95.45 O 91.09 CB 100.68 CG 97.2 CD 104.08
B ARG H 76 -54.6 -47.5 N 96.01 CA 103.21 C 93.22 O 85.26 CB 122.67 CG 137.4 CD 141.53 NE 145.43 CZ 146.18 NH1 143.3 NH2 143.81
B ARG H 48 -60.1 -59.7 N 91.6 CA 89.16 C 83.85 O 84.13 CB 97.87 CG 111.77 CD 128.05 NE 137.46 CZ 126.58 NH1 118.55 NH2 118.22
B LEU H 11 -54.1 -34.9 N 81.62 CA 78.16 C 79.79 O 81.74 CB 75.89 CG 77.34 CD1 76.91 CD2 81.16
B ALA H 8 -51.6 -51.9 N 81.67 CA 83.81 C 85.16 O 87.36 CB 88.95
B GLU H 46 -64.3 -48.5 N 87.54 CA 87.61 C 83.09 O 78.99 CB 91.93 CG 103.33 CD 117.59 OE1 127.6 OE2 125.88
B MET H 29 -54.5 -40.3 N 81.04 CA 83.36 C 80.78 O 77.37 CB 87.43 CG 94.51 SD 119.72 CE 114.01
B TRP H 6 -60.0 -63.1 N 81.87 CA 79.94 C 82.22 O 83.55 CB 75.99 CG 76.79 CD1 78.41 CD2 73.14 NE1 74.86 CE2 72.41 CE3 69.41 CZ2 69.97 CZ3 67.44 CH2 69.35
B TYR H 94 -36.4 -54.9 N 81.57 CA 79.16 C 74.5 O 73.12 CB 87.54 CG 100.21 CD1 106.32 CD2 102.92 CE1 107.45 CE2 107.51 CZ 110.87 OH 118.75
B ILE H 52 -59.9 -29.5 N 71.94 CA 69.82 C 71.6 O 70.99 CB 65.42 CG1 66.61 CG2 61.65 CD1 70.05
B LEU H 11 -80.3 -43.3 N 71.67 CA 73.92 C 79.8 O 85.91 CB 72.7 CG 72.26 CD1 69.95 CD2 69.9
B ILE H 5 -67.0 152.6 N 83.22 CA 83.68 C 88.21 O 89.92 CB 80.77 CG1 77.46 CG2 80.99 CD1 76.32
B ARG H 77 92.7 -86.9 N 91.37 CA 88.54 C 88.79 O 90.18 CB 82.48 CG 80.62 CD 84.15 NE 88.08 CZ 87.67 NH1 91.75 NH2 82.7
B GLY H 3 -38.3 -36.3 N 86.63 CA 87.17 C 86.15 O 85.48
B MET S 10 -126.3 -24.1 N 84.02 CA 84.67 C 84.6 O 81.83 CB 89.6 CG 100.51 SD 112.62 CE 99.24
B VAL S 9 -99.1 133.1 N 84.91 CA 86.77 C 92.08 O 94.66 CB 86.36 CG1 88.14 CG2 86.77
B PRO - 14 -40.4 118.1 N 91.54 CA 88.03 C 85.39 O 80.12 CB 88.39 CG 92.52 CD 92.39
B VAL G 111 -35.9 -52.2 N 84.54 CA 84.39 C 84.02 O 79.39 CB 83.85 CG1 82.45 CG2 83.82
B THR G 115 -44.1 -30.1 N 88.59 CA 86.93 C 84.89 O 80.09 CB 87.52 OG1 93.78 CG2 84.21
B ARG G 97 -143.1 26.8 N 88.1 CA 88.99 C 86.92 O 83.33 CB 89.4 CG 85.13 CD 83.95 NE 84.24 CZ 87.22 NH1 85.0 NH2 93.63
B ARG S 66 -61.7 -32.8 N 88.57 CA 89.61 C 92.62 O 94.94 CB 90.61 CG 92.94 CD 96.05 NE 98.6 CZ 101.33 NH1 106.28 NH2 103.92
B ALA H 72 -38.4 -70.1 N 93.78 CA 88.74 C 87.51 O 88.29 CB 92.42
B ARG H 57 -32.6 -35.5 N 86.97 CA 85.35 C 84.48 O 83.26 CB 83.39
B TYR H 12 -94.4 -55.2 N 83.48 CA 85.25 C 85.49 O 83.92 CB 83.15 CG 86.8 CD1 89.68 CD2 87.28 CE1 94.37 CE2 92.2 CZ 97.48 OH 105.32
B VAL H 58 -40.7 -41.1 N 89.4 CA 93.29 C 91.64 O 91.71 CB 95.6 CG1 103.01 CG2 92.06
B THR H 90 -68.8 -51.7 N 87.52 CA 86.69 C 81.01 O 74.88 CB 90.28 OG1 94.89 CG2 89.87
B LEU H 16 -55.0 -23.0 N 79.18 CA 79.17 C 81.3 O 81.29 CB 79.13 CG 82.43 CD1 84.15 CD2 82.75
B ALA H 5 -86.7 -67.5 N 85.57 CA 83.13 C 86.24 O 84.14 CB 82.28
B ALA H 54 -58.6 -33.3 N 90.49 CA 88.53 C 86.79 O 89.42 CB 86.32
B ARG T 53 -99.1 121.5 N 82.51 CA 80.63 C 78.7 O 81.36 CB 79.9
B LEU T 7 121.8 -21.7 N 76.35 CA 76.22 C 81.8 O 80.43 CB 69.92 CG 66.2 CD1 65.8 CD2 69.71
B GLU T 33 -66.6 -67.5 N 88.55 CA 94.74 C 102.85 O 107.75 CB 98.65 CG 101.61 CD 108.27 OE1 112.06 OE2 108.45
B GLN S 124 -62.9 -23.6 N 113.95 CA 125.4 C 139.22 O 149.88 CB 119.66 CG 114.68 CD 112.38 OE1 110.44 NE2 109.57
B GLU - 111 -125.7 101.7 N 144.55 CA 148.88 C 151.45 O 147.02 CB 150.36 CG 150.83 CD 156.84 OE1 158.61 OE2 161.1
B THR - 82 -147.9 360.0 N 151.71 CA 148.84 C 147.46 O 150.41 CB 138.85 OG1 134.63 CG2 123.39
C LEU - 166 360.0 -117.5 N 102.82 CA 109.51 C 108.5 O 109.49 CB 104.83 CG 104.49 CD1 97.02 CD2 104.0
C ARG H 195 -79.6 -24.7 N 104.04 CA 96.4 C 89.64 O 84.48 CB 101.37 CG 98.53 CD 100.22 NE 103.85 CZ 102.52 NH1 102.48 NH2 100.25
C ALA H 26 -56.5 -57.6 N 85.2 CA 82.77 C 83.68 O 83.46 CB 80.94
C GLU H 57 -63.7 -42.3 N 83.42 CA 80.51 C 79.26 O 72.84 CB 78.09
C GLN H 145 -49.0 -49.4 N 81.12 CA 84.91 C 81.97 O 83.05 CB 92.07 CG 96.14 CD 102.79 OE1 104.79 NE2 101.02
C THR H 33 -68.6 -58.5 N 77.16 CA 73.09 C 69.52 O 64.67 CB 70.88 OG1 72.59 CG2 68.06
C ARG H 96 -45.5 -39.5 N 67.48 CA 67.33 C 67.46 O 68.29 CB 68.65 CG 67.85 CD 69.83 NE 75.76 CZ 86.21 NH1 91.18 NH2 89.45
C ALA H 53 -68.6 -61.1 N 66.87 CA 63.43 C 61.44 O 60.0 CB 64.84
C THR H 62 -34.9 -48.6 N 58.63 CA 57.64 C 56.4 O 55.7 CB 57.98 OG1 60.7 CG2 57.66
C ILE H 0 -55.9 -68.4 N 54.85 CA 53.68 C 53.03 O 51.69 CB 54.08 CG1 54.88 CG2 53.51 CD1 55.09
C ILE H 4 -42.3 -54.6 N 52.65 CA 52.38 C 52.78 O 53.83 CB 53.07 CG1 53.66 CG2 53.74 CD1 53.78
C GLY H 30 -36.9 -74.6 N 52.22 CA 51.2 C 50.75 O 49.87
C ALA H 10 -56.9 -29.5 N 51.35 CA 52.54 C 51.76 O 52.28 CB 53.01
C ALA H 0 -72.1 -46.6 N 50.56 CA 51.39 C 53.36 O 54.91 CB 50.65
C ALA H 0 -61.9 -33.7 N 56.16 CA 58.64 C 61.54 O 62.14 CB 58.47
C ASP H 30 -54.9 -58.8 N 63.84 CA 66.57 C 67.75 O 74.49 CB 72.11 CG 77.11 OD1 80.46 OD2 77.74
C LEU H 3 -67.1 -49.1 N 63.93 CA 60.34 C 60.86 O 58.53 CB 57.18 CG 55.95 CD1 55.91 CD2 56.02
C PHE H 0 -49.3 -38.8 N 61.91 CA 65.25 C 71.26 O 76.32 CB 62.01 CG 61.3 CD1 60.46 CD2 61.8 CE1 59.64 CE2 60.4 CZ 59.43
C ASP H 35 -72.3 -47.5 N 77.16 CA 77.66 C 73.38 O 69.68 CB 85.03 CG 93.72 OD1 100.36 OD2 97.72
C ARG H 137 -75.9 -15.1 N 71.74 CA 74.38 C 76.77 O 79.89 CB 77.13 CG 82.26 CD 87.55 NE 93.56 CZ 99.08 NH1 101.64 NH2 99.51
C ARG H 102 -140.4 -16.2 N 75.54 CA 69.37 C 66.36 O 68.96 CB 70.47 CG 76.5 CD 82.97 NE 83.73 CZ 83.24 NH1 82.84 NH2 82.76
C GLY - 11 98.9 150.7 N 63.37 CA 64.52 C 68.5 O 69.84
C TYR T 24 -60.3 -56.2 N 70.87 CA 71.68 C 75.15 O 74.14 CB 73.71 CG 74.42 CD1 74.78 CD2 76.53 CE1 72.95 CE2 77.93 CZ 74.16 OH 74.19
C GLU T 86 -45.6 -53.9 N 77.67 CA 79.02 C 78.77 O 82.65 CB 84.33 CG 93.76 CD 101.65 OE1 102.87 OE2 110.57
C SER T 42 -91.9 0.3 N 78.84 CA 76.6 C 74.99 O 78.78 CB 81.49 OG 90.52
C THR S 0 -90.9 110.8 N 69.21 CA 67.18 C 65.3 O 61.16 CB 67.86 OG1 67.48 CG2 69.08
C THR - 65 -53.5 124.4 N 65.56 CA 62.77 C 62.33 O 61.05 CB 63.3 OG1 62.76 CG2 65.91
C LEU H 61 -59.2 -6.5 N 61.66 CA 58.04 C 56.94 O 55.48 CB 57.07 CG 56.52 CD1 56.36 CD2 55.37
C SER H 58 -114.9 -24.8 N 59.05 CA 62.25 C 62.92 O 65.76 CB 66.68 OG 76.68
C GLU H 26 -57.1 -30.9 N 60.46 CA 58.77 C 58.74 O 62.83 CB 56.09
C ILE H 0 -68.7 -60.8 N 56.84 CA 56.11 C 60.97 O 65.79 CB 52.77 CG1 52.36 CG2 52.19 CD1 51.85
C VAL H 12 -59.1 -1.8 N 63.03 CA 62.73 C 64.55 O 67.04 CB 59.88 CG1 57.6 CG2 59.58
C ALA H 71 -99.6 -45.6 N 65.18 CA 69.9 C 71.24 O 73.67 CB 73.36
C HIS H 84 -83.0 -11.7 N 72.66 CA 73.5 C 71.46 O 74.31 CB 75.26 CG 83.81 ND1 84.89 CD2 86.9 CE1 84.85 NE2 88.24
C ALA T 13 -102.7 4.2 N 70.77 CA 71.44 C 71.53 O 70.66 CB 71.18
C GLY T 65 49.3 46.8 N 71.14 CA 72.27 C 69.72 O 71.02
C VAL - 30 -116.0 -151.0 N 66.74 CA 65.03 C 64.56 O 66.38 CB 63.17 CG1 65.96 CG2 60.22
C THR - 89 -140.9 148.8 N 60.39 CA 58.15 C 58.89 O 58.77 CB 55.84 OG1 53.69 CG2 56.26
C LYS H 127 -40.7 -45.8 N 56.98 CA 55.23 C 56.14 O 57.2 CB 54.75 CG 55.22 CD 54.92 CE 55.67 NZ 59.55
C GLY H 51 -78.8 -23.0 N 54.78 CA 55.73 C 58.82 O 63.14
C ALA H 32 -71.0 -44.6 N 58.99 CA 57.19 C 55.89 O 56.39 CB 59.2
C LEU H 3 -59.5 -44.5 N 51.01 CA 48.31 C 49.03 O 48.32 CB 46.17 CG 44.53 CD1 43.86 CD2 44.06
C TYR H 148 -56.3 -46.4 N 49.94 CA 50.71 C 51.93 O 51.97 CB 50.53 CG 50.81 CD1 51.68 CD2 51.49 CE1 53.64 CE2 52.85 CZ 54.37 OH 56.12
C PHE H 168 -47.7 -38.7 N 53.57 CA 56.44 C 56.69 O 58.57 CB 60.89 CG 66.2 CD1 69.2 CD2 69.63 CE1 74.82 CE2 73.25 CZ 73.51
C HIS H 53 -93.0 -30.4 N 55.31 CA 54.24 C 54.2 O 54.86 CB 53.42 CG 54.84 ND1 55.9 CD2 54.84 CE1 55.56 NE2 55.31
C PHE - 8 -145.6 104.2 N 54.38 CA 53.52 C 54.44 O 54.01 CB 51.35 CG 49.97 CD1 49.4 CD2 49.54 CE1 48.31 CE2 48.97 CZ 48.68
C ALA S 64 -72.0 -55.7 N 55.01 CA 55.73 C 58.95 O 60.67 CB 55.5
C ALA S 39 -86.7 177.3 N 59.98 CA 59.75 C 57.36 O 55.12 CB 62.66
C LYS S 48 -106.9 -2.8 N 58.34 CA 59.96 C 66.17 O 70.13 CB 57.53 CG 57.97 CD 56.12 CE 56.07 NZ 54.94
C GLU H 62 -87.4 5.9 N 70.55 CA 74.26 C 74.75 O 80.57 CB 81.2 CG 95.22 CD 101.93 OE1 103.71 OE2 104.04
C ASP H 60 -69.7 -27.8 N 72.57 CA 72.21 C 69.6 O 74.33 CB 75.86 CG 80.95 OD1 82.61 OD2 81.27
C LEU H 0 -76.9 -58.4 N 63.11 CA 60.25 C 62.82 O 64.73 CB 54.72 CG 52.22 CD1 50.29 CD2 52.16
C ALA H 9 -37.0 -59.4 N 64.24 CA 64.37 C 67.57 O 66.3 CB 62.83
C HIS H 83 -58.5 -48.7 N 73.07 CA 75.35 C 72.79 O 75.47 CB 80.99 CG 91.51 ND1 94.83 CD2 94.44 CE1 99.38 NE2 100.63
C ALA H 8 -74.0 -17.1 N 71.18 CA 70.54 C 67.08 O 66.73 CB 71.04
C ILE H 0 -77.9 -31.6 N 62.9 CA 62.96 C 66.82 O 68.01 CB 61.37 CG1 59.77 CG2 62.41 CD1 56.36
C LEU H 20 -78.9 -40.7 N 69.14 CA 68.91 C 71.84 O 79.11 CB 66.84 CG 65.99 CD1 65.36 CD2 65.53
C GLU H 69 -42.6 -56.1 N 73.12 CA 75.42 C 72.09 O 72.65 CB 86.02 CG 93.88 CD 98.92 OE1 103.99 OE2 101.02
C ILE H 35 -60.7 -47.6 N 70.29 CA 69.88 C 73.69 O 81.37 CB 67.54 CG1 70.28 CG2 66.91 CD1 69.76
C GLN H 3 -60.6 -64.3 N 73.48 CA 73.61 C 75.83 O 79.46 CB 75.66 CG 76.83 CD 77.28 OE1 71.98 NE2 82.44
C SER H 13 -48.4 -19.4 N 78.25 CA 83.7 C 83.64 O 86.31 CB 88.02 OG 88.95
C ARG H 113 -86.2 -73.2 N 82.09 CA 85.28 C 82.06 O 86.52 CB 94.15 CG 102.68 CD 109.73 NE 122.58 CZ 125.93 NH1 125.24 NH2 124.43
C THR H 20 -56.4 -10.9 N 77.98 CA 76.61 C 78.43 O 83.63 CB 74.59 OG1 71.74 CG2 74.79
C SER H 12 -65.2 -64.5 N 78.7 CA 77.42 C 77.89 O 80.68 CB 78.82 OG 85.71
C ARG H 144 -50.2 -24.7 N 78.0 CA 83.57 C 83.86 O 84.85 CB 86.25 CG 92.67 CD 105.33 NE 115.96 CZ 119.76 NH1 119.0 NH2 122.88
C ARG H 126 -78.6 -15.4 N 84.9 CA 90.25 C 93.12 O 100.82 CB 92.08 CG 96.27 CD 103.63 NE 111.02 CZ 113.0 NH1 111.51 NH2 113.16
C LEU H 13 -98.2 -33.9 N 89.24 CA 85.78 C 87.39 O 86.29 CB 80.12 CG 78.95 CD1 79.99 CD2 76.83
C ALA H 22 -57.7 -38.0 N 90.31 CA 93.78 C 99.0 O 100.67 CB 92.63
C LYS H 136 -72.8 -45.8 N 98.43 CA 96.86 C 94.22 O 95.15 CB 99.03 CG 105.68 CD 111.6 CE 118.36 NZ 116.21
C ASP S 75 -58.8 3.0 N 94.8 CA 101.66 C 99.98 O 98.87 CB 111.33 CG 116.01 OD1 117.18 OD2 118.23
C LEU S 17 -157.1 88.7 N 98.99 CA 101.71 C 106.5 O 100.73 CB 98.08 CG 94.97 CD1 92.97 CD2 93.64
C ASP S 87 -137.5 -93.2 N 116.33 CA 125.83 C 130.61 O 132.37 CB 129.9 CG 137.49 OD1 138.92 OD2 140.89
C GLY T 90 -56.3 23.1 N 129.54 CA 122.47 C 119.46 O 120.26
C ARG T 141 -89.6 7.1 N 112.01 CA 108.42 C 105.35 O 106.05 CB 106.43 CG 108.13 CD 112.58 NE 118.8 CZ 121.01 NH1 122.86 NH2 118.23
C GLY T 73 85.7 20.2 N 102.11 CA 103.94 C 108.78 O 110.88
C TYR - 68 -94.3 143.3 N 111.57 CA 101.62 C 98.67 O 97.45 CB 99.38 CG 98.65 CD1 100.93 CD2 94.22 CE1 99.25 CE2 93.47 CZ 94.81 OH 94.68
C SER - 35 -65.4 145.2 N 95.86 CA 96.28 C 98.62 O 97.6 CB 91.82 OG 88.53
C SER H 7 -39.2 -66.3 N 98.08 CA 92.21 C 90.05 O 91.48 CB 91.55 OG 90.97
C LEU H 12 -50.5 -60.5 N 89.81 CA 88.07 C 89.53 O 91.52 CB 83.91 CG 79.11 CD1 79.16 CD2 79.51
C GLU H 49 -41.4 -38.5 N 94.93 CA 102.89 C 102.24 O 101.08 CB 107.92 CG 108.5 CD 116.56 OE1 120.29 OE2 119.89
C ALA H 9 -58.3 -81.2 N 96.58 CA 90.7 C 85.06 O 81.5 CB 89.85
C LEU H 6 -36.9 -30.7 N 81.02 CA 77.26 C 76.5 O 74.73 CB 72.14 CG 69.28 CD1 69.97 CD2 69.33
C MET H 0 -80.0 -53.8 N 78.41 CA 83.22 C 86.59 O 86.47 CB 83.59 CG 83.02 SD 79.54 CE 78.48
C ARG H 58 -59.9 -39.7 N 88.71 CA 88.1 C 85.35 O 83.28 CB 93.49 CG 96.22 CD 99.9 NE 97.28 CZ 95.24 NH1 90.37 NH2 100.1
C LEU H 24 -49.2 -52.0 N 83.55 CA 82.03 C 79.38 O 79.08 CB 83.09 CG 81.42 CD1 80.35 CD2 79.5
C THR H 20 -68.2 -33.8 N 72.92 CA 71.01 C 71.72 O 70.75 CB 71.27 OG1 71.2 CG2 72.92
C PHE H 0 -65.9 -20.3 N 74.88 CA 77.89 C 77.45 O 79.15 CB 80.59 CG 78.65 CD1 79.19 CD2 77.33 CE1 77.61 CE2 75.72 CZ 76.01
C GLY H 10 -71.8 -52.4 N 75.41 CA 79.44 C 83.3 O 87.98
C MET H 32 -51.6 -55.8 N 82.37 CA 78.05 C 76.49 O 80.13 CB 82.08 CG 83.5 SD 97.92 CE 93.74
C ALA H 7 -54.7 -26.9 N 73.38 CA 72.42 C 76.24 O 75.11 CB 71.26
C ARG H 120 -56.9 -51.4 N 82.47 CA 85.8 C 85.14 O 87.25 CB 94.07 CG 102.64 CD 107.29 NE 120.82 CZ 123.32 NH1 118.99 NH2 120.0
C LEU H 25 -83.6 -40.3 N 82.38 CA 82.84 C 86.73 O 88.15 CB 80.44 CG 82.14 CD1 84.38 CD2 81.91
C CYS H 22 -36.6 -50.4 N 83.72 CA 83.46 C 83.79 O 85.49 CB 86.95 SG 98.94
C VAL T 60 -60.2 -32.6 N 82.15 CA 83.62 C 88.27 O 92.85 CB 79.4 CG1 75.52 CG2 77.91
C GLN S 106 -122.8 104.7 N 92.05 CA 100.39 C 101.74 O 108.03 CB 105.78 CG 115.34 CD 124.69 OE1 125.66 NE2 131.46
C GLY S 38 80.3 138.8 N 94.7 CA 88.6 C 83.2 O 87.55
C PRO H 26 -91.9 -6.1 N 76.24 CA 72.62 C 67.94 O 65.79 CB 73.59 CG 75.5 CD 76.74
C VAL H 30 -46.3 -47.2 N 63.59 CA 61.96 C 65.31 O 64.66 CB 58.59 CG1 55.79 CG2 59.06
C LEU H 13 -73.6 -52.5 N 68.54 CA 67.91 C 69.0 O 71.11 CB 68.63 CG 69.1 CD1 70.22 CD2 68.41
C ARG H 83 -34.1 -53.2 N 68.65 CA 68.18 C 67.92 O 67.68 CB 70.02 CG 70.75 CD 73.15 NE 79.37 CZ 86.11 NH1 87.33 NH2 90.33
C ALA H 0 -65.5 -47.4 N 66.97 CA 64.88 C 62.29 O 61.86 CB 64.48
C GLY H 0 -52.1 -32.7 N 61.76 CA 68.21 C 71.28 O 73.63
C LEU H 36 -69.4 -50.1 N 72.36 CA 72.64 C 74.27 O 75.51 CB 70.9 CG 68.67 CD1 66.07 CD2 69.16
C ARG H 69 -58.5 -27.7 N 73.51 CA 73.88 C 74.77 O 73.6 CB 75.2 CG 78.43 CD 79.21 NE 83.89 CZ 90.8 NH1 90.55 NH2 91.7
C LEU T 9 -81.6 -11.9 N 79.29 CA 83.91 C 91.09 O 99.11 CB 78.2 CG 77.55 CD1 78.51 CD2 77.21
C ALA T 15 -85.6 52.9 N 90.69 CA 91.6 C 94.17 O 95.4 CB 89.68
C THR T 47 -155.8 9.0 N 103.62 CA 110.96 C 115.0 O 108.56 CB 107.47 OG1 96.18 CG2 102.6
C ALA T 44 -82.2 -81.0 N 125.86 CA 143.3 C 158.22 O 166.81 CB 137.52
C GLY - 58 64.9 47.7 N 164.2 CA 170.63 C 181.29 O 192.76
C VAL - 46 -91.9 360.0 N 175.95 CA 170.93 C 172.31 O 176.88 CB 157.67
C VAL - 74 360.0 105.6 N 167.81 CA 176.98 C 180.92 O 173.77 CB 171.41
C ARG - 126 -127.0 123.2 N 183.51 CA 182.0 C 190.7 O 194.96 CB 165.37 CG 149.99 CD 145.25 NE 143.26 CZ 138.24 NH1 134.1 NH2 135.76
C PRO T 121 -63.1 155.0 N 190.36 CA 190.08 C 189.85 O 186.24 CB 185.76 CG 177.9 CD 181.72
C PRO T 142 -84.6 32.7 N 189.63 CA 184.06 C 184.75 O 179.19 CB 180.09 CG 178.39 CD 187.71
C LEU S 30 -51.7 145.0 N 188.94 CA 184.45 C 193.68 O 204.47 CB 163.0 CG 151.2 CD1 144.6 CD2 148.22
C PRO - 35 -50.0 -55.0 N 190.89 CA 177.79 C 166.85 O 152.31 CB 176.68 CG 185.75 CD 188.94
C HIS - 78 49.0 96.3 N 164.9 CA 152.5 C 139.19 O 146.44 CB 155.35 CG 159.25 ND1 154.44 CD2 158.98 CE1 158.28 NE2 159.05
C PRO T 4 -86.4 50.5 N 124.09 CA 120.34 C 114.08 O 118.84 CB 122.52 CG 121.1 CD 122.56
C PHE T 16 -133.1 -41.2 N 103.6 CA 96.26 C 98.51 O 103.29 CB 89.42 CG 84.75 CD1 82.25 CD2 82.84 CE1 80.16 CE2 79.77 CZ 79.27
C THR H 46 -66.5 -44.9 N 100.44 CA 100.19 C 98.65 O 100.59 CB 101.84 OG1 104.09 CG2 106.01
C GLU H 37 -39.3 -44.3 N 95.86 CA 97.22 C 98.13 O 103.1 CB 97.73
C TRP H 38 -93.5 -43.2 N 97.2 CA 96.98 C 101.39 O 103.14 CB 93.59 CG 90.01 CD1 95.57 CD2 88.45 NE1 96.72 CE2 90.73 CE3 89.23 CZ2 87.24 CZ3 89.2 CH2 86.53
C ARG H 48 -46.1 -63.3 N 104.94 CA 106.74 C 106.28 O 107.27 CB 115.63 CG 125.54 CD 138.15 NE 144.64 CZ 145.24 NH1 149.58 NH2 143.23
C GLU H 126 -57.5 -39.0 N 103.98 CA 103.15 C 93.79 O 92.66 CB 117.77 CG 135.02 CD 142.32 OE1 140.37 OE2 140.58
C ILE H 59 -68.1 -27.6 N 86.93 CA 87.75 C 90.84 O 92.11 CB 86.23 CG1 90.03 CG2 84.49 CD1 92.74
C ALA H 7 -95.2 -35.0 N 94.53 CA 92.22 C 94.69 O 94.72 CB 88.04
C THR H 26 -60.8 -29.1 N 93.25 CA 95.05 C 95.72 O 99.27 CB 99.89 OG1 111.24 CG2 101.01
C SER H 51 -79.4 -59.8 N 93.2 CA 96.0 C 93.43 O 99.28 CB 99.38 OG 101.08
C ARG H 77 -58.5 -20.9 N 87.58 CA 89.35 C 92.91 O 94.05 CB 90.55 CG 98.96 CD 104.63 NE 110.55 CZ 118.18 NH1 117.31 NH2 120.69
C LEU H 19 -82.0 -60.2 N 97.45 CA 97.71 C 104.12 O 107.55 CB 91.46 CG 84.36 CD1 83.29 CD2 80.19
C LEU H 101 -44.7 -19.3 N 104.15 CA 100.42 C 95.58 O 92.59 CB 101.4 CG 103.78 CD1 102.47 CD2 102.4
C ASP H 67 -91.3 -37.5 N 95.71 CA 98.51 C 97.68 O 96.88 CB 98.72 CG 105.64 OD1 112.44 OD2 107.23
C ALA H 0 -73.5 -7.9 N 96.8 CA 99.15 C 103.74 O 107.86 CB 95.71
C VAL T 12 -82.6 4.9 N 103.37 CA 105.24 C 107.02 O 103.87 CB 104.89 CG1 105.08 CG2 104.45
C ARG T 135 -92.3 -61.1 N 112.81 CA 115.57 C 118.03 O 124.83 CB 119.15 CG 122.64 CD 122.74 NE 126.45 CZ 128.53 NH1 131.51 NH2 125.71
C GLN S 71 -70.8 45.9 N 117.52 CA 119.25 C 117.8 O 115.08 CB 117.47 CG 120.87 CD 117.45 OE1 112.24 NE2 114.06
C SER S 61 40.5 -119.0 N 117.27 CA 113.22 C 109.71 O 105.66 CB 110.01 OG 105.35
C ASP S 9 77.3 -23.6 N 104.4 CA 102.89 C 101.25 O 92.91 CB 105.71 CG 105.82 OD1 98.69 OD2 107.05
C VAL S 11 -119.6 -120.2 N 104.91 CA 109.44 C 111.51 O 115.89 CB 115.93 CG1 119.13 CG2 120.84
C HIS - 50 -162.4 116.8 N 110.98 CA 121.36 C 135.73 O 142.8 CB 116.36 CG 119.18 ND1 123.17 CD2 116.43 CE1 120.56 NE2 117.81
C GLN T 147 -76.7 64.0 N 144.97 CA 139.91 C 146.14 O 154.84 CB 136.78 CG 132.65 CD 127.81 OE1 126.07 NE2 123.39
C ASP T 113 -153.7 -27.5 N 144.64 CA 149.81 C 155.81 O 162.42 CB 149.99 CG 147.18 OD1 140.14 OD2 143.59
C ILE S 56 -63.8 147.8 N 152.3 CA 147.56 C 156.18 O 157.8 CB 134.42 CG1 129.43 CG2 125.53 CD1 129.89
C ASP - 52 -86.2 95.1 N 155.78 CA 153.55 C 152.59 O 158.1 CB 153.88 CG 153.31 OD1 150.66 OD2 153.88
C VAL H 16 -52.9 -50.4 N 145.3 CA 134.4 C 128.5 O 123.4 CB 131.71 CG1 124.99 CG2 137.59
C ASP H 63 -51.0 -49.2 N 122.98 CA 122.87 C 117.17 O 118.33 CB 127.3 CG 133.25 OD1 128.68 OD2 140.81
C SER H 1 -59.1 -33.6 N 113.57 CA 108.51 C 103.27 O 96.57 CB 104.8 OG 107.03
C VAL H 10 -72.4 -39.6 N 99.91 CA 100.63 C 104.09 O 106.16 CB 100.69 CG1 97.24 CG2 103.3
C ALA H 0 -61.3 -50.2 N 104.09 CA 103.07 C 102.32 O 100.59 CB 103.77
C HIS H 14 -49.3 -37.5 N 101.95 CA 105.36 C 101.14 O 105.84 CB 119.0 CG 126.21 ND1 129.82 CD2 130.59 CE1 132.61 NE2 136.24
C THR H 15 -71.8 -64.8 N 94.26 CA 96.26 C 93.19 O 89.18 CB 100.98 OG1 110.13 CG2 99.83
C LEU H 8 -31.7 -49.2 N 91.59 CA 88.28 C 86.4 O 81.62 CB 87.48 CG 91.89 CD1 92.74 CD2 91.47
C VAL H 9 -54.4 -51.0 N 86.46 CA 89.11 C 93.63 O 90.02 CB 88.14 CG1 93.84 CG2 82.21
C CYS H 1 -76.0 -44.4 N 95.34 CA 104.11 C 101.79 O 95.45 CB 121.39 SG 159.98
C SER H 14 -32.9 -51.1 N 103.68 CA 107.74 C 109.11 O 111.16 CB 106.92 OG 103.65
C VAL H 42 -61.7 -63.9 N 106.17 CA 105.51 C 107.8 O 115.9 CB 101.53 CG1 99.85 CG2 102.59
C VAL H 13 -32.4 -23.8 N 99.9 CA 95.31 C 103.33 O 103.55 CB 88.56 CG1 85.85 CG2 82.97
C GLY - 4 48.4 -169.4 N 103.53 CA 102.67 C 111.38 O 110.54
C THR S 17 -124.3 -48.3 N 120.96 CA 119.28 C 122.92 O 128.82 CB 114.23 OG1 114.7 CG2 117.34
C ARG S 181 -87.4 -8.9 N 118.1 CA 117.21 C 119.54 O 123.64 CB 119.14 CG 114.34 CD 111.35 NE 109.88 CZ 105.48 NH1 111.75 NH2 93.4
C VAL - 38 -76.1 -18.4 N 118.95 CA 113.32 C 108.35 O 102.3 CB 105.25 CG1 103.01 CG2 101.9
C VAL - 73 -109.3 360.0 N 102.71 CA 96.82 C 103.43 O 107.39 CB 87.63 CG1 86.29 CG2 78.38
C GLY - 54 360.0 135.8 N 114.52 CA 122.43 C 122.84 O 116.75
C ARG - 122 73.8 -16.6 N 119.05 CA 112.54 C 105.7 O 102.91 CB 115.49 CG 113.46 CD 118.58 NE 129.57 CZ 132.27 NH1 134.29 NH2 128.08
C GLU H 32 -84.8 -23.0 N 102.98 CA 107.33 C 106.98 O 116.33 CB 114.0 CG 124.55 CD 136.63 OE1 144.38 OE2 140.69
C PRO H 15 -61.7 -50.0 N 103.31 CA 97.22 C 90.89 O 84.49 CB 97.07 CG 97.55 CD 104.15
C ARG H 79 -35.8 -53.1 N 91.21 CA 96.51 C 87.73 O 84.02 CB 115.91 CG 137.94 CD 151.33 NE 159.67 CZ 162.09 NH1 163.18 NH2 159.76
C ARG H 28 -64.3 -59.3 N 85.16 CA 81.72 C 77.47 O 78.09 CB 85.87 CG 93.0 CD 95.19 NE 94.11 CZ 92.66 NH1 91.57 NH2 91.57
C LEU H 15 -42.0 -39.3 N 75.71 CA 74.03 C 73.62 O 71.73 CB 72.21 CG 71.41 CD1 71.09 CD2 71.89
C ALA H 11 -56.0 -53.5 N 72.74 CA 73.54 C 75.93 O 77.29 CB 73.83
C GLU H 32 -61.8 -51.9 N 79.41 CA 84.1 C 81.24 O 81.73 CB 91.25 CG 100.3 CD 113.11 OE1 114.62 OE2 120.62
C MET H 8 -42.5 -49.7 N 77.45 CA 80.02 C 79.61 O 73.47 CB 88.19 CG 94.3 SD 108.73 CE 100.86
C TRP H 9 -54.3 -63.6 N 79.35 CA 76.78 C 78.43 O 78.14 CB 73.65 CG 74.09 CD1 78.65 CD2 72.34 NE1 79.84 CE2 74.0 CE3 69.56 CZ2 70.13 CZ3 67.31 CH2 68.01
C TYR H 106 -36.7 -63.3 N 80.08 CA 78.57 C 75.54 O 72.27 CB 84.2 CG 94.4 CD1 97.76 CD2 96.99 CE1 95.37 CE2 100.19 CZ 97.3 OH 98.39
C ILE H 29 -51.2 -34.5 N 73.57 CA 73.91 C 77.81 O 84.27 CB 63.3
C LEU H 20 -85.2 -39.2 N 77.85 CA 77.02 C 74.27 O 72.28 CB 81.61 CG 80.64 CD1 77.6 CD2 83.33
C ILE H 6 -61.3 -57.8 N 78.26 CA 82.13 C 87.9 O 90.13 CB 80.43 CG1 78.6 CG2 84.55 CD1 79.7
C ARG B 98 -54.3 114.9 N 89.49 CA 88.26 C 87.57 O 90.36 CB 88.43 CG 91.34 CD 98.9 NE 100.44 CZ 101.53 NH1 109.59 NH2 96.81
C GLY T 2 80.6 29.7 N 82.08 CA 83.01 C 81.83 O 80.5
C MET T 18 -142.5 -49.3 N 82.86 CA 83.27 C 87.4 O 91.21 CB 82.77 CG 82.09
C VAL B 2 -83.1 141.5 N 86.07 CA 85.93 C 85.13 O 86.96 CB 84.71
C PRO - 15 -58.1 160.0 N 83.9 CA 85.26 C 84.36 O 81.3 CB 87.37 CG 85.27 CD 84.97
C VAL T 117 -33.4 -50.6 N 87.22 CA 91.91 C 92.25 O 84.75 CB 92.16 CG1 92.13 CG2 89.24
C THR T 111 -79.7 -39.7 N 93.5 CA 97.01 C 106.67 O 120.67 CB 92.34 OG1 89.8 CG2 88.28
C ARG T 91 -62.7 -41.7 N 102.83 CA 93.96 C 92.21 O 90.89 CB 94.25 CG 94.76 CD 93.6 NE 93.86 CZ 91.48 NH1 91.8 NH2 87.95
C ARG H 66 -35.3 -25.0 N 95.12 CA 98.53 C 101.13 O 99.72 CB 101.93 CG 107.24 CD 112.31 NE 114.81 CZ 110.77 NH1 107.45 NH2 109.6
C ALA H 63 -60.4 -81.8 N 100.2 CA 94.95 C 91.54 O 90.54 CB 95.74
C ARG H 60 -34.9 -41.1 N 88.74 CA 86.1 C 85.57 O 86.57 CB 86.45
C TYR H 12 -86.3 -45.4 N 81.13 CA 81.33 C 82.63 O 80.2 CB 81.96 CG 86.03 CD1 90.14 CD2 90.36 CE1 97.47 CE2 99.64 CZ 105.22 OH 115.17
C VAL H 49 -54.1 -51.3 N 86.43 CA 86.74 C 89.07 O 93.38 CB 87.95 CG1 87.32 CG2 89.16
C THR H 94 -56.0 -42.4 N 90.1 CA 88.54 C 85.31 O 87.25 CB 88.46 OG1 90.8 CG2 92.7
C LEU H 19 -57.0 -46.2 N 81.64 CA 80.16 C 78.28 O 76.72 CB 77.79 CG 77.31 CD1 76.76 CD2 77.62
C ALA H 5 -62.9 -56.1 N 76.18 CA 73.94 C 76.36 O 76.0 CB 70.66
C ALA H 51 -52.6 -40.9 N 80.45 CA 83.51 C 87.12 O 87.93 CB 81.86
C ARG H 196 -72.3 -40.8 N 87.68 CA 87.23 C 82.31 O 83.98 CB 96.17 CG 106.93 CD 113.83 NE 119.67 CZ 118.44 NH1 118.41 NH2 113.47
C LEU H 2 -61.0 -37.8 N 77.36 CA 78.87 C 83.34 O 85.12 CB 75.94 CG 74.12 CD1 75.75 CD2 75.77
C GLU H 41 -73.8 -31.8 N 89.05 CA 96.52 C 102.9 O 103.02 CB 98.61 CG 105.04 CD 111.64 OE1 110.7 OE2 113.97
C GLN H 148 -58.1 -49.5 N 108.74 CA 118.37 C 121.78 O 117.38 CB 124.08 CG 132.88 CD 143.85 OE1 147.23 NE2 148.72
C GLU H 118 -104.8 -29.7 N 128.01 CA 134.61 C 135.2 O 135.57 CB 136.78 CG 136.67 CD 136.55 OE1 139.35 OE2 130.19
C THR - 38 -62.5 360.0 N 136.64 CA 142.32 C 156.27 O 158.0 CB 130.76 OG1 119.84 CG2 124.78
D GLU - 163 360.0 169.7 N 111.15 CA 110.28 C 108.21 O 109.5 CB 106.69 CG 105.33 CD 108.68 OE1 104.37 OE2 113.28
D GLN H 137 -74.3 -55.8 N 104.5 CA 103.17 C 98.38 O 93.74 CB 109.36 CG 110.73 CD 110.99 OE1 116.98 NE2 110.26
D THR H 58 -56.6 -26.0 N 94.95 CA 93.38 C 92.29 O 94.57 CB 95.71 OG1 96.68 CG2 98.9
D ARG H 93 -70.7 -35.3 N 89.97 CA 84.05 C 81.21 O 76.69 CB 83.32 CG 81.84 CD 83.03 NE 85.2 CZ 91.43 NH1 96.53 NH2 91.95
D ALA H 51 -71.7 -34.7 N 81.21 CA 79.97 C 77.1 O 74.63 CB 79.91
D THR H 59 -65.9 -44.6 N 77.36 CA 78.95 C 76.94 O 80.57 CB 81.28 OG1 84.66 CG2 79.57
D ILE H 1 -62.1 -44.3 N 71.8 CA 68.0 C 66.64 O 62.95 CB 66.68 CG1 68.97 CG2 64.41 CD1 72.83
D ILE H 7 -63.5 -49.5 N 65.97 CA 62.68 C 64.97 O 66.58 CB 59.77 CG1 59.49 CG2 59.27 CD1 59.91
D GLY H 29 -50.4 -48.1 N 67.45 CA 70.39 C 71.67 O 74.95
D ALA H 10 -66.3 -47.8 N 71.35 CA 73.06 C 70.46 O 69.4 CB 75.16
D ALA H 0 -55.4 -42.1 N 69.15 CA 71.45 C 74.14 O 71.99 CB 71.48
D ALA H 0 -69.5 -42.0 N 75.58 CA 76.6 C 81.23 O 81.94 CB 75.72
D ASP H 49 -56.6 -68.5 N 84.45 CA 85.67 C 83.48 O 82.26 CB 91.5 CG 100.36 OD1 103.76 OD2 103.51
D LEU H 9 -49.3 -35.3 N 79.58 CA 79.22 C 80.22 O 82.8 CB 77.38 CG 80.66 CD1 81.09 CD2 86.81
D PHE H 1 -64.2 -61.6 N 81.67 CA 83.35 C 83.47 O 84.56 CB 82.44 CG 80.42 CD1 76.83 CD2 80.81 CE1 73.84 CE2 75.02 CZ 72.55
D ASP H 27 -60.2 -21.9 N 82.33 CA 86.46 C 86.35 O 91.57 CB 91.4 CG 96.68 OD1 99.11 OD2 94.95
D ARG H 137 -92.2 -55.2 N 85.49 CA 86.28 C 84.39 O 86.02 CB 88.96 CG 91.45 CD 102.28 NE 109.64 CZ 112.7 NH1 107.94 NH2 110.28
D ARG H 118 -86.7 -18.0 N 83.81 CA 84.2 C 82.83 O 81.62 CB 87.47 CG 96.97 CD 106.05 NE 118.84 CZ 123.75 NH1 127.88 NH2 120.88
D GLY - 10 97.0 157.9 N 79.75 CA 79.31 C 77.95 O 78.3
D TYR S 50 -66.7 -55.6 N 75.05 CA 72.25 C 76.48 O 75.49 CB 68.32 CG 65.56 CD1 65.09 CD2 64.14 CE1 63.3 CE2 63.66 CZ 63.96 OH 63.53
D GLU T 88 -60.8 -22.2 N 82.94 CA 84.38 C 81.47 O 82.91 CB 89.7 CG 96.46 CD 103.7 OE1 109.87 OE2 100.17
D SER T 42 -119.1 19.3 N 78.49 CA 74.17 C 70.87 O 70.89 CB 76.96 OG 83.81
D THR - 0 -98.8 120.3 N 69.84 CA 68.93 C 70.29 O 69.38 CB 65.24 OG1 64.64 CG2 63.68
D THR - 55 -94.9 153.0 N 71.0 CA 71.48 C 68.21 O 67.01 CB 76.95 OG1 81.81 CG2 80.24
D LEU H 25 -55.9 -50.6 N 64.83 CA 62.63 C 63.31 O 65.75 CB 62.84 CG 62.03 CD1 63.49 CD2 64.34
D SER H 78 -39.6 -50.7 N 64.58 CA 66.75 C 68.68 O 70.84 CB 67.3 OG 70.9
D GLU H 74 -68.0 -33.8 N 71.85 CA 76.46 C 76.54 O 79.85 CB 82.25 CG 95.78 CD 107.28 OE1 112.75 OE2 110.05
D ILE H 0 -68.4 -58.7 N 73.43 CA 72.02 C 71.88 O 74.33 CB 71.89 CG1 72.2 CG2 72.41 CD1 72.94
D VAL H 22 -43.9 -52.1 N 69.4 CA 71.41 C 74.7 O 76.74 CB 70.8 CG1 70.68 CG2 70.16
D ALA H 70 -52.9 -69.4 N 76.44 CA 78.92 C 80.81 O 80.24 CB 79.43
D HIS T 108 -69.0 23.9 N 83.67 CA 85.08 C 80.61 O 83.44 CB 92.81 CG 106.06 ND1 106.01 CD2 109.34 CE1 105.49 NE2 110.26
D ALA T 18 -130.2 -15.8 N 74.1 CA 74.68 C 77.12 O 77.44 CB 73.71
D GLY S 77 86.3 -26.6 N 77.41 CA 75.0 C 73.56 O 77.58
D VAL - 20 -76.5 145.4 N 70.65 CA 68.81 C 69.54 O 70.13 CB 66.05 CG1 66.65 CG2 63.76
D THR - 85 -61.0 162.7 N 68.54 CA 68.05 C 67.1 O 70.3 CB 69.69 OG1 69.5 CG2 69.75
D LYS H 135 -64.7 -56.8 N 65.44 CA 62.86 C 60.09 O 58.35 CB 64.93 CG 64.13 CD 66.68 CE 71.64 NZ 75.35
D GLY H 49 -47.1 -32.1 N 60.39 CA 62.39 C 60.51 O 59.61
D ALA H 28 -63.0 -50.9 N 58.13 CA 58.32 C 59.36 O 61.22 CB 59.75
D LEU H 2 -46.0 -62.9 N 58.33 CA 56.92 C 58.11 O 59.68 CB 55.77 CG 54.49 CD1 53.34 CD2 55.02
D TYR H 111 -63.8 -22.2 N 59.88 CA 62.46 C 64.76 O 65.38 CB 62.88 CG 64.92 CD1 65.43 CD2 64.36 CE1 65.89 CE2 66.26 CZ 69.1 OH 75.68
D PHE H 170 -78.4 -33.3 N 68.46 CA 71.14 C 71.47 O 78.77 CB 74.23 CG 78.1 CD1 78.58 CD2 78.49 CE1 81.25 CE2 79.12 CZ 81.34
D HIS H 57 -77.4 -49.8 N 70.42 CA 70.96 C 69.8 O 74.7 CB 71.76 CG 77.81 ND1 80.83 CD2 79.15 CE1 80.58 NE2 82.2
D PHE - 7 -119.5 146.1 N 65.12 CA 62.04 C 60.54 O 61.7 CB 59.44 CG 59.92 CD1 61.76 CD2 62.16 CE1 64.36 CE2 66.18 CZ 66.38
D ALA S 73 -69.2 -32.2 N 57.93 CA 55.21 C 53.33 O 53.8 CB 55.85
D ALA S 27 -158.9 169.4 N 50.91 CA 51.54 C 53.04 O 53.74 CB 51.19
D LYS H 48 -55.4 -46.3 N 54.57 CA 56.59 C 59.42 O 61.28 CB 57.66 CG 55.38 CD 54.18 CE 55.08 NZ 57.52
D GLU H 115 -58.3 -31.9 N 62.72 CA 64.34 C 63.25 O 64.84 CB 69.79 CG 78.71 CD 91.01 OE1 95.78 OE2 96.25
D ASP H 51 -60.5 -26.4 N 59.86 CA 58.3 C 58.37 O 59.36 CB 58.61 CG 58.3 OD1 57.16 OD2 59.44
D LEU H 0 -69.7 -42.4 N 57.7 CA 59.1 C 61.59 O 62.44 CB 58.57 CG 59.92 CD1 60.05 CD2 60.54
D ALA H 10 -59.7 -49.1 N 62.68 CA 65.45 C 68.74 O 74.02 CB 64.85
D HIS H 65 -53.0 -60.3 N 66.82 CA 67.24 C 64.81 O 67.39 CB 73.65 CG 79.47 ND1 83.78 CD2 84.3 CE1 89.55 NE2 90.43
D ALA H 2 -59.1 -11.8 N 62.34 CA 61.85 C 61.43 O 60.61 CB 61.94
D ILE H 0 -86.6 -39.4 N 63.64 CA 65.23 C 63.69 O 63.3 CB 67.21 CG1 65.32 CG2 68.75 CD1 64.84
D LEU H 5 -61.8 -35.6 N 62.71 CA 66.2 C 69.77 O 74.71 CB 64.19 CG 62.5 CD1 63.36 CD2 62.39
D GLU H 45 -54.9 -47.8 N 72.5 CA 76.83 C 73.78 O 70.72 CB 84.27 CG 94.75 CD 100.94 OE1 104.63 OE2 102.76
D ILE H 48 -63.5 -43.7 N 72.98 CA 73.97 C 79.16 O 82.47 CB 68.56 CG1 66.98 CG2 67.31 CD1 68.69
D GLN H 13 -63.3 -74.7 N 79.86 CA 81.18 C 81.98 O 80.41 CB 82.45 CG 80.54 CD 78.75 OE1 81.77 NE2 72.62
D SER H 5 -46.0 -33.6 N 85.35 CA 89.78 C 88.68 O 90.08 CB 93.35 OG 99.93
D ARG H 119 -62.2 -78.5 N 91.45 CA 96.56 C 96.21 O 95.94 CB 100.37 CG 104.48 CD 106.59 NE 116.4 CZ 117.55 NH1 115.1 NH2 112.46
D THR H 47 -58.1 -8.9 N 95.3 CA 97.93 C 100.17 O 105.46 CB 96.12 OG1 82.12 CG2 99.54
D SER H 9 -57.7 -65.2 N 97.67 CA 92.13 C 90.34 O 89.72 CB 92.82 OG 88.72
D ARG H 115 -61.2 -27.3 N 91.69 CA 99.93 C 99.06 O 92.71 CB 103.59 CG 111.63 CD 117.76 NE 121.39 CZ 119.53 NH1 113.17 NH2 124.43
D ARG H 177 -64.2 -28.0 N 100.02 CA 99.1 C 95.83 O 98.66 CB 105.02 CG 114.3 CD 125.2 NE 130.04 CZ 128.6 NH1 122.59 NH2 131.78
D LEU H 59 -82.6 -47.1 N 87.65 CA 85.55 C 86.85 O 90.41 CB 79.72 CG 75.41 CD1 73.3 CD2 72.36
D ALA H 20 -51.9 -24.7 N 84.21 CA 86.28 C 91.19 O 93.55 CB 85.86
D LYS T 154 -56.2 -25.2 N 91.81 CA 92.15 C 96.34 O 106.14 CB 94.39 CG 99.99 CD 99.68 CE 95.43 NZ 93.5
D ASP - 101 -86.9 58.5 N 95.71 CA 96.73 C 93.99 O 85.57 CB 97.4 CG 102.05 OD1 103.87 OD2 100.89
D LEU - 91 -101.6 121.7 N 95.44 CA 96.52 C 100.56 O 92.87 CB 93.05 CG 87.88 CD1 85.42 CD2 82.64
D ASP - 128 -158.4 360.0 N 106.19 CA 105.81 C 104.28 O 93.69 CB 101.5 CG 104.65 OD1 103.52 OD2 107.56
D TYR - 110 360.0 134.6 N 81.33 CA 81.03 C 81.14 O 80.73 CB 80.07 CG 79.21 CD1 76.49 CD2 78.96 CE1 76.41 CE2 76.22 CZ 74.94 OH 75.7
D SER - 28 -72.0 135.5 N 82.71 CA 80.63 C 80.32 O 75.96 CB 77.09 OG 77.34
D SER H 16 -55.2 -47.7 N 80.75 CA 79.99 C 75.16 O 76.57 CB 83.1 OG 84.4
D LEU H 0 -60.7 -30.8 N 72.22 CA 70.89 C 72.13 O 69.78 CB 68.22 CG 66.88 CD1 67.76 CD2 65.95
D GLU H 34 -75.9 -49.9 N 75.19 CA 76.34 C 75.24 O 73.78 CB 80.15 CG 82.31 CD 89.93 OE1 93.52 OE2 92.0
D ALA H 9 -44.6 -66.5 N 75.33 CA 73.13 C 69.19 O 66.04 CB 73.34
D LEU H 7 -44.9 -43.1 N 66.63 CA 65.26 C 66.48 O 68.86 CB 62.21 CG 61.35 CD1 60.32 CD2 62.32
D MET H 0 -60.5 -53.6 N 70.52 CA 72.16 C 70.86 O 67.27 CB 78.37 CG 88.36 SD 103.95 CE 90.58
D ARG H 77 -67.1 -30.9 N 73.72 CA 77.69 C 76.19 O 75.5 CB 82.56 CG 89.4 CD 92.02 NE 96.92 CZ 100.72 NH1 100.34 NH2 105.41
D LEU H 26 -58.2 -56.2 N 72.17 CA 66.51 C 65.17 O 66.93 CB 63.94 CG 64.37 CD1 63.8 CD2 66.72
D THR H 15 -34.7 -71.8 N 65.56 CA 67.13 C 71.28 O 72.23 CB 66.45 OG1 64.98 CG2 69.17
D PHE H 20 -50.2 -45.6 N 78.82 CA 86.19 C 87.83 O 85.97 CB 87.06 CG 87.7 CD1 91.34 CD2 86.46 CE1 90.81 CE2 87.7 CZ 88.45
D GLY H 24 -62.1 -55.0 N 91.61 CA 93.86 C 90.43 O 87.15
D MET H 36 -45.4 -54.6 N 84.98 CA 86.67 C 89.21 O 98.23 CB 87.97 CG 91.28 SD 102.03 CE 98.17
D ALA H 31 -57.2 -50.0 N 85.24 CA 80.03 C 83.37 O 92.64 CB 77.98
D ARG H 49 -46.1 -45.0 N 82.09 CA 84.47 C 86.21 O 86.32 CB 81.9
D LEU H 53 -66.4 -50.4 N 83.55 CA 85.68 C 88.68 O 91.25 CB 82.3 CG 82.44 CD1 81.02 CD2 83.29
D CYS T 45 -53.7 2.8 N 89.05 CA 93.4 C 100.8 O 107.97 CB 94.09 SG 101.51
D VAL T 63 -105.0 -44.2 N 102.78 CA 106.42 C 111.15 O 115.94 CB 103.9 CG1 102.96 CG2 97.84
D GLN S 117 -47.4 70.8 N 118.38 CA 122.89 C 120.77 O 123.19 CB 128.35 CG 137.81 CD 140.6 OE1 146.56 NE2 138.15
D GLY S 31 80.0 168.8 N 115.64 CA 108.68 C 104.01 O 98.15
D PRO H 35 -73.9 -68.0 N 103.52 CA 99.67 C 92.08 O 87.49 CB 104.01 CG 104.3 CD 103.15
D VAL H 35 -1.0 -75.2 N 88.18 CA 88.92 C 90.07 O 85.81 CB 88.03 CG1 86.47 CG2 89.02
D LEU H 16 -69.9 -44.6 N 88.98 CA 86.15 C 86.72 O 83.35 CB 77.76
D ARG H 85 -57.9 -43.3 N 85.38 CA 85.82 C 86.53 O 86.88 CB 86.59 CG 87.74 CD 92.48 NE 94.61 CZ 94.73 NH1 98.22 NH2 96.38
D ALA H 0 -68.9 -11.8 N 81.91 CA 74.42 C 70.83 O 65.28 CB 74.95
D GLY H 0 -76.3 -41.3 N 72.27 CA 75.18 C 74.24 O 73.64
D LEU H 29 -66.2 -45.0 N 74.99 CA 76.67 C 77.07 O 70.72 CB 75.12 CG 73.47 CD1 74.82 CD2 69.95
D ARG H 42 -51.2 -46.0 N 80.52 CA 82.2 C 78.0 O 80.07 CB 87.64 CG 100.01 CD 111.86 NE 116.48 CZ 120.26 NH1 120.65 NH2 121.67
D LEU H 14 -68.7 -23.8 N 75.42 CA 75.25 C 76.86 O 81.07 CB 74.08 CG 71.91 CD1 72.26 CD2 71.33
D ALA H 7 -78.3 -50.2 N 76.01 CA 78.34 C 82.53 O 83.83 CB 77.32
D THR H 24 -42.6 -56.7 N 86.55 CA 91.46 C 97.68 O 100.61 CB 92.18 OG1 90.13 CG2 91.9
D ALA S 42 -64.2 -172.3 N 97.22 CA 94.55 C 95.76 O 88.25 CB 89.22
D GLY - 46 -61.5 96.1 N 100.7 CA 110.72 C 116.98 O 115.3
D VAL - 49 -67.3 118.5 N 118.28 CA 124.04 C 128.91 O 133.79 CB 124.36 CG1 115.93 CG2 116.63
D PRO - 91 -93.7 135.1 N 127.09 CA 122.09 C 116.7 O 112.04 CB 126.0 CG 128.09 CD 123.03
D VAL - 61 -130.1 171.2 N 111.43 CA 111.5 C 117.39 O 117.19 CB 109.92 CG1 108.31 CG2 100.92
D ARG - 203 68.8 360.0 N 124.89 CA 124.35 C 129.81 O 129.81 CB 117.69 CG 112.12 CD 111.86 NE 116.46 CZ 114.93 NH1 112.99 NH2 108.02
D LEU - 16 360.0 150.1 N 123.49 CA 120.52 C 120.83 O 115.74 CB 116.78 CG 117.43 CD1 109.68 CD2 121.89
D PRO - 44 -64.2 -98.5 N 124.55 CA 121.21 C 123.15 O 134.47 CB 116.59 CG 117.34 CD 124.91
D HIS - 95 -159.5 151.3 N 115.51 CA 111.37 C 107.03 O 112.14 CB 120.62 CG 130.1 ND1 131.71 CD2 129.21 CE1 126.4 NE2 128.12
D PRO S 28 -70.6 -47.5 N 104.54 CA 98.0 C 90.94 O 86.67 CB 106.13 CG 103.09 CD 103.07
D PHE H 31 -109.0 -31.3 N 85.6 CA 81.03 C 84.77 O 86.41 CB 76.4 CG 75.4 CD1 75.81 CD2 73.08 CE1 74.17 CE2 72.86 CZ 73.74
D THR H 51 -85.7 24.1 N 86.74 CA 89.17 C 93.77 O 104.05 CB 88.21 OG1 88.23 CG2 89.39
D GLU H 24 -90.4 -72.0 N 91.21 CA 87.02 C 85.27 O 90.18 CB 86.36 CG 87.8 CD 92.08 OE1 92.9 OE2 91.79
D TRP H 54 -34.1 -55.6 N 78.17 CA 73.34 C 73.44 O 71.53 CB 69.94 CG 70.66 CD1 73.76 CD2 71.89 NE1 72.46 CE2 72.07 CE3 74.86 CZ2 74.89 CZ3 78.25 CH2 78.6
D ARG H 69 -59.0 -37.5 N 75.6 CA 78.87 C 80.32 O 75.88 CB 82.17 CG 84.71 CD 88.33 NE 89.4 CZ 91.44 NH1 91.16 NH2 95.48
D GLU H 85 -63.8 -34.1 N 86.11 CA 92.72 C 86.69 O 89.28 CB 103.91 CG 122.25 CD 137.88 OE1 145.2 OE2 140.3
D ILE H 60 -68.6 -61.4 N 78.31 CA 73.02 C 70.27 O 68.43 CB 74.36 CG1 77.56 CG2 76.13 CD1 79.8
D ALA H 6 -36.1 -57.7 N 66.94 CA 64.37 C 66.48 O 70.88 CB 63.32
D THR H 22 -53.9 -46.0 N 66.72 CA 66.05 C 66.62 O 68.04 CB 64.71 OG1 67.49 CG2 64.0
D SER H 65 -58.9 -49.2 N 66.56 CA 66.94 C 63.83 O 61.88 CB 71.03 OG 77.92
D ARG H 29 -57.0 -47.9 N 62.33 CA 64.98 C 64.58 O 66.09 CB 67.72 CG 73.09 CD 82.78 NE 86.98 CZ 88.67 NH1 88.86 NH2 93.48
D LEU H 1 -65.9 -41.4 N 61.86 CA 60.68 C 62.26 O 62.1 CB 59.69 CG 59.08 CD1 56.51 CD2 60.33
D LEU H 70 -56.4 -40.3 N 64.85 CA 67.95 C 70.27 O 71.15 CB 68.8 CG 71.46 CD1 72.92 CD2 71.91
D ASP H 56 -73.3 -35.5 N 72.46 CA 75.37 C 70.9 O 74.05 CB 85.11 CG 98.35 OD1 100.07 OD2 106.0
D ALA H 0 -58.2 -45.2 N 64.34 CA 61.29 C 61.59 O 60.64 CB 58.47
D VAL H 18 -65.9 -32.3 N 60.77 CA 61.14 C 64.6 O 66.05 CB 59.25 CG1 58.3 CG2 59.13
D ARG H 164 -61.4 -25.0 N 70.43 CA 74.65 C 71.81 O 74.26 CB 82.12 CG 94.7 CD 106.6 NE 111.07 CZ 113.18 NH1 109.88 NH2 116.43
D GLN T 66 -123.5 26.2 N 68.17 CA 67.68 C 68.59 O 69.18 CB 66.73 CG 66.44 CD 69.14 OE1 68.29 NE2 70.23
D SER T 72 82.3 -19.4 N 67.85 CA 64.72 C 62.75 O 62.8 CB 65.31 OG 67.29
D ASP S 13 -58.1 -30.0 N 62.6 CA 62.5 C 62.1 O 63.77 CB 64.25 CG 65.33 OD1 66.27 OD2 66.67
D VAL S 2 -129.2 137.5 N 62.36 CA 63.1 C 64.82 O 65.25 CB 61.5 CG1 61.42 CG2 61.93
D HIS - 72 -58.9 145.0 N 66.32 CA 69.94 C 71.65 O 71.21 CB 72.82 CG 75.23 ND1 77.22 CD2 74.42 CE1 75.7 NE2 76.5
D GLN T 160 -54.0 -45.9 N 75.68 CA 79.03 C 78.56 O 87.13 CB 84.68 CG 86.73 CD 92.8 OE1 93.87 NE2 98.86
D ASP T 146 -103.1 38.0 N 75.14 CA 78.67 C 78.9 O 83.02 CB 83.28 CG 83.63 OD1 82.6 OD2 85.69
D ILE S 32 -77.8 169.2 N 78.85 CA 85.3 C 90.6 O 92.99 CB 84.77 CG1 86.62 CG2 82.97 CD1 86.89
D ASP - 98 -112.0 107.2 N 93.76 CA 93.41 C 91.98 O 93.52 CB 100.97 CG 112.73 OD1 109.63 OD2 122.61
D VAL H 15 -46.8 -50.2 N 86.85 CA 86.16 C 87.75 O 85.64 CB 84.16 CG1 83.88 CG2 86.74
D ASP H 76 -70.2 -34.4 N 93.68 CA 99.83 C 93.77 O 88.58 CB 112.26 CG 122.06 OD1 120.7 OD2 120.75
D SER H 24 -57.3 -41.2 N 91.14 CA 89.16 C 85.42 O 85.3 CB 91.3 OG 96.49
D VAL H 12 -80.0 -37.8 N 80.24 CA 77.61 C 77.13 O 74.47 CB 73.14 CG1 66.31 CG2 71.23
D ALA H 0 -56.2 -57.8 N 80.3 CA 82.09 C 85.87 O 82.31 CB 79.21
D HIS H 8 -50.4 -51.6 N 90.52 CA 92.99 C 89.68 O 91.66 CB 97.66 CG 105.61 ND1 105.7 CD2 104.73 CE1 108.72 NE2 108.38
D THR H 20 -68.1 -31.4 N 84.8 CA 83.81 C 79.5 O 80.37 CB 83.13 OG1 81.08 CG2 84.91
D LEU H 8 -67.4 -42.2 N 79.54 CA 81.78 C 84.31 O 81.18 CB 78.9 CG 77.83 CD1 75.56 CD2 77.94
D VAL H 15 -62.3 -41.4 N 88.11 CA 89.33 C 95.02 O 91.65 CB 86.48 CG1 84.21 CG2 82.69
D CYS H 1 -71.7 -71.6 N 103.41 CA 107.79 C 107.77 O 109.81 CB 116.9 SG 167.14
D SER H 12 -34.3 -36.4 N 106.15 CA 107.36 C 108.11 O 107.38 CB 110.67 OG 121.41
D VAL T 50 -69.6 50.1 N 107.66 CA 109.91 C 112.05 O 102.51 CB 105.57 CG1 105.82 CG2 102.3
D VAL T 42 -134.1 -28.3 N 123.26 CA 123.25 C 126.16 O 121.12 CB 111.16 CG1 106.84 CG2 97.4
D GLY - 13 79.8 -93.9 N 121.93 CA 134.21 C 159.28 O 150.26
D THR S 10 -147.3 -53.8 N 181.77 CA 169.19 C 157.85 O 141.08 CB 171.83 OG1 179.22 CG2 171.28
D ARG - 111 -57.8 129.8 N 159.0 CA 156.15 C 155.01 O 149.73 CB 157.72 CG 166.6 CD 172.8 NE 187.69 CZ 188.74 NH1 189.73 NH2 180.06
D VAL - 49 -154.2 360.0 N 157.07 CA 151.62 C 153.24 O 134.09 CB 141.64 CG1 137.15 CG2 138.13
D ALA - 110 360.0 52.8 N 134.79 CA 136.33 C 144.65 O 145.77 CB 126.98
D GLY - 40 -124.3 -27.7 N 148.23 CA 145.93 C 144.87 O 139.1
D ARG T 119 -69.8 84.8 N 150.3 CA 155.88 C 151.62 O 148.33 CB 162.75 CG 164.31 CD 166.7 NE 168.73 CZ 167.13 NH1 166.87 NH2 165.52
D GLU T 78 -135.3 -59.1 N 145.76 CA 144.34 C 139.85 O 137.77 CB 148.92 CG 156.68 CD 160.66 OE1 154.7 OE2 162.34
D PRO H 29 -70.2 -36.5 N 136.62 CA 131.77 C 125.78 O 117.78 CB 136.64 CG 134.19 CD 136.17
D ARG H 49 -55.2 -6.7 N 128.42 CA 130.69 C 124.9 O 122.77 CB 138.34 CG 144.05 CD 146.52 NE 149.2 CZ 145.52 NH1 148.65 NH2 139.58
D ARG H 12 -109.3 -56.9 N 119.82 CA 115.81 C 101.95 O 99.62 CB 121.79 CG 125.37 CD 127.06 NE 132.47 CZ 135.83 NH1 129.48 NH2 138.18
D LEU H 19 -49.0 -59.6 N 93.43 CA 91.15 C 90.14 O 89.67 CB 89.22 CG 88.8 CD1 87.29 CD2 92.81
D ALA H 0 -32.8 -59.4 N 92.75 CA 90.43 C 93.22 O 92.46 CB 93.15
D GLU H 32 -60.1 -42.4 N 97.42 CA 99.51 C 94.63 O 98.05 CB 108.58 CG 117.91 CD 122.62 OE1 125.65 OE2 123.59
D MET H 13 -70.7 -39.1 N 91.37 CA 93.65 C 89.97 O 92.46 CB 98.59 CG 102.25 SD 110.68 CE 111.4
D TRP H 0 -53.9 -43.5 N 84.0 CA 79.82 C 81.04 O 82.6 CB 76.99 CG 73.59 CD1 73.54 CD2 73.3 NE1 72.86 CE2 72.92 CE3 74.69 CZ2 74.96 CZ3 74.68 CH2 76.4
D TYR H 52 -48.5 -47.7 N 80.67 CA 79.54 C 76.13 O 73.92 CB 80.88 CG 83.27 CD1 85.21 CD2 84.15 CE1 86.77 CE2 85.61 CZ 86.73 OH 88.52
D ILE H 22 -64.4 -37.0 N 73.2 CA 77.97 C 79.26 O 81.92 CB 80.26 CG1 82.32 CG2 78.92 CD1 84.55
D LEU H 17 -65.6 -49.1 N 78.81 CA 74.87 C 75.9 O 80.61 CB 70.34 CG 68.56 CD1 68.5 CD2 67.97
D ILE H 0 -54.2 -48.2 N 75.28 CA 74.98 C 75.43 O 71.41 CB 74.19 CG1 69.99 CG2 75.37 CD1 67.36
D ARG H 75 -57.4 -25.2 N 77.57 CA 83.15 C 81.05 O 81.12 CB 88.8 CG 91.64 CD 98.11 NE 107.63 CZ 108.41 NH1 107.0 NH2 105.67
D GLY H 17 -114.6 -17.5 N 77.68 CA 77.13 C 75.14 O 75.61
D MET H 7 -98.4 -51.4 N 73.71 CA 72.77 C 72.06 O 68.35 CB 74.37 CG 75.79 SD 78.48 CE 75.01
D VAL S 0 -82.5 154.5 N 70.65 CA 66.52 C 67.08 O 70.67 CB 64.41 CG1 63.01 CG2 65.65
D PRO - 21 -52.9 162.2 N 64.35 CA 66.65 C 70.01 O 72.51 CB 65.33 CG 63.87 CD 64.04
D VAL T 105 -72.5 -38.1 N 69.08 CA 65.35 C 63.67 O 63.63 CB 64.35 CG1 64.42 CG2 64.03
D THR T 106 -74.5 -61.4 N 63.44 CA 63.79 C 64.6 O 67.97 CB 61.43 OG1 61.46 CG2 61.45
D ARG T 101 -56.1 -14.1 N 64.3 CA 64.73 C 61.65 O 62.29 CB 67.36 CG 74.09 CD 78.17 NE 81.24 CZ 81.82 NH1 76.48 NH2 81.94
D ARG H 66 -55.2 -38.9 N 59.86 CA 59.98 C 60.45 O 61.08 CB 61.53 CG 61.71 CD 61.15 NE 60.83 CZ 62.15 NH1 62.0 NH2 62.13
D ALA H 65 -61.8 -55.6 N 61.8 CA 62.08 C 61.94 O 60.67 CB 64.95
D ARG H 59 -43.4 -52.0 N 63.14 CA 66.01 C 68.18 O 70.45 CB 61.78
D TYR H 17 -68.4 -22.2 N 67.38 CA 66.42 C 70.01 O 72.71 CB 61.0 CG 57.8 CD1 57.52 CD2 57.7 CE1 57.54 CE2 56.92 CZ 56.68 OH 57.98
D VAL H 48 -79.9 -55.7 N 72.89 CA 74.55 C 76.93 O 75.56 CB 70.66 CG1 71.08 CG2 67.89
D THR H 93 -55.6 -23.9 N 82.59 CA 87.21 C 87.15 O 89.63 CB 89.51 OG1 91.83 CG2 93.62
D LEU H 11 -67.7 -47.8 N 85.54 CA 84.57 C 82.36 O 79.38 CB 83.21 CG 80.22 CD1 82.25 CD2 76.21
D ALA H 0 -67.1 -41.7 N 82.24 CA 83.31 C 88.31 O 93.47 CB 82.97
D ALA H 37 -50.0 -46.4 N 87.1 CA 88.75 C 93.33 O 92.86 CB 87.53
D ARG H 148 -73.6 -37.3 N 95.23 CA 94.75 C 95.01 O 104.16 CB 92.3 CG 96.95 CD 104.2 NE 108.28 CZ 112.14 NH1 111.28 NH2 111.39
D LEU H 8 -71.8 -25.4 N 93.26 CA 91.92 C 99.82 O 105.75 CB 81.36 CG 76.14 CD1 71.94 CD2 71.2
D GLU H 31 -62.5 -29.8 N 103.62 CA 110.58 C 114.63 O 114.97 CB 114.67 CG 121.62 CD 128.4 OE1 124.36 OE2 129.39
D GLN T 133 -82.6 10.2 N 120.77 CA 128.56 C 129.35 O 133.52 CB 129.96 CG 132.31 CD 133.62 OE1 130.62 NE2 129.98
D GLU - 121 -88.9 85.1 N 128.91 CA 131.97 C 133.56 O 119.2 CB 131.18 CG 131.97 CD 136.47 OE1 136.06 OE2 133.53
D THR - 164 -140.5 360.0 N 138.92 CA 142.61 C 148.64 O 150.04 CB 140.57 OG1 136.34 CG2 135.22
