A GLY - 116 360.0 159.0 N 35.78 CA 29.6 C 22.93 O 21.43 H1 42.94 H2 42.94 H3 42.94 HA2 35.53 HA3 35.53
A ALA - 117 -65.8 -29.4 N 19.88 CA 20.25 C 18.36 O 20.08 CB 22.37 H 23.86 HA 24.3 HB1 26.85 HB2 26.85 HB3 26.85
A MET S 142 -89.7 -18.9 N 13.39 CA 10.78 C 10.59 O 10.87 CB 10.46 CG 10.52 SD 12.43 CE 10.83 H 16.06 HA 12.93 HB2 12.55 HB3 12.55 HG2 12.63 HG3 12.63 HE1 13.0 HE2 13.0 HE3 13.0
A GLY - 53 59.0 46.4 N 10.51 CA 10.56 C 10.67 O 11.44 H 12.61 HA2 12.67 HA3 12.67
A PHE - 168 -61.5 -29.6 N 11.32 CA 11.27 C 11.64 O 11.58 CB 10.95 CG 11.17 CD1 12.75 CD2 10.51 CE1 13.56 CE2 11.4 CZ 12.86 H 13.59 HA 13.52 HB2 13.14 HB3 13.14 HD1 15.3 HD2 12.61 HE1 16.28 HE2 13.69 HZ 15.44
A GLU S 107 -65.7 152.4 N 11.83 CA 15.05 C 14.48 O 15.26 CB 20.96 CG 26.77 CD 29.97 OE1 30.26 OE2 31.18 H 14.2 HA 18.07 HB2 25.16 HB3 25.16 HG2 32.12 HG3 32.12
A ILE - 19 -66.5 135.7 N 14.17 CA 17.23 C 16.68 O 16.96 CB 21.78 CG1 23.94 CG2 24.24 CD1 25.63 H 17.0 HA 20.68 HB 26.14 HG12 28.73 HG13 28.73 HG21 29.09 HG22 29.09 HG23 29.09 HD11 30.75 HD12 30.75 HD13 30.75
A PRO - 88 -59.9 146.7 N 15.73 CA 15.37 C 15.43 O 15.58 CB 15.93 CG 16.36 CD 16.13 HA 18.44 HB2 19.12 HB3 19.12 HG2 19.64 HG3 19.64 HD2 19.35 HD3 19.35
A ASP T 118 -58.2 -20.8 N 16.44 CA 19.18 C 19.38 O 19.35 CB 24.11 CG 29.59 OD1 29.47 OD2 34.02 H 19.73 HA 23.02 HB2 28.93 HB3 28.93
A ASP T 160 -69.4 -15.3 N 19.33 CA 23.0 C 19.14 O 21.25 CB 33.14 CG 44.53 OD1 48.92 OD2 49.24 H 23.19 HA 27.6 HB2 39.77 HB3 39.77
A VAL S 64 -90.1 114.6 N 14.67 CA 12.38 C 12.11 O 11.89 CB 12.26 CG1 12.12 CG2 13.42 H 17.61 HA 14.86 HB 14.71 HG11 14.55 HG12 14.55 HG13 14.55 HG21 16.11 HG22 16.11 HG23 16.11
A PRO - 106 -69.3 150.6 N 13.84 CA 13.56 C 12.59 O 12.39 CB 16.31 CG 18.6 CD 17.3 HA 16.27 HB2 19.57 HB3 19.57 HG2 22.32 HG3 22.32 HD2 20.77 HD3 20.77
A LEU - 39 -62.9 159.9 N 14.11 CA 13.76 C 13.43 O 14.31 CB 13.54 CG 13.81 CD1 14.0 CD2 14.06 H 16.93 HA 16.51 HB2 16.25 HB3 16.25 HG 16.57 HD11 16.8 HD12 16.8 HD13 16.8 HD21 16.88 HD22 16.88 HD23 16.88
A PRO - 55 -58.5 155.7 N 11.39 CA 11.42 C 11.13 O 10.49 CB 12.45 CG 12.36 CD 11.34 HA 13.7 HB2 14.94 HB3 14.94 HG2 14.83 HG3 14.83 HD2 13.61 HD3 13.61
A ALA T 102 -55.2 136.8 N 11.11 CA 11.04 C 10.63 O 10.47 CB 11.63 H 13.34 HA 13.25 HB1 13.96 HB2 13.96 HB3 13.96
A GLY T 46 85.7 3.0 N 8.48 CA 9.02 C 9.71 O 10.56 H 10.18 HA2 10.83 HA3 10.83
A TRP E 58 -108.9 149.7 N 8.4 CA 8.17 C 9.5 O 10.77 CB 7.55 CG 7.52 CD1 7.27 CD2 8.76 NE1 7.39 CE2 8.04 CE3 11.12 CZ2 8.99 CZ3 11.93 CH2 10.74 H 10.08 HA 9.8 HB2 9.07 HB3 9.07 HD1 8.72 HE1 8.87 HE3 13.35 HZ2 10.79 HZ3 14.32 HH2 12.89
A GLU E 105 -133.9 158.1 N 8.73 CA 9.7 C 9.39 O 8.75 CB 11.63 CG 14.38 CD 17.46 OE1 18.47 OE2 18.61 H 10.48 HA 11.64 HB2 13.96 HB3 13.96 HG2 17.26 HG3 17.26
A MET E 69 -107.1 148.2 N 9.37 CA 11.04 C 12.06 O 13.1 CB 11.58 CG 12.43 SD 21.24 CE 20.28 H 11.25 HA 13.24 HB2 13.9 HB3 13.9 HG2 14.92 HG3 14.92 HE1 24.33 HE2 24.33 HE3 24.33
A ALA E 27 -137.4 167.3 N 11.24 CA 11.53 C 11.76 O 11.82 CB 11.92 H 13.49 HA 13.84 HB1 14.31 HB2 14.31 HB3 14.31
A LYS E 127 -129.2 144.5 N 11.5 CA 13.24 C 13.47 O 13.03 CB 17.21 CG 23.97 CD 30.75 CE 44.73 NZ 47.21 H 13.79 HA 15.89 HB2 20.65 HB3 20.65 HG2 28.76 HG3 28.76 HD2 36.91 HD3 36.91 HE2 53.68 HE3 53.68 HZ1 56.65 HZ2 56.65 HZ3 56.65
A THR - 42 -72.2 173.5 N 14.2 CA 15.73 C 17.48 O 16.96 CB 15.6 OG1 15.91 CG2 14.93 H 17.04 HA 18.88 HB 18.72 HG1 19.1 HG21 17.91 HG22 17.91 HG23 17.91
A SER T 139 -63.8 -25.6 N 18.76 CA 21.62 C 22.08 O 23.58 CB 25.24 OG 28.41 H 22.51 HA 25.94 HB2 30.29 HB3 30.29 HG 34.1
A SER T 98 -88.3 6.8 N 21.06 CA 22.77 C 23.21 O 26.55 CB 23.98 OG 24.05 H 25.27 HA 27.33 HB2 28.78 HB3 28.78 HG 28.86
A GLY S 43 88.4 8.4 N 20.07 CA 17.52 C 16.22 O 17.88 H 24.09 HA2 21.02 HA3 21.02
A GLN - 119 -80.6 129.3 N 14.49 CA 13.7 C 11.53 O 11.13 CB 17.42 CG 24.22 CD 30.8 OE1 31.07 NE2 35.36 H 17.39 HA 16.45 HB2 20.91 HB3 20.91 HG2 29.07 HG3 29.07 HE21 42.43 HE22 42.43
A ARG E 32 -77.8 143.5 N 11.26 CA 10.34 C 10.41 O 10.98 CB 9.51 CG 9.73 CD 12.66 NE 17.83 CZ 22.89 NH1 23.02 NH2 26.2 H 13.51 HA 12.41 HB2 11.41 HB3 11.41 HG2 11.68 HG3 11.68 HD2 15.19 HD3 15.19 HE 21.4 HH11 27.62 HH12 27.62 HH21 31.44 HH22 31.44
A TYR E 72 -145.9 168.1 N 9.62 CA 9.49 C 8.34 O 8.17 CB 10.55 CG 10.62 CD1 11.52 CD2 10.32 CE1 12.74 CE2 11.43 CZ 13.18 OH 14.84 H 11.55 HA 11.39 HB2 12.66 HB3 12.66 HD1 13.82 HD2 12.39 HE1 15.29 HE2 13.72 HH 17.8
A PHE E 5 -134.5 134.9 N 8.37 CA 8.37 C 8.55 O 8.95 CB 8.92 CG 9.19 CD1 8.38 CD2 9.49 CE1 7.45 CE2 8.59 CZ 7.57 H 10.05 HA 10.04 HB2 10.71 HB3 10.71 HD1 10.06 HD2 11.38 HE1 8.94 HE2 10.31 HZ 9.08
A LEU E 59 -111.4 127.5 N 9.48 CA 11.91 C 9.04 O 8.33 CB 18.8 CG 28.04 CD1 29.37 CD2 34.74 H 11.38 HA 14.29 HB2 22.56 HB3 22.56 HG 33.64 HD11 35.25 HD12 35.25 HD13 35.25 HD21 41.69 HD22 41.69 HD23 41.69
A ASN E 17 -104.0 102.7 N 7.6 CA 8.29 C 8.7 O 10.24 CB 10.46 CG 12.8 OD1 13.07 ND2 14.76 H 9.12 HA 9.94 HB2 12.55 HB3 12.55 HD21 17.71 HD22 17.71
A HIS T 81 -60.3 -49.4 N 8.37 CA 9.09 C 9.85 O 10.05 CB 9.64 CG 10.48 ND1 11.31 CD2 10.49 CE1 11.36 NE2 10.96 H 10.05 HA 10.91 HB2 11.57 HB3 11.57 HD2 12.58 HE1 13.63
A ILE T 150 -71.5 -28.1 N 9.2 CA 10.39 C 10.42 O 12.08 CB 12.03 CG1 14.36 CG2 12.45 CD1 15.87 H 11.04 HA 12.46 HB 14.43 HG12 17.23 HG13 17.23 HG21 14.94 HG22 14.94 HG23 14.94 HD11 19.04 HD12 19.04 HD13 19.04
A ASP T 107 -96.3 -4.3 N 8.74 CA 9.78 C 9.83 O 11.38 CB 11.44 CG 13.82 OD1 16.32 OD2 13.38 H 10.48 HA 11.73 HB2 13.72 HB3 13.72
A GLN T 161 58.9 31.4 N 8.79 CA 8.92 C 10.19 O 11.83 CB 10.0 CG 11.31 CD 12.87 OE1 14.84 NE2 11.97 H 10.54 HA 10.71 HB2 12.0 HB3 12.0 HG2 13.58 HG3 13.58 HE21 14.36 HE22 14.36
A THR E 70 -103.3 150.5 N 10.7 CA 12.26 C 11.19 O 10.71 CB 14.91 OG1 15.35 CG2 16.98 H 12.83 HA 14.71 HB 17.89 HG1 18.42 HG21 20.37 HG22 20.37 HG23 20.37
A THR E 92 -130.9 148.0 N 11.57 CA 12.52 C 10.58 O 10.53 CB 17.6 OG1 19.09 CG2 19.52 H 13.89 HA 15.02 HB 21.11 HG1 22.9 HG21 23.43 HG22 23.43 HG23 23.43
A THR E 45 -151.8 151.7 N 9.15 CA 7.85 C 7.52 O 6.95 CB 9.45 OG1 9.75 CG2 9.01 H 10.98 HA 9.43 HB 11.34 HG1 11.69 HG21 10.81 HG22 10.81 HG23 10.81
A TRP S 164 -81.1 -17.9 N 7.83 CA 7.7 C 7.44 O 7.21 CB 8.3 CG 8.77 CD1 9.89 CD2 8.6 NE1 10.49 CE2 9.92 CE3 8.24 CZ2 10.85 CZ3 9.57 CH2 10.71 H 9.4 HA 9.25 HB2 9.96 HB3 9.96 HD1 11.87 HE1 12.59 HE3 9.89 HZ2 13.02 HZ3 11.49 HH2 12.85
A GLN S 142 -85.3 128.4 N 9.04 CA 9.95 C 10.08 O 10.15 CB 11.79 CG 14.97 CD 17.88 OE1 19.36 NE2 18.39 H 10.84 HA 11.94 HB2 14.15 HB3 14.15 HG2 17.97 HG3 17.97 HE21 22.07 HE22 22.07
A ASP - 19 -69.9 116.0 N 11.8 CA 10.81 C 10.88 O 12.42 CB 10.38 CG 11.11 OD1 10.4 OD2 13.0 H 14.16 HA 12.98 HB2 12.46 HB3 12.46
A PRO G 23 -67.5 -18.7 N 11.86 CA 11.78 C 12.61 O 14.33 CB 11.17 CG 10.99 CD 11.12 HA 14.13 HB2 13.41 HB3 13.41 HG2 13.19 HG3 13.19 HD2 13.35 HD3 13.35
A ARG G 18 -64.3 -24.1 N 11.66 CA 12.16 C 13.02 O 13.76 CB 12.07 CG 11.55 CD 11.62 NE 11.81 CZ 15.25 NH1 16.17 NH2 17.93 H 13.99 HA 14.59 HB2 14.49 HB3 14.49 HG2 13.86 HG3 13.86 HD2 13.95 HD3 13.95 HE 14.17 HH11 19.41 HH12 19.41 HH21 21.51 HH22 21.51
A LYS G 98 -65.2 -23.3 N 13.28 CA 16.5 C 17.93 O 19.33 CB 20.23 CG 25.58 CD 31.37 CE 37.73 NZ 43.11 H 15.94 HA 19.8 HB2 24.28 HB3 24.28 HG2 30.7 HG3 30.7 HD2 37.65 HD3 37.65 HE2 45.27 HE3 45.27 HZ1 51.73 HZ2 51.73 HZ3 51.73
A ALA G 83 -60.0 -20.0 N 18.55 CA 21.09 C 22.14 O 25.32 CB 22.61 H 22.26 HA 25.31 HB1 27.13 HB2 27.13 HB3 27.13
A MET G 169 -101.3 -2.0 N 20.06 CA 21.75 C 20.67 O 21.98 CB 25.18 CG 27.04 SD 29.18 CE 38.65 H 24.07 HA 26.1 HB2 30.22 HB3 30.22 HG2 32.44 HG3 32.44 HE1 46.38 HE2 46.38 HE3 46.38
A LEU - 114 -67.1 147.9 N 17.07 CA 18.07 C 21.25 O 21.13 CB 17.76 CG 17.8 CD1 18.61 CD2 17.55 H 20.48 HA 21.68 HB2 21.31 HB3 21.31 HG 21.36 HD11 22.33 HD12 22.33 HD13 22.33 HD21 21.06 HD22 21.06 HD23 21.06
A SER - 174 -76.7 360.0 N 26.21 CA 35.43 C 44.19 O 51.1 CB 38.23 OG 41.11 H 31.45 HA 42.51 HB2 45.88 HB3 45.88 HG 49.33
