A GLN - 41 360.0 -54.5 N 168.09 CA 166.72 C 164.94 O 168.45 CB 158.81
A GLU T 140 -53.9 -43.6 N 156.9 CA 143.93 C 132.51 O 118.94 CB 145.69 CG 150.7 CD 150.15 OE1 151.95 OE2 142.79
A PRO T 33 -78.6 -21.9 N 123.83 CA 114.47 C 106.69 O 104.72 CB 113.86 CG 117.1 CD 122.38
A VAL H 8 -68.2 -59.4 N 99.19 CA 91.99 C 90.89 O 87.07 CB 89.2 CG1 89.47 CG2 92.08
A GLN H 66 -72.1 -11.0 N 94.02 CA 96.01 C 91.23 O 85.47 CB 102.18 CG 105.04 CD 114.52 OE1 109.13 NE2 128.58
A ALA H 51 -65.5 -52.4 N 89.19 CA 85.53 C 83.07 O 80.56 CB 85.21
A ALA H 6 -57.4 -41.2 N 81.2 CA 79.81 C 82.17 O 90.84 CB 78.71
A ILE H 0 -58.9 -57.8 N 78.85 CA 73.32 C 71.9 O 74.58 CB 72.06 CG1 71.31 CG2 71.07 CD1 71.06
A TRP H 78 -59.9 -34.9 N 72.69 CA 77.25 C 82.28 O 84.69 CB 76.94 CG 73.48 CD1 73.11 CD2 77.02 NE1 76.68 CE2 77.11 CE3 81.52 CZ2 78.87 CZ3 81.33 CH2 82.52
A GLN H 58 -62.2 -43.7 N 86.03 CA 90.27 C 83.48 O 87.7 CB 98.39 CG 102.02 CD 110.54 OE1 112.32 NE2 117.62
A ALA H 0 -62.5 -44.7 N 77.34 CA 79.24 C 76.77 O 76.96 CB 79.67
A LEU H 2 -60.0 -44.6 N 74.43 CA 72.66 C 74.9 O 76.13 CB 69.95 CG 69.06 CD1 69.81 CD2 66.93
A ASN H 59 -71.3 -16.8 N 77.2 CA 80.56 C 85.47 O 90.36 CB 78.52 CG 78.28 OD1 77.72 ND2 78.88
A HIS T 29 -98.0 -1.8 N 81.14 CA 78.66 C 74.6 O 70.03 CB 81.84 CG 85.49 ND1 88.71 CD2 88.7 CE1 90.61 NE2 90.19
A TYR T 12 72.8 22.4 N 72.11 CA 71.37 C 69.67 O 73.63 CB 70.87 CG 71.56 CD1 72.94 CD2 76.93 CE1 75.8 CE2 80.93 CZ 81.4 OH 87.73
A ALA - 17 -82.4 75.2 N 68.34 CA 72.95 C 77.02 O 83.44 CB 75.23
A TYR H 60 -67.8 -40.1 N 75.58 CA 73.68 C 73.67 O 71.87 CB 73.67 CG 73.67 CD1 75.19 CD2 73.24 CE1 75.04 CE2 70.37 CZ 72.42 OH 74.44
A ARG H 121 -59.4 -37.8 N 76.86 CA 80.44 C 81.66 O 82.71 CB 86.3 CG 91.42 CD 95.04 NE 94.98 CZ 102.18 NH1 105.89 NH2 102.72
A ASP H 4 -74.8 -39.5 N 85.13 CA 85.35 C 80.67 O 74.8 CB 86.91 CG 88.23 OD1 81.48 OD2 90.81
A ALA H 0 -65.4 -50.9 N 78.15 CA 76.05 C 77.61 O 80.27 CB 74.37
A VAL H 19 -58.3 -37.2 N 78.27 CA 75.26 C 75.06 O 76.3 CB 74.0 CG1 75.94 CG2 75.81
A PHE H 10 -63.6 -53.7 N 70.43 CA 71.14 C 74.61 O 77.77 CB 71.5 CG 69.61 CD1 70.57 CD2 73.29 CE1 73.5 CE2 75.39 CZ 75.41
A LEU H 3 -58.2 -48.7 N 77.26 CA 77.01 C 77.86 O 76.39 CB 77.3 CG 78.14 CD1 79.62 CD2 76.55
A ALA H 1 -52.2 -47.0 N 77.61 CA 78.98 C 75.12 O 69.57 CB 80.74
A GLU H 13 -59.3 -34.6 N 75.0 CA 80.76 C 78.11 O 79.61 CB 87.23 CG 92.07 CD 95.16 OE1 92.48 OE2 96.39
A ARG H 11 -81.2 -35.4 N 73.94 CA 71.6 C 72.29 O 71.59 CB 71.34 CG 74.8 CD 77.05 NE 81.38 CZ 77.78 NH1 73.28 NH2 78.88
A LEU H 14 -65.9 -47.9 N 75.14 CA 76.91 C 78.3 O 78.6 CB 78.24 CG 80.2 CD1 80.44 CD2 83.81
A TYR H 24 -64.2 -34.8 N 80.03 CA 82.08 C 79.16 O 83.87 CB 85.59 CG 87.57 CD1 88.51 CD2 89.63 CE1 89.2 CE2 90.92 CZ 86.65 OH 88.97
A ALA H 8 -69.0 -34.1 N 77.62 CA 77.65 C 78.46 O 84.98 CB 78.24
A GLU H 100 -73.3 -67.8 N 80.21 CA 86.24 C 88.01 O 93.67 CB 92.0 CG 96.42 CD 99.33 OE1 98.65 OE2 106.36
A VAL S 69 -103.4 124.8 N 86.85 CA 88.91 C 93.36 O 107.84 CB 92.45 CG1 91.14 CG2 99.1
A HIS - 126 -85.9 32.2 N 91.73 CA 93.81 C 88.02 O 93.26 CB 104.27 CG 119.0 ND1 125.63 CD2 124.93 CE1 128.92 NE2 133.17
A SER - 32 -68.0 163.7 N 81.79 CA 80.82 C 78.97 O 76.69 CB 82.79 OG 80.3
A GLU H 87 -73.5 -25.5 N 85.42 CA 87.85 C 84.88 O 85.85 CB 95.29 CG 103.81 CD 104.75 OE1 101.93 OE2 104.78
A GLU H 134 -78.9 -32.5 N 84.98 CA 90.04 C 85.44 O 80.71 CB 96.2 CG 102.14 CD 109.02 OE1 116.49 OE2 111.04
A ALA H 5 -74.0 -39.9 N 84.33 CA 86.29 C 84.1 O 87.19 CB 89.62
A LEU H 5 -59.1 -51.4 N 79.88 CA 77.46 C 77.14 O 79.07 CB 76.06 CG 79.0 CD1 83.3 CD2 80.06
A PHE H 52 -56.2 -48.5 N 74.67 CA 74.42 C 75.92 O 79.08 CB 75.41 CG 77.16 CD1 78.45 CD2 75.63 CE1 78.23 CE2 76.26 CZ 77.54
A LEU H 9 -57.2 -38.9 N 74.96 CA 73.61 C 75.9 O 74.54 CB 73.44 CG 73.63 CD1 74.61 CD2 74.66
A LEU H 4 -63.8 -54.9 N 75.93 CA 71.49 C 68.76 O 71.36 CB 71.59 CG 70.55 CD1 70.01 CD2 72.32
A ALA H 0 -54.6 -43.4 N 67.81 CA 68.68 C 68.69 O 68.47 CB 70.55
A THR H 0 -53.6 -47.6 N 70.17 CA 73.25 C 73.29 O 71.8 CB 72.77 OG1 73.87 CG2 71.62
A CYS H 0 -64.0 -43.9 N 72.6 CA 71.76 C 70.01 O 70.39 CB 73.17 SG 76.92
A TYR H 1 -59.3 -39.5 N 68.21 CA 67.92 C 68.8 O 70.79 CB 67.83 CG 66.5 CD1 65.88 CD2 66.41 CE1 66.61 CE2 70.0 CZ 68.73 OH 66.3
A TYR H 26 -69.3 -43.4 N 67.56 CA 67.29 C 66.32 O 70.48 CB 68.79 CG 69.99 CD1 70.45 CD2 70.99 CE1 72.18 CE2 74.01 CZ 72.46 OH 73.55
A ARG H 29 -75.6 -27.4 N 67.8 CA 72.47 C 77.76 O 81.64 CB 75.33 CG 79.14 CD 79.06 NE 78.72 CZ 81.59 NH1 82.26 NH2 86.68
A SER T 37 -68.2 1.3 N 82.15 CA 80.26 C 77.32 O 79.34 CB 79.25 OG 80.45
A GLY T 64 93.3 13.0 N 76.02 CA 77.87 C 75.2 O 70.35
A LYS - 59 -126.0 77.4 N 74.49 CA 75.17 C 78.25 O 73.04 CB 76.08 CG 80.36 CD 86.92 CE 94.37 NZ 96.54
A ALA H 19 -52.4 -44.0 N 82.74 CA 81.94 C 82.28 O 86.83 CB 83.77
A TYR H 23 -55.3 -34.7 N 83.03 CA 80.08 C 75.85 O 74.23 CB 81.74 CG 79.2 CD1 76.42 CD2 78.46 CE1 78.93 CE2 79.41 CZ 80.32 OH 82.67
A LYS H 17 -64.8 -51.4 N 74.47 CA 74.37 C 70.89 O 66.92 CB 76.69 CG 78.89 CD 80.85 CE 86.54 NZ 94.59
A ALA H 0 -56.2 -45.7 N 68.02 CA 67.98 C 69.44 O 68.02 CB 68.42
A TYR H 23 -54.2 -51.8 N 70.29 CA 71.66 C 69.72 O 67.19 CB 73.85 CG 75.32 CD1 75.19 CD2 75.37 CE1 75.15 CE2 75.4 CZ 73.83 OH 74.61
A ARG H 67 -68.5 -43.6 N 72.3 CA 73.31 C 73.42 O 77.78 CB 73.18 CG 76.72 CD 76.28 NE 73.49 CZ 76.26 NH1 80.76 NH2 81.78
A LEU H 2 -57.0 -54.8 N 71.37 CA 70.34 C 71.84 O 69.5 CB 69.04 CG 67.68 CD1 67.41 CD2 68.34
A LEU H 5 -65.1 -43.1 N 75.61 CA 74.93 C 74.29 O 76.89 CB 71.94 CG 69.3 CD1 69.32 CD2 66.8
A LYS H 106 -59.9 -43.1 N 76.9 CA 82.29 C 84.53 O 95.28 CB 86.98 CG 90.72 CD 91.35 CE 97.18 NZ 103.51
A GLY H 61 -71.7 -31.1 N 84.59 CA 88.58 C 90.58 O 95.16
A HIS S 71 -115.0 94.9 N 99.56 CA 103.58 C 104.3 O 113.55 CB 106.05 CG 114.71 ND1 117.85 CD2 127.35 CE1 123.39 NE2 130.07
A SER - 117 -64.0 114.9 N 105.63 CA 114.9 C 109.52 O 101.11 CB 124.86 OG 134.22
A CYS - 20 -117.2 145.7 N 108.37 CA 107.39 C 109.62 O 111.84 CB 108.29 SG 106.43
A THR - 102 -114.7 3.2 N 106.87 CA 101.32 C 96.48 O 98.58 CB 100.46 OG1 100.6 CG2 100.35
A THR S 17 -73.4 148.4 N 89.76 CA 89.81 C 89.88 O 86.63 CB 90.8 OG1 92.97 CG2 94.32
A PRO H 36 -52.8 -38.8 N 89.19 CA 86.99 C 87.74 O 92.39 CB 88.25 CG 89.31 CD 90.96
A GLN H 96 -66.3 -40.9 N 89.48 CA 93.69 C 88.78 O 88.15 CB 98.34 CG 103.4 CD 106.63 OE1 108.5 NE2 106.57
A CYS H 3 -68.8 -44.3 N 83.43 CA 81.51 C 75.46 O 72.77 CB 85.11 SG 88.09
A LYS H 30 -61.4 -40.1 N 72.52 CA 73.13 C 72.5 O 70.2 CB 74.44 CG 78.72 CD 79.11 CE 84.3 NZ 89.56
A TYR H 17 -63.8 -48.0 N 70.19 CA 69.91 C 67.64 O 65.22 CB 72.93 CG 74.94 CD1 73.39 CD2 76.5 CE1 72.6 CE2 74.12 CZ 71.39 OH 74.37
A LEU H 2 -64.5 -46.4 N 69.0 CA 69.29 C 68.98 O 66.8 CB 67.58 CG 68.05 CD1 67.5 CD2 69.18
A LEU H 24 -59.7 -43.7 N 69.27 CA 74.24 C 76.8 O 74.76 CB 75.02 CG 74.0 CD1 73.78 CD2 73.94
A ALA H 0 -59.9 -40.4 N 80.73 CA 79.48 C 79.67 O 78.37 CB 76.63
A LYS H 32 -66.9 -37.0 N 80.82 CA 81.08 C 81.35 O 78.13 CB 81.8 CG 86.89 CD 94.32 CE 98.07 NZ 98.96
A CYS H 0 -66.5 -38.4 N 80.61 CA 78.02 C 79.21 O 81.96 CB 74.61 SG 69.06
A CYS H 0 -60.1 -52.3 N 77.02 CA 75.47 C 77.8 O 81.57 CB 75.28 SG 80.8
A VAL H 20 -56.5 -46.8 N 77.28 CA 75.94 C 74.35 O 72.26 CB 75.01 CG1 73.99 CG2 76.0
A ASP H 77 -56.6 -38.6 N 76.62 CA 79.24 C 77.49 O 75.07 CB 81.81 CG 81.73 OD1 82.56 OD2 82.24
A LEU T 65 -88.8 8.4 N 79.16 CA 81.98 C 84.61 O 83.03 CB 79.55 CG 77.38 CD1 77.2 CD2 78.15
A SER T 102 64.9 24.5 N 90.52 CA 90.02 C 86.14 O 92.98 CB 91.32 OG 91.54
A LYS - 83 -91.8 59.4 N 81.6 CA 82.56 C 82.79 O 85.17 CB 82.5 CG 82.49 CD 83.51 CE 83.88 NZ 85.98
A LEU H 44 -60.9 -49.2 N 78.85 CA 75.39 C 74.01 O 74.2 CB 74.28 CG 75.48 CD1 76.66 CD2 75.31
A ALA H 59 -57.7 -39.6 N 76.87 CA 80.01 C 82.29 O 85.39 CB 81.37
A GLU H 35 -66.6 -52.2 N 81.2 CA 80.63 C 79.87 O 84.2 CB 84.12 CG 82.33 CD 81.84 OE1 83.61 OE2 79.72
A GLY H 1 -49.7 -41.0 N 80.44 CA 77.19 C 79.11 O 77.97
A GLU H 35 -59.8 -56.4 N 82.3 CA 86.46 C 87.57 O 91.98 CB 89.59 CG 92.54 CD 93.36 OE1 89.79 OE2 93.64
A GLN H 95 -53.6 -39.0 N 84.09 CA 83.95 C 78.99 O 77.99 CB 92.15 CG 101.84 CD 111.38 OE1 116.37 NE2 114.31
A ILE H 25 -60.2 -47.4 N 77.19 CA 77.87 C 79.97 O 76.93 CB 77.8 CG1 78.88 CG2 78.31 CD1 81.0
A LEU H 1 -83.7 -54.9 N 83.39 CA 82.14 C 82.0 O 79.17 CB 83.18 CG 84.07 CD1 83.79 CD2 87.96
A SER H 2 -66.5 -39.4 N 85.31 CA 87.52 C 82.23 O 77.23 CB 91.36 OG 98.74
A GLY - 8 85.0 -167.4 N 79.44 CA 80.13 C 80.53 O 78.83
A GLY - 33 111.7 -17.9 N 80.55 CA 79.83 C 78.34 O 79.86
A VAL S 76 -84.3 -61.3 N 78.71 CA 77.17 C 79.56 O 81.45 CB 76.44 CG1 78.33 CG2 74.1
A PHE S 190 -105.4 -7.7 N 80.63 CA 78.73 C 80.81 O 77.44 CB 77.06 CG 77.4 CD1 83.73 CD2 76.69 CE1 87.13 CE2 78.96 CZ 82.71
A ASN S 105 -128.6 171.8 N 88.54 CA 92.24 C 92.79 O 92.42 CB 97.42 CG 103.64 OD1 108.13 ND2 113.42
A LYS - 81 -59.1 134.1 N 94.65 CA 93.21 C 94.55 O 100.8 CB 87.69
A GLN - 110 -57.9 130.7 N 94.96 CA 93.23 C 90.97 O 86.21 CB 96.75 CG 104.32 CD 110.11 OE1 111.66 NE2 114.96
A LYS - 43 -94.3 140.6 N 94.19 CA 92.83 C 91.85 O 83.46 CB 97.98 CG 106.04 CD 113.42 CE 122.6 NZ 129.57
A SER - 53 -78.1 152.2 N 95.96 CA 102.36 C 101.44 O 105.44 CB 107.9 OG 120.79
A HIS H 34 -52.2 -29.9 N 100.23 CA 97.02 C 97.11 O 93.36 CB 96.94 CG 98.38 ND1 99.83 CD2 103.18 CE1 103.63 NE2 104.47
A ASP H 99 -73.6 -38.8 N 101.72 CA 106.33 C 104.85 O 101.65 CB 112.77 CG 116.81 OD1 117.75 OD2 120.58
A ASP H 88 -62.4 -42.9 N 105.9 CA 106.51 C 98.5 O 97.51 CB 108.94 CG 110.73 OD1 116.74 OD2 107.75
A ILE H 2 -57.2 -50.1 N 89.74 CA 87.25 C 89.97 O 94.49 CB 84.68 CG1 85.58 CG2 84.6 CD1 85.49
A VAL H 37 -60.2 -37.3 N 87.54 CA 86.08 C 87.99 O 89.07 CB 84.05 CG1 82.5 CG2 82.96
A THR H 117 -65.2 -42.3 N 90.95 CA 94.38 C 97.53 O 96.5 CB 92.87 OG1 92.51 CG2 92.15
A GLU H 51 -70.1 -59.3 N 101.88 CA 104.41 C 104.21 O 107.18 CB 104.89 CG 108.42 CD 111.27 OE1 113.74 OE2 108.35
A PHE T 1 -94.9 40.6 N 102.5 CA 102.21 C 104.04 O 108.66 CB 99.51 CG 93.65 CD1 92.35 CD2 91.4 CE1 90.2 CE2 91.68 CZ 89.88
A GLY T 45 -51.1 133.5 N 103.02 CA 102.83 C 102.34 O 106.95
A ASP T 140 65.6 3.3 N 103.18 CA 101.23 C 97.06 O 105.14 CB 102.46 CG 102.67 OD1 103.27 OD2 104.53
A SER T 26 -125.2 -7.4 N 92.1 CA 89.2 C 86.87 O 79.1 CB 90.22 OG 89.62
A ALA H 3 -55.1 -43.2 N 90.49 CA 89.24 C 84.29 O 80.56 CB 93.46
A CYS H 6 -52.1 -38.0 N 80.7 CA 85.83 C 84.12 O 77.68 CB 89.32 SG 94.92
A PHE H 4 -81.5 -38.2 N 83.74 CA 80.01 C 78.55 O 78.15 CB 77.72 CG 76.08 CD1 77.78 CD2 74.66 CE1 75.35 CE2 77.03 CZ 74.78
A THR H 0 -72.5 -22.2 N 74.82 CA 79.03 C 83.43 O 89.91 CB 80.46 OG1 80.77 CG2 83.31
A LEU H 0 -78.8 -44.6 N 84.25 CA 84.21 C 86.36 O 84.49 CB 82.86 CG 83.96 CD1 82.79 CD2 84.58
A SER H 22 -51.7 -46.6 N 86.7 CA 87.32 C 87.86 O 87.84 CB 87.78 OG 97.59
A LEU H 13 -63.1 -52.6 N 84.3 CA 82.4 C 84.09 O 88.09 CB 81.99 CG 82.2 CD1 78.63 CD2 84.99
A LEU H 1 -54.2 -41.3 N 82.2 CA 82.12 C 86.36 O 84.74 CB 78.61 CG 77.0 CD1 79.18 CD2 75.62
A GLY H 0 -54.4 -49.3 N 89.43 CA 90.79 C 90.82 O 82.08
A HIS H 87 -58.4 -46.1 N 91.35 CA 94.01 C 93.62 O 92.1 CB 97.11 CG 100.91 ND1 102.33 CD2 101.72 CE1 101.73 NE2 102.07
A VAL H 1 -69.4 -43.9 N 93.41 CA 94.96 C 93.55 O 90.48 CB 96.28 CG1 97.38 CG2 97.76
A TYR H 7 -56.1 -42.6 N 91.84 CA 86.92 C 89.34 O 89.73 CB 83.76 CG 79.81 CD1 76.85 CD2 79.64 CE1 76.81 CE2 80.26 CZ 78.33 OH 78.25
A CYS H 40 -66.8 -47.9 N 93.58 CA 94.99 C 93.67 O 92.92 CB 96.46 SG 98.51
A LYS H 57 -70.9 -13.7 N 93.96 CA 91.69 C 91.86 O 87.3 CB 88.65
A THR T 38 -108.6 28.6 N 92.58 CA 91.76 C 94.85 O 90.24 CB 89.41 OG1 85.01 CG2 91.0
A ASP T 155 69.2 42.7 N 101.47 CA 103.85 C 97.53 O 94.1 CB 111.28 CG 117.54 OD1 117.05 OD2 124.72
A ARG - 76 -140.0 61.1 N 96.02 CA 97.22 C 99.59 O 98.57 CB 93.42 CG 94.41 CD 98.55 NE 97.8 CZ 99.95 NH1 99.75 NH2 105.79
A LEU H 50 -58.4 -28.2 N 98.59 CA 96.89 C 98.74 O 97.56 CB 84.36
A ALA H 83 -59.7 -57.3 N 100.48 CA 101.81 C 106.83 O 99.14 CB 102.43
A LYS H 90 -67.3 -38.7 N 114.45 CA 111.96 C 108.22 O 103.82 CB 115.03 CG 119.15 CD 120.34 CE 119.45 NZ 122.0
A GLY H 0 -64.3 -41.7 N 107.08 CA 107.75 C 106.03 O 104.08
A SER H 4 -61.3 -38.0 N 105.55 CA 102.73 C 100.75 O 102.28 CB 102.9 OG 107.27
A GLU H 117 -67.2 -31.7 N 99.81 CA 104.39 C 101.98 O 103.45 CB 112.62 CG 118.99 CD 124.11 OE1 126.06 OE2 128.5
A CYS H 0 -71.9 -50.9 N 98.84 CA 95.34 C 90.79 O 90.16 CB 98.86 SG 105.76
A TYR H 14 -51.2 -52.8 N 83.85 CA 83.37 C 90.96 O 93.43 CB 78.97 CG 74.91 CD1 72.67 CD2 78.49 CE1 72.23 CE2 79.33 CZ 75.62 OH 77.79
A GLN H 86 -52.4 -44.6 N 93.09 CA 93.67 C 91.53 O 86.91 CB 98.96 CG 109.44 CD 115.88 OE1 116.63 NE2 116.83
A LYS H 60 -66.5 -35.4 N 93.64 CA 95.33 C 97.49 O 100.14 CB 97.23 CG 102.38 CD 107.1 CE 111.61 NZ 116.0
A SER H 0 -57.6 -52.3 N 95.11 CA 93.94 C 95.81 O 90.86 CB 94.42 OG 93.87
A LEU H 5 -60.2 -29.9 N 98.31 CA 94.98 C 99.41 O 101.44 CB 92.36 CG 94.63 CD1 93.77 CD2 97.58
A SER H 81 -61.2 -48.8 N 101.28 CA 106.54 C 107.11 O 113.34 CB 112.67 OG 126.14
A LEU H 77 -74.0 -27.1 N 106.74 CA 100.87 C 97.2 O 96.55 CB 99.67 CG 98.8 CD1 101.61 CD2 96.04
A ASN - 10 -150.7 100.3 N 94.5 CA 95.05 C 98.11 O 96.59 CB 94.76 CG 95.52 OD1 94.25 ND2 99.57
A PRO T 16 -76.9 -8.6 N 100.24 CA 98.44 C 104.34 O 105.21 CB 98.77 CG 98.77 CD 100.29
A PHE T 33 -77.6 -9.3 N 106.95 CA 106.35 C 102.94 O 97.7 CB 108.88 CG 116.38 CD1 117.6 CD2 118.08 CE1 117.31 CE2 118.25 CZ 118.95
A LEU - 1 -84.8 107.2 N 100.55 CA 97.94 C 94.12 O 94.39 CB 98.12 CG 97.41 CD1 97.03 CD2 96.03
A TRP H 4 -72.7 -29.3 N 92.3 CA 95.69 C 97.83 O 95.97 CB 99.83 CG 100.26 CD1 100.96 CD2 100.91 NE1 101.88 CE2 104.76 CE3 98.47 CZ2 103.67 CZ3 100.13 CH2 101.98
A SER H 16 -67.9 -40.6 N 101.2 CA 101.03 C 97.99 O 93.38 CB 101.52 OG 107.36
A PRO H 1 -60.3 -51.3 N 96.31 CA 96.8 C 99.52 O 101.73 CB 95.12 CG 94.97 CD 95.92
A PHE H 0 -55.6 -48.0 N 99.45 CA 100.09 C 93.21 O 86.63 CB 104.92 CG 108.76 CD1 109.56 CD2 107.31 CE1 111.23 CE2 109.58 CZ 111.44
A GLU H 7 -65.8 -31.3 N 91.44 CA 95.45 C 93.21 O 80.21 CB 102.44 CG 108.19 CD 108.28 OE1 103.93 OE2 108.2
A SER H 30 -65.9 -47.2 N 102.16 CA 105.75 C 105.87 O 109.33 CB 104.15 OG 106.09
A LEU H 0 -54.0 -46.9 N 102.01 CA 102.43 C 104.75 O 112.14 CB 99.98 CG 99.3 CD1 97.03 CD2 99.87
A CYS H 3 -61.0 -41.4 N 102.84 CA 100.69 C 103.35 O 104.12 CB 97.98 SG 103.16
A GLU H 72 -69.6 -24.5 N 111.61 CA 111.14 C 110.01 O 105.29 CB 113.92 CG 116.95 CD 124.93 OE1 139.1 OE2 127.39
A ILE H 51 -73.5 -37.7 N 116.69 CA 120.68 C 122.29 O 125.18 CB 122.03 CG1 118.25 CG2 125.99 CD1 118.08
A GLY T 45 123.4 -8.6 N 116.65 CA 112.35 C 110.29 O 108.96
A GLU - 76 -67.6 155.0 N 111.66 CA 115.47 C 121.52 O 123.24 CB 115.31 CG 114.81 CD 118.35 OE1 114.3 OE2 122.3
A LYS - 79 -127.1 81.0 N 120.35 CA 115.28 C 115.92 O 124.81 CB 108.52
A PRO - 15 -75.1 157.0 N 118.37 CA 118.62 C 116.59 O 110.94 CB 120.67 CG 122.61 CD 119.72
A ASP - 51 -97.1 98.9 N 120.06 CA 123.95 C 116.65 O 117.11 CB 126.63
A PRO H 10 -41.9 -42.0 N 105.46 CA 106.85 C 116.34 O 121.86 CB 102.61 CG 100.57 CD 100.14
A ASP H 93 -68.9 -33.0 N 127.66 CA 135.91 C 136.23 O 128.48 CB 140.9 CG 143.14 OD1 144.28 OD2 141.02
A GLN H 163 -81.6 -33.0 N 142.36 CA 144.53 C 139.25 O 140.29 CB 146.41 CG 148.25 CD 151.01 OE1 148.52 NE2 152.06
A THR H 27 -75.2 -55.0 N 129.71 CA 117.67 C 113.52 O 110.7 CB 111.71 OG1 109.54 CG2 110.3
A PHE S 0 -86.3 82.8 N 110.71 CA 113.24 C 116.64 O 121.75 CB 112.06 CG 111.94 CD1 111.97 CD2 113.93 CE1 111.16 CE2 111.39 CZ 110.44
A LYS - 47 -159.7 110.2 N 117.54 CA 119.2 C 123.56 O 131.4 CB 114.21
A PHE - 56 -57.2 113.4 N 124.62 CA 128.81 C 139.17 O 145.74 CB 123.12
A THR - 144 -106.2 360.0 N 146.17 CA 144.58 C 141.2 O 141.14 CB 135.07
A LEU - 161 360.0 112.2 N 145.47 CA 147.1 C 150.0 O 150.0 CB 137.26
A GLN - 108 -95.3 137.1 N 161.32 CA 167.22 C 174.65 O 176.55 CB 157.42
A LYS - 55 -141.6 56.1 N 174.06 CA 165.15 C 161.16 O 154.36 CB 158.66
A ALA H 86 -81.0 -53.0 N 161.93 CA 158.29 C 157.09 O 154.92 CB 154.1
A ALA H 39 -60.7 -35.0 N 154.76 CA 155.07 C 153.75 O 141.74 CB 153.51
A ALA H 7 -61.4 -37.6 N 158.85 CA 165.09 C 166.54 O 167.62 CB 166.64
A GLU H 54 -57.1 -37.0 N 159.82 CA 149.25 C 148.59 O 147.98 CB 137.91
A GLY H 51 -68.2 -53.6 N 142.17 CA 137.32 C 135.25 O 129.76
A LEU H 30 -59.4 -45.8 N 134.38 CA 127.75 C 128.48 O 124.56 CB 118.0
A MET H 3 -70.3 -22.3 N 128.25 CA 130.62 C 132.45 O 130.71 CB 132.88 CG 139.36 SD 155.25 CE 159.07
A SER H 65 -59.6 -50.1 N 133.05 CA 129.87 C 126.71 O 127.11 CB 133.86 OG 139.55
A LEU H 22 -60.4 -47.0 N 118.95 CA 114.38 C 117.09 O 112.42 CB 104.73
A LEU H 3 -60.5 -47.4 N 122.46 CA 122.21 C 119.94 O 112.02 CB 119.43 CG 114.49 CD1 113.54 CD2 112.55
A ARG H 59 -52.4 -52.7 N 118.3 CA 115.78 C 117.67 O 114.22 CB 113.06 CG 116.06 CD 121.46 NE 125.75 CZ 127.46 NH1 124.28 NH2 129.78
A GLU H 40 -69.0 -41.0 N 117.52 CA 114.36 C 113.56 O 105.96 CB 108.71
A MET H 7 -61.1 -38.2 N 114.13 CA 114.81 C 116.49 O 104.91 CB 114.23 CG 116.29 SD 113.98 CE 111.15
A GLY H 0 -63.1 -53.2 N 120.37 CA 121.32 C 121.84 O 117.23
A LYS H 67 -53.7 -42.2 N 119.66 CA 117.92 C 117.63 O 112.87 CB 116.27 CG 117.33 CD 111.44
A GLY H 0 -69.6 -39.0 N 113.28 CA 114.87 C 115.52 O 102.93
A TYR H 27 -75.4 -45.9 N 119.19 CA 120.77 C 120.32 O 120.22 CB 121.19 CG 115.14 CD1 109.52 CD2 111.18 CE1 109.02 CE2 111.99 CZ 112.9 OH 118.26
A LEU H 30 -52.1 -44.9 N 118.18 CA 116.47 C 118.87 O 112.92 CB 111.89 CG 111.2 CD1 110.45 CD2 110.78
A ALA H 4 -59.4 -29.4 N 118.26 CA 114.87 C 112.87 O 113.28 CB 114.33
A LEU H 17 -80.5 -41.7 N 111.51 CA 109.51 C 110.14 O 105.21 CB 108.6 CG 108.02 CD1 109.33 CD2 105.9
A CYS H 16 -65.9 -47.7 N 115.65 CA 118.5 C 124.02 O 120.98 CB 117.63 SG 113.32
A SER T 47 -80.2 124.4 N 130.56 CA 129.73 C 128.79 O 135.46 CB 129.91 OG 130.06
A TYR T 61 -75.5 63.4 N 123.58 CA 123.16 C 118.96 O 110.88 CB 125.61 CG 130.98 CD1 134.91 CD2 131.83 CE1 134.21 CE2 128.95 CZ 129.99 OH 127.64
A ASN - 73 -96.3 65.3 N 120.93 CA 124.41 C 123.6 O 120.67 CB 126.96 CG 125.45 OD1 123.93 ND2 124.27
A CYS H 10 -57.7 -45.9 N 119.92 CA 120.69 C 124.21 O 125.42 CB 122.93 SG 127.15
A LYS H 71 -60.0 -41.3 N 125.26 CA 121.14 C 118.37 O 109.37 CB 117.01
A GLU H 97 -67.2 -48.0 N 117.35 CA 120.99 C 122.45 O 115.72 CB 123.33 CG 125.24 CD 131.49 OE1 130.7 OE2 135.09
A ALA H 0 -52.4 -44.8 N 127.88 CA 125.45 C 119.9 O 115.27 CB 126.93
A ILE H 13 -65.7 -42.7 N 112.78 CA 108.71 C 109.75 O 99.66 CB 103.57 CG1 101.87 CG2 100.85 CD1 100.21
A ASN H 66 -65.5 -24.4 N 113.8 CA 112.6 C 114.85 O 118.09 CB 105.97
A ILE H 46 -79.4 -54.7 N 114.58 CA 113.62 C 113.62 O 108.66 CB 115.18 CG1 117.78 CG2 112.09 CD1 123.02
A LEU H 3 -61.0 -41.7 N 120.22 CA 125.36 C 131.37 O 123.42 CB 121.56 CG 117.29 CD1 117.47 CD2 115.21
A SER H 49 -60.4 -42.3 N 136.43 CA 128.35 C 126.57 O 127.21 CB 122.47 OG 116.23
A HIS T 88 -69.9 -3.0 N 126.35 CA 127.01 C 124.98 O 126.49 CB 124.16
A LEU S 19 -70.0 152.6 N 124.27 CA 120.51 C 114.73 O 112.64 CB 112.63
A PRO - 82 -53.0 150.7 N 109.14 CA 106.89 C 106.09 O 106.65 CB 102.07 CG 102.09 CD 106.38
A SER S 85 -67.6 -32.2 N 114.11 CA 119.29 C 119.23 O 110.7 CB 119.27 OG 126.03
A HIS H 98 -59.4 -46.3 N 122.12 CA 122.39 C 121.25 O 124.84 CB 122.62 CG 130.15 ND1 133.9 CD2 133.16 CE1 136.89 NE2 138.34
A HIS H 10 -87.4 1.9 N 118.85 CA 108.56 C 108.13 O 109.54 CB 103.56 CG 107.35 ND1 114.71 CD2 111.48 CE1 115.22 NE2 113.16
A TYR H 62 -87.3 -44.1 N 108.02 CA 111.51 C 115.36 O 116.28 CB 113.36 CG 107.55 CD1 102.68 CD2 103.15 CE1 102.69 CE2 99.64 CZ 102.12 OH 103.32
A ASN H 74 -71.7 -19.9 N 116.12 CA 119.7 C 118.92 O 122.4 CB 122.61 CG 123.94 OD1 115.43 ND2 130.84
A THR S 14 -44.9 140.2 N 113.75 CA 110.92 C 107.86 O 100.98 CB 112.45 OG1 127.57 CG2 117.74
A GLY H 0 -65.7 -26.1 N 107.04 CA 102.06 C 102.29 O 96.2
A TRP H 10 -64.0 -54.0 N 105.79 CA 108.94 C 110.91 O 112.47 CB 110.12 CG 109.08 CD1 108.94 CD2 111.71 NE1 107.71 CE2 110.42 CE3 117.84 CZ2 115.81 CZ3 116.9 CH2 117.54
A VAL H 1 -56.1 -54.1 N 107.76 CA 100.38 C 101.01 O 102.4 CB 103.1 CG1 111.01 CG2 102.03
A LEU H 3 -56.5 -37.4 N 103.21 CA 105.81 C 103.67 O 98.39 CB 110.57 CG 112.05 CD1 111.83 CD2 112.86
A CYS H 5 -66.6 -36.1 N 106.52 CA 109.32 C 109.79 O 109.57 CB 113.03 SG 128.68
A GLN H 23 -66.0 -47.0 N 109.16 CA 111.37 C 113.28 O 114.51 CB 109.0 CG 112.41 CD 117.45 OE1 118.8 NE2 118.7
A ILE H 0 -58.5 -39.5 N 107.35 CA 100.73 C 98.91 O 100.67 CB 98.47 CG1 97.92 CG2 98.83 CD1 95.94
A GLY H 0 -58.8 -44.0 N 97.57 CA 100.07 C 104.61 O 102.57
A ARG H 22 -61.4 -46.3 N 109.82 CA 114.68 C 118.77 O 119.01 CB 110.94
A ALA H 1 -56.5 -54.0 N 119.17 CA 118.4 C 117.74 O 122.66 CB 117.95
A TYR H 52 -62.5 -28.9 N 114.29 CA 115.88 C 112.92 O 112.22 CB 118.87 CG 122.13 CD1 120.56 CD2 122.54 CE1 117.24 CE2 117.07 CZ 113.98 OH 109.24
A PHE H 7 -70.0 -37.2 N 110.38 CA 110.36 C 116.05 O 114.3 CB 108.74 CG 106.28 CD1 104.18 CD2 105.75 CE1 102.62 CE2 101.8 CZ 100.28
A GLU H 27 -74.8 -41.1 N 121.64 CA 123.95 C 121.97 O 118.05 CB 125.32 CG 124.86 CD 124.46 OE1 129.62 OE2 122.65
A LEU H 55 -58.0 -25.9 N 119.45 CA 115.62 C 113.86 O 122.27 CB 111.99 CG 112.98 CD1 112.43 CD2 114.12
A SER T 33 79.1 25.8 N 114.3 CA 114.77 C 110.68 O 113.11 CB 114.22 OG 116.78
A GLU - 38 -83.5 79.8 N 108.47 CA 111.13 C 108.13 O 101.99 CB 111.68
A TYR H 20 -66.1 -41.3 N 105.62 CA 108.22 C 116.11 O 118.49 CB 108.36 CG 114.72 CD1 119.6 CD2 117.22 CE1 119.72 CE2 120.97 CZ 122.26 OH 122.55
A MET H 134 -74.4 -34.5 N 127.58 CA 129.27 C 128.6 O 130.86 CB 131.92 CG 137.43 SD 143.37 CE 138.74
A GLN H 98 -71.1 -31.4 N 127.74 CA 133.94 C 135.82 O 136.86 CB 139.21 CG 141.54 CD 138.75 OE1 138.73 NE2 134.85
A ALA H 0 -68.0 -52.8 N 133.79 CA 130.4 C 123.65 O 119.48 CB 133.01
A GLU H 25 -61.8 -21.8 N 118.74 CA 113.19 C 110.92 O 105.58 CB 114.44 CG 118.55 CD 119.47 OE1 117.6 OE2 119.21
A ARG H 50 -62.1 -44.3 N 115.43 CA 117.27 C 116.61 O 110.51 CB 114.19
A ILE H 23 -94.4 -4.2 N 120.42 CA 126.52 C 123.25 O 124.97 CB 132.06 CG1 132.77 CG2 134.65 CD1 137.97
A PHE H 0 -86.1 -40.4 N 120.53 CA 117.4 C 118.2 O 120.84 CB 114.6 CG 112.71 CD1 111.69 CD2 109.3 CE1 107.18 CE2 108.98 CZ 108.46
A SER H 45 -60.3 -26.3 N 118.73 CA 115.94 C 113.75 O 118.91 CB 119.42 OG 127.0
A GLU H 55 -74.5 -48.1 N 111.03 CA 109.4 C 109.59 O 110.43 CB 109.37 CG 108.48 CD 109.74 OE1 108.19 OE2 106.13
A VAL H 2 -60.6 -32.5 N 111.73 CA 112.38 C 108.23 O 108.27 CB 109.6 CG1 112.02 CG2 112.84
A ARG H 34 -66.7 -48.2 N 102.59 CA 102.81 C 105.19 O 116.43 CB 99.25 CG 99.86 CD 99.22 NE 102.67 CZ 113.41 NH1 110.98 NH2 117.23
A ARG H 175 -67.1 -38.8 N 105.55 CA 108.25 C 103.14 O 94.77 CB 110.24 CG 118.04 CD 116.21 NE 115.45 CZ 113.43 NH1 113.5 NH2 115.89
A ILE H 63 -63.0 -44.7 N 103.05 CA 107.38 C 108.73 O 103.78 CB 110.39 CG1 110.78 CG2 115.32 CD1 111.82
A GLU T 32 -118.2 -62.2 N 113.59 CA 120.24 C 126.41 O 133.06 CB 120.22 CG 124.98 CD 124.47 OE1 123.9 OE2 119.09
A ASN S 59 83.4 -4.4 N 118.68 CA 116.11 C 111.82 O 106.2 CB 118.82 CG 114.85 OD1 106.62 ND2 113.94
A TYR - 11 -106.6 3.2 N 108.32 CA 99.45 C 100.51 O 96.68 CB 92.94 CG 91.94 CD1 94.48 CD2 92.6 CE1 101.2 CE2 98.54 CZ 102.19 OH 100.21
A ARG - 13 -104.3 119.8 N 105.32 CA 105.09 C 102.79 O 101.74 CB 106.21 CG 107.29 CD 99.65 NE 94.26 CZ 94.0 NH1 99.64 NH2 92.04
A VAL - 3 -107.8 0.3 N 107.32 CA 110.97 C 111.67 O 110.04 CB 114.21 CG1 120.38 CG2 110.85
A GLU S 68 -70.1 -40.0 N 113.33 CA 114.49 C 112.67 O 120.2 CB 113.95 CG 114.72 CD 119.29 OE1 123.37 OE2 124.99
A GLY S 11 -80.5 -27.0 N 103.68 CA 104.79 C 101.9 O 99.24
A MET H 1 -68.5 -9.5 N 97.69 CA 97.45 C 98.27 O 100.95 CB 100.44 CG 105.7 SD 104.59 CE 102.44
A GLU H 36 -42.4 -57.0 N 101.44 CA 99.41 C 104.73 O 108.03 CB 97.47 CG 100.75 CD 108.32 OE1 117.49 OE2 110.16
A ILE H 26 -88.9 -25.0 N 108.39 CA 105.8 C 105.9 O 115.53 CB 104.33 CG1 107.49 CG2 104.67 CD1 113.03
A TYR H 18 -55.5 -36.7 N 103.66 CA 105.03 C 102.64 O 102.89 CB 109.16 CG 114.3 CD1 116.86 CD2 116.99 CE1 116.67 CE2 118.23 CZ 117.77 OH 116.34
A SER H 0 -63.3 -43.7 N 102.51 CA 104.65 C 108.0 O 105.74 CB 107.82 OG 111.85
A THR H 8 -72.9 -25.4 N 113.89 CA 114.75 C 111.74 O 118.79 CB 114.98 OG1 117.32 CG2 114.82
A THR H 0 -65.0 -52.9 N 104.76 CA 100.24 C 101.68 O 107.13 CB 95.05 OG1 98.56 CG2 94.48
A LEU H 0 -59.3 -21.9 N 100.14 CA 102.52 C 103.51 O 105.65 CB 106.71 CG 111.4 CD1 112.52 CD2 114.94
A TRP H 16 -71.4 -48.6 N 107.73 CA 112.8 C 116.26 O 111.65 CB 110.35 CG 105.98 CD1 104.59 CD2 104.81 NE1 104.5 CE2 104.3 CE3 106.2 CZ2 104.62 CZ3 109.82 CH2 109.88
A HIS H 10 -62.7 -45.4 N 119.68 CA 120.67 C 115.53 O 121.07 CB 122.7 CG 120.8 ND1 118.76 CD2 119.6 CE1 117.42 NE2 116.99
A LEU T 37 -64.6 -19.1 N 106.47 CA 103.85 C 107.63 O 110.95 CB 102.03 CG 106.83 CD1 107.18 CD2 111.0
A GLN T 87 62.9 47.6 N 110.83 CA 110.05 C 110.14 O 115.04 CB 106.86 CG 106.03 CD 105.85 OE1 105.33 NE2 108.6
A LYS - 77 -98.2 89.5 N 110.42 CA 112.97 C 114.44 O 110.57 CB 114.69 CG 114.55 CD 117.71 CE 118.41 NZ 117.4
A ASP H 65 -53.5 -58.3 N 119.09 CA 122.07 C 123.4 O 124.14 CB 124.2 CG 129.04 OD1 134.99 OD2 134.74
A VAL H 83 -56.1 -44.8 N 126.71 CA 127.11 C 122.39 O 120.3 CB 128.38 CG1 131.61 CG2 128.63
A ALA H 27 -69.0 -45.4 N 117.81 CA 118.23 C 117.91 O 119.85 CB 120.56
A LEU H 1 -66.7 -35.9 N 117.84 CA 114.2 C 110.56 O 107.62 CB 116.16 CG 116.88 CD1 116.95 CD2 116.75
A SER H 0 -63.8 -44.0 N 112.63 CA 111.78 C 108.23 O 104.08 CB 113.92 OG 125.78
A VAL H 56 -60.9 -41.9 N 106.25 CA 103.64 C 104.59 O 109.43 CB 100.99 CG1 99.23 CG2 102.71
A LEU H 3 -63.0 -46.6 N 102.55 CA 97.83 C 101.64 O 105.7 CB 94.77 CG 93.79 CD1 91.53 CD2 95.46
A SER H 0 -59.3 -41.5 N 104.82 CA 104.23 C 102.81 O 107.07 CB 105.35 OG 106.27
A LYS H 38 -63.3 -50.6 N 102.44 CA 104.35 C 102.64 O 102.37 CB 108.98 CG 114.91 CD 120.14 CE 124.29 NZ 126.39
A ASP H 51 -64.7 -27.5 N 104.02 CA 105.74 C 102.25 O 106.74 CB 108.18 CG 111.41 OD1 112.55 OD2 112.71
A LEU H 0 -81.5 -47.0 N 98.54 CA 97.7 C 100.28 O 104.81 CB 96.69 CG 92.75 CD1 91.9 CD2 90.52
A THR H 4 -66.0 -30.9 N 100.41 CA 98.16 C 101.61 O 108.13 CB 95.58 OG1 94.08 CG2 93.84
A ASP H 79 -58.4 -47.9 N 101.33 CA 100.19 C 96.47 O 108.01 CB 102.55 CG 103.43 OD1 105.26 OD2 96.76
A MET H 20 -72.6 -48.2 N 92.68 CA 96.76 C 94.46 O 92.89 CB 100.99 CG 105.05 SD 112.63 CE 112.76
A ASP - 11 -156.5 97.5 N 94.66 CA 93.42 C 92.19 O 85.21 CB 89.44 CG 88.02 OD1 90.61 OD2 86.27
A LYS T 77 -89.9 9.7 N 91.81 CA 87.48 C 86.77 O 89.08 CB 87.25 CG 90.92 CD 93.76 CE 100.34 NZ 109.21
A ASN T 117 -109.7 32.1 N 89.42 CA 92.5 C 94.06 O 104.25 CB 94.0 CG 98.86 OD1 104.75 ND2 100.97
A SER - 2 -114.1 125.8 N 92.19 CA 91.64 C 89.91 O 90.67 CB 95.32 OG 109.52
A PRO H 8 -63.2 -34.8 N 88.25 CA 91.59 C 97.98 O 104.85 CB 91.8 CG 89.77 CD 87.81
A GLU H 22 -53.5 -44.9 N 98.48 CA 95.99 C 94.09 O 96.35 CB 96.15 CG 98.64 CD 101.77 OE1 103.63 OE2 103.52
A ALA H 0 -70.5 -32.3 N 94.66 CA 96.08 C 94.96 O 98.61 CB 101.5
A TRP H 6 -80.2 -29.5 N 98.28 CA 100.47 C 100.77 O 102.59 CB 100.71 CG 98.05 CD1 94.47 CD2 95.84 NE1 95.51 CE2 95.08 CE3 96.64 CZ2 95.92 CZ3 95.06 CH2 94.47
A CYS H 0 -64.1 -50.0 N 102.05 CA 103.79 C 102.95 O 107.93 CB 105.4 SG 110.19
A ALA H 0 -53.4 -59.4 N 97.87 CA 95.15 C 92.69 O 103.6 CB 97.19
A ALA H 0 -54.5 -34.2 N 85.8 CA 90.07 C 93.33 O 92.72 CB 93.84
A GLY H 0 -55.9 -62.5 N 99.14 CA 100.45 C 99.92 O 99.76
A ASN H 2 -78.1 -7.9 N 99.18 CA 102.01 C 98.4 O 100.85 CB 105.77 CG 105.66 OD1 110.5 ND2 100.41
A CYS H 4 -67.4 -27.3 N 96.67 CA 102.12 C 101.32 O 105.83 CB 105.08 SG 105.22
A PHE H 0 -102.5 -6.5 N 102.67 CA 106.31 C 108.81 O 106.91 CB 106.03 CG 102.37 CD1 100.83 CD2 102.12 CE1 101.87 CE2 102.51 CZ 103.7
A SER H 6 -92.2 -30.6 N 114.63 CA 117.14 C 124.21 O 134.06 CB 111.46 OG 109.71
A LEU H 15 -62.7 -63.6 N 123.92 CA 123.19 C 124.94 O 135.43 CB 126.69 CG 128.48 CD1 129.88 CD2 128.23
A GLN T 86 -69.9 88.4 N 125.0 CA 128.4 C 127.34 O 137.02 CB 132.18 CG 134.7 CD 139.73 OE1 137.18 NE2 141.74
A ARG T 43 -62.3 98.4 N 126.52 CA 133.48 C 142.93 O 148.08 CB 126.18
A GLU - 88 -138.0 71.2 N 146.12 CA 137.3 C 134.74 O 129.98 CB 134.93 CG 140.28 CD 146.37 OE1 147.11 OE2 155.09
A HIS H 50 -66.5 -25.8 N 134.77 CA 135.0 C 136.65 O 137.58 CB 137.36 CG 142.29 ND1 145.42 CD2 142.01 CE1 143.37 NE2 142.57
A ASP H 123 -52.4 -51.5 N 137.16 CA 133.8 C 129.27 O 126.23 CB 134.82 CG 134.48 OD1 130.87 OD2 136.55
A ILE H 33 -69.9 -45.0 N 123.86 CA 117.21 C 108.0 O 107.06 CB 119.63 CG1 122.97 CG2 118.01 CD1 126.73
A ALA H 0 -61.9 -33.4 N 105.24 CA 106.01 C 103.41 O 98.64 CB 110.09
A ILE H 18 -60.5 -48.7 N 107.86 CA 112.68 C 111.97 O 114.52 CB 118.73 CG1 121.87 CG2 119.64 CD1 123.58
A LYS H 81 -57.5 -45.1 N 107.2 CA 100.95 C 98.54 O 96.4 CB 103.22 CG 109.59 CD 114.72 CE 118.22 NZ 120.06
A PHE H 0 -64.2 -44.8 N 93.13 CA 89.57 C 88.62 O 85.29 CB 88.96 CG 91.53 CD1 93.91 CD2 92.84 CE1 92.52 CE2 94.72 CZ 93.35
A PHE H 1 -63.3 -35.8 N 90.25 CA 95.8 C 97.95 O 98.0 CB 101.99 CG 106.18 CD1 107.67 CD2 104.61 CE1 108.4 CE2 105.23 CZ 110.39
A GLN H 38 -59.5 -44.0 N 99.35 CA 98.86 C 101.18 O 101.09 CB 97.45 CG 96.37 CD 95.36 OE1 104.12 NE2 93.68
A ARG H 4 -59.0 -39.7 N 99.92 CA 97.66 C 94.62 O 96.89 CB 98.94 CG 100.75 CD 99.74 NE 102.27 CZ 101.7 NH1 97.81 NH2 106.39
A ALA H 0 -59.9 -33.1 N 90.14 CA 91.77 C 93.25 O 89.85 CB 94.61
A ILE H 0 -74.6 -42.1 N 95.67 CA 99.01 C 95.94 O 88.61 CB 104.31 CG1 106.14 CG2 107.13 CD1 109.47
A GLN H 18 -63.2 -43.9 N 91.88 CA 88.36 C 89.98 O 97.15 CB 85.31 CG 86.38 CD 92.84 OE1 93.46 NE2 96.81
A VAL S 30 -75.2 -15.9 N 87.45 CA 86.51 C 89.92 O 93.22 CB 86.26 CG1 87.78 CG2 88.26
A ASP - 56 -162.3 99.2 N 93.28 CA 94.06 C 95.2 O 93.8 CB 94.45 CG 98.04 OD1 97.68 OD2 103.17
A PRO T 44 -82.0 -2.6 N 99.82 CA 101.34 C 99.15 O 91.72 CB 104.49 CG 103.34 CD 103.23
A ASN T 111 -104.6 33.8 N 99.35 CA 107.47 C 109.04 O 112.16 CB 112.02 CG 120.79 OD1 126.83 ND2 124.38
A TYR - 27 -118.3 97.7 N 109.92 CA 111.96 C 111.41 O 106.14 CB 111.2 CG 110.67 CD1 110.63 CD2 111.34 CE1 110.52 CE2 112.06 CZ 111.97 OH 117.71
A ALA H 10 -57.8 -46.6 N 107.68 CA 103.64 C 103.29 O 94.26 CB 103.81
A TYR H 22 -57.1 -34.1 N 106.94 CA 111.26 C 105.66 O 109.31 CB 116.04 CG 122.17 CD1 121.08 CD2 125.01 CE1 120.52 CE2 122.42 CZ 119.1 OH 120.13
A ALA H 0 -63.7 -36.4 N 100.65 CA 98.19 C 96.5 O 90.61 CB 97.74
A TYR H 1 -64.7 -49.1 N 100.03 CA 103.0 C 101.43 O 99.45 CB 103.18 CG 104.14 CD1 102.09 CD2 105.51 CE1 102.6 CE2 105.36 CZ 105.35 OH 101.68
A THR H 0 -51.0 -57.8 N 98.29 CA 91.57 C 89.79 O 88.04 CB 87.37 OG1 80.25 CG2 88.96
A LEU H 12 -55.1 -31.7 N 91.14 CA 95.17 C 102.09 O 107.24 CB 95.24 CG 99.93 CD1 97.74 CD2 106.82
A LEU H 0 -66.8 -50.6 N 108.22 CA 112.03 C 117.8 O 120.87 CB 110.01 CG 110.2 CD1 109.59 CD2 109.9
A GLY H 0 -44.5 -50.9 N 121.02 CA 122.77 C 123.71 O 123.55
A HIS H 24 -56.2 -37.8 N 121.61 CA 115.8 C 115.57 O 120.92 CB 112.98 CG 113.38 ND1 116.77 CD2 115.11 CE1 119.39 NE2 118.0
A GLU H 6 -71.3 -32.4 N 113.53 CA 117.21 C 120.15 O 117.75 CB 119.41 CG 119.57 CD 119.45 OE1 117.17 OE2 123.15
A PHE H 13 -76.6 -22.3 N 124.21 CA 133.59 C 136.66 O 144.06 CB 137.8 CG 134.39 CD1 128.89 CD2 133.06 CE1 127.78 CE2 133.33 CZ 132.44
A VAL H 45 -63.9 -42.2 N 133.02 CA 129.94 C 129.18 O 134.1 CB 132.28 CG1 135.69 CG2 131.97
A LEU H 57 -73.2 -28.9 N 126.21 CA 127.42 C 134.57 O 142.23 CB 125.82 CG 130.2 CD1 132.06 CD2 130.59
A THR T 50 -86.5 4.2 N 141.97 CA 150.03 C 151.09 O 149.55 CB 154.95 OG1 155.84 CG2 149.22
A GLU T 88 67.5 33.1 N 150.05 CA 146.59 C 145.77 O 141.29 CB 142.6
A GLU - 79 -103.2 51.5 N 147.32 CA 143.39 C 132.61 O 124.8 CB 146.23 CG 148.54 CD 153.34 OE1 159.89 OE2 155.32
A LEU H 44 -52.0 -33.2 N 132.36 CA 132.98 C 134.6 O 123.06 CB 126.45
A ASP H 144 -71.3 -43.3 N 145.0 CA 150.64 C 148.11 O 142.0 CB 150.15 CG 151.46 OD1 151.79 OD2 152.24
A LYS H 88 -61.0 -52.4 N 144.21 CA 139.29 C 130.24 O 119.64 CB 138.51 CG 138.56 CD 137.19 CE 142.21 NZ 145.96
A ALA H 0 -49.3 -44.1 N 125.66 CA 123.86 C 124.19 O 119.76 CB 123.24
A LEU H 15 -52.5 -49.2 N 125.81 CA 127.41 C 128.31 O 123.46 CB 121.11
A ALA H 19 -62.8 -39.9 N 127.65 CA 121.94 C 116.8 O 106.7 CB 123.23
A CYS H 0 -56.3 -54.3 N 110.09 CA 106.28 C 107.12 O 105.46 CB 106.04 SG 112.69
A PHE H 0 -66.2 -39.5 N 108.26 CA 112.32 C 116.18 O 113.41 CB 113.91 CG 110.91 CD1 110.1 CD2 112.58 CE1 112.63 CE2 113.37 CZ 112.16
A ARG H 131 -59.6 -43.6 N 121.92 CA 125.8 C 123.26 O 113.01 CB 134.42 CG 140.44 CD 143.03 NE 147.32 CZ 155.18 NH1 161.62 NH2 156.44
A ASN H 17 -64.3 -48.1 N 121.86 CA 118.4 C 115.02 O 114.76 CB 115.1 CG 114.38 OD1 103.94 ND2 114.57
A ALA H 0 -49.8 -39.7 N 111.17 CA 108.39 C 108.02 O 98.55 CB 107.71
A ILE H 24 -70.8 -33.7 N 113.0 CA 118.22 C 113.45 O 108.16 CB 124.76 CG1 124.56 CG2 129.46 CD1 125.5
A ARG H 140 -65.7 -53.3 N 107.63 CA 104.76 C 101.57 O 97.21 CB 106.15 CG 107.02 CD 108.64 NE 103.51 CZ 93.8 NH1 90.15 NH2 89.6
A VAL H 38 -63.1 -40.4 N 98.63 CA 97.54 C 101.1 O 97.96 CB 95.29 CG1 95.19 CG2 96.91
A ASN - 48 -135.6 114.1 N 106.25 CA 108.45 C 114.05 O 119.2 CB 100.64 CG 98.75 OD1 95.39 ND2 103.4
A PRO T 84 -76.6 -15.6 N 114.89 CA 116.72 C 115.1 O 112.91 CB 116.73 CG 112.32 CD 110.09
A ARG T 61 -94.2 5.3 N 107.2 CA 102.9 C 100.3 O 102.64 CB 101.53 CG 104.87 CD 113.35 NE 127.72 CZ 142.74 NH1 151.71 NH2 145.69
A HIS - 19 -76.6 88.1 N 95.47 CA 94.71 C 98.6 O 101.61 CB 94.84 CG 90.3 ND1 89.25 CD2 86.11 CE1 89.17 NE2 86.28
A TYR H 1 -53.8 -33.2 N 100.0 CA 99.26 C 98.0 O 100.49 CB 99.7 CG 99.42 CD1 98.36 CD2 99.29 CE1 100.56 CE2 101.2 CZ 104.29 OH 105.73
A ASN H 17 -52.4 -44.9 N 97.63 CA 100.49 C 101.21 O 98.65 CB 103.28 CG 106.71 OD1 104.59 ND2 106.87
A ALA H 0 -74.8 -40.2 N 109.33 CA 115.92 C 119.93 O 120.45 CB 118.5
A TRP H 53 -52.6 -58.5 N 121.82 CA 122.56 C 124.29 O 124.05 CB 119.73 CG 116.65 CD1 113.79 CD2 117.31 NE1 112.0 CE2 114.07 CE3 115.38 CZ2 113.72 CZ3 112.67 CH2 113.95
A TYR H 1 -61.8 -38.8 N 120.44 CA 120.19 C 121.41 O 127.07 CB 122.47 CG 125.21 CD1 124.96 CD2 125.4 CE1 125.91 CE2 127.3 CZ 127.24 OH 120.61
A GLY H 4 -63.8 -28.9 N 119.37 CA 118.48 C 122.71 O 118.73
A LEU H 3 -72.7 -56.5 N 127.16 CA 129.14 C 136.31 O 138.94 CB 125.48 CG 123.52 CD1 120.94 CD2 124.25
A GLY H 0 -49.6 -34.0 N 136.08 CA 136.56 C 135.4 O 142.45
A MET H 49 -66.5 -40.0 N 129.33 CA 127.41 C 130.19 O 133.5 CB 123.25 CG 122.67 SD 122.56 CE 118.75
A ILE H 32 -83.4 -19.9 N 132.61 CA 138.09 C 142.64 O 144.78 CB 138.46 CG1 140.3 CG2 133.11 CD1 137.92
A TYR H 32 -73.6 -38.4 N 145.02 CA 143.68 C 141.79 O 139.91 CB 141.14 CG 140.63 CD1 135.94 CD2 138.32 CE1 135.87 CE2 138.11 CZ 139.52 OH 137.74
A TYR H 47 -63.8 -38.7 N 140.06 CA 135.34 C 128.5 O 124.59 CB 138.04 CG 141.17 CD1 140.15 CD2 142.3 CE1 140.44 CE2 142.7 CZ 142.79 OH 143.62
A LYS H 162 -70.6 -23.8 N 122.05 CA 124.9 C 129.58 O 132.09 CB 126.75 CG 128.21 CD 130.18 CE 130.51 NZ 130.19
A GLN T 120 -106.5 8.4 N 137.23 CA 143.78 C 146.69 O 142.08 CB 145.86 CG 144.57 CD 138.91 OE1 135.75 NE2 136.12
A GLU T 111 75.2 8.5 N 151.75 CA 148.22 C 144.15 O 146.33 CB 148.49 CG 149.33 CD 149.29 OE1 152.3 OE2 144.19
A LYS - 34 -80.0 92.9 N 140.9 CA 140.35 C 139.11 O 145.13 CB 136.73
A PHE H 17 -90.2 -53.8 N 137.67 CA 143.73 C 143.78 O 146.87 CB 147.87 CG 153.78 CD1 154.84 CD2 154.76 CE1 156.7 CE2 155.09 CZ 156.75
A SER H 92 -63.7 -18.2 N 148.01 CA 150.03 C 151.12 O 154.17 CB 149.57 OG 157.06
A LEU H 78 -81.6 -43.6 N 151.56 CA 151.26 C 148.58 O 145.02 CB 150.68 CG 151.72 CD1 150.67 CD2 150.75
A ALA H 0 -54.4 -36.4 N 142.14 CA 135.19 C 131.42 O 129.12 CB 129.52
A GLU H 19 -50.4 -54.4 N 133.05 CA 136.67 C 135.59 O 128.97 CB 142.64 CG 149.37 CD 153.7 OE1 159.52 OE2 146.05
A MET H 61 -53.4 -43.1 N 137.81 CA 138.17 C 141.37 O 139.48 CB 134.55
A HIS H 31 -64.7 -52.8 N 141.1 CA 137.93 C 130.04 O 115.18 CB 138.54 CG 140.87 ND1 139.6 CD2 138.79 CE1 134.94 NE2 137.07
A PHE H 0 -54.7 -44.5 N 125.89 CA 115.3 C 115.89 O 112.89 CB 108.84 CG 108.66 CD1 111.56 CD2 112.61 CE1 115.26 CE2 113.57 CZ 112.09
A GLN H 78 -64.0 -44.5 N 117.25 CA 123.78 C 127.1 O 118.85 CB 126.71 CG 127.72 CD 130.3 OE1 136.01 NE2 131.4
A LYS H 27 -58.6 -42.3 N 133.46 CA 129.5 C 129.62 O 128.31 CB 120.89
A ALA H 0 -66.0 -50.2 N 127.35 CA 122.11 C 120.21 O 115.19 CB 118.03
A LEU H 20 -75.3 -23.0 N 121.3 CA 122.06 C 117.96 O 105.48 CB 120.64 CG 125.74 CD1 126.06 CD2 126.46
A ASP H 121 -69.7 -45.5 N 122.95 CA 129.37 C 128.66 O 125.61 CB 132.59 CG 136.23 OD1 136.09 OD2 143.6
A ILE H 25 -65.9 -46.0 N 130.01 CA 129.57 C 124.61 O 108.88 CB 130.55 CG1 131.77 CG2 125.93 CD1 129.61
A ASN - 6 -140.3 141.6 N 130.69 CA 134.17 C 138.41 O 145.2 CB 131.62 CG 130.16 OD1 120.0 ND2 131.2
A PRO S 70 -100.5 156.3 N 129.6 CA 122.71 C 125.72 O 132.07 CB 123.78 CG 121.55 CD 125.2
A GLN S 83 53.6 35.8 N 130.8 CA 135.18 C 130.31 O 124.32 CB 133.52 CG 131.18 CD 131.79 OE1 124.41 NE2 131.14
A SER - 0 -66.3 -32.4 N 131.67 CA 127.84 C 124.23 O 128.12 CB 126.44 OG 129.8
A SER H 2 -58.2 -37.3 N 122.57 CA 118.59 C 119.18 O 112.02 CB 113.31 OG 107.18
A VAL H 24 -51.9 -51.7 N 121.36 CA 125.77 C 124.77 O 117.51 CB 126.09 CG1 128.05 CG2 124.07
A LEU H 5 -65.1 -51.1 N 125.83 CA 119.93 C 116.47 O 117.03 CB 120.41 CG 127.56 CD1 130.51 CD2 127.89
A LEU H 3 -70.8 -23.5 N 111.3 CA 113.6 C 120.25 O 114.45 CB 112.52 CG 112.48 CD1 110.42 CD2 112.48
A CYS H 5 -81.6 -32.1 N 129.79 CA 129.74 C 125.36 O 122.48 CB 130.32 SG 132.24
A HIS H 54 -60.0 -37.2 N 119.78 CA 119.51 C 118.96 O 118.93 CB 120.3 CG 123.15 ND1 125.39 CD2 124.89 CE1 124.77 NE2 127.89
A ILE H 19 -54.1 -54.1 N 118.74 CA 120.65 C 124.38 O 124.6 CB 117.1 CG1 114.51 CG2 111.6 CD1 112.66
A GLY H 29 -55.0 -36.3 N 126.57 CA 128.61 C 130.0 O 128.34
A VAL H 43 -62.4 -51.8 N 132.39 CA 135.23 C 136.78 O 140.32 CB 137.32 CG1 135.14 CG2 138.57
A VAL H 1 -60.7 -33.4 N 132.41 CA 124.01 C 125.74 O 129.25 CB 116.22 CG1 116.66 CG2 112.46
A GLN H 41 -78.9 -50.5 N 129.16 CA 134.02 C 137.02 O 135.05 CB 135.61 CG 138.0 CD 139.43 OE1 146.57 NE2 137.88
A HIS H 94 -64.4 -22.2 N 144.04 CA 150.0 C 155.54 O 154.92 CB 144.15
A ALA H 83 -80.0 -46.3 N 160.75 CA 160.87 C 164.63 O 172.32 CB 155.31
A LEU - 68 -81.4 360.0 N 163.56 CA 155.4 C 150.96 O 141.19 CB 144.58
A THR - 143 360.0 -62.6 N 143.84 CA 149.43 C 150.0 O 150.0 CB 134.95
A LEU - 92 -64.5 -29.5 N 172.43 CA 173.58 C 181.89 O 183.43 CB 160.62
A ASN H 69 -71.5 -45.6 N 188.03 CA 193.09 C 194.37 O 194.36 CB 191.07
A LYS H 54 -46.2 -41.5 N 190.77 CA 191.24 C 202.99 O 208.07 CB 176.75
A ALA H 19 -66.0 -50.4 N 211.34 CA 212.8 C 214.86 O 206.21 CB 211.64
A ILE H 49 -57.1 -34.8 N 222.69 CA 226.67 C 237.15 O 248.91 CB 214.79
A VAL H 68 -68.7 -45.4 N 240.08 CA 235.49 C 231.83 O 227.14 CB 225.43
A ILE H 20 -63.1 -36.7 N 225.98 CA 220.35 C 216.39 O 209.13 CB 213.47
A ASP H 7 -64.2 -16.0 N 214.26 CA 211.82 C 208.86 O 215.33 CB 206.26
A PRO H 60 -57.3 -47.6 N 198.54 CA 188.61 C 178.0 O 163.83 CB 186.53
A LYS H 163 -66.9 -48.2 N 172.59 CA 172.76 C 167.79 O 163.81 CB 171.99 CG 169.52 CD 168.68 CE 168.54 NZ 168.11
A ASN - 19 -127.4 123.8 N 162.49 CA 146.04 C 138.25 O 116.98 CB 138.93 CG 134.12 OD1 126.98 ND2 131.94
A PRO H 42 -74.6 -49.5 N 135.01 CA 133.65 C 137.75 O 138.97 CB 130.81 CG 134.52 CD 134.75
A LEU H 7 -64.1 -19.1 N 138.63 CA 129.62 C 131.03 O 132.2 CB 123.38 CG 121.42 CD1 121.31 CD2 118.59
A CYS H 4 -69.9 -46.7 N 129.87 CA 134.09 C 135.99 O 130.68 CB 139.62 SG 146.98
A LYS H 8 -64.0 -37.5 N 143.37 CA 149.11 C 148.25 O 154.96 CB 149.05
A PHE H 17 -61.6 -34.3 N 137.62 CA 129.53 C 127.54 O 117.81 CB 128.46 CG 128.45 CD1 130.49 CD2 132.18 CE1 130.21 CE2 133.15 CZ 132.18
A HIS H 6 -65.4 -48.2 N 130.3 CA 130.85 C 124.17 O 113.19 CB 136.95 CG 136.47 ND1 131.47 CD2 134.95 CE1 130.95 NE2 131.18
A ARG H 30 -54.0 -24.1 N 124.38 CA 124.41 C 125.0 O 122.2 CB 122.09 CG 120.63
A ALA H 2 -85.6 -43.1 N 127.9 CA 130.17 C 132.05 O 132.56 CB 130.66
A SER H 5 -66.4 -34.1 N 132.78 CA 122.9 C 123.49 O 118.23 CB 119.96 OG 117.99
A VAL H 44 -65.8 -33.1 N 125.92 CA 129.88 C 129.48 O 129.63 CB 134.98 CG1 135.8 CG2 137.86
A LEU H 35 -74.3 -46.5 N 128.53 CA 128.92 C 121.58 O 121.19 CB 129.98 CG 133.17 CD1 134.24 CD2 132.62
A PHE H 34 -59.8 -36.5 N 116.33 CA 116.34 C 119.24 O 111.97 CB 118.41 CG 123.11 CD1 131.17 CD2 123.02 CE1 130.94 CE2 124.65 CZ 128.22
A ALA H 30 -65.3 -40.5 N 128.19 CA 130.69 C 131.29 O 125.3 CB 130.56
A ASN T 68 -69.9 173.8 N 132.05 CA 134.49 C 140.6 O 137.23 CB 128.81 CG 125.79 OD1 126.93 ND2 123.22
A GLU T 155 -88.5 25.0 N 147.76 CA 152.67 C 151.52 O 158.06 CB 153.66 CG 149.71 CD 147.34 OE1 142.97 OE2 144.45
A LYS - 77 -108.9 80.2 N 144.93 CA 137.53 C 135.2 O 127.75 CB 132.12 CG 125.21 CD 118.4
A TYR H 52 -81.4 -36.0 N 140.27 CA 140.87 C 140.9 O 136.95 CB 141.35 CG 145.23 CD1 144.51 CD2 142.46 CE1 140.77 CE2 139.94 CZ 140.46 OH 138.42
A LYS H 76 -65.1 -56.0 N 141.98 CA 133.76 C 133.4 O 122.94 CB 126.18
A SER H 59 -48.8 -34.5 N 137.67 CA 135.53 C 135.89 O 135.21 CB 133.35 OG 130.35
A ALA H 0 -63.9 -41.0 N 137.72 CA 139.79 C 139.34 O 135.95 CB 139.29
A LEU H 38 -74.4 -35.8 N 140.38 CA 137.24 C 136.76 O 126.95 CB 133.9 CG 133.5 CD1 130.58 CD2 130.68
A GLN H 153 -59.3 -48.8 N 140.22 CA 143.16 C 144.59 O 140.67 CB 143.74 CG 145.06 CD 148.38 OE1 145.32 NE2 153.18
A GLU H 33 -65.1 -35.5 N 146.19 CA 144.61 C 144.84 O 149.94 CB 140.42 CG 142.0 CD 140.0 OE1 139.68 OE2 130.83
A LEU H 3 -69.2 -47.9 N 143.42 CA 146.81 C 149.34 O 158.06 CB 148.78 CG 144.56 CD1 143.52 CD2 141.48
A GLU H 102 -65.7 -33.2 N 151.56 CA 152.42 C 151.41 O 147.95 CB 150.77 CG 152.25 CD 158.48 OE1 165.32 OE2 162.02
A GLU H 118 -59.4 -34.0 N 151.52 CA 151.02 C 145.37 O 140.08 CB 154.19 CG 156.56 CD 156.75 OE1 151.25 OE2 156.06
A LEU H 16 -86.0 -29.9 N 145.73 CA 147.07 C 146.75 O 148.18 CB 140.74
A LYS H 55 -59.9 -35.9 N 143.09 CA 136.84 C 138.23 O 132.65 CB 130.64 CG 128.02 CD 128.15 CE 123.53 NZ 116.97
A GLN H 143 -68.8 -46.6 N 142.76 CA 140.93 C 142.09 O 150.16 CB 139.29 CG 135.62 CD 133.34 OE1 124.56 NE2 134.65
A ILE H 84 -60.1 -36.7 N 140.81 CA 135.36 C 138.32 O 141.37 CB 126.78 CG1 125.21 CG2 125.79 CD1 122.04
A VAL - 30 -142.6 97.5 N 140.82 CA 147.61 C 150.19 O 155.84 CB 151.36 CG1 150.04 CG2 150.2
A PRO S 76 -90.3 5.6 N 152.56 CA 153.34 C 160.54 O 157.0 CB 150.68 CG 152.12 CD 151.85
A LYS S 68 -97.9 -14.3 N 171.33 CA 176.74 C 184.28 O 192.86 CB 171.42
A GLU - 61 -99.5 117.0 N 183.11 CA 173.9 C 164.47 O 157.85 CB 171.06 CG 171.76 CD 172.83 OE1 174.3 OE2 177.65
A SER H 21 -53.7 -32.4 N 158.07 CA 152.87 C 154.76 O 154.23 CB 147.44 OG 145.25
A LEU H 26 -51.9 -37.6 N 159.76 CA 159.38 C 160.01 O 157.57 CB 150.69
A VAL H 6 -71.1 -44.2 N 161.94 CA 158.86 C 157.04 O 153.53 CB 153.24 CG1 147.3 CG2 152.69
A TYR H 30 -72.8 -25.4 N 155.95 CA 156.32 C 151.28 O 150.68 CB 164.68 CG 174.29 CD1 175.45 CD2 176.61 CE1 172.98 CE2 174.11 CZ 175.02 OH 175.81
A PHE H 37 -72.4 -35.8 N 149.06 CA 137.34 C 128.6 O 127.69 CB 129.79
A LEU H 9 -76.1 -31.4 N 122.23 CA 124.1 C 130.89 O 131.03 CB 122.39 CG 119.25 CD1 123.41 CD2 117.17
A ILE H 8 -63.2 -40.1 N 140.28 CA 147.24 C 156.07 O 157.64 CB 143.13 CG1 141.78 CG2 140.5 CD1 139.47
A GLY H 0 -58.8 -38.9 N 164.7 CA 166.95 C 166.79 O 165.03
A LYS H 60 -75.2 -46.9 N 163.43 CA 163.86 C 157.41 O 162.87 CB 168.73 CG 167.08 CD 164.19 CE 161.43 NZ 164.84
A VAL H 1 -62.7 -25.8 N 147.86 CA 144.4 C 142.63 O 138.3 CB 141.82 CG1 143.24 CG2 139.26
A TYR H 51 -75.6 -48.6 N 143.35 CA 146.16 C 147.36 O 154.29 CB 144.49 CG 146.15 CD1 144.32 CD2 144.36 CE1 141.24 CE2 144.87 CZ 146.01 OH 149.47
A LYS H 62 -50.2 -48.6 N 145.79 CA 140.65 C 140.35 O 142.04 CB 135.23
A LYS T 59 -73.0 -16.6 N 139.96 CA 141.04 C 140.29 O 137.34 CB 135.88
A LEU T 92 -88.1 -29.2 N 143.76 CA 147.96 C 146.33 O 147.34 CB 148.31 CG 149.39 CD1 148.29 CD2 146.84
A GLY S 53 128.0 -35.7 N 142.95 CA 138.28 C 138.2 O 129.43
A GLN - 91 -60.4 106.2 N 142.77 CA 139.58 C 138.91 O 143.67 CB 135.29 CG 131.75 CD 134.1 OE1 136.63 NE2 133.84
A THR H 86 -87.2 -37.2 N 138.15 CA 140.44 C 145.57 O 138.42 CB 139.08 OG1 138.78 CG2 136.02
A HIS H 151 -69.9 -27.5 N 156.56 CA 154.26 C 145.28 O 132.54 CB 157.71 CG 166.5 ND1 170.47 CD2 165.49 CE1 167.12 NE2 166.66
A LEU H 60 -88.5 -46.7 N 144.84 CA 142.6 C 150.64 O 148.63 CB 134.18 CG 132.05 CD1 134.68 CD2 131.8
A ALA H 6 -46.5 -49.3 N 157.34 CA 158.46 C 157.53 O 156.29 CB 160.25
A LEU H 123 -57.9 -38.8 N 154.14 CA 156.6 C 156.49 O 153.47 CB 157.65 CG 156.81 CD1 153.43 CD2 154.7
A MET H 111 -66.7 -50.2 N 157.59 CA 154.93 C 151.37 O 157.87 CB 153.84 CG 151.04 SD 145.54 CE 143.2
A ASN H 16 -58.1 -43.7 N 143.13 CA 140.89 C 148.42 O 151.1 CB 134.3 CG 125.32 OD1 115.65 ND2 122.21
A PHE H 71 -59.8 -40.3 N 153.56 CA 159.19 C 159.7 O 169.87 CB 162.93 CG 162.82 CD1 161.36 CD2 157.09 CE1 156.9 CE2 152.58 CZ 153.75
A SER H 51 -61.4 -60.3 N 158.78 CA 157.41 C 161.76 O 162.91 CB 152.76 OG 156.9
A TRP H 116 -74.4 -19.9 N 164.17 CA 171.0 C 170.59 O 175.93 CB 172.74 CG 180.52 CD1 191.18 CD2 182.31 NE1 198.39 CE2 191.17 CE3 171.24 CZ2 179.49 CZ3 162.39 CH2 164.37
A ALA H 4 -60.0 -45.3 N 162.3 CA 155.92 C 154.58 O 160.08 CB 153.24
A MET H 131 -72.6 -43.2 N 151.87 CA 152.71 C 156.32 O 160.23 CB 150.77 CG 157.54 SD 164.09 CE 156.75
A ASP H 142 -55.1 -11.4 N 158.33 CA 155.23 C 150.95 O 143.38 CB 152.15 CG 149.31 OD1 143.51 OD2 149.28
A LEU T 62 -104.0 17.3 N 155.41 CA 158.15 C 166.21 O 169.09 CB 156.35 CG 156.16 CD1 154.66 CD2 153.68
A ASP - 120 -120.4 135.1 N 169.58 CA 169.74 C 167.31 O 164.57 CB 171.45 CG 173.3 OD1 172.68 OD2 170.23
A PRO - 140 -111.1 360.0 N 162.99 CA 156.96 C 154.45 O 149.94 CB 151.49
B GLN - 88 360.0 -66.8 N 150.17 CA 149.6 C 153.69 O 152.61 CB 141.77
B GLU H 138 -79.3 -45.4 N 154.96 CA 151.69 C 148.68 O 146.86 CB 151.11 CG 148.5 CD 146.38 OE1 141.47 OE2 144.05
B PRO H 53 -69.9 -27.5 N 144.04 CA 137.18 C 127.54 O 126.71 CB 139.76 CG 142.67 CD 144.8
B VAL H 13 -71.5 -39.6 N 120.56 CA 117.29 C 116.68 O 113.89 CB 114.21 CG1 111.77 CG2 113.53
B GLN H 26 -65.1 -48.2 N 120.96 CA 119.87 C 117.37 O 123.62 CB 117.22
B ALA H 56 -64.3 -27.2 N 112.9 CA 112.2 C 105.11 O 104.31 CB 115.59
B ALA H 9 -73.9 -31.5 N 102.17 CA 101.27 C 98.92 O 103.89 CB 101.77
B ILE H 0 -66.2 -53.1 N 97.58 CA 98.5 C 97.55 O 99.05 CB 97.54 CG1 97.17 CG2 99.4 CD1 97.14
B TRP H 78 -54.8 -34.2 N 95.83 CA 97.77 C 96.93 O 100.99 CB 96.33 CG 94.8 CD1 95.02 CD2 92.71 NE1 97.87 CE2 92.12 CE3 90.94 CZ2 89.88 CZ3 90.57 CH2 88.33
B GLN H 51 -64.9 -53.2 N 93.1 CA 94.95 C 87.35 O 89.87 CB 102.28 CG 105.45 CD 103.7 OE1 98.67 NE2 107.09
B ALA H 0 -54.0 -46.3 N 83.07 CA 85.82 C 86.3 O 88.19 CB 86.5
B LEU H 2 -53.9 -52.9 N 83.88 CA 78.45 C 75.98 O 75.2 CB 75.78 CG 75.49 CD1 75.11 CD2 76.65
B ASN H 61 -64.7 -19.5 N 73.58 CA 76.19 C 78.48 O 85.13 CB 79.41 CG 83.55 OD1 84.39 ND2 90.93
B HIS T 26 -100.4 9.9 N 76.36 CA 73.71 C 74.09 O 68.8 CB 72.97 CG 73.34 ND1 76.5 CD2 76.1 CE1 79.33 NE2 78.56
B TYR T 12 61.0 32.8 N 74.54 CA 74.07 C 74.98 O 73.34 CB 71.89 CG 68.2 CD1 68.92 CD2 68.48 CE1 70.88 CE2 70.57 CZ 71.98 OH 76.26
B ALA - 12 -92.1 83.6 N 76.36 CA 78.59 C 80.93 O 77.43 CB 78.82
B TYR H 62 -80.9 -34.9 N 83.78 CA 80.81 C 81.82 O 84.59 CB 81.58 CG 82.73 CD1 83.62 CD2 81.47 CE1 83.78 CE2 79.98 CZ 82.62 OH 85.92
B ARG H 128 -66.2 -34.5 N 90.23 CA 94.09 C 93.94 O 94.3 CB 98.8 CG 110.6 CD 119.95 NE 130.18 CZ 137.78 NH1 142.49 NH2 137.24
B ASP H 13 -71.1 -33.7 N 96.61 CA 99.59 C 97.23 O 102.92 CB 103.07 CG 107.64 OD1 113.69 OD2 113.77
B ALA H 0 -84.1 -42.3 N 95.66 CA 98.86 C 95.71 O 94.59 CB 101.64
B VAL H 24 -63.3 -27.0 N 92.21 CA 90.82 C 97.19 O 106.2 CB 86.15 CG1 86.86 CG2 86.42
B PHE H 9 -69.6 -52.4 N 101.13 CA 101.34 C 97.88 O 102.56 CB 103.23 CG 104.18 CD1 106.65 CD2 102.32 CE1 106.44 CE2 101.83 CZ 104.65
B LEU H 6 -58.7 -39.9 N 95.59 CA 97.81 C 100.04 O 110.64 CB 98.24 CG 99.95 CD1 100.74 CD2 100.88
B ALA H 0 -71.1 -36.8 N 97.77 CA 101.55 C 100.14 O 107.27 CB 104.25
B GLU H 16 -59.7 -49.7 N 97.47 CA 100.02 C 102.12 O 108.93 CB 100.51 CG 100.94 CD 100.78 OE1 106.02 OE2 94.22
B ARG H 17 -52.5 -52.2 N 99.66 CA 94.86 C 95.37 O 100.68 CB 93.96 CG 97.32 CD 99.65 NE 101.88 CZ 105.3 NH1 105.2 NH2 107.55
B LEU H 22 -64.2 -31.8 N 94.43 CA 96.88 C 103.48 O 115.27 CB 99.56 CG 103.63 CD1 102.65 CD2 107.16
B TYR H 33 -76.4 -29.9 N 103.76 CA 105.5 C 111.52 O 125.04 CB 106.94 CG 106.17 CD1 104.72 CD2 106.74 CE1 108.49 CE2 107.5 CZ 108.53 OH 111.4
B ALA H 12 -70.3 -39.9 N 115.11 CA 116.67 C 118.18 O 124.63 CB 115.52
B GLU H 119 -64.7 -63.3 N 116.42 CA 120.53 C 124.37 O 133.74 CB 120.5 CG 122.44 CD 123.57 OE1 116.95 OE2 128.75
B VAL - 73 -111.2 125.8 N 126.73 CA 132.68 C 133.31 O 147.73 CB 132.98 CG1 135.08 CG2 132.5
B HIS - 122 -78.8 26.1 N 128.58 CA 128.95 C 121.27 O 119.9 CB 139.89 CG 158.15 ND1 166.35 CD2 165.19 CE1 168.25 NE2 170.14
B SER - 41 -52.2 153.0 N 112.16 CA 111.53 C 111.15 O 110.8 CB 111.78 OG 114.64
B GLU H 51 -83.4 -9.5 N 112.68 CA 117.12 C 117.07 O 121.83 CB 121.92 CG 127.38 CD 128.79 OE1 124.98 OE2 135.41
B GLU H 111 -92.0 -30.4 N 116.69 CA 116.03 C 111.93 O 121.51 CB 120.05 CG 127.79 CD 133.68 OE1 137.39 OE2 131.39
B ALA H 3 -63.1 -36.5 N 108.72 CA 112.2 C 110.62 O 119.02 CB 115.35
B LEU H 3 -65.5 -50.9 N 105.62 CA 100.54 C 99.63 O 97.62 CB 96.68 CG 100.67 CD1 100.07 CD2 105.58
B PHE H 39 -54.9 -41.9 N 99.45 CA 95.54 C 99.09 O 109.44 CB 90.42 CG 88.14 CD1 90.56 CD2 88.25 CE1 90.02 CE2 90.85 CZ 92.15
B LEU H 10 -61.1 -59.4 N 95.23 CA 95.29 C 90.1 O 88.37 CB 97.96 CG 99.7 CD1 103.22 CD2 99.96
B LEU H 2 -50.4 -41.2 N 86.36 CA 85.56 C 88.79 O 93.63 CB 85.21 CG 84.81 CD1 80.21 CD2 87.42
B ALA H 0 -73.3 -39.1 N 89.74 CA 90.54 C 86.09 O 86.1 CB 93.79
B THR H 1 -60.8 -38.2 N 82.6 CA 85.31 C 89.08 O 91.37 CB 86.17 OG1 82.52 CG2 88.74
B CYS H 0 -67.7 -43.0 N 92.73 CA 89.82 C 83.48 O 85.85 CB 88.78 SG 87.28
B TYR H 4 -64.5 -38.0 N 80.24 CA 81.48 C 78.68 O 74.68 CB 81.54 CG 85.04 CD1 89.57 CD2 91.05 CE1 94.38 CE2 94.44 CZ 95.95 OH 100.84
B TYR H 21 -68.5 -53.6 N 75.45 CA 73.4 C 73.18 O 74.53 CB 73.62 CG 74.1 CD1 76.86 CD2 74.8 CE1 78.63 CE2 77.76 CZ 77.94 OH 78.01
B ARG H 28 -65.2 -24.0 N 72.97 CA 72.18 C 75.46 O 84.14 CB 70.35 CG 71.15 CD 72.87 NE 74.6 CZ 79.05 NH1 74.36 NH2 87.56
B SER T 44 -65.2 -11.0 N 76.69 CA 76.81 C 74.55 O 74.38 CB 81.66 OG 91.98
B GLY T 63 88.9 21.2 N 76.62 CA 82.22 C 86.28 O 86.27
B LYS - 46 -123.9 78.2 N 93.25 CA 93.98 C 91.33 O 87.13 CB 95.77 CG 99.94 CD 108.26 CE 113.62 NZ 116.48
B ALA H 18 -65.1 -38.2 N 91.37 CA 91.44 C 94.31 O 99.36 CB 94.58
B TYR H 27 -54.1 -39.1 N 95.89 CA 96.34 C 97.66 O 96.56 CB 98.36 CG 98.78 CD1 98.13 CD2 99.65 CE1 98.88 CE2 98.14 CZ 97.15 OH 91.21
B LYS H 20 -64.7 -42.6 N 98.56 CA 96.63 C 93.49 O 96.42 CB 99.62 CG 101.34 CD 104.84 CE 111.4 NZ 116.54
B ALA H 0 -74.5 -41.5 N 91.54 CA 93.15 C 94.05 O 99.28 CB 94.13
B TYR H 25 -54.5 -49.8 N 93.93 CA 92.67 C 91.49 O 97.35 CB 91.66 CG 87.62 CD1 89.46 CD2 84.8 CE1 93.35 CE2 89.8 CZ 93.99 OH 97.82
B ARG H 72 -67.9 -37.0 N 88.31 CA 84.18 C 80.29 O 81.66 CB 83.88 CG 85.55 CD 88.94 NE 93.42 CZ 95.79 NH1 96.97 NH2 98.77
B LEU H 3 -62.6 -59.8 N 79.32 CA 84.98 C 86.93 O 91.38 CB 86.91 CG 86.99 CD1 87.8 CD2 88.18
B LEU H 2 -59.7 -27.4 N 90.36 CA 94.06 C 98.27 O 98.94 CB 98.03 CG 98.42 CD1 100.72 CD2 98.88
B LYS H 107 -70.7 -45.2 N 102.5 CA 105.68 C 107.88 O 112.5 CB 108.52 CG 109.4 CD 103.05 CE 100.56 NZ 99.87
B GLY T 61 -76.2 7.3 N 106.68 CA 108.4 C 107.2 O 107.57
B HIS S 85 -137.1 152.3 N 108.35 CA 113.77 C 118.27 O 119.66 CB 113.94 CG 116.59 ND1 117.99 CD2 122.54 CE1 119.28 NE2 126.59
B SER - 101 -69.6 112.6 N 122.87 CA 125.95 C 122.83 O 119.78 CB 128.73 OG 138.46
B CYS - 21 -107.8 119.7 N 122.72 CA 119.78 C 109.3 O 102.02 CB 122.16 SG 122.17
B THR - 93 -131.9 7.9 N 107.06 CA 107.42 C 102.58 O 106.28 CB 110.05 OG1 108.73 CG2 110.74
B THR S 27 -113.4 154.7 N 94.78 CA 93.02 C 92.78 O 97.93 CB 93.07 OG1 99.78 CG2 92.35
B PRO H 37 -61.0 -52.7 N 95.72 CA 99.66 C 106.95 O 107.27 CB 97.11 CG 97.0 CD 98.13
B GLN H 60 -48.8 -39.3 N 111.61 CA 107.98 C 98.27 O 101.25 CB 114.66 CG 122.41 CD 130.34 OE1 126.01 NE2 134.63
B CYS H 0 -75.5 -42.8 N 92.38 CA 96.48 C 95.52 O 94.71 CB 100.41 SG 109.41
B LYS H 29 -63.5 -38.4 N 96.65 CA 96.45 C 92.21 O 90.05 CB 100.58 CG 104.94 CD 106.13 CE 109.15 NZ 111.9
B TYR H 15 -64.5 -49.8 N 87.99 CA 87.18 C 87.27 O 90.22 CB 85.35 CG 83.21 CD1 82.04 CD2 84.39 CE1 84.72 CE2 84.28 CZ 84.41 OH 88.67
B LEU H 2 -58.1 -42.0 N 84.28 CA 82.82 C 82.71 O 81.17 CB 84.76 CG 88.05 CD1 90.45 CD2 88.95
B LEU H 6 -65.4 -45.8 N 85.27 CA 88.9 C 88.28 O 87.02 CB 90.47 CG 90.39 CD1 89.51 CD2 92.44
B ALA H 0 -57.4 -40.1 N 84.47 CA 85.07 C 86.44 O 83.76 CB 84.35
B LYS H 30 -63.2 -48.6 N 87.29 CA 86.48 C 86.25 O 91.07 CB 86.96 CG 88.1 CD 92.46 CE 96.52 NZ 98.67
B CYS H 0 -57.2 -37.7 N 83.63 CA 85.67 C 87.64 O 83.34 CB 85.72 SG 81.21
B CYS H 0 -60.4 -52.3 N 88.78 CA 86.69 C 83.41 O 76.57 CB 85.64 SG 86.64
B VAL H 19 -63.1 -44.5 N 82.91 CA 84.58 C 83.7 O 81.48 CB 85.81 CG1 88.61 CG2 86.1
B ASP H 73 -55.0 -39.1 N 79.28 CA 77.4 C 74.97 O 69.48 CB 80.81 CG 86.39 OD1 86.42 OD2 89.64
B LEU T 57 -83.8 3.9 N 74.43 CA 73.75 C 78.49 O 79.72 CB 70.8 CG 68.43 CD1 69.91 CD2 70.72
B SER T 104 60.9 40.2 N 81.92 CA 82.96 C 82.83 O 83.41 CB 85.03 OG 87.82
B LYS - 90 -109.8 71.3 N 83.13 CA 80.87 C 80.26 O 76.16 CB 80.83 CG 82.04 CD 81.18 CE 82.63 NZ 82.67
B LEU H 45 -71.2 -35.8 N 83.0 CA 85.64 C 85.35 O 83.57 CB 86.17 CG 87.86 CD1 86.81 CD2 91.43
B ALA H 56 -60.7 -51.9 N 84.2 CA 81.36 C 84.18 O 82.5 CB 80.89
B GLU H 35 -51.6 -54.8 N 88.19 CA 87.46 C 85.99 O 87.75 CB 89.67 CG 92.92 CD 91.83 OE1 90.51 OE2 91.25
B GLY H 1 -54.2 -41.3 N 83.12 CA 85.43 C 86.15 O 87.22
B GLU H 24 -65.2 -54.2 N 86.07 CA 86.71 C 88.97 O 89.09 CB 90.25 CG 94.75 CD 94.15 OE1 82.88 OE2 99.62
B GLN H 125 -55.8 -25.6 N 94.81 CA 102.23 C 96.49 O 99.82 CB 108.63 CG 109.81 CD 110.54 OE1 106.08 NE2 111.59
B ILE H 33 -76.5 -53.2 N 94.78 CA 95.65 C 93.72 O 94.32 CB 96.76 CG1 102.25 CG2 96.24 CD1 107.22
B LEU H 1 -69.9 -43.9 N 95.38 CA 99.65 C 112.04 O 125.09 CB 97.06 CG 94.08 CD1 90.75 CD2 94.86
B SER H 3 -78.0 -33.4 N 115.57 CA 110.7 C 108.73 O 104.15 CB 110.62 OG 117.04
B GLY B 20 -52.9 115.7 N 114.88 CA 113.14 C 111.39 O 117.36
B GLY - 26 -80.1 -171.3 N 109.3 CA 110.01 C 108.45 O 113.63
B VAL S 97 -64.9 -47.7 N 106.08 CA 107.86 C 117.78 O 122.67 CB 102.92
B PHE S 185 -97.9 -63.9 N 121.06 CA 119.73 C 106.12 O 121.59 CB 125.63 CG 128.61 CD1 125.48 CD2 129.23 CE1 120.88 CE2 127.07 CZ 123.83
B ASN S 143 -147.4 -8.9 N 90.23 CA 87.12 C 98.28 O 124.65 CB 40.0 CG 40.0 OD1 40.0 ND2 40.0
B LYS - 123 -47.3 125.6 N 96.25 CA 95.64 C 94.1 O 92.67 CB 102.44 CG 107.44 CD 105.17
B GLN B 96 -72.5 130.3 N 92.81 CA 96.13 C 93.88 O 98.16 CB 101.56 CG 105.7 CD 110.27 OE1 113.19 NE2 114.24
B LYS - 53 -74.3 145.7 N 95.8 CA 97.23 C 97.65 O 92.51 CB 102.0 CG 109.34 CD 115.41 CE 121.64 NZ 124.12
B SER - 62 -67.0 160.6 N 101.87 CA 109.28 C 115.66 O 123.24 CB 111.81 OG 124.94
B HIS H 45 -56.3 -40.9 N 113.98 CA 112.04 C 118.21 O 121.47 CB 112.32 CG 115.47 ND1 118.87 CD2 117.21 CE1 120.92 NE2 121.7
B ASP H 109 -71.2 -35.6 N 121.52 CA 118.93 C 112.93 O 111.96 CB 123.17 CG 125.9 OD1 123.28 OD2 128.89
B ASP H 87 -61.3 -38.0 N 111.77 CA 116.02 C 109.2 O 102.09 CB 124.93 CG 127.58 OD1 131.1 OD2 125.21
B ILE H 3 -66.0 -55.0 N 105.49 CA 101.05 C 99.3 O 98.44 CB 96.65 CG1 95.97 CG2 97.0 CD1 95.54
B VAL H 38 -47.9 -47.7 N 97.78 CA 97.16 C 98.75 O 105.3 CB 95.25 CG1 93.38 CG2 95.24
B THR H 114 -52.3 -58.6 N 98.65 CA 100.68 C 101.11 O 102.27 CB 98.01 OG1 101.09 CG2 94.29
B GLU H 54 -61.7 -49.6 N 99.09 CA 98.53 C 102.0 O 111.17 CB 98.97 CG 100.38 CD 98.52 OE1 99.5 OE2 95.72
B PHE H 7 -89.3 -16.8 N 100.28 CA 94.58 C 96.83 O 98.22 CB 90.04 CG 85.51 CD1 82.44 CD2 85.74 CE1 80.15 CE2 82.9 CZ 81.34
B GLY G 34 60.1 -111.6 N 97.93 CA 99.46 C 98.66 O 98.08
B ASP G 137 -72.3 -28.2 N 105.59 CA 113.18 C 108.91 O 110.55 CB 118.49 CG 121.62 OD1 128.59 OD2 121.11
B SER G 19 -74.4 -5.5 N 101.44 CA 97.4 C 98.55 O 99.0 CB 95.25 OG 94.27
B ALA H 0 -56.3 -44.7 N 102.17 CA 100.15 C 96.6 O 97.78 CB 103.9
B CYS H 4 -57.4 -42.4 N 95.44 CA 94.67 C 89.76 O 87.13 CB 97.13 SG 98.77
B PHE H 2 -75.4 -40.5 N 87.0 CA 83.53 C 82.41 O 84.46 CB 81.34 CG 77.11 CD1 76.21 CD2 72.54 CE1 77.79 CE2 72.3 CZ 77.12
B THR H 1 -63.9 -40.5 N 82.29 CA 84.61 C 80.81 O 77.15 CB 89.68 OG1 93.24 CG2 91.71
B LEU H 0 -69.7 -45.3 N 84.43 CA 85.97 C 84.05 O 87.47 CB 86.44 CG 89.81 CD1 91.06 CD2 90.81
B SER H 21 -50.5 -48.2 N 84.23 CA 79.16 C 76.07 O 76.77 CB 80.81 OG 84.58
B LEU H 14 -64.4 -39.1 N 75.51 CA 78.42 C 79.04 O 81.53 CB 78.63 CG 78.01 CD1 77.47 CD2 80.62
B LEU H 2 -61.0 -48.7 N 76.83 CA 77.68 C 77.76 O 80.36 CB 81.86 CG 87.2 CD1 91.22 CD2 88.83
B GLY H 0 -53.7 -45.9 N 78.75 CA 81.91 C 86.0 O 87.54
B HIS H 69 -55.0 -50.0 N 84.38 CA 82.05 C 76.2 O 76.21 CB 82.64 CG 85.11 ND1 84.77 CD2 85.49 CE1 84.45 NE2 85.36
B VAL H 0 -56.3 -52.3 N 70.35 CA 70.71 C 72.85 O 75.87 CB 70.31 CG1 71.96 CG2 71.19
B TYR H 10 -55.5 -44.3 N 77.23 CA 77.14 C 76.7 O 76.11 CB 78.97 CG 81.68 CD1 86.5 CD2 81.19 CE1 89.36 CE2 82.99 CZ 86.73 OH 85.5
B CYS H 17 -69.5 -27.6 N 79.0 CA 81.3 C 82.6 O 81.32 CB 84.58 SG 91.08
B LYS H 111 -87.2 -35.1 N 86.9 CA 91.43 C 93.76 O 96.28 CB 92.48 CG 100.4 CD 106.95 CE 111.22 NZ 112.1
B THR T 34 -72.9 -174.5 N 91.28 CA 90.54 C 99.53 O 115.28 CB 83.13 OG1 89.41 CG2 78.82
B ASP T 159 -91.5 23.4 N 95.44 CA 94.21 C 91.12 O 97.32 CB 99.12 CG 104.65 OD1 109.29 OD2 113.53
B ARG - 74 -117.4 81.7 N 85.75 CA 83.91 C 83.26 O 84.09 CB 82.6 CG 84.48 CD 84.13 NE 84.44 CZ 84.73 NH1 84.85 NH2 85.17
B LEU H 71 -69.1 -42.2 N 83.77 CA 85.45 C 89.31 O 90.7 CB 86.91 CG 87.69 CD1 87.26 CD2 92.12
B ALA H 73 -58.6 -50.8 N 94.34 CA 89.25 C 87.43 O 88.33 CB 90.67
B LYS H 76 -62.8 -33.1 N 87.42 CA 88.02 C 85.01 O 82.57 CB 92.03 CG 103.88 CD 111.11 CE 116.15 NZ 125.51
B GLY H 0 -60.5 -58.3 N 83.27 CA 84.99 C 85.68 O 85.58
B SER H 2 -63.8 -30.1 N 85.71 CA 85.24 C 86.51 O 90.5 CB 85.85 OG 92.67
B GLU H 107 -64.9 -41.6 N 91.28 CA 97.49 C 92.38 O 91.94 CB 109.05 CG 121.86 CD 134.81 OE1 137.19 OE2 147.35
B CYS H 1 -64.6 -43.8 N 88.93 CA 89.0 C 90.88 O 94.37 CB 87.2 SG 88.14
B TYR H 6 -59.7 -47.0 N 87.49 CA 82.64 C 84.73 O 88.08 CB 79.68 CG 80.21 CD1 82.02 CD2 81.81 CE1 83.0 CE2 82.21 CZ 82.94 OH 84.05
B GLN H 98 -58.9 -38.7 N 88.69 CA 92.63 C 91.92 O 90.79 CB 98.7 CG 105.98 CD 111.47 OE1 122.79 NE2 111.45
B LYS H 56 -66.9 -42.3 N 88.82 CA 88.39 C 84.67 O 86.92 CB 93.68 CG 96.67 CD 102.03 CE 106.36 NZ 110.01
B SER H 0 -56.6 -39.7 N 83.89 CA 83.15 C 82.14 O 81.46 CB 85.41 OG 88.89
B LEU H 4 -72.6 -40.9 N 83.39 CA 85.63 C 95.16 O 97.85 CB 83.01 CG 85.89 CD1 85.29 CD2 88.58
B SER H 90 -70.3 -17.0 N 100.0 CA 98.97 C 95.85 O 103.0 CB 98.46 OG 100.91
B LEU H 63 -90.6 -18.2 N 91.11 CA 91.27 C 95.58 O 99.86 CB 91.5 CG 93.0 CD1 92.73 CD2 97.09
B ASN - 11 -167.0 87.0 N 93.14 CA 88.64 C 86.51 O 89.34 CB 89.34 CG 93.49 OD1 90.3 ND2 98.36
B PRO T 18 -74.6 0.6 N 87.17 CA 89.36 C 91.49 O 87.95 CB 89.83 CG 89.52 CD 88.1
B PHE T 38 -76.9 -18.9 N 93.72 CA 96.48 C 92.13 O 89.63 CB 103.82 CG 111.12 CD1 108.77 CD2 114.37 CE1 110.92 CE2 114.87 CZ 115.67
B LEU - 0 -75.6 130.7 N 86.85 CA 81.68 C 80.78 O 79.77 CB 78.93 CG 79.48 CD1 80.48 CD2 76.99
B TRP - 1 -99.1 -28.1 N 80.26 CA 75.88 C 75.4 O 75.55 CB 76.34 CG 75.44 CD1 77.41 CD2 77.7 NE1 80.28 CE2 82.38 CE3 77.54 CZ2 83.48 CZ3 78.38 CH2 80.12
B SER H 15 -64.9 -40.3 N 77.92 CA 80.68 C 78.35 O 82.11 CB 81.38 OG 80.62
B PRO H 0 -61.3 -44.7 N 76.62 CA 75.24 C 76.34 O 78.71 CB 74.83 CG 77.57 CD 79.28
B PHE H 0 -61.2 -40.8 N 76.35 CA 77.47 C 75.54 O 73.24 CB 79.59 CG 79.99 CD1 78.45 CD2 80.03 CE1 79.11 CE2 82.94 CZ 80.97
B GLU H 17 -58.2 -48.5 N 77.47 CA 80.94 C 78.55 O 75.07 CB 85.45 CG 87.31 CD 91.98 OE1 90.26 OE2 93.7
B SER H 30 -63.6 -48.5 N 79.3 CA 78.39 C 77.61 O 80.86 CB 78.08 OG 79.03
B LEU H 1 -47.0 -49.3 N 76.86 CA 75.56 C 77.32 O 77.79 CB 74.05 CG 73.51 CD1 76.79 CD2 73.06
B CYS H 3 -60.9 -45.6 N 78.55 CA 81.16 C 82.83 O 92.03 CB 81.23 SG 83.57
B GLU H 85 -70.9 -30.7 N 84.16 CA 85.71 C 84.1 O 84.81 CB 89.05 CG 91.86 CD 98.49 OE1 102.54 OE2 106.54
B ILE T 40 -90.6 13.7 N 83.85 CA 82.85 C 85.5 O 89.53 CB 81.04 CG1 79.21 CG2 86.04 CD1 80.71
B GLY T 37 102.6 -22.6 N 89.48 CA 91.68 C 92.72 O 94.93
B GLU - 85 -71.4 162.4 N 97.89 CA 102.14 C 101.58 O 103.67 CB 107.12 CG 113.44 CD 118.42 OE1 120.25 OE2 121.17
B LYS - 109 -129.0 75.3 N 98.44 CA 95.37 C 94.66 O 94.81 CB 91.22 CG 91.54 CD 89.88
B PRO - 15 -73.4 160.3 N 96.99 CA 98.46 C 99.57 O 104.66 CB 95.92 CG 95.25 CD 95.69
B ASP - 79 -100.0 102.4 N 101.1 CA 105.42 C 100.79 O 99.61 CB 109.37 CG 112.45 OD1 116.11 OD2 117.51
B PRO H 10 -43.6 -47.9 N 95.66 CA 95.4 C 98.46 O 97.6 CB 95.32 CG 93.97 CD 95.32
B ASP H 102 -55.9 -34.3 N 101.44 CA 103.37 C 102.85 O 102.53 CB 107.75 CG 108.92 OD1 105.39 OD2 107.75
B GLN H 118 -96.1 -21.3 N 105.08 CA 108.86 C 107.83 O 109.66 CB 112.37 CG 118.82 CD 121.24 OE1 117.71 NE2 118.95
B THR H 23 -74.5 -42.2 N 104.88 CA 99.27 C 97.61 O 99.01 CB 99.57 OG1 104.78 CG2 97.91
B PHE S 0 -107.6 77.8 N 95.63 CA 101.02 C 106.93 O 101.95 CB 100.67 CG 101.11 CD1 103.86 CD2 95.26 CE1 98.08 CE2 90.26 CZ 91.47
B LYS - 88 -154.7 98.7 N 111.08 CA 118.02 C 131.42 O 149.87 CB 120.47 CG 127.8 CD 130.84 CE 133.06 NZ 134.26
B PHE - 120 -43.5 135.2 N 137.26 CA 145.22 C 152.16 O 150.1 CB 140.0 CG 140.0 CD1 140.0 CD2 140.0 CE1 140.0 CE2 140.0 CZ 140.0
B THR - 145 -129.7 360.0 N 154.92 CA 154.66 C 152.34 O 154.46 CB 145.27
B GLN - 86 360.0 -57.6 N 137.97 CA 141.26 C 146.37 O 150.72 CB 137.45
B LYS H 76 -66.6 -21.7 N 147.72 CA 140.87 C 144.38 O 146.14 CB 130.45
B ALA H 83 -71.9 -56.9 N 152.3 CA 156.59 C 159.13 O 166.65 CB 152.76
B ALA H 44 -74.3 -19.5 N 155.46 CA 150.73 C 146.7 O 148.22 CB 151.12
B ALA H 14 -72.7 -45.9 N 141.63 CA 133.68 C 126.97 O 123.65 CB 133.9
B GLU H 76 -69.0 -20.0 N 125.44 CA 128.5 C 119.14 O 113.82 CB 137.18 CG 145.09 CD 149.31 OE1 150.96 OE2 152.11
B GLY H 24 -63.1 -53.9 N 113.32 CA 110.96 C 109.97 O 110.8
B LEU H 18 -62.9 -47.1 N 109.0 CA 103.98 C 100.12 O 103.28 CB 97.87
B MET H 2 -55.7 -56.1 N 95.28 CA 95.28 C 96.35 O 97.32 CB 95.53 CG 96.14 SD 98.03 CE 101.95
B SER H 52 -57.5 -32.5 N 97.52 CA 100.56 C 97.39 O 99.8 CB 104.83 OG 116.01
B LEU H 12 -72.0 -49.4 N 97.16 CA 95.34 C 93.76 O 97.35 CB 94.87 CG 95.95 CD1 93.33 CD2 97.91
B LEU H 4 -57.1 -46.8 N 91.87 CA 88.7 C 94.31 O 101.9 CB 81.91 CG 80.03 CD1 81.79 CD2 77.15
B ARG H 44 -48.8 -53.8 N 94.88 CA 94.05 C 94.74 O 96.48 CB 95.73 CG 100.72 CD 104.55 NE 104.66 CZ 105.66 NH1 104.79 NH2 106.81
B GLU H 79 -60.3 -41.3 N 94.99 CA 96.95 C 93.28 O 94.38 CB 105.3 CG 115.11 CD 127.53 OE1 136.36 OE2 131.15
B MET H 0 -66.9 -45.5 N 90.25 CA 87.91 C 87.57 O 84.28 CB 87.72 CG 92.0 SD 91.6 CE 93.65
B GLY H 0 -63.3 -39.1 N 84.69 CA 81.22 C 80.16 O 72.31
B LYS H 34 -62.2 -29.6 N 81.17 CA 80.08 C 77.97 O 77.75 CB 74.04
B GLY H 1 -79.1 -44.6 N 76.72 CA 80.58 C 80.78 O 78.9
B TYR H 24 -63.6 -41.6 N 78.41 CA 78.05 C 79.64 O 78.34 CB 78.09 CG 74.77 CD1 70.36 CD2 75.84 CE1 71.94 CE2 73.81 CZ 73.34 OH 74.08
B LEU H 29 -58.3 -41.6 N 81.27 CA 81.0 C 80.04 O 82.25 CB 83.26 CG 83.39 CD1 83.1 CD2 85.67
B ALA H 3 -57.4 -53.3 N 79.32 CA 81.91 C 81.72 O 82.91 CB 83.25
B LEU H 9 -57.4 -39.8 N 85.68 CA 85.15 C 81.22 O 85.88 CB 88.53 CG 92.59 CD1 93.39 CD2 97.35
B CYS H 14 -68.0 -40.3 N 77.34 CA 78.35 C 78.61 O 80.95 CB 79.76 SG 81.93
B SER T 38 -75.4 1.1 N 79.87 CA 81.75 C 80.37 O 82.02 CB 84.95 OG 85.84
B TYR T 29 63.4 27.4 N 80.91 CA 83.68 C 86.17 O 88.16 CB 82.82 CG 83.01 CD1 85.64 CD2 85.71 CE1 90.54 CE2 89.12 CZ 90.95 OH 91.01
B ASN - 77 -95.9 81.2 N 91.28 CA 96.63 C 96.83 O 96.81 CB 97.45 CG 96.25 OD1 98.18 ND2 96.12
B CYS H 6 -74.9 -43.1 N 94.52 CA 95.34 C 95.71 O 90.99 CB 97.76 SG 102.81
B LYS H 61 -57.9 -37.9 N 98.37 CA 93.42 C 88.97 O 94.29 CB 88.82
B GLU H 102 -69.8 -41.8 N 89.43 CA 98.89 C 97.44 O 93.56 CB 107.63 CG 110.69 CD 113.82 OE1 116.31 OE2 116.92
B ALA H 4 -60.9 -43.8 N 100.82 CA 95.84 C 90.28 O 91.27 CB 95.28
B ILE H 10 -63.5 -44.8 N 86.81 CA 84.3 C 89.21 O 93.56 CB 78.1 CG1 76.09 CG2 78.68 CD1 74.34
B ASN H 97 -63.2 -49.3 N 94.07 CA 98.68 C 95.95 O 98.26 CB 103.37 CG 113.81 OD1 117.36 ND2 121.94
B ILE H 36 -75.9 -24.3 N 94.82 CA 100.7 C 98.46 O 106.39 CB 105.23 CG1 101.27 CG2 111.02 CD1 102.15
B LEU H 2 -105.9 5.0 N 93.18 CA 91.8 C 87.89 O 91.1 CB 88.78 CG 86.14 CD1 87.49 CD2 84.25
B SER S 52 -90.3 -0.4 N 86.66 CA 89.99 C 91.58 O 85.65 CB 86.77 OG 83.87
B HIS S 153 -83.7 -2.8 N 92.97 CA 96.09 C 95.98 O 100.3 CB 104.03 CG 111.04 ND1 112.97 CD2 116.16 CE1 116.55 NE2 118.4
B LEU S 12 -73.0 149.5 N 98.82 CA 94.13 C 93.64 O 91.3 CB 90.58 CG 91.14 CD1 94.46 CD2 91.75
B PRO - 57 -55.4 138.9 N 86.84 CA 86.62 C 91.09 O 97.58 CB 83.86 CG 85.58 CD 86.88
B SER H 84 -62.1 -27.7 N 93.52 CA 94.18 C 89.48 O 88.77 CB 99.62 OG 114.26
B HIS H 81 -73.7 -9.2 N 87.82 CA 86.11 C 81.99 O 81.83 CB 89.83 CG 89.04 ND1 91.96 CD2 89.21 CE1 91.57 NE2 89.87
B HIS H 0 -110.3 -18.3 N 78.28 CA 74.77 C 71.9 O 74.31 CB 72.74 CG 73.57 ND1 78.07 CD2 74.03 CE1 76.19 NE2 75.57
B TYR H 59 -70.6 -40.2 N 70.6 CA 73.25 C 75.66 O 75.36 CB 71.0 CG 70.03 CD1 66.23 CD2 71.74 CE1 67.93 CE2 70.09 CZ 69.93 OH 80.47
B ASN T 76 -85.5 19.4 N 78.96 CA 79.43 C 81.11 O 84.14 CB 78.6 CG 78.5 OD1 85.7 ND2 82.23
B THR S 14 -79.1 155.6 N 79.45 CA 81.18 C 76.87 O 79.87 CB 88.36 OG1 107.76 CG2 93.11
B GLY H 0 -70.1 -31.9 N 71.01 CA 67.48 C 68.23 O 67.88
B TRP H 12 -66.4 -52.3 N 72.22 CA 72.99 C 72.66 O 74.71 CB 76.53 CG 75.93 CD1 75.52 CD2 78.46 NE1 79.94 CE2 80.84 CE3 77.99 CZ2 81.75 CZ3 78.02 CH2 79.33
B VAL H 0 -55.0 -51.4 N 72.78 CA 71.51 C 70.38 O 68.97 CB 70.1 CG1 70.69 CG2 70.93
B LEU H 5 -58.0 -36.9 N 70.21 CA 73.21 C 74.05 O 73.82 CB 75.01 CG 76.16 CD1 79.15 CD2 76.56
B CYS H 5 -61.7 -47.1 N 77.68 CA 80.86 C 80.82 O 86.62 CB 85.46 SG 103.75
B GLN H 24 -59.9 -39.0 N 77.32 CA 75.61 C 77.73 O 76.24 CB 77.1 CG 78.84 CD 78.22 OE1 78.55 NE2 78.93
B ILE H 0 -65.3 -46.8 N 77.84 CA 74.57 C 73.31 O 75.4 CB 73.37 CG1 73.94 CG2 71.33 CD1 76.41
B GLY H 0 -59.8 -39.0 N 74.1 CA 76.74 C 76.41 O 73.37
B ARG H 65 -61.0 -52.9 N 75.86 CA 78.53 C 76.02 O 74.43 CB 87.11 CG 96.93 CD 104.5 NE 110.82 CZ 116.89 NH1 121.07 NH2 121.38
B ALA H 1 -52.9 -60.2 N 76.05 CA 73.41 C 70.8 O 72.02 CB 73.99
B TYR H 47 -51.0 -25.2 N 69.48 CA 75.33 C 77.18 O 84.94 CB 80.72 CG 82.34 CD1 86.47 CD2 84.21 CE1 91.39 CE2 86.0 CZ 87.84 OH 87.67
B PHE H 5 -76.2 -38.1 N 77.74 CA 77.15 C 79.02 O 80.69 CB 75.37 CG 69.29 CD1 67.44 CD2 66.73 CE1 67.21 CE2 66.25 CZ 66.56
B GLU H 2 -70.9 -29.1 N 81.05 CA 90.31 C 93.63 O 97.25 CB 93.17 CG 94.52 CD 95.4 OE1 101.22 OE2 94.53
B LEU S 30 -75.1 154.3 N 91.76 CA 89.08 C 89.56 O 104.23 CB 85.6 CG 88.92 CD1 89.94 CD2 91.53
B SER S 29 -73.7 8.0 N 88.12 CA 95.63 C 95.59 O 96.25 CB 104.46 OG 112.37
B GLU - 106 -75.1 80.0 N 95.14 CA 96.35 C 88.82 O 83.04 CB 100.29 CG 105.16 CD 109.05 OE1 107.15 OE2 116.99
B TYR H 16 -72.4 -40.0 N 86.5 CA 86.14 C 86.61 O 82.65 CB 86.64 CG 90.03 CD1 96.77 CD2 93.41 CE1 100.77 CE2 97.94 CZ 100.13 OH 99.02
B MET H 137 -69.8 -33.9 N 94.19 CA 93.25 C 88.39 O 85.57 CB 96.28 CG 102.0 SD 113.67 CE 111.28
B GLN H 79 -70.5 -32.9 N 87.5 CA 91.3 C 86.19 O 82.67 CB 100.64 CG 106.91 CD 115.87 OE1 115.7 NE2 118.87
B ALA H 0 -64.4 -50.3 N 86.19 CA 85.21 C 86.2 O 85.98 CB 84.39
B GLU H 41 -66.1 -26.2 N 86.71 CA 86.75 C 88.66 O 99.02 CB 86.64 CG 91.52 CD 96.19 OE1 92.04 OE2 110.54
B ARG H 153 -57.3 -54.7 N 87.83 CA 88.21 C 85.45 O 87.89 CB 99.93 CG 109.98 CD 123.36 NE 129.45 CZ 130.52 NH1 128.57 NH2 132.13
B ILE H 11 -65.8 -45.9 N 81.56 CA 81.62 C 79.12 O 80.14 CB 86.13 CG1 89.52 CG2 87.94 CD1 94.9
B PHE H 1 -59.5 -56.3 N 74.9 CA 75.66 C 79.6 O 79.66 CB 73.27 CG 70.12 CD1 68.06 CD2 70.56 CE1 67.91 CE2 68.46 CZ 67.57
B SER H 61 -43.0 -41.2 N 81.2 CA 78.33 C 76.79 O 77.67 CB 79.16 OG 86.34
B GLU H 46 -65.9 -50.4 N 76.23 CA 81.18 C 79.95 O 83.72 CB 87.03 CG 87.2 CD 89.99 OE1 89.25 OE2 88.81
B VAL H 0 -52.4 -35.3 N 82.39 CA 79.9 C 78.1 O 76.97 CB 81.22 CG1 84.47 CG2 85.82
B ARG H 33 -65.1 -39.5 N 78.42 CA 79.1 C 81.25 O 86.09 CB 81.43 CG 82.12 CD 80.0 NE 74.65 CZ 72.47 NH1 75.74 NH2 69.19
B ARG H 165 -68.1 -52.9 N 82.18 CA 82.06 C 82.0 O 88.05 CB 84.34 CG 87.82 CD 91.22 NE 87.43 CZ 88.07 NH1 92.37 NH2 89.36
B ILE H 52 -54.2 -52.1 N 84.83 CA 85.49 C 84.15 O 89.43 CB 89.11 CG1 91.85 CG2 93.44 CD1 95.3
B GLU T 10 -135.3 61.5 N 83.05 CA 81.34 C 81.27 O 82.47 CB 85.47 CG 94.89 CD 104.02 OE1 101.3 OE2 105.19
B ASN T 62 -54.7 -14.2 N 80.07 CA 77.42 C 74.88 O 70.53 CB 80.4 CG 81.66 OD1 87.41 ND2 80.87
B TYR T 11 -85.9 -10.3 N 74.46 CA 72.73 C 76.26 O 76.01 CB 69.25 CG 67.04 CD1 64.25 CD2 67.65 CE1 61.31 CE2 68.22 CZ 63.22 OH 62.03
B ARG - 11 -80.8 124.2 N 77.54 CA 74.68 C 72.95 O 72.79 CB 74.81 CG 74.65 CD 74.39 NE 73.41 CZ 72.63 NH1 75.82 NH2 73.99
B VAL - 3 -106.2 -35.4 N 72.29 CA 73.35 C 81.97 O 82.05 CB 73.76 CG1 73.96 CG2 73.0
B GLU T 62 -46.5 113.3 N 89.91 CA 91.04 C 88.68 O 87.59 CB 99.32 CG 104.77 CD 106.85 OE1 98.63 OE2 110.74
B GLY T 18 97.3 -18.0 N 87.15 CA 85.84 C 83.02 O 82.94
B MET H 0 -70.1 -12.0 N 75.87 CA 74.64 C 73.44 O 76.14 CB 76.59 CG 78.26 SD 78.19 CE 80.03
B GLU H 24 -63.4 -40.2 N 72.15 CA 74.81 C 77.72 O 82.05 CB 78.07 CG 81.66 CD 83.99 OE1 93.38 OE2 89.8
B ILE H 4 -86.6 -14.8 N 80.78 CA 79.49 C 78.23 O 82.49 CB 76.81 CG1 78.68 CG2 75.1 CD1 84.7
B TYR H 21 -66.7 -38.1 N 79.35 CA 80.02 C 79.76 O 83.7 CB 80.1 CG 79.18 CD1 79.96 CD2 78.97 CE1 79.65 CE2 78.19 CZ 76.25 OH 75.52
B SER H 0 -66.6 -47.9 N 77.68 CA 78.61 C 77.48 O 80.33 CB 80.01 OG 85.78
B THR H 6 -62.4 -28.8 N 75.84 CA 74.09 C 72.94 O 75.49 CB 75.95 OG1 79.26 CG2 78.51
B THR H 0 -67.1 -51.1 N 72.18 CA 70.01 C 72.14 O 74.5 CB 69.5 OG1 68.5 CG2 72.18
B LEU H 1 -64.4 -11.0 N 75.51 CA 80.47 C 82.55 O 87.84 CB 82.18 CG 82.49 CD1 86.61 CD2 84.13
B TRP H 10 -84.9 -49.9 N 83.63 CA 85.46 C 85.93 O 88.42 CB 86.14 CG 87.83 CD1 88.45 CD2 85.87 NE1 87.35 CE2 85.63 CE3 86.49 CZ2 86.1 CZ3 86.75 CH2 86.78
B HIS H 10 -57.6 -59.3 N 86.36 CA 89.71 C 89.44 O 96.26 CB 90.21 CG 87.22 ND1 88.21 CD2 84.03 CE1 86.13 NE2 84.26
B LEU T 26 -60.5 128.3 N 84.26 CA 83.31 C 90.9 O 109.33 CB 81.23 CG 82.1 CD1 83.24 CD2 82.49
B GLN T 101 -89.8 75.2 N 87.71 CA 91.38 C 95.87 O 110.15 CB 90.45 CG 89.56 CD 92.57 OE1 94.41 NE2 94.74
B LYS - 69 -111.9 75.0 N 95.14 CA 101.12 C 103.96 O 108.25 CB 101.02 CG 99.07 CD 100.79 CE 107.16 NZ 111.61
B ASP H 83 -59.4 -32.1 N 106.58 CA 109.85 C 107.03 O 107.49 CB 111.25 CG 111.85 OD1 115.59 OD2 115.59
B VAL H 107 -57.5 -51.7 N 104.97 CA 105.81 C 101.19 O 100.27 CB 110.04 CG1 112.01 CG2 104.02
B ALA H 30 -76.3 -40.9 N 96.92 CA 93.73 C 91.23 O 83.67 CB 92.54
B LEU H 0 -64.4 -27.2 N 92.23 CA 86.58 C 84.72 O 75.59 CB 80.91 CG 79.69 CD1 82.08 CD2 80.42
B SER H 54 -72.2 -47.1 N 88.91 CA 90.5 C 87.33 O 84.02 CB 93.98 OG 106.44
B VAL H 91 -53.7 -45.1 N 86.45 CA 82.66 C 77.55 O 75.88 CB 80.74 CG1 83.05 CG2 80.9
B LEU H 4 -68.3 -39.7 N 75.64 CA 72.29 C 77.25 O 74.26 CB 68.02 CG 65.67 CD1 67.11 CD2 63.84
B SER H 10 -78.3 -39.4 N 82.24 CA 81.79 C 80.61 O 86.95 CB 81.72 OG 91.15
B LYS H 51 -58.7 -41.9 N 83.9 CA 84.77 C 85.26 O 97.88 CB 78.27
B ASP H 63 -64.6 -53.6 N 84.95 CA 88.44 C 83.41 O 85.52 CB 100.27 CG 106.58 OD1 117.31 OD2 105.05
B LEU H 0 -70.5 -38.3 N 80.99 CA 78.49 C 81.45 O 81.5 CB 74.85 CG 75.83 CD1 77.16 CD2 76.0
B THR H 29 -63.2 -43.7 N 84.61 CA 83.28 C 91.85 O 104.99 CB 79.82 OG1 84.03 CG2 76.84
B ASP T 124 -100.7 6.1 N 94.35 CA 96.45 C 86.04 O 92.47 CB 101.63 CG 102.15 OD1 108.55 OD2 105.07
B MET T 18 -84.7 -39.9 N 78.15 CA 80.11 C 78.87 O 78.49 CB 80.95 CG 78.84 SD 81.93 CE 81.49
B ASP - 9 -151.6 92.8 N 77.64 CA 76.6 C 77.47 O 74.96 CB 75.39 CG 74.49 OD1 78.11 OD2 69.45
B LYS T 100 -64.4 -28.0 N 84.7 CA 86.74 C 86.07 O 87.07 CB 94.51 CG 104.34 CD 108.51 CE 107.22 NZ 112.32
B ASN T 100 -80.2 -2.1 N 87.07 CA 86.72 C 81.03 O 84.56 CB 93.99 CG 100.2 OD1 108.85 ND2 105.39
B SER - 1 -93.6 130.2 N 78.31 CA 78.75 C 73.09 O 70.99 CB 79.45 OG 75.91
B PRO H 5 -68.1 -30.4 N 69.68 CA 72.1 C 71.75 O 69.87 CB 74.04 CG 75.97 CD 73.2
B GLU H 17 -57.4 -39.1 N 72.14 CA 73.66 C 72.39 O 71.48 CB 73.47 CG 78.41 CD 83.35 OE1 84.91 OE2 88.6
B ALA H 0 -60.6 -37.9 N 74.71 CA 75.86 C 77.82 O 81.8 CB 75.6
B TRP H 17 -83.6 -33.3 N 79.18 CA 76.18 C 76.99 O 85.69 CB 73.7 CG 72.51 CD1 72.68 CD2 70.93 NE1 74.33 CE2 72.03 CE3 71.52 CZ2 71.02 CZ3 70.85 CH2 71.7
B CYS H 0 -57.6 -42.4 N 74.97 CA 75.9 C 77.27 O 77.58 CB 75.14 SG 76.68
B ALA H 0 -63.0 -44.2 N 77.54 CA 78.27 C 79.85 O 86.41 CB 79.27
B ALA H 4 -71.4 -30.3 N 79.89 CA 81.97 C 79.07 O 73.65 CB 83.19
B GLY H 0 -61.1 -52.4 N 79.67 CA 81.77 C 81.03 O 80.24
B ASN H 4 -55.3 -40.9 N 79.12 CA 75.48 C 77.79 O 82.73 CB 71.66 CG 73.55 OD1 74.68 ND2 71.66
B CYS H 1 -55.8 -53.0 N 78.46 CA 80.92 C 81.77 O 89.39 CB 81.12 SG 86.11
B PHE H 56 -77.3 -18.9 N 83.97 CA 82.67 C 80.49 O 86.28 CB 81.0 CG 80.35 CD1 82.75 CD2 81.74 CE1 85.33 CE2 80.91 CZ 82.9
B SER H 0 -63.7 -41.4 N 80.51 CA 81.36 C 84.9 O 90.23 CB 78.94 OG 74.54
B LEU H 4 -66.0 -40.3 N 90.17 CA 93.58 C 96.31 O 102.19 CB 90.94 CG 92.21 CD1 95.06 CD2 92.94
B GLN T 68 -71.4 10.8 N 94.32 CA 96.32 C 102.76 O 108.6 CB 95.7 CG 100.23 CD 108.09 OE1 107.58 NE2 114.51
B ARG T 146 50.2 47.8 N 107.0 CA 112.09 C 107.73 O 113.69 CB 123.18 CG 129.92 CD 130.98 NE 134.55 CZ 139.49 NH1 141.27 NH2 140.78
B GLU - 88 -120.2 75.0 N 104.52 CA 102.41 C 103.04 O 102.64 CB 101.7 CG 107.09 CD 111.29 OE1 114.77 OE2 114.89
B HIS H 38 -66.3 -30.6 N 106.11 CA 111.07 C 105.53 O 109.07 CB 121.68 CG 144.33 ND1 153.29 CD2 158.02 CE1 154.22 NE2 161.96
B ASP H 137 -62.8 -48.4 N 106.99 CA 107.83 C 100.62 O 100.11 CB 112.84 CG 115.18 OD1 112.52 OD2 120.74
B ILE H 70 -71.8 -31.2 N 93.71 CA 88.77 C 84.19 O 80.61 CB 89.47 CG1 91.67 CG2 89.11 CD1 92.49
B ALA H 0 -67.2 -41.9 N 85.64 CA 83.91 C 80.9 O 83.39 CB 82.47
B ILE H 37 -70.7 -35.8 N 77.85 CA 79.53 C 76.92 O 74.13 CB 82.68 CG1 90.42 CG2 76.3 CD1 90.11
B LYS H 34 -55.1 -41.0 N 78.88 CA 82.5 C 84.7 O 87.15 CB 78.27
B PHE H 34 -77.1 -48.8 N 82.29 CA 78.81 C 78.96 O 81.14 CB 76.43 CG 76.36 CD1 76.65 CD2 76.61 CE1 74.33 CE2 74.84 CZ 73.94
B PHE H 0 -55.1 -35.5 N 76.71 CA 76.93 C 75.8 O 74.7 CB 78.78 CG 81.11 CD1 84.42 CD2 80.62 CE1 84.55 CE2 80.35 CZ 80.71
B GLN H 87 -67.6 -35.2 N 77.25 CA 79.45 C 82.11 O 89.02 CB 82.5 CG 80.42 CD 80.44 OE1 76.98 NE2 81.27
B ARG H 66 -65.2 -40.0 N 82.41 CA 85.58 C 81.3 O 84.08 CB 91.13 CG 96.87 CD 95.78 NE 99.73 CZ 103.95 NH1 103.13 NH2 111.73
B ALA H 0 -52.7 -48.2 N 76.79 CA 77.46 C 78.38 O 82.73 CB 79.73
B ILE H 30 -64.5 -43.3 N 74.37 CA 74.78 C 75.79 O 77.06 CB 78.99 CG1 80.37 CG2 81.52 CD1 80.94
B GLN H 74 -56.8 -45.2 N 78.26 CA 78.65 C 72.22 O 69.81 CB 82.84 CG 89.37 CD 99.66 OE1 101.34 NE2 103.37
B VAL H 28 -70.3 -39.6 N 71.53 CA 72.74 C 75.22 O 76.71 CB 75.1 CG1 79.0 CG2 74.93
B ASP - 54 -143.1 95.5 N 78.64 CA 74.15 C 70.98 O 69.08 CB 76.44 CG 80.65 OD1 84.25 OD2 83.29
B PRO T 66 -69.2 -9.0 N 69.64 CA 73.18 C 79.8 O 78.78 CB 73.27 CG 74.25 CD 71.65
B ASN T 104 -102.9 28.8 N 84.35 CA 85.22 C 84.39 O 89.64 CB 87.13 CG 91.86 OD1 90.22 ND2 96.33
B TYR - 31 -108.1 88.0 N 81.55 CA 80.97 C 83.27 O 79.38 CB 80.66 CG 79.64 CD1 82.2 CD2 80.83 CE1 85.59 CE2 81.61 CZ 83.2 OH 81.33
B ALA H 11 -53.4 -39.7 N 84.07 CA 78.18 C 73.69 O 70.16 CB 78.67
B TYR H 28 -63.6 -23.1 N 71.63 CA 72.7 C 71.0 O 72.91 CB 75.59 CG 77.12 CD1 78.03 CD2 76.29 CE1 82.79 CE2 79.59 CZ 83.65 OH 82.44
B ALA H 0 -73.8 -33.6 N 70.48 CA 71.32 C 68.93 O 66.28 CB 70.06
B TYR H 23 -63.1 -41.6 N 67.5 CA 69.0 C 70.24 O 72.69 CB 71.7 CG 73.03 CD1 74.27 CD2 73.51 CE1 74.23 CE2 74.28 CZ 74.75 OH 71.85
B THR H 1 -71.5 -35.6 N 72.28 CA 72.21 C 72.1 O 77.95 CB 70.87 OG1 79.35 CG2 71.7
B LEU H 11 -69.4 -34.3 N 72.51 CA 76.45 C 75.21 O 72.45 CB 81.06 CG 83.36 CD1 84.74 CD2 86.2
B LEU H 11 -64.6 -43.2 N 79.26 CA 82.23 C 79.26 O 79.83 CB 82.78 CG 84.89 CD1 86.34 CD2 87.0
B GLY H 0 -53.4 -52.6 N 80.47 CA 85.21 C 84.3 O 87.62
B HIS H 20 -64.3 -34.6 N 79.67 CA 78.94 C 79.33 O 86.08 CB 78.74 CG 76.53 ND1 74.99 CD2 76.35 CE1 77.32 NE2 79.34
B GLU H 5 -69.9 -23.1 N 81.47 CA 83.19 C 83.15 O 87.99 CB 82.56 CG 84.65 CD 90.71 OE1 98.11 OE2 96.19
B PHE H 17 -78.7 -39.9 N 84.98 CA 86.3 C 91.58 O 107.28 CB 84.16 CG 81.71 CD1 79.84 CD2 82.05 CE1 77.46 CE2 79.72 CZ 78.24
B VAL H 37 -63.9 -32.9 N 90.21 CA 88.76 C 89.56 O 97.21 CB 87.31 CG1 88.58 CG2 88.27
B LEU H 34 -59.3 -39.0 N 89.76 CA 94.29 C 96.52 O 102.99 CB 95.03 CG 96.91 CD1 100.87 CD2 94.87
B THR T 47 -93.8 18.1 N 96.61 CA 99.64 C 101.29 O 100.47 CB 102.14 OG1 102.04 CG2 103.23
B GLU T 148 45.9 44.1 N 106.49 CA 119.17 C 122.18 O 131.9 CB 126.6 CG 130.84 CD 135.65 OE1 137.43 OE2 132.6
B GLU - 80 -107.6 66.3 N 117.45 CA 113.46 C 111.03 O 106.75 CB 109.91 CG 108.94 CD 115.41 OE1 116.43 OE2 119.15
B LEU H 41 -73.8 -15.8 N 110.56 CA 111.33 C 108.69 O 103.34 CB 113.26 CG 114.48 CD1 115.81 CD2 113.12
B ASP H 145 -70.4 -40.5 N 108.23 CA 107.75 C 99.95 O 88.72 CB 113.84 CG 114.23 OD1 114.26 OD2 111.12
B LYS H 112 -71.8 -37.1 N 97.75 CA 94.14 C 92.22 O 91.91 CB 92.84 CG 93.55 CD 94.96 CE 101.1 NZ 104.99
B ALA H 0 -65.3 -37.4 N 93.97 CA 95.22 C 92.65 O 95.97 CB 100.18
B LEU H 17 -63.2 -36.6 N 89.41 CA 91.79 C 89.04 O 86.17 CB 97.89 CG 105.06 CD1 110.41 CD2 106.02
B ALA H 46 -63.2 -53.8 N 87.2 CA 86.08 C 85.65 O 93.71 CB 86.37
B CYS H 12 -52.4 -48.5 N 80.25 CA 76.6 C 75.97 O 76.27 CB 77.43 SG 79.2
B PHE H 0 -67.0 -40.5 N 75.79 CA 79.31 C 82.55 O 83.59 CB 80.88 CG 81.19 CD1 82.79 CD2 81.33 CE1 82.24 CE2 83.6 CZ 82.86
B ARG H 146 -63.8 -38.3 N 87.65 CA 90.69 C 87.45 O 89.29 CB 96.59 CG 104.88 CD 115.03 NE 128.04 CZ 135.12 NH1 139.81 NH2 136.38
B ASN H 58 -69.0 -38.9 N 80.92 CA 83.47 C 80.88 O 81.15 CB 83.96 CG 81.14 OD1 78.19 ND2 83.6
B ALA H 0 -55.6 -41.4 N 78.77 CA 76.82 C 72.59 O 72.2 CB 77.1
B ILE H 17 -73.3 -36.5 N 73.13 CA 77.25 C 76.83 O 74.94 CB 80.92 CG1 82.98 CG2 81.22 CD1 87.16
B ARG H 146 -55.5 -47.1 N 76.88 CA 76.7 C 73.38 O 78.94 CB 80.69 CG 85.33 CD 89.3 NE 88.31 CZ 85.55 NH1 86.51 NH2 84.4
B VAL H 27 -67.2 -43.0 N 70.85 CA 69.53 C 72.35 O 70.1 CB 69.03 CG1 68.19 CG2 72.41
B ASN - 53 -145.8 101.2 N 76.75 CA 78.86 C 80.45 O 85.47 CB 82.01 CG 88.97 OD1 100.14 ND2 92.17
B PRO T 80 -63.4 -19.3 N 81.85 CA 81.38 C 81.2 O 80.32 CB 85.45 CG 87.59 CD 87.18
B ARG T 65 -93.3 29.5 N 81.04 CA 82.38 C 83.94 O 90.8 CB 86.9 CG 96.65 CD 102.06 NE 111.09 CZ 112.93 NH1 117.11 NH2 109.61
B HIS - 17 -100.3 88.4 N 84.2 CA 86.78 C 86.89 O 93.04 CB 89.61 CG 91.39 ND1 93.2 CD2 87.5 CE1 91.7 NE2 85.37
B TYR H 1 -52.4 -34.2 N 81.62 CA 78.24 C 79.49 O 79.71 CB 77.17 CG 79.03 CD1 78.85 CD2 81.54 CE1 81.21 CE2 83.04 CZ 83.1 OH 84.46
B ASN H 11 -49.4 -40.4 N 84.88 CA 88.13 C 83.31 O 83.81 CB 96.39 CG 101.07 OD1 99.93 ND2 101.89
B ALA H 0 -85.6 -43.3 N 80.42 CA 80.91 C 83.48 O 85.29 CB 80.81
B TRP H 42 -52.6 -50.0 N 85.28 CA 84.02 C 87.07 O 95.38 CB 79.96 CG 78.83 CD1 78.52 CD2 81.87 NE1 80.31 CE2 79.68 CE3 85.41 CZ2 79.36 CZ3 87.09 CH2 82.83
B TYR H 1 -69.6 -39.6 N 83.53 CA 84.63 C 85.91 O 90.96 CB 85.14 CG 86.44 CD1 91.91 CD2 85.56 CE1 93.7 CE2 90.94 CZ 94.59 OH 99.17
B GLY H 3 -53.4 -43.9 N 87.68 CA 88.87 C 86.09 O 81.64
B LEU H 5 -67.4 -46.4 N 84.18 CA 84.92 C 90.97 O 98.85 CB 82.47 CG 80.63 CD1 78.31 CD2 80.52
B GLY H 0 -46.7 -48.6 N 96.18 CA 95.09 C 96.18 O 97.09
B MET H 52 -60.4 -33.0 N 101.28 CA 101.26 C 99.4 O 105.22 CB 98.77 CG 95.9 SD 91.72 CE 94.99
B ILE H 6 -68.9 -47.7 N 99.44 CA 103.56 C 103.64 O 106.65 CB 106.61 CG1 104.65 CG2 110.82 CD1 103.55
B TYR H 19 -68.2 -20.8 N 102.93 CA 104.41 C 105.55 O 113.51 CB 103.98 CG 103.92 CD1 101.89 CD2 105.63 CE1 101.51 CE2 103.93 CZ 103.01 OH 101.55
B TYR H 48 -74.6 -39.9 N 106.27 CA 105.29 C 108.35 O 113.32 CB 105.02 CG 104.1 CD1 103.37 CD2 102.84 CE1 103.41 CE2 104.77 CZ 104.49 OH 104.48
B LYS H 158 -69.9 -23.8 N 110.3 CA 111.86 C 110.37 O 118.03 CB 115.18 CG 122.84 CD 131.17 CE 133.15 NZ 137.54
B GLN T 76 -93.1 10.3 N 104.9 CA 103.49 C 104.51 O 105.83 CB 102.11 CG 96.84 CD 94.31 OE1 91.53 NE2 95.84
B GLU T 113 61.9 16.7 N 108.58 CA 110.42 C 102.95 O 107.78 CB 119.38 CG 132.79 CD 144.11 OE1 150.83 OE2 150.75
B LYS - 108 -95.5 62.7 N 100.36 CA 103.18 C 104.74 O 107.53 CB 104.22 CG 105.15 CD 109.71 CE 113.82 NZ 114.82
B PHE H 18 -60.6 -27.5 N 104.53 CA 108.31 C 108.65 O 106.84 CB 109.31 CG 112.55 CD1 114.46 CD2 115.44 CE1 115.85 CE2 114.79 CZ 111.91
B SER H 88 -65.8 -32.2 N 112.11 CA 117.58 C 116.45 O 118.24 CB 126.21 OG 130.21
B LEU H 73 -77.5 -50.8 N 111.35 CA 107.91 C 104.77 O 102.35 CB 104.99 CG 107.03 CD1 109.55 CD2 105.42
B ALA H 0 -50.7 -39.6 N 98.8 CA 94.43 C 95.51 O 102.28 CB 92.23
B GLU H 21 -49.8 -64.0 N 97.23 CA 102.76 C 105.37 O 103.04 CB 103.52 CG 104.88 CD 104.83 OE1 101.25 OE2 100.58
B MET H 133 -52.7 -34.4 N 110.2 CA 111.87 C 106.96 O 108.43 CB 118.85 CG 121.69 SD 126.63 CE 126.72
B HIS H 29 -74.1 -57.0 N 98.33 CA 99.57 C 97.41 O 93.92 CB 100.95 CG 102.94 ND1 102.39 CD2 105.73 CE1 104.59 NE2 105.55
B PHE H 0 -48.2 -42.8 N 94.69 CA 89.96 C 93.08 O 91.55 CB 88.17 CG 89.33 CD1 91.78 CD2 88.55 CE1 93.5 CE2 88.69 CZ 91.91
B GLN H 84 -54.3 -46.3 N 98.45 CA 102.69 C 104.4 O 104.16 CB 105.07 CG 105.9 CD 107.16 OE1 107.22 NE2 107.18
B LYS H 100 -61.1 -48.9 N 103.49 CA 100.81 C 94.01 O 91.47 CB 100.88 CG 104.02 CD 109.3 CE 113.41 NZ 117.51
B ALA H 0 -61.5 -51.3 N 88.41 CA 87.28 C 92.5 O 96.02 CB 84.09
B LEU H 22 -69.0 -24.4 N 94.87 CA 90.63 C 88.98 O 89.2 CB 86.13 CG 87.19 CD1 88.83 CD2 89.44
B ASP H 115 -62.7 -43.6 N 90.58 CA 102.28 C 103.22 O 106.73 CB 112.97 CG 115.91 OD1 114.3 OD2 119.63
B ILE H 21 -71.5 -59.9 N 102.44 CA 97.2 C 93.94 O 92.4 CB 95.39 CG1 97.17 CG2 96.01 CD1 99.29
B ASN - 3 -128.0 109.0 N 91.14 CA 93.92 C 94.86 O 90.68 CB 97.21 CG 96.51 OD1 94.69 ND2 95.9
B PRO T 76 -63.6 -8.8 N 97.71 CA 96.58 C 97.96 O 105.53 CB 95.42 CG 96.52 CD 98.77
B GLN T 29 -120.1 22.8 N 98.58 CA 98.56 C 99.43 O 94.07 CB 104.14 CG 116.44 CD 126.67 OE1 119.67 NE2 128.18
B SER H 0 -52.9 -22.8 N 99.4 CA 96.89 C 97.57 O 98.89 CB 96.87 OG 92.34
B SER H 4 -62.3 -53.3 N 98.3 CA 98.4 C 96.83 O 93.45 CB 102.7 OG 109.31
B VAL H 16 -49.4 -49.7 N 100.6 CA 104.2 C 102.06 O 102.04 CB 108.63 CG1 109.32 CG2 114.38
B LEU H 3 -70.2 -44.5 N 101.02 CA 95.7 C 92.31 O 93.25 CB 99.72 CG 106.06 CD1 106.47 CD2 104.14
B LEU H 2 -72.5 -35.4 N 88.25 CA 89.3 C 91.81 O 95.19 CB 88.88 CG 92.25 CD1 94.9 CD2 94.49
B CYS H 4 -70.9 -31.7 N 93.85 CA 95.83 C 99.56 O 110.38 CB 94.52 SG 102.45
B HIS H 51 -64.7 -38.3 N 96.81 CA 96.17 C 94.94 O 95.73 CB 98.78 CG 101.92 ND1 104.57 CD2 108.09 CE1 104.03 NE2 112.06
B ILE H 17 -49.8 -51.0 N 91.55 CA 90.71 C 95.49 O 95.08 CB 85.56 CG1 85.95 CG2 81.43 CD1 86.76
B GLY H 31 -52.5 -40.3 N 94.72 CA 95.39 C 97.2 O 96.12
B VAL H 41 -69.7 -37.0 N 97.49 CA 98.67 C 96.49 O 100.88 CB 101.98 CG1 100.37 CG2 107.73
B VAL H 2 -72.9 -44.6 N 96.83 CA 99.13 C 101.97 O 107.37 CB 99.44 CG1 99.57 CG2 99.98
B GLN H 29 -49.4 -48.5 N 102.35 CA 104.13 C 108.86 O 103.25 CB 103.99 CG 102.29 CD 102.24 OE1 99.73 NE2 105.29
B HIS H 158 -52.3 -49.8 N 118.56 CA 125.7 C 122.0 O 130.47 CB 134.51 CG 138.92 ND1 138.08 CD2 139.13 CE1 140.09 NE2 142.07
B ALA H 57 -57.4 -26.0 N 115.29 CA 119.05 C 121.91 O 122.77 CB 120.78
B LEU - 33 -81.9 360.0 N 125.22 CA 124.61 C 128.37 O 123.85 CB 120.96 CG 116.96 CD1 112.53 CD2 115.11
B THR - 96 360.0 -35.4 N 153.41 CA 150.29 C 150.6 O 137.79 CB 144.77
B LEU H 143 -48.1 -41.3 N 156.78 CA 162.29 C 169.72 O 172.57 CB 140.0 CG 140.0 CD1 140.0 CD2 140.0
B ASN H 83 -67.6 -47.3 N 175.65 CA 174.22 C 171.03 O 159.74 CB 169.09
B LYS H 29 -43.3 -60.5 N 171.94 CA 172.95 C 178.76 O 173.52 CB 162.67
B ALA H 2 -66.5 -31.0 N 189.22 CA 188.91 C 189.67 O 179.73 CB 182.92
B ILE H 51 -61.3 -36.6 N 196.9 CA 201.75 C 214.67 O 227.26 CB 189.79
B VAL H 74 -70.7 -50.5 N 220.91 CA 214.23 C 206.22 O 193.22 CB 206.97
B ILE H 24 -56.7 -37.4 N 202.36 CA 198.21 C 193.75 O 193.66 CB 195.26
B ASP T 18 -42.0 -38.1 N 190.09 CA 192.81 C 183.89 O 201.4 CB 188.3
B PRO T 70 -45.9 -64.8 N 155.78 CA 145.99 C 143.05 O 129.26 CB 146.68
B LYS T 81 -79.9 -34.3 N 142.17 CA 134.32 C 130.48 O 124.85 CB 129.7
B ASN - 18 -102.8 75.7 N 126.45 CA 111.39 C 104.31 O 97.16 CB 106.24 CG 109.35 OD1 113.75 ND2 106.56
B PRO H 38 -64.0 -42.5 N 102.88 CA 104.7 C 110.86 O 115.35 CB 102.65 CG 102.95 CD 103.91
B LEU H 22 -60.2 -36.0 N 110.76 CA 103.95 C 103.52 O 110.45 CB 100.66 CG 102.54 CD1 103.23 CD2 103.92
B CYS H 0 -61.5 -38.3 N 97.11 CA 97.47 C 100.44 O 103.37 CB 98.85 SG 103.61
B LYS H 10 -59.9 -49.7 N 103.66 CA 106.31 C 109.14 O 107.2 CB 99.18
B PHE H 11 -56.8 -40.6 N 107.87 CA 106.16 C 107.17 O 103.78 CB 102.18 CG 103.03 CD1 109.13 CD2 110.01 CE1 113.34 CE2 116.57 CZ 115.4
B HIS H 7 -67.5 -33.4 N 107.82 CA 110.42 C 113.94 O 112.17 CB 109.33 CG 108.2 ND1 107.84 CD2 107.37 CE1 108.06 NE2 105.92
B ARG H 25 -66.7 -42.9 N 120.37 CA 126.91 C 122.06 O 114.63 CB 132.07 CG 141.21 CD 146.58 NE 152.25 CZ 162.17 NH1 164.9 NH2 168.49
B ALA H 1 -61.5 -37.3 N 116.8 CA 114.03 C 114.31 O 109.92 CB 112.97
B SER H 5 -69.2 -41.4 N 115.99 CA 106.83 C 99.28 O 95.4 CB 102.69 OG 95.95
B VAL H 50 -68.3 -27.7 N 97.43 CA 100.93 C 104.25 O 98.09 CB 98.95 CG1 104.66 CG2 94.79
B LEU H 33 -69.2 -47.1 N 110.36 CA 116.27 C 112.99 O 116.0 CB 120.46 CG 124.57 CD1 124.32 CD2 123.98
B PHE H 19 -60.7 -35.8 N 108.49 CA 106.92 C 103.86 O 105.55 CB 112.06 CG 116.41 CD1 119.25 CD2 115.87 CE1 117.22 CE2 115.09 CZ 114.76
B ALA H 28 -66.3 -38.5 N 101.37 CA 101.44 C 102.72 O 103.38 CB 105.73
B ASN T 64 -79.9 174.4 N 107.23 CA 113.4 C 118.79 O 117.34 CB 111.14 CG 108.14 OD1 102.22 ND2 107.59
B GLU T 143 -78.5 2.2 N 125.91 CA 135.11 C 137.02 O 131.98 CB 137.98 CG 132.62 CD 129.65 OE1 122.55 OE2 126.79
B LYS - 130 -80.5 68.6 N 136.21 CA 132.5 C 128.43 O 123.59 CB 133.18 CG 137.05 CD 144.27 CE 148.15 NZ 152.8
B TYR H 42 -73.3 -40.4 N 131.08 CA 134.86 C 136.32 O 129.1 CB 137.89 CG 141.38 CD1 143.21 CD2 144.53 CE1 145.69 CE2 144.96 CZ 145.84 OH 149.61
B LYS H 79 -61.4 -49.8 N 139.41 CA 133.99 C 130.37 O 132.0 CB 131.94
B SER H 42 -56.1 -30.6 N 126.34 CA 119.5 C 117.32 O 107.79 CB 114.12 OG 110.88
B ALA H 4 -82.2 -20.7 N 122.7 CA 126.77 C 129.51 O 127.52 CB 128.82
B LEU H 37 -79.1 -49.9 N 131.15 CA 129.19 C 133.56 O 126.89 CB 124.57 CG 125.09 CD1 125.67 CD2 123.31
B GLN H 119 -40.4 -54.0 N 138.4 CA 138.66 C 133.99 O 132.28 CB 141.46 CG 149.4 CD 156.4 OE1 154.94 NE2 161.14
B GLU H 28 -71.1 -34.4 N 129.45 CA 125.55 C 121.41 O 123.46 CB 122.15 CG 120.27 CD 122.38 OE1 122.71 OE2 120.62
B LEU H 2 -73.1 -26.1 N 122.12 CA 126.8 C 129.19 O 122.38 CB 128.34 CG 126.85 CD1 124.31 CD2 127.92
B GLU H 86 -67.4 -51.9 N 137.11 CA 138.07 C 135.7 O 127.78 CB 140.81 CG 143.77 CD 147.26 OE1 149.22 OE2 145.95
B GLU H 104 -49.3 -51.4 N 134.14 CA 128.15 C 123.11 O 115.17 CB 131.89 CG 139.49 CD 143.53 OE1 139.46 OE2 144.66
B LEU H 11 -66.9 -29.0 N 123.47 CA 121.51 C 122.66 O 115.42 CB 118.78 CG 118.87 CD1 114.35 CD2 120.92
B LYS H 51 -64.5 -41.3 N 128.45 CA 130.9 C 133.03 O 123.73 CB 128.96 CG 125.91 CD 127.19 CE 128.29 NZ 130.69
B GLN H 150 -60.9 -39.4 N 141.06 CA 142.66 C 139.11 O 143.94 CB 143.53 CG 144.63 CD 143.33 OE1 133.94 NE2 143.42
B ILE H 80 -76.5 -49.4 N 134.47 CA 129.32 C 130.86 O 125.93 CB 118.85 CG1 117.81 CG2 113.44 CD1 119.87
B VAL S 34 -93.1 109.7 N 141.79 CA 151.27 C 157.67 O 153.49 CB 149.5 CG1 150.99 CG2 148.36
B PRO S 98 -64.4 -49.9 N 168.2 CA 163.5 C 149.19 O 134.13 CB 177.22 CG 179.55 CD 176.22
B LYS S 62 -131.6 95.6 N 147.03 CA 146.96 C 149.25 O 148.5 CB 136.1
B GLU - 75 -138.4 120.2 N 146.62 CA 141.82 C 135.67 O 129.19 CB 146.09 CG 146.04 CD 147.95 OE1 152.19 OE2 143.91
B SER H 14 -51.7 -43.4 N 129.74 CA 122.87 C 116.96 O 104.21 CB 123.44 OG 125.26
B LEU H 19 -47.5 -44.0 N 123.03 CA 122.99 C 118.98 O 113.1 CB 113.28
B VAL H 3 -69.1 -37.4 N 120.62 CA 129.11 C 132.41 O 125.53 CB 131.89 CG1 134.15 CG2 132.8
B TYR H 45 -75.5 -27.9 N 139.54 CA 140.68 C 135.9 O 130.93 CB 146.58 CG 149.68 CD1 149.66 CD2 147.91 CE1 151.45 CE2 150.8 CZ 152.63 OH 148.23
B PHE H 54 -62.2 -50.5 N 136.43 CA 131.67 C 119.76 O 110.51 CB 136.02 CG 148.15 CD1 151.08 CD2 150.0 CE1 153.47 CE2 150.88 CZ 156.77
B LEU H 6 -70.0 -13.7 N 113.31 CA 110.89 C 115.3 O 112.66 CB 108.79 CG 111.85 CD1 112.33 CD2 114.39
B ILE H 5 -77.4 -51.4 N 122.67 CA 125.02 C 123.75 O 117.87 CB 125.61 CG1 125.19 CG2 124.99 CD1 126.69
B GLY H 0 -59.9 -31.3 N 122.31 CA 128.56 C 127.12 O 123.12
B LYS H 42 -64.2 -39.5 N 126.1 CA 125.43 C 122.35 O 114.03 CB 127.36 CG 126.35 CD 128.02 CE 130.48 NZ 134.31
B VAL H 2 -82.4 -32.0 N 123.61 CA 124.29 C 123.05 O 117.68 CB 124.5 CG1 118.71 CG2 124.8
B TYR H 50 -68.1 -26.9 N 126.07 CA 131.93 C 129.37 O 127.01 CB 133.19 CG 136.08 CD1 138.49 CD2 130.35 CE1 138.21 CE2 127.34 CZ 133.98 OH 132.44
B LYS H 60 -67.9 -44.0 N 124.12 CA 113.53 C 114.17 O 121.58 CB 107.65
B LYS H 123 -70.3 -21.1 N 116.56 CA 118.46 C 112.58 O 109.25 CB 120.37 CG 122.47 CD 125.4 CE 124.74 NZ 129.19
B LEU H 80 -90.0 -36.7 N 109.87 CA 112.33 C 112.34 O 108.46 CB 114.25 CG 118.6 CD1 114.74 CD2 122.42
B GLY S 49 137.6 -45.4 N 113.37 CA 114.78 C 119.35 O 117.5
B GLN - 100 -65.1 96.8 N 126.36 CA 127.27 C 128.97 O 129.87 CB 122.71 CG 121.66 CD 124.33 OE1 122.01 NE2 127.5
B THR H 104 -65.3 -51.0 N 131.26 CA 141.6 C 144.44 O 139.2 CB 145.37 OG1 151.48 CG2 143.71
B HIS H 74 -45.5 -56.7 N 148.98 CA 139.81 C 140.33 O 140.21 CB 128.59
B LEU H 61 -54.1 -54.5 N 137.14 CA 130.61 C 127.43 O 116.88 CB 128.22 CG 126.07 CD1 123.09 CD2 127.9
B ALA H 4 -54.9 -51.6 N 131.79 CA 136.28 C 141.39 O 137.66 CB 134.34
B LEU H 117 -52.1 -40.0 N 146.8 CA 148.69 C 145.61 O 138.77 CB 152.5 CG 155.0 CD1 154.89 CD2 153.31
B MET H 136 -67.0 -53.9 N 144.06 CA 144.6 C 134.16 O 120.73 CB 154.82 CG 164.18 SD 169.49 CE 159.97
B ASN H 22 -58.2 -43.4 N 128.21 CA 125.77 C 135.91 O 136.67 CB 120.35 CG 113.45 OD1 109.84 ND2 109.71
B PHE H 66 -59.1 -43.5 N 141.56 CA 142.89 C 148.82 O 145.73 CB 141.49 CG 142.06 CD1 144.1 CD2 139.19 CE1 143.03 CE2 136.35 CZ 140.24
B SER H 68 -64.0 -38.1 N 156.49 CA 160.4 C 161.61 O 159.36 CB 160.69 OG 166.09
B TRP H 33 -63.6 -40.4 N 160.49 CA 158.13 C 154.13 O 145.35 CB 158.0
B ALA H 10 -69.2 -35.5 N 155.1 CA 156.19 C 160.12 O 152.62 CB 153.37
B MET H 68 -67.4 -54.8 N 165.11 CA 164.52 C 170.68 O 165.55 CB 153.19
B ASP H 112 -66.1 -22.4 N 180.71 CA 179.76 C 179.13 O 180.1 CB 174.53 CG 170.84 OD1 163.97 OD2 169.74
B LEU H 69 -62.7 -51.5 N 170.04 CA 159.25 C 162.88 O 164.55 CB 149.26 CG 141.83 CD1 135.85 CD2 140.84
B ASP - 114 -110.1 68.2 N 164.69 CA 168.34 C 172.16 O 173.93 CB 166.54 CG 164.03 OD1 157.39 OD2 160.69
B PRO - 132 -88.7 360.0 N 173.05 CA 166.14 C 168.95 O 173.34 CB 153.96
