A GLY - 86 360.0 -107.4 N 52.31 CA 51.4 C 46.92 O 49.58
A PRO T 125 -63.6 -18.0 N 47.58 CA 40.23 C 49.9 O 53.29 CB 43.44 CG 43.58 CD 44.44
A HIS T 182 -114.1 5.3 N 40.47 CA 39.58 C 44.73 O 41.86 CB 39.63 CG 40.07 ND1 33.91 CD2 37.12 CE1 38.16 NE2 38.29
A MET - 140 -89.3 114.7 N 44.39 CA 43.52 C 42.8 O 42.87 CB 44.33 CG 53.62 SD 69.74 CE 51.51
A ALA - 72 -65.3 138.9 N 42.56 CA 39.9 C 38.51 O 39.49 CB 47.19
A THR - 60 -113.3 1.3 N 32.49 CA 29.76 C 27.25 O 27.0 CB 29.96 OG1 29.08 CG2 31.48
A GLY S 6 63.3 40.2 N 24.43 CA 26.46 C 26.7 O 25.11
A GLN - 44 -116.6 21.5 N 20.49 CA 14.99 C 19.68 O 21.36 CB 20.42 CG 22.93 CD 19.43 OE1 24.4 NE2 18.18
A ASP S 93 -82.9 -13.2 N 24.23 CA 27.53 C 26.84 O 29.41 CB 32.75 CG 36.09 OD1 29.85 OD2 39.95
A ARG - 23 -133.2 158.3 N 17.81 CA 20.76 C 19.25 O 15.15 CB 20.0 CG 21.82 CD 19.7 NE 20.01 CZ 19.08 NH1 17.68 NH2 21.44
A VAL - 1 -115.1 118.1 N 15.73 CA 12.9 C 18.44 O 16.26 CB 16.43 CG1 16.17 CG2 17.13
A VAL E 0 -124.6 134.6 N 14.17 CA 14.19 C 18.96 O 15.58 CB 15.8 CG1 15.67 CG2 16.03
A ALA E 0 -120.6 154.2 N 15.22 CA 11.77 C 18.07 O 13.46 CB 11.77
A LEU E 0 -124.8 120.0 N 12.47 CA 12.56 C 18.18 O 14.03 CB 10.41 CG 15.04 CD1 14.74 CD2 13.85
A VAL E 1 -109.9 125.1 N 12.7 CA 13.76 C 14.29 O 13.84 CB 12.34 CG1 13.85 CG2 16.16
A ASP E 15 -130.7 127.0 N 13.84 CA 12.84 C 12.88 O 12.87 CB 15.06 CG 12.91 OD1 17.59 OD2 15.55
A MET E 4 -66.6 139.8 N 12.27 CA 12.99 C 11.22 O 12.9 CB 13.96 CG 15.39 SD 15.44 CE 19.62
A ASP T 4 -75.0 137.5 N 10.54 CA 12.49 C 13.46 O 12.81 CB 13.71 CG 13.01 OD1 13.5 OD2 17.24
A CYS T 15 20.8 66.1 N 12.29 CA 14.04 C 14.61 O 14.06 CB 13.13 SG 17.09
A PHE H 10 -57.1 -54.9 N 11.05 CA 10.96 C 12.69 O 11.07 CB 11.16 CG 12.93 CD1 13.67 CD2 16.3 CE1 17.71 CE2 17.14 CZ 14.9
A PHE H 25 -63.1 -33.3 N 12.12 CA 9.99 C 10.38 O 12.92 CB 13.1 CG 13.78 CD1 13.69 CD2 16.3 CE1 15.2 CE2 16.84 CZ 18.58
A VAL H 2 -62.7 -46.8 N 12.25 CA 11.17 C 13.78 O 10.64 CB 11.77 CG1 14.72 CG2 16.98
A GLN H 22 -61.9 -34.9 N 12.1 CA 10.76 C 11.35 O 14.86 CB 11.33 CG 13.58 CD 15.76 OE1 17.65 NE2 16.79
A VAL H 4 -60.9 -45.7 N 12.01 CA 10.66 C 15.35 O 12.1 CB 11.87 CG1 11.13 CG2 10.76
A GLU H 13 -69.3 -35.1 N 14.08 CA 14.5 C 13.88 O 13.98 CB 11.25 CG 10.22 CD 19.24 OE1 18.29 OE2 17.35
A GLN H 23 -71.2 -34.7 N 14.5 CA 13.52 C 15.43 O 14.11 CB 11.84 CG 14.7 CD 16.92 OE1 15.12 NE2 15.99
A ARG H 86 -62.3 -43.3 N 12.11 CA 13.0 C 14.32 O 12.49 CB 14.52 CG 17.38 CD 14.15 NE 14.66 CZ 12.29 NH1 11.54 NH2 14.16
A GLN H 122 -70.0 -39.6 N 11.87 CA 12.48 C 13.73 O 13.95 CB 13.22 CG 17.45 CD 21.86 OE1 23.29 NE2 27.24
A ASN - 57 -121.1 95.3 N 12.55 CA 18.1 C 16.0 O 14.17 CB 18.71 CG 16.17 OD1 17.15 ND2 19.55
A PRO G 80 -54.5 -26.0 N 17.23 CA 18.64 C 15.36 O 18.73 CB 16.92 CG 18.72 CD 15.38
A HIS G 157 -59.0 -23.5 N 15.59 CA 19.8 C 18.21 O 21.69 CB 22.65 CG 28.71 ND1 30.39 CD2 32.51 CE1 30.48 NE2 35.29
A LEU G 16 -90.2 -10.0 N 19.16 CA 15.32 C 19.55 O 17.57 CB 15.14 CG 18.93 CD1 16.02 CD2 18.52
A ARG T 114 -67.5 141.0 N 15.5 CA 15.64 C 17.44 O 19.84 CB 17.24 CG 18.44 CD 17.29 NE 16.31 CZ 23.78 NH1 17.94 NH2 17.05
A ASN T 137 57.4 33.4 N 19.31 CA 21.09 C 21.75 O 24.97 CB 23.58 CG 27.09 OD1 30.09 ND2 30.17
A LYS S 107 -130.2 158.9 N 20.65 CA 21.0 C 17.88 O 16.89 CB 23.47 CG 26.85 CD 35.19 CE 40.3 NZ 46.28
A PRO - 27 -64.4 118.1 N 16.97 CA 16.11 C 16.73 O 15.66 CB 18.55 CG 22.72 CD 19.66
A CYS E 4 -156.4 152.1 N 13.98 CA 13.6 C 14.4 O 15.94 CB 15.49 SG 15.67
A ALA E 1 -137.2 160.2 N 13.46 CA 13.23 C 13.6 O 14.97 CB 15.0
A VAL E 1 -108.1 133.1 N 15.09 CA 13.91 C 16.88 O 18.02 CB 14.79 CG1 15.21 CG2 14.02
A VAL E 0 -125.4 153.3 N 15.05 CA 17.48 C 22.2 O 22.22 CB 24.0 CG1 23.81 CG2 22.08
A GLN E 52 -109.1 134.4 N 19.28 CA 19.46 C 22.55 O 20.04 CB 20.96 CG 27.84 CD 23.72 OE1 33.11 NE2 18.27
A TYR - 74 65.6 -177.2 N 23.91 CA 23.92 C 24.36 O 27.39 CB 20.13 CG 20.62 CD1 18.98 CD2 19.05 CE1 24.24 CE2 18.54 CZ 22.26 OH 19.43
A LYS S 83 -152.1 -34.7 N 27.17 CA 31.48 C 32.57 O 30.65 CB 35.52 CG 39.66 CD 42.28 CE 38.41 NZ 42.41
A SER T 128 -65.9 -41.2 N 32.29 CA 34.53 C 30.96 O 33.41 CB 35.55 OG 43.09
A TRP T 145 -86.6 102.2 N 30.41 CA 28.68 C 27.99 O 21.81 CB 29.41 CG 31.52 CD1 32.13 CD2 34.28 NE1 29.8 CE2 32.57 CE3 34.73 CZ2 33.69 CZ3 35.33 CH2 34.94
A LYS T 93 58.8 27.4 N 31.36 CA 25.65 C 25.5 O 24.3 CB 27.41 CG 32.8 CD 35.1 CE 41.25 NZ 38.75
A GLY T 9 89.2 -4.4 N 22.88 CA 24.14 C 22.65 O 23.77
A GLY - 1 101.9 157.0 N 25.6 CA 25.66 C 22.65 O 20.39
A GLY E 16 -93.7 131.6 N 22.07 CA 22.49 C 19.81 O 22.99
A ILE E 1 -77.0 131.1 N 16.86 CA 19.64 C 20.26 O 21.0 CB 17.83 CG1 21.91 CG2 16.32 CD1 20.8
A ILE E 52 -120.1 -4.7 N 17.47 CA 20.13 C 17.87 O 19.2 CB 22.45 CG1 19.39 CG2 24.28 CD1 22.71
A ALA E 14 -156.7 146.0 N 17.34 CA 15.07 C 14.58 O 14.87 CB 13.65
A VAL E 5 -141.1 124.4 N 13.5 CA 12.77 C 13.06 O 12.98 CB 15.26 CG1 15.01 CG2 15.37
A SER - 0 -66.6 156.6 N 12.89 CA 14.24 C 15.71 O 14.68 CB 15.96 OG 15.54
A TYR H 58 -65.5 -30.2 N 14.46 CA 19.4 C 17.76 O 19.24 CB 15.88 CG 16.07 CD1 16.46 CD2 21.15 CE1 15.59 CE2 16.22 CZ 18.01 OH 17.6
A GLU H 78 -61.1 -39.2 N 16.09 CA 17.08 C 19.91 O 18.33 CB 17.41 CG 18.08 CD 27.16 OE1 22.68 OE2 27.88
A ALA H 0 -75.5 -31.9 N 15.59 CA 15.18 C 15.95 O 14.88 CB 16.06
A ARG H 103 -60.9 -28.6 N 16.73 CA 15.84 C 19.51 O 19.32 CB 15.82 CG 16.35 CD 18.74 NE 17.99 CZ 21.27 NH1 21.32 NH2 20.71
A ALA T 90 -65.3 -24.9 N 18.12 CA 22.16 C 22.97 O 21.46 CB 20.88
A PHE T 109 -87.5 -3.6 N 19.68 CA 19.9 C 23.12 O 23.26 CB 17.09 CG 20.37 CD1 23.44 CD2 17.75 CE1 27.31 CE2 23.58 CZ 29.25
A GLY T 35 94.3 11.7 N 17.54 CA 21.09 C 21.41 O 17.56
A VAL - 2 -74.3 133.2 N 20.62 CA 15.11 C 16.1 O 14.97 CB 16.44 CG1 19.06 CG2 19.36
A THR - 72 -135.4 161.0 N 19.01 CA 17.87 C 19.48 O 18.42 CB 23.76 OG1 24.96 CG2 22.06
A ARG T 185 -49.9 145.7 N 18.04 CA 19.85 C 21.56 O 24.84 CB 24.7 CG 30.73 CD 31.23 NE 37.15 CZ 41.51 NH1 47.07 NH2 28.05
A SER T 92 81.0 -12.6 N 18.48 CA 23.99 C 21.78 O 31.4 CB 29.42 OG 30.14
A MET - 39 -69.7 140.9 N 22.5 CA 21.85 C 22.78 O 20.87 CB 20.68 CG 25.44 SD 27.05 CE 26.45
A TRP B 88 -68.6 140.9 N 19.93 CA 20.25 C 20.55 O 18.01 CB 18.25 CG 22.42 CD1 24.56 CD2 26.43 NE1 28.76 CE2 28.11 CE3 22.21 CZ2 29.69 CZ3 25.17 CH2 25.96
A ALA H 2 -59.6 -36.8 N 18.42 CA 19.8 C 17.25 O 16.69 CB 18.74
A ASP H 85 -60.0 -37.4 N 17.12 CA 19.63 C 19.94 O 17.28 CB 23.3 CG 24.97 OD1 25.61 OD2 30.22
A ASP H 56 -74.6 -39.9 N 16.45 CA 18.14 C 19.71 O 17.63 CB 19.79 CG 24.34 OD1 24.87 OD2 21.1
A ALA H 0 -59.7 -35.6 N 18.22 CA 18.35 C 18.98 O 18.81 CB 19.62
A LYS H 81 -66.9 -21.0 N 14.52 CA 18.36 C 19.91 O 17.18 CB 16.99 CG 22.58 CD 24.31 CE 28.07 NZ 23.59
A LYS H 154 -74.8 -35.6 N 17.56 CA 15.94 C 20.7 O 20.74 CB 18.57 CG 17.38 CD 18.27 CE 18.34 NZ 23.58
A LEU H 82 -75.7 -34.7 N 18.71 CA 19.45 C 22.46 O 21.0 CB 12.12 CG 20.49 CD1 20.59 CD2 21.56
A CYS - 1 -141.3 83.1 N 18.09 CA 20.71 C 24.56 O 22.26 CB 20.94 SG 23.2
A PRO T 86 -57.9 -31.9 N 22.96 CA 23.74 C 19.97 O 28.84 CB 24.98 CG 29.02 CD 25.05
A ASP T 133 -92.3 13.6 N 23.55 CA 28.06 C 24.31 O 23.8 CB 32.09 CG 40.46 OD1 41.82 OD2 41.7
A LEU - 1 -56.0 128.6 N 18.56 CA 18.96 C 17.95 O 17.73 CB 18.78 CG 13.57 CD1 15.49 CD2 16.09
A LEU E 57 -95.0 147.5 N 14.61 CA 14.86 C 16.31 O 17.05 CB 14.61 CG 18.59 CD1 18.85 CD2 17.95
A LEU E 48 -128.3 139.5 N 14.9 CA 17.37 C 20.27 O 23.47 CB 17.62 CG 17.79 CD1 27.38 CD2 17.58
A ALA E 12 -117.9 139.2 N 15.31 CA 14.0 C 16.37 O 19.85 CB 17.65
A GLN E 100 -99.3 133.3 N 16.61 CA 20.85 C 19.75 O 21.69 CB 24.56 CG 36.93 CD 40.22 OE1 38.2 NE2 31.24
A VAL - 6 -60.9 138.6 N 17.44 CA 19.09 C 20.21 O 17.26 CB 16.93 CG1 15.39 CG2 17.47
A ARG - 160 -54.8 143.4 N 16.46 CA 18.37 C 20.15 O 18.03 CB 22.26 CG 26.82 CD 37.82 NE 45.39 CZ 56.04 NH1 45.41 NH2 49.88
A GLU E 102 -118.9 125.9 N 18.65 CA 19.58 C 23.1 O 21.49 CB 23.73 CG 30.59 CD 31.13 OE1 33.9 OE2 33.25
A SER E 24 -135.1 131.2 N 19.23 CA 20.88 C 23.89 O 21.7 CB 23.41 OG 29.12
A ARG T 76 55.6 35.0 N 26.84 CA 24.48 C 23.21 O 30.95 CB 28.92 CG 27.84 CD 30.71 NE 35.41 CZ 35.43 NH1 40.85 NH2 44.13
A GLY T 28 78.5 12.8 N 22.35 CA 27.64 C 23.66 O 21.86
A LYS E 12 -139.3 162.9 N 17.43 CA 16.64 C 20.5 O 20.26 CB 21.68 CG 20.54 CD 21.99 CE 19.07 NZ 20.48
A ALA E 11 -65.3 138.5 N 24.78 CA 18.42 C 18.72 O 21.23 CB 23.99
A ASN - 15 -122.7 110.6 N 16.12 CA 18.76 C 18.24 O 16.77 CB 22.83 CG 30.03 OD1 24.5 ND2 30.47
A LEU - 40 -96.9 18.0 N 19.39 CA 18.97 C 16.87 O 16.76 CB 19.49 CG 17.24 CD1 26.13 CD2 15.02
A THR H 41 -55.1 -40.4 N 18.66 CA 17.73 C 16.37 O 17.97 CB 19.77 OG1 28.9 CG2 20.78
A LYS H 66 -60.5 -37.5 N 15.31 CA 15.48 C 17.6 O 16.59 CB 14.5 CG 14.25 CD 18.28 CE 22.35 NZ 20.38
A TYR H 2 -79.1 -32.4 N 15.53 CA 17.47 C 17.25 O 14.65 CB 11.91 CG 11.81 CD1 15.27 CD2 14.1 CE1 17.41 CE2 15.74 CZ 15.82 OH 18.46
A ARG H 67 -64.9 -40.8 N 15.26 CA 17.0 C 21.41 O 20.72 CB 17.98 CG 18.49 CD 22.25 NE 28.26 CZ 24.87 NH1 26.52 NH2 22.42
A GLU H 110 -68.2 -38.4 N 16.86 CA 17.18 C 20.71 O 17.25 CB 19.9 CG 24.06 CD 37.14 OE1 39.3 OE2 46.33
A ALA H 1 -65.8 -36.8 N 16.1 CA 16.82 C 16.44 O 18.89 CB 13.86
A SER H 5 -59.0 -48.6 N 15.7 CA 15.79 C 17.35 O 15.34 CB 14.63 OG 18.58
A VAL H 71 -56.9 -38.3 N 14.79 CA 17.26 C 16.98 O 17.64 CB 18.12 CG1 21.07 CG2 19.81
A GLU H 63 -55.5 -45.2 N 16.83 CA 16.56 C 16.09 O 16.27 CB 14.77 CG 17.6 CD 21.28 OE1 17.31 OE2 24.38
A VAL H 3 -75.1 -43.0 N 15.09 CA 15.46 C 15.69 O 16.76 CB 17.15 CG1 23.41 CG2 15.09
A MET H 5 -62.1 -37.3 N 14.38 CA 17.23 C 18.79 O 17.68 CB 19.3 CG 24.76 SD 28.3 CE 21.33
A GLU H 120 -66.7 -39.6 N 16.81 CA 18.19 C 20.89 O 18.58 CB 19.82 CG 23.44 CD 29.77 OE1 31.42 OE2 38.63
A ILE H 9 -62.4 -47.7 N 15.2 CA 14.95 C 15.85 O 18.89 CB 16.4 CG1 14.42 CG2 18.88 CD1 17.49
A MET H 2 -59.2 -37.3 N 17.88 CA 18.65 C 17.0 O 18.2 CB 15.77 CG 15.94 SD 22.45 CE 29.15
A SER H 39 -62.2 -18.0 N 17.17 CA 20.01 C 21.31 O 22.48 CB 23.84 OG 30.82
A ARG H 144 -69.2 -28.1 N 19.2 CA 17.69 C 25.77 O 23.59 CB 24.11 CG 23.55 CD 28.15 NE 27.45 CZ 26.08 NH1 27.38 NH2 26.15
A PHE H 56 -90.9 -34.1 N 23.0 CA 22.64 C 27.68 O 29.96 CB 19.54 CG 23.45 CD1 16.23 CD2 22.46 CE1 23.17 CE2 21.93 CZ 23.6
A ALA S 20 -169.6 170.6 N 27.04 CA 29.83 C 29.0 O 25.47 CB 27.55
A VAL - 79 -60.3 128.1 N 29.76 CA 32.85 C 23.27 O 25.96 CB 32.55 CG1 30.79 CG2 37.47
A ILE E 6 -123.2 154.0 N 28.12 CA 23.89 C 19.21 O 19.91 CB 22.46 CG1 27.69 CG2 20.18 CD1 25.74
A GLU E 16 -114.3 107.7 N 17.32 CA 19.32 C 17.28 O 16.33 CB 19.46 CG 18.74 CD 25.15 OE1 27.17 OE2 21.38
A ARG E 50 -62.5 120.5 N 19.86 CA 20.5 C 21.36 O 27.07 CB 24.22 CG 24.61 CD 27.75 NE 25.5 CZ 28.39 NH1 26.69 NH2 26.89
A ALA E 43 -110.6 -15.5 N 19.02 CA 15.98 C 17.98 O 16.91 CB 19.1
A SER E 29 -165.5 -179.0 N 15.27 CA 14.48 C 17.8 O 16.25 CB 17.81 OG 16.37
A ILE T 37 -62.0 -21.2 N 14.54 CA 15.07 C 15.23 O 15.34 CB 18.2 CG1 17.29 CG2 17.51 CD1 19.41
A ASP T 25 -128.7 14.7 N 14.37 CA 14.43 C 16.41 O 12.02 CB 12.43 CG 14.69 OD1 13.31 OD2 14.61
A GLU E 22 -150.6 151.7 N 13.55 CA 15.94 C 16.06 O 16.16 CB 13.49 CG 14.1 CD 18.76 OE1 17.57 OE2 18.23
A ALA E 0 -142.4 146.2 N 16.76 CA 15.74 C 14.94 O 14.87 CB 16.77
A TYR E 9 -87.0 149.3 N 15.3 CA 14.66 C 17.97 O 18.18 CB 13.44 CG 14.65 CD1 15.8 CD2 14.7 CE1 20.75 CE2 17.04 CZ 20.75 OH 21.06
A VAL E 0 -128.1 123.3 N 15.25 CA 17.72 C 20.58 O 17.24 CB 20.28 CG1 22.25 CG2 22.57
A ASP E 49 -91.8 103.5 N 19.05 CA 21.32 C 20.63 O 22.76 CB 21.63 CG 28.81 OD1 23.8 OD2 35.75
A LEU - 0 -97.4 6.2 N 19.73 CA 17.08 C 19.06 O 17.74 CB 18.64 CG 19.6 CD1 23.29 CD2 24.47
A THR H 33 -56.6 -48.9 N 20.04 CA 19.87 C 22.7 O 23.22 CB 22.99 OG1 20.93 CG2 20.99
A SER H 84 -66.5 -45.1 N 23.4 CA 23.07 C 22.46 O 27.03 CB 27.39 OG 36.45
A ALA H 30 -59.9 -36.2 N 21.46 CA 21.51 C 24.59 O 24.47 CB 18.95
A VAL H 0 -66.4 -46.6 N 20.81 CA 21.44 C 24.01 O 25.51 CB 22.07 CG1 18.72 CG2 19.88
A GLN H 77 -53.5 -47.3 N 25.68 CA 33.07 C 34.19 O 39.94 CB 29.31 CG 32.73 CD 44.71 OE1 62.51 NE2 43.64
A GLU H 133 -72.6 -33.0 N 32.33 CA 37.96 C 37.57 O 39.33 CB 35.94 CG 44.22 CD 65.18 OE1 66.54 OE2 57.11
A ARG H 43 -70.4 -32.1 N 30.02 CA 33.03 C 34.92 O 39.07 CB 31.01 CG 31.5 CD 32.77 NE 31.5 CZ 26.82 NH1 26.31 NH2 25.99
A LEU H 4 -66.4 -33.3 N 31.99 CA 32.17 C 45.4 O 44.68 CB 28.53 CG 27.17 CD1 30.93 CD2 32.63
A GLN H 129 -73.0 -44.2 N 45.23 CA 46.06 C 53.7 O 58.03 CB 53.01 CG 53.49 CD 69.26 OE1 77.28 NE2 54.64
A LYS H 131 -59.9 -31.0 N 50.91 CA 50.38 C 57.92 O 62.69 CB 52.27 CG 57.77 CD 57.44 CE 48.54 NZ 55.9
A LEU H 22 -59.0 -43.4 N 55.96 CA 56.84 C 61.09 O 65.83 CB 54.44 CG 55.47 CD1 53.24 CD2 54.53
A GLN T 153 62.0 50.6 N 62.44 CA 64.8 C 61.93 O 64.85 CB 64.29 CG 69.97 CD 69.04 OE1 76.22 NE2 72.04
A GLY T 37 60.2 12.6 N 61.44 CA 58.23 C 59.98 O 55.24
A GLN - 114 -72.3 137.0 N 55.57 CA 57.56 C 51.04 O 48.36 CB 54.93 CG 63.47 CD 68.08 OE1 66.02 NE2 66.26
A PRO - 104 -62.4 152.3 N 47.69 CA 44.97 C 47.15 O 51.81 CB 50.46 CG 45.16 CD 50.75
A ILE - 16 -95.1 117.9 N 39.56 CA 34.47 C 27.95 O 30.76 CB 32.95 CG1 33.77 CG2 25.11 CD1 31.18
A SER - 55 -73.6 144.0 N 30.33 CA 29.15 C 26.61 O 21.81 CB 28.45 OG 34.85
A ALA G 16 -60.0 -22.0 N 20.92 CA 25.08 C 26.28 O 20.97 CB 28.31
A ASP G 131 -65.1 -23.0 N 26.89 CA 26.77 C 25.9 O 23.3 CB 27.93 CG 38.45 OD1 38.75 OD2 50.45
A LEU G 77 -81.1 -7.0 N 20.43 CA 18.43 C 19.61 O 17.68 CB 22.3 CG 24.62 CD1 28.31 CD2 27.33
A LEU - 1 -131.0 55.5 N 17.63 CA 19.76 C 18.74 O 17.52 CB 17.51 CG 19.09 CD1 19.15 CD2 19.2
A PRO T 75 -72.6 -7.9 N 19.63 CA 18.92 C 16.32 O 19.03 CB 23.72 CG 15.93 CD 21.36
A SER T 14 -132.4 20.6 N 18.39 CA 16.23 C 13.71 O 15.52 CB 16.11 OG 19.11
A THR E 0 -100.8 132.4 N 14.36 CA 13.27 C 15.68 O 15.58 CB 15.34 OG1 16.26 CG2 12.12
A TYR E 43 -103.2 141.8 N 15.88 CA 15.87 C 15.29 O 14.8 CB 13.66 CG 18.35 CD1 18.33 CD2 20.43 CE1 17.4 CE2 19.27 CZ 26.88 OH 27.98
A ILE E 5 -104.0 110.6 N 11.24 CA 12.09 C 13.0 O 17.0 CB 13.37 CG1 16.54 CG2 14.48 CD1 14.8
A GLU T 54 -62.7 131.0 N 13.66 CA 13.43 C 16.61 O 17.9 CB 15.24 CG 16.31 CD 24.11 OE1 19.31 OE2 21.0
A GLY T 44 99.0 -10.9 N 16.84 CA 19.89 C 21.19 O 20.48
A LEU - 48 -117.0 152.8 N 20.53 CA 18.56 C 20.04 O 16.81 CB 14.42 CG 20.06 CD1 12.82 CD2 23.87
A PRO S 30 -77.0 160.3 N 18.01 CA 20.23 C 22.07 O 21.47 CB 23.16 CG 26.94 CD 21.16
A GLN - 121 -132.1 163.9 N 24.42 CA 30.12 C 36.39 O 34.0 CB 32.27 CG 39.64 CD 36.63 OE1 39.04 NE2 31.61
A GLY - 66 71.4 -167.7 N 42.56 CA 46.27 C 50.91 O 55.54
A PRO - 178 -82.7 360.0 N 61.11 CA 53.18 C 54.28 O 60.41 CB 54.29 CG 45.59 CD 48.88
A THR - 99 360.0 159.4 N 52.93 CA 50.36 C 42.63 O 58.19 CB 44.98 OG1 47.42 CG2 43.15
A VAL - 147 -126.4 9.7 N 38.68 CA 39.73 C 43.9 O 43.78 CB 42.23 CG1 33.42 CG2 43.07
A GLN S 145 -119.5 148.8 N 37.62 CA 40.11 C 35.88 O 30.44 CB 43.15 CG 50.79 CD 62.52 OE1 63.63 NE2 69.58
A LYS H 172 -55.6 -47.7 N 30.18 CA 34.25 C 24.41 O 23.69 CB 34.91 CG 42.99 CD 52.07 CE 37.28 NZ 46.29
A GLU H 76 -68.7 -32.2 N 24.47 CA 27.75 C 25.61 O 23.49 CB 26.25 CG 27.19 CD 31.91 OE1 31.95 OE2 28.98
A GLY H 23 -63.7 -44.3 N 28.13 CA 28.2 C 28.1 O 25.8
A MET H 83 -60.9 -45.2 N 22.53 CA 23.08 C 19.4 O 21.12 CB 27.29 CG 40.78 SD 49.74 CE 32.61
A ARG H 7 -56.9 -46.5 N 21.51 CA 16.6 C 18.04 O 19.82 CB 17.55 CG 16.98 CD 19.39 NE 20.72 CZ 21.37 NH1 16.97 NH2 22.35
A LYS H 68 -67.1 -40.5 N 18.45 CA 21.0 C 20.51 O 19.94 CB 24.91 CG 33.83 CD 37.43 CE 47.64 NZ 46.16
A GLN H 97 -59.6 -46.2 N 21.94 CA 20.21 C 22.06 O 19.65 CB 24.87 CG 32.75 CD 53.33 OE1 58.35 NE2 61.39
A GLY H 1 -62.2 -45.2 N 24.94 CA 16.9 C 16.92 O 18.58
A LEU H 0 -61.1 -45.3 N 18.14 CA 19.95 C 20.1 O 17.37 CB 17.64 CG 16.55 CD1 16.83 CD2 17.98
A PHE H 89 -56.0 -48.2 N 18.43 CA 20.79 C 18.89 O 25.43 CB 22.16 CG 32.97 CD1 29.74 CD2 32.18 CE1 38.56 CE2 37.16 CZ 35.17
A GLN H 53 -60.0 -42.7 N 20.68 CA 19.75 C 22.32 O 20.81 CB 23.42 CG 23.6 CD 26.38 OE1 27.02 NE2 27.43
A TRP H 24 -63.3 -48.3 N 18.9 CA 18.49 C 19.87 O 21.65 CB 17.63 CG 17.75 CD1 18.29 CD2 15.13 NE1 14.77 CE2 18.42 CE3 16.62 CZ2 18.14 CZ3 17.28 CH2 17.77
A LEU H 26 -70.5 -32.0 N 19.01 CA 21.21 C 27.48 O 30.12 CB 18.23 CG 22.44 CD1 26.38 CD2 22.43
A ASP H 138 -68.1 -30.4 N 25.36 CA 30.88 C 33.85 O 35.02 CB 27.64 CG 34.89 OD1 44.74 OD2 41.06
A SER H 102 -87.1 -15.0 N 25.6 CA 28.63 C 31.35 O 40.11 CB 26.96 OG 36.04
A LEU - 25 -61.3 134.2 N 29.44 CA 24.96 C 39.61 O 40.86 CB 31.7 CG 28.49 CD1 25.38 CD2 26.24
A GLN - 116 -99.9 88.2 N 39.94 CA 44.14 C 48.65 O 51.32 CB 54.09 CG 60.19 CD 63.19 OE1 61.08 NE2 61.27
A ILE T 48 -81.1 -1.9 N 43.66 CA 47.18 C 53.5 O 55.26 CB 44.52 CG1 55.4 CG2 46.0 CD1 49.84
A ASP T 113 -77.7 -25.3 N 55.57 CA 56.72 C 58.5 O 56.44 CB 58.54 CG 68.92 OD1 67.7 OD2 72.72
A ASN - 64 -100.4 100.1 N 54.03 CA 50.37 C 47.66 O 44.38 CB 46.41 CG 46.73 OD1 47.55 ND2 50.97
A LEU T 68 -65.3 -8.3 N 48.08 CA 45.14 C 42.47 O 43.28 CB 43.81 CG 54.17 CD1 44.43 CD2 54.39
A THR T 97 -103.5 1.3 N 46.18 CA 41.9 C 35.59 O 38.55 CB 45.71 OG1 46.42 CG2 48.83
A SER - 19 -62.1 118.1 N 33.86 CA 23.81 C 21.17 O 21.99 CB 31.17 OG 26.2
A PRO H 31 -58.9 -33.8 N 19.85 CA 18.76 C 19.62 O 17.47 CB 20.82 CG 24.14 CD 23.1
A ASP H 52 -66.5 -38.2 N 14.8 CA 18.86 C 16.47 O 19.55 CB 17.34 CG 23.55 OD1 16.67 OD2 25.59
A LEU H 1 -64.7 -44.4 N 15.5 CA 18.54 C 17.66 O 15.89 CB 16.57 CG 20.7 CD1 21.84 CD2 24.29
A GLN H 21 -58.9 -45.1 N 15.67 CA 17.52 C 16.93 O 16.37 CB 15.89 CG 21.45 CD 32.22 OE1 33.03 NE2 37.02
A LEU H 0 -59.6 -41.5 N 16.09 CA 15.42 C 17.06 O 17.7 CB 14.63 CG 14.08 CD1 15.46 CD2 16.08
A THR H 0 -62.7 -47.2 N 12.85 CA 14.4 C 16.37 O 17.06 CB 15.53 OG1 18.43 CG2 16.47
A VAL H 3 -61.6 -39.7 N 17.8 CA 18.5 C 13.74 O 18.14 CB 15.71 CG1 19.95 CG2 18.96
A GLY H 0 -53.5 -47.9 N 16.46 CA 18.41 C 16.1 O 19.63
A ALA H 0 -59.7 -39.6 N 12.26 CA 13.19 C 13.69 O 16.44 CB 14.79
A VAL H 7 -59.4 -46.9 N 12.82 CA 13.21 C 15.41 O 17.78 CB 19.75 CG1 22.01 CG2 16.14
A ILE H 9 -62.5 -41.0 N 12.68 CA 15.33 C 19.28 O 17.31 CB 19.76 CG1 18.42 CG2 17.33 CD1 19.71
A VAL H 0 -66.2 -35.3 N 14.96 CA 11.54 C 15.82 O 13.43 CB 10.89 CG1 13.73 CG2 13.54
A GLU H 20 -55.8 -42.9 N 13.68 CA 16.55 C 15.54 O 15.96 CB 15.97 CG 15.7 CD 18.32 OE1 18.02 OE2 16.22
A GLU H 74 -66.1 -45.2 N 14.88 CA 16.13 C 15.72 O 15.37 CB 21.79 CG 20.16 CD 25.23 OE1 28.67 OE2 28.83
A MET H 0 -58.3 -46.7 N 16.58 CA 13.89 C 16.95 O 12.68 CB 16.31 CG 15.53 SD 20.67 CE 17.29
A ARG H 15 -69.3 -35.3 N 15.18 CA 15.74 C 16.97 O 14.25 CB 16.72 CG 14.09 CD 16.6 NE 14.85 CZ 17.84 NH1 15.21 NH2 17.13
A ALA H 58 -62.8 -40.9 N 16.26 CA 17.6 C 16.37 O 15.36 CB 16.27
A ALA H 12 -65.4 -42.6 N 15.06 CA 14.9 C 16.69 O 16.21 CB 18.95
A ILE H 0 -59.7 -47.3 N 14.86 CA 16.31 C 15.39 O 14.44 CB 12.15 CG1 12.17 CG2 14.39 CD1 13.83
A GLU H 78 -68.6 -41.5 N 14.15 CA 14.77 C 14.12 O 14.97 CB 14.68 CG 16.46 CD 22.55 OE1 23.86 OE2 20.91
A ARG H 199 -61.6 -44.1 N 14.76 CA 15.55 C 18.64 O 18.34 CB 17.23 CG 23.32 CD 27.23 NE 31.14 CZ 29.14 NH1 22.99 NH2 24.75
A GLU H 66 -90.4 -12.2 N 15.41 CA 16.03 C 14.62 O 13.74 CB 13.61 CG 15.36 CD 22.34 OE1 23.19 OE2 27.51
A THR H 9 -128.6 -22.1 N 13.92 CA 12.75 C 15.52 O 16.52 CB 14.41 OG1 16.51 CG2 13.74
A GLY - 45 86.7 -4.5 N 16.6 CA 18.98 C 22.51 O 20.64
A PHE - 1 -91.5 138.9 N 16.82 CA 14.76 C 16.1 O 16.25 CB 14.02 CG 14.19 CD1 13.74 CD2 14.79 CE1 12.4 CE2 12.76 CZ 11.73
A GLN - 66 -96.7 155.0 N 13.89 CA 13.33 C 14.13 O 12.64 CB 11.54 CG 15.8 CD 19.98 OE1 18.27 NE2 24.48
A CYS E 2 -149.3 166.9 N 13.64 CA 11.69 C 13.43 O 14.68 CB 14.43 SG 18.11
A SER E 0 -115.2 164.4 N 12.04 CA 14.71 C 14.28 O 14.3 CB 14.45 OG 17.55
A ALA E 0 -148.0 153.5 N 10.91 CA 9.89 C 10.6 O 12.36 CB 12.13
A GLY E 0 -111.7 141.8 N 14.9 CA 10.41 C 12.37 O 13.81
A ILE E 0 -123.7 122.1 N 10.24 CA 10.85 C 11.87 O 13.0 CB 12.7 CG1 12.25 CG2 14.55 CD1 14.43
A SER E 0 -154.4 -156.0 N 11.86 CA 13.11 C 14.83 O 12.47 CB 15.79 OG 13.46
A HIS S 2 -99.5 -5.6 N 14.32 CA 12.71 C 13.66 O 14.32 CB 16.28 CG 16.84 ND1 16.74 CD2 12.26 CE1 14.66 NE2 16.83
A ASN S 0 -159.0 172.4 N 13.54 CA 13.86 C 11.39 O 15.94 CB 13.84 CG 16.55 OD1 15.69 ND2 17.44
A LYS H 4 -68.3 -41.9 N 13.76 CA 12.65 C 13.51 O 14.67 CB 14.7 CG 16.6 CD 24.1 CE 32.08 NZ 24.45
A VAL H 2 -64.2 -46.0 N 13.72 CA 13.33 C 13.88 O 14.38 CB 16.07 CG1 19.62 CG2 19.78
A LEU H 1 -68.4 -34.9 N 12.97 CA 13.48 C 15.55 O 13.95 CB 12.78 CG 13.76 CD1 16.28 CD2 14.97
A ALA H 0 -64.2 -42.9 N 11.94 CA 12.71 C 14.08 O 14.84 CB 15.67
A LYS H 68 -63.8 -45.8 N 13.2 CA 14.62 C 16.67 O 14.33 CB 12.69 CG 17.59 CD 23.11 CE 26.3 NZ 19.32
A LEU H 22 -59.7 -46.2 N 13.6 CA 13.44 C 16.24 O 15.84 CB 13.97 CG 15.8 CD1 16.59 CD2 18.36
A ALA H 0 -57.6 -44.5 N 13.2 CA 13.77 C 16.03 O 16.96 CB 13.92
A CYS H 2 -51.8 -44.4 N 14.3 CA 14.43 C 14.17 O 15.76 CB 13.76 SG 15.65
A GLY H 49 -73.8 -14.6 N 16.75 CA 16.79 C 17.91 O 17.36
A LEU H 57 -68.8 -26.7 N 17.33 CA 16.93 C 18.89 O 19.28 CB 17.57 CG 20.23 CD1 16.13 CD2 20.49
A ASN T 41 -136.5 27.9 N 13.43 CA 15.68 C 17.0 O 22.73 CB 16.9 CG 16.87 OD1 18.68 ND2 15.86
A LYS - 54 -60.0 144.4 N 18.69 CA 20.92 C 22.03 O 25.67 CB 23.63 CG 22.31 CD 18.19 CE 17.21 NZ 13.27
A PRO S 51 -99.2 167.5 N 14.36 CA 16.9 C 17.36 O 16.46 CB 19.46 CG 20.71 CD 19.99
A ASN S 37 55.5 33.3 N 15.17 CA 14.98 C 14.59 O 15.55 CB 16.15 CG 20.21 OD1 18.22 ND2 24.17
A ARG - 79 -140.4 162.4 N 13.02 CA 13.16 C 14.61 O 15.43 CB 13.58 CG 15.95 CD 19.67 NE 25.38 CZ 30.49 NH1 25.51 NH2 35.11
A GLN E 0 -127.1 152.0 N 13.01 CA 12.64 C 14.28 O 13.46 CB 13.36 CG 12.49 CD 14.76 OE1 18.18 NE2 12.99
A THR E 0 -129.5 130.0 N 11.33 CA 12.54 C 11.76 O 14.38 CB 13.78 OG1 14.24 CG2 16.15
A LEU E 1 -98.6 122.3 N 13.31 CA 11.06 C 13.96 O 12.44 CB 11.43 CG 16.9 CD1 15.83 CD2 14.69
A VAL - 0 -113.6 107.0 N 12.35 CA 12.6 C 13.11 O 12.39 CB 12.04 CG1 13.17 CG2 11.74
A SER - 9 -82.5 163.3 N 13.58 CA 14.35 C 12.37 O 14.08 CB 16.73 OG 16.16
A HIS G 44 -57.1 -40.6 N 11.93 CA 14.77 C 17.45 O 13.62 CB 15.61 CG 17.38 ND1 22.9 CD2 19.08 CE1 22.93 NE2 20.7
A GLY G 59 -66.7 -24.3 N 16.41 CA 16.05 C 15.48 O 15.5
A SER G 14 -75.7 -12.3 N 12.22 CA 11.18 C 12.82 O 13.53 CB 15.93 OG 15.02
A VAL H 3 -66.9 -43.3 N 12.08 CA 13.3 C 13.43 O 13.84 CB 15.61 CG1 16.61 CG2 12.6
A PRO H 91 -59.4 -43.9 N 12.92 CA 15.04 C 14.7 O 14.88 CB 14.26 CG 15.32 CD 12.9
A GLN H 145 -70.5 -43.0 N 12.29 CA 14.46 C 14.62 O 14.2 CB 19.7 CG 20.41 CD 32.4 OE1 32.97 NE2 33.82
A LEU H 17 -57.5 -46.5 N 13.55 CA 12.26 C 13.38 O 14.84 CB 12.62 CG 17.03 CD1 14.54 CD2 18.21
A PHE H 1 -77.7 -16.1 N 14.5 CA 14.3 C 15.01 O 13.46 CB 12.7 CG 13.3 CD1 13.77 CD2 17.42 CE1 17.96 CE2 13.93 CZ 13.83
A SER H 60 -66.2 -21.4 N 14.44 CA 13.91 C 15.86 O 14.55 CB 14.31 OG 14.34
A GLN T 149 -130.0 18.1 N 14.87 CA 17.12 C 19.4 O 19.83 CB 20.98 CG 21.27 CD 25.06 OE1 28.96 NE2 23.42
A MET - 23 -90.9 113.4 N 12.63 CA 16.17 C 15.29 O 15.82 CB 15.35 CG 18.79 SD 20.45 CE 16.32
A PRO B 30 -57.8 138.4 N 17.87 CA 16.99 C 18.19 O 15.41 CB 15.26 CG 19.06 CD 18.04
A ILE G 0 -53.7 -37.0 N 14.99 CA 15.85 C 16.38 O 17.55 CB 21.01 CG1 18.49 CG2 19.62 CD1 20.77
A ARG G 142 -66.9 -11.1 N 15.6 CA 18.27 C 22.28 O 20.28 CB 20.47 CG 21.56 CD 24.15 NE 27.16 CZ 27.03 NH1 27.75 NH2 27.88
A LYS G 112 -82.5 -14.7 N 19.68 CA 17.26 C 21.95 O 19.39 CB 20.22 CG 21.29 CD 25.96 CE 32.55 NZ 33.29
A ILE S 2 -84.9 134.2 N 15.46 CA 16.22 C 22.31 O 16.37 CB 19.16 CG1 21.93 CG2 19.72 CD1 25.89
A ARG T 79 -52.8 126.9 N 19.45 CA 19.33 C 21.16 O 22.96 CB 25.41 CG 27.96 CD 33.57 NE 43.0 CZ 50.03 NH1 47.14 NH2 47.9
A SER T 73 89.9 -10.1 N 21.79 CA 19.13 C 22.65 O 20.13 CB 19.32 OG 21.17
A LEU - 1 -104.5 12.3 N 17.53 CA 18.59 C 19.33 O 19.3 CB 17.87 CG 22.87 CD1 17.11 CD2 19.23
A GLY S 61 -82.0 -1.2 N 17.3 CA 16.0 C 21.92 O 19.89
A GLY S 43 -117.7 -141.6 N 21.27 CA 18.25 C 21.18 O 19.51
A LYS H 191 -65.2 -38.5 N 20.21 CA 19.39 C 18.84 O 20.07 CB 22.24 CG 25.99 CD 31.53 CE 40.65 NZ 44.93
A LEU H 40 -62.9 -47.2 N 15.61 CA 18.17 C 19.47 O 19.82 CB 19.47 CG 19.84 CD1 23.01 CD2 20.82
A GLY H 2 -61.5 -37.2 N 18.67 CA 18.12 C 21.51 O 17.36
A ALA H 56 -65.0 -37.6 N 17.31 CA 20.51 C 22.95 O 25.14 CB 24.2
A SER H 34 -72.8 -35.4 N 18.93 CA 21.79 C 19.87 O 19.81 CB 25.66 OG 32.77
A VAL H 0 -55.4 -49.9 N 18.67 CA 18.23 C 20.65 O 22.12 CB 21.39 CG1 19.24 CG2 22.62
A ILE H 60 -61.7 -46.5 N 16.92 CA 17.19 C 22.51 O 25.13 CB 19.63 CG1 20.87 CG2 26.34 CD1 25.49
A GLU H 152 -72.1 -46.1 N 22.87 CA 23.36 C 24.0 O 26.44 CB 32.05 CG 44.22 CD 49.57 OE1 53.42 OE2 55.51
A ILE H 83 -72.3 -40.2 N 20.85 CA 19.66 C 22.86 O 21.64 CB 20.82 CG1 24.8 CG2 22.6 CD1 28.99
A LEU H 25 -90.3 -18.3 N 20.8 CA 20.88 C 20.97 O 21.83 CB 21.46 CG 20.55 CD1 23.0 CD2 25.7
A GLY T 64 69.9 42.4 N 19.4 CA 23.38 C 24.56 O 24.73
A ILE - 12 -126.8 170.4 N 19.87 CA 20.32 C 18.51 O 18.47 CB 17.6 CG1 20.33 CG2 18.11 CD1 22.4
A GLU - 122 -123.5 -31.9 N 19.11 CA 18.32 C 20.31 O 19.29 CB 21.87 CG 27.16 CD 35.91 OE1 47.71 OE2 40.71
A TYR B 75 -114.4 150.1 N 17.18 CA 15.84 C 17.62 O 16.37 CB 15.39 CG 16.59 CD1 19.19 CD2 17.49 CE1 22.91 CE2 19.88 CZ 23.12 OH 23.33
A MET G 0 -56.2 -39.0 N 14.29 CA 16.61 C 19.11 O 15.93 CB 20.03 CG 25.26 SD 22.1 CE 21.19
A GLY G 16 -65.4 -29.8 N 17.39 CA 15.56 C 19.07 O 16.15
A GLU G 74 -61.1 -19.2 N 15.2 CA 13.18 C 15.24 O 15.97 CB 14.6 CG 15.54 CD 19.77 OE1 17.22 OE2 21.29
A LEU G 0 -65.4 -20.2 N 15.41 CA 16.36 C 14.35 O 14.82 CB 15.44 CG 17.43 CD1 17.6 CD2 15.96
A THR G 44 -65.7 -17.2 N 15.68 CA 17.26 C 14.8 O 17.28 CB 20.49 OG1 17.05 CG2 16.59
A GLN G 152 -79.8 -6.9 N 14.98 CA 20.16 C 24.43 O 27.47 CB 21.12 CG 20.33 CD 30.01 OE1 30.15 NE2 30.47
A PHE S 42 -106.2 146.6 N 14.96 CA 16.05 C 19.63 O 19.27 CB 17.44 CG 18.47 CD1 21.98 CD2 15.16 CE1 23.8 CE2 18.77 CZ 21.4
A THR - 75 -75.1 161.2 N 18.04 CA 17.46 C 17.28 O 17.78 CB 17.19 OG1 15.61 CG2 21.8
A GLU H 75 -59.0 -40.6 N 17.88 CA 15.68 C 17.43 O 19.23 CB 19.0 CG 18.4 CD 31.18 OE1 23.16 OE2 27.54
A SER H 84 -63.8 -39.0 N 18.7 CA 18.12 C 17.24 O 17.04 CB 20.59 OG 22.89
A GLN H 85 -60.6 -47.5 N 17.49 CA 15.64 C 18.4 O 19.27 CB 19.52 CG 24.77 CD 28.71 OE1 20.34 NE2 32.57
A LEU H 0 -66.2 -41.0 N 16.82 CA 17.32 C 19.19 O 18.79 CB 17.12 CG 16.33 CD1 16.81 CD2 18.78
A GLN H 53 -63.2 -32.9 N 18.4 CA 16.96 C 19.83 O 20.83 CB 19.93 CG 22.39 CD 23.79 OE1 21.44 NE2 25.39
A SER H 87 -67.6 -30.6 N 20.75 CA 20.72 C 26.64 O 25.61 CB 17.0 OG 21.48
A HIS H 89 -89.7 -36.8 N 20.8 CA 19.17 C 23.24 O 30.41 CB 24.17 CG 24.53 ND1 27.54 CD2 27.66 CE1 27.97 NE2 30.81
A PHE H 19 -122.8 6.2 N 21.32 CA 21.29 C 24.18 O 26.19 CB 20.19 CG 19.83 CD1 19.58 CD2 19.91 CE1 18.59 CE2 18.81 CZ 24.18
A GLY - 35 91.7 163.8 N 22.94 CA 24.15 C 22.21 O 21.65
A GLU H 151 -63.3 -46.8 N 17.85 CA 23.02 C 23.64 O 18.65 CB 24.84 CG 28.7 CD 44.5 OE1 47.06 OE2 37.65
A LYS H 176 -66.3 -54.0 N 21.41 CA 21.23 C 23.49 O 21.48 CB 27.73 CG 40.97 CD 49.95 CE 50.45 NZ 50.25
A ASN H 63 -63.9 -38.0 N 21.82 CA 22.31 C 21.31 O 18.62 CB 23.56 CG 25.67 OD1 27.08 ND2 24.05
A GLY H 0 -63.6 -47.7 N 21.58 CA 18.74 C 20.68 O 16.23
A SER H 40 -59.4 -44.5 N 17.25 CA 18.19 C 19.33 O 18.61 CB 23.63 OG 27.24
A TRP H 57 -61.8 -46.4 N 15.9 CA 19.41 C 15.77 O 17.54 CB 20.49 CG 21.86 CD1 25.17 CD2 19.34 NE1 24.75 CE2 22.1 CE3 23.35 CZ2 19.05 CZ3 22.53 CH2 18.33
A LEU H 0 -63.1 -42.7 N 18.02 CA 18.22 C 13.83 O 15.42 CB 14.2 CG 18.08 CD1 18.41 CD2 20.91
A TYR H 73 -58.0 -46.2 N 16.04 CA 15.82 C 19.58 O 14.99 CB 18.67 CG 17.65 CD1 16.37 CD2 20.53 CE1 19.0 CE2 21.84 CZ 22.09 OH 24.89
A ALA H 26 -71.4 -43.8 N 16.3 CA 14.95 C 17.81 O 15.56 CB 18.56
A MET H 0 -65.6 -35.0 N 17.08 CA 16.91 C 13.79 O 14.31 CB 13.71 CG 17.1 SD 19.19 CE 17.83
A CYS T 4 -72.2 -12.9 N 14.75 CA 15.88 C 17.88 O 16.87 CB 16.88 SG 16.85
A ARG T 76 -96.4 4.5 N 14.8 CA 12.95 C 17.23 O 15.59 CB 16.42 CG 16.19 CD 21.03 NE 22.0 CZ 18.51 NH1 19.36 NH2 18.89
A GLY T 0 88.3 15.5 N 14.6 CA 15.74 C 16.13 O 17.65
A ILE - 20 -114.2 128.9 N 16.89 CA 15.39 C 15.81 O 15.37 CB 16.53 CG1 17.55 CG2 18.97 CD1 22.96
A GLU - 7 -154.5 143.0 N 15.78 CA 17.24 C 22.67 O 23.16 CB 22.46 CG 29.73 CD 27.87 OE1 22.54 OE2 35.9
A HIS - 117 -119.0 4.8 N 22.9 CA 25.86 C 24.52 O 28.38 CB 26.48 CG 35.34 ND1 36.43 CD2 37.04 CE1 38.09 NE2 39.28
A ASP - 48 -54.6 121.2 N 22.27 CA 21.86 C 23.64 O 21.31 CB 24.27 CG 32.02 OD1 35.25 OD2 36.74
A PRO - 74 -76.0 154.8 N 19.44 CA 21.31 C 19.23 O 19.77 CB 19.97 CG 21.61 CD 22.43
A VAL - 9 -72.8 109.4 N 20.63 CA 17.66 C 18.87 O 19.98 CB 16.73 CG1 19.62 CG2 14.3
A LYS - 66 -80.3 134.7 N 20.26 CA 18.47 C 18.52 O 23.43 CB 22.35 CG 24.43 CD 33.3 CE 39.55 NZ 32.08
A PRO S 112 -72.5 85.8 N 23.11 CA 20.71 C 24.9 O 23.82 CB 23.43 CG 26.53 CD 23.09
A ARG B 71 -154.9 107.4 N 22.21 CA 20.96 C 22.49 O 23.98 CB 25.05 CG 27.12 CD 27.43 NE 28.47 CZ 28.21 NH1 25.09 NH2 22.67
A GLN - 69 -99.9 -20.2 N 22.99 CA 25.22 C 30.21 O 33.56 CB 33.35 CG 39.68 CD 37.62 OE1 44.58 NE2 33.03
A LEU S 63 -101.2 144.9 N 25.3 CA 30.4 C 27.45 O 25.44 CB 27.8 CG 27.95 CD1 31.27 CD2 28.17
A PRO - 44 -59.8 151.6 N 27.64 CA 25.92 C 24.28 O 28.9 CB 29.07 CG 27.91 CD 25.02
A LYS S 141 -87.3 -16.7 N 25.01 CA 23.42 C 26.72 O 24.02 CB 29.84 CG 31.49 CD 35.75 CE 38.48 NZ 46.96
A THR - 70 -136.7 158.8 N 24.83 CA 22.68 C 23.66 O 24.87 CB 23.34 OG1 26.24 CG2 23.59
A ILE E 12 -131.7 117.1 N 19.33 CA 17.55 C 19.11 O 19.06 CB 20.36 CG1 23.67 CG2 23.78 CD1 19.38
A GLY E 20 -134.1 156.7 N 20.74 CA 21.64 C 21.07 O 21.75
A CYS E 2 -134.3 126.0 N 19.0 CA 22.03 C 21.59 O 21.41 CB 19.08 SG 28.36
A SER E 55 -144.1 153.9 N 21.24 CA 19.78 C 21.23 O 19.34 CB 20.69 OG 24.43
A LYS E 29 -143.8 131.3 N 19.66 CA 19.72 C 19.35 O 17.34 CB 18.74 CG 20.26 CD 21.89 CE 20.9 NZ 25.04
A ASN E 80 -85.7 148.8 N 17.94 CA 22.05 C 26.2 O 22.41 CB 20.89 CG 28.26 OD1 27.35 ND2 32.25
A PHE - 6 -126.6 78.8 N 22.25 CA 23.27 C 26.4 O 23.13 CB 21.09 CG 20.66 CD1 19.64 CD2 23.28 CE1 19.4 CE2 23.74 CZ 20.85
A PRO - 86 -76.0 155.4 N 28.36 CA 30.67 C 30.96 O 27.79 CB 32.04 CG 32.26 CD 27.59
A GLY G 55 53.9 -129.2 N 33.94 CA 28.32 C 29.88 O 28.51
A LYS G 173 -72.5 -7.5 N 29.98 CA 31.75 C 29.85 O 29.94 CB 33.96 CG 36.04 CD 48.89 CE 57.63 NZ 46.81
A THR G 63 -84.0 -4.1 N 28.69 CA 29.77 C 25.09 O 26.71 CB 31.87 OG1 31.26 CG2 36.35
A ALA S 9 -50.4 138.7 N 23.06 CA 25.32 C 28.13 O 29.1 CB 25.29
A LEU E 1 -75.0 127.2 N 22.22 CA 26.6 C 27.0 O 31.86 CB 25.88 CG 24.7 CD1 19.81 CD2 23.61
A ALA E 37 -126.0 -1.7 N 27.04 CA 30.9 C 32.36 O 31.46 CB 33.24
A THR E 38 -128.6 154.9 N 25.23 CA 27.03 C 33.33 O 28.65 CB 29.95 OG1 30.62 CG2 28.22
A ARG H 81 -62.6 -43.3 N 31.49 CA 30.05 C 31.73 O 32.02 CB 34.84 CG 41.81 CD 49.47 NE 62.59 CZ 62.84 NH1 62.63 NH2 58.81
A GLU H 125 -56.9 -40.5 N 29.01 CA 34.66 C 31.48 O 27.45 CB 34.74 CG 43.15 CD 54.51 OE1 50.17 OE2 62.68
A GLN H 67 -60.2 -49.2 N 28.49 CA 29.93 C 27.55 O 26.21 CB 33.1 CG 30.14 CD 26.76 OE1 27.04 NE2 29.1
A VAL H 0 -61.9 -41.8 N 25.54 CA 24.46 C 26.53 O 24.58 CB 29.49 CG1 23.96 CG2 29.07
A GLN H 63 -73.6 -32.0 N 23.97 CA 25.72 C 26.88 O 26.33 CB 33.62 CG 46.27 CD 42.43 OE1 57.3 NE2 52.12
A TRP H 125 -70.2 -43.6 N 21.7 CA 24.14 C 17.73 O 21.24 CB 22.31 CG 27.49 CD1 26.48 CD2 25.35 NE1 24.91 CE2 25.62 CE3 22.87 CZ2 28.84 CZ3 26.71 CH2 26.98
A TRP H 40 -70.2 -30.3 N 19.27 CA 18.63 C 21.01 O 20.01 CB 19.09 CG 24.62 CD1 25.56 CD2 20.72 NE1 22.57 CE2 23.1 CE3 20.79 CZ2 22.61 CZ3 24.84 CH2 22.81
A LEU H 1 -64.1 -39.6 N 17.21 CA 19.97 C 21.37 O 20.85 CB 16.76 CG 19.92 CD1 21.72 CD2 24.11
A LEU H 30 -60.8 -43.7 N 19.88 CA 20.61 C 20.12 O 20.03 CB 23.08 CG 21.33 CD1 25.9 CD2 22.71
A GLN H 16 -64.1 -45.1 N 19.82 CA 19.83 C 19.46 O 19.55 CB 17.97 CG 22.81 CD 21.5 OE1 22.76 NE2 23.41
A LEU H 0 -60.6 -42.7 N 16.87 CA 19.38 C 21.48 O 17.93 CB 19.77 CG 21.03 CD1 25.19 CD2 27.23
A ALA H 0 -69.1 -30.7 N 17.17 CA 19.19 C 19.91 O 18.61 CB 20.46
A GLN H 48 -70.0 -40.4 N 18.62 CA 18.03 C 21.53 O 18.94 CB 20.03 CG 25.89 CD 35.16 OE1 33.06 NE2 35.31
A GLU H 8 -66.1 -41.3 N 17.62 CA 20.31 C 16.16 O 20.36 CB 21.12 CG 24.94 CD 27.65 OE1 28.56 OE2 28.63
A LEU H 0 -63.5 -44.8 N 19.07 CA 17.31 C 21.69 O 19.0 CB 16.34 CG 19.9 CD1 26.25 CD2 25.21
A GLU H 62 -55.1 -45.9 N 18.27 CA 22.49 C 19.33 O 22.13 CB 20.59 CG 27.46 CD 40.59 OE1 50.92 OE2 36.51
A GLU H 116 -63.4 -41.5 N 20.07 CA 20.2 C 21.08 O 21.37 CB 24.82 CG 36.89 CD 45.43 OE1 46.83 OE2 48.16
A ARG H 42 -70.5 -37.0 N 19.45 CA 20.05 C 19.25 O 20.88 CB 18.29 CG 24.0 CD 27.89 NE 25.68 CZ 26.51 NH1 25.99 NH2 22.94
A LEU H 0 -68.1 -40.5 N 16.92 CA 19.43 C 23.17 O 21.09 CB 19.67 CG 20.33 CD1 19.99 CD2 18.83
A THR H 38 -65.4 -43.3 N 21.5 CA 22.88 C 22.37 O 23.52 CB 23.64 OG1 24.02 CG2 28.1
A LYS H 106 -59.4 -45.8 N 21.49 CA 21.17 C 24.65 O 23.64 CB 27.96 CG 31.26 CD 40.5 CE 46.16 NZ 35.53
A ASP H 11 -60.3 -40.7 N 24.06 CA 21.29 C 23.67 O 28.06 CB 20.86 CG 26.92 OD1 24.16 OD2 25.07
A ARG H 91 -65.5 -38.9 N 21.22 CA 23.41 C 23.49 O 23.5 CB 26.95 CG 29.66 CD 30.32 NE 32.57 CZ 38.79 NH1 39.3 NH2 31.03
A ASN H 111 -68.3 -44.1 N 21.26 CA 23.62 C 31.44 O 29.04 CB 25.81 CG 25.98 OD1 29.82 ND2 30.77
A ASP H 82 -73.1 -43.0 N 26.28 CA 27.13 C 28.27 O 29.1 CB 26.92 CG 35.33 OD1 32.93 OD2 36.09
A ASN H 52 -120.9 8.6 N 25.1 CA 26.2 C 25.43 O 25.33 CB 21.74 CG 29.99 OD1 26.12 ND2 27.38
A ASP S 105 52.8 56.0 N 20.83 CA 23.28 C 28.47 O 28.77 CB 31.18 CG 34.92 OD1 35.98 OD2 32.7
A ARG E 33 -157.3 159.9 N 28.98 CA 29.06 C 27.57 O 26.26 CB 27.62 CG 28.72 CD 25.72 NE 27.41 CZ 29.42 NH1 23.32 NH2 33.36
A VAL E 39 -133.0 136.3 N 25.26 CA 25.69 C 25.58 O 23.28 CB 26.95 CG1 34.9 CG2 31.57
A ALA E 3 -73.6 147.3 N 21.42 CA 22.61 C 25.08 O 27.43 CB 18.63
A THR E 58 -124.8 -5.4 N 21.51 CA 22.32 C 24.98 O 24.7 CB 28.14 OG1 28.34 CG2 27.53
A GLN E 46 -133.3 141.8 N 23.96 CA 25.97 C 24.2 O 23.69 CB 25.54 CG 27.49 CD 33.09 OE1 38.01 NE2 40.91
A LEU E 1 -115.5 121.9 N 25.91 CA 26.1 C 27.1 O 27.85 CB 23.01 CG 25.37 CD1 22.92 CD2 29.56
A VAL E 30 -101.2 128.4 N 22.51 CA 20.9 C 26.1 O 24.19 CB 23.57 CG1 25.46 CG2 25.92
A VAL E 0 -111.4 121.9 N 18.09 CA 21.87 C 22.22 O 23.69 CB 21.51 CG1 23.38 CG2 22.16
A SER E 5 -120.7 137.1 N 18.95 CA 22.52 C 21.37 O 25.32 CB 23.97 OG 29.82
A ILE E 1 -128.3 158.3 N 19.59 CA 22.17 C 22.95 O 21.5 CB 23.69 CG1 26.64 CG2 22.11 CD1 28.58
A ARG E 42 -122.1 137.4 N 23.49 CA 25.54 C 27.31 O 24.82 CB 24.19 CG 26.21 CD 29.63 NE 30.87 CZ 38.68 NH1 35.82 NH2 39.62
A VAL E 33 -102.4 150.3 N 29.16 CA 29.43 C 25.23 O 29.94 CB 27.87 CG1 26.65 CG2 36.89
A GLN T 104 -59.1 131.8 N 28.95 CA 31.85 C 29.68 O 31.89 CB 31.99 CG 33.31 CD 37.88 OE1 45.25 NE2 34.27
A GLY T 81 98.8 -17.3 N 35.38 CA 36.92 C 41.26 O 44.77
A ASP - 36 -93.2 122.2 N 29.91 CA 35.23 C 41.16 O 39.1 CB 35.08 CG 35.81 OD1 35.17 OD2 34.07
A LYS - 208 -89.7 -2.2 N 34.97 CA 37.08 C 40.18 O 32.2 CB 40.35 CG 42.81 CD 54.72 CE 58.58 NZ 59.24
A ARG S 145 -70.3 152.8 N 35.42 CA 35.67 C 30.85 O 31.6 CB 35.22 CG 37.37 CD 34.39 NE 35.89 CZ 36.21 NH1 31.15 NH2 35.99
A LEU S 123 -55.4 -53.3 N 33.55 CA 33.81 C 30.56 O 28.55 CB 30.9 CG 35.6 CD1 35.68 CD2 38.89
A SER - 11 -121.6 135.5 N 29.05 CA 29.59 C 26.99 O 31.8 CB 27.64 OG 33.14
A SER S 22 -87.9 -25.9 N 27.31 CA 28.35 C 30.24 O 26.03 CB 28.56 OG 25.67
A LEU E 34 -166.8 134.9 N 27.59 CA 23.81 C 27.22 O 25.78 CB 21.27 CG 27.91 CD1 40.41 CD2 33.79
A ARG E 167 -125.3 136.3 N 21.23 CA 23.79 C 24.03 O 24.17 CB 24.29 CG 29.13 CD 30.22 NE 35.2 CZ 31.34 NH1 28.09 NH2 25.96
A ARG E 128 -137.7 151.1 N 20.45 CA 23.76 C 27.8 O 25.05 CB 21.37 CG 24.3 CD 25.43 NE 25.6 CZ 31.92 NH1 31.16 NH2 34.37
A CYS E 73 -122.5 158.2 N 33.55 CA 29.51 C 30.25 O 31.85 CB 33.72 SG 35.45
A CYS E 28 -146.8 172.4 N 30.68 CA 36.02 C 33.37 O 28.18 CB 32.61 SG 36.85
A ALA E 62 -72.2 136.1 N 24.91 CA 27.14 C 28.48 O 32.14 CB 27.67
A LEU - 10 -103.0 93.8 N 21.95 CA 27.3 C 28.97 O 30.82 CB 25.18 CG 27.36 CD1 25.22 CD2 28.43
A THR - 101 -101.2 -18.0 N 29.38 CA 28.81 C 31.27 O 33.9 CB 32.18 OG1 36.31 CG2 33.29
A ARG - 173 -144.6 134.4 N 30.56 CA 33.2 C 28.26 O 30.8 CB 35.39 CG 43.17 CD 51.53 NE 57.65 CZ 47.02 NH1 37.17 NH2 50.83
A TYR - 31 -77.5 75.5 N 25.36 CA 23.37 C 28.99 O 28.17 CB 25.35 CG 21.67 CD1 21.03 CD2 24.52 CE1 24.09 CE2 24.63 CZ 22.32 OH 21.54
A ASP - 69 -135.6 117.5 N 27.3 CA 25.06 C 22.86 O 22.55 CB 25.89 CG 33.55 OD1 29.61 OD2 45.62
A ALA H 2 -63.7 -39.3 N 22.49 CA 25.46 C 23.27 O 24.31 CB 24.32
A HIS H 120 -66.5 -39.7 N 25.11 CA 27.15 C 23.11 O 25.64 CB 29.29 CG 31.84 ND1 37.83 CD2 36.7 CE1 36.29 NE2 37.83
A LYS H 64 -67.1 -43.3 N 24.93 CA 25.19 C 25.27 O 26.02 CB 26.24 CG 30.5 CD 33.0 CE 33.71 NZ 34.76
A MET H 4 -63.9 -40.2 N 24.44 CA 22.47 C 22.87 O 24.16 CB 24.93 CG 18.96 SD 28.26 CE 23.04
A SER H 14 -72.2 -35.4 N 24.75 CA 20.31 C 25.01 O 21.21 CB 29.4 OG 28.55
A HIS H 127 -65.6 -45.5 N 25.5 CA 23.44 C 24.78 O 26.09 CB 28.75 CG 43.05 ND1 43.82 CD2 44.27 CE1 34.16 NE2 48.31
A ASP H 33 -62.9 -41.0 N 30.57 CA 24.77 C 26.46 O 25.78 CB 26.47 CG 32.45 OD1 32.0 OD2 31.52
A ALA H 0 -61.5 -41.7 N 21.68 CA 21.64 C 21.93 O 26.65 CB 25.71
A PHE H 14 -64.4 -45.2 N 23.47 CA 24.96 C 28.53 O 31.73 CB 23.1 CG 34.04 CD1 35.33 CD2 32.33 CE1 39.19 CE2 40.67 CZ 40.2
A THR H 54 -52.3 -43.9 N 29.62 CA 29.21 C 30.62 O 29.21 CB 24.63 OG1 31.8 CG2 32.44
A VAL H 31 -82.2 -11.4 N 30.52 CA 29.06 C 28.46 O 25.55 CB 29.75 CG1 27.34 CG2 30.16
A ILE H 0 -112.0 -15.0 N 28.06 CA 30.42 C 32.37 O 30.16 CB 30.25 CG1 26.86 CG2 26.75 CD1 28.58
A LYS G 86 -56.9 -20.4 N 29.97 CA 33.12 C 39.04 O 40.83 CB 37.22 CG 35.11 CD 41.31 CE 39.58 NZ 47.5
A ASN G 120 -64.2 -26.3 N 43.44 CA 42.41 C 44.86 O 39.11 CB 50.65 CG 51.17 OD1 48.71 ND2 58.81
A CYS G 36 -75.0 -14.7 N 38.57 CA 39.19 C 37.06 O 45.44 CB 40.47 SG 53.45
A ASN - 35 -70.1 110.7 N 37.5 CA 36.98 C 45.14 O 43.34 CB 35.7 CG 34.98 OD1 35.3 ND2 39.08
A THR - 107 -91.3 10.0 N 40.02 CA 45.48 C 44.57 O 51.82 CB 44.43 OG1 47.4 CG2 48.89
A SER - 28 -77.8 135.3 N 42.38 CA 45.08 C 52.6 O 49.61 CB 41.94 OG 45.06
A GLY S 82 -73.1 -24.6 N 55.04 CA 56.06 C 60.64 O 60.5
A ILE S 106 -86.9 136.6 N 57.55 CA 54.75 C 58.57 O 57.07 CB 51.75 CG1 58.82 CG2 51.74 CD1 59.69
A GLN S 151 -47.2 -52.4 N 66.38 CA 67.9 C 60.46 O 61.64 CB 65.92 CG 73.62 CD 79.38 OE1 82.53 NE2 80.28
A THR S 79 -79.2 -22.2 N 58.82 CA 51.51 C 48.04 O 41.69 CB 53.98 OG1 57.52 CG2 54.79
A GLU E 70 -95.4 152.1 N 39.79 CA 42.15 C 39.99 O 42.21 CB 43.35 CG 46.98 CD 44.3 OE1 45.93 OE2 41.52
A TRP E 5 -119.3 119.8 N 36.17 CA 33.28 C 33.34 O 32.68 CB 35.0 CG 25.04 CD1 33.9 CD2 27.46 NE1 27.68 CE2 30.36 CE3 33.91 CZ2 31.19 CZ3 38.34 CH2 36.9
A SER E 36 -137.4 147.9 N 34.22 CA 33.66 C 37.49 O 39.64 CB 39.24 OG 48.2
A PRO E 45 -70.0 151.5 N 35.41 CA 37.48 C 35.63 O 31.58 CB 39.63 CG 37.09 CD 39.69
A PRO E 31 -57.5 149.9 N 34.5 CA 32.83 C 25.44 O 31.41 CB 35.11 CG 34.44 CD 34.35
A LEU E 0 -95.8 126.2 N 26.2 CA 25.98 C 25.46 O 23.66 CB 24.11 CG 28.43 CD1 27.03 CD2 27.76
A THR E 17 -103.2 1.1 N 20.59 CA 21.56 C 22.35 O 22.18 CB 27.49 OG1 27.11 CG2 29.85
A MET E 4 -158.1 143.1 N 21.38 CA 17.94 C 19.59 O 20.52 CB 23.74 CG 22.68 SD 32.52 CE 31.31
A LEU E 0 -124.7 139.1 N 19.8 CA 17.89 C 19.51 O 21.17 CB 18.55 CG 22.53 CD1 23.24 CD2 23.16
A PHE E 58 -148.4 118.3 N 17.54 CA 18.58 C 22.67 O 25.05 CB 20.42 CG 23.29 CD1 25.76 CD2 34.65 CE1 25.07 CE2 34.6 CZ 27.23
A LEU E 0 -109.7 130.8 N 16.14 CA 20.26 C 21.74 O 20.68 CB 21.38 CG 24.06 CD1 22.14 CD2 22.38
A CYS E 16 -135.5 121.8 N 20.88 CA 20.28 C 19.7 O 21.09 CB 22.85 SG 28.37
A ALA E 0 -90.7 129.6 N 21.37 CA 22.64 C 18.89 O 19.42 CB 17.45
A THR E 17 -140.9 179.9 N 22.7 CA 23.83 C 24.49 O 22.83 CB 25.51 OG1 32.11 CG2 29.83
A LYS E 126 54.6 65.8 N 25.26 CA 23.75 C 24.19 O 24.66 CB 27.03 CG 36.92 CD 39.45 CE 44.3 NZ 48.01
A PHE E 42 -73.9 143.6 N 24.4 CA 23.62 C 31.45 O 30.06 CB 24.4 CG 27.93 CD1 24.88 CD2 33.71 CE1 24.59 CE2 30.8 CZ 26.1
A SER E 63 -127.0 147.6 N 26.91 CA 25.33 C 29.67 O 27.84 CB 31.12 OG 45.49
A ALA E 96 -58.7 144.6 N 29.8 CA 25.85 C 34.76 O 33.09 CB 32.1
A SER - 99 -143.2 360.0 N 30.33 CA 34.05 C 38.22 O 47.56 CB 34.08 OG 48.99 OXT 43.62
