A ASN - 158 360.0 -87.3 N 25.37 CA 25.6 C 23.49 O 22.58 CB 28.45 CG 28.55 OD1 28.49 ND2 30.46
A THR - 78 -92.8 0.7 N 23.91 CA 21.8 C 21.7 O 22.72 CB 22.82 OG1 24.94 CG2 22.97
A LYS - 34 -69.7 140.0 N 21.04 CA 19.3 C 17.39 O 15.35 CB 20.78 CG 21.23 CD 22.95 CE 23.24 NZ 25.41
A VAL E 0 -128.2 143.9 N 16.05 CA 15.64 C 14.67 O 15.68 CB 15.45 CG1 14.78 CG2 15.9
A VAL E 0 -116.5 128.5 N 13.52 CA 13.39 C 12.5 O 12.82 CB 14.25 CG1 15.39 CG2 16.05
A ALA E 0 -107.4 111.7 N 12.17 CA 11.62 C 12.5 O 12.64 CB 10.68
A ILE E 0 -113.9 128.7 N 12.84 CA 13.8 C 14.67 O 15.54 CB 14.35 CG1 15.77 CG2 13.99 CD1 17.53
A GLY E 0 -170.1 -157.4 N 15.44 CA 16.13 C 17.09 O 17.01
A ASP S 1 -106.9 -143.4 N 17.75 CA 18.89 C 18.08 O 16.79 CB 22.33 CG 22.71 OD1 20.58 OD2 24.96
A SER H 6 -61.2 -32.1 N 18.44 CA 17.7 C 15.79 O 15.49 CB 18.54 OG 19.25
A PHE H 3 -75.6 -0.5 N 15.58 CA 14.85 C 13.59 O 14.03 CB 16.38 CG 17.74 CD1 19.48 CD2 18.71 CE1 22.15 CE2 21.02 CZ 22.71
A THR H 0 -111.1 -34.8 N 13.14 CA 12.35 C 12.83 O 12.52 CB 11.76 OG1 12.31 CG2 11.58
A PHE H 44 -60.8 -39.7 N 14.01 CA 15.11 C 15.62 O 16.04 CB 15.71 CG 16.81 CD1 17.26 CD2 19.42 CE1 19.7 CE2 19.43 CZ 20.0
A GLY T 0 107.6 29.1 N 15.25 CA 15.14 C 16.29 O 17.96
A TYR T 65 -65.6 142.2 N 17.66 CA 17.77 C 18.72 O 19.32 CB 18.54 CG 21.7 CD1 22.08 CD2 22.9 CE1 24.14 CE2 24.93 CZ 25.97 OH 28.92
A PRO T 44 -88.4 5.8 N 20.22 CA 19.82 C 21.1 O 23.26 CB 21.44 CG 20.77 CD 20.13
A GLY S 40 -78.5 -164.4 N 22.01 CA 24.53 C 23.97 O 22.32
A ASN - 72 -101.4 150.6 N 27.97 CA 28.55 C 26.37 O 26.37 CB 34.32 CG 42.24 OD1 46.34 ND2 44.96
A THR G 47 -42.3 -27.2 N 26.1 CA 24.72 C 23.69 O 22.42 CB 25.49 OG1 24.95 CG2 27.18
A GLU G 147 -70.3 -21.0 N 23.77 CA 24.35 C 22.2 O 22.18 CB 28.15 CG 30.88 CD 37.07 OE1 44.95 OE2 40.46
A ASN G 75 -104.7 6.8 N 19.69 CA 19.25 C 18.35 O 17.58 CB 20.31 CG 22.64 OD1 27.14 ND2 22.83
A SER S 0 -74.3 166.2 N 15.99 CA 14.52 C 14.31 O 14.97 CB 13.8 OG 12.73
A TRP H 0 -59.2 -27.7 N 13.92 CA 13.87 C 14.6 O 16.07 CB 13.6 CG 12.72 CD1 13.38 CD2 12.78 NE1 13.7 CE2 12.8 CE3 12.73 CZ2 12.17 CZ3 12.64 CH2 13.1
A PRO H 1 -70.4 -32.1 N 14.9 CA 15.22 C 16.1 O 17.42 CB 14.61 CG 13.93 CD 14.24
A ALA H 27 -65.4 -42.4 N 17.06 CA 18.35 C 19.87 O 23.45 CB 18.34
A VAL H 13 -65.8 -42.1 N 19.44 CA 21.15 C 20.83 O 21.08 CB 20.82 CG1 22.07 CG2 20.77
A LEU H 0 -49.1 -53.8 N 18.55 CA 18.54 C 19.01 O 21.1 CB 16.7 CG 17.06 CD1 17.52 CD2 16.58
A GLY H 10 -64.0 -37.9 N 17.78 CA 20.04 C 22.27 O 22.55
A GLN H 121 -68.0 -37.8 N 23.74 CA 28.22 C 29.4 O 31.17 CB 30.64 CG 32.95 CD 38.57 OE1 40.04 NE2 42.07
A THR H 63 -73.7 -50.1 N 29.4 CA 29.98 C 30.66 O 32.9 CB 29.07 OG1 29.27 CG2 31.21
A SER T 36 -84.2 4.6 N 28.76 CA 29.13 C 31.46 O 31.24 CB 28.3 OG 27.95
A GLN T 172 46.2 46.3 N 30.24 CA 31.36 C 30.85 O 32.52 CB 34.32 CG 35.45 CD 36.9 OE1 37.34 NE2 37.36
A ILE S 36 -131.4 173.0 N 27.89 CA 26.39 C 25.58 O 25.43 CB 22.63 CG1 20.28 CG2 23.73 CD1 18.98
A GLU - 112 -92.3 119.4 N 25.79 CA 26.76 C 23.46 O 20.03 CB 31.09 CG 33.24 CD 38.0 OE1 40.27 OE2 40.53
A VAL E 28 -119.6 128.9 N 21.12 CA 19.24 C 18.75 O 19.25 CB 19.53 CG1 19.06 CG2 18.41
A VAL E 27 -106.9 127.2 N 18.35 CA 18.59 C 16.38 O 15.7 CB 20.22 CG1 20.77 CG2 22.87
A ASN E 40 -92.4 105.3 N 15.17 CA 14.69 C 15.37 O 16.52 CB 14.61 CG 15.44 OD1 16.83 ND2 14.82
A LYS E 50 -112.0 39.3 N 15.58 CA 17.03 C 17.93 O 18.32 CB 18.08 CG 19.4 CD 21.79 CE 24.27 NZ 26.94
A GLY E 4 -90.2 138.6 N 18.33 CA 18.34 C 19.92 O 19.91
A LEU - 76 -129.0 145.2 N 21.13 CA 24.83 C 24.64 O 25.16 CB 28.37 CG 32.14 CD1 36.32 CD2 32.6
A LYS T 101 -58.5 140.2 N 25.55 CA 27.28 C 27.83 O 26.63 CB 28.74 CG 30.57 CD 34.54 CE 37.84 NZ 41.12
A SER T 58 55.0 21.2 N 29.63 CA 31.97 C 34.17 O 42.9 CB 33.62 OG 33.18
A GLN - 37 -81.2 149.4 N 33.97 CA 34.38 C 34.17 O 37.44 CB 34.0 CG 34.34 CD 37.12 OE1 39.51 NE2 40.93
A THR - 13 -95.5 164.9 N 34.9 CA 34.02 C 31.78 O 28.75 CB 37.42 OG1 37.59 CG2 38.35
A ALA H 0 -60.3 -33.1 N 31.32 CA 30.91 C 31.48 O 32.71 CB 30.36
A GLN H 104 -64.6 -37.9 N 36.25 CA 37.26 C 36.16 O 36.36 CB 41.11 CG 44.99 CD 50.62 OE1 52.61 NE2 54.34
A ASP H 61 -61.9 -41.2 N 33.97 CA 34.25 C 31.85 O 32.48 CB 34.82 CG 37.68 OD1 38.42 OD2 37.67
A LEU H 0 -70.8 -45.7 N 29.68 CA 27.78 C 27.56 O 26.73 CB 27.3 CG 27.19 CD1 28.38 CD2 26.4
A TYR H 44 -52.4 -44.7 N 28.49 CA 30.46 C 30.17 O 29.66 CB 32.86 CG 36.49 CD1 35.59 CD2 40.08 CE1 35.84 CE2 40.1 CZ 38.94 OH 41.09
A SER H 84 -56.4 -32.6 N 30.81 CA 33.21 C 32.94 O 37.2 CB 35.62 OG 36.39
A ARG H 40 -106.4 16.5 N 29.82 CA 28.81 C 27.01 O 26.3 CB 30.1 CG 29.51 CD 30.6 NE 31.0 CZ 30.11 NH1 29.21 NH2 30.13
A PHE H 0 -59.8 -34.6 N 25.89 CA 24.39 C 24.6 O 22.32 CB 23.86 CG 23.35 CD1 22.95 CD2 22.94 CE1 20.45 CE2 20.92 CZ 20.66
A ASP H 81 -68.2 -46.6 N 28.07 CA 28.72 C 28.77 O 27.6 CB 32.7 CG 35.14 OD1 36.68 OD2 43.65
A ALA H 67 -80.8 -34.6 N 29.43 CA 30.92 C 29.33 O 28.92 CB 32.37
A ASP H 29 -80.7 -27.3 N 28.02 CA 28.23 C 25.28 O 28.51 CB 29.38 CG 34.49 OD1 35.14 OD2 40.95
A VAL T 0 -119.9 -61.8 N 22.83 CA 20.92 C 20.92 O 20.44 CB 19.8 CG1 18.98 CG2 19.72
A LEU G 33 -51.2 -56.6 N 21.25 CA 22.61 C 23.95 O 25.0 CB 23.97 CG 24.03 CD1 24.34 CD2 25.15
A ALA G 66 -59.3 -19.0 N 25.65 CA 26.63 C 26.34 O 29.04 CB 27.96
A GLU G 49 -79.6 -14.2 N 24.75 CA 24.73 C 24.23 O 24.47 CB 24.72 CG 25.72 CD 29.49 OE1 31.56 OE2 33.27
A LYS - 156 51.0 50.6 N 23.25 CA 22.87 C 21.21 O 22.02 CB 25.4 CG 28.22 CD 27.27 CE 28.61 NZ 30.32
A PRO - 6 -83.1 165.5 N 18.92 CA 17.53 C 16.73 O 17.26 CB 16.89 CG 16.84 CD 17.94
A GLY S 17 -93.0 -16.6 N 16.47 CA 15.52 C 14.66 O 15.07
A ARG E 49 -140.5 144.7 N 14.5 CA 12.86 C 12.65 O 13.34 CB 12.88 CG 13.16 CD 13.39 NE 14.03 CZ 14.99 NH1 14.79 NH2 16.06
A VAL E 0 -131.2 125.8 N 12.16 CA 11.75 C 11.69 O 11.08 CB 11.77 CG1 11.75 CG2 12.51
A ILE E 0 -96.3 121.7 N 12.24 CA 12.38 C 13.0 O 13.46 CB 12.19 CG1 12.67 CG2 12.12 CD1 13.08
A ILE E 0 -110.6 103.9 N 13.71 CA 15.05 C 15.23 O 15.08 CB 15.54 CG1 15.73 CG2 16.3 CD1 16.65
A PHE E 0 -115.7 97.0 N 16.13 CA 16.71 C 18.51 O 19.65 CB 15.97 CG 15.94 CD1 16.56 CD2 15.71 CE1 17.61 CE2 16.68 CZ 17.02
A VAL - 0 -150.9 165.0 N 18.9 CA 20.23 C 20.7 O 20.11 CB 21.27 CG1 21.51 CG2 23.08
A GLY S 0 127.3 -29.8 N 21.87 CA 22.95 C 23.52 O 24.13
A ASN H 2 -63.4 -47.4 N 22.48 CA 23.85 C 25.05 O 24.51 CB 22.87 CG 22.97 OD1 22.46 ND2 24.5
A GLY H 5 -61.7 -39.8 N 25.21 CA 26.53 C 28.55 O 30.04
A ASP H 1 -62.0 -42.3 N 29.62 CA 32.69 C 33.7 O 35.62 CB 34.95 CG 35.53 OD1 40.06 OD2 36.82
A ALA H 3 -64.2 -42.1 N 33.99 CA 35.89 C 37.93 O 40.95 CB 33.83
A ILE H 83 -58.4 -44.0 N 31.23 CA 33.04 C 35.7 O 37.05 CB 33.2 CG1 31.5 CG2 34.84 CD1 32.3
A LYS T 106 -96.5 26.0 N 35.59 CA 38.49 C 39.62 O 39.77 CB 39.62 CG 41.48 CD 42.9 CE 44.62 NZ 43.99
A GLU T 176 44.3 33.4 N 39.31 CA 40.72 C 40.36 O 42.66 CB 45.02 CG 45.65 CD 50.78 OE1 51.7 OE2 53.84
A VAL - 28 -70.1 125.9 N 38.94 CA 37.07 C 36.11 O 34.01 CB 36.02 CG1 36.26 CG2 36.27
A PRO - 68 -67.3 161.3 N 38.01 CA 37.15 C 35.07 O 35.41 CB 40.2 CG 41.71 CD 40.91
A LEU H 32 -55.4 -42.2 N 33.57 CA 33.49 C 33.75 O 32.24 CB 34.84 CG 33.38 CD1 30.82 CD2 34.77
A GLU H 121 -59.1 -37.4 N 35.82 CA 36.63 C 34.61 O 34.97 CB 41.44 CG 44.37 CD 45.92 OE1 48.43 OE2 43.27
A THR H 40 -72.0 -40.2 N 33.85 CA 34.05 C 31.54 O 29.41 CB 34.79 OG1 40.6 CG2 35.32
A PHE H 0 -63.4 -43.0 N 31.77 CA 30.91 C 29.15 O 29.29 CB 31.88 CG 32.51 CD1 35.02 CD2 31.62 CE1 33.22 CE2 32.36 CZ 30.74
A GLN H 47 -58.6 -58.7 N 28.68 CA 28.52 C 28.09 O 28.91 CB 29.53 CG 30.83 CD 33.92 OE1 35.53 NE2 34.43
A GLN H 115 -51.6 -39.3 N 28.45 CA 29.66 C 27.17 O 26.22 CB 32.61 CG 35.81 CD 40.42 OE1 41.6 NE2 44.12
A HIS H 34 -76.8 -32.2 N 27.31 CA 25.66 C 23.13 O 21.35 CB 26.83 CG 29.66 ND1 31.91 CD2 30.08 CE1 33.72 NE2 32.74
A ILE H 0 -62.6 -52.4 N 22.18 CA 22.2 C 21.44 O 19.12 CB 23.97 CG1 26.08 CG2 23.43 CD1 25.15
A LYS H 76 -48.6 -51.0 N 21.45 CA 22.17 C 21.93 O 20.58 CB 24.59 CG 26.98 CD 30.61 CE 33.17 NZ 37.66
A ALA H 4 -57.9 -41.6 N 22.97 CA 23.87 C 23.67 O 24.38 CB 25.12
A VAL H 0 -61.0 -47.8 N 16.19 CA 16.08 C 16.56 O 17.17 CB 16.57 CG1 16.6 CG2 16.55
A GLU H 9 -61.3 -39.6 N 17.92 CA 19.19 C 18.97 O 19.62 CB 22.07 CG 24.38 CD 27.42 OE1 30.24 OE2 28.71
A LYS H 11 -73.4 -42.9 N 18.98 CA 18.7 C 17.11 O 15.79 CB 21.27 CG 22.33 CD 24.33 CE 27.16 NZ 30.7
A ALA H 0 -50.3 -58.5 N 17.08 CA 16.68 C 16.87 O 14.65 CB 17.71
A GLU H 81 -56.5 -36.6 N 16.92 CA 18.15 C 18.05 O 16.76 CB 21.25 CG 25.58 CD 32.5 OE1 41.46 OE2 32.7
A SER H 2 -66.2 -25.9 N 18.33 CA 19.04 C 18.17 O 17.05 CB 19.95 OG 20.89
A ASN T 54 -98.3 5.6 N 18.35 CA 17.27 C 16.23 O 17.08 CB 17.68 CG 19.18 OD1 20.18 ND2 19.52
A HIS T 45 67.8 35.8 N 14.86 CA 14.53 C 13.72 O 13.4 CB 15.03 CG 15.77 ND1 16.8 CD2 17.26 CE1 17.11 NE2 17.46
A ILE - 9 -112.7 132.4 N 14.14 CA 14.48 C 15.28 O 16.24 CB 14.57 CG1 15.64 CG2 14.51 CD1 16.13
A ILE E 106 -80.7 120.3 N 15.14 CA 15.36 C 14.65 O 15.42 CB 16.19 CG1 16.52 CG2 16.29 CD1 19.31
A PRO E 6 -90.2 147.7 N 13.23 CA 13.2 C 12.83 O 13.66 CB 13.3 CG 13.63 CD 13.64
A ILE E 3 -136.6 127.5 N 12.84 CA 12.9 C 12.9 O 12.57 CB 13.41 CG1 14.09 CG2 13.77 CD1 15.42
A LEU E 0 -101.7 136.5 N 12.91 CA 13.94 C 13.68 O 14.42 CB 15.11 CG 16.24 CD1 17.53 CD2 16.7
A ALA E 0 -111.0 121.6 N 13.38 CA 14.64 C 15.02 O 14.73 CB 15.28
A LEU - 5 -68.9 148.2 N 15.96 CA 16.91 C 16.4 O 16.56 CB 17.57 CG 17.48 CD1 18.71 CD2 17.88
A PRO - 0 -68.4 155.2 N 16.42 CA 17.75 C 18.31 O 18.58 CB 18.07 CG 17.94 CD 17.07
A LEU - 0 -87.4 153.8 N 19.79 CA 20.72 C 21.12 O 21.81 CB 21.47 CG 22.58 CD1 24.06 CD2 24.11
A PRO - 4 -57.7 137.3 N 21.48 CA 22.57 C 23.62 O 24.01 CB 23.54 CG 23.47 CD 22.36
A TYR - 26 -144.8 126.1 N 24.44 CA 25.37 C 26.21 O 25.63 CB 24.51 CG 24.57 CD1 27.19 CD2 25.14 CE1 27.83 CE2 25.86 CZ 27.38 OH 28.76
A THR T 99 -51.0 -35.3 N 26.61 CA 28.74 C 28.39 O 31.8 CB 30.13 OG1 31.01 CG2 28.36
A GLY T 61 -69.1 -22.9 N 26.97 CA 30.16 C 28.98 O 29.16
A VAL - 31 -143.8 39.7 N 27.97 CA 28.05 C 26.67 O 27.49 CB 28.04 CG1 29.88 CG2 27.33
A GLN H 60 -48.1 -45.4 N 25.09 CA 25.2 C 24.59 O 24.26 CB 24.54 CG 23.82 CD 23.14 OE1 22.42 NE2 22.84
A ASN H 144 -63.8 -45.7 N 25.97 CA 26.94 C 28.34 O 29.0 CB 29.24 CG 29.53 OD1 29.38 ND2 30.45
A THR H 53 -63.7 -40.4 N 28.12 CA 28.99 C 29.71 O 29.27 CB 28.47 OG1 29.96 CG2 28.81
A ILE H 2 -68.5 -36.1 N 27.93 CA 25.63 C 25.86 O 23.68 CB 25.14 CG1 26.31 CG2 25.27 CD1 25.63
A LYS H 146 -63.9 -36.5 N 26.13 CA 29.38 C 31.04 O 26.41 CB 30.08 CG 32.35 CD 36.73 CE 40.72 NZ 43.94
A GLU H 98 -69.1 -51.6 N 35.36 CA 35.35 C 31.62 O 32.18 CB 38.98 CG 41.67 CD 43.57 OE1 42.59 OE2 44.59
A PHE H 1 -56.1 -51.3 N 28.25 CA 25.49 C 23.94 O 23.66 CB 25.47 CG 27.26 CD1 29.76 CD2 28.18 CE1 29.76 CE2 29.16 CZ 29.79
A ARG H 49 -57.7 -43.9 N 23.72 CA 24.29 C 26.81 O 25.21 CB 25.07 CG 25.13 CD 26.84 NE 28.18 CZ 31.12 NH1 38.88 NH2 31.49
A GLU H 136 -63.1 -44.8 N 27.72 CA 30.14 C 28.29 O 27.15 CB 33.54 CG 38.68 CD 42.83 OE1 42.53 OE2 45.83
A TRP H 37 -65.0 -46.5 N 26.87 CA 26.32 C 24.25 O 23.54 CB 26.85 CG 27.13 CD1 28.03 CD2 24.96 NE1 28.88 CE2 26.14 CE3 22.95 CZ2 25.08 CZ3 21.09 CH2 22.57
A GLU H 0 -60.7 -35.2 N 22.06 CA 21.72 C 21.6 O 19.56 CB 21.89 CG 21.5 CD 22.45 OE1 23.3 OE2 24.19
A SER H 49 -68.7 -39.2 N 21.25 CA 21.43 C 22.48 O 22.06 CB 23.09 OG 22.64
A SER H 68 -78.6 -30.9 N 23.53 CA 25.75 C 24.66 O 25.4 CB 28.59 OG 30.58
A TYR H 21 -68.9 -36.4 N 21.83 CA 21.41 C 20.81 O 20.97 CB 20.59 CG 19.84 CD1 21.35 CD2 17.96 CE1 21.49 CE2 18.28 CZ 19.82 OH 20.15
A ALA H 1 -73.6 -31.5 N 20.39 CA 20.16 C 21.83 O 22.06 CB 19.1
A LYS H 172 -72.8 -37.0 N 23.04 CA 24.67 C 26.28 O 26.42 CB 26.48 CG 28.61 CD 31.31 CE 34.54 NZ 38.11
A GLU H 85 -79.3 -6.3 N 27.08 CA 30.54 C 30.6 O 33.5 CB 33.86 CG 39.54 CD 43.64 OE1 48.72 OE2 44.45
A LYS T 48 -118.7 1.9 N 29.52 CA 29.61 C 27.77 O 27.13 CB 30.2 CG 32.77 CD 36.64 CE 40.39 NZ 43.99
A ASN T 151 54.8 46.0 N 26.71 CA 27.3 C 23.89 O 23.51 CB 31.19 CG 36.74 OD1 45.53 ND2 39.02
A ILE - 13 -102.9 134.1 N 20.62 CA 19.01 C 17.88 O 17.19 CB 18.41 CG1 18.85 CG2 16.87 CD1 19.17
A LEU E 73 -67.3 134.2 N 18.26 CA 19.12 C 18.82 O 17.06 CB 20.38 CG 22.98 CD1 25.46 CD2 23.4
A VAL E 44 -114.0 139.1 N 19.32 CA 19.48 C 20.25 O 21.63 CB 20.55 CG1 21.09 CG2 20.29
A LEU E 0 -108.3 123.7 N 21.2 CA 20.71 C 20.48 O 19.56 CB 20.49 CG 21.05 CD1 20.19 CD2 22.67
A ASP - 42 -114.8 82.4 N 20.49 CA 21.7 C 22.09 O 22.94 CB 23.54 CG 24.59 OD1 23.91 OD2 25.69
A PHE T 0 -60.3 -20.6 N 21.7 CA 21.38 C 22.07 O 23.02 CB 20.29 CG 19.15 CD1 20.07 CD2 18.26 CE1 20.12 CE2 18.71 CZ 18.53
A ALA H 12 -59.2 -36.8 N 22.26 CA 24.37 C 25.39 O 23.87 CB 25.46
A THR H 85 -56.9 -22.9 N 26.3 CA 28.72 C 27.69 O 28.31 CB 31.1 OG1 32.41 CG2 32.43
A VAL H 25 -110.5 -11.5 N 25.91 CA 26.41 C 26.26 O 26.59 CB 25.7 CG1 27.04 CG2 24.09
A LEU H 0 -91.0 -37.0 N 25.02 CA 24.35 C 24.81 O 23.3 CB 22.69 CG 21.6 CD1 20.27 CD2 21.78
A ASP - 69 -94.1 -180.0 N 32.67 CA 38.04 C 38.87 O 35.74 CB 40.71 CG 41.54 OD1 38.83 OD2 42.47
A ALA T 101 -53.3 -15.4 N 42.63 CA 44.27 C 44.81 O 44.52 CB 46.87
A ASP T 120 -102.9 8.2 N 42.81 CA 42.2 C 37.47 O 37.25 CB 45.64 CG 50.93 OD1 53.62 OD2 52.33
A ASN S 71 67.5 33.0 N 33.22 CA 29.9 C 28.2 O 25.53 CB 30.41 CG 31.79 OD1 31.4 ND2 33.8
A VAL - 77 -112.3 134.3 N 28.08 CA 27.43 C 26.84 O 27.88 CB 29.39 CG1 28.38 CG2 30.65
A TYR B 27 -55.2 134.8 N 25.46 CA 25.89 C 28.56 O 30.54 CB 25.44 CG 23.06 CD1 23.23 CD2 23.44 CE1 23.17 CE2 23.54 CZ 22.97 OH 21.37
A LEU - 77 -68.0 167.0 N 31.01 CA 32.23 C 32.26 O 28.8 CB 33.25 CG 34.51 CD1 34.82 CD2 35.55
A GLU T 188 -52.6 126.2 N 36.78 CA 37.5 C 34.11 O 32.06 CB 44.07 CG 51.71 CD 55.22 OE1 59.82 OE2 55.27
A GLY T 45 75.3 0.7 N 32.7 CA 30.53 C 29.4 O 28.01
A LEU T 7 -94.9 -17.2 N 28.41 CA 27.82 C 26.78 O 24.92 CB 26.23 CG 27.62 CD1 29.19 CD2 29.48
A LEU B 86 -86.6 133.2 N 27.65 CA 27.34 C 27.66 O 25.8 CB 28.53 CG 28.54 CD1 27.55 CD2 28.85
A SER - 19 -73.0 -169.8 N 27.19 CA 26.72 C 29.82 O 30.49 CB 26.46 OG 24.77
A LYS S 209 -79.5 -4.6 N 29.8 CA 32.91 C 32.34 O 36.09 CB 33.72 CG 34.53 CD 35.99 CE 37.93 NZ 41.19
A GLU S 78 -118.7 143.2 N 29.69 CA 30.86 C 31.12 O 30.18 CB 32.04 CG 34.46 CD 37.5 OE1 40.4 OE2 38.57
A ALA T 71 -66.0 150.0 N 31.99 CA 31.39 C 29.29 O 26.69 CB 31.92
A ASN T 24 78.6 -14.0 N 27.69 CA 27.14 C 26.17 O 27.87 CB 28.53 CG 30.75 OD1 34.66 ND2 30.71
A TYR S 31 -119.5 143.5 N 24.67 CA 25.89 C 24.35 O 24.63 CB 26.45 CG 26.31 CD1 27.97 CD2 27.89 CE1 26.8 CE2 28.34 CZ 26.83 OH 28.68
A PRO B 1 -69.7 149.2 N 23.57 CA 22.82 C 21.79 O 21.22 CB 22.51 CG 21.55 CD 22.71
A SER - 20 -79.9 174.9 N 22.24 CA 22.08 C 21.96 O 20.25 CB 22.06 OG 21.74
A LYS H 145 -58.1 -37.7 N 24.09 CA 25.68 C 26.54 O 25.44 CB 29.2 CG 32.32 CD 35.59 CE 35.96 NZ 42.4
A GLU H 87 -69.8 -40.7 N 28.16 CA 30.05 C 26.7 O 26.26 CB 34.32 CG 38.61 CD 44.14 OE1 44.98 OE2 51.77
A GLY H 0 -56.2 -46.3 N 23.4 CA 22.2 C 21.79 O 20.31
A TYR H 3 -67.2 -24.5 N 19.94 CA 19.04 C 20.29 O 19.28 CB 18.82 CG 17.07 CD1 15.32 CD2 16.59 CE1 14.76 CE2 16.3 CZ 15.09 OH 13.91
A LYS H 96 -73.1 -45.8 N 21.93 CA 22.71 C 22.38 O 22.51 CB 25.9 CG 28.46 CD 33.17 CE 36.47 NZ 39.16
A LEU H 48 -67.9 -27.1 N 21.46 CA 22.29 C 20.78 O 20.75 CB 23.12 CG 24.4 CD1 25.84 CD2 25.93
A GLY H 0 -64.9 -30.2 N 18.12 CA 17.59 C 17.91 O 16.98
A GLU H 54 -76.5 -38.9 N 18.66 CA 20.42 C 19.87 O 20.46 CB 22.76 CG 23.69 CD 27.32 OE1 28.18 OE2 31.24
A TYR H 30 -59.1 -50.5 N 18.49 CA 18.57 C 17.72 O 18.7 CB 17.71 CG 17.94 CD1 19.73 CD2 16.88 CE1 20.06 CE2 16.76 CZ 18.5 OH 18.78
A ALA H 0 -62.1 -31.9 N 16.3 CA 15.5 C 16.27 O 17.11 CB 14.03
A SER H 23 -70.0 -36.4 N 17.66 CA 19.07 C 20.37 O 21.71 CB 20.12 OG 22.28
A ARG H 166 -71.1 -45.5 N 20.95 CA 22.92 C 23.05 O 24.21 CB 23.82 CG 24.72 CD 26.18 NE 25.12 CZ 24.47 NH1 24.74 NH2 23.67
A VAL H 52 -61.1 -45.9 N 22.2 CA 22.84 C 22.48 O 24.45 CB 21.73 CG1 22.24 CG2 22.93
A LEU - 51 -80.5 360.0 N 22.42 CA 22.3 C 23.67 O 26.13 CB 21.7 CG 22.18 CD1 23.45 CD2 21.68
B ASN - 136 360.0 92.2 N 17.72 CA 16.38 C 15.54 O 14.82 CB 16.59 CG 16.46 OD1 16.29 ND2 16.69
B THR - 75 -93.5 1.0 N 14.98 CA 14.23 C 13.34 O 12.8 CB 14.39 OG1 14.42 CG2 15.2
B LYS - 31 -60.6 138.1 N 13.18 CA 12.76 C 11.82 O 11.74 CB 12.97 CG 12.6 CD 13.61 CE 13.73 NZ 15.07
B VAL E 0 -128.8 140.1 N 11.64 CA 11.35 C 11.75 O 11.98 CB 11.21 CG1 10.84 CG2 11.73
B VAL E 0 -111.9 129.9 N 11.6 CA 12.09 C 12.71 O 13.64 CB 12.31 CG1 12.64 CG2 12.99
B ALA E 0 -109.0 112.4 N 12.61 CA 12.46 C 12.78 O 12.88 CB 12.32
B ILE E 0 -118.0 131.8 N 13.15 CA 13.58 C 13.52 O 12.42 CB 13.8 CG1 15.17 CG2 14.34 CD1 16.4
B GLY E 0 -177.7 -154.7 N 14.44 CA 15.56 C 16.39 O 15.56
B ASP S 3 -107.1 -153.5 N 18.03 CA 19.06 C 18.83 O 18.25 CB 20.12 CG 21.16 OD1 21.14 OD2 22.34
B SER H 9 -47.1 -38.2 N 19.45 CA 19.17 C 18.12 O 17.85 CB 20.3 OG 21.36
B PHE H 4 -75.2 -0.1 N 17.9 CA 17.37 C 17.19 O 16.82 CB 17.43 CG 18.2 CD1 18.59 CD2 19.02 CE1 19.93 CE2 20.16 CZ 20.77
B THR H 0 -111.7 -33.1 N 16.74 CA 15.84 C 17.2 O 17.51 CB 14.77 OG1 13.64 CG2 14.09
B PHE H 45 -62.4 -34.8 N 18.68 CA 19.8 C 20.75 O 21.92 CB 21.7 CG 23.25 CD1 23.52 CD2 24.79 CE1 24.27 CE2 25.82 CZ 25.12
B GLY T 1 102.4 28.8 N 21.24 CA 21.49 C 22.71 O 24.98
B TYR T 62 -76.9 142.4 N 22.89 CA 23.99 C 25.24 O 22.56 CB 24.17 CG 25.72 CD1 26.0 CD2 27.58 CE1 28.37 CE2 29.24 CZ 29.33 OH 32.35
B PRO T 42 -84.4 9.0 N 26.75 CA 28.36 C 29.59 O 29.78 CB 29.87 CG 29.41 CD 27.27
B GLY S 43 -88.4 -167.2 N 29.01 CA 30.98 C 32.76 O 32.76
B ASN - 86 -93.8 142.1 N 34.58 CA 35.99 C 32.85 O 31.68 CB 40.17 CG 43.98 OD1 46.61 ND2 44.32
B THR G 53 -48.9 -20.8 N 30.08 CA 29.51 C 28.87 O 29.13 CB 29.32 OG1 32.72 CG2 29.71
B GLU G 135 -48.8 -49.6 N 31.48 CA 32.86 C 29.44 O 27.16 CB 40.78 CG 45.93 CD 50.21 OE1 56.74 OE2 44.97
B ASN G 53 -102.3 13.1 N 29.28 CA 29.78 C 26.89 O 27.22 CB 34.19 CG 40.65 OD1 46.12 ND2 44.66
B SER S 0 -67.5 170.8 N 23.6 CA 21.77 C 19.86 O 18.4 CB 20.64 OG 20.09
B TRP H 0 -65.2 -27.6 N 18.61 CA 17.45 C 17.8 O 18.16 CB 16.6 CG 15.6 CD1 15.26 CD2 14.28 NE1 14.25 CE2 13.73 CE3 13.64 CZ2 13.48 CZ3 13.12 CH2 13.08
B PRO H 1 -65.7 -42.8 N 17.69 CA 18.0 C 18.66 O 19.72 CB 17.4 CG 17.43 CD 17.89
B ALA H 44 -60.8 -43.6 N 19.38 CA 20.14 C 20.73 O 22.07 CB 20.64
B VAL H 25 -62.6 -46.3 N 20.52 CA 20.83 C 19.7 O 19.26 CB 20.86 CG1 21.32 CG2 21.54
B LEU H 0 -55.1 -51.8 N 18.25 CA 17.59 C 18.22 O 18.6 CB 16.57 CG 16.19 CD1 16.12 CD2 15.32
B GLY H 11 -58.2 -43.8 N 18.09 CA 19.82 C 22.05 O 21.52
B GLN H 87 -62.0 -53.6 N 23.77 CA 25.97 C 24.72 O 25.64 CB 28.77 CG 35.91 CD 39.63 OE1 45.09 NE2 44.03
B THR H 69 -64.7 -39.6 N 22.66 CA 21.92 C 20.46 O 21.2 CB 20.56 OG1 21.68 CG2 20.72
B SER H 37 -91.1 -1.8 N 18.72 CA 18.47 C 18.78 O 19.51 CB 17.07 OG 16.65
B GLN T 29 54.1 55.3 N 19.18 CA 19.53 C 19.08 O 19.32 CB 20.72 CG 21.67 CD 21.6 OE1 21.67 NE2 21.33
B ILE S 22 -142.7 158.8 N 19.13 CA 19.13 C 18.99 O 19.67 CB 18.04 CG1 17.73 CG2 18.67 CD1 17.13
B GLU - 90 -88.5 118.9 N 19.71 CA 19.91 C 19.4 O 18.01 CB 21.68 CG 23.04 CD 27.69 OE1 29.2 OE2 32.68
B VAL E 27 -118.8 124.8 N 19.31 CA 18.01 C 17.86 O 18.68 CB 18.03 CG1 16.76 CG2 18.08
B VAL E 25 -100.3 122.1 N 17.27 CA 19.48 C 19.45 O 18.02 CB 20.22 CG1 21.15 CG2 21.15
B ASN E 45 -85.1 109.2 N 20.06 CA 18.78 C 19.1 O 19.97 CB 19.04 CG 18.79 OD1 16.62 ND2 18.27
B LYS E 49 -114.0 36.9 N 19.64 CA 20.47 C 21.62 O 25.25 CB 20.72 CG 21.78 CD 22.59 CE 24.22 NZ 27.05
B GLY E 5 -89.3 148.5 N 19.64 CA 20.45 C 21.74 O 21.39
B LEU - 79 -144.6 137.0 N 22.19 CA 24.62 C 24.94 O 22.05 CB 27.34 CG 28.17 CD1 29.2 CD2 28.82
B LYS S 99 -54.4 136.0 N 28.08 CA 29.72 C 29.62 O 28.13 CB 31.85 CG 33.06 CD 35.82 CE 37.89 NZ 38.29
B SER S 70 50.6 57.7 N 30.48 CA 32.63 C 33.16 O 38.73 CB 34.64 OG 37.12
B GLN - 33 -113.3 146.0 N 29.86 CA 27.94 C 26.32 O 25.44 CB 28.5 CG 29.73 CD 31.79 OE1 32.12 NE2 34.52
B THR - 14 -94.4 176.1 N 25.64 CA 25.67 C 24.58 O 22.97 CB 27.61 OG1 27.72 CG2 28.92
B ALA H 0 -63.3 -38.6 N 25.45 CA 24.18 C 24.3 O 23.35 CB 25.0
B GLN H 102 -63.6 -33.3 N 25.38 CA 26.54 C 26.74 O 28.13 CB 29.0 CG 30.93 CD 35.06 OE1 39.08 NE2 36.73
B ASP H 64 -64.5 -46.3 N 25.81 CA 26.1 C 25.06 O 25.3 CB 25.67 CG 26.97 OD1 28.01 OD2 27.38
B LEU H 0 -58.8 -40.6 N 22.98 CA 22.61 C 22.32 O 23.35 CB 21.33 CG 20.42 CD1 21.03 CD2 20.4
B TYR H 79 -61.6 -50.8 N 23.68 CA 25.68 C 25.61 O 24.5 CB 28.5 CG 30.47 CD1 30.31 CD2 32.85 CE1 33.01 CE2 34.18 CZ 35.33 OH 39.37
B SER H 96 -53.2 -31.2 N 26.24 CA 27.98 C 28.01 O 29.79 CB 29.02 OG 31.02
B ARG T 35 -107.8 15.7 N 26.31 CA 24.75 C 22.67 O 22.14 CB 24.87 CG 23.99 CD 24.82 NE 25.25 CZ 25.54 NH1 25.66 NH2 24.95
B PHE H 0 -59.2 -42.6 N 22.3 CA 21.35 C 21.4 O 20.1 CB 21.64 CG 20.77 CD1 20.7 CD2 20.58 CE1 19.5 CE2 20.31 CZ 19.3
B ASP I 87 -63.5 -40.7 N 23.25 CA 24.08 C 22.83 O 21.32 CB 27.51 CG 30.38 OD1 31.68 OD2 34.3
B ALA I 61 -79.0 -40.7 N 23.7 CA 23.71 C 24.01 O 23.34 CB 25.05
B ASP I 24 -84.2 -31.6 N 22.52 CA 22.59 C 19.93 O 18.86 CB 24.3 CG 27.36 OD1 29.13 OD2 29.53
B VAL I 0 -111.9 -53.8 N 19.05 CA 17.75 C 18.76 O 19.58 CB 17.96 CG1 17.43 CG2 18.05
B LEU I 32 -66.5 -38.3 N 19.18 CA 19.03 C 19.47 O 20.26 CB 19.32 CG 19.21 CD1 20.59 CD2 18.69
B ALA T 72 -70.0 -31.3 N 19.55 CA 20.12 C 19.36 O 19.71 CB 20.54
B GLU T 50 -67.1 -19.1 N 19.17 CA 19.85 C 20.19 O 19.46 CB 19.84 CG 21.06 CD 22.37 OE1 23.06 OE2 24.4
B LYS - 160 58.3 48.6 N 19.55 CA 21.46 C 19.22 O 18.75 CB 25.15 CG 30.63 CD 34.3 CE 39.47 NZ 44.18
B PRO - 4 -84.8 163.5 N 17.36 CA 16.59 C 14.94 O 14.61 CB 16.75 CG 16.04 CD 16.26
B GLY S 13 -86.8 -23.8 N 14.44 CA 13.67 C 12.66 O 12.58
B ARG E 45 -141.6 146.6 N 11.77 CA 10.95 C 10.68 O 10.47 CB 11.79 CG 12.63 CD 13.79 NE 14.76 CZ 16.19 NH1 17.09 NH2 17.19
B VAL E 0 -129.5 129.6 N 10.47 CA 10.6 C 10.73 O 11.35 CB 11.01 CG1 10.93 CG2 11.36
B ILE E 1 -96.5 124.1 N 10.59 CA 10.75 C 11.13 O 10.64 CB 11.28 CG1 11.92 CG2 11.28 CD1 13.26
B ILE E 0 -110.0 113.3 N 11.95 CA 12.52 C 12.91 O 12.13 CB 12.57 CG1 12.26 CG2 13.9 CD1 12.61
B PHE E 0 -130.8 95.6 N 13.72 CA 14.19 C 15.04 O 15.59 CB 15.0 CG 15.88 CD1 15.61 CD2 17.78 CE1 17.12 CE2 18.25 CZ 18.25
B VAL - 0 -151.2 160.2 N 15.11 CA 15.97 C 16.11 O 16.92 CB 16.56 CG1 15.52 CG2 17.42
B GLY S 0 136.8 -29.8 N 16.42 CA 16.57 C 16.6 O 16.77
B ASN H 3 -70.5 -28.0 N 16.99 CA 19.21 C 20.06 O 21.59 CB 19.55 CG 20.16 OD1 21.91 ND2 20.21
B GLY H 6 -78.9 -45.0 N 20.54 CA 20.16 C 20.59 O 21.47
B ASP H 1 -57.9 -41.8 N 20.27 CA 22.31 C 22.32 O 22.01 CB 22.94 CG 25.8 OD1 28.73 OD2 29.11
B ALA H 2 -64.2 -44.4 N 21.61 CA 22.01 C 23.24 O 24.84 CB 21.39
B ILE H 82 -61.7 -44.9 N 24.11 CA 25.42 C 26.67 O 27.78 CB 25.68 CG1 25.37 CG2 26.75 CD1 26.16
B LYS T 107 -87.8 11.4 N 27.67 CA 29.74 C 29.95 O 31.07 CB 31.25 CG 33.66 CD 36.88 CE 39.2 NZ 39.59
B GLU T 170 58.2 40.4 N 29.52 CA 29.85 C 29.34 O 28.97 CB 30.92 CG 30.93 CD 32.48 OE1 30.57 OE2 32.77
B VAL - 25 -70.4 126.4 N 28.65 CA 27.94 C 27.12 O 25.7 CB 27.48 CG1 27.24 CG2 28.55
B PRO - 67 -58.7 150.1 N 28.38 CA 28.3 C 27.42 O 28.18 CB 30.03 CG 31.17 CD 29.46
B LEU H 37 -51.8 -45.8 N 29.0 CA 27.64 C 29.27 O 28.28 CB 29.45 CG 29.89 CD1 27.8 CD2 31.8
B GLU H 117 -61.5 -38.1 N 31.84 CA 33.57 C 31.76 O 33.91 CB 37.96 CG 43.2 CD 46.32 OE1 45.98 OE2 43.37
B THR H 39 -68.4 -54.1 N 29.92 CA 28.31 C 27.11 O 27.74 CB 28.22 OG1 31.27 CG2 27.71
B PHE H 0 -49.0 -49.5 N 25.49 CA 23.26 C 23.6 O 22.81 CB 22.69 CG 21.27 CD1 20.74 CD2 20.22 CE1 20.07 CE2 20.01 CZ 20.02
B GLN H 41 -55.1 -45.1 N 25.43 CA 25.78 C 25.45 O 25.41 CB 27.89 CG 29.79 CD 31.54 OE1 34.22 NE2 32.39
B GLN H 123 -55.8 -43.9 N 25.37 CA 26.08 C 23.5 O 23.32 CB 28.54 CG 32.99 CD 38.08 OE1 38.44 NE2 41.57
B HIS H 16 -75.5 -36.6 N 21.21 CA 20.66 C 19.0 O 18.7 CB 21.15 CG 24.56 ND1 27.0 CD2 25.9 CE1 28.64 NE2 28.79
B ILE H 0 -61.1 -51.1 N 17.91 CA 17.99 C 19.88 O 18.99 CB 16.88 CG1 17.11 CG2 16.85 CD1 16.81
B LYS H 69 -56.6 -48.9 N 23.08 CA 23.78 C 22.25 O 19.16 CB 26.73 CG 30.15 CD 32.19 CE 34.19 NZ 40.14
B ALA H 23 -64.4 -36.3 N 21.73 CA 21.83 C 20.48 O 20.75 CB 21.62
B VAL H 0 -60.5 -45.8 N 17.26 CA 16.24 C 18.09 O 17.67 CB 16.54 CG1 17.18 CG2 16.45
B GLU H 96 -58.5 -51.2 N 19.29 CA 20.82 C 18.58 O 16.67 CB 23.42 CG 27.18 CD 31.65 OE1 31.23 OE2 38.56
B LYS H 45 -50.6 -53.3 N 19.32 CA 19.33 C 18.14 O 17.41 CB 21.34 CG 25.62 CD 28.84 CE 29.45 NZ 30.87
B ALA H 0 -58.2 -55.1 N 16.92 CA 16.65 C 15.99 O 15.33 CB 16.36
B GLU H 77 -58.2 -33.7 N 17.33 CA 17.85 C 17.03 O 15.74 CB 20.05 CG 23.42 CD 28.81 OE1 35.51 OE2 37.85
B SER H 94 -68.5 -23.7 N 16.72 CA 16.89 C 15.84 O 15.32 CB 18.46 OG 20.5
B ASN T 82 -104.8 12.4 N 13.72 CA 13.52 C 13.2 O 13.22 CB 13.62 CG 14.78 OD1 15.18 ND2 14.86
B HIS T 166 60.0 31.2 N 13.94 CA 14.86 C 14.82 O 16.69 CB 16.86 CG 17.4 ND1 18.96 CD2 18.49 CE1 19.7 NE2 20.92
B ILE - 10 -99.4 131.5 N 13.51 CA 13.68 C 13.64 O 11.68 CB 14.18 CG1 14.33 CG2 14.42 CD1 14.62
B ILE E 105 -83.4 118.4 N 14.17 CA 14.46 C 14.64 O 14.81 CB 16.73 CG1 17.84 CG2 17.18 CD1 21.04
B PRO E 7 -81.8 142.1 N 13.52 CA 13.45 C 14.07 O 13.97 CB 13.5 CG 13.79 CD 13.92
B ILE E 2 -132.6 123.3 N 13.96 CA 14.33 C 13.67 O 15.35 CB 15.48 CG1 16.03 CG2 16.1 CD1 17.08
B LEU E 0 -99.4 126.4 N 12.95 CA 13.16 C 14.35 O 14.85 CB 14.21 CG 14.25 CD1 15.03 CD2 13.61
B ALA E 0 -106.3 116.9 N 14.38 CA 15.19 C 15.85 O 14.12 CB 15.45
B LEU - 7 -56.6 136.2 N 17.92 CA 18.77 C 18.65 O 19.17 CB 19.02 CG 19.1 CD1 20.43 CD2 18.22
B PRO - 0 -64.0 159.8 N 18.77 CA 19.76 C 21.38 O 19.89 CB 19.23 CG 18.99 CD 19.07
B LEU - 0 -91.6 152.5 N 22.59 CA 24.21 C 24.08 O 23.14 CB 24.19 CG 23.81 CD1 24.99 CD2 24.36
B PRO - 5 -56.1 148.1 N 23.96 CA 25.95 C 25.16 O 26.86 CB 27.82 CG 26.78 CD 25.07
B TYR - 33 -158.2 127.1 N 25.03 CA 25.2 C 25.79 O 25.3 CB 24.27 CG 25.02 CD1 26.58 CD2 24.78 CE1 27.11 CE2 26.19 CZ 26.61 OH 26.92
B THR T 102 -47.7 -34.7 N 27.52 CA 29.82 C 32.17 O 37.98 CB 30.06 OG1 29.83 CG2 30.24
B GLY T 73 -97.7 -14.1 N 34.36 CA 34.21 C 33.77 O 31.52
B VAL - 25 -115.2 32.5 N 31.37 CA 30.73 C 29.36 O 27.82 CB 30.42 CG1 31.99 CG2 29.03
B GLN H 64 -55.6 -36.6 N 28.73 CA 28.74 C 28.73 O 27.51 CB 30.93 CG 31.05 CD 30.78 OE1 29.24 NE2 31.75
B ASN H 99 -65.8 -50.0 N 29.84 CA 31.44 C 28.82 O 26.83 CB 34.7 CG 39.67 OD1 41.18 ND2 42.97
B THR H 45 -57.3 -45.9 N 27.12 CA 25.84 C 25.01 O 25.0 CB 26.0 OG1 26.95 CG2 25.51
B ILE H 1 -63.7 -36.5 N 32.08 CA 30.1 C 30.13 O 28.55 CB 29.62 CG1 30.23 CG2 27.41 CD1 28.24
B LYS H 122 -67.5 -34.8 N 31.67 CA 31.81 C 30.32 O 28.39 CB 35.16 CG 36.95 CD 41.72 CE 44.66 NZ 49.67
B GLU H 68 -70.8 -42.5 N 31.83 CA 32.54 C 28.92 O 28.48 CB 35.97 CG 41.34 CD 46.41 OE1 49.02 OE2 51.73
B PHE H 2 -59.3 -55.1 N 26.9 CA 24.6 C 23.05 O 22.74 CB 23.33 CG 23.83 CD1 25.06 CD2 23.8 CE1 26.59 CE2 25.21 CZ 26.74
B ARG H 45 -56.2 -43.8 N 22.81 CA 22.96 C 23.88 O 22.77 CB 23.21 CG 23.37 CD 24.32 NE 24.15 CZ 24.07 NH1 23.97 NH2 24.51
B GLU H 135 -58.6 -53.5 N 26.57 CA 28.51 C 27.2 O 26.13 CB 31.85 CG 35.41 CD 40.37 OE1 40.51 OE2 42.52
B TRP H 39 -63.4 -47.7 N 27.31 CA 27.48 C 26.8 O 26.51 CB 27.98 CG 27.12 CD1 27.93 CD2 26.29 NE1 27.03 CE2 26.15 CE3 26.21 CZ2 26.29 CZ3 25.59 CH2 26.27
B GLU H 1 -54.0 -39.9 N 25.01 CA 24.78 C 24.53 O 23.97 CB 24.71 CG 24.69 CD 25.86 OE1 29.55 OE2 29.75
B SER H 45 -66.5 -37.1 N 24.19 CA 22.67 C 23.02 O 22.77 CB 23.79 OG 23.47
B SER H 63 -75.6 -32.5 N 23.61 CA 23.53 C 21.76 O 20.61 CB 24.27 OG 25.22
B TYR H 10 -65.4 -52.0 N 21.43 CA 21.22 C 19.77 O 21.36 CB 21.93 CG 23.14 CD1 24.58 CD2 23.58 CE1 26.22 CE2 23.86 CZ 25.41 OH 25.87
B ALA H 0 -59.0 -41.8 N 19.32 CA 20.99 C 21.75 O 21.75 CB 20.95
B LYS H 128 -63.0 -47.3 N 25.99 CA 27.76 C 28.55 O 32.05 CB 29.95 CG 32.61 CD 35.62 CE 38.52 NZ 40.58
B GLU H 146 -65.6 -35.6 N 29.3 CA 31.17 C 30.65 O 28.93 CB 34.6 CG 38.19 CD 41.88 OE1 43.46 OE2 42.34
B LYS H 89 -90.8 -0.7 N 29.48 CA 28.61 C 28.49 O 28.35 CB 29.72 CG 33.11 CD 37.46 CE 42.27 NZ 46.87
B ASN T 144 58.6 48.7 N 29.58 CA 28.05 C 24.82 O 24.01 CB 31.26 CG 36.64 OD1 45.35 ND2 37.63
B ILE - 6 -111.8 130.9 N 22.4 CA 19.94 C 19.1 O 19.29 CB 19.51 CG1 20.07 CG2 18.55 CD1 19.89
B LEU - 32 -59.5 134.6 N 18.23 CA 17.91 C 17.02 O 16.46 CB 18.84 CG 20.75 CD1 22.46 CD2 21.94
B VAL E 11 -117.3 133.5 N 16.39 CA 16.33 C 16.71 O 18.1 CB 17.0 CG1 17.19 CG2 17.41
B LEU E 0 -103.6 131.8 N 17.17 CA 17.83 C 18.21 O 18.07 CB 17.28 CG 17.61 CD1 18.18 CD2 19.43
B ASP - 43 -124.6 85.3 N 19.65 CA 20.73 C 20.42 O 21.16 CB 22.11 CG 24.18 OD1 25.88 OD2 25.41
B PHE T 0 -61.2 -28.6 N 19.9 CA 19.95 C 22.36 O 23.84 CB 19.27 CG 18.11 CD1 18.64 CD2 17.25 CE1 18.47 CE2 17.22 CZ 17.17
B ALA H 7 -53.8 -36.9 N 22.82 CA 24.69 C 26.51 O 30.76 CB 24.71
B THR H 20 -60.9 -26.0 N 28.43 CA 28.88 C 29.12 O 30.97 CB 29.38 OG1 32.6 CG2 29.33
B VAL H 17 -100.5 -6.1 N 26.81 CA 26.66 C 26.7 O 28.81 CB 27.07 CG1 27.5 CG2 24.99
B LEU H 0 -108.2 -27.7 N 25.34 CA 25.69 C 27.41 O 27.2 CB 24.8 CG 23.75 CD1 22.16 CD2 24.6
B ASP - 34 -92.4 -174.6 N 30.56 CA 32.07 C 31.75 O 30.55 CB 33.65 CG 34.69 OD1 34.91 OD2 38.17
B ALA T 63 -67.6 -19.2 N 32.93 CA 33.37 C 34.54 O 35.99 CB 35.78
B ASP T 132 -87.7 4.5 N 35.35 CA 35.94 C 33.35 O 34.24 CB 38.52 CG 41.28 OD1 42.85 OD2 43.37
B ASN S 67 63.0 41.9 N 30.94 CA 29.0 C 28.6 O 28.72 CB 29.47 CG 30.1 OD1 32.85 ND2 31.92
B VAL - 75 -115.7 139.9 N 28.9 CA 29.13 C 28.26 O 28.22 CB 31.28 CG1 31.31 CG2 32.06
B TYR B 37 -63.5 135.0 N 28.58 CA 28.63 C 29.37 O 30.32 CB 29.74 CG 29.94 CD1 30.77 CD2 29.86 CE1 31.01 CE2 29.59 CZ 30.84 OH 30.97
B LEU - 73 -64.9 163.4 N 29.77 CA 32.43 C 34.25 O 35.09 CB 32.68 CG 32.07 CD1 31.78 CD2 33.07
B GLU T 183 -51.4 128.8 N 35.96 CA 38.72 C 36.68 O 36.11 CB 42.41 CG 45.37 CD 48.02 OE1 52.25 OE2 46.48
B GLY T 45 69.9 -0.1 N 38.75 CA 38.27 C 36.37 O 38.81
B LEU - 10 -92.9 -2.4 N 33.71 CA 30.98 C 29.69 O 30.15 CB 29.6 CG 30.98 CD1 29.8 CD2 31.67
B LEU B 72 -101.5 136.1 N 30.02 CA 29.29 C 28.75 O 30.84 CB 31.0 CG 31.2 CD1 30.26 CD2 33.05
B SER - 16 -69.2 -171.2 N 27.7 CA 27.81 C 29.54 O 29.46 CB 26.66 OG 25.92
B LYS S 206 -88.0 13.1 N 30.32 CA 32.42 C 32.49 O 34.26 CB 35.19 CG 36.85 CD 39.73 CE 41.15 NZ 41.46
B GLU S 76 -125.8 122.4 N 30.51 CA 30.4 C 29.58 O 29.04 CB 30.57 CG 32.51 CD 32.6 OE1 32.16 OE2 34.45
B ALA T 70 -54.3 139.9 N 30.23 CA 29.91 C 28.48 O 28.95 CB 31.29
B ASN T 25 83.3 -9.2 N 26.74 CA 25.29 C 24.2 O 23.8 CB 25.37 CG 26.12 OD1 25.25 ND2 27.56
B TYR S 33 -117.4 138.1 N 24.41 CA 23.81 C 23.73 O 24.82 CB 23.99 CG 24.31 CD1 24.22 CD2 25.67 CE1 25.09 CE2 26.62 CZ 26.39 OH 27.43
B PRO B 1 -73.3 147.5 N 23.14 CA 23.46 C 24.22 O 22.99 CB 22.32 CG 21.76 CD 22.31
B SER - 22 -76.4 -178.1 N 25.36 CA 25.95 C 25.8 O 24.17 CB 26.91 OG 25.96
B LYS H 138 -66.9 -19.1 N 27.89 CA 29.12 C 28.9 O 30.46 CB 31.06 CG 32.91 CD 36.02 CE 38.12 NZ 40.63
B GLU H 88 -87.2 -33.0 N 29.66 CA 30.75 C 28.45 O 29.37 CB 35.24 CG 38.83 CD 42.04 OE1 44.64 OE2 46.03
B GLY H 0 -62.2 -57.0 N 25.79 CA 24.21 C 22.54 O 21.94
B TYR H 5 -58.8 -27.4 N 21.6 CA 21.45 C 22.36 O 22.9 CB 20.71 CG 20.33 CD1 19.49 CD2 20.78 CE1 19.58 CE2 20.71 CZ 20.17 OH 20.25
B LYS H 84 -67.2 -44.5 N 23.46 CA 24.07 C 23.6 O 24.73 CB 26.62 CG 27.9 CD 29.89 CE 31.57 NZ 32.12
B LEU H 45 -68.4 -34.6 N 22.72 CA 22.19 C 20.52 O 20.3 CB 22.24 CG 23.64 CD1 24.61 CD2 24.51
B GLY H 0 -71.1 -30.1 N 18.0 CA 18.23 C 18.42 O 18.01
B GLU H 51 -76.8 -42.4 N 19.23 CA 20.38 C 20.06 O 20.87 CB 22.14 CG 22.95 CD 25.12 OE1 27.45 OE2 27.04
B TYR H 4 -54.9 -49.1 N 19.3 CA 19.36 C 18.66 O 18.95 CB 18.85 CG 18.72 CD1 20.01 CD2 18.08 CE1 19.99 CE2 18.46 CZ 19.21 OH 19.34
B ALA H 0 -63.8 -34.6 N 17.78 CA 17.9 C 18.87 O 19.37 CB 17.35
B SER H 18 -59.4 -41.8 N 19.47 CA 20.75 C 22.79 O 24.0 CB 20.98 OG 22.41
B ARG H 77 -71.2 -49.9 N 23.98 CA 25.57 C 25.81 O 27.61 CB 26.76 CG 27.44 CD 28.76 NE 27.67 CZ 27.02 NH1 27.97 NH2 26.56
B VAL H 11 -54.9 -47.3 N 24.92 CA 24.69 C 25.18 O 26.69 CB 23.77 CG1 24.74 CG2 23.65
B LEU - 45 -73.7 360.0 N 24.38 CA 24.88 C 26.37 O 28.12 CB 24.02 CG 23.8 CD1 22.83 CD2 23.96
C ASN - 167 360.0 -84.8 N 30.72 CA 30.74 C 28.46 O 27.41 CB 32.89 CG 33.22 OD1 32.15 ND2 35.66
C THR - 74 -88.7 -13.1 N 27.8 CA 25.78 C 24.53 O 23.18 CB 25.93 OG1 26.82 CG2 26.84
C LYS - 28 -55.6 143.4 N 24.94 CA 24.0 C 22.45 O 22.49 CB 25.5 CG 25.02 CD 26.82 CE 26.6 NZ 28.37
C VAL E 0 -134.2 139.4 N 21.21 CA 19.91 C 19.58 O 19.8 CB 18.89 CG1 17.95 CG2 19.18
C VAL E 0 -110.3 133.6 N 19.2 CA 19.07 C 18.03 O 18.21 CB 19.89 CG1 19.53 CG2 21.25
C ALA E 0 -106.3 101.7 N 17.61 CA 16.89 C 17.28 O 17.31 CB 16.39
C ILE E 0 -98.0 131.6 N 17.63 CA 18.23 C 18.03 O 17.86 CB 19.02 CG1 19.76 CG2 18.85 CD1 20.75
C GLY E 0 -175.7 -157.4 N 18.35 CA 18.49 C 19.16 O 19.81
C ASP S 1 -117.2 -146.9 N 19.25 CA 20.03 C 19.89 O 19.33 CB 20.98 CG 21.01 OD1 20.39 OD2 21.36
C SER H 8 -60.4 -25.6 N 20.55 CA 20.84 C 20.1 O 20.29 CB 22.03 OG 22.65
C PHE H 3 -80.5 -5.6 N 19.48 CA 19.0 C 18.11 O 17.77 CB 19.14 CG 20.22 CD1 20.99 CD2 20.98 CE1 22.38 CE2 22.39 CZ 23.14
C THR H 0 -106.4 -37.2 N 17.86 CA 17.31 C 17.71 O 17.47 CB 17.06 OG1 16.81 CG2 16.97
C PHE H 30 -58.2 -41.3 N 18.23 CA 18.8 C 19.16 O 19.49 CB 19.53 CG 20.28 CD1 20.43 CD2 21.0 CE1 21.39 CE2 22.0 CZ 22.15
C GLY T 1 108.6 22.9 N 19.3 CA 19.91 C 21.11 O 21.93
C TYR T 44 -57.3 142.4 N 21.48 CA 23.02 C 23.78 O 23.37 CB 23.37 CG 25.32 CD1 26.0 CD2 26.37 CE1 27.77 CE2 28.17 CZ 28.94 OH 30.86
C PRO T 52 -77.7 -3.2 N 25.13 CA 26.04 C 25.78 O 26.65 CB 27.9 CG 27.82 CD 26.1
C GLY S 37 -81.0 -148.9 N 24.79 CA 24.73 C 23.89 O 23.75
C ASN - 68 -142.9 175.0 N 23.64 CA 23.28 C 22.51 O 22.59 CB 24.55 CG 25.64 OD1 25.52 ND2 27.09
C THR G 40 -45.1 -38.8 N 22.16 CA 21.58 C 21.91 O 21.7 CB 21.7 OG1 22.79 CG2 21.4
C GLU G 118 -56.7 -34.0 N 23.1 CA 23.83 C 23.4 O 23.7 CB 25.33 CG 26.43 CD 26.38 OE1 26.51 OE2 26.75
C ASN G 65 -108.3 7.4 N 23.06 CA 22.82 C 21.26 O 21.61 CB 24.12 CG 25.65 OD1 26.14 ND2 26.66
C SER S 0 -76.6 167.9 N 20.06 CA 18.88 C 18.06 O 17.95 CB 18.55 OG 18.06
C TRP H 0 -63.9 -31.9 N 17.41 CA 16.88 C 16.62 O 16.49 CB 16.48 CG 16.11 CD1 16.3 CD2 15.56 NE1 15.88 CE2 15.48 CE3 15.36 CZ2 15.32 CZ3 15.23 CH2 15.15
C PRO H 1 -63.5 -43.0 N 16.67 CA 16.91 C 17.77 O 18.09 CB 16.83 CG 16.64 CD 16.75
C ALA H 26 -58.6 -44.5 N 18.6 CA 19.79 C 20.08 O 20.97 CB 20.6
C VAL H 14 -66.9 -30.7 N 19.93 CA 20.21 C 19.76 O 20.08 CB 20.14 CG1 20.4 CG2 21.03
C LEU H 0 -61.0 -44.0 N 19.27 CA 19.32 C 20.43 O 20.72 CB 18.88 CG 19.21 CD1 19.46 CD2 18.91
C GLY H 10 -63.2 -43.6 N 21.32 CA 22.78 C 23.85 O 24.45
C GLN H 120 -66.7 -42.8 N 24.62 CA 26.02 C 26.0 O 27.7 CB 27.08 CG 27.66 CD 28.67 OE1 29.07 NE2 29.07
C THR H 68 -73.7 -40.9 N 24.72 CA 24.4 C 25.08 O 24.82 CB 23.13 OG1 22.67 CG2 23.12
C SER H 39 -85.9 -22.8 N 22.38 CA 23.47 C 26.33 O 30.32 CB 22.42 OG 23.61
C GLN T 161 72.7 43.7 N 27.45 CA 29.13 C 27.12 O 28.1 CB 32.11 CG 34.96 CD 37.79 OE1 42.04 NE2 39.78
C ILE S 32 -132.8 163.0 N 25.34 CA 23.78 C 22.57 O 22.21 CB 22.39 CG1 21.34 CG2 22.7 CD1 20.54
C GLU - 114 -82.0 124.3 N 23.13 CA 23.96 C 21.91 O 20.55 CB 27.44 CG 29.95 CD 32.58 OE1 32.73 OE2 34.38
C VAL E 27 -124.0 125.0 N 20.94 CA 19.71 C 20.09 O 20.89 CB 19.48 CG1 18.97 CG2 19.32
C VAL E 28 -107.5 125.2 N 18.74 CA 19.82 C 18.72 O 18.52 CB 21.35 CG1 21.77 CG2 22.41
C ASN E 36 -86.7 115.2 N 19.49 CA 19.49 C 19.84 O 21.91 CB 20.9 CG 21.06 OD1 21.31 ND2 21.04
C LYS E 41 -116.0 35.5 N 18.88 CA 18.85 C 18.72 O 19.94 CB 18.46 CG 19.68 CD 21.25 CE 22.96 NZ 24.94
C GLY E 3 -78.4 127.6 N 17.96 CA 17.78 C 19.53 O 19.32
C LEU - 33 -122.4 129.7 N 19.2 CA 21.48 C 21.4 O 20.9 CB 21.87 CG 23.36 CD1 24.1 CD2 23.2
C LYS T 40 -59.4 140.5 N 22.45 CA 22.52 C 22.44 O 23.18 CB 24.24 CG 24.93 CD 27.57 CE 27.72 NZ 30.1
C SER T 56 61.5 15.0 N 21.5 CA 21.96 C 21.54 O 23.8 CB 23.45 OG 24.34
C GLN - 13 -77.1 155.8 N 20.46 CA 20.13 C 19.71 O 19.81 CB 19.43 CG 20.62 CD 19.97 OE1 20.32 NE2 21.35
C THR - 14 -101.4 166.6 N 18.84 CA 18.36 C 16.73 O 16.9 CB 19.45 OG1 19.95 CG2 20.84
C ALA H 0 -55.7 -34.8 N 16.25 CA 16.08 C 17.6 O 16.45 CB 15.74
C GLN H 97 -60.5 -38.1 N 19.64 CA 21.89 C 22.46 O 22.97 CB 24.1 CG 27.33 CD 32.17 OE1 34.28 NE2 34.76
C ASP H 59 -70.6 -33.2 N 22.26 CA 21.89 C 20.77 O 20.52 CB 21.99 CG 22.89 OD1 22.7 OD2 23.26
C LEU H 0 -67.6 -47.9 N 20.53 CA 20.78 C 20.75 O 20.34 CB 20.6 CG 21.17 CD1 23.87 CD2 21.24
C TYR H 78 -55.3 -41.4 N 20.65 CA 20.73 C 21.48 O 23.19 CB 21.82 CG 22.26 CD1 22.22 CD2 23.22 CE1 23.11 CE2 24.1 CZ 24.25 OH 27.71
C SER H 88 -60.6 -32.0 N 22.4 CA 23.4 C 23.11 O 24.14 CB 24.26 OG 25.37
C ARG T 30 -108.1 17.9 N 22.66 CA 23.19 C 22.79 O 22.63 CB 23.23 CG 21.89 CD 23.19 NE 22.76 CZ 20.83 NH1 19.33 NH2 20.63
C PHE H 0 -60.9 -39.4 N 21.79 CA 20.54 C 22.25 O 21.33 CB 19.03 CG 17.46 CD1 16.99 CD2 18.22 CE1 16.13 CE2 17.69 CZ 16.81
C ASP H 80 -67.5 -39.2 N 24.02 CA 26.2 C 26.56 O 27.1 CB 30.23 CG 34.01 OD1 40.01 OD2 37.66
C ALA H 61 -79.1 -44.7 N 26.58 CA 27.22 C 26.28 O 25.29 CB 28.37
C ASP H 31 -85.5 -21.9 N 24.27 CA 23.38 C 21.48 O 21.45 CB 24.25 CG 27.75 OD1 34.07 OD2 29.17
C VAL T 0 -117.3 -61.8 N 20.86 CA 18.84 C 19.95 O 20.01 CB 17.73 CG1 17.16 CG2 17.43
C LEU G 35 -52.4 -44.9 N 20.75 CA 22.35 C 22.32 O 22.4 CB 23.7 CG 23.62 CD1 23.0 CD2 24.51
C ALA G 65 -61.6 -29.6 N 24.08 CA 25.92 C 25.82 O 28.05 CB 26.1
C GLU G 52 -76.9 -6.1 N 24.01 CA 23.42 C 23.42 O 24.16 CB 22.4 CG 23.38 CD 25.81 OE1 26.4 OE2 28.09
C LYS - 160 44.6 49.2 N 22.64 CA 22.84 C 21.3 O 22.37 CB 25.0 CG 27.76 CD 28.63 CE 29.51 NZ 31.94
C PRO - 8 -83.4 169.1 N 19.04 CA 17.68 C 17.0 O 17.04 CB 16.82 CG 16.48 CD 17.87
C GLY S 15 -93.1 -15.5 N 16.55 CA 16.66 C 15.72 O 16.07
C ARG E 48 -148.8 146.4 N 14.91 CA 14.6 C 13.85 O 13.68 CB 15.01 CG 16.61 CD 18.0 NE 19.58 CZ 22.06 NH1 21.93 NH2 25.22
C VAL E 0 -131.2 129.5 N 13.18 CA 13.05 C 12.97 O 13.48 CB 13.27 CG1 13.15 CG2 13.17
C ILE E 1 -98.0 120.2 N 12.45 CA 12.04 C 11.82 O 10.89 CB 11.57 CG1 11.55 CG2 11.49 CD1 11.71
C ILE E 0 -106.9 112.9 N 12.47 CA 12.4 C 12.61 O 13.33 CB 12.5 CG1 12.01 CG2 12.8 CD1 12.22
C PHE E 0 -126.2 92.1 N 13.55 CA 14.57 C 14.98 O 15.98 CB 14.89 CG 16.62 CD1 17.26 CD2 18.83 CE1 18.31 CE2 21.05 CZ 19.96
C VAL - 0 -144.6 161.5 N 15.34 CA 16.12 C 16.76 O 16.65 CB 16.73 CG1 17.57 CG2 17.43
C GLY S 0 133.2 -24.7 N 16.94 CA 17.92 C 18.92 O 20.44
C ASN H 3 -70.3 -45.3 N 17.96 CA 19.41 C 19.86 O 21.32 CB 19.26 CG 19.33 OD1 19.34 ND2 20.37
C GLY H 6 -67.8 -33.8 N 19.52 CA 19.82 C 20.45 O 21.33
C ASP H 1 -63.3 -42.1 N 20.74 CA 22.23 C 23.29 O 22.6 CB 22.64 CG 24.35 OD1 23.92 OD2 24.94
C ALA H 1 -67.4 -40.7 N 22.96 CA 24.86 C 26.06 O 26.93 CB 24.67
C ILE H 80 -68.9 -27.7 N 25.52 CA 26.93 C 28.01 O 29.94 CB 27.41 CG1 27.28 CG2 29.08 CD1 27.23
C LYS T 107 -96.3 11.3 N 27.06 CA 27.96 C 28.07 O 29.37 CB 27.65 CG 29.14 CD 30.23 CE 32.47 NZ 31.5
C GLU T 168 52.2 42.7 N 27.66 CA 28.73 C 27.23 O 27.7 CB 31.33 CG 33.16 CD 36.89 OE1 40.16 OE2 38.6
C VAL - 22 -71.8 132.5 N 25.81 CA 26.02 C 26.8 O 27.84 CB 24.65 CG1 24.78 CG2 24.04
C PRO - 76 -64.1 154.2 N 29.04 CA 29.63 C 29.18 O 26.95 CB 30.31 CG 30.72 CD 29.78
C LEU H 46 -54.4 -48.5 N 30.46 CA 30.44 C 31.09 O 29.77 CB 32.19 CG 32.37 CD1 29.02 CD2 33.13
C GLU H 128 -53.7 -36.0 N 32.74 CA 33.87 C 31.14 O 30.99 CB 37.85 CG 40.38 CD 44.71 OE1 52.19 OE2 46.83
C THR H 35 -73.8 -40.2 N 29.58 CA 25.84 C 24.66 O 22.7 CB 25.89 OG1 27.35 CG2 25.6
C PHE H 0 -62.3 -46.9 N 23.59 CA 21.45 C 21.12 O 18.36 CB 21.12 CG 19.81 CD1 19.22 CD2 19.89 CE1 18.29 CE2 18.83 CZ 17.5
C GLN H 40 -57.1 -53.8 N 21.81 CA 22.44 C 21.54 O 21.39 CB 24.03 CG 24.79 CD 26.5 OE1 27.74 NE2 27.53
C GLN H 98 -49.1 -43.7 N 22.07 CA 22.5 C 20.68 O 19.87 CB 24.16 CG 28.04 CD 29.34 OE1 30.7 NE2 30.23
C HIS H 26 -78.6 -34.3 N 19.3 CA 18.59 C 17.38 O 16.93 CB 18.77 CG 20.1 ND1 21.61 CD2 21.22 CE1 22.88 NE2 22.59
C ILE H 0 -63.1 -50.6 N 16.97 CA 16.24 C 16.68 O 15.98 CB 17.11 CG1 17.43 CG2 16.82 CD1 17.63
C LYS H 75 -56.2 -38.3 N 17.93 CA 19.5 C 18.88 O 18.53 CB 21.14 CG 21.78 CD 23.5 CE 24.55 NZ 26.83
C ALA H 20 -68.5 -33.3 N 18.67 CA 18.32 C 18.47 O 18.76 CB 18.49
C VAL H 0 -62.0 -46.8 N 17.32 CA 17.63 C 18.4 O 19.17 CB 18.66 CG1 20.08 CG2 17.59
C GLU H 105 -66.8 -36.1 N 19.68 CA 21.4 C 20.31 O 20.54 CB 23.69 CG 25.9 CD 29.86 OE1 31.82 OE2 35.44
C LYS H 48 -66.8 -49.2 N 19.6 CA 19.7 C 18.07 O 18.24 CB 20.17 CG 21.83 CD 24.69 CE 25.04 NZ 28.08
C ALA H 0 -62.7 -39.3 N 16.19 CA 15.89 C 17.25 O 17.81 CB 15.12
C GLU H 80 -70.8 -35.3 N 18.02 CA 19.64 C 20.38 O 21.26 CB 21.64 CG 22.05 CD 25.43 OE1 27.59 OE2 28.12
C SER H 90 -65.0 -28.1 N 16.76 CA 18.27 C 18.51 O 18.85 CB 19.04 OG 18.73
C ASN T 77 -96.8 12.1 N 18.29 CA 18.87 C 18.9 O 19.83 CB 18.94 CG 19.67 OD1 20.14 ND2 19.24
C HIS T 168 65.4 38.6 N 18.49 CA 18.99 C 18.39 O 18.93 CB 20.47 CG 21.47 ND1 22.01 CD2 22.74 CE1 22.6 NE2 23.07
C ILE - 9 -115.6 132.3 N 17.15 CA 16.39 C 15.43 O 15.17 CB 16.54 CG1 18.05 CG2 16.38 CD1 18.91
C ILE E 105 -81.0 117.5 N 15.26 CA 14.28 C 13.09 O 12.35 CB 15.35 CG1 16.59 CG2 14.89 CD1 17.4
C PRO E 9 -83.7 147.4 N 12.24 CA 11.85 C 11.39 O 11.92 CB 11.5 CG 11.82 CD 12.38
C ILE E 2 -133.4 128.7 N 11.29 CA 11.49 C 11.36 O 11.49 CB 11.36 CG1 11.98 CG2 11.61 CD1 12.68
C LEU E 0 -101.9 120.1 N 12.11 CA 12.15 C 11.67 O 11.44 CB 12.49 CG 13.98 CD1 14.62 CD2 14.74
C ALA E 0 -98.1 123.9 N 11.38 CA 11.91 C 11.66 O 11.37 CB 12.51
C LEU - 5 -71.6 146.1 N 11.66 CA 12.29 C 12.52 O 11.86 CB 12.34 CG 12.69 CD1 13.37 CD2 13.17
C PRO - 0 -64.2 148.2 N 13.36 CA 14.31 C 14.93 O 16.04 CB 14.45 CG 14.53 CD 13.75
C LEU - 0 -89.1 149.7 N 15.23 CA 16.46 C 16.55 O 17.38 CB 16.67 CG 17.5 CD1 17.89 CD2 17.8
C PRO - 5 -49.9 143.8 N 16.78 CA 17.62 C 17.56 O 16.88 CB 18.01 CG 17.2 CD 17.06
C TYR - 29 -152.1 125.4 N 18.11 CA 18.7 C 19.78 O 19.42 CB 18.7 CG 19.72 CD1 20.48 CD2 20.25 CE1 21.51 CE2 21.12 CZ 21.48 OH 22.18
C THR T 84 -60.5 139.2 N 20.84 CA 22.35 C 22.74 O 23.36 CB 23.75 OG1 25.2 CG2 23.59
C GLY T 79 95.6 -26.3 N 22.98 CA 23.99 C 23.58 O 24.8
C VAL - 30 -133.1 35.0 N 22.4 CA 22.09 C 21.28 O 20.42 CB 22.0 CG1 23.48 CG2 21.13
C GLN H 66 -58.9 -40.1 N 22.32 CA 23.11 C 23.56 O 23.7 CB 24.03 CG 25.35 CD 25.11 OE1 26.52 NE2 25.26
C ASN H 123 -61.2 -49.7 N 24.87 CA 26.8 C 24.23 O 24.38 CB 29.29 CG 34.16 OD1 40.52 ND2 36.4
C THR H 44 -60.2 -51.3 N 22.64 CA 21.96 C 20.76 O 19.92 CB 22.1 OG1 22.21 CG2 21.8
C ILE H 2 -57.4 -48.7 N 20.48 CA 20.42 C 20.91 O 20.93 CB 20.12 CG1 20.8 CG2 19.05 CD1 22.31
C LYS H 110 -53.3 -47.8 N 22.11 CA 22.5 C 21.82 O 20.55 CB 26.32 CG 28.95 CD 35.26 CE 38.12 NZ 42.88
C GLU H 102 -60.2 -34.1 N 24.27 CA 27.03 C 24.21 O 22.94 CB 32.36 CG 40.38 CD 47.7 OE1 46.4 OE2 50.5
C PHE H 2 -75.6 -46.2 N 21.22 CA 19.06 C 18.38 O 18.7 CB 18.35 CG 18.94 CD1 20.02 CD2 18.28 CE1 21.49 CE2 19.62 CZ 20.91
C ARG H 41 -58.9 -43.3 N 18.36 CA 17.92 C 18.53 O 19.45 CB 17.61 CG 16.95 CD 17.33 NE 16.72 CZ 16.46 NH1 16.74 NH2 17.75
C GLU H 127 -64.5 -44.9 N 19.38 CA 21.28 C 19.88 O 20.59 CB 23.17 CG 25.83 CD 28.2 OE1 31.66 OE2 28.66
C TRP H 34 -67.9 -47.5 N 18.9 CA 18.87 C 18.7 O 19.76 CB 18.92 CG 17.82 CD1 18.45 CD2 16.67 NE1 17.62 CE2 16.64 CE3 15.78 CZ2 16.21 CZ3 14.75 CH2 15.28
C GLU H 0 -59.5 -37.4 N 18.2 CA 17.86 C 16.97 O 15.48 CB 18.68 CG 19.04 CD 18.79 OE1 18.82 OE2 19.25
C SER H 48 -62.0 -48.3 N 17.73 CA 18.58 C 18.41 O 17.74 CB 18.96 OG 20.5
C SER H 60 -65.4 -36.2 N 19.88 CA 22.22 C 20.46 O 20.65 CB 24.63 OG 26.09
C TYR H 6 -63.7 -42.7 N 19.65 CA 19.96 C 19.91 O 20.22 CB 18.44 CG 18.17 CD1 19.62 CD2 16.84 CE1 18.26 CE2 16.85 CZ 17.87 OH 18.64
C ALA H 1 -70.0 -32.9 N 18.22 CA 18.84 C 20.0 O 20.98 CB 17.14
C LYS H 175 -64.7 -46.0 N 21.79 CA 24.2 C 25.1 O 24.82 CB 25.32 CG 28.09 CD 30.59 CE 33.58 NZ 35.32
C GLU H 137 -64.2 -42.7 N 33.63 CA 37.58 C 35.35 O 39.41 CB 39.96 CG 43.96 CD 47.72 OE1 48.87 OE2 52.04
C LYS H 79 -85.4 -5.0 N 32.32 CA 31.8 C 29.67 O 27.98 CB 31.91 CG 34.94 CD 34.85 CE 36.71 NZ 38.76
C ASN T 148 58.0 43.3 N 30.09 CA 28.85 C 25.11 O 23.53 CB 31.93 CG 33.89 OD1 33.49 ND2 38.13
C ILE - 15 -100.6 138.0 N 22.6 CA 21.29 C 19.79 O 19.72 CB 21.05 CG1 22.57 CG2 20.6 CD1 22.61
C LEU - 81 -62.4 138.0 N 19.0 CA 19.13 C 17.95 O 16.59 CB 20.56 CG 21.42 CD1 22.46 CD2 22.89
C VAL E 44 -115.7 136.1 N 16.56 CA 16.26 C 15.95 O 18.26 CB 16.94 CG1 17.04 CG2 17.73
C LEU E 0 -109.3 123.2 N 16.01 CA 16.01 C 15.91 O 16.68 CB 15.88 CG 15.97 CD1 16.16 CD2 16.65
C ASP - 42 -117.7 79.7 N 16.71 CA 17.79 C 17.21 O 19.6 CB 18.6 CG 20.25 OD1 20.56 OD2 22.55
C PHE T 0 -58.5 -21.2 N 15.27 CA 14.34 C 14.89 O 14.75 CB 13.43 CG 13.08 CD1 13.52 CD2 12.97 CE1 13.86 CE2 12.96 CZ 13.16
C ALA H 10 -60.7 -24.9 N 15.46 CA 15.69 C 16.3 O 15.9 CB 16.69
C THR H 83 -70.3 -14.3 N 16.82 CA 18.32 C 18.45 O 20.72 CB 19.06 OG1 19.59 CG2 19.71
C VAL H 26 -116.4 -18.2 N 18.34 CA 19.39 C 19.4 O 19.64 CB 19.58 CG1 21.01 CG2 18.33
C LEU H 0 -93.4 -33.1 N 18.74 CA 19.45 C 21.07 O 23.17 CB 19.06 CG 19.07 CD1 18.93 CD2 19.82
C ASP - 64 -94.7 -174.3 N 27.28 CA 28.81 C 30.35 O 30.79 CB 31.11 CG 31.33 OD1 29.53 OD2 31.31
C ALA T 98 -67.6 -14.4 N 32.2 CA 32.91 C 33.09 O 34.96 CB 35.87
C ASP T 130 -103.1 19.7 N 32.45 CA 32.56 C 30.58 O 30.09 CB 33.88 CG 36.79 OD1 39.77 OD2 35.59
C ASN S 74 56.3 36.7 N 27.97 CA 26.14 C 25.6 O 24.67 CB 26.86 CG 26.89 OD1 26.02 ND2 28.79
C VAL - 83 -106.6 131.3 N 25.53 CA 23.93 C 21.14 O 20.26 CB 25.71 CG1 25.51 CG2 26.98
C TYR B 29 -61.2 143.8 N 19.88 CA 18.82 C 18.75 O 20.12 CB 18.1 CG 18.26 CD1 18.72 CD2 18.12 CE1 19.25 CE2 17.89 CZ 18.68 OH 17.73
C LEU - 79 -76.7 156.5 N 18.41 CA 20.0 C 19.81 O 19.22 CB 20.13 CG 20.08 CD1 20.22 CD2 21.31
C GLU T 190 -47.3 131.0 N 20.89 CA 21.64 C 21.13 O 21.82 CB 23.33 CG 24.32 CD 24.63 OE1 25.39 OE2 25.43
C GLY T 37 80.0 1.2 N 20.56 CA 20.88 C 20.45 O 20.69
C LEU - 7 -110.2 2.8 N 19.56 CA 18.92 C 19.57 O 19.1 CB 17.87 CG 18.32 CD1 17.29 CD2 19.04
C LEU B 81 -106.9 136.6 N 21.14 CA 22.02 C 23.35 O 22.67 CB 22.53 CG 23.3 CD1 22.27 CD2 23.99
C SER - 16 -73.5 -178.6 N 23.05 CA 25.51 C 28.63 O 31.62 CB 25.99 OG 24.72
C LYS S 217 -76.3 9.4 N 31.41 CA 34.6 C 33.58 O 35.49 CB 36.88 CG 39.75 CD 41.93 CE 44.13 NZ 46.7
C GLU S 83 -127.7 122.0 N 34.12 CA 34.05 C 30.92 O 28.81 CB 35.93 CG 40.91 CD 43.11 OE1 38.95 OE2 48.76
C ALA T 72 -48.8 137.6 N 32.56 CA 30.05 C 27.16 O 26.78 CB 31.66
C ASN T 23 75.7 8.9 N 24.86 CA 22.57 C 20.56 O 19.79 CB 23.48 CG 25.14 OD1 25.25 ND2 26.77
C TYR S 31 -129.4 135.7 N 19.87 CA 18.63 C 17.74 O 18.6 CB 19.57 CG 20.72 CD1 19.61 CD2 23.18 CE1 20.61 CE2 23.98 CZ 22.51 OH 23.86
C PRO B 0 -60.4 155.4 N 16.41 CA 16.39 C 17.45 O 17.99 CB 15.08 CG 14.75 CD 15.62
C SER - 21 -93.6 173.9 N 18.14 CA 19.24 C 18.05 O 16.84 CB 20.59 OG 19.78
C LYS H 135 -53.1 -37.4 N 19.05 CA 18.46 C 18.16 O 16.76 CB 20.03 CG 20.01 CD 22.24 CE 22.98 NZ 22.24
C GLU H 92 -70.8 -31.9 N 19.21 CA 20.38 C 18.32 O 17.41 CB 23.61 CG 25.42 CD 27.21 OE1 31.31 OE2 26.71
C GLY H 0 -64.9 -46.8 N 17.39 CA 16.67 C 14.89 O 14.13
C TYR H 5 -64.8 -31.1 N 14.58 CA 13.72 C 14.23 O 14.35 CB 14.07 CG 13.29 CD1 12.61 CD2 13.93 CE1 12.38 CE2 13.82 CZ 12.99 OH 13.44
C LYS H 79 -67.8 -45.3 N 16.05 CA 16.96 C 16.18 O 16.35 CB 19.19 CG 21.42 CD 24.67 CE 26.61 NZ 28.13
C LEU H 49 -65.5 -31.0 N 15.75 CA 14.89 C 13.92 O 14.22 CB 14.94 CG 16.2 CD1 16.81 CD2 16.69
C GLY H 0 -61.6 -35.3 N 13.06 CA 13.39 C 14.31 O 14.88
C GLU H 51 -71.7 -37.4 N 14.12 CA 15.48 C 14.67 O 15.11 CB 16.71 CG 17.86 CD 20.04 OE1 20.61 OE2 22.03
C TYR H 33 -59.8 -48.5 N 13.53 CA 13.38 C 13.7 O 14.19 CB 12.64 CG 12.6 CD1 13.3 CD2 12.31 CE1 13.73 CE2 12.83 CZ 13.25 OH 14.16
C ALA H 0 -63.8 -38.6 N 13.96 CA 14.91 C 15.83 O 17.58 CB 14.54
C SER H 19 -61.2 -35.4 N 15.42 CA 17.08 C 17.68 O 18.73 CB 17.51 OG 19.93
C ARG H 165 -71.6 -40.0 N 17.1 CA 18.6 C 19.49 O 21.94 CB 18.04 CG 18.28 CD 17.85 NE 16.87 CZ 15.61 NH1 16.13 NH2 14.62
C VAL H 50 -72.7 -42.7 N 18.61 CA 19.53 C 21.37 O 24.08 CB 18.76 CG1 19.61 CG2 18.32
C LEU - 50 -75.9 360.0 N 22.0 CA 24.51 C 26.01 O 29.42 CB 24.08 CG 24.02 CD1 23.15 CD2 23.24
