A GLU - 142 360.0 -164.4 N 66.35 CA 61.24 C 50.15 O 44.88 CB 62.47
A ALA - 101 -72.4 151.3 N 39.21 CA 28.34 C 20.33 O 19.5 CB 27.13
A GLN - 142 -105.6 135.1 N 19.53 CA 18.67 C 17.94 O 18.04 CB 20.26 CG 27.76 CD 25.98 OE1 23.09 NE2 30.71
A ARG - 163 -64.5 123.0 N 15.93 CA 15.06 C 19.58 O 20.09 CB 13.78 CG 14.98 CD 13.42 NE 14.78 CZ 14.6 NH1 15.56 NH2 16.76
A GLN - 144 -100.9 -17.4 N 14.57 CA 16.71 C 19.32 O 21.57 CB 19.65 CG 22.4 CD 35.15 OE1 45.18 NE2 41.67
A PHE S 66 -132.8 130.1 N 17.26 CA 19.08 C 15.97 O 15.25 CB 17.25 CG 18.7 CD1 28.03 CD2 20.23 CE1 34.75 CE2 23.84 CZ 29.55
A ALA - 49 -66.5 144.1 N 15.33 CA 13.33 C 14.83 O 15.26 CB 18.17
A ARG - 122 -109.5 138.2 N 14.7 CA 13.1 C 16.02 O 18.97 CB 12.5 CG 11.79 CD 12.42 NE 11.45 CZ 10.25 NH1 13.38 NH2 12.5
A VAL B 11 -136.0 152.6 N 13.57 CA 14.83 C 12.63 O 12.91 CB 16.82 CG1 23.63 CG2 15.71
A LYS - 116 -87.6 136.8 N 14.75 CA 18.19 C 21.71 O 24.64 CB 20.98 CG 22.8 CD 36.07 CE 41.5 NZ 34.91
A LEU - 5 -158.6 168.3 N 22.03 CA 24.86 C 19.39 O 27.73 CB 29.21 CG 23.93 CD1 27.67 CD2 22.34
A PRO S 6 -81.7 88.4 N 23.65 CA 28.49 C 20.02 O 27.16 CB 38.63 CG 40.04 CD 27.81
A ALA E 1 -139.4 157.4 N 16.14 CA 15.23 C 12.68 O 15.7 CB 16.99
A ARG E 37 -136.4 158.1 N 13.12 CA 13.7 C 15.41 O 16.1 CB 18.99 CG 30.85 CD 28.37 NE 23.35 CZ 18.18 NH1 31.92 NH2 23.35
A ILE E 0 -117.2 131.7 N 14.21 CA 14.17 C 14.59 O 16.33 CB 14.3 CG1 18.1 CG2 15.57 CD1 17.4
A ARG E 122 -113.1 121.1 N 15.93 CA 18.14 C 18.29 O 19.2 CB 20.98 CG 25.81 CD 46.54 NE 51.83 CZ 52.47 NH1 55.05 NH2 43.34
A TYR E 10 -143.5 164.9 N 17.06 CA 20.16 C 17.37 O 21.18 CB 18.81 CG 18.6 CD1 16.35 CD2 21.42 CE1 18.74 CE2 22.95 CZ 20.86 OH 24.31
A ILE E 108 -95.7 119.6 N 21.67 CA 26.54 C 24.2 O 26.82 CB 32.86 CG1 39.09 CG2 32.1 CD1 40.39
A GLY - 9 -78.2 176.1 N 25.55 CA 27.96 C 35.07 O 36.1
A ALA T 75 -59.2 -29.1 N 32.99 CA 36.52 C 45.18 O 52.79 CB 45.85
A ASN T 85 -89.3 10.3 N 47.99 CA 49.0 C 47.74 O 50.09 CB 48.73 CG 53.29 OD1 52.2 ND2 56.58
A ARG S 79 72.9 13.2 N 40.84 CA 38.57 C 44.65 O 50.42 CB 39.69
A GLU - 42 -99.0 143.0 N 41.7 CA 42.26 C 38.36 O 35.91 CB 42.0
A GLY E 62 -66.2 145.6 N 40.29 CA 38.36 C 37.51 O 35.67
A VAL E 16 -129.1 133.9 N 25.07 CA 20.53 C 20.54 O 20.61 CB 22.25 CG1 31.0 CG2 26.62
A ASP E 72 -124.0 99.8 N 18.1 CA 19.24 C 24.98 O 35.26 CB 25.2 CG 35.16 OD1 28.11 OD2 46.44
A ALA E 1 -117.7 136.4 N 15.1 CA 15.68 C 18.3 O 17.05 CB 17.19
A ARG E 20 -73.1 141.5 N 15.17 CA 15.59 C 13.12 O 14.24 CB 14.41 CG 15.53 CD 20.87 NE 19.61 CZ 25.97 NH1 23.74 NH2 23.88
A LEU E 5 -76.9 140.9 N 13.52 CA 12.57 C 12.28 O 15.41 CB 11.71 CG 15.08 CD1 16.2 CD2 16.98
A LEU E 17 -79.7 -39.8 N 11.75 CA 11.79 C 13.94 O 16.3 CB 11.47 CG 11.65 CD1 11.87 CD2 13.09
A ASP E 41 -161.2 168.0 N 11.98 CA 12.69 C 11.95 O 11.01 CB 16.24 CG 18.44 OD1 14.71 OD2 29.7
A LEU E 0 -141.6 147.0 N 12.18 CA 11.81 C 12.46 O 13.95 CB 12.57 CG 12.51 CD1 12.12 CD2 15.08
A SER - 7 -141.1 178.2 N 12.3 CA 13.19 C 13.26 O 14.07 CB 13.2 OG 12.36
A ALA S 5 -73.3 -7.9 N 14.25 CA 15.15 C 17.51 O 15.0 CB 16.17
A GLY S 15 -102.1 -23.1 N 13.14 CA 14.32 C 13.99 O 13.13
A GLY E 6 176.4 -161.3 N 12.83 CA 10.2 C 10.83 O 11.7
A PHE E 6 -159.9 173.0 N 9.6 CA 9.65 C 12.23 O 11.83 CB 11.63 CG 12.43 CD1 16.42 CD2 11.59 CE1 15.05 CE2 12.23 CZ 12.66
A ALA E 12 -134.5 151.3 N 10.03 CA 11.87 C 12.46 O 11.04 CB 13.01
A PHE E 1 -152.6 163.2 N 9.98 CA 11.21 C 10.7 O 12.11 CB 10.96 CG 12.43 CD1 13.96 CD2 13.86 CE1 14.72 CE2 13.29 CZ 12.5
A THR E 7 -83.8 132.5 N 11.46 CA 12.02 C 12.72 O 14.43 CB 13.41 OG1 13.4 CG2 15.63
A ALA - 27 -58.2 139.4 N 13.68 CA 13.32 C 15.51 O 20.51 CB 14.78
A SER - 43 -158.3 168.9 N 20.15 CA 28.7 C 22.4 O 27.56 CB 40.04 OG 34.91
A GLY S 65 79.5 -140.6 N 34.68 CA 38.62 C 29.89 O 26.38
A ALA S 22 -64.3 151.2 N 33.92 CA 27.26 C 29.74 O 25.34 CB 31.73
A PRO - 122 -53.6 146.0 N 24.54 CA 23.83 C 24.99 O 25.01 CB 28.87 CG 30.59 CD 28.75
A ILE - 22 -118.7 125.7 N 17.11 CA 12.85 C 17.25 O 16.89 CB 13.93 CG1 15.78 CG2 18.96 CD1 19.33
A GLN - 132 -113.9 124.1 N 14.55 CA 14.0 C 15.11 O 13.83 CB 13.44 CG 14.65 CD 14.94 OE1 25.04 NE2 15.96
A PRO T 62 -48.2 137.1 N 12.02 CA 12.21 C 13.75 O 15.39 CB 12.24 CG 12.16 CD 12.84
A GLY T 35 108.4 -24.4 N 10.63 CA 13.52 C 16.71 O 19.07
A ASP - 62 -75.8 148.6 N 14.22 CA 18.81 C 13.24 O 13.81 CB 22.91 CG 23.07 OD1 30.11 OD2 24.25
A LEU E 123 -104.9 140.1 N 14.1 CA 13.51 C 12.92 O 16.45 CB 15.67 CG 19.76 CD1 17.76 CD2 17.37
A TYR E 19 -135.2 166.1 N 12.58 CA 13.41 C 14.19 O 14.43 CB 13.03 CG 12.64 CD1 16.82 CD2 17.13 CE1 18.65 CE2 21.96 CZ 19.53 OH 19.62
A LYS E 145 -133.3 144.5 N 14.76 CA 14.44 C 19.09 O 18.33 CB 14.73 CG 21.34 CD 26.25 CE 23.25 NZ 21.09
A GLY E 18 -170.3 -160.7 N 18.78 CA 21.77 C 19.19 O 17.94
A LYS E 31 -132.8 125.3 N 17.52 CA 17.01 C 19.36 O 21.87 CB 20.24 CG 20.85
A MET E 0 -93.9 118.9 N 14.12 CA 14.36 C 16.68 O 19.24 CB 18.55 CG 23.34 SD 24.44 CE 23.05
A LEU E 34 -109.8 133.1 N 14.71 CA 16.86 C 15.86 O 19.43 CB 19.24 CG 24.79 CD1 32.51 CD2 27.05
A PHE E 9 -126.1 136.4 N 16.75 CA 17.1 C 23.56 O 24.09 CB 22.19 CG 25.26 CD1 24.99 CD2 27.3 CE1 28.33 CE2 28.12 CZ 31.95
A GLN E 121 -139.9 132.1 N 23.28 CA 28.55 C 31.96 O 32.17 CB 41.67 CG 50.2 CD 58.2 OE1 65.47 NE2 59.0
A VAL E 36 -151.1 153.9 N 34.36 CA 33.31 C 31.32 O 38.81 CB 41.42 CG1 47.49 CG2 48.25
A ASP T 103 41.9 -124.7 N 38.09 CA 38.09 C 41.43 O 38.27 CB 45.48 CG 56.71 OD1 54.91 OD2 62.61
A SER T 63 -104.1 27.7 N 34.24 CA 30.98 C 29.76 O 30.6 CB 33.36 OG 47.99
A ILE E 90 -104.0 130.7 N 27.96 CA 26.8 C 26.86 O 28.97 CB 26.06 CG1 33.96 CG2 34.55 CD1 44.85
A SER E 90 -119.2 131.5 N 25.11 CA 23.61 C 22.89 O 25.7 CB 26.87 OG 30.22
A PHE E 63 -131.8 130.2 N 21.24 CA 21.06 C 22.28 O 20.17 CB 20.64 CG 20.45 CD1 29.93 CD2 34.18 CE1 25.17 CE2 34.81 CZ 25.21
A SER E 71 -131.3 138.4 N 19.38 CA 18.25 C 19.51 O 21.6 CB 23.46 OG 23.73
A LEU E 13 -132.9 125.8 N 16.67 CA 18.16 C 15.71 O 16.47 CB 17.71 CG 18.29 CD1 24.27 CD2 21.81
A GLU E 161 -72.4 139.2 N 16.67 CA 18.6 C 20.97 O 15.71 CB 20.47 CG 18.26 CD 30.35 OE1 35.65 OE2 35.5
A VAL E 9 -141.0 156.0 N 14.84 CA 14.47 C 17.11 O 17.55 CB 15.17 CG1 15.59 CG2 16.12
A GLU E 74 -113.8 145.1 N 13.42 CA 12.02 C 11.37 O 14.18 CB 12.65 CG 18.16 CD 22.45 OE1 16.94 OE2 20.86
A PHE E 1 -147.1 153.7 N 10.69 CA 10.36 C 12.6 O 14.99 CB 11.71 CG 10.7 CD1 13.17 CD2 10.87 CE1 13.65 CE2 12.52 CZ 13.02
A GLN E 43 -110.0 136.0 N 11.03 CA 10.79 C 10.25 O 12.32 CB 9.89 CG 11.17 CD 17.64 OE1 19.17 NE2 18.28
A VAL E 1 -74.7 124.8 N 9.61 CA 10.42 C 11.07 O 11.11 CB 9.85 CG1 11.19 CG2 12.61
A ARG E 145 -96.3 -34.4 N 9.57 CA 9.42 C 11.27 O 12.82 CB 10.63 CG 11.33 CD 9.91 NE 14.31 CZ 14.82 NH1 13.83 NH2 17.05
A SER E 62 -160.5 159.6 N 13.44 CA 13.79 C 13.39 O 11.92 CB 13.45 OG 15.37
A VAL E 42 -131.3 127.6 N 13.22 CA 11.21 C 13.84 O 13.8 CB 11.27 CG1 13.68 CG2 13.0
A ASP - 71 -72.1 125.0 N 12.78 CA 13.54 C 14.06 O 15.47 CB 14.72 CG 25.43 OD1 24.42 OD2 34.55
A PRO T 114 -72.3 -10.9 N 15.0 CA 15.2 C 16.11 O 22.03 CB 16.14 CG 17.6 CD 14.58
A ALA T 75 -95.2 -60.4 N 18.47 CA 19.67 C 18.96 O 21.02 CB 22.96
A SER T 43 -83.6 -16.8 N 16.49 CA 16.93 C 17.91 O 17.11 CB 16.95 OG 15.78
A ARG - 112 62.7 23.9 N 16.65 CA 15.89 C 16.25 O 13.9 CB 15.7 CG 25.33 CD 30.04 NE 28.43 CZ 34.22 NH1 40.77 NH2 31.0
A ALA E 22 -66.5 125.9 N 11.96 CA 11.55 C 14.05 O 15.15 CB 11.42
A VAL E 0 -98.9 115.6 N 11.9 CA 10.48 C 12.92 O 12.77 CB 11.29 CG1 12.84 CG2 10.45
A GLY E 19 -93.4 128.5 N 10.99 CA 11.43 C 12.94 O 12.62
A CYS E 9 -129.5 148.1 N 10.15 CA 12.26 C 10.79 O 11.23 CB 11.35 SG 13.7
A GLU E 87 -116.0 126.0 N 10.95 CA 11.53 C 12.29 O 11.81 CB 11.16 CG 10.68 CD 21.37 OE1 23.25 OE2 17.41
A PHE E 14 -63.8 145.2 N 10.6 CA 13.22 C 16.29 O 13.48 CB 11.33 CG 12.25 CD1 13.51 CD2 12.52 CE1 13.87 CE2 12.47 CZ 14.91
A GLN E 55 -118.0 140.8 N 11.88 CA 12.24 C 14.92 O 16.41 CB 15.01 CG 16.9 CD 20.54 OE1 31.97 NE2 15.07
A ASN S 126 62.0 31.9 N 14.08 CA 15.3 C 18.42 O 19.32 CB 17.1 CG 15.65 OD1 19.01 ND2 16.22
A LEU - 37 -64.7 143.2 N 16.84 CA 17.95 C 21.08 O 24.28 CB 18.68 CG 19.88 CD1 21.38 CD2 23.47
A LYS - 132 -80.9 155.9 N 19.39 CA 24.37 C 23.6 O 21.05 CB 27.69 CG 35.62 CD 44.21 CE 43.99 NZ 46.6
A PRO H 112 -52.3 -40.3 N 30.55 CA 31.82 C 25.45 O 26.95 CB 40.34 CG 36.43 CD 33.46
A ARG H 217 -69.0 -29.8 N 22.93 CA 21.61 C 20.09 O 21.53 CB 27.56 CG 44.82 CD 53.59 NE 61.09 CZ 60.2 NH1 63.08 NH2 62.46
A GLU H 58 -71.4 -45.1 N 19.02 CA 18.06 C 17.13 O 18.55 CB 22.27 CG 20.52 CD 28.02 OE1 22.9 OE2 32.64
A VAL H 31 -59.1 -42.7 N 20.67 CA 23.33 C 22.52 O 20.97 CB 24.66 CG1 29.96 CG2 22.66
A ALA H 57 -65.7 -38.5 N 19.17 CA 20.4 C 22.4 O 21.79 CB 23.85
A ALA H 34 -64.0 -45.5 N 19.53 CA 17.31 C 17.0 O 18.7 CB 22.37
A LEU H 0 -60.2 -43.8 N 15.91 CA 16.55 C 19.14 O 21.79 CB 18.42 CG 17.35 CD1 20.13 CD2 25.64
A ARG H 123 -60.5 -39.1 N 19.97 CA 21.32 C 20.92 O 21.16 CB 22.48 CG 29.7 CD 40.76 NE 52.29 CZ 55.03 NH1 57.08 NH2 54.1
A TYR H 168 -62.8 -46.5 N 18.47 CA 23.33 C 20.97 O 20.96 CB 20.15 CG 22.16 CD1 24.08 CD2 28.07 CE1 26.49 CE2 25.13 CZ 27.67 OH 32.6
A LEU H 14 -57.5 -49.3 N 19.64 CA 23.14 C 20.57 O 25.87 CB 27.37 CG 39.91 CD1 30.36 CD2 30.67
A ILE H 6 -61.2 -51.8 N 20.3 CA 21.83 C 23.43 O 23.61 CB 28.76 CG1 33.89 CG2 36.46 CD1 27.4
A THR H 76 -64.7 -33.1 N 24.13 CA 25.1 C 24.83 O 27.11 CB 27.63 OG1 33.74 CG2 29.89
A SER H 46 -66.1 -30.7 N 24.16 CA 26.25 C 27.5 O 30.13 CB 31.65 OG 30.24
A TYR H 67 -79.9 -45.3 N 26.14 CA 27.77 C 29.36 O 35.98 CB 27.35 CG 27.28 CD1 25.86 CD2 29.98 CE1 31.58 CE2 35.08 CZ 33.24 OH 39.95
A LEU H 101 -53.5 -45.0 N 28.21 CA 31.05 C 32.83 O 36.51 CB 32.86 CG 45.73 CD1 45.4 CD2 48.23
A ALA H 91 -64.1 -35.8 N 34.16 CA 35.21 C 40.83 O 46.93 CB 34.57
A GLY - 99 -74.7 360.0 N 45.15 CA 50.72 C 58.58 O 67.19
B ALA - 148 360.0 130.0 N 42.64 CA 31.15 C 28.34 O 22.8 CB 35.5
B GLN - 164 -104.5 140.4 N 28.47 CA 21.19 C 19.89 O 19.32 CB 28.88 CG 36.77 CD 35.75 OE1 38.74 NE2 36.52
B ARG - 154 -62.2 127.4 N 16.87 CA 14.85 C 21.28 O 20.88 CB 14.82 CG 13.34 CD 12.45 NE 12.31 CZ 14.64 NH1 15.51 NH2 13.31
B GLN - 149 -96.7 -21.5 N 16.39 CA 16.38 C 19.53 O 20.86 CB 17.77 CG 20.0 CD 32.59 OE1 30.7 NE2 27.81
B PHE S 111 -130.8 129.3 N 17.07 CA 15.81 C 14.95 O 15.5 CB 18.25 CG 19.38 CD1 19.47 CD2 20.99 CE1 26.91 CE2 21.37 CZ 27.94
B ALA - 70 -62.4 140.2 N 15.01 CA 13.68 C 11.18 O 14.1 CB 16.87
B ARG - 122 -107.3 129.8 N 12.17 CA 12.09 C 13.86 O 15.19 CB 12.8 CG 11.94 CD 9.51 NE 10.64 CZ 10.54 NH1 13.22 NH2 12.46
B VAL B 8 -125.1 151.7 N 11.88 CA 13.27 C 12.16 O 13.56 CB 15.18 CG1 18.37 CG2 16.67
B LYS - 133 -94.2 62.6 N 13.31 CA 17.31 C 26.72 O 32.17 CB 19.62 CG 20.22 CD 31.6 CE 37.14
B LEU - 4 -83.9 155.7 N 23.96 CA 25.8 C 23.5 O 28.79 CB 41.35 CG 35.67 CD1 39.31 CD2 39.74
B PRO S 71 -68.6 94.6 N 25.79 CA 31.08 C 27.58 O 35.06 CB 40.59 CG 42.1 CD 28.4
B ALA E 8 -151.2 161.8 N 16.83 CA 13.24 C 13.27 O 14.08 CB 15.64
B ARG E 94 -136.1 155.8 N 12.99 CA 15.91 C 17.03 O 16.42 CB 20.09 CG 30.08 CD 25.27 NE 26.49 CZ 28.89 NH1 39.34 NH2 27.35
B ILE E 0 -117.5 129.5 N 13.72 CA 14.05 C 15.94 O 17.6 CB 14.85 CG1 20.14 CG2 15.88 CD1 17.13
B ARG E 137 -105.5 127.5 N 15.89 CA 17.69 C 16.75 O 17.12 CB 19.06 CG 22.37 CD 33.55 NE 39.75 CZ 42.9 NH1 42.81 NH2 49.41
B TYR E 7 -147.2 165.9 N 18.2 CA 22.2 C 24.41 O 22.93 CB 19.46 CG 17.54 CD1 17.77 CD2 18.53 CE1 17.75 CE2 21.47 CZ 19.37 OH 19.81
B ILE E 107 -95.5 120.8 N 27.2 CA 25.08 C 27.13 O 27.4 CB 38.18 CG1 45.03 CG2 41.44 CD1 44.02
B GLY - 9 -79.0 177.1 N 31.19 CA 29.28 C 32.98 O 34.79
B ALA T 71 -59.9 -22.1 N 33.01 CA 40.06 C 42.56 O 44.81 CB 45.68
B ASN T 94 -102.2 21.6 N 41.75 CA 43.34 C 45.03 O 50.94 CB 49.9 CG 55.41 OD1 52.44 ND2 59.33
B ARG S 124 62.5 16.0 N 39.88 CA 38.85 C 42.48 O 54.27 CB 42.7 CG 44.51 CD 46.26
B GLU - 41 -96.8 142.2 N 43.13 CA 45.26 C 40.47 O 37.17 CB 43.53
B GLY E 58 -68.7 140.7 N 38.58 CA 35.65 C 36.61 O 36.74
B VAL E 11 -122.9 135.5 N 21.23 CA 20.84 C 26.73 O 20.57 CB 21.68 CG1 26.16 CG2 24.86
B ASP E 71 -121.2 110.7 N 20.05 CA 18.18 C 21.22 O 28.99 CB 25.03 CG 34.52 OD1 29.0 OD2 48.32
B ALA E 10 -128.9 136.5 N 15.14 CA 15.24 C 17.91 O 18.95 CB 16.18
B ARG E 179 -69.5 140.2 N 13.67 CA 13.93 C 14.65 O 14.47 CB 15.91 CG 19.42 CD 20.96 NE 25.46 CZ 33.28 NH1 28.98 NH2 27.74
B LEU E 12 -72.7 141.5 N 11.24 CA 9.36 C 12.64 O 14.18 CB 14.69 CG 19.16 CD1 15.67 CD2 19.96
B LEU E 68 -82.0 -40.6 N 11.28 CA 10.54 C 11.9 O 13.78 CB 10.17 CG 11.81 CD1 11.43 CD2 17.97
B ASP E 36 -161.0 169.6 N 11.4 CA 11.85 C 13.04 O 11.03 CB 10.77 CG 11.89 OD1 11.88 OD2 17.08
B LEU E 0 -142.4 142.2 N 11.74 CA 8.74 C 9.62 O 12.86 CB 9.85 CG 10.31 CD1 13.77 CD2 15.44
B SER - 7 -139.7 179.0 N 11.74 CA 11.49 C 10.94 O 10.37 CB 11.83 OG 13.05
B ALA S 34 -65.7 -17.8 N 12.02 CA 12.43 C 12.79 O 15.53 CB 18.33
B GLY S 18 -103.3 -17.1 N 11.83 CA 12.63 C 11.36 O 12.22
B GLY E 4 176.8 -161.6 N 10.69 CA 9.17 C 11.66 O 11.57
B PHE E 5 -161.9 171.1 N 9.52 CA 8.97 C 10.97 O 11.15 CB 10.66 CG 12.98 CD1 14.78 CD2 11.41 CE1 14.34 CE2 13.94 CZ 11.11
B ALA E 10 -135.5 152.6 N 8.38 CA 9.27 C 10.91 O 12.36 CB 12.8
B PHE E 1 -152.6 163.0 N 9.39 CA 10.72 C 12.61 O 13.31 CB 10.04 CG 10.13 CD1 14.51 CD2 13.0 CE1 14.52 CE2 13.85 CZ 13.51
B THR E 69 -83.4 134.2 N 10.57 CA 11.33 C 12.88 O 15.76 CB 12.65 OG1 12.34 CG2 12.52
B ALA - 32 -57.9 142.2 N 11.37 CA 12.15 C 18.69 O 18.73 CB 15.42
B SER - 61 -163.2 176.9 N 16.6 CA 23.58 C 19.8 O 23.01 CB 34.11 OG 33.56
B GLY S 66 67.9 -141.0 N 26.84 CA 29.64 C 23.84 O 25.83
B ALA S 14 -63.0 154.8 N 24.63 CA 23.6 C 21.5 O 19.97 CB 25.24
B PRO - 119 -54.6 146.0 N 18.66 CA 19.76 C 18.24 O 19.28 CB 20.77 CG 32.45 CD 24.4
B ILE - 26 -118.8 124.5 N 13.95 CA 11.52 C 14.04 O 14.96 CB 13.28 CG1 16.07 CG2 15.27 CD1 17.43
B GLN - 131 -111.1 123.3 N 12.39 CA 12.99 C 17.43 O 14.81 CB 14.54 CG 14.92 CD 20.66 OE1 26.35 NE2 15.62
B PRO T 60 -50.0 139.1 N 12.36 CA 11.43 C 14.33 O 16.19 CB 11.35 CG 12.16 CD 15.12
B GLY T 34 106.0 -25.5 N 14.69 CA 15.75 C 16.47 O 19.91
B ASP - 67 -75.1 147.7 N 14.65 CA 17.37 C 12.98 O 12.94 CB 21.88 CG 21.14 OD1 27.59 OD2 23.76
B LEU E 58 -103.1 139.7 N 13.8 CA 12.9 C 15.35 O 18.4 CB 14.19 CG 17.06 CD1 21.59 CD2 21.61
B TYR E 19 -135.0 158.7 N 13.17 CA 12.2 C 12.01 O 15.04 CB 13.22 CG 17.23 CD1 17.57 CD2 18.75 CE1 18.63 CE2 20.78 CZ 19.21 OH 19.92
B LYS E 53 -123.9 147.7 N 13.37 CA 12.98 C 17.69 O 19.19 CB 16.05 CG 17.5 CD 20.0 CE 17.48 NZ 17.27
B GLY E 16 -164.5 -172.2 N 16.59 CA 17.4 C 14.46 O 16.64
B LYS E 59 -130.3 123.4 N 17.45 CA 16.29 C 16.41 O 21.16 CB 24.33 CG 35.69 CD 28.93
B MET E 1 -88.9 138.1 N 16.43 CA 17.41 C 18.16 O 17.92 CB 20.31 CG 22.82 SD 30.71 CE 36.5
B LEU E 52 -123.7 126.1 N 19.35 CA 20.31 C 21.5 O 22.5 CB 21.31 CG 29.91 CD1 31.1 CD2 33.61
B PHE E 20 -120.6 127.2 N 21.74 CA 23.15 C 24.0 O 23.47 CB 23.08 CG 24.75 CD1 37.65 CD2 28.38 CE1 38.16 CE2 30.48 CZ 39.06
B GLN E 137 -150.4 117.7 N 25.64 CA 34.18 C 35.84 O 36.38 CB 35.89 CG 51.46 CD 60.16 OE1 59.51 NE2 64.09
B VAL E 35 -147.9 124.5 N 29.18 CA 31.28 C 40.17 O 34.59 CB 37.29 CG1 34.48 CG2 48.15
B ASP T 88 52.8 -113.8 N 33.62 CA 38.22 C 32.97 O 38.2 CB 35.63 CG 40.24 OD1 49.14 OD2 38.64
B SER T 7 -88.3 -5.7 N 35.85 CA 31.8 C 29.98 O 29.76 CB 32.57 OG 32.16
B ILE E 0 -110.0 123.8 N 24.27 CA 23.31 C 24.93 O 27.94 CB 38.38 CG1 37.91 CG2 36.31 CD1 41.97
B SER E 40 -118.1 122.8 N 21.75 CA 20.48 C 25.3 O 21.31 CB 20.84 OG 21.17
B PHE E 5 -130.1 131.7 N 22.55 CA 18.67 C 19.62 O 18.75 CB 18.83 CG 29.04 CD1 38.46 CD2 41.91 CE1 39.0 CE2 35.8 CZ 38.53
B SER E 19 -121.6 145.3 N 16.93 CA 15.88 C 19.07 O 20.45 CB 19.67 OG 19.81
B LEU E 0 -136.6 120.9 N 16.99 CA 15.95 C 16.03 O 16.29 CB 18.78 CG 20.17 CD1 23.57 CD2 25.27
B GLU E 51 -74.7 131.9 N 13.88 CA 13.28 C 16.74 O 19.54 CB 22.48 CG 27.09 CD 22.63 OE1 30.42 OE2 27.31
B VAL E 7 -133.2 153.2 N 13.65 CA 13.37 C 13.61 O 15.42 CB 16.03 CG1 16.36 CG2 14.01
B GLU E 12 -113.4 141.7 N 12.54 CA 10.02 C 12.35 O 14.41 CB 11.82 CG 14.38 CD 16.18 OE1 17.77 OE2 13.83
B PHE E 0 -148.4 146.9 N 11.76 CA 10.02 C 12.75 O 13.7 CB 10.36 CG 12.44 CD1 13.48 CD2 12.97 CE1 15.19 CE2 13.56 CZ 14.35
B GLN E 37 -105.7 134.3 N 9.4 CA 9.43 C 10.75 O 12.39 CB 9.41 CG 10.1 CD 15.07 OE1 17.15 NE2 16.41
B VAL E 1 -71.7 120.7 N 10.19 CA 12.09 C 13.68 O 12.82 CB 11.29 CG1 13.19 CG2 12.89
B ARG E 150 -91.3 -32.2 N 10.42 CA 12.86 C 12.65 O 13.65 CB 12.21 CG 11.47 CD 12.65 NE 14.36 CZ 16.64 NH1 14.43 NH2 18.37
B SER E 67 -163.5 159.2 N 10.99 CA 12.31 C 13.6 O 11.98 CB 13.17 OG 12.18
B VAL E 36 -129.9 127.3 N 11.63 CA 12.12 C 11.16 O 11.43 CB 13.55 CG1 16.44 CG2 13.77
B ASP - 72 -71.7 124.9 N 10.95 CA 11.78 C 15.33 O 12.86 CB 12.58 CG 24.28 OD1 21.98 OD2 37.02
B PRO T 112 -70.1 -17.3 N 12.33 CA 12.13 C 16.65 O 24.32 CB 14.87 CG 13.26 CD 14.85
B ALA T 75 -92.9 -57.0 N 16.84 CA 15.29 C 17.28 O 20.12 CB 19.07
B SER T 66 -84.3 -17.4 N 16.0 CA 16.39 C 13.16 O 13.65 CB 15.11 OG 14.62
B ARG - 143 62.7 24.1 N 13.3 CA 13.06 C 12.86 O 13.77 CB 14.17 CG 21.78 CD 29.49 NE 30.09 CZ 41.61 NH1 47.87 NH2 36.29
B ALA E 24 -66.0 126.3 N 15.87 CA 14.99 C 16.96 O 15.12 CB 15.38
B VAL E 0 -97.7 112.1 N 13.18 CA 12.27 C 13.43 O 13.02 CB 12.26 CG1 11.8 CG2 13.05
B GLY E 27 -91.8 127.0 N 11.48 CA 11.18 C 12.1 O 11.88
B CYS E 10 -129.4 149.9 N 10.52 CA 10.29 C 12.48 O 11.38 CB 10.92 SG 13.52
B GLU E 89 -119.6 126.5 N 10.31 CA 10.53 C 11.4 O 11.47 CB 10.82 CG 12.15 CD 18.74 OE1 20.34 OE2 20.71
B PHE E 15 -62.9 142.4 N 11.14 CA 11.96 C 12.55 O 14.15 CB 11.84 CG 12.42 CD1 16.42 CD2 12.01 CE1 16.05 CE2 12.64 CZ 14.75
B GLN - 48 -115.3 142.5 N 12.41 CA 13.78 C 15.48 O 15.99 CB 13.52 CG 13.0 CD 21.35 OE1 28.31 NE2 14.94
B ASN S 69 65.2 29.4 N 14.93 CA 16.13 C 17.91 O 19.61 CB 17.57 CG 17.24 OD1 21.21 ND2 16.94
B LEU - 53 -64.7 141.9 N 15.41 CA 16.04 C 16.99 O 23.76 CB 17.71 CG 16.47 CD1 15.76 CD2 19.44
B LYS - 18 -102.1 160.9 N 17.77 CA 22.14 C 25.49 O 22.62 CB 27.53 CG 26.68 CD 24.45 CE 29.86 NZ 31.93
B PRO H 81 -54.3 -41.1 N 26.29 CA 24.58 C 26.09 O 27.55 CB 29.62 CG 32.23 CD 28.28
B ARG H 41 -64.9 -25.5 N 22.07 CA 26.03 C 25.19 O 21.83 CB 28.94 CG 27.55 CD 26.93 NE 32.08 CZ 35.8 NH1 38.11 NH2 33.83
B GLU H 3 -81.6 -41.4 N 19.59 CA 19.0 C 18.83 O 19.24 CB 17.69 CG 22.55 CD 26.69 OE1 22.07 OE2 31.02
B VAL H 70 -55.7 -44.5 N 20.56 CA 21.64 C 19.85 O 23.6 CB 28.55 CG1 32.51 CG2 30.49
B ALA H 22 -65.5 -39.0 N 23.31 CA 24.61 C 23.27 O 23.72 CB 29.32
B ALA H 0 -63.1 -46.0 N 21.87 CA 25.97 C 21.92 O 21.95 CB 21.43
B LEU H 0 -60.3 -42.8 N 18.27 CA 17.52 C 18.37 O 18.91 CB 16.14 CG 17.36 CD1 17.26 CD2 21.81
B ARG H 90 -57.5 -44.8 N 20.83 CA 22.22 C 22.59 O 22.31 CB 25.15 CG 24.1 CD 30.74
B TYR H 12 -62.8 -46.0 N 22.19 CA 23.93 C 23.84 O 25.79 CB 26.47 CG 31.09 CD1 38.76 CD2 43.89 CE1 37.1 CE2 34.98 CZ 30.54 OH 54.35
B LEU H 6 -61.1 -42.3 N 22.46 CA 27.99 C 33.75 O 29.06 CB 25.61 CG 23.04 CD1 25.17 CD2 25.45
B ILE H 15 -71.7 -46.2 N 23.0 CA 21.76 C 25.41 O 30.13 CB 21.26 CG1 22.19 CG2 26.67 CD1 18.18
B THR H 77 -70.9 -33.9 N 23.89 CA 25.83 C 31.63 O 34.08 CB 29.42 OG1 33.14 CG2 27.23
B SER H 10 -71.9 -31.5 N 32.96 CA 34.24 C 39.21 O 44.35 CB 31.08 OG 30.83
B TYR H 95 -64.8 -48.8 N 40.22 CA 42.16 C 42.51 O 40.29 CB 35.52 CG 37.48 CD1 43.43 CD2 38.45 CE1 41.18 CE2 35.17 CZ 38.52 OH 50.47
B LEU H 110 -62.0 -31.3 N 38.91 CA 38.42 C 38.45 O 36.56 CB 28.69 CG 33.92 CD1 34.42 CD2 35.98
B ALA T 65 -70.7 -11.3 N 35.25 CA 38.89 C 48.61 O 46.75 CB 44.9
B GLY T 71 81.1 23.8 N 54.37 CA 55.04 C 58.57 O 51.62
B GLU - 73 -91.2 360.0 N 64.85 CA 68.13 C 67.8 O 61.42 CB 63.58 CG 61.64 CD 58.16 OE1 55.31 OE2 60.1
C ALA - 162 360.0 127.4 N 72.37 CA 64.75 C 62.13 O 66.64 CB 59.79
C GLN - 81 -96.8 152.3 N 52.77 CA 51.74 C 41.96 O 40.74 CB 49.61
C ARG - 164 -74.4 123.6 N 42.97 CA 40.91 C 37.53 O 42.56 CB 38.82 CG 33.64 CD 34.02 NE 32.05 CZ 31.04 NH1 32.58 NH2 31.67
C GLN - 151 -90.7 -28.0 N 30.97 CA 33.46 C 35.38 O 37.6 CB 35.51 CG 45.31 CD 58.27 OE1 65.43 NE2 60.21
C PHE S 109 -122.8 130.0 N 30.52 CA 28.29 C 26.24 O 27.08 CB 24.59 CG 31.48 CD1 37.26 CD2 29.68 CE1 40.86 CE2 34.89 CZ 39.12
C ALA - 65 -62.1 137.3 N 24.45 CA 26.75 C 24.39 O 23.99 CB 30.72
C ARG - 126 -104.4 132.2 N 23.02 CA 21.07 C 24.75 O 28.66 CB 19.38 CG 22.53 CD 21.57 NE 18.01 CZ 19.31 NH1 21.46 NH2 21.08
C VAL B 9 -128.2 150.4 N 22.0 CA 23.01 C 21.2 O 20.12 CB 26.4 CG1 33.22 CG2 24.84
C LYS - 127 -90.8 111.0 N 24.23 CA 25.95 C 34.9 O 51.62 CB 28.6 CG 29.46 CD 35.72 CE 43.4
C LEU - 11 -125.3 156.9 N 32.45 CA 35.99 C 31.82 O 40.03 CB 44.27 CG 34.36 CD1 32.39 CD2 31.26
C PRO S 33 -69.4 92.1 N 40.27 CA 49.49 C 39.36 O 44.03 CB 48.92 CG 53.47 CD 43.89
C ALA E 4 -143.0 163.1 N 25.61 CA 25.22 C 28.44 O 25.79 CB 26.43
C ARG E 88 -134.4 157.4 N 22.84 CA 23.75 C 26.49 O 23.62 CB 28.76 CG 42.17 CD 41.81 NE 40.01 CZ 44.44 NH1 51.37 NH2 41.78
C ILE E 1 -117.8 131.8 N 21.73 CA 18.64 C 24.32 O 25.67 CB 16.54 CG1 21.28 CG2 20.13 CD1 21.76
C ARG E 60 -114.7 120.0 N 22.2 CA 20.65 C 25.1 O 25.97 CB 26.52 CG 26.79 CD 38.98
C TYR E 8 -139.3 167.8 N 23.36 CA 23.3 C 24.71 O 27.14 CB 24.62 CG 27.37 CD1 24.51 CD2 27.98 CE1 26.34 CE2 24.33 CZ 23.46 OH 26.51
C ILE E 101 -94.2 124.5 N 28.07 CA 31.98 C 29.88 O 29.15 CB 41.21 CG1 47.39 CG2 40.87 CD1 46.51
C GLY - 8 -77.5 173.9 N 31.97 CA 35.21 C 33.92 O 33.28
C ALA T 72 -57.9 -31.2 N 27.8 CA 36.33 C 38.66 O 42.65 CB 41.24
C ASN T 92 -86.8 13.1 N 38.94 CA 45.89 C 45.02 O 48.99 CB 49.67 CG 52.05 OD1 49.84 ND2 50.07
C ARG S 133 73.5 -6.9 N 44.32 CA 48.49 C 50.52 O 55.03 CB 53.35 CG 50.36 CD 50.05
C GLU - 73 -83.0 136.9 N 41.78 CA 43.09 C 47.27 O 47.81 CB 42.1 CG 47.51
C GLY E 58 -62.7 152.4 N 42.93 CA 43.11 C 41.14 O 49.51
C VAL E 16 -134.9 134.6 N 29.76 CA 26.73 C 29.67 O 29.95 CB 28.51 CG1 32.19 CG2 33.0
C ASP E 87 -121.1 109.4 N 24.16 CA 27.46 C 32.86 O 36.15 CB 32.19 CG 38.99 OD1 38.17 OD2 56.18
C ALA E 10 -130.0 137.2 N 21.88 CA 17.89 C 19.36 O 24.08 CB 22.6
C ARG E 125 -70.5 145.6 N 18.74 CA 19.83 C 18.78 O 15.89 CB 22.47 CG 25.69 CD 31.9 NE 30.2 CZ 33.82 NH1 30.94 NH2 27.4
C LEU E 13 -75.2 137.6 N 18.98 CA 19.0 C 18.91 O 18.69 CB 17.71 CG 19.49 CD1 23.71 CD2 19.2
C LEU E 64 -79.7 -38.3 N 15.0 CA 15.49 C 18.82 O 21.93 CB 14.99 CG 17.45 CD1 14.58 CD2 19.2
C ASP E 38 -163.9 169.5 N 16.6 CA 16.78 C 15.41 O 15.44 CB 17.35 CG 23.91 OD1 18.62 OD2 26.88
C LEU E 0 -143.5 145.4 N 18.08 CA 16.27 C 15.43 O 19.41 CB 16.84 CG 15.69 CD1 16.17 CD2 18.95
C SER - 7 -141.6 178.8 N 16.7 CA 19.27 C 20.84 O 17.35 CB 18.14 OG 18.25
C ALA S 19 -68.6 -15.0 N 20.56 CA 20.12 C 19.5 O 19.05 CB 20.54
C GLY S 16 -103.4 -19.5 N 18.35 CA 17.11 C 17.2 O 15.26
C GLY E 4 -180.0 -161.1 N 14.37 CA 13.08 C 14.86 O 14.64
C PHE E 7 -161.7 171.1 N 12.66 CA 12.28 C 13.87 O 14.16 CB 12.59 CG 13.39 CD1 17.9 CD2 14.46 CE1 19.65 CE2 16.7 CZ 16.16
C ALA E 9 -135.2 149.5 N 12.15 CA 12.06 C 16.84 O 15.47 CB 14.78
C PHE E 1 -151.1 162.5 N 12.76 CA 12.96 C 15.4 O 13.95 CB 15.13 CG 14.64 CD1 17.57 CD2 14.17 CE1 18.39 CE2 16.71 CZ 15.23
C THR E 68 -81.9 132.9 N 15.15 CA 14.28 C 14.62 O 16.78 CB 15.49 OG1 16.18 CG2 16.1
C ALA - 34 -55.1 137.0 N 14.04 CA 15.28 C 17.32 O 19.38 CB 15.15
C SER - 58 -156.9 170.5 N 17.68 CA 21.21 C 24.48 O 23.9 CB 35.68 OG 33.75
C GLY S 69 72.8 -140.1 N 25.68 CA 35.34 C 28.45 O 27.67
C ALA S 14 -60.9 151.3 N 27.51 CA 26.11 C 22.32 O 22.19 CB 28.77
C PRO - 118 -52.7 143.6 N 22.89 CA 21.33 C 22.73 O 22.27 CB 25.5 CG 31.65 CD 29.61
C ILE - 26 -117.8 124.5 N 15.92 CA 14.91 C 16.9 O 15.53 CB 14.65 CG1 18.06 CG2 16.94 CD1 20.12
C GLN - 132 -112.4 124.4 N 15.6 CA 14.44 C 17.11 O 15.02 CB 15.5 CG 16.65 CD 19.11 OE1 19.02 NE2 17.95
C PRO T 60 -56.5 141.1 N 14.17 CA 13.36 C 15.19 O 15.82 CB 14.06 CG 14.39 CD 14.04
C GLY T 37 107.6 -25.4 N 14.96 CA 14.63 C 14.07 O 18.5
C ASP - 68 -74.1 148.4 N 16.35 CA 19.88 C 14.0 O 13.51 CB 26.43 CG 20.34 OD1 23.14 OD2 21.15
C LEU E 121 -102.1 139.6 N 16.57 CA 15.54 C 18.39 O 20.35 CB 15.26 CG 16.93 CD1 19.83 CD2 20.1
C TYR E 21 -134.4 164.0 N 16.01 CA 16.4 C 16.15 O 17.02 CB 17.56 CG 18.41 CD1 18.74 CD2 20.18 CE1 19.88 CE2 24.58 CZ 21.05 OH 22.03
C LYS E 149 -125.3 146.9 N 17.72 CA 17.25 C 20.77 O 22.27 CB 18.03 CG 19.75 CD 22.61 CE 23.14 NZ 20.43
C GLY E 13 -164.9 -173.3 N 19.14 CA 19.91 C 19.08 O 18.96
C LYS E 76 -127.2 129.6 N 20.56 CA 20.51 C 20.74 O 24.36 CB 29.17 CG 36.68 CD 37.61 CE 46.24
C MET E 2 -93.6 133.0 N 20.56 CA 21.17 C 21.83 O 24.06 CB 22.76 CG 27.97 SD 43.48 CE 34.41
C LEU E 48 -117.7 133.0 N 22.74 CA 23.51 C 24.03 O 24.58 CB 25.26 CG 40.34 CD1 47.52 CD2 43.06
C PHE E 18 -127.7 124.7 N 24.16 CA 24.79 C 25.54 O 25.41 CB 27.68 CG 26.42 CD1 32.31 CD2 30.97 CE1 31.23 CE2 30.48 CZ 30.88
C GLN E 136 -145.8 119.5 N 26.53 CA 28.51 C 29.58 O 33.48 CB 33.42 CG 44.95 CD 57.89 OE1 58.44 NE2 62.09
C VAL E 19 -148.8 131.0 N 28.48 CA 29.45 C 29.84 O 29.3 CB 29.34 CG1 31.6 CG2 35.64
C ASP T 29 50.2 -118.3 N 31.03 CA 31.62 C 32.56 O 32.44 CB 32.29 CG 36.39 OD1 39.56 OD2 35.32
C SER T 3 -82.5 -0.8 N 31.08 CA 31.25 C 30.28 O 30.58 CB 31.69 OG 30.98
C ILE E 3 -111.8 130.2 N 22.99 CA 22.4 C 21.53 O 24.28 CB 25.39 CG1 30.6 CG2 25.4 CD1 34.03
C SER E 45 -126.7 126.0 N 21.6 CA 20.78 C 22.37 O 22.87 CB 31.5 OG 33.06
C PHE E 0 -131.5 129.8 N 21.55 CA 19.81 C 20.63 O 21.54 CB 24.86 CG 25.45 CD1 31.47 CD2 34.96 CE1 32.54 CE2 33.96 CZ 33.65
C SER E 19 -127.3 136.2 N 19.41 CA 20.18 C 17.65 O 18.71 CB 22.77 OG 25.27
C LEU E 0 -129.5 120.1 N 17.94 CA 19.84 C 16.16 O 19.69 CB 17.69 CG 20.52 CD1 22.39 CD2 23.81
C GLU E 103 -72.3 130.5 N 16.52 CA 17.5 C 17.92 O 18.34 CB 20.52 CG 22.49 CD 23.02 OE1 24.44 OE2 27.6
C VAL E 8 -131.3 155.8 N 17.59 CA 17.89 C 21.51 O 17.09 CB 17.03 CG1 18.97 CG2 17.19
C GLU E 75 -116.7 143.3 N 14.77 CA 13.39 C 17.29 O 16.43 CB 13.67 CG 16.68 CD 16.5 OE1 16.68 OE2 20.08
C PHE E 0 -148.9 150.8 N 13.88 CA 12.52 C 11.97 O 15.66 CB 12.12 CG 13.75 CD1 16.13 CD2 13.7 CE1 15.9 CE2 15.35 CZ 16.13
C GLN E 43 -105.9 137.1 N 11.82 CA 11.67 C 11.66 O 14.01 CB 13.58 CG 14.94 CD 17.25 OE1 20.63 NE2 19.15
C VAL E 1 -74.6 122.8 N 11.52 CA 13.34 C 14.07 O 15.85 CB 13.47 CG1 11.78 CG2 16.28
C ARG E 149 -93.4 -31.7 N 12.0 CA 12.67 C 14.07 O 15.39 CB 14.47 CG 13.12 CD 14.38 NE 17.43 CZ 17.15 NH1 17.64 NH2 21.61
C SER E 62 -160.6 161.3 N 12.74 CA 14.05 C 13.45 O 14.04 CB 17.3 OG 19.06
C VAL E 40 -130.9 127.9 N 13.52 CA 13.44 C 14.7 O 15.34 CB 13.34 CG1 15.86 CG2 13.92
C ASP - 72 -71.7 126.3 N 13.73 CA 14.36 C 15.88 O 14.94 CB 15.69 CG 22.1 OD1 21.87 OD2 32.81
C PRO T 113 -72.6 -16.2 N 15.4 CA 15.98 C 17.37 O 20.66 CB 17.83 CG 17.37 CD 18.42
C ALA T 77 -90.1 -57.5 N 17.08 CA 18.08 C 18.44 O 21.58 CB 21.2
C SER T 68 -89.0 -15.7 N 17.08 CA 16.53 C 15.38 O 16.55 CB 18.64 OG 16.88
C ARG - 142 62.7 25.0 N 15.37 CA 15.34 C 15.86 O 17.12 CB 16.82 CG 23.14 CD 27.26 NE 31.84 CZ 40.82 NH1 41.51 NH2 37.9
C ALA E 22 -66.8 124.8 N 17.08 CA 16.49 C 16.59 O 17.18 CB 17.14
C VAL E 0 -95.9 111.5 N 14.91 CA 14.17 C 14.17 O 15.33 CB 13.75 CG1 14.46 CG2 14.05
C GLY E 18 -90.2 127.9 N 14.08 CA 14.12 C 13.79 O 13.33
C CYS E 10 -129.7 147.1 N 13.54 CA 13.31 C 13.65 O 14.33 CB 13.51 SG 14.84
C GLU E 85 -117.0 127.4 N 13.4 CA 13.81 C 14.61 O 13.62 CB 14.65 CG 14.95 CD 21.73 OE1 25.31 OE2 23.99
C PHE E 15 -62.9 143.1 N 14.34 CA 14.67 C 15.63 O 16.29 CB 15.39 CG 15.47 CD1 15.43 CD2 16.89 CE1 18.38 CE2 18.05 CZ 18.2
C GLN E 53 -116.5 142.3 N 15.02 CA 15.46 C 16.34 O 17.17 CB 15.15 CG 14.98 CD 19.79 OE1 27.77 NE2 16.32
C ASN S 124 64.4 27.4 N 17.05 CA 18.13 C 18.69 O 19.95 CB 18.3 CG 18.02 OD1 20.3 ND2 17.41
C LEU - 49 -58.0 137.0 N 19.01 CA 21.74 C 20.42 O 28.16 CB 18.71 CG 18.67 CD1 20.45 CD2 22.98
C LYS - 97 -96.0 158.8 N 21.35 CA 22.86 C 23.88 O 26.77 CB 29.0 CG 31.43 CD 36.37 CE 34.89 NZ 35.78
C PRO H 81 -48.4 -49.2 N 28.09 CA 29.84 C 28.21 O 34.28 CB 36.22 CG 33.66 CD 29.3
C ARG H 49 -60.6 -26.6 N 29.56 CA 32.24 C 27.07 O 28.92 CB 32.75 CG 38.65 CD 52.14 NE 54.48 CZ 52.82 NH1 45.15 NH2 59.11
C GLU H 13 -81.3 -42.1 N 24.55 CA 22.57 C 24.69 O 23.97 CB 22.26 CG 24.92 CD 29.86 OE1 27.85 OE2 44.18
C VAL H 58 -57.3 -43.6 N 26.28 CA 28.41 C 24.98 O 25.78 CB 42.54 CG1 49.01 CG2 33.43
C ALA H 25 -60.1 -42.9 N 25.83 CA 27.98 C 32.5 O 27.82 CB 36.43
C ALA H 0 -62.3 -45.5 N 27.41 CA 28.91 C 25.51 O 25.13 CB 26.99
C LEU H 0 -59.2 -43.0 N 22.99 CA 21.62 C 26.14 O 25.11 CB 20.67 CG 23.84 CD1 19.67 CD2 26.21
C ARG H 56 -59.6 -40.3 N 28.95 CA 31.4 C 27.1 O 28.54 CB 36.04 CG 41.03
C TYR H 18 -65.9 -44.6 N 26.23 CA 30.39 C 28.81 O 29.72 CB 30.95 CG 35.39 CD1 32.26 CD2 40.19 CE1 38.53 CE2 41.66 CZ 36.82 OH 42.13
C LEU H 1 -59.3 -46.9 N 25.89 CA 31.5 C 31.19 O 31.81 CB 31.44 CG 30.36 CD1 31.29 CD2 37.82
C ILE H 16 -66.7 -44.6 N 30.17 CA 28.71 C 28.66 O 33.41 CB 29.66 CG1 35.52 CG2 30.25 CD1 29.86
C THR H 91 -61.6 -49.8 N 27.42 CA 28.48 C 33.45 O 39.22 CB 30.14 OG1 40.34 CG2 36.73
C SER H 12 -60.5 -34.2 N 36.27 CA 36.89 C 40.69 O 41.8 CB 31.19 OG 35.31
C TYR H 99 -63.9 -50.9 N 35.55 CA 40.62 C 42.02 O 36.38 CB 30.61 CG 39.88 CD1 42.63 CD2 31.49 CE1 39.09 CE2 35.7 CZ 41.72 OH 52.48
C LEU H 114 -64.1 -23.5 N 44.77 CA 37.9 C 40.55 O 42.81 CB 39.37 CG 33.64 CD1 35.25 CD2 36.34
C ALA T 67 -82.4 -3.2 N 39.02 CA 36.32 C 36.54 O 41.6 CB 42.19
C GLY T 69 75.3 29.4 N 44.52 CA 41.28 C 43.55 O 47.92
C GLU - 84 -92.2 360.0 N 45.06 CA 50.07 C 51.11 O 48.77 CB 46.46 CG 49.79 CD 37.65 OE1 36.67 OE2 42.0
