A ASN - 217 360.0 145.5 N 45.72 CA 34.56 C 29.49 O 36.7 CB 35.31 CG 34.5 OD1 30.82 ND2 34.01
A ALA - 71 -67.7 147.1 N 32.1 CA 31.62 C 24.71 O 25.51 CB 42.67
A ARG E 37 -124.3 130.1 N 14.32 CA 14.41 C 12.87 O 13.97 CB 14.27 CG 15.73 CD 16.1 NE 18.85 CZ 17.83 NH1 22.17 NH2 17.69
A ILE E 0 -127.7 127.1 N 13.94 CA 11.43 C 12.44 O 12.69 CB 12.27 CG1 13.43 CG2 14.56 CD1 15.49
A LEU E 0 -104.8 125.5 N 11.55 CA 11.88 C 11.02 O 12.25 CB 11.55 CG 11.77 CD1 14.28 CD2 13.27
A LEU E 0 -113.6 125.1 N 10.48 CA 11.27 C 12.11 O 12.58 CB 11.08 CG 11.66 CD1 12.91 CD2 12.95
A GLY E 1 -179.9 -155.7 N 11.41 CA 12.09 C 12.74 O 12.75
A ASN S 7 -139.9 -152.6 N 12.28 CA 14.14 C 14.07 O 13.63 CB 14.27 CG 14.25 OD1 12.94 ND2 15.33
A SER H 31 -62.3 -19.3 N 13.57 CA 15.46 C 15.46 O 17.2 CB 20.39 OG 26.79
A LEU H 3 -66.4 -23.9 N 13.51 CA 14.07 C 13.58 O 15.18 CB 14.65 CG 17.75 CD1 20.05 CD2 17.03
A THR H 0 -85.9 -45.7 N 12.77 CA 12.83 C 13.55 O 15.39 CB 12.31 OG1 12.76 CG2 13.59
A THR H 62 -85.6 -20.6 N 13.27 CA 14.0 C 14.79 O 17.2 CB 14.58 OG1 15.3 CG2 17.48
A ALA G 23 -57.0 145.7 N 15.39 CA 17.27 C 15.59 O 15.69 CB 18.27
A ASN G 60 58.2 32.2 N 16.25 CA 17.86 C 16.97 O 19.1 CB 17.34 CG 17.48 OD1 25.41 ND2 20.09
A HIS G 135 52.3 35.3 N 16.76 CA 18.55 C 16.21 O 16.7 CB 21.14 CG 26.65 ND1 38.12 CD2 34.36 CE1 39.48 NE2 40.01
A PRO H 13 -59.5 -38.9 N 13.29 CA 13.42 C 14.16 O 14.17 CB 13.63 CG 13.9 CD 13.55
A ASP H 107 -62.5 -40.3 N 15.67 CA 16.59 C 13.87 O 15.41 CB 19.33 CG 27.08 OD1 34.2 OD2 38.86
A LEU H 0 -63.3 -41.4 N 15.12 CA 15.2 C 14.31 O 17.52 CB 14.12 CG 16.37 CD1 17.07 CD2 18.32
A ALA H 21 -58.6 -43.6 N 14.52 CA 15.32 C 15.55 O 16.58 CB 15.87
A GLU H 171 -73.8 -35.9 N 15.5 CA 17.01 C 16.61 O 21.34 CB 20.74 CG 22.51 CD 20.51 OE1 20.25 OE2 21.13
A LEU H 87 -59.9 -38.7 N 17.85 CA 17.2 C 20.16 O 23.72 CB 18.44 CG 19.74 CD1 20.86 CD2 25.01
A LEU H 30 -102.9 0.7 N 18.92 CA 18.79 C 18.93 O 23.15 CB 16.35 CG 17.39 CD1 19.56 CD2 21.8
A THR T 124 45.4 50.5 N 18.43 CA 18.31 C 18.03 O 23.05 CB 23.89 OG1 28.18 CG2 29.51
A ALA E 14 -115.8 154.1 N 16.41 CA 15.81 C 16.39 O 20.19 CB 18.03
A GLU E 87 -85.0 123.3 N 17.38 CA 17.59 C 15.39 O 17.46 CB 19.58 CG 25.83 CD 28.86 OE1 29.94 OE2 31.43
A VAL E 33 -119.2 122.6 N 14.72 CA 13.77 C 15.21 O 19.76 CB 15.39 CG1 17.4 CG2 15.2
A ARG E 75 -109.6 133.9 N 12.67 CA 12.43 C 11.94 O 14.06 CB 13.28 CG 14.34 CD 15.85 NE 17.55 CZ 16.55 NH1 17.34 NH2 20.47
A VAL E 49 -120.8 127.0 N 11.82 CA 12.56 C 12.29 O 13.07 CB 13.91 CG1 16.45 CG2 14.88
A HIS E 9 -111.8 98.0 N 12.16 CA 11.12 C 12.68 O 12.21 CB 11.13 CG 11.71 ND1 12.41 CD2 12.5 CE1 13.22 NE2 12.31
A ALA E 33 -144.6 156.6 N 12.57 CA 12.95 C 14.78 O 18.76 CB 15.64
A ARG - 127 -153.5 148.6 N 15.03 CA 17.51 C 16.8 O 16.21 CB 23.49 CG 28.81 CD 35.27 NE 34.44 CZ 23.34 NH1 25.65 NH2 28.56
A GLY T 55 -57.3 130.5 N 20.77 CA 19.8 C 19.16 O 23.72
A GLY T 53 83.2 0.6 N 17.49 CA 19.92 C 19.99 O 23.04
A ALA - 2 -67.4 146.2 N 17.92 CA 17.49 C 17.02 O 16.34 CB 18.12
A ARG - 121 -110.2 151.7 N 18.17 CA 16.38 C 14.17 O 14.63 CB 18.16 CG 22.94 CD 32.73 NE 41.68 CZ 48.73 NH1 54.18 NH2 51.57
A LEU G 1 -59.1 -32.6 N 13.47 CA 13.82 C 13.51 O 14.53 CB 17.3 CG 18.83 CD1 18.36 CD2 15.29
A ALA G 48 -57.7 -26.2 N 13.54 CA 14.35 C 13.61 O 15.88 CB 16.59
A GLU G 33 -56.4 -35.2 N 14.71 CA 16.02 C 14.52 O 15.23 CB 17.23 CG 18.83 CD 22.97 OE1 20.65 OE2 26.64
A HIS G 8 -69.0 -13.9 N 13.27 CA 13.15 C 13.85 O 15.9 CB 12.89 CG 12.76 ND1 11.88 CD2 12.97 CE1 11.99 NE2 12.83
A LEU G 76 -93.3 -2.5 N 13.61 CA 16.2 C 16.53 O 19.16 CB 19.12 CG 20.15 CD1 26.45 CD2 22.92
A ASN - 66 -119.7 98.8 N 15.55 CA 16.66 C 14.86 O 15.5 CB 18.3 CG 18.37 OD1 18.6 ND2 23.19
A PRO T 66 -64.5 -5.9 N 16.41 CA 16.61 C 16.71 O 17.33 CB 20.68 CG 26.5 CD 18.83
A LYS T 196 -74.9 -18.8 N 15.83 CA 17.45 C 15.12 O 16.78 CB 19.61 CG 22.08 CD 27.73 CE 37.12 NZ 46.62
A THR S 36 -91.4 158.7 N 14.13 CA 13.19 C 11.62 O 13.17 CB 13.84 OG1 13.85 CG2 15.74
A ARG H 192 -61.7 -45.7 N 12.76 CA 13.36 C 12.63 O 14.12 CB 13.39 CG 15.94 CD 21.63 NE 23.41 CZ 22.25 NH1 23.71 NH2 28.18
A ASN H 7 -62.0 -43.6 N 13.53 CA 14.73 C 13.6 O 13.39 CB 17.49 CG 19.64 OD1 20.87 ND2 20.93
A GLY H 1 -61.7 -42.6 N 12.13 CA 13.4 C 12.96 O 13.28
A ALA H 43 -65.4 -44.9 N 11.92 CA 11.97 C 11.18 O 12.74 CB 13.96
A LEU H 54 -58.9 -48.8 N 11.88 CA 11.91 C 12.02 O 12.7 CB 13.58 CG 15.62 CD1 17.13 CD2 18.51
A THR H 3 -66.7 -43.1 N 11.51 CA 11.94 C 13.39 O 12.86 CB 12.43 OG1 12.05 CG2 13.65
A GLN H 117 -56.6 -48.8 N 13.16 CA 13.84 C 13.44 O 15.04 CB 14.44 CG 18.48 CD 22.09 OE1 26.15 NE2 27.91
A ALA H 42 -62.7 -38.1 N 12.43 CA 13.29 C 13.39 O 14.26 CB 14.5
A ALA H 2 -68.4 -39.6 N 13.39 CA 12.42 C 12.59 O 14.13 CB 12.74
A LEU H 34 -73.6 -26.9 N 13.71 CA 14.66 C 14.97 O 17.06 CB 15.35 CG 17.25 CD1 19.89 CD2 18.52
A ALA H 76 -80.5 -28.8 N 15.67 CA 17.21 C 17.18 O 20.65 CB 16.85
A ASN H 130 -114.9 -21.7 N 14.88 CA 15.62 C 16.13 O 16.79 CB 19.55 CG 19.91 OD1 23.72 ND2 25.49
A GLU S 69 -125.9 164.8 N 15.26 CA 14.64 C 13.34 O 15.43 CB 14.73 CG 17.22 CD 19.16 OE1 18.5 OE2 20.93
A ALA - 72 -105.8 132.4 N 14.43 CA 15.15 C 13.15 O 15.81 CB 15.62
A TRP - 14 -129.0 142.3 N 13.01 CA 12.44 C 12.79 O 14.26 CB 12.63 CG 12.88 CD1 14.22 CD2 13.02 NE1 13.59 CE2 12.06 CE3 11.82 CZ2 13.36 CZ3 14.46 CH2 14.57
A ASP S 75 -84.0 -38.5 N 13.34 CA 13.42 C 12.94 O 13.75 CB 14.95 CG 17.74 OD1 23.54 OD2 17.87
A PHE E 29 -140.3 148.6 N 12.37 CA 12.66 C 11.84 O 12.34 CB 12.81 CG 13.72 CD1 13.88 CD2 14.94 CE1 15.6 CE2 16.96 CZ 18.14
A VAL E 3 -123.2 115.2 N 11.48 CA 11.06 C 11.66 O 13.09 CB 11.83 CG1 12.37 CG2 12.29
A VAL E 0 -96.6 132.4 N 10.94 CA 11.21 C 10.62 O 11.98 CB 11.44 CG1 12.59 CG2 13.03
A GLN - 1 -124.7 121.2 N 10.87 CA 11.57 C 12.06 O 13.09 CB 11.75 CG 12.89 CD 12.54 OE1 12.07 NE2 12.2
A GLU - 12 -87.5 154.0 N 12.23 CA 12.38 C 13.34 O 12.96 CB 12.91 CG 13.02 CD 15.56 OE1 15.01 OE2 18.88
A SER T 11 -61.5 -24.2 N 13.66 CA 15.98 C 14.83 O 16.49 CB 16.31 OG 18.8
A HIS T 43 -110.3 -3.1 N 13.17 CA 14.07 C 14.74 O 15.72 CB 14.83 CG 15.33 ND1 17.82 CD2 17.19 CE1 19.34 NE2 18.53
A GLY H 2 -51.1 -46.6 N 12.85 CA 12.35 C 13.48 O 14.33
A PRO H 1 -59.7 -27.7 N 12.99 CA 14.27 C 14.66 O 16.75 CB 13.9 CG 13.43 CD 12.89
A ALA H 4 -83.0 -45.2 N 14.49 CA 14.58 C 17.87 O 19.95 CB 15.85
A THR H 54 -91.1 -27.2 N 15.16 CA 16.5 C 17.49 O 20.03 CB 18.42 OG1 18.28 CG2 20.38
A SER S 45 -131.9 63.3 N 16.07 CA 16.95 C 14.24 O 15.21 CB 18.52 OG 18.15
A PRO H 57 -62.1 -33.9 N 15.29 CA 14.57 C 14.34 O 14.33 CB 16.68 CG 17.44 CD 16.63
A THR H 100 -72.7 -41.5 N 15.69 CA 15.49 C 14.11 O 15.36 CB 16.32 OG1 18.55 CG2 19.51
A ALA H 54 -58.6 -42.5 N 13.55 CA 13.77 C 15.22 O 14.08 CB 16.65
A TYR H 2 -59.4 -52.5 N 14.25 CA 12.66 C 12.82 O 13.73 CB 12.71 CG 12.18 CD1 12.81 CD2 12.29 CE1 12.31 CE2 13.04 CZ 12.24 OH 12.88
A ALA H 23 -58.1 -42.8 N 13.1 CA 14.94 C 12.84 O 15.37 CB 16.31
A ARG H 129 -69.3 -35.3 N 13.4 CA 15.86 C 14.66 O 15.47 CB 18.54 CG 25.54 CD 31.52 NE 33.64 CZ 32.93 NH1 41.05 NH2 39.15
A SER H 6 -65.8 -47.7 N 13.54 CA 13.58 C 13.4 O 13.49 CB 15.17 OG 17.48
A VAL H 0 -63.1 -40.0 N 12.96 CA 13.16 C 14.08 O 15.15 CB 16.33 CG1 18.14 CG2 17.77
A ALA H 26 -60.2 -46.7 N 13.68 CA 15.94 C 14.26 O 16.26 CB 18.43
A SER H 61 -73.5 -40.3 N 13.68 CA 15.06 C 14.71 O 14.62 CB 17.47 OG 21.05
A LEU H 5 -66.9 -35.6 N 13.25 CA 14.08 C 12.91 O 14.03 CB 13.43 CG 13.75 CD1 14.65 CD2 15.02
A SER H 0 -63.2 -46.0 N 13.08 CA 14.22 C 14.63 O 15.65 CB 14.32 OG 15.19
A GLU H 105 -60.6 -40.8 N 15.37 CA 17.42 C 15.35 O 17.8 CB 19.99 CG 25.19 CD 28.75 OE1 29.04 OE2 28.33
A ALA H 38 -63.9 -41.4 N 15.74 CA 16.04 C 14.46 O 16.33 CB 18.09
A ALA H 1 -63.5 -47.5 N 15.28 CA 15.42 C 16.06 O 16.0 CB 15.43
A LYS H 85 -63.0 -39.8 N 15.21 CA 16.78 C 17.28 O 19.01 CB 18.08 CG 19.2 CD 27.97 CE 38.38 NZ 38.3
A ALA H 92 -63.1 -31.0 N 17.23 CA 19.68 C 19.03 O 23.74 CB 21.38
A ALA T 44 -83.7 1.8 N 18.66 CA 19.44 C 18.43 O 22.06 CB 19.89
A GLY T 64 82.3 17.0 N 17.72 CA 19.16 C 18.3 O 21.03
A ALA - 6 -106.3 153.1 N 16.19 CA 15.08 C 16.27 O 19.26 CB 15.32
A GLN E 66 -91.3 119.2 N 14.23 CA 15.54 C 15.2 O 13.87 CB 15.87 CG 18.87 CD 21.39 OE1 25.11 NE2 19.46
A PRO E 0 -72.7 145.6 N 13.5 CA 12.73 C 12.89 O 13.24 CB 13.55 CG 15.08 CD 13.83
A VAL E 0 -133.9 128.3 N 12.31 CA 12.48 C 12.48 O 12.07 CB 13.05 CG1 15.27 CG2 13.92
A ILE E 0 -89.4 124.3 N 12.02 CA 11.5 C 12.07 O 12.17 CB 11.91 CG1 12.61 CG2 13.52 CD1 16.98
A TYR E 1 -85.3 94.1 N 11.86 CA 12.62 C 12.79 O 13.05 CB 12.49 CG 12.55 CD1 13.43 CD2 13.08 CE1 12.28 CE2 13.22 CZ 12.73 OH 14.4
A GLY E 0 -76.1 123.1 N 11.92 CA 12.99 C 15.47 O 21.22
A THR - 2 -102.0 -173.2 N 11.52 CA 12.4 C 13.15 O 14.62 CB 13.39 OG1 13.92 CG2 13.6
A TRP - 1 -110.5 154.6 N 13.47 CA 13.36 C 15.1 O 14.86 CB 14.1 CG 15.05 CD1 15.65 CD2 13.34 NE1 17.08 CE2 14.07 CE3 13.89 CZ2 16.72 CZ3 15.43 CH2 16.11
A PRO - 15 -63.9 156.2 N 14.11 CA 13.3 C 14.42 O 15.21 CB 15.29 CG 15.4 CD 16.18
A TYR - 9 -67.6 156.1 N 14.35 CA 14.11 C 13.71 O 15.3 CB 14.55 CG 14.05 CD1 16.11 CD2 16.17 CE1 15.44 CE2 17.08 CZ 15.8 OH 17.8
A ARG - 82 -61.7 132.4 N 14.55 CA 15.46 C 14.6 O 15.34 CB 16.95 CG 18.78 CD 23.15 NE 24.62 CZ 28.3 NH1 25.4 NH2 30.37
A ALA T 60 -55.8 134.3 N 15.66 CA 15.85 C 14.95 O 17.01 CB 16.48
A GLY T 69 86.6 -6.4 N 16.32 CA 19.35 C 17.94 O 23.38
A CYS - 18 -75.8 155.1 N 16.67 CA 16.25 C 15.5 O 16.59 CB 18.36 SG 17.9
A ALA H 63 -57.2 -38.4 N 17.48 CA 18.0 C 16.08 O 16.89 CB 20.25
A LYS H 75 -68.8 -30.9 N 17.43 CA 19.8 C 18.0 O 23.89 CB 23.7 CG 28.16 CD 30.64 CE 31.36 NZ 33.92
A LEU H 6 -75.8 -40.7 N 16.21 CA 17.59 C 16.08 O 19.16 CB 19.93 CG 19.71 CD1 18.9 CD2 21.39
A VAL H 106 -53.6 -46.5 N 16.19 CA 17.74 C 17.87 O 20.25 CB 19.39 CG1 22.25 CG2 19.65
A LYS H 157 -61.1 -33.0 N 19.16 CA 22.07 C 19.77 O 24.8 CB 25.28 CG 33.2 CD 42.92 CE 44.44 NZ 50.63
A LEU H 51 -71.5 -18.7 N 19.18 CA 19.69 C 22.29 O 22.27 CB 22.88 CG 25.39 CD1 28.69 CD2 29.74
A GLY T 73 64.7 38.9 N 20.31 CA 20.7 C 19.41 O 20.32
A SER - 69 -71.8 158.2 N 16.3 CA 13.93 C 14.14 O 14.6 CB 17.3 OG 17.44
A HIS H 49 -60.3 -42.8 N 14.58 CA 15.55 C 14.11 O 15.22 CB 14.83 CG 16.24 ND1 20.88 CD2 16.92 CE1 20.4 NE2 19.74
A ASP H 104 -61.7 -42.3 N 15.24 CA 15.91 C 15.05 O 16.0 CB 18.85 CG 24.05 OD1 28.32 OD2 32.03
A ASP H 56 -65.0 -44.7 N 14.58 CA 15.7 C 14.37 O 14.75 CB 17.18 CG 22.44 OD1 24.38 OD2 26.08
A SER H 17 -54.3 -47.3 N 12.68 CA 13.75 C 12.82 O 14.09 CB 14.29 OG 17.58
A LEU H 108 -75.2 -42.1 N 12.94 CA 13.48 C 13.43 O 14.75 CB 15.38 CG 18.43 CD1 21.1 CD2 21.18
A ARG H 114 -60.9 -42.9 N 13.42 CA 14.02 C 13.33 O 15.46 CB 14.63 CG 15.45 CD 19.64 NE 24.3 CZ 26.02 NH1 28.56 NH2 30.98
A ALA H 59 -60.9 -43.9 N 13.39 CA 13.45 C 12.66 O 14.82 CB 16.49
A GLU H 140 -62.9 -42.9 N 13.09 CA 14.09 C 13.99 O 15.44 CB 15.44 CG 17.63 CD 29.4 OE1 39.71 OE2 38.39
A ALA H 16 -59.3 -46.6 N 12.78 CA 12.63 C 12.24 O 13.28 CB 14.61
A PHE H 8 -69.1 -39.0 N 12.13 CA 12.32 C 12.43 O 14.1 CB 12.48 CG 10.7 CD1 12.03 CD2 11.65 CE1 11.99 CE2 12.44 CZ 14.4
A ALA H 57 -64.1 -43.8 N 13.31 CA 14.2 C 13.59 O 16.35 CB 15.11
A GLN H 110 -67.6 -38.4 N 12.99 CA 15.6 C 14.23 O 16.15 CB 19.07 CG 26.54 CD 32.44 OE1 36.03 NE2 37.03
A ALA H 7 -70.5 -35.2 N 13.77 CA 13.84 C 12.89 O 15.42 CB 15.46
A ALA H 19 -65.2 -45.6 N 13.16 CA 15.04 C 17.17 O 19.91 CB 15.91
A ALA H 76 -66.4 -45.0 N 16.19 CA 18.47 C 19.14 O 23.54 CB 20.91
A ASP H 101 -67.8 -35.5 N 16.49 CA 18.85 C 21.46 O 23.58 CB 21.02 CG 27.78 OD1 33.69 OD2 39.0
A SER H 4 -96.3 -21.4 N 21.49 CA 21.75 C 21.16 O 27.84 CB 22.2 OG 22.3
A GLY T 44 74.6 17.3 N 20.83 CA 23.24 C 22.56 O 28.7
A ALA - 7 -77.8 147.1 N 18.23 CA 15.5 C 15.4 O 19.97 CB 15.14
A LEU E 64 -74.6 140.9 N 15.52 CA 13.8 C 13.91 O 17.64 CB 15.28 CG 20.38 CD1 21.97 CD2 26.02
A LEU E 55 -103.0 119.4 N 14.21 CA 12.98 C 14.67 O 16.2 CB 14.72 CG 15.68 CD1 15.73 CD2 15.9
A ALA E 0 -93.0 98.0 N 12.46 CA 14.04 C 13.46 O 13.01 CB 15.71
A ASP E 70 -87.7 90.5 N 13.71 CA 13.71 C 15.13 O 17.54 CB 14.65 CG 17.85 OD1 21.54 OD2 18.72
A VAL - 0 -80.9 -23.1 N 12.8 CA 14.97 C 15.24 O 15.46 CB 14.58 CG1 15.08 CG2 15.42
A ALA H 23 -58.8 -40.0 N 13.78 CA 13.99 C 14.28 O 14.68 CB 14.46
A ALA H 53 -56.9 -54.2 N 14.53 CA 15.5 C 15.26 O 17.09 CB 16.74
A PRO H 37 -71.1 -23.5 N 15.42 CA 16.51 C 17.85 O 19.04 CB 19.5 CG 19.61 CD 17.95
A PHE H 9 -59.3 -44.8 N 16.04 CA 17.46 C 18.98 O 25.88 CB 17.16 CG 17.48 CD1 17.95 CD2 16.92 CE1 17.24 CE2 17.83 CZ 17.09
A ARG H 186 -65.8 -42.3 N 17.1 CA 17.86 C 19.76 O 24.26 CB 19.59 CG 25.18 CD 32.85 NE 37.09 CZ 34.3 NH1 37.12 NH2 39.95
A ALA H 92 -68.9 -24.3 N 19.34 CA 21.72 C 23.39 O 27.1 CB 24.46
A GLY S 41 -95.8 -169.0 N 22.94 CA 25.43 C 23.34 O 28.59
A SER - 55 -91.0 116.4 N 24.35 CA 25.14 C 23.3 O 23.07 CB 27.51 OG 30.61
A ALA H 33 -57.0 -39.4 N 23.01 CA 24.39 C 22.43 O 23.9 CB 27.77
A ASP H 125 -61.2 -32.6 N 25.13 CA 26.8 C 25.84 O 27.47 CB 30.39 CG 36.76 OD1 40.24 OD2 46.46
A GLU H 117 -77.0 -41.6 N 21.92 CA 21.83 C 20.57 O 21.99 CB 25.0 CG 30.18 CD 39.23 OE1 43.33 OE2 46.48
A LEU H 10 -93.4 -25.7 N 18.32 CA 16.73 C 15.56 O 16.33 CB 17.71 CG 20.13 CD1 20.4 CD2 21.33
A TYR B 22 -94.4 146.9 N 17.66 CA 17.1 C 17.91 O 20.7 CB 18.17 CG 17.0 CD1 18.4 CD2 18.56 CE1 16.66 CE2 19.71 CZ 17.04 OH 17.94
A ALA - 32 -68.6 168.2 N 17.59 CA 19.34 C 19.35 O 18.96 CB 19.51
A ALA T 116 -50.6 -34.3 N 20.58 CA 22.15 C 21.27 O 24.02 CB 27.69
A ASP T 43 -77.1 -7.3 N 20.24 CA 18.78 C 17.27 O 19.84 CB 19.28 CG 19.7 OD1 18.04 OD2 24.4
A GLY S 1 72.3 11.3 N 17.38 CA 16.91 C 16.22 O 15.95
A VAL S 3 -122.1 -55.3 N 14.97 CA 15.16 C 15.25 O 15.76 CB 16.78 CG1 18.47 CG2 18.16
A HIS S 55 -79.1 154.7 N 14.91 CA 15.0 C 15.97 O 16.99 CB 16.96 CG 21.68 ND1 23.85 CD2 32.7 CE1 31.16 NE2 33.95
A PRO B 4 -79.5 145.9 N 15.67 CA 15.53 C 15.82 O 17.7 CB 16.3 CG 17.25 CD 16.91
A SER - 16 -71.5 171.7 N 15.53 CA 15.51 C 15.82 O 15.68 CB 16.94 OG 18.46
A PRO H 86 -54.4 -40.6 N 16.72 CA 17.67 C 16.15 O 17.9 CB 19.24 CG 20.08 CD 18.88
A ALA H 33 -63.0 -40.6 N 17.55 CA 17.45 C 17.28 O 16.76 CB 21.97
A GLY H 0 -63.0 -39.9 N 15.66 CA 17.96 C 16.08 O 14.51
A SER H 0 -65.7 -39.3 N 14.54 CA 15.15 C 15.51 O 14.94 CB 16.47 OG 15.34
A ARG H 151 -61.8 -40.6 N 15.01 CA 18.51 C 16.04 O 16.53 CB 18.82 CG 23.93 CD 32.67 NE 42.53 CZ 41.25 NH1 44.3 NH2 50.03
A LEU H 35 -63.1 -44.6 N 15.93 CA 15.58 C 15.05 O 15.82 CB 18.33 CG 17.6 CD1 20.93 CD2 22.0
A ALA H 0 -59.1 -44.0 N 14.66 CA 13.93 C 14.12 O 14.24 CB 14.18
A ALA H 1 -59.5 -43.2 N 13.87 CA 14.23 C 13.79 O 15.25 CB 15.02
A LEU H 62 -65.7 -39.8 N 14.21 CA 16.04 C 14.9 O 17.91 CB 18.21 CG 20.68 CD1 22.34 CD2 22.98
A VAL H 23 -65.6 -46.0 N 14.52 CA 14.19 C 15.08 O 15.13 CB 15.65 CG1 15.8 CG2 16.26
A LEU H 0 -61.2 -43.2 N 13.07 CA 13.57 C 14.87 O 15.89 CB 13.59 CG 13.81 CD1 14.96 CD2 14.92
A ALA H 14 -61.7 -41.0 N 15.83 CA 15.95 C 16.58 O 19.46 CB 15.76
A GLU H 165 -62.3 -41.6 N 15.99 CA 17.92 C 19.72 O 22.6 CB 19.94 CG 23.13 CD 36.07 OE1 49.53 OE2 41.57
A THR H 36 -63.3 -40.5 N 16.9 CA 18.36 C 18.28 O 23.08 CB 18.88 OG1 22.9 CG2 22.08
A GLY - 87 -88.9 360.0 N 26.35 CA 33.43 C 41.89 O 49.66
