A VAL - 142 360.0 93.5 N 87.45 CA 95.41 C 93.95 O 81.85 CB 100.86 CG1 101.15 CG2 98.83
A ILE - 42 -70.0 150.4 N 92.31 CA 88.4 C 76.94 O 81.59 CB 87.4 CG1 84.01 CG2 90.19 CD1 92.1
A LYS - 186 -92.5 124.4 N 67.13 CA 65.12 C 56.71 O 48.23 CB 72.2 CG 75.79 CD 77.85 CE 75.24 NZ 72.82
A PHE - 28 -87.8 157.7 N 49.07 CA 48.49 C 45.61 O 45.84 CB 45.9 CG 48.58 CD1 50.55 CD2 52.71 CE1 48.48 CE2 55.32 CZ 52.5
A LYS - 124 -105.8 -10.9 N 44.78 CA 47.54 C 48.03 O 45.32 CB 48.5 CG 57.45 CD 66.37 CE 70.9 NZ 72.13
A GLU S 10 -64.6 126.2 N 47.44 CA 46.81 C 43.81 O 52.54 CB 40.08 CG 42.36 CD 39.72 OE1 41.59 OE2 37.23
A PRO - 32 -69.9 150.2 N 46.51 CA 48.19 C 43.85 O 43.12 CB 46.12 CG 48.16 CD 46.37
A GLU S 79 -77.1 -21.6 N 46.85 CA 53.51 C 49.44 O 49.38 CB 67.65 CG 82.67 CD 94.75 OE1 83.56 OE2 92.17
A ARG - 100 -137.4 137.1 N 45.16 CA 47.59 C 40.41 O 39.51 CB 48.53 CG 58.44 CD 60.21 NE 59.21 CZ 67.31 NH1 57.54 NH2 61.34
A CYS - 9 -145.7 140.0 N 35.9 CA 33.21 C 30.01 O 25.69 CB 34.23 SG 36.85
A ASP T 34 -57.4 136.9 N 31.31 CA 28.83 C 29.35 O 27.0 CB 32.02 CG 36.69 OD1 35.79 OD2 35.67
A TYR T 5 78.2 -1.3 N 25.74 CA 25.82 C 29.88 O 29.2 CB 25.1 CG 24.9 CD1 26.77 CD2 22.88 CE1 24.3 CE2 25.08 CZ 22.85 OH 23.65
A LEU E 0 -110.3 133.1 N 29.15 CA 29.22 C 29.42 O 32.38 CB 34.37 CG 38.36 CD1 46.57 CD2 41.02
A TYR E 42 -134.6 125.8 N 28.47 CA 30.78 C 32.61 O 33.45 CB 32.18 CG 33.2 CD1 35.53 CD2 34.6 CE1 35.28 CE2 32.08 CZ 34.97 OH 41.6
A VAL E 6 -107.7 118.5 N 34.38 CA 35.48 C 36.85 O 36.56 CB 37.1 CG1 39.71 CG2 38.55
A ASP - 11 -85.2 -172.6 N 36.0 CA 37.63 C 41.86 O 46.47 CB 36.28 CG 37.33 OD1 37.53 OD2 32.7
A GLU T 154 -70.6 -22.9 N 45.12 CA 48.69 C 41.72 O 41.35 CB 55.23 CG 63.59 CD 65.83 OE1 71.96 OE2 74.97
A ASN T 109 -95.1 18.3 N 41.42 CA 41.72 C 37.67 O 35.3 CB 41.25 CG 49.0 OD1 50.89 ND2 45.46
A ASN S 13 61.2 28.2 N 35.69 CA 33.28 C 34.69 O 33.62 CB 34.42 CG 34.11 OD1 41.08 ND2 35.59
A LYS - 54 -89.6 135.7 N 37.09 CA 36.48 C 34.99 O 34.47 CB 39.92 CG 43.84 CD 47.13 CE 49.87 NZ 48.6
A VAL E 1 -96.3 127.0 N 34.71 CA 31.01 C 31.73 O 34.33 CB 31.33 CG1 31.88 CG2 30.69
A HIS E 0 -120.5 131.6 N 32.0 CA 29.14 C 28.72 O 29.12 CB 31.03 CG 30.34 ND1 34.68 CD2 34.07 CE1 32.36 NE2 31.78
A ILE E 0 -101.7 127.2 N 26.49 CA 26.7 C 27.33 O 27.61 CB 26.82 CG1 27.69 CG2 27.79 CD1 29.31
A LEU E 0 -104.0 117.1 N 27.56 CA 26.79 C 26.6 O 24.22 CB 31.6 CG 37.32 CD1 39.38 CD2 37.57
A LEU E 0 -85.8 125.9 N 23.75 CA 24.34 C 22.95 O 26.66 CB 22.98 CG 23.37 CD1 22.54 CD2 26.36
A PRO E 0 -82.5 142.6 N 24.53 CA 27.28 C 26.77 O 29.9 CB 25.79 CG 28.13 CD 25.87
A ILE E 0 -99.9 -57.0 N 26.9 CA 25.0 C 24.44 O 25.91 CB 26.47 CG1 29.65 CG2 26.41 CD1 32.91
A VAL E 0 -144.5 160.6 N 25.59 CA 25.94 C 26.44 O 24.79 CB 28.94 CG1 33.13 CG2 27.69
A GLY E 4 -69.5 147.7 N 24.8 CA 26.94 C 26.66 O 30.15
A GLY B 7 139.1 -171.8 N 26.46 CA 29.82 C 31.68 O 26.6
A ASP S 68 -115.7 -64.7 N 33.58 CA 36.77 C 35.5 O 38.03 CB 45.06 CG 54.25 OD1 62.61 OD2 61.17
A GLU S 8 -108.5 -35.5 N 30.63 CA 30.04 C 29.42 O 34.73 CB 31.84 CG 33.92 CD 37.18 OE1 33.73 OE2 41.51
A ILE B 4 -117.2 138.7 N 29.9 CA 25.59 C 28.58 O 29.0 CB 25.49 CG1 26.09 CG2 26.74 CD1 26.85
A GLY B 1 -73.8 139.0 N 27.64 CA 24.99 C 27.56 O 27.31
A LEU S 54 -88.0 -14.2 N 29.19 CA 28.59 C 29.54 O 31.6 CB 34.48 CG 40.32 CD1 42.76 CD2 42.2
A ASP - 14 -110.0 137.4 N 30.65 CA 25.81 C 27.47 O 26.75 CB 29.48 CG 40.34 OD1 34.25 OD2 35.15
A ASN - 17 -144.3 -174.7 N 23.5 CA 23.14 C 22.88 O 20.02 CB 23.26 CG 23.77 OD1 27.72 ND2 27.19
A THR G 3 39.9 -127.5 N 23.01 CA 23.17 C 25.37 O 22.52 CB 28.0 OG1 28.09 CG2 29.34
A CYS G 34 -61.8 -26.5 N 25.11 CA 26.46 C 26.14 O 24.92 CB 28.14 SG 32.56
A GLN G 39 -91.4 5.5 N 24.52 CA 26.19 C 22.13 O 22.65 CB 26.68 CG 36.14 CD 43.07 OE1 60.34 NE2 45.97
A THR T 1 -49.6 -40.7 N 23.25 CA 24.43 C 25.4 O 24.68 CB 24.82 OG1 25.2 CG2 26.83
A ALA T 2 -78.0 -1.4 N 22.74 CA 25.02 C 26.94 O 24.65 CB 25.48
A VAL H 21 -63.9 -39.8 N 23.39 CA 27.17 C 23.56 O 23.08 CB 31.53 CG1 35.53 CG2 35.46
A GLU H 37 -63.8 -39.9 N 22.96 CA 23.6 C 22.62 O 24.94 CB 25.9 CG 28.73 CD 36.44 OE1 37.29 OE2 38.42
A LEU H 0 -70.3 -39.7 N 22.69 CA 24.75 C 24.53 O 25.98 CB 24.4 CG 24.31 CD1 24.23 CD2 23.37
A ILE H 13 -54.6 -49.9 N 21.91 CA 22.67 C 24.76 O 24.24 CB 20.97 CG1 23.01 CG2 22.29 CD1 23.79
A THR H 9 -62.0 -44.3 N 23.25 CA 22.0 C 22.07 O 21.24 CB 23.29 OG1 26.85 CG2 24.85
A PHE H 2 -58.3 -46.1 N 21.29 CA 22.63 C 22.67 O 22.74 CB 22.29 CG 22.66 CD1 22.86 CD2 23.83 CE1 23.37 CE2 22.24 CZ 21.74
A PHE H 2 -85.8 -29.9 N 21.32 CA 23.41 C 24.48 O 27.6 CB 22.89 CG 23.44 CD1 24.52 CD2 22.74 CE1 24.81 CE2 23.28 CZ 25.4
A TYR H 64 -133.6 -18.4 N 24.64 CA 26.79 C 27.92 O 29.39 CB 26.2 CG 28.89 CD1 31.04 CD2 27.7 CE1 29.75 CE2 28.34 CZ 29.36 OH 29.84
A GLY - 13 88.3 164.0 N 26.59 CA 25.06 C 26.31 O 26.94
A SER E 10 -163.8 171.3 N 25.62 CA 26.48 C 29.73 O 34.42 CB 26.77 OG 28.19
A ALA E 43 -106.7 138.6 N 29.57 CA 33.41 C 33.18 O 30.43 CB 32.15
A HIS E 26 -136.9 115.4 N 34.94 CA 41.75 C 41.5 O 36.8 CB 43.75 CG 50.02 ND1 53.16 CD2 45.89 CE1 50.74 NE2 43.41
A SER T 17 49.3 39.9 N 39.23 CA 40.32 C 45.96 O 45.62 CB 43.82 OG 46.45
A GLY T 53 82.1 9.5 N 37.85 CA 37.57 C 35.9 O 37.49
A VAL E 55 -117.1 130.4 N 31.94 CA 34.67 C 30.51 O 31.63 CB 41.43 CG1 45.06 CG2 41.25
A THR E 76 -76.9 131.6 N 28.51 CA 30.14 C 28.38 O 28.66 CB 33.79 OG1 33.94 CG2 31.73
A LYS E 98 -108.9 122.5 N 27.48 CA 29.57 C 27.62 O 30.92 CB 32.94 CG 41.76 CD 46.62 CE 56.17 NZ 52.88
A TYR - 116 -85.8 154.3 N 24.57 CA 26.07 C 23.57 O 23.35 CB 28.53 CG 30.17 CD1 32.34 CD2 32.11 CE1 33.64 CE2 36.58 CZ 37.98 OH 39.09
A SER - 19 -62.0 160.8 N 23.7 CA 24.07 C 24.66 O 24.55 CB 24.29 OG 24.87
A ALA H 1 -58.2 -46.0 N 25.01 CA 25.0 C 26.3 O 28.05 CB 26.09
A GLU H 49 -57.3 -41.4 N 24.9 CA 27.76 C 28.9 O 25.77 CB 32.31 CG 43.72 CD 51.85 OE1 42.62 OE2 44.28
A HIS H 78 -64.7 -46.2 N 24.65 CA 27.31 C 26.68 O 28.67 CB 31.42 CG 32.87 ND1 36.65 CD2 31.78 CE1 37.72 NE2 36.39
A GLN H 35 -69.3 -40.1 N 25.26 CA 26.37 C 27.5 O 25.7 CB 28.08 CG 33.29 CD 41.52 OE1 51.8 NE2 42.08
A LEU H 1 -69.2 -34.8 N 25.34 CA 29.41 C 29.29 O 32.2 CB 32.27 CG 33.44 CD1 34.07 CD2 34.15
A SER H 29 -63.3 -41.8 N 31.86 CA 31.36 C 34.81 O 33.83 CB 33.38 OG 40.01
A GLU H 84 -56.4 -48.8 N 29.77 CA 36.17 C 37.74 O 36.31 CB 37.68 CG 53.67 CD 66.49 OE1 63.98 OE2 72.25
A TYR H 2 -60.6 -39.2 N 33.33 CA 32.85 C 37.73 O 37.99 CB 33.27 CG 31.87 CD1 34.85 CD2 32.54 CE1 35.0 CE2 36.75 CZ 36.46 OH 34.76
A LYS H 51 -59.0 -46.3 N 34.63 CA 36.27 C 39.6 O 34.72 CB 40.95 CG 44.65 CD 51.97 CE 58.81 NZ 59.82
A ARG H 131 -58.9 -41.3 N 35.44 CA 38.78 C 37.54 O 39.25 CB 39.38 CG 47.69 CD 50.69 NE 53.0 CZ 56.43 NH1 49.94 NH2 65.95
A GLN H 47 -65.1 -44.7 N 34.35 CA 38.56 C 40.41 O 37.83 CB 42.54 CG 51.29 CD 59.19 OE1 55.82 NE2 62.32
A LEU H 0 -55.9 -46.6 N 36.66 CA 38.5 C 37.9 O 36.32 CB 35.87 CG 37.94 CD1 39.12 CD2 37.4
A GLU H 70 -60.6 -38.4 N 36.33 CA 39.97 C 42.09 O 39.82 CB 40.48 CG 44.16 CD 53.59 OE1 54.05 OE2 56.59
A GLU H 94 -64.2 -40.5 N 41.04 CA 42.7 C 41.08 O 40.12 CB 46.88 CG 57.32 CD 73.79 OE1 79.24 OE2 91.95
A ASP H 3 -63.7 -38.2 N 38.89 CA 42.59 C 48.58 O 45.95 CB 40.89 CG 47.37 OD1 42.09 OD2 43.03
A ILE H 32 -69.7 -45.3 N 43.87 CA 48.04 C 47.59 O 43.57 CB 42.36 CG1 39.66 CG2 46.13 CD1 40.18
A LYS H 138 -53.8 -49.8 N 51.14 CA 51.64 C 52.85 O 49.75 CB 54.64 CG 63.48 CD 70.67 CE 72.7 NZ 71.48
A ALA H 31 -57.2 -36.7 N 47.99 CA 45.34 C 50.46 O 47.27 CB 41.91
A ILE H 0 -66.9 -43.1 N 50.08 CA 50.14 C 52.99 O 53.92 CB 51.45 CG1 43.89 CG2 52.56 CD1 40.5
A ASN H 90 -57.9 -48.0 N 55.58 CA 61.48 C 66.76 O 70.86 CB 62.02 CG 66.63 OD1 71.26 ND2 59.71
A SER H 70 -63.8 -41.4 N 63.79 CA 66.96 C 68.45 O 67.77 CB 61.76 OG 64.84
A GLN T 48 -70.0 -5.4 N 70.85 CA 72.87 C 84.27 O 81.11 CB 73.18 CG 80.11 CD 84.34 OE1 86.93 NE2 87.78
A LYS T 50 -99.6 2.7 N 96.68 CA 100.93 C 105.71 O 110.33 CB 101.28 CG 97.2 CD 94.06 CE 97.55 NZ 97.69
A LYS T 151 -79.5 -26.2 N 102.19 CA 103.46 C 98.23 O 91.28 CB 99.75 CG 93.05 CD 87.38 CE 78.68 NZ 72.73
A ILE T 129 -96.4 -24.4 N 100.27 CA 100.64 C 109.64 O 114.66 CB 93.59 CG1 87.29 CG2 94.05 CD1 78.78
A SER S 47 -140.6 71.0 N 110.4 CA 106.71 C 110.37 O 105.04 CB 97.1 OG 88.48
A PRO T 77 -32.3 -34.3 N 116.53 CA 116.39 C 112.07 O 110.93 CB 115.62 CG 114.81 CD 114.92
A HIS T 139 -134.4 9.4 N 109.53 CA 105.97 C 96.19 O 93.85 CB 103.77 CG 108.2 ND1 109.9 CD2 106.51 CE1 103.55 NE2 102.59
A ALA T 77 -66.8 -15.1 N 93.94 CA 92.97 C 100.59 O 99.66 CB 92.28
A TYR T 38 -118.0 14.5 N 93.53 CA 83.6 C 75.18 O 72.0 CB 82.75 CG 87.89 CD1 85.3 CD2 88.04 CE1 86.51 CE2 86.05 CZ 83.41 OH 85.33
A ASP H 66 -56.0 -45.1 N 65.09 CA 62.42 C 59.68 O 52.6 CB 72.4 CG 77.19 OD1 74.87 OD2 78.65
A ASP H 109 -63.0 -52.7 N 58.23 CA 63.09 C 59.85 O 51.48 CB 65.55 CG 78.76 OD1 84.94 OD2 84.71
A LEU H 11 -61.5 -45.0 N 57.03 CA 60.33 C 51.89 O 48.76 CB 62.36 CG 67.19 CD1 71.85 CD2 72.53
A LEU H 33 -58.1 -42.8 N 44.57 CA 44.04 C 42.99 O 37.7 CB 44.43 CG 45.46 CD1 43.5 CD2 47.1
A LYS H 126 -64.7 -44.4 N 41.46 CA 42.94 C 39.84 O 37.66 CB 45.3 CG 47.98 CD 53.68 CE 58.91 NZ 63.66
A GLU H 51 -64.1 -38.0 N 41.18 CA 41.08 C 37.79 O 39.42 CB 47.27 CG 51.3 CD 62.46 OE1 66.42 OE2 67.44
A LYS H 0 -70.1 -42.3 N 36.02 CA 36.58 C 37.54 O 34.09 CB 38.2 CG 38.65 CD 39.49 CE 40.95 NZ 40.42
A ILE H 59 -63.8 -34.1 N 35.64 CA 34.28 C 33.34 O 35.22 CB 35.11 CG1 37.37 CG2 36.11 CD1 37.57
A GLU H 57 -71.5 -35.5 N 31.39 CA 35.71 C 35.93 O 34.36 CB 40.41 CG 47.96 CD 54.03 OE1 54.79 OE2 67.59
A ARG H 2 -69.7 -40.4 N 32.4 CA 31.61 C 32.27 O 35.44 CB 32.24 CG 35.39 CD 35.81 NE 37.46 CZ 39.89 NH1 38.03 NH2 38.96
A LEU H 19 -57.3 -47.8 N 32.29 CA 32.2 C 32.95 O 29.41 CB 32.47 CG 32.64 CD1 34.38 CD2 34.64
A GLN H 108 -58.8 -44.6 N 29.83 CA 29.43 C 31.59 O 31.7 CB 34.51 CG 35.62 CD 39.28 OE1 45.77 NE2 43.26
A GLN H 24 -64.0 -49.0 N 29.21 CA 30.8 C 33.32 O 34.83 CB 32.22 CG 32.53 CD 35.82 OE1 39.31 NE2 35.56
A ILE H 1 -51.5 -47.4 N 34.1 CA 36.44 C 33.54 O 25.06 CB 35.99 CG1 42.15 CG2 35.93 CD1 49.03
A GLU H 76 -61.8 -37.1 N 31.63 CA 34.07 C 32.27 O 28.77 CB 37.99 CG 44.01 CD 53.5 OE1 59.33 OE2 61.52
A LYS H 60 -65.5 -42.9 N 30.41 CA 33.25 C 32.39 O 29.15 CB 38.84 CG 56.48 CD 68.25 CE 85.6 NZ 86.06
A TYR H 0 -63.4 -44.7 N 31.98 CA 28.82 C 29.73 O 28.63 CB 28.38 CG 29.79 CD1 30.67 CD2 28.55 CE1 26.64 CE2 29.83 CZ 27.5 OH 29.98
A ILE H 12 -55.9 -45.7 N 29.77 CA 30.84 C 33.09 O 26.92 CB 32.83 CG1 32.65 CG2 33.74 CD1 30.27
A GLU H 82 -59.2 -45.5 N 34.09 CA 32.99 C 31.59 O 27.43 CB 42.59 CG 52.37 CD 70.6 OE1 83.89 OE2 67.21
A LEU H 4 -58.4 -40.0 N 30.47 CA 29.83 C 29.14 O 29.71 CB 30.07 CG 34.28 CD1 34.42 CD2 32.18
A ILE H 3 -63.8 -45.0 N 28.03 CA 27.97 C 31.11 O 27.57 CB 28.0 CG1 29.06 CG2 28.72 CD1 29.87
A GLN H 80 -59.9 -41.2 N 29.35 CA 36.33 C 34.43 O 35.47 CB 36.19 CG 38.27 CD 35.22 OE1 43.69 NE2 37.53
A VAL H 17 -76.5 -32.7 N 34.46 CA 37.16 C 38.2 O 29.5 CB 43.34 CG1 53.06 CG2 47.89
A LEU H 0 -59.3 -47.8 N 32.17 CA 31.08 C 33.57 O 35.3 CB 36.34 CG 36.91 CD1 35.38 CD2 40.57
A LYS H 48 -74.0 -33.2 N 30.83 CA 30.87 C 35.08 O 36.45 CB 33.58 CG 32.02 CD 36.87 CE 37.5 NZ 34.85
A LYS H 165 -84.4 -44.8 N 35.56 CA 40.73 C 34.69 O 36.73 CB 43.88 CG 57.76 CD 74.78 CE 76.96 NZ 80.79
A GLN H 109 -111.1 -32.9 N 35.43 CA 37.64 C 37.12 O 38.06 CB 41.01 CG 52.52 CD 55.91 OE1 53.9 NE2 57.44
A TYR S 53 -110.5 37.3 N 33.85 CA 33.44 C 32.16 O 31.23 CB 32.26 CG 38.82 CD1 40.48 CD2 39.46 CE1 46.05 CE2 43.35 CZ 47.96 OH 52.8
A ASP - 9 -132.6 42.6 N 29.97 CA 29.97 C 31.97 O 28.91 CB 29.49 CG 31.77 OD1 29.92 OD2 30.93
A GLU T 156 -71.4 -24.6 N 33.02 CA 35.95 C 35.06 O 37.23 CB 43.56 CG 55.99 CD 65.89 OE1 81.04 OE2 62.47
A GLN T 167 -83.5 -1.7 N 33.46 CA 36.96 C 38.13 O 32.98 CB 46.25 CG 63.47 CD 67.89 OE1 83.59 NE2 72.35
A ASN - 75 64.8 27.4 N 31.17 CA 32.36 C 29.26 O 28.13 CB 34.85 CG 36.82 OD1 40.26 ND2 30.39
A ASP T 38 -68.3 -29.9 N 28.44 CA 28.29 C 29.07 O 28.77 CB 33.2 CG 32.89 OD1 31.33 OD2 35.22
A ILE T 0 -85.9 -42.2 N 26.83 CA 25.68 C 26.89 O 28.85 CB 28.28 CG1 29.9 CG2 27.85 CD1 33.23
A ARG T 118 -63.6 -27.1 N 23.73 CA 24.35 C 23.8 O 23.54 CB 26.62 CG 30.19 CD 34.28 NE 42.35 CZ 49.85 NH1 53.27 NH2 53.41
A GLN H 35 -64.1 -19.8 N 24.79 CA 25.43 C 21.73 O 22.77 CB 26.56 CG 26.28 CD 25.1 OE1 23.72 NE2 25.45
A LEU H 0 -58.7 -37.8 N 22.67 CA 23.87 C 25.54 O 22.95 CB 24.96 CG 23.3 CD1 23.52 CD2 23.77
A ARG H 157 -84.0 -41.7 N 27.4 CA 27.27 C 26.29 O 28.57 CB 28.44 CG 28.84 CD 32.47 NE 29.97 CZ 32.78 NH1 30.02 NH2 32.15
A THR H 95 -102.4 -18.0 N 26.96 CA 25.41 C 28.05 O 26.5 CB 28.32 OG1 26.91 CG2 27.37
A GLY S 21 -77.0 157.8 N 26.33 CA 24.87 C 27.51 O 25.52
A GLY S 39 -66.4 -56.6 N 26.42 CA 26.29 C 23.78 O 24.56
A ILE S 27 -127.6 93.0 N 25.32 CA 22.97 C 24.11 O 24.6 CB 26.56 CG1 26.66 CG2 22.99 CD1 29.46
A PRO - 6 -69.9 165.9 N 25.82 CA 24.41 C 23.32 O 22.19 CB 23.03 CG 27.64 CD 26.64
A GLN - 63 -98.9 157.9 N 26.3 CA 25.24 C 24.39 O 25.89 CB 28.39 CG 33.01 CD 34.86 OE1 39.52 NE2 35.18
A LEU - 4 -66.5 139.4 N 22.55 CA 24.0 C 26.41 O 26.19 CB 24.44 CG 23.43 CD1 24.62 CD2 23.43
A PRO - 0 -62.3 151.7 N 27.93 CA 26.2 C 26.18 O 24.31 CB 27.23 CG 30.72 CD 26.43
A SER H 42 -54.3 -39.1 N 26.79 CA 29.99 C 25.68 O 26.45 CB 33.82 OG 39.8
A GLY H 0 -63.6 -33.8 N 27.24 CA 27.3 C 27.47 O 27.13
A VAL H 0 -71.3 -45.6 N 28.87 CA 24.55 C 25.05 O 26.61 CB 25.93 CG1 26.38 CG2 26.28
A LYS H 53 -54.7 -38.7 N 23.09 CA 25.04 C 30.41 O 26.89 CB 26.92 CG 31.43 CD 34.2 CE 35.17 NZ 35.07
A GLU H 68 -70.3 -38.5 N 27.97 CA 29.99 C 28.19 O 28.9 CB 31.87 CG 37.39 CD 50.26 OE1 44.19 OE2 52.12
A ILE H 0 -58.0 -45.5 N 27.08 CA 27.31 C 25.7 O 27.43 CB 26.92 CG1 28.52 CG2 26.9 CD1 26.94
A ILE H 14 -67.9 -43.3 N 25.92 CA 25.97 C 26.43 O 26.96 CB 23.43 CG1 23.15 CG2 24.33 CD1 23.95
A LYS H 144 -60.9 -33.4 N 28.96 CA 32.82 C 33.74 O 32.63 CB 36.46 CG 40.36 CD 49.19 CE 55.87 NZ 60.95
A SER H 63 -98.8 5.1 N 35.61 CA 35.21 C 35.74 O 33.38 CB 40.35 OG 41.57
A SER - 7 -65.0 142.5 N 27.82 CA 29.31 C 31.46 O 30.59 CB 28.48 OG 31.12
A GLU S 93 -100.2 -16.1 N 30.05 CA 34.76 C 33.88 O 31.47 CB 41.62 CG 46.57 CD 61.08 OE1 67.26 OE2 65.32
A ASN S 1 -116.9 0.2 N 31.33 CA 26.79 C 28.7 O 31.81 CB 29.74 CG 29.55 OD1 28.51 ND2 32.54
A ALA E 0 -142.1 141.5 N 26.57 CA 28.06 C 26.58 O 28.63 CB 25.22
A PHE E 19 -145.7 145.4 N 26.05 CA 23.89 C 24.99 O 24.17 CB 27.26 CG 25.27 CD1 28.3 CD2 28.8 CE1 30.64 CE2 29.55 CZ 30.69
A ALA E 2 -89.8 152.6 N 22.38 CA 23.02 C 23.27 O 23.17 CB 25.04
A VAL E 0 -133.3 142.3 N 24.14 CA 22.2 C 25.75 O 26.02 CB 26.56 CG1 25.05 CG2 26.58
A ARG E 42 -125.7 129.3 N 22.67 CA 22.96 C 20.87 O 23.77 CB 21.09 CG 21.25 CD 23.48 NE 26.89 CZ 32.38 NH1 32.33 NH2 32.66
A LEU - 0 -114.9 176.4 N 22.3 CA 21.94 C 22.8 O 24.84 CB 22.42 CG 22.07 CD1 23.97 CD2 20.94
A SER - 1 -121.9 86.9 N 21.12 CA 22.19 C 21.24 O 22.78 CB 22.5 OG 26.76
A PRO - 8 -76.3 155.3 N 21.88 CA 21.54 C 20.97 O 21.47 CB 24.2 CG 24.45 CD 23.06
A TYR S 94 -59.6 -51.9 N 19.99 CA 22.96 C 22.78 O 19.79 CB 25.05 CG 27.03 CD1 26.42 CD2 29.4 CE1 29.17 CE2 31.06 CZ 30.07 OH 33.57
A ASP S 67 -93.9 72.2 N 23.07 CA 24.45 C 22.49 O 22.87 CB 25.56 CG 32.83 OD1 36.45 OD2 34.49
A ASN - 4 -75.9 146.3 N 22.12 CA 20.39 C 20.65 O 21.53 CB 20.68 CG 23.27 OD1 22.37 ND2 23.26
A ASP - 4 -100.4 124.8 N 22.26 CA 24.73 C 21.81 O 26.95 CB 26.44 CG 31.58 OD1 31.94 OD2 43.02
A LYS S 80 -66.6 -17.9 N 22.4 CA 22.16 C 25.11 O 23.9 CB 23.92 CG 22.26 CD 24.26 CE 23.95 NZ 25.16
A PHE - 26 -91.0 51.1 N 22.4 CA 23.18 C 25.01 O 24.09 CB 22.35 CG 26.02 CD1 25.11 CD2 25.7 CE1 28.75 CE2 26.04 CZ 26.96
A THR - 18 -70.2 144.8 N 26.02 CA 24.25 C 24.99 O 25.23 CB 25.16 OG1 24.71 CG2 25.11
A ARG - 26 -125.8 3.1 N 23.63 CA 23.17 C 22.98 O 23.84 CB 22.52 CG 22.71 CD 23.84 NE 23.45 CZ 23.61 NH1 23.65 NH2 24.23
A PHE - 4 -105.2 106.0 N 22.28 CA 24.57 C 30.04 O 28.7 CB 25.23 CG 25.29 CD1 27.74 CD2 27.89 CE1 27.41 CE2 28.78 CZ 28.43
A ASP - 70 -83.8 -13.6 N 29.87 CA 33.78 C 32.33 O 33.73 CB 37.29 CG 43.67 OD1 44.25 OD2 53.07
A ASP S 68 -121.4 58.1 N 30.01 CA 32.72 C 32.27 O 29.89 CB 35.93 CG 41.81 OD1 40.81 OD2 39.62
A PRO - 26 -64.0 141.5 N 27.39 CA 30.41 C 28.83 O 25.9 CB 28.35 CG 29.39 CD 28.67
A LEU S 19 -67.5 -49.6 N 27.84 CA 27.89 C 29.59 O 28.72 CB 31.01 CG 31.67 CD1 31.53 CD2 32.71
A PHE B 0 -105.8 135.4 N 28.9 CA 24.47 C 24.55 O 23.26 CB 24.56 CG 25.73 CD1 22.52 CD2 25.78 CE1 22.74 CE2 23.74 CZ 25.98
A ASN - 49 -158.1 139.7 N 24.5 CA 26.04 C 25.25 O 25.04 CB 27.32 CG 32.21 OD1 33.93 ND2 36.58
A VAL - 5 -136.6 155.4 N 24.03 CA 25.76 C 25.22 O 26.47 CB 25.57 CG1 25.67 CG2 25.63
A LYS - 83 -51.8 135.8 N 25.74 CA 24.34 C 23.77 O 21.73 CB 28.81 CG 36.19 CD 47.32 CE 48.1 NZ 59.02
A ARG - 46 -121.4 160.3 N 20.45 CA 21.77 C 25.29 O 23.19 CB 21.36 CG 20.66 CD 20.72 NE 20.3 CZ 22.57 NH1 21.66 NH2 20.45
A ASN - 8 -65.2 170.9 N 23.32 CA 22.34 C 21.68 O 20.48 CB 21.95 CG 25.58 OD1 24.59 ND2 26.37
A ILE B 80 -82.4 120.5 N 21.65 CA 22.24 C 20.42 O 19.65 CB 24.7 CG1 27.64 CG2 28.96 CD1 28.28
A SER - 3 -56.4 145.9 N 20.93 CA 19.82 C 20.43 O 19.61 CB 22.1 OG 21.46
A LYS G 12 -58.3 -27.8 N 20.18 CA 21.25 C 22.95 O 24.17 CB 21.07 CG 20.78 CD 23.47 CE 27.48 NZ 27.84
A TYR G 24 -73.6 -11.1 N 25.63 CA 25.34 C 28.59 O 28.33 CB 23.83 CG 25.61 CD1 27.54 CD2 25.58 CE1 28.81 CE2 31.61 CZ 32.09 OH 29.1
A ASP G 90 -98.2 11.9 N 23.54 CA 26.62 C 27.12 O 30.07 CB 27.67 CG 29.18 OD1 32.35 OD2 27.25
A THR S 20 -113.0 156.0 N 26.39 CA 26.46 C 28.37 O 24.22 CB 25.92 OG1 29.35 CG2 26.1
A PRO T 119 -57.4 -46.1 N 27.79 CA 32.07 C 32.2 O 33.79 CB 32.85 CG 31.22 CD 32.32
A SER T 71 -77.8 -13.2 N 31.57 CA 29.27 C 29.99 O 29.89 CB 33.2 OG 38.35
A ARG S 42 58.1 30.7 N 28.83 CA 28.28 C 29.55 O 29.01 CB 29.36 CG 34.06 CD 34.73 NE 34.96 CZ 37.91 NH1 34.39 NH2 38.89
A GLN S 114 -114.7 -39.4 N 31.55 CA 29.24 C 27.67 O 27.06 CB 31.98 CG 39.32 CD 44.82 OE1 46.51 NE2 48.35
A ALA - 36 -143.8 150.9 N 23.69 CA 24.83 C 23.16 O 23.97 CB 27.56
A PRO - 11 -73.4 162.5 N 21.84 CA 21.63 C 22.51 O 21.43 CB 24.07 CG 24.28 CD 24.19
A ILE B 87 -97.8 115.3 N 20.67 CA 23.2 C 23.91 O 24.3 CB 23.47 CG1 23.36 CG2 21.49 CD1 25.12
A PRO - 36 -72.5 147.9 N 24.62 CA 24.46 C 27.78 O 25.67 CB 25.13 CG 24.95 CD 24.83
A ILE - 36 -99.5 153.1 N 24.92 CA 24.27 C 28.3 O 27.66 CB 24.21 CG1 25.04 CG2 27.96 CD1 27.83
A TYR S 159 -115.9 39.1 N 27.2 CA 27.77 C 28.84 O 32.97 CB 28.58 CG 27.47 CD1 31.27 CD2 29.69 CE1 30.37 CE2 28.41 CZ 30.38 OH 29.61
A GLU S 94 -147.0 153.5 N 29.52 CA 30.61 C 27.93 O 28.39 CB 31.75 CG 33.8 CD 35.07 OE1 38.77 OE2 33.47
A GLY S 2 91.9 173.0 N 25.25 CA 28.42 C 25.27 O 26.33
A LEU H 0 -57.0 -50.2 N 24.97 CA 24.68 C 24.03 O 25.48 CB 23.32 CG 23.26 CD1 24.95 CD2 22.87
A GLY H 2 -63.1 -47.0 N 24.51 CA 21.45 C 21.84 O 24.4
A TYR H 46 -63.7 -42.8 N 23.04 CA 24.23 C 24.2 O 24.84 CB 24.74 CG 27.03 CD1 28.3 CD2 28.49 CE1 31.72 CE2 30.48 CZ 30.44 OH 39.42
A ARG H 70 -64.1 -41.5 N 22.6 CA 25.64 C 26.61 O 23.27 CB 25.47 CG 26.02 CD 29.65 NE 31.18 CZ 33.77 NH1 35.09 NH2 36.06
A LEU H 0 -58.1 -56.0 N 25.9 CA 24.26 C 25.83 O 25.45 CB 23.99 CG 24.67 CD1 23.83 CD2 25.09
A ARG H 21 -58.9 -54.2 N 24.32 CA 27.32 C 28.72 O 28.0 CB 23.14 CG 24.02 CD 24.18 NE 24.15 CZ 29.52 NH1 27.17 NH2 31.96
A SER H 32 -70.7 -19.7 N 26.19 CA 26.36 C 28.4 O 30.85 CB 25.0 OG 27.33
A THR H 34 -82.8 -44.1 N 28.62 CA 30.45 C 30.66 O 29.6 CB 31.13 OG1 27.87 CG2 33.83
A LEU H 0 -67.9 -36.9 N 32.26 CA 30.9 C 31.67 O 34.23 CB 30.3 CG 31.65 CD1 31.78 CD2 31.9
A PHE S 16 -139.4 96.5 N 31.52 CA 31.33 C 29.56 O 32.68 CB 28.45 CG 30.38 CD1 37.42 CD2 32.14 CE1 36.78 CE2 39.91 CZ 34.97
A PRO - 31 -84.1 170.0 N 33.25 CA 35.45 C 43.49 O 39.98 CB 37.12 CG 37.73 CD 37.2
A GLU T 168 -57.3 -32.9 N 42.61 CA 54.11 C 48.75 O 55.88 CB 64.33 CG 77.52 CD 92.32 OE1 95.13 OE2 95.16
A ASP T 108 -71.0 0.9 N 55.47 CA 58.35 C 65.51 O 67.36 CB 54.87 CG 60.71 OD1 64.06 OD2 60.92
A LYS - 114 63.9 21.8 N 52.85 CA 50.33 C 43.17 O 45.43 CB 55.84 CG 56.51 CD 55.27 CE 54.37 NZ 54.31
A THR - 72 -71.1 115.1 N 44.4 CA 42.97 C 49.8 O 45.35 CB 50.19 OG1 60.7 CG2 50.0
A PRO - 59 -61.4 146.3 N 46.81 CA 39.61 C 39.69 O 43.33 CB 45.84 CG 42.46 CD 45.0
A THR E 2 -94.6 118.7 N 36.43 CA 33.86 C 39.81 O 35.56 CB 33.51 OG1 36.26 CG2 32.53
A PRO E 60 -72.9 142.3 N 40.39 CA 44.36 C 36.44 O 43.98 CB 43.98 CG 45.8 CD 43.09
A ILE - 17 -111.6 106.3 N 35.1 CA 35.21 C 40.92 O 39.48 CB 33.33 CG1 37.04 CG2 36.37 CD1 35.17
A ASN - 74 -109.1 65.0 N 41.13 CA 41.48 C 37.43 O 43.99 CB 40.45 CG 40.89 OD1 40.4 ND2 40.68
A LYS - 103 -86.7 126.1 N 33.46 CA 39.53 C 41.3 O 42.41 CB 38.94 CG 41.56 CD 42.49 CE 47.48 NZ 53.46
A LYS - 80 -123.3 146.4 N 41.93 CA 47.56 C 48.41 O 47.26 CB 54.37 CG 57.79 CD 68.79 CE 73.7 NZ 78.34
A SER - 38 -56.5 161.8 N 49.94 CA 45.32 C 40.33 O 40.89 CB 49.72 OG 50.54
A LEU H 51 -56.7 -47.8 N 45.39 CA 47.04 C 52.16 O 50.84 CB 53.62 CG 58.06 CD1 60.57 CD2 57.61
A ARG H 29 -58.8 -48.2 N 52.68 CA 47.77 C 45.9 O 49.09 CB 54.73 CG 56.24 CD 59.51 NE 62.96 CZ 68.52 NH1 75.28 NH2 64.18
A ASP H 68 -66.8 -31.3 N 42.19 CA 46.94 C 47.51 O 47.92 CB 54.21 CG 63.05 OD1 86.98 OD2 63.39
A LYS H 48 -66.9 -54.3 N 50.62 CA 58.39 C 56.29 O 52.72 CB 72.48 CG 86.22 CD 93.33 CE 103.07 NZ 109.7
A VAL H 0 -50.7 -47.4 N 56.51 CA 55.53 C 53.82 O 54.75 CB 61.08 CG1 62.79 CG2 56.77
A LYS H 41 -64.4 -46.6 N 53.55 CA 57.03 C 62.89 O 65.67 CB 55.27 CG 53.7 CD 52.03 CE 53.63 NZ 53.2
A SER H 53 -56.6 -47.9 N 69.44 CA 75.66 C 69.01 O 71.21 CB 74.75 OG 81.44
A THR H 39 -61.7 -45.6 N 73.93 CA 77.72 C 84.08 O 85.89 CB 80.64 OG1 82.65 CG2 82.23
A VAL H 3 -62.0 -47.0 N 72.77 CA 70.85 C 77.22 O 89.09 CB 70.13 CG1 70.87 CG2 65.41
A LEU H 58 -68.4 -14.8 N 80.66 CA 79.66 C 81.75 O 90.05 CB 79.22 CG 76.09 CD1 70.82 CD2 75.77
A SER T 84 -68.9 -19.4 N 90.01 CA 92.31 C 101.59 O 112.33 CB 90.98 OG 89.93
A HIS T 137 -97.9 15.1 N 96.29 CA 85.47 C 79.13 O 78.66 CB 79.99 CG 85.83 ND1 95.39 CD2 83.92 CE1 83.95 NE2 85.78
A TYR S 32 -133.1 175.0 N 82.1 CA 81.7 C 83.5 O 92.26 CB 88.33 CG 93.64 CD1 90.2 CD2 98.09 CE1 91.84 CE2 91.65 CZ 91.79 OH 91.79
A LYS - 145 -136.0 163.4 N 87.08 CA 93.0 C 90.98 O 92.47 CB 106.36 CG 112.07 CD 115.09 CE 121.0 NZ 121.51
A ASP T 124 -49.9 -28.8 N 92.63 CA 92.94 C 98.21 O 100.86 CB 92.74 CG 94.28 OD1 92.56 OD2 101.56
A GLU T 135 -83.6 -19.1 N 109.26 CA 115.97 C 113.63 O 102.34 CB 115.1 CG 109.4 CD 110.51 OE1 109.69 OE2 104.95
A ASP - 69 -57.5 136.0 N 106.34 CA 100.08 C 102.4 O 107.27 CB 97.62 CG 95.25 OD1 91.66 OD2 97.02
A ARG B 71 -132.2 160.2 N 99.39 CA 98.97 C 96.67 O 98.51 CB 100.01 CG 102.44 CD 102.68 NE 97.39 CZ 103.31 NH1 100.45 NH2 91.84
A ILE S 2 -95.5 92.7 N 110.64 CA 123.85 C 130.06 O 121.4 CB 124.65 CG1 118.94 CG2 127.59 CD1 117.38
A ASP - 57 -162.3 -177.6 N 135.33 CA 131.68 C 129.28 O 116.68 CB 123.77 CG 117.89 OD1 109.73 OD2 109.97
A GLY S 50 68.6 -170.2 N 129.25 CA 132.27 C 135.69 O 145.5
A GLU T 183 -69.3 -24.5 N 134.15 CA 129.58 C 125.34 O 119.64 CB 128.2 CG 124.82 CD 120.61 OE1 109.92 OE2 116.45
A LYS T 118 -100.0 28.9 N 120.69 CA 119.27 C 118.21 O 113.31 CB 116.54 CG 118.29 CD 118.31 CE 121.94 NZ 126.77
A LYS H 72 -59.8 -34.8 N 120.95 CA 120.38 C 122.88 O 127.86 CB 116.33 CG 112.44 CD 113.52 CE 114.06 NZ 113.17
A ASP H 83 -76.5 -35.3 N 114.62 CA 107.95 C 104.68 O 103.09 CB 108.76 CG 110.53 OD1 109.55 OD2 115.16
A GLU H 130 -63.1 -45.3 N 107.78 CA 116.9 C 115.25 O 102.42 CB 117.18 CG 120.92 CD 126.24 OE1 132.67 OE2 122.71
A LYS H 74 -61.0 -43.5 N 115.52 CA 117.54 C 118.4 O 122.67 CB 116.68 CG 113.4 CD 110.53 CE 106.41 NZ 102.34
A LEU H 2 -63.2 -41.2 N 105.81 CA 90.8 C 85.23 O 95.6 CB 84.66 CG 84.7 CD1 83.43 CD2 80.25
A ASN H 91 -63.0 -40.1 N 83.4 CA 83.25 C 80.04 O 82.76 CB 80.29 CG 84.77 OD1 92.42 ND2 87.92
A GLU H 118 -62.8 -44.6 N 85.57 CA 85.35 C 83.84 O 85.71 CB 92.06 CG 93.6 CD 97.86 OE1 95.21 OE2 93.34
A LEU H 0 -58.7 -50.4 N 83.04 CA 79.67 C 78.12 O 82.94 CB 84.94 CG 85.17 CD1 80.93 CD2 77.58
A ILE H 7 -57.6 -46.2 N 77.51 CA 77.59 C 77.56 O 76.44 CB 79.98 CG1 79.91 CG2 79.37 CD1 82.3
A THR H 72 -61.0 -49.0 N 78.43 CA 80.21 C 76.48 O 82.31 CB 77.84 OG1 78.9 CG2 77.21
A ASN H 49 -58.4 -47.1 N 80.35 CA 80.41 C 77.91 O 68.01 CB 82.61 CG 85.85 OD1 90.58 ND2 82.02
A LEU H 0 -61.2 -46.1 N 77.11 CA 74.43 C 68.14 O 71.5 CB 73.81 CG 73.58 CD1 69.75 CD2 74.5
A GLN H 48 -59.9 -48.1 N 65.69 CA 63.77 C 58.42 O 58.87 CB 60.51 CG 64.22 CD 64.18 OE1 64.77 NE2 59.46
A ASN H 88 -57.4 -46.8 N 68.18 CA 71.96 C 69.19 O 65.21 CB 72.02 CG 70.8 OD1 71.1 ND2 73.38
A GLU H 29 -64.9 -39.7 N 73.29 CA 77.01 C 69.1 O 65.42 CB 83.41 CG 91.66 CD 96.26 OE1 86.56 OE2 98.77
A LEU H 0 -66.8 -47.5 N 69.38 CA 60.79 C 58.33 O 60.73 CB 59.72 CG 58.07 CD1 58.74 CD2 61.85
A VAL H 27 -71.7 -31.4 N 67.21 CA 68.56 C 69.25 O 67.71 CB 76.21 CG1 78.42 CG2 77.79
A LYS H 115 -57.1 -47.9 N 71.32 CA 77.23 C 74.74 O 68.66 CB 82.01 CG 90.28 CD 91.79 CE 94.32 NZ 95.89
A GLU H 30 -69.8 -32.4 N 74.37 CA 68.61 C 67.61 O 65.39 CB 74.06 CG 82.71 CD 95.93 OE1 92.8 OE2 106.55
A LEU H 10 -77.8 -35.6 N 74.16 CA 78.16 C 83.25 O 77.27 CB 82.16 CG 83.11 CD1 81.4 CD2 82.83
A VAL H 56 -66.9 -23.4 N 85.83 CA 93.84 C 94.15 O 92.67 CB 89.51 CG1 86.46 CG2 84.45
A LYS T 126 -50.3 -41.5 N 103.19 CA 101.76 C 100.68 O 100.43 CB 96.93 CG 98.26 CD 94.51 CE 100.64 NZ 107.26
A SER T 69 -93.0 -33.8 N 101.93 CA 103.49 C 108.8 O 108.6 CB 97.96 OG 97.54
A ASP - 46 -156.5 120.8 N 108.37 CA 110.07 C 114.92 O 123.79 CB 110.88 CG 113.89 OD1 110.64 OD2 114.27
A PRO G 98 -66.4 -22.5 N 119.21 CA 112.48 C 106.44 O 102.32 CB 110.09 CG 114.34 CD 116.7
A GLN G 88 -49.5 -41.3 N 103.5 CA 98.63 C 93.71 O 91.75 CB 104.65 CG 110.5 CD 114.97 OE1 119.16 NE2 109.6
A TYR G 32 -63.6 -4.1 N 79.63 CA 77.62 C 81.23 O 80.09 CB 77.19 CG 73.12 CD1 72.89 CD2 72.11 CE1 70.54 CE2 66.0 CZ 65.87 OH 65.32
A SER G 73 -63.3 -16.6 N 88.76 CA 86.42 C 89.01 O 92.75 CB 80.67 OG 80.96
A LYS G 127 -97.4 6.3 N 92.58 CA 87.07 C 81.72 O 82.58 CB 90.63 CG 96.15 CD 97.11 CE 106.19 NZ 110.1
A LEU - 6 -70.2 136.8 N 80.67 CA 77.88 C 75.42 O 72.37 CB 85.25 CG 88.26 CD1 89.56 CD2 95.72
A SER - 49 -131.3 146.2 N 68.29 CA 69.14 C 72.27 O 65.7 CB 73.12 OG 70.35
A LEU S 0 -110.8 8.8 N 71.31 CA 75.17 C 73.81 O 69.85 CB 72.97 CG 75.55 CD1 77.33 CD2 73.85
A SER S 56 -80.8 -16.6 N 77.53 CA 79.19 C 73.52 O 75.46 CB 79.09 OG 80.01
A LYS B 110 -141.7 146.5 N 74.04 CA 73.46 C 67.33 O 70.43 CB 76.02 CG 80.49 CD 83.68 CE 81.36 NZ 85.09
A ASP - 11 -76.8 177.3 N 61.6 CA 60.8 C 60.24 O 64.59 CB 57.51 CG 63.61 OD1 68.8 OD2 66.21
A PRO T 27 -68.8 -17.0 N 58.05 CA 57.69 C 57.72 O 57.13 CB 55.39 CG 57.51 CD 58.01
A ARG T 49 -86.4 -2.8 N 59.36 CA 58.66 C 66.16 O 71.92 CB 54.98 CG 53.08 CD 57.0 NE 59.1 CZ 62.18 NH1 60.63 NH2 60.89
A GLY - 41 88.6 1.8 N 65.32 CA 67.45 C 69.36 O 67.86
A LYS - 58 -65.4 128.2 N 68.09 CA 67.75 C 72.33 O 70.03 CB 70.54 CG 72.99 CD 78.38 CE 81.63 NZ 82.85
A GLU B 115 -67.2 130.5 N 78.39 CA 78.48 C 78.51 O 77.07 CB 87.97 CG 95.07 CD 98.82 OE1 100.99 OE2 99.28
A ILE - 5 -82.9 104.9 N 75.75 CA 72.14 C 67.21 O 71.98 CB 67.74 CG1 63.4 CG2 67.31 CD1 59.85
A ASN - 43 -142.6 178.1 N 70.16 CA 73.25 C 73.74 O 73.65 CB 72.76 CG 74.12 OD1 72.11 ND2 75.65
A TYR H 25 -59.7 -51.1 N 69.32 CA 69.36 C 74.37 O 75.75 CB 79.69 CG 84.11 CD1 86.01 CD2 91.05 CE1 90.79 CE2 95.82 CZ 90.37 OH 98.49
A ASP H 90 -55.5 -41.5 N 75.04 CA 68.76 C 64.45 O 65.86 CB 72.44 CG 70.51 OD1 82.3 OD2 74.3
A TYR I 20 -64.6 -48.7 N 62.26 CA 64.04 C 62.94 O 60.57 CB 62.2 CG 65.11 CD1 65.48 CD2 72.8 CE1 67.48 CE2 68.9 CZ 67.55 OH 78.58
A LEU I 0 -70.9 -33.1 N 67.76 CA 69.7 C 72.69 O 67.49 CB 75.35 CG 73.56 CD1 75.17 CD2 70.45
A VAL I 19 -91.5 -44.9 N 74.39 CA 77.37 C 77.58 O 77.95 CB 75.64 CG1 78.11 CG2 76.31
A ASN I 95 -98.5 -33.9 N 80.43 CA 81.78 C 82.01 O 77.26 CB 81.29 CG 75.87 OD1 75.71 ND2 78.6
A SER I 55 -86.8 -60.3 N 81.12 CA 81.39 C 80.09 O 79.1 CB 82.84 OG 91.56
A LEU S 11 -78.0 -26.5 N 75.62 CA 70.41 C 65.63 O 64.92 CB 67.66 CG 68.81 CD1 69.2 CD2 72.99
A MET - 95 63.5 38.0 N 59.83 CA 58.8 C 65.0 O 63.03 CB 61.13 CG 57.35 SD 52.85 CE 50.15
A LEU - 10 -94.4 -29.0 N 64.72 CA 71.16 C 74.17 O 76.23 CB 66.53 CG 67.91 CD1 62.75 CD2 64.09
A VAL - 2 -140.8 178.2 N 68.8 CA 68.68 C 75.8 O 71.25 CB 70.59 CG1 67.83 CG2 71.76
A ASP - 21 -150.8 -170.1 N 83.7 CA 93.86 C 97.76 O 99.84 CB 95.24 CG 100.01 OD1 100.25 OD2 82.74
A ASN T 85 -62.8 -28.0 N 107.24 CA 110.81 C 118.06 O 110.81 CB 109.75 CG 100.33 OD1 87.28 ND2 102.8
A ASP T 67 -94.8 4.1 N 126.23 CA 132.24 C 123.3 O 128.21 CB 138.22 CG 144.12 OD1 145.3 OD2 149.06
A SER S 0 -68.9 146.0 N 108.23 CA 90.39 C 90.87 O 83.82 CB 85.61 OG 72.31
A GLU B 72 -69.9 156.7 N 79.74 CA 82.12 C 80.46 O 81.78 CB 85.47 CG 85.3 CD 88.04 OE1 83.53 OE2 93.43
A ILE H 8 -57.4 -36.9 N 73.83 CA 81.29 C 83.61 O 89.13 CB 78.55 CG1 88.74 CG2 81.76 CD1 92.88
A GLY H 8 -63.2 -34.1 N 81.31 CA 68.21 C 56.48 O 55.74
A ASP H 22 -68.7 -33.9 N 67.98 CA 64.92 C 65.07 O 60.66 CB 71.52 CG 79.46 OD1 69.49 OD2 77.5
A TRP H 0 -66.1 -44.1 N 64.3 CA 66.67 C 58.43 O 56.17 CB 73.37 CG 83.01 CD1 93.55 CD2 93.07 NE1 97.48 CE2 94.69 CE3 97.69 CZ2 95.14 CZ3 97.33 CH2 96.32
A ILE H 0 -57.5 -49.9 N 57.72 CA 50.66 C 51.49 O 53.35 CB 54.33 CG1 58.74 CG2 49.77 CD1 63.27
A ASP H 27 -53.7 -47.6 N 50.3 CA 51.68 C 53.54 O 54.65 CB 53.31 CG 59.27 OD1 52.31 OD2 59.87
A THR H 2 -66.0 -44.5 N 57.59 CA 55.38 C 52.18 O 49.91 CB 58.05 OG1 68.01 CG2 54.92
A ILE H 0 -57.6 -46.6 N 49.64 CA 51.67 C 56.7 O 54.49 CB 53.76 CG1 59.1 CG2 56.51 CD1 66.34
A LEU H 1 -65.5 -44.0 N 52.52 CA 52.6 C 49.74 O 50.74 CB 53.72 CG 52.14 CD1 57.11 CD2 49.82
A ASP H 12 -62.4 -31.6 N 52.13 CA 58.3 C 58.93 O 58.23 CB 64.5 CG 70.23 OD1 60.01 OD2 75.67
A ALA H 15 -76.9 -21.3 N 52.19 CA 57.69 C 61.54 O 67.45 CB 57.36
A THR H 14 -128.5 -17.2 N 60.92 CA 57.64 C 56.75 O 53.45 CB 60.78 OG1 62.36 CG2 62.07
A VAL - 2 -111.4 129.1 N 54.43 CA 49.39 C 48.33 O 50.79 CB 57.86 CG1 55.05 CG2 52.16
A ASP - 24 -70.2 146.7 N 46.16 CA 53.09 C 53.11 O 47.16 CB 59.37 CG 76.69 OD1 93.19 OD2 94.55
A SER G 23 -59.6 -26.9 N 51.97 CA 61.51 C 58.59 O 56.4 CB 63.92 OG 70.65
A THR G 69 -61.5 -25.1 N 60.94 CA 57.34 C 57.43 O 55.01 CB 57.8 OG1 54.5 CG2 58.41
A VAL G 6 -71.0 -17.7 N 50.07 CA 53.98 C 56.15 O 51.29 CB 55.0 CG1 63.95 CG2 54.32
A TRP G 17 -92.2 -0.5 N 55.65 CA 59.54 C 57.36 O 59.12 CB 59.61 CG 60.18 CD1 59.01 CD2 60.11 NE1 61.19 CE2 61.23 CE3 60.2 CZ2 59.43 CZ3 58.19 CH2 58.2
A VAL - 101 -63.5 118.9 N 61.9 CA 62.78 C 67.51 O 62.47 CB 65.91 CG1 61.75 CG2 68.57
A ALA - 54 -69.6 146.2 N 75.6 CA 75.73 C 73.21 O 64.1 CB 71.14
A GLN - 130 -61.0 150.9 N 78.39 CA 80.38 C 74.59 O 63.28 CB 84.4 CG 93.54 CD 100.76 OE1 86.33 NE2 102.69
A ALA - 95 -56.3 150.2 N 71.93 CA 66.98 C 49.54 O 46.24 CB 65.22
A SER - 81 -69.5 142.7 N 47.68 CA 51.36 C 44.59 O 45.54 CB 62.72 OG 71.27
A SER - 25 -72.6 146.8 N 40.54 CA 38.2 C 35.78 O 36.42 CB 38.44 OG 35.54
A PRO T 9 -54.4 -27.0 N 32.93 CA 31.56 C 29.87 O 32.82 CB 30.12 CG 32.11 CD 33.4
A PHE T 2 -67.0 -23.2 N 29.41 CA 31.42 C 34.53 O 31.65 CB 30.94 CG 29.18 CD1 28.44 CD2 32.71 CE1 29.01 CE2 29.7 CZ 28.48
A TYR - 16 -117.9 94.5 N 33.49 CA 36.2 C 36.88 O 42.04 CB 32.68 CG 32.99 CD1 32.86 CD2 30.24 CE1 35.5 CE2 32.28 CZ 34.28 OH 34.51
A ASP S 74 -100.9 10.5 N 38.03 CA 38.4 C 39.62 O 34.34 CB 40.94 CG 44.16 OD1 39.74 OD2 45.91
A GLY S 34 102.9 -11.8 N 40.59 CA 41.12 C 43.52 O 37.98
A ALA - 20 -70.3 157.1 N 42.58 CA 39.03 C 34.96 O 32.37 CB 38.34
A LYS S 84 -95.5 -21.4 N 36.33 CA 44.61 C 37.25 O 36.31 CB 47.85 CG 60.54 CD 64.18 CE 64.32 NZ 49.69
A GLU E 84 -159.0 164.6 N 35.64 CA 32.83 C 34.63 O 31.3 CB 37.15 CG 40.25 CD 44.97 OE1 54.15 OE2 53.23
A ILE E 1 -100.4 104.4 N 32.2 CA 32.49 C 28.72 O 32.81 CB 33.18 CG1 34.0 CG2 34.08 CD1 34.08
A SER - 39 -123.4 22.0 N 31.37 CA 33.14 C 35.35 O 32.17 CB 38.85 OG 41.75
A SER S 39 -158.9 166.0 N 31.26 CA 29.26 C 29.97 O 25.34 CB 32.29 OG 31.16
A ASP H 98 -60.7 -40.1 N 28.8 CA 32.48 C 31.87 O 26.04 CB 35.61 CG 39.89 OD1 37.69 OD2 47.46
A ARG H 205 -59.7 -46.7 N 29.73 CA 34.31 C 32.47 O 27.69 CB 41.46 CG 56.74 CD 70.93 NE 81.62 CZ 93.65 NH1 100.43 NH2 105.86
A ASP H 30 -59.8 -47.7 N 29.11 CA 28.22 C 25.78 O 24.8 CB 33.4 CG 41.25 OD1 41.38 OD2 41.0
A ALA H 0 -60.3 -41.2 N 24.98 CA 27.0 C 25.92 O 25.83 CB 27.89
A ASP H 32 -55.5 -50.3 N 25.4 CA 26.5 C 26.26 O 24.45 CB 28.18 CG 31.87 OD1 27.17 OD2 32.85
A LYS H 117 -53.6 -46.0 N 29.1 CA 29.66 C 27.76 O 27.98 CB 33.94 CG 37.66 CD 43.48 CE 45.3 NZ 49.87
A ILE H 8 -73.1 -39.3 N 27.13 CA 25.72 C 22.48 O 23.09 CB 28.12 CG1 34.74 CG2 26.8 CD1 37.98
A SER H 0 -48.8 -50.7 N 21.95 CA 23.16 C 21.52 O 23.44 CB 22.91 OG 24.38
A ILE H 7 -61.5 -39.2 N 23.83 CA 21.44 C 23.76 O 21.54 CB 23.26 CG1 26.73 CG2 23.33 CD1 34.16
A ARG H 20 -63.4 -41.7 N 23.94 CA 22.63 C 24.17 O 26.01 CB 26.93 CG 25.72 CD 32.43 NE 31.77 CZ 37.07 NH1 36.52 NH2 37.26
A VAL H 0 -61.3 -47.6 N 23.82 CA 24.29 C 24.8 O 24.78 CB 25.78 CG1 27.89 CG2 25.34
A GLN H 0 -56.2 -45.2 N 23.73 CA 23.56 C 26.24 O 26.48 CB 22.26 CG 21.73 CD 24.89 OE1 24.38 NE2 22.88
A TYR H 1 -59.6 -39.4 N 26.27 CA 25.26 C 26.4 O 24.29 CB 24.4 CG 30.1 CD1 27.94 CD2 28.84 CE1 31.18 CE2 30.0 CZ 33.21 OH 32.1
A LEU H 0 -64.0 -43.0 N 27.49 CA 24.56 C 26.4 O 26.41 CB 25.6 CG 29.68 CD1 29.9 CD2 29.94
A LEU H 0 -61.1 -39.0 N 25.73 CA 26.96 C 24.49 O 26.37 CB 27.27 CG 29.45 CD1 28.51 CD2 32.96
A ALA H 0 -66.4 -44.1 N 25.94 CA 25.9 C 25.46 O 24.18 CB 26.87
A GLU H 6 -61.1 -36.8 N 24.25 CA 25.55 C 28.7 O 27.36 CB 26.45 CG 33.18 CD 33.31 OE1 35.33 OE2 34.09
A ALA H 0 -63.5 -42.0 N 28.56 CA 29.2 C 30.62 O 32.22 CB 30.46
A ASN H 0 -59.6 -45.5 N 28.72 CA 27.85 C 27.49 O 28.06 CB 26.81 CG 26.97 OD1 28.55 ND2 24.27
A ILE H 10 -60.0 -50.2 N 28.66 CA 27.89 C 28.63 O 30.66 CB 26.61 CG1 28.32 CG2 28.2 CD1 33.53
A TYR H 29 -53.9 -40.8 N 29.69 CA 30.23 C 31.45 O 35.02 CB 33.25 CG 36.23 CD1 40.89 CD2 39.03 CE1 44.24 CE2 40.73 CZ 44.27 OH 46.76
A CYS H 0 -71.1 -41.6 N 30.33 CA 28.88 C 33.06 O 31.41 CB 28.96 SG 18.82
A LYS H 51 -65.0 -46.7 N 31.89 CA 32.58 C 32.38 O 35.81 CB 33.95 CG 33.88 CD 37.08 CE 38.26 NZ 38.02
A THR H 14 -74.3 -25.2 N 33.05 CA 34.01 C 39.74 O 34.26 CB 33.27 OG1 33.97 CG2 35.11
A ASN T 55 -93.5 7.3 N 38.56 CA 40.43 C 40.6 O 41.53 CB 35.28 CG 37.91 OD1 40.48 ND2 34.09
A LYS T 129 61.2 27.7 N 41.38 CA 43.78 C 43.61 O 38.43 CB 51.9 CG 57.2 CD 61.52 CE 75.35 NZ 76.02
A LEU S 60 -82.4 -29.6 N 40.57 CA 37.87 C 41.68 O 39.76 CB 37.66 CG 41.29 CD1 41.67 CD2 44.64
A SER - 5 -162.5 156.5 N 37.98 CA 37.28 C 37.5 O 37.2 CB 40.42 OG 36.59
A ASP - 116 -113.7 6.3 N 37.38 CA 40.78 C 34.48 O 37.37 CB 47.89 CG 52.99 OD1 47.99 OD2 55.76
A ALA - 33 -72.3 154.2 N 33.59 CA 34.44 C 33.78 O 32.99 CB 34.6
A ASN - 43 -87.2 103.8 N 31.29 CA 28.24 C 28.71 O 26.64 CB 28.58 CG 28.39 OD1 24.22 ND2 29.52
A PHE H 0 -59.1 -26.5 N 28.02 CA 30.25 C 32.67 O 30.54 CB 29.8 CG 31.78 CD1 31.96 CD2 31.93 CE1 34.66 CE2 34.38 CZ 32.19
A GLY H 0 -66.8 -27.7 N 32.4 CA 32.43 C 31.68 O 32.54
A GLU H 119 -65.9 -41.5 N 33.0 CA 33.99 C 32.45 O 34.07 CB 42.61 CG 45.61 CD 54.75 OE1 57.2 OE2 58.44
A PHE H 10 -67.8 -52.0 N 29.56 CA 30.49 C 30.51 O 30.41 CB 34.48 CG 40.34 CD1 41.85 CD2 43.98 CE1 39.52 CE2 41.45 CZ 40.4
A PHE H 0 -67.6 -18.0 N 29.84 CA 29.37 C 30.81 O 31.83 CB 29.23 CG 31.13 CD1 33.41 CD2 32.01 CE1 35.04 CE2 34.98 CZ 37.03
A ASP H 15 -77.9 -24.4 N 29.91 CA 29.16 C 34.21 O 30.13 CB 31.15 CG 30.41 OD1 27.7 OD2 28.44
A LYS S 100 -78.4 149.5 N 31.94 CA 35.29 C 33.31 O 32.78 CB 41.48 CG 49.06 CD 55.35 CE 59.14 NZ 56.94
A GLU T 85 -76.4 146.4 N 35.56 CA 37.08 C 38.21 O 37.06 CB 35.08 CG 37.78 CD 42.33 OE1 38.72 OE2 37.4
A PRO T 84 -87.2 2.8 N 35.6 CA 34.03 C 31.48 O 32.35 CB 37.5 CG 38.05 CD 37.83
A HIS H 20 -62.2 -40.2 N 30.24 CA 34.11 C 32.34 O 34.13 CB 33.05 CG 39.85 ND1 46.45 CD2 41.54 CE1 44.45 NE2 42.65
A ALA H 0 -61.0 -50.1 N 29.01 CA 30.4 C 29.4 O 28.34 CB 28.4
A THR H 54 -60.5 -42.4 N 32.27 CA 30.21 C 31.27 O 33.65 CB 31.98 OG1 27.86 CG2 31.94
A GLU H 55 -71.5 -41.9 N 32.44 CA 37.1 C 35.68 O 36.47 CB 39.69 CG 47.18 CD 52.2 OE1 43.97 OE2 53.65
A ILE H 0 -64.5 -36.9 N 31.58 CA 28.74 C 29.93 O 26.1 CB 33.16 CG1 35.31 CG2 34.42 CD1 41.2
A ALA H 0 -67.8 -38.8 N 26.33 CA 26.39 C 28.71 O 26.45 CB 26.88
A LYS H 102 -65.1 -44.7 N 31.83 CA 34.04 C 34.84 O 33.12 CB 37.5 CG 47.06 CD 50.04 CE 56.85 NZ 57.91
A ARG H 91 -63.9 -40.5 N 32.2 CA 36.32 C 35.63 O 34.15 CB 34.21 CG 35.4 CD 37.74 NE 39.92 CZ 45.13 NH1 48.06 NH2 47.56
A VAL H 0 -65.8 -43.5 N 31.53 CA 29.73 C 29.09 O 32.5 CB 30.36 CG1 29.58 CG2 30.27
A LYS H 78 -57.1 -47.0 N 29.1 CA 30.69 C 33.74 O 33.27 CB 31.92 CG 36.43 CD 41.84 CE 50.97 NZ 58.61
A GLU H 88 -60.6 -38.5 N 34.75 CA 39.9 C 42.14 O 38.94 CB 42.23 CG 51.79 CD 69.3 OE1 75.58 OE2 71.15
A GLY H 1 -54.9 -48.2 N 40.79 CA 34.45 C 35.05 O 32.3
A PHE H 0 -61.8 -43.8 N 29.87 CA 32.38 C 37.12 O 33.61 CB 34.44 CG 32.23 CD1 36.48 CD2 34.58 CE1 37.67 CE2 33.11 CZ 33.72
A THR H 45 -67.2 -25.2 N 36.61 CA 41.81 C 38.56 O 46.94 CB 40.76 OG1 49.0 CG2 37.11
A GLN T 114 -90.5 -4.2 N 38.27 CA 42.07 C 43.96 O 43.93 CB 44.19 CG 48.92 CD 58.95 OE1 67.13 NE2 69.86
A GLY T 5 60.4 22.8 N 41.7 CA 35.05 C 35.92 O 35.58
A ALA - 19 -72.3 160.7 N 35.15 CA 33.27 C 34.81 O 34.89 CB 34.94
A ASP - 89 -63.4 127.4 N 35.53 CA 38.71 C 32.52 O 29.74 CB 38.87 CG 48.68 OD1 49.57 OD2 48.04
A ILE H 0 -80.3 -45.5 N 31.48 CA 31.45 C 28.4 O 35.76 CB 34.88 CG1 36.83 CG2 36.64 CD1 37.18
A GLU H 13 -50.2 -44.3 N 29.01 CA 30.91 C 32.92 O 32.01 CB 34.64 CG 35.15 CD 39.59 OE1 35.19 OE2 39.96
A PRO H 45 -71.2 -22.1 N 37.85 CA 34.33 C 35.1 O 32.38 CB 35.79 CG 37.46 CD 37.54
A ILE H 33 -58.3 -44.4 N 32.45 CA 33.7 C 34.16 O 33.77 CB 35.72 CG1 40.1 CG2 37.66 CD1 37.39
A ILE H 0 -66.2 -47.4 N 37.82 CA 31.63 C 31.19 O 31.32 CB 32.02 CG1 34.63 CG2 31.86 CD1 32.01
A TYR H 3 -59.8 -39.2 N 32.04 CA 30.93 C 32.93 O 33.43 CB 34.03 CG 33.09 CD1 32.27 CD2 31.91 CE1 34.32 CE2 34.65 CZ 34.27 OH 33.87
A ASP H 86 -66.2 -38.3 N 34.97 CA 40.62 C 37.71 O 35.09 CB 43.14 CG 53.27 OD1 60.96 OD2 65.86
A TYR H 14 -70.2 -40.5 N 32.72 CA 34.79 C 34.26 O 36.94 CB 37.69 CG 35.59 CD1 38.94 CD2 38.79 CE1 38.88 CE2 37.78 CZ 36.25 OH 34.33
A ILE H 0 -59.4 -47.0 N 32.93 CA 32.47 C 34.63 O 34.98 CB 30.11 CG1 34.45 CG2 31.96 CD1 31.61
A ASN H 27 -66.6 -36.3 N 36.99 CA 40.58 C 40.93 O 40.99 CB 39.22 CG 40.01 OD1 40.36 ND2 42.19
A SER H 91 -61.6 -22.3 N 43.54 CA 40.57 C 43.31 O 46.77 CB 46.65 OG 47.93
A ASN T 33 -123.0 25.6 N 42.68 CA 40.91 C 42.04 O 36.59 CB 41.5 CG 38.27 OD1 39.43 ND2 33.92
A HIS T 50 -56.7 -41.3 N 42.09 CA 38.77 C 41.79 O 37.42 CB 40.25 CG 44.76 ND1 46.32 CD2 44.33 CE1 42.0 NE2 44.32
A ALA T 72 -71.0 -38.2 N 40.47 CA 44.18 C 42.24 O 41.05 CB 45.64
A GLU T 118 -66.6 -23.4 N 39.39 CA 40.12 C 38.49 O 37.21 CB 43.62 CG 46.21 CD 54.75 OE1 58.2 OE2 49.64
A LEU T 2 -88.6 8.4 N 35.95 CA 35.91 C 39.05 O 39.76 CB 33.87 CG 32.69 CD1 32.06 CD2 32.82
A GLY T 44 85.1 11.2 N 37.7 CA 35.36 C 38.67 O 42.08
A LEU - 8 -97.0 141.8 N 37.1 CA 39.77 C 43.87 O 44.37 CB 41.61 CG 43.21 CD1 44.74 CD2 42.88
A LYS S 194 -74.6 -40.9 N 44.91 CA 52.42 C 52.98 O 50.46 CB 63.62 CG 79.15 CD 95.27 CE 95.34 NZ 101.5
A SER S 68 -126.8 159.9 N 48.92 CA 49.03 C 51.59 O 46.31 CB 52.01 OG 57.56
A PRO - 65 -64.9 160.2 N 47.03 CA 46.19 C 50.2 O 50.46 CB 44.73 CG 44.16 CD 46.55
A LEU - 7 -75.5 132.3 N 45.43 CA 42.69 C 42.52 O 37.52 CB 44.02 CG 46.83 CD1 50.35 CD2 47.44
A THR - 73 -75.3 161.8 N 43.89 CA 43.97 C 41.38 O 38.46 CB 43.58 OG1 45.84 CG2 39.68
A GLY H 53 -52.7 -39.6 N 36.17 CA 40.27 C 41.19 O 42.33
A LYS H 149 -63.9 -47.6 N 38.58 CA 42.51 C 39.21 O 39.25 CB 47.47 CG 56.78 CD 62.69 CE 68.43 NZ 68.77
A GLN H 39 -65.2 -38.1 N 38.52 CA 37.77 C 39.18 O 39.63 CB 37.92 CG 43.25 CD 40.24 OE1 44.79 NE2 42.39
A GLN H 37 -60.7 -41.4 N 37.48 CA 39.62 C 41.18 O 35.97 CB 37.76 CG 38.66 CD 38.02 OE1 39.82 NE2 39.39
A GLN H 91 -70.1 -36.8 N 38.47 CA 37.81 C 35.73 O 34.38 CB 43.96 CG 41.95 CD 49.5 OE1 50.59 NE2 54.21
A GLU H 75 -58.6 -48.6 N 35.46 CA 34.94 C 32.76 O 32.83 CB 37.3 CG 40.08 CD 46.21 OE1 42.62 OE2 63.21
A ILE H 1 -56.1 -49.8 N 30.41 CA 29.8 C 31.27 O 30.21 CB 29.6 CG1 27.88 CG2 32.3 CD1 29.38
A THR H 22 -55.6 -40.4 N 30.99 CA 29.35 C 29.64 O 26.6 CB 31.18 OG1 30.46 CG2 32.52
A ASP H 90 -72.6 -38.1 N 31.35 CA 34.14 C 30.72 O 31.5 CB 35.04 CG 42.46 OD1 45.53 OD2 43.82
A LYS H 51 -67.8 -46.6 N 29.12 CA 30.24 C 27.37 O 30.0 CB 31.33 CG 34.55 CD 37.19 CE 40.89 NZ 48.07
A PHE H 0 -51.4 -52.0 N 28.8 CA 27.18 C 30.76 O 27.08 CB 30.12 CG 28.38 CD1 26.98 CD2 29.37 CE1 27.58 CE2 29.19 CZ 32.07
A THR H 27 -61.8 -45.9 N 26.7 CA 28.6 C 27.71 O 31.79 CB 29.9 OG1 31.56 CG2 31.95
A LYS H 97 -68.4 -46.2 N 28.85 CA 29.64 C 27.76 O 26.97 CB 33.61 CG 43.94 CD 51.35 CE 54.78 NZ 61.01
A HIS H 6 -67.4 -44.0 N 30.0 CA 26.03 C 26.79 O 28.78 CB 24.28 CG 24.02 ND1 25.75 CD2 26.43 CE1 28.84 NE2 28.3
A TYR H 12 -61.1 -43.4 N 27.48 CA 27.59 C 28.6 O 27.91 CB 29.92 CG 27.9 CD1 31.44 CD2 30.05 CE1 29.6 CE2 31.47 CZ 34.54 OH 32.2
A ASN H 65 -60.4 -31.7 N 30.7 CA 29.4 C 25.57 O 27.77 CB 33.33 CG 39.45 OD1 48.88 ND2 42.41
A THR H 70 -65.7 -39.2 N 28.13 CA 26.18 C 27.6 O 26.44 CB 26.8 OG1 29.0 CG2 27.51
A ILE H 4 -103.0 8.0 N 26.77 CA 26.37 C 26.14 O 24.84 CB 26.38 CG1 26.68 CG2 27.25 CD1 28.87
A LYS T 92 -66.9 -16.4 N 24.02 CA 24.86 C 26.66 O 25.85 CB 32.0 CG 32.95 CD 45.13 CE 49.58 NZ 69.94
A GLU T 66 -97.6 10.9 N 27.98 CA 29.93 C 29.29 O 29.36 CB 35.4 CG 45.54 CD 50.66 OE1 51.08 OE2 75.39
A SER - 19 -53.7 136.1 N 25.92 CA 25.85 C 23.9 O 28.07 CB 29.33 OG 31.03
A PRO S 44 -64.6 -35.2 N 26.83 CA 27.2 C 29.34 O 23.68 CB 30.05 CG 31.02 CD 28.24
A HIS - 30 -126.4 137.5 N 23.95 CA 25.08 C 23.07 O 22.31 CB 25.36 CG 26.71 ND1 31.82 CD2 26.13 CE1 29.57 NE2 33.43
A PHE - 35 -111.6 23.3 N 23.24 CA 22.99 C 21.56 O 23.06 CB 23.63 CG 26.45 CD1 28.28 CD2 29.0 CE1 32.84 CE2 31.95 CZ 32.74
A ASP S 1 -66.9 -31.5 N 20.88 CA 19.64 C 21.34 O 22.09 CB 21.06 CG 21.77 OD1 22.19 OD2 22.28
A GLU E 1 -161.9 149.3 N 21.25 CA 21.31 C 21.63 O 23.3 CB 21.26 CG 21.43 CD 25.16 OE1 25.17 OE2 20.89
A PHE E 3 -141.3 145.9 N 21.4 CA 24.82 C 25.42 O 24.36 CB 22.45 CG 22.41 CD1 22.44 CD2 23.8 CE1 24.65 CE2 23.15 CZ 24.41
A PHE E 0 -103.9 121.3 N 22.38 CA 23.73 C 23.89 O 25.05 CB 23.61 CG 25.39 CD1 28.36 CD2 28.28 CE1 28.29 CE2 25.77 CZ 27.53
A VAL E 5 -121.3 120.8 N 25.17 CA 25.9 C 24.24 O 25.06 CB 27.05 CG1 30.44 CG2 26.81
A ALA E 5 -115.4 149.2 N 25.61 CA 27.85 C 31.75 O 29.39 CB 32.07
A ASP - 17 -123.7 93.2 N 32.06 CA 31.55 C 31.7 O 33.66 CB 33.76 CG 39.42 OD1 36.33 OD2 40.11
A PRO T 1 -78.3 0.9 N 29.84 CA 32.82 C 36.82 O 35.25 CB 34.32 CG 35.76 CD 31.51
A ASP T 97 -85.9 3.1 N 40.13 CA 42.86 C 44.27 O 47.49 CB 40.97 CG 43.92 OD1 47.7 OD2 48.32
A LYS S 60 -117.3 158.2 N 38.31 CA 36.52 C 38.69 O 43.79 CB 39.13 CG 45.92 CD 48.35 CE 49.17 NZ 45.7
A LYS S 155 -70.2 139.7 N 39.68 CA 39.63 C 35.3 O 33.18 CB 44.83 CG 62.38 CD 67.47 CE 76.41 NZ 78.37
A GLY S 7 164.6 -176.5 N 32.49 CA 34.05 C 35.07 O 34.7
A ASN S 24 -91.9 1.6 N 31.8 CA 29.04 C 28.88 O 27.81 CB 30.01 CG 28.97 OD1 31.54 ND2 28.43
A ILE E 1 -118.8 136.1 N 27.04 CA 28.09 C 29.98 O 29.7 CB 30.08 CG1 35.32 CG2 27.24 CD1 38.4
A PHE E 3 -124.1 164.2 N 26.19 CA 28.44 C 29.61 O 29.88 CB 29.83 CG 28.58 CD1 30.43 CD2 32.37 CE1 29.86 CE2 30.57 CZ 32.53
A SER E 10 -110.3 130.2 N 31.39 CA 31.4 C 31.08 O 32.77 CB 36.24 OG 39.52
A HIS E 1 -158.5 124.8 N 27.41 CA 29.6 C 31.62 O 28.95 CB 32.52 CG 29.8 ND1 30.96 CD2 34.46 CE1 31.07 NE2 31.3
A GLN T 27 52.5 37.9 N 30.08 CA 32.0 C 31.14 O 29.64 CB 33.3 CG 33.75 CD 36.4 OE1 32.07 NE2 35.5
A GLY T 47 68.8 24.7 N 27.64 CA 28.82 C 27.84 O 27.17
A ARG E 29 -121.2 140.5 N 27.02 CA 26.97 C 26.59 O 31.29 CB 26.71 CG 31.19 CD 31.91 NE 44.75 CZ 37.28 NH1 41.64 NH2 40.52
A ILE E 0 -90.2 120.3 N 24.84 CA 25.33 C 25.85 O 26.96 CB 26.54 CG1 27.69 CG2 26.72 CD1 27.56
A SER E 1 -141.1 162.2 N 24.57 CA 25.07 C 25.77 O 25.77 CB 26.8 OG 28.3
A CYS E 0 -119.5 168.3 N 23.54 CA 22.48 C 23.22 O 22.75 CB 23.29 SG 12.55
A HIS E 5 -72.6 128.6 N 25.69 CA 25.06 C 26.34 O 27.3 CB 29.98 CG 29.0 ND1 33.26 CD2 27.64 CE1 30.07 NE2 31.99
A PHE H 0 -53.1 -38.4 N 24.69 CA 24.76 C 27.07 O 25.12 CB 25.22 CG 24.82 CD1 27.13 CD2 24.84 CE1 26.77 CE2 24.93 CZ 27.78
A LEU H 0 -66.3 -37.4 N 28.25 CA 27.8 C 31.42 O 33.27 CB 30.47 CG 30.58 CD1 32.01 CD2 28.86
A ASP H 11 -53.9 -52.1 N 31.29 CA 33.58 C 32.52 O 27.23 CB 32.33 CG 35.25 OD1 31.85 OD2 34.33
A PHE H 0 -59.1 -49.0 N 30.22 CA 28.19 C 28.97 O 27.02 CB 27.16 CG 27.21 CD1 27.96 CD2 27.08 CE1 28.1 CE2 29.38 CZ 27.98
A PHE H 0 -58.6 -44.5 N 28.8 CA 29.35 C 29.22 O 28.78 CB 30.53 CG 32.45 CD1 31.99 CD2 30.01 CE1 34.68 CE2 33.71 CZ 31.18
A THR H 51 -65.1 -36.1 N 30.81 CA 34.52 C 36.53 O 35.15 CB 34.45 OG1 36.21 CG2 39.37
A ARG H 70 -73.9 -41.6 N 34.05 CA 30.96 C 31.27 O 34.63 CB 30.36 CG 30.48 CD 32.01 NE 32.94 CZ 32.43 NH1 32.91 NH2 34.56
A GLN H 22 -69.8 -35.3 N 31.65 CA 29.76 C 32.98 O 30.5 CB 29.75 CG 28.52 CD 32.07 OE1 34.14 NE2 32.91
A THR T 2 -92.2 5.7 N 33.05 CA 33.9 C 39.09 O 38.16 CB 33.01 OG1 34.04 CG2 35.6
A LYS T 144 52.3 48.7 N 42.41 CA 42.99 C 48.24 O 53.68 CB 47.69 CG 54.7 CD 65.98 CE 73.71 NZ 72.79
A GLY T 48 64.9 4.6 N 43.82 CA 50.2 C 48.05 O 45.51
A LYS - 154 -74.2 -15.6 N 43.67 CA 44.18 C 46.07 O 45.67 CB 48.44 CG 61.9 CD 71.22 CE 76.96 NZ 79.77
A HIS S 42 -129.6 98.5 N 39.15 CA 40.24 C 40.44 O 42.66 CB 39.16 CG 42.12 ND1 41.73 CD2 43.17 CE1 41.1 NE2 45.98
A PRO - 110 -72.2 156.2 N 44.62 CA 44.8 C 43.82 O 39.57 CB 51.1 CG 48.2 CD 53.6
A LEU - 23 -85.7 -5.7 N 43.56 CA 38.83 C 41.99 O 42.07 CB 36.86 CG 35.6 CD1 36.83 CD2 32.52
A GLY G 51 61.2 -123.9 N 46.06 CA 40.96 C 38.7 O 42.57
A ASP G 129 -66.6 -16.8 N 44.48 CA 49.03 C 51.54 O 46.71 CB 56.69 CG 71.13 OD1 68.86 OD2 71.8
A LEU G 2 -94.8 6.7 N 47.33 CA 46.26 C 42.49 O 41.34 CB 41.48 CG 38.33 CD1 36.66 CD2 39.35
A ALA T 69 -65.5 -16.5 N 40.22 CA 37.41 C 38.86 O 40.56 CB 43.38
A SER T 71 -113.3 10.7 N 40.52 CA 40.25 C 37.29 O 37.71 CB 49.86 OG 54.75
A HIS H 10 -66.4 -37.3 N 36.65 CA 32.14 C 33.69 O 33.3 CB 33.46 CG 37.37 ND1 42.1 CD2 40.62 CE1 43.04 NE2 39.21
A GLN H 67 -60.7 -50.5 N 36.78 CA 40.77 C 42.91 O 36.16 CB 42.91 CG 51.2 CD 53.92 OE1 56.87 NE2 50.88
A GLU H 113 -63.2 -38.7 N 46.23 CA 44.86 C 40.28 O 38.88 CB 52.7 CG 62.12 CD 72.82 OE1 82.42 OE2 77.82
A ALA H 17 -60.4 -34.4 N 39.68 CA 37.95 C 41.2 O 42.85 CB 40.31
A LEU H 6 -67.8 -41.9 N 40.99 CA 38.05 C 36.23 O 35.6 CB 37.98 CG 33.3 CD1 37.71 CD2 35.4
A GLN H 52 -57.9 -32.1 N 38.96 CA 40.61 C 47.9 O 54.63 CB 40.63 CG 38.55 CD 41.1 OE1 40.82 NE2 42.73
A GLU T 144 -69.0 -7.9 N 53.57 CA 52.73 C 54.0 O 52.52 CB 56.69 CG 66.59 CD 74.39 OE1 70.35 OE2 72.69
A GLY S 33 -70.1 164.5 N 51.65 CA 47.64 C 49.02 O 53.07
A THR S 156 -83.5 -4.4 N 48.8 CA 52.88 C 49.9 O 50.38 CB 54.51 OG1 60.98 CG2 58.77
A SER - 42 -159.0 149.9 N 45.47 CA 41.78 C 41.49 O 36.06 CB 43.09 OG 45.93
A ASN S 9 -90.1 0.3 N 40.54 CA 40.01 C 39.24 O 35.87 CB 36.41 CG 38.97 OD1 37.32 ND2 38.78
A ARG E 77 -92.7 108.9 N 39.19 CA 37.8 C 41.04 O 36.45 CB 43.01 CG 42.55 CD 42.1 NE 37.36 CZ 37.97 NH1 38.77 NH2 42.73
A LEU E 19 -104.1 144.6 N 35.85 CA 39.14 C 45.7 O 38.52 CB 38.21 CG 36.1 CD1 38.28 CD2 35.6
A HIS - 89 -57.3 133.4 N 45.77 CA 59.98 C 66.78 O 55.37 CB 69.76 CG 93.27 ND1 97.8 CD2 102.82 CE1 100.82 NE2 101.79
A HIS S 90 -67.6 -33.4 N 65.39 CA 60.74 C 61.37 O 42.78 CB 69.62 CG 80.45 ND1 85.05 CD2 85.2 CE1 85.04 NE2 90.61
A LYS S 65 -107.3 161.9 N 65.92 CA 77.97 C 73.1 O 61.92 CB 86.18 CG 91.02 CD 92.73 CE 95.15 NZ 101.23
A ASN - 1 -108.8 102.0 N 66.21 CA 70.78 C 82.81 O 80.01 CB 63.8 CG 48.07 OD1 45.35 ND2 36.15
A GLU G 75 -66.6 -30.7 N 102.09 CA 104.85 C 99.48 O 85.68 CB 107.69 CG 109.3 CD 112.95 OE1 101.98 OE2 114.98
A VAL G 36 -62.5 -27.6 N 104.0 CA 95.04 C 93.67 O 82.93 CB 85.1 CG1 80.95 CG2 83.01
A VAL G 2 -81.8 -20.9 N 94.91 CA 93.7 C 106.63 O 101.64 CB 79.01 CG1 69.36 CG2 71.39
A ALA T 18 -87.7 -39.2 N 131.2 CA 136.4 C 139.72 O 128.91 CB 132.21
A GLN T 106 -86.8 4.2 N 149.84 CA 147.37 C 147.05 O 146.15 CB 139.99 CG 142.2 CD 138.27 OE1 135.03 NE2 129.7
A GLY T 9 -66.5 -36.5 N 143.56 CA 142.27 C 149.79 O 160.29
A TYR S 76 -77.2 -14.9 N 152.87 CA 149.61 C 151.55 O 145.31 CB 141.65 CG 141.87 CD1 141.58 CD2 137.28 CE1 135.64 CE2 136.32 CZ 127.51 OH 81.49
A GLU - 129 -62.4 8.7 N 151.04 CA 142.2 C 146.61 O 161.7 CB 134.21 CG 131.21 CD 125.41 OE1 118.14 OE2 118.89
A LYS - 137 -105.2 83.6 N 138.39 CA 127.15 C 126.8 O 129.07 CB 117.36 CG 110.36 CD 110.39 CE 108.78 NZ 107.44
A LEU - 192 -126.7 360.0 N 124.69 CA 121.0 C 109.19 O 94.18 CB 118.97 CG 114.11 CD1 112.56 CD2 106.74
B VAL - 188 360.0 93.5 N 133.53 CA 132.24 C 135.38 O 137.83 CB 125.27 CG1 118.29 CG2 121.82
B ILE - 40 -69.9 148.7 N 132.81 CA 130.74 C 127.87 O 131.6 CB 129.57 CG1 129.9 CG2 130.13 CD1 129.64
B LYS - 196 -99.7 109.5 N 119.45 CA 108.6 C 103.56 O 96.38 CB 106.44 CG 104.7 CD 106.61 CE 108.19 NZ 115.66
B PHE - 19 -78.4 155.2 N 100.26 CA 100.36 C 92.92 O 95.06 CB 106.4 CG 115.31 CD1 118.06 CD2 119.57 CE1 118.57 CE2 117.86 CZ 120.13
B LYS - 119 -108.8 -9.6 N 88.74 CA 88.52 C 84.49 O 78.62 CB 92.24 CG 96.17 CD 100.78 CE 99.58 NZ 103.02
B GLU S 3 -64.4 121.0 N 82.22 CA 85.78 C 77.01 O 74.78 CB 89.41 CG 90.74 CD 91.39 OE1 86.27 OE2 84.32
B PRO - 35 -64.1 152.7 N 79.08 CA 78.77 C 77.24 O 79.59 CB 81.3 CG 82.2 CD 81.87
B GLU S 67 -76.0 -24.8 N 82.93 CA 97.03 C 93.02 O 89.29 CB 106.25 CG 118.79 CD 129.72 OE1 127.83 OE2 138.0
B ARG - 104 -135.3 138.9 N 85.91 CA 82.61 C 78.26 O 73.85 CB 78.42 CG 82.75 CD 85.39 NE 90.68 CZ 84.65 NH1 92.15 NH2 79.15
B CYS - 9 -148.1 136.9 N 67.01 CA 62.45 C 65.07 O 59.5 CB 63.96 SG 68.4
B ASP T 33 -53.3 137.2 N 58.92 CA 58.46 C 56.79 O 52.05 CB 59.2 CG 63.34 OD1 63.87 OD2 62.05
B TYR T 6 75.4 -2.4 N 54.52 CA 51.99 C 54.89 O 58.35 CB 51.42 CG 49.18 CD1 50.08 CD2 47.38 CE1 47.63 CE2 43.67 CZ 44.75 OH 46.51
B LEU E 0 -107.1 135.8 N 56.22 CA 60.69 C 52.9 O 53.23 CB 64.4 CG 72.29 CD1 72.76 CD2 75.1
B TYR E 35 -138.3 129.4 N 55.39 CA 60.45 C 61.51 O 76.97 CB 61.47 CG 58.54 CD1 51.87 CD2 60.46 CE1 56.1 CE2 61.11 CZ 57.63 OH 59.15
B VAL E 0 -108.9 119.2 N 73.73 CA 72.17 C 71.53 O 62.08 CB 77.56 CG1 80.36 CG2 81.29
B ASP - 20 -82.6 -174.8 N 70.05 CA 73.17 C 81.7 O 76.53 CB 77.7 CG 81.63 OD1 78.75 OD2 82.68
B GLU T 161 -68.5 -22.0 N 85.21 CA 91.18 C 83.89 O 86.16 CB 96.98 CG 103.02 CD 103.4 OE1 92.52 OE2 106.94
B ASN T 110 -100.2 21.0 N 85.79 CA 83.52 C 82.23 O 82.94 CB 80.26 CG 81.31 OD1 77.57 ND2 85.48
B ASN S 11 60.6 29.6 N 84.22 CA 87.55 C 86.54 O 84.75 CB 91.55 CG 88.51 OD1 79.09 ND2 82.13
B LYS - 65 -89.8 137.8 N 77.07 CA 81.24 C 79.73 O 71.3 CB 85.24 CG 91.7 CD 96.77 CE 102.16 NZ 101.76
B VAL E 1 -98.7 125.2 N 80.34 CA 77.0 C 76.06 O 67.47 CB 81.28 CG1 78.08 CG2 79.57
B HIS E 0 -119.6 130.8 N 68.22 CA 69.21 C 62.61 O 60.74 CB 69.81 CG 66.35 ND1 71.24 CD2 65.52 CE1 68.1 NE2 69.71
B ILE E 0 -102.5 125.8 N 59.42 CA 54.52 C 55.72 O 60.21 CB 54.56 CG1 56.73 CG2 52.91 CD1 57.42
B LEU E 0 -101.7 116.2 N 58.76 CA 58.15 C 54.65 O 53.01 CB 55.4 CG 59.62 CD1 58.08 CD2 58.77
B LEU E 0 -82.8 124.9 N 53.29 CA 50.23 C 51.76 O 45.94 CB 51.99 CG 52.02 CD1 50.57 CD2 54.1
B PRO E 0 -82.7 145.0 N 51.76 CA 51.96 C 51.25 O 51.18 CB 50.88 CG 48.86 CD 52.17
B ILE E 0 -105.7 -54.7 N 48.97 CA 48.61 C 51.53 O 49.52 CB 54.34 CG1 56.47 CG2 53.61 CD1 57.34
B VAL E 0 -145.8 161.2 N 48.02 CA 43.47 C 46.41 O 44.6 CB 49.68 CG1 52.27 CG2 49.07
B GLY E 5 -71.1 144.9 N 49.25 CA 50.6 C 48.93 O 51.13
B GLY B 9 138.5 -170.9 N 49.54 CA 48.75 C 50.54 O 54.64
B ASP S 70 -117.9 -62.3 N 57.76 CA 62.06 C 54.79 O 64.01 CB 72.0 CG 79.74 OD1 93.13 OD2 87.29
B GLU S 8 -111.1 -37.2 N 49.56 CA 52.46 C 51.33 O 54.0 CB 58.32 CG 62.63 CD 60.25 OE1 51.63 OE2 63.09
B ILE B 6 -115.9 136.5 N 45.39 CA 44.63 C 45.55 O 40.31 CB 43.44 CG1 41.33 CG2 41.42 CD1 42.1
B GLY B 0 -74.3 140.0 N 41.32 CA 42.55 C 42.75 O 41.26
B LEU S 55 -90.2 -16.8 N 42.89 CA 46.05 C 49.5 O 47.35 CB 52.69 CG 60.34 CD1 64.16 CD2 57.28
B ASP - 12 -106.1 142.9 N 48.67 CA 49.3 C 45.23 O 43.6 CB 49.02 CG 51.09 OD1 58.75 OD2 55.6
B ASN - 14 -154.2 170.8 N 43.28 CA 46.02 C 42.42 O 38.97 CB 42.32 CG 49.57 OD1 45.02 ND2 48.8
B THR G 3 49.9 -130.3 N 46.73 CA 47.02 C 47.21 O 45.3 CB 45.38 OG1 46.11 CG2 45.59
B CYS G 26 -64.5 -24.2 N 46.99 CA 55.16 C 51.45 O 57.38 CB 59.76 SG 79.9
B GLN G 37 -93.3 8.5 N 52.64 CA 50.9 C 43.44 O 45.13 CB 53.91 CG 57.73 CD 67.6 OE1 71.35 NE2 65.38
B THR T 1 -51.0 -35.2 N 41.59 CA 45.52 C 47.15 O 51.58 CB 48.09 OG1 52.45 CG2 47.15
B ALA T 2 -81.0 -3.2 N 46.07 CA 51.84 C 46.71 O 45.84 CB 49.93
B VAL H 17 -63.5 -37.5 N 47.7 CA 44.73 C 45.99 O 45.51 CB 55.25 CG1 60.13 CG2 52.96
B GLU H 38 -68.3 -41.4 N 40.81 CA 42.51 C 43.31 O 42.48 CB 46.67 CG 52.73 CD 54.62 OE1 54.21 OE2 58.92
B LEU H 0 -64.6 -41.0 N 42.07 CA 42.19 C 42.06 O 48.34 CB 45.53 CG 45.03 CD1 44.87 CD2 48.48
B ILE H 13 -51.5 -50.7 N 43.28 CA 44.38 C 50.52 O 50.83 CB 47.42 CG1 49.37 CG2 43.93 CD1 46.15
B THR H 8 -65.0 -43.3 N 45.79 CA 44.53 C 45.73 O 48.01 CB 45.69 OG1 43.85 CG2 45.5
B PHE H 2 -57.4 -44.4 N 41.77 CA 46.59 C 49.16 O 42.15 CB 48.57 CG 50.82 CD1 58.7 CD2 53.17 CE1 57.0 CE2 52.55 CZ 59.44
B PHE H 2 -86.4 -30.6 N 49.53 CA 51.54 C 55.75 O 57.12 CB 49.64 CG 48.23 CD1 52.69 CD2 51.67 CE1 51.07 CE2 52.56 CZ 52.94
B TYR H 65 -132.8 -11.0 N 50.54 CA 50.97 C 50.19 O 55.19 CB 54.27 CG 60.8 CD1 59.61 CD2 59.41 CE1 57.75 CE2 62.5 CZ 63.59 OH 62.85
B GLY - 12 80.2 169.8 N 50.53 CA 48.27 C 48.19 O 56.11
B SER E 11 -172.9 167.8 N 52.97 CA 55.46 C 55.72 O 58.34 CB 57.64 OG 52.07
B ALA E 47 -110.3 126.3 N 58.48 CA 65.23 C 75.03 O 78.53 CB 61.25
B HIS E 22 -125.3 113.1 N 80.4 CA 90.59 C 79.15 O 83.97 CB 91.76 CG 103.25 ND1 105.88 CD2 106.47 CE1 104.96 NE2 106.86
B SER T 20 49.5 40.9 N 81.25 CA 82.09 C 77.82 O 69.19 CB 80.27 OG 80.08
B GLY T 51 80.1 9.8 N 71.85 CA 75.94 C 79.34 O 82.06
B VAL E 65 -114.8 131.1 N 73.88 CA 72.26 C 67.87 O 69.15 CB 69.46 CG1 69.79 CG2 72.89
B THR E 82 -75.4 129.7 N 62.48 CA 60.38 C 62.81 O 55.66 CB 64.18 OG1 67.79 CG2 61.3
B LYS E 91 -107.7 131.5 N 53.72 CA 53.71 C 55.36 O 50.5 CB 56.71 CG 62.59 CD 66.53 CE 72.14 NZ 76.03
B TYR - 118 -88.0 148.1 N 53.92 CA 57.16 C 57.75 O 53.35 CB 56.41 CG 65.21 CD1 68.58 CD2 70.47 CE1 70.84 CE2 72.11 CZ 71.47 OH 70.46
B SER - 19 -62.2 164.9 N 51.65 CA 49.09 C 49.52 O 51.02 CB 50.0 OG 51.62
B ALA H 2 -57.9 -45.9 N 51.62 CA 52.95 C 52.91 O 54.47 CB 53.95
B GLU H 45 -57.9 -43.3 N 55.92 CA 56.69 C 53.09 O 58.69 CB 60.87 CG 65.32 CD 76.06 OE1 66.55 OE2 73.47
B HIS H 79 -61.6 -48.0 N 55.46 CA 57.67 C 63.07 O 57.44 CB 58.48 CG 62.09 ND1 66.04 CD2 65.54 CE1 63.06 NE2 66.68
B GLN H 27 -69.4 -40.1 N 59.13 CA 56.98 C 55.08 O 59.28 CB 57.63 CG 55.96 CD 58.57 OE1 64.59 NE2 56.22
B LEU H 2 -67.0 -34.4 N 58.41 CA 61.5 C 61.74 O 59.68 CB 64.33 CG 70.82 CD1 73.76 CD2 70.53
B SER H 27 -64.9 -42.1 N 65.22 CA 73.92 C 71.54 O 79.17 CB 71.15 OG 71.58
B GLU H 88 -58.9 -46.3 N 77.67 CA 74.55 C 77.64 O 72.98 CB 76.62 CG 74.82 CD 79.12 OE1 80.83 OE2 93.28
B TYR H 2 -59.9 -40.5 N 72.78 CA 80.14 C 81.58 O 72.87 CB 79.42 CG 79.13 CD1 81.18 CD2 75.01 CE1 76.52 CE2 73.52 CZ 71.33 OH 59.79
B LYS H 52 -60.6 -45.1 N 80.52 CA 85.01 C 75.98 O 73.55 CB 92.91 CG 99.5 CD 97.47 CE 95.62 NZ 98.83
B ARG H 129 -59.1 -39.8 N 76.74 CA 76.5 C 77.1 O 78.25 CB 74.48 CG 73.62 CD 75.49 NE 81.86 CZ 84.01 NH1 82.1 NH2 85.91
B GLN H 44 -66.0 -44.9 N 79.71 CA 84.11 C 80.2 O 76.85 CB 86.38 CG 87.15 CD 90.83 OE1 92.95 NE2 93.15
B LEU H 0 -55.3 -46.3 N 80.12 CA 78.29 C 79.1 O 69.73 CB 74.39 CG 77.64 CD1 80.43 CD2 81.98
B GLU H 60 -61.8 -37.3 N 85.21 CA 93.17 C 94.19 O 92.28 CB 94.0 CG 89.24 CD 88.25 OE1 88.38 OE2 90.31
B GLU H 88 -64.5 -40.9 N 92.17 CA 97.21 C 97.97 O 105.42 CB 95.61 CG 99.41 CD 104.1 OE1 104.18 OE2 102.72
B ASP H 4 -64.5 -37.9 N 95.81 CA 95.87 C 95.45 O 94.74 CB 100.1 CG 104.55 OD1 106.67 OD2 98.93
B ILE H 34 -70.9 -41.8 N 96.08 CA 103.46 C 106.3 O 113.39 CB 104.45 CG1 108.26 CG2 99.26 CD1 107.51
B LYS H 143 -54.6 -50.6 N 105.27 CA 99.46 C 95.56 O 97.41 CB 101.13 CG 106.06 CD 112.48 CE 115.1 NZ 118.91
B ALA H 34 -55.6 -36.6 N 95.05 CA 95.29 C 101.66 O 103.76 CB 90.8
B ILE H 3 -73.3 -43.2 N 109.29 CA 117.84 C 109.38 O 106.57 CB 125.82 CG1 132.33 CG2 128.21 CD1 131.44
B ASN H 79 -61.3 -45.0 N 106.54 CA 113.16 C 119.95 O 122.05 CB 113.06 CG 112.29 OD1 108.45 ND2 111.61
B SER H 77 -65.2 -41.5 N 123.3 CA 120.36 C 127.02 O 128.08 CB 110.51 OG 100.53
B GLN H 71 -68.0 -9.4 N 126.93 CA 125.48 C 127.78 O 128.97 CB 120.36 CG 119.28 CD 111.0 OE1 110.26 NE2 107.68
B LYS T 36 -99.1 1.8 N 131.13 CA 130.53 C 126.11 O 120.92 CB 128.43 CG 129.15 CD 126.59 CE 124.33 NZ 125.06
B LYS T 186 -79.1 -27.8 N 125.27 CA 126.05 C 125.77 O 130.03 CB 128.29 CG 127.58 CD 126.63 CE 120.45 NZ 119.82
B ILE T 131 -98.5 -23.0 N 123.97 CA 121.55 C 126.01 O 115.42 CB 119.44 CG1 121.31 CG2 117.62 CD1 117.96
B SER S 63 -140.0 70.0 N 134.38 CA 135.73 C 139.0 O 146.88 CB 129.32 OG 130.91
B PRO T 81 -35.1 -34.2 N 142.31 CA 141.69 C 143.7 O 138.17 CB 137.96 CG 139.21 CD 141.07
B HIS T 140 -127.9 4.9 N 142.74 CA 139.87 C 135.36 O 131.82 CB 138.97 CG 140.89 ND1 138.64 CD2 134.05 CE1 134.04 NE2 133.93
B ALA T 74 -68.1 -13.3 N 131.18 CA 131.52 C 134.58 O 135.85 CB 128.15
B TYR T 61 -126.7 22.8 N 138.52 CA 131.51 C 130.66 O 120.12 CB 132.36 CG 126.11 CD1 116.98 CD2 122.31 CE1 111.16 CE2 114.87 CZ 108.73 OH 98.21
B ASP H 67 -53.6 -46.2 N 132.81 CA 129.72 C 123.07 O 128.64 CB 130.23 CG 127.41 OD1 121.78 OD2 115.14
B ASP H 119 -65.2 -54.3 N 118.18 CA 115.18 C 111.07 O 106.21 CB 109.51 CG 107.1 OD1 100.17 OD2 110.89
B LEU H 33 -58.8 -46.4 N 102.7 CA 97.93 C 98.57 O 99.11 CB 93.56 CG 97.75 CD1 99.25 CD2 95.91
B LEU H 24 -57.3 -45.1 N 102.94 CA 107.68 C 107.64 O 116.51 CB 108.95 CG 108.49 CD1 110.68 CD2 104.72
B LYS H 128 -65.6 -43.2 N 101.72 CA 99.72 C 96.46 O 84.45 CB 98.44 CG 98.85 CD 98.13 CE 96.85 NZ 98.3
B GLU H 58 -63.9 -40.0 N 95.05 CA 95.93 C 93.83 O 88.4 CB 96.26 CG 99.72 CD 103.48 OE1 98.69 OE2 106.33
B LYS H 12 -69.8 -39.7 N 90.68 CA 89.97 C 88.21 O 89.01 CB 92.51 CG 90.07 CD 90.21 CE 88.36 NZ 86.82
B ILE H 60 -63.3 -36.4 N 87.32 CA 89.08 C 88.42 O 85.65 CB 87.62 CG1 89.55 CG2 90.16 CD1 86.41
B GLU H 68 -66.0 -43.7 N 87.85 CA 88.69 C 79.69 O 75.88 CB 87.19 CG 91.94 CD 92.7 OE1 98.17 OE2 91.49
B ARG H 4 -64.0 -43.6 N 73.17 CA 77.55 C 82.02 O 81.85 CB 79.59 CG 87.13 CD 86.94 NE 94.5 CZ 98.98 NH1 100.41 NH2 104.19
B LEU H 16 -59.8 -47.3 N 72.53 CA 69.59 C 68.83 O 68.41 CB 76.37 CG 81.28 CD1 83.77 CD2 87.79
B GLN H 109 -59.2 -41.2 N 67.81 CA 74.21 C 77.26 O 75.92 CB 78.32 CG 85.44 CD 88.42 OE1 84.3 NE2 90.25
B GLN H 24 -63.7 -53.9 N 75.62 CA 73.02 C 63.69 O 58.83 CB 74.1 CG 75.21 CD 74.17 OE1 73.72 NE2 76.92
B ILE H 0 -49.0 -46.6 N 64.68 CA 73.67 C 75.87 O 72.08 CB 80.17 CG1 81.84 CG2 88.2 CD1 85.33
B GLU H 75 -61.3 -40.8 N 72.05 CA 72.0 C 69.57 O 74.92 CB 76.54 CG 77.58 CD 86.5 OE1 84.34 OE2 93.19
B LYS H 55 -62.3 -45.2 N 66.76 CA 79.31 C 83.0 O 83.44 CB 84.01 CG 89.79 CD 94.07 CE 100.23 NZ 104.2
B TYR H 1 -60.1 -42.8 N 75.85 CA 74.58 C 67.98 O 70.99 CB 73.04 CG 69.01 CD1 66.68 CD2 68.41 CE1 63.56 CE2 65.28 CZ 63.08 OH 61.65
B ILE H 11 -59.0 -47.8 N 62.85 CA 64.87 C 69.41 O 65.52 CB 65.67 CG1 63.49 CG2 68.54 CD1 59.4
B GLU H 74 -59.7 -41.1 N 73.74 CA 73.79 C 68.94 O 64.45 CB 83.72 CG 90.36 CD 99.98 OE1 104.87 OE2 105.02
B LEU H 2 -56.4 -44.5 N 69.6 CA 70.79 C 68.61 O 68.23 CB 72.88 CG 80.63 CD1 80.17 CD2 86.43
B ILE H 3 -65.4 -42.8 N 66.31 CA 65.38 C 62.82 O 57.26 CB 66.45 CG1 72.27 CG2 67.92 CD1 73.5
B GLN H 85 -61.2 -42.8 N 62.77 CA 65.54 C 66.71 O 68.99 CB 68.36 CG 70.7 CD 76.8 OE1 75.89 NE2 74.59
B VAL H 33 -74.2 -35.5 N 65.86 CA 73.28 C 70.32 O 74.42 CB 80.02 CG1 86.07 CG2 79.78
B LEU H 0 -56.4 -49.2 N 66.35 CA 60.94 C 59.27 O 53.96 CB 60.93 CG 64.38 CD1 64.47 CD2 62.81
B LYS H 56 -72.9 -36.0 N 56.16 CA 61.02 C 67.04 O 67.17 CB 60.74 CG 61.1 CD 57.25 CE 55.66 NZ 58.41
B LYS H 166 -76.4 -53.3 N 73.47 CA 73.12 C 73.45 O 64.59 CB 75.82 CG 79.43 CD 78.36 CE 86.99 NZ 90.31
B GLN T 113 -109.0 -34.4 N 68.99 CA 66.22 C 78.78 O 69.25 CB 67.06 CG 62.78 CD 62.39 OE1 58.53 NE2 58.19
B TYR S 78 -106.3 32.5 N 74.83 CA 78.09 C 72.32 O 69.25 CB 79.67 CG 85.93 CD1 85.85 CD2 94.9 CE1 87.82 CE2 94.15 CZ 93.17 OH 89.82
B ASP - 11 -128.6 41.3 N 76.62 CA 71.56 C 74.05 O 65.11 CB 73.37 CG 64.98 OD1 61.45 OD2 59.99
B GLU T 158 -69.3 -25.1 N 80.69 CA 82.3 C 81.13 O 84.38 CB 80.88 CG 88.61 CD 94.86 OE1 91.54 OE2 92.01
B GLN T 166 -67.2 -17.2 N 87.04 CA 84.61 C 84.88 O 81.83 CB 87.05 CG 88.86 CD 90.5 OE1 96.23 NE2 87.6
B ASN - 59 58.9 30.8 N 82.71 CA 81.75 C 80.21 O 73.13 CB 81.06 CG 86.21 OD1 84.42 ND2 88.75
B ASP T 33 -69.7 -29.6 N 73.44 CA 72.41 C 77.35 O 66.85 CB 77.27 CG 75.48 OD1 80.53 OD2 72.88
B ILE T 0 -84.8 -44.7 N 65.6 CA 62.52 C 67.27 O 60.32 CB 60.5 CG1 63.84 CG2 62.02 CD1 66.37
B ARG T 80 -63.1 -27.5 N 60.01 CA 58.99 C 52.26 O 53.6 CB 67.86 CG 75.17 CD 88.31 NE 96.17 CZ 107.48 NH1 109.29 NH2 115.98
B GLN H 34 -68.9 -15.7 N 53.84 CA 52.09 C 51.34 O 55.8 CB 53.02 CG 52.94 CD 54.67 OE1 54.87 NE2 50.31
B LEU H 0 -56.6 -39.7 N 56.16 CA 52.44 C 55.76 O 49.96 CB 51.02 CG 49.7 CD1 47.59 CD2 55.44
B ARG H 112 -88.0 -31.9 N 56.04 CA 60.06 C 59.37 O 60.98 CB 66.69 CG 73.39 CD 80.19 NE 81.7 CZ 85.44 NH1 85.18 NH2 78.77
B THR H 61 -93.6 -49.3 N 65.19 CA 64.06 C 64.93 O 67.4 CB 66.71 OG1 70.91 CG2 64.4
B GLY S 17 -64.6 158.8 N 65.4 CA 65.86 C 68.08 O 62.14
B GLY S 28 -65.1 -55.9 N 67.15 CA 67.88 C 69.66 O 63.68
B ILE S 23 -128.2 90.2 N 69.22 CA 63.37 C 53.91 O 56.49 CB 65.89 CG1 62.53 CG2 69.12 CD1 60.56
B PRO - 7 -63.3 161.7 N 51.24 CA 53.04 C 57.43 O 52.08 CB 53.09 CG 56.55 CD 54.93
B GLN - 56 -98.7 160.1 N 56.09 CA 54.15 C 49.67 O 44.26 CB 61.15 CG 61.87 CD 70.2 OE1 81.16 NE2 71.67
B LEU - 4 -69.0 141.1 N 50.3 CA 52.44 C 58.23 O 58.29 CB 50.64 CG 46.97 CD1 46.3 CD2 42.3
B PRO - 0 -60.9 149.1 N 62.75 CA 60.09 C 63.77 O 58.46 CB 57.49 CG 59.54 CD 56.81
B SER H 50 -54.4 -37.1 N 58.76 CA 55.45 C 48.89 O 63.28 CB 60.61 OG 66.63
B GLY H 0 -64.6 -33.5 N 49.06 CA 55.79 C 59.35 O 54.04
B VAL H 0 -68.9 -44.3 N 58.57 CA 54.04 C 52.59 O 56.31 CB 57.38 CG1 61.2 CG2 57.4
B LYS H 50 -55.0 -40.0 N 53.13 CA 53.65 C 58.13 O 58.36 CB 55.51 CG 57.62 CD 59.66 CE 61.56 NZ 65.04
B GLU H 75 -72.0 -38.5 N 58.19 CA 62.08 C 57.42 O 59.48 CB 71.42 CG 79.64 CD 90.8 OE1 87.61 OE2 94.21
B ILE H 0 -58.8 -44.2 N 58.41 CA 56.33 C 52.71 O 50.91 CB 62.76 CG1 64.38 CG2 63.46 CD1 61.52
B ILE H 13 -68.8 -44.1 N 51.57 CA 56.56 C 58.24 O 55.29 CB 54.73 CG1 55.32 CG2 53.35 CD1 57.36
B LYS H 153 -56.8 -34.0 N 63.93 CA 64.57 C 64.59 O 62.21 CB 65.55 CG 77.54 CD 85.65 CE 92.06 NZ 101.98
B SER T 61 -88.6 -1.7 N 58.51 CA 63.01 C 62.11 O 62.26 CB 65.98 OG 67.43
B SER - 9 -69.9 142.6 N 63.15 CA 56.76 C 54.45 O 61.8 CB 58.99 OG 50.4
B GLU S 109 -98.0 -15.9 N 62.85 CA 66.44 C 68.06 O 61.95 CB 74.32 CG 83.94 CD 91.8 OE1 94.51 OE2 99.53
B ASN S 1 -118.8 -0.6 N 58.82 CA 61.9 C 57.03 O 55.68 CB 66.2 CG 64.15 OD1 63.63 ND2 66.49
B ALA E 0 -142.6 138.8 N 55.1 CA 58.28 C 64.03 O 60.22 CB 56.58
B PHE E 21 -147.5 143.8 N 56.68 CA 54.33 C 55.47 O 52.32 CB 54.43 CG 57.62 CD1 61.66 CD2 62.99 CE1 57.78 CE2 62.51 CZ 58.87
B ALA E 2 -89.1 152.0 N 48.21 CA 49.91 C 48.5 O 47.49 CB 46.76
B VAL E 0 -129.9 145.6 N 44.72 CA 43.25 C 42.27 O 43.44 CB 48.17 CG1 47.4 CG2 47.62
B ARG E 41 -125.2 131.0 N 44.18 CA 46.41 C 44.77 O 43.2 CB 49.69 CG 51.24 CD 51.34 NE 49.71 CZ 54.1 NH1 50.54 NH2 53.47
B LEU - 0 -116.9 178.3 N 47.78 CA 46.63 C 42.71 O 43.61 CB 45.74 CG 47.08 CD1 48.65 CD2 48.88
B SER - 1 -122.9 87.3 N 39.03 CA 39.99 C 41.11 O 37.55 CB 40.49 OG 42.86
B PRO - 7 -71.9 151.8 N 40.53 CA 40.79 C 45.37 O 44.61 CB 42.56 CG 43.68 CD 43.3
B TYR S 94 -52.7 -51.6 N 41.99 CA 44.67 C 48.6 O 46.7 CB 47.47 CG 47.55 CD1 50.33 CD2 48.48 CE1 52.8 CE2 49.87 CZ 51.33 OH 55.18
B ASP S 66 -95.9 70.8 N 43.41 CA 46.08 C 47.03 O 50.4 CB 44.49 CG 48.24 OD1 56.83 OD2 50.19
B ASN - 4 -77.2 146.0 N 48.39 CA 48.78 C 49.9 O 49.82 CB 46.16 CG 48.59 OD1 49.72 ND2 51.32
B ASP - 4 -101.2 120.4 N 47.69 CA 56.39 C 53.21 O 49.72 CB 55.47 CG 64.45 OD1 55.98 OD2 59.11
B LYS S 80 -65.9 -20.0 N 57.2 CA 57.59 C 51.53 O 59.35 CB 60.24 CG 66.23 CD 68.25 CE 66.98 NZ 64.06
B PHE - 27 -85.1 49.3 N 51.54 CA 50.94 C 48.14 O 50.5 CB 49.59 CG 54.16 CD1 56.52 CD2 58.39 CE1 59.45 CE2 59.46 CZ 63.18
B THR - 16 -66.7 144.5 N 47.95 CA 48.06 C 51.83 O 49.7 CB 50.7 OG1 50.0 CG2 45.54
B ARG - 26 -124.4 2.6 N 47.15 CA 48.22 C 48.98 O 52.82 CB 47.57 CG 49.81 CD 55.03 NE 55.81 CZ 55.59 NH1 58.88 NH2 55.99
B PHE - 4 -107.8 104.7 N 49.51 CA 52.59 C 52.26 O 44.18 CB 53.57 CG 57.11 CD1 57.47 CD2 57.03 CE1 54.08 CE2 55.05 CZ 53.62
B ASP - 69 -83.8 -15.4 N 53.74 CA 59.51 C 53.13 O 53.55 CB 67.91 CG 68.99 OD1 77.8 OD2 76.32
B ASP S 72 -120.6 57.9 N 53.46 CA 64.5 C 58.15 O 55.2 CB 72.65 CG 82.2 OD1 79.54 OD2 84.95
B PRO - 24 -68.2 140.2 N 52.85 CA 49.28 C 52.54 O 60.93 CB 49.22 CG 51.8 CD 49.44
B LEU S 18 -66.1 -49.9 N 53.13 CA 50.52 C 51.84 O 54.26 CB 52.03 CG 61.12 CD1 62.51 CD2 59.09
B PHE B 0 -105.7 134.4 N 48.8 CA 46.7 C 45.1 O 44.51 CB 48.47 CG 44.28 CD1 44.37 CD2 46.3 CE1 44.4 CE2 44.21 CZ 46.67
B ASN - 51 -154.8 143.6 N 48.7 CA 50.48 C 51.02 O 50.08 CB 60.31 CG 62.36 OD1 62.23 ND2 73.36
B VAL - 6 -140.9 160.2 N 46.43 CA 48.08 C 46.63 O 44.09 CB 50.03 CG1 53.6 CG2 45.65
B LYS - 83 -57.3 132.2 N 50.63 CA 54.33 C 50.9 O 50.06 CB 60.71 CG 68.26 CD 76.69 CE 85.64 NZ 88.72
B ARG - 44 -118.1 153.7 N 47.56 CA 49.11 C 51.24 O 44.42 CB 49.32 CG 49.67 CD 43.53 NE 44.18 CZ 46.21 NH1 50.7 NH2 40.96
B ASN - 8 -61.9 172.9 N 47.31 CA 50.0 C 45.66 O 44.18 CB 48.87 CG 52.03 OD1 50.07 ND2 54.99
B ILE B 81 -77.9 119.0 N 46.77 CA 50.58 C 45.19 O 49.92 CB 54.14 CG1 56.29 CG2 52.99 CD1 60.66
B SER - 3 -53.3 142.5 N 42.69 CA 43.05 C 45.54 O 47.08 CB 43.82 OG 46.66
B LYS G 8 -57.4 -29.6 N 41.89 CA 46.45 C 46.92 O 45.03 CB 47.44 CG 48.24 CD 51.03 CE 47.79 NZ 49.97
B TYR G 13 -70.0 -11.1 N 46.9 CA 51.18 C 51.47 O 53.74 CB 54.42 CG 58.81 CD1 58.64 CD2 60.48 CE1 59.73 CE2 61.1 CZ 61.64 OH 56.61
B ASP G 88 -96.3 15.9 N 50.69 CA 51.16 C 52.02 O 51.14 CB 55.01 CG 57.29 OD1 60.43 OD2 63.3
B THR S 13 -123.9 143.8 N 50.86 CA 53.62 C 58.07 O 55.93 CB 55.04 OG1 47.68 CG2 57.15
B PRO T 116 -40.3 -46.0 N 59.53 CA 63.23 C 63.72 O 65.02 CB 64.31 CG 63.01 CD 60.9
B SER T 37 -99.0 -3.8 N 58.41 CA 61.8 C 63.74 O 59.59 CB 62.41 OG 59.11
B ARG S 52 64.4 30.1 N 57.18 CA 56.73 C 55.58 O 54.8 CB 60.85 CG 66.66 CD 71.69 NE 70.18 CZ 68.68 NH1 65.06 NH2 76.34
B GLN S 70 -114.4 -36.9 N 54.87 CA 57.55 C 55.04 O 57.03 CB 64.18 CG 72.55 CD 82.53 OE1 90.2 NE2 84.47
B ALA - 53 -139.2 145.2 N 51.58 CA 52.09 C 50.97 O 55.08 CB 52.2
B PRO - 13 -65.7 163.1 N 52.78 CA 51.82 C 48.12 O 46.48 CB 53.71 CG 52.16 CD 51.71
B ILE B 91 -100.7 115.8 N 43.07 CA 47.86 C 50.08 O 50.36 CB 48.2 CG1 50.25 CG2 47.53 CD1 50.67
B PRO - 30 -75.2 148.9 N 54.86 CA 54.23 C 51.22 O 54.69 CB 53.5 CG 57.84 CD 54.64
B ILE - 40 -95.3 156.4 N 56.02 CA 57.22 C 57.48 O 56.94 CB 60.87 CG1 65.59 CG2 62.14 CD1 68.99
B TYR S 153 -115.5 36.4 N 51.63 CA 56.45 C 57.6 O 61.82 CB 58.99 CG 63.93 CD1 70.21 CD2 69.39 CE1 71.95 CE2 72.6 CZ 70.47 OH 69.03
B GLU S 101 -147.5 153.8 N 53.51 CA 53.2 C 51.75 O 47.95 CB 53.58 CG 58.35 CD 64.91 OE1 62.87 OE2 66.91
B GLY S 2 97.1 175.8 N 51.12 CA 52.07 C 52.05 O 51.07
B LEU H 0 -60.8 -48.9 N 53.04 CA 55.06 C 50.31 O 50.31 CB 54.69 CG 56.45 CD1 55.79 CD2 57.46
B GLY H 1 -58.5 -51.7 N 44.73 CA 44.48 C 42.69 O 44.65
B TYR H 62 -62.1 -43.5 N 42.94 CA 41.33 C 42.45 O 45.04 CB 44.09 CG 44.93 CD1 44.8 CD2 51.88 CE1 52.44 CE2 54.21 CZ 54.53 OH 62.41
B ARG H 72 -63.8 -41.3 N 41.11 CA 47.11 C 42.41 O 42.77 CB 50.99 CG 51.05 CD 54.97 NE 54.97 CZ 60.41 NH1 57.14 NH2 64.43
B LEU H 0 -60.3 -54.1 N 42.64 CA 43.3 C 41.37 O 45.08 CB 40.25 CG 41.91 CD1 40.12 CD2 46.18
B ARG H 22 -60.0 -49.6 N 41.17 CA 40.72 C 44.04 O 46.52 CB 40.62 CG 38.41 CD 42.42 NE 43.04 CZ 44.82 NH1 47.97 NH2 44.01
B SER H 30 -77.0 -19.9 N 41.88 CA 43.53 C 45.22 O 45.69 CB 47.25 OG 44.1
B THR H 34 -80.4 -44.3 N 44.97 CA 44.81 C 43.62 O 46.05 CB 46.81 OG1 47.98 CG2 49.82
B LEU H 0 -67.8 -34.0 N 42.87 CA 40.46 C 40.68 O 41.73 CB 38.56 CG 42.26 CD1 44.12 CD2 42.99
B PHE S 17 -141.5 92.3 N 41.15 CA 41.5 C 46.93 O 44.02 CB 40.47 CG 41.37 CD1 40.4 CD2 42.11 CE1 41.1 CE2 40.56 CZ 41.4
B PRO - 34 -74.3 170.2 N 47.24 CA 53.63 C 56.67 O 51.24 CB 54.92 CG 52.77 CD 52.39
B GLU T 179 -58.6 -31.6 N 60.54 CA 67.16 C 58.46 O 61.93 CB 77.78 CG 82.61 CD 87.89 OE1 83.7 OE2 100.31
B ASP T 112 -70.7 0.8 N 54.95 CA 55.33 C 53.53 O 50.29 CB 63.8 CG 71.59 OD1 73.97 OD2 77.15
B LYS - 111 66.5 20.6 N 52.0 CA 53.01 C 53.67 O 50.88 CB 53.76 CG 55.66 CD 55.92 CE 60.2 NZ 63.46
B THR - 76 -71.5 114.3 N 51.61 CA 55.17 C 53.56 O 48.85 CB 60.42 OG1 66.82 CG2 65.43
B PRO - 59 -63.8 145.4 N 48.76 CA 46.89 C 45.94 O 44.05 CB 48.27 CG 52.32 CD 53.29
B THR E 1 -91.2 115.1 N 44.75 CA 47.66 C 45.35 O 41.65 CB 45.92 OG1 47.59 CG2 46.89
B PRO E 61 -63.8 141.0 N 47.34 CA 46.84 C 42.24 O 38.97 CB 45.38 CG 48.94 CD 46.78
B ILE - 20 -110.2 106.3 N 41.08 CA 41.22 C 42.26 O 37.05 CB 38.74 CG1 38.11 CG2 36.74 CD1 37.67
B ASN - 75 -105.5 64.9 N 45.1 CA 49.75 C 49.8 O 48.36 CB 49.61 CG 48.97 OD1 47.31 ND2 51.84
B LYS - 104 -92.9 121.5 N 49.37 CA 50.53 C 47.3 O 43.25 CB 53.96 CG 52.91 CD 51.37 CE 56.71 NZ 61.63
B LYS - 89 -118.3 151.0 N 47.03 CA 48.14 C 41.36 O 40.47 CB 48.37 CG 49.69 CD 58.89 CE 59.03 NZ 67.46
B SER - 39 -57.9 158.2 N 37.45 CA 41.58 C 41.05 O 41.2 CB 43.18 OG 45.14
B LEU H 49 -56.0 -46.2 N 39.81 CA 46.28 C 39.64 O 44.67 CB 49.28 CG 53.43 CD1 50.8 CD2 58.7
B ARG H 32 -58.8 -49.2 N 40.91 CA 41.73 C 44.56 O 43.92 CB 45.26 CG 44.51 CD 51.0 NE 62.23 CZ 62.34 NH1 70.37 NH2 65.76
B ASP H 80 -65.8 -34.6 N 42.96 CA 43.04 C 38.96 O 37.76 CB 47.99 CG 55.07 OD1 68.38 OD2 64.29
B LYS H 68 -69.4 -47.4 N 39.14 CA 42.3 C 46.21 O 41.88 CB 46.6 CG 51.19 CD 63.56 CE 71.55 NZ 79.59
B VAL H 1 -50.7 -52.1 N 40.09 CA 42.52 C 31.57 O 33.99 CB 39.36 CG1 38.1 CG2 43.74
B LYS H 43 -64.6 -46.8 N 35.19 CA 35.59 C 40.69 O 36.65 CB 35.79 CG 34.84 CD 35.04 CE 35.74 NZ 36.96
B SER H 55 -55.4 -48.1 N 41.64 CA 42.74 C 36.27 O 41.93 CB 46.44 OG 49.89
B THR H 43 -61.3 -44.8 N 37.44 CA 37.72 C 42.93 O 36.2 CB 42.83 OG1 45.79 CG2 45.3
B VAL H 4 -62.2 -47.3 N 37.29 CA 34.68 C 32.84 O 35.76 CB 32.49 CG1 34.91 CG2 34.41
B LEU H 57 -66.7 -14.3 N 33.11 CA 35.96 C 39.11 O 41.3 CB 35.84 CG 35.76 CD1 36.27 CD2 36.03
B SER T 84 -69.9 -17.8 N 46.22 CA 47.26 C 51.51 O 53.66 CB 43.27 OG 41.56
B HIS T 147 -95.1 9.0 N 50.4 CA 46.64 C 41.6 O 44.0 CB 50.73 CG 56.49 ND1 64.43 CD2 64.14 CE1 64.51 NE2 67.86
B TYR S 33 -129.5 169.7 N 37.65 CA 35.97 C 36.48 O 44.29 CB 34.86 CG 33.13 CD1 35.01 CD2 34.63 CE1 36.54 CE2 33.59 CZ 34.43 OH 38.04
B LYS - 123 -122.5 152.0 N 41.31 CA 49.82 C 48.55 O 49.88 CB 57.57 CG 64.13 CD 70.47 CE 71.28 NZ 66.44
B ASP T 136 -50.8 -30.2 N 49.23 CA 50.29 C 52.92 O 57.55 CB 52.23 CG 60.09 OD1 58.43 OD2 63.4
B GLU T 135 -84.5 -12.9 N 48.25 CA 48.92 C 42.32 O 44.09 CB 52.87 CG 65.32 CD 72.34 OE1 75.81 OE2 83.2
B ASP - 39 -54.6 133.0 N 41.02 CA 39.74 C 38.26 O 35.68 CB 39.29 CG 43.67 OD1 44.42 OD2 47.15
B ARG - 71 -125.9 158.0 N 39.68 CA 39.76 C 40.02 O 36.75 CB 40.13 CG 41.46 CD 42.16 NE 37.91 CZ 37.44 NH1 37.42 NH2 39.81
B ILE S 2 -92.9 90.8 N 37.9 CA 35.34 C 37.53 O 37.91 CB 34.72 CG1 33.76 CG2 33.08 CD1 35.53
B ASP - 51 -161.5 -177.4 N 39.27 CA 42.37 C 42.72 O 45.14 CB 45.94 CG 51.32 OD1 55.04 OD2 50.33
B GLY S 51 67.8 -168.4 N 45.25 CA 43.8 C 51.42 O 49.47
B GLU T 188 -70.1 -23.8 N 49.49 CA 55.74 C 52.27 O 51.5 CB 63.08 CG 70.88 CD 78.62 OE1 81.7 OE2 80.87
B LYS T 124 -102.0 29.2 N 51.23 CA 45.65 C 39.86 O 34.79 CB 49.72 CG 56.55 CD 64.01 CE 77.77 NZ 80.08
B LYS H 59 -59.9 -33.1 N 40.22 CA 39.94 C 38.87 O 39.74 CB 43.36 CG 43.1 CD 47.46 CE 56.03 NZ 58.85
B ASP H 77 -78.0 -35.2 N 41.53 CA 42.82 C 39.58 O 33.92 CB 48.54 CG 57.12 OD1 58.71 OD2 59.37
B GLU H 132 -63.1 -45.7 N 37.38 CA 38.94 C 34.6 O 37.23 CB 45.87 CG 56.79 CD 70.57 OE1 72.82 OE2 73.25
B LYS H 73 -60.0 -41.2 N 35.12 CA 34.68 C 34.55 O 30.43 CB 36.59 CG 39.36 CD 43.45 CE 47.98 NZ 52.22
B LEU H 1 -63.9 -43.8 N 35.17 CA 30.96 C 31.17 O 28.44 CB 30.61 CG 29.41 CD1 28.93 CD2 30.57
B ASN H 88 -60.3 -40.5 N 32.68 CA 34.39 C 32.93 O 32.71 CB 39.86 CG 46.53 OD1 46.63 ND2 46.42
B GLU H 111 -63.9 -46.1 N 36.61 CA 38.75 C 31.55 O 32.85 CB 41.99 CG 52.26 CD 59.95 OE1 62.22 OE2 69.65
B LEU H 0 -55.6 -51.0 N 30.08 CA 27.91 C 28.28 O 24.72 CB 27.43 CG 27.32 CD1 31.48 CD2 28.86
B ILE H 6 -56.3 -45.5 N 27.57 CA 28.48 C 28.86 O 26.61 CB 29.13 CG1 29.9 CG2 31.76 CD1 32.13
B THR H 74 -65.3 -46.7 N 30.48 CA 31.79 C 33.9 O 33.92 CB 38.38 OG1 35.46 CG2 38.9
B ASN H 56 -58.8 -47.5 N 35.77 CA 37.19 C 32.44 O 33.58 CB 38.27 CG 41.81 OD1 47.85 ND2 45.73
B LEU H 0 -62.7 -46.2 N 33.9 CA 28.31 C 28.61 O 29.03 CB 29.86 CG 30.83 CD1 31.72 CD2 28.34
B GLN H 47 -60.7 -44.4 N 29.75 CA 29.76 C 30.33 O 29.03 CB 30.64 CG 32.92 CD 36.27 OE1 36.07 NE2 38.56
B ASN H 91 -60.5 -41.8 N 29.52 CA 33.36 C 31.33 O 33.5 CB 36.12 CG 39.64 OD1 46.22 ND2 43.24
B GLU H 29 -70.1 -40.0 N 35.07 CA 35.7 C 39.16 O 37.9 CB 43.81 CG 49.74 CD 54.25 OE1 48.77 OE2 63.13
B LEU H 0 -64.6 -47.5 N 35.15 CA 33.74 C 33.57 O 31.78 CB 33.89 CG 34.52 CD1 34.26 CD2 35.68
B VAL H 29 -71.1 -32.2 N 39.68 CA 41.28 C 44.6 O 44.81 CB 47.74 CG1 48.9 CG2 51.64
B LYS H 115 -59.1 -43.9 N 48.05 CA 48.75 C 48.21 O 49.61 CB 50.29 CG 56.03 CD 62.86 CE 68.95 NZ 72.49
B GLU H 29 -73.6 -32.3 N 41.53 CA 43.91 C 46.78 O 47.87 CB 45.8 CG 52.4 CD 58.95 OE1 60.97 OE2 68.41
B LEU H 8 -76.9 -36.1 N 46.14 CA 41.92 C 40.91 O 43.28 CB 41.66 CG 40.45 CD1 40.95 CD2 44.66
B VAL H 55 -66.5 -22.7 N 47.12 CA 54.21 C 58.76 O 60.22 CB 53.27 CG1 53.37 CG2 54.1
B LYS T 142 -49.2 -41.6 N 61.33 CA 67.74 C 63.18 O 67.96 CB 66.2 CG 68.22 CD 70.81 CE 75.12 NZ 73.11
B SER T 60 -102.6 -24.2 N 66.79 CA 60.96 C 67.8 O 70.97 CB 68.44 OG 71.51
B ASP - 44 -157.0 119.4 N 66.24 CA 62.77 C 65.23 O 62.61 CB 61.8 CG 64.22 OD1 61.08 OD2 63.56
B PRO G 98 -66.9 -22.4 N 61.85 CA 60.05 C 55.72 O 56.49 CB 64.35 CG 59.75 CD 62.31
B GLN G 93 -50.0 -40.1 N 54.33 CA 59.74 C 55.01 O 54.26 CB 66.01 CG 72.9 CD 79.5 OE1 85.09 NE2 75.31
B TYR G 28 -62.1 -5.7 N 51.47 CA 48.54 C 47.26 O 40.27 CB 44.43 CG 40.23 CD1 40.35 CD2 37.56 CE1 40.43 CE2 38.95 CZ 41.92 OH 41.64
B SER G 75 -64.0 -14.2 N 48.46 CA 45.52 C 49.01 O 43.6 CB 51.19 OG 50.84
B LYS G 122 -99.6 7.8 N 52.98 CA 56.24 C 49.01 O 44.8 CB 59.44 CG 70.11 CD 78.56 CE 86.26 NZ 91.84
B LEU - 9 -70.3 137.5 N 46.87 CA 42.89 C 41.38 O 38.06 CB 44.04 CG 47.92 CD1 52.1 CD2 53.06
B SER - 50 -133.1 144.1 N 37.23 CA 36.18 C 34.14 O 34.08 CB 38.78 OG 42.96
B LEU S 0 -108.1 7.6 N 28.03 CA 28.17 C 26.95 O 27.43 CB 29.95 CG 31.63 CD1 30.99 CD2 31.49
B SER S 42 -82.7 -13.7 N 27.72 CA 30.09 C 28.44 O 28.83 CB 29.38 OG 36.52
B LYS B 116 -140.4 148.7 N 28.27 CA 29.75 C 26.77 O 29.12 CB 30.65 CG 35.81 CD 39.5 CE 48.46 NZ 52.69
B ASP - 13 -75.7 176.2 N 26.17 CA 25.01 C 24.62 O 23.0 CB 27.54 CG 30.34 OD1 28.76 OD2 33.28
B PRO T 27 -67.2 -17.7 N 25.03 CA 26.39 C 27.93 O 29.24 CB 27.37 CG 26.65 CD 26.0
B ARG T 66 -89.2 0.7 N 28.89 CA 29.28 C 29.0 O 28.58 CB 28.84 CG 28.89 CD 29.77 NE 29.45 CZ 30.6 NH1 30.55 NH2 32.18
B GLY - 46 92.6 3.7 N 27.14 CA 25.76 C 26.64 O 28.22
B LYS - 108 -67.5 129.3 N 28.0 CA 32.1 C 28.56 O 25.52 CB 34.04 CG 46.12 CD 43.15 CE 42.41 NZ 41.37
B GLU B 122 -64.3 125.5 N 30.5 CA 30.85 C 29.78 O 28.06 CB 34.98 CG 38.36 CD 43.72 OE1 45.24 OE2 49.84
B ILE - 3 -80.6 103.0 N 29.34 CA 28.39 C 27.42 O 30.27 CB 28.3 CG1 27.49 CG2 30.33 CD1 26.99
B ASN - 43 -139.2 179.3 N 28.0 CA 27.71 C 25.83 O 24.35 CB 29.68 CG 32.56 OD1 30.81 ND2 33.9
B TYR H 28 -60.8 -53.0 N 25.78 CA 28.11 C 30.44 O 30.17 CB 28.67 CG 29.62 CD1 29.98 CD2 29.03 CE1 32.82 CE2 31.02 CZ 32.96 OH 34.97
B ASP H 90 -53.5 -38.3 N 30.04 CA 31.49 C 29.18 O 30.77 CB 35.2 CG 39.74 OD1 45.02 OD2 42.18
B TYR I 10 -69.1 -50.0 N 27.94 CA 28.94 C 29.21 O 27.05 CB 30.11 CG 31.88 CD1 35.42 CD2 32.88 CE1 35.85 CE2 34.31 CZ 36.97 OH 55.39
B LEU I 0 -70.4 -32.9 N 28.58 CA 28.03 C 27.63 O 31.84 CB 27.24 CG 27.68 CD1 28.03 CD2 27.87
B VAL I 8 -94.9 -44.4 N 28.49 CA 29.39 C 33.87 O 32.36 CB 28.88 CG1 30.25 CG2 28.45
B ASN I 90 -96.5 -33.1 N 34.8 CA 36.59 C 38.43 O 41.92 CB 36.51 CG 39.15 OD1 41.45 ND2 38.88
B SER I 58 -86.7 -61.4 N 35.39 CA 38.37 C 37.52 O 41.39 CB 35.51 OG 41.37
B LEU S 15 -77.9 -24.3 N 33.95 CA 33.91 C 33.18 O 33.18 CB 33.66 CG 35.92 CD1 32.36 CD2 41.33
B MET - 92 63.7 42.0 N 30.97 CA 31.52 C 29.29 O 33.94 CB 31.07 CG 32.45 SD 28.76 CE 29.75
B LEU - 16 -97.7 -26.8 N 28.7 CA 31.19 C 31.14 O 33.33 CB 29.91 CG 32.88 CD1 32.95 CD2 34.38
B VAL - 2 -143.3 174.7 N 31.11 CA 31.12 C 33.64 O 31.77 CB 29.31 CG1 29.81 CG2 28.84
B ASP - 24 -149.2 -171.1 N 35.17 CA 39.12 C 37.07 O 32.21 CB 43.29 CG 50.37 OD1 45.17 OD2 54.02
B ASN T 62 -65.8 -22.2 N 39.17 CA 41.47 C 39.14 O 39.41 CB 42.58 CG 46.8 OD1 59.78 ND2 45.15
B ASP T 103 -91.8 -2.4 N 37.86 CA 38.59 C 35.44 O 37.1 CB 42.16 CG 45.76 OD1 58.53 OD2 57.31
B SER - 4 -69.8 148.2 N 33.2 CA 30.19 C 30.75 O 31.04 CB 30.6 OG 30.75
B GLU - 97 -66.1 155.5 N 32.03 CA 32.41 C 32.77 O 34.11 CB 34.66 CG 41.93 CD 50.86 OE1 49.88 OE2 59.12
B ILE H 7 -63.2 -35.1 N 30.14 CA 31.22 C 30.83 O 28.54 CB 30.78 CG1 32.17 CG2 29.45 CD1 33.55
B GLY H 10 -62.1 -35.3 N 31.14 CA 29.26 C 29.63 O 31.76
B ASP H 27 -67.0 -35.3 N 31.96 CA 31.7 C 33.49 O 28.82 CB 32.79 CG 34.17 OD1 36.48 OD2 40.77
B TRP H 0 -65.9 -47.0 N 30.68 CA 28.63 C 30.42 O 27.83 CB 26.44 CG 27.54 CD1 27.45 CD2 28.89 NE1 28.45 CE2 29.02 CE3 30.15 CZ2 30.16 CZ3 30.79 CH2 30.48
B ILE H 0 -55.6 -51.2 N 28.54 CA 26.01 C 27.68 O 25.73 CB 26.7 CG1 28.36 CG2 27.19 CD1 29.95
B ASP H 31 -53.7 -46.6 N 27.1 CA 29.27 C 29.75 O 31.3 CB 30.25 CG 35.51 OD1 36.06 OD2 40.11
B THR H 2 -62.7 -47.1 N 28.67 CA 30.53 C 29.82 O 26.86 CB 30.1 OG1 31.59 CG2 33.6
B ILE H 0 -58.0 -47.3 N 28.01 CA 27.36 C 28.92 O 27.15 CB 28.67 CG1 31.71 CG2 27.74 CD1 31.94
B LEU H 1 -66.3 -41.9 N 28.48 CA 28.63 C 27.87 O 28.26 CB 30.34 CG 28.64 CD1 31.32 CD2 27.61
B ASP H 14 -63.7 -31.6 N 26.44 CA 29.62 C 31.72 O 31.37 CB 33.17 CG 38.97 OD1 45.04 OD2 37.61
B ALA H 18 -77.6 -22.4 N 30.49 CA 29.59 C 32.19 O 32.47 CB 29.46
B THR H 15 -126.9 -15.4 N 30.99 CA 29.18 C 30.32 O 31.46 CB 31.58 OG1 29.91 CG2 32.8
B VAL - 2 -116.7 128.6 N 31.49 CA 32.65 C 29.36 O 27.97 CB 33.68 CG1 36.45 CG2 34.74
B ASP - 27 -71.5 147.0 N 32.74 CA 35.41 C 36.68 O 31.33 CB 40.85 CG 49.32 OD1 52.4 OD2 48.87
B SER G 19 -62.8 -25.2 N 35.76 CA 38.52 C 40.39 O 39.52 CB 41.89 OG 50.51
B THR G 71 -64.3 -23.3 N 39.6 CA 42.87 C 41.95 O 36.07 CB 42.84 OG1 44.34 CG2 43.26
B VAL G 6 -64.9 -23.3 N 33.94 CA 36.53 C 33.5 O 33.09 CB 39.5 CG1 40.45 CG2 42.97
B TRP G 13 -88.7 -2.9 N 35.02 CA 38.56 C 38.64 O 45.44 CB 35.53 CG 33.91 CD1 32.13 CD2 33.24 NE1 33.95 CE2 32.25 CE3 31.34 CZ2 30.98 CZ3 32.19 CH2 34.52
B VAL - 93 -62.5 115.5 N 42.11 CA 47.52 C 46.32 O 49.95 CB 46.04 CG1 50.18 CG2 48.54
B ALA - 57 -67.9 144.9 N 50.82 CA 52.89 C 48.98 O 52.58 CB 51.85
B GLN - 137 -63.3 161.7 N 58.02 CA 62.4 C 56.51 O 45.49 CB 70.36 CG 77.02 CD 73.43 OE1 77.45 NE2 79.93
B ALA - 102 -63.5 148.3 N 57.28 CA 55.5 C 41.54 O 42.1 CB 57.78
B SER - 81 -77.4 139.8 N 44.64 CA 50.13 C 43.67 O 47.06 CB 52.67 OG 58.66
B SER - 25 -72.9 145.6 N 42.24 CA 40.23 C 38.59 O 36.25 CB 40.4 OG 42.92
B PRO T 10 -52.8 -24.8 N 39.55 CA 36.98 C 33.54 O 36.34 CB 41.37 CG 41.04 CD 40.7
B PHE T 3 -68.1 -21.0 N 34.93 CA 34.86 C 35.77 O 35.25 CB 35.6 CG 40.06 CD1 40.16 CD2 43.45 CE1 43.41 CE2 45.75 CZ 42.58
B TYR - 14 -122.7 103.8 N 35.16 CA 35.28 C 37.38 O 38.84 CB 38.21 CG 36.02 CD1 34.74 CD2 36.22 CE1 37.56 CE2 39.39 CZ 37.96 OH 40.05
B ASP S 55 -112.3 10.6 N 38.05 CA 38.27 C 37.93 O 36.07 CB 41.62 CG 40.7 OD1 41.28 OD2 41.66
B GLY S 39 102.4 -4.8 N 38.06 CA 38.35 C 40.83 O 37.01
B ALA - 14 -75.7 150.8 N 38.32 CA 38.2 C 40.07 O 37.47 CB 42.13
B LYS S 104 -91.7 -15.9 N 41.3 CA 48.38 C 46.0 O 40.88 CB 51.79 CG 66.94 CD 73.45 CE 79.6 NZ 84.57
B GLU E 77 -158.4 163.5 N 41.2 CA 41.2 C 39.45 O 35.94 CB 43.48 CG 49.26 CD 57.48 OE1 59.78 OE2 62.9
B ILE E 1 -97.5 101.4 N 38.27 CA 34.3 C 34.83 O 33.96 CB 37.09 CG1 38.79 CG2 39.56 CD1 41.26
B SER - 35 -125.7 24.7 N 34.28 CA 36.25 C 37.29 O 36.36 CB 39.56 OG 38.59
B SER S 40 -161.2 164.9 N 40.58 CA 41.59 C 41.56 O 38.61 CB 41.87 OG 37.88
B ASP H 99 -61.8 -37.2 N 43.78 CA 43.95 C 39.87 O 39.35 CB 48.04 CG 52.81 OD1 53.63 OD2 52.63
B ARG H 179 -61.5 -46.5 N 44.0 CA 44.81 C 41.6 O 37.1 CB 54.41 CG 70.87 CD 82.39 NE 96.0 CZ 102.29 NH1 108.37 NH2 101.02
B ASP H 23 -57.9 -44.6 N 41.52 CA 39.52 C 38.06 O 36.43 CB 41.42 CG 45.84 OD1 47.59 OD2 44.82
B ALA H 1 -64.1 -38.7 N 38.64 CA 37.13 C 37.21 O 33.35 CB 39.35
B ASP H 29 -61.0 -46.7 N 38.13 CA 38.63 C 36.97 O 34.12 CB 39.48 CG 42.29 OD1 42.3 OD2 43.66
B LYS H 71 -55.5 -46.6 N 37.88 CA 35.54 C 32.43 O 33.76 CB 39.34 CG 45.05 CD 45.88 CE 46.44 NZ 47.66
B ILE H 6 -72.9 -41.4 N 33.63 CA 35.84 C 34.14 O 34.99 CB 36.49 CG1 44.4 CG2 37.92 CD1 44.47
B SER H 0 -47.6 -49.1 N 35.93 CA 34.0 C 32.98 O 37.5 CB 38.3 OG 39.44
B ILE H 8 -61.8 -39.3 N 35.26 CA 35.64 C 36.19 O 37.2 CB 36.35 CG1 39.78 CG2 35.64 CD1 44.45
B ARG H 17 -65.3 -39.1 N 36.17 CA 36.1 C 34.46 O 37.8 CB 37.96 CG 39.48 CD 42.64 NE 42.23 CZ 43.54 NH1 43.01 NH2 47.08
B VAL H 0 -63.7 -42.8 N 36.47 CA 37.55 C 38.88 O 40.91 CB 39.36 CG1 39.22 CG2 42.33
B GLN H 0 -61.6 -42.3 N 38.77 CA 40.61 C 40.99 O 38.16 CB 37.9 CG 38.61 CD 36.34 OE1 43.19 NE2 39.82
B TYR H 1 -64.3 -38.7 N 40.47 CA 36.69 C 38.67 O 36.56 CB 38.37 CG 40.39 CD1 43.75 CD2 40.6 CE1 43.57 CE2 42.34 CZ 43.31 OH 45.83
B LEU H 0 -62.4 -46.2 N 41.05 CA 42.96 C 42.7 O 45.53 CB 42.29 CG 47.24 CD1 47.96 CD2 50.14
B LEU H 0 -59.7 -39.4 N 46.19 CA 43.49 C 45.88 O 46.22 CB 49.52 CG 52.23 CD1 52.32 CD2 58.07
B ALA H 0 -63.5 -42.5 N 46.26 CA 46.4 C 51.95 O 48.79 CB 47.26
B GLU H 5 -63.7 -36.9 N 48.28 CA 47.13 C 49.84 O 46.17 CB 46.25 CG 49.3 CD 52.21 OE1 55.57 OE2 46.16
B ALA H 0 -63.2 -40.1 N 50.29 CA 50.12 C 52.44 O 54.91 CB 50.19
B ASN H 0 -62.5 -45.5 N 49.74 CA 52.91 C 57.27 O 54.03 CB 53.31 CG 58.08 OD1 59.65 ND2 52.27
B ILE H 12 -58.0 -51.2 N 52.82 CA 50.08 C 53.42 O 54.15 CB 52.02 CG1 50.85 CG2 48.46 CD1 54.96
B TYR H 27 -51.7 -45.3 N 54.44 CA 58.36 C 59.43 O 56.87 CB 58.08 CG 57.21 CD1 61.83 CD2 55.77 CE1 67.0 CE2 65.91 CZ 69.0 OH 76.0
B CYS H 0 -69.1 -42.3 N 53.44 CA 58.09 C 70.01 O 75.34 CB 54.95 SG 47.65
B LYS H 50 -61.2 -45.5 N 70.17 CA 68.7 C 73.09 O 73.02 CB 67.12 CG 66.66 CD 68.12 CE 68.71 NZ 73.45
B THR H 12 -72.9 -29.5 N 66.97 CA 68.98 C 71.01 O 73.89 CB 69.19 OG1 63.84 CG2 67.08
B ASN T 54 -96.5 10.0 N 72.94 CA 72.69 C 75.21 O 71.72 CB 72.13 CG 71.39 OD1 73.3 ND2 72.61
B LYS T 137 61.2 26.2 N 71.04 CA 77.79 C 83.92 O 85.5 CB 81.68 CG 84.42 CD 82.23 CE 83.32 NZ 80.62
B LEU S 59 -82.4 -26.6 N 72.08 CA 67.24 C 67.24 O 77.84 CB 66.7 CG 65.51 CD1 67.4 CD2 70.0
B SER - 7 -163.1 161.5 N 69.07 CA 66.8 C 61.18 O 67.43 CB 68.01 OG 66.34
B ASP - 114 -117.9 -0.1 N 62.67 CA 68.58 C 66.35 O 61.89 CB 80.04 CG 85.08 OD1 84.16 OD2 93.68
B ALA - 34 -64.9 150.6 N 59.44 CA 62.71 C 65.55 O 56.21 CB 64.28
B ASN - 41 -84.1 102.8 N 62.52 CA 60.03 C 57.33 O 63.83 CB 51.48 CG 52.53 OD1 48.97 ND2 49.93
B PHE H 0 -57.0 -26.4 N 55.77 CA 52.99 C 51.51 O 53.87 CB 56.92 CG 56.65 CD1 60.67 CD2 58.82 CE1 59.83 CE2 64.36 CZ 63.31
B GLY H 0 -64.1 -31.0 N 49.32 CA 47.81 C 56.07 O 56.61
B GLU H 124 -60.3 -45.4 N 56.03 CA 59.39 C 56.74 O 62.32 CB 66.43 CG 74.12 CD 73.47 OE1 82.61 OE2 73.22
B PHE H 10 -66.4 -49.5 N 51.99 CA 52.93 C 53.01 O 51.96 CB 56.67 CG 62.42 CD1 69.12 CD2 59.87 CE1 72.67 CE2 66.41 CZ 68.55
B PHE H 0 -72.5 -20.5 N 56.58 CA 52.69 C 50.56 O 49.79 CB 58.69 CG 58.01 CD1 55.73 CD2 51.71 CE1 58.07 CE2 55.05 CZ 52.14
B ASP T 15 -72.7 -23.2 N 52.16 CA 56.95 C 57.18 O 55.54 CB 58.1 CG 59.89 OD1 51.62 OD2 55.76
B LYS S 101 -81.1 149.1 N 64.74 CA 65.77 C 61.88 O 69.46 CB 68.05 CG 72.64 CD 80.2 CE 84.82 NZ 89.97
B GLU T 84 -76.4 149.5 N 60.94 CA 62.04 C 68.46 O 73.75 CB 59.67 CG 62.79 CD 68.25 OE1 67.72 OE2 65.79
B PRO T 87 -82.4 4.5 N 69.37 CA 66.11 C 62.73 O 57.08 CB 64.77 CG 67.14 CD 69.66
B HIS H 21 -64.0 -41.6 N 60.96 CA 60.99 C 57.46 O 57.95 CB 67.73 CG 77.3 ND1 76.15 CD2 78.87 CE1 81.87 NE2 80.63
B ALA H 0 -59.0 -48.8 N 54.13 CA 53.05 C 52.14 O 48.94 CB 50.64
B THR H 54 -63.6 -43.6 N 51.87 CA 48.19 C 50.86 O 52.56 CB 50.65 OG1 52.61 CG2 48.65
B GLU H 54 -68.1 -41.8 N 54.89 CA 59.04 C 55.67 O 49.85 CB 63.83 CG 68.28 CD 70.91 OE1 78.86 OE2 81.34
B ILE H 0 -65.8 -38.1 N 52.54 CA 55.93 C 54.94 O 53.61 CB 52.91 CG1 53.41 CG2 52.39 CD1 48.72
B ALA H 0 -63.0 -43.2 N 51.96 CA 52.15 C 52.33 O 54.11 CB 48.44
B LYS H 121 -64.6 -43.8 N 53.5 CA 52.51 C 51.38 O 51.87 CB 59.18 CG 67.15 CD 74.14 CE 79.1 NZ 84.57
B ARG H 79 -66.3 -40.0 N 50.22 CA 50.25 C 50.22 O 47.55 CB 50.67 CG 55.72 CD 61.97 NE 63.21 CZ 67.27 NH1 67.37 NH2 75.09
B VAL H 0 -63.6 -45.5 N 45.21 CA 43.42 C 43.81 O 46.61 CB 44.15 CG1 44.97 CG2 46.1
B LYS H 80 -56.6 -49.6 N 41.66 CA 42.73 C 45.68 O 39.41 CB 45.67 CG 46.93 CD 51.63 CE 55.17 NZ 65.29
B GLU H 111 -58.1 -40.2 N 49.44 CA 56.07 C 53.48 O 53.74 CB 59.23 CG 70.5 CD 76.27 OE1 70.81 OE2 77.71
B GLY H 2 -52.7 -50.2 N 48.67 CA 48.84 C 48.41 O 46.83
B PHE H 0 -60.1 -44.6 N 46.52 CA 45.05 C 45.51 O 45.66 CB 45.87 CG 39.72 CD1 42.42 CD2 41.24 CE1 42.79 CE2 41.54 CZ 43.51
B THR H 34 -67.0 -28.2 N 47.37 CA 49.65 C 45.53 O 45.18 CB 56.88 OG1 59.48 CG2 57.7
B GLN T 121 -85.4 -7.7 N 51.36 CA 54.11 C 50.84 O 50.47 CB 59.47 CG 61.96 CD 70.62 OE1 81.57 NE2 68.38
B GLY T 9 62.4 24.1 N 49.04 CA 48.57 C 45.91 O 47.75
B ALA - 35 -76.8 159.3 N 45.93 CA 46.69 C 49.06 O 52.44 CB 47.05
B ASP - 99 -66.2 126.2 N 46.73 CA 53.47 C 52.91 O 56.11 CB 55.7 CG 57.13 OD1 65.49 OD2 62.94
B ILE H 0 -79.7 -42.5 N 48.31 CA 49.72 C 50.97 O 47.33 CB 44.73 CG1 46.44 CG2 45.94 CD1 45.78
B GLU H 14 -51.2 -44.7 N 48.34 CA 53.69 C 55.79 O 50.88 CB 53.88 CG 55.08 CD 55.24 OE1 55.66 OE2 50.93
B PRO H 44 -71.5 -22.0 N 53.99 CA 58.12 C 59.57 O 66.54 CB 57.08 CG 62.21 CD 56.26
B ILE H 34 -58.7 -44.0 N 54.49 CA 52.28 C 56.56 O 50.31 CB 55.71 CG1 51.29 CG2 60.26 CD1 52.81
B ILE H 0 -67.3 -46.2 N 48.01 CA 51.81 C 53.63 O 60.71 CB 46.65 CG1 44.05 CG2 49.31 CD1 47.36
B TYR H 3 -60.9 -39.5 N 55.77 CA 53.6 C 56.87 O 61.37 CB 54.72 CG 52.1 CD1 57.78 CD2 49.64 CE1 62.59 CE2 57.07 CZ 57.7 OH 56.91
B ASP H 88 -64.0 -38.7 N 63.44 CA 66.13 C 68.91 O 73.55 CB 67.4 CG 72.71 OD1 74.54 OD2 74.94
B TYR H 13 -70.6 -40.9 N 64.45 CA 61.55 C 67.49 O 69.98 CB 62.35 CG 64.88 CD1 63.68 CD2 64.28 CE1 64.19 CE2 64.35 CZ 63.5 OH 70.88
B ILE H 0 -60.0 -44.0 N 62.18 CA 59.52 C 59.15 O 66.01 CB 59.98 CG1 59.32 CG2 54.83 CD1 56.84
B ASN H 28 -67.0 -40.3 N 64.3 CA 68.55 C 66.11 O 71.6 CB 68.63 CG 61.38 OD1 62.14 ND2 58.29
B SER H 92 -56.7 -20.9 N 65.18 CA 63.56 C 67.66 O 74.86 CB 60.63 OG 63.05
B ASN T 31 -126.2 27.1 N 67.2 CA 67.83 C 65.45 O 58.93 CB 69.83 CG 67.53 OD1 72.22 ND2 63.69
B HIS T 50 -61.8 -39.6 N 67.05 CA 64.21 C 68.07 O 66.52 CB 71.73 CG 83.22 ND1 91.91 CD2 84.99 CE1 89.98 NE2 93.91
B ALA T 73 -68.1 -39.5 N 67.54 CA 67.0 C 65.68 O 66.92 CB 68.75
B GLU T 116 -65.9 -24.6 N 66.31 CA 65.21 C 70.76 O 74.03 CB 70.2 CG 77.2 CD 83.34 OE1 84.09 OE2 90.41
B LEU T 2 -87.3 9.1 N 62.14 CA 66.2 C 69.78 O 68.08 CB 66.43 CG 64.53 CD1 69.81 CD2 64.67
B GLY T 44 85.5 11.0 N 67.49 CA 67.72 C 67.66 O 68.67
B LEU - 7 -97.6 138.8 N 70.66 CA 75.31 C 77.81 O 72.61 CB 80.06 CG 78.52 CD1 81.7 CD2 75.91
B LYS S 196 -71.4 -41.0 N 80.73 CA 83.56 C 83.14 O 86.53 CB 82.54 CG 80.33 CD 83.68 CE 90.36 NZ 98.87
B SER S 75 -128.5 160.9 N 74.14 CA 81.74 C 78.57 O 71.14 CB 83.56 OG 86.45
B PRO - 65 -66.0 160.4 N 82.21 CA 81.95 C 78.68 O 67.22 CB 79.39 CG 77.54 CD 81.69
B LEU - 7 -78.3 132.3 N 80.27 CA 71.44 C 68.07 O 73.25 CB 75.48 CG 72.42 CD1 74.61 CD2 77.15
B THR - 71 -72.2 161.3 N 69.89 CA 73.25 C 71.78 O 70.36 CB 75.18 OG1 84.89 CG2 75.02
B GLY H 54 -50.8 -40.8 N 67.42 CA 69.77 C 74.48 O 79.13
B LYS H 148 -62.6 -47.7 N 80.83 CA 81.83 C 76.55 O 81.86 CB 87.59 CG 92.29 CD 95.3 CE 93.74 NZ 92.91
B GLN H 40 -65.2 -39.1 N 73.58 CA 68.48 C 65.21 O 68.95 CB 69.87 CG 73.58 CD 72.18 OE1 71.94 NE2 75.44
B GLN H 36 -58.3 -42.8 N 59.19 CA 54.89 C 49.47 O 47.97 CB 53.03 CG 59.3 CD 58.72 OE1 59.85 NE2 58.68
B GLN H 106 -69.0 -37.8 N 58.88 CA 56.77 C 58.29 O 55.44 CB 61.6 CG 63.0 CD 71.38 OE1 73.22 NE2 74.56
B GLU H 73 -59.5 -46.3 N 64.52 CA 63.22 C 59.68 O 56.77 CB 64.49 CG 71.25 CD 80.09 OE1 91.47 OE2 77.21
B ILE H 1 -59.9 -49.9 N 60.92 CA 50.59 C 53.59 O 54.46 CB 57.85 CG1 58.1 CG2 56.34 CD1 60.36
B THR H 22 -53.0 -40.4 N 48.82 CA 48.5 C 47.99 O 49.72 CB 51.58 OG1 48.39 CG2 49.59
B ASP H 88 -72.3 -39.0 N 53.0 CA 51.03 C 44.96 O 46.23 CB 53.8 CG 63.3 OD1 62.52 OD2 69.35
B LYS H 51 -66.7 -46.9 N 48.5 CA 47.61 C 46.58 O 42.47 CB 51.62 CG 56.95 CD 60.89 CE 69.19 NZ 69.94
B PHE H 0 -52.1 -52.8 N 46.36 CA 47.71 C 45.77 O 44.89 CB 45.05 CG 47.05 CD1 46.02 CD2 43.07 CE1 48.49 CE2 50.81 CZ 49.02
B THR H 32 -61.8 -50.3 N 44.59 CA 40.07 C 39.22 O 39.36 CB 43.2 OG1 47.37 CG2 44.5
B LYS H 100 -66.9 -45.9 N 39.89 CA 43.15 C 42.41 O 34.87 CB 45.62 CG 52.33 CD 64.9 CE 68.17 NZ 77.88
B HIS H 5 -66.5 -44.8 N 39.38 CA 40.41 C 38.76 O 37.38 CB 39.93 CG 40.02 ND1 40.84 CD2 45.69 CE1 38.98 NE2 41.12
B TYR H 10 -57.7 -43.8 N 40.84 CA 38.56 C 42.59 O 41.28 CB 38.72 CG 38.88 CD1 40.11 CD2 41.65 CE1 36.64 CE2 38.44 CZ 39.77 OH 39.48
B ASN H 66 -62.2 -33.7 N 41.09 CA 39.56 C 35.58 O 38.08 CB 43.1 CG 49.15 OD1 49.3 ND2 56.3
B THR H 74 -66.8 -34.6 N 36.49 CA 37.34 C 40.88 O 39.68 CB 39.8 OG1 39.95 CG2 41.14
B ILE H 4 -104.5 10.4 N 39.44 CA 42.01 C 42.23 O 37.37 CB 38.66 CG1 39.49 CG2 37.19 CD1 40.38
B LYS T 91 -71.3 -14.8 N 40.46 CA 39.17 C 34.08 O 35.66 CB 45.78 CG 47.86 CD 57.13 CE 68.46 NZ 86.35
B GLU T 68 -96.8 9.6 N 35.91 CA 40.91 C 44.07 O 43.44 CB 42.91 CG 51.04 CD 58.73 OE1 63.77 OE2 70.47
B SER - 19 -56.1 133.6 N 43.06 CA 42.79 C 43.48 O 39.3 CB 39.21 OG 42.52
B PRO S 43 -52.8 -37.6 N 44.11 CA 42.87 C 40.2 O 40.58 CB 44.92 CG 45.65 CD 44.01
B HIS - 26 -125.2 136.9 N 38.16 CA 38.83 C 34.42 O 32.58 CB 43.44 CG 48.64 ND1 50.28 CD2 50.67 CE1 49.63 NE2 51.17
B PHE - 37 -104.7 23.8 N 35.28 CA 37.45 C 39.72 O 45.0 CB 35.45 CG 37.17 CD1 40.22 CD2 39.5 CE1 38.92 CE2 41.57 CZ 38.08
B ASP S 1 -68.0 -34.9 N 43.34 CA 41.92 C 41.29 O 42.16 CB 43.77 CG 42.58 OD1 47.56 OD2 51.31
B GLU E 1 -159.4 155.4 N 39.12 CA 39.49 C 36.3 O 37.92 CB 39.15 CG 44.32 CD 53.57 OE1 53.46 OE2 53.43
B PHE E 2 -144.0 150.3 N 36.74 CA 35.93 C 39.72 O 39.74 CB 37.05 CG 34.84 CD1 33.28 CD2 37.35 CE1 32.63 CE2 40.38 CZ 36.41
B PHE E 0 -104.5 124.2 N 42.57 CA 41.94 C 44.13 O 45.51 CB 43.93 CG 45.73 CD1 48.8 CD2 45.83 CE1 51.88 CE2 51.03 CZ 50.14
B VAL E 6 -120.3 124.0 N 44.86 CA 44.78 C 46.11 O 46.4 CB 46.03 CG1 45.43 CG2 44.7
B ALA E 4 -114.6 146.2 N 47.23 CA 49.62 C 53.54 O 56.75 CB 50.38
B ASP - 18 -119.9 94.9 N 50.66 CA 53.55 C 60.83 O 53.95 CB 60.44 CG 60.04 OD1 58.29 OD2 69.52
B PRO T 1 -78.6 1.2 N 62.43 CA 63.71 C 66.95 O 73.21 CB 60.52 CG 61.76 CD 63.63
B ASP T 98 -86.5 3.6 N 66.14 CA 62.44 C 62.41 O 68.14 CB 65.38 CG 65.03 OD1 68.54 OD2 62.69
B LYS S 59 -118.2 155.9 N 64.95 CA 66.44 C 72.5 O 72.73 CB 71.45 CG 71.58 CD 74.35 CE 75.42 NZ 77.1
B LYS - 149 -69.8 142.3 N 73.45 CA 73.1 C 64.97 O 64.83 CB 79.04 CG 89.9 CD 100.03 CE 98.34 NZ 94.57
B GLY S 4 166.0 -177.7 N 62.53 CA 60.06 C 61.44 O 71.75
B ASN S 20 -90.4 2.1 N 54.64 CA 54.58 C 55.15 O 54.46 CB 55.4 CG 59.67 OD1 56.58 ND2 56.43
B ILE E 1 -117.4 136.5 N 59.11 CA 56.53 C 55.57 O 57.38 CB 59.63 CG1 60.19 CG2 57.03 CD1 60.91
B PHE E 5 -125.4 162.0 N 52.61 CA 54.02 C 51.56 O 55.62 CB 54.68 CG 54.14 CD1 61.27 CD2 58.02 CE1 57.06 CE2 56.74 CZ 59.31
B SER E 10 -107.7 132.5 N 50.56 CA 51.76 C 52.29 O 54.33 CB 55.91 OG 62.42
B HIS E 2 -164.3 124.4 N 52.64 CA 53.04 C 52.07 O 52.88 CB 57.46 CG 62.5 ND1 64.32 CD2 64.32 CE1 63.16 NE2 62.45
B GLN T 23 50.3 41.5 N 51.65 CA 50.66 C 48.13 O 47.54 CB 50.96 CG 54.08 CD 55.58 OE1 54.81 NE2 55.75
B GLY T 49 67.8 23.0 N 45.6 CA 47.19 C 47.48 O 49.12
B ARG E 29 -126.1 140.4 N 51.45 CA 48.01 C 49.29 O 50.67 CB 51.8 CG 50.95 CD 53.35 NE 60.97 CZ 55.21 NH1 58.02 NH2 54.63
B ILE E 0 -95.8 121.5 N 45.46 CA 47.52 C 46.3 O 42.74 CB 46.84 CG1 46.03 CG2 44.91 CD1 49.35
B SER E 1 -140.9 163.0 N 49.61 CA 49.1 C 51.73 O 51.72 CB 54.84 OG 60.98
B CYS E 0 -121.7 164.0 N 48.09 CA 49.33 C 51.51 O 49.65 CB 43.26 SG 38.64
B HIS E 4 -70.2 133.2 N 54.54 CA 57.26 C 56.53 O 55.01 CB 59.77 CG 64.77 ND1 64.72 CD2 64.6 CE1 61.93 NE2 63.57
B PHE H 0 -57.8 -36.0 N 54.46 CA 57.41 C 59.27 O 61.11 CB 56.86 CG 60.95 CD1 57.71 CD2 62.27 CE1 62.47 CE2 62.83 CZ 63.12
B LEU H 0 -66.2 -39.4 N 65.83 CA 69.23 C 74.81 O 72.6 CB 70.24 CG 71.78 CD1 77.06 CD2 70.59
B ASP H 10 -53.8 -54.9 N 73.43 CA 69.9 C 67.66 O 68.25 CB 66.75 CG 71.1 OD1 74.96 OD2 62.64
B PHE H 0 -57.5 -48.5 N 61.04 CA 57.47 C 61.44 O 63.73 CB 50.99 CG 51.82 CD1 54.33 CD2 49.33 CE1 54.92 CE2 50.61 CZ 51.65
B PHE H 0 -57.7 -47.1 N 63.56 CA 78.88 C 80.65 O 77.96 CB 80.54 CG 88.73 CD1 86.18 CD2 91.36 CE1 86.99 CE2 91.82 CZ 91.26
B THR H 49 -62.4 -37.9 N 82.16 CA 80.16 C 83.12 O 95.46 CB 75.71 OG1 69.26 CG2 77.14
B ARG H 68 -75.8 -38.9 N 81.79 CA 79.44 C 82.92 O 79.39 CB 80.54 CG 76.71 CD 72.77 NE 66.41 CZ 71.5 NH1 76.3 NH2 74.23
B GLN H 19 -67.8 -36.5 N 79.21 CA 76.95 C 84.27 O 88.4 CB 69.23 CG 67.88 CD 66.44 OE1 79.02 NE2 64.81
B THR H 5 -82.7 -14.5 N 95.27 CA 95.83 C 103.34 O 103.58 CB 93.01 OG1 98.1 CG2 104.95
B LYS T 146 66.2 28.6 N 103.29 CA 90.78 C 94.62 O 89.33 CB 88.23 CG 88.41 CD 91.42 CE 91.03 NZ 92.93
B GLY T 38 67.5 13.0 N 101.64 CA 103.63 C 112.47 O 110.29
B LYS - 142 -60.2 -62.4 N 107.66 CA 93.04 C 98.45 O 98.14 CB 85.04 CG 86.25 CD 84.66 CE 87.84 NZ 89.95
B HIS S 47 -80.5 98.8 N 95.4 CA 103.01 C 102.75 O 107.09 CB 102.62 CG 91.18 ND1 86.23 CD2 88.26 CE1 89.13 NE2 87.86
B PRO - 104 -71.6 159.1 N 110.79 CA 106.7 C 106.21 O 110.43 CB 110.0 CG 109.76 CD 109.71
B LEU - 21 -84.0 -6.2 N 108.42 CA 104.93 C 101.82 O 110.5 CB 103.61 CG 98.01 CD1 95.13 CD2 98.67
B GLY G 50 61.5 -124.2 N 95.67 CA 94.5 C 93.42 O 96.48
B ASP G 124 -66.5 -15.4 N 92.85 CA 99.43 C 100.6 O 99.71 CB 104.75 CG 112.84 OD1 113.7 OD2 114.29
B LEU G 2 -98.3 5.9 N 102.78 CA 101.48 C 104.42 O 113.82 CB 97.13 CG 92.12 CD1 86.05 CD2 93.05
B ALA T 59 -62.4 -17.2 N 103.73 CA 94.48 C 83.89 O 74.66 CB 99.21
B SER T 55 -115.6 12.1 N 80.68 CA 82.36 C 85.31 O 84.4 CB 80.74 OG 85.12
B HIS H 11 -68.6 -37.3 N 84.13 CA 85.78 C 76.18 O 71.44 CB 89.36 CG 92.75 ND1 93.27 CD2 87.65 CE1 88.52 NE2 87.24
B GLN H 64 -59.0 -51.8 N 73.43 CA 76.97 C 78.49 O 74.34 CB 74.51 CG 86.58 CD 86.53 OE1 103.99 NE2 89.56
B GLU H 116 -58.5 -43.1 N 83.35 CA 83.33 C 79.78 O 78.4 CB 90.22 CG 101.79 CD 116.73 OE1 120.74 OE2 119.73
B ALA H 15 -59.2 -36.9 N 75.91 CA 76.76 C 74.91 O 78.52 CB 78.31
B LEU H 7 -67.0 -41.3 N 78.67 CA 77.38 C 77.88 O 75.93 CB 78.58 CG 76.1 CD1 80.18 CD2 75.8
B GLN H 47 -58.0 -33.6 N 80.48 CA 79.32 C 80.51 O 82.4 CB 75.12 CG 73.81 CD 76.6 OE1 74.37 NE2 75.99
B GLU T 162 -68.0 -8.2 N 91.69 CA 91.82 C 90.74 O 92.9 CB 97.43 CG 101.34 CD 104.73 OE1 112.48 OE2 103.82
B GLY S 41 -70.0 162.6 N 86.35 CA 81.02 C 81.1 O 80.55
B THR S 145 -82.4 -8.1 N 83.56 CA 86.46 C 85.75 O 86.08 CB 89.03 OG1 85.58 CG2 89.93
B SER - 41 -157.0 150.0 N 80.51 CA 77.64 C 76.27 O 66.81 CB 75.04 OG 72.83
B ASN S 5 -93.6 2.2 N 69.68 CA 69.74 C 67.78 O 77.79 CB 70.12 CG 69.77 OD1 72.44 ND2 71.84
B ARG E 78 -90.4 113.5 N 66.75 CA 66.7 C 60.88 O 63.46 CB 71.62 CG 75.2 CD 74.74 NE 73.97 CZ 71.29 NH1 64.41 NH2 73.03
B LEU E 18 -106.9 139.9 N 65.3 CA 63.61 C 69.0 O 65.5 CB 60.31 CG 55.11 CD1 60.64 CD2 57.29
B HIS - 88 -58.3 132.5 N 80.69 CA 95.93 C 103.21 O 121.03 CB 101.07 CG 119.38 ND1 120.67 CD2 120.12 CE1 117.71 NE2 115.94
B HIS S 95 -67.4 -36.4 N 99.64 CA 100.69 C 106.24 O 74.1 CB 105.57 CG 115.24 ND1 116.66 CD2 119.11 CE1 120.5 NE2 124.6
B LYS S 83 -108.2 157.8 N 119.5 CA 119.25 C 117.8 O 109.28 CB 122.69 CG 125.31 CD 121.88 CE 114.95 NZ 111.37
B ASN - 1 -97.1 141.1 N 116.51 CA 124.08 C 137.71 O 137.39 CB 120.12 CG 110.3 OD1 97.39 ND2 94.66
B GLU H 70 -72.0 -63.0 N 142.27 CA 139.94 C 151.18 O 144.03 CB 127.5 CG 117.98 CD 121.84 OE1 118.44 OE2 112.39
B VAL H 21 -67.2 -28.4 N 149.82 CA 143.12 C 147.9 O 134.84 CB 131.06 CG1 122.19 CG2 125.08
B VAL H 11 -84.1 -20.1 N 157.87 CA 156.22 C 161.04 O 149.53 CB 149.19 CG1 144.81 CG2 143.94
B ALA H 18 -83.5 -43.8 N 165.74 CA 159.12 C 155.66 O 149.85 CB 153.88
B GLN T 98 -90.4 4.0 N 157.06 CA 152.71 C 156.55 O 161.62 CB 143.14 CG 140.77 CD 130.81 OE1 132.24 NE2 126.34
B GLY T 21 -65.8 -35.9 N 151.96 CA 145.14 C 141.62 O 123.72
B TYR T 126 -61.4 -34.4 N 151.5 CA 163.95 C 165.26 O 153.94 CB 163.86 CG 160.33 CD1 151.38 CD2 155.25 CE1 148.18 CE2 150.63 CZ 151.98 OH 138.66
B GLU T 131 -78.8 -23.6 N 161.23 CA 147.42 C 141.22 O 135.76 CB 143.56 CG 140.42 CD 136.14 OE1 133.7 OE2 130.97
B LYS - 209 -133.7 360.0 N 137.94 CA 129.67 C 116.22 O 95.96 CB 128.13 CG 123.86 CD 121.66 CE 120.28 NZ 118.54
