A ALA - 31 360.0 30.7 N 62.49 CA 52.71 C 53.45 O 55.26 CB 47.35
A PHE - 113 -143.1 -67.5 N 52.6 CA 44.74 C 39.25 O 41.36 CB 54.65 CG 59.14 CD1 60.38 CD2 65.95 CE1 64.98 CE2 69.48 CZ 70.05
A LYS S 138 -78.4 127.1 N 32.52 CA 34.37 C 26.06 O 30.9 CB 36.33 CG 49.36 CD 57.97 CE 58.4 NZ 51.98
A PRO - 9 -66.0 154.1 N 24.64 CA 26.93 C 26.96 O 27.93 CB 27.66 CG 34.92 CD 31.4
A PRO - 26 -77.0 156.1 N 25.63 CA 22.91 C 22.08 O 21.49 CB 27.12 CG 25.54 CD 24.56
A PRO B 84 -68.7 154.3 N 22.71 CA 22.09 C 20.9 O 20.84 CB 23.37 CG 31.54 CD 26.4
A ARG - 31 -54.7 125.8 N 21.53 CA 19.54 C 19.94 O 22.04 CB 22.03 CG 18.09 CD 17.62 NE 19.81 CZ 18.07 NH1 19.15 NH2 19.43
A PRO - 63 -76.7 -26.4 N 20.38 CA 23.01 C 22.94 O 23.05 CB 22.72 CG 26.31 CD 22.35
A ASP - 67 178.2 178.6 N 19.45 CA 20.62 C 21.3 O 21.59 CB 25.84 CG 33.75 OD1 32.33 OD2 42.44
A PHE - 100 -107.1 148.0 N 20.78 CA 21.59 C 21.19 O 25.36 CB 23.59 CG 17.99 CD1 18.41 CD2 27.95 CE1 22.22 CE2 31.32 CZ 20.98
A GLY - 11 -68.9 150.3 N 18.34 CA 22.97 C 23.78 O 21.51
A THR - 110 -124.1 -10.1 N 21.58 CA 21.85 C 22.25 O 24.53 CB 29.65 OG1 30.31 CG2 31.39
A SER - 41 -80.2 142.6 N 17.37 CA 20.8 C 18.64 O 20.96 CB 28.74 OG 34.49
A GLY S 36 93.3 153.3 N 19.49 CA 16.73 C 19.64 O 25.36
A ARG E 111 -69.3 153.6 N 19.68 CA 18.86 C 17.37 O 17.33 CB 19.03 CG 20.55 CD 23.9 NE 22.57 CZ 21.99 NH1 21.68 NH2 23.6
A THR E 97 -81.8 153.1 N 21.38 CA 19.72 C 20.72 O 18.25 CB 23.0 OG1 26.54 CG2 27.38
A ILE E 3 -142.2 133.8 N 19.16 CA 20.2 C 17.25 O 17.1 CB 16.78 CG1 17.21 CG2 18.57 CD1 18.46
A LYS E 129 -79.7 125.6 N 18.03 CA 18.24 C 17.76 O 19.16 CB 19.45 CG 27.84 CD 38.4 CE 45.31 NZ 53.61
A LEU E 1 -126.9 161.5 N 17.85 CA 16.9 C 20.03 O 19.38 CB 15.97 CG 18.19 CD1 16.68 CD2 17.42
A GLN E 46 -124.2 138.4 N 21.73 CA 20.77 C 18.89 O 20.99 CB 23.01 CG 31.83 CD 42.11 OE1 48.87 NE2 45.68
A ALA E 0 -117.2 148.9 N 16.96 CA 16.49 C 19.56 O 18.38 CB 17.46
A ASN S 0 -77.4 45.1 N 18.92 CA 18.73 C 22.13 O 19.53 CB 17.73 CG 18.66 OD1 18.37 ND2 18.32
A PHE E 0 -113.8 132.3 N 17.87 CA 20.69 C 26.33 O 22.25 CB 17.7 CG 21.06 CD1 24.37 CD2 25.23 CE1 25.07 CE2 26.35 CZ 19.01
A PHE E 0 -115.8 122.7 N 20.15 CA 21.33 C 22.34 O 22.48 CB 22.16 CG 21.79 CD1 21.19 CD2 24.58 CE1 24.64 CE2 26.35 CZ 25.27
A GLU E 19 -64.4 137.1 N 23.49 CA 23.14 C 27.92 O 29.5 CB 28.5 CG 35.52 CD 47.1 OE1 51.63 OE2 43.25
A MET E 4 -113.2 137.5 N 24.82 CA 26.26 C 33.47 O 33.17 CB 26.99 CG 26.64 SD 30.95 CE 31.57
A ASP E 78 -103.4 121.0 N 29.08 CA 33.71 C 36.31 O 42.33 CB 47.95 CG 60.95 OD1 63.38 OD2 69.58
A ILE - 19 -112.7 132.5 N 32.62 CA 39.86 C 44.36 O 45.38 CB 44.48 CG1 45.06 CG2 50.16 CD1 42.97
A PRO - 32 -70.1 160.9 N 44.83 CA 49.64 C 52.05 O 51.09 CB 48.53 CG 46.5 CD 44.21
A LYS S 146 -101.4 74.7 N 58.46 CA 61.34 C 63.59 O 72.32 CB 64.06 CG 71.46 CD 74.13 CE 75.1 NZ 73.19
A ILE - 79 -142.1 152.1 N 61.67 CA 62.9 C 61.45 O 58.21 CB 70.04 CG1 70.91 CG2 70.17 CD1 69.64
A ASP E 76 -73.6 147.0 N 65.05 CA 65.35 C 65.42 O 64.47 CB 69.89 CG 74.37 OD1 74.5 OD2 75.01
A ILE E 9 -124.1 163.4 N 64.85 CA 65.75 C 63.22 O 64.07 CB 66.22 CG1 61.9 CG2 67.05 CD1 63.82
A TYR E 43 -114.3 129.6 N 61.98 CA 61.28 C 61.07 O 62.3 CB 61.82 CG 63.45 CD1 61.38 CD2 68.16 CE1 66.22 CE2 72.78 CZ 73.24 OH 75.61
A HIS E 25 -108.8 128.2 N 57.52 CA 54.18 C 59.15 O 65.81 CB 56.84 CG 61.46 ND1 64.36 CD2 63.42 CE1 65.46 NE2 65.01
A TYR E 0 -122.2 151.0 N 55.44 CA 56.62 C 55.31 O 50.65 CB 58.22 CG 60.92 CD1 59.37 CD2 65.36 CE1 60.1 CE2 67.69 CZ 66.56 OH 69.87
A GLU E 85 -101.1 132.5 N 56.67 CA 58.23 C 60.31 O 59.96 CB 61.03 CG 66.48 CD 75.36 OE1 77.4 OE2 78.69
A LEU E 0 -112.7 136.1 N 61.7 CA 67.75 C 67.02 O 65.27 CB 68.88 CG 71.67 CD1 71.38 CD2 69.65
A ASP E 38 -121.8 126.0 N 67.35 CA 66.25 C 63.68 O 63.86 CB 71.64 CG 78.26 OD1 80.58 OD2 81.84
A ILE E 5 -110.6 123.4 N 62.08 CA 62.21 C 64.49 O 65.39 CB 58.37 CG1 55.28 CG2 62.57 CD1 54.63
A LYS E 124 -116.8 125.4 N 66.2 CA 70.05 C 70.63 O 69.99 CB 75.13 CG 76.79 CD 78.97 CE 77.34 NZ 79.09
A PRO S 74 -72.8 148.6 N 73.02 CA 74.72 C 71.62 O 73.28 CB 76.04 CG 74.96 CD 75.63
A GLU - 99 -107.4 23.5 N 71.8 CA 71.51 C 70.29 O 71.15 CB 75.23 CG 81.83 CD 85.22 OE1 83.35 OE2 87.39
A LYS - 206 -88.9 3.8 N 71.1 CA 70.76 C 68.2 O 66.76 CB 72.0 CG 75.05 CD 78.39 CE 79.11 NZ 80.48
A CYS S 27 -68.6 143.6 N 67.3 CA 62.86 C 58.45 O 58.19 CB 61.28 SG 75.02
A PRO - 87 -57.9 147.3 N 53.88 CA 49.97 C 48.66 O 46.22 CB 50.8 CG 51.23 CD 54.42
A ARG H 103 -51.3 -38.6 N 47.61 CA 46.65 C 47.34 O 48.55 CB 45.23 CG 46.67 CD 44.04 NE 44.47 CZ 41.59 NH1 40.56 NH2 40.27
A ARG H 95 -66.5 -40.2 N 44.46 CA 46.64 C 47.39 O 50.19 CB 49.17 CG 54.02 CD 58.05 NE 64.11 CZ 68.02 NH1 73.19 NH2 65.54
A VAL H 42 -61.3 -43.7 N 47.28 CA 50.66 C 52.41 O 50.99 CB 52.03 CG1 53.31 CG2 55.66
A ASN H 14 -56.9 -41.9 N 48.43 CA 49.7 C 48.21 O 49.61 CB 48.03 CG 48.52 OD1 50.66 ND2 49.09
A ARG H 20 -61.1 -39.0 N 46.28 CA 47.99 C 53.09 O 59.02 CB 43.49 CG 41.44 CD 39.48 NE 37.64 CZ 40.85 NH1 38.79 NH2 43.5
A GLU H 71 -66.3 -40.6 N 48.76 CA 57.87 C 58.86 O 58.22 CB 66.11 CG 71.64 CD 81.61 OE1 85.02 OE2 85.99
A ILE H 0 -58.8 -48.3 N 57.82 CA 57.28 C 55.69 O 57.74 CB 59.17 CG1 58.69 CG2 57.82 CD1 60.08
A VAL H 5 -67.7 -38.1 N 53.83 CA 56.72 C 59.4 O 61.23 CB 54.09 CG1 50.64 CG2 55.46
A GLU H 68 -58.2 -47.9 N 52.46 CA 58.48 C 60.88 O 60.2 CB 61.4 CG 68.68 CD 75.03 OE1 76.54 OE2 77.81
A HIS H 47 -71.5 -34.8 N 61.46 CA 66.71 C 67.54 O 72.15 CB 70.65 CG 76.42 ND1 78.67 CD2 77.92 CE1 78.27 NE2 78.41
A MET H 0 -59.3 -45.8 N 64.02 CA 64.58 C 66.93 O 71.96 CB 61.19 CG 68.54 SD 79.53 CE 67.12
A VAL H 24 -61.3 -46.6 N 60.05 CA 66.39 C 68.36 O 68.51 CB 60.47 CG1 59.89 CG2 59.03
A GLN H 95 -69.6 -39.1 N 70.19 CA 74.75 C 77.03 O 81.84 CB 77.49 CG 81.88 CD 83.46 OE1 82.02 NE2 85.24
A HIS H 84 -66.0 -38.4 N 75.59 CA 77.97 C 76.68 O 80.9 CB 85.2 CG 91.95 ND1 93.58 CD2 93.87 CE1 92.8 NE2 93.66
A PHE T 58 -105.0 23.2 N 72.21 CA 74.56 C 78.89 O 82.27 CB 71.48 CG 72.61 CD1 70.81 CD2 79.88 CE1 73.41 CE2 79.97 CZ 77.05
A LYS - 118 -50.8 -41.2 N 79.93 CA 80.23 C 82.38 O 81.87 CB 81.89 CG 81.35 CD 84.27 CE 84.18 NZ 86.84
A THR T 120 -82.9 127.2 N 85.21 CA 87.67 C 86.37 O 84.62 CB 93.01 OG1 95.21 CG2 91.14
A GLN T 183 68.5 7.1 N 86.35 CA 88.97 C 89.04 O 91.41 CB 94.37 CG 94.22 CD 95.67 OE1 96.65 NE2 97.14
A ILE T 29 -156.1 138.0 N 85.85 CA 84.44 C 82.99 O 86.57 CB 78.08 CG1 78.85 CG2 75.54 CD1 77.95
A PHE T 20 76.5 -8.9 N 80.26 CA 77.78 C 78.34 O 78.28 CB 74.66 CG 72.13 CD1 71.74 CD2 71.14 CE1 70.15 CE2 72.48 CZ 70.65
A GLY - 93 -34.5 360.0 N 76.79 CA 74.88 C 68.43 O 66.32
A LYS - 120 360.0 80.6 N 68.65 CA 61.27 C 55.13 O 52.64 CB 59.97 CG 63.9 CD 63.15 CE 65.34 NZ 64.47
A PRO - 8 -65.2 152.7 N 53.95 CA 52.14 C 52.44 O 45.74 CB 51.96 CG 53.61 CD 53.63
A VAL E 0 -109.3 157.8 N 44.0 CA 42.01 C 45.96 O 45.9 CB 39.78 CG1 39.76 CG2 39.53
A PHE E 2 -144.7 140.1 N 41.25 CA 42.35 C 42.7 O 38.43 CB 43.51 CG 44.31 CD1 45.14 CD2 44.88 CE1 47.09 CE2 46.22 CZ 47.47
A ASP - 12 -92.0 1.4 N 39.64 CA 38.56 C 40.81 O 36.94 CB 39.75 CG 45.21 OD1 42.65 OD2 47.64
A GLY S 0 86.6 -1.4 N 40.95 CA 42.36 C 43.18 O 44.12
A ARG S 144 -122.8 -88.2 N 43.74 CA 46.7 C 45.55 O 50.01 CB 51.04 CG 52.13 CD 51.21 NE 52.07 CZ 52.42 NH1 49.84 NH2 54.54
A LYS S 86 -131.2 -2.2 N 45.87 CA 51.01 C 49.07 O 53.03 CB 56.99 CG 62.29 CD 65.38 CE 68.79 NZ 70.86
A ASN E 34 -112.3 119.6 N 46.11 CA 46.32 C 45.55 O 43.0 CB 46.57 CG 47.61 OD1 49.81 ND2 48.46
A LEU E 0 -121.6 138.0 N 49.16 CA 47.94 C 48.06 O 48.3 CB 52.37 CG 53.88 CD1 56.04 CD2 58.24
A TYR E 3 -126.2 142.6 N 47.62 CA 48.43 C 51.77 O 49.62 CB 44.95 CG 44.02 CD1 41.31 CD2 46.21 CE1 41.03 CE2 45.24 CZ 43.79 OH 45.22
A THR E 6 -129.2 157.5 N 55.08 CA 54.02 C 53.44 O 51.94 CB 57.29 OG1 63.05 CG2 56.77
A ALA S 13 -84.2 -25.8 N 53.44 CA 56.24 C 63.91 O 67.92 CB 55.15
A MET S 123 -128.8 153.4 N 62.58 CA 68.17 C 70.27 O 69.43 CB 71.36 CG 73.11 SD 87.46 CE 65.54
A PRO - 71 -69.5 164.1 N 71.2 CA 74.07 C 77.62 O 79.48 CB 77.2 CG 78.54 CD 74.0
A LEU - 25 -100.1 168.5 N 77.93 CA 75.59 C 82.89 O 88.89 CB 69.54 CG 67.85 CD1 65.0 CD2 69.19
A PRO S 91 -72.4 82.6 N 81.36 CA 84.92 C 88.36 O 89.33 CB 85.19 CG 81.54 CD 78.82
A ILE - 36 -130.5 -67.5 N 89.81 CA 88.98 C 88.47 O 91.5 CB 80.72 CG1 81.49 CG2 76.8 CD1 82.78
A GLY T 45 72.0 -158.5 N 88.74 CA 92.72 C 90.61 O 85.87
A ARG T 198 -89.1 4.2 N 94.12 CA 93.05 C 92.82 O 92.79 CB 95.31 CG 94.12 CD 96.85 NE 97.98 CZ 100.66 NH1 102.56 NH2 100.91
A ASP - 117 -55.1 133.5 N 91.84 CA 92.34 C 89.6 O 88.59 CB 95.19 CG 100.0 OD1 101.56 OD2 103.79
A LYS - 113 -72.0 160.4 N 88.7 CA 84.73 C 85.91 O 90.66 CB 88.55 CG 93.08 CD 98.93 CE 97.6 NZ 100.0
A VAL E 47 -135.4 120.9 N 83.76 CA 84.01 C 79.27 O 73.67 CB 82.76 CG1 82.07 CG2 84.88
A GLU E 101 -84.3 130.3 N 81.58 CA 82.17 C 82.5 O 84.59 CB 89.78 CG 93.65 CD 94.47 OE1 96.18 OE2 95.02
A LEU E 11 -128.5 141.6 N 81.61 CA 81.56 C 81.73 O 79.96 CB 78.32 CG 79.12 CD1 77.03 CD2 82.8
A GLU E 135 -111.9 118.3 N 78.02 CA 79.99 C 78.58 O 82.52 CB 82.88 CG 84.17 CD 89.01 OE1 92.95 OE2 90.53
A VAL E 5 -113.8 146.5 N 74.19 CA 79.13 C 84.07 O 87.62 CB 72.39 CG1 69.7 CG2 69.5
A THR - 94 -128.7 149.1 N 84.8 CA 87.4 C 90.3 O 89.54 CB 87.97 OG1 88.46 CG2 87.35
A LEU - 41 -157.9 146.6 N 91.98 CA 89.88 C 93.09 O 97.13 CB 85.54 CG 83.95 CD1 84.95 CD2 79.06
A PRO - 160 -84.0 360.0 N 90.18 CA 91.52 C 88.71 O 84.54 CB 91.85 CG 91.06 CD 87.33
A ILE - 169 360.0 65.1 N 83.07 CA 84.31 C 82.53 O 86.48 CB 87.15 CG1 92.26 CG2 89.29 CD1 95.29
A PHE E 34 -132.7 150.5 N 76.66 CA 72.61 C 72.75 O 74.08 CB 70.16 CG 69.55 CD1 66.65 CD2 71.78 CE1 65.53 CE2 71.42 CZ 68.14
A LYS E 105 -116.4 127.1 N 72.33 CA 78.14 C 75.75 O 75.81 CB 79.45 CG 81.54 CD 85.88 CE 88.97 NZ 93.62
A VAL E 0 -118.4 117.5 N 74.57 CA 70.98 C 72.02 O 74.36 CB 69.72 CG1 65.72 CG2 69.95
A SER E 15 -96.3 138.5 N 70.88 CA 75.58 C 73.36 O 67.39 CB 79.54 OG 79.42
A ILE E 7 -125.8 117.6 N 77.9 CA 75.77 C 78.05 O 79.53 CB 72.47 CG1 72.73 CG2 66.57 CD1 74.01
A LYS E 88 -117.7 130.3 N 75.89 CA 76.57 C 75.23 O 71.38 CB 75.81 CG 79.55 CD 83.86 CE 83.53 NZ 87.15
A TRP E 44 -63.2 147.9 N 76.63 CA 76.33 C 73.9 O 74.71 CB 80.79 CG 83.9 CD1 88.5 CD2 83.59 NE1 89.41 CE2 86.29 CE3 83.96 CZ2 87.5 CZ3 85.49 CH2 87.47
A VAL E 67 -125.8 -45.2 N 70.78 CA 72.51 C 74.89 O 78.75 CB 71.19 CG1 72.78 CG2 72.89
A SER E 31 -165.5 168.8 N 74.69 CA 75.43 C 71.5 O 66.24 CB 75.9 OG 74.74
A CYS E 60 -97.7 143.0 N 73.01 CA 71.81 C 68.88 O 72.03 CB 74.63 SG 100.75
A VAL E 6 -116.4 116.0 N 66.03 CA 62.21 C 61.19 O 62.9 CB 60.84 CG1 59.87 CG2 61.24
A SER E 38 -94.3 118.2 N 60.35 CA 61.85 C 60.14 O 59.74 CB 66.67 OG 66.79
A LEU H 4 -74.4 -15.3 N 57.21 CA 55.48 C 56.79 O 55.46 CB 55.12 CG 53.64 CD1 53.29 CD2 53.57
A GLN H 77 -63.0 -39.6 N 55.77 CA 59.34 C 61.09 O 61.66 CB 67.49 CG 74.33 CD 77.67 OE1 81.05 NE2 76.74
A ALA H 27 -70.5 -28.6 N 63.79 CA 66.93 C 65.94 O 68.4 CB 67.57
A LEU H 1 -66.5 -41.6 N 58.43 CA 55.4 C 51.06 O 46.76 CB 52.75 CG 50.32 CD1 48.2 CD2 47.41
A HIS H 70 -60.0 -40.5 N 53.45 CA 57.32 C 62.64 O 64.25 CB 61.54 CG 62.82 ND1 64.19 CD2 64.15 CE1 63.3 NE2 63.26
A ASP H 43 -64.1 -44.3 N 62.61 CA 65.14 C 60.22 O 60.62 CB 70.35 CG 73.97 OD1 72.72 OD2 77.69
A ALA H 0 -64.0 -36.3 N 57.94 CA 61.17 C 59.35 O 57.4 CB 60.07
A LEU H 25 -67.2 -31.0 N 56.37 CA 58.44 C 60.85 O 54.17 CB 55.81 CG 52.25 CD1 51.57 CD2 49.98
A SER S 57 -78.6 -172.5 N 64.32 CA 69.81 C 75.17 O 77.89 CB 70.06 OG 75.68
A GLY S 72 -83.9 -6.3 N 78.48 CA 82.31 C 86.13 O 89.5
A ARG S 192 -53.7 -51.4 N 83.94 CA 83.85 C 82.08 O 87.51 CB 83.86 CG 86.08 CD 86.74 NE 85.4 CZ 86.18 NH1 89.04 NH2 85.18
A LEU S 70 -113.2 136.8 N 76.18 CA 77.11 C 77.07 O 75.79 CB 76.7 CG 76.26 CD1 80.41 CD2 70.26
A PRO S 111 -56.3 -40.8 N 79.51 CA 78.05 C 76.37 O 75.14 CB 80.63 CG 82.53 CD 82.43
A SER S 73 -137.4 161.6 N 75.84 CA 71.6 C 70.44 O 75.46 CB 74.54 OG 77.6
A VAL - 32 -80.5 120.5 N 66.6 CA 65.65 C 70.29 O 76.2 CB 61.02 CG1 55.59 CG2 61.18
A PRO - 36 -73.2 109.9 N 64.83 CA 61.71 C 55.55 O 53.5 CB 60.71 CG 58.21 CD 60.25
A PHE H 140 -57.6 -40.1 N 53.65 CA 52.21 C 49.84 O 48.56 CB 58.6 CG 66.21 CD1 69.63 CD2 69.76 CE1 68.37 CE2 71.23 CZ 69.82
A GLU H 127 -58.2 -33.3 N 46.59 CA 47.37 C 46.45 O 46.26 CB 55.31 CG 67.55 CD 81.83 OE1 87.12 OE2 86.18
A THR H 10 -72.9 -44.0 N 45.8 CA 42.17 C 39.37 O 38.2 CB 44.37 OG1 49.72 CG2 44.55
A ILE H 22 -60.7 -40.9 N 38.62 CA 40.75 C 37.03 O 33.84 CB 42.4 CG1 48.45 CG2 38.18 CD1 49.59
A GLN H 61 -59.9 -39.2 N 39.88 CA 42.84 C 39.03 O 36.64 CB 52.34 CG 58.94 CD 67.94 OE1 74.76 NE2 68.73
A ALA H 2 -66.1 -45.9 N 37.33 CA 37.63 C 35.91 O 35.5 CB 39.74
A LEU H 4 -61.1 -40.5 N 35.97 CA 33.77 C 32.23 O 31.63 CB 33.47 CG 38.3 CD1 39.39 CD2 36.46
A ASP H 41 -58.3 -42.9 N 31.93 CA 30.84 C 32.0 O 31.03 CB 36.64 CG 42.97 OD1 43.03 OD2 49.68
A VAL H 9 -64.8 -37.6 N 32.68 CA 33.44 C 40.8 O 36.05 CB 35.3 CG1 36.34 CG2 35.65
A VAL H 2 -61.0 -51.1 N 33.64 CA 33.91 C 32.53 O 32.95 CB 34.52 CG1 34.85 CG2 43.36
A MET H 0 -65.0 -29.9 N 31.18 CA 30.04 C 33.56 O 31.89 CB 29.66 CG 33.03 SD 40.97 CE 31.58
A ARG H 28 -88.4 -13.7 N 31.76 CA 30.39 C 33.59 O 37.24 CB 30.38 CG 29.26 CD 29.93 NE 39.09 CZ 36.35 NH1 27.97 NH2 35.08
A HIS H 11 -52.8 -63.1 N 32.81 CA 34.52 C 40.23 O 39.49 CB 35.75 CG 37.8 ND1 38.88 CD2 39.79 CE1 40.84 NE2 42.19
A LEU H 31 -63.7 -51.4 N 37.23 CA 40.44 C 40.22 O 40.41 CB 40.68 CG 47.5 CD1 48.09 CD2 48.31
A PRO H 9 -62.4 -24.4 N 37.09 CA 30.63 C 33.91 O 35.41 CB 34.88 CG 38.22 CD 36.1
A SER H 2 -65.7 -22.2 N 32.97 CA 34.21 C 38.76 O 41.12 CB 33.29 OG 39.38
A MET H 33 -106.9 -30.3 N 37.15 CA 42.92 C 46.11 O 50.57 CB 42.68 CG 44.5 SD 68.94 CE 64.48
A ARG H 151 -77.3 -33.3 N 39.41 CA 41.93 C 43.1 O 41.33 CB 47.88 CG 58.98 CD 64.92 NE 67.14 CZ 71.76 NH1 71.49 NH2 76.15
A TYR S 79 -123.1 178.2 N 37.49 CA 33.5 C 32.85 O 40.31 CB 36.84 CG 39.26 CD1 47.93 CD2 36.3 CE1 46.6 CE2 41.66 CZ 49.95 OH 57.94
A THR E 39 -94.9 113.4 N 29.74 CA 28.54 C 29.83 O 31.37 CB 32.95 OG1 35.04 CG2 33.29
A PRO E 60 -71.5 133.6 N 33.64 CA 31.84 C 32.15 O 35.0 CB 34.18 CG 36.74 CD 36.41
A VAL E 31 -136.9 107.6 N 25.34 CA 24.95 C 29.91 O 28.82 CB 30.89 CG1 28.78 CG2 25.77
A GLY T 78 63.3 -130.2 N 25.26 CA 26.43 C 26.03 O 28.29
A ARG T 158 -94.1 11.2 N 23.79 CA 22.79 C 22.79 O 22.77 CB 22.1 CG 25.22 CD 27.43 NE 33.02 CZ 36.02 NH1 30.86 NH2 34.94
A SER E 14 -107.0 169.8 N 22.96 CA 23.13 C 24.08 O 24.6 CB 28.65 OG 27.11
A PHE E 3 -135.3 135.2 N 24.39 CA 25.35 C 29.57 O 25.19 CB 25.95 CG 28.77 CD1 31.45 CD2 28.61 CE1 28.68 CE2 28.22 CZ 29.61
A PHE E 11 -128.3 152.5 N 26.17 CA 28.49 C 34.92 O 28.12 CB 26.29 CG 25.34 CD1 27.41 CD2 24.83 CE1 25.86 CE2 26.14 CZ 27.0
A THR E 47 -149.0 160.7 N 28.1 CA 32.17 C 31.96 O 33.62 CB 34.88 OG1 42.54 CG2 32.34
A ALA - 40 -70.6 135.1 N 30.75 CA 33.47 C 34.84 O 43.98 CB 36.58
A SER - 32 -81.5 129.2 N 34.07 CA 41.72 C 39.28 O 39.69 CB 52.29 OG 59.08
A GLU T 158 -61.9 127.1 N 36.05 CA 44.35 C 44.94 O 48.33 CB 53.13 CG 63.84 CD 71.68 OE1 77.08 OE2 68.85
A GLY T 91 87.2 -7.6 N 38.08 CA 45.17 C 44.76 O 44.07
A CYS - 85 -124.4 150.6 N 43.32 CA 47.73 C 36.55 O 35.95 CB 46.49 SG 92.56
A SER - 90 -130.7 133.6 N 41.26 CA 43.64 C 40.87 O 42.96 CB 51.45 OG 58.53
A ASN - 46 -123.7 73.6 N 39.98 CA 38.98 C 34.5 O 34.51 CB 37.77 CG 43.6 OD1 42.93 ND2 43.12
A PRO E 72 -67.8 145.4 N 35.89 CA 36.19 C 42.86 O 38.46 CB 37.96 CG 38.66 CD 37.41
A LEU E 15 -109.1 -9.9 N 37.42 CA 41.07 C 47.93 O 53.98 CB 36.44 CG 37.15 CD1 34.06 CD2 45.13
A GLY E 29 80.2 161.7 N 46.36 CA 47.79 C 47.32 O 43.52
A GLY T 17 75.0 15.9 N 46.8 CA 44.24 C 45.78 O 46.14
A GLY T 0 86.3 7.9 N 41.43 CA 40.25 C 44.43 O 41.02
A ARG E 6 -111.1 158.9 N 35.57 CA 35.74 C 38.41 O 34.89 CB 34.6 CG 41.45 CD 46.83 NE 48.02 CZ 50.53 NH1 53.83 NH2 50.52
A GLU E 28 -153.6 162.1 N 34.52 CA 33.54 C 32.19 O 30.45 CB 33.78 CG 32.88 CD 48.21 OE1 48.41 OE2 46.85
A VAL E 4 -86.1 131.0 N 30.95 CA 33.77 C 29.5 O 30.3 CB 34.28 CG1 34.34 CG2 36.01
A TRP E 21 -108.3 143.4 N 30.53 CA 28.33 C 27.38 O 28.08 CB 28.21 CG 30.23 CD1 39.29 CD2 32.66 NE1 31.08 CE2 35.32 CE3 30.72 CZ2 34.8 CZ3 35.47 CH2 34.12
A PHE E 55 -101.6 152.5 N 27.53 CA 29.47 C 31.83 O 29.62 CB 33.47 CG 40.48 CD1 40.79 CD2 44.77 CE1 41.14 CE2 40.08 CZ 41.7
A GLY E 13 -162.1 -166.0 N 26.63 CA 31.77 C 30.64 O 27.95
A PHE E 21 -145.7 146.7 N 24.01 CA 26.26 C 28.29 O 25.46 CB 24.19 CG 24.6 CD1 25.52 CD2 29.03 CE1 28.76 CE2 31.2 CZ 31.88
A HIS E 4 -87.3 143.4 N 23.74 CA 22.65 C 21.95 O 22.04 CB 20.89 CG 20.56 ND1 23.49 CD2 22.26 CE1 25.38 NE2 21.83
A GLN E 0 -139.6 128.8 N 22.2 CA 22.59 C 22.69 O 22.71 CB 29.1 CG 32.28 CD 41.29 OE1 38.37 NE2 43.64
A SER E 13 -148.5 155.5 N 23.33 CA 22.21 C 22.52 O 23.95 CB 21.38 OG 22.71
A VAL E 13 -105.2 125.6 N 23.08 CA 23.58 C 30.36 O 26.34 CB 24.92 CG1 27.37 CG2 25.7
A ARG E 45 -131.7 137.6 N 23.39 CA 23.18 C 24.24 O 23.96 CB 24.48 CG 30.29 CD 34.84 NE 40.93 CZ 46.67 NH1 35.8 NH2 53.96
A PRO - 22 -77.3 156.0 N 24.58 CA 23.08 C 22.06 O 23.41 CB 25.79 CG 28.23 CD 28.09
A SER - 0 -149.5 177.1 N 22.36 CA 23.43 C 22.12 O 23.19 CB 25.97 OG 29.22
A LEU S 52 -64.6 -22.3 N 23.03 CA 24.52 C 33.02 O 36.25 CB 24.75 CG 26.74 CD1 25.57 CD2 35.29
A TRP S 133 -100.9 -73.5 N 28.94 CA 34.81 C 41.67 O 52.83 CB 36.82 CG 38.44 CD1 39.75 CD2 49.47 NE1 43.15 CE2 49.6 CE3 55.35 CZ2 58.01 CZ3 61.18 CH2 61.72
A LYS S 57 -138.3 178.6 N 33.81 CA 33.12 C 27.04 O 25.26 CB 32.24 CG 42.69 CD 47.25 CE 54.9 NZ 59.02
A MET E 5 -65.2 140.4 N 26.55 CA 26.39 C 24.97 O 27.09 CB 27.65 CG 28.75 SD 35.76 CE 28.25
A MET E 0 -121.6 141.4 N 23.9 CA 23.34 C 25.64 O 24.12 CB 22.14 CG 22.06 SD 28.95 CE 41.14
A LEU E 0 -97.6 114.2 N 23.62 CA 23.47 C 22.48 O 22.52 CB 24.57 CG 27.94 CD1 26.58 CD2 27.03
A ASN E 2 -90.3 120.0 N 21.74 CA 20.93 C 24.24 O 21.48 CB 20.21 CG 24.53 OD1 25.36 ND2 19.46
A ILE E 1 -129.1 129.2 N 21.32 CA 21.76 C 21.32 O 21.15 CB 22.77 CG1 26.32 CG2 24.62 CD1 24.96
A ASP E 7 -138.4 155.3 N 21.23 CA 21.08 C 31.37 O 32.12 CB 20.3 CG 24.73 OD1 25.05 OD2 24.71
A VAL E 33 -90.8 155.2 N 28.11 CA 27.19 C 29.87 O 26.88 CB 26.56 CG1 28.95 CG2 29.18
A SER E 40 -153.9 172.4 N 28.17 CA 26.68 C 23.72 O 25.04 CB 38.34 OG 45.48
A ALA E 31 -146.3 155.0 N 23.89 CA 29.13 C 30.16 O 27.58 CB 27.14
A THR E 33 -161.0 163.1 N 25.48 CA 25.67 C 26.73 O 27.2 CB 29.65 OG1 33.72 CG2 31.28
A ALA E 6 -81.9 135.5 N 28.17 CA 30.54 C 31.23 O 29.43 CB 34.32
A PHE E 0 -128.5 158.8 N 33.2 CA 30.67 C 36.0 O 35.32 CB 32.07 CG 30.29 CD1 29.35 CD2 30.95 CE1 32.56 CE2 31.83 CZ 32.87
A TYR E 3 -81.1 136.9 N 35.49 CA 35.5 C 37.83 O 33.47 CB 34.67 CG 37.06 CD1 43.81 CD2 34.76 CE1 46.65 CE2 35.82 CZ 47.79 OH 51.07
A LYS - 47 -65.4 133.8 N 34.46 CA 35.49 C 38.73 O 39.95 CB 41.27 CG 45.39 CD 51.37 CE 54.53 NZ 58.06
A ALA - 60 -75.8 85.3 N 35.92 CA 43.47 C 48.77 O 50.01 CB 41.55
A GLN - 8 -132.9 158.4 N 44.75 CA 40.24 C 44.16 O 41.76 CB 50.05 CG 39.86 CD 40.18 OE1 44.96 NE2 42.45
A PRO B 56 -54.0 147.2 N 42.58 CA 43.59 C 43.46 O 43.15 CB 45.16 CG 44.98 CD 43.46
A VAL H 0 -60.2 -33.8 N 43.81 CA 43.88 C 45.08 O 44.98 CB 44.33 CG1 44.76 CG2 43.15
A ILE H 22 -56.3 -47.0 N 47.04 CA 47.67 C 47.12 O 47.68 CB 49.04 CG1 49.93 CG2 50.42 CD1 64.11
A GLU H 107 -63.1 -43.6 N 46.14 CA 45.57 C 44.47 O 44.74 CB 44.81 CG 54.41 CD 63.95 OE1 62.21 OE2 71.4
A PHE H 0 -55.0 -43.0 N 43.38 CA 47.44 C 45.48 O 43.3 CB 41.52 CG 41.79 CD1 40.67 CD2 42.67 CE1 44.04 CE2 44.86 CZ 44.13
A VAL H 2 -59.4 -48.4 N 44.91 CA 52.21 C 56.35 O 54.78 CB 51.61 CG1 54.97 CG2 52.52
A CYS H 16 -57.8 -42.8 N 47.5 CA 48.41 C 47.32 O 56.77 CB 49.07 SG 58.83
A GLU H 63 -67.8 -33.4 N 45.54 CA 46.68 C 50.07 O 52.64 CB 43.37 CG 44.04 CD 48.45 OE1 49.34 OE2 50.14
A VAL H 11 -78.6 -36.2 N 49.64 CA 52.44 C 55.58 O 56.86 CB 54.66 CG1 60.93 CG2 53.41
A LEU H 19 -99.0 3.6 N 51.26 CA 56.53 C 60.08 O 60.45 CB 58.45 CG 58.73 CD1 56.4 CD2 62.81
A ASP T 145 63.7 40.5 N 55.52 CA 60.8 C 60.76 O 64.63 CB 70.34 CG 78.95 OD1 79.51 OD2 83.94
A PHE - 41 -88.3 139.2 N 60.8 CA 60.05 C 63.69 O 62.94 CB 62.14 CG 66.25 CD1 72.53 CD2 64.09 CE1 74.76 CE2 67.84 CZ 72.21
A LYS S 206 -70.6 -32.2 N 67.95 CA 71.13 C 72.72 O 77.39 CB 75.66 CG 77.83 CD 79.73 CE 77.48 NZ 77.12
A SER S 42 -158.5 160.2 N 69.93 CA 67.23 C 67.07 O 71.56 CB 69.66 OG 72.8
A ILE T 18 -73.3 169.4 N 63.69 CA 65.27 C 76.24 O 85.37 CB 63.24 CG1 63.37 CG2 68.42 CD1 60.4
A GLU T 122 86.2 -2.9 N 73.07 CA 73.39 C 73.66 O 70.02 CB 82.6 CG 83.97 CD 84.09 OE1 65.99 OE2 83.14
A GLU S 114 -125.3 79.2 N 77.26 CA 81.57 C 79.82 O 82.16 CB 84.39 CG 90.52 CD 94.38 OE1 92.92 OE2 97.83
A GLN - 125 -123.2 -172.9 N 76.45 CA 79.54 C 78.99 O 74.88 CB 83.53 CG 87.03 CD 93.05 OE1 96.64 NE2 93.13
A GLN S 134 -99.1 13.2 N 79.54 CA 78.2 C 75.91 O 76.31 CB 78.78 CG 77.41 CD 79.99 OE1 81.73 NE2 76.49
A LYS S 146 -90.7 152.3 N 73.51 CA 74.35 C 69.31 O 63.69 CB 75.75 CG 81.26 CD 84.7 CE 91.05 NZ 95.19
A PRO - 75 -60.1 158.1 N 68.19 CA 63.82 C 71.1 O 74.55 CB 70.74 CG 70.18 CD 70.74
A LEU - 22 -67.1 143.3 N 66.03 CA 63.73 C 66.2 O 67.42 CB 57.81 CG 58.59 CD1 55.04 CD2 56.1
A THR - 76 -66.5 151.8 N 66.33 CA 68.15 C 67.38 O 67.44 CB 69.9 OG1 69.83 CG2 72.97
A ASP H 104 -60.4 -30.6 N 67.95 CA 64.49 C 64.5 O 65.97 CB 75.08 CG 83.86 OD1 91.07 OD2 81.07
A SER H 87 -57.3 -46.6 N 63.9 CA 65.91 C 62.89 O 61.16 CB 68.72 OG 67.86
A GLN H 57 -68.8 -43.6 N 64.75 CA 64.75 C 61.88 O 51.83 CB 65.51 CG 65.81 CD 66.45 OE1 71.14 NE2 66.62
A ARG H 51 -64.2 -42.5 N 59.0 CA 53.9 C 55.22 O 50.8 CB 55.55 CG 54.81 CD 58.9 NE 64.71 CZ 65.95 NH1 67.83 NH2 60.78
A VAL H 69 -61.5 -45.0 N 53.12 CA 57.12 C 56.4 O 50.78 CB 53.28 CG1 51.94 CG2 55.11
A LYS H 112 -60.1 -42.7 N 57.66 CA 53.57 C 46.72 O 47.45 CB 53.32 CG 56.03 CD 62.36 CE 63.21 NZ 65.1
A PHE H 0 -67.7 -41.9 N 50.86 CA 49.63 C 47.58 O 45.86 CB 47.57 CG 46.87 CD1 45.35 CD2 53.54 CE1 48.98 CE2 54.03 CZ 45.89
A THR H 13 -59.9 -40.5 N 47.75 CA 46.36 C 44.64 O 43.73 CB 47.89 OG1 49.45 CG2 47.63
A LYS H 139 -64.9 -33.4 N 47.41 CA 46.19 C 49.06 O 50.56 CB 48.0 CG 55.12 CD 60.57 CE 67.92 NZ 69.8
A GLU H 45 -79.6 -33.4 N 48.78 CA 45.8 C 43.6 O 47.74 CB 53.8 CG 61.25 CD 68.22 OE1 69.86 OE2 72.39
A ILE H 0 -95.8 -22.5 N 43.24 CA 43.75 C 41.35 O 40.68 CB 41.63 CG1 49.52 CG2 43.18 CD1 47.17
A LYS T 96 -56.9 130.9 N 41.02 CA 44.19 C 43.36 O 45.12 CB 47.51 CG 52.09 CD 54.5 CE 55.29 NZ 57.05
A GLY T 33 88.0 -3.6 N 42.86 CA 38.37 C 43.07 O 39.32
A LEU - 12 -90.9 153.0 N 37.62 CA 36.87 C 38.43 O 40.51 CB 36.9 CG 41.27 CD1 40.87 CD2 40.18
A LYS E 59 -90.1 135.9 N 36.93 CA 37.69 C 38.51 O 37.68 CB 41.64 CG 44.49 CD 50.78 CE 54.23 NZ 56.79
A VAL E 0 -123.2 162.1 N 39.51 CA 40.25 C 44.05 O 44.32 CB 49.6 CG1 40.99 CG2 42.46
A GLU E 61 -129.5 147.4 N 42.17 CA 42.27 C 43.7 O 45.48 CB 48.53 CG 52.15 CD 58.28 OE1 56.87 OE2 58.92
A ILE - 79 -98.5 360.0 N 44.83 CA 60.36 C 64.6 O 67.37 CB 58.65 CG1 60.87 CG2 62.58 CD1 66.44
A LYS - 248 360.0 -46.5 N 70.86 CA 68.08 C 69.53 O 73.77 CB 62.6 CG 61.03 CD 61.82 CE 57.4 NZ 62.33
A ARG - 140 -119.9 119.7 N 65.74 CA 62.63 C 56.17 O 60.18 CB 67.38 CG 71.75 CD 76.83 NE 81.59 CZ 84.28 NH1 81.35 NH2 88.08
A LYS E 123 -105.0 140.4 N 48.68 CA 45.12 C 47.54 O 50.66 CB 51.19 CG 54.31 CD 56.92 CE 61.28 NZ 63.51
A TYR E 53 -142.4 151.9 N 49.39 CA 46.8 C 41.39 O 49.4 CB 48.63 CG 55.73 CD1 57.89 CD2 60.12 CE1 63.1 CE2 64.82 CZ 68.2 OH 77.27
A ARG E 133 -99.1 135.6 N 41.53 CA 40.78 C 41.91 O 43.24 CB 40.18 CG 49.0 CD 51.19 NE 48.27 CZ 51.0 NH1 46.66 NH2 52.39
A VAL E 3 -81.0 129.6 N 41.52 CA 42.68 C 42.98 O 41.93 CB 42.36 CG1 43.77 CG2 42.13
A CYS E 31 -110.9 -16.4 N 45.63 CA 49.19 C 50.67 O 50.87 CB 50.39 SG 63.34
A ASN E 66 -167.4 171.4 N 46.83 CA 48.02 C 57.4 O 47.87 CB 50.95 CG 62.41 OD1 64.62 ND2 66.53
A VAL E 9 -122.2 131.5 N 49.4 CA 50.19 C 61.23 O 53.08 CB 49.67 CG1 50.83 CG2 49.71
A THR E 11 -67.1 156.1 N 53.35 CA 55.46 C 56.58 O 55.92 CB 56.44 OG1 56.2 CG2 55.7
A ARG E 176 -77.3 -40.4 N 58.43 CA 59.84 C 60.97 O 61.33 CB 61.63 CG 66.2 CD 69.89 NE 70.16 CZ 76.49 NH1 81.33 NH2 79.73
A ARG E 77 -88.1 148.7 N 61.61 CA 62.86 C 61.51 O 59.8 CB 64.46 CG 66.15 CD 79.6 NE 80.29 CZ 81.4 NH1 87.12 NH2 78.54
A PRO E 20 -58.8 155.5 N 62.42 CA 61.62 C 61.52 O 62.67 CB 71.77 CG 74.72 CD 73.76
A ALA T 2 -55.6 -29.8 N 60.29 CA 60.26 C 62.35 O 62.87 CB 58.93
A SER T 36 -67.8 -24.7 N 63.64 CA 65.77 C 67.11 O 68.69 CB 66.91 OG 67.18
A HIS T 122 -119.4 -19.1 N 66.59 CA 75.85 C 76.67 O 68.43 CB 76.91 CG 82.93 ND1 85.43 CD2 88.25 CE1 90.37 NE2 90.78
A GLN - 16 -66.8 128.7 N 64.97 CA 63.98 C 64.54 O 64.25 CB 61.61 CG 60.56 CD 71.23 OE1 61.27 NE2 70.24
A THR B 57 -119.3 159.1 N 65.46 CA 66.34 C 65.45 O 64.55 CB 78.55 OG1 69.5 CG2 69.96
A PHE - 32 -143.3 159.0 N 66.31 CA 65.66 C 77.8 O 80.4 CB 73.46 CG 71.22 CD1 68.02 CD2 70.38 CE1 68.0 CE2 69.12 CZ 67.78
A PRO - 96 -92.6 131.9 N 76.98 CA 78.02 C 75.64 O 71.59 CB 78.08 CG 77.71 CD 77.3
A LEU - 161 -86.7 360.0 N 78.53 CA 77.84 C 78.53 O 78.56 CB 76.54 CG 76.18 CD1 78.19 CD2 69.91
A CYS - 52 360.0 131.0 N 78.44 CA 77.62 C 68.38 O 74.38 CB 69.54 SG 90.93
A THR B 39 -73.0 161.5 N 68.48 CA 66.88 C 68.31 O 65.02 CB 67.72 OG1 67.95 CG2 69.93
A VAL H 3 -70.0 -44.0 N 63.25 CA 69.84 C 72.14 O 65.71 CB 59.69 CG1 57.95 CG2 59.46
A ALA H 10 -62.7 -39.2 N 62.45 CA 64.64 C 64.23 O 64.07 CB 63.79
A GLN H 74 -70.6 -36.9 N 65.69 CA 70.88 C 71.2 O 74.55 CB 69.09 CG 70.93 CD 71.73 OE1 72.03 NE2 72.24
A TYR H 77 -62.3 -41.1 N 68.67 CA 67.56 C 65.43 O 66.22 CB 66.23 CG 70.04 CD1 72.85 CD2 68.57 CE1 74.56 CE2 68.77 CZ 72.45 OH 75.96
A PHE H 17 -73.0 -27.7 N 64.44 CA 61.3 C 71.74 O 62.46 CB 59.73 CG 58.44 CD1 57.79 CD2 56.67 CE1 56.27 CE2 55.13 CZ 54.92
A LYS H 89 -64.6 -59.8 N 64.17 CA 67.9 C 71.63 O 74.04 CB 71.1 CG 74.7 CD 84.67 CE 88.2 NZ 89.69
A ASP H 109 -64.0 -58.2 N 73.63 CA 74.14 C 75.43 O 77.63 CB 69.78 CG 80.2 OD1 79.85 OD2 80.32
A ARG H 156 -72.9 -43.5 N 74.17 CA 73.12 C 70.72 O 70.51 CB 73.28 CG 74.43 CD 79.35 NE 80.47 CZ 81.46 NH1 83.91 NH2 77.34
A HIS H 75 -111.0 3.9 N 67.97 CA 66.5 C 66.11 O 64.82 CB 69.85 CG 73.1 ND1 74.3 CD2 74.58 CE1 74.87 NE2 76.33
A LYS - 190 55.7 35.4 N 65.99 CA 66.91 C 68.91 O 71.08 CB 68.13 CG 73.6 CD 80.7 CE 86.32 NZ 89.94
A LEU - 82 -113.4 121.5 N 62.67 CA 63.57 C 66.62 O 62.39 CB 59.6 CG 69.21 CD1 62.71 CD2 71.96
A VAL - 114 -92.8 113.7 N 68.15 CA 70.56 C 72.13 O 70.06 CB 69.9 CG1 66.58 CG2 70.17
A LEU - 13 -63.5 135.7 N 61.8 CA 61.44 C 61.2 O 62.87 CB 59.96 CG 59.09 CD1 58.76 CD2 60.79
A ARG S 203 -80.2 -28.6 N 63.03 CA 65.47 C 64.99 O 64.48 CB 69.22 CG 73.98 CD 75.1 NE 81.27 CZ 80.7 NH1 80.1 NH2 79.54
A TYR - 63 -129.1 71.6 N 59.6 CA 63.11 C 64.24 O 58.55 CB 57.98 CG 60.98 CD1 64.7 CD2 61.57 CE1 65.56 CE2 61.25 CZ 62.19 OH 62.68
A PRO T 47 -66.4 -17.3 N 65.11 CA 62.13 C 62.29 O 62.37 CB 64.28 CG 66.89 CD 63.4
A HIS T 24 -79.7 -13.2 N 62.94 CA 66.54 C 66.06 O 61.39 CB 66.98 CG 69.25 ND1 67.65 CD2 61.94 CE1 65.93 NE2 61.46
A LEU S 9 -88.4 150.7 N 59.26 CA 57.39 C 56.85 O 57.37 CB 55.77 CG 61.7 CD1 54.53 CD2 62.29
A PRO E 6 -71.8 169.7 N 55.89 CA 56.68 C 59.84 O 53.13 CB 60.56 CG 53.99 CD 55.25
A CYS E 0 -101.4 162.0 N 54.01 CA 52.81 C 58.64 O 51.33 CB 53.91 SG 66.43
A LEU E 0 -92.2 129.1 N 49.95 CA 48.6 C 49.2 O 53.63 CB 46.98 CG 46.36 CD1 51.09 CD2 46.12
A GLN E 21 -87.7 127.7 N 49.23 CA 55.8 C 48.12 O 46.87 CB 53.51 CG 55.84 CD 61.41 OE1 58.58 NE2 53.78
A VAL E 0 -129.3 161.5 N 48.28 CA 46.94 C 51.61 O 50.37 CB 46.3 CG1 45.64 CG2 47.74
A GLY S 40 80.5 -137.0 N 52.79 CA 58.05 C 60.25 O 58.75
A GLN - 125 -74.8 125.0 N 63.96 CA 67.56 C 66.88 O 52.42 CB 68.26 CG 70.98 CD 75.16 OE1 80.96 NE2 74.64
A GLU T 140 -54.4 -27.2 N 66.59 CA 64.92 C 66.16 O 69.26 CB 67.29 CG 73.93 CD 78.52 OE1 76.7 OE2 81.73
A GLN T 171 -94.2 6.0 N 66.07 CA 68.61 C 73.7 O 75.85 CB 69.66 CG 68.48 CD 75.1 OE1 81.55 NE2 73.44
A LYS S 118 -106.7 -167.4 N 73.09 CA 73.32 C 69.32 O 73.29 CB 73.31 CG 74.7 CD 75.83 CE 78.56 NZ 80.15
A HIS - 91 -129.1 44.3 N 62.3 CA 61.47 C 57.0 O 71.28 CB 63.5 CG 69.17 ND1 68.35 CD2 73.07 CE1 72.49 NE2 74.09
A THR - 54 -90.8 114.0 N 55.91 CA 58.75 C 53.15 O 51.9 CB 57.9 OG1 61.23 CG2 55.74
A TYR E 49 -125.4 130.5 N 53.83 CA 53.29 C 59.18 O 57.93 CB 54.91 CG 55.9 CD1 57.0 CD2 63.9 CE1 59.09 CE2 65.87 CZ 63.31 OH 65.12
A LEU E 11 -116.0 133.1 N 51.39 CA 51.01 C 51.52 O 50.53 CB 49.33 CG 54.49 CD1 50.04 CD2 58.58
A PRO E 2 -64.6 150.9 N 52.13 CA 52.44 C 50.84 O 49.82 CB 53.74 CG 60.03 CD 53.14
A LEU G 5 -60.7 -34.5 N 50.73 CA 49.3 C 49.14 O 47.84 CB 49.56 CG 57.22 CD1 60.97 CD2 52.52
A GLU G 52 -64.4 -23.5 N 50.58 CA 56.09 C 55.9 O 51.71 CB 52.74 CG 71.43 CD 68.28 OE1 66.27 OE2 68.23
A VAL G 32 -101.1 8.0 N 49.92 CA 49.55 C 53.03 O 51.48 CB 50.62 CG1 64.01 CG2 50.33
A CYS - 1 -117.3 135.6 N 48.67 CA 45.34 C 46.86 O 44.5 CB 45.14 SG 48.34
A ASN E 64 -112.4 145.9 N 43.15 CA 44.41 C 43.97 O 40.6 CB 47.32 CG 53.86 OD1 53.61 ND2 57.22
A ILE E 0 -67.4 128.1 N 39.8 CA 38.51 C 38.67 O 37.83 CB 37.83 CG1 43.97 CG2 36.49 CD1 40.08
A VAL - 12 -74.2 146.1 N 37.49 CA 42.3 C 41.88 O 34.88 CB 43.21 CG1 45.89 CG2 44.1
A ALA S 61 -66.9 150.1 N 39.04 CA 34.46 C 38.13 O 37.23 CB 36.15
A GLY - 19 84.9 26.5 N 36.01 CA 38.4 C 38.85 O 36.48
A GLN - 17 -100.9 117.7 N 36.49 CA 31.08 C 33.66 O 34.36 CB 32.16 CG 33.07 CD 34.22 OE1 35.02 NE2 35.06
A ARG B 104 -67.8 139.6 N 33.25 CA 33.97 C 38.12 O 40.3 CB 35.06 CG 44.65 CD 51.75 NE 56.23 CZ 60.65 NH1 61.69 NH2 63.43
A CYS - 8 -77.8 123.4 N 39.58 CA 38.22 C 39.11 O 40.29 CB 39.14 SG 56.32
A ILE - 95 -101.7 -30.7 N 42.16 CA 47.78 C 49.96 O 52.36 CB 56.97 CG1 56.41 CG2 58.97 CD1 54.48
A LYS S 83 -66.9 157.9 N 48.67 CA 46.34 C 47.38 O 44.67 CB 48.86 CG 52.53 CD 57.37 CE 59.97 NZ 63.43
A LYS - 176 -64.7 142.9 N 45.72 CA 50.9 C 47.72 O 47.36 CB 55.23 CG 60.51 CD 64.56 CE 65.25 NZ 67.23
A LEU - 41 -76.1 151.3 N 43.74 CA 40.66 C 39.68 O 41.72 CB 35.32 CG 35.0 CD1 33.53 CD2 34.4
A THR - 72 -67.0 171.0 N 35.02 CA 36.45 C 36.09 O 34.82 CB 39.96 OG1 37.59 CG2 38.67
A ASP H 144 -62.3 -47.2 N 37.63 CA 39.34 C 39.62 O 36.3 CB 38.96 CG 50.51 OD1 48.89 OD2 53.48
A ASN H 134 -61.7 -40.4 N 39.49 CA 38.71 C 37.07 O 36.64 CB 44.47 CG 54.41 OD1 61.36 ND2 53.41
A GLN H 12 -62.8 -40.6 N 36.28 CA 37.11 C 36.93 O 32.69 CB 34.43 CG 35.65 CD 38.94 OE1 34.83 NE2 46.41
A THR H 62 -62.7 -46.6 N 33.21 CA 31.96 C 32.23 O 31.23 CB 31.98 OG1 34.54 CG2 30.74
A SER H 53 -52.4 -48.9 N 33.72 CA 41.06 C 41.05 O 33.55 CB 44.34 OG 48.26
A THR H 43 -63.2 -41.8 N 40.17 CA 42.64 C 41.44 O 40.55 CB 41.7 OG1 43.03 CG2 45.29
A MET H 27 -59.8 -48.8 N 38.8 CA 37.97 C 41.95 O 44.39 CB 33.87 CG 38.47 SD 53.92 CE 42.84
A ILE H 103 -55.6 -48.6 N 39.4 CA 37.05 C 36.38 O 38.71 CB 37.12 CG1 37.02 CG2 39.36 CD1 38.6
A ARG H 167 -64.5 -32.0 N 36.04 CA 42.57 C 46.44 O 45.55 CB 46.18 CG 50.94 CD 57.12 NE 62.8 CZ 65.11 NH1 64.47 NH2 65.61
A ALA H 18 -73.9 -28.2 N 50.69 CA 48.97 C 46.76 O 45.16 CB 46.56
A THR H 42 -121.5 -5.8 N 41.46 CA 41.31 C 40.78 O 44.36 CB 45.85 OG1 44.18 CG2 47.36
A ALA - 44 -67.1 138.1 N 37.56 CA 37.79 C 35.69 O 36.5 CB 38.7
A ARG - 88 -150.9 137.2 N 37.63 CA 37.55 C 31.95 O 29.8 CB 40.06 CG 51.2 CD 56.74 NE 61.31 CZ 58.32 NH1 53.94 NH2 59.67
A SER - 31 -64.4 166.9 N 31.6 CA 26.51 C 27.44 O 25.33 CB 27.79 OG 28.54
A ALA H 2 -58.4 -46.7 N 24.72 CA 24.3 C 24.49 O 24.1 CB 23.16
A PRO H 27 -64.3 -35.2 N 25.65 CA 26.45 C 29.31 O 27.09 CB 33.06 CG 33.29 CD 27.56
A ASP H 93 -64.7 -42.5 N 27.98 CA 30.21 C 26.5 O 26.78 CB 33.89 CG 41.65 OD1 42.83 OD2 49.12
A ARG H 55 -63.3 -40.9 N 25.31 CA 24.32 C 27.02 O 25.07 CB 26.74 CG 31.14 CD 44.46 NE 53.96 CZ 55.35 NH1 57.3 NH2 60.18
A GLN H 18 -62.1 -45.3 N 24.24 CA 24.23 C 27.75 O 26.08 CB 24.37 CG 34.34 CD 35.22 OE1 38.19 NE2 43.34
A GLU H 80 -65.4 -37.4 N 29.15 CA 34.3 C 31.47 O 31.38 CB 37.72 CG 47.88 CD 59.31 OE1 60.83 OE2 65.86
A GLU H 72 -65.9 -39.8 N 26.95 CA 32.87 C 35.26 O 30.99 CB 33.14 CG 48.64 CD 62.43 OE1 66.18 OE2 66.67
A ILE H 0 -65.4 -46.7 N 25.11 CA 26.89 C 28.82 O 32.1 CB 23.47 CG1 22.69 CG2 25.24 CD1 21.75
A SER H 18 -60.9 -43.4 N 26.02 CA 33.06 C 39.34 O 37.33 CB 32.08 OG 40.02
A LYS H 101 -60.6 -46.1 N 39.34 CA 46.59 C 47.06 O 49.66 CB 49.05 CG 55.39 CD 60.31 CE 62.76 NZ 62.52
A LEU H 38 -55.8 -41.2 N 37.19 CA 42.35 C 49.52 O 50.0 CB 43.56 CG 45.7 CD1 49.66 CD2 46.18
A MET H 8 -69.0 -39.7 N 47.59 CA 45.38 C 58.48 O 65.02 CB 37.75 CG 37.14 SD 48.31 CE 45.95
A ARG H 129 -62.6 -36.6 N 57.69 CA 56.64 C 58.54 O 64.96 CB 53.86 CG 51.12 CD 57.79 NE 63.08 CZ 64.95 NH1 65.12 NH2 63.37
A SER H 89 -82.8 -33.6 N 53.66 CA 58.17 C 59.86 O 57.66 CB 56.29 OG 59.74
A ALA H 40 -57.6 -42.7 N 57.19 CA 56.34 C 57.56 O 60.94 CB 55.9
A ASP - 80 51.8 57.5 N 57.94 CA 61.76 C 60.36 O 60.02 CB 70.07 CG 76.97 OD1 79.15 OD2 79.8
A PHE G 19 -53.9 -29.0 N 58.45 CA 52.93 C 49.29 O 53.42 CB 47.63 CG 41.99 CD1 42.0 CD2 41.76 CE1 41.46 CE2 38.09 CZ 36.88
A ASN G 36 -77.5 -4.3 N 41.47 CA 45.98 C 48.35 O 47.8 CB 50.54 CG 51.46 OD1 53.75 ND2 50.02
A THR G 98 -110.6 0.4 N 49.37 CA 51.38 C 51.37 O 52.79 CB 53.95 OG1 55.15 CG2 54.68
A ASP - 14 -57.9 118.3 N 48.87 CA 46.15 C 50.28 O 50.11 CB 43.62 CG 44.25 OD1 48.45 OD2 48.35
A PRO H 52 -65.3 -24.2 N 50.73 CA 50.98 C 50.32 O 50.66 CB 51.92 CG 49.96 CD 49.01
A TYR H 34 -78.1 -39.3 N 47.95 CA 45.93 C 47.1 O 46.77 CB 44.55 CG 44.41 CD1 43.42 CD2 44.02 CE1 46.57 CE2 47.63 CZ 47.3 OH 56.68
A VAL H 0 -62.2 -41.3 N 45.54 CA 43.44 C 49.05 O 47.85 CB 42.12 CG1 45.26 CG2 36.05
A ARG H 99 -70.5 -37.9 N 49.41 CA 50.29 C 51.73 O 53.97 CB 54.64 CG 59.49 CD 63.81 NE 66.21 CZ 70.57 NH1 71.87 NH2 70.63
A GLU H 72 -54.2 -36.8 N 51.23 CA 52.16 C 50.91 O 52.2 CB 51.98 CG 58.36 CD 65.81 OE1 70.44 OE2 65.74
A PHE T 10 -94.5 15.1 N 44.17 CA 46.31 C 51.09 O 55.08 CB 43.18 CG 44.31 CD1 45.57 CD2 46.88 CE1 48.96 CE2 48.91 CZ 50.8
A GLY T 39 58.7 28.4 N 49.81 CA 42.11 C 44.3 O 45.18
A ILE - 1 -93.1 138.7 N 42.84 CA 42.84 C 44.03 O 44.21 CB 38.67 CG1 41.33 CG2 34.15 CD1 43.48
A MET E 84 -118.8 137.0 N 40.74 CA 35.07 C 40.06 O 44.17 CB 36.48 CG 47.25 SD 75.26 CE 61.38
A VAL E 9 -118.6 129.9 N 37.24 CA 38.18 C 38.59 O 38.48 CB 39.04 CG1 37.59 CG2 41.93
A LYS - 82 -64.6 141.7 N 32.54 CA 32.65 C 35.08 O 35.74 CB 33.96 CG 44.35 CD 46.59 CE 51.29 NZ 53.84
A ASP S 96 -90.5 5.7 N 30.58 CA 34.7 C 39.24 O 48.32 CB 45.97 CG 50.94 OD1 51.8 OD2 52.19
A GLU S 119 -123.6 144.4 N 30.68 CA 29.54 C 26.57 O 27.83 CB 34.29 CG 43.43 CD 56.82 OE1 57.69 OE2 65.39
A MET - 5 -59.7 149.8 N 25.7 CA 24.34 C 24.27 O 25.51 CB 23.73 CG 25.23 SD 31.09 CE 45.63
A THR E 2 -73.2 133.4 N 23.35 CA 24.15 C 22.8 O 22.54 CB 32.84 OG1 35.84 CG2 31.13
A ASP E 84 -79.0 134.9 N 23.44 CA 23.11 C 23.13 O 27.64 CB 24.29 CG 43.3 OD1 41.21 OD2 48.1
A VAL E 5 -142.4 148.0 N 21.33 CA 20.53 C 25.02 O 23.21 CB 26.2 CG1 26.96 CG2 29.01
A THR E 80 -97.1 129.3 N 21.95 CA 19.88 C 21.01 O 20.58 CB 21.07 OG1 21.91 CG2 23.21
A GLY E 0 -104.7 170.5 N 18.75 CA 18.03 C 18.79 O 18.76
A ARG E 23 -123.9 140.0 N 17.61 CA 19.99 C 20.44 O 20.63 CB 17.34 CG 17.64 CD 18.38 NE 18.32 CZ 16.42 NH1 16.33 NH2 17.32
A VAL E 20 -100.0 107.6 N 18.1 CA 18.21 C 20.1 O 18.58 CB 19.11 CG1 19.35 CG2 19.36
A LEU - 4 -68.9 149.0 N 17.57 CA 18.1 C 19.57 O 18.7 CB 17.06 CG 16.44 CD1 16.18 CD2 19.92
A GLN - 167 -72.9 137.8 N 22.15 CA 24.38 C 19.13 O 18.56 CB 29.52 CG 47.62 CD 51.79 OE1 53.42 NE2 46.33
A PRO - 36 -74.6 154.7 N 19.88 CA 21.16 C 24.8 O 20.81 CB 21.67 CG 23.96 CD 20.75
A PRO - 11 -70.2 160.2 N 21.68 CA 21.0 C 22.24 O 22.69 CB 22.18 CG 20.8 CD 20.12
A SER - 37 -82.7 151.9 N 22.92 CA 24.29 C 24.8 O 24.24 CB 29.34 OG 28.8
A ILE E 0 -114.9 123.0 N 26.01 CA 26.73 C 28.29 O 29.35 CB 27.09 CG1 25.69 CG2 27.91 CD1 24.44
A LEU E 14 -98.4 121.7 N 28.57 CA 30.11 C 31.63 O 31.52 CB 29.75 CG 31.31 CD1 32.2 CD2 30.83
A TYR - 0 -99.8 -177.5 N 21.2 CA 21.91 C 25.03 O 26.68 CB 21.65 CG 21.72 CD1 19.83 CD2 20.38 CE1 18.61 CE2 20.29 CZ 20.81 OH 22.4
A GLY - 4 -119.1 -134.3 N 23.88 CA 25.67 C 32.47 O 34.38
A GLY T 50 66.1 -162.3 N 37.3 CA 43.46 C 51.34 O 51.76
A ARG T 246 -69.9 -47.1 N 58.53 CA 63.55 C 63.99 O 63.72 CB 67.43 CG 68.79 CD 70.34 NE 72.77 CZ 77.81 NH1 77.6 NH2 80.09
A ASN T 126 -64.4 -34.9 N 64.23 CA 62.0 C 57.97 O 55.57 CB 60.05 CG 68.87 OD1 75.57 ND2 69.76
A LYS T 110 53.4 56.8 N 50.97 CA 47.38 C 40.82 O 37.41 CB 53.34 CG 56.68 CD 60.3 CE 59.75 NZ 59.5
A ALA - 22 -64.5 147.1 N 36.72 CA 36.07 C 27.45 O 28.24 CB 36.46
A ILE E 92 -108.0 126.5 N 25.74 CA 28.75 C 27.7 O 30.31 CB 32.29 CG1 36.43 CG2 29.16 CD1 34.47
A ALA E 3 -100.9 141.8 N 21.85 CA 21.15 C 26.14 O 23.59 CB 20.9
A THR - 92 -115.8 114.3 N 26.14 CA 26.48 C 22.01 O 28.08 CB 31.29 OG1 29.0 CG2 34.4
A PRO - 6 -63.8 139.7 N 18.78 CA 19.92 C 21.61 O 22.34 CB 18.22 CG 19.36 CD 17.45
A VAL B 96 -132.0 125.6 N 23.42 CA 21.33 C 24.02 O 21.72 CB 28.83 CG1 30.56 CG2 31.32
A GLN T 124 49.0 38.7 N 22.72 CA 23.04 C 23.53 O 23.78 CB 22.76 CG 26.81 CD 40.23 OE1 46.93 NE2 46.09
A GLY T 4 85.4 8.1 N 17.4 CA 18.24 C 16.76 O 17.17
A VAL B 51 -136.7 141.4 N 19.65 CA 20.31 C 21.47 O 20.37 CB 27.79 CG1 28.26 CG2 20.55
A TRP - 14 -139.6 -173.0 N 20.79 CA 21.05 C 24.49 O 22.42 CB 21.49 CG 20.06 CD1 20.54 CD2 17.34 NE1 18.45 CE2 15.2 CE3 17.83 CZ2 15.8 CZ3 15.91 CH2 17.01
A ASP - 48 -153.1 169.9 N 26.29 CA 28.51 C 29.89 O 32.63 CB 29.36 CG 33.13 OD1 35.02 OD2 35.27
A MET - 15 -94.7 5.8 N 33.67 CA 41.02 C 38.58 O 35.62 CB 42.55 CG 37.99 SD 37.37 CE 30.39
A ARG T 180 -54.9 128.6 N 36.89 CA 35.45 C 36.69 O 33.08 CB 39.27 CG 38.84 CD 42.37 NE 45.08 CZ 46.61 NH1 46.58 NH2 41.74
A ASN T 147 64.8 24.2 N 31.43 CA 33.96 C 31.31 O 37.47 CB 42.58 CG 48.83 OD1 55.92 ND2 47.77
A LYS - 36 -129.0 148.3 N 28.14 CA 31.21 C 28.9 O 26.91 CB 35.3 CG 35.78 CD 37.21 CE 38.89 NZ 37.86
A GLN - 42 -119.2 149.6 N 31.22 CA 23.55 C 26.03 O 25.47 CB 25.2 CG 38.29 CD 49.56 OE1 56.67 NE2 51.37
A PHE - 5 -57.8 147.4 N 21.3 CA 21.89 C 20.86 O 22.24 CB 21.68 CG 19.33 CD1 21.39 CD2 20.3 CE1 25.43 CE2 21.23 CZ 23.73
A HIS S 57 -55.2 -48.9 N 20.07 CA 20.72 C 24.24 O 25.01 CB 23.5 CG 28.35 ND1 29.06 CD2 30.73 CE1 33.47 NE2 33.09
A THR B 64 -133.4 106.6 N 23.01 CA 24.92 C 21.09 O 22.28 CB 27.74 OG1 31.57 CG2 30.15
A GLY - 29 -99.0 144.0 N 23.63 CA 20.87 C 21.36 O 25.14
A ILE - 31 -86.8 135.4 N 23.84 CA 24.6 C 27.81 O 30.6 CB 27.66 CG1 26.57 CG2 30.9 CD1 24.31
A GLU - 95 -83.8 121.7 N 27.68 CA 28.0 C 30.22 O 28.29 CB 32.56 CG 42.87 CD 54.39 OE1 58.04 OE2 58.26
A ILE B 1 -100.6 108.6 N 23.43 CA 26.79 C 29.24 O 29.22 CB 26.12 CG1 20.4 CG2 24.27 CD1 20.66
A LYS - 139 -104.2 -34.0 N 27.28 CA 29.39 C 28.21 O 30.93 CB 34.23 CG 41.24 CD 49.41 CE 57.19 NZ 60.5
A VAL S 35 -130.4 112.6 N 24.37 CA 30.73 C 24.94 O 23.19 CB 32.14 CG1 24.76 CG2 32.38
A TRP E 4 -148.2 163.0 N 22.47 CA 21.18 C 23.61 O 24.16 CB 20.66 CG 22.74 CD1 24.94 CD2 23.08 NE1 27.44 CE2 24.41 CE3 24.54 CZ2 29.8 CZ3 31.43 CH2 30.77
A ALA E 0 -138.0 158.8 N 25.23 CA 24.32 C 24.4 O 23.51 CB 20.58
A ILE E 1 -120.3 132.3 N 24.38 CA 23.55 C 19.78 O 23.11 CB 27.56 CG1 30.34 CG2 26.38 CD1 30.94
A ALA E 0 -121.2 115.5 N 19.83 CA 22.25 C 21.4 O 20.95 CB 26.46
A CYS E 1 -107.8 107.2 N 20.37 CA 21.79 C 19.71 O 21.41 CB 20.69 SG 24.91
A PHE - 12 -90.4 -3.1 N 18.93 CA 23.64 C 25.11 O 28.48 CB 23.72 CG 25.84 CD1 26.72 CD2 26.15 CE1 30.07 CE2 28.01 CZ 28.4
A ALA S 1 -77.8 147.7 N 26.39 CA 27.62 C 27.74 O 28.31 CB 26.69
A PRO - 58 -65.4 137.4 N 31.8 CA 34.12 C 32.06 O 31.85 CB 35.54 CG 34.22 CD 34.28
A GLN T 90 -55.2 -34.8 N 28.3 CA 31.21 C 33.45 O 31.45 CB 31.52 CG 37.48 CD 50.84 OE1 54.51 NE2 54.5
A ARG T 244 -60.5 -29.8 N 34.37 CA 37.69 C 37.93 O 37.01 CB 41.08 CG 55.0 CD 62.89 NE 70.56 CZ 73.16 NH1 72.95 NH2 74.47
A GLN T 108 -101.9 -36.3 N 31.6 CA 36.81 C 36.43 O 38.16 CB 36.54 CG 43.55 CD 51.17 OE1 52.81 NE2 54.69
A CYS S 0 -116.6 85.6 N 29.72 CA 24.78 C 28.45 O 27.2 CB 23.95 SG 29.11
A THR - 39 -74.8 170.6 N 26.9 CA 27.99 C 27.65 O 26.67 CB 34.41 OG1 31.23 CG2 31.53
A GLU H 105 -64.7 -32.1 N 28.58 CA 34.44 C 29.14 O 28.69 CB 32.27 CG 31.57 CD 43.97 OE1 37.04 OE2 52.52
A VAL H 113 -61.1 -44.2 N 30.27 CA 37.0 C 34.62 O 29.43 CB 32.52 CG1 33.18 CG2 34.12
A HIS H 58 -58.2 -46.8 N 28.45 CA 29.1 C 26.53 O 25.61 CB 29.47 CG 31.55 ND1 34.99 CD2 34.75 CE1 34.07 NE2 38.27
A LEU H 8 -63.4 -41.5 N 25.68 CA 26.81 C 25.52 O 25.54 CB 24.51 CG 31.27 CD1 29.62 CD2 31.08
A LYS H 98 -65.3 -43.9 N 27.06 CA 28.1 C 30.55 O 28.16 CB 29.91 CG 40.72 CD 42.3 CE 47.77 NZ 46.58
A SER H 53 -65.0 -42.2 N 32.57 CA 33.87 C 29.67 O 27.89 CB 41.48 OG 52.86
A PHE H 2 -60.7 -44.7 N 25.54 CA 26.11 C 28.53 O 23.41 CB 22.83 CG 24.7 CD1 27.6 CD2 24.01 CE1 28.13 CE2 27.04 CZ 25.6
A THR H 3 -61.0 -48.3 N 26.46 CA 24.43 C 26.83 O 29.82 CB 30.61 OG1 29.25 CG2 30.5
A GLU H 102 -51.3 -51.3 N 27.01 CA 29.67 C 27.64 O 29.35 CB 36.11 CG 55.29 CD 68.11 OE1 71.13 OE2 71.03
A GLN H 65 -69.1 -39.0 N 26.81 CA 27.68 C 27.99 O 24.8 CB 28.17 CG 30.41 CD 43.84 OE1 49.45 NE2 40.17
A LEU H 2 -63.0 -42.5 N 23.71 CA 25.54 C 28.44 O 25.3 CB 22.15 CG 20.19 CD1 20.58 CD2 23.69
A ARG H 76 -65.2 -35.4 N 24.38 CA 29.93 C 30.43 O 30.35 CB 28.3 CG 27.32 CD 31.41 NE 37.28 CZ 50.02 NH1 58.07 NH2 52.75
A LYS H 113 -62.9 -51.4 N 26.8 CA 28.56 C 27.62 O 28.07 CB 30.99 CG 41.05 CD 52.03 CE 59.63 NZ 64.26
A ILE H 27 -64.2 -39.0 N 25.09 CA 25.73 C 27.35 O 26.37 CB 26.33 CG1 27.72 CG2 23.95 CD1 33.78
A SER H 0 -69.1 -37.4 N 22.94 CA 25.06 C 26.56 O 27.81 CB 24.34 OG 29.31
A ARG H 166 -62.9 -45.2 N 25.23 CA 26.75 C 30.43 O 32.37 CB 35.72 CG 50.05 CD 62.44 NE 72.12 CZ 79.32 NH1 80.45 NH2 84.19
A ASP H 73 -58.1 -32.4 N 29.42 CA 29.16 C 28.58 O 31.42 CB 32.25 CG 45.01 OD1 44.48 OD2 52.36
A ALA T 5 -84.7 -4.7 N 25.38 CA 26.84 C 28.47 O 30.27 CB 21.89
A GLY T 25 79.9 23.1 N 27.12 CA 29.04 C 31.74 O 29.82
A MET - 0 -124.6 72.6 N 26.25 CA 23.07 C 28.2 O 32.97 CB 20.61 CG 19.67 SD 23.52 CE 22.91
A PRO - 32 -68.2 125.6 N 29.06 CA 30.98 C 32.06 O 29.59 CB 35.72 CG 36.94 CD 33.04
A ILE B 8 -90.2 103.0 N 31.21 CA 27.74 C 29.73 O 31.79 CB 28.19 CG1 26.99 CG2 26.41 CD1 31.31
A GLN - 102 -70.1 -21.9 N 33.3 CA 39.68 C 41.73 O 44.54 CB 48.82 CG 56.83 CD 65.07 OE1 71.66 NE2 67.19
A GLY S 26 -158.5 -167.2 N 37.64 CA 39.3 C 35.91 O 33.51
A GLN S 90 -70.5 160.8 N 32.85 CA 35.62 C 33.12 O 31.99 CB 40.88 CG 46.1 CD 47.87 OE1 49.6 NE2 48.57
A PRO - 25 -65.3 156.5 N 32.06 CA 33.26 C 29.54 O 30.26 CB 33.59 CG 37.24 CD 33.87
A CYS S 49 -80.4 -13.8 N 30.34 CA 30.99 C 31.73 O 32.16 CB 30.02 SG 42.94
A PHE E 17 -155.0 135.3 N 30.38 CA 31.01 C 27.43 O 29.55 CB 30.54 CG 29.67 CD1 31.35 CD2 34.2 CE1 30.94 CE2 35.13 CZ 28.47
A CYS E 56 -153.0 108.1 N 30.32 CA 32.54 C 35.16 O 35.17 CB 35.66 SG 40.22
A LYS E 119 -140.3 147.8 N 27.17 CA 29.95 C 27.06 O 25.85 CB 35.18 CG 44.84 CD 53.53 CE 58.6 NZ 60.46
A TYR E 62 -81.5 146.8 N 26.69 CA 26.6 C 27.07 O 24.56 CB 27.96 CG 30.27 CD1 25.93 CD2 31.74 CE1 27.36 CE2 31.39 CZ 30.36 OH 28.69
A ALA - 20 -143.7 162.8 N 25.91 CA 27.59 C 27.52 O 24.42 CB 30.33
A GLN - 177 -137.0 130.8 N 24.08 CA 26.12 C 25.71 O 27.1 CB 36.44 CG 51.37 CD 62.84 OE1 66.71 NE2 65.67
A GLY S 31 90.2 154.3 N 26.6 CA 29.84 C 24.63 O 21.59
A ALA G 38 -64.6 -25.1 N 21.42 CA 22.91 C 18.76 O 20.69 CB 22.47
A ASP G 155 -64.8 -26.8 N 19.75 CA 22.65 C 26.39 O 26.38 CB 21.63 CG 26.69 OD1 24.28 OD2 31.91
A SER G 28 -77.7 -15.6 N 27.61 CA 31.51 C 25.55 O 20.84 CB 35.56 OG 36.25
A VAL H 0 -63.2 -57.1 N 21.97 CA 21.34 C 23.15 O 20.23 CB 21.19 CG1 19.03 CG2 21.88
A GLU H 47 -64.8 -43.0 N 19.47 CA 19.25 C 22.91 O 22.97 CB 22.92 CG 30.01 CD 36.89 OE1 38.06 OE2 31.65
A PRO H 78 -66.6 -34.7 N 26.66 CA 26.95 C 28.32 O 25.3 CB 32.58 CG 31.99 CD 26.02
A MET H 25 -66.4 -44.7 N 22.9 CA 24.13 C 25.09 O 23.33 CB 29.2 CG 30.98 SD 35.76 CE 39.1
A PHE H 0 -66.8 -36.4 N 21.04 CA 24.1 C 22.35 O 21.36 CB 17.61 CG 17.77 CD1 23.35 CD2 27.65 CE1 26.11 CE2 28.59 CZ 23.78
A ARG H 108 -64.8 -41.3 N 23.41 CA 24.55 C 26.04 O 27.96 CB 26.87 CG 27.55 CD 32.73 NE 32.82 CZ 34.78 NH1 37.4 NH2 34.66
A HIS H 87 -60.3 -45.6 N 25.08 CA 26.4 C 25.12 O 26.65 CB 27.77 CG 33.53 ND1 33.46 CD2 35.97 CE1 32.46 NE2 38.58
A LEU H 0 -62.3 -45.3 N 25.52 CA 24.59 C 27.54 O 28.1 CB 22.23 CG 25.9 CD1 24.29 CD2 33.42
A LYS H 82 -62.2 -39.3 N 21.72 CA 27.41 C 33.18 O 32.96 CB 27.02 CG 32.02 CD 32.66 CE 33.45 NZ 36.04
A ASN H 136 -79.4 -19.3 N 30.55 CA 35.99 C 37.67 O 41.86 CB 39.29 CG 47.35 OD1 50.82 ND2 48.45
A THR H 72 -103.3 -41.1 N 32.0 CA 32.36 C 36.3 O 38.39 CB 38.44 OG1 36.95 CG2 36.59
A TYR - 66 -103.4 97.3 N 32.76 CA 38.78 C 33.99 O 33.2 CB 34.23 CG 34.17 CD1 39.39 CD2 31.29 CE1 36.5 CE2 33.76 CZ 35.83 OH 36.83
A ALA T 96 -59.8 133.0 N 31.32 CA 29.68 C 32.34 O 36.06 CB 33.57
A GLY T 58 82.1 7.9 N 30.54 CA 32.69 C 28.18 O 31.81
A LEU - 38 -50.0 125.2 N 24.43 CA 22.07 C 27.99 O 25.77 CB 25.43 CG 25.12 CD1 24.25 CD2 25.2
A GLN - 53 -105.4 -26.5 N 24.75 CA 21.56 C 23.5 O 24.7 CB 20.53 CG 23.27 CD 25.1 OE1 26.69 NE2 29.47
A LEU E 5 -159.3 138.4 N 21.74 CA 18.58 C 20.49 O 19.82 CB 18.77 CG 23.23 CD1 23.65 CD2 25.67
A VAL E 1 -110.8 120.6 N 20.52 CA 20.86 C 20.09 O 18.7 CB 21.15 CG1 16.98 CG2 20.22
A VAL E 2 -90.1 125.8 N 20.54 CA 17.84 C 16.47 O 17.23 CB 18.74 CG1 19.95 CG2 20.63
A VAL E 0 -117.3 117.4 N 16.87 CA 19.16 C 18.47 O 20.13 CB 20.52 CG1 20.02 CG2 17.32
A ILE E 1 -94.4 126.7 N 18.5 CA 18.99 C 20.77 O 21.57 CB 23.54 CG1 25.46 CG2 21.4 CD1 25.53
A LEU E 9 -116.8 142.4 N 19.36 CA 17.9 C 19.44 O 22.81 CB 15.72 CG 16.82 CD1 14.29 CD2 20.13
A PRO - 52 -71.4 -9.0 N 20.28 CA 27.18 C 38.86 O 49.87 CB 27.05 CG 25.86 CD 22.99
A GLY S 20 147.2 -151.5 N 30.79 CA 22.99 C 23.04 O 19.45
A LYS S 217 -67.4 123.7 N 23.74 CA 18.56 C 16.78 O 18.81 CB 26.78 CG 33.5 CD 40.37 CE 42.06 NZ 47.71
A THR - 32 -157.0 144.9 N 17.03 CA 16.56 C 15.97 O 15.16 CB 18.38 OG1 19.18 CG2 19.72
A PRO H 108 -59.4 -17.5 N 20.02 CA 19.62 C 16.84 O 16.68 CB 20.79 CG 26.92 CD 22.44
A VAL H 8 -58.6 -35.4 N 16.01 CA 18.96 C 19.36 O 14.6 CB 17.33 CG1 18.02 CG2 21.5
A TYR H 50 -57.0 -54.7 N 16.55 CA 13.61 C 14.27 O 14.21 CB 13.29 CG 16.04 CD1 15.05 CD2 15.06 CE1 12.31 CE2 15.19 CZ 13.13 OH 17.83
A ALA H 23 -57.7 -35.0 N 13.42 CA 13.61 C 14.96 O 16.44 CB 15.17
A GLU H 34 -68.8 -41.7 N 15.47 CA 15.43 C 15.53 O 14.57 CB 15.56 CG 19.07 CD 22.27 OE1 20.89 OE2 21.85
A VAL H 0 -56.8 -46.7 N 15.01 CA 17.63 C 16.23 O 17.41 CB 20.16 CG1 18.81 CG2 22.52
A LYS H 3 -69.9 -36.1 N 15.74 CA 14.27 C 13.76 O 15.13 CB 15.33 CG 17.27 CD 18.95 CE 17.37 NZ 17.79
A ARG I 63 -55.8 -53.2 N 15.71 CA 16.93 C 20.84 O 18.77 CB 16.09 CG 18.72 CD 20.93 NE 22.66 CZ 24.63 NH1 22.14 NH2 24.12
A VAL I 0 -69.8 -48.5 N 18.58 CA 19.45 C 20.72 O 18.44 CB 16.74 CG1 18.39 CG2 16.8
A GLY I 0 -67.9 -47.3 N 18.37 CA 19.43 C 17.87 O 20.21
A ASP I 5 -80.5 -36.6 N 16.08 CA 18.03 C 17.6 O 19.66 CB 17.44 CG 20.19 OD1 21.92 OD2 16.45
A THR I 29 -116.3 -30.6 N 16.12 CA 17.01 C 17.16 O 23.43 CB 21.14 OG1 19.56 CG2 18.42
A VAL I 41 -93.2 -43.3 N 17.76 CA 19.78 C 20.51 O 20.9 CB 17.45 CG1 20.24 CG2 17.25
A LEU I 8 -117.3 -20.3 N 19.93 CA 24.26 C 19.21 O 21.49 CB 20.72 CG 22.71 CD1 25.27 CD2 19.11
A GLY - 16 68.2 58.6 N 18.49 CA 18.86 C 20.87 O 24.84
A MET - 21 -128.9 136.6 N 18.75 CA 16.68 C 19.2 O 20.7 CB 21.03 CG 23.99 SD 25.45 CE 29.8
A ALA - 33 -67.5 129.4 N 17.32 CA 21.62 C 19.21 O 18.64 CB 19.24
A THR E 3 -129.2 144.7 N 17.16 CA 17.18 C 18.62 O 18.63 CB 17.56 OG1 17.67 CG2 20.35
A GLN E 8 -131.2 111.4 N 17.57 CA 17.82 C 14.99 O 16.8 CB 16.82 CG 16.16 CD 16.13 OE1 19.72 NE2 15.25
A CYS E 19 -87.4 147.6 N 16.11 CA 14.92 C 14.49 O 17.03 CB 18.45 SG 18.78
A VAL E 12 -139.2 135.4 N 15.58 CA 17.81 C 20.47 O 20.08 CB 23.09 CG1 23.27 CG2 25.35
A GLN E 82 -70.4 141.6 N 16.43 CA 17.26 C 19.46 O 21.64 CB 21.64 CG 26.12 CD 34.12 OE1 33.93 NE2 43.51
A MET T 20 -50.4 -38.6 N 18.16 CA 19.37 C 21.33 O 22.34 CB 30.63 CG 40.2 SD 36.35 CE 45.9
A LYS H 125 -62.2 -26.9 N 22.78 CA 26.13 C 26.94 O 26.91 CB 28.14 CG 29.4 CD 40.34 CE 47.05 NZ 55.14
A ASN H 49 -90.8 -0.8 N 24.56 CA 26.12 C 28.03 O 27.45 CB 22.36 CG 24.08 OD1 27.23 ND2 19.85
A VAL H 2 -96.3 -41.0 N 20.75 CA 21.58 C 27.52 O 29.86 CB 24.66 CG1 23.84 CG2 22.93
A GLN H 76 -65.0 -40.5 N 26.31 CA 28.21 C 30.72 O 36.1 CB 36.02 CG 35.04 CD 34.91 OE1 35.97 NE2 38.68
A ARG S 189 -132.8 110.0 N 31.7 CA 37.16 C 34.97 O 38.72 CB 40.55 CG 52.92 CD 59.62 NE 65.9 CZ 68.83 NH1 69.06 NH2 70.08
A THR - 39 -101.0 155.8 N 32.34 CA 30.82 C 27.45 O 30.67 CB 31.97 OG1 35.3 CG2 30.19
A THR - 54 -132.3 150.4 N 24.31 CA 27.43 C 26.06 O 26.9 CB 41.98 OG1 42.09 CG2 40.07
A PRO H 94 -56.2 -37.2 N 28.31 CA 28.65 C 27.66 O 23.2 CB 31.47 CG 33.12 CD 31.35
A GLN H 112 -65.6 -44.6 N 24.65 CA 26.78 C 24.0 O 22.49 CB 32.17 CG 31.11 CD 32.56 OE1 30.56 NE2 26.97
A THR H 58 -67.0 -43.2 N 22.36 CA 22.57 C 18.85 O 18.73 CB 27.87 OG1 31.26 CG2 27.8
A LEU H 4 -64.3 -39.8 N 20.21 CA 18.94 C 18.33 O 19.91 CB 20.78 CG 21.74 CD1 27.01 CD2 25.04
A SER H 24 -62.8 -47.9 N 18.4 CA 20.61 C 18.38 O 18.66 CB 20.94 OG 23.74
A ASN H 57 -57.4 -40.0 N 17.69 CA 16.43 C 17.71 O 17.48 CB 17.09 CG 20.41 OD1 18.94 ND2 20.7
A LEU H 19 -59.4 -42.8 N 16.97 CA 14.69 C 19.58 O 20.44 CB 17.45 CG 19.97 CD1 20.94 CD2 20.43
A CYS H 1 -62.0 -36.8 N 19.32 CA 18.59 C 19.55 O 17.1 CB 18.18 SG 26.66
A LEU H 4 -50.5 -47.9 N 17.25 CA 15.17 C 19.8 O 17.28 CB 16.39 CG 21.56 CD1 20.55 CD2 21.0
A LYS H 47 -69.4 -42.9 N 15.58 CA 19.46 C 18.37 O 17.96 CB 16.77 CG 17.11 CD 17.04 CE 14.99 NZ 16.44
A ILE H 1 -63.1 -46.4 N 15.1 CA 14.36 C 20.78 O 16.46 CB 19.47 CG1 18.24 CG2 21.33 CD1 23.43
A ASN H 0 -58.4 -44.0 N 17.01 CA 17.44 C 16.71 O 16.74 CB 17.72 CG 18.89 OD1 19.49 ND2 17.68
A VAL H 0 -66.1 -45.4 N 16.46 CA 18.55 C 17.87 O 18.34 CB 24.09 CG1 27.56 CG2 22.6
A LYS H 18 -57.3 -31.9 N 15.92 CA 18.43 C 18.6 O 20.72 CB 17.62 CG 20.71 CD 21.45 CE 23.45 NZ 24.83
A LEU T 32 -93.4 9.3 N 17.32 CA 19.18 C 22.35 O 22.43 CB 17.94 CG 23.09 CD1 23.86 CD2 25.03
A GLY T 37 98.5 6.6 N 18.64 CA 20.9 C 22.65 O 20.7
A GLY - 0 -78.0 167.3 N 19.41 CA 19.14 C 19.04 O 17.74
A VAL B 13 -116.0 108.9 N 20.15 CA 21.49 C 17.44 O 20.81 CB 22.13 CG1 20.14 CG2 23.54
A ASN - 1 -64.8 -48.8 N 17.07 CA 19.44 C 19.44 O 18.58 CB 17.16 CG 20.68 OD1 19.12 ND2 18.19
A ASN - 10 -160.0 172.0 N 19.3 CA 18.05 C 22.27 O 21.55 CB 21.07 CG 23.73 OD1 23.28 ND2 24.95
A ILE E 10 -137.2 155.9 N 16.9 CA 18.28 C 18.37 O 18.97 CB 17.62 CG1 19.9 CG2 19.45 CD1 20.3
A LEU E 3 -59.2 143.8 N 18.29 CA 17.89 C 19.87 O 21.44 CB 17.0 CG 17.16 CD1 19.32 CD2 17.3
A LEU - 30 -59.0 118.9 N 17.96 CA 20.83 C 21.24 O 22.72 CB 21.83 CG 26.29 CD1 27.14 CD2 24.76
A PRO G 45 -56.8 -44.7 N 23.94 CA 23.25 C 24.78 O 24.55 CB 25.21 CG 29.12 CD 24.72
A GLN G 154 -73.2 -10.6 N 22.94 CA 26.01 C 28.32 O 27.91 CB 30.22 CG 36.97 CD 38.22 OE1 31.1 NE2 37.22
A GLY G 39 -93.4 -0.0 N 23.17 CA 22.97 C 21.73 O 21.25
A ARG S 64 -81.5 153.1 N 22.24 CA 22.03 C 19.03 O 20.69 CB 22.4 CG 22.35 CD 21.08 NE 23.57 CZ 27.33 NH1 30.89 NH2 25.62
A PRO - 11 -61.9 160.6 N 21.89 CA 24.59 C 24.38 O 20.96 CB 24.35 CG 25.14 CD 23.91
A PRO G 70 -65.3 -15.8 N 20.83 CA 24.04 C 24.82 O 25.62 CB 26.07 CG 27.57 CD 24.02
A VAL G 3 -54.1 -26.7 N 24.7 CA 25.21 C 30.1 O 22.07 CB 23.07 CG1 22.54 CG2 21.82
A PHE G 28 -73.6 -8.5 N 25.05 CA 23.88 C 27.07 O 26.31 CB 23.23 CG 22.64 CD1 19.34 CD2 20.19 CE1 20.14 CE2 26.31 CZ 20.2
A GLN G 167 -65.6 -17.6 N 22.59 CA 21.59 C 25.83 O 28.03 CB 24.24 CG 34.34 CD 45.5 OE1 46.75 NE2 46.97
A GLN S 93 -127.3 157.6 N 23.42 CA 25.18 C 20.17 O 18.97 CB 23.59 CG 35.79 CD 50.12 OE1 48.29 NE2 61.75
A PRO - 36 -56.7 132.3 N 20.59 CA 23.43 C 18.32 O 21.11 CB 20.46 CG 22.28 CD 22.12
A VAL E 10 -143.1 140.9 N 17.15 CA 19.2 C 18.0 O 19.53 CB 20.8 CG1 19.59 CG2 19.08
A ILE E 1 -113.0 138.7 N 14.74 CA 13.95 C 19.29 O 14.84 CB 16.7 CG1 14.13 CG2 16.62 CD1 15.74
A PHE E 1 -107.3 124.0 N 14.21 CA 12.98 C 14.44 O 17.48 CB 13.15 CG 15.95 CD1 19.42 CD2 18.5 CE1 16.04 CE2 19.56 CZ 16.99
A LEU E 2 -109.7 146.1 N 12.93 CA 16.15 C 20.04 O 17.57 CB 13.08 CG 25.35 CD1 29.41 CD2 23.29
A GLY E 0 -127.3 135.8 N 13.2 CA 12.4 C 16.32 O 14.86
A ALA E 0 -139.5 140.6 N 13.14 CA 14.74 C 18.27 O 16.21 CB 14.92
A ASP E 6 -147.7 150.3 N 14.33 CA 17.08 C 17.75 O 15.93 CB 15.98 CG 25.14 OD1 19.45 OD2 27.92
A VAL E 7 -118.0 136.1 N 12.29 CA 11.78 C 16.5 O 14.19 CB 15.73 CG1 15.24 CG2 17.17
A THR E 24 -115.3 128.6 N 14.99 CA 14.71 C 19.94 O 18.35 CB 21.98 OG1 24.35 CG2 21.68
A HIS - 60 -99.8 161.9 N 19.72 CA 17.21 C 19.95 O 20.65 CB 19.43 CG 21.16 ND1 18.51 CD2 20.15 CE1 17.45 NE2 18.59
A PRO - 6 -73.3 161.9 N 17.91 CA 25.88 C 25.92 O 24.79 CB 23.89 CG 24.01 CD 20.08
A PRO - 58 -59.6 159.7 N 30.63 CA 31.62 C 35.48 O 31.96 CB 32.49 CG 35.17 CD 30.31
A ALA T 86 -49.5 140.3 N 36.68 CA 39.28 C 35.95 O 33.28 CB 43.79
A GLY T 76 87.5 -17.5 N 34.74 CA 44.17 C 42.42 O 43.77
A ASP - 40 -74.9 139.0 N 41.69 CA 38.83 C 40.55 O 36.86 CB 40.48 CG 45.14 OD1 49.16 OD2 40.42
A GLY S 56 -113.4 -16.9 N 40.11 CA 38.81 C 38.64 O 45.36
A LYS S 162 -133.0 -0.1 N 35.67 CA 39.84 C 31.77 O 33.16 CB 42.56 CG 49.18 CD 56.55 CE 60.13 NZ 61.02
A LYS - 61 -76.4 150.8 N 27.57 CA 26.59 C 22.09 O 23.31 CB 22.66 CG 32.4 CD 38.82 CE 45.47 NZ 47.09
A PRO - 10 -74.5 157.5 N 21.87 CA 23.3 C 21.35 O 21.9 CB 22.52 CG 21.25 CD 20.47
A SER E 0 -86.7 156.1 N 16.3 CA 15.87 C 19.53 O 17.15 CB 17.0 OG 20.52
A ILE E 0 -119.9 125.8 N 13.85 CA 13.32 C 17.18 O 15.26 CB 15.52 CG1 18.93 CG2 14.94 CD1 19.73
A ALA E 0 -104.9 134.0 N 12.64 CA 11.74 C 14.93 O 16.95 CB 15.48
A ALA E 0 -132.5 134.6 N 13.34 CA 13.9 C 14.61 O 12.75 CB 16.65
A VAL E 0 -131.5 129.6 N 13.71 CA 12.88 C 13.62 O 13.81 CB 13.9 CG1 16.39 CG2 15.59
A VAL E 0 -116.9 157.0 N 13.77 CA 12.79 C 14.67 O 15.99 CB 12.69 CG1 16.47 CG2 14.52
A GLY E 0 -141.8 140.0 N 12.02 CA 18.25 C 14.67 O 14.65
A SER E 0 -66.2 153.5 N 15.62 CA 14.14 C 17.65 O 16.94 CB 15.92 OG 14.3
A MET - 11 -132.4 13.0 N 15.57 CA 17.8 C 18.34 O 20.77 CB 19.45 CG 24.52 SD 21.9 CE 15.2
A ASP S 23 -153.5 177.1 N 19.07 CA 21.38 C 18.35 O 20.25 CB 19.9 CG 20.68 OD1 23.62 OD2 21.62
A ALA S 70 -88.8 1.7 N 20.2 CA 22.72 C 25.42 O 30.1 CB 25.66
A HIS S 53 -64.5 -50.9 N 21.49 CA 22.22 C 19.23 O 23.37 CB 17.37 CG 18.24 ND1 24.02 CD2 20.99 CE1 24.43 NE2 22.25
A PRO S 2 -91.1 137.4 N 14.2 CA 18.66 C 24.54 O 20.42 CB 19.93 CG 18.23 CD 17.56
A ASN - 1 -134.9 -53.3 N 18.32 CA 16.56 C 15.47 O 17.65 CB 17.33 CG 25.25 OD1 25.33 ND2 29.03
A ARG - 37 -78.2 140.8 N 16.93 CA 15.65 C 18.2 O 16.94 CB 21.46 CG 25.4 CD 23.88 NE 20.32 CZ 18.45 NH1 17.18 NH2 16.86
A TYR E 1 -131.1 150.2 N 15.46 CA 11.65 C 15.61 O 18.32 CB 12.33 CG 12.8 CD1 16.5 CD2 14.52 CE1 18.26 CE2 13.63 CZ 19.75 OH 19.95
A CYS E 8 -113.3 157.7 N 15.49 CA 14.34 C 16.33 O 16.04 CB 19.32 SG 28.95
A ALA E 11 -119.2 151.3 N 13.07 CA 15.9 C 16.86 O 19.11 CB 13.74
A THR E 7 -132.2 151.9 N 16.0 CA 14.8 C 14.65 O 16.71 CB 19.09 OG1 20.14 CG2 20.98
A VAL E 15 -151.7 146.8 N 14.78 CA 13.98 C 15.06 O 17.53 CB 19.48 CG1 15.63 CG2 17.25
A ARG E 49 -144.4 149.2 N 13.39 CA 16.31 C 15.77 O 17.33 CB 20.42 CG 20.5 CD 23.05 NE 22.69 CZ 24.37 NH1 19.35 NH2 25.1
A VAL E 9 -90.6 147.5 N 16.99 CA 15.09 C 17.6 O 19.54 CB 20.59 CG1 19.27 CG2 24.23
A GLN E 14 -150.6 -179.5 N 16.06 CA 20.17 C 19.96 O 22.13 CB 16.5 CG 15.46 CD 24.21 OE1 18.78 NE2 20.93
A GLN S 137 -51.3 138.3 N 18.56 CA 24.92 C 21.69 O 20.11 CB 32.19 CG 49.22 CD 66.48 OE1 74.03 NE2 70.36
A HIS T 57 -46.2 118.0 N 24.06 CA 22.3 C 19.19 O 21.79 CB 20.65 CG 28.35 ND1 31.13 CD2 29.3 CE1 33.43 NE2 29.56
A ARG T 102 63.3 23.3 N 17.9 CA 21.75 C 23.17 O 23.08 CB 23.98 CG 25.81 CD 25.77 NE 26.68 CZ 27.06 NH1 27.93 NH2 26.4
A GLN - 37 -90.0 122.9 N 22.0 CA 22.75 C 20.91 O 17.65 CB 21.2 CG 26.29 CD 34.12 OE1 36.7 NE2 36.0
A GLU - 32 -79.1 -39.0 N 16.62 CA 18.07 C 16.03 O 17.96 CB 20.04 CG 17.82 CD 19.32 OE1 23.55 OE2 20.81
A ILE S 44 -58.9 130.6 N 17.1 CA 20.28 C 20.05 O 19.73 CB 23.33 CG1 26.88 CG2 25.25 CD1 27.92
A ILE - 0 -76.4 106.2 N 17.52 CA 17.24 C 19.0 O 18.9 CB 14.37 CG1 18.63 CG2 16.14 CD1 19.48
A GLN T 112 -63.4 -45.7 N 16.2 CA 21.09 C 22.0 O 25.89 CB 19.4 CG 31.07 CD 38.16 OE1 35.05 NE2 44.02
A ASP T 72 -104.4 30.8 N 19.07 CA 19.32 C 20.03 O 18.32 CB 24.97 CG 28.09 OD1 22.15 OD2 27.29
A LEU H 0 -58.9 -38.6 N 16.08 CA 15.32 C 16.32 O 19.66 CB 14.96 CG 17.81 CD1 15.23 CD2 14.07
A ALA H 16 -58.2 -46.1 N 18.0 CA 18.0 C 24.14 O 18.06 CB 19.46
A ALA H 35 -65.7 -36.9 N 21.21 CA 20.57 C 19.56 O 20.33 CB 22.11
A MET H 0 -68.0 -44.8 N 16.04 CA 15.93 C 22.34 O 16.21 CB 18.52 CG 18.64 SD 20.47 CE 14.51
A VAL H 1 -64.2 -39.8 N 19.63 CA 17.96 C 16.79 O 18.69 CB 17.89 CG1 19.93 CG2 16.92
A ARG H 104 -57.1 -47.6 N 17.15 CA 22.38 C 22.7 O 21.47 CB 21.89 CG 25.47 CD 28.77 NE 31.84 CZ 40.08 NH1 36.59 NH2 42.37
A GLU H 77 -55.7 -44.0 N 20.06 CA 22.52 C 18.79 O 19.93 CB 26.17 CG 33.31 CD 35.06 OE1 32.89 OE2 42.65
A LEU H 3 -70.3 -39.5 N 15.61 CA 17.8 C 21.8 O 17.33 CB 15.1 CG 15.62 CD1 17.19 CD2 16.95
A LEU H 8 -63.2 -41.2 N 17.47 CA 18.38 C 20.93 O 22.36 CB 19.17 CG 20.79 CD1 23.73 CD2 20.91
A ILE H 77 -61.6 -46.4 N 19.52 CA 20.93 C 19.36 O 21.77 CB 22.36 CG1 23.03 CG2 23.5 CD1 21.8
A GLN H 22 -66.1 -35.5 N 18.68 CA 22.34 C 20.74 O 19.93 CB 19.97 CG 28.96 CD 36.0 OE1 31.23 NE2 37.24
A PHE H 6 -61.2 -46.8 N 18.15 CA 17.3 C 19.35 O 20.75 CB 16.78 CG 18.71 CD1 18.57 CD2 20.12 CE1 18.26 CE2 18.26 CZ 17.68
A TYR H 90 -64.9 -40.5 N 19.7 CA 22.25 C 24.5 O 23.48 CB 22.29 CG 27.46 CD1 26.04 CD2 33.96 CE1 32.4 CE2 37.59 CZ 36.01 OH 43.94
A LYS H 131 -63.6 -38.8 N 24.08 CA 24.94 C 27.48 O 27.31 CB 27.17 CG 37.76 CD 45.0 CE 53.71 NZ 57.89
A SER H 60 -77.1 -38.0 N 27.47 CA 26.66 C 26.12 O 26.49 CB 28.52 OG 31.93
A THR H 30 -108.4 -21.2 N 21.24 CA 24.84 C 25.62 O 27.77 CB 24.03 OG1 24.08 CG2 21.74
A ARG S 181 63.7 21.8 N 23.45 CA 25.07 C 25.12 O 26.56 CB 29.19 CG 36.45 CD 45.65 NE 56.86 CZ 56.83 NH1 48.82 NH2 65.22
A PHE - 122 -118.3 149.1 N 23.61 CA 23.49 C 22.63 O 21.56 CB 23.3 CG 24.96 CD1 26.49 CD2 31.96 CE1 33.29 CE2 30.99 CZ 31.12
A LYS - 97 -96.1 123.7 N 25.97 CA 23.78 C 23.31 O 24.45 CB 23.78 CG 28.61 CD 33.45 CE 41.44 NZ 47.03
A PRO - 3 -55.1 138.2 N 20.59 CA 19.11 C 19.92 O 21.23 CB 21.12 CG 22.02 CD 20.34
A THR S 52 -91.8 -14.7 N 20.59 CA 20.78 C 19.14 O 19.45 CB 25.44 OG1 26.92 CG2 26.18
A ARG E 59 -140.5 145.1 N 17.92 CA 17.32 C 18.75 O 20.12 CB 16.42 CG 18.14 CD 19.72 NE 26.47 CZ 31.0 NH1 31.36 NH2 29.03
A ILE E 0 -123.2 120.3 N 15.27 CA 17.71 C 16.67 O 19.39 CB 16.31 CG1 17.96 CG2 15.64 CD1 18.51
A ILE E 0 -109.8 115.6 N 12.79 CA 12.85 C 18.23 O 18.25 CB 14.87 CG1 15.01 CG2 16.88 CD1 16.99
A PHE E 0 -113.4 106.5 N 13.17 CA 14.37 C 14.17 O 14.76 CB 14.48 CG 15.41 CD1 20.24 CD2 16.29 CE1 22.11 CE2 16.45 CZ 20.36
A TYR E 0 -93.4 114.1 N 11.07 CA 10.81 C 16.78 O 18.63 CB 12.65 CG 12.59 CD1 13.83 CD2 14.34 CE1 14.37 CE2 15.25 CZ 14.77 OH 16.33
A ARG E 0 -111.4 112.3 N 13.63 CA 12.85 C 18.74 O 15.71 CB 13.02 CG 16.15 CD 14.98 NE 16.02 CZ 13.54 NH1 18.75 NH2 14.93
A ASP E 15 -85.0 138.9 N 13.71 CA 15.06 C 17.68 O 15.52 CB 19.99 CG 35.11 OD1 35.47 OD2 48.5
A GLY S 37 82.9 16.6 N 16.64 CA 17.8 C 20.21 O 23.75
A VAL - 1 -90.2 127.6 N 16.3 CA 21.16 C 21.62 O 19.21 CB 20.97 CG1 19.25 CG2 19.73
A SER - 57 -82.0 160.4 N 19.72 CA 22.64 C 23.58 O 19.39 CB 26.05 OG 32.84
A GLU G 93 -51.8 -37.9 N 19.43 CA 25.21 C 26.95 O 24.84 CB 30.99 CG 42.26 CD 48.55 OE1 49.44 OE2 44.84
A GLY G 56 -72.1 -2.8 N 26.04 CA 28.8 C 31.15 O 35.69
A GLN G 78 -121.0 2.8 N 23.33 CA 24.77 C 28.32 O 23.7 CB 26.92 CG 31.0 CD 38.91 OE1 42.16 NE2 33.1
A PHE H 13 -53.4 -51.0 N 22.42 CA 22.2 C 23.78 O 25.89 CB 19.16 CG 19.01 CD1 20.54 CD2 22.41 CE1 19.1 CE2 22.19 CZ 25.63
A GLN H 75 -69.3 -40.5 N 22.54 CA 25.8 C 25.15 O 29.71 CB 34.94 CG 48.86 CD 57.93 OE1 62.18 NE2 53.86
A GLN H 94 -64.6 -45.8 N 22.65 CA 28.09 C 27.73 O 27.35 CB 34.69 CG 47.42 CD 53.05 OE1 41.64 NE2 59.39
A VAL H 0 -68.2 -47.3 N 23.07 CA 21.43 C 19.82 O 22.32 CB 21.82 CG1 24.78 CG2 20.89
A LEU H 0 -58.6 -42.6 N 17.89 CA 21.5 C 27.22 O 27.11 CB 21.06 CG 24.31 CD1 23.69 CD2 25.58
A HIS H 85 -56.7 -51.6 N 22.18 CA 23.44 C 28.22 O 28.4 CB 28.66 CG 39.53 ND1 48.46 CD2 44.11 CE1 48.4 NE2 47.02
A HIS H 58 -72.0 -45.1 N 21.18 CA 24.24 C 21.9 O 19.26 CB 23.31 CG 27.54 ND1 31.49 CD2 28.51 CE1 26.47 NE2 30.16
A GLU H 0 -80.2 -35.3 N 16.64 CA 17.12 C 19.55 O 16.28 CB 18.74 CG 14.58 CD 19.51 OE1 20.31 OE2 18.09
A LEU H 0 -63.5 -44.7 N 19.74 CA 18.86 C 19.75 O 19.3 CB 17.41 CG 23.71 CD1 22.46 CD2 23.72
A LEU H 67 -64.9 -34.2 N 18.63 CA 19.9 C 19.71 O 20.52 CB 21.08 CG 22.6 CD1 23.05 CD2 25.05
A ALA H 4 -66.1 -36.9 N 18.75 CA 19.23 C 18.07 O 18.55 CB 18.1
A ILE H 0 -67.5 -44.0 N 17.26 CA 18.53 C 20.92 O 19.67 CB 21.04 CG1 17.71 CG2 18.15 CD1 20.63
A ARG H 91 -60.3 -41.4 N 18.9 CA 20.26 C 21.31 O 22.2 CB 23.25 CG 27.18 CD 33.53 NE 34.02 CZ 42.36 NH1 42.32 NH2 41.73
A GLU H 82 -61.7 -43.5 N 21.33 CA 22.41 C 22.22 O 23.31 CB 25.35 CG 31.88 CD 38.43 OE1 46.6 OE2 35.99
A ALA H 2 -58.4 -43.1 N 21.27 CA 21.79 C 21.15 O 22.43 CB 19.67
A CYS H 3 -64.8 -49.8 N 20.99 CA 24.32 C 26.16 O 24.51 CB 21.33 SG 23.95
A ILE H 82 -62.4 -39.8 N 24.2 CA 27.96 C 28.84 O 30.16 CB 33.48 CG1 40.28 CG2 40.52 CD1 47.04
A LYS H 140 -73.4 -19.4 N 26.15 CA 32.56 C 32.98 O 30.45 CB 36.5 CG 42.25 CD 48.35 CE 52.34 NZ 55.61
A LEU H 58 -76.8 -41.4 N 28.33 CA 31.26 C 34.96 O 35.05 CB 26.94 CG 27.97 CD1 25.63 CD2 29.52
A GLU S 51 -170.2 146.7 N 33.85 CA 37.9 C 38.42 O 32.12 CB 41.89 CG 49.96 CD 53.64 OE1 54.23 OE2 59.74
A LYS T 155 58.7 -146.0 N 43.01 CA 49.18 C 55.28 O 64.96 CB 47.09 CG 61.59 CD 66.29 CE 71.26 NZ 73.0
A ASP T 141 71.1 -3.3 N 46.45 CA 51.0 C 33.26 O 34.24 CB 59.04 CG 63.62 OD1 63.86 OD2 65.91
A TYR - 26 -81.3 107.3 N 29.88 CA 29.23 C 30.97 O 29.69 CB 25.8 CG 25.5 CD1 24.06 CD2 24.25 CE1 22.84 CE2 26.19 CZ 22.8 OH 21.82
A GLN - 159 -136.4 69.9 N 28.85 CA 29.12 C 24.95 O 29.93 CB 32.76 CG 44.68 CD 55.22 OE1 63.98 NE2 53.2
A PRO - 13 -69.8 152.5 N 24.33 CA 22.66 C 23.7 O 25.06 CB 21.22 CG 19.39 CD 23.24
A GLY E 14 -69.7 134.8 N 20.24 CA 19.38 C 20.75 O 19.46
A ILE E 4 -107.4 132.3 N 16.67 CA 15.57 C 17.04 O 17.9 CB 18.85 CG1 20.57 CG2 17.02 CD1 21.22
A THR E 0 -115.2 123.1 N 13.99 CA 16.03 C 18.42 O 18.94 CB 15.21 OG1 15.73 CG2 18.13
A PHE E 0 -115.0 111.7 N 13.35 CA 13.72 C 16.74 O 15.57 CB 13.45 CG 17.6 CD1 16.7 CD2 20.23 CE1 18.92 CE2 20.14 CZ 17.15
A ILE E 0 -119.8 122.2 N 12.19 CA 14.48 C 18.58 O 16.88 CB 12.27 CG1 14.84 CG2 13.91 CD1 22.49
A VAL E 0 -85.8 130.1 N 13.53 CA 15.37 C 14.87 O 15.01 CB 17.57 CG1 14.49 CG2 17.77
A VAL E 0 -108.0 126.0 N 11.36 CA 14.25 C 15.71 O 17.37 CB 20.83 CG1 19.75 CG2 27.81
A GLN E 24 -125.4 118.5 N 11.08 CA 16.75 C 20.72 O 15.23 CB 18.36 CG 22.41 CD 29.78 OE1 30.99 NE2 28.53
A LYS S 62 -95.5 -27.0 N 22.44 CA 24.31 C 25.19 O 33.03 CB 33.07 CG 33.96 CD 33.29 CE 28.63 NZ 22.37
A ARG S 210 -106.6 85.9 N 25.23 CA 26.31 C 33.16 O 42.72 CB 29.9 CG 29.06 CD 34.51 NE 36.82 CZ 38.79 NH1 34.95 NH2 39.26
A HIS S 21 -135.8 -172.5 N 17.61 CA 16.84 C 19.44 O 19.09 CB 19.3 CG 19.1 ND1 17.53 CD2 17.96 CE1 15.63 NE2 14.75
A HIS S 70 -114.1 17.5 N 14.84 CA 17.4 C 18.93 O 19.18 CB 22.8 CG 28.25 ND1 34.94 CD2 29.51 CE1 33.1 NE2 35.49
A THR - 2 -85.6 126.1 N 18.79 CA 18.25 C 14.98 O 16.16 CB 19.56 OG1 15.62 CG2 21.07
A ARG - 9 -123.3 141.3 N 15.82 CA 15.91 C 16.29 O 17.95 CB 17.52 CG 23.25 CD 25.22 NE 27.19 CZ 27.36 NH1 24.39 NH2 26.6
A LEU E 3 -119.1 141.3 N 15.96 CA 16.43 C 17.14 O 20.08 CB 15.59 CG 17.47 CD1 18.41 CD2 15.65
A PHE E 4 -131.1 150.0 N 18.18 CA 19.13 C 21.76 O 20.74 CB 20.32 CG 20.56 CD1 20.02 CD2 24.66 CE1 20.71 CE2 25.32 CZ 23.06
A CYS E 2 -67.1 131.9 N 20.65 CA 21.38 C 25.64 O 23.19 CB 21.87 SG 24.98
A THR S 47 -71.0 -43.6 N 22.65 CA 24.08 C 29.95 O 31.41 CB 26.18 OG1 26.18 CG2 30.91
A ASP S 58 -92.5 127.5 N 29.22 CA 34.37 C 28.19 O 29.07 CB 38.06 CG 51.55 OD1 50.74 OD2 56.93
A LYS G 160 -55.1 -36.5 N 30.21 CA 32.32 C 29.25 O 28.57 CB 36.19 CG 44.93 CD 55.15 CE 60.86 NZ 67.09
A ASN G 137 -63.1 -14.1 N 32.4 CA 34.01 C 32.19 O 31.99 CB 38.11 CG 48.92 OD1 54.59 ND2 60.1
A GLU G 41 -90.8 -16.8 N 28.34 CA 24.33 C 26.35 O 28.77 CB 25.99 CG 31.16 CD 32.99 OE1 36.92 OE2 33.25
A ARG - 81 -61.0 127.4 N 25.2 CA 25.12 C 25.85 O 31.26 CB 24.2 CG 23.97 CD 26.67 NE 31.29 CZ 34.58 NH1 34.72 NH2 36.0
A VAL B 26 -99.8 123.6 N 24.88 CA 22.88 C 23.21 O 22.83 CB 24.78 CG1 24.45 CG2 27.48
A GLY T 62 73.2 -171.9 N 27.66 CA 34.3 C 29.88 O 29.2
A LYS T 212 -62.1 -36.7 N 27.4 CA 28.65 C 24.04 O 26.98 CB 37.48 CG 47.81 CD 53.77 CE 56.73 NZ 56.66
A SER T 5 -78.3 -17.2 N 22.23 CA 22.41 C 27.94 O 24.59 CB 20.74 OG 23.57
A GLY T 8 69.6 32.3 N 21.53 CA 21.86 C 20.58 O 23.53
A ASN B 2 -86.9 164.9 N 19.32 CA 18.15 C 22.99 O 20.99 CB 17.29 CG 19.6 OD1 17.55 ND2 18.12
A ILE - 4 -60.2 151.1 N 18.21 CA 17.68 C 18.93 O 18.14 CB 16.6 CG1 18.86 CG2 18.1 CD1 21.43
A PRO - 14 -74.3 151.6 N 19.28 CA 16.4 C 19.34 O 17.84 CB 20.42 CG 23.16 CD 19.46
A ALA T 8 -54.1 136.3 N 19.71 CA 15.27 C 15.08 O 16.26 CB 17.93
A GLY T 0 98.0 -6.6 N 14.23 CA 14.75 C 18.57 O 16.3
A THR E 1 -61.3 122.1 N 15.85 CA 15.56 C 15.6 O 16.69 CB 15.31 OG1 15.22 CG2 18.7
A THR E 0 -124.6 135.2 N 14.89 CA 13.05 C 14.93 O 15.07 CB 21.94 OG1 26.69 CG2 15.83
A VAL E 1 -127.5 121.5 N 16.57 CA 17.24 C 14.75 O 15.19 CB 18.98 CG1 17.21 CG2 18.0
A ASP - 4 -132.7 20.3 N 13.93 CA 14.34 C 18.83 O 23.28 CB 13.75 CG 20.07 OD1 19.45 OD2 17.69
A THR S 46 -131.7 163.8 N 15.48 CA 15.96 C 20.01 O 19.33 CB 21.61 OG1 24.67 CG2 22.7
A LYS S 66 69.4 -60.8 N 21.78 CA 27.75 C 22.36 O 25.44 CB 30.6 CG 35.36 CD 33.69 CE 33.44 NZ 41.3
A ILE S 1 -100.8 -0.3 N 20.43 CA 19.12 C 21.03 O 21.29 CB 18.19 CG1 16.55 CG2 22.91 CD1 20.26
A THR S 1 -92.4 -175.1 N 18.21 CA 16.24 C 19.0 O 18.82 CB 18.8 OG1 19.52 CG2 19.43
A HIS - 36 -68.3 141.2 N 18.0 CA 18.9 C 16.81 O 19.0 CB 17.46 CG 20.81 ND1 20.52 CD2 24.62 CE1 26.9 NE2 25.03
A PRO S 16 -62.8 -27.1 N 17.35 CA 21.34 C 20.48 O 20.51 CB 26.92 CG 25.67 CD 19.64
A THR S 41 -129.9 -29.1 N 20.59 CA 19.03 C 20.33 O 21.77 CB 24.27 OG1 26.05 CG2 26.54
A GLU B 37 -88.9 178.8 N 18.03 CA 16.22 C 17.08 O 19.14 CB 16.49 CG 22.27 CD 29.54 OE1 28.25 OE2 28.66
A PHE - 2 -104.3 92.0 N 16.16 CA 15.7 C 18.22 O 15.45 CB 15.64 CG 16.03 CD1 16.06 CD2 16.27 CE1 21.85 CE2 21.7 CZ 21.14
A ASP E 4 -140.1 154.4 N 16.53 CA 14.39 C 17.68 O 15.61 CB 15.65 CG 20.19 OD1 20.7 OD2 18.99
A PHE E 0 -156.4 153.3 N 13.49 CA 14.43 C 15.47 O 14.31 CB 16.3 CG 17.71 CD1 13.89 CD2 17.06 CE1 13.21 CE2 16.05 CZ 15.57
A TYR E 5 -93.2 139.5 N 14.39 CA 13.3 C 13.6 O 11.97 CB 17.07 CG 16.24 CD1 17.12 CD2 14.64 CE1 16.82 CE2 15.67 CZ 15.27 OH 16.54
A LEU E 0 -138.0 113.6 N 12.93 CA 13.43 C 15.29 O 13.61 CB 12.12 CG 17.1 CD1 17.96 CD2 17.67
A CYS E 1 -94.7 97.3 N 14.36 CA 15.96 C 15.35 O 17.99 CB 17.06 SG 20.42
A SER - 0 -86.1 -11.4 N 13.79 CA 12.81 C 17.03 O 16.63 CB 15.26 OG 17.27
A HIS S 26 -115.7 157.9 N 15.41 CA 16.03 C 16.11 O 17.14 CB 15.26 CG 13.74 ND1 12.73 CD2 14.31 CE1 14.41 NE2 15.67
A ALA - 21 -74.1 134.2 N 14.9 CA 18.89 C 19.12 O 19.52 CB 23.16
A GLY - 15 -85.2 113.3 N 22.16 CA 22.63 C 20.75 O 23.64
A ILE - 118 -83.6 -44.0 N 16.91 CA 18.62 C 22.58 O 24.29 CB 20.67 CG1 24.92 CG2 26.15 CD1 33.47
A GLN S 131 -145.7 156.4 N 19.61 CA 22.98 C 18.51 O 22.85 CB 31.58 CG 36.01 CD 38.19 OE1 43.05 NE2 30.83
A GLY S 10 65.1 -152.9 N 20.54 CA 22.03 C 25.87 O 21.54
A THR - 18 -108.5 128.0 N 20.45 CA 21.07 C 19.3 O 15.75 CB 20.3 OG1 22.94 CG2 19.58
A SER - 10 -64.2 142.1 N 15.11 CA 14.95 C 17.3 O 16.59 CB 20.15 OG 20.03
A ARG - 85 -91.0 111.9 N 13.9 CA 16.63 C 13.99 O 17.15 CB 14.19 CG 16.6 CD 23.85 NE 26.94 CZ 27.47 NH1 23.86 NH2 28.74
A PRO - 1 -75.3 116.8 N 14.35 CA 13.48 C 12.79 O 15.14 CB 16.2 CG 20.45 CD 19.75
A SER E 0 -61.4 141.4 N 12.72 CA 12.44 C 16.72 O 15.28 CB 14.0 OG 17.94
A HIS E 6 -107.0 140.9 N 12.84 CA 12.92 C 15.99 O 17.07 CB 13.76 CG 16.85 ND1 18.12 CD2 17.04 CE1 21.93 NE2 16.17
A TYR E 0 -125.7 127.1 N 12.48 CA 12.57 C 15.73 O 14.61 CB 12.54 CG 11.91 CD1 14.6 CD2 12.55 CE1 13.13 CE2 14.31 CZ 13.69 OH 13.35
A HIS E 7 -124.4 119.5 N 12.12 CA 14.9 C 14.68 O 15.11 CB 18.57 CG 20.44 ND1 19.9 CD2 20.89 CE1 24.28 NE2 20.25
A VAL E 0 -86.1 109.7 N 12.84 CA 13.84 C 18.13 O 18.62 CB 14.46 CG1 18.02 CG2 12.87
A LEU E 0 -89.4 -21.0 N 15.13 CA 18.8 C 17.77 O 16.9 CB 20.17 CG 20.1 CD1 21.15 CD2 23.96
A TRP E 46 -158.5 138.5 N 17.24 CA 15.68 C 16.65 O 16.09 CB 17.29 CG 18.38 CD1 21.39 CD2 20.18 NE1 20.27 CE2 21.84 CE3 18.13 CZ2 25.87 CZ3 21.55 CH2 25.81
A ASP E 14 -151.0 84.8 N 18.59 CA 16.71 C 18.84 O 19.73 CB 19.04 CG 20.48 OD1 17.33 OD2 21.42
A ASP T 70 -61.1 -24.1 N 17.21 CA 20.75 C 17.75 O 19.27 CB 20.37 CG 25.43 OD1 22.38 OD2 22.2
A ASN T 31 -86.6 -7.8 N 17.98 CA 17.71 C 21.24 O 21.52 CB 17.93 CG 19.7 OD1 20.98 ND2 19.02
A ARG - 205 48.6 53.2 N 17.35 CA 18.51 C 17.23 O 19.45 CB 24.36 CG 32.4 CD 44.94 NE 57.51 CZ 59.57 NH1 58.98 NH2 62.84
A PHE - 7 -60.8 145.2 N 19.5 CA 20.75 C 18.8 O 18.57 CB 16.92 CG 20.5 CD1 20.25 CD2 20.07 CE1 24.28 CE2 17.07 CZ 23.3
A SER - 41 -75.3 160.8 N 16.55 CA 16.94 C 17.66 O 19.27 CB 21.35 OG 20.37
A SER H 0 -59.3 -46.1 N 17.88 CA 15.35 C 16.84 O 19.17 CB 25.51 OG 29.23
A ASP H 33 -56.6 -49.0 N 17.23 CA 22.26 C 23.4 O 20.26 CB 21.85 CG 30.82 OD1 27.11 OD2 35.46
A GLU H 44 -63.7 -42.7 N 17.22 CA 19.43 C 18.11 O 16.18 CB 20.31 CG 22.73 CD 34.06 OE1 27.59 OE2 37.23
A LEU H 0 -73.1 -36.5 N 15.13 CA 14.87 C 13.5 O 15.76 CB 16.47 CG 21.74 CD1 20.62 CD2 27.09
A GLN H 0 -63.9 -45.4 N 12.08 CA 11.83 C 15.06 O 15.6 CB 13.63 CG 14.44 CD 17.46 OE1 17.39 NE2 17.24
A ILE H 46 -66.9 -42.4 N 16.09 CA 15.33 C 17.77 O 13.57 CB 15.35 CG1 15.87 CG2 19.28 CD1 22.31
A LEU H 1 -55.8 -48.7 N 13.9 CA 14.27 C 15.94 O 14.16 CB 13.7 CG 19.86 CD1 15.75 CD2 18.02
A THR H 0 -62.2 -44.5 N 13.13 CA 14.53 C 15.95 O 13.16 CB 13.37 OG1 16.48 CG2 15.52
A TYR H 6 -62.2 -45.8 N 11.59 CA 11.0 C 13.39 O 12.94 CB 11.64 CG 12.2 CD1 16.31 CD2 14.87 CE1 16.71 CE2 16.79 CZ 12.95 OH 16.66
A GLN H 15 -61.4 -36.5 N 11.97 CA 13.87 C 13.29 O 13.86 CB 12.66 CG 14.68 CD 18.61 OE1 19.7 NE2 18.95
A LEU H 0 -64.7 -21.5 N 11.79 CA 13.36 C 15.75 O 14.91 CB 12.49 CG 16.97 CD1 19.18 CD2 20.16
A CYS T 0 -77.5 -7.4 N 13.62 CA 12.08 C 12.57 O 16.53 CB 11.7 SG 16.98
A HIS T 1 -104.3 7.4 N 10.85 CA 13.09 C 14.53 O 18.03 CB 15.25 CG 16.68 ND1 17.77 CD2 17.42 CE1 13.23 NE2 15.27
A THR - 3 -104.9 -0.1 N 12.85 CA 13.72 C 18.64 O 19.9 CB 14.83 OG1 16.28 CG2 16.53
A TYR - 8 -68.9 119.6 N 15.95 CA 15.93 C 19.37 O 19.58 CB 14.93 CG 15.07 CD1 15.98 CD2 15.0 CE1 14.07 CE2 13.21 CZ 15.67 OH 16.9
A VAL T 2 -70.9 -23.2 N 20.31 CA 18.44 C 19.49 O 22.69 CB 19.13 CG1 24.69 CG2 18.27
A ARG T 78 -78.9 -5.7 N 15.93 CA 17.13 C 15.97 O 18.66 CB 16.67 CG 22.75 CD 25.07 NE 16.78 CZ 16.98 NH1 18.27 NH2 17.31
A CYS - 25 -161.2 154.9 N 15.73 CA 12.47 C 15.65 O 18.18 CB 14.01 SG 19.9
A THR S 14 -91.4 60.9 N 14.47 CA 17.39 C 14.98 O 16.02 CB 21.68 OG1 20.18 CG2 18.21
A ARG B 80 -144.5 153.9 N 15.37 CA 19.01 C 17.13 O 15.37 CB 19.75 CG 21.97 CD 24.05 NE 26.39 CZ 28.99 NH1 28.86 NH2 27.73
A SER - 3 -75.3 120.2 N 14.62 CA 13.68 C 14.31 O 17.71 CB 15.26 OG 22.74
A VAL - 14 -89.7 171.4 N 13.52 CA 13.04 C 16.49 O 15.79 CB 10.78 CG1 14.26 CG2 15.24
A SER S 15 -77.9 -15.7 N 13.7 CA 14.7 C 14.5 O 13.91 CB 17.92 OG 15.2
A ILE S 5 -138.6 163.1 N 12.2 CA 10.37 C 12.17 O 15.94 CB 13.84 CG1 14.38 CG2 14.6 CD1 19.36
A PRO - 0 -64.2 149.7 N 11.96 CA 14.31 C 11.52 O 12.3 CB 15.31 CG 16.8 CD 14.69
A ALA H 0 -49.4 -41.6 N 11.93 CA 16.2 C 15.61 O 16.68 CB 17.08
A PRO H 0 -60.8 -41.3 N 17.76 CA 18.3 C 16.61 O 13.52 CB 15.62 CG 16.91 CD 18.09
A ALA H 0 -64.2 -44.3 N 12.4 CA 11.95 C 13.2 O 13.7 CB 15.4
A TYR H 73 -59.2 -46.2 N 12.86 CA 13.72 C 12.27 O 14.25 CB 14.01 CG 13.93 CD1 16.98 CD2 15.29 CE1 18.62 CE2 13.19 CZ 17.21 OH 16.75
A TYR H 0 -60.9 -37.1 N 11.4 CA 12.11 C 13.92 O 15.81 CB 13.63 CG 13.94 CD1 15.58 CD2 15.1 CE1 14.17 CE2 14.94 CZ 17.34 OH 18.59
A ALA H 0 -59.9 -41.0 N 12.38 CA 17.17 C 13.26 O 13.62 CB 12.93
A HIS H 35 -58.6 -45.2 N 12.47 CA 13.28 C 13.82 O 14.51 CB 14.89 CG 24.91 ND1 33.62 CD2 30.07 CE1 35.22 NE2 29.68
A LEU H 20 -63.4 -37.9 N 11.51 CA 11.1 C 16.31 O 13.83 CB 13.14 CG 15.09 CD1 13.99 CD2 14.45
A VAL H 0 -63.4 -45.7 N 11.56 CA 16.38 C 17.13 O 13.0 CB 11.92 CG1 12.53 CG2 14.16
A ALA H 0 -63.9 -40.4 N 15.45 CA 15.49 C 13.44 O 14.32 CB 14.83
A PHE H 107 -69.5 -35.1 N 14.06 CA 16.56 C 13.94 O 14.8 CB 19.28 CG 24.48 CD1 27.62 CD2 35.25 CE1 34.53 CE2 33.87 CZ 29.81
A ARG H 20 -63.1 -42.2 N 10.47 CA 12.7 C 15.77 O 15.36 CB 14.82 CG 16.05 CD 11.4 NE 13.19 CZ 17.03 NH1 17.14 NH2 21.56
A ALA H 2 -61.2 -37.7 N 13.86 CA 14.81 C 14.74 O 15.5 CB 13.39
A ARG H 38 -61.7 -38.9 N 16.15 CA 15.19 C 12.08 O 14.92 CB 19.88 CG 29.93 CD 33.25 NE 27.63 CZ 24.57 NH1 18.52 NH2 25.2
A TYR H 110 -64.5 -39.9 N 14.86 CA 13.25 C 19.43 O 17.97 CB 17.09 CG 17.58 CD1 16.52 CD2 18.13 CE1 19.02 CE2 18.93 CZ 22.21 OH 22.47
A HIS H 10 -64.8 -19.9 N 18.5 CA 16.59 C 20.54 O 19.82 CB 16.68 CG 18.83 ND1 20.34 CD2 19.1 CE1 15.29 NE2 18.76
A LEU T 0 -100.6 -0.2 N 15.67 CA 15.72 C 18.11 O 20.36 CB 19.68 CG 24.37 CD1 23.13 CD2 26.41
A VAL T 67 -51.5 123.7 N 19.9 CA 19.89 C 22.74 O 23.52 CB 21.63 CG1 22.62 CG2 20.5
A ASP T 161 67.1 6.6 N 20.7 CA 22.65 C 21.5 O 26.44 CB 33.36 CG 38.81 OD1 39.72 OD2 38.17
A LYS T 115 -99.7 -28.6 N 25.8 CA 23.75 C 22.01 O 26.82 CB 25.49 CG 23.48 CD 24.79 CE 30.34 NZ 29.88
A GLU - 62 -84.1 360.0 N 27.34 CA 32.45 C 41.26 O 46.66 CB 32.94 CG 37.53 CD 40.61 OE1 41.89 OE2 36.24
A GLY - 80 360.0 -67.0 N 67.73 CA 62.3 C 53.44 O 46.41
A ARG H 220 -61.1 -37.9 N 47.67 CA 42.11 C 40.69 O 36.95 CB 45.46 CG 48.16 CD 55.17 NE 57.82 CZ 58.71 NH1 55.55 NH2 56.8
A ASP H 110 -64.3 -52.1 N 40.49 CA 39.79 C 35.07 O 29.35 CB 41.72 CG 55.35 OD1 60.46 OD2 61.75
A HIS H 98 -57.7 -43.3 N 34.05 CA 31.42 C 28.37 O 29.07 CB 34.81 CG 37.63 ND1 39.43 CD2 38.59 CE1 38.23 NE2 42.63
A GLN H 147 -64.6 -34.9 N 28.96 CA 27.55 C 25.06 O 23.65 CB 34.31 CG 47.8 CD 61.43 OE1 58.72 NE2 70.04
A ALA H 63 -65.8 -44.0 N 27.62 CA 28.46 C 23.68 O 21.24 CB 28.02
A LEU H 34 -68.0 -40.2 N 20.66 CA 21.75 C 19.39 O 18.26 CB 24.98 CG 33.18 CD1 40.7 CD2 33.66
A ALA H 34 -57.6 -42.2 N 19.02 CA 21.96 C 20.84 O 22.92 CB 20.87
A LYS H 171 -63.0 -38.3 N 18.05 CA 23.56 C 23.76 O 22.94 CB 27.16 CG 37.15 CD 51.35 CE 57.51 NZ 63.21
A ALA H 14 -59.7 -34.0 N 20.09 CA 21.23 C 21.2 O 20.54 CB 20.83
A VAL H 5 -96.5 -1.0 N 17.79 CA 14.58 C 18.96 O 20.66 CB 17.53 CG1 15.88 CG2 17.97
A GLN - 97 -78.3 115.1 N 17.49 CA 19.1 C 19.92 O 19.59 CB 26.32 CG 42.1 CD 56.27 OE1 63.56 NE2 57.23
A VAL - 15 -74.9 162.3 N 17.29 CA 20.94 C 20.96 O 20.6 CB 20.15 CG1 15.45 CG2 21.67
A HIS - 47 -62.8 153.0 N 20.73 CA 23.26 C 21.61 O 20.86 CB 19.8 CG 21.1 ND1 22.51 CD2 21.34 CE1 23.17 NE2 23.59
A GLN T 114 -51.6 -39.9 N 23.48 CA 27.36 C 27.6 O 27.28 CB 31.06 CG 41.79 CD 53.87 OE1 62.92 NE2 48.49
A ASP T 103 -76.3 -12.1 N 23.94 CA 27.06 C 28.12 O 30.65 CB 25.79 CG 31.82 OD1 32.15 OD2 33.16
A THR T 7 -93.5 -20.5 N 21.26 CA 18.44 C 17.45 O 18.62 CB 20.6 OG1 21.79 CG2 17.92
A LEU T 39 -50.8 -41.3 N 22.17 CA 26.44 C 28.95 O 30.31 CB 30.99 CG 37.63 CD1 40.84 CD2 34.26
A ARG T 109 -96.5 13.0 N 23.84 CA 24.5 C 24.81 O 28.93 CB 31.06 CG 40.97 CD 49.01 NE 56.94 CZ 62.39 NH1 62.84 NH2 65.8
A THR S 40 -108.8 167.7 N 20.38 CA 17.11 C 18.44 O 18.95 CB 20.36 OG1 19.72 CG2 18.74
A MET - 0 -98.0 55.1 N 19.95 CA 17.89 C 16.94 O 16.55 CB 21.34 CG 22.23 SD 20.3 CE 18.86
A TYR T 18 -59.9 -19.2 N 14.8 CA 14.88 C 18.81 O 16.53 CB 13.02 CG 17.03 CD1 17.09 CD2 16.64 CE1 14.26 CE2 16.04 CZ 15.94 OH 16.96
A PHE T 2 -87.0 -3.8 N 18.09 CA 18.99 C 19.05 O 22.41 CB 16.26 CG 19.54 CD1 17.49 CD2 17.49 CE1 18.62 CE2 16.76 CZ 18.11
A ALA - 0 -71.2 360.0 N 16.11 CA 20.72 C 29.05 O 27.95 CB 19.77 OXT 24.37
