A ALA - 154 360.0 136.0 N 70.08 CA 76.0 C 73.81 O 76.8 CB 74.24 HA 91.2 HB1 89.08 HB2 89.08 HB3 89.08
A VAL - 133 -109.8 120.6 N 60.73 CA 56.57 C 45.43 O 54.08 CB 47.98 CG1 49.02 CG2 54.21 H 72.87 HA 67.89 HB 57.58 HG11 58.82 HG12 58.82 HG13 58.82 HG21 65.06 HG22 65.06 HG23 65.06
A PRO - 118 -61.0 141.7 N 46.52 CA 45.01 C 39.4 O 38.94 CB 39.93 CG 37.42 CD 45.34 HA 54.01 HB2 47.92 HB3 47.92 HG2 44.9 HG3 44.9 HD2 54.41 HD3 54.41
A THR - 99 -101.1 148.4 N 36.22 CA 35.87 C 41.15 O 44.31 CB 45.48 OG1 62.76 CG2 41.23 H 43.46 HA 43.04 HB 54.58 HG1 75.31 HG21 49.48 HG22 49.48 HG23 49.48
A VAL - 139 -116.3 128.9 N 31.64 CA 31.22 C 29.13 O 31.73 CB 38.4 CG1 44.69 CG2 45.5 H 37.96 HA 37.46 HB 46.08 HG11 53.62 HG12 53.62 HG13 53.62 HG21 54.6 HG22 54.6 HG23 54.6
A VAL - 26 -115.5 124.8 N 29.79 CA 27.19 C 30.05 O 37.14 CB 29.69 CG1 35.82 CG2 30.96 H 35.75 HA 32.63 HB 35.63 HG11 42.99 HG12 42.99 HG13 42.99 HG21 37.15 HG22 37.15 HG23 37.15
A GLY - 71 -96.0 133.5 N 30.72 CA 30.06 C 37.58 O 35.92 H 36.86 HA2 36.07 HA3 36.07
A ILE - 19 -107.4 133.2 N 30.03 CA 28.35 C 27.09 O 31.85 CB 27.59 CG1 31.08 CG2 28.81 CD1 31.42 H 36.04 HA 34.02 HB 33.1 HG12 37.3 HG13 37.3 HG21 34.57 HG22 34.57 HG23 34.57 HD11 37.71 HD12 37.71 HD13 37.71
A PRO - 108 -72.6 151.5 N 32.34 CA 33.23 C 29.12 O 29.72 CB 38.56 CG 41.73 CD 32.5 HA 39.87 HB2 46.27 HB3 46.27 HG2 50.07 HG3 50.07 HD2 39.0 HD3 39.0
A ASP - 114 -70.7 154.6 N 27.64 CA 25.78 C 26.77 O 29.36 CB 23.81 CG 28.84 OD1 25.66 OD2 30.54 H 33.17 HA 30.94 HB2 28.57 HB3 28.57
A GLY E 23 -122.5 172.7 N 21.55 CA 23.14 C 23.33 O 22.68 H 25.86 HA2 27.77 HA3 27.77
A THR E 93 -134.7 149.8 N 21.36 CA 21.95 C 24.04 O 26.14 CB 27.93 OG1 33.32 CG2 26.39 H 25.63 HA 26.34 HB 33.52 HG1 39.99 HG21 31.67 HG22 31.67 HG23 31.67
A ALA E 7 -141.4 164.7 N 20.47 CA 22.58 C 22.06 O 24.13 CB 21.31 H 24.56 HA 27.1 HB1 25.57 HB2 25.57 HB3 25.57
A VAL E 40 -134.4 130.3 N 21.45 CA 22.89 C 19.96 O 21.16 CB 26.25 CG1 28.11 CG2 27.44 H 25.74 HA 27.47 HB 31.5 HG11 33.73 HG12 33.73 HG13 33.73 HG21 32.93 HG22 32.93 HG23 32.93
A VAL T 12 -46.7 127.6 N 20.5 CA 22.36 C 21.88 O 22.08 CB 23.81 CG1 24.04 CG2 23.51 H 24.6 HA 26.83 HB 28.57 HG11 28.84 HG12 28.84 HG13 28.84 HG21 28.21 HG22 28.21 HG23 28.21
A GLY T 0 87.9 0.2 N 19.15 CA 19.81 C 20.35 O 21.43 H 22.98 HA2 23.78 HA3 23.78
A ARG S 26 -120.3 141.4 N 21.23 CA 19.28 C 20.22 O 22.14 CB 21.01 CG 24.05 CD 25.32 NE 28.23 CZ 37.54 NH1 31.15 NH2 31.43 H 25.47 HA 23.13 HB2 25.21 HB3 25.21 HG2 28.86 HG3 28.86 HD2 30.38 HD3 30.38 HE 33.87 HH11 37.38 HH12 37.38 HH21 37.72 HH22 37.72
A SER - 29 -64.0 143.7 N 21.0 CA 20.91 C 22.52 O 23.48 CB 25.59 OG 27.28 H 25.2 HA 25.09 HB2 30.71 HB3 30.71 HG 32.73
A PHE E 18 -121.0 137.8 N 20.83 CA 22.91 C 18.84 O 20.94 CB 20.98 CG 18.82 CD1 21.38 CD2 21.8 CE1 25.16 CE2 20.86 CZ 21.86 H 25.0 HA 27.49 HB2 25.17 HB3 25.17 HD1 25.66 HD2 26.16 HE1 30.2 HE2 25.03 HZ 26.23
A ARG E 166 -155.0 126.5 N 22.76 CA 23.54 C 28.19 O 31.24 CB 31.32 CG 37.04 CD 36.5 NE 41.63 CZ 39.42 NH1 50.63 NH2 42.99 H 27.31 HA 28.25 HB2 37.59 HB3 37.59 HG2 44.45 HG3 44.45 HD2 43.8 HD3 43.8 HE 49.96 HH11 60.76 HH12 60.76 HH21 51.58 HH22 51.58
A VAL E 53 -145.1 146.0 N 26.81 CA 28.7 C 27.49 O 26.31 CB 30.27 CG1 26.59 CG2 44.42 H 32.17 HA 34.44 HB 36.33 HG11 31.91 HG12 31.91 HG13 31.91 HG21 53.31 HG22 53.31 HG23 53.31
A SER E 80 -87.0 136.7 N 30.49 CA 29.97 C 26.86 O 30.83 CB 37.17 OG 40.68 H 36.59 HA 35.96 HB2 44.6 HB3 44.6 HG 48.82
A ILE - 1 -105.0 130.8 N 24.36 CA 26.03 C 26.14 O 27.92 CB 28.48 CG1 28.72 CG2 29.32 CD1 29.03 H 29.23 HA 31.24 HB 34.18 HG12 34.46 HG13 34.46 HG21 35.18 HG22 35.18 HG23 35.18 HD11 34.83 HD12 34.83 HD13 34.83
A PRO - 43 -79.6 66.0 N 30.04 CA 36.62 C 37.72 O 35.13 CB 37.82 CG 41.41 CD 36.63 HA 43.94 HB2 45.39 HB3 45.39 HG2 49.7 HG3 49.7 HD2 43.95 HD3 43.95
A THR H 7 -63.3 -28.8 N 30.54 CA 30.06 C 34.09 O 38.88 CB 38.15 OG1 43.45 CG2 37.07 H 36.65 HA 36.07 HB 45.78 HG1 52.14 HG21 44.48 HG22 44.48 HG23 44.48
A ASP H 134 -69.3 -22.6 N 40.46 CA 44.87 C 40.32 O 42.55 CB 61.69 CG 80.21 OD1 84.34 OD2 89.22 H 48.55 HA 53.84 HB2 74.03 HB3 74.03
A LEU H 119 -85.1 -29.4 N 39.21 CA 39.45 C 43.52 O 40.68 CB 45.56 CG 45.61 CD1 50.16 CD2 51.84 H 47.05 HA 47.34 HB2 54.67 HB3 54.67 HG 54.73 HD11 60.2 HD12 60.2 HD13 60.2 HD21 62.2 HD22 62.2 HD23 62.2
A ILE H 8 -90.0 -35.7 N 39.76 CA 35.42 C 36.15 O 39.44 CB 32.63 CG1 34.38 CG2 38.31 CD1 36.32 H 47.71 HA 42.5 HB 39.15 HG12 41.25 HG13 41.25 HG21 45.97 HG22 45.97 HG23 45.97 HD11 43.59 HD12 43.59 HD13 43.59
A ALA S 20 -104.5 115.6 N 36.54 CA 38.11 C 46.8 O 49.57 CB 41.48 H 43.84 HA 45.74 HB1 49.78 HB2 49.78 HB3 49.78
A SER - 82 -64.5 156.4 N 61.54 CA 71.26 C 72.11 O 67.23 CB 68.14 OG 61.43 H 73.85 HA 85.51 HB2 81.77 HB3 81.77 HG 73.72
A SER T 132 -44.6 131.8 N 78.69 CA 80.82 C 74.85 O 59.92 CB 79.54 OG 78.93 H 94.43 HA 96.98 HB2 95.45 HB3 95.45 HG 94.72
A GLY T 75 81.4 9.4 N 78.35 CA 76.27 C 68.36 O 64.05 H 94.02 HA2 91.52 HA3 91.52
A GLU - 47 -93.6 154.6 N 62.2 CA 51.96 C 41.16 O 45.82 CB 43.56 CG 44.94 CD 51.69 OE1 58.95 OE2 55.14 H 74.64 HA 62.35 HB2 52.27 HB3 52.27 HG2 53.93 HG3 53.93
A ILE E 61 -96.7 127.0 N 38.15 CA 33.06 C 28.93 O 30.97 CB 35.77 CG1 40.05 CG2 44.33 CD1 43.05 H 45.78 HA 39.67 HB 42.92 HG12 48.06 HG13 48.06 HG21 53.2 HG22 53.2 HG23 53.2 HD11 51.66 HD12 51.66 HD13 51.66
A ILE E 39 -94.2 135.0 N 28.4 CA 30.67 C 30.95 O 29.26 CB 29.83 CG1 38.22 CG2 30.5 CD1 38.78 H 34.07 HA 36.8 HB 35.79 HG12 45.86 HG13 45.86 HG21 36.6 HG22 36.6 HG23 36.6 HD11 46.54 HD12 46.54 HD13 46.54
A LYS E 64 -123.3 134.6 N 24.28 CA 25.68 C 26.83 O 25.81 CB 34.03 CG 62.64 CD 80.01 CE 85.65 NZ 80.45 H 29.14 HA 30.82 HB2 40.84 HB3 40.84 HG2 75.16 HG3 75.16 HD2 96.01 HD3 96.01 HE2 102.78 HE3 102.78 HZ1 96.54 HZ2 96.54 HZ3 96.54
A VAL E 12 -125.6 121.7 N 24.5 CA 22.5 C 25.37 O 27.68 CB 22.0 CG1 24.62 CG2 23.63 H 29.4 HA 26.99 HB 26.4 HG11 29.55 HG12 29.55 HG13 29.55 HG21 28.35 HG22 28.35 HG23 28.35
A SER E 0 -149.0 169.5 N 22.22 CA 22.69 C 21.08 O 21.08 CB 23.78 OG 25.6 H 26.66 HA 27.31 HB2 28.54 HB3 28.54 HG 30.72
A ALA E 18 -62.9 139.9 N 23.7 CA 19.87 C 20.64 O 22.96 CB 23.46 H 28.44 HA 23.84 HB1 28.15 HB2 28.15 HB3 28.15
A ALA T 42 -56.6 126.4 N 19.53 CA 19.86 C 21.36 O 23.46 CB 21.54 H 23.44 HA 23.83 HB1 25.85 HB2 25.85 HB3 25.85
A GLY T 83 84.8 7.3 N 22.63 CA 24.08 C 28.16 O 28.27 H 27.15 HA2 28.9 HA3 28.9
A LYS S 143 -129.5 170.5 N 23.91 CA 27.59 C 25.93 O 28.14 CB 27.76 CG 37.9 CD 55.45 CE 70.36 NZ 77.47 H 28.7 HA 33.1 HB2 33.32 HB3 33.32 HG2 45.48 HG3 45.48 HD2 66.54 HD3 66.54 HE2 84.44 HE3 84.44 HZ1 92.96 HZ2 92.96 HZ3 92.96
A GLU S 153 -90.1 -32.1 N 29.87 CA 24.82 C 26.61 O 30.37 CB 38.85 CG 61.11 CD 80.86 OE1 94.71 OE2 74.67 H 35.84 HA 29.79 HB2 46.61 HB3 46.61 HG2 73.34 HG3 73.34
A ALA S 65 -94.2 158.5 N 25.97 CA 27.16 C 21.71 O 22.81 CB 33.75 H 31.17 HA 32.59 HB1 40.5 HB2 40.5 HB3 40.5
A LEU - 38 -74.5 161.1 N 23.2 CA 24.49 C 24.64 O 25.36 CB 23.09 CG 23.51 CD1 30.48 CD2 27.32 H 27.84 HA 29.39 HB2 27.71 HB3 27.71 HG 28.22 HD11 36.57 HD12 36.57 HD13 36.57 HD21 32.78 HD22 32.78 HD23 32.78
A PRO - 19 -51.6 152.9 N 22.97 CA 23.88 C 24.17 O 23.94 CB 22.48 CG 28.13 CD 21.84 HA 28.66 HB2 26.97 HB3 26.97 HG2 33.76 HG3 33.76 HD2 26.21 HD3 26.21
A SER T 80 -64.2 -14.9 N 27.6 CA 28.43 C 23.23 O 27.91 CB 34.5 OG 30.66 H 33.12 HA 34.11 HB2 41.41 HB3 41.41 HG 36.79
A TRP T 0 -97.4 -2.7 N 20.26 CA 18.49 C 20.98 O 21.83 CB 19.26 CG 19.68 CD1 21.16 CD2 20.2 NE1 23.58 CE2 21.93 CE3 20.97 CZ2 21.43 CZ3 23.12 CH2 23.14 H 24.31 HA 22.18 HB2 23.11 HB3 23.11 HD1 25.39 HE1 28.29 HE3 25.16 HZ2 25.72 HZ3 27.75 HH2 27.77
A LEU E 10 -116.2 153.2 N 18.86 CA 16.6 C 17.73 O 22.12 CB 17.56 CG 19.54 CD1 19.27 CD2 22.37 H 22.63 HA 19.92 HB2 21.07 HB3 21.07 HG 23.45 HD11 23.12 HD12 23.12 HD13 23.12 HD21 26.84 HD22 26.84 HD23 26.84
A HIS E 67 -136.4 136.9 N 20.21 CA 21.63 C 25.72 O 21.07 CB 23.31 CG 27.3 ND1 38.57 CD2 30.37 CE1 35.7 NE2 41.47 H 24.25 HA 25.96 HB2 27.97 HB3 27.97 HD2 36.45 HE1 42.84 HE2 49.76
A TRP E 36 -107.4 123.6 N 24.21 CA 22.62 C 28.87 O 30.06 CB 23.57 CG 26.57 CD1 29.55 CD2 24.75 NE1 28.17 CE2 24.55 CE3 25.17 CZ2 28.54 CZ3 25.1 CH2 28.06 H 29.05 HA 27.14 HB2 28.28 HB3 28.28 HD1 35.47 HE1 33.81 HE3 30.21 HZ2 34.25 HZ3 30.12 HH2 33.67
A ASP E 46 -103.7 101.8 N 28.79 CA 28.94 C 30.91 O 32.56 CB 32.85 CG 47.53 OD1 42.82 OD2 49.64 H 34.55 HA 34.73 HB2 39.42 HB3 39.42
A PRO T 64 -69.6 -17.9 N 30.26 CA 35.48 C 41.93 O 42.88 CB 36.91 CG 43.63 CD 35.5 HA 42.57 HB2 44.29 HB3 44.29 HG2 52.35 HG3 52.35 HD2 42.6 HD3 42.6
A HIS T 170 -93.8 -30.8 N 42.53 CA 40.51 C 41.97 O 43.03 CB 38.62 CG 34.73 ND1 45.56 CD2 43.31 CE1 42.4 NE2 48.69 H 51.04 HA 48.62 HB2 46.35 HB3 46.35 HD2 51.97 HE1 50.88 HE2 58.43
A SER T 54 -94.7 -7.6 N 34.94 CA 32.59 C 28.5 O 36.02 CB 38.13 OG 40.7 H 41.93 HA 39.11 HB2 45.75 HB3 45.75 HG 48.84
A HIS T 54 60.3 36.2 N 32.19 CA 28.14 C 25.64 O 28.83 CB 36.52 CG 53.89 ND1 62.41 CD2 63.51 CE1 60.21 NE2 68.06 H 38.63 HA 33.77 HB2 43.82 HB3 43.82 HD2 76.22 HE1 72.25 HE2 81.67
A ILE E 15 -110.0 131.3 N 28.19 CA 25.71 C 21.38 O 24.38 CB 26.19 CG1 28.47 CG2 24.5 CD1 35.04 H 33.82 HA 30.86 HB 31.43 HG12 34.17 HG13 34.17 HG21 29.4 HG22 29.4 HG23 29.4 HD11 42.05 HD12 42.05 HD13 42.05
A LEU E 0 -102.4 122.3 N 22.91 CA 19.31 C 20.11 O 21.5 CB 21.71 CG 22.64 CD1 20.39 CD2 23.51 H 27.49 HA 23.17 HB2 26.05 HB3 26.05 HG 27.17 HD11 24.47 HD12 24.47 HD13 24.47 HD21 28.21 HD22 28.21 HD23 28.21
A GLU E 8 -139.6 155.5 N 20.74 CA 21.72 C 22.6 O 22.13 CB 22.57 CG 24.33 CD 40.51 OE1 36.51 OE2 44.64 H 24.89 HA 26.07 HB2 27.08 HB3 27.08 HG2 29.2 HG3 29.2
A GLY E 0 -172.7 -178.0 N 22.68 CA 24.08 C 21.85 O 23.12 H 27.21 HA2 28.9 HA3 28.9
A LEU - 0 -149.0 102.3 N 21.34 CA 20.46 C 19.54 O 21.52 CB 20.37 CG 26.98 CD1 26.65 CD2 32.12 H 25.61 HA 24.55 HB2 24.44 HB3 24.44 HG 32.37 HD11 31.98 HD12 31.98 HD13 31.98 HD21 38.54 HD22 38.54 HD23 38.54
A PRO - 0 -79.1 146.3 N 18.11 CA 17.86 C 22.0 O 21.04 CB 19.84 CG 24.83 CD 19.54 HA 21.43 HB2 23.81 HB3 23.81 HG2 29.79 HG3 29.79 HD2 23.44 HD3 23.44
A LEU - 10 -98.0 171.2 N 23.76 CA 23.58 C 24.14 O 22.28 CB 24.61 CG 31.48 CD1 42.53 CD2 35.85 H 28.51 HA 28.3 HB2 29.54 HB3 29.54 HG 37.78 HD11 51.04 HD12 51.04 HD13 51.04 HD21 43.02 HD22 43.02 HD23 43.02
A ASP G 84 -61.0 -28.6 N 27.93 CA 27.43 C 24.85 O 30.61 CB 30.67 CG 45.0 OD1 54.75 OD2 61.32 H 33.52 HA 32.91 HB2 36.8 HB3 36.8
A THR G 121 -73.3 -8.0 N 25.2 CA 23.98 C 24.48 O 28.03 CB 29.33 OG1 29.19 CG2 33.31 H 30.24 HA 28.77 HB 35.19 HG1 35.03 HG21 39.97 HG22 39.97 HG23 39.97
A ASP G 12 -95.2 4.8 N 21.99 CA 19.72 C 22.66 O 23.72 CB 20.67 CG 26.32 OD1 27.19 OD2 21.71 H 26.39 HA 23.67 HB2 24.81 HB3 24.81
A LYS - 100 -56.0 141.4 N 26.1 CA 23.63 C 27.14 O 25.06 CB 28.06 CG 46.69 CD 67.58 CE 72.29 NZ 75.34 H 31.32 HA 28.36 HB2 33.67 HB3 33.67 HG2 56.03 HG3 56.03 HD2 81.1 HD3 81.1 HE2 86.75 HE3 86.75 HZ1 90.41 HZ2 90.41 HZ3 90.41
A GLY E 29 116.8 -166.1 N 24.93 CA 26.77 C 25.99 O 24.37 H 29.92 HA2 32.12 HA3 32.12
A VAL E 69 -99.7 130.3 N 22.74 CA 23.04 C 25.2 O 25.7 CB 22.01 CG1 25.86 CG2 25.81 H 27.29 HA 27.64 HB 26.42 HG11 31.03 HG12 31.03 HG13 31.03 HG21 30.97 HG22 30.97 HG23 30.97
A HIS E 36 -117.3 118.0 N 20.69 CA 20.95 C 22.56 O 23.02 CB 20.57 CG 19.51 ND1 23.82 CD2 22.73 CE1 22.21 NE2 25.79 H 24.83 HA 25.14 HB2 24.68 HB3 24.68 HD2 27.28 HE1 26.65 HE2 30.95
A TYR E 143 -87.0 130.0 N 19.84 CA 19.82 C 18.58 O 22.48 CB 20.06 CG 18.41 CD1 20.98 CD2 20.79 CE1 21.55 CE2 21.84 CZ 22.62 OH 26.54 H 23.81 HA 23.78 HB2 24.07 HB3 24.07 HD1 25.18 HD2 24.95 HE1 25.85 HE2 26.21 HH 31.84
A ILE E 0 -119.7 129.6 N 18.85 CA 19.51 C 21.78 O 22.03 CB 19.23 CG1 22.2 CG2 22.45 CD1 24.01 H 22.62 HA 23.41 HB 23.07 HG12 26.63 HG13 26.63 HG21 26.93 HG22 26.93 HG23 26.93 HD11 28.81 HD12 28.81 HD13 28.81
A SER E 13 -103.4 131.6 N 20.38 CA 23.38 C 25.79 O 24.96 CB 24.56 OG 27.72 H 24.46 HA 28.41 HB2 29.47 HB3 29.47 HG 33.26
A VAL E 0 -115.5 114.7 N 22.76 CA 22.85 C 26.57 O 25.02 CB 22.81 CG1 27.89 CG2 20.9 H 27.31 HA 27.41 HB 27.38 HG11 33.46 HG12 33.46 HG13 33.46 HG21 25.08 HG22 25.08 HG23 25.08
A SER E 19 -128.0 152.6 N 24.17 CA 24.82 C 25.73 O 27.6 CB 28.62 OG 35.35 H 29.01 HA 29.78 HB2 34.35 HB3 34.35 HG 42.42
A ALA E 0 -119.4 139.4 N 26.96 CA 30.22 C 30.33 O 31.48 CB 35.52 H 32.35 HA 36.27 HB1 42.62 HB2 42.62 HB3 42.62
A ALA E 12 -135.9 146.2 N 31.83 CA 30.94 C 32.06 O 33.35 CB 33.11 H 38.2 HA 37.13 HB1 39.73 HB2 39.73 HB3 39.73
A ARG E 125 -92.1 136.0 N 34.73 CA 37.98 C 33.6 O 38.89 CB 49.66 CG 66.14 CD 73.85 NE 78.64 CZ 83.73 NH1 80.35 NH2 85.77 H 41.67 HA 45.57 HB2 59.6 HB3 59.6 HG2 79.36 HG3 79.36 HD2 88.62 HD3 88.62 HE 94.36 HH11 96.43 HH12 96.43 HH21 102.92 HH22 102.92
A LEU E 96 -82.7 119.0 N 31.6 CA 36.07 C 40.41 O 37.99 CB 35.68 CG 37.04 CD1 45.38 CD2 40.75 H 37.92 HA 43.28 HB2 42.82 HB3 42.82 HG 44.45 HD11 54.46 HD12 54.46 HD13 54.46 HD21 48.9 HD22 48.9 HD23 48.9
A GLY - 9 -78.8 163.9 N 35.25 CA 32.97 C 38.19 O 34.61 H 42.3 HA2 39.56 HA3 39.56
A ALA T 121 -55.1 -27.7 N 35.42 CA 36.91 C 36.57 O 37.28 CB 40.82 H 42.51 HA 44.29 HB1 48.99 HB2 48.99 HB3 48.99
A ASN T 131 -94.1 5.1 N 41.27 CA 44.17 C 42.86 O 43.77 CB 53.25 CG 54.5 OD1 51.76 ND2 65.63 H 49.53 HA 53.01 HB2 63.9 HB3 63.9 HD21 78.75 HD22 78.75
A GLY S 43 90.7 -3.8 N 37.11 CA 39.55 C 39.73 O 43.22 H 44.53 HA2 47.46 HA3 47.46
A SER - 49 -68.8 147.5 N 39.2 CA 38.89 C 47.56 O 41.35 CB 49.51 OG 63.56 H 47.04 HA 46.67 HB2 59.41 HB3 59.41 HG 76.27
A HIS E 118 -95.0 107.5 N 45.07 CA 41.18 C 44.33 O 48.24 CB 40.67 CG 39.21 ND1 42.65 CD2 41.95 CE1 46.35 NE2 45.1 H 54.08 HA 49.42 HB2 48.8 HB3 48.8 HD2 50.34 HE1 55.62 HE2 54.12
A VAL E 43 -92.8 108.3 N 43.77 CA 45.17 C 41.71 O 40.96 CB 45.96 CG1 45.87 CG2 53.98 H 52.53 HA 54.2 HB 55.15 HG11 55.04 HG12 55.04 HG13 55.04 HG21 64.78 HG22 64.78 HG23 64.78
A PRO E 104 -60.1 133.5 N 47.87 CA 44.43 C 41.0 O 40.99 CB 52.99 CG 58.57 CD 59.15 HA 53.32 HB2 63.59 HB3 63.59 HG2 70.28 HG3 70.28 HD2 70.98 HD3 70.98
A GLN E 95 -106.7 -39.2 N 33.43 CA 37.55 C 33.05 O 40.31 CB 40.58 CG 44.42 CD 47.14 OE1 51.74 NE2 45.87 H 40.12 HA 45.06 HB2 48.69 HB3 48.69 HG2 53.3 HG3 53.3 HE21 55.04 HE22 55.04
A THR E 45 -160.4 158.7 N 30.44 CA 37.82 C 33.99 O 32.99 CB 43.11 OG1 56.6 CG2 41.63 HA 45.39 HB 51.74 HG1 67.92 HG21 49.95 HG22 49.95 HG23 49.95
A SER E 70 -144.8 140.1 N 31.38 CA 31.73 C 32.19 O 35.18 CB 35.87 OG 48.4 H 37.65 HA 38.08 HB2 43.04 HB3 43.04 HG 58.08
A SER E 8 -129.2 128.5 N 22.93 CA 25.41 C 25.24 O 25.87 CB 29.87 OG 30.36 H 27.51 HA 31.07 HB2 35.84 HB3 35.84 HG 36.43
A VAL E 73 -120.4 132.6 N 21.37 CA 20.49 C 20.5 O 21.15 CB 20.88 CG1 20.36 CG2 23.33 H 25.65 HA 24.58 HB 25.06 HG11 24.43 HG12 24.43 HG13 24.43 HG21 28.0 HG22 28.0 HG23 28.0
A PHE E 6 -133.7 172.7 N 20.48 CA 21.76 C 22.05 O 22.31 CB 24.04 CG 22.68 CD1 23.1 CD2 23.76 CE1 23.93 CE2 20.47 CZ 22.03 H 24.58 HA 26.12 HB2 28.85 HB3 28.85 HD1 27.72 HD2 28.52 HE1 28.71 HE2 24.57 HZ 26.43
A SER E 13 -125.7 157.5 N 20.29 CA 19.28 C 21.14 O 21.0 CB 23.56 OG 26.59 H 24.35 HA 23.14 HB2 28.27 HB3 28.27 HG 31.91
A ILE E 0 -122.6 125.2 N 19.7 CA 19.44 C 23.52 O 22.13 CB 19.06 CG1 21.77 CG2 21.72 CD1 21.88 H 23.64 HA 23.32 HB 22.88 HG12 26.12 HG13 26.12 HG21 26.07 HG22 26.07 HG23 26.07 HD11 26.26 HD12 26.26 HD13 26.26
A GLU E 78 -101.7 123.1 N 21.07 CA 21.82 C 22.45 O 24.01 CB 23.78 CG 26.67 CD 39.44 OE1 46.14 OE2 36.92 H 25.28 HA 26.19 HB2 28.53 HB3 28.53 HG2 32.0 HG3 32.0
A VAL E 3 -95.6 115.7 N 20.55 CA 20.12 C 24.14 O 25.03 CB 20.62 CG1 23.75 CG2 24.67 H 24.66 HA 24.14 HB 24.74 HG11 28.5 HG12 28.5 HG13 28.5 HG21 29.61 HG22 29.61 HG23 29.61
A TYR E 102 -90.6 154.8 N 23.79 CA 24.06 C 24.79 O 25.9 CB 22.81 CG 27.05 CD1 38.56 CD2 34.2 CE1 46.09 CE2 36.57 CZ 40.93 OH 50.4 H 28.55 HA 28.87 HB2 27.37 HB3 27.37 HD1 46.27 HD2 41.04 HE1 55.31 HE2 43.88 HH 60.48
A PRO S 53 -76.0 -27.4 N 27.96 CA 27.34 C 23.1 O 31.18 CB 37.29 CG 35.56 CD 27.59 HA 32.81 HB2 44.74 HB3 44.74 HG2 42.67 HG3 42.67 HD2 33.1 HD3 33.1
A GLU - 113 -142.1 132.7 N 63.37 CA 65.59 C 63.24 O 63.14 CB 62.33 CG 71.64 CD 72.03 OE1 81.03 OE2 64.95 H 76.04 HA 78.71 HB2 74.8 HB3 74.8 HG2 85.97 HG3 85.97
A ASP - 13 -103.9 -8.7 N 60.62 CA 60.33 C 59.68 O 59.52 CB 59.31 CG 57.69 OD1 57.23 OD2 56.89 H 72.75 HA 72.4 HB2 71.17 HB3 71.17
A HIS T 76 59.2 25.7 N 59.31 CA 58.87 C 58.75 O 57.29 CB 60.19 CG 61.95 ND1 63.0 CD2 63.25 CE1 63.33 NE2 63.76 H 71.17 HA 70.65 HB2 72.22 HB3 72.22 HD2 75.89 HE1 76.0 HE2 76.51
A ASN T 34 60.7 18.0 N 56.66 CA 55.35 C 59.23 O 54.69 CB 54.3 CG 53.77 OD1 53.25 ND2 53.92 H 67.99 HA 66.42 HB2 65.16 HB3 65.16 HD21 64.71 HD22 64.71
A GLU - 30 -106.0 126.3 N 57.0 CA 57.43 C 58.24 O 58.56 CB 58.82 CG 58.62 CD 59.1 OE1 57.17 OE2 57.52 H 68.4 HA 68.92 HB2 70.58 HB3 70.58 HG2 70.34 HG3 70.34
A PRO - 39 -50.1 -44.8 N 57.0 CA 57.29 C 59.08 O 59.45 CB 56.86 CG 55.31 CD 55.85 HA 68.75 HB2 68.23 HB3 68.23 HG2 66.37 HG3 66.37 HD2 67.02 HD3 67.02
A GLN - 186 -73.1 360.0 N 59.72 CA 81.35 C 74.13 O 66.31 CB 96.66 CG 111.74 CD 121.05 OE1 123.31 NE2 121.88 H 71.66 HA 97.62 HB2 115.99 HB3 115.99 HG2 134.09 HG3 134.09 HE21 146.25 HE22 146.25
A ALA - 86 360.0 -26.3 N 60.04 CA 68.03 C 67.53 O 74.08 CB 68.73 HA 81.63 HB1 82.48 HB2 82.48 HB3 82.48
A CYS - 20 -81.6 149.7 N 57.96 CA 57.39 C 58.63 O 59.8 CB 59.2 SG 54.58 H 69.55 HA 68.86 HB2 71.04 HB3 71.04
A ALA - 49 -67.8 148.7 N 58.43 CA 62.39 C 63.94 O 66.27 CB 60.98 H 70.12 HA 74.87 HB1 73.18 HB2 73.18 HB3 73.18
A ALA T 98 -64.0 -14.0 N 65.91 CA 70.16 C 70.99 O 67.54 CB 74.33 H 79.09 HA 84.19 HB1 89.2 HB2 89.2 HB3 89.2
A ASP T 158 -86.6 2.5 N 76.85 CA 85.81 C 85.36 O 89.69 CB 93.21 CG 107.89 OD1 115.91 OD2 111.09 H 92.22 HA 102.97 HB2 111.85 HB3 111.85
A GLU S 59 -128.6 122.5 N 71.0 CA 60.49 C 55.05 O 55.5 CB 58.9 CG 59.14 CD 68.47 OE1 78.98 OE2 65.95 H 85.2 HA 72.59 HB2 70.68 HB3 70.68 HG2 70.97 HG3 70.97
A PRO - 40 -68.0 151.2 N 53.62 CA 53.03 C 52.54 O 52.13 CB 51.82 CG 56.19 CD 52.71 HA 63.64 HB2 62.18 HB3 62.18 HG2 67.42 HG3 67.42 HD2 63.26 HD3 63.26
A VAL E 3 -91.1 128.8 N 32.92 CA 32.84 C 28.92 O 29.18 CB 30.55 CG1 29.77 CG2 43.23 H 39.5 HA 39.41 HB 36.65 HG11 35.72 HG12 35.72 HG13 35.72 HG21 51.88 HG22 51.88 HG23 51.88
A THR E 0 -85.7 118.8 N 27.3 CA 24.93 C 22.95 O 23.73 CB 25.22 OG1 27.6 CG2 26.26 H 32.76 HA 29.91 HB 30.27 HG1 33.13 HG21 31.51 HG22 31.51 HG23 31.51
A VAL E 6 -119.7 133.6 N 22.16 CA 22.97 C 21.43 O 20.75 CB 23.22 CG1 25.29 CG2 28.26 H 26.59 HA 27.56 HB 27.86 HG11 30.35 HG12 30.35 HG13 30.35 HG21 33.91 HG22 33.91 HG23 33.91
A LEU E 1 -97.0 125.8 N 17.25 CA 17.31 C 20.21 O 18.75 CB 19.03 CG 18.14 CD1 21.53 CD2 21.83 H 20.69 HA 20.77 HB2 22.83 HB3 22.83 HG 21.77 HD11 25.83 HD12 25.83 HD13 25.83 HD21 26.19 HD22 26.19 HD23 26.19
A MET E 31 -119.9 134.5 N 16.84 CA 16.03 C 17.67 O 19.19 CB 20.06 CG 29.15 SD 29.36 CE 34.48 H 20.2 HA 19.23 HB2 24.07 HB3 24.07 HG2 34.98 HG3 34.98 HE1 41.38 HE2 41.38 HE3 41.38
A VAL E 1 -112.1 125.7 N 16.28 CA 15.63 C 18.86 O 16.89 CB 15.72 CG1 16.43 CG2 16.21 H 19.54 HA 18.75 HB 18.86 HG11 19.71 HG12 19.71 HG13 19.71 HG21 19.45 HG22 19.45 HG23 19.45
A ILE E 5 -95.5 125.1 N 17.23 CA 14.53 C 15.92 O 16.61 CB 18.4 CG1 26.55 CG2 20.03 CD1 34.86 H 20.68 HA 17.43 HB 22.07 HG12 31.86 HG13 31.86 HG21 24.03 HG22 24.03 HG23 24.03 HD11 41.83 HD12 41.83 HD13 41.83
A LEU E 0 -117.6 145.0 N 14.37 CA 14.36 C 16.78 O 18.02 CB 16.81 CG 18.25 CD1 20.32 CD2 20.34 H 17.24 HA 17.23 HB2 20.18 HB3 20.18 HG 21.9 HD11 24.38 HD12 24.38 HD13 24.38 HD21 24.41 HD22 24.41 HD23 24.41
A ASP S 16 -84.5 85.9 N 16.99 CA 19.27 C 18.0 O 19.56 CB 18.42 CG 22.89 OD1 21.37 OD2 22.36 H 20.38 HA 23.12 HB2 22.1 HB3 22.1
A ALA - 2 -152.3 158.2 N 17.75 CA 17.72 C 20.26 O 19.15 CB 17.2 H 21.3 HA 21.26 HB1 20.64 HB2 20.64 HB3 20.64
A ASP - 28 -125.4 106.4 N 20.57 CA 20.59 C 18.65 O 19.95 CB 22.31 CG 25.97 OD1 23.3 OD2 26.84 H 24.68 HA 24.71 HB2 26.77 HB3 26.77
A LEU G 0 -60.4 -27.9 N 19.28 CA 18.3 C 20.11 O 21.66 CB 18.86 CG 20.35 CD1 22.17 CD2 26.19 H 23.13 HA 21.96 HB2 22.63 HB3 22.63 HG 24.42 HD11 26.6 HD12 26.6 HD13 26.6 HD21 31.43 HD22 31.43 HD23 31.43
A THR G 92 -74.1 -14.6 N 19.97 CA 21.87 C 24.6 O 26.38 CB 24.99 OG1 26.06 CG2 23.07 H 23.97 HA 26.24 HB 29.98 HG1 31.27 HG21 27.68 HG22 27.68 HG23 27.68
A LYS G 140 -97.2 1.4 N 23.0 CA 22.23 C 30.91 O 34.39 CB 30.84 CG 31.91 CD 37.18 CE 44.07 NZ 43.23 H 27.6 HA 26.67 HB2 37.01 HB3 37.01 HG2 38.29 HG3 38.29 HD2 44.61 HD3 44.61 HE2 52.89 HE3 52.89 HZ1 51.88 HZ2 51.88 HZ3 51.88
A MET S 13 -107.8 142.1 N 21.19 CA 18.97 C 23.28 O 24.4 CB 23.04 CG 21.33 SD 25.64 CE 23.28 H 25.43 HA 22.76 HB2 27.64 HB3 27.64 HG2 25.6 HG3 25.6 HE1 27.93 HE2 27.93 HE3 27.93
A THR - 70 -73.3 164.6 N 21.3 CA 20.29 C 18.42 O 20.16 CB 23.22 OG1 22.65 CG2 22.96 H 25.56 HA 24.34 HB 27.86 HG1 27.17 HG21 27.55 HG22 27.55 HG23 27.55
A PRO H 17 -56.6 -40.7 N 19.97 CA 22.45 C 24.13 O 20.91 CB 26.97 CG 30.75 CD 21.27 HA 26.94 HB2 32.36 HB3 32.36 HG2 36.9 HG3 36.9 HD2 25.52 HD3 25.52
A LYS H 85 -65.2 -38.5 N 19.84 CA 19.94 C 18.6 O 19.54 CB 25.6 CG 30.23 CD 78.8 CE 69.25 NZ 51.25 H 23.81 HA 23.92 HB2 30.72 HB3 30.72 HG2 36.28 HG3 36.28 HD2 94.57 HD3 94.57 HE2 83.1 HE3 83.1 HZ1 61.5 HZ2 61.5 HZ3 61.5
A GLN H 88 -64.1 -38.1 N 19.22 CA 19.12 C 17.62 O 18.41 CB 19.51 CG 19.92 CD 25.63 OE1 23.33 NE2 40.27 H 23.07 HA 22.95 HB2 23.41 HB3 23.41 HG2 23.91 HG3 23.91 HE21 48.33 HE22 48.33
A ARG H 9 -63.4 -46.7 N 17.01 CA 15.92 C 16.24 O 17.98 CB 19.64 CG 21.01 CD 24.2 NE 26.56 CZ 25.3 NH1 23.43 NH2 27.43 H 20.41 HA 19.11 HB2 23.56 HB3 23.56 HG2 25.21 HG3 25.21 HD2 29.04 HD3 29.04 HE 31.88 HH11 28.12 HH12 28.12 HH21 32.92 HH22 32.92
A ILE H 11 -65.7 -41.1 N 16.29 CA 17.99 C 16.84 O 18.35 CB 21.42 CG1 24.21 CG2 24.46 CD1 28.13 HA 21.51 HB 25.71 HG12 29.05 HG13 29.05 HG21 29.36 HG22 29.36 HG23 29.36 HD11 33.76 HD12 33.76 HD13 33.76
A ASP H 63 -63.7 -38.5 N 17.07 CA 18.27 C 18.3 O 17.3 CB 19.88 CG 28.34 OD1 31.38 OD2 32.21 H 20.48 HA 20.86 HB2 23.86 HB3 23.86
A LEU H 1 -57.7 -49.1 N 15.6 CA 15.71 C 16.61 O 17.79 CB 17.45 CG 17.04 CD1 17.35 CD2 16.62 H 18.72 HA 18.85 HB2 20.94 HB3 20.94 HG 20.45 HD11 20.82 HD12 20.82 HD13 20.82 HD21 19.94 HD22 19.94 HD23 19.94
A LEU H 0 -56.1 -44.6 N 16.43 CA 17.11 C 17.48 O 19.98 CB 21.2 CG 20.91 CD1 25.19 CD2 23.78 H 19.71 HA 20.53 HB2 25.44 HB3 25.44 HG 25.09 HD11 30.23 HD12 30.23 HD13 30.23 HD21 28.54 HD22 28.54 HD23 28.54
A ASN H 73 -55.9 -44.5 N 17.13 CA 15.79 C 17.8 O 19.12 CB 19.39 CG 33.56 OD1 42.91 ND2 44.97 H 20.56 HA 18.94 HB2 23.27 HB3 23.27 HD21 53.96 HD22 53.96
A ARG H 104 -74.9 -14.8 N 16.47 CA 18.48 C 19.26 O 19.14 CB 16.52 CG 19.24 CD 19.73 NE 19.01 CZ 25.41 NH1 24.32 NH2 23.65 H 19.76 HA 21.52 HB2 19.82 HB3 19.82 HG2 23.08 HG3 23.08 HD2 23.67 HD3 23.67 HE 22.81 HH11 29.18 HH12 29.18 HH21 28.38 HH22 28.38
A MET H 0 -82.8 -16.3 N 16.4 CA 16.86 C 16.24 O 17.99 CB 16.88 CG 18.0 SD 18.46 CE 18.22 H 19.68 HA 20.23 HB2 20.26 HB3 20.26 HG2 21.6 HG3 21.6 HE1 21.86 HE2 21.86 HE3 21.86
A GLN H 57 -57.8 -36.4 N 17.18 CA 18.77 C 19.23 O 20.6 CB 20.19 CG 18.73 CD 22.16 OE1 30.68 NE2 25.84 H 20.61 HA 22.53 HB2 24.22 HB3 24.22 HG2 22.48 HG3 22.48 HE21 31.0 HE22 31.0
A SER H 84 -58.9 -32.2 N 17.71 CA 22.19 C 19.77 O 21.65 CB 19.82 OG 23.32 H 21.25 HA 25.28 HB2 23.79 HB3 23.79 HG 27.99
A PHE H 29 -91.3 -43.2 N 18.3 CA 16.85 C 19.66 O 21.17 CB 18.55 CG 18.73 CD1 17.5 CD2 18.28 CE1 17.01 CE2 18.58 CZ 16.41 H 21.96 HA 20.22 HB2 22.26 HB3 22.26 HD1 21.0 HD2 21.93 HE1 20.41 HE2 22.3 HZ 19.7
A SER H 13 -75.5 -31.1 N 19.51 CA 20.61 C 23.32 O 23.66 CB 19.31 OG 22.04 H 23.42 HA 24.74 HB2 23.18 HB3 23.18 HG 26.45
A GLU - 176 58.1 29.7 N 24.53 CA 24.31 C 27.39 O 26.61 CB 26.07 CG 29.13 CD 46.59 OE1 50.77 OE2 49.39 H 29.43 HA 29.17 HB2 31.28 HB3 31.28 HG2 34.96 HG3 34.96
A VAL S 33 -120.4 140.7 N 27.22 CA 25.58 C 29.96 O 27.77 CB 27.98 CG1 29.76 CG2 30.09 H 32.67 HA 30.7 HB 33.58 HG11 35.71 HG12 35.71 HG13 35.71 HG21 36.11 HG22 36.11 HG23 36.11
A GLU - 121 -66.5 152.2 N 26.46 CA 27.43 C 25.57 O 23.55 CB 29.49 CG 43.73 CD 68.67 OE1 76.9 OE2 80.18 H 31.75 HA 32.91 HB2 35.39 HB3 35.39 HG2 52.48 HG3 52.48
A LEU G 33 -43.6 -48.1 N 30.89 CA 28.42 C 24.9 O 23.21 CB 31.22 CG 41.02 CD1 42.31 CD2 36.16 H 37.06 HA 34.11 HB2 37.46 HB3 37.46 HG 49.22 HD11 50.77 HD12 50.77 HD13 50.77 HD21 43.39 HD22 43.39 HD23 43.39
A HIS G 87 -74.5 -4.7 N 24.66 CA 24.74 C 23.46 O 28.5 CB 29.39 CG 30.45 ND1 35.37 CD2 38.9 CE1 38.55 NE2 40.41 H 29.6 HA 29.69 HB2 35.27 HB3 35.27 HD2 46.68 HE1 46.26 HE2 48.5
A ASN G 44 -109.2 6.4 N 22.84 CA 25.08 C 24.24 O 24.19 CB 27.64 CG 36.45 OD1 33.56 ND2 34.52 H 27.4 HA 30.1 HB2 33.17 HB3 33.17 HD21 41.42 HD22 41.42
A MET - 0 -99.2 159.9 N 18.01 CA 16.6 C 22.24 O 25.1 CB 18.46 CG 23.17 SD 24.81 CE 26.07 H 21.61 HA 19.91 HB2 22.15 HB3 22.15 HG2 27.81 HG3 27.81 HE1 31.28 HE2 31.28 HE3 31.28
A LYS E 48 -122.2 141.6 N 18.79 CA 18.03 C 18.71 O 18.64 CB 21.19 CG 24.25 CD 29.95 CE 41.73 NZ 49.83 H 22.55 HA 21.64 HB2 25.43 HB3 25.43 HG2 29.1 HG3 29.1 HD2 35.94 HD3 35.94 HE2 50.07 HE3 50.07 HZ1 59.8 HZ2 59.8 HZ3 59.8
A LEU E 0 -141.4 111.0 N 17.27 CA 15.15 C 17.81 O 19.07 CB 16.84 CG 17.59 CD1 18.14 CD2 22.2 H 20.72 HA 18.18 HB2 20.2 HB3 20.2 HG 21.11 HD11 21.77 HD12 21.77 HD13 21.77 HD21 26.63 HD22 26.63 HD23 26.63
A VAL E 27 -141.3 161.2 N 16.94 CA 17.96 C 19.98 O 18.77 CB 19.74 CG1 23.86 CG2 21.42 H 20.33 HA 21.55 HB 23.68 HG11 28.63 HG12 28.63 HG13 28.63 HG21 25.7 HG22 25.7 HG23 25.7
A PRO E 37 -70.4 154.3 N 20.02 CA 18.11 C 19.66 O 22.33 CB 23.44 CG 25.2 CD 22.42 HA 21.74 HB2 28.13 HB3 28.13 HG2 30.25 HG3 30.25 HD2 26.91 HD3 26.91
A VAL - 4 -62.7 139.2 N 21.62 CA 25.27 C 26.65 O 29.02 CB 23.59 CG1 28.21 CG2 24.17 H 25.94 HA 30.33 HB 28.3 HG11 33.85 HG12 33.85 HG13 33.85 HG21 29.01 HG22 29.01 HG23 29.01
A VAL - 98 -117.7 143.6 N 34.83 CA 37.86 C 35.29 O 37.31 CB 43.14 CG1 52.23 CG2 36.4 H 41.79 HA 45.43 HB 51.77 HG11 62.68 HG12 62.68 HG13 62.68 HG21 43.68 HG22 43.68 HG23 43.68
A ASN T 147 51.9 32.7 N 45.53 CA 50.75 C 42.02 O 39.95 CB 58.46 CG 64.67 OD1 61.94 ND2 70.04 H 54.63 HA 60.9 HB2 70.16 HB3 70.16 HD21 84.05 HD22 84.05
A ASN T 127 60.5 24.4 N 33.35 CA 34.41 C 33.5 O 38.98 CB 43.77 CG 49.58 OD1 58.94 ND2 46.34 H 40.02 HA 41.29 HB2 52.53 HB3 52.53 HD21 55.61 HD22 55.61
A ARG - 154 -90.7 114.2 N 31.46 CA 30.45 C 25.78 O 38.96 CB 40.12 CG 50.09 CD 57.95 NE 61.97 CZ 63.19 NH1 55.88 NH2 59.0 H 37.75 HA 36.54 HB2 48.14 HB3 48.14 HG2 60.11 HG3 60.11 HD2 69.54 HD3 69.54 HE 74.36 HH11 67.06 HH12 67.06 HH21 70.8 HH22 70.8
A LEU - 50 -104.4 31.7 N 26.63 CA 25.63 C 32.85 O 37.14 CB 30.72 CG 27.27 CD1 34.82 CD2 27.81 H 31.96 HA 30.76 HB2 36.87 HB3 36.87 HG 32.73 HD11 41.78 HD12 41.78 HD13 41.78 HD21 33.38 HD22 33.38 HD23 33.38
A PHE - 118 -163.9 165.5 N 30.57 CA 30.66 C 27.05 O 30.69 CB 31.7 CG 38.95 CD1 53.96 CD2 43.16 CE1 61.55 CE2 48.48 CZ 54.49 H 36.68 HA 36.79 HB2 38.04 HB3 38.04 HD1 64.75 HD2 51.79 HE1 73.86 HE2 58.17 HZ 65.38
A ASP - 29 -137.2 107.8 N 28.7 CA 25.02 C 23.42 O 25.83 CB 23.91 CG 28.61 OD1 27.54 OD2 30.73 H 34.44 HA 30.02 HB2 28.69 HB3 28.69
A MET T 169 -65.8 -18.9 N 21.2 CA 25.57 C 22.75 O 26.71 CB 29.09 CG 31.88 SD 36.5 CE 38.93 H 27.44 HA 30.68 HB2 34.91 HB3 34.91 HG2 38.25 HG3 38.25 HE1 46.71 HE2 46.71 HE3 46.71
A SER T 70 -81.9 -8.7 N 22.21 CA 25.46 C 22.87 O 24.21 CB 27.22 OG 26.74 H 26.65 HA 30.55 HB2 32.66 HB3 32.66 HG 32.08
A ALA - 25 -65.9 135.0 N 20.92 CA 19.84 C 21.65 O 22.66 CB 21.97 H 25.1 HA 23.8 HB1 26.36 HB2 26.36 HB3 26.36
A PHE S 70 -100.6 -7.8 N 20.71 CA 18.67 C 22.13 O 21.16 CB 24.12 CG 25.31 CD1 23.75 CD2 24.57 CE1 29.67 CE2 27.43 CZ 26.55 H 24.86 HA 22.41 HB2 28.94 HB3 28.94 HD1 28.5 HD2 29.48 HE1 35.6 HE2 32.92 HZ 31.86
A MET E 37 -140.1 145.8 N 20.11 CA 15.99 C 17.55 O 17.36 CB 21.85 CG 26.35 SD 24.21 CE 26.82 H 24.14 HA 19.19 HB2 26.22 HB3 26.22 HG2 31.61 HG3 31.61 HE1 32.18 HE2 32.18 HE3 32.18
A ALA E 65 -170.8 167.0 N 17.48 CA 17.54 C 18.34 O 19.2 CB 19.33 H 20.98 HA 21.05 HB1 23.2 HB2 23.2 HB3 23.2
A GLY E 18 -169.1 171.4 N 17.46 CA 17.78 C 21.3 O 18.24 H 20.96 HA2 21.34 HA3 21.34
A PRO E 63 -87.5 160.1 N 18.09 CA 18.86 C 20.77 O 19.95 CB 25.1 CG 22.16 CD 16.99 HA 22.63 HB2 30.11 HB3 30.11 HG2 26.59 HG3 26.59 HD2 20.39 HD3 20.39
A GLY - 14 -102.7 -148.8 N 18.77 CA 17.82 C 19.09 O 21.81 H 22.52 HA2 21.38 HA3 21.38
A ASN S 57 -101.6 -20.0 N 16.13 CA 17.61 C 18.8 O 20.35 CB 17.22 CG 15.73 OD1 19.1 ND2 21.41 H 19.35 HA 21.13 HB2 20.66 HB3 20.66 HD21 25.7 HD22 25.7
A ALA - 29 -66.1 144.2 N 16.63 CA 17.96 C 21.85 O 23.34 CB 18.26 H 19.96 HA 21.55 HB1 21.92 HB2 21.92 HB3 21.92
A LYS S 191 -111.3 -23.3 N 22.43 CA 22.17 C 24.85 O 29.58 CB 27.74 CG 39.39 CD 52.54 CE 49.29 NZ 52.06 H 26.92 HA 26.6 HB2 33.29 HB3 33.29 HG2 47.26 HG3 47.26 HD2 63.05 HD3 63.05 HE2 59.15 HE3 59.15 HZ1 62.47 HZ2 62.47 HZ3 62.47
A LYS S 168 -127.4 155.1 N 26.44 CA 28.93 C 25.72 O 24.95 CB 29.54 CG 42.99 CD 48.68 CE 63.29 NZ 71.35 H 31.73 HA 34.72 HB2 35.44 HB3 35.44 HG2 51.59 HG3 51.59 HD2 58.42 HD3 58.42 HE2 75.95 HE3 75.95 HZ1 85.62 HZ2 85.62 HZ3 85.62
A VAL - 55 -123.3 108.9 N 24.97 CA 20.53 C 25.43 O 28.22 CB 23.71 CG1 26.77 CG2 23.77 H 29.97 HA 24.64 HB 28.45 HG11 32.13 HG12 32.13 HG13 32.13 HG21 28.53 HG22 28.53 HG23 28.53
A VAL - 114 -88.6 -37.2 N 20.35 CA 21.76 C 22.24 O 25.3 CB 27.59 CG1 29.64 CG2 26.0 H 24.42 HA 26.11 HB 33.11 HG11 35.56 HG12 35.56 HG13 35.56 HG21 31.2 HG22 31.2 HG23 31.2
A GLU S 65 -95.6 174.3 N 19.83 CA 21.35 C 21.18 O 21.23 CB 23.44 CG 25.24 CD 34.26 OE1 31.7 OE2 42.56 H 23.8 HA 25.62 HB2 28.12 HB3 28.12 HG2 30.29 HG3 30.29
A ASN - 55 -60.2 -34.8 N 20.2 CA 21.25 C 21.76 O 22.64 CB 21.92 CG 30.72 OD1 33.88 ND2 32.43 H 24.24 HA 25.51 HB2 26.3 HB3 26.3 HD21 38.91 HD22 38.91
A GLY - 0 105.2 151.9 N 19.12 CA 20.22 C 20.2 O 19.52 H 22.94 HA2 24.27 HA3 24.27
A ALA E 0 -132.4 149.0 N 17.09 CA 16.07 C 17.82 O 18.05 CB 19.5 H 20.51 HA 19.28 HB1 23.41 HB2 23.41 HB3 23.41
A LEU E 28 -113.6 115.7 N 17.25 CA 15.95 C 18.06 O 17.84 CB 19.36 CG 22.06 CD1 24.32 CD2 25.34 H 20.7 HA 19.14 HB2 23.23 HB3 23.23 HG 26.48 HD11 29.19 HD12 29.19 HD13 29.19 HD21 30.41 HD22 30.41 HD23 30.41
A LEU E 0 -113.6 114.3 N 16.29 CA 13.85 C 17.73 O 16.62 CB 15.68 CG 18.3 CD1 20.87 CD2 19.55 H 19.55 HA 16.61 HB2 18.82 HB3 18.82 HG 21.95 HD11 25.04 HD12 25.04 HD13 25.04 HD21 23.46 HD22 23.46 HD23 23.46
A SER E 3 -134.0 164.5 N 17.49 CA 15.78 C 17.51 O 19.12 CB 17.3 OG 19.48 H 20.99 HA 18.93 HB2 20.76 HB3 20.76 HG 23.38
A TRP E 10 -156.0 160.8 N 16.8 CA 19.92 C 21.74 O 19.74 CB 18.61 CG 17.92 CD1 23.52 CD2 17.09 NE1 18.48 CE2 17.87 CE3 18.01 CZ2 19.37 CZ3 17.89 CH2 20.16 H 20.16 HA 23.91 HB2 22.33 HB3 22.33 HD1 28.22 HE1 22.17 HE3 21.61 HZ2 23.25 HZ3 21.46 HH2 24.19
A LYS E 41 -80.5 133.3 N 21.53 CA 22.78 C 23.89 O 23.73 CB 22.9 CG 26.36 CD 29.27 CE 34.82 NZ 36.97 H 25.83 HA 27.34 HB2 27.47 HB3 27.47 HG2 31.64 HG3 31.64 HD2 35.12 HD3 35.12 HE2 41.78 HE3 41.78 HZ1 44.36 HZ2 44.36 HZ3 44.36
A LEU E 40 -99.2 -29.8 N 21.96 CA 24.81 C 24.92 O 30.57 CB 21.18 CG 20.42 CD1 20.88 CD2 25.09 H 26.36 HA 29.77 HB2 25.42 HB3 25.42 HG 24.5 HD11 25.06 HD12 25.06 HD13 25.06 HD21 30.11 HD22 30.11 HD23 30.11
A GLY E 15 165.7 -161.0 N 28.18 CA 29.49 C 31.16 O 30.79 H 33.82 HA2 35.39 HA3 35.39
A CYS E 31 -116.9 126.0 N 33.09 CA 33.13 C 34.88 O 36.48 CB 40.06 SG 44.33 H 39.7 HA 39.76 HB2 48.07 HB3 48.07
A SER S 51 40.1 50.2 N 37.03 CA 40.8 C 36.44 O 36.63 CB 50.71 OG 54.03 H 44.44 HA 48.96 HB2 60.85 HB3 60.85 HG 64.84
A LEU - 29 -76.8 167.8 N 33.3 CA 31.5 C 35.99 O 32.5 CB 30.95 CG 32.85 CD1 32.31 CD2 35.16 H 39.96 HA 37.8 HB2 37.14 HB3 37.14 HG 39.43 HD11 38.78 HD12 38.78 HD13 38.78 HD21 42.19 HD22 42.19 HD23 42.19
A ASN - 84 -137.3 -175.0 N 37.46 CA 37.77 C 34.5 O 33.23 CB 34.39 CG 36.66 OD1 41.19 ND2 51.63 H 44.95 HA 45.33 HB2 41.27 HB3 41.27 HD21 61.96 HD22 61.96
A GLN T 130 -59.9 -32.2 N 32.93 CA 32.08 C 30.03 O 34.21 CB 33.45 CG 33.27 CD 38.88 OE1 34.45 NE2 39.92 H 39.51 HA 38.49 HB2 40.14 HB3 40.14 HG2 39.92 HG3 39.92 HE21 47.9 HE22 47.9
A ASN T 156 -80.8 -17.5 N 35.31 CA 41.18 C 43.2 O 48.26 CB 45.07 CG 57.99 OD1 57.64 ND2 67.39 H 42.37 HA 49.42 HB2 54.08 HB3 54.08 HD21 80.87 HD22 80.87
A SER T 60 -110.2 -0.6 N 34.4 CA 32.88 C 35.31 O 34.06 CB 31.27 OG 36.16 H 41.28 HA 39.46 HB2 37.53 HB3 37.53 HG 43.4
A VAL S 18 -69.6 141.8 N 30.32 CA 28.56 C 28.61 O 32.03 CB 31.35 CG1 38.69 CG2 30.23 H 36.38 HA 34.28 HB 37.61 HG11 46.43 HG12 46.43 HG13 46.43 HG21 36.28 HG22 36.28 HG23 36.28
A PRO - 67 -65.9 173.5 N 28.55 CA 31.95 C 28.24 O 30.02 CB 34.88 CG 35.94 CD 30.9 HA 38.34 HB2 41.86 HB3 41.86 HG2 43.13 HG3 43.13 HD2 37.08 HD3 37.08
A ASP - 103 -58.2 119.7 N 30.94 CA 30.02 C 24.36 O 27.44 CB 34.21 CG 40.41 OD1 34.09 OD2 48.05 H 37.13 HA 36.02 HB2 41.05 HB3 41.05
A ILE - 24 -114.9 16.1 N 24.5 CA 21.84 C 24.05 O 23.09 CB 26.34 CG1 31.63 CG2 28.02 CD1 30.65 H 29.4 HA 26.21 HB 31.61 HG12 37.95 HG13 37.95 HG21 33.63 HG22 33.63 HG23 33.63 HD11 36.78 HD12 36.78 HD13 36.78
A ARG H 163 -60.3 -30.4 N 24.49 CA 24.01 C 24.71 O 26.11 CB 29.52 CG 29.86 CD 33.21 NE 39.94 CZ 51.81 NH1 54.44 NH2 53.62 H 29.39 HA 28.82 HB2 35.43 HB3 35.43 HG2 35.83 HG3 35.83 HD2 39.85 HD3 39.85 HE 47.93 HH11 65.33 HH12 65.33 HH21 64.34 HH22 64.34
A GLY H 47 -70.4 -12.9 N 26.61 CA 26.73 C 23.17 O 23.25 H 31.94 HA2 32.08 HA3 32.08
A VAL H 6 -98.0 -52.2 N 19.8 CA 20.04 C 20.19 O 19.54 CB 21.92 CG1 25.41 CG2 26.89 H 23.77 HA 24.05 HB 26.31 HG11 30.49 HG12 30.49 HG13 30.49 HG21 32.26 HG22 32.26 HG23 32.26
A GLU H 34 -64.7 -40.6 N 20.92 CA 19.48 C 21.6 O 19.93 CB 25.77 CG 41.88 CD 36.47 OE1 37.24 OE2 41.58 H 25.1 HA 23.38 HB2 30.93 HB3 30.93 HG2 50.25 HG3 50.25
A THR H 48 -73.7 -50.0 N 20.97 CA 22.04 C 21.53 O 21.17 CB 24.97 OG1 28.33 CG2 27.55 H 25.16 HA 26.45 HB 29.97 HG1 34.0 HG21 33.06 HG22 33.06 HG23 33.06
A PRO H 18 -63.9 -30.9 N 19.03 CA 17.8 C 17.97 O 18.84 CB 20.0 CG 27.33 CD 21.65 HA 21.36 HB2 24.01 HB3 24.01 HG2 32.79 HG3 32.79 HD2 25.98 HD3 25.98
A ALA H 0 -59.0 -51.1 N 16.92 CA 16.8 C 18.26 O 19.41 CB 16.67 H 20.31 HA 20.16 HB1 20.0 HB2 20.0 HB3 20.0
A ARG H 113 -71.9 -33.2 N 18.6 CA 20.8 C 21.84 O 27.17 CB 21.64 CG 27.21 CD 33.11 NE 41.36 CZ 40.14 NH1 36.08 NH2 36.72 H 22.32 HA 24.96 HB2 25.96 HB3 25.96 HG2 32.66 HG3 32.66 HD2 39.73 HD3 39.73 HE 49.64 HH11 43.3 HH12 43.3 HH21 44.07 HH22 44.07
A GLU H 145 -82.0 -15.7 N 18.87 CA 21.24 C 22.74 O 24.54 CB 23.77 CG 32.47 CD 43.5 OE1 46.31 OE2 43.38 H 22.65 HA 25.49 HB2 28.52 HB3 28.52 HG2 38.96 HG3 38.96
A GLY T 16 97.8 -6.2 N 19.69 CA 19.1 C 19.59 O 19.9 H 23.63 HA2 22.92 HA3 22.92
A ALA H 49 -68.1 -33.0 N 17.64 CA 18.92 C 17.62 O 18.52 CB 22.29 H 21.17 HA 22.7 HB1 26.75 HB2 26.75 HB3 26.75
A MET H 0 -66.1 -51.9 N 14.99 CA 13.73 C 16.96 O 16.82 CB 14.49 CG 16.77 SD 18.04 CE 20.23 H 17.98 HA 16.47 HB2 17.39 HB3 17.39 HG2 20.12 HG3 20.12 HE1 24.28 HE2 24.28 HE3 24.28
A SER H 15 -58.7 -39.9 N 15.84 CA 16.43 C 15.87 O 18.98 CB 18.28 OG 22.29 H 19.0 HA 20.37 HB2 21.94 HB3 21.94 HG 26.75
A ALA H 84 -61.6 -32.7 N 15.8 CA 17.36 C 20.47 O 23.5 CB 20.63 H 18.97 HA 20.83 HB1 24.76 HB2 24.76 HB3 24.76
A GLN H 63 -81.5 -40.8 N 16.5 CA 15.42 C 16.48 O 17.96 CB 15.32 CG 17.1 CD 22.34 OE1 27.2 NE2 17.88 H 19.8 HA 18.5 HB2 18.39 HB3 18.39 HG2 20.52 HG3 20.52 HE21 21.45 HE22 21.45
A LEU H 4 -71.6 -35.9 N 14.93 CA 14.34 C 15.25 O 18.55 CB 14.95 CG 15.06 CD1 15.95 CD2 19.29 H 17.91 HA 17.2 HB2 17.94 HB3 17.94 HG 18.07 HD11 19.14 HD12 19.14 HD13 19.14 HD21 23.15 HD22 23.15 HD23 23.15
A GLY S 58 94.4 8.2 N 17.02 CA 17.39 C 19.15 O 18.65 H 20.43 HA2 20.86 HA3 20.86
A TYR S 55 -140.9 151.9 N 17.52 CA 16.38 C 18.22 O 16.69 CB 16.02 CG 16.96 CD1 18.46 CD2 22.61 CE1 21.29 CE2 21.31 CZ 20.4 OH 24.3 H 21.03 HA 19.66 HB2 19.22 HB3 19.22 HD1 22.15 HD2 27.13 HE1 25.55 HE2 25.58 HH 29.16
A PRO - 46 -67.6 143.2 N 15.06 CA 12.94 C 15.55 O 16.85 CB 16.8 CG 18.59 CD 18.36 HA 15.53 HB2 20.16 HB3 20.16 HG2 22.31 HG3 22.31 HD2 22.04 HD3 22.04
A VAL E 0 -98.7 122.3 N 15.34 CA 15.02 C 17.59 O 15.62 CB 15.72 CG1 16.46 CG2 15.1 H 18.4 HA 18.02 HB 18.86 HG11 19.75 HG12 19.75 HG13 19.75 HG21 18.12 HG22 18.12 HG23 18.12
A VAL E 33 -81.1 -39.2 N 15.22 CA 16.78 C 17.78 O 19.41 CB 19.65 CG1 21.04 CG2 18.99 H 18.27 HA 20.14 HB 23.58 HG11 25.25 HG12 25.25 HG13 25.25 HG21 22.79 HG22 22.79 HG23 22.79
A GLY E 10 171.2 174.7 N 15.54 CA 17.7 C 18.52 O 16.96 H 18.64 HA2 21.24 HA3 21.24
A TRP E 12 -133.6 155.1 N 17.0 CA 16.01 C 21.08 O 17.83 CB 13.33 CG 16.22 CD1 17.25 CD2 18.11 NE1 17.61 CE2 20.17 CE3 20.96 CZ2 20.69 CZ3 21.11 CH2 17.61 H 20.4 HA 19.22 HB2 16.0 HB3 16.0 HD1 20.7 HE1 21.13 HE3 25.15 HZ2 24.82 HZ3 25.33 HH2 21.13
A HIS E 14 -153.3 158.3 N 17.87 CA 15.96 C 17.67 O 19.15 CB 17.45 CG 19.93 ND1 27.66 CD2 22.46 CE1 23.56 NE2 24.09 H 21.44 HA 19.15 HB2 20.94 HB3 20.94 HD1 33.19 HD2 26.96 HE1 28.28
A ILE E 0 -121.0 126.7 N 17.38 CA 17.91 C 20.95 O 21.4 CB 19.7 CG1 19.37 CG2 23.04 CD1 21.36 H 20.86 HA 21.5 HB 23.64 HG12 23.24 HG13 23.24 HG21 27.65 HG22 27.65 HG23 27.65 HD11 25.64 HD12 25.64 HD13 25.64
A ALA E 1 -144.6 155.6 N 21.0 CA 22.86 C 26.6 O 24.61 CB 22.63 H 25.2 HA 27.43 HB1 27.16 HB2 27.16 HB3 27.16
A ASN E 53 -96.8 127.3 N 27.2 CA 29.64 C 32.65 O 35.13 CB 34.97 CG 36.44 OD1 37.22 ND2 38.45 H 32.64 HA 35.57 HB2 41.97 HB3 41.97 HD21 46.14 HD22 46.14
A LYS E 57 -111.4 135.1 N 30.8 CA 32.7 C 36.35 O 40.01 CB 33.34 CG 43.4 CD 52.56 CE 53.81 NZ 45.64 H 36.96 HA 39.24 HB2 40.01 HB3 40.01 HG2 52.08 HG3 52.08 HD2 63.08 HD3 63.08 HE2 64.57 HE3 64.57 HZ1 54.76 HZ2 54.76 HZ3 54.76
A LYS - 163 -43.8 137.6 N 44.88 CA 56.34 C 47.89 O 51.88 CB 71.47 CG 84.73 CD 93.87 CE 98.16 NZ 100.16 H 53.85 HA 67.6 HB2 85.77 HB3 85.77 HG2 101.68 HG3 101.68 HD2 112.65 HD3 112.65 HE2 117.8 HE3 117.8 HZ1 120.2 HZ2 120.2 HZ3 120.2
A PRO - 58 -68.5 144.1 N 57.17 CA 63.49 C 68.03 O 70.82 CB 67.49 CG 67.78 CD 63.78 HA 76.19 HB2 80.99 HB3 80.99 HG2 81.33 HG3 81.33 HD2 76.54 HD3 76.54
A THR - 100 -145.1 360.0 N 65.34 CA 69.36 C 59.91 O 64.95 CB 76.48 OG1 69.17 CG2 80.43 H 78.4 HA 83.23 HB 91.77 HG1 83.01 HG21 96.52 HG22 96.52 HG23 96.52
