A PRO - 193 360.0 46.5 N 159.56 CA 158.91 C 159.13 O 162.94 CB 160.26 CG 157.46 CD 153.36
A HIS - 151 -101.6 142.9 N 153.39 CA 142.1 C 129.04 O 120.04 CB 150.42 CG 152.21 ND1 140.5 CD2 149.44 CE1 136.08 NE2 135.3
A ARG - 220 -137.3 127.4 N 124.31 CA 115.43 C 111.41 O 106.86 CB 104.97 CG 104.98 CD 107.19 NE 106.48 CZ 109.41 NH1 107.28 NH2 114.82
A TYR - 134 -80.0 143.2 N 108.66 CA 94.6 C 89.74 O 84.45 CB 94.28 CG 90.11 CD1 87.2 CD2 87.64 CE1 86.02 CE2 86.08 CZ 86.59 OH 86.42
A ARG - 201 -75.9 155.5 N 84.81 CA 86.99 C 87.91 O 95.53 CB 93.48 CG 111.17 CD 119.07 NE 138.73 CZ 147.78 NH1 156.16 NH2 138.64
A PRO T 137 -55.4 119.6 N 90.21 CA 93.58 C 90.61 O 80.9 CB 93.51 CG 92.59 CD 96.35
A GLY T 22 114.6 -39.0 N 85.45 CA 84.95 C 87.22 O 93.79
A THR H 71 -57.2 -43.8 N 89.46 CA 90.6 C 86.56 O 86.45 CB 89.12 OG1 99.53 CG2 83.28
A VAL H 47 -66.0 -41.2 N 86.62 CA 90.81 C 94.33 O 95.26 CB 90.17 CG1 94.37 CG2 93.71
A ALA H 7 -51.8 -51.4 N 90.05 CA 83.36 C 88.14 O 88.3 CB 74.12
A LEU H 9 -59.3 -50.8 N 79.96 CA 85.38 C 87.64 O 88.91 CB 84.49 CG 82.5 CD1 83.56 CD2 92.92
A ARG H 125 -47.6 -43.1 N 87.79 CA 91.35 C 89.56 O 87.95 CB 101.72 CG 106.85 CD 113.26 NE 114.28 CZ 117.04 NH1 109.57 NH2 117.49
A GLU H 51 -61.9 -48.3 N 83.93 CA 83.31 C 82.52 O 79.05 CB 83.88 CG 85.34 CD 97.32 OE1 97.06 OE2 103.64
A ILE H 1 -51.8 -56.6 N 74.2 CA 68.98 C 72.25 O 78.81 CB 62.19 CG1 63.74 CG2 59.44 CD1 63.91
A ARG H 119 -58.3 -41.3 N 77.31 CA 76.75 C 75.3 O 85.94 CB 78.43 CG 84.87 CD 85.63 NE 88.46 CZ 91.04 NH1 90.86 NH2 86.34
A ARG H 146 -61.2 -45.6 N 76.62 CA 85.38 C 93.05 O 95.52 CB 89.31 CG 85.19 CD 89.98 NE 101.05 CZ 106.22 NH1 110.53 NH2 100.89
A TYR H 17 -82.6 -27.6 N 87.91 CA 79.47 C 80.63 O 86.15 CB 77.93 CG 88.9 CD1 94.04 CD2 93.18 CE1 97.58 CE2 99.83 CZ 101.89 OH 110.04
A GLN H 7 -73.4 -19.8 N 74.86 CA 75.49 C 82.38 O 91.1 CB 64.86 CG 63.4 CD 65.1 OE1 72.69 NE2 62.29
A LYS H 159 -77.2 -31.5 N 82.56 CA 81.98 C 77.63 O 83.2 CB 84.39 CG 101.25 CD 104.05 CE 112.75 NZ 121.44
A SER - 22 -104.7 171.5 N 70.92 CA 73.16 C 73.56 O 73.13 CB 77.13 OG 79.75
A THR - 30 -130.7 -0.3 N 68.4 CA 63.06 C 68.27 O 68.08 CB 62.43 OG1 63.18 CG2 56.13
A GLU - 83 -55.3 147.2 N 76.74 CA 73.21 C 73.03 O 78.24 CB 82.44 CG 93.63 CD 99.95 OE1 106.77 OE2 103.25
A LEU - 30 -70.2 152.8 N 68.64 CA 71.46 C 74.12 O 84.11 CB 76.63 CG 79.96 CD1 83.16 CD2 82.73
A LEU - 8 -117.9 -7.7 N 77.01 CA 73.45 C 79.9 O 89.64 CB 69.59 CG 71.74 CD1 74.75 CD2 70.6
A ILE S 7 -92.4 150.1 N 77.14 CA 80.4 C 83.57 O 91.13 CB 82.36 CG1 86.15 CG2 81.88 CD1 82.94
A ARG - 184 -88.9 126.2 N 76.59 CA 81.71 C 77.93 O 85.98 CB 83.87 CG 87.83 CD 94.7 NE 114.24 CZ 118.46 NH1 127.62 NH2 114.73
A LYS H 121 -47.3 -44.4 N 69.41 CA 74.42 C 75.75 O 84.73 CB 78.13 CG 97.41 CD 105.36 CE 102.41 NZ 109.97
A LEU H 105 -60.9 -61.2 N 76.33 CA 78.51 C 75.67 O 73.21 CB 75.94 CG 75.7 CD1 71.39 CD2 77.59
A PRO H 24 -48.7 -41.3 N 72.74 CA 73.05 C 75.87 O 69.54 CB 70.0 CG 72.11 CD 72.12
A PHE H 0 -60.5 -51.5 N 72.5 CA 77.68 C 78.79 O 84.35 CB 80.08 CG 83.1 CD1 81.1 CD2 86.04 CE1 79.11 CE2 82.82 CZ 84.41
A GLN H 59 -54.8 -37.0 N 79.15 CA 84.61 C 82.07 O 84.43 CB 91.62 CG 105.28 CD 111.16 OE1 121.07 NE2 110.59
A ARG H 81 -69.8 -40.3 N 79.83 CA 81.61 C 78.6 O 80.87 CB 91.73 CG 94.47 CD 89.47 NE 82.97 CZ 83.41 NH1 80.68 NH2 84.71
A LEU H 3 -63.4 -40.7 N 74.69 CA 73.42 C 71.32 O 74.23 CB 61.78 CG 61.41 CD1 57.15 CD2 60.77
A VAL H 0 -52.7 -62.4 N 63.77 CA 66.62 C 72.58 O 76.56 CB 69.54 CG1 65.86 CG2 72.76
A ARG H 89 -57.6 -36.4 N 75.25 CA 72.43 C 68.73 O 68.24 CB 69.34 CG 76.21 CD 80.09 NE 83.97 CZ 85.04 NH1 75.03 NH2 86.65
A GLU H 87 -61.0 -48.9 N 66.4 CA 67.6 C 70.99 O 74.68 CB 70.92 CG 79.88 CD 92.17 OE1 90.55 OE2 97.72
A ILE H 7 -68.4 -40.5 N 72.41 CA 70.28 C 68.14 O 66.39 CB 67.2 CG1 57.63 CG2 66.71 CD1 59.34
A ALA H 1 -61.3 -38.5 N 63.62 CA 70.33 C 72.56 O 68.28 CB 67.41
A GLN H 87 -53.6 -38.1 N 81.62 CA 88.09 C 80.23 O 77.92 CB 94.38 CG 98.29 CD 110.76 OE1 113.45 NE2 109.13
A ASP T 135 -58.8 -15.0 N 77.2 CA 82.45 C 80.69 O 74.52 CB 90.85 CG 107.58 OD1 119.67 OD2 110.54
A PHE T 64 -113.4 -38.8 N 80.13 CA 80.58 C 78.37 O 76.57 CB 82.45 CG 73.59 CD1 72.82 CD2 72.01 CE1 71.59 CE2 65.83 CZ 66.48
A LYS S 57 -144.5 145.1 N 79.73 CA 86.17 C 97.38 O 96.74 CB 86.7 CG 99.14 CD 107.05 CE 110.3 NZ 120.49
A THR S 105 -87.0 152.0 N 102.38 CA 97.07 C 93.9 O 96.13 CB 101.6 OG1 103.02 CG2 96.54
A ASP S 102 38.4 87.0 N 92.82 CA 104.56 C 100.31 O 94.03 CB 125.11 CG 137.05 OD1 135.28 OD2 142.03
A LEU - 15 -122.3 144.1 N 101.33 CA 96.72 C 94.1 O 90.69 CB 102.47 CG 106.39 CD1 112.65 CD2 99.94
A ARG E 173 -108.1 132.7 N 96.57 CA 101.39 C 95.12 O 101.32 CB 106.74 CG 114.12 CD 118.97 NE 119.72 CZ 113.84 NH1 106.29 NH2 106.73
A PHE E 20 -106.4 125.5 N 82.79 CA 81.57 C 86.25 O 102.61 CB 81.19 CG 77.01 CD1 78.77 CD2 74.07 CE1 80.99 CE2 74.04 CZ 75.78
A GLN - 74 -54.3 140.4 N 82.15 CA 77.15 C 81.74 O 81.32 CB 76.39 CG 78.82 CD 85.54 OE1 92.6 NE2 89.5
A SER H 94 -51.0 -49.2 N 83.9 CA 86.5 C 91.09 O 94.24 CB 86.52 OG 98.84
A SER H 43 -68.2 -28.3 N 86.67 CA 76.9 C 77.44 O 74.97 CB 72.8 OG 74.07
A ALA H 0 -64.4 -38.9 N 74.77 CA 74.14 C 71.33 O 81.54 CB 69.24
A VAL H 7 -74.5 -26.2 N 68.51 CA 66.13 C 67.02 O 67.66 CB 61.58 CG1 57.91 CG2 59.67
A MET H 41 -72.9 -46.1 N 75.44 CA 79.74 C 78.71 O 77.86 CB 87.56 CG 102.24 SD 112.91 CE 105.97
A ALA H 0 -48.1 -57.2 N 77.05 CA 74.05 C 71.35 O 77.1 CB 69.03
A LEU H 0 -56.1 -26.6 N 67.46 CA 66.21 C 67.99 O 67.79 CB 63.82 CG 63.88 CD1 65.35 CD2 60.5
A GLN H 1 -77.6 -48.3 N 67.41 CA 69.99 C 66.75 O 63.08 CB 70.56 CG 76.43 CD 78.9 OE1 78.99 NE2 70.84
A GLU H 18 -56.9 -48.1 N 60.83 CA 62.85 C 63.84 O 68.2 CB 71.62 CG 80.14 CD 84.11 OE1 89.68 OE2 82.44
A ALA H 4 -51.1 -53.6 N 57.76 CA 55.7 C 63.13 O 72.8 CB 53.19
A SER H 0 -67.0 -47.9 N 60.33 CA 59.87 C 63.34 O 72.83 CB 61.94 OG 60.07
A GLU H 6 -67.9 -41.1 N 65.88 CA 66.59 C 62.44 O 63.83 CB 74.62 CG 80.76 CD 88.45 OE1 97.2 OE2 95.64
A ALA H 32 -57.8 -37.2 N 58.17 CA 53.41 C 55.27 O 56.36 CB 50.9
A TYR H 6 -71.0 -41.4 N 52.67 CA 53.62 C 59.17 O 67.94 CB 57.37 CG 60.23 CD1 61.32 CD2 61.02 CE1 58.32 CE2 61.97 CZ 61.67 OH 58.52
A LEU H 2 -72.5 -38.2 N 63.42 CA 58.73 C 56.68 O 55.31 CB 57.04 CG 59.83 CD1 58.39 CD2 54.14
A VAL H 5 -64.1 -45.1 N 48.8 CA 52.32 C 55.7 O 61.78 CB 55.35 CG1 46.71 CG2 49.67
A ALA H 29 -62.3 -39.7 N 59.13 CA 53.14 C 56.42 O 60.14 CB 50.41
A LEU H 4 -61.1 -34.9 N 54.54 CA 53.21 C 54.39 O 53.05 CB 50.79 CG 47.88 CD1 46.22 CD2 45.18
A PHE H 2 -70.5 -42.0 N 55.47 CA 56.04 C 60.78 O 65.07 CB 56.47 CG 55.71 CD1 55.81 CD2 59.61 CE1 55.82 CE2 57.95 CZ 53.3
A GLU H 67 -50.3 -42.8 N 57.73 CA 55.1 C 59.24 O 60.99 CB 60.83 CG 74.47 CD 77.75 OE1 84.32 OE2 78.33
A ASP H 17 -75.7 -41.4 N 56.93 CA 54.71 C 59.9 O 60.96 CB 53.2 CG 60.25 OD1 64.71 OD2 56.21
A THR H 0 -55.8 -50.4 N 62.92 CA 59.45 C 60.47 O 61.58 CB 59.25 OG1 68.02 CG2 58.47
A ASN H 4 -52.4 -43.1 N 60.99 CA 59.72 C 60.03 O 66.2 CB 61.34 CG 65.4 OD1 66.18 ND2 67.64
A LEU H 17 -69.5 -26.6 N 55.42 CA 53.88 C 59.29 O 62.58 CB 54.33 CG 56.98 CD1 56.91 CD2 57.88
A CYS H 0 -75.9 -35.2 N 58.03 CA 58.96 C 59.96 O 55.52 CB 59.25 SG 56.5
A ALA H 0 -61.1 -54.3 N 57.07 CA 57.58 C 66.65 O 75.68 CB 58.81
A ILE H 42 -61.8 -23.0 N 60.83 CA 58.94 C 57.02 O 63.78 CB 59.47 CG1 63.06 CG2 55.05 CD1 65.33
A HIS H 21 -74.9 -30.2 N 59.2 CA 59.09 C 64.76 O 62.56 CB 52.68 CG 54.91 ND1 55.98 CD2 57.55 CE1 58.11 NE2 53.2
A ALA T 23 -83.1 3.8 N 69.8 CA 67.95 C 72.66 O 67.2 CB 69.99
A LYS T 182 69.3 26.3 N 73.05 CA 70.7 C 65.56 O 67.85 CB 69.33 CG 74.82 CD 77.89 CE 84.63 NZ 91.24
A ARG - 46 -110.9 175.8 N 64.84 CA 61.95 C 61.87 O 61.58 CB 62.13 CG 62.57 CD 60.26 NE 62.73 CZ 62.14 NH1 55.76 NH2 63.03
A VAL S 46 -128.0 -4.8 N 63.02 CA 59.38 C 58.93 O 59.69 CB 58.45 CG1 56.52 CG2 59.38
A THR E 18 -97.5 120.6 N 56.7 CA 60.73 C 61.56 O 66.41 CB 63.14 OG1 65.15 CG2 61.65
A ILE E 0 -75.3 140.7 N 59.14 CA 59.67 C 62.39 O 70.14 CB 58.57 CG1 52.53 CG2 60.46 CD1 51.55
A MET - 55 -135.3 165.3 N 61.02 CA 65.55 C 67.62 O 65.81 CB 71.87 CG 69.15 SD 78.0 CE 77.53
A PRO H 21 -52.6 -33.9 N 69.02 CA 68.37 C 65.2 O 65.99 CB 71.09 CG 70.24 CD 74.19
A LYS H 79 -63.8 -36.2 N 58.91 CA 53.23 C 60.44 O 69.57 CB 53.08 CG 60.79 CD 61.32 CE 69.84 NZ 75.17
A ASP H 0 -57.5 -43.2 N 58.07 CA 57.64 C 59.99 O 63.31 CB 54.27 CG 59.41 OD1 49.73 OD2 58.02
A ILE H 1 -64.9 -46.7 N 58.61 CA 61.4 C 61.33 O 58.61 CB 60.69 CG1 65.69 CG2 62.77 CD1 60.23
A GLN H 97 -61.2 -36.9 N 59.32 CA 57.5 C 57.56 O 58.69 CB 60.86 CG 67.88 CD 70.57 OE1 71.65 NE2 71.11
A LEU H 16 -70.6 -42.3 N 56.6 CA 52.36 C 55.43 O 57.82 CB 47.49 CG 48.05 CD1 45.33 CD2 42.64
A ALA H 0 -55.4 -49.6 N 53.21 CA 51.96 C 56.18 O 55.72 CB 43.57
A ARG H 53 -65.0 -42.8 N 54.33 CA 50.93 C 49.37 O 49.79 CB 49.68 CG 50.96 CD 57.73 NE 58.34 CZ 57.88 NH1 62.87 NH2 63.04
A ARG H 101 -61.2 -44.8 N 48.1 CA 48.56 C 50.6 O 57.4 CB 45.69 CG 50.76 CD 57.63 NE 67.36 CZ 69.0 NH1 70.73 NH2 58.21
A ILE H 6 -71.4 -26.5 N 48.59 CA 52.29 C 52.55 O 53.3 CB 57.08 CG1 55.77 CG2 59.71 CD1 56.01
A ARG H 47 -75.4 -18.5 N 54.74 CA 51.93 C 56.92 O 62.1 CB 50.32 CG 48.76 CD 50.13 NE 50.65 CZ 48.27 NH1 46.99 NH2 48.34
A GLY T 56 90.1 31.1 N 58.33 CA 60.42 C 69.96 O 69.86
A GLU - 98 -109.4 360.0 N 71.8 CA 68.7 C 72.51 O 79.51 CB 69.67 CG 62.61 CD 70.34 OE1 74.84 OE2 65.43
B VAL - 194 360.0 110.0 N 139.86 CA 151.6 C 155.09 O 155.33 CB 148.65 CG1 137.91 CG2 143.24
B LEU - 168 -76.2 144.6 N 157.83 CA 154.37 C 154.24 O 156.03 CB 152.03 CG 153.57 CD1 151.69 CD2 150.5
B ARG - 129 -169.1 126.5 N 147.94 CA 131.73 C 125.83 O 121.58 CB 128.08 CG 137.38 CD 141.54 NE 150.17 CZ 156.45 NH1 159.87 NH2 151.49
B ASP - 106 -45.0 149.0 N 118.75 CA 114.94 C 108.63 O 110.05 CB 116.28 CG 125.57 OD1 133.25 OD2 121.21
B ASN S 37 -62.5 -42.8 N 93.73 CA 86.41 C 86.34 O 82.01 CB 82.51 CG 89.94 OD1 81.72 ND2 87.33
B ILE G 27 -55.9 -37.3 N 86.71 CA 80.68 C 78.74 O 82.41 CB 78.49 CG1 73.11 CG2 79.57 CD1 73.64
B GLN G 58 -69.9 -10.7 N 79.11 CA 77.04 C 75.27 O 73.15 CB 76.34 CG 84.39 CD 87.62 OE1 84.46 NE2 83.2
B GLY G 4 -63.1 -24.0 N 74.61 CA 82.48 C 90.41 O 93.27
B ILE S 2 -80.9 99.4 N 91.03 CA 84.94 C 87.57 O 83.89 CB 82.88 CG1 84.74 CG2 80.93 CD1 79.5
B THR - 57 -88.1 153.3 N 85.2 CA 83.3 C 77.56 O 84.53 CB 83.94 OG1 81.31 CG2 86.96
B LYS H 109 -44.3 -50.3 N 77.96 CA 71.5 C 71.94 O 74.01 CB 70.15 CG 71.81 CD 71.34 CE 71.14 NZ 68.52
B PRO H 66 -57.9 -44.6 N 77.61 CA 78.33 C 82.12 O 83.79 CB 78.92 CG 78.03 CD 78.81
B ALA H 2 -63.1 -52.2 N 77.52 CA 73.75 C 66.12 O 60.64 CB 71.88
B ILE H 1 -49.4 -49.6 N 59.29 CA 63.42 C 73.73 O 84.65 CB 57.5 CG1 53.88 CG2 64.54 CD1 57.63
B ARG H 69 -60.5 -40.0 N 75.33 CA 75.98 C 73.51 O 77.44 CB 85.33 CG 95.71 CD 95.26 NE 95.83 CZ 99.55 NH1 90.62 NH2 97.88
B ARG H 51 -61.8 -42.0 N 72.7 CA 76.97 C 75.55 O 66.36 CB 79.84 CG 88.13 CD 92.03 NE 102.27 CZ 101.68 NH1 105.61 NH2 94.17
B LEU H 0 -60.3 -54.9 N 71.63 CA 65.7 C 63.32 O 64.56 CB 64.45 CG 62.77 CD1 62.34 CD2 62.07
B ALA H 1 -45.6 -45.3 N 56.79 CA 60.88 C 64.95 O 63.58 CB 64.21
B ARG H 7 -57.5 -53.1 N 65.33 CA 62.36 C 63.13 O 63.47 CB 64.3 CG 64.31 CD 65.94 NE 70.01 CZ 79.45 NH1 78.04 NH2 88.92
B ARG H 12 -56.9 -35.3 N 57.25 CA 57.45 C 56.32 O 59.95 CB 59.89 CG 61.42 CD 61.76 NE 68.36 CZ 66.77 NH1 64.3 NH2 64.6
B GLY T 6 -71.6 4.7 N 56.61 CA 55.92 C 55.47 O 60.55
B GLY T 4 77.6 19.3 N 56.63 CA 57.02 C 62.16 O 57.83
B VAL - 0 -86.6 129.3 N 66.35 CA 69.99 C 73.88 O 72.92 CB 68.32 CG1 65.65 CG2 61.6
B LYS - 46 -95.7 -45.8 N 82.12 CA 79.2 C 80.18 O 88.26 CB 78.71 CG 83.17 CD 86.36 CE 87.07 NZ 93.86
B ARG E 152 -134.4 137.0 N 74.65 CA 80.11 C 78.68 O 77.81 CB 87.81 CG 83.48 CD 88.05 NE 87.42 CZ 89.87 NH1 82.78 NH2 100.57
B ILE E 16 -130.7 111.6 N 71.67 CA 67.13 C 66.43 O 74.78 CB 65.04 CG1 62.09 CG2 69.68 CD1 63.89
B SER - 24 -52.9 135.5 N 66.64 CA 64.47 C 68.98 O 74.75 CB 67.1 OG 63.34
B GLY T 58 -62.5 -17.3 N 72.64 CA 67.16 C 70.66 O 77.38
B LEU T 123 -73.8 -15.2 N 68.12 CA 72.75 C 70.94 O 72.39 CB 77.75 CG 83.33 CD1 85.34 CD2 82.37
B ILE H 0 -56.3 -49.0 N 71.37 CA 73.04 C 69.7 O 70.29 CB 68.96 CG1 72.45 CG2 70.39 CD1 77.79
B TYR H 14 -57.6 -44.1 N 69.04 CA 72.47 C 68.67 O 67.21 CB 73.6 CG 74.12 CD1 70.38 CD2 70.32 CE1 69.96 CE2 74.29 CZ 77.14 OH 78.61
B GLU H 108 -61.0 -49.8 N 63.36 CA 68.03 C 69.21 O 70.99 CB 71.78 CG 76.95 CD 80.13 OE1 83.43 OE2 75.65
B GLU H 54 -57.4 -44.5 N 69.97 CA 64.35 C 63.15 O 62.84 CB 59.44 CG 64.57 CD 75.1 OE1 76.82 OE2 82.06
B THR H 4 -56.7 -36.0 N 58.24 CA 61.92 C 64.25 O 72.81 CB 65.74 OG1 74.02 CG2 58.66
B ARG H 21 -71.5 -38.6 N 69.42 CA 70.49 C 61.25 O 62.32 CB 73.05 CG 66.9 CD 66.66 NE 69.22 CZ 66.9 NH1 62.16 NH2 67.24
B GLY H 40 -58.7 -42.7 N 61.83 CA 65.19 C 70.21 O 70.68
B VAL H 4 -67.0 -42.7 N 64.62 CA 59.37 C 58.76 O 58.74 CB 61.03 CG1 62.59 CG2 58.02
B LEU H 1 -69.6 -31.7 N 56.01 CA 52.55 C 58.67 O 63.11 CB 52.92 CG 56.13 CD1 52.21 CD2 56.55
B LYS H 92 -63.4 -51.7 N 60.13 CA 63.73 C 65.22 O 69.87 CB 70.63 CG 76.12 CD 80.34 CE 78.21 NZ 85.22
B VAL H 51 -59.6 -36.1 N 65.48 CA 63.29 C 65.24 O 70.75 CB 60.24 CG1 60.91 CG2 62.31
B PHE H 15 -62.1 -59.5 N 57.04 CA 56.3 C 60.3 O 62.37 CB 53.27 CG 57.19 CD1 57.66 CD2 62.24 CE1 63.58 CE2 65.3 CZ 63.36
B LEU H 0 -54.8 -44.9 N 62.23 CA 60.26 C 57.4 O 57.55 CB 58.22 CG 58.94 CD1 58.63 CD2 61.11
B GLU H 43 -51.1 -54.8 N 53.38 CA 54.91 C 59.16 O 55.38 CB 61.84 CG 69.41 CD 77.91 OE1 87.44 OE2 79.68
B ASN H 48 -59.1 -42.1 N 57.41 CA 56.47 C 56.91 O 63.77 CB 54.94 CG 57.77 OD1 65.69 ND2 63.32
B VAL H 2 -75.1 -48.4 N 53.33 CA 58.89 C 62.24 O 60.84 CB 60.76 CG1 60.14 CG2 64.61
B ILE H 1 -61.5 -46.8 N 61.47 CA 58.94 C 58.36 O 61.36 CB 65.95 CG1 66.53 CG2 70.91 CD1 66.82
B ARG H 97 -43.5 -55.3 N 55.54 CA 61.26 C 64.9 O 64.42 CB 59.53 CG 70.96 CD 78.23 NE 89.24 CZ 92.44 NH1 94.07 NH2 93.65
B ASP H 8 -65.2 -41.8 N 61.27 CA 58.57 C 57.75 O 54.63 CB 58.49 CG 66.32 OD1 68.96 OD2 70.39
B ALA H 1 -56.3 -51.9 N 55.54 CA 53.67 C 56.65 O 55.41 CB 48.99
B VAL H 1 -60.6 -55.1 N 58.7 CA 61.17 C 63.45 O 66.42 CB 59.78 CG1 62.05 CG2 57.19
B THR H 19 -41.5 -33.2 N 55.79 CA 56.81 C 60.25 O 57.53 CB 54.77 OG1 58.45 CG2 48.18
B TYR H 6 -70.8 -62.4 N 62.1 CA 64.52 C 72.01 O 75.22 CB 67.36 CG 71.82 CD1 71.84 CD2 65.02 CE1 66.96 CE2 65.49 CZ 65.4 OH 61.18
B THR H 0 -35.3 -66.2 N 78.4 CA 74.5 C 75.44 O 69.84 CB 73.58 OG1 81.89 CG2 73.48
B GLU H 84 -48.9 -41.8 N 79.64 CA 79.77 C 73.38 O 86.25 CB 86.63 CG 100.35 CD 112.83 OE1 117.48 OE2 117.72
B HIS H 8 -63.4 -36.4 N 72.56 CA 73.06 C 77.28 O 77.95 CB 62.36 CG 59.17 ND1 56.7 CD2 54.48 CE1 57.66 NE2 53.93
B ALA T 26 -72.8 2.6 N 73.04 CA 74.22 C 82.75 O 80.98 CB 68.23
B LYS T 161 44.8 62.5 N 85.49 CA 81.09 C 81.24 O 85.58 CB 82.59 CG 85.05 CD 82.99 CE 86.07 NZ 88.15
B ARG - 73 -125.2 169.9 N 76.74 CA 72.54 C 76.8 O 73.42 CB 69.45 CG 71.17 CD 77.39 NE 86.09 CZ 85.28 NH1 93.42 NH2 87.7
B LYS S 131 -116.0 -8.5 N 80.41 CA 87.13 C 80.79 O 84.87 CB 93.51 CG 99.05 CD 111.89 CE 117.94 NZ 128.54
B THR E 42 -114.2 132.9 N 86.28 CA 93.15 C 96.16 O 102.54 CB 98.15 OG1 105.53 CG2 97.33
B VAL E 2 -78.7 106.9 N 89.32 CA 79.49 C 79.25 O 81.51 CB 78.98 CG1 85.9 CG2 78.86
B THR - 24 -75.4 154.7 N 80.1 CA 77.29 C 77.72 O 75.32 CB 80.03 OG1 75.98 CG2 88.71
B ALA H 5 -53.5 -41.9 N 73.33 CA 69.44 C 70.84 O 78.08 CB 63.21
B MET H 49 -47.6 -43.4 N 70.63 CA 69.42 C 72.15 O 82.51 CB 66.06 CG 67.47 SD 71.43 CE 70.17
B ASP H 5 -56.6 -43.3 N 72.34 CA 73.73 C 68.81 O 76.5 CB 81.17 CG 84.27 OD1 88.02 OD2 85.54
B VAL H 0 -71.4 -47.3 N 68.98 CA 67.45 C 67.03 O 66.71 CB 64.2 CG1 63.39 CG2 61.66
B VAL H 10 -56.1 -37.4 N 64.93 CA 63.65 C 65.54 O 74.44 CB 62.5 CG1 60.93 CG2 57.99
B TYR H 44 -77.0 -26.0 N 62.77 CA 61.88 C 66.15 O 69.48 CB 64.49 CG 69.27 CD1 74.43 CD2 75.82 CE1 79.55 CE2 85.73 CZ 87.12 OH 91.63
B ALA H 0 -74.3 -49.3 N 62.15 CA 59.96 C 61.75 O 62.05 CB 61.01
B LEU H 0 -54.1 -42.0 N 59.21 CA 53.6 C 55.97 O 58.86 CB 49.36 CG 50.24 CD1 48.49 CD2 46.33
B LYS H 63 -60.9 -47.0 N 54.02 CA 54.67 C 56.26 O 63.63 CB 56.37 CG 60.17 CD 69.09 CE 71.43 NZ 75.66
B ARG H 58 -76.4 -19.1 N 56.14 CA 53.9 C 56.58 O 56.08 CB 54.95 CG 55.36 CD 53.52 NE 50.87 CZ 54.59 NH1 54.93 NH2 52.71
B GLN T 67 -78.3 -4.1 N 59.38 CA 57.13 C 57.62 O 64.38 CB 60.07 CG 61.49 CD 67.77 OE1 68.47 NE2 66.49
B GLY T 37 75.6 21.2 N 51.84 CA 49.49 C 54.01 O 54.27
B ARG - 63 -114.6 40.8 N 58.58 CA 57.26 C 58.12 O 62.5 CB 54.38 CG 66.27 CD 70.24 NE 81.75 CZ 80.68 NH1 89.69 NH2 66.15
B THR - 25 -38.6 131.1 N 57.17 CA 51.35 C 54.08 O 60.38 CB 52.61 OG1 62.9 CG2 50.95
B LEU E 3 -123.1 127.9 N 58.11 CA 57.92 C 58.87 O 65.72 CB 54.93 CG 57.32 CD1 57.45 CD2 53.69
B TYR E 5 -94.4 149.5 N 62.76 CA 60.15 C 66.56 O 72.45 CB 57.93 CG 57.0 CD1 55.23 CD2 52.02 CE1 53.57 CE2 50.56 CZ 54.82 OH 55.85
B GLY S 11 119.4 -23.9 N 74.43 CA 74.92 C 82.15 O 80.98
B PHE S 47 -108.8 24.7 N 76.89 CA 73.94 C 73.59 O 71.96 CB 66.4 CG 73.32 CD1 69.84 CD2 77.18 CE1 69.15 CE2 72.67 CZ 68.89
B GLY - 27 112.7 -174.9 N 74.91 CA 76.3 C 81.16 O 90.12
B GLY - 36 84.8 360.0 N 78.23 CA 80.98 C 86.27 O 90.14 OXT 84.8
C ALA - 158 360.0 127.4 N 129.23 CA 128.14 C 127.26 O 134.02 CB 124.37
C LYS - 150 -147.5 123.7 N 114.9 CA 105.45 C 95.41 O 88.62 CB 111.19 CG 117.3 CD 117.64 CE 114.63 NZ 98.47
C THR - 90 -57.9 147.1 N 83.77 CA 74.78 C 72.46 O 72.32 CB 75.86 OG1 74.69 CG2 73.55
C ARG H 75 -63.2 -23.8 N 71.67 CA 70.93 C 70.88 O 75.78 CB 67.06 CG 66.72 CD 67.29 NE 66.55 CZ 65.59 NH1 66.26 NH2 75.67
C SER H 17 -65.1 -55.9 N 70.81 CA 66.15 C 71.55 O 81.96 CB 64.8 OG 64.34
C SER H 55 -59.8 -35.5 N 74.39 CA 77.85 C 72.6 O 69.54 CB 83.85 OG 90.21
C ARG H 65 -59.0 -33.8 N 68.01 CA 69.1 C 67.03 O 71.52 CB 79.55 CG 88.91 CD 95.71 NE 104.44 CZ 114.68 NH1 118.95 NH2 116.76
C ALA H 2 -98.3 -6.0 N 68.27 CA 63.52 C 59.36 O 58.92 CB 63.14
C GLY T 44 67.0 54.5 N 59.11 CA 60.68 C 65.23 O 71.55
C LEU - 17 -132.7 143.7 N 61.16 CA 55.91 C 57.43 O 53.16 CB 53.49 CG 55.67 CD1 56.35 CD2 57.61
C GLN S 65 -82.1 -24.8 N 55.61 CA 58.03 C 63.79 O 67.2 CB 61.77 CG 64.78 CD 67.45 OE1 70.19 NE2 73.75
C PHE S 0 -85.4 150.3 N 64.73 CA 60.88 C 64.85 O 65.28 CB 57.65 CG 52.95 CD1 52.62 CD2 55.29 CE1 51.45 CE2 48.54 CZ 50.18
C PRO - 11 -85.5 105.0 N 69.62 CA 63.42 C 64.01 O 70.53 CB 66.76 CG 66.03 CD 72.57
C VAL H 0 -69.9 -30.1 N 60.62 CA 60.93 C 62.09 O 66.3 CB 61.87 CG1 56.71 CG2 55.76
C GLY H 34 -59.2 -67.3 N 61.44 CA 60.32 C 60.67 O 60.2
C ARG H 39 -36.7 -61.4 N 58.78 CA 53.5 C 60.33 O 71.82 CB 52.15 CG 51.8 CD 55.75 NE 60.67 CZ 70.52 NH1 71.84 NH2 67.02
C VAL H 0 -55.9 -32.8 N 56.25 CA 58.14 C 63.35 O 62.57 CB 52.51 CG1 52.95 CG2 52.92
C HIS H 13 -67.9 -54.7 N 66.88 CA 69.96 C 68.55 O 69.11 CB 69.45 CG 73.39 ND1 76.17 CD2 75.25 CE1 75.65 NE2 76.29
C ARG H 102 -51.0 -44.7 N 60.54 CA 64.36 C 73.55 O 78.97 CB 66.45 CG 68.18 CD 75.15 NE 75.69 CZ 73.83 NH1 71.08 NH2 79.45
C LEU H 35 -67.8 -31.8 N 71.65 CA 58.63 C 61.62 O 69.59 CB 52.02 CG 51.53 CD1 46.32 CD2 54.95
C LEU H 0 -72.0 -29.7 N 62.81 CA 63.62 C 68.32 O 64.18 CB 55.84 CG 55.77 CD1 53.87 CD2 50.78
C ARG H 126 -72.9 -55.6 N 72.3 CA 76.61 C 77.25 O 78.55 CB 74.39 CG 82.59 CD 91.5 NE 91.86 CZ 98.43 NH1 96.81 NH2 93.77
C LYS H 126 -62.9 -27.5 N 77.89 CA 78.09 C 78.22 O 96.25 CB 78.57 CG 86.09 CD 93.23 CE 95.99 NZ 102.7
C GLY T 15 -84.2 6.7 N 71.94 CA 60.69 C 63.62 O 66.05
C ASN T 26 41.0 64.3 N 62.66 CA 71.21 C 68.77 O 72.55 CB 73.01 CG 83.04 OD1 79.85 ND2 84.81
C TYR S 38 -89.8 -21.0 N 64.65 CA 58.68 C 57.61 O 54.31 CB 54.47 CG 53.09 CD1 57.62 CD2 51.7 CE1 54.25 CE2 48.68 CZ 54.36 OH 59.47
C ALA - 9 -168.1 167.6 N 58.9 CA 65.7 C 69.01 O 66.4 CB 63.97
C GLU S 118 -55.6 -58.0 N 75.67 CA 81.31 C 82.42 O 84.65 CB 84.21 CG 103.08 CD 107.22 OE1 109.07 OE2 95.5
C ARG E 166 -115.8 146.3 N 79.9 CA 77.59 C 70.58 O 78.18 CB 83.78 CG 88.19 CD 100.47 NE 111.97 CZ 119.67 NH1 115.59 NH2 125.83
C VAL E 9 -119.8 108.1 N 65.51 CA 64.93 C 64.26 O 63.91 CB 66.35 CG1 60.17 CG2 63.24
C GLY - 19 -55.3 164.7 N 61.03 CA 59.92 C 66.74 O 72.76
C ALA S 63 -75.1 -29.2 N 70.38 CA 73.17 C 76.79 O 71.46 CB 76.96
C GLY S 18 -88.0 -12.0 N 69.58 CA 71.1 C 72.23 O 72.77
C ALA H 0 -55.7 -50.7 N 71.83 CA 59.48 C 57.32 O 61.69 CB 55.37
C PRO H 0 -70.8 -32.4 N 55.0 CA 58.64 C 62.8 O 58.48 CB 58.04 CG 55.5 CD 55.06
C VAL H 0 -57.4 -54.8 N 66.56 CA 61.59 C 56.65 O 53.51 CB 67.14 CG1 67.6 CG2 60.79
C TYR H 5 -58.9 -54.8 N 49.97 CA 48.38 C 53.69 O 55.23 CB 47.17 CG 51.19 CD1 53.88 CD2 57.6 CE1 57.71 CE2 60.09 CZ 61.0 OH 62.65
C LEU H 0 -62.6 -37.8 N 49.49 CA 49.45 C 49.3 O 54.67 CB 53.71 CG 54.95 CD1 55.11 CD2 54.21
C ALA H 0 -62.8 -36.0 N 47.19 CA 49.32 C 52.66 O 50.17 CB 48.43
C ALA H 2 -61.6 -57.5 N 49.27 CA 51.93 C 53.39 O 51.51 CB 48.27
C VAL H 0 -49.4 -47.6 N 54.46 CA 51.84 C 52.88 O 56.97 CB 49.59 CG1 46.24 CG2 53.94
C LEU H 2 -61.3 -51.8 N 48.13 CA 49.73 C 50.91 O 50.41 CB 52.69 CG 52.35 CD1 49.32 CD2 48.16
C GLU H 24 -50.1 -46.8 N 56.98 CA 51.78 C 50.67 O 52.09 CB 58.58 CG 64.01 CD 67.06 OE1 66.15 OE2 71.93
C TYR H 17 -57.0 -68.7 N 48.49 CA 46.4 C 48.39 O 44.64 CB 50.31 CG 58.8 CD1 61.44 CD2 61.51 CE1 69.13 CE2 67.35 CZ 71.65 OH 73.22
C LEU H 0 -37.1 -42.9 N 46.59 CA 43.22 C 47.96 O 49.97 CB 43.36 CG 47.79 CD1 46.83 CD2 46.15
C THR H 0 -72.7 -37.5 N 42.61 CA 45.31 C 51.32 O 51.27 CB 44.67 OG1 51.3 CG2 38.99
C ALA H 19 -56.9 -46.5 N 55.08 CA 51.79 C 52.72 O 50.55 CB 49.2
C GLU H 49 -61.3 -36.6 N 51.36 CA 51.0 C 54.45 O 61.91 CB 56.35 CG 66.68 CD 78.08 OE1 83.12 OE2 81.54
C ILE H 5 -88.2 -33.7 N 51.55 CA 50.28 C 47.3 O 48.84 CB 53.31 CG1 51.86 CG2 56.22 CD1 58.89
C LEU H 0 -57.9 -47.0 N 46.77 CA 46.58 C 51.3 O 56.04 CB 46.94 CG 51.06 CD1 51.27 CD2 54.36
C GLU H 70 -46.8 -60.9 N 47.37 CA 50.88 C 50.54 O 53.88 CB 55.53 CG 63.93 CD 70.56 OE1 71.76 OE2 78.72
C LEU H 44 -69.0 -31.0 N 47.37 CA 46.86 C 51.08 O 53.68 CB 43.04 CG 38.99 CD1 38.51 CD2 39.19
C ALA H 0 -71.6 -47.6 N 49.42 CA 50.49 C 52.71 O 52.77 CB 48.79
C GLY H 0 -39.8 -51.1 N 57.09 CA 49.74 C 46.2 O 40.19
C ASN H 57 -57.4 -42.5 N 48.66 CA 50.52 C 50.89 O 58.01 CB 52.91 CG 54.45 OD1 58.82 ND2 61.47
C ALA H 8 -71.5 -39.0 N 50.45 CA 49.25 C 49.44 O 52.61 CB 49.88
C ALA H 0 -50.5 -53.6 N 48.27 CA 51.49 C 61.93 O 64.93 CB 43.96
C ARG H 183 -55.0 -54.7 N 63.37 CA 62.92 C 61.55 O 66.76 CB 70.24 CG 75.24 CD 87.64 NE 105.48 CZ 107.58 NH1 107.24 NH2 106.08
C ASP H 123 -52.4 -23.2 N 56.31 CA 61.98 C 64.9 O 64.81 CB 63.42 CG 71.84 OD1 84.97 OD2 73.87
C ASN T 73 -107.3 31.4 N 70.21 CA 72.03 C 71.55 O 80.93 CB 77.77 CG 91.75 OD1 94.44 ND2 87.01
C LYS T 200 45.6 40.4 N 68.59 CA 72.48 C 68.21 O 76.87 CB 77.28 CG 93.72 CD 100.15 CE 101.44 NZ 110.02
C LYS - 118 -123.1 142.4 N 61.57 CA 64.81 C 62.94 O 70.97 CB 70.83 CG 68.82 CD 72.23 CE 72.33 NZ 74.91
C THR S 98 -81.7 -36.2 N 60.18 CA 57.48 C 61.66 O 61.71 CB 63.39 OG1 64.24 CG2 62.13
C ARG E 152 -101.6 134.6 N 65.66 CA 61.79 C 62.36 O 67.72 CB 68.04 CG 73.72 CD 77.97 NE 81.36 CZ 85.0 NH1 85.48 NH2 93.98
C ILE E 0 -79.4 126.6 N 60.26 CA 60.06 C 61.08 O 61.34 CB 66.98 CG1 66.55 CG2 60.83 CD1 61.18
C ILE - 67 -116.6 172.2 N 56.33 CA 50.39 C 54.74 O 64.95 CB 45.6 CG1 43.72 CG2 42.41 CD1 42.91
C PRO H 11 -51.2 -34.8 N 53.84 CA 45.51 C 44.14 O 47.5 CB 47.15 CG 44.58 CD 48.4
C ARG H 31 -59.6 -35.8 N 44.42 CA 43.96 C 45.41 O 49.8 CB 38.75 CG 41.3 CD 45.73 NE 53.61 CZ 52.82 NH1 43.05 NH2 60.04
C HIS H 5 -67.4 -37.2 N 46.1 CA 45.46 C 46.16 O 45.54 CB 39.98 CG 39.61 ND1 41.33 CD2 41.24 CE1 40.84 NE2 40.93
C LEU H 0 -70.4 -23.9 N 45.35 CA 44.95 C 48.04 O 46.19 CB 41.88 CG 42.2 CD1 46.55 CD2 44.32
C GLN H 22 -77.3 -47.5 N 45.26 CA 44.7 C 44.64 O 47.64 CB 43.48 CG 46.16 CD 48.17 OE1 49.12 NE2 44.24
C LEU H 23 -55.9 -46.0 N 45.03 CA 47.9 C 48.73 O 50.61 CB 43.02 CG 48.34 CD1 48.65 CD2 45.33
C ALA H 6 -54.9 -59.1 N 42.65 CA 42.81 C 45.66 O 59.76 CB 44.47
C VAL H 0 -66.6 -45.1 N 47.07 CA 46.89 C 47.67 O 45.94 CB 48.39 CG1 49.29 CG2 42.15
C ARG H 47 -77.0 -15.9 N 49.35 CA 44.38 C 45.53 O 52.9 CB 42.31 CG 42.91 CD 39.46 NE 39.23 CZ 39.31 NH1 38.76 NH2 32.02
C ASN T 115 -90.8 8.8 N 50.51 CA 48.18 C 51.83 O 51.71 CB 45.73 CG 54.08 OD1 58.51 ND2 45.48
C ASP S 44 -131.8 107.7 N 52.8 CA 47.02 C 47.31 O 53.18 CB 47.2 CG 58.75 OD1 54.41 OD2 61.37
C GLU H 169 -39.7 -50.3 N 51.64 CA 54.88 C 52.17 O 55.13 CB 65.34 CG 82.76 CD 97.03 OE1 94.73 OE2 114.09
C GLU H 44 -77.9 -49.3 N 55.11 CA 57.69 C 51.35 O 46.96 CB 59.39 CG 62.8 CD 71.93 OE1 70.76 OE2 70.85
C LEU H 0 -61.1 -44.8 N 51.51 CA 48.26 C 54.41 O 59.37 CB 42.56 CG 45.2 CD1 42.04 CD2 44.42
C ASN H 64 -46.8 -49.0 N 51.78 CA 49.73 C 48.85 O 52.98 CB 49.01 CG 50.28 OD1 54.29 ND2 51.58
C LYS H 141 -64.1 -48.0 N 49.09 CA 48.57 C 48.84 O 52.85 CB 57.5 CG 67.54 CD 88.39 CE 101.32 NZ 100.56
C LEU H 6 -55.2 -33.7 N 49.71 CA 49.69 C 51.61 O 53.06 CB 49.95 CG 49.29 CD1 42.77 CD2 42.62
C LEU T 1 -111.1 41.9 N 45.8 CA 44.48 C 51.14 O 45.17 CB 43.82 CG 45.35 CD1 41.52 CD2 45.05
C GLY T 48 -60.0 -31.6 N 50.01 CA 47.22 C 49.5 O 51.89
C ARG T 162 -124.4 45.0 N 47.15 CA 43.7 C 41.51 O 48.2 CB 49.64 CG 57.0 CD 77.81 NE 102.85 CZ 116.71 NH1 123.96 NH2 101.68
C VAL E 12 -139.1 143.6 N 39.19 CA 38.99 C 39.64 O 43.09 CB 37.04 CG1 36.3 CG2 38.78
C THR E 21 -118.6 124.7 N 38.5 CA 40.31 C 41.23 O 38.1 CB 43.25 OG1 44.58 CG2 38.1
C ILE E 10 -94.4 117.8 N 39.54 CA 40.1 C 40.1 O 41.41 CB 39.87 CG1 38.75 CG2 37.78 CD1 34.77
C ALA T 8 -60.6 146.8 N 41.48 CA 46.89 C 47.94 O 54.55 CB 41.97
C GLN T 45 53.0 23.3 N 49.33 CA 49.04 C 50.4 O 50.06 CB 51.05 CG 61.13 CD 72.87 OE1 80.82 NE2 58.47
C GLY - 2 -75.4 -35.6 N 48.69 CA 45.44 C 46.72 O 57.2
C GLY - 17 76.0 -168.2 N 46.59 CA 46.99 C 46.85 O 42.18
C VAL - 20 -121.9 168.9 N 48.22 CA 50.01 C 49.24 O 53.5 CB 46.23 CG1 37.91 CG2 45.82
C LEU - 49 -71.5 129.6 N 49.74 CA 54.78 C 58.54 O 59.18 CB 46.26 CG 44.57 CD1 39.32 CD2 47.62
C PRO - 85 -53.7 123.4 N 61.96 CA 59.3 C 51.5 O 57.41 CB 53.33 CG 56.32 CD 59.99
C ASN - 99 -165.2 126.6 N 51.36 CA 54.82 C 60.53 O 63.72 CB 57.62 CG 66.49 OD1 76.12 ND2 66.53
C ILE - 35 -131.1 143.5 N 61.43 CA 61.81 C 58.37 O 69.12 CB 61.58 CG1 62.3 CG2 54.43 CD1 66.35
C GLN - 65 -88.0 146.0 N 60.03 CA 63.22 C 63.96 O 67.92 CB 61.08 CG 57.91 CD 60.67 OE1 59.29 NE2 55.49
C SER G 99 -48.2 -62.3 N 69.37 CA 71.09 C 70.88 O 74.78 CB 74.32 OG 84.21
C VAL G 86 -50.2 -15.2 N 65.51 CA 62.66 C 62.02 O 75.37 CB 64.19 CG1 68.84 CG2 73.3
C LEU G 0 -96.4 -2.0 N 58.4 CA 63.25 C 72.01 O 78.23 CB 62.11 CG 56.91 CD1 54.61 CD2 62.45
C LEU S 84 -88.6 148.1 N 78.23 CA 72.88 C 79.06 O 80.71 CB 67.49 CG 67.0 CD1 66.27 CD2 63.2
C PRO S 82 -69.0 178.3 N 83.73 CA 84.48 C 94.98 O 96.99 CB 84.76 CG 78.78 CD 75.95
C LYS - 191 56.3 -124.7 N 111.55 CA 120.3 C 132.72 O 127.44 CB 115.75 CG 115.82 CD 116.55 CE 119.66 NZ 119.83
C LYS - 230 -151.3 360.0 N 147.32 CA 149.45 C 151.16 O 152.16 CB 147.43 CG 147.39 CD 142.65 CE 139.0 NZ 135.93
D LYS - 253 360.0 15.1 N 130.69 CA 131.05 C 120.51 O 110.85 CB 132.57 CG 135.75 CD 129.61 CE 120.44 NZ 111.62
D THR - 127 -39.2 129.4 N 118.0 CA 117.38 C 113.89 O 108.67 CB 116.2 OG1 123.96 CG2 109.52
D ARG - 184 -64.7 148.4 N 117.12 CA 110.27 C 97.79 O 84.95 CB 115.95 CG 128.29 CD 138.17 NE 138.09 CZ 135.9 NH1 128.95 NH2 134.23
D LYS - 202 -110.0 124.7 N 89.84 CA 90.81 C 82.65 O 72.7 CB 93.15 CG 100.18 CD 111.62 CE 112.94 NZ 107.48
D GLU - 66 -80.9 156.2 N 77.65 CA 71.6 C 69.88 O 64.61 CB 67.24 CG 77.57 CD 86.29 OE1 80.33 OE2 83.48
D SER - 41 -159.4 154.5 N 65.71 CA 57.87 C 59.03 O 60.31 CB 53.18 OG 55.18
D TYR S 5 -86.0 12.0 N 49.32 CA 47.65 C 51.15 O 43.75 CB 46.42 CG 47.35 CD1 46.42 CD2 47.46 CE1 48.13 CE2 47.17 CZ 48.18 OH 54.07
D ALA H 30 -49.8 -49.4 N 52.34 CA 54.28 C 58.59 O 65.69 CB 46.19
D ILE H 100 -62.0 -36.0 N 58.23 CA 65.23 C 63.52 O 66.31 CB 61.8 CG1 58.94 CG2 53.05 CD1 64.43
D TYR H 32 -76.4 -40.6 N 56.08 CA 54.85 C 53.94 O 55.24 CB 57.04 CG 64.41 CD1 66.86 CD2 66.49 CE1 72.41 CE2 72.67 CZ 77.52 OH 83.99
D VAL H 0 -55.7 -45.6 N 49.24 CA 52.17 C 56.02 O 66.06 CB 50.91 CG1 48.13 CG2 44.81
D TYR H 112 -62.5 -35.6 N 56.59 CA 57.16 C 59.26 O 65.51 CB 62.15 CG 68.03 CD1 74.27 CD2 78.42 CE1 82.92 CE2 84.36 CZ 90.02 OH 94.68
D LYS H 97 -60.7 -57.5 N 56.97 CA 56.15 C 61.28 O 68.06 CB 54.86 CG 59.2 CD 61.49 CE 70.15 NZ 75.51
D VAL H 0 -58.6 -35.4 N 55.34 CA 50.51 C 56.32 O 53.99 CB 48.01 CG1 43.95 CG2 47.61
D LEU H 0 -61.0 -38.4 N 60.43 CA 61.56 C 63.2 O 62.46 CB 58.57 CG 53.98 CD1 47.71 CD2 53.13
D LYS H 62 -68.9 -40.3 N 59.99 CA 58.89 C 56.26 O 56.84 CB 55.19 CG 57.7 CD 55.57 CE 53.42 NZ 55.39
D GLN H 114 -52.8 -48.7 N 49.92 CA 46.58 C 49.75 O 63.68 CB 42.34 CG 43.28 CD 51.57 OE1 52.06 NE2 52.59
D VAL H 43 -88.3 -30.3 N 46.34 CA 49.69 C 55.21 O 60.12 CB 50.12 CG1 51.44 CG2 46.68
D HIS - 16 -142.0 82.2 N 54.38 CA 54.88 C 57.25 O 59.92 CB 50.28 CG 53.61 ND1 54.3 CD2 56.73 CE1 50.7 NE2 55.38
D PRO T 83 -64.1 -29.9 N 56.95 CA 53.65 C 54.13 O 61.62 CB 56.65 CG 52.86 CD 56.14
D ASP T 148 -100.6 22.3 N 53.27 CA 55.67 C 59.74 O 62.51 CB 59.72 CG 73.19 OD1 76.95 OD2 70.85
D THR - 18 -116.6 138.9 N 54.16 CA 52.99 C 55.42 O 51.16 CB 51.77 OG1 59.49 CG2 48.26
D GLY E 14 -99.5 161.7 N 57.87 CA 65.93 C 64.42 O 56.1
D ILE E 25 -123.7 115.4 N 58.2 CA 58.16 C 61.1 O 62.86 CB 55.58 CG1 54.09 CG2 54.15 CD1 50.77
D SER - 22 -55.5 150.0 N 58.69 CA 54.94 C 54.6 O 59.31 CB 49.35 OG 47.96
D SER H 101 -69.3 -29.9 N 56.33 CA 59.59 C 61.21 O 54.78 CB 55.58 OG 66.94
D LYS H 146 -63.8 -52.5 N 61.09 CA 61.03 C 62.03 O 57.79 CB 73.71 CG 95.48 CD 103.24 CE 103.02 NZ 110.47
D ALA H 0 -54.1 -38.5 N 60.52 CA 54.56 C 49.04 O 49.45 CB 54.94
D MET H 24 -66.0 -38.1 N 46.14 CA 46.12 C 45.18 O 49.22 CB 46.97 CG 49.38 SD 60.36 CE 52.74
D SER H 41 -64.4 -45.2 N 50.74 CA 48.31 C 47.29 O 52.14 CB 51.6 OG 65.21
D ILE H 6 -53.0 -42.1 N 43.93 CA 44.86 C 47.87 O 43.45 CB 43.91 CG1 44.94 CG2 37.84 CD1 48.81
D MET H 1 -67.7 -47.2 N 45.62 CA 47.76 C 48.42 O 51.09 CB 47.58 CG 47.53 SD 54.5 CE 43.63
D ASN H 30 -55.1 -33.1 N 47.78 CA 52.56 C 52.59 O 54.59 CB 53.48 CG 58.17 OD1 59.14 ND2 61.39
D SER H 2 -69.8 -43.7 N 47.16 CA 46.84 C 47.13 O 48.12 CB 52.31 OG 56.51
D PHE H 4 -63.1 -48.0 N 47.03 CA 46.4 C 45.79 O 41.31 CB 44.94 CG 49.49 CD1 51.9 CD2 56.77 CE1 53.5 CE2 49.69 CZ 51.96
D VAL H 1 -55.4 -50.9 N 45.76 CA 47.38 C 47.61 O 48.01 CB 51.11 CG1 51.02 CG2 48.88
D ASN H 42 -56.1 -46.3 N 47.08 CA 46.22 C 44.42 O 45.71 CB 47.05 CG 51.94 OD1 59.52 ND2 54.73
D ASP H 5 -62.7 -45.3 N 40.92 CA 41.24 C 46.22 O 46.93 CB 46.82 CG 52.25 OD1 64.59 OD2 52.33
D VAL H 1 -71.3 -40.7 N 50.75 CA 49.63 C 50.66 O 44.44 CB 52.3 CG1 55.3 CG2 59.47
D PHE H 9 -48.8 -56.1 N 50.31 CA 50.94 C 51.88 O 53.82 CB 50.58 CG 56.65 CD1 61.44 CD2 59.27 CE1 65.77 CE2 66.11 CZ 65.94
D GLU H 80 -61.5 -50.6 N 50.42 CA 57.04 C 54.59 O 61.84 CB 70.55 CG 85.81 CD 91.11 OE1 84.02 OE2 90.58
D ARG H 74 -52.2 -43.8 N 45.51 CA 49.09 C 56.18 O 58.67 CB 49.22 CG 51.77 CD 54.57 NE 47.83 CZ 47.57 NH1 47.83 NH2 53.44
D ILE H 0 -75.3 -50.5 N 54.16 CA 53.21 C 53.4 O 54.55 CB 55.43 CG1 51.93 CG2 51.89 CD1 45.74
D ALA H 0 -53.5 -41.2 N 47.29 CA 50.23 C 57.92 O 58.82 CB 50.21
D GLY H 12 -65.1 -45.8 N 57.04 CA 56.65 C 61.57 O 64.08
D GLU H 8 -59.4 -32.4 N 57.07 CA 60.2 C 62.21 O 68.45 CB 61.21 CG 71.47 CD 78.88 OE1 78.84 OE2 72.24
D ALA H 0 -75.8 -38.1 N 60.33 CA 58.97 C 61.36 O 61.49 CB 54.76
D SER H 20 -56.8 -50.3 N 60.88 CA 60.1 C 58.32 O 62.01 CB 63.67 OG 71.42
D ARG H 104 -68.8 -36.5 N 59.92 CA 56.31 C 60.96 O 64.71 CB 58.69 CG 59.97 CD 65.32 NE 68.18 CZ 70.13 NH1 74.57 NH2 68.23
D LEU H 0 -54.9 -59.5 N 64.92 CA 65.62 C 68.5 O 72.95 CB 69.47 CG 72.04 CD1 65.52 CD2 68.1
D ALA H 0 -48.7 -55.6 N 64.97 CA 66.11 C 69.11 O 70.15 CB 66.7
D HIS H 66 -52.9 -49.3 N 71.33 CA 76.75 C 76.02 O 76.53 CB 82.67 CG 103.2 ND1 110.9 CD2 103.52 CE1 113.13 NE2 104.83
D TYR H 38 -52.0 -46.1 N 75.98 CA 76.48 C 76.6 O 74.63 CB 75.04 CG 81.32 CD1 79.14 CD2 86.28 CE1 81.53 CE2 84.92 CZ 82.68 OH 80.48
D ASN T 33 -85.6 12.1 N 81.12 CA 81.0 C 83.08 O 81.73 CB 76.67 CG 74.71 OD1 73.31 ND2 77.28
D LYS T 183 50.4 51.4 N 84.25 CA 87.33 C 81.79 O 81.63 CB 87.54 CG 96.44 CD 105.52 CE 111.71 NZ 111.57
D ARG - 162 -126.2 138.5 N 72.12 CA 76.77 C 78.93 O 80.0 CB 78.94 CG 87.63 CD 96.51 NE 99.76 CZ 110.6 NH1 114.86 NH2 114.32
D SER - 60 -101.7 16.6 N 74.13 CA 71.94 C 73.31 O 77.52 CB 74.95 OG 80.39
D THR E 36 -129.6 136.6 N 77.25 CA 77.87 C 74.12 O 75.85 CB 77.57 OG1 78.76 CG2 72.67
D ILE E 0 -100.2 112.5 N 67.6 CA 63.88 C 62.86 O 57.77 CB 64.87 CG1 68.74 CG2 61.61 CD1 61.7
D THR - 49 -110.1 170.6 N 64.5 CA 66.24 C 67.67 O 69.63 CB 68.08 OG1 65.23 CG2 60.83
D SER H 37 -55.8 -19.1 N 68.17 CA 68.47 C 66.68 O 73.19 CB 69.12 OG 84.93
D ARG H 84 -77.8 -31.3 N 66.96 CA 66.02 C 70.87 O 71.52 CB 64.17 CG 68.22 CD 71.08 NE 76.11 CZ 77.48 NH1 75.9 NH2 82.8
D GLU H 13 -74.5 -42.5 N 69.44 CA 61.23 C 67.2 O 61.75 CB 59.1 CG 65.05 CD 72.16 OE1 62.69 OE2 68.83
D ILE H 0 -52.0 -46.4 N 61.06 CA 59.97 C 58.71 O 56.16 CB 56.46 CG1 57.28 CG2 49.21 CD1 53.84
D GLN H 44 -60.3 -52.6 N 62.78 CA 64.17 C 59.85 O 69.91 CB 67.48 CG 65.35 CD 65.36 OE1 67.51 NE2 68.06
D THR H 9 -61.6 -45.0 N 53.03 CA 52.6 C 51.73 O 52.74 CB 52.93 OG1 56.21 CG2 51.2
D ALA H 0 -50.0 -51.9 N 49.92 CA 51.01 C 57.42 O 61.75 CB 48.4
D VAL H 0 -51.5 -42.1 N 50.25 CA 53.68 C 57.78 O 61.8 CB 57.08 CG1 55.04 CG2 56.44
D ARG H 116 -69.2 -39.1 N 62.59 CA 62.55 C 62.39 O 71.16 CB 63.13 CG 72.41 CD 82.98 NE 96.15 CZ 103.46 NH1 106.08 NH2 101.29
D LEU H 8 -67.8 -42.8 N 63.45 CA 60.02 C 60.81 O 59.92 CB 50.37 CG 51.29 CD1 47.42 CD2 49.06
D LEU H 25 -76.0 -49.6 N 59.34 CA 59.0 C 58.08 O 64.05 CB 61.48 CG 63.12 CD1 66.84 CD2 65.44
D LEU S 9 -88.7 154.0 N 56.53 CA 50.81 C 54.97 O 64.74 CB 45.56 CG 49.71 CD1 47.81 CD2 49.8
D PRO - 25 -84.2 144.9 N 52.62 CA 55.93 C 63.85 O 74.08 CB 58.06 CG 52.96 CD 51.76
D GLY H 49 23.4 -102.7 N 62.0 CA 60.85 C 58.14 O 63.77
D GLU H 89 -69.7 -23.9 N 60.29 CA 61.36 C 66.26 O 76.92 CB 63.1 CG 65.61 CD 72.81 OE1 78.73 OE2 82.63
D LEU H 4 -74.7 -39.1 N 64.55 CA 58.16 C 60.91 O 55.68 CB 59.08 CG 57.5 CD1 59.74 CD2 55.17
D ALA H 11 -59.0 -65.6 N 57.58 CA 56.29 C 63.25 O 63.22 CB 53.42
D LYS H 121 -37.4 -69.9 N 67.91 CA 64.27 C 56.13 O 64.81 CB 70.47 CG 81.87 CD 79.63 CE 92.47 NZ 93.04
D HIS H 81 -49.2 -35.0 N 49.25 CA 61.96 C 59.6 O 59.5 CB 66.7 CG 76.85 ND1 81.23 CD2 80.48 CE1 84.9 NE2 89.39
D ALA H 0 -75.1 -46.2 N 63.08 CA 60.91 C 59.37 O 56.6 CB 61.22
D VAL H 14 -49.1 -43.4 N 59.68 CA 58.09 C 61.52 O 63.5 CB 53.67 CG1 52.41 CG2 54.77
D SER H 61 -56.0 -69.3 N 60.34 CA 63.45 C 63.32 O 71.78 CB 66.88 OG 84.57
D GLU H 69 -49.3 -34.6 N 63.27 CA 66.22 C 67.47 O 67.48 CB 63.17 CG 71.86 CD 79.6 OE1 84.78 OE2 80.67
D GLY H 0 -74.3 -45.6 N 62.67 CA 69.3 C 71.08 O 69.29
D THR H 59 -62.6 -46.7 N 69.78 CA 67.95 C 70.8 O 68.43 CB 63.01 OG1 75.77 CG2 68.52
D LYS H 131 -52.5 -42.9 N 73.52 CA 71.06 C 70.49 O 79.52 CB 73.22 CG 77.02 CD 92.36 CE 98.98 NZ 91.72
D ALA H 6 -73.6 -31.1 N 73.06 CA 68.33 C 67.29 O 66.56 CB 62.29
D VAL H 26 -70.2 -65.6 N 63.33 CA 68.59 C 70.97 O 67.15 CB 66.6 CG1 59.02 CG2 68.69
D THR H 89 -21.2 -70.4 N 70.63 CA 61.36 C 61.52 O 67.07 CB 59.19 OG1 59.55 CG2 67.58
D LYS H 109 -61.5 -26.7 N 59.38 CA 60.64 C 64.2 O 64.83 CB 56.81 CG 60.75 CD 66.58 CE 74.86 NZ 74.88
D TYR H 35 -80.1 -44.1 N 66.05 CA 65.6 C 64.57 O 70.25 CB 63.64 CG 59.0 CD1 60.36 CD2 56.45 CE1 61.53 CE2 54.83 CZ 64.14 OH 73.75
D THR H 81 -55.3 -50.1 N 65.08 CA 69.12 C 77.37 O 78.37 CB 65.32 OG1 67.74 CG2 72.48
D SER H 99 -67.8 -22.2 N 82.69 CA 86.84 C 86.77 O 90.66 CB 84.82 OG 88.0
D ALA T 46 -77.9 0.3 N 88.56 CA 100.84 C 116.19 O 124.25 CB 98.7
D LYS - 196 -158.8 360.0 N 133.05 CA 141.82 C 142.57 O 146.66 CB 150.41 CG 156.24 CD 155.28 CE 146.02 NZ 140.14 OXT 137.27
E PRO - 184 360.0 128.1 N 138.29 CA 135.83 C 143.38 O 147.26 CB 130.09 CG 133.74 CD 132.95
E HIS - 148 -93.0 145.7 N 143.02 CA 138.17 C 134.32 O 136.95 CB 140.58 CG 148.57 ND1 142.85 CD2 151.67 CE1 152.79 NE2 155.07
E ARG - 218 -146.8 112.7 N 115.5 CA 101.13 C 99.56 O 91.46 CB 95.89 CG 91.99 CD 87.73 NE 92.67 CZ 94.63 NH1 92.42 NH2 97.75
E TYR - 132 -70.0 136.8 N 88.75 CA 81.14 C 77.6 O 81.23 CB 78.34 CG 82.62 CD1 81.64 CD2 83.33 CE1 84.18 CE2 81.79 CZ 82.21 OH 93.31
E ARG - 197 -71.1 141.7 N 74.31 CA 74.94 C 77.94 O 86.7 CB 77.58 CG 83.5 CD 93.17 NE 97.8 CZ 99.78 NH1 96.15 NH2 96.26
E PRO T 137 -52.5 113.4 N 77.04 CA 75.85 C 73.28 O 62.63 CB 74.04 CG 76.88 CD 80.72
E GLY T 20 127.1 -27.1 N 69.0 CA 72.26 C 66.72 O 72.46
E THR H 60 -74.6 -38.2 N 66.04 CA 62.45 C 65.54 O 70.25 CB 62.33 OG1 59.67 CG2 55.03
E VAL H 58 -73.8 -31.6 N 66.64 CA 65.46 C 64.57 O 63.62 CB 63.08 CG1 63.66 CG2 63.04
E ALA H 10 -57.7 -53.6 N 59.64 CA 59.55 C 59.63 O 61.68 CB 51.13
E LEU H 11 -57.4 -39.5 N 59.59 CA 55.02 C 51.85 O 57.15 CB 50.6 CG 55.74 CD1 59.45 CD2 58.22
E ARG H 113 -54.1 -51.8 N 52.84 CA 60.49 C 64.18 O 60.06 CB 65.61 CG 69.5 CD 81.89 NE 85.04 CZ 85.77 NH1 85.48 NH2 80.85
E GLU H 52 -58.6 -47.8 N 66.44 CA 64.74 C 57.19 O 51.24 CB 68.96 CG 80.26 CD 88.08 OE1 87.89 OE2 88.59
E ILE H 0 -54.9 -52.3 N 49.59 CA 50.75 C 57.01 O 61.77 CB 49.44 CG1 46.69 CG2 46.34 CD1 44.39
E ARG H 126 -54.6 -44.6 N 55.76 CA 54.4 C 51.17 O 50.76 CB 59.1 CG 59.72 CD 63.6 NE 65.22 CZ 69.84 NH1 70.62 NH2 70.54
E ARG H 148 -62.3 -42.1 N 49.32 CA 52.02 C 59.81 O 57.73 CB 54.06 CG 56.13 CD 64.83 NE 78.18 CZ 80.78 NH1 75.15 NH2 71.88
E TYR H 19 -86.7 -30.2 N 62.74 CA 58.7 C 57.43 O 56.15 CB 53.48 CG 51.93 CD1 55.87 CD2 53.54 CE1 49.34 CE2 51.69 CZ 53.0 OH 56.22
E GLN H 8 -70.7 -20.4 N 52.02 CA 51.49 C 52.54 O 61.67 CB 46.66 CG 44.08 CD 44.49 OE1 50.28 NE2 47.33
E LYS S 165 -83.0 -21.1 N 55.14 CA 56.65 C 56.27 O 57.47 CB 62.57 CG 69.42 CD 80.63 CE 91.68 NZ 99.25
E SER - 27 -112.1 178.2 N 50.63 CA 48.32 C 51.43 O 52.42 CB 48.4 OG 57.71
E THR - 34 -129.0 -7.6 N 48.71 CA 47.73 C 51.53 O 57.01 CB 47.07 OG1 50.93 CG2 42.47
E GLU S 82 -54.8 146.3 N 56.72 CA 54.1 C 53.75 O 48.57 CB 57.2 CG 72.01 CD 86.27 OE1 98.58 OE2 92.64
E LEU - 22 -62.8 141.7 N 49.28 CA 47.63 C 50.13 O 53.74 CB 47.59 CG 50.57 CD1 49.73 CD2 51.18
E LEU - 2 -102.4 -19.7 N 45.89 CA 50.39 C 56.31 O 56.37 CB 49.39 CG 48.29 CD1 41.82 CD2 46.15
E ILE S 2 -87.7 151.0 N 51.36 CA 51.03 C 52.01 O 55.49 CB 50.74 CG1 50.19 CG2 48.17 CD1 48.98
E ARG - 147 -73.9 144.3 N 47.95 CA 50.61 C 54.52 O 57.64 CB 57.52 CG 68.22 CD 83.99 NE 102.0 CZ 101.79 NH1 100.36 NH2 104.18
E LYS H 116 -62.3 -62.1 N 55.74 CA 59.5 C 61.7 O 63.08 CB 71.15 CG 89.47 CD 107.45 CE 116.65 NZ 115.77
E LEU H 97 -54.5 -54.8 N 62.33 CA 55.67 C 49.18 O 51.53 CB 57.04 CG 63.66 CD1 59.06 CD2 63.55
E PRO H 27 -49.3 -46.2 N 45.42 CA 44.48 C 48.56 O 59.52 CB 43.93 CG 46.53 CD 44.86
E PHE H 0 -61.7 -41.0 N 51.59 CA 50.83 C 49.13 O 49.67 CB 45.53 CG 45.54 CD1 37.98 CD2 41.1 CE1 35.51 CE2 35.44 CZ 34.97
E GLN H 54 -62.8 -36.9 N 48.06 CA 53.05 C 59.31 O 60.86 CB 56.8 CG 72.71 CD 80.96 OE1 91.18 NE2 81.57
E ARG H 92 -70.2 -39.2 N 55.76 CA 56.45 C 55.78 O 57.06 CB 55.29 CG 51.84 CD 54.14 NE 56.88 CZ 53.96 NH1 52.39 NH2 57.33
E LEU H 0 -57.9 -44.7 N 52.71 CA 47.71 C 47.22 O 54.93 CB 42.07 CG 44.03 CD1 40.46 CD2 39.07
E VAL H 0 -57.9 -50.6 N 43.77 CA 43.03 C 44.62 O 48.16 CB 45.95 CG1 41.38 CG2 41.47
E ARG H 50 -62.5 -42.1 N 44.39 CA 48.53 C 49.1 O 53.55 CB 47.83 CG 51.26 CD 50.34 NE 53.86 CZ 59.38 NH1 57.58 NH2 67.6
E GLU H 25 -53.5 -62.9 N 43.71 CA 43.97 C 44.48 O 49.85 CB 41.23 CG 41.18 CD 53.76 OE1 48.56 OE2 56.9
E ILE H 4 -57.0 -41.0 N 45.86 CA 44.3 C 47.75 O 56.78 CB 44.55 CG1 41.15 CG2 43.5 CD1 43.28
E ALA H 1 -66.5 -47.8 N 45.57 CA 50.44 C 51.89 O 58.65 CB 56.7
E GLN H 63 -52.6 -39.8 N 56.77 CA 54.67 C 54.29 O 60.73 CB 55.8 CG 61.45 CD 65.53 OE1 67.66 NE2 67.17
E ASP T 126 -64.4 -0.5 N 57.42 CA 54.46 C 54.63 O 64.63 CB 52.72 CG 58.35 OD1 58.64 OD2 58.63
E PHE T 74 -115.5 -38.0 N 54.0 CA 55.78 C 54.76 O 58.71 CB 55.82 CG 62.0 CD1 67.57 CD2 66.9 CE1 64.06 CE2 78.07 CZ 64.96
E LYS S 94 -157.2 133.1 N 54.21 CA 57.48 C 62.48 O 65.31 CB 58.32 CG 69.02 CD 78.36 CE 82.56 NZ 87.87
E THR S 76 -94.0 163.4 N 59.93 CA 64.85 C 70.05 O 64.99 CB 68.75 OG1 73.19 CG2 72.9
E ASP S 88 57.7 45.5 N 73.02 CA 79.45 C 73.73 O 81.76 CB 88.14 CG 102.77 OD1 108.79 OD2 105.95
E LEU - 28 -98.6 152.7 N 68.08 CA 57.78 C 60.61 O 58.74 CB 50.65 CG 49.6 CD1 50.21 CD2 43.92
E ARG E 162 -126.4 159.6 N 63.19 CA 61.38 C 62.62 O 63.8 CB 65.96 CG 66.06 CD 73.04 NE 79.75 CZ 91.41 NH1 101.54 NH2 95.94
E PHE E 22 -127.8 132.5 N 59.81 CA 53.75 C 54.38 O 60.54 CB 48.63 CG 50.02 CD1 50.59 CD2 49.49 CE1 49.04 CE2 55.25 CZ 55.26
E GLN - 81 -64.3 137.8 N 53.31 CA 51.69 C 49.94 O 53.32 CB 56.73 CG 60.7 CD 66.27 OE1 69.9 NE2 70.4
E SER H 92 -49.0 -42.1 N 45.21 CA 52.18 C 55.65 O 56.13 CB 56.11 OG 68.58
E SER H 39 -66.7 -21.9 N 53.24 CA 53.18 C 51.67 O 51.33 CB 48.18 OG 52.52
E ALA H 0 -68.9 -48.7 N 48.21 CA 48.69 C 46.91 O 53.47 CB 41.48
E VAL H 6 -59.1 -44.9 N 47.09 CA 43.93 C 43.44 O 47.12 CB 41.71 CG1 37.8 CG2 40.13
E MET H 53 -59.6 -43.3 N 49.71 CA 47.6 C 45.78 O 46.18 CB 55.45 CG 64.7 SD 79.23 CE 74.72
E ALA H 0 -60.3 -51.3 N 47.12 CA 45.76 C 48.5 O 60.47 CB 39.46
E LEU H 1 -50.7 -46.9 N 45.44 CA 43.93 C 45.04 O 49.96 CB 43.06 CG 43.48 CD1 47.25 CD2 42.46
E GLN H 1 -64.1 -44.1 N 43.26 CA 40.67 C 47.24 O 53.41 CB 36.94 CG 37.1 CD 42.02 OE1 44.91 NE2 40.82
E GLU H 19 -59.8 -45.1 N 43.41 CA 41.73 C 43.33 O 43.58 CB 48.85 CG 52.36 CD 57.68 OE1 49.76 OE2 59.2
E ALA H 5 -61.6 -39.0 N 39.79 CA 37.75 C 38.93 O 40.52 CB 34.76
E SER H 0 -75.2 -48.7 N 39.8 CA 40.71 C 41.22 O 49.41 CB 42.83 OG 39.03
E GLU H 6 -61.1 -39.5 N 42.54 CA 47.22 C 44.75 O 51.28 CB 47.95 CG 52.31 CD 58.69 OE1 60.3 OE2 63.84
E ALA H 32 -59.8 -39.2 N 38.62 CA 37.42 C 39.15 O 42.23 CB 33.96
E TYR H 6 -66.3 -47.0 N 37.94 CA 39.24 C 41.86 O 40.56 CB 43.18 CG 45.79 CD1 45.17 CD2 48.67 CE1 43.59 CE2 46.51 CZ 48.11 OH 53.41
E LEU H 1 -63.2 -44.4 N 46.92 CA 47.12 C 49.79 O 52.7 CB 50.52 CG 52.07 CD1 44.94 CD2 44.34
E VAL H 7 -61.8 -51.5 N 49.27 CA 43.55 C 43.38 O 46.92 CB 41.61 CG1 38.88 CG2 37.41
E ALA H 28 -53.8 -42.0 N 39.74 CA 38.23 C 42.1 O 43.62 CB 35.0
E LEU H 5 -63.6 -33.7 N 41.89 CA 43.19 C 45.27 O 51.94 CB 46.47 CG 40.97 CD1 36.47 CD2 37.04
E PHE H 3 -69.7 -33.0 N 44.44 CA 43.87 C 48.66 O 56.51 CB 48.66 CG 51.16 CD1 50.72 CD2 50.71 CE1 50.27 CE2 50.79 CZ 47.19
E GLU H 65 -60.4 -51.4 N 53.02 CA 50.45 C 49.7 O 51.49 CB 48.27 CG 59.26 CD 68.12 OE1 80.22 OE2 64.8
E ASP H 9 -60.5 -45.3 N 47.29 CA 51.94 C 51.25 O 50.62 CB 49.18 CG 56.36 OD1 64.93 OD2 57.39
E THR H 0 -56.6 -40.0 N 49.64 CA 48.65 C 46.94 O 46.14 CB 47.93 OG1 46.61 CG2 46.54
E ASN H 4 -66.8 -40.2 N 48.35 CA 49.32 C 49.65 O 55.97 CB 49.6 CG 53.18 OD1 57.17 ND2 57.12
E LEU H 27 -66.1 -30.9 N 50.1 CA 47.16 C 49.81 O 50.37 CB 46.9 CG 51.2 CD1 44.59 CD2 43.51
E CYS H 0 -73.0 -36.8 N 49.67 CA 51.03 C 54.47 O 47.92 CB 50.84 SG 58.65
E ALA H 0 -64.9 -46.8 N 51.52 CA 48.37 C 53.92 O 59.04 CB 46.6
E ILE H 35 -69.8 -29.4 N 53.53 CA 51.54 C 52.45 O 62.79 CB 49.01 CG1 49.25 CG2 47.22 CD1 46.96
E HIS H 19 -61.1 -35.1 N 49.15 CA 53.69 C 62.47 O 62.68 CB 47.92 CG 45.15 ND1 46.77 CD2 49.65 CE1 51.52 NE2 51.78
E ALA T 21 -90.6 16.1 N 65.46 CA 65.29 C 68.35 O 75.83 CB 66.55
E LYS T 176 62.9 25.3 N 65.27 CA 64.59 C 62.8 O 74.75 CB 67.31 CG 79.69 CD 87.78 CE 98.27 NZ 102.75
E ARG - 52 -109.3 169.2 N 59.04 CA 51.33 C 53.37 O 57.99 CB 48.43 CG 52.65 CD 51.33 NE 52.49 CZ 53.06 NH1 44.23 NH2 53.2
E VAL S 45 -115.3 2.2 N 53.7 CA 54.66 C 57.25 O 58.78 CB 54.74 CG1 48.99 CG2 51.97
E THR E 20 -107.3 125.3 N 60.65 CA 61.96 C 59.89 O 58.81 CB 63.59 OG1 74.86 CG2 66.95
E ILE E 0 -84.3 137.1 N 54.51 CA 53.12 C 50.24 O 51.01 CB 50.63 CG1 45.21 CG2 48.53 CD1 45.21
E MET - 52 -138.0 165.6 N 51.92 CA 55.44 C 57.54 O 63.36 CB 52.6 CG 58.91 SD 68.71 CE 67.95
E PRO H 16 -56.6 -26.1 N 52.57 CA 49.58 C 52.9 O 58.05 CB 44.15 CG 43.63 CD 46.56
E LYS H 79 -69.7 -27.9 N 48.36 CA 50.34 C 52.66 O 54.71 CB 51.12 CG 53.81 CD 59.8 CE 69.41 NZ 76.96
E ASP H 0 -63.8 -53.3 N 54.45 CA 52.5 C 53.76 O 56.77 CB 47.68 CG 50.85 OD1 43.5 OD2 47.71
E ILE H 1 -54.6 -51.4 N 49.46 CA 47.0 C 49.4 O 49.8 CB 43.45 CG1 43.97 CG2 39.89 CD1 35.97
E GLN H 99 -56.9 -40.8 N 49.35 CA 48.01 C 50.45 O 57.34 CB 50.49 CG 54.53 CD 65.77 OE1 71.43 NE2 58.12
E LEU H 18 -66.2 -44.6 N 48.39 CA 47.79 C 47.5 O 47.54 CB 43.29 CG 45.99 CD1 41.64 CD2 47.76
E ALA H 0 -56.6 -43.1 N 45.21 CA 45.89 C 50.24 O 52.35 CB 47.59
E ARG H 56 -69.9 -34.7 N 47.62 CA 44.02 C 48.79 O 48.37 CB 39.21 CG 40.6 CD 47.13 NE 54.1 CZ 57.04 NH1 63.9 NH2 65.29
E ARG H 123 -71.3 -43.3 N 48.5 CA 49.09 C 48.63 O 53.17 CB 49.67 CG 55.63 CD 70.95 NE 82.89 CZ 94.35 NH1 81.01 NH2 85.2
E ILE H 7 -61.7 -44.6 N 49.44 CA 54.37 C 53.83 O 56.29 CB 52.24 CG1 53.03 CG2 52.0 CD1 56.35
E ARG H 38 -56.9 -27.9 N 53.49 CA 54.18 C 55.99 O 62.64 CB 52.8 CG 48.23 CD 50.92 NE 46.17 CZ 48.26 NH1 51.46 NH2 47.14
E GLY T 54 88.6 33.9 N 60.89 CA 59.63 C 62.09 O 65.37
E GLU - 101 -111.8 360.0 N 60.44 CA 61.87 C 68.87 O 77.66 CB 60.04 CG 59.56 CD 58.99 OE1 51.91 OE2 59.42
F LYS - 226 360.0 139.3 N 150.63 CA 156.44 C 159.08 O 158.5 CB 161.34 CG 159.96 CD 159.58 CE 158.4 NZ 150.4
F ARG - 227 -132.0 88.0 N 154.17 CA 137.99 C 124.81 O 118.31 CB 140.62 CG 145.81 CD 152.38 NE 159.55 CZ 160.13 NH1 163.45 NH2 156.97
F HIS - 183 79.5 143.3 N 120.74 CA 116.45 C 100.88 O 115.5 CB 125.98 CG 137.75 ND1 141.33 CD2 147.71 CE1 148.38 NE2 147.86
F ARG - 142 -146.6 121.3 N 90.82 CA 85.02 C 77.03 O 74.62 CB 101.36 CG 110.44 CD 113.76 NE 119.02 CZ 118.62 NH1 100.14 NH2 124.09
F LYS - 175 -51.4 129.4 N 66.87 CA 63.14 C 64.29 O 69.61 CB 68.47 CG 69.79 CD 69.44 CE 71.66 NZ 63.21
F VAL - 105 -51.2 133.6 N 63.23 CA 58.25 C 57.93 O 56.71 CB 54.22 CG1 60.27 CG2 63.01
F LEU - 28 -104.8 115.7 N 56.04 CA 48.97 C 48.92 O 50.92 CB 47.17 CG 48.87 CD1 48.47 CD2 46.97
F ARG - 196 -153.0 150.3 N 49.14 CA 53.08 C 53.57 O 54.77 CB 52.88 CG 56.98 CD 55.96 NE 53.43 CZ 52.36 NH1 46.66 NH2 53.75
F ASP - 110 62.1 24.7 N 57.07 CA 57.62 C 59.4 O 60.09 CB 56.89 CG 67.57 OD1 67.97 OD2 67.43
F ASN G 17 -71.1 -18.9 N 54.14 CA 50.26 C 55.18 O 56.19 CB 45.73 CG 49.65 OD1 56.18 ND2 53.15
F ILE G 22 -52.6 -23.2 N 52.06 CA 52.13 C 53.06 O 59.45 CB 52.05 CG1 51.92 CG2 53.45 CD1 52.6
F GLN G 75 -79.3 -11.2 N 55.96 CA 56.78 C 58.75 O 68.82 CB 53.43 CG 53.34 CD 56.82 OE1 70.61 NE2 56.82
F GLY G 19 -71.9 -18.6 N 50.29 CA 53.55 C 53.33 O 59.05
F ILE S 0 -80.2 79.7 N 47.89 CA 46.82 C 51.0 O 52.55 CB 47.54 CG1 52.23 CG2 51.7 CD1 49.16
F THR - 57 -65.0 167.4 N 48.2 CA 50.61 C 56.3 O 52.52 CB 52.62 OG1 53.56 CG2 53.41
F LYS H 105 -61.0 -49.8 N 58.17 CA 59.98 C 60.58 O 65.3 CB 58.36 CG 62.85 CD 65.09 CE 65.15 NZ 68.62
F PRO H 72 -47.7 -45.9 N 60.21 CA 56.3 C 56.73 O 63.62 CB 56.12 CG 61.44 CD 62.23
F ALA H 2 -72.3 -42.8 N 54.31 CA 49.94 C 55.08 O 63.98 CB 43.51
F ILE H 1 -56.6 -37.2 N 55.41 CA 49.11 C 53.68 O 59.09 CB 49.4 CG1 44.98 CG2 51.04 CD1 50.43
F ARG H 70 -71.5 -41.0 N 55.77 CA 55.39 C 51.36 O 52.05 CB 60.47 CG 75.56 CD 79.23 NE 78.95 CZ 84.25 NH1 74.65 NH2 90.0
F ARG H 42 -56.0 -55.9 N 49.48 CA 48.51 C 50.66 O 54.74 CB 46.48 CG 46.13 CD 51.72 NE 56.02 CZ 58.43 NH1 58.78 NH2 60.44
F LEU H 0 -47.0 -40.4 N 50.25 CA 49.31 C 49.42 O 52.31 CB 48.44 CG 47.17 CD1 47.79 CD2 47.27
F ALA H 1 -69.2 -37.2 N 52.43 CA 52.11 C 51.97 O 46.45 CB 51.06
F ARG H 5 -62.7 -57.3 N 51.6 CA 47.23 C 48.01 O 52.33 CB 48.83 CG 50.5 CD 51.87 NE 58.03 CZ 64.48 NH1 57.11 NH2 65.08
F ARG H 13 -49.1 -36.1 N 46.5 CA 43.78 C 47.92 O 50.17 CB 40.03 CG 40.0 CD 38.91 NE 43.2 CZ 42.26 NH1 39.98 NH2 44.71
F GLY T 4 -76.4 5.6 N 48.42 CA 43.73 C 44.68 O 46.57
F GLY T 4 71.7 29.2 N 43.48 CA 44.88 C 50.0 O 57.0
F VAL - 0 -94.6 131.2 N 61.01 CA 59.58 C 59.06 O 57.39 CB 57.41 CG1 57.79 CG2 54.75
F LYS - 45 -94.1 -52.0 N 58.09 CA 62.36 C 63.34 O 63.67 CB 64.32 CG 61.78 CD 68.24 CE 77.29 NZ 87.7
F ARG E 148 -119.0 137.8 N 61.05 CA 59.84 C 59.95 O 55.05 CB 65.33 CG 67.94 CD 69.25 NE 72.82 CZ 74.57 NH1 73.14 NH2 77.55
F ILE E 19 -125.7 115.5 N 52.66 CA 52.16 C 58.04 O 67.85 CB 50.54 CG1 46.97 CG2 56.76 CD1 46.17
F SER - 21 -61.1 146.8 N 55.09 CA 52.46 C 52.26 O 55.5 CB 54.13 OG 65.2
F GLY T 62 -56.8 -32.6 N 56.27 CA 53.44 C 57.61 O 55.0
F LEU T 123 -71.8 -23.6 N 52.39 CA 57.78 C 57.9 O 66.58 CB 59.5 CG 57.29 CD1 57.05 CD2 50.25
F ILE H 0 -50.3 -42.6 N 51.96 CA 48.81 C 49.55 O 58.57 CB 47.51 CG1 48.49 CG2 46.88 CD1 43.58
F TYR H 15 -58.6 -43.1 N 45.22 CA 46.97 C 51.06 O 64.04 CB 43.34 CG 46.61 CD1 46.81 CD2 51.75 CE1 52.29 CE2 49.1 CZ 55.99 OH 64.19
F GLU H 107 -70.4 -39.5 N 50.17 CA 53.06 C 48.44 O 50.14 CB 59.15 CG 71.81 CD 82.96 OE1 90.04 OE2 86.7
F GLU H 58 -56.3 -43.0 N 46.75 CA 48.99 C 50.28 O 52.61 CB 50.62 CG 58.14 CD 66.63 OE1 71.12 OE2 71.7
F THR H 2 -67.1 -43.0 N 44.62 CA 45.37 C 49.22 O 46.24 CB 49.18 OG1 47.65 CG2 44.57
F ARG H 19 -55.6 -43.9 N 52.01 CA 45.04 C 44.72 O 44.18 CB 44.31 CG 45.18 CD 44.75 NE 50.95 CZ 48.99 NH1 48.95 NH2 43.81
F GLY H 41 -66.0 -34.0 N 40.8 CA 44.12 C 47.83 O 51.72
F VAL H 5 -77.3 -39.2 N 50.49 CA 44.52 C 45.74 O 48.26 CB 45.08 CG1 48.21 CG2 48.84
F LEU H 0 -63.6 -45.7 N 43.89 CA 41.14 C 46.81 O 51.07 CB 39.82 CG 41.26 CD1 41.48 CD2 41.37
F LYS H 74 -55.6 -48.1 N 45.94 CA 44.74 C 46.37 O 50.02 CB 57.46 CG 58.75 CD 62.05 CE 68.25 NZ 66.01
F VAL H 56 -60.1 -42.9 N 42.19 CA 42.5 C 44.09 O 41.61 CB 43.3 CG1 44.02 CG2 37.84
F PHE H 14 -54.0 -56.4 N 41.48 CA 40.33 C 41.24 O 49.37 CB 39.9 CG 44.46 CD1 43.48 CD2 42.67 CE1 38.74 CE2 38.57 CZ 37.88
F LEU H 0 -63.4 -37.3 N 40.46 CA 41.61 C 47.13 O 50.9 CB 38.05 CG 37.93 CD1 40.21 CD2 38.62
F GLU H 46 -59.0 -48.4 N 46.41 CA 46.82 C 48.29 O 55.23 CB 52.36 CG 56.85 CD 66.72 OE1 62.76 OE2 68.78
F ASN H 55 -55.0 -47.9 N 46.36 CA 45.15 C 45.6 O 50.11 CB 44.73 CG 49.77 OD1 54.5 ND2 52.92
F VAL H 2 -70.4 -52.3 N 40.19 CA 42.57 C 43.99 O 56.54 CB 45.52 CG1 41.45 CG2 46.9
F ILE H 2 -55.2 -41.8 N 46.12 CA 42.42 C 42.4 O 40.53 CB 38.83 CG1 37.64 CG2 44.23 CD1 39.9
F ARG H 103 -54.0 -51.4 N 42.25 CA 45.79 C 49.47 O 56.05 CB 46.76 CG 49.0 CD 58.45 NE 73.47 CZ 69.89 NH1 78.31 NH2 61.51
F ASP H 11 -65.3 -44.8 N 48.81 CA 46.53 C 47.64 O 44.36 CB 48.57 CG 56.13 OD1 54.48 OD2 58.82
F ALA H 3 -54.6 -52.6 N 43.46 CA 39.36 C 44.9 O 50.01 CB 32.77
F VAL H 5 -56.6 -41.2 N 45.24 CA 45.15 C 45.84 O 53.23 CB 45.38 CG1 50.68 CG2 42.83
F THR H 19 -57.1 -42.5 N 39.86 CA 42.1 C 48.98 O 56.35 CB 40.64 OG1 37.82 CG2 38.38
F TYR H 7 -61.7 -45.4 N 46.05 CA 43.39 C 51.01 O 53.41 CB 42.53 CG 41.37 CD1 39.54 CD2 40.49 CE1 44.15 CE2 42.87 CZ 46.19 OH 46.44
F THR H 0 -56.9 -49.7 N 52.73 CA 54.46 C 60.39 O 61.61 CB 53.76 OG1 54.7 CG2 52.83
F GLU H 71 -63.8 -40.6 N 65.14 CA 62.54 C 61.51 O 71.84 CB 67.1 CG 76.48 CD 80.71 OE1 82.36 OE2 81.11
F HIS H 10 -64.4 -31.1 N 58.95 CA 63.41 C 66.88 O 66.77 CB 59.73 CG 56.37 ND1 58.27 CD2 54.07 CE1 61.48 NE2 56.37
F ALA T 23 -86.1 8.3 N 67.89 CA 65.59 C 63.42 O 64.3 CB 67.29
F LYS T 167 59.9 39.6 N 64.5 CA 65.89 C 62.89 O 68.1 CB 65.07 CG 73.17 CD 81.71 CE 90.95 NZ 98.66
F ARG - 84 -114.6 163.4 N 57.43 CA 55.07 C 54.14 O 55.0 CB 54.32 CG 55.59 CD 55.55 NE 56.76 CZ 54.38 NH1 60.03 NH2 50.27
F LYS S 133 -108.9 -6.7 N 56.61 CA 59.87 C 64.25 O 67.99 CB 66.26 CG 77.14 CD 82.61 CE 92.36 NZ 98.58
F THR E 44 -114.8 121.9 N 68.77 CA 63.95 C 60.94 O 66.41 CB 62.99 OG1 69.18 CG2 60.01
F VAL E 1 -79.4 123.8 N 55.42 CA 54.15 C 51.72 O 55.19 CB 52.04 CG1 49.29 CG2 51.77
F THR - 17 -103.2 157.5 N 49.27 CA 51.34 C 51.88 O 51.51 CB 50.01 OG1 53.56 CG2 51.93
F ALA H 4 -53.5 -41.8 N 52.92 CA 46.01 C 45.63 O 50.68 CB 39.71
F MET H 57 -56.9 -38.3 N 42.23 CA 45.37 C 47.14 O 47.07 CB 44.9 CG 46.97 SD 61.44 CE 49.52
F ASP H 6 -59.8 -46.2 N 44.01 CA 43.37 C 40.55 O 42.76 CB 43.97 CG 48.92 OD1 49.91 OD2 49.79
F VAL H 0 -68.9 -38.0 N 41.32 CA 42.02 C 44.55 O 42.63 CB 41.47 CG1 39.9 CG2 45.75
F VAL H 5 -67.2 -43.8 N 42.39 CA 43.7 C 46.0 O 51.78 CB 39.48 CG1 39.69 CG2 35.99
F TYR H 42 -61.1 -35.8 N 45.44 CA 47.05 C 48.07 O 50.38 CB 55.59 CG 63.12 CD1 67.69 CD2 64.54 CE1 71.17 CE2 68.85 CZ 71.37 OH 74.67
F ALA H 0 -70.2 -47.0 N 44.93 CA 43.43 C 43.72 O 51.97 CB 42.15
F LEU H 0 -55.7 -38.9 N 42.81 CA 42.89 C 44.06 O 42.74 CB 42.03 CG 42.7 CD1 38.21 CD2 37.16
F LYS H 51 -62.1 -52.8 N 42.17 CA 44.99 C 48.99 O 52.18 CB 51.18 CG 58.3 CD 67.34 CE 78.74 NZ 89.92
F ARG H 67 -44.5 -37.0 N 48.62 CA 46.64 C 48.37 O 48.59 CB 56.23 CG 60.27 CD 52.74 NE 53.17 CZ 51.33 NH1 52.55 NH2 53.0
F GLN T 65 -97.2 12.1 N 52.86 CA 51.48 C 51.68 O 54.09 CB 56.84 CG 70.46 CD 71.5 OE1 84.6 NE2 71.19
F GLY T 35 58.5 44.4 N 53.89 CA 45.82 C 46.08 O 52.55
F ARG - 61 -130.6 54.7 N 47.79 CA 48.71 C 48.1 O 49.98 CB 44.6 CG 48.71 CD 50.87 NE 58.53 CZ 59.16 NH1 57.02 NH2 54.95
F THR E 20 -51.5 135.4 N 46.8 CA 44.55 C 43.25 O 47.79 CB 45.04 OG1 47.33 CG2 43.02
F LEU E 1 -120.2 124.9 N 41.96 CA 41.78 C 45.14 O 50.3 CB 41.35 CG 42.02 CD1 42.52 CD2 41.51
F TYR E 2 -92.6 141.7 N 44.39 CA 43.94 C 44.25 O 38.73 CB 43.25 CG 43.41 CD1 40.67 CD2 44.54 CE1 42.23 CE2 43.16 CZ 44.35 OH 48.16
F GLY S 20 120.9 4.9 N 40.0 CA 43.13 C 47.68 O 54.1
F PHE S 47 -134.4 5.3 N 50.54 CA 47.97 C 50.19 O 61.71 CB 46.08 CG 47.71 CD1 48.89 CD2 46.2 CE1 52.97 CE2 44.08 CZ 45.85
F GLY - 39 126.5 2.8 N 43.73 CA 43.85 C 50.3 O 50.85
F GLY - 16 -53.5 360.0 N 64.15 CA 84.54 C 107.01 O 97.05 OXT 107.36
G ALA - 155 360.0 131.9 N 136.68 CA 147.58 C 151.23 O 151.15 CB 141.44
G LYS - 147 -132.5 145.6 N 152.15 CA 146.65 C 135.14 O 136.53 CB 142.29 CG 145.44 CD 147.59 CE 148.02 NZ 148.73
G THR - 84 -65.7 153.4 N 123.35 CA 110.81 C 105.05 O 104.58 CB 108.95 OG1 96.64 CG2 109.02
G ARG H 74 -65.9 -35.0 N 96.78 CA 86.36 C 83.78 O 77.72 CB 81.46 CG 84.47 CD 79.34 NE 81.64 CZ 85.3 NH1 89.37 NH2 87.88
G SER H 19 -56.0 -50.8 N 77.54 CA 80.14 C 86.7 O 90.44 CB 73.42 OG 76.1
G SER H 43 -69.1 -42.8 N 96.28 CA 94.68 C 87.19 O 85.62 CB 94.77 OG 99.0
G ARG H 76 -46.1 -21.0 N 78.13 CA 87.15 C 86.93 O 90.7 CB 92.24 CG 100.39 CD 107.25 NE 119.66 CZ 126.35 NH1 137.94 NH2 123.14
G ALA H 4 -121.8 -13.6 N 90.14 CA 90.33 C 90.0 O 92.53 CB 86.4
G GLY T 43 95.4 24.6 N 83.4 CA 83.64 C 86.2 O 86.47
G LEU - 16 -112.0 152.3 N 82.48 CA 75.77 C 75.23 O 84.33 CB 74.52 CG 72.69 CD1 71.39 CD2 69.91
G GLN S 59 -90.3 -29.5 N 74.2 CA 77.51 C 82.16 O 94.1 CB 81.62 CG 87.76 CD 90.83 OE1 96.6 NE2 91.06
G PHE S 0 -77.0 143.3 N 78.99 CA 74.18 C 74.19 O 75.93 CB 71.47 CG 66.3 CD1 67.64 CD2 66.61 CE1 67.23 CE2 65.74 CZ 62.85
G PRO - 11 -83.8 90.0 N 70.14 CA 70.42 C 66.25 O 71.29 CB 70.01 CG 75.77 CD 74.74
G VAL H 0 -41.4 -61.5 N 59.45 CA 60.55 C 63.95 O 72.01 CB 57.52 CG1 54.1 CG2 58.16
G GLY H 31 -46.5 -49.4 N 65.66 CA 67.66 C 70.7 O 76.36
G ARG H 49 -54.9 -60.5 N 64.19 CA 65.07 C 70.87 O 78.09 CB 60.11 CG 61.83 CD 65.38 NE 71.36 CZ 82.14 NH1 90.59 NH2 82.78
G VAL H 0 -46.0 -41.3 N 68.68 CA 66.07 C 69.0 O 75.51 CB 60.32 CG1 59.27 CG2 52.78
G HIS H 13 -62.9 -45.0 N 69.11 CA 69.44 C 69.48 O 70.73 CB 71.5 CG 71.48 ND1 75.17 CD2 72.89 CE1 81.29 NE2 76.79
G ARG H 78 -61.0 -56.4 N 65.08 CA 67.55 C 68.12 O 64.72 CB 66.25 CG 66.13 CD 78.06 NE 79.69 CZ 85.41 NH1 76.95 NH2 92.56
G LEU H 47 -52.8 -29.5 N 64.21 CA 58.09 C 60.03 O 59.72 CB 57.67 CG 61.03 CD1 54.92 CD2 57.28
G LEU H 1 -64.7 -53.7 N 59.55 CA 68.71 C 71.95 O 76.14 CB 73.33 CG 71.97 CD1 76.34 CD2 74.92
G ARG H 124 -66.0 -50.1 N 84.29 CA 87.98 C 89.77 O 92.66 CB 89.47 CG 98.2 CD 109.9 NE 112.89 CZ 117.66 NH1 115.36 NH2 122.8
G LYS T 144 -77.0 23.7 N 86.6 CA 91.84 C 87.39 O 92.64 CB 111.42 CG 122.75 CD 127.55 CE 123.76 NZ 126.81
G GLY T 12 -123.0 -11.6 N 79.55 CA 73.03 C 71.08 O 75.87
G ASN T 21 65.6 53.6 N 63.34 CA 70.05 C 65.85 O 79.8 CB 71.81 CG 86.3 OD1 83.6 ND2 84.22
G TYR S 33 -100.6 -29.4 N 64.54 CA 58.52 C 65.4 O 78.47 CB 52.23 CG 50.91 CD1 52.99 CD2 50.41 CE1 58.21 CE2 51.18 CZ 57.5 OH 64.62
G ALA - 11 -167.6 164.0 N 67.29 CA 71.2 C 78.38 O 76.63 CB 70.35
G GLU S 142 -59.9 -33.5 N 89.07 CA 95.09 C 91.21 O 95.67 CB 103.76 CG 121.49 CD 133.63 OE1 136.76 OE2 140.72
G ARG E 161 -133.4 143.7 N 87.85 CA 90.12 C 88.8 O 92.97 CB 95.57 CG 97.82 CD 105.48 NE 109.55 CZ 111.7 NH1 112.26 NH2 114.07
G VAL E 12 -129.2 111.6 N 81.61 CA 74.23 C 73.18 O 79.55 CB 76.46 CG1 81.8 CG2 69.0
G GLY - 18 -61.0 164.3 N 72.74 CA 73.28 C 83.46 O 79.38
G ALA S 66 -64.9 -40.2 N 83.13 CA 79.48 C 77.35 O 72.81 CB 80.7
G GLY S 17 -79.2 -20.6 N 75.36 CA 78.83 C 77.49 O 80.05
G ALA H 0 -58.4 -48.4 N 71.56 CA 66.62 C 69.42 O 71.53 CB 68.16
G PRO H 0 -66.9 -25.4 N 70.8 CA 68.11 C 70.64 O 65.01 CB 67.56 CG 72.46 CD 71.75
G VAL H 0 -73.0 -56.7 N 70.16 CA 70.77 C 66.91 O 66.09 CB 70.57 CG1 72.7 CG2 75.21
G TYR H 5 -51.0 -56.1 N 59.27 CA 56.63 C 60.9 O 56.04 CB 52.11 CG 54.47 CD1 50.9 CD2 54.44 CE1 55.01 CE2 59.51 CZ 64.27 OH 71.12
G LEU H 0 -51.3 -54.1 N 57.93 CA 56.68 C 59.59 O 65.29 CB 55.7 CG 59.48 CD1 67.33 CD2 62.09
G ALA H 0 -59.7 -37.6 N 60.31 CA 62.77 C 63.37 O 71.7 CB 60.26
G ALA H 0 -57.8 -47.0 N 55.98 CA 58.79 C 64.92 O 68.48 CB 55.69
G VAL H 0 -62.7 -40.6 N 69.03 CA 61.51 C 60.31 O 64.45 CB 55.32 CG1 57.72 CG2 54.6
G LEU H 2 -71.4 -38.3 N 51.2 CA 57.15 C 59.17 O 58.07 CB 59.5 CG 59.1 CD1 50.95 CD2 56.18
G GLU H 21 -57.8 -56.9 N 63.09 CA 65.8 C 62.01 O 64.62 CB 67.56 CG 74.98 CD 80.89 OE1 81.37 OE2 81.64
G TYR H 21 -44.4 -50.1 N 59.04 CA 62.03 C 67.99 O 74.52 CB 57.73 CG 58.25 CD1 63.71 CD2 61.2 CE1 66.3 CE2 62.42 CZ 66.58 OH 73.42
G LEU H 1 -69.0 -32.3 N 65.1 CA 61.37 C 65.07 O 70.42 CB 62.23 CG 60.82 CD1 58.72 CD2 56.89
G THR H 0 -67.9 -41.1 N 64.75 CA 70.77 C 70.3 O 66.88 CB 70.7 OG1 74.43 CG2 69.49
G ALA H 25 -59.0 -51.6 N 69.38 CA 67.84 C 72.7 O 75.31 CB 68.31
G GLU H 56 -56.7 -40.9 N 68.8 CA 63.42 C 62.82 O 61.98 CB 63.43 CG 75.85 CD 86.92 OE1 81.9 OE2 94.14
G ILE H 5 -69.3 -45.7 N 66.24 CA 66.39 C 68.12 O 73.02 CB 66.08 CG1 72.02 CG2 63.23 CD1 79.55
G LEU H 0 -68.6 -43.3 N 68.36 CA 69.7 C 72.46 O 64.92 CB 62.0 CG 61.38 CD1 63.08 CD2 61.2
G GLU H 78 -37.4 -59.1 N 70.47 CA 72.81 C 70.06 O 80.08 CB 80.12 CG 88.21 CD 95.76 OE1 99.91 OE2 101.17
G LEU H 46 -83.9 -28.7 N 70.95 CA 67.81 C 67.54 O 65.2 CB 66.88 CG 69.57 CD1 69.59 CD2 67.86
G ALA H 0 -73.1 -36.4 N 71.24 CA 78.58 C 87.26 O 94.36 CB 76.91
G GLY H 1 -47.8 -61.7 N 85.26 CA 86.87 C 80.52 O 79.61
G ASN H 53 -49.5 -46.0 N 71.86 CA 72.62 C 72.15 O 79.99 CB 75.26 CG 80.33 OD1 82.42 ND2 80.4
G ALA H 11 -66.8 -27.3 N 70.44 CA 75.78 C 84.13 O 88.69 CB 75.78
G ALA H 0 -72.1 -47.8 N 86.42 CA 84.44 C 92.75 O 96.25 CB 79.67
G ARG H 181 -54.3 -55.3 N 97.77 CA 99.6 C 92.35 O 101.2 CB 116.46 CG 130.07 CD 145.95 NE 168.32 CZ 177.26 NH1 184.32 NH2 176.11
G ASP T 100 -57.8 -2.8 N 88.45 CA 99.76 C 103.22 O 105.03 CB 105.67 CG 117.76 OD1 119.88 OD2 114.18
G ASN T 80 -131.5 32.4 N 101.37 CA 103.02 C 104.74 O 99.41 CB 108.18 CG 113.23 OD1 116.67 ND2 110.71
G LYS T 201 50.5 43.1 N 111.16 CA 120.01 C 119.0 O 124.93 CB 125.93 CG 129.94 CD 125.54 CE 119.96 NZ 112.86
G LYS - 123 -128.4 162.3 N 110.96 CA 105.12 C 99.24 O 89.0 CB 102.04 CG 99.45 CD 99.62 CE 101.2 NZ 99.19
G THR S 104 -131.9 8.3 N 99.69 CA 101.11 C 97.59 O 101.22 CB 103.51 OG1 104.49 CG2 99.13
G ARG E 167 -116.5 126.9 N 94.74 CA 88.6 C 86.22 O 78.89 CB 94.86 CG 98.2 CD 103.55 NE 107.31 CZ 113.78 NH1 111.01 NH2 119.88
G ILE E 0 -78.2 116.5 N 79.43 CA 73.3 C 70.6 O 70.11 CB 70.85 CG1 69.54 CG2 76.27 CD1 69.09
G ILE - 72 -102.2 169.3 N 72.74 CA 73.59 C 75.89 O 84.51 CB 75.52 CG1 73.92 CG2 81.97 CD1 67.56
G PRO H 7 -45.3 -45.9 N 72.79 CA 73.27 C 73.39 O 74.82 CB 68.96 CG 63.56 CD 72.48
G ARG H 28 -47.8 -44.5 N 68.61 CA 68.47 C 71.21 O 81.2 CB 65.61 CG 66.38 CD 67.63 NE 69.44 CZ 72.22 NH1 74.43 NH2 73.06
G HIS H 6 -59.6 -36.2 N 71.37 CA 72.75 C 67.21 O 63.01 CB 77.24 CG 84.12 ND1 85.06 CD2 83.35 CE1 84.28 NE2 81.55
G LEU H 2 -70.9 -48.1 N 65.1 CA 65.46 C 65.44 O 70.61 CB 60.12 CG 56.98 CD1 58.73 CD2 59.76
G GLN H 17 -53.8 -43.0 N 61.61 CA 66.96 C 68.16 O 70.1 CB 64.78 CG 63.84 CD 62.32 OE1 61.15 NE2 61.2
G LEU H 24 -69.9 -38.9 N 62.53 CA 60.65 C 61.99 O 66.67 CB 61.26 CG 64.08 CD1 60.88 CD2 62.66
G ALA H 7 -63.2 -35.7 N 55.5 CA 51.66 C 54.68 O 59.76 CB 53.52
G VAL H 1 -79.6 -48.9 N 55.63 CA 58.63 C 64.34 O 61.74 CB 59.91 CG1 66.74 CG2 55.9
G ARG H 52 -77.0 -24.9 N 62.42 CA 64.44 C 65.33 O 68.93 CB 60.6 CG 62.51 CD 60.75 NE 67.24 CZ 66.62 NH1 69.73 NH2 59.51
G ASN T 115 -79.5 -6.6 N 63.38 CA 65.53 C 64.87 O 68.31 CB 61.91 CG 66.3 OD1 71.14 ND2 68.47
G ASP S 46 -110.4 115.7 N 66.12 CA 60.93 C 62.49 O 63.83 CB 62.31 CG 71.73 OD1 82.08 OD2 75.7
G GLU H 163 -55.6 -43.4 N 62.29 CA 61.65 C 64.93 O 66.71 CB 66.33 CG 83.91 CD 93.54 OE1 100.07 OE2 102.15
G GLU H 38 -80.3 -45.2 N 64.37 CA 62.36 C 63.36 O 64.81 CB 64.58 CG 67.98 CD 77.34 OE1 86.34 OE2 75.81
G LEU H 0 -57.2 -39.3 N 61.38 CA 55.51 C 58.4 O 63.21 CB 57.54 CG 57.28 CD1 54.37 CD2 53.53
G ASN H 63 -58.7 -41.1 N 54.18 CA 54.1 C 54.21 O 49.86 CB 52.02 CG 52.47 OD1 54.85 ND2 51.93
G LYS H 151 -66.1 -51.0 N 58.24 CA 58.64 C 58.42 O 59.28 CB 62.75 CG 82.05 CD 93.41 CE 96.89 NZ 106.89
G LEU H 10 -60.9 -31.4 N 56.73 CA 55.19 C 57.75 O 62.58 CB 49.06 CG 47.95 CD1 42.06 CD2 45.85
G LEU T 2 -106.5 21.2 N 56.02 CA 51.26 C 52.21 O 55.3 CB 52.45 CG 55.43 CD1 55.47 CD2 60.21
G GLY T 48 -63.8 -14.5 N 52.94 CA 51.01 C 49.91 O 50.82
G ARG T 177 -120.4 29.0 N 49.01 CA 54.26 C 50.73 O 48.59 CB 51.75 CG 69.47 CD 80.03 NE 99.55 CZ 111.59 NH1 109.03 NH2 111.15
G VAL - 8 -127.0 143.4 N 49.27 CA 48.69 C 47.75 O 50.76 CB 47.22 CG1 46.4 CG2 52.97
G THR E 23 -113.6 125.7 N 51.82 CA 55.21 C 60.62 O 65.79 CB 56.04 OG1 57.3 CG2 47.23
G ILE E 11 -93.2 115.3 N 61.96 CA 62.24 C 61.86 O 68.66 CB 60.54 CG1 56.15 CG2 59.48 CD1 52.58
G ALA T 9 -61.0 136.0 N 66.59 CA 66.98 C 69.22 O 73.52 CB 66.67
G GLN T 64 60.3 31.6 N 69.68 CA 66.3 C 68.91 O 74.99 CB 67.98 CG 74.6 CD 84.23 OE1 81.46 NE2 83.31
G GLY - 3 -99.9 -15.6 N 63.27 CA 62.7 C 65.25 O 63.29
G GLY - 18 56.3 -165.1 N 65.26 CA 65.79 C 69.42 O 69.37
G VAL - 21 -118.1 167.6 N 67.76 CA 65.67 C 71.78 O 74.44 CB 65.28 CG1 60.22 CG2 64.64
G LEU - 48 -76.0 145.0 N 72.96 CA 71.48 C 80.11 O 80.52 CB 66.8 CG 67.64 CD1 61.87 CD2 68.48
G PRO - 88 -64.0 117.7 N 86.46 CA 83.88 C 83.15 O 86.34 CB 86.57 CG 87.5 CD 90.04
G ASN - 84 -153.7 127.1 N 80.87 CA 75.78 C 72.54 O 71.0 CB 88.87 CG 101.09 OD1 98.42 ND2 102.07
G ILE - 38 -125.3 129.6 N 68.29 CA 63.42 C 62.68 O 64.06 CB 61.58 CG1 59.87 CG2 62.32 CD1 60.93
G GLN - 50 -61.0 138.7 N 65.34 CA 66.39 C 66.39 O 63.56 CB 65.46 CG 73.22 CD 74.47 OE1 73.65 NE2 68.97
G SER G 93 -63.5 -38.4 N 69.37 CA 72.1 C 79.29 O 83.89 CB 69.97 OG 72.18
G VAL G 76 -59.4 -14.5 N 83.7 CA 81.33 C 81.23 O 80.14 CB 78.95 CG1 74.54 CG2 75.52
G LEU G 1 -90.5 -14.1 N 83.31 CA 77.43 C 86.06 O 85.87 CB 74.85 CG 72.75 CD1 74.82 CD2 65.69
G LEU S 58 -71.7 141.1 N 88.38 CA 89.43 C 100.33 O 99.27 CB 83.84 CG 78.77 CD1 71.26 CD2 69.08
G PRO - 81 -67.5 160.5 N 107.96 CA 110.14 C 115.68 O 109.25 CB 100.4 CG 100.01 CD 99.86
G LYS - 188 -61.9 108.3 N 127.51 CA 132.76 C 138.45 O 139.2 CB 134.4 CG 138.72 CD 136.53 CE 137.01 NZ 138.98
G LYS - 242 -80.4 360.0 N 148.74 CA 149.02 C 140.99 O 130.92 CB 151.19 CG 151.76 CD 152.3 CE 154.14 NZ 145.33
H LYS - 262 360.0 -50.1 N 112.56 CA 117.15 C 118.69 O 113.52 CB 119.45 CG 121.29 CD 118.64 CE 111.65 NZ 114.57
H THR - 131 -51.2 153.1 N 123.03 CA 124.34 C 128.45 O 124.72 CB 115.55 OG1 108.71 CG2 110.51
H ARG - 223 -72.7 144.5 N 129.79 CA 129.13 C 127.91 O 125.63 CB 132.87 CG 134.89 CD 146.22 NE 156.9 CZ 161.85 NH1 154.27 NH2 156.92
H LYS - 192 -122.3 83.6 N 128.66 CA 121.28 C 109.22 O 101.41 CB 130.1 CG 137.55 CD 141.27 CE 139.72 NZ 139.04
H GLU - 91 -65.6 145.5 N 96.81 CA 95.4 C 88.26 O 92.97 CB 95.45 CG 103.96 CD 109.09 OE1 110.01 OE2 105.47
H SER - 34 -168.1 153.5 N 76.09 CA 69.28 C 71.18 O 82.37 CB 72.11 OG 73.88
H TYR S 5 -85.0 2.7 N 68.94 CA 66.37 C 68.1 O 72.42 CB 64.41 CG 66.3 CD1 65.88 CD2 66.28 CE1 67.95 CE2 63.03 CZ 65.87 OH 68.48
H ALA H 29 -42.5 -49.3 N 66.31 CA 71.38 C 76.46 O 78.31 CB 69.35
H ILE H 100 -61.2 -42.9 N 77.52 CA 81.14 C 82.06 O 83.19 CB 82.58 CG1 86.57 CG2 82.46 CD1 77.07
H TYR H 30 -73.3 -40.1 N 79.91 CA 74.53 C 75.28 O 80.04 CB 78.81 CG 84.85 CD1 85.04 CD2 89.57 CE1 91.61 CE2 88.63 CZ 92.47 OH 94.51
H VAL H 0 -52.6 -50.7 N 71.3 CA 71.76 C 70.14 O 68.43 CB 67.76 CG1 61.68 CG2 60.85
H TYR H 109 -53.6 -52.9 N 81.16 CA 86.8 C 81.95 O 79.92 CB 85.86 CG 96.94 CD1 98.68 CD2 109.96 CE1 111.92 CE2 115.45 CZ 118.79 OH 117.22
H LYS H 106 -51.4 -53.8 N 75.25 CA 80.26 C 80.08 O 86.81 CB 77.4 CG 80.4 CD 90.71 CE 91.69 NZ 93.82
H VAL H 2 -56.2 -50.2 N 78.83 CA 74.57 C 72.73 O 66.04 CB 74.97 CG1 71.35 CG2 75.46
H LEU H 0 -47.2 -51.1 N 74.15 CA 74.3 C 85.17 O 94.1 CB 67.44 CG 67.54 CD1 60.05 CD2 69.51
H LYS H 67 -60.7 -34.1 N 85.62 CA 87.08 C 84.59 O 88.27 CB 89.66 CG 87.12 CD 92.42 CE 94.01 NZ 91.92
H GLN H 112 -63.4 -25.5 N 85.52 CA 83.12 C 81.89 O 82.97 CB 79.85 CG 82.7 CD 86.64 OE1 90.68 NE2 94.74
H VAL H 43 -112.5 -40.4 N 83.21 CA 90.38 C 88.41 O 92.57 CB 90.56 CG1 96.95 CG2 83.11
H HIS - 26 -134.2 76.1 N 87.48 CA 96.46 C 98.13 O 99.82 CB 97.22 CG 98.39 ND1 100.76 CD2 99.75 CE1 98.11 NE2 100.56
H PRO T 84 -61.3 -27.3 N 88.95 CA 90.73 C 91.55 O 86.95 CB 93.78 CG 91.37 CD 89.48
H ASP T 150 -104.3 23.2 N 95.18 CA 102.79 C 102.61 O 114.63 CB 115.2 CG 120.38 OD1 124.52 OD2 115.54
H THR - 18 -123.1 142.6 N 99.24 CA 91.49 C 84.32 O 87.1 CB 95.02 OG1 107.16 CG2 89.5
H GLY E 16 -115.5 -177.9 N 77.57 CA 72.57 C 80.4 O 81.95
H ILE E 22 -149.7 131.0 N 73.79 CA 69.83 C 68.22 O 67.61 CB 74.97 CG1 67.92 CG2 72.57 CD1 70.41
H SER - 20 -65.0 164.2 N 69.57 CA 70.87 C 72.53 O 72.24 CB 78.23 OG 82.28
H SER H 106 -56.3 -50.1 N 78.02 CA 83.82 C 85.86 O 87.57 CB 88.44 OG 99.62
H LYS H 145 -66.0 -43.2 N 84.95 CA 82.68 C 78.15 O 74.78 CB 85.57 CG 103.3 CD 112.4 CE 110.57 NZ 117.82
H ALA H 0 -59.5 -32.8 N 68.94 CA 64.79 C 68.4 O 79.92 CB 63.28
H MET H 24 -68.4 -44.6 N 66.87 CA 67.28 C 71.51 O 67.31 CB 71.17 CG 73.86 SD 88.69 CE 82.08
H SER H 38 -52.4 -50.2 N 71.3 CA 72.13 C 72.6 O 76.01 CB 68.44 OG 81.15
H ILE H 5 -53.1 -52.9 N 69.4 CA 62.16 C 62.97 O 62.64 CB 62.01 CG1 64.7 CG2 58.82 CD1 61.7
H MET H 1 -56.3 -41.7 N 62.27 CA 61.87 C 64.29 O 65.36 CB 61.92 CG 61.04 SD 69.57 CE 62.5
H ASN H 26 -58.9 -49.3 N 63.79 CA 65.84 C 67.18 O 67.92 CB 64.07 CG 67.14 OD1 75.93 ND2 65.53
H SER H 5 -52.2 -46.0 N 65.27 CA 58.35 C 59.74 O 64.47 CB 57.85 OG 61.03
H PHE H 4 -62.1 -38.7 N 57.07 CA 55.52 C 58.24 O 60.67 CB 52.9 CG 59.26 CD1 56.67 CD2 60.78 CE1 57.64 CE2 61.92 CZ 61.81
H VAL H 0 -73.8 -38.9 N 56.63 CA 54.66 C 61.97 O 59.13 CB 52.75 CG1 54.51 CG2 49.18
H ASN H 35 -62.1 -47.0 N 63.57 CA 63.67 C 66.39 O 71.17 CB 67.67 CG 69.92 OD1 73.36 ND2 80.47
H ASP H 14 -54.9 -57.2 N 62.98 CA 59.3 C 63.24 O 59.37 CB 60.5 CG 64.57 OD1 63.97 OD2 65.51
H VAL H 2 -62.7 -36.0 N 60.87 CA 55.15 C 58.86 O 54.95 CB 52.53 CG1 49.33 CG2 54.49
H PHE H 9 -58.0 -45.9 N 60.43 CA 57.21 C 61.84 O 68.15 CB 62.11 CG 62.65 CD1 64.75 CD2 68.9 CE1 67.15 CE2 73.04 CZ 69.45
H GLU H 70 -68.0 -47.8 N 57.86 CA 58.75 C 60.61 O 56.32 CB 68.62 CG 83.82 CD 91.16 OE1 87.3 OE2 93.78
H ARG H 74 -56.1 -47.3 N 54.51 CA 55.57 C 61.21 O 67.67 CB 54.82 CG 53.54 CD 58.56 NE 58.87 CZ 59.28 NH1 52.81 NH2 65.96
H ILE H 1 -67.5 -51.9 N 62.36 CA 57.42 C 58.0 O 63.57 CB 53.26 CG1 48.19 CG2 54.26 CD1 45.74
H ALA H 1 -59.1 -44.6 N 55.87 CA 56.06 C 57.96 O 58.4 CB 58.4
H GLY H 12 -55.2 -44.4 N 52.55 CA 52.07 C 53.95 O 54.05
H GLU H 6 -70.4 -36.5 N 55.74 CA 53.97 C 55.19 O 57.44 CB 56.0 CG 75.19 CD 86.53 OE1 81.83 OE2 86.16
H ALA H 0 -71.6 -34.7 N 55.41 CA 52.84 C 52.98 O 50.42 CB 53.25
H SER H 17 -55.1 -58.5 N 50.93 CA 51.83 C 56.5 O 62.73 CB 54.01 OG 59.81
H ARG H 108 -52.3 -43.6 N 54.94 CA 57.41 C 63.9 O 73.25 CB 59.47 CG 54.18 CD 50.91 NE 61.77 CZ 67.5 NH1 68.65 NH2 63.43
H LEU H 0 -52.7 -50.4 N 62.28 CA 63.72 C 63.35 O 62.25 CB 64.97 CG 59.65 CD1 61.41 CD2 63.49
H ALA H 0 -58.6 -51.5 N 62.44 CA 63.35 C 67.03 O 68.52 CB 68.13
H HIS H 59 -52.9 -42.5 N 61.88 CA 65.72 C 66.88 O 74.12 CB 69.1 CG 85.24 ND1 88.96 CD2 88.3 CE1 82.53 NE2 86.52
H TYR H 53 -58.7 -32.1 N 65.74 CA 72.33 C 76.5 O 82.92 CB 71.85 CG 76.97 CD1 76.26 CD2 80.74 CE1 77.87 CE2 76.52 CZ 76.42 OH 76.86
H ASN T 33 -105.8 9.8 N 72.62 CA 71.5 C 73.94 O 74.73 CB 73.96 CG 74.85 OD1 72.39 ND2 76.93
H LYS T 168 53.6 47.8 N 73.58 CA 74.43 C 72.48 O 79.98 CB 72.06 CG 76.29 CD 84.13 CE 89.14 NZ 88.2
H ARG - 158 -112.6 144.6 N 69.03 CA 70.99 C 74.49 O 76.59 CB 71.9 CG 77.98 CD 82.54 NE 94.28 CZ 97.43 NH1 99.36 NH2 97.35
H SER S 66 -89.3 -8.8 N 79.29 CA 78.84 C 75.15 O 73.75 CB 86.36 OG 98.89
H THR E 39 -127.5 142.8 N 70.93 CA 73.05 C 70.8 O 67.05 CB 73.49 OG1 81.8 CG2 63.67
H ILE E 0 -103.4 100.8 N 60.92 CA 56.19 C 60.55 O 54.73 CB 53.03 CG1 56.77 CG2 50.16 CD1 56.23
H THR - 47 -95.7 -176.0 N 60.55 CA 60.47 C 61.09 O 65.7 CB 61.74 OG1 63.48 CG2 54.99
H SER H 34 -74.1 -15.9 N 59.45 CA 62.4 C 61.04 O 63.18 CB 65.13 OG 70.4
H ARG H 83 -68.0 -42.7 N 60.94 CA 61.96 C 64.53 O 69.6 CB 60.19 CG 69.8 CD 78.76 NE 81.6 CZ 85.97 NH1 92.48 NH2 89.12
H GLU H 12 -68.7 -36.6 N 59.55 CA 55.02 C 57.04 O 62.31 CB 55.68 CG 59.11 CD 67.93 OE1 75.76 OE2 65.75
H ILE H 0 -65.6 -40.1 N 55.89 CA 56.3 C 61.0 O 66.46 CB 55.22 CG1 55.79 CG2 54.88 CD1 56.5
H GLN H 43 -64.2 -56.2 N 57.15 CA 53.45 C 57.29 O 57.2 CB 56.04 CG 62.11 CD 63.16 OE1 61.51 NE2 55.1
H THR H 8 -54.5 -43.5 N 51.8 CA 52.86 C 58.15 O 56.18 CB 53.96 OG1 59.41 CG2 54.81
H ALA H 0 -52.8 -49.5 N 57.53 CA 55.41 C 57.12 O 59.36 CB 55.33
H VAL H 0 -58.6 -41.4 N 55.89 CA 51.52 C 52.78 O 51.86 CB 52.19 CG1 52.51 CG2 52.58
H ARG H 123 -61.6 -41.0 N 52.4 CA 52.76 C 53.39 O 55.54 CB 56.01 CG 64.46 CD 69.56 NE 89.29 CZ 93.33 NH1 90.27 NH2 93.65
H LEU H 11 -69.7 -36.4 N 51.41 CA 49.26 C 49.76 O 53.49 CB 44.75 CG 41.96 CD1 38.54 CD2 44.92
H LEU H 31 -86.2 -30.1 N 53.22 CA 55.23 C 53.68 O 52.14 CB 62.14 CG 61.38 CD1 71.54 CD2 55.3
H LEU S 10 -105.6 138.2 N 53.14 CA 52.61 C 54.83 O 61.83 CB 55.84 CG 55.62 CD1 61.91 CD2 53.36
H PRO - 22 -62.2 140.5 N 53.29 CA 53.03 C 60.15 O 64.3 CB 51.7 CG 52.06 CD 52.59
H GLY H 60 3.0 -76.2 N 59.63 CA 64.6 C 63.71 O 62.06
H GLU H 109 -85.0 -35.2 N 54.96 CA 64.92 C 67.39 O 75.71 CB 70.41 CG 79.01 CD 89.62 OE1 89.25 OE2 93.16
H LEU H 2 -59.1 -38.4 N 65.1 CA 57.95 C 56.96 O 56.73 CB 56.31 CG 60.0 CD1 55.41 CD2 64.4
H ALA H 8 -63.5 -48.7 N 56.53 CA 55.25 C 61.13 O 65.89 CB 56.99
H LYS H 122 -49.8 -56.9 N 70.03 CA 67.74 C 67.66 O 62.27 CB 79.17 CG 95.94 CD 104.51 CE 104.03 NZ 92.76
H HIS H 80 -61.6 -55.0 N 60.42 CA 63.36 C 67.45 O 66.58 CB 64.35 CG 76.68 ND1 80.29 CD2 83.13 CE1 81.59 NE2 83.96
H ALA H 0 -44.2 -51.4 N 69.59 CA 63.3 C 63.49 O 60.67 CB 62.5
H VAL H 15 -58.3 -43.6 N 60.19 CA 62.33 C 64.01 O 67.64 CB 63.08 CG1 59.17 CG2 61.96
H SER H 46 -64.9 -51.7 N 62.71 CA 64.65 C 68.25 O 78.63 CB 66.02 OG 69.55
H GLU H 60 -47.9 -44.1 N 66.48 CA 67.28 C 69.75 O 76.27 CB 71.13 CG 85.1 CD 86.96 OE1 102.54 OE2 89.29
H GLY H 0 -64.6 -55.6 N 67.81 CA 70.17 C 72.79 O 70.5
H THR H 62 -53.1 -41.1 N 72.63 CA 74.66 C 73.99 O 65.67 CB 75.98 OG1 85.83 CG2 80.7
H LYS H 117 -57.8 -65.9 N 73.57 CA 74.42 C 78.7 O 85.78 CB 82.56 CG 83.16 CD 87.58 CE 93.66 NZ 94.8
H ALA H 3 -48.0 -31.0 N 76.87 CA 76.49 C 75.95 O 81.32 CB 75.71
H VAL H 28 -73.5 -54.3 N 75.41 CA 77.06 C 78.31 O 81.29 CB 72.78 CG1 68.42 CG2 77.76
H THR H 76 -47.6 -61.4 N 80.63 CA 79.94 C 82.4 O 90.63 CB 81.2 OG1 76.75 CG2 89.35
H LYS H 116 -48.2 -30.0 N 80.72 CA 83.34 C 87.26 O 104.52 CB 83.93 CG 92.63 CD 104.5 CE 113.14 NZ 115.17
H TYR H 46 -80.9 -32.0 N 89.67 CA 90.99 C 95.76 O 102.98 CB 82.13 CG 71.95 CD1 73.53 CD2 67.04 CE1 71.56 CE2 70.84 CZ 76.33 OH 79.88
H THR H 104 -79.2 -40.3 N 100.5 CA 104.04 C 110.24 O 116.95 CB 102.18 OG1 91.79 CG2 105.42
H SER S 104 -76.1 51.4 N 114.9 CA 113.24 C 117.31 O 122.16 CB 108.83 OG 118.58
H ALA - 36 -152.7 131.3 N 115.63 CA 130.19 C 146.1 O 146.16 CB 119.39
H LYS - 245 -72.8 360.0 N 162.95 CA 166.74 C 169.59 O 159.63 CB 165.15 CG 160.25 CD 153.29 CE 141.92 NZ 140.37 OXT 178.04
