A LEU - 156 360.0 155.8 N 75.72 CA 69.29 C 63.73 O 64.38 CB 70.61 CG 71.51 CD1 72.82 CD2 71.64
A GLY - 19 -108.5 -149.8 N 54.35 CA 45.7 C 37.85 O 38.66
A SER S 11 -101.9 -3.3 N 28.54 CA 27.54 C 29.32 O 31.78 CB 22.06 OG 31.84
A ILE - 23 -111.2 132.0 N 20.9 CA 19.38 C 16.95 O 17.41 CB 19.82 CG1 17.64 CG2 21.41 CD1 18.65
A LEU - 21 -79.8 130.9 N 15.76 CA 19.4 C 20.32 O 19.62 CB 15.48 CG 19.39 CD1 18.1 CD2 20.67
A PRO - 17 -83.7 131.8 N 16.28 CA 19.04 C 25.13 O 28.78 CB 21.38 CG 21.04 CD 17.89
A PHE B 12 -134.3 141.3 N 23.94 CA 23.59 C 26.17 O 26.88 CB 17.57 CG 22.62 CD1 21.84 CD2 20.5 CE1 22.17 CE2 15.39 CZ 17.37
A ASN - 96 -79.7 174.1 N 21.76 CA 26.16 C 26.64 O 22.45 CB 26.64 CG 30.48 OD1 26.54 ND2 30.79
A GLU H 107 -55.6 -52.0 N 26.35 CA 31.61 C 25.8 O 24.28 CB 33.6 CG 40.49 CD 46.77 OE1 46.24 OE2 52.17
A GLU H 137 -58.5 -48.5 N 27.69 CA 35.93 C 32.95 O 29.52 CB 41.61 CG 51.74 CD 64.03 OE1 68.9 OE2 65.91
A THR H 8 -67.0 -38.6 N 27.78 CA 26.69 C 25.2 O 26.08 CB 22.19 OG1 26.41 CG2 24.73
A ALA H 1 -59.6 -41.5 N 20.54 CA 18.1 C 21.3 O 25.37 CB 23.19
A ASP H 77 -66.5 -37.5 N 21.96 CA 26.56 C 29.45 O 28.07 CB 31.33 CG 38.11 OD1 35.83 OD2 38.03
A ARG H 84 -63.7 -39.8 N 27.15 CA 27.5 C 25.25 O 19.78 CB 31.23 CG 37.66 CD 41.25 NE 46.34 CZ 48.64 NH1 51.72 NH2 52.67
A VAL H 0 -68.0 -36.1 N 19.19 CA 20.11 C 21.18 O 17.89 CB 18.22 CG1 20.37 CG2 22.75
A SER H 1 -61.2 -47.6 N 18.48 CA 20.44 C 20.17 O 25.34 CB 21.86 OG 38.8
A ALA H 55 -60.1 -38.8 N 20.33 CA 23.69 C 19.37 O 20.34 CB 26.9
A TYR H 19 -60.5 -43.7 N 17.89 CA 23.44 C 22.05 O 18.82 CB 17.93 CG 20.3 CD1 19.28 CD2 21.08 CE1 20.04 CE2 20.87 CZ 18.48 OH 21.83
A CYS H 0 -61.6 -41.9 N 17.48 CA 17.95 C 23.94 O 20.81 CB 17.31 SG 20.39
A GLU H 69 -60.8 -43.7 N 16.56 CA 20.47 C 22.51 O 22.35 CB 30.78 CG 36.76 CD 38.45 OE1 41.31 OE2 42.6
A LYS H 128 -62.8 -34.6 N 20.81 CA 22.83 C 21.85 O 23.83 CB 29.68 CG 38.47 CD 49.19 CE 52.2 NZ 58.16
A ASN T 3 -103.0 18.2 N 23.88 CA 23.2 C 21.47 O 20.78 CB 23.44 CG 31.03 OD1 33.97 ND2 27.17
A SER S 3 -126.7 153.3 N 20.96 CA 19.69 C 21.72 O 21.45 CB 18.53 OG 18.28
A HIS - 55 -64.6 136.8 N 23.75 CA 27.04 C 25.67 O 20.44 CB 29.64 CG 32.09 ND1 27.61 CD2 36.54 CE1 25.94 NE2 36.64
A GLY - 57 -81.8 169.7 N 28.24 CA 28.22 C 29.01 O 28.17
A ILE - 11 -79.1 156.4 N 28.34 CA 25.6 C 25.8 O 31.87 CB 25.09 CG1 23.54 CG2 27.15 CD1 23.9
A PRO - 36 -58.7 155.2 N 27.89 CA 28.8 C 29.35 O 28.09 CB 30.06 CG 27.75 CD 24.05
A ASP H 147 -55.0 -41.2 N 31.24 CA 36.03 C 36.15 O 39.2 CB 40.05 CG 46.69 OD1 47.76 OD2 48.88
A ALA H 42 -62.6 -37.5 N 34.39 CA 35.96 C 30.78 O 30.16 CB 37.13
A LEU H 0 -73.9 -36.6 N 27.89 CA 28.59 C 28.38 O 32.26 CB 23.75 CG 21.83 CD1 22.79 CD2 21.97
A VAL H 25 -56.4 -46.8 N 30.62 CA 32.04 C 29.61 O 30.77 CB 36.65 CG1 35.8 CG2 36.08
A GLU H 145 -58.7 -42.6 N 29.91 CA 32.77 C 34.76 O 33.13 CB 39.92 CG 46.75 CD 56.46 OE1 58.35 OE2 62.75
A HIS H 14 -65.1 -38.3 N 32.73 CA 35.49 C 33.91 O 28.83 CB 32.29 CG 33.53 ND1 36.32 CD2 34.68 CE1 35.71 NE2 32.45
A TRP H 35 -63.2 -49.7 N 32.55 CA 33.23 C 36.27 O 35.45 CB 31.49 CG 32.21 CD1 28.46 CD2 39.58 NE1 31.94 CE2 40.01 CE3 44.25 CZ2 43.92 CZ3 47.95 CH2 48.84
A GLU H 77 -61.4 -43.0 N 32.73 CA 33.42 C 41.16 O 43.01 CB 51.64 CG 52.95 CD 59.81 OE1 63.54 OE2 60.88
A TRP H 77 -61.5 -40.9 N 42.15 CA 41.42 C 42.25 O 42.25 CB 42.47 CG 48.27 CD1 52.4 CD2 49.17 NE1 53.18 CE2 53.01 CE3 49.42 CZ2 54.48 CZ3 50.57 CH2 53.42
A THR H 0 -62.6 -44.2 N 40.57 CA 42.99 C 47.24 O 49.98 CB 38.06 OG1 33.91 CG2 33.18
A ARG H 122 -64.5 -31.2 N 46.45 CA 49.9 C 52.66 O 54.7 CB 50.86 CG 50.1 CD 52.99 NE 58.32 CZ 64.21 NH1 65.7 NH2 67.95
A THR H 125 -76.6 -38.1 N 51.67 CA 53.78 C 54.08 O 54.59 CB 54.59 OG1 55.99 CG2 60.04
A ARG H 122 -73.8 -37.1 N 52.93 CA 57.65 C 57.55 O 56.52 CB 59.62 CG 66.28 CD 73.78 NE 78.31 CZ 79.41 NH1 77.41 NH2 82.39
A PHE - 16 -118.6 136.7 N 54.56 CA 56.16 C 57.9 O 54.37 CB 55.67 CG 58.63 CD1 61.93 CD2 59.3 CE1 62.47 CE2 60.4 CZ 61.29
A PRO T 131 -71.6 -28.3 N 62.27 CA 66.07 C 68.61 O 70.59 CB 70.05 CG 67.81 CD 65.04
A ASP T 37 -102.1 39.1 N 68.32 CA 65.65 C 60.31 O 54.66 CB 68.58 CG 68.09 OD1 66.49 OD2 68.52
A ALA G 13 -72.9 -8.2 N 62.72 CA 62.35 C 61.18 O 55.99 CB 61.7
A ASP G 97 -63.9 -18.4 N 68.98 CA 66.8 C 57.57 O 55.59 CB 76.66 CG 86.26 OD1 87.74 OD2 91.68
A LYS G 87 -63.8 -23.2 N 49.16 CA 42.68 C 38.62 O 35.0 CB 40.72 CG 44.89 CD 46.92 CE 51.29 NZ 53.04
A MET S 15 -76.3 146.5 N 37.2 CA 31.2 C 31.99 O 32.24 CB 27.77 CG 27.05 SD 36.31 CE 37.01
A SER - 4 -64.3 160.9 N 34.1 CA 31.17 C 32.71 O 31.93 CB 31.7 OG 29.38
A SER - 14 -77.0 173.3 N 30.28 CA 29.12 C 27.91 O 24.07 CB 32.0 OG 26.36
A ARG H 75 -66.0 -41.1 N 26.83 CA 27.63 C 28.13 O 23.09 CB 32.81 CG 38.16 CD 46.02 NE 48.55 CZ 52.13 NH1 52.97 NH2 52.14
A LEU H 0 -61.0 -42.1 N 23.43 CA 20.09 C 20.77 O 21.21 CB 21.12 CG 22.02 CD1 19.56 CD2 22.42
A GLN H 20 -62.4 -35.5 N 19.26 CA 19.94 C 17.37 O 19.63 CB 21.43 CG 28.78 CD 35.43 OE1 36.07 NE2 33.05
A GLY H 0 -58.5 -47.4 N 19.48 CA 20.73 C 19.86 O 19.65
A SER H 13 -58.7 -39.2 N 19.98 CA 16.36 C 18.07 O 18.92 CB 19.07 OG 26.85
A TRP H 11 -64.4 -42.9 N 18.03 CA 17.53 C 21.71 O 17.06 CB 18.66 CG 18.26 CD1 20.86 CD2 20.04 NE1 18.91 CE2 24.27 CE3 22.79 CZ2 25.72 CZ3 28.6 CH2 28.39
A MET H 0 -63.6 -45.7 N 18.03 CA 18.54 C 18.64 O 20.23 CB 16.65 CG 16.24 SD 28.59 CE 32.57
A ILE H 8 -64.4 -44.5 N 18.43 CA 21.33 C 22.0 O 21.21 CB 19.0 CG1 21.25 CG2 19.4 CD1 22.94
A PHE H 12 -57.9 -49.3 N 18.05 CA 19.21 C 18.17 O 19.27 CB 18.95 CG 19.99 CD1 20.06 CD2 20.28 CE1 17.12 CE2 19.67 CZ 16.52
A THR H 16 -59.4 -43.3 N 16.8 CA 17.02 C 19.44 O 16.62 CB 16.67 OG1 17.43 CG2 17.49
A ALA H 1 -65.6 -41.8 N 17.11 CA 18.08 C 18.5 O 21.88 CB 17.16
A ARG H 76 -66.3 -34.7 N 21.02 CA 20.56 C 19.91 O 19.15 CB 24.99 CG 25.8 CD 32.21 NE 39.42 CZ 39.46 NH1 34.72 NH2 43.54
A ASP H 13 -72.0 -55.0 N 16.9 CA 19.72 C 24.02 O 18.98 CB 18.06 CG 23.0 OD1 22.17 OD2 22.97
A ARG H 64 -79.1 -19.7 N 21.96 CA 23.27 C 26.08 O 23.31 CB 21.82 CG 20.54 CD 15.26 NE 20.19 CZ 17.58 NH1 18.45 NH2 18.03
A LYS - 72 48.5 57.4 N 18.72 CA 21.51 C 20.25 O 24.52 CB 27.95 CG 29.3 CD 36.27 CE 43.71 NZ 44.8
A PRO - 2 -64.7 142.8 N 20.83 CA 20.58 C 25.94 O 26.95 CB 21.23 CG 23.21 CD 23.93
A LYS S 144 -76.2 -38.1 N 22.06 CA 25.63 C 30.01 O 31.53 CB 28.83 CG 36.85 CD 42.84 CE 47.74 NZ 47.88
A ARG E 58 -138.4 142.5 N 24.95 CA 21.4 C 23.53 O 23.14 CB 25.33 CG 33.09 CD 33.42 NE 34.04 CZ 34.62 NH1 33.77 NH2 34.93
A ILE E 0 -122.0 134.8 N 19.95 CA 19.2 C 22.49 O 21.67 CB 20.52 CG1 24.67 CG2 21.19 CD1 22.98
A LEU E 0 -113.4 140.0 N 19.54 CA 20.94 C 24.28 O 22.54 CB 21.22 CG 21.04 CD1 23.4 CD2 24.91
A GLU E 0 -132.2 132.2 N 21.63 CA 24.99 C 23.72 O 24.68 CB 33.44 CG 38.12 CD 35.21 OE1 36.95 OE2 31.48
A ILE E 0 -111.7 113.0 N 23.99 CA 21.72 C 25.72 O 24.06 CB 25.87 CG1 23.93 CG2 28.55 CD1 25.03
A GLY - 0 102.4 92.8 N 27.81 CA 25.59 C 27.04 O 28.13
A CYS - 0 -87.0 -34.6 N 24.02 CA 25.14 C 27.49 O 25.77 CB 26.76 SG 29.84
A TYR T 0 48.8 -112.8 N 26.7 CA 28.9 C 29.77 O 28.07 CB 30.2 CG 32.44 CD1 32.33 CD2 28.56 CE1 34.88 CE2 29.09 CZ 35.07 OH 39.48
A SER T 0 -97.8 2.9 N 26.57 CA 30.57 C 27.75 O 30.68 CB 33.53 OG 37.42
A GLY S 0 95.8 2.3 N 23.63 CA 22.87 C 24.44 O 23.73
A TYR H 0 -56.4 -50.1 N 22.84 CA 23.37 C 24.87 O 19.59 CB 25.27 CG 22.79 CD1 25.08 CD2 21.25 CE1 24.98 CE2 21.3 CZ 22.72 OH 23.57
A SER H 0 -73.1 -34.6 N 23.7 CA 22.93 C 25.68 O 20.42 CB 25.88 OG 25.33
A ALA H 0 -58.6 -41.9 N 22.78 CA 24.49 C 27.39 O 28.38 CB 26.24
A LEU H 0 -71.5 -30.8 N 23.79 CA 23.06 C 25.14 O 24.61 CB 24.91 CG 27.82 CD1 29.97 CD2 23.24
A ALA H 0 -61.9 -49.2 N 25.95 CA 24.45 C 24.87 O 26.6 CB 18.23
A TRP H 0 -58.3 -42.9 N 22.62 CA 23.99 C 26.5 O 24.06 CB 22.11 CG 20.66 CD1 24.46 CD2 23.32 NE1 23.32 CE2 24.31 CE3 20.59 CZ2 20.48 CZ3 23.69 CH2 16.22
A TYR H 22 -54.8 -49.3 N 25.04 CA 21.93 C 24.96 O 26.12 CB 24.69 CG 29.56 CD1 31.23 CD2 31.65 CE1 35.74 CE2 36.11 CZ 38.89 OH 43.25
A GLU H 13 -62.5 -37.0 N 23.61 CA 26.84 C 20.79 O 25.2 CB 30.69 CG 30.82 CD 35.59 OE1 31.22 OE2 32.86
A GLY H 7 -76.3 -9.9 N 24.06 CA 27.57 C 29.21 O 28.69
A THR T 3 -123.8 26.6 N 24.93 CA 26.5 C 30.05 O 30.11 CB 26.27 OG1 27.32 CG2 18.5
A ARG T 105 -59.6 -35.4 N 30.06 CA 33.4 C 38.22 O 38.05 CB 38.33 CG 39.67 CD 44.73 NE 47.44 CZ 50.16 NH1 52.76 NH2 50.34
A ASP T 126 -73.1 -31.3 N 39.95 CA 46.82 C 44.47 O 46.5 CB 54.04 CG 59.72 OD1 59.89 OD2 62.31
A THR T 76 -103.2 -11.6 N 41.26 CA 39.72 C 40.34 O 39.08 CB 38.85 OG1 39.06 CG2 41.44
A LYS T 146 53.0 45.9 N 38.29 CA 36.81 C 32.92 O 33.91 CB 41.31 CG 46.17 CD 47.27 CE 50.05 NZ 53.11
A ALA - 3 -53.6 142.0 N 29.3 CA 28.8 C 29.04 O 26.63 CB 24.2
A GLU E 65 -73.7 135.6 N 29.0 CA 29.27 C 27.72 O 26.84 CB 34.32 CG 42.94 CD 49.94 OE1 52.53 OE2 51.76
A ILE E 0 -123.0 118.3 N 29.88 CA 26.41 C 28.05 O 28.81 CB 26.39 CG1 27.66 CG2 23.12 CD1 30.7
A VAL E 3 -108.3 127.6 N 27.09 CA 23.44 C 25.96 O 26.3 CB 25.02 CG1 26.38 CG2 25.57
A THR E 0 -130.0 135.5 N 20.65 CA 21.88 C 26.28 O 28.11 CB 26.72 OG1 26.2 CG2 28.78
A LEU E 0 -106.5 134.8 N 29.98 CA 27.93 C 32.67 O 27.16 CB 26.11 CG 29.95 CD1 28.65 CD2 29.19
A GLU E 0 -150.8 144.5 N 29.36 CA 28.84 C 30.37 O 33.7 CB 28.46 CG 30.36 CD 32.59 OE1 33.43 OE2 32.25
A TYR - 114 -112.5 -17.5 N 30.55 CA 35.82 C 35.57 O 38.31 CB 45.24 CG 58.14 CD1 68.6 CD2 60.86 CE1 75.87 CE2 66.39 CZ 74.85 OH 80.0
A SER - 21 -81.9 118.5 N 33.88 CA 36.37 C 34.03 O 32.67 CB 38.16 OG 41.6
A PRO H 103 -50.6 -48.2 N 36.18 CA 40.82 C 43.03 O 42.0 CB 41.73 CG 42.45 CD 39.31
A LYS H 120 -53.4 -47.7 N 44.01 CA 42.6 C 38.04 O 37.48 CB 45.27 CG 51.79 CD 60.02 CE 64.15 NZ 67.72
A MET H 2 -77.0 -30.0 N 33.5 CA 35.42 C 35.53 O 31.91 CB 35.87 CG 38.88 SD 39.81 CE 36.14
A ILE H 24 -62.7 -47.8 N 37.78 CA 34.1 C 33.51 O 33.44 CB 36.71 CG1 35.14 CG2 39.61 CD1 37.18
A ALA H 61 -59.0 -49.6 N 33.56 CA 38.48 C 38.07 O 36.39 CB 37.52
A ALA H 0 -53.0 -48.8 N 34.77 CA 36.22 C 33.86 O 34.6 CB 32.88
A SER H 0 -68.1 -45.2 N 31.36 CA 29.33 C 33.18 O 31.55 CB 31.19 OG 31.37
A ARG H 83 -58.6 -45.5 N 29.25 CA 30.15 C 36.63 O 33.16 CB 31.61 CG 33.96 CD 37.75 NE 41.78 CZ 44.67 NH1 44.67 NH2 44.79
A GLU H 77 -60.8 -43.7 N 37.25 CA 39.97 C 36.7 O 35.7 CB 49.9 CG 60.52 CD 73.88 OE1 79.66 OE2 76.87
A ALA H 6 -59.0 -45.4 N 31.64 CA 29.77 C 33.07 O 33.35 CB 28.18
A PHE H 13 -62.1 -45.0 N 29.09 CA 27.53 C 29.37 O 30.41 CB 27.16 CG 30.12 CD1 29.09 CD2 27.33 CE1 30.65 CE2 27.45 CZ 29.08
A LYS H 171 -62.5 -41.6 N 31.06 CA 33.13 C 37.04 O 35.91 CB 35.01 CG 40.95 CD 43.58 CE 50.5 NZ 54.06
A LYS H 148 -62.8 -36.0 N 34.95 CA 39.31 C 33.51 O 34.74 CB 42.53 CG 52.56 CD 57.1 CE 58.71 NZ 62.11
A TYR H 40 -75.0 -21.5 N 31.29 CA 31.31 C 34.17 O 34.27 CB 28.64 CG 28.87 CD1 32.87 CD2 30.78 CE1 30.15 CE2 31.5 CZ 33.06 OH 31.07
A GLY T 51 74.7 39.7 N 39.96 CA 41.34 C 43.07 O 42.78
A VAL - 28 -70.0 156.8 N 36.91 CA 44.83 C 52.22 O 56.49 CB 44.44 CG1 40.03 CG2 48.57
A GLY - 39 -85.0 -157.7 N 53.67 CA 54.87 C 52.95 O 54.52
A ASP T 164 -74.4 -16.9 N 51.51 CA 54.28 C 47.89 O 50.32 CB 64.71 CG 74.98 OD1 77.81 OD2 80.72
A ARG T 30 -67.6 -13.1 N 41.22 CA 35.57 C 33.27 O 35.52 CB 36.15 CG 34.87 CD 37.91 NE 35.31 CZ 30.18 NH1 28.57 NH2 33.65
A VAL E 16 -98.7 121.5 N 33.37 CA 32.41 C 32.95 O 32.89 CB 36.28 CG1 35.89 CG2 37.12
A LYS E 108 -126.6 112.3 N 32.26 CA 35.59 C 31.64 O 28.76 CB 40.83 CG 50.29 CD 57.98 CE 66.2 NZ 71.46
A LEU E 11 -94.8 125.2 N 33.13 CA 35.27 C 34.2 O 35.2 CB 37.67 CG 42.51 CD1 43.07 CD2 46.78
A ILE E 27 -112.4 122.7 N 31.91 CA 34.83 C 33.47 O 29.12 CB 37.75 CG1 39.95 CG2 35.36 CD1 39.36
A GLU E 99 -91.5 144.3 N 34.92 CA 38.87 C 38.96 O 40.06 CB 46.21 CG 60.92 CD 74.38 OE1 77.85 OE2 80.67
A GLY S 18 128.5 167.4 N 34.69 CA 35.52 C 34.11 O 32.47
A PRO - 53 -54.9 121.2 N 34.28 CA 34.09 C 30.87 O 31.42 CB 31.79 CG 34.42 CD 34.24
A ALA H 0 -60.8 -28.2 N 29.56 CA 31.42 C 31.19 O 33.9 CB 30.86
A GLU H 85 -58.5 -35.9 N 30.35 CA 35.42 C 41.34 O 46.23 CB 34.88 CG 41.96 CD 40.58 OE1 35.27 OE2 43.98
A ASN H 96 -89.5 -43.1 N 38.26 CA 42.32 C 39.69 O 42.61 CB 49.82 CG 56.48 OD1 55.98 ND2 58.95
A THR H 19 -67.9 -34.5 N 34.14 CA 33.03 C 31.77 O 35.78 CB 30.7 OG1 28.56 CG2 33.67
A LEU H 0 -55.4 -37.6 N 28.38 CA 26.48 C 27.75 O 27.63 CB 24.69 CG 23.43 CD1 24.07 CD2 26.85
A LYS H 120 -67.2 -21.8 N 29.86 CA 32.21 C 36.55 O 40.03 CB 37.19 CG 37.26 CD 41.4 CE 43.22 NZ 46.73
A THR H 90 -84.1 -12.9 N 34.77 CA 38.27 C 37.07 O 35.46 CB 40.28 OG1 41.86 CG2 45.71
A LEU - 18 -67.6 148.8 N 34.5 CA 33.15 C 35.59 O 33.08 CB 28.48 CG 27.76 CD1 25.6 CD2 29.29
A GLU - 158 -117.6 160.8 N 38.11 CA 44.78 C 38.44 O 35.98 CB 55.35 CG 66.71 CD 75.43 OE1 79.2 OE2 77.06
A GLY S 49 75.5 -150.1 N 35.48 CA 36.93 C 32.88 O 34.25
A GLU - 95 -143.0 159.4 N 30.06 CA 30.99 C 32.65 O 31.58 CB 34.88 CG 37.89 CD 43.3 OE1 39.96 OE2 43.46
A PHE E 0 -121.7 142.9 N 22.98 CA 28.88 C 28.73 O 27.46 CB 21.0 CG 24.54 CD1 23.97 CD2 24.14 CE1 26.16 CE2 24.43 CZ 28.83
A ASP E 23 -86.7 -22.0 N 23.04 CA 21.63 C 20.82 O 19.2 CB 25.71 CG 32.58 OD1 35.96 OD2 35.22
A LEU E 0 -142.7 129.8 N 21.83 CA 22.66 C 19.82 O 18.06 CB 25.83 CG 27.94 CD1 29.54 CD2 27.04
A ILE E 0 -126.2 123.0 N 19.52 CA 18.16 C 18.42 O 18.19 CB 16.61 CG1 20.93 CG2 18.55 CD1 24.91
A PHE E 0 -107.4 113.2 N 16.77 CA 19.83 C 20.72 O 22.73 CB 23.28 CG 24.91 CD1 24.66 CD2 23.03 CE1 19.59 CE2 19.04 CZ 13.24
A VAL E 0 -99.9 112.9 N 17.24 CA 19.68 C 22.56 O 18.19 CB 20.77 CG1 16.95 CG2 20.48
A ASP - 1 -146.6 34.9 N 22.53 CA 23.15 C 22.9 O 25.86 CB 22.75 CG 28.06 OD1 27.66 OD2 27.35
A ALA S 3 -104.1 -140.5 N 19.4 CA 23.65 C 22.11 O 22.03 CB 24.98
A ASN - 34 -65.5 126.1 N 22.03 CA 24.89 C 24.91 O 22.01 CB 26.62 CG 29.48 OD1 26.32 ND2 24.54
A LYS G 13 -64.9 -27.6 N 22.04 CA 20.38 C 22.35 O 24.55 CB 22.24 CG 24.77 CD 29.88 CE 33.91 NZ 39.65
A ASP G 125 -78.1 -4.0 N 22.89 CA 24.89 C 26.27 O 24.4 CB 24.97 CG 29.44 OD1 30.36 OD2 36.99
A GLY G 12 -100.7 -9.5 N 21.74 CA 21.59 C 22.35 O 22.33
A TYR H 0 -54.2 -49.2 N 22.19 CA 17.29 C 20.77 O 22.0 CB 18.72 CG 19.23 CD1 18.24 CD2 15.09 CE1 18.35 CE2 15.46 CZ 18.85 OH 18.44
A ALA H 52 -55.9 -48.6 N 22.78 CA 20.98 C 22.9 O 27.3 CB 18.52
A GLY H 40 -59.8 -43.4 N 21.76 CA 21.71 C 21.07 O 25.92
A TYR H 4 -60.9 -47.5 N 20.42 CA 23.4 C 23.63 O 21.84 CB 25.23 CG 23.11 CD1 23.05 CD2 21.12 CE1 23.82 CE2 21.67 CZ 25.09 OH 27.49
A VAL H 3 -66.0 -37.0 N 20.3 CA 17.89 C 21.2 O 20.7 CB 19.55 CG1 21.29 CG2 19.81
A LYS H 121 -60.7 -47.4 N 20.98 CA 24.45 C 25.4 O 23.43 CB 24.87 CG 31.58 CD 35.49 CE 42.88 NZ 46.58
A THR H 18 -60.2 -44.7 N 24.79 CA 23.76 C 23.59 O 27.26 CB 24.36 OG1 26.45 CG2 23.21
A ILE H 0 -60.9 -42.6 N 21.83 CA 25.56 C 25.52 O 22.87 CB 23.31 CG1 23.83 CG2 25.33 CD1 21.19
A LEU H 5 -77.7 -38.0 N 22.88 CA 21.55 C 26.07 O 25.96 CB 20.88 CG 18.88 CD1 19.73 CD2 19.41
A ASP H 86 -65.3 -37.2 N 24.04 CA 26.56 C 32.04 O 27.83 CB 30.13 CG 34.64 OD1 32.46 OD2 35.49
A GLN T 89 -96.8 4.0 N 32.37 CA 33.96 C 31.26 O 28.38 CB 34.2 CG 35.0 CD 38.41 OE1 42.37 NE2 31.98
A GLY T 33 60.9 44.5 N 29.06 CA 28.04 C 27.68 O 27.18
A LEU - 2 -85.7 -13.6 N 22.97 CA 23.63 C 24.86 O 25.11 CB 27.19 CG 29.07 CD1 30.13 CD2 31.73
A LEU E 3 -94.2 127.2 N 20.74 CA 18.83 C 25.13 O 27.78 CB 17.93 CG 19.44 CD1 21.7 CD2 21.46
A SER E 3 -67.6 166.2 N 22.47 CA 21.56 C 21.99 O 19.32 CB 21.81 OG 26.73
A ALA E 33 -54.2 -43.6 N 26.59 CA 25.83 C 26.01 O 26.22 CB 24.43
A ASN E 95 -103.7 13.8 N 21.39 CA 23.71 C 22.83 O 22.38 CB 38.24 CG 48.24 OD1 52.09 ND2 51.65
A GLY E 1 -78.5 168.5 N 22.93 CA 22.9 C 21.79 O 20.15
A ILE E 4 -132.6 145.3 N 21.09 CA 18.34 C 18.64 O 20.78 CB 17.6 CG1 22.4 CG2 20.47 CD1 20.76
A ILE E 0 -105.6 130.6 N 16.07 CA 17.66 C 19.38 O 17.12 CB 17.53 CG1 18.75 CG2 18.34 CD1 18.77
A LEU E 4 -114.9 118.5 N 18.07 CA 14.54 C 16.48 O 18.95 CB 13.58 CG 19.14 CD1 19.7 CD2 20.61
A CYS E 0 -108.4 124.4 N 14.22 CA 16.8 C 16.33 O 18.5 CB 18.92 SG 21.29
A ASP - 2 -96.5 155.9 N 17.16 CA 20.24 C 19.66 O 19.98 CB 24.76 CG 31.67 OD1 31.57 OD2 36.33
A ASN - 20 60.1 27.7 N 20.29 CA 22.41 C 20.89 O 22.54 CB 24.17 CG 27.75 OD1 33.36 ND2 22.44
A VAL T 0 -66.6 -22.7 N 14.3 CA 15.07 C 16.18 O 15.21 CB 18.0 CG1 18.56 CG2 17.24
A PHE T 3 -76.4 -19.9 N 16.26 CA 15.41 C 16.62 O 19.57 CB 16.58 CG 16.22 CD1 15.12 CD2 15.26 CE1 12.88 CE2 18.32 CZ 17.28
A ALA G 0 50.0 50.4 N 14.41 CA 17.9 C 20.0 O 17.23 CB 18.38
A ARG G 40 69.0 7.3 N 17.82 CA 17.74 C 19.28 O 21.89 CB 24.33 CG 25.31 CD 27.24 NE 33.49 CZ 36.73 NH1 37.46 NH2 34.73
A GLY G 0 114.9 -16.9 N 15.99 CA 17.17 C 16.71 O 16.04
A LEU T 6 -76.0 -15.6 N 18.16 CA 17.93 C 18.97 O 19.41 CB 17.65 CG 17.25 CD1 16.95 CD2 18.2
A THR T 6 -59.6 -37.9 N 18.56 CA 17.62 C 17.23 O 18.96 CB 17.82 OG1 17.46 CG2 15.93
A ILE T 28 -74.7 -41.4 N 14.46 CA 15.2 C 19.65 O 17.62 CB 19.76 CG1 17.95 CG2 18.58 CD1 17.8
A GLY - 7 -175.6 154.6 N 15.25 CA 17.53 C 15.94 O 16.2
A PRO T 90 -67.4 -16.4 N 18.57 CA 21.32 C 24.07 O 21.16 CB 18.55 CG 21.65 CD 19.86
A ASP T 90 -95.7 12.3 N 19.8 CA 22.53 C 21.57 O 18.24 CB 22.63 CG 24.32 OD1 25.37 OD2 24.44
A CYS S 0 -95.6 7.5 N 20.3 CA 18.56 C 22.84 O 22.9 CB 20.01 SG 22.05
A ALA - 0 -143.9 65.9 N 22.61 CA 21.44 C 23.53 O 22.99 CB 21.18
A PRO T 99 -67.5 -21.1 N 22.76 CA 25.05 C 25.17 O 23.71 CB 26.04 CG 29.91 CD 24.45
A TRP T 75 -72.7 -19.2 N 25.59 CA 28.3 C 25.83 O 25.0 CB 23.79 CG 23.04 CD1 19.44 CD2 23.16 NE1 22.76 CE2 21.83 CE3 27.11 CZ2 23.98 CZ3 25.74 CH2 26.7
A LEU S 11 -63.3 138.4 N 20.8 CA 24.31 C 26.86 O 25.25 CB 25.12 CG 25.15 CD1 22.3 CD2 27.69
A ASN - 91 -54.8 124.2 N 27.08 CA 30.51 C 28.08 O 28.36 CB 28.5 CG 39.96 OD1 39.88 ND2 44.2
A ASP G 111 -60.4 -27.8 N 27.77 CA 31.49 C 31.63 O 32.23 CB 35.81 CG 37.84 OD1 36.84 OD2 38.85
A HIS G 168 -67.0 -25.8 N 30.56 CA 32.96 C 29.16 O 27.92 CB 32.37 CG 35.69 ND1 44.29 CD2 38.88 CE1 40.34 NE2 39.9
A VAL G 45 -108.6 4.5 N 26.08 CA 25.06 C 20.36 O 24.54 CB 27.7 CG1 30.16 CG2 27.79
A ARG H 45 -63.0 -48.6 N 27.94 CA 26.02 C 22.6 O 24.82 CB 29.86 CG 29.36 CD 25.75 NE 26.2 CZ 26.54 NH1 24.11 NH2 25.15
A PRO H 95 -57.1 -42.1 N 21.23 CA 22.15 C 25.44 O 24.19 CB 23.36 CG 30.16 CD 22.88
A TYR H 127 -57.5 -52.0 N 24.48 CA 23.8 C 20.53 O 22.54 CB 26.03 CG 26.69 CD1 30.66 CD2 31.2 CE1 30.66 CE2 28.59 CZ 32.2 OH 30.81
A TRP H 22 -69.6 -26.8 N 19.71 CA 20.91 C 23.49 O 18.48 CB 23.43 CG 23.93 CD1 26.73 CD2 23.5 NE1 27.35 CE2 27.65 CE3 23.59 CZ2 28.14 CZ3 22.96 CH2 25.56
A ASN H 33 -67.6 -41.7 N 20.01 CA 25.38 C 22.86 O 22.35 CB 28.18 CG 36.32 OD1 33.38 ND2 42.07
A GLY H 35 -57.4 -49.7 N 22.77 CA 22.82 C 18.94 O 23.18
A CYS H 11 -56.8 -42.8 N 19.41 CA 19.74 C 19.98 O 20.57 CB 22.24 SG 23.78
A GLY H 1 -63.9 -39.9 N 19.6 CA 16.79 C 18.82 O 18.7
A GLN H 120 -62.4 -45.0 N 17.66 CA 18.44 C 20.28 O 21.81 CB 23.04 CG 32.44 CD 41.44 OE1 47.1 NE2 44.66
A ALA H 27 -63.8 -40.3 N 19.27 CA 20.21 C 20.22 O 21.84 CB 21.26
A LEU H 0 -73.6 -28.0 N 17.64 CA 18.06 C 18.83 O 19.17 CB 14.68 CG 17.35 CD1 14.51 CD2 17.86
A ASP H 64 -69.1 -44.4 N 16.69 CA 16.36 C 18.96 O 17.93 CB 20.11 CG 25.13 OD1 21.98 OD2 29.16
A LYS H 153 -60.7 -42.1 N 18.87 CA 21.32 C 18.55 O 19.44 CB 26.9 CG 35.62 CD 41.08 CE 49.3 NZ 52.73
A PHE H 6 -53.8 -54.4 N 17.71 CA 18.25 C 21.39 O 21.67 CB 14.92 CG 14.54 CD1 18.96 CD2 14.3 CE1 16.8 CE2 16.75 CZ 16.66
A SER H 3 -60.3 -43.2 N 18.29 CA 19.27 C 17.56 O 20.26 CB 16.02 OG 16.43
A ALA H 40 -66.6 -36.4 N 17.39 CA 19.77 C 21.42 O 23.65 CB 20.69
A GLY H 40 -64.9 -37.2 N 20.13 CA 24.1 C 20.45 O 22.72
A LEU H 11 -58.8 -34.9 N 20.17 CA 18.5 C 22.13 O 19.19 CB 16.38 CG 20.32 CD1 18.17 CD2 16.69
A MET H 67 -69.9 -16.5 N 18.59 CA 20.38 C 25.39 O 23.7 CB 21.8 CG 22.08 SD 28.84 CE 25.62
A GLU T 158 -94.2 -4.6 N 18.52 CA 24.61 C 23.86 O 24.57 CB 32.12 CG 34.33 CD 43.34 OE1 43.12 OE2 49.61
A ASP - 34 -91.4 114.2 N 19.96 CA 21.2 C 20.92 O 22.99 CB 21.99 CG 27.17 OD1 23.42 OD2 27.74
A PRO T 103 -73.8 -3.2 N 20.47 CA 21.11 C 20.57 O 23.83 CB 23.09 CG 24.62 CD 25.02
A ARG T 66 -86.6 -15.1 N 19.71 CA 22.05 C 21.3 O 19.98 CB 21.99 CG 21.52 CD 23.97 NE 20.27 CZ 21.94 NH1 22.43 NH2 24.16
A ILE E 4 -129.9 151.7 N 18.74 CA 19.23 C 22.4 O 21.48 CB 15.23 CG1 17.9 CG2 17.78 CD1 21.82
A ASP E 5 -100.4 138.3 N 21.09 CA 21.7 C 17.11 O 18.28 CB 24.34 CG 31.8 OD1 30.6 OD2 35.75
A VAL E 6 -124.7 137.3 N 15.79 CA 15.72 C 15.44 O 19.32 CB 22.81 CG1 20.7 CG2 22.5
A LEU E 0 -134.7 115.6 N 16.31 CA 17.88 C 17.32 O 16.58 CB 15.77 CG 16.66 CD1 21.5 CD2 21.91
A LEU E 1 -91.0 99.6 N 13.42 CA 15.86 C 17.38 O 18.01 CB 19.76 CG 19.4 CD1 19.13 CD2 18.11
A LEU E 6 -83.8 121.8 N 18.67 CA 18.06 C 18.92 O 17.5 CB 22.78 CG 29.24 CD1 29.08 CD2 28.15
A PRO - 14 -81.3 64.5 N 18.75 CA 17.55 C 20.53 O 19.25 CB 17.97 CG 16.46 CD 21.82
A VAL S 3 -128.2 149.0 N 15.3 CA 17.48 C 15.03 O 17.03 CB 14.96 CG1 15.12 CG2 16.9
A PHE T 10 55.0 -128.3 N 15.55 CA 19.8 C 20.15 O 20.13 CB 16.29 CG 18.28 CD1 21.9 CD2 15.72 CE1 22.47 CE2 18.97 CZ 17.07
A ASP T 10 -100.8 29.9 N 16.45 CA 18.06 C 20.07 O 20.02 CB 17.09 CG 23.76 OD1 20.98 OD2 24.21
A GLY - 0 91.2 119.7 N 20.69 CA 14.71 C 18.9 O 20.64
A VAL E 0 -125.8 115.1 N 17.3 CA 15.19 C 15.18 O 16.34 CB 14.02 CG1 13.94 CG2 12.98
A THR E 1 -88.2 121.8 N 14.75 CA 15.92 C 17.54 O 18.4 CB 21.69 OG1 21.78 CG2 20.73
A GLN E 23 -96.3 130.8 N 16.28 CA 15.43 C 17.62 O 15.97 CB 13.63 CG 21.52 CD 24.93 OE1 25.66 NE2 24.35
A ILE E 0 -127.9 131.6 N 18.06 CA 16.29 C 19.48 O 17.93 CB 18.41 CG1 16.19 CG2 19.01 CD1 15.26
A ARG E 4 -134.4 161.4 N 17.32 CA 17.57 C 19.12 O 18.08 CB 19.65 CG 19.2 CD 22.26 NE 23.03 CZ 24.55 NH1 27.84 NH2 28.48
A TRP E 23 -64.4 138.6 N 17.25 CA 20.0 C 23.04 O 21.37 CB 23.78 CG 21.91 CD1 23.34 CD2 18.66 NE1 23.87 CE2 27.29 CE3 21.12 CZ2 29.13 CZ3 22.27 CH2 28.86
A LYS - 65 -56.0 148.2 N 18.2 CA 27.6 C 26.45 O 21.22 CB 25.72 CG 23.55 CD 26.5 CE 28.6 NZ 28.25
A ASP G 49 -47.3 -48.2 N 25.56 CA 30.64 C 29.98 O 35.03 CB 38.05 CG 43.17 OD1 42.54 OD2 44.86
A GLY G 64 -74.6 -16.1 N 27.85 CA 31.34 C 28.98 O 32.46
A ALA G 18 -90.7 -10.1 N 26.39 CA 23.76 C 27.33 O 24.77 CB 21.52
A GLN - 47 -62.8 140.7 N 25.33 CA 27.08 C 30.02 O 29.04 CB 31.9 CG 34.87 CD 41.78 OE1 46.47 NE2 44.13
A ARG - 186 -126.8 162.2 N 28.26 CA 29.68 C 32.97 O 37.57 CB 29.4 CG 28.07 CD 33.41 NE 34.95 CZ 36.51 NH1 29.03 NH2 28.68
A ALA - 153 -92.4 360.0 N 29.06 CA 44.04 C 48.07 O 49.4 CB 42.93
B LEU - 191 360.0 142.3 N 82.96 CA 77.09 C 71.78 O 73.13 CB 78.85 CG 74.92 CD1 75.84 CD2 73.61
B GLY - 15 -104.5 -171.4 N 64.54 CA 56.47 C 50.16 O 53.16
B SER S 9 -110.6 10.1 N 43.4 CA 41.76 C 41.67 O 41.36 CB 31.63 OG 37.13
B ILE S 24 -119.7 128.4 N 25.05 CA 22.01 C 23.19 O 22.76 CB 22.47 CG1 24.26 CG2 20.6 CD1 25.66
B LEU - 22 -74.7 131.0 N 18.59 CA 22.7 C 19.5 O 21.9 CB 17.86 CG 22.4 CD1 24.11 CD2 25.4
B PRO - 17 -83.0 129.2 N 20.28 CA 24.63 C 25.63 O 23.25 CB 27.45 CG 27.95 CD 23.8
B PHE B 14 -129.7 146.4 N 20.22 CA 21.11 C 24.65 O 26.02 CB 19.35 CG 19.84 CD1 23.89 CD2 20.48 CE1 25.02 CE2 21.81 CZ 19.1
B ASN - 86 -82.2 177.7 N 22.25 CA 23.31 C 22.22 O 19.83 CB 25.24 CG 26.51 OD1 24.76 ND2 26.88
B GLU H 104 -58.1 -50.8 N 23.55 CA 27.53 C 22.39 O 22.31 CB 30.46 CG 35.16 CD 39.67 OE1 40.83 OE2 40.52
B GLU H 134 -58.5 -45.5 N 23.74 CA 25.92 C 22.46 O 24.41 CB 28.69 CG 36.88 CD 51.83 OE1 57.26 OE2 55.47
B THR H 8 -71.1 -40.7 N 19.04 CA 22.13 C 17.41 O 18.35 CB 23.69 OG1 25.49 CG2 23.48
B ALA H 0 -53.8 -44.3 N 17.0 CA 14.64 C 18.07 O 17.38 CB 17.73
B ASP H 53 -66.8 -39.7 N 19.42 CA 21.94 C 22.68 O 18.31 CB 22.4 CG 33.74 OD1 36.9 OD2 34.5
B ARG H 82 -61.0 -41.7 N 17.75 CA 16.28 C 16.58 O 19.49 CB 17.42 CG 26.3 CD 27.05 NE 27.44 CZ 29.62 NH1 28.85 NH2 28.42
B VAL H 0 -69.5 -39.2 N 19.95 CA 15.98 C 18.17 O 18.51 CB 14.95 CG1 20.74 CG2 16.33
B SER H 0 -61.4 -44.2 N 15.37 CA 19.08 C 17.84 O 15.52 CB 19.7 OG 27.49
B ALA H 53 -61.2 -37.6 N 17.29 CA 18.78 C 15.44 O 16.21 CB 18.94
B TYR H 23 -64.2 -42.1 N 14.39 CA 18.06 C 16.97 O 16.8 CB 15.81 CG 15.91 CD1 18.34 CD2 16.54 CE1 21.41 CE2 17.58 CZ 19.15 OH 19.1
B CYS H 0 -61.8 -35.7 N 16.68 CA 15.62 C 15.97 O 17.72 CB 11.72 SG 18.61
B GLU H 54 -68.7 -44.8 N 13.17 CA 15.71 C 18.41 O 22.32 CB 24.13 CG 25.77 CD 31.1 OE1 31.42 OE2 37.06
B LYS H 155 -63.3 -32.4 N 18.15 CA 19.35 C 21.91 O 20.47 CB 21.2 CG 29.74 CD 30.96 CE 36.02 NZ 34.16
B ASN T 3 -107.8 26.9 N 20.21 CA 17.36 C 19.21 O 18.35 CB 18.09 CG 23.28 OD1 24.52 ND2 19.17
B SER S 3 -131.5 157.6 N 17.61 CA 17.22 C 27.6 O 16.84 CB 16.78 OG 18.47
B HIS - 60 -51.8 131.7 N 18.93 CA 22.77 C 22.69 O 21.47 CB 32.38 CG 42.49 ND1 47.11 CD2 49.44 CE1 49.63 NE2 50.13
B GLY - 47 -78.9 160.7 N 21.8 CA 20.78 C 24.29 O 24.58
B ILE - 22 -85.6 158.5 N 25.87 CA 23.81 C 22.02 O 21.55 CB 30.2 CG1 30.78 CG2 30.08 CD1 28.3
B PRO - 39 -64.1 150.2 N 20.85 CA 22.18 C 27.41 O 21.51 CB 24.27 CG 27.03 CD 21.39
B ASP H 146 -48.2 -43.1 N 25.56 CA 26.68 C 22.69 O 30.03 CB 31.08 CG 37.94 OD1 36.2 OD2 45.8
B ALA H 38 -60.2 -35.1 N 26.93 CA 26.88 C 22.75 O 20.62 CB 34.58
B LEU H 5 -72.9 -42.3 N 19.89 CA 18.65 C 18.45 O 19.59 CB 21.55 CG 25.25 CD1 21.61 CD2 26.93
B VAL H 40 -55.8 -46.5 N 19.06 CA 18.11 C 16.93 O 22.83 CB 23.47 CG1 26.12 CG2 23.87
B GLU H 91 -57.6 -46.1 N 19.98 CA 24.68 C 25.46 O 19.11 CB 29.33 CG 38.3 CD 46.52 OE1 48.6 OE2 54.21
B HIS H 1 -66.0 -40.4 N 18.18 CA 20.92 C 21.71 O 19.13 CB 20.81 CG 24.96 ND1 25.63 CD2 28.98 CE1 25.45 NE2 32.28
B TRP H 18 -57.6 -48.1 N 18.77 CA 21.51 C 15.66 O 20.06 CB 21.42 CG 20.14 CD1 18.5 CD2 20.18 NE1 19.61 CE2 21.05 CE3 23.17 CZ2 26.83 CZ3 28.61 CH2 27.95
B GLU H 107 -67.2 -39.4 N 19.82 CA 22.49 C 20.52 O 22.54 CB 22.99 CG 23.79 CD 26.84 OE1 29.33 OE2 29.51
B TRP H 49 -57.6 -44.8 N 19.48 CA 20.04 C 22.79 O 22.72 CB 29.73 CG 30.79 CD1 32.65 CD2 29.95 NE1 30.56 CE2 30.92 CE3 33.72 CZ2 34.85 CZ3 38.15 CH2 37.55
B THR H 0 -62.6 -45.4 N 21.22 CA 21.2 C 22.16 O 20.57 CB 21.35 OG1 22.49 CG2 19.71
B ARG H 132 -65.9 -25.6 N 18.7 CA 21.21 C 27.69 O 24.34 CB 25.49 CG 24.88 CD 25.46 NE 35.76 CZ 41.5 NH1 36.95 NH2 44.85
B THR H 107 -74.6 -38.7 N 23.9 CA 26.3 C 30.49 O 33.2 CB 27.77 OG1 27.09 CG2 30.86
B ARG H 140 -88.4 -27.3 N 25.31 CA 30.41 C 32.7 O 30.87 CB 31.18 CG 35.57 CD 50.66 NE 61.77 CZ 70.03 NH1 75.11 NH2 70.72
B PHE - 18 -124.6 133.4 N 31.84 CA 33.2 C 34.29 O 33.95 CB 31.69 CG 31.61 CD1 34.83 CD2 29.5 CE1 35.65 CE2 27.97 CZ 33.39
B PRO T 136 -71.9 -19.5 N 37.31 CA 39.58 C 38.19 O 37.04 CB 40.92 CG 44.27 CD 40.96
B ASP T 58 -103.0 27.0 N 31.34 CA 29.11 C 26.51 O 25.66 CB 38.15 CG 38.19 OD1 33.21 OD2 36.07
B ALA G 10 -65.5 -8.7 N 31.54 CA 25.59 C 24.48 O 22.73 CB 29.65
B ASP G 81 -66.7 -13.7 N 29.22 CA 29.18 C 23.06 O 30.89 CB 40.21 CG 54.21 OD1 55.35 OD2 63.42
B LYS G 60 -70.9 -24.8 N 23.07 CA 22.44 C 24.71 O 24.35 CB 23.59 CG 38.98 CD 40.62 CE 42.65 NZ 41.75
B MET S 15 -67.4 144.1 N 21.48 CA 20.45 C 17.9 O 19.99 CB 25.33 CG 18.66 SD 22.61 CE 20.04
B SER - 3 -60.0 159.3 N 15.87 CA 18.0 C 19.74 O 21.96 CB 15.65 OG 19.76
B SER - 19 -80.2 171.2 N 17.2 CA 16.73 C 15.02 O 16.46 CB 20.95 OG 18.92
B ARG H 72 -63.2 -46.0 N 19.06 CA 18.04 C 15.76 O 17.85 CB 20.04 CG 23.6 CD 30.93 NE 37.61 CZ 45.13 NH1 49.42 NH2 47.53
B LEU H 1 -60.6 -43.0 N 15.78 CA 15.49 C 16.43 O 15.92 CB 17.47 CG 16.96 CD1 17.26 CD2 18.82
B GLN H 11 -58.5 -36.6 N 16.08 CA 18.45 C 19.25 O 17.9 CB 24.31 CG 34.52 CD 39.95 OE1 42.59 NE2 44.45
B GLY H 0 -60.8 -41.9 N 18.87 CA 17.93 C 20.75 O 19.27
B SER H 8 -59.2 -44.1 N 16.88 CA 17.89 C 17.03 O 15.68 CB 17.6 OG 18.06
B TRP H 10 -59.8 -43.1 N 13.35 CA 16.63 C 16.91 O 15.92 CB 13.8 CG 21.84 CD1 24.03 CD2 20.49 NE1 20.12 CE2 22.07 CE3 20.61 CZ2 25.37 CZ3 24.22 CH2 25.1
B MET H 0 -61.9 -46.0 N 13.38 CA 16.47 C 16.55 O 17.32 CB 13.1 CG 16.83 SD 25.28 CE 24.21
B ILE H 4 -64.4 -49.0 N 15.24 CA 14.47 C 17.88 O 18.0 CB 16.9 CG1 18.59 CG2 17.96 CD1 19.73
B PHE H 8 -52.2 -46.4 N 16.15 CA 14.95 C 16.55 O 15.39 CB 14.0 CG 15.65 CD1 19.37 CD2 20.88 CE1 20.74 CE2 21.44 CZ 19.68
B THR H 15 -67.2 -41.4 N 14.21 CA 15.35 C 17.97 O 17.62 CB 16.52 OG1 17.47 CG2 15.33
B ALA H 0 -66.6 -41.2 N 18.87 CA 21.27 C 18.97 O 18.17 CB 15.44
B ARG H 47 -65.3 -37.1 N 18.03 CA 19.91 C 18.46 O 19.33 CB 23.15 CG 25.65 CD 34.31 NE 41.08 CZ 48.56 NH1 46.32 NH2 53.18
B ASP H 18 -70.5 -55.3 N 17.59 CA 18.14 C 17.13 O 19.43 CB 17.46 CG 19.85 OD1 20.69 OD2 19.87
B ARG H 63 -75.1 -25.5 N 16.59 CA 17.6 C 19.95 O 20.78 CB 18.75 CG 20.15 CD 19.61 NE 20.86 CZ 25.51 NH1 24.17 NH2 22.92
B LYS - 59 51.6 58.1 N 22.67 CA 24.43 C 20.38 O 19.53 CB 28.07 CG 32.77 CD 41.11 CE 52.54 NZ 57.21
B PRO - 3 -69.4 145.6 N 16.87 CA 23.04 C 25.0 O 26.71 CB 21.7 CG 21.54 CD 17.61
B LYS S 150 -81.3 -32.4 N 21.8 CA 22.35 C 19.76 O 18.93 CB 32.52 CG 41.66 CD 50.44 CE 55.02 NZ 58.61
B ARG E 53 -143.4 138.7 N 20.77 CA 21.71 C 20.83 O 20.21 CB 18.72 CG 29.59 CD 29.07 NE 29.15 CZ 31.39 NH1 27.12 NH2 37.09
B ILE E 0 -122.3 135.7 N 15.85 CA 16.36 C 17.23 O 18.3 CB 14.96 CG1 17.23 CG2 17.08 CD1 15.09
B LEU E 0 -117.0 132.0 N 17.38 CA 15.33 C 19.11 O 17.67 CB 15.3 CG 17.34 CD1 18.11 CD2 18.73
B GLU E 0 -122.3 134.7 N 14.03 CA 18.69 C 19.47 O 18.43 CB 22.47 CG 26.02 CD 23.18 OE1 21.56 OE2 21.8
B ILE E 0 -113.2 112.8 N 14.05 CA 15.67 C 16.44 O 14.29 CB 16.14 CG1 19.19 CG2 12.49 CD1 18.12
B GLY - 0 102.4 86.5 N 16.34 CA 18.21 C 18.9 O 19.54
B CYS - 0 -83.2 -39.4 N 18.7 CA 18.58 C 18.44 O 18.65 CB 17.99 SG 18.05
B TYR T 1 55.3 -115.3 N 15.06 CA 16.72 C 19.85 O 21.61 CB 14.98 CG 17.9 CD1 19.32 CD2 20.17 CE1 19.36 CE2 23.3 CZ 19.96 OH 22.41
B SER T 0 -95.1 0.5 N 16.43 CA 19.37 C 18.66 O 17.43 CB 20.81 OG 18.59
B GLY S 0 96.1 7.6 N 14.2 CA 16.13 C 16.3 O 18.44
B TYR H 0 -60.3 -50.3 N 13.52 CA 16.2 C 16.31 O 16.6 CB 14.36 CG 15.98 CD1 15.44 CD2 17.83 CE1 19.54 CE2 18.66 CZ 19.5 OH 17.8
B SER H 0 -73.6 -31.4 N 14.93 CA 16.28 C 18.52 O 18.25 CB 16.5 OG 18.67
B ALA H 0 -61.7 -40.8 N 16.09 CA 13.11 C 16.3 O 16.36 CB 12.63
B LEU H 9 -66.4 -35.6 N 13.92 CA 17.0 C 17.27 O 16.62 CB 14.93 CG 21.84 CD1 25.08 CD2 21.56
B ALA H 0 -64.4 -45.6 N 15.59 CA 16.18 C 13.38 O 19.52 CB 14.7
B TRP H 0 -60.2 -42.0 N 12.72 CA 13.57 C 17.31 O 20.19 CB 15.52 CG 14.98 CD1 18.03 CD2 17.68 NE1 16.97 CE2 17.93 CE3 18.68 CZ2 19.13 CZ3 19.98 CH2 18.24
B TYR H 14 -55.6 -50.0 N 16.11 CA 18.32 C 19.76 O 20.22 CB 22.08 CG 26.44 CD1 26.31 CD2 29.72 CE1 30.04 CE2 30.05 CZ 32.32 OH 35.72
B GLU H 31 -60.3 -40.1 N 18.25 CA 18.27 C 18.21 O 20.01 CB 25.86 CG 32.36 CD 35.05 OE1 28.68 OE2 43.56
B GLY H 0 -74.0 -10.9 N 16.71 CA 21.19 C 19.65 O 19.61
B THR T 0 -118.7 19.7 N 19.03 CA 22.61 C 28.5 O 24.86 CB 24.46 OG1 19.45 CG2 22.05
B ARG T 117 -55.9 -36.8 N 26.34 CA 34.83 C 38.57 O 39.03 CB 37.48 CG 35.05 CD 40.01 NE 43.7 CZ 45.07 NH1 44.98 NH2 45.95
B ASP T 69 -65.9 -40.6 N 38.72 CA 44.61 C 44.81 O 46.69 CB 48.65 CG 49.87 OD1 47.72 OD2 50.04
B THR T 60 -99.3 -8.1 N 39.8 CA 44.96 C 46.12 O 47.91 CB 45.16 OG1 45.2 CG2 46.17
B LYS T 139 57.5 38.7 N 40.68 CA 40.32 C 36.36 O 32.47 CB 44.92 CG 49.91 CD 51.73 CE 58.3 NZ 60.7
B ALA - 3 -58.6 145.5 N 25.17 CA 23.79 C 23.59 O 20.55 CB 20.7
B GLU E 84 -77.3 135.9 N 24.39 CA 24.34 C 21.12 O 19.36 CB 29.57 CG 38.64 CD 47.99 OE1 49.52 OE2 45.93
B ILE E 0 -124.2 127.0 N 20.54 CA 19.72 C 19.9 O 19.29 CB 18.85 CG1 15.86 CG2 21.72 CD1 15.91
B VAL E 4 -116.9 128.4 N 18.52 CA 17.39 C 19.31 O 17.75 CB 18.28 CG1 18.21 CG2 19.56
B THR E 0 -129.2 143.0 N 15.76 CA 14.85 C 16.96 O 18.36 CB 18.66 OG1 15.47 CG2 21.24
B LEU E 0 -113.5 134.9 N 16.13 CA 13.73 C 15.04 O 17.04 CB 17.81 CG 15.94 CD1 15.93 CD2 16.17
B GLU E 0 -153.9 144.4 N 17.81 CA 14.56 C 17.99 O 19.9 CB 18.48 CG 17.84 CD 21.52 OE1 20.83 OE2 20.78
B TYR - 112 -111.9 -9.7 N 19.6 CA 18.51 C 18.29 O 20.55 CB 23.68 CG 34.09 CD1 44.76 CD2 34.81 CE1 52.0 CE2 40.34 CZ 51.08 OH 58.85
B SER - 30 -89.3 119.5 N 18.89 CA 20.77 C 19.8 O 22.03 CB 18.08 OG 20.1
B PRO H 91 -52.9 -44.9 N 21.37 CA 23.18 C 22.48 O 25.35 CB 26.84 CG 27.04 CD 21.11
B LYS H 144 -55.4 -46.1 N 21.65 CA 24.85 C 23.51 O 22.56 CB 26.21 CG 26.23 CD 28.9 CE 32.73 NZ 35.19
B MET H 6 -79.8 -29.3 N 20.23 CA 19.19 C 19.49 O 18.95 CB 19.87 CG 21.86 SD 25.53 CE 22.83
B ILE H 9 -58.0 -51.9 N 19.75 CA 19.88 C 18.21 O 21.22 CB 22.12 CG1 25.98 CG2 24.26 CD1 24.88
B ALA H 59 -56.3 -48.0 N 18.55 CA 24.58 C 26.45 O 25.61 CB 26.71
B ALA H 4 -52.0 -49.2 N 22.77 CA 23.49 C 24.97 O 21.18 CB 22.84
B SER H 0 -67.2 -46.1 N 22.82 CA 20.06 C 21.34 O 21.99 CB 20.61 OG 20.31
B ARG H 118 -62.3 -37.5 N 19.91 CA 22.51 C 24.85 O 25.91 CB 22.24 CG 20.62 CD 24.98 NE 25.12 CZ 25.31 NH1 26.51 NH2 21.15
B GLU H 109 -59.4 -50.1 N 21.08 CA 26.32 C 24.88 O 27.23 CB 31.74 CG 37.61 CD 45.45 OE1 48.04 OE2 43.33
B ALA H 5 -61.8 -41.5 N 25.04 CA 24.39 C 24.58 O 26.34 CB 22.64
B PHE H 13 -65.4 -38.9 N 24.76 CA 22.72 C 28.23 O 29.07 CB 22.09 CG 18.6 CD1 20.25 CD2 20.45 CE1 18.91 CE2 19.19 CZ 17.35
B LYS H 189 -66.1 -44.0 N 26.38 CA 25.97 C 29.18 O 28.67 CB 28.49 CG 34.54 CD 41.62 CE 49.46 NZ 55.23
B LYS H 134 -64.5 -38.9 N 29.1 CA 30.11 C 30.83 O 32.79 CB 28.73 CG 33.1 CD 35.91 CE 41.83 NZ 43.5
B TYR H 50 -90.5 -11.8 N 29.83 CA 29.67 C 30.76 O 33.28 CB 25.69 CG 25.88 CD1 27.44 CD2 22.58 CE1 23.66 CE2 22.55 CZ 23.4 OH 26.54
B GLY T 47 83.6 33.3 N 33.09 CA 32.13 C 31.11 O 35.3
B VAL - 3 -107.6 9.4 N 27.23 CA 28.99 C 39.73 O 40.43 CB 27.36 CG1 24.59 CG2 26.6
B GLY T 55 -68.2 -17.2 N 41.41 CA 39.47 C 41.01 O 43.52
B ASP T 109 -62.8 -28.1 N 37.72 CA 39.02 C 38.54 O 43.03 CB 41.31 CG 46.25 OD1 44.02 OD2 48.96
B ARG T 22 -125.0 -15.0 N 32.59 CA 32.77 C 30.13 O 26.39 CB 28.41 CG 33.51 CD 29.97 NE 26.01 CZ 25.26 NH1 19.02 NH2 20.29
B VAL E 12 -100.0 123.0 N 26.82 CA 21.17 C 24.5 O 22.35 CB 24.27 CG1 20.86 CG2 23.07
B LYS E 122 -115.7 117.9 N 22.0 CA 20.98 C 21.65 O 23.12 CB 21.78 CG 28.07 CD 31.2 CE 38.07 NZ 45.79
B LEU E 9 -101.4 122.6 N 19.94 CA 17.66 C 22.01 O 23.46 CB 18.14 CG 25.83 CD1 23.09 CD2 28.23
B ILE E 36 -108.1 123.6 N 20.68 CA 18.92 C 20.32 O 19.16 CB 20.79 CG1 20.67 CG2 20.08 CD1 22.01
B GLU E 105 -92.9 127.4 N 21.15 CA 18.4 C 22.83 O 22.2 CB 20.53 CG 24.71 CD 30.6 OE1 27.76 OE2 29.07
B GLY S 12 152.9 167.1 N 19.18 CA 20.08 C 18.94 O 16.47
B PRO - 48 -58.6 118.5 N 19.74 CA 19.34 C 21.16 O 21.47 CB 22.42 CG 28.22 CD 24.76
B ALA H 0 -58.7 -27.3 N 17.41 CA 17.37 C 18.84 O 22.9 CB 19.67
B GLU H 86 -63.5 -32.2 N 15.74 CA 17.18 C 27.31 O 29.28 CB 21.36 CG 27.62 CD 26.63 OE1 19.9 OE2 25.84
B ASN H 101 -84.6 -51.6 N 22.16 CA 27.09 C 22.52 O 22.16 CB 23.49 CG 35.83 OD1 42.51 ND2 41.32
B THR H 18 -66.2 -34.8 N 20.49 CA 19.52 C 21.3 O 19.78 CB 16.28 OG1 20.56 CG2 18.23
B LEU H 0 -55.8 -40.1 N 18.75 CA 17.46 C 15.34 O 18.73 CB 16.59 CG 20.42 CD1 18.91 CD2 15.99
B LYS H 115 -64.7 -25.0 N 17.99 CA 21.71 C 23.22 O 21.57 CB 25.07 CG 26.96 CD 31.4 CE 35.21 NZ 36.44
B THR H 95 -83.0 -10.5 N 25.43 CA 24.87 C 24.99 O 27.58 CB 22.48 OG1 21.92 CG2 19.69
B LEU - 18 -71.2 152.7 N 18.88 CA 21.7 C 21.1 O 23.98 CB 15.41 CG 21.24 CD1 23.15 CD2 22.7
B GLU - 152 -123.9 168.9 N 23.34 CA 22.73 C 22.38 O 24.78 CB 24.22 CG 29.74 CD 37.75 OE1 35.42 OE2 43.51
B GLY S 50 74.9 -154.7 N 24.25 CA 26.32 C 24.38 O 21.54
B GLU - 99 -141.2 160.7 N 18.15 CA 21.71 C 21.41 O 21.84 CB 27.21 CG 31.64 CD 38.85 OE1 40.25 OE2 42.55
B PHE E 0 -122.7 138.4 N 17.95 CA 19.66 C 20.71 O 19.4 CB 17.06 CG 18.27 CD1 22.68 CD2 16.7 CE1 27.89 CE2 18.95 CZ 22.0
B ASP E 26 -84.8 -24.5 N 18.0 CA 18.15 C 16.6 O 16.59 CB 21.62 CG 28.37 OD1 29.55 OD2 31.38
B LEU E 0 -140.1 126.0 N 16.51 CA 16.08 C 18.28 O 17.92 CB 15.84 CG 16.63 CD1 23.22 CD2 16.09
B ILE E 0 -123.4 124.5 N 12.71 CA 13.14 C 17.53 O 17.05 CB 17.42 CG1 12.53 CG2 16.22 CD1 15.24
B PHE E 0 -108.3 111.8 N 15.06 CA 12.77 C 17.75 O 19.17 CB 13.48 CG 14.0 CD1 16.42 CD2 16.3 CE1 21.07 CE2 15.56 CZ 15.52
B VAL E 0 -99.6 113.6 N 13.96 CA 17.98 C 18.41 O 14.04 CB 17.71 CG1 16.38 CG2 14.8
B ASP - 0 -153.6 39.9 N 16.61 CA 16.2 C 19.42 O 19.64 CB 13.63 CG 19.52 OD1 22.84 OD2 18.03
B ALA S 2 -106.1 -139.1 N 17.08 CA 16.47 C 17.3 O 18.03 CB 17.22
B ASN - 35 -63.0 127.1 N 19.47 CA 15.84 C 17.79 O 15.78 CB 16.86 CG 19.91 OD1 18.25 ND2 18.26
B LYS G 11 -63.7 -38.0 N 18.7 CA 18.12 C 20.26 O 27.26 CB 19.9 CG 22.39 CD 24.79 CE 31.13 NZ 27.67
B ASP G 124 -70.0 -2.0 N 19.56 CA 20.5 C 21.33 O 22.27 CB 24.83 CG 29.8 OD1 28.79 OD2 34.12
B GLY G 12 -101.8 -9.8 N 19.15 CA 17.2 C 17.72 O 18.85
B TYR H 0 -51.5 -47.0 N 16.8 CA 13.63 C 18.01 O 21.65 CB 15.09 CG 15.81 CD1 15.82 CD2 17.31 CE1 15.24 CE2 13.3 CZ 16.18 OH 17.09
B ALA H 56 -56.8 -49.2 N 18.93 CA 16.95 C 22.31 O 22.29 CB 17.12
B GLY H 42 -59.2 -42.4 N 18.7 CA 19.22 C 23.99 O 22.75
B TYR H 4 -64.7 -45.4 N 19.91 CA 17.51 C 21.69 O 19.37 CB 14.43 CG 14.91 CD1 16.13 CD2 17.27 CE1 22.07 CE2 17.9 CZ 21.37 OH 18.6
B VAL H 5 -67.8 -36.0 N 15.55 CA 15.26 C 20.07 O 20.52 CB 15.81 CG1 15.22 CG2 15.93
B LYS H 96 -59.1 -46.0 N 19.52 CA 19.98 C 24.81 O 24.01 CB 21.64 CG 26.23 CD 26.99 CE 34.19 NZ 31.8
B THR H 16 -63.3 -44.1 N 23.63 CA 22.16 C 19.59 O 20.02 CB 20.48 OG1 19.55 CG2 18.77
B ILE H 0 -61.4 -40.8 N 18.3 CA 14.97 C 20.51 O 20.34 CB 14.84 CG1 16.15 CG2 17.77 CD1 18.77
B LEU H 3 -77.3 -38.4 N 19.32 CA 19.62 C 17.12 O 18.8 CB 18.89 CG 20.18 CD1 20.34 CD2 17.66
B ASP H 19 -70.4 -32.9 N 18.11 CA 20.54 C 22.31 O 21.52 CB 23.28 CG 22.38 OD1 23.42 OD2 25.42
B GLN T 89 -99.8 3.3 N 23.88 CA 25.19 C 22.93 O 22.56 CB 22.4 CG 28.93 CD 30.85 OE1 32.14 NE2 31.71
B GLY T 30 63.8 41.1 N 18.68 CA 20.76 C 21.01 O 20.8
B LEU - 2 -80.5 -12.1 N 17.2 CA 18.17 C 16.77 O 17.64 CB 18.51 CG 23.17 CD1 23.25 CD2 21.2
B LEU E 3 -97.5 123.9 N 14.47 CA 16.86 C 17.26 O 19.76 CB 16.16 CG 20.49 CD1 15.65 CD2 21.05
B SER E 4 -68.3 163.3 N 16.86 CA 19.87 C 20.44 O 19.44 CB 20.9 OG 22.84
B ALA E 68 -51.5 -44.0 N 21.07 CA 21.86 C 25.44 O 26.99 CB 27.23
B ASN E 102 -106.6 21.2 N 22.92 CA 22.72 C 21.86 O 22.51 CB 29.87 CG 38.5 OD1 38.58 ND2 44.32
B GLY E 0 -83.7 171.7 N 19.72 CA 19.17 C 20.98 O 16.96
B ILE E 4 -134.4 145.2 N 17.25 CA 15.57 C 14.28 O 14.36 CB 17.77 CG1 20.87 CG2 20.75 CD1 23.14
B ILE E 0 -103.5 133.2 N 12.88 CA 11.08 C 13.02 O 15.22 CB 14.73 CG1 17.33 CG2 15.26 CD1 17.21
B LEU E 4 -119.4 115.8 N 14.72 CA 14.29 C 17.74 O 16.23 CB 14.18 CG 18.22 CD1 19.34 CD2 21.99
B CYS E 0 -104.8 127.0 N 16.74 CA 15.15 C 15.74 O 13.64 CB 16.96 SG 20.09
B ASP - 0 -98.3 155.0 N 15.09 CA 14.53 C 14.71 O 17.37 CB 16.48 CG 22.77 OD1 20.7 OD2 24.12
B ASN - 13 61.9 30.7 N 14.02 CA 15.61 C 15.85 O 16.12 CB 16.01 CG 21.39 OD1 26.61 ND2 16.56
B VAL T 0 -64.2 -24.8 N 14.51 CA 14.83 C 16.58 O 17.57 CB 19.6 CG1 19.79 CG2 16.45
B PHE T 3 -80.1 -17.1 N 15.4 CA 15.61 C 17.63 O 16.94 CB 14.16 CG 15.71 CD1 14.89 CD2 18.96 CE1 15.36 CE2 20.89 CZ 17.64
B ALA G 0 47.3 54.7 N 18.44 CA 18.36 C 17.66 O 18.56 CB 19.55
B ARG G 39 64.4 10.8 N 18.55 CA 17.17 C 20.74 O 22.46 CB 23.43 CG 30.23 CD 35.09 NE 39.66 CZ 37.95 NH1 35.2 NH2 37.78
B GLY G 0 113.4 -18.9 N 22.19 CA 22.17 C 21.82 O 20.7
B LEU T 5 -72.1 -17.4 N 19.11 CA 18.78 C 20.3 O 22.01 CB 19.51 CG 27.1 CD1 29.77 CD2 21.33
B THR T 7 -57.0 -37.5 N 17.06 CA 21.45 C 24.31 O 22.16 CB 20.83 OG1 18.78 CG2 20.0
B ILE T 31 -73.0 -41.7 N 19.7 CA 19.63 C 22.96 O 26.41 CB 20.02 CG1 21.51 CG2 25.2 CD1 24.15
B GLY - 7 -179.5 154.0 N 23.75 CA 21.92 C 23.82 O 23.88
B PRO T 89 -57.2 -16.8 N 24.87 CA 24.32 C 24.9 O 25.4 CB 26.12 CG 27.86 CD 26.08
B ASP T 91 -97.6 3.5 N 25.06 CA 25.93 C 26.46 O 25.46 CB 27.31 CG 31.22 OD1 28.2 OD2 36.28
B CYS S 1 -95.6 12.9 N 23.88 CA 24.13 C 27.8 O 25.95 CB 20.88 SG 29.22
B ALA - 0 -147.6 68.2 N 27.93 CA 22.77 C 25.03 O 25.36 CB 24.19
B PRO T 99 -57.6 -26.1 N 28.44 CA 29.48 C 32.53 O 32.34 CB 33.09 CG 33.56 CD 28.43
B TRP T 69 -76.7 -21.3 N 31.24 CA 31.34 C 33.51 O 32.26 CB 31.07 CG 33.44 CD1 30.36 CD2 29.92 NE1 28.52 CE2 27.88 CE3 30.71 CZ2 25.23 CZ3 28.9 CH2 26.72
B LEU S 11 -59.9 137.8 N 28.95 CA 27.16 C 32.12 O 34.52 CB 26.87 CG 31.43 CD1 28.52 CD2 31.72
B ASN - 100 -64.6 136.9 N 35.24 CA 41.61 C 39.9 O 36.28 CB 53.56 CG 64.97 OD1 69.15 ND2 70.74
B ASP G 114 -58.5 -33.9 N 41.6 CA 45.76 C 50.77 O 51.63 CB 45.95 CG 45.69 OD1 44.97 OD2 45.67
B HIS G 165 -56.1 -32.1 N 52.33 CA 53.05 C 47.11 O 47.44 CB 62.49 CG 72.49 ND1 78.52 CD2 75.94 CE1 80.99 NE2 80.69
B VAL G 49 -102.5 7.5 N 40.3 CA 37.96 C 31.4 O 30.01 CB 37.05 CG1 40.52 CG2 31.6
B ARG H 44 -63.8 -46.6 N 31.88 CA 32.89 C 31.16 O 28.43 CB 34.77 CG 30.84 CD 31.69 NE 34.22 CZ 35.38 NH1 39.28 NH2 28.31
B PRO H 93 -53.3 -55.7 N 28.94 CA 28.97 C 29.05 O 33.73 CB 33.91 CG 36.53 CD 34.8
B TYR H 97 -46.4 -61.8 N 28.02 CA 27.77 C 28.1 O 28.26 CB 27.25 CG 28.67 CD1 32.35 CD2 27.95 CE1 27.88 CE2 27.52 CZ 30.89 OH 35.79
B TRP H 5 -62.9 -32.5 N 28.2 CA 20.83 C 20.76 O 21.17 CB 26.02 CG 27.1 CD1 31.86 CD2 28.44 NE1 32.12 CE2 32.82 CE3 30.38 CZ2 34.49 CZ3 35.81 CH2 36.62
B ASN H 50 -65.0 -42.6 N 22.29 CA 22.53 C 27.06 O 25.37 CB 24.51 CG 33.64 OD1 33.78 ND2 32.54
B GLY H 48 -56.7 -42.5 N 25.0 CA 23.06 C 23.01 O 28.04
B CYS H 10 -67.6 -37.5 N 22.21 CA 23.46 C 19.9 O 19.6 CB 23.6 SG 24.97
B GLY H 1 -59.6 -51.1 N 20.6 CA 19.6 C 20.0 O 21.32
B GLN H 136 -56.7 -45.9 N 23.21 CA 21.43 C 23.41 O 21.82 CB 22.26 CG 24.33 CD 34.75 OE1 36.0 NE2 36.6
B ALA H 21 -64.0 -38.7 N 22.1 CA 24.36 C 24.47 O 20.55 CB 26.87
B LEU H 0 -78.1 -23.4 N 19.44 CA 14.86 C 18.81 O 18.4 CB 15.85 CG 17.97 CD1 16.16 CD2 16.16
B ASP H 57 -68.7 -48.3 N 19.04 CA 20.66 C 18.86 O 25.25 CB 21.24 CG 20.49 OD1 20.31 OD2 26.64
B LYS H 133 -53.6 -50.5 N 18.8 CA 21.35 C 23.03 O 20.64 CB 28.25 CG 38.66 CD 50.68 CE 57.82 NZ 62.24
B PHE H 8 -48.2 -53.9 N 20.16 CA 19.01 C 20.78 O 19.34 CB 18.02 CG 19.56 CD1 20.65 CD2 12.46 CE1 22.93 CE2 24.59 CZ 22.64
B SER H 3 -61.4 -42.7 N 17.71 CA 17.1 C 19.54 O 24.3 CB 17.04 OG 18.65
B ALA H 37 -68.7 -34.9 N 17.82 CA 19.88 C 26.83 O 25.31 CB 22.91
B GLY H 43 -64.5 -33.6 N 27.23 CA 22.98 C 19.7 O 22.88
B LEU H 10 -64.7 -28.9 N 19.6 CA 17.13 C 21.68 O 21.35 CB 17.43 CG 16.88 CD1 13.71 CD2 17.32
B MET T 51 -77.9 -7.8 N 18.28 CA 19.38 C 23.54 O 25.42 CB 26.65 CG 28.54 SD 28.0 CE 29.29
B GLU T 163 -100.8 3.8 N 26.96 CA 27.76 C 29.0 O 32.13 CB 31.06 CG 41.42 CD 58.39 OE1 65.1 OE2 66.79
B ASP - 28 -104.5 108.8 N 19.91 CA 20.76 C 20.27 O 20.09 CB 23.43 CG 27.37 OD1 23.83 OD2 27.42
B PRO T 53 -69.5 -10.9 N 20.89 CA 21.92 C 27.16 O 22.1 CB 26.44 CG 30.62 CD 22.49
B ARG T 25 -75.6 -16.7 N 21.05 CA 21.78 C 18.16 O 18.39 CB 18.91 CG 20.5 CD 22.28 NE 21.95 CZ 22.35 NH1 19.86 NH2 21.42
B ILE E 0 -130.4 156.8 N 17.09 CA 16.24 C 18.8 O 20.95 CB 17.75 CG1 19.65 CG2 15.6 CD1 20.04
B ASP E 14 -102.9 139.8 N 20.52 CA 17.19 C 17.51 O 17.1 CB 23.08 CG 34.33 OD1 37.7 OD2 37.81
B VAL E 4 -131.7 134.7 N 14.24 CA 15.5 C 16.03 O 16.92 CB 17.66 CG1 17.44 CG2 19.04
B LEU E 1 -137.3 117.8 N 15.18 CA 17.36 C 18.24 O 14.02 CB 19.68 CG 19.84 CD1 22.17 CD2 18.62
B LEU E 1 -95.6 110.5 N 14.08 CA 14.23 C 17.73 O 15.86 CB 17.51 CG 21.36 CD1 19.81 CD2 18.84
B LEU E 4 -99.1 129.4 N 11.56 CA 18.02 C 21.96 O 21.33 CB 22.16 CG 32.97 CD1 26.82 CD2 34.89
B PRO - 12 -80.5 65.9 N 19.86 CA 15.25 C 16.2 O 18.82 CB 21.46 CG 19.74 CD 19.72
B VAL S 5 -128.5 146.3 N 15.55 CA 14.53 C 16.32 O 16.35 CB 14.74 CG1 18.13 CG2 13.65
B PHE T 10 56.8 -128.2 N 16.48 CA 15.82 C 18.25 O 15.9 CB 14.69 CG 15.45 CD1 20.58 CD2 17.65 CE1 23.22 CE2 20.27 CZ 20.81
B ASP T 9 -100.3 27.2 N 17.44 CA 18.22 C 18.04 O 17.91 CB 17.18 CG 20.92 OD1 20.07 OD2 20.76
B GLY - 0 92.3 120.9 N 14.65 CA 12.79 C 17.04 O 16.72
B VAL E 1 -125.8 120.2 N 16.55 CA 12.15 C 14.96 O 16.45 CB 12.04 CG1 12.03 CG2 15.94
B THR E 1 -95.5 126.7 N 11.66 CA 16.06 C 18.27 O 19.06 CB 21.49 OG1 18.91 CG2 19.83
B GLN E 28 -104.1 132.9 N 17.1 CA 12.12 C 17.04 O 11.44 CB 18.31 CG 20.79 CD 28.07 OE1 28.7 NE2 33.13
B ILE E 0 -126.1 135.0 N 14.28 CA 16.68 C 18.54 O 15.2 CB 17.88 CG1 17.32 CG2 14.65 CD1 17.1
B ARG E 4 -137.8 164.3 N 15.15 CA 13.89 C 17.18 O 16.57 CB 19.46 CG 21.79 CD 24.35 NE 25.19 CZ 26.18 NH1 24.48 NH2 29.97
B TRP E 55 -66.3 137.9 N 17.92 CA 17.49 C 20.51 O 20.68 CB 19.45 CG 19.78 CD1 20.39 CD2 19.02 NE1 22.77 CE2 22.66 CE3 19.09 CZ2 20.66 CZ3 25.68 CH2 22.23
B LYS - 88 -68.6 138.0 N 20.19 CA 28.56 C 30.55 O 31.83 CB 35.71 CG 46.53 CD 55.9 CE 60.62 NZ 66.74
B ASP - 60 -59.7 143.2 N 26.5 CA 37.13 C 50.03 O 45.12 CB 39.92 CG 41.26 OD1 38.06 OD2 44.2
B GLY - 115 -116.1 360.0 N 67.03 CA 79.4 C 86.04 O 90.72
C LEU - 168 360.0 155.6 N 74.91 CA 70.79 C 68.71 O 71.08 CB 71.03 CG 70.14 CD1 73.14 CD2 68.08
C GLY - 25 -115.9 -147.5 N 62.97 CA 58.37 C 51.47 O 51.84
C SER S 13 -115.3 10.4 N 44.95 CA 39.83 C 38.85 O 43.17 CB 42.79 OG 44.94
C ILE - 22 -117.8 128.1 N 27.94 CA 23.96 C 28.32 O 27.38 CB 24.28 CG1 26.34 CG2 22.9 CD1 25.78
C LEU - 22 -76.8 129.0 N 22.49 CA 22.91 C 28.42 O 30.91 CB 22.85 CG 23.26 CD1 25.7 CD2 24.44
C PRO - 17 -81.0 125.7 N 27.86 CA 26.11 C 30.81 O 31.64 CB 28.98 CG 29.56 CD 30.91
C PHE - 12 -127.6 148.2 N 30.44 CA 25.99 C 28.06 O 31.51 CB 27.26 CG 26.93 CD1 31.86 CD2 24.38 CE1 30.08 CE2 25.74 CZ 27.96
C ASN - 95 -81.0 177.9 N 30.11 CA 32.46 C 31.79 O 29.56 CB 35.8 CG 41.3 OD1 41.17 ND2 42.45
C GLU H 110 -60.5 -49.3 N 35.7 CA 34.37 C 36.72 O 32.55 CB 41.31 CG 43.54 CD 50.57 OE1 51.82 OE2 49.85
C GLU H 148 -58.4 -52.4 N 37.54 CA 43.19 C 38.22 O 37.45 CB 54.95 CG 67.47 CD 79.03 OE1 83.42 OE2 81.76
C THR H 6 -64.7 -40.8 N 32.28 CA 31.72 C 30.46 O 29.06 CB 35.45 OG1 39.33 CG2 30.78
C ALA H 0 -57.3 -43.6 N 26.73 CA 30.15 C 32.59 O 30.99 CB 29.64
C ASP H 56 -64.3 -40.2 N 29.54 CA 30.0 C 31.21 O 30.12 CB 33.68 CG 44.69 OD1 42.19 OD2 45.24
C ARG H 76 -57.9 -44.3 N 30.89 CA 32.3 C 31.31 O 31.21 CB 36.12 CG 47.35 CD 58.2 NE 61.63 CZ 66.59 NH1 68.88 NH2 67.21
C VAL H 0 -72.1 -37.5 N 25.34 CA 28.11 C 25.97 O 27.12 CB 22.26 CG1 25.04 CG2 24.05
C SER H 0 -60.8 -46.1 N 23.89 CA 28.43 C 26.74 O 29.64 CB 32.02 OG 35.25
C ALA H 52 -58.4 -43.1 N 28.72 CA 31.43 C 30.73 O 33.05 CB 34.02
C TYR H 24 -57.2 -45.0 N 31.14 CA 32.15 C 30.01 O 31.22 CB 32.11 CG 31.06 CD1 34.1 CD2 29.14 CE1 37.65 CE2 31.36 CZ 32.59 OH 32.6
C CYS H 0 -61.3 -42.3 N 25.71 CA 27.37 C 32.19 O 29.11 CB 23.95 SG 26.21
C GLU H 58 -55.6 -50.2 N 29.48 CA 34.01 C 37.22 O 38.27 CB 40.37 CG 43.85 CD 51.15 OE1 51.75 OE2 55.29
C LYS H 162 -61.4 -32.3 N 35.03 CA 42.81 C 40.16 O 42.91 CB 41.06 CG 45.61 CD 44.84 CE 48.8 NZ 54.01
C ASN T 8 -108.8 25.1 N 38.88 CA 39.75 C 39.61 O 33.52 CB 36.18 CG 38.98 OD1 41.09 ND2 39.37
C SER S 4 -125.0 151.1 N 33.56 CA 32.25 C 33.97 O 35.66 CB 29.82 OG 34.2
C HIS - 62 -54.4 131.5 N 36.52 CA 38.78 C 37.54 O 32.51 CB 39.62 CG 41.54 ND1 40.44 CD2 46.59 CE1 40.26 NE2 48.07
C GLY - 64 -77.7 166.2 N 40.24 CA 39.98 C 43.54 O 46.43
C ILE - 16 -83.3 155.5 N 41.2 CA 40.33 C 43.09 O 45.53 CB 37.16 CG1 38.46 CG2 35.84 CD1 39.07
C PRO - 40 -56.9 148.8 N 45.62 CA 46.95 C 45.76 O 44.09 CB 44.11 CG 44.89 CD 41.69
C ASP H 143 -53.9 -39.5 N 49.46 CA 55.04 C 51.71 O 51.93 CB 59.13 CG 59.63 OD1 56.93 OD2 63.98
C ALA H 43 -63.7 -35.3 N 51.63 CA 53.62 C 50.5 O 50.64 CB 53.3
C LEU H 0 -72.0 -42.0 N 44.72 CA 41.53 C 41.73 O 48.1 CB 38.63 CG 40.05 CD1 36.97 CD2 37.17
C VAL H 39 -53.6 -46.3 N 43.06 CA 48.05 C 46.89 O 46.87 CB 46.72 CG1 49.11 CG2 44.0
C GLU H 105 -59.3 -47.4 N 51.12 CA 55.93 C 54.61 O 52.54 CB 59.57 CG 68.52 CD 78.13 OE1 80.44 OE2 85.76
C HIS H 17 -61.7 -38.7 N 48.38 CA 49.31 C 47.14 O 48.59 CB 47.83 CG 49.6 ND1 53.54 CD2 49.18 CE1 52.54 NE2 48.46
C TRP H 16 -60.0 -57.7 N 44.33 CA 41.57 C 44.58 O 47.82 CB 44.7 CG 44.16 CD1 42.62 CD2 46.77 NE1 41.96 CE2 47.31 CE3 54.1 CZ2 49.11 CZ3 55.54 CH2 52.96
C GLU H 92 -58.9 -42.3 N 47.22 CA 54.51 C 56.58 O 54.82 CB 60.5 CG 64.32 CD 74.08 OE1 78.2 OE2 78.1
C TRP H 77 -53.0 -51.5 N 55.82 CA 58.22 C 58.59 O 61.86 CB 58.23 CG 62.61 CD1 70.89 CD2 65.02 NE1 73.87 CE2 70.09 CE3 62.21 CZ2 71.38 CZ3 63.94 CH2 68.29
C THR H 0 -55.6 -46.4 N 51.49 CA 48.37 C 56.74 O 50.97 CB 44.19 OG1 43.41 CG2 43.01
C ARG H 135 -62.2 -38.9 N 49.14 CA 59.3 C 63.54 O 56.54 CB 58.63 CG 56.96 CD 59.37 NE 64.34 CZ 68.43 NH1 69.19 NH2 70.22
C THR H 99 -69.4 -35.8 N 62.99 CA 67.63 C 70.08 O 73.19 CB 70.59 OG1 73.6 CG2 67.03
C ARG H 154 -78.6 -39.2 N 66.94 CA 69.96 C 72.36 O 64.02 CB 69.84 CG 75.39 CD 81.37 NE 85.33 CZ 92.18 NH1 93.96 NH2 94.9
C PHE - 22 -117.8 129.4 N 58.86 CA 59.77 C 62.49 O 57.72 CB 53.48 CG 53.91 CD1 53.3 CD2 56.71 CE1 54.63 CE2 57.6 CZ 57.21
C PRO T 126 -61.4 -27.5 N 67.52 CA 66.45 C 58.35 O 53.72 CB 71.41 CG 72.86 CD 70.23
C ASP T 54 -102.7 34.0 N 54.18 CA 50.34 C 46.51 O 46.74 CB 46.63 CG 41.75 OD1 40.63 OD2 43.91
C ALA G 15 -67.7 -15.6 N 47.02 CA 48.34 C 48.02 O 47.64 CB 49.44
C ASP G 113 -56.8 -21.2 N 49.62 CA 53.5 C 44.28 O 43.67 CB 67.81 CG 79.26 OD1 85.03 OD2 82.88
C LYS G 83 -66.4 -24.0 N 36.08 CA 34.39 C 33.69 O 32.0 CB 34.0 CG 36.09 CD 37.37 CE 41.0 NZ 41.13
C MET S 16 -76.7 144.9 N 36.98 CA 36.34 C 37.06 O 35.24 CB 34.9 CG 31.25 SD 37.37 CE 40.35
C SER - 2 -67.5 156.7 N 33.11 CA 30.24 C 33.06 O 34.88 CB 27.55 OG 33.31
C SER - 20 -76.3 173.7 N 31.66 CA 34.77 C 33.67 O 31.08 CB 39.5 OG 34.4
C ARG H 74 -66.4 -42.9 N 34.47 CA 37.77 C 33.08 O 33.92 CB 42.3 CG 51.84 CD 61.6 NE 68.09 CZ 75.6 NH1 79.39 NH2 77.28
C LEU H 1 -60.4 -42.3 N 34.29 CA 32.61 C 28.01 O 28.16 CB 37.69 CG 35.08 CD1 32.86 CD2 34.21
C GLN H 16 -63.2 -31.4 N 26.79 CA 29.44 C 28.33 O 25.58 CB 34.26 CG 39.0 CD 45.82 OE1 52.08 NE2 39.08
C GLY H 0 -64.9 -45.8 N 29.24 CA 33.02 C 31.35 O 32.11
C SER H 14 -54.9 -45.2 N 30.34 CA 30.08 C 29.8 O 27.32 CB 31.56 OG 36.36
C TRP H 13 -60.2 -43.3 N 26.75 CA 25.26 C 28.58 O 24.3 CB 25.39 CG 24.57 CD1 28.07 CD2 27.51 NE1 27.8 CE2 29.17 CE3 30.4 CZ2 29.09 CZ3 31.94 CH2 30.76
C MET H 0 -63.9 -45.9 N 27.81 CA 25.07 C 26.47 O 24.46 CB 23.71 CG 27.41 SD 37.02 CE 69.59
C ILE H 8 -63.8 -46.8 N 25.61 CA 26.76 C 30.19 O 27.44 CB 31.01 CG1 28.88 CG2 34.51 CD1 31.36
C PHE H 10 -53.7 -49.7 N 26.6 CA 31.08 C 30.89 O 25.73 CB 30.71 CG 31.27 CD1 31.97 CD2 33.07 CE1 32.94 CE2 36.48 CZ 30.82
C THR H 15 -60.9 -42.1 N 25.27 CA 27.72 C 27.82 O 26.06 CB 24.58 OG1 27.13 CG2 26.38
C ALA H 1 -68.7 -39.5 N 22.76 CA 23.3 C 28.12 O 26.88 CB 28.09
C ARG H 75 -66.0 -35.9 N 28.26 CA 30.73 C 33.21 O 33.0 CB 37.54 CG 40.11 CD 48.93 NE 55.52 CZ 61.42 NH1 62.85 NH2 64.47
C ASP H 13 -72.9 -53.9 N 26.74 CA 33.96 C 26.85 O 31.26 CB 32.9 CG 34.94 OD1 35.61 OD2 35.21
C ARG H 60 -76.7 -23.4 N 24.89 CA 27.47 C 30.72 O 26.13 CB 26.46 CG 25.64 CD 21.9 NE 25.22 CZ 27.56 NH1 24.57 NH2 25.2
C LYS - 75 47.8 58.1 N 29.91 CA 29.16 C 29.68 O 32.67 CB 29.32 CG 35.48 CD 41.63 CE 48.41 NZ 50.75
C PRO - 3 -64.2 140.2 N 26.38 CA 25.04 C 30.51 O 33.02 CB 22.89 CG 24.67 CD 23.42
C LYS S 146 -72.4 -35.1 N 27.35 CA 29.18 C 29.67 O 31.27 CB 33.54 CG 40.62 CD 47.53 CE 50.09 NZ 53.85
C ARG E 52 -144.7 139.8 N 25.92 CA 27.15 C 25.53 O 28.73 CB 23.68 CG 34.57 CD 37.16 NE 38.49 CZ 40.01 NH1 38.33 NH2 41.54
C ILE E 0 -120.4 130.3 N 21.34 CA 20.17 C 25.69 O 27.74 CB 21.46 CG1 22.62 CG2 22.22 CD1 21.53
C LEU E 0 -113.8 136.3 N 22.06 CA 22.42 C 26.46 O 25.17 CB 22.02 CG 22.99 CD1 22.92 CD2 24.2
C GLU E 0 -130.4 131.0 N 22.52 CA 28.35 C 23.36 O 26.68 CB 30.85 CG 35.74 CD 34.53 OE1 32.09 OE2 29.79
C ILE E 0 -105.7 109.6 N 21.27 CA 21.91 C 22.9 O 18.78 CB 22.46 CG1 21.32 CG2 21.26 CD1 21.9
C GLY - 0 104.5 90.4 N 21.44 CA 19.34 C 26.61 O 28.15
C CYS - 0 -85.5 -32.8 N 26.54 CA 27.87 C 27.87 O 28.5 CB 29.68 SG 31.2
C TYR T 0 49.1 -110.1 N 30.74 CA 29.89 C 34.28 O 34.1 CB 28.81 CG 33.96 CD1 33.57 CD2 34.7 CE1 34.15 CE2 37.87 CZ 36.96 OH 39.39
C SER T 0 -99.2 -0.1 N 33.11 CA 38.12 C 36.92 O 39.23 CB 36.2 OG 36.22
C GLY S 0 95.6 10.2 N 32.07 CA 31.78 C 32.21 O 32.49
C TYR H 0 -60.6 -50.3 N 32.58 CA 34.12 C 28.01 O 27.17 CB 33.54 CG 32.75 CD1 36.21 CD2 32.81 CE1 36.72 CE2 31.64 CZ 33.9 OH 32.53
C SER H 0 -69.4 -35.0 N 26.09 CA 27.23 C 26.54 O 27.59 CB 26.18 OG 26.02
C ALA H 0 -62.7 -38.6 N 26.56 CA 26.04 C 30.22 O 32.86 CB 27.48
C LEU H 0 -69.2 -35.7 N 31.02 CA 30.74 C 34.9 O 35.01 CB 31.85 CG 34.78 CD1 35.21 CD2 34.87
C ALA H 0 -61.4 -48.5 N 33.26 CA 29.03 C 27.13 O 27.48 CB 28.79
C TRP H 0 -58.4 -39.1 N 24.82 CA 26.43 C 28.53 O 30.89 CB 23.35 CG 21.73 CD1 26.35 CD2 23.85 NE1 26.23 CE2 25.78 CE3 26.08 CZ2 23.91 CZ3 23.63 CH2 19.42
C TYR H 25 -59.4 -48.0 N 28.61 CA 30.04 C 32.79 O 33.2 CB 37.46 CG 41.19 CD1 40.53 CD2 43.91 CE1 41.1 CE2 45.8 CZ 46.57 OH 51.0
C GLU H 14 -62.6 -40.3 N 35.47 CA 36.94 C 37.19 O 40.11 CB 40.45 CG 44.81 CD 49.53 OE1 49.79 OE2 50.14
C GLY H 6 -76.8 -11.9 N 31.1 CA 36.35 C 38.71 O 37.85
C THR T 3 -117.6 26.0 N 36.09 CA 38.52 C 43.0 O 43.38 CB 34.65 OG1 35.43 CG2 28.78
C ARG T 103 -61.5 -35.6 N 44.15 CA 50.21 C 54.6 O 55.85 CB 49.74 CG 51.49 CD 57.86 NE 61.06 CZ 63.91 NH1 66.91 NH2 62.66
C ASP T 134 -77.2 -20.3 N 61.01 CA 71.92 C 69.84 O 71.95 CB 80.73 CG 90.88 OD1 94.72 OD2 93.45
C THR T 74 -106.9 -17.1 N 63.87 CA 60.76 C 57.87 O 57.32 CB 56.57 OG1 52.04 CG2 57.14
C LYS T 146 50.8 47.0 N 55.12 CA 50.9 C 44.2 O 43.21 CB 55.14 CG 57.68 CD 62.35 CE 65.09 NZ 65.71
C ALA - 5 -59.3 148.1 N 41.89 CA 35.85 C 35.77 O 32.79 CB 36.45
C GLU E 60 -77.3 137.2 N 34.1 CA 32.55 C 32.04 O 28.98 CB 36.96 CG 42.62 CD 49.01 OE1 50.19 OE2 51.04
C ILE E 0 -122.9 116.9 N 28.5 CA 27.3 C 30.2 O 36.78 CB 29.59 CG1 31.07 CG2 26.84 CD1 36.44
C VAL E 3 -107.7 130.3 N 28.95 CA 26.53 C 24.35 O 23.95 CB 26.26 CG1 25.96 CG2 28.38
C THR E 0 -133.3 132.5 N 29.62 CA 28.79 C 28.49 O 30.87 CB 27.12 OG1 25.48 CG2 27.82
C LEU E 0 -105.2 138.7 N 27.06 CA 25.03 C 29.51 O 25.89 CB 22.07 CG 24.29 CD1 24.64 CD2 27.14
C GLU E 0 -152.9 140.1 N 28.85 CA 26.54 C 28.26 O 32.0 CB 32.15 CG 33.37 CD 32.31 OE1 32.62 OE2 30.95
C TYR - 124 -102.8 -33.2 N 31.45 CA 32.82 C 33.99 O 34.83 CB 27.15 CG 31.13 CD1 31.18 CD2 32.52 CE1 36.44 CE2 34.65 CZ 36.18 OH 40.0
C SER - 33 -73.9 119.2 N 33.63 CA 32.47 C 32.64 O 34.75 CB 33.54 OG 33.24
C PRO H 103 -55.0 -45.8 N 35.79 CA 39.14 C 40.84 O 43.46 CB 43.86 CG 40.75 CD 39.61
C LYS H 118 -56.6 -49.8 N 38.46 CA 42.94 C 39.89 O 40.25 CB 46.79 CG 53.07 CD 57.18 CE 57.17 NZ 59.37
C MET H 4 -72.1 -30.6 N 37.17 CA 38.67 C 38.86 O 35.44 CB 37.63 CG 41.14 SD 43.01 CE 36.85
C ILE H 15 -57.3 -53.9 N 39.47 CA 36.71 C 39.72 O 40.27 CB 36.25 CG1 32.83 CG2 35.92 CD1 34.08
C ALA H 59 -54.4 -48.5 N 38.86 CA 41.81 C 47.06 O 47.7 CB 44.22
C ALA H 6 -60.9 -44.4 N 41.03 CA 46.01 C 42.75 O 47.49 CB 46.54
C SER H 0 -61.6 -44.3 N 39.25 CA 37.31 C 38.5 O 37.33 CB 37.01 OG 36.61
C ARG H 111 -61.9 -40.4 N 41.26 CA 43.99 C 50.92 O 54.53 CB 48.53 CG 51.77 CD 59.02 NE 58.98 CZ 56.37 NH1 53.9 NH2 51.41
C GLU H 117 -57.4 -49.7 N 44.41 CA 51.46 C 49.58 O 50.83 CB 54.02 CG 62.27 CD 68.09 OE1 69.15 OE2 68.67
C ALA H 9 -60.8 -47.7 N 43.52 CA 42.6 C 47.31 O 49.93 CB 39.57
C PHE H 13 -64.2 -35.3 N 40.8 CA 43.26 C 48.7 O 49.74 CB 40.37 CG 38.36 CD1 34.32 CD2 35.4 CE1 33.93 CE2 32.16 CZ 32.52
C LYS H 184 -68.4 -48.2 N 52.22 CA 57.86 C 59.18 O 59.6 CB 63.93 CG 70.43 CD 75.26 CE 78.0 NZ 77.59
C LYS H 163 -61.5 -41.3 N 51.49 CA 56.3 C 57.1 O 58.86 CB 56.36 CG 58.84 CD 60.71 CE 63.03 NZ 70.02
C TYR H 43 -75.1 -18.0 N 50.31 CA 50.6 C 51.88 O 52.46 CB 47.67 CG 50.16 CD1 46.85 CD2 51.2 CE1 46.1 CE2 48.24 CZ 46.69 OH 47.23
C GLY T 47 72.1 38.0 N 53.75 CA 57.79 C 61.62 O 61.67
C VAL - 5 -67.8 -17.6 N 65.3 CA 71.4 C 79.75 O 87.28 CB 67.3 CG1 66.85 CG2 66.88
C GLY T 45 67.8 -143.0 N 79.72 CA 77.13 C 70.07 O 68.58
C ASP T 140 -116.8 26.2 N 65.92 CA 65.94 C 62.4 O 64.42 CB 73.21 CG 79.67 OD1 81.59 OD2 83.04
C ARG S 30 -98.4 -1.6 N 55.61 CA 47.04 C 43.81 O 42.4 CB 45.93 CG 42.59 CD 40.87 NE 39.53 CZ 38.25 NH1 35.8 NH2 38.85
C VAL E 12 -108.6 109.4 N 41.01 CA 36.87 C 40.46 O 40.08 CB 37.33 CG1 30.11 CG2 34.75
C LYS E 83 -104.5 119.6 N 39.44 CA 40.42 C 34.98 O 33.5 CB 43.97 CG 52.77 CD 62.14 CE 67.51 NZ 67.83
C LEU E 12 -96.9 119.5 N 31.53 CA 33.99 C 34.56 O 33.28 CB 37.24 CG 41.68 CD1 39.07 CD2 46.18
C ILE E 51 -108.2 123.2 N 35.24 CA 37.54 C 33.94 O 27.15 CB 37.79 CG1 40.01 CG2 33.91 CD1 45.16
C GLU E 102 -91.8 136.9 N 34.23 CA 37.93 C 39.71 O 36.83 CB 41.3 CG 45.63 CD 47.87 OE1 49.9 OE2 50.86
C GLY S 15 131.6 174.4 N 36.77 CA 30.99 C 27.74 O 28.19
C PRO - 30 -66.1 134.3 N 27.55 CA 27.87 C 25.22 O 23.72 CB 28.63 CG 29.32 CD 28.44
C ALA H 0 -67.7 -23.9 N 26.67 CA 25.07 C 23.54 O 23.85 CB 20.6
C GLU H 91 -58.2 -25.1 N 24.17 CA 24.74 C 25.88 O 29.21 CB 25.5 CG 26.73 CD 29.88 OE1 29.41 OE2 32.88
C ASN H 108 -97.1 -51.2 N 23.9 CA 24.99 C 26.66 O 30.04 CB 26.7 CG 27.82 OD1 29.08 ND2 32.97
C THR H 14 -73.8 -32.0 N 26.7 CA 26.82 C 29.59 O 28.22 CB 24.15 OG1 24.54 CG2 25.85
C LEU H 2 -58.7 -37.4 N 28.73 CA 29.95 C 31.89 O 30.74 CB 25.33 CG 29.04 CD1 22.5 CD2 27.48
C LYS H 131 -57.8 -35.5 N 36.82 CA 41.33 C 39.98 O 38.93 CB 44.37 CG 47.71 CD 48.59 CE 51.27 NZ 54.7
C THR H 94 -83.0 -8.0 N 37.61 CA 38.93 C 35.86 O 35.71 CB 52.78 OG1 55.28 CG2 50.4
C LEU - 16 -68.9 144.9 N 32.78 CA 28.51 C 34.83 O 33.58 CB 26.38 CG 28.49 CD1 31.68 CD2 30.75
C GLU - 156 -112.8 162.2 N 36.32 CA 39.41 C 37.43 O 33.23 CB 50.65 CG 62.4 CD 71.38 OE1 73.91 OE2 76.42
C GLY S 53 70.4 -159.9 N 38.19 CA 34.35 C 35.28 O 30.92
C GLU - 98 -134.5 165.3 N 33.1 CA 31.49 C 28.49 O 30.47 CB 34.91 CG 40.37 CD 44.11 OE1 45.77 OE2 41.57
C PHE E 0 -128.5 134.0 N 22.48 CA 24.75 C 23.95 O 23.5 CB 23.21 CG 23.13 CD1 23.13 CD2 22.01 CE1 22.67 CE2 21.83 CZ 23.23
C ASP E 22 -79.4 -24.4 N 23.63 CA 23.52 C 25.15 O 20.73 CB 26.45 CG 33.2 OD1 37.12 OD2 35.79
C LEU E 0 -139.0 127.7 N 22.72 CA 22.58 C 24.61 O 24.9 CB 21.48 CG 32.57 CD1 37.79 CD2 35.92
C ILE E 0 -126.9 125.7 N 20.49 CA 19.35 C 23.6 O 24.77 CB 20.47 CG1 20.86 CG2 17.23 CD1 19.73
C PHE E 0 -111.4 109.2 N 18.75 CA 17.95 C 21.42 O 25.54 CB 20.81 CG 21.14 CD1 22.19 CD2 23.27 CE1 27.2 CE2 24.71 CZ 25.39
C VAL E 0 -96.2 113.9 N 16.64 CA 16.55 C 19.75 O 22.54 CB 19.31 CG1 20.2 CG2 22.67
C ASP - 0 -152.5 46.4 N 21.04 CA 21.13 C 26.23 O 31.36 CB 20.59 CG 27.57 OD1 28.37 OD2 27.51
C ALA S 3 -112.5 -140.2 N 21.2 CA 21.59 C 23.16 O 21.28 CB 20.75
C ASN - 29 -66.1 129.9 N 23.92 CA 24.85 C 24.11 O 22.46 CB 23.19 CG 27.08 OD1 27.59 ND2 27.42
C LYS G 18 -64.1 -41.4 N 26.45 CA 26.75 C 27.99 O 29.32 CB 28.51 CG 30.25 CD 30.03 CE 37.93 NZ 39.39
C ASP G 126 -67.1 -0.6 N 26.85 CA 31.86 C 28.9 O 29.56 CB 37.96 CG 41.96 OD1 40.34 OD2 50.77
C GLY G 8 -100.5 -13.5 N 26.05 CA 24.66 C 21.0 O 23.36
C TYR H 0 -53.2 -47.7 N 17.3 CA 16.43 C 20.35 O 19.51 CB 16.4 CG 19.87 CD1 20.99 CD2 21.29 CE1 19.94 CE2 19.38 CZ 21.22 OH 19.58
C ALA H 55 -56.8 -42.8 N 18.91 CA 20.75 C 22.94 O 22.03 CB 19.43
C GLY H 39 -68.6 -43.0 N 26.22 CA 21.64 C 22.68 O 23.05
C TYR H 4 -62.5 -51.7 N 19.6 CA 17.3 C 17.3 O 20.82 CB 15.8 CG 23.18 CD1 27.52 CD2 22.93 CE1 25.87 CE2 24.11 CZ 23.93 OH 21.8
C VAL H 3 -57.1 -39.3 N 15.77 CA 16.89 C 19.35 O 21.83 CB 15.96 CG1 15.94 CG2 16.78
C LYS H 91 -64.1 -43.7 N 22.13 CA 23.54 C 25.25 O 24.97 CB 25.7 CG 28.37 CD 31.12 CE 32.65 NZ 29.01
C THR H 31 -64.4 -44.1 N 23.9 CA 24.24 C 21.14 O 25.26 CB 24.44 OG1 24.29 CG2 21.09
C ILE H 0 -55.3 -40.4 N 19.84 CA 19.69 C 22.36 O 22.95 CB 18.19 CG1 18.1 CG2 19.5 CD1 17.47
C LEU H 5 -82.2 -36.3 N 22.17 CA 21.86 C 21.48 O 23.32 CB 24.53 CG 20.46 CD1 22.99 CD2 20.72
C ASP H 19 -69.4 -33.7 N 24.13 CA 22.49 C 24.33 O 24.84 CB 24.67 CG 24.35 OD1 26.33 OD2 24.64
C GLN T 78 -98.2 1.6 N 26.73 CA 28.76 C 24.8 O 32.56 CB 33.46 CG 49.8 CD 58.84 OE1 62.43 NE2 62.52
C GLY T 33 64.8 37.1 N 22.98 CA 28.37 C 26.24 O 24.7
C LEU - 3 -75.2 -17.4 N 22.84 CA 23.41 C 22.02 O 20.96 CB 23.36 CG 27.95 CD1 27.3 CD2 28.04
C LEU E 4 -94.4 122.3 N 21.59 CA 24.17 C 21.35 O 24.05 CB 23.01 CG 21.51 CD1 20.99 CD2 19.17
C SER E 3 -64.6 160.8 N 23.02 CA 26.8 C 27.55 O 22.7 CB 24.03 OG 24.47
C ALA E 73 -48.6 -43.0 N 28.24 CA 28.23 C 28.19 O 30.42 CB 32.77
C ASN E 102 -107.0 21.2 N 25.81 CA 26.39 C 26.96 O 29.89 CB 30.27 CG 39.51 OD1 39.78 ND2 40.2
C GLY E 1 -88.2 176.8 N 25.12 CA 20.16 C 21.8 O 20.38
C ILE E 4 -137.8 143.7 N 20.25 CA 16.49 C 22.24 O 18.33 CB 24.57 CG1 25.6 CG2 28.23 CD1 30.91
C ILE E 0 -103.1 134.0 N 17.66 CA 17.66 C 20.83 O 21.1 CB 16.5 CG1 17.25 CG2 16.32 CD1 20.19
C LEU E 4 -119.3 117.3 N 17.93 CA 18.89 C 19.6 O 20.09 CB 20.25 CG 26.61 CD1 27.78 CD2 26.19
C CYS E 0 -106.7 124.9 N 19.51 CA 19.55 C 20.61 O 18.92 CB 22.99 SG 21.77
C ASP - 1 -96.0 155.8 N 21.83 CA 20.78 C 20.42 O 22.01 CB 24.24 CG 34.77 OD1 29.72 OD2 38.98
C ASN - 20 59.0 35.5 N 21.33 CA 23.21 C 22.78 O 25.09 CB 25.9 CG 36.11 OD1 36.76 ND2 34.77
C VAL T 0 -74.2 -18.0 N 19.2 CA 18.48 C 18.98 O 18.26 CB 21.83 CG1 23.13 CG2 20.66
C PHE T 3 -80.0 -16.9 N 22.07 CA 23.24 C 19.2 O 20.01 CB 20.57 CG 19.46 CD1 19.29 CD2 19.56 CE1 18.21 CE2 22.18 CZ 19.34
C ALA G 0 47.1 50.9 N 20.7 CA 22.13 C 22.94 O 20.29 CB 25.38
C ARG G 32 65.4 10.3 N 22.49 CA 24.51 C 26.96 O 27.27 CB 25.58 CG 31.3 CD 34.88 NE 41.33 CZ 42.76 NH1 36.94 NH2 48.18
C GLY G 0 117.5 -24.3 N 22.59 CA 21.72 C 22.96 O 23.27
C LEU T 9 -74.9 -7.7 N 19.94 CA 18.91 C 21.32 O 23.6 CB 24.54 CG 26.89 CD1 23.63 CD2 24.91
C THR T 6 -64.5 -34.4 N 24.0 CA 20.33 C 23.49 O 26.66 CB 19.04 OG1 21.52 CG2 19.3
C ILE T 31 -80.3 -42.3 N 25.47 CA 24.33 C 26.43 O 25.85 CB 24.71 CG1 23.95 CG2 25.28 CD1 23.61
C GLY - 12 -178.1 157.7 N 25.71 CA 29.2 C 28.36 O 29.95
C PRO T 93 -65.0 -17.3 N 33.2 CA 34.48 C 33.75 O 33.64 CB 35.74 CG 38.59 CD 36.34
C ASP T 96 -102.6 11.7 N 36.63 CA 37.72 C 35.57 O 37.58 CB 46.87 CG 53.44 OD1 53.95 OD2 56.42
C CYS S 1 -91.8 2.2 N 30.71 CA 27.18 C 26.45 O 25.79 CB 21.58 SG 33.38
C ALA - 0 -143.3 65.4 N 26.49 CA 25.34 C 27.62 O 29.65 CB 28.18
C PRO T 98 -66.0 -16.5 N 29.39 CA 29.94 C 33.58 O 37.38 CB 33.28 CG 34.59 CD 28.89
C TRP T 74 -80.1 -20.0 N 31.42 CA 31.86 C 29.85 O 33.88 CB 32.6 CG 31.86 CD1 32.08 CD2 35.3 NE1 31.18 CE2 32.25 CE3 38.21 CZ2 36.12 CZ3 37.42 CH2 37.56
C LEU S 11 -54.7 137.7 N 26.8 CA 27.51 C 34.55 O 36.96 CB 30.46 CG 30.42 CD1 29.23 CD2 31.23
C ASN - 105 -78.1 156.4 N 35.15 CA 45.37 C 44.74 O 32.91 CB 57.94 CG 66.07 OD1 68.79 ND2 69.2
C ASP T 127 -61.1 -28.3 N 43.02 CA 46.77 C 42.83 O 42.07 CB 57.59 CG 69.74 OD1 71.33 OD2 76.96
C HIS T 178 -72.7 -23.1 N 38.43 CA 38.47 C 34.91 O 32.6 CB 39.58 CG 36.55 ND1 38.84 CD2 37.39 CE1 42.21 NE2 40.02
C VAL T 51 -105.5 -4.6 N 28.37 CA 29.27 C 30.38 O 26.53 CB 27.99 CG1 32.46 CG2 30.08
C ARG H 63 -62.1 -44.0 N 30.33 CA 30.68 C 26.24 O 27.24 CB 29.97 CG 30.06 CD 30.41 NE 29.77 CZ 35.17 NH1 33.7 NH2 33.38
C PRO H 96 -57.4 -39.0 N 26.77 CA 25.9 C 27.62 O 26.37 CB 26.61 CG 27.93 CD 28.75
C TYR H 121 -61.5 -51.7 N 23.18 CA 27.93 C 25.15 O 22.46 CB 25.82 CG 24.85 CD1 26.06 CD2 28.64 CE1 28.73 CE2 29.14 CZ 31.21 OH 36.84
C TRP H 30 -70.3 -30.1 N 23.92 CA 21.93 C 24.63 O 22.8 CB 24.2 CG 27.45 CD1 28.68 CD2 28.57 NE1 28.35 CE2 29.25 CE3 31.83 CZ2 34.4 CZ3 33.42 CH2 29.39
C ASN H 48 -64.3 -45.8 N 21.89 CA 30.86 C 29.38 O 28.41 CB 35.25 CG 44.53 OD1 46.25 ND2 44.81
C GLY H 37 -56.6 -48.4 N 26.09 CA 26.79 C 26.19 O 31.03
C CYS H 11 -56.0 -47.7 N 22.08 CA 25.37 C 25.18 O 21.73 CB 19.42 SG 28.0
C GLY H 1 -58.2 -43.3 N 25.99 CA 25.41 C 28.94 O 27.28
C GLN H 113 -61.1 -45.4 N 27.21 CA 31.04 C 27.01 O 25.68 CB 38.48 CG 52.07 CD 65.65 OE1 73.16 NE2 68.82
C ALA H 25 -60.7 -41.4 N 27.43 CA 27.57 C 26.32 O 23.13 CB 27.59
C LEU H 0 -77.3 -27.4 N 22.56 CA 20.27 C 20.81 O 23.17 CB 19.65 CG 19.48 CD1 14.46 CD2 22.45
C ASP H 63 -67.3 -46.6 N 20.88 CA 27.05 C 24.28 O 25.7 CB 27.81 CG 32.79 OD1 25.05 OD2 38.84
C LYS H 150 -56.1 -44.7 N 24.53 CA 28.06 C 25.97 O 23.83 CB 27.25 CG 38.83 CD 47.54 CE 55.1 NZ 58.02
C PHE H 7 -57.6 -51.8 N 22.02 CA 23.43 C 22.44 O 21.55 CB 20.26 CG 18.39 CD1 18.28 CD2 18.46 CE1 19.11 CE2 20.44 CZ 18.89
C SER H 4 -59.9 -45.0 N 20.79 CA 21.07 C 24.15 O 22.85 CB 24.13 OG 22.14
C ALA H 42 -59.7 -40.4 N 21.18 CA 25.2 C 28.81 O 25.67 CB 24.83
C GLY H 32 -62.9 -42.7 N 29.42 CA 24.42 C 24.09 O 27.45
C LEU H 9 -54.9 -32.4 N 19.82 CA 19.63 C 24.04 O 19.27 CB 23.45 CG 19.62 CD1 20.89 CD2 18.74
C MET T 58 -73.9 -11.4 N 20.44 CA 24.23 C 27.84 O 29.48 CB 26.32 CG 24.59 SD 30.97 CE 35.59
C GLU T 160 -96.5 -7.0 N 23.11 CA 27.02 C 28.22 O 31.13 CB 33.95 CG 54.47 CD 61.71 OE1 62.57 OE2 69.6
C ASP - 28 -89.7 111.7 N 28.4 CA 26.93 C 22.96 O 21.07 CB 28.53 CG 30.78 OD1 30.46 OD2 34.01
C PRO T 48 -79.7 0.9 N 24.34 CA 26.66 C 30.34 O 29.34 CB 28.15 CG 28.46 CD 26.43
C ARG T 19 -83.9 -13.5 N 23.95 CA 24.24 C 25.04 O 21.54 CB 23.71 CG 24.46 CD 27.78 NE 25.2 CZ 25.05 NH1 24.84 NH2 29.32
C ILE E 0 -130.3 158.5 N 19.83 CA 18.32 C 24.37 O 22.15 CB 19.33 CG1 21.36 CG2 20.09 CD1 20.66
C ASP E 9 -105.4 136.7 N 22.45 CA 20.95 C 18.85 O 20.99 CB 27.56 CG 36.83 OD1 34.56 OD2 44.38
C VAL E 4 -127.5 133.8 N 16.95 CA 14.66 C 16.76 O 19.18 CB 19.98 CG1 22.37 CG2 22.33
C LEU E 1 -134.2 116.0 N 18.36 CA 18.69 C 20.51 O 17.67 CB 20.02 CG 24.19 CD1 25.51 CD2 27.91
C LEU E 2 -94.4 107.2 N 20.04 CA 18.67 C 16.96 O 19.9 CB 18.43 CG 23.03 CD1 22.12 CD2 22.66
C LEU E 7 -92.9 127.6 N 19.37 CA 23.4 C 20.98 O 19.06 CB 27.83 CG 39.71 CD1 37.29 CD2 43.11
C PRO - 12 -79.9 61.8 N 21.96 CA 21.13 C 23.35 O 23.65 CB 27.77 CG 23.59 CD 22.79
C VAL S 3 -123.3 146.4 N 21.52 CA 20.24 C 23.69 O 21.67 CB 21.79 CG1 18.84 CG2 22.41
C PHE T 11 53.9 -126.0 N 22.54 CA 20.29 C 23.3 O 24.85 CB 22.59 CG 25.72 CD1 31.31 CD2 26.05 CE1 32.73 CE2 25.32 CZ 26.65
C ASP T 8 -101.5 32.3 N 21.08 CA 18.63 C 19.51 O 21.69 CB 18.88 CG 25.19 OD1 24.39 OD2 29.19
C GLY - 0 85.4 124.7 N 19.67 CA 20.8 C 21.35 O 21.15
C VAL E 1 -129.0 121.5 N 20.46 CA 16.86 C 19.92 O 18.46 CB 16.06 CG1 22.18 CG2 19.34
C THR E 2 -92.7 121.9 N 20.07 CA 20.0 C 18.6 O 17.41 CB 25.57 OG1 25.66 CG2 16.05
C GLN E 26 -95.6 134.9 N 15.51 CA 19.1 C 18.64 O 18.1 CB 19.43 CG 23.44 CD 26.61 OE1 33.49 NE2 28.8
C ILE E 0 -130.4 133.2 N 16.77 CA 17.11 C 18.36 O 21.57 CB 19.8 CG1 15.97 CG2 20.49 CD1 16.05
C ARG E 6 -136.5 165.2 N 20.96 CA 20.82 C 21.05 O 20.86 CB 26.06 CG 18.59 CD 28.16 NE 29.83 CZ 31.31 NH1 28.88 NH2 34.81
C TRP E 54 -67.9 137.4 N 19.16 CA 20.54 C 26.33 O 27.92 CB 26.65 CG 29.89 CD1 27.89 CD2 29.02 NE1 27.03 CE2 29.79 CE3 28.67 CZ2 30.12 CZ3 31.51 CH2 29.31
C LYS - 70 -69.9 137.1 N 29.19 CA 32.58 C 35.24 O 34.27 CB 36.68 CG 42.1 CD 45.49 CE 46.35 NZ 46.42
C ASP - 73 -63.0 -50.8 N 38.85 CA 50.54 C 61.64 O 65.83 CB 53.6 CG 51.78 OD1 50.39 OD2 51.9
C GLY - 94 -138.2 360.0 N 69.66 CA 75.95 C 87.98 O 92.63
D LEU - 171 360.0 153.5 N 60.42 CA 60.79 C 58.68 O 60.38 CB 65.25 CG 66.38 CD1 69.04 CD2 67.22
D GLY - 21 -115.0 -165.6 N 53.53 CA 48.68 C 45.91 O 46.41
D SER S 11 -102.2 1.3 N 39.29 CA 38.46 C 37.85 O 40.79 CB 41.39 OG 50.09
D ILE - 22 -109.1 129.2 N 31.6 CA 26.16 C 28.25 O 27.57 CB 27.91 CG1 24.29 CG2 25.58 CD1 29.98
D LEU - 20 -77.5 133.8 N 25.08 CA 22.9 C 24.46 O 23.43 CB 24.22 CG 21.37 CD1 21.65 CD2 20.48
D PRO - 17 -84.6 131.7 N 23.85 CA 26.4 C 31.15 O 33.8 CB 26.69 CG 28.73 CD 22.94
D PHE - 15 -133.6 147.5 N 26.33 CA 29.77 C 31.38 O 33.3 CB 26.36 CG 24.79 CD1 22.63 CD2 25.63 CE1 26.13 CE2 24.79 CZ 23.1
D ASN - 95 -83.5 177.8 N 29.87 CA 27.83 C 30.13 O 28.11 CB 29.54 CG 31.69 OD1 29.06 ND2 34.41
D GLU H 106 -56.2 -49.8 N 30.63 CA 31.05 C 29.16 O 28.12 CB 33.52 CG 37.73 CD 46.26 OE1 50.67 OE2 45.46
D GLU H 135 -62.4 -44.9 N 33.59 CA 36.84 C 30.46 O 31.73 CB 46.35 CG 59.7 CD 73.24 OE1 78.81 OE2 78.12
D THR H 7 -68.9 -39.0 N 26.15 CA 23.34 C 24.69 O 26.67 CB 24.3 OG1 30.09 CG2 21.41
D ALA H 1 -60.8 -42.4 N 26.61 CA 23.8 C 26.48 O 27.06 CB 27.96
D ASP H 54 -62.9 -37.9 N 24.01 CA 24.7 C 26.14 O 26.02 CB 27.28 CG 36.69 OD1 38.71 OD2 38.48
D ARG H 69 -64.5 -42.1 N 26.3 CA 26.84 C 22.67 O 23.39 CB 33.31 CG 45.92 CD 52.34 NE 57.33 CZ 62.05 NH1 66.97 NH2 59.64
D VAL H 0 -69.2 -37.7 N 20.42 CA 23.19 C 21.72 O 23.07 CB 23.73 CG1 26.79 CG2 24.25
D SER H 1 -60.5 -45.5 N 23.13 CA 22.6 C 23.82 O 24.24 CB 25.85 OG 25.14
D ALA H 55 -62.4 -36.5 N 24.5 CA 23.72 C 22.63 O 24.33 CB 26.31
D TYR H 25 -63.4 -45.3 N 24.31 CA 20.8 C 22.35 O 23.24 CB 20.33 CG 21.62 CD1 25.34 CD2 22.22 CE1 28.43 CE2 23.82 CZ 25.21 OH 24.88
D CYS H 0 -58.9 -43.0 N 19.58 CA 19.63 C 21.53 O 22.11 CB 16.74 SG 21.14
D GLU H 71 -60.7 -45.3 N 21.25 CA 23.09 C 25.15 O 26.74 CB 30.28 CG 38.32 CD 46.27 OE1 47.7 OE2 50.94
D LYS H 166 -62.4 -35.7 N 26.96 CA 29.15 C 23.91 O 27.04 CB 27.74 CG 38.59 CD 45.07 CE 52.63 NZ 55.8
D ASN T 9 -106.9 26.1 N 24.42 CA 24.19 C 25.37 O 24.06 CB 24.3 CG 32.4 OD1 35.67 ND2 34.34
D SER S 4 -130.1 152.2 N 24.43 CA 21.71 C 24.84 O 22.52 CB 22.22 OG 24.76
D HIS - 52 -66.4 134.4 N 22.31 CA 28.23 C 28.98 O 28.33 CB 31.54 CG 32.9 ND1 28.9 CD2 36.59 CE1 31.01 NE2 35.35
D GLY - 56 -80.3 168.4 N 30.69 CA 31.85 C 29.97 O 26.49
D ILE - 9 -77.2 156.7 N 32.13 CA 31.74 C 36.5 O 39.43 CB 31.4 CG1 34.94 CG2 27.61 CD1 37.2
D PRO - 39 -57.6 152.9 N 38.71 CA 39.35 C 37.69 O 39.06 CB 39.02 CG 37.46 CD 38.0
D ASP H 142 -56.6 -35.7 N 40.82 CA 43.94 C 42.07 O 43.32 CB 52.72 CG 59.42 OD1 57.36 OD2 65.59
D ALA H 44 -64.6 -35.6 N 42.18 CA 45.06 C 39.72 O 40.36 CB 46.03
D LEU H 0 -77.6 -37.6 N 41.0 CA 37.2 C 34.81 O 36.17 CB 32.03 CG 27.84 CD1 30.52 CD2 24.5
D VAL H 24 -54.5 -51.5 N 35.65 CA 33.73 C 38.08 O 37.96 CB 33.01 CG1 35.57 CG2 31.01
D GLU H 102 -49.5 -48.5 N 37.12 CA 44.88 C 44.63 O 43.8 CB 46.98 CG 58.27 CD 62.23 OE1 64.52 OE2 60.59
D HIS H 14 -67.1 -35.0 N 44.18 CA 44.49 C 37.1 O 37.22 CB 43.65 CG 45.83 ND1 50.1 CD2 45.66 CE1 49.32 NE2 45.75
D TRP H 36 -61.4 -52.5 N 37.27 CA 34.74 C 35.44 O 38.19 CB 38.52 CG 37.05 CD1 35.86 CD2 40.64 NE1 38.8 CE2 41.09 CE3 44.66 CZ2 41.48 CZ3 46.22 CH2 42.98
D GLU H 89 -58.3 -41.8 N 37.08 CA 42.32 C 45.1 O 45.68 CB 49.07 CG 58.04 CD 67.78 OE1 70.6 OE2 71.97
D TRP H 67 -58.8 -53.4 N 44.58 CA 48.31 C 47.21 O 49.92 CB 47.52 CG 55.37 CD1 59.14 CD2 56.9 NE1 61.55 CE2 59.57 CE3 54.49 CZ2 60.77 CZ3 53.68 CH2 58.29
D THR H 0 -55.2 -45.9 N 42.82 CA 40.92 C 41.44 O 42.24 CB 39.22 OG1 38.97 CG2 37.58
D ARG H 136 -66.9 -35.8 N 46.06 CA 52.67 C 59.78 O 61.95 CB 54.51 CG 56.52 CD 61.43 NE 68.8 CZ 73.97 NH1 75.08 NH2 75.85
D THR H 95 -67.2 -32.9 N 62.33 CA 64.96 C 64.31 O 65.3 CB 70.97 OG1 74.77 CG2 69.05
D ARG H 152 -100.2 -21.2 N 63.08 CA 64.67 C 62.56 O 64.27 CB 66.28 CG 72.63 CD 82.22 NE 90.88 CZ 98.83 NH1 100.47 NH2 103.45
D PHE - 21 -127.5 128.8 N 60.04 CA 60.69 C 61.83 O 58.73 CB 59.61 CG 62.71 CD1 66.13 CD2 61.39 CE1 65.39 CE2 60.75 CZ 63.41
D PRO T 126 -66.0 -29.6 N 67.1 CA 65.49 C 62.65 O 65.38 CB 69.23 CG 71.07 CD 67.59
D ASP T 55 -98.1 26.8 N 57.32 CA 55.53 C 52.64 O 50.72 CB 57.65 CG 61.17 OD1 65.21 OD2 58.69
D ALA G 10 -64.0 -5.5 N 51.38 CA 47.87 C 45.66 O 38.73 CB 48.16
D ASP G 102 -71.9 -7.8 N 51.31 CA 52.31 C 47.57 O 46.6 CB 61.11 CG 70.99 OD1 75.05 OD2 74.13
D LYS G 81 -68.2 -25.0 N 43.49 CA 41.65 C 36.36 O 33.53 CB 42.46 CG 49.19 CD 53.73 CE 55.12 NZ 55.5
D MET S 16 -76.3 142.2 N 32.92 CA 31.71 C 33.58 O 33.55 CB 33.48 CG 30.77 SD 35.36 CE 30.43
D SER - 3 -62.0 156.9 N 30.28 CA 30.44 C 31.25 O 30.6 CB 28.07 OG 31.86
D SER - 21 -76.6 170.0 N 31.71 CA 29.64 C 26.15 O 24.54 CB 31.55 OG 30.46
D ARG H 77 -63.2 -42.9 N 25.85 CA 28.96 C 24.21 O 25.09 CB 31.77 CG 37.27 CD 45.04 NE 51.8 CZ 58.08 NH1 64.88 NH2 57.37
D LEU H 0 -58.6 -43.7 N 25.63 CA 22.61 C 23.31 O 25.11 CB 20.32 CG 24.69 CD1 27.98 CD2 25.22
D GLN H 18 -60.6 -34.8 N 22.66 CA 24.29 C 21.89 O 24.22 CB 30.78 CG 34.23 CD 42.01 OE1 42.9 NE2 42.89
D GLY H 0 -59.6 -48.8 N 22.95 CA 22.63 C 25.15 O 22.35
D SER H 14 -59.6 -40.3 N 28.07 CA 26.07 C 24.15 O 24.36 CB 29.13 OG 33.5
D TRP H 15 -61.5 -44.7 N 21.6 CA 19.51 C 23.66 O 22.12 CB 21.88 CG 28.97 CD1 27.99 CD2 29.68 NE1 28.35 CE2 31.55 CE3 33.2 CZ2 34.27 CZ3 33.94 CH2 30.59
D MET H 1 -62.4 -46.5 N 22.28 CA 17.71 C 25.84 O 23.65 CB 19.68 CG 22.06 SD 33.09 CE 40.79
D ILE H 6 -63.6 -43.8 N 25.25 CA 23.2 C 25.53 O 22.95 CB 22.96 CG1 21.36 CG2 28.84 CD1 24.46
D PHE H 9 -58.1 -48.1 N 22.13 CA 22.55 C 22.12 O 24.72 CB 20.45 CG 21.98 CD1 19.31 CD2 18.83 CE1 22.35 CE2 20.54 CZ 22.98
D THR H 17 -62.0 -45.2 N 21.16 CA 21.9 C 25.96 O 26.81 CB 23.34 OG1 23.88 CG2 23.52
D ALA H 1 -63.9 -41.9 N 23.29 CA 20.62 C 24.99 O 28.06 CB 23.09
D ARG H 62 -66.4 -34.7 N 22.41 CA 24.01 C 29.47 O 23.4 CB 25.72 CG 31.73 CD 34.12 NE 37.91 CZ 39.14 NH1 40.17 NH2 38.86
D ASP H 14 -72.3 -56.5 N 26.04 CA 26.1 C 26.43 O 26.7 CB 27.01 CG 28.32 OD1 28.3 OD2 26.84
D ARG H 64 -75.3 -23.0 N 24.8 CA 23.9 C 27.28 O 29.07 CB 24.87 CG 24.73 CD 22.75 NE 29.37 CZ 30.11 NH1 30.08 NH2 29.64
D LYS - 73 49.2 57.5 N 28.4 CA 28.57 C 33.84 O 35.64 CB 31.81 CG 31.17 CD 37.92 CE 39.54 NZ 41.09
D PRO - 3 -66.8 138.2 N 33.58 CA 33.37 C 36.44 O 38.57 CB 34.36 CG 32.72 CD 30.57
D LYS S 155 -68.9 -39.2 N 36.82 CA 39.31 C 37.14 O 38.04 CB 45.07 CG 48.03 CD 52.61 CE 58.48 NZ 63.59
D ARG E 57 -137.2 143.3 N 35.9 CA 34.89 C 33.22 O 37.01 CB 35.13 CG 41.05 CD 44.51 NE 46.86 CZ 48.59 NH1 46.49 NH2 48.65
D ILE E 0 -121.4 136.0 N 31.71 CA 31.18 C 30.39 O 32.67 CB 27.17 CG1 30.75 CG2 25.85 CD1 32.98
D LEU E 0 -121.3 131.5 N 27.88 CA 28.79 C 30.05 O 30.78 CB 29.9 CG 33.05 CD1 34.81 CD2 28.56
D GLU E 0 -128.6 142.7 N 29.12 CA 30.03 C 32.65 O 34.16 CB 33.57 CG 34.1 CD 34.86 OE1 40.63 OE2 32.26
D ILE E 0 -114.0 117.3 N 28.37 CA 26.03 C 28.33 O 27.76 CB 29.05 CG1 29.59 CG2 30.3 CD1 32.23
D GLY - 0 97.4 97.6 N 30.07 CA 29.63 C 27.92 O 29.1
D CYS - 0 -94.4 -36.3 N 33.74 CA 29.8 C 31.57 O 32.51 CB 33.46 SG 35.2
D TYR T 0 53.6 -108.2 N 28.93 CA 32.08 C 31.58 O 34.88 CB 29.08 CG 34.85 CD1 38.57 CD2 38.19 CE1 39.37 CE2 39.19 CZ 40.54 OH 42.38
D SER T 0 -103.0 1.7 N 33.22 CA 35.13 C 36.83 O 33.66 CB 36.47 OG 37.94
D GLY S 0 94.6 10.9 N 29.18 CA 28.47 C 28.95 O 28.17
D TYR H 0 -63.8 -52.5 N 27.04 CA 28.38 C 27.92 O 25.38 CB 27.33 CG 25.6 CD1 26.87 CD2 27.28 CE1 27.71 CE2 27.4 CZ 27.08 OH 28.15
D SER H 0 -66.3 -33.9 N 23.24 CA 24.3 C 24.69 O 28.29 CB 30.21 OG 27.71
D ALA H 0 -61.5 -43.4 N 25.12 CA 29.39 C 29.1 O 25.87 CB 31.59
D LEU H 0 -69.0 -31.6 N 30.9 CA 29.75 C 30.78 O 32.88 CB 30.08 CG 31.51 CD1 33.11 CD2 34.92
D ALA H 0 -63.9 -46.5 N 28.69 CA 27.27 C 26.54 O 31.35 CB 23.47
D TRP H 0 -59.6 -44.5 N 29.33 CA 26.41 C 28.49 O 32.41 CB 24.27 CG 29.28 CD1 28.51 CD2 24.86 NE1 26.82 CE2 28.76 CE3 24.51 CZ2 23.62 CZ3 28.42 CH2 25.32
D TYR H 21 -51.4 -51.6 N 31.43 CA 29.09 C 32.72 O 36.09 CB 30.94 CG 35.47 CD1 36.73 CD2 41.27 CE1 41.63 CE2 42.93 CZ 45.52 OH 48.0
D GLU H 13 -57.4 -44.6 N 34.71 CA 35.71 C 34.5 O 35.05 CB 37.76 CG 44.35 CD 45.25 OE1 42.73 OE2 48.0
D GLY H 5 -71.7 -11.8 N 30.12 CA 29.91 C 34.05 O 31.66
D THR T 3 -121.1 27.8 N 35.35 CA 36.34 C 39.1 O 39.62 CB 36.32 OG1 34.51 CG2 29.8
D ARG T 105 -62.0 -34.0 N 39.06 CA 44.84 C 49.64 O 48.7 CB 45.7 CG 48.12 CD 51.72 NE 53.33 CZ 55.5 NH1 58.09 NH2 56.03
D ASP T 121 -70.7 -32.2 N 51.36 CA 60.98 C 61.13 O 63.28 CB 68.91 CG 77.27 OD1 82.09 OD2 78.23
D THR T 72 -102.0 -14.9 N 56.57 CA 51.67 C 51.49 O 51.49 CB 47.56 OG1 46.7 CG2 43.94
D LYS T 144 60.6 39.1 N 50.24 CA 47.32 C 44.51 O 44.45 CB 50.64 CG 54.18 CD 62.13 CE 66.22 NZ 73.0
D ALA - 4 -64.7 147.0 N 45.11 CA 40.12 C 41.61 O 41.74 CB 34.84
D GLU E 74 -72.9 137.1 N 41.7 CA 41.46 C 38.74 O 33.94 CB 51.29 CG 59.96 CD 69.2 OE1 74.77 OE2 68.68
D ILE E 0 -122.8 118.3 N 35.23 CA 32.92 C 37.38 O 39.99 CB 33.49 CG1 36.73 CG2 33.88 CD1 37.11
D VAL E 4 -106.2 130.7 N 33.36 CA 34.23 C 35.01 O 37.14 CB 33.15 CG1 35.54 CG2 37.35
D THR E 0 -131.5 132.8 N 32.23 CA 32.45 C 32.48 O 31.71 CB 32.43 OG1 33.84 CG2 34.76
D LEU E 0 -102.7 135.2 N 33.88 CA 34.5 C 35.66 O 29.57 CB 35.14 CG 37.66 CD1 35.89 CD2 39.69
D GLU E 0 -152.8 141.5 N 36.26 CA 37.36 C 39.67 O 37.14 CB 34.83 CG 37.33 CD 37.64 OE1 35.4 OE2 35.5
D TYR - 117 -112.0 -10.1 N 41.59 CA 41.38 C 38.85 O 40.85 CB 43.32 CG 41.8 CD1 46.39 CD2 39.77 CE1 48.2 CE2 40.42 CZ 43.34 OH 42.94
D SER - 29 -92.1 119.2 N 38.08 CA 39.73 C 40.8 O 39.66 CB 38.83 OG 40.64
D PRO H 105 -56.2 -47.0 N 47.02 CA 44.65 C 44.55 O 44.25 CB 47.5 CG 47.29 CD 44.98
D LYS H 129 -55.8 -44.7 N 47.71 CA 49.89 C 45.06 O 43.17 CB 54.59 CG 61.0 CD 71.11 CE 75.65 NZ 75.78
D MET H 5 -75.6 -32.7 N 40.53 CA 38.24 C 37.78 O 36.9 CB 36.29 CG 40.98 SD 43.98 CE 37.2
D ILE H 13 -58.9 -45.9 N 40.45 CA 40.88 C 41.8 O 40.57 CB 43.08 CG1 38.36 CG2 41.14 CD1 43.32
D ALA H 60 -61.5 -48.7 N 43.16 CA 48.55 C 46.79 O 47.12 CB 47.19
D ALA H 5 -56.4 -43.2 N 43.48 CA 41.36 C 42.33 O 44.11 CB 42.47
D SER H 0 -67.4 -43.3 N 39.78 CA 40.05 C 40.24 O 36.88 CB 34.3 OG 32.79
D ARG H 106 -66.7 -36.2 N 39.19 CA 43.41 C 43.09 O 43.44 CB 47.58 CG 47.27 CD 54.75 NE 54.74 CZ 50.53 NH1 49.71 NH2 49.19
D GLU H 115 -60.6 -47.4 N 43.47 CA 49.4 C 48.92 O 52.36 CB 58.22 CG 66.84 CD 73.5 OE1 76.54 OE2 74.46
D ALA H 7 -60.0 -43.6 N 45.06 CA 44.74 C 46.49 O 49.11 CB 41.1
D PHE H 16 -65.4 -38.4 N 42.71 CA 41.97 C 47.39 O 47.41 CB 39.83 CG 38.34 CD1 35.63 CD2 39.14 CE1 36.23 CE2 39.14 CZ 35.55
D LYS H 174 -67.2 -43.1 N 45.81 CA 52.25 C 53.37 O 51.18 CB 56.15 CG 61.7 CD 66.19 CE 67.1 NZ 71.34
D LYS H 141 -66.4 -38.9 N 53.46 CA 58.37 C 58.49 O 63.26 CB 63.59 CG 69.87 CD 71.27 CE 73.42 NZ 73.67
D TYR H 34 -71.5 -15.7 N 50.68 CA 49.06 C 47.66 O 52.12 CB 44.13 CG 46.02 CD1 48.25 CD2 44.09 CE1 45.82 CE2 43.86 CZ 43.19 OH 46.88
D GLY T 54 73.9 37.2 N 50.81 CA 52.67 C 53.76 O 53.78
D VAL - 12 -72.7 -55.3 N 54.16 CA 56.1 C 65.25 O 66.57 CB 52.41 CG1 52.74 CG2 44.86
D GLY - 58 81.3 -134.0 N 71.48 CA 76.71 C 76.76 O 75.23
D ASP T 155 -70.6 -50.2 N 77.19 CA 77.86 C 67.95 O 66.53 CB 87.94 CG 93.95 OD1 95.6 OD2 95.97
D ARG T 18 -71.1 -3.0 N 57.48 CA 50.45 C 47.03 O 45.59 CB 47.21 CG 42.92 CD 42.71 NE 42.38 CZ 37.79 NH1 37.06 NH2 37.98
D VAL E 14 -105.4 118.8 N 42.46 CA 42.08 C 40.72 O 42.04 CB 40.26 CG1 41.22 CG2 40.94
D LYS E 118 -117.0 117.8 N 38.65 CA 42.68 C 40.84 O 34.76 CB 47.8 CG 60.04 CD 66.86 CE 73.91 NZ 77.32
D LEU E 8 -95.6 115.5 N 39.99 CA 36.51 C 39.08 O 39.92 CB 39.43 CG 47.03 CD1 45.7 CD2 51.44
D ILE E 34 -99.1 126.0 N 35.98 CA 38.63 C 40.43 O 38.56 CB 37.48 CG1 44.39 CG2 40.43 CD1 46.84
D GLU E 103 -95.2 136.4 N 43.45 CA 43.88 C 44.76 O 47.05 CB 48.35 CG 50.39 CD 52.65 OE1 50.49 OE2 56.32
D GLY S 18 131.0 172.4 N 43.83 CA 45.13 C 40.1 O 36.86
D PRO - 49 -60.3 126.2 N 44.82 CA 41.81 C 39.77 O 40.97 CB 41.03 CG 43.14 CD 42.24
D ALA H 0 -63.3 -31.6 N 35.81 CA 37.62 C 41.26 O 44.78 CB 35.4
D GLU H 84 -62.5 -23.1 N 42.71 CA 46.1 C 52.88 O 57.28 CB 47.16 CG 47.69 CD 47.6 OE1 42.32 OE2 50.34
D ASN H 97 -95.2 -49.1 N 50.39 CA 49.58 C 46.45 O 48.16 CB 50.75 CG 53.95 OD1 56.87 ND2 55.79
D THR H 16 -67.5 -35.9 N 42.18 CA 39.16 C 38.07 O 40.25 CB 37.93 OG1 41.0 CG2 40.84
D LEU G 1 -55.3 -32.6 N 40.82 CA 39.24 C 43.66 O 46.73 CB 38.03 CG 38.73 CD1 36.64 CD2 35.41
D LYS G 112 -72.7 -20.0 N 44.57 CA 48.42 C 49.32 O 50.58 CB 50.11 CG 50.16 CD 51.48 CE 50.59 NZ 53.3
D THR G 96 -86.3 -13.8 N 48.86 CA 47.9 C 45.75 O 48.54 CB 49.11 OG1 49.22 CG2 48.02
D LEU - 19 -64.9 148.4 N 46.92 CA 46.54 C 50.27 O 51.27 CB 43.63 CG 41.17 CD1 38.02 CD2 44.94
D GLU - 162 -117.9 161.5 N 53.58 CA 56.38 C 54.77 O 45.59 CB 62.65 CG 69.89 CD 78.07 OE1 81.46 OE2 80.15
D GLY S 53 74.7 -158.8 N 54.56 CA 49.55 C 46.88 O 45.71
D GLU - 101 -130.7 161.6 N 47.49 CA 45.74 C 45.91 O 46.12 CB 49.65 CG 55.46 CD 62.21 OE1 64.21 OE2 64.4
D PHE E 0 -123.8 136.7 N 41.51 CA 34.59 C 37.74 O 35.56 CB 32.98 CG 36.29 CD1 36.65 CD2 39.12 CE1 36.94 CE2 39.82 CZ 40.45
D ASP E 30 -79.1 -27.2 N 35.63 CA 35.42 C 35.21 O 31.76 CB 36.15 CG 41.55 OD1 42.91 OD2 43.61
D LEU E 0 -136.5 125.0 N 29.19 CA 27.12 C 28.54 O 32.24 CB 26.75 CG 34.98 CD1 39.54 CD2 36.75
D ILE E 0 -122.0 124.1 N 27.1 CA 26.25 C 27.38 O 29.78 CB 27.58 CG1 27.93 CG2 28.06 CD1 29.1
D PHE E 1 -110.8 110.2 N 26.67 CA 26.23 C 24.21 O 26.96 CB 25.84 CG 26.64 CD1 29.87 CD2 27.17 CE1 28.3 CE2 26.06 CZ 28.52
D VAL E 0 -95.8 115.2 N 25.05 CA 25.19 C 25.17 O 26.66 CB 27.32 CG1 26.1 CG2 23.61
D ASP - 1 -153.1 38.2 N 26.85 CA 29.68 C 27.74 O 30.59 CB 25.84 CG 29.09 OD1 29.09 OD2 30.27
D ALA S 3 -110.1 -138.3 N 27.88 CA 25.15 C 25.13 O 29.01 CB 26.63
D ASN - 35 -65.1 123.4 N 26.59 CA 27.79 C 28.12 O 27.89 CB 30.35 CG 31.54 OD1 32.29 ND2 31.2
D LYS G 12 -57.4 -41.2 N 29.77 CA 30.36 C 32.59 O 34.86 CB 32.96 CG 32.28 CD 38.44 CE 41.63 NZ 43.32
D ASP G 125 -69.7 2.0 N 32.31 CA 35.55 C 36.66 O 37.08 CB 39.44 CG 41.76 OD1 38.98 OD2 45.36
D GLY G 12 -110.4 -8.8 N 36.11 CA 35.07 C 34.41 O 33.39
D TYR H 0 -50.9 -50.5 N 33.72 CA 33.05 C 34.83 O 36.58 CB 31.92 CG 30.57 CD1 29.9 CD2 27.37 CE1 26.0 CE2 28.52 CZ 24.38 OH 23.45
D ALA H 53 -58.2 -41.8 N 34.26 CA 35.37 C 38.35 O 37.64 CB 38.19
D GLY H 39 -63.1 -48.5 N 32.09 CA 32.97 C 38.45 O 39.63
D TYR H 5 -58.5 -53.5 N 35.02 CA 34.95 C 36.56 O 40.86 CB 30.44 CG 35.96 CD1 35.36 CD2 37.14 CE1 39.82 CE2 37.55 CZ 38.21 OH 38.47
D VAL H 4 -53.0 -45.9 N 34.59 CA 35.93 C 38.03 O 40.68 CB 36.9 CG1 37.5 CG2 32.14
D LYS H 121 -55.9 -50.6 N 40.55 CA 41.76 C 41.76 O 43.11 CB 44.19 CG 48.04 CD 52.48 CE 57.62 NZ 59.31
D THR H 21 -60.0 -45.6 N 40.49 CA 41.48 C 43.78 O 47.44 CB 42.61 OG1 41.96 CG2 41.59
D ILE H 0 -56.4 -37.7 N 35.34 CA 37.45 C 38.69 O 38.45 CB 31.94 CG1 30.73 CG2 31.15 CD1 30.67
D LEU H 6 -81.8 -32.9 N 40.2 CA 40.83 C 44.11 O 40.96 CB 40.93 CG 33.23 CD1 32.84 CD2 33.1
D ASP H 81 -75.1 -33.4 N 43.38 CA 46.66 C 46.68 O 50.74 CB 54.28 CG 61.92 OD1 65.58 OD2 66.52
D GLN T 87 -95.9 3.1 N 43.45 CA 48.6 C 47.66 O 48.75 CB 51.01 CG 52.75 CD 53.43 OE1 54.41 NE2 52.01
D GLY T 32 64.1 37.8 N 46.01 CA 45.08 C 43.83 O 45.22
D LEU - 2 -74.7 -18.8 N 43.07 CA 41.71 C 39.48 O 42.5 CB 39.01 CG 42.25 CD1 40.13 CD2 46.15
D LEU E 4 -95.2 120.6 N 34.92 CA 33.63 C 36.49 O 40.76 CB 32.18 CG 36.91 CD1 34.33 CD2 32.09
D SER E 3 -66.2 164.6 N 35.51 CA 37.86 C 41.71 O 42.07 CB 38.67 OG 35.91
D ALA E 69 -54.9 -43.7 N 40.48 CA 42.5 C 42.28 O 41.86 CB 47.27
D ASN E 101 -107.3 23.5 N 39.51 CA 40.12 C 34.29 O 35.64 CB 44.81 CG 52.51 OD1 53.23 ND2 56.23
D GLY E 1 -88.3 175.9 N 33.59 CA 31.72 C 31.73 O 31.89
D ILE E 3 -142.5 145.9 N 30.01 CA 29.53 C 25.17 O 28.38 CB 29.14 CG1 30.42 CG2 28.13 CD1 31.47
D ILE E 0 -105.3 132.0 N 23.75 CA 24.63 C 29.46 O 32.25 CB 27.62 CG1 27.54 CG2 24.2 CD1 30.37
D LEU E 5 -113.5 117.0 N 22.96 CA 20.34 C 23.98 O 23.63 CB 19.34 CG 24.55 CD1 26.45 CD2 23.7
D CYS E 0 -107.6 125.8 N 23.07 CA 22.89 C 23.96 O 24.59 CB 23.0 SG 29.6
D ASP - 1 -97.1 154.6 N 23.76 CA 25.73 C 26.65 O 28.83 CB 29.03 CG 31.91 OD1 32.61 OD2 36.31
D ASN - 19 61.2 29.0 N 22.7 CA 26.87 C 24.2 O 27.9 CB 29.53 CG 36.69 OD1 39.24 ND2 36.36
D VAL T 0 -65.7 -25.6 N 22.91 CA 25.72 C 21.41 O 24.63 CB 27.56 CG1 27.46 CG2 23.97
D PHE T 4 -75.3 -16.6 N 20.29 CA 21.36 C 23.33 O 29.82 CB 18.53 CG 21.3 CD1 20.56 CD2 22.77 CE1 23.38 CE2 22.35 CZ 25.39
D ALA G 0 47.6 48.6 N 23.96 CA 25.92 C 25.92 O 27.17 CB 26.94
D ARG G 40 65.9 10.2 N 25.38 CA 27.09 C 30.63 O 31.0 CB 31.08 CG 35.26 CD 41.63 NE 46.78 CZ 53.1 NH1 51.95 NH2 56.24
D GLY G 0 116.0 -20.4 N 28.54 CA 25.2 C 28.62 O 27.35
D LEU T 12 -73.6 -11.2 N 27.58 CA 27.29 C 25.26 O 28.72 CB 27.18 CG 32.86 CD1 35.57 CD2 33.13
D THR T 6 -65.8 -38.3 N 24.54 CA 28.56 C 29.28 O 30.4 CB 27.77 OG1 24.26 CG2 25.83
D ILE T 29 -74.8 -49.3 N 29.32 CA 30.75 C 35.5 O 33.63 CB 32.24 CG1 28.86 CG2 33.59 CD1 26.14
D GLY - 11 -169.1 159.8 N 36.46 CA 38.51 C 37.32 O 33.21
D PRO T 102 -64.1 -22.7 N 39.54 CA 38.17 C 36.44 O 39.64 CB 42.91 CG 47.18 CD 44.35
D ASP T 93 -100.3 21.4 N 40.15 CA 40.43 C 38.88 O 40.59 CB 47.28 CG 52.97 OD1 44.37 OD2 62.06
D CYS S 0 -102.3 3.5 N 35.91 CA 36.57 C 37.4 O 32.2 CB 35.83 SG 38.59
D ALA - 0 -146.6 67.6 N 33.17 CA 33.52 C 35.78 O 40.68 CB 33.88
D PRO T 102 -61.5 -29.6 N 36.81 CA 38.06 C 38.61 O 43.5 CB 42.28 CG 42.6 CD 39.88
D TRP T 59 -71.8 -17.7 N 38.17 CA 39.24 C 41.44 O 43.25 CB 39.07 CG 35.16 CD1 33.12 CD2 36.44 NE1 32.85 CE2 29.63 CE3 36.19 CZ2 31.02 CZ3 36.57 CH2 32.61
D LEU S 9 -61.7 134.3 N 40.16 CA 42.21 C 46.85 O 47.0 CB 43.83 CG 45.89 CD1 42.27 CD2 45.33
D ASN - 93 -62.3 143.3 N 52.03 CA 56.87 C 55.23 O 51.32 CB 62.28 CG 69.93 OD1 73.93 ND2 72.18
D ASP G 129 -61.5 -33.6 N 55.31 CA 59.94 C 58.89 O 61.86 CB 68.09 CG 74.45 OD1 73.54 OD2 78.97
D HIS G 173 -59.6 -34.1 N 54.08 CA 51.58 C 45.55 O 41.6 CB 57.19 CG 66.15 ND1 69.19 CD2 70.52 CE1 72.52 NE2 73.71
D VAL G 53 -103.8 0.5 N 36.58 CA 35.7 C 33.55 O 33.27 CB 33.34 CG1 35.95 CG2 34.23
D ARG H 66 -66.4 -45.9 N 36.15 CA 35.0 C 33.42 O 36.77 CB 41.08 CG 37.97 CD 40.75 NE 40.73 CZ 40.21 NH1 37.84 NH2 39.94
D PRO H 93 -56.8 -40.3 N 35.51 CA 35.98 C 34.01 O 38.91 CB 38.61 CG 41.67 CD 37.86
D TYR H 118 -58.0 -54.8 N 33.19 CA 35.75 C 34.84 O 35.68 CB 34.98 CG 39.06 CD1 42.38 CD2 35.72 CE1 39.97 CE2 35.26 CZ 39.08 OH 41.46
D TRP H 15 -70.4 -24.7 N 32.75 CA 30.29 C 28.37 O 32.36 CB 30.78 CG 32.07 CD1 34.39 CD2 33.43 NE1 33.16 CE2 34.59 CE3 29.03 CZ2 34.8 CZ3 33.78 CH2 34.85
D ASN H 67 -63.7 -51.2 N 29.34 CA 36.04 C 36.48 O 34.92 CB 39.17 CG 49.99 OD1 55.74 ND2 47.91
D GLY H 34 -56.7 -48.3 N 32.89 CA 31.54 C 29.49 O 32.7
D CYS H 13 -55.2 -47.3 N 27.91 CA 27.44 C 31.46 O 30.99 CB 28.41 SG 31.34
D GLY H 1 -57.7 -43.2 N 30.83 CA 25.49 C 28.73 O 30.01
D GLN H 106 -61.3 -48.4 N 28.66 CA 37.86 C 37.49 O 38.19 CB 45.99 CG 56.86 CD 69.74 OE1 75.66 NE2 73.03
D ALA H 25 -62.2 -42.9 N 36.53 CA 38.0 C 32.64 O 34.66 CB 39.93
D LEU H 0 -72.1 -28.0 N 26.8 CA 28.76 C 30.94 O 30.77 CB 24.89 CG 26.07 CD1 23.26 CD2 24.67
D ASP H 63 -68.7 -45.9 N 30.74 CA 28.61 C 34.81 O 31.56 CB 32.37 CG 37.64 OD1 36.6 OD2 40.33
D LYS H 142 -59.7 -40.7 N 34.07 CA 35.63 C 33.22 O 33.18 CB 38.07 CG 45.19 CD 51.0 CE 56.02 NZ 61.26
D PHE H 6 -59.3 -48.7 N 28.33 CA 34.67 C 33.33 O 35.03 CB 25.64 CG 28.24 CD1 32.93 CD2 30.3 CE1 31.41 CE2 26.68 CZ 31.34
D SER H 3 -61.8 -45.3 N 28.44 CA 32.18 C 35.94 O 34.3 CB 28.07 OG 30.86
D ALA H 37 -60.1 -42.6 N 35.82 CA 40.49 C 43.23 O 42.66 CB 43.22
D GLY H 30 -58.3 -41.2 N 40.75 CA 38.67 C 38.24 O 39.54
D LEU H 11 -61.2 -32.5 N 34.32 CA 34.4 C 37.81 O 38.53 CB 32.58 CG 32.25 CD1 29.99 CD2 31.23
D MET T 66 -73.4 -8.3 N 36.99 CA 39.75 C 44.56 O 47.55 CB 38.52 CG 31.66 SD 42.09 CE 38.42
D GLU T 154 -102.1 -11.2 N 41.9 CA 45.46 C 46.73 O 50.2 CB 48.63 CG 54.57 CD 65.25 OE1 67.29 OE2 69.78
D ASP - 32 -85.8 115.2 N 43.79 CA 44.86 C 45.33 O 40.56 CB 43.36 CG 47.64 OD1 50.65 OD2 48.08
D PRO T 103 -79.8 -5.3 N 46.41 CA 46.29 C 46.33 O 47.18 CB 49.9 CG 49.86 CD 47.91
D ARG T 85 -79.0 -16.0 N 44.64 CA 44.54 C 42.56 O 40.97 CB 44.61 CG 44.2 CD 44.02 NE 47.85 CZ 48.47 NH1 43.06 NH2 47.09
D ILE E 0 -130.9 153.5 N 40.82 CA 37.94 C 39.57 O 40.36 CB 35.51 CG1 37.25 CG2 39.4 CD1 30.76
D ASP E 13 -99.9 132.3 N 36.28 CA 39.5 C 34.96 O 29.17 CB 47.74 CG 59.05 OD1 62.42 OD2 62.89
D VAL E 4 -126.1 139.3 N 30.84 CA 29.68 C 30.1 O 31.58 CB 32.35 CG1 28.87 CG2 34.09
D LEU E 2 -138.8 118.5 N 24.7 CA 23.77 C 26.99 O 24.29 CB 25.47 CG 26.95 CD1 28.34 CD2 27.65
D LEU E 1 -95.6 105.0 N 25.67 CA 23.89 C 25.71 O 27.94 CB 25.87 CG 27.06 CD1 25.0 CD2 24.15
D LEU E 5 -94.1 128.7 N 23.77 CA 28.33 C 27.79 O 25.64 CB 31.16 CG 37.9 CD1 38.61 CD2 42.24
D PRO - 13 -80.1 62.0 N 25.32 CA 24.51 C 25.29 O 22.59 CB 23.8 CG 24.62 CD 26.69
D VAL S 4 -124.2 150.6 N 22.83 CA 20.26 C 23.3 O 19.36 CB 20.74 CG1 23.17 CG2 18.11
D PHE T 12 53.2 -128.2 N 21.26 CA 18.44 C 21.32 O 24.12 CB 20.03 CG 25.16 CD1 27.63 CD2 23.3 CE1 27.77 CE2 23.82 CZ 24.52
D ASP T 9 -100.2 32.1 N 22.94 CA 23.28 C 24.04 O 27.66 CB 20.07 CG 28.7 OD1 26.86 OD2 28.18
D GLY - 0 88.8 124.2 N 25.09 CA 22.43 C 25.47 O 22.66
D VAL E 1 -129.6 122.1 N 22.57 CA 21.74 C 26.17 O 24.05 CB 22.02 CG1 24.68 CG2 17.55
D THR E 2 -96.6 125.7 N 21.31 CA 27.14 C 25.33 O 26.88 CB 27.46 OG1 31.87 CG2 29.03
D GLN E 28 -101.5 130.0 N 25.52 CA 27.65 C 26.6 O 26.13 CB 31.73 CG 32.57 CD 36.01 OE1 39.64 NE2 38.78
D ILE E 0 -127.0 133.3 N 26.48 CA 26.26 C 31.48 O 28.78 CB 29.01 CG1 26.36 CG2 26.8 CD1 27.11
D ARG E 3 -136.6 164.5 N 26.97 CA 32.76 C 37.77 O 31.07 CB 33.06 CG 33.07 CD 36.51 NE 35.78 CZ 39.03 NH1 34.66 NH2 36.03
D TRP E 57 -66.7 133.4 N 35.94 CA 38.59 C 42.97 O 44.63 CB 39.1 CG 38.23 CD1 39.14 CD2 41.63 NE1 39.41 CE2 41.42 CE3 44.78 CZ2 44.18 CZ3 46.96 CH2 45.29
D LYS - 125 -68.7 136.3 N 43.99 CA 45.93 C 50.36 O 50.83 CB 48.35 CG 50.94 CD 55.66 CE 63.99 NZ 69.34
D ASP - 102 -67.7 360.0 N 56.92 CA 64.62 C 67.12 O 67.19 CB 69.98 CG 70.46 OD1 70.02 OD2 71.02
