A VAL - 127 360.0 98.3 N 98.66 CA 96.91 C 91.12 O 95.55 CB 98.04 CG1 93.84 CG2 101.13
A PRO - 52 -46.0 146.1 N 80.24 CA 81.65 C 89.97 O 96.82 CB 80.13 CG 79.34 CD 76.16
A GLN H 110 -71.7 -28.8 N 87.93 CA 81.58 C 69.44 O 64.44 CB 76.57 CG 70.63 CD 70.24 OE1 72.11 NE2 69.73
A GLU H 75 -53.9 -44.5 N 66.76 CA 59.27 C 58.68 O 60.07 CB 57.81 CG 68.35 CD 76.14 OE1 66.51 OE2 85.24
A LEU H 8 -77.4 -34.9 N 49.5 CA 52.24 C 58.78 O 61.53 CB 55.68 CG 64.09 CD1 58.72 CD2 63.64
A ILE H 40 -63.6 -35.6 N 53.09 CA 50.65 C 47.27 O 54.43 CB 62.59 CG1 67.95 CG2 54.75 CD1 72.55
A GLU H 83 -62.4 -31.0 N 45.18 CA 54.37 C 47.96 O 63.02 CB 57.69 CG 61.57 CD 69.63 OE1 66.72 OE2 79.38
A LYS H 36 -79.4 -39.2 N 46.84 CA 50.07 C 51.92 O 58.16 CB 42.01 CG 42.79 CD 43.16 CE 43.99 NZ 53.01
A ILE H 9 -58.3 -36.3 N 46.52 CA 47.77 C 46.97 O 43.13 CB 55.28 CG1 56.9 CG2 49.79 CD1 58.85
A LYS H 101 -54.0 -40.5 N 47.11 CA 45.7 C 45.9 O 46.22 CB 50.81 CG 55.15 CD 63.06 CE 68.84 NZ 69.62
A LEU H 41 -49.6 -36.5 N 49.33 CA 46.93 C 40.26 O 54.64 CB 41.12 CG 47.29 CD1 47.02 CD2 42.3
A ILE T 1 -112.9 21.1 N 40.38 CA 39.3 C 44.75 O 44.03 CB 39.06 CG1 43.36 CG2 51.41 CD1 46.46
A SER S 13 -82.1 151.0 N 41.83 CA 46.16 C 40.17 O 40.61 CB 46.19 OG 53.21
A PRO T 11 -49.0 132.9 N 45.94 CA 45.05 C 45.95 O 45.72 CB 40.08 CG 38.06 CD 38.31
A GLY T 59 116.2 -28.8 N 39.76 CA 39.7 C 44.11 O 51.02
A THR S 43 -79.5 149.1 N 43.58 CA 46.25 C 45.9 O 41.74 CB 45.39 OG1 39.76 CG2 40.41
A GLU H 101 -60.0 -34.6 N 47.59 CA 48.39 C 44.79 O 42.66 CB 47.21 CG 41.45 CD 62.33 OE1 69.66 OE2 56.91
A LEU H 4 -65.0 -45.5 N 40.07 CA 39.75 C 48.95 O 40.73 CB 40.01 CG 49.79 CD1 39.68 CD2 40.08
A ARG H 1 -62.2 -38.9 N 39.1 CA 43.83 C 38.63 O 38.09 CB 45.38 CG 44.2 CD 37.91 NE 65.81 CZ 58.13 NH1 53.14 NH2 68.0
A LYS H 107 -58.7 -48.2 N 38.73 CA 38.66 C 47.44 O 47.72 CB 45.86 CG 48.69 CD 51.08 CE 54.91 NZ 58.8
A ALA H 0 -55.8 -46.0 N 47.39 CA 39.66 C 38.14 O 40.51 CB 38.93
A LEU H 0 -68.6 -30.9 N 38.08 CA 37.76 C 42.82 O 41.41 CB 37.86 CG 38.19 CD1 38.4 CD2 38.06
A ASP H 53 -67.7 -44.0 N 38.43 CA 39.0 C 37.24 O 37.03 CB 37.43 CG 46.09 OD1 41.51 OD2 54.42
A ASP H 61 -59.3 -45.4 N 37.48 CA 54.44 C 43.58 O 48.39 CB 66.47 CG 75.55 OD1 80.76 OD2 79.02
A ILE H 0 -61.3 -46.7 N 46.07 CA 42.91 C 45.3 O 46.59 CB 44.68 CG1 37.62 CG2 37.14 CD1 37.9
A ILE H 14 -59.4 -43.8 N 41.96 CA 39.52 C 36.53 O 47.43 CB 45.42 CG1 47.59 CG2 36.47 CD1 51.6
A ASN H 135 -61.2 -31.0 N 36.66 CA 36.67 C 46.72 O 40.25 CB 41.57 CG 68.96 OD1 83.5 ND2 70.03
A ALA T 32 -92.9 -0.5 N 43.41 CA 46.65 C 43.5 O 48.64 CB 36.91
A ASN T 98 56.4 24.9 N 48.01 CA 51.47 C 51.48 O 52.07 CB 55.78 CG 71.91 OD1 78.02 ND2 71.37
A PHE - 48 -72.2 158.6 N 36.7 CA 47.12 C 50.38 O 58.69 CB 42.98 CG 36.94 CD1 42.69 CD2 37.18 CE1 44.39 CE2 42.96 CZ 37.19
A GLY - 8 -97.2 -178.5 N 50.57 CA 46.26 C 42.03 O 47.87
A ALA E 5 -154.9 145.8 N 37.38 CA 37.73 C 40.97 O 42.53 CB 44.16
A LEU E 17 -142.9 108.2 N 38.37 CA 44.53 C 47.3 O 43.37 CB 38.82 CG 39.29 CD1 39.46 CD2 39.33
A ILE E 1 -126.5 135.1 N 42.16 CA 39.85 C 40.78 O 40.38 CB 39.68 CG1 46.17 CG2 40.17 CD1 39.02
A PHE E 0 -122.4 119.3 N 42.88 CA 41.83 C 42.06 O 42.23 CB 41.83 CG 44.95 CD1 42.83 CD2 43.03 CE1 46.96 CE2 49.17 CZ 44.07
A LEU E 3 -100.9 114.6 N 48.36 CA 43.38 C 48.0 O 51.21 CB 43.52 CG 48.98 CD1 51.69 CD2 43.72
A VAL E 0 -132.1 165.7 N 47.77 CA 58.41 C 72.97 O 83.45 CB 52.15 CG1 52.04 CG2 48.72
A ASP S 83 -110.7 -30.3 N 72.23 CA 74.34 C 73.61 O 84.4 CB 87.58 CG 106.44 OD1 109.27 OD2 114.41
A ASP - 77 -128.1 95.7 N 62.9 CA 61.61 C 60.03 O 61.85 CB 71.93 CG 84.51 OD1 90.11 OD2 93.27
A PRO G 10 -53.3 -38.2 N 54.45 CA 62.01 C 61.97 O 55.92 CB 61.35 CG 58.29 CD 52.81
A LYS G 169 -56.9 -41.0 N 67.06 CA 71.08 C 71.05 O 71.39 CB 74.37 CG 82.18 CD 81.24 CE 78.86 NZ 81.88
A LYS G 139 -62.5 -25.2 N 69.45 CA 66.36 C 67.5 O 72.09 CB 69.94 CG 70.96 CD 63.89 CE 63.76 NZ 65.4
A TYR G 30 -113.3 24.6 N 70.15 CA 68.19 C 68.15 O 66.93 CB 59.75 CG 55.62 CD1 55.64 CD2 65.23 CE1 55.47 CE2 68.99 CZ 64.62 OH 69.17
A GLU T 135 -70.8 -13.7 N 64.35 CA 67.58 C 63.05 O 62.6 CB 73.34 CG 85.23 CD 98.63 OE1 100.73 OE2 104.39
A ASP T 104 -81.3 -19.9 N 59.18 CA 47.14 C 53.02 O 57.77 CB 63.45 CG 84.99 OD1 92.85 OD2 89.63
A VAL T 3 -100.2 -2.9 N 47.0 CA 49.31 C 51.16 O 54.01 CB 48.5 CG1 50.66 CG2 44.92
A ILE E 13 -111.3 116.2 N 51.2 CA 49.78 C 52.15 O 52.37 CB 44.08 CG1 43.98 CG2 43.61 CD1 44.33
A GLN E 41 -124.8 143.6 N 49.43 CA 43.25 C 47.84 O 44.87 CB 43.17 CG 43.87 CD 45.7 OE1 52.26 NE2 44.48
A GLY S 54 65.7 -154.5 N 48.11 CA 42.41 C 46.84 O 43.53
A GLY S 34 76.7 -162.2 N 43.55 CA 44.95 C 46.15 O 47.51
A PHE E 109 -121.6 130.7 N 44.03 CA 42.49 C 51.48 O 44.53 CB 42.14 CG 41.63 CD1 41.86 CD2 40.98 CE1 41.42 CE2 40.56 CZ 40.77
A TRP E 136 -77.6 118.7 N 44.0 CA 44.36 C 44.4 O 44.61 CB 45.24 CG 48.11 CD1 46.65 CD2 46.17 NE1 63.08 CE2 46.97 CE3 46.22 CZ2 53.27 CZ3 50.71 CH2 50.58
A LEU E 60 -106.8 -50.5 N 56.3 CA 44.24 C 48.61 O 47.48 CB 43.48 CG 49.05 CD1 42.12 CD2 42.81
A ASP E 72 47.7 50.8 N 45.9 CA 49.77 C 50.49 O 58.29 CB 54.46 CG 64.62 OD1 64.41 OD2 73.13
A THR E 48 -125.3 162.9 N 45.25 CA 45.33 C 50.39 O 52.28 CB 44.86 OG1 58.84 CG2 43.92
A ASP E 105 -60.9 140.1 N 48.55 CA 48.27 C 48.66 O 53.08 CB 48.92 CG 65.44 OD1 66.2 OD2 77.78
A PHE - 32 -67.2 143.2 N 46.08 CA 46.26 C 44.09 O 45.76 CB 42.86 CG 43.27 CD1 48.1 CD2 44.28 CE1 46.17 CE2 44.49 CZ 45.86
A SER - 42 -150.6 161.7 N 42.23 CA 41.96 C 54.18 O 49.83 CB 42.29 OG 48.68
A ALA H 2 -63.9 -38.8 N 40.9 CA 43.44 C 45.73 O 40.45 CB 40.06
A GLU H 107 -68.8 -40.6 N 40.4 CA 47.27 C 41.48 O 40.38 CB 47.47 CG 59.52 CD 76.37 OE1 86.95 OE2 73.79
A LYS H 80 -61.9 -43.1 N 40.72 CA 47.21 C 51.63 O 46.38 CB 41.42 CG 42.02 CD 42.68 CE 43.4 NZ 53.52
A LEU H 0 -63.6 -42.5 N 40.12 CA 39.71 C 39.18 O 39.47 CB 40.28 CG 43.56 CD1 40.37 CD2 39.33
A TYR H 51 -56.0 -45.8 N 39.06 CA 38.65 C 48.78 O 38.29 CB 38.69 CG 43.13 CD1 40.18 CD2 38.56 CE1 43.21 CE2 38.34 CZ 49.46 OH 50.42
A GLU H 97 -66.3 -50.6 N 39.05 CA 39.1 C 38.98 O 38.69 CB 39.65 CG 51.59 CD 54.82 OE1 46.12 OE2 54.24
A LEU H 29 -56.5 -31.0 N 39.25 CA 39.25 C 46.21 O 40.71 CB 41.06 CG 40.25 CD1 40.69 CD2 40.41
A SER T 10 -76.4 -13.1 N 38.5 CA 38.14 C 37.82 O 37.57 CB 42.11 OG 42.07
A LYS T 97 -62.2 -25.2 N 37.89 CA 42.29 C 37.69 O 37.58 CB 40.5 CG 37.85 CD 38.15 CE 38.16 NZ 39.26
A MET S 73 -82.0 161.0 N 37.99 CA 45.79 C 52.22 O 37.86 CB 38.55 CG 38.76 SD 39.37 CE 42.19
A ASN S 99 -68.9 161.0 N 49.84 CA 50.09 C 44.29 O 44.44 CB 45.86 CG 58.52 OD1 70.85 ND2 69.03
A GLY S 39 83.5 -151.8 N 41.92 CA 39.41 C 45.18 O 44.64
A ALA E 1 -119.9 165.6 N 50.56 CA 41.56 C 45.06 O 43.67 CB 39.93
A ILE E 7 -123.4 142.5 N 40.01 CA 40.36 C 44.96 O 42.11 CB 40.02 CG1 42.24 CG2 40.45 CD1 39.27
A VAL E 0 -124.0 119.0 N 41.45 CA 42.04 C 46.14 O 42.61 CB 45.57 CG1 43.55 CG2 42.4
A LEU E 0 -114.4 159.3 N 42.35 CA 44.52 C 45.29 O 46.36 CB 42.13 CG 44.43 CD1 41.02 CD2 41.4
A SER E 1 -67.9 155.3 N 43.87 CA 49.82 C 44.17 O 43.52 CB 45.2 OG 53.81
A GLU T 41 -61.3 -33.9 N 48.11 CA 48.99 C 44.27 O 43.74 CB 45.1 CG 50.74 CD 55.91 OE1 67.53 OE2 59.22
A ASP T 97 -82.0 3.7 N 44.77 CA 53.54 C 58.47 O 63.88 CB 52.9 CG 70.1 OD1 72.42 OD2 76.9
A ILE S 24 56.4 38.5 N 59.63 CA 55.51 C 48.23 O 43.11 CB 50.9 CG1 51.08 CG2 53.01 CD1 68.34
A THR - 68 -109.3 -15.0 N 44.13 CA 47.77 C 50.0 O 52.64 CB 51.33 OG1 45.98 CG2 47.64
A LYS E 49 -130.9 143.9 N 45.65 CA 44.6 C 43.84 O 50.32 CB 45.39 CG 58.44 CD 58.73 CE 61.91 NZ 69.94
A ILE E 0 -100.2 120.9 N 43.63 CA 43.07 C 46.07 O 48.06 CB 43.36 CG1 42.1 CG2 42.01 CD1 41.78
A TYR E 33 -94.3 -47.8 N 45.68 CA 48.11 C 43.68 O 44.05 CB 45.96 CG 52.79 CD1 50.86 CD2 47.73 CE1 47.23 CE2 51.15 CZ 54.71 OH 56.9
A TYR E 42 -137.4 152.3 N 42.99 CA 42.59 C 45.5 O 41.51 CB 42.68 CG 43.47 CD1 46.76 CD2 51.78 CE1 49.36 CE2 53.82 CZ 59.2 OH 75.35
A ALA E 0 -133.6 163.3 N 41.49 CA 40.79 C 40.59 O 40.98 CB 40.61
A ASN E 48 56.6 33.8 N 40.16 CA 39.8 C 42.42 O 41.03 CB 39.8 CG 47.74 OD1 48.44 ND2 39.08
A VAL E 3 -94.4 163.8 N 42.51 CA 40.86 C 40.6 O 40.13 CB 41.46 CG1 44.99 CG2 46.15
A HIS E 37 -103.0 120.7 N 43.06 CA 47.13 C 49.72 O 52.33 CB 41.01 CG 43.82 ND1 43.97 CD2 43.47 CE1 41.15 NE2 50.23
A LEU E 8 -94.1 129.7 N 41.2 CA 41.71 C 41.99 O 44.66 CB 41.42 CG 41.24 CD1 40.97 CD2 41.89
A VAL - 15 -126.0 68.2 N 42.71 CA 43.08 C 49.78 O 55.45 CB 45.69 CG1 42.82 CG2 44.01
A PRO - 11 -68.1 164.5 N 46.01 CA 44.11 C 44.69 O 44.21 CB 44.5 CG 44.25 CD 43.94
A ASP - 66 -58.2 116.3 N 45.3 CA 52.94 C 54.54 O 52.3 CB 52.26 CG 53.81 OD1 54.83 OD2 59.91
A PRO T 23 -64.1 -14.8 N 58.15 CA 50.78 C 55.01 O 55.64 CB 56.31 CG 58.6 CD 54.31
A THR T 107 -86.2 -5.3 N 46.24 CA 52.71 C 56.43 O 64.61 CB 52.82 OG1 62.11 CG2 49.11
A ILE S 24 -74.5 127.0 N 53.52 CA 48.67 C 53.9 O 51.39 CB 53.32 CG1 50.52 CG2 45.49 CD1 48.25
A PRO - 93 -58.9 142.2 N 56.21 CA 46.87 C 56.23 O 55.64 CB 61.63 CG 66.12 CD 62.65
A THR - 25 -152.5 146.0 N 59.98 CA 51.74 C 50.03 O 50.82 CB 48.02 OG1 47.4 CG2 53.18
A GLY - 70 -112.8 12.3 N 48.71 CA 49.3 C 52.76 O 62.59
A GLU - 29 -82.0 170.4 N 48.23 CA 44.04 C 46.33 O 45.72 CB 47.63 CG 50.72 CD 51.23 OE1 46.91 OE2 62.46
A THR - 117 -123.5 143.9 N 43.28 CA 44.42 C 40.06 O 38.92 CB 52.05 OG1 56.12 CG2 49.78
A GLY H 26 79.9 152.7 N 46.71 CA 49.3 C 47.91 O 45.54
A THR H 62 -63.9 -39.1 N 38.98 CA 39.27 C 39.2 O 39.59 CB 39.16 OG1 38.66 CG2 39.36
A ARG H 64 -58.3 -47.8 N 38.75 CA 38.68 C 43.44 O 41.3 CB 39.4 CG 38.16 CD 45.29 NE 45.6 CZ 41.65 NH1 43.14 NH2 37.61
A HIS H 27 -83.5 -27.0 N 45.18 CA 42.72 C 45.42 O 43.47 CB 45.12 CG 42.78 ND1 46.73 CD2 38.11 CE1 43.14 NE2 41.29
A ARG H 32 -69.2 -37.9 N 39.98 CA 40.62 C 41.67 O 41.49 CB 41.7 CG 43.27 CD 45.48 NE 48.24 CZ 51.91 NH1 52.77 NH2 41.83
A THR H 25 -64.1 -46.8 N 42.39 CA 40.88 C 45.33 O 41.54 CB 47.64 OG1 45.43 CG2 40.83
A ALA H 0 -57.1 -50.3 N 40.79 CA 40.57 C 41.11 O 41.55 CB 39.99
A GLU H 26 -70.3 -39.3 N 41.15 CA 46.49 C 48.61 O 48.89 CB 41.87 CG 43.31 CD 60.39 OE1 73.88 OE2 63.86
A ARG H 12 -61.7 -47.7 N 50.7 CA 46.48 C 43.46 O 44.15 CB 43.18 CG 43.15 CD 43.28 NE 49.1 CZ 53.82 NH1 53.61 NH2 60.74
A LEU H 0 -62.8 -38.7 N 47.1 CA 49.95 C 51.42 O 53.18 CB 49.39 CG 50.61 CD1 43.68 CD2 54.27
A ALA H 1 -68.3 -42.5 N 43.11 CA 49.93 C 46.58 O 47.13 CB 42.75
A LYS H 72 -60.8 -45.0 N 47.12 CA 47.16 C 52.74 O 54.57 CB 48.77 CG 44.65 CD 49.16 CE 55.96 NZ 58.33
A GLN H 78 -65.9 -37.6 N 48.5 CA 49.29 C 51.34 O 50.3 CB 50.17 CG 47.97 CD 51.68 OE1 48.34 NE2 57.1
A THR H 24 -108.6 -17.9 N 51.59 CA 50.36 C 46.61 O 52.35 CB 53.27 OG1 49.78 CG2 45.99
A GLY S 25 76.3 19.8 N 46.17 CA 50.97 C 61.99 O 66.38
A LYS - 40 -110.3 169.0 N 59.19 CA 44.46 C 45.07 O 43.35 CB 48.1 CG 51.87 CD 59.3 CE 64.42 NZ 62.57
A VAL E 4 -80.0 134.6 N 45.75 CA 45.81 C 46.87 O 43.59 CB 42.12 CG1 41.35 CG2 43.06
A VAL E 0 -128.5 132.9 N 41.42 CA 40.92 C 43.99 O 49.33 CB 41.03 CG1 46.63 CG2 42.06
A ILE E 2 -109.6 125.0 N 41.42 CA 43.27 C 47.14 O 45.52 CB 43.03 CG1 39.63 CG2 38.71 CD1 69.49
A ALA E 0 -116.9 134.2 N 46.24 CA 42.96 C 51.97 O 46.4 CB 38.47
A VAL E 0 -122.1 124.5 N 37.66 CA 42.94 C 47.72 O 41.57 CB 44.05 CG1 36.9 CG2 37.4
A SER - 22 -91.1 163.4 N 47.99 CA 49.35 C 52.68 O 50.24 CB 54.84 OG 72.63
A ARG S 136 -70.9 -33.1 N 60.39 CA 58.28 C 67.42 O 70.94 CB 56.97 CG 56.93 CD 58.17 NE 60.84 CZ 59.81 NH1 66.07 NH2 56.22
A ARG S 237 -100.4 -18.5 N 74.56 CA 80.49 C 80.62 O 83.64 CB 83.25 CG 76.27 CD 64.03 NE 56.6 CZ 51.62 NH1 50.11 NH2 50.34
A ARG - 165 -96.9 165.9 N 70.42 CA 58.9 C 57.03 O 58.81 CB 50.63 CG 60.31 CD 70.53 NE 74.97 CZ 77.29 NH1 73.74 NH2 85.94
A ASN - 86 -116.1 21.8 N 59.97 CA 61.05 C 54.1 O 61.22 CB 69.47 CG 79.3 OD1 90.39 ND2 71.08
A ILE - 49 -99.6 151.9 N 54.05 CA 51.97 C 54.6 O 57.24 CB 52.7 CG1 42.51 CG2 58.0 CD1 39.46
A ILE E 0 -103.4 118.5 N 49.93 CA 48.14 C 52.34 O 57.0 CB 45.66 CG1 42.64 CG2 47.19 CD1 42.95
A SER E 2 -97.3 117.9 N 47.76 CA 42.03 C 44.45 O 48.47 CB 38.48 OG 46.34
A LEU E 1 -103.6 134.4 N 42.17 CA 39.59 C 47.37 O 58.62 CB 44.29 CG 46.37 CD1 52.67 CD2 45.5
A TYR E 1 -122.7 133.7 N 42.69 CA 41.05 C 44.15 O 51.04 CB 41.08 CG 48.22 CD1 40.02 CD2 40.72 CE1 39.63 CE2 40.34 CZ 47.35 OH 42.14
A TYR - 25 -118.8 -74.3 N 51.07 CA 56.71 C 70.96 O 88.94 CB 59.29 CG 58.74 CD1 58.55 CD2 54.07 CE1 58.17 CE2 57.78 CZ 58.31 OH 68.44
A LYS S 74 -116.1 -82.5 N 66.35 CA 66.28 C 67.04 O 61.28 CB 55.25 CG 54.15 CD 62.32 CE 71.18 NZ 76.57
A ASN S 130 -109.1 17.5 N 54.24 CA 53.87 C 51.73 O 55.14 CB 65.83 CG 82.74 OD1 95.06 ND2 83.57
A TYR - 73 -99.9 145.2 N 50.19 CA 44.48 C 51.72 O 49.34 CB 53.23 CG 66.39 CD1 71.27 CD2 74.96 CE1 76.0 CE2 82.62 CZ 81.21 OH 75.18
A LYS E 87 -128.2 127.7 N 47.95 CA 45.54 C 52.31 O 51.94 CB 41.08 CG 48.9 CD 52.29 CE 53.39 NZ 52.57
A TYR E 40 -129.2 118.1 N 51.41 CA 44.96 C 46.13 O 44.61 CB 49.76 CG 57.15 CD1 52.35 CD2 64.81 CE1 66.95 CE2 65.23 CZ 69.18 OH 66.32
A VAL E 47 -81.0 120.7 N 44.27 CA 48.23 C 54.69 O 60.99 CB 45.69 CG1 46.17 CG2 47.2
A VAL E 3 -99.1 127.2 N 51.88 CA 55.13 C 55.53 O 58.01 CB 54.63 CG1 48.93 CG2 53.24
A ASN - 37 -89.6 159.2 N 49.73 CA 41.7 C 37.09 O 50.7 CB 49.95 CG 57.04 OD1 59.21 ND2 52.48
A GLN - 40 -65.3 152.0 N 37.48 CA 38.46 C 43.8 O 44.12 CB 48.38 CG 56.14 CD 68.66 OE1 61.6 NE2 74.28
A VAL H 36 -61.8 -36.4 N 39.41 CA 47.33 C 48.95 O 42.63 CB 49.51 CG1 37.32 CG2 50.64
A ASP H 112 -68.8 -35.2 N 44.39 CA 50.67 C 49.14 O 49.24 CB 67.63 CG 86.79 OD1 97.46 OD2 90.99
A PHE H 88 -64.4 -40.7 N 37.82 CA 41.92 C 46.26 O 48.54 CB 36.88 CG 40.28 CD1 50.75 CD2 44.28 CE1 53.5 CE2 51.91 CZ 49.75
A LEU H 0 -73.7 -43.2 N 37.05 CA 45.09 C 46.38 O 43.92 CB 37.31 CG 44.92 CD1 43.12 CD2 37.55
A ILE H 62 -56.9 -39.5 N 40.47 CA 45.78 C 47.04 O 41.28 CB 45.35 CG1 52.5 CG2 52.37 CD1 56.88
A SER H 60 -61.6 -51.9 N 42.26 CA 45.06 C 49.17 O 40.72 CB 46.21 OG 54.66
A LYS H 84 -62.8 -42.6 N 37.4 CA 37.92 C 45.94 O 43.86 CB 37.63 CG 66.43 CD 64.76 CE 68.56 NZ 72.49
A VAL H 2 -67.3 -40.2 N 37.61 CA 47.75 C 44.48 O 37.91 CB 44.04 CG1 38.42 CG2 40.13
A THR H 74 -63.1 -40.4 N 37.67 CA 37.75 C 47.42 O 46.14 CB 37.7 OG1 49.83 CG2 37.86
A GLN H 114 -64.2 -41.6 N 37.85 CA 38.02 C 38.16 O 38.34 CB 38.03 CG 46.05 CD 56.27 OE1 61.49 NE2 37.88
A ALA H 13 -63.9 -42.6 N 38.12 CA 43.92 C 39.53 O 38.58 CB 38.31
A ILE H 7 -61.4 -47.3 N 38.26 CA 39.42 C 40.25 O 43.43 CB 38.25 CG1 38.26 CG2 39.12 CD1 38.19
A SER H 48 -57.3 -36.7 N 38.39 CA 39.79 C 45.25 O 38.92 CB 46.7 OG 63.17
A THR H 63 -70.1 -43.0 N 38.72 CA 41.79 C 39.08 O 43.34 CB 44.62 OG1 45.27 CG2 39.3
A LEU H 1 -59.4 -38.6 N 41.27 CA 39.1 C 41.6 O 39.39 CB 39.01 CG 48.59 CD1 50.35 CD2 55.41
A GLU H 82 -57.2 -41.2 N 39.05 CA 39.17 C 42.69 O 40.89 CB 39.08 CG 61.38 CD 73.63 OE1 81.02 OE2 82.67
A LYS H 125 -72.3 -36.5 N 39.42 CA 40.14 C 41.83 O 40.15 CB 39.74 CG 43.42 CD 42.12 CE 47.76 NZ 39.33
A TYR H 70 -67.2 -42.3 N 39.82 CA 40.43 C 40.12 O 40.39 CB 40.04 CG 43.6 CD1 41.5 CD2 46.63 CE1 48.51 CE2 44.1 CZ 49.17 OH 54.65
A LYS H 36 -64.7 -42.4 N 39.91 CA 41.77 C 50.31 O 44.41 CB 39.79 CG 39.95 CD 40.18 CE 40.38 NZ 42.24
A ASP H 99 -60.8 -46.0 N 47.16 CA 43.55 C 40.55 O 44.77 CB 50.07 CG 63.39 OD1 75.09 OD2 68.04
A ASN H 73 -62.2 -35.9 N 42.6 CA 46.14 C 41.09 O 41.39 CB 44.64 CG 50.02 OD1 47.87 ND2 46.74
A PHE H 1 -63.6 -41.4 N 40.91 CA 41.3 C 43.25 O 41.46 CB 40.92 CG 41.19 CD1 41.52 CD2 41.15 CE1 41.83 CE2 41.46 CZ 41.79
A ASN H 76 -66.7 -38.4 N 40.96 CA 45.4 C 41.31 O 41.53 CB 40.84 CG 48.19 OD1 44.79 ND2 40.49
A LYS H 104 -64.5 -44.0 N 41.33 CA 41.63 C 47.96 O 47.17 CB 41.64 CG 42.86 CD 56.22 CE 71.51 NZ 75.47
A LEU H 17 -61.3 -43.8 N 41.94 CA 42.3 C 42.42 O 42.76 CB 42.3 CG 42.35 CD1 42.3 CD2 42.83
A LEU H 17 -67.3 -44.1 N 42.16 CA 42.29 C 49.83 O 42.7 CB 47.08 CG 55.17 CD1 59.71 CD2 57.51
A SER H 65 -65.5 -38.5 N 42.21 CA 42.34 C 42.76 O 52.4 CB 42.13 OG 67.13
A GLU H 85 -62.1 -47.4 N 42.77 CA 43.17 C 54.4 O 43.76 CB 43.26 CG 49.92 CD 48.3 OE1 50.94 OE2 55.75
A LEU H 2 -52.9 -44.8 N 43.36 CA 43.67 C 46.59 O 45.28 CB 43.53 CG 43.92 CD1 44.42 CD2 43.82
A GLU H 44 -51.9 -51.1 N 43.47 CA 46.59 C 46.9 O 44.18 CB 43.22 CG 66.0 CD 70.19 OE1 75.72 OE2 69.24
A VAL H 46 -57.6 -51.9 N 43.78 CA 45.21 C 47.01 O 48.44 CB 45.71 CG1 44.37 CG2 43.68
A LEU H 24 -58.2 -39.2 N 44.55 CA 48.94 C 49.4 O 52.68 CB 45.04 CG 44.97 CD1 46.37 CD2 45.35
A GLU H 13 -63.2 -46.7 N 44.96 CA 45.2 C 52.07 O 45.94 CB 52.49 CG 45.2 CD 52.4 OE1 56.73 OE2 44.87
A LEU H 6 -69.8 -30.5 N 45.1 CA 48.28 C 46.92 O 53.2 CB 45.33 CG 44.59 CD1 44.27 CD2 44.83
A GLU T 76 -89.8 4.3 N 45.65 CA 53.36 C 53.81 O 46.92 CB 45.95 CG 45.59 CD 55.31 OE1 58.1 OE2 57.77
A ASN T 63 54.8 35.1 N 46.48 CA 46.95 C 53.2 O 57.4 CB 51.57 CG 53.68 OD1 56.27 ND2 48.58
A ARG - 142 -111.3 26.4 N 50.28 CA 51.16 C 49.43 O 49.2 CB 49.21 CG 54.5 CD 57.63 NE 67.55 CZ 60.96 NH1 56.23 NH2 62.57
A VAL - 3 -74.3 138.2 N 49.28 CA 51.56 C 53.77 O 48.75 CB 49.96 CG1 46.01 CG2 49.79
A THR B 22 -111.9 161.7 N 50.13 CA 47.43 C 52.96 O 52.27 CB 49.31 OG1 52.1 CG2 47.78
A LEU H 0 -57.6 -38.2 N 47.94 CA 49.6 C 50.67 O 59.71 CB 48.32 CG 52.1 CD1 48.22 CD2 52.55
A ALA H 5 -53.8 -44.1 N 48.35 CA 46.65 C 45.9 O 45.46 CB 46.9
A ASP H 32 -62.4 -43.4 N 45.79 CA 47.11 C 47.19 O 44.38 CB 45.23 CG 53.55 OD1 59.83 OD2 53.79
A VAL H 0 -64.8 -54.2 N 45.28 CA 51.47 C 44.97 O 49.16 CB 45.72 CG1 45.6 CG2 47.0
A VAL H 2 -59.0 -43.0 N 48.49 CA 45.35 C 44.75 O 47.69 CB 46.69 CG1 56.08 CG2 47.22
A ARG H 108 -58.2 -41.0 N 44.64 CA 44.14 C 49.07 O 43.18 CB 45.79 CG 48.82 CD 52.98 NE 54.63 CZ 57.7 NH1 52.72 NH2 66.06
A THR H 2 -72.2 -44.5 N 54.1 CA 43.13 C 43.07 O 42.66 CB 47.57 OG1 43.31 CG2 42.81
A LEU H 0 -59.8 -47.5 N 50.4 CA 51.08 C 43.34 O 43.03 CB 44.23 CG 45.08 CD1 45.25 CD2 44.29
A ALA H 13 -52.7 -49.1 N 43.53 CA 43.38 C 44.52 O 45.17 CB 43.69
A LYS H 49 -63.3 -40.1 N 42.49 CA 41.97 C 41.7 O 41.35 CB 41.86 CG 49.17 CD 49.11 CE 45.68 NZ 49.04
A GLY H 0 -61.8 -46.5 N 41.91 CA 41.8 C 45.6 O 45.08
A PHE H 1 -60.5 -50.2 N 42.28 CA 43.41 C 45.03 O 41.84 CB 43.02 CG 43.51 CD1 43.46 CD2 44.06 CE1 44.23 CE2 44.55 CZ 47.3
A GLU H 66 -55.7 -46.3 N 45.74 CA 42.63 C 47.35 O 52.82 CB 44.15 CG 45.38 CD 61.03 OE1 70.28 OE2 70.75
A LEU H 1 -53.5 -46.4 N 51.94 CA 45.17 C 46.13 O 48.1 CB 46.37 CG 47.61 CD1 45.72 CD2 46.74
A LEU H 16 -78.4 -22.1 N 47.8 CA 47.48 C 46.24 O 53.04 CB 41.35 CG 50.85 CD1 46.84 CD2 40.97
A ARG H 38 -61.5 -46.1 N 47.25 CA 46.27 C 45.53 O 49.42 CB 47.19 CG 62.24 CD 69.52 NE 78.13 CZ 79.22 NH1 73.01 NH2 81.01
A ILE H 29 -59.0 -39.8 N 43.29 CA 44.97 C 47.94 O 45.23 CB 45.17 CG1 42.93 CG2 42.18 CD1 46.4
A VAL H 15 -60.3 -47.0 N 48.93 CA 39.79 C 49.06 O 50.27 CB 50.1 CG1 40.08 CG2 46.07
A GLU H 60 -61.7 -34.8 N 47.85 CA 53.95 C 53.64 O 60.19 CB 57.86 CG 53.19 CD 60.25 OE1 70.36 OE2 60.28
A GLU H 131 -76.7 -26.4 N 44.33 CA 45.97 C 46.73 O 53.09 CB 49.42 CG 60.19 CD 84.61 OE1 90.99 OE2 94.81
A ILE H 13 -91.8 -13.0 N 45.76 CA 46.25 C 46.0 O 38.8 CB 44.8 CG1 45.75 CG2 39.7 CD1 45.68
A ARG H 114 -51.3 -45.8 N 39.39 CA 42.85 C 49.74 O 52.18 CB 41.68 CG 55.66 CD 65.94 NE 64.74 CZ 73.54 NH1 68.46 NH2 82.3
A PRO H 63 -58.9 -38.8 N 51.32 CA 49.41 C 49.25 O 50.7 CB 46.62 CG 55.47 CD 45.9
A TYR H 72 -59.1 -46.0 N 44.01 CA 43.98 C 49.65 O 47.24 CB 54.44 CG 52.34 CD1 44.93 CD2 46.26 CE1 55.21 CE2 42.78 CZ 57.97 OH 66.6
A ILE H 4 -58.2 -43.2 N 49.74 CA 38.62 C 42.65 O 43.71 CB 51.3 CG1 51.35 CG2 44.02 CD1 49.3
A VAL H 52 -64.4 -50.3 N 44.38 CA 42.89 C 49.12 O 42.66 CB 49.1 CG1 52.8 CG2 53.22
A GLU H 13 -49.6 -26.6 N 38.81 CA 39.15 C 47.75 O 45.03 CB 48.6 CG 53.82 CD 57.41 OE1 55.51 OE2 53.48
A LEU H 0 -77.5 -18.3 N 45.61 CA 46.95 C 38.42 O 42.26 CB 44.32 CG 44.68 CD1 37.82 CD2 37.6
A GLY G 24 51.5 -129.9 N 38.76 CA 39.11 C 50.38 O 57.68
A GLU G 129 -59.7 -24.9 N 42.47 CA 42.76 C 40.44 O 49.3 CB 50.82 CG 65.24 CD 81.58 OE1 88.82 OE2 81.94
A GLU G 112 -81.6 0.6 N 40.14 CA 42.46 C 44.19 O 41.56 CB 42.49 CG 51.5 CD 60.69 OE1 59.52 OE2 65.5
A GLY G 0 -100.0 7.2 N 40.89 CA 44.75 C 45.49 O 41.63
A ARG H 158 -62.8 -52.8 N 45.73 CA 39.38 C 39.35 O 42.04 CB 40.03 CG 55.82 CD 67.95 NE 74.45 CZ 80.72 NH1 88.21 NH2 73.13
A LEU H 111 -61.2 -38.6 N 39.08 CA 39.03 C 42.87 O 40.26 CB 38.89 CG 39.17 CD1 39.08 CD2 39.53
A ALA H 6 -60.3 -39.3 N 38.62 CA 42.05 C 44.46 O 42.25 CB 38.32
A ARG H 131 -68.6 -38.2 N 41.98 CA 43.18 C 39.5 O 39.66 CB 39.62 CG 54.67 CD 61.47 NE 63.15 CZ 68.37 NH1 71.19 NH2 70.71
A MET H 77 -62.2 -44.5 N 39.52 CA 42.36 C 42.88 O 40.81 CB 39.81 CG 40.13 SD 43.09 CE 41.28
A GLN H 90 -60.8 -41.4 N 42.73 CA 39.09 C 41.3 O 40.18 CB 38.81 CG 38.82 CD 51.34 OE1 57.69 NE2 47.46
A LEU H 19 -63.8 -43.3 N 40.46 CA 45.86 C 43.24 O 42.74 CB 40.51 CG 52.45 CD1 64.78 CD2 46.15
A ARG H 143 -61.5 -46.4 N 43.33 CA 40.17 C 45.0 O 40.39 CB 40.4 CG 55.67 CD 58.99 NE 62.62 CZ 66.69 NH1 69.23 NH2 73.36
A GLU H 103 -64.0 -39.9 N 40.0 CA 40.05 C 47.38 O 46.02 CB 43.57 CG 40.15 CD 49.61 OE1 47.57 OE2 40.73
A LEU H 34 -73.7 -25.3 N 46.22 CA 39.66 C 39.9 O 39.98 CB 39.39 CG 46.01 CD1 46.88 CD2 39.31
A THR H 25 -115.6 4.3 N 40.05 CA 40.33 C 50.45 O 51.12 CB 49.47 OG1 54.81 CG2 46.55
A GLU T 102 -34.8 -68.6 N 51.7 CA 68.22 C 74.12 O 87.02 CB 74.14 CG 83.96 CD 89.48 OE1 95.0 OE2 86.63
A ASP T 101 -104.5 14.7 N 56.56 CA 58.83 C 56.48 O 55.91 CB 65.24 CG 77.93 OD1 79.77 OD2 81.84
A VAL H 3 -69.4 -39.0 N 41.6 CA 45.44 C 50.85 O 49.99 CB 41.93 CG1 41.36 CG2 40.91
A ASP H 68 -63.4 -50.0 N 52.08 CA 49.75 C 48.16 O 52.2 CB 60.08 CG 73.56 OD1 78.48 OD2 76.31
A ASP H 64 -54.8 -47.0 N 43.22 CA 51.39 C 54.55 O 51.81 CB 58.6 CG 76.8 OD1 80.76 OD2 84.99
A LEU H 35 -56.0 -44.4 N 43.16 CA 47.83 C 52.84 O 47.91 CB 48.79 CG 56.9 CD1 56.43 CD2 57.85
A LEU H 0 -70.8 -34.4 N 43.25 CA 43.54 C 44.19 O 44.58 CB 44.48 CG 42.76 CD1 42.51 CD2 42.87
A VAL H 8 -65.0 -44.5 N 44.35 CA 45.03 C 50.13 O 52.03 CB 47.37 CG1 54.48 CG2 44.93
A LEU H 2 -63.8 -39.7 N 45.01 CA 52.36 C 45.32 O 51.04 CB 46.61 CG 45.52 CD1 44.6 CD2 45.7
A LEU H 0 -59.0 -45.3 N 44.87 CA 49.41 C 45.57 O 49.9 CB 44.45 CG 45.92 CD1 44.95 CD2 44.15
A ILE H 0 -59.4 -43.6 N 51.62 CA 49.17 C 50.64 O 53.63 CB 46.31 CG1 53.72 CG2 47.06 CD1 45.57
A MET H 0 -65.7 -29.5 N 46.96 CA 47.58 C 49.28 O 52.24 CB 51.61 CG 47.52 SD 56.87 CE 48.33
A ASP H 1 -83.6 -25.0 N 50.87 CA 51.67 C 47.4 O 47.72 CB 46.43 CG 62.6 OD1 57.66 OD2 53.58
A TYR H 2 -126.3 -2.8 N 55.77 CA 53.36 C 53.26 O 51.9 CB 46.86 CG 55.84 CD1 46.77 CD2 56.59 CE1 46.44 CE2 50.07 CZ 46.0 OH 45.58
A SER S 4 -62.4 153.7 N 49.24 CA 58.63 C 60.67 O 53.67 CB 59.29 OG 71.75
A SER S 63 -56.4 -50.1 N 67.58 CA 66.62 C 60.67 O 66.94 CB 76.83 OG 90.04
A GLU S 146 -120.2 158.1 N 62.96 CA 69.41 C 64.91 O 70.63 CB 80.15 CG 88.04 CD 94.79 OE1 92.46 OE2 96.57
A GLU - 100 -51.4 142.8 N 68.97 CA 70.17 C 65.57 O 58.23 CB 76.98 CG 92.51 CD 95.18 OE1 96.22 OE2 91.91
A VAL - 27 -138.6 134.2 N 62.55 CA 62.43 C 64.75 O 71.14 CB 60.88 CG1 72.01 CG2 53.59
A GLU - 123 -73.1 156.4 N 70.16 CA 79.45 C 80.61 O 78.98 CB 85.48 CG 91.25 CD 92.75 OE1 93.37 OE2 93.96
A GLU H 48 -56.1 -49.4 N 77.75 CA 67.56 C 73.3 O 69.49 CB 65.71 CG 68.41 CD 68.33 OE1 73.0 OE2 68.32
A GLU H 97 -65.5 -28.6 N 90.34 CA 86.78 C 73.53 O 71.97 CB 97.37 CG 96.21 CD 86.08 OE1 83.02 OE2 80.4
A THR H 65 -63.1 -54.0 N 65.74 CA 66.32 C 74.46 O 74.9 CB 60.49 OG1 67.71 CG2 57.64
A ALA H 0 -57.1 -36.2 N 73.5 CA 65.78 C 58.37 O 59.11 CB 60.29
A GLN H 61 -59.0 -37.7 N 54.34 CA 54.88 C 57.41 O 58.7 CB 60.49 CG 70.07 CD 80.35 OE1 83.5 NE2 85.42
A ASN H 108 -73.0 -38.3 N 63.08 CA 72.89 C 70.99 O 73.35 CB 77.15 CG 76.94 OD1 85.48 ND2 69.56
A ILE H 28 -60.9 -39.7 N 58.44 CA 57.2 C 59.38 O 61.16 CB 54.86 CG1 52.76 CG2 50.02 CD1 54.29
A LEU H 10 -58.7 -50.9 N 55.89 CA 61.74 C 60.83 O 54.77 CB 44.7 CG 49.58 CD1 51.61 CD2 45.57
A GLN H 94 -55.0 -45.5 N 62.68 CA 59.47 C 52.0 O 58.87 CB 71.24 CG 84.52 CD 95.78 OE1 92.41 NE2 103.68
A ASP H 53 -57.3 -45.7 N 51.42 CA 62.86 C 66.46 O 67.68 CB 71.39 CG 79.77 OD1 82.64 OD2 86.3
A PHE H 1 -82.5 -16.6 N 65.16 CA 59.54 C 58.62 O 59.38 CB 61.9 CG 61.19 CD1 58.94 CD2 64.99 CE1 61.05 CE2 71.82 CZ 66.49
A ILE H 10 -79.1 -34.6 N 58.49 CA 67.42 C 74.05 O 78.94 CB 71.53 CG1 76.58 CG2 80.22 CD1 84.66
A THR H 70 -115.4 -57.4 N 74.88 CA 78.99 C 89.95 O 91.77 CB 67.12 OG1 65.29 CG2 61.23
A ARG T 221 -96.3 -38.3 N 100.03 CA 103.17 C 109.06 O 120.36 CB 98.09 CG 90.87 CD 84.09 NE 80.27 CZ 79.4 NH1 76.8 NH2 80.8
A ARG S 59 -103.7 152.5 N 97.88 CA 83.5 C 82.45 O 82.15 CB 72.9 CG 81.73 CD 79.03 NE 74.06 CZ 65.63 NH1 62.21 NH2 62.81
A GLU - 122 -85.1 130.0 N 80.72 CA 73.76 C 69.27 O 69.51 CB 65.99 CG 73.57 CD 77.48 OE1 79.86 OE2 76.5
A PRO - 4 -79.8 50.4 N 59.56 CA 64.8 C 67.12 O 76.81 CB 68.68 CG 67.45 CD 56.31
A SER - 54 -71.5 149.1 N 61.72 CA 67.63 C 69.82 O 61.83 CB 70.28 OG 77.64
A PRO H 61 -55.6 -42.4 N 69.31 CA 64.87 C 66.99 O 56.46 CB 58.32 CG 59.9 CD 63.58
A ILE H 37 -68.0 -42.5 N 68.95 CA 70.52 C 70.09 O 66.72 CB 69.62 CG1 68.97 CG2 63.73 CD1 64.58
A SER H 28 -60.4 -44.1 N 66.58 CA 65.02 C 62.67 O 60.42 CB 65.74 OG 72.41
A ILE H 1 -64.2 -48.0 N 57.21 CA 53.27 C 61.63 O 58.87 CB 53.02 CG1 53.05 CG2 46.11 CD1 58.51
A SER H 0 -72.3 -26.7 N 54.83 CA 55.37 C 62.49 O 53.43 CB 56.72 OG 67.12
A ARG H 108 -67.3 -48.5 N 69.32 CA 69.21 C 68.07 O 75.94 CB 69.48 CG 70.0 CD 75.33 NE 81.13 CZ 84.6 NH1 90.23 NH2 82.34
A VAL H 56 -71.3 -20.7 N 64.38 CA 66.7 C 68.28 O 73.38 CB 66.27 CG1 56.94 CG2 83.53
A LEU T 6 -73.7 -7.8 N 61.03 CA 60.87 C 62.28 O 65.05 CB 61.8 CG 57.06 CD1 56.48 CD2 47.49
A GLY T 44 105.6 9.0 N 61.67 CA 64.05 C 67.2 O 68.52
A TYR - 40 -95.9 139.0 N 66.0 CA 65.38 C 70.39 O 70.64 CB 66.12 CG 62.2 CD1 54.72 CD2 58.58 CE1 50.57 CE2 54.98 CZ 54.31 OH 49.54
A ASP - 124 -99.2 72.5 N 78.09 CA 80.58 C 75.26 O 78.9 CB 81.75 CG 83.54 OD1 73.71 OD2 91.27
A VAL - 9 -118.1 154.2 N 70.81 CA 72.54 C 80.66 O 80.73 CB 59.79 CG1 68.9 CG2 68.46
A GLN - 114 -137.1 -1.1 N 88.24 CA 98.9 C 101.86 O 112.74 CB 104.22 CG 109.14 CD 113.16 OE1 115.88 NE2 115.54
A GLN S 126 -121.1 127.6 N 89.78 CA 86.19 C 85.92 O 88.1 CB 86.67 CG 80.17 CD 76.57 OE1 79.94 NE2 69.85
A ALA G 57 -54.5 -31.1 N 84.56 CA 82.27 C 79.57 O 81.29 CB 79.45
A ALA G 69 -69.3 -16.3 N 76.35 CA 77.64 C 76.85 O 84.65 CB 78.44
A GLN G 63 -70.7 -31.4 N 73.09 CA 73.86 C 68.52 O 59.47 CB 76.77 CG 74.81 CD 80.54 OE1 81.18 NE2 80.29
A LEU G 7 -56.2 -30.7 N 62.79 CA 51.65 C 53.92 O 53.66 CB 51.63 CG 57.67 CD1 60.59 CD2 58.4
A ASP G 90 -70.1 -18.5 N 54.04 CA 59.38 C 64.11 O 60.84 CB 66.21 CG 72.49 OD1 81.04 OD2 71.57
A ASP G 134 -102.0 -1.6 N 63.84 CA 68.57 C 66.49 O 63.93 CB 80.05 CG 93.63 OD1 96.45 OD2 98.02
A VAL - 39 -97.3 111.3 N 61.39 CA 58.15 C 57.44 O 58.01 CB 53.35 CG1 50.44 CG2 57.48
A LEU B 140 -84.0 130.3 N 53.08 CA 53.93 C 58.14 O 63.62 CB 53.31 CG 55.57 CD1 50.51 CD2 64.68
A VAL - 9 -130.3 153.9 N 57.14 CA 55.05 C 48.28 O 61.34 CB 64.12 CG1 69.96 CG2 64.79
A SER - 50 -132.0 124.3 N 49.74 CA 48.18 C 49.59 O 56.17 CB 48.75 OG 56.36
A ALA - 5 -62.8 137.6 N 47.89 CA 48.41 C 47.64 O 47.83 CB 47.28
A ARG - 37 -60.9 -39.1 N 53.46 CA 48.35 C 57.24 O 52.78 CB 48.58 CG 56.17 CD 49.84 NE 76.54 CZ 74.67 NH1 73.83 NH2 50.62
A GLY S 0 114.0 1.6 N 55.67 CA 47.06 C 54.67 O 53.56
A TYR H 12 -59.7 -42.8 N 50.88 CA 46.89 C 52.7 O 46.13 CB 47.09 CG 54.96 CD1 54.88 CD2 48.25 CE1 56.48 CE2 58.02 CZ 60.89 OH 57.97
A ARG H 29 -60.1 -48.5 N 45.73 CA 48.99 C 48.9 O 50.19 CB 44.72 CG 53.21 CD 49.78 NE 50.27 CZ 65.75 NH1 69.69 NH2 68.69
A LEU H 11 -68.1 -37.9 N 45.21 CA 45.18 C 54.38 O 45.47 CB 54.05 CG 58.86 CD1 57.37 CD2 61.38
A LEU H 3 -64.5 -51.7 N 49.03 CA 47.78 C 46.4 O 54.3 CB 47.18 CG 56.3 CD1 48.65 CD2 47.83
A LYS H 54 -71.2 -46.8 N 49.72 CA 50.71 C 50.11 O 51.84 CB 55.18 CG 54.31 CD 61.98 CE 68.91 NZ 69.08
A THR H 70 -79.7 -42.3 N 53.43 CA 58.08 C 58.62 O 63.43 CB 54.72 OG1 52.08 CG2 62.52
A VAL T 58 -100.2 -42.5 N 52.41 CA 48.43 C 57.06 O 70.39 CB 50.16 CG1 53.23 CG2 44.15
A ALA S 8 -90.1 -4.8 N 54.48 CA 48.29 C 54.68 O 62.39 CB 53.5
A ARG - 189 61.4 29.5 N 61.68 CA 67.92 C 69.49 O 69.45 CB 70.74 CG 70.94 CD 72.39 NE 79.18 CZ 82.52 NH1 87.59 NH2 76.67
A ILE - 2 -83.9 120.2 N 61.88 CA 59.23 C 61.42 O 59.56 CB 54.79 CG1 52.44 CG2 58.73 CD1 48.97
A PRO - 48 -56.3 141.2 N 59.42 CA 59.52 C 63.04 O 68.01 CB 59.18 CG 58.22 CD 49.2
A LEU H 20 -48.9 -48.4 N 70.11 CA 66.33 C 71.3 O 71.04 CB 61.45 CG 66.13 CD1 73.95 CD2 60.55
A SER H 77 -48.9 -37.2 N 74.02 CA 78.19 C 76.08 O 81.79 CB 82.95 OG 87.96
A ILE H 30 -88.2 -32.5 N 69.87 CA 68.23 C 64.37 O 69.41 CB 67.32 CG1 67.52 CG2 51.6 CD1 66.39
A GLY H 1 -59.4 -37.4 N 55.75 CA 51.95 C 55.99 O 60.46
A TYR H 66 -44.7 -54.2 N 53.16 CA 56.21 C 52.01 O 53.93 CB 56.74 CG 65.98 CD1 64.59 CD2 72.02 CE1 50.63 CE2 65.75 CZ 63.15 OH 63.36
A ASN H 46 -60.1 -33.2 N 52.63 CA 53.0 C 61.07 O 62.59 CB 54.22 CG 65.58 OD1 63.67 ND2 65.89
A VAL H 0 -72.3 -40.0 N 64.53 CA 61.68 C 55.86 O 58.27 CB 61.01 CG1 50.0 CG2 62.65
A VAL H 9 -72.1 -37.3 N 55.91 CA 58.07 C 60.31 O 53.73 CB 60.21 CG1 56.76 CG2 58.64
A ARG H 136 -47.3 -46.5 N 64.0 CA 53.51 C 58.76 O 59.69 CB 56.15 CG 69.63 CD 76.93 NE 75.24 CZ 68.47 NH1 67.88 NH2 66.18
A MET H 90 -83.2 -45.2 N 58.06 CA 54.93 C 62.47 O 69.59 CB 58.81 CG 65.88 SD 86.0 CE 59.18
A PHE H 32 -102.6 -13.7 N 63.03 CA 52.78 C 55.54 O 56.76 CB 50.92 CG 53.81 CD1 52.92 CD2 53.55 CE1 57.71 CE2 52.37 CZ 56.33
A LYS - 120 72.4 -54.2 N 51.46 CA 59.44 C 59.47 O 68.03 CB 62.12 CG 66.59 CD 64.65 CE 68.74 NZ 73.14
A THR S 37 -130.1 155.9 N 55.47 CA 53.74 C 55.94 O 49.05 CB 55.48 OG1 55.74 CG2 50.08
A LEU H 7 -53.8 -42.0 N 57.11 CA 50.36 C 48.12 O 47.89 CB 46.98 CG 47.88 CD1 46.52 CD2 46.24
A ASP H 31 -56.2 -44.5 N 47.95 CA 54.38 C 52.89 O 53.95 CB 62.2 CG 74.8 OD1 76.66 OD2 69.78
A GLN H 88 -71.1 -36.9 N 54.92 CA 56.95 C 61.79 O 62.62 CB 56.19 CG 65.02 CD 72.98 OE1 81.14 NE2 70.61
A ILE H 2 -60.1 -35.1 N 60.57 CA 48.89 C 48.49 O 56.73 CB 48.52 CG1 48.97 CG2 48.38 CD1 48.63
A SER H 34 -75.3 -14.1 N 48.1 CA 47.74 C 55.45 O 61.56 CB 47.27 OG 72.8
A LYS H 125 -93.7 -18.5 N 57.2 CA 69.53 C 71.32 O 70.49 CB 62.23 CG 58.9 CD 66.11 CE 72.85 NZ 74.58
A ALA - 12 -68.0 142.2 N 69.35 CA 62.8 C 67.42 O 60.8 CB 60.15
A SER - 54 -85.4 168.7 N 68.42 CA 63.32 C 56.54 O 59.84 CB 66.15 OG 62.5
A VAL H 33 -55.4 -47.2 N 54.37 CA 66.26 C 75.33 O 66.29 CB 70.53 CG1 73.67 CG2 72.94
A GLU H 104 -60.3 -46.5 N 80.32 CA 85.08 C 82.09 O 81.11 CB 78.51 CG 68.41 CD 67.07 OE1 62.75 OE2 74.09
A ASP H 81 -47.5 -53.8 N 77.05 CA 75.86 C 70.86 O 64.74 CB 82.35 CG 92.34 OD1 103.76 OD2 86.28
A LEU H 1 -62.0 -30.8 N 67.93 CA 62.68 C 64.69 O 60.98 CB 56.07 CG 60.93 CD1 65.07 CD2 53.95
A LYS H 92 -69.2 -16.3 N 75.61 CA 79.61 C 77.97 O 79.14 CB 81.06 CG 81.19 CD 82.52 CE 80.52 NZ 79.06
A LYS T 174 -70.9 -15.2 N 72.67 CA 75.06 C 76.12 O 82.43 CB 66.9 CG 56.93 CD 61.2 CE 65.97 NZ 71.43
A VAL S 7 -73.0 147.5 N 69.24 CA 69.32 C 75.25 O 76.3 CB 66.49 CG1 52.95 CG2 58.99
A GLU T 158 -72.1 97.7 N 79.21 CA 86.83 C 90.33 O 96.56 CB 87.28 CG 91.79 CD 89.48 OE1 92.26 OE2 85.38
A GLY T 37 128.4 -9.0 N 82.15 CA 75.15 C 73.17 O 77.6
A ILE - 7 -104.2 105.8 N 71.15 CA 76.01 C 87.41 O 92.85 CB 69.86 CG1 75.78 CG2 68.13 CD1 78.59
A GLY - 35 -94.6 175.5 N 89.47 CA 93.16 C 86.96 O 91.72
A GLU H 102 -53.0 -31.0 N 74.15 CA 74.33 C 74.96 O 79.47 CB 70.52 CG 65.5 CD 72.31 OE1 71.85 OE2 73.98
A LYS H 162 -61.9 -55.5 N 63.98 CA 61.27 C 70.79 O 71.42 CB 55.93 CG 58.13 CD 65.74 CE 72.3 NZ 82.66
A ARG H 80 -72.8 -23.4 N 75.56 CA 59.45 C 59.26 O 57.48 CB 54.57 CG 52.16 CD 56.41 NE 65.99 CZ 67.3 NH1 78.07 NH2 60.6
A ALA H 0 -75.5 -39.6 N 58.66 CA 60.37 C 65.73 O 70.95 CB 61.04
A ARG H 130 -75.2 -34.6 N 66.19 CA 63.17 C 62.53 O 71.64 CB 61.5 CG 66.54 CD 71.78 NE 68.66 CZ 66.63 NH1 71.81 NH2 62.9
A ALA H 25 -56.1 -45.5 N 54.5 CA 59.85 C 62.8 O 53.26 CB 48.35
A ILE H 0 -68.8 -54.9 N 59.13 CA 53.74 C 53.26 O 57.3 CB 58.59 CG1 59.46 CG2 50.59 CD1 51.06
A SER H 36 -54.2 -53.7 N 55.37 CA 55.04 C 51.24 O 48.3 CB 48.47 OG 64.08
A GLU H 95 -71.8 -36.8 N 59.85 CA 59.81 C 57.72 O 63.36 CB 61.49 CG 72.75 CD 78.78 OE1 82.64 OE2 78.29
A SER H 21 -70.9 -36.5 N 49.96 CA 52.2 C 51.66 O 45.83 CB 55.3 OG 63.13
A ILE H 4 -64.4 -49.4 N 46.07 CA 50.39 C 52.28 O 50.6 CB 54.48 CG1 59.04 CG2 50.62 CD1 55.06
A SER H 70 -65.6 -43.3 N 50.42 CA 46.09 C 45.74 O 62.9 CB 46.55 OG 66.83
A SER H 53 -49.3 -48.6 N 45.66 CA 46.08 C 49.58 O 47.84 CB 45.46 OG 51.17
A LEU H 6 -63.4 -47.5 N 50.05 CA 51.37 C 46.29 O 49.35 CB 50.46 CG 52.92 CD1 55.92 CD2 47.45
A LYS H 66 -55.0 -44.6 N 45.17 CA 52.05 C 61.04 O 74.24 CB 55.42 CG 53.97 CD 59.97 CE 63.67 NZ 67.31
A HIS H 165 -59.4 -54.0 N 58.21 CA 58.03 C 61.64 O 67.34 CB 57.65 CG 67.09 ND1 72.95 CD2 71.21 CE1 75.73 NE2 77.05
A ARG H 146 -74.9 -29.5 N 58.49 CA 59.83 C 68.71 O 72.24 CB 56.29 CG 54.7 CD 63.75 NE 62.1 CZ 54.49 NH1 53.64 NH2 59.77
A LYS H 96 -102.5 -32.8 N 65.85 CA 66.28 C 70.93 O 73.45 CB 57.39 CG 63.6 CD 63.9 CE 67.09 NZ 71.21
A THR - 75 -119.0 360.0 N 64.18 CA 68.39 C 70.45 O 76.78 CB 63.93 OG1 56.79 CG2 64.19
B VAL - 119 360.0 97.6 N 96.65 CA 96.38 C 92.32 O 94.05 CB 80.13 CG1 71.37 CG2 81.66
B PRO - 59 -44.9 141.9 N 91.85 CA 93.55 C 101.13 O 108.67 CB 90.1 CG 88.31 CD 88.53
B GLN H 112 -57.2 -36.1 N 91.72 CA 81.36 C 72.93 O 64.35 CB 69.44 CG 69.62 CD 78.27 OE1 81.74 NE2 81.25
B GLU H 77 -53.3 -44.6 N 58.34 CA 64.32 C 63.97 O 57.97 CB 63.39 CG 67.43 CD 81.18 OE1 77.41 OE2 92.47
B LEU H 7 -73.4 -34.4 N 55.99 CA 55.09 C 59.44 O 60.51 CB 51.99 CG 56.83 CD1 50.86 CD2 53.73
B ILE H 39 -63.8 -40.1 N 53.22 CA 44.1 C 42.89 O 56.18 CB 62.98 CG1 69.15 CG2 59.71 CD1 67.22
B GLU H 85 -55.3 -46.2 N 43.51 CA 53.65 C 52.36 O 52.8 CB 60.08 CG 68.11 CD 75.56 OE1 74.67 OE2 80.93
B LYS H 37 -65.2 -39.5 N 52.59 CA 57.99 C 52.05 O 50.85 CB 50.72 CG 45.55 CD 43.98 CE 44.75 NZ 53.86
B ILE H 7 -61.5 -35.2 N 43.09 CA 41.27 C 46.06 O 48.4 CB 51.69 CG1 59.25 CG2 40.71 CD1 60.75
B LYS H 101 -56.1 -33.9 N 45.27 CA 46.69 C 50.54 O 51.59 CB 47.23 CG 45.41 CD 48.49 CE 47.39 NZ 46.54
B LEU H 43 -55.6 -33.9 N 56.81 CA 49.06 C 45.87 O 46.95 CB 47.75 CG 49.42 CD1 47.62 CD2 43.4
B ILE T 0 -115.7 24.8 N 40.94 CA 40.42 C 45.49 O 51.54 CB 45.58 CG1 41.96 CG2 40.34 CD1 44.51
B SER S 10 -87.3 151.6 N 50.51 CA 46.96 C 40.3 O 45.1 CB 47.19 OG 56.13
B PRO T 10 -54.6 134.2 N 46.11 CA 42.06 C 51.09 O 48.32 CB 42.76 CG 39.55 CD 39.78
B GLY T 56 118.4 -40.1 N 52.18 CA 48.31 C 45.4 O 43.87
B THR S 45 -75.8 148.3 N 41.49 CA 46.83 C 48.11 O 49.27 CB 44.4 OG1 41.19 CG2 45.19
B GLU H 98 -58.4 -37.4 N 44.69 CA 44.24 C 43.8 O 41.05 CB 47.64 CG 49.76 CD 61.24 OE1 70.17 OE2 64.15
B LEU H 4 -59.3 -44.0 N 45.53 CA 47.3 C 44.51 O 44.4 CB 41.21 CG 42.22 CD1 41.04 CD2 41.23
B ARG H 1 -68.6 -35.1 N 40.37 CA 39.9 C 39.9 O 45.87 CB 43.42 CG 39.54 CD 43.66 NE 48.17 CZ 47.11 NH1 38.99 NH2 47.97
B LYS H 103 -62.7 -35.6 N 40.09 CA 40.05 C 51.21 O 54.96 CB 43.55 CG 52.72 CD 60.06 CE 62.72 NZ 58.87
B ALA H 0 -71.9 -46.0 N 39.96 CA 39.77 C 47.76 O 38.99 CB 43.48
B LEU H 0 -59.5 -38.1 N 39.26 CA 38.8 C 45.57 O 40.79 CB 38.86 CG 46.64 CD1 39.38 CD2 43.35
B ASP H 53 -58.0 -46.1 N 42.35 CA 40.32 C 38.38 O 48.22 CB 42.12 CG 52.14 OD1 54.12 OD2 59.89
B ASP H 61 -64.5 -40.9 N 41.1 CA 42.26 C 38.27 O 38.11 CB 53.23 CG 69.09 OD1 77.71 OD2 74.71
B ILE H 0 -64.5 -41.6 N 38.26 CA 40.43 C 45.34 O 42.75 CB 38.18 CG1 38.52 CG2 38.33 CD1 38.84
B ILE H 16 -63.5 -46.1 N 46.66 CA 42.88 C 39.28 O 39.49 CB 41.31 CG1 41.75 CG2 37.36 CD1 49.17
B ASN H 132 -62.4 -30.3 N 39.11 CA 37.6 C 48.06 O 47.16 CB 46.47 CG 69.93 OD1 82.5 ND2 77.12
B ALA H 32 -87.7 -9.7 N 41.57 CA 38.34 C 37.22 O 51.46 CB 37.72
B ASN T 99 71.5 18.6 N 51.16 CA 48.7 C 48.6 O 50.58 CB 52.17 CG 67.58 OD1 72.39 ND2 69.59
B PHE - 55 -70.1 153.3 N 48.79 CA 53.99 C 63.15 O 74.43 CB 46.42 CG 37.57 CD1 40.8 CD2 42.0 CE1 48.36 CE2 39.41 CZ 38.98
B GLY - 8 -95.4 -173.9 N 59.72 CA 37.38 C 46.11 O 52.86
B ALA E 5 -156.1 152.6 N 43.63 CA 38.31 C 38.54 O 38.43 CB 45.57
B LEU E 16 -148.8 111.1 N 38.92 CA 39.28 C 48.04 O 40.76 CB 39.28 CG 39.72 CD1 39.78 CD2 39.71
B ILE E 0 -128.7 130.6 N 40.04 CA 40.52 C 41.27 O 44.53 CB 42.42 CG1 39.96 CG2 41.0 CD1 45.93
B PHE E 0 -113.4 128.5 N 41.59 CA 42.21 C 46.76 O 48.9 CB 49.71 CG 50.66 CD1 47.24 CD2 43.64 CE1 44.09 CE2 49.1 CZ 44.58
B LEU E 3 -108.0 110.6 N 50.41 CA 49.99 C 44.44 O 56.4 CB 43.42 CG 48.32 CD1 42.29 CD2 42.71
B VAL - 0 -140.3 148.7 N 47.28 CA 56.78 C 65.26 O 71.17 CB 60.48 CG1 69.56 CG2 55.49
B ASP S 83 -90.9 -32.2 N 61.22 CA 61.9 C 61.09 O 66.66 CB 71.4 CG 80.61 OD1 78.57 OD2 89.39
B ASP - 63 -117.0 87.2 N 59.63 CA 60.65 C 67.77 O 71.28 CB 64.13 CG 75.21 OD1 81.22 OD2 80.11
B PRO G 11 -59.0 -38.3 N 62.8 CA 58.26 C 52.14 O 53.86 CB 54.4 CG 64.21 CD 65.73
B LYS G 112 -79.0 -6.8 N 56.25 CA 70.96 C 70.04 O 75.29 CB 79.71 CG 83.45 CD 82.54 CE 79.59 NZ 81.75
B LYS G 159 -85.2 -20.5 N 71.29 CA 78.85 C 80.43 O 81.29 CB 70.84 CG 69.32 CD 71.63 CE 75.64 NZ 72.35
B TYR S 50 -101.9 21.9 N 74.73 CA 65.66 C 65.93 O 68.58 CB 55.74 CG 62.56 CD1 63.67 CD2 71.38 CE1 75.77 CE2 75.79 CZ 80.65 OH 88.79
B GLU T 104 -56.0 -28.3 N 61.96 CA 61.9 C 64.96 O 69.61 CB 63.19 CG 68.51 CD 75.54 OE1 79.44 OE2 78.27
B ASP T 146 -73.5 -27.7 N 67.76 CA 63.83 C 64.25 O 60.91 CB 68.87 CG 83.52 OD1 83.41 OD2 89.63
B VAL T 8 -99.8 -2.6 N 59.53 CA 55.9 C 53.95 O 52.76 CB 45.22 CG1 47.27 CG2 45.52
B ILE E 12 -117.6 115.2 N 44.82 CA 44.26 C 51.46 O 52.11 CB 48.18 CG1 44.4 CG2 54.16 CD1 47.52
B GLN E 37 -118.7 143.2 N 43.68 CA 43.7 C 57.71 O 42.51 CB 43.55 CG 44.18 CD 54.4 OE1 43.41 NE2 44.73
B GLY E 56 73.0 -148.5 N 48.2 CA 44.98 C 42.81 O 43.32
B GLY E 33 66.9 -170.5 N 42.2 CA 49.81 C 49.7 O 51.46
B PHE E 107 -114.9 135.7 N 48.94 CA 43.28 C 56.44 O 55.59 CB 42.98 CG 42.38 CD1 41.68 CD2 42.56 CE1 48.2 CE2 42.04 CZ 50.19
B TRP E 113 -83.4 120.8 N 53.53 CA 50.46 C 47.43 O 45.67 CB 49.89 CG 47.17 CD1 47.76 CD2 47.22 NE1 52.89 CE2 48.11 CE3 46.79 CZ2 48.55 CZ3 53.99 CH2 51.46
B LEU E 63 -111.1 -48.9 N 51.42 CA 45.35 C 46.16 O 46.71 CB 44.56 CG 44.84 CD1 43.11 CD2 43.88
B ASP E 70 48.2 52.3 N 46.9 CA 49.87 C 52.11 O 58.29 CB 49.18 CG 57.74 OD1 64.32 OD2 56.57
B THR E 46 -123.8 155.3 N 46.46 CA 52.71 C 46.3 O 64.19 CB 61.47 OG1 57.75 CG2 45.04
B ASP E 105 -62.5 135.8 N 46.71 CA 46.53 C 45.58 O 58.76 CB 54.98 CG 67.3 OD1 65.25 OD2 74.99
B PHE - 32 -65.6 148.5 N 45.22 CA 44.36 C 49.83 O 51.13 CB 44.14 CG 43.34 CD1 42.78 CD2 43.2 CE1 45.94 CE2 43.36 CZ 42.0
B SER - 42 -155.9 157.3 N 49.75 CA 46.99 C 46.24 O 47.31 CB 43.71 OG 44.34
B ALA H 3 -58.3 -40.0 N 46.23 CA 44.34 C 44.22 O 40.83 CB 41.41
B GLU H 102 -71.9 -39.2 N 41.72 CA 42.2 C 41.51 O 51.14 CB 44.87 CG 59.83 CD 78.11 OE1 80.66 OE2 84.82
B LYS H 84 -58.4 -44.1 N 41.98 CA 46.02 C 41.88 O 46.6 CB 42.66 CG 43.8 CD 44.05 CE 53.77 NZ 45.55
B LEU H 0 -65.5 -41.7 N 41.25 CA 41.84 C 40.2 O 39.89 CB 40.77 CG 40.33 CD1 40.52 CD2 41.15
B TYR H 49 -60.1 -49.7 N 40.11 CA 43.52 C 42.25 O 39.18 CB 44.02 CG 46.96 CD1 43.81 CD2 39.59 CE1 44.45 CE2 41.33 CZ 47.64 OH 54.32
B GLU H 96 -58.3 -48.8 N 40.0 CA 40.02 C 39.86 O 41.94 CB 40.63 CG 47.78 CD 53.35 OE1 40.13 OE2 49.05
B LEU H 30 -63.5 -29.9 N 40.13 CA 40.08 C 40.29 O 41.54 CB 40.56 CG 44.36 CD1 41.7 CD2 41.42
B SER H 11 -69.7 -15.8 N 39.3 CA 38.86 C 38.48 O 38.17 CB 38.74 OG 41.25
B LYS T 105 -61.5 -29.3 N 38.55 CA 38.28 C 38.24 O 47.18 CB 38.48 CG 38.53 CD 46.42 CE 41.29 NZ 39.36
B MET S 73 -76.1 169.9 N 38.58 CA 38.61 C 48.28 O 41.13 CB 39.13 CG 39.37 SD 76.17 CE 51.91
B ASN S 87 -81.6 165.4 N 45.48 CA 47.76 C 44.14 O 45.46 CB 53.75 CG 66.57 OD1 68.41 ND2 85.77
B GLY S 39 74.6 -156.7 N 38.66 CA 40.33 C 39.28 O 40.79
B ALA E 1 -110.6 166.3 N 39.78 CA 40.02 C 41.84 O 41.15 CB 40.37
B ILE E 6 -123.5 146.2 N 40.57 CA 41.0 C 51.88 O 41.48 CB 40.7 CG1 40.29 CG2 41.2 CD1 40.0
B VAL E 0 -123.7 120.1 N 42.16 CA 42.78 C 44.7 O 49.11 CB 44.13 CG1 44.08 CG2 43.01
B LEU E 0 -118.7 162.2 N 43.2 CA 50.11 C 48.64 O 44.35 CB 48.44 CG 52.07 CD1 42.58 CD2 42.4
B SER - 1 -71.4 152.1 N 55.92 CA 51.77 C 45.16 O 53.32 CB 46.75 OG 45.95
B GLU T 38 -58.6 -30.2 N 52.69 CA 48.66 C 45.21 O 47.1 CB 49.06 CG 56.83 CD 59.32 OE1 55.17 OE2 65.03
B ASP T 90 -92.2 11.2 N 45.7 CA 52.46 C 54.08 O 60.46 CB 57.92 CG 73.39 OD1 77.42 OD2 79.94
B ILE S 24 52.5 41.9 N 49.24 CA 44.16 C 44.66 O 53.57 CB 43.51 CG1 46.73 CG2 55.84 CD1 46.06
B THR - 67 -104.7 -29.1 N 45.39 CA 45.94 C 47.92 O 53.91 CB 56.62 OG1 47.26 CG2 46.95
B LYS E 55 -116.0 146.2 N 45.83 CA 47.42 C 45.02 O 44.73 CB 46.58 CG 47.57 CD 59.21 CE 77.02 NZ 83.28
B ILE E 0 -101.9 118.2 N 44.79 CA 44.16 C 44.6 O 46.01 CB 51.16 CG1 43.25 CG2 43.03 CD1 42.9
B TYR E 32 -92.7 -50.8 N 44.52 CA 45.03 C 48.05 O 51.49 CB 48.06 CG 53.28 CD1 57.34 CD2 49.21 CE1 55.61 CE2 50.85 CZ 55.05 OH 56.64
B TYR E 19 -132.5 154.0 N 48.93 CA 45.39 C 42.56 O 44.86 CB 43.38 CG 46.47 CD1 44.72 CD2 50.62 CE1 45.53 CE2 46.78 CZ 50.77 OH 62.55
B ALA E 0 -134.0 160.4 N 42.22 CA 41.48 C 54.82 O 41.6 CB 41.35
B ASN E 50 61.7 28.8 N 43.47 CA 40.33 C 51.4 O 40.66 CB 40.37 CG 44.35 OD1 40.22 ND2 39.54
B VAL E 3 -90.9 161.9 N 40.91 CA 41.32 C 40.99 O 40.5 CB 48.82 CG1 53.22 CG2 51.27
B HIS E 34 -107.5 116.6 N 41.34 CA 41.49 C 41.74 O 51.43 CB 41.25 CG 48.09 ND1 41.34 CD2 40.9 CE1 50.51 NE2 40.98
B LEU E 7 -91.6 127.9 N 45.5 CA 42.04 C 42.23 O 41.8 CB 41.78 CG 51.75 CD1 41.39 CD2 42.37
B VAL - 16 -125.6 66.9 N 42.95 CA 43.25 C 49.91 O 55.4 CB 45.75 CG1 44.24 CG2 44.24
B PRO - 11 -66.4 164.5 N 43.64 CA 44.59 C 47.02 O 45.52 CB 43.76 CG 42.97 CD 42.85
B ASP - 63 -60.3 120.3 N 45.36 CA 45.85 C 53.37 O 45.08 CB 61.04 CG 62.44 OD1 57.14 OD2 66.64
B PRO T 22 -66.2 -11.1 N 51.6 CA 50.76 C 51.78 O 49.68 CB 51.16 CG 55.18 CD 55.77
B THR T 103 -94.6 -3.0 N 53.81 CA 58.38 C 59.59 O 51.99 CB 57.19 OG1 52.41 CG2 51.94
B ILE S 26 -75.2 128.4 N 59.4 CA 56.45 C 62.5 O 59.22 CB 53.39 CG1 48.66 CG2 45.56 CD1 48.17
B PRO - 97 -62.8 140.0 N 56.92 CA 50.16 C 51.88 O 47.73 CB 52.96 CG 51.95 CD 50.9
B THR - 26 -142.2 146.1 N 43.88 CA 44.02 C 44.59 O 54.46 CB 42.6 OG1 47.77 CG2 46.38
B GLY - 65 -100.8 -9.7 N 53.71 CA 54.66 C 55.97 O 58.05
B GLU - 28 -70.9 166.7 N 51.68 CA 47.44 C 47.08 O 40.7 CB 42.78 CG 47.74 CD 55.01 OE1 49.71 OE2 69.34
B THR - 120 -120.8 137.8 N 56.25 CA 50.28 C 51.0 O 38.93 CB 55.38 OG1 50.5 CG2 43.39
B GLY S 27 91.6 149.1 N 43.38 CA 40.77 C 49.29 O 55.18
B THR H 71 -62.7 -38.2 N 38.95 CA 43.78 C 39.26 O 40.79 CB 39.11 OG1 39.03 CG2 44.29
B ARG H 52 -60.5 -53.3 N 38.85 CA 38.86 C 43.15 O 40.43 CB 42.74 CG 46.26 CD 50.35 NE 45.44 CZ 39.34 NH1 46.88 NH2 37.94
B HIS H 25 -76.0 -35.2 N 42.29 CA 39.39 C 46.49 O 40.32 CB 39.17 CG 44.04 ND1 44.75 CD2 43.6 CE1 44.29 NE2 42.52
B ARG H 34 -63.1 -37.5 N 40.04 CA 47.56 C 44.5 O 43.87 CB 45.1 CG 46.05 CD 44.01 NE 47.98 CZ 55.04 NH1 47.61 NH2 49.84
B THR H 23 -62.9 -50.7 N 47.73 CA 40.98 C 45.25 O 45.97 CB 42.27 OG1 49.45 CG2 43.25
B ALA H 0 -56.5 -48.0 N 40.74 CA 40.87 C 43.67 O 41.85 CB 40.33
B GLU H 24 -63.3 -47.1 N 41.36 CA 48.16 C 49.05 O 47.28 CB 41.77 CG 50.98 CD 53.82 OE1 65.86 OE2 51.59
B ARG H 8 -63.6 -41.5 N 48.31 CA 43.31 C 44.42 O 48.09 CB 43.27 CG 51.03 CD 47.62 NE 58.63 CZ 58.7 NH1 59.14 NH2 43.63
B LEU H 0 -66.9 -42.1 N 48.39 CA 50.31 C 50.06 O 49.26 CB 43.0 CG 44.93 CD1 44.03 CD2 42.87
B ALA H 0 -58.3 -43.8 N 43.36 CA 54.93 C 55.91 O 60.01 CB 43.0
B LYS H 60 -67.4 -35.7 N 56.69 CA 53.04 C 56.61 O 58.73 CB 47.13 CG 44.74 CD 59.43 CE 63.57 NZ 62.44
B GLN H 85 -72.2 -32.5 N 53.55 CA 53.2 C 46.95 O 57.41 CB 53.73 CG 46.92 CD 51.38 OE1 56.53 NE2 47.07
B THR H 27 -115.9 -14.3 N 49.02 CA 53.22 C 59.25 O 69.37 CB 46.17 OG1 45.4 CG2 45.99
B GLY S 27 71.7 16.8 N 57.8 CA 57.7 C 59.22 O 66.16
B LYS S 42 -107.0 167.3 N 58.0 CA 46.11 C 48.01 O 49.05 CB 50.33 CG 53.94 CD 59.49 CE 65.51 NZ 79.46
B VAL - 2 -75.5 134.4 N 43.67 CA 42.89 C 51.1 O 52.22 CB 43.9 CG1 41.94 CG2 56.63
B VAL E 0 -128.1 127.3 N 47.81 CA 41.46 C 40.83 O 47.55 CB 47.53 CG1 41.07 CG2 42.25
B ILE E 1 -107.9 131.3 N 40.48 CA 39.95 C 42.69 O 45.9 CB 40.78 CG1 41.51 CG2 39.43 CD1 40.57
B ALA E 0 -128.5 130.9 N 41.18 CA 38.83 C 51.69 O 44.02 CB 38.93
B VAL E 0 -125.8 121.3 N 38.18 CA 40.21 C 45.94 O 43.61 CB 42.64 CG1 40.53 CG2 43.31
B SER - 21 -81.7 159.3 N 41.54 CA 54.46 C 56.6 O 46.25 CB 57.39 OG 71.96
B ARG S 135 -68.7 -32.9 N 55.25 CA 50.86 C 56.24 O 61.2 CB 56.72 CG 61.38 CD 66.77 NE 71.71 CZ 71.91 NH1 69.96 NH2 72.89
B ARG S 231 -107.7 -6.7 N 70.08 CA 74.88 C 74.14 O 81.42 CB 75.47 CG 74.7 CD 66.59 NE 59.0 CZ 55.9 NH1 53.75 NH2 58.12
B ARG - 177 -99.3 152.6 N 69.85 CA 59.13 C 54.62 O 53.04 CB 63.7 CG 73.62 CD 82.09 NE 84.63 CZ 83.03 NH1 78.21 NH2 91.82
B ASN - 75 -104.1 15.5 N 52.44 CA 56.85 C 60.74 O 62.2 CB 68.52 CG 84.32 OD1 89.92 ND2 90.22
B ILE - 45 -95.9 157.3 N 58.14 CA 55.16 C 50.86 O 53.41 CB 54.25 CG1 46.36 CG2 50.65 CD1 53.14
B ILE E 0 -106.7 119.3 N 47.88 CA 42.93 C 50.03 O 53.45 CB 39.01 CG1 40.47 CG2 43.73 CD1 46.36
B SER E 1 -101.9 123.2 N 38.65 CA 44.22 C 50.22 O 55.49 CB 38.95 OG 44.33
B LEU E 1 -108.2 127.5 N 45.29 CA 44.75 C 40.62 O 53.83 CB 44.7 CG 46.83 CD1 43.83 CD2 53.5
B TYR E 1 -114.8 138.2 N 43.2 CA 41.47 C 44.43 O 47.99 CB 45.24 CG 46.5 CD1 40.4 CD2 41.04 CE1 40.08 CE2 40.63 CZ 48.73 OH 50.9
B TYR - 24 -125.8 -72.2 N 52.75 CA 55.3 C 62.18 O 76.4 CB 52.63 CG 59.57 CD1 60.42 CD2 60.45 CE1 59.73 CE2 68.95 CZ 66.32 OH 72.13
B LYS S 68 -115.7 -91.7 N 62.31 CA 62.62 C 62.81 O 58.42 CB 60.39 CG 60.57 CD 72.25 CE 81.95 NZ 85.63
B ASN S 126 -98.7 10.0 N 61.65 CA 55.04 C 47.79 O 58.85 CB 63.1 CG 74.0 OD1 75.0 ND2 86.67
B TYR - 74 -89.2 144.3 N 49.75 CA 50.93 C 47.38 O 49.23 CB 49.07 CG 60.57 CD1 68.04 CD2 63.72 CE1 73.16 CE2 76.41 CZ 77.96 OH 76.41
B LYS E 92 -128.2 123.5 N 51.36 CA 46.26 C 58.59 O 64.61 CB 46.0 CG 47.76 CD 51.35 CE 52.63 NZ 46.32
B TYR E 43 -126.2 122.7 N 56.75 CA 47.83 C 49.48 O 46.61 CB 51.53 CG 55.16 CD1 57.21 CD2 53.16 CE1 62.73 CE2 60.91 CZ 68.06 OH 75.3
B VAL E 50 -86.4 123.9 N 44.56 CA 44.69 C 52.91 O 57.79 CB 52.74 CG1 55.3 CG2 65.41
B VAL E 1 -103.5 126.5 N 48.28 CA 56.05 C 60.03 O 61.11 CB 54.7 CG1 46.83 CG2 52.8
B ASN - 40 -94.9 161.3 N 57.56 CA 47.42 C 39.68 O 43.74 CB 56.24 CG 59.97 OD1 56.52 ND2 63.98
B GLN - 33 -67.1 154.5 N 37.97 CA 37.99 C 54.79 O 42.44 CB 56.04 CG 64.58 CD 73.89 OE1 78.37 NE2 70.64
B VAL H 33 -66.3 -38.7 N 46.03 CA 54.8 C 57.01 O 58.35 CB 46.34 CG1 49.8 CG2 43.38
B ASP H 114 -61.8 -35.6 N 48.57 CA 46.04 C 49.56 O 50.71 CB 49.43 CG 67.28 OD1 66.5 OD2 78.97
B PHE H 87 -66.5 -44.9 N 40.06 CA 46.43 C 52.15 O 46.17 CB 46.29 CG 49.81 CD1 58.55 CD2 42.96 CE1 57.01 CE2 49.76 CZ 48.09
B LEU H 1 -67.8 -44.3 N 44.98 CA 50.78 C 47.04 O 39.17 CB 38.7 CG 46.74 CD1 41.94 CD2 43.28
B ILE H 61 -60.4 -37.2 N 41.69 CA 47.92 C 50.61 O 50.48 CB 44.59 CG1 50.52 CG2 50.03 CD1 51.76
B SER H 58 -63.7 -45.3 N 45.39 CA 47.66 C 50.96 O 51.28 CB 38.8 OG 48.2
B LYS H 78 -66.9 -43.6 N 41.21 CA 39.04 C 42.71 O 43.31 CB 40.51 CG 59.76 CD 67.17 CE 71.21 NZ 78.38
B VAL H 2 -65.5 -42.8 N 39.22 CA 39.42 C 44.49 O 45.09 CB 39.44 CG1 46.73 CG2 40.14
B THR H 83 -61.9 -42.8 N 39.52 CA 41.73 C 48.19 O 41.72 CB 40.01 OG1 40.81 CG2 40.02
B GLN H 107 -62.8 -41.2 N 42.32 CA 39.85 C 39.97 O 47.35 CB 39.74 CG 45.55 CD 44.4 OE1 43.77 NE2 42.18
B ALA H 15 -64.9 -41.6 N 39.85 CA 40.0 C 46.62 O 40.41 CB 39.91
B ILE H 6 -64.4 -43.2 N 40.18 CA 44.68 C 45.22 O 48.99 CB 40.38 CG1 40.31 CG2 47.39 CD1 50.94
B SER H 44 -62.3 -36.7 N 41.38 CA 40.75 C 48.19 O 47.93 CB 40.7 OG 60.19
B THR H 62 -64.4 -42.9 N 40.73 CA 44.95 C 45.58 O 43.87 CB 40.74 OG1 40.62 CG2 44.2
B LEU H 1 -62.1 -40.0 N 46.36 CA 41.13 C 46.68 O 52.24 CB 44.85 CG 51.13 CD1 52.42 CD2 51.73
B GLU H 81 -54.9 -39.5 N 41.34 CA 41.61 C 49.67 O 42.1 CB 41.62 CG 45.16 CD 59.21 OE1 71.42 OE2 57.7
B LYS H 115 -72.1 -45.4 N 41.77 CA 45.87 C 42.16 O 45.37 CB 42.0 CG 47.82 CD 42.17 CE 56.24 NZ 41.75
B TYR H 75 -59.4 -39.9 N 41.97 CA 46.71 C 42.3 O 45.64 CB 41.97 CG 43.68 CD1 51.19 CD2 47.58 CE1 49.22 CE2 46.62 CZ 49.15 OH 52.99
B LYS H 39 -69.7 -39.6 N 42.16 CA 42.32 C 48.22 O 42.84 CB 42.16 CG 42.38 CD 42.55 CE 42.83 NZ 42.81
B ASP H 86 -59.7 -46.0 N 46.1 CA 43.01 C 44.86 O 44.82 CB 51.3 CG 72.92 OD1 84.93 OD2 80.87
B ASN H 76 -68.0 -34.7 N 45.66 CA 47.39 C 43.81 O 47.95 CB 43.33 CG 46.01 OD1 51.48 ND2 45.78
B PHE H 1 -61.7 -41.8 N 43.22 CA 49.73 C 48.79 O 47.55 CB 43.11 CG 43.3 CD1 43.51 CD2 43.32 CE1 43.74 CE2 44.35 CZ 43.76
B ASN H 71 -64.4 -44.3 N 43.49 CA 43.73 C 44.06 O 49.85 CB 43.64 CG 47.36 OD1 55.16 ND2 43.32
B LYS H 129 -63.6 -34.7 N 44.21 CA 45.67 C 47.83 O 46.65 CB 46.54 CG 47.82 CD 44.97 CE 56.07 NZ 56.31
B LEU H 30 -71.2 -40.1 N 44.45 CA 44.7 C 45.85 O 53.18 CB 44.56 CG 54.1 CD1 44.34 CD2 44.97
B LEU H 22 -62.5 -43.4 N 45.04 CA 46.37 C 50.38 O 46.91 CB 50.89 CG 59.78 CD1 57.1 CD2 61.61
B SER H 58 -72.8 -29.4 N 44.99 CA 49.2 C 48.66 O 48.28 CB 60.15 OG 75.38
B GLU H 115 -68.0 -46.6 N 46.3 CA 45.96 C 56.18 O 46.48 CB 45.94 CG 57.81 CD 58.52 OE1 66.6 OE2 55.08
B LEU H 2 -58.2 -37.8 N 45.9 CA 46.09 C 46.26 O 46.59 CB 45.84 CG 48.66 CD1 46.48 CD2 45.84
B GLU H 44 -56.2 -47.1 N 46.06 CA 46.25 C 46.64 O 48.77 CB 46.06 CG 68.61 CD 71.95 OE1 69.14 OE2 77.09
B VAL H 43 -60.8 -52.0 N 47.52 CA 49.7 C 47.36 O 47.68 CB 47.27 CG1 47.57 CG2 46.94
B LEU H 25 -58.3 -39.2 N 47.27 CA 48.25 C 47.71 O 48.11 CB 48.96 CG 52.31 CD1 47.35 CD2 47.92
B GLU H 15 -62.1 -47.9 N 47.42 CA 47.57 C 50.93 O 48.24 CB 47.22 CG 47.4 CD 59.02 OE1 57.36 OE2 46.88
B LEU H 11 -67.0 -19.2 N 48.77 CA 48.85 C 56.38 O 54.83 CB 47.9 CG 51.0 CD1 49.72 CD2 47.88
B GLU H 76 -106.2 2.4 N 59.17 CA 48.88 C 52.35 O 49.52 CB 48.86 CG 57.48 CD 59.85 OE1 64.78 OE2 57.63
B ASN T 63 54.6 45.5 N 48.97 CA 50.72 C 54.27 O 61.0 CB 49.69 CG 53.89 OD1 59.66 ND2 49.71
B ARG - 143 -121.0 22.7 N 54.35 CA 49.24 C 54.39 O 51.33 CB 49.25 CG 63.71 CD 55.2 NE 66.1 CZ 63.64 NH1 48.83 NH2 68.55
B VAL - 2 -73.2 132.2 N 48.69 CA 48.37 C 49.52 O 52.56 CB 48.09 CG1 47.78 CG2 47.79
B THR B 22 -105.5 163.4 N 55.22 CA 53.37 C 48.59 O 50.2 CB 54.96 OG1 51.94 CG2 49.5
B LEU H 0 -61.3 -27.6 N 53.33 CA 57.97 C 55.97 O 53.78 CB 55.71 CG 61.15 CD1 48.77 CD2 63.61
B ALA H 6 -63.2 -46.0 N 55.91 CA 47.92 C 50.43 O 51.63 CB 48.23
B ASP H 24 -58.4 -47.5 N 47.31 CA 46.83 C 46.53 O 46.09 CB 49.27 CG 55.51 OD1 55.89 OD2 59.97
B VAL H 0 -57.6 -54.0 N 46.81 CA 50.63 C 49.42 O 50.09 CB 49.8 CG1 47.0 CG2 47.35
B VAL H 3 -61.9 -39.4 N 53.48 CA 46.52 C 46.02 O 55.54 CB 52.9 CG1 52.3 CG2 47.56
B ARG H 110 -61.9 -41.0 N 46.98 CA 45.63 C 50.13 O 44.78 CB 45.82 CG 48.69 CD 51.93 NE 67.66 CZ 79.26 NH1 82.06 NH2 84.5
B THR H 2 -70.6 -46.6 N 45.19 CA 45.62 C 46.19 O 44.53 CB 45.02 OG1 47.38 CG2 44.73
B LEU H 2 -58.5 -43.8 N 44.98 CA 48.33 C 52.02 O 45.11 CB 45.44 CG 45.76 CD1 46.31 CD2 45.55
B ALA H 13 -62.6 -42.0 N 51.09 CA 44.58 C 52.45 O 47.85 CB 44.88
B LYS H 53 -68.0 -38.6 N 49.58 CA 43.54 C 49.42 O 44.83 CB 43.57 CG 48.96 CD 49.59 CE 55.65 NZ 53.51
B GLY H 0 -64.3 -41.6 N 48.78 CA 43.37 C 56.59 O 49.14
B PHE H 0 -60.5 -49.3 N 43.58 CA 56.25 C 51.6 O 43.0 CB 48.33 CG 48.38 CD1 44.5 CD2 44.96 CE1 49.77 CE2 45.41 CZ 45.4
B GLU H 69 -60.3 -41.0 N 44.86 CA 49.52 C 54.61 O 56.37 CB 45.72 CG 52.51 CD 70.13 OE1 82.46 OE2 68.74
B LEU H 1 -58.5 -42.2 N 47.36 CA 52.85 C 54.95 O 43.69 CB 45.98 CG 51.77 CD1 57.88 CD2 50.8
B LEU H 15 -77.3 -27.1 N 42.33 CA 43.3 C 49.04 O 49.43 CB 46.01 CG 48.65 CD1 43.34 CD2 46.74
B ARG H 61 -62.2 -44.9 N 47.79 CA 48.99 C 51.81 O 55.74 CB 49.56 CG 71.45 CD 81.63 NE 83.75 CZ 87.1 NH1 84.38 NH2 91.1
B ILE H 27 -57.4 -41.2 N 48.75 CA 49.41 C 49.11 O 50.78 CB 41.15 CG1 41.31 CG2 41.64 CD1 56.59
B VAL H 14 -60.7 -42.6 N 43.69 CA 46.94 C 50.55 O 46.27 CB 45.49 CG1 41.62 CG2 43.01
B GLU H 69 -62.8 -40.1 N 48.21 CA 50.25 C 51.25 O 52.34 CB 55.34 CG 64.58 CD 72.87 OE1 80.07 OE2 68.28
B GLU H 132 -70.8 -32.6 N 52.45 CA 48.92 C 51.46 O 57.08 CB 46.6 CG 58.12 CD 76.54 OE1 81.06 OE2 86.93
B ILE H 12 -83.6 -22.1 N 47.9 CA 47.25 C 55.66 O 59.76 CB 44.56 CG1 48.86 CG2 40.4 CD1 53.27
B ARG H 115 -45.1 -45.7 N 45.69 CA 48.73 C 55.08 O 56.7 CB 48.73 CG 62.33 CD 67.2 NE 78.63 CZ 81.33 NH1 72.97 NH2 87.02
B PRO H 55 -61.2 -37.0 N 52.33 CA 48.96 C 42.97 O 43.74 CB 54.11 CG 59.46 CD 53.4
B TYR H 82 -61.4 -41.3 N 42.88 CA 43.24 C 46.48 O 49.04 CB 48.2 CG 55.72 CD1 55.27 CD2 53.5 CE1 63.49 CE2 49.78 CZ 65.31 OH 70.97
B ILE H 9 -65.6 -41.1 N 46.03 CA 40.09 C 40.29 O 40.34 CB 48.2 CG1 48.04 CG2 50.71 CD1 60.59
B VAL H 49 -60.0 -54.0 N 46.86 CA 48.96 C 51.44 O 49.33 CB 40.97 CG1 44.95 CG2 52.65
B GLU H 13 -50.3 -26.5 N 44.05 CA 50.3 C 53.35 O 50.41 CB 51.89 CG 51.11 CD 51.1 OE1 44.29 OE2 62.31
B LEU T 0 -78.2 -16.3 N 50.92 CA 43.86 C 39.99 O 40.0 CB 48.37 CG 49.61 CD1 44.72 CD2 39.21
B GLY G 19 53.8 -130.6 N 40.32 CA 40.7 C 52.69 O 45.7
B GLU G 131 -63.2 -27.4 N 47.32 CA 44.85 C 49.15 O 49.95 CB 41.54 CG 70.14 CD 80.06 OE1 86.68 OE2 82.19
B GLU G 114 -76.0 4.2 N 40.56 CA 48.13 C 45.99 O 40.12 CB 45.79 CG 51.53 CD 67.61 OE1 67.6 OE2 79.27
B GLY G 0 -111.7 13.6 N 42.48 CA 51.86 C 48.06 O 47.12
B ARG H 153 -63.9 -50.7 N 49.44 CA 41.58 C 51.45 O 46.38 CB 51.01 CG 66.58 CD 68.17 NE 65.88 CZ 69.7 NH1 73.88 NH2 69.23
B LEU H 111 -61.3 -43.7 N 41.41 CA 45.81 C 52.78 O 41.34 CB 41.34 CG 41.74 CD1 41.68 CD2 42.18
B ALA H 8 -60.5 -39.3 N 40.84 CA 43.44 C 46.68 O 46.97 CB 42.94
B ARG H 125 -63.2 -44.4 N 41.08 CA 43.03 C 47.1 O 46.37 CB 41.63 CG 57.49 CD 53.98 NE 60.57 CZ 64.66 NH1 62.64 NH2 66.9
B MET H 95 -59.4 -42.6 N 44.09 CA 47.62 C 47.57 O 49.72 CB 47.28 CG 47.76 SD 46.51 CE 48.39
B GLN H 89 -61.1 -46.9 N 41.67 CA 41.93 C 42.6 O 45.88 CB 41.24 CG 41.36 CD 52.21 OE1 51.47 NE2 42.56
B LEU H 17 -62.1 -37.4 N 41.68 CA 45.84 C 44.32 O 48.33 CB 47.72 CG 51.8 CD1 55.43 CD2 48.62
B ARG H 184 -63.2 -51.5 N 41.99 CA 43.58 C 51.02 O 42.73 CB 42.69 CG 53.66 CD 58.97 NE 59.33 CZ 55.69 NH1 65.58 NH2 46.28
B GLU H 130 -56.9 -39.8 N 42.5 CA 42.67 C 46.19 O 46.11 CB 42.66 CG 42.98 CD 51.66 OE1 43.58 OE2 60.05
B LEU H 36 -75.6 -30.5 N 42.2 CA 42.1 C 42.23 O 43.54 CB 41.75 CG 46.68 CD1 46.55 CD2 42.79
B THR H 25 -118.1 3.9 N 42.28 CA 46.35 C 50.63 O 51.6 CB 58.76 OG1 59.53 CG2 44.73
B GLU T 106 -51.1 -35.3 N 68.95 CA 82.58 C 89.11 O 105.48 CB 89.11 CG 93.12 CD 95.02 OE1 97.22 OE2 95.63
B ASP T 96 -121.1 12.9 N 68.12 CA 61.51 C 48.83 O 44.84 CB 64.52 CG 76.79 OD1 78.5 OD2 79.62
B VAL H 3 -64.0 -44.2 N 43.63 CA 49.47 C 58.21 O 60.07 CB 44.24 CG1 46.22 CG2 44.77
B ASP H 78 -59.8 -51.0 N 43.91 CA 47.95 C 50.05 O 53.91 CB 44.27 CG 62.83 OD1 71.42 OD2 65.4
B ASP H 37 -58.2 -35.5 N 48.15 CA 51.67 C 56.56 O 59.84 CB 50.1 CG 48.9 OD1 51.75 OD2 46.2
B LEU H 33 -68.1 -42.0 N 50.81 CA 45.01 C 53.53 O 54.18 CB 50.39 CG 60.36 CD1 52.78 CD2 64.25
B LEU H 0 -69.9 -32.6 N 44.91 CA 45.05 C 52.85 O 45.88 CB 44.73 CG 45.33 CD1 46.61 CD2 44.34
B VAL H 4 -64.3 -45.2 N 45.72 CA 46.29 C 47.08 O 48.31 CB 46.43 CG1 57.39 CG2 46.28
B LEU H 0 -67.8 -29.6 N 46.48 CA 49.93 C 47.85 O 49.95 CB 49.74 CG 46.79 CD1 48.17 CD2 47.41
B LEU H 0 -67.3 -42.9 N 46.38 CA 48.29 C 46.86 O 50.87 CB 45.97 CG 49.18 CD1 54.36 CD2 45.94
B ILE H 3 -62.4 -40.5 N 57.01 CA 53.16 C 48.29 O 54.76 CB 56.38 CG1 58.26 CG2 51.37 CD1 54.05
B MET H 0 -69.9 -26.1 N 52.38 CA 48.53 C 51.72 O 56.2 CB 50.77 CG 48.91 SD 55.18 CE 55.48
B ASP H 1 -86.2 -21.4 N 51.77 CA 55.36 C 57.19 O 66.63 CB 51.34 CG 59.0 OD1 57.84 OD2 53.78
B TYR H 3 -130.3 2.6 N 52.7 CA 48.58 C 56.64 O 59.44 CB 48.07 CG 47.83 CD1 51.33 CD2 54.19 CE1 47.96 CE2 52.63 CZ 50.89 OH 50.41
B SER - 8 -68.4 153.8 N 49.15 CA 57.62 C 62.15 O 57.01 CB 63.22 OG 72.0
B SER S 56 -67.6 -37.8 N 63.85 CA 58.55 C 59.97 O 62.46 CB 59.56 OG 68.61
B GLU S 158 -114.4 141.9 N 74.47 CA 73.75 C 77.53 O 82.28 CB 68.96 CG 74.64 CD 78.62 OE1 75.56 OE2 82.16
B GLU - 78 -44.2 141.6 N 76.37 CA 72.37 C 76.65 O 82.29 CB 70.84 CG 78.64 CD 84.13 OE1 83.89 OE2 86.41
B VAL - 26 -138.7 123.7 N 69.39 CA 55.11 C 61.62 O 71.75 CB 62.95 CG1 69.46 CG2 65.23
B GLU - 109 -60.4 157.3 N 70.76 CA 78.49 C 73.76 O 72.47 CB 81.01 CG 74.05 CD 77.77 OE1 75.02 OE2 83.7
B GLU H 55 -57.7 -43.5 N 66.21 CA 70.23 C 69.54 O 63.54 CB 73.49 CG 74.75 CD 75.1 OE1 76.35 OE2 70.11
B GLU H 148 -58.8 -44.6 N 72.91 CA 74.23 C 73.72 O 76.51 CB 75.91 CG 76.0 CD 77.63 OE1 77.86 OE2 79.79
B THR H 65 -61.8 -42.0 N 66.31 CA 65.5 C 64.82 O 54.65 CB 63.06 OG1 65.81 CG2 60.16
B ALA H 0 -60.6 -45.2 N 66.38 CA 63.73 C 59.63 O 55.01 CB 60.49
B GLN H 88 -60.6 -29.5 N 56.78 CA 57.11 C 61.82 O 64.16 CB 56.85 CG 72.41 CD 74.98 OE1 82.94 NE2 68.59
B ASN H 103 -75.6 -34.6 N 64.53 CA 64.96 C 63.61 O 56.29 CB 65.44 CG 69.82 OD1 65.8 ND2 76.42
B ILE H 31 -59.1 -48.9 N 58.89 CA 57.72 C 59.98 O 61.64 CB 64.4 CG1 66.77 CG2 58.41 CD1 71.87
B LEU H 14 -56.9 -48.3 N 56.68 CA 53.61 C 57.97 O 54.29 CB 47.83 CG 45.66 CD1 45.74 CD2 48.72
B GLN H 107 -64.3 -35.0 N 61.49 CA 59.4 C 60.92 O 66.73 CB 63.29 CG 80.42 CD 94.9 OE1 99.02 NE2 99.83
B ASP H 21 -63.1 -51.1 N 57.13 CA 60.05 C 62.41 O 66.08 CB 76.61 CG 90.01 OD1 93.37 OD2 99.32
B PHE H 1 -76.1 -13.1 N 57.75 CA 56.31 C 55.88 O 51.12 CB 59.61 CG 59.29 CD1 53.47 CD2 55.82 CE1 52.8 CE2 65.05 CZ 61.57
B ILE H 16 -79.7 -35.7 N 56.13 CA 60.04 C 75.7 O 80.19 CB 61.49 CG1 68.4 CG2 71.9 CD1 75.06
B THR T 74 -114.0 -74.2 N 78.38 CA 77.47 C 85.57 O 91.47 CB 66.44 OG1 69.65 CG2 55.48
B ARG T 182 -63.0 -69.5 N 89.3 CA 93.36 C 98.0 O 96.16 CB 92.94 CG 91.55 CD 89.19 NE 86.81 CZ 83.8 NH1 85.17 NH2 81.64
B ARG S 108 -85.6 159.2 N 106.0 CA 95.17 C 90.33 O 98.82 CB 76.0 CG 68.25 CD 80.2 NE 86.33 CZ 84.14 NH1 81.52 NH2 83.97
B GLU - 141 -93.9 131.7 N 78.09 CA 76.82 C 85.21 O 86.22 CB 71.48 CG 71.84 CD 74.99 OE1 81.25 OE2 75.41
B PRO - 15 -71.3 66.6 N 77.8 CA 71.54 C 64.19 O 61.6 CB 77.62 CG 79.28 CD 78.71
B SER - 44 -85.9 145.7 N 68.41 CA 73.75 C 71.63 O 66.95 CB 76.79 OG 75.86
B PRO H 63 -48.7 -56.3 N 69.43 CA 69.29 C 73.49 O 70.13 CB 67.08 CG 73.54 CD 69.01
B ILE H 59 -57.2 -46.6 N 73.68 CA 71.08 C 71.57 O 69.81 CB 67.03 CG1 73.29 CG2 65.36 CD1 78.23
B SER H 28 -62.3 -41.6 N 67.03 CA 66.16 C 59.64 O 58.01 CB 71.11 OG 82.68
B ILE H 1 -64.6 -45.3 N 58.23 CA 57.04 C 61.03 O 61.94 CB 57.64 CG1 53.45 CG2 46.87 CD1 48.71
B SER H 0 -66.0 -38.1 N 59.33 CA 63.25 C 67.02 O 63.26 CB 58.06 OG 63.31
B ARG H 133 -62.0 -45.0 N 64.81 CA 65.46 C 59.02 O 56.4 CB 67.35 CG 61.55 CD 66.03 NE 82.3 CZ 92.65 NH1 96.82 NH2 93.44
B VAL H 40 -64.7 -29.4 N 59.59 CA 54.58 C 62.71 O 68.01 CB 58.21 CG1 54.5 CG2 59.36
B LEU T 7 -75.9 -7.8 N 64.79 CA 67.57 C 67.32 O 63.84 CB 64.09 CG 58.24 CD1 55.07 CD2 52.86
B GLY T 46 100.3 31.7 N 63.37 CA 61.43 C 57.94 O 66.44
B TYR - 39 -120.8 113.0 N 64.33 CA 70.95 C 77.29 O 74.64 CB 68.74 CG 62.29 CD1 54.11 CD2 61.99 CE1 52.89 CE2 56.6 CZ 55.31 OH 55.1
B ASP - 117 -68.6 81.8 N 87.11 CA 93.21 C 88.6 O 93.13 CB 96.82 CG 102.54 OD1 102.39 OD2 109.21
B VAL - 7 -114.3 147.4 N 79.65 CA 81.91 C 87.89 O 80.93 CB 84.22 CG1 87.33 CG2 85.88
B GLN S 116 -125.2 1.9 N 95.8 CA 93.65 C 97.12 O 101.64 CB 92.75 CG 91.63 CD 90.4 OE1 91.38 NE2 86.98
B GLN S 115 -168.5 132.0 N 98.88 CA 101.74 C 98.48 O 100.77 CB 99.74 CG 94.37 CD 85.82 OE1 85.75 NE2 78.51
B ALA G 48 -55.2 -32.7 N 87.46 CA 83.15 C 82.52 O 82.69 CB 81.0
B ALA G 58 -63.4 -18.6 N 79.69 CA 76.1 C 75.83 O 77.33 CB 81.13
B GLN G 64 -75.0 -23.2 N 75.19 CA 72.18 C 71.79 O 76.16 CB 79.27 CG 84.61 CD 88.75 OE1 88.26 NE2 90.63
B LEU G 7 -61.1 -31.6 N 61.61 CA 55.48 C 54.2 O 55.41 CB 53.65 CG 59.49 CD1 60.12 CD2 64.29
B ASP G 87 -70.5 -15.9 N 58.95 CA 65.8 C 67.32 O 65.58 CB 66.47 CG 73.19 OD1 76.59 OD2 79.28
B ASP G 130 -97.4 -15.5 N 66.24 CA 71.94 C 67.85 O 70.43 CB 79.11 CG 90.89 OD1 87.83 OD2 97.82
B VAL - 42 -83.9 109.9 N 55.98 CA 58.19 C 63.87 O 63.65 CB 58.5 CG1 51.13 CG2 55.69
B LEU B 137 -82.8 136.1 N 51.1 CA 55.33 C 57.97 O 60.6 CB 54.5 CG 58.38 CD1 59.25 CD2 58.09
B VAL - 12 -137.8 156.0 N 50.01 CA 49.88 C 54.16 O 61.32 CB 52.18 CG1 57.18 CG2 48.88
B SER - 47 -130.3 126.3 N 49.72 CA 49.54 C 49.31 O 64.8 CB 50.96 OG 50.17
B ALA - 4 -61.1 136.2 N 60.34 CA 48.63 C 49.86 O 56.79 CB 48.13
B ARG - 46 -69.0 -33.2 N 49.23 CA 52.71 C 49.52 O 49.88 CB 53.24 CG 50.22 CD 50.7 NE 59.61 CZ 63.1 NH1 72.71 NH2 70.61
B GLY S 0 120.6 4.5 N 49.51 CA 48.81 C 60.29 O 60.82
B TYR H 1 -60.1 -45.6 N 48.63 CA 48.54 C 51.27 O 50.22 CB 50.1 CG 53.52 CD1 58.21 CD2 51.53 CE1 61.61 CE2 56.72 CZ 63.97 OH 64.41
B ARG H 25 -58.8 -46.1 N 47.58 CA 56.66 C 54.64 O 57.87 CB 54.14 CG 50.12 CD 55.2 NE 58.05 CZ 66.87 NH1 68.34 NH2 75.04
B LEU H 9 -70.2 -39.8 N 50.34 CA 50.83 C 54.24 O 55.67 CB 57.71 CG 65.21 CD1 68.21 CD2 48.29
B LEU H 2 -67.6 -38.9 N 52.03 CA 54.87 C 48.61 O 52.83 CB 49.21 CG 53.22 CD1 50.04 CD2 49.87
B LYS H 60 -77.4 -50.1 N 51.01 CA 53.51 C 57.93 O 58.96 CB 47.96 CG 48.01 CD 57.38 CE 57.77 NZ 62.54
B THR H 70 -73.7 -43.9 N 58.19 CA 60.25 C 64.41 O 84.34 CB 60.91 OG1 59.07 CG2 63.81
B VAL T 53 -100.8 -36.7 N 49.36 CA 54.36 C 65.68 O 72.94 CB 53.71 CG1 49.73 CG2 51.99
B ALA T 8 -93.8 -7.5 N 63.65 CA 57.67 C 60.17 O 61.58 CB 49.36
B ARG - 192 58.0 32.7 N 63.73 CA 62.1 C 63.8 O 67.05 CB 62.59 CG 60.88 CD 59.59 NE 59.59 CZ 62.58 NH1 59.4 NH2 68.06
B ILE - 3 -86.1 124.1 N 66.73 CA 65.69 C 65.58 O 67.06 CB 62.26 CG1 55.82 CG2 58.43 CD1 51.04
B PRO - 52 -56.4 146.0 N 65.83 CA 67.17 C 68.13 O 66.44 CB 65.14 CG 66.05 CD 67.48
B LEU H 18 -56.3 -43.8 N 69.99 CA 68.62 C 72.21 O 69.98 CB 71.38 CG 68.8 CD1 68.12 CD2 56.65
B SER H 77 -46.4 -48.3 N 81.02 CA 85.51 C 89.05 O 95.98 CB 92.93 OG 92.77
B ILE H 26 -77.7 -30.2 N 86.07 CA 75.66 C 67.16 O 64.3 CB 68.29 CG1 65.91 CG2 59.02 CD1 63.63
B GLY H 1 -50.8 -52.1 N 59.48 CA 65.41 C 60.01 O 60.05
B TYR H 23 -49.0 -44.7 N 54.56 CA 56.43 C 60.15 O 58.89 CB 62.22 CG 73.6 CD1 79.76 CD2 72.91 CE1 51.46 CE2 61.2 CZ 61.78 OH 63.94
B ASN H 42 -60.7 -35.9 N 63.31 CA 65.14 C 68.82 O 67.6 CB 71.17 CG 84.13 OD1 92.75 ND2 89.27
B VAL H 1 -69.5 -43.3 N 72.72 CA 66.66 C 60.12 O 58.73 CB 64.95 CG1 52.39 CG2 60.31
B VAL H 3 -69.1 -43.6 N 61.2 CA 67.49 C 74.77 O 75.31 CB 58.29 CG1 70.75 CG2 56.84
B ARG H 150 -56.1 -33.5 N 74.54 CA 69.12 C 70.46 O 82.03 CB 63.31 CG 56.51 CD 65.51 NE 70.33 CZ 75.79 NH1 77.2 NH2 79.07
B MET H 89 -78.1 -51.2 N 62.64 CA 66.13 C 68.15 O 64.36 CB 63.5 CG 56.27 SD 93.28 CE 70.78
B PHE H 31 -101.0 -11.4 N 68.38 CA 63.05 C 59.35 O 63.05 CB 61.91 CG 59.03 CD1 53.46 CD2 63.9 CE1 53.25 CE2 61.11 CZ 63.34
B LYS - 153 69.6 -54.2 N 54.81 CA 59.62 C 60.47 O 59.51 CB 56.76 CG 59.3 CD 63.69 CE 69.99 NZ 80.94
B THR S 36 -126.2 159.4 N 61.2 CA 59.97 C 56.68 O 58.12 CB 59.48 OG1 51.07 CG2 56.29
B LEU H 6 -54.1 -40.3 N 55.63 CA 52.39 C 50.87 O 49.78 CB 49.93 CG 54.83 CD1 48.75 CD2 51.31
B ASP H 34 -57.5 -45.3 N 49.86 CA 50.08 C 50.55 O 51.22 CB 58.56 CG 68.08 OD1 71.4 OD2 66.17
B GLN H 94 -68.0 -38.6 N 50.9 CA 59.35 C 66.76 O 51.57 CB 58.33 CG 61.52 CD 69.32 OE1 76.94 NE2 72.98
B ILE H 1 -61.1 -34.4 N 50.93 CA 50.88 C 56.22 O 50.94 CB 53.71 CG1 50.77 CG2 50.46 CD1 50.39
B SER T 31 -74.8 -6.4 N 50.4 CA 56.86 C 58.35 O 63.61 CB 49.85 OG 79.74
B LYS T 128 -109.0 -11.1 N 56.66 CA 62.33 C 63.3 O 59.71 CB 57.49 CG 53.13 CD 56.32 CE 61.05 NZ 64.36
B ALA - 13 -71.5 142.2 N 62.93 CA 58.82 C 60.71 O 52.16 CB 54.43
B SER - 47 -79.3 166.8 N 58.56 CA 53.32 C 58.12 O 54.56 CB 56.45 OG 54.4
B VAL H 19 -56.0 -48.6 N 53.56 CA 55.3 C 63.1 O 60.5 CB 67.17 CG1 77.81 CG2 68.47
B GLU H 109 -56.0 -50.0 N 64.56 CA 67.8 C 65.11 O 68.53 CB 70.23 CG 74.2 CD 78.07 OE1 76.26 OE2 83.17
B ASP H 68 -49.5 -52.5 N 55.95 CA 61.75 C 58.08 O 58.75 CB 65.76 CG 74.35 OD1 84.45 OD2 71.82
B LEU H 0 -64.7 -29.6 N 58.53 CA 66.45 C 66.19 O 61.63 CB 65.31 CG 66.23 CD1 52.07 CD2 54.9
B LYS H 55 -69.1 -21.5 N 77.43 CA 84.41 C 82.32 O 82.94 CB 79.14 CG 72.86 CD 76.73 CE 77.97 NZ 83.12
B LYS T 161 -69.7 -6.1 N 74.35 CA 75.91 C 72.4 O 70.63 CB 72.03 CG 69.41 CD 70.57 CE 71.78 NZ 71.87
B VAL S 7 -82.6 144.8 N 75.62 CA 74.58 C 81.95 O 88.85 CB 60.57 CG1 54.22 CG2 60.43
B GLU T 145 -68.9 121.4 N 84.34 CA 79.19 C 76.64 O 83.33 CB 82.24 CG 84.76 CD 87.82 OE1 83.68 OE2 86.26
B GLY T 36 103.2 3.4 N 75.26 CA 73.25 C 73.17 O 74.17
B ILE - 9 -114.7 103.4 N 74.39 CA 76.25 C 72.86 O 64.36 CB 57.83 CG1 61.6 CG2 56.43 CD1 67.96
B GLY - 42 -83.5 -168.6 N 74.3 CA 79.97 C 83.73 O 88.7
B GLU H 77 -67.0 -27.3 N 78.64 CA 73.29 C 72.68 O 73.97 CB 68.82 CG 73.64 CD 87.35 OE1 88.51 OE2 93.51
B LYS H 170 -81.4 -45.6 N 66.4 CA 63.69 C 68.38 O 68.05 CB 59.94 CG 64.81 CD 68.6 CE 71.27 NZ 77.14
B ARG H 99 -61.9 -39.5 N 67.02 CA 65.16 C 62.67 O 55.53 CB 64.47 CG 63.82 CD 69.27 NE 75.64 CZ 77.53 NH1 85.72 NH2 76.14
B ALA H 0 -58.4 -49.4 N 53.04 CA 55.13 C 61.8 O 67.26 CB 53.7
B ARG H 102 -74.4 -27.7 N 62.72 CA 67.59 C 61.53 O 59.45 CB 68.61 CG 67.77 CD 73.81 NE 79.21 CZ 84.01 NH1 80.35 NH2 91.93
B ALA H 37 -64.9 -45.1 N 51.72 CA 51.87 C 58.18 O 54.17 CB 51.12
B ILE H 0 -64.6 -46.0 N 50.81 CA 51.26 C 60.63 O 58.38 CB 57.66 CG1 51.88 CG2 50.62 CD1 51.3
B SER H 30 -75.7 -44.8 N 50.86 CA 56.79 C 50.64 O 50.38 CB 51.5 OG 70.82
B GLU H 108 -69.6 -35.7 N 55.7 CA 62.16 C 59.05 O 56.05 CB 65.38 CG 54.95 CD 71.01 OE1 85.54 OE2 80.56
B SER H 19 -66.9 -37.2 N 49.76 CA 55.78 C 55.61 O 54.05 CB 54.48 OG 67.74
B ILE H 4 -71.3 -46.1 N 51.65 CA 56.92 C 56.07 O 48.88 CB 56.96 CG1 57.22 CG2 55.69 CD1 62.94
B SER H 70 -64.1 -40.0 N 49.56 CA 56.46 C 49.55 O 62.15 CB 50.3 OG 68.69
B SER H 50 -56.1 -46.4 N 49.47 CA 59.3 C 58.65 O 60.19 CB 49.26 OG 68.22
B LEU H 8 -67.6 -37.6 N 48.49 CA 55.2 C 53.44 O 48.03 CB 47.79 CG 49.17 CD1 48.4 CD2 47.14
B LYS H 68 -63.8 -40.7 N 48.52 CA 58.01 C 61.82 O 74.1 CB 57.51 CG 60.32 CD 55.29 CE 68.23 NZ 78.07
B HIS H 167 -64.3 -53.1 N 55.34 CA 57.94 C 64.38 O 71.84 CB 64.03 CG 72.96 ND1 80.06 CD2 78.49 CE1 83.73 NE2 83.62
B ARG H 142 -69.4 -44.7 N 60.25 CA 56.83 C 65.67 O 71.36 CB 56.62 CG 58.8 CD 53.79 NE 56.07 CZ 52.02 NH1 56.86 NH2 63.49
B LYS H 97 -94.2 -19.9 N 65.37 CA 67.26 C 70.71 O 74.29 CB 64.15 CG 65.68 CD 64.57 CE 69.26 NZ 77.0
B THR - 75 -126.4 360.0 N 62.14 CA 58.28 C 70.06 O 78.39 CB 55.49 OG1 63.55 CG2 50.25
