A PHE - 102 360.0 53.8 N 62.55 CA 56.58 C 55.57 O 51.96 CB 57.27 CG 59.32 CD1 66.27 CD2 58.43 CE1 67.17 CE2 61.75 CZ 62.99
A ASN T 146 49.9 49.9 N 51.74 CA 50.8 C 54.49 O 53.12 CB 50.32 CG 56.77 OD1 44.54 ND2 43.41
A GLY T 85 77.7 -5.0 N 54.14 CA 56.54 C 59.39 O 62.45
A VAL - 39 -87.3 125.7 N 52.31 CA 51.3 C 58.49 O 57.15 CB 50.4 CG1 50.23 CG2 48.6
A SER - 64 -72.3 151.3 N 59.38 CA 63.71 C 67.86 O 65.06 CB 72.01 OG 79.34
A GLU H 109 -59.3 -35.9 N 68.16 CA 66.73 C 72.25 O 69.04 CB 72.84 CG 82.72 CD 112.27 OE1 117.2 OE2 107.1
A ALA H 67 -58.4 -45.0 N 74.05 CA 77.67 C 77.35 O 75.94 CB 85.38
A GLU H 109 -64.9 -46.4 N 71.02 CA 68.21 C 68.62 O 68.62 CB 67.7 CG 78.69 CD 96.68 OE1 94.57 OE2 85.92
A LEU H 1 -60.2 -41.5 N 62.93 CA 58.6 C 62.09 O 59.52 CB 56.71 CG 60.37 CD1 61.4 CD2 59.45
A LEU T 58 -59.4 -20.1 N 62.55 CA 63.81 C 69.82 O 69.94 CB 69.81 CG 75.31 CD1 82.16 CD2 76.7
A THR T 111 -86.9 -26.3 N 67.9 CA 69.95 C 69.25 O 71.01 CB 78.42 OG1 68.79 CG2 82.29
A LYS - 82 -70.3 154.3 N 59.41 CA 54.79 C 58.03 O 58.65 CB 52.27 CG 57.85 CD 62.36 CE 71.04 NZ 75.07
A THR - 72 -121.5 172.2 N 51.91 CA 48.63 C 46.23 O 44.93 CB 55.23 OG1 60.08 CG2 55.5
A LEU - 13 -121.3 116.0 N 36.67 CA 34.12 C 36.99 O 36.32 CB 31.13 CG 35.25 CD1 37.06 CD2 35.67
A PRO - 81 -63.3 139.5 N 36.02 CA 37.86 C 40.78 O 40.58 CB 42.45 CG 46.54 CD 38.47
A ASP - 53 -67.1 157.8 N 31.98 CA 31.46 C 39.43 O 42.16 CB 32.49 CG 40.28 OD1 41.57 OD2 50.53
A ILE B 11 -125.3 83.9 N 35.96 CA 36.19 C 39.75 O 38.91 CB 38.55 CG1 38.43 CG2 39.39 CD1 39.88
A LEU - 29 -125.1 135.7 N 35.83 CA 35.29 C 41.92 O 42.37 CB 34.52 CG 35.78 CD1 36.09 CD2 33.05
A THR - 58 -137.1 174.5 N 38.48 CA 40.69 C 44.38 O 42.05 CB 50.2 OG1 50.22 CG2 46.53
A PHE S 114 -84.3 171.2 N 42.9 CA 44.26 C 51.36 O 50.58 CB 49.35 CG 51.33 CD1 55.0 CD2 54.82 CE1 56.66 CE2 58.48 CZ 56.56
A ASN S 155 53.0 32.3 N 49.5 CA 49.61 C 50.23 O 51.53 CB 54.65 CG 75.6 OD1 74.89 ND2 67.3
A LEU - 4 -81.4 151.7 N 42.79 CA 40.14 C 42.5 O 44.2 CB 37.66 CG 40.35 CD1 36.83 CD2 41.13
A ASP S 8 -83.8 -38.5 N 37.66 CA 36.98 C 40.02 O 41.22 CB 39.09 CG 47.35 OD1 50.75 OD2 44.0
A ILE E 1 -139.2 142.0 N 36.17 CA 33.59 C 37.35 O 36.02 CB 34.56 CG1 34.64 CG2 31.87 CD1 32.03
A VAL E 0 -124.9 120.3 N 33.2 CA 31.16 C 33.56 O 33.59 CB 34.58 CG1 32.54 CG2 34.88
A ILE E 2 -88.2 118.4 N 29.31 CA 27.6 C 31.59 O 31.83 CB 29.04 CG1 31.2 CG2 28.58 CD1 30.01
A ILE E 0 -104.0 106.9 N 28.53 CA 26.47 C 30.51 O 28.91 CB 29.71 CG1 30.18 CG2 28.82 CD1 29.92
A GLY E 1 -84.0 177.1 N 28.33 CA 26.93 C 31.44 O 27.05
A ILE S 23 -75.6 -60.9 N 32.24 CA 32.18 C 37.24 O 38.96 CB 35.72 CG1 36.37 CG2 37.4 CD1 40.12
A ASN S 20 -166.7 166.5 N 33.27 CA 32.75 C 38.45 O 38.0 CB 35.8 CG 51.51 OD1 50.07 ND2 36.29
A PRO - 3 -71.2 137.5 N 34.72 CA 35.55 C 42.05 O 42.63 CB 37.4 CG 41.14 CD 35.93
A GLY - 29 -88.7 171.6 N 39.81 CA 41.44 C 47.07 O 47.14
A LEU H 22 -50.8 -49.5 N 44.42 CA 44.83 C 43.91 O 42.41 CB 47.09 CG 52.62 CD1 54.25 CD2 53.96
A MET H 62 -64.7 -36.8 N 39.63 CA 39.73 C 41.77 O 40.91 CB 42.3 CG 46.05 SD 52.93 CE 52.18
A ALA H 10 -65.8 -41.1 N 37.38 CA 35.91 C 38.42 O 38.23 CB 35.37
A ALA H 0 -65.8 -40.2 N 35.11 CA 35.9 C 41.96 O 43.79 CB 37.64
A TYR H 57 -59.6 -50.6 N 38.74 CA 38.93 C 41.99 O 42.47 CB 39.69 CG 43.34 CD1 45.02 CD2 46.34 CE1 44.81 CE2 49.01 CZ 51.11 OH 51.84
A LYS H 98 -81.5 -29.6 N 36.19 CA 34.3 C 39.04 O 41.02 CB 32.56 CG 30.0 CD 30.09 CE 36.15 NZ 39.18
A GLY T 23 76.4 19.8 N 33.84 CA 34.05 C 37.48 O 36.27
A HIS S 47 -130.1 155.6 N 34.33 CA 32.64 C 32.34 O 31.79 CB 33.69 CG 38.64 ND1 40.55 CD2 42.17 CE1 41.91 NE2 43.16
A HIS S 2 -81.5 132.4 N 27.14 CA 26.27 C 30.38 O 29.12 CB 26.92 CG 30.56 ND1 32.69 CD2 32.56 CE1 32.45 NE2 33.09
A TYR - 26 51.4 54.7 N 28.32 CA 28.78 C 33.6 O 32.84 CB 27.83 CG 26.32 CD1 27.35 CD2 26.28 CE1 26.56 CE2 25.51 CZ 31.01 OH 30.53
A PRO - 16 -78.0 -12.0 N 32.24 CA 33.86 C 42.11 O 43.58 CB 35.26 CG 37.12 CD 32.81
A GLY - 24 -37.9 106.1 N 39.5 CA 42.49 C 51.68 O 52.53
A PRO T 128 -49.6 -20.7 N 49.77 CA 50.41 C 51.97 O 52.63 CB 54.19 CG 58.01 CD 51.99
A GLY T 42 -106.1 -18.3 N 44.63 CA 43.39 C 45.79 O 45.56
A ASN - 42 -57.1 138.8 N 39.37 CA 37.95 C 40.47 O 40.87 CB 33.18 CG 36.55 OD1 36.22 ND2 30.98
A HIS S 21 -90.7 -4.3 N 33.27 CA 30.15 C 32.97 O 33.26 CB 30.05 CG 33.9 ND1 36.79 CD2 36.58 CE1 38.23 NE2 38.97
A PHE H 0 -52.7 -57.1 N 30.67 CA 29.68 C 34.57 O 33.23 CB 30.3 CG 30.55 CD1 30.78 CD2 30.06 CE1 30.38 CE2 31.81 CZ 28.88
A TRP H 16 -65.6 -39.9 N 32.3 CA 33.4 C 35.7 O 35.29 CB 32.93 CG 33.34 CD1 35.28 CD2 33.62 NE1 34.99 CE2 36.77 CE3 35.76 CZ2 35.37 CZ3 37.24 CH2 36.77
A LYS H 122 -60.1 -48.9 N 33.42 CA 35.61 C 36.78 O 36.27 CB 39.87 CG 55.45 CD 59.68 CE 71.29 NZ 78.07
A CYS H 0 -65.6 -33.4 N 32.35 CA 32.38 C 35.3 O 36.6 CB 30.93 SG 35.51
A LEU H 0 -64.8 -32.7 N 29.99 CA 29.65 C 38.77 O 41.05 CB 28.22 CG 31.55 CD1 30.56 CD2 32.72
A PHE H 82 -84.3 -50.4 N 36.43 CA 37.29 C 44.41 O 47.71 CB 38.52 CG 41.64 CD1 46.54 CD2 44.48 CE1 50.1 CE2 50.94 CZ 50.29
A MET H 77 -56.9 -27.9 N 40.42 CA 42.08 C 44.91 O 47.09 CB 44.4 CG 48.89 SD 52.61 CE 51.81
A SER T 5 -85.1 -16.6 N 39.53 CA 38.72 C 44.68 O 44.61 CB 37.77 OG 36.59
A GLY T 40 86.5 14.5 N 43.27 CA 44.48 C 48.12 O 50.43
A LEU S 4 -74.2 -19.8 N 41.39 CA 39.12 C 42.91 O 43.43 CB 36.6 CG 40.47 CD1 37.55 CD2 41.68
A SER S 1 -130.7 138.0 N 39.32 CA 40.51 C 45.67 O 45.35 CB 42.75 OG 48.38
A GLU S 134 -81.6 -12.2 N 46.13 CA 48.57 C 53.89 O 56.44 CB 52.5 CG 64.38 CD 79.59 OE1 71.18 OE2 70.56
A VAL S 71 -135.6 159.4 N 50.27 CA 50.06 C 49.63 O 47.15 CB 54.97 CG1 57.42 CG2 53.51
A GLN - 91 -72.6 107.8 N 45.53 CA 41.48 C 42.73 O 42.31 CB 43.4 CG 40.45 CD 45.36 OE1 41.31 NE2 43.25
A LEU - 17 -95.1 178.3 N 37.22 CA 35.27 C 38.39 O 36.37 CB 33.73 CG 39.23 CD1 38.54 CD2 39.4
A ASN - 71 -143.9 173.8 N 35.78 CA 35.03 C 36.06 O 34.69 CB 37.18 CG 52.17 OD1 42.98 ND2 50.25
A HIS G 31 -47.2 -35.6 N 32.92 CA 32.55 C 38.61 O 38.1 CB 32.57 CG 36.95 ND1 39.84 CD2 38.49 CE1 39.26 NE2 39.6
A MET G 130 -62.6 -19.4 N 37.63 CA 39.19 C 41.69 O 41.46 CB 44.31 CG 49.58 SD 57.74 CE 56.15
A ASP G 46 -91.6 -5.3 N 36.28 CA 35.75 C 37.07 O 39.01 CB 37.57 CG 46.24 OD1 49.46 OD2 45.33
A ASP G 0 -53.0 -34.2 N 31.06 CA 30.78 C 35.72 O 36.07 CB 29.87 CG 34.54 OD1 35.27 OD2 37.37
A HIS G 107 -70.0 -21.6 N 32.89 CA 33.58 C 39.34 O 39.78 CB 35.65 CG 38.74 ND1 39.42 CD2 40.6 CE1 38.07 NE2 39.1
A THR G 76 -84.1 -12.4 N 37.29 CA 38.8 C 43.98 O 45.73 CB 42.56 OG1 42.32 CG2 37.11
A LEU H 0 -64.2 -42.7 N 39.13 CA 36.96 C 42.9 O 43.22 CB 34.46 CG 38.32 CD1 38.93 CD2 38.4
A PRO H 21 -56.5 -52.8 N 41.41 CA 42.75 C 48.99 O 50.07 CB 43.81 CG 45.61 CD 41.37
A GLY H 82 -71.7 -35.5 N 47.8 CA 49.49 C 52.63 O 54.22
A LYS H 70 -92.6 -37.3 N 45.7 CA 46.45 C 48.5 O 49.92 CB 49.39
A TYR H 45 -119.5 -4.7 N 42.05 CA 40.51 C 43.86 O 44.01 CB 39.33 CG 41.64 CD1 45.24 CD2 40.69 CE1 46.26 CE2 41.18 CZ 51.73 OH 54.23
A GLY S 11 70.8 32.5 N 40.1 CA 39.31 C 40.54 O 39.97
A ILE E 1 -121.5 132.7 N 34.5 CA 31.69 C 34.68 O 34.21 CB 32.88 CG1 33.6 CG2 30.75 CD1 30.9
A GLY E 0 -121.0 177.6 N 30.76 CA 30.58 C 33.5 O 31.89
A PHE E 0 -141.4 143.4 N 30.01 CA 28.43 C 33.03 O 33.8 CB 28.6 CG 29.64 CD1 31.08 CD2 31.28 CE1 32.22 CE2 33.15 CZ 32.0
A THR E 1 -152.7 -175.2 N 29.52 CA 29.66 C 35.0 O 35.04 CB 36.86 OG1 31.52 CG2 30.65
A ASN E 16 -140.7 149.8 N 32.49 CA 31.16 C 34.92 O 35.63 CB 30.89 CG 47.3 OD1 40.16 ND2 41.71
A MET S 3 -61.7 -40.7 N 31.62 CA 33.01 C 38.57 O 40.37 CB 34.87 CG 38.36 SD 41.66 CE 40.8
A VAL - 8 -125.1 134.1 N 35.89 CA 35.24 C 38.88 O 33.79 CB 39.01 CG1 40.27 CG2 39.6
A GLU - 139 -72.6 -41.1 N 37.51 CA 37.45 C 42.46 O 42.23 CB 40.11 CG 50.87 CD 60.89 OE1 38.41 OE2 43.12
A ARG S 103 -61.3 132.0 N 41.06 CA 42.73 C 44.2 O 44.35 CB 45.69 CG 60.4 CD 74.2 NE 77.43 CZ 90.37 NH1 78.96 NH2 73.69
A THR - 1 -82.2 134.4 N 38.27 CA 38.48 C 44.65 O 45.66 CB 44.85 OG1 45.54 CG2 38.92
A THR - 2 -149.9 157.2 N 45.15 CA 48.54 C 54.59 O 54.22 CB 52.63 OG1 52.48 CG2 47.9
A PRO S 59 -65.4 -29.7 N 72.22 CA 74.16 C 76.5 O 77.87 CB 78.44 CG 84.35 CD 75.66
A GLY S 15 -141.4 162.9 N 69.09 CA 66.06 C 65.87 O 64.39
A SER G 53 -65.2 -20.4 N 59.54 CA 56.57 C 59.23 O 57.15 CB 59.34 OG 66.17
A LYS G 199 -86.0 -1.1 N 56.86 CA 57.19 C 59.81 O 59.68 CB 61.46 CG 71.35 CD 77.7 CE 82.07 NZ 86.89
A ASP G 87 -90.1 -8.5 N 54.99 CA 55.45 C 56.37 O 57.6 CB 58.53 CG 72.79 OD1 76.83 OD2 78.47
A LEU S 16 -93.3 134.4 N 50.53 CA 48.89 C 50.9 O 50.46 CB 46.74 CG 51.44 CD1 49.48 CD2 56.36
A SER - 57 -82.9 160.4 N 47.69 CA 50.35 C 54.59 O 51.39 CB 55.31 OG 62.79
A SER H 68 -59.6 -38.7 N 54.31 CA 55.45 C 61.64 O 60.61 CB 62.75 OG 71.12
A LYS H 62 -62.5 -42.0 N 60.03 CA 59.3 C 55.76 O 52.41 CB 65.72
A GLU H 36 -61.9 -48.0 N 50.11 CA 46.04 C 47.79 O 46.95 CB 46.54 CG 58.02 CD 77.08 OE1 64.63 OE2 66.52
A PHE H 17 -59.1 -43.2 N 42.79 CA 40.77 C 45.02 O 42.3 CB 43.32 CG 42.72 CD1 42.82 CD2 45.8 CE1 42.69 CE2 47.28 CZ 43.67
A ARG H 126 -74.2 -32.8 N 46.53 CA 46.31 C 48.26 O 46.54 CB 46.88 CG 50.39 CD 63.37 NE 69.2 CZ 83.27 NH1 77.5 NH2 66.34
A GLU H 107 -66.4 -37.7 N 45.84 CA 46.03 C 46.05 O 45.82 CB 48.66 CG 56.01 CD 73.5 OE1 70.1 OE2 69.76
A GLY H 9 -66.8 -42.6 N 40.63 CA 38.07 C 39.2 O 38.17
A GLY H 0 -62.0 -37.2 N 35.05 CA 36.48 C 41.99 O 42.69
A ARG H 132 -67.0 -43.6 N 39.74 CA 40.36 C 44.98 O 46.17 CB 41.35 CG 50.0 CD 60.36 NE 61.36 CZ 66.09 NH1 46.73 NH2 48.96
A ILE H 60 -66.4 -40.8 N 39.97 CA 39.28 C 40.81 O 41.43 CB 41.88 CG1 44.18 CG2 41.81 CD1 46.97
A LEU H 3 -66.6 -42.5 N 36.05 CA 34.71 C 38.42 O 37.43 CB 33.83 CG 38.03 CD1 36.4 CD2 39.68
A VAL H 19 -64.3 -36.5 N 38.05 CA 40.58 C 45.47 O 46.08 CB 45.86 CG1 47.55 CG2 46.87
A GLN H 107 -67.3 -41.5 N 43.0 CA 44.86 C 44.25 O 43.37 CB 47.26 CG 52.78 CD 83.29 OE1 93.95 NE2 70.04
A LYS H 61 -61.0 -43.5 N 38.26 CA 37.59 C 43.53 O 45.26 CB 37.3 CG 31.43 CD 37.07 CE 42.55 NZ 38.75
A LEU H 3 -68.4 -36.1 N 39.88 CA 39.27 C 43.54 O 42.26 CB 37.43 CG 37.23 CD1 35.99 CD2 35.07
A GLN H 60 -68.6 -27.5 N 41.65 CA 43.15 C 47.99 O 48.87 CB 45.23 CG 45.37 CD 52.02 OE1 50.17 NE2 47.66
A LYS H 124 -79.9 -54.0 N 44.84 CA 45.58 C 48.95 O 51.77 CB 46.29 CG 52.04 CD 54.65 CE 66.55 NZ 79.0
A TYR H 51 -80.3 -27.1 N 42.23 CA 41.79 C 46.58 O 46.95 CB 39.48 CG 40.04 CD1 44.06 CD2 39.28 CE1 45.17 CE2 40.75 CZ 50.78 OH 52.79
A GLN - 103 44.4 61.7 N 42.22 CA 41.0 C 42.84 O 43.3 CB 44.39 CG 47.79 CD 63.63 OE1 61.42 NE2 59.8
A PRO - 1 -66.2 162.9 N 35.07 CA 35.35 C 40.47 O 40.52 CB 33.74 CG 35.9 CD 33.42
A ARG S 86 -62.1 -36.7 N 38.29 CA 39.4 C 41.68 O 43.34 CB 40.68 CG 57.38 CD 71.37 NE 81.26 CZ 98.19 NH1 84.24 NH2 90.04
A ILE E 0 -139.4 129.6 N 34.04 CA 30.92 C 33.86 O 33.61 CB 31.84 CG1 32.67 CG2 28.45 CD1 38.94
A ALA E 0 -94.9 114.8 N 30.43 CA 29.59 C 32.92 O 31.55 CB 31.28
A VAL E 0 -99.5 115.3 N 28.51 CA 26.48 C 31.12 O 32.75 CB 27.34 CG1 26.1 CG2 27.55
A PHE E 0 -89.3 104.9 N 28.24 CA 26.16 C 30.58 O 31.89 CB 26.87 CG 28.45 CD1 28.95 CD2 27.98 CE1 28.56 CE2 30.57 CZ 28.78
A ASN E 2 -83.3 75.1 N 26.33 CA 25.32 C 28.21 O 27.02 CB 28.51 CG 36.47 OD1 27.23 ND2 26.82
A GLY S 1 140.8 135.4 N 25.66 CA 25.92 C 29.82 O 27.91
A LYS H 63 -71.6 -47.1 N 29.91 CA 31.45 C 39.09 O 38.58 CB 33.83 CG 39.68 CD 37.91 CE 43.09 NZ 47.17
A CYS H 42 -47.9 -47.5 N 39.12 CA 41.12 C 41.45 O 43.34 CB 44.59 SG 48.74
A ILE H 0 -69.6 -31.1 N 35.18 CA 33.73 C 38.25 O 39.66 CB 35.44 CG1 34.3 CG2 34.87 CD1 36.13
A TYR H 1 -75.0 -34.5 N 32.66 CA 34.23 C 40.57 O 41.54 CB 33.61 CG 34.79 CD1 36.72 CD2 36.14 CE1 36.01 CE2 37.76 CZ 42.58 OH 42.07
A GLU H 97 -56.2 -48.2 N 40.14 CA 42.66 C 44.34 O 44.42 CB 45.59 CG 62.64 CD 93.6 OE1 90.0 OE2 89.94
A ILE H 40 -66.9 -49.5 N 39.99 CA 40.4 C 43.27 O 43.44 CB 42.02 CG1 42.19 CG2 40.08 CD1 44.9
A PHE H 0 -52.0 -52.7 N 39.19 CA 37.86 C 43.73 O 43.93 CB 37.07 CG 37.73 CD1 39.13 CD2 38.7 CE1 40.63 CE2 41.27 CZ 39.67
A SER H 2 -55.1 -45.8 N 41.87 CA 43.41 C 49.74 O 48.56 CB 45.73 OG 58.9
A LYS H 137 -65.0 -43.7 N 48.31 CA 50.25 C 52.52 O 53.21 CB 54.17 CG 69.82 CD 76.45 CE 80.34 NZ 83.67
A GLU H 67 -76.1 -42.6 N 45.54 CA 44.66 C 50.29 O 50.41 CB 43.37 CG 48.19 CD 58.8 OE1 52.13 OE2 48.74
A VAL H 34 -94.5 -37.0 N 46.95 CA 47.32 C 53.48 O 54.31 CB 47.46 CG1 47.84 CG2 45.98
A PHE H 40 -105.1 -9.1 N 51.11 CA 52.18 C 60.81 O 63.09 CB 51.55 CG 50.52 CD1 54.23 CD2 49.57 CE1 53.19 CE2 50.61 CZ 48.74
A GLY - 68 69.3 20.5 N 58.38 CA 61.68 C 66.74 O 66.81
A VAL - 53 -111.4 116.1 N 62.5 CA 63.42 C 69.88 O 67.7 CB 66.57 CG1 66.23 CG2 68.28
A LYS - 79 -98.3 110.9 N 71.44 CA 71.82 C 77.55 O 79.88 CB 77.73
A VAL - 60 -77.7 126.7 N 73.28 CA 72.43 C 75.9 O 76.82 CB 73.29 CG1 73.57 CG2 71.57
A LYS S 112 -72.6 -61.6 N 70.42 CA 70.71 C 72.7 O 72.41 CB 76.2
A ASN S 78 -113.5 82.1 N 67.1 CA 65.15 C 63.95 O 63.99 CB 69.27
A LEU - 18 -72.8 127.8 N 55.45 CA 50.54 C 46.64 O 46.11 CB 49.88 CG 52.97 CD1 53.51 CD2 52.91
A GLU - 141 -108.9 163.7 N 37.71 CA 35.93 C 38.47 O 37.94 CB 37.66 CG 43.75 CD 54.6 OE1 43.72 OE2 54.2
A PHE S 46 -80.4 174.8 N 32.7 CA 31.31 C 37.2 O 37.04 CB 32.2 CG 31.89 CD1 33.06 CD2 35.06 CE1 35.03 CE2 37.68 CZ 34.12
A GLY E 10 83.2 -159.7 N 33.19 CA 34.81 C 39.18 O 36.71
A LEU E 94 -61.7 129.2 N 37.52 CA 37.48 C 41.99 O 39.93 CB 39.09 CG 44.56 CD1 42.99 CD2 47.22
A GLN - 23 -99.9 153.4 N 40.97 CA 40.69 C 47.04 O 47.26 CB 39.89 CG 30.02 CD 43.19 OE1 39.49 NE2 29.55
A PRO S 110 -78.7 -4.3 N 45.45 CA 47.21 C 51.31 O 53.0 CB 50.47 CG 52.29 CD 46.83
A HIS - 69 -114.9 135.9 N 46.59 CA 47.13 C 49.32 O 47.68 CB 47.88 CG 52.57 ND1 53.23 CD2 55.74 CE1 54.1 NE2 56.27
A LYS - 103 -85.5 152.7 N 46.32 CA 45.64 C 46.86 O 45.75 CB 49.73 CG 54.79 CD 66.86 CE 73.16 NZ 82.89
A ILE - 0 -58.9 132.7 N 43.08 CA 42.46 C 49.12 O 48.52 CB 44.51 CG1 43.04 CG2 44.13 CD1 47.16
A PRO T 45 -55.8 134.2 N 47.35 CA 49.44 C 55.23 O 55.21 CB 51.09 CG 53.11 CD 47.39
A ASP T 156 68.5 23.0 N 53.16 CA 55.62 C 57.5 O 58.37 CB 59.05 CG 72.25 OD1 75.59 OD2 77.65
A THR S 13 -139.8 174.3 N 51.73 CA 49.46 C 50.96 O 50.83 CB 50.59 OG1 52.9 CG2 41.4
A GLU - 143 -105.0 15.5 N 46.56 CA 45.95 C 48.89 O 51.31 CB 49.27 CG 52.59 CD 72.03 OE1 76.57 OE2 62.94
A THR - 3 -76.6 124.7 N 43.52 CA 38.64 C 41.39 O 41.23 CB 40.12 OG1 40.08 CG2 36.4
A LEU E 31 -87.8 160.1 N 38.32 CA 37.28 C 39.25 O 36.82 CB 38.29 CG 46.3 CD1 46.05 CD2 48.81
A CYS E 0 -115.6 121.9 N 36.69 CA 35.64 C 37.48 O 38.08 CB 35.6 SG 39.05
A TYR E 9 -123.9 126.9 N 34.09 CA 31.91 C 34.5 O 34.83 CB 32.2 CG 32.85 CD1 35.49 CD2 33.93 CE1 39.48 CE2 34.62 CZ 42.09 OH 43.48
A VAL E 0 -111.6 137.1 N 31.34 CA 30.59 C 35.07 O 36.03 CB 35.03 CG1 34.3 CG2 36.78
A MET E 0 -133.2 156.3 N 32.14 CA 31.19 C 32.33 O 30.95 CB 33.0 CG 37.8 SD 42.29 CE 36.8
A PRO - 4 -65.8 146.5 N 28.62 CA 26.97 C 30.99 O 31.52 CB 29.96 CG 35.38 CD 30.6
A SER - 25 -53.4 136.3 N 26.89 CA 26.84 C 31.69 O 30.15 CB 31.1 OG 37.13
A SER S 0 -68.4 -11.4 N 28.67 CA 28.66 C 32.47 O 30.06 CB 27.74 OG 27.95
A SER - 38 -61.5 135.0 N 29.28 CA 29.99 C 37.87 O 38.18 CB 30.51 OG 36.02
A ALA T 51 -77.0 0.9 N 35.01 CA 33.0 C 34.17 O 34.47 CB 33.65
A ARG T 197 -67.4 -27.2 N 30.45 CA 32.98 C 39.25 O 40.78 CB 32.53 CG 46.05 CD 61.77 NE 63.48 CZ 60.26 NH1 41.73 NH2 43.03
A CYS - 29 -71.9 105.8 N 35.77 CA 38.25 C 38.9 O 39.2 CB 38.9 SG 44.34
A ALA T 80 -73.4 -23.6 N 33.72 CA 33.69 C 39.97 O 40.74 CB 35.62
A GLN T 156 -70.8 -22.7 N 38.35 CA 37.03 C 37.52 O 35.98 CB 37.29 CG 40.96 CD 45.7 OE1 40.76 NE2 42.47
A PHE S 40 -128.4 69.9 N 34.27 CA 33.06 C 35.72 O 35.2 CB 32.97 CG 34.69 CD1 35.91 CD2 38.97 CE1 37.41 CE2 40.46 CZ 38.01
A PRO - 79 -64.1 -20.9 N 34.25 CA 34.04 C 37.46 O 36.91 CB 37.78 CG 42.86 CD 37.44
A ARG S 136 -123.4 164.9 N 32.91 CA 33.12 C 37.92 O 36.14 CB 30.41 CG 41.04 CD 36.13 NE 51.86 CZ 65.2 NH1 54.57 NH2 43.43
A ALA G 4 -62.1 -37.9 N 34.4 CA 33.71 C 37.19 O 36.0 CB 34.01
A GLN G 100 -55.2 -35.1 N 35.33 CA 35.53 C 37.87 O 40.95 CB 37.75 CG 53.83 CD 77.79 OE1 70.26 NE2 75.36
A ASP G 50 -76.3 -7.6 N 33.5 CA 33.97 C 37.01 O 34.85 CB 35.93 CG 39.39 OD1 42.64 OD2 43.22
A LYS T 0 -111.6 -18.1 N 33.49 CA 32.94 C 37.5 O 37.41 CB 32.43 CG 30.85 CD 32.35 CE 33.09 NZ 28.24
A VAL H 7 -52.3 -35.1 N 32.89 CA 33.41 C 37.49 O 37.95 CB 38.8 CG1 38.98 CG2 40.99
A HIS H 102 -48.2 -48.5 N 35.51 CA 35.08 C 39.2 O 40.97 CB 35.65 CG 38.67 ND1 42.85 CD2 40.37 CE1 42.47 NE2 41.69
A TYR H 43 -63.7 -35.2 N 33.62 CA 34.36 C 38.04 O 37.26 CB 34.42 CG 39.02 CD1 42.49 CD2 40.67 CE1 45.2 CE2 42.76 CZ 53.95 OH 63.7
A TYR H 0 -72.6 -36.1 N 33.93 CA 33.16 C 36.82 O 36.44 CB 33.98 CG 32.28 CD1 33.7 CD2 32.33 CE1 35.17 CE2 31.09 CZ 34.74 OH 29.35
A ILE H 63 -66.9 -47.1 N 33.07 CA 34.72 C 39.78 O 43.57 CB 38.19 CG1 37.64 CG2 38.54 CD1 40.58
A LYS H 96 -62.4 -34.1 N 35.84 CA 36.56 C 40.64 O 44.6 CB 37.08 CG 45.7 CD 60.53 CE 77.78 NZ 94.44
A LEU H 0 -63.6 -48.2 N 32.68 CA 31.98 C 39.89 O 42.93 CB 30.08 CG 33.07 CD1 31.74 CD2 30.37
A LYS H 52 -56.3 -50.8 N 37.32 CA 38.85 C 45.26 O 47.34 CB 40.18 CG 47.52 CD 49.75 CE 50.16 NZ 60.36
A ASP H 75 -53.5 -49.3 N 41.48 CA 42.53 C 47.74 O 51.05 CB 42.74 CG 46.53 OD1 45.0 OD2 49.55
A LEU H 17 -59.1 -43.8 N 41.37 CA 41.94 C 48.46 O 52.51 CB 39.56 CG 43.4 CD1 44.54 CD2 40.37
A ARG H 34 -60.3 -51.5 N 43.67 CA 45.11 C 54.73 O 56.36 CB 41.71 CG 46.0 CD 51.55 NE 55.48 CZ 62.71 NH1 54.17 NH2 54.87
A ASP H 79 -59.4 -33.0 N 52.52 CA 56.0 C 63.29 O 67.93 CB 58.5 CG 63.87 OD1 63.29 OD2 69.39
A GLN H 137 -69.1 -50.4 N 57.75 CA 59.14 C 63.39 O 65.52 CB 58.78 CG 81.67 CD 107.59 OE1 102.38 NE2 103.76
A LEU H 43 -62.8 -36.1 N 56.91 CA 56.77 C 64.51 O 68.08 CB 53.2 CG 54.65 CD1 52.77 CD2 53.46
A LYS H 94 -71.6 -32.8 N 59.93 CA 62.24 C 74.8 O 77.95 CB 61.75 CG 57.88 CD 70.91 CE 88.18 NZ 96.71
A GLY H 52 -72.8 -41.7 N 73.71 CA 78.02 C 86.29 O 89.27
A ILE - 85 -68.6 -16.8 N 82.56 CA 84.8 C 92.59 O 95.27 CB 84.91
A GLU - 177 73.0 360.0 N 88.37 CA 111.99 C 129.7 O 84.48 CB 118.13 CG 128.94 CD 143.57 OE1 135.48 OE2 132.06
