A THR - 94 360.0 9.6 N 79.06 CA 79.12 C 79.05 O 78.94 CB 80.4 OG1 80.19 CG2 81.1
A GLN - 103 -74.5 165.3 N 76.77 CA 76.26 C 75.19 O 74.71 CB 76.4 CG 76.7 CD 77.55 OE1 78.0 NE2 77.1
A PRO H 75 -53.7 -29.9 N 73.66 CA 72.78 C 71.99 O 71.17 CB 72.7 CG 73.8 CD 74.17
A MET H 42 -67.7 -39.4 N 72.19 CA 71.91 C 71.93 O 71.35 CB 72.43 CG 72.46 SD 73.62 CE 74.32
A ILE H 15 -70.3 -35.5 N 71.6 CA 71.53 C 70.93 O 70.9 CB 72.67 CG1 73.36 CG2 72.48 CD1 73.09
A LYS H 70 -63.0 -38.2 N 71.17 CA 71.07 C 70.32 O 70.13 CB 71.13 CG 70.6 CD 70.91 CE 70.84 NZ 71.35
A LYS H 92 -71.1 -40.1 N 69.78 CA 69.08 C 69.07 O 68.83 CB 68.85 CG 68.91 CD 68.78 CE 68.82 NZ 68.58
A ILE H 3 -55.7 -45.7 N 66.89 CA 67.12 C 67.28 O 67.07 CB 67.81 CG1 67.93 CG2 67.99 CD1 68.49
A MET H 0 -72.4 -28.4 N 68.1 CA 68.26 C 67.63 O 67.59 CB 68.57 CG 69.29 SD 70.16 CE 70.4
A SER H 47 -68.1 -40.2 N 68.37 CA 67.96 C 67.53 O 67.44 CB 67.43 OG 67.44
A ARG H 63 -70.2 -35.2 N 66.46 CA 66.54 C 67.11 O 67.07 CB 66.5 CG 66.07 CD 66.04 NE 66.62 CZ 66.98 NH1 66.5 NH2 67.38
A LEU H 0 -59.8 -44.9 N 65.1 CA 65.7 C 65.48 O 65.57 CB 66.33 CG 66.44 CD1 66.69 CD2 67.03
A PHE H 10 -61.4 -42.5 N 67.82 CA 67.96 C 67.72 O 67.76 CB 67.62 CG 68.16 CD1 67.74 CD2 68.69 CE1 68.0 CE2 68.78 CZ 68.43
A SER H 41 -63.0 -26.4 N 65.14 CA 64.68 C 65.26 O 65.15 CB 63.96 OG 63.84
A ALA T 45 -74.1 -8.3 N 63.42 CA 63.91 C 64.45 O 64.86 CB 64.26
A PHE T 25 -117.0 -3.1 N 66.08 CA 66.63 C 66.48 O 66.95 CB 66.89 CG 67.25 CD1 67.69 CD2 67.03 CE1 68.14 CE2 67.4 CZ 68.05
A ASP S 10 -135.4 64.4 N 68.39 CA 67.86 C 67.42 O 66.88 CB 67.77 CG 67.54 OD1 67.73 OD2 67.11
A VAL T 110 -65.4 -26.5 N 63.46 CA 63.38 C 63.1 O 62.54 CB 63.85 CG1 64.07 CG2 63.98
A THR T 105 -96.5 5.0 N 66.38 CA 65.91 C 65.74 O 65.6 CB 66.44 OG1 66.67 CG2 66.06
A HIS - 138 55.4 47.9 N 68.06 CA 67.92 C 67.96 O 67.56 CB 67.39 CG 67.61 ND1 67.95 CD2 67.22 CE1 67.64 NE2 67.17
A LEU - 85 -59.9 -26.5 N 70.17 CA 70.5 C 70.53 O 70.75 CB 71.06 CG 71.48 CD1 71.78 CD2 71.27
A GLY S 41 95.9 -4.5 N 72.38 CA 72.42 C 72.98 O 73.35
A TYR E 77 -152.1 169.7 N 73.91 CA 74.8 C 75.03 O 74.87 CB 75.01 CG 75.12 CD1 75.62 CD2 74.7 CE1 75.7 CE2 74.75 CZ 75.4 OH 75.76
A LEU E 8 -96.2 121.9 N 74.02 CA 74.46 C 74.9 O 75.23 CB 74.83 CG 74.67 CD1 74.75 CD2 74.2
A THR - 38 -65.5 165.3 N 76.45 CA 76.97 C 77.8 O 77.73 CB 77.06 OG1 77.47 CG2 76.41
A PRO H 105 -56.8 -45.5 N 77.48 CA 77.97 C 78.08 O 78.51 CB 78.88 CG 78.78 CD 77.82
A ASP H 114 -58.1 -38.9 N 78.85 CA 79.0 C 78.53 O 78.77 CB 79.0 CG 79.8 OD1 80.6 OD2 80.01
A LYS H 64 -70.2 -30.1 N 76.46 CA 76.1 C 76.26 O 75.95 CB 75.32 CG 75.21 CD 75.26 CE 75.21 NZ 75.47
A VAL H 9 -66.6 -45.6 N 76.3 CA 76.57 C 77.05 O 77.14 CB 76.59 CG1 77.51 CG2 76.71
A GLU H 108 -62.3 -38.4 N 79.37 CA 80.15 C 79.89 O 80.2 CB 80.88 CG 81.62 CD 82.88 OE1 83.96 OE2 83.12
A GLU H 87 -69.6 -38.5 N 76.02 CA 75.96 C 75.25 O 75.38 CB 75.26 CG 75.78 CD 75.87 OE1 75.5 OE2 76.32
A VAL H 1 -70.7 -28.5 N 72.38 CA 72.47 C 73.28 O 73.2 CB 72.12 CG1 72.64 CG2 71.87
A CYS H 2 -73.1 -43.5 N 75.13 CA 75.73 C 76.02 O 76.19 CB 76.01 SG 76.07
A ARG H 87 -59.6 -31.0 N 74.91 CA 75.37 C 75.35 O 75.75 CB 75.6 CG 76.75
A TYR H 26 -80.5 -52.5 N 70.93 CA 70.57 C 70.71 O 71.08 CB 69.92 CG 69.41 CD1 69.72 CD2 68.83 CE1 69.49 CE2 68.86 CZ 69.16 OH 69.11
A LEU H 1 -60.4 -32.6 N 72.99 CA 73.52 C 74.32 O 74.79 CB 73.18 CG 72.59 CD1 72.7 CD2 72.22
A GLY G 8 -82.4 -0.9 N 75.73 CA 76.43 C 76.97 O 77.78
A ARG G 169 -59.2 -28.8 N 76.56 CA 77.02 C 77.63 O 78.25 CB 76.48 CG 77.12 CD 76.83 NE 76.33 CZ 76.44 NH1 76.7 NH2 75.66
A ASN G 101 -105.6 30.1 N 78.45 CA 79.24 C 79.86 O 80.11 CB 79.23 CG 79.34 OD1 78.81 ND2 79.4
A MET - 42 -133.2 177.9 N 82.34 CA 82.6 C 82.93 O 82.44 CB 82.36 CG 81.66 SD 81.62 CE 80.56
A SER - 87 -99.3 -91.1 N 84.98 CA 85.53 C 85.62 O 85.73 CB 85.92 OG 86.4
A ASP S 109 -156.3 -22.9 N 90.89 CA 90.83 C 90.96 O 90.63 CB 90.93 CG 90.6 OD1 89.62 OD2 91.58
A GLY H 54 -54.9 -56.6 N 90.71 CA 90.62 C 90.35 O 90.48
A ASP H 80 -82.3 -21.6 N 89.49 CA 89.19 C 88.49 O 87.69 CB 89.0 CG 89.81 OD1 90.36 OD2 89.56
A VAL H 19 -75.8 -43.5 N 89.22 CA 88.6 C 88.82 O 88.49 CB 88.61 CG1 87.57 CG2 88.32
A LYS H 164 -57.5 -45.7 N 90.45 CA 90.83 C 90.34 O 89.91 CB 91.71 CG 92.59 CD 93.55 CE 95.0 NZ 95.66
A ALA H 44 -60.6 -26.3 N 89.55 CA 89.64 C 89.16 O 89.04 CB 90.12
A MET H 5 -80.9 -54.6 N 86.78 CA 85.88 C 85.26 O 85.02 CB 85.46 CG 84.24 SD 83.4 CE 84.03
A LYS H 59 -63.3 -34.5 N 87.64 CA 87.45 C 87.87 O 87.58 CB 87.56 CG 86.84 CD 87.13 CE 86.9 NZ 87.21
A ALA H 60 -64.8 -41.4 N 88.32 CA 88.84 C 88.32 O 88.22 CB 89.58
A GLU H 79 -62.8 -39.1 N 87.16 CA 86.98 C 86.25 O 85.99 CB 86.93 CG 87.8 CD 88.21 OE1 87.75 OE2 88.94
A ILE H 3 -77.6 -38.4 N 85.82 CA 85.23 C 85.28 O 85.0 CB 84.65 CG1 84.4 CG2 83.77 CD1 84.08
A ASN H 105 -58.0 -35.6 N 88.4 CA 88.54 C 88.82 O 89.13 CB 89.58 CG 89.37 OD1 88.48 ND2 90.45
A ALA T 85 -76.7 5.8 N 87.58 CA 88.12 C 87.7 O 87.91 CB 88.98
A ILE S 37 -76.5 149.0 N 87.64 CA 87.03 C 86.91 O 87.17 CB 86.28 CG1 86.46 CG2 85.67 CD1 85.64
A ASP - 139 -95.6 122.7 N 87.65 CA 88.04 C 87.12 O 86.76 CB 88.85 CG 89.51 OD1 90.67 OD2 88.75
A GLY S 54 80.1 -149.1 N 86.03 CA 85.1 C 84.26 O 84.54
A HIS - 114 -76.5 133.3 N 81.07 CA 80.61 C 80.45 O 80.48 CB 80.14 CG 80.09 ND1 79.82 CD2 80.88 CE1 80.13 NE2 81.26
A VAL E 11 -75.2 84.1 N 77.25 CA 77.09 C 76.46 O 76.2 CB 77.24 CG1 77.24 CG2 78.3
A THR E 46 -69.2 169.4 N 75.87 CA 75.42 C 75.34 O 76.03 CB 75.42 OG1 75.91 CG2 75.16
A PHE H 35 -63.0 -39.6 N 72.86 CA 72.87 C 73.33 O 73.6 CB 72.09 CG 72.2 CD1 72.4 CD2 72.15 CE1 72.85 CE2 72.53 CZ 72.7
A GLU H 110 -60.9 -37.7 N 76.55 CA 77.25 C 77.88 O 78.46 CB 77.22 CG 77.85 CD 77.72 OE1 76.93 OE2 78.31
A LYS H 70 -76.6 -34.8 N 76.68 CA 77.14 C 77.45 O 78.1 CB 77.23 CG 77.13 CD 77.68 CE 77.41 NZ 78.04
A PHE H 1 -61.9 -41.7 N 74.43 CA 74.47 C 74.75 O 75.26 CB 73.9 CG 73.92 CD1 74.25 CD2 73.63 CE1 74.59 CE2 73.92 CZ 74.42
A TRP H 28 -60.5 -44.6 N 74.55 CA 74.77 C 75.71 O 76.29 CB 74.17 CG 74.62 CD1 74.79 CD2 74.42 NE1 74.93 CE2 74.79 CE3 74.31 CZ2 74.95 CZ3 74.75 CH2 74.8
A ALA H 61 -58.6 -47.2 N 76.84 CA 77.61 C 78.21 O 78.89 CB 77.66
A TRP H 14 -58.5 -46.5 N 79.12 CA 79.33 C 79.78 O 80.75 CB 79.09 CG 79.77 CD1 80.74 CD2 79.63 NE1 81.03 CE2 80.4 CE3 78.9 CZ2 80.3 CZ3 78.86 CH2 79.58
A TRP H 7 -59.8 -48.0 N 77.56 CA 77.63 C 78.31 O 78.75 CB 76.79 CG 76.82 CD1 76.66 CD2 76.98 NE1 76.87 CE2 77.02 CE3 77.09 CZ2 77.4 CZ3 77.29 CH2 77.69
A CYS H 42 -67.5 -19.3 N 78.35 CA 79.1 C 80.17 O 80.86 CB 78.75 SG 78.39
A SER T 85 -78.8 -15.2 N 81.33 CA 82.19 C 82.93 O 84.03 CB 82.1 OG 82.01
A HIS S 33 -72.0 164.2 N 84.46 CA 84.89 C 85.7 O 85.45 CB 84.69 CG 84.52 ND1 85.13 CD2 83.69 CE1 84.54 NE2 84.14
A PRO - 84 -79.7 129.2 N 86.38 CA 86.81 C 86.32 O 85.94 CB 87.57 CG 87.51 CD 86.54
A VAL H 87 -53.0 -18.9 N 86.22 CA 85.96 C 86.11 O 85.7 CB 86.38 CG1 85.97 CG2 86.09
A HIS H 168 -78.8 -59.7 N 83.74 CA 83.78 C 83.45 O 83.03 CB 84.27 CG 84.42 ND1 84.41 CD2 84.27 CE1 84.44 NE2 84.45
A SER H 30 -56.8 -36.0 N 86.19 CA 85.87 C 85.45 O 84.92 CB 86.02 OG 85.9
A ARG H 16 -53.8 -52.8 N 85.38 CA 84.5 C 84.48 O 84.07 CB 83.95 CG 83.47 CD 84.05 NE 83.97 CZ 84.47 NH1 85.02 NH2 84.06
A THR H 78 -60.2 -24.7 N 85.13 CA 84.95 C 84.91 O 84.5 CB 85.49 OG1 85.39 CG2 85.31
A LYS H 83 -65.5 -49.5 N 83.68 CA 83.7 C 83.35 O 82.96 CB 84.36 CG 84.25 CD 84.67 CE 84.78 NZ 85.15
A CYS H 3 -78.4 -29.0 N 82.15 CA 81.45 C 80.49 O 80.06 CB 81.29 SG 80.3
A PHE H 28 -60.6 -22.6 N 76.8 CA 76.09 C 75.97 O 75.46 CB 76.2 CG 75.6 CD1 74.95 CD2 75.61 CE1 74.37 CE2 75.37 CZ 74.6
A SER H 84 -64.3 -37.0 N 75.47 CA 75.36 C 74.86 O 74.54 CB 76.28 OG 76.48
A MET H 25 -67.5 -49.5 N 73.12 CA 72.76 C 71.9 O 71.39 CB 73.13 CG 73.07 SD 73.31 CE 72.58
A VAL H 0 -53.5 -47.0 N 70.66 CA 69.94 C 69.85 O 69.27 CB 69.94 CG1 69.02 CG2 70.14
A SER H 33 -63.0 -39.1 N 69.3 CA 68.95 C 68.77 O 68.62 CB 69.81 OG 69.71
A ALA H 79 -64.5 -38.3 N 67.28 CA 67.39 C 67.2 O 67.25 CB 67.83
A ASP H 100 -84.9 -30.9 N 66.22 CA 65.99 C 65.01 O 64.99 CB 65.91 CG 66.67 OD1 66.96 OD2 67.03
A PHE H 44 -125.2 0.2 N 65.84 CA 65.23 C 65.14 O 64.7 CB 65.06 CG 65.26 CD1 64.55 CD2 65.7 CE1 64.62 CE2 65.78 CZ 65.42
A SER S 45 -85.0 154.5 N 67.59 CA 67.61 C 67.51 O 67.45 CB 67.99 OG 68.52
A MET - 72 -74.7 149.3 N 71.46 CA 71.33 C 71.73 O 72.3 CB 70.67 CG 70.28 SD 70.61 CE 69.89
A PRO S 139 -54.4 -45.0 N 71.61 CA 72.19 C 72.06 O 72.77 CB 72.22 CG 71.17 CD 71.43
A TYR S 73 -145.8 159.0 N 70.51 CA 70.26 C 69.51 O 69.27 CB 70.31
A HIS - 71 -84.9 119.6 N 68.47 CA 68.01 C 67.79 O 67.99 CB 68.93 CG 69.53 ND1 70.21 CD2 69.67 CE1 70.46 NE2 70.38
A GLN - 137 -69.8 135.5 N 65.91 CA 65.27 C 65.28 O 65.57 CB 64.57 CG 64.18 CD 63.62 OE1 63.83 NE2 62.77
A GLN E 71 -106.6 124.9 N 63.38 CA 63.52 C 62.82 O 62.17 CB 63.97 CG 64.69 CD 65.52 OE1 65.92 NE2 66.11
A GLN E 91 -89.4 121.8 N 64.62 CA 64.11 C 64.49 O 65.38 CB 64.19 CG 63.97 CD 62.97 OE1 62.71 NE2 62.69
A LEU E 47 -72.6 127.2 N 61.52 CA 61.91 C 61.95 O 61.22 CB 61.0 CG 61.42 CD1 62.25 CD2 60.51
A VAL E 17 -124.4 136.0 N 61.45 CA 61.71 C 62.64 O 63.39 CB 62.75 CG1 63.16 CG2 62.18
A VAL E 62 -117.2 129.5 N 62.15 CA 62.73 C 64.02 O 63.68 CB 61.79 CG1 62.89 CG2 60.83
A HIS E 85 -124.9 138.4 N 63.13 CA 64.37 C 65.21 O 65.82 CB 65.38 CG 65.13 ND1 65.42 CD2 64.02 CE1 64.73 NE2 63.97
A GLU E 127 -95.0 143.8 N 64.35 CA 65.57 C 67.22 O 67.31 CB 64.52 CG 63.07 CD 62.49 OE1 62.04 OE2 62.18
A LYS E 126 -116.3 104.5 N 65.54 CA 66.97 C 67.35 O 67.96 CB 68.13 CG 68.13 CD 67.93 CE 67.75 NZ 67.75
A GLY S 53 -58.4 173.3 N 67.9 CA 67.35 C 69.12 O 70.17
A GLU - 133 -112.0 133.6 N 69.16 CA 68.34 C 68.12 O 69.38 CB 68.54 CG 67.87 CD 68.84 OE1 69.59 OE2 68.42
A MET T 60 -57.3 140.3 N 67.27 CA 67.11 C 68.0 O 68.11 CB 64.81 CG 64.08 SD 62.03 CE 61.13
A TYR T 121 77.0 4.9 N 66.04 CA 66.79 C 67.85 O 68.19 CB 65.95 CG 64.17 CD1 63.58 CD2 62.86 CE1 61.57 CE2 61.12 CZ 60.49 OH 58.62
A THR S 39 -111.3 166.2 N 65.94 CA 66.74 C 67.07 O 66.86 CB 67.06 OG1 67.09 CG2 66.14
A PRO T 79 -66.6 -13.1 N 65.6 CA 65.28 C 65.95 O 65.7 CB 65.44 CG 65.41 CD 65.62
A SER T 69 -86.2 -18.1 N 65.86 CA 66.41 C 66.01 O 65.91 CB 66.26 OG 65.73
A TYR - 7 -60.1 132.0 N 66.99 CA 65.63 C 65.41 O 65.53 CB 64.77 CG 62.66 CD1 61.5 CD2 61.58 CE1 59.82 CE2 59.29 CZ 58.74 OH 56.78
A ARG E 51 -139.6 145.1 N 61.8 CA 60.56 C 58.83 O 58.33 CB 62.03 CG 63.33 CD 61.97 NE 62.44 CZ 63.06 NH1 63.49 NH2 62.8
A VAL E 1 -111.6 113.1 N 59.99 CA 58.03 C 58.08 O 57.53 CB 56.35 CG1 54.77 CG2 56.25
A LEU E 23 -100.9 148.2 N 59.18 CA 59.25 C 57.56 O 56.68 CB 60.75 CG 62.7 CD1 63.16 CD2 63.93
A TYR E 1 -116.3 141.8 N 59.56 CA 58.25 C 58.87 O 60.04 CB 57.2 CG 56.47 CD1 55.06 CD2 57.08 CE1 54.24 CE2 56.26 CZ 54.88 OH 54.04
A PHE E 32 -133.7 162.5 N 59.8 CA 60.03 C 59.13 O 58.19 CB 60.61 CG 62.16 CD1 63.26 CD2 62.2 CE1 64.44 CE2 63.54 CZ 64.55
A PHE E 26 -110.2 133.1 N 62.19 CA 61.55 C 61.94 O 62.87 CB 61.64 CG 61.1 CD1 60.23 CD2 60.99 CE1 59.78 CE2 60.49 CZ 59.55
A ARG E 99 -111.3 110.2 N 67.17 CA 67.37 C 66.85 O 66.18 CB 67.02 CG 67.37 CD 66.75 NE 67.4 CZ 67.05 NH1 66.07 NH2 67.62
A ASP E 24 -65.9 117.0 N 67.43 CA 67.36 C 66.87 O 67.26 CB 68.15 CG 68.2 OD1 68.97 OD2 67.87
A LEU T 58 -72.3 -13.7 N 67.88 CA 67.51 C 68.09 O 68.07 CB 66.58 CG 66.08 CD1 65.43 CD2 66.11
A GLU T 22 -93.8 -44.0 N 68.61 CA 69.15 C 69.96 O 70.28 CB 69.43 CG 69.0 CD 68.87 OE1 68.98 OE2 68.37
A THR T 37 -89.0 -25.1 N 68.96 CA 69.78 C 69.83 O 70.49 CB 70.85 OG1 70.59 CG2 70.54
A GLY - 46 78.2 -4.3 N 69.48 CA 69.42 C 70.35 O 70.48
A ARG - 113 -70.4 134.4 N 68.15 CA 69.19 C 68.75 O 67.92 CB 69.85 CG 70.83 CD 72.0
A GLU E 90 -101.8 138.4 N 67.72 CA 67.71 C 68.66 O 69.59 CB 67.68 CG 66.68 CD 67.26 OE1 68.41 OE2 66.53
A ARG E 140 -139.2 146.3 N 64.84 CA 65.9 C 65.36 O 64.17 CB 65.59 CG 64.57 CD 65.02 NE 64.11 CZ 63.96 NH1 64.89 NH2 62.79
A GLN E 53 -75.7 143.4 N 59.97 CA 59.73 C 59.0 O 59.33 CB 61.15 CG 60.89 CD 62.41 OE1 63.73 NE2 62.35
A VAL E 0 -133.6 172.2 N 58.9 CA 57.97 C 57.88 O 58.07 CB 56.74 CG1 57.01 CG2 55.69
A SER - 3 -101.1 126.1 N 55.33 CA 54.85 C 53.09 O 52.55 CB 54.92 OG 54.3
A PRO H 0 -60.3 -31.3 N 54.36 CA 52.67 C 51.99 O 51.28 CB 52.8 CG 54.08 CD 55.13
A TRP H 0 -69.7 -52.3 N 52.18 CA 51.48 C 51.9 O 51.17 CB 52.34 CG 51.86 CD1 50.78 CD2 52.4 NE1 50.81 CE2 51.82 CE3 53.49 CZ2 51.88 CZ3 53.95 CH2 53.09
A HIS H 15 -91.0 -30.7 N 52.1 CA 52.66 C 52.47 O 52.58 CB 53.96 CG 54.15 ND1 53.36 CD2 55.0 CE1 53.94 NE2 54.98
A ASP H 57 -102.4 -15.8 N 53.67 CA 53.97 C 52.89 O 53.14 CB 54.55 CG 55.75 OD1 56.29 OD2 56.74
A ILE S 6 -82.1 124.0 N 53.97 CA 52.83 C 52.48 O 52.58 CB 52.05 CG1 52.71 CG2 51.32 CD1 52.18
A PRO - 67 -61.4 135.5 N 53.73 CA 53.82 C 52.94 O 52.27 CB 54.03 CG 54.29 CD 53.74
A LEU S 0 -66.8 -49.4 N 54.39 CA 53.59 C 53.59 O 52.73 CB 53.85 CG 53.34 CD1 52.02 CD2 53.71
A TYR B 68 -91.3 130.9 N 55.12 CA 55.46 C 55.69 O 56.11 CB 56.54 CG 56.66 CD1 56.17 CD2 56.73 CE1 56.06 CE2 56.68 CZ 56.4 OH 56.37
A VAL - 48 -87.6 105.6 N 57.55 CA 57.75 C 59.12 O 59.81 CB 57.1 CG1 56.99 CG2 55.76
A ARG - 216 -111.9 118.6 N 60.71 CA 62.22 C 62.28 O 62.3 CB 63.13 CG 63.41 CD 64.01 NE 65.71 CZ 66.27 NH1 65.48 NH2 66.87
A ASP - 84 -69.7 137.2 N 62.13 CA 62.39 C 63.03 O 64.02 CB 62.76 CG 61.96 OD1 61.03 OD2 62.58
A LEU S 112 -55.6 -49.5 N 60.07 CA 61.13 C 62.0 O 63.17 CB 61.09
A VAL S 116 -110.5 111.2 N 60.57 CA 61.63 C 61.71 O 60.94 CB 61.79 CG1 62.61 CG2 61.53
A ARG - 97 -82.8 110.5 N 63.77 CA 63.78 C 64.71 O 65.8 CB 64.4 CG 65.0 CD 65.05 NE 64.94 CZ 66.03 NH1 66.47 NH2 65.25
A THR - 117 -94.9 -26.0 N 62.68 CA 63.54 C 64.48 O 65.66 CB 62.92 OG1 61.77 CG2 62.27
A LYS S 87 -58.3 142.3 N 67.4 CA 68.49 C 69.52 O 69.5 CB 67.48 CG 65.79 CD 64.5 CE 62.68 NZ 61.83
A PRO - 84 -60.5 146.7 N 69.99 CA 70.42 C 70.01 O 69.47 CB 71.14 CG 70.46 CD 70.23
A GLU S 191 -62.4 -16.9 N 70.22 CA 69.8 C 69.08 O 68.48 CB 70.88 CG 71.42 CD 72.15 OE1 72.01 OE2 72.56
A ALA S 87 -72.8 -59.1 N 73.72 CA 72.93 C 71.63 O 70.83 CB 73.19
A THR S 59 -55.9 121.0 N 71.93 CA 70.49 C 69.89 O 70.82 CB 70.78 OG1 70.96 CG2 71.74
A PRO - 112 -78.5 162.3 N 70.13 CA 69.7 C 68.6 O 67.79 CB 68.49 CG 68.1 CD 68.79
A MET - 84 -81.2 143.9 N 66.99 CA 66.19 C 64.39 O 63.97 CB 67.1 CG 69.47
A ASN - 23 -153.7 71.2 N 60.44 CA 58.47 C 57.6 O 56.95 CB 57.56 CG 56.18 OD1 55.59 ND2 55.51
A ARG - 78 -142.6 104.6 N 57.51 CA 56.9 C 56.85 O 57.72 CB 57.9 CG 57.44 CD 58.28 NE 59.31 CZ 58.38 NH1 56.88 NH2 58.39
A TYR E 9 -116.7 145.9 N 53.58 CA 53.26 C 53.01 O 52.59 CB 52.77 CG 53.38 CD1 54.13 CD2 53.13 CE1 54.68 CE2 53.84 CZ 54.71 OH 55.06
A ASN E 28 -82.9 131.0 N 52.46 CA 52.39 C 52.09 O 52.3 CB 53.03 CG 53.47 OD1 53.06 ND2 54.09
A PHE E 0 -115.2 125.0 N 51.92 CA 51.58 C 52.05 O 52.06 CB 50.81 CG 50.75 CD1 50.86 CD2 50.73 CE1 51.02 CE2 50.64 CZ 50.7
A ILE E 0 -96.7 113.9 N 49.82 CA 50.46 C 50.49 O 50.69 CB 51.8 CG1 51.95 CG2 52.76 CD1 53.11
A CYS E 0 -79.4 117.5 N 51.09 CA 51.34 C 52.64 O 53.69 CB 50.63 SG 51.07
A GLU E 8 -94.9 -40.6 N 50.46 CA 52.0 C 52.4 O 53.93 CB 52.54 CG 52.46 CD 52.67 OE1 51.88 OE2 53.3
A ILE E 0 -127.7 104.2 N 51.92 CA 52.28 C 50.76 O 49.67 CB 52.75 CG1 53.88 CG2 53.3 CD1 54.53
A PRO - 8 -65.3 153.5 N 52.29 CA 50.98 C 50.68 O 51.73 CB 51.52 CG 52.72 CD 53.75
A LYS T 10 -43.4 132.2 N 53.16 CA 52.82 C 53.81 O 54.11 CB 51.48 CG 50.94 CD 50.1 CE 49.2 NZ 49.33
A TRP T 16 72.4 19.9 N 53.34 CA 54.34 C 56.36 O 57.24 CB 53.57 CG 52.08 CD1 51.62 CD2 50.73 NE1 50.56 CE2 50.12 CE3 50.76 CZ2 49.21 CZ3 49.85 CH2 49.19
A THR B 41 -124.6 172.4 N 52.47 CA 54.37 C 55.46 O 54.51 CB 54.44 OG1 53.56 CG2 52.93
A ARG - 40 -140.8 4.9 N 54.43 CA 55.5 C 56.97 O 57.41 CB 56.56 CG 58.71 CD 59.45 NE 58.65 CZ 59.08 NH1 59.7 NH2 58.14
A ALA B 7 -69.7 120.9 N 55.57 CA 56.9 C 55.39 O 53.84 CB 57.52
A LYS - 11 -87.2 77.4 N 56.74 CA 55.44 C 55.91 O 56.51 CB 55.36 CG 54.02 CD 53.41 CE 51.72 NZ 51.22
A PHE E 2 -74.7 152.9 N 54.6 CA 54.83 C 53.6 O 52.31 CB 54.29 CG 55.75 CD1 54.92 CD2 57.68 CE1 56.08 CE2 59.11 CZ 58.19
A GLU E 34 -151.8 145.0 N 55.42 CA 54.51 C 54.99 O 56.5 CB 54.8 CG 54.22 CD 54.74 OE1 55.45 OE2 54.19
A ILE E 3 -61.2 124.8 N 53.97 CA 54.51 C 55.46 O 54.98 CB 53.33 CG1 52.26 CG2 53.78 CD1 50.98
A ALA - 5 -79.9 94.0 N 53.86 CA 54.79 C 54.53 O 55.24 CB 56.55
A THR T 24 -67.2 -15.9 N 56.19 CA 55.71 C 57.01 O 57.15 CB 54.66 OG1 55.09 CG2 53.64
A GLY T 48 -94.6 -8.6 N 56.32 CA 57.47 C 58.93 O 60.07
A GLU S 58 -110.8 147.2 N 56.9 CA 58.29 C 58.05 O 56.7 CB 58.87 CG 59.28 CD 60.18 OE1 61.04 OE2 60.44
A SER T 76 -54.3 132.2 N 56.75 CA 56.76 C 55.73 O 56.4 CB 58.3 OG 59.5
A PHE T 95 73.3 0.6 N 56.47 CA 55.59 C 54.87 O 53.7 CB 56.87 CG 57.82 CD1 56.92 CD2 59.75 CE1 57.94 CE2 60.26 CZ 59.44
A ASN - 0 45.8 53.2 N 56.11 CA 55.13 C 55.08 O 53.59 CB 53.33 CG 53.75 OD1 53.57 ND2 54.24
A PRO - 8 -62.1 161.1 N 55.21 CA 55.08 C 54.69 O 54.44 CB 57.06 CG 57.86 CD 56.86
A ILE E 0 -81.0 134.3 N 55.99 CA 55.53 C 57.33 O 58.51 CB 54.02 CG1 52.19 CG2 54.04 CD1 50.66
A LYS E 52 -134.6 170.2 N 56.87 CA 58.61 C 58.07 O 56.41 CB 59.73 CG 58.87 CD 59.87 CE 59.31 NZ 60.64
A GLN E 5 -86.1 128.7 N 58.71 CA 58.17 C 58.17 O 59.33 CB 59.56 CG 58.75 CD 59.92 OE1 61.16 NE2 59.46
A ASP - 37 -58.0 150.4 N 59.21 CA 59.1 C 60.44 O 60.96 CB 57.46 CG 57.03 OD1 57.87 OD2 56.06
A ILE E 70 -109.6 123.3 N 61.9 CA 62.64 C 62.21 O 61.44 CB 63.67 CG1 64.13 CG2 64.41 CD1 64.88
A LYS E 71 -131.5 127.3 N 65.56 CA 65.19 C 66.11 O 66.87 CB 64.29 CG 63.86 CD 62.83 CE 62.56 NZ 62.46
A ASN T 134 59.1 36.2 N 66.59 CA 67.38 C 68.17 O 68.94 CB 66.98 CG 66.2 OD1 66.13 ND2 66.12
A GLY T 67 83.5 -16.8 N 65.76 CA 66.8 C 67.42 O 68.34
A VAL E 88 -111.5 158.4 N 65.58 CA 65.89 C 65.37 O 64.53 CB 66.19 CG1 66.78 CG2 65.07
A PRO E 22 -54.5 131.5 N 64.01 CA 63.32 C 62.22 O 62.54 CB 64.01 CG 64.9 CD 64.83
A ARG - 27 -82.5 128.1 N 61.66 CA 60.52 C 60.05 O 59.71 CB 59.36 CG 57.89 CD 56.59 NE 55.28 CZ 54.17 NH1 53.49 NH2 52.88
A PHE B 89 -118.7 141.3 N 58.61 CA 57.98 C 57.11 O 57.39 CB 59.0 CG 60.02 CD1 59.86 CD2 60.84 CE1 60.69 CE2 61.78 CZ 61.81
A TYR - 5 -57.0 128.4 N 59.58 CA 58.87 C 59.81 O 60.57 CB 57.29 CG 56.11 CD1 55.75 CD2 55.09 CE1 54.67 CE2 53.87 CZ 53.85 OH 52.9
A LYS S 119 -84.6 -33.3 N 61.22 CA 61.82 C 61.03 O 61.74 CB 62.29 CG 63.29 CD 64.11 CE 64.66 NZ 65.29
A HIS S 27 -61.9 -36.9 N 60.88 CA 59.95 C 59.98 O 59.92 CB 58.54 CG 57.49 ND1 57.94 CD2 56.17 CE1 56.9 NE2 55.93
A GLY - 0 157.7 -171.2 N 59.01 CA 58.7 C 57.91 O 57.76
A ASP - 15 -78.2 149.6 N 57.62 CA 56.76 C 54.86 O 53.88 CB 55.82 CG 57.57 OD1 58.53 OD2 58.09
A MET B 0 -70.9 127.2 N 56.19 CA 54.38 C 53.21 O 53.29 CB 54.63 CG 53.06 SD 52.5 CE 53.78
A MET - 2 -105.1 7.0 N 54.07 CA 52.97 C 51.71 O 50.9 CB 52.83 CG 54.66 SD 54.86 CE 53.9
A TRP S 1 -140.5 161.9 N 52.73 CA 51.79 C 52.59 O 53.4 CB 51.21 CG 50.95 CD1 50.2 CD2 51.31 NE1 50.29 CE2 50.93 CE3 52.42 CZ2 51.29 CZ3 52.78 CH2 52.14
A ASN E 0 -63.7 124.3 N 50.66 CA 51.28 C 51.59 O 50.97 CB 50.8 CG 50.48 OD1 50.95 ND2 49.54
A TYR E 4 -118.1 142.0 N 49.97 CA 50.45 C 51.31 O 51.99 CB 51.41 CG 51.78 CD1 50.88 CD2 52.92 CE1 51.15 CE2 53.15 CZ 52.29 OH 52.88
A GLY E 0 -176.5 -139.9 N 50.36 CA 51.08 C 50.94 O 50.9
A ALA E 0 -150.7 162.2 N 51.04 CA 51.11 C 50.95 O 50.79 CB 52.18
A PHE - 0 -96.1 128.1 N 51.08 CA 51.37 C 52.41 O 52.86 CB 50.92 CG 50.33 CD1 50.01 CD2 49.98 CE1 49.41 CE2 49.08 CZ 48.87
A PRO T 0 -65.5 159.0 N 50.58 CA 51.6 C 51.9 O 51.51 CB 51.94 CG 50.97 CD 50.18
A GLN T 31 60.0 33.8 N 51.35 CA 52.01 C 51.51 O 51.57 CB 52.24 CG 52.62 CD 53.08 OE1 52.87 NE2 53.75
A THR - 0 -131.6 160.9 N 52.11 CA 51.83 C 52.13 O 52.48 CB 50.66 OG1 50.32 CG2 50.38
A TRP - 3 -156.8 126.7 N 52.83 CA 53.29 C 53.01 O 52.98 CB 54.28 CG 54.86 CD1 54.87 CD2 55.38 NE1 55.45 CE2 55.75 CE3 55.68 CZ2 56.37 CZ3 56.37 CH2 56.52
A GLU - 1 -78.5 86.8 N 55.21 CA 55.05 C 55.78 O 56.12 CB 54.55 CG 53.77 CD 53.2 OE1 53.61 OE2 52.78
A SER - 5 -54.6 133.4 N 56.13 CA 57.06 C 57.07 O 56.42 CB 57.24 OG 58.24
A THR T 58 -79.9 -1.4 N 59.76 CA 60.03 C 60.46 O 60.93 CB 60.99 OG1 61.61 CG2 60.61
A GLU T 111 -107.2 -2.9 N 60.08 CA 60.64 C 60.13 O 60.58 CB 61.38 CG 62.1 CD 64.11
A VAL - 48 -106.0 129.0 N 59.78 CA 59.36 C 58.91 O 58.44 CB 59.02 CG1 58.27 CG2 59.68
A LEU - 128 -90.4 101.8 N 61.53 CA 60.81 C 60.24 O 60.36 CB 61.23 CG 60.88 CD1 60.62 CD2 61.07
A PHE - 21 -68.4 159.8 N 59.59 CA 58.87 C 58.79 O 59.04 CB 58.45 CG 58.65 CD1 58.24 CD2 58.89 CE1 58.58 CE2 59.5 CZ 59.03
A GLU T 118 -47.9 -31.7 N 61.8 CA 61.63 C 61.58 O 61.81 CB 61.4 CG 61.3
A ALA T 49 -71.8 -5.0 N 60.9 CA 60.64 C 61.06 O 61.11 CB 60.23
A GLY S 48 85.9 21.7 N 59.74 CA 59.91 C 60.52 O 60.96
A VAL - 31 -138.1 163.7 N 59.56 CA 59.66 C 59.91 O 59.89 CB 59.62 CG1 59.55 CG2 58.73
A THR - 50 -93.7 178.9 N 59.37 CA 59.66 C 59.61 O 59.13 CB 60.55 OG1 60.96 CG2 61.0
A GLY B 1 -83.0 170.2 N 56.97 CA 56.48 C 57.1 O 57.74
A ASP - 29 -87.9 14.2 N 54.8 CA 55.54 C 56.18 O 56.94 CB 55.15 CG 55.25 OD1 55.05 OD2 54.87
A ASN S 55 68.6 22.8 N 55.36 CA 56.19 C 56.11 O 57.33 CB 57.0 CG 58.05 OD1 57.77 ND2 58.89
A ASP S 35 -129.5 163.8 N 54.76 CA 54.79 C 54.03 O 53.54 CB 54.75 CG 55.99 OD1 57.05 OD2 56.43
A PRO - 2 -55.9 154.1 N 52.9 CA 51.94 C 51.08 O 51.11 CB 52.01 CG 53.08 CD 53.44
A VAL - 0 -60.5 134.1 N 52.18 CA 51.26 C 51.09 O 51.03 CB 51.17 CG1 49.99 CG2 51.32
A ASP E 9 -86.6 142.4 N 51.69 CA 51.21 C 50.42 O 49.96 CB 51.59 CG 52.75 OD1 53.24 OD2 52.95
A ALA E 0 -131.6 141.3 N 51.23 CA 50.42 C 50.12 O 50.54 CB 50.45
A VAL E 0 -114.0 116.0 N 51.39 CA 50.96 C 50.59 O 50.24 CB 51.09 CG1 50.81 CG2 51.83
A GLU E 1 -97.9 120.0 N 51.87 CA 51.48 C 51.16 O 51.35 CB 51.9 CG 51.64 CD 51.58 OE1 51.57 OE2 51.27
A ILE - 10 -99.8 9.8 N 52.19 CA 51.99 C 51.73 O 51.49 CB 51.61 CG1 51.53 CG2 51.83 CD1 51.51
A GLY S 3 -65.1 176.8 N 53.81 CA 53.79 C 53.72 O 53.84
A MET S 29 -89.4 -13.4 N 54.79 CA 54.78 C 55.0 O 54.99 CB 54.63 CG 55.08 SD 55.71 CE 56.17
A THR S 43 -91.6 130.5 N 52.33 CA 52.54 C 53.24 O 53.22 CB 52.9 OG1 53.03 CG2 52.88
A GLN - 28 -77.5 131.6 N 50.59 CA 51.2 C 51.77 O 51.79 CB 51.69 CG 52.95 CD 53.68 OE1 53.42 NE2 54.5
A PHE - 10 -94.6 163.7 N 52.1 CA 52.73 C 54.08 O 54.58 CB 52.78 CG 52.12 CD1 51.83 CD2 51.91 CE1 51.17 CE2 51.25 CZ 51.08
A LYS - 123 -81.2 155.9 N 52.28 CA 53.55 C 54.43 O 54.04 CB 54.14 CG 53.63 CD 52.96 CE 53.2 NZ 51.86
A VAL T 31 -60.8 126.5 N 51.8 CA 52.83 C 53.16 O 53.4 CB 54.74 CG1 55.84 CG2 54.6
A GLY T 1 86.0 -8.4 N 54.21 CA 54.28 C 53.2 O 53.34
A GLN - 74 -61.9 137.6 N 55.93 CA 54.88 C 54.51 O 54.27 CB 54.08 CG 53.05 CD 52.86 OE1 52.88 NE2 52.38
A VAL E 35 -115.8 130.4 N 54.31 CA 54.03 C 53.45 O 53.73 CB 55.2 CG1 54.93 CG2 55.8
A SER E 14 -151.1 159.6 N 55.01 CA 54.5 C 54.4 O 54.31 CB 54.01 OG 54.25
A ALA E 19 -77.4 129.8 N 53.33 CA 53.72 C 53.29 O 52.85 CB 54.4
A VAL E 0 -130.0 161.4 N 53.37 CA 52.81 C 53.33 O 54.06 CB 52.31 CG1 52.04 CG2 52.6
A LYS E 31 -109.7 126.0 N 55.22 CA 55.48 C 54.69 O 54.06 CB 55.72 CG 56.31 CD 57.09 CE 56.65 NZ 58.03
A VAL E 0 -80.7 131.4 N 53.29 CA 52.68 C 52.74 O 53.49 CB 53.51 CG1 53.24 CG2 53.35
A LEU E 0 -111.7 -32.3 N 53.72 CA 53.41 C 53.38 O 53.55 CB 52.77 CG 52.91 CD1 52.21 CD2 53.63
A GLY E 0 177.4 -176.5 N 51.7 CA 51.52 C 51.71 O 51.84
A VAL E 0 -151.4 144.6 N 51.32 CA 51.54 C 51.46 O 51.64 CB 51.91 CG1 52.26 CG2 52.35
A LEU E 0 -105.2 127.4 N 52.51 CA 52.6 C 53.34 O 53.88 CB 52.6 CG 53.09 CD1 52.73 CD2 53.22
A GLY - 0 -82.4 59.3 N 53.93 CA 54.15 C 55.07 O 55.54
A MET E 0 -65.4 129.1 N 54.48 CA 55.11 C 55.94 O 56.02 CB 55.16 CG 56.24 SD 56.9 CE 57.67
A ILE E 22 -106.0 112.9 N 56.65 CA 57.12 C 57.84 O 58.16 CB 57.2 CG1 56.39 CG2 57.76 CD1 56.63
A ASP E 10 -112.4 113.0 N 56.34 CA 57.02 C 57.99 O 58.38 CB 56.94 CG 58.16 OD1 58.86 OD2 58.24
A GLU T 139 53.4 40.0 N 58.66 CA 59.41 C 59.23 O 59.51 CB 60.17 CG 60.83 CD 62.02 OE1 61.99 OE2 63.03
A GLY T 43 82.9 5.4 N 59.4 CA 59.15 C 59.24 O 59.32
A LYS E 88 -118.5 145.7 N 58.58 CA 58.3 C 57.56 O 57.27 CB 58.74 CG 59.63 CD 60.27 CE 61.22 NZ 61.65
A MET E 1 -65.2 130.3 N 57.18 CA 56.24 C 56.32 O 56.89 CB 56.21 CG 55.78 SD 55.65 CE 54.43
A ASP - 3 -146.5 57.1 N 54.19 CA 54.0 C 53.29 O 52.95 CB 54.46 CG 55.3 OD1 55.27 OD2 55.64
A TRP - 15 -43.7 139.3 N 53.42 CA 52.92 C 52.7 O 53.22 CB 52.86 CG 53.39 CD1 53.98 CD2 52.94 NE1 54.06 CE2 53.6 CE3 52.34 CZ2 53.35 CZ3 52.45 CH2 53.06
A LYS E 1 -120.4 102.8 N 51.92 CA 51.57 C 51.01 O 50.37 CB 51.49 CG 52.36 CD 52.93 CE 53.95 NZ 54.3
A VAL E 0 -79.8 131.0 N 50.99 CA 50.59 C 50.1 O 50.23 CB 51.25 CG1 50.98 CG2 51.77
A VAL E 0 -93.1 126.1 N 50.58 CA 50.08 C 50.36 O 50.5 CB 49.86 CG1 49.29 CG2 49.71
A CYS E 0 -144.2 168.4 N 50.7 CA 51.03 C 50.81 O 50.46 CB 51.5 SG 51.76
A ILE E 0 -141.0 139.5 N 52.93 CA 52.79 C 53.32 O 53.76 CB 52.68 CG1 52.43 CG2 53.11 CD1 52.42
A SER E 5 -53.6 132.8 N 54.1 CA 54.62 C 54.97 O 55.1 CB 54.35 OG 55.04
A HIS T 47 -66.3 -7.2 N 54.25 CA 55.19 C 55.26 O 56.07 CB 56.18 CG 56.81 ND1 57.52 CD2 56.67 CE1 57.83 NE2 57.38
A ASN T 141 -97.5 -5.3 N 59.11 CA 59.04 C 58.61 O 58.72 CB 58.78 CG 60.13 OD1 60.83 ND2 60.27
A ASP S 11 -72.9 142.8 N 57.71 CA 57.57 C 58.11 O 58.59 CB 56.54 CG 56.59 OD1 56.43 OD2 56.74
A PRO T 65 -57.6 -26.8 N 58.29 CA 58.98 C 59.14 O 60.34 CB 58.52 CG 58.3 CD 57.75
A ILE T 11 -107.0 16.3 N 58.63 CA 58.88 C 59.34 O 59.41 CB 58.3 CG1 57.18 CG2 58.38 CD1 56.56
A CYS T 8 -61.3 -43.8 N 57.83 CA 57.97 C 59.27 O 59.44 CB 58.36 SG 58.96
A ARG T 118 -51.5 -35.7 N 59.73 CA 61.35 C 61.18 O 62.19 CB 62.62 CG 64.06 CD 66.07
A PHE T 123 -90.9 -14.3 N 60.74 CA 60.56 C 59.68 O 59.5 CB 60.02 CG 61.11 CD1 62.99 CD2 60.74 CE1 64.06 CE2 61.57 CZ 63.34
A MET - 0 -95.9 104.4 N 61.48 CA 60.59 C 61.27 O 61.5 CB 59.69 CG 59.43 SD 59.01 CE 57.84
A LYS - 133 -110.6 -21.2 N 59.32 CA 60.24 C 59.56 O 60.39 CB 61.6 CG 62.48 CD 64.4 CE 65.47 NZ 67.55
A ASP S 36 -156.7 178.9 N 57.91 CA 57.21 C 56.23 O 56.12 CB 57.76 CG 58.02 OD1 57.26 OD2 58.86
A ILE T 5 -62.9 -26.7 N 55.94 CA 55.22 C 55.11 O 54.52 CB 55.11 CG1 54.68 CG2 55.37 CD1 54.47
A HIS T 122 -69.7 -21.8 N 56.93 CA 56.85 C 56.87 O 56.7 CB 57.26 CG 57.95 ND1 57.75 CD2 58.3 CE1 58.09 NE2 58.58
A ASP H 30 -75.8 -13.8 N 57.26 CA 57.29 C 56.62 O 56.76 CB 58.09 CG 59.12 OD1 59.49 OD2 60.04
A VAL H 0 -72.3 -44.9 N 55.55 CA 55.26 C 55.15 O 55.06 CB 55.03 CG1 54.67 CG2 55.17
A PRO H 67 -64.1 -30.7 N 55.72 CA 55.58 C 55.62 O 55.39 CB 55.5 CG 55.62 CD 55.69
A LYS H 138 -66.8 -37.5 N 59.14 CA 59.7 C 59.69 O 59.9 CB 60.32 CG 60.72 CD 62.15 CE 62.85 NZ 64.24
A PHE H 75 -116.0 -20.5 N 58.88 CA 58.96 C 58.14 O 58.06 CB 59.09 CG 60.23 CD1 60.82 CD2 60.52 CE1 61.73 CE2 61.54 CZ 62.39
A LEU S 8 -131.5 60.3 N 55.36 CA 55.27 C 55.25 O 55.41 CB 55.01 CG 55.32 CD1 55.34 CD2 55.22
A PRO T 30 -50.5 138.6 N 53.98 CA 54.14 C 54.27 O 54.39 CB 54.19 CG 54.11 CD 54.3
A GLY T 18 83.7 -13.7 N 52.07 CA 52.31 C 52.59 O 53.3
A CYS H 1 -65.2 -52.9 N 52.39 CA 52.5 C 52.48 O 53.1 CB 52.1 SG 52.61
A LEU H 18 -59.2 -47.2 N 52.44 CA 52.88 C 53.35 O 54.02 CB 52.49 CG 52.48 CD1 52.58 CD2 52.37
A ASP H 102 -57.7 -43.4 N 52.78 CA 53.33 C 53.91 O 54.59 CB 53.47 CG 53.37 OD1 53.31 OD2 53.64
A ALA H 13 -67.6 -41.3 N 51.62 CA 52.45 C 52.88 O 53.9 CB 52.47
A ILE H 0 -59.8 -50.6 N 53.05 CA 53.1 C 53.51 O 54.31 CB 52.42 CG1 52.19 CG2 52.49 CD1 51.42
A ARG H 63 -58.8 -43.7 N 54.37 CA 54.97 C 55.94 O 56.52 CB 54.38 CG 54.97 CD 54.01 NE 54.3 CZ 53.41 NH1 53.14 NH2 53.31
A GLU H 87 -69.9 -45.0 N 53.78 CA 55.0 C 55.87 O 56.82 CB 55.13 CG 56.58 CD 57.21 OE1 56.5 OE2 58.37
A TRP H 4 -54.9 -48.3 N 52.84 CA 53.77 C 54.13 O 55.14 CB 53.37 CG 54.67 CD1 55.45 CD2 55.06 NE1 56.55 CE2 56.33 CE3 54.97 CZ2 57.32 CZ3 55.8 CH2 57.04
A PHE H 0 -73.2 -23.6 N 54.34 CA 54.84 C 55.18 O 55.59 CB 53.74 CG 53.7 CD1 54.7 CD2 52.78 CE1 54.6 CE2 52.88 CZ 53.54
A ARG H 94 -66.9 -44.5 N 56.47 CA 56.78 C 57.94 O 58.4 CB 56.22 CG 56.69 CD 56.22 NE 57.01 CZ 58.05 NH1 58.33 NH2 58.71
A VAL H 20 -109.6 -8.9 N 56.17 CA 57.25 C 58.47 O 59.51 CB 57.57 CG1 56.85 CG2 57.48
A TYR T 11 -62.5 -25.6 N 56.76 CA 57.6 C 58.57 O 59.76 CB 57.19 CG 56.54 CD1 57.3 CD2 55.68 CE1 57.1 CE2 55.54 CZ 56.1 OH 55.92
A LYS T 28 -90.7 -9.2 N 59.03 CA 60.07 C 60.68 O 61.51 CB 59.48 CG 59.24 CD 58.84 CE 58.65 NZ 58.39
A ILE G 80 -61.8 -42.4 N 61.44 CA 61.93 C 63.28 O 63.97 CB 61.4 CG1 59.96 CG2 61.75 CD1 59.36
A CYS G 48 -67.1 -7.5 N 62.67 CA 63.92 C 64.71 O 66.1 CB 64.33 SG 64.09
A GLN G 53 -105.2 1.8 N 63.16 CA 63.85 C 63.67 O 64.28 CB 63.22 CG 63.84 CD 64.99 OE1 66.24 NE2 65.03
A GLY T 74 100.2 -1.3 N 66.24 CA 66.2 C 65.23 O 65.46
A GLY - 37 -85.5 -169.2 N 65.21 CA 64.12 C 63.59 O 64.09
A GLU - 79 -116.7 163.0 N 64.49 CA 63.81 C 62.76 O 62.44 CB 63.76
A ALA - 50 -55.9 143.0 N 61.5 CA 60.53 C 60.03 O 60.11 CB 59.93
A SER - 15 -75.5 151.5 N 59.79 CA 59.34 C 58.68 O 58.4 CB 58.77 OG 59.7
A HIS E 57 -98.0 163.6 N 58.82 CA 58.22 C 57.51 O 57.48 CB 59.66
A PHE E 38 -136.6 136.7 N 57.8 CA 57.09 C 57.26 O 57.45 CB 56.54 CG 56.92 CD1 56.64 CD2 57.3 CE1 56.99 CE2 57.72 CZ 57.38
A ALA G 18 -67.5 162.8 N 57.93 CA 57.89 C 57.41 O 56.96 CB 57.87
A PHE G 75 55.6 29.4 N 58.38 CA 57.73 C 57.78 O 57.41 CB 57.62 CG 58.43 CD1 58.7 CD2 58.41 CE1 58.98 CE2 59.08 CZ 59.39
A ASP G 108 55.4 31.9 N 57.54 CA 57.79 C 57.48 O 56.99 CB 58.2
A GLY G 3 86.4 5.2 N 57.11 CA 56.53 C 56.01 O 55.87
A GLU - 100 -64.4 133.8 N 57.47 CA 57.22 C 57.23 O 57.42 CB 57.26 CG 57.27 CD 57.93 OE1 58.22 OE2 58.05
A PHE E 15 -78.6 114.6 N 54.72 CA 54.62 C 54.73 O 54.77 CB 54.18 CG 54.12 CD1 54.03 CD2 54.0 CE1 54.11 CE2 54.29 CZ 54.43
A LYS E 43 -73.2 160.1 N 54.21 CA 54.53 C 54.53 O 54.49 CB 55.01 CG 55.33 CD 55.42 CE 56.06 NZ 56.52
A ASP E 52 -79.6 -178.8 N 54.61 CA 54.76 C 55.38 O 55.4 CB 55.25 CG 55.92 OD1 56.43 OD2 56.24
A LYS H 61 -68.3 -34.5 N 54.43 CA 55.09 C 56.0 O 56.31 CB 55.25 CG 56.39 CD 57.05 CE 57.62 NZ 57.93
A GLU H 118 -60.1 -41.6 N 56.93 CA 57.72 C 57.41 O 58.49 CB 58.27 CG 59.52 CD 60.27 OE1 59.73 OE2 61.41
A TYR H 67 -68.6 -40.8 N 56.15 CA 55.79 C 55.88 O 56.22 CB 55.03 CG 55.31 CD1 55.77 CD2 55.12 CE1 55.62 CE2 55.23 CZ 55.53 OH 56.35
A ALA H 0 -65.7 -37.9 N 54.6 CA 54.37 C 55.09 O 55.36 CB 53.7
A MET H 41 -71.2 -29.3 N 54.96 CA 56.06 C 56.8 O 57.34 CB 56.55 CG 56.11 SD 57.37 CE 56.81
A LYS H 102 -65.9 -46.5 N 56.66 CA 57.03 C 56.75 O 57.61 CB 56.75 CG 57.7 CD 58.2 CE 59.28 NZ 59.19
A VAL H 11 -57.4 -43.6 N 54.82 CA 54.79 C 55.3 O 55.76 CB 53.86 CG1 54.0 CG2 53.63
A ILE H 0 -67.2 -43.3 N 54.26 CA 54.52 C 55.73 O 56.36 CB 54.2 CG1 53.15 CG2 54.65 CD1 52.73
A ASP H 73 -57.8 -46.8 N 55.96 CA 57.25 C 57.58 O 58.4 CB 57.73 CG 59.51 OD1 60.33 OD2 59.58
A GLU H 100 -66.2 -36.3 N 58.16 CA 58.38 C 58.28 O 58.96 CB 57.74 CG 58.07 CD 57.96 OE1 57.39 OE2 58.23
A SER H 3 -73.2 -19.5 N 53.89 CA 54.13 C 54.85 O 55.17 CB 53.12 OG 53.12
A HIS H 22 -70.6 -42.4 N 53.51 CA 54.34 C 55.55 O 56.38 CB 54.59 CG 55.44 ND1 54.94 CD2 56.21 CE1 55.63 NE2 56.48
A ASN H 87 -60.0 -45.4 N 56.87 CA 57.71 C 57.79 O 58.61 CB 57.46 CG 57.91 OD1 58.97 ND2 57.69
A MET H 27 -61.6 -40.1 N 56.61 CA 56.7 C 57.3 O 57.77 CB 55.73 CG 55.33 SD 54.45 CE 53.73
A TRP H 3 -65.3 -38.1 N 53.81 CA 54.14 C 55.28 O 55.85 CB 53.34 CG 54.06 CD1 54.08 CD2 54.35 NE1 54.55 CE2 54.74 CE3 54.79 CZ2 55.21 CZ3 55.53 CH2 55.3
A HIS H 72 -61.3 -42.7 N 56.57 CA 57.85 C 58.54 O 59.63 CB 58.29 CG 58.48 ND1 58.34 CD2 58.97 CE1 58.49 NE2 58.72
A ASN I 68 -66.0 -37.1 N 58.95 CA 59.35 C 59.77 O 60.58 CB 59.0 CG 59.83 OD1 59.5 ND2 60.45
A LEU I 1 -67.3 -53.3 N 58.09 CA 58.29 C 59.28 O 60.09 CB 57.3 CG 57.72 CD1 57.92 CD2 56.92
A LEU I 36 -85.0 -54.0 N 58.14 CA 59.06 C 60.19 O 61.26 CB 58.15 CG 58.8 CD1 59.2 CD2 57.81
A LYS I 104 -71.6 -54.3 N 60.87 CA 62.27 C 63.08 O 64.26 CB 62.14 CG 61.19 CD 61.42 CE 60.54 NZ 60.73
A VAL I 93 -75.1 -48.4 N 63.12 CA 63.52 C 63.8 O 64.89 CB 62.75 CG1 62.98 CG2 62.5
A ASN T 85 -100.5 2.6 N 63.77 CA 63.94 C 64.46 O 64.96 CB 63.01 CG 62.9 OD1 64.05 ND2 61.86
A LYS - 165 58.0 33.2 N 65.52 CA 66.34 C 65.91 O 66.91 CB 68.02 CG 68.86 CD 68.8 CE 69.87 NZ 69.75
A ARG - 98 -99.3 104.8 N 64.76 CA 64.26 C 63.69 O 62.75 CB 63.64 CG 64.02 CD 63.9 NE 63.69 CZ 62.93 NH1 62.01 NH2 62.7
A GLY S 11 -94.7 -18.4 N 59.73 CA 59.26 C 59.18 O 58.66
A GLU - 87 -126.3 142.5 N 58.04 CA 58.12 C 57.89 O 57.99 CB 59.36 CG 60.28 CD 61.05 OE1 61.8 OE2 60.79
A LEU - 58 -94.3 360.0 N 60.99 CA 60.57 C 61.39 O 62.06 CB 59.21 CG 58.22 CD1 57.18 CD2 58.05
B THR - 83 360.0 11.0 N 81.97 CA 81.19 C 80.51 O 79.63 CB 81.47 OG1 81.64 CG2 82.16
B GLN - 92 -71.3 160.2 N 79.73 CA 78.91 C 78.15 O 78.45 CB 78.1 CG 79.23 CD 79.76 OE1 79.33 NE2 80.71
B PRO H 57 -56.9 -26.9 N 76.23 CA 75.32 C 75.53 O 75.4 CB 74.6 CG 75.01 CD 75.99
B MET H 56 -66.8 -40.1 N 73.77 CA 74.3 C 74.96 O 75.16 CB 75.19 CG 75.91 SD 77.54 CE 78.97
B ILE H 12 -70.7 -35.8 N 73.86 CA 74.73 C 74.29 O 74.81 CB 73.66 CG1 74.12 CG2 74.58 CD1 74.84
B LYS H 61 -61.8 -38.5 N 72.89 CA 72.63 C 72.42 O 72.38 CB 71.72 CG 70.98 CD 70.16 CE 70.25 NZ 69.56
B LYS H 70 -71.3 -38.0 N 71.36 CA 70.94 C 72.11 O 72.25 CB 70.15 CG 69.02 CD 68.48 CE 67.52 NZ 68.39
B ILE H 4 -55.3 -45.1 N 68.07 CA 69.21 C 69.79 O 70.49 CB 70.53 CG1 70.39 CG2 71.74 CD1 71.25
B MET H 0 -73.9 -28.0 N 70.02 CA 70.46 C 69.71 O 70.28 CB 70.37 CG 70.95 SD 72.92 CE 73.15
B SER H 46 -65.1 -41.8 N 68.94 CA 68.58 C 69.04 O 69.28 CB 66.98 OG 66.91
B ARG H 67 -70.4 -36.8 N 67.04 CA 67.9 C 69.3 O 70.11 CB 67.99 CG 66.82 CD 66.93 NE 67.51 CZ 66.83 NH1 65.15 NH2 67.3
B LEU H 0 -62.1 -45.1 N 66.29 CA 67.48 C 67.2 O 68.06 CB 67.78 CG 69.05 CD1 69.56 CD2 68.56
B PHE H 10 -59.2 -43.7 N 67.23 CA 67.08 C 67.19 O 67.6 CB 65.92 CG 65.99 CD1 65.26 CD2 66.11 CE1 65.3 CE2 65.86 CZ 65.48
B SER H 37 -63.5 -25.9 N 65.13 CA 65.14 C 66.77 O 67.17 CB 64.2 OG 62.98
B ALA T 46 -72.9 -7.5 N 64.36 CA 65.83 C 66.73 O 68.0 CB 66.51
B PHE T 27 -118.5 -4.3 N 66.86 CA 67.66 C 67.02 O 68.06 CB 67.7 CG 68.6 CD1 70.01 CD2 68.16 CE1 70.64 CE2 69.18 CZ 70.29
B ASP S 8 -131.5 64.7 N 66.75 CA 65.89 C 65.6 O 64.45 CB 64.63 CG 63.88 OD1 64.57 OD2 62.5
B VAL T 104 -66.0 -30.1 N 63.38 CA 63.45 C 62.65 O 61.87 CB 64.8 CG1 65.44 CG2 65.48
B THR T 109 -95.3 8.2 N 65.25 CA 64.35 C 63.1 O 62.53 CB 65.25 OG1 65.61 CG2 66.95
B HIS - 134 58.8 48.6 N 65.96 CA 64.77 C 64.49 O 63.63 CB 63.41 CG 63.82 ND1 64.33 CD2 63.49 CE1 64.22 NE2 63.7
B LEU - 94 -57.5 -26.3 N 64.41 CA 64.17 C 62.98 O 62.65 CB 65.14 CG 66.49 CD1 67.42 CD2 66.04
B GLY S 38 97.9 -4.5 N 65.74 CA 64.91 C 65.7 O 65.32
B TYR B 75 -153.9 170.6 N 62.33 CA 62.96 C 64.37 O 64.86 CB 64.06 CG 64.71 CD1 65.95 CD2 64.11 CE1 66.61 CE2 64.75 CZ 66.0 OH 66.73
B LEU - 11 -94.2 122.9 N 65.81 CA 67.08 C 67.83 O 68.88 CB 67.59 CG 67.71 CD1 66.63 CD2 68.14
B THR - 41 -67.4 165.3 N 69.37 CA 70.22 C 71.55 O 71.56 CB 70.93 OG1 71.95 CG2 70.18
B PRO H 105 -57.4 -47.4 N 70.86 CA 72.06 C 71.71 O 71.69 CB 73.9 CG 73.72 CD 71.83
B ASP H 119 -58.5 -37.6 N 74.03 CA 74.87 C 74.31 O 74.89 CB 75.53 CG 76.68 OD1 77.39 OD2 76.94
B LYS H 63 -69.9 -29.9 N 73.63 CA 73.1 C 72.94 O 72.93 CB 71.86 CG 72.27 CD 73.1 CE 74.16 NZ 75.1
B VAL H 4 -67.3 -44.0 N 73.81 CA 73.76 C 74.8 O 74.81 CB 73.46 CG1 73.55 CG2 71.89
B GLU H 32 -61.9 -39.1 N 75.51 CA 77.03 C 77.33 O 77.69 CB 78.05 CG 80.01
B GLU H 69 -69.0 -37.4 N 76.03 CA 76.18 C 75.32 O 75.95 CB 75.99 CG 76.9 CD 77.42 OE1 76.79 OE2 78.14
B VAL H 2 -71.1 -28.3 N 76.52 CA 76.06 C 76.86 O 76.63 CB 74.66 CG1 74.55 CG2 74.26
B CYS H 1 -74.8 -43.3 N 79.24 CA 79.83 C 80.99 O 81.37 CB 79.86 SG 79.25
B ARG H 150 -60.1 -30.2 N 78.88 CA 79.96 C 80.16 O 80.98 CB 80.97 CG 82.11 CD 83.0 NE 83.57 CZ 83.38 NH1 83.73 NH2 82.45
B TYR H 23 -79.4 -53.1 N 77.89 CA 77.53 C 77.04 O 77.63 CB 76.35 CG 75.71 CD1 76.53 CD2 74.52 CE1 76.01 CE2 74.2 CZ 74.92 OH 74.65
B LEU H 1 -61.9 -31.1 N 80.36 CA 80.15 C 81.51 O 81.65 CB 79.24 CG 77.97 CD1 76.88 CD2 77.43
B GLY H 4 -81.7 -13.4 N 83.33 CA 84.1 C 85.23 O 86.06
B ARG T 146 -76.2 132.2 N 85.19 CA 86.32 C 86.18 O 85.48 CB 86.74 CG 86.53 CD 86.93 NE 86.44 CZ 86.0 NH1 86.21 NH2 85.21
B ASN T 102 -108.3 104.8 N 89.23 CA 90.23 C 90.0 O 90.17 CB 91.26
B MET S 31 -126.7 178.8 N 92.78 CA 92.51 C 93.54 O 93.47 CB 91.16 CG 90.93 SD 88.65 CE 88.46
B SER - 61 -84.3 158.7 N 95.9 CA 97.06 C 97.08 O 96.43 CB 97.04 OG 96.63
B ASP H 140 -66.1 -28.2 N 99.71 CA 99.39 C 98.49 O 97.79 CB 100.64 CG 101.47 OD1 100.84 OD2 102.65
B GLY H 48 -54.4 -48.7 N 97.37 CA 96.84 C 95.63 O 94.85
B ASP H 65 -75.4 -28.9 N 95.52 CA 94.38 C 93.52 O 92.43 CB 94.32 CG 94.92 OD1 94.9 OD2 94.92
B VAL H 31 -74.8 -47.2 N 92.76 CA 92.45 C 92.28 O 91.28 CB 93.28 CG1 92.93 CG2 93.34
B LYS H 157 -62.7 -44.7 N 93.13 CA 92.64 C 91.66 O 91.03 CB 94.06 CG 94.18 CD 95.02 CE 95.02 NZ 95.18
B ALA H 48 -61.8 -27.0 N 91.53 CA 90.6 C 89.66 O 88.73 CB 90.48
B MET H 4 -77.2 -49.5 N 88.59 CA 87.65 C 86.85 O 85.74 CB 87.76 CG 86.96 SD 87.66 CE 87.62
B LYS H 77 -59.5 -37.5 N 87.05 CA 86.98 C 86.87 O 86.02 CB 88.15 CG 88.16 CD 89.43 CE 89.64 NZ 90.87
B ALA H 53 -66.0 -41.0 N 87.04 CA 86.77 C 85.76 O 85.36 CB 87.76
B GLU H 76 -61.7 -39.9 N 86.14 CA 85.29 C 84.6 O 83.89 CB 85.56 CG 86.07 CD 86.49 OE1 87.37 OE2 85.92
B ILE H 0 -78.9 -42.4 N 83.11 CA 82.49 C 82.34 O 81.39 CB 82.51 CG1 82.25 CG2 81.77 CD1 82.73
B ASN H 84 -59.0 -31.8 N 84.78 CA 84.99 C 84.36 O 84.39 CB 86.05 CG 86.61 OD1 86.04 ND2 87.65
B ALA T 79 -76.6 7.2 N 83.9 CA 83.61 C 82.14 O 81.62 CB 84.08
B ILE S 38 -75.7 152.3 N 81.47 CA 80.19 C 79.8 O 80.48 CB 79.76 CG1 80.08 CG2 78.27 CD1 79.46
B ASP S 142 -94.2 123.2 N 77.0 CA 77.5 C 76.3 O 75.73 CB 78.01 CG 80.0 OD1 81.28 OD2 80.36
B GLY S 63 78.8 -148.9 N 73.17 CA 72.09 C 70.79 O 71.18
B HIS - 118 -79.4 134.0 N 69.31 CA 68.06 C 67.1 O 66.59 CB 66.89 CG 67.78 ND1 68.25 CD2 68.39 CE1 69.11 NE2 69.21
B VAL - 12 -77.3 82.8 N 67.79 CA 67.11 C 66.33 O 66.5 CB 68.22 CG1 68.21 CG2 69.21
B THR B 45 -71.4 170.6 N 69.59 CA 69.01 C 69.39 O 69.95 CB 67.97 OG1 67.82 CG2 67.76
B PHE H 33 -63.2 -41.2 N 70.21 CA 70.31 C 69.7 O 70.32 CB 69.44 CG 69.33 CD1 70.15 CD2 68.06 CE1 70.14 CE2 68.21 CZ 69.26
B GLU H 109 -59.8 -38.5 N 73.67 CA 73.2 C 74.15 O 74.49 CB 72.45 CG 72.37 CD 72.15 OE1 71.9 OE2 72.28
B LYS H 76 -78.0 -31.5 N 71.84 CA 73.09 C 73.98 O 74.5 CB 73.31 CG 72.29 CD 72.98 CE 72.3 NZ 73.02
B PHE H 1 -62.0 -41.1 N 71.92 CA 72.76 C 72.62 O 73.51 CB 72.73 CG 73.81 CD1 75.08 CD2 73.55 CE1 76.0 CE2 74.58 CZ 75.82
B TRP H 28 -61.4 -45.0 N 74.99 CA 74.78 C 75.2 O 75.73 CB 73.42 CG 73.16 CD1 72.43 CD2 73.39 NE1 72.35 CE2 73.1 CE3 74.29 CZ2 73.43 CZ3 74.74 CH2 74.1
B ALA H 58 -58.1 -46.9 N 76.14 CA 76.23 C 77.41 O 77.93 CB 75.7
B TRP H 13 -59.6 -45.2 N 77.06 CA 78.28 C 78.96 O 79.86 CB 78.67 CG 80.1 CD1 81.05 CD2 80.89 NE1 82.18 CE2 81.91 CE3 80.37 CZ2 82.72 CZ3 81.26 CH2 82.62
B TRP H 5 -59.8 -47.1 N 78.7 CA 79.12 C 79.02 O 79.81 CB 78.38 CG 78.62 CD1 77.98 CD2 79.28 NE1 78.59 CE2 79.46 CE3 80.4 CZ2 80.46 CZ3 81.38 CH2 81.49
B CYS H 45 -66.8 -26.6 N 81.07 CA 81.09 C 82.23 O 82.76 CB 80.0 SG 79.35
B SER H 92 -84.6 -15.3 N 83.06 CA 83.8 C 84.98 O 85.79 CB 83.41 OG 83.96
B HIS S 16 -66.8 159.3 N 87.09 CA 88.17 C 88.84 O 88.32 CB 88.44 CG 89.63 ND1 90.21 CD2 90.24 CE1 90.99 NE2 91.07
B PRO - 73 -80.9 130.2 N 92.09 CA 92.37 C 92.61 O 93.19 CB 93.37 CG 93.38 CD 92.64
B VAL H 97 -51.3 -16.4 N 94.08 CA 94.14 C 95.33 O 95.52 CB 93.86 CG1 93.74 CG2 92.77
B HIS H 147 -75.7 -60.4 N 92.39 CA 93.42 C 93.48 O 93.75 CB 94.47 CG 95.5 ND1 96.23 CD2 95.77 CE1 96.88 NE2 96.75
B SER H 16 -58.4 -37.6 N 92.95 CA 93.39 C 92.62 O 92.85 CB 93.21 OG 92.04
B ARG H 28 -55.0 -47.5 N 91.3 CA 90.57 C 90.97 O 90.65 CB 89.36 CG 88.26 CD 87.69 NE 86.87 CZ 86.56 NH1 86.79 NH2 85.41
B THR H 92 -58.1 -39.7 N 91.1 CA 91.35 C 91.98 O 91.75 CB 91.79 OG1 91.39 CG2 91.81
B LYS H 91 -69.0 -47.4 N 89.55 CA 90.53 C 90.19 O 90.44 CB 91.71 CG 91.8 CD 92.64 CE 92.64 NZ 93.45
B CYS H 5 -79.8 -29.2 N 87.15 CA 87.04 C 85.78 O 85.63 CB 86.72 SG 85.14
B PHE H 47 -62.3 -24.6 N 83.59 CA 82.51 C 82.85 O 82.18 CB 81.86 CG 80.93 CD1 80.15 CD2 80.89 CE1 78.99 CE2 79.89 CZ 78.88
B SER H 89 -64.1 -37.5 N 81.24 CA 81.57 C 81.7 O 81.36 CB 82.61 OG 83.11
B MET H 34 -68.1 -49.1 N 79.68 CA 79.86 C 78.92 O 78.76 CB 80.51 CG 80.96 SD 81.66 CE 80.02
B VAL H 0 -55.4 -47.4 N 78.39 CA 77.45 C 76.81 O 76.35 CB 76.53 CG1 75.37 CG2 76.9
B SER H 36 -63.4 -38.5 N 76.24 CA 75.5 C 76.05 O 75.52 CB 75.73 OG 74.85
B ALA H 79 -66.6 -38.5 N 74.96 CA 75.49 C 75.4 O 75.47 CB 76.45
B ASP H 92 -83.7 -30.9 N 73.55 CA 73.47 C 71.91 O 71.93 CB 73.9 CG 75.3 OD1 75.9 OD2 75.87
B PHE H 46 -127.1 1.5 N 72.19 CA 70.86 C 69.74 O 68.56 CB 70.39 CG 71.21 CD1 70.44 CD2 71.95 CE1 71.03 CE2 72.72 CZ 72.31
B SER S 49 -82.4 152.2 N 74.53 CA 73.73 C 73.53 O 74.35 CB 74.36 OG 75.57
B MET - 85 -77.3 151.1 N 75.73 CA 75.3 C 76.03 O 76.16 CB 73.4 CG 72.48 SD 73.59 CE 71.94
B PRO S 98 -54.4 -46.3 N 76.26 CA 76.75 C 75.77 O 76.67 CB 76.6 CG 75.52 CD 75.84
B TYR S 122 -146.8 161.7 N 76.48 CA 75.4 C 73.71 O 73.51 CB 74.83 CG 74.1 CD1 72.27 CD2 75.04 CE1 71.28 CE2 74.23 CZ 72.38 OH 71.54
B HIS - 64 -85.1 119.4 N 74.11 CA 73.02 C 71.74 O 71.65 CB 73.24 CG 74.43 ND1 74.63 CD2 75.39 CE1 75.87 NE2 76.35
B GLN - 121 -70.2 135.0 N 72.46 CA 71.16 C 70.35 O 70.69 CB 70.47 CG 69.56 CD 69.43 OE1 70.31 NE2 68.66
B GLN E 72 -105.4 124.9 N 70.04 CA 69.58 C 68.43 O 68.04 CB 70.13 CG 71.49 CD 72.33 OE1 72.03 NE2 73.43
B GLN E 101 -90.6 123.0 N 71.69 CA 70.55 C 70.23 O 70.78 CB 70.41 CG 69.39 CD 68.8 OE1 69.1 NE2 68.15
B LEU E 45 -71.9 128.4 N 67.67 CA 67.54 C 67.15 O 66.43 CB 66.95 CG 67.01 CD1 68.36 CD2 66.17
B VAL E 23 -122.7 131.3 N 67.81 CA 67.3 C 67.61 O 68.64 CB 68.28 CG1 68.08 CG2 68.33
B VAL E 63 -118.1 125.7 N 67.54 CA 67.95 C 68.52 O 67.89 CB 67.1 CG1 67.59 CG2 66.82
B HIS E 93 -122.7 139.5 N 69.03 CA 69.32 C 69.89 O 70.75 CB 70.38 CG 70.09 ND1 70.8 CD2 68.93 CE1 70.23 NE2 69.45
B GLU E 122 -95.7 144.6 N 70.49 CA 70.88 C 71.85 O 71.75 CB 69.98 CG 69.29 CD 68.8 OE1 68.41 OE2 68.68
B LYS E 121 -116.5 104.2 N 69.82 CA 70.45 C 70.57 O 71.28 CB 71.58 CG 71.81 CD 71.79 CE 71.71 NZ 71.94
B GLY S 54 -57.5 173.8 N 70.56 CA 69.53 C 71.14 O 71.81
B GLU - 134 -112.2 133.1 N 70.28 CA 69.46 C 69.46 O 70.32 CB 69.45 CG 69.18 CD 69.99 OE1 70.58 OE2 69.52
B MET T 62 -58.3 139.5 N 67.94 CA 67.89 C 68.3 O 68.39 CB 66.49 CG 66.58 SD 65.32 CE 64.96
B TYR T 123 77.1 7.6 N 65.6 CA 66.3 C 67.55 O 68.11 CB 65.53 CG 64.52 CD1 64.64 CD2 63.52 CE1 63.42 CE2 62.44 CZ 62.24 OH 61.54
B THR S 34 -112.7 166.1 N 67.09 CA 68.0 C 68.8 O 68.43 CB 67.84 OG1 67.72 CG2 66.82
B PRO T 81 -66.8 -12.7 N 67.03 CA 67.6 C 67.28 O 67.64 CB 68.19 CG 68.34 CD 67.3
B SER T 69 -86.0 -19.3 N 68.41 CA 68.32 C 67.57 O 67.41 CB 68.11 OG 67.26
B TYR - 5 -60.3 132.2 N 68.12 CA 67.04 C 67.37 O 68.36 CB 66.4 CG 65.22 CD1 64.24 CD2 65.25 CE1 63.21 CE2 64.03 CZ 63.19 OH 62.08
B ARG E 51 -140.4 142.8 N 63.76 CA 64.13 C 62.87 O 62.12 CB 64.92 CG 65.87 CD 66.85 NE 67.95 CZ 68.28 NH1 67.36 NH2 69.23
B VAL E 1 -111.1 113.6 N 63.88 CA 62.67 C 63.34 O 64.04 CB 61.73 CG1 60.39 CG2 61.14
B LEU E 24 -100.9 148.6 N 64.16 CA 64.65 C 63.61 O 62.52 CB 65.48 CG 66.83 CD1 66.38 CD2 67.28
B TYR E 0 -114.9 141.5 N 64.58 CA 63.9 C 64.43 O 65.91 CB 63.52 CG 62.78 CD1 61.54 CD2 63.42 CE1 60.57 CE2 62.68 CZ 61.18 OH 60.64
B PHE E 34 -132.9 161.1 N 65.42 CA 66.16 C 65.8 O 64.88 CB 66.08 CG 66.49 CD1 67.63 CD2 66.01 CE1 67.93 CE2 66.74 CZ 67.65
B PHE E 26 -111.4 131.6 N 67.82 CA 67.93 C 68.22 O 68.97 CB 68.99 CG 68.65 CD1 67.36 CD2 69.3 CE1 67.03 CE2 69.03 CZ 67.41
B ARG E 113 -111.4 109.4 N 74.64 CA 74.87 C 75.19 O 74.69 CB 74.17 CG 74.77 CD 73.83 NE 73.66 CZ 73.39 NH1 72.55 NH2 73.33
B ASP E 20 -64.9 116.2 N 72.37 CA 73.11 C 72.9 O 73.0 CB 74.1 CG 75.22 OD1 76.33 OD2 75.22
B LEU T 60 -71.4 -14.7 N 72.52 CA 72.22 C 73.4 O 73.39 CB 71.53 CG 70.81 CD1 70.28 CD2 69.9
B GLU T 20 -93.9 -46.2 N 72.35 CA 73.34 C 73.56 O 73.87 CB 74.43 CG 74.44 CD 74.51 OE1 75.33 OE2 73.73
B THR T 24 -87.2 -23.2 N 74.63 CA 74.89 C 74.07 O 74.39 CB 75.88 OG1 75.31 CG2 76.8
B GLY - 42 77.9 -4.9 N 75.0 CA 73.87 C 74.33 O 73.92
B ARG - 153 -71.1 132.8 N 75.53 CA 75.94 C 75.35 O 75.23 CB 77.29 CG 78.52 CD 79.83 NE 80.0 CZ 81.16 NH1 82.2 NH2 80.79
B GLU E 79 -100.6 137.0 N 75.26 CA 74.9 C 75.93 O 76.81 CB 74.17 CG 73.19 CD 73.09 OE1 73.86 OE2 71.91
B ARG E 134 -140.2 146.0 N 68.54 CA 69.38 C 68.83 O 67.93 CB 69.9 CG 69.81 CD 70.98 NE 70.85 CZ 71.14 NH1 71.82 NH2 70.72
B GLN E 54 -75.3 144.7 N 64.95 CA 64.78 C 65.29 O 66.4 CB 65.41 CG 65.31 CD 65.82 OE1 66.44 NE2 65.97
B VAL E 0 -134.0 175.4 N 64.28 CA 64.34 C 64.53 O 64.23 CB 63.5 CG1 63.64 CG2 61.94
B SER - 3 -101.7 125.9 N 61.41 CA 61.1 C 59.22 O 58.91 CB 62.58 OG 62.23
B PRO H 0 -61.5 -30.3 N 60.12 CA 58.85 C 58.78 O 57.84 CB 58.09 CG 59.85 CD 60.89
B TRP H 0 -67.4 -51.5 N 57.64 CA 57.79 C 58.01 O 56.96 CB 59.6 CG 59.84 CD1 58.25 CD2 61.32 NE1 58.7 CE2 60.44 CE3 63.05 CZ2 61.28 CZ3 63.83 CH2 63.05
B HIS H 14 -92.1 -32.3 N 58.22 CA 58.58 C 57.98 O 57.88 CB 60.5 CG 61.53 ND1 61.09 CD2 63.02 CE1 62.27 NE2 63.53
B ASP H 60 -102.0 -15.6 N 59.54 CA 59.44 C 57.91 O 57.97 CB 60.24 CG 62.0 OD1 62.88 OD2 62.74
B ILE S 4 -81.7 123.5 N 58.89 CA 57.59 C 57.32 O 57.52 CB 56.68 CG1 56.85 CG2 55.41 CD1 56.67
B PRO - 65 -61.1 135.5 N 58.28 CA 58.24 C 57.4 O 56.51 CB 58.28 CG 59.05 CD 58.34
B LEU S 0 -66.8 -48.5 N 57.9 CA 57.07 C 56.46 O 55.57 CB 57.4 CG 56.3 CD1 55.73 CD2 57.07
B TYR B 60 -92.4 132.3 N 57.59 CA 57.92 C 58.45 O 59.09 CB 58.62 CG 58.5 CD1 57.79 CD2 58.61 CE1 57.6 CE2 58.51 CZ 57.94 OH 58.08
B VAL - 44 -89.5 104.3 N 60.52 CA 61.05 C 62.28 O 62.62 CB 60.46 CG1 60.79 CG2 59.32
B ARG - 195 -112.5 119.2 N 66.54 CA 67.94 C 69.08 O 69.92 CB 68.96 CG 68.26 CD 69.1 NE 70.69 CZ 72.06 NH1 72.1 NH2 73.0
B ASP - 105 -71.0 139.6 N 65.89 CA 67.37 C 69.4 O 69.7 CB 67.78 CG 66.75 OD1 66.08 OD2 66.37
B LEU S 107 -54.8 -50.7 N 65.95 CA 67.91 C 69.24 O 70.18 CB 68.87 CG 71.46 CD1 72.1 CD2 72.04
B VAL S 104 -110.2 111.7 N 66.7 CA 67.74 C 66.56 O 65.78 CB 69.78 CG1 71.11 CG2 71.61
B ARG - 93 -83.3 110.5 N 73.07 CA 71.56 C 72.81 O 73.87 CB 70.52 CG 69.66 CD 67.91 NE 67.06 CZ 66.97 NH1 67.74 NH2 65.64
B THR - 116 -93.9 -26.8 N 67.99 CA 69.38 C 68.36 O 69.4 CB 69.79 OG1 67.63 CG2 71.08
B LYS S 129 -60.6 144.8 N 72.62 CA 72.07 C 72.59 O 73.0 CB 70.01 CG 69.28 CD 67.42 CE 67.03 NZ 67.21
B PRO - 78 -60.4 147.5 N 74.73 CA 75.19 C 74.3 O 72.87 CB 75.18 CG 73.7 CD 74.16
B GLU T 193 -62.4 -15.6 N 77.0 CA 76.32 C 75.0 O 74.13 CB 77.7 CG 78.63 CD 79.9 OE1 79.86 OE2 80.63
B ALA T 89 -69.9 -53.9 N 79.1 CA 78.03 C 76.59 O 75.59 CB 78.18
B THR S 55 -53.8 118.3 N 76.39 CA 74.95 C 74.44 O 75.3 CB 75.35 OG1 76.5 CG2 73.89
B PRO - 111 -80.3 162.5 N 74.12 CA 73.59 C 72.92 O 72.01 CB 72.7 CG 72.53 CD 73.22
B MET - 95 -81.5 143.4 N 71.51 CA 70.84 C 69.44 O 69.0 CB 71.55 CG 73.27 SD 76.07 CE 74.62
B ASN - 23 -152.7 71.3 N 61.98 CA 60.89 C 60.45 O 59.95 CB 60.12 CG 59.27 OD1 59.04 ND2 58.81
B ARG - 103 -143.9 102.8 N 59.12 CA 58.97 C 58.91 O 59.74 CB 60.1 CG 60.04 CD 60.96 NE 61.8 CZ 61.2 NH1 60.43 NH2 61.35
B TYR E 8 -117.5 146.9 N 56.11 CA 56.03 C 56.12 O 55.59 CB 55.97 CG 56.34 CD1 56.9 CD2 55.66 CE1 57.08 CE2 56.24 CZ 56.79 OH 57.12
B ASN E 28 -82.8 131.1 N 55.43 CA 55.32 C 55.41 O 55.76 CB 56.28 CG 56.52 OD1 56.0 ND2 57.31
B PHE E 0 -114.7 125.2 N 55.13 CA 54.88 C 55.3 O 54.97 CB 54.24 CG 53.96 CD1 54.63 CD2 53.58 CE1 54.68 CE2 53.6 CZ 54.36
B ILE E 0 -97.3 114.5 N 53.45 CA 54.03 C 54.18 O 54.78 CB 55.6 CG1 55.74 CG2 56.23 CD1 57.39
B CYS E 0 -79.3 117.6 N 53.73 CA 53.89 C 55.11 O 55.52 CB 52.86 SG 53.0
B GLU E 8 -95.9 -40.3 N 52.66 CA 54.09 C 54.35 O 54.76 CB 55.86 CG 56.13 CD 57.48 OE1 57.38 OE2 58.58
B ILE E 0 -126.1 105.1 N 53.73 CA 53.71 C 52.12 O 51.51 CB 55.14 CG1 56.96 CG2 55.03 CD1 58.74
B PRO - 8 -65.1 152.0 N 53.84 CA 52.39 C 52.26 O 53.25 CB 51.96 CG 52.8 CD 54.15
B LYS T 11 -43.7 132.5 N 53.87 CA 53.6 C 54.11 O 53.77 CB 52.44 CG 52.2 CD 51.48 CE 51.07 NZ 51.68
B TRP T 17 72.8 19.7 N 54.11 CA 54.67 C 55.85 O 56.01 CB 53.37 CG 52.5 CD1 52.77 CD2 51.22 NE1 51.85 CE2 50.99 CE3 50.82 CZ2 50.23 CZ3 50.11 CH2 49.7
B THR B 40 -124.8 171.9 N 53.06 CA 54.1 C 55.97 O 56.17 CB 53.65 OG1 53.78 CG2 52.0
B ARG - 42 -140.8 4.9 N 54.79 CA 56.67 C 57.81 O 59.31 CB 57.31 CG 57.21 CD 57.76 NE 57.03 CZ 57.73 NH1 58.96 NH2 56.91
B ALA B 6 -70.6 119.6 N 56.97 CA 57.92 C 58.54 O 57.44 CB 56.77
B LYS - 11 -85.1 77.1 N 58.24 CA 59.09 C 59.15 O 60.35 CB 60.6 CG 61.47 CD 61.68 CE 60.68 NZ 59.58
B PHE E 3 -74.7 152.8 N 59.79 CA 59.73 C 60.33 O 59.83 CB 57.66 CG 57.5 CD1 56.25 CD2 58.36 CE1 55.69 CE2 57.93 CZ 56.62
B GLU E 36 -151.7 144.4 N 59.14 CA 59.79 C 59.81 O 60.21 CB 62.04 CG 62.25 CD 63.39 OE1 63.87 OE2 63.0
B ILE E 3 -61.4 123.2 N 59.94 CA 60.35 C 63.23 O 63.86 CB 58.95 CG1 56.78 CG2 60.11 CD1 55.73
B ALA - 6 -80.0 95.6 N 61.97 CA 62.87 C 63.59 O 63.83 CB 62.66
B THR T 23 -68.9 -15.5 N 63.69 CA 63.85 C 64.52 O 64.73 CB 63.22 OG1 64.27 CG2 61.92
B GLY T 47 -94.3 -9.5 N 64.87 CA 65.22 C 65.4 O 65.95
B GLU S 60 -111.4 145.6 N 65.99 CA 65.66 C 65.88 O 65.62 CB 65.11 CG 65.3 CD 64.79 OE1 64.17 OE2 64.81
B SER T 78 -54.1 131.2 N 65.86 CA 65.85 C 65.09 O 64.48 CB 64.29 OG 64.93
B PHE T 90 73.4 -0.1 N 64.96 CA 63.98 C 63.24 O 61.83 CB 63.09 CG 63.78 CD1 63.78 CD2 64.25 CE1 64.22 CE2 64.54 CZ 64.53
B ASN - 0 46.6 54.6 N 62.24 CA 62.16 C 60.77 O 59.47 CB 61.8 CG 63.58 OD1 62.96 ND2 63.89
B PRO - 8 -62.2 160.5 N 62.14 CA 60.48 C 60.52 O 61.67 CB 60.58 CG 61.97 CD 62.76
B ILE E 0 -80.7 135.0 N 60.98 CA 60.68 C 61.11 O 60.83 CB 58.85 CG1 58.06 CG2 58.62 CD1 56.05
B LYS E 39 -135.2 169.7 N 60.83 CA 61.19 C 61.68 O 61.8 CB 62.57 CG 63.42 CD 64.63 CE 65.45 NZ 65.63
B GLN E 5 -84.7 129.4 N 61.81 CA 62.09 C 63.64 O 64.16 CB 61.42 CG 61.51 CD 60.68 OE1 60.2 NE2 60.72
B ASP - 37 -58.0 149.1 N 62.99 CA 64.03 C 64.16 O 63.58 CB 64.33 CG 65.18 OD1 65.44 OD2 65.33
B ILE E 64 -109.9 124.1 N 66.25 CA 66.44 C 67.1 O 67.76 CB 67.08 CG1 66.31 CG2 67.56 CD1 65.48
B LYS E 69 -131.6 128.1 N 69.16 CA 70.08 C 70.4 O 70.08 CB 69.74 CG 70.22 CD 70.11 CE 70.6 NZ 71.31
B ASN T 138 58.1 35.5 N 71.86 CA 72.23 C 72.15 O 72.19 CB 72.28 CG 72.67 OD1 73.09 ND2 72.07
B GLY T 66 84.8 -18.3 N 71.72 CA 71.51 C 70.8 O 70.76
B VAL E 90 -112.8 161.1 N 68.9 CA 68.01 C 67.35 O 67.86 CB 67.58 CG1 67.99 CG2 67.59
B PRO E 21 -53.7 130.7 N 65.46 CA 64.95 C 64.78 O 64.49 CB 63.78 CG 64.04 CD 64.88
B ARG - 27 -81.9 128.7 N 62.47 CA 62.5 C 61.69 O 60.94 CB 63.46 CG 63.4 CD 63.95 NE 64.31 CZ 64.38 NH1 64.12 NH2 64.09
B PHE B 89 -119.2 141.9 N 61.98 CA 61.23 C 61.97 O 62.85 CB 60.26 CG 59.58 CD1 58.24 CD2 59.88 CE1 57.49 CE2 59.54 CZ 58.45
B TYR - 6 -57.6 128.5 N 60.4 CA 61.18 C 61.06 O 60.27 CB 60.47 CG 60.67 CD1 61.94 CD2 58.51 CE1 61.28 CE2 57.77 CZ 59.19 OH 57.77
B LYS S 124 -84.5 -32.3 N 63.68 CA 63.6 C 63.54 O 63.45 CB 64.79 CG 65.27 CD 66.36 CE 66.92 NZ 68.13
B HIS S 29 -61.9 -36.5 N 61.35 CA 61.71 C 60.67 O 60.55 CB 62.17 CG 62.03 ND1 62.63 CD2 60.83 CE1 62.21 NE2 60.69
B GLY - 0 158.5 -171.6 N 60.68 CA 59.02 C 57.68 O 58.3
B ASP - 14 -78.6 150.6 N 58.66 CA 57.4 C 57.0 O 57.03 CB 55.57 CG 55.93 OD1 56.14 OD2 55.77
B MET B 0 -71.6 126.5 N 56.99 CA 55.87 C 54.19 O 53.38 CB 56.03 CG 54.8 SD 55.36 CE 57.57
B MET - 2 -105.0 7.3 N 55.18 CA 53.84 C 52.51 O 51.7 CB 54.13 CG 55.8 SD 56.96 CE 56.73
B TRP S 1 -139.6 160.7 N 53.25 CA 52.4 C 52.74 O 53.75 CB 52.15 CG 52.15 CD1 51.26 CD2 52.97 NE1 51.79 CE2 52.68 CE3 54.42 CZ2 53.51 CZ3 55.25 CH2 54.79
B ASN E 0 -63.3 126.5 N 52.6 CA 53.17 C 53.97 O 53.63 CB 52.28 CG 51.75 OD1 51.94 ND2 50.96
B TYR E 4 -118.6 142.6 N 51.22 CA 52.15 C 52.9 O 52.92 CB 53.61 CG 55.02 CD1 54.49 CD2 56.5 CE1 55.68 CE2 57.61 CZ 57.33 OH 58.3
B GLY E 0 -175.9 -142.2 N 53.09 CA 53.87 C 54.17 O 54.62
B ALA E 1 -152.4 162.3 N 55.08 CA 55.62 C 55.02 O 54.62 CB 57.26
B PHE - 0 -94.2 129.8 N 56.0 CA 55.87 C 56.94 O 58.05 CB 55.44 CG 54.29 CD1 53.69 CD2 54.2 CE1 52.92 CE2 53.37 CZ 52.55
B PRO T 0 -65.5 158.8 N 55.81 CA 56.83 C 57.42 O 56.8 CB 56.65 CG 55.44 CD 54.72
B GLN T 29 60.0 34.0 N 57.39 CA 57.6 C 57.23 O 57.0 CB 57.35 CG 57.69 CD 57.83 OE1 57.15 NE2 58.63
B THR - 0 -131.5 160.9 N 57.17 CA 56.95 C 58.23 O 58.97 CB 55.98 OG1 56.04 CG2 54.74
B TRP - 6 -158.0 125.8 N 57.86 CA 58.96 C 58.9 O 58.53 CB 60.26 CG 61.61 CD1 62.14 CD2 62.31 NE1 63.3 CE2 63.45 CE3 62.38 CZ2 64.19 CZ3 63.1 CH2 63.96
B GLU - 1 -78.9 87.8 N 60.68 CA 60.79 C 62.05 O 63.01 CB 60.85 CG 59.61 CD 58.85 OE1 58.93 OE2 57.88
B SER - 6 -55.8 134.7 N 63.23 CA 64.17 C 64.92 O 64.44 CB 64.04 OG 65.22
B THR S 63 -81.2 -2.2 N 64.89 CA 65.63 C 65.5 O 66.01 CB 66.61 OG1 66.98 CG2 66.59
B GLU S 89 -105.9 -3.0 N 67.09 CA 67.39 C 66.54 O 66.66 CB 67.7
B VAL - 44 -105.9 131.1 N 68.79 CA 67.55 C 67.44 O 67.68 CB 66.68 CG1 65.39 CG2 66.37
B LEU - 128 -91.0 99.7 N 69.23 CA 69.1 C 67.91 O 67.35 CB 69.52 CG 69.59 CD1 70.21 CD2 69.74
B PHE - 20 -67.9 156.9 N 68.72 CA 67.84 C 67.7 O 68.33 CB 67.47 CG 67.5 CD1 66.35 CD2 68.29 CE1 66.5 CE2 68.4 CZ 67.38
B GLU T 166 -47.9 -30.0 N 72.8 CA 72.65 C 73.19 O 73.55 CB 71.96 CG 72.02 CD 71.15 OE1 70.99 OE2 70.66
B ALA T 53 -72.7 -5.7 N 71.59 CA 71.93 C 73.06 O 73.48 CB 71.71
B GLY S 51 84.9 21.9 N 71.09 CA 71.74 C 72.92 O 73.85
B VAL S 35 -137.4 165.2 N 68.82 CA 69.43 C 69.0 O 68.26 CB 69.67 CG1 70.02 CG2 68.55
B THR - 43 -93.0 179.2 N 65.97 CA 65.99 C 65.68 O 65.76 CB 66.92 OG1 67.75 CG2 67.41
B GLY B 0 -81.4 168.9 N 62.84 CA 62.49 C 63.57 O 64.69
B ASP - 32 -88.3 13.0 N 61.14 CA 62.37 C 63.07 O 64.21 CB 62.13 CG 61.31 OD1 60.54 OD2 61.41
B ASN S 53 67.6 22.1 N 61.34 CA 62.18 C 61.99 O 62.9 CB 63.31 CG 64.08 OD1 63.71 ND2 65.1
B ASP S 39 -128.5 160.9 N 61.22 CA 60.69 C 59.09 O 58.06 CB 60.69 CG 62.62 OD1 63.42 OD2 63.24
B PRO - 4 -56.0 154.0 N 58.83 CA 57.13 C 56.15 O 56.49 CB 56.8 CG 58.16 CD 59.36
B VAL - 0 -61.0 134.7 N 57.62 CA 56.6 C 56.15 O 55.65 CB 55.81 CG1 54.7 CG2 55.93
B ASP E 9 -86.3 143.1 N 56.33 CA 55.77 C 54.38 O 53.84 CB 56.67 CG 58.36 OD1 58.89 OD2 59.23
B ALA E 0 -131.5 140.6 N 55.16 CA 53.72 C 53.64 O 54.14 CB 53.2
B VAL E 0 -114.3 117.0 N 54.19 CA 53.53 C 52.6 O 52.42 CB 54.19 CG1 54.05 CG2 55.39
B GLU E 1 -99.0 120.0 N 54.42 CA 53.72 C 53.36 O 53.68 CB 53.66 CG 53.22 CD 53.03 OE1 52.98 OE2 52.67
B ILE - 8 -99.9 11.0 N 53.42 CA 53.36 C 52.77 O 52.88 CB 53.22 CG1 52.9 CG2 53.64 CD1 53.08
B GLY S 3 -66.4 175.2 N 54.1 CA 53.83 C 53.6 O 53.8
B MET S 30 -87.1 -13.3 N 55.55 CA 55.71 C 55.73 O 55.63 CB 55.57 CG 55.82 SD 56.51 CE 56.76
B THR S 43 -94.0 129.3 N 54.35 CA 54.34 C 54.71 O 54.84 CB 54.61 OG1 54.7 CG2 54.79
B GLN - 28 -76.5 133.6 N 53.02 CA 53.65 C 53.7 O 53.4 CB 53.6 CG 54.41 CD 54.59 OE1 54.04 NE2 55.01
B PHE - 10 -95.7 161.3 N 54.53 CA 54.76 C 55.68 O 55.93 CB 55.16 CG 54.92 CD1 54.64 CD2 54.99 CE1 54.63 CE2 54.94 CZ 54.47
B LYS - 119 -81.3 155.9 N 55.9 CA 56.55 C 57.75 O 57.59 CB 56.88 CG 56.68 CD 55.83 CE 55.85 NZ 54.67
B VAL T 29 -59.5 126.0 N 55.41 CA 56.53 C 56.81 O 56.79 CB 57.73 CG1 59.16 CG2 57.48
B GLY T 1 86.7 -10.2 N 57.91 CA 57.92 C 56.9 O 57.32
B GLN - 75 -61.8 137.9 N 57.59 CA 56.76 C 57.19 O 57.13 CB 56.14 CG 55.41 CD 55.03 OE1 55.12 NE2 54.63
B VAL E 34 -114.1 131.3 N 57.15 CA 57.14 C 56.67 O 56.87 CB 58.31 CG1 58.31 CG2 59.0
B SER E 15 -153.3 159.6 N 58.28 CA 58.26 C 58.02 O 57.95 CB 57.54 OG 57.02
B ALA E 19 -78.8 131.0 N 56.82 CA 57.23 C 56.77 O 56.26 CB 57.98
B VAL E 0 -127.8 161.0 N 55.68 CA 55.07 C 55.29 O 55.83 CB 54.69 CG1 54.63 CG2 55.26
B LYS E 31 -109.1 124.9 N 57.15 CA 57.04 C 56.74 O 56.41 CB 56.99 CG 57.62 CD 57.66 CE 57.55 NZ 58.64
B VAL E 0 -81.8 132.2 N 55.77 CA 55.52 C 55.38 O 55.6 CB 56.09 CG1 55.85 CG2 56.26
B LEU E 0 -111.9 -33.4 N 55.09 CA 54.96 C 55.05 O 55.25 CB 54.49 CG 54.49 CD1 54.04 CD2 54.67
B GLY E 0 177.0 -175.5 N 53.46 CA 53.83 C 54.3 O 54.69
B VAL E 0 -152.5 144.7 N 53.5 CA 54.34 C 54.87 O 55.0 CB 54.84 CG1 54.67 CG2 55.54
B LEU E 0 -104.1 126.0 N 55.16 CA 55.99 C 57.2 O 57.77 CB 56.32 CG 57.52 CD1 57.0 CD2 57.75
B GLY - 0 -81.2 61.2 N 57.87 CA 58.35 C 59.76 O 60.73
B MET E 0 -67.2 129.1 N 59.34 CA 60.74 C 61.85 O 61.71 CB 60.86 CG 62.6 SD 63.05 CE 64.6
B ILE E 17 -106.2 113.3 N 62.73 CA 63.69 C 65.12 O 65.6 CB 64.0 CG1 62.67 CG2 64.83 CD1 62.38
B ASP E 12 -111.9 113.4 N 63.46 CA 64.48 C 65.92 O 66.17 CB 64.2 CG 65.7 OD1 66.72 OD2 65.66
B GLU T 145 54.1 39.2 N 65.82 CA 67.11 C 66.76 O 67.38 CB 67.84 CG 68.41 CD 69.06 OE1 69.07 OE2 69.6
B GLY T 40 84.7 4.9 N 67.08 CA 66.52 C 66.08 O 66.12
B LYS E 90 -118.6 145.3 N 66.01 CA 65.31 C 63.96 O 63.76 CB 66.0 CG 67.29 CD 67.61 CE 68.96 NZ 69.88
B MET E 1 -63.2 127.6 N 64.65 CA 63.1 C 63.1 O 63.67 CB 62.43 CG 61.12 SD 61.21 CE 59.98
B ASP - 3 -146.7 56.5 N 59.94 CA 59.48 C 58.19 O 58.17 CB 60.78 CG 61.39 OD1 60.87 OD2 62.05
B TRP - 15 -42.9 139.5 N 58.69 CA 57.22 C 57.06 O 57.57 CB 56.61 CG 57.16 CD1 57.9 CD2 56.83 NE1 57.83 CE2 57.23 CE3 55.97 CZ2 56.69 CZ3 55.94 CH2 56.43
B LYS E 1 -120.8 102.3 N 56.01 CA 55.47 C 54.23 O 53.75 CB 55.62 CG 57.28 CD 57.82 CE 59.6 NZ 60.44
B VAL E 0 -80.0 131.0 N 53.65 CA 52.67 C 52.18 O 52.34 CB 52.84 CG1 51.81 CG2 53.03
B VAL E 1 -94.1 128.6 N 52.85 CA 51.87 C 51.6 O 51.73 CB 51.98 CG1 51.21 CG2 52.24
B CYS E 0 -144.5 168.9 N 52.39 CA 52.08 C 52.01 O 51.82 CB 52.87 SG 53.12
B ILE E 0 -141.0 138.7 N 53.83 CA 53.58 C 53.8 O 54.24 CB 53.55 CG1 53.25 CG2 53.65 CD1 53.37
B SER E 6 -54.5 133.4 N 54.22 CA 54.71 C 55.0 O 55.03 CB 54.56 OG 55.0
B HIS T 50 -66.5 -8.3 N 55.88 CA 56.48 C 56.96 O 57.8 CB 57.3 CG 57.81 ND1 58.39 CD2 57.64 CE1 58.35 NE2 58.08
B ASN T 142 -96.5 -5.4 N 58.6 CA 58.86 C 58.38 O 58.37 CB 58.52 CG 59.74 OD1 60.72 ND2 59.65
B ASP S 10 -73.1 141.5 N 57.76 CA 57.5 C 58.14 O 58.56 CB 56.77 CG 56.62 OD1 56.79 OD2 56.28
B PRO T 59 -58.1 -27.9 N 58.27 CA 58.78 C 58.92 O 60.06 CB 58.59 CG 58.11 CD 57.44
B ILE T 11 -106.2 15.5 N 58.58 CA 58.88 C 59.04 O 58.65 CB 58.35 CG1 57.61 CG2 58.52 CD1 57.12
B CYS G 7 -60.6 -44.9 N 59.39 CA 59.47 C 60.09 O 60.1 CB 59.75 SG 60.02
B ARG G 68 -54.4 -33.0 N 60.93 CA 61.96 C 61.42 O 62.08 CB 63.2
B PHE G 126 -89.3 -14.7 N 61.18 CA 60.95 C 60.11 O 60.3 CB 60.9 CG 61.9 CD1 62.94 CD2 61.69 CE1 64.07 CE2 62.62 CZ 63.68
B MET - 0 -95.0 104.9 N 61.61 CA 61.22 C 61.54 O 61.63 CB 60.72 CG 60.48 SD 60.58 CE 59.74
B LYS - 135 -110.5 -20.3 N 60.6 CA 60.74 C 60.3 O 61.05 CB 61.57 CG 62.25 CD 63.37 CE 64.25 NZ 65.7
B ASP S 37 -157.8 -179.2 N 57.8 CA 57.7 C 57.24 O 57.35 CB 57.8 CG 58.33 OD1 57.91 OD2 58.71
B ILE T 4 -63.6 -27.3 N 55.79 CA 55.77 C 56.05 O 56.03 CB 56.12 CG1 56.32 CG2 56.39 CD1 56.02
B HIS T 127 -70.6 -22.2 N 58.17 CA 58.16 C 57.98 O 57.93 CB 58.11 CG 58.86 ND1 59.3 CD2 59.0 CE1 59.52 NE2 59.37
B ASP H 33 -76.7 -12.3 N 58.16 CA 57.89 C 57.9 O 58.05 CB 58.24 CG 58.75 OD1 59.01 OD2 59.15
B VAL H 0 -72.4 -45.5 N 55.65 CA 55.53 C 55.72 O 55.76 CB 55.59 CG1 55.45 CG2 55.34
B PRO H 67 -64.0 -28.5 N 55.82 CA 56.15 C 55.99 O 56.36 CB 56.21 CG 56.52 CD 55.87
B LYS H 141 -67.7 -36.8 N 59.18 CA 59.33 C 59.17 O 59.81 CB 59.44 CG 59.63 CD 60.2 CE 60.57 NZ 61.35
B PHE H 75 -117.4 -19.5 N 58.81 CA 58.67 C 58.44 O 58.55 CB 58.82 CG 59.35 CD1 59.91 CD2 59.09 CE1 60.33 CE2 59.8 CZ 60.5
B LEU S 7 -131.6 59.9 N 55.06 CA 55.16 C 55.5 O 55.83 CB 54.68 CG 54.75 CD1 54.65 CD2 54.75
B PRO T 31 -49.3 138.4 N 53.49 CA 54.21 C 54.51 O 54.62 CB 54.18 CG 53.88 CD 53.37
B GLY T 19 83.8 -14.6 N 52.13 CA 52.72 C 52.87 O 53.8
B CYS H 0 -64.4 -51.9 N 53.29 CA 53.29 C 53.87 O 54.59 CB 52.34 SG 52.56
B LEU H 17 -60.2 -47.0 N 53.43 CA 53.83 C 55.19 O 56.11 CB 53.57 CG 53.01 CD1 52.69 CD2 52.66
B ASP H 104 -58.7 -43.4 N 53.63 CA 54.76 C 55.76 O 56.87 CB 55.23 CG 55.2 OD1 55.24 OD2 55.8
B ALA H 16 -66.1 -41.1 N 54.05 CA 54.88 C 54.92 O 56.31 CB 53.9
B ILE H 1 -61.4 -48.9 N 55.34 CA 55.61 C 56.84 O 57.99 CB 54.26 CG1 53.37 CG2 54.76 CD1 52.34
B ARG H 63 -58.8 -44.6 N 56.82 CA 57.83 C 59.31 O 60.44 CB 57.22 CG 57.99 CD 57.06 NE 57.26 CZ 55.97 NH1 55.11 NH2 55.86
B GLU H 89 -69.7 -42.2 N 56.7 CA 58.42 C 59.55 O 61.26 CB 58.73 CG 60.37 CD 61.85 OE1 61.18 OE2 63.44
B TRP H 4 -55.9 -49.2 N 57.08 CA 57.91 C 58.89 O 60.4 CB 56.48 CG 57.4 CD1 57.74 CD2 58.23 NE1 58.56 CE2 58.97 CE3 58.59 CZ2 59.82 CZ3 59.75 CH2 60.37
B PHE H 0 -73.2 -22.7 N 59.16 CA 59.98 C 61.15 O 61.94 CB 58.54 CG 57.7 CD1 58.7 CD2 56.03 CE1 58.14 CE2 55.58 CZ 56.28
B ARG H 96 -69.0 -42.1 N 60.23 CA 61.09 C 62.96 O 64.11 CB 60.7 CG 61.39 CD 60.91 NE 61.8 CZ 63.27 NH1 64.23 NH2 63.88
B VAL H 20 -112.0 -7.7 N 60.86 CA 62.6 C 63.41 O 64.6 CB 62.88 CG1 62.23 CG2 62.31
B TYR T 12 -62.5 -25.0 N 62.08 CA 62.79 C 63.8 O 64.27 CB 61.88 CG 61.14 CD1 61.85 CD2 60.14 CE1 61.43 CE2 59.94 CZ 60.65 OH 60.23
B LYS T 26 -91.5 -8.4 N 65.04 CA 65.93 C 66.8 O 67.3 CB 65.65 CG 65.17 CD 64.76 CE 64.24 NZ 64.47
B ILE G 82 -60.9 -44.6 N 66.85 CA 67.51 C 67.99 O 68.47 CB 67.22 CG1 66.66 CG2 67.65 CD1 66.1
B CYS G 51 -68.0 -4.4 N 68.23 CA 68.47 C 68.55 O 68.72 CB 67.69 SG 66.91
B GLN G 60 -106.7 3.9 N 69.54 CA 69.53 C 70.26 O 70.73 CB 69.05 CG 68.58 CD 68.2 OE1 68.56 NE2 67.6
B GLY T 73 99.3 -1.2 N 70.46 CA 70.88 C 70.93 O 71.4
B GLY - 32 -84.5 -170.1 N 70.06 CA 69.42 C 69.47 O 70.0
B GLU - 104 -114.0 161.6 N 69.55 CA 68.95 C 67.95 O 67.67 CB 69.13 CG 70.24
B ALA - 42 -57.9 143.0 N 68.76 CA 67.31 C 66.41 O 66.74 CB 67.11
B SER - 9 -74.0 151.2 N 66.82 CA 65.74 C 65.03 O 65.0 CB 64.8 OG 65.97
B HIS E 137 -97.8 159.3 N 66.93 CA 65.94 C 64.48 O 64.19 CB 66.43 CG 67.95 ND1 69.21 CD2 68.7 CE1 69.95 NE2 69.97
B PHE E 37 -135.8 133.3 N 63.63 CA 62.32 C 61.98 O 62.22 CB 61.54 CG 62.2 CD1 61.68 CD2 62.85 CE1 61.95 CE2 63.53 CZ 63.06
B ALA G 23 -67.5 161.7 N 62.87 CA 62.5 C 61.52 O 61.19 CB 61.91
B PHE G 56 56.2 30.1 N 63.69 CA 62.9 C 63.16 O 62.81 CB 62.13 CG 62.42 CD1 62.28 CD2 62.29 CE1 62.31 CE2 62.35 CZ 62.39
B ASP G 169 55.8 31.1 N 64.56 CA 65.32 C 64.99 O 64.81 CB 65.38 CG 66.24 OD1 67.37 OD2 65.84
B GLY G 2 85.7 4.7 N 61.9 CA 61.67 C 60.53 O 60.2
B GLU - 99 -63.5 135.1 N 61.77 CA 60.94 C 60.58 O 60.88 CB 60.61 CG 60.05 CD 60.34 OE1 60.86 OE2 59.79
B PHE E 16 -78.4 113.1 N 57.27 CA 56.69 C 56.43 O 56.14 CB 55.98 CG 56.51 CD1 56.39 CD2 57.16 CE1 56.98 CE2 57.77 CZ 57.75
B LYS E 44 -74.0 157.5 N 57.22 CA 56.96 C 56.58 O 56.49 CB 57.61 CG 58.32 CD 58.28 CE 58.61 NZ 58.74
B ASP E 50 -78.9 -179.0 N 57.83 CA 57.49 C 57.73 O 58.14 CB 57.64 CG 58.17 OD1 58.41 OD2 58.44
B LYS H 60 -67.1 -33.2 N 57.3 CA 57.62 C 58.22 O 58.59 CB 57.41 CG 57.69 CD 57.99 CE 58.57 NZ 58.7
B GLU H 115 -61.6 -42.2 N 59.06 CA 59.51 C 59.56 O 60.36 CB 59.94 CG 60.61 CD 61.52 OE1 62.14 OE2 61.32
B TYR H 57 -68.8 -39.8 N 57.45 CA 57.85 C 58.05 O 58.61 CB 57.52 CG 58.21 CD1 58.59 CD2 58.45 CE1 58.9 CE2 59.12 CZ 59.52 OH 60.54
B ALA H 0 -65.5 -38.6 N 57.37 CA 57.48 C 57.81 O 58.18 CB 56.8
B MET H 43 -71.6 -29.7 N 58.71 CA 59.33 C 60.25 O 60.62 CB 59.17 CG 58.81 SD 59.59 CE 59.43
B LYS H 101 -66.4 -44.7 N 60.07 CA 60.49 C 60.94 O 61.56 CB 60.31 CG 60.71 CD 61.15 CE 61.73 NZ 61.14
B VAL H 10 -58.5 -43.9 N 58.18 CA 58.63 C 59.14 O 59.89 CB 58.36 CG1 58.97 CG2 58.3
B ILE H 0 -66.2 -43.7 N 58.15 CA 58.46 C 59.16 O 59.69 CB 57.66 CG1 57.1 CG2 58.06 CD1 56.05
B ASP H 71 -58.8 -47.0 N 59.66 CA 60.38 C 61.05 O 61.88 CB 60.29 CG 61.63 OD1 62.46 OD2 61.75
B GLU H 103 -65.2 -35.9 N 61.41 CA 62.07 C 62.88 O 63.69 CB 61.73 CG 61.69 CD 61.76 OE1 61.51 OE2 61.52
B SER H 2 -74.2 -21.3 N 58.64 CA 59.43 C 59.87 O 60.83 CB 59.04 OG 58.64
B HIS H 21 -70.6 -41.5 N 58.57 CA 59.03 C 60.24 O 61.2 CB 58.3 CG 59.13 ND1 59.31 CD2 59.16 CE1 59.77 NE2 59.67
B ASN H 90 -59.7 -44.6 N 61.33 CA 62.11 C 62.91 O 63.9 CB 61.42 CG 61.15 OD1 61.62 ND2 60.92
B MET H 28 -61.0 -40.6 N 61.08 CA 62.07 C 63.09 O 64.22 CB 61.55 CG 61.08 SD 60.51 CE 59.78
B TRP H 4 -65.3 -37.8 N 59.56 CA 60.23 C 61.05 O 62.1 CB 59.18 CG 59.89 CD1 60.43 CD2 59.68 NE1 60.93 CE2 60.62 CE3 59.16 CZ2 60.61 CZ3 59.76 CH2 60.52
B HIS H 72 -60.3 -42.9 N 62.66 CA 63.6 C 64.82 O 65.82 CB 62.87 CG 62.57 ND1 61.68 CD2 63.48 CE1 61.76 NE2 63.0
B ASN I 84 -66.2 -38.7 N 64.48 CA 65.19 C 66.19 O 67.39 CB 64.5 CG 65.59 OD1 65.61 ND2 66.14
B LEU I 1 -66.2 -53.5 N 64.33 CA 65.3 C 66.36 O 67.22 CB 64.73 CG 65.66 CD1 66.47 CD2 64.83
B LEU I 34 -84.7 -56.5 N 65.91 CA 66.73 C 67.34 O 68.65 CB 65.89 CG 66.81 CD1 67.92 CD2 65.95
B LYS I 114 -70.2 -53.6 N 69.25 CA 69.88 C 70.71 O 71.75 CB 68.96 CG 68.41 CD 69.08 CE 68.19 NZ 68.96
B VAL I 95 -73.8 -46.0 N 70.16 CA 70.4 C 71.22 O 72.15 CB 69.51 CG1 69.87 CG2 68.48
B ASN T 86 -103.5 4.3 N 70.34 CA 71.11 C 71.91 O 72.42 CB 70.75 CG 70.62 OD1 71.31 ND2 69.73
B LYS - 162 57.0 30.6 N 72.29 CA 72.95 C 73.15 O 73.89 CB 73.76 CG 74.18 CD 74.28 CE 74.48 NZ 74.42
B ARG - 106 -97.4 102.5 N 70.26 CA 70.28 C 70.08 O 69.29 CB 69.8 CG 70.38 CD 69.79 NE 70.14 CZ 69.88 NH1 69.07 NH2 69.7
B GLY S 10 -94.8 -17.6 N 66.94 CA 66.31 C 66.53 O 65.99
B GLU - 86 -128.4 143.8 N 65.63 CA 65.45 C 65.74 O 66.09 CB 65.85 CG 65.47 CD 66.3 OE1 66.58 OE2 66.11
B LEU - 62 -93.3 360.0 N 67.72 CA 67.84 C 68.36 O 68.65 CB 67.24 CG 66.1 CD1 65.37 CD2 65.69
