A LYS - 114 360.0 141.9 N 34.0 CA 30.78 C 32.89 O 23.06 CB 31.61
A PRO - 120 -75.1 147.1 N 38.95 CA 34.03 C 28.36 O 29.35 CB 39.94 CG 42.24 CD 41.33
A LEU - 37 -74.1 159.0 N 23.2 CA 21.81 C 22.13 O 21.41 CB 21.53 CG 25.75 CD1 25.48 CD2 24.28
A PRO - 54 -56.5 158.2 N 21.28 CA 20.14 C 18.7 O 17.79 CB 20.94 CG 22.93 CD 22.42
A GLU T 171 -61.6 138.9 N 19.74 CA 21.21 C 19.28 O 19.17 CB 28.36 CG 34.64 CD 42.31 OE1 48.7 OE2 52.1
A GLY T 29 84.9 -1.8 N 16.83 CA 17.28 C 13.92 O 15.41
A TRP E 47 -103.4 150.0 N 13.46 CA 13.79 C 14.74 O 17.29 CB 13.17 CG 14.77 CD1 14.93 CD2 14.04 NE1 14.11 CE2 13.66 CE3 14.8 CZ2 13.82 CZ3 15.22 CH2 14.39
A GLU E 68 -137.7 148.5 N 12.69 CA 14.84 C 14.46 O 14.8 CB 17.14 CG 19.56 CD 16.87 OE1 24.21 OE2 15.35
A MET E 78 -96.5 129.4 N 12.59 CA 11.75 C 13.27 O 14.29 CB 14.49 CG 15.83 SD 19.91 CE 20.72
A ARG E 58 -122.8 177.9 N 11.13 CA 10.51 C 10.65 O 11.71 CB 11.3 CG 11.2 CD 11.61 NE 13.26 CZ 14.49 NH1 14.2 NH2 15.15
A PHE E 119 -131.3 137.1 N 10.95 CA 11.34 C 11.75 O 13.24 CB 12.79 CG 13.34 CD1 14.8 CD2 18.5 CE1 18.18 CE2 20.59 CZ 19.88
A THR - 18 -73.9 173.3 N 10.82 CA 12.3 C 13.09 O 12.57 CB 13.06 OG1 14.02 CG2 13.62
A VAL T 161 -53.1 -30.5 N 12.57 CA 13.32 C 17.44 O 19.67 CB 14.04 CG1 14.18 CG2 15.48
A ASP T 117 -98.7 17.6 N 17.79 CA 17.98 C 17.67 O 16.84 CB 21.87 CG 26.3 OD1 25.32 OD2 33.26
A GLY - 46 74.5 23.1 N 13.04 CA 13.8 C 13.57 O 15.57
A ILE - 74 -88.3 129.0 N 13.68 CA 13.55 C 13.52 O 12.82 CB 13.92 CG1 16.17 CG2 15.05 CD1 16.64
A PRO E 58 -69.8 143.8 N 12.94 CA 11.86 C 13.11 O 13.55 CB 15.18 CG 19.16 CD 15.56
A TYR E 7 -144.3 169.9 N 11.23 CA 12.05 C 11.9 O 12.15 CB 11.0 CG 10.91 CD1 11.48 CD2 11.26 CE1 11.74 CE2 10.84 CZ 11.65 OH 12.0
A PHE E 10 -119.3 127.4 N 11.28 CA 11.29 C 12.32 O 11.92 CB 12.21 CG 13.76 CD1 14.76 CD2 14.37 CE1 17.71 CE2 16.35 CZ 16.61
A VAL E 1 -109.4 126.0 N 10.44 CA 11.42 C 11.96 O 11.6 CB 12.94 CG1 13.86 CG2 13.12
A ASP E 3 -108.4 103.5 N 10.64 CA 11.77 C 11.3 O 11.41 CB 11.56 CG 12.53 OD1 12.2 OD2 11.84
A HIS T 61 -79.7 -12.8 N 11.76 CA 12.45 C 14.71 O 18.05 CB 13.69 CG 13.95 ND1 14.58 CD2 14.65 CE1 13.09 NE2 15.34
A ASN T 95 -71.2 -49.7 N 13.48 CA 13.56 C 14.94 O 17.05 CB 14.26 CG 17.89 OD1 22.28 ND2 16.87
A ARG T 56 -96.1 -10.2 N 11.22 CA 11.76 C 10.46 O 11.7 CB 11.75 CG 12.73 CD 13.02 NE 12.65 CZ 11.7 NH1 12.11 NH2 12.22
A ARG T 79 62.4 54.9 N 10.42 CA 11.55 C 9.9 O 11.22 CB 15.13 CG 18.08 CD 25.97 NE 26.79 CZ 28.73 NH1 25.12 NH2 28.61
A THR E 10 -144.0 178.3 N 9.42 CA 10.42 C 9.82 O 10.13 CB 9.73 OG1 9.12 CG2 9.62
A THR E 7 -142.6 149.0 N 9.79 CA 9.81 C 10.38 O 9.83 CB 10.59 OG1 9.85 CG2 10.53
A THR E 3 -152.1 153.7 N 9.99 CA 9.51 C 11.36 O 10.69 CB 10.86 OG1 10.55 CG2 10.23
A TYR S 50 -80.0 -14.5 N 11.35 CA 11.97 C 14.78 O 15.8 CB 11.97 CG 11.74 CD1 12.15 CD2 12.22 CE1 13.64 CE2 13.63 CZ 13.84 OH 15.8
A ILE S 30 -85.3 117.3 N 14.24 CA 16.48 C 17.82 O 19.71 CB 18.32 CG1 19.62 CG2 23.35 CD1 21.97
A ASP B 22 -66.8 119.7 N 17.66 CA 19.13 C 20.1 O 21.74 CB 21.78 CG 23.76 OD1 21.17 OD2 27.35
A PRO T 47 -70.0 -14.3 N 22.89 CA 23.62 C 26.77 O 29.26 CB 25.45 CG 24.16 CD 23.97
A ARG T 104 -70.4 -27.9 N 25.14 CA 29.09 C 34.88 O 38.67 CB 25.36 CG 27.52 CD 29.66 NE 27.81 CZ 32.54 NH1 33.93 NH2 32.39
A THR T 99 -125.2 -29.4 N 35.53 CA 41.69 C 43.95 O 53.15 CB 43.76 OG1 44.7 CG2 45.32
A GLY T 55 81.1 22.3 N 36.85 CA 33.45 C 29.1 O 33.23
A LYS B 49 -133.0 151.6 N 29.5 CA 27.92 C 24.77 O 17.95 CB 29.66
A SER - 139 -92.3 360.0 N 24.64 CA 27.97 C 32.81 O 32.51 CB 30.06 OG 32.35 OXT 37.39
B ASN - 116 360.0 120.5 N 25.53 CA 25.73 C 29.11 O 26.33 CB 24.31 CG 24.15 OD1 26.5 ND2 21.43
B GLU - 111 -83.9 -16.8 N 40.94 CA 41.68 C 39.07 O 42.66 CB 42.56
B LYS S 113 -66.2 143.6 N 31.86 CA 26.78 C 22.29 O 19.89 CB 29.4 CG 40.96 CD 42.05 CE 43.22
B PRO - 113 -71.0 157.1 N 17.76 CA 17.18 C 14.93 O 15.6 CB 20.0 CG 21.99 CD 20.34
B LEU - 53 -67.9 145.1 N 14.63 CA 15.25 C 15.27 O 16.75 CB 16.79 CG 15.08 CD1 17.85 CD2 15.14
B PRO - 56 -74.8 163.6 N 13.06 CA 13.41 C 13.01 O 11.98 CB 17.09 CG 16.06 CD 14.06
B GLU T 183 -47.2 133.5 N 13.25 CA 13.64 C 12.68 O 12.32 CB 15.68 CG 18.63 CD 20.87 OE1 25.87 OE2 29.08
B GLY T 29 91.4 -14.4 N 9.95 CA 9.35 C 8.31 O 9.47
B TRP E 44 -101.2 145.0 N 8.74 CA 8.73 C 9.05 O 9.05 CB 9.89 CG 9.95 CD1 10.68 CD2 8.74 NE1 10.77 CE2 10.16 CE3 9.5 CZ2 9.36 CZ3 10.39 CH2 10.07
B GLU E 69 -134.1 143.7 N 9.73 CA 11.5 C 12.24 O 11.17 CB 13.68 CG 15.56 CD 13.78 OE1 13.74 OE2 14.74
B MET E 73 -103.0 135.6 N 12.02 CA 12.97 C 14.02 O 17.3 CB 14.9 CG 15.9 SD 20.62 CE 22.71
B ARG E 61 -132.3 172.9 N 13.89 CA 15.81 C 15.65 O 14.61 CB 20.75 CG 22.19 CD 24.54 NE 24.41 CZ 28.95
B PHE E 119 -125.5 142.1 N 18.77 CA 18.52 C 18.9 O 20.38 CB 19.39 CG 21.58 CD1 26.22 CD2 25.5 CE1 32.17 CE2 29.08 CZ 28.72
B THR - 21 -68.0 166.9 N 17.1 CA 17.85 C 17.91 O 19.64 CB 20.04 OG1 18.81 CG2 21.24
B VAL T 154 -53.3 -39.2 N 22.41 CA 26.01 C 24.52 O 25.97 CB 27.14 CG1 29.24 CG2 31.06
B ASP T 115 -91.3 12.4 N 23.43 CA 24.42 C 26.46 O 29.97 CB 25.46 CG 32.61 OD1 29.13 OD2 36.2
B GLY S 46 89.4 20.3 N 21.44 CA 20.52 C 22.22 O 26.36
B ILE - 67 -92.4 128.6 N 19.51 CA 19.38 C 16.28 O 16.18 CB 22.02 CG1 25.81 CG2 23.08 CD1 28.04
B PRO E 54 -67.0 138.0 N 17.93 CA 16.62 C 14.93 O 14.5 CB 18.38 CG 21.23 CD 18.14
B TYR E 19 -140.0 167.1 N 11.76 CA 11.48 C 11.37 O 11.41 CB 12.48 CG 11.77 CD1 12.22 CD2 13.61 CE1 14.27 CE2 13.34 CZ 15.28 OH 17.73
B PHE E 8 -129.1 131.0 N 9.25 CA 9.31 C 10.14 O 10.0 CB 9.29 CG 9.66 CD1 11.3 CD2 11.02 CE1 11.58 CE2 11.85 CZ 11.14
B VAL E 0 -113.9 125.7 N 8.59 CA 9.34 C 8.72 O 9.46 CB 9.39 CG1 9.68 CG2 10.44
B ASP E 1 -104.2 105.8 N 7.91 CA 8.47 C 8.83 O 8.42 CB 8.33 CG 11.03 OD1 10.42 OD2 11.91
B HIS T 47 -82.5 -4.7 N 8.31 CA 8.31 C 8.3 O 8.8 CB 7.94 CG 8.5 ND1 9.62 CD2 9.47 CE1 9.5 NE2 9.53
B ASN T 108 -82.9 -53.5 N 9.24 CA 9.49 C 10.02 O 10.77 CB 9.42 CG 8.74 OD1 13.45 ND2 8.35
B ARG T 119 -87.2 -8.9 N 9.3 CA 10.21 C 8.85 O 10.0 CB 11.02 CG 14.47 CD 17.33 NE 19.38 CZ 20.25 NH1 19.61 NH2 27.43
B ARG T 78 62.6 42.1 N 9.04 CA 8.71 C 9.2 O 12.06 CB 8.95 CG 9.5 CD 9.99 NE 9.99 CZ 9.88 NH1 9.28 NH2 12.52
B THR E 0 -114.6 163.9 N 9.23 CA 8.36 C 9.66 O 8.92 CB 9.33 OG1 10.02 CG2 9.69
B THR E 3 -134.2 155.2 N 9.38 CA 9.06 C 8.28 O 9.57 CB 9.18 OG1 10.27 CG2 10.18
B THR E 2 -160.2 149.5 N 8.76 CA 9.99 C 9.68 O 9.54 CB 10.34 OG1 9.94 CG2 10.17
B TYR S 41 -73.1 -10.6 N 10.6 CA 11.89 C 11.66 O 13.23 CB 12.55 CG 11.92 CD1 14.32 CD2 15.11 CE1 15.29 CE2 15.38 CZ 16.11 OH 20.05
B ILE S 43 -75.4 123.1 N 10.59 CA 11.03 C 10.41 O 10.85 CB 13.68 CG1 16.36 CG2 12.23 CD1 19.89
B ASP - 21 -70.0 125.2 N 10.52 CA 10.39 C 10.55 O 10.66 CB 9.98 CG 11.06 OD1 11.05 OD2 13.54
B PRO T 38 -67.3 -12.7 N 9.6 CA 10.55 C 11.34 O 13.92 CB 11.51 CG 10.5 CD 10.08
B ARG T 62 -83.9 -19.5 N 10.78 CA 12.16 C 13.69 O 14.99 CB 11.84 CG 12.73 CD 12.26 NE 12.57 CZ 17.6 NH1 19.78 NH2 17.58
B THR T 75 -127.1 -23.9 N 12.8 CA 12.35 C 11.84 O 11.68 CB 13.39 OG1 13.68 CG2 16.11
B GLY S 59 76.4 9.8 N 11.51 CA 12.1 C 10.63 O 11.65
B LYS - 153 -123.5 152.3 N 13.66 CA 16.47 C 17.78 O 15.81 CB 16.68 CG 21.36 CD 20.59 CE 19.89 NZ 17.6
B SER - 129 -108.1 360.0 N 19.69 CA 23.39 C 30.55 O 30.5 CB 24.45 OG 29.89 OXT 28.48
C THR - 168 360.0 141.3 N 19.45 CA 21.38 C 19.25 O 19.63 CB 24.16 OG1 30.91 CG2 30.56
C PRO - 30 -83.5 165.8 N 17.68 CA 18.72 C 21.68 O 20.16 CB 22.02 CG 20.88 CD 22.94
C GLU - 131 -83.0 115.1 N 20.49 CA 21.06 C 17.53 O 17.43 CB 27.88 CG 32.24 CD 33.2
C ALA - 22 -131.4 139.8 N 18.24 CA 16.41 C 14.61 O 14.95 CB 18.56
C PRO - 12 -79.0 176.6 N 13.91 CA 13.85 C 12.22 O 12.26 CB 14.92 CG 16.53 CD 14.62
C PRO - 41 -53.0 145.0 N 12.53 CA 11.28 C 11.11 O 12.02 CB 13.7 CG 14.35 CD 14.8
C CYS - 21 -76.0 143.0 N 11.89 CA 12.34 C 12.14 O 13.11 CB 11.41 SG 12.01
C TYR H 22 -49.0 -43.2 N 11.62 CA 11.47 C 14.95 O 13.85 CB 12.17 CG 13.36 CD1 16.71 CD2 13.88 CE1 15.92 CE2 16.78 CZ 13.61 OH 17.95
C MET H 95 -63.6 -32.4 N 15.89 CA 19.18 C 17.5 O 20.82 CB 22.8 CG 30.05 SD 45.29 CE 43.35
C ASP H 134 -81.0 -27.1 N 15.16 CA 16.67 C 19.63 O 27.45 CB 17.95 CG 20.35 OD1 27.08 OD2 20.32
C VAL H 45 -107.4 -14.3 N 14.27 CA 14.89 C 18.4 O 17.07 CB 13.82 CG1 14.8 CG2 13.68
C ILE - 117 -74.1 360.0 N 18.81 CA 25.5 C 34.94 O 35.92 CB 28.09 CG1 28.79 CG2 29.37 CD1 33.74
D GLU - 112 360.0 174.9 N 43.22 CA 44.4 C 38.06 O 49.67 CB 45.13
D ALA - 13 -89.8 153.5 N 24.37 CA 18.26 C 16.32 O 16.06 CB 17.23
D PRO - 3 -67.8 159.3 N 13.08 CA 13.62 C 13.08 O 13.31 CB 13.35 CG 15.37 CD 14.2
D PRO - 33 -57.9 142.3 N 13.01 CA 13.2 C 12.98 O 13.31 CB 15.32 CG 16.07 CD 15.89
D CYS - 9 -62.2 134.4 N 11.57 CA 11.35 C 13.42 O 13.1 CB 12.73 SG 11.85
D TYR H 13 -49.6 -47.6 N 12.01 CA 10.95 C 13.06 O 14.32 CB 10.71 CG 10.06 CD1 10.51 CD2 10.36 CE1 9.68 CE2 9.22 CZ 9.24 OH 10.34
D MET H 87 -69.7 -23.1 N 15.22 CA 17.64 C 21.67 O 22.11 CB 21.24 CG 22.63 SD 23.25 CE 28.6
D ASP H 131 -72.6 -34.4 N 18.71 CA 18.86 C 23.4 O 24.97 CB 21.35 CG 24.64 OD1 29.39 OD2 27.62
D VAL H 22 -65.0 -48.6 N 20.63 CA 23.32 C 25.05 O 26.18 CB 23.4 CG1 28.49 CG2 23.64
D ILE - 102 -86.2 360.0 N 21.31 CA 23.66 C 30.71 O 34.42 CB 29.55 CG1 26.26 CG2 24.89 CD1 24.88
