A ILE - 104 -126.4 142.9 N 27.66 CA 25.61 C 22.05 O 20.18 CB 28.44 CG1 30.12 CG2 29.3 CD1 30.98
A ILE H 46 -56.4 -35.1 N 19.6 CA 17.77 C 16.96 O 16.32 CB 17.79 CG1 17.34 CG2 18.93 CD1 18.11
A ASN H 45 -75.3 -11.4 N 18.09 CA 19.0 C 18.49 O 19.3 CB 21.86 CG 23.24 OD1 26.02 ND2 24.89
A GLU H 110 -69.7 -36.3 N 18.2 CA 18.5 C 16.44 O 17.7 CB 21.16 CG 24.03 CD 26.92 OE1 28.34 OE2 30.38
A LYS H 136 -102.3 -23.1 N 14.31 CA 13.63 C 12.6 O 12.75 CB 14.77 CG 15.73 CD 17.67 CE 18.85 NZ 20.56
A TYR - 58 -115.1 57.2 N 11.16 CA 11.14 C 11.12 O 11.6 CB 10.89 CG 10.9 CD1 10.68 CD2 11.77 CE1 11.27 CE2 12.26 CZ 11.97 OH 12.96
A PRO H 53 -70.4 -28.7 N 12.4 CA 12.16 C 11.92 O 11.67 CB 12.41 CG 12.49 CD 12.67
A TYR H 63 -72.6 -44.5 N 11.88 CA 12.09 C 12.0 O 11.98 CB 12.36 CG 12.83 CD1 13.1 CD2 12.99 CE1 13.5 CE2 13.43 CZ 13.69 OH 14.08
A LEU H 0 -69.0 -37.3 N 12.27 CA 12.46 C 12.14 O 11.81 CB 13.24 CG 14.13 CD1 14.93 CD2 14.2
A SER H 2 -59.6 -40.2 N 12.08 CA 12.38 C 11.89 O 11.84 CB 12.96 OG 14.41
A TYR H 10 -64.0 -51.9 N 11.52 CA 11.33 C 11.1 O 11.09 CB 11.37 CG 11.53 CD1 11.76 CD2 11.7 CE1 12.0 CE2 11.89 CZ 12.07 OH 12.49
A LEU I 0 -52.5 -49.5 N 10.95 CA 11.13 C 10.99 O 10.89 CB 11.35 CG 11.59 CD1 11.79 CD2 11.97
A LEU I 0 -79.4 -24.8 N 11.06 CA 11.28 C 11.51 O 11.57 CB 11.54 CG 11.87 CD1 12.29 CD2 12.08
A ARG I 21 -99.8 -34.1 N 11.55 CA 12.05 C 12.08 O 12.3 CB 12.54 CG 13.04 CD 14.02 NE 15.18 CZ 16.6 NH1 17.22 NH2 17.33
A CYS I 0 -94.4 -37.1 N 11.93 CA 12.27 C 11.89 O 12.08 CB 12.77 SG 14.42
A TYR I 0 -90.6 -55.6 N 11.54 CA 11.52 C 11.42 O 11.42 CB 11.66 CG 11.91 CD1 11.92 CD2 12.19 CE1 12.26 CE2 12.68 CZ 12.68 OH 12.95
A PHE S 0 -80.3 45.2 N 11.18 CA 11.57 C 11.69 O 12.03 CB 11.65 CG 11.81 CD1 12.15 CD2 12.1 CE1 12.3 CE2 12.27 CZ 12.63
A ASN S 1 -71.5 169.8 N 11.86 CA 12.13 C 12.25 O 11.89 CB 12.28 CG 12.59 OD1 12.84 ND2 12.74
A GLN T 16 -59.8 -21.4 N 12.55 CA 13.1 C 13.26 O 13.61 CB 13.65 CG 14.03 CD 14.55 OE1 14.76 NE2 14.91
A ASP T 0 -100.5 20.8 N 13.24 CA 13.56 C 13.2 O 13.35 CB 14.37 CG 15.65 OD1 15.81 OD2 18.33
A PHE H 1 -58.6 -35.1 N 13.2 CA 13.12 C 13.78 O 13.41 CB 13.11 CG 13.43 CD1 13.95 CD2 14.07 CE1 14.45 CE2 14.52 CZ 14.48
A GLU H 27 -66.0 -32.0 N 14.64 CA 15.83 C 16.19 O 16.75 CB 17.04 CG 18.24 CD 20.2 OE1 22.74 OE2 22.26
A VAL H 25 -83.9 -38.9 N 16.37 CA 17.48 C 18.14 O 17.93 CB 17.91 CG1 18.28 CG2 18.76
A LEU H 41 -74.1 -44.5 N 17.84 CA 18.83 C 18.4 O 19.46 CB 19.72 CG 20.97 CD1 21.18 CD2 22.05
A PHE T 14 -122.7 -37.5 N 17.62 CA 17.93 C 18.58 O 20.7 CB 17.05 CG 16.15 CD1 16.45 CD2 15.51 CE1 16.2 CE2 15.38 CZ 16.0
A GLY - 0 121.6 -147.4 N 17.11 CA 17.65 C 17.25 O 17.56
A ASN S 27 -69.4 175.9 N 17.15 CA 17.31 C 16.22 O 15.47 CB 18.19 CG 19.24 OD1 18.53 ND2 20.95
A ALA H 9 -61.0 -37.1 N 15.89 CA 15.63 C 15.54 O 14.85 CB 15.84
A ASP H 59 -75.7 -29.6 N 15.83 CA 16.23 C 15.74 O 15.23 CB 17.28 CG 18.22 OD1 18.81 OD2 19.78
A GLU H 49 -70.5 -32.8 N 15.5 CA 15.59 C 14.43 O 14.22 CB 16.56 CG 18.25 CD 20.18 OE1 19.59 OE2 22.9
A THR H 0 -62.1 -49.0 N 13.71 CA 13.2 C 12.68 O 12.18 CB 13.32 OG1 13.8 CG2 13.43
A LEU H 0 -58.0 -38.5 N 12.42 CA 12.49 C 12.53 O 12.66 CB 12.49 CG 12.51 CD1 12.89 CD2 12.45
A ALA H 59 -68.8 -36.7 N 12.79 CA 12.76 C 12.47 O 12.4 CB 13.11
A ALA H 24 -64.9 -41.4 N 12.17 CA 12.17 C 12.34 O 12.56 CB 12.11
A TYR H 0 -59.5 -48.4 N 12.37 CA 12.74 C 13.24 O 13.22 CB 12.65 CG 12.7 CD1 12.65 CD2 13.04 CE1 12.95 CE2 13.03 CZ 12.95 OH 12.87
A LYS H 57 -60.3 -43.3 N 13.92 CA 15.01 C 15.14 O 15.42 CB 15.78 CG 17.37 CD 18.92 CE 20.9 NZ 22.42
A ALA H 87 -69.4 -35.4 N 15.13 CA 16.05 C 16.12 O 17.07 CB 16.14
A THR H 70 -85.2 -41.8 N 15.18 CA 15.21 C 14.8 O 15.68 CB 15.24 OG1 15.72 CG2 15.64
A GLU S 11 -92.0 161.6 N 14.06 CA 13.9 C 13.71 O 13.71 CB 13.97 CG 14.05 CD 14.18 OE1 14.68 OE2 14.02
A THR - 39 -74.8 164.5 N 13.76 CA 13.92 C 14.21 O 13.83 CB 14.01 OG1 13.75 CG2 14.12
A ALA H 41 -61.0 -36.8 N 14.68 CA 15.18 C 15.58 O 15.46 CB 15.72
A GLU H 127 -63.8 -40.7 N 15.93 CA 16.57 C 15.76 O 15.31 CB 17.67 CG 19.41 CD 21.35 OE1 22.01 OE2 24.44
A GLU H 20 -60.3 -50.4 N 15.19 CA 15.34 C 15.13 O 14.56 CB 15.72 CG 16.22 CD 16.73 OE1 17.59 OE2 18.36
A ARG H 63 -69.5 -32.4 N 14.95 CA 14.84 C 14.65 O 14.27 CB 15.29 CG 15.68 CD 16.07 NE 16.38 CZ 17.06 NH1 17.01 NH2 17.45
A LEU H 99 -65.5 -33.9 N 14.77 CA 15.04 C 14.21 O 13.8 CB 16.41 CG 18.16 CD1 20.15 CD2 19.11
A GLN H 85 -74.4 -33.5 N 13.46 CA 13.19 C 13.03 O 12.72 CB 13.37 CG 13.76 CD 14.22 OE1 14.42 NE2 14.45
A LYS H 32 -61.2 -40.4 N 12.95 CA 13.33 C 12.88 O 12.8 CB 14.56 CG 15.49 CD 17.46 CE 19.66 NZ 21.56
A ALA H 43 -59.3 -40.7 N 12.39 CA 12.43 C 12.18 O 12.16 CB 12.52
A GLU H 14 -64.3 -41.6 N 11.94 CA 11.97 C 11.81 O 11.72 CB 12.04 CG 12.47 CD 12.57 OE1 12.93 OE2 13.02
A ILE H 0 -53.8 -44.0 N 11.72 CA 11.97 C 12.31 O 12.3 CB 12.03 CG1 12.0 CG2 12.19 CD1 12.21
A ASP H 73 -66.3 -36.1 N 12.81 CA 13.64 C 12.99 O 12.48 CB 14.82 CG 16.55 OD1 19.38 OD2 18.45
A TYR H 160 -61.5 -35.1 N 12.8 CA 12.9 C 12.88 O 12.96 CB 13.06 CG 13.42 CD1 13.82 CD2 13.57 CE1 14.15 CE2 14.12 CZ 14.37 OH 15.17
A LEU H 6 -76.3 -48.7 N 12.72 CA 12.75 C 12.86 O 12.64 CB 12.86 CG 12.82 CD1 12.9 CD2 13.06
A LEU H 37 -60.7 -35.5 N 12.8 CA 13.37 C 13.69 O 14.0 CB 13.74 CG 13.87 CD1 14.52 CD2 14.31
A ALA T 83 -67.9 -18.1 N 13.53 CA 13.85 C 14.05 O 13.91 CB 13.86
A LEU T 104 -80.7 -15.2 N 13.95 CA 14.26 C 14.72 O 14.96 CB 14.12 CG 14.05 CD1 14.01 CD2 14.39
A SER - 101 47.9 50.8 N 15.1 CA 15.76 C 15.17 O 15.42 CB 16.91 OG 19.0
A LEU - 50 -67.9 149.9 N 14.56 CA 14.5 C 14.68 O 14.67 CB 13.99 CG 13.97 CD1 14.22 CD2 14.15
A PRO - 68 -48.6 135.3 N 15.11 CA 15.18 C 14.85 O 14.14 CB 15.57 CG 15.91 CD 15.57
A ASP H 61 -57.1 -38.3 N 14.87 CA 15.2 C 15.44 O 14.75 CB 15.49 CG 15.66 OD1 15.8 OD2 16.33
A ASP H 115 -60.1 -35.0 N 16.64 CA 17.64 C 16.76 O 15.46 CB 20.32 CG 23.59 OD1 25.39 OD2 28.92
A GLU H 100 -72.9 -43.4 N 16.21 CA 16.44 C 14.85 O 14.77 CB 18.02 CG 20.34 CD 23.08 OE1 23.95 OE2 25.0
A LEU H 7 -64.7 -37.5 N 13.81 CA 13.07 C 12.69 O 12.4 CB 12.85 CG 12.6 CD1 12.53 CD2 12.81
A GLN H 56 -66.5 -38.8 N 12.76 CA 12.9 C 13.07 O 12.91 CB 13.25 CG 13.41 CD 13.95 OE1 14.68 NE2 14.59
A ASP H 62 -63.0 -38.0 N 13.75 CA 14.67 C 13.42 O 12.93 CB 16.64 CG 18.85 OD1 21.28 OD2 22.8
A ILE I 25 -62.5 -51.2 N 12.52 CA 12.38 C 12.3 O 12.52 CB 12.22 CG1 12.5 CG2 12.31 CD1 12.8
A LEU I 0 -68.5 -48.9 N 12.1 CA 12.16 C 12.22 O 12.55 CB 12.41 CG 12.59 CD1 12.84 CD2 13.08
A LEU I 6 -78.0 -42.4 N 12.47 CA 13.07 C 14.13 O 14.46 CB 13.06 CG 13.06 CD1 13.56 CD2 13.05
A ASN I 90 -103.0 -41.5 N 14.76 CA 16.5 C 17.29 O 19.48 CB 17.53 CG 18.28 OD1 19.23 ND2 19.48
A LYS I 103 -82.5 -55.3 N 16.5 CA 16.5 C 15.91 O 15.59 CB 17.15 CG 18.51 CD 19.85 CE 21.65 NZ 23.2
A LEU S 1 -73.9 -17.5 N 15.21 CA 15.56 C 15.7 O 15.82 CB 15.55 CG 16.12 CD1 16.22 CD2 17.1
A ASP - 26 68.6 40.8 N 15.91 CA 16.2 C 15.4 O 15.76 CB 18.58 CG 21.06 OD1 22.21 OD2 25.12
A CYS - 0 -58.5 133.5 N 13.93 CA 13.2 C 13.18 O 12.88 CB 12.71 SG 12.89
A SER - 2 -88.1 -20.2 N 13.11 CA 13.37 C 13.44 O 13.88 CB 13.94 OG 14.6
A TYR B 8 -79.8 120.7 N 13.19 CA 13.6 C 13.06 O 12.47 CB 14.33 CG 15.09 CD1 16.03 CD2 15.54 CE1 16.78 CE2 16.13 CZ 16.85 OH 19.47
A TYR - 51 -83.3 73.4 N 13.0 CA 13.02 C 12.91 O 12.95 CB 13.76 CG 14.34 CD1 14.45 CD2 15.28 CE1 15.28 CE2 15.96 CZ 16.26 OH 18.19
A TYR G 1 -56.1 -25.0 N 12.24 CA 12.6 C 13.16 O 13.27 CB 12.5 CG 12.02 CD1 12.03 CD2 11.9 CE1 12.0 CE2 11.79 CZ 11.91 OH 12.11
A PRO G 29 -61.6 -15.2 N 13.48 CA 14.51 C 16.16 O 17.01 CB 14.18 CG 13.72 CD 13.49
A ASN G 94 -77.0 -16.8 N 18.5 CA 20.82 C 20.47 O 21.75 CB 23.77 CG 26.09 OD1 28.52 ND2 29.36
A GLU T 108 -111.2 -11.9 N 19.37 CA 19.4 C 18.01 O 18.58 CB 20.69 CG 23.01 CD 24.38 OE1 28.07 OE2 27.29
A TRP - 75 -136.2 135.8 N 15.92 CA 14.63 C 14.32 O 14.45 CB 14.06 CG 13.52 CD1 13.56 CD2 13.25 NE1 13.43 CE2 13.25 CE3 13.25 CZ2 13.33 CZ3 13.36 CH2 13.49
A SER S 113 -70.8 -21.2 N 13.99 CA 14.01 C 13.92 O 14.39 CB 14.25 OG 14.4
A SER - 22 -158.2 160.7 N 13.43 CA 13.37 C 12.95 O 12.78 CB 13.74 OG 13.83
A SER H 0 -66.9 -39.0 N 12.88 CA 12.92 C 13.1 O 12.68 CB 13.32 OG 13.33
A GLU H 81 -53.9 -47.9 N 13.71 CA 14.74 C 14.01 O 13.58 CB 16.56 CG 18.68 CD 21.19 OE1 24.25 OE2 23.04
A GLU H 74 -65.1 -38.5 N 13.97 CA 14.25 C 13.04 O 13.2 CB 15.72 CG 18.36 CD 22.12 OE1 24.61 OE2 27.68
A TRP H 0 -66.8 -43.9 N 12.08 CA 11.58 C 11.37 O 11.01 CB 11.46 CG 11.49 CD1 11.55 CD2 11.74 NE1 11.78 CE2 11.81 CE3 11.96 CZ2 12.32 CZ3 12.38 CH2 12.56
A LEU H 0 -61.8 -40.5 N 11.45 CA 11.61 C 11.68 O 11.55 CB 12.13 CG 12.46 CD1 13.23 CD2 12.61
A LYS H 92 -62.1 -38.2 N 12.03 CA 12.65 C 12.24 O 12.21 CB 13.84 CG 15.52 CD 18.02 CE 20.86 NZ 23.94
A HIS H 26 -62.5 -45.9 N 11.73 CA 11.93 C 11.86 O 12.24 CB 11.88 CG 11.95 ND1 12.5 CD2 12.1 CE1 12.7 NE2 12.6
A ILE H 0 -57.8 -48.3 N 11.77 CA 12.04 C 12.62 O 12.72 CB 12.07 CG1 12.07 CG2 12.2 CD1 12.23
A TYR H 84 -55.2 -49.8 N 13.3 CA 14.58 C 15.01 O 15.07 CB 15.57 CG 16.94 CD1 18.23 CD2 18.03 CE1 19.57 CE2 19.27 CZ 20.3 OH 23.32
A LYS H 135 -65.2 -36.3 N 15.65 CA 17.61 C 16.96 O 17.51 CB 20.25 CG 24.19 CD 28.13 CE 30.9 NZ 34.66
A GLN H 77 -60.8 -21.8 N 16.19 CA 17.23 C 17.07 O 17.39 CB 17.57 CG 18.73 CD 20.26 OE1 23.47 NE2 20.8
A ASN - 99 -87.6 174.9 N 22.91 CA 28.83 C 33.6 O 32.95 CB 31.01 CG 34.4 OD1 39.83 ND2 36.68
A HIS - 222 -83.9 360.0 N 38.94 CA 46.07 C 47.13 O 49.68 CB 49.76 CG 56.22 ND1 59.64 CD2 59.31 CE1 61.07 NE2 61.75
B GLY - 80 360.0 -164.7 N 32.83 CA 31.97 C 30.9 O 32.66
B GLY - 25 -101.2 -175.7 N 29.23 CA 27.33 C 25.2 O 26.17
B HIS - 114 -102.6 112.2 N 22.78 CA 21.72 C 19.5 O 17.57 CB 23.0 CG 26.09 ND1 27.86 CD2 28.04 CE1 28.41 NE2 29.42
B LEU G 18 -66.1 -22.1 N 17.84 CA 17.84 C 16.4 O 15.45 CB 18.98 CG 21.02 CD1 22.27 CD2 21.99
B ILE G 27 -56.3 -26.4 N 16.02 CA 16.13 C 15.63 O 14.89 CB 17.12 CG1 17.88 CG2 17.53 CD1 19.12
B ASP G 18 -69.7 -17.0 N 15.7 CA 16.48 C 15.64 O 15.83 CB 18.16 CG 20.6 OD1 22.94 OD2 22.02
B ARG G 20 -69.1 -7.1 N 15.05 CA 15.27 C 13.93 O 13.88 CB 16.64 CG 18.42 CD 20.31 NE 22.13 CZ 24.21 NH1 25.52 NH2 24.88
B HIS G 0 -132.3 28.8 N 12.81 CA 12.53 C 12.67 O 12.83 CB 12.57 CG 12.54 ND1 12.79 CD2 12.68 CE1 13.36 NE2 13.14
B VAL B 23 -126.3 119.4 N 13.08 CA 14.2 C 14.73 O 14.87 CB 15.05 CG1 16.28 CG2 15.14
B GLY S 45 67.3 21.2 N 15.33 CA 16.38 C 16.59 O 17.36
B LYS - 18 -67.1 148.0 N 16.04 CA 16.67 C 16.96 O 17.19 CB 17.14 CG 18.26 CD 20.09 CE 22.52 NZ 24.03
B THR - 52 -80.4 158.0 N 17.14 CA 17.53 C 17.01 O 16.57 CB 17.88 OG1 17.74 CG2 19.02
B GLU H 52 -53.1 -39.8 N 17.18 CA 17.46 C 16.65 O 15.54 CB 19.4 CG 21.01 CD 23.37 OE1 24.98 OE2 26.11
B ALA H 1 -59.4 -47.2 N 15.86 CA 15.81 C 15.33 O 15.43 CB 15.99
B GLU H 21 -63.3 -47.5 N 15.64 CA 16.57 C 15.56 O 16.14 CB 18.68 CG 22.39 CD 27.22 OE1 27.22 OE2 33.22
B LEU H 0 -65.7 -40.2 N 14.44 CA 14.01 C 13.88 O 13.66 CB 13.96 CG 13.85 CD1 14.27 CD2 13.77
B LEU H 13 -66.2 -34.0 N 13.87 CA 14.42 C 15.01 O 15.27 CB 14.76 CG 14.92 CD1 15.4 CD2 15.12
B ASN H 15 -63.5 -39.1 N 15.49 CA 16.18 C 16.02 O 16.75 CB 17.15 CG 18.79 OD1 21.74 ND2 19.56
B ARG H 41 -62.8 -34.9 N 15.81 CA 16.03 C 16.4 O 16.98 CB 16.15 CG 16.28 CD 16.35 NE 16.49 CZ 16.43 NH1 16.15 NH2 17.21
B VAL T 7 -89.3 2.9 N 16.31 CA 17.38 C 19.52 O 21.34 CB 16.61 CG1 16.64 CG2 16.58
B SER T 63 -114.6 -70.2 N 21.37 CA 23.02 C 23.97 O 26.34 CB 23.52 OG 24.11
B THR T 14 -66.0 -40.4 N 25.77 CA 27.09 C 27.53 O 27.31 CB 28.47 OG1 30.55 CG2 30.51
B GLY S 27 -73.4 -174.0 N 26.82 CA 26.49 C 25.83 O 26.95
B ASN S 35 -126.5 26.9 N 24.08 CA 23.51 C 20.29 O 20.09 CB 25.01 CG 26.41 OD1 26.72 ND2 27.91
B VAL B 8 -101.3 153.1 N 18.44 CA 17.74 C 16.88 O 16.58 CB 17.72 CG1 18.54 CG2 17.57
B LYS S 18 -77.5 -25.9 N 16.45 CA 16.99 C 16.83 O 17.58 CB 17.9 CG 18.75 CD 19.85 CE 20.24 NZ 20.09
B SER E 7 -160.5 160.2 N 16.09 CA 15.9 C 14.8 O 14.65 CB 16.64 OG 18.78
B ALA E 0 -144.8 140.3 N 13.62 CA 13.19 C 12.59 O 12.85 CB 13.21
B SER E 0 -140.9 166.1 N 12.26 CA 11.98 C 12.15 O 11.96 CB 12.05 OG 11.75
B SER E 1 -154.7 136.5 N 12.04 CA 12.54 C 12.47 O 12.6 CB 12.73 OG 13.27
B PHE E 1 -65.9 149.0 N 12.64 CA 13.19 C 13.84 O 13.55 CB 13.12 CG 12.8 CD1 12.66 CD2 12.59 CE1 12.75 CE2 12.64 CZ 12.71
B THR S 80 -55.9 -44.5 N 14.59 CA 15.84 C 16.6 O 17.11 CB 16.53 OG1 17.15 CG2 17.3
B ASP S 67 -163.8 175.2 N 17.15 CA 18.52 C 18.56 O 17.67 CB 19.44 CG 20.88 OD1 22.49 OD2 23.16
B ARG H 126 -63.2 -40.6 N 20.02 CA 21.61 C 21.29 O 20.73 CB 25.27 CG 29.1 CD 34.79 NE 41.85 CZ 44.73 NH1 47.55 NH2 46.65
B THR H 110 -60.1 -41.1 N 21.68 CA 22.19 C 20.98 O 21.16 CB 23.45 OG1 25.6 CG2 24.65
B THR H 32 -67.6 -45.3 N 20.21 CA 19.72 C 18.88 O 17.98 CB 20.19 OG1 20.91 CG2 20.17
B ALA H 5 -59.9 -42.7 N 18.32 CA 18.18 C 18.59 O 18.3 CB 17.72
B GLU H 115 -66.1 -43.7 N 19.93 CA 21.08 C 20.63 O 20.6 CB 23.25 CG 26.53 CD 30.12 OE1 35.17 OE2 32.87
B ALA H 42 -63.3 -44.7 N 20.28 CA 20.65 C 19.89 O 21.16 CB 21.29
B VAL H 1 -64.8 -46.1 N 18.93 CA 18.6 C 18.46 O 18.71 CB 18.35 CG1 18.16 CG2 18.16
B THR H 16 -56.4 -49.0 N 18.32 CA 20.01 C 21.27 O 20.92 CB 20.02 OG1 19.69 CG2 21.23
B SER H 65 -62.1 -45.0 N 22.96 CA 25.01 C 24.26 O 25.91 CB 27.0 OG 31.14
B LYS H 98 -63.3 -40.3 N 23.6 CA 24.86 C 24.1 O 24.88 CB 25.99 CG 28.39 CD 30.72 CE 31.9 NZ 32.69
B ALA H 0 -65.7 -42.2 N 22.29 CA 21.69 C 21.76 O 21.95 CB 21.42
B ILE H 20 -64.6 -46.1 N 22.31 CA 24.09 C 25.71 O 25.71 CB 24.63 CG1 24.78 CG2 25.56 CD1 25.36
B ASP H 117 -64.9 -40.9 N 27.59 CA 29.95 C 30.2 O 30.59 CB 32.71 CG 35.13 OD1 39.55 OD2 38.5
B SER H 85 -76.6 -7.3 N 29.1 CA 29.66 C 29.44 O 30.14 CB 30.39 OG 30.45
B ASN T 28 -119.8 22.0 N 27.71 CA 26.55 C 26.78 O 25.86 CB 25.72 CG 26.0 OD1 26.65 ND2 25.78
B GLN H 64 -66.2 -32.6 N 28.21 CA 30.37 C 30.85 O 30.27 CB 32.46 CG 34.01 CD 34.7 OE1 35.37 NE2 35.79
B ALA H 75 -63.5 -47.0 N 30.37 CA 31.95 C 30.97 O 30.24 CB 33.09
B LYS H 87 -60.0 -41.0 N 29.94 CA 29.4 C 28.13 O 27.07 CB 31.37 CG 32.46 CD 33.2 CE 34.36 NZ 35.38
B ILE H 0 -66.0 -42.8 N 25.58 CA 25.84 C 27.61 O 27.18 CB 25.48 CG1 25.71 CG2 25.15 CD1 25.98
B ASP H 88 -63.3 -44.1 N 30.19 CA 32.66 C 31.85 O 32.38 CB 35.0 CG 37.85 OD1 39.39 OD2 40.47
B SER H 80 -63.7 -41.2 N 31.64 CA 31.65 C 29.42 O 28.92 CB 32.71 OG 36.39
B TYR H 8 -60.0 -45.7 N 26.84 CA 25.48 C 26.28 O 27.22 CB 23.95 CG 22.3 CD1 21.51 CD2 22.21 CE1 20.98 CE2 21.82 CZ 21.48 OH 21.96
B LEU H 49 -70.6 -35.1 N 26.42 CA 27.47 C 29.59 O 29.78 CB 28.86 CG 28.65 CD1 30.48 CD2 28.78
B SER H 109 -86.9 -31.9 N 32.11 CA 34.48 C 35.13 O 36.65 CB 36.01 OG 37.83
B GLY H 66 -119.0 -13.3 N 33.81 CA 33.64 C 31.47 O 34.18
B SER - 37 -105.1 143.0 N 28.36 CA 25.71 C 25.07 O 26.74 CB 24.06 OG 22.29
B GLN - 155 -95.0 5.0 N 23.79 CA 24.28 C 21.94 O 22.42 CB 26.87 CG 30.0 CD 33.39 OE1 37.13 NE2 34.24
B LYS - 42 -60.4 142.0 N 20.8 CA 19.3 C 18.56 O 18.31 CB 18.95 CG 18.76 CD 18.14 CE 17.4 NZ 16.71
B GLY S 14 -69.4 -33.0 N 17.43 CA 17.23 C 16.18 O 16.34
B TYR E 35 -137.6 167.4 N 14.89 CA 14.73 C 14.19 O 14.13 CB 14.49 CG 15.7 CD1 16.32 CD2 16.03 CE1 17.35 CE2 17.04 CZ 17.61 OH 19.1
B LEU E 12 -138.8 131.4 N 14.49 CA 14.98 C 15.38 O 14.75 CB 15.85 CG 16.73 CD1 17.46 CD2 17.5
B GLU E 17 -88.4 130.0 N 15.65 CA 16.55 C 17.08 O 16.88 CB 17.16 CG 17.99 CD 18.92 OE1 18.78 OE2 19.23
B ILE E 0 -129.5 130.3 N 17.52 CA 19.34 C 18.97 O 18.64 CB 21.1 CG1 22.0 CG2 21.32 CD1 23.74
B ASP E 24 -107.8 154.3 N 19.35 CA 20.14 C 19.97 O 20.24 CB 21.44 CG 22.86 OD1 24.76 OD2 24.05
B TYR E 22 -129.1 131.5 N 19.44 CA 20.15 C 20.2 O 18.46 CB 20.58 CG 21.64 CD1 22.52 CD2 21.72 CE1 22.65 CE2 22.05 CZ 23.15 OH 23.92
B GLN - 132 -121.8 137.9 N 21.59 CA 23.04 C 22.59 O 22.03 CB 26.63 CG 29.73 CD 34.69 OE1 40.95 NE2 36.67
B SER - 22 -152.8 177.1 N 21.57 CA 21.88 C 21.91 O 20.99 CB 21.44 OG 20.58
B ASN S 161 -118.9 27.2 N 22.07 CA 23.05 C 22.48 O 22.93 CB 24.99 CG 26.85 OD1 28.73 ND2 27.92
B VAL S 98 -132.6 131.2 N 21.17 CA 21.16 C 20.8 O 18.82 CB 22.17 CG1 22.63 CG2 22.99
B PRO - 78 -61.1 132.9 N 20.01 CA 19.11 C 18.02 O 17.68 CB 20.02 CG 20.88 CD 21.02
B ILE - 10 -119.8 4.8 N 16.85 CA 16.14 C 15.14 O 15.23 CB 16.99 CG1 17.72 CG2 17.52 CD1 18.28
B GLY E 2 167.2 -164.5 N 14.67 CA 14.29 C 14.25 O 14.43
B ILE E 39 -133.4 157.3 N 13.93 CA 14.05 C 13.96 O 13.27 CB 14.1 CG1 13.91 CG2 14.34 CD1 14.19
B SER E 3 -144.0 144.5 N 14.1 CA 14.48 C 14.4 O 14.44 CB 14.97 OG 16.11
B VAL E 1 -127.1 154.3 N 14.17 CA 14.83 C 15.24 O 14.89 CB 14.76 CG1 14.99 CG2 14.37
B SER E 58 -127.6 147.6 N 16.53 CA 17.93 C 18.61 O 17.63 CB 19.08 OG 20.9
B ARG T 55 -53.3 139.3 N 19.4 CA 21.39 C 22.66 O 23.29 CB 23.22 CG 25.5 CD 27.1 NE 28.46 CZ 28.8 NH1 28.48 NH2 29.78
B GLY T 84 94.2 -7.6 N 23.18 CA 24.1 C 23.89 O 25.7
B SER - 43 -147.2 154.8 N 22.98 CA 22.52 C 21.7 O 21.79 CB 23.53 OG 24.34
B THR - 25 -100.7 2.3 N 21.0 CA 20.27 C 21.13 O 20.83 CB 20.31 OG1 19.39 CG2 20.38
B ASN - 64 -61.1 132.8 N 21.44 CA 22.53 C 21.17 O 19.86 CB 24.46 CG 27.58 OD1 31.05 ND2 28.44
B VAL - 35 -100.6 120.0 N 20.46 CA 20.08 C 21.01 O 22.32 CB 19.95 CG1 19.76 CG2 20.26
B SER E 53 -99.0 138.4 N 20.39 CA 21.03 C 20.71 O 18.75 CB 22.13 OG 23.78
B SER E 90 -82.7 142.9 N 20.79 CA 21.48 C 21.15 O 22.81 CB 23.04 OG 26.62
B VAL E 7 -133.6 147.0 N 19.55 CA 19.18 C 17.72 O 17.16 CB 20.81 CG1 21.63 CG2 20.73
B THR - 40 -113.7 -14.6 N 16.95 CA 16.53 C 15.77 O 15.66 CB 17.31 OG1 17.63 CG2 17.69
B ASN E 41 -105.0 168.0 N 15.22 CA 15.21 C 14.14 O 13.6 CB 15.97 CG 17.61 OD1 17.64 ND2 19.43
B ALA E 0 -151.6 167.6 N 13.71 CA 13.27 C 13.15 O 13.59 CB 13.39
B ARG E 13 -138.4 135.0 N 13.11 CA 13.47 C 13.41 O 12.81 CB 14.1 CG 14.65 CD 15.2 NE 15.93 CZ 16.97 NH1 17.27 NH2 18.7
B ILE E 0 -117.3 140.5 N 13.64 CA 14.11 C 13.77 O 14.04 CB 14.88 CG1 15.69 CG2 15.23 CD1 16.21
B ILE E 1 -115.6 126.7 N 13.36 CA 13.75 C 14.1 O 14.05 CB 13.74 CG1 14.43 CG2 13.97 CD1 15.21
B ILE E 0 -116.9 161.0 N 15.01 CA 16.24 C 17.01 O 16.01 CB 16.97 CG1 17.81 CG2 17.0 CD1 18.61
B ALA E 10 -133.7 145.2 N 18.19 CA 19.96 C 23.32 O 21.94 CB 19.75
B ARG E 82 -64.7 129.3 N 24.85 CA 26.18 C 30.6 O 33.34 CB 26.6 CG 26.21 CD 26.72 NE 26.6 CZ 26.8 NH1 28.07 NH2 26.78
B ASP - 28 -148.7 85.5 N 34.12 CA 40.2 C 43.38 O 39.21 CB 44.27 CG 50.24 OD1 50.36 OD2 55.22
B PRO T 119 -50.6 -28.3 N 50.96 CA 53.6 C 57.76 O 60.99 CB 55.11 CG 55.49 CD 52.28
B SER T 96 -68.4 -14.8 N 59.63 CA 62.77 C 62.09 O 62.21 CB 65.34 OG 64.08
B PRO T 135 -60.9 -33.1 N 57.31 CA 57.05 C 53.01 O 51.87 CB 59.42 CG 59.13 CD 58.07
B THR T 72 -85.9 -13.4 N 49.53 CA 45.19 C 40.97 O 41.97 CB 45.45 OG1 43.31 CG2 46.88
B GLY S 16 92.1 1.4 N 37.62 CA 35.59 C 32.11 O 30.28
B TYR E 21 -145.5 160.7 N 31.02 CA 28.7 C 28.36 O 30.99 CB 27.13 CG 26.97 CD1 26.93 CD2 28.08 CE1 27.68 CE2 28.26 CZ 28.3 OH 30.29
B LYS E 74 -119.5 151.1 N 27.66 CA 28.04 C 24.84 O 22.39 CB 31.18 CG 34.13 CD 37.87 CE 41.46 NZ 43.67
B ILE E 58 -81.4 117.6 N 22.65 CA 21.2 C 19.7 O 19.72 CB 22.62 CG1 24.18 CG2 21.93 CD1 26.23
B ILE E 22 -80.6 -51.0 N 17.57 CA 17.24 C 16.29 O 16.87 CB 17.46 CG1 17.85 CG2 18.13 CD1 19.0
B THR E 0 -164.0 177.4 N 14.89 CA 14.7 C 13.79 O 13.63 CB 14.97 OG1 15.42 CG2 14.83
B GLY E 0 -172.9 157.5 N 13.17 CA 12.68 C 12.46 O 12.77
B TYR E 2 -171.5 164.0 N 12.07 CA 12.29 C 12.5 O 12.24 CB 12.34 CG 12.07 CD1 12.0 CD2 12.26 CE1 12.1 CE2 12.45 CZ 12.39 OH 12.98
B PRO E 0 -68.0 152.8 N 13.16 CA 13.68 C 14.41 O 13.82 CB 14.05 CG 14.09 CD 13.72
B THR E 12 -131.2 133.7 N 15.79 CA 18.02 C 20.68 O 21.8 CB 18.04 OG1 19.07 CG2 17.95
B PRO - 118 -67.5 360.0 N 24.04 CA 27.25 C 31.42 O 33.29 CB 27.69 CG 27.4 CD 25.78 OXT 34.84
C GLU - 232 360.0 -26.5 N 49.15 CA 47.97 C 43.1 O 41.47 CB 53.04 CG 56.38 CD 61.82 OE1 63.22 OE2 63.58
C LYS - 112 -78.4 -36.3 N 38.37 CA 36.2 C 30.96 O 30.69 CB 39.33 CG 42.27 CD 45.7 CE 48.9 NZ 49.75
C TYR S 29 -127.2 58.4 N 25.3 CA 21.89 C 20.32 O 18.37 CB 21.97 CG 22.88 CD1 23.36 CD2 24.76 CE1 24.2 CE2 24.71 CZ 25.28 OH 27.44
C PRO H 63 -63.1 -34.5 N 19.55 CA 19.47 C 18.3 O 18.04 CB 20.21 CG 20.49 CD 20.29
C TYR H 74 -70.0 -44.3 N 17.3 CA 16.94 C 15.88 O 14.85 CB 17.54 CG 19.2 CD1 20.27 CD2 20.68 CE1 22.15 CE2 22.07 CZ 22.46 OH 24.98
C LEU H 0 -74.2 -38.8 N 15.87 CA 15.83 C 15.66 O 15.67 CB 16.64 CG 17.33 CD1 16.93 CD2 18.11
C SER H 19 -52.0 -40.0 N 15.57 CA 16.28 C 15.09 O 14.51 CB 18.2 OG 21.95
C TYR H 10 -62.0 -51.7 N 14.39 CA 13.96 C 13.41 O 13.08 CB 14.21 CG 13.98 CD1 14.28 CD2 13.89 CE1 14.38 CE2 13.81 CZ 14.29 OH 14.57
C LEU I 0 -54.1 -53.5 N 13.2 CA 13.28 C 13.06 O 12.8 CB 13.57 CG 14.0 CD1 14.1 CD2 14.51
C LEU I 0 -68.2 -28.9 N 13.29 CA 13.52 C 13.76 O 13.56 CB 14.0 CG 14.32 CD1 14.74 CD2 14.97
C ARG I 41 -99.7 -35.8 N 14.16 CA 14.85 C 14.49 O 14.58 CB 16.22 CG 17.49 CD 19.09 NE 20.76 CZ 22.62 NH1 23.78 NH2 23.47
C CYS I 1 -90.3 -43.2 N 13.91 CA 13.8 C 13.52 O 13.81 CB 14.14 SG 15.6
C TYR I 0 -81.3 -56.6 N 12.92 CA 12.78 C 12.58 O 13.0 CB 12.75 CG 13.28 CD1 13.29 CD2 13.38 CE1 13.9 CE2 14.12 CZ 14.12 OH 15.42
C PHE S 0 -82.6 50.2 N 12.52 CA 12.91 C 13.43 O 13.92 CB 12.93 CG 12.63 CD1 13.0 CD2 13.04 CE1 13.42 CE2 13.1 CZ 13.42
C ASN S 0 -73.2 173.0 N 14.25 CA 14.86 C 15.38 O 14.74 CB 15.29 CG 15.46 OD1 15.88 ND2 15.51
C GLN T 10 -58.7 -26.4 N 16.22 CA 17.66 C 17.44 O 17.96 CB 18.96 CG 20.43 CD 21.39 OE1 22.95 NE2 22.43
C ASP T 1 -96.7 16.5 N 17.9 CA 18.07 C 17.25 O 17.17 CB 19.49 CG 21.35 OD1 23.99 OD2 24.23
C PHE H 1 -60.0 -34.5 N 16.5 CA 16.76 C 18.01 O 18.15 CB 16.28 CG 17.0 CD1 17.0 CD2 17.48 CE1 17.67 CE2 18.41 CZ 18.09
C GLU H 79 -70.0 -28.3 N 19.43 CA 22.25 C 23.13 O 24.45 CB 24.86 CG 26.74 CD 30.72 OE1 33.98 OE2 32.65
C VAL H 86 -81.3 -45.3 N 23.2 CA 24.72 C 24.69 O 25.35 CB 25.8 CG1 27.93 CG2 27.1
C LEU H 57 -75.5 -41.6 N 22.97 CA 23.0 C 22.48 O 23.93 CB 22.29 CG 23.42 CD1 24.9 CD2 23.67
C PHE T 39 -119.9 -42.4 N 21.36 CA 21.59 C 22.74 O 24.9 CB 20.18 CG 19.48 CD1 19.82 CD2 18.71 CE1 19.78 CE2 19.15 CZ 19.33
C GLY - 13 123.8 -145.0 N 22.46 CA 23.17 C 22.02 O 22.15
C ASN S 84 -72.2 179.1 N 21.63 CA 20.65 C 19.4 O 19.19 CB 21.34 CG 22.4 OD1 21.73 ND2 23.16
C ALA H 5 -64.0 -37.7 N 19.29 CA 18.39 C 18.57 O 16.7 CB 18.47
C ASP H 59 -71.7 -33.1 N 19.54 CA 20.71 C 20.75 O 20.52 CB 22.57 CG 23.87 OD1 24.29 OD2 25.59
C GLU H 104 -70.5 -31.9 N 20.57 CA 20.65 C 19.09 O 19.15 CB 22.33 CG 24.78 CD 27.33 OE1 27.94 OE2 30.27
C THR H 0 -64.1 -44.2 N 17.67 CA 16.75 C 16.29 O 15.76 CB 16.46 OG1 17.1 CG2 15.92
C LEU H 1 -62.3 -43.3 N 16.37 CA 16.48 C 17.18 O 16.61 CB 17.08 CG 16.84 CD1 17.89 CD2 16.31
C ALA H 57 -59.9 -39.8 N 17.78 CA 18.28 C 17.92 O 18.65 CB 19.55
C ALA H 23 -64.5 -44.4 N 17.37 CA 17.43 C 16.87 O 17.36 CB 17.37
C TYR H 0 -59.5 -47.2 N 16.39 CA 16.02 C 16.9 O 16.9 CB 15.53 CG 15.25 CD1 14.84 CD2 15.54 CE1 14.98 CE2 15.79 CZ 15.45 OH 16.12
C LYS H 67 -57.6 -43.5 N 17.74 CA 19.35 C 19.82 O 20.56 CB 21.16 CG 23.45 CD 26.26 CE 29.96 NZ 32.03
C ALA H 90 -74.5 -28.4 N 19.84 CA 21.0 C 20.88 O 22.26 CB 22.04
C THR H 69 -88.1 -37.2 N 19.7 CA 19.78 C 19.22 O 20.28 CB 19.41 OG1 20.19 CG2 19.85
C GLU S 9 -99.0 157.3 N 18.27 CA 18.15 C 18.78 O 18.68 CB 17.43 CG 17.02 CD 17.53 OE1 18.61 OE2 16.51
C THR - 44 -69.9 161.7 N 19.0 CA 19.93 C 19.92 O 18.59 CB 20.5 OG1 20.37 CG2 21.37
C ALA H 59 -57.6 -41.1 N 21.2 CA 21.87 C 22.41 O 21.9 CB 22.85
C GLU H 108 -65.4 -38.0 N 21.03 CA 22.98 C 20.51 O 19.93 CB 25.86 CG 29.45 CD 33.51 OE1 39.01 OE2 34.68
C GLU H 18 -61.3 -46.6 N 19.81 CA 18.78 C 19.12 O 18.22 CB 19.27 CG 19.33 CD 20.66 OE1 21.82 OE2 21.4
C ARG H 58 -64.4 -37.6 N 19.45 CA 20.24 C 19.78 O 19.37 CB 21.91 CG 23.19 CD 25.18 NE 26.24 CZ 26.79 NH1 28.62 NH2 26.32
C LEU H 101 -63.9 -42.7 N 20.15 CA 20.84 C 20.18 O 18.91 CB 23.64 CG 26.96 CD1 29.06 CD2 29.59
C GLN H 63 -67.2 -37.7 N 19.5 CA 20.1 C 18.74 O 17.81 CB 21.82 CG 25.08 CD 28.35 OE1 30.61 NE2 31.81
C LYS H 33 -57.5 -37.3 N 17.31 CA 18.5 C 18.1 O 17.76 CB 20.52 CG 21.94 CD 24.79 CE 27.69 NZ 30.45
C ALA H 47 -63.5 -34.8 N 17.8 CA 17.8 C 16.87 O 16.37 CB 18.52
C GLU H 20 -67.8 -39.4 N 16.12 CA 15.82 C 15.23 O 14.95 CB 16.42 CG 17.41 CD 18.73 OE1 19.16 OE2 20.36
C ILE H 0 -60.3 -48.5 N 14.61 CA 15.02 C 15.59 O 15.26 CB 15.02 CG1 15.57 CG2 15.46 CD1 16.17
C ASP H 77 -54.4 -42.8 N 16.59 CA 17.85 C 17.46 O 16.62 CB 20.33 CG 22.79 OD1 24.68 OD2 27.65
C TYR H 110 -61.3 -49.4 N 17.08 CA 18.1 C 17.13 O 16.68 CB 19.54 CG 21.46 CD1 22.32 CD2 23.68 CE1 24.4 CE2 25.66 CZ 25.97 OH 29.94
C LEU H 2 -58.5 -43.1 N 16.23 CA 16.55 C 16.33 O 16.17 CB 16.6 CG 17.9 CD1 18.53 CD2 19.19
C LEU H 45 -67.1 -32.2 N 16.52 CA 17.34 C 16.93 O 17.09 CB 18.75 CG 20.07 CD1 21.23 CD2 21.76
C ALA H 85 -72.0 -15.6 N 16.22 CA 16.89 C 16.53 O 17.82 CB 17.24
C LEU T 67 -69.0 -21.1 N 16.19 CA 16.82 C 16.92 O 16.93 CB 17.19 CG 17.65 CD1 18.25 CD2 18.97
C SER - 91 55.6 52.5 N 18.68 CA 19.84 C 19.04 O 19.24 CB 21.54 OG 24.62
C LEU - 44 -85.8 153.0 N 18.02 CA 18.19 C 18.13 O 17.97 CB 18.17 CG 19.09 CD1 19.54 CD2 20.06
C PRO - 68 -66.1 152.3 N 18.13 CA 18.22 C 17.07 O 15.82 CB 18.7 CG 18.88 CD 18.6
C ASP H 68 -52.7 -44.1 N 16.8 CA 16.89 C 16.49 O 16.49 CB 17.79 CG 18.12 OD1 18.0 OD2 19.55
C ASP H 120 -68.2 -25.6 N 16.05 CA 16.09 C 15.38 O 14.59 CB 17.51 CG 18.98 OD1 20.9 OD2 21.58
C GLU H 94 -76.2 -43.8 N 14.78 CA 14.9 C 14.31 O 13.49 CB 16.05 CG 17.07 CD 18.44 OE1 20.01 OE2 19.67
C LEU H 9 -60.0 -40.9 N 13.55 CA 13.4 C 13.03 O 12.92 CB 13.87 CG 14.21 CD1 14.57 CD2 14.51
C GLN H 53 -60.9 -43.1 N 12.81 CA 12.91 C 12.57 O 12.27 CB 13.43 CG 13.87 CD 14.44 OE1 15.5 NE2 14.46
C ASP I 75 -58.1 -38.1 N 12.45 CA 12.78 C 12.47 O 12.58 CB 13.21 CG 13.89 OD1 14.91 OD2 14.53
C ILE I 22 -64.9 -52.0 N 12.34 CA 12.56 C 12.41 O 12.49 CB 12.72 CG1 13.0 CG2 13.17 CD1 13.11
C LEU I 0 -69.5 -45.6 N 12.18 CA 12.2 C 12.49 O 12.37 CB 12.16 CG 12.22 CD1 12.48 CD2 12.48
C LEU I 4 -82.3 -37.5 N 12.89 CA 13.43 C 14.64 O 15.19 CB 13.6 CG 13.83 CD1 14.33 CD2 14.02
C ASN I 93 -107.4 -48.3 N 15.35 CA 16.94 C 17.81 O 19.5 CB 17.67 CG 18.68 OD1 20.51 ND2 18.76
C LYS I 145 -71.5 -46.3 N 17.93 CA 18.83 C 18.63 O 18.13 CB 19.89 CG 21.67 CD 24.48 CE 26.16 NZ 27.83
C LEU S 14 -90.3 -11.5 N 17.43 CA 17.9 C 18.58 O 20.57 CB 17.39 CG 17.56 CD1 17.68 CD2 18.53
C ASP - 31 63.8 36.2 N 19.09 CA 20.15 C 18.39 O 18.62 CB 23.65 CG 27.34 OD1 27.96 OD2 32.05
C CYS - 0 -57.5 135.1 N 16.87 CA 16.31 C 16.31 O 16.94 CB 15.78 SG 15.02
C SER - 3 -91.6 -12.3 N 15.69 CA 15.6 C 15.05 O 15.42 CB 16.28 OG 16.63
C TYR B 1 -84.7 119.9 N 14.45 CA 14.28 C 13.62 O 13.54 CB 14.5 CG 14.93 CD1 15.26 CD2 15.05 CE1 16.02 CE2 15.79 CZ 16.28 OH 17.84
C TYR - 28 -85.7 77.7 N 13.43 CA 12.99 C 12.89 O 12.97 CB 13.34 CG 13.66 CD1 13.68 CD2 14.17 CE1 14.15 CE2 14.53 CZ 14.41 OH 15.03
C TYR G 1 -58.2 -24.5 N 12.51 CA 12.74 C 12.95 O 13.77 CB 12.63 CG 12.18 CD1 12.19 CD2 11.88 CE1 12.01 CE2 11.69 CZ 11.7 OH 11.82
C PRO G 11 -62.0 -13.8 N 12.63 CA 13.05 C 13.7 O 14.19 CB 12.83 CG 12.32 CD 12.2
C ASN G 9 -65.9 -26.5 N 13.9 CA 14.91 C 16.06 O 16.68 CB 14.95 CG 14.91 OD1 14.94 ND2 15.02
C GLU T 58 -124.6 -10.3 N 15.22 CA 16.36 C 16.0 O 16.77 CB 18.06 CG 20.3 CD 22.57 OE1 23.43 OE2 26.72
C TRP - 23 -128.9 133.2 N 14.98 CA 14.9 C 15.51 O 15.7 CB 14.19 CG 14.5 CD1 14.74 CD2 14.73 NE1 15.03 CE2 14.94 CE3 15.05 CZ2 15.74 CZ3 15.66 CH2 16.05
C SER S 16 -61.5 -29.9 N 16.27 CA 17.38 C 16.41 O 16.83 CB 18.71 OG 21.06
C SER - 18 -156.2 160.2 N 15.33 CA 14.73 C 13.9 O 13.28 CB 15.83 OG 15.83
C SER H 0 -63.3 -42.3 N 13.59 CA 13.49 C 13.91 O 13.66 CB 13.64 OG 13.98
C GLU H 48 -57.0 -45.6 N 15.05 CA 16.38 C 15.95 O 15.0 CB 18.6 CG 21.41 CD 23.49 OE1 25.92 OE2 27.89
C GLU H 13 -63.6 -38.7 N 15.82 CA 16.64 C 14.87 O 14.16 CB 18.53 CG 21.85 CD 25.91 OE1 28.4 OE2 30.44
C TRP H 0 -64.3 -44.2 N 13.55 CA 13.2 C 13.13 O 12.89 CB 13.29 CG 13.5 CD1 13.6 CD2 13.83 NE1 14.22 CE2 14.09 CE3 14.11 CZ2 14.49 CZ3 14.47 CH2 14.66
C LEU H 0 -60.8 -43.1 N 13.24 CA 13.73 C 14.51 O 14.94 CB 14.21 CG 14.13 CD1 15.28 CD2 14.37
C LYS H 40 -60.8 -34.1 N 15.78 CA 17.11 C 17.07 O 18.28 CB 18.77 CG 19.95 CD 22.36 CE 24.3 NZ 25.67
C HIS H 22 -67.7 -46.1 N 16.15 CA 16.27 C 15.89 O 16.6 CB 16.31 CG 17.14 ND1 18.34 CD2 17.37 CE1 18.8 NE2 18.53
C ILE H 0 -54.3 -49.5 N 15.24 CA 15.32 C 16.49 O 17.48 CB 14.7 CG1 14.42 CG2 15.1 CD1 14.18
C TYR H 50 -54.8 -48.9 N 17.44 CA 19.19 C 19.76 O 20.28 CB 19.76 CG 21.34 CD1 22.5 CD2 21.61 CE1 24.0 CE2 23.25 CZ 23.77 OH 27.36
C LYS H 101 -69.6 -29.3 N 20.9 CA 23.43 C 23.02 O 23.82 CB 26.66 CG 30.64 CD 34.17 CE 37.72 NZ 38.19
C GLN H 56 -68.2 -21.4 N 21.96 CA 23.04 C 24.3 O 25.03 CB 22.94 CG 23.81 CD 25.93 OE1 29.0 NE2 26.83
C ASN - 119 -73.3 360.0 N 32.35 CA 36.59 C 38.76 O 39.77 CB 39.09 CG 42.17 OD1 48.59 ND2 44.16
D GLY - 98 360.0 171.1 N 50.16 CA 48.78 C 45.89 O 47.75
D HIS - 159 55.0 36.3 N 42.23 CA 41.03 C 35.9 O 33.41 CB 44.76 CG 50.45 ND1 53.39 CD2 54.1 CE1 56.22 NE2 57.44
D LEU G 13 -63.4 -19.9 N 32.06 CA 27.51 C 26.79 O 25.54 CB 26.3 CG 27.4 CD1 27.55 CD2 28.21
D ILE G 30 -62.5 -26.2 N 27.94 CA 27.9 C 27.74 O 27.65 CB 31.09 CG1 32.47 CG2 33.05 CD1 35.55
D ASP G 71 -57.3 -29.7 N 27.82 CA 29.14 C 28.43 O 28.65 CB 30.64 CG 33.4 OD1 34.47 OD2 35.68
D ARG G 72 -66.3 -12.1 N 25.2 CA 25.34 C 23.54 O 23.89 CB 26.28 CG 28.86 CD 30.5 NE 33.71 CZ 34.99 NH1 34.45 NH2 35.81
D HIS G 0 -127.0 33.3 N 23.42 CA 23.59 C 24.41 O 24.39 CB 23.31 CG 23.15 ND1 23.39 CD2 21.94 CE1 23.17 NE2 22.79
D VAL B 17 -130.0 126.7 N 29.93 CA 31.77 C 33.88 O 33.86 CB 32.03 CG1 33.42 CG2 31.0
D GLY S 46 63.2 23.2 N 35.09 CA 37.95 C 38.34 O 40.69
D LYS - 68 -76.6 149.1 N 38.45 CA 39.01 C 40.24 O 40.93 CB 38.1 CG 38.49 CD 40.72 CE 41.93 NZ 44.52
D THR - 68 -81.3 162.5 N 41.93 CA 43.46 C 43.23 O 41.79 CB 44.51 OG1 43.59 CG2 45.33
D GLU H 109 -59.7 -36.7 N 44.79 CA 45.77 C 44.74 O 43.96 CB 48.79 CG 50.04 CD 53.37 OE1 53.59 OE2 52.82
D ALA H 72 -69.2 -40.6 N 45.3 CA 46.06 C 43.55 O 43.84 CB 47.27
D GLU H 93 -62.6 -44.2 N 43.63 CA 42.72 C 39.43 O 37.81 CB 44.01 CG 46.91 CD 48.72 OE1 47.03 OE2 51.04
D LEU H 0 -68.5 -40.8 N 38.03 CA 35.64 C 35.74 O 34.43 CB 35.42 CG 34.67 CD1 35.55 CD2 33.99
D LEU H 43 -62.9 -32.6 N 37.52 CA 38.78 C 38.41 O 37.86 CB 41.08 CG 42.2 CD1 45.46 CD2 42.3
D ASN H 97 -65.8 -35.9 N 39.35 CA 40.49 C 38.52 O 38.39 CB 43.91 CG 48.02 OD1 50.02 ND2 49.74
D ARG H 44 -66.3 -32.2 N 35.48 CA 33.43 C 33.52 O 34.01 CB 32.3 CG 31.72 CD 30.57 NE 29.88 CZ 28.86 NH1 28.58 NH2 28.98
D VAL T 6 -93.9 6.5 N 32.99 CA 33.79 C 34.57 O 35.55 CB 33.44 CG1 33.02 CG2 34.23
D SER T 30 -112.8 -0.8 N 36.51 CA 38.22 C 38.39 O 40.54 CB 39.4 OG 41.87
D THR S 61 -131.0 161.4 N 38.15 CA 38.18 C 34.61 O 34.25 CB 40.76 OG1 42.35 CG2 43.61
D GLY T 31 59.2 -148.6 N 31.54 CA 29.72 C 26.83 O 25.48
D ASN T 24 -132.4 24.9 N 25.68 CA 24.24 C 23.28 O 22.62 CB 24.79 CG 25.69 OD1 24.59 ND2 26.52
D VAL B 14 -87.3 134.4 N 23.75 CA 24.25 C 24.2 O 23.59 CB 26.17 CG1 26.56 CG2 26.55
D LYS S 14 -76.8 -39.8 N 23.71 CA 25.2 C 26.52 O 28.08 CB 25.97 CG 27.73 CD 28.61 CE 29.97 NZ 30.84
D SER E 8 -153.2 165.5 N 27.02 CA 28.59 C 28.43 O 28.45 CB 29.81 OG 30.24
D ALA E 1 -144.4 135.6 N 27.73 CA 27.17 C 27.93 O 28.16 CB 27.07
D SER E 0 -137.8 161.0 N 27.8 CA 27.6 C 28.41 O 28.13 CB 27.59 OG 26.55
D SER E 1 -151.4 136.0 N 27.97 CA 28.65 C 29.55 O 29.81 CB 29.53 OG 30.36
D PHE E 1 -65.9 150.0 N 28.71 CA 30.24 C 32.13 O 32.57 CB 29.33 CG 28.26 CD1 28.69 CD2 28.02 CE1 29.09 CE2 26.32 CZ 27.27
D THR S 81 -53.2 -51.6 N 33.48 CA 35.6 C 36.38 O 37.14 CB 37.48 OG1 38.46 CG2 39.63
D ASP S 68 -159.4 177.5 N 35.89 CA 37.23 C 36.68 O 35.94 CB 38.66 CG 40.08 OD1 39.02 OD2 42.51
D ARG H 100 -56.2 -47.1 N 37.13 CA 37.13 C 36.56 O 33.87 CB 39.47 CG 40.38 CD 42.05 NE 42.88 CZ 44.78 NH1 46.04 NH2 45.14
D THR H 108 -56.3 -42.2 N 36.07 CA 35.97 C 34.57 O 34.83 CB 38.05 OG1 39.0 CG2 38.76
D THR H 32 -68.4 -46.4 N 33.64 CA 33.25 C 30.95 O 30.7 CB 33.66 OG1 37.32 CG2 33.91
D ALA H 1 -58.3 -43.4 N 29.81 CA 28.75 C 29.54 O 28.9 CB 27.88
D GLU H 118 -69.7 -41.6 N 30.14 CA 31.55 C 31.56 O 30.88 CB 34.25 CG 36.01 CD 39.99 OE1 41.32 OE2 43.49
D ALA H 43 -64.5 -44.5 N 31.59 CA 31.87 C 31.1 O 29.9 CB 33.7
D VAL H 2 -67.3 -41.2 N 30.53 CA 31.44 C 30.25 O 29.82 CB 32.41 CG1 33.01 CG2 34.1
D THR H 14 -58.7 -48.8 N 29.66 CA 30.04 C 30.53 O 29.54 CB 29.9 OG1 28.59 CG2 29.79
D SER H 63 -63.9 -42.3 N 30.67 CA 31.6 C 30.93 O 29.3 CB 33.36 OG 36.39
D LYS H 104 -66.2 -36.9 N 30.75 CA 31.95 C 30.86 O 32.71 CB 34.02 CG 36.43 CD 39.74 CE 41.47 NZ 43.84
D ALA H 0 -64.1 -44.5 N 26.06 CA 25.24 C 23.85 O 23.08 CB 24.56
D ILE H 23 -62.5 -46.8 N 24.1 CA 23.31 C 23.9 O 22.46 CB 23.81 CG1 23.54 CG2 23.27 CD1 24.85
D ASP H 115 -64.1 -47.3 N 25.76 CA 28.46 C 27.67 O 29.63 CB 31.64 CG 35.56 OD1 38.05 OD2 38.23
D SER H 88 -70.5 -19.5 N 27.52 CA 27.88 C 26.6 O 27.61 CB 29.44 OG 31.51
D ASN T 25 -105.8 19.4 N 25.35 CA 23.98 C 23.58 O 22.81 CB 22.95 CG 24.04 OD1 25.2 ND2 23.77
D GLN H 71 -61.0 -41.2 N 23.28 CA 22.69 C 22.26 O 20.6 CB 24.21 CG 24.74 CD 24.71 OE1 24.48 NE2 24.2
D ALA H 78 -64.5 -38.7 N 22.23 CA 21.98 C 20.5 O 20.03 CB 23.38
D LYS H 86 -61.2 -44.0 N 19.67 CA 19.6 C 18.22 O 17.54 CB 20.82 CG 21.77 CD 23.82 CE 23.57 NZ 26.1
D ILE H 0 -61.3 -47.2 N 17.63 CA 17.4 C 17.47 O 16.67 CB 17.47 CG1 17.76 CG2 17.65 CD1 18.02
D ASP H 86 -60.6 -42.7 N 18.52 CA 19.5 C 18.6 O 17.57 CB 22.11 CG 24.54 OD1 25.77 OD2 28.04
D SER H 75 -65.3 -41.4 N 18.2 CA 19.42 C 17.27 O 17.27 CB 22.29 OG 28.27
D TYR H 10 -59.2 -52.9 N 15.94 CA 15.01 C 14.58 O 15.17 CB 14.7 CG 14.38 CD1 14.45 CD2 14.14 CE1 14.42 CE2 14.12 CZ 14.28 OH 14.55
D LEU H 46 -58.8 -44.0 N 14.35 CA 14.45 C 14.94 O 14.91 CB 14.69 CG 14.58 CD1 15.02 CD2 14.54
D SER H 106 -84.6 -23.9 N 15.19 CA 15.94 C 15.79 O 16.14 CB 16.78 OG 17.63
D GLY H 67 -111.7 -20.1 N 16.07 CA 16.5 C 16.96 O 17.98
D SER - 35 -113.9 161.6 N 16.87 CA 16.89 C 16.93 O 16.36 CB 16.84 OG 17.56
D GLN - 149 -109.5 5.5 N 17.14 CA 17.62 C 17.25 O 17.75 CB 19.03 CG 20.1 CD 22.08 OE1 24.1 NE2 23.17
D LYS - 52 -67.1 141.2 N 16.38 CA 16.3 C 15.15 O 14.43 CB 16.83 CG 18.62 CD 19.73 CE 20.78 NZ 22.35
D GLY S 11 -65.8 -27.5 N 14.48 CA 13.97 C 13.56 O 13.59
D TYR E 33 -137.9 163.1 N 13.25 CA 13.23 C 13.17 O 12.62 CB 13.41 CG 13.9 CD1 14.56 CD2 14.54 CE1 15.06 CE2 15.11 CZ 15.57 OH 16.72
D LEU E 18 -140.4 133.1 N 13.49 CA 14.31 C 15.57 O 15.51 CB 14.1 CG 14.56 CD1 14.95 CD2 14.55
D GLU E 23 -89.3 127.7 N 17.58 CA 20.06 C 20.59 O 20.25 CB 23.5 CG 27.74 CD 31.16 OE1 35.03 OE2 34.5
D ILE E 0 -121.3 138.4 N 21.28 CA 22.45 C 23.57 O 22.39 CB 23.52 CG1 23.97 CG2 23.53 CD1 25.28
D ASP E 32 -113.5 148.6 N 25.06 CA 27.98 C 29.15 O 28.52 CB 28.88 CG 29.85 OD1 31.49 OD2 33.69
D TYR E 23 -124.5 133.3 N 31.23 CA 34.27 C 35.66 O 34.14 CB 36.61 CG 39.3 CD1 39.28 CD2 41.18 CE1 41.53 CE2 43.2 CZ 44.02 OH 44.91
D GLN - 124 -124.4 140.4 N 37.27 CA 41.86 C 42.59 O 41.06 CB 44.51 CG 48.24 CD 50.36 OE1 53.49 NE2 50.4
D SER - 26 -155.5 177.7 N 45.07 CA 46.84 C 48.7 O 48.0 CB 46.57 OG 46.43
D ASN S 162 -110.8 7.0 N 50.63 CA 53.85 C 53.18 O 55.21 CB 57.38 CG 59.04 OD1 61.04 ND2 57.91
D VAL S 97 -107.0 135.9 N 49.43 CA 48.13 C 44.85 O 44.34 CB 48.77 CG1 49.19 CG2 52.0
D PRO - 73 -63.7 136.0 N 43.1 CA 39.75 C 38.53 O 36.55 CB 42.44 CG 44.51 CD 44.84
D ILE - 8 -123.2 2.5 N 34.09 CA 34.43 C 32.63 O 31.69 CB 34.33 CG1 34.23 CG2 35.37 CD1 34.54
D GLY E 4 167.7 -161.4 N 31.57 CA 31.03 C 30.72 O 31.0
D ILE E 39 -133.8 161.1 N 28.81 CA 28.79 C 28.09 O 25.69 CB 29.78 CG1 29.54 CG2 30.55 CD1 31.25
D SER E 3 -146.6 144.9 N 27.98 CA 29.18 C 31.11 O 32.58 CB 29.34 OG 30.37
D VAL E 2 -133.4 155.0 N 31.14 CA 31.55 C 31.42 O 29.69 CB 32.7 CG1 33.58 CG2 32.74
D SER E 50 -131.7 148.3 N 30.88 CA 32.02 C 31.68 O 31.09 CB 34.09 OG 35.25
D ARG T 36 -58.4 137.1 N 30.81 CA 30.84 C 32.44 O 31.85 CB 29.67 CG 30.24 CD 29.41 NE 28.27 CZ 28.57 NH1 29.25 NH2 27.83
D GLY T 80 92.5 4.3 N 34.42 CA 36.17 C 38.3 O 40.43
D SER - 63 -153.5 144.6 N 36.62 CA 39.09 C 38.14 O 35.39 CB 39.99 OG 42.96
D THR - 121 -88.4 1.9 N 39.66 CA 40.37 C 40.4 O 39.5 CB 43.48 OG1 45.09 CG2 44.49
D ASN - 106 -61.7 137.6 N 41.97 CA 44.58 C 41.87 O 38.92 CB 49.14 CG 55.92 OD1 61.03 ND2 59.95
D VAL - 37 -113.0 119.3 N 41.5 CA 40.9 C 41.35 O 42.61 CB 40.8 CG1 40.9 CG2 40.36
D SER E 53 -97.9 135.5 N 38.49 CA 38.79 C 38.33 O 35.13 CB 39.21 OG 39.73
D SER E 80 -85.6 121.8 N 39.51 CA 41.13 C 42.08 O 45.74 CB 44.63 OG 48.18
D VAL E 6 -121.2 150.5 N 38.12 CA 36.4 C 34.93 O 34.48 CB 35.18 CG1 36.82 CG2 34.82
D THR - 33 -117.0 -7.1 N 33.83 CA 34.39 C 32.3 O 31.66 CB 36.59 OG1 38.11 CG2 37.65
D ASN E 31 -113.7 163.3 N 31.31 CA 30.78 C 29.41 O 28.9 CB 31.33 CG 34.07 OD1 34.32 ND2 36.86
D ALA E 0 -147.2 162.8 N 27.85 CA 26.46 C 25.31 O 25.43 CB 26.7
D ARG E 12 -128.4 132.1 N 22.56 CA 21.94 C 21.1 O 21.18 CB 22.83 CG 23.77 CD 24.05 NE 26.69 CZ 27.61 NH1 26.81 NH2 29.05
D ILE E 0 -115.7 137.4 N 20.07 CA 19.38 C 17.91 O 17.61 CB 20.28 CG1 22.07 CG2 20.25 CD1 23.06
D ILE E 0 -111.6 125.9 N 16.81 CA 16.15 C 15.79 O 16.12 CB 16.3 CG1 16.75 CG2 16.23 CD1 17.33
D ILE E 0 -117.6 159.4 N 15.55 CA 14.8 C 14.84 O 14.46 CB 14.99 CG1 14.99 CG2 15.52 CD1 15.73
D ALA E 5 -126.4 133.3 N 14.69 CA 14.62 C 14.48 O 14.43 CB 15.05
D ARG E 68 -61.0 139.1 N 14.65 CA 14.85 C 15.13 O 15.29 CB 15.32 CG 15.94 CD 16.4 NE 16.87 CZ 16.73 NH1 17.09 NH2 16.56
D ASP - 34 -158.0 102.0 N 15.26 CA 16.03 C 15.3 O 14.42 CB 17.51 CG 19.53 OD1 20.41 OD2 22.58
D PRO T 126 -62.1 -18.7 N 15.33 CA 15.35 C 15.61 O 15.47 CB 16.01 CG 16.63 CD 16.28
D SER T 88 -78.6 -9.6 N 15.86 CA 16.46 C 16.21 O 16.81 CB 17.53 OG 18.73
D PRO T 136 -53.9 -39.5 N 14.39 CA 14.31 C 14.1 O 13.89 CB 15.19 CG 15.63 CD 15.16
D THR T 76 -81.9 -9.6 N 13.98 CA 14.23 C 13.88 O 14.23 CB 14.74 OG1 14.52 CG2 15.4
D GLY S 17 90.3 -1.3 N 13.56 CA 13.51 C 13.57 O 13.14
D TYR E 17 -149.8 162.5 N 13.71 CA 14.17 C 15.44 O 15.04 CB 13.93 CG 14.14 CD1 14.58 CD2 14.43 CE1 15.3 CE2 15.05 CZ 15.5 OH 17.03
D LYS E 102 -113.3 146.0 N 16.62 CA 18.75 C 18.29 O 16.57 CB 22.1 CG 25.47 CD 29.78 CE 33.06 NZ 36.33
D ILE E 78 -78.2 127.3 N 17.88 CA 18.13 C 17.88 O 18.2 CB 19.28 CG1 19.83 CG2 20.09 CD1 21.18
D ILE E 17 -91.3 -54.1 N 17.18 CA 17.69 C 17.84 O 19.01 CB 17.5 CG1 17.68 CG2 18.35 CD1 18.41
D THR E 0 -161.8 177.6 N 18.17 CA 19.1 C 19.05 O 19.04 CB 19.44 OG1 20.17 CG2 19.13
D GLY E 0 -171.1 151.9 N 19.32 CA 19.08 C 19.6 O 20.77
D TYR E 2 -170.4 157.6 N 19.66 CA 20.1 C 21.15 O 20.25 CB 19.26 CG 18.04 CD1 17.66 CD2 18.22 CE1 17.06 CE2 17.27 CZ 17.11 OH 16.86
D PRO E 0 -65.4 149.3 N 23.03 CA 24.15 C 24.9 O 23.58 CB 25.02 CG 25.13 CD 24.26
D THR E 9 -128.7 145.1 N 27.13 CA 28.64 C 32.33 O 33.5 CB 27.72 OG1 29.32 CG2 26.52
D PRO - 116 -58.1 360.0 N 38.49 CA 43.03 C 47.37 O 52.38 CB 42.09 CG 40.38 CD 39.3 OXT 51.02
E ILE - 95 -57.1 143.2 N 23.57 CA 22.73 C 20.55 O 19.64 CB 23.72 CG1 24.72 CG2 24.01 CD1 25.41
E ILE H 39 -58.5 -39.7 N 19.35 CA 17.82 C 17.43 O 16.17 CB 17.79 CG1 17.24 CG2 18.1 CD1 17.68
E ASN H 35 -66.7 -24.3 N 17.45 CA 17.51 C 17.62 O 17.48 CB 18.01 CG 18.59 OD1 18.45 ND2 19.08
E GLU H 131 -80.2 -30.6 N 17.94 CA 18.86 C 16.87 O 17.61 CB 20.88 CG 23.91 CD 27.81 OE1 30.72 OE2 33.29
E LYS H 132 -88.0 -24.1 N 15.46 CA 14.64 C 13.72 O 13.52 CB 14.82 CG 15.05 CD 15.95 CE 16.84 NZ 17.81
E TYR S 51 -118.9 58.7 N 12.99 CA 12.76 C 12.64 O 12.48 CB 12.78 CG 12.92 CD1 12.74 CD2 12.99 CE1 13.01 CE2 13.23 CZ 13.3 OH 13.36
E PRO H 53 -64.9 -29.4 N 12.74 CA 12.84 C 12.87 O 12.88 CB 13.23 CG 13.23 CD 12.88
E TYR H 72 -71.3 -47.8 N 12.65 CA 13.08 C 13.13 O 13.25 CB 13.37 CG 13.89 CD1 14.56 CD2 14.28 CE1 15.2 CE2 15.08 CZ 15.52 OH 16.71
E LEU H 0 -71.5 -38.3 N 13.33 CA 13.79 C 13.85 O 13.72 CB 14.36 CG 15.34 CD1 15.67 CD2 15.81
E SER H 9 -55.1 -42.3 N 13.81 CA 15.0 C 14.69 O 14.91 CB 15.66 OG 18.54
E TYR H 12 -60.5 -48.7 N 13.99 CA 13.73 C 13.77 O 13.68 CB 13.61 CG 13.53 CD1 14.06 CD2 13.55 CE1 14.11 CE2 13.54 CZ 13.96 OH 14.02
E LEU I 0 -56.1 -51.6 N 13.63 CA 14.23 C 14.86 O 14.95 CB 14.46 CG 15.24 CD1 15.44 CD2 16.03
E LEU I 1 -74.1 -25.3 N 15.34 CA 16.22 C 17.6 O 18.47 CB 16.32 CG 16.26 CD1 16.76 CD2 16.92
E ARG I 22 -99.8 -39.9 N 16.79 CA 18.09 C 17.18 O 16.93 CB 20.05 CG 22.16 CD 24.76 NE 27.94 CZ 31.07 NH1 33.98 NH2 33.04
E CYS I 4 -88.2 -33.3 N 15.94 CA 16.2 C 15.61 O 16.11 CB 16.47 SG 18.09
E TYR I 0 -92.2 -59.5 N 14.69 CA 14.37 C 14.61 O 14.97 CB 14.37 CG 14.18 CD1 14.34 CD2 14.56 CE1 14.42 CE2 14.65 CZ 14.65 OH 14.87
E PHE S 0 -80.9 45.6 N 14.87 CA 15.38 C 16.38 O 17.73 CB 15.26 CG 14.95 CD1 14.87 CD2 15.04 CE1 15.13 CE2 15.04 CZ 15.02
E ASN S 2 -68.5 175.5 N 17.25 CA 18.31 C 18.68 O 17.68 CB 19.03 CG 19.74 OD1 20.83 ND2 19.94
E GLN T 12 -58.5 -23.8 N 19.3 CA 20.5 C 18.37 O 18.35 CB 22.6 CG 25.35 CD 26.78 OE1 27.32 NE2 29.4
E ASP T 1 -105.7 16.5 N 17.55 CA 17.38 C 16.39 O 15.97 CB 18.42 CG 19.62 OD1 19.86 OD2 21.87
E PHE H 0 -56.7 -36.9 N 15.76 CA 15.72 C 16.26 O 15.18 CB 15.6 CG 15.89 CD1 16.72 CD2 16.16 CE1 17.1 CE2 16.44 CZ 16.57
E GLU H 28 -70.7 -36.9 N 17.74 CA 19.35 C 19.44 O 19.52 CB 21.85 CG 24.57 CD 28.73 OE1 31.59 OE2 30.8
E VAL H 15 -64.7 -43.9 N 19.24 CA 19.98 C 19.8 O 20.38 CB 20.85 CG1 21.59 CG2 21.2
E LEU H 22 -84.6 -37.3 N 18.33 CA 18.09 C 18.37 O 18.5 CB 17.66 CG 18.11 CD1 17.82 CD2 18.84
E PHE H 3 -116.0 -15.0 N 18.24 CA 18.99 C 20.01 O 20.62 CB 18.54 CG 18.26 CD1 18.83 CD2 18.21 CE1 19.09 CE2 17.74 CZ 18.33
E GLY S 0 102.8 -63.1 N 20.76 CA 21.89 C 22.74 O 23.97
E ASN S 68 -152.0 179.0 N 22.37 CA 23.06 C 21.63 O 20.63 CB 24.9 CG 26.61 OD1 25.01 ND2 28.36
E ALA H 7 -67.3 -41.5 N 20.92 CA 20.43 C 20.57 O 20.51 CB 21.06
E ASP H 73 -68.2 -34.3 N 21.13 CA 21.81 C 19.88 O 19.68 CB 24.34 CG 26.03 OD1 26.61 OD2 31.09
E GLU H 35 -75.8 -22.3 N 19.78 CA 19.34 C 17.79 O 17.4 CB 20.69 CG 22.11 CD 23.04 OE1 23.83 OE2 24.19
E THR H 0 -67.0 -44.8 N 16.41 CA 15.42 C 15.33 O 14.57 CB 14.89 OG1 15.04 CG2 14.72
E LEU H 2 -63.1 -40.8 N 15.57 CA 15.99 C 16.39 O 16.73 CB 16.62 CG 16.85 CD1 17.89 CD2 16.69
E ALA H 40 -60.8 -37.4 N 16.59 CA 16.98 C 17.0 O 17.29 CB 17.99
E ALA H 12 -69.4 -42.9 N 16.54 CA 16.36 C 16.17 O 16.05 CB 16.12
E TYR H 0 -57.0 -48.2 N 15.86 CA 15.95 C 17.25 O 16.95 CB 15.75 CG 15.31 CD1 14.93 CD2 15.81 CE1 15.07 CE2 15.52 CZ 15.39 OH 15.57
E LYS H 57 -63.2 -38.7 N 18.3 CA 20.62 C 21.42 O 23.05 CB 22.84 CG 25.34 CD 28.07 CE 30.55 NZ 32.71
E ALA H 87 -75.7 -29.9 N 21.25 CA 21.93 C 21.46 O 23.68 CB 22.53
E THR H 56 -87.8 -38.3 N 20.25 CA 20.1 C 19.78 O 20.51 CB 19.83 OG1 20.32 CG2 20.39
E GLU S 8 -94.9 160.6 N 18.71 CA 18.72 C 18.76 O 18.75 CB 17.98 CG 17.75 CD 17.84 OE1 18.94 OE2 17.41
E THR - 48 -70.1 158.1 N 19.53 CA 20.3 C 20.29 O 19.55 CB 21.39 OG1 21.14 CG2 21.72
E ALA H 67 -54.2 -40.4 N 20.64 CA 21.19 C 20.66 O 20.22 CB 21.94
E GLU H 121 -66.4 -38.4 N 20.95 CA 22.07 C 20.21 O 20.04 CB 24.36 CG 27.1 CD 30.65 OE1 37.81 OE2 26.11
E GLU H 18 -57.7 -46.3 N 19.2 CA 18.88 C 18.41 O 17.7 CB 18.72 CG 18.56 CD 19.07 OE1 20.58 OE2 18.8
E ARG H 56 -68.8 -34.7 N 19.72 CA 19.94 C 19.17 O 19.09 CB 21.31 CG 22.46 CD 23.49 NE 24.42 CZ 24.55 NH1 25.0 NH2 25.06
E LEU H 104 -60.1 -46.3 N 18.86 CA 18.29 C 16.59 O 15.91 CB 18.82 CG 19.49 CD1 20.25 CD2 20.19
E GLN H 66 -71.1 -37.1 N 15.48 CA 15.3 C 15.31 O 14.72 CB 15.4 CG 16.03 CD 15.86 OE1 15.02 NE2 16.79
E LYS H 30 -59.2 -40.4 N 15.49 CA 16.09 C 14.8 O 14.48 CB 18.0 CG 19.83 CD 23.06 CE 25.23 NZ 27.44
E ALA H 42 -60.8 -41.0 N 14.15 CA 13.76 C 13.37 O 13.04 CB 14.06
E GLU H 19 -60.5 -44.5 N 13.08 CA 12.97 C 12.82 O 12.71 CB 13.15 CG 13.62 CD 13.99 OE1 14.61 OE2 14.49
E ILE H 0 -53.8 -45.5 N 12.76 CA 13.13 C 13.32 O 13.22 CB 13.64 CG1 14.02 CG2 13.84 CD1 14.47
E ASP H 69 -66.7 -30.2 N 13.65 CA 14.6 C 13.89 O 13.78 CB 15.76 CG 17.33 OD1 19.76 OD2 18.94
E TYR H 161 -61.6 -31.7 N 13.29 CA 13.31 C 13.32 O 13.88 CB 13.27 CG 13.53 CD1 13.57 CD2 13.81 CE1 13.88 CE2 14.44 CZ 14.48 OH 15.64
E LEU H 6 -77.8 -50.8 N 12.88 CA 13.12 C 13.43 O 13.73 CB 13.1 CG 13.07 CD1 13.22 CD2 13.26
E LEU H 34 -58.6 -37.0 N 13.82 CA 14.38 C 14.48 O 14.87 CB 14.96 CG 15.46 CD1 16.04 CD2 16.0
E ALA T 81 -59.5 -22.3 N 14.21 CA 14.49 C 14.53 O 14.89 CB 14.26
E LEU T 105 -80.2 -16.2 N 14.18 CA 14.84 C 15.54 O 15.48 CB 14.49 CG 14.26 CD1 14.23 CD2 14.51
E SER - 102 47.7 51.7 N 16.56 CA 17.94 C 17.64 O 17.28 CB 19.86 OG 23.07
E LEU - 52 -66.6 147.4 N 16.43 CA 16.45 C 16.53 O 16.94 CB 16.17 CG 15.93 CD1 16.02 CD2 16.18
E PRO - 80 -50.7 140.8 N 17.05 CA 17.24 C 17.08 O 17.17 CB 17.27 CG 17.83 CD 17.05
E ASP H 68 -57.2 -40.6 N 17.27 CA 17.45 C 17.68 O 17.42 CB 17.92 CG 18.48 OD1 18.63 OD2 18.88
E ASP H 121 -61.6 -38.0 N 19.13 CA 20.26 C 19.06 O 18.5 CB 22.87 CG 26.89 OD1 29.98 OD2 33.68
E GLU H 65 -71.2 -39.5 N 18.5 CA 17.84 C 16.49 O 16.14 CB 19.39 CG 21.11 CD 22.83 OE1 25.62 OE2 23.0
E LEU H 8 -63.9 -40.0 N 15.22 CA 14.85 C 14.8 O 14.11 CB 14.95 CG 15.11 CD1 15.02 CD2 15.56
E GLN H 54 -62.0 -41.7 N 14.93 CA 15.73 C 15.85 O 15.73 CB 16.47 CG 17.21 CD 18.08 OE1 19.12 NE2 18.95
E ASP H 52 -63.6 -40.4 N 16.12 CA 16.84 C 15.81 O 15.63 CB 18.55 CG 21.34 OD1 24.79 OD2 23.84
E ILE I 18 -58.6 -49.1 N 14.73 CA 14.28 C 13.87 O 13.69 CB 13.92 CG1 14.02 CG2 13.68 CD1 13.99
E LEU I 0 -73.5 -44.9 N 13.78 CA 14.22 C 14.53 O 14.07 CB 14.19 CG 14.2 CD1 14.47 CD2 14.27
E LEU I 4 -83.0 -42.9 N 15.23 CA 16.1 C 17.08 O 17.66 CB 16.45 CG 16.65 CD1 16.96 CD2 17.02
E ASN I 92 -102.5 -39.6 N 17.94 CA 18.97 C 18.86 O 20.59 CB 20.26 CG 22.09 OD1 23.3 ND2 23.25
E LYS I 96 -84.3 -53.5 N 17.92 CA 17.63 C 17.99 O 17.32 CB 17.53 CG 17.68 CD 17.55 CE 18.16 NZ 18.04
E LEU S 0 -75.3 -20.4 N 17.78 CA 18.65 C 19.82 O 20.69 CB 18.28 CG 18.53 CD1 19.12 CD2 19.24
E ASP - 42 75.3 35.0 N 20.07 CA 20.52 C 20.03 O 20.42 CB 22.41 CG 25.28 OD1 25.98 OD2 27.39
E CYS - 0 -58.8 135.7 N 18.25 CA 17.95 C 18.05 O 18.16 CB 17.53 SG 17.31
E SER - 4 -91.4 -20.9 N 17.8 CA 18.49 C 18.22 O 19.02 CB 19.01 OG 20.51
E TYR B 3 -73.3 118.2 N 17.87 CA 17.87 C 17.44 O 16.71 CB 18.33 CG 18.98 CD1 19.54 CD2 19.17 CE1 19.99 CE2 19.43 CZ 20.05 OH 21.15
E TYR - 18 -84.3 76.5 N 17.3 CA 18.07 C 18.26 O 19.32 CB 18.58 CG 19.38 CD1 19.43 CD2 19.65 CE1 19.96 CE2 20.26 CZ 20.34 OH 22.16
E TYR G 1 -63.7 -19.7 N 18.15 CA 18.14 C 18.67 O 19.13 CB 18.07 CG 16.93 CD1 16.79 CD2 16.57 CE1 16.36 CE2 15.83 CZ 15.9 OH 15.91
E PRO G 17 -61.7 -24.1 N 19.12 CA 20.58 C 22.54 O 23.94 CB 20.0 CG 19.71 CD 19.26
E ASN G 26 -76.2 -15.6 N 24.61 CA 27.01 C 27.85 O 30.81 CB 28.11 CG 28.12 OD1 26.74 ND2 28.54
E GLU T 112 -108.0 -26.9 N 28.42 CA 28.72 C 26.25 O 25.3 CB 31.45 CG 35.97 CD 38.6 OE1 41.88 OE2 44.23
E TRP - 64 -118.5 129.3 N 23.75 CA 22.38 C 22.03 O 22.35 CB 21.65 CG 21.91 CD1 22.2 CD2 22.16 NE1 22.93 CE2 23.24 CE3 22.54 CZ2 23.22 CZ3 22.92 CH2 23.36
E SER S 99 -73.4 -18.1 N 22.26 CA 22.71 C 20.55 O 20.33 CB 24.29 OG 27.18
E SER - 26 -146.2 164.3 N 19.19 CA 17.09 C 16.29 O 15.86 CB 17.44 OG 17.37
E SER H 0 -71.6 -35.0 N 15.5 CA 15.26 C 15.41 O 15.29 CB 15.27 OG 15.39
E GLU H 82 -57.6 -47.5 N 15.4 CA 16.2 C 16.29 O 15.47 CB 17.02 CG 17.98 CD 18.91 OE1 19.08 OE2 20.41
E GLU H 78 -66.7 -34.8 N 16.53 CA 17.1 C 16.6 O 16.82 CB 18.02 CG 18.85 CD 19.88 OE1 19.66 OE2 20.78
E TRP H 0 -66.5 -45.9 N 16.37 CA 16.11 C 15.36 O 14.87 CB 16.47 CG 17.37 CD1 18.09 CD2 17.78 NE1 18.94 CE2 18.51 CE3 18.05 CZ2 19.25 CZ3 18.5 CH2 19.17
E LEU H 0 -59.8 -41.9 N 14.94 CA 15.07 C 15.23 O 15.17 CB 15.09 CG 15.21 CD1 15.55 CD2 15.37
E LYS H 71 -63.0 -33.8 N 16.05 CA 17.51 C 17.25 O 18.06 CB 18.89 CG 20.63 CD 23.36 CE 26.01 NZ 28.99
E HIS H 27 -65.4 -44.8 N 17.13 CA 17.78 C 17.15 O 17.21 CB 18.64 CG 20.25 ND1 22.36 CD2 21.36 CE1 22.96 NE2 22.41
E ILE H 0 -60.1 -46.1 N 16.5 CA 16.36 C 16.78 O 17.4 CB 15.85 CG1 15.87 CG2 16.32 CD1 15.92
E TYR H 67 -57.3 -50.3 N 16.49 CA 17.74 C 19.13 O 19.44 CB 17.66 CG 17.73 CD1 18.32 CD2 18.03 CE1 19.27 CE2 18.62 CZ 19.43 OH 20.48
E LYS H 118 -61.5 -43.2 N 18.58 CA 21.4 C 21.95 O 22.4 CB 24.85 CG 28.05 CD 32.3 CE 34.49 NZ 39.17
E GLN H 58 -58.7 -32.4 N 22.48 CA 24.78 C 24.45 O 25.36 CB 25.85 CG 28.38 CD 33.89 OE1 37.56 NE2 35.97
E ASN H 97 -99.3 1.0 N 32.08 CA 36.63 C 42.05 O 42.75 CB 36.92 CG 37.47 OD1 38.21 ND2 37.79
E HIS - 161 -70.7 360.0 N 47.45 CA 56.18 C 57.53 O 63.05 CB 60.71 CG 67.4 ND1 72.16 CD2 71.44 CE1 72.66 NE2 72.74
F GLY - 48 360.0 175.9 N 40.35 CA 39.05 C 36.55 O 37.36
F GLY - 4 -115.2 7.7 N 34.08 CA 31.64 C 30.94 O 30.04
F HIS T 53 61.5 26.1 N 28.42 CA 29.46 C 27.71 O 26.0 CB 32.2 CG 35.66 ND1 38.23 CD2 38.31 CE1 39.56 NE2 39.93
F LEU T 7 48.3 31.8 N 26.52 CA 26.39 C 26.12 O 25.74 CB 25.5 CG 25.85 CD1 26.94 CD2 25.69
F ILE T 12 -62.2 -46.9 N 24.53 CA 25.91 C 25.69 O 26.5 CB 27.23 CG1 28.47 CG2 28.87 CD1 29.53
F ASP G 44 -58.6 -34.2 N 25.66 CA 26.1 C 25.07 O 24.57 CB 27.57 CG 30.24 OD1 31.17 OD2 30.17
F ARG G 61 -66.9 -32.5 N 24.44 CA 23.77 C 22.01 O 21.32 CB 24.14 CG 24.72 CD 25.74 NE 26.59 CZ 28.25 NH1 30.35 NH2 29.17
F HIS G 0 -116.2 34.7 N 20.69 CA 20.32 C 21.65 O 21.94 CB 19.55 CG 18.51 ND1 18.48 CD2 18.05 CE1 18.29 NE2 18.58
F VAL B 22 -132.8 137.3 N 23.38 CA 25.4 C 26.33 O 25.88 CB 28.51 CG1 28.76 CG2 30.11
F GLY S 51 64.0 14.3 N 26.5 CA 28.26 C 29.1 O 30.01
F LYS - 36 -73.2 141.2 N 29.55 CA 29.42 C 31.01 O 31.29 CB 28.9 CG 29.52 CD 31.56 CE 32.84 NZ 34.71
F THR - 71 -79.5 165.0 N 32.25 CA 33.62 C 32.76 O 32.2 CB 34.73 OG1 34.49 CG2 36.61
F GLU H 73 -57.1 -42.9 N 33.54 CA 34.48 C 32.72 O 32.37 CB 37.33 CG 40.18 CD 45.54 OE1 49.26 OE2 49.01
F ALA H 68 -65.0 -39.1 N 32.28 CA 31.67 C 30.06 O 30.63 CB 33.31
F GLU H 58 -65.2 -43.2 N 28.59 CA 28.34 C 26.09 O 24.29 CB 29.57 CG 31.27 CD 33.66 OE1 33.16 OE2 34.23
F LEU H 0 -66.5 -38.4 N 23.48 CA 22.26 C 21.93 O 20.47 CB 22.03 CG 21.57 CD1 21.67 CD2 21.81
F LEU H 36 -63.5 -40.0 N 22.65 CA 24.18 C 23.55 O 22.61 CB 26.05 CG 27.71 CD1 30.32 CD2 28.27
F ASN H 40 -66.0 -34.7 N 23.52 CA 23.97 C 23.2 O 22.35 CB 24.54 CG 25.14 OD1 26.16 ND2 25.48
F ARG H 15 -63.0 -44.5 N 22.16 CA 22.11 C 21.55 O 21.05 CB 22.13 CG 22.07 CD 21.57 NE 21.29 CZ 21.82 NH1 21.13 NH2 22.15
F VAL H 9 -67.1 -42.1 N 21.41 CA 21.65 C 21.19 O 21.8 CB 23.24 CG1 23.95 CG2 23.47
F SER H 18 -66.4 -31.6 N 20.15 CA 20.25 C 19.6 O 18.08 CB 21.3 OG 24.39
F THR H 3 -97.6 -12.9 N 20.17 CA 20.57 C 21.79 O 24.15 CB 20.26 OG1 19.85 CG2 20.27
F GLY S 9 -104.5 -172.2 N 22.59 CA 23.8 C 23.92 O 24.39
F ASN S 22 -115.3 28.3 N 23.76 CA 23.26 C 22.09 O 21.42 CB 24.49 CG 26.71 OD1 28.89 ND2 26.73
F VAL B 10 -108.1 148.9 N 21.22 CA 21.91 C 21.97 O 23.24 CB 22.93 CG1 22.94 CG2 23.94
F LYS S 21 -85.8 -15.8 N 21.25 CA 21.78 C 21.69 O 22.31 CB 22.42 CG 22.67 CD 23.5 CE 23.63 NZ 23.33
F SER E 15 -152.8 165.1 N 21.49 CA 21.52 C 20.54 O 20.49 CB 23.74 OG 25.84
F ALA E 1 -144.5 143.2 N 19.04 CA 18.43 C 17.99 O 18.66 CB 18.77
F SER E 0 -147.3 164.0 N 17.58 CA 17.57 C 17.64 O 17.25 CB 17.52 OG 18.0
F SER E 2 -153.8 133.5 N 17.38 CA 17.95 C 17.42 O 17.99 CB 18.43 OG 20.28
F PHE E 5 -65.2 155.3 N 17.35 CA 17.64 C 18.29 O 18.46 CB 17.49 CG 17.69 CD1 18.14 CD2 17.39 CE1 18.49 CE2 17.97 CZ 18.31
F THR S 78 -57.6 -46.8 N 19.17 CA 20.48 C 20.02 O 20.56 CB 21.97 OG1 23.38 CG2 22.83
F ASP - 68 -159.5 172.3 N 19.57 CA 19.27 C 19.1 O 17.65 CB 19.72 CG 21.16 OD1 21.56 OD2 22.06
F ARG H 71 -61.3 -39.5 N 18.84 CA 19.86 C 19.01 O 18.83 CB 21.26 CG 23.96 CD 25.95 NE 28.99 CZ 30.39 NH1 30.61 NH2 32.49
F THR H 106 -63.8 -34.6 N 19.24 CA 19.71 C 19.64 O 20.03 CB 20.19 OG1 20.77 CG2 20.1
F THR H 34 -70.5 -44.7 N 19.04 CA 19.5 C 18.82 O 18.58 CB 19.95 OG1 20.29 CG2 19.94
F ALA H 1 -60.4 -46.8 N 18.29 CA 18.43 C 19.68 O 19.15 CB 18.66
F GLU H 93 -61.6 -44.3 N 20.65 CA 22.23 C 20.87 O 21.82 CB 25.21 CG 28.96 CD 34.61 OE1 40.23 OE2 41.1
F ALA H 44 -64.6 -45.4 N 20.29 CA 20.28 C 20.4 O 20.63 CB 21.14
F VAL H 4 -66.6 -42.0 N 20.31 CA 20.91 C 19.8 O 19.68 CB 21.49 CG1 22.92 CG2 22.68
F THR H 16 -59.9 -48.3 N 19.82 CA 19.88 C 19.94 O 20.25 CB 20.4 OG1 19.97 CG2 21.11
F SER H 59 -62.7 -43.0 N 20.34 CA 19.94 C 21.13 O 20.38 CB 20.72 OG 21.64
F LYS H 118 -62.1 -40.6 N 21.01 CA 22.99 C 21.65 O 21.71 CB 25.84 CG 29.43 CD 33.31 CE 36.81 NZ 39.68
F ALA H 0 -61.1 -45.4 N 20.02 CA 20.12 C 20.81 O 22.41 CB 20.24
F ILE H 12 -63.2 -49.1 N 21.01 CA 22.46 C 22.26 O 22.66 CB 23.24 CG1 24.17 CG2 24.77 CD1 24.73
F ASP H 109 -70.0 -36.0 N 22.82 CA 24.84 C 25.6 O 26.98 CB 25.52 CG 28.8 OD1 29.65 OD2 29.18
F SER H 91 -79.2 -11.9 N 25.05 CA 26.18 C 26.36 O 27.39 CB 27.35 OG 25.95
F ASN T 30 -113.2 25.3 N 23.98 CA 23.22 C 22.19 O 22.06 CB 23.77 CG 24.65 OD1 26.47 ND2 23.83
F GLN H 68 -65.8 -36.3 N 22.49 CA 22.55 C 23.19 O 23.46 CB 23.3 CG 23.61 CD 23.1 OE1 22.6 NE2 23.66
F ALA H 76 -63.2 -42.6 N 23.74 CA 24.72 C 24.38 O 24.96 CB 26.19
F LYS H 102 -63.6 -43.7 N 23.88 CA 24.86 C 23.57 O 23.64 CB 25.75 CG 27.95 CD 29.87 CE 31.94 NZ 34.3
F ILE H 0 -62.9 -44.4 N 22.68 CA 22.59 C 23.76 O 23.66 CB 22.49 CG1 21.79 CG2 22.29 CD1 21.69
F ASP H 83 -59.7 -40.6 N 25.02 CA 26.91 C 26.1 O 26.76 CB 29.74 CG 31.39 OD1 32.76 OD2 33.14
F SER H 76 -71.0 -38.2 N 26.03 CA 27.03 C 26.14 O 27.21 CB 28.49 OG 30.99
F TYR H 12 -60.2 -43.3 N 23.61 CA 22.71 C 24.54 O 25.44 CB 21.0 CG 19.38 CD1 18.98 CD2 19.2 CE1 18.36 CE2 18.58 CZ 18.46 OH 18.95
F LEU H 47 -68.9 -36.4 N 26.47 CA 28.37 C 31.31 O 33.29 CB 29.05 CG 28.19 CD1 28.43 CD2 27.75
F SER H 106 -93.7 -29.1 N 32.46 CA 34.05 C 34.88 O 38.36 CB 34.67 OG 34.35
F GLY H 70 -113.3 12.8 N 33.54 CA 33.41 C 33.01 O 34.12
F SER - 36 -138.1 157.9 N 30.41 CA 28.85 C 27.48 O 26.74 CB 28.78 OG 28.67
F GLN - 154 -114.9 11.0 N 26.09 CA 26.25 C 24.17 O 23.68 CB 29.7 CG 33.41 CD 36.97 OE1 40.86 NE2 39.26
F LYS - 56 -60.7 143.8 N 21.98 CA 21.35 C 19.61 O 19.7 CB 22.39 CG 24.77 CD 25.71 CE 27.97 NZ 29.1
F GLY S 13 -65.5 -31.2 N 18.52 CA 18.3 C 17.43 O 17.88
F TYR E 11 -137.4 160.8 N 16.12 CA 15.55 C 15.47 O 15.07 CB 15.77 CG 16.42 CD1 16.41 CD2 17.07 CE1 17.74 CE2 17.53 CZ 17.83 OH 18.79
F LEU E 18 -137.0 132.1 N 15.53 CA 16.42 C 17.25 O 17.95 CB 16.36 CG 16.49 CD1 16.89 CD2 16.64
F GLU E 27 -92.3 127.2 N 19.69 CA 21.83 C 22.59 O 22.0 CB 24.48 CG 27.44 CD 30.85 OE1 32.06 OE2 35.95
F ILE E 0 -114.7 146.5 N 25.77 CA 27.8 C 28.56 O 25.76 CB 28.78 CG1 28.82 CG2 29.89 CD1 29.28
F ASP E 55 -119.1 147.6 N 32.71 CA 36.33 C 38.37 O 37.74 CB 40.06 CG 44.37 OD1 45.61 OD2 49.24
F TYR E 29 -123.8 134.7 N 37.58 CA 38.89 C 39.22 O 36.21 CB 40.11 CG 39.9 CD1 41.06 CD2 40.58 CE1 41.38 CE2 40.68 CZ 42.24 OH 41.67
F GLN - 129 -122.6 132.2 N 38.73 CA 42.13 C 41.25 O 38.98 CB 44.55 CG 47.67 CD 50.24 OE1 54.25 NE2 50.81
F SER - 21 -142.0 176.3 N 44.48 CA 43.65 C 45.29 O 46.71 CB 42.86 OG 40.94
F ASN S 164 -107.0 -0.4 N 47.64 CA 47.0 C 45.63 O 46.26 CB 49.26 CG 52.1 OD1 51.34 ND2 54.28
F VAL S 99 -103.0 132.1 N 39.15 CA 37.33 C 33.23 O 30.86 CB 39.54 CG1 38.34 CG2 40.62
F PRO - 80 -61.4 134.5 N 31.26 CA 29.59 C 27.52 O 26.33 CB 31.03 CG 32.53 CD 32.03
F ILE - 7 -125.2 3.9 N 25.01 CA 23.13 C 21.18 O 18.78 CB 23.91 CG1 24.77 CG2 24.62 CD1 25.61
F GLY E 4 168.6 -170.7 N 20.27 CA 19.73 C 20.43 O 21.41
F ILE E 46 -129.9 159.4 N 20.36 CA 21.03 C 20.58 O 18.96 CB 22.33 CG1 22.36 CG2 22.93 CD1 23.51
F SER E 3 -144.2 147.6 N 21.7 CA 22.62 C 23.25 O 23.32 CB 24.12 OG 26.33
F VAL E 2 -134.9 160.9 N 23.51 CA 25.07 C 25.96 O 24.74 CB 26.0 CG1 26.9 CG2 25.53
F SER E 56 -138.7 157.2 N 26.91 CA 28.78 C 30.26 O 29.6 CB 31.36 OG 34.84
F ARG T 64 -62.7 159.8 N 30.94 CA 34.92 C 39.24 O 40.67 CB 34.33 CG 33.91 CD 33.14 NE 33.4 CZ 34.54 NH1 34.92 NH2 35.32
F GLY T 47 65.6 26.5 N 42.35 CA 47.49 C 50.75 O 54.49
F SER - 44 -167.9 131.1 N 50.15 CA 52.69 C 52.79 O 50.0 CB 53.32 OG 55.68
F THR - 63 -94.6 13.8 N 53.63 CA 54.3 C 53.68 O 54.79 CB 55.98 OG1 58.24 CG2 57.04
F ASN - 114 -85.7 150.3 N 51.22 CA 48.02 C 44.11 O 44.16 CB 49.14 CG 52.45 OD1 52.56 ND2 53.41
F VAL E 55 -119.1 139.4 N 41.88 CA 38.96 C 37.08 O 40.54 CB 39.58 CG1 41.12 CG2 38.37
F SER E 67 -111.8 141.4 N 33.17 CA 32.47 C 31.47 O 27.38 CB 32.62 OG 35.55
F SER E 91 -78.2 135.2 N 32.12 CA 33.17 C 33.32 O 35.14 CB 35.16 OG 39.68
F VAL E 7 -130.7 152.9 N 30.4 CA 29.28 C 28.7 O 26.56 CB 30.28 CG1 31.89 CG2 29.65
F THR - 36 -119.4 -6.9 N 27.82 CA 27.8 C 27.64 O 27.71 CB 29.16 OG1 29.13 CG2 29.68
F ASN E 18 -116.6 157.3 N 26.59 CA 27.24 C 26.27 O 25.91 CB 29.87 CG 32.36 OD1 33.47 ND2 32.14
F ALA E 0 -143.3 157.4 N 23.95 CA 24.36 C 24.11 O 26.08 CB 23.34
F ARG E 18 -124.4 127.0 N 23.5 CA 22.69 C 21.12 O 20.21 CB 24.8 CG 26.59 CD 30.43 NE 33.1 CZ 35.78 NH1 35.19 NH2 37.44
F ILE E 0 -118.5 135.8 N 19.42 CA 18.97 C 18.5 O 18.24 CB 19.71 CG1 21.25 CG2 19.49 CD1 21.41
F ILE E 0 -112.4 120.5 N 17.64 CA 17.47 C 17.07 O 17.03 CB 17.75 CG1 18.81 CG2 17.82 CD1 19.88
F ILE E 0 -110.7 163.1 N 17.43 CA 17.72 C 18.02 O 18.23 CB 18.09 CG1 18.56 CG2 17.99 CD1 19.24
F ALA E 12 -131.4 133.3 N 18.06 CA 18.93 C 19.86 O 19.46 CB 18.87
F ARG E 67 -64.6 140.0 N 21.2 CA 23.74 C 24.82 O 23.33 CB 25.28 CG 25.66 CD 26.45 NE 25.24 CZ 26.05 NH1 25.35 NH2 26.01
F ASP - 40 -161.2 97.4 N 26.02 CA 28.79 C 30.39 O 29.23 CB 30.26 CG 32.88 OD1 33.84 OD2 34.9
F PRO T 123 -58.1 -28.0 N 33.78 CA 35.83 C 39.13 O 41.74 CB 36.62 CG 35.92 CD 34.28
F SER T 105 -85.7 6.3 N 40.68 CA 43.22 C 44.23 O 43.86 CB 43.95 OG 44.28
F PRO T 138 -58.8 -31.4 N 39.3 CA 38.77 C 37.1 O 37.57 CB 39.89 CG 40.91 CD 40.35
F THR T 77 -81.3 -14.6 N 33.78 CA 31.15 C 29.42 O 27.48 CB 31.22 OG1 30.1 CG2 31.93
F GLY S 17 92.2 1.5 N 26.98 CA 26.59 C 25.04 O 24.66
F TYR E 20 -149.5 162.9 N 23.47 CA 22.28 C 21.93 O 21.97 CB 21.66 CG 21.77 CD1 22.14 CD2 23.02 CE1 22.65 CE2 23.36 CZ 23.75 OH 25.02
F LYS E 68 -116.7 136.3 N 21.63 CA 22.93 C 21.45 O 19.67 CB 25.61 CG 29.37 CD 31.7 CE 33.39 NZ 35.75
F ILE E 24 -80.7 123.1 N 20.28 CA 20.46 C 19.8 O 20.83 CB 21.32 CG1 22.2 CG2 21.75 CD1 24.49
F ILE E 20 -88.2 -50.7 N 18.25 CA 18.36 C 17.64 O 17.34 CB 19.36 CG1 19.97 CG2 20.17 CD1 21.02
F THR E 0 -160.2 171.0 N 16.54 CA 16.78 C 16.76 O 17.38 CB 17.02 OG1 17.69 CG2 17.31
F GLY E 5 -163.2 142.3 N 16.66 CA 16.69 C 16.32 O 16.52
F TYR E 1 -163.3 158.0 N 16.62 CA 16.84 C 17.28 O 17.33 CB 17.42 CG 17.81 CD1 18.64 CD2 18.59 CE1 19.68 CE2 19.7 CZ 20.64 OH 22.51
F PRO E 0 -75.4 151.0 N 17.99 CA 18.64 C 19.51 O 19.15 CB 18.85 CG 18.7 CD 18.02
F THR E 8 -135.7 157.3 N 21.26 CA 24.05 C 27.73 O 26.17 CB 25.02 OG1 26.42 CG2 24.85
F PRO - 126 -56.8 360.0 N 31.33 CA 35.75 C 39.62 O 46.27 CB 35.67 CG 34.48 CD 33.08 OXT 41.86
