A GLU - 167 -131.5 160.5 N 40.28 CA 47.25 C 41.07 O 38.84 CB 54.67 CG 67.77 CD 80.0 OE1 81.34 OE2 84.24
A CYS - 23 -142.7 111.8 N 36.94 CA 34.52 C 40.41 O 39.47 CB 35.47 SG 37.34
A THR - 120 -104.3 121.5 N 36.99 CA 40.22 C 48.27 O 55.4 CB 55.0 OG1 57.07 CG2 59.28
A LYS - 55 -136.4 159.2 N 40.36 CA 37.52 C 37.85 O 39.96 CB 43.1 CG 51.66 CD 51.86 CE 47.01 NZ 43.43
A PHE - 169 -142.2 106.2 N 34.85 CA 38.2 C 38.57 O 39.5 CB 41.49 CG 47.73 CD1 44.68 CD2 47.93 CE1 48.43 CE2 50.92 CZ 49.45
A LYS S 144 51.0 39.9 N 34.75 CA 35.99 C 34.48 O 32.74 CB 36.44 CG 51.07 CD 58.47 CE 61.13 NZ 58.79
A VAL - 8 -66.1 147.4 N 37.16 CA 29.59 C 32.45 O 33.44 CB 36.22 CG1 34.89 CG2 39.62
A SER - 49 -114.0 -2.2 N 30.85 CA 34.93 C 29.85 O 39.71 CB 48.4 OG 69.67
A SER S 30 -158.6 160.5 N 25.9 CA 23.96 C 21.97 O 22.07 CB 26.65 OG 25.78
A CYS H 4 -57.4 -43.6 N 21.93 CA 22.79 C 22.07 O 19.28 CB 16.49 SG 21.33
A ARG H 90 -57.1 -50.3 N 20.66 CA 24.7 C 22.33 O 21.49 CB 27.75 CG 36.02 CD 44.52 NE 47.89 CZ 54.55 NH1 65.08 NH2 41.68
A GLU H 83 -59.5 -37.7 N 21.73 CA 24.68 C 25.99 O 22.99 CB 24.78 CG 40.7 CD 48.21 OE1 41.98 OE2 46.54
A CYS H 0 -62.5 -53.2 N 21.99 CA 24.15 C 23.85 O 22.52 CB 22.33 SG 25.97
A ILE H 2 -61.9 -34.3 N 22.48 CA 23.71 C 29.45 O 28.98 CB 35.82 CG1 38.31 CG2 42.96 CD1 37.84
A GLU T 91 -71.0 -10.3 N 23.03 CA 24.12 C 30.8 O 30.41 CB 33.07 CG 35.05 CD 47.73 OE1 58.59 OE2 36.54
A SER T 46 -80.6 -8.4 N 23.83 CA 24.23 C 32.91 O 34.29 CB 29.14 OG 30.55
A GLY - 18 149.6 158.7 N 26.74 CA 29.96 C 24.89 O 25.69
A PRO T 53 -67.8 -19.9 N 29.46 CA 24.91 C 21.11 O 25.65 CB 23.98 CG 27.56 CD 29.74
A GLY T 11 -90.5 -6.2 N 27.57 CA 29.03 C 27.79 O 27.56
A CYS - 0 -79.8 137.0 N 20.46 CA 24.81 C 25.81 O 21.96 CB 23.78 SG 26.91
A THR E 3 -133.7 165.5 N 18.44 CA 16.44 C 20.84 O 20.31 CB 18.62 OG1 21.73 CG2 27.77
A TRP E 0 -129.6 127.9 N 19.12 CA 19.6 C 19.71 O 19.45 CB 19.45 CG 16.58 CD1 15.07 CD2 17.18 NE1 19.0 CE2 18.3 CE3 17.41 CZ2 20.86 CZ3 19.04 CH2 18.14
A CYS E 0 -87.4 119.4 N 17.98 CA 15.76 C 19.36 O 21.59 CB 17.45 SG 23.37
A GLN - 14 -96.1 8.7 N 20.38 CA 14.75 C 18.65 O 20.63 CB 15.85 CG 19.44 CD 27.25 OE1 24.14 NE2 31.02
A LYS - 86 -59.5 135.8 N 19.2 CA 16.95 C 20.46 O 22.59 CB 17.7 CG 18.54 CD 19.88 CE 24.79 NZ 25.02
A LEU T 76 -64.7 139.0 N 22.27 CA 20.71 C 29.32 O 27.51 CB 27.26 CG 29.67 CD1 29.81 CD2 33.14
A ASN T 110 66.0 27.0 N 24.79 CA 24.5 C 32.01 O 31.02 CB 30.32 CG 33.26 OD1 32.98 ND2 33.7
A PHE - 18 -69.4 -26.8 N 28.45 CA 26.85 C 32.1 O 35.67 CB 25.48 CG 26.3 CD1 29.17 CD2 23.06 CE1 27.12 CE2 26.78 CZ 28.8
A THR S 13 -88.3 124.5 N 30.48 CA 43.05 C 51.78 O 56.37 CB 41.14 OG1 53.23 CG2 52.17
A GLY - 23 -73.1 159.8 N 59.66 CA 64.63 C 70.14 O 52.93
A PRO T 135 -44.9 -44.2 N 84.83 CA 86.15 C 79.16 O 80.22 CB 92.49 CG 93.25 CD 88.65
A GLY T 74 -96.7 29.7 N 67.76 CA 65.32 C 63.83 O 58.81
A ASP - 60 -123.6 142.0 N 48.13 CA 42.28 C 38.11 O 39.22 CB 41.76 CG 46.83 OD1 40.87 OD2 45.03
A PRO - 57 -75.0 160.2 N 34.0 CA 33.32 C 33.85 O 30.93 CB 31.94 CG 32.98 CD 37.73
A ASP G 53 -60.3 -26.1 N 33.66 CA 30.67 C 28.01 O 25.4 CB 30.15 CG 41.01 OD1 44.5 OD2 43.47
A SER G 11 -61.1 -14.4 N 24.13 CA 25.42 C 25.56 O 23.65 CB 32.58 OG 40.61
A ILE G 37 -62.4 -23.5 N 27.14 CA 23.42 C 23.44 O 18.89 CB 25.18 CG1 41.21 CG2 36.11 CD1 46.35
A ARG G 5 -66.1 -16.0 N 19.69 CA 20.41 C 20.38 O 18.8 CB 18.34 CG 20.91 CD 19.83 NE 22.4 CZ 22.83 NH1 18.42 NH2 20.73
A CYS E 0 -102.5 114.3 N 21.54 CA 19.16 C 21.58 O 21.33 CB 20.58 SG 23.27
A ASP E 36 -167.1 -177.9 N 19.52 CA 20.82 C 21.8 O 22.35 CB 21.57 CG 27.65 OD1 22.23 OD2 29.23
A THR - 11 -71.1 157.4 N 23.18 CA 22.02 C 25.65 O 25.41 CB 28.31 OG1 27.36 CG2 29.98
A ARG H 84 -53.6 -47.4 N 23.66 CA 24.53 C 24.96 O 27.53 CB 27.63 CG 34.39 CD 31.9 NE 36.63 CZ 41.46 NH1 33.61 NH2 41.0
A PRO H 63 -64.5 -31.5 N 28.07 CA 28.46 C 26.65 O 29.09 CB 30.53 CG 33.72 CD 22.65
A GLN H 104 -68.0 -41.5 N 20.74 CA 22.96 C 25.41 O 18.01 CB 25.52 CG 22.3 CD 27.11 OE1 27.59 NE2 30.29
A LEU H 1 -68.0 -38.0 N 26.57 CA 19.86 C 23.6 O 25.57 CB 20.26 CG 19.39 CD1 16.9 CD2 20.4
A LEU H 80 -62.2 -36.6 N 25.57 CA 28.18 C 35.26 O 34.65 CB 27.57 CG 29.84 CD1 34.87 CD2 34.21
A MET H 160 -70.6 -24.4 N 33.59 CA 40.24 C 42.63 O 40.64 CB 30.42 CG 56.73 SD 63.48 CE 62.29
A ARG T 136 -92.2 8.5 N 27.05 CA 24.9 C 30.83 O 36.44 CB 30.85 CG 39.54 CD 39.75 NE 40.43 CZ 46.28 NH1 47.34 NH2 42.56
A GLY T 40 91.3 13.8 N 32.9 CA 34.59 C 30.26 O 30.47
A CYS - 3 -75.4 126.8 N 24.36 CA 21.99 C 30.25 O 33.49 CB 21.0 SG 27.85
A ALA - 48 -69.1 151.4 N 26.86 CA 24.48 C 27.89 O 27.42 CB 30.38
A ALA G 61 -52.9 -38.4 N 29.28 CA 32.56 C 26.0 O 28.85 CB 37.78
A ASP G 122 -84.6 -1.5 N 27.85 CA 35.96 C 29.29 O 27.85 CB 36.61 CG 48.22 OD1 47.85 OD2 62.64
A ASP G 33 -97.5 3.3 N 23.6 CA 18.57 C 22.83 O 20.39 CB 21.39 CG 31.93 OD1 30.07 OD2 28.15
A ILE E 11 -95.9 116.2 N 20.74 CA 17.5 C 31.99 O 23.5 CB 20.71 CG1 24.09 CG2 22.75 CD1 28.91
A MET E 21 -87.4 125.5 N 18.42 CA 20.0 C 24.1 O 20.54 CB 23.21 CG 28.3 SD 29.93 CE 28.26
A ASP - 41 -156.4 73.8 N 20.77 CA 18.68 C 25.04 O 27.29 CB 26.1 CG 28.24 OD1 31.1 OD2 34.92
A PRO - 17 -58.1 132.6 N 22.49 CA 25.48 C 26.77 O 28.87 CB 27.75 CG 29.68 CD 23.56
A THR - 72 -122.6 141.3 N 25.75 CA 18.11 C 17.54 O 20.65 CB 32.37 OG1 36.98 CG2 33.79
A SER - 17 -61.3 144.6 N 19.11 CA 20.73 C 22.35 O 23.86 CB 20.52 OG 21.24
A LEU E 77 -145.0 141.9 N 24.02 CA 24.67 C 25.09 O 24.48 CB 21.7 CG 44.27 CD1 46.52 CD2 48.0
A ALA E 32 -116.1 135.9 N 22.41 CA 23.17 C 31.96 O 28.18 CB 25.38
A GLU E 97 -123.6 136.3 N 24.77 CA 23.82 C 33.05 O 29.53 CB 30.8 CG 42.97 CD 55.41 OE1 58.31 OE2 61.55
A THR E 78 -122.5 159.6 N 28.51 CA 31.03 C 37.02 O 42.64 CB 41.55 OG1 46.83 CG2 38.42
A GLN E 131 -137.4 141.1 N 36.22 CA 50.31 C 44.16 O 38.34 CB 55.6 CG 69.85 CD 87.78 OE1 93.56 NE2 89.66
A GLU - 96 -112.2 149.2 N 48.2 CA 58.52 C 67.01 O 65.37 CB 65.78 CG 74.61 CD 86.34 OE1 92.3 OE2 89.7
A ASP - 86 -67.0 -179.7 N 74.85 CA 78.29 C 77.57 O 73.59 CB 80.87 CG 84.23 OD1 82.15 OD2 86.96
A HIS - 201 -61.4 -17.0 N 78.02 CA 83.34 C 100.44 O 97.04 CB 76.37 CG 74.04 ND1 68.27 CD2 68.57 CE1 66.24 NE2 66.55
A ASN S 63 73.9 28.3 N 129.1 CA 134.81 C 136.4 O 142.89 CB 138.11 CG 137.85 OD1 138.73 ND2 137.21
A GLY S 86 -88.0 -17.9 N 128.47 CA 124.94 C 122.33 O 120.61
A GLY S 67 -96.0 -14.2 N 124.73 CA 127.02 C 128.09 O 127.26
A GLN - 30 -101.1 128.7 N 132.85 CA 128.84 C 120.44 O 131.92 CB 130.99
A LYS - 73 -102.0 -94.9 N 97.86 CA 78.49 C 65.55 O 67.52 CB 70.8
A GLN S 47 -90.4 -23.8 N 52.51 CA 46.91 C 38.05 O 39.89 CB 47.99 CG 65.19 CD 75.03 OE1 82.51 NE2 76.95
A LEU E 4 -117.5 135.3 N 33.86 CA 28.77 C 33.88 O 37.12 CB 31.57 CG 37.61 CD1 30.74 CD2 34.65
A SER E 29 -143.4 149.9 N 31.28 CA 34.37 C 38.96 O 35.7 CB 45.78 OG 54.77
A PRO - 13 -73.6 174.8 N 36.01 CA 35.86 C 37.87 O 39.12 CB 35.87 CG 38.39 CD 36.6
A GLN S 19 -90.9 -25.6 N 31.91 CA 33.19 C 33.49 O 30.33 CB 35.19 CG 43.08 CD 60.21 OE1 70.48 NE2 61.94
A LYS E 68 -138.4 132.8 N 27.25 CA 25.12 C 23.29 O 28.9 CB 37.53 CG 46.6 CD 53.99 CE 59.26 NZ 64.82
A VAL E 0 -131.6 137.7 N 23.5 CA 22.78 C 23.42 O 24.89 CB 31.28 CG1 34.28 CG2 32.58
A THR E 25 -118.7 126.6 N 22.66 CA 21.63 C 20.9 O 21.99 CB 27.01 OG1 30.53 CG2 25.91
A LEU E 0 -114.0 132.8 N 19.26 CA 21.09 C 20.78 O 22.45 CB 24.46 CG 23.91 CD1 24.12 CD2 21.55
A TYR E 67 -107.4 117.7 N 16.74 CA 21.23 C 23.45 O 22.88 CB 24.8 CG 22.54 CD1 31.38 CD2 26.82 CE1 33.8 CE2 29.6 CZ 35.52 OH 40.73
A LEU E 0 -113.3 109.5 N 18.24 CA 18.71 C 21.19 O 21.76 CB 22.72 CG 21.83 CD1 19.74 CD2 23.98
A ARG - 0 -84.0 130.4 N 17.75 CA 15.87 C 17.87 O 21.73 CB 20.4 CG 24.5 CD 35.85 NE 43.1 CZ 32.47 NH1 30.04 NH2 25.79
A PRO T 16 -54.9 127.9 N 23.08 CA 23.54 C 23.53 O 22.47 CB 28.54 CG 29.29 CD 23.15
A GLY T 44 87.4 -7.0 N 19.12 CA 26.43 C 29.66 O 26.46
A GLN - 43 -111.1 109.2 N 21.82 CA 24.74 C 21.82 O 23.61 CB 27.86 CG 39.72 CD 40.46 OE1 25.26 NE2 40.59
A ALA - 49 -61.5 139.1 N 26.74 CA 26.08 C 27.0 O 26.25 CB 25.97
A ALA E 2 -98.8 134.8 N 21.16 CA 22.48 C 25.07 O 26.3 CB 23.89
A ALA E 44 -120.6 140.3 N 22.52 CA 23.86 C 26.65 O 26.65 CB 27.24
A PHE E 11 -150.2 151.7 N 24.39 CA 25.49 C 27.36 O 26.82 CB 26.55 CG 23.34 CD1 24.19 CD2 27.81 CE1 26.88 CE2 27.46 CZ 23.38
A ASN E 76 -99.9 135.7 N 27.42 CA 26.81 C 27.79 O 31.39 CB 26.65 CG 32.43 OD1 31.93 ND2 38.86
A VAL E 0 -110.9 131.0 N 26.22 CA 27.08 C 30.24 O 33.0 CB 27.14 CG1 27.68 CG2 29.01
A THR E 40 -106.2 128.2 N 30.91 CA 31.07 C 35.88 O 34.36 CB 38.91 OG1 42.85 CG2 37.92
A PHE E 0 -106.7 126.2 N 34.19 CA 31.29 C 34.12 O 38.22 CB 38.7 CG 34.54 CD1 40.01 CD2 33.41 CE1 44.86 CE2 38.43 CZ 41.37
A ARG - 127 -143.5 127.4 N 34.14 CA 36.08 C 43.8 O 46.31 CB 40.39 CG 57.04 CD 65.45 NE 76.12 CZ 80.79 NH1 77.96 NH2 86.89
A ARG - 65 -130.2 136.1 N 48.61 CA 57.97 C 60.07 O 58.31 CB 64.17 CG 68.7 CD 71.49 NE 75.37 CZ 75.0 NH1 72.23 NH2 75.81
A ALA S 77 -72.6 -15.8 N 65.9 CA 78.68 C 83.28 O 81.46 CB 75.29
A LYS S 134 -108.5 164.2 N 89.28 CA 94.24 C 97.45 O 97.87 CB 93.74 CG 95.07 CD 96.75 CE 97.56 NZ 98.68
A GLY - 35 -63.8 130.0 N 92.8 CA 88.18 C 85.94 O 83.33
A TYR E 9 -111.9 142.1 N 82.55 CA 78.06 C 83.28 O 87.3 CB 59.68
A SER E 93 -92.7 -65.8 N 84.03 CA 88.49 C 84.47 O 91.46 CB 94.69 OG 95.46
A ARG E 123 -136.0 128.3 N 62.45 CA 64.1 C 49.2 O 47.18 CB 67.23 CG 68.42 CD 68.45 NE 66.01 CZ 70.46 NH1 75.96 NH2 67.31
A VAL E 1 -115.6 120.7 N 44.8 CA 36.49 C 36.32 O 36.9 CB 44.09 CG1 42.35 CG2 50.07
A PHE E 38 -105.3 134.8 N 33.3 CA 30.96 C 32.36 O 29.52 CB 30.28 CG 38.51 CD1 48.68 CD2 48.9 CE1 55.51 CE2 50.52 CZ 53.79
A LEU E 0 -110.7 128.7 N 25.43 CA 24.67 C 25.31 O 29.88 CB 32.56 CG 33.8 CD1 31.21 CD2 36.05
A ASP E 52 -146.6 170.8 N 23.01 CA 23.41 C 22.64 O 24.12 CB 28.51 CG 33.63 OD1 33.75 OD2 42.83
A HIS E 46 -128.9 162.2 N 22.43 CA 25.7 C 23.57 O 23.4 CB 22.0 CG 20.93 ND1 25.55 CD2 23.73 CE1 28.52 NE2 27.29
A ASN - 73 -74.0 162.7 N 20.64 CA 19.25 C 24.96 O 24.83 CB 17.89 CG 14.31 OD1 21.95 ND2 18.05
A ALA - 97 -53.9 129.5 N 20.72 CA 22.08 C 27.59 O 23.27 CB 21.89
A LEU - 35 -111.0 157.2 N 20.24 CA 18.63 C 22.26 O 24.5 CB 23.61 CG 28.71 CD1 31.41 CD2 32.24
A PRO - 51 -66.8 165.9 N 19.06 CA 20.33 C 22.29 O 22.43 CB 24.27 CG 28.59 CD 23.64
A ASP T 142 -61.4 -22.0 N 22.7 CA 25.34 C 28.35 O 25.22 CB 34.15 CG 47.5 OD1 46.92 OD2 42.5
A THR T 27 -78.2 -8.7 N 23.01 CA 21.43 C 24.59 O 23.58 CB 23.88 OG1 29.78 CG2 29.45
A LEU E 10 -119.0 129.7 N 19.23 CA 18.46 C 28.63 O 27.43 CB 20.22 CG 25.79 CD1 19.74 CD2 24.59
A LYS E 113 -118.1 132.6 N 22.03 CA 26.02 C 30.81 O 30.41 CB 31.73 CG 52.06 CD 61.36 CE 69.35 NZ 73.28
A VAL E 16 -125.8 129.7 N 24.49 CA 23.45 C 29.91 O 28.14 CB 25.53 CG1 27.61 CG2 26.48
A THR E 43 -125.4 161.7 N 24.41 CA 25.64 C 26.91 O 28.41 CB 29.36 OG1 36.55 CG2 31.63
A TYR E 0 -126.2 134.4 N 25.27 CA 25.6 C 28.41 O 31.04 CB 24.34 CG 23.95 CD1 30.5 CD2 23.34 CE1 27.04 CE2 24.65 CZ 30.13 OH 27.18
A ASP E 0 -100.2 138.1 N 27.92 CA 31.75 C 29.99 O 33.73 CB 33.05 CG 43.67 OD1 40.83 OD2 41.62
A SER E 1 -113.6 115.5 N 30.91 CA 31.06 C 36.26 O 38.63 CB 31.71 OG 35.25
A PHE E 58 -98.2 86.2 N 35.02 CA 38.13 C 41.7 O 44.97 CB 37.68 CG 39.93 CD1 46.36 CD2 42.31 CE1 50.66 CE2 44.85 CZ 43.4
A CYS - 15 -85.8 173.0 N 40.28 CA 41.91 C 51.4 O 52.85 CB 44.07 SG 48.97
A SER S 42 -61.6 160.9 N 58.11 CA 65.58 C 69.51 O 68.77 CB 64.46 OG 66.64
A ASN T 159 60.4 34.9 N 80.99 CA 92.06 C 88.28 O 87.89 CB 102.61 CG 109.99 OD1 110.13 ND2 113.48
A GLY T 71 57.8 18.9 N 80.9 CA 75.4 C 70.05 O 62.33
A VAL - 62 -80.4 119.6 N 69.6 CA 68.25 C 59.78 O 52.08 CB 67.07 CG1 67.79 CG2 66.67
A THR E 63 -127.0 133.5 N 54.37 CA 53.75 C 49.39 O 46.48 CB 54.68 OG1 51.13 CG2 51.2
A HIS E 86 -116.1 146.6 N 43.71 CA 45.27 C 40.38 O 35.83 CB 51.92 CG 68.55 ND1 72.26 CD2 75.13 CE1 75.78 NE2 77.24
A ARG E 129 -123.4 138.8 N 36.91 CA 38.26 C 38.29 O 40.49 CB 46.93 CG 53.07 CD 55.12 NE 61.68 CZ 62.23 NH1 53.59 NH2 63.43
A ASN E 96 54.5 45.3 N 35.72 CA 37.87 C 38.38 O 38.79 CB 39.77 CG 44.43 OD1 40.21 ND2 51.1
A GLN E 90 -95.1 165.3 N 33.01 CA 35.72 C 32.31 O 32.8 CB 29.22 CG 36.42 CD 50.01 OE1 48.31 NE2 51.19
A PRO S 96 -71.4 -23.2 N 32.45 CA 29.57 C 34.96 O 28.37 CB 31.66 CG 38.31 CD 34.13
A ARG S 102 -148.7 161.7 N 29.99 CA 30.52 C 27.5 O 30.16 CB 39.3 CG 49.23 CD 58.34 NE 67.34 CZ 67.78 NH1 60.04 NH2 70.2
A GLY E 0 -74.4 145.6 N 28.18 CA 33.2 C 33.97 O 32.49
A ASP E 43 -156.6 108.4 N 35.31 CA 36.03 C 37.47 O 37.12 CB 41.53 CG 50.93 OD1 51.46 OD2 49.13
A CYS E 1 -128.8 144.1 N 43.97 CA 44.71 C 49.97 O 42.6 CB 44.46 SG 51.71
A ASP E 115 -114.4 136.0 N 67.81 CA 84.73 C 90.77 O 95.41 CB 94.54 CG 104.19 OD1 106.59 OD2 108.89
A GLY E 41 67.3 80.5 N 90.12 CA 88.19 C 83.1 O 86.95
A VAL E 5 -101.0 116.7 N 74.15 CA 71.95 C 79.11 O 84.09 CB 66.44 CG1 61.51 CG2 61.31
A GLN - 147 -67.5 -175.0 N 80.33 CA 81.76 C 78.42 O 83.63 CB 85.64 CG 93.37 CD 98.45 OE1 98.79 NE2 100.83
A ILE T 88 -86.1 130.6 N 69.89 CA 65.5 C 63.86 O 56.12 CB 69.99 CG1 70.1 CG2 70.35 CD1 75.74
A ASN T 86 54.9 20.9 N 66.92 CA 73.53 C 70.28 O 67.3 CB 83.46 CG 91.17 OD1 91.23 ND2 93.88
A VAL - 47 -99.0 122.9 N 67.54 CA 67.9 C 57.95 O 53.17 CB 72.83 CG1 77.22 CG2 76.24
A PRO - 54 -72.4 148.4 N 45.23 CA 43.68 C 42.86 O 39.71 CB 43.62 CG 46.55 CD 46.23
A ILE E 3 -119.9 150.8 N 41.53 CA 38.11 C 36.42 O 37.56 CB 46.64 CG1 49.06 CG2 48.91 CD1 52.52
A THR E 39 -119.1 137.1 N 40.38 CA 37.58 C 30.63 O 34.16 CB 47.7 OG1 52.65 CG2 44.74
A PHE E 0 -115.8 130.2 N 28.52 CA 30.8 C 31.67 O 32.87 CB 30.24 CG 35.01 CD1 29.73 CD2 34.42 CE1 35.48 CE2 35.39 CZ 34.56
A GLN E 41 -97.2 114.3 N 28.71 CA 28.55 C 25.62 O 27.98 CB 29.94 CG 26.76 CD 34.94 OE1 39.42 NE2 36.14
A VAL E 0 -93.3 129.0 N 22.43 CA 22.58 C 27.13 O 27.06 CB 26.5 CG1 21.88 CG2 28.03
A LYS E 65 -119.5 124.4 N 24.5 CA 21.36 C 24.37 O 23.44 CB 22.3 CG 26.96 CD 32.59 CE 40.66 NZ 43.18
A VAL E 0 -118.6 125.4 N 19.15 CA 19.8 C 25.7 O 25.39 CB 23.11 CG1 22.4 CG2 20.71
A THR E 37 -125.4 128.6 N 20.93 CA 19.32 C 25.73 O 24.27 CB 24.3 OG1 25.95 CG2 25.38
A ALA E 0 -92.0 141.2 N 22.35 CA 24.29 C 24.27 O 23.61 CB 21.25
A THR S 79 -89.7 -8.8 N 21.2 CA 23.49 C 26.69 O 30.14 CB 30.84 OG1 28.29 CG2 34.49
A GLU S 110 -156.8 -179.4 N 25.32 CA 24.86 C 24.8 O 25.18 CB 30.52 CG 29.59 CD 44.43 OE1 48.27 OE2 48.09
A CYS - 32 -73.4 109.0 N 20.24 CA 22.12 C 29.97 O 29.51 CB 27.05 SG 34.96
A ILE - 14 -91.2 160.5 N 23.16 CA 22.75 C 25.63 O 23.15 CB 27.66 CG1 36.18 CG2 37.92 CD1 43.63
A GLN - 171 -77.0 142.4 N 22.62 CA 22.68 C 17.47 O 22.89 CB 30.32 CG 35.63 CD 44.73 OE1 38.83 NE2 41.54
A GLU - 101 -56.2 141.4 N 22.18 CA 22.78 C 24.14 O 23.39 CB 28.66 CG 39.57 CD 50.46 OE1 41.81 OE2 53.03
A GLN E 54 -158.8 172.5 N 18.49 CA 19.94 C 24.36 O 25.48 CB 26.11 CG 33.16 CD 39.75 OE1 27.76 NE2 27.21
A SER E 67 -121.1 169.0 N 23.94 CA 19.72 C 23.02 O 21.2 CB 24.27 OG 26.67
A PHE E 3 -156.4 174.4 N 21.49 CA 21.07 C 21.13 O 22.41 CB 20.65 CG 23.26 CD1 21.26 CD2 21.09 CE1 24.05 CE2 21.63 CZ 21.94
A VAL E 41 -124.4 150.9 N 18.26 CA 16.12 C 18.27 O 21.31 CB 21.53 CG1 23.07 CG2 23.51
A ILE E 0 -115.7 134.0 N 18.63 CA 18.59 C 22.94 O 23.66 CB 20.72 CG1 19.41 CG2 22.79 CD1 23.14
A ARG E 92 -136.1 150.8 N 20.78 CA 25.83 C 25.99 O 26.63 CB 25.04 CG 24.13 CD 23.37 NE 25.58 CZ 30.41 NH1 27.03 NH2 28.61
A ALA E 0 -91.0 126.0 N 27.01 CA 29.95 C 33.76 O 29.24 CB 28.25
A LEU T 67 -62.4 133.8 N 29.4 CA 29.34 C 29.81 O 33.73 CB 35.3 CG 46.81 CD1 44.92 CD2 42.02
A GLY T 78 92.0 -3.4 N 30.89 CA 34.57 C 35.97 O 35.83
A PHE - 33 -125.5 153.5 N 29.54 CA 32.99 C 32.58 O 32.25 CB 36.31 CG 41.31 CD1 47.72 CD2 37.75 CE1 45.58 CE2 43.7 CZ 44.98
A THR - 132 -91.2 -8.0 N 26.94 CA 23.98 C 27.21 O 28.42 CB 33.24 OG1 34.03 CG2 34.81
A ASP - 26 -58.5 148.2 N 25.54 CA 24.63 C 27.66 O 27.01 CB 28.37 CG 48.42 OD1 51.21 OD2 55.76
A ILE - 85 -134.0 133.1 N 26.91 CA 28.88 C 27.6 O 28.05 CB 27.47 CG1 26.15 CG2 30.0 CD1 31.61
A VAL E 0 -102.1 118.2 N 22.91 CA 21.9 C 22.46 O 24.73 CB 28.29 CG1 24.76 CG2 27.51
A THR E 53 -90.0 124.8 N 21.97 CA 20.71 C 25.13 O 26.69 CB 22.18 OG1 28.67 CG2 26.59
A VAL E 0 -113.9 117.1 N 20.91 CA 19.49 C 25.96 O 27.27 CB 20.34 CG1 24.31 CG2 20.45
A GLN E 40 -98.4 129.8 N 19.03 CA 18.69 C 21.92 O 22.91 CB 23.92 CG 31.16 CD 50.71 OE1 45.72 NE2 40.91
A VAL E 0 -113.8 137.0 N 19.39 CA 15.31 C 22.01 O 22.67 CB 22.58 CG1 24.81 CG2 17.49
A LEU E 43 -135.7 147.8 N 19.42 CA 15.62 C 17.51 O 19.57 CB 22.0 CG 30.58 CD1 35.46 CD2 32.17
A PRO E 52 -69.9 154.8 N 20.41 CA 21.36 C 23.33 O 19.86 CB 23.22 CG 23.85 CD 22.94
A GLN - 51 -131.3 74.9 N 21.9 CA 22.59 C 27.37 O 24.39 CB 25.69 CG 37.81 CD 32.02 OE1 33.38 NE2 31.39
A CYS - 3 -126.7 4.4 N 20.68 CA 21.88 C 25.91 O 36.21 CB 28.23 SG 32.67
A GLU - 130 -101.0 140.1 N 22.31 CA 23.73 C 20.19 O 25.23 CB 35.35 CG 40.24 CD 43.56 OE1 38.94 OE2 38.58
A CYS - 26 -87.5 133.3 N 23.37 CA 24.36 C 26.54 O 32.66 CB 20.16 SG 25.36
A ARG - 225 -99.8 76.7 N 21.17 CA 22.86 C 22.59 O 24.39 CB 31.11 CG 38.19 CD 46.81 NE 60.98 CZ 55.66 NH1 63.9 NH2 40.13
A CYS - 31 -85.7 164.2 N 20.54 CA 19.12 C 26.81 O 23.26 CB 17.17 SG 24.14
A ARG - 164 -67.4 131.6 N 18.83 CA 20.94 C 22.37 O 25.66 CB 23.41 CG 30.39 CD 55.97 NE 63.99 CZ 60.26 NH1 50.42 NH2 59.17
A ASP - 99 -103.3 -175.8 N 24.66 CA 24.73 C 26.59 O 25.89 CB 27.21 CG 26.95 OD1 26.87 OD2 29.49
A GLN S 47 -99.8 14.2 N 21.95 CA 27.32 C 25.96 O 32.25 CB 37.1 CG 31.94 CD 22.29 OE1 22.82 NE2 26.9
A SER T 93 -59.8 -30.3 N 22.0 CA 30.37 C 33.54 O 37.94 CB 33.59 OG 35.89
A ARG T 241 -102.2 17.2 N 29.04 CA 37.36 C 42.18 O 37.31 CB 39.25 CG 43.33 CD 46.37 NE 37.81 CZ 44.48 NH1 35.79 NH2 43.63
A ASP - 66 -155.5 101.0 N 31.07 CA 40.89 C 33.68 O 31.67 CB 39.95 CG 49.92 OD1 38.45 OD2 53.21
A ARG T 236 -67.6 -8.8 N 31.4 CA 35.26 C 38.57 O 37.31 CB 38.14 CG 45.03 CD 53.71 NE 61.82 CZ 67.98 NH1 76.5 NH2 61.51
A SER T 76 -86.0 -16.5 N 31.6 CA 35.88 C 38.29 O 32.8 CB 41.56 OG 40.31
A LEU G 34 -62.0 137.3 N 31.78 CA 29.5 C 26.84 O 28.57 CB 27.86 CG 28.11 CD1 37.69 CD2 34.23
A CYS G 4 55.5 29.4 N 29.44 CA 27.36 C 27.09 O 29.99 CB 30.45 SG 35.03
A HIS G 117 59.4 18.6 N 30.4 CA 32.54 C 34.81 O 32.58 CB 40.24 CG 45.33 ND1 60.86 CD2 49.13 CE1 60.28 NE2 54.08
A GLY G 35 61.1 25.3 N 28.43 CA 30.29 C 32.28 O 32.5
A LYS S 77 -131.3 30.0 N 28.19 CA 26.93 C 27.42 O 26.67 CB 32.81 CG 31.53 CD 33.53 CE 41.84 NZ 40.4
A GLY E 4 -170.8 171.3 N 25.06 CA 24.44 C 27.58 O 24.68
A PHE E 128 -97.8 132.5 N 25.0 CA 20.79 C 22.87 O 23.65 CB 18.7 CG 23.32 CD1 23.73 CD2 28.14 CE1 23.27 CE2 27.44 CZ 28.42
A LEU E 16 -86.4 119.5 N 20.76 CA 19.55 C 20.81 O 20.32 CB 20.4 CG 22.05 CD1 20.79 CD2 26.85
A GLU E 97 -132.2 100.7 N 18.18 CA 17.33 C 18.5 O 20.84 CB 24.65 CG 26.31 CD 31.41 OE1 24.32 OE2 30.66
A CYS T 22 52.5 44.0 N 16.86 CA 15.49 C 18.02 O 18.98 CB 18.9 SG 23.25
A GLY T 6 95.8 -10.8 N 19.53 CA 17.4 C 22.93 O 22.5
A ILE E 13 -109.1 133.4 N 19.27 CA 21.77 C 25.97 O 22.92 CB 23.54 CG1 29.91 CG2 27.14 CD1 34.13
A CYS E 19 -85.3 121.6 N 24.35 CA 26.92 C 29.08 O 27.86 CB 31.78 SG 32.6
A ARG E 79 -99.3 101.5 N 27.05 CA 28.02 C 25.12 O 28.5 CB 33.29 CG 36.05 CD 50.3 NE 58.29 CZ 59.32 NH1 58.54 NH2 55.67
A CYS E 40 -76.5 146.3 N 25.91 CA 30.19 C 30.54 O 32.14 CB 36.31 SG 38.38
A ASP - 63 -62.2 149.5 N 32.0 CA 34.55 C 33.46 O 30.28 CB 34.6 CG 34.04 OD1 31.78 OD2 37.32
A THR T 147 -45.5 131.0 N 34.96 CA 39.53 C 44.04 O 44.93 CB 48.84 OG1 61.47 CG2 45.1
A GLY T 19 94.3 -10.6 N 39.37 CA 40.14 C 47.06 O 51.43
A TYR E 50 -113.6 144.8 N 42.78 CA 38.7 C 36.63 O 40.7 CB 41.15 CG 37.7 CD1 39.07 CD2 36.32 CE1 43.45 CE2 41.04 CZ 44.38 OH 49.44
A ILE E 92 -145.8 166.0 N 37.11 CA 43.22 C 40.33 O 41.29 CB 57.47 CG1 63.26 CG2 64.31 CD1 64.27
A GLY S 20 114.5 153.3 N 38.61 CA 41.92 C 41.59 O 34.81
A LYS T 95 -63.2 -23.4 N 39.63 CA 38.53 C 35.23 O 36.79 CB 48.36 CG 50.94 CD 64.21 CE 72.88 NZ 78.08
A ASN T 47 -118.3 20.6 N 30.39 CA 28.48 C 33.49 O 35.27 CB 33.86 CG 39.02 OD1 39.81 ND2 36.41
A CYS S 2 59.4 34.8 N 32.94 CA 26.19 C 32.28 O 37.86 CB 29.15 SG 31.25
A GLU - 79 -84.5 -26.9 N 34.35 CA 40.52 C 49.79 O 55.65 CB 39.92 CG 43.13 CD 49.58 OE1 41.4 OE2 46.38
A HIS E 108 -95.4 141.0 N 57.17 CA 63.26 C 72.29 O 72.84 CB 65.87 CG 71.25 ND1 70.41 CD2 72.63 CE1 71.48 NE2 73.46
A HIS E 128 -119.8 120.8 N 73.74 CA 73.23 C 76.66 O 75.59 CB 72.77 CG 76.0 ND1 78.47 CD2 75.0 CE1 75.66 NE2 73.68
A HIS - 166 -126.2 360.0 N 84.84 CA 95.37 C 99.29 O 103.2 CB 94.84 CG 94.26 ND1 95.1 CD2 96.43 CE1 95.35 NE2 96.35
