A PHE - 128 360.0 138.2 N 47.67 CA 49.51 C 45.63 O 47.69 CB 45.44 CG 42.76 CD1 39.56 CD2 38.32 CE1 35.31 CE2 36.35 CZ 33.98
A LYS - 179 -104.2 116.7 N 47.53 CA 47.16 C 40.21 O 41.04 CB 44.71 CG 49.9 CD 51.99 CE 54.07 NZ 50.46
A SER - 37 -88.5 152.0 N 38.99 CA 37.11 C 35.14 O 38.43 CB 37.05 OG 45.57
A MET - 69 -101.3 171.6 N 30.06 CA 30.33 C 24.5 O 25.35 CB 26.75 CG 31.08 SD 40.62 CE 30.8
A THR - 95 -66.1 161.3 N 23.2 CA 22.87 C 19.72 O 20.53 CB 24.17 OG1 23.55 CG2 24.19
A GLN H 72 -55.1 -42.3 N 18.82 CA 19.58 C 19.57 O 19.36 CB 19.73 CG 21.92 CD 24.42 OE1 23.85 NE2 24.29
A GLU H 124 -67.5 -43.1 N 19.04 CA 18.77 C 19.29 O 19.41 CB 27.78 CG 30.2 CD 45.26 OE1 45.87 OE2 42.63
A ALA H 30 -63.4 -41.9 N 16.63 CA 18.44 C 19.59 O 20.23 CB 20.25
A PHE H 13 -68.3 -36.7 N 15.84 CA 16.92 C 15.78 O 19.88 CB 17.09 CG 20.56 CD1 23.33 CD2 20.04 CE1 25.46 CE2 22.12 CZ 21.16
A GLN H 58 -56.7 -46.8 N 13.72 CA 15.07 C 19.02 O 13.44 CB 20.08 CG 17.21 CD 17.75 OE1 17.37 NE2 14.22
A GLU H 123 -69.6 -45.7 N 17.73 CA 17.68 C 14.74 O 17.93 CB 23.38 CG 23.38 CD 35.76 OE1 27.12 OE2 33.47
A SER H 28 -70.0 -44.8 N 13.46 CA 18.63 C 19.44 O 16.05 CB 18.4 OG 20.39
A SER H 12 -66.9 -38.3 N 14.76 CA 15.81 C 15.39 O 16.85 CB 16.66 OG 16.09
A VAL H 82 -65.8 -38.2 N 17.8 CA 16.0 C 15.81 O 15.02 CB 18.86 CG1 21.55 CG2 18.7
A LYS H 114 -69.2 -40.1 N 16.36 CA 17.88 C 17.43 O 19.21 CB 18.86 CG 28.9 CD 36.23 CE 35.84 NZ 41.39
A GLU H 66 -68.8 -37.2 N 18.45 CA 17.12 C 17.4 O 16.08 CB 17.88 CG 30.3 CD 38.53 OE1 46.85 OE2 38.46
A LEU H 15 -62.9 -42.8 N 13.73 CA 14.05 C 15.55 O 13.55 CB 12.4 CG 17.76 CD1 14.44 CD2 16.82
A GLY H 33 -64.0 -34.7 N 15.8 CA 15.84 C 16.91 O 14.45
A ARG H 115 -63.3 -49.6 N 14.09 CA 16.75 C 15.49 O 16.83 CB 18.92 CG 26.14 CD 34.6 NE 31.65 CZ 33.16 NH1 40.72 NH2 32.24
A LEU H 1 -58.2 -43.7 N 12.26 CA 14.28 C 14.79 O 14.7 CB 9.74 CG 13.87 CD1 13.96 CD2 12.23
A GLU H 69 -59.6 -41.9 N 12.48 CA 15.22 C 12.68 O 11.23 CB 14.32 CG 15.35 CD 14.86 OE1 20.31 OE2 19.08
A ALA H 63 -67.4 -36.7 N 12.99 CA 14.52 C 14.82 O 16.23 CB 18.49
A GLN H 63 -64.5 -40.8 N 14.79 CA 18.46 C 17.74 O 15.36 CB 16.07 CG 17.56 CD 23.86 OE1 28.45 NE2 29.57
A LEU H 0 -63.9 -39.1 N 15.28 CA 14.07 C 16.47 O 13.66 CB 13.67 CG 14.64 CD1 15.01 CD2 10.03
A ALA H 25 -64.8 -43.8 N 15.17 CA 15.07 C 18.2 O 15.9 CB 15.41
A SER H 59 -60.4 -42.0 N 13.66 CA 21.33 C 17.57 O 20.47 CB 21.66 OG 28.11
A LEU H 4 -64.7 -45.1 N 16.83 CA 15.17 C 15.62 O 14.17 CB 15.81 CG 21.17 CD1 23.53 CD2 24.1
A ARG H 104 -59.8 -36.4 N 13.9 CA 13.34 C 15.01 O 17.91 CB 17.04 CG 17.04 CD 19.8 NE 14.59 CZ 18.28 NH1 16.3 NH2 17.94
A GLN H 128 -72.9 -38.3 N 14.05 CA 16.77 C 18.53 O 16.04 CB 17.73 CG 18.76 CD 22.48 OE1 21.72 NE2 23.11
A GLU H 89 -56.7 -49.1 N 16.99 CA 16.4 C 16.44 O 20.28 CB 17.8 CG 20.17 CD 22.71 OE1 26.47 OE2 29.83
A LEU H 7 -57.6 -40.5 N 13.88 CA 15.81 C 17.15 O 19.27 CB 16.72 CG 17.12 CD1 19.74 CD2 16.7
A ALA H 61 -65.1 -44.1 N 16.95 CA 20.42 C 19.06 O 18.88 CB 15.68
A ALA H 50 -61.4 -39.7 N 18.48 CA 20.52 C 19.11 O 18.6 CB 16.88
A LEU H 7 -69.8 -36.1 N 19.61 CA 20.19 C 22.36 O 19.83 CB 18.37 CG 25.72 CD1 23.72 CD2 25.26
A THR H 38 -61.0 -40.5 N 20.07 CA 17.95 C 19.03 O 16.99 CB 22.79 OG1 20.31 CG2 17.53
A LEU H 122 -64.2 -46.1 N 18.22 CA 16.53 C 20.54 O 17.07 CB 19.16 CG 20.8 CD1 21.08 CD2 21.87
A LYS H 116 -60.2 -40.9 N 17.01 CA 21.54 C 18.45 O 19.35 CB 18.04 CG 20.86 CD 24.83 CE 29.27 NZ 31.17
A GLN H 12 -60.2 -47.0 N 16.27 CA 19.17 C 20.05 O 19.32 CB 22.16 CG 25.34 CD 25.98 OE1 22.7 NE2 26.47
A ASN H 83 -64.7 -39.0 N 17.3 CA 20.91 C 18.19 O 18.53 CB 18.28 CG 21.14 OD1 20.19 ND2 21.81
A SER H 63 -60.8 -47.3 N 17.66 CA 18.28 C 21.98 O 21.23 CB 20.75 OG 26.27
A VAL H 9 -61.2 -44.3 N 17.65 CA 19.87 C 21.66 O 20.74 CB 22.39 CG1 20.98 CG2 19.77
A ALA H 46 -59.0 -39.7 N 20.59 CA 22.96 C 24.42 O 26.59 CB 25.06
A ASP H 118 -59.9 -44.4 N 22.99 CA 25.9 C 27.37 O 23.65 CB 21.92 CG 24.76 OD1 22.68 OD2 22.1
A GLU H 83 -60.8 -45.3 N 23.43 CA 27.27 C 30.3 O 30.88 CB 24.46 CG 28.78 CD 36.95 OE1 36.33 OE2 43.95
A VAL H 5 -60.4 -44.7 N 25.16 CA 28.15 C 32.85 O 31.81 CB 26.54 CG1 31.54 CG2 26.52
A GLY H 54 -58.4 -25.7 N 30.52 CA 34.0 C 32.03 O 36.23
A LEU H 82 -90.5 -12.8 N 31.81 CA 33.53 C 37.34 O 39.93 CB 34.35 CG 32.31 CD1 37.78 CD2 37.56
A LEU H 10 -57.6 -45.3 N 33.72 CA 34.52 C 40.32 O 40.61 CB 31.96 CG 35.24 CD1 35.63 CD2 36.21
A PRO H 70 -59.0 -35.7 N 42.87 CA 42.86 C 46.93 O 50.22 CB 42.25 CG 43.84 CD 37.61
A GLN H 138 -65.4 -31.8 N 47.24 CA 46.08 C 49.74 O 47.13 CB 46.2 CG 50.74 CD 60.51 OE1 52.97 NE2 62.84
A LYS H 74 -75.6 -34.9 N 45.17 CA 43.82 C 46.36 O 45.43 CB 48.56 CG 49.43 CD 49.87 CE 53.03 NZ 52.51
A ILE H 15 -69.2 -38.3 N 46.15 CA 50.01 C 53.24 O 55.94 CB 46.43 CG1 43.17 CG2 49.35 CD1 46.77
A GLN H 83 -71.6 -32.6 N 53.28 CA 53.79 C 53.87 O 60.29 CB 56.74 CG 55.6 CD 58.91 OE1 61.79 NE2 58.82
A ALA H 62 -62.9 -50.2 N 51.54 CA 49.4 C 55.84 O 59.99 CB 50.52
A ALA H 10 -64.0 -44.6 N 58.34 CA 55.29 C 57.27 O 63.45 CB 47.66
A ARG H 89 -54.2 -46.3 N 55.91 CA 58.72 C 63.58 O 64.92 CB 60.07 CG 61.78 CD 66.44 NE 70.02 CZ 70.1 NH1 69.09 NH2 73.54
A ALA H 60 -74.7 -31.0 N 60.74 CA 61.51 C 62.3 O 62.81 CB 57.9
A ASP H 51 -64.3 -39.9 N 61.48 CA 64.21 C 69.08 O 71.16 CB 65.3 CG 69.27 OD1 70.08 OD2 69.56
A VAL H 5 -61.0 -49.5 N 67.01 CA 67.98 C 69.22 O 70.75 CB 66.37 CG1 69.11 CG2 56.15
A GLU T 71 -74.7 0.3 N 69.61 CA 69.56 C 70.68 O 74.22 CB 69.53 CG 68.62 CD 78.26 OE1 83.17 OE2 74.37
A SER T 82 -99.3 -22.7 N 71.25 CA 70.18 C 70.67 O 71.68 CB 68.99 OG 67.48
A GLN S 60 -90.3 -1.8 N 72.02 CA 70.37 C 67.0 O 67.78 CB 68.54 CG 70.02 CD 71.81 OE1 67.34 NE2 71.95
A PHE H 21 -64.7 -51.5 N 65.33 CA 68.41 C 68.96 O 67.76 CB 69.07 CG 69.44 CD1 72.94 CD2 71.37 CE1 73.01 CE2 75.4 CZ 73.02
A PRO H 32 -62.4 -33.4 N 70.78 CA 68.16 C 71.99 O 73.85 CB 68.4 CG 72.56 CD 73.4
A ASP H 79 -67.5 -26.2 N 71.61 CA 71.84 C 70.74 O 72.46 CB 73.21 CG 81.36 OD1 80.86 OD2 84.03
A TRP H 30 -73.7 -33.5 N 70.55 CA 72.14 C 69.74 O 70.74 CB 67.97 CG 65.45 CD1 67.76 CD2 65.09 NE1 67.58 CE2 66.25 CE3 65.64 CZ2 66.25 CZ3 61.2 CH2 63.04
A ILE H 38 -69.6 -39.3 N 69.81 CA 70.09 C 68.81 O 70.37 CB 69.22 CG1 67.33 CG2 70.39 CD1 66.02
A ARG H 154 -62.7 -46.7 N 69.54 CA 67.19 C 69.63 O 66.98 CB 67.36 CG 66.65 CD 71.86 NE 79.95 CZ 78.04 NH1 72.73 NH2 77.64
A GLN H 127 -59.2 -35.7 N 69.63 CA 67.81 C 66.87 O 67.13 CB 71.72 CG 74.66 CD 81.88 OE1 78.64 NE2 84.8
A PHE H 157 -62.5 -43.8 N 68.56 CA 66.83 C 68.11 O 67.6 CB 64.44 CG 64.98 CD1 65.83 CD2 68.09 CE1 66.29 CE2 68.49 CZ 66.12
A LEU - 167 -101.0 360.0 N 70.68 CA 69.65 C 69.33 O 69.53 CB 70.07 CG 72.29 CD1 74.42 CD2 70.87
B PHE - 241 360.0 133.5 N 42.85 CA 41.6 C 40.57 O 42.57 CB 40.46 CG 34.48 CD1 35.27 CD2 35.26 CE1 37.58 CE2 35.04 CZ 32.39
B LYS - 178 -107.1 123.6 N 37.41 CA 41.39 C 33.58 O 36.14 CB 46.95 CG 50.55 CD 58.6 CE 52.15 NZ 58.19
B SER - 104 -73.7 146.5 N 32.53 CA 30.73 C 29.71 O 27.24 CB 30.79 OG 31.67
B MET - 135 -120.6 -12.0 N 27.3 CA 28.79 C 25.29 O 19.63 CB 30.2 CG 39.74 SD 52.64 CE 46.27
B THR H 101 -56.5 -50.4 N 21.3 CA 20.45 C 22.89 O 19.01 CB 22.72 OG1 20.6 CG2 19.5
B GLN H 75 -59.0 -46.6 N 22.91 CA 20.05 C 24.94 O 19.89 CB 19.79 CG 24.45 CD 29.14 OE1 26.03 NE2 28.14
B GLU H 148 -66.5 -39.3 N 18.46 CA 22.54 C 23.11 O 17.41 CB 24.3 CG 28.7 CD 34.8 OE1 36.62 OE2 42.21
B ALA H 56 -66.8 -34.7 N 18.6 CA 20.6 C 19.23 O 16.42 CB 19.86
B PHE H 39 -72.6 -37.2 N 20.0 CA 16.67 C 19.33 O 13.45 CB 15.19 CG 16.56 CD1 17.68 CD2 15.9 CE1 18.77 CE2 17.15 CZ 20.27
B GLN H 43 -54.7 -49.9 N 16.82 CA 19.09 C 17.56 O 19.36 CB 20.14 CG 19.08 CD 24.88 OE1 23.38 NE2 19.99
B GLU H 112 -61.5 -45.2 N 18.22 CA 19.06 C 19.98 O 17.24 CB 22.93 CG 28.43 CD 31.79 OE1 26.07 OE2 29.02
B SER H 63 -72.6 -30.1 N 15.68 CA 17.21 C 16.6 O 16.28 CB 18.56 OG 19.37
B SER H 7 -61.5 -52.4 N 16.24 CA 18.68 C 15.84 O 17.51 CB 17.22 OG 21.2
B VAL H 68 -68.4 -28.7 N 15.88 CA 18.06 C 20.0 O 21.57 CB 18.43 CG1 20.64 CG2 22.29
B LYS H 145 -69.4 -39.6 N 16.1 CA 19.16 C 17.24 O 16.5 CB 20.17 CG 27.36 CD 32.67 CE 38.38 NZ 37.4
B GLU H 49 -73.6 -37.2 N 17.24 CA 14.14 C 15.13 O 15.21 CB 15.88 CG 15.0 CD 18.9 OE1 20.05 OE2 21.47
B LEU H 13 -56.8 -44.7 N 12.14 CA 14.5 C 16.81 O 16.2 CB 14.62 CG 14.89 CD1 15.08 CD2 10.48
B GLY H 30 -65.4 -36.4 N 15.69 CA 14.67 C 14.9 O 15.38
B ARG H 106 -65.4 -42.5 N 14.79 CA 16.17 C 16.22 O 15.49 CB 17.84 CG 18.93 CD 19.94 NE 20.29 CZ 17.76 NH1 17.02 NH2 16.06
B LEU H 0 -72.6 -35.9 N 15.36 CA 14.64 C 14.21 O 12.48 CB 14.57 CG 15.25 CD1 13.72 CD2 15.84
B GLU H 68 -60.4 -34.3 N 12.87 CA 14.29 C 13.66 O 12.47 CB 14.29 CG 15.04 CD 19.01 OE1 18.27 OE2 20.43
B ALA H 59 -72.3 -36.2 N 13.99 CA 13.0 C 13.53 O 16.03 CB 15.22
B GLN H 34 -62.5 -40.8 N 13.61 CA 12.07 C 14.38 O 15.18 CB 13.58 CG 13.96 CD 17.75 OE1 17.96 NE2 16.29
B LEU H 0 -61.4 -42.7 N 10.92 CA 13.67 C 13.69 O 11.71 CB 10.88 CG 13.42 CD1 16.17 CD2 12.0
B ALA H 26 -60.5 -45.9 N 14.64 CA 14.78 C 13.46 O 12.56 CB 16.16
B SER H 72 -63.2 -38.5 N 13.92 CA 14.83 C 15.73 O 13.59 CB 20.33 OG 21.1
B LEU H 5 -68.3 -45.0 N 14.39 CA 14.2 C 13.09 O 14.57 CB 14.09 CG 14.57 CD1 14.92 CD2 16.67
B ARG H 100 -59.3 -42.8 N 12.75 CA 13.25 C 14.37 O 11.1 CB 12.4 CG 17.9 CD 15.96 NE 15.84 CZ 15.88 NH1 14.55 NH2 17.09
B GLN H 132 -64.3 -38.8 N 12.93 CA 13.5 C 16.63 O 15.42 CB 13.33 CG 14.01 CD 18.05 OE1 18.04 NE2 14.49
B GLU H 76 -71.5 -33.6 N 14.95 CA 20.91 C 17.08 O 18.29 CB 19.83 CG 26.15 CD 31.04 OE1 32.55 OE2 28.39
B LEU H 5 -66.7 -39.0 N 17.22 CA 14.58 C 16.65 O 20.13 CB 16.16 CG 17.8 CD1 14.33 CD2 18.45
B ALA H 60 -61.6 -37.4 N 14.11 CA 15.55 C 19.25 O 17.86 CB 14.71
B ALA H 31 -70.1 -41.4 N 17.97 CA 18.89 C 19.35 O 18.82 CB 18.54
B LEU H 0 -61.2 -43.3 N 19.04 CA 22.39 C 18.73 O 19.7 CB 22.86 CG 24.16 CD1 21.36 CD2 24.38
B THR H 38 -59.6 -43.0 N 18.4 CA 18.77 C 20.13 O 16.63 CB 17.49 OG1 18.32 CG2 20.21
B LEU H 122 -66.9 -43.2 N 18.49 CA 17.55 C 20.08 O 19.78 CB 16.81 CG 18.92 CD1 19.42 CD2 17.71
B LYS H 89 -66.6 -30.4 N 19.67 CA 22.95 C 20.72 O 18.44 CB 24.09 CG 28.95 CD 33.22 CE 34.7 NZ 35.16
B GLN H 4 -73.2 -38.6 N 18.98 CA 19.92 C 22.57 O 19.6 CB 19.08 CG 20.1 CD 22.4 OE1 24.4 NE2 24.06
B ASN H 78 -64.0 -41.3 N 19.33 CA 17.11 C 18.94 O 18.09 CB 19.03 CG 23.08 OD1 22.19 ND2 20.86
B SER H 73 -60.5 -48.5 N 17.98 CA 19.56 C 23.13 O 19.16 CB 23.86 OG 27.69
B VAL H 14 -70.5 -33.6 N 20.77 CA 22.49 C 21.73 O 20.61 CB 24.17 CG1 24.03 CG2 24.63
B ALA H 36 -62.8 -40.1 N 21.03 CA 22.87 C 21.39 O 22.72 CB 20.73
B ASP H 122 -63.1 -37.9 N 18.37 CA 22.08 C 23.75 O 25.54 CB 23.6 CG 27.16 OD1 25.46 OD2 20.65
B GLU H 102 -70.2 -41.9 N 20.42 CA 23.84 C 26.27 O 27.25 CB 26.02 CG 35.87 CD 40.57 OE1 37.94 OE2 46.73
B VAL H 4 -64.1 -31.6 N 23.32 CA 23.82 C 26.14 O 24.42 CB 21.36 CG1 24.22 CG2 24.57
B GLY T 53 -61.3 -20.9 N 24.74 CA 29.14 C 33.54 O 32.35
B LEU T 100 -98.1 -0.7 N 29.96 CA 32.84 C 35.93 O 37.42 CB 29.97 CG 29.19 CD1 31.85 CD2 34.64
B LEU H 17 -75.6 -37.4 N 31.59 CA 33.47 C 36.58 O 39.7 CB 30.67 CG 28.14 CD1 29.3 CD2 28.53
B PRO H 54 -60.2 -41.2 N 36.18 CA 41.24 C 43.52 O 44.51 CB 38.22 CG 37.74 CD 33.69
B GLN H 118 -61.1 -36.7 N 43.54 CA 46.22 C 47.82 O 49.1 CB 47.44 CG 53.39 CD 63.74 OE1 64.77 NE2 68.94
B LYS H 99 -63.2 -38.9 N 43.91 CA 42.91 C 46.61 O 47.24 CB 44.67 CG 50.47 CD 44.46 CE 50.94 NZ 50.42
B ILE H 26 -73.6 -41.2 N 44.97 CA 46.68 C 48.78 O 47.24 CB 46.3 CG1 39.89 CG2 45.69 CD1 36.16
B GLN H 131 -63.5 -36.6 N 50.52 CA 52.15 C 51.84 O 55.79 CB 49.69 CG 55.94 CD 60.35 OE1 61.08 NE2 59.14
B ALA H 57 -68.9 -24.8 N 49.08 CA 51.45 C 54.29 O 56.64 CB 49.14
B ALA H 14 -88.6 -29.2 N 49.94 CA 53.45 C 52.29 O 52.65 CB 48.23
B ARG H 42 -67.6 -43.5 N 53.54 CA 55.21 C 57.33 O 56.6 CB 52.61 CG 53.12 CD 52.61 NE 50.75 CZ 51.54 NH1 56.23 NH2 50.29
B ALA H 59 -83.2 -21.6 N 56.27 CA 59.6 C 61.52 O 66.21 CB 59.55
B ASP H 52 -77.1 -36.1 N 60.93 CA 63.68 C 67.28 O 67.05 CB 65.36 CG 67.44 OD1 69.76 OD2 66.9
B VAL H 6 -61.8 -46.6 N 65.66 CA 63.53 C 65.77 O 68.28 CB 62.68 CG1 63.95 CG2 66.85
B GLU H 76 -51.7 -25.8 N 62.5 CA 62.64 C 64.96 O 67.69 CB 60.66 CG 63.12 CD 63.81 OE1 63.41 OE2 63.45
B SER T 73 -95.0 -8.1 N 64.37 CA 64.83 C 62.77 O 62.56 CB 64.91 OG 67.13
B GLN S 99 -107.1 32.3 N 62.29 CA 65.71 C 68.97 O 69.69 CB 64.82 CG 65.97 CD 71.43 OE1 73.03 NE2 75.32
B PHE S 30 -91.6 -46.3 N 68.38 CA 67.01 C 62.68 O 66.31 CB 65.21 CG 69.25 CD1 68.64 CD2 70.81 CE1 67.68 CE2 70.75 CZ 68.47
B PRO H 56 -50.9 -54.9 N 65.07 CA 64.68 C 65.76 O 64.42 CB 65.5 CG 62.85 CD 63.35
B ASP H 104 -58.9 -39.2 N 66.87 CA 65.71 C 66.78 O 66.11 CB 69.47 CG 71.35 OD1 72.36 OD2 67.07
B TRP H 45 -66.0 -51.0 N 67.04 CA 67.32 C 66.39 O 68.02 CB 67.86 CG 71.25 CD1 76.37 CD2 73.78 NE1 78.9 CE2 75.86 CE3 70.61 CZ2 73.09 CZ3 70.35 CH2 72.37
B ILE H 73 -67.4 -32.9 N 65.41 CA 65.57 C 63.13 O 61.45 CB 61.39 CG1 61.59 CG2 60.7 CD1 61.45
B ARG H 154 -63.0 -41.1 N 64.73 CA 63.57 C 64.49 O 67.81 CB 65.78 CG 65.12 CD 67.43 NE 64.27 CZ 62.11 NH1 62.71 NH2 65.3
B GLN H 124 -67.3 -42.6 N 65.36 CA 66.29 C 65.47 O 67.95 CB 66.95 CG 70.83 CD 74.49 OE1 72.62 NE2 74.48
B PHE H 69 -61.3 -43.7 N 63.91 CA 63.37 C 64.15 O 63.64 CB 64.52 CG 64.91 CD1 64.89 CD2 65.27 CE1 66.56 CE2 66.85 CZ 65.74
B LEU T 130 -81.7 -1.2 N 64.29 CA 64.84 C 67.84 O 65.88 CB 63.42 CG 63.23 CD1 57.93 CD2 61.37
B LEU - 184 -95.8 360.0 N 67.17 CA 69.34 C 70.0 O 71.37 CB 68.12 CG 68.57 CD1 66.72 CD2 66.95
C PHE - 233 360.0 128.5 N 44.18 CA 39.82 C 38.02 O 36.76 CB 40.25 CG 37.91 CD1 37.23 CD2 38.51 CE1 36.99 CE2 32.39 CZ 32.03
C LYS - 169 -97.0 120.3 N 38.8 CA 38.78 C 34.35 O 36.49 CB 42.12 CG 49.58 CD 58.3 CE 57.25 NZ 56.43
C SER - 92 -72.2 148.3 N 34.85 CA 29.89 C 33.79 O 29.88 CB 31.5 OG 43.19
C MET - 99 -128.2 -5.5 N 27.93 CA 26.88 C 23.14 O 19.71 CB 25.7 CG 38.37 SD 59.78 CE 42.87
C THR H 101 -57.5 -47.7 N 22.89 CA 20.92 C 20.8 O 19.58 CB 22.81 OG1 19.63 CG2 18.7
C GLN H 63 -59.6 -48.4 N 22.4 CA 21.32 C 22.88 O 22.58 CB 26.17 CG 26.58 CD 29.04 OE1 31.08 NE2 24.14
C GLU H 74 -70.7 -32.3 N 22.75 CA 24.61 C 21.82 O 20.49 CB 28.66 CG 34.6 CD 45.47 OE1 47.78 OE2 46.36
C ALA H 56 -71.0 -37.8 N 18.7 CA 16.15 C 15.68 O 16.15 CB 16.43
C PHE H 32 -66.9 -40.4 N 15.39 CA 16.93 C 17.71 O 17.63 CB 17.9 CG 19.71 CD1 19.52 CD2 21.53 CE1 21.88 CE2 21.73 CZ 22.37
C GLN H 5 -63.6 -48.0 N 18.49 CA 18.3 C 16.88 O 20.2 CB 17.74 CG 18.89 CD 24.05 OE1 21.61 NE2 18.93
C GLU H 100 -63.3 -43.0 N 15.77 CA 17.91 C 20.23 O 16.3 CB 20.65 CG 28.7 CD 35.36 OE1 34.8 OE2 40.46
C SER H 63 -68.5 -40.4 N 15.96 CA 19.05 C 17.04 O 18.7 CB 16.36 OG 15.9
C SER H 12 -64.5 -45.3 N 18.39 CA 17.5 C 20.01 O 16.89 CB 20.25 OG 21.96
C VAL H 64 -58.8 -47.0 N 18.07 CA 18.57 C 19.28 O 17.24 CB 18.62 CG1 24.5 CG2 18.75
C LYS H 163 -63.6 -40.5 N 17.8 CA 19.23 C 17.0 O 17.91 CB 20.16 CG 24.04 CD 28.14 CE 29.23 NZ 35.06
C GLU H 50 -67.1 -40.1 N 17.17 CA 16.64 C 18.01 O 18.26 CB 15.87 CG 19.46 CD 18.19 OE1 22.1 OE2 22.51
C LEU H 8 -62.9 -37.9 N 17.7 CA 17.75 C 18.73 O 20.19 CB 20.77 CG 22.33 CD1 20.69 CD2 22.76
C GLY H 30 -59.1 -39.8 N 17.28 CA 17.74 C 16.46 O 17.61
C ARG H 103 -64.8 -39.0 N 16.77 CA 15.94 C 16.27 O 16.53 CB 20.31 CG 18.25 CD 19.7 NE 20.37 CZ 17.68 NH1 19.7 NH2 18.26
C LEU H 0 -70.9 -39.6 N 15.24 CA 12.88 C 14.6 O 13.89 CB 11.91 CG 14.0 CD1 11.04 CD2 15.82
C GLU H 77 -62.5 -34.8 N 12.48 CA 16.81 C 15.14 O 15.77 CB 18.15 CG 20.97 CD 24.49 OE1 25.37 OE2 27.5
C ALA H 63 -71.1 -33.8 N 15.35 CA 15.82 C 17.19 O 14.11 CB 20.54
C GLN H 35 -61.2 -41.8 N 14.34 CA 16.4 C 16.54 O 15.96 CB 17.7 CG 16.59 CD 15.42 OE1 15.08 NE2 14.12
C LEU H 4 -63.3 -44.8 N 13.82 CA 15.62 C 16.84 O 13.56 CB 16.37 CG 20.15 CD1 19.2 CD2 23.86
C ALA H 53 -60.5 -36.4 N 17.09 CA 16.76 C 16.58 O 16.73 CB 20.0
C SER H 73 -67.9 -37.2 N 13.86 CA 17.34 C 14.67 O 16.29 CB 19.29 OG 24.77
C LEU H 4 -68.2 -42.7 N 15.58 CA 13.92 C 14.99 O 12.48 CB 12.86 CG 13.08 CD1 14.41 CD2 16.36
C ARG H 109 -61.5 -43.5 N 14.35 CA 14.54 C 13.6 O 15.07 CB 15.07 CG 16.37 CD 23.91 NE 30.21 CZ 28.03 NH1 22.56 NH2 27.45
C GLN H 151 -60.4 -44.7 N 12.82 CA 17.4 C 15.77 O 14.11 CB 15.99 CG 20.29 CD 19.85 OE1 22.22 NE2 19.93
C GLU H 102 -68.7 -41.7 N 15.48 CA 11.59 C 14.72 O 16.31 CB 17.57 CG 21.88 CD 28.11 OE1 22.44 OE2 25.03
C LEU H 4 -64.1 -35.5 N 13.84 CA 14.96 C 14.79 O 14.34 CB 14.42 CG 17.79 CD1 18.25 CD2 18.6
C ALA H 52 -60.5 -46.1 N 14.58 CA 13.72 C 14.14 O 13.3 CB 14.15
C ALA H 58 -62.9 -39.0 N 13.78 CA 17.34 C 17.02 O 16.18 CB 18.2
C LEU H 11 -70.6 -39.4 N 15.65 CA 16.76 C 16.1 O 16.98 CB 14.55 CG 19.73 CD1 16.8 CD2 20.18
C THR H 41 -56.0 -47.6 N 13.49 CA 16.67 C 17.09 O 17.8 CB 18.35 OG1 20.13 CG2 19.36
C LEU H 124 -58.9 -46.2 N 17.33 CA 15.92 C 18.09 O 18.0 CB 14.15 CG 17.05 CD1 18.03 CD2 18.23
C LYS H 130 -60.5 -43.8 N 17.29 CA 22.32 C 19.54 O 19.48 CB 25.32 CG 28.26 CD 32.59 CE 43.66 NZ 41.62
C GLN H 2 -67.2 -41.2 N 15.1 CA 17.97 C 17.84 O 18.92 CB 18.84 CG 19.25 CD 21.23 OE1 22.01 NE2 24.07
C ASN H 64 -60.3 -38.5 N 15.71 CA 19.26 C 20.9 O 19.66 CB 20.97 CG 22.57 OD1 28.2 ND2 22.61
C SER H 73 -67.3 -38.1 N 16.98 CA 22.02 C 21.72 O 20.81 CB 19.3 OG 25.87
C VAL H 17 -71.5 -40.4 N 16.93 CA 15.36 C 19.06 O 18.24 CB 26.46 CG1 22.17 CG2 24.55
C ALA H 28 -60.4 -41.9 N 17.0 CA 20.05 C 20.7 O 19.22 CB 15.24
C ASP H 113 -61.3 -44.9 N 18.93 CA 22.22 C 22.39 O 24.91 CB 24.74 CG 28.86 OD1 30.31 OD2 35.93
C GLU H 73 -65.8 -46.1 N 22.63 CA 25.35 C 26.8 O 23.07 CB 24.95 CG 30.81 CD 34.75 OE1 32.49 OE2 30.54
C VAL H 1 -62.5 -37.5 N 22.82 CA 22.55 C 21.68 O 25.23 CB 22.04 CG1 24.09 CG2 21.6
C GLY H 44 -64.0 -22.4 N 20.84 CA 25.42 C 29.25 O 26.57
C LEU H 94 -97.4 -8.3 N 27.88 CA 30.27 C 30.69 O 32.51 CB 27.33 CG 30.6 CD1 32.55 CD2 34.46
C LEU H 3 -60.1 -41.9 N 29.26 CA 28.23 C 31.5 O 30.03 CB 31.21 CG 32.86 CD1 28.41 CD2 35.92
C PRO H 48 -54.4 -41.8 N 34.12 CA 31.63 C 33.32 O 37.27 CB 30.66 CG 30.33 CD 29.31
C GLN H 137 -60.7 -39.0 N 33.69 CA 36.07 C 36.36 O 34.57 CB 36.56 CG 43.11 CD 47.4 OE1 45.43 NE2 46.81
C LYS H 115 -66.0 -37.4 N 33.25 CA 33.55 C 35.17 O 36.74 CB 34.26 CG 35.47 CD 38.87 CE 36.26 NZ 44.51
C ILE H 6 -60.9 -45.9 N 31.35 CA 34.61 C 38.3 O 37.39 CB 34.65 CG1 35.09 CG2 38.35 CD1 40.36
C GLN H 80 -63.2 -35.9 N 33.63 CA 37.97 C 40.8 O 39.8 CB 40.55 CG 44.85 CD 51.94 OE1 49.43 NE2 54.05
C ALA H 58 -62.9 -39.3 N 34.47 CA 34.49 C 37.7 O 38.65 CB 39.33
C ALA H 22 -65.9 -38.4 N 33.65 CA 38.5 C 40.16 O 43.03 CB 38.03
C ARG H 86 -79.5 -25.4 N 39.12 CA 44.21 C 43.61 O 41.44 CB 47.38 CG 45.24 CD 55.83 NE 59.34 CZ 63.94 NH1 60.35 NH2 63.41
C ALA H 48 -73.8 -36.2 N 38.99 CA 41.17 C 45.71 O 40.43 CB 42.66
C ASP H 68 -64.8 -44.2 N 42.46 CA 40.57 C 44.22 O 43.61 CB 43.51 CG 46.42 OD1 38.95 OD2 50.41
C VAL H 4 -51.1 -55.2 N 43.18 CA 48.0 C 47.83 O 48.75 CB 49.24 CG1 53.18 CG2 42.89
C GLU H 91 -59.7 -34.2 N 47.04 CA 51.39 C 49.42 O 53.52 CB 54.65 CG 58.63 CD 61.26 OE1 62.46 OE2 63.1
C SER H 100 -77.4 -40.6 N 47.4 CA 45.04 C 46.68 O 49.78 CB 44.11 OG 47.98
C GLN H 103 -74.7 -2.5 N 48.41 CA 53.61 C 57.51 O 61.03 CB 53.58 CG 56.14 CD 55.35 OE1 54.28 NE2 52.79
C PHE - 107 -122.3 360.0 N 58.03 CA 57.27 C 60.27 O 61.78 CB 62.04 CG 64.52 CD1 64.34 CD2 64.69 CE1 63.3 CE2 60.02 CZ 59.55
