A ALA - 151 360.0 111.0 N 77.91 CA 83.14 C 78.95 O 77.1 CB 86.56
A MET E 46 -143.1 140.7 N 72.17 CA 63.32 C 57.38 O 52.2 CB 62.09 CG 65.52 SD 71.61 CE 69.9
A ASN E 25 -147.0 152.1 N 53.48 CA 54.64 C 52.7 O 51.06 CB 56.93 CG 60.49 OD1 60.05 ND2 66.37
A ALA E 0 -140.0 153.6 N 50.32 CA 47.77 C 46.68 O 49.14 CB 46.77
A ILE E 1 -113.0 135.3 N 45.34 CA 46.03 C 43.79 O 41.68 CB 48.36 CG1 52.36 CG2 48.25 CD1 54.39
A ILE E 2 -109.2 127.9 N 41.73 CA 39.18 C 37.66 O 35.2 CB 39.27 CG1 38.93 CG2 38.96 CD1 39.48
A ILE E 1 -125.5 97.3 N 37.15 CA 38.33 C 40.65 O 41.0 CB 37.85 CG1 38.96 CG2 38.52 CD1 39.29
A ASP - 2 -155.3 146.0 N 43.36 CA 46.33 C 46.95 O 47.2 CB 50.94 CG 54.87 OD1 57.57 OD2 57.0
A ASP - 72 -108.5 -0.1 N 46.32 CA 46.86 C 42.72 O 43.43 CB 50.89 CG 55.07 OD1 58.81 OD2 61.17
A HIS - 33 -82.5 115.5 N 39.37 CA 38.45 C 39.19 O 39.6 CB 38.06 CG 39.95 ND1 41.63 CD2 38.7 CE1 40.24 NE2 39.17
A PRO H 54 -55.8 -40.7 N 40.21 CA 41.48 C 39.93 O 40.71 CB 40.58 CG 39.46 CD 38.47
A LEU H 7 -71.4 -46.0 N 39.2 CA 41.28 C 42.12 O 46.81 CB 40.7 CG 40.81 CD1 41.99 CD2 43.32
A ALA H 8 -56.3 -39.1 N 39.72 CA 38.82 C 40.24 O 42.82 CB 37.66
A ILE H 22 -61.6 -52.3 N 40.33 CA 41.92 C 40.06 O 38.86 CB 46.53 CG1 49.89 CG2 47.43 CD1 50.7
A ALA H 15 -57.3 -52.0 N 39.55 CA 41.55 C 39.63 O 41.0 CB 42.59
A ALA H 0 -55.2 -46.7 N 37.12 CA 37.57 C 36.06 O 35.85 CB 37.35
A ILE H 0 -64.0 -51.7 N 35.02 CA 36.63 C 37.19 O 37.18 CB 36.2 CG1 33.93 CG2 34.42 CD1 32.75
A ARG H 94 -45.6 -53.0 N 38.97 CA 42.14 C 43.44 O 46.04 CB 43.26 CG 45.75 CD 46.0 NE 44.46 CZ 43.41 NH1 42.2 NH2 44.13
A ASN H 62 -57.2 -51.9 N 42.37 CA 44.72 C 43.68 O 46.25 CB 48.73 CG 52.0 OD1 54.11 ND2 53.43
A LEU H 4 -55.1 -48.6 N 41.67 CA 41.0 C 40.91 O 39.55 CB 39.35 CG 37.72 CD1 37.12 CD2 36.96
A LEU H 0 -60.4 -46.2 N 40.6 CA 42.82 C 46.59 O 45.94 CB 43.52 CG 43.76 CD1 44.74 CD2 42.18
A ILE H 99 -57.6 -50.0 N 49.09 CA 52.75 C 51.25 O 49.82 CB 57.36 CG1 57.08 CG2 58.1 CD1 58.15
A LYS H 144 -63.1 -18.2 N 51.39 CA 52.16 C 51.71 O 52.3 CB 54.92 CG 59.03 CD 64.06 CE 66.97 NZ 67.23
A ASN T 63 -103.2 26.7 N 49.47 CA 48.85 C 50.2 O 46.46 CB 46.97 CG 45.03 OD1 44.78 ND2 44.33
A ASP T 146 61.0 40.6 N 54.28 CA 57.58 C 54.1 O 53.96 CB 62.29 CG 73.75 OD1 77.73 OD2 86.03
A ILE E 12 -112.7 126.2 N 53.08 CA 51.08 C 51.76 O 51.69 CB 47.89 CG1 46.67 CG2 45.91 CD1 46.25
A GLU E 136 -82.7 147.5 N 54.31 CA 58.52 C 54.41 O 51.33 CB 62.2 CG 68.58 CD 73.36 OE1 68.24 OE2 74.69
A ILE E 40 -110.4 107.1 N 52.04 CA 51.73 C 51.26 O 50.44 CB 53.23 CG1 54.57 CG2 51.37 CD1 57.22
A LEU E 56 -63.9 -34.3 N 50.7 CA 52.52 C 54.98 O 61.47 CB 53.05 CG 55.14 CD1 55.29 CD2 55.09
A ALA E 12 -169.1 159.7 N 55.28 CA 55.07 C 53.75 O 56.48 CB 56.26
A GLU E 71 -125.7 131.7 N 50.48 CA 45.63 C 45.45 O 45.84 CB 44.18 CG 44.17 CD 45.31 OE1 46.77 OE2 45.26
A LEU E 8 -121.9 159.0 N 47.0 CA 49.83 C 48.85 O 49.35 CB 51.27 CG 53.4 CD1 54.84 CD2 54.22
A THR S 79 -129.7 8.0 N 49.67 CA 50.22 C 50.89 O 48.74 CB 48.07 OG1 48.33 CG2 47.41
A GLU - 66 -148.0 165.8 N 53.88 CA 57.14 C 53.61 O 52.75 CB 63.12 CG 67.44 CD 74.61 OE1 76.79 OE2 77.13
A GLY S 1 -102.4 -8.9 N 53.01 CA 53.21 C 55.11 O 53.73
A GLY T 55 -58.2 -42.0 N 56.67 CA 58.75 C 61.53 O 64.19
A SER T 35 -94.5 6.0 N 61.89 CA 62.14 C 61.21 O 61.42 CB 63.2 OG 64.35
A ALA H 0 -74.6 -47.6 N 59.25 CA 55.13 C 53.95 O 53.23 CB 56.39
A VAL H 27 -54.2 -52.0 N 55.24 CA 57.19 C 59.6 O 58.02 CB 58.29 CG1 58.5 CG2 57.48
A GLN H 114 -61.3 -44.8 N 65.38 CA 70.25 C 66.34 O 67.6 CB 76.62 CG 82.93 CD 88.47 OE1 92.1 NE2 92.95
A ARG H 99 -72.2 -35.8 N 62.96 CA 63.59 C 61.11 O 60.11 CB 64.35 CG 71.7 CD 76.07 NE 76.62 CZ 77.7 NH1 75.71 NH2 76.62
A VAL H 0 -57.1 -49.9 N 58.15 CA 57.33 C 58.22 O 55.83 CB 54.7 CG1 53.86 CG2 53.65
A GLU H 52 -67.0 -36.5 N 63.04 CA 64.6 C 61.45 O 62.64 CB 66.56 CG 69.42 CD 72.95 OE1 71.58 OE2 72.04
A THR H 82 -62.3 -48.4 N 61.1 CA 64.16 C 64.09 O 66.0 CB 66.05 OG1 66.15 CG2 65.85
A LEU H 60 -95.2 -19.3 N 62.99 CA 62.9 C 63.9 O 63.1 CB 62.62 CG 65.11 CD1 63.55 CD2 65.82
A LYS - 153 51.6 58.6 N 65.81 CA 66.66 C 62.88 O 60.42 CB 75.67 CG 83.41 CD 89.3 CE 93.91 NZ 98.44
A PRO - 3 -80.5 151.9 N 58.26 CA 54.65 C 53.23 O 49.97 CB 53.09 CG 52.51 CD 54.51
A ASP S 60 -59.1 -41.1 N 52.99 CA 50.99 C 46.65 O 46.95 CB 52.48 CG 53.58 OD1 54.25 OD2 55.42
A ILE E 0 -127.5 136.8 N 44.05 CA 40.86 C 39.7 O 38.91 CB 39.82 CG1 40.53 CG2 39.25 CD1 41.41
A VAL E 0 -126.2 133.8 N 38.61 CA 37.83 C 37.05 O 39.88 CB 37.96 CG1 37.69 CG2 39.25
A ILE E 1 -118.8 113.3 N 36.01 CA 34.46 C 36.48 O 37.81 CB 32.97 CG1 31.6 CG2 32.92 CD1 31.73
A ILE E 0 -121.1 125.4 N 37.79 CA 40.31 C 40.69 O 40.04 CB 43.8 CG1 50.43 CG2 46.1 CD1 55.41
A ASP E 6 -76.5 141.4 N 40.49 CA 39.51 C 42.01 O 43.14 CB 39.1 CG 39.3 OD1 37.1 OD2 44.17
A VAL T 0 -71.1 -11.9 N 43.27 CA 43.85 C 41.43 O 41.57 CB 46.3 CG1 45.24 CG2 49.41
A ASP T 59 -118.6 28.5 N 40.94 CA 43.26 C 46.72 O 52.85 CB 43.4 CG 44.52 OD1 45.5 OD2 41.55
A ILE - 7 -64.4 144.4 N 49.14 CA 51.97 C 50.0 O 49.84 CB 56.55 CG1 59.0 CG2 57.63 CD1 62.45
A PRO S 59 -65.4 164.0 N 49.72 CA 51.94 C 55.85 O 52.83 CB 53.99 CG 51.99 CD 50.6
A GLY S 54 85.8 -87.5 N 60.19 CA 62.28 C 61.91 O 63.76
A VAL S 50 -110.9 118.7 N 62.1 CA 61.05 C 55.82 O 53.27 CB 65.41 CG1 64.89 CG2 67.74
A ASN - 35 -50.4 138.3 N 56.88 CA 57.23 C 55.26 O 52.7 CB 60.07 CG 61.82 OD1 65.23 ND2 64.72
A GLY H 0 -51.1 -44.2 N 52.69 CA 49.09 C 47.32 O 47.12
A ILE H 2 -72.4 -22.1 N 45.93 CA 45.95 C 46.69 O 45.69 CB 46.91 CG1 49.83 CG2 48.91 CD1 49.74
A GLN H 66 -68.7 -42.9 N 49.04 CA 51.24 C 51.35 O 52.18 CB 54.0 CG 58.65 CD 63.75 OE1 68.88 NE2 64.25
A VAL H 0 -56.6 -51.0 N 48.88 CA 47.85 C 47.96 O 51.99 CB 48.0 CG1 49.85 CG2 47.77
A LEU H 0 -49.1 -58.6 N 48.51 CA 49.08 C 50.36 O 51.25 CB 49.54 CG 53.21 CD1 53.94 CD2 55.19
A GLU H 79 -53.9 -43.7 N 54.09 CA 57.26 C 56.16 O 60.97 CB 63.08 CG 72.09 CD 81.15 OE1 89.33 OE2 81.31
A THR H 28 -63.5 -53.4 N 51.5 CA 50.15 C 49.65 O 52.57 CB 49.28 OG1 47.9 CG2 49.8
A LEU H 0 -55.1 -35.5 N 47.28 CA 48.62 C 50.31 O 52.68 CB 48.29 CG 49.0 CD1 47.32 CD2 51.79
A ARG H 6 -79.7 -40.1 N 48.39 CA 50.34 C 53.77 O 55.22 CB 47.85 CG 46.34 CD 45.5 NE 43.93 CZ 43.49 NH1 42.66 NH2 43.35
A LYS H 152 -66.8 -31.0 N 57.42 CA 64.58 C 63.59 O 65.8 CB 70.91 CG 78.0 CD 82.54 CE 86.41 NZ 83.88
A ARG T 131 -84.8 25.9 N 58.37 CA 57.72 C 54.81 O 48.74 CB 58.96 CG 63.03 CD 65.24 NE 67.98 CZ 68.05 NH1 68.22 NH2 67.22
A GLN T 100 51.4 38.4 N 56.14 CA 55.86 C 53.42 O 53.66 CB 58.09 CG 59.7 CD 60.27 OE1 60.78 NE2 62.06
A TYR - 23 -83.3 141.3 N 52.13 CA 49.9 C 49.51 O 50.69 CB 49.95 CG 47.77 CD1 46.32 CD2 47.08 CE1 45.96 CE2 46.62 CZ 48.04 OH 49.4
A SER - 82 -121.9 6.6 N 47.67 CA 46.87 C 44.83 O 41.82 CB 49.39 OG 54.05
A GLY S 16 -78.9 -173.0 N 42.53 CA 39.46 C 37.54 O 34.13
A ILE E 19 -86.2 125.3 N 35.72 CA 34.45 C 35.32 O 37.6 CB 33.11 CG1 32.19 CG2 32.36 CD1 32.21
A ILE E 0 -122.3 126.9 N 33.98 CA 32.81 C 31.55 O 32.36 CB 33.85 CG1 35.67 CG2 34.54 CD1 37.51
A ILE E 0 -123.7 117.9 N 30.21 CA 29.9 C 28.07 O 27.83 CB 30.33 CG1 30.92 CG2 29.47 CD1 32.46
A ILE E 0 -85.8 146.4 N 27.16 CA 27.34 C 26.98 O 27.26 CB 27.69 CG1 28.95 CG2 28.16 CD1 30.56
A VAL E 0 -134.4 163.2 N 27.49 CA 28.38 C 28.36 O 28.09 CB 29.77 CG1 30.12 CG2 31.09
A SER E 0 -151.5 148.2 N 28.96 CA 30.43 C 32.46 O 32.54 CB 29.95 OG 29.61
A ALA S 51 -77.7 -20.0 N 35.02 CA 39.43 C 40.98 O 42.68 CB 40.19
A LYS S 56 -102.4 173.0 N 45.45 CA 48.71 C 50.9 O 51.84 CB 52.96 CG 59.06 CD 66.58 CE 68.67 NZ 66.55
A ASN - 66 -68.7 -44.5 N 54.05 CA 59.2 C 56.06 O 57.1 CB 63.66 CG 70.77 OD1 81.38 ND2 72.45
A ASP - 8 45.4 41.6 N 52.04 CA 51.49 C 54.66 O 60.15 CB 49.78 CG 47.75 OD1 45.61 OD2 48.83
A HIS T 81 -56.2 -45.7 N 59.64 CA 62.55 C 59.03 O 57.86 CB 69.34 CG 72.05 ND1 72.95 CD2 72.94 CE1 78.61 NE2 79.81
A PHE T 5 -65.5 -29.1 N 60.16 CA 57.0 C 56.01 O 61.21 CB 55.39 CG 52.9 CD1 51.19 CD2 52.46 CE1 51.9 CE2 55.12 CZ 53.48
A TYR H 2 -62.4 -28.0 N 47.56 CA 43.34 C 42.0 O 39.85 CB 41.16 CG 39.22 CD1 40.38 CD2 39.94 CE1 43.06 CE2 39.76 CZ 42.78 OH 47.62
A GLY H 0 -58.2 -51.1 N 42.32 CA 46.35 C 47.55 O 46.05
A LYS H 68 -48.1 -45.3 N 49.26 CA 51.49 C 49.71 O 51.62 CB 52.48 CG 59.3 CD 62.69 CE 61.67 NZ 62.69
A HIS H 23 -64.7 -35.8 N 46.34 CA 47.94 C 47.0 O 52.45 CB 48.59 CG 52.79 ND1 54.24 CD2 51.57 CE1 53.36 NE2 50.56
A CYS H 0 -71.8 -34.8 N 42.77 CA 40.35 C 38.35 O 38.86 CB 40.9 SG 39.37
A ALA H 23 -63.6 -45.7 N 38.17 CA 38.59 C 39.72 O 38.47 CB 35.91
A ASP H 104 -67.3 -24.3 N 41.64 CA 43.92 C 42.51 O 44.81 CB 46.34 CG 50.01 OD1 47.08 OD2 57.01
A ALA T 15 -92.6 5.1 N 40.89 CA 40.99 C 39.94 O 41.0 CB 40.82
A GLY T 0 99.8 10.9 N 38.8 CA 38.45 C 37.82 O 39.18
A ALA - 1 -70.3 159.2 N 36.21 CA 34.01 C 32.18 O 31.94 CB 33.92
A ASN S 8 -89.2 -5.6 N 31.49 CA 31.39 C 31.06 O 31.01 CB 31.65 CG 33.15 OD1 33.79 ND2 35.22
A GLY E 0 176.1 157.8 N 31.35 CA 31.2 C 31.46 O 32.25
A PHE E 0 -140.3 126.5 N 30.78 CA 30.27 C 28.73 O 26.74 CB 30.13 CG 30.89 CD1 31.6 CD2 30.72 CE1 32.52 CE2 29.56 CZ 31.56
A VAL E 0 -136.2 130.9 N 29.47 CA 31.48 C 33.45 O 37.13 CB 31.58 CG1 32.57 CG2 32.46
A SER E 6 -80.7 126.7 N 32.47 CA 32.54 C 33.74 O 33.49 CB 32.52 OG 39.13
A LYS G 17 -73.2 -10.6 N 33.06 CA 32.66 C 34.97 O 35.87 CB 31.25 CG 32.44 CD 33.02 CE 34.17 NZ 36.4
A LYS G 96 -57.0 -43.6 N 37.01 CA 42.35 C 42.58 O 39.43 CB 46.78 CG 54.52 CD 59.68 CE 61.63 NZ 62.66
A GLU G 129 -89.6 8.6 N 47.14 CA 50.05 C 46.45 O 49.2 CB 54.72 CG 61.94 CD 75.05 OE1 79.61 OE2 84.24
A GLY - 6 103.2 175.1 N 41.42 CA 41.57 C 41.91 O 43.53
A MET T 11 -76.5 -19.1 N 41.42 CA 42.63 C 43.34 O 43.19 CB 44.18 CG 44.39 SD 47.06 CE 41.4
A ASN H 118 -63.0 -19.0 N 46.25 CA 48.08 C 44.35 O 48.57 CB 54.66 CG 66.91 OD1 77.19 ND2 73.88
A ASN H 12 -79.3 -11.1 N 40.06 CA 37.27 C 36.95 O 38.24 CB 34.23 CG 33.12 OD1 32.76 ND2 33.86
A ILE H 0 -81.8 -49.4 N 37.13 CA 35.86 C 35.93 O 34.53 CB 35.06 CG1 34.77 CG2 35.22 CD1 34.68
A ILE H 15 -59.9 -35.2 N 36.04 CA 37.98 C 36.48 O 35.49 CB 40.67 CG1 42.79 CG2 42.47 CD1 45.57
A ALA H 29 -67.8 -39.6 N 36.52 CA 34.91 C 33.44 O 35.05 CB 33.64
A ALA H 0 -61.8 -40.9 N 31.24 CA 32.33 C 33.51 O 33.37 CB 33.09
A ILE H 3 -62.7 -47.4 N 34.62 CA 35.07 C 37.26 O 36.41 CB 34.43 CG1 33.28 CG2 35.54 CD1 33.25
A GLU H 94 -63.7 -33.5 N 39.42 CA 42.8 C 40.4 O 40.95 CB 48.15 CG 60.05 CD 72.21 OE1 74.81 OE2 78.65
A ALA H 2 -63.0 -51.3 N 38.6 CA 37.71 C 36.7 O 37.21 CB 37.76
A ALA H 13 -58.8 -37.8 N 34.1 CA 34.65 C 36.18 O 36.27 CB 34.98
A LYS H 108 -68.7 -24.8 N 36.54 CA 38.44 C 37.36 O 39.47 CB 40.84 CG 45.36 CD 49.58 CE 52.33 NZ 55.5
A ASN T 88 -93.9 6.8 N 34.77 CA 32.86 C 30.72 O 29.26 CB 34.21 CG 36.53 OD1 42.37 ND2 37.97
A GLY T 30 87.5 11.6 N 30.53 CA 31.26 C 32.2 O 33.68
A TYR E 6 -111.7 162.6 N 31.61 CA 32.13 C 32.11 O 31.58 CB 31.85 CG 33.16 CD1 33.28 CD2 33.78 CE1 32.99 CE2 33.69 CZ 33.75 OH 35.55
A CYS E 14 -117.4 161.3 N 31.23 CA 32.04 C 30.99 O 31.88 CB 33.11 SG 39.58
A TYR E 5 -138.1 104.8 N 28.48 CA 27.52 C 27.4 O 24.47 CB 26.73 CG 25.39 CD1 25.5 CD2 25.77 CE1 26.19 CE2 25.52 CZ 26.35 OH 26.27
A PHE E 17 -133.5 154.6 N 28.49 CA 28.8 C 29.54 O 29.64 CB 29.05 CG 29.48 CD1 30.73 CD2 31.78 CE1 31.58 CE2 32.51 CZ 32.98
A PRO E 15 -61.5 140.6 N 29.31 CA 28.81 C 27.9 O 26.92 CB 29.04 CG 29.92 CD 30.38
A PHE - 33 -96.2 122.1 N 27.44 CA 28.51 C 32.56 O 31.73 CB 28.2 CG 27.66 CD1 27.72 CD2 27.45 CE1 27.88 CE2 29.6 CZ 29.54
A SER - 9 -106.8 90.6 N 36.53 CA 40.08 C 36.24 O 34.24 CB 45.61 OG 52.43
A LEU G 53 -51.0 -35.3 N 35.09 CA 34.96 C 34.58 O 35.35 CB 35.95 CG 39.79 CD1 41.99 CD2 40.57
A ASN G 60 -60.9 -22.1 N 37.03 CA 40.67 C 37.74 O 36.47 CB 45.48 CG 53.93 OD1 64.04 ND2 62.6
A ARG G 52 -65.7 -31.2 N 36.57 CA 38.0 C 35.71 O 37.59 CB 43.82 CG 52.25 CD 57.38 NE 62.87 CZ 70.87 NH1 70.72 NH2 71.15
A PHE T 41 -115.3 -15.7 N 32.14 CA 32.06 C 32.38 O 32.53 CB 30.89 CG 29.35 CD1 29.05 CD2 28.05 CE1 28.15 CE2 27.37 CZ 27.39
A VAL S 18 -141.6 135.2 N 31.72 CA 31.28 C 31.38 O 34.46 CB 30.13 CG1 30.26 CG2 30.19
A GLY S 37 98.3 -156.3 N 31.42 CA 30.7 C 31.36 O 30.06
A SER S 119 -99.0 -7.3 N 32.8 CA 33.67 C 33.82 O 34.79 CB 33.33 OG 34.94
A LEU - 33 -106.7 20.3 N 35.24 CA 36.17 C 38.08 O 37.48 CB 36.04 CG 36.76 CD1 38.14 CD2 36.48
A THR H 53 -64.8 -43.0 N 39.89 CA 41.9 C 43.08 O 40.78 CB 43.38 OG1 47.52 CG2 43.18
A SER H 49 -65.6 -49.0 N 46.78 CA 52.43 C 51.72 O 49.33 CB 54.88 OG 62.78
A ASP H 15 -48.8 -48.6 N 48.8 CA 50.61 C 52.27 O 51.89 CB 49.19 CG 50.78 OD1 54.02 OD2 54.61
A GLN H 8 -58.3 -31.8 N 54.68 CA 54.07 C 55.01 O 53.0 CB 54.58 CG 58.25 CD 62.26 OE1 58.64 NE2 62.96
A GLN H 125 -86.5 -23.9 N 57.05 CA 58.12 C 56.94 O 54.31 CB 62.36 CG 68.56 CD 73.37 OE1 74.79 NE2 74.27
A LYS H 38 -60.2 -40.8 N 56.68 CA 54.21 C 53.38 O 53.27 CB 51.03 CG 52.93 CD 54.23 CE 59.71 NZ 62.76
A LEU H 2 -62.4 -33.1 N 54.19 CA 54.53 C 56.58 O 54.66 CB 53.39 CG 53.12 CD1 51.26 CD2 52.45
A ASP H 31 -70.3 -21.6 N 57.73 CA 62.84 C 59.36 O 61.27 CB 69.45 CG 75.53 OD1 82.73 OD2 70.43
A SER T 57 -82.3 -14.0 N 58.4 CA 56.33 C 55.18 O 56.17 CB 55.21 OG 54.48
A LEU - 8 -64.5 156.3 N 53.51 CA 56.9 C 55.22 O 58.39 CB 57.25 CG 56.77 CD1 55.63 CD2 57.46
A SER - 42 -88.9 164.9 N 56.59 CA 58.78 C 60.95 O 62.66 CB 63.69 OG 63.58
A LYS H 42 -56.3 -36.5 N 66.63 CA 67.36 C 68.35 O 64.13 CB 70.79 CG 75.74 CD 80.63 CE 83.23 NZ 85.25
A GLN H 65 -73.2 -38.4 N 74.76 CA 75.58 C 71.76 O 67.94 CB 76.76 CG 80.42 CD 82.98 OE1 81.96 NE2 82.73
A GLU H 4 -62.8 -49.0 N 67.34 CA 67.22 C 61.4 O 61.01 CB 68.48 CG 71.1 CD 73.38 OE1 72.35 OE2 81.82
A ILE H 0 -46.0 -59.7 N 58.04 CA 55.6 C 53.11 O 55.21 CB 57.32 CG1 56.85 CG2 56.9 CD1 59.41
A SER H 15 -45.0 -43.7 N 49.95 CA 49.43 C 48.12 O 45.92 CB 50.83 OG 48.67
A VAL H 0 -71.8 -46.1 N 48.98 CA 50.28 C 48.03 O 46.43 CB 51.63 CG1 51.42 CG2 53.79
A MET H 1 -58.0 -50.9 N 44.29 CA 41.67 C 41.03 O 42.44 CB 42.14 CG 42.72 SD 44.64 CE 46.17
A ARG H 9 -55.9 -32.3 N 38.86 CA 39.05 C 42.19 O 43.47 CB 39.16 CG 40.39 CD 40.51 NE 42.45 CZ 42.36 NH1 42.3 NH2 45.68
A TYR H 39 -74.6 -43.9 N 43.31 CA 43.3 C 40.19 O 36.31 CB 43.95 CG 46.7 CD1 47.79 CD2 46.13 CE1 46.21 CE2 46.11 CZ 46.25 OH 45.99
A ILE H 7 -56.0 -51.2 N 39.83 CA 38.9 C 38.4 O 39.79 CB 37.85 CG1 39.21 CG2 37.31 CD1 40.38
A LEU T 30 -61.8 -21.8 N 39.57 CA 38.95 C 39.61 O 37.17 CB 38.07 CG 38.86 CD1 39.97 CD2 38.12
A ASP T 80 -79.6 -20.9 N 43.2 CA 46.39 C 45.4 O 44.3 CB 50.33 CG 55.72 OD1 59.15 OD2 60.15
A GLY T 15 106.7 3.8 N 43.89 CA 45.22 C 47.23 O 48.78
A LYS - 65 -68.1 145.4 N 48.49 CA 53.8 C 56.2 O 52.63 CB 59.37 CG 64.67 CD 72.88 CE 83.31 NZ 89.64
A ASP - 77 -101.4 177.6 N 63.86 CA 65.64 C 65.6 O 63.15 CB 69.65 CG 74.37 OD1 77.28 OD2 75.62
A ASN H 34 -50.1 -38.4 N 65.9 CA 71.51 C 76.87 O 77.08 CB 75.01 CG 77.5 OD1 84.01 ND2 77.48
A ASN H 100 -72.0 -54.9 N 77.81 CA 80.04 C 78.08 O 81.96 CB 81.03 CG 79.08 OD1 73.71 ND2 82.51
A ASP H 54 -43.0 -46.3 N 75.42 CA 76.49 C 75.55 O 82.51 CB 75.35 CG 77.42 OD1 82.59 OD2 69.63
A ILE H 0 -69.5 -44.4 N 69.88 CA 69.42 C 75.79 O 76.47 CB 67.66 CG1 66.16 CG2 67.09 CD1 62.84
A ALA H 2 -58.8 -48.5 N 80.55 CA 86.53 C 89.05 O 91.58 CB 88.28
A GLU H 146 -53.9 -62.0 N 89.17 CA 95.09 C 92.45 O 98.63 CB 99.49 CG 106.17 CD 111.81 OE1 111.7 OE2 112.06
A LYS H 95 -52.2 -45.4 N 90.96 CA 87.32 C 84.09 O 88.31 CB 88.72 CG 92.98 CD 96.73 CE 93.95 NZ 91.23
A MET T 24 -87.7 8.5 N 85.46 CA 89.8 C 98.86 O 96.13 CB 89.96 CG 85.54 SD 81.17 CE 83.95
A PHE T 170 73.5 22.6 N 107.4 CA 115.33 C 110.1 O 115.38 CB 126.63 CG 138.55 CD1 143.64 CD2 147.26 CE1 145.6 CE2 150.03 CZ 148.69
A ILE S 53 -130.0 174.9 N 102.66 CA 97.88 C 96.03 O 84.74 CB 96.2 CG1 97.46 CG2 92.47 CD1 95.47
A SER - 69 -79.9 156.3 N 99.92 CA 97.24 C 91.42 O 93.07 CB 99.26 OG 101.05
A ASN H 73 -60.2 -13.2 N 85.62 CA 81.79 C 85.13 O 78.98 CB 81.15 CG 79.41 OD1 72.9 ND2 79.19
A LYS H 148 -104.1 -22.9 N 94.38 CA 97.43 C 91.38 O 88.34 CB 105.34 CG 109.53 CD 110.18 CE 109.05 NZ 106.91
A THR H 52 -64.3 -25.4 N 89.98 CA 93.59 C 91.07 O 90.23 CB 92.7 OG1 90.24 CG2 89.69
A VAL H 0 -75.4 -48.1 N 84.45 CA 76.62 C 72.6 O 73.85 CB 78.64 CG1 78.08 CG2 81.42
A SER H 38 -66.2 -25.6 N 71.67 CA 68.81 C 67.49 O 64.57 CB 68.88 OG 66.72
A THR H 58 -57.2 -65.0 N 70.56 CA 75.9 C 75.25 O 78.38 CB 79.19 OG1 81.86 CG2 78.31
A TYR H 38 -52.4 -47.0 N 72.83 CA 70.44 C 66.8 O 64.96 CB 72.72 CG 76.91 CD1 78.06 CD2 77.75 CE1 79.68 CE2 77.17 CZ 77.82 OH 72.84
A LYS H 53 -52.3 -30.5 N 64.69 CA 64.74 C 69.26 O 69.31 CB 66.97 CG 69.18 CD 72.02 CE 72.24 NZ 69.77
A SER H 75 -79.3 -42.8 N 75.47 CA 79.05 C 81.35 O 85.29 CB 78.58 OG 79.8
A ARG H 112 -71.1 -39.8 N 82.83 CA 86.41 C 79.32 O 77.68 CB 90.89 CG 95.39 CD 101.13 NE 106.57 CZ 104.21 NH1 96.99 NH2 105.65
A LEU H 0 -45.7 -64.2 N 73.19 CA 66.85 C 65.8 O 65.58 CB 66.27 CG 63.7 CD1 67.09 CD2 59.84
A MET H 25 -60.9 -35.0 N 62.09 CA 59.11 C 59.23 O 57.71 CB 59.13 CG 59.26 SD 59.47 CE 59.02
A GLU H 154 -66.2 -46.6 N 61.04 CA 66.44 C 64.28 O 62.82 CB 74.26 CG 81.55 CD 90.84 OE1 88.09 OE2 96.57
A LYS H 70 -60.5 -39.6 N 63.19 CA 61.69 C 59.65 O 60.62 CB 63.31 CG 65.42 CD 64.19 CE 66.22 NZ 65.67
A LEU T 3 -83.5 5.1 N 57.41 CA 54.85 C 56.92 O 56.23 CB 54.42 CG 56.2 CD1 53.84 CD2 59.57
A GLU T 143 45.2 49.9 N 59.25 CA 61.57 C 59.65 O 61.31 CB 63.62 CG 69.43 CD 74.9 OE1 76.48 OE2 79.53
A CYS - 12 -117.9 130.1 N 58.48 CA 59.17 C 60.85 O 56.6 CB 58.44 SG 54.49
A LYS - 177 -91.7 -77.2 N 62.85 CA 64.87 C 58.13 O 57.68 CB 73.94 CG 82.0 CD 85.14 CE 84.25 NZ 83.62
A SER S 55 -79.1 164.6 N 53.81 CA 51.35 C 48.96 O 50.56 CB 54.14 OG 53.66
A LEU H 66 -50.5 -38.6 N 49.58 CA 48.02 C 46.91 O 47.78 CB 48.39 CG 50.78 CD1 52.72 CD2 51.77
A MET H 42 -61.5 -39.3 N 46.79 CA 48.51 C 47.0 O 44.57 CB 49.05 CG 51.42 SD 55.67 CE 57.32
A ASP H 63 -59.5 -37.0 N 47.88 CA 47.64 C 46.01 O 46.58 CB 50.76 CG 54.0 OD1 53.36 OD2 56.97
A LEU H 1 -73.0 -50.4 N 43.04 CA 42.03 C 38.48 O 38.96 CB 43.98 CG 46.56 CD1 48.7 CD2 48.8
A TYR H 29 -50.6 -38.6 N 37.07 CA 36.42 C 33.89 O 31.58 CB 38.81 CG 39.29 CD1 39.25 CD2 40.34 CE1 40.39 CE2 41.27 CZ 41.75 OH 43.98
A THR H 54 -76.4 -38.2 N 35.18 CA 35.03 C 35.09 O 35.63 CB 35.46 OG1 36.72 CG2 35.57
A PHE H 4 -63.3 -47.6 N 35.33 CA 34.21 C 33.97 O 34.2 CB 35.88 CG 38.89 CD1 39.49 CD2 40.0 CE1 41.95 CE2 42.21 CZ 41.45
A ALA H 8 -65.3 -35.6 N 34.73 CA 33.18 C 32.12 O 29.7 CB 32.86
A GLN H 71 -64.0 -50.9 N 34.07 CA 39.43 C 43.14 O 48.27 CB 41.39 CG 47.38 CD 49.63 OE1 50.15 NE2 50.87
A ARG H 114 -57.4 -41.7 N 42.18 CA 46.35 C 44.83 O 44.83 CB 51.36 CG 55.94 CD 63.22 NE 68.01 CZ 71.23 NH1 67.59 NH2 70.85
A ASN T 12 -99.0 6.5 N 43.35 CA 42.89 C 43.96 O 39.23 CB 44.85 CG 48.55 OD1 50.96 ND2 47.83
A LYS T 174 65.6 48.4 N 46.25 CA 47.83 C 47.48 O 46.95 CB 52.08 CG 58.68 CD 62.92 CE 66.21 NZ 69.22
A ILE - 74 -110.7 360.0 N 52.38 CA 54.04 C 54.45 O 56.32 CB 55.46 CG1 48.89 CG2 60.69 CD1 48.15
B ALA - 152 360.0 77.6 N 68.29 CA 66.33 C 64.01 O 63.59 CB 65.19
B MET E 53 -83.9 143.9 N 58.43 CA 54.5 C 46.51 O 47.78 CB 56.75 CG 61.83 SD 70.81 CE 68.02
B ASN E 30 -133.6 167.5 N 39.2 CA 37.59 C 35.42 O 34.51 CB 38.2 CG 38.27 OD1 40.77 ND2 38.85
B ALA E 0 -152.0 159.5 N 33.46 CA 31.66 C 30.97 O 31.62 CB 31.57
B ILE E 0 -113.0 139.4 N 29.96 CA 30.18 C 28.41 O 26.57 CB 31.75 CG1 34.32 CG2 31.67 CD1 35.58
B ILE E 1 -106.8 128.1 N 28.11 CA 27.99 C 26.98 O 26.69 CB 28.9 CG1 29.7 CG2 29.46 CD1 30.64
B ILE E 0 -126.6 103.8 N 26.6 CA 26.31 C 27.78 O 27.76 CB 24.85 CG1 24.45 CG2 24.66 CD1 23.83
B ASP - 1 -170.1 132.9 N 29.98 CA 32.27 C 33.91 O 35.9 CB 35.05 CG 36.95 OD1 38.88 OD2 37.46
B ASP - 69 -99.0 8.3 N 36.35 CA 39.66 C 38.71 O 39.78 CB 40.86 CG 43.16 OD1 44.97 OD2 42.97
B HIS - 36 -92.6 103.6 N 37.33 CA 35.96 C 36.19 O 36.37 CB 37.12 CG 41.14 ND1 42.27 CD2 41.95 CE1 41.22 NE2 42.85
B PRO H 43 -45.8 -42.0 N 34.81 CA 34.85 C 36.28 O 36.79 CB 34.79 CG 34.28 CD 33.52
B LEU H 7 -65.2 -47.4 N 36.34 CA 38.04 C 37.61 O 37.08 CB 39.18 CG 40.18 CD1 40.12 CD2 40.84
B ALA H 9 -63.4 -38.0 N 36.12 CA 35.89 C 36.79 O 36.13 CB 35.14
B ILE H 18 -55.0 -53.5 N 36.71 CA 38.4 C 37.99 O 38.25 CB 41.45 CG1 45.16 CG2 42.63 CD1 48.46
B ALA H 8 -53.1 -48.4 N 36.53 CA 36.64 C 34.94 O 36.13 CB 38.12
B ALA H 1 -62.8 -45.8 N 33.01 CA 32.86 C 31.91 O 31.32 CB 33.01
B ILE H 0 -65.6 -50.1 N 30.85 CA 30.25 C 30.79 O 30.39 CB 29.81 CG1 28.7 CG2 30.2 CD1 27.75
B ARG H 91 -48.0 -49.1 N 32.21 CA 33.87 C 36.29 O 37.85 CB 34.49 CG 35.99 CD 37.6 NE 37.81 CZ 39.61 NH1 39.18 NH2 43.83
B ASN H 62 -60.4 -47.0 N 38.07 CA 39.64 C 39.17 O 41.41 CB 42.12 CG 44.29 OD1 43.9 ND2 46.58
B LEU H 5 -57.9 -48.6 N 37.84 CA 37.47 C 37.24 O 37.2 CB 37.28 CG 39.66 CD1 40.5 CD2 39.73
B LEU H 0 -62.7 -47.6 N 35.44 CA 35.39 C 37.18 O 37.14 CB 34.07 CG 33.06 CD1 32.85 CD2 32.8
B ILE H 102 -59.0 -48.1 N 37.95 CA 39.85 C 41.42 O 40.96 CB 40.35 CG1 39.13 CG2 41.04 CD1 39.89
B LYS H 136 -59.4 -19.7 N 42.49 CA 45.76 C 44.99 O 46.34 CB 50.07 CG 55.77 CD 61.64 CE 65.04 NZ 67.12
B ASN T 65 -103.4 24.4 N 45.93 CA 46.24 C 46.41 O 43.68 CB 45.18 CG 45.87 OD1 46.19 ND2 45.8
B ASP T 146 51.8 50.1 N 48.57 CA 53.18 C 50.15 O 49.8 CB 57.19 CG 63.12 OD1 63.91 OD2 68.57
B ILE E 13 -117.0 125.6 N 47.49 CA 44.67 C 44.24 O 44.46 CB 43.98 CG1 43.08 CG2 43.54 CD1 40.91
B GLU E 129 -80.7 147.3 N 44.75 CA 47.17 C 43.55 O 43.06 CB 52.36 CG 59.42 CD 62.76 OE1 68.06 OE2 59.7
B ILE E 38 -112.5 105.5 N 39.92 CA 36.19 C 34.92 O 34.22 CB 36.66 CG1 36.15 CG2 35.92 CD1 36.82
B LEU E 56 -77.5 -25.7 N 34.01 CA 32.86 C 32.59 O 32.38 CB 32.61 CG 33.23 CD1 33.65 CD2 33.41
B ALA E 12 -172.7 162.7 N 33.24 CA 34.59 C 34.89 O 34.37 CB 35.23
B GLU E 71 -131.1 122.9 N 34.76 CA 33.46 C 32.13 O 31.78 CB 34.59 CG 36.66 CD 40.44 OE1 42.25 OE2 41.84
B LEU E 7 -115.8 148.6 N 31.17 CA 31.52 C 31.18 O 29.53 CB 31.72 CG 32.47 CD1 33.55 CD2 33.06
B THR S 75 -118.3 5.1 N 32.07 CA 32.28 C 32.85 O 36.22 CB 32.09 OG1 31.34 CG2 32.07
B GLU - 67 -139.0 165.3 N 34.1 CA 35.64 C 33.59 O 33.91 CB 39.9 CG 45.97 CD 51.46 OE1 64.27 OE2 57.1
B GLY S 2 -92.4 -14.5 N 32.24 CA 31.29 C 32.88 O 31.86
B GLY T 59 -58.2 -28.6 N 33.99 CA 33.67 C 32.9 O 33.92
B SER T 28 -107.5 -0.4 N 31.8 CA 30.57 C 29.88 O 33.63 CB 30.46 OG 31.17
B ALA H 0 -68.5 -47.0 N 26.95 CA 26.06 C 24.66 O 23.35 CB 26.47
B VAL H 29 -57.4 -45.5 N 24.22 CA 24.78 C 27.11 O 25.64 CB 23.51 CG1 23.21 CG2 22.79
B GLN H 126 -65.3 -45.2 N 30.77 CA 35.78 C 36.56 O 36.79 CB 40.15 CG 45.3 CD 51.14 OE1 53.63 NE2 55.22
B ARG H 101 -68.9 -40.9 N 37.34 CA 38.27 C 36.54 O 38.77 CB 40.64 CG 47.17 CD 51.05 NE 54.99 CZ 55.7 NH1 58.21 NH2 58.1
B VAL H 0 -62.5 -41.0 N 33.72 CA 32.84 C 34.25 O 35.84 CB 31.78 CG1 32.08 CG2 30.94
B GLU H 50 -67.8 -40.7 N 36.08 CA 36.52 C 36.15 O 35.48 CB 37.28 CG 37.38 CD 37.87 OE1 37.67 OE2 37.3
B THR H 91 -66.0 -45.1 N 35.99 CA 37.02 C 37.09 O 38.18 CB 38.39 OG1 42.09 CG2 39.01
B LEU H 61 -93.1 -11.1 N 35.8 CA 33.53 C 33.61 O 32.46 CB 32.96 CG 33.08 CD1 32.8 CD2 33.3
B LYS - 150 43.0 53.5 N 35.23 CA 37.92 C 35.64 O 35.69 CB 42.38 CG 47.82 CD 51.24 CE 56.85 NZ 58.52
B PRO - 4 -73.8 158.5 N 32.53 CA 32.54 C 32.71 O 33.33 CB 32.41 CG 31.11 CD 31.72
B ASP S 58 -71.2 -38.1 N 32.57 CA 33.1 C 32.33 O 34.19 CB 36.17 CG 38.55 OD1 40.8 OD2 39.83
B ILE E 0 -125.7 137.9 N 31.65 CA 29.35 C 28.73 O 27.76 CB 30.01 CG1 30.84 CG2 29.69 CD1 32.6
B VAL E 0 -127.2 133.2 N 28.03 CA 27.58 C 27.42 O 28.97 CB 27.35 CG1 27.73 CG2 27.39
B ILE E 1 -123.8 113.6 N 26.8 CA 25.77 C 25.94 O 25.14 CB 26.64 CG1 26.66 CG2 27.07 CD1 27.27
B ILE E 0 -122.4 129.3 N 26.63 CA 26.82 C 25.72 O 25.12 CB 27.58 CG1 28.61 CG2 28.06 CD1 30.39
B ASP E 6 -77.9 134.8 N 26.16 CA 26.44 C 25.59 O 24.86 CB 27.67 CG 30.05 OD1 28.83 OD2 34.66
B VAL T 0 -60.1 -28.7 N 25.54 CA 25.81 C 26.75 O 27.63 CB 26.61 CG1 27.46 CG2 27.7
B ASP T 49 -103.6 15.5 N 27.59 CA 27.87 C 26.85 O 27.98 CB 29.63 CG 30.16 OD1 32.75 OD2 31.57
B ILE - 3 -57.2 147.6 N 26.41 CA 26.06 C 24.88 O 25.72 CB 25.92 CG1 26.34 CG2 25.44 CD1 27.71
B PRO S 61 -79.7 160.8 N 24.83 CA 24.69 C 25.33 O 27.52 CB 24.71 CG 25.71 CD 25.37
B GLY S 40 94.0 -72.9 N 25.85 CA 27.16 C 27.34 O 27.96
B VAL S 50 -121.2 116.7 N 27.94 CA 27.67 C 27.53 O 26.57 CB 26.52 CG1 25.64 CG2 26.26
B ASN - 44 -53.8 141.0 N 30.2 CA 30.54 C 29.58 O 32.3 CB 32.51 CG 33.87 OD1 35.46 ND2 41.47
B GLY H 0 -58.0 -31.2 N 28.5 CA 27.0 C 26.67 O 25.74
B ILE H 2 -84.9 -17.7 N 28.09 CA 29.39 C 29.45 O 29.0 CB 30.24 CG1 31.37 CG2 31.61 CD1 32.81
B GLN H 80 -79.5 -30.1 N 30.18 CA 30.43 C 27.61 O 29.42 CB 34.54 CG 40.43 CD 44.99 OE1 48.46 NE2 49.06
B VAL H 0 -65.1 -46.5 N 24.71 CA 23.75 C 23.37 O 24.1 CB 23.53 CG1 23.94 CG2 23.49
B LEU H 0 -53.0 -49.5 N 23.38 CA 24.3 C 26.04 O 26.39 CB 23.33 CG 23.22 CD1 23.48 CD2 23.29
B GLU H 71 -64.2 -45.4 N 27.59 CA 30.64 C 29.46 O 31.39 CB 34.25 CG 40.03 CD 46.05 OE1 54.57 OE2 49.74
B THR H 36 -63.2 -41.4 N 27.24 CA 26.02 C 25.85 O 26.01 CB 25.13 OG1 24.05 CG2 25.26
B LEU H 0 -63.3 -42.8 N 25.49 CA 25.38 C 25.92 O 26.91 CB 24.95 CG 25.08 CD1 24.35 CD2 25.63
B ARG H 5 -70.2 -43.0 N 25.31 CA 25.74 C 27.69 O 28.94 CB 24.5 CG 23.55 CD 23.45 NE 22.97 CZ 23.08 NH1 24.17 NH2 22.59
B LYS H 168 -58.9 -30.3 N 29.57 CA 32.58 C 31.83 O 31.91 CB 36.77 CG 44.28 CD 51.06 CE 56.44 NZ 61.63
B ARG T 143 -96.2 32.2 N 30.91 CA 30.76 C 30.81 O 29.33 CB 30.02 CG 30.13 CD 30.13 NE 31.31 CZ 32.58 NH1 32.82 NH2 32.19
B GLN T 110 55.0 21.0 N 31.22 CA 32.37 C 31.04 O 30.54 CB 33.84 CG 36.75 CD 37.45 OE1 43.58 NE2 36.09
B TYR - 26 -68.3 129.0 N 31.75 CA 31.72 C 31.85 O 32.28 CB 30.11 CG 29.93 CD1 30.32 CD2 30.23 CE1 31.09 CE2 31.25 CZ 32.02 OH 37.29
B SER - 78 -116.1 8.6 N 32.08 CA 31.89 C 30.6 O 29.6 CB 32.14 OG 32.92
B GLY S 15 -75.5 179.1 N 30.03 CA 29.79 C 28.49 O 28.01
B ILE E 21 -86.8 126.2 N 27.98 CA 27.35 C 26.87 O 26.73 CB 28.15 CG1 28.59 CG2 28.13 CD1 28.81
B ILE E 0 -121.8 121.2 N 25.91 CA 25.62 C 25.43 O 26.64 CB 24.76 CG1 24.95 CG2 24.03 CD1 24.81
B ILE E 0 -117.0 116.9 N 24.53 CA 24.95 C 24.66 O 25.73 CB 25.33 CG1 25.63 CG2 25.26 CD1 27.12
B ILE E 0 -82.4 144.4 N 23.85 CA 24.18 C 25.4 O 25.6 CB 24.94 CG1 26.39 CG2 25.39 CD1 27.34
B VAL E 0 -134.2 160.8 N 25.87 CA 26.61 C 27.17 O 27.63 CB 27.6 CG1 28.03 CG2 27.97
B SER E 0 -144.5 145.7 N 27.47 CA 27.75 C 28.17 O 26.28 CB 28.47 OG 28.48
B ALA S 51 -72.2 -21.9 N 29.31 CA 31.11 C 33.26 O 34.09 CB 30.96
B LYS S 62 -95.5 175.5 N 35.83 CA 37.07 C 34.65 O 33.14 CB 38.63 CG 41.07 CD 47.4 CE 52.1 NZ 51.74
B ASN - 69 -62.5 -55.3 N 37.45 CA 39.73 C 36.48 O 35.74 CB 41.82 CG 46.0 OD1 53.27 ND2 50.65
B ASP - 9 47.7 36.2 N 35.24 CA 33.41 C 34.29 O 34.88 CB 32.35 CG 32.28 OD1 37.28 OD2 31.07
B HIS T 91 -48.1 -53.3 N 39.21 CA 44.47 C 39.54 O 36.41 CB 53.98 CG 73.0 ND1 83.74 CD2 84.48 CE1 89.91 NE2 92.14
B PHE T 10 -57.0 -22.8 N 37.58 CA 37.77 C 37.7 O 40.17 CB 39.21 CG 38.99 CD1 37.44 CD2 39.46 CE1 38.7 CE2 39.22 CZ 39.62
B TYR H 1 -74.2 -25.9 N 34.02 CA 30.77 C 30.2 O 28.27 CB 28.8 CG 26.5 CD1 25.68 CD2 26.18 CE1 26.16 CE2 26.3 CZ 25.9 OH 26.72
B GLY H 1 -59.5 -35.2 N 30.52 CA 31.19 C 30.52 O 29.83
B LYS H 59 -67.3 -37.4 N 31.28 CA 33.19 C 33.75 O 34.98 CB 36.55 CG 40.54 CD 45.2 CE 48.27 NZ 48.8
B HIS H 2 -72.0 -32.3 N 33.28 CA 33.0 C 33.14 O 35.35 CB 32.83 CG 35.13 ND1 35.83 CD2 34.82 CE1 35.27 NE2 34.43
B CYS H 0 -67.5 -40.4 N 31.25 CA 30.93 C 29.56 O 27.91 CB 31.36 SG 34.57
B ALA H 27 -65.4 -40.4 N 29.11 CA 28.46 C 29.57 O 29.25 CB 28.47
B ASP H 83 -64.1 -31.4 N 31.48 CA 32.62 C 30.89 O 28.94 CB 34.75 CG 39.22 OD1 40.15 OD2 43.2
B ALA H 13 -84.1 -8.7 N 29.31 CA 27.72 C 27.33 O 28.68 CB 27.74
B GLY T 0 110.7 12.1 N 25.14 CA 25.09 C 24.37 O 23.51
B ALA - 1 -72.0 159.5 N 23.46 CA 24.05 C 24.08 O 23.46 CB 24.09
B ASN S 8 -87.7 -8.4 N 24.34 CA 25.43 C 25.61 O 26.9 CB 26.27 CG 26.83 OD1 27.19 ND2 27.37
B GLY E 0 -179.1 157.7 N 25.63 CA 25.62 C 26.28 O 25.98
B PHE E 1 -136.2 124.7 N 27.57 CA 27.19 C 27.46 O 27.03 CB 27.95 CG 27.82 CD1 27.68 CD2 29.02 CE1 28.1 CE2 29.68 CZ 28.58
B VAL E 0 -130.6 135.4 N 28.13 CA 28.98 C 29.57 O 30.02 CB 30.48 CG1 32.55 CG2 31.49
B SER E 5 -90.2 134.7 N 29.55 CA 30.09 C 31.59 O 33.97 CB 29.88 OG 29.76
B LYS G 16 -80.6 -2.5 N 33.07 CA 33.94 C 36.85 O 39.36 CB 33.77 CG 33.49 CD 33.92 CE 35.34 NZ 36.4
B LYS G 77 -63.9 -38.6 N 37.59 CA 41.29 C 41.91 O 41.83 CB 40.7 CG 43.43 CD 46.33 CE 46.91 NZ 49.09
B GLU G 140 -90.8 13.1 N 44.27 CA 47.96 C 43.8 O 42.77 CB 50.51 CG 55.17 CD 63.71 OE1 66.61 OE2 67.8
B GLY - 6 98.3 -166.5 N 40.53 CA 39.04 C 36.74 O 33.03
B MET S 17 -90.8 -18.0 N 38.31 CA 39.91 C 40.32 O 41.05 CB 40.77 CG 41.72 SD 39.67 CE 36.0
B ASN H 121 -58.0 -33.5 N 41.25 CA 43.77 C 40.25 O 38.43 CB 48.18 CG 58.49 OD1 63.13 ND2 61.86
B ASN H 7 -64.8 -30.5 N 36.69 CA 36.89 C 37.07 O 39.14 CB 37.81 CG 36.97 OD1 37.69 ND2 35.74
B ILE H 0 -62.5 -45.9 N 34.89 CA 33.64 C 33.79 O 34.22 CB 33.16 CG1 33.76 CG2 32.36 CD1 33.89
B ILE H 19 -73.6 -31.0 N 33.86 CA 34.79 C 34.52 O 35.95 CB 35.58 CG1 35.96 CG2 37.55 CD1 36.32
B ALA H 33 -58.0 -45.0 N 34.07 CA 33.16 C 31.69 O 31.64 CB 33.33
B ALA H 0 -64.8 -42.7 N 30.26 CA 30.5 C 31.32 O 31.02 CB 29.59
B ILE H 2 -61.6 -47.1 N 32.57 CA 33.58 C 35.39 O 37.02 CB 33.43 CG1 31.91 CG2 32.06 CD1 32.36
B GLU H 87 -52.4 -45.2 N 36.88 CA 39.77 C 37.52 O 35.64 CB 45.51 CG 54.59 CD 62.07 OE1 65.21 OE2 65.28
B ALA H 1 -66.1 -43.3 N 36.49 CA 35.83 C 36.67 O 37.01 CB 36.1
B ALA H 11 -59.4 -42.3 N 36.17 CA 36.52 C 37.66 O 39.08 CB 36.28
B LYS H 111 -57.4 -31.3 N 37.86 CA 39.92 C 38.42 O 37.65 CB 43.04 CG 47.18 CD 50.99 CE 53.65 NZ 56.86
B ASN H 89 -89.4 -5.2 N 38.27 CA 37.31 C 36.63 O 36.41 CB 37.14 CG 37.9 OD1 39.9 ND2 37.34
B GLY T 35 93.9 24.0 N 36.58 CA 36.14 C 36.47 O 36.28
B TYR E 12 -117.0 158.2 N 36.39 CA 36.33 C 36.22 O 39.35 CB 35.99 CG 35.63 CD1 35.3 CD2 35.16 CE1 36.35 CE2 35.55 CZ 35.94 OH 36.61
B CYS E 16 -113.7 167.5 N 35.11 CA 36.36 C 35.14 O 37.39 CB 36.73 SG 42.71
B TYR E 6 -141.8 97.9 N 33.36 CA 32.27 C 32.43 O 31.22 CB 32.51 CG 32.71 CD1 33.2 CD2 32.44 CE1 32.97 CE2 32.9 CZ 33.45 OH 33.86
B PHE E 17 -124.6 156.0 N 33.43 CA 32.62 C 33.62 O 36.18 CB 32.08 CG 32.95 CD1 32.09 CD2 32.53 CE1 32.76 CE2 32.1 CZ 32.55
B PRO E 16 -61.7 149.3 N 34.38 CA 35.89 C 36.57 O 33.32 CB 36.08 CG 35.68 CD 34.53
B PHE - 29 -101.8 115.8 N 38.78 CA 39.27 C 43.22 O 46.38 CB 37.49 CG 35.78 CD1 34.71 CD2 36.04 CE1 34.95 CE2 36.56 CZ 36.65
B SER - 13 -97.5 96.5 N 48.09 CA 50.5 C 48.56 O 45.0 CB 53.55 OG 52.64
B LEU G 49 -58.4 -29.7 N 48.44 CA 47.96 C 47.93 O 48.92 CB 48.21 CG 50.75 CD1 50.26 CD2 53.97
B ASN G 62 -64.8 -14.7 N 47.08 CA 46.58 C 44.57 O 46.46 CB 47.86 CG 49.37 OD1 54.67 ND2 51.15
B ARG G 77 -79.7 -21.2 N 44.21 CA 45.69 C 44.11 O 45.0 CB 49.7 CG 55.17 CD 62.1 NE 69.74 CZ 67.9 NH1 65.44 NH2 63.03
B PHE T 41 -118.4 -26.0 N 42.87 CA 41.92 C 43.64 O 44.33 CB 40.58 CG 38.08 CD1 36.96 CD2 35.57 CE1 35.56 CE2 34.63 CZ 34.49
B VAL S 15 -137.7 145.1 N 44.6 CA 44.2 C 44.21 O 46.32 CB 43.12 CG1 44.16 CG2 43.59
B GLY S 37 107.0 -172.1 N 42.69 CA 41.81 C 41.4 O 39.53
B SER S 119 -96.0 0.5 N 43.4 CA 45.28 C 44.33 O 44.4 CB 46.24 OG 47.81
B LEU - 36 -103.4 14.9 N 42.44 CA 41.79 C 40.65 O 39.79 CB 41.55 CG 42.11 CD1 41.84 CD2 42.36
B THR H 52 -60.0 -43.0 N 40.46 CA 41.06 C 42.05 O 43.36 CB 41.56 OG1 44.08 CG2 41.84
B SER H 55 -69.3 -35.3 N 44.12 CA 44.99 C 45.18 O 49.86 CB 44.15 OG 47.82
B ASP H 15 -62.7 -41.8 N 42.99 CA 40.23 C 38.5 O 35.41 CB 40.29 CG 41.7 OD1 44.88 OD2 41.72
B GLN H 13 -65.2 -37.0 N 38.42 CA 39.59 C 39.22 O 37.04 CB 41.41 CG 43.76 CD 44.62 OE1 45.05 NE2 45.31
B GLN H 135 -65.4 -34.9 N 40.36 CA 43.0 C 41.27 O 39.96 CB 48.75 CG 55.82 CD 64.78 OE1 66.2 NE2 71.01
B LYS H 39 -67.1 -46.6 N 38.94 CA 37.29 C 35.18 O 34.25 CB 38.35 CG 42.0 CD 46.79 CE 50.34 NZ 51.63
B LEU H 2 -55.5 -42.9 N 34.66 CA 33.11 C 33.34 O 33.84 CB 32.18 CG 33.1 CD1 33.31 CD2 33.39
B ASP H 23 -63.4 -27.3 N 35.83 CA 36.89 C 35.72 O 37.81 CB 39.76 CG 43.15 OD1 44.89 OD2 44.58
B SER T 56 -74.7 -12.1 N 34.48 CA 34.51 C 33.57 O 34.43 CB 35.18 OG 35.05
B LEU - 9 -68.6 155.2 N 31.9 CA 31.6 C 31.05 O 31.15 CB 30.97 CG 30.76 CD1 30.76 CD2 30.95
B SER - 38 -72.7 166.8 N 30.86 CA 30.24 C 30.36 O 31.77 CB 30.66 OG 33.53
B LYS H 42 -70.6 -34.9 N 32.23 CA 34.54 C 34.25 O 35.98 CB 38.02 CG 42.28 CD 44.6 CE 46.91 NZ 47.09
B GLN H 63 -71.1 -35.7 N 33.75 CA 34.2 C 31.53 O 29.16 CB 38.81 CG 42.97 CD 46.78 OE1 47.55 NE2 50.71
B GLU H 7 -70.9 -37.0 N 29.93 CA 28.81 C 27.78 O 28.22 CB 29.14 CG 29.27 CD 29.7 OE1 28.95 OE2 30.92
B ILE H 0 -60.1 -39.0 N 27.11 CA 27.57 C 27.09 O 27.53 CB 27.71 CG1 28.76 CG2 27.22 CD1 30.06
B SER H 12 -66.0 -44.3 N 26.36 CA 25.86 C 25.57 O 28.89 CB 25.54 OG 24.56
B VAL H 0 -65.9 -33.6 N 23.89 CA 23.42 C 23.53 O 23.81 CB 23.29 CG1 24.19 CG2 23.54
B MET H 1 -66.2 -48.2 N 23.41 CA 23.75 C 23.55 O 24.09 CB 24.34 CG 24.95 SD 26.2 CE 25.71
B ARG H 11 -64.2 -34.6 N 23.33 CA 23.43 C 24.02 O 24.8 CB 22.82 CG 23.35 CD 23.66 NE 24.72 CZ 27.47 NH1 27.91 NH2 29.31
B TYR H 45 -69.6 -42.9 N 25.36 CA 27.39 C 26.41 O 26.1 CB 28.78 CG 31.75 CD1 34.68 CD2 33.27 CE1 34.93 CE2 33.98 CZ 33.76 OH 32.9
B ILE H 18 -59.8 -47.0 N 25.58 CA 26.53 C 27.87 O 28.96 CB 26.3 CG1 27.09 CG2 26.59 CD1 27.45
B LEU H 29 -62.1 -24.9 N 27.4 CA 28.07 C 30.52 O 32.48 CB 26.82 CG 27.08 CD1 26.96 CD2 27.81
B ASP T 76 -79.4 -6.9 N 33.83 CA 36.99 C 37.4 O 39.13 CB 41.41 CG 45.75 OD1 50.09 OD2 54.34
B GLY T 18 87.7 10.6 N 36.35 CA 37.75 C 37.58 O 38.06
B LYS - 70 -69.8 145.5 N 39.1 CA 38.57 C 36.7 O 36.21 CB 41.32 CG 46.8 CD 51.93 CE 56.94 NZ 60.39
B ASP - 83 -93.4 168.3 N 36.4 CA 38.02 C 38.6 O 35.73 CB 39.32 CG 41.84 OD1 42.73 OD2 45.67
B ASN H 47 -38.1 -43.1 N 40.29 CA 41.7 C 40.65 O 40.52 CB 46.07 CG 51.0 OD1 52.5 ND2 54.09
B ASN H 100 -70.7 -48.2 N 41.13 CA 40.75 C 40.55 O 38.48 CB 42.38 CG 46.78 OD1 54.72 ND2 51.09
B ASP H 62 -52.8 -41.2 N 40.81 CA 42.37 C 38.68 O 36.81 CB 47.64 CG 56.2 OD1 59.32 OD2 59.64
B ILE H 1 -67.7 -44.8 N 35.76 CA 33.61 C 33.23 O 31.9 CB 33.33 CG1 33.49 CG2 33.24 CD1 33.87
B ALA H 7 -61.1 -35.3 N 32.78 CA 33.54 C 36.16 O 38.7 CB 33.5
B GLU H 154 -78.5 -35.3 N 37.53 CA 40.49 C 39.79 O 43.7 CB 48.08 CG 56.81 CD 66.05 OE1 71.7 OE2 70.31
B LYS H 96 -70.2 -32.4 N 37.97 CA 36.77 C 32.56 O 29.53 CB 39.73 CG 46.43 CD 53.71 CE 59.78 NZ 69.09
B MET H 34 -101.3 0.1 N 30.18 CA 28.46 C 27.73 O 27.37 CB 28.07 CG 27.9 SD 28.84 CE 28.45
B PHE T 151 55.7 52.9 N 26.71 CA 25.67 C 26.25 O 28.33 CB 24.36 CG 23.46 CD1 23.6 CD2 22.75 CE1 23.37 CE2 22.19 CZ 22.2
B ILE - 53 -138.6 177.7 N 25.9 CA 25.97 C 27.2 O 27.27 CB 24.69 CG1 24.46 CG2 24.29 CD1 24.02
B SER - 57 -79.2 160.9 N 28.93 CA 32.31 C 34.46 O 35.77 CB 32.92 OG 32.94
B ASN H 82 -51.3 -42.2 N 37.02 CA 37.92 C 35.57 O 31.89 CB 40.57 CG 43.79 OD1 48.72 ND2 45.64
B LYS H 153 -63.9 -40.3 N 35.65 CA 38.33 C 36.53 O 38.38 CB 42.12 CG 48.1 CD 53.13 CE 59.92 NZ 63.55
B THR H 43 -64.4 -34.6 N 33.6 CA 32.01 C 30.83 O 30.35 CB 31.26 OG1 32.36 CG2 29.96
B VAL H 0 -64.2 -54.4 N 29.51 CA 29.57 C 30.69 O 31.15 CB 28.61 CG1 28.35 CG2 27.94
B SER H 49 -50.8 -39.1 N 32.02 CA 32.36 C 32.08 O 34.43 CB 33.13 OG 33.48
B THR H 42 -67.5 -50.9 N 30.43 CA 30.47 C 31.32 O 34.01 CB 30.21 OG1 31.29 CG2 29.71
B TYR H 44 -50.5 -43.2 N 29.57 CA 29.84 C 30.29 O 28.22 CB 30.21 CG 31.63 CD1 32.49 CD2 31.13 CE1 32.43 CE2 32.39 CZ 33.1 OH 33.24
B LYS H 68 -62.3 -47.5 N 32.96 CA 34.65 C 34.07 O 33.39 CB 38.55 CG 42.66 CD 48.77 CE 55.79 NZ 60.05
B SER H 76 -50.8 -53.4 N 32.92 CA 33.72 C 34.39 O 36.43 CB 34.87 OG 36.59
B ARG H 123 -70.4 -32.2 N 34.52 CA 37.6 C 36.56 O 36.23 CB 41.27 CG 44.72 CD 50.63 NE 55.1 CZ 57.7 NH1 59.79 NH2 59.62
B LEU H 0 -56.5 -53.0 N 35.87 CA 34.73 C 34.34 O 31.15 CB 35.07 CG 35.9 CD1 37.17 CD2 36.56
B MET H 22 -63.8 -41.0 N 35.07 CA 34.93 C 35.54 O 35.67 CB 35.65 CG 37.24 SD 42.05 CE 43.71
B GLU H 159 -59.6 -46.8 N 36.4 CA 38.79 C 36.97 O 38.32 CB 43.28 CG 49.52 CD 58.04 OE1 60.82 OE2 60.48
B LYS H 70 -66.1 -33.0 N 34.53 CA 33.87 C 34.43 O 34.58 CB 32.48 CG 32.34 CD 31.73 CE 31.65 NZ 31.59
B LEU H 5 -89.9 -1.0 N 35.59 CA 36.11 C 38.9 O 37.49 CB 34.57 CG 33.0 CD1 32.58 CD2 33.24
B GLU T 148 55.8 46.5 N 41.56 CA 45.27 C 44.36 O 46.33 CB 50.05 CG 55.98 CD 59.21 OE1 60.26 OE2 64.03
B CYS - 11 -113.2 140.6 N 42.75 CA 41.97 C 42.1 O 39.73 CB 42.1 SG 40.76
B LYS - 198 -107.1 -33.2 N 44.71 CA 47.48 C 44.78 O 46.76 CB 53.7 CG 60.84 CD 66.82 CE 71.65 NZ 74.94
B SER S 47 -115.9 178.0 N 44.27 CA 44.6 C 44.23 O 40.69 CB 46.06 OG 47.15
B LEU H 64 -66.3 -46.8 N 46.38 CA 47.86 C 46.6 O 47.6 CB 51.83 CG 56.62 CD1 59.88 CD2 55.09
B MET H 41 -51.4 -40.2 N 46.83 CA 46.7 C 44.17 O 42.68 CB 49.57 CG 54.4 SD 58.93 CE 55.65
B ASP H 71 -65.4 -36.9 N 42.63 CA 43.22 C 42.31 O 45.05 CB 45.93 CG 48.02 OD1 50.14 OD2 50.05
B LEU H 2 -68.5 -46.8 N 38.86 CA 36.1 C 33.64 O 32.81 CB 36.43 CG 36.91 CD1 37.61 CD2 36.99
B TYR H 30 -50.3 -54.5 N 32.8 CA 33.34 C 32.33 O 31.37 CB 35.22 CG 38.3 CD1 39.23 CD2 39.31 CE1 39.2 CE2 39.18 CZ 39.1 OH 38.57
B THR H 59 -62.4 -43.3 N 32.54 CA 32.45 C 31.51 O 31.14 CB 33.44 OG1 34.05 CG2 34.19
B PHE H 3 -53.6 -46.5 N 31.55 CA 32.87 C 33.19 O 30.62 CB 33.41 CG 34.11 CD1 33.95 CD2 35.45 CE1 35.31 CE2 35.6 CZ 35.55
B ALA H 6 -60.9 -50.3 N 33.84 CA 33.53 C 34.42 O 34.08 CB 31.89
B GLN H 65 -52.9 -48.4 N 36.64 CA 38.54 C 37.75 O 37.17 CB 42.31 CG 47.76 CD 48.74 OE1 48.55 NE2 50.84
B ARG H 107 -61.4 -37.3 N 38.55 CA 38.55 C 38.62 O 39.92 CB 39.63 CG 41.48 CD 42.91 NE 43.43 CZ 45.7 NH1 45.39 NH2 47.87
B ASN H 19 -104.6 4.3 N 38.95 CA 38.25 C 40.52 O 43.28 CB 37.28 CG 38.65 OD1 41.15 ND2 40.31
B LYS T 169 68.1 50.4 N 44.19 CA 45.65 C 43.74 O 44.47 CB 48.91 CG 55.82 CD 63.81 CE 67.2 NZ 67.87
B ILE - 70 -96.6 360.0 N 44.06 CA 43.55 C 43.14 O 45.55 CB 43.38 CG1 40.49 CG2 46.94 CD1 39.95
C ALA - 142 360.0 53.4 N 93.58 CA 90.54 C 86.81 O 88.17 CB 88.86
C MET - 42 -62.9 148.6 N 80.44 CA 77.37 C 70.72 O 72.76 CB 80.07 CG 82.75 SD 92.34 CE 88.25
C ASN E 33 -125.3 167.6 N 63.08 CA 59.09 C 53.86 O 51.31 CB 57.8 CG 57.1 OD1 58.54 ND2 57.09
C ALA E 0 -152.0 165.4 N 50.67 CA 47.86 C 46.89 O 48.55 CB 48.45
C ILE E 0 -126.1 137.9 N 44.94 CA 45.66 C 44.99 O 42.72 CB 45.4 CG1 46.62 CG2 46.55 CD1 45.68
C ILE E 0 -115.7 134.3 N 45.2 CA 44.81 C 43.52 O 43.45 CB 47.54 CG1 49.89 CG2 48.32 CD1 53.22
C ILE E 0 -132.0 110.7 N 41.98 CA 42.22 C 45.19 O 44.27 CB 40.12 CG1 40.46 CG2 39.39 CD1 39.76
C ASP - 1 -171.8 142.3 N 49.93 CA 53.41 C 56.38 O 63.46 CB 56.96 CG 59.12 OD1 63.77 OD2 57.12
C ASP S 63 -112.6 23.0 N 57.2 CA 61.31 C 63.68 O 67.85 CB 61.26 CG 64.37 OD1 67.06 OD2 62.71
C HIS - 63 -96.8 109.4 N 66.49 CA 73.17 C 71.75 O 71.45 CB 77.31 CG 87.25 ND1 88.59 CD2 89.86 CE1 84.6 NE2 88.21
C PRO H 99 -57.9 -31.9 N 74.54 CA 75.37 C 71.55 O 66.58 CB 77.55 CG 78.87 CD 75.85
C LEU H 151 -67.4 -46.6 N 70.53 CA 72.99 C 70.25 O 66.77 CB 75.9 CG 76.82 CD1 76.05 CD2 77.35
C ALA H 15 -68.9 -39.1 N 68.26 CA 65.8 C 59.94 O 55.24 CB 65.91
C ILE H 14 -60.4 -45.5 N 58.1 CA 60.1 C 58.54 O 58.34 CB 63.5 CG1 64.76 CG2 64.0 CD1 65.31
C ALA H 28 -59.2 -50.5 N 60.21 CA 61.92 C 60.64 O 59.38 CB 63.77
C ALA H 35 -56.3 -42.1 N 57.37 CA 56.83 C 56.09 O 58.39 CB 56.12
C ILE H 0 -67.6 -40.2 N 53.18 CA 51.56 C 53.61 O 51.37 CB 48.06 CG1 45.39 CG2 45.64 CD1 43.93
C ARG H 82 -53.2 -54.8 N 55.29 CA 60.29 C 61.0 O 59.79 CB 63.78 CG 66.43 CD 70.29 NE 70.35 CZ 68.96 NH1 70.39 NH2 67.3
C ASN H 88 -65.7 -29.0 N 61.49 CA 64.66 C 63.62 O 68.37 CB 65.56 CG 68.4 OD1 67.84 ND2 69.82
C LEU H 10 -73.1 -41.7 N 60.29 CA 60.31 C 58.81 O 56.14 CB 61.88 CG 64.32 CD1 65.42 CD2 64.07
C LEU H 0 -73.6 -41.3 N 58.94 CA 58.87 C 61.75 O 60.09 CB 58.3 CG 56.6 CD1 56.69 CD2 54.68
C ILE H 95 -44.5 -63.0 N 66.47 CA 69.86 C 70.2 O 71.15 CB 73.07 CG1 74.6 CG2 75.07 CD1 76.55
C LYS H 165 -50.3 -30.2 N 68.17 CA 68.22 C 65.92 O 68.71 CB 71.85 CG 78.84 CD 87.37 CE 89.47 NZ 90.9
C ASN T 68 -103.4 31.4 N 62.48 CA 61.22 C 64.09 O 62.28 CB 57.67 CG 55.7 OD1 54.17 ND2 54.15
C ASP T 152 51.8 49.6 N 67.45 CA 69.12 C 66.45 O 65.25 CB 72.19 CG 76.32 OD1 78.58 OD2 76.72
C ILE - 13 -122.3 126.6 N 66.07 CA 65.39 C 65.82 O 65.72 CB 64.29 CG1 63.97 CG2 63.25 CD1 64.03
C GLU E 128 -84.3 150.5 N 65.52 CA 68.78 C 61.51 O 56.88 CB 74.52 CG 79.91 CD 84.58 OE1 87.49 OE2 84.97
C ILE E 36 -116.5 97.9 N 60.44 CA 57.82 C 57.94 O 58.47 CB 59.14 CG1 60.11 CG2 57.5 CD1 63.34
C LEU E 55 -61.0 -32.8 N 58.05 CA 57.66 C 56.68 O 60.09 CB 56.17 CG 56.12 CD1 53.87 CD2 58.78
C ALA E 9 -165.2 154.1 N 54.22 CA 53.64 C 52.78 O 53.35 CB 52.22
C GLU E 72 -128.8 123.7 N 53.8 CA 55.11 C 54.9 O 57.06 CB 57.1 CG 61.87 CD 65.37 OE1 66.72 OE2 63.73
C LEU E 10 -121.6 157.4 N 51.41 CA 51.53 C 50.74 O 54.5 CB 53.52 CG 57.25 CD1 58.06 CD2 60.35
C THR S 82 -129.8 8.6 N 48.87 CA 49.0 C 51.88 O 55.83 CB 48.93 OG1 46.9 CG2 49.25
C GLU - 65 -147.2 163.0 N 52.54 CA 54.8 C 51.46 O 48.45 CB 61.59 CG 66.04 CD 68.4 OE1 64.54 OE2 71.33
C GLY S 2 -87.7 -19.8 N 48.98 CA 46.73 C 48.49 O 47.39
C GLY T 59 -43.9 -39.6 N 51.32 CA 50.52 C 48.37 O 47.5
C SER T 32 -107.0 -0.9 N 45.79 CA 44.88 C 44.19 O 45.34 CB 47.13 OG 45.46
C ALA H 0 -60.3 -50.3 N 42.02 CA 40.45 C 40.74 O 40.71 CB 39.72
C VAL H 28 -58.4 -47.9 N 40.51 CA 40.4 C 42.12 O 40.66 CB 37.55 CG1 36.07 CG2 36.24
C GLN H 137 -63.2 -42.5 N 44.91 CA 48.94 C 50.26 O 48.74 CB 51.53 CG 58.49 CD 65.35 OE1 66.35 NE2 69.87
C ARG H 102 -66.3 -47.7 N 50.66 CA 51.86 C 48.97 O 54.25 CB 54.67 CG 58.81 CD 63.62 NE 66.16 CZ 69.92 NH1 69.91 NH2 69.55
C VAL H 0 -61.8 -31.9 N 45.11 CA 43.79 C 45.43 O 46.85 CB 43.66 CG1 43.62 CG2 43.61
C GLU H 53 -73.7 -39.1 N 46.94 CA 49.39 C 50.74 O 49.47 CB 49.08 CG 46.75 CD 47.85 OE1 47.05 OE2 44.13
C THR H 100 -66.6 -55.0 N 51.58 CA 52.18 C 53.52 O 54.11 CB 52.62 OG1 53.26 CG2 53.06
C LEU H 55 -78.1 -18.9 N 50.82 CA 51.06 C 52.66 O 52.8 CB 50.52 CG 52.4 CD1 51.66 CD2 55.85
C LYS - 151 38.9 59.4 N 55.13 CA 56.14 C 52.31 O 52.57 CB 60.82 CG 69.23 CD 74.62 CE 74.09 NZ 77.82
C PRO - 4 -71.9 166.3 N 47.73 CA 48.65 C 47.75 O 46.35 CB 47.15 CG 45.99 CD 46.33
C ASP S 60 -76.5 -32.6 N 48.84 CA 49.34 C 47.61 O 51.1 CB 52.08 CG 54.84 OD1 55.91 OD2 56.18
C ILE E 0 -135.5 136.1 N 44.54 CA 41.5 C 39.15 O 40.48 CB 41.87 CG1 42.97 CG2 41.13 CD1 45.41
C VAL E 0 -125.8 141.0 N 37.46 CA 38.56 C 39.62 O 38.63 CB 38.72 CG1 37.85 CG2 40.63
C ILE E 1 -124.9 124.6 N 39.42 CA 37.3 C 37.27 O 40.48 CB 37.88 CG1 39.1 CG2 38.84 CD1 41.72
C ILE E 0 -134.0 126.9 N 35.99 CA 36.63 C 36.38 O 36.01 CB 38.5 CG1 41.67 CG2 38.51 CD1 42.51
C ASP E 0 -76.8 141.4 N 37.41 CA 38.27 C 37.15 O 36.85 CB 40.66 CG 42.4 OD1 44.13 OD2 42.61
C VAL T 1 -66.3 -21.9 N 36.88 CA 38.59 C 40.96 O 43.29 CB 38.63 CG1 38.8 CG2 38.67
C ASP T 45 -108.0 11.0 N 43.71 CA 45.28 C 46.43 O 47.97 CB 44.77 CG 44.79 OD1 44.27 OD2 46.42
C ILE - 2 -51.4 136.2 N 43.5 CA 44.26 C 43.37 O 43.48 CB 45.33 CG1 46.74 CG2 46.41 CD1 46.71
C PRO S 58 -74.8 169.1 N 43.16 CA 42.5 C 40.34 O 40.03 CB 44.02 CG 44.41 CD 44.06
C GLY S 36 88.7 -75.2 N 38.53 CA 40.56 C 40.45 O 37.75
C VAL S 50 -125.2 120.7 N 40.1 CA 40.28 C 40.6 O 41.77 CB 41.43 CG1 39.54 CG2 40.89
C ASN - 40 -71.1 159.3 N 41.47 CA 40.49 C 39.04 O 39.69 CB 41.58 CG 42.27 OD1 42.76 ND2 44.78
C GLY H 0 -60.6 -40.1 N 39.23 CA 39.32 C 38.11 O 36.72
C ILE H 0 -72.5 -32.5 N 39.87 CA 42.79 C 39.98 O 37.73 CB 49.03 CG1 55.99 CG2 48.8 CD1 65.24
C GLN H 64 -64.6 -36.0 N 37.75 CA 35.66 C 34.95 O 36.89 CB 37.69 CG 41.37 CD 44.88 OE1 50.17 NE2 42.97
C VAL H 0 -63.8 -42.1 N 35.43 CA 35.75 C 34.84 O 33.69 CB 36.46 CG1 36.39 CG2 37.64
C LEU H 0 -61.5 -51.1 N 33.5 CA 32.88 C 32.36 O 30.79 CB 32.83 CG 33.1 CD1 33.06 CD2 32.36
C GLU H 54 -60.0 -42.5 N 33.49 CA 34.84 C 32.85 O 32.2 CB 39.6 CG 45.89 CD 53.64 OE1 61.51 OE2 60.01
C THR H 38 -66.4 -44.7 N 30.93 CA 31.05 C 32.63 O 33.63 CB 30.38 OG1 29.99 CG2 29.96
C LEU H 0 -60.2 -45.4 N 31.36 CA 31.84 C 31.25 O 33.44 CB 33.59 CG 34.86 CD1 34.33 CD2 35.83
C ARG H 6 -65.5 -38.2 N 29.78 CA 31.47 C 34.35 O 36.22 CB 30.54 CG 30.84 CD 30.67 NE 30.21 CZ 31.84 NH1 32.65 NH2 33.18
C LYS H 171 -67.8 -30.6 N 36.15 CA 37.49 C 35.84 O 34.94 CB 41.05 CG 46.28 CD 52.72 CE 59.18 NZ 63.45
C ARG T 147 -85.4 16.2 N 34.16 CA 34.79 C 36.17 O 34.46 CB 34.01 CG 33.19 CD 32.22 NE 31.84 CZ 32.24 NH1 32.58 NH2 33.43
C GLN T 102 69.6 10.9 N 36.76 CA 38.23 C 37.16 O 38.35 CB 38.81 CG 39.87 CD 40.41 OE1 41.79 NE2 39.35
C TYR - 24 -62.6 128.5 N 35.99 CA 35.78 C 35.91 O 34.93 CB 36.14 CG 38.3 CD1 37.54 CD2 38.13 CE1 38.41 CE2 39.13 CZ 39.56 OH 45.18
C SER - 72 -119.1 11.2 N 37.47 CA 37.15 C 37.24 O 38.54 CB 36.6 OG 39.79
C GLY S 16 -66.3 170.3 N 35.3 CA 34.89 C 34.84 O 33.79
C ILE E 22 -76.6 135.8 N 36.1 CA 35.62 C 36.06 O 38.72 CB 37.3 CG1 39.62 CG2 37.09 CD1 41.28
C ILE E 0 -137.0 109.9 N 36.75 CA 34.45 C 32.42 O 32.05 CB 35.09 CG1 38.52 CG2 34.92 CD1 40.86
C ILE E 0 -102.1 132.7 N 31.96 CA 31.88 C 33.03 O 34.66 CB 33.22 CG1 34.85 CG2 32.31 CD1 36.0
C ILE E 0 -99.8 143.0 N 33.06 CA 33.85 C 34.32 O 33.4 CB 34.54 CG1 34.95 CG2 34.79 CD1 36.22
C VAL E 0 -131.0 167.2 N 35.29 CA 36.34 C 37.95 O 35.88 CB 37.15 CG1 36.53 CG2 38.37
C SER E 0 -151.1 144.9 N 40.96 CA 44.38 C 48.89 O 50.16 CB 44.33 OG 45.26
C ALA S 37 -74.9 -29.3 N 54.89 CA 59.97 C 64.1 O 70.07 CB 60.08
C LYS S 66 -92.2 -179.9 N 68.23 CA 74.43 C 73.85 O 71.34 CB 78.66 CG 83.99 CD 89.91 CE 96.09 NZ 95.86
C ASN - 71 -75.1 -43.5 N 77.5 CA 77.86 C 73.64 O 70.66 CB 80.98 CG 83.74 OD1 83.75 ND2 84.05
C ASP - 8 37.6 51.4 N 72.38 CA 71.39 C 71.73 O 72.77 CB 70.8 CG 69.49 OD1 70.47 OD2 65.89
C HIS T 71 -55.0 -45.5 N 79.08 CA 82.18 C 74.47 O 67.92 CB 90.94 CG 99.24 ND1 101.02 CD2 99.49 CE1 103.62 NE2 105.44
C PHE T 6 -65.2 -20.3 N 70.31 CA 68.82 C 63.98 O 62.45 CB 68.39 CG 69.61 CD1 69.73 CD2 72.23 CE1 71.61 CE2 72.66 CZ 70.62
C TYR H 1 -70.2 -30.4 N 55.75 CA 51.23 C 49.64 O 45.21 CB 53.19 CG 54.63 CD1 58.86 CD2 55.24 CE1 63.01 CE2 59.24 CZ 64.53 OH 66.66
C GLY H 2 -51.6 -44.8 N 49.38 CA 48.05 C 46.44 O 47.17
C LYS H 54 -58.0 -41.6 N 47.72 CA 49.82 C 47.55 O 46.08 CB 52.47 CG 55.27 CD 60.09 CE 62.91 NZ 63.67
C HIS H 4 -72.4 -30.6 N 45.25 CA 43.76 C 40.11 O 39.75 CB 48.18 CG 58.17 ND1 62.88 CD2 64.01 CE1 65.55 NE2 69.82
C CYS H 0 -71.8 -40.0 N 37.74 CA 35.42 C 34.36 O 31.16 CB 37.77 SG 42.17
C ALA H 28 -60.9 -46.9 N 34.87 CA 34.55 C 34.56 O 35.26 CB 34.2
C ASP H 85 -61.4 -29.4 N 35.66 CA 37.68 C 37.16 O 38.17 CB 39.82 CG 43.42 OD1 43.36 OD2 47.75
C ALA T 12 -86.3 -2.6 N 36.08 CA 33.37 C 33.04 O 34.59 CB 31.6
C GLY T 0 94.7 24.4 N 31.83 CA 32.14 C 30.79 O 30.32
C ALA - 1 -71.6 155.4 N 30.13 CA 30.81 C 31.19 O 30.24 CB 31.18
C ASN S 7 -83.2 -13.4 N 31.35 CA 32.79 C 33.27 O 35.59 CB 34.49 CG 36.94 OD1 39.88 ND2 38.37
C GLY E 0 -179.2 168.9 N 33.17 CA 31.9 C 31.39 O 30.59
C PHE E 0 -144.0 126.6 N 32.85 CA 33.9 C 34.18 O 33.16 CB 36.73 CG 38.85 CD1 40.75 CD2 40.6 CE1 42.96 CE2 42.03 CZ 43.36
C VAL E 0 -133.6 130.3 N 37.32 CA 38.07 C 39.76 O 39.86 CB 38.62 CG1 39.87 CG2 38.24
C SER E 2 -79.7 126.8 N 41.24 CA 44.33 C 46.15 O 47.16 CB 45.44 OG 49.85
C LYS G 15 -70.5 -26.0 N 49.26 CA 51.22 C 56.78 O 60.11 CB 51.47 CG 51.85 CD 53.43 CE 53.27 NZ 54.85
C LYS G 150 -57.4 -25.8 N 61.8 CA 65.41 C 70.97 O 70.97 CB 68.11 CG 77.57 CD 84.88 CE 91.87 NZ 94.07
C GLU G 101 -91.2 18.1 N 81.13 CA 85.89 C 79.44 O 71.8 CB 95.14 CG 101.4 CD 106.7 OE1 112.97 OE2 109.77
C GLY - 30 84.4 163.0 N 75.59 CA 71.76 C 66.64 O 63.76
C MET T 36 -73.0 -23.9 N 63.08 CA 62.53 C 62.29 O 64.71 CB 63.23 CG 64.68 SD 66.85 CE 67.63
C ASN H 115 -63.4 -24.4 N 61.65 CA 62.17 C 59.68 O 59.39 CB 66.61 CG 76.05 OD1 76.49 ND2 75.93
C ASN H 11 -63.2 -30.3 N 53.06 CA 49.13 C 46.43 O 45.48 CB 49.41 CG 46.99 OD1 44.81 ND2 46.06
C ILE H 0 -66.5 -40.9 N 44.57 CA 42.58 C 42.23 O 43.39 CB 42.52 CG1 42.65 CG2 42.17 CD1 42.51
C ILE H 17 -72.9 -27.9 N 41.61 CA 42.72 C 39.01 O 39.66 CB 45.64 CG1 50.24 CG2 45.1 CD1 52.77
C ALA H 33 -71.5 -36.4 N 37.24 CA 37.73 C 35.55 O 35.73 CB 39.4
C ALA H 0 -61.8 -42.3 N 33.57 CA 33.09 C 34.05 O 33.7 CB 32.57
C ILE H 1 -65.3 -40.6 N 36.21 CA 37.52 C 38.06 O 36.58 CB 38.67 CG1 38.9 CG2 39.59 CD1 39.29
C GLU H 84 -65.4 -43.9 N 40.58 CA 44.96 C 43.77 O 45.77 CB 52.35 CG 58.0 CD 64.48 OE1 67.59 OE2 66.29
C ALA H 1 -55.1 -49.4 N 42.88 CA 43.08 C 42.83 O 40.83 CB 43.25
C ALA H 10 -62.7 -41.3 N 43.69 CA 43.29 C 43.21 O 44.35 CB 42.98
C LYS H 105 -55.2 -36.6 N 42.66 CA 42.26 C 40.4 O 40.87 CB 46.24 CG 50.27 CD 55.49 CE 58.6 NZ 60.17
C ASN T 86 -87.4 -2.3 N 39.32 CA 39.25 C 38.43 O 37.24 CB 39.26 CG 39.9 OD1 43.69 ND2 39.84
C GLY T 27 104.9 5.1 N 38.2 CA 37.6 C 35.57 O 34.39
C TYR E 10 -112.7 169.0 N 34.4 CA 34.68 C 36.23 O 37.04 CB 34.21 CG 33.93 CD1 33.92 CD2 34.21 CE1 34.5 CE2 34.66 CZ 34.65 OH 35.19
C CYS E 13 -128.8 164.6 N 37.11 CA 38.17 C 35.98 O 36.88 CB 40.99 SG 50.4
C TYR E 4 -139.5 97.6 N 33.64 CA 31.52 C 31.0 O 31.24 CB 31.62 CG 32.15 CD1 32.36 CD2 32.44 CE1 32.9 CE2 32.76 CZ 33.43 OH 34.6
C PHE E 19 -131.7 153.7 N 30.52 CA 31.19 C 30.76 O 29.61 CB 32.66 CG 32.85 CD1 33.35 CD2 33.23 CE1 32.8 CE2 33.77 CZ 33.07
C PRO E 16 -62.2 142.6 N 31.71 CA 32.43 C 32.16 O 32.25 CB 32.28 CG 31.57 CD 31.01
C PHE - 33 -107.6 128.2 N 33.37 CA 34.16 C 39.09 O 41.54 CB 32.13 CG 31.26 CD1 30.66 CD2 31.63 CE1 30.2 CE2 32.43 CZ 31.54
C SER - 14 -118.3 108.4 N 46.01 CA 50.63 C 48.45 O 49.89 CB 57.8 OG 65.96
C LEU G 40 -60.5 -12.6 N 47.31 CA 49.01 C 52.07 O 49.21 CB 49.7 CG 52.36 CD1 51.56 CD2 53.89
C ASN G 65 -66.8 -32.0 N 59.03 CA 67.18 C 64.86 O 68.38 CB 71.98 CG 76.52 OD1 76.48 ND2 80.65
C ARG G 85 -64.9 -23.4 N 59.57 CA 58.91 C 55.94 O 58.39 CB 62.78 CG 68.88 CD 77.67 NE 85.88 CZ 85.75 NH1 82.36 NH2 86.17
C PHE T 41 -115.4 -23.8 N 50.01 CA 47.17 C 51.59 O 52.42 CB 42.88 CG 38.01 CD1 35.76 CD2 35.57 CE1 35.24 CE2 33.89 CZ 33.98
C VAL S 15 -140.2 159.8 N 57.91 CA 64.18 C 66.36 O 66.2 CB 63.63 CG1 62.71 CG2 63.55
C GLY S 33 78.5 -161.7 N 68.11 CA 67.33 C 67.47 O 64.26
C SER S 119 -115.0 18.5 N 70.64 CA 74.01 C 77.55 O 84.49 CB 72.9 OG 72.88
C LEU - 34 -125.3 35.5 N 74.63 CA 77.87 C 76.32 O 73.31 CB 80.03 CG 81.71 CD1 81.3 CD2 78.73
C THR H 66 -54.8 -41.6 N 81.05 CA 86.31 C 90.19 O 90.75 CB 88.11 OG1 91.19 CG2 87.25
C SER H 55 -81.4 -37.3 N 96.55 CA 96.26 C 95.68 O 92.38 CB 94.95 OG 96.4
C ASP H 14 -69.5 -36.2 N 99.48 CA 97.74 C 94.58 O 92.06 CB 96.16 CG 99.03 OD1 96.24 OD2 98.62
C GLN H 10 -65.1 -50.4 N 94.9 CA 93.34 C 92.76 O 90.61 CB 90.49 CG 86.53 CD 83.93 OE1 78.34 NE2 82.1
C GLN H 143 -52.4 -33.9 N 94.73 CA 98.24 C 98.81 O 100.8 CB 100.81 CG 102.78 CD 105.41 OE1 105.7 NE2 106.37
C LYS H 41 -72.1 -40.6 N 94.58 CA 87.62 C 78.6 O 71.69 CB 89.48 CG 89.8 CD 91.88 CE 92.73 NZ 93.98
C LEU H 2 -60.1 -40.7 N 70.16 CA 70.95 C 75.23 O 71.97 CB 72.27 CG 79.49 CD1 80.36 CD2 80.52
C ASP H 18 -69.8 -22.2 N 77.75 CA 76.59 C 72.91 O 71.67 CB 77.37 CG 78.73 OD1 77.21 OD2 74.7
C SER H 58 -84.4 -20.7 N 75.72 CA 75.5 C 75.71 O 71.53 CB 75.49 OG 75.14
C LEU S 7 -57.2 159.1 N 76.45 CA 72.11 C 74.46 O 67.01 CB 65.06 CG 65.74 CD1 64.4 CD2 67.67
C SER - 43 -92.6 157.0 N 80.59 CA 81.5 C 81.04 O 74.25 CB 82.47 OG 86.63
C LYS H 31 -42.4 -46.2 N 76.3 CA 73.59 C 71.86 O 72.23 CB 78.51 CG 79.1 CD 81.08 CE 83.74 NZ 81.78
C GLN H 45 -61.5 -41.6 N 70.1 CA 68.88 C 68.41 O 64.48 CB 68.92 CG 69.14 CD 74.09 OE1 74.57 NE2 76.79
C GLU H 8 -73.2 -42.4 N 74.98 CA 82.28 C 78.84 O 70.9 CB 90.73 CG 95.8 CD 99.17 OE1 95.8 OE2 103.05
C ILE H 0 -50.3 -50.6 N 75.8 CA 73.73 C 67.9 O 61.2 CB 76.53 CG1 78.29 CG2 77.36 CD1 74.43
C SER H 9 -57.5 -44.2 N 64.11 CA 63.39 C 62.75 O 63.44 CB 60.12 OG 56.62
C VAL H 0 -69.7 -39.8 N 65.88 CA 71.8 C 71.48 O 67.1 CB 73.33 CG1 72.98 CG2 71.52
C MET H 5 -47.0 -63.8 N 71.47 CA 79.77 C 76.69 O 70.51 CB 85.29 CG 90.26 SD 96.04 CE 96.62
C ARG H 10 -56.9 -39.5 N 73.82 CA 71.29 C 70.3 O 72.58 CB 71.62 CG 72.41 CD 70.87 NE 69.5 CZ 69.87 NH1 72.24 NH2 70.69
C TYR H 52 -68.2 -35.9 N 71.86 CA 76.14 C 79.58 O 75.36 CB 78.11 CG 76.44 CD1 73.16 CD2 77.61 CE1 69.57 CE2 72.97 CZ 70.02 OH 64.86
C ILE H 36 -68.5 -47.5 N 83.68 CA 91.71 C 91.0 O 88.63 CB 94.34 CG1 90.66 CG2 95.17 CD1 88.01
C LEU H 59 -57.3 -38.2 N 89.69 CA 86.46 C 85.63 O 91.78 CB 84.47 CG 85.96 CD1 85.12 CD2 92.55
C ASP T 96 -79.8 25.5 N 84.84 CA 83.18 C 79.13 O 73.33 CB 84.17 CG 89.06 OD1 89.09 OD2 90.96
C GLY T 64 47.6 42.7 N 79.54 CA 82.4 C 83.91 O 81.01
C LYS - 83 -84.6 134.1 N 86.47 CA 91.18 C 87.57 O 79.13 CB 94.06 CG 100.64 CD 103.09 CE 103.65 NZ 102.82
C ASP - 103 -49.7 121.1 N 86.65 CA 91.9 C 95.21 O 97.52 CB 95.69 CG 97.38 OD1 94.45 OD2 98.31
C ASN H 46 -41.8 -44.0 N 94.7 CA 90.52 C 88.82 O 80.87 CB 89.55 CG 87.9 OD1 89.21 ND2 85.86
C ASN H 97 -68.3 -12.3 N 88.75 CA 83.24 C 77.2 O 69.48 CB 86.94 CG 89.59 OD1 92.0 ND2 89.74
C ASP H 37 -102.8 -35.0 N 80.68 CA 82.31 C 76.23 O 75.43 CB 91.43 CG 97.71 OD1 99.56 OD2 102.87
C ILE H 2 -50.1 -41.3 N 69.01 CA 65.25 C 63.8 O 66.4 CB 64.35 CG1 65.29 CG2 61.96 CD1 66.01
C ALA H 9 -61.7 -40.5 N 61.07 CA 58.94 C 58.04 O 59.08 CB 59.35
C GLU H 140 -63.3 -34.7 N 59.17 CA 60.79 C 57.44 O 53.51 CB 68.24 CG 72.71 CD 79.54 OE1 79.67 OE2 81.2
C LYS H 94 -83.4 -41.5 N 56.44 CA 56.9 C 48.74 O 45.55 CB 62.78 CG 69.23 CD 73.4 CE 77.7 NZ 80.87
C MET H 37 -89.3 -1.9 N 45.83 CA 43.38 C 43.8 O 45.71 CB 43.22 CG 43.87 SD 45.94 CE 45.35
C PHE T 143 56.2 55.8 N 42.47 CA 42.18 C 41.27 O 39.63 CB 41.69 CG 42.09 CD1 42.56 CD2 42.84 CE1 43.08 CE2 43.43 CZ 42.96
C ILE - 50 -141.7 173.1 N 42.59 CA 43.47 C 45.31 O 45.0 CB 43.01 CG1 45.59 CG2 40.92 CD1 47.37
C SER - 58 -80.3 158.0 N 47.75 CA 50.01 C 52.69 O 51.71 CB 50.71 OG 51.43
C ASN H 70 -51.8 -49.6 N 53.7 CA 55.01 C 56.73 O 57.31 CB 55.57 CG 56.96 OD1 52.83 ND2 61.33
C LYS H 164 -54.0 -41.8 N 61.68 CA 66.42 C 63.98 O 65.69 CB 72.25 CG 77.72 CD 84.65 CE 90.34 NZ 91.14
C THR H 46 -65.2 -31.9 N 61.74 CA 59.88 C 60.84 O 60.07 CB 54.43 OG1 53.47 CG2 52.27
C VAL H 0 -61.1 -59.1 N 61.55 CA 61.37 C 65.13 O 63.68 CB 60.23 CG1 60.78 CG2 58.27
C SER H 53 -49.6 -45.9 N 65.92 CA 65.48 C 64.55 O 67.99 CB 65.16 OG 66.07
C THR H 51 -56.1 -46.6 N 64.01 CA 67.63 C 69.72 O 75.03 CB 67.33 OG1 69.82 CG2 64.9
C TYR H 47 -67.3 -40.7 N 68.35 CA 68.42 C 70.58 O 68.41 CB 66.94 CG 66.43 CD1 65.85 CD2 62.49 CE1 63.02 CE2 60.95 CZ 61.72 OH 60.86
C LYS H 81 -46.4 -50.2 N 72.07 CA 78.64 C 82.72 O 80.04 CB 80.01 CG 80.96 CD 83.64 CE 87.57 NZ 89.15
C SER H 71 -68.4 -60.3 N 86.15 CA 88.13 C 88.53 O 88.01 CB 88.08 OG 86.62
C ARG H 143 -48.3 -26.8 N 94.75 CA 104.68 C 112.35 O 104.5 CB 102.09 CG 101.39 CD 103.51 NE 102.18 CZ 99.23 NH1 96.11 NH2 102.4
C LEU H 0 -66.8 -73.2 N 121.31 CA 120.88 C 116.79 O 108.93 CB 123.49 CG 123.43 CD1 119.12 CD2 118.39
C MET I 35 -24.7 -59.2 N 110.19 CA 108.38 C 109.07 O 109.68 CB 108.14 CG 107.11 SD 103.17 CE 107.58
C GLU I 150 -71.3 -40.1 N 113.42 CA 115.82 C 112.51 O 114.26 CB 116.8 CG 113.46 CD 111.19 OE1 109.69 OE2 106.25
C LYS I 75 -49.1 -52.7 N 111.76 CA 109.95 C 111.94 O 103.27 CB 103.36 CG 97.09 CD 92.72 CE 90.28 NZ 86.91
C LEU I 4 -85.3 -12.4 N 118.16 CA 118.39 C 116.69 O 111.62 CB 115.28 CG 107.14 CD1 106.23 CD2 101.9
C GLU I 150 77.4 32.1 N 114.57 CA 115.88 C 110.85 O 110.01 CB 117.77 CG 114.7 CD 111.88 OE1 105.27 OE2 110.75
C CYS - 11 -96.2 153.5 N 104.16 CA 102.24 C 107.16 O 105.5 CB 98.64 SG 97.71
C LYS - 185 -98.4 -56.5 N 110.89 CA 115.8 C 115.32 O 119.96 CB 120.07 CG 120.82 CD 119.03 CE 119.6 NZ 119.34
C SER S 60 -119.7 171.0 N 114.44 CA 113.84 C 113.91 O 101.72 CB 113.2 OG 106.51
C LEU H 112 -37.1 -48.0 N 119.25 CA 118.84 C 123.1 O 111.61 CB 118.66 CG 116.94 CD1 112.25 CD2 114.62
C MET H 118 -80.2 -29.9 N 135.32 CA 143.12 C 147.59 O 151.61 CB 145.5 CG 147.26 SD 148.46 CE 142.92
C ASP H 81 -59.5 -57.6 N 146.68 CA 142.99 C 145.44 O 148.1 CB 137.25 CG 134.35 OD1 128.64 OD2 130.54
C LEU H 7 -50.1 -53.2 N 139.56 CA 131.46 C 124.6 O 113.35 CB 128.6 CG 120.58 CD1 115.35 CD2 118.02
C TYR H 138 -45.1 -44.8 N 120.79 CA 119.82 C 114.48 O 102.96 CB 122.5 CG 121.79 CD1 119.15 CD2 121.42 CE1 118.64 CE2 122.14 CZ 121.62 OH 122.54
C THR H 75 -80.9 -23.2 N 118.05 CA 120.24 C 122.05 O 123.25 CB 114.66 OG1 111.19 CG2 110.17
C PHE H 8 -62.1 -40.5 N 119.33 CA 115.13 C 115.36 O 101.39 CB 107.13 CG 106.86 CD1 107.5 CD2 106.99 CE1 104.25 CE2 103.94 CZ 104.07
C ALA H 7 -68.1 -42.4 N 118.59 CA 114.32 C 109.73 O 103.81 CB 112.29
C GLN H 103 -56.0 -53.5 N 105.79 CA 99.22 C 93.87 O 86.94 CB 102.18 CG 105.98 CD 105.22 OE1 102.25 NE2 102.77
C ARG H 117 -57.5 -45.5 N 95.21 CA 96.17 C 98.05 O 92.03 CB 93.31 CG 90.24 CD 93.24 NE 94.41 CZ 90.66 NH1 90.54 NH2 87.7
C ASN T 22 -104.6 20.3 N 102.68 CA 99.36 C 103.68 O 102.83 CB 92.47 CG 87.79 OD1 82.28 ND2 86.89
C LYS T 172 63.3 74.5 N 113.73 CA 113.43 C 107.81 O 95.47 CB 112.82 CG 113.63 CD 113.73 CE 111.92 NZ 108.99
C ILE - 76 -149.9 360.0 N 112.25 CA 111.08 C 100.87 O 90.62 CB 113.57 CG1 112.45 CG2 112.22 CD1 111.13
D ALA - 137 360.0 -134.6 N 78.17 CA 80.1 C 74.97 O 74.51 CB 79.86
D MET E 33 -163.0 139.9 N 67.85 CA 60.6 C 53.79 O 56.25 CB 64.68 CG 68.48 SD 77.75 CE 80.35
D ASN E 29 -140.5 167.6 N 43.94 CA 39.82 C 37.21 O 37.39 CB 39.7 CG 38.16 OD1 37.81 ND2 37.92
D ALA E 0 -151.7 157.4 N 34.69 CA 32.17 C 31.63 O 30.99 CB 31.87
D ILE E 0 -117.3 131.7 N 31.83 CA 32.64 C 32.22 O 32.75 CB 32.47 CG1 33.48 CG2 33.71 CD1 33.59
D ILE E 1 -104.9 131.1 N 31.31 CA 32.08 C 29.87 O 29.29 CB 33.62 CG1 35.31 CG2 32.32 CD1 37.22
D ILE E 1 -127.1 100.4 N 27.79 CA 27.3 C 28.95 O 31.36 CB 25.81 CG1 25.87 CG2 25.52 CD1 25.27
D ASP - 2 -153.7 133.0 N 30.33 CA 30.96 C 30.34 O 31.28 CB 32.37 CG 34.11 OD1 33.69 OD2 33.57
D ASP S 76 -89.4 -2.5 N 30.72 CA 33.08 C 33.14 O 34.3 CB 35.17 CG 37.87 OD1 46.31 OD2 42.64
D HIS - 89 -88.9 114.6 N 32.86 CA 32.71 C 32.24 O 35.34 CB 32.74 CG 33.67 ND1 35.81 CD2 33.11 CE1 35.36 NE2 34.11
D PRO H 94 -53.3 -46.1 N 34.09 CA 34.88 C 35.11 O 35.2 CB 35.19 CG 34.15 CD 34.8
D LEU H 132 -64.4 -36.8 N 35.59 CA 36.72 C 34.68 O 34.73 CB 37.88 CG 40.07 CD1 40.98 CD2 40.95
D ALA H 11 -68.0 -42.9 N 32.2 CA 31.41 C 31.98 O 30.29 CB 29.96
D ILE H 18 -53.9 -47.6 N 32.86 CA 34.7 C 33.87 O 33.65 CB 37.24 CG1 40.42 CG2 38.52 CD1 40.42
D ALA H 43 -62.3 -47.3 N 33.66 CA 33.89 C 32.22 O 33.58 CB 35.32
D ALA H 36 -67.8 -36.8 N 29.69 CA 29.29 C 29.94 O 30.57 CB 28.96
D ILE H 0 -67.9 -48.5 N 29.77 CA 29.61 C 30.77 O 30.61 CB 28.88 CG1 29.06 CG2 29.71 CD1 29.17
D ARG H 92 -52.2 -52.0 N 32.78 CA 35.02 C 36.63 O 35.32 CB 36.56 CG 38.61 CD 40.77 NE 41.8 CZ 41.86 NH1 41.63 NH2 43.57
D ASN H 97 -60.4 -39.9 N 38.87 CA 43.09 C 40.8 O 42.71 CB 49.01 CG 57.47 OD1 60.45 ND2 60.67
D LEU H 13 -63.0 -42.2 N 37.21 CA 36.37 C 37.4 O 36.7 CB 35.7 CG 35.71 CD1 35.97 CD2 35.45
D LEU H 0 -70.0 -41.3 N 38.28 CA 39.91 C 42.53 O 41.33 CB 39.92 CG 39.91 CD1 39.75 CD2 39.15
D ILE H 98 -56.3 -52.8 N 44.95 CA 46.06 C 47.42 O 50.24 CB 48.6 CG1 49.76 CG2 47.97 CD1 50.27
D LYS H 164 -50.5 -26.1 N 47.52 CA 48.14 C 45.92 O 47.35 CB 51.41 CG 57.74 CD 62.94 CE 68.19 NZ 70.74
D ASN T 65 -109.2 28.3 N 43.21 CA 42.18 C 43.4 O 40.98 CB 39.17 CG 38.03 OD1 36.69 ND2 38.59
D ASP T 136 53.6 38.8 N 48.0 CA 53.01 C 49.38 O 52.1 CB 58.29 CG 67.25 OD1 67.27 OD2 74.16
D ILE E 7 -108.5 127.8 N 45.63 CA 42.54 C 42.97 O 45.39 CB 41.11 CG1 40.48 CG2 39.59 CD1 41.27
D GLU E 120 -93.4 138.8 N 44.26 CA 44.86 C 41.74 O 42.48 CB 49.7 CG 56.21 CD 59.53 OE1 63.71 OE2 57.21
D ILE E 39 -102.2 110.0 N 39.69 CA 37.18 C 34.78 O 33.6 CB 38.23 CG1 40.81 CG2 37.24 CD1 43.61
D LEU E 54 -70.9 -32.5 N 32.43 CA 31.89 C 31.06 O 31.36 CB 31.77 CG 32.05 CD1 31.36 CD2 32.71
D ALA E 10 -169.7 160.6 N 30.12 CA 29.91 C 29.26 O 28.04 CB 30.12
D GLU E 76 -135.2 125.9 N 29.58 CA 29.75 C 29.35 O 29.42 CB 30.41 CG 31.98 CD 35.04 OE1 34.79 OE2 37.02
D LEU E 10 -120.4 152.7 N 28.45 CA 28.47 C 28.67 O 28.67 CB 28.8 CG 29.33 CD1 29.76 CD2 28.99
D THR S 80 -126.0 11.4 N 28.77 CA 28.72 C 29.96 O 29.81 CB 27.82 OG1 27.59 CG2 27.78
D GLU - 67 -155.0 159.0 N 31.62 CA 31.51 C 30.51 O 28.51 CB 33.64 CG 36.73 CD 41.24 OE1 44.43 OE2 43.94
D GLY S 1 -95.1 -5.5 N 30.81 CA 31.04 C 32.23 O 33.93
D GLY T 56 -76.9 -20.2 N 31.87 CA 31.07 C 30.22 O 30.0
D SER T 36 -103.1 -1.3 N 30.42 CA 31.61 C 29.52 O 28.34 CB 34.47 OG 37.28
D ALA H 0 -61.9 -50.0 N 28.2 CA 27.38 C 25.92 O 25.23 CB 27.4
D VAL H 29 -52.9 -51.6 N 25.04 CA 25.89 C 27.1 O 25.77 CB 25.14 CG1 24.6 CG2 24.68
D GLN H 135 -58.4 -47.8 N 30.11 CA 34.4 C 34.0 O 35.62 CB 38.26 CG 42.05 CD 46.62 OE1 48.0 NE2 51.49
D ARG H 100 -68.7 -35.7 N 33.72 CA 35.11 C 33.84 O 34.07 CB 37.19 CG 40.74 CD 43.55 NE 46.09 CZ 46.65 NH1 47.42 NH2 47.34
D VAL H 0 -63.5 -48.9 N 32.12 CA 30.87 C 29.85 O 29.52 CB 31.24 CG1 30.96 CG2 31.73
D GLU H 50 -64.3 -43.6 N 29.6 CA 29.88 C 30.93 O 31.74 CB 29.33 CG 28.43 CD 27.89 OE1 26.93 OE2 27.39
D THR H 92 -57.8 -68.3 N 31.56 CA 32.66 C 32.98 O 34.54 CB 35.28 OG1 37.53 CG2 36.94
D LEU H 60 -72.3 -17.7 N 32.83 CA 32.58 C 33.63 O 35.55 CB 31.96 CG 31.67 CD1 31.34 CD2 31.16
D LYS - 156 44.2 61.2 N 34.69 CA 36.17 C 35.46 O 35.05 CB 40.34 CG 48.87 CD 54.12 CE 60.1 NZ 67.1
D PRO - 3 -78.8 155.3 N 34.71 CA 34.12 C 34.61 O 35.97 CB 34.2 CG 33.3 CD 34.72
D ASP S 67 -58.1 -41.5 N 35.66 CA 37.9 C 38.06 O 40.32 CB 40.14 CG 40.81 OD1 41.24 OD2 42.21
D ILE E 0 -127.5 133.7 N 34.93 CA 32.33 C 30.35 O 30.37 CB 32.74 CG1 32.79 CG2 33.29 CD1 34.32
D VAL E 0 -117.7 130.8 N 29.29 CA 28.4 C 27.15 O 27.62 CB 27.78 CG1 27.86 CG2 28.01
D ILE E 1 -115.3 119.9 N 26.67 CA 26.94 C 26.5 O 26.39 CB 27.29 CG1 28.76 CG2 27.74 CD1 30.19
D ILE E 0 -130.3 130.7 N 26.64 CA 27.22 C 27.72 O 26.96 CB 28.56 CG1 29.75 CG2 29.94 CD1 30.94
D ASP E 5 -75.2 141.8 N 28.49 CA 29.4 C 27.74 O 25.85 CB 30.23 CG 32.78 OD1 35.62 OD2 34.77
D VAL T 1 -68.5 -18.9 N 27.79 CA 28.25 C 26.55 O 26.81 CB 29.68 CG1 30.19 CG2 31.63
D ASP T 50 -109.6 15.7 N 25.38 CA 24.82 C 25.52 O 27.61 CB 24.13 CG 24.6 OD1 23.91 OD2 25.79
D ILE - 5 -50.1 144.6 N 24.76 CA 25.43 C 24.42 O 23.46 CB 26.93 CG1 28.25 CG2 27.49 CD1 28.9
D PRO S 60 -77.4 159.6 N 24.81 CA 25.45 C 26.07 O 25.29 CB 25.36 CG 25.07 CD 24.69
D GLY S 41 96.6 -73.7 N 27.96 CA 30.36 C 30.7 O 31.61
D VAL S 48 -129.6 121.4 N 30.61 CA 31.16 C 30.73 O 30.31 CB 31.2 CG1 31.11 CG2 30.43
D ASN - 31 -73.1 164.8 N 30.28 CA 30.54 C 28.15 O 27.19 CB 32.49 CG 35.99 OD1 39.72 ND2 38.86
D GLY H 0 -55.5 -33.4 N 26.98 CA 27.03 C 27.33 O 27.84
D ILE H 2 -81.7 -23.4 N 28.35 CA 29.15 C 29.3 O 30.87 CB 30.27 CG1 34.08 CG2 31.06 CD1 36.7
D GLN H 65 -76.6 -26.5 N 29.91 CA 30.62 C 27.63 O 29.31 CB 35.14 CG 40.49 CD 43.48 OE1 41.34 NE2 44.37
D VAL H 0 -74.8 -43.6 N 25.53 CA 24.66 C 24.63 O 25.29 CB 24.35 CG1 24.09 CG2 24.16
D LEU H 0 -59.6 -55.0 N 25.38 CA 25.7 C 27.0 O 27.62 CB 25.9 CG 25.59 CD1 26.08 CD2 25.3
D GLU H 62 -52.8 -41.0 N 29.24 CA 32.0 C 28.39 O 28.57 CB 39.39 CG 49.05 CD 62.43 OE1 74.03 OE2 77.0
D THR H 40 -72.4 -43.2 N 24.8 CA 23.49 C 22.65 O 22.22 CB 23.11 OG1 22.83 CG2 22.61
D LEU H 0 -57.6 -43.8 N 22.32 CA 22.5 C 23.34 O 23.23 CB 22.34 CG 22.45 CD1 22.31 CD2 22.79
D ARG H 5 -73.6 -35.5 N 23.78 CA 23.91 C 25.43 O 25.41 CB 23.1 CG 22.83 CD 22.95 NE 23.08 CZ 23.41 NH1 23.84 NH2 24.05
D LYS H 169 -62.8 -34.8 N 26.76 CA 29.38 C 27.64 O 27.95 CB 33.99 CG 39.65 CD 45.87 CE 51.03 NZ 54.94
D ARG T 143 -92.4 26.2 N 26.04 CA 25.48 C 24.69 O 24.59 CB 24.8 CG 24.31 CD 23.86 NE 23.81 CZ 23.77 NH1 24.21 NH2 23.78
D GLN T 99 64.1 21.7 N 24.51 CA 24.8 C 25.43 O 26.28 CB 24.3 CG 24.67 CD 24.98 OE1 25.78 NE2 25.42
D TYR - 26 -71.9 138.1 N 26.68 CA 26.73 C 25.99 O 25.36 CB 26.89 CG 27.77 CD1 28.4 CD2 28.17 CE1 28.32 CE2 28.7 CZ 29.03 OH 32.68
D SER - 74 -126.6 10.8 N 25.36 CA 26.07 C 24.92 O 24.89 CB 27.19 OG 28.82
D GLY S 16 -69.3 169.5 N 24.18 CA 23.48 C 22.53 O 21.27
D ILE E 24 -73.3 119.6 N 21.77 CA 21.25 C 21.24 O 20.64 CB 21.16 CG1 20.79 CG2 21.5 CD1 20.73
D ILE E 0 -117.9 116.7 N 21.52 CA 22.17 C 21.83 O 22.41 CB 22.72 CG1 23.8 CG2 22.72 CD1 24.36
D ILE E 0 -110.5 124.6 N 21.5 CA 21.1 C 20.68 O 20.74 CB 21.24 CG1 21.71 CG2 21.52 CD1 22.41
D ILE E 0 -91.9 146.5 N 20.06 CA 20.14 C 20.92 O 21.11 CB 20.18 CG1 20.23 CG2 20.34 CD1 20.43
D VAL E 0 -137.2 157.5 N 21.6 CA 22.24 C 22.99 O 22.56 CB 22.54 CG1 22.63 CG2 22.26
D SER E 0 -141.9 151.2 N 24.32 CA 25.05 C 26.96 O 27.82 CB 24.66 OG 24.48
D ALA S 49 -84.2 -26.7 N 29.23 CA 32.09 C 35.72 O 37.24 CB 30.31
D LYS S 55 -85.3 175.8 N 39.52 CA 43.62 C 46.9 O 47.27 CB 46.92 CG 52.69 CD 61.12 CE 65.0 NZ 63.84
D ASN - 70 -70.7 -51.2 N 50.52 CA 53.72 C 49.13 O 46.5 CB 60.64 CG 62.91 OD1 64.96 ND2 63.68
D ASP - 11 50.5 40.7 N 46.1 CA 42.54 C 43.79 O 45.51 CB 40.27 CG 40.63 OD1 43.18 OD2 38.57
D HIS G 69 -67.5 -34.5 N 46.79 CA 47.83 C 43.87 O 41.95 CB 53.04 CG 58.2 ND1 60.56 CD2 60.65 CE1 60.43 NE2 60.99
D PHE G 10 -65.0 -18.6 N 41.14 CA 40.58 C 38.8 O 40.48 CB 41.92 CG 43.18 CD1 41.16 CD2 43.26 CE1 41.96 CE2 44.3 CZ 43.61
D TYR G 1 -79.7 -28.1 N 36.26 CA 34.66 C 34.79 O 32.22 CB 33.11 CG 32.16 CD1 33.07 CD2 31.43 CE1 33.78 CE2 31.73 CZ 33.23 OH 34.23
D GLY H 1 -53.6 -42.6 N 34.85 CA 35.79 C 36.03 O 37.46
D LYS H 71 -58.6 -42.5 N 37.63 CA 39.38 C 38.0 O 35.33 CB 44.7 CG 51.42 CD 58.58 CE 64.79 NZ 69.12
D HIS H 5 -69.0 -33.8 N 35.53 CA 34.63 C 33.61 O 36.14 CB 35.9 CG 38.34 ND1 39.54 CD2 40.04 CE1 39.75 NE2 40.33
D CYS H 0 -68.5 -40.9 N 32.62 CA 32.81 C 31.67 O 31.27 CB 34.48 SG 42.08
D ALA H 28 -60.4 -45.7 N 30.53 CA 29.8 C 29.19 O 27.49 CB 29.54
D ASP H 82 -58.9 -34.4 N 30.13 CA 30.79 C 29.34 O 29.01 CB 32.96 CG 36.34 OD1 35.77 OD2 37.36
D ALA H 10 -78.3 -7.9 N 28.13 CA 26.43 C 24.95 O 24.34 CB 26.36
D GLY T 0 104.1 16.2 N 24.78 CA 24.68 C 24.22 O 23.86
D ALA - 1 -67.2 153.3 N 23.57 CA 23.62 C 24.62 O 24.13 CB 23.82
D ASN S 7 -83.5 -14.1 N 24.9 CA 25.13 C 25.75 O 25.42 CB 25.51 CG 26.36 OD1 26.59 ND2 26.92
D GLY E 0 176.5 170.1 N 25.99 CA 25.96 C 25.5 O 25.02
D PHE E 0 -145.3 128.4 N 25.91 CA 25.62 C 25.79 O 25.39 CB 25.86 CG 24.95 CD1 24.49 CD2 25.6 CE1 24.07 CE2 25.53 CZ 24.35
D VAL E 0 -138.6 132.8 N 26.4 CA 26.99 C 27.71 O 26.05 CB 26.87 CG1 29.21 CG2 26.04
D SER E 2 -86.3 136.0 N 29.94 CA 32.91 C 33.75 O 35.23 CB 34.37 OG 36.43
D LYS S 26 -83.5 -9.0 N 33.86 CA 35.45 C 39.54 O 41.27 CB 35.71 CG 35.82 CD 34.88 CE 34.49 NZ 33.29
D LYS T 135 -54.8 -45.0 N 41.82 CA 43.04 C 44.83 O 45.67 CB 44.81 CG 48.21 CD 50.16 CE 55.27 NZ 58.66
D GLU T 155 -86.5 15.6 N 48.54 CA 51.18 C 48.24 O 49.94 CB 53.54 CG 58.87 CD 68.15 OE1 66.04 OE2 71.22
D GLY - 28 94.5 -166.4 N 45.42 CA 46.65 C 48.44 O 48.34
D MET S 33 -97.0 -7.1 N 48.26 CA 46.79 C 47.12 O 50.01 CB 47.96 CG 48.35 SD 44.81 CE 42.36
D ASN H 118 -71.3 -22.2 N 47.02 CA 47.94 C 42.11 O 44.12 CB 53.26 CG 59.52 OD1 60.55 ND2 64.77
D ASN H 12 -76.7 -19.7 N 37.32 CA 34.92 C 33.69 O 32.85 CB 34.77 CG 35.94 OD1 37.61 ND2 37.35
D ILE H 0 -70.6 -47.7 N 32.82 CA 31.93 C 32.22 O 32.23 CB 31.33 CG1 31.74 CG2 30.22 CD1 31.58
D ILE H 24 -66.3 -35.0 N 32.35 CA 33.13 C 31.66 O 33.68 CB 35.33 CG1 36.5 CG2 36.81 CD1 37.71
D ALA H 30 -62.9 -40.8 N 30.55 CA 30.45 C 29.31 O 29.71 CB 30.58
D ALA H 1 -65.3 -38.5 N 28.65 CA 28.33 C 28.43 O 28.49 CB 27.64
D ILE H 0 -67.9 -37.4 N 28.91 CA 30.26 C 31.78 O 29.79 CB 31.58 CG1 32.54 CG2 31.7 CD1 32.51
D GLU H 82 -63.2 -51.2 N 34.44 CA 36.18 C 33.93 O 33.71 CB 41.18 CG 47.47 CD 52.23 OE1 52.64 OE2 57.18
D ALA H 1 -50.6 -47.2 N 31.82 CA 32.04 C 32.48 O 31.49 CB 32.24
D ALA H 13 -62.7 -46.0 N 31.69 CA 32.48 C 33.26 O 33.71 CB 33.41
D LYS H 103 -51.1 -29.3 N 34.55 CA 36.46 C 34.48 O 34.78 CB 42.7 CG 49.32 CD 58.93 CE 66.76 NZ 70.7
D ASN T 81 -100.3 11.2 N 33.26 CA 31.87 C 30.2 O 29.57 CB 32.66 CG 33.93 OD1 37.83 ND2 34.2
D GLY T 32 85.2 7.6 N 28.41 CA 28.45 C 28.95 O 29.69
D TYR E 13 -108.5 156.1 N 28.2 CA 28.16 C 28.09 O 27.13 CB 28.49 CG 29.57 CD1 29.19 CD2 29.72 CE1 29.18 CE2 29.78 CZ 29.94 OH 30.68
D CYS E 18 -114.3 162.2 N 28.08 CA 29.62 C 28.63 O 28.62 CB 30.59 SG 38.64
D TYR E 5 -151.4 99.2 N 27.77 CA 27.45 C 27.35 O 26.63 CB 27.28 CG 27.84 CD1 28.63 CD2 27.99 CE1 28.78 CE2 28.4 CZ 28.73 OH 28.67
D PHE E 16 -136.5 156.5 N 27.56 CA 26.59 C 27.41 O 27.86 CB 26.18 CG 25.58 CD1 25.22 CD2 26.32 CE1 25.77 CE2 25.81 CZ 25.88
D PRO E 10 -64.6 145.7 N 28.42 CA 29.02 C 31.05 O 29.39 CB 28.02 CG 27.2 CD 27.3
D PHE - 36 -102.8 130.6 N 34.85 CA 37.83 C 42.88 O 42.69 CB 38.44 CG 39.2 CD1 38.64 CD2 39.8 CE1 39.04 CE2 40.41 CZ 39.95
D SER - 15 -111.7 110.1 N 51.42 CA 57.18 C 55.7 O 51.92 CB 65.31 OG 69.46
D LEU G 44 -60.5 -27.6 N 56.9 CA 57.3 C 59.43 O 57.07 CB 58.72 CG 62.48 CD1 62.1 CD2 61.95
D ASN G 57 -61.3 -21.7 N 61.76 CA 63.27 C 61.56 O 57.93 CB 65.04 CG 66.16 OD1 67.8 ND2 68.31
D ARG G 52 -66.9 -33.9 N 62.78 CA 63.77 C 59.84 O 59.52 CB 68.57 CG 73.4 CD 77.42 NE 82.09 CZ 83.91 NH1 91.34 NH2 77.26
D PHE T 49 -116.5 -17.1 N 56.64 CA 57.68 C 58.43 O 59.34 CB 58.14 CG 58.83 CD1 58.04 CD2 57.32 CE1 58.03 CE2 56.52 CZ 56.63
D VAL S 20 -139.7 146.7 N 61.04 CA 59.75 C 58.88 O 56.35 CB 59.23 CG1 60.35 CG2 61.26
D GLY S 42 95.6 -171.3 N 58.94 CA 58.42 C 59.44 O 58.31
D SER T 122 -87.7 -2.1 N 60.59 CA 61.2 C 59.71 O 56.1 CB 61.64 OG 63.56
D LEU T 30 -97.9 15.5 N 61.6 CA 62.12 C 60.45 O 60.15 CB 61.8 CG 60.78 CD1 59.29 CD2 60.83
D THR H 58 -71.3 -33.5 N 58.9 CA 58.9 C 55.93 O 55.22 CB 59.53 OG1 61.47 CG2 59.98
D SER H 54 -78.8 -32.7 N 54.18 CA 54.72 C 52.78 O 52.13 CB 55.73 OG 59.55
D ASP H 18 -59.4 -40.0 N 49.99 CA 48.4 C 45.84 O 40.66 CB 51.17 CG 54.62 OD1 60.13 OD2 56.92
D GLN H 10 -76.9 -26.4 N 47.11 CA 48.51 C 49.74 O 51.21 CB 51.51 CG 54.15 CD 57.19 OE1 55.08 NE2 56.94
D GLN H 126 -78.2 -32.6 N 50.83 CA 53.45 C 50.38 O 48.68 CB 59.79 CG 65.23 CD 72.1 OE1 71.39 NE2 76.92
D LYS H 32 -54.7 -47.9 N 50.14 CA 48.18 C 45.3 O 43.72 CB 48.33 CG 51.85 CD 55.31 CE 59.21 NZ 61.93
D LEU H 2 -55.3 -42.7 N 43.31 CA 43.11 C 44.56 O 44.37 CB 43.22 CG 43.84 CD1 45.13 CD2 42.62
D ASP H 29 -63.8 -30.3 N 46.78 CA 44.76 C 41.38 O 42.25 CB 46.37 CG 49.64 OD1 58.83 OD2 47.85
D SER T 60 -69.0 -10.9 N 38.93 CA 38.04 C 38.49 O 40.93 CB 38.53 OG 40.32
D LEU - 6 -71.3 140.8 N 36.65 CA 36.49 C 36.25 O 36.89 CB 35.17 CG 34.75 CD1 34.99 CD2 34.06
D SER - 41 -60.6 150.0 N 36.2 CA 35.95 C 38.53 O 39.77 CB 35.91 OG 38.54
D LYS H 43 -46.5 -39.8 N 41.63 CA 43.58 C 42.38 O 44.35 CB 46.82 CG 55.14 CD 59.75 CE 63.64 NZ 63.12
D GLN H 46 -79.7 -37.1 N 40.02 CA 41.47 C 39.94 O 38.73 CB 46.39 CG 50.98 CD 55.78 OE1 63.17 NE2 57.05
D GLU H 7 -61.8 -39.2 N 36.57 CA 35.38 C 35.37 O 33.84 CB 36.43 CG 38.21 CD 40.27 OE1 39.65 OE2 42.34
D ILE H 0 -60.5 -42.4 N 35.37 CA 34.36 C 32.2 O 32.16 CB 35.27 CG1 38.86 CG2 34.68 CD1 41.0
D SER H 8 -59.5 -45.7 N 30.18 CA 30.0 C 28.34 O 26.69 CB 30.9 OG 31.5
D VAL H 0 -67.3 -40.3 N 27.91 CA 28.01 C 28.49 O 29.55 CB 28.59 CG1 29.54 CG2 29.3
D MET H 0 -58.2 -56.5 N 27.61 CA 27.5 C 27.29 O 28.02 CB 27.86 CG 28.72 SD 29.16 CE 28.2
D ARG H 9 -57.7 -35.5 N 27.26 CA 27.2 C 27.78 O 30.04 CB 26.6 CG 26.62 CD 26.38 NE 25.65 CZ 24.81 NH1 24.02 NH2 25.48
D TYR H 41 -68.9 -35.5 N 27.56 CA 27.76 C 27.67 O 27.17 CB 28.65 CG 29.41 CD1 30.41 CD2 30.41 CE1 30.69 CE2 30.61 CZ 30.18 OH 30.59
D ILE H 28 -67.0 -41.8 N 27.54 CA 27.55 C 27.98 O 28.24 CB 27.45 CG1 28.18 CG2 27.6 CD1 28.82
D LEU H 52 -68.2 -18.3 N 28.57 CA 30.3 C 31.79 O 30.69 CB 30.3 CG 31.0 CD1 31.47 CD2 31.14
D ASP T 90 -87.8 1.4 N 34.87 CA 39.51 C 36.9 O 35.33 CB 45.69 CG 53.29 OD1 63.05 OD2 61.36
D GLY T 65 76.2 40.5 N 37.02 CA 37.45 C 37.24 O 39.0
D LYS - 71 -96.1 154.9 N 37.65 CA 38.29 C 39.5 O 41.09 CB 39.59 CG 42.07 CD 45.59 CE 48.12 NZ 50.8
D ASP - 83 -96.5 168.7 N 42.05 CA 46.41 C 44.36 O 41.7 CB 49.77 CG 54.24 OD1 60.36 OD2 59.78
D ASN H 48 -47.8 -43.0 N 44.51 CA 48.09 C 47.22 O 47.71 CB 52.18 CG 58.43 OD1 61.99 ND2 62.67
D ASN H 94 -67.0 -43.3 N 47.6 CA 49.44 C 47.36 O 46.95 CB 54.26 CG 58.21 OD1 57.47 ND2 60.3
D ASP H 64 -59.8 -35.6 N 47.43 CA 48.87 C 44.77 O 44.38 CB 53.88 CG 62.34 OD1 69.17 OD2 69.75
D ILE H 1 -71.9 -50.4 N 39.17 CA 36.14 C 35.69 O 32.03 CB 34.74 CG1 34.2 CG2 34.63 CD1 33.18
D ALA H 9 -49.9 -41.9 N 34.69 CA 36.03 C 38.36 O 40.2 CB 36.07
D GLU H 141 -73.5 -39.4 N 41.53 CA 43.71 C 41.39 O 42.19 CB 50.9 CG 60.39 CD 73.33 OE1 88.36 OE2 76.94
D LYS H 104 -73.2 -33.4 N 38.57 CA 38.6 C 35.07 O 30.63 CB 42.9 CG 48.13 CD 54.68 CE 61.83 NZ 67.52
D MET H 27 -94.7 -3.2 N 34.39 CA 32.37 C 32.64 O 30.91 CB 32.49 CG 32.97 SD 34.16 CE 33.62
D PHE T 150 51.4 56.6 N 32.1 CA 32.6 C 34.37 O 37.52 CB 31.53 CG 31.38 CD1 31.44 CD2 32.09 CE1 30.97 CE2 31.98 CZ 30.8
D ILE - 42 -141.0 167.2 N 35.24 CA 36.25 C 38.78 O 36.07 CB 36.36 CG1 36.22 CG2 35.11 CD1 35.59
D SER - 65 -82.2 162.4 N 43.5 CA 47.53 C 48.98 O 48.41 CB 48.9 OG 50.65
D ASN H 73 -55.9 -37.9 N 49.7 CA 50.81 C 53.2 O 53.82 CB 50.99 CG 53.83 OD1 57.56 ND2 57.4
D LYS H 158 -65.4 -43.7 N 53.41 CA 56.17 C 52.0 O 53.15 CB 61.57 CG 64.45 CD 68.2 CE 72.39 NZ 75.21
D THR H 43 -60.0 -36.1 N 47.08 CA 45.23 C 43.6 O 42.82 CB 44.99 OG1 45.67 CG2 42.79
D VAL H 1 -64.4 -49.6 N 43.16 CA 42.91 C 45.26 O 47.82 CB 41.61 CG1 41.18 CG2 39.97
D SER H 52 -51.3 -48.5 N 45.62 CA 47.27 C 48.79 O 52.6 CB 49.71 OG 55.46
D THR H 47 -56.1 -55.3 N 48.14 CA 47.79 C 46.41 O 46.74 CB 47.99 OG1 48.4 CG2 47.82
D TYR H 41 -59.8 -33.6 N 45.61 CA 46.25 C 45.82 O 41.99 CB 47.55 CG 49.77 CD1 53.44 CD2 49.83 CE1 53.48 CE2 51.12 CZ 52.43 OH 49.12
D LYS H 64 -67.7 -41.7 N 45.89 CA 45.44 C 43.91 O 40.65 CB 48.08 CG 50.91 CD 53.78 CE 57.37 NZ 58.71
D SER H 76 -64.2 -43.4 N 45.5 CA 47.16 C 46.86 O 47.78 CB 48.49 OG 53.92
D ARG H 131 -64.0 -41.8 N 46.75 CA 50.25 C 46.71 O 46.28 CB 54.74 CG 59.87 CD 68.65 NE 77.37 CZ 77.91 NH1 79.33 NH2 75.95
D LEU H 0 -60.8 -51.9 N 43.76 CA 42.45 C 42.99 O 41.35 CB 43.35 CG 45.04 CD1 46.27 CD2 43.48
D MET H 24 -59.7 -45.8 N 46.4 CA 49.48 C 52.42 O 51.66 CB 50.56 CG 52.92 SD 59.14 CE 58.62
D GLU H 158 -60.8 -48.6 N 54.22 CA 55.9 C 53.68 O 55.35 CB 62.03 CG 72.14 CD 79.68 OE1 81.95 OE2 82.01
D LYS H 74 -60.6 -30.5 N 49.09 CA 46.67 C 47.71 O 48.01 CB 45.19 CG 44.82 CD 43.42 CE 41.57 NZ 39.65
D LEU H 3 -87.7 -5.3 N 49.97 CA 51.23 C 52.5 O 52.67 CB 49.84 CG 48.12 CD1 47.98 CD2 48.13
D GLU T 136 62.0 38.2 N 54.82 CA 55.67 C 53.85 O 56.42 CB 58.5 CG 60.53 CD 63.4 OE1 63.37 OE2 62.45
D CYS - 10 -110.8 138.5 N 52.01 CA 50.82 C 51.64 O 48.15 CB 50.78 SG 49.17
D LYS - 183 -105.9 -39.5 N 55.29 CA 59.5 C 59.11 O 62.32 CB 62.66 CG 67.65 CD 72.3 CE 73.91 NZ 75.01
D SER S 52 -119.4 167.2 N 56.69 CA 52.83 C 51.68 O 52.62 CB 53.4 OG 52.45
D LEU H 114 -60.6 -33.9 N 52.34 CA 51.77 C 51.29 O 53.59 CB 52.54 CG 56.98 CD1 56.91 CD2 55.55
D MET H 121 -69.2 -35.4 N 50.22 CA 50.61 C 46.84 O 42.18 CB 51.34 CG 52.81 SD 54.26 CE 53.26
D ASP H 67 -55.3 -51.0 N 45.59 CA 47.76 C 45.67 O 42.52 CB 52.76 CG 54.94 OD1 54.4 OD2 58.3
D LEU H 4 -62.5 -47.6 N 43.32 CA 41.53 C 40.26 O 43.03 CB 40.94 CG 41.31 CD1 43.1 CD2 41.0
D TYR H 129 -46.8 -51.6 N 39.46 CA 38.63 C 38.7 O 38.3 CB 38.51 CG 37.56 CD1 38.41 CD2 37.03 CE1 38.33 CE2 37.97 CZ 38.04 OH 38.77
D THR H 52 -70.3 -38.9 N 38.61 CA 38.32 C 37.37 O 37.36 CB 38.72 OG1 39.61 CG2 38.97
D PHE H 1 -57.4 -45.7 N 35.79 CA 34.99 C 33.94 O 33.54 CB 35.19 CG 36.18 CD1 35.26 CD2 37.82 CE1 35.53 CE2 37.67 CZ 36.7
D ALA H 7 -67.3 -38.9 N 32.83 CA 31.82 C 33.61 O 33.02 CB 30.56
D GLN H 115 -60.4 -46.9 N 35.95 CA 39.62 C 40.35 O 40.92 CB 42.83 CG 45.5 CD 45.51 OE1 45.26 NE2 44.42
D ARG H 119 -63.7 -44.6 N 40.82 CA 41.08 C 42.47 O 43.16 CB 41.73 CG 44.67 CD 47.67 NE 47.74 CZ 50.19 NH1 50.15 NH2 50.95
D ASN H 14 -90.4 1.5 N 44.58 CA 43.51 C 45.45 O 43.72 CB 42.05 CG 42.6 OD1 44.51 ND2 42.13
D LYS T 180 65.0 43.8 N 47.31 CA 48.02 C 44.8 O 45.35 CB 51.99 CG 57.72 CD 64.0 CE 67.65 NZ 70.57
D ILE - 67 -83.3 360.0 N 45.3 CA 46.68 C 45.68 O 44.84 CB 47.29 CG1 46.62 CG2 49.29 CD1 46.48
