C DA - 152 360.0 -43.1 P 68.68 OP1 61.17 OP2 63.11 O5' 56.71 C5' 59.54 C4' 64.14 O4' 56.99 C3' 58.04 O3' 73.39 C2' 56.31 C1' 53.2 N9 46.43 C8 44.45 N7 45.73 C5 38.21 C6 45.24 N6 44.5 N1 50.64 C2 45.05 N3 45.78 C4 39.68
C DC - 85 -72.8 153.5 P 60.58 OP1 53.83 OP2 48.42 O5' 71.49 C5' 60.03 C4' 58.73 O4' 60.58 C3' 61.69 O3' 71.84 C2' 63.23 C1' 48.36 N1 44.75 C2 48.86 O2 48.33 N3 44.09 C4 41.42 N4 37.08 C5 36.46 C6 39.29
C DT - 32 -84.2 106.5 P 87.56 OP1 83.23 OP2 60.0 O5' 69.54 C5' 64.81 C4' 72.69 O4' 67.07 C3' 78.7 O3' 87.83 C2' 63.94 C1' 60.81 N1 47.47 C2 48.06 O2 57.3 N3 43.66 C4 42.48 O4 39.69 C5 39.75 C7 35.07 C6 45.78
C DT H 6 -63.9 -43.1 P 85.65 OP1 80.69 OP2 84.58 O5' 76.78 C5' 70.27 C4' 74.9 O4' 68.74 C3' 70.12 O3' 73.31 C2' 63.71 C1' 59.75 N1 48.48 C2 49.98 O2 53.76 N3 44.31 C4 45.2 O4 41.09 C5 43.63 C7 43.65 C6 50.91
C DG H 4 -57.4 -57.1 P 76.04 OP1 79.59 OP2 76.16 O5' 70.62 C5' 68.88 C4' 73.55 O4' 73.57 C3' 71.35 O3' 79.73 C2' 64.55 C1' 66.53 N9 56.7 C8 52.43 N7 45.99 C5 43.35 C6 47.44 O6 46.32 N1 42.46 C2 45.88 N2 42.47 N3 39.85 C4 45.27
C DC H 62 -59.7 -28.7 P 88.32 OP1 89.01 OP2 80.81 O5' 73.25 C5' 64.96 C4' 69.49 O4' 68.24 C3' 62.12 O3' 69.01 C2' 66.86 C1' 59.94 N1 54.2 C2 46.67 O2 41.57 N3 45.17 C4 47.44 N4 41.75 C5 44.67 C6 48.71
C DC H 78 -68.6 -39.9 P 86.83 OP1 77.38 OP2 63.87 O5' 61.85 C5' 58.32 C4' 57.19 O4' 54.1 C3' 53.62 O3' 62.94 C2' 55.78 C1' 49.13 N1 40.6 C2 41.83 O2 42.86 N3 38.2 C4 43.28 N4 28.18 C5 39.45 C6 44.44
C DT H 0 -80.1 -42.2 P 67.21 OP1 58.86 OP2 51.78 O5' 57.68 C5' 44.65 C4' 39.3 O4' 42.69 C3' 42.06 O3' 42.17 C2' 43.54 C1' 41.85 N1 36.65 C2 35.28 O2 39.6 N3 34.56 C4 33.64 O4 35.53 C5 33.1 C7 41.69 C6 35.0
C DG - 1 -133.8 88.1 P 41.44 OP1 35.83 OP2 52.04 O5' 43.6 C5' 36.73 C4' 40.81 O4' 43.07 C3' 39.01 O3' 35.82 C2' 36.67 C1' 33.32 N9 33.81 C8 37.43 N7 35.75 C5 29.0 C6 35.14 O6 34.98 N1 31.3 C2 36.69 N2 41.42 N3 29.29 C4 31.09
C DG T 40 -52.1 -22.0 P 49.34 OP1 35.23 OP2 36.16 O5' 47.44 C5' 36.86 C4' 40.24 O4' 44.01 C3' 33.42 O3' 38.21 C2' 34.2 C1' 33.48 N9 30.97 C8 34.98 N7 36.87 C5 31.29 C6 32.42 O6 33.32 N1 34.13 C2 33.94 N2 30.15 N3 35.87 C4 33.64
C DG T 7 -105.9 -2.0 P 44.93 OP1 46.55 OP2 42.77 O5' 41.88 C5' 35.14 C4' 38.38 O4' 41.53 C3' 39.97 O3' 56.25 C2' 41.62 C1' 36.44 N9 33.28 C8 32.66 N7 33.53 C5 32.99 C6 37.33 O6 31.36 N1 34.0 C2 39.0 N2 38.3 N3 32.91 C4 30.21
C DC H 0 -53.9 -72.6 P 50.57 OP1 56.82 OP2 53.68 O5' 40.47 C5' 34.25 C4' 40.68 O4' 42.84 C3' 40.66 O3' 61.76 C2' 36.62 C1' 40.71 N1 39.07 C2 40.01 O2 36.1 N3 34.82 C4 34.55 N4 33.78 C5 35.42 C6 38.96
C DA H 33 -55.8 -32.3 P 58.93 OP1 53.62 OP2 54.68 O5' 43.48 C5' 38.09 C4' 50.64 O4' 62.08 C3' 59.97 O3' 80.59 C2' 54.0 C1' 56.8 N9 46.28 C8 41.08 N7 36.4 C5 39.06 C6 43.13 N6 35.21 N1 43.59 C2 37.25 N3 41.53 C4 38.89
C DA H 22 -67.6 -54.0 P 69.72 OP1 63.86 OP2 73.28 O5' 63.67 C5' 72.37 C4' 70.67 O4' 73.72 C3' 73.13 O3' 71.91 C2' 63.66 C1' 61.72 N9 53.56 C8 49.61 N7 43.11 C5 39.96 C6 44.79 N6 30.63 N1 43.21 C2 41.49 N3 43.43 C4 43.79
C DT H 5 -60.4 -41.5 P 66.23 OP1 79.26 OP2 73.81 O5' 79.08 C5' 87.5 C4' 78.29 O4' 77.29 C3' 79.75 O3' 82.98 C2' 76.01 C1' 67.5 N1 47.88 C2 47.3 O2 55.2 N3 43.82 C4 49.38 O4 43.59 C5 44.34 C7 36.62 C6 42.86
C DA H 47 -58.8 -47.5 P 83.97 OP1 89.6 OP2 94.1 O5' 66.23 C5' 85.93 C4' 78.63 O4' 68.66 C3' 65.27 O3' 64.17 C2' 63.47 C1' 57.79 N9 57.57 C8 55.88 N7 51.37 C5 41.07 C6 47.96 N6 35.58 N1 41.67 C2 48.91 N3 44.05 C4 47.46
C DT H 67 -72.8 -34.1 P 74.62 OP1 65.51 OP2 57.76 O5' 63.69 C5' 47.89 C4' 55.09 O4' 59.15 C3' 53.65 O3' 55.75 C2' 49.72 C1' 51.28 N1 43.54 C2 43.45 O2 46.72 N3 36.95 C4 44.28 O4 43.04 C5 43.27 C7 45.74 C6 37.06
C DT H 1 -61.7 -50.7 P 63.44 OP1 62.81 OP2 73.8 O5' 55.72 C5' 44.37 C4' 54.74 O4' 49.7 C3' 46.86 O3' 55.29 C2' 39.06 C1' 49.32 N1 42.21 C2 40.94 O2 38.15 N3 39.03 C4 46.15 O4 52.0 C5 38.16 C7 42.63 C6 35.29
D DA - 112 360.0 123.9 P 43.05 OP1 52.55 OP2 39.09 O5' 65.45 C5' 62.05 C4' 59.24 O4' 51.34 C3' 61.43 O3' 57.95 C2' 45.37 C1' 44.2 N9 45.29 C8 48.45 N7 41.67 C5 37.32 C6 38.36 N6 34.47 N1 43.47 C2 50.25 N3 34.76 C4 38.07
D DT - 48 -86.1 104.9 P 57.83 OP1 50.29 OP2 49.05 O5' 50.4 C5' 41.71 C4' 50.5 O4' 54.66 C3' 43.35 O3' 44.17 C2' 46.86 C1' 48.05 N1 43.14 C2 38.5 O2 47.08 N3 36.3 C4 37.74 O4 30.25 C5 40.42 C7 41.53 C6 40.39
D DT H 3 -60.1 -38.1 P 55.23 OP1 44.03 OP2 59.69 O5' 51.37 C5' 46.95 C4' 50.96 O4' 54.39 C3' 52.02 O3' 67.08 C2' 52.1 C1' 47.02 N1 44.44 C2 44.06 O2 45.45 N3 40.47 C4 37.79 O4 30.14 C5 33.26 C7 27.15 C6 37.62
D DG H 8 -68.3 -40.9 P 65.08 OP1 65.21 OP2 46.66 O5' 58.83 C5' 55.73 C4' 61.37 O4' 60.26 C3' 55.4 O3' 58.98 C2' 48.25 C1' 44.68 N9 37.4 C8 42.1 N7 39.69 C5 40.14 C6 38.18 O6 36.15 N1 40.96 C2 34.89 N2 34.46 N3 37.45 C4 35.11
D DC H 64 -75.6 -15.9 P 69.74 OP1 71.19 OP2 66.92 O5' 55.24 C5' 52.18 C4' 52.47 O4' 56.52 C3' 60.04 O3' 67.9 C2' 57.21 C1' 51.85 N1 40.23 C2 42.04 O2 42.23 N3 43.1 C4 41.92 N4 31.48 C5 35.58 C6 35.15
D DC H 92 -81.6 -38.1 P 73.56 OP1 72.94 OP2 50.26 O5' 58.11 C5' 51.22 C4' 53.49 O4' 55.75 C3' 51.36 O3' 53.07 C2' 45.15 C1' 48.31 N1 38.37 C2 36.71 O2 36.37 N3 37.04 C4 37.25 N4 33.29 C5 32.18 C6 37.04
D DC H 0 -78.8 -50.5 P 53.98 OP1 49.58 OP2 50.28 O5' 43.44 C5' 43.72 C4' 40.48 O4' 40.65 C3' 37.55 O3' 44.06 C2' 35.91 C1' 34.53 N1 32.04 C2 36.19 O2 31.5 N3 33.97 C4 34.95 N4 28.86 C5 30.76 C6 34.38
D DA - 2 -136.2 91.3 P 42.81 OP1 39.77 OP2 46.42 O5' 41.96 C5' 33.57 C4' 41.38 O4' 46.12 C3' 39.69 O3' 44.48 C2' 39.96 C1' 39.65 N9 31.88 C8 31.3 N7 29.19 C5 31.24 C6 28.47 N6 27.85 N1 33.95 C2 33.25 N3 32.41 C4 31.87
D DG H 40 -60.3 -33.3 P 44.81 OP1 43.37 OP2 34.91 O5' 39.05 C5' 40.6 C4' 36.06 O4' 53.69 C3' 39.08 O3' 46.98 C2' 41.54 C1' 39.31 N9 34.76 C8 34.43 N7 33.41 C5 33.07 C6 35.15 O6 34.63 N1 31.97 C2 40.37 N2 35.32 N3 40.79 C4 36.03
D DG H 1 -71.7 -38.7 P 49.86 OP1 38.57 OP2 48.73 O5' 47.33 C5' 39.86 C4' 46.79 O4' 50.8 C3' 47.07 O3' 61.09 C2' 40.57 C1' 38.73 N9 31.29 C8 40.57 N7 39.71 C5 32.93 C6 37.4 O6 36.54 N1 35.32 C2 40.29 N2 43.74 N3 34.87 C4 33.31
D DC H 0 -41.7 -65.0 P 59.54 OP1 45.79 OP2 55.14 O5' 45.69 C5' 42.46 C4' 49.31 O4' 49.0 C3' 54.12 O3' 64.74 C2' 49.98 C1' 44.95 N1 40.96 C2 43.4 O2 40.99 N3 42.2 C4 42.24 N4 33.62 C5 37.94 C6 41.56
D DA H 20 -57.1 -37.8 P 67.24 OP1 65.81 OP2 63.46 O5' 59.5 C5' 52.19 C4' 65.93 O4' 63.01 C3' 70.65 O3' 73.89 C2' 68.16 C1' 62.56 N9 49.01 C8 50.51 N7 42.09 C5 41.8 C6 47.88 N6 38.65 N1 46.04 C2 46.27 N3 46.36 C4 44.23
D DA H 27 -65.6 -47.2 P 92.43 OP1 87.53 OP2 82.23 O5' 83.15 C5' 73.89 C4' 80.79 O4' 77.8 C3' 82.48 O3' 95.47 C2' 76.86 C1' 71.46 N9 64.61 C8 57.76 N7 52.98 C5 49.07 C6 43.54 N6 42.4 N1 50.02 C2 54.81 N3 61.63 C4 54.84
D DG H 4 -66.4 -42.3 P 99.15 OP1 103.8 OP2 90.1 O5' 88.9 C5' 79.07 C4' 80.32 O4' 81.33 C3' 83.07 O3' 96.71 C2' 81.17 C1' 76.26 N9 66.15 C8 66.62 N7 58.78 C5 56.36 C6 56.44 O6 54.95 N1 47.37 C2 58.83 N2 45.37 N3 56.41 C4 56.44
D DT H 50 -58.3 -46.4 P 110.23 OP1 100.9 OP2 90.97 O5' 94.83 C5' 85.07 C4' 89.63 O4' 88.43 C3' 80.32 O3' 76.82 C2' 76.33 C1' 76.34 N1 69.66 C2 63.64 O2 68.23 N3 50.9 C4 55.02 O4 53.86 C5 59.08 C7 67.74 C6 61.69
D DA H 54 -68.9 -36.8 P 104.64 OP1 94.16 OP2 90.54 O5' 90.92 C5' 79.49 C4' 81.84 O4' 75.13 C3' 78.38 O3' 84.31 C2' 75.75 C1' 71.9 N9 60.17 C8 63.35 N7 56.93 C5 47.68 C6 53.04 N6 40.93 N1 48.85 C2 50.92 N3 50.61 C4 50.19
D DT H 3 -64.7 -47.5 P 100.13 OP1 96.36 OP2 92.79 O5' 86.05 C5' 73.68 C4' 74.1 O4' 75.38 C3' 75.51 O3' 85.5 C2' 60.06 C1' 63.55 N1 57.42 C2 48.96 O2 51.4 N3 43.1 C4 53.47 O4 52.89 C5 56.52 C7 58.05 C6 61.5
