A GLU - 123 360.0 -145.4 N 76.78 CA 80.35 C 81.3 O 80.46 CB 79.46 CG 76.54 CD 80.04 OE1 77.22 OE2 85.32 H 92.14 HA 96.42 HB2 95.35 HB3 95.35 HG2 91.85 HG3 91.85
A GLU - 176 -109.2 39.4 N 83.59 CA 82.73 C 74.03 O 75.79 CB 89.67 CG 97.37 CD 101.72 OE1 99.31 OE2 108.26 H 100.31 HA 99.28 HB2 107.6 HB3 107.6 HG2 116.85 HG3 116.85
A VAL - 18 -91.6 137.8 N 62.78 CA 53.44 C 51.49 O 51.32 CB 54.28 CG1 51.97 CG2 56.26 H 75.34 HA 64.13 HB 65.13 HG11 62.36 HG12 62.36 HG13 62.36 HG21 67.51 HG22 67.51 HG23 67.51
A SER - 37 -99.4 158.9 N 50.46 CA 47.69 C 43.98 O 41.23 CB 51.46 OG 48.84 H 60.55 HA 57.22 HB2 61.76 HB3 61.76 HG 58.61
A VAL H 47 -62.5 -33.1 N 42.41 CA 39.97 C 40.14 O 38.35 CB 40.6 CG1 43.58 CG2 38.64 H 50.89 HA 47.97 HB 48.72 HG11 52.3 HG12 52.3 HG13 52.3 HG21 46.37 HG22 46.37 HG23 46.37
A GLU H 138 -59.2 -47.1 N 43.94 CA 45.47 C 44.05 O 42.26 CB 54.18 CG 62.55 CD 67.38 OE1 64.65 OE2 71.07 H 52.73 HA 54.56 HB2 65.01 HB3 65.01 HG2 75.06 HG3 75.06
A GLU H 101 -63.4 -42.4 N 43.43 CA 43.63 C 39.25 O 38.59 CB 49.42 CG 62.08 CD 69.24 OE1 68.38 OE2 74.67 H 52.11 HA 52.35 HB2 59.31 HB3 59.31 HG2 74.49 HG3 74.49
A LEU H 0 -65.4 -35.2 N 37.51 CA 34.82 C 33.65 O 36.36 CB 34.16 CG 37.19 CD1 36.82 CD2 36.34 H 45.02 HA 41.78 HB2 40.99 HB3 40.99 HG 44.62 HD11 44.18 HD12 44.18 HD13 44.18 HD21 43.6 HD22 43.6 HD23 43.6
A LYS H 76 -68.2 -37.7 N 34.88 CA 37.75 C 37.46 O 38.75 CB 46.5 CG 56.73 CD 58.9 CE 59.52 NZ 59.58 H 41.85 HA 45.3 HB2 55.8 HB3 55.8 HG2 68.08 HG3 68.08 HD2 70.68 HD3 70.68 HE2 71.42 HE3 71.42 HZ1 71.49 HZ2 71.49 HZ3 71.49
A ALA H 39 -63.2 -46.5 N 37.57 CA 39.11 C 37.6 O 37.27 CB 42.47 H 45.08 HA 46.93 HB1 50.97 HB2 50.97 HB3 50.97
A ILE H 33 -61.8 -43.4 N 38.3 CA 38.21 C 38.3 O 38.51 CB 36.92 CG1 41.51 CG2 38.98 CD1 43.84 H 45.96 HA 45.85 HB 44.31 HG12 49.81 HG13 49.81 HG21 46.77 HG22 46.77 HG23 46.77 HD11 52.61 HD12 52.61 HD13 52.61
A GLN H 0 -53.4 -46.4 N 33.95 CA 33.11 C 35.07 O 36.37 CB 32.64 CG 34.02 CD 31.84 OE1 35.14 NE2 32.61 H 40.74 HA 39.74 HB2 39.17 HB3 39.17 HG2 40.83 HG3 40.83 HE21 39.13 HE22 39.13
A LEU H 111 -71.8 -41.9 N 34.69 CA 40.9 C 43.44 O 45.14 CB 44.79 CG 49.88 CD1 53.52 CD2 51.84 H 41.63 HA 49.08 HB2 53.75 HB3 53.75 HG 59.86 HD11 64.22 HD12 64.22 HD13 64.22 HD21 62.2 HD22 62.2 HD23 62.2
A ARG H 185 -85.7 -14.1 N 43.32 CA 48.49 C 46.47 O 48.8 CB 57.8 CG 62.9 CD 73.16 NE 78.5 CZ 81.49 NH1 82.44 NH2 82.09 H 51.98 HA 58.18 HB2 69.36 HB3 69.36 HG2 75.48 HG3 75.48 HD2 87.79 HD3 87.79 HE 94.2 HH11 98.93 HH12 98.93 HH21 98.51 HH22 98.51
A THR T 58 -106.6 23.4 N 44.81 CA 42.6 C 43.46 O 43.47 CB 42.91 OG1 41.69 CG2 45.65 H 53.78 HA 51.12 HB 51.49 HG1 50.03 HG21 54.78 HG22 54.78 HG23 54.78
A THR - 39 -72.1 134.3 N 44.27 CA 48.62 C 51.86 O 55.83 CB 50.71 OG1 47.2 CG2 53.66 H 53.13 HA 58.34 HB 60.85 HG1 56.64 HG21 64.4 HG22 64.4 HG23 64.4
A ASN - 49 -77.0 111.4 N 51.54 CA 55.79 C 61.7 O 63.99 CB 55.32 CG 57.47 OD1 62.53 ND2 54.8 H 61.85 HA 66.95 HB2 66.39 HB3 66.39 HD21 65.76 HD22 65.76
A GLU T 159 -77.9 -29.1 N 64.54 CA 69.45 C 68.03 O 69.74 CB 77.85 CG 87.1 CD 92.89 OE1 93.31 OE2 97.54 H 77.45 HA 83.34 HB2 93.43 HB3 93.43 HG2 104.52 HG3 104.52
A ALA T 78 -60.4 -34.4 N 65.21 CA 65.66 C 60.07 O 60.84 CB 70.24 H 78.26 HA 78.8 HB1 84.29 HB2 84.29 HB3 84.29
A THR T 22 -98.9 0.5 N 55.19 CA 54.09 C 52.16 O 52.88 CB 53.76 OG1 51.04 CG2 53.32 H 66.23 HA 64.91 HB 64.51 HG1 61.25 HG21 63.99 HG22 63.99 HG23 63.99
A GLY T 49 62.5 36.9 N 49.95 CA 50.63 C 47.51 O 46.83 H 59.94 HA2 60.76 HA3 60.76
A GLU - 14 -54.1 129.6 N 45.97 CA 45.84 C 50.03 O 47.26 CB 39.46 CG 36.81 CD 36.57 OE1 36.28 OE2 34.6 H 55.16 HA 55.01 HB2 47.35 HB3 47.35 HG2 44.17 HG3 44.17
A LYS E 129 -96.7 137.1 N 55.98 CA 59.48 C 54.69 O 55.46 CB 65.51 CG 69.36 CD 74.84 CE 76.47 NZ 76.65 H 67.18 HA 71.37 HB2 78.61 HB3 78.61 HG2 83.24 HG3 83.24 HD2 89.81 HD3 89.81 HE2 91.76 HE3 91.76 HZ1 91.97 HZ2 91.97 HZ3 91.97
A ARG E 18 -135.3 129.1 N 43.68 CA 36.62 C 37.64 O 41.0 CB 34.69 CG 34.48 CD 34.01 NE 28.51 CZ 30.64 NH1 33.36 NH2 29.75 H 52.42 HA 43.94 HB2 41.62 HB3 41.62 HG2 41.38 HG3 41.38 HD2 40.81 HD3 40.81 HE 34.21 HH11 40.03 HH12 40.03 HH21 35.7 HH22 35.7
A PHE E 82 -147.5 168.9 N 32.64 CA 35.05 C 33.74 O 31.35 CB 40.74 CG 45.31 CD1 48.06 CD2 48.21 CE1 51.97 CE2 49.45 CZ 53.05 H 39.16 HA 42.06 HB2 48.89 HB3 48.89 HD1 57.67 HD2 57.85 HE1 62.36 HE2 59.34 HZ 63.66
A GLY S 18 135.9 169.6 N 33.99 CA 36.69 C 36.96 O 38.05 H 40.79 HA2 44.02 HA3 44.02
A SER - 43 -70.6 -23.7 N 35.2 CA 36.19 C 35.42 O 35.49 CB 39.81 OG 36.81 H 42.24 HA 43.43 HB2 47.77 HB3 47.77 HG 44.17
A ALA - 0 63.0 25.4 N 34.12 CA 34.61 C 34.76 O 34.2 CB 35.13 H 40.94 HA 41.54 HB1 42.16 HB2 42.16 HB3 42.16
A ARG S 50 -61.4 -28.4 N 34.13 CA 36.13 C 35.26 O 36.72 CB 37.63 CG 39.98 CD 43.55 NE 42.59 CZ 44.4 NH1 45.85 NH2 46.07 H 40.95 HA 43.35 HB2 45.16 HB3 45.16 HG2 47.98 HG3 47.98 HD2 52.26 HD3 52.26 HE 51.11 HH11 55.02 HH12 55.02 HH21 55.28 HH22 55.28
A ALA E 0 -141.7 155.5 N 35.47 CA 35.05 C 34.41 O 32.47 CB 37.4 H 42.57 HA 42.06 HB1 44.88 HB2 44.88 HB3 44.88
A ILE E 0 -136.8 157.3 N 32.24 CA 30.66 C 28.48 O 30.51 CB 30.44 CG1 32.77 CG2 32.37 CD1 34.68 H 38.69 HA 36.79 HB 36.52 HG12 39.33 HG13 39.33 HG21 38.85 HG22 38.85 HG23 38.85 HD11 41.62 HD12 41.62 HD13 41.62
A ILE E 0 -82.0 99.5 N 25.18 CA 26.89 C 27.63 O 28.87 CB 28.03 CG1 27.89 CG2 27.83 CD1 28.48 H 30.21 HA 32.27 HB 33.63 HG12 33.47 HG13 33.47 HG21 33.4 HG22 33.4 HG23 33.4 HD11 34.17 HD12 34.17 HD13 34.17
A GLU E 59 -72.0 -42.9 N 27.86 CA 32.13 C 34.81 O 36.68 CB 32.74 CG 37.57 CD 40.77 OE1 41.88 OE2 41.07 H 33.43 HA 38.55 HB2 39.28 HB3 39.28 HG2 45.08 HG3 45.08
A ASP E 68 -153.2 152.6 N 31.65 CA 34.33 C 29.08 O 26.92 CB 38.98 CG 44.69 OD1 44.23 OD2 45.92 H 37.99 HA 41.2 HB2 46.78 HB3 46.78
A LEU E 10 -133.9 123.0 N 30.24 CA 26.31 C 27.5 O 30.06 CB 25.05 CG 24.76 CD1 24.39 CD2 24.56 H 36.29 HA 31.58 HB2 30.06 HB3 30.06 HG 29.71 HD11 29.26 HD12 29.26 HD13 29.26 HD21 29.47 HD22 29.47 HD23 29.47
A THR E 39 -115.1 133.1 N 27.52 CA 26.01 C 24.48 O 24.45 CB 27.5 OG1 32.09 CG2 28.7 H 33.03 HA 31.22 HB 33.0 HG1 38.51 HG21 34.44 HG22 34.44 HG23 34.44
A ILE E 4 -114.8 129.5 N 23.5 CA 25.06 C 24.85 O 25.13 CB 24.29 CG1 24.27 CG2 25.9 CD1 26.43 H 28.2 HA 30.07 HB 29.14 HG12 29.12 HG13 29.12 HG21 31.08 HG22 31.08 HG23 31.08 HD11 31.71 HD12 31.71 HD13 31.71
A TYR E 26 -110.4 140.2 N 24.46 CA 23.69 C 24.18 O 25.29 CB 25.57 CG 25.26 CD1 28.31 CD2 27.58 CE1 27.92 CE2 29.89 CZ 31.62 OH 36.91 H 29.35 HA 28.43 HB2 30.68 HB3 30.68 HD1 33.98 HD2 33.09 HE1 33.51 HE2 35.87 HH 44.29
A LYS - 3 -91.8 170.9 N 25.03 CA 25.08 C 25.92 O 26.19 CB 31.01 CG 31.83 CD 33.85 CE 34.49 NZ 37.61 H 30.04 HA 30.1 HB2 37.22 HB3 37.22 HG2 38.2 HG3 38.2 HD2 40.62 HD3 40.62 HE2 41.38 HE3 41.38 HZ1 45.13 HZ2 45.13 HZ3 45.13
A SER T 34 -62.8 -20.6 N 26.33 CA 27.63 C 30.19 O 36.04 CB 30.84 OG 34.15 H 31.6 HA 33.15 HB2 37.01 HB3 37.01 HG 40.98
A ASP T 85 -84.0 -0.5 N 31.08 CA 34.01 C 35.14 O 37.82 CB 37.73 CG 38.76 OD1 34.6 OD2 41.59 H 37.3 HA 40.81 HB2 45.28 HB3 45.28
A GLY S 10 92.9 -6.2 N 31.89 CA 34.38 C 36.02 O 37.44 H 38.27 HA2 41.26 HA3 41.26
A THR - 27 -81.6 150.8 N 36.04 CA 36.18 C 31.25 O 28.79 CB 35.53 OG1 38.73 CG2 38.64 H 43.25 HA 43.42 HB 42.63 HG1 46.47 HG21 46.36 HG22 46.36 HG23 46.36
A THR B 13 -87.9 163.1 N 35.78 CA 31.98 C 31.66 O 33.78 CB 34.28 OG1 36.12 CG2 36.8 H 42.93 HA 38.37 HB 41.14 HG1 43.34 HG21 44.16 HG22 44.16 HG23 44.16
A LEU T 21 -60.9 -33.8 N 32.51 CA 33.52 C 37.71 O 39.96 CB 34.32 CG 34.74 CD1 35.16 CD2 33.34 H 39.01 HA 40.22 HB2 41.19 HB3 41.19 HG 41.69 HD11 42.19 HD12 42.19 HD13 42.19 HD21 40.0 HD22 40.0 HD23 40.0
A ALA T 95 -61.0 -39.3 N 39.54 CA 41.47 C 42.99 O 46.48 CB 42.54 H 47.44 HA 49.76 HB1 51.05 HB2 51.05 HB3 51.05
A GLU T 129 -77.0 -41.8 N 42.11 CA 43.97 C 43.57 O 44.63 CB 48.99 CG 56.33 CD 62.66 OE1 62.89 OE2 68.26 H 50.54 HA 52.77 HB2 58.79 HB3 58.79 HG2 67.6 HG3 67.6
A LYS S 102 -137.2 91.8 N 41.8 CA 42.71 C 37.45 O 34.97 CB 46.52 CG 56.85 CD 63.79 CE 69.77 NZ 70.53 H 50.16 HA 51.25 HB2 55.82 HB3 55.82 HG2 68.22 HG3 68.22 HD2 76.55 HD3 76.55 HE2 83.73 HE3 83.73 HZ1 84.63 HZ2 84.63 HZ3 84.63
A PRO - 97 -72.8 65.9 N 42.21 CA 42.58 C 42.25 O 42.24 CB 45.94 CG 47.27 CD 47.01 HA 51.09 HB2 55.12 HB3 55.12 HG2 56.73 HG3 56.73 HD2 56.41 HD3 56.41
A LEU - 68 -168.0 129.9 N 35.56 CA 35.13 C 31.46 O 33.9 CB 40.65 CG 45.46 CD1 47.16 CD2 49.3 H 42.68 HA 42.15 HB2 48.78 HB3 48.78 HG 54.56 HD11 56.6 HD12 56.6 HD13 56.6 HD21 59.16 HD22 59.16 HD23 59.16
A ILE E 0 -115.3 132.7 N 26.59 CA 24.45 C 26.84 O 23.08 CB 25.26 CG1 26.1 CG2 25.11 CD1 25.04 H 31.91 HA 29.34 HB 30.31 HG12 31.32 HG13 31.32 HG21 30.13 HG22 30.13 HG23 30.13 HD11 30.05 HD12 30.05 HD13 30.05
A LYS E 124 -78.2 130.6 N 26.64 CA 29.95 C 22.72 O 23.3 CB 42.36 CG 60.84 CD 78.82 CE 93.34 NZ 100.05 H 31.97 HA 35.94 HB2 50.83 HB3 50.83 HG2 73.01 HG3 73.01 HD2 94.59 HD3 94.59 HE2 112.0 HE3 112.0 HZ1 120.06 HZ2 120.06 HZ3 120.06
A SER T 4 -50.7 127.2 N 23.36 CA 21.7 C 21.32 O 24.6 CB 25.29 OG 28.65 H 28.03 HA 26.04 HB2 30.35 HB3 30.35 HG 34.38
A GLY T 32 91.0 -5.3 N 19.1 CA 22.78 C 26.32 O 26.96 H 22.92 HA2 27.33 HA3 27.33
A GLU - 31 -85.4 164.0 N 24.45 CA 26.77 C 22.74 O 23.33 CB 32.09 CG 30.51 CD 28.26 OE1 32.12 OE2 25.88 H 29.34 HA 32.12 HB2 38.51 HB3 38.51 HG2 36.62 HG3 36.62
A GLU E 49 -79.8 127.6 N 25.43 CA 26.25 C 26.62 O 24.77 CB 30.11 CG 30.15 CD 29.64 OE1 33.87 OE2 27.42 H 30.52 HA 31.5 HB2 36.14 HB3 36.14 HG2 36.18 HG3 36.18
A VAL E 0 -119.2 142.5 N 23.22 CA 25.78 C 25.14 O 24.87 CB 31.44 CG1 28.39 CG2 31.95 H 27.86 HA 30.93 HB 37.73 HG11 34.07 HG12 34.07 HG13 34.07 HG21 38.34 HG22 38.34 HG23 38.34
A THR E 0 -114.1 129.6 N 24.65 CA 22.65 C 24.13 O 22.61 CB 26.0 OG1 24.83 CG2 27.79 H 29.58 HA 27.17 HB 31.2 HG1 29.8 HG21 33.34 HG22 33.34 HG23 33.34
A PHE E 0 -107.5 113.3 N 23.22 CA 23.45 C 24.18 O 24.22 CB 22.94 CG 22.35 CD1 22.14 CD2 26.21 CE1 26.22 CE2 26.15 CZ 25.94 H 27.86 HA 28.14 HB2 27.53 HB3 27.53 HD1 26.57 HD2 31.45 HE1 31.46 HE2 31.39 HZ 31.13
A ASP E 3 -107.0 98.1 N 24.21 CA 23.7 C 25.59 O 24.06 CB 24.8 CG 30.9 OD1 29.11 OD2 33.29 H 29.05 HA 28.44 HB2 29.76 HB3 29.76
A PHE E 0 -89.0 135.3 N 25.16 CA 27.01 C 25.89 O 29.2 CB 24.87 CG 25.88 CD1 25.31 CD2 27.61 CE1 28.13 CE2 25.46 CZ 26.63 H 30.19 HA 32.41 HB2 29.85 HB3 29.85 HD1 30.37 HD2 33.14 HE1 33.75 HE2 30.56 HZ 31.95
A THR E 22 -108.5 120.7 N 26.37 CA 27.11 C 30.37 O 30.59 CB 29.98 OG1 30.54 CG2 32.66 H 31.64 HA 32.54 HB 35.98 HG1 36.65 HG21 39.19 HG22 39.19 HG23 39.19
A ILE E 1 -112.2 131.2 N 27.37 CA 29.2 C 31.56 O 31.38 CB 28.98 CG1 29.1 CG2 32.26 CD1 31.71 H 32.85 HA 35.04 HB 34.78 HG12 34.92 HG13 34.92 HG21 38.71 HG22 38.71 HG23 38.71 HD11 38.05 HD12 38.05 HD13 38.05
A LEU E 4 -105.0 133.1 N 32.45 CA 36.1 C 35.51 O 32.95 CB 40.47 CG 46.12 CD1 44.69 CD2 45.22 H 38.93 HA 43.32 HB2 48.57 HB3 48.57 HG 55.35 HD11 53.63 HD12 53.63 HD13 53.63 HD21 54.27 HD22 54.27 HD23 54.27
A ALA E 0 -128.6 138.7 N 34.47 CA 35.06 C 40.03 O 40.49 CB 37.26 H 41.37 HA 42.08 HB1 44.71 HB2 44.71 HB3 44.71
A SER S 26 -83.8 -11.7 N 39.44 CA 42.53 C 44.77 O 47.01 CB 43.74 OG 43.47 H 47.33 HA 51.04 HB2 52.49 HB3 52.49 HG 52.17
A GLU S 88 -168.2 171.6 N 42.89 CA 45.29 C 44.41 O 41.79 CB 48.83 CG 45.73 CD 53.55 OE1 54.43 OE2 52.58 H 51.47 HA 54.35 HB2 58.6 HB3 58.6 HG2 54.87 HG3 54.87
A GLU - 114 -66.7 132.5 N 46.78 CA 45.26 C 44.3 O 48.1 CB 53.0 CG 56.34 CD 66.53 OE1 72.21 OE2 68.19 H 56.14 HA 54.31 HB2 63.6 HB3 63.6 HG2 67.6 HG3 67.6
A ILE B 2 -134.5 114.8 N 44.07 CA 42.78 C 41.07 O 40.72 CB 39.95 CG1 40.91 CG2 39.38 CD1 39.74 H 52.89 HA 51.34 HB 47.94 HG12 49.09 HG13 49.09 HG21 47.25 HG22 47.25 HG23 47.25 HD11 47.68 HD12 47.68 HD13 47.68
A LYS - 113 -86.4 158.8 N 43.46 CA 44.65 C 42.88 O 43.94 CB 51.1 CG 58.08 CD 66.96 CE 73.73 NZ 80.6 H 52.15 HA 53.58 HB2 61.33 HB3 61.33 HG2 69.7 HG3 69.7 HD2 80.35 HD3 80.35 HE2 88.48 HE3 88.48 HZ1 96.72 HZ2 96.72 HZ3 96.72
A ASP S 92 59.7 57.0 N 44.55 CA 46.35 C 44.0 O 43.69 CB 55.4 CG 65.57 OD1 67.48 OD2 72.65 H 53.46 HA 55.62 HB2 66.48 HB3 66.48
A ILE E 1 -89.5 143.5 N 38.91 CA 37.51 C 37.11 O 35.6 CB 53.99 CG1 60.81 CG2 50.69 CD1 63.83 H 46.7 HA 45.01 HB 64.79 HG12 72.98 HG13 72.98 HG21 60.83 HG22 60.83 HG23 60.83 HD11 76.59 HD12 76.59 HD13 76.59
A ALA E 4 -115.2 116.1 N 31.97 CA 30.3 C 29.91 O 31.9 CB 35.35 H 38.37 HA 36.36 HB1 42.42 HB2 42.42 HB3 42.42
A LEU E 1 -111.8 104.5 N 26.67 CA 26.6 C 24.17 O 26.86 CB 25.72 CG 26.65 CD1 27.52 CD2 26.22 H 32.0 HA 31.92 HB2 30.86 HB3 30.86 HG 31.98 HD11 33.03 HD12 33.03 HD13 33.03 HD21 31.46 HD22 31.46 HD23 31.46
A GLY E 18 -106.2 154.5 N 27.15 CA 27.1 C 26.83 O 26.89 H 32.58 HA2 32.52 HA3 32.52
A ILE E 4 -137.7 146.7 N 23.85 CA 22.44 C 24.48 O 23.72 CB 24.25 CG1 26.88 CG2 22.46 CD1 26.59 H 28.62 HA 26.92 HB 29.11 HG12 32.26 HG13 32.26 HG21 26.95 HG22 26.95 HG23 26.95 HD11 31.9 HD12 31.9 HD13 31.9
A SER E 10 -151.0 166.0 N 24.28 CA 24.5 C 26.66 O 26.2 CB 25.46 OG 25.99 H 29.14 HA 29.4 HB2 30.56 HB3 30.56 HG 31.18
A MET E 0 -135.1 146.3 N 23.42 CA 21.28 C 22.19 O 26.85 CB 20.61 CG 21.46 SD 24.95 CE 46.63 H 28.1 HA 25.54 HB2 24.73 HB3 24.73 HG2 25.75 HG3 25.75 HE1 55.95 HE2 55.95 HE3 55.95
A SER E 3 -139.9 169.9 N 20.5 CA 26.96 C 29.82 O 31.2 CB 28.16 OG 29.34 H 24.6 HA 32.35 HB2 33.79 HB3 33.79 HG 35.21
A LYS - 78 -120.4 123.1 N 33.56 CA 38.77 C 45.83 O 47.27 CB 41.0 CG 45.63 CD 50.32 CE 55.19 NZ 56.39 H 40.28 HA 46.53 HB2 49.19 HB3 49.19 HG2 54.76 HG3 54.76 HD2 60.39 HD3 60.39 HE2 66.23 HE3 66.23 HZ1 67.66 HZ2 67.66 HZ3 67.66
A ALA T 75 58.0 -123.4 N 48.21 CA 51.15 C 50.19 O 49.82 CB 53.37 H 57.85 HA 61.38 HB1 64.04 HB2 64.04 HB3 64.04
A GLN T 193 -100.3 13.7 N 52.21 CA 55.27 C 48.54 O 46.84 CB 63.91 CG 73.04 CD 79.92 OE1 80.51 NE2 84.96 H 62.66 HA 66.33 HB2 76.69 HB3 76.69 HG2 87.65 HG3 87.65 HE21 101.95 HE22 101.95
A GLY S 42 -79.9 169.1 N 44.77 CA 43.29 C 40.63 O 38.21 H 53.72 HA2 51.94 HA3 51.94
A GLY - 59 -75.7 172.9 N 41.93 CA 39.58 C 36.04 O 38.37 H 50.32 HA2 47.5 HA3 47.5
A ASP E 57 -58.5 137.1 N 33.64 CA 31.4 C 29.79 O 28.57 CB 31.66 CG 35.57 OD1 38.09 OD2 37.9 H 40.36 HA 37.68 HB2 37.99 HB3 37.99
A ILE E 21 -100.9 -16.5 N 28.25 CA 27.29 C 25.91 O 26.0 CB 26.84 CG1 28.71 CG2 33.16 CD1 31.47 H 33.9 HA 32.75 HB 32.21 HG12 34.45 HG13 34.45 HG21 39.79 HG22 39.79 HG23 39.79 HD11 37.76 HD12 37.76 HD13 37.76
A TRP E 0 -151.8 138.4 N 25.71 CA 23.77 C 25.76 O 24.69 CB 24.24 CG 23.45 CD1 23.71 CD2 21.69 NE1 25.14 CE2 21.33 CE3 20.64 CZ2 21.23 CZ3 21.09 CH2 20.5 H 30.85 HA 28.52 HB2 29.09 HB3 29.09 HD1 28.45 HE1 30.16 HE3 24.77 HZ2 25.47 HZ3 25.31 HH2 24.6
A GLY E 9 -161.5 146.2 N 25.65 CA 25.86 C 24.23 O 23.92 H 30.79 HA2 31.03 HA3 31.03
A ASP E 16 -160.8 173.9 N 23.11 CA 26.01 C 25.89 O 24.41 CB 25.52 CG 27.58 OD1 27.55 OD2 29.54 H 27.73 HA 31.21 HB2 30.63 HB3 30.63
A SER E 25 -155.2 173.6 N 28.52 CA 26.45 C 27.57 O 29.2 CB 27.29 OG 28.7 H 34.22 HA 31.74 HB2 32.75 HB3 32.75 HG 34.44
A ASN H 0 -63.9 -29.6 N 26.57 CA 30.61 C 33.85 O 37.29 CB 30.95 CG 30.18 OD1 30.79 ND2 31.9 H 31.89 HA 36.73 HB2 37.15 HB3 37.15 HD21 38.28 HD22 38.28
A ILE H 79 -64.3 -49.1 N 32.13 CA 35.76 C 35.37 O 36.89 CB 36.59 CG1 36.01 CG2 40.0 CD1 39.29 H 38.56 HA 42.91 HB 43.91 HG12 43.21 HG13 43.21 HG21 48.0 HG22 48.0 HG23 48.0 HD11 47.15 HD12 47.15 HD13 47.15
A GLY H 33 -60.0 -39.3 N 34.39 CA 37.51 C 36.71 O 38.63 H 41.27 HA2 45.01 HA3 45.01
A ALA H 36 -73.9 -12.3 N 34.4 CA 34.79 C 36.81 O 39.12 CB 31.95 H 41.28 HA 41.75 HB1 38.35 HB2 38.35 HB3 38.35
A GLY T 68 82.3 26.4 N 36.93 CA 39.12 C 40.92 O 44.51 H 44.31 HA2 46.94 HA3 46.94
A SER - 22 -115.8 108.5 N 38.85 CA 40.88 C 39.43 O 35.91 CB 45.2 OG 51.5 H 46.62 HA 49.05 HB2 54.25 HB3 54.25 HG 61.79
A ALA - 75 -69.6 138.9 N 39.72 CA 42.58 C 41.85 O 41.95 CB 45.84 H 47.67 HA 51.1 HB1 55.01 HB2 55.01 HB3 55.01
A ILE - 2 -124.1 131.1 N 37.62 CA 36.7 C 37.64 O 40.16 CB 37.34 CG1 35.99 CG2 39.2 CD1 36.66 H 45.14 HA 44.05 HB 44.81 HG12 43.18 HG13 43.18 HG21 47.05 HG22 47.05 HG23 47.05 HD11 43.99 HD12 43.99 HD13 43.99
A THR - 67 -120.4 122.4 N 39.12 CA 40.88 C 41.57 O 44.38 CB 43.07 OG1 45.51 CG2 41.71 H 46.94 HA 49.06 HB 51.69 HG1 54.62 HG21 50.05 HG22 50.05 HG23 50.05
A LEU B 1 -80.4 138.9 N 40.05 CA 39.29 C 38.57 O 42.8 CB 39.07 CG 39.54 CD1 36.99 CD2 35.96 H 48.06 HA 47.15 HB2 46.89 HB3 46.89 HG 47.44 HD11 44.39 HD12 44.39 HD13 44.39 HD21 43.15 HD22 43.15 HD23 43.15
A ARG - 90 -101.1 160.8 N 40.56 CA 43.37 C 41.51 O 42.56 CB 49.9 CG 50.43 CD 56.85 NE 58.23 CZ 59.07 NH1 60.52 NH2 57.11 H 48.67 HA 52.04 HB2 59.88 HB3 59.88 HG2 60.52 HG3 60.52 HD2 68.23 HD3 68.23 HE 69.88 HH11 72.63 HH12 72.63 HH21 68.53 HH22 68.53
A PRO S 57 -58.2 140.2 N 42.35 CA 42.64 C 43.53 O 41.28 CB 46.91 CG 48.06 CD 46.09 HA 51.17 HB2 56.3 HB3 56.3 HG2 57.67 HG3 57.67 HD2 55.31 HD3 55.31
A GLY E 1 93.5 -154.0 N 41.8 CA 40.0 C 38.83 O 37.6 H 50.16 HA2 48.0 HA3 48.0
A ARG E 123 -94.9 136.8 N 36.85 CA 35.87 C 34.58 O 38.47 CB 38.91 CG 39.61 CD 43.6 NE 44.51 CZ 47.37 NH1 49.71 NH2 48.36 H 44.21 HA 43.05 HB2 46.69 HB3 46.69 HG2 47.53 HG3 47.53 HD2 52.33 HD3 52.33 HE 53.41 HH11 59.65 HH12 59.65 HH21 58.03 HH22 58.03
A GLN E 5 -150.6 165.9 N 33.57 CA 33.6 C 32.38 O 31.12 CB 34.16 CG 32.5 CD 37.06 OE1 41.55 NE2 39.93 H 40.28 HA 40.32 HB2 41.0 HB3 41.0 HG2 39.01 HG3 39.01 HE21 47.91 HE22 47.91
A ARG E 31 -118.8 139.3 N 27.71 CA 30.94 C 30.85 O 33.25 CB 30.38 CG 32.7 CD 33.91 NE 29.07 CZ 33.15 NH1 35.28 NH2 32.45 H 33.26 HA 37.13 HB2 36.46 HB3 36.46 HG2 39.24 HG3 39.24 HD2 40.69 HD3 40.69 HE 34.89 HH11 42.33 HH12 42.33 HH21 38.94 HH22 38.94
A ILE E 1 -123.9 129.1 N 29.7 CA 29.68 C 25.97 O 26.09 CB 29.42 CG1 32.98 CG2 30.92 CD1 35.37 H 35.64 HA 35.61 HB 35.3 HG12 39.57 HG13 39.57 HG21 37.1 HG22 37.1 HG23 37.1 HD11 42.44 HD12 42.44 HD13 42.44
A VAL E 0 -126.7 124.9 N 26.58 CA 25.38 C 23.05 O 23.38 CB 27.18 CG1 26.79 CG2 28.39 H 31.89 HA 30.46 HB 32.62 HG11 32.15 HG12 32.15 HG13 32.15 HG21 34.07 HG22 34.07 HG23 34.07
A TYR E 0 -115.5 156.2 N 23.55 CA 22.91 C 23.69 O 24.93 CB 21.22 CG 20.87 CD1 24.03 CD2 23.55 CE1 26.47 CE2 23.89 CZ 25.64 OH 25.52 H 28.26 HA 27.49 HB2 25.46 HB3 25.46 HD1 28.84 HD2 28.26 HE1 31.77 HE2 28.66 HH 30.62
A LYS E 6 -125.9 149.8 N 22.9 CA 23.0 C 24.42 O 24.07 CB 23.81 CG 23.86 CD 25.46 CE 32.8 NZ 36.14 H 27.49 HA 27.6 HB2 28.57 HB3 28.57 HG2 28.63 HG3 28.63 HD2 30.55 HD3 30.55 HE2 39.36 HE3 39.36 HZ1 43.37 HZ2 43.37 HZ3 43.37
A ALA E 3 -149.7 146.4 N 24.17 CA 21.68 C 22.17 O 23.06 CB 24.42 H 29.0 HA 26.01 HB1 29.3 HB2 29.3 HB3 29.3
A THR E 77 -99.0 113.3 N 23.57 CA 22.52 C 23.75 O 26.68 CB 26.97 OG1 30.27 CG2 27.7 H 28.29 HA 27.02 HB 32.37 HG1 36.33 HG21 33.24 HG22 33.24 HG23 33.24
A LEU - 0 -110.1 98.2 N 19.29 CA 21.17 C 22.12 O 22.94 CB 23.21 CG 23.72 CD1 25.74 CD2 26.01 H 23.14 HA 25.41 HB2 27.85 HB3 27.85 HG 28.46 HD11 30.89 HD12 30.89 HD13 30.89 HD21 31.21 HD22 31.21 HD23 31.21
A PRO - 14 -82.5 69.5 N 23.14 CA 24.82 C 26.15 O 25.0 CB 26.39 CG 25.48 CD 24.8 HA 29.79 HB2 31.67 HB3 31.67 HG2 30.58 HG3 30.58 HD2 29.76 HD3 29.76
A ILE B 0 -111.0 127.5 N 26.6 CA 22.83 C 25.21 O 23.8 CB 23.55 CG1 23.14 CG2 21.64 CD1 23.43 H 31.92 HA 27.39 HB 28.26 HG12 27.76 HG13 27.76 HG21 25.97 HG22 25.97 HG23 25.97 HD11 28.12 HD12 28.12 HD13 28.12
A ASN - 6 -65.7 158.3 N 24.6 CA 26.6 C 27.36 O 26.52 CB 29.46 CG 30.79 OD1 28.59 ND2 30.73 H 29.52 HA 31.92 HB2 35.35 HB3 35.35 HD21 36.88 HD22 36.88
A SER S 34 -46.0 134.5 N 28.55 CA 30.14 C 30.93 O 29.56 CB 34.19 OG 36.16 H 34.26 HA 36.17 HB2 41.03 HB3 41.03 HG 43.39
A GLY E 19 158.1 -179.0 N 27.4 CA 27.93 C 26.07 O 27.95 H 32.88 HA2 33.52 HA3 33.52
A ASP E 104 -99.2 126.8 N 27.03 CA 28.83 C 29.18 O 30.89 CB 32.4 CG 36.07 OD1 36.6 OD2 41.57 H 32.44 HA 34.6 HB2 38.89 HB3 38.89
A TYR E 6 -130.1 173.4 N 26.16 CA 24.28 C 27.83 O 28.32 CB 24.32 CG 23.04 CD1 23.59 CD2 25.1 CE1 24.88 CE2 24.71 CZ 25.09 OH 26.73 H 31.39 HA 29.13 HB2 29.18 HB3 29.18 HD1 28.31 HD2 30.12 HE1 29.85 HE2 29.65 HH 32.07
A LEU E 35 -124.6 139.4 N 24.08 CA 23.77 C 22.96 O 25.97 CB 26.38 CG 28.84 CD1 35.38 CD2 33.06 H 28.89 HA 28.53 HB2 31.66 HB3 31.66 HG 34.61 HD11 42.46 HD12 42.46 HD13 42.46 HD21 39.67 HD22 39.67 HD23 39.67
A ILE E 0 -103.8 128.7 N 21.89 CA 21.46 C 23.66 O 27.22 CB 23.54 CG1 25.91 CG2 25.49 CD1 25.7 H 26.26 HA 25.75 HB 28.25 HG12 31.09 HG13 31.09 HG21 30.59 HG22 30.59 HG23 30.59 HD11 30.84 HD12 30.84 HD13 30.84
A HIS E 7 -117.1 143.6 N 24.03 CA 25.85 C 26.73 O 25.24 CB 24.9 CG 28.97 ND1 36.44 CD2 28.78 CE1 37.11 NE2 31.92 H 28.84 HA 31.03 HB2 29.88 HB3 29.88 HD2 34.53 HE1 44.53 HE2 38.3
A CYS E 3 -137.6 149.3 N 24.02 CA 24.05 C 27.52 O 28.61 CB 26.4 SG 25.57 H 28.83 HA 28.86 HB2 31.68 HB3 31.68 HG 30.69
A GLY E 7 -144.8 138.0 N 29.35 CA 31.16 C 30.3 O 29.86 H 35.22 HA2 37.39 HA3 37.39
A LEU E 1 -116.1 129.2 N 28.84 CA 31.04 C 30.97 O 31.03 CB 32.6 CG 33.85 CD1 33.14 CD2 36.02 H 34.61 HA 37.25 HB2 39.12 HB3 39.12 HG 40.62 HD11 39.77 HD12 39.77 HD13 39.77 HD21 43.23 HD22 43.23 HD23 43.23
A ALA E 0 -151.6 160.2 N 31.84 CA 35.44 C 37.82 O 39.98 CB 36.83 H 38.21 HA 42.53 HB1 44.2 HB2 44.2 HB3 44.2
A LYS E 60 -99.2 117.9 N 36.33 CA 38.85 C 44.41 O 48.72 CB 45.4 CG 57.43 CD 66.52 CE 74.52 NZ 76.48 H 43.6 HA 46.63 HB2 54.48 HB3 54.48 HG2 68.92 HG3 68.92 HD2 79.82 HD3 79.82 HE2 89.42 HE3 89.42 HZ1 91.77 HZ2 91.77 HZ3 91.77
A VAL - 57 -70.1 140.2 N 48.58 CA 56.19 C 60.84 O 61.79 CB 84.13 CG1 87.9 CG2 89.45 H 58.3 HA 67.43 HB 100.96 HG11 105.48 HG12 105.48 HG13 105.48 HG21 107.34 HG22 107.34 HG23 107.34
A GLY - 104 -57.6 360.0 N 62.41 CA 64.32 C 69.32 O 73.76 H 74.9 HA2 77.18 HA3 77.18
A ARG - 169 360.0 136.3 N 64.82 CA 54.92 C 55.24 O 57.77 CB 53.63 CG 54.08 CD 57.79 NE 59.22 CZ 63.86 NH1 64.76 NH2 66.65 H 77.78 HA 65.9 HB2 64.36 HB3 64.36 HG2 64.89 HG3 64.89 HD2 69.35 HD3 69.35 HE 71.06 HH11 77.71 HH12 77.71 HH21 79.98 HH22 79.98
A GLU E 62 -105.9 112.6 N 48.64 CA 44.54 C 41.07 O 37.96 CB 42.1 CG 42.23 CD 44.86 OE1 49.41 OE2 45.0 H 58.37 HA 53.45 HB2 50.52 HB3 50.52 HG2 50.68 HG3 50.68
A GLU E 60 -71.0 122.6 N 40.9 CA 39.85 C 37.31 O 37.03 CB 45.36 CG 50.04 CD 52.64 OE1 48.32 OE2 56.8 H 49.09 HA 47.82 HB2 54.43 HB3 54.43 HG2 60.05 HG3 60.05
A LEU E 0 -94.0 -50.8 N 34.61 CA 30.93 C 30.59 O 35.61 CB 31.16 CG 35.41 CD1 36.25 CD2 37.63 H 41.54 HA 37.11 HB2 37.39 HB3 37.39 HG 42.5 HD11 43.5 HD12 43.5 HD13 43.5 HD21 45.15 HD22 45.15 HD23 45.15
A ASP E 0 -158.0 106.2 N 29.64 CA 31.38 C 29.96 O 27.86 CB 30.71 CG 32.01 OD1 31.95 OD2 29.83 H 35.57 HA 37.66 HB2 36.86 HB3 36.86
A GLN E 23 -106.5 125.7 N 29.25 CA 30.18 C 29.85 O 32.28 CB 35.56 CG 40.61 CD 43.02 OE1 45.14 NE2 46.55 H 35.11 HA 36.21 HB2 42.67 HB3 42.67 HG2 48.73 HG3 48.73 HE21 55.86 HE22 55.86
A ARG E 12 -121.1 105.5 N 28.33 CA 28.37 C 30.01 O 30.74 CB 29.02 CG 29.48 CD 28.63 NE 26.38 CZ 32.61 NH1 30.82 NH2 36.22 H 34.0 HA 34.05 HB2 34.82 HB3 34.82 HG2 35.38 HG3 35.38 HD2 34.36 HD3 34.36 HE 31.66 HH11 36.98 HH12 36.98 HH21 43.46 HH22 43.46
A ARG E 93 -137.2 103.6 N 33.6 CA 34.06 C 33.88 O 35.68 CB 42.31 CG 46.63 CD 48.17 NE 50.67 CZ 49.29 NH1 48.71 NH2 51.74 H 40.32 HA 40.87 HB2 50.77 HB3 50.77 HG2 55.95 HG3 55.95 HD2 57.81 HD3 57.81 HE 60.81 HH11 58.45 HH12 58.45 HH21 62.09 HH22 62.09
A PRO E 16 -87.9 145.3 N 34.32 CA 32.27 C 32.03 O 36.02 CB 31.99 CG 35.25 CD 36.38 HA 38.72 HB2 38.39 HB3 38.39 HG2 42.3 HG3 42.3 HD2 43.66 HD3 43.66
A MET E 11 -77.5 -35.5 N 31.49 CA 32.19 C 31.81 O 32.67 CB 36.5 CG 41.58 SD 36.81 CE 43.45 H 37.79 HA 38.63 HB2 43.8 HB3 43.8 HG2 49.9 HG3 49.9 HE1 52.14 HE2 52.14 HE3 52.14
A MET E 37 -164.5 161.3 N 30.19 CA 30.97 C 29.07 O 28.49 CB 31.88 CG 30.2 SD 41.14 CE 65.97 H 36.23 HA 37.17 HB2 38.26 HB3 38.26 HG2 36.24 HG3 36.24 HE1 79.16 HE2 79.16 HE3 79.16
A LYS E 139 -87.1 152.6 N 28.73 CA 28.3 C 26.73 O 27.64 CB 34.43 CG 40.11 CD 44.61 CE 49.39 NZ 54.62 H 34.48 HA 33.96 HB2 41.32 HB3 41.32 HG2 48.14 HG3 48.14 HD2 53.53 HD3 53.53 HE2 59.26 HE3 59.26 HZ1 65.54 HZ2 65.54 HZ3 65.54
A VAL E 6 -144.9 135.7 N 23.56 CA 22.91 C 24.02 O 26.6 CB 24.05 CG1 25.43 CG2 28.33 H 28.27 HA 27.49 HB 28.87 HG11 30.52 HG12 30.52 HG13 30.52 HG21 33.99 HG22 33.99 HG23 33.99
A LYS E 106 -108.2 126.0 N 25.31 CA 24.8 C 25.56 O 29.18 CB 32.39 CG 39.8 CD 51.91 CE 60.82 NZ 70.32 H 30.37 HA 29.76 HB2 38.87 HB3 38.87 HG2 47.76 HG3 47.76 HD2 62.3 HD3 62.3 HE2 72.99 HE3 72.99 HZ1 84.38 HZ2 84.38 HZ3 84.38
A PHE E 2 -98.5 146.4 N 25.84 CA 25.52 C 25.1 O 25.07 CB 22.92 CG 21.74 CD1 26.62 CD2 22.75 CE1 22.48 CE2 24.56 CZ 22.8 H 31.0 HA 30.62 HB2 27.5 HB3 27.5 HD1 31.95 HD2 27.3 HE1 26.97 HE2 29.47 HZ 27.36
A TRP E 138 -143.1 152.7 N 26.23 CA 29.66 C 30.57 O 32.86 CB 31.58 CG 31.93 CD1 32.74 CD2 33.9 NE1 36.32 CE2 35.94 CE3 35.74 CZ2 37.83 CZ3 36.07 CH2 39.7 H 31.47 HA 34.85 HB2 37.89 HB3 37.89 HD1 39.28 HE1 43.59 HE3 42.89 HZ2 45.4 HZ3 43.28 HH2 47.64
A SER - 6 -159.3 145.0 N 30.28 CA 33.57 C 35.66 O 36.17 CB 32.26 OG 34.96 H 36.34 HA 40.0 HB2 38.71 HB3 38.71 HG 41.95
A ALA S 80 -74.3 -21.4 N 37.74 CA 40.05 C 37.71 O 40.26 CB 43.95 H 45.29 HA 48.06 HB1 52.74 HB2 52.74 HB3 52.74
A ARG S 51 -81.3 118.5 N 33.56 CA 34.23 C 34.35 O 35.79 CB 33.92 CG 31.53 CD 37.58 NE 38.62 CZ 37.96 NH1 38.44 NH2 34.35 H 40.27 HA 41.08 HB2 40.71 HB3 40.71 HG2 37.83 HG3 37.83 HD2 45.1 HD3 45.1 HE 46.34 HH11 46.12 HH12 46.12 HH21 41.21 HH22 41.21
A GLU - 112 -98.1 137.6 N 37.36 CA 38.77 C 36.92 O 37.73 CB 45.76 CG 54.94 CD 60.43 OE1 63.92 OE2 62.73 H 44.83 HA 46.52 HB2 54.91 HB3 54.91 HG2 65.92 HG3 65.92
A LEU - 29 -139.1 166.5 N 31.19 CA 31.25 C 31.54 O 33.57 CB 29.85 CG 30.76 CD1 30.96 CD2 30.72 H 37.42 HA 37.5 HB2 35.82 HB3 35.82 HG 36.91 HD11 37.15 HD12 37.15 HD13 37.15 HD21 36.87 HD22 36.87 HD23 36.87
A GLY E 33 -90.2 158.6 N 30.41 CA 31.5 C 29.62 O 29.24 H 36.49 HA2 37.8 HA3 37.8
A GLY E 38 72.1 -159.8 N 30.67 CA 27.75 C 25.75 O 31.96 H 36.81 HA2 33.3 HA3 33.3
A VAL S 23 -103.7 -17.6 N 27.76 CA 25.13 C 22.29 O 26.13 CB 25.94 CG1 31.67 CG2 28.3 H 33.31 HA 30.15 HB 31.13 HG11 38.0 HG12 38.0 HG13 38.0 HG21 33.96 HG22 33.96 HG23 33.96
A ILE B 0 -87.1 118.3 N 25.24 CA 21.33 C 21.48 O 25.62 CB 24.15 CG1 28.84 CG2 27.44 CD1 32.93 H 30.29 HA 25.59 HB 28.97 HG12 34.61 HG13 34.61 HG21 32.93 HG22 32.93 HG23 32.93 HD11 39.52 HD12 39.52 HD13 39.52
A HIS - 23 -86.8 87.1 N 21.99 CA 22.96 C 23.76 O 27.01 CB 23.29 CG 24.35 ND1 25.38 CD2 25.23 CE1 25.77 NE2 28.2 H 26.39 HA 27.55 HB2 27.94 HB3 27.94 HD1 30.46 HD2 30.28 HE1 30.92
A ALA - 3 -130.5 77.9 N 24.07 CA 25.82 C 26.76 O 26.68 CB 27.66 H 28.89 HA 30.99 HB1 33.19 HB2 33.19 HB3 33.19
A PRO - 52 -64.8 135.9 N 28.53 CA 30.48 C 31.15 O 30.1 CB 34.08 CG 35.2 CD 31.36 HA 36.58 HB2 40.89 HB3 40.89 HG2 42.24 HG3 42.24 HD2 37.64 HD3 37.64
A LEU - 7 -66.1 143.2 N 34.03 CA 32.84 C 36.6 O 37.6 CB 34.67 CG 35.21 CD1 36.25 CD2 35.03 H 40.84 HA 39.4 HB2 41.6 HB3 41.6 HG 42.25 HD11 43.49 HD12 43.49 HD13 43.49 HD21 42.03 HD22 42.03 HD23 42.03
A LYS E 104 -110.4 132.3 N 35.97 CA 42.02 C 41.54 O 39.39 CB 51.9 CG 63.14 CD 77.56 CE 88.11 NZ 95.25 H 43.16 HA 50.42 HB2 62.28 HB3 62.28 HG2 75.77 HG3 75.77 HD2 93.07 HD3 93.07 HE2 105.73 HE3 105.73 HZ1 114.3 HZ2 114.3 HZ3 114.3
A ILE E 39 -86.7 110.9 N 43.4 CA 46.5 C 48.86 O 53.38 CB 50.51 CG1 52.96 CG2 52.22 CD1 53.38 H 52.08 HA 55.8 HB 60.61 HG12 63.56 HG13 63.56 HG21 62.66 HG22 62.66 HG23 62.66 HD11 64.05 HD12 64.05 HD13 64.05
A ILE E 94 -86.5 -63.3 N 50.87 CA 54.7 C 58.34 O 61.53 CB 56.39 CG1 56.3 CG2 62.02 CD1 56.07 H 61.04 HA 65.64 HB 67.67 HG12 67.56 HG13 67.56 HG21 74.43 HG22 74.43 HG23 74.43 HD11 67.29 HD12 67.29 HD13 67.29
A SER E 44 -116.0 122.3 N 61.5 CA 72.57 C 76.93 O 67.03 CB 80.58 OG 89.63 H 73.8 HA 87.08 HB2 96.7 HB3 96.7 HG 107.55
A ASN - 124 -89.7 360.0 N 92.15 CA 99.14 C 103.61 O 104.88 CB 102.01 CG 105.53 OD1 106.61 ND2 107.84 H 110.58 HA 118.97 HB2 122.41 HB3 122.41 HD21 129.41 HD22 129.41
B GLU - 188 360.0 -84.0 N 97.0 CA 98.42 C 98.69 O 103.96 CB 95.38 CG 97.37 CD 96.89 OE1 92.18 OE2 100.84 HA 118.1 HB2 114.46 HB3 114.46 HG2 116.84 HG3 116.84
B VAL - 29 -126.8 133.0 N 92.83 CA 87.22 C 84.56 O 82.61 CB 82.47 CG1 78.74 CG2 78.07 H 111.39 HA 104.66 HB 98.97 HG11 94.49 HG12 94.49 HG13 94.49 HG21 93.68 HG22 93.68 HG23 93.68
B SER - 56 -78.5 142.9 N 85.19 CA 83.6 C 77.7 O 76.4 CB 85.78 OG 85.77 H 102.23 HA 100.32 HB2 102.94 HB3 102.94 HG 102.93
B VAL H 38 -57.6 -32.2 N 74.68 CA 71.32 C 70.63 O 68.79 CB 71.09 CG1 74.49 CG2 68.52 H 89.62 HA 85.59 HB 85.31 HG11 89.39 HG12 89.39 HG13 89.39 HG21 82.22 HG22 82.22 HG23 82.22
B GLU H 128 -56.0 -44.7 N 72.91 CA 74.18 C 74.75 O 72.59 CB 78.25 CG 83.29 CD 89.06 OE1 92.76 OE2 91.1 H 87.49 HA 89.02 HB2 93.9 HB3 93.9 HG2 99.95 HG3 99.95
B GLU H 88 -65.7 -47.3 N 78.2 CA 78.54 C 71.59 O 70.16 CB 82.33 CG 87.49 CD 87.38 OE1 88.76 OE2 85.1 H 93.84 HA 94.24 HB2 98.8 HB3 98.8 HG2 104.99 HG3 104.99
B LEU H 0 -61.1 -36.4 N 69.36 CA 67.17 C 65.19 O 63.63 CB 68.76 CG 71.42 CD1 68.93 CD2 74.03 H 83.23 HA 80.6 HB2 82.51 HB3 82.51 HG 85.7 HD11 82.71 HD12 82.71 HD13 82.71 HD21 88.84 HD22 88.84 HD23 88.84
B LYS H 89 -63.5 -42.5 N 66.28 CA 65.8 C 66.3 O 65.14 CB 69.27 CG 72.58 CD 81.23 CE 86.17 NZ 86.53 H 79.53 HA 78.96 HB2 83.13 HB3 83.13 HG2 87.1 HG3 87.1 HD2 97.48 HD3 97.48 HE2 103.41 HE3 103.41 HZ1 103.84 HZ2 103.84 HZ3 103.84
B ALA H 35 -67.3 -43.9 N 68.41 CA 69.82 C 68.53 O 68.5 CB 72.9 H 82.1 HA 83.79 HB1 87.48 HB2 87.48 HB3 87.48
B ILE H 28 -54.5 -48.8 N 68.25 CA 67.64 C 64.94 O 63.8 CB 80.38 CG1 82.6 CG2 81.14 CD1 84.72 H 81.9 HA 81.17 HB 96.46 HG12 99.13 HG13 99.13 HG21 97.37 HG22 97.37 HG23 97.37 HD11 101.66 HD12 101.66 HD13 101.66
B GLN H 21 -60.5 -46.5 N 63.67 CA 62.65 C 64.17 O 60.24 CB 61.13 CG 57.75 CD 58.22 OE1 60.88 NE2 57.1 H 76.41 HA 75.18 HB2 73.35 HB3 73.35 HG2 69.3 HG3 69.3 HE21 68.52 HE22 68.52
B LEU H 145 -69.2 -36.6 N 69.65 CA 76.4 C 74.27 O 73.04 CB 87.24 CG 97.37 CD1 101.78 CD2 102.88 H 83.58 HA 91.68 HB2 104.69 HB3 104.69 HG 116.85 HD11 122.13 HD12 122.13 HD13 122.13 HD21 123.46 HD22 123.46 HD23 123.46
B ARG H 150 -72.8 -52.1 N 74.7 CA 78.23 C 75.02 O 74.08 CB 86.3 CG 94.87 CD 103.71 NE 111.5 CZ 116.16 NH1 119.15 NH2 116.37 H 89.64 HA 93.88 HB2 103.56 HB3 103.56 HG2 113.85 HG3 113.85 HD2 124.45 HD3 124.45 HE 133.8 HH11 142.98 HH12 142.98 HH21 139.65 HH22 139.65
B THR S 53 -89.8 83.6 N 81.31 CA 82.41 C 76.34 O 73.66 CB 86.03 OG1 84.18 CG2 91.61 H 97.57 HA 98.89 HB 103.24 HG1 101.01 HG21 109.93 HG22 109.93 HG23 109.93
B THR - 29 -134.6 115.4 N 75.8 CA 73.91 C 78.01 O 83.98 CB 74.97 OG1 71.36 CG2 74.97 H 90.96 HA 88.69 HB 89.96 HG1 85.63 HG21 89.96 HG22 89.96 HG23 89.96
B ASN - 61 -66.7 116.1 N 76.64 CA 79.56 C 81.64 O 76.22 CB 77.54 CG 79.74 OD1 76.95 ND2 84.64 H 91.97 HA 95.47 HB2 93.05 HB3 93.05 HD21 101.57 HD22 101.57
B GLU T 140 -92.1 -12.3 N 90.02 CA 94.43 C 90.69 O 92.91 CB 105.53 CG 110.63 CD 112.25 OE1 109.59 OE2 116.89 H 108.03 HA 113.31 HB2 126.63 HB3 126.63 HG2 132.75 HG3 132.75
B ALA T 73 -67.8 -19.6 N 85.68 CA 85.06 C 80.1 O 78.13 CB 87.26 H 102.82 HA 102.07 HB1 104.71 HB2 104.71 HB3 104.71
B THR T 28 -113.0 -6.3 N 79.76 CA 77.66 C 78.5 O 77.83 CB 73.12 OG1 72.65 CG2 71.8 H 95.72 HA 93.2 HB 87.74 HG1 87.18 HG21 86.16 HG22 86.16 HG23 86.16
B GLY T 35 69.2 46.0 N 78.95 CA 77.81 C 71.63 O 70.38 H 94.74 HA2 93.38 HA3 93.38
B GLU - 2 -62.4 124.5 N 68.51 CA 67.3 C 78.58 O 88.41 CB 61.12 CG 58.33 CD 63.04 OE1 61.8 OE2 69.48 H 82.21 HA 80.76 HB2 73.35 HB3 73.35 HG2 69.99 HG3 69.99
B LYS E 135 -103.9 125.5 N 78.25 CA 80.26 C 75.28 O 73.35 CB 83.28 CG 89.62 CD 95.9 CE 102.11 NZ 103.1 H 93.9 HA 96.31 HB2 99.93 HB3 99.93 HG2 107.54 HG3 107.54 HD2 115.08 HD3 115.08 HE2 122.54 HE3 122.54 HZ1 123.72 HZ2 123.72 HZ3 123.72
B ARG E 34 -127.8 126.8 N 69.16 CA 58.94 C 56.23 O 55.87 CB 59.71 CG 59.53 CD 57.5 NE 52.95 CZ 54.28 NH1 56.79 NH2 54.38 H 82.99 HA 70.73 HB2 71.66 HB3 71.66 HG2 71.44 HG3 71.44 HD2 68.99 HD3 68.99 HE 63.55 HH11 68.15 HH12 68.15 HH21 65.26 HH22 65.26
B PHE E 107 -143.5 168.3 N 50.69 CA 53.89 C 50.87 O 48.27 CB 61.43 CG 69.58 CD1 72.86 CD2 74.7 CE1 74.93 CE2 76.68 CZ 76.08 H 60.83 HA 64.67 HB2 73.71 HB3 73.71 HD1 87.44 HD2 89.64 HE1 89.91 HE2 92.01 HZ 91.29
B GLY S 28 135.7 163.0 N 52.39 CA 55.16 C 56.2 O 56.01 H 62.87 HA2 66.19 HA3 66.19
B SER - 34 -66.9 -21.0 N 57.87 CA 59.19 C 58.46 O 60.59 CB 60.27 OG 59.22 H 69.45 HA 71.03 HB2 72.32 HB3 72.32 HG 71.06
B ALA - 0 63.8 18.3 N 56.06 CA 57.21 C 60.8 O 63.8 CB 56.54 H 67.27 HA 68.66 HB1 67.85 HB2 67.85 HB3 67.85
B ARG S 56 -54.3 -37.7 N 60.07 CA 62.74 C 67.27 O 69.78 CB 61.34 CG 63.17 CD 64.15 NE 71.28 CZ 85.24 NH1 90.45 NH2 93.57 H 72.08 HA 75.29 HB2 73.6 HB3 73.6 HG2 75.81 HG3 75.81 HD2 76.98 HD3 76.98 HE 85.54 HH11 108.55 HH12 108.55 HH21 112.28 HH22 112.28
B ALA E 0 -135.9 153.2 N 73.0 CA 65.67 C 61.16 O 59.95 CB 60.64 H 87.61 HA 78.8 HB1 72.76 HB2 72.76 HB3 72.76
B ILE E 0 -133.8 156.6 N 58.74 CA 58.2 C 56.05 O 55.48 CB 59.75 CG1 61.73 CG2 63.19 CD1 66.19 H 70.49 HA 69.84 HB 71.7 HG12 74.07 HG13 74.07 HG21 75.83 HG22 75.83 HG23 75.83 HD11 79.43 HD12 79.43 HD13 79.43
B ILE E 0 -83.5 94.1 N 56.25 CA 53.51 C 52.02 O 51.28 CB 55.32 CG1 57.61 CG2 53.36 CD1 57.08 H 67.49 HA 64.21 HB 66.39 HG12 69.13 HG13 69.13 HG21 64.03 HG22 64.03 HG23 64.03 HD11 68.5 HD12 68.5 HD13 68.5
B GLU E 43 -60.6 -41.2 N 52.34 CA 57.14 C 55.91 O 56.23 CB 61.71 CG 69.24 CD 75.53 OE1 74.4 OE2 82.08 H 62.8 HA 68.57 HB2 74.05 HB3 74.05 HG2 83.09 HG3 83.09
B ASP E 70 -164.4 159.3 N 54.79 CA 54.31 C 47.68 O 46.53 CB 61.38 CG 64.15 OD1 63.47 OD2 66.83 H 65.75 HA 65.17 HB2 73.66 HB3 73.66
B LEU E 5 -128.1 129.2 N 45.52 CA 43.99 C 48.22 O 49.72 CB 43.43 CG 39.64 CD1 39.89 CD2 42.34 H 54.63 HA 52.79 HB2 52.12 HB3 52.12 HG 47.56 HD11 47.87 HD12 47.87 HD13 47.87 HD21 50.8 HD22 50.8 HD23 50.8
B THR E 40 -119.5 135.7 N 47.06 CA 44.43 C 41.07 O 39.62 CB 46.77 OG1 50.11 CG2 47.91 H 56.47 HA 53.32 HB 56.12 HG1 60.13 HG21 57.49 HG22 57.49 HG23 57.49
B ILE E 4 -114.1 126.4 N 42.62 CA 42.67 C 39.7 O 38.4 CB 53.05 CG1 55.41 CG2 56.49 CD1 57.32 H 51.15 HA 51.2 HB 63.67 HG12 66.49 HG13 66.49 HG21 67.79 HG22 67.79 HG23 67.79 HD11 68.78 HD12 68.78 HD13 68.78
B TYR E 80 -111.4 142.0 N 38.17 CA 40.2 C 39.68 O 39.51 CB 39.58 CG 39.08 CD1 37.88 CD2 39.42 CE1 39.09 CE2 41.12 CZ 39.87 OH 44.28 H 45.8 HA 48.24 HB2 47.5 HB3 47.5 HD1 45.46 HD2 47.3 HE1 46.9 HE2 49.34 HH 53.13
B LYS - 13 -90.2 176.6 N 40.31 CA 43.51 C 43.3 O 39.93 CB 49.65 CG 56.17 CD 63.28 CE 68.41 NZ 74.71 H 48.37 HA 52.21 HB2 59.58 HB3 59.58 HG2 67.4 HG3 67.4 HD2 75.94 HD3 75.94 HE2 82.1 HE3 82.1 HZ1 89.65 HZ2 89.65 HZ3 89.65
B SER T 80 -63.6 -33.5 N 47.4 CA 47.33 C 46.03 O 44.73 CB 49.69 OG 53.31 H 56.88 HA 56.8 HB2 59.63 HB3 59.63 HG 63.97
B ASP T 83 -75.2 -3.9 N 46.79 CA 49.99 C 49.32 O 53.16 CB 53.14 CG 55.53 OD1 52.88 OD2 61.19 H 56.14 HA 59.99 HB2 63.77 HB3 63.77
B GLY S 49 94.6 -3.6 N 46.66 CA 44.33 C 44.53 O 44.91 H 55.99 HA2 53.2 HA3 53.2
B THR - 34 -86.1 157.8 N 43.71 CA 48.73 C 49.83 O 53.16 CB 52.08 OG1 51.47 CG2 53.12 H 52.46 HA 58.47 HB 62.49 HG1 61.77 HG21 63.74 HG22 63.74 HG23 63.74
B THR B 22 -91.4 179.0 N 49.79 CA 51.87 C 55.58 O 55.77 CB 57.07 OG1 66.17 CG2 55.59 H 59.75 HA 62.24 HB 68.49 HG1 79.41 HG21 66.71 HG22 66.71 HG23 66.71
B LEU T 21 -74.3 -35.4 N 58.77 CA 62.87 C 66.54 O 70.03 CB 63.28 CG 61.18 CD1 61.27 CD2 61.01 H 70.52 HA 75.45 HB2 75.93 HB3 75.93 HG 73.42 HD11 73.53 HD12 73.53 HD13 73.53 HD21 73.21 HD22 73.21 HD23 73.21
B ALA T 101 -60.2 -39.9 N 65.88 CA 70.48 C 76.7 O 77.82 CB 69.69 H 79.05 HA 84.57 HB1 83.62 HB2 83.62 HB3 83.62
B GLU T 133 -72.7 -44.2 N 80.56 CA 85.27 C 93.08 O 102.24 CB 75.32 CG 69.38 CD 61.01 OE1 56.98 OE2 60.2 H 96.68 HA 102.33 HB2 90.38 HB3 90.38 HG2 83.26 HG3 83.26
B LYS - 100 -147.4 104.4 N 88.79 CA 86.69 C 79.21 O 77.12 CB 87.84 CG 90.64 CD 89.77 CE 89.36 NZ 88.33 H 106.55 HA 104.02 HB2 105.41 HB3 105.41 HG2 108.77 HG3 108.77 HD2 107.72 HD3 107.72 HE2 107.23 HE3 107.23 HZ1 106.0 HZ2 106.0 HZ3 106.0
B PRO - 84 -75.0 2.9 N 72.91 CA 64.39 C 53.63 O 53.33 CB 67.06 CG 70.04 CD 73.05 HA 77.27 HB2 80.47 HB3 80.47 HG2 84.04 HG3 84.04 HD2 87.66 HD3 87.66
B LEU E 55 -91.3 139.6 N 48.46 CA 44.68 C 42.2 O 46.46 CB 49.71 CG 53.73 CD1 55.72 CD2 51.75 H 58.15 HA 53.62 HB2 59.65 HB3 59.65 HG 64.47 HD11 66.86 HD12 66.86 HD13 66.86 HD21 62.1 HD22 62.1 HD23 62.1
B ILE E 3 -113.6 131.3 N 37.42 CA 35.93 C 35.07 O 35.19 CB 34.51 CG1 39.87 CG2 34.45 CD1 39.06 H 44.9 HA 43.11 HB 41.41 HG12 47.85 HG13 47.85 HG21 41.34 HG22 41.34 HG23 41.34 HD11 46.88 HD12 46.88 HD13 46.88
B LYS E 93 -77.1 137.7 N 38.59 CA 40.02 C 34.18 O 34.7 CB 49.89 CG 58.9 CD 71.54 CE 80.47 NZ 89.81 H 46.31 HA 48.03 HB2 59.87 HB3 59.87 HG2 70.68 HG3 70.68 HD2 85.85 HD3 85.85 HE2 96.56 HE3 96.56 HZ1 107.77 HZ2 107.77 HZ3 107.77
B SER T 11 -53.7 128.3 N 29.85 CA 27.93 C 27.49 O 29.78 CB 28.82 OG 30.54 H 35.82 HA 33.51 HB2 34.59 HB3 34.59 HG 36.65
B GLY T 36 88.6 2.1 N 27.45 CA 30.15 C 32.67 O 35.08 H 32.94 HA2 36.19 HA3 36.19
B GLU - 23 -75.1 149.9 N 32.81 CA 35.74 C 35.54 O 31.9 CB 38.7 CG 47.15 CD 49.25 OE1 43.74 OE2 58.44 H 39.38 HA 42.89 HB2 46.44 HB3 46.44 HG2 56.58 HG3 56.58
B GLU E 60 -86.0 128.5 N 34.3 CA 34.74 C 34.64 O 37.29 CB 40.78 CG 42.91 CD 48.27 OE1 52.16 OE2 51.07 H 41.16 HA 41.68 HB2 48.94 HB3 48.94 HG2 51.49 HG3 51.49
B VAL E 0 -118.4 145.4 N 31.82 CA 32.44 C 34.95 O 36.33 CB 34.74 CG1 36.87 CG2 36.93 H 38.18 HA 38.93 HB 41.69 HG11 44.24 HG12 44.24 HG13 44.24 HG21 44.32 HG22 44.32 HG23 44.32
B THR E 26 -113.9 128.0 N 35.06 CA 35.68 C 34.56 O 36.01 CB 37.36 OG1 39.08 CG2 39.08 H 42.07 HA 42.81 HB 44.83 HG1 46.9 HG21 46.89 HG22 46.89 HG23 46.89
B PHE E 2 -105.5 111.0 N 32.83 CA 32.61 C 36.1 O 37.36 CB 32.64 CG 31.28 CD1 30.86 CD2 32.54 CE1 30.71 CE2 32.03 CZ 29.38 H 39.4 HA 39.13 HB2 39.17 HB3 39.17 HD1 37.03 HD2 39.05 HE1 36.85 HE2 38.43 HZ 35.25
B ASP E 14 -103.4 100.2 N 35.6 CA 37.8 C 39.38 O 41.05 CB 39.92 CG 47.0 OD1 49.45 OD2 51.28 H 42.72 HA 45.36 HB2 47.91 HB3 47.91
B PHE E 0 -90.5 130.9 N 40.87 CA 42.84 C 44.86 O 47.07 CB 43.3 CG 42.58 CD1 42.29 CD2 41.27 CE1 40.79 CE2 39.91 CZ 38.5 H 49.04 HA 51.41 HB2 51.96 HB3 51.96 HD1 50.75 HD2 49.52 HE1 48.94 HE2 47.89 HZ 46.2
B THR E 37 -99.5 111.8 N 48.98 CA 52.36 C 52.98 O 53.42 CB 53.64 OG1 54.06 CG2 56.23 H 58.78 HA 62.83 HB 64.37 HG1 64.87 HG21 67.48 HG22 67.48 HG23 67.48
B ILE E 0 -107.5 128.5 N 51.2 CA 55.37 C 63.8 O 67.03 CB 54.64 CG1 50.18 CG2 55.47 CD1 44.67 H 61.44 HA 66.44 HB 65.56 HG12 60.21 HG13 60.21 HG21 66.57 HG22 66.57 HG23 66.57 HD11 53.6 HD12 53.6 HD13 53.6
B LEU E 13 -116.7 115.9 N 67.32 CA 67.03 C 61.92 O 58.46 CB 69.02 CG 75.45 CD1 79.4 CD2 77.48 H 80.79 HA 80.44 HB2 82.82 HB3 82.82 HG 90.54 HD11 95.28 HD12 95.28 HD13 95.28 HD21 92.98 HD22 92.98 HD23 92.98
B ALA E 0 -117.9 136.9 N 60.73 CA 60.61 C 64.83 O 66.88 CB 59.14 H 72.88 HA 72.73 HB1 70.96 HB2 70.96 HB3 70.96
B SER S 23 -79.8 -15.8 N 66.17 CA 71.61 C 76.77 O 86.46 CB 72.39 OG 70.03 H 79.4 HA 85.93 HB2 86.87 HB3 86.87 HG 84.04
B GLU S 84 -162.1 172.0 N 71.36 CA 72.47 C 68.75 O 65.71 CB 77.16 CG 75.34 CD 77.86 OE1 81.38 OE2 74.43 H 85.63 HA 86.96 HB2 92.59 HB3 92.59 HG2 90.4 HG3 90.4
B GLU - 109 -68.5 145.0 N 68.9 CA 67.3 C 65.19 O 65.8 CB 74.35 CG 77.91 CD 86.29 OE1 89.92 OE2 89.33 H 82.69 HA 80.76 HB2 89.22 HB3 89.22 HG2 93.5 HG3 93.5
B ILE B 2 -146.7 109.9 N 60.78 CA 61.84 C 62.48 O 61.07 CB 58.43 CG1 60.85 CG2 59.01 CD1 57.74 H 72.94 HA 74.2 HB 70.12 HG12 73.03 HG13 73.03 HG21 70.81 HG22 70.81 HG23 70.81 HD11 69.29 HD12 69.29 HD13 69.29
B LYS - 119 -79.3 155.4 N 66.84 CA 67.52 C 64.91 O 64.65 CB 72.33 CG 75.82 CD 80.77 CE 82.37 NZ 85.83 H 80.21 HA 81.03 HB2 86.79 HB3 86.79 HG2 90.98 HG3 90.98 HD2 96.93 HD3 96.93 HE2 98.85 HE3 98.85 HZ1 103.0 HZ2 103.0 HZ3 103.0
B ASP S 81 50.1 64.7 N 63.7 CA 64.58 C 58.26 O 57.84 CB 73.37 CG 81.7 OD1 81.9 OD2 88.26 H 76.43 HA 77.5 HB2 88.04 HB3 88.04
B ILE E 0 -97.9 161.6 N 50.07 CA 48.19 C 44.84 O 43.58 CB 54.36 CG1 57.14 CG2 60.35 CD1 55.0 H 60.09 HA 57.83 HB 65.23 HG12 68.57 HG13 68.57 HG21 72.42 HG22 72.42 HG23 72.42 HD11 66.0 HD12 66.0 HD13 66.0
B ALA E 2 -118.4 117.8 N 41.96 CA 39.85 C 38.0 O 39.14 CB 39.07 H 50.36 HA 47.82 HB1 46.89 HB2 46.89 HB3 46.89
B LEU E 0 -110.3 105.5 N 36.28 CA 34.58 C 33.11 O 32.09 CB 37.58 CG 38.6 CD1 39.26 CD2 42.3 H 43.54 HA 41.49 HB2 45.09 HB3 45.09 HG 46.32 HD11 47.11 HD12 47.11 HD13 47.11 HD21 50.76 HD22 50.76 HD23 50.76
B GLY E 17 -113.6 162.0 N 30.56 CA 31.41 C 31.7 O 33.12 H 36.67 HA2 37.69 HA3 37.69
B ILE E 5 -145.4 146.9 N 28.86 CA 29.77 C 28.23 O 28.64 CB 31.89 CG1 32.9 CG2 33.55 CD1 34.68 H 34.63 HA 35.72 HB 38.27 HG12 39.48 HG13 39.48 HG21 40.26 HG22 40.26 HG23 40.26 HD11 41.62 HD12 41.62 HD13 41.62
B SER E 10 -148.9 171.2 N 28.36 CA 27.29 C 28.16 O 29.28 CB 28.67 OG 30.59 H 34.03 HA 32.75 HB2 34.41 HB3 34.41 HG 36.71
B MET E 2 -139.8 140.4 N 27.72 CA 34.81 C 29.61 O 30.65 CB 48.11 CG 56.71 SD 34.43 CE 30.64 H 33.27 HA 41.78 HB2 57.74 HB3 57.74 HG2 68.05 HG3 68.05 HE1 36.77 HE2 36.77 HE3 36.77
B SER E 6 -132.1 157.0 N 30.07 CA 31.69 C 37.43 O 35.43 CB 36.8 OG 39.22 H 36.09 HA 38.03 HB2 44.16 HB3 44.16 HG 47.07
B LYS E 102 -69.0 148.2 N 39.03 CA 41.44 C 44.93 O 45.4 CB 47.4 CG 51.22 CD 59.69 CE 65.94 NZ 70.2 H 46.83 HA 49.73 HB2 56.88 HB3 56.88 HG2 61.46 HG3 61.46 HD2 71.62 HD3 71.62 HE2 79.13 HE3 79.13 HZ1 84.24 HZ2 84.24 HZ3 84.24
B ALA T 63 -51.0 -19.3 N 49.32 CA 53.86 C 62.04 O 62.08 CB 56.99 H 59.18 HA 64.63 HB1 68.39 HB2 68.39 HB3 68.39
B GLN T 185 -135.9 78.4 N 70.1 CA 76.27 C 76.55 O 80.65 CB 79.97 CG 86.62 CD 92.9 OE1 94.82 NE2 96.51 H 84.12 HA 91.52 HB2 95.97 HB3 95.97 HG2 103.95 HG3 103.95 HE21 115.81 HE22 115.81
B GLY S 53 164.9 -169.4 N 73.58 CA 72.25 C 71.29 O 71.73 H 88.29 HA2 86.7 HA3 86.7
B GLY S 58 -92.9 173.1 N 69.31 CA 64.38 C 55.59 O 51.81 H 83.17 HA2 77.26 HA3 77.26
B ASP E 61 -56.3 135.2 N 50.99 CA 47.7 C 43.48 O 45.47 CB 47.65 CG 49.96 OD1 52.86 OD2 50.42 H 61.19 HA 57.24 HB2 57.18 HB3 57.18
B ILE E 12 -102.9 -16.6 N 35.43 CA 32.45 C 28.06 O 27.68 CB 31.37 CG1 31.78 CG2 37.33 CD1 34.5 H 42.52 HA 38.94 HB 37.65 HG12 38.14 HG13 38.14 HG21 44.79 HG22 44.79 HG23 44.79 HD11 41.4 HD12 41.4 HD13 41.4
B TRP E 0 -154.8 137.4 N 29.87 CA 28.42 C 30.05 O 29.05 CB 26.09 CG 25.28 CD1 25.76 CD2 26.08 NE1 27.71 CE2 26.17 CE3 28.52 CZ2 25.76 CZ3 29.76 CH2 27.22 H 35.85 HA 34.11 HB2 31.31 HB3 31.31 HD1 30.91 HE1 33.25 HE3 34.22 HZ2 30.91 HZ3 35.72 HH2 32.67
B GLY E 10 -159.7 145.5 N 29.64 CA 29.38 C 27.97 O 27.52 H 35.57 HA2 35.26 HA3 35.26
B ASP E 13 -162.1 170.4 N 27.93 CA 27.78 C 30.8 O 31.45 CB 27.5 CG 26.1 OD1 27.65 OD2 28.13 H 33.52 HA 33.33 HB2 33.0 HB3 33.0
B SER E 19 -158.2 176.5 N 31.44 CA 33.01 C 35.54 O 31.59 CB 35.08 OG 37.05 H 37.72 HA 39.61 HB2 42.1 HB3 42.1 HG 44.46
B ASN H 0 -62.5 -30.8 N 37.75 CA 39.97 C 41.04 O 43.38 CB 41.39 CG 41.26 OD1 38.05 ND2 43.72 H 45.31 HA 47.97 HB2 49.67 HB3 49.67 HD21 52.47 HD22 52.47
B ILE H 82 -63.9 -47.8 N 39.8 CA 41.84 C 41.91 O 45.18 CB 41.69 CG1 41.54 CG2 43.39 CD1 44.5 H 47.76 HA 50.21 HB 50.02 HG12 49.85 HG13 49.85 HG21 52.06 HG22 52.06 HG23 52.06 HD11 53.4 HD12 53.4 HD13 53.4
B GLY H 28 -59.7 -35.4 N 38.82 CA 36.56 C 37.88 O 39.06 H 46.58 HA2 43.88 HA3 43.88
B ALA H 36 -78.8 -9.3 N 35.93 CA 37.43 C 41.81 O 44.96 CB 35.08 H 43.11 HA 44.91 HB1 42.1 HB2 42.1 HB3 42.1
B GLY T 71 77.1 26.0 N 43.52 CA 47.14 C 49.07 O 49.62 H 52.23 HA2 56.57 HA3 56.57
B SER - 36 -114.6 109.6 N 49.85 CA 53.05 C 53.48 O 52.1 CB 54.22 OG 58.34 H 59.82 HA 63.66 HB2 65.06 HB3 65.06 HG 70.01
B ALA - 72 -72.4 145.4 N 54.5 CA 55.35 C 54.59 O 56.46 CB 58.74 H 65.4 HA 66.42 HB1 70.49 HB2 70.49 HB3 70.49
B ILE - 4 -136.0 137.0 N 52.18 CA 54.28 C 55.41 O 53.0 CB 53.67 CG1 52.01 CG2 54.7 CD1 51.33 H 62.61 HA 65.14 HB 64.41 HG12 62.41 HG13 62.41 HG21 65.64 HG22 65.64 HG23 65.64 HD11 61.6 HD12 61.6 HD13 61.6
B THR - 65 -122.3 127.9 N 58.4 CA 60.79 C 61.42 O 62.45 CB 64.72 OG1 66.52 CG2 66.68 H 70.08 HA 72.95 HB 77.67 HG1 79.82 HG21 80.02 HG22 80.02 HG23 80.02
B LEU B 1 -83.7 144.0 N 61.07 CA 61.45 C 65.88 O 70.46 CB 61.15 CG 58.67 CD1 58.48 CD2 55.43 H 73.29 HA 73.74 HB2 73.38 HB3 73.38 HG 70.4 HD11 70.18 HD12 70.18 HD13 70.18 HD21 66.51 HD22 66.51 HD23 66.51
B ARG - 141 -111.4 160.6 N 64.25 CA 67.25 C 68.43 O 65.13 CB 69.96 CG 70.09 CD 75.61 NE 79.15 CZ 80.43 NH1 77.74 NH2 82.52 H 77.1 HA 80.69 HB2 83.95 HB3 83.95 HG2 84.11 HG3 84.11 HD2 90.73 HD3 90.73 HE 94.98 HH11 93.28 HH12 93.28 HH21 99.02 HH22 99.02
B PRO S 61 -57.6 151.0 N 73.38 CA 76.16 C 75.24 O 75.99 CB 82.44 CG 81.31 CD 76.85 HA 91.4 HB2 98.93 HB3 98.93 HG2 97.57 HG3 97.57 HD2 92.22 HD3 92.22
B GLY E 6 80.6 -175.5 N 74.39 CA 75.63 C 73.18 O 71.08 H 89.27 HA2 90.75 HA3 90.75
B ARG E 154 -67.1 148.8 N 71.06 CA 65.08 C 62.24 O 64.53 CB 66.45 CG 70.09 CD 74.26 NE 80.22 CZ 88.76 NH1 95.12 NH2 89.83 H 85.27 HA 78.09 HB2 79.73 HB3 79.73 HG2 84.11 HG3 84.11 HD2 89.11 HD3 89.11 HE 96.27 HH11 114.14 HH12 114.14 HH21 107.79 HH22 107.79
B GLN E 10 -157.7 154.4 N 59.08 CA 58.9 C 55.74 O 55.32 CB 60.25 CG 58.52 CD 60.78 OE1 60.71 NE2 62.77 H 70.9 HA 70.68 HB2 72.29 HB3 72.29 HG2 70.22 HG3 70.22 HE21 75.33 HE22 75.33
B ARG E 127 -121.1 126.2 N 53.83 CA 49.39 C 49.38 O 53.87 CB 48.92 CG 46.46 CD 52.04 NE 52.48 CZ 54.62 NH1 53.73 NH2 56.72 H 64.6 HA 59.26 HB2 58.7 HB3 58.7 HG2 55.75 HG3 55.75 HD2 62.45 HD3 62.45 HE 62.97 HH11 64.48 HH12 64.48 HH21 68.06 HH22 68.06
B ILE E 0 -119.5 130.5 N 48.21 CA 44.26 C 41.19 O 41.07 CB 50.4 CG1 59.99 CG2 49.57 CD1 64.08 H 57.85 HA 53.12 HB 60.48 HG12 71.98 HG13 71.98 HG21 59.49 HG22 59.49 HG23 59.49 HD11 76.9 HD12 76.9 HD13 76.9
B VAL E 7 -122.6 125.6 N 40.13 CA 35.12 C 38.04 O 39.33 CB 37.88 CG1 38.53 CG2 41.77 H 48.15 HA 42.14 HB 45.45 HG11 46.24 HG12 46.24 HG13 46.24 HG21 50.12 HG22 50.12 HG23 50.12
B TYR E 0 -110.3 155.0 N 34.52 CA 34.1 C 34.63 O 36.72 CB 33.36 CG 34.17 CD1 36.48 CD2 33.54 CE1 38.86 CE2 34.58 CZ 36.94 OH 39.25 H 41.43 HA 40.92 HB2 40.04 HB3 40.04 HD1 43.77 HD2 40.25 HE1 46.63 HE2 41.5 HH 47.1
B LYS E 58 -132.7 150.0 N 30.6 CA 30.89 C 30.81 O 33.39 CB 41.21 CG 53.77 CD 67.2 CE 76.88 NZ 85.8 H 36.72 HA 37.07 HB2 49.45 HB3 49.45 HG2 64.53 HG3 64.53 HD2 80.64 HD3 80.64 HE2 92.26 HE3 92.26 HZ1 102.96 HZ2 102.96 HZ3 102.96
B ALA E 2 -155.2 144.1 N 28.35 CA 28.44 C 29.45 O 30.43 CB 27.08 H 34.01 HA 34.12 HB1 32.5 HB2 32.5 HB3 32.5
B THR E 76 -95.3 119.7 N 28.02 CA 27.07 C 25.62 O 25.38 CB 29.01 OG1 29.76 CG2 30.77 H 33.63 HA 32.48 HB 34.82 HG1 35.72 HG21 36.92 HG22 36.92 HG23 36.92
B LEU - 2 -111.4 96.6 N 24.61 CA 22.52 C 21.84 O 26.32 CB 24.12 CG 22.68 CD1 24.64 CD2 23.74 H 29.53 HA 27.02 HB2 28.94 HB3 28.94 HG 27.22 HD11 29.57 HD12 29.57 HD13 29.57 HD21 28.48 HD22 28.48 HD23 28.48
B PRO - 16 -82.5 65.0 N 25.39 CA 24.14 C 24.45 O 24.5 CB 25.11 CG 25.17 CD 23.74 HA 28.97 HB2 30.13 HB3 30.13 HG2 30.2 HG3 30.2 HD2 28.49 HD3 28.49
B ILE B 0 -110.6 128.9 N 26.56 CA 27.12 C 25.11 O 27.38 CB 26.76 CG1 27.58 CG2 27.23 CD1 26.61 H 31.87 HA 32.55 HB 32.11 HG12 33.09 HG13 33.09 HG21 32.68 HG22 32.68 HG23 32.68 HD11 31.93 HD12 31.93 HD13 31.93
B ASN - 4 -68.0 160.9 N 26.78 CA 27.59 C 27.59 O 28.24 CB 26.64 CG 27.98 OD1 30.66 ND2 27.92 H 32.14 HA 33.11 HB2 31.97 HB3 31.97 HD21 33.5 HD22 33.5
B SER S 30 -50.7 143.7 N 28.91 CA 31.38 C 31.93 O 35.08 CB 34.21 OG 33.21 H 34.69 HA 37.68 HB2 41.05 HB3 41.05 HG 39.85
B GLY E 27 152.0 175.9 N 31.32 CA 32.5 C 33.65 O 32.9 H 37.59 HA2 39.0 HA3 39.0
B ASP E 97 -97.4 127.5 N 33.66 CA 36.35 C 35.09 O 34.25 CB 40.43 CG 45.13 OD1 46.01 OD2 51.09 H 40.39 HA 43.62 HB2 48.51 HB3 48.51
B TYR E 12 -130.5 169.1 N 28.06 CA 27.76 C 27.14 O 28.49 CB 28.5 CG 27.74 CD1 30.58 CD2 31.68 CE1 30.46 CE2 32.73 CZ 32.43 OH 35.79 H 33.67 HA 33.31 HB2 34.21 HB3 34.21 HD1 36.7 HD2 38.01 HE1 36.55 HE2 39.27 HH 42.95
B LEU E 34 -120.2 136.1 N 28.2 CA 31.04 C 30.83 O 32.37 CB 33.34 CG 35.56 CD1 39.51 CD2 37.68 H 33.85 HA 37.25 HB2 40.01 HB3 40.01 HG 42.67 HD11 47.41 HD12 47.41 HD13 47.41 HD21 45.22 HD22 45.22 HD23 45.22
B ILE E 2 -101.7 130.7 N 29.64 CA 29.3 C 30.44 O 32.05 CB 30.94 CG1 33.78 CG2 29.6 CD1 35.96 H 35.57 HA 35.16 HB 37.12 HG12 40.54 HG13 40.54 HG21 35.52 HG22 35.52 HG23 35.52 HD11 43.15 HD12 43.15 HD13 43.15
B HIS E 9 -119.4 151.8 N 30.41 CA 30.81 C 31.72 O 30.24 CB 30.59 CG 30.58 ND1 37.72 CD2 32.37 CE1 36.43 NE2 32.44 H 36.49 HA 36.97 HB2 36.71 HB3 36.71 HD1 45.26 HD2 38.84 HE1 43.71
B CYS E 2 -145.0 155.8 N 32.06 CA 32.08 C 32.21 O 35.2 CB 32.86 SG 33.63 H 38.48 HA 38.49 HB2 39.43 HB3 39.43 HG 40.36
B GLY E 9 -147.0 141.9 N 33.48 CA 35.52 C 37.24 O 34.22 H 40.18 HA2 42.62 HA3 42.62
B LEU E 0 -123.0 127.4 N 38.83 CA 39.34 C 39.81 O 41.97 CB 38.41 CG 41.28 CD1 40.6 CD2 43.67 H 46.6 HA 47.21 HB2 46.1 HB3 46.1 HG 49.54 HD11 48.72 HD12 48.72 HD13 48.72 HD21 52.4 HD22 52.4 HD23 52.4
B ALA E 0 -151.2 161.4 N 41.34 CA 43.07 C 45.99 O 45.14 CB 42.67 H 49.6 HA 51.68 HB1 51.21 HB2 51.21 HB3 51.21
B LYS E 15 -95.3 129.7 N 47.03 CA 51.7 C 52.35 O 53.41 CB 56.11 CG 60.66 CD 63.62 CE 65.96 NZ 66.59 H 56.43 HA 62.04 HB2 67.33 HB3 67.33 HG2 72.8 HG3 72.8 HD2 76.35 HD3 76.35 HE2 79.15 HE3 79.15 HZ1 79.9 HZ2 79.9 HZ3 79.9
B VAL - 61 -72.2 -48.7 N 53.85 CA 59.65 C 64.09 O 64.63 CB 65.18 CG1 69.11 CG2 63.63 H 64.62 HA 71.58 HB 78.21 HG11 82.93 HG12 82.93 HG13 82.93 HG21 76.35 HG22 76.35 HG23 76.35
B GLY - 22 -125.3 -155.3 N 77.76 CA 84.48 C 91.15 O 87.73 H 93.31 HA2 101.38 HA3 101.38
B ASN S 134 57.7 77.9 N 101.41 CA 107.08 C 104.44 O 104.29 CB 108.5 CG 108.83 OD1 106.28 ND2 112.59 H 121.7 HA 128.5 HB2 130.2 HB3 130.2 HD21 135.11 HD22 135.11
B GLY S 76 88.6 -141.8 N 100.97 CA 98.24 C 92.63 O 90.82 H 121.16 HA2 117.89 HA3 117.89
B ASP S 146 -96.8 170.6 N 90.48 CA 85.23 C 77.75 O 76.25 CB 88.26 CG 86.88 OD1 88.05 OD2 85.03 H 108.57 HA 102.28 HB2 105.91 HB3 105.91
B ARG - 124 -49.0 140.7 N 73.06 CA 67.24 C 65.49 O 65.75 CB 67.07 CG 66.4 CD 67.84 NE 70.08 CZ 71.19 NH1 71.22 NH2 71.37 H 87.67 HA 80.69 HB2 80.49 HB3 80.49 HG2 79.68 HG3 79.68 HD2 81.41 HD3 81.41 HE 84.09 HH11 85.46 HH12 85.46 HH21 85.64 HH22 85.64
B GLU E 63 -120.5 112.3 N 63.16 CA 63.2 C 59.96 O 55.45 CB 61.47 CG 60.26 CD 61.96 OE1 64.47 OE2 60.66 H 75.79 HA 75.84 HB2 73.77 HB3 73.77 HG2 72.31 HG3 72.31
B GLU E 63 -72.2 119.4 N 60.91 CA 57.65 C 54.49 O 53.82 CB 59.18 CG 61.62 CD 60.81 OE1 62.36 OE2 59.46 H 73.09 HA 69.17 HB2 71.01 HB3 71.01 HG2 73.94 HG3 73.94
B LEU E 0 -90.0 -49.8 N 52.93 CA 49.16 C 45.99 O 48.65 CB 50.47 CG 56.55 CD1 57.07 CD2 61.92 H 63.51 HA 58.99 HB2 60.56 HB3 60.56 HG 67.86 HD11 68.48 HD12 68.48 HD13 68.48 HD21 74.31 HD22 74.31 HD23 74.31
B ASP E 0 -159.5 108.6 N 46.57 CA 49.19 C 48.56 O 47.74 CB 47.08 CG 43.6 OD1 46.67 OD2 45.4 H 55.88 HA 59.03 HB2 56.5 HB3 56.5
B GLN E 26 -110.4 119.9 N 48.63 CA 50.26 C 49.95 O 49.79 CB 55.7 CG 63.1 CD 66.16 OE1 64.94 NE2 69.25 H 58.36 HA 60.32 HB2 66.84 HB3 66.84 HG2 75.72 HG3 75.72 HE21 83.1 HE22 83.1
B ARG E 13 -116.1 107.9 N 38.14 CA 39.87 C 39.81 O 35.99 CB 41.45 CG 42.94 CD 43.63 NE 43.29 CZ 43.99 NH1 45.98 NH2 44.37 H 45.77 HA 47.84 HB2 49.74 HB3 49.74 HG2 51.52 HG3 51.52 HD2 52.35 HD3 52.35 HE 51.95 HH11 55.18 HH12 55.18 HH21 53.24 HH22 53.24
B ARG E 84 -140.4 111.0 N 38.88 CA 40.28 C 40.9 O 44.49 CB 41.23 CG 43.98 CD 47.98 NE 51.41 CZ 58.35 NH1 60.52 NH2 63.97 H 46.66 HA 48.34 HB2 49.48 HB3 49.48 HG2 52.78 HG3 52.78 HD2 57.57 HD3 57.57 HE 61.69 HH11 72.62 HH12 72.62 HH21 76.76 HH22 76.76
B PRO E 21 -81.9 145.9 N 42.94 CA 42.41 C 39.02 O 42.67 CB 44.31 CG 47.6 CD 47.87 HA 50.89 HB2 53.18 HB3 53.18 HG2 57.12 HG3 57.12 HD2 57.45 HD3 57.45
B MET E 10 -80.1 -41.5 N 38.64 CA 40.96 C 38.34 O 39.19 CB 42.14 CG 46.29 SD 56.69 CE 79.17 H 46.37 HA 49.16 HB2 50.57 HB3 50.57 HG2 55.55 HG3 55.55 HE1 95.0 HE2 95.0 HE3 95.0
B MET E 37 -161.3 166.8 N 35.56 CA 37.19 C 33.79 O 32.47 CB 38.43 CG 37.23 SD 50.64 CE 45.17 H 42.67 HA 44.62 HB2 46.12 HB3 46.12 HG2 44.67 HG3 44.67 HE1 54.2 HE2 54.2 HE3 54.2
B LYS E 140 -93.9 154.4 N 37.61 CA 37.19 C 33.41 O 36.12 CB 46.83 CG 56.18 CD 65.72 CE 73.21 NZ 79.32 H 45.13 HA 44.63 HB2 56.2 HB3 56.2 HG2 67.41 HG3 67.41 HD2 78.87 HD3 78.87 HE2 87.85 HE3 87.85 HZ1 95.19 HZ2 95.19 HZ3 95.19
B VAL E 7 -152.2 143.4 N 33.29 CA 33.51 C 31.59 O 34.8 CB 35.13 CG1 34.44 CG2 38.94 H 39.95 HA 40.21 HB 42.16 HG11 41.33 HG12 41.33 HG13 41.33 HG21 46.73 HG22 46.73 HG23 46.73
B LYS E 104 -114.8 133.3 N 33.32 CA 30.23 C 28.96 O 30.05 CB 36.72 CG 45.82 CD 54.54 CE 59.64 NZ 64.48 H 39.99 HA 36.28 HB2 44.07 HB3 44.07 HG2 54.99 HG3 54.99 HD2 65.45 HD3 65.45 HE2 71.57 HE3 71.57 HZ1 77.38 HZ2 77.38 HZ3 77.38
B PHE E 3 -100.2 146.7 N 29.47 CA 30.94 C 31.39 O 32.51 CB 31.89 CG 30.46 CD1 29.1 CD2 32.5 CE1 30.49 CE2 32.63 CZ 31.17 H 35.37 HA 37.13 HB2 38.27 HB3 38.27 HD1 34.92 HD2 39.0 HE1 36.59 HE2 39.16 HZ 37.4
B TRP E 105 -135.4 157.4 N 32.31 CA 33.69 C 36.51 O 37.34 CB 36.14 CG 40.55 CD1 42.62 CD2 45.07 NE1 46.92 CE2 50.13 CE3 47.36 CZ2 55.57 CZ3 52.14 CH2 56.05 H 38.77 HA 40.42 HB2 43.36 HB3 43.36 HD1 51.14 HE1 56.3 HE3 56.84 HZ2 66.68 HZ3 62.57 HH2 67.26
B SER - 10 -144.7 157.0 N 49.21 CA 51.86 C 54.05 O 52.59 CB 55.48 OG 60.52 H 59.06 HA 62.24 HB2 66.58 HB3 66.58 HG 72.62
B ALA S 84 -56.7 -39.7 N 57.12 CA 59.95 C 55.58 O 58.52 CB 60.3 H 68.54 HA 71.94 HB1 72.36 HB2 72.36 HB3 72.36
B ARG S 61 -145.1 154.4 N 50.23 CA 50.8 C 43.52 O 38.5 CB 53.84 CG 51.15 CD 50.04 NE 42.59 CZ 38.78 NH1 37.41 NH2 35.85 H 60.28 HA 60.96 HB2 64.61 HB3 64.61 HG2 61.37 HG3 61.37 HD2 60.04 HD3 60.04 HE 51.11 HH11 44.9 HH12 44.9 HH21 43.02 HH22 43.02
B GLU - 127 -84.4 138.5 N 45.99 CA 43.35 C 40.06 O 44.13 CB 49.61 CG 59.78 CD 64.81 OE1 65.07 OE2 68.12 H 55.18 HA 52.02 HB2 59.54 HB3 59.54 HG2 71.74 HG3 71.74
B LEU - 19 -123.6 166.9 N 33.28 CA 29.3 C 27.57 O 30.47 CB 33.14 CG 41.73 CD1 42.16 CD2 45.27 H 39.93 HA 35.16 HB2 39.77 HB3 39.77 HG 50.08 HD11 50.6 HD12 50.6 HD13 50.6 HD21 54.33 HD22 54.33 HD23 54.33
B GLY E 31 -80.2 153.6 N 27.33 CA 29.67 C 26.45 O 26.01 H 32.8 HA2 35.61 HA3 35.61
B GLY E 36 68.2 -152.1 N 29.75 CA 28.67 C 26.07 O 28.82 H 35.7 HA2 34.4 HA3 34.4
B VAL S 9 -110.1 -19.1 N 24.01 CA 25.1 C 25.17 O 27.06 CB 29.62 CG1 34.54 CG2 30.4 H 28.81 HA 30.12 HB 35.54 HG11 41.45 HG12 41.45 HG13 41.45 HG21 36.48 HG22 36.48 HG23 36.48
B ILE B 0 -80.5 119.0 N 25.46 CA 25.88 C 23.65 O 22.94 CB 23.63 CG1 26.46 CG2 26.37 CD1 29.71 H 30.55 HA 31.06 HB 28.35 HG12 31.75 HG13 31.75 HG21 31.65 HG22 31.65 HG23 31.65 HD11 35.66 HD12 35.66 HD13 35.66
B HIS - 34 -88.0 89.4 N 23.21 CA 23.65 C 24.74 O 29.34 CB 28.56 CG 30.4 ND1 33.9 CD2 31.49 CE1 34.72 NE2 32.97 H 27.85 HA 28.38 HB2 34.28 HB3 34.28 HD1 40.68 HD2 37.79 HE1 41.66
B ALA - 2 -134.1 83.2 N 25.93 CA 25.03 C 24.29 O 26.3 CB 27.15 H 31.11 HA 30.03 HB1 32.58 HB2 32.58 HB3 32.58
B PRO - 56 -64.1 138.1 N 24.93 CA 23.79 C 24.45 O 24.99 CB 28.27 CG 31.52 CD 27.31 HA 28.55 HB2 33.92 HB3 33.92 HG2 37.82 HG3 37.82 HD2 32.77 HD3 32.77
B LEU - 11 -66.6 143.2 N 23.8 CA 24.43 C 25.5 O 29.14 CB 25.19 CG 24.33 CD1 28.71 CD2 25.65 H 28.56 HA 29.31 HB2 30.23 HB3 30.23 HG 29.2 HD11 34.45 HD12 34.45 HD13 34.45 HD21 30.78 HD22 30.78 HD23 30.78
B LYS E 122 -104.5 130.0 N 27.11 CA 36.0 C 28.86 O 27.13 CB 50.96 CG 70.71 CD 84.07 CE 96.61 NZ 103.16 H 32.54 HA 43.2 HB2 61.16 HB3 61.16 HG2 84.85 HG3 84.85 HD2 100.88 HD3 100.88 HE2 115.93 HE3 115.93 HZ1 123.79 HZ2 123.79 HZ3 123.79
B ILE E 39 -88.8 113.7 N 29.97 CA 31.11 C 32.29 O 35.25 CB 38.52 CG1 38.77 CG2 40.08 CD1 36.93 H 35.96 HA 37.33 HB 46.22 HG12 46.53 HG13 46.53 HG21 48.1 HG22 48.1 HG23 48.1 HD11 44.32 HD12 44.32 HD13 44.32
B ILE E 25 -88.6 -41.8 N 30.45 CA 33.1 C 36.75 O 39.25 CB 33.49 CG1 34.06 CG2 39.06 CD1 37.6 H 36.54 HA 39.73 HB 40.19 HG12 40.87 HG13 40.87 HG21 46.87 HG22 46.87 HG23 46.87 HD11 45.12 HD12 45.12 HD13 45.12
B SER E 16 -153.2 120.3 N 35.36 CA 38.83 C 41.02 O 36.5 CB 41.54 OG 45.1 H 42.43 HA 46.6 HB2 49.85 HB3 49.85 HG 54.11
B ASN - 28 -105.9 30.3 N 49.4 CA 51.69 C 57.81 O 61.39 CB 54.36 CG 62.35 OD1 69.2 ND2 63.28 H 59.28 HA 62.03 HB2 65.24 HB3 65.24 HD21 75.94 HD22 75.94
B GLY - 21 67.6 16.3 N 60.65 CA 66.61 C 79.7 O 86.05 H 72.77 HA2 79.94 HA3 79.94
B GLU - 178 -97.8 360.0 N 85.22 CA 92.62 C 95.43 O 99.35 CB 93.73 CG 101.76 CD 104.22 OE1 100.59 OE2 110.07 H 102.26 HA 111.14 HB2 112.47 HB3 112.47 HG2 122.11 HG3 122.11
C GLU - 128 360.0 162.5 N 72.37 CA 74.35 C 76.12 O 72.31 CB 71.88 CG 67.71 CD 68.98 OE1 72.23 OE2 66.02 HA 89.23 HB2 86.25 HB3 86.25 HG2 81.25 HG3 81.25
C GLU - 185 -96.3 122.4 N 83.31 CA 84.3 C 77.75 O 82.26 CB 91.24 CG 97.25 CD 102.93 OE1 103.88 OE2 106.9 H 99.97 HA 101.16 HB2 109.48 HB3 109.48 HG2 116.7 HG3 116.7
C VAL - 29 -149.0 137.9 N 65.88 CA 54.82 C 49.29 O 50.52 CB 52.3 CG1 50.88 CG2 47.89 H 79.06 HA 65.78 HB 62.76 HG11 61.06 HG12 61.06 HG13 61.06 HG21 57.47 HG22 57.47 HG23 57.47
C SER - 50 -91.4 158.8 N 45.84 CA 45.97 C 42.03 O 40.97 CB 48.78 OG 46.96 H 55.01 HA 55.16 HB2 58.54 HB3 58.54 HG 56.35
C VAL H 38 -63.9 -33.4 N 42.27 CA 41.06 C 38.67 O 37.15 CB 43.38 CG1 45.43 CG2 39.37 H 50.73 HA 49.28 HB 52.05 HG11 54.52 HG12 54.52 HG13 54.52 HG21 47.24 HG22 47.24 HG23 47.24
C GLU H 134 -60.5 -41.8 N 41.13 CA 40.78 C 40.06 O 39.94 CB 45.19 CG 48.62 CD 53.05 OE1 52.37 OE2 57.35 H 49.36 HA 48.94 HB2 54.22 HB3 54.22 HG2 58.34 HG3 58.34
C GLU H 96 -64.0 -45.2 N 40.73 CA 45.94 C 40.28 O 34.84 CB 60.64 CG 70.88 CD 79.57 OE1 82.53 OE2 82.39 H 48.87 HA 55.13 HB2 72.77 HB3 72.77 HG2 85.05 HG3 85.05
C LEU H 0 -67.0 -33.2 N 36.33 CA 34.09 C 31.28 O 30.52 CB 33.27 CG 36.1 CD1 36.92 CD2 36.73 H 43.59 HA 40.91 HB2 39.93 HB3 39.93 HG 43.32 HD11 44.31 HD12 44.31 HD13 44.31 HD21 44.07 HD22 44.07 HD23 44.07
C LYS H 97 -64.7 -40.8 N 33.72 CA 33.47 C 33.48 O 33.2 CB 38.99 CG 52.58 CD 69.51 CE 82.52 NZ 87.16 H 40.46 HA 40.16 HB2 46.78 HB3 46.78 HG2 63.09 HG3 63.09 HD2 83.41 HD3 83.41 HE2 99.02 HE3 99.02 HZ1 104.59 HZ2 104.59 HZ3 104.59
C ALA H 44 -63.8 -44.9 N 31.42 CA 33.62 C 34.09 O 35.87 CB 34.76 H 37.7 HA 40.35 HB1 41.71 HB2 41.71 HB3 41.71
C ILE H 22 -64.5 -39.9 N 33.43 CA 34.03 C 34.29 O 31.6 CB 36.92 CG1 42.49 CG2 38.23 CD1 44.94 H 40.11 HA 40.84 HB 44.31 HG12 50.98 HG13 50.98 HG21 45.88 HG22 45.88 HG23 45.88 HD11 53.92 HD12 53.92 HD13 53.92
C GLN H 21 -56.6 -44.4 N 30.73 CA 30.86 C 29.19 O 30.54 CB 26.52 CG 27.65 CD 26.93 OE1 32.54 NE2 26.93 H 36.88 HA 37.04 HB2 31.83 HB3 31.83 HG2 33.18 HG3 33.18 HE21 32.32 HE22 32.32
C LEU H 135 -71.6 -50.8 N 29.75 CA 34.05 C 36.69 O 39.04 CB 43.73 CG 57.33 CD1 61.77 CD2 65.37 H 35.7 HA 40.86 HB2 52.47 HB3 52.47 HG 68.79 HD11 74.12 HD12 74.12 HD13 74.12 HD21 78.45 HD22 78.45 HD23 78.45
C ARG H 167 -63.0 -35.8 N 37.3 CA 41.31 C 40.61 O 42.64 CB 51.96 CG 63.54 CD 77.53 NE 87.68 CZ 97.22 NH1 99.26 NH2 102.5 H 44.76 HA 49.57 HB2 62.35 HB3 62.35 HG2 76.25 HG3 76.25 HD2 93.04 HD3 93.04 HE 105.22 HH11 119.11 HH12 119.11 HH21 123.0 HH22 123.0
C THR T 56 -100.2 13.1 N 34.66 CA 32.28 C 34.17 O 32.89 CB 32.8 OG1 34.0 CG2 35.78 H 41.59 HA 38.74 HB 39.36 HG1 40.79 HG21 42.94 HG22 42.94 HG23 42.94
C THR - 24 -58.9 129.2 N 35.44 CA 34.89 C 37.26 O 36.57 CB 35.07 OG1 34.56 CG2 37.92 H 42.53 HA 41.87 HB 42.09 HG1 41.47 HG21 45.51 HG22 45.51 HG23 45.51
C ASN - 53 -81.8 93.6 N 37.19 CA 41.68 C 42.36 O 40.45 CB 48.41 CG 57.06 OD1 61.98 ND2 58.25 H 44.63 HA 50.01 HB2 58.1 HB3 58.1 HD21 69.9 HD22 69.9
C GLU G 149 -65.6 -26.8 N 47.33 CA 55.25 C 54.43 O 55.44 CB 62.49 CG 68.5 CD 74.58 OE1 72.63 OE2 81.11 H 56.8 HA 66.3 HB2 74.98 HB3 74.98 HG2 82.21 HG3 82.21
C ALA G 81 -59.4 -38.0 N 52.76 CA 53.38 C 53.3 O 56.52 CB 54.66 H 63.31 HA 64.06 HB1 65.59 HB2 65.59 HB3 65.59
C THR G 19 -93.4 10.1 N 49.53 CA 50.48 C 51.94 O 53.53 CB 49.91 OG1 46.12 CG2 51.56 H 59.44 HA 60.57 HB 59.89 HG1 55.34 HG21 61.88 HG22 61.88 HG23 61.88
C GLY T 55 56.4 39.7 N 51.79 CA 50.71 C 45.78 O 45.85 H 62.14 HA2 60.85 HA3 60.85
C GLU - 11 -59.5 130.9 N 41.3 CA 38.42 C 39.28 O 40.36 CB 34.62 CG 31.77 CD 32.1 OE1 33.77 OE2 28.19 H 49.56 HA 46.11 HB2 41.54 HB3 41.54 HG2 38.12 HG3 38.12
C LYS E 127 -100.3 119.1 N 40.57 CA 44.08 C 35.02 O 35.67 CB 55.83 CG 66.49 CD 75.61 CE 82.05 NZ 86.08 H 48.69 HA 52.89 HB2 67.0 HB3 67.0 HG2 79.78 HG3 79.78 HD2 90.73 HD3 90.73 HE2 98.47 HE3 98.47 HZ1 103.3 HZ2 103.3 HZ3 103.3
C ARG E 23 -123.5 131.7 N 33.35 CA 30.61 C 30.14 O 33.46 CB 30.23 CG 28.47 CD 28.04 NE 26.39 CZ 29.21 NH1 29.0 NH2 27.59 H 40.01 HA 36.73 HB2 36.28 HB3 36.28 HG2 34.16 HG3 34.16 HD2 33.65 HD3 33.65 HE 31.67 HH11 34.8 HH12 34.8 HH21 33.11 HH22 33.11
C PHE E 82 -152.2 173.9 N 28.06 CA 30.7 C 27.94 O 28.05 CB 33.53 CG 33.65 CD1 37.29 CD2 34.92 CE1 36.18 CE2 36.61 CZ 37.32 H 33.67 HA 36.84 HB2 40.23 HB3 40.23 HD1 44.74 HD2 41.9 HE1 43.41 HE2 43.93 HZ 44.78
C GLY S 24 128.9 172.0 N 32.52 CA 30.09 C 32.53 O 34.87 H 39.03 HA2 36.11 HA3 36.11
C SER - 30 -75.7 -18.6 N 30.3 CA 32.31 C 33.23 O 34.76 CB 32.87 OG 32.43 H 36.36 HA 38.77 HB2 39.45 HB3 39.45 HG 38.92
C ALA - 0 61.2 23.5 N 33.89 CA 31.2 C 33.8 O 36.36 CB 32.82 H 40.66 HA 37.44 HB1 39.38 HB2 39.38 HB3 39.38
C ARG S 51 -63.1 -26.7 N 33.09 CA 34.44 C 33.3 O 34.18 CB 34.08 CG 36.94 CD 37.8 NE 38.85 CZ 40.8 NH1 40.1 NH2 45.15 H 39.7 HA 41.33 HB2 40.9 HB3 40.9 HG2 44.33 HG3 44.33 HD2 45.36 HD3 45.36 HE 46.63 HH11 48.12 HH12 48.12 HH21 54.18 HH22 54.18
C ALA E 0 -144.1 156.9 N 31.31 CA 33.77 C 31.85 O 29.88 CB 36.27 H 37.57 HA 40.52 HB1 43.53 HB2 43.53 HB3 43.53
C ILE E 0 -136.4 154.8 N 30.71 CA 29.27 C 27.24 O 29.02 CB 30.79 CG1 30.38 CG2 32.18 CD1 35.8 H 36.85 HA 35.12 HB 36.95 HG12 36.46 HG13 36.46 HG21 38.62 HG22 38.62 HG23 38.62 HD11 42.96 HD12 42.96 HD13 42.96
C ILE E 0 -81.6 97.9 N 28.26 CA 27.52 C 30.06 O 33.02 CB 27.06 CG1 26.1 CG2 27.06 CD1 25.11 H 33.92 HA 33.02 HB 32.47 HG12 31.32 HG13 31.32 HG21 32.47 HG22 32.47 HG23 32.47 HD11 30.13 HD12 30.13 HD13 30.13
C GLU E 56 -68.8 -39.6 N 29.57 CA 30.43 C 33.73 O 33.6 CB 34.72 CG 37.3 CD 40.84 OE1 41.14 OE2 44.17 H 35.49 HA 36.52 HB2 41.67 HB3 41.67 HG2 44.76 HG3 44.76
C ASP E 61 -159.4 153.5 N 31.87 CA 32.05 C 31.03 O 29.45 CB 37.29 CG 44.86 OD1 48.84 OD2 45.57 H 38.25 HA 38.46 HB2 44.75 HB3 44.75
C LEU E 6 -131.1 124.7 N 30.03 CA 30.05 C 33.26 O 31.67 CB 28.91 CG 28.02 CD1 27.27 CD2 28.09 H 36.04 HA 36.07 HB2 34.69 HB3 34.69 HG 33.63 HD11 32.72 HD12 32.72 HD13 32.72 HD21 33.71 HD22 33.71 HD23 33.71
C THR E 38 -119.8 140.0 N 30.86 CA 33.95 C 34.38 O 32.12 CB 35.82 OG1 38.0 CG2 36.8 H 37.03 HA 40.74 HB 42.98 HG1 45.6 HG21 44.16 HG22 44.16 HG23 44.16
C ILE E 4 -116.6 133.7 N 33.41 CA 35.31 C 36.14 O 35.63 CB 37.39 CG1 36.57 CG2 38.37 CD1 38.64 H 40.09 HA 42.38 HB 44.86 HG12 43.88 HG13 43.88 HG21 46.05 HG22 46.05 HG23 46.05 HD11 46.36 HD12 46.36 HD13 46.36
C TYR E 64 -119.2 148.8 N 35.5 CA 37.75 C 38.88 O 37.55 CB 41.58 CG 45.26 CD1 55.06 CD2 45.47 CE1 58.21 CE2 49.36 CZ 55.39 OH 56.05 H 42.6 HA 45.3 HB2 49.89 HB3 49.89 HD1 66.07 HD2 54.57 HE1 69.86 HE2 59.23 HH 67.26
C LYS - 23 -68.9 171.9 N 40.96 CA 45.21 C 46.81 O 44.77 CB 50.99 CG 52.36 CD 56.46 CE 58.58 NZ 60.91 H 49.15 HA 54.25 HB2 61.19 HB3 61.19 HG2 62.84 HG3 62.84 HD2 67.75 HD3 67.75 HE2 70.3 HE3 70.3 HZ1 73.09 HZ2 73.09 HZ3 73.09
C SER T 85 -64.4 -28.2 N 48.5 CA 51.69 C 52.78 O 54.53 CB 55.07 OG 60.18 H 58.19 HA 62.02 HB2 66.09 HB3 66.09 HG 72.21
C ASP T 113 -86.8 0.6 N 51.91 CA 54.43 C 52.39 O 55.1 CB 58.21 CG 56.18 OD1 50.54 OD2 60.32 H 62.29 HA 65.31 HB2 69.85 HB3 69.85
C GLY S 45 97.8 -9.3 N 49.95 CA 50.7 C 51.1 O 48.85 H 59.94 HA2 60.83 HA3 60.83
C THR - 55 -57.6 127.3 N 52.77 CA 52.97 C 51.13 O 46.43 CB 50.98 OG1 53.17 CG2 49.56 H 63.32 HA 63.56 HB 61.17 HG1 63.8 HG21 59.47 HG22 59.47 HG23 59.47
C THR B 86 -80.0 127.2 N 49.38 CA 51.47 C 48.31 O 48.76 CB 59.62 OG1 63.06 CG2 60.18 H 59.26 HA 61.76 HB 71.54 HG1 75.67 HG21 72.22 HG22 72.22 HG23 72.22
C LEU - 11 -84.2 154.1 N 44.87 CA 45.85 C 46.82 O 45.01 CB 41.89 CG 42.03 CD1 40.78 CD2 45.26 H 53.84 HA 55.02 HB2 50.26 HB3 50.26 HG 50.44 HD11 48.93 HD12 48.93 HD13 48.93 HD21 54.31 HD22 54.31 HD23 54.31
C ALA - 40 -63.0 175.6 N 46.71 CA 48.3 C 49.83 O 47.27 CB 47.42 H 56.06 HA 57.97 HB1 56.9 HB2 56.9 HB3 56.9
C GLU S 172 -60.6 -29.9 N 50.78 CA 51.17 C 41.57 O 35.67 CB 61.38 CG 73.81 CD 82.26 OE1 84.44 OE2 86.11 H 60.94 HA 61.4 HB2 73.65 HB3 73.65 HG2 88.57 HG3 88.57
C LYS S 59 -110.4 87.9 N 42.57 CA 40.4 C 39.72 O 36.86 CB 46.19 CG 51.41 CD 59.63 CE 66.7 NZ 68.22 H 51.08 HA 48.48 HB2 55.42 HB3 55.42 HG2 61.7 HG3 61.7 HD2 71.56 HD3 71.56 HE2 80.05 HE3 80.05 HZ1 81.86 HZ2 81.86 HZ3 81.86
C PRO - 1 -55.0 140.1 N 37.2 CA 31.52 C 35.58 O 31.87 CB 34.58 CG 39.04 CD 37.43 HA 37.83 HB2 41.49 HB3 41.49 HG2 46.85 HG3 46.85 HD2 44.91 HD3 44.91
C LEU E 10 -106.9 113.9 N 34.07 CA 31.3 C 28.51 O 27.65 CB 32.09 CG 34.93 CD1 33.11 CD2 36.9 H 40.89 HA 37.56 HB2 38.5 HB3 38.5 HG 41.92 HD11 39.73 HD12 39.73 HD13 39.73 HD21 44.28 HD22 44.28 HD23 44.28
C ILE E 0 -115.9 135.6 N 30.03 CA 27.03 C 26.84 O 25.69 CB 24.3 CG1 28.87 CG2 30.43 CD1 27.79 H 36.03 HA 32.43 HB 29.16 HG12 34.65 HG13 34.65 HG21 36.52 HG22 36.52 HG23 36.52 HD11 33.35 HD12 33.35 HD13 33.35
C LYS E 47 -78.6 129.4 N 24.42 CA 24.72 C 26.5 O 27.24 CB 28.97 CG 30.88 CD 38.4 CE 42.57 NZ 48.83 H 29.31 HA 29.67 HB2 34.76 HB3 34.76 HG2 37.06 HG3 37.06 HD2 46.08 HD3 46.08 HE2 51.08 HE3 51.08 HZ1 58.6 HZ2 58.6 HZ3 58.6
C SER T 6 -47.1 122.7 N 23.24 CA 26.38 C 27.01 O 26.93 CB 24.81 OG 26.07 H 27.88 HA 31.65 HB2 29.77 HB3 29.77 HG 31.28
C GLY T 32 95.3 -8.2 N 27.86 CA 29.4 C 31.37 O 34.23 H 33.44 HA2 35.28 HA3 35.28
C GLU - 33 -83.0 158.3 N 31.89 CA 35.41 C 31.98 O 28.62 CB 37.29 CG 37.81 CD 40.97 OE1 44.54 OE2 41.17 H 38.27 HA 42.49 HB2 44.74 HB3 44.74 HG2 45.37 HG3 45.37
C GLU E 75 -90.7 123.2 N 34.17 CA 31.58 C 32.04 O 32.79 CB 32.01 CG 34.33 CD 41.98 OE1 45.78 OE2 45.32 H 41.01 HA 37.89 HB2 38.41 HB3 38.41 HG2 41.2 HG3 41.2
C VAL E 0 -115.4 151.6 N 31.38 CA 34.34 C 32.06 O 30.78 CB 37.57 CG1 39.76 CG2 38.0 H 37.65 HA 41.21 HB 45.08 HG11 47.72 HG12 47.72 HG13 47.72 HG21 45.6 HG22 45.6 HG23 45.6
C THR E 20 -106.7 127.3 N 30.32 CA 31.6 C 30.99 O 30.85 CB 35.18 OG1 38.51 CG2 34.3 H 36.39 HA 37.92 HB 42.21 HG1 46.21 HG21 41.17 HG22 41.17 HG23 41.17
C PHE E 1 -101.9 109.7 N 28.45 CA 28.17 C 28.99 O 29.0 CB 25.42 CG 26.0 CD1 26.35 CD2 27.74 CE1 27.46 CE2 26.28 CZ 25.81 H 34.14 HA 33.81 HB2 30.5 HB3 30.5 HD1 31.62 HD2 33.29 HE1 32.95 HE2 31.54 HZ 30.97
C ASP E 9 -104.7 102.3 N 26.63 CA 29.85 C 27.26 O 31.59 CB 32.05 CG 37.19 OD1 35.48 OD2 41.25 H 31.96 HA 35.82 HB2 38.46 HB3 38.46
C PHE E 0 -93.9 133.2 N 26.05 CA 27.75 C 29.95 O 33.2 CB 27.24 CG 24.61 CD1 26.41 CD2 27.17 CE1 27.2 CE2 25.97 CZ 25.95 H 31.26 HA 33.3 HB2 32.69 HB3 32.69 HD1 31.7 HD2 32.61 HE1 32.64 HE2 31.16 HZ 31.14
C THR E 24 -102.8 119.2 N 29.24 CA 30.13 C 30.8 O 33.27 CB 32.71 OG1 35.23 CG2 37.4 H 35.09 HA 36.16 HB 39.25 HG1 42.28 HG21 44.89 HG22 44.89 HG23 44.89
C ILE E 0 -113.1 131.0 N 31.07 CA 31.67 C 32.01 O 34.41 CB 29.86 CG1 30.86 CG2 33.02 CD1 29.25 H 37.28 HA 38.0 HB 35.84 HG12 37.04 HG13 37.04 HG21 39.62 HG22 39.62 HG23 39.62 HD11 35.09 HD12 35.09 HD13 35.09
C LEU E 5 -111.8 122.2 N 32.05 CA 36.48 C 35.73 O 32.44 CB 40.65 CG 45.28 CD1 47.84 CD2 43.36 H 38.46 HA 43.78 HB2 48.78 HB3 48.78 HG 54.34 HD11 57.41 HD12 57.41 HD13 57.41 HD21 52.04 HD22 52.04 HD23 52.04
C ALA E 0 -122.1 139.7 N 35.47 CA 34.63 C 33.5 O 38.25 CB 34.17 H 42.56 HA 41.56 HB1 41.0 HB2 41.0 HB3 41.0
C SER S 28 -85.7 -12.3 N 35.85 CA 37.34 C 41.41 O 43.64 CB 39.2 OG 41.21 H 43.02 HA 44.81 HB2 47.03 HB3 47.03 HG 49.45
C GLU S 88 -164.7 176.8 N 41.85 CA 45.08 C 46.12 O 42.19 CB 46.71 CG 43.08 CD 48.82 OE1 52.35 OE2 48.68 H 50.22 HA 54.1 HB2 56.05 HB3 56.05 HG2 51.7 HG3 51.7
C GLU - 109 -71.8 130.0 N 48.48 CA 47.3 C 47.0 O 49.89 CB 51.45 CG 49.57 CD 56.04 OE1 58.5 OE2 58.95 H 58.17 HA 56.75 HB2 61.74 HB3 61.74 HG2 59.48 HG3 59.48
C ILE B 3 -129.9 112.6 N 43.51 CA 44.82 C 43.45 O 41.96 CB 43.51 CG1 42.92 CG2 49.06 CD1 40.14 H 52.22 HA 53.79 HB 52.21 HG12 51.5 HG13 51.5 HG21 58.87 HG22 58.87 HG23 58.87 HD11 48.17 HD12 48.17 HD13 48.17
C LYS - 107 -84.4 157.5 N 48.41 CA 50.18 C 49.99 O 50.36 CB 56.61 CG 65.38 CD 81.48 CE 94.04 NZ 98.3 H 58.09 HA 60.22 HB2 67.93 HB3 67.93 HG2 78.45 HG3 78.45 HD2 97.78 HD3 97.78 HE2 112.85 HE3 112.85 HZ1 117.96 HZ2 117.96 HZ3 117.96
C ASP S 85 54.9 59.3 N 49.89 CA 49.17 C 43.32 O 43.02 CB 57.86 CG 69.31 OD1 72.33 OD2 75.07 H 59.87 HA 59.0 HB2 69.43 HB3 69.43
C ILE E 0 -99.4 155.0 N 39.09 CA 38.99 C 36.44 O 37.03 CB 40.53 CG1 41.8 CG2 39.87 CD1 39.88 H 46.91 HA 46.79 HB 48.64 HG12 50.16 HG13 50.16 HG21 47.85 HG22 47.85 HG23 47.85 HD11 47.85 HD12 47.85 HD13 47.85
C ALA E 7 -115.6 121.7 N 31.98 CA 32.19 C 31.38 O 30.17 CB 33.66 H 38.37 HA 38.63 HB1 40.39 HB2 40.39 HB3 40.39
C LEU E 0 -113.0 104.5 N 28.24 CA 25.96 C 23.67 O 26.04 CB 26.61 CG 27.75 CD1 26.01 CD2 28.71 H 33.89 HA 31.15 HB2 31.93 HB3 31.93 HG 33.3 HD11 31.21 HD12 31.21 HD13 31.21 HD21 34.45 HD22 34.45 HD23 34.45
C GLY E 20 -106.3 153.2 N 21.41 CA 24.07 C 22.47 O 21.91 H 25.69 HA2 28.88 HA3 28.88
C ILE E 8 -137.9 143.2 N 22.07 CA 22.09 C 22.87 O 25.71 CB 22.48 CG1 25.32 CG2 27.53 CD1 28.02 H 26.49 HA 26.51 HB 26.98 HG12 30.38 HG13 30.38 HG21 33.03 HG22 33.03 HG23 33.03 HD11 33.62 HD12 33.62 HD13 33.62
C SER E 10 -149.0 162.9 N 23.65 CA 21.72 C 21.82 O 22.05 CB 23.04 OG 25.11 H 28.38 HA 26.06 HB2 27.65 HB3 27.65 HG 30.13
C MET E 0 -128.7 141.5 N 21.35 CA 21.33 C 23.48 O 25.99 CB 22.91 CG 24.48 SD 33.96 CE 31.59 H 25.62 HA 25.59 HB2 27.5 HB3 27.5 HG2 29.38 HG3 29.38 HE1 37.9 HE2 37.9 HE3 37.9
C SER E 6 -134.6 160.7 N 25.06 CA 28.8 C 32.52 O 31.43 CB 31.23 OG 33.61 H 30.08 HA 34.56 HB2 37.47 HB3 37.47 HG 40.33
C LYS E 89 -71.3 175.1 N 35.4 CA 43.68 C 49.99 O 49.32 CB 48.47 CG 53.81 CD 61.66 CE 67.08 NZ 70.42 H 42.48 HA 52.41 HB2 58.17 HB3 58.17 HG2 64.58 HG3 64.58 HD2 73.99 HD3 73.99 HE2 80.5 HE3 80.5 HZ1 84.51 HZ2 84.51 HZ3 84.51
C ALA S 74 -54.1 -51.0 N 56.97 CA 61.08 C 60.55 O 56.42 CB 66.89 H 68.36 HA 73.29 HB1 80.26 HB2 80.26 HB3 80.26
C GLN S 187 -85.4 -67.1 N 64.66 CA 67.42 C 62.74 O 64.6 CB 73.34 CG 79.0 CD 82.84 OE1 80.61 NE2 88.76 H 77.6 HA 80.9 HB2 88.01 HB3 88.01 HG2 94.81 HG3 94.81 HE21 106.51 HE22 106.51
C GLY S 47 -66.9 -175.2 N 56.07 CA 52.52 C 49.77 O 49.71 H 67.29 HA2 63.03 HA3 63.03
C GLY - 59 -80.5 -173.0 N 49.79 CA 47.35 C 42.88 O 44.16 H 59.75 HA2 56.82 HA3 56.82
C ASP E 81 -60.0 140.5 N 40.09 CA 37.65 C 34.26 O 36.29 CB 38.8 CG 43.33 OD1 39.04 OD2 47.37 H 48.11 HA 45.18 HB2 46.56 HB3 46.56
C ILE E 67 -101.8 -18.7 N 27.05 CA 26.36 C 23.12 O 23.11 CB 30.51 CG1 30.57 CG2 33.48 CD1 35.61 H 32.46 HA 31.63 HB 36.61 HG12 36.68 HG13 36.68 HG21 40.17 HG22 40.17 HG23 40.17 HD11 42.74 HD12 42.74 HD13 42.74
C TRP E 63 -150.6 145.5 N 23.01 CA 20.93 C 23.15 O 24.0 CB 21.61 CG 22.66 CD1 27.29 CD2 23.13 NE1 25.76 CE2 22.55 CE3 23.55 CZ2 22.14 CZ3 23.68 CH2 21.49 H 27.61 HA 25.12 HB2 25.94 HB3 25.94 HD1 32.75 HE1 30.91 HE3 28.26 HZ2 26.57 HZ3 28.42 HH2 25.79
C GLY E 44 -170.0 146.8 N 23.16 CA 24.88 C 26.95 O 26.68 H 27.79 HA2 29.86 HA3 29.86
C ASP E 88 -161.6 172.2 N 21.36 CA 22.26 C 23.79 O 25.41 CB 25.85 CG 27.23 OD1 28.24 OD2 28.44 H 25.64 HA 26.72 HB2 31.02 HB3 31.02
C SER E 29 -153.2 170.5 N 26.47 CA 26.38 C 29.19 O 29.58 CB 27.34 OG 28.0 H 31.76 HA 31.65 HB2 32.81 HB3 32.81 HG 33.6
C ASN T 3 -61.3 -32.5 N 24.11 CA 25.6 C 31.2 O 32.46 CB 28.32 CG 26.42 OD1 27.61 ND2 30.11 H 28.93 HA 30.72 HB2 33.99 HB3 33.99 HD21 36.14 HD22 36.14
C ILE T 85 -63.4 -48.7 N 31.22 CA 34.07 C 36.62 O 38.9 CB 34.74 CG1 36.22 CG2 40.79 CD1 36.25 H 37.47 HA 40.88 HB 41.69 HG12 43.47 HG13 43.47 HG21 48.95 HG22 48.95 HG23 48.95 HD11 43.5 HD12 43.5 HD13 43.5
C GLY T 59 -57.7 -43.4 N 37.24 CA 38.9 C 38.67 O 38.41 H 44.69 HA2 46.69 HA3 46.69
C ALA T 72 -77.5 -2.6 N 33.62 CA 34.3 C 37.4 O 39.91 CB 33.3 H 40.34 HA 41.15 HB1 39.96 HB2 39.96 HB3 39.96
C GLY T 70 78.3 27.6 N 36.27 CA 39.55 C 40.03 O 40.86 H 43.52 HA2 47.46 HA3 47.46
C SER - 67 -117.7 119.4 N 38.64 CA 42.38 C 39.73 O 37.91 CB 42.46 OG 48.35 H 46.36 HA 50.86 HB2 50.95 HB3 50.95 HG 58.02
C ALA - 86 -77.9 143.6 N 43.54 CA 42.88 C 44.4 O 45.19 CB 44.33 H 52.25 HA 51.46 HB1 53.2 HB2 53.2 HB3 53.2
C ILE - 20 -128.9 127.9 N 39.05 CA 39.55 C 39.3 O 39.46 CB 35.12 CG1 34.22 CG2 36.23 CD1 33.43 H 46.86 HA 47.46 HB 42.15 HG12 41.06 HG13 41.06 HG21 43.48 HG22 43.48 HG23 43.48 HD11 40.11 HD12 40.11 HD13 40.11
C THR - 71 -114.7 124.7 N 41.53 CA 41.74 C 41.46 O 41.65 CB 44.84 OG1 47.37 CG2 46.78 H 49.84 HA 50.09 HB 53.81 HG1 56.84 HG21 56.14 HG22 56.14 HG23 56.14
C LEU B 0 -82.9 139.0 N 39.38 CA 37.99 C 39.41 O 41.3 CB 35.62 CG 35.55 CD1 34.22 CD2 34.04 H 47.26 HA 45.58 HB2 42.74 HB3 42.74 HG 42.66 HD11 41.06 HD12 41.06 HD13 41.06 HD21 40.84 HD22 40.84 HD23 40.84
C ARG - 147 -101.4 159.1 N 38.81 CA 43.4 C 41.28 O 40.74 CB 47.23 CG 50.55 CD 57.44 NE 58.7 CZ 59.78 NH1 58.87 NH2 59.66 H 46.58 HA 52.08 HB2 56.68 HB3 56.68 HG2 60.66 HG3 60.66 HD2 68.93 HD3 68.93 HE 70.43 HH11 70.65 HH12 70.65 HH21 71.59 HH22 71.59
C PRO S 60 -55.7 139.6 N 43.33 CA 43.65 C 42.32 O 42.98 CB 45.67 CG 46.07 CD 44.15 HA 52.39 HB2 54.8 HB3 54.8 HG2 55.29 HG3 55.29 HD2 52.98 HD3 52.98
C GLY E 0 97.9 -158.5 N 39.92 CA 39.72 C 38.55 O 39.45 H 47.9 HA2 47.66 HA3 47.66
C ARG E 113 -92.4 145.7 N 38.93 CA 38.58 C 38.56 O 43.6 CB 42.86 CG 40.35 CD 43.28 NE 42.42 CZ 46.85 NH1 48.54 NH2 46.87 H 46.71 HA 46.3 HB2 51.43 HB3 51.43 HG2 48.42 HG3 48.42 HD2 51.93 HD3 51.93 HE 50.9 HH11 58.25 HH12 58.25 HH21 56.25 HH22 56.25
C GLN E 13 -158.2 159.6 N 38.87 CA 39.11 C 36.4 O 37.83 CB 39.18 CG 36.29 CD 39.66 OE1 41.18 NE2 40.62 H 46.64 HA 46.93 HB2 47.02 HB3 47.02 HG2 43.55 HG3 43.55 HE21 48.75 HE22 48.75
C ARG E 157 -112.5 137.5 N 37.56 CA 34.55 C 32.77 O 35.59 CB 40.97 CG 49.71 CD 60.6 NE 73.53 CZ 85.64 NH1 90.69 NH2 90.05 H 45.07 HA 41.46 HB2 49.17 HB3 49.17 HG2 59.66 HG3 59.66 HD2 72.72 HD3 72.72 HE 88.23 HH11 108.83 HH12 108.83 HH21 108.06 HH22 108.06
C ILE E 25 -124.5 126.9 N 32.09 CA 29.16 C 29.07 O 30.19 CB 33.75 CG1 41.92 CG2 32.89 CD1 46.54 H 38.51 HA 35.0 HB 40.5 HG12 50.31 HG13 50.31 HG21 39.47 HG22 39.47 HG23 39.47 HD11 55.85 HD12 55.85 HD13 55.85
C VAL E 66 -117.2 125.6 N 31.01 CA 27.21 C 30.1 O 31.9 CB 28.0 CG1 31.39 CG2 31.49 H 37.22 HA 32.66 HB 33.6 HG11 37.67 HG12 37.67 HG13 37.67 HG21 37.79 HG22 37.79 HG23 37.79
C TYR E 42 -110.4 153.1 N 27.17 CA 27.97 C 29.92 O 30.93 CB 26.93 CG 25.21 CD1 30.1 CD2 24.35 CE1 28.38 CE2 27.13 CZ 27.03 OH 29.73 H 32.61 HA 33.56 HB2 32.32 HB3 32.32 HD1 36.11 HD2 29.23 HE1 34.06 HE2 32.56 HH 35.68
C LYS E 134 -130.4 140.6 N 30.23 CA 32.34 C 31.98 O 32.25 CB 44.38 CG 54.6 CD 65.95 CE 74.04 NZ 79.62 H 36.28 HA 38.81 HB2 53.26 HB3 53.26 HG2 65.52 HG3 65.52 HD2 79.15 HD3 79.15 HE2 88.85 HE3 88.85 HZ1 95.55 HZ2 95.55 HZ3 95.55
C ALA E 22 -149.6 145.7 N 28.57 CA 26.08 C 29.24 O 30.46 CB 27.46 H 34.29 HA 31.3 HB1 32.95 HB2 32.95 HB3 32.95
C THR E 87 -95.7 118.6 N 27.83 CA 30.74 C 29.32 O 34.16 CB 34.15 OG1 38.29 CG2 33.91 H 33.4 HA 36.89 HB 40.98 HG1 45.95 HG21 40.69 HG22 40.69 HG23 40.69
C LEU - 2 -110.6 97.3 N 26.12 CA 25.93 C 26.02 O 26.29 CB 25.49 CG 26.96 CD1 27.44 CD2 29.93 H 31.35 HA 31.12 HB2 30.59 HB3 30.59 HG 32.35 HD11 32.93 HD12 32.93 HD13 32.93 HD21 35.91 HD22 35.91 HD23 35.91
C PRO - 61 -84.6 63.4 N 27.12 CA 26.42 C 24.23 O 25.66 CB 28.56 CG 26.36 CD 26.42 HA 31.71 HB2 34.27 HB3 34.27 HG2 31.63 HG3 31.63 HD2 31.7 HD3 31.7
C ILE B 10 -109.4 129.2 N 24.02 CA 20.88 C 26.44 O 24.65 CB 23.72 CG1 25.43 CG2 23.23 CD1 23.1 H 28.83 HA 25.06 HB 28.46 HG12 30.52 HG13 30.52 HG21 27.88 HG22 27.88 HG23 27.88 HD11 27.72 HD12 27.72 HD13 27.72
C ASN - 3 -70.0 166.9 N 22.76 CA 22.85 C 22.52 O 22.87 CB 23.82 CG 27.86 OD1 27.0 ND2 25.43 H 27.31 HA 27.42 HB2 28.59 HB3 28.59 HD21 30.52 HD22 30.52
C SER S 36 -57.7 144.3 N 25.64 CA 26.72 C 27.97 O 26.77 CB 30.0 OG 34.3 H 30.76 HA 32.07 HB2 36.0 HB3 36.0 HG 41.16
C GLY E 20 157.0 179.9 N 29.26 CA 30.76 C 30.07 O 28.35 H 35.11 HA2 36.91 HA3 36.91
C ASP E 80 -103.5 125.5 N 30.78 CA 28.31 C 30.38 O 32.01 CB 32.74 CG 40.32 OD1 43.0 OD2 44.67 H 36.94 HA 33.97 HB2 39.29 HB3 39.29
C TYR E 4 -129.8 173.0 N 28.97 CA 26.8 C 25.31 O 27.32 CB 25.66 CG 25.75 CD1 26.59 CD2 32.8 CE1 27.18 CE2 29.72 CZ 30.33 OH 34.31 H 34.76 HA 32.16 HB2 30.79 HB3 30.79 HD1 31.9 HD2 39.36 HE1 32.61 HE2 35.67 HH 41.17
C LEU E 29 -123.4 137.4 N 23.91 CA 25.37 C 26.78 O 26.6 CB 26.92 CG 31.34 CD1 35.2 CD2 31.3 H 28.69 HA 30.45 HB2 32.3 HB3 32.3 HG 37.61 HD11 42.23 HD12 42.23 HD13 42.23 HD21 37.56 HD22 37.56 HD23 37.56
C ILE E 0 -98.5 126.3 N 24.39 CA 25.19 C 25.05 O 25.04 CB 28.82 CG1 29.11 CG2 27.6 CD1 27.82 H 29.27 HA 30.22 HB 34.59 HG12 34.93 HG13 34.93 HG21 33.12 HG22 33.12 HG23 33.12 HD11 33.39 HD12 33.39 HD13 33.39
C HIS E 16 -110.7 144.1 N 19.4 CA 20.58 C 23.93 O 23.07 CB 25.93 CG 28.99 ND1 36.18 CD2 26.62 CE1 35.49 NE2 31.41 H 23.28 HA 24.69 HB2 31.12 HB3 31.12 HD1 43.41 HD2 31.95 HE1 42.59
C CYS E 2 -141.3 150.9 N 22.42 CA 23.8 C 23.86 O 24.79 CB 24.84 SG 26.94 H 26.9 HA 28.45 HB2 29.81 HB3 29.81 HG 32.33
C GLY E 6 -143.7 138.1 N 25.21 CA 29.12 C 28.56 O 27.63 H 30.25 HA2 34.95 HA3 34.95
C LEU E 0 -118.6 126.7 N 26.94 CA 27.38 C 27.72 O 25.62 CB 27.21 CG 29.8 CD1 30.83 CD2 29.37 H 32.33 HA 32.86 HB2 32.65 HB3 32.65 HG 35.76 HD11 37.0 HD12 37.0 HD13 37.0 HD21 35.24 HD22 35.24 HD23 35.24
C ALA E 0 -149.7 157.4 N 28.89 CA 31.48 C 32.49 O 32.37 CB 33.49 H 34.67 HA 37.78 HB1 40.18 HB2 40.18 HB3 40.18
C LYS E 27 -95.6 122.9 N 32.68 CA 35.83 C 37.37 O 38.71 CB 38.78 CG 44.78 CD 47.6 CE 52.09 NZ 55.23 H 39.22 HA 43.0 HB2 46.54 HB3 46.54 HG2 53.74 HG3 53.74 HD2 57.12 HD3 57.12 HE2 62.51 HE3 62.51 HZ1 66.28 HZ2 66.28 HZ3 66.28
C VAL - 62 -63.3 -33.1 N 42.58 CA 51.79 C 59.82 O 64.89 CB 54.34 CG1 52.24 CG2 56.62 H 51.09 HA 62.15 HB 65.21 HG11 62.69 HG12 62.69 HG13 62.69 HG21 67.95 HG22 67.95 HG23 67.95
C GLY - 17 -165.6 -127.6 N 62.07 CA 68.78 C 74.62 O 72.71 H 74.48 HA2 82.53 HA3 82.53
C ASN S 158 82.5 -69.6 N 81.06 CA 86.17 C 85.82 O 91.82 CB 88.42 CG 88.42 OD1 84.5 ND2 92.2 H 97.27 HA 103.4 HB2 106.1 HB3 106.1 HD21 110.63 HD22 110.63
C GLY S 63 -101.4 -130.4 N 78.75 CA 75.87 C 70.13 O 64.92 H 94.5 HA2 91.04 HA3 91.04
C ASP S 155 -74.8 173.2 N 68.43 CA 62.62 C 55.14 O 53.19 CB 64.43 CG 63.47 OD1 61.94 OD2 64.55 H 82.11 HA 75.14 HB2 77.31 HB3 77.31
C ARG - 111 -76.1 148.4 N 50.14 CA 45.8 C 43.65 O 46.01 CB 47.17 CG 48.21 CD 54.96 NE 61.62 CZ 70.74 NH1 73.49 NH2 73.2 H 60.16 HA 54.96 HB2 56.6 HB3 56.6 HG2 57.85 HG3 57.85 HD2 65.95 HD3 65.95 HE 73.94 HH11 88.19 HH12 88.19 HH21 87.84 HH22 87.84
C GLU E 56 -106.2 117.9 N 38.85 CA 36.21 C 32.98 O 30.71 CB 38.14 CG 37.36 CD 41.0 OE1 43.84 OE2 37.9 H 46.63 HA 43.46 HB2 45.76 HB3 45.76 HG2 44.83 HG3 44.83
C GLU E 56 -75.1 125.1 N 32.14 CA 29.68 C 28.66 O 30.82 CB 32.08 CG 37.02 CD 43.21 OE1 42.43 OE2 48.94 H 38.56 HA 35.62 HB2 38.5 HB3 38.5 HG2 44.42 HG3 44.42
C LEU E 0 -97.5 -50.7 N 30.11 CA 28.6 C 27.75 O 25.39 CB 30.1 CG 32.34 CD1 33.45 CD2 34.82 H 36.13 HA 34.32 HB2 36.12 HB3 36.12 HG 38.8 HD11 40.14 HD12 40.14 HD13 40.14 HD21 41.79 HD22 41.79 HD23 41.79
C ASP E 0 -156.6 104.3 N 26.34 CA 25.05 C 23.31 O 26.3 CB 26.06 CG 22.29 OD1 24.5 OD2 22.96 H 31.61 HA 30.07 HB2 31.28 HB3 31.28
C GLN E 10 -105.9 123.9 N 23.91 CA 27.44 C 25.65 O 27.88 CB 35.63 CG 47.43 CD 58.77 OE1 61.22 NE2 63.23 H 28.69 HA 32.93 HB2 42.76 HB3 42.76 HG2 56.92 HG3 56.92 HE21 75.88 HE22 75.88
C ARG E 9 -120.4 101.1 N 23.83 CA 25.37 C 24.13 O 25.59 CB 22.23 CG 24.7 CD 23.74 NE 24.77 CZ 25.44 NH1 25.57 NH2 28.97 H 28.6 HA 30.45 HB2 26.67 HB3 26.67 HG2 29.64 HG3 29.64 HD2 28.49 HD3 28.49 HE 29.72 HH11 30.68 HH12 30.68 HH21 34.76 HH22 34.76
C ARG E 89 -132.2 96.1 N 26.93 CA 32.8 C 36.44 O 39.47 CB 39.31 CG 47.63 CD 56.81 NE 65.96 CZ 73.8 NH1 75.28 NH2 78.46 H 32.31 HA 39.36 HB2 47.18 HB3 47.18 HG2 57.16 HG3 57.16 HD2 68.18 HD3 68.18 HE 79.15 HH11 90.34 HH12 90.34 HH21 94.15 HH22 94.15
C PRO E 13 -90.0 158.9 N 36.32 CA 33.94 C 29.88 O 34.24 CB 35.88 CG 39.53 CD 38.88 HA 40.73 HB2 43.06 HB3 43.06 HG2 47.43 HG3 47.43 HD2 46.66 HD3 46.66
C MET E 13 -102.3 -10.1 N 26.39 CA 31.74 C 31.75 O 30.25 CB 37.06 CG 31.43 SD 50.73 CE 81.62 H 31.67 HA 38.09 HB2 44.47 HB3 44.47 HG2 37.71 HG3 37.71 HE1 97.94 HE2 97.94 HE3 97.94
C MET E 15 -165.1 139.8 N 27.31 CA 30.15 C 28.06 O 29.99 CB 34.08 CG 39.11 SD 42.77 CE 41.31 H 32.78 HA 36.18 HB2 40.9 HB3 40.9 HG2 46.94 HG3 46.94 HE1 49.57 HE2 49.57 HE3 49.57
C LYS E 96 -87.7 150.8 N 28.17 CA 31.65 C 31.91 O 32.24 CB 34.79 CG 41.67 CD 49.39 CE 56.5 NZ 63.29 H 33.81 HA 37.98 HB2 41.74 HB3 41.74 HG2 50.0 HG3 50.0 HD2 59.27 HD3 59.27 HE2 67.8 HE3 67.8 HZ1 75.94 HZ2 75.94 HZ3 75.94
C VAL E 0 -144.8 142.9 N 29.92 CA 30.39 C 30.61 O 31.3 CB 31.2 CG1 30.8 CG2 30.78 H 35.9 HA 36.47 HB 37.44 HG11 36.96 HG12 36.96 HG13 36.96 HG21 36.93 HG22 36.93 HG23 36.93
C LYS E 42 -118.8 132.1 N 29.84 CA 29.97 C 29.06 O 29.23 CB 30.73 CG 34.11 CD 40.79 CE 46.14 NZ 48.81 H 35.81 HA 35.96 HB2 36.88 HB3 36.88 HG2 40.93 HG3 40.93 HD2 48.95 HD3 48.95 HE2 55.37 HE3 55.37 HZ1 58.57 HZ2 58.57 HZ3 58.57
C PHE E 3 -101.0 143.4 N 25.08 CA 27.19 C 24.95 O 28.53 CB 24.38 CG 25.39 CD1 27.8 CD2 26.21 CE1 26.69 CE2 26.97 CZ 26.29 H 30.1 HA 32.63 HB2 29.26 HB3 29.26 HD1 33.36 HD2 31.45 HE1 32.02 HE2 32.36 HZ 31.55
C TRP E 3 -127.1 153.2 N 25.87 CA 29.25 C 28.95 O 26.67 CB 30.39 CG 28.87 CD1 30.25 CD2 29.33 NE1 31.77 CE2 31.77 CE3 29.79 CZ2 32.73 CZ3 31.28 CH2 33.92 H 31.04 HA 35.1 HB2 36.47 HB3 36.47 HD1 36.3 HE1 38.13 HE3 35.75 HZ2 39.28 HZ3 37.53 HH2 40.71
C SER - 0 -125.0 140.7 N 29.02 CA 28.57 C 27.81 O 30.64 CB 28.65 OG 33.49 H 34.82 HA 34.29 HB2 34.38 HB3 34.38 HG 40.19
C ALA S 7 -63.8 -34.4 N 29.35 CA 33.48 C 31.04 O 33.19 CB 34.9 H 35.22 HA 40.17 HB1 41.88 HB2 41.88 HB3 41.88
C ARG S 90 -143.1 150.8 N 33.36 CA 35.38 C 32.19 O 29.43 CB 36.06 CG 35.76 CD 37.47 NE 37.86 CZ 35.29 NH1 30.95 NH2 33.96 H 40.03 HA 42.46 HB2 43.27 HB3 43.27 HG2 42.91 HG3 42.91 HD2 44.97 HD3 44.97 HE 45.43 HH11 37.14 HH12 37.14 HH21 40.76 HH22 40.76
C GLU - 77 -83.5 131.4 N 32.22 CA 31.38 C 30.72 O 31.43 CB 34.36 CG 36.78 CD 37.31 OE1 36.14 OE2 42.81 H 38.66 HA 37.65 HB2 41.23 HB3 41.23 HG2 44.14 HG3 44.14
C LEU - 36 -110.4 167.5 N 27.59 CA 28.21 C 30.19 O 32.04 CB 31.28 CG 35.67 CD1 37.09 CD2 37.18 H 33.11 HA 33.86 HB2 37.54 HB3 37.54 HG 42.81 HD11 44.51 HD12 44.51 HD13 44.51 HD21 44.62 HD22 44.62 HD23 44.62
C GLY S 69 -79.4 156.6 N 27.99 CA 27.64 C 26.25 O 26.15 H 33.59 HA2 33.17 HA3 33.17
C GLY S 75 66.1 -152.1 N 26.8 CA 26.71 C 27.54 O 25.19 H 32.15 HA2 32.05 HA3 32.05
C VAL S 51 -111.1 -16.4 N 25.41 CA 24.64 C 23.57 O 23.04 CB 29.84 CG1 30.18 CG2 33.63 H 30.49 HA 29.57 HB 35.81 HG11 36.22 HG12 36.22 HG13 36.22 HG21 40.36 HG22 40.36 HG23 40.36
C ILE B 114 -82.8 118.9 N 20.59 CA 20.36 C 25.7 O 23.84 CB 26.14 CG1 31.14 CG2 26.88 CD1 32.38 H 24.71 HA 24.43 HB 31.36 HG12 37.37 HG13 37.37 HG21 32.26 HG22 32.26 HG23 32.26 HD11 38.85 HD12 38.85 HD13 38.85
C HIS - 34 -88.9 94.9 N 22.76 CA 24.95 C 27.65 O 29.63 CB 26.22 CG 26.6 ND1 30.86 CD2 26.57 CE1 31.17 NE2 28.3 H 27.31 HA 29.94 HB2 31.46 HB3 31.46 HD2 31.88 HE1 37.41 HE2 33.96
C ALA - 67 -143.1 84.6 N 25.58 CA 29.95 C 28.93 O 30.54 CB 29.88 H 30.69 HA 35.94 HB1 35.85 HB2 35.85 HB3 35.85
C PRO - 62 -65.1 134.8 N 30.5 CA 31.94 C 32.99 O 33.15 CB 34.55 CG 35.11 CD 33.67 HA 38.33 HB2 41.45 HB3 41.45 HG2 42.13 HG3 42.13 HD2 40.4 HD3 40.4
C LEU - 150 -68.0 150.8 N 32.97 CA 34.13 C 35.49 O 33.46 CB 33.49 CG 34.64 CD1 34.92 CD2 37.24 H 39.56 HA 40.96 HB2 40.19 HB3 40.19 HG 41.56 HD11 41.91 HD12 41.91 HD13 41.91 HD21 44.68 HD22 44.68 HD23 44.68
C LYS - 173 -125.7 137.5 N 35.5 CA 41.32 C 41.73 O 37.65 CB 53.98 CG 69.6 CD 87.67 CE 102.82 NZ 108.55 H 42.6 HA 49.58 HB2 64.78 HB3 64.78 HG2 83.53 HG3 83.53 HD2 105.21 HD3 105.21 HE2 123.38 HE3 123.38 HZ1 130.26 HZ2 130.26 HZ3 130.26
C ILE - 142 -85.2 131.1 N 42.87 CA 44.3 C 47.56 O 49.38 CB 46.2 CG1 45.35 CG2 48.08 CD1 42.8 H 51.44 HA 53.16 HB 55.44 HG12 54.43 HG13 54.43 HG21 57.7 HG22 57.7 HG23 57.7 HD11 51.36 HD12 51.36 HD13 51.36
C ILE - 136 -100.8 -35.2 N 47.63 CA 53.99 C 59.49 O 62.31 CB 53.29 CG1 52.47 CG2 57.67 CD1 50.58 H 57.16 HA 64.79 HB 63.95 HG12 62.96 HG13 62.96 HG21 69.2 HG22 69.2 HG23 69.2 HD11 60.7 HD12 60.7 HD13 60.7
C SER - 152 -160.0 360.0 N 63.8 CA 73.44 C 76.54 O 76.41 CB 77.04 OG 80.29 H 76.56 HA 88.13 HB2 92.44 HB3 92.44 HG 96.35
