A SER - 86 360.0 -23.3 N 40.92 CA 39.95 C 27.99 O 26.51 CB 48.18 OG 43.41
A HIS - 74 -122.0 17.5 N 21.75 CA 22.12 C 24.83 O 30.56 CB 29.2 CG 41.68 ND1 47.73 CD2 41.27 CE1 52.06 NE2 47.55
A GLY - 12 -165.0 149.2 N 18.6 CA 19.31 C 19.71 O 17.15
A LEU E 8 -140.9 110.0 N 14.48 CA 16.52 C 21.0 O 14.27 CB 16.74 CG 16.9 CD1 17.81 CD2 24.7
A ALA E 4 -98.7 142.9 N 15.31 CA 15.04 C 17.22 O 16.71 CB 15.09
A MET S 10 -58.7 -44.5 N 14.11 CA 15.57 C 18.4 O 15.3 CB 16.42 CG 16.09 SD 20.86 CE 21.77
A HIS S 8 -130.0 137.7 N 13.4 CA 22.1 C 25.63 O 27.31 CB 15.51 CG 17.57 ND1 20.17 CD2 14.22 CE1 18.46 NE2 19.05
A GLY S 42 74.7 -155.9 N 26.99 CA 26.02 C 25.15 O 26.68
A ALA - 62 -109.3 147.3 N 21.95 CA 27.29 C 19.3 O 20.25 CB 31.15
A PRO - 44 -60.2 139.9 N 18.63 CA 16.41 C 20.65 O 22.93 CB 20.0 CG 24.94 CD 22.04
A GLN S 142 -83.4 -19.9 N 16.61 CA 19.37 C 19.29 O 19.59 CB 18.07 CG 38.65 CD 49.33 OE1 48.95 NE2 51.87
A LEU S 35 -87.6 140.6 N 16.15 CA 16.13 C 20.15 O 19.72 CB 12.35 CG 9.62 CD1 13.14 CD2 16.32
A PRO - 75 -64.9 158.7 N 19.87 CA 23.74 C 24.46 O 24.25 CB 25.35 CG 29.06 CD 19.36
A LYS T 162 -53.4 -34.0 N 20.36 CA 29.75 C 35.32 O 34.29 CB 39.32 CG 52.21 CD 56.35 CE 59.28 NZ 60.62
A ASP T 135 -102.5 25.1 N 28.63 CA 28.15 C 23.94 O 22.26 CB 37.17 CG 50.8 OD1 51.23 OD2 57.25
A PHE - 23 -57.1 147.6 N 19.07 CA 19.75 C 17.94 O 17.34 CB 17.67 CG 16.37 CD1 15.78 CD2 12.98 CE1 16.81 CE2 14.84 CZ 16.69
A ASP - 86 -87.5 -37.1 N 14.38 CA 19.8 C 15.92 O 16.72 CB 19.66 CG 28.77 OD1 31.74 OD2 29.13
A HIS S 56 -161.5 163.3 N 15.39 CA 13.39 C 15.27 O 14.11 CB 14.48 CG 18.71 ND1 18.7 CD2 17.66 CE1 22.81 NE2 22.03
A PHE - 3 -66.0 142.5 N 15.37 CA 11.45 C 11.74 O 12.98 CB 11.7 CG 10.67 CD1 12.59 CD2 11.51 CE1 11.67 CE2 9.72 CZ 9.58
A PRO T 33 -67.7 -17.8 N 14.85 CA 20.93 C 18.57 O 18.97 CB 24.27 CG 28.03 CD 23.17
A TYR T 20 -96.5 10.5 N 14.35 CA 16.05 C 20.02 O 17.19 CB 18.25 CG 16.54 CD1 11.98 CD2 12.27 CE1 10.07 CE2 14.88 CZ 10.88 OH 12.12
A ALA S 6 -102.3 149.9 N 11.37 CA 14.6 C 17.0 O 14.63 CB 13.97
A ASP - 47 -112.4 109.3 N 14.02 CA 15.33 C 12.87 O 13.57 CB 21.84 CG 24.52 OD1 18.76 OD2 24.86
A PRO T 70 -62.4 -17.9 N 15.86 CA 18.66 C 16.33 O 14.85 CB 26.71 CG 31.37 CD 25.12
A ALA T 74 -83.7 3.8 N 15.6 CA 18.82 C 22.04 O 16.51 CB 19.96
A ALA - 9 -53.7 137.2 N 16.51 CA 9.89 C 13.75 O 18.78 CB 10.44
A LYS - 94 -82.2 146.2 N 15.2 CA 17.8 C 22.47 O 18.42 CB 20.78 CG 33.56 CD 46.75 CE 54.96 NZ 57.61
A LYS - 111 -97.8 143.1 N 12.99 CA 15.83 C 22.32 O 23.65 CB 19.32 CG 30.74 CD 27.1 CE 30.63 NZ 32.28
A GLY - 3 129.2 168.7 N 18.52 CA 20.3 C 17.33 O 14.4
A GLY - 16 88.4 167.6 N 14.11 CA 18.5 C 17.99 O 17.99
A ARG E 104 -111.1 126.2 N 15.32 CA 16.76 C 19.37 O 18.93 CB 14.87 CG 18.81 CD 25.21 NE 26.42 CZ 32.77 NH1 24.6 NH2 29.33
A LEU E 0 -91.1 130.3 N 11.96 CA 13.03 C 17.31 O 14.5 CB 9.68 CG 9.76 CD1 10.87 CD2 11.83
A ARG E 69 -104.4 113.2 N 12.77 CA 11.95 C 16.18 O 13.29 CB 16.79 CG 22.17 CD 25.92 NE 25.69 CZ 30.66 NH1 31.86 NH2 29.4
A VAL E 7 -107.7 138.4 N 10.46 CA 12.35 C 12.74 O 17.88 CB 21.72 CG1 24.59 CG2 22.87
A GLY E 14 -122.2 133.8 N 12.33 CA 10.9 C 13.99 O 17.8
A LEU E 19 -130.4 146.3 N 17.72 CA 12.32 C 14.25 O 16.53 CB 15.18 CG 25.35 CD1 26.43 CD2 23.41
A PRO E 77 -81.7 153.9 N 19.31 CA 22.9 C 25.88 O 30.02 CB 28.02 CG 31.55 CD 28.77
A GLY S 39 93.2 -144.1 N 26.83 CA 24.35 C 22.72 O 21.16
A THR - 81 -153.2 179.6 N 22.16 CA 25.06 C 17.38 O 16.85 CB 25.95 OG1 30.54 CG2 27.03
A PHE - 3 -154.0 155.4 N 19.14 CA 19.57 C 19.32 O 21.21 CB 18.53 CG 21.94 CD1 17.2 CD2 18.59 CE1 17.08 CE2 19.63 CZ 19.99
A ASP - 78 -140.2 15.3 N 19.13 CA 20.13 C 22.3 O 19.03 CB 27.62 CG 33.96 OD1 33.5 OD2 50.18
A SER B 3 -151.8 149.1 N 15.86 CA 16.59 C 17.22 O 12.84 CB 19.85 OG 22.01
A LEU S 2 -108.0 21.6 N 12.41 CA 14.02 C 19.02 O 15.79 CB 14.23 CG 18.55 CD1 15.61 CD2 17.28
A ASN - 15 -113.1 102.7 N 15.29 CA 13.51 C 18.34 O 15.75 CB 15.37 CG 21.48 OD1 21.3 ND2 17.04
A PRO S 35 -83.2 1.9 N 15.11 CA 18.35 C 20.35 O 17.26 CB 20.87 CG 13.87 CD 13.08
A PHE S 22 -112.0 -7.2 N 11.77 CA 11.36 C 18.53 O 19.92 CB 9.29 CG 14.45 CD1 16.34 CD2 17.5 CE1 18.0 CE2 13.72 CZ 15.9
A ASN - 27 -89.4 174.3 N 23.01 CA 19.99 C 24.22 O 22.9 CB 17.09 CG 22.91 OD1 23.41 ND2 23.35
A VAL - 105 -105.4 360.0 N 31.84 CA 31.9 C 29.99 O 32.72 CB 36.83 CG1 41.77 CG2 31.41
A THR - 108 360.0 102.2 N 36.11 CA 35.63 C 17.63 O 23.55 CB 38.14 OG1 41.2 CG2 35.32
A ALA B 36 -82.3 142.9 N 17.8 CA 17.89 C 17.96 O 16.93 CB 16.25
A ALA - 3 -62.4 148.7 N 15.11 CA 17.89 C 16.1 O 16.84 CB 17.36
A GLN S 93 -86.4 171.6 N 12.72 CA 14.31 C 13.63 O 14.15 CB 15.71 CG 21.11 CD 34.4 OE1 43.16 NE2 23.69
A GLY S 8 88.7 2.3 N 13.87 CA 15.69 C 14.62 O 14.33
A LEU - 1 -92.1 -38.4 N 8.54 CA 11.98 C 15.44 O 10.78 CB 16.1 CG 14.76 CD1 18.03 CD2 21.01
A VAL B 97 -66.3 136.6 N 13.71 CA 16.71 C 12.69 O 19.33 CB 22.86 CG1 27.43 CG2 21.08
A GLY T 26 86.0 -58.1 N 13.88 CA 15.16 C 12.43 O 13.72
A ASN T 4 -68.7 -39.2 N 7.72 CA 9.65 C 12.88 O 8.9 CB 10.86 CG 13.63 OD1 11.27 ND2 12.0
A VAL T 2 -114.7 -54.6 N 11.9 CA 9.43 C 10.62 O 11.98 CB 6.54 CG1 10.26 CG2 12.51
A PHE B 15 -95.6 129.4 N 10.94 CA 8.73 C 15.07 O 13.68 CB 10.67 CG 12.43 CD1 14.66 CD2 11.31 CE1 18.9 CE2 16.41 CZ 18.29
A GLN - 4 -118.7 148.2 N 12.0 CA 12.21 C 11.17 O 12.34 CB 8.6 CG 11.78 CD 13.13 OE1 12.1 NE2 9.62
A GLY B 12 -91.1 176.8 N 10.75 CA 10.0 C 13.81 O 10.51
A LEU S 0 -64.4 -35.0 N 10.31 CA 10.25 C 9.67 O 10.59 CB 14.14 CG 18.65 CD1 14.88 CD2 16.06
A MET E 6 -133.7 155.4 N 9.57 CA 8.76 C 12.99 O 11.68 CB 9.52 CG 11.37 SD 16.33 CE 15.6
A ALA E 11 -105.3 134.0 N 10.76 CA 12.43 C 12.4 O 10.33 CB 10.4
A ARG E 88 -87.6 127.1 N 11.75 CA 11.06 C 13.0 O 12.15 CB 11.07 CG 13.89 CD 16.93 NE 15.23 CZ 26.26 NH1 22.75 NH2 19.91
A SER E 0 -82.0 122.1 N 9.5 CA 9.26 C 14.78 O 15.03 CB 11.63 OG 12.04
A GLN T 56 -79.8 6.8 N 14.72 CA 17.03 C 17.43 O 18.75 CB 17.72 CG 27.99 CD 37.64 OE1 40.01 NE2 29.49
A ASP T 12 -88.6 -2.1 N 12.92 CA 14.6 C 13.47 O 13.56 CB 19.97 CG 22.75 OD1 20.68 OD2 29.66
A GLU S 12 -129.1 158.7 N 12.37 CA 11.69 C 12.67 O 13.49 CB 14.22 CG 18.81 CD 15.75 OE1 14.68 OE2 13.48
A PRO S 18 -56.5 -50.1 N 15.24 CA 11.5 C 11.69 O 14.52 CB 13.73 CG 18.23 CD 16.3
A PHE S 16 -158.3 84.0 N 14.29 CA 11.91 C 12.79 O 13.26 CB 17.9 CG 15.31 CD1 15.38 CD2 17.69 CE1 16.07 CE2 22.79 CZ 16.47
A THR E 4 -133.3 138.2 N 10.81 CA 12.57 C 11.34 O 8.04 CB 8.94 OG1 13.14 CG2 9.54
A LEU E 0 -116.2 146.8 N 9.58 CA 11.86 C 12.95 O 12.75 CB 14.12 CG 12.44 CD1 10.06 CD2 11.44
A TYR E 2 -132.0 161.7 N 10.49 CA 9.56 C 9.98 O 10.99 CB 10.34 CG 11.97 CD1 14.27 CD2 13.08 CE1 13.45 CE2 11.1 CZ 11.31 OH 14.65
A PRO E 21 -58.9 141.8 N 12.71 CA 11.13 C 13.71 O 8.08 CB 8.49 CG 11.83 CD 12.19
A LEU S 11 -137.6 -109.0 N 11.4 CA 9.09 C 8.46 O 10.04 CB 6.61 CG 9.6 CD1 10.7 CD2 10.6
A ILE S 0 -61.1 -37.2 N 11.08 CA 7.9 C 12.82 O 12.46 CB 13.64 CG1 13.53 CG2 11.79 CD1 11.27
A ALA E 1 -84.7 122.6 N 10.63 CA 10.48 C 13.68 O 11.92 CB 11.44
A GLN E 81 -80.7 -19.6 N 13.26 CA 17.23 C 15.15 O 17.44 CB 19.04 CG 26.78 CD 39.06 OE1 37.67 NE2 38.4
A SER E 16 -161.8 170.3 N 16.01 CA 14.86 C 23.48 O 19.36 CB 19.05 OG 19.45
A ILE E 1 -134.6 151.1 N 18.75 CA 21.45 C 28.38 O 29.44 CB 24.05 CG1 25.8 CG2 25.34 CD1 27.83
A ASP E 79 -116.6 115.5 N 23.4 CA 27.14 C 25.51 O 23.59 CB 33.8 CG 52.78 OD1 61.11 OD2 61.65
A ILE E 54 -145.9 146.6 N 22.89 CA 22.86 C 28.88 O 25.02 CB 19.57 CG1 18.2 CG2 23.34 CD1 21.46
A ASP - 48 -96.7 158.2 N 27.44 CA 31.55 C 32.79 O 27.93 CB 32.54 CG 35.79 OD1 35.55 OD2 33.3
A PRO T 103 -59.7 -32.5 N 36.1 CA 30.46 C 30.42 O 26.5 CB 34.91 CG 33.28 CD 39.71
A ALA T 47 -79.0 -8.1 N 24.18 CA 24.44 C 26.2 O 25.31 CB 30.78
A ARG - 20 57.9 47.5 N 21.98 CA 22.98 C 23.7 O 24.87 CB 22.21 CG 21.31 CD 17.54 NE 18.2 CZ 15.99 NH1 12.16 NH2 16.14
A THR S 49 -92.1 -14.4 N 24.3 CA 21.87 C 26.14 O 25.61 CB 27.86 OG1 26.72 CG2 29.8
A ARG E 90 -148.8 149.6 N 22.75 CA 23.16 C 26.95 O 29.76 CB 27.89 CG 46.35 CD 61.46 NE 66.99 CZ 73.16 NH1 70.19 NH2 78.56
A VAL E 0 -149.0 131.4 N 26.97 CA 23.67 C 20.89 O 22.42 CB 20.87 CG1 22.63 CG2 18.05
A THR E 27 -116.8 131.7 N 20.35 CA 22.1 C 23.44 O 20.13 CB 22.36 OG1 24.72 CG2 20.62
A PHE E 0 -100.1 128.4 N 16.49 CA 11.5 C 14.89 O 17.25 CB 13.36 CG 13.32 CD1 13.23 CD2 16.33 CE1 14.53 CE2 15.86 CZ 13.32
A HIS E 24 -96.0 113.4 N 16.02 CA 16.36 C 11.23 O 17.6 CB 18.28 CG 38.69 ND1 47.31 CD2 40.45 CE1 43.65 NE2 45.92
A LEU E 5 -78.0 144.6 N 14.52 CA 14.16 C 19.46 O 18.89 CB 19.42 CG 18.14 CD1 21.96 CD2 17.82
A ASP - 4 -74.6 120.1 N 13.3 CA 13.57 C 21.44 O 13.54 CB 11.03 CG 18.42 OD1 19.17 OD2 18.4
A PRO T 89 -65.8 -12.7 N 13.66 CA 15.86 C 19.66 O 17.25 CB 23.39 CG 27.89 CD 20.02
A ARG T 143 -75.8 -17.0 N 14.73 CA 15.32 C 13.59 O 12.55 CB 22.97 CG 27.72 CD 31.14 NE 30.17 CZ 34.21 NH1 37.42 NH2 29.31
A ALA - 3 -72.7 135.3 N 12.2 CA 12.93 C 12.92 O 12.2 CB 11.41
A HIS B 49 -149.4 154.9 N 8.62 CA 8.06 C 10.01 O 11.54 CB 6.93 CG 9.32 ND1 9.65 CD2 12.84 CE1 9.93 NE2 12.12
A PHE - 0 -72.2 172.0 N 9.12 CA 7.76 C 13.44 O 11.35 CB 5.0 CG 10.65 CD1 10.01 CD2 8.67 CE1 11.72 CE2 9.31 CZ 11.43
A SER T 37 -73.4 -8.7 N 11.2 CA 10.78 C 13.55 O 14.6 CB 11.31 OG 16.54
A ASP T 87 -88.7 3.1 N 10.15 CA 13.0 C 11.32 O 14.91 CB 14.98 CG 17.65 OD1 10.43 OD2 14.26
A GLY S 44 93.2 -11.1 N 10.75 CA 6.93 C 11.11 O 13.05
A LYS - 106 -66.6 128.2 N 11.44 CA 12.97 C 11.12 O 10.68 CB 14.21 CG 25.17 CD 27.18 CE 28.44 NZ 31.39
A PRO B 74 -61.4 143.6 N 14.69 CA 11.27 C 13.29 O 14.93 CB 15.26 CG 17.48 CD 16.3
A ILE - 5 -80.5 130.8 N 10.63 CA 9.29 C 16.38 O 15.77 CB 11.09 CG1 11.59 CG2 13.42 CD1 10.76
A THR - 35 -129.4 173.0 N 12.28 CA 11.19 C 13.74 O 13.08 CB 18.88 OG1 22.52 CG2 22.09
A ALA H 0 -56.9 -30.8 N 14.45 CA 16.23 C 15.83 O 15.47 CB 16.88
A GLU H 110 -57.8 -38.0 N 14.07 CA 15.16 C 14.3 O 15.9 CB 21.65 CG 41.31 CD 56.78 OE1 58.68 OE2 58.67
A ASP H 7 -68.6 -38.3 N 14.51 CA 15.87 C 11.96 O 10.43 CB 13.05 CG 22.39 OD1 16.79 OD2 16.77
A VAL H 0 -66.4 -43.4 N 12.75 CA 12.19 C 14.33 O 13.49 CB 11.36 CG1 14.76 CG2 11.47
A LEU H 32 -69.1 -38.1 N 13.33 CA 16.85 C 13.98 O 13.6 CB 18.48 CG 23.09 CD1 24.35 CD2 23.9
A PHE H 28 -57.7 -43.9 N 11.52 CA 15.52 C 20.48 O 12.81 CB 12.61 CG 14.6 CD1 19.24 CD2 15.65 CE1 17.91 CE2 21.78 CZ 17.61
A SER H 0 -69.3 -43.0 N 10.36 CA 13.2 C 12.53 O 15.24 CB 12.33 OG 13.57
A PHE H 6 -57.4 -50.0 N 11.86 CA 15.11 C 16.13 O 15.23 CB 12.39 CG 16.74 CD1 19.0 CD2 16.09 CE1 22.32 CE2 20.91 CZ 20.26
A ASP H 88 -61.7 -43.1 N 13.94 CA 19.73 C 19.84 O 18.69 CB 21.56 CG 34.21 OD1 32.37 OD2 35.45
A LEU H 15 -65.4 -45.3 N 15.2 CA 16.57 C 16.58 O 16.48 CB 18.94 CG 21.75 CD1 21.13 CD2 14.2
A LEU H 0 -74.3 -31.8 N 10.07 CA 13.27 C 15.32 O 16.36 CB 13.57 CG 10.88 CD1 15.26 CD2 17.51
A LYS H 82 -60.6 -37.2 N 12.83 CA 18.69 C 23.51 O 23.55 CB 19.08 CG 21.66 CD 27.8 CE 41.82 NZ 51.12
A ALA H 54 -85.3 -33.6 N 16.4 CA 19.46 C 25.18 O 24.28 CB 19.69
A LYS H 91 -128.2 6.7 N 17.47 CA 19.37 C 18.29 O 20.3 CB 20.56 CG 26.99 CD 40.85 CE 54.16 NZ 58.15
A GLY S 0 -85.1 -164.7 N 16.89 CA 14.2 C 23.88 O 21.9
A ARG - 137 -66.1 157.0 N 24.25 CA 24.13 C 27.48 O 23.13 CB 33.33 CG 41.22 CD 55.56 NE 69.68 CZ 73.43 NH1 73.71 NH2 71.31
A PRO H 73 -59.3 -48.9 N 32.13 CA 29.89 C 28.69 O 32.68 CB 35.07 CG 38.83 CD 35.81
A GLN H 99 -72.7 -27.6 N 27.08 CA 28.23 C 20.89 O 21.04 CB 34.04 CG 36.18 CD 38.87 OE1 40.99 NE2 32.46
A GLN H 34 -61.8 -46.7 N 21.35 CA 23.83 C 21.93 O 20.09 CB 21.95 CG 22.76 CD 28.13 OE1 28.56 NE2 19.53
A ARG H 96 -57.8 -42.7 N 21.05 CA 18.78 C 22.05 O 22.2 CB 22.67 CG 21.08 CD 26.16 NE 28.48 CZ 34.48 NH1 26.15 NH2 36.41
A ILE H 95 -66.9 -43.1 N 22.19 CA 23.68 C 17.17 O 22.51 CB 26.81 CG1 26.02 CG2 32.54 CD1 30.39
A ALA H 11 -63.1 -52.4 N 22.88 CA 19.74 C 20.2 O 18.95 CB 17.59
A TYR H 5 -63.3 -29.6 N 20.86 CA 20.57 C 17.51 O 17.45 CB 16.06 CG 16.54 CD1 19.52 CD2 20.74 CE1 18.43 CE2 23.44 CZ 16.25 OH 19.26
A GLY H 45 -65.2 -16.8 N 17.62 CA 18.62 C 24.84 O 22.82
A LEU T 65 -78.2 -19.2 N 22.92 CA 22.59 C 25.62 O 22.21 CB 24.24 CG 23.66 CD1 24.19 CD2 22.92
A VAL - 14 -64.7 135.0 N 20.43 CA 16.97 C 20.03 O 22.13 CB 17.9 CG1 20.71 CG2 16.6
A LYS S 117 -78.7 -43.1 N 20.84 CA 24.98 C 29.42 O 27.13 CB 26.99 CG 33.41 CD 41.51 CE 49.83 NZ 53.97
A SER E 48 -152.9 151.7 N 23.84 CA 26.02 C 23.02 O 20.78 CB 27.61 OG 29.99
A ALA E 27 -129.9 117.3 N 26.91 CA 19.67 C 22.16 O 21.9 CB 19.75
A THR E 70 -138.2 165.5 N 20.17 CA 24.43 C 22.54 O 22.54 CB 26.0 OG1 33.49 CG2 29.35
A ALA E 41 -121.1 94.7 N 18.51 CA 20.1 C 24.79 O 26.54 CB 21.06
A PRO E 83 -58.8 -27.6 N 30.04 CA 33.21 C 33.31 O 30.38 CB 33.39 CG 35.11 CD 30.5
A ASP E 52 -155.3 169.6 N 24.83 CA 24.75 C 22.83 O 26.86 CB 37.02 CG 44.0 OD1 38.74 OD2 47.75
A PRO T 81 -61.4 -9.9 N 25.16 CA 26.57 C 22.33 O 20.73 CB 30.68 CG 30.17 CD 25.57
A HIS T 82 -115.4 14.5 N 20.59 CA 21.18 C 14.73 O 15.65 CB 34.47 CG 45.99 ND1 45.74 CD2 53.86 CE1 55.76 NE2 58.81
A ARG E 96 -136.4 137.4 N 13.95 CA 17.15 C 18.81 O 17.09 CB 21.85 CG 33.82 CD 43.21 NE 55.59 CZ 60.46 NH1 62.57 NH2 59.41
A VAL E 0 -121.5 119.3 N 16.46 CA 15.69 C 23.09 O 17.52 CB 20.98 CG1 17.09 CG2 22.12
A ALA E 20 -107.5 122.4 N 21.58 CA 21.67 C 21.13 O 22.44 CB 23.19
A TYR E 2 -107.9 123.1 N 16.97 CA 14.53 C 23.64 O 21.07 CB 15.69 CG 19.75 CD1 21.63 CD2 19.29 CE1 20.62 CE2 16.84 CZ 19.05 OH 18.74
A ASP E 30 -86.4 114.7 N 23.64 CA 22.2 C 16.88 O 23.17 CB 26.63 CG 46.88 OD1 61.47 OD2 47.71
A LEU - 0 -116.1 25.5 N 16.64 CA 18.31 C 28.24 O 29.94 CB 24.35 CG 25.78 CD1 22.11 CD2 20.65
A THR T 61 -62.2 133.8 N 30.65 CA 29.85 C 32.5 O 30.42 CB 39.33 OG1 42.58 CG2 41.87
A GLY T 76 83.4 0.8 N 33.15 CA 34.75 C 43.37 O 43.97
A VAL T 33 -87.0 -42.4 N 42.09 CA 40.37 C 33.14 O 40.52 CB 44.34 CG1 46.84 CG2 42.2
A GLY - 77 68.3 28.4 N 31.77 CA 27.21 C 33.42 O 32.76
A ASP - 25 -111.5 102.1 N 27.34 CA 24.68 C 25.69 O 19.17 CB 26.09 CG 33.35 OD1 31.74 OD2 36.93
A ARG T 32 -73.2 -15.2 N 21.51 CA 22.47 C 17.65 O 22.14 CB 27.29 CG 30.63 CD 24.98 NE 23.95 CZ 24.19 NH1 26.16 NH2 22.01
A GLU T 31 -82.4 -22.5 N 16.99 CA 16.04 C 19.44 O 16.84 CB 25.21 CG 30.58 CD 46.59 OE1 43.89 OE2 57.28
A LEU H 0 -58.1 -40.7 N 17.71 CA 17.62 C 18.62 O 17.83 CB 15.87 CG 17.82 CD1 17.73 CD2 18.98
A PRO H 0 -61.0 -34.3 N 16.77 CA 14.89 C 15.28 O 12.83 CB 19.75 CG 17.98 CD 21.77
A LEU H 0 -74.6 -35.4 N 14.26 CA 12.33 C 12.27 O 11.9 CB 11.85 CG 13.06 CD1 15.71 CD2 14.2
A ILE H 30 -61.5 -43.5 N 10.58 CA 12.59 C 10.89 O 13.6 CB 17.06 CG1 22.59 CG2 14.46 CD1 25.46
A LEU H 0 -63.9 -35.3 N 13.37 CA 9.48 C 13.29 O 13.09 CB 13.02 CG 14.36 CD1 16.79 CD2 17.82
A ALA H 0 -69.1 -23.0 N 11.37 CA 12.86 C 14.74 O 14.22 CB 10.79
A ILE T 72 -102.5 6.8 N 9.47 CA 10.19 C 10.93 O 11.34 CB 13.89 CG1 10.71 CG2 14.09 CD1 15.6
A MET S 1 -59.3 135.8 N 10.59 CA 11.28 C 14.07 O 11.02 CB 13.27 CG 12.53 SD 17.09 CE 17.65
A PRO B 12 -68.8 144.4 N 10.15 CA 9.39 C 10.98 O 10.47 CB 12.37 CG 17.27 CD 12.0
A VAL - 0 -102.1 113.7 N 11.67 CA 6.9 C 11.04 O 11.26 CB 9.57 CG1 13.0 CG2 10.61
A LEU - 2 -107.1 150.5 N 10.01 CA 7.41 C 10.05 O 11.27 CB 9.25 CG 14.17 CD1 18.89 CD2 12.19
A PRO - 4 -84.4 110.9 N 13.47 CA 13.6 C 12.43 O 14.26 CB 11.76 CG 16.84 CD 15.21
A LYS G 100 -53.9 -40.3 N 11.19 CA 12.44 C 18.97 O 17.56 CB 12.19 CG 22.96 CD 27.49 CE 31.24 NZ 40.58
A HIS G 77 -72.4 -8.2 N 14.2 CA 18.3 C 20.87 O 17.74 CB 15.56 CG 14.72 ND1 12.9 CD2 15.7 CE1 15.02 NE2 15.63
A ALA G 54 -137.1 8.6 N 13.49 CA 15.7 C 29.69 O 36.17 CB 15.67
A LEU - 42 -117.1 123.0 N 19.2 CA 15.34 C 19.55 O 24.03 CB 16.65 CG 23.2 CD1 21.18 CD2 22.25
A ASP - 93 -82.1 110.0 N 15.67 CA 19.41 C 16.94 O 18.15 CB 22.39 CG 28.18 OD1 24.68 OD2 26.83
A VAL G 51 -68.9 -27.9 N 15.23 CA 18.46 C 14.18 O 14.7 CB 27.23 CG1 28.49 CG2 28.83
A GLU G 154 -71.1 -27.5 N 16.65 CA 18.2 C 18.72 O 12.95 CB 18.73 CG 30.09 CD 45.29 OE1 49.68 OE2 46.34
A ARG G 114 -80.9 -8.7 N 16.82 CA 17.24 C 14.42 O 14.59 CB 27.14 CG 35.51 CD 38.6 NE 31.65 CZ 45.78 NH1 43.74 NH2 41.55
A PHE T 7 -57.1 -36.8 N 19.79 CA 20.35 C 23.73 O 22.22 CB 18.82 CG 18.96 CD1 19.06 CD2 21.65 CE1 17.78 CE2 25.58 CZ 17.92
A SER T 85 -83.4 -3.6 N 19.65 CA 17.65 C 20.66 O 23.06 CB 23.68 OG 21.36
A ASP S 81 -89.3 159.7 N 18.54 CA 19.42 C 22.51 O 17.0 CB 18.99 CG 21.18 OD1 18.6 OD2 17.59
A ALA - 46 -78.6 120.3 N 18.54 CA 23.33 C 28.05 O 31.91 CB 29.5
A THR - 24 -125.2 136.3 N 20.07 CA 22.73 C 25.8 O 21.41 CB 28.36 OG1 36.53 CG2 29.95
A LEU - 68 -108.9 2.0 N 22.81 CA 17.78 C 18.99 O 18.5 CB 20.18 CG 26.56 CD1 27.49 CD2 31.94
A ALA S 70 -60.1 142.2 N 19.62 CA 24.51 C 19.34 O 24.18 CB 29.88
A LYS - 121 -66.9 115.2 N 19.81 CA 21.08 C 21.44 O 18.2 CB 21.58 CG 24.88 CD 30.67 CE 37.39 NZ 42.1
A PRO - 35 -78.9 150.2 N 18.34 CA 18.96 C 19.78 O 19.16 CB 19.2 CG 14.51 CD 16.54
A LEU - 33 -91.0 126.0 N 13.39 CA 13.0 C 9.32 O 10.54 CB 12.01 CG 13.83 CD1 15.7 CD2 14.16
A GLY - 2 -130.6 -165.8 N 10.85 CA 11.2 C 11.9 O 9.2
A SER - 2 -121.2 7.7 N 8.47 CA 11.09 C 9.71 O 10.21 CB 9.18 OG 9.47
A GLY S 1 -85.6 -177.2 N 12.37 CA 9.24 C 10.11 O 8.32
A PRO S 1 -65.6 -20.0 N 9.41 CA 9.69 C 7.76 O 12.45 CB 12.18 CG 8.53 CD 6.36
A TYR E 4 -122.0 149.4 N 6.68 CA 6.18 C 11.69 O 13.61 CB 11.08 CG 10.68 CD1 10.49 CD2 9.25 CE1 10.32 CE2 8.3 CZ 11.23 OH 11.08
A VAL E 43 -110.6 158.4 N 7.49 CA 6.37 C 12.71 O 10.34 CB 14.53 CG1 12.43 CG2 17.29
A VAL E 10 -81.5 112.6 N 11.02 CA 17.65 C 20.79 O 15.78 CB 12.14 CG1 19.32 CG2 13.29
A ALA E 32 -96.3 -31.5 N 13.51 CA 16.47 C 19.96 O 20.28 CB 17.73
A ASP E 52 -156.8 145.7 N 14.09 CA 20.53 C 18.42 O 18.32 CB 27.81 CG 33.13 OD1 28.75 OD2 25.97
A VAL E 30 -142.1 132.3 N 14.74 CA 15.05 C 27.14 O 20.93 CB 21.46 CG1 23.12 CG2 25.02
A GLN E 94 -126.7 106.0 N 20.94 CA 24.38 C 24.48 O 17.31 CB 23.19 CG 33.83 CD 47.88 OE1 51.6 NE2 52.06
A ALA T 59 -48.6 133.2 N 19.06 CA 23.75 C 23.13 O 25.02 CB 33.03
A GLY T 25 67.4 4.2 N 25.76 CA 29.17 C 25.66 O 31.27
A ALA T 42 -124.1 -58.0 N 19.9 CA 17.96 C 24.62 O 18.1 CB 25.79
A ARG E 42 -155.5 150.7 N 18.26 CA 16.29 C 18.77 O 15.87 CB 19.76 CG 25.92 CD 31.06 NE 34.65 CZ 31.4 NH1 32.43 NH2 26.55
A LEU E 0 -126.2 122.1 N 13.76 CA 12.79 C 16.24 O 17.5 CB 10.78 CG 17.61 CD1 18.74 CD2 16.39
A LEU E 17 -107.6 121.5 N 13.98 CA 14.07 C 16.61 O 14.8 CB 15.53 CG 16.26 CD1 15.89 CD2 20.52
A LEU E 0 -103.7 139.5 N 11.37 CA 8.86 C 12.35 O 11.38 CB 9.91 CG 12.81 CD1 12.39 CD2 14.71
A LYS E 110 -131.0 139.0 N 11.99 CA 9.68 C 13.46 O 11.96 CB 12.14 CG 22.72 CD 33.69 CE 40.15 NZ 44.35
A ARG E 58 -58.0 138.9 N 10.47 CA 8.77 C 15.92 O 11.06 CB 14.2 CG 27.34 CD 35.89 NE 31.16 CZ 35.96 NH1 35.66 NH2 38.41
A ASP - 16 -81.2 110.3 N 11.51 CA 13.82 C 8.85 O 9.49 CB 14.46 CG 19.04 OD1 14.96 OD2 15.71
A PRO T 106 -61.5 -16.3 N 11.29 CA 14.39 C 15.44 O 15.92 CB 16.96 CG 20.86 CD 10.7
A ASN T 117 -115.4 20.3 N 9.41 CA 8.49 C 10.1 O 12.2 CB 12.2 CG 13.64 OD1 11.51 ND2 9.23
A TYR - 18 -42.7 122.1 N 10.41 CA 13.4 C 9.09 O 9.49 CB 5.49 CG 10.54 CD1 8.41 CD2 12.47 CE1 7.52 CE2 9.4 CZ 10.86 OH 10.74
A TRP T 25 -60.8 -32.3 N 8.32 CA 11.44 C 12.41 O 10.6 CB 9.77 CG 9.56 CD1 8.49 CD2 7.91 NE1 10.05 CE2 9.62 CE3 10.14 CZ2 10.84 CZ3 15.26 CH2 14.2
A GLY T 0 -104.9 20.6 N 9.27 CA 9.05 C 14.41 O 11.86
A ALA T 64 -60.4 -27.5 N 13.98 CA 12.8 C 16.07 O 19.63 CB 20.03
A ASP T 109 -113.4 17.5 N 12.55 CA 13.85 C 22.31 O 19.88 CB 22.59 CG 31.29 OD1 24.05 OD2 33.83
A ILE S 7 -70.2 139.6 N 14.23 CA 15.26 C 13.37 O 11.73 CB 19.2 CG1 21.33 CG2 19.7 CD1 18.05
A PRO G 40 -52.9 -44.0 N 14.18 CA 9.32 C 7.99 O 11.14 CB 14.24 CG 14.79 CD 11.06
A SER G 2 -67.8 -6.4 N 10.35 CA 10.62 C 12.99 O 11.97 CB 14.25 OG 10.99
A GLN G 7 -112.5 -12.0 N 8.89 CA 9.08 C 12.76 O 10.33 CB 11.45 CG 7.62 CD 11.37 OE1 13.22 NE2 14.99
A ARG T 58 -69.3 132.4 N 12.67 CA 11.35 C 13.43 O 12.18 CB 14.87 CG 15.1 CD 18.53 NE 22.9 CZ 28.42 NH1 23.8 NH2 24.09
A GLY T 7 89.8 -9.7 N 9.08 CA 12.56 C 13.74 O 13.46
A PHE - 12 -101.1 160.0 N 10.13 CA 9.77 C 14.46 O 13.68 CB 7.38 CG 10.56 CD1 14.83 CD2 10.92 CE1 16.54 CE2 13.04 CZ 13.01
A TYR - 24 64.7 66.3 N 10.77 CA 14.33 C 16.65 O 14.65 CB 11.28 CG 14.27 CD1 10.69 CD2 21.38 CE1 17.84 CE2 18.36 CZ 14.32 OH 24.27
A ASN - 1 -97.6 -32.2 N 10.67 CA 8.82 C 14.89 O 11.89 CB 10.26 CG 15.94 OD1 15.85 ND2 12.15
A PHE - 4 -67.9 143.1 N 10.97 CA 8.76 C 11.86 O 13.99 CB 13.3 CG 14.69 CD1 16.69 CD2 12.3 CE1 15.43 CE2 12.02 CZ 10.56
A ASP S 66 -75.3 -26.8 N 11.23 CA 12.68 C 14.76 O 15.86 CB 14.9 CG 29.31 OD1 28.91 OD2 33.09
A GLU E 46 -144.3 146.5 N 12.01 CA 9.72 C 12.8 O 11.84 CB 15.75 CG 28.6 CD 42.58 OE1 51.15 OE2 37.32
A ILE E 1 -127.8 119.9 N 10.22 CA 11.24 C 14.49 O 12.92 CB 9.52 CG1 13.54 CG2 10.64 CD1 16.82
A ASP E 9 -108.3 108.9 N 11.66 CA 11.63 C 16.93 O 14.92 CB 15.26 CG 25.73 OD1 27.76 OD2 26.97
A LEU E 0 -95.9 110.0 N 12.7 CA 12.51 C 17.91 O 18.61 CB 14.4 CG 21.86 CD1 18.13 CD2 23.82
A GLN E 48 -107.6 137.6 N 16.74 CA 16.77 C 17.13 O 16.64 CB 20.51 CG 27.76 CD 27.92 OE1 30.4 NE2 28.6
A TYR E 15 -105.7 140.8 N 17.44 CA 15.06 C 16.71 O 16.06 CB 17.03 CG 21.99 CD1 18.34 CD2 19.6 CE1 18.33 CE2 19.51 CZ 20.68 OH 23.88
A PHE E 17 -128.9 139.5 N 19.36 CA 20.71 C 24.37 O 25.21 CB 18.71 CG 20.77 CD1 18.34 CD2 21.87 CE1 15.02 CE2 27.38 CZ 22.09
A ARG S 178 -36.0 -65.5 N 36.66 CA 47.09 C 38.88 O 38.09 CB 59.42 CG 66.8 CD 72.32 NE 71.82 CZ 69.49 NH1 67.6 NH2 70.95
A ASP S 95 -151.3 -175.8 N 41.2 CA 49.37 C 38.6 O 30.88 CB 56.97 CG 62.49 OD1 70.35 OD2 54.34
A GLY H 27 -61.1 -36.3 N 38.44 CA 35.66 C 24.02 O 26.66
A ASN H 95 -68.9 -44.2 N 29.35 CA 28.64 C 28.94 O 30.27 CB 32.37 CG 34.24 OD1 32.61 ND2 38.07
A SER H 24 -69.7 -31.9 N 27.23 CA 25.99 C 14.05 O 22.05 CB 37.65 OG 46.17
A LEU H 17 -62.9 -43.7 N 17.65 CA 18.7 C 21.22 O 19.17 CB 19.1 CG 21.43 CD1 17.79 CD2 21.8
A PHE H 7 -65.9 -41.0 N 19.72 CA 20.44 C 16.09 O 18.58 CB 21.31 CG 19.06 CD1 17.39 CD2 26.57 CE1 24.46 CE2 28.51 CZ 25.89
A GLU H 83 -61.9 -38.3 N 19.78 CA 23.97 C 19.94 O 17.52 CB 35.5 CG 41.01 CD 46.46 OE1 50.23 OE2 49.04
A ALA H 8 -63.5 -37.5 N 24.15 CA 23.16 C 21.36 O 21.11 CB 22.33
A PHE H 1 -63.2 -47.9 N 18.03 CA 14.59 C 17.67 O 16.45 CB 12.45 CG 15.9 CD1 19.17 CD2 17.66 CE1 18.7 CE2 18.29 CZ 15.34
A LYS H 64 -60.8 -33.6 N 13.94 CA 21.88 C 21.83 O 19.18 CB 22.32 CG 27.21 CD 35.13 CE 42.55 NZ 39.66
A ALA T 71 -78.2 -4.1 N 23.11 CA 25.32 C 26.86 O 25.07 CB 26.69
A GLY T 28 83.1 13.2 N 22.45 CA 26.55 C 24.28 O 22.55
A LEU S 95 -88.8 -15.6 N 17.69 CA 18.08 C 21.08 O 20.28 CB 20.28 CG 31.78 CD1 30.86 CD2 29.13
A ILE - 3 -128.0 137.1 N 14.7 CA 11.11 C 13.93 O 13.9 CB 17.67 CG1 18.22 CG2 18.61 CD1 16.68
A ASP - 13 -92.3 -11.8 N 13.75 CA 11.23 C 14.78 O 12.34 CB 10.43 CG 15.92 OD1 18.74 OD2 18.85
A TYR E 16 -159.2 143.9 N 10.06 CA 8.84 C 12.99 O 11.68 CB 10.36 CG 11.4 CD1 13.33 CD2 15.5 CE1 16.14 CE2 17.34 CZ 17.29 OH 22.04
A ARG E 16 -151.6 147.9 N 9.34 CA 11.59 C 14.85 O 12.64 CB 16.77 CG 16.32 CD 15.84 NE 13.68 CZ 14.85 NH1 18.1 NH2 17.8
A ASP E 65 -95.5 132.0 N 9.26 CA 11.72 C 17.6 O 18.91 CB 20.89 CG 26.56 OD1 28.61 OD2 29.71
A GLU E 7 -97.8 127.9 N 15.11 CA 12.55 C 17.55 O 16.93 CB 12.28 CG 11.46 CD 17.33 OE1 18.23 OE2 18.59
A THR - 113 -120.8 -2.5 N 15.62 CA 18.31 C 21.71 O 18.74 CB 22.57 OG1 25.59 CG2 32.22
A SER - 36 -95.9 118.9 N 17.73 CA 16.31 C 13.32 O 13.51 CB 16.71 OG 15.48
A THR H 11 -63.5 -35.8 N 12.57 CA 14.86 C 17.07 O 12.72 CB 23.07 OG1 19.83 CG2 16.79
A THR H 94 -63.1 -46.1 N 18.35 CA 15.97 C 15.77 O 16.1 CB 23.31 OG1 27.66 CG2 32.56
A ARG H 50 -69.5 -44.1 N 14.66 CA 17.55 C 15.72 O 16.99 CB 19.92 CG 33.32 CD 33.3 NE 41.68 CZ 39.07 NH1 41.45 NH2 36.43
A TRP H 21 -57.6 -40.5 N 14.52 CA 12.3 C 17.24 O 14.26 CB 14.69 CG 17.44 CD1 18.52 CD2 15.99 NE1 16.81 CE2 16.05 CE3 14.98 CZ2 12.7 CZ3 18.72 CH2 12.7
A SER H 61 -70.8 -42.0 N 12.5 CA 18.37 C 22.58 O 25.18 CB 20.24 OG 34.93
A THR H 104 -131.5 -3.9 N 20.8 CA 26.72 C 26.87 O 29.6 CB 29.82 OG1 30.91 CG2 28.95
A GLY S 22 -94.3 -0.7 N 18.77 CA 15.35 C 16.74 O 19.22
A TYR - 14 -104.7 44.4 N 14.27 CA 19.16 C 30.64 O 35.5 CB 16.92 CG 17.16 CD1 15.22 CD2 13.81 CE1 15.22 CE2 12.75 CZ 15.07 OH 16.13
A ASP - 106 -116.6 57.4 N 31.42 CA 30.09 C 32.86 O 36.85 CB 45.52 CG 65.32 OD1 71.69 OD2 69.79
A PHE S 19 -116.1 159.7 N 26.26 CA 23.68 C 25.56 O 28.1 CB 22.87 CG 24.68 CD1 23.98 CD2 27.01 CE1 22.76 CE2 26.15 CZ 24.5
A PRO H 91 -59.4 -45.3 N 36.83 CA 34.97 C 30.73 O 29.77 CB 43.23 CG 44.11 CD 36.61
A ALA H 4 -56.1 -31.2 N 30.02 CA 31.93 C 32.85 O 28.83 CB 34.99
A LEU H 36 -68.6 -36.1 N 31.72 CA 36.15 C 40.91 O 38.67 CB 32.35 CG 39.9 CD1 46.5 CD2 27.53
A ARG H 194 -82.9 -32.0 N 45.92 CA 53.49 C 52.07 O 57.46 CB 58.36 CG 63.53 CD 70.76 NE 78.9 CZ 83.47 NH1 85.31 NH2 84.05
A ASP T 90 -94.6 14.2 N 47.46 CA 41.44 C 48.93 O 49.94 CB 38.32 CG 43.58 OD1 52.65 OD2 35.57
A GLY T 42 84.5 1.2 N 52.89 CA 51.17 C 39.08 O 37.87
A ARG S 134 -70.2 -27.3 N 25.45 CA 21.03 C 17.6 O 17.76 CB 20.38 CG 23.92 CD 28.5 NE 32.26 CZ 39.92 NH1 39.67 NH2 41.78
A MET E 14 -136.8 160.4 N 17.08 CA 19.51 C 24.64 O 22.35 CB 17.8 CG 22.29 SD 23.71 CE 26.64
A ALA E 31 -143.8 152.8 N 15.22 CA 18.34 C 18.87 O 15.54 CB 18.32
A ARG E 101 -122.6 153.5 N 13.72 CA 13.85 C 17.36 O 17.36 CB 15.7 CG 17.28 CD 20.64 NE 21.5 CZ 24.13 NH1 18.86 NH2 22.79
A GLU E 53 -148.6 154.5 N 12.13 CA 13.62 C 15.56 O 16.17 CB 18.79 CG 31.94 CD 31.62 OE1 26.03 OE2 34.82
A SER E 59 -111.4 127.0 N 11.55 CA 9.48 C 17.79 O 19.13 CB 17.9 OG 30.64
A LEU E 25 -122.1 147.6 N 11.95 CA 14.66 C 12.24 O 13.18 CB 18.61 CG 23.56 CD1 24.68 CD2 21.06
A LYS - 92 -134.1 142.3 N 15.18 CA 16.79 C 15.86 O 14.0 CB 22.37 CG 31.23 CD 40.19 CE 49.74 NZ 53.24
A ASN - 22 -130.5 -159.3 N 13.75 CA 14.8 C 16.54 O 14.23 CB 13.44 CG 16.27 OD1 13.44 ND2 13.23
A GLU S 79 -98.6 11.1 N 12.91 CA 17.63 C 13.61 O 10.52 CB 18.63 CG 33.03 CD 40.11 OE1 47.76 OE2 40.0
A ASN - 17 -66.6 134.0 N 12.24 CA 14.56 C 17.86 O 12.92 CB 13.26 CG 13.92 OD1 16.19 ND2 14.95
A PRO - 6 -67.1 154.9 N 11.09 CA 13.49 C 13.47 O 12.5 CB 16.02 CG 24.06 CD 11.47
A LYS B 32 -112.5 165.7 N 9.68 CA 10.14 C 12.8 O 13.05 CB 10.61 CG 21.17 CD 21.33 CE 31.79 NZ 36.14
A GLY - 19 84.8 -179.4 N 14.55 CA 12.05 C 15.7 O 12.58
A LEU - 0 -127.6 129.8 N 9.41 CA 8.26 C 9.09 O 11.57 CB 10.38 CG 9.72 CD1 10.51 CD2 6.92
A ASN E 53 -109.6 153.6 N 7.12 CA 4.67 C 5.43 O 7.04 CB 14.48 CG 30.24 OD1 33.76 ND2 25.65
A GLY E 0 -172.1 167.4 N 7.17 CA 10.87 C 7.37 O 8.05
A PHE E 0 -70.8 121.0 N 7.86 CA 6.2 C 9.36 O 10.72 CB 8.34 CG 8.14 CD1 12.4 CD2 11.99 CE1 12.99 CE2 14.02 CZ 8.58
A VAL E 0 -99.0 128.4 N 4.7 CA 3.9 C 6.12 O 9.4 CB 9.49 CG1 10.75 CG2 10.51
A PHE E 0 -82.0 135.6 N 5.64 CA 5.5 C 8.48 O 9.18 CB 5.11 CG 6.49 CD1 7.23 CD2 9.25 CE1 5.45 CE2 7.62 CZ 7.12
A ASN - 2 -85.2 93.8 N 6.42 CA 5.44 C 9.53 O 10.69 CB 7.95 CG 12.95 OD1 8.06 ND2 9.06
A THR T 21 -75.2 -2.9 N 7.42 CA 9.56 C 10.47 O 9.74 CB 8.71 OG1 10.35 CG2 5.62
A ARG T 53 -71.6 -20.0 N 9.22 CA 11.27 C 15.58 O 11.37 CB 7.46 CG 7.79 CD 7.25 NE 8.11 CZ 10.95 NH1 8.26 NH2 6.27
A ARG S 79 -97.6 140.0 N 10.39 CA 13.2 C 13.82 O 10.58 CB 14.62 CG 16.87 CD 16.27 NE 11.5 CZ 15.04 NH1 9.27 NH2 12.09
A ALA G 62 -55.3 -33.8 N 14.15 CA 13.36 C 9.41 O 10.54 CB 21.9
A LEU G 33 -64.7 -21.9 N 11.37 CA 12.15 C 10.35 O 8.54 CB 15.31 CG 12.91 CD1 14.45 CD2 12.72
A PHE G 0 -117.9 24.6 N 7.67 CA 11.07 C 12.4 O 9.56 CB 5.71 CG 8.54 CD1 7.71 CD2 7.48 CE1 11.7 CE2 7.09 CZ 8.8
A LYS - 137 -79.0 -19.3 N 9.46 CA 10.82 C 9.7 O 16.1 CB 11.18 CG 17.37 CD 25.47 CE 32.03 NZ 36.96
A ASP - 44 -97.2 119.5 N 9.78 CA 10.5 C 12.99 O 12.15 CB 9.68 CG 17.73 OD1 19.43 OD2 21.6
A ALA H 36 -61.6 -26.7 N 10.95 CA 9.91 C 8.92 O 9.17 CB 12.9
A ARG H 112 -69.0 -39.5 N 8.77 CA 10.68 C 11.23 O 9.75 CB 12.28 CG 14.87 CD 21.76 NE 20.7 CZ 27.49 NH1 26.78 NH2 19.99
A LEU H 1 -67.3 -40.2 N 9.91 CA 10.21 C 9.29 O 8.09 CB 6.39 CG 14.02 CD1 12.44 CD2 11.38
A ARG H 15 -61.7 -43.3 N 7.94 CA 7.78 C 9.38 O 11.83 CB 5.37 CG 4.44 CD 7.14 NE 8.45 CZ 8.58 NH1 8.19 NH2 10.04
A GLU H 11 -59.8 -45.4 N 10.36 CA 10.42 C 10.13 O 9.29 CB 9.8 CG 10.93 CD 20.63 OE1 16.59 OE2 18.76
A ALA H 0 -61.5 -44.2 N 7.45 CA 7.41 C 8.12 O 9.84 CB 10.45
A PHE H 0 -62.8 -36.3 N 7.82 CA 9.48 C 9.36 O 9.95 CB 6.76 CG 9.07 CD1 12.05 CD2 10.73 CE1 14.92 CE2 10.83 CZ 13.98
A GLY H 11 -62.1 -30.7 N 9.3 CA 10.61 C 13.99 O 16.08
A MET T 24 -62.5 -21.3 N 9.5 CA 9.31 C 14.19 O 17.23 CB 15.1 CG 22.11 SD 17.83 CE 22.32
A MET T 5 -89.5 -7.6 N 10.81 CA 15.42 C 17.41 O 16.98 CB 11.79 CG 11.74 SD 15.97 CE 15.85
A PHE - 5 -75.4 124.1 N 13.29 CA 9.2 C 13.49 O 16.08 CB 10.3 CG 15.19 CD1 15.84 CD2 14.82 CE1 15.53 CE2 14.81 CZ 13.62
A ASP - 29 -102.6 90.1 N 12.91 CA 12.89 C 10.31 O 10.6 CB 17.26 CG 22.5 OD1 14.57 OD2 26.24
A PHE H 9 -68.1 -39.7 N 8.93 CA 13.13 C 11.33 O 13.37 CB 9.22 CG 12.74 CD1 11.01 CD2 12.57 CE1 10.78 CE2 12.62 CZ 8.78
A GLU H 58 -56.6 -39.2 N 13.89 CA 16.52 C 17.04 O 14.55 CB 21.86 CG 27.59 CD 29.54 OE1 30.01 OE2 34.76
A TRP H 114 -64.9 -46.5 N 13.27 CA 15.34 C 15.06 O 13.69 CB 14.22 CG 15.56 CD1 22.68 CD2 17.35 NE1 20.65 CE2 19.89 CE3 14.61 CZ2 18.79 CZ3 13.65 CH2 21.16
A VAL H 0 -68.2 -38.3 N 10.87 CA 9.43 C 11.76 O 11.38 CB 17.41 CG1 17.38 CG2 24.16
A ASN H 21 -60.0 -43.2 N 13.77 CA 14.25 C 12.64 O 13.87 CB 13.48 CG 14.03 OD1 12.7 ND2 13.15
A ALA H 71 -74.3 -31.5 N 15.61 CA 19.51 C 23.56 O 22.11 CB 17.63
A ASN H 92 -93.3 -26.2 N 16.67 CA 16.48 C 18.25 O 20.19 CB 20.29 CG 20.33 OD1 29.84 ND2 18.87
A TYR H 85 -115.8 -25.7 N 14.17 CA 8.48 C 12.56 O 13.97 CB 13.14 CG 13.1 CD1 21.79 CD2 16.95 CE1 25.22 CE2 16.34 CZ 20.99 OH 18.33
A TYR S 9 -121.6 17.9 N 12.76 CA 15.53 C 16.42 O 12.9 CB 11.07 CG 12.66 CD1 14.22 CD2 13.52 CE1 16.04 CE2 16.29 CZ 17.4 OH 19.18
A ALA T 55 56.9 27.5 N 13.16 CA 23.97 C 21.91 O 17.91 CB 22.45
A GLY T 42 67.5 16.8 N 13.87 CA 12.41 C 16.08 O 16.55
A LEU - 59 -86.7 -14.9 N 11.08 CA 7.27 C 13.16 O 13.7 CB 10.27 CG 18.99 CD1 11.91 CD2 21.54
A TYR - 49 -95.9 168.8 N 13.59 CA 10.67 C 10.48 O 11.34 CB 10.82 CG 13.29 CD1 13.68 CD2 12.51 CE1 15.01 CE2 13.31 CZ 16.46 OH 17.82
A THR E 51 -130.2 145.2 N 9.56 CA 7.7 C 10.26 O 9.52 CB 22.69 OG1 32.92 CG2 28.3
A ARG E 20 -62.7 137.2 N 12.22 CA 8.32 C 9.48 O 8.66 CB 8.07 CG 8.62 CD 8.34 NE 8.55 CZ 10.08 NH1 11.07 NH2 9.14
A THR - 0 -79.9 124.6 N 9.47 CA 9.96 C 12.01 O 9.83 CB 9.07 OG1 10.13 CG2 10.19
A LYS - 81 -114.7 -0.7 N 9.41 CA 8.95 C 13.54 O 13.52 CB 12.87 CG 19.72 CD 29.65 CE 39.59 NZ 42.15
A SER S 0 -159.6 154.7 N 7.62 CA 10.58 C 7.0 O 8.5 CB 12.91 OG 10.87
A PHE T 7 -72.5 -11.6 N 8.29 CA 8.98 C 10.8 O 11.03 CB 7.11 CG 6.1 CD1 9.68 CD2 9.37 CE1 9.77 CE2 11.81 CZ 11.26
A PHE T 2 -135.2 59.6 N 12.24 CA 11.9 C 12.59 O 14.68 CB 7.69 CG 11.86 CD1 11.99 CD2 13.41 CE1 15.19 CE2 11.98 CZ 14.32
A ASP B 7 -73.2 154.3 N 9.08 CA 10.21 C 11.51 O 12.41 CB 9.59 CG 18.26 OD1 18.34 OD2 13.77
A GLU S 60 55.5 48.3 N 9.11 CA 13.14 C 19.1 O 18.03 CB 18.5 CG 18.57 CD 31.54 OE1 22.28 OE2 34.69
A SER S 17 -159.6 170.8 N 10.33 CA 17.61 C 14.95 O 13.54 CB 18.3 OG 18.8
A GLU T 69 -66.3 -19.0 N 13.76 CA 18.54 C 14.3 O 15.19 CB 21.63 CG 42.36 CD 58.32 OE1 68.11 OE2 53.89
A LEU T 1 -81.9 -9.2 N 10.41 CA 10.82 C 11.29 O 12.67 CB 11.87 CG 15.22 CD1 15.71 CD2 15.87
A SER - 4 -76.8 139.9 N 13.36 CA 11.16 C 13.91 O 13.67 CB 14.11 OG 14.3
A SER - 4 -82.0 -6.7 N 9.87 CA 11.5 C 14.28 O 15.18 CB 9.93 OG 13.61
A SER T 30 -66.6 124.8 N 13.65 CA 16.31 C 18.92 O 17.19 CB 22.38 OG 23.58
A GLY T 59 70.1 14.1 N 15.74 CA 21.21 C 27.78 O 25.96
A ARG - 88 -122.4 126.8 N 15.71 CA 16.78 C 16.6 O 11.26 CB 18.77 CG 31.67 CD 31.37 NE 34.66 CZ 37.02 NH1 19.95 NH2 36.62
A GLY - 42 -68.2 144.0 N 19.28 CA 20.26 C 20.46 O 17.42
A ALA - 6 -62.0 135.4 N 13.39 CA 13.64 C 16.69 O 16.73 CB 15.54
A SER - 33 -76.3 171.1 N 12.75 CA 16.71 C 17.04 O 13.24 CB 14.89 OG 14.77
A GLU H 134 -62.2 -35.3 N 17.77 CA 17.92 C 11.1 O 16.15 CB 24.35 CG 35.36 CD 53.99 OE1 61.83 OE2 54.54
A LYS H 104 -69.2 -38.0 N 10.73 CA 14.3 C 10.84 O 13.08 CB 19.8 CG 35.46 CD 46.08 CE 37.45 NZ 25.45
A GLU H 1 -61.8 -44.1 N 13.52 CA 14.6 C 14.42 O 13.33 CB 13.83 CG 16.75 CD 20.47 OE1 16.76 OE2 17.65
A ARG H 71 -64.6 -33.6 N 10.41 CA 15.32 C 12.61 O 14.35 CB 16.65 CG 13.23 CD 26.51 NE 24.44 CZ 26.13 NH1 23.72 NH2 24.42
A ALA H 69 -66.3 -40.3 N 13.99 CA 17.02 C 16.06 O 15.53 CB 18.92
A LEU H 61 -61.2 -37.3 N 13.24 CA 13.44 C 13.18 O 13.84 CB 15.11 CG 18.62 CD1 21.61 CD2 21.12
A LEU H 13 -84.2 -6.9 N 11.02 CA 12.62 C 15.71 O 16.65 CB 9.78 CG 10.37 CD1 14.36 CD2 12.73
A ALA T 67 -55.4 -40.3 N 13.52 CA 18.82 C 16.56 O 15.95 CB 17.37
A PRO T 90 -68.1 -9.5 N 16.67 CA 16.56 C 14.99 O 12.99 CB 15.98 CG 21.23 CD 15.29
A TRP - 82 -125.2 66.9 N 9.88 CA 10.35 C 12.93 O 10.84 CB 19.36 CG 22.67 CD1 21.71 CD2 15.29 NE1 30.43 CE2 16.87 CE3 14.08 CZ2 26.9 CZ3 22.28 CH2 30.85
A PRO T 105 -66.8 -17.6 N 13.74 CA 16.4 C 15.92 O 19.47 CB 20.39 CG 19.19 CD 13.04
A ASP T 157 -95.0 0.5 N 11.68 CA 18.74 C 17.26 O 18.02 CB 16.51 CG 35.23 OD1 36.64 OD2 35.46
A ALA S 21 -79.5 -30.3 N 11.69 CA 13.02 C 17.27 O 15.31 CB 11.17
A VAL S 25 -122.0 129.8 N 9.68 CA 9.73 C 12.18 O 13.23 CB 12.97 CG1 6.24 CG2 10.22
A ARG - 112 -71.5 145.2 N 12.22 CA 9.46 C 10.77 O 12.04 CB 15.05 CG 21.99 CD 29.25 NE 35.45 CZ 36.85 NH1 28.19 NH2 33.98
A ALA H 70 -55.9 -38.9 N 13.65 CA 14.49 C 13.12 O 12.79 CB 15.31
A GLU H 58 -61.1 -34.4 N 14.02 CA 12.24 C 16.28 O 15.59 CB 17.17 CG 18.36 CD 29.47 OE1 30.8 OE2 24.82
A ILE H 5 -84.5 -35.5 N 12.14 CA 10.76 C 8.47 O 9.77 CB 8.85 CG1 7.37 CG2 13.06 CD1 11.52
A LEU H 36 -60.3 -36.8 N 7.95 CA 8.26 C 12.46 O 15.46 CB 11.04 CG 16.98 CD1 16.01 CD2 26.22
A GLU T 86 -90.9 1.4 N 14.17 CA 19.22 C 15.13 O 17.77 CB 21.41 CG 26.08 CD 34.17 OE1 30.54 OE2 35.54
A GLY T 14 74.0 23.6 N 14.55 CA 17.9 C 19.73 O 20.04
A GLU - 165 -97.2 -10.2 N 14.5 CA 14.57 C 21.53 O 29.46 CB 16.8 CG 19.38 CD 30.3 OE1 35.86 OE2 30.79
A TRP - 36 -86.6 145.3 N 17.1 CA 14.3 C 19.09 O 15.9 CB 13.06 CG 10.15 CD1 10.85 CD2 9.96 NE1 12.11 CE2 13.16 CE3 14.78 CZ2 9.97 CZ3 12.81 CH2 13.28
A ARG - 143 -146.2 155.5 N 18.19 CA 14.44 C 12.76 O 11.27 CB 16.22 CG 18.33 CD 22.02 NE 19.98 CZ 21.86 NH1 21.98 NH2 22.43
A PRO S 3 -54.4 132.6 N 15.8 CA 12.56 C 13.56 O 13.78 CB 15.67 CG 17.15 CD 12.75
A PRO - 28 -54.8 139.0 N 14.36 CA 18.57 C 23.37 O 20.97 CB 20.02 CG 28.81 CD 24.86
A VAL - 66 -100.1 129.3 N 18.67 CA 16.66 C 23.23 O 19.53 CB 22.88 CG1 20.14 CG2 21.97
A SER - 19 -93.0 165.0 N 22.03 CA 34.04 C 32.75 O 34.27 CB 37.8 OG 41.77
A ASP - 143 -71.0 360.0 N 37.09 CA 41.76 C 37.96 O 42.02 CB 46.23 CG 54.48 OD1 54.66 OD2 60.86
A ASP - 67 360.0 32.8 N 52.1 CA 50.37 C 50.94 O 58.8 CB 55.79 CG 67.36 OD1 67.97 OD2 73.7
A ARG H 200 -67.5 -32.5 N 42.05 CA 41.12 C 32.75 O 26.09 CB 42.28 CG 42.89 CD 48.64 NE 59.71 CZ 68.17 NH1 69.61 NH2 70.65
A ASP H 117 -63.1 -42.9 N 35.17 CA 36.61 C 25.67 O 27.3 CB 43.42 CG 43.52 OD1 53.32 OD2 45.18
A MET H 17 -69.0 -46.7 N 23.81 CA 26.04 C 30.32 O 21.03 CB 33.52 CG 35.75 SD 38.14 CE 38.36
A ALA H 13 -58.5 -36.6 N 20.88 CA 17.5 C 16.69 O 18.01 CB 21.28
A ARG H 119 -67.7 -40.7 N 17.38 CA 17.41 C 15.09 O 15.26 CB 24.41 CG 28.85 CD 39.68 NE 51.41 CZ 61.39 NH1 61.15 NH2 64.06
A ARG H 151 -62.2 -42.5 N 10.47 CA 16.61 C 16.33 O 11.14 CB 16.96 CG 24.64 CD 22.02 NE 31.13 CZ 34.32 NH1 19.23 NH2 36.52
A ALA H 0 -63.7 -46.6 N 14.15 CA 13.39 C 11.53 O 10.8 CB 11.88
A LEU H 38 -65.2 -35.5 N 11.43 CA 14.62 C 16.08 O 13.35 CB 17.1 CG 15.98 CD1 23.61 CD2 15.1
A ASP H 91 -64.2 -43.2 N 17.18 CA 21.58 C 18.97 O 20.68 CB 17.8 CG 25.07 OD1 28.45 OD2 32.38
A LEU H 29 -62.5 -45.4 N 14.02 CA 12.24 C 14.78 O 18.93 CB 13.95 CG 28.77 CD1 24.74 CD2 19.04
A LEU H 0 -59.5 -40.7 N 13.78 CA 13.87 C 16.8 O 15.6 CB 12.35 CG 10.74 CD1 10.24 CD2 11.15
A ALA H 28 -58.5 -41.1 N 13.65 CA 19.25 C 26.82 O 23.4 CB 20.91
A ALA H 61 -63.5 -31.7 N 26.71 CA 30.7 C 32.54 O 33.59 CB 33.11
A ALA T 19 -83.8 7.8 N 26.64 CA 21.13 C 22.15 O 25.83 CB 20.84
A GLY T 46 85.9 15.4 N 26.31 CA 26.83 C 29.43 O 32.48
A CYS - 2 -113.1 120.2 N 19.58 CA 22.24 C 31.68 O 28.89 CB 20.68 SG 34.62
A ARG E 161 -127.9 149.9 N 29.84 CA 33.44 C 27.29 O 22.77 CB 40.82 CG 47.98 CD 53.43 NE 55.83 CZ 57.66 NH1 53.53 NH2 58.27
A VAL E 61 -82.2 121.6 N 33.8 CA 37.41 C 41.82 O 43.22 CB 44.27 CG1 43.72 CG2 42.79
A ASP - 122 -79.1 -85.1 N 47.63 CA 59.79 C 67.1 O 78.88 CB 67.69 CG 74.99 OD1 77.78 OD2 75.96
A GLY S 53 -96.1 -92.3 N 59.84 CA 58.92 C 56.21 O 56.47
A ASP S 109 -105.5 12.5 N 43.49 CA 42.47 C 27.0 O 33.14 CB 53.62 CG 65.31 OD1 68.14 OD2 70.23
A ARG S 100 -129.1 136.2 N 19.4 CA 20.41 C 26.32 O 25.94 CB 27.7 CG 38.36 CD 52.51 NE 65.52 CZ 72.52 NH1 72.82 NH2 72.13
A LEU E 0 -70.8 128.2 N 16.22 CA 15.57 C 19.23 O 16.59 CB 14.96 CG 13.74 CD1 12.12 CD2 14.13
A MET E 45 -108.1 135.3 N 15.8 CA 21.15 C 20.28 O 22.22 CB 25.04 CG 23.25 SD 27.4 CE 26.61
A LYS E 45 -134.1 127.6 N 21.7 CA 21.86 C 22.55 O 19.46 CB 21.03 CG 26.08 CD 28.01 CE 27.94 NZ 35.35
A ASP T 137 52.9 39.1 N 24.72 CA 26.28 C 24.95 O 31.15 CB 28.2 CG 34.54 OD1 36.11 OD2 39.62
A GLY T 57 78.1 5.0 N 29.2 CA 32.5 C 31.54 O 30.26
A GLU E 132 -126.0 149.8 N 23.66 CA 24.46 C 20.31 O 19.18 CB 29.89 CG 42.05 CD 59.1 OE1 67.42 OE2 63.81
A PRO E 61 -64.9 142.6 N 21.31 CA 21.29 C 19.41 O 16.34 CB 31.0 CG 26.74 CD 23.95
A PHE - 9 -81.9 124.1 N 13.96 CA 14.48 C 11.57 O 12.34 CB 14.99 CG 12.77 CD1 10.71 CD2 12.74 CE1 13.16 CE2 14.86 CZ 10.16
A SER E 43 -150.1 150.3 N 10.99 CA 14.44 C 16.97 O 14.64 CB 28.55 OG 29.96
A PHE E 0 -157.7 171.4 N 9.99 CA 9.03 C 12.31 O 13.52 CB 8.0 CG 11.85 CD1 9.06 CD2 11.48 CE1 9.35 CE2 11.51 CZ 7.71
A GLU E 30 -119.7 136.0 N 7.85 CA 5.47 C 9.34 O 11.16 CB 9.11 CG 11.8 CD 23.58 OE1 18.94 OE2 26.74
A ILE E 0 -100.4 117.1 N 8.41 CA 6.9 C 12.73 O 9.17 CB 6.23 CG1 9.28 CG2 6.31 CD1 9.72
A MET E 0 -87.2 129.2 N 7.88 CA 8.08 C 8.62 O 10.54 CB 9.28 CG 11.27 SD 14.37 CE 8.68
A VAL E 0 -128.5 159.5 N 8.58 CA 7.61 C 10.87 O 11.31 CB 7.71 CG1 8.59 CG2 8.0
A LYS S 110 -113.5 -14.4 N 13.17 CA 19.31 C 21.91 O 16.04 CB 18.64 CG 24.5 CD 31.52 CE 39.5 NZ 46.72
A ASP S 38 -152.3 179.3 N 14.07 CA 14.47 C 18.62 O 11.24 CB 16.93 CG 22.16 OD1 17.75 OD2 25.09
A ARG H 142 -69.0 -37.9 N 15.64 CA 18.86 C 13.32 O 14.49 CB 22.7 CG 38.62 CD 56.89 NE 53.73 CZ 42.17 NH1 46.16 NH2 47.53
A ASP H 77 -61.3 -47.5 N 11.1 CA 15.47 C 17.93 O 11.31 CB 22.61 CG 36.67 OD1 39.09 OD2 42.19
A GLN H 22 -60.8 -41.9 N 9.05 CA 10.31 C 10.03 O 11.1 CB 7.72 CG 11.41 CD 16.08 OE1 12.33 NE2 12.48
A GLU H 54 -61.0 -41.0 N 7.14 CA 6.54 C 10.62 O 9.47 CB 10.76 CG 8.27 CD 22.85 OE1 19.6 OE2 23.03
A ARG H 106 -66.0 -41.2 N 11.59 CA 8.58 C 8.32 O 8.24 CB 12.88 CG 23.38 CD 36.58 NE 47.61 CZ 54.87 NH1 51.36 NH2 59.18
A LEU H 7 -59.7 -43.9 N 7.65 CA 8.67 C 10.32 O 8.81 CB 6.04 CG 17.44 CD1 16.43 CD2 19.16
A ALA H 0 -70.1 -35.8 N 8.75 CA 7.2 C 5.59 O 9.58 CB 8.79
A LEU H 89 -66.5 -36.9 N 5.42 CA 9.8 C 10.32 O 8.06 CB 9.06 CG 9.35 CD1 10.88 CD2 8.15
A ALA H 18 -62.9 -46.5 N 7.41 CA 10.96 C 11.4 O 9.81 CB 11.67
A TYR H 0 -60.9 -41.8 N 10.36 CA 8.56 C 10.65 O 9.91 CB 6.03 CG 7.6 CD1 9.39 CD2 8.27 CE1 7.61 CE2 13.72 CZ 10.94 OH 11.73
A ALA H 13 -61.0 -41.1 N 6.64 CA 7.62 C 9.53 O 10.3 CB 9.61
A SER H 83 -62.7 -38.5 N 10.2 CA 14.53 C 11.23 O 12.71 CB 21.08 OG 35.67
A SER H 17 -67.8 -43.4 N 11.15 CA 11.0 C 12.8 O 12.73 CB 9.48 OG 16.91
A LEU H 0 -66.6 -29.9 N 11.2 CA 10.79 C 11.27 O 10.38 CB 7.57 CG 8.5 CD1 10.78 CD2 11.02
A ALA H 60 -56.3 -28.6 N 11.41 CA 10.57 C 14.66 O 13.82 CB 12.91
A ARG T 116 -69.0 -17.0 N 13.52 CA 20.16 C 24.54 O 20.96 CB 19.12 CG 26.51 CD 36.87 NE 51.95 CZ 60.24 NH1 57.94 NH2 60.27
A ILE T 4 -112.3 26.3 N 11.96 CA 13.9 C 13.01 O 15.12 CB 16.49 CG1 13.78 CG2 20.43 CD1 13.26
A GLY T 15 79.8 22.2 N 14.99 CA 10.6 C 13.9 O 13.01
A VAL - 3 -107.4 125.9 N 11.12 CA 10.12 C 10.42 O 13.04 CB 11.84 CG1 13.56 CG2 10.64
A GLU E 115 -88.2 122.3 N 13.58 CA 10.24 C 14.27 O 17.38 CB 15.91 CG 25.2 CD 39.08 OE1 44.41 OE2 42.12
A VAL E 23 -125.1 119.2 N 11.33 CA 8.54 C 12.77 O 12.56 CB 10.59 CG1 12.2 CG2 10.91
A ARG E 76 -98.4 127.2 N 9.21 CA 9.44 C 10.98 O 13.67 CB 15.94 CG 28.68 CD 43.15 NE 48.74 CZ 44.15 NH1 48.08 NH2 36.64
A VAL E 5 -103.1 117.9 N 8.15 CA 6.7 C 15.33 O 15.39 CB 8.43 CG1 9.69 CG2 6.49
A ARG E 130 -124.0 118.4 N 10.22 CA 13.09 C 14.91 O 9.51 CB 20.1 CG 36.82 CD 46.93 NE 46.36 CZ 44.09 NH1 37.12 NH2 36.33
A LEU E 78 -83.0 122.0 N 11.27 CA 10.54 C 15.4 O 15.59 CB 17.64 CG 27.35 CD1 22.94 CD2 34.24
A VAL - 24 -119.0 151.8 N 14.95 CA 15.18 C 11.91 O 19.05 CB 21.04 CG1 24.43 CG2 16.09
A ASP - 102 -69.0 166.4 N 13.86 CA 15.89 C 19.05 O 18.11 CB 26.8 CG 40.03 OD1 35.27 OD2 52.86
A GLU H 165 -54.4 -43.8 N 20.04 CA 23.02 C 18.09 O 18.0 CB 32.23 CG 50.47 CD 62.1 OE1 63.49 OE2 64.77
A VAL H 69 -68.6 -46.4 N 19.45 CA 24.17 C 23.12 O 14.23 CB 23.66 CG1 25.17 CG2 21.83
A GLN H 85 -66.2 -39.9 N 12.74 CA 13.92 C 11.61 O 15.16 CB 20.16 CG 32.3 CD 44.15 OE1 51.47 NE2 36.82
A TYR H 13 -60.3 -48.1 N 13.57 CA 15.71 C 16.0 O 13.38 CB 15.16 CG 20.13 CD1 16.01 CD2 21.01 CE1 14.83 CE2 20.19 CZ 18.67 OH 25.71
A GLN H 89 -64.3 -43.9 N 12.21 CA 14.67 C 9.42 O 17.27 CB 20.28 CG 33.02 CD 34.55 OE1 41.36 NE2 27.17
A ARG H 106 -63.9 -42.6 N 11.47 CA 13.84 C 16.57 O 12.4 CB 18.79 CG 28.95 CD 52.23 NE 64.81 CZ 69.77 NH1 72.06 NH2 68.28
A ARG H 35 -70.7 -33.5 N 16.05 CA 14.67 C 11.38 O 13.7 CB 10.79 CG 9.46 CD 15.22 NE 12.99 CZ 21.21 NH1 17.98 NH2 14.01
A ARG H 87 -65.0 -41.0 N 10.04 CA 10.72 C 17.34 O 13.31 CB 9.96 CG 17.59 CD 28.32 NE 41.09 CZ 51.38 NH1 49.06 NH2 50.46
A GLN H 56 -64.9 -36.8 N 13.91 CA 13.55 C 15.22 O 12.33 CB 14.18 CG 18.59 CD 29.54 OE1 24.47 NE2 32.21
A LYS H 116 -91.4 0.4 N 8.88 CA 10.54 C 13.24 O 12.11 CB 14.84 CG 25.1 CD 39.85 CE 46.1 NZ 54.86
A PHE T 16 58.4 38.6 N 10.69 CA 11.29 C 12.88 O 11.6 CB 11.02 CG 9.58 CD1 11.79 CD2 11.22 CE1 10.65 CE2 13.17 CZ 11.13
A ASP - 71 -94.6 72.2 N 8.04 CA 10.31 C 14.55 O 10.89 CB 10.16 CG 20.05 OD1 16.35 OD2 18.83
A PHE - 0 -158.7 156.2 N 8.51 CA 7.39 C 13.88 O 7.99 CB 8.55 CG 11.39 CD1 9.46 CD2 11.43 CE1 14.04 CE2 11.5 CZ 11.81
A ASP S 22 -85.2 -45.0 N 7.64 CA 9.2 C 13.31 O 9.81 CB 5.09 CG 16.56 OD1 13.14 OD2 11.86
A MET E 0 -148.8 144.7 N 7.62 CA 10.23 C 8.78 O 8.2 CB 6.3 CG 6.25 SD 9.1 CE 11.32
A MET E 1 -151.4 173.7 N 5.46 CA 6.9 C 8.94 O 14.09 CB 8.6 CG 12.6 SD 25.21 CE 31.67
A ILE E 18 -97.4 128.5 N 7.21 CA 6.57 C 13.05 O 13.53 CB 9.26 CG1 13.66 CG2 12.39 CD1 16.84
A GLY E 5 -128.7 162.3 N 10.73 CA 9.84 C 12.72 O 9.87
A GLN E 129 -122.2 134.3 N 8.29 CA 12.76 C 10.44 O 10.34 CB 23.46 CG 40.09 CD 44.24 OE1 42.67 NE2 42.56
A TYR - 3 -132.7 79.5 N 7.1 CA 5.37 C 9.28 O 9.64 CB 10.17 CG 11.03 CD1 10.31 CD2 8.98 CE1 10.42 CE2 9.47 CZ 10.45 OH 11.91
A VAL - 71 -65.1 126.3 N 8.64 CA 11.88 C 11.58 O 12.87 CB 16.07 CG1 17.12 CG2 16.87
A ALA - 6 -72.4 146.2 N 10.73 CA 10.12 C 16.32 O 14.16 CB 7.68
A SER - 37 -127.5 154.5 N 17.38 CA 23.37 C 17.02 O 13.16 CB 30.32 OG 31.0
A ALA S 8 -72.5 -11.8 N 14.42 CA 16.63 C 11.76 O 11.88 CB 20.24
A SER S 12 -140.8 71.3 N 10.87 CA 15.96 C 11.92 O 12.18 CB 16.13 OG 14.91
A PRO - 2 -59.2 140.6 N 10.14 CA 12.43 C 13.6 O 12.95 CB 11.55 CG 13.69 CD 7.47
A GLY - 3 -146.5 -138.2 N 12.11 CA 15.81 C 15.28 O 11.34
A ASN T 44 -61.5 -23.0 N 13.39 CA 20.13 C 12.83 O 16.42 CB 22.06 CG 30.94 OD1 34.93 ND2 31.23
A GLU H 43 -64.5 -20.0 N 15.04 CA 20.89 C 22.09 O 14.77 CB 25.1 CG 22.06 CD 16.17 OE1 17.68 OE2 16.55
A GLN H 3 -64.8 -31.5 N 12.66 CA 13.56 C 14.0 O 11.84 CB 9.41 CG 10.29 CD 10.36 OE1 10.82 NE2 12.14
A ARG H 104 -63.6 -40.4 N 14.57 CA 15.36 C 13.51 O 12.3 CB 19.7 CG 26.27 CD 45.97 NE 54.61 CZ 56.75 NH1 56.76 NH2 45.52
A MET H 38 -63.5 -37.5 N 10.61 CA 14.24 C 13.58 O 15.03 CB 14.67 CG 26.39 SD 37.44 CE 31.32
A ARG H 38 -81.7 -28.7 N 8.96 CA 6.68 C 10.2 O 8.61 CB 9.07 CG 11.32 CD 11.45 NE 14.29 CZ 19.89 NH1 15.25 NH2 21.06
A TRP H 1 -136.7 -5.8 N 7.61 CA 8.17 C 9.08 O 10.66 CB 10.14 CG 8.64 CD1 6.63 CD2 8.86 NE1 9.72 CE2 9.07 CE3 7.73 CZ2 13.86 CZ3 10.94 CH2 12.61
A SER - 10 -77.1 150.9 N 15.51 CA 12.64 C 11.93 O 9.68 CB 11.16 OG 19.37
A SER G 39 -55.7 -36.1 N 8.29 CA 8.78 C 10.19 O 11.87 CB 11.84 OG 25.34
A ALA G 84 -61.3 -29.6 N 8.38 CA 10.48 C 11.73 O 12.62 CB 18.25
A THR G 15 -102.6 0.2 N 9.52 CA 9.86 C 7.57 O 10.4 CB 7.91 OG1 10.31 CG2 12.06
A ALA T 0 -62.2 -27.1 N 7.7 CA 9.16 C 11.5 O 10.1 CB 5.65
A ASN T 122 -129.5 38.4 N 9.76 CA 8.77 C 13.12 O 14.47 CB 9.45 CG 15.71 OD1 13.85 ND2 10.92
A GLN S 103 -110.8 117.7 N 12.01 CA 12.81 C 13.33 O 11.9 CB 12.63 CG 23.25 CD 28.96 OE1 27.68 NE2 26.06
A GLU T 125 -54.7 140.6 N 14.18 CA 14.04 C 12.53 O 13.53 CB 22.87 CG 33.52 CD 39.75 OE1 40.47 OE2 41.37
A SER T 65 71.6 7.1 N 9.66 CA 12.67 C 17.19 O 13.94 CB 21.83 OG 20.59
A SER - 11 -76.8 165.9 N 14.81 CA 10.18 C 13.78 O 13.86 CB 15.31 OG 13.16
A PHE S 115 -77.2 -4.9 N 9.58 CA 7.79 C 9.19 O 8.97 CB 12.59 CG 27.44 CD1 31.42 CD2 37.09 CE1 38.59 CE2 39.27 CZ 35.56
A ASN - 0 -85.3 73.6 N 7.16 CA 7.17 C 8.34 O 7.06 CB 5.28 CG 7.19 OD1 9.18 ND2 6.5
A LEU T 14 -66.4 -34.5 N 8.21 CA 7.05 C 5.99 O 8.77 CB 6.63 CG 9.39 CD1 20.26 CD2 15.53
A ALA T 0 -75.6 -17.6 N 4.36 CA 7.07 C 9.44 O 9.73 CB 8.15
A GLY - 8 74.9 32.0 N 8.82 CA 8.69 C 9.33 O 8.14
A ALA - 1 -65.6 129.5 N 8.63 CA 9.62 C 10.48 O 10.83 CB 7.6
A ALA - 59 -144.0 81.0 N 9.26 CA 7.73 C 14.49 O 14.6 CB 13.27
A SER - 23 -125.1 125.7 N 11.36 CA 10.57 C 11.19 O 9.85 CB 14.86 OG 12.56
A PRO H 84 -58.9 -30.8 N 11.45 CA 8.66 C 8.39 O 11.68 CB 16.62 CG 20.3 CD 12.23
A ALA H 4 -71.7 -37.1 N 10.33 CA 14.96 C 9.38 O 9.49 CB 17.5
A ILE H 0 -61.1 -50.1 N 8.86 CA 9.93 C 11.91 O 8.78 CB 8.38 CG1 10.7 CG2 10.37 CD1 12.98
A ASP H 47 -58.5 -40.5 N 9.87 CA 14.84 C 13.85 O 11.24 CB 15.85 CG 23.87 OD1 19.09 OD2 22.7
A GLY H 23 -66.9 -39.0 N 10.88 CA 14.1 C 8.62 O 9.0
A MET H 2 -72.4 -32.2 N 10.38 CA 5.55 C 8.95 O 10.41 CB 6.62 CG 11.9 SD 18.56 CE 34.58
A ILE H 0 -61.8 -45.0 N 10.94 CA 9.3 C 11.8 O 12.28 CB 11.7 CG1 14.18 CG2 17.1 CD1 17.34
A SER H 54 -58.2 -38.5 N 14.98 CA 18.46 C 12.27 O 15.86 CB 21.36 OG 33.32
A ALA H 20 -71.0 -39.8 N 12.49 CA 13.59 C 16.12 O 14.79 CB 12.05
A LEU H 0 -72.5 -26.9 N 11.55 CA 13.32 C 15.55 O 16.51 CB 16.36 CG 14.33 CD1 16.41 CD2 20.45
A LEU H 24 -75.6 -24.9 N 15.48 CA 17.2 C 28.24 O 27.53 CB 16.95 CG 15.88 CD1 22.64 CD2 20.97
A SER H 76 -100.2 -11.3 N 24.56 CA 26.02 C 21.02 O 24.26 CB 28.49 OG 30.45
A ALA - 11 -55.0 138.8 N 18.12 CA 20.34 C 26.68 O 22.23 CB 19.62
A ARG - 130 -104.7 -47.0 N 20.76 CA 22.31 C 20.02 O 26.35 CB 20.52 CG 22.79 CD 30.65 NE 32.27 CZ 40.36 NH1 35.5 NH2 42.3
A SER S 44 -82.3 155.1 N 20.92 CA 18.18 C 18.38 O 20.46 CB 25.31 OG 21.77
A GLN H 56 -62.0 -36.3 N 17.19 CA 20.06 C 22.85 O 19.51 CB 22.41 CG 25.46 CD 30.06 OE1 36.52 NE2 32.8
A GLU H 134 -66.6 -42.6 N 19.47 CA 20.06 C 16.61 O 20.75 CB 31.17 CG 46.93 CD 59.38 OE1 56.56 OE2 67.55
A ASP H 86 -68.0 -32.3 N 16.98 CA 19.25 C 18.68 O 12.44 CB 21.28 CG 29.39 OD1 31.33 OD2 27.2
A PHE H 1 -64.6 -47.9 N 14.8 CA 13.01 C 13.67 O 14.05 CB 8.77 CG 12.3 CD1 14.41 CD2 17.95 CE1 11.34 CE2 14.89 CZ 8.45
A VAL H 17 -59.0 -44.4 N 13.15 CA 16.97 C 20.9 O 13.43 CB 20.26 CG1 18.72 CG2 24.77
A THR H 17 -53.1 -49.8 N 15.92 CA 13.96 C 13.76 O 11.2 CB 16.07 OG1 15.02 CG2 13.86
A ALA H 2 -66.5 -39.4 N 11.39 CA 14.75 C 13.36 O 9.73 CB 15.58
A VAL H 0 -69.4 -40.1 N 10.67 CA 7.97 C 8.1 O 9.89 CB 9.5 CG1 14.94 CG2 11.27
A ARG H 60 -59.1 -46.1 N 7.6 CA 12.39 C 11.3 O 12.06 CB 14.98 CG 16.9 CD 20.98 NE 18.77 CZ 27.45 NH1 24.59 NH2 18.62
A ALA H 0 -62.9 -41.2 N 10.82 CA 11.08 C 9.99 O 9.26 CB 9.91
A TYR H 0 -58.4 -45.0 N 8.71 CA 8.84 C 8.26 O 8.55 CB 7.48 CG 10.26 CD1 12.73 CD2 6.74 CE1 7.73 CE2 9.45 CZ 9.58 OH 10.59
A ASP H 0 -54.9 -46.8 N 8.45 CA 8.36 C 12.56 O 8.45 CB 7.77 CG 11.94 OD1 9.87 OD2 12.78
A ARG H 0 -59.6 -40.9 N 7.83 CA 7.87 C 10.79 O 8.45 CB 5.76 CG 8.4 CD 9.49 NE 10.71 CZ 12.82 NH1 9.4 NH2 8.74
A VAL H 4 -67.5 -44.5 N 5.84 CA 6.75 C 7.33 O 6.49 CB 9.55 CG1 11.42 CG2 9.04
A LEU H 1 -60.1 -48.9 N 9.58 CA 10.42 C 8.89 O 8.47 CB 10.49 CG 12.81 CD1 8.35 CD2 11.2
A LEU H 10 -62.7 -37.4 N 4.45 CA 6.28 C 7.99 O 6.43 CB 5.84 CG 10.42 CD1 10.37 CD2 11.19
A SER H 10 -69.2 -14.4 N 8.64 CA 7.99 C 9.48 O 9.2 CB 9.71 OG 11.22
A GLY T 8 -83.7 -15.1 N 8.58 CA 7.96 C 12.09 O 7.9
A PHE T 18 49.4 46.6 N 6.28 CA 8.52 C 9.71 O 7.43 CB 6.8 CG 7.92 CD1 12.61 CD2 13.92 CE1 14.42 CE2 15.15 CZ 11.84
A TYR - 26 -74.2 -23.1 N 7.24 CA 7.58 C 5.57 O 7.44 CB 7.89 CG 9.99 CD1 11.29 CD2 11.5 CE1 15.24 CE2 13.07 CZ 15.49 OH 17.53
A VAL E 10 -134.8 154.4 N 5.2 CA 7.1 C 16.21 O 22.48 CB 15.53 CG1 14.56 CG2 22.32
A VAL E 2 -98.6 107.6 N 8.77 CA 7.82 C 7.72 O 8.47 CB 8.41 CG1 10.13 CG2 9.55
A PRO E 9 -64.6 142.4 N 8.52 CA 10.9 C 9.45 O 10.2 CB 17.96 CG 14.78 CD 10.01
A LEU - 7 -97.4 -115.4 N 10.14 CA 11.74 C 10.08 O 10.01 CB 7.45 CG 9.92 CD1 9.28 CD2 12.44
A PHE E 21 -159.1 166.3 N 7.1 CA 9.02 C 10.35 O 10.46 CB 10.97 CG 11.99 CD1 18.57 CD2 12.74 CE1 25.58 CE2 15.09 CZ 16.43
A HIS E 19 -151.3 166.1 N 8.6 CA 11.57 C 10.05 O 9.38 CB 12.83 CG 9.48 ND1 9.07 CD2 9.83 CE1 14.73 NE2 10.33
A ALA - 27 -89.0 128.8 N 10.2 CA 12.96 C 9.99 O 12.54 CB 13.86
A SER S 25 -70.0 -25.3 N 10.06 CA 14.25 C 15.58 O 12.59 CB 21.84 OG 29.29
A GLU S 80 -124.2 160.1 N 11.74 CA 11.19 C 15.19 O 13.68 CB 10.94 CG 19.64 CD 36.82 OE1 33.03 OE2 41.25
A GLN E 30 -89.5 129.5 N 11.97 CA 10.27 C 12.26 O 14.53 CB 13.73 CG 21.36 CD 23.0 OE1 19.91 NE2 20.33
A TRP E 13 -98.3 118.4 N 11.73 CA 9.78 C 14.42 O 13.44 CB 9.27 CG 10.91 CD1 15.64 CD2 10.49 NE1 15.12 CE2 13.41 CE3 20.25 CZ2 17.51 CZ3 20.7 CH2 18.34
A ILE E 0 -130.4 161.4 N 8.69 CA 9.94 C 13.97 O 15.31 CB 13.78 CG1 16.35 CG2 11.57 CD1 16.38
A ALA E 0 -144.2 151.5 N 9.96 CA 10.56 C 12.73 O 11.35 CB 9.24
A HIS E 15 -160.5 154.9 N 12.0 CA 14.61 C 15.34 O 14.96 CB 12.67 CG 15.34 ND1 19.95 CD2 23.06 CE1 21.13 NE2 22.81
A SER E 13 -59.3 145.1 N 12.78 CA 13.41 C 13.65 O 13.37 CB 15.81 OG 16.0
A THR T 35 -80.4 -3.2 N 14.19 CA 16.0 C 18.89 O 20.32 CB 15.62 OG1 19.85 CG2 18.16
A ASP T 104 -78.0 -11.0 N 19.12 CA 20.03 C 18.46 O 19.36 CB 25.03 CG 43.23 OD1 48.55 OD2 52.47
A ILE E 7 -114.6 147.8 N 13.28 CA 12.77 C 12.41 O 15.13 CB 11.77 CG1 11.78 CG2 14.23 CD1 15.07
A VAL E 37 -135.3 165.6 N 10.75 CA 13.36 C 16.17 O 12.83 CB 17.34 CG1 21.31 CG2 20.72
A ARG - 55 -133.0 165.3 N 19.12 CA 19.32 C 22.2 O 19.02 CB 18.99 CG 25.45 CD 22.68 NE 24.53 CZ 19.68 NH1 19.83 NH2 26.62
A PRO - 8 -64.2 156.9 N 16.13 CA 14.82 C 20.79 O 18.12 CB 15.03 CG 16.98 CD 17.02
A GLU S 198 -62.9 -29.8 N 23.0 CA 20.86 C 24.71 O 22.38 CB 32.72 CG 52.28 CD 63.25 OE1 62.76 OE2 68.98
A ARG S 125 -109.9 120.9 N 21.47 CA 25.35 C 24.09 O 21.8 CB 28.95 CG 34.46 CD 38.74 NE 33.76 CZ 44.45 NH1 45.17 NH2 32.59
A SER - 39 -94.0 157.5 N 17.8 CA 23.45 C 15.57 O 19.13 CB 27.92 OG 30.94
A PRO - 4 -66.4 142.6 N 16.92 CA 19.89 C 11.82 O 13.86 CB 16.56 CG 19.99 CD 15.01
A ARG S 99 -69.8 -23.4 N 13.97 CA 16.86 C 13.53 O 13.1 CB 13.69 CG 25.16 CD 30.62 NE 44.71 CZ 45.07 NH1 40.58 NH2 40.53
A TYR S 11 -128.9 173.7 N 12.27 CA 17.13 C 19.79 O 13.73 CB 12.63 CG 14.16 CD1 17.39 CD2 11.3 CE1 16.55 CE2 14.66 CZ 20.11 OH 22.02
A GLY - 13 96.9 144.3 N 18.54 CA 24.14 C 20.36 O 16.65
A SER S 89 -146.2 129.2 N 13.42 CA 17.87 C 21.17 O 23.09 CB 29.02 OG 25.98
A PRO S 77 -60.0 160.7 N 19.78 CA 16.4 C 15.13 O 13.9 CB 24.14 CG 29.78 CD 24.14
A ILE S 16 -65.6 -36.1 N 11.74 CA 11.05 C 16.03 O 12.08 CB 14.27 CG1 15.95 CG2 15.14 CD1 17.45
A PHE S 11 -114.2 147.3 N 12.6 CA 13.49 C 16.95 O 26.93 CB 16.27 CG 14.39 CD1 15.51 CD2 17.29 CE1 13.29 CE2 17.4 CZ 15.21
A GLY - 21 -65.1 167.1 N 18.8 CA 22.75 C 17.58 O 18.92
A PRO T 57 -63.6 -24.6 N 24.58 CA 21.99 C 18.21 O 19.54 CB 23.7 CG 26.59 CD 27.45
A THR T 4 -108.7 14.3 N 11.2 CA 10.1 C 10.59 O 12.23 CB 16.12 OG1 14.09 CG2 17.51
A LEU - 0 55.0 55.4 N 12.03 CA 10.56 C 10.05 O 11.39 CB 8.43 CG 9.56 CD1 11.85 CD2 10.08
A GLU T 68 -58.6 -27.6 N 9.15 CA 13.42 C 10.76 O 10.98 CB 18.38 CG 24.6 CD 42.55 OE1 32.49 OE2 49.62
A SER T 7 -90.4 -7.6 N 9.03 CA 10.67 C 12.65 O 12.62 CB 13.41 OG 12.09
A TRP - 1 -85.4 172.9 N 8.19 CA 8.05 C 7.29 O 10.54 CB 5.35 CG 9.75 CD1 11.71 CD2 7.93 NE1 11.04 CE2 12.73 CE3 11.07 CZ2 13.72 CZ3 18.58 CH2 17.54
A TRP E 26 -159.2 166.8 N 9.34 CA 7.03 C 11.44 O 14.91 CB 11.56 CG 10.6 CD1 15.74 CD2 10.1 NE1 18.0 CE2 13.96 CE3 11.4 CZ2 19.46 CZ3 15.59 CH2 21.89
A ARG E 107 -82.4 129.1 N 10.4 CA 14.38 C 16.73 O 17.23 CB 20.56 CG 35.35 CD 35.49 NE 34.72 CZ 34.55 NH1 36.35 NH2 38.27
A LYS - 101 -70.0 141.8 N 16.41 CA 25.98 C 30.44 O 35.4 CB 29.93 CG 36.15 CD 36.79 CE 42.02 NZ 51.39
A ASN - 158 -90.8 360.0 N 36.81 CA 59.39 C 54.58 O 48.82 CB 73.09 CG 80.47 OD1 83.38 ND2 80.13
