A ASN - 122 360.0 -53.4 N 90.58 CA 87.57 C 80.4 O 76.95 CB 92.35
A ALA T 57 -68.6 -41.9 N 76.98 CA 64.84 C 61.59 O 61.74 CB 63.18
A LYS E 79 -122.8 112.8 N 36.07 CA 36.47 C 36.25 O 52.2 CB 48.55 CG 46.21 CD 57.8 CE 64.12 NZ 65.84
A PHE E 15 -120.4 141.8 N 30.19 CA 37.07 C 44.21 O 43.72 CB 25.12 CG 28.52 CD1 28.13 CD2 23.62 CE1 24.55 CE2 24.14 CZ 31.13
A GLU E 138 -77.4 125.8 N 48.31 CA 51.66 C 44.62 O 48.32 CB 63.28 CG 77.29 CD 84.54 OE1 89.13 OE2 81.1
A ALA E 5 -118.9 107.4 N 40.07 CA 36.11 C 43.45 O 52.96 CB 27.79
A VAL E 91 -84.4 123.7 N 40.15 CA 39.87 C 38.14 O 32.32 CB 34.67 CG1 24.2 CG2 42.98
A VAL E 65 -67.9 121.8 N 32.67 CA 28.48 C 27.0 O 41.68 CB 31.24 CG1 29.06 CG2 41.95
A ARG - 37 -72.5 133.8 N 27.01 CA 23.9 C 40.32 O 42.62 CB 25.56 CG 27.36 CD 28.8 NE 36.99 CZ 39.38 NH1 27.75 NH2 41.84
A THR - 139 -112.6 -19.4 N 43.48 CA 52.03 C 53.0 O 56.23 CB 57.23 OG1 51.82 CG2 58.59
A GLU - 44 -114.9 110.3 N 53.35 CA 51.76 C 50.73 O 50.65 CB 46.22
A LEU - 71 -105.3 -177.0 N 46.66 CA 52.08 C 64.56 O 72.3 CB 64.28 CG 65.93 CD1 68.1 CD2 68.25
A GLY S 44 97.9 -168.3 N 61.51 CA 68.04 C 65.15 O 72.45
A LYS T 76 -69.0 131.0 N 60.0 CA 52.79 C 54.61 O 63.72 CB 50.88 CG 49.37
A GLY T 16 92.9 -24.8 N 41.29 CA 31.43 C 31.89 O 37.27
A ALA H 7 -63.4 -37.3 N 30.72 CA 33.07 C 33.08 O 35.21 CB 29.13
A SER H 42 -71.3 -40.0 N 32.83 CA 29.39 C 26.09 O 27.06 CB 31.34 OG 31.02
A ARG H 45 -65.2 -32.9 N 23.53 CA 21.3 C 27.19 O 31.65 CB 23.6 CG 29.1 CD 26.53 NE 32.27 CZ 39.87 NH1 27.04 NH2 48.54
A ARG H 95 -62.2 -41.2 N 21.28 CA 21.24 C 31.7 O 34.71 CB 26.98 CG 24.05 CD 31.21 NE 53.76 CZ 62.04 NH1 64.24 NH2 64.87
A LEU H 28 -65.3 -40.5 N 20.81 CA 25.61 C 26.13 O 27.97 CB 21.85 CG 22.87 CD1 21.83 CD2 18.37
A ARG H 64 -62.9 -40.2 N 24.1 CA 26.57 C 27.9 O 31.81 CB 30.78 CG 44.0 CD 55.11 NE 57.45 CZ 63.17 NH1 68.0 NH2 59.53
A LEU T 20 -70.4 -13.1 N 24.06 CA 27.8 C 33.02 O 43.06 CB 32.22 CG 43.73 CD1 51.97 CD2 37.43
A ALA T 54 -108.4 21.8 N 26.22 CA 19.57 C 19.54 O 34.5 CB 19.79
A GLY T 38 63.6 33.3 N 23.96 CA 30.61 C 34.28 O 36.47
A GLN E 56 -130.4 166.6 N 29.08 CA 25.74 C 21.37 O 29.44 CB 20.19 CG 22.23 CD 33.47 OE1 50.46 NE2 30.07
A PHE E 4 -142.1 149.1 N 21.76 CA 25.43 C 18.14 O 18.28 CB 13.93 CG 19.89 CD1 14.44 CD2 19.83 CE1 13.83 CE2 19.56 CZ 17.06
A PRO E 7 -73.4 145.6 N 23.79 CA 20.56 C 23.01 O 26.97 CB 12.79 CG 12.97 CD 17.92
A ALA E 1 -145.2 158.8 N 17.7 CA 14.62 C 14.22 O 15.85 CB 22.29
A VAL E 0 -125.8 128.2 N 16.64 CA 21.59 C 21.67 O 20.22 CB 16.22 CG1 17.69 CG2 15.71
A VAL E 0 -104.8 111.3 N 24.57 CA 18.21 C 29.02 O 33.19 CB 18.93 CG1 21.1 CG2 25.54
A TYR E 39 -128.5 -169.2 N 27.07 CA 23.03 C 31.81 O 41.66 CB 22.09 CG 32.07 CD1 29.01 CD2 28.01 CE1 28.55 CE2 31.45 CZ 39.01 OH 47.61
A GLY - 15 103.2 176.7 N 37.08 CA 52.55 C 54.75 O 31.44
A GLY T 55 63.0 -133.9 N 62.63 CA 71.47 C 74.58 O 82.85
A GLU T 202 -132.8 30.9 N 64.46 CA 60.2 C 38.32 O 41.22 CB 45.49 CG 56.75 CD 59.37 OE1 66.17 OE2 53.5
A ALA S 59 -109.3 163.1 N 42.89 CA 41.45 C 30.61 O 51.06 CB 42.62
A ALA - 76 -68.7 143.6 N 29.68 CA 27.44 C 36.49 O 35.36 CB 27.67
A PRO - 59 -68.3 154.1 N 31.43 CA 29.69 C 36.63 O 43.27 CB 20.44 CG 29.23 CD 23.92
A VAL E 32 -141.0 129.7 N 27.5 CA 18.16 C 31.02 O 31.14 CB 30.77 CG1 31.12 CG2 28.32
A ALA E 4 -80.1 123.8 N 27.15 CA 18.85 C 23.09 O 22.3 CB 15.46
A VAL E 0 -127.7 164.9 N 21.42 CA 15.64 C 21.37 O 14.59 CB 25.86 CG1 16.95 CG2 30.47
A ALA E 3 -122.2 133.1 N 21.04 CA 17.95 C 27.16 O 30.61 CB 16.09
A LEU E 1 -120.9 155.9 N 15.65 CA 22.01 C 17.32 O 16.78 CB 20.75 CG 24.93 CD1 30.48 CD2 29.85
A ASN E 65 -71.9 124.9 N 18.86 CA 19.95 C 22.64 O 25.66 CB 33.4 CG 54.18 OD1 59.26 ND2 64.94
A HIS H 16 -61.4 -59.6 N 25.64 CA 18.7 C 27.9 O 30.16 CB 19.15 CG 24.26 ND1 33.06 CD2 25.85 CE1 20.12 NE2 27.32
A ASP H 98 -65.2 -31.1 N 30.9 CA 32.14 C 33.85 O 27.81 CB 35.79 CG 41.26 OD1 34.35 OD2 47.83
A ASP H 83 -62.0 -40.2 N 24.08 CA 27.92 C 36.9 O 43.06 CB 31.13 CG 37.03 OD1 36.9 OD2 42.69
A ILE H 0 -73.0 -46.2 N 28.11 CA 25.9 C 29.66 O 23.11 CB 24.57 CG1 27.12 CG2 29.01 CD1 19.59
A VAL H 33 -60.5 -39.1 N 26.7 CA 28.39 C 27.02 O 29.32 CB 25.57 CG1 24.56 CG2 30.89
A ASN T 98 -67.2 -3.9 N 26.36 CA 29.05 C 39.63 O 46.09 CB 42.32 CG 52.81 OD1 53.93 ND2 53.36
A GLN T 33 -120.0 -5.1 N 28.31 CA 33.53 C 28.92 O 33.54 CB 28.81 CG 32.99 CD 39.52 OE1 49.75 NE2 45.65
A ASP T 116 -89.4 -16.9 N 40.44 CA 49.39 C 44.35 O 48.37 CB 64.87 CG 83.14 OD1 85.16 OD2 91.63
A LYS S 68 -92.2 134.3 N 35.64 CA 31.47 C 34.65 O 41.78 CB 29.64 CG 38.92 CD 52.87 CE 63.61 NZ 75.46
A PRO G 79 -60.0 -28.6 N 34.71 CA 35.64 C 37.01 O 43.67 CB 28.28 CG 34.9 CD 32.04
A GLU G 93 -64.9 -31.0 N 37.27 CA 34.06 C 31.69 O 33.75 CB 33.47 CG 58.43 CD 66.26 OE1 67.96 OE2 68.12
A PHE G 0 -59.4 -34.6 N 26.63 CA 26.79 C 24.25 O 18.84 CB 25.03 CG 18.46 CD1 21.77 CD2 17.13 CE1 21.24 CE2 25.91 CZ 27.66
A TYR G 47 -89.1 -3.4 N 23.28 CA 31.67 C 33.96 O 38.92 CB 18.76 CG 30.27 CD1 29.9 CD2 19.07 CE1 31.23 CE2 26.72 CZ 35.87 OH 40.12
A GLU T 124 -94.3 -58.3 N 28.57 CA 26.5 C 28.19 O 34.91 CB 30.45 CG 47.07 CD 52.0 OE1 53.56 OE2 57.42
A ALA - 33 -162.7 125.5 N 26.34 CA 27.53 C 30.09 O 34.29 CB 26.38
A ILE E 1 -126.0 167.1 N 30.87 CA 31.68 C 32.84 O 20.52 CB 29.69 CG1 21.66 CG2 28.13 CD1 26.2
A THR E 34 -116.7 126.3 N 30.2 CA 22.32 C 34.76 O 38.26 CB 37.82 OG1 39.57 CG2 39.78
A LEU E 0 -107.9 126.1 N 33.89 CA 23.0 C 31.66 O 45.24 CB 28.79 CG 29.63 CD1 20.13 CD2 19.88
A VAL E 19 -86.3 100.0 N 26.45 CA 35.25 C 42.18 O 35.38 CB 35.39 CG1 37.73 CG2 35.8
A ILE E 27 -110.2 104.6 N 43.35 CA 49.01 C 53.46 O 52.03 CB 48.29 CG1 40.9 CG2 46.68 CD1 45.06
A GLY T 72 68.4 33.3 N 50.55 CA 59.2 C 64.42 O 69.78
A GLY T 67 92.2 -18.7 N 65.03 CA 64.7 C 61.95 O 59.8
A GLU E 151 -98.8 141.2 N 59.31 CA 63.82 C 56.95 O 54.22 CB 71.46 CG 83.83 CD 90.83 OE1 96.37 OE2 89.54
A GLU E 127 -84.0 126.7 N 55.02 CA 49.15 C 45.62 O 46.63 CB 48.62 CG 57.61 CD 68.43 OE1 61.78 OE2 80.93
A VAL E 35 -120.0 118.0 N 39.12 CA 29.8 C 35.31 O 35.7 CB 28.97 CG1 28.65 CG2 30.57
A LYS E 124 -78.8 113.3 N 26.66 CA 28.4 C 28.12 O 34.68 CB 33.58 CG 47.01 CD 48.11 CE 57.01 NZ 63.66
A VAL E 0 -125.7 172.9 N 28.22 CA 25.89 C 31.87 O 31.43 CB 21.14 CG1 22.75 CG2 19.58
A LYS E 86 -136.9 119.8 N 31.92 CA 19.84 C 19.35 O 29.12 CB 21.42 CG 21.23 CD 29.7 CE 30.26 NZ 38.26
A PRO E 8 -56.0 137.2 N 18.07 CA 22.55 C 25.02 O 26.37 CB 28.29 CG 26.42 CD 24.79
A GLN E 54 -118.0 127.9 N 25.92 CA 21.71 C 42.4 O 37.04 CB 23.59 CG 37.54 CD 42.71 OE1 46.14 NE2 52.84
A ASP S 133 53.1 42.5 N 35.94 CA 42.8 C 41.38 O 44.14 CB 54.99 CG 65.46 OD1 66.46 OD2 72.64
A VAL S 13 -77.6 -38.4 N 44.47 CA 55.77 C 57.13 O 59.99 CB 52.62 CG1 50.06 CG2 57.84
A GLN S 135 -86.9 14.4 N 97.73 CA 91.58 C 98.29 O 94.77 CB 89.27 CG 85.84 CD 90.14 OE1 98.62 NE2 86.92
A ARG S 106 -61.7 -56.7 N 109.67 CA 115.95 C 110.03 O 114.12 CB 119.73 CG 120.57 CD 126.72 NE 130.77 CZ 127.45 NH1 125.73 NH2 123.68
A HIS S 52 -96.5 146.9 N 96.34 CA 92.27 C 91.43 O 97.33 CB 88.64 CG 92.75 ND1 92.95 CD2 91.58 CE1 87.8 NE2 88.29
A ALA - 90 -67.4 134.7 N 79.96 CA 63.02 C 55.37 O 55.39 CB 55.43
A PHE - 88 -91.4 125.4 N 52.68 CA 49.81 C 53.13 O 55.93 CB 48.77 CG 51.86 CD1 43.03 CD2 59.68 CE1 50.1 CE2 57.53 CZ 53.12
A LYS - 90 -142.1 154.2 N 43.98 CA 34.28 C 34.92 O 37.27 CB 29.25 CG 39.3 CD 40.64 CE 44.17 NZ 49.34
A PRO - 76 -60.1 134.5 N 30.49 CA 27.66 C 22.02 O 22.8 CB 23.74 CG 26.12 CD 29.48
A LYS - 73 -121.7 140.1 N 23.56 CA 33.36 C 31.37 O 24.36 CB 32.98 CG 47.61 CD 55.52 CE 57.37 NZ 64.67
A VAL - 7 -129.0 138.0 N 22.23 CA 22.02 C 23.31 O 29.84 CB 22.63 CG1 42.34 CG2 24.25
A GLU S 51 -117.0 -2.4 N 25.28 CA 38.42 C 26.44 O 30.15 CB 30.74 CG 32.32 CD 52.8 OE1 45.72 OE2 49.67
A HIS - 4 -167.5 146.3 N 19.35 CA 25.65 C 19.12 O 36.78 CB 30.57 CG 29.51 ND1 27.99 CD2 28.16 CE1 33.66 NE2 27.73
A ASP E 3 -116.3 128.7 N 24.76 CA 22.88 C 25.97 O 26.84 CB 25.52 CG 43.6 OD1 49.54 OD2 43.35
A PHE E 0 -120.3 136.9 N 27.65 CA 28.09 C 24.9 O 24.39 CB 31.29 CG 32.25 CD1 24.74 CD2 21.58 CE1 24.86 CE2 21.56 CZ 23.23
A ILE E 47 -111.9 138.0 N 26.92 CA 28.63 C 45.07 O 45.73 CB 36.59 CG1 32.48 CG2 42.13 CD1 34.64
A ARG E 61 -69.4 135.3 N 31.15 CA 35.38 C 36.46 O 50.95 CB 46.49 CG 40.44 CD 42.73 NE 44.64 CZ 43.82 NH1 43.02 NH2 37.38
A ILE - 109 -127.5 360.0 N 37.76 CA 54.61 C 53.85 O 63.29 CB 51.17 CG1 49.25 CG2 45.38 CD1 51.69
B ASN - 173 360.0 24.4 N 121.05 CA 109.67 C 97.2 O 91.57 CB 109.28 CG 115.45 OD1 118.45 ND2 118.08
B ALA T 79 -76.2 -24.6 N 87.61 CA 71.39 C 67.66 O 63.04 CB 63.98
B LYS E 75 -114.3 107.8 N 49.19 CA 48.12 C 49.78 O 51.39 CB 52.79 CG 52.64 CD 65.75 CE 71.75 NZ 63.6
B PHE E 3 -114.5 136.7 N 41.11 CA 44.61 C 44.35 O 36.94 CB 37.78 CG 35.72 CD1 36.06 CD2 36.88 CE1 39.17 CE2 38.31 CZ 39.81
B GLU E 143 -74.7 128.9 N 38.18 CA 42.17 C 38.25 O 38.98 CB 40.72 CG 60.08 CD 69.56 OE1 73.59 OE2 71.33
B ALA E 3 -115.9 128.9 N 36.73 CA 30.24 C 42.91 O 59.48 CB 28.9
B VAL E 71 -107.2 124.2 N 34.23 CA 33.49 C 35.29 O 42.65 CB 34.27 CG1 27.55 CG2 38.97
B VAL E 79 -63.8 123.9 N 35.12 CA 27.94 C 31.76 O 48.69 CB 36.32 CG1 34.69 CG2 32.08
B ARG - 36 -68.8 136.6 N 26.31 CA 35.94 C 46.11 O 39.77 CB 23.9 CG 27.93 CD 28.27 NE 40.08 CZ 38.92 NH1 40.24 NH2 43.99
B THR S 126 -95.4 -53.9 N 56.24 CA 67.49 C 67.59 O 77.25 CB 73.41 OG1 64.41 CG2 83.8
B GLU - 90 -89.2 139.7 N 61.97 CA 60.9 C 54.16 O 58.37 CB 68.22 CG 78.98 CD 96.1 OE1 103.77 OE2 100.59
B LEU - 57 -135.2 5.5 N 45.56 CA 43.66 C 46.29 O 53.5 CB 48.78 CG 48.22 CD1 47.14 CD2 53.96
B GLY S 51 -77.6 -159.2 N 42.75 CA 43.58 C 38.73 O 37.12
B LYS T 153 -64.1 135.7 N 37.79 CA 40.39 C 46.85 O 48.61 CB 35.73 CG 40.11 CD 58.54 CE 69.93 NZ 76.69
B GLY T 17 79.9 -1.3 N 43.51 CA 30.08 C 30.99 O 36.6
B ALA H 5 -66.9 -39.4 N 32.88 CA 28.65 C 30.63 O 34.81 CB 23.95
B SER H 54 -72.6 -42.1 N 18.97 CA 28.01 C 26.06 O 28.14 CB 27.9 OG 49.7
B ARG H 50 -63.9 -34.5 N 24.51 CA 17.57 C 17.8 O 27.24 CB 19.15 CG 24.31 CD 24.48 NE 27.61 CZ 35.53 NH1 24.65 NH2 21.83
B ARG H 73 -61.6 -43.9 N 18.84 CA 27.37 C 24.6 O 19.05 CB 23.72 CG 28.96 CD 34.75 NE 51.22 CZ 71.69 NH1 78.29 NH2 76.4
B LEU H 23 -63.7 -41.9 N 21.37 CA 16.51 C 18.58 O 22.65 CB 27.88 CG 24.66 CD1 16.49 CD2 18.03
B ARG H 72 -62.0 -41.3 N 15.6 CA 21.91 C 22.45 O 26.29 CB 18.56 CG 16.7 CD 26.44 NE 28.69 CZ 40.74 NH1 42.06 NH2 31.98
B LEU H 11 -75.8 -10.3 N 17.52 CA 31.56 C 20.16 O 30.01 CB 36.95 CG 45.24 CD1 45.74 CD2 44.73
B ALA T 49 -102.1 9.7 N 22.87 CA 25.15 C 21.42 O 23.65 CB 20.94
B GLY T 31 75.3 26.6 N 22.31 CA 24.79 C 26.17 O 28.64
B GLN E 56 -128.4 176.2 N 21.48 CA 22.08 C 21.86 O 25.82 CB 16.65 CG 18.64 CD 34.27 OE1 45.31 NE2 36.16
B PHE E 4 -153.6 147.9 N 21.06 CA 20.63 C 24.11 O 24.61 CB 12.21 CG 19.75 CD1 22.24 CD2 12.45 CE1 26.92 CE2 27.36 CZ 24.41
B PRO E 12 -77.3 147.6 N 22.3 CA 12.85 C 27.57 O 19.08 CB 15.52 CG 11.65 CD 14.43
B ALA E 1 -147.4 164.3 N 13.78 CA 14.15 C 15.5 O 20.9 CB 16.69
B VAL E 0 -124.1 128.3 N 20.09 CA 24.3 C 26.15 O 28.22 CB 29.43 CG1 18.65 CG2 15.87
B VAL E 0 -109.0 121.6 N 28.82 CA 25.6 C 33.76 O 28.18 CB 32.61 CG1 32.74 CG2 24.64
B TYR E 34 -142.5 -177.1 N 36.66 CA 36.13 C 28.6 O 35.22 CB 24.79 CG 26.48 CD1 27.85 CD2 29.42 CE1 31.75 CE2 35.47 CZ 35.71 OH 45.86
B GLY - 20 106.8 138.1 N 34.47 CA 33.25 C 48.43 O 55.22
B GLY S 80 91.3 -161.1 N 54.48 CA 47.61 C 49.98 O 47.15
B GLU S 114 -82.2 -22.8 N 58.22 CA 64.49 C 63.81 O 65.52 CB 64.02
B ALA S 58 -73.8 145.3 N 57.49 CA 47.41 C 51.86 O 59.22 CB 42.25
B ALA - 76 -67.0 150.8 N 41.56 CA 45.59 C 46.05 O 48.04 CB 43.42
B PRO - 54 -61.5 147.0 N 29.12 CA 38.24 C 35.6 O 39.0 CB 26.86 CG 39.56 CD 29.21
B VAL E 40 -124.1 120.0 N 27.81 CA 27.52 C 30.8 O 33.8 CB 29.49 CG1 31.35 CG2 31.21
B ALA E 8 -80.2 122.9 N 32.24 CA 25.58 C 26.74 O 30.33 CB 19.1
B VAL E 0 -126.1 166.4 N 23.23 CA 27.7 C 25.96 O 25.47 CB 20.13 CG1 27.89 CG2 23.42
B ALA E 4 -121.8 130.6 N 27.8 CA 30.15 C 27.49 O 29.33 CB 25.65
B LEU E 0 -119.8 154.1 N 19.98 CA 21.88 C 21.13 O 24.42 CB 30.45 CG 29.42 CD1 25.28 CD2 35.45
B ASN E 86 -65.9 121.7 N 22.29 CA 19.5 C 24.47 O 23.84 CB 30.46 CG 46.71 OD1 44.15 ND2 54.59
B HIS H 15 -62.4 -65.7 N 21.41 CA 22.99 C 20.67 O 23.92 CB 23.82 CG 19.9 ND1 29.16 CD2 20.53 CE1 29.63 NE2 23.16
B ASP H 73 -62.9 -28.4 N 22.53 CA 20.28 C 21.73 O 38.31 CB 21.63 CG 42.62 OD1 34.27 OD2 38.57
B ASP H 68 -69.3 -44.0 N 22.07 CA 26.19 C 22.96 O 25.13 CB 36.23 CG 40.51 OD1 41.41 OD2 42.24
B ILE H 0 -67.7 -50.2 N 32.83 CA 26.36 C 26.73 O 21.47 CB 18.57 CG1 19.14 CG2 18.53 CD1 24.22
B VAL H 17 -56.8 -37.7 N 19.41 CA 19.53 C 29.24 O 34.41 CB 25.27 CG1 28.17 CG2 22.47
B ASN T 117 -67.5 -10.1 N 23.11 CA 25.59 C 29.72 O 32.81 CB 45.48 CG 58.33 OD1 54.96 ND2 67.37
B GLN T 22 -106.6 -3.9 N 25.96 CA 35.88 C 33.59 O 37.21 CB 27.5 CG 40.26 CD 45.19 OE1 43.3 NE2 55.67
B ASP T 155 -103.3 -3.1 N 33.27 CA 40.76 C 41.69 O 44.08 CB 44.23 CG 58.72 OD1 48.33 OD2 68.89
B LYS S 72 -92.8 132.3 N 44.89 CA 49.04 C 55.14 O 58.49 CB 45.63 CG 50.76 CD 50.26 CE 39.36 NZ 40.45
B PRO G 93 -62.3 -32.3 N 53.35 CA 47.27 C 44.58 O 46.99 CB 51.58 CG 60.94 CD 58.52
B GLU G 84 -76.2 -13.7 N 39.8 CA 50.18 C 48.69 O 44.03 CB 56.4 CG 67.47 CD 75.34 OE1 76.46 OE2 74.96
B PHE G 0 -65.0 -35.7 N 49.89 CA 37.66 C 31.31 O 27.81 CB 39.79 CG 30.93 CD1 32.66 CD2 29.14 CE1 32.68 CE2 26.95 CZ 24.83
B TYR G 97 -87.6 0.5 N 39.99 CA 39.52 C 50.41 O 53.86 CB 42.9 CG 41.79 CD1 33.36 CD2 42.87 CE1 34.54 CE2 40.37 CZ 38.2 OH 36.62
B GLU T 127 -89.8 -58.1 N 55.25 CA 56.04 C 51.95 O 56.57 CB 65.06 CG 76.16 CD 89.99 OE1 92.91 OE2 93.26
B ALA - 29 -166.3 136.4 N 50.62 CA 45.32 C 43.76 O 56.01 CB 50.88
B ILE E 2 -133.5 173.4 N 41.3 CA 45.2 C 44.04 O 46.0 CB 41.29 CG1 38.99 CG2 37.65 CD1 32.29
B THR E 23 -123.3 124.2 N 39.93 CA 41.97 C 41.52 O 46.55 CB 47.59 OG1 52.12 CG2 43.29
B LEU E 0 -107.5 124.4 N 36.64 CA 41.06 C 53.12 O 60.21 CB 37.49 CG 36.96 CD1 29.86 CD2 30.82
B VAL E 29 -90.9 95.1 N 43.77 CA 40.28 C 47.22 O 45.64 CB 46.71 CG1 45.42 CG2 40.81
B ILE E 31 -98.5 101.9 N 50.23 CA 50.51 C 51.12 O 49.93 CB 47.66 CG1 41.05 CG2 46.4 CD1 43.66
B GLY T 82 67.2 23.2 N 59.8 CA 66.79 C 74.24 O 80.19
B GLY T 59 111.1 -41.2 N 74.87 CA 76.67 C 78.08 O 84.98
B GLU E 139 -73.4 135.5 N 72.61 CA 76.07 C 63.11 O 65.39 CB 85.63 CG 92.94 CD 94.42 OE1 88.47 OE2 99.16
B GLU E 113 -86.2 130.3 N 55.25 CA 48.48 C 53.66 O 62.38 CB 50.58 CG 56.29 CD 71.57 OE1 71.25 OE2 80.58
B VAL E 19 -126.1 117.8 N 48.48 CA 42.15 C 43.26 O 35.85 CB 37.31 CG1 36.66 CG2 39.39
B LYS E 125 -77.3 123.8 N 40.9 CA 46.11 C 36.91 O 37.44 CB 52.73 CG 63.31 CD 65.84 CE 74.09 NZ 79.41
B VAL E 0 -132.7 166.1 N 34.45 CA 36.66 C 38.39 O 35.94 CB 33.76 CG1 30.79 CG2 31.07
B LYS E 88 -132.0 127.0 N 42.12 CA 32.79 C 27.89 O 29.35 CB 39.83 CG 42.43 CD 44.24 CE 48.37 NZ 55.14
B PRO E 10 -61.3 139.9 N 26.12 CA 31.54 C 31.18 O 37.56 CB 31.44 CG 35.18 CD 35.79
B GLN - 69 -108.0 138.9 N 29.63 CA 25.9 C 37.7 O 35.24 CB 32.86 CG 45.24 CD 51.45 OE1 53.65 NE2 51.87
B ASP - 158 -83.1 85.9 N 46.28 CA 42.65 C 32.69 O 41.27 CB 42.22 CG 53.65 OD1 62.47 OD2 60.47
B VAL - 36 -111.5 -61.1 N 27.45 CA 29.06 C 23.72 O 27.31 CB 30.65 CG1 32.84 CG2 28.58
B GLN S 13 -66.2 143.2 N 28.71 CA 26.3 C 25.38 O 35.73 CB 15.73 CG 18.54 CD 22.47 OE1 28.2 NE2 29.34
B ARG S 137 -63.6 -49.6 N 23.52 CA 25.25 C 24.33 O 25.45 CB 30.49 CG 37.98 CD 39.85 NE 53.79 CZ 56.99 NH1 50.51 NH2 56.91
B HIS - 85 -120.5 103.1 N 21.4 CA 21.8 C 20.69 O 26.97 CB 18.97 CG 33.12 ND1 34.35 CD2 29.0 CE1 34.69 NE2 37.71
B ALA S 28 -65.7 -32.5 N 24.58 CA 20.83 C 22.47 O 26.84 CB 17.06
B PHE S 87 -100.4 135.3 N 26.66 CA 25.88 C 27.03 O 38.61 CB 18.41 CG 26.08 CD1 21.6 CD2 21.03 CE1 30.41 CE2 33.47 CZ 35.1
B LYS - 28 -100.3 158.9 N 18.16 CA 15.59 C 25.87 O 17.22 CB 37.8 CG 38.09 CD 28.0 CE 26.17 NZ 35.88
B PRO - 59 -44.6 139.2 N 19.47 CA 17.41 C 32.22 O 28.95 CB 17.97 CG 17.58 CD 24.51
B LYS S 93 -65.6 -49.2 N 36.55 CA 37.87 C 38.89 O 33.72 CB 32.0 CG 32.26 CD 34.11 CE 49.2 NZ 54.48
B VAL - 5 -107.5 128.0 N 42.65 CA 34.77 C 32.79 O 30.24 CB 29.23 CG1 34.68 CG2 28.93
B GLU S 94 -105.1 -24.7 N 31.8 CA 34.67 C 42.06 O 42.04 CB 38.53 CG 59.58 CD 69.55 OE1 62.15 OE2 75.76
B HIS - 29 -161.2 154.2 N 21.78 CA 25.31 C 24.35 O 34.22 CB 26.19 CG 38.66 ND1 44.48 CD2 43.28 CE1 47.25 NE2 40.79
B ASP E 15 -102.7 141.0 N 28.67 CA 18.84 C 24.59 O 23.0 CB 20.86 CG 36.37 OD1 39.11 OD2 44.18
B PHE E 0 -127.0 132.5 N 18.39 CA 18.2 C 25.61 O 24.46 CB 23.37 CG 27.6 CD1 20.99 CD2 15.97 CE1 22.22 CE2 35.48 CZ 30.59
B ILE E 40 -110.1 138.4 N 29.05 CA 28.09 C 30.47 O 32.17 CB 30.67 CG1 36.23 CG2 38.68 CD1 51.72
B ARG E 61 -73.7 127.6 N 33.27 CA 30.15 C 24.75 O 33.44 CB 31.27 CG 31.95 CD 36.05 NE 37.37 CZ 39.15 NH1 41.7 NH2 35.65
B ILE - 97 -124.6 360.0 N 22.75 CA 31.15 C 30.25 O 44.26 CB 24.82 CG1 26.59 CG2 25.51 CD1 32.31
C ALA - 115 360.0 -56.9 N 78.72 CA 84.06 C 81.61 O 85.87 CB 87.74
C LYS E 111 -121.8 118.4 N 37.58 CA 36.48 C 44.9 O 43.84 CB 38.63 CG 38.01 CD 63.69 CE 66.49 NZ 70.68
C PHE E 19 -121.8 139.6 N 32.81 CA 31.49 C 35.52 O 30.26 CB 29.95 CG 38.66 CD1 31.15 CD2 37.01 CE1 36.03 CE2 32.95 CZ 34.34
C GLU E 140 -79.6 124.7 N 33.86 CA 35.86 C 32.14 O 46.57 CB 46.05 CG 49.87 CD 58.54 OE1 59.06 OE2 65.69
C ALA - 12 -111.9 143.3 N 29.51 CA 29.86 C 34.91 O 41.45 CB 28.77
C VAL E 90 -109.3 122.9 N 34.0 CA 24.3 C 25.47 O 35.14 CB 24.61 CG1 33.95 CG2 33.24
C VAL E 70 -67.8 125.7 N 24.47 CA 23.08 C 33.49 O 32.04 CB 32.61 CG1 29.95 CG2 23.73
C ARG - 38 -85.3 126.7 N 33.67 CA 30.03 C 38.21 O 46.25 CB 27.95 CG 25.71 CD 35.78 NE 50.32 CZ 43.65 NH1 47.75 NH2 31.09
C THR S 116 -103.6 -30.1 N 42.61 CA 41.83 C 46.46 O 56.08 CB 51.57 OG1 60.41 CG2 33.64
C GLU - 135 -95.8 113.8 N 49.08 CA 42.69 C 42.84 O 53.15 CB 38.73 CG 44.61 CD 59.54 OE1 67.41 OE2 63.33
C LEU - 109 -110.0 8.2 N 37.1 CA 37.31 C 41.9 O 43.74 CB 37.76 CG 38.12 CD1 39.47 CD2 36.91
C GLY S 43 -65.2 165.8 N 38.51 CA 44.12 C 46.14 O 42.53
C LYS H 142 -66.4 -27.8 N 38.38 CA 37.04 C 43.01 O 40.17 CB 42.96 CG 47.68 CD 62.2
C GLY H 36 -70.9 -42.8 N 36.71 CA 37.51 C 35.7 O 38.25
C ALA H 12 -63.5 -35.9 N 34.05 CA 33.31 C 30.73 O 43.78 CB 38.25
C SER H 17 -66.3 -41.2 N 30.3 CA 29.47 C 31.0 O 39.35 CB 35.87 OG 36.3
C ARG H 170 -69.8 -34.8 N 33.09 CA 45.36 C 35.76 O 42.55 CB 45.72 CG 53.5 CD 62.02 NE 65.94 CZ 73.61 NH1 75.31 NH2 77.57
C ARG H 168 -65.7 -28.3 N 35.32 CA 41.26 C 39.8 O 43.04 CB 36.97 CG 48.0 CD 44.41 NE 47.17 CZ 51.93 NH1 47.92 NH2 55.04
C LEU H 36 -69.3 -54.7 N 33.32 CA 31.04 C 37.29 O 33.85 CB 28.46 CG 35.72 CD1 28.14 CD2 27.76
C ARG H 75 -59.5 -22.1 N 40.03 CA 47.84 C 51.87 O 58.91 CB 50.63 CG 43.36 CD 39.36 NE 43.78 CZ 54.35 NH1 34.58 NH2 58.49
C LEU T 131 -80.3 -2.1 N 52.6 CA 60.08 C 64.06 O 70.02 CB 58.06 CG 61.93 CD1 60.73 CD2 64.55
C ALA T 74 -146.7 53.9 N 55.43 CA 56.96 C 51.91 O 42.59 CB 42.32
C GLY T 31 68.7 14.5 N 44.06 CA 31.5 C 34.29 O 37.04
C GLN E 48 -112.8 171.2 N 38.51 CA 39.77 C 37.77 O 37.2 CB 45.11 CG 58.39 CD 61.84 OE1 61.48 NE2 54.38
C PHE E 0 -157.4 139.4 N 25.15 CA 18.76 C 23.96 O 18.25 CB 22.98 CG 26.41 CD1 22.49 CD2 24.49 CE1 24.01 CE2 24.84 CZ 15.76
C PRO E 0 -70.7 145.8 N 19.38 CA 21.69 C 21.12 O 30.3 CB 16.3 CG 29.0 CD 20.55
C ALA E 0 -149.4 157.4 N 23.2 CA 15.44 C 23.16 O 25.69 CB 19.19
C VAL E 15 -126.8 142.9 N 17.54 CA 19.09 C 13.64 O 12.12 CB 21.81 CG1 19.36 CG2 17.4
C VAL E 0 -120.6 124.3 N 25.17 CA 16.83 C 22.0 O 20.81 CB 27.96 CG1 22.88 CG2 24.31
C TYR E 0 -142.0 175.4 N 13.0 CA 17.59 C 22.55 O 24.22 CB 12.2 CG 15.14 CD1 11.78 CD2 16.06 CE1 11.91 CE2 10.37 CZ 17.91 OH 32.43
C GLY - 2 101.1 177.9 N 22.38 CA 25.94 C 25.35 O 18.99
C GLY T 23 75.3 -131.8 N 20.49 CA 23.11 C 24.39 O 33.54
C GLU T 121 -125.0 24.3 N 26.64 CA 34.59 C 33.53 O 37.61 CB 35.69 CG 47.26 CD 60.69 OE1 63.72 OE2 59.78
C ALA S 36 -126.9 156.2 N 29.71 CA 27.31 C 25.76 O 25.07 CB 29.18
C ALA - 31 -67.8 154.9 N 28.79 CA 19.18 C 21.25 O 28.65 CB 23.02
C PRO - 30 -57.3 143.8 N 20.43 CA 20.85 C 23.12 O 28.19 CB 13.17 CG 17.66 CD 15.39
C VAL E 39 -130.2 122.8 N 29.43 CA 33.88 C 30.17 O 33.32 CB 36.52 CG1 37.46 CG2 35.08
C ALA E 20 -84.8 122.9 N 32.24 CA 24.59 C 25.73 O 28.84 CB 21.12
C VAL E 0 -127.0 169.4 N 19.04 CA 26.37 C 22.91 O 20.52 CB 25.67 CG1 21.9 CG2 19.24
C ALA E 3 -123.9 134.0 N 21.85 CA 28.56 C 23.27 O 29.89 CB 23.94
C LEU E 1 -120.2 151.8 N 29.92 CA 27.25 C 27.15 O 32.24 CB 28.29 CG 24.87 CD1 20.05 CD2 23.24
C ASN E 61 -70.1 122.8 N 31.8 CA 29.48 C 28.08 O 35.75 CB 32.81 CG 52.09 OD1 50.4 ND2 40.32
C HIS H 6 -60.0 -60.3 N 27.89 CA 27.86 C 33.83 O 27.82 CB 29.16 CG 33.83 ND1 35.05 CD2 26.02 CE1 33.63 NE2 39.26
C ASP H 85 -62.2 -35.3 N 31.32 CA 33.48 C 39.63 O 43.57 CB 40.96 CG 45.81 OD1 44.96 OD2 54.01
C ASP H 88 -63.2 -44.4 N 34.79 CA 41.7 C 40.05 O 40.63 CB 46.85 CG 56.93 OD1 63.51 OD2 56.11
C ILE H 1 -68.4 -49.8 N 33.85 CA 26.73 C 33.2 O 34.87 CB 23.99 CG1 23.95 CG2 22.11 CD1 24.3
C VAL H 51 -60.7 -38.0 N 26.91 CA 34.13 C 41.63 O 37.52 CB 36.29 CG1 36.45 CG2 25.05
C ASN T 95 -66.0 -5.6 N 33.65 CA 35.58 C 40.94 O 56.41 CB 41.09 CG 57.25 OD1 66.21 ND2 60.88
C GLN T 43 -118.6 0.3 N 38.96 CA 37.1 C 37.69 O 41.12 CB 40.89 CG 41.48 CD 45.91 OE1 48.39 NE2 42.56
C ASP T 94 -99.4 -16.1 N 53.11 CA 68.86 C 69.01 O 72.05 CB 74.86 CG 83.04 OD1 84.57 OD2 88.25
C LYS S 73 -89.8 124.9 N 59.25 CA 61.15 C 61.98 O 54.26 CB 60.82 CG 67.34 CD 69.44 CE 70.97 NZ 69.05
C PRO G 47 -61.6 -17.2 N 67.14 CA 63.69 C 53.38 O 47.87 CB 68.31 CG 76.24 CD 75.78
C GLU G 84 -82.1 -6.3 N 50.85 CA 53.72 C 43.79 O 41.9 CB 64.41 CG 72.77 CD 83.51 OE1 84.35 OE2 87.79
C PHE G 0 -70.0 -29.8 N 34.41 CA 34.72 C 38.23 O 26.07 CB 34.26 CG 29.37 CD1 26.23 CD2 23.46 CE1 27.28 CE2 33.41 CZ 33.24
C TYR T 11 -94.2 -1.1 N 39.98 CA 44.57 C 43.08 O 46.77 CB 29.25 CG 33.34 CD1 34.48 CD2 40.98 CE1 30.84 CE2 42.45 CZ 39.19 OH 47.34
C GLU T 88 -89.3 -61.2 N 45.84 CA 53.46 C 49.16 O 49.02 CB 60.31 CG 75.59 CD 85.81 OE1 83.27 OE2 90.8
C ALA - 45 -167.2 127.1 N 45.92 CA 34.64 C 37.29 O 54.32 CB 35.04
C ILE E 1 -127.3 164.3 N 26.35 CA 36.82 C 29.4 O 24.3 CB 34.7 CG1 38.4 CG2 44.72 CD1 40.76
C THR E 31 -116.8 125.9 N 25.03 CA 24.8 C 28.75 O 32.47 CB 31.63 OG1 36.45 CG2 27.54
C LEU E 0 -106.9 127.0 N 27.69 CA 23.32 C 29.24 O 38.18 CB 25.04 CG 24.09 CD1 26.96 CD2 22.54
C VAL E 17 -86.5 98.5 N 36.96 CA 24.73 C 29.19 O 29.7 CB 31.35 CG1 32.15 CG2 33.28
C ILE E 20 -114.1 115.6 N 34.65 CA 28.45 C 25.8 O 46.97 CB 22.25 CG1 23.55 CG2 22.26 CD1 26.44
C GLY T 68 62.5 34.8 N 30.46 CA 29.42 C 40.99 O 55.53
C GLY T 63 80.2 13.2 N 35.67 CA 40.33 C 44.98 O 51.8
C GLU E 132 -126.5 142.9 N 39.41 CA 38.04 C 31.59 O 31.38 CB 43.21 CG 63.33 CD 74.75 OE1 77.29 OE2 77.0
C GLU E 122 -84.6 119.3 N 30.81 CA 35.78 C 31.77 O 35.51 CB 33.23 CG 38.39 CD 52.06 OE1 60.86 OE2 54.79
C VAL E 33 -117.3 110.8 N 31.36 CA 27.1 C 31.01 O 32.1 CB 31.02 CG1 22.82 CG2 24.72
C LYS E 62 -73.6 123.3 N 24.82 CA 32.36 C 32.93 O 35.5 CB 27.28 CG 37.09
C VAL E 0 -136.6 167.8 N 22.22 CA 24.75 C 21.58 O 26.69 CB 28.32 CG1 20.34 CG2 19.52
C LYS E 69 -122.0 143.7 N 21.34 CA 24.74 C 30.67 O 33.83 CB 24.08 CG 48.97 CD 49.5 CE 52.4 NZ 60.77
C PRO E 0 -64.4 117.9 N 29.88 CA 28.58 C 26.18 O 30.48 CB 21.5 CG 30.19 CD 30.18
C GLN E 5 -101.0 -29.2 N 22.32 CA 20.6 C 22.89 O 22.5 CB 20.47 CG 25.95 CD 28.62 OE1 32.18 NE2 29.11
C ASP E 23 -158.9 146.1 N 19.58 CA 30.92 C 30.22 O 37.41 CB 38.18 CG 51.32 OD1 67.05 OD2 48.84
C VAL E 14 -131.9 117.8 N 26.25 CA 25.63 C 33.24 O 36.69 CB 25.88 CG1 22.44 CG2 34.02
C GLN E 83 -102.7 122.2 N 26.52 CA 22.96 C 31.2 O 25.61 CB 30.5 CG 34.94 CD 42.94 OE1 43.45 NE2 47.21
C ARG E 142 -109.9 157.4 N 25.36 CA 28.06 C 30.41 O 32.45 CB 28.17 CG 37.38 CD 37.96 NE 35.11 CZ 46.57 NH1 57.89 NH2 48.66
C HIS - 55 -72.0 149.1 N 25.46 CA 26.24 C 27.46 O 34.12 CB 32.83 CG 39.65 ND1 36.02 CD2 34.84 CE1 38.96 NE2 37.5
C ALA S 87 -76.6 -33.4 N 27.43 CA 28.66 C 48.26 O 52.32 CB 27.95
C PHE S 186 -118.8 5.9 N 49.4 CA 47.45 C 57.11 O 52.25 CB 36.95 CG 43.52 CD1 41.1 CD2 44.94 CE1 36.18 CE2 40.72 CZ 33.92
C LYS S 112 -142.0 151.6 N 56.21 CA 49.9 C 47.01 O 51.6 CB 47.34 CG 48.47 CD 52.38 CE 65.09 NZ 71.94
C PRO S 128 -83.2 55.5 N 43.59 CA 43.61 C 48.59 O 53.53 CB 43.04 CG 48.38 CD 46.84
C LYS - 68 -125.3 138.2 N 36.77 CA 33.23 C 38.19 O 37.74 CB 34.38 CG 47.55 CD 52.08 CE 44.52 NZ 46.63
C VAL E 4 -79.1 116.4 N 28.53 CA 25.78 C 34.06 O 38.61 CB 27.36 CG1 23.42 CG2 27.87
C GLU E 32 -84.9 -35.5 N 32.66 CA 26.17 C 24.6 O 23.69 CB 28.19 CG 37.55 CD 52.56 OE1 59.23 OE2 54.97
C HIS E 37 -163.6 149.4 N 18.8 CA 21.48 C 21.27 O 17.76 CB 20.84 CG 23.75 ND1 24.24 CD2 21.18 CE1 24.43 NE2 20.71
C ASP E 1 -111.8 136.9 N 21.6 CA 20.33 C 17.85 O 23.02 CB 15.34 CG 29.77 OD1 29.98 OD2 26.77
C PHE E 0 -125.8 128.4 N 20.03 CA 18.21 C 25.6 O 25.41 CB 19.02 CG 27.34 CD1 27.63 CD2 20.92 CE1 27.78 CE2 20.75 CZ 24.79
C ILE E 28 -106.9 136.6 N 19.36 CA 19.81 C 24.95 O 23.55 CB 20.54 CG1 21.35 CG2 28.61 CD1 26.51
C ARG E 39 -70.8 145.3 N 21.49 CA 23.14 C 25.26 O 28.59 CB 22.89 CG 26.92 CD 21.84 NE 20.99 CZ 29.72 NH1 28.05 NH2 34.9
C ILE - 94 -127.6 360.0 N 27.24 CA 43.34 C 49.9 O 51.51 CB 41.53 CG1 41.33 CG2 36.77 CD1 34.17
D LYS E 94 -109.9 134.7 N 42.01 CA 39.95 C 44.82 O 50.7 CB 50.98 CG 51.64 CD 59.18 CE 61.49 NZ 69.34
D PHE E 3 -125.1 135.3 N 35.83 CA 35.28 C 38.06 O 39.63 CB 33.87 CG 38.01 CD1 44.21 CD2 33.16 CE1 46.09 CE2 35.73 CZ 42.29
D GLU E 99 -74.8 118.2 N 40.33 CA 41.42 C 40.26 O 44.71 CB 60.94 CG 77.76 CD 82.41 OE1 74.44 OE2 94.07
D ALA E 8 -114.4 122.7 N 34.03 CA 32.31 C 43.66 O 56.22 CB 31.74
D VAL E 81 -100.0 121.2 N 48.99 CA 27.23 C 29.47 O 37.53 CB 32.36 CG1 29.69 CG2 32.73
D VAL E 71 -65.5 118.9 N 24.65 CA 25.96 C 26.89 O 32.21 CB 34.27 CG1 29.08 CG2 33.43
D ARG - 48 -71.2 132.5 N 24.62 CA 21.58 C 26.3 O 24.25 CB 20.14 CG 31.12 CD 19.24 NE 20.01 CZ 24.91 NH1 32.69 NH2 20.98
D THR - 144 -107.4 -9.5 N 30.45 CA 34.08 C 34.49 O 35.98 CB 40.22 OG1 42.6 CG2 39.22
D GLU - 80 -136.1 147.8 N 26.43 CA 25.95 C 23.58 O 26.28 CB 28.08 CG 52.12 CD 67.84 OE1 65.04 OE2 71.54
D LEU - 127 -130.8 157.5 N 26.14 CA 25.79 C 27.07 O 34.6 CB 25.35 CG 26.55 CD1 24.74 CD2 25.3
D GLY S 41 121.7 -170.0 N 25.5 CA 37.86 C 41.0 O 43.05
D LYS H 136 -62.1 -53.2 N 33.37 CA 35.59 C 33.9 O 36.68 CB 41.76 CG 46.51 CD 54.55
D GLY H 36 -63.2 -35.7 N 31.41 CA 32.71 C 43.24 O 53.58
D ALA H 2 -66.8 -40.9 N 30.06 CA 27.3 C 26.98 O 38.94 CB 25.21
D SER H 32 -69.3 -35.9 N 26.78 CA 30.16 C 39.32 O 37.59 CB 30.88 OG 38.2
D ARG H 52 -67.5 -31.7 N 41.84 CA 42.46 C 46.05 O 57.43 CB 46.02
D ARG H 132 -75.3 -30.2 N 34.96 CA 40.12 C 39.55 O 37.05 CB 33.07 CG 40.04 CD 44.07 NE 43.62 CZ 44.53 NH1 38.2 NH2 54.0
D LEU H 19 -70.6 -45.3 N 39.81 CA 32.86 C 38.17 O 43.01 CB 30.83 CG 42.07 CD1 37.1 CD2 35.59
D ARG T 159 -66.6 -12.6 N 45.56 CA 54.94 C 62.88 O 71.24 CB 62.83 CG 71.96 CD 79.99 NE 84.2 CZ 88.21 NH1 91.85 NH2 88.36
D LEU T 150 -94.5 -28.5 N 62.69 CA 65.5 C 62.59 O 69.0 CB 66.35 CG 66.62 CD1 55.54 CD2 75.88
D ALA T 60 -91.5 9.5 N 58.78 CA 45.39 C 41.68 O 45.16 CB 36.14
D GLY T 37 71.3 32.8 N 43.84 CA 49.84 C 49.86 O 57.34
D GLN E 51 -120.8 155.4 N 39.59 CA 35.89 C 31.75 O 36.58 CB 38.2 CG 31.07 CD 37.49 OE1 28.33 NE2 46.43
D PHE E 5 -129.8 148.9 N 24.85 CA 28.47 C 29.25 O 25.0 CB 27.83 CG 24.09 CD1 25.04 CD2 21.72 CE1 18.9 CE2 23.89 CZ 25.98
D PRO E 33 -69.8 139.4 N 27.92 CA 18.69 C 21.54 O 17.73 CB 18.86 CG 20.0 CD 23.49
D ALA E 1 -144.2 153.7 N 16.72 CA 24.69 C 23.42 O 24.92 CB 18.15
D VAL E 29 -120.0 134.4 N 15.29 CA 14.67 C 14.78 O 24.29 CB 22.24 CG1 15.73 CG2 40.56
D VAL E 0 -113.7 118.5 N 23.17 CA 15.26 C 17.78 O 23.98 CB 22.94 CG1 15.78 CG2 15.47
D TYR E 33 -137.8 178.6 N 15.75 CA 18.17 C 17.69 O 19.57 CB 16.53 CG 26.96 CD1 31.95 CD2 31.66 CE1 34.36 CE2 38.62 CZ 38.54 OH 45.35
D GLY - 1 103.3 -179.5 N 23.7 CA 22.14 C 29.67 O 30.4
D GLY T 19 69.3 -131.8 N 32.23 CA 35.97 C 32.77 O 38.98
D GLU T 121 -127.7 26.2 N 25.89 CA 24.94 C 30.63 O 40.24 CB 33.3 CG 39.93 CD 56.59 OE1 68.23 OE2 60.26
D ALA S 36 -121.9 155.8 N 28.87 CA 29.0 C 34.98 O 30.73 CB 21.74
D ALA - 30 -64.2 149.5 N 35.47 CA 29.39 C 25.35 O 17.96 CB 20.18
D PRO - 29 -64.1 138.4 N 16.42 CA 17.77 C 22.29 O 26.47 CB 20.07 CG 24.57 CD 24.02
D VAL E 45 -123.5 133.4 N 31.82 CA 28.95 C 27.25 O 21.9 CB 36.94 CG1 51.53 CG2 37.82
D ALA E 39 -85.0 122.8 N 23.47 CA 22.74 C 23.3 O 32.3 CB 17.11
D VAL E 0 -124.8 170.6 N 17.67 CA 20.29 C 19.09 O 23.44 CB 19.15 CG1 19.51 CG2 17.73
D ALA E 2 -123.8 126.7 N 20.59 CA 21.05 C 22.49 O 31.06 CB 22.74
D LEU E 0 -117.9 149.3 N 21.03 CA 21.74 C 26.75 O 29.31 CB 24.23 CG 25.33 CD1 22.52 CD2 28.24
D ASN E 58 -63.6 122.1 N 24.4 CA 28.6 C 29.22 O 36.05 CB 42.48 CG 52.16 OD1 58.36 ND2 60.2
D HIS H 29 -63.2 -58.3 N 32.33 CA 24.37 C 34.97 O 42.67 CB 24.93 CG 35.29 ND1 38.22 CD2 39.81 CE1 36.66 NE2 39.15
D ASP H 97 -64.2 -33.1 N 35.84 CA 35.3 C 39.36 O 42.22 CB 31.17 CG 47.55 OD1 45.34 OD2 57.83
D ASP H 30 -64.3 -41.8 N 28.57 CA 30.16 C 35.83 O 50.1 CB 33.35 CG 50.26 OD1 62.17 OD2 52.99
D ILE H 1 -72.8 -51.2 N 37.44 CA 38.74 C 34.88 O 34.45 CB 36.53 CG1 31.47 CG2 37.12 CD1 29.68
D VAL H 38 -58.3 -40.2 N 32.41 CA 31.63 C 37.59 O 43.75 CB 39.83 CG1 41.55 CG2 35.09
D ASN T 71 -71.7 0.2 N 32.7 CA 36.85 C 41.66 O 54.55 CB 43.29 CG 46.56 OD1 51.84 ND2 53.77
D GLN T 0 -116.6 -6.7 N 35.79 CA 35.79 C 39.19 O 39.67 CB 36.47 CG 41.42 CD 46.51 OE1 47.23 NE2 52.73
D ASP T 92 -97.3 -1.8 N 52.22 CA 53.27 C 49.33 O 56.24 CB 67.42 CG 80.83 OD1 75.21 OD2 93.02
D LYS S 59 -102.0 136.9 N 46.69 CA 51.31 C 48.31 O 38.79 CB 54.57 CG 57.74 CD 59.28 CE 65.35 NZ 65.14
D PRO T 24 -67.6 -21.5 N 53.9 CA 50.8 C 46.49 O 54.54 CB 55.27 CG 62.43 CD 59.2
D GLU H 107 -65.9 -31.1 N 42.97 CA 44.47 C 37.88 O 37.42 CB 56.76 CG 77.03 CD 90.95 OE1 95.97 OE2 95.86
D PHE H 0 -63.3 -29.6 N 29.83 CA 27.15 C 30.08 O 22.82 CB 25.86 CG 33.16 CD1 31.97 CD2 32.35 CE1 20.5 CE2 31.08 CZ 19.11
D TYR H 6 -97.9 -10.6 N 31.07 CA 33.23 C 41.78 O 36.81 CB 26.85 CG 27.16 CD1 28.32 CD2 34.1 CE1 29.62 CE2 26.03 CZ 24.09 OH 28.95
D GLU H 76 -73.7 -63.5 N 46.7 CA 47.15 C 46.2 O 47.81 CB 52.98 CG 66.62 CD 76.9 OE1 74.89 OE2 85.47
D ALA - 26 -168.1 127.0 N 44.89 CA 37.9 C 38.1 O 47.37 CB 30.23
D ILE E 0 -125.1 163.6 N 24.75 CA 27.16 C 30.26 O 30.24 CB 23.74 CG1 24.49 CG2 30.69 CD1 39.37
D THR E 15 -115.9 122.9 N 36.67 CA 29.52 C 27.9 O 34.77 CB 28.87 OG1 36.66 CG2 36.28
D LEU E 0 -101.0 119.0 N 23.9 CA 24.41 C 27.63 O 29.16 CB 24.17 CG 21.48 CD1 18.41 CD2 24.34
D VAL E 47 -80.7 98.3 N 26.77 CA 31.92 C 33.24 O 27.86 CB 26.57 CG1 29.96 CG2 28.22
D ILE E 18 -113.5 108.0 N 26.54 CA 24.64 C 29.33 O 38.9 CB 29.56 CG1 22.49 CG2 22.43 CD1 25.34
D GLY T 76 65.3 34.8 N 33.44 CA 28.17 C 38.76 O 38.03
D GLY T 73 85.0 -8.9 N 33.05 CA 42.16 C 44.65 O 43.28
D GLU E 126 -98.2 132.8 N 48.65 CA 45.7 C 38.52 O 36.69 CB 50.07 CG 67.34 CD 85.71 OE1 90.79 OE2 89.35
D GLU E 118 -80.5 116.6 N 41.85 CA 41.75 C 41.35 O 42.24 CB 42.51 CG 52.39 CD 62.4 OE1 63.87 OE2 69.64
D VAL E 14 -112.8 111.1 N 38.54 CA 31.45 C 34.18 O 31.05 CB 33.15 CG1 34.81 CG2 33.14
D LYS E 108 -72.8 122.9 N 40.32 CA 29.08 C 34.1 O 37.81 CB 30.88 CG 54.85 CD 64.91 CE 74.28 NZ 70.76
D VAL E 0 -137.2 170.2 N 25.6 CA 25.21 C 33.52 O 32.43 CB 23.54 CG1 24.95 CG2 26.37
D LYS E 56 -123.3 139.9 N 26.74 CA 21.16 C 20.14 O 21.83 CB 27.42 CG 34.02 CD 38.88 CE 41.18 NZ 52.56
D PRO E 0 -65.6 116.4 N 26.63 CA 19.0 C 24.93 O 18.67 CB 18.85 CG 22.32 CD 19.91
D GLN E 7 -94.3 -46.4 N 19.26 CA 27.02 C 26.66 O 27.37 CB 20.86 CG 32.37 CD 32.52 OE1 32.0 NE2 38.67
D ASP E 30 -145.9 158.5 N 22.5 CA 30.33 C 32.41 O 27.41 CB 41.0 CG 57.77 OD1 48.2 OD2 68.11
D VAL E 26 -143.2 138.7 N 30.22 CA 25.41 C 30.21 O 35.07 CB 24.95 CG1 25.11 CG2 23.24
D GLN E 42 -119.3 110.8 N 28.85 CA 32.3 C 30.17 O 37.86 CB 41.61 CG 62.42 CD 79.75 OE1 82.44 NE2 85.88
D ARG E 120 -91.8 162.2 N 32.13 CA 33.91 C 35.68 O 36.28 CB 44.69 CG 44.45 CD 49.65 NE 38.99 CZ 45.5 NH1 45.52 NH2 43.17
D HIS - 49 -66.7 158.6 N 41.84 CA 43.69 C 46.26 O 44.61 CB 44.97 CG 59.66 ND1 70.08 CD2 60.01 CE1 71.37 NE2 66.92
D ALA S 90 -58.3 -31.9 N 54.06 CA 60.37 C 63.07 O 65.16 CB 65.5
D PHE S 166 -154.1 0.9 N 60.75 CA 68.34 C 67.06 O 66.77 CB 72.16 CG 73.18 CD1 70.86 CD2 79.22 CE1 72.3 CE2 82.79 CZ 80.0
D LYS S 110 -99.4 138.3 N 62.12 CA 69.06 C 70.39 O 73.81 CB 64.96 CG 72.55 CD 72.61 CE 72.43 NZ 68.88
D PRO S 136 -72.7 43.9 N 64.44 CA 60.79 C 67.28 O 76.64 CB 51.41 CG 61.68 CD 58.03
D LYS S 61 -132.0 165.5 N 63.37 CA 61.6 C 50.2 O 45.59 CB 65.18 CG 64.65 CD 67.67 CE 71.91 NZ 69.14
D VAL E 3 -100.0 127.7 N 41.04 CA 33.82 C 32.72 O 30.4 CB 34.91 CG1 30.88 CG2 28.52
D GLU E 61 -86.0 -42.9 N 30.47 CA 29.83 C 30.22 O 29.33 CB 26.73 CG 44.96 CD 69.62 OE1 72.97 OE2 82.44
D HIS E 18 -157.8 151.2 N 28.41 CA 26.11 C 30.89 O 22.99 CB 29.73 CG 31.05 ND1 28.97 CD2 29.76 CE1 30.56 NE2 30.04
D ASP E 10 -115.2 137.2 N 17.62 CA 17.22 C 24.58 O 27.17 CB 24.2 CG 28.17 OD1 44.52 OD2 45.67
D PHE E 0 -125.4 131.5 N 19.03 CA 16.77 C 21.17 O 23.44 CB 22.42 CG 20.34 CD1 25.59 CD2 16.64 CE1 31.45 CE2 27.77 CZ 35.77
D ILE E 21 -105.6 138.8 N 18.13 CA 18.73 C 21.04 O 19.44 CB 25.48 CG1 24.32 CG2 21.44 CD1 34.35
D ARG E 47 -74.1 138.0 N 26.28 CA 19.45 C 28.56 O 30.14 CB 19.52 CG 31.91 CD 22.61 NE 25.04 CZ 36.73 NH1 29.84 NH2 31.58
D ILE - 78 -126.0 360.0 N 34.07 CA 34.3 C 41.64 O 60.65 CB 35.09 CG1 41.69 CG2 33.87 CD1 53.01
E ALA - 111 360.0 -25.3 N 76.24 CA 79.45 C 84.8 O 87.64 CB 77.38
E LYS E 108 -95.7 119.9 N 70.4 CA 71.82 C 70.58 O 78.19 CB 78.95 CG 81.82 CD 82.51 CE 82.16 NZ 80.56
E PHE E 5 -125.5 129.0 N 63.69 CA 61.18 C 63.14 O 68.1 CB 60.49 CG 60.94 CD1 65.59 CD2 61.13 CE1 64.13 CE2 61.0 CZ 62.62
E GLU E 149 -72.4 117.9 N 60.79 CA 66.96 C 65.77 O 62.47 CB 69.97 CG 75.88 CD 86.68 OE1 87.83 OE2 89.58
E ALA E 3 -100.5 117.2 N 70.23 CA 72.95 C 75.38 O 84.5 CB 72.22
E VAL E 63 -93.6 120.3 N 69.16 CA 65.3 C 60.94 O 56.91 CB 65.74 CG1 64.46 CG2 58.28
E VAL E 74 -63.6 124.8 N 61.32 CA 60.54 C 62.0 O 65.15 CB 57.82 CG1 57.55 CG2 58.48
E ARG - 37 -81.2 132.0 N 58.73 CA 62.19 C 66.51 O 70.2 CB 63.06 CG 67.02 CD 63.92 NE 66.55 CZ 66.81 NH1 67.4 NH2 64.79
E THR S 133 -113.1 11.2 N 71.3 CA 72.74 C 71.76 O 77.75 CB 70.58 OG1 76.94 CG2 61.46
E GLU - 87 -148.5 118.9 N 69.84 CA 73.66 C 74.14 O 74.96 CB 80.16 CG 94.03 CD 108.7 OE1 111.0 OE2 113.39
E LEU - 57 -126.7 15.8 N 75.48 CA 76.4 C 76.39 O 76.5 CB 74.75 CG 78.94 CD1 79.67 CD2 81.21
E GLY S 41 -74.8 -159.9 N 78.37 CA 80.1 C 80.32 O 76.14
E LYS T 146 -70.5 132.6 N 79.86 CA 78.91 C 83.3 O 86.22 CB 80.05 CG 81.32 CD 83.92 CE 90.23 NZ 93.98
E GLY T 19 83.4 -1.7 N 85.31 CA 77.53 C 71.03 O 71.57
E ALA H 6 -66.3 -34.6 N 47.61 CA 48.89 C 44.73 O 46.7 CB 58.09
E SER H 60 -72.3 -44.6 N 53.71 CA 49.58 C 53.09 O 55.86 CB 54.75 OG 59.13
E ARG H 56 -65.4 -33.0 N 54.37 CA 58.47 C 60.28 O 65.45 CB 67.04 CG 69.6 CD 71.74 NE 77.65 CZ 79.97 NH1 81.79 NH2 79.59
E ARG H 73 -62.0 -41.7 N 56.61 CA 52.86 C 49.76 O 44.81 CB 56.13 CG 53.25 CD 56.13 NE 68.3 CZ 75.93 NH1 76.72 NH2 77.77
E LEU H 19 -65.9 -40.9 N 49.62 CA 51.16 C 50.38 O 55.36 CB 49.79 CG 46.28 CD1 47.94 CD2 46.29
E ARG H 70 -61.9 -38.5 N 45.83 CA 44.52 C 47.75 O 53.77 CB 40.36 CG 41.47 CD 48.51 NE 63.21 CZ 68.35 NH1 71.46 NH2 68.87
E LEU H 12 -75.7 -12.7 N 44.13 CA 42.88 C 48.2 O 55.25 CB 49.13 CG 53.91 CD1 57.24 CD2 50.98
E ALA T 53 -99.6 3.3 N 50.76 CA 52.19 C 53.3 O 57.85 CB 54.92
E GLY T 27 78.7 32.6 N 54.88 CA 51.44 C 49.33 O 50.83
E GLN E 53 -133.0 168.0 N 46.09 CA 41.62 C 40.61 O 47.02 CB 44.77 CG 48.1 CD 56.67 OE1 61.21 NE2 62.83
E PHE E 3 -147.0 142.9 N 40.87 CA 40.08 C 47.83 O 46.77 CB 40.54 CG 47.23 CD1 51.55 CD2 40.53 CE1 50.18 CE2 41.24 CZ 43.17
E PRO E 11 -63.3 146.2 N 47.7 CA 49.78 C 54.91 O 59.16 CB 53.11 CG 58.33 CD 50.59
E ALA E 1 -148.7 162.1 N 48.98 CA 50.51 C 49.87 O 56.2 CB 45.19
E VAL E 0 -130.9 120.8 N 48.39 CA 48.47 C 54.87 O 51.29 CB 52.4 CG1 51.66 CG2 48.69
E VAL E 0 -100.8 124.9 N 55.9 CA 55.29 C 58.33 O 65.0 CB 56.54 CG1 59.66 CG2 62.47
E TYR E 30 -146.9 -170.8 N 61.59 CA 60.24 C 63.82 O 68.87 CB 58.67 CG 58.21 CD1 57.53 CD2 66.05 CE1 58.57 CE2 66.58 CZ 68.55 OH 70.01
E GLY E 21 103.8 -158.3 N 68.3 CA 78.71 C 92.29 O 99.37
E GLY T 71 57.5 -110.8 N 98.48 CA 102.83 C 109.77 O 110.67
E GLU T 109 -157.8 35.4 N 108.58 CA 107.67 C 103.42 O 110.31 CB 108.45
E ALA S 68 -133.5 174.5 N 92.95 CA 83.92 C 81.69 O 80.78 CB 75.47
E ALA - 73 -71.9 147.1 N 71.27 CA 69.39 C 66.57 O 68.02 CB 68.31
E PRO - 52 -66.8 146.3 N 68.59 CA 65.4 C 60.45 O 58.56 CB 58.61 CG 60.95 CD 63.48
E VAL E 41 -120.8 122.7 N 55.88 CA 54.65 C 58.16 O 62.74 CB 55.32 CG1 54.31 CG2 67.75
E ALA E 9 -83.2 118.3 N 55.05 CA 51.3 C 52.28 O 56.72 CB 53.22
E VAL E 0 -125.3 161.8 N 47.33 CA 46.86 C 45.5 O 44.38 CB 47.77 CG1 51.87 CG2 47.25
E ALA E 3 -113.5 135.9 N 52.62 CA 43.82 C 44.12 O 48.66 CB 43.74
E LEU E 0 -127.2 152.0 N 43.28 CA 44.73 C 55.74 O 49.72 CB 45.03 CG 47.96 CD1 52.37 CD2 47.54
E ASN E 81 -65.2 123.7 N 52.84 CA 49.65 C 48.89 O 55.55 CB 61.76 CG 67.41 OD1 61.73 ND2 73.29
E HIS H 17 -67.8 -65.9 N 48.45 CA 45.23 C 44.35 O 48.08 CB 40.92 CG 40.42 ND1 43.65 CD2 41.32 CE1 48.36 NE2 44.3
E ASP H 98 -60.3 -30.9 N 47.09 CA 48.72 C 53.23 O 56.19 CB 46.49 CG 46.62 OD1 43.41 OD2 47.69
E ASP H 65 -69.2 -42.6 N 54.4 CA 56.06 C 54.54 O 58.55 CB 59.22 CG 70.07 OD1 76.49 OD2 70.98
E ILE H 1 -71.6 -45.3 N 53.84 CA 59.02 C 59.53 O 64.99 CB 54.3 CG1 56.46 CG2 57.24 CD1 64.32
E VAL H 22 -55.9 -39.5 N 54.67 CA 54.77 C 60.92 O 66.62 CB 50.42 CG1 44.56 CG2 52.66
E ASN T 113 -65.8 -19.3 N 62.65 CA 68.08 C 61.6 O 61.37 CB 79.24 CG 90.43 OD1 91.51 ND2 95.98
E GLN T 16 -96.3 -5.5 N 59.17 CA 63.62 C 63.73 O 66.42 CB 68.32 CG 72.0 CD 74.11 OE1 75.51 NE2 70.06
E ASP T 148 -100.8 -11.7 N 67.92 CA 69.36 C 73.73 O 79.69 CB 77.79 CG 85.49 OD1 83.13 OD2 93.19
E LYS S 90 -98.4 122.9 N 73.92 CA 76.98 C 81.26 O 82.44 CB 76.33 CG 78.66 CD 83.56 CE 84.88 NZ 86.87
E PRO G 114 -56.8 -21.0 N 84.65 CA 86.15 C 83.0 O 83.16 CB 90.56 CG 91.19 CD 89.85
E GLU G 122 -66.8 -29.0 N 86.65 CA 91.39 C 90.91 O 94.79 CB 94.68 CG 105.8 CD 116.22 OE1 117.44 OE2 121.83
E PHE G 0 -61.5 -34.9 N 81.64 CA 75.19 C 70.82 O 70.22 CB 72.89 CG 71.25 CD1 73.31 CD2 68.69 CE1 69.67 CE2 64.06 CZ 61.74
E TYR G 114 -89.6 11.2 N 65.6 CA 65.41 C 76.63 O 83.53 CB 63.86 CG 64.47 CD1 66.47 CD2 67.16 CE1 65.57 CE2 67.52 CZ 69.22 OH 73.65
E GLU T 53 -103.3 -59.5 N 73.7 CA 74.43 C 72.28 O 74.36 CB 76.4
E ALA - 37 -162.0 124.7 N 71.52 CA 75.72 C 78.83 O 85.61 CB 78.91
E ILE E 1 -126.2 166.3 N 82.31 CA 82.35 C 86.49 O 94.66 CB 77.55 CG1 75.53 CG2 72.6 CD1 72.28
E THR E 24 -120.7 116.0 N 81.27 CA 82.01 C 81.6 O 83.09 CB 82.61 OG1 82.52 CG2 80.81
E LEU E 0 -98.5 131.9 N 76.16 CA 70.28 C 81.07 O 79.06 CB 67.77 CG 65.15 CD1 63.78 CD2 66.9
E VAL E 32 -93.4 93.0 N 73.46 CA 78.22 C 77.5 O 73.98 CB 84.69 CG1 82.05 CG2 80.34
E ILE E 23 -100.5 104.4 N 80.28 CA 81.22 C 83.42 O 85.01 CB 77.71 CG1 75.29 CG2 76.39 CD1 72.08
E GLY T 73 66.7 29.9 N 80.15 CA 84.16 C 92.39 O 89.72
E GLY T 57 93.6 -26.1 N 96.34 CA 104.27 C 110.75 O 113.92
E GLU E 140 -74.9 142.7 N 111.28 CA 106.9 C 95.77 O 94.71 CB 110.55 CG 118.45 CD 126.63 OE1 132.54 OE2 127.31
E GLU E 124 -98.0 91.2 N 91.37 CA 86.78 C 88.7 O 87.52 CB 89.76 CG 97.08 CD 103.88 OE1 104.24 OE2 103.88
E VAL E 39 -89.8 114.4 N 87.62 CA 82.06 C 85.65 O 79.19 CB 77.2 CG1 76.57 CG2 79.86
E LYS E 125 -78.1 112.5 N 91.5 CA 92.88 C 89.07 O 92.04 CB 100.29 CG 102.77 CD 108.72 CE 106.48 NZ 108.4
E VAL E 0 -124.7 161.1 N 83.91 CA 81.04 C 78.9 O 79.02 CB 82.22 CG1 86.32 CG2 78.93
E LYS E 81 -122.8 124.9 N 76.35 CA 71.87 C 72.87 O 77.33 CB 71.22 CG 68.61 CD 72.77 CE 83.3 NZ 88.91
E PRO E 13 -62.0 134.5 N 71.17 CA 69.77 C 66.45 O 70.5 CB 69.54 CG 71.66 CD 72.51
E GLN E 66 -103.4 122.9 N 64.86 CA 69.86 C 80.96 O 84.89 CB 70.95 CG 78.03 CD 86.25 OE1 85.28 NE2 92.53
E ASP - 152 -75.5 84.8 N 85.18 CA 84.13 C 83.29 O 85.23 CB 87.36 CG 90.68 OD1 91.25 OD2 92.3
E VAL - 37 -105.1 -61.8 N 79.68 CA 78.19 C 77.31 O 74.62 CB 77.11 CG1 80.7 CG2 76.85
E GLN S 14 -65.0 148.1 N 74.64 CA 78.76 C 77.5 O 82.71 CB 82.39 CG 86.02 CD 88.75 OE1 88.02 NE2 89.87
E ARG S 113 -64.2 -68.7 N 69.42 CA 68.57 C 72.97 O 78.69 CB 75.19 CG 86.98 CD 98.7 NE 107.27 CZ 110.62 NH1 111.75 NH2 110.21
E HIS - 110 -101.6 104.8 N 72.78 CA 70.22 C 68.34 O 62.62 CB 69.2 CG 70.89 ND1 74.51 CD2 77.96 CE1 85.39 NE2 86.84
E ALA S 26 -66.5 -19.5 N 72.23 CA 68.41 C 65.28 O 66.47 CB 63.91
E PHE S 81 -115.4 119.0 N 64.32 CA 69.2 C 67.46 O 76.92 CB 74.97 CG 79.4 CD1 81.77 CD2 80.09 CE1 87.09 CE2 85.24 CZ 90.78
E LYS - 70 -68.2 157.6 N 61.8 CA 69.81 C 71.36 O 55.56 CB 73.13 CG 74.17 CD 76.8 CE 78.16 NZ 82.08
E PRO - 77 -45.6 149.3 N 75.59 CA 75.71 C 75.01 O 75.12 CB 75.49 CG 79.3 CD 79.43
E LYS S 85 -65.2 -43.8 N 73.81 CA 71.19 C 72.25 O 69.01 CB 68.38 CG 75.61 CD 81.2 CE 83.67 NZ 82.6
E VAL - 9 -111.1 130.6 N 74.7 CA 69.82 C 72.32 O 69.91 CB 65.49 CG1 62.98 CG2 54.76
E GLU S 56 -111.8 -36.0 N 77.03 CA 81.06 C 87.67 O 92.43 CB 85.17
E HIS - 38 -149.9 149.3 N 86.75 CA 81.89 C 74.51 O 68.89 CB 85.59 CG 86.93 ND1 85.74 CD2 86.04 CE1 83.07 NE2 80.91
E ASP E 21 -112.9 150.6 N 71.83 CA 68.46 C 65.51 O 62.5 CB 71.41 CG 77.69 OD1 78.81 OD2 81.56
E PHE E 0 -132.4 144.3 N 56.66 CA 56.09 C 61.74 O 57.42 CB 62.28 CG 62.35 CD1 59.79 CD2 60.87 CE1 55.48 CE2 61.16 CZ 55.5
E ILE E 43 -115.2 129.5 N 63.99 CA 64.94 C 65.53 O 69.04 CB 63.13 CG1 72.54 CG2 59.21 CD1 77.0
E ARG E 54 -64.0 130.5 N 63.11 CA 62.0 C 57.05 O 60.08 CB 58.26 CG 61.52 CD 60.89 NE 62.47 CZ 64.47 NH1 65.13 NH2 65.34
E ILE - 102 -129.2 360.0 N 63.47 CA 63.82 C 58.89 O 62.57 CB 58.09 CG1 64.41 CG2 57.49 CD1 59.39
F LYS E 114 -105.9 137.2 N 86.53 CA 81.89 C 77.41 O 79.02 CB 83.98 CG 89.65 CD 92.82 CE 95.41 NZ 98.93
F PHE E 21 -132.6 135.1 N 74.36 CA 73.81 C 76.42 O 83.39 CB 72.59 CG 74.66 CD1 72.69 CD2 77.29 CE1 78.8 CE2 79.78 CZ 82.28
F GLU E 147 -73.9 128.0 N 69.48 CA 69.93 C 74.42 O 80.51 CB 70.0 CG 78.73 CD 88.24 OE1 87.08 OE2 92.4
F ALA - 4 -114.9 107.2 N 72.14 CA 71.02 C 74.11 O 84.74 CB 73.32
F VAL E 69 -79.7 119.3 N 75.34 CA 78.44 C 76.0 O 74.62 CB 79.17 CG1 76.85 CG2 81.13
F VAL E 71 -62.4 116.5 N 72.46 CA 67.85 C 63.97 O 66.11 CB 67.73 CG1 63.82 CG2 64.67
F ARG - 37 -62.7 137.4 N 75.37 CA 83.46 C 92.01 O 81.68 CB 75.15 CG 67.3 CD 64.51 NE 69.32 CZ 75.55 NH1 76.15 NH2 77.81
F THR - 148 -97.2 -43.3 N 106.89 CA 111.87 C 111.28 O 113.22 CB 111.45 OG1 114.28 CG2 105.0
F GLU - 37 -114.4 141.5 N 104.02 CA 91.81 C 83.85 O 73.75 CB 88.61
F LEU - 72 -126.5 160.5 N 87.28 CA 84.94 C 88.92 O 93.96 CB 79.74 CG 76.67 CD1 81.0 CD2 69.41
F GLY S 29 99.1 -134.1 N 90.5 CA 96.17 C 93.78 O 95.98
F LYS T 58 -69.8 121.0 N 87.13 CA 81.35 C 87.06 O 85.6 CB 76.64
F GLY T 10 83.1 -24.8 N 84.68 CA 88.1 C 86.06 O 89.61
F ALA H 6 -65.5 -40.0 N 82.94 CA 75.5 C 75.35 O 76.01 CB 76.92
F SER H 22 -68.4 -38.4 N 73.91 CA 78.07 C 77.31 O 71.7 CB 81.92 OG 83.13
F ARG H 33 -71.6 -32.9 N 78.89 CA 77.54 C 77.51 O 83.91 CB 77.26 CG 83.57 CD 89.74 NE 95.59 CZ 97.48 NH1 99.02 NH2 96.7
F ARG H 59 -59.7 -37.1 N 70.92 CA 71.03 C 72.26 O 74.81 CB 68.97 CG 74.75 CD 89.71 NE 101.19 CZ 108.58 NH1 110.82 NH2 108.79
F LEU H 22 -64.0 -44.4 N 67.06 CA 73.4 C 81.8 O 89.58 CB 68.38 CG 73.85 CD1 75.44 CD2 73.89
F ARG H 87 -70.5 -27.6 N 72.92 CA 70.88 C 73.82 O 82.98 CB 72.93 CG 75.51 CD 79.56 NE 85.22 CZ 83.42 NH1 84.52 NH2 78.78
F LEU T 19 -81.9 -6.9 N 68.24 CA 67.88 C 71.61 O 73.7 CB 68.35 CG 67.8 CD1 69.73 CD2 71.08
F ALA T 47 -113.1 23.3 N 76.98 CA 74.61 C 74.12 O 78.86 CB 69.0
F GLY T 31 68.3 34.1 N 76.12 CA 78.48 C 84.47 O 82.95
F GLN E 54 -136.1 -173.3 N 85.4 CA 87.56 C 86.63 O 89.23 CB 93.42 CG 99.73 CD 102.84 OE1 102.58 NE2 105.04
F PHE E 0 -162.2 143.1 N 85.44 CA 75.28 C 68.0 O 72.72 CB 71.3 CG 73.41 CD1 75.79 CD2 69.65 CE1 71.53 CE2 67.41 CZ 67.72
F PRO E 4 -60.4 145.1 N 70.87 CA 65.77 C 73.1 O 70.97 CB 66.09 CG 76.2 CD 76.38
F ALA E 0 -151.7 140.0 N 79.67 CA 77.47 C 75.18 O 74.67 CB 74.92
F VAL E 0 -114.5 122.1 N 78.21 CA 76.53 C 72.46 O 80.06 CB 78.95 CG1 73.21 CG2 85.23
F VAL E 1 -99.8 110.7 N 68.33 CA 57.99 C 68.86 O 72.79 CB 58.83 CG1 58.71 CG2 59.41
F TYR E 48 -128.7 -170.1 N 48.64 CA 52.87 C 59.27 O 67.72 CB 50.42 CG 60.3 CD1 61.78 CD2 60.34 CE1 64.18 CE2 64.05 CZ 62.94 OH 64.82
F GLY - 15 108.0 168.2 N 62.4 CA 64.67 C 60.63 O 50.87
F GLY T 55 63.3 -144.3 N 62.54 CA 67.47 C 72.19 O 86.81
F GLU T 200 -121.6 39.4 N 58.25 CA 59.47 C 60.67 O 58.79 CB 57.34 CG 71.5 CD 71.85 OE1 76.65 OE2 69.52
F ALA S 55 -116.4 155.8 N 62.89 CA 65.55 C 65.63 O 74.56 CB 65.35
F ALA - 78 -65.6 140.2 N 61.58 CA 61.53 C 59.27 O 63.96 CB 64.15
F PRO - 59 -66.6 159.5 N 54.87 CA 54.91 C 56.25 O 59.24 CB 60.1 CG 59.21 CD 58.34
F VAL E 34 -154.2 130.8 N 55.26 CA 55.18 C 62.21 O 65.6 CB 53.04 CG1 50.94 CG2 60.94
F ALA E 7 -85.5 123.0 N 66.64 CA 60.0 C 58.57 O 62.64 CB 64.44
F VAL E 0 -127.4 166.0 N 57.74 CA 62.91 C 63.57 O 58.72 CB 65.71 CG1 65.26 CG2 67.86
F ALA E 3 -118.8 137.7 N 67.29 CA 68.53 C 67.5 O 64.92 CB 68.33
F LEU E 1 -130.2 148.1 N 66.79 CA 71.43 C 73.98 O 78.78 CB 71.46 CG 72.58 CD1 70.41 CD2 77.29
F ASN E 62 -64.3 134.3 N 68.37 CA 66.64 C 72.19 O 74.59 CB 66.34 CG 68.77 OD1 64.28 ND2 73.4
F HIS H 18 -70.0 -58.0 N 71.68 CA 70.4 C 68.95 O 66.25 CB 75.14 CG 74.82 ND1 75.85 CD2 72.32 CE1 75.44 NE2 74.38
F ASP H 97 -67.8 -36.0 N 66.77 CA 71.51 C 67.17 O 66.79 CB 77.03 CG 83.23 OD1 86.01 OD2 87.19
F ASP H 91 -65.1 -22.8 N 67.23 CA 73.88 C 71.21 O 67.55 CB 75.82 CG 86.55 OD1 89.02 OD2 92.24
F ILE H 1 -88.2 -47.3 N 70.68 CA 69.18 C 70.65 O 65.94 CB 68.89 CG1 71.22 CG2 73.76 CD1 71.0
F VAL H 23 -59.7 -36.3 N 77.13 CA 72.22 C 74.76 O 71.25 CB 71.16 CG1 72.73 CG2 69.81
F ASN T 105 -57.1 -27.3 N 85.59 CA 92.32 C 93.3 O 98.57 CB 90.2 CG 90.91 OD1 90.14 ND2 87.76
F GLN T 93 -112.4 10.2 N 89.27 CA 87.88 C 88.82 O 88.49 CB 84.67 CG 88.05 CD 99.34 OE1 106.1 NE2 102.0
F ASP T 138 -103.7 12.1 N 101.79 CA 107.43 C 109.61 O 117.72 CB 113.38 CG 113.02 OD1 111.95 OD2 112.72
F LYS S 42 -109.2 129.4 N 99.5 CA 91.78 C 91.01 O 86.85 CB 86.98 CG 85.13
F PRO G 95 -56.7 -28.1 N 97.19 CA 95.91 C 92.8 O 90.28 CB 98.75 CG 103.0 CD 101.76
F GLU G 41 -69.2 -24.5 N 89.52 CA 84.77 C 79.85 O 78.55 CB 84.69
F PHE G 0 -63.0 -37.2 N 74.9 CA 68.62 C 67.94 O 63.61 CB 61.45 CG 59.54 CD1 54.85 CD2 57.7 CE1 53.48 CE2 53.31 CZ 52.81
F TYR G 78 -90.0 -0.0 N 70.29 CA 68.06 C 72.58 O 77.89 CB 69.29 CG 72.96 CD1 74.05 CD2 74.11 CE1 75.09 CE2 74.97 CZ 77.75 OH 82.41
F GLU T 130 -92.8 -54.9 N 72.69 CA 76.04 C 76.96 O 79.8 CB 87.44 CG 94.77 CD 98.19 OE1 96.9 OE2 100.44
F ALA - 32 -165.4 130.7 N 70.97 CA 65.05 C 66.49 O 67.14 CB 62.73
F ILE E 1 -129.8 160.7 N 62.4 CA 60.64 C 61.61 O 69.67 CB 60.37 CG1 61.16 CG2 54.11 CD1 60.33
F THR E 36 -107.2 125.8 N 58.99 CA 63.63 C 60.21 O 62.76 CB 69.97 OG1 76.48 CG2 68.84
F LEU E 0 -110.5 126.7 N 48.59 CA 54.69 C 56.16 O 65.5 CB 46.88 CG 53.56 CD1 54.38 CD2 51.31
F VAL E 38 -92.7 99.7 N 56.31 CA 63.73 C 69.93 O 72.84 CB 66.17 CG1 64.28 CG2 69.74
F ILE E 28 -109.8 106.4 N 72.58 CA 79.84 C 86.72 O 92.01 CB 81.64 CG1 83.84 CG2 82.32 CD1 83.24
F GLY T 70 65.3 40.9 N 89.5 CA 83.59 C 76.75 O 80.32
F GLY T 65 86.7 -21.2 N 73.41 CA 67.32 C 66.37 O 65.05
F GLU E 139 -90.0 132.2 N 68.63 CA 63.7 C 63.88 O 67.31 CB 60.08 CG 66.36 CD 74.04 OE1 75.99 OE2 77.17
F GLU E 118 -91.4 116.1 N 62.37 CA 65.62 C 66.04 O 70.8 CB 67.95 CG 72.99 CD 79.89 OE1 81.4 OE2 84.48
F VAL E 37 -111.3 127.5 N 57.17 CA 51.78 C 51.66 O 53.55 CB 50.59 CG1 43.86 CG2 56.39
F LYS E 121 -84.6 114.1 N 49.27 CA 49.51 C 52.75 O 64.63 CB 60.27 CG 74.15 CD 80.72 CE 85.99 NZ 91.29
F VAL E 0 -125.6 168.0 N 46.86 CA 59.07 C 64.73 O 65.85 CB 62.67 CG1 62.73 CG2 66.3
F LYS E 89 -127.5 119.6 N 60.06 CA 55.82 C 55.24 O 60.64 CB 48.48 CG 56.97 CD 59.27 CE 68.67 NZ 70.81
F PRO E 7 -57.1 138.5 N 55.12 CA 58.84 C 60.7 O 64.5 CB 56.52 CG 55.32 CD 59.77
F GLN - 52 -113.2 175.0 N 64.0 CA 69.82 C 73.96 O 72.83 CB 73.52 CG 73.11 CD 77.66 OE1 87.53 NE2 65.82
F ASP - 100 58.2 -96.7 N 85.19 CA 94.68 C 92.49 O 101.29 CB 101.59
F VAL - 36 56.0 -76.1 N 85.68 CA 84.29 C 91.1 O 89.2 CB 74.3 CG1 73.64 CG2 66.54
F GLN - 103 -93.5 360.0 N 116.7 CA 110.99 C 109.79 O 107.99 CB 111.97
F HIS - 106 360.0 -178.8 N 115.4 CA 113.68 C 117.84 O 126.72 CB 110.63
F ALA - 71 -114.6 150.2 N 110.31 CA 106.85 C 108.9 O 109.84 CB 96.91
F PHE - 95 -92.7 127.2 N 108.67 CA 94.36 C 84.0 O 86.21 CB 101.71 CG 108.06 CD1 107.65 CD2 111.56 CE1 108.61 CE2 112.57 CZ 110.03
F LYS - 73 -162.9 154.9 N 75.72 CA 74.59 C 76.55 O 78.99 CB 66.9 CG 62.67 CD 56.7
F PRO - 78 -58.8 136.3 N 63.78 CA 64.54 C 64.26 O 66.2 CB 65.62 CG 68.17 CD 65.6
F LYS - 67 -132.6 144.4 N 64.81 CA 63.83 C 55.88 O 55.33 CB 69.73 CG 72.66 CD 79.18 CE 82.44 NZ 85.74
F VAL - 7 -125.7 134.6 N 50.67 CA 47.18 C 40.73 O 54.59 CB 41.37 CG1 59.22 CG2 42.4
F GLU S 63 -100.6 -24.7 N 42.02 CA 42.22 C 49.07 O 50.18 CB 43.67 CG 64.04 CD 73.44 OE1 76.97 OE2 78.03
F HIS - 4 -161.0 153.8 N 48.35 CA 50.3 C 54.23 O 62.88 CB 58.73 CG 62.68 ND1 64.05 CD2 60.71 CE1 64.47 NE2 60.74
F ASP E 2 -112.1 136.6 N 49.69 CA 53.58 C 51.99 O 52.21 CB 62.34 CG 69.91 OD1 76.09 OD2 63.04
F PHE E 0 -125.1 132.3 N 52.92 CA 54.04 C 59.2 O 61.44 CB 53.47 CG 55.95 CD1 53.74 CD2 49.91 CE1 51.46 CE2 48.46 CZ 49.1
F ILE E 47 -104.4 139.6 N 57.79 CA 64.84 C 67.22 O 65.79 CB 62.95 CG1 63.94 CG2 61.78 CD1 65.7
F ARG E 49 -72.6 134.4 N 75.39 CA 78.29 C 81.58 O 76.35 CB 76.4 CG 72.03 CD 76.99 NE 78.86 CZ 79.8 NH1 77.98 NH2 83.34
F ILE - 107 -129.6 360.0 N 90.68 CA 91.41 C 95.66 O 98.32 CB 83.67 CG1 80.7 CG2 75.81 CD1 75.83
G ALA - 126 360.0 -101.1 N 86.91 CA 86.4 C 81.36 O 76.07 CB 88.7
G LYS E 109 -111.2 124.4 N 87.85 CA 81.94 C 71.3 O 76.26 CB 86.58 CG 84.98 CD 88.07 CE 82.91 NZ 87.84
G PHE E 17 -121.4 138.5 N 57.78 CA 51.83 C 57.73 O 64.87 CB 50.5 CG 48.58 CD1 55.89 CD2 52.3 CE1 58.96 CE2 60.89 CZ 63.55
G GLU E 134 -78.7 129.2 N 54.91 CA 45.87 C 42.74 O 44.86 CB 44.87 CG 55.15 CD 77.44 OE1 78.37 OE2 87.84
G ALA E 11 -117.6 145.5 N 40.45 CA 40.08 C 43.64 O 50.77 CB 36.17
G VAL E 85 -114.5 126.7 N 38.69 CA 31.59 C 37.33 O 44.61 CB 26.36 CG1 24.86 CG2 31.41
G VAL E 81 -65.2 128.0 N 25.44 CA 31.02 C 25.03 O 27.68 CB 38.71 CG1 31.31 CG2 30.55
G ARG - 43 -94.8 141.1 N 50.46 CA 52.07 C 56.4 O 53.71 CB 54.25 CG 52.84 CD 49.19 NE 61.29 CZ 65.36 NH1 73.82 NH2 51.56
G THR - 128 -120.2 -40.2 N 64.0 CA 66.75 C 61.01 O 59.91 CB 68.52 OG1 74.04 CG2 66.71
G GLU - 114 -77.6 107.2 N 63.26 CA 67.88 C 66.02 O 64.75 CB 72.39 CG 76.28 CD 77.33 OE1 75.45 OE2 77.51
G LEU - 118 -105.5 159.6 N 60.4 CA 68.98 C 73.14 O 79.95 CB 71.3 CG 69.23 CD1 69.71 CD2 63.71
G GLY S 43 126.8 160.8 N 62.37 CA 65.75 C 71.22 O 63.84
G LYS H 100 -62.2 -35.3 N 74.57 CA 72.27 C 73.23 O 67.19 CB 75.61 CG 82.4
G GLY H 35 -64.2 -43.9 N 76.7 CA 76.41 C 74.18 O 74.79
G ALA H 10 -72.2 -31.4 N 73.69 CA 61.41 C 58.64 O 57.83 CB 64.13
G SER H 23 -67.3 -32.6 N 66.97 CA 64.55 C 64.09 O 59.12 CB 60.11 OG 56.67
G ARG H 147 -71.1 -31.4 N 61.16 CA 70.97 C 68.23 O 62.39 CB 75.29 CG 79.51 CD 89.91 NE 91.01 CZ 91.98 NH1 92.3 NH2 89.06
G ARG H 127 -78.4 -13.7 N 69.88 CA 74.21 C 72.31 O 75.37 CB 83.82 CG 95.08 CD 103.3 NE 108.35 CZ 107.14 NH1 110.7 NH2 100.52
G LEU H 33 -75.6 -37.3 N 64.74 CA 57.23 C 60.3 O 65.43 CB 51.5 CG 50.71 CD1 50.02 CD2 55.42
G ARG H 67 -72.0 -19.7 N 63.81 CA 74.69 C 75.34 O 85.48 CB 83.02 CG 84.52 CD 97.59 NE 97.57 CZ 101.92 NH1 101.22 NH2 106.64
G LEU T 138 -67.7 -27.3 N 70.91 CA 76.13 C 73.9 O 78.41 CB 81.16 CG 82.77 CD1 78.02 CD2 80.9
G ALA T 70 -110.8 22.5 N 57.38 CA 56.27 C 61.27 O 54.33 CB 54.63
G GLY T 32 70.5 26.8 N 48.2 CA 48.38 C 44.37 O 43.88
G GLN E 49 -121.9 178.7 N 38.34 CA 42.67 C 45.75 O 46.88 CB 39.71 CG 54.99 CD 65.63 OE1 70.89 NE2 69.0
G PHE E 0 -151.0 145.7 N 33.03 CA 32.98 C 36.4 O 32.57 CB 36.99 CG 36.43 CD1 41.44 CD2 34.0 CE1 42.62 CE2 35.67 CZ 36.86
G PRO E 1 -73.3 139.8 N 32.79 CA 39.07 C 39.69 O 33.59 CB 43.01 CG 33.74 CD 39.18
G ALA E 0 -148.2 150.9 N 38.18 CA 35.82 C 39.95 O 41.42 CB 35.22
G VAL E 14 -121.0 146.2 N 34.99 CA 40.11 C 40.78 O 38.59 CB 36.26 CG1 37.47 CG2 51.53
G VAL E 0 -124.5 114.7 N 39.99 CA 47.18 C 48.78 O 50.27 CB 45.99 CG1 46.07 CG2 48.76
G TYR E 2 -130.0 -176.8 N 47.04 CA 45.34 C 49.65 O 47.63 CB 44.28 CG 52.81 CD1 53.81 CD2 45.84 CE1 50.71 CE2 45.36 CZ 51.88 OH 57.15
G GLY - 1 99.5 179.4 N 54.0 CA 56.84 C 57.58 O 53.45
G GLY T 21 68.7 -133.8 N 63.56 CA 66.17 C 62.12 O 64.77
G GLU T 116 -125.8 36.9 N 63.22 CA 71.91 C 76.83 O 80.54 CB 75.97 CG 79.03 CD 94.07 OE1 97.5 OE2 101.52
G ALA S 32 -137.1 154.4 N 75.25 CA 70.44 C 67.85 O 70.31 CB 71.52
G ALA - 31 -64.9 151.1 N 64.69 CA 55.06 C 54.35 O 57.83 CB 47.59
G PRO - 28 -60.3 140.0 N 43.48 CA 45.97 C 45.46 O 44.34 CB 54.65 CG 53.94 CD 45.17
G VAL E 39 -123.1 126.3 N 46.48 CA 49.24 C 48.02 O 55.2 CB 45.89 CG1 52.38 CG2 47.08
G ALA E 24 -88.6 117.2 N 44.92 CA 35.2 C 37.43 O 43.97 CB 35.32
G VAL E 0 -124.0 161.3 N 34.99 CA 37.85 C 42.02 O 33.06 CB 38.81 CG1 41.57 CG2 39.23
G ALA E 3 -117.4 126.5 N 43.06 CA 37.38 C 33.7 O 34.59 CB 33.68
G LEU E 0 -112.9 148.1 N 33.43 CA 38.41 C 34.72 O 39.76 CB 34.6 CG 40.19 CD1 42.17 CD2 37.11
G ASN E 60 -65.9 124.1 N 35.33 CA 35.7 C 36.19 O 42.35 CB 37.81 CG 49.6 OD1 50.73 ND2 39.94
G HIS H 27 -62.5 -59.6 N 40.77 CA 42.3 C 52.37 O 38.35 CB 35.67 CG 47.22 ND1 54.59 CD2 36.69 CE1 54.54 NE2 42.21
G ASP H 96 -61.8 -30.8 N 53.43 CA 62.59 C 65.19 O 66.14 CB 68.39 CG 70.09 OD1 61.1 OD2 74.63
G ASP H 89 -67.2 -44.3 N 64.14 CA 69.35 C 72.31 O 78.68 CB 70.51 CG 78.35 OD1 81.4 OD2 78.49
G ILE H 1 -67.8 -51.3 N 68.4 CA 61.18 C 59.64 O 63.02 CB 48.88 CG1 43.47 CG2 40.82 CD1 41.21
G VAL H 33 -59.3 -39.3 N 55.83 CA 54.46 C 60.3 O 67.3 CB 51.32 CG1 45.96 CG2 53.95
G ASN T 107 -68.8 1.3 N 63.58 CA 72.71 C 80.38 O 89.49 CB 68.29 CG 70.32 OD1 75.13 ND2 70.24
G GLN T 57 -125.2 3.6 N 79.66 CA 80.9 C 73.45 O 78.12 CB 83.91 CG 81.26 CD 79.8 OE1 86.42 NE2 75.21
G ASP T 108 -97.8 -12.9 N 101.72 CA 110.23 C 111.57 O 116.93 CB 114.35 CG 114.56 OD1 107.97 OD2 119.56
G LYS S 97 -83.7 138.9 N 108.83 CA 108.0 C 109.6 O 105.42 CB 99.19 CG 97.88 CD 101.03 CE 103.07 NZ 108.8
G PRO T 65 -70.6 -17.8 N 112.35 CA 111.6 C 112.06 O 113.33 CB 118.51 CG 122.68 CD 115.63
G GLU T 44 -76.4 -20.1 N 107.4 CA 102.68 C 94.79 O 92.58 CB 102.25
G PHE T 0 -65.9 -38.7 N 93.67 CA 91.14 C 94.98 O 94.53 CB 83.26 CG 77.09 CD1 72.56 CD2 76.34 CE1 67.27 CE2 74.64 CZ 67.37
G TYR T 5 -89.1 28.4 N 98.19 CA 94.72 C 98.33 O 98.8 CB 97.11 CG 95.34 CD1 98.05 CD2 90.6 CE1 95.95 CE2 88.98 CZ 90.47 OH 86.69
G GLU T 112 -158.7 -18.3 N 97.16 CA 103.56 C 103.29 O 105.03 CB 111.79 CG 123.25 CD 130.44 OE1 133.58 OE2 130.56
G ALA - 49 -153.1 101.3 N 100.02 CA 91.49 C 89.65 O 95.51 CB 93.45
G ILE E 2 -132.5 132.3 N 83.66 CA 78.81 C 75.92 O 77.67 CB 73.66 CG1 76.94 CG2 64.6 CD1 80.06
G THR E 22 -109.8 120.9 N 71.03 CA 67.13 C 61.77 O 66.46 CB 69.76 OG1 82.31 CG2 67.7
G LEU E 0 -110.8 120.7 N 59.24 CA 54.43 C 61.24 O 62.25 CB 52.44 CG 57.91 CD1 52.8 CD2 59.69
G VAL E 11 -81.4 96.2 N 57.21 CA 54.24 C 48.12 O 49.04 CB 53.39 CG1 49.98 CG2 59.14
G ILE E 22 -105.4 106.5 N 50.77 CA 48.32 C 56.96 O 62.05 CB 51.15 CG1 49.1 CG2 47.35 CD1 47.78
G GLY T 70 65.4 32.5 N 59.11 CA 54.9 C 56.4 O 62.46
G GLY T 57 102.4 -47.9 N 58.47 CA 58.02 C 66.17 O 71.02
G GLU E 152 -73.8 156.9 N 73.12 CA 80.26 C 74.62 O 70.02 CB 85.96 CG 93.31 CD 103.28 OE1 105.98 OE2 108.46
G GLU E 110 -114.6 92.2 N 73.75 CA 71.1 C 71.11 O 79.7 CB 76.64 CG 87.02 CD 93.81 OE1 94.47 OE2 97.08
G VAL E 33 -80.9 127.0 N 63.69 CA 63.22 C 64.39 O 66.43 CB 57.4 CG1 60.15 CG2 56.86
G LYS E 131 -92.8 118.3 N 61.97 CA 65.76 C 68.97 O 72.68 CB 74.78 CG 83.52 CD 93.58 CE 93.65 NZ 96.24
G VAL E 1 -131.2 177.3 N 67.34 CA 66.78 C 70.17 O 67.78 CB 63.52 CG1 65.8 CG2 62.62
G LYS E 57 -135.4 148.1 N 73.12 CA 72.63 C 65.94 O 69.13 CB 67.79 CG 72.73 CD 77.77 CE 81.15 NZ 81.24
G PRO E 0 -62.0 127.9 N 64.64 CA 61.58 C 62.54 O 66.55 CB 63.65 CG 65.8 CD 65.83
G GLN E 24 -109.2 -37.9 N 61.49 CA 63.63 C 64.41 O 79.27 CB 62.39 CG 72.25 CD 73.99 OE1 70.79 NE2 74.2
G ASP E 31 -151.9 144.8 N 61.12 CA 65.98 C 64.8 O 55.58 CB 68.48 CG 75.41 OD1 72.61 OD2 77.64
G VAL E 11 -128.8 121.6 N 64.07 CA 59.04 C 60.25 O 64.32 CB 60.83 CG1 59.2 CG2 63.59
G GLN E 50 -99.1 112.1 N 57.26 CA 58.55 C 58.15 O 54.9 CB 59.44 CG 65.32 CD 75.21 OE1 79.52 NE2 74.69
G ARG E 82 -103.7 163.5 N 43.84 CA 47.35 C 47.15 O 46.11 CB 47.16 CG 50.46 CD 50.68 NE 56.08 CZ 61.95 NH1 65.52 NH2 61.61
G HIS - 43 -67.5 163.7 N 52.41 CA 53.19 C 54.16 O 51.42 CB 55.3 CG 64.15 ND1 67.25 CD2 70.52 CE1 73.58 NE2 78.58
G ALA S 95 -53.7 -40.9 N 68.04 CA 71.2 C 70.48 O 75.82 CB 73.5
G PHE S 45 -141.2 -25.2 N 62.69 CA 62.46 C 61.38 O 67.21 CB 63.65 CG 68.62 CD1 71.92 CD2 73.06 CE1 75.1 CE2 74.32 CZ 74.9
G LYS S 24 -65.2 142.7 N 56.31 CA 58.02 C 63.29 O 62.17 CB 54.62 CG 62.52 CD 68.38 CE 75.05 NZ 81.13
G PRO S 68 -78.9 33.5 N 68.79 CA 66.73 C 63.39 O 65.84 CB 64.73 CG 70.38 CD 73.72
G LYS - 56 -105.1 152.2 N 60.07 CA 57.98 C 50.63 O 50.84 CB 63.85 CG 74.37 CD 77.94 CE 76.49 NZ 74.75
G VAL E 1 -99.9 127.0 N 49.89 CA 46.74 C 44.66 O 44.05 CB 44.62 CG1 41.6 CG2 42.6
G GLU E 36 -97.2 -28.9 N 42.24 CA 44.21 C 43.2 O 40.29 CB 47.11 CG 59.6 CD 76.0 OE1 82.98 OE2 82.84
G HIS E 39 -165.5 146.7 N 42.07 CA 36.52 C 36.72 O 37.79 CB 41.08 CG 43.16 ND1 37.01 CD2 36.89 CE1 37.86 NE2 42.05
G ASP E 1 -119.7 137.3 N 38.44 CA 45.7 C 45.34 O 43.7 CB 48.29 CG 55.7 OD1 60.99 OD2 55.59
G PHE E 0 -124.0 124.9 N 46.11 CA 47.46 C 51.72 O 60.43 CB 46.97 CG 54.16 CD1 48.21 CD2 59.58 CE1 50.52 CE2 57.33 CZ 52.35
G ILE E 22 -101.4 143.1 N 50.57 CA 52.8 C 58.24 O 57.14 CB 52.61 CG1 53.62 CG2 53.93 CD1 65.11
G ARG E 37 -73.2 153.7 N 61.27 CA 64.3 C 73.43 O 58.65 CB 52.78 CG 49.81 CD 50.96 NE 58.58 CZ 54.17 NH1 49.72 NH2 51.11
G ILE - 131 -125.4 360.0 N 75.94 CA 80.84 C 80.25 O 75.35 CB 85.99 CG1 83.49 CG2 96.84 CD1 86.86
H LYS E 127 -114.7 119.9 N 99.67 CA 94.6 C 86.99 O 97.6 CB 96.15 CG 97.43 CD 100.58 CE 101.25 NZ 101.62
H PHE E 4 -103.6 153.7 N 77.63 CA 80.75 C 86.62 O 88.84 CB 79.49 CG 80.68 CD1 80.45 CD2 84.27 CE1 77.37 CE2 83.5 CZ 79.06
H GLU E 163 -96.8 106.0 N 86.44 CA 87.85 C 79.99 O 75.49 CB 95.7 CG 103.85 CD 105.13 OE1 102.49 OE2 106.91
H ALA - 5 -89.6 125.4 N 76.89 CA 77.09 C 82.73 O 84.04 CB 72.34
H VAL E 78 -100.7 121.6 N 82.16 CA 83.59 C 89.91 O 97.03 CB 73.38 CG1 72.62 CG2 74.52
H VAL E 71 -65.4 124.2 N 82.77 CA 75.79 C 72.45 O 75.11 CB 83.42 CG1 81.3 CG2 86.94
H ARG - 51 -77.6 128.9 N 73.17 CA 73.88 C 78.13 O 75.07 CB 68.95 CG 71.48 CD 70.02 NE 68.76 CZ 65.66 NH1 54.88 NH2 63.89
H THR - 138 -100.4 -14.2 N 82.6 CA 93.23 C 96.55 O 96.4 CB 96.8 OG1 100.81 CG2 93.0
H GLU - 85 -131.9 147.5 N 92.42 CA 83.22 C 78.07 O 75.69 CB 82.04 CG 84.4 CD 94.74 OE1 97.62 OE2 97.01
H LEU - 130 -130.6 152.7 N 79.1 CA 74.05 C 79.58 O 76.23 CB 64.9 CG 63.11 CD1 59.53 CD2 61.76
H GLY S 47 130.2 -170.8 N 79.8 CA 87.2 C 100.07 O 102.14
H LYS H 92 -71.3 -35.0 N 107.34 CA 106.37 C 108.83 O 106.31 CB 108.0
H GLY H 40 -68.5 -39.5 N 108.04 CA 108.94 C 102.65 O 104.84
H ALA H 4 -68.2 -33.4 N 97.37 CA 90.07 C 90.16 O 84.86 CB 74.69
H SER H 55 -69.7 -29.0 N 96.31 CA 98.17 C 94.28 O 95.31 CB 102.11 OG 103.78
H ARG H 45 -69.1 -40.5 N 91.1 CA 93.4 C 96.48 O 94.07 CB 88.32
H ARG H 129 -65.3 -38.5 N 104.09 CA 110.2 C 106.9 O 110.15 CB 112.56 CG 120.49 CD 122.07 NE 119.96 CZ 121.12 NH1 120.38 NH2 124.2
H LEU H 21 -67.8 -37.6 N 97.67 CA 90.56 C 89.53 O 89.34 CB 83.0 CG 80.99 CD1 75.26 CD2 78.43
H ARG H 173 -67.1 -39.3 N 85.77 CA 85.1 C 81.14 O 80.58 CB 87.25 CG 88.83 CD 94.16 NE 103.89 CZ 111.72 NH1 112.75 NH2 118.16
H LEU H 143 -81.3 -20.0 N 80.96 CA 85.35 C 87.28 O 93.16 CB 93.55 CG 99.6 CD1 103.44 CD2 102.1
H ALA T 57 -85.2 1.3 N 84.69 CA 91.59 C 98.27 O 101.08 CB 83.42
H GLY T 27 74.5 38.3 N 99.82 CA 96.66 C 90.18 O 89.18
H GLN E 49 -130.8 167.5 N 84.03 CA 76.48 C 69.01 O 63.53 CB 77.22 CG 78.62 CD 81.8 OE1 80.2 NE2 88.59
H PHE E 5 -140.3 148.4 N 64.56 CA 61.03 C 56.14 O 53.37 CB 57.55 CG 56.22 CD1 60.34 CD2 55.98 CE1 59.48 CE2 58.72 CZ 56.67
H PRO E 25 -65.7 139.4 N 56.89 CA 46.92 C 62.69 O 62.85 CB 46.86 CG 47.15 CD 55.06
H ALA E 1 -143.6 158.5 N 59.43 CA 57.86 C 54.32 O 60.12 CB 62.39
H VAL E 37 -130.1 127.9 N 46.57 CA 48.12 C 48.84 O 48.76 CB 48.21 CG1 45.74 CG2 54.21
H VAL E 0 -109.0 113.5 N 54.25 CA 58.81 C 59.94 O 69.41 CB 59.06 CG1 60.57 CG2 59.89
H TYR E 29 -130.3 -176.4 N 52.15 CA 57.3 C 61.34 O 67.4 CB 62.3 CG 62.77 CD1 66.93 CD2 63.08 CE1 66.47 CE2 64.98 CZ 66.43 OH 66.21
H GLY - 2 92.8 163.0 N 58.81 CA 65.22 C 70.97 O 66.6
H GLY T 19 87.1 -126.2 N 70.16 CA 66.35 C 71.11 O 65.79
H GLU T 138 -117.6 -14.7 N 80.71 CA 88.37 C 88.33 O 95.21 CB 93.46 CG 103.48 CD 117.18 OE1 118.9 OE2 127.73
H ALA S 42 -99.5 167.5 N 81.44 CA 71.98 C 67.44 O 64.24 CB 67.17
H ALA - 29 -76.4 154.5 N 67.22 CA 61.27 C 58.88 O 63.07 CB 58.17
H PRO - 35 -56.9 134.8 N 62.97 CA 62.31 C 66.65 O 72.71 CB 61.15 CG 63.36 CD 65.33
H VAL E 43 -119.5 125.4 N 64.98 CA 62.12 C 59.61 O 61.47 CB 52.52 CG1 53.66 CG2 58.5
H ALA E 33 -82.4 116.2 N 56.42 CA 52.6 C 58.29 O 63.16 CB 49.05
H VAL E 0 -123.5 -179.7 N 60.76 CA 60.36 C 53.63 O 53.03 CB 60.54 CG1 65.33 CG2 51.41
H ALA E 2 -136.2 133.9 N 58.72 CA 66.82 C 72.69 O 86.91 CB 71.72
H LEU E 0 -122.8 144.1 N 60.91 CA 57.87 C 61.22 O 63.02 CB 57.04 CG 53.72 CD1 54.16 CD2 58.8
H ASN E 66 -65.1 112.8 N 63.25 CA 70.48 C 75.59 O 73.56 CB 68.41 CG 79.42 OD1 79.51 ND2 83.76
H HIS H 31 -52.4 -56.6 N 80.35 CA 75.94 C 73.84 O 58.75 CB 79.15 CG 76.34 ND1 75.84 CD2 71.37 CE1 71.39 NE2 72.02
H ASP H 98 -69.0 -20.5 N 84.22 CA 90.38 C 87.59 O 98.13 CB 100.01 CG 101.43 OD1 98.41 OD2 104.43
H ASP H 68 -86.5 -20.9 N 78.41 CA 84.98 C 81.75 O 85.24 CB 98.13 CG 108.16 OD1 107.8 OD2 113.68
H ILE H 1 -89.1 -43.9 N 75.69 CA 73.96 C 79.18 O 85.93 CB 68.67 CG1 72.47 CG2 61.24 CD1 71.87
H VAL H 47 -72.9 -28.4 N 73.07 CA 67.85 C 70.22 O 73.78 CB 63.82 CG1 72.74 CG2 64.25
H ASN T 119 -72.7 -23.4 N 78.52 CA 89.33 C 88.99 O 90.13 CB 95.79 CG 98.25 OD1 99.56 ND2 98.36
H GLN T 62 -104.5 13.9 N 85.03 CA 86.75 C 82.63 O 88.23 CB 88.76 CG 97.01 CD 107.57 OE1 114.54 NE2 108.33
H ASP S 112 -79.4 -43.5 N 97.87 CA 102.2 C 101.15 O 107.1 CB 110.77 CG 119.28 OD1 123.02 OD2 122.53
H LYS S 34 -64.6 137.9 N 95.13 CA 94.03 C 95.7 O 94.37 CB 92.33
H PRO G 38 -72.6 -11.7 N 99.18 CA 95.5 C 95.31 O 93.45 CB 97.1 CG 103.76 CD 105.12
H GLU G 101 -78.8 -14.5 N 92.4 CA 91.52 C 81.93 O 78.84 CB 99.16 CG 104.61 CD 114.8 OE1 120.93 OE2 117.18
H PHE G 0 -68.4 -28.7 N 80.56 CA 69.85 C 61.5 O 61.64 CB 67.5 CG 69.38 CD1 68.61 CD2 67.52 CE1 67.81 CE2 61.7 CZ 59.44
H TYR G 16 -102.2 6.2 N 60.59 CA 63.5 C 74.01 O 73.13 CB 59.16 CG 58.31 CD1 61.14 CD2 51.7 CE1 57.53 CE2 51.56 CZ 54.59 OH 59.82
H GLU T 86 -92.3 -61.1 N 87.38 CA 97.84 C 94.18 O 98.27 CB 110.8 CG 121.47 CD 131.01 OE1 131.04 OE2 137.23
H ALA - 46 -165.4 123.9 N 85.95 CA 77.57 C 74.68 O 77.8 CB 74.9
H ILE E 2 -123.8 156.8 N 69.36 CA 72.34 C 76.75 O 76.55 CB 67.85 CG1 60.34 CG2 73.43 CD1 56.8
H THR E 20 -112.0 116.4 N 84.31 CA 90.19 C 87.01 O 90.31 CB 88.89 OG1 87.3 CG2 90.53
H LEU E 0 -98.1 116.1 N 78.82 CA 73.2 C 85.45 O 82.86 CB 64.41 CG 53.29 CD1 50.13 CD2 53.94
H VAL E 39 -81.3 97.5 N 105.06 CA 115.47 C 110.93 O 119.44 CB 120.57 CG1 128.09 CG2 120.23
H ILE S 12 -103.5 65.4 N 98.14 CA 92.58 C 102.21 O 104.05 CB 85.18 CG1 80.87 CG2 83.18 CD1 77.11
H GLY S 61 94.3 35.1 N 114.0 CA 120.09 C 126.93 O 130.7
H GLY S 68 103.7 -17.5 N 133.22 CA 142.08 C 142.41 O 148.15
H GLU - 109 -100.9 135.0 N 139.16 CA 136.05 C 124.31 O 118.63 CB 139.35 CG 139.73 CD 147.27 OE1 152.16 OE2 148.29
H GLU E 121 -93.1 107.7 N 115.61 CA 109.39 C 101.59 O 107.66 CB 112.9 CG 120.72 CD 128.73 OE1 128.5 OE2 135.71
H VAL E 34 -109.0 108.1 N 86.76 CA 80.91 C 80.75 O 77.06 CB 73.47 CG1 63.17 CG2 70.4
H LYS E 136 -67.2 114.7 N 87.7 CA 93.31 C 91.59 O 96.58 CB 97.92 CG 103.1 CD 105.3 CE 107.8 NZ 110.27
H VAL E 0 -130.5 165.3 N 84.06 CA 75.12 C 71.76 O 69.67 CB 69.23 CG1 74.51 CG2 65.9
H LYS E 71 -115.8 139.0 N 69.44 CA 60.87 C 52.01 O 57.78 CB 68.69 CG 75.92 CD 74.8 CE 80.01 NZ 83.32
H PRO E 0 -64.0 105.5 N 51.09 CA 46.67 C 44.82 O 46.28 CB 48.88 CG 56.24 CD 59.29
H GLN E 36 -76.8 -72.1 N 43.24 CA 48.22 C 58.4 O 70.54 CB 50.55 CG 60.52 CD 60.54 OE1 68.06 NE2 51.83
H ASP E 56 -130.0 154.4 N 57.12 CA 59.32 C 57.65 O 55.04 CB 66.69 CG 80.06 OD1 89.66 OD2 81.23
H VAL E 29 -124.6 139.8 N 61.99 CA 57.21 C 61.46 O 70.93 CB 58.79 CG1 60.47 CG2 67.82
H GLN E 121 -119.9 103.1 N 55.26 CA 54.1 C 55.08 O 51.96 CB 55.5 CG 62.63 CD 74.1 OE1 78.79 NE2 77.3
H ARG E 120 -89.4 161.0 N 54.73 CA 54.69 C 57.65 O 64.15 CB 61.77 CG 73.38 CD 77.72 NE 78.59 CZ 81.27 NH1 90.74 NH2 72.56
H HIS - 55 -67.9 160.9 N 53.09 CA 54.42 C 61.5 O 63.56 CB 57.72 CG 62.02 ND1 65.89 CD2 64.08 CE1 76.0 NE2 73.72
H ALA S 94 -60.0 -40.1 N 64.25 CA 64.1 C 70.35 O 66.32 CB 69.29
H PHE S 165 -139.0 -41.8 N 80.57 CA 86.11 C 86.32 O 85.49 CB 84.88 CG 89.36 CD1 87.36 CD2 97.29 CE1 89.64 CE2 97.08 CZ 92.35
H LYS S 110 -77.7 140.7 N 83.23 CA 84.85 C 78.84 O 72.86 CB 90.56 CG 87.09 CD 84.62 CE 83.26 NZ 83.28
H PRO S 135 -68.1 75.9 N 83.71 CA 84.44 C 82.2 O 85.41 CB 88.99 CG 90.15 CD 88.24
H LYS - 25 -146.9 159.1 N 78.85 CA 70.07 C 64.69 O 58.65 CB 70.07
H VAL E 9 -104.2 124.8 N 63.46 CA 57.54 C 56.65 O 63.45 CB 55.51 CG1 61.19 CG2 49.66
H GLU E 84 -85.4 -62.2 N 49.31 CA 49.93 C 53.19 O 58.93 CB 54.23 CG 68.86 CD 87.47 OE1 91.16 OE2 97.49
H HIS E 59 -132.2 165.1 N 52.54 CA 51.22 C 48.39 O 48.97 CB 62.29 CG 67.79 ND1 63.01 CD2 72.69 CE1 65.26 NE2 71.16
H ASP E 39 -112.5 146.6 N 45.42 CA 55.25 C 56.83 O 59.88 CB 66.6 CG 76.6 OD1 83.97 OD2 74.37
H PHE E 0 -135.4 127.0 N 53.01 CA 45.08 C 50.96 O 49.18 CB 45.74 CG 48.68 CD1 49.79 CD2 54.44 CE1 50.41 CE2 50.68 CZ 50.85
H ILE E 38 -99.2 144.3 N 51.82 CA 54.47 C 56.28 O 55.62 CB 54.52 CG1 55.34 CG2 58.93 CD1 53.5
H ARG E 48 -83.3 143.8 N 58.92 CA 65.65 C 68.71 O 66.08 CB 70.98 CG 66.07 CD 65.26 NE 73.08 CZ 78.54 NH1 86.29 NH2 70.84
H ILE - 87 -96.6 360.0 N 72.35 CA 72.41 C 76.69 O 83.58 CB 67.96 CG1 59.56 CG2 69.68 CD1 61.32
