A ALA - 127 360.0 113.4 N 47.59 CA 47.54 C 51.27 O 48.98 CB 53.81
A PRO - 66 -63.7 161.3 N 38.95 CA 38.91 C 37.95 O 34.17 CB 41.17 CG 44.36 CD 44.44
A LEU S 19 -60.3 -42.0 N 35.07 CA 34.0 C 31.05 O 31.0 CB 29.08 CG 28.3 CD1 29.15 CD2 27.45
A ALA S 3 -141.8 156.7 N 28.46 CA 30.68 C 29.92 O 31.28 CB 28.76
A PRO - 74 -69.6 163.3 N 32.98 CA 30.78 C 32.5 O 29.41 CB 27.05 CG 36.7 CD 30.12
A PRO - 78 -63.9 169.2 N 32.04 CA 34.2 C 31.55 O 29.55 CB 28.94 CG 31.52 CD 34.81
A LEU - 28 -75.3 150.4 N 30.16 CA 30.07 C 34.92 O 38.09 CB 27.76 CG 29.08 CD1 25.21 CD2 26.59
A ALA - 53 -59.4 157.4 N 33.09 CA 41.27 C 40.95 O 40.71 CB 37.48
A GLU T 211 -62.9 -28.3 N 48.86 CA 49.4 C 39.5 O 49.86 CB 62.39 CG 73.9 CD 86.12 OE1 86.43 OE2 83.9
A ASP T 132 -102.4 25.3 N 39.48 CA 50.95 C 44.58 O 45.35 CB 48.64 CG 57.98 OD1 57.46 OD2 68.28
A ARG - 117 -120.4 133.8 N 39.22 CA 39.56 C 28.27 O 33.72 CB 37.07 CG 46.38 CD 48.52 NE 52.56 CZ 56.88 NH1 57.23 NH2 52.18
A SER S 63 -89.6 -23.6 N 24.34 CA 26.55 C 30.18 O 28.17 CB 26.33 OG 39.22
A TYR E 31 -162.4 160.9 N 26.43 CA 28.49 C 25.85 O 25.78 CB 23.93 CG 24.48 CD1 27.42 CD2 27.88 CE1 29.59 CE2 31.27 CZ 35.9 OH 35.13
A ARG E 72 -126.1 136.2 N 22.48 CA 22.45 C 26.95 O 23.9 CB 25.92 CG 26.58 CD 27.75 NE 30.16 CZ 32.09 NH1 29.81 NH2 29.02
A THR E 30 -98.7 144.3 N 22.59 CA 25.25 C 25.17 O 28.4 CB 29.7 OG1 31.84 CG2 28.61
A TRP E 33 -126.4 127.9 N 23.54 CA 24.99 C 24.83 O 24.2 CB 24.4 CG 21.19 CD1 17.96 CD2 24.23 NE1 20.61 CE2 20.52 CE3 23.73 CZ2 21.77 CZ3 26.32 CH2 32.17
A ARG E 90 -59.0 140.8 N 27.93 CA 27.26 C 24.54 O 25.03 CB 31.38 CG 31.7 CD 37.25 NE 36.45 CZ 41.37 NH1 34.3 NH2 40.48
A VAL H 24 -54.5 -48.4 N 26.52 CA 23.7 C 24.4 O 29.92 CB 24.1 CG1 31.33 CG2 26.79
A GLU H 107 -53.9 -38.9 N 27.92 CA 31.25 C 28.88 O 30.46 CB 38.43 CG 55.44 CD 71.8 OE1 66.63 OE2 64.83
A ASP H 59 -74.4 -35.7 N 26.98 CA 27.67 C 24.39 O 26.94 CB 27.0 CG 34.19 OD1 37.75 OD2 35.12
A TYR H 2 -63.1 -42.3 N 22.93 CA 24.92 C 26.72 O 26.17 CB 22.78 CG 25.35 CD1 25.4 CD2 27.31 CE1 22.94 CE2 23.64 CZ 25.96 OH 33.28
A VAL H 3 -61.9 -46.0 N 25.61 CA 28.74 C 31.01 O 32.18 CB 28.49 CG1 34.44 CG2 25.96
A GLU H 86 -59.6 -43.1 N 31.92 CA 29.5 C 34.72 O 33.8 CB 39.33 CG 50.63 CD 65.85 OE1 64.66 OE2 62.59
A ALA H 0 -64.0 -43.5 N 30.73 CA 33.08 C 31.33 O 31.86 CB 24.47
A TRP H 1 -57.5 -43.6 N 31.1 CA 27.58 C 34.32 O 33.8 CB 25.27 CG 29.65 CD1 26.25 CD2 27.99 NE1 33.19 CE2 31.47 CE3 26.14 CZ2 34.14 CZ3 37.59 CH2 34.76
A GLU H 39 -69.3 -35.0 N 33.22 CA 36.78 C 39.29 O 40.52 CB 33.87 CG 33.23 CD 38.12 OE1 46.33 OE2 40.08
A ARG H 172 -64.0 -40.4 N 34.5 CA 38.57 C 38.6 O 43.68 CB 34.51 CG 43.46 CD 49.47 NE 53.52 CZ 54.13 NH1 48.05 NH2 49.17
A TYR H 86 -74.2 -45.4 N 40.48 CA 40.88 C 39.66 O 42.23 CB 37.54 CG 38.61 CD1 42.03 CD2 41.66 CE1 43.64 CE2 45.05 CZ 48.37 OH 47.94
A HIS T 27 -86.1 2.4 N 36.25 CA 44.26 C 42.98 O 48.06 CB 38.27 CG 38.68 ND1 43.17 CD2 38.89 CE1 44.55 NE2 37.78
A GLY T 66 58.6 32.3 N 44.59 CA 42.96 C 45.91 O 50.7
A ARG S 77 -163.9 165.0 N 49.45 CA 44.51 C 41.06 O 41.56 CB 41.06 CG 38.94 CD 41.7 NE 38.74 CZ 44.05 NH1 38.58 NH2 42.6
A GLU - 147 -76.1 143.4 N 40.48 CA 40.26 C 43.95 O 38.08 CB 42.17 CG 57.13 CD 65.17 OE1 65.46 OE2 66.84
A MET - 1 -79.7 131.2 N 39.47 CA 40.84 C 41.7 O 42.99 CB 38.95 CG 36.63 SD 36.55 CE 31.8
A THR - 67 -77.9 175.4 N 44.11 CA 42.12 C 45.13 O 37.66 CB 39.45 OG1 39.46 CG2 40.74
A GLU H 135 -71.1 -43.2 N 40.74 CA 46.48 C 40.68 O 40.79 CB 51.82 CG 59.97 CD 73.44 OE1 70.42 OE2 74.79
A ASP H 119 -56.6 -38.8 N 42.86 CA 46.4 C 35.95 O 35.57 CB 45.33 CG 53.46 OD1 58.43 OD2 52.2
A GLU H 21 -71.7 -43.5 N 36.52 CA 37.51 C 33.43 O 29.83 CB 33.78 CG 38.41 CD 43.08 OE1 39.81 OE2 43.8
A ARG H 99 -59.8 -38.3 N 30.3 CA 31.31 C 31.5 O 29.34 CB 36.38 CG 35.19 CD 49.38 NE 52.27 CZ 51.27 NH1 47.24 NH2 53.53
A GLU H 139 -66.9 -34.2 N 30.73 CA 30.43 C 30.97 O 27.18 CB 39.87 CG 49.35 CD 61.94 OE1 62.32 OE2 64.09
A ASN H 44 -73.1 -43.6 N 28.88 CA 25.93 C 24.5 O 26.81 CB 24.8 CG 29.33 OD1 31.34 ND2 34.14
A LEU H 4 -54.0 -41.7 N 25.08 CA 26.14 C 24.97 O 27.07 CB 26.74 CG 26.93 CD1 23.17 CD2 24.13
A ALA T 32 -62.7 -8.7 N 25.22 CA 22.97 C 25.0 O 30.56 CB 22.63
A ARG T 72 -76.1 -8.4 N 29.4 CA 29.43 C 24.67 O 22.08 CB 32.9 CG 33.53 CD 31.24 NE 33.32 CZ 24.05 NH1 28.18 NH2 26.34
A GLY - 0 100.3 -145.0 N 18.41 CA 22.4 C 21.21 O 25.84
A ILE H 7 -66.0 -33.3 N 21.39 CA 26.21 C 24.36 O 25.54 CB 25.72 CG1 24.86 CG2 21.87 CD1 24.49
A GLY H 0 -65.8 -34.2 N 23.74 CA 22.32 C 24.52 O 24.0
A VAL H 0 -59.7 -43.9 N 23.55 CA 24.83 C 24.16 O 25.75 CB 28.39 CG1 25.74 CG2 23.92
A THR H 0 -74.2 -43.4 N 24.65 CA 28.56 C 24.91 O 23.65 CB 28.15 OG1 25.11 CG2 24.06
A VAL H 7 -59.1 -44.0 N 23.47 CA 25.97 C 27.98 O 26.8 CB 28.01 CG1 29.58 CG2 28.15
A VAL H 4 -63.4 -39.6 N 20.43 CA 23.32 C 26.55 O 27.58 CB 25.03 CG1 26.76 CG2 23.65
A ASN H 13 -72.5 -24.6 N 24.8 CA 28.75 C 25.62 O 27.22 CB 23.47 CG 25.91 OD1 26.06 ND2 26.55
A LEU H 1 -69.6 -26.2 N 23.76 CA 24.31 C 26.45 O 27.09 CB 23.9 CG 19.88 CD1 28.23 CD2 23.47
A ASN T 33 64.9 36.6 N 25.44 CA 30.1 C 30.43 O 36.99 CB 29.24 CG 36.17 OD1 37.84 ND2 33.42
A ARG - 21 -127.0 108.7 N 32.17 CA 33.0 C 38.61 O 35.09 CB 32.55 CG 36.72 CD 31.04 NE 35.15 CZ 33.84 NH1 27.42 NH2 30.84
A GLU T 166 -66.9 -18.8 N 35.81 CA 35.96 C 35.43 O 39.14 CB 37.62 CG 39.41 CD 42.73 OE1 36.7 OE2 42.61
A ASP T 68 -78.8 -3.7 N 32.55 CA 31.35 C 38.91 O 39.64 CB 34.48 CG 34.05 OD1 32.81 OD2 35.64
A LEU - 29 -111.7 135.0 N 35.04 CA 39.0 C 38.03 O 40.26 CB 31.12 CG 37.52 CD1 35.18 CD2 31.57
A SER S 78 -106.8 -30.9 N 34.22 CA 41.21 C 31.03 O 33.88 CB 36.62 OG 44.61
A ASN S 58 -119.3 150.7 N 28.77 CA 29.65 C 26.89 O 29.83 CB 26.28 CG 35.83 OD1 31.81 ND2 34.36
A PRO - 1 -66.5 131.1 N 29.55 CA 24.62 C 23.0 O 25.28 CB 24.92 CG 27.95 CD 25.12
A PRO - 23 -72.4 140.1 N 22.34 CA 26.65 C 23.22 O 23.1 CB 30.21 CG 26.74 CD 25.58
A LEU - 21 -108.3 11.7 N 21.37 CA 29.83 C 29.96 O 26.16 CB 20.66 CG 24.71 CD1 30.8 CD2 21.79
A ASN S 38 -50.6 -41.9 N 25.72 CA 32.62 C 27.56 O 21.88 CB 28.61 CG 34.51 OD1 39.61 ND2 40.04
A LEU S 1 -118.8 76.8 N 23.08 CA 24.42 C 22.5 O 21.78 CB 19.2 CG 28.03 CD1 26.57 CD2 19.24
A SER E 0 -113.0 139.9 N 23.87 CA 24.79 C 22.37 O 20.96 CB 20.15 OG 21.69
A PHE E 0 -135.8 153.2 N 20.92 CA 24.89 C 22.22 O 23.1 CB 20.38 CG 21.09 CD1 23.31 CD2 19.48 CE1 19.58 CE2 21.54 CZ 23.52
A GLY S 26 -69.5 -23.5 N 24.33 CA 25.06 C 26.65 O 25.86
A SER S 36 -132.8 147.5 N 21.28 CA 26.38 C 21.58 O 25.22 CB 29.25 OG 34.34
A LEU H 28 -57.0 -39.4 N 23.94 CA 19.3 C 23.21 O 24.42 CB 22.95 CG 21.93 CD1 20.46 CD2 21.16
A ARG H 196 -62.4 -38.6 N 25.23 CA 24.42 C 22.37 O 23.34 CB 24.17 CG 31.99 CD 34.76 NE 37.78 CZ 41.88 NH1 44.32 NH2 39.74
A THR H 32 -64.4 -44.3 N 21.54 CA 21.04 C 20.58 O 23.48 CB 23.23 OG1 23.78 CG2 26.79
A ALA H 0 -60.5 -37.9 N 20.79 CA 22.71 C 20.78 O 23.63 CB 16.92
A GLU H 68 -66.9 -35.3 N 20.17 CA 22.3 C 24.26 O 19.32 CB 20.74 CG 26.2 CD 27.8 OE1 23.72 OE2 20.64
A ALA H 39 -70.2 -36.6 N 21.9 CA 24.88 C 21.58 O 22.04 CB 23.57
A VAL H 0 -72.5 -38.9 N 23.04 CA 25.87 C 23.43 O 24.44 CB 20.76 CG1 21.91 CG2 18.49
A GLN H 22 -57.2 -49.7 N 26.88 CA 23.32 C 25.51 O 21.86 CB 23.94 CG 25.16 CD 27.23 OE1 26.39 NE2 22.94
A ALA H 61 -63.9 -39.9 N 23.5 CA 27.25 C 22.83 O 26.49 CB 22.91
A ALA H 10 -63.2 -46.3 N 21.95 CA 24.65 C 24.47 O 25.35 CB 20.72
A LEU H 0 -66.2 -43.0 N 22.01 CA 19.95 C 26.76 O 25.77 CB 20.19 CG 27.51 CD1 24.8 CD2 24.3
A ASN H 42 -59.9 -38.7 N 22.96 CA 27.26 C 29.21 O 28.61 CB 26.81 CG 28.54 OD1 23.62 ND2 26.57
A LYS H 157 -61.2 -42.3 N 26.95 CA 31.87 C 32.32 O 28.3 CB 28.62 CG 39.36 CD 49.05 CE 51.03 NZ 55.9
A ILE H 16 -69.7 -47.9 N 26.56 CA 30.11 C 30.3 O 31.51 CB 29.19 CG1 27.43 CG2 28.34 CD1 31.55
A VAL H 4 -71.4 -13.5 N 24.76 CA 24.37 C 29.34 O 31.11 CB 28.02 CG1 27.85 CG2 27.36
A ASP T 120 -71.4 -12.0 N 32.09 CA 33.16 C 36.86 O 30.74 CB 37.13 CG 55.52 OD1 54.09 OD2 54.18
A THR T 104 -92.2 7.8 N 33.38 CA 36.16 C 31.75 O 37.65 CB 33.43 OG1 36.23 CG2 32.21
A HIS - 99 52.4 57.4 N 32.45 CA 33.83 C 33.06 O 34.78 CB 34.38 CG 37.74 ND1 40.23 CD2 37.78 CE1 37.04 NE2 39.73
A PRO - 7 -77.3 153.5 N 29.39 CA 25.72 C 29.31 O 27.5 CB 26.54 CG 28.59 CD 28.91
A SER - 55 -74.7 163.0 N 28.25 CA 30.57 C 27.65 O 28.4 CB 31.45 OG 28.1
A PRO H 64 -49.6 -41.9 N 30.29 CA 26.45 C 29.04 O 28.63 CB 27.29 CG 29.57 CD 29.04
A ALA H 72 -66.8 -35.6 N 29.18 CA 26.63 C 30.16 O 29.42 CB 23.69
A GLN H 118 -71.1 -32.1 N 23.69 CA 30.8 C 26.82 O 28.03 CB 30.1 CG 31.83 CD 36.43 OE1 28.8 NE2 35.09
A TYR H 1 -65.8 -43.1 N 28.03 CA 26.01 C 23.3 O 27.04 CB 25.11 CG 30.52 CD1 20.43 CD2 24.97 CE1 23.05 CE2 28.78 CZ 27.35 OH 26.63
A GLU H 112 -62.9 -43.1 N 23.56 CA 24.66 C 31.22 O 31.21 CB 25.79 CG 31.8 CD 46.24 OE1 46.88 OE2 49.75
A ALA H 49 -64.7 -40.1 N 25.73 CA 30.12 C 28.53 O 32.6 CB 30.48
A ALA H 31 -67.5 -41.6 N 25.81 CA 26.55 C 29.03 O 31.49 CB 26.45
A VAL H 9 -59.0 -40.8 N 25.64 CA 30.73 C 31.69 O 28.82 CB 27.65 CG1 31.63 CG2 26.87
A ALA H 63 -63.8 -26.0 N 27.42 CA 31.42 C 33.65 O 35.86 CB 33.07
A LYS H 167 -93.7 -18.5 N 31.96 CA 36.18 C 37.23 O 35.26 CB 34.54 CG 44.86 CD 48.2 CE 53.32 NZ 60.83
A ASP - 27 -72.7 123.6 N 32.19 CA 32.98 C 30.35 O 32.75 CB 28.38 CG 34.0 OD1 34.58 OD2 40.4
A PRO T 92 -52.2 -33.8 N 33.4 CA 32.16 C 35.05 O 32.01 CB 30.34 CG 36.6 CD 31.41
A ILE T 63 -88.3 -49.0 N 28.97 CA 31.49 C 27.3 O 32.56 CB 33.67 CG1 33.06 CG2 29.56 CD1 47.14
A LEU G 1 -68.8 -29.9 N 26.93 CA 24.76 C 28.72 O 25.67 CB 30.59 CG 22.36 CD1 24.47 CD2 20.61
A LYS G 131 -68.7 -19.7 N 26.68 CA 26.91 C 31.91 O 34.51 CB 31.48 CG 28.23 CD 33.08 CE 35.19 NZ 49.74
A ARG G 104 -88.5 -3.3 N 27.77 CA 31.34 C 27.7 O 30.02 CB 29.28 CG 37.53 CD 40.59 NE 48.63 CZ 56.13 NH1 45.52 NH2 45.19
A LEU S 22 -93.7 158.6 N 25.24 CA 25.57 C 27.84 O 26.44 CB 28.47 CG 30.58 CD1 32.24 CD2 25.76
A LYS S 140 -94.6 146.7 N 23.58 CA 26.47 C 29.27 O 26.64 CB 27.83 CG 33.47 CD 42.9 CE 42.45 NZ 46.17
A ASN S 61 76.5 12.7 N 23.02 CA 24.52 C 21.63 O 23.69 CB 22.93 CG 32.93 OD1 29.2 ND2 30.42
A VAL H 5 -69.0 -39.5 N 22.2 CA 26.96 C 24.2 O 23.11 CB 27.76 CG1 25.41 CG2 25.55
A VAL H 65 -67.4 -45.1 N 25.38 CA 32.43 C 29.6 O 40.29 CB 34.41 CG1 30.98 CG2 32.72
A LYS H 141 -58.8 -27.7 N 33.15 CA 36.4 C 37.01 O 34.59 CB 39.49 CG 51.97 CD 50.34 CE 55.54 NZ 57.55
A ALA H 8 -67.6 -27.4 N 33.66 CA 30.99 C 33.86 O 33.53 CB 26.57
A LEU S 17 -71.8 126.4 N 27.84 CA 31.05 C 33.48 O 38.28 CB 28.44 CG 28.69 CD1 26.61 CD2 27.03
A PRO - 7 -81.4 103.7 N 38.1 CA 38.36 C 36.63 O 37.38 CB 33.94 CG 35.7 CD 34.53
A SER T 85 -53.1 -32.2 N 37.09 CA 41.94 C 35.27 O 40.49 CB 44.04 OG 59.92
A TRP T 128 -81.9 -9.9 N 32.18 CA 31.85 C 39.29 O 40.5 CB 33.53 CG 34.39 CD1 32.06 CD2 34.74 NE1 35.47 CE2 32.81 CE3 36.45 CZ2 37.95 CZ3 31.08 CH2 32.63
A ILE S 10 -99.1 125.2 N 27.8 CA 30.36 C 36.01 O 37.46 CB 32.05 CG1 33.06 CG2 25.64 CD1 31.58
A ASP - 73 -60.1 136.2 N 33.73 CA 35.7 C 35.95 O 34.17 CB 36.61 CG 45.11 OD1 51.57 OD2 53.97
A SER G 6 -64.7 -20.2 N 31.31 CA 38.49 C 31.75 O 30.35 CB 28.84 OG 33.92
A ALA G 42 -68.2 -19.2 N 32.14 CA 35.78 C 38.86 O 38.04 CB 32.65
A LYS G 113 -95.9 9.8 N 30.15 CA 29.78 C 32.9 O 30.93 CB 26.59 CG 33.02 CD 42.63 CE 44.09 NZ 57.92
A LEU E 2 -111.7 151.4 N 31.18 CA 26.84 C 28.67 O 30.57 CB 29.07 CG 29.93 CD1 28.85 CD2 24.49
A LYS E 73 -142.2 142.3 N 30.46 CA 26.49 C 26.37 O 26.41 CB 26.83 CG 34.27 CD 41.3 CE 46.87 NZ 55.9
A ALA E 1 -75.9 128.9 N 26.25 CA 26.22 C 25.21 O 26.77 CB 26.67
A SER E 5 -126.4 164.0 N 23.88 CA 22.27 C 23.95 O 25.07 CB 24.42 OG 30.06
A ILE E 0 -122.4 140.2 N 22.3 CA 20.17 C 21.57 O 24.1 CB 19.21 CG1 23.53 CG2 19.6 CD1 21.16
A PHE E 0 -140.7 161.6 N 22.42 CA 20.07 C 20.29 O 21.8 CB 19.71 CG 23.49 CD1 24.65 CD2 28.93 CE1 25.6 CE2 22.38 CZ 23.78
A SER E 0 -118.2 132.1 N 22.36 CA 19.42 C 20.77 O 25.04 CB 18.77 OG 21.72
A LYS E 0 -116.1 132.3 N 17.39 CA 18.04 C 19.78 O 22.59 CB 19.37 CG 19.82 CD 27.39 CE 26.15 NZ 19.86
A ARG E 13 -111.0 138.6 N 18.03 CA 19.79 C 23.34 O 22.25 CB 20.29 CG 19.92 CD 21.71 NE 19.06 CZ 20.89 NH1 18.32 NH2 20.31
A PHE E 0 -157.0 178.9 N 20.45 CA 21.2 C 22.52 O 23.5 CB 20.7 CG 24.42 CD1 20.21 CD2 25.63 CE1 24.06 CE2 22.68 CZ 21.5
A TYR - 31 -105.3 135.9 N 26.99 CA 27.34 C 25.49 O 23.86 CB 22.85 CG 28.33 CD1 29.92 CD2 31.68 CE1 34.83 CE2 32.83 CZ 38.52 OH 41.43
A SER S 0 -74.7 -29.9 N 26.51 CA 30.53 C 29.59 O 28.6 CB 31.74 OG 31.55
A TRP - 59 -81.9 73.6 N 27.79 CA 33.38 C 30.74 O 30.76 CB 29.75 CG 35.54 CD1 36.78 CD2 35.65 NE1 35.22 CE2 40.5 CE3 39.97 CZ2 42.3 CZ3 43.94 CH2 46.1
A GLN - 0 -80.9 -14.5 N 29.29 CA 26.43 C 32.35 O 33.05 CB 26.66 CG 27.4 CD 27.53 OE1 28.96 NE2 25.33
A ASN S 46 -132.2 118.3 N 30.64 CA 33.79 C 34.47 O 29.77 CB 36.33 CG 39.54 OD1 40.76 ND2 39.19
A PRO T 47 -62.3 -16.8 N 34.13 CA 32.8 C 38.74 O 34.49 CB 38.86 CG 35.27 CD 34.72
A ASP T 143 -76.2 -23.1 N 39.83 CA 44.05 C 44.41 O 42.86 CB 45.08 CG 56.23 OD1 53.3 OD2 54.72
A TRP S 20 -58.1 144.7 N 34.68 CA 32.2 C 35.65 O 36.48 CB 31.56 CG 26.94 CD1 27.53 CD2 31.26 NE1 29.46 CE2 31.69 CE3 26.48 CZ2 33.9 CZ3 26.91 CH2 28.29
A SER - 69 -68.8 164.6 N 29.6 CA 34.08 C 34.92 O 35.76 CB 34.77 OG 33.22
A GLU H 121 -62.6 -35.5 N 36.48 CA 40.19 C 35.79 O 32.54 CB 38.81 CG 46.5 CD 59.89 OE1 63.71 OE2 58.02
A GLU H 154 -65.7 -40.0 N 32.48 CA 37.49 C 32.02 O 32.1 CB 38.83 CG 47.74 CD 67.48 OE1 65.46 OE2 67.44
A ARG H 120 -66.3 -46.4 N 30.94 CA 33.18 C 31.85 O 25.83 CB 27.39 CG 27.71 CD 30.44 NE 29.94 CZ 34.38 NH1 34.89 NH2 32.61
A ALA H 0 -56.2 -41.1 N 28.62 CA 29.48 C 29.28 O 32.0 CB 29.31
A HIS H 72 -90.2 -1.6 N 27.76 CA 32.4 C 31.71 O 29.35 CB 31.29 CG 35.54 ND1 39.14 CD2 39.75 CE1 42.07 NE2 43.72
A THR H 78 -118.0 -13.5 N 27.65 CA 28.46 C 28.29 O 30.41 CB 34.18 OG1 30.3 CG2 31.8
A THR T 32 -61.5 -36.9 N 27.75 CA 26.75 C 23.17 O 26.91 CB 29.09 OG1 29.87 CG2 27.87
A TYR T 1 -106.0 25.8 N 24.23 CA 27.88 C 26.3 O 23.67 CB 19.91 CG 23.5 CD1 19.79 CD2 23.46 CE1 21.41 CE2 22.16 CZ 28.47 OH 25.54
A ARG - 121 -73.3 136.8 N 29.38 CA 27.87 C 30.73 O 26.73 CB 27.49 CG 36.6 CD 38.97 NE 33.17 CZ 33.55 NH1 33.25 NH2 32.75
A PRO - 37 -66.7 140.8 N 23.27 CA 26.47 C 24.09 O 26.89 CB 24.67 CG 26.98 CD 28.36
A ASP - 77 -49.9 124.0 N 24.48 CA 26.46 C 32.8 O 28.3 CB 24.2 CG 28.59 OD1 27.94 OD2 30.03
A ARG T 256 -57.6 -18.9 N 29.12 CA 34.04 C 34.83 O 37.92 CB 36.28 CG 39.9 CD 45.41 NE 53.83 CZ 48.3 NH1 40.31 NH2 47.46
A GLU T 125 -102.8 -43.7 N 28.17 CA 28.12 C 29.74 O 28.85 CB 31.88 CG 44.68 CD 55.25 OE1 57.19 OE2 56.67
A THR T 14 -105.5 -8.0 N 25.21 CA 29.81 C 27.05 O 24.93 CB 25.0 OG1 26.32 CG2 25.08
A ASP - 35 67.4 11.4 N 23.61 CA 22.41 C 27.97 O 23.8 CB 27.4 CG 33.33 OD1 33.35 OD2 36.02
A GLN B 16 -81.3 139.0 N 24.16 CA 22.87 C 21.22 O 22.74 CB 19.32 CG 18.5 CD 24.13 OE1 25.21 NE2 23.66
A VAL - 3 -105.0 127.1 N 22.77 CA 23.46 C 25.91 O 23.47 CB 23.91 CG1 20.93 CG2 24.14
A ASP - 90 -75.6 112.9 N 22.52 CA 25.08 C 25.46 O 23.98 CB 27.48 CG 33.3 OD1 30.64 OD2 42.72
A MET - 16 -103.8 8.5 N 24.59 CA 25.61 C 27.51 O 25.4 CB 27.19 CG 23.62 SD 28.82 CE 24.17
A SER T 99 -66.0 -25.5 N 29.47 CA 32.43 C 29.81 O 35.07 CB 29.98 OG 34.02
A THR T 43 -82.9 -4.7 N 28.23 CA 27.65 C 29.59 O 29.22 CB 25.92 OG1 28.44 CG2 32.02
A TYR - 21 -71.1 131.6 N 29.48 CA 27.35 C 30.24 O 30.15 CB 26.68 CG 25.93 CD1 23.48 CD2 24.9 CE1 24.39 CE2 28.27 CZ 30.85 OH 28.7
A ARG - 143 -123.6 14.2 N 30.82 CA 26.95 C 26.08 O 27.89 CB 34.12 CG 42.57 CD 50.47 NE 60.76 CZ 64.85 NH1 48.11 NH2 57.48
A TYR - 78 58.9 28.1 N 24.85 CA 23.73 C 24.88 O 24.6 CB 25.77 CG 24.08 CD1 24.42 CD2 24.52 CE1 28.11 CE2 32.32 CZ 32.93 OH 30.4
A ARG - 43 -80.2 131.3 N 20.44 CA 24.51 C 28.77 O 23.68 CB 26.52 CG 26.84 CD 27.17 NE 30.56 CZ 34.07 NH1 33.24 NH2 36.63
A ALA - 21 -82.4 149.8 N 24.99 CA 24.03 C 26.85 O 28.61 CB 22.87
A ARG - 62 -57.2 125.2 N 27.54 CA 27.74 C 26.17 O 25.63 CB 25.21 CG 25.74 CD 32.78 NE 33.82 CZ 37.51 NH1 28.98 NH2 30.24
A PRO T 66 -51.3 124.6 N 32.42 CA 32.3 C 31.47 O 30.52 CB 29.41 CG 39.15 CD 33.06
A GLY T 29 90.0 2.7 N 29.99 CA 29.53 C 32.99 O 36.55
A TYR S 26 -129.1 175.3 N 27.15 CA 26.34 C 27.34 O 27.13 CB 23.19 CG 28.35 CD1 30.91 CD2 25.15 CE1 29.9 CE2 30.29 CZ 29.02 OH 33.12
A VAL - 48 -78.4 145.2 N 29.77 CA 28.01 C 25.7 O 27.4 CB 30.15 CG1 27.73 CG2 35.22
A ASN S 44 -63.9 -44.3 N 27.47 CA 29.64 C 23.59 O 25.67 CB 31.45 CG 34.45 OD1 38.41 ND2 38.74
A PHE - 16 -154.1 170.0 N 23.45 CA 23.66 C 24.29 O 23.84 CB 25.03 CG 28.17 CD1 27.24 CD2 28.53 CE1 28.7 CE2 29.28 CZ 32.93
A ASP E 5 -130.0 147.0 N 21.12 CA 22.58 C 19.85 O 21.36 CB 23.58 CG 30.06 OD1 27.6 OD2 36.58
A TYR E 0 -121.9 134.3 N 19.93 CA 19.86 C 22.39 O 20.34 CB 19.55 CG 22.07 CD1 20.62 CD2 21.5 CE1 26.58 CE2 23.23 CZ 24.19 OH 30.03
A GLY E 0 -126.4 119.4 N 20.05 CA 18.96 C 20.84 O 19.69
A TRP E 25 -79.7 127.0 N 20.47 CA 19.74 C 22.02 O 22.01 CB 17.18 CG 23.64 CD1 23.83 CD2 23.76 NE1 25.15 CE2 24.25 CE3 24.43 CZ2 22.89 CZ3 30.67 CH2 20.74
A PHE E 6 -81.5 108.6 N 17.21 CA 19.36 C 20.65 O 22.3 CB 20.35 CG 17.71 CD1 18.88 CD2 20.32 CE1 21.69 CE2 20.46 CZ 21.02
A ASP E 13 -91.9 103.2 N 21.79 CA 23.26 C 22.98 O 23.12 CB 24.79 CG 34.47 OD1 32.07 OD2 41.54
A GLN T 85 -87.9 1.5 N 24.58 CA 25.84 C 31.19 O 31.43 CB 25.8 CG 23.6 CD 23.9 OE1 28.47 NE2 24.42
A ASP T 97 -75.3 -44.5 N 27.02 CA 31.11 C 31.0 O 33.68 CB 27.33 CG 38.06 OD1 34.73 OD2 44.01
A THR T 20 -111.8 -0.4 N 29.99 CA 26.95 C 25.92 O 29.01 CB 30.53 OG1 30.04 CG2 30.86
A ASN T 107 60.7 44.0 N 29.94 CA 26.14 C 24.91 O 25.36 CB 23.57 CG 27.41 OD1 26.06 ND2 25.38
A THR E 4 -123.5 167.3 N 20.99 CA 20.58 C 21.83 O 23.56 CB 19.37 OG1 26.04 CG2 21.62
A TRP E 1 -122.1 120.5 N 20.06 CA 18.47 C 21.06 O 25.39 CB 20.08 CG 21.59 CD1 21.43 CD2 20.38 NE1 21.36 CE2 20.82 CE3 20.08 CZ2 19.72 CZ3 18.38 CH2 20.77
A TRP E 4 -99.3 121.9 N 21.1 CA 19.07 C 21.38 O 20.04 CB 20.01 CG 24.81 CD1 27.39 CD2 24.63 NE1 25.58 CE2 23.85 CE3 18.68 CZ2 22.43 CZ3 21.36 CH2 22.84
A HIS E 4 -144.0 -161.9 N 21.89 CA 18.89 C 19.63 O 20.81 CB 19.93 CG 18.14 ND1 24.7 CD2 23.66 CE1 26.29 NE2 21.78
A ALA E 1 -159.2 171.1 N 20.53 CA 24.5 C 21.04 O 26.88 CB 18.33
A ASN S 27 -84.1 -48.4 N 27.29 CA 25.32 C 27.01 O 26.29 CB 26.19 CG 27.08 OD1 26.22 ND2 28.58
A HIS S 58 -170.4 178.0 N 23.12 CA 26.96 C 26.72 O 26.55 CB 20.68 CG 29.71 ND1 26.72 CD2 22.56 CE1 26.57 NE2 29.27
A GLU S 97 -65.7 159.2 N 25.81 CA 27.67 C 27.94 O 30.56 CB 32.3 CG 34.6 CD 52.46 OE1 45.45 OE2 63.58
A GLU S 79 -56.4 149.5 N 24.82 CA 27.86 C 35.82 O 34.71 CB 28.07 CG 27.43 CD 39.47 OE1 33.61 OE2 37.09
A PRO S 105 -79.2 175.5 N 34.03 CA 31.94 C 28.94 O 28.56 CB 30.83 CG 30.54 CD 30.81
A ARG S 76 57.3 27.7 N 29.8 CA 28.48 C 28.53 O 24.48 CB 27.55 CG 29.99 CD 25.97 NE 28.56 CZ 28.18 NH1 28.89 NH2 25.89
A MET - 9 -65.4 137.9 N 28.07 CA 29.03 C 27.05 O 25.73 CB 24.08 CG 25.0 SD 24.26 CE 19.27
A VAL E 11 -126.5 134.4 N 24.06 CA 22.07 C 20.58 O 20.8 CB 23.9 CG1 21.82 CG2 28.5
A VAL E 0 -88.8 138.5 N 20.36 CA 19.73 C 22.38 O 22.94 CB 23.61 CG1 19.21 CG2 22.53
A TYR E 42 -116.3 143.0 N 19.96 CA 17.92 C 22.82 O 20.72 CB 21.86 CG 22.9 CD1 29.93 CD2 30.32 CE1 27.05 CE2 32.51 CZ 27.18 OH 35.17
A GLN E 0 -120.9 106.6 N 19.94 CA 16.45 C 25.89 O 24.84 CB 19.14 CG 20.38 CD 26.47 OE1 25.37 NE2 22.35
A SER E 0 -118.0 156.8 N 19.96 CA 24.19 C 23.33 O 22.67 CB 23.54 OG 24.97
A THR - 42 -66.4 157.7 N 22.75 CA 22.2 C 21.16 O 18.71 CB 21.99 OG1 19.74 CG2 21.07
A LEU H 52 -58.7 -42.3 N 20.23 CA 20.34 C 22.42 O 22.02 CB 21.56 CG 26.77 CD1 23.8 CD2 26.9
A ARG H 213 -58.4 -41.0 N 22.38 CA 21.85 C 23.67 O 22.39 CB 25.4 CG 32.86 CD 38.59 NE 56.96 CZ 62.26 NH1 66.06 NH2 58.6
A HIS H 35 -72.5 -44.0 N 18.87 CA 18.25 C 23.1 O 22.79 CB 22.01 CG 26.28 ND1 25.67 CD2 26.63 CE1 28.32 NE2 28.83
A TYR H 0 -57.4 -35.1 N 21.91 CA 17.94 C 21.36 O 20.19 CB 16.83 CG 21.22 CD1 20.08 CD2 23.52 CE1 22.78 CE2 18.82 CZ 22.17 OH 23.06
A SER T 33 -93.0 -0.7 N 23.73 CA 21.56 C 25.07 O 26.37 CB 21.13 OG 20.96
A ARG - 77 -55.4 148.6 N 22.01 CA 25.81 C 27.57 O 27.0 CB 25.22 CG 24.2 CD 25.18 NE 28.4 CZ 29.92 NH1 28.07 NH2 28.95
A PRO - 127 -53.1 130.8 N 25.9 CA 29.27 C 25.61 O 30.89 CB 28.5 CG 26.91 CD 28.14
A LEU - 30 -143.7 149.3 N 25.01 CA 24.54 C 29.67 O 30.29 CB 24.26 CG 25.66 CD1 25.49 CD2 26.95
A GLN S 102 -67.2 -26.5 N 30.7 CA 26.4 C 24.47 O 26.29 CB 30.65 CG 30.19 CD 36.75 OE1 34.41 NE2 38.97
A ASP S 3 -64.4 -37.9 N 22.22 CA 27.18 C 25.07 O 27.5 CB 27.7 CG 29.95 OD1 34.07 OD2 31.96
A PHE - 11 -128.6 142.4 N 22.74 CA 23.93 C 26.38 O 25.4 CB 23.2 CG 23.31 CD1 21.88 CD2 22.38 CE1 25.97 CE2 27.75 CZ 23.46
A ASP S 69 -126.9 7.1 N 28.39 CA 30.55 C 24.56 O 28.08 CB 28.97 CG 30.18 OD1 26.86 OD2 35.39
A GLU E 16 -132.4 145.4 N 20.54 CA 23.96 C 25.24 O 20.35 CB 22.86 CG 23.52 CD 31.96 OE1 27.25 OE2 35.64
A GLN E 42 -143.3 132.7 N 22.14 CA 24.12 C 22.33 O 24.78 CB 20.91 CG 22.0 CD 25.39 OE1 27.51 NE2 21.25
A VAL E 1 -125.3 158.8 N 19.62 CA 22.27 C 23.62 O 20.14 CB 22.78 CG1 19.16 CG2 19.22
A PHE E 17 -117.7 124.2 N 20.53 CA 22.76 C 20.55 O 23.35 CB 22.92 CG 23.95 CD1 23.25 CD2 25.26 CE1 21.83 CE2 26.78 CZ 20.15
A THR E 0 -121.6 136.9 N 19.07 CA 20.0 C 18.3 O 21.16 CB 20.11 OG1 24.12 CG2 21.32
A VAL E 3 -107.3 132.5 N 22.49 CA 21.73 C 26.33 O 23.74 CB 21.32 CG1 25.36 CG2 22.87
A ALA E 4 -146.4 155.9 N 22.25 CA 22.84 C 27.14 O 25.75 CB 24.27
A PHE E 2 -81.2 129.0 N 23.37 CA 24.55 C 23.08 O 23.56 CB 21.97 CG 26.75 CD1 24.92 CD2 21.16 CE1 24.5 CE2 24.46 CZ 21.31
A ALA E 0 -105.7 154.1 N 25.87 CA 26.01 C 20.33 O 23.78 CB 23.13
A LYS E 61 -92.4 125.6 N 26.12 CA 27.59 C 35.25 O 33.44 CB 33.57 CG 37.34 CD 45.67 CE 44.41 NZ 48.96
A LYS - 82 -57.2 161.6 N 32.85 CA 40.53 C 43.23 O 41.9 CB 37.45 CG 40.0 CD 35.41 CE 41.02 NZ 46.61
A ASP - 142 -64.2 360.0 N 44.53 CA 51.29 C 53.75 O 53.23 CB 53.38 CG 58.07 OD1 62.65 OD2 62.65 OXT 62.32
B ALA - 128 360.0 88.0 N 51.66 CA 57.52 C 52.07 O 56.05 CB 46.33
B PRO - 63 -56.3 157.8 N 47.46 CA 47.94 C 49.0 O 46.82 CB 47.42 CG 50.04 CD 48.7
B LEU S 18 -59.9 -30.0 N 48.98 CA 44.74 C 41.91 O 44.71 CB 41.77 CG 39.48 CD1 36.83 CD2 41.38
B ALA S 3 -157.6 153.6 N 43.92 CA 44.17 C 46.14 O 43.24 CB 38.88
B PRO - 73 -66.5 155.7 N 41.16 CA 45.45 C 45.03 O 40.19 CB 41.06 CG 42.38 CD 39.87
B PRO - 90 -49.7 156.2 N 43.28 CA 44.39 C 43.43 O 43.35 CB 45.96 CG 43.55 CD 46.87
B LEU - 30 -71.2 152.1 N 44.99 CA 46.67 C 50.61 O 45.33 CB 38.96 CG 41.48 CD1 34.77 CD2 39.03
B ALA - 64 -63.0 141.1 N 52.27 CA 55.01 C 60.37 O 63.05 CB 52.08
B GLU T 118 -49.8 -27.9 N 68.9 CA 71.89 C 67.18 O 65.27 CB 79.77 CG 78.0 CD 81.5 OE1 81.92 OE2 80.21
B ASP T 154 -98.1 4.2 N 65.59 CA 67.99 C 64.45 O 66.19 CB 75.28 CG 86.94 OD1 80.68 OD2 87.5
B ARG - 157 -107.4 138.4 N 54.57 CA 51.49 C 48.72 O 45.0 CB 49.44 CG 55.36 CD 61.15 NE 71.51 CZ 69.17 NH1 67.14 NH2 63.54
B SER S 67 -84.0 -32.0 N 38.93 CA 39.32 C 39.36 O 35.2 CB 32.96 OG 47.4
B TYR E 100 -158.1 171.7 N 41.55 CA 37.18 C 40.63 O 37.87 CB 28.23 CG 37.17 CD1 38.03 CD2 39.8 CE1 42.82 CE2 42.7 CZ 50.57 OH 50.39
B ARG E 108 -131.8 132.1 N 32.77 CA 35.75 C 40.37 O 40.22 CB 36.18 CG 41.33 CD 44.2 NE 55.5 CZ 60.52 NH1 52.78 NH2 52.6
B THR E 75 -90.1 135.4 N 37.98 CA 33.9 C 40.38 O 46.25 CB 37.05 OG1 41.08 CG2 37.03
B TRP E 19 -119.5 128.7 N 37.13 CA 37.73 C 41.14 O 42.47 CB 37.87 CG 37.69 CD1 32.78 CD2 36.42 NE1 35.2 CE2 38.81 CE3 40.96 CZ2 41.02 CZ3 39.56 CH2 41.19
B ARG E 139 -68.6 144.1 N 45.27 CA 54.06 C 44.99 O 49.61 CB 56.04 CG 56.68 CD 71.66 NE 73.25 CZ 72.84 NH1 72.1 NH2 69.0
B VAL H 18 -51.8 -46.6 N 44.65 CA 45.39 C 47.11 O 43.26 CB 45.48 CG1 46.02 CG2 44.33
B GLU H 114 -59.3 -43.9 N 45.12 CA 47.29 C 42.21 O 46.96 CB 58.71 CG 56.7 CD 66.36 OE1 63.64 OE2 69.67
B ASP H 62 -67.9 -31.3 N 45.02 CA 44.28 C 46.31 O 50.57 CB 49.27 CG 61.52 OD1 65.57 OD2 63.48
B TYR H 2 -68.0 -50.9 N 44.51 CA 38.63 C 36.18 O 38.7 CB 38.24 CG 34.24 CD1 34.32 CD2 38.2 CE1 36.72 CE2 37.25 CZ 33.92 OH 36.22
B VAL H 3 -55.8 -38.1 N 35.71 CA 42.17 C 46.65 O 48.62 CB 45.13 CG1 43.83 CG2 39.51
B GLU H 131 -66.5 -47.3 N 43.41 CA 46.6 C 45.35 O 45.72 CB 56.89 CG 60.99 CD 77.89 OE1 77.96 OE2 87.12
B ALA H 15 -61.1 -39.1 N 45.78 CA 43.03 C 38.07 O 43.97 CB 37.7
B TRP H 2 -64.6 -46.8 N 38.67 CA 40.44 C 45.38 O 42.26 CB 28.49 CG 39.36 CD1 38.76 CD2 33.93 NE1 34.89 CE2 40.35 CE3 43.29 CZ2 37.99 CZ3 44.09 CH2 47.62
B GLU H 38 -65.1 -30.8 N 43.77 CA 45.89 C 47.89 O 49.36 CB 40.76 CG 48.44 CD 54.42 OE1 49.37 OE2 56.29
B ARG H 226 -72.3 -45.0 N 44.97 CA 44.89 C 48.98 O 48.1 CB 53.3 CG 60.07 CD 70.92 NE 88.78 CZ 94.4 NH1 90.51 NH2 93.04
B TYR H 88 -70.2 -45.9 N 47.66 CA 45.24 C 50.73 O 47.35 CB 44.7 CG 49.44 CD1 50.73 CD2 49.13 CE1 50.03 CE2 50.33 CZ 57.33 OH 56.02
B HIS S 15 -80.2 170.2 N 46.55 CA 52.01 C 58.35 O 64.04 CB 49.42 CG 49.82 ND1 52.64 CD2 49.63 CE1 47.09 NE2 46.81
B GLY S 79 -88.8 15.6 N 53.06 CA 62.4 C 60.08 O 67.44
B ARG S 74 -153.7 174.2 N 52.88 CA 52.99 C 55.69 O 52.29 CB 50.89 CG 50.39 CD 46.89 NE 52.53 CZ 57.05 NH1 58.01 NH2 61.27
B GLU - 150 -83.6 148.6 N 52.2 CA 55.29 C 54.64 O 55.88 CB 60.67 CG 70.73 CD 79.66 OE1 76.41 OE2 80.93
B MET - 5 -77.1 131.6 N 52.87 CA 52.0 C 51.86 O 53.37 CB 50.36 CG 47.61 SD 48.12 CE 40.54
B THR - 65 -75.9 169.8 N 51.96 CA 50.47 C 51.69 O 50.95 CB 52.39 OG1 49.85 CG2 48.31
B GLU H 156 -58.6 -47.7 N 53.87 CA 54.37 C 50.74 O 51.56 CB 56.31 CG 67.52 CD 80.38 OE1 76.21 OE2 80.45
B ASP H 108 -61.0 -35.8 N 50.93 CA 53.06 C 49.18 O 40.58 CB 54.55 CG 71.11 OD1 72.75 OD2 80.03
B GLU H 24 -72.4 -42.9 N 43.91 CA 47.76 C 46.9 O 41.81 CB 44.82 CG 42.82 CD 47.69 OE1 50.46 OE2 59.03
B ARG H 116 -60.9 -33.6 N 47.15 CA 45.26 C 42.14 O 41.73 CB 45.71 CG 48.6 CD 51.13 NE 52.71 CZ 48.88 NH1 49.73 NH2 50.7
B GLU H 132 -67.2 -45.1 N 42.67 CA 41.17 C 42.74 O 37.58 CB 46.4 CG 55.15 CD 63.29 OE1 64.87 OE2 72.15
B ASN H 42 -60.2 -46.0 N 40.56 CA 36.46 C 33.45 O 36.23 CB 32.99 CG 39.6 OD1 42.61 ND2 44.28
B LEU H 4 -57.6 -31.6 N 33.16 CA 36.05 C 39.9 O 39.77 CB 30.27 CG 36.93 CD1 31.66 CD2 35.64
B ALA T 32 -69.5 -6.6 N 37.54 CA 41.33 C 43.27 O 39.45 CB 34.29
B ARG T 73 -84.0 -2.9 N 39.76 CA 34.1 C 34.71 O 38.18 CB 44.13 CG 40.57 CD 38.34 NE 42.24 CZ 44.78 NH1 41.47 NH2 37.87
B GLY - 0 104.3 -146.0 N 33.63 CA 36.47 C 35.66 O 27.78
B ILE H 4 -62.9 -33.9 N 27.97 CA 30.43 C 32.67 O 29.13 CB 29.93 CG1 30.38 CG2 28.64 CD1 23.47
B GLY H 0 -71.1 -30.5 N 36.49 CA 30.79 C 29.86 O 32.71
B VAL H 0 -61.8 -42.8 N 25.7 CA 31.14 C 31.06 O 27.44 CB 30.97 CG1 30.37 CG2 27.35
B THR H 0 -75.7 -41.0 N 27.05 CA 30.35 C 28.91 O 27.74 CB 29.3 OG1 29.98 CG2 27.17
B VAL H 6 -59.9 -44.3 N 28.61 CA 28.7 C 29.56 O 29.36 CB 26.85 CG1 32.68 CG2 28.06
B VAL H 4 -62.4 -42.4 N 26.45 CA 30.88 C 35.14 O 32.73 CB 28.04 CG1 29.61 CG2 30.7
B ASN H 16 -68.5 -25.1 N 27.83 CA 27.62 C 27.87 O 31.8 CB 28.37 CG 33.94 OD1 33.95 ND2 32.28
B LEU H 0 -69.4 -21.5 N 28.65 CA 26.84 C 31.86 O 32.5 CB 28.28 CG 31.75 CD1 29.96 CD2 27.97
B ASN T 25 58.3 39.4 N 28.94 CA 30.42 C 34.12 O 40.64 CB 30.77 CG 44.19 OD1 37.77 ND2 43.52
B ARG - 23 -125.9 112.9 N 31.98 CA 35.3 C 38.49 O 36.29 CB 32.41 CG 37.31 CD 25.7 NE 26.84 CZ 32.08 NH1 29.35 NH2 29.31
B GLU T 169 -71.1 -13.1 N 36.96 CA 34.15 C 31.94 O 40.13 CB 31.97 CG 34.58 CD 39.61 OE1 35.14 OE2 36.44
B ASP T 69 -86.2 -6.0 N 30.44 CA 34.01 C 37.63 O 39.99 CB 33.25 CG 35.86 OD1 37.19 OD2 41.03
B LEU - 29 -107.5 135.4 N 38.59 CA 36.02 C 37.42 O 41.44 CB 32.82 CG 37.42 CD1 37.01 CD2 39.37
B SER S 73 -106.1 -31.8 N 36.08 CA 40.99 C 36.49 O 36.35 CB 40.46 OG 47.76
B ASN S 56 -122.4 146.3 N 34.24 CA 29.63 C 31.9 O 29.4 CB 29.66 CG 33.11 OD1 30.91 ND2 40.37
B PRO - 1 -59.0 130.9 N 33.2 CA 29.75 C 26.94 O 31.57 CB 27.55 CG 30.41 CD 28.29
B PRO - 21 -76.9 140.4 N 31.87 CA 26.28 C 25.88 O 26.34 CB 28.08 CG 27.96 CD 28.91
B LEU - 23 -109.0 19.6 N 25.31 CA 27.56 C 29.3 O 27.32 CB 25.86 CG 30.56 CD1 29.82 CD2 28.21
B ASN S 38 -57.4 -38.2 N 26.91 CA 27.4 C 23.85 O 23.28 CB 24.91 CG 27.26 OD1 34.89 ND2 35.23
B LEU E 1 -121.5 78.9 N 20.56 CA 19.78 C 22.7 O 19.14 CB 18.23 CG 25.08 CD1 20.69 CD2 20.79
B SER E 0 -110.5 140.6 N 20.55 CA 23.54 C 20.7 O 21.54 CB 21.51 OG 22.47
B PHE E 0 -133.5 155.2 N 18.93 CA 20.36 C 22.34 O 20.79 CB 20.45 CG 19.12 CD1 22.28 CD2 20.25 CE1 23.4 CE2 20.89 CZ 22.13
B GLY S 23 -69.4 -21.8 N 19.12 CA 19.76 C 22.8 O 25.85
B SER S 37 -137.6 154.3 N 22.81 CA 23.16 C 26.15 O 18.67 CB 26.04 OG 27.78
B LEU H 12 -62.8 -33.6 N 21.49 CA 21.67 C 28.94 O 24.53 CB 23.41 CG 23.65 CD1 22.37 CD2 26.1
B ARG H 41 -60.9 -43.4 N 21.61 CA 24.55 C 22.96 O 21.02 CB 22.19 CG 23.66 CD 27.59 NE 32.64 CZ 34.31 NH1 25.11 NH2 29.63
B THR H 32 -68.5 -43.4 N 22.61 CA 22.82 C 21.33 O 20.74 CB 22.56 OG1 26.74 CG2 20.72
B ALA H 0 -58.5 -40.5 N 20.61 CA 26.05 C 24.6 O 21.86 CB 24.76
B GLU H 21 -63.6 -39.9 N 21.49 CA 23.11 C 21.87 O 22.31 CB 20.96 CG 27.5 CD 35.06 OE1 33.36 OE2 32.91
B ALA H 39 -68.7 -37.8 N 17.2 CA 23.94 C 23.59 O 24.27 CB 22.01
B VAL H 0 -72.5 -40.1 N 21.33 CA 25.21 C 23.69 O 23.51 CB 19.83 CG1 21.18 CG2 19.89
B GLN H 22 -56.2 -47.3 N 19.14 CA 22.68 C 23.61 O 22.44 CB 21.44 CG 24.36 CD 29.57 OE1 27.81 NE2 24.76
B ALA H 60 -63.3 -39.6 N 21.64 CA 24.41 C 25.04 O 23.98 CB 19.77
B ALA H 9 -66.5 -41.9 N 20.12 CA 25.31 C 23.26 O 27.68 CB 20.74
B LEU H 1 -69.2 -42.1 N 19.79 CA 20.73 C 24.95 O 25.68 CB 19.99 CG 21.3 CD1 24.46 CD2 24.43
B ASN H 39 -62.0 -40.9 N 21.4 CA 26.42 C 28.3 O 25.29 CB 23.57 CG 31.97 OD1 27.73 ND2 31.57
B LYS H 153 -60.5 -38.6 N 25.46 CA 26.67 C 30.78 O 32.03 CB 27.03 CG 38.29 CD 42.27 CE 43.61 NZ 56.1
B ILE H 13 -72.2 -49.6 N 28.58 CA 27.32 C 29.5 O 26.68 CB 28.14 CG1 28.87 CG2 26.77 CD1 23.27
B VAL H 1 -68.9 -21.4 N 24.16 CA 28.56 C 28.85 O 26.19 CB 27.09 CG1 22.63 CG2 26.27
B ASP T 99 -66.5 -19.3 N 30.55 CA 28.28 C 31.42 O 31.33 CB 38.49 CG 48.46 OD1 50.2 OD2 51.93
B THR T 102 -80.3 0.3 N 28.08 CA 30.82 C 29.72 O 28.98 CB 31.35 OG1 26.3 CG2 30.6
B HIS - 114 55.4 58.7 N 25.2 CA 27.65 C 27.31 O 26.24 CB 29.18 CG 28.95 ND1 28.07 CD2 31.96 CE1 32.69 NE2 35.68
B PRO - 8 -76.8 145.8 N 25.75 CA 22.11 C 24.36 O 23.52 CB 26.19 CG 23.05 CD 24.51
B SER - 52 -67.1 164.4 N 24.53 CA 24.59 C 23.93 O 23.66 CB 28.86 OG 25.81
B PRO H 59 -51.3 -40.4 N 24.76 CA 23.91 C 23.14 O 25.16 CB 27.16 CG 28.95 CD 22.82
B ALA H 68 -67.1 -38.8 N 22.49 CA 22.02 C 24.2 O 24.26 CB 19.98
B GLN H 114 -68.6 -32.9 N 23.05 CA 24.78 C 25.74 O 22.66 CB 24.23 CG 24.41 CD 28.83 OE1 26.71 NE2 35.86
B TYR H 1 -63.5 -47.2 N 26.18 CA 23.27 C 25.75 O 23.57 CB 23.62 CG 23.58 CD1 25.83 CD2 24.39 CE1 26.4 CE2 23.18 CZ 27.93 OH 26.06
B GLU H 112 -58.9 -45.4 N 24.58 CA 24.59 C 26.79 O 27.67 CB 29.09 CG 37.16 CD 47.94 OE1 50.57 OE2 52.09
B ALA H 62 -63.1 -41.5 N 28.17 CA 29.17 C 30.04 O 32.23 CB 30.58
B ALA H 31 -67.3 -42.3 N 27.95 CA 26.79 C 28.16 O 28.32 CB 22.0
B VAL H 11 -56.5 -38.3 N 27.01 CA 26.81 C 29.52 O 28.12 CB 27.08 CG1 30.04 CG2 27.22
B ALA H 68 -72.4 -17.0 N 27.65 CA 33.66 C 31.34 O 36.27 CB 31.42
B LYS H 183 -97.6 -10.8 N 29.09 CA 34.92 C 36.59 O 33.9 CB 39.06 CG 37.75 CD 54.49 CE 62.89 NZ 65.29
B ASP - 21 -82.0 124.5 N 29.46 CA 32.62 C 31.2 O 30.87 CB 28.24 CG 40.23 OD1 34.12 OD2 43.64
B PRO T 93 -47.0 -38.7 N 34.38 CA 39.05 C 34.44 O 39.96 CB 33.2 CG 36.87 CD 37.79
B ILE T 57 -86.7 -55.9 N 32.51 CA 34.29 C 29.76 O 30.06 CB 35.94 CG1 43.22 CG2 35.33 CD1 40.95
B LEU G 1 -67.5 -22.2 N 26.95 CA 22.52 C 26.58 O 20.94 CB 23.46 CG 25.72 CD1 22.1 CD2 23.55
B LYS G 128 -72.4 -17.6 N 23.06 CA 28.01 C 29.17 O 30.5 CB 29.76 CG 32.52 CD 29.19 CE 45.55 NZ 45.03
B ARG G 83 -96.8 1.6 N 23.78 CA 24.49 C 27.77 O 29.97 CB 31.2 CG 34.49 CD 39.06 NE 49.76 CZ 54.71 NH1 48.3 NH2 47.34
B LEU - 22 -91.6 160.0 N 24.26 CA 23.86 C 31.01 O 34.31 CB 22.48 CG 26.74 CD1 23.71 CD2 23.52
B LYS S 146 -94.2 148.1 N 27.55 CA 23.81 C 29.28 O 25.55 CB 27.98 CG 34.92 CD 38.78 CE 50.1 NZ 45.61
B ASN S 56 75.3 13.6 N 22.25 CA 26.05 C 25.95 O 26.51 CB 23.77 CG 28.36 OD1 27.79 ND2 20.89
B VAL H 6 -65.7 -39.5 N 29.24 CA 22.87 C 25.54 O 26.78 CB 26.75 CG1 26.02 CG2 26.75
B VAL H 66 -71.0 -47.9 N 29.0 CA 28.71 C 28.53 O 30.87 CB 28.32 CG1 25.84 CG2 30.66
B LYS H 142 -49.0 -38.4 N 25.42 CA 28.88 C 32.18 O 29.11 CB 37.6 CG 44.13 CD 49.52 CE 55.49 NZ 58.2
B ALA H 7 -62.4 -24.6 N 25.64 CA 25.43 C 28.3 O 29.12 CB 23.55
B LEU S 15 -77.2 121.8 N 24.97 CA 30.31 C 25.79 O 32.46 CB 29.32 CG 30.58 CD1 31.15 CD2 29.24
B PRO - 6 -74.5 92.8 N 28.81 CA 34.83 C 29.77 O 33.53 CB 26.53 CG 30.2 CD 25.06
B SER T 73 -51.4 -37.4 N 32.06 CA 40.13 C 35.11 O 30.67 CB 39.21 OG 48.02
B TRP T 142 -72.8 -19.9 N 31.71 CA 33.93 C 30.18 O 32.21 CB 36.69 CG 33.89 CD1 29.81 CD2 33.15 NE1 32.09 CE2 31.96 CE3 31.14 CZ2 30.83 CZ3 33.04 CH2 34.65
B ILE S 10 -89.0 127.1 N 31.45 CA 31.85 C 33.89 O 33.07 CB 34.29 CG1 33.49 CG2 31.59 CD1 27.6
B ASP - 95 -60.4 131.1 N 26.9 CA 32.62 C 29.05 O 30.25 CB 35.23 CG 44.24 OD1 50.28 OD2 39.13
B SER G 7 -60.0 -20.3 N 25.77 CA 28.9 C 29.61 O 23.93 CB 22.49 OG 28.97
B ALA G 27 -66.0 -21.2 N 28.62 CA 29.46 C 27.33 O 30.75 CB 29.8
B LYS G 118 -98.3 9.9 N 30.56 CA 28.72 C 29.84 O 33.6 CB 30.64 CG 35.29 CD 35.06 CE 48.24 NZ 50.51
B LEU E 1 -107.0 149.4 N 27.32 CA 27.68 C 29.95 O 27.89 CB 27.01 CG 26.9 CD1 25.52 CD2 23.21
B LYS E 74 -140.5 134.1 N 27.94 CA 33.14 C 30.83 O 32.87 CB 34.28 CG 36.4 CD 47.34 CE 45.36 NZ 52.11
B ALA E 0 -85.0 125.0 N 26.11 CA 26.62 C 29.0 O 24.83 CB 24.8
B SER E 7 -119.7 164.2 N 26.46 CA 28.25 C 24.47 O 26.41 CB 27.62 OG 31.14
B ILE E 0 -124.9 134.2 N 22.4 CA 23.53 C 18.69 O 24.07 CB 22.69 CG1 21.57 CG2 19.0 CD1 22.86
B PHE E 0 -135.2 159.0 N 23.02 CA 26.18 C 27.94 O 24.33 CB 24.1 CG 22.48 CD1 20.41 CD2 25.51 CE1 27.6 CE2 21.55 CZ 24.72
B SER E 0 -110.1 137.4 N 25.57 CA 21.14 C 22.07 O 29.53 CB 20.93 OG 23.52
B LYS E 0 -117.7 136.9 N 19.88 CA 22.23 C 24.05 O 23.34 CB 26.42 CG 22.04 CD 21.78 CE 24.56 NZ 25.07
B ARG E 12 -115.1 138.7 N 20.19 CA 20.73 C 19.52 O 23.42 CB 20.9 CG 21.78 CD 19.97 NE 24.02 CZ 23.61 NH1 21.93 NH2 25.42
B PHE E 0 -160.8 177.0 N 21.55 CA 22.22 C 24.68 O 26.45 CB 20.77 CG 21.51 CD1 22.52 CD2 21.67 CE1 22.39 CE2 25.41 CZ 21.44
B TYR - 30 -101.1 136.1 N 21.29 CA 27.1 C 24.46 O 26.64 CB 25.2 CG 23.63 CD1 24.92 CD2 29.16 CE1 29.83 CE2 29.27 CZ 32.68 OH 31.69
B SER S 0 -77.9 -26.6 N 25.14 CA 25.36 C 28.99 O 25.36 CB 25.31 OG 28.85
B TRP - 54 -84.3 73.1 N 29.36 CA 25.48 C 27.59 O 29.66 CB 27.37 CG 29.28 CD1 29.44 CD2 27.55 NE1 27.61 CE2 35.45 CE3 34.07 CZ2 35.83 CZ3 33.61 CH2 35.5
B GLN - 7 -80.9 -17.9 N 28.67 CA 26.73 C 28.61 O 31.09 CB 26.41 CG 24.79 CD 27.78 OE1 23.14 NE2 22.83
B ASN S 61 -128.0 117.6 N 29.29 CA 33.3 C 30.5 O 28.75 CB 30.96 CG 33.11 OD1 34.99 ND2 37.69
B PRO T 76 -61.1 -20.0 N 33.13 CA 35.98 C 34.49 O 40.59 CB 35.1 CG 34.5 CD 36.79
B ASP T 143 -75.4 -17.0 N 33.63 CA 31.54 C 37.91 O 35.48 CB 34.92 CG 47.38 OD1 52.06 OD2 50.67
B TRP S 22 -61.2 149.2 N 31.24 CA 27.17 C 30.52 O 36.41 CB 27.41 CG 31.07 CD1 29.01 CD2 27.07 NE1 30.36 CE2 25.99 CE3 25.96 CZ2 27.62 CZ3 24.97 CH2 26.21
B SER - 67 -71.9 164.5 N 30.39 CA 28.6 C 30.68 O 30.6 CB 32.33 OG 31.9
B GLU H 122 -58.7 -40.8 N 30.96 CA 33.51 C 34.63 O 34.7 CB 44.06 CG 43.38 CD 58.08 OE1 66.2 OE2 51.24
B GLU H 139 -59.1 -46.4 N 28.26 CA 36.49 C 34.01 O 30.99 CB 33.09 CG 39.32 CD 57.69 OE1 62.12 OE2 61.13
B ARG H 125 -69.1 -42.1 N 26.28 CA 27.25 C 28.94 O 23.92 CB 24.84 CG 28.55 CD 33.82 NE 31.42 CZ 31.65 NH1 30.97 NH2 30.08
B ALA H 0 -59.9 -38.4 N 27.5 CA 28.22 C 28.11 O 27.88 CB 26.9
B HIS H 74 -90.7 -2.0 N 27.46 CA 31.74 C 29.83 O 28.51 CB 28.87 CG 40.27 ND1 41.33 CD2 32.62 CE1 41.83 NE2 41.53
B THR H 45 -121.0 -15.0 N 22.72 CA 27.52 C 26.65 O 27.85 CB 33.33 OG1 33.84 CG2 32.2
B THR T 32 -58.2 -35.4 N 26.18 CA 26.5 C 27.95 O 24.22 CB 29.11 OG1 30.36 CG2 26.45
B TYR T 0 -107.2 19.3 N 23.26 CA 19.89 C 22.35 O 24.01 CB 21.42 CG 21.26 CD1 25.39 CD2 24.0 CE1 24.32 CE2 22.59 CZ 25.78 OH 21.27
B ARG - 135 -66.7 135.0 N 24.74 CA 25.99 C 24.97 O 24.51 CB 25.67 CG 37.04 CD 40.53 NE 44.45 CZ 44.67 NH1 35.34 NH2 38.93
B PRO - 24 -61.1 145.5 N 22.67 CA 24.25 C 24.76 O 21.51 CB 27.37 CG 23.4 CD 24.44
B ASP - 76 -58.0 129.3 N 23.5 CA 26.15 C 24.78 O 24.56 CB 22.59 CG 25.21 OD1 27.05 OD2 30.84
B ARG T 111 -56.6 -39.0 N 21.93 CA 29.35 C 27.13 O 27.67 CB 24.5 CG 35.06 CD 36.51 NE 35.63 CZ 32.28 NH1 31.87 NH2 28.43
B GLU T 47 -78.8 -41.5 N 24.33 CA 28.97 C 28.41 O 32.52 CB 29.72 CG 33.25 CD 43.08 OE1 35.98 OE2 56.18
B THR T 15 -115.6 -9.5 N 24.32 CA 26.37 C 22.21 O 24.88 CB 22.83 OG1 22.93 CG2 27.6
B ASP - 13 67.8 10.6 N 22.99 CA 28.36 C 25.89 O 21.62 CB 22.63 CG 32.23 OD1 31.65 OD2 31.23
B GLN E 16 -79.2 135.0 N 22.47 CA 22.2 C 19.93 O 24.04 CB 19.97 CG 19.73 CD 22.23 OE1 27.61 NE2 19.93
B VAL E 3 -100.1 129.8 N 21.33 CA 22.9 C 21.29 O 24.53 CB 24.97 CG1 19.51 CG2 18.43
B ASP - 89 -79.2 105.3 N 23.9 CA 28.48 C 27.66 O 26.43 CB 28.69 CG 28.41 OD1 32.73 OD2 35.17
B MET - 16 -93.0 8.2 N 22.4 CA 24.08 C 27.43 O 29.95 CB 24.25 CG 24.26 SD 26.67 CE 20.52
B SER T 79 -65.2 -29.8 N 23.39 CA 28.34 C 29.83 O 28.97 CB 26.27 OG 30.82
B THR T 36 -84.9 -2.4 N 26.94 CA 27.49 C 29.73 O 27.97 CB 27.78 OG1 29.32 CG2 33.68
B TYR - 12 -71.2 136.9 N 25.18 CA 28.72 C 32.7 O 34.97 CB 28.25 CG 30.31 CD1 24.12 CD2 24.82 CE1 26.01 CE2 30.38 CZ 25.31 OH 27.89
B ARG - 159 -130.6 14.6 N 27.49 CA 28.7 C 30.72 O 32.31 CB 28.6 CG 41.15 CD 49.03 NE 52.28 CZ 49.85 NH1 41.84 NH2 45.39
B TYR - 79 58.2 23.5 N 28.52 CA 30.14 C 24.78 O 26.45 CB 30.78 CG 28.65 CD1 27.52 CD2 31.32 CE1 29.22 CE2 33.84 CZ 34.04 OH 33.79
B ARG - 72 -72.8 135.1 N 21.82 CA 27.09 C 29.66 O 26.32 CB 28.81 CG 31.07 CD 31.75 NE 29.33 CZ 32.05 NH1 28.73 NH2 28.42
B ALA - 32 -90.5 153.2 N 24.92 CA 27.26 C 27.85 O 24.81 CB 25.15
B ARG - 88 -66.7 127.8 N 25.78 CA 24.47 C 23.91 O 25.69 CB 24.74 CG 28.38 CD 27.68 NE 32.48 CZ 32.65 NH1 28.01 NH2 39.15
B PRO T 87 -50.8 118.3 N 25.62 CA 29.64 C 28.57 O 27.36 CB 30.41 CG 34.73 CD 27.21
B GLY T 81 99.6 0.7 N 28.97 CA 25.33 C 28.13 O 29.68
B TYR S 76 -129.8 179.6 N 23.92 CA 25.55 C 26.1 O 28.73 CB 25.67 CG 27.49 CD1 27.48 CD2 25.15 CE1 27.81 CE2 31.1 CZ 26.91 OH 29.73
B VAL - 79 -85.5 157.2 N 29.05 CA 33.25 C 27.03 O 26.37 CB 29.28 CG1 36.47 CG2 31.41
B ASN - 52 -78.7 -34.9 N 25.53 CA 27.76 C 30.57 O 29.95 CB 29.62 CG 36.07 OD1 42.87 ND2 46.05
B PHE E 16 -161.7 174.0 N 24.94 CA 28.82 C 30.82 O 24.4 CB 27.77 CG 29.47 CD1 28.67 CD2 28.54 CE1 29.04 CE2 32.16 CZ 28.61
B ASP E 14 -137.7 145.3 N 22.67 CA 25.55 C 24.22 O 25.16 CB 27.28 CG 30.57 OD1 31.45 OD2 40.16
B TYR E 0 -126.6 131.1 N 23.77 CA 26.27 C 27.84 O 26.1 CB 24.47 CG 28.27 CD1 27.26 CD2 24.29 CE1 28.54 CE2 26.45 CZ 28.78 OH 29.96
B GLY E 0 -123.6 117.7 N 23.03 CA 26.1 C 27.29 O 22.7
B TRP E 28 -78.9 132.3 N 24.74 CA 23.18 C 25.7 O 25.74 CB 24.09 CG 24.61 CD1 27.47 CD2 25.96 NE1 32.93 CE2 28.89 CE3 27.63 CZ2 30.96 CZ3 32.83 CH2 29.31
B PHE E 5 -87.1 107.2 N 25.13 CA 25.25 C 25.72 O 27.24 CB 23.69 CG 23.2 CD1 23.85 CD2 23.09 CE1 30.3 CE2 23.17 CZ 29.44
B ASP E 12 -87.4 101.6 N 25.89 CA 31.92 C 26.39 O 25.91 CB 31.49 CG 36.28 OD1 36.55 OD2 42.18
B GLN T 79 -88.8 5.0 N 27.92 CA 29.1 C 33.24 O 31.36 CB 27.67 CG 31.42 CD 31.31 OE1 27.16 NE2 25.21
B ASP T 90 -75.3 -38.3 N 28.91 CA 32.88 C 35.14 O 36.46 CB 37.0 CG 43.95 OD1 49.94 OD2 51.45
B THR T 22 -120.5 1.0 N 32.42 CA 33.86 C 37.91 O 33.53 CB 40.74 OG1 38.8 CG2 40.15
B ASN T 44 52.5 44.4 N 30.85 CA 32.31 C 29.02 O 29.4 CB 32.64 CG 47.99 OD1 40.34 ND2 50.37
B THR E 5 -115.5 163.4 N 27.37 CA 30.25 C 26.33 O 27.47 CB 29.46 OG1 30.56 CG2 29.14
B TRP E 2 -120.0 122.3 N 27.49 CA 23.58 C 29.2 O 25.0 CB 24.06 CG 27.59 CD1 23.53 CD2 27.42 NE1 24.64 CE2 23.24 CE3 23.11 CZ2 18.25 CZ3 23.36 CH2 22.48
B TRP E 4 -105.9 128.2 N 25.02 CA 23.92 C 23.04 O 25.03 CB 29.34 CG 28.96 CD1 26.37 CD2 29.08 NE1 30.08 CE2 32.37 CE3 33.09 CZ2 32.86 CZ3 28.74 CH2 31.14
B HIS E 4 -150.4 -161.8 N 25.96 CA 25.18 C 26.7 O 29.35 CB 25.94 CG 29.23 ND1 27.43 CD2 29.04 CE1 25.54 NE2 30.39
B ALA E 3 -153.5 169.0 N 30.75 CA 32.49 C 36.78 O 36.91 CB 35.56
B ASN S 47 -74.5 -50.9 N 41.9 CA 36.27 C 41.25 O 36.18 CB 41.94 CG 38.95 OD1 38.56 ND2 39.07
B HIS S 81 -172.7 175.2 N 34.74 CA 32.62 C 36.91 O 34.12 CB 36.6 CG 45.18 ND1 47.14 CD2 43.44 CE1 46.97 NE2 46.4
B GLU S 122 -64.3 158.7 N 39.52 CA 42.61 C 46.68 O 41.1 CB 39.09 CG 50.42 CD 62.2 OE1 69.18 OE2 71.97
B GLU S 78 -55.2 147.1 N 44.92 CA 45.47 C 44.96 O 46.01 CB 43.86 CG 56.36 CD 53.17 OE1 44.1 OE2 58.41
B PRO S 100 -82.5 164.6 N 49.59 CA 52.2 C 49.55 O 42.86 CB 42.4 CG 45.41 CD 49.52
B ARG S 218 70.8 28.1 N 43.74 CA 50.16 C 50.33 O 43.21 CB 50.85 CG 53.63 CD 64.4 NE 81.71 CZ 87.38 NH1 86.54 NH2 78.45
B MET - 8 -77.9 133.0 N 45.75 CA 44.82 C 41.13 O 44.34 CB 41.73 CG 43.08 SD 40.8 CE 31.12
B VAL E 37 -124.4 155.7 N 40.41 CA 39.51 C 37.17 O 34.02 CB 44.81 CG1 40.01 CG2 38.89
B VAL E 0 -101.6 136.5 N 34.59 CA 32.94 C 35.06 O 36.35 CB 35.69 CG1 35.86 CG2 31.22
B TYR E 54 -107.5 142.9 N 31.47 CA 29.12 C 31.18 O 31.95 CB 28.18 CG 35.23 CD1 33.87 CD2 36.62 CE1 38.37 CE2 38.44 CZ 36.32 OH 45.05
B GLN E 0 -116.7 109.2 N 27.36 CA 30.25 C 33.29 O 33.26 CB 24.85 CG 29.89 CD 31.86 OE1 34.89 NE2 36.65
B SER E 0 -121.0 163.2 N 30.37 CA 27.29 C 26.67 O 23.76 CB 28.4 OG 31.39
B THR - 43 -71.7 160.7 N 25.42 CA 27.12 C 29.11 O 26.97 CB 29.72 OG1 25.16 CG2 30.97
B LEU H 20 -62.3 -33.8 N 26.99 CA 26.08 C 28.58 O 25.7 CB 25.98 CG 26.6 CD1 23.81 CD2 25.96
B ARG H 204 -62.5 -46.7 N 27.42 CA 28.11 C 27.73 O 24.4 CB 28.97 CG 31.83 CD 46.91 NE 48.33 CZ 66.5 NH1 66.2 NH2 64.65
B HIS H 30 -68.4 -43.4 N 27.85 CA 24.15 C 28.93 O 26.12 CB 24.79 CG 29.17 ND1 29.7 CD2 27.44 CE1 33.63 NE2 34.6
B TYR H 0 -58.2 -39.6 N 24.88 CA 24.73 C 23.28 O 27.34 CB 27.08 CG 29.15 CD1 25.09 CD2 25.74 CE1 26.0 CE2 24.34 CZ 22.77 OH 25.82
B SER T 30 -90.6 5.5 N 24.62 CA 22.06 C 29.63 O 25.81 CB 26.5 OG 25.5
B ARG - 95 -55.5 145.1 N 29.37 CA 33.38 C 31.51 O 27.27 CB 23.93 CG 30.18 CD 31.93 NE 35.93 CZ 40.78 NH1 41.85 NH2 45.04
B PRO - 124 -48.9 127.6 N 32.15 CA 32.99 C 34.37 O 28.65 CB 29.19 CG 30.86 CD 34.13
B LEU - 56 -146.5 139.4 N 27.78 CA 26.98 C 29.12 O 31.85 CB 28.19 CG 31.0 CD1 27.65 CD2 36.32
B GLN T 134 -63.4 -22.6 N 25.87 CA 28.04 C 23.55 O 22.41 CB 29.83 CG 27.55 CD 30.59 OE1 27.15 NE2 34.12
B ASP T 28 -64.6 -33.2 N 27.57 CA 27.35 C 28.44 O 27.66 CB 25.27 CG 31.73 OD1 33.27 OD2 31.51
B PHE - 17 -129.7 131.9 N 27.32 CA 30.45 C 32.78 O 30.64 CB 27.51 CG 26.03 CD1 27.56 CD2 22.2 CE1 22.6 CE2 24.33 CZ 26.26
B ASP S 71 -119.3 7.2 N 23.88 CA 30.1 C 27.54 O 33.78 CB 27.73 CG 29.22 OD1 27.19 OD2 35.31
B GLU E 13 -134.2 143.3 N 23.08 CA 23.3 C 23.72 O 20.57 CB 23.62 CG 24.21 CD 26.97 OE1 26.46 OE2 31.92
B GLN E 45 -141.6 127.4 N 18.27 CA 22.64 C 21.25 O 22.74 CB 15.57 CG 21.91 CD 22.43 OE1 29.48 NE2 18.49
B VAL E 1 -120.2 160.4 N 21.62 CA 24.73 C 23.15 O 22.24 CB 22.96 CG1 20.26 CG2 21.03
B PHE E 17 -116.8 124.8 N 21.74 CA 22.56 C 22.59 O 24.14 CB 20.45 CG 21.0 CD1 18.24 CD2 20.15 CE1 27.36 CE2 21.26 CZ 21.28
B THR E 0 -119.4 136.5 N 22.7 CA 23.44 C 22.07 O 20.93 CB 24.74 OG1 23.64 CG2 23.89
B VAL E 2 -106.9 135.6 N 23.09 CA 25.06 C 21.78 O 23.0 CB 21.59 CG1 20.83 CG2 20.66
B ALA E 5 -149.5 148.5 N 21.61 CA 18.93 C 22.13 O 21.68 CB 18.49
B PHE E 2 -78.4 130.4 N 24.92 CA 22.52 C 27.11 O 28.44 CB 25.55 CG 22.7 CD1 22.67 CD2 23.36 CE1 25.06 CE2 24.07 CZ 22.95
B ALA E 0 -106.8 151.9 N 24.77 CA 28.61 C 28.57 O 28.82 CB 23.55
B LYS E 68 -84.2 129.9 N 28.42 CA 33.3 C 32.68 O 32.08 CB 33.39 CG 32.89 CD 41.77 CE 49.76 NZ 58.94
B LYS - 79 -67.8 158.8 N 32.08 CA 33.46 C 34.98 O 37.72 CB 33.38 CG 37.54 CD 38.08 CE 32.53 NZ 36.18
B ASP - 135 -61.5 360.0 N 43.62 CA 49.48 C 52.55 O 49.97 CB 52.33 CG 57.73 OD1 60.01 OD2 59.32 OXT 61.31
