A GLY - 1 168.5 -179.0 N 4.5 CA 4.6 C 4.19 O 4.94
A HIS E 6 -150.9 165.8 N 4.36 CA 4.34 C 4.44 O 4.71 CB 5.04 CG 5.81 ND1 6.43 CD2 7.28 CE1 7.67 NE2 8.15
A ILE E 0 -83.3 130.8 N 4.81 CA 4.78 C 5.07 O 6.37 CB 4.94 CG1 5.3 CG2 5.02 CD1 5.92
A ASN E 57 -88.1 -39.1 N 4.8 CA 5.5 C 4.77 O 4.75 CB 6.94 CG 7.92 OD1 9.34 ND2 8.29
A ASP E 11 -159.3 159.7 N 4.59 CA 4.51 C 4.51 O 4.53 CB 4.89 CG 5.21 OD1 5.27 OD2 5.77
A ILE E 0 -123.7 149.9 N 4.44 CA 4.52 C 4.59 O 5.59 CB 4.73 CG1 5.15 CG2 5.02 CD1 5.79
A VAL E 7 -128.0 115.7 N 4.78 CA 4.73 C 5.04 O 5.06 CB 5.05 CG1 5.67 CG2 5.72
A ILE E 7 -111.0 107.3 N 5.55 CA 6.11 C 6.78 O 6.61 CB 5.85 CG1 6.25 CG2 6.66 CD1 6.9
A ASN T 91 46.1 45.9 N 7.59 CA 8.89 C 8.81 O 10.7 CB 9.64 CG 8.26 OD1 9.2 ND2 9.69
A GLY T 13 87.9 -4.3 N 7.87 CA 7.78 C 6.84 O 8.24
A VAL E 45 -102.3 116.1 N 6.3 CA 6.09 C 5.28 O 5.25 CB 6.09 CG1 6.73 CG2 7.94
A TRP E 73 -84.1 133.3 N 5.43 CA 5.23 C 5.13 O 6.13 CB 6.01 CG 7.56 CD1 8.82 CD2 8.62 NE1 10.23 CE2 9.74 CE3 10.63 CZ2 11.2 CZ3 12.23 CH2 13.02
A TYR E 20 -122.3 134.5 N 4.78 CA 4.96 C 5.22 O 5.24 CB 5.19 CG 5.17 CD1 5.01 CD2 5.2 CE1 5.18 CE2 5.5 CZ 5.36 OH 6.79
A GLN E 82 -65.1 130.0 N 5.35 CA 5.44 C 5.05 O 6.04 CB 6.05 CG 6.49 CD 7.88 OE1 10.01 NE2 9.57
A ALA - 1 -87.8 174.1 N 4.65 CA 5.14 C 4.65 O 5.29 CB 6.3
A TYR - 23 -68.5 133.1 N 5.31 CA 5.21 C 5.13 O 7.59 CB 5.53 CG 5.38 CD1 5.92 CD2 5.45 CE1 6.0 CE2 5.54 CZ 6.06 OH 7.47
A ASP - 21 -114.0 99.2 N 5.08 CA 4.91 C 4.8 O 5.07 CB 5.59 CG 5.78 OD1 5.38 OD2 7.38
A PRO T 1 -71.0 -9.5 N 4.41 CA 4.51 C 4.67 O 5.79 CB 4.82 CG 4.96 CD 5.05
A THR T 47 -93.7 -0.4 N 4.5 CA 4.82 C 5.07 O 5.57 CB 4.83 OG1 5.37 CG2 5.37
A THR T 59 -134.8 -55.9 N 5.12 CA 5.81 C 5.47 O 6.49 CB 6.84 OG1 7.83 CG2 9.01
A PHE G 5 -58.8 -35.9 N 5.23 CA 5.27 C 5.63 O 6.84 CB 5.31 CG 6.07 CD1 7.61 CD2 7.85 CE1 8.86 CE2 9.07 CZ 8.82
A PRO G 52 -63.5 -22.1 N 5.99 CA 7.43 C 7.54 O 9.88 CB 8.15 CG 7.4 CD 5.92
A TYR G 164 -86.1 -11.9 N 7.1 CA 7.76 C 8.78 O 10.29 CB 7.45 CG 6.5 CD1 7.06 CD2 6.45 CE1 7.16 CE2 6.29 CZ 6.54 OH 7.04
A GLU S 73 -86.6 149.1 N 8.94 CA 10.23 C 13.61 O 15.01 CB 9.73 CG 10.14 CD 11.94 OE1 15.01 OE2 18.62
A SER S 134 -64.5 -40.9 N 17.23 CA 19.76 C 20.46 O 22.31 CB 23.52 OG 29.46
A ASN S 142 -140.8 74.3 N 16.96 CA 15.71 C 12.75 O 14.84 CB 19.87 CG 20.59 OD1 23.72 ND2 27.8
A PRO - 53 -65.4 153.1 N 10.76 CA 9.93 C 8.86 O 10.05 CB 12.49 CG 14.49 CD 13.3
A PRO - 54 -72.7 158.0 N 8.62 CA 8.66 C 6.77 O 7.9 CB 9.79 CG 10.33 CD 9.67
A ILE - 95 -76.3 126.0 N 6.13 CA 5.98 C 5.35 O 6.2 CB 7.03 CG1 9.13 CG2 8.02 CD1 11.99
A VAL - 8 -136.4 171.0 N 5.29 CA 4.96 C 5.1 O 5.99 CB 5.24 CG1 5.51 CG2 5.43
A VAL S 0 -81.7 -15.7 N 5.12 CA 5.21 C 4.49 O 4.63 CB 6.43 CG1 6.87 CG2 6.84
A GLY B 2 -87.6 141.3 N 4.69 CA 4.37 C 3.89 O 4.65
A TRP - 9 -64.7 149.7 N 4.05 CA 4.04 C 4.22 O 4.46 CB 4.12 CG 4.12 CD1 4.39 CD2 4.29 NE1 4.69 CE2 4.63 CE3 4.72 CZ2 5.13 CZ3 5.16 CH2 5.14
A THR B 55 -75.0 131.4 N 4.42 CA 4.5 C 4.81 O 6.11 CB 5.25 OG1 5.76 CG2 6.26
A ALA - 8 -148.0 165.0 N 4.95 CA 4.88 C 4.91 O 6.64 CB 5.89
A ALA - 40 -103.3 27.7 N 4.78 CA 5.0 C 4.9 O 6.13 CB 6.05
A ASP - 1 -83.8 55.6 N 4.66 CA 4.68 C 4.68 O 4.67 CB 4.92 CG 4.48 OD1 4.85 OD2 4.76
A LEU T 68 -62.1 -24.4 N 5.13 CA 5.27 C 5.0 O 5.63 CB 6.36 CG 6.51 CD1 6.82 CD2 7.56
A ASP T 89 -91.5 8.9 N 4.84 CA 5.39 C 4.73 O 5.44 CB 6.84 CG 7.29 OD1 7.25 OD2 12.08
A ASN S 29 63.0 21.1 N 4.55 CA 4.83 C 4.67 O 5.03 CB 5.04 CG 5.11 OD1 5.57 ND2 5.86
A GLY - 0 -91.5 -157.7 N 4.74 CA 4.91 C 4.26 O 4.25
A PHE - 50 -129.8 169.7 N 4.73 CA 4.6 C 4.54 O 5.52 CB 4.7 CG 5.11 CD1 5.75 CD2 5.67 CE1 6.75 CE2 7.03 CZ 7.11
A VAL B 3 -106.1 131.2 N 4.27 CA 4.46 C 4.45 O 5.29 CB 4.54 CG1 4.96 CG2 5.2
A SER - 23 -96.2 167.4 N 4.68 CA 4.97 C 4.57 O 4.73 CB 5.96 OG 6.23
A PRO G 4 -57.4 -29.6 N 4.7 CA 4.89 C 5.25 O 5.45 CB 5.23 CG 5.36 CD 5.15
A ASP G 125 -69.4 -0.9 N 5.57 CA 6.14 C 5.86 O 7.32 CB 7.96 CG 9.72 OD1 11.75 OD2 16.67
A ALA G 13 -119.9 13.2 N 5.27 CA 5.25 C 5.03 O 5.43 CB 5.33
A TYR T 0 -66.7 -24.0 N 4.88 CA 4.77 C 4.71 O 5.03 CB 4.7 CG 4.43 CD1 4.42 CD2 4.66 CE1 4.45 CE2 4.62 CZ 4.41 OH 4.95
A GLN T 100 -101.8 15.3 N 4.89 CA 5.21 C 5.64 O 7.35 CB 5.76 CG 6.29 CD 6.09 OE1 7.32 NE2 6.18
A ASN S 65 -111.4 152.9 N 5.45 CA 6.15 C 5.48 O 5.16 CB 7.77 CG 9.29 OD1 8.17 ND2 11.82
A PRO T 54 -56.1 -24.4 N 6.03 CA 5.86 C 5.0 O 4.86 CB 6.79 CG 7.35 CD 6.98
A ASP H 30 -56.5 -30.5 N 4.91 CA 4.68 C 4.34 O 4.41 CB 4.97 CG 5.81 OD1 6.27 OD2 6.94
A ILE H 0 -68.6 -19.4 N 4.41 CA 4.26 C 4.24 O 4.65 CB 4.44 CG1 4.77 CG2 4.85 CD1 5.01
A ILE H 3 -66.1 -57.2 N 4.15 CA 4.46 C 4.3 O 4.37 CB 4.82 CG1 5.51 CG2 5.7 CD1 5.91
A CYS H 2 -135.5 25.5 N 4.2 CA 4.15 C 3.84 O 4.15 CB 4.29 SG 4.67
A HIS S 0 85.0 176.4 N 3.95 CA 3.94 C 4.05 O 4.22 CB 4.29 CG 4.17 ND1 4.44 CD2 4.56 CE1 4.48 NE2 4.35
A LYS T 74 -60.1 128.6 N 4.45 CA 4.78 C 4.61 O 5.06 CB 5.85 CG 6.68 CD 7.85 CE 8.72 NZ 10.75
A ASN T 116 55.9 28.6 N 4.69 CA 5.01 C 4.96 O 5.79 CB 5.88 CG 6.29 OD1 7.78 ND2 7.62
A ALA - 5 -69.2 143.7 N 4.88 CA 4.56 C 4.56 O 5.16 CB 4.82
A THR B 75 -127.6 155.1 N 4.61 CA 4.88 C 4.73 O 4.88 CB 5.97 OG1 7.48 CG2 6.67
A ASN - 24 -58.2 137.8 N 4.89 CA 5.07 C 4.81 O 5.75 CB 5.68 CG 5.85 OD1 6.58 ND2 6.42
A ALA - 2 -58.4 144.3 N 4.93 CA 4.95 C 4.9 O 5.23 CB 5.03
A LYS S 105 -103.4 10.7 N 4.98 CA 5.41 C 5.34 O 5.9 CB 6.61 CG 7.71 CD 9.33 CE 9.93 NZ 9.97
A GLY S 0 -147.6 -175.5 N 5.15 CA 5.32 C 4.83 O 5.1
A HIS B 26 -145.4 162.9 N 5.1 CA 5.17 C 4.94 O 5.52 CB 5.45 CG 5.91 ND1 6.77 CD2 7.12 CE1 7.79 NE2 7.89
A ALA E 0 -103.3 128.2 N 5.07 CA 5.3 C 5.34 O 6.16 CB 5.56
A SER E 70 -88.7 126.3 N 6.42 CA 7.4 C 7.66 O 8.63 CB 7.41 OG 8.06
A VAL E 5 -133.9 160.7 N 7.17 CA 8.11 C 8.84 O 9.33 CB 8.6 CG1 9.25 CG2 8.24
A LYS E 142 -102.0 139.8 N 9.48 CA 10.42 C 9.61 O 9.96 CB 12.11 CG 13.38 CD 16.41 CE 18.83 NZ 20.1
A ALA T 19 -51.9 134.3 N 9.32 CA 8.67 C 8.35 O 9.04 CB 9.06
A GLY T 12 98.9 -16.1 N 8.38 CA 8.5 C 8.63 O 9.71
A ASP - 23 -67.7 151.0 N 9.0 CA 8.68 C 7.44 O 7.75 CB 10.49 CG 10.4 OD1 12.39 OD2 11.15
A THR E 52 -104.6 146.1 N 8.13 CA 7.53 C 7.01 O 10.42 CB 10.26 OG1 14.05 CG2 11.12
A ILE E 0 -122.8 124.8 N 5.69 CA 5.25 C 4.84 O 5.44 CB 5.38 CG1 6.14 CG2 5.79 CD1 7.32
A LEU E 7 -99.3 128.8 N 4.62 CA 4.76 C 4.48 O 5.32 CB 4.81 CG 5.19 CD1 7.36 CD2 6.2
A PHE E 0 -102.1 129.5 N 4.37 CA 4.2 C 4.29 O 4.91 CB 4.34 CG 4.61 CD1 4.66 CD2 5.64 CE1 5.51 CE2 6.16 CZ 6.48
A GLN E 30 -109.4 110.6 N 4.19 CA 3.85 C 4.08 O 4.56 CB 4.18 CG 4.41 CD 4.49 OE1 4.93 NE2 4.69
A TRP E 1 -90.9 146.8 N 3.85 CA 3.93 C 4.04 O 4.53 CB 3.96 CG 4.08 CD1 4.57 CD2 4.15 NE1 4.61 CE2 4.26 CE3 4.6 CZ2 4.59 CZ3 4.71 CH2 4.82
A VAL E 36 -138.2 154.4 N 4.49 CA 4.69 C 4.73 O 5.24 CB 5.64 CG1 6.98 CG2 6.01
A PRO S 72 -76.5 160.3 N 5.48 CA 5.65 C 5.36 O 5.94 CB 7.29 CG 7.05 CD 5.64
A VAL S 83 -86.0 126.4 N 6.3 CA 6.02 C 6.82 O 9.69 CB 7.3 CG1 9.74 CG2 8.51
A PRO S 79 -92.9 155.6 N 6.61 CA 5.9 C 5.22 O 5.93 CB 7.37 CG 8.28 CD 8.22
A TRP - 3 -57.9 136.1 N 4.72 CA 4.71 C 4.82 O 5.55 CB 4.75 CG 4.36 CD1 5.31 CD2 3.87 NE1 5.31 CE2 4.5 CE3 4.5 CZ2 5.12 CZ3 5.04 CH2 5.5
A PRO - 75 -96.0 -9.5 N 5.34 CA 6.09 C 6.72 O 10.59 CB 7.53 CG 7.27 CD 5.58
A HIS - 27 -124.0 151.5 N 5.48 CA 5.46 C 5.05 O 5.65 CB 5.66 CG 5.53 ND1 6.15 CD2 5.81 CE1 6.49 NE2 6.01
A PRO - 20 -83.1 136.1 N 4.96 CA 5.04 C 4.7 O 5.46 CB 5.93 CG 6.34 CD 6.29
A GLY - 0 166.1 -177.9 N 4.54 CA 4.48 C 4.32 O 4.61
A PRO - 1 -82.3 166.2 N 4.32 CA 4.3 C 4.04 O 4.41 CB 4.86 CG 4.86 CD 4.79
A ILE E 0 -131.8 133.2 N 3.81 CA 3.9 C 4.03 O 4.37 CB 4.3 CG1 4.58 CG2 4.95 CD1 5.55
A VAL E 0 -136.4 157.7 N 3.89 CA 3.97 C 3.95 O 4.85 CB 4.42 CG1 5.07 CG2 4.91
A ASP E 0 -138.0 140.5 N 3.76 CA 3.9 C 4.09 O 4.07 CB 4.21 CG 4.52 OD1 4.98 OD2 5.01
A TYR E 0 -131.2 157.7 N 3.9 CA 3.95 C 3.89 O 4.15 CB 4.22 CG 4.06 CD1 4.42 CD2 4.21 CE1 4.59 CE2 4.8 CZ 4.63 OH 5.19
A LEU E 0 -121.2 151.7 N 4.13 CA 4.18 C 4.13 O 4.59 CB 4.54 CG 5.0 CD1 6.0 CD2 6.66
A ALA E 0 -139.4 131.1 N 4.59 CA 4.69 C 4.87 O 5.12 CB 5.02
A ASN E 27 -68.6 133.8 N 5.3 CA 5.89 C 5.96 O 6.86 CB 7.15 CG 8.02 OD1 8.58 ND2 10.12
A CYS - 6 -83.7 -11.2 N 5.91 CA 6.91 C 8.22 O 9.76 CB 6.72 SG 6.7
A ASN S 140 49.4 46.8 N 8.71 CA 11.41 C 11.29 O 14.16 CB 13.85 CG 16.11 OD1 22.39 ND2 19.01
A GLY S 40 137.7 -164.0 N 10.72 CA 10.72 C 9.92 O 9.94
A ASP - 75 -70.6 135.9 N 10.16 CA 9.36 C 8.04 O 8.92 CB 11.23 CG 14.85 OD1 16.94 OD2 19.77
A CYS T 2 -69.8 -19.7 N 6.8 CA 6.44 C 6.11 O 7.25 CB 5.93 SG 6.66
A GLU T 8 -65.1 -20.8 N 6.42 CA 6.67 C 7.9 O 9.02 CB 6.78 CG 6.9 CD 6.82 OE1 7.27 OE2 8.35
A THR T 105 -129.2 8.7 N 8.42 CA 9.24 C 8.88 O 11.0 CB 12.06 OG1 14.8 CG2 13.62
A VAL - 16 -66.2 146.3 N 7.62 CA 7.62 C 7.17 O 7.42 CB 8.0 CG1 7.98 CG2 8.9
A ASP - 91 -79.5 115.1 N 7.38 CA 7.68 C 6.48 O 7.0 CB 9.13 CG 10.57 OD1 10.42 OD2 14.69
A LYS G 29 -58.6 -25.6 N 6.19 CA 5.55 C 5.99 O 6.31 CB 5.67 CG 5.63 CD 5.26 CE 5.66 NZ 5.1
A THR G 77 -73.0 -5.4 N 6.77 CA 8.14 C 8.12 O 10.19 CB 9.82 OG1 10.51 CG2 11.61
A THR G 73 -101.6 -9.7 N 7.42 CA 8.16 C 7.26 O 8.85 CB 9.78 OG1 10.34 CG2 10.84
A LEU - 2 -69.8 132.9 N 6.01 CA 5.76 C 5.73 O 6.41 CB 5.88 CG 6.34 CD1 6.78 CD2 7.4
A GLU E 111 -114.2 106.8 N 5.71 CA 5.97 C 5.16 O 5.44 CB 6.8 CG 7.78 CD 10.18 OE1 13.8 OE2 12.55
A PHE E 0 -87.2 130.8 N 5.11 CA 4.72 C 4.78 O 5.82 CB 4.78 CG 4.74 CD1 4.93 CD2 5.44 CE1 5.18 CE2 6.15 CZ 5.82
A PHE E 6 -111.9 141.2 N 4.59 CA 4.6 C 4.06 O 4.41 CB 5.21 CG 5.33 CD1 5.87 CD2 5.65 CE1 6.71 CE2 5.93 CZ 6.87
A LYS E 8 -86.0 123.4 N 4.28 CA 4.28 C 4.21 O 5.27 CB 4.43 CG 4.63 CD 4.9 CE 5.27 NZ 5.44
A ILE E 5 -101.9 -16.2 N 4.07 CA 4.42 C 4.41 O 5.29 CB 4.76 CG1 4.75 CG2 5.42 CD1 5.57
A ASP E 4 -156.8 166.7 N 4.36 CA 4.51 C 4.25 O 4.42 CB 4.74 CG 4.7 OD1 5.04 OD2 5.42
A GLY E 6 -177.4 123.0 N 4.46 CA 4.54 C 4.69 O 5.59
A VAL E 17 -127.2 136.2 N 4.52 CA 4.28 C 4.69 O 4.94 CB 4.9 CG1 5.4 CG2 5.54
A GLY - 9 -116.7 -115.2 N 5.12 CA 5.4 C 5.05 O 5.6
A LEU E 38 -86.2 112.8 N 5.23 CA 6.32 C 6.66 O 8.48 CB 7.2 CG 7.44 CD1 7.66 CD2 9.34
A LEU E 94 -67.8 -50.5 N 7.27 CA 8.05 C 9.08 O 9.82 CB 8.64 CG 9.17 CD1 9.88 CD2 9.31
A SER E 63 -164.1 157.4 N 8.65 CA 9.46 C 9.78 O 9.33 CB 10.91 OG 11.5
A GLY - 50 73.0 -159.9 N 10.83 CA 11.4 C 10.79 O 11.99
A GLY S 17 -171.6 164.4 N 10.68 CA 10.61 C 9.86 O 11.38
A ASP T 94 56.9 56.5 N 10.98 CA 10.64 C 10.57 O 12.9 CB 11.76 CG 11.85 OD1 14.33 OD2 18.84
A PRO T 59 -93.6 -13.3 N 10.46 CA 10.42 C 9.61 O 11.18 CB 12.59 CG 13.53 CD 12.46
A GLY - 15 82.8 175.5 N 10.35 CA 10.33 C 8.61 O 10.56
A THR E 56 -103.7 132.6 N 7.23 CA 6.78 C 5.83 O 6.52 CB 7.65 OG1 9.78 CG2 8.71
A TRP E 0 -123.1 168.5 N 5.6 CA 5.6 C 5.08 O 5.16 CB 5.9 CG 5.63 CD1 6.05 CD2 5.31 NE1 6.36 CE2 5.6 CE3 5.58 CZ2 6.35 CZ3 6.13 CH2 6.55
A ALA H 0 -48.0 -42.3 N 5.06 CA 4.61 C 4.21 O 4.74 CB 4.94
A SER H 0 -56.5 -35.3 N 4.7 CA 4.94 C 4.54 O 4.91 CB 5.8 OG 6.54
A ASP H 62 -66.2 -33.3 N 4.79 CA 5.04 C 4.54 O 5.14 CB 5.87 CG 6.56 OD1 7.77 OD2 7.63
A VAL H 35 -67.4 -45.6 N 4.65 CA 4.3 C 4.06 O 4.6 CB 4.49 CG1 5.16 CG2 5.17
A LEU H 0 -56.3 -45.9 N 4.0 CA 4.18 C 4.31 O 4.55 CB 4.63 CG 4.67 CD1 5.89 CD2 4.83
A ILE H 55 -61.7 -44.7 N 4.46 CA 4.72 C 5.13 O 5.54 CB 5.35 CG1 5.5 CG2 6.13 CD1 6.34
A SER H 96 -61.5 -35.6 N 5.08 CA 5.29 C 5.06 O 7.04 CB 5.88 OG 7.18
A ASN T 38 -92.7 45.2 N 4.74 CA 4.55 C 4.51 O 4.66 CB 4.79 CG 4.97 OD1 6.83 ND2 5.06
A ASN T 89 50.5 44.4 N 4.88 CA 4.85 C 4.44 O 4.44 CB 5.31 CG 5.67 OD1 6.29 ND2 5.9
A ASN S 0 69.0 36.5 N 4.21 CA 4.3 C 4.41 O 5.12 CB 4.6 CG 4.21 OD1 5.46 ND2 4.64
A THR E 0 -123.1 159.5 N 4.19 CA 4.12 C 4.02 O 4.22 CB 3.97 OG1 4.43 CG2 4.34
A TRP E 3 -138.7 142.0 N 4.13 CA 4.19 C 4.32 O 4.55 CB 4.38 CG 4.26 CD1 4.34 CD2 4.21 NE1 4.63 CE2 4.68 CE3 5.04 CZ2 5.17 CZ3 5.65 CH2 5.92
A VAL E 12 -115.4 129.8 N 4.34 CA 4.68 C 4.29 O 4.76 CB 5.96 CG1 6.43 CG2 7.03
A VAL E 2 -122.2 149.1 N 5.03 CA 5.26 C 5.47 O 6.78 CB 5.86 CG1 6.09 CG2 6.69
A LYS E 70 -106.6 126.9 N 5.91 CA 5.93 C 5.99 O 6.5 CB 6.19 CG 7.37 CD 8.65 CE 9.68 NZ 10.66
A ILE - 0 -71.3 123.9 N 6.17 CA 6.45 C 6.59 O 7.33 CB 6.98 CG1 7.49 CG2 7.37 CD1 8.31
A PRO - 8 -51.6 138.2 N 6.9 CA 7.78 C 8.19 O 8.61 CB 8.58 CG 8.51 CD 7.4
A ASP T 95 -55.9 -34.6 N 9.68 CA 9.97 C 9.27 O 10.58 CB 11.57 CG 13.91 OD1 16.07 OD2 21.46
A ASN T 98 -99.7 11.6 N 9.07 CA 9.74 C 8.58 O 9.22 CB 12.66 CG 15.23 OD1 16.5 ND2 17.19
A LEU B 0 -60.4 136.7 N 8.07 CA 7.61 C 8.06 O 8.53 CB 7.64 CG 8.07 CD1 9.98 CD2 7.73
A ALA - 13 -65.5 143.5 N 8.06 CA 8.55 C 7.8 O 8.28 CB 9.54
A PRO S 69 -53.1 147.1 N 8.97 CA 9.25 C 8.39 O 8.86 CB 10.27 CG 10.55 CD 9.74
A GLY E 23 160.6 177.7 N 8.61 CA 8.67 C 7.03 O 7.63
A ASN E 44 -102.0 133.6 N 6.77 CA 6.33 C 5.7 O 6.26 CB 7.12 CG 8.25 OD1 9.6 ND2 10.18
A TYR E 0 -136.5 144.6 N 5.38 CA 5.07 C 4.79 O 4.82 CB 5.02 CG 5.27 CD1 5.7 CD2 5.51 CE1 6.3 CE2 6.25 CZ 6.47 OH 7.39
A VAL E 0 -85.7 126.8 N 4.3 CA 4.31 C 4.26 O 5.06 CB 4.54 CG1 5.09 CG2 5.23
A LEU E 0 -97.0 117.1 N 4.24 CA 4.35 C 4.08 O 4.61 CB 4.81 CG 6.12 CD1 7.17 CD2 7.06
A ARG E 0 -111.8 105.1 N 4.17 CA 3.84 C 4.0 O 4.53 CB 4.01 CG 4.24 CD 4.47 NE 4.57 CZ 4.39 NH1 5.05 NH2 4.4
A HIS E 0 -99.2 142.6 N 3.8 CA 3.8 C 4.01 O 5.23 CB 4.11 CG 4.4 ND1 4.5 CD2 5.55 CE1 4.8 NE2 5.87
A GLU E 0 -152.3 135.0 N 3.54 CA 3.65 C 4.02 O 4.53 CB 3.82 CG 4.16 CD 4.4 OE1 4.86 OE2 4.64
A ILE E 0 -102.7 139.1 N 3.88 CA 4.0 C 4.0 O 4.26 CB 4.62 CG1 4.73 CG2 5.67 CD1 5.37
A ILE E 1 -113.6 131.5 N 4.2 CA 4.76 C 5.06 O 7.14 CB 5.47 CG1 5.59 CG2 6.71 CD1 7.14
A ALA E 0 -101.6 132.4 N 4.51 CA 4.43 C 4.59 O 4.76 CB 5.07
A LEU - 1 -115.9 4.7 N 4.52 CA 4.73 C 4.83 O 5.51 CB 4.95 CG 5.35 CD1 6.1 CD2 5.79
A HIS T 50 -60.1 -25.2 N 5.24 CA 5.83 C 6.17 O 8.4 CB 6.27 CG 6.45 ND1 6.39 CD2 8.02 CE1 6.9 NE2 8.03
A SER T 61 -116.0 13.5 N 6.15 CA 7.38 C 6.53 O 7.2 CB 9.95 OG 12.72
A ALA T 1 -80.5 -1.0 N 5.92 CA 5.4 C 5.2 O 5.66 CB 5.68
A GLY T 46 -72.2 -15.3 N 6.25 CA 6.89 C 6.24 O 7.03
A GLN S 139 -105.7 150.2 N 5.88 CA 6.33 C 6.08 O 5.78 CB 7.4 CG 7.25 CD 6.99 OE1 7.15 NE2 8.58
A ALA T 60 -51.3 135.2 N 6.38 CA 6.71 C 6.34 O 6.78 CB 8.38
A ASN T 63 69.7 15.4 N 6.11 CA 5.86 C 5.73 O 6.7 CB 6.82 CG 7.04 OD1 7.74 ND2 10.18
A GLY - 14 -91.8 -25.6 N 5.47 CA 5.8 C 5.11 O 5.47
A ALA - 1 -60.2 151.7 N 5.18 CA 4.72 C 4.37 O 4.96 CB 4.93
A GLN E 21 -128.3 120.2 N 4.23 CA 4.4 C 4.08 O 5.02 CB 4.6 CG 5.16 CD 6.4 OE1 6.81 NE2 7.6
A ASN E 0 -105.2 138.7 N 3.79 CA 3.81 C 3.84 O 4.39 CB 4.06 CG 4.09 OD1 4.86 ND2 4.62
A TYR E 2 -125.7 71.3 N 3.63 CA 3.55 C 3.5 O 4.35 CB 3.81 CG 3.98 CD1 4.05 CD2 4.48 CE1 4.35 CE2 4.52 CZ 4.42 OH 5.42
A PRO E 0 -76.6 148.4 N 3.75 CA 3.7 C 3.49 O 4.19 CB 4.3 CG 4.31 CD 4.09
A GLN E 19 -142.7 120.4 N 3.51 CA 3.68 C 3.96 O 4.18 CB 4.0 CG 4.09 CD 4.48 OE1 5.34 NE2 4.62
A CYS E 4 -105.6 146.7 N 3.83 CA 3.84 C 3.63 O 4.0 CB 4.17 SG 4.53
A PHE E 3 -139.6 146.6 N 3.97 CA 4.15 C 4.25 O 4.95 CB 4.45 CG 4.44 CD1 4.92 CD2 4.69 CE1 5.42 CE2 5.01 CZ 5.36
A ASN E 0 -95.3 127.1 N 4.27 CA 4.33 C 4.69 O 4.87 CB 4.71 CG 4.92 OD1 5.15 ND2 5.58
A ILE E 1 -125.5 154.1 N 4.83 CA 4.79 C 5.25 O 5.7 CB 5.18 CG1 5.42 CG2 5.97 CD1 5.99
A ALA E 15 -122.5 116.6 N 5.78 CA 6.35 C 6.82 O 7.79 CB 7.52
A VAL E 9 -105.3 130.8 N 7.58 CA 7.77 C 9.24 O 10.29 CB 7.95 CG1 9.03 CG2 7.29
A SER E 60 -110.0 155.4 N 10.73 CA 12.93 C 12.79 O 13.61 CB 14.79 OG 15.29
A GLY - 40 170.4 179.5 N 14.57 CA 15.73 C 15.04 O 18.22
A SER S 119 -95.5 -3.5 N 13.18 CA 12.1 C 12.69 O 12.92 CB 10.97 OG 14.48
A GLY - 17 -103.4 179.3 N 12.02 CA 10.97 C 9.63 O 10.34
A SER - 107 -131.1 11.7 N 9.3 CA 8.98 C 8.83 O 10.16 CB 10.87 OG 12.28
A LEU B 54 -62.4 126.5 N 8.52 CA 9.26 C 8.86 O 9.6 CB 10.87 CG 12.67 CD1 15.87 CD2 15.08
A GLN - 87 -143.3 79.9 N 9.26 CA 9.92 C 9.56 O 11.37 CB 10.99 CG 10.97 CD 11.07 OE1 11.3 NE2 12.08
A PRO - 24 -72.9 154.3 N 8.97 CA 9.21 C 10.36 O 11.72 CB 9.26 CG 8.87 CD 8.15
A SER - 119 -65.8 130.0 N 11.99 CA 12.69 C 9.37 O 10.18 CB 16.41 OG 19.38
A GLY - 18 -114.4 176.4 N 9.45 CA 7.39 C 7.77 O 10.06
A VAL E 44 -125.6 135.1 N 6.17 CA 5.95 C 5.22 O 5.44 CB 6.79 CG1 6.78 CG2 8.39
A LEU E 55 -56.8 144.2 N 5.51 CA 5.37 C 4.9 O 4.82 CB 6.04 CG 6.51 CD1 7.59 CD2 7.44
A GLY G 3 -52.1 -41.5 N 4.77 CA 4.89 C 4.53 O 4.96
A THR G 38 -79.7 1.2 N 4.79 CA 4.86 C 5.0 O 5.95 CB 5.66 OG1 5.99 CG2 6.28
A ASP G 88 -107.4 -0.2 N 5.16 CA 5.39 C 5.36 O 6.69 CB 5.91 CG 6.73 OD1 9.14 OD2 7.93
A LEU S 9 -64.7 -48.8 N 4.71 CA 4.89 C 4.75 O 5.64 CB 5.04 CG 5.2 CD1 5.72 CD2 6.41
A TYR - 2 -130.8 149.4 N 4.67 CA 4.6 C 4.7 O 5.25 CB 5.14 CG 4.57 CD1 4.58 CD2 4.9 CE1 4.65 CE2 5.0 CZ 4.56 OH 5.0
A HIS - 76 -129.8 151.5 N 4.93 CA 5.27 C 5.35 O 5.3 CB 7.33 CG 10.01 ND1 11.88 CD2 13.01 CE1 14.11 NE2 15.69
A ALA T 40 -64.7 -19.7 N 5.66 CA 5.91 C 5.84 O 7.63 CB 6.81
A THR T 113 -101.5 4.7 N 5.84 CA 6.86 C 6.08 O 7.24 CB 10.51 OG1 12.48 CG2 13.0
A ASP - 38 -59.9 149.7 N 5.55 CA 5.47 C 5.52 O 5.42 CB 5.88 CG 7.49 OD1 9.46 OD2 8.5
A PRO T 79 -64.9 -22.9 N 5.82 CA 6.37 C 5.99 O 6.81 CB 8.61 CG 9.09 CD 6.54
A GLY T 0 -96.8 5.9 N 5.64 CA 5.5 C 4.87 O 5.69
A VAL T 3 -108.3 -50.2 N 5.01 CA 5.0 C 4.73 O 5.23 CB 5.14 CG1 5.38 CG2 5.5
A LEU S 72 -102.7 97.2 N 5.1 CA 5.23 C 5.44 O 6.55 CB 5.5 CG 6.16 CD1 7.23 CD2 7.22
A ILE - 20 -157.4 136.4 N 5.38 CA 5.92 C 5.72 O 5.92 CB 7.21 CG1 9.54 CG2 7.42 CD1 10.75
A ASN - 87 -96.7 112.6 N 6.11 CA 6.18 C 6.19 O 8.05 CB 6.86 CG 7.24 OD1 8.12 ND2 7.73
A ILE - 1 -86.6 -5.2 N 5.8 CA 6.37 C 6.59 O 7.92 CB 6.71 CG1 6.99 CG2 7.13 CD1 8.45
A TYR S 100 -94.2 55.3 N 7.0 CA 7.59 C 7.9 O 9.47 CB 7.94 CG 8.27 CD1 8.86 CD2 9.19 CE1 9.53 CE2 10.05 CZ 9.66 OH 11.21
A THR S 62 -152.3 155.1 N 8.74 CA 8.93 C 9.08 O 9.77 CB 10.17 OG1 9.88 CG2 13.03
A SER S 78 -152.3 135.8 N 9.66 CA 10.51 C 11.14 O 12.43 CB 12.03 OG 13.78
A PRO S 123 -70.6 162.0 N 11.89 CA 11.98 C 10.3 O 11.32 CB 14.97 CG 15.86 CD 12.95
A LEU - 25 -141.8 136.8 N 10.58 CA 9.83 C 9.14 O 10.58 CB 9.69 CG 9.25 CD1 10.51 CD2 10.22
A ASN - 151 -120.4 160.6 N 10.04 CA 11.04 C 9.73 O 12.78 CB 14.88 CG 20.04 OD1 30.08 ND2 23.17
A TYR - 32 -145.3 125.0 N 8.47 CA 7.29 C 7.6 O 10.73 CB 7.65 CG 6.75 CD1 6.59 CD2 6.47 CE1 6.12 CE2 6.22 CZ 5.78 OH 6.11
A ILE - 114 -102.1 111.1 N 6.54 CA 6.76 C 5.73 O 5.78 CB 7.88 CG1 9.73 CG2 9.33 CD1 12.24
A ILE - 42 -63.9 132.3 N 6.16 CA 5.96 C 5.69 O 6.27 CB 6.67 CG1 7.54 CG2 7.35 CD1 9.55
A PRO S 6 -64.5 160.2 N 5.92 CA 6.39 C 5.41 O 5.93 CB 8.19 CG 7.69 CD 6.49
A GLY S 30 91.9 -176.0 N 5.33 CA 5.75 C 5.63 O 6.76
A PRO S 34 -73.3 168.4 N 5.72 CA 6.13 C 6.19 O 6.92 CB 6.76 CG 6.63 CD 6.15
A THR - 125 -59.7 146.6 N 7.69 CA 7.93 C 6.06 O 5.97 CB 7.92 OG1 9.3 CG2 10.7
A VAL B 31 -61.0 135.1 N 6.06 CA 5.3 C 5.53 O 6.78 CB 6.15 CG1 6.68 CG2 7.59
A VAL - 22 -52.8 136.9 N 5.46 CA 5.98 C 5.86 O 6.02 CB 7.83 CG1 9.36 CG2 9.25
A SER T 117 -57.8 139.6 N 6.36 CA 6.79 C 6.62 O 8.02 CB 7.08 OG 7.51
A GLY T 75 93.1 -8.7 N 7.83 CA 8.45 C 8.65 O 11.57
A LEU S 37 -97.8 140.8 N 7.3 CA 7.48 C 7.66 O 9.0 CB 7.17 CG 7.8 CD1 8.16 CD2 8.94
A PRO - 75 -65.3 145.8 N 8.14 CA 8.75 C 7.2 O 7.56 CB 9.61 CG 10.15 CD 9.52
A THR S 81 -72.3 -15.6 N 6.4 CA 6.16 C 5.75 O 5.78 CB 6.87 OG1 7.07 CG2 7.48
A SER S 48 -153.9 151.4 N 5.35 CA 4.88 C 5.28 O 6.04 CB 4.98 OG 5.08
A VAL - 31 -95.1 165.8 N 5.25 CA 5.81 C 5.23 O 5.12 CB 6.67 CG1 7.44 CG2 6.76
A ALA - 95 -57.8 125.1 N 6.3 CA 6.62 C 6.1 O 7.31 CB 8.51
A GLN - 44 -82.9 153.9 N 5.55 CA 5.43 C 6.32 O 9.13 CB 4.93 CG 5.17 CD 4.9 OE1 4.86 NE2 5.34
A GLY - 30 155.3 133.3 N 5.84 CA 6.02 C 5.48 O 6.12
A SER - 58 -76.5 149.5 N 5.48 CA 5.31 C 6.09 O 8.04 CB 5.22 OG 5.14
A SER - 74 -141.4 154.3 N 6.7 CA 6.88 C 6.07 O 6.83 CB 7.63 OG 7.55
A ALA - 84 -81.3 151.2 N 7.03 CA 7.36 C 7.28 O 9.91 CB 8.31
A ALA - 37 -73.3 149.7 N 7.49 CA 7.52 C 7.66 O 8.74 CB 8.66
A THR S 131 -109.2 -14.8 N 7.78 CA 8.74 C 8.3 O 8.77 CB 9.56 OG1 10.1 CG2 9.77
A ALA E 48 -150.8 168.8 N 7.58 CA 8.12 C 7.27 O 7.33 CB 9.53
A THR E 101 -128.8 146.0 N 8.08 CA 8.1 C 7.62 O 9.18 CB 10.33 OG1 13.72 CG2 12.86
A ALA - 30 -135.5 167.9 N 7.22 CA 7.04 C 6.92 O 8.75 CB 8.39
A SER - 97 -113.9 154.4 N 8.26 CA 7.67 C 5.96 O 6.54 CB 10.09 OG 15.38
A ALA - 16 -58.5 129.3 N 5.8 CA 5.68 C 5.56 O 6.68 CB 5.99
A THR B 68 -87.5 128.5 N 5.1 CA 5.52 C 5.47 O 5.86 CB 5.59 OG1 5.42 CG2 6.72
A VAL - 77 -90.1 142.3 N 6.19 CA 7.74 C 10.15 O 14.72 CB 10.5 CG1 12.14 CG2 13.7
A PRO - 119 -59.4 360.0 N 11.2 CA 15.5 C 18.11 O 24.89 CB 17.05 CG 15.4 CD 13.07 OXT 24.06
