A ALA - 152 360.0 128.4 N 34.01 CA 42.2 C 42.11 O 42.14 CB 42.52
A THR - 157 -82.1 118.7 N 29.82 CA 30.38 C 28.7 O 26.59 CB 29.97 OG1 28.43 CG2 32.14
A SER - 84 -132.5 140.2 N 33.77 CA 37.11 C 32.0 O 33.24 CB 39.97 OG 35.86
A LEU - 136 -87.0 -1.0 N 36.7 CA 37.75 C 40.12 O 37.1 CB 36.05 CG 40.18 CD1 39.72 CD2 36.66
A LYS - 175 -48.2 125.4 N 44.34 CA 44.08 C 37.54 O 34.07 CB 54.79 CG 67.95 CD 76.56 CE 87.59 NZ 92.7
A GLN - 50 -74.3 141.9 N 40.54 CA 40.79 C 48.27 O 50.07 CB 39.41 CG 38.29 CD 32.57 OE1 31.95 NE2 32.02
A ASP - 101 -106.6 156.2 N 52.34 CA 64.59 C 64.8 O 55.48 CB 75.29 CG 84.42 OD1 96.49 OD2 87.91
A ALA T 77 -54.2 -36.3 N 59.56 CA 62.73 C 56.31 O 51.47 CB 64.57
A ASP T 133 -95.4 6.2 N 49.82 CA 50.72 C 40.95 O 43.21 CB 53.76 CG 58.05 OD1 58.69 OD2 68.32
A ASP - 58 -65.1 154.8 N 40.02 CA 36.84 C 35.02 O 30.85 CB 40.01 CG 42.63 OD1 45.02 OD2 43.44
A MET B 75 -76.1 152.3 N 31.89 CA 35.31 C 29.08 O 28.76 CB 35.71 CG 41.89 SD 46.54 CE 54.84
A CYS - 0 -70.1 133.3 N 25.94 CA 24.09 C 21.44 O 24.08 CB 25.26 SG 25.89
A MET T 73 -92.6 17.0 N 23.17 CA 23.84 C 22.93 O 21.29 CB 25.38 CG 28.13 SD 28.46 CE 28.04
A ILE T 19 -101.0 -56.8 N 23.24 CA 22.26 C 23.53 O 22.51 CB 22.69 CG1 22.64 CG2 22.01 CD1 21.53
A CYS T 40 -84.9 -24.5 N 24.3 CA 25.34 C 24.38 O 27.0 CB 25.7 SG 26.72
A PHE S 123 69.6 -27.5 N 24.82 CA 29.08 C 33.25 O 32.79 CB 27.54 CG 23.32 CD1 25.74 CD2 26.02 CE1 23.58 CE2 24.57 CZ 25.06
A THR S 101 -98.3 -13.2 N 34.01 CA 35.34 C 38.91 O 37.97 CB 37.5 OG1 38.47 CG2 38.77
A GLU S 105 -123.1 142.0 N 36.17 CA 34.38 C 35.83 O 31.56 CB 40.76 CG 48.38 CD 55.65 OE1 66.6 OE2 59.47
A ALA B 23 -66.1 148.7 N 33.41 CA 32.31 C 28.78 O 29.71 CB 37.53
A LEU G 14 -56.9 -39.4 N 27.55 CA 32.74 C 36.34 O 30.89 CB 31.06 CG 32.7 CD1 34.35 CD2 32.86
A SER G 93 -65.0 -17.8 N 37.46 CA 40.34 C 39.21 O 42.63 CB 37.69 OG 40.28
A ALA G 63 -82.0 -6.1 N 38.33 CA 39.52 C 39.01 O 36.31 CB 38.1
A ALA S 47 -161.3 160.0 N 36.05 CA 36.17 C 31.13 O 32.16 CB 36.04
A PRO - 103 -53.5 133.6 N 31.48 CA 30.63 C 28.46 O 29.03 CB 34.01 CG 36.5 CD 32.22
A ALA E 46 -131.9 152.7 N 29.58 CA 31.82 C 33.72 O 33.15 CB 32.32
A ILE E 20 -128.8 151.8 N 28.66 CA 27.95 C 27.7 O 28.6 CB 28.89 CG1 28.98 CG2 34.76 CD1 31.18
A GLN E 116 -100.2 110.0 N 27.59 CA 29.61 C 26.81 O 26.65 CB 31.25 CG 33.55 CD 42.99 OE1 35.69 NE2 38.58
A LEU - 4 -74.3 167.5 N 26.42 CA 24.02 C 27.9 O 30.77 CB 23.81 CG 23.81 CD1 24.53 CD2 23.73
A ASP T 113 -54.4 -34.0 N 28.37 CA 29.78 C 33.22 O 30.84 CB 30.94 CG 34.01 OD1 34.41 OD2 35.13
A CYS T 29 -71.8 -6.3 N 27.25 CA 31.27 C 34.23 O 33.94 CB 28.45 SG 27.73
A SER S 59 92.9 -8.4 N 34.39 CA 36.18 C 33.64 O 31.82 CB 38.18 OG 36.29
A HIS - 30 -86.0 146.0 N 27.74 CA 29.17 C 27.49 O 29.54 CB 28.44 CG 28.55 ND1 28.41 CD2 33.46 CE1 33.56 NE2 31.16
A ILE E 56 -105.9 133.8 N 26.03 CA 28.2 C 26.12 O 27.59 CB 29.8 CG1 33.92 CG2 31.02 CD1 39.44
A PHE E 0 -142.0 160.3 N 25.9 CA 26.0 C 22.92 O 26.0 CB 24.33 CG 24.56 CD1 26.49 CD2 23.0 CE1 23.9 CE2 23.04 CZ 21.31
A HIS E 9 -57.6 139.6 N 26.08 CA 24.24 C 25.77 O 21.86 CB 24.79 CG 23.93 ND1 23.57 CD2 28.31 CE1 27.58 NE2 26.63
A LEU H 53 -56.9 -47.4 N 23.75 CA 24.87 C 22.47 O 24.23 CB 28.05 CG 31.43 CD1 31.04 CD2 36.93
A GLN H 120 -71.0 -32.9 N 22.93 CA 25.06 C 22.31 O 21.02 CB 28.61 CG 36.52 CD 45.68 OE1 47.61 NE2 45.56
A CYS H 17 -65.5 -43.3 N 22.41 CA 19.54 C 19.86 O 18.72 CB 20.61 SG 24.64
A CYS H 0 -60.1 -44.6 N 18.78 CA 20.61 C 21.39 O 18.93 CB 21.79 SG 23.91
A ARG H 48 -59.9 -47.0 N 19.73 CA 19.15 C 19.05 O 18.18 CB 21.63 CG 22.65 CD 23.92 NE 21.86 CZ 24.57 NH1 26.51 NH2 24.02
A ARG H 109 -61.2 -43.9 N 17.66 CA 17.69 C 17.65 O 16.61 CB 21.55 CG 28.14 CD 34.16 NE 33.87 CZ 34.54 NH1 23.31 NH2 29.78
A VAL H 23 -57.5 -42.7 N 17.04 CA 18.35 C 17.21 O 17.54 CB 18.61 CG1 21.41 CG2 19.32
A LEU H 4 -70.8 -31.6 N 17.19 CA 17.54 C 18.98 O 18.44 CB 16.95 CG 17.95 CD1 20.14 CD2 16.94
A GLU H 109 -68.8 -41.6 N 15.6 CA 16.55 C 18.49 O 17.41 CB 15.63 CG 17.94 CD 21.52 OE1 19.59 OE2 20.32
A ASN H 101 -78.4 -24.6 N 17.98 CA 16.73 C 16.9 O 19.93 CB 17.98 CG 19.36 OD1 19.06 ND2 25.72
A ARG - 101 57.3 -146.2 N 15.73 CA 17.5 C 16.92 O 17.28 CB 19.15 CG 21.62 CD 25.37 NE 31.32 CZ 41.72 NH1 42.27 NH2 44.28
A TRP - 22 -88.7 160.8 N 17.08 CA 19.69 C 19.27 O 18.65 CB 18.39 CG 17.01 CD1 19.66 CD2 19.79 NE1 19.56 CE2 19.75 CE3 17.77 CZ2 20.78 CZ3 19.08 CH2 19.15
A LEU S 123 -90.6 130.7 N 19.3 CA 20.13 C 20.77 O 20.07 CB 23.56 CG 27.72 CD1 32.08 CD2 31.63
A GLY S 7 91.9 169.7 N 20.16 CA 20.34 C 20.16 O 20.1
A PRO S 23 -72.6 -32.3 N 18.94 CA 17.81 C 17.02 O 18.72 CB 18.61 CG 19.65 CD 21.44
A ARG S 67 -69.2 132.5 N 16.95 CA 16.16 C 16.03 O 18.81 CB 17.41 CG 17.27 CD 20.2 NE 17.39 CZ 21.45 NH1 23.78 NH2 22.56
A ILE - 8 -64.6 115.9 N 16.54 CA 16.55 C 17.13 O 17.71 CB 16.1 CG1 16.25 CG2 16.29 CD1 17.15
A THR - 51 -138.7 166.5 N 15.83 CA 16.57 C 18.48 O 17.77 CB 20.55 OG1 19.5 CG2 23.95
A PHE - 30 -126.5 7.6 N 17.08 CA 17.31 C 17.97 O 18.13 CB 18.12 CG 16.84 CD1 17.08 CD2 18.4 CE1 18.01 CE2 19.77 CZ 17.51
A GLY G 51 -57.2 -31.7 N 19.64 CA 22.09 C 23.03 O 23.31
A PHE G 34 -57.0 -24.9 N 19.02 CA 20.76 C 20.03 O 23.93 CB 20.76 CG 18.29 CD1 18.32 CD2 19.27 CE1 20.3 CE2 22.36 CZ 22.02
A ILE G 29 -80.3 -0.9 N 20.65 CA 24.09 C 22.78 O 27.24 CB 26.21 CG1 30.59 CG2 32.81 CD1 39.01
A SER B 41 -71.5 128.3 N 23.86 CA 25.98 C 24.51 O 22.5 CB 26.93 OG 32.75
A CYS - 0 -50.1 126.3 N 23.69 CA 22.81 C 24.43 O 23.14 CB 25.9 SG 23.71
A PRO T 45 -58.8 -20.5 N 23.2 CA 23.27 C 28.07 O 27.95 CB 24.03 CG 22.11 CD 21.74
A ILE T 26 -93.2 -56.0 N 25.79 CA 27.37 C 27.19 O 29.26 CB 28.26 CG1 25.64 CG2 27.88 CD1 25.29
A CYS T 41 -107.6 -7.4 N 25.41 CA 30.8 C 31.9 O 25.1 CB 32.48 SG 28.88
A LYS - 135 67.5 3.8 N 29.06 CA 29.45 C 30.11 O 30.12 CB 31.25 CG 34.33 CD 33.09 CE 37.06 NZ 34.33
A ASN S 101 -70.6 160.8 N 26.35 CA 27.13 C 26.12 O 26.76 CB 32.02 CG 40.12 OD1 43.36 ND2 43.09
A LYS B 108 -61.1 126.8 N 24.89 CA 29.08 C 29.99 O 26.23 CB 28.68 CG 40.06 CD 46.68 CE 46.56 NZ 55.8
A ILE - 2 -56.1 125.7 N 22.8 CA 26.16 C 24.48 O 26.09 CB 24.63 CG1 25.05 CG2 24.83 CD1 25.37
A ASN - 50 -155.0 133.2 N 25.41 CA 26.4 C 28.24 O 26.01 CB 30.02 CG 36.59 OD1 37.92 ND2 43.94
A HIS - 37 -156.8 147.4 N 26.69 CA 28.02 C 30.89 O 26.77 CB 27.55 CG 33.44 ND1 35.33 CD2 35.75 CE1 40.32 NE2 38.08
A ILE G 147 -56.7 -36.3 N 29.65 CA 31.52 C 27.28 O 28.29 CB 35.74 CG1 41.09 CG2 40.03 CD1 47.6
A VAL G 63 -76.9 -6.8 N 26.0 CA 31.31 C 28.31 O 28.24 CB 33.84 CG1 37.5 CG2 35.87
A LEU G 0 -100.4 2.7 N 24.92 CA 23.02 C 23.62 O 20.81 CB 22.95 CG 24.44 CD1 23.09 CD2 25.01
A LYS H 120 -58.1 -34.9 N 23.06 CA 25.89 C 23.2 O 22.41 CB 29.41 CG 35.73 CD 45.6 CE 46.09 NZ 44.94
A ASP H 91 -63.8 -31.0 N 21.96 CA 23.6 C 24.33 O 22.35 CB 25.45 CG 27.44 OD1 29.02 OD2 33.87
A LEU H 30 -88.8 -33.4 N 20.52 CA 19.73 C 20.31 O 21.94 CB 18.51 CG 22.44 CD1 21.82 CD2 25.09
A LEU H 9 -73.0 -38.3 N 19.46 CA 19.49 C 22.71 O 22.55 CB 21.48 CG 23.0 CD1 26.65 CD2 23.07
A ASP H 72 -51.2 -51.6 N 23.15 CA 25.37 C 25.27 O 23.81 CB 29.05 CG 34.02 OD1 32.59 OD2 39.46
A PRO H 69 -65.9 -32.6 N 23.1 CA 23.77 C 22.52 O 22.94 CB 28.39 CG 31.98 CD 27.78
A ILE H 12 -61.8 -48.4 N 19.27 CA 20.42 C 20.11 O 19.18 CB 21.0 CG1 20.26 CG2 20.63 CD1 22.15
A LYS H 113 -56.7 -41.0 N 20.84 CA 21.84 C 21.69 O 21.29 CB 25.99 CG 30.36 CD 40.56 CE 40.19 NZ 48.06
A GLU H 144 -63.7 -45.1 N 21.31 CA 22.91 C 21.05 O 19.78 CB 28.4 CG 40.39 CD 56.01 OE1 62.96 OE2 62.33
A LEU H 31 -63.1 -42.6 N 19.62 CA 17.78 C 17.26 O 17.9 CB 18.28 CG 18.63 CD1 19.36 CD2 21.2
A TYR H 70 -54.6 -50.1 N 16.85 CA 18.62 C 17.74 O 17.66 CB 20.34 CG 19.16 CD1 21.81 CD2 22.53 CE1 26.28 CE2 22.74 CZ 25.1 OH 26.01
A GLU H 53 -65.0 -35.2 N 18.86 CA 20.07 C 17.48 O 18.3 CB 22.67 CG 28.08 CD 33.6 OE1 33.94 OE2 37.54
A ASP H 44 -68.2 -47.0 N 18.27 CA 18.76 C 17.3 O 18.72 CB 20.78 CG 24.3 OD1 27.57 OD2 27.23
A VAL H 5 -63.4 -46.3 N 16.43 CA 16.78 C 17.22 O 15.43 CB 17.24 CG1 19.1 CG2 18.1
A ARG H 56 -60.7 -45.7 N 16.59 CA 16.72 C 17.75 O 16.49 CB 17.33 CG 17.74 CD 19.82 NE 19.48 CZ 20.52 NH1 19.3 NH2 21.35
A ARG H 152 -57.3 -48.9 N 16.92 CA 18.66 C 17.26 O 16.01 CB 21.78 CG 25.64 CD 26.4 NE 29.04 CZ 30.27 NH1 27.51 NH2 34.03
A LYS H 34 -64.4 -42.5 N 15.41 CA 16.85 C 16.01 O 17.09 CB 16.35 CG 19.88 CD 19.92 CE 23.41 NZ 26.11
A ALA H 0 -61.9 -48.3 N 15.05 CA 17.25 C 16.36 O 16.21 CB 18.7
A LEU H 44 -58.3 -46.9 N 16.25 CA 16.79 C 16.6 O 17.3 CB 18.5 CG 17.97 CD1 18.17 CD2 19.36
A MET H 41 -58.0 -45.1 N 16.27 CA 19.62 C 18.49 O 19.64 CB 19.27 CG 23.65 SD 27.39 CE 28.6
A ARG H 7 -60.9 -42.0 N 18.77 CA 19.41 C 19.77 O 18.74 CB 23.55 CG 26.67 CD 34.33 NE 39.52 CZ 37.72 NH1 31.52 NH2 41.41
A LEU H 0 -61.9 -43.8 N 18.0 CA 18.7 C 19.75 O 20.02 CB 19.12 CG 19.71 CD1 21.25 CD2 21.26
A GLU H 90 -64.2 -45.8 N 17.78 CA 19.33 C 21.1 O 20.45 CB 20.36 CG 24.56 CD 26.79 OE1 29.65 OE2 28.95
A TYR H 84 -67.3 -25.9 N 20.82 CA 21.36 C 24.04 O 24.58 CB 22.61 CG 19.88 CD1 21.54 CD2 24.41 CE1 26.83 CE2 24.62 CZ 29.22 OH 33.97
A GLU T 40 -80.4 -7.7 N 20.12 CA 21.53 C 19.49 O 21.95 CB 24.13 CG 29.64 CD 31.34 OE1 30.24 OE2 40.85
A GLY T 53 71.8 27.2 N 23.35 CA 24.19 C 23.77 O 21.96
A LEU - 49 -106.4 3.3 N 20.41 CA 20.65 C 21.46 O 21.57 CB 22.99 CG 25.85 CD1 26.14 CD2 28.81
A HIS T 62 -74.6 -5.0 N 19.91 CA 20.64 C 23.03 O 25.32 CB 21.74 CG 21.66 ND1 24.96 CD2 24.4 CE1 25.04 NE2 24.35
A LYS T 151 -114.0 28.9 N 24.52 CA 28.73 C 27.82 O 33.82 CB 31.53 CG 32.03 CD 40.33 CE 45.23 NZ 49.29
A SER - 27 -59.1 151.5 N 27.15 CA 30.68 C 29.08 O 28.11 CB 30.83 OG 30.14
A GLU H 159 -53.3 -33.5 N 30.46 CA 34.35 C 30.45 O 29.7 CB 45.21 CG 57.8 CD 67.9 OE1 69.01 OE2 77.4
A ALA H 40 -62.7 -14.3 N 29.83 CA 28.4 C 25.45 O 26.75 CB 30.79
A ILE H 5 -106.3 -30.6 N 23.18 CA 22.89 C 23.84 O 24.41 CB 22.89 CG1 23.27 CG2 22.63 CD1 20.92
A THR H 61 -95.9 -9.4 N 24.81 CA 29.53 C 34.03 O 34.64 CB 29.39 OG1 30.98 CG2 31.17
A THR S 55 -89.1 114.8 N 29.04 CA 32.22 C 30.62 O 33.16 CB 30.43 OG1 32.84 CG2 37.71
A PRO T 92 -55.2 141.1 N 36.0 CA 35.44 C 32.36 O 34.25 CB 35.37 CG 37.37 CD 38.1
A GLY T 78 89.9 -9.0 N 35.45 CA 37.57 C 43.12 O 45.36
A VAL S 59 -89.5 161.7 N 39.78 CA 33.07 C 30.51 O 30.4 CB 33.44 CG1 39.73 CG2 31.96
A ARG T 197 -48.2 -49.2 N 26.26 CA 29.01 C 25.99 O 29.12 CB 32.57 CG 34.28 CD 38.72 NE 40.11 CZ 41.61 NH1 41.84 NH2 43.93
A PHE T 24 -100.6 23.1 N 24.28 CA 24.3 C 23.78 O 20.51 CB 21.47 CG 21.75 CD1 22.94 CD2 25.92 CE1 23.66 CE2 24.85 CZ 23.97
A TYR T 98 -56.2 123.9 N 24.65 CA 22.23 C 21.37 O 22.37 CB 24.67 CG 26.2 CD1 30.01 CD2 30.12 CE1 30.84 CE2 34.47 CZ 33.76 OH 37.19
A ASN T 110 54.8 29.1 N 21.34 CA 23.21 C 20.85 O 22.26 CB 27.0 CG 30.09 OD1 29.92 ND2 39.16
A ASP - 49 -131.8 62.1 N 20.25 CA 19.01 C 17.69 O 19.63 CB 20.1 CG 22.19 OD1 20.15 OD2 23.75
A PRO H 36 -57.5 -32.9 N 18.55 CA 17.81 C 17.61 O 17.17 CB 21.14 CG 18.35 CD 19.2
A ALA H 9 -71.6 -39.7 N 17.84 CA 17.3 C 17.81 O 17.42 CB 17.52
A GLY H 8 -62.7 -41.4 N 17.21 CA 18.06 C 17.84 O 19.51
A TYR H 34 -57.0 -47.4 N 15.53 CA 16.78 C 17.27 O 17.05 CB 18.31 CG 19.83 CD1 22.09 CD2 19.51 CE1 25.3 CE2 21.18 CZ 24.18 OH 26.37
A ALA H 0 -65.1 -43.2 N 16.5 CA 16.82 C 16.86 O 17.0 CB 16.2
A MET H 28 -58.9 -36.1 N 17.56 CA 18.52 C 19.58 O 17.27 CB 18.88 CG 17.59 SD 19.39 CE 24.33
A ASN H 81 -73.3 -38.5 N 17.38 CA 20.79 C 22.03 O 21.09 CB 20.48 CG 26.49 OD1 25.71 ND2 26.92
A ARG H 86 -72.7 -38.4 N 19.32 CA 18.49 C 18.77 O 20.35 CB 18.26 CG 20.89 CD 22.32 NE 24.21 CZ 27.45 NH1 31.0 NH2 28.44
A TYR E 2 -108.2 149.7 N 17.45 CA 17.3 C 16.77 O 16.77 CB 18.39 CG 18.03 CD1 19.5 CD2 20.09 CE1 19.89 CE2 19.95 CZ 22.65 OH 24.69
A ALA E 2 -105.3 122.7 N 16.28 CA 16.65 C 17.6 O 18.96 CB 17.35
A TYR E 10 -112.9 152.2 N 15.27 CA 15.84 C 14.78 O 17.07 CB 15.57 CG 14.77 CD1 17.21 CD2 16.49 CE1 16.52 CE2 18.2 CZ 16.94 OH 18.5
A TYR E 12 -136.0 152.6 N 15.45 CA 16.1 C 15.62 O 17.32 CB 15.64 CG 15.05 CD1 16.6 CD2 16.55 CE1 16.26 CE2 15.5 CZ 17.53 OH 18.53
A VAL E 28 -86.4 121.6 N 17.34 CA 17.41 C 18.06 O 18.95 CB 18.49 CG1 20.24 CG2 18.4
A CYS - 0 -69.9 123.5 N 16.05 CA 18.01 C 18.74 O 19.17 CB 18.69 SG 19.58
A TYR T 110 -54.9 -42.2 N 17.79 CA 18.86 C 21.27 O 19.79 CB 18.77 CG 19.64 CD1 24.06 CD2 23.29 CE1 27.38 CE2 25.97 CZ 28.57 OH 31.95
A LYS T 139 -80.0 -53.9 N 19.88 CA 20.78 C 22.9 O 27.58 CB 25.6 CG 37.6 CD 51.86 CE 58.9 NZ 65.93
A CYS T 58 -96.2 -9.9 N 20.81 CA 21.35 C 23.11 O 22.58 CB 23.46 SG 21.76
A ARG - 159 72.1 7.5 N 20.34 CA 22.96 C 24.56 O 24.88 CB 23.4 CG 24.92 CD 25.63 NE 27.11 CZ 31.87 NH1 27.44 NH2 33.43
A LYS - 53 -85.9 144.9 N 22.89 CA 24.98 C 22.17 O 22.05 CB 28.7 CG 40.21 CD 47.71 CE 50.11 NZ 45.96
A ALA E 4 -70.1 130.0 N 20.09 CA 19.0 C 19.46 O 20.34 CB 19.22
A TYR E 17 -125.6 150.2 N 19.22 CA 19.96 C 18.53 O 17.24 CB 20.98 CG 18.33 CD1 17.85 CD2 17.79 CE1 17.19 CE2 18.2 CZ 16.85 OH 17.0
A PHE E 18 -76.3 127.1 N 17.34 CA 19.92 C 20.04 O 20.49 CB 20.26 CG 23.23 CD1 28.65 CD2 22.14 CE1 31.83 CE2 25.44 CZ 29.2
A GLY E 7 -120.1 26.8 N 18.43 CA 19.95 C 21.4 O 26.13
A GLY E 7 103.6 -176.9 N 21.4 CA 24.29 C 24.94 O 20.75
A GLU E 100 -74.9 141.3 N 23.93 CA 24.75 C 27.56 O 30.62 CB 29.14 CG 31.93 CD 43.13 OE1 46.94 OE2 49.27
A ALA - 81 -62.4 360.0 N 23.08 CA 27.9 C 30.07 O 32.23 CB 28.16
A GLY - 76 360.0 -129.8 N 45.93 CA 35.04 C 32.34 O 28.51
A ASP - 74 -81.1 6.8 N 32.11 CA 34.74 C 35.28 O 28.53 CB 37.15 CG 39.66 OD1 29.26 OD2 48.86
A ASP - 164 -82.1 65.6 N 38.94 CA 41.88 C 35.96 O 36.03 CB 47.89 CG 62.18 OD1 60.07 OD2 74.89
A TYR S 58 -145.0 163.9 N 26.22 CA 22.3 C 21.6 O 21.29 CB 24.34 CG 23.68 CD1 23.48 CD2 21.53 CE1 22.11 CE2 22.54 CZ 25.29 OH 25.51
A ASP - 33 -104.0 111.2 N 18.85 CA 21.14 C 19.52 O 18.92 CB 20.72 CG 26.91 OD1 20.62 OD2 30.31
A PRO G 65 -59.4 -24.0 N 19.75 CA 17.71 C 17.64 O 18.43 CB 20.69 CG 21.33 CD 19.12
A ARG G 144 -70.7 -8.3 N 17.95 CA 18.1 C 18.75 O 21.87 CB 20.3 CG 23.33 CD 32.71 NE 39.66 CZ 51.27 NH1 39.36 NH2 57.1
A GLU G 51 -103.2 -0.7 N 18.86 CA 17.16 C 18.12 O 18.8 CB 20.62 CG 23.22 CD 23.72 OE1 25.61 OE2 29.19
A LEU B 4 -87.7 104.6 N 17.57 CA 17.97 C 20.06 O 21.06 CB 18.04 CG 19.25 CD1 20.3 CD2 21.06
A ILE - 12 -135.5 132.2 N 18.18 CA 19.06 C 19.54 O 20.95 CB 20.27 CG1 25.4 CG2 21.63 CD1 31.83
A CYS - 1 -74.2 168.0 N 18.12 CA 18.5 C 20.19 O 20.2 CB 19.16 SG 21.18
A GLY T 8 -62.8 -38.5 N 20.3 CA 21.13 C 22.45 O 23.17
A ALA G 29 -63.1 -32.4 N 21.8 CA 22.37 C 22.55 O 24.36 CB 23.27
A CYS G 36 -92.3 -2.4 N 19.49 CA 20.56 C 21.83 O 21.93 CB 21.48 SG 22.97
A SER G 4 -134.8 41.6 N 22.03 CA 21.72 C 21.95 O 21.32 CB 22.98 OG 21.36
A ASP - 19 -85.5 68.5 N 21.04 CA 25.01 C 25.24 O 26.66 CB 23.84 CG 25.39 OD1 25.6 OD2 27.68
A VAL T 60 -65.1 -20.5 N 25.71 CA 28.37 C 28.83 O 28.64 CB 27.74 CG1 28.5 CG2 30.53
A SER T 58 -101.8 1.2 N 27.35 CA 31.45 C 30.8 O 36.52 CB 30.23 OG 31.71
A ARG - 186 46.9 61.6 N 32.0 CA 36.64 C 39.66 O 36.67 CB 40.17 CG 50.43 CD 58.57 NE 67.95 CZ 72.28 NH1 76.12 NH2 77.87
A ALA - 15 -59.5 151.0 N 31.77 CA 36.55 C 33.97 O 30.6 CB 34.85
A GLN - 180 -65.1 138.5 N 35.81 CA 42.22 C 37.7 O 38.4 CB 47.24 CG 64.51 CD 69.37 OE1 79.83 NE2 73.82
A MET - 120 -66.5 151.5 N 35.25 CA 42.28 C 37.39 O 36.98 CB 47.94 CG 58.03 SD 61.49 CE 66.74
A CYS B 15 -79.9 126.3 N 30.9 CA 31.5 C 32.99 O 30.59 CB 31.14 SG 29.97
A PRO T 136 -55.0 -35.3 N 37.56 CA 39.53 C 37.25 O 34.5 CB 39.89 CG 39.83 CD 35.97
A LYS T 135 -84.1 -43.4 N 30.99 CA 33.07 C 34.32 O 31.79 CB 34.81 CG 40.04 CD 50.33 CE 56.67 NZ 58.96
A HIS T 28 -114.4 -2.3 N 29.58 CA 28.45 C 29.2 O 31.15 CB 26.02 CG 28.76 ND1 28.49 CD2 29.9 CE1 29.71 NE2 30.35
A GLY B 29 66.2 -121.8 N 28.38 CA 31.18 C 23.92 O 26.23
A THR T 37 -113.1 15.4 N 26.54 CA 26.39 C 25.62 O 24.22 CB 27.95 OG1 30.5 CG2 34.28
A ASP T 102 -59.0 -29.7 N 23.41 CA 27.0 C 22.14 O 23.27 CB 27.36 CG 33.56 OD1 37.35 OD2 37.92
A PHE T 49 -122.6 22.5 N 20.61 CA 20.89 C 21.98 O 22.59 CB 20.51 CG 21.62 CD1 25.21 CD2 23.34 CE1 25.98 CE2 24.97 CZ 24.92
A LEU E 13 -65.2 130.1 N 21.95 CA 21.67 C 19.72 O 21.55 CB 20.15 CG 22.14 CD1 24.06 CD2 24.46
A GLU E 10 -132.8 148.6 N 20.39 CA 20.96 C 19.82 O 23.75 CB 23.55 CG 26.95 CD 23.26 OE1 31.27 OE2 27.07
A TYR E 2 -105.0 156.7 N 19.17 CA 21.39 C 20.51 O 22.04 CB 19.31 CG 20.63 CD1 21.15 CD2 21.03 CE1 21.79 CE2 22.86 CZ 23.05 OH 25.11
A LYS B 1 -84.3 158.4 N 21.76 CA 21.48 C 19.73 O 20.39 CB 22.25 CG 23.98 CD 24.77 CE 23.84 NZ 23.54
A CYS - 0 -51.1 133.1 N 19.23 CA 19.96 C 21.65 O 21.15 CB 20.78 SG 21.5
A ARG T 57 -61.6 -27.7 N 22.25 CA 23.04 C 21.71 O 25.0 CB 22.53 CG 23.58 CD 24.68 NE 24.22 CZ 28.26 NH1 29.73 NH2 26.02
A TYR T 19 -107.7 -2.7 N 18.85 CA 22.77 C 21.76 O 22.16 CB 22.92 CG 21.34 CD1 24.12 CD2 22.78 CE1 24.73 CE2 22.73 CZ 24.87 OH 25.38
A CYS S 0 -160.2 172.5 N 24.06 CA 21.53 C 21.39 O 20.66 CB 21.66 SG 22.11
A CYS S 3 -83.0 60.6 N 24.41 CA 23.08 C 24.56 O 25.02 CB 25.01 SG 26.6
A SER S 31 -135.7 156.7 N 23.65 CA 23.18 C 21.69 O 19.79 CB 24.16 OG 26.09
A VAL B 14 -71.6 144.1 N 22.76 CA 22.79 C 20.26 O 21.35 CB 22.95 CG1 24.03 CG2 25.22
A ALA - 8 -74.9 143.5 N 18.92 CA 19.46 C 22.22 O 27.55 CB 21.07
A VAL - 3 -111.6 -53.8 N 20.97 CA 20.56 C 20.95 O 19.42 CB 20.33 CG1 21.07 CG2 23.17
A PHE E 2 -99.2 149.3 N 18.64 CA 18.98 C 20.32 O 20.2 CB 19.85 CG 20.4 CD1 23.23 CD2 22.18 CE1 25.09 CE2 24.55 CZ 22.15
A PHE E 26 -128.1 113.6 N 19.54 CA 19.78 C 19.96 O 20.77 CB 19.16 CG 19.52 CD1 21.28 CD2 22.01 CE1 24.82 CE2 23.99 CZ 24.73
A CYS E 5 -117.7 156.9 N 20.69 CA 20.19 C 22.7 O 21.27 CB 22.64 SG 25.0
A PHE T 123 61.6 11.2 N 24.56 CA 27.37 C 29.32 O 27.36 CB 28.21 CG 26.64 CD1 27.5 CD2 24.37 CE1 28.39 CE2 23.35 CZ 28.74
A GLY T 57 67.0 10.9 N 27.52 CA 25.64 C 26.49 O 25.74
A THR T 65 -136.5 -29.6 N 25.03 CA 24.63 C 22.54 O 22.84 CB 24.62 OG1 23.92 CG2 28.25
A THR E 4 -122.8 123.1 N 22.58 CA 21.37 C 20.77 O 20.94 CB 23.48 OG1 24.25 CG2 25.59
A HIS E 2 -81.0 137.1 N 20.12 CA 20.0 C 21.61 O 22.21 CB 19.6 CG 20.51 ND1 20.18 CD2 21.57 CE1 21.39 NE2 20.44
A PHE E 0 -132.2 139.1 N 19.36 CA 18.18 C 18.51 O 20.31 CB 19.14 CG 19.24 CD1 21.26 CD2 21.74 CE1 22.54 CE2 21.89 CZ 21.03
A CYS - 8 -71.6 171.9 N 19.56 CA 19.23 C 20.94 O 20.98 CB 20.93 SG 22.41
A ASN H 52 -62.3 -45.0 N 22.17 CA 23.32 C 24.0 O 25.05 CB 26.84 CG 38.04 OD1 48.48 ND2 42.97
A ALA H 27 -66.9 -43.3 N 22.42 CA 25.24 C 22.64 O 26.4 CB 26.09
A CYS H 0 -67.1 -39.9 N 23.09 CA 22.82 C 24.35 O 23.31 CB 21.42 SG 21.9
A HIS H 30 -57.5 -42.6 N 21.26 CA 22.77 C 21.45 O 24.73 CB 22.29 CG 24.87 ND1 27.63 CD2 27.67 CE1 27.03 NE2 28.97
A ASP H 120 -57.3 -33.0 N 22.39 CA 25.1 C 28.87 O 28.78 CB 28.36 CG 32.94 OD1 31.89 OD2 34.02
A ASP T 43 -110.0 35.7 N 25.94 CA 25.69 C 26.86 O 27.87 CB 26.95 CG 29.29 OD1 28.71 OD2 30.16
A PHE H 75 -64.3 -31.0 N 23.33 CA 23.51 C 25.14 O 25.22 CB 24.26 CG 25.36 CD1 28.6 CD2 26.57 CE1 32.95 CE2 27.63 CZ 28.11
A GLN H 140 -61.3 -55.9 N 22.95 CA 24.97 C 21.35 O 23.21 CB 27.23 CG 31.94 CD 45.9 OE1 48.68 NE2 53.76
A ARG H 114 -61.4 -47.2 N 23.83 CA 26.16 C 26.09 O 22.59 CB 24.24 CG 25.27 CD 27.87 NE 27.35 CZ 33.04 NH1 30.52 NH2 30.39
A MET H 0 -61.9 -37.0 N 23.66 CA 22.24 C 21.76 O 22.61 CB 22.63 CG 25.05 SD 25.52 CE 25.61
A THR H 59 -77.4 -14.7 N 21.76 CA 23.18 C 22.15 O 24.51 CB 24.47 OG1 28.16 CG2 26.16
A SER H 91 -92.8 -24.5 N 23.65 CA 22.16 C 22.6 O 21.35 CB 23.2 OG 24.25
A ILE S 34 -60.5 126.6 N 23.01 CA 23.95 C 22.66 O 22.98 CB 23.36 CG1 23.67 CG2 23.84 CD1 25.03
A PRO - 62 -53.9 141.9 N 24.09 CA 23.59 C 21.75 O 24.34 CB 26.27 CG 25.19 CD 25.23
A LYS G 99 -54.9 -41.8 N 24.73 CA 27.43 C 28.06 O 24.04 CB 29.38 CG 32.62 CD 35.97 CE 39.79 NZ 38.92
A GLU G 164 -76.6 -5.8 N 29.35 CA 31.45 C 26.54 O 29.38 CB 38.62 CG 48.26 CD 57.43 OE1 62.96 OE2 36.8
A GLU G 143 -97.9 -7.3 N 23.75 CA 22.65 C 23.66 O 25.02 CB 27.58 CG 29.99 CD 33.29 OE1 33.98 OE2 38.14
A LEU S 16 -63.6 149.9 N 25.03 CA 26.23 C 26.28 O 28.5 CB 23.69 CG 24.13 CD1 25.17 CD2 27.26
A PRO - 9 -57.2 144.1 N 27.14 CA 26.95 C 29.16 O 25.21 CB 27.6 CG 27.66 CD 26.84
A HIS - 122 -89.2 154.3 N 26.08 CA 26.79 C 24.45 O 28.61 CB 30.4 CG 34.39 ND1 37.23 CD2 37.37 CE1 37.71 NE2 36.59
A CYS S 45 -47.8 130.2 N 28.27 CA 29.4 C 33.52 O 33.71 CB 31.62 SG 29.37
A PRO S 2 -75.2 120.4 N 32.33 CA 29.98 C 28.85 O 29.06 CB 31.76 CG 30.9 CD 34.36
A ALA E 1 -111.8 128.4 N 26.04 CA 24.72 C 27.52 O 25.63 CB 27.16
A GLY E 4 -86.4 162.9 N 25.81 CA 30.5 C 27.72 O 23.41
A PRO G 50 -61.4 164.2 N 26.99 CA 26.6 C 25.76 O 27.28 CB 29.79 CG 30.06 CD 28.65
A LYS G 87 59.1 36.1 N 23.38 CA 26.15 C 27.67 O 28.52 CB 30.96 CG 34.72 CD 42.87 CE 53.77 NZ 60.81
A GLY G 21 82.7 15.8 N 24.96 CA 29.17 C 30.82 O 31.2
A LYS E 124 -78.2 123.3 N 28.02 CA 31.23 C 29.43 O 29.34 CB 35.44 CG 40.67 CD 47.96 CE 53.89 NZ 49.0
A GLN E 66 -84.6 112.9 N 28.93 CA 28.2 C 30.52 O 32.97 CB 30.73 CG 30.95 CD 29.4 OE1 30.64 NE2 32.44
A LEU - 60 -84.3 161.0 N 32.44 CA 34.13 C 38.48 O 34.5 CB 34.95 CG 34.78 CD1 35.81 CD2 35.79
A GLU S 180 -78.3 159.7 N 43.96 CA 46.77 C 47.49 O 40.47 CB 53.97 CG 62.21 CD 67.47 OE1 70.6 OE2 68.33
A GLY S 54 94.4 -172.9 N 46.3 CA 44.8 C 45.03 O 47.21
A THR S 138 -125.1 8.2 N 37.7 CA 41.53 C 36.06 O 42.06 CB 47.09 OG1 48.66 CG2 47.33
A GLU - 121 -99.2 122.5 N 38.47 CA 43.92 C 34.99 O 35.84 CB 49.99 CG 55.77 CD 68.96 OE1 85.35 OE2 68.73
A CYS - 4 -67.3 127.3 N 32.05 CA 31.11 C 31.49 O 31.74 CB 32.25 SG 29.52
A PRO T 58 -53.8 -27.5 N 29.62 CA 30.02 C 32.32 O 30.36 CB 32.06 CG 32.67 CD 29.98
A LEU T 15 -87.2 -10.8 N 30.55 CA 30.14 C 35.81 O 31.02 CB 32.74 CG 30.83 CD1 33.2 CD2 34.69
A HIS - 134 55.3 47.0 N 33.87 CA 33.5 C 38.19 O 39.68 CB 38.37 CG 37.24 ND1 43.09 CD2 42.83 CE1 40.32 NE2 47.5
A VAL S 47 -145.0 156.4 N 33.38 CA 34.41 C 32.0 O 33.65 CB 40.48 CG1 39.84 CG2 43.9
A VAL - 131 -86.5 130.2 N 36.07 CA 38.81 C 35.11 O 35.03 CB 40.81 CG1 44.92 CG2 45.14
A HIS - 28 -146.3 162.4 N 33.41 CA 29.5 C 30.34 O 29.68 CB 28.47 CG 24.78 ND1 24.99 CD2 23.83 CE1 22.19 NE2 23.86
A PRO - 34 -64.4 168.7 N 31.25 CA 31.66 C 30.59 O 28.27 CB 32.02 CG 34.83 CD 31.27
A PRO - 81 -52.0 142.7 N 29.21 CA 29.51 C 26.27 O 27.48 CB 30.97 CG 33.56 CD 32.9
A THR T 7 -48.6 135.4 N 26.0 CA 25.9 C 24.94 O 23.33 CB 26.36 OG1 27.49 CG2 24.98
A GLY T 14 101.3 -1.7 N 21.38 CA 22.46 C 21.79 O 25.02
A GLU S 68 -115.1 142.2 N 22.23 CA 23.68 C 23.99 O 24.33 CB 28.13 CG 30.03 CD 35.88 OE1 35.16 OE2 38.7
A GLU - 30 -63.3 146.4 N 23.7 CA 24.95 C 28.04 O 22.71 CB 24.43 CG 22.28 CD 22.3 OE1 22.12 OE2 22.91
A PHE - 55 -156.9 125.0 N 23.75 CA 25.99 C 22.8 O 23.25 CB 24.18 CG 27.71 CD1 28.67 CD2 27.99 CE1 32.8 CE2 32.11 CZ 32.2
A ALA E 18 -74.2 118.8 N 23.41 CA 25.17 C 29.36 O 25.41 CB 26.05
A LEU E 14 -78.5 -13.8 N 24.43 CA 26.44 C 26.86 O 28.01 CB 25.83 CG 27.58 CD1 25.45 CD2 30.54
A GLY E 20 87.6 -152.5 N 26.46 CA 24.91 C 25.38 O 23.0
A CYS E 15 -75.6 118.4 N 26.01 CA 22.67 C 24.73 O 24.47 CB 24.71 SG 23.31
A GLY T 0 -62.7 -29.6 N 20.96 CA 22.34 C 23.52 O 24.66
A VAL T 3 -87.2 -37.2 N 21.95 CA 24.5 C 24.98 O 26.1 CB 25.9 CG1 28.22 CG2 25.41
A CYS G 19 -79.3 -27.3 N 22.55 CA 26.9 C 30.57 O 32.8 CB 26.3 SG 29.07
A ARG G 59 -50.5 -37.1 N 29.43 CA 33.99 C 35.09 O 37.89 CB 38.48 CG 50.57 CD 47.24 NE 41.09 CZ 46.08 NH1 62.25 NH2 47.32
A ASN G 70 -54.1 -38.6 N 40.04 CA 42.85 C 39.07 O 45.87 CB 45.38 CG 48.77 OD1 55.39 ND2 45.99
A ALA T 93 -95.7 -38.5 N 41.84 CA 44.51 C 50.11 O 48.05 CB 40.46
A HIS - 104 -36.0 360.0 N 53.01 CA 64.32 C 68.52 O 60.77 CB 30.0
