A ASN - 213 360.0 132.5 N 53.81 CA 61.39 C 59.88 O 72.66 CB 68.56 CG 81.73 OD1 79.01 ND2 72.29 H 64.57 HA 73.67 HB2 82.27 HB3 82.27 HD21 86.75 HD22 86.75
A VAL - 41 -119.6 150.9 N 62.49 CA 59.08 C 54.94 O 46.85 CB 46.59 H 74.99 HA 70.89
A GLU T 85 -66.1 149.5 N 45.58 CA 44.58 C 41.62 O 38.28 CB 49.35 H 54.7 HA 53.5
A GLY T 28 76.2 14.0 N 37.3 CA 36.7 C 46.75 O 44.05 H 44.76 HA2 44.04 HA3 44.04
A VAL E 35 -139.8 115.3 N 40.39 CA 34.8 C 34.91 O 46.24 CB 31.17 CG1 31.41 CG2 42.89 H 48.47 HA 41.76 HB 37.4 HG11 37.69 HG12 37.69 HG13 37.69 HG21 51.46 HG22 51.46 HG23 51.46
A LYS E 138 -100.8 122.1 N 39.21 CA 33.36 C 28.67 O 29.0 CB 27.05 CG 42.08 CD 33.48 CE 47.84 NZ 31.66 H 47.06 HA 40.03 HB2 32.46 HB3 32.46 HG2 50.49 HG3 50.49 HD2 40.17 HD3 40.17 HE2 57.41 HE3 57.41 HZ1 37.99 HZ2 37.99 HZ3 37.99
A LYS E 74 -96.6 128.5 N 25.22 CA 26.93 C 37.37 O 37.58 CB 24.29 CG 15.08 CD 21.02 CE 19.35 NZ 29.74 H 30.27 HA 32.31 HB2 29.15 HB3 29.15 HG2 18.1 HG3 18.1 HD2 25.22 HD3 25.22 HE2 23.22 HE3 23.22 HZ1 35.69 HZ2 35.69 HZ3 35.69
A THR E 65 -124.6 132.5 N 31.87 CA 24.68 C 26.94 O 23.88 CB 33.65 OG1 35.76 CG2 30.49 H 38.24 HA 29.62 HB 40.39 HG1 42.91 HG21 36.59 HG22 36.59 HG23 36.59
A ILE E 87 -93.7 123.9 N 27.51 CA 26.01 C 32.06 O 30.28 CB 19.7 CG1 30.62 CG2 27.85 CD1 29.72 H 33.01 HA 31.22 HB 23.64 HG12 36.74 HG13 36.74 HG21 33.42 HG22 33.42 HG23 33.42 HD11 35.66 HD12 35.66 HD13 35.66
A LEU E 35 -99.3 -29.7 N 30.34 CA 23.25 C 28.99 O 29.58 CB 22.4 CG 22.39 CD1 13.14 CD2 33.8 H 36.4 HA 27.9 HB2 26.88 HB3 26.88 HG 26.87 HD11 15.77 HD12 15.77 HD13 15.77 HD21 40.56 HD22 40.56 HD23 40.56
A HIS E 45 -138.3 120.1 N 28.65 CA 31.28 C 28.21 O 28.22 CB 27.73 CG 27.74 ND1 29.12 CD2 27.05 CE1 36.31 NE2 32.26 H 34.38 HA 37.54 HB2 33.28 HB3 33.28 HD2 32.46 HE1 43.57 HE2 38.71
A GLY - 45 -69.7 144.5 N 31.15 CA 28.3 C 34.02 O 36.79 H 37.39 HA2 33.96 HA3 33.96
A GLY - 13 -82.1 178.4 N 32.03 CA 32.06 C 33.84 O 32.47 H 38.43 HA2 38.48 HA3 38.48
A THR - 83 -121.5 133.0 N 38.08 CA 39.8 C 41.88 O 35.51 CB 44.93 OG1 48.19 CG2 39.1 H 45.69 HA 47.76 HB 53.91 HG1 57.82 HG21 46.92 HG22 46.92 HG23 46.92
A GLY S 41 94.1 179.0 N 42.27 CA 51.64 C 46.32 O 45.32 H 50.72 HA2 61.96 HA3 61.96
A GLU S 175 -76.4 169.3 N 51.01 CA 51.16 C 49.73 O 49.19 CB 47.37 CG 45.43 CD 46.71 OE1 49.98 OE2 44.54 H 61.22 HA 61.39 HB2 56.85 HB3 56.85 HG2 54.51 HG3 54.51
A LEU - 109 -56.2 127.6 N 51.53 CA 46.21 C 42.99 O 38.84 CB 52.53 CG 43.4 CD1 36.26 CD2 40.49 H 61.83 HA 55.46 HB2 63.03 HB3 63.03 HG 52.08 HD11 43.51 HD12 43.51 HD13 43.51 HD21 48.59 HD22 48.59 HD23 48.59
A PRO - 16 -47.9 159.2 N 36.02 CA 25.31 C 36.35 O 35.0 CB 27.68 CG 30.25 CD 30.23 HA 30.37 HB2 33.21 HB3 33.21 HG2 36.29 HG3 36.29 HD2 36.28 HD3 36.28
A ASN - 110 -89.7 102.9 N 38.37 CA 38.01 C 27.3 O 30.29 CB 40.32 CG 39.93 OD1 40.87 ND2 33.36 H 46.04 HA 45.61 HB2 48.38 HB3 48.38 HD21 40.03 HD22 40.03
A PHE - 17 -97.9 48.3 N 29.96 CA 30.42 C 25.36 O 25.38 CB 32.34 CG 20.61 CD1 27.52 CD2 23.25 CE1 24.41 CE2 25.75 CZ 32.44 H 35.95 HA 36.51 HB2 38.81 HB3 38.81 HD1 33.03 HD2 27.9 HE1 29.29 HE2 30.9 HZ 38.93
A ILE - 50 -82.5 157.4 N 24.84 CA 33.65 C 35.22 O 33.39 CB 36.3 CG1 37.12 CG2 40.96 CD1 51.02 H 29.81 HA 40.38 HB 43.56 HG12 44.54 HG13 44.54 HG21 49.15 HG22 49.15 HG23 49.15 HD11 61.22 HD12 61.22 HD13 61.22
A THR T 57 -45.7 125.6 N 28.71 CA 18.97 C 24.63 O 34.01 CB 25.66 OG1 21.1 CG2 25.12 H 34.45 HA 22.77 HB 30.79 HG1 25.32 HG21 30.14 HG22 30.14 HG23 30.14
A GLY T 25 93.6 -17.4 N 33.45 CA 34.25 C 31.35 O 36.49 H 40.14 HA2 41.11 HA3 41.11
A SER - 0 -64.8 149.1 N 35.99 CA 33.07 C 37.03 O 32.67 CB 36.47 OG 38.6 H 43.19 HA 39.68 HB2 43.76 HB3 43.76 HG 46.32
A ARG E 88 -108.6 130.2 N 38.24 CA 42.94 C 35.96 O 24.44 CB 40.66 CG 48.78 CD 46.6 NE 46.32 CZ 63.52 NH1 61.23 NH2 63.93 H 45.88 HA 51.53 HB2 48.79 HB3 48.79 HG2 58.54 HG3 58.54 HD2 55.92 HD3 55.92 HE 55.58 HH11 73.48 HH12 73.48 HH21 76.71 HH22 76.71
A VAL E 0 -109.1 124.6 N 34.4 CA 25.61 C 26.48 O 20.69 CB 21.74 CG1 26.86 CG2 29.08 H 41.28 HA 30.73 HB 26.09 HG11 32.24 HG12 32.24 HG13 32.24 HG21 34.9 HG22 34.9 HG23 34.9
A ILE E 32 -108.5 125.7 N 25.24 CA 27.14 C 21.55 O 22.64 CB 28.17 CG1 29.71 CG2 24.41 CD1 35.97 H 30.28 HA 32.56 HB 33.8 HG12 35.65 HG13 35.65 HG21 29.29 HG22 29.29 HG23 29.29 HD11 43.16 HD12 43.16 HD13 43.16
A PHE E 15 -155.4 158.0 N 13.3 CA 17.97 C 23.98 O 24.6 CB 15.78 CG 24.7 CD1 19.53 CD2 20.35 CE1 26.85 CE2 16.76 CZ 26.52 H 15.96 HA 21.56 HB2 18.94 HB3 18.94 HD1 23.44 HD2 24.42 HE1 32.22 HE2 20.11 HZ 31.83
A HIS E 17 -106.5 155.5 N 22.34 CA 16.14 C 20.4 O 23.52 CB 22.03 CG 24.36 ND1 19.33 CD2 25.71 CE1 21.57 NE2 23.97 H 26.81 HA 19.37 HB2 26.44 HB3 26.44 HD2 30.85 HE1 25.88 HE2 28.76
A PHE E 23 -151.0 156.3 N 22.28 CA 18.29 C 13.48 O 16.28 CB 23.03 CG 18.69 CD1 28.84 CD2 19.61 CE1 27.02 CE2 18.1 CZ 15.14 H 26.74 HA 21.95 HB2 27.64 HB3 27.64 HD1 34.61 HD2 23.53 HE1 32.43 HE2 21.72 HZ 18.17
A ARG E 25 -138.6 135.5 N 17.15 CA 21.73 C 17.01 O 24.24 CB 21.46 CG 23.02 CD 32.11 NE 46.72 CZ 51.11 NH1 39.79 NH2 53.04 H 20.58 HA 26.07 HB2 25.75 HB3 25.75 HG2 27.63 HG3 27.63 HD2 38.53 HD3 38.53 HE 56.07 HH11 47.75 HH12 47.75 HH21 63.65 HH22 63.65
A THR E 0 -117.0 133.1 N 15.29 CA 19.54 C 13.0 O 21.65 CB 18.02 OG1 18.5 CG2 25.4 H 18.35 HA 23.45 HB 21.63 HG1 22.2 HG21 30.48 HG22 30.48 HG23 30.48
A MET E 2 -139.7 141.2 N 12.33 CA 18.85 C 29.18 O 25.41 CB 28.76 CG 34.2 SD 34.46 CE 38.4 H 14.79 HA 22.61 HB2 34.51 HB3 34.51 HG2 41.04 HG3 41.04 HE1 46.08 HE2 46.08 HE3 46.08
A LYS - 63 -60.3 169.0 N 24.49 CA 29.94 C 23.82 O 33.24 CB 32.38 CG 27.57 CD 36.6 CE 36.35 NZ 44.21 H 29.39 HA 35.93 HB2 38.86 HB3 38.86 HG2 33.08 HG3 33.08 HD2 43.92 HD3 43.92 HE2 43.62 HE3 43.62 HZ1 53.06 HZ2 53.06 HZ3 53.06
A CYS S 59 -107.4 13.0 N 27.51 CA 33.56 C 34.78 O 31.52 CB 33.6 SG 31.04 H 33.01 HA 40.27 HB2 40.32 HB3 40.32 HG 37.25
A ASP S 43 -62.9 -177.3 N 36.87 CA 31.86 C 33.58 O 30.04 CB 41.35 CG 35.39 OD1 31.33 OD2 34.19 H 44.24 HA 38.23 HB2 49.62 HB3 49.62
A GLU S 93 -66.7 -36.4 N 39.41 CA 42.68 C 43.74 O 37.3 CB 49.44 H 47.29 HA 51.21
A GLU S 131 -84.6 -7.8 N 39.84 CA 40.88 C 41.9 O 28.66 CB 41.93 CG 50.91 CD 49.61 OE1 39.8 OE2 49.28 H 47.81 HA 49.06 HB2 50.32 HB3 50.32 HG2 61.1 HG3 61.1
A ARG - 53 46.6 52.0 N 40.18 CA 33.68 C 30.46 O 30.46 CB 37.51 CG 32.15 CD 39.23 NE 36.61 CZ 37.11 NH1 41.96 NH2 47.79 H 48.22 HA 40.42 HB2 45.02 HB3 45.02 HG2 38.58 HG3 38.58 HD2 47.08 HD3 47.08 HE 43.94 HH11 50.35 HH12 50.35 HH21 57.34 HH22 57.34
A THR - 64 -48.8 124.9 N 24.94 CA 31.2 C 36.08 O 26.5 CB 40.09 OG1 35.28 CG2 36.16 H 29.93 HA 37.44 HB 48.1 HG1 42.34 HG21 43.39 HG22 43.39 HG23 43.39
A VAL E 46 -76.6 132.0 N 29.08 CA 26.7 C 23.44 O 28.18 CB 22.92 CG1 26.01 CG2 31.2 H 34.9 HA 32.03 HB 27.51 HG11 31.22 HG12 31.22 HG13 31.22 HG21 37.44 HG22 37.44 HG23 37.44
A ILE E 16 -95.2 -51.4 N 30.78 CA 23.24 C 25.35 O 18.22 CB 27.07 CG1 24.48 CG2 20.75 CD1 33.22 H 36.93 HA 27.89 HB 32.48 HG12 29.38 HG13 29.38 HG21 24.9 HG22 24.9 HG23 24.9 HD11 39.87 HD12 39.87 HD13 39.87
A ASP E 19 -136.4 148.3 N 24.29 CA 24.08 C 19.3 O 19.37 CB 22.19 CG 24.0 OD1 19.63 OD2 23.4 H 29.15 HA 28.89 HB2 26.63 HB3 26.63
A ASP E 6 -145.5 107.0 N 20.09 CA 21.31 C 25.25 O 27.51 CB 27.78 CG 27.83 OD1 24.99 OD2 22.49 H 24.11 HA 25.57 HB2 33.34 HB3 33.34
A SER H 1 -53.0 -44.4 N 26.9 CA 27.52 C 33.48 O 24.41 CB 20.76 OG 40.6 H 32.28 HA 33.02 HB2 24.91 HB3 24.91 HG 48.72
A ARG H 50 -61.3 -47.6 N 23.54 CA 32.51 C 37.33 O 41.8 CB 29.54 CG 29.98 CD 42.72 NE 39.94 CZ 24.07 NH1 24.83 NH2 27.48 H 28.25 HA 39.01 HB2 35.45 HB3 35.45 HG2 35.97 HG3 35.97 HD2 51.26 HD3 51.26 HE 47.93 HH11 29.8 HH12 29.8 HH21 32.98 HH22 32.98
A GLN H 104 -54.4 -54.4 N 34.81 CA 44.1 C 31.1 O 39.56 CB 31.43 CG 46.58 CD 57.73 OE1 61.06 NE2 56.56 H 41.77 HA 52.92 HB2 37.71 HB3 37.71 HG2 55.89 HG3 55.89 HE21 67.87 HE22 67.87
A VAL H 105 -64.6 -37.4 N 40.33 CA 41.82 C 38.46 O 39.32 CB 30.57 CG1 41.68 CG2 40.82 H 48.39 HA 50.19 HB 36.69 HG11 50.02 HG12 50.02 HG13 50.02 HG21 48.98 HG22 48.98 HG23 48.98
A GLY S 33 161.7 -123.8 N 47.91 CA 44.33 C 40.53 O 44.94 H 57.49 HA2 53.2 HA3 53.2
A GLN S 161 -82.0 162.7 N 43.19 CA 42.94 C 36.31 O 31.6 CB 48.04 CG 41.25 CD 59.65 OE1 66.82 NE2 66.02 H 51.83 HA 51.53 HB2 57.64 HB3 57.64 HG2 49.5 HG3 49.5 HE21 79.22 HE22 79.22
A PRO - 38 -70.7 152.3 N 37.44 CA 28.33 C 28.43 O 30.71 CB 27.78 CG 36.85 CD 31.63 HA 34.0 HB2 33.33 HB3 33.33 HG2 44.23 HG3 44.23 HD2 37.96 HD3 37.96
A MET E 45 -67.1 158.4 N 28.48 CA 35.44 C 30.9 O 27.65 CB 27.08 CG 35.53 SD 43.92 CE 30.42 H 34.17 HA 42.53 HB2 32.49 HB3 32.49 HG2 42.64 HG3 42.64 HE1 36.51 HE2 36.51 HE3 36.51
A HIS E 131 -148.2 114.3 N 25.85 CA 28.73 C 38.35 O 33.35 CB 38.27 CG 56.54 ND1 62.87 CD2 64.46 CE1 62.09 NE2 73.56 H 31.02 HA 34.48 HB2 45.92 HB3 45.92 HD2 77.36 HE1 74.51 HE2 88.28
A ILE E 35 -118.1 160.6 N 34.83 CA 36.68 C 38.16 O 39.68 CB 39.07 CG1 24.09 CG2 38.1 CD1 31.04 H 41.79 HA 44.01 HB 46.88 HG12 28.9 HG13 28.9 HG21 45.71 HG22 45.71 HG23 45.71 HD11 37.25 HD12 37.25 HD13 37.25
A ILE E 104 -114.1 128.5 N 38.93 CA 38.12 C 33.62 O 34.32 CB 43.9 CG1 41.12 CG2 38.65 CD1 33.08 H 46.71 HA 45.75 HB 52.68 HG12 49.35 HG13 49.35 HG21 46.39 HG22 46.39 HG23 46.39 HD11 39.69 HD12 39.69 HD13 39.69
A ILE - 1 -63.9 111.3 N 31.45 CA 32.58 C 30.07 O 33.67 CB 26.64 CG1 36.01 CG2 26.52 CD1 33.09 H 37.74 HA 39.1 HB 31.97 HG12 43.22 HG13 43.22 HG21 31.82 HG22 31.82 HG23 31.82 HD11 39.7 HD12 39.7 HD13 39.7
A GLY S 52 -64.1 -43.7 N 36.69 CA 28.54 C 22.53 O 27.88 H 44.02 HA2 34.25 HA3 34.25
A ASN - 57 -154.8 111.1 N 26.69 CA 20.69 C 22.96 O 23.56 CB 24.81 CG 29.68 OD1 28.64 ND2 33.36 H 32.02 HA 24.82 HB2 29.77 HB3 29.77 HD21 40.03 HD22 40.03
A MET T 70 -55.0 -24.2 N 22.26 CA 28.17 C 30.37 O 33.13 CB 23.86 CG 32.01 SD 27.43 CE 26.98 H 26.71 HA 33.8 HB2 28.64 HB3 28.64 HG2 38.41 HG3 38.41 HE1 32.38 HE2 32.38 HE3 32.38
A PHE T 174 -89.3 -3.7 N 31.01 CA 29.38 C 30.83 O 36.07 CB 36.42 CG 29.59 CD1 29.32 CD2 33.87 CE1 32.24 CE2 25.1 CZ 23.23 H 37.21 HA 35.25 HB2 43.71 HB3 43.71 HD1 35.18 HD2 40.65 HE1 38.69 HE2 30.12 HZ 27.87
A LYS S 115 -151.4 89.7 N 34.87 CA 40.35 C 24.5 O 27.09 CB 32.39 CG 33.98 CD 42.08 CE 32.28 NZ 47.07 H 41.84 HA 48.41 HB2 38.87 HB3 38.87 HG2 40.77 HG3 40.77 HD2 50.5 HD3 50.5 HE2 38.74 HE3 38.74 HZ1 56.49 HZ2 56.49 HZ3 56.49
A LEU - 63 -86.0 139.0 N 33.65 CA 28.37 C 28.33 O 26.56 CB 28.84 CG 28.54 CD1 40.64 CD2 29.58 H 40.37 HA 34.04 HB2 34.6 HB3 34.6 HG 34.24 HD11 48.77 HD12 48.77 HD13 48.77 HD21 35.5 HD22 35.5 HD23 35.5
A GLU - 72 -65.2 161.5 N 32.0 CA 30.5 C 30.76 O 28.96 CB 32.03 CG 44.24 CD 43.72 OE1 47.85 OE2 41.76 H 38.4 HA 36.6 HB2 38.44 HB3 38.44 HG2 53.09 HG3 53.09
A VAL H 75 -60.2 -47.3 N 27.14 CA 33.66 C 30.52 O 28.1 CB 40.44 CG1 44.76 CG2 38.29 H 32.57 HA 40.39 HB 48.53 HG11 53.71 HG12 53.71 HG13 53.71 HG21 45.95 HG22 45.95 HG23 45.95
A TRP H 80 -63.5 -22.8 N 27.03 CA 31.88 C 29.63 O 23.58 CB 31.08 CG 28.32 CD1 25.23 CD2 23.93 NE1 30.39 CE2 32.54 CE3 32.96 CZ2 41.76 CZ3 40.92 CH2 39.84 H 32.44 HA 38.26 HB2 37.3 HB3 37.3 HD1 30.27 HE1 36.46 HE3 39.55 HZ2 50.11 HZ3 49.1 HH2 47.8
A GLU H 4 -75.0 -35.1 N 23.97 CA 24.95 C 28.31 O 28.62 CB 23.46 CG 28.11 CD 29.92 OE1 23.78 OE2 27.52 H 28.77 HA 29.94 HB2 28.15 HB3 28.15 HG2 33.73 HG3 33.73
A ILE H 78 -53.9 -40.2 N 31.01 CA 27.36 C 27.3 O 26.85 CB 24.97 CG1 27.03 CG2 28.72 CD1 28.64 H 37.21 HA 32.83 HB 29.96 HG12 32.44 HG13 32.44 HG21 34.47 HG22 34.47 HG23 34.47 HD11 34.37 HD12 34.37 HD13 34.37
A LEU H 22 -68.7 -54.1 N 27.65 CA 23.9 C 25.51 O 25.03 CB 27.12 CG 30.28 CD1 35.89 CD2 17.37 H 33.18 HA 28.67 HB2 32.54 HB3 32.54 HG 36.33 HD11 43.06 HD12 43.06 HD13 43.06 HD21 20.84 HD22 20.84 HD23 20.84
A LEU H 1 -60.8 -44.3 N 22.07 CA 23.31 C 25.89 O 20.94 CB 15.2 CG 18.77 CD1 18.42 CD2 23.19 H 26.49 HA 27.98 HB2 18.24 HB3 18.24 HG 22.52 HD11 22.11 HD12 22.11 HD13 22.11 HD21 27.83 HD22 27.83 HD23 27.83
A THR T 26 -72.4 -5.9 N 22.27 CA 21.25 C 25.18 O 26.1 CB 26.69 OG1 25.81 CG2 20.02 H 26.73 HA 25.5 HB 32.02 HG1 30.97 HG21 24.02 HG22 24.02 HG23 24.02
A SER T 47 -84.1 -0.3 N 18.61 CA 22.34 C 21.36 O 20.72 CB 19.03 OG 26.05 H 22.33 HA 26.81 HB2 22.84 HB3 22.84 HG 31.26
A MET - 0 -111.0 153.4 N 26.05 CA 30.72 C 33.73 O 25.83 CB 21.39 CG 20.42 SD 22.14 CE 21.72 H 31.26 HA 36.87 HB2 25.66 HB3 25.66 HG2 24.5 HG3 24.5 HE1 26.06 HE2 26.06 HE3 26.06
A ARG - 100 -106.8 157.4 N 17.95 CA 23.8 C 19.35 O 22.18 CB 36.89 CG 34.43 CD 35.03 NE 45.05 CZ 57.99 NH1 58.31 NH2 66.0 H 21.54 HA 28.55 HB2 44.26 HB3 44.26 HG2 41.32 HG3 41.32 HD2 42.04 HD3 42.04 HE 54.06 HH11 69.98 HH12 69.98 HH21 79.2 HH22 79.2
A VAL T 38 -54.8 134.6 N 18.84 CA 27.08 C 27.08 O 22.46 CB 22.4 CG1 37.58 CG2 31.89 H 22.61 HA 32.5 HB 26.88 HG11 45.1 HG12 45.1 HG13 45.1 HG21 38.27 HG22 38.27 HG23 38.27
A HIS T 32 75.0 -7.6 N 27.28 CA 28.54 C 30.09 O 22.97 CB 27.23 CG 31.73 ND1 30.18 CD2 23.9 CE1 27.51 NE2 31.65 H 32.73 HA 34.25 HB2 32.67 HB3 32.67 HD1 36.21 HD2 28.68 HE1 33.02
A GLU - 5 -62.0 145.8 N 23.72 CA 21.07 C 20.28 O 21.37 CB 33.29 CG 20.14 CD 29.05 OE1 24.69 OE2 33.43 H 28.46 HA 25.28 HB2 39.94 HB3 39.94 HG2 24.16 HG3 24.16
A VAL E 15 -124.5 120.7 N 21.92 CA 26.16 C 25.64 O 22.68 CB 28.59 CG1 25.39 CG2 19.13 H 26.3 HA 31.4 HB 34.31 HG11 30.47 HG12 30.47 HG13 30.47 HG21 22.96 HG22 22.96 HG23 22.96
A ALA E 0 -131.9 150.4 N 26.88 CA 18.5 C 20.02 O 25.56 CB 31.64 H 32.26 HA 22.2 HB1 37.97 HB2 37.97 HB3 37.97
A GLU E 42 -106.6 127.6 N 20.23 CA 21.46 C 31.44 O 32.09 CB 21.27 CG 31.77 CD 35.05 OE1 34.86 OE2 46.32 H 24.28 HA 25.76 HB2 25.52 HB3 25.52 HG2 38.13 HG3 38.13
A PHE E 4 -120.2 108.0 N 21.21 CA 23.99 C 31.34 O 30.47 CB 26.28 CG 26.12 CD1 17.99 CD2 23.96 CE1 19.17 CE2 24.17 CZ 28.19 H 25.45 HA 28.79 HB2 31.54 HB3 31.54 HD1 21.58 HD2 28.76 HE1 23.0 HE2 29.01 HZ 33.83
A TRP E 62 -80.3 131.0 N 26.19 CA 22.03 C 30.4 O 35.03 CB 30.44 CG 36.19 CD1 26.36 CD2 36.52 NE1 33.07 CE2 37.99 CE3 39.46 CZ2 46.38 CZ3 46.43 CH2 42.32 H 31.42 HA 26.44 HB2 36.53 HB3 36.53 HD1 31.63 HE1 39.69 HE3 47.35 HZ2 55.66 HZ3 55.72 HH2 50.78
A CYS E 5 -129.6 128.3 N 31.2 CA 33.12 C 36.6 O 36.7 CB 28.36 SG 31.47 H 37.44 HA 39.74 HB2 34.03 HB3 34.03 HG 37.76
A ASP - 63 -72.0 168.6 N 49.59 CA 43.03 C 29.52 O 31.53 CB 44.67 CG 49.49 OD1 37.46 OD2 54.55 H 59.51 HA 51.64 HB2 53.6 HB3 53.6
A THR H 50 -47.2 -29.8 N 30.18 CA 29.35 C 33.91 O 35.68 CB 30.37 OG1 45.27 CG2 26.09 H 36.22 HA 35.21 HB 36.45 HG1 54.32 HG21 31.31 HG22 31.31 HG23 31.31
A ILE H 136 -67.3 -32.8 N 33.73 CA 28.74 C 31.33 O 38.31 CB 40.3 CG1 39.34 CG2 37.82 CD1 37.61 H 40.48 HA 34.49 HB 48.36 HG12 47.2 HG13 47.2 HG21 45.38 HG22 45.38 HG23 45.38 HD11 45.13 HD12 45.13 HD13 45.13
A HIS H 62 -86.5 -12.4 N 23.64 CA 30.82 C 25.15 O 24.86 CB 44.08 CG 43.82 ND1 47.86 CD2 38.49 CE1 46.89 NE2 38.17 H 28.37 HA 36.98 HB2 52.9 HB3 52.9 HD2 46.19 HE1 56.26 HE2 45.81
A THR H 8 -110.3 -2.3 N 21.15 CA 31.07 C 30.55 O 20.32 CB 31.45 OG1 27.44 CG2 21.32 H 25.38 HA 37.28 HB 37.74 HG1 32.93 HG21 25.58 HG22 25.58 HG23 25.58
A GLY T 34 -60.7 -28.0 N 30.9 CA 24.47 C 23.94 O 33.08 H 37.08 HA2 29.36 HA3 29.36
A VAL T 81 -75.4 -14.4 N 25.82 CA 28.68 C 23.99 O 25.3 CB 29.23 CG1 30.99 CG2 40.05 H 30.98 HA 34.42 HB 35.08 HG11 37.18 HG12 37.18 HG13 37.18 HG21 48.06 HG22 48.06 HG23 48.06
A TYR H 11 -65.1 -37.3 N 33.22 CA 26.28 C 27.55 O 23.11 CB 23.22 CG 24.05 CD1 27.25 CD2 29.65 CE1 32.53 CE2 20.11 CZ 17.16 OH 20.6 H 39.87 HA 31.54 HB2 27.86 HB3 27.86 HD1 32.7 HD2 35.58 HE1 39.04 HE2 24.13 HH 24.71
A PRO H 1 -61.5 -44.4 N 29.12 CA 25.28 C 25.71 O 23.25 CB 31.5 CG 22.95 CD 29.27 HA 30.34 HB2 37.8 HB3 37.8 HG2 27.54 HG3 27.54 HD2 35.12 HD3 35.12
A ILE H 92 -67.9 -41.1 N 28.22 CA 30.16 C 25.31 O 30.44 CB 34.81 CG1 38.51 CG2 33.47 CD1 26.81 H 33.86 HA 36.19 HB 41.78 HG12 46.21 HG13 46.21 HG21 40.16 HG22 40.16 HG23 40.16 HD11 32.17 HD12 32.17 HD13 32.17
A LEU H 49 -57.4 -46.0 N 32.56 CA 31.75 C 32.0 O 29.7 CB 22.54 CG 32.19 CD1 43.15 CD2 41.56 H 39.08 HA 38.1 HB2 27.05 HB3 27.05 HG 38.63 HD11 51.78 HD12 51.78 HD13 51.78 HD21 49.88 HD22 49.88 HD23 49.88
A SER H 0 -64.2 -38.9 N 27.34 CA 27.66 C 29.36 O 25.32 CB 25.73 OG 22.14 H 32.81 HA 33.19 HB2 30.87 HB3 30.87 HG 26.57
A ARG H 39 -50.5 -46.9 N 28.67 CA 31.48 C 28.68 O 36.09 CB 37.09 CG 31.76 CD 38.77 NE 54.17 CZ 55.1 NH1 43.45 NH2 48.27 H 34.41 HA 37.78 HB2 44.51 HB3 44.51 HG2 38.11 HG3 38.11 HD2 46.52 HD3 46.52 HE 65.0 HH11 52.14 HH12 52.14 HH21 57.92 HH22 57.92
A SER H 33 -73.9 -39.5 N 31.64 CA 35.32 C 30.76 O 29.9 CB 29.07 OG 47.18 H 37.97 HA 42.38 HB2 34.89 HB3 34.89 HG 56.61
A LEU H 48 -58.2 -41.9 N 28.93 CA 32.06 C 23.7 O 29.23 CB 28.98 CG 30.16 CD1 38.41 CD2 39.05 H 34.72 HA 38.47 HB2 34.77 HB3 34.77 HG 36.2 HD11 46.09 HD12 46.09 HD13 46.09 HD21 46.86 HD22 46.86 HD23 46.86
A ARG H 42 -65.7 -31.4 N 28.41 CA 33.11 C 34.48 O 40.16 CB 30.73 CG 33.19 CD 30.61 NE 27.14 CZ 32.89 NH1 25.55 NH2 32.46 H 34.09 HA 39.73 HB2 36.87 HB3 36.87 HG2 39.83 HG3 39.83 HD2 36.73 HD3 36.73 HE 32.57 HH11 30.66 HH12 30.66 HH21 38.96 HH22 38.96
A GLN H 12 -78.2 -35.4 N 33.94 CA 32.95 C 31.8 O 38.67 CB 30.7 CG 36.04 CD 44.61 OE1 35.39 NE2 55.82 H 40.73 HA 39.55 HB2 36.84 HB3 36.84 HG2 43.25 HG3 43.25 HE21 66.98 HE22 66.98
A MET H 98 -65.1 -39.6 N 34.21 CA 41.22 C 43.67 O 47.35 CB 39.71 CG 45.2 SD 45.71 CE 40.16 H 41.05 HA 49.46 HB2 47.65 HB3 47.65 HG2 54.24 HG3 54.24 HE1 48.19 HE2 48.19 HE3 48.19
A ALA H 83 -49.7 -47.5 N 42.87 CA 39.94 C 40.02 O 47.21 CB 36.31 H 51.44 HA 47.93 HB1 43.57 HB2 43.57 HB3 43.57
A GLN T 101 -68.7 -167.7 N 44.14 CA 42.47 C 44.84 O 44.22 CB 43.19 CG 41.88 CD 55.37 OE1 52.83 NE2 45.19 H 52.96 HA 50.96 HB2 51.82 HB3 51.82 HG2 50.25 HG3 50.25 HE21 54.23 HE22 54.23
A GLY T 88 -86.9 10.7 N 39.32 CA 52.79 C 58.84 O 63.45 H 47.18 HA2 63.35 HA3 63.35
A LYS - 90 -101.1 139.8 N 52.5 CA 45.9 C 64.32 O 65.09 CB 43.07 CG 49.82 CD 47.13 CE 54.28 NZ 70.47 H 63.0 HA 55.09 HB2 51.68 HB3 51.68 HG2 59.79 HG3 59.79 HD2 56.55 HD3 56.55 HE2 65.13 HE3 65.13 HZ1 84.56 HZ2 84.56 HZ3 84.56
A ASP - 91 -96.8 97.1 N 59.83 CA 62.32 C 57.53 O 59.87 CB 57.59 CG 60.75 OD1 55.74 OD2 56.51 H 71.8 HA 74.79 HB2 69.11 HB3 69.11
A PRO T 30 -55.6 -13.5 N 54.07 CA 57.54 C 55.64 O 53.27 CB 55.44 CG 52.92 CD 56.07 HA 69.04 HB2 66.53 HB3 66.53 HG2 63.5 HG3 63.5 HD2 67.28 HD3 67.28
A THR T 85 -94.3 -12.2 N 63.92 CA 62.65 C 49.25 O 67.85 CB 61.51 H 76.71 HA 75.18
A GLU S 36 -64.8 147.6 N 55.94 CA 64.46 C 60.45 O 60.2 CB 56.87 H 67.13 HA 77.35
A TRP H 165 -67.6 -41.2 N 56.37 CA 62.46 C 57.72 O 54.51 CB 60.15 CG 59.46 CD1 55.91 CD2 54.6 NE1 46.22 CE2 54.86 CE3 56.24 CZ2 51.41 CZ3 59.65 CH2 54.17 H 67.64 HA 74.96 HB2 72.18 HB3 72.18 HD1 67.09 HE1 55.46 HE3 67.49 HZ2 61.69 HZ3 71.58 HH2 65.0
A HIS H 148 -68.8 -36.8 N 55.16 CA 50.12 C 40.71 O 33.08 CB 62.92 CG 72.96 ND1 72.12 CD2 75.09 CE1 69.69 NE2 68.24 H 66.19 HA 60.14 HB2 75.5 HB3 75.5 HD2 90.11 HE1 83.63 HE2 81.89
A VAL H 19 -62.6 -45.8 N 46.41 CA 39.49 C 40.52 O 35.42 CB 44.1 CG1 39.91 CG2 54.53 H 55.69 HA 47.39 HB 52.92 HG11 47.89 HG12 47.89 HG13 47.89 HG21 65.44 HG22 65.44 HG23 65.44
A HIS H 77 -72.2 -36.2 N 45.74 CA 43.27 C 35.23 O 38.46 CB 50.73 CG 53.98 ND1 59.6 CD2 51.55 CE1 44.58 NE2 48.4 H 54.89 HA 51.92 HB2 60.88 HB3 60.88 HD2 61.86 HE1 53.49 HE2 58.08
A THR H 49 -60.6 -51.4 N 32.07 CA 31.18 C 33.98 O 27.74 CB 35.6 OG1 35.51 CG2 42.9 H 38.48 HA 37.41 HB 42.71 HG1 42.61 HG21 51.48 HG22 51.48 HG23 51.48
A CYS H 51 -55.2 -41.5 N 33.86 CA 39.74 C 32.72 O 32.7 CB 39.88 SG 66.34 H 40.63 HA 47.69 HB2 47.86 HB3 47.86 HG 79.61
A GLY H 8 -58.5 -51.6 N 35.15 CA 23.47 C 31.0 O 27.62 H 42.18 HA2 28.17 HA3 28.17
A LEU H 114 -61.7 -41.9 N 24.86 CA 28.2 C 22.71 O 22.16 CB 35.11 CG 34.79 CD1 39.29 CD2 34.25 H 29.83 HA 33.84 HB2 42.13 HB3 42.13 HG 41.74 HD11 47.15 HD12 47.15 HD13 47.15 HD21 41.1 HD22 41.1 HD23 41.1
A ALA H 54 -61.5 -51.9 N 19.59 CA 19.54 C 32.41 O 24.34 CB 20.89 H 23.51 HA 23.44 HB1 25.07 HB2 25.07 HB3 25.07
A ASN H 61 -63.8 -36.1 N 24.34 CA 26.57 C 24.92 O 32.15 CB 23.49 CG 29.94 OD1 39.82 ND2 26.69 H 29.21 HA 31.88 HB2 28.18 HB3 28.18 HD21 32.03 HD22 32.03
A MET H 74 -63.5 -42.9 N 24.05 CA 24.52 C 30.6 O 28.56 CB 35.7 CG 27.61 SD 54.26 CE 41.76 H 28.86 HA 29.42 HB2 42.84 HB3 42.84 HG2 33.13 HG3 33.13 HE1 50.11 HE2 50.11 HE3 50.11
A PHE H 187 -70.5 -48.1 N 21.51 CA 31.1 C 32.61 O 33.88 CB 34.42 CG 38.35 CD1 40.18 CD2 37.56 CE1 37.45 CE2 38.09 CZ 49.8 H 25.81 HA 37.32 HB2 41.3 HB3 41.3 HD1 48.21 HD2 45.07 HE1 44.94 HE2 45.7 HZ 59.76
A ALA H 61 -61.1 -42.2 N 23.21 CA 28.43 C 31.81 O 37.09 CB 29.24 H 27.86 HA 34.12 HB1 35.09 HB2 35.09 HB3 35.09
A TYR H 165 -125.6 -4.6 N 28.14 CA 29.9 C 30.27 O 33.71 CB 23.94 CG 24.48 CD1 34.73 CD2 23.47 CE1 26.08 CE2 24.26 CZ 19.48 OH 29.09 H 33.77 HA 35.88 HB2 28.73 HB3 28.73 HD1 41.67 HD2 28.16 HE1 31.29 HE2 29.11 HH 34.91
A HIS - 78 59.3 46.8 N 26.43 CA 27.45 C 26.75 O 37.34 CB 27.08 H 31.72 HA 32.94
A THR - 34 -138.7 148.0 N 27.44 CA 25.9 C 25.79 O 26.91 CB 32.5 OG1 40.07 CG2 29.53 H 32.92 HA 31.08 HB 39.0 HG1 48.08 HG21 35.44 HG22 35.44 HG23 35.44
A LEU - 7 -97.0 -0.7 N 36.3 CA 36.63 C 30.11 O 39.75 CB 33.96 CG 31.06 CD1 34.62 CD2 38.86 H 43.57 HA 43.96 HB2 40.76 HB3 40.76 HG 37.27 HD11 41.54 HD12 41.54 HD13 41.54 HD21 46.63 HD22 46.63 HD23 46.63
A GLY S 54 101.9 5.6 N 27.91 CA 38.29 C 32.34 O 38.0 H 33.49 HA2 45.95 HA3 45.95
A TYR - 51 -152.6 120.9 N 35.94 CA 38.62 C 33.49 O 39.99 CB 32.37 CG 28.59 CD1 35.89 CD2 41.39 CE1 37.11 CE2 34.95 CZ 25.5 OH 39.75 H 43.13 HA 46.34 HB2 38.85 HB3 38.85 HD1 43.07 HD2 49.67 HE1 44.53 HE2 41.94 HH 47.7
A GLU H 170 -60.8 -42.8 N 35.61 CA 44.35 C 38.84 O 40.75 CB 39.36 CG 39.99 CD 45.77 OE1 58.46 OE2 57.87 H 42.73 HA 53.22 HB2 47.23 HB3 47.23 HG2 47.99 HG3 47.99
A ASP H 65 -66.0 -43.8 N 35.18 CA 33.73 C 27.15 O 24.64 CB 28.03 CG 26.22 OD1 35.21 OD2 26.29 H 42.21 HA 40.47 HB2 33.63 HB3 33.63
A LEU H 0 -66.5 -36.9 N 28.45 CA 33.28 C 31.0 O 34.87 CB 36.84 CG 33.25 CD1 37.61 CD2 39.72 H 34.14 HA 39.94 HB2 44.21 HB3 44.21 HG 39.9 HD11 45.13 HD12 45.13 HD13 45.13 HD21 47.67 HD22 47.67 HD23 47.67
A ASP H 39 -59.3 -45.9 N 26.95 CA 35.33 C 30.01 O 34.59 CB 34.8 CG 30.22 OD1 33.18 OD2 32.11 H 32.34 HA 42.39 HB2 41.76 HB3 41.76
A GLU H 59 -64.4 -32.0 N 29.25 CA 25.22 C 32.2 O 36.24 CB 37.67 H 35.1 HA 30.26
A LEU H 14 -69.4 -37.8 N 31.86 CA 38.03 C 33.78 O 32.75 CB 41.83 CG 40.33 CD1 32.54 CD2 32.85 H 38.23 HA 45.63 HB2 50.2 HB3 50.2 HG 48.39 HD11 39.05 HD12 39.05 HD13 39.05 HD21 39.42 HD22 39.42 HD23 39.42
A GLN H 73 -75.6 -36.2 N 43.11 CA 38.86 C 41.12 O 39.77 CB 27.39 CG 42.46 CD 43.61 OE1 35.51 NE2 41.12 H 51.73 HA 46.63 HB2 32.86 HB3 32.86 HG2 50.95 HG3 50.95 HE21 49.34 HE22 49.34
A LYS H 83 -70.7 -17.7 N 40.37 CA 37.57 C 42.05 O 47.05 CB 34.51 H 48.44 HA 45.08
A GLU S 127 -129.2 84.4 N 39.55 CA 39.62 C 43.07 O 45.99 CB 47.54 CG 53.44 CD 66.09 OE1 67.17 OE2 67.58 H 47.47 HA 47.54 HB2 57.05 HB3 57.05 HG2 64.13 HG3 64.13
A PRO - 86 -58.3 140.1 N 50.0 CA 43.77 C 35.33 O 33.99 CB 39.97 CG 35.54 CD 43.21 HA 52.53 HB2 47.97 HB3 47.97 HG2 42.64 HG3 42.64 HD2 51.85 HD3 51.85
A GLN - 27 -170.5 168.8 N 28.69 CA 29.64 C 31.61 O 30.66 CB 41.91 CG 39.82 CD 33.45 OE1 34.48 NE2 34.99 H 34.43 HA 35.57 HB2 50.29 HB3 50.29 HG2 47.78 HG3 47.78 HE21 41.99 HE22 41.99
A PRO - 30 -67.4 156.2 N 31.31 CA 37.43 C 29.34 O 19.18 CB 36.71 CG 36.28 CD 30.35 HA 44.92 HB2 44.06 HB3 44.06 HG2 43.54 HG3 43.54 HD2 36.42 HD3 36.42
A LEU E 0 -132.4 155.3 N 26.43 CA 26.23 C 18.68 O 23.93 CB 19.03 CG 26.25 CD1 23.39 CD2 28.69 H 31.72 HA 31.47 HB2 22.84 HB3 22.84 HG 31.51 HD11 28.07 HD12 28.07 HD13 28.07 HD21 34.43 HD22 34.43 HD23 34.43
A VAL E 7 -110.9 138.1 N 30.92 CA 17.04 C 19.39 O 21.65 CB 23.81 CG1 23.9 CG2 28.01 H 37.1 HA 20.45 HB 28.58 HG11 28.68 HG12 28.68 HG13 28.68 HG21 33.61 HG22 33.61 HG23 33.61
A PHE E 27 -115.2 122.5 N 17.12 CA 19.03 C 23.44 O 22.35 CB 26.44 CG 26.08 CD1 18.5 CD2 23.48 CE1 24.75 CE2 25.91 CZ 26.37 H 20.54 HA 22.84 HB2 31.73 HB3 31.73 HD1 22.2 HD2 28.18 HE1 29.7 HE2 31.09 HZ 31.64
A VAL E 17 -100.6 126.0 N 24.04 CA 19.27 C 18.53 O 26.88 CB 21.7 CG1 22.77 CG2 22.94 H 28.85 HA 23.12 HB 26.04 HG11 27.33 HG12 27.33 HG13 27.33 HG21 27.52 HG22 27.52 HG23 27.52
A ILE E 9 -124.2 138.0 N 18.1 CA 20.54 C 17.97 O 17.21 CB 19.53 CG1 25.77 CG2 18.78 CD1 39.29 H 21.72 HA 24.64 HB 23.44 HG12 30.93 HG13 30.93 HG21 22.54 HG22 22.54 HG23 22.54 HD11 47.15 HD12 47.15 HD13 47.15
A GLU E 13 -121.3 109.5 N 19.53 CA 18.49 C 22.09 O 23.99 CB 17.17 CG 20.02 CD 33.55 OE1 32.5 OE2 26.28 H 23.44 HA 22.19 HB2 20.6 HB3 20.6 HG2 24.02 HG3 24.02
A LEU E 0 -84.6 124.7 N 18.96 CA 26.56 C 21.43 O 26.3 CB 25.13 CG 26.62 CD1 25.52 CD2 30.99 H 22.75 HA 31.87 HB2 30.16 HB3 30.16 HG 31.94 HD11 30.62 HD12 30.62 HD13 30.62 HD21 37.19 HD22 37.19 HD23 37.19
A LEU E 41 -104.5 -32.4 N 22.84 CA 19.16 C 24.73 O 26.06 CB 33.49 CG 24.71 CD1 30.2 CD2 27.82 H 27.4 HA 22.99 HB2 40.19 HB3 40.19 HG 29.65 HD11 36.25 HD12 36.25 HD13 36.25 HD21 33.38 HD22 33.38 HD23 33.38
A GLN E 94 -173.0 137.1 N 26.53 CA 24.05 C 25.99 O 21.58 CB 31.52 CG 34.8 CD 40.99 OE1 30.38 NE2 45.32 H 31.84 HA 28.86 HB2 37.82 HB3 37.82 HG2 41.77 HG3 41.77 HE21 54.39 HE22 54.39
A VAL E 31 -118.6 124.3 N 25.73 CA 32.92 C 28.99 O 29.67 CB 27.49 CG1 31.23 CG2 24.1 H 30.88 HA 39.51 HB 32.99 HG11 37.48 HG12 37.48 HG13 37.48 HG21 28.92 HG22 28.92 HG23 28.92
A ASP E 28 -107.9 130.2 N 37.34 CA 38.92 C 37.49 O 28.23 CB 43.88 CG 43.42 OD1 34.31 OD2 46.2 H 44.81 HA 46.7 HB2 52.65 HB3 52.65
A ALA - 77 -59.2 157.7 N 50.04 CA 56.77 C 46.28 O 44.8 CB 53.72 H 60.04 HA 68.13 HB1 64.47 HB2 64.47 HB3 64.47
A PRO - 113 -66.4 360.0 N 38.36 CA 36.93 C 40.91 O 44.26 CB 51.82 CG 48.06 CD 49.56 HA 44.32 HB2 62.19 HB3 62.19 HG2 57.67 HG3 57.67 HD2 59.47 HD3 59.47
B ASN - 160 360.0 133.5 N 75.62 CA 79.31 C 78.26 O 83.41 CB 73.05 H 90.74 HA 95.17
B VAL - 74 -117.3 156.9 N 61.64 CA 68.34 C 69.4 O 59.92 CB 70.18 CG1 52.27 CG2 66.12 H 73.96 HA 82.01 HB 84.21 HG11 62.73 HG12 62.73 HG13 62.73 HG21 79.34 HG22 79.34 HG23 79.34
B GLU T 84 -62.5 144.3 N 61.85 CA 58.69 C 49.48 O 46.89 CB 48.0 H 74.22 HA 70.43
B GLY T 25 76.6 13.9 N 43.05 CA 43.36 C 48.2 O 42.73 H 51.66 HA2 52.03 HA3 52.03
B VAL E 28 -139.8 112.2 N 47.8 CA 42.42 C 38.21 O 42.4 CB 43.12 CG1 39.38 CG2 36.06 H 57.36 HA 50.91 HB 51.75 HG11 47.26 HG12 47.26 HG13 47.26 HG21 43.27 HG22 43.27 HG23 43.27
B LYS E 141 -102.2 118.5 N 40.1 CA 35.69 C 28.99 O 29.55 CB 40.12 CG 43.54 CD 54.7 CE 49.76 NZ 43.78 H 48.13 HA 42.83 HB2 48.15 HB3 48.15 HG2 52.25 HG3 52.25 HD2 65.64 HD3 65.64 HE2 59.71 HE3 59.71 HZ1 52.54 HZ2 52.54 HZ3 52.54
B LYS E 70 -98.3 132.1 N 22.4 CA 27.52 C 30.23 O 34.43 CB 23.26 CG 27.44 CD 17.7 CE 25.03 NZ 21.34 H 26.88 HA 33.03 HB2 27.92 HB3 27.92 HG2 32.93 HG3 32.93 HD2 21.24 HD3 21.24 HE2 30.04 HE3 30.04 HZ1 25.61 HZ2 25.61 HZ3 25.61
B THR E 83 -127.4 138.8 N 28.07 CA 28.23 C 27.76 O 29.57 CB 33.36 OG1 35.44 CG2 39.21 H 33.68 HA 33.88 HB 40.03 HG1 42.53 HG21 47.05 HG22 47.05 HG23 47.05
B ILE E 93 -95.8 123.4 N 29.57 CA 26.44 C 36.77 O 40.58 CB 28.87 CG1 30.59 CG2 38.39 CD1 30.61 H 35.49 HA 31.73 HB 34.65 HG12 36.7 HG13 36.7 HG21 46.07 HG22 46.07 HG23 46.07 HD11 36.73 HD12 36.73 HD13 36.73
B LEU E 41 -96.5 -30.0 N 39.55 CA 29.85 C 35.82 O 43.56 CB 35.36 CG 26.68 CD1 18.84 CD2 33.48 H 47.45 HA 35.81 HB2 42.43 HB3 42.43 HG 32.02 HD11 22.61 HD12 22.61 HD13 22.61 HD21 40.17 HD22 40.17 HD23 40.17
B HIS E 97 -139.2 118.1 N 33.11 CA 33.5 C 39.54 O 32.56 CB 36.65 CG 40.61 ND1 36.67 CD2 45.61 CE1 47.73 NE2 45.32 H 39.73 HA 40.2 HB2 43.98 HB3 43.98 HD1 44.0 HD2 54.73 HE1 57.27
B GLY - 45 -66.3 143.4 N 36.05 CA 28.27 C 32.56 O 39.92 H 43.26 HA2 33.92 HA3 33.92
B GLY - 16 -86.3 -176.8 N 36.77 CA 34.49 C 38.27 O 41.94 H 44.13 HA2 41.39 HA3 41.39
B THR - 80 -125.1 136.9 N 43.0 CA 42.11 C 49.22 O 40.42 CB 47.2 OG1 47.28 CG2 44.58 H 51.6 HA 50.53 HB 56.64 HG1 56.74 HG21 53.49 HG22 53.49 HG23 53.49
B GLY S 40 97.1 178.0 N 48.7 CA 40.2 C 45.34 O 40.14 H 58.44 HA2 48.24 HA3 48.24
B GLU S 177 -77.5 167.2 N 56.28 CA 57.29 C 49.18 O 40.16 CB 47.67 CG 40.72 CD 40.88 OE1 35.17 OE2 55.04 H 67.54 HA 68.75 HB2 57.2 HB3 57.2 HG2 48.87 HG3 48.87
B LEU - 99 -55.8 130.0 N 49.88 CA 40.79 C 36.36 O 33.45 CB 42.94 CG 39.35 CD1 44.76 CD2 33.22 H 59.86 HA 48.94 HB2 51.53 HB3 51.53 HG 47.21 HD11 53.72 HD12 53.72 HD13 53.72 HD21 39.86 HD22 39.86 HD23 39.86
B PRO - 16 -49.4 164.3 N 42.06 CA 29.47 C 32.5 O 36.53 CB 25.24 CG 34.89 CD 31.82 HA 35.37 HB2 30.28 HB3 30.28 HG2 41.87 HG3 41.87 HD2 38.19 HD3 38.19
B ASN - 111 -91.3 103.8 N 29.14 CA 33.11 C 37.28 O 43.0 CB 37.97 CG 38.63 OD1 47.17 ND2 39.25 H 34.97 HA 39.74 HB2 45.57 HB3 45.57 HD21 47.09 HD22 47.09
B PHE - 18 -100.9 49.5 N 28.18 CA 30.74 C 30.72 O 35.08 CB 30.12 CG 27.65 CD1 25.44 CD2 24.22 CE1 27.43 CE2 26.7 CZ 24.82 H 33.82 HA 36.88 HB2 36.14 HB3 36.14 HD1 30.53 HD2 29.06 HE1 32.91 HE2 32.04 HZ 29.79
B ILE - 50 -83.8 159.5 N 28.54 CA 31.83 C 34.12 O 33.4 CB 34.84 CG1 32.26 CG2 38.55 CD1 34.69 H 34.24 HA 38.19 HB 41.81 HG12 38.71 HG13 38.71 HG21 46.27 HG22 46.27 HG23 46.27 HD11 41.63 HD12 41.63 HD13 41.63
B THR T 58 -45.9 124.3 N 28.86 CA 29.31 C 36.38 O 37.57 CB 34.85 OG1 32.05 CG2 30.39 H 34.63 HA 35.17 HB 41.82 HG1 38.46 HG21 36.46 HG22 36.46 HG23 36.46
B GLY T 24 94.0 -15.5 N 35.79 CA 31.46 C 36.13 O 37.78 H 42.95 HA2 37.75 HA3 37.75
B SER - 0 -61.7 149.3 N 33.86 CA 39.59 C 34.36 O 43.39 CB 44.47 OG 45.78 H 40.63 HA 47.51 HB2 53.36 HB3 53.36 HG 54.93
B ARG E 98 -102.8 123.5 N 40.99 CA 42.94 C 36.26 O 28.74 CB 43.34 CG 48.96 CD 48.64 NE 53.76 CZ 58.84 NH1 59.19 NH2 64.91 H 49.18 HA 51.52 HB2 52.0 HB3 52.0 HG2 58.75 HG3 58.75 HD2 58.37 HD3 58.37 HE 64.51 HH11 71.02 HH12 71.02 HH21 77.89 HH22 77.89
B VAL E 0 -106.8 122.8 N 34.19 CA 32.55 C 30.73 O 33.98 CB 27.84 CG1 29.77 CG2 31.66 H 41.03 HA 39.06 HB 33.41 HG11 35.72 HG12 35.72 HG13 35.72 HG21 37.99 HG22 37.99 HG23 37.99
B ILE E 29 -110.5 126.6 N 34.58 CA 31.16 C 22.16 O 25.03 CB 29.7 CG1 30.48 CG2 30.85 CD1 39.3 H 41.49 HA 37.4 HB 35.63 HG12 36.57 HG13 36.57 HG21 37.01 HG22 37.01 HG23 37.01 HD11 47.15 HD12 47.15 HD13 47.15
B PHE E 17 -154.0 159.5 N 17.3 CA 22.8 C 22.51 O 20.37 CB 21.43 CG 21.28 CD1 24.73 CD2 23.11 CE1 26.2 CE2 22.55 CZ 22.88 H 20.75 HA 27.36 HB2 25.72 HB3 25.72 HD1 29.68 HD2 27.74 HE1 31.44 HE2 27.06 HZ 27.46
B HIS E 15 -106.1 156.2 N 21.67 CA 22.49 C 17.55 O 20.92 CB 21.5 CG 30.73 ND1 22.05 CD2 30.02 CE1 27.33 NE2 26.25 H 26.01 HA 26.99 HB2 25.8 HB3 25.8 HD2 36.02 HE1 32.79 HE2 31.5
B PHE E 23 -151.6 155.1 N 18.82 CA 21.28 C 19.59 O 19.66 CB 25.0 CG 24.59 CD1 25.82 CD2 20.68 CE1 20.61 CE2 27.4 CZ 23.83 H 22.58 HA 25.54 HB2 30.0 HB3 30.0 HD1 30.98 HD2 24.82 HE1 24.73 HE2 32.88 HZ 28.6
B ARG E 39 -138.4 132.4 N 16.79 CA 21.94 C 20.79 O 22.44 CB 23.13 CG 22.04 CD 25.13 NE 26.29 CZ 34.68 NH1 33.63 NH2 24.54 H 20.14 HA 26.32 HB2 27.75 HB3 27.75 HG2 26.45 HG3 26.45 HD2 30.15 HD3 30.15 HE 31.55 HH11 40.35 HH12 40.35 HH21 29.45 HH22 29.45
B THR E 0 -112.5 130.9 N 20.68 CA 15.4 C 22.03 O 23.91 CB 22.38 OG1 26.12 CG2 17.94 H 24.82 HA 18.47 HB 26.85 HG1 31.34 HG21 21.53 HG22 21.53 HG23 21.53
B MET E 4 -137.6 140.4 N 15.09 CA 21.57 C 23.93 O 25.62 CB 22.49 CG 27.06 SD 26.12 CE 27.36 H 18.11 HA 25.89 HB2 26.99 HB3 26.99 HG2 32.47 HG3 32.47 HE1 32.83 HE2 32.83 HE3 32.83
B LYS - 56 -59.9 167.6 N 29.19 CA 27.06 C 29.88 O 33.43 CB 31.13 CG 20.14 CD 28.76 CE 33.15 NZ 36.17 H 35.03 HA 32.47 HB2 37.35 HB3 37.35 HG2 24.16 HG3 24.16 HD2 34.51 HD3 34.51 HE2 39.78 HE3 39.78 HZ1 43.4 HZ2 43.4 HZ3 43.4
B CYS S 57 -107.0 15.8 N 28.26 CA 27.79 C 30.7 O 35.82 CB 35.29 SG 31.05 H 33.91 HA 33.35 HB2 42.34 HB3 42.34 HG 37.26
B ASP S 42 -65.2 -176.4 N 28.64 CA 26.27 C 32.64 O 28.46 CB 39.38 CG 33.24 OD1 32.92 OD2 32.45 H 34.37 HA 31.52 HB2 47.25 HB3 47.25
B GLU T 124 -69.7 -35.2 N 33.36 CA 41.27 C 39.08 O 38.76 CB 45.28 CG 45.81 CD 56.6 OE1 63.46 OE2 56.84 H 40.04 HA 49.53 HB2 54.33 HB3 54.33 HG2 54.97 HG3 54.97
B GLU T 101 -86.8 -4.6 N 36.74 CA 31.76 C 26.65 O 28.0 CB 32.41 CG 48.95 CD 59.78 OE1 49.89 OE2 61.35 H 44.09 HA 38.11 HB2 38.89 HB3 38.89 HG2 58.74 HG3 58.74
B ARG - 40 49.4 53.3 N 33.48 CA 24.37 C 23.08 O 24.57 CB 25.38 CG 26.54 CD 23.17 NE 24.11 CZ 29.72 NH1 24.94 NH2 35.39 H 40.18 HA 29.24 HB2 30.46 HB3 30.46 HG2 31.85 HG3 31.85 HD2 27.81 HD3 27.81 HE 28.93 HH11 29.92 HH12 29.92 HH21 42.46 HH22 42.46
B THR - 54 -46.3 126.6 N 25.65 CA 29.73 C 26.01 O 21.07 CB 26.34 OG1 30.54 CG2 27.54 H 30.78 HA 35.67 HB 31.61 HG1 36.65 HG21 33.05 HG22 33.05 HG23 33.05
B VAL E 23 -77.2 130.5 N 18.63 CA 26.87 C 24.18 O 24.91 CB 19.15 CG1 19.09 CG2 22.07 H 22.35 HA 32.24 HB 22.98 HG11 22.91 HG12 22.91 HG13 22.91 HG21 26.48 HG22 26.48 HG23 26.48
B ILE E 14 -96.2 -51.2 N 19.88 CA 15.97 C 18.15 O 19.74 CB 19.0 CG1 17.95 CG2 14.9 CD1 26.32 H 23.86 HA 19.17 HB 22.8 HG12 21.54 HG13 21.54 HG21 17.88 HG22 17.88 HG23 17.88 HD11 31.58 HD12 31.58 HD13 31.58
B ASP E 22 -139.6 146.0 N 15.64 CA 16.53 C 21.93 O 16.92 CB 16.9 CG 18.82 OD1 15.36 OD2 25.41 H 18.76 HA 19.83 HB2 20.28 HB3 20.28
B ASP E 6 -146.2 105.3 N 19.6 CA 24.17 C 26.33 O 24.72 CB 26.94 CG 26.51 OD1 33.13 OD2 25.83 H 23.52 HA 29.01 HB2 32.33 HB3 32.33
B SER H 2 -53.2 -47.1 N 20.24 CA 26.01 C 28.31 O 33.35 CB 22.47 OG 35.92 H 24.29 HA 31.21 HB2 26.96 HB3 26.96 HG 43.11
B ARG H 25 -59.3 -45.5 N 34.19 CA 26.17 C 28.2 O 35.0 CB 43.8 CG 39.96 CD 49.58 NE 51.21 CZ 42.17 NH1 46.78 NH2 38.73 H 41.02 HA 31.41 HB2 52.56 HB3 52.56 HG2 47.95 HG3 47.95 HD2 59.5 HD3 59.5 HE 61.45 HH11 56.14 HH12 56.14 HH21 46.48 HH22 46.48
B GLN H 42 -54.4 -58.9 N 25.02 CA 30.85 C 38.38 O 46.46 CB 27.56 CG 36.88 CD 33.81 OE1 30.63 NE2 43.26 H 30.03 HA 37.02 HB2 33.07 HB3 33.07 HG2 44.26 HG3 44.26 HE21 51.92 HE22 51.92
B VAL H 92 -67.2 -35.4 N 42.21 CA 41.78 C 40.92 O 38.7 CB 39.78 CG1 52.56 CG2 38.08 H 50.65 HA 50.14 HB 47.74 HG11 63.07 HG12 63.07 HG13 63.07 HG21 45.69 HG22 45.69 HG23 45.69
B GLY S 31 163.5 -126.5 N 53.45 CA 48.65 C 40.85 O 40.01 H 64.14 HA2 58.38 HA3 58.38
B GLN S 161 -79.3 165.1 N 43.9 CA 42.09 C 37.24 O 24.81 CB 43.46 CG 44.38 CD 52.33 OE1 54.68 NE2 46.57 H 52.68 HA 50.51 HB2 52.16 HB3 52.16 HG2 53.26 HG3 53.26 HE21 55.88 HE22 55.88
B PRO - 27 -71.2 153.1 N 31.06 CA 33.17 C 31.41 O 25.07 CB 28.13 CG 36.19 CD 34.22 HA 39.8 HB2 33.75 HB3 33.75 HG2 43.43 HG3 43.43 HD2 41.06 HD3 41.06
B MET E 48 -71.4 153.1 N 32.32 CA 31.81 C 28.81 O 28.32 CB 32.19 CG 35.66 SD 38.52 CE 40.17 H 38.78 HA 38.17 HB2 38.62 HB3 38.62 HG2 42.79 HG3 42.79 HE1 48.2 HE2 48.2 HE3 48.2
B HIS E 122 -149.1 114.9 N 39.82 CA 39.11 C 32.94 O 37.04 CB 49.18 CG 57.16 ND1 59.36 CD2 58.32 CE1 63.66 NE2 72.17 H 47.78 HA 46.93 HB2 59.02 HB3 59.02 HD1 71.23 HD2 69.99 HE1 76.39
B ILE E 37 -119.8 162.2 N 31.35 CA 30.22 C 39.85 O 39.63 CB 26.46 CG1 25.03 CG2 39.02 CD1 34.93 H 37.62 HA 36.26 HB 31.76 HG12 30.03 HG13 30.03 HG21 46.83 HG22 46.83 HG23 46.83 HD11 41.92 HD12 41.92 HD13 41.92
B ILE E 107 -114.6 126.5 N 34.67 CA 38.88 C 35.12 O 29.4 CB 42.08 CG1 34.39 CG2 34.58 CD1 37.95 H 41.61 HA 46.66 HB 50.5 HG12 41.27 HG13 41.27 HG21 41.5 HG22 41.5 HG23 41.5 HD11 45.55 HD12 45.55 HD13 45.55
B ILE - 1 -67.1 112.4 N 29.0 CA 33.09 C 33.65 O 28.3 CB 34.85 CG1 29.84 CG2 30.32 CD1 27.6 H 34.79 HA 39.71 HB 41.82 HG12 35.81 HG13 35.81 HG21 36.38 HG22 36.38 HG23 36.38 HD11 33.12 HD12 33.12 HD13 33.12
B GLY S 57 -66.9 -42.8 N 33.17 CA 29.47 C 30.61 O 34.55 H 39.81 HA2 35.37 HA3 35.37
B ASN - 62 -153.2 109.5 N 22.64 CA 28.28 C 27.46 O 25.36 CB 28.64 CG 25.8 OD1 29.07 ND2 31.88 H 27.17 HA 33.93 HB2 34.37 HB3 34.37 HD21 38.26 HD22 38.26
B MET T 75 -55.2 -26.4 N 25.08 CA 25.37 C 21.33 O 25.37 CB 32.72 CG 25.33 SD 28.52 CE 23.99 H 30.09 HA 30.45 HB2 39.27 HB3 39.27 HG2 30.39 HG3 30.39 HE1 28.79 HE2 28.79 HE3 28.79
B PHE T 172 -86.8 -4.6 N 23.42 CA 27.63 C 29.95 O 40.65 CB 33.68 CG 27.16 CD1 31.13 CD2 26.5 CE1 31.5 CE2 27.11 CZ 31.32 H 28.1 HA 33.15 HB2 40.41 HB3 40.41 HD1 37.35 HD2 31.8 HE1 37.8 HE2 32.53 HZ 37.58
B LYS S 156 -148.3 90.7 N 22.93 CA 36.39 C 24.12 O 31.29 CB 28.93 CG 27.44 CD 40.23 CE 43.9 NZ 45.19 H 27.51 HA 43.67 HB2 34.72 HB3 34.72 HG2 32.93 HG3 32.93 HD2 48.28 HD3 48.28 HE2 52.68 HE3 52.68 HZ1 54.22 HZ2 54.22 HZ3 54.22
B LEU - 66 -89.8 138.5 N 31.01 CA 30.87 C 30.56 O 30.8 CB 22.28 CG 24.98 CD1 32.92 CD2 21.05 H 37.21 HA 37.05 HB2 26.73 HB3 26.73 HG 29.97 HD11 39.5 HD12 39.5 HD13 39.5 HD21 25.26 HD22 25.26 HD23 25.26
B GLU - 96 -67.6 159.5 N 28.58 CA 28.1 C 26.41 O 24.41 CB 28.52 CG 40.57 CD 44.37 OE1 40.37 OE2 31.98 H 34.29 HA 33.72 HB2 34.23 HB3 34.23 HG2 48.68 HG3 48.68
B VAL H 68 -54.5 -44.7 N 22.99 CA 27.31 C 27.02 O 22.17 CB 27.97 CG1 40.64 CG2 24.71 H 27.59 HA 32.77 HB 33.57 HG11 48.77 HG12 48.77 HG13 48.77 HG21 29.66 HG22 29.66 HG23 29.66
B TRP H 85 -71.5 -26.8 N 23.75 CA 30.45 C 27.15 O 22.58 CB 34.34 CG 27.06 CD1 28.02 CD2 21.25 NE1 26.74 CE2 33.14 CE3 22.14 CZ2 38.34 CZ3 36.63 CH2 41.6 H 28.5 HA 36.54 HB2 41.21 HB3 41.21 HD1 33.62 HE1 32.09 HE3 26.57 HZ2 46.01 HZ3 43.96 HH2 49.92
B GLU H 9 -71.9 -34.3 N 24.93 CA 22.01 C 22.4 O 23.58 CB 29.29 CG 29.15 CD 30.1 OE1 22.0 OE2 31.72 H 29.92 HA 26.41 HB2 35.14 HB3 35.14 HG2 34.98 HG3 34.98
B ILE H 73 -53.5 -42.4 N 23.75 CA 20.63 C 27.31 O 27.81 CB 15.23 CG1 28.63 CG2 27.24 CD1 24.15 H 28.5 HA 24.75 HB 18.27 HG12 34.36 HG13 34.36 HG21 32.69 HG22 32.69 HG23 32.69 HD11 28.98 HD12 28.98 HD13 28.98
B LEU H 20 -68.2 -52.6 N 19.1 CA 17.81 C 21.48 O 30.47 CB 24.15 CG 23.43 CD1 20.78 CD2 25.91 H 22.92 HA 21.37 HB2 28.98 HB3 28.98 HG 28.11 HD11 24.94 HD12 24.94 HD13 24.94 HD21 31.09 HD22 31.09 HD23 31.09
B LEU H 3 -59.5 -44.5 N 22.64 CA 21.91 C 29.07 O 27.31 CB 14.44 CG 23.72 CD1 22.56 CD2 27.08 H 27.16 HA 26.29 HB2 17.33 HB3 17.33 HG 28.46 HD11 27.08 HD12 27.08 HD13 27.08 HD21 32.5 HD22 32.5 HD23 32.5
B THR T 30 -68.7 -5.2 N 24.33 CA 20.86 C 20.88 O 25.57 CB 20.87 OG1 25.15 CG2 20.65 H 29.2 HA 25.03 HB 25.05 HG1 30.18 HG21 24.78 HG22 24.78 HG23 24.78
B SER T 49 -86.8 -1.4 N 22.62 CA 28.49 C 32.97 O 26.41 CB 22.8 OG 24.94 H 27.15 HA 34.19 HB2 27.36 HB3 27.36 HG 29.93
B MET - 0 -113.4 155.8 N 25.0 CA 38.51 C 27.44 O 26.04 CB 31.78 CG 25.99 SD 26.17 CE 28.57 H 30.0 HA 46.22 HB2 38.13 HB3 38.13 HG2 31.19 HG3 31.19 HE1 34.29 HE2 34.29 HE3 34.29
B ARG - 104 -100.8 158.5 N 30.32 CA 33.47 C 27.19 O 24.29 CB 39.54 CG 32.47 CD 37.76 NE 57.31 CZ 57.68 NH1 62.69 NH2 46.18 H 36.38 HA 40.17 HB2 47.44 HB3 47.44 HG2 38.96 HG3 38.96 HD2 45.32 HD3 45.32 HE 68.78 HH11 75.23 HH12 75.23 HH21 55.41 HH22 55.41
B VAL T 34 -54.8 136.4 N 28.87 CA 33.27 C 34.89 O 40.39 CB 32.85 CG1 32.0 CG2 36.92 H 34.65 HA 39.92 HB 39.42 HG11 38.4 HG12 38.4 HG13 38.4 HG21 44.31 HG22 44.31 HG23 44.31
B HIS T 85 72.5 -5.3 N 29.57 CA 34.62 C 35.49 O 34.67 CB 35.02 CG 37.49 ND1 28.23 CD2 36.9 CE1 36.91 NE2 38.59 H 35.48 HA 41.54 HB2 42.02 HB3 42.02 HD2 44.28 HE1 44.29 HE2 46.3
B GLU - 6 -63.3 143.6 N 29.0 CA 25.99 C 24.55 O 26.73 CB 32.63 CG 25.6 CD 24.84 OE1 28.4 OE2 34.77 H 34.8 HA 31.19 HB2 39.16 HB3 39.16 HG2 30.72 HG3 30.72
B VAL E 18 -121.3 120.0 N 21.89 CA 25.4 C 22.95 O 23.08 CB 27.89 CG1 18.41 CG2 26.62 H 26.27 HA 30.49 HB 33.47 HG11 22.09 HG12 22.09 HG13 22.09 HG21 31.95 HG22 31.95 HG23 31.95
B ALA E 0 -135.6 150.6 N 23.48 CA 23.02 C 19.36 O 27.71 CB 27.99 H 28.18 HA 27.62 HB1 33.59 HB2 33.59 HB3 33.59
B GLU E 27 -109.3 129.4 N 18.89 CA 22.66 C 24.99 O 21.72 CB 18.53 CG 25.03 CD 30.93 OE1 19.22 OE2 27.55 H 22.67 HA 27.19 HB2 22.23 HB3 22.23 HG2 30.04 HG3 30.04
B PHE E 3 -119.5 110.7 N 21.25 CA 23.75 C 27.59 O 23.65 CB 21.16 CG 17.06 CD1 20.42 CD2 22.23 CE1 13.74 CE2 21.92 CZ 22.79 H 25.5 HA 28.5 HB2 25.39 HB3 25.39 HD1 24.51 HD2 26.68 HE1 16.49 HE2 26.3 HZ 27.35
B TRP E 64 -83.7 132.2 N 19.54 CA 25.08 C 33.28 O 29.33 CB 27.26 CG 33.6 CD1 32.62 CD2 30.12 NE1 30.8 CE2 32.28 CE3 46.53 CZ2 34.95 CZ3 40.48 CH2 37.17 H 23.44 HA 30.09 HB2 32.71 HB3 32.71 HD1 39.14 HE1 36.96 HE3 55.83 HZ2 41.94 HZ3 48.57 HH2 44.6
B CYS E 6 -129.1 125.7 N 35.96 CA 33.02 C 24.91 O 32.19 CB 28.57 SG 33.5 H 43.16 HA 39.63 HB2 34.28 HB3 34.28 HG 40.21
B ASP - 64 -69.9 164.9 N 29.64 CA 33.09 C 24.65 O 19.96 CB 33.17 CG 39.24 OD1 34.85 OD2 53.79 H 35.57 HA 39.71 HB2 39.81 HB3 39.81
B THR H 49 -51.3 -30.2 N 27.96 CA 31.9 C 30.01 O 29.94 CB 35.28 OG1 34.4 CG2 29.7 H 33.56 HA 38.28 HB 42.34 HG1 41.28 HG21 35.65 HG22 35.65 HG23 35.65
B ILE H 157 -66.1 -30.3 N 36.41 CA 30.57 C 35.43 O 36.68 CB 45.0 CG1 42.11 CG2 46.55 CD1 41.41 H 43.69 HA 36.69 HB 54.0 HG12 50.54 HG13 50.54 HG21 55.86 HG22 55.86 HG23 55.86 HD11 49.69 HD12 49.69 HD13 49.69
B HIS H 66 -87.4 -11.0 N 36.5 CA 36.5 C 31.21 O 31.06 CB 46.19 CG 49.17 ND1 49.48 CD2 42.24 CE1 53.16 NE2 57.66 H 43.8 HA 43.8 HB2 55.43 HB3 55.43 HD2 50.69 HE1 63.79 HE2 69.19
B THR H 10 -108.7 0.5 N 28.58 CA 23.17 C 26.58 O 19.86 CB 32.56 OG1 27.76 CG2 29.85 H 34.3 HA 27.81 HB 39.07 HG1 33.32 HG21 35.82 HG22 35.82 HG23 35.82
B GLY T 41 -60.4 -30.1 N 23.35 CA 25.7 C 16.96 O 25.13 H 28.01 HA2 30.85 HA3 30.85
B VAL T 74 -74.4 -13.1 N 20.81 CA 19.78 C 27.37 O 25.26 CB 19.66 CG1 30.13 CG2 29.57 H 24.98 HA 23.73 HB 23.6 HG11 36.15 HG12 36.15 HG13 36.15 HG21 35.49 HG22 35.49 HG23 35.49
B TYR H 8 -65.1 -38.7 N 29.01 CA 27.14 C 20.57 O 29.31 CB 22.5 CG 21.59 CD1 28.43 CD2 25.25 CE1 32.44 CE2 28.42 CZ 18.84 OH 22.05 H 34.81 HA 32.56 HB2 27.0 HB3 27.0 HD1 34.12 HD2 30.3 HE1 38.93 HE2 34.1 HH 26.46
B PRO H 3 -59.8 -45.4 N 19.18 CA 23.46 C 29.44 O 26.03 CB 20.28 CG 21.69 CD 28.11 HA 28.16 HB2 24.34 HB3 24.34 HG2 26.03 HG3 26.03 HD2 33.74 HD3 33.74
B ILE H 99 -67.8 -39.6 N 30.97 CA 23.14 C 18.81 O 27.38 CB 30.69 CG1 29.43 CG2 29.53 CD1 27.3 H 37.16 HA 27.77 HB 36.83 HG12 35.32 HG13 35.32 HG21 35.44 HG22 35.44 HG23 35.44 HD11 32.76 HD12 32.76 HD13 32.76
B LEU H 45 -57.7 -47.4 N 28.58 CA 22.34 C 23.44 O 23.07 CB 22.46 CG 22.36 CD1 29.02 CD2 31.77 H 34.29 HA 26.81 HB2 26.95 HB3 26.95 HG 26.84 HD11 34.82 HD12 34.82 HD13 34.82 HD21 38.13 HD22 38.13 HD23 38.13
B SER H 0 -66.4 -39.8 N 26.13 CA 25.3 C 23.87 O 22.14 CB 24.87 OG 24.39 H 31.35 HA 30.37 HB2 29.84 HB3 29.84 HG 29.27
B ARG H 44 -53.9 -45.0 N 33.04 CA 30.28 C 28.85 O 21.86 CB 25.56 CG 27.44 CD 26.89 NE 47.4 CZ 34.96 NH1 41.23 NH2 42.41 H 39.64 HA 36.33 HB2 30.67 HB3 30.67 HG2 32.92 HG3 32.92 HD2 32.26 HD3 32.26 HE 56.88 HH11 49.48 HH12 49.48 HH21 50.89 HH22 50.89
B SER H 32 -72.1 -38.1 N 29.61 CA 30.17 C 29.19 O 27.27 CB 40.12 OG 44.74 H 35.53 HA 36.21 HB2 48.15 HB3 48.15 HG 53.69
B LEU H 43 -57.7 -46.6 N 29.59 CA 29.39 C 19.96 O 24.0 CB 24.85 CG 28.16 CD1 37.1 CD2 39.62 H 35.51 HA 35.26 HB2 29.82 HB3 29.82 HG 33.79 HD11 44.52 HD12 44.52 HD13 44.52 HD21 47.54 HD22 47.54 HD23 47.54
B ARG H 39 -66.5 -28.5 N 25.21 CA 29.09 C 31.24 O 27.91 CB 27.27 CG 21.61 CD 16.17 NE 29.27 CZ 23.54 NH1 19.1 NH2 23.7 H 30.25 HA 34.91 HB2 32.72 HB3 32.72 HG2 25.93 HG3 25.93 HD2 19.41 HD3 19.41 HE 35.13 HH11 22.92 HH12 22.92 HH21 28.43 HH22 28.43
B GLN H 13 -75.8 -39.2 N 30.25 CA 31.26 C 33.09 O 39.1 CB 38.88 CG 37.71 CD 48.36 OE1 49.92 NE2 49.66 H 36.31 HA 37.51 HB2 46.66 HB3 46.66 HG2 45.25 HG3 45.25 HE21 59.6 HE22 59.6
B MET H 95 -66.6 -40.6 N 26.04 CA 35.14 C 37.24 O 41.27 CB 37.0 CG 50.52 SD 69.71 CE 50.31 H 31.25 HA 42.17 HB2 44.4 HB3 44.4 HG2 60.63 HG3 60.63 HE1 60.37 HE2 60.37 HE3 60.37
B ALA H 86 -48.8 -44.7 N 32.15 CA 40.02 C 46.39 O 51.1 CB 29.8 H 38.58 HA 48.03 HB1 35.76 HB2 35.76 HB3 35.76
B GLN T 117 -72.4 9.4 N 43.88 CA 46.58 C 47.45 O 46.14 CB 48.71 CG 45.8 CD 53.6 OE1 56.74 NE2 57.62 H 52.66 HA 55.89 HB2 58.45 HB3 58.45 HG2 54.96 HG3 54.96 HE21 69.15 HE22 69.15
B GLY T 73 76.5 8.9 N 42.28 CA 43.36 C 48.89 O 47.46 H 50.73 HA2 52.04 HA3 52.04
B LYS - 98 -102.1 143.2 N 44.11 CA 36.24 C 44.67 O 44.69 CB 41.39 CG 40.21 CD 39.46 CE 45.34 NZ 48.25 H 52.94 HA 43.49 HB2 49.67 HB3 49.67 HG2 48.25 HG3 48.25 HD2 47.35 HD3 47.35 HE2 54.41 HE3 54.41 HZ1 57.9 HZ2 57.9 HZ3 57.9
B ASP - 89 -93.3 97.2 N 42.45 CA 47.45 C 45.53 O 49.3 CB 54.57 CG 54.37 OD1 58.97 OD2 57.2 H 50.94 HA 56.94 HB2 65.48 HB3 65.48
B PRO T 33 -57.8 -14.1 N 49.56 CA 47.0 C 53.18 O 55.11 CB 40.42 CG 49.01 CD 51.39 HA 56.4 HB2 48.5 HB3 48.5 HG2 58.81 HG3 58.81 HD2 61.67 HD3 61.67
B THR T 84 -95.4 -13.5 N 51.66 CA 51.34 C 47.55 O 52.06 CB 48.7 H 62.0 HA 61.61
B GLU S 36 -66.2 146.6 N 42.03 CA 47.89 C 45.75 O 49.59 CB 46.87 H 50.43 HA 57.46
B TRP H 170 -64.4 -37.7 N 49.36 CA 55.4 C 53.38 O 45.29 CB 40.97 CG 44.14 CD1 32.6 CD2 38.52 NE1 29.67 CE2 40.21 CE3 41.0 CZ2 36.52 CZ3 33.75 CH2 34.89 H 59.23 HA 66.47 HB2 49.17 HB3 49.17 HD1 39.12 HE1 35.61 HE3 49.2 HZ2 43.83 HZ3 40.5 HH2 41.86
B HIS H 142 -69.9 -38.1 N 44.74 CA 41.99 C 39.68 O 32.14 CB 49.77 CG 58.43 ND1 51.87 CD2 62.74 CE1 56.89 NE2 56.81 H 53.69 HA 50.39 HB2 59.73 HB3 59.73 HD2 75.29 HE1 68.26 HE2 68.17
B VAL H 29 -67.0 -45.3 N 40.8 CA 37.11 C 40.47 O 29.15 CB 30.98 CG1 34.63 CG2 48.4 H 48.96 HA 44.53 HB 37.18 HG11 41.55 HG12 41.55 HG13 41.55 HG21 58.08 HG22 58.08 HG23 58.08
B HIS H 72 -71.4 -36.6 N 33.75 CA 32.03 C 29.72 O 30.22 CB 43.36 CG 36.02 ND1 47.09 CD2 44.49 CE1 36.31 NE2 37.68 H 40.5 HA 38.44 HB2 52.03 HB3 52.03 HD2 53.39 HE1 43.58 HE2 45.21
B THR H 46 -61.9 -49.7 N 26.41 CA 25.14 C 28.55 O 26.02 CB 30.49 OG1 27.62 CG2 30.89 H 31.69 HA 30.16 HB 36.59 HG1 33.14 HG21 37.07 HG22 37.07 HG23 37.07
B CYS H 75 -59.3 -39.6 N 26.21 CA 37.87 C 31.82 O 27.81 CB 42.68 SG 67.19 H 31.46 HA 45.44 HB2 51.21 HB3 51.21 HG 80.63
B GLY H 13 -58.7 -51.9 N 33.25 CA 27.76 C 23.18 O 29.94 H 39.9 HA2 33.31 HA3 33.31
B LEU H 116 -64.3 -44.5 N 25.61 CA 29.59 C 21.94 O 20.67 CB 30.4 CG 29.94 CD1 38.4 CD2 25.62 H 30.73 HA 35.51 HB2 36.48 HB3 36.48 HG 35.93 HD11 46.08 HD12 46.08 HD13 46.08 HD21 30.75 HD22 30.75 HD23 30.75
B ALA H 57 -58.5 -49.9 N 24.11 CA 25.92 C 30.77 O 26.12 CB 15.22 H 28.93 HA 31.1 HB1 18.26 HB2 18.26 HB3 18.26
B ASN H 70 -64.0 -33.9 N 23.95 CA 24.89 C 26.97 O 27.43 CB 29.99 CG 28.96 OD1 37.67 ND2 28.89 H 28.74 HA 29.87 HB2 35.99 HB3 35.99 HD21 34.66 HD22 34.66
B MET H 73 -65.8 -39.3 N 26.91 CA 24.31 C 25.01 O 24.95 CB 27.85 CG 36.39 SD 45.75 CE 35.04 H 32.29 HA 29.17 HB2 33.42 HB3 33.42 HG2 43.66 HG3 43.66 HE1 42.05 HE2 42.05 HE3 42.05
B PHE H 177 -72.1 -48.7 N 30.51 CA 30.9 C 29.71 O 28.15 CB 32.27 CG 36.03 CD1 38.64 CD2 37.58 CE1 31.35 CE2 34.75 CZ 39.54 H 36.62 HA 37.08 HB2 38.72 HB3 38.72 HD1 46.37 HD2 45.1 HE1 37.62 HE2 41.7 HZ 47.45
B ALA H 55 -61.2 -44.7 N 20.44 CA 25.21 C 31.28 O 30.54 CB 23.06 H 24.53 HA 30.25 HB1 27.67 HB2 27.67 HB3 27.67
B TYR H 166 -125.2 -6.0 N 33.76 CA 26.54 C 32.52 O 32.22 CB 26.83 CG 32.07 CD1 30.65 CD2 25.81 CE1 28.42 CE2 28.54 CZ 26.0 OH 27.68 H 40.51 HA 31.84 HB2 32.2 HB3 32.2 HD1 36.77 HD2 30.97 HE1 34.11 HE2 34.24 HH 33.21
B HIS S 151 61.3 47.2 N 27.32 CA 33.15 C 27.15 O 31.36 CB 32.05 CG 35.02 ND1 52.07 CD2 36.57 CE1 51.4 NE2 46.28 H 32.79 HA 39.78 HB2 38.46 HB3 38.46 HD1 62.48 HD2 43.89 HE1 61.69
B THR - 32 -140.4 148.9 N 26.45 CA 26.32 C 26.04 O 29.96 CB 27.85 OG1 29.96 CG2 29.98 H 31.74 HA 31.59 HB 33.42 HG1 35.96 HG21 35.98 HG22 35.98 HG23 35.98
B LEU - 7 -98.6 -0.6 N 28.23 CA 27.26 C 30.51 O 30.09 CB 33.54 CG 30.54 CD1 31.38 CD2 39.84 H 33.87 HA 32.71 HB2 40.25 HB3 40.25 HG 36.65 HD11 37.66 HD12 37.66 HD13 37.66 HD21 47.8 HD22 47.8 HD23 47.8
B GLY S 51 101.4 4.4 N 20.64 CA 30.63 C 19.93 O 35.02 H 24.76 HA2 36.76 HA3 36.76
B TYR - 49 -150.8 120.2 N 29.69 CA 28.79 C 33.99 O 38.92 CB 26.55 CG 28.38 CD1 28.97 CD2 30.23 CE1 29.57 CE2 32.26 CZ 25.54 OH 33.2 H 35.63 HA 34.55 HB2 31.86 HB3 31.86 HD1 34.76 HD2 36.28 HE1 35.48 HE2 38.71 HH 39.84
B GLU H 147 -59.9 -46.7 N 34.55 CA 34.15 C 29.14 O 38.59 CB 37.87 CG 47.5 CD 47.36 OE1 52.88 OE2 54.16 H 41.46 HA 40.98 HB2 45.45 HB3 45.45 HG2 57.0 HG3 57.0
B ASP H 60 -66.2 -42.3 N 27.02 CA 28.21 C 19.4 O 24.29 CB 27.68 CG 24.95 OD1 33.61 OD2 30.86 H 32.43 HA 33.85 HB2 33.22 HB3 33.22
B LEU H 0 -68.1 -33.3 N 20.24 CA 27.21 C 26.75 O 28.33 CB 31.95 CG 20.79 CD1 34.61 CD2 23.83 H 24.29 HA 32.65 HB2 38.34 HB3 38.34 HG 24.95 HD11 41.53 HD12 41.53 HD13 41.53 HD21 28.6 HD22 28.6 HD23 28.6
B ASP H 39 -62.4 -47.5 N 20.22 CA 30.71 C 35.9 O 28.23 CB 34.18 CG 26.56 OD1 26.33 OD2 37.83 H 24.27 HA 36.85 HB2 41.01 HB3 41.01
B GLU H 116 -63.7 -34.1 N 28.75 CA 25.34 C 25.09 O 33.0 CB 40.59 CG 49.62 CD 57.86 OE1 55.21 OE2 56.02 H 34.5 HA 30.41 HB2 48.7 HB3 48.7 HG2 59.55 HG3 59.55
B LEU H 14 -68.8 -39.5 N 31.1 CA 27.96 C 29.55 O 25.84 CB 32.13 CG 36.54 CD1 32.76 CD2 36.22 H 37.33 HA 33.55 HB2 38.56 HB3 38.56 HG 43.84 HD11 39.32 HD12 39.32 HD13 39.32 HD21 43.46 HD22 43.46 HD23 43.46
B GLN H 69 -72.1 -31.6 N 31.32 CA 35.8 C 37.8 O 35.2 CB 25.84 CG 39.31 CD 40.57 OE1 39.49 NE2 31.5 H 37.58 HA 42.96 HB2 31.01 HB3 31.01 HG2 47.17 HG3 47.17 HE21 37.8 HE22 37.8
B LYS H 83 -74.5 -18.9 N 26.37 CA 34.07 C 40.86 O 36.99 CB 31.93 H 31.65 HA 40.89
B GLU S 129 -130.2 86.0 N 36.19 CA 37.09 C 33.76 O 35.96 CB 43.16 CG 53.01 CD 67.28 OE1 62.71 OE2 67.74 H 43.42 HA 44.51 HB2 51.79 HB3 51.79 HG2 63.61 HG3 63.61
B PRO - 86 -55.2 145.2 N 41.46 CA 38.49 C 33.4 O 33.07 CB 36.65 CG 36.59 CD 39.65 HA 46.19 HB2 43.98 HB3 43.98 HG2 43.9 HG3 43.9 HD2 47.58 HD3 47.58
B GLN - 32 -171.4 167.7 N 28.82 CA 35.6 C 30.64 O 26.83 CB 28.06 CG 28.59 CD 29.29 OE1 30.15 NE2 26.77 H 34.58 HA 42.72 HB2 33.68 HB3 33.68 HG2 34.31 HG3 34.31 HE21 32.13 HE22 32.13
B PRO - 32 -68.0 156.6 N 28.31 CA 34.94 C 27.74 O 22.74 CB 30.54 CG 27.46 CD 27.83 HA 41.93 HB2 36.65 HB3 36.65 HG2 32.96 HG3 32.96 HD2 33.4 HD3 33.4
B LEU E 1 -129.5 154.5 N 24.7 CA 29.82 C 26.88 O 29.78 CB 17.29 CG 22.73 CD1 14.74 CD2 21.92 H 29.63 HA 35.78 HB2 20.75 HB3 20.75 HG 27.28 HD11 17.69 HD12 17.69 HD13 17.69 HD21 26.3 HD22 26.3 HD23 26.3
B VAL E 4 -110.6 134.6 N 27.59 CA 23.45 C 20.73 O 28.16 CB 26.29 CG1 22.23 CG2 32.72 H 33.1 HA 28.14 HB 31.55 HG11 26.68 HG12 26.68 HG13 26.68 HG21 39.27 HG22 39.27 HG23 39.27
B PHE E 28 -116.0 127.0 N 15.93 CA 16.66 C 24.6 O 24.72 CB 35.81 CG 24.88 CD1 17.55 CD2 26.43 CE1 26.48 CE2 25.93 CZ 21.74 H 19.12 HA 19.99 HB2 42.97 HB3 42.97 HD1 21.06 HD2 31.71 HE1 31.78 HE2 31.11 HZ 26.09
B VAL E 25 -105.8 124.5 N 23.35 CA 20.18 C 25.57 O 26.6 CB 25.57 CG1 16.41 CG2 25.24 H 28.02 HA 24.21 HB 30.68 HG11 19.69 HG12 19.69 HG13 19.69 HG21 30.29 HG22 30.29 HG23 30.29
B ILE E 9 -123.3 139.6 N 18.18 CA 18.62 C 23.66 O 19.03 CB 17.17 CG1 19.11 CG2 16.29 CD1 25.21 H 21.82 HA 22.34 HB 20.61 HG12 22.93 HG13 22.93 HG21 19.55 HG22 19.55 HG23 19.55 HD11 30.25 HD12 30.25 HD13 30.25
B GLU E 19 -123.8 113.3 N 16.3 CA 16.73 C 16.13 O 18.92 CB 22.14 CG 31.35 CD 42.45 OE1 32.96 OE2 37.81 H 19.56 HA 20.08 HB2 26.57 HB3 26.57 HG2 37.63 HG3 37.63
B LEU E 0 -83.5 125.3 N 22.98 CA 26.95 C 26.42 O 27.55 CB 20.28 CG 26.53 CD1 28.17 CD2 22.13 H 27.57 HA 32.34 HB2 24.34 HB3 24.34 HG 31.84 HD11 33.8 HD12 33.8 HD13 33.8 HD21 26.56 HD22 26.56 HD23 26.56
B LEU E 44 -107.0 -29.8 N 28.06 CA 20.51 C 28.17 O 34.62 CB 28.31 CG 33.17 CD1 27.3 CD2 30.36 H 33.67 HA 24.61 HB2 33.97 HB3 33.97 HG 39.8 HD11 32.76 HD12 32.76 HD13 32.76 HD21 36.44 HD22 36.44 HD23 36.44
B GLN E 91 -173.6 138.9 N 29.8 CA 38.49 C 33.58 O 35.94 CB 34.14 CG 41.18 CD 36.5 OE1 44.64 NE2 34.96 H 35.76 HA 46.19 HB2 40.97 HB3 40.97 HG2 49.42 HG3 49.42 HE21 41.95 HE22 41.95
B VAL E 32 -123.8 125.9 N 34.76 CA 34.53 C 40.57 O 42.23 CB 31.49 CG1 37.63 CG2 22.21 H 41.71 HA 41.43 HB 37.79 HG11 45.15 HG12 45.15 HG13 45.15 HG21 26.65 HG22 26.65 HG23 26.65
B ASP E 29 -105.3 133.9 N 43.16 CA 38.76 C 43.93 O 34.2 CB 39.35 CG 43.5 OD1 41.41 OD2 45.02 H 51.79 HA 46.51 HB2 47.22 HB3 47.22
B ALA - 85 -58.6 158.8 N 41.29 CA 40.48 C 44.45 O 40.85 CB 39.59 H 49.54 HA 48.57 HB1 47.51 HB2 47.51 HB3 47.51
B PRO - 118 -66.9 360.0 N 37.74 CA 38.84 C 39.26 O 47.67 CB 42.44 CG 29.89 CD 31.94 HA 46.61 HB2 50.92 HB3 50.92 HG2 35.86 HG3 35.86 HD2 38.33 HD3 38.33
