A GLN - 146 -130.8 147.5 N 32.69 CA 33.69 C 28.26 O 25.76 CB 35.93 CG 36.22 CD 39.15 OE1 38.49 NE2 37.48 H 39.23 HA 40.43 HB2 43.11 HB3 43.11 HG2 43.47 HG3 43.47 HE21 44.98 HE22 44.98
A LYS E 136 -77.7 133.5 N 26.63 CA 22.9 C 20.52 O 21.07 CB 24.19 CG 17.66 CD 19.23 CE 18.39 NZ 20.94 H 31.96 HA 27.48 HB2 29.03 HB3 29.03 HG2 21.2 HG3 21.2 HD2 23.07 HD3 23.07 HE2 22.07 HE3 22.07 HZ1 25.13 HZ2 25.13 HZ3 25.13
A LEU E 98 -124.6 127.1 N 14.23 CA 13.33 C 12.3 O 11.88 CB 19.14 CG 13.48 CD1 15.67 CD2 14.55 H 17.08 HA 15.99 HB2 22.96 HB3 22.96 HG 16.17 HD11 18.81 HD12 18.81 HD13 18.81 HD21 17.46 HD22 17.46 HD23 17.46
A VAL E 88 -103.2 137.7 N 12.84 CA 13.86 C 13.79 O 11.33 CB 13.02 CG1 11.38 CG2 12.93 H 15.4 HA 16.63 HB 15.63 HG11 13.66 HG12 13.66 HG13 13.66 HG21 15.51 HG22 15.51 HG23 15.51
A PHE E 147 -109.7 133.3 N 18.17 CA 26.84 C 30.5 O 40.62 CB 17.88 CG 14.58 CD1 12.78 CD2 13.26 CE1 15.09 CE2 15.56 CZ 14.83 H 21.81 HA 32.2 HB2 21.45 HB3 21.45 HD1 15.34 HD2 15.91 HE1 18.11 HE2 18.67 HZ 17.79
A ALA - 43 -151.0 360.0 N 21.33 CA 16.17 C 15.15 O 20.17 CB 13.4 H 25.6 HA 19.41 HB1 16.08 HB2 16.08 HB3 16.08
A ALA - 46 -146.7 147.2 N 12.69 CA 12.0 C 12.98 O 11.07 CB 12.31 H 15.23 HA 14.4 HB1 14.78 HB2 14.78 HB3 14.78
A ILE E 135 -88.3 114.0 N 11.37 CA 15.5 C 11.77 O 13.73 CB 12.99 CG1 14.0 CG2 13.45 CD1 11.59 H 13.65 HA 18.6 HB 15.59 HG12 16.8 HG13 16.8 HG21 16.14 HG22 16.14 HG23 16.14 HD11 13.91 HD12 13.91 HD13 13.91
A ILE E 43 -107.6 127.8 N 12.0 CA 10.81 C 15.27 O 12.34 CB 10.77 CG1 11.07 CG2 11.23 CD1 11.4 H 14.4 HA 12.97 HB 12.93 HG12 13.29 HG13 13.29 HG21 13.47 HG22 13.47 HG23 13.47 HD11 13.68 HD12 13.68 HD13 13.68
A LEU E 74 -95.9 139.2 N 14.14 CA 12.77 C 13.79 O 20.45 CB 12.1 CG 12.62 CD1 13.04 CD2 12.65 H 16.97 HA 15.32 HB2 14.52 HB3 14.52 HG 15.14 HD11 15.64 HD12 15.64 HD13 15.64 HD21 15.18 HD22 15.18 HD23 15.18
A MET E 114 -94.2 115.9 N 14.78 CA 16.09 C 19.76 O 15.97 CB 17.73 CG 20.09 SD 21.97 CE 35.09 H 17.73 HA 19.31 HB2 21.27 HB3 21.27 HG2 24.11 HG3 24.11 HE1 42.11 HE2 42.11 HE3 42.11
A VAL - 82 -107.6 360.0 N 16.46 CA 16.27 C 18.87 O 21.41 CB 16.53 CG1 16.39 CG2 14.94 H 19.76 HA 19.52 HB 19.84 HG11 19.66 HG12 19.66 HG13 19.66 HG21 17.92 HG22 17.92 HG23 17.92
