A ASP - 178 360.0 -148.8 N 104.34 CA 108.29 C 104.6 O 112.3 CB 114.67 CG 123.17 OD1 121.49 OD2 129.7
A ASP - 19 -128.5 1.5 N 94.39 CA 86.4 C 77.09 O 74.63 CB 84.77 CG 81.89 OD1 75.79 OD2 83.45
A HIS E 34 -153.3 171.8 N 69.63 CA 65.16 C 65.76 O 62.24 CB 56.76 CG 62.35 ND1 65.89 CD2 63.18 CE1 69.69 NE2 68.63
A TYR E 95 -135.0 170.8 N 64.55 CA 68.65 C 68.38 O 55.16 CB 70.69 CG 71.56 CD1 71.43 CD2 72.55 CE1 69.7 CE2 76.24 CZ 77.44 OH 79.6
A GLU E 109 -114.4 143.3 N 61.52 CA 58.67 C 65.02 O 64.39 CB 70.04 CG 78.06 CD 86.28 OE1 82.79 OE2 95.02
A LEU E 79 -123.3 137.5 N 62.5 CA 63.02 C 58.21 O 56.37 CB 66.52 CG 83.29 CD1 91.56 CD2 85.92
A ILE E 108 -129.2 112.7 N 60.48 CA 63.35 C 66.45 O 65.77 CB 70.44 CG1 70.86 CG2 67.58 CD1 76.16
A VAL E 65 -120.2 135.5 N 63.24 CA 77.05 C 88.9 O 83.79 CB 74.0 CG1 72.32 CG2 70.64
A ASP T 162 55.8 31.8 N 93.62 CA 102.78 C 99.94 O 100.15 CB 102.25 CG 106.27 OD1 108.38 OD2 109.08
A GLY T 72 74.6 3.0 N 96.89 CA 95.3 C 86.82 O 91.18
A ARG E 124 -103.2 130.4 N 76.51 CA 77.04 C 75.97 O 75.08 CB 76.61 CG 86.55 CD 98.35 NE 100.75 CZ 99.36 NH1 99.32 NH2 100.64
A VAL E 46 -93.3 131.9 N 72.95 CA 69.21 C 64.95 O 59.59 CB 70.97 CG1 65.82 CG2 74.19
A TYR E 54 -119.1 145.4 N 62.85 CA 57.29 C 55.65 O 55.74 CB 56.22 CG 60.64 CD1 58.92 CD2 66.46 CE1 64.35 CE2 70.57 CZ 71.29 OH 75.71
A TYR E 48 -106.4 123.6 N 52.27 CA 48.29 C 56.65 O 56.84 CB 52.59 CG 55.65 CD1 61.02 CD2 58.94 CE1 60.65 CE2 60.63 CZ 65.11 OH 71.11
A ILE E 9 -108.9 125.9 N 52.74 CA 51.68 C 57.4 O 57.41 CB 66.05 CG1 66.54 CG2 65.01 CD1 74.53
A CYS E 0 -63.2 123.2 N 54.41 CA 48.13 C 55.15 O 57.68 CB 52.14 SG 62.25
A ILE T 77 -66.1 -21.6 N 59.88 CA 61.84 C 67.14 O 71.85 CB 68.93 CG1 79.32 CG2 67.36 CD1 85.52
A VAL T 79 -84.4 -59.6 N 54.54 CA 63.56 C 69.34 O 72.94 CB 65.45 CG1 74.31 CG2 62.66
A CYS T 53 -105.7 0.7 N 66.52 CA 64.07 C 61.6 O 63.46 CB 59.86 SG 55.2
A LYS - 114 63.6 27.0 N 60.94 CA 62.48 C 56.9 O 55.71 CB 67.19 CG 77.48 CD 89.24 CE 99.02 NZ 100.61
A ARG - 159 -74.1 143.8 N 51.17 CA 51.48 C 47.32 O 52.76 CB 50.51 CG 56.71 CD 59.93 NE 59.78 CZ 73.28 NH1 65.67 NH2 80.74
A SER E 80 -101.2 140.7 N 46.79 CA 51.67 C 50.5 O 49.56 CB 51.73 OG 65.64
A TYR E 39 -132.1 137.5 N 47.43 CA 47.48 C 52.48 O 52.51 CB 46.71 CG 50.91 CD1 40.09 CD2 45.42 CE1 58.07 CE2 43.27 CZ 47.67 OH 41.83
A VAL S 77 -74.9 -33.0 N 42.58 CA 53.88 C 53.0 O 47.28 CB 63.55 CG1 65.24 CG2 67.07
A CYS S 62 -113.5 130.0 N 52.12 CA 55.35 C 58.3 O 55.36 CB 52.43 SG 61.22
A LEU H 44 -59.4 -34.3 N 56.35 CA 54.04 C 52.62 O 52.51 CB 63.05 CG 63.84 CD1 62.61 CD2 78.17
A THR H 101 -64.7 -32.9 N 49.35 CA 48.95 C 45.03 O 42.11 CB 49.87 OG1 45.76 CG2 52.97
A SER H 25 -67.6 -39.8 N 39.97 CA 39.75 C 45.93 O 41.66 CB 42.22 OG 41.14
A LEU H 0 -62.5 -44.6 N 43.16 CA 45.0 C 46.84 O 50.52 CB 43.33 CG 46.67 CD1 64.58 CD2 55.32
A ARG H 133 -60.1 -46.3 N 43.46 CA 47.97 C 47.97 O 47.66 CB 55.95 CG 82.02 CD 89.88 NE 97.42 CZ 105.2 NH1 89.6 NH2 111.44
A ARG H 135 -58.1 -46.9 N 45.13 CA 41.65 C 44.37 O 42.65 CB 36.96 CG 38.43 CD 36.13 NE 34.85 CZ 37.91 NH1 38.31 NH2 33.55
A HIS H 19 -62.2 -41.4 N 41.47 CA 45.89 C 47.63 O 49.33 CB 42.03 CG 42.06 ND1 42.84 CD2 49.57 CE1 43.63 NE2 47.04
A PHE H 33 -63.2 -23.7 N 44.75 CA 49.01 C 54.78 O 56.85 CB 55.33 CG 63.6 CD1 68.14 CD2 60.37 CE1 66.8 CE2 70.92 CZ 74.98
A ASN H 15 -59.5 -27.1 N 53.79 CA 56.33 C 58.01 O 65.4 CB 54.96 CG 60.21 OD1 65.91 ND2 55.3
A ILE H 63 -57.9 -35.6 N 52.75 CA 58.79 C 65.36 O 72.29 CB 59.1 CG1 51.01 CG2 60.41 CD1 49.49
A HIS H 68 -81.2 -44.8 N 58.22 CA 64.66 C 78.36 O 88.83 CB 66.69 CG 69.63 ND1 64.65 CD2 68.97 CE1 67.63 NE2 59.13
A SER H 49 -88.1 -30.0 N 77.86 CA 81.01 C 82.88 O 79.35 CB 73.32 OG 74.58
A TRP - 95 51.1 31.6 N 77.05 CA 77.23 C 80.04 O 81.21 CB 76.39 CG 71.83 CD1 76.75 CD2 75.56 NE1 78.79 CE2 77.16 CE3 75.64 CZ2 69.51 CZ3 71.76 CH2 67.66
A GLU - 158 -54.1 -49.5 N 75.97 CA 78.76 C 75.93 O 74.52 CB 87.13 CG 100.34 CD 115.3 OE1 117.11 OE2 123.8
A LYS S 134 -107.3 145.2 N 68.69 CA 68.14 C 70.13 O 68.6 CB 69.05 CG 86.62 CD 89.66 CE 96.9 NZ 99.68
A LYS - 133 -124.0 138.5 N 68.87 CA 60.91 C 65.14 O 55.19 CB 61.74 CG 68.08 CD 75.33 CE 83.9 NZ 98.68
A TYR E 53 -118.8 85.7 N 53.79 CA 54.41 C 52.84 O 52.29 CB 44.97 CG 46.43 CD1 52.44 CD2 57.47 CE1 58.91 CE2 55.7 CZ 60.41 OH 62.3
A PRO E 58 -78.0 139.0 N 59.91 CA 63.23 C 58.0 O 53.27 CB 70.74 CG 72.01 CD 70.01
A CYS - 8 -62.0 137.1 N 56.96 CA 55.69 C 53.74 O 55.66 CB 58.27 SG 41.32
A ARG S 153 -93.4 12.0 N 57.5 CA 63.53 C 59.51 O 66.54 CB 64.53 CG 84.95 CD 87.02 NE 74.32 CZ 68.95 NH1 78.24 NH2 59.18
A TYR S 123 -121.6 -17.7 N 59.94 CA 56.56 C 54.85 O 58.38 CB 48.7 CG 56.65 CD1 57.69 CD2 56.94 CE1 53.06 CE2 60.2 CZ 49.67 OH 62.72
A CYS S 46 -147.6 -170.1 N 55.57 CA 62.08 C 66.72 O 63.34 CB 49.25 SG 56.75
A GLU S 180 -71.4 -25.7 N 64.29 CA 70.7 C 68.9 O 69.65 CB 75.92 CG 90.91 CD 108.04 OE1 117.83 OE2 114.7
A LYS - 121 -57.5 147.0 N 64.01 CA 60.64 C 62.55 O 59.85 CB 56.24 CG 67.39 CD 81.32 CE 89.2 NZ 89.33
A VAL E 65 -134.6 133.3 N 60.35 CA 62.46 C 58.73 O 63.99 CB 60.85 CG1 63.58 CG2 68.69
A PHE E 33 -115.7 153.3 N 50.84 CA 45.69 C 47.44 O 51.6 CB 48.36 CG 47.74 CD1 47.57 CD2 47.45 CE1 47.04 CE2 51.14 CZ 47.72
A PRO S 19 -87.9 -10.5 N 52.13 CA 47.85 C 49.18 O 49.73 CB 52.26 CG 46.15 CD 45.91
A LEU S 11 -127.4 139.6 N 41.02 CA 42.22 C 47.59 O 41.14 CB 44.28 CG 42.97 CD1 38.44 CD2 33.36
A ALA H 43 -57.8 -41.3 N 42.75 CA 44.58 C 41.98 O 39.41 CB 47.19
A GLU H 100 -70.5 -27.0 N 35.13 CA 37.28 C 41.28 O 39.34 CB 34.93 CG 43.81 CD 45.52 OE1 40.06 OE2 46.19
A TYR H 102 -68.9 -41.7 N 33.86 CA 35.59 C 36.47 O 37.77 CB 37.24 CG 41.49 CD1 39.36 CD2 37.04 CE1 39.75 CE2 42.81 CZ 40.97 OH 40.55
A ARG H 40 -59.7 -46.2 N 33.14 CA 40.76 C 42.91 O 40.95 CB 36.59 CG 38.88 CD 49.97 NE 57.55 CZ 59.66 NH1 64.64 NH2 59.86
A THR H 34 -62.0 -47.1 N 42.57 CA 39.22 C 39.2 O 35.52 CB 45.87 OG1 41.69 CG2 48.02
A LYS H 99 -62.1 -34.1 N 36.26 CA 40.8 C 39.75 O 39.42 CB 45.3 CG 54.97 CD 65.87 CE 75.25 NZ 85.72
A HIS H 37 -66.9 -40.8 N 35.21 CA 35.54 C 38.85 O 39.21 CB 43.15 CG 42.96 ND1 48.02 CD2 37.22 CE1 51.22 NE2 43.36
A GLU H 5 -69.8 -29.1 N 37.03 CA 34.1 C 34.31 O 37.71 CB 38.74 CG 40.13 CD 51.81 OE1 56.45 OE2 53.51
A ILE H 8 -63.4 -32.4 N 30.47 CA 31.93 C 34.43 O 35.63 CB 41.01 CG1 57.65 CG2 47.34 CD1 78.2
A HIS H 114 -59.9 -34.5 N 38.04 CA 39.58 C 46.22 O 44.72 CB 40.34 CG 62.07 ND1 75.18 CD2 73.38 CE1 80.43 NE2 84.78
A HIS H 82 -66.0 -41.9 N 38.67 CA 37.8 C 35.2 O 40.44 CB 43.21 CG 41.44 ND1 45.69 CD2 37.19 CE1 40.71 NE2 39.43
A THR H 50 -78.8 -29.6 N 35.7 CA 34.49 C 34.5 O 35.81 CB 41.81 OG1 33.23 CG2 37.72
A GLY T 44 82.4 8.3 N 37.64 CA 36.24 C 44.53 O 37.79
A GLU - 20 -60.1 137.1 N 32.41 CA 31.15 C 40.73 O 41.4 CB 37.69 CG 39.81 CD 36.54 OE1 37.3 OE2 36.06
A ARG - 168 -113.8 88.9 N 33.58 CA 36.52 C 37.37 O 37.58 CB 38.56 CG 39.65 CD 52.3 NE 48.4 CZ 64.48 NH1 55.5 NH2 75.65
A ARG - 29 -80.2 -20.6 N 30.11 CA 31.84 C 31.45 O 28.49 CB 32.31 CG 31.39 CD 33.1 NE 37.05 CZ 36.28 NH1 29.44 NH2 33.63
A TYR E 26 -95.5 116.7 N 28.86 CA 26.72 C 27.09 O 33.19 CB 27.03 CG 29.84 CD1 26.92 CD2 29.95 CE1 28.69 CE2 33.53 CZ 29.26 OH 28.22
A GLN E 46 -117.9 128.5 N 23.99 CA 28.74 C 30.29 O 31.01 CB 32.03 CG 29.65 CD 35.17 OE1 36.05 NE2 32.2
A CYS E 0 -69.9 124.5 N 32.06 CA 35.37 C 41.77 O 36.32 CB 30.48 SG 32.52
A LEU T 76 -85.9 -7.1 N 33.97 CA 37.36 C 41.26 O 46.08 CB 38.21 CG 42.36 CD1 41.77 CD2 45.26
A ALA T 61 -83.8 -33.1 N 38.14 CA 39.58 C 48.89 O 61.21 CB 36.18
A CYS T 67 -135.2 -8.8 N 38.28 CA 34.28 C 39.04 O 42.04 CB 32.36 SG 31.93
A GLY - 31 91.6 -9.6 N 34.48 CA 33.83 C 29.1 O 29.06
A LYS - 134 -59.8 142.9 N 29.76 CA 30.11 C 31.22 O 32.89 CB 33.91 CG 47.67 CD 45.18 CE 61.65 NZ 64.44
A SER E 43 -116.1 156.6 N 29.91 CA 33.78 C 32.15 O 31.38 CB 33.57 OG 42.84
A PHE E 34 -140.5 152.6 N 29.65 CA 29.75 C 29.13 O 26.06 CB 32.41 CG 28.96 CD1 31.57 CD2 28.05 CE1 35.45 CE2 30.28 CZ 29.88
A ILE S 36 -75.3 -26.4 N 29.32 CA 34.21 C 32.88 O 32.4 CB 41.84 CG1 42.37 CG2 50.43 CD1 62.68
A ASN S 29 -146.3 177.0 N 31.23 CA 30.07 C 34.77 O 29.4 CB 31.62 CG 34.17 OD1 34.17 ND2 31.26
A TYR H 69 -61.3 -42.4 N 30.06 CA 32.09 C 29.7 O 31.08 CB 31.88 CG 33.4 CD1 26.22 CD2 31.51 CE1 30.67 CE2 34.19 CZ 29.31 OH 35.57
A GLN H 122 -62.8 -44.5 N 27.18 CA 32.47 C 32.14 O 32.1 CB 37.19 CG 36.58 CD 39.28 OE1 34.49 NE2 38.68
A PHE H 113 -68.2 -39.1 N 29.85 CA 29.23 C 30.78 O 32.51 CB 33.58 CG 45.46 CD1 58.11 CD2 53.83 CE1 65.57 CE2 58.39 CZ 61.14
A MET H 0 -60.6 -48.1 N 27.78 CA 32.8 C 34.11 O 29.25 CB 29.68 CG 25.32 SD 36.24 CE 36.97
A SER H 11 -64.9 -42.9 N 27.86 CA 25.28 C 34.67 O 34.57 CB 29.42 OG 39.56
A SER H 73 -59.6 -43.3 N 34.11 CA 35.24 C 35.4 O 35.62 CB 43.13 OG 57.37
A HIS H 19 -59.8 -51.3 N 30.99 CA 33.03 C 30.48 O 32.12 CB 30.53 CG 29.96 ND1 30.98 CD2 27.86 CE1 38.67 NE2 32.35
A ILE H 3 -65.6 -37.4 N 31.07 CA 33.88 C 42.0 O 32.0 CB 30.66 CG1 32.54 CG2 31.16 CD1 32.34
A LYS H 107 -70.4 -39.5 N 33.94 CA 35.47 C 39.28 O 40.58 CB 40.63 CG 38.29 CD 47.2 CE 46.94 NZ 56.17
A SER H 86 -83.8 -38.5 N 42.22 CA 42.86 C 38.79 O 46.75 CB 48.6 OG 58.6
A VAL H 84 -88.0 -41.1 N 38.92 CA 38.46 C 38.55 O 41.07 CB 33.27 CG1 36.76 CG2 40.08
A HIS S 46 -105.8 -2.1 N 34.0 CA 30.96 C 35.12 O 38.17 CB 33.54 CG 34.0 ND1 32.21 CD2 27.6 CE1 29.68 NE2 30.89
A SER - 105 47.2 52.4 N 39.63 CA 43.94 C 42.57 O 45.12 CB 51.62 OG 63.37
A GLN - 92 -141.6 156.0 N 37.31 CA 40.05 C 38.68 O 36.68 CB 39.63 CG 39.58 CD 44.39 OE1 50.91 NE2 46.4
A ASP - 85 -109.3 117.2 N 43.9 CA 48.04 C 32.51 O 45.07 CB 55.67 CG 65.09 OD1 62.97 OD2 78.33
A PRO - 1 -71.8 -4.3 N 32.54 CA 40.65 C 46.82 O 65.31 CB 32.45 CG 36.54 CD 37.65
A SER T 63 -60.7 165.0 N 45.08 CA 54.25 C 62.95 O 64.31 CB 51.27 OG 51.53
A GLY T 82 73.8 -145.3 N 62.36 CA 55.8 C 66.65 O 59.58
A ASP T 145 -102.4 103.1 N 74.78 CA 74.66 C 73.73 O 80.76 CB 78.35 CG 79.84 OD1 75.91 OD2 84.85
A SER - 27 -84.1 -42.6 N 67.66 CA 61.19 C 59.7 O 60.3 CB 55.06 OG 54.3
A LYS - 158 64.2 24.5 N 51.32 CA 46.43 C 43.18 O 47.83 CB 50.75 CG 50.73 CD 59.28 CE 63.26 NZ 70.03
A LEU S 31 -90.2 -15.4 N 36.31 CA 31.9 C 32.68 O 32.27 CB 35.25 CG 40.45 CD1 39.88 CD2 52.68
A TYR E 68 -137.8 160.7 N 31.61 CA 28.95 C 29.34 O 28.81 CB 31.54 CG 30.28 CD1 27.33 CD2 26.32 CE1 32.98 CE2 28.83 CZ 33.71 OH 29.83
A ARG E 129 -118.4 131.7 N 29.75 CA 31.12 C 28.23 O 35.79 CB 40.87 CG 44.86 CD 53.67 NE 64.18 CZ 73.44 NH1 67.2 NH2 72.3
A LEU E 31 -97.1 109.2 N 27.85 CA 27.48 C 30.81 O 31.97 CB 27.38 CG 33.76 CD1 25.22 CD2 33.92
A HIS - 56 -71.1 150.6 N 30.9 CA 26.1 C 27.55 O 29.33 CB 29.65 CG 25.84 ND1 36.42 CD2 32.91 CE1 34.92 NE2 34.59
A PRO - 38 -54.4 151.9 N 34.16 CA 36.46 C 38.53 O 34.43 CB 41.43 CG 35.63 CD 35.52
A CYS - 5 -79.0 119.1 N 34.06 CA 37.56 C 38.43 O 37.39 CB 40.67 SG 45.11
A ARG - 226 -112.8 -13.8 N 35.41 CA 33.33 C 33.35 O 35.47 CB 35.56 CG 29.22 CD 36.04 NE 32.02 CZ 36.51 NH1 28.78 NH2 33.52
A SER S 44 -86.1 -17.9 N 31.31 CA 32.41 C 35.07 O 38.88 CB 39.89 OG 40.41
A LEU S 20 -128.3 160.4 N 41.86 CA 48.59 C 48.79 O 53.2 CB 49.01 CG 49.8 CD1 57.21 CD2 51.96
A GLN - 199 -94.6 92.3 N 50.04 CA 48.66 C 46.3 O 49.61 CB 60.13 CG 81.47 CD 101.37 OE1 109.63 NE2 105.86
A ILE - 54 -124.1 168.8 N 49.29 CA 56.89 C 52.36 O 42.99 CB 50.76 CG1 51.87 CG2 51.76 CD1 48.14
A ARG - 189 -58.3 132.1 N 46.42 CA 47.33 C 52.44 O 50.52 CB 55.62 CG 68.01 CD 69.46 NE 62.99 CZ 62.53 NH1 56.72 NH2 53.39
A GLN - 111 -106.7 120.1 N 45.1 CA 51.66 C 61.52 O 66.24 CB 62.71 CG 72.27 CD 88.67 OE1 91.81 NE2 97.95
A TYR - 131 -79.2 130.4 N 57.05 CA 54.2 C 48.18 O 44.27 CB 50.68 CG 49.61 CD1 54.64 CD2 52.82 CE1 58.84 CE2 52.82 CZ 51.55 OH 54.11
A ALA G 82 -55.2 -35.8 N 48.98 CA 57.93 C 62.04 O 58.53 CB 58.71
A TYR G 169 -64.5 -15.1 N 49.31 CA 56.73 C 54.9 O 59.74 CB 60.77 CG 56.71 CD1 52.85 CD2 54.16 CE1 59.47 CE2 56.79 CZ 58.6 OH 50.73
A LEU G 29 -83.1 -15.1 N 48.2 CA 49.69 C 65.03 O 62.67 CB 41.59 CG 49.32 CD1 43.63 CD2 64.64
A SER - 123 -85.8 360.0 N 76.32 CA 85.05 C 89.2 O 91.3 CB 92.35 OG 102.83
