A ASP - 141 360.0 144.3 N 104.55 CA 100.1 C 104.47 O 106.5 CB 93.75 CG 94.34 OD1 97.36 OD2 93.99
A SER - 104 67.7 -11.0 N 107.4 CA 117.3 C 123.07 O 121.01 CB 119.63 OG 128.13
A HIS S 153 -117.8 -62.2 N 131.82 CA 144.01 C 145.82 O 149.39 CB 153.21 CG 161.82 ND1 163.02 CD2 167.3 CE1 167.14 NE2 169.02
A GLN H 114 -55.4 -38.1 N 134.12 CA 112.07 C 91.04 O 84.5 CB 107.02 CG 108.6 CD 107.02 OE1 101.57 NE2 108.47
A LEU H 48 -65.5 -45.9 N 75.25 CA 65.46 C 60.07 O 57.13 CB 59.54 CG 56.43 CD1 57.62 CD2 56.59
A ALA H 41 -59.0 -49.4 N 65.32 CA 67.01 C 72.98 O 70.7 CB 69.74
A LYS H 130 -73.1 -26.9 N 76.01 CA 83.43 C 72.23 O 77.72 CB 90.99 CG 94.42 CD 100.5 CE 103.37 NZ 109.29
A ALA H 17 -70.7 -38.7 N 64.04 CA 52.89 C 63.52 O 67.07 CB 50.79
A LEU H 3 -77.6 -32.2 N 59.87 CA 55.26 C 55.17 O 53.0 CB 49.71 CG 45.94 CD1 40.87 CD2 47.34
A ALA H 19 -67.9 -35.6 N 52.48 CA 54.97 C 73.42 O 74.23 CB 57.37
A GLU H 135 -70.9 -25.5 N 74.13 CA 79.05 C 77.84 O 83.38 CB 88.32 CG 97.43 CD 100.66 OE1 97.15 OE2 105.82
A ALA S 26 -101.4 106.8 N 72.67 CA 70.97 C 69.25 O 71.67 CB 71.24
A ALA S 59 44.5 -120.9 N 68.91 CA 70.41 C 76.42 O 85.93 CB 68.25
A ASP S 89 -105.6 -175.7 N 70.39 CA 67.3 C 58.53 O 56.24 CB 78.04 CG 90.6 OD1 100.46 OD2 91.6
A VAL H 2 -60.5 -42.5 N 56.5 CA 50.64 C 49.08 O 45.37 CB 50.18 CG1 48.12 CG2 54.02
A GLY H 5 -59.2 -42.4 N 46.29 CA 49.04 C 49.58 O 55.76
A ALA H 26 -63.3 -33.1 N 48.18 CA 46.99 C 48.46 O 49.56 CB 46.92
A GLN H 0 -68.1 -41.5 N 45.53 CA 42.16 C 38.72 O 38.21 CB 44.88 CG 54.06 CD 58.76 OE1 55.7 NE2 65.92
A MET H 0 -65.0 -47.8 N 41.47 CA 46.55 C 54.4 O 62.83 CB 46.16 CG 46.6 SD 49.25 CE 72.75
A ILE H 98 -57.8 -48.1 N 52.56 CA 48.67 C 47.31 O 46.19 CB 51.71 CG1 56.12 CG2 49.87 CD1 61.38
A LYS H 102 -59.9 -38.0 N 47.03 CA 51.54 C 51.43 O 49.8 CB 53.55 CG 55.63 CD 60.21 CE 64.48 NZ 66.62
A LEU H 1 -62.2 -42.5 N 54.19 CA 51.99 C 53.92 O 55.59 CB 44.17 CG 41.31 CD1 41.19 CD2 42.91
A VAL H 11 -58.4 -45.9 N 51.09 CA 46.57 C 46.63 O 45.92 CB 46.73 CG1 40.49 CG2 46.22
A GLY H 41 -59.2 -39.1 N 45.83 CA 44.13 C 48.93 O 52.98
A LEU H 68 -80.9 -35.5 N 51.24 CA 50.66 C 47.35 O 45.48 CB 45.1 CG 51.1 CD1 58.64 CD2 46.76
A ARG H 46 -82.5 -29.7 N 41.34 CA 41.97 C 38.07 O 31.93 CB 44.5 CG 49.07 CD 51.81 NE 55.01 CZ 51.75 NH1 43.81 NH2 56.57
A GLU S 64 -66.3 154.4 N 39.05 CA 38.66 C 35.96 O 34.23 CB 40.68 CG 47.95 CD 53.28 OE1 57.58 OE2 57.21
A LEU - 11 -61.6 139.5 N 31.59 CA 32.61 C 44.52 O 42.88 CB 31.39 CG 34.24 CD1 29.04 CD2 30.76
A SER - 55 -77.4 176.9 N 47.42 CA 38.26 C 41.72 O 39.46 CB 40.5 OG 40.36
A GLU H 156 -71.2 -31.4 N 44.51 CA 50.81 C 51.28 O 57.43 CB 61.11 CG 70.53 CD 83.95 OE1 92.1 OE2 89.78
A ALA H 70 -69.5 -40.6 N 47.26 CA 42.54 C 40.25 O 40.04 CB 44.69
A GLU H 43 -63.6 -41.4 N 40.18 CA 39.68 C 40.62 O 45.97 CB 39.49 CG 47.22 CD 49.13 OE1 44.39 OE2 55.02
A ARG H 96 -67.3 -36.7 N 37.96 CA 34.1 C 35.27 O 34.53 CB 34.09 CG 32.68 CD 51.63 NE 57.69 CZ 57.49 NH1 49.65 NH2 63.81
A GLN H 127 -58.6 -51.4 N 37.31 CA 50.35 C 38.27 O 38.09 CB 58.99 CG 68.21 CD 77.04 OE1 85.03 NE2 76.34
A LEU H 73 -55.2 -48.7 N 38.25 CA 42.97 C 36.04 O 36.18 CB 44.31 CG 43.47 CD1 41.52 CD2 44.99
A ARG H 14 -60.6 -47.5 N 34.4 CA 36.06 C 36.71 O 34.32 CB 31.26 CG 32.91 CD 36.42 NE 44.53 CZ 48.33 NH1 57.32 NH2 43.39
A SER H 80 -58.6 -40.7 N 37.95 CA 37.1 C 39.11 O 35.24 CB 44.21 OG 57.27
A LEU H 104 -61.3 -47.7 N 38.98 CA 40.48 C 46.17 O 49.65 CB 51.39 CG 63.79 CD1 70.79 CD2 66.81
A VAL H 3 -62.7 -46.5 N 46.6 CA 41.16 C 38.16 O 36.77 CB 35.74 CG1 33.89 CG2 38.91
A VAL H 17 -55.0 -37.0 N 38.51 CA 36.56 C 33.87 O 33.93 CB 31.57 CG1 31.34 CG2 30.27
A ALA H 49 -66.4 -43.8 N 35.16 CA 36.69 C 53.36 O 38.2 CB 38.12
A LEU H 47 -58.9 -50.7 N 53.52 CA 54.45 C 49.98 O 50.0 CB 60.68 CG 72.63 CD1 77.41 CD2 76.28
A MET H 3 -51.2 -49.3 N 43.94 CA 45.37 C 47.81 O 55.06 CB 41.04 CG 44.23 SD 51.7 CE 135.28
A GLN H 47 -58.0 -41.4 N 35.67 CA 38.92 C 43.77 O 43.48 CB 45.44 CG 46.3 CD 53.63 OE1 49.9 NE2 62.26
A GLU H 138 -67.0 -49.8 N 39.13 CA 56.78 C 50.82 O 46.31 CB 64.22 CG 76.81 CD 91.39 OE1 99.62 OE2 95.31
A VAL H 13 -67.3 -40.5 N 49.77 CA 48.47 C 45.44 O 42.65 CB 52.16 CG1 53.28 CG2 55.76
A PHE H 3 -68.9 -30.4 N 39.61 CA 39.62 C 46.8 O 49.95 CB 37.41 CG 38.77 CD1 37.53 CD2 39.6 CE1 42.28 CE2 42.49 CZ 44.15
A THR H 59 -67.0 -38.7 N 46.82 CA 51.77 C 60.46 O 62.89 CB 42.32 OG1 51.72 CG2 44.22
A GLU H 62 -57.7 -43.3 N 60.63 CA 59.88 C 55.4 O 53.34 CB 68.1 CG 77.05 CD 82.77 OE1 85.86 OE2 83.45
A PHE H 2 -81.9 -40.2 N 56.34 CA 52.48 C 50.99 O 50.83 CB 55.38 CG 58.77 CD1 65.41 CD2 59.88 CE1 68.6 CE2 63.59 CZ 73.41
A PHE S 9 -119.3 90.8 N 48.41 CA 47.03 C 44.57 O 43.12 CB 42.41 CG 46.35 CD1 50.07 CD2 41.51 CE1 43.98 CE2 41.79 CZ 49.82
A PRO T 46 -57.3 129.8 N 51.66 CA 58.08 C 64.09 O 67.72 CB 59.96 CG 58.8 CD 51.94
A GLY T 73 74.9 35.3 N 65.81 CA 65.78 C 67.36 O 71.75
A CYS - 7 -105.7 150.4 N 60.59 CA 51.62 C 49.21 O 53.76 CB 52.86 SG 50.43
A VAL E 62 -118.3 131.2 N 38.9 CA 40.23 C 40.08 O 33.31 CB 46.53 CG1 50.22 CG2 48.26
A VAL E 10 -96.4 113.3 N 33.27 CA 38.18 C 35.84 O 33.62 CB 38.6 CG1 39.18 CG2 36.67
A HIS E 49 -101.6 117.2 N 33.45 CA 30.01 C 29.31 O 30.85 CB 36.94 CG 45.08 ND1 50.36 CD2 47.79 CE1 53.66 NE2 50.26
A PRO E 46 -69.0 141.9 N 31.43 CA 32.93 C 30.58 O 26.3 CB 31.75 CG 35.47 CD 28.71
A PHE E 22 -145.0 177.9 N 26.76 CA 30.44 C 33.49 O 37.81 CB 25.92 CG 24.64 CD1 27.56 CD2 25.34 CE1 26.59 CE2 27.85 CZ 26.77
A GLY G 10 80.7 -147.5 N 31.7 CA 32.38 C 29.15 O 32.24
A SER G 22 -49.6 -35.5 N 36.54 CA 47.01 C 45.25 O 44.87 CB 57.92 OG 64.9
A SER G 6 -67.7 -43.0 N 52.2 CA 54.14 C 54.18 O 57.63 CB 63.0 OG 71.41
A ILE T 64 -101.3 -4.9 N 51.05 CA 49.39 C 46.2 O 56.35 CB 47.02 CG1 49.1 CG2 46.28 CD1 50.32
A ASN S 15 -95.1 6.2 N 36.81 CA 34.48 C 41.35 O 41.05 CB 23.19 CG 33.53 OD1 38.13 ND2 36.23
A SER S 23 77.5 -1.9 N 40.65 CA 35.35 C 33.57 O 36.47 CB 39.44 OG 40.12
A PHE - 12 -99.5 10.7 N 40.25 CA 42.56 C 43.48 O 53.58 CB 38.88 CG 42.03 CD1 37.74 CD2 41.59 CE1 32.78 CE2 39.51 CZ 35.12
A ASP - 2 -49.9 136.4 N 31.95 CA 33.08 C 36.38 O 30.75 CB 32.91 CG 38.7 OD1 36.68 OD2 38.25
A VAL - 4 -132.7 167.9 N 26.84 CA 36.88 C 34.23 O 33.75 CB 28.06 CG1 27.03 CG2 27.83
A HIS T 76 -55.9 132.5 N 37.1 CA 37.3 C 36.42 O 40.43 CB 39.1 CG 41.68 ND1 44.62 CD2 42.74 CE1 49.24 NE2 46.08
A GLY T 52 81.0 5.8 N 35.48 CA 31.79 C 39.0 O 45.57
A CYS - 13 -69.8 163.2 N 32.19 CA 27.3 C 45.53 O 48.51 CB 26.26 SG 47.14
A ASP - 69 -70.0 161.7 N 55.71 CA 55.82 C 52.04 O 62.82 CB 68.48 CG 82.26 OD1 85.74 OD2 95.2
A LEU E 2 -113.7 107.5 N 39.93 CA 36.11 C 37.18 O 45.41 CB 37.6 CG 33.81 CD1 27.62 CD2 29.58
A ASP E 23 -100.2 128.3 N 33.74 CA 36.98 C 34.16 O 33.94 CB 42.66 CG 55.39 OD1 62.92 OD2 61.69
A LEU E 3 -124.5 125.8 N 33.35 CA 27.19 C 39.08 O 46.97 CB 31.01 CG 31.04 CD1 29.63 CD2 35.98
A PHE E 3 -98.3 132.9 N 39.38 CA 31.24 C 29.59 O 29.93 CB 30.44 CG 33.62 CD1 29.64 CD2 33.34 CE1 32.2 CE2 34.33 CZ 34.31
A LEU E 4 -107.1 111.8 N 42.01 CA 48.63 C 51.28 O 56.26 CB 54.39 CG 56.36 CD1 54.77 CD2 61.24
A ASP E 44 -100.2 123.6 N 49.43 CA 53.78 C 56.73 O 64.72 CB 56.03 CG 61.01 OD1 66.14 OD2 62.56
A LEU - 99 -104.8 360.0 N 53.44 CA 53.44 C 54.04 O 53.01 CB 48.82 CG 41.7 CD1 43.62 CD2 38.52
A THR - 75 360.0 5.8 N 99.49 CA 95.34 C 99.17 O 111.55 CB 84.35 OG1 87.05 CG2 88.66
A PRO H 107 -71.1 -71.6 N 98.83 CA 101.46 C 111.72 O 105.09 CB 100.02 CG 100.6 CD 99.91
A LYS H 133 -61.3 -30.9 N 124.34 CA 120.38 C 118.25 O 119.21 CB 120.74 CG 119.77 CD 116.61 CE 112.43 NZ 108.81
A GLU H 53 -56.2 -56.7 N 113.38 CA 96.85 C 86.56 O 82.72 CB 92.19 CG 92.47 CD 92.73 OE1 95.43 OE2 92.05
A GLU H 104 -65.6 -35.4 N 80.79 CA 79.87 C 75.36 O 65.31 CB 79.16 CG 85.35 CD 89.71 OE1 90.32 OE2 89.94
A LYS H 114 -55.5 -50.5 N 82.66 CA 84.62 C 87.29 O 88.31 CB 84.42 CG 82.23 CD 84.93 CE 85.08 NZ 83.71
A ALA H 45 -73.9 -26.8 N 82.97 CA 76.5 C 70.74 O 72.44 CB 75.25
A GLU H 94 -66.5 -42.9 N 67.38 CA 64.58 C 58.21 O 50.57 CB 69.96 CG 73.64 CD 83.45 OE1 88.48 OE2 88.06
A GLY H 39 -61.8 -48.2 N 54.47 CA 47.59 C 55.94 O 62.25
A ALA H 22 -61.5 -27.8 N 63.82 CA 63.32 C 63.17 O 64.2 CB 65.4
A ALA H 53 -76.6 -41.1 N 62.32 CA 58.03 C 56.6 O 52.47 CB 51.53
A MET H 49 -58.8 -40.3 N 51.69 CA 50.85 C 55.3 O 66.72 CB 43.46 CG 54.75 SD 79.81 CE 59.85
A LEU H 4 -56.3 -50.2 N 49.73 CA 50.28 C 57.54 O 55.61 CB 39.46 CG 37.42 CD1 35.73 CD2 38.73
A GLU H 70 -55.9 -41.7 N 61.83 CA 65.35 C 67.71 O 67.0 CB 71.13 CG 72.31 CD 78.8 OE1 76.55 OE2 81.61
A LEU H 14 -56.8 -51.9 N 61.79 CA 58.71 C 52.3 O 43.5 CB 60.58 CG 64.74 CD1 68.66 CD2 65.48
A VAL H 0 -55.0 -45.9 N 43.14 CA 46.72 C 48.11 O 39.42 CB 39.04 CG1 35.98 CG2 39.17
A GLY H 0 -56.1 -48.3 N 39.94 CA 54.21 C 53.72 O 42.13
A SER H 38 -62.6 -28.2 N 43.82 CA 66.8 C 45.3 O 46.57 CB 69.63 OG 81.3
A ILE H 0 -76.0 -38.7 N 43.65 CA 47.9 C 52.78 O 51.31 CB 47.97 CG1 49.9 CG2 42.02 CD1 42.69
A LEU H 0 -68.7 -37.1 N 45.58 CA 46.69 C 51.75 O 62.78 CB 48.11 CG 44.73 CD1 43.52 CD2 36.13
A ARG H 120 -65.7 -55.0 N 45.31 CA 52.25 C 58.82 O 68.81 CB 55.28 CG 54.45 CD 50.01 NE 50.9 CZ 55.83 NH1 61.9 NH2 56.3
A GLY H 70 -111.2 5.6 N 58.73 CA 59.26 C 59.35 O 51.31
A CYS T 49 -120.7 -64.4 N 62.33 CA 65.46 C 68.02 O 72.23 CB 65.14 SG 51.55
A VAL S 5 -64.6 118.3 N 69.16 CA 74.64 C 74.34 O 76.99 CB 75.5 CG1 74.94 CG2 79.17
A PRO T 91 -72.9 141.3 N 74.18 CA 74.38 C 67.32 O 66.31 CB 72.52 CG 72.18 CD 72.26
A GLY T 27 102.8 -19.9 N 69.03 CA 71.23 C 68.86 O 68.81
A VAL E 10 -94.5 127.1 N 68.53 CA 62.41 C 65.57 O 60.98 CB 49.55 CG1 47.54 CG2 51.78
A TYR E 86 -115.2 -61.4 N 71.5 CA 78.33 C 82.81 O 103.57 CB 70.49 CG 65.52 CD1 63.36 CD2 61.53 CE1 61.69 CE2 61.12 CZ 60.57 OH 59.91
A ARG E 162 -67.7 119.1 N 69.91 CA 70.44 C 67.55 O 70.54 CB 76.05 CG 87.08 CD 95.2 NE 113.71 CZ 115.96 NH1 110.25 NH2 118.75
A VAL E 27 -138.7 117.8 N 57.83 CA 49.01 C 44.91 O 47.64 CB 43.92 CG1 44.44 CG2 42.43
A GLN E 133 -134.7 118.0 N 47.24 CA 53.04 C 48.16 O 44.94 CB 63.02 CG 74.98 CD 86.81 OE1 87.22 NE2 92.38
A THR E 35 -74.0 138.0 N 54.35 CA 57.2 C 54.12 O 40.44 CB 49.96 OG1 56.28 CG2 45.01
A VAL E 36 -132.8 79.4 N 56.49 CA 54.24 C 62.42 O 67.85 CB 41.95 CG1 42.3 CG2 39.22
A PRO T 42 -72.7 -21.3 N 70.31 CA 67.15 C 74.11 O 73.98 CB 58.92 CG 43.31 CD 63.85
A SER T 113 -78.7 -9.4 N 78.39 CA 81.59 C 82.73 O 94.63 CB 80.71 OG 78.48
A ALA S 40 -74.4 160.6 N 79.17 CA 76.41 C 74.55 O 80.65 CB 74.72
A ARG S 122 -60.2 -40.3 N 72.86 CA 72.42 C 71.96 O 68.84 CB 70.94 CG 71.07 CD 72.75 NE 74.96 CZ 81.6 NH1 86.26 NH2 81.72
A ARG S 110 -116.4 93.7 N 76.34 CA 73.27 C 62.78 O 59.49 CB 78.11 CG 84.85 CD 87.05 NE 84.75 CZ 83.5 NH1 86.52 NH2 80.8
A PRO - 50 -51.7 136.2 N 58.44 CA 51.72 C 46.47 O 54.44 CB 50.62 CG 51.44 CD 53.58
A VAL E 18 -152.7 156.0 N 38.68 CA 37.68 C 35.13 O 33.78 CB 38.55 CG1 30.22 CG2 36.23
A VAL E 0 -109.9 112.2 N 32.39 CA 44.02 C 36.46 O 36.43 CB 41.88 CG1 35.81 CG2 35.56
A LYS E 116 -75.1 139.8 N 40.2 CA 40.31 C 33.77 O 35.32 CB 43.93 CG 51.88 CD 59.49 CE 65.19 NZ 73.04
A PHE E 8 -146.1 160.6 N 33.15 CA 34.86 C 38.59 O 38.91 CB 40.86 CG 44.18 CD1 36.88 CD2 41.12 CE1 38.77 CE2 38.9 CZ 38.22
A ALA E 4 -140.2 130.0 N 41.77 CA 42.06 C 46.43 O 50.61 CB 43.49
A HIS E 14 -96.7 117.9 N 48.59 CA 49.74 C 53.05 O 59.44 CB 48.68 CG 45.71 ND1 43.7 CD2 43.92 CE1 49.98 NE2 46.36
A ARG T 150 -66.6 -52.7 N 59.05 CA 72.05 C 74.18 O 77.19 CB 82.16 CG 92.9 CD 101.13 NE 103.82 CZ 99.5 NH1 96.62 NH2 95.67
A PRO T 101 -64.2 -34.3 N 71.29 CA 71.85 C 75.53 O 85.5 CB 66.17 CG 64.99 CD 68.29
A SER T 17 -86.9 -11.6 N 66.6 CA 57.15 C 53.92 O 53.8 CB 62.49 OG 63.37
A GLY T 58 68.3 12.2 N 47.33 CA 42.14 C 47.04 O 52.91
A LEU E 13 -82.3 157.7 N 44.12 CA 43.53 C 37.35 O 35.03 CB 42.94 CG 40.83 CD1 39.23 CD2 34.59
A HIS E 80 -150.2 149.5 N 36.98 CA 42.17 C 43.08 O 45.56 CB 47.23 CG 59.01 ND1 59.78 CD2 69.44 CE1 65.56 NE2 71.23
A GLY E 6 -178.2 -161.4 N 40.57 CA 38.33 C 45.74 O 40.61
A ASP E 31 -118.7 137.5 N 53.47 CA 49.43 C 43.35 O 43.41 CB 56.81 CG 64.71 OD1 64.74 OD2 75.36
A VAL E 2 -109.0 113.9 N 40.66 CA 37.59 C 44.74 O 51.1 CB 33.03 CG1 31.54 CG2 30.98
A SER E 5 -107.2 121.3 N 46.75 CA 41.96 C 38.2 O 34.84 CB 44.4 OG 60.24
A LEU S 26 -66.6 -58.5 N 46.26 CA 49.81 C 61.32 O 70.92 CB 49.16 CG 46.56 CD1 52.11 CD2 39.69
A SER S 95 -132.3 103.2 N 61.29 CA 70.09 C 66.42 O 59.49 CB 80.97 OG 87.99
A ASN - 29 -133.3 101.3 N 69.07 CA 74.22 C 68.46 O 70.81 CB 80.16 CG 87.4 OD1 95.18 ND2 86.73
A ARG - 84 -87.1 -23.0 N 71.76 CA 57.92 C 52.41 O 42.81 CB 31.97 CG 54.61 CD 59.66 NE 60.27 CZ 60.71 NH1 63.68 NH2 60.65
A LEU H 9 -61.0 -33.8 N 48.49 CA 44.12 C 37.2 O 39.09 CB 42.7 CG 45.84 CD1 49.47 CD2 45.92
A ALA H 3 -55.5 -42.8 N 34.54 CA 35.28 C 38.58 O 36.03 CB 34.61
A LEU H 6 -53.9 -50.7 N 42.73 CA 46.11 C 44.21 O 61.74 CB 47.7 CG 48.69 CD1 53.21 CD2 45.77
A HIS H 16 -70.2 -36.8 N 35.49 CA 38.56 C 39.52 O 50.94 CB 38.47 CG 41.58 ND1 52.27 CD2 45.59 CE1 57.26 NE2 51.08
A ASN H 19 -77.2 -26.9 N 29.1 CA 30.53 C 37.8 O 33.66 CB 29.93 CG 28.81 OD1 38.51 ND2 24.46
A SER H 1 -62.9 -52.4 N 30.62 CA 33.52 C 39.67 O 49.9 CB 36.52 OG 34.62
A ARG H 80 -56.2 -34.6 N 38.07 CA 44.68 C 33.55 O 29.97 CB 56.15 CG 75.21 CD 94.34 NE 98.99 CZ 102.15 NH1 104.06 NH2 103.29
A PHE H 6 -69.0 -41.1 N 30.99 CA 31.05 C 32.94 O 38.33 CB 34.78 CG 26.46 CD1 27.56 CD2 25.52 CE1 27.66 CE2 26.36 CZ 26.66
A LEU H 0 -64.6 -43.5 N 31.62 CA 31.85 C 33.74 O 39.21 CB 23.31 CG 32.22 CD1 22.3 CD2 23.17
A SER H 23 -61.0 -42.8 N 32.85 CA 42.35 C 38.82 O 35.33 CB 48.24 OG 59.63
A LEU H 3 -61.5 -39.6 N 37.81 CA 37.62 C 39.61 O 38.48 CB 35.65 CG 41.34 CD1 41.64 CD2 41.62
A ALA H 3 -59.4 -46.2 N 37.65 CA 37.7 C 37.15 O 28.56 CB 32.27
A SER H 17 -60.0 -36.2 N 43.29 CA 46.36 C 50.31 O 45.3 CB 53.87 OG 65.21
A GLU H 117 -70.9 -29.7 N 58.21 CA 59.71 C 57.56 O 54.77 CB 67.69 CG 77.42 CD 91.98 OE1 95.39 OE2 95.9
A LEU H 38 -68.2 -38.8 N 59.7 CA 53.05 C 41.88 O 47.72 CB 51.67 CG 53.13 CD1 53.02 CD2 49.68
A ASP - 20 -141.8 139.3 N 40.73 CA 48.83 C 48.19 O 47.37 CB 53.89 CG 56.82 OD1 58.01 OD2 63.93
A GLY T 66 -75.2 -11.2 N 43.78 CA 37.46 C 38.37 O 42.08
A ARG T 37 -87.7 -15.2 N 37.99 CA 42.96 C 45.05 O 54.7 CB 41.94 CG 45.85 CD 47.59 NE 44.92 CZ 40.99 NH1 42.81 NH2 41.29
A VAL H 0 -61.8 -54.4 N 38.71 CA 31.09 C 32.71 O 26.39 CB 30.83 CG1 32.11 CG2 33.92
A ARG H 54 -63.2 -45.3 N 38.16 CA 41.14 C 50.38 O 43.86 CB 28.03 CG 27.25 CD 28.0 NE 40.76 CZ 41.51 NH1 30.67 NH2 54.73
A PRO H 11 -58.7 -43.9 N 45.29 CA 47.11 C 44.84 O 44.67 CB 47.77 CG 31.86 CD 30.33
A LEU H 0 -58.7 -50.2 N 44.07 CA 41.99 C 37.37 O 26.51 CB 40.77 CG 48.78 CD1 62.1 CD2 43.09
A VAL H 4 -64.4 -41.4 N 36.2 CA 31.12 C 31.4 O 33.43 CB 28.08 CG1 25.62 CG2 31.19
A TYR H 2 -64.2 -48.6 N 29.23 CA 26.66 C 29.61 O 38.02 CB 29.92 CG 31.52 CD1 32.9 CD2 33.56 CE1 30.26 CE2 35.19 CZ 30.65 OH 34.99
A THR H 0 -58.8 -48.7 N 28.08 CA 28.97 C 30.28 O 28.83 CB 37.19 OG1 46.32 CG2 39.57
A LEU H 0 -69.2 -27.9 N 27.14 CA 37.11 C 42.7 O 42.62 CB 31.78 CG 33.7 CD1 36.36 CD2 35.21
A ARG H 30 -70.2 -51.0 N 39.79 CA 41.15 C 40.39 O 43.38 CB 46.69 CG 56.64 CD 69.37 NE 79.3 CZ 80.38 NH1 83.33 NH2 78.46
A ALA H 16 -58.6 -43.0 N 32.09 CA 34.75 C 35.0 O 34.79 CB 30.34
A TRP H 1 -59.5 -48.3 N 35.66 CA 32.69 C 39.03 O 43.27 CB 31.0 CG 30.79 CD1 34.0 CD2 30.89 NE1 34.04 CE2 31.66 CE3 28.72 CZ2 34.82 CZ3 28.72 CH2 34.52
A ALA H 2 -62.9 -37.5 N 41.81 CA 38.2 C 40.42 O 36.43 CB 38.37
A GLN H 79 -59.9 -44.9 N 43.58 CA 43.03 C 41.61 O 40.2 CB 53.34 CG 62.68 CD 75.4 OE1 83.58 NE2 78.1
A GLY H 28 -66.8 -27.3 N 41.21 CA 43.11 C 41.53 O 42.5
A ARG H 33 -92.4 -3.4 N 41.27 CA 44.05 C 44.83 O 41.71 CB 41.95 CG 38.84 CD 35.72 NE 48.86 CZ 48.48 NH1 51.62 NH2 49.56
A GLY T 24 75.3 26.9 N 41.82 CA 38.57 C 37.92 O 32.84
A LEU - 2 -94.8 -11.1 N 36.07 CA 38.57 C 47.0 O 46.75 CB 36.04 CG 36.55 CD1 37.77 CD2 32.11
A SER B 14 -134.7 150.2 N 51.26 CA 55.14 C 54.52 O 67.54 CB 60.75 OG 71.09
A GLY S 31 158.8 -162.5 N 49.72 CA 53.94 C 55.86 O 48.73
A SER S 133 -97.4 3.1 N 69.67 CA 83.38 C 79.83 O 89.51 CB 99.43 OG 113.21
A GLY S 35 -94.5 -144.5 N 68.56 CA 64.43 C 55.26 O 55.04
A PRO S 65 -61.6 -12.6 N 51.61 CA 48.91 C 43.4 O 55.45 CB 44.21 CG 40.64 CD 48.68
A LEU S 36 -68.5 161.2 N 39.58 CA 48.28 C 46.57 O 46.85 CB 49.29 CG 51.82 CD1 60.66 CD2 43.37
A LEU B 4 -66.0 133.2 N 38.95 CA 35.83 C 32.66 O 32.32 CB 34.24 CG 36.75 CD1 39.54 CD2 35.22
A SER - 44 -67.5 159.3 N 31.91 CA 28.5 C 33.67 O 35.2 CB 27.0 OG 37.39
A ASN H 51 -64.4 -31.6 N 33.54 CA 40.99 C 41.23 O 41.51 CB 47.28 CG 60.55 OD1 60.64 ND2 67.77
A TYR H 52 -64.2 -46.2 N 45.87 CA 38.68 C 34.66 O 37.83 CB 31.15 CG 28.65 CD1 29.03 CD2 26.73 CE1 31.63 CE2 27.4 CZ 34.72 OH 40.14
A ALA H 0 -65.4 -37.5 N 28.72 CA 26.81 C 33.36 O 38.53 CB 23.87
A LEU H 5 -66.2 -43.5 N 29.92 CA 34.77 C 38.96 O 49.07 CB 39.65 CG 39.09 CD1 41.02 CD2 37.36
A THR H 7 -60.5 -46.3 N 33.1 CA 34.3 C 31.05 O 31.39 CB 31.32 OG1 30.16 CG2 30.23
A LEU H 0 -59.3 -36.1 N 23.84 CA 32.0 C 39.22 O 35.9 CB 29.71 CG 31.24 CD1 33.82 CD2 25.14
A LEU H 2 -68.3 -41.6 N 41.38 CA 33.49 C 32.09 O 31.03 CB 29.77 CG 33.2 CD1 25.98 CD2 32.21
A VAL H 0 -63.0 -47.8 N 25.85 CA 34.36 C 35.21 O 39.25 CB 36.37 CG1 24.82 CG2 24.06
A ILE H 1 -60.1 -41.3 N 27.45 CA 32.88 C 28.72 O 26.88 CB 32.32 CG1 33.56 CG2 29.82 CD1 34.49
A TYR H 9 -59.4 -44.1 N 29.19 CA 32.17 C 34.39 O 29.59 CB 28.99 CG 29.21 CD1 32.87 CD2 35.09 CE1 38.98 CE2 39.33 CZ 46.94 OH 54.41
A PHE H 0 -58.9 -42.2 N 36.34 CA 38.19 C 40.82 O 39.69 CB 36.35 CG 33.53 CD1 32.42 CD2 28.68 CE1 33.85 CE2 30.39 CZ 29.85
A LEU H 0 -70.2 -22.1 N 39.08 CA 43.64 C 48.89 O 59.54 CB 38.64 CG 32.32 CD1 27.26 CD2 34.89
A GLN H 9 -77.1 -29.0 N 43.19 CA 42.09 C 41.2 O 42.78 CB 43.38 CG 46.01 CD 42.18 OE1 38.57 NE2 37.27
A THR S 45 -96.2 4.6 N 37.11 CA 38.49 C 40.48 O 44.18 CB 33.85 OG1 31.12 CG2 32.0
A ARG S 43 -69.9 154.7 N 42.4 CA 42.99 C 56.0 O 51.63 CB 35.23 CG 36.76 CD 40.67 NE 46.26 CZ 54.64 NH1 45.73 NH2 69.64
A ASP S 158 -57.9 -62.7 N 72.82 CA 84.43 C 84.76 O 106.38 CB 94.8 CG 107.74 OD1 105.34 OD2 118.42
A PRO S 43 -78.4 137.4 N 67.63 CA 61.63 C 52.05 O 50.91 CB 59.2 CG 43.31 CD 61.44
A PRO - 67 -73.8 139.6 N 54.01 CA 48.46 C 48.63 O 52.89 CB 49.84 CG 53.03 CD 59.44
A VAL S 5 -79.7 -41.3 N 45.0 CA 39.7 C 33.11 O 35.1 CB 35.02 CG1 32.28 CG2 33.2
A LEU S 5 -120.6 148.4 N 32.15 CA 32.07 C 35.14 O 33.63 CB 36.49 CG 34.34 CD1 39.43 CD2 29.77
A PRO - 38 -75.3 164.3 N 36.99 CA 39.26 C 36.66 O 32.08 CB 37.41 CG 37.59 CD 37.08
A THR - 21 -78.1 156.0 N 42.0 CA 45.45 C 50.19 O 57.29 CB 44.69 OG1 48.38 CG2 36.04
A VAL H 0 -67.8 -26.9 N 49.08 CA 52.05 C 51.45 O 45.77 CB 31.85 CG1 32.03 CG2 31.41
A SER H 39 -60.2 -46.4 N 49.77 CA 54.28 C 50.76 O 42.27 CB 49.0 OG 45.99
A GLN H 108 -59.8 -45.7 N 40.07 CA 41.37 C 42.25 O 42.9 CB 40.7 CG 41.94 CD 50.93 OE1 56.1 NE2 48.38
A LEU H 4 -59.3 -44.8 N 38.64 CA 49.84 C 55.23 O 61.87 CB 48.19 CG 44.56 CD1 40.18 CD2 35.31
A THR H 14 -60.1 -38.6 N 54.1 CA 56.04 C 54.71 O 53.47 CB 59.7 OG1 64.72 CG2 55.23
A GLN H 155 -75.1 -33.8 N 55.7 CA 61.46 C 63.1 O 64.37 CB 71.07 CG 81.31 CD 94.91 OE1 95.07 NE2 107.35
A LYS H 127 -66.7 -57.7 N 58.43 CA 59.59 C 59.15 O 69.02 CB 56.53 CG 59.21 CD 64.14 CE 69.17 NZ 71.9
A ALA - 10 44.1 -126.3 N 61.32 CA 70.81 C 82.12 O 90.91 CB 78.28
A GLY - 27 155.6 173.9 N 79.42 CA 78.4 C 76.03 O 72.87
A GLU T 195 -78.5 135.7 N 82.67 CA 90.47 C 90.05 O 90.57 CB 96.21 CG 102.28 CD 108.11 OE1 111.01 OE2 109.07
A GLY T 82 78.9 -10.4 N 86.68 CA 81.95 C 72.05 O 71.37
A GLU - 44 -93.6 4.8 N 68.81 CA 63.5 C 62.0 O 63.24 CB 56.39 CG 57.04 CD 55.64 OE1 48.12 OE2 57.76
A GLN - 116 -78.0 121.7 N 63.92 CA 67.37 C 64.04 O 66.54 CB 70.29 CG 71.97 CD 70.9 OE1 70.99 NE2 68.74
A VAL - 51 -147.8 140.7 N 63.74 CA 56.92 C 51.33 O 43.68 CB 42.9 CG1 43.73 CG2 38.68
A GLU E 136 -129.1 132.2 N 50.44 CA 55.77 C 56.12 O 63.25 CB 65.48 CG 70.33 CD 81.52 OE1 81.07 OE2 88.48
A VAL E 10 -129.6 122.3 N 51.69 CA 48.99 C 53.64 O 55.86 CB 41.29 CG1 37.17 CG2 35.44
A ASP T 121 60.5 26.2 N 56.1 CA 63.75 C 58.99 O 59.86 CB 74.28 CG 83.88 OD1 91.94 OD2 83.98
A GLY T 49 88.8 11.6 N 53.58 CA 51.09 C 49.59 O 58.91
A TRP E 55 -117.5 146.8 N 42.4 CA 40.62 C 46.76 O 47.81 CB 40.64 CG 41.47 CD1 38.31 CD2 42.98 NE1 38.91 CE2 43.94 CE3 43.48 CZ2 44.46 CZ3 46.16 CH2 47.3
A ASP E 53 -90.4 112.2 N 51.52 CA 54.22 C 55.06 O 58.91 CB 52.68 CG 57.21 OD1 64.38 OD2 58.99
A CYS - 1 -97.7 5.1 N 54.39 CA 51.39 C 46.64 O 49.96 CB 49.35 SG 97.05
A SER - 0 -68.6 123.2 N 43.08 CA 44.98 C 43.61 O 43.73 CB 48.73 OG 42.2
A PHE - 3 -149.2 157.0 N 40.76 CA 42.55 C 48.06 O 51.97 CB 40.72 CG 37.48 CD1 46.51 CD2 31.66 CE1 51.02 CE2 35.95 CZ 39.46
A PRO - 2 -58.3 139.8 N 47.17 CA 45.9 C 53.17 O 54.61 CB 43.43 CG 40.93 CD 45.44
A ARG S 108 -80.2 -32.0 N 62.84 CA 62.53 C 57.59 O 57.64 CB 73.94 CG 84.08 CD 88.41 NE 88.03 CZ 80.37 NH1 75.84 NH2 76.65
A ASP - 66 -116.1 142.1 N 60.76 CA 70.47 C 69.44 O 71.81 CB 74.2 CG 83.33 OD1 90.53 OD2 85.16
A ALA G 23 -74.8 -7.9 N 71.34 CA 76.15 C 81.51 O 74.2 CB 68.07
A SER G 104 -63.8 -35.4 N 94.27 CA 109.06 C 115.88 O 124.15 CB 111.33 OG 114.59
A ARG G 199 -69.8 -23.9 N 109.52 CA 101.41 C 88.37 O 87.96 CB 102.37 CG 103.39 CD 107.95 NE 112.62 CZ 113.85 NH1 113.6 NH2 115.07
A LEU S 25 -94.3 139.9 N 75.64 CA 70.77 C 66.39 O 63.06 CB 65.5 CG 61.79 CD1 57.3 CD2 63.7
A GLU - 138 -72.9 146.3 N 72.41 CA 83.87 C 80.81 O 83.56 CB 96.85 CG 107.16 CD 117.47 OE1 115.14 OE2 128.3
A PRO - 115 -65.1 178.8 N 76.53 CA 72.47 C 69.23 O 72.77 CB 73.27 CG 78.0 CD 79.17
A SER - 34 -93.3 139.9 N 65.57 CA 57.77 C 52.66 O 53.64 CB 49.73 OG 46.57
A ILE - 149 -93.9 5.6 N 43.71 CA 58.14 C 55.53 O 53.8 CB 57.07 CG1 60.19 CG2 49.38 CD1 49.33
A ASN - 9 -75.1 119.6 N 57.52 CA 58.62 C 60.37 O 52.38 CB 55.67 CG 56.14 OD1 54.46 ND2 59.07
A VAL - 128 -99.7 -2.2 N 68.66 CA 71.59 C 66.61 O 67.17 CB 76.33 CG1 80.12 CG2 82.05
A GLU - 69 -57.5 134.5 N 58.54 CA 51.99 C 46.12 O 43.25 CB 59.26 CG 68.75 CD 83.74 OE1 94.3 OE2 83.52
A PRO - 70 -75.2 163.8 N 49.57 CA 48.73 C 42.61 O 39.74 CB 47.81 CG 45.95 CD 44.44
A LEU H 21 -56.8 -45.6 N 41.33 CA 37.38 C 41.0 O 39.72 CB 37.52 CG 36.56 CD1 35.7 CD2 33.14
A SER H 32 -60.6 -44.1 N 38.81 CA 40.98 C 37.49 O 40.96 CB 49.16 OG 56.73
A SER H 39 -56.8 -53.4 N 37.27 CA 49.97 C 44.73 O 40.8 CB 59.12 OG 67.33
A LEU H 0 -60.4 -34.9 N 47.78 CA 44.82 C 42.25 O 36.02 CB 44.48 CG 44.3 CD1 44.07 CD2 40.3
A LEU H 0 -64.5 -52.9 N 47.65 CA 46.29 C 51.75 O 68.13 CB 44.81 CG 43.38 CD1 40.87 CD2 46.58
A ALA H 26 -55.4 -41.9 N 45.01 CA 34.01 C 33.38 O 33.34 CB 35.84
A GLN H 54 -63.5 -36.4 N 33.14 CA 48.62 C 44.98 O 54.15 CB 55.08 CG 61.64 CD 69.05 OE1 73.03 NE2 74.45
A PHE H 1 -60.8 -55.6 N 39.39 CA 30.59 C 30.13 O 30.09 CB 30.55 CG 28.73 CD1 29.53 CD2 27.81 CE1 29.23 CE2 26.78 CZ 28.52
A PHE H 0 -51.9 -54.2 N 30.27 CA 37.71 C 39.58 O 31.8 CB 31.99 CG 33.43 CD1 40.15 CD2 34.42 CE1 37.73 CE2 32.02 CZ 30.96
A SER H 63 -56.4 -55.6 N 41.58 CA 45.51 C 49.12 O 54.0 CB 43.8 OG 43.04
A ALA H 9 -57.2 -54.8 N 44.55 CA 45.5 C 47.97 O 54.41 CB 31.49
A VAL H 4 -69.4 -21.7 N 47.04 CA 42.37 C 39.35 O 36.63 CB 43.15 CG1 45.66 CG2 53.95
A SER H 14 -71.6 -28.4 N 41.84 CA 44.66 C 45.7 O 44.68 CB 50.53 OG 60.34
A SER H 89 -96.7 -3.9 N 49.13 CA 49.21 C 48.26 O 53.54 CB 55.92 OG 67.11
A TRP S 51 -74.6 151.1 N 47.22 CA 45.25 C 52.6 O 60.71 CB 42.87 CG 38.08 CD1 34.65 CD2 41.2 NE1 39.68 CE2 40.56 CE3 40.11 CZ2 41.51 CZ3 39.5 CH2 39.33
A ASP - 83 -93.5 108.0 N 53.24 CA 57.61 C 57.73 O 54.39 CB 60.5 CG 58.93 OD1 51.05 OD2 64.1
A LEU S 10 -81.5 -38.9 N 50.17 CA 46.16 C 48.53 O 50.15 CB 47.12 CG 41.22 CD1 31.75 CD2 31.86
A ARG T 84 -72.8 -32.0 N 49.2 CA 50.37 C 45.43 O 44.25 CB 56.06 CG 63.83 CD 71.3 NE 75.7 CZ 81.27 NH1 81.22 NH2 85.32
A GLY T 21 -86.4 -0.6 N 45.0 CA 42.26 C 45.61 O 47.84
A SER E 19 -129.3 131.7 N 50.3 CA 49.62 C 48.29 O 53.7 CB 47.2 OG 56.54
A LEU E 0 -97.6 111.5 N 41.17 CA 39.13 C 37.43 O 34.88 CB 36.33 CG 38.86 CD1 38.51 CD2 38.45
A LEU E 4 -80.6 117.3 N 38.43 CA 39.09 C 38.42 O 39.89 CB 34.26 CG 33.06 CD1 29.02 CD2 31.53
A SER E 0 -107.2 118.0 N 39.67 CA 39.25 C 44.86 O 49.62 CB 41.06 OG 37.5
A LEU T 0 -76.8 -23.9 N 44.95 CA 41.71 C 40.13 O 39.37 CB 36.07 CG 33.2 CD1 26.49 CD2 33.52
A ARG T 34 -67.1 -53.7 N 45.79 CA 50.49 C 53.4 O 44.74 CB 48.65 CG 52.46 CD 60.56 NE 60.31 CZ 59.99 NH1 67.21 NH2 50.03
A GLU T 98 -87.6 -9.5 N 58.7 CA 64.13 C 52.21 O 37.74 CB 76.85 CG 90.22 CD 107.74 OE1 116.64 OE2 114.53
A GLY T 13 58.5 46.3 N 42.14 CA 40.93 C 46.23 O 45.26
A GLN E 111 -157.5 158.8 N 51.01 CA 47.33 C 43.49 O 36.75 CB 51.92 CG 61.86 CD 66.41 OE1 67.74 NE2 70.41
A ALA E 42 -95.6 115.3 N 46.89 CA 46.09 C 52.33 O 45.1 CB 36.24
A LEU E 33 -92.1 119.8 N 56.44 CA 56.43 C 49.61 O 47.14 CB 55.05 CG 52.52 CD1 47.16 CD2 41.39
A PRO E 77 -61.1 128.1 N 53.72 CA 51.84 C 51.17 O 47.19 CB 47.55 CG 48.27 CD 55.25
A VAL - 22 -78.0 -35.7 N 52.73 CA 61.35 C 72.84 O 80.04 CB 62.7 CG1 66.94 CG2 54.0
A ALA S 87 -97.1 129.5 N 76.2 CA 80.85 C 86.4 O 93.17 CB 82.12
A GLY S 64 -100.9 148.4 N 97.72 CA 108.55 C 111.17 O 101.55
A GLY S 39 67.4 -9.6 N 125.11 CA 129.79 C 128.49 O 140.41
A LEU H 117 -67.2 -51.2 N 125.84 CA 111.83 C 102.23 O 96.37 CB 96.37 CG 98.99 CD1 95.33 CD2 99.17
A PRO H 4 -72.8 -18.6 N 106.25 CA 104.22 C 107.46 O 111.04 CB 105.45 CG 109.6 CD 110.69
A SER H 55 -81.8 -20.7 N 107.02 CA 104.55 C 106.39 O 107.85 CB 102.24 OG 96.36
A ASN H 139 -73.4 -64.7 N 108.01 CA 114.08 C 110.19 O 124.99 CB 121.29 CG 126.15 OD1 124.86 ND2 130.24
A LEU S 83 -69.7 160.3 N 102.31 CA 95.27 C 89.74 O 93.66 CB 82.72 CG 65.24 CD1 58.83 CD2 61.42
A TRP S 64 57.1 54.2 N 85.79 CA 80.59 C 78.07 O 70.25 CB 68.01 CG 43.36 CD1 49.28 CD2 42.66 NE1 56.43 CE2 53.76 CE3 41.81 CZ2 52.19 CZ3 45.91 CH2 48.54
A GLU T 176 -55.7 142.6 N 82.34 CA 81.77 C 71.43 O 66.14 CB 88.7 CG 95.75 CD 105.34 OE1 112.22 OE2 105.45
A GLY T 59 104.9 -4.7 N 65.79 CA 58.09 C 55.48 O 48.21
A LEU - 22 -77.6 121.5 N 59.13 CA 58.37 C 59.28 O 69.32 CB 55.15 CG 49.0 CD1 43.43 CD2 51.66
A ARG - 177 -90.7 130.9 N 54.56 CA 54.22 C 50.65 O 49.01 CB 59.54 CG 69.36 CD 80.13 NE 91.28 CZ 95.21 NH1 93.16 NH2 96.4
A LEU - 60 -113.4 149.7 N 50.12 CA 46.07 C 50.87 O 55.54 CB 51.14 CG 46.19 CD1 43.47 CD2 40.47
A GLY S 12 -175.3 -157.8 N 51.31 CA 49.75 C 51.82 O 58.89
A PRO S 19 -48.6 -41.3 N 47.5 CA 52.45 C 49.61 O 57.22 CB 47.01 CG 49.33 CD 47.69
A LEU S 2 -135.7 123.5 N 33.42 CA 35.83 C 39.95 O 36.13 CB 30.42 CG 35.95 CD1 29.03 CD2 36.2
A ASN E 1 -118.4 111.0 N 46.46 CA 43.78 C 40.41 O 40.65 CB 44.17 CG 44.22 OD1 48.84 ND2 44.36
A LEU E 0 -131.8 115.6 N 32.22 CA 31.81 C 36.4 O 42.35 CB 26.9 CG 32.19 CD1 33.74 CD2 30.49
A GLN E 0 -87.9 133.1 N 34.1 CA 34.22 C 30.27 O 28.24 CB 39.1 CG 40.92 CD 46.43 OE1 54.18 NE2 42.93
A ASP - 4 -60.1 144.0 N 28.2 CA 27.45 C 28.29 O 29.75 CB 34.58 CG 40.77 OD1 49.1 OD2 34.33
A PRO S 0 -60.0 -23.0 N 31.55 CA 32.55 C 36.31 O 36.32 CB 27.73 CG 26.37 CD 30.96
A PHE S 1 -122.9 -60.2 N 30.52 CA 32.55 C 40.39 O 49.04 CB 34.64 CG 42.87 CD1 49.1 CD2 42.99 CE1 48.26 CE2 45.72 CZ 44.98
A ASP - 15 -74.3 117.2 N 38.08 CA 37.9 C 37.95 O 31.49 CB 36.39 CG 37.49 OD1 42.27 OD2 39.02
A LEU T 14 -96.0 -4.3 N 36.53 CA 36.72 C 42.33 O 36.79 CB 37.26 CG 39.29 CD1 39.04 CD2 34.69
A SER T 24 -91.5 3.6 N 40.26 CA 37.75 C 35.52 O 38.01 CB 39.02 OG 37.73
A HIS - 26 -108.1 111.8 N 33.52 CA 35.57 C 36.8 O 30.14 CB 30.5 CG 34.87 ND1 34.45 CD2 39.84 CE1 32.04 NE2 39.04
A ASN B 6 -91.4 110.3 N 37.5 CA 34.32 C 36.46 O 32.49 CB 32.55 CG 39.64 OD1 38.95 ND2 34.63
A VAL T 10 -73.5 -16.2 N 40.29 CA 38.16 C 42.02 O 42.94 CB 39.51 CG1 39.17 CG2 32.74
A ALA T 0 -99.1 5.4 N 40.28 CA 43.34 C 38.53 O 43.47 CB 38.99
A ALA T 40 -58.3 -20.1 N 31.65 CA 42.58 C 35.55 O 34.31 CB 43.5
A ASN T 71 -78.8 -16.1 N 35.18 CA 33.01 C 40.34 O 42.61 CB 38.48 CG 44.8 OD1 50.56 ND2 39.89
A VAL - 3 -75.2 120.6 N 38.73 CA 40.43 C 33.9 O 49.86 CB 39.71 CG1 46.38 CG2 29.02
A THR - 62 -77.1 161.3 N 46.81 CA 49.43 C 51.34 O 47.7 CB 45.02 OG1 50.44 CG2 38.88
A SER H 34 -54.9 -36.3 N 51.64 CA 53.45 C 55.23 O 60.52 CB 58.66 OG 62.97
A ARG H 136 -60.4 -45.6 N 55.74 CA 56.08 C 45.82 O 40.89 CB 60.28 CG 69.19 CD 73.69 NE 76.18 CZ 82.24 NH1 84.55 NH2 86.02
A VAL H 5 -69.1 -37.1 N 40.53 CA 43.38 C 45.53 O 47.3 CB 38.67 CG1 31.4 CG2 34.3
A ALA H 6 -65.5 -48.5 N 41.44 CA 40.8 C 41.02 O 43.97 CB 39.2
A GLY H 15 -59.0 -45.4 N 36.15 CA 40.57 C 44.29 O 36.61
A ARG H 47 -61.5 -37.0 N 48.18 CA 50.63 C 43.29 O 35.21 CB 51.08 CG 51.82 CD 52.02 NE 55.93 CZ 59.75 NH1 56.72 NH2 65.82
A LEU H 6 -59.4 -54.5 N 44.62 CA 42.83 C 43.97 O 44.36 CB 36.3 CG 35.42 CD1 29.04 CD2 35.98
A GLN H 35 -65.5 -33.5 N 44.72 CA 46.37 C 52.0 O 54.94 CB 39.43 CG 38.97 CD 42.95 OE1 47.27 NE2 34.23
A ASN H 22 -66.4 -48.8 N 48.54 CA 44.94 C 43.55 O 45.89 CB 44.17 CG 41.71 OD1 46.54 ND2 44.61
A CYS H 10 -60.3 -36.4 N 39.45 CA 42.82 C 40.91 O 35.59 CB 40.08 SG 41.96
A CYS H 0 -69.7 -35.5 N 45.63 CA 42.59 C 53.49 O 55.3 CB 31.38 SG 56.24
A ARG H 104 -66.5 -42.9 N 50.36 CA 54.09 C 48.92 O 46.65 CB 58.89 CG 68.48 CD 73.35 NE 71.38 CZ 67.02 NH1 70.19 NH2 63.27
A ALA H 60 -63.4 -44.9 N 44.9 CA 39.89 C 40.51 O 40.71 CB 39.83
A ALA H 4 -68.9 -27.0 N 42.96 CA 40.42 C 41.78 O 42.28 CB 34.37
A ALA H 13 -73.7 -39.6 N 41.19 CA 42.59 C 45.95 O 45.65 CB 36.32
A ASN H 89 -63.1 -39.5 N 49.11 CA 59.54 C 55.17 O 55.52 CB 75.79 CG 95.23 OD1 100.49 ND2 102.18
A TYR H 35 -67.3 -33.9 N 41.78 CA 42.6 C 46.85 O 43.57 CB 46.76 CG 47.43 CD1 44.92 CD2 47.44 CE1 45.83 CE2 48.48 CZ 45.63 OH 48.78
A ALA H 4 -69.8 -14.9 N 44.24 CA 44.86 C 47.71 O 48.51 CB 47.38
A ARG T 182 -91.1 -8.6 N 53.37 CA 57.31 C 53.77 O 48.5 CB 70.17 CG 79.46 CD 93.44 NE 105.63 CZ 113.44 NH1 118.3 NH2 115.89
A SER S 34 -77.6 157.0 N 51.96 CA 49.24 C 54.26 O 53.77 CB 49.38 OG 48.63
A LEU H 100 -73.1 -24.1 N 56.58 CA 59.91 C 63.44 O 64.21 CB 64.3 CG 70.17 CD1 67.52 CD2 75.66
A GLN H 88 -65.4 -30.6 N 63.29 CA 53.39 C 61.03 O 59.07 CB 53.53 CG 56.51 CD 60.58 OE1 61.42 NE2 59.68
A TYR H 3 -74.5 -64.0 N 65.1 CA 66.09 C 76.62 O 77.49 CB 64.11 CG 60.89 CD1 55.63 CD2 58.83 CE1 50.78 CE2 55.62 CZ 51.81 OH 36.71
A GLN H 103 -58.1 -68.2 N 83.97 CA 89.74 C 90.25 O 93.14 CB 95.35 CG 100.0 CD 109.93 OE1 120.17 NE2 108.03
A ARG S 168 -73.4 155.5 N 87.36 CA 86.3 C 77.03 O 73.32 CB 86.48 CG 90.25 CD 100.27 NE 104.36 CZ 113.21 NH1 119.04 NH2 113.6
A ARG - 133 -75.5 178.2 N 78.87 CA 80.11 C 85.52 O 86.59 CB 78.78 CG 76.33 CD 78.35 NE 84.03 CZ 91.95 NH1 97.04 NH2 91.78
A SER - 7 -106.7 147.7 N 92.11 CA 104.84 C 125.54 O 123.28 CB 98.01 OG 97.3
A SER S 91 -56.4 -71.9 N 143.6 CA 147.72 C 146.39 O 148.86 CB 146.89 OG 147.33
A ARG S 223 -138.5 118.1 N 142.88 CA 137.98 C 134.7 O 133.59 CB 140.26 CG 139.56 CD 141.61 NE 140.08 CZ 144.17 NH1 147.84 NH2 145.34
A GLY S 75 89.0 -23.1 N 131.3 CA 132.05 C 129.84 O 128.83
A ARG - 132 -72.6 153.9 N 128.89 CA 125.43 C 108.55 O 105.98 CB 133.72 CG 144.34 CD 149.27 NE 155.38 CZ 154.38 NH1 151.03 NH2 156.51
A ASP - 66 -78.5 124.8 N 100.0 CA 87.73 C 76.61 O 67.93 CB 82.32 CG 81.49 OD1 83.72 OD2 79.58
A TRP - 3 -142.3 163.9 N 70.69 CA 63.74 C 56.94 O 47.87 CB 54.12 CG 64.99 CD1 55.97 CD2 63.61 NE1 55.52 CE2 66.69 CE3 57.22 CZ2 62.17 CZ3 49.59 CH2 50.51
A GLY T 0 61.3 -122.4 N 55.62 CA 50.0 C 47.53 O 51.44
A LEU H 0 -65.3 -22.9 N 48.67 CA 47.22 C 48.9 O 43.05 CB 49.21 CG 43.15 CD1 44.68 CD2 44.4
A LEU H 8 -60.8 -49.3 N 48.21 CA 50.93 C 49.8 O 49.37 CB 62.04 CG 66.57 CD1 67.64 CD2 69.79
A PRO H 28 -65.3 -26.2 N 48.96 CA 50.5 C 47.63 O 51.94 CB 51.69 CG 53.74 CD 51.21
A LEU H 3 -70.4 -34.8 N 42.67 CA 41.53 C 39.76 O 38.83 CB 41.37 CG 46.8 CD1 46.66 CD2 44.06
A LEU H 39 -92.8 -4.8 N 37.81 CA 43.89 C 55.82 O 60.28 CB 41.54 CG 39.72 CD1 36.25 CD2 33.7
A GLN S 75 -83.0 154.9 N 61.51 CA 69.72 C 75.66 O 70.74 CB 70.14 CG 67.95 CD 72.55 OE1 71.68 NE2 77.6
A PRO - 115 -62.9 157.1 N 92.5 CA 100.63 C 106.44 O 99.95 CB 101.8 CG 102.99 CD 101.79
A SER - 34 -79.9 136.8 N 118.12 CA 118.11 C 120.56 O 128.2 CB 114.84 OG 113.27
A SER - 55 -60.4 144.1 N 133.4 CA 118.16 C 111.09 O 107.08 CB 106.05 OG 98.02
A PRO H 102 -55.1 -44.4 N 110.14 CA 105.19 C 98.19 O 93.63 CB 107.58 CG 112.94 CD 115.06
A SER H 31 -66.4 -38.3 N 97.75 CA 95.45 C 97.04 O 93.87 CB 96.32 OG 97.38
A SER H 65 -71.4 -43.2 N 102.41 CA 102.45 C 97.01 O 96.47 CB 107.13 OG 114.37
A LEU H 68 -63.5 -36.2 N 93.34 CA 87.69 C 78.36 O 70.85 CB 95.7 CG 101.11 CD1 103.45 CD2 102.16
A LEU H 21 -75.4 -41.5 N 77.1 CA 71.69 C 71.61 O 69.96 CB 76.49 CG 76.1 CD1 76.81 CD2 75.38
A SER H 11 -79.6 -20.2 N 72.61 CA 72.38 C 69.16 O 74.65 CB 78.58 OG 87.11
A ALA H 13 -69.4 -44.4 N 64.95 CA 64.37 C 58.45 O 53.5 CB 65.53
A THR S 17 -78.0 119.6 N 54.95 CA 53.74 C 53.23 O 53.55 CB 51.41 OG1 47.11 CG2 55.25
A PRO - 6 -76.0 177.4 N 47.09 CA 42.32 C 42.2 O 40.49 CB 44.6 CG 44.65 CD 50.73
A ILE E 5 -111.3 118.8 N 40.16 CA 39.75 C 40.0 O 38.9 CB 42.04 CG1 39.3 CG2 40.02 CD1 40.66
A PRO E 52 -62.9 129.5 N 40.99 CA 41.54 C 45.5 O 51.22 CB 39.63 CG 41.26 CD 43.12
A LEU - 21 -117.3 150.4 N 47.87 CA 47.45 C 47.31 O 46.69 CB 45.76 CG 51.18 CD1 56.41 CD2 54.61
A PRO - 25 -52.2 143.9 N 49.58 CA 51.27 C 56.56 O 58.44 CB 50.69 CG 50.3 CD 48.4
A LEU - 120 -59.8 142.7 N 62.2 CA 71.64 C 69.23 O 69.38 CB 87.38 CG 97.76 CD1 105.88 CD2 101.39
A ALA - 8 -176.7 151.5 N 71.47 CA 74.08 C 81.1 O 80.46 CB 68.83
A PRO - 77 -55.3 143.1 N 90.1 CA 96.98 C 100.32 O 101.72 CB 99.91 CG 99.71 CD 95.08
A PHE H 62 -54.4 -45.7 N 97.44 CA 94.57 C 99.81 O 98.82 CB 90.74 CG 88.77 CD1 90.83 CD2 84.49 CE1 87.17 CE2 81.68 CZ 83.67
A THR H 104 -61.4 -54.6 N 105.22 CA 110.61 C 111.74 O 116.52 CB 114.34 OG1 113.6 CG2 115.85
A GLN H 75 -61.5 -37.6 N 108.16 CA 103.73 C 93.82 O 87.99 CB 108.23 CG 112.61 CD 117.01 OE1 120.62 NE2 116.22
A LEU H 1 -64.6 -45.2 N 87.97 CA 80.93 C 77.85 O 74.73 CB 78.98 CG 72.77 CD1 71.3 CD2 67.69
A THR H 24 -61.9 -46.2 N 79.32 CA 82.44 C 83.39 O 82.35 CB 85.47 OG1 90.44 CG2 84.59
A ALA H 46 -60.7 -39.5 N 83.39 CA 80.95 C 73.33 O 71.87 CB 80.57
A ALA H 10 -62.3 -47.8 N 66.92 CA 64.94 C 63.9 O 61.42 CB 64.3
A LEU H 0 -61.1 -45.5 N 65.51 CA 66.29 C 74.04 O 78.33 CB 67.96 CG 63.5 CD1 58.86 CD2 62.7
A VAL H 31 -66.0 -29.0 N 76.1 CA 82.28 C 82.73 O 85.15 CB 81.56 CG1 79.4 CG2 82.38
A GLN H 84 -66.3 -45.9 N 86.06 CA 92.24 C 81.7 O 78.64 CB 109.45 CG 120.64 CD 127.85 OE1 127.41 NE2 134.33
A VAL H 0 -63.5 -32.0 N 74.71 CA 68.95 C 74.54 O 76.54 CB 60.37 CG1 53.5 CG2 56.91
A PHE H 1 -78.9 -46.8 N 75.3 CA 73.97 C 79.83 O 79.81 CB 68.34 CG 61.47 CD1 58.49 CD2 58.97 CE1 54.39 CE2 56.61 CZ 55.02
A ARG H 149 -60.8 -54.5 N 87.4 CA 93.54 C 92.43 O 93.42 CB 94.75 CG 100.27 CD 102.28 NE 103.14 CZ 104.12 NH1 108.88 NH2 99.98
A GLU S 83 -117.5 159.9 N 92.97 CA 97.02 C 97.41 O 98.65 CB 105.34 CG 108.5 CD 117.33 OE1 118.11 OE2 121.66
A ALA S 1 77.7 -14.8 N 94.63 CA 88.9 C 83.06 O 82.82 CB 85.62
A LEU S 6 -141.3 148.5 N 83.1 CA 81.75 C 91.93 O 96.73 CB 70.98 CG 64.86 CD1 62.45 CD2 62.71
A GLY - 30 -76.4 10.9 N 97.11 CA 106.8 C 109.98 O 116.71
A CYS - 5 -63.0 128.9 N 107.32 CA 105.14 C 107.21 O 103.45 CB 100.4 SG 112.54
A HIS E 100 -89.8 118.4 N 113.78 CA 119.7 C 121.24 O 125.35 CB 124.31 CG 126.53 ND1 128.11 CD2 127.97 CE1 130.6 NE2 130.45
A ILE E 12 -116.5 156.3 N 118.77 CA 115.05 C 118.82 O 122.35 CB 110.2 CG1 111.24 CG2 107.96 CD1 107.96
A GLU E 76 -152.7 158.5 N 116.39 CA 120.35 C 119.3 O 117.02 CB 122.11 CG 118.81 CD 121.7 OE1 121.51 OE2 123.35
A GLN - 173 -70.1 360.0 N 124.38 CA 123.61 C 122.49 O 118.12 CB 130.17 CG 128.96 CD 126.69 OE1 126.19 NE2 123.85
A SER - 116 360.0 178.4 N 97.71 CA 96.04 C 98.44 O 107.44 CB 93.02 OG 95.95
A ALA E 19 -124.4 147.3 N 91.38 CA 83.5 C 84.55 O 86.79 CB 75.8
A SER E 57 -149.0 148.1 N 81.61 CA 74.58 C 75.17 O 73.43 CB 71.43 OG 72.38
A TRP E 9 -137.7 144.7 N 78.31 CA 90.21 C 92.85 O 94.02 CB 100.19 CG 108.3 CD1 114.93 CD2 109.31 NE1 117.47 CE2 114.73 CE3 108.21 CZ2 112.2 CZ3 108.25 CH2 109.57
A ARG E 113 -101.4 128.6 N 93.53 CA 91.97 C 89.64 O 95.23 CB 96.95 CG 100.83 CD 107.62 NE 114.36 CZ 117.27 NH1 116.45 NH2 121.29
A CYS E 2 -122.8 143.8 N 84.88 CA 83.63 C 85.35 O 84.35 CB 78.53 SG 110.14
A ALA E 12 -131.2 132.8 N 92.02 CA 100.42 C 104.38 O 78.36 CB 83.04
A LEU E 2 -126.6 133.5 N 101.33 CA 97.99 C 100.82 O 101.9 CB 87.44 CG 80.86 CD1 78.48 CD2 81.38
A TRP - 83 -99.5 2.3 N 105.91 CA 112.45 C 113.84 O 116.4 CB 112.79 CG 113.39 CD1 120.33 CD2 111.95 NE1 122.72 CE2 116.74 CE3 107.47 CZ2 116.3 CZ3 108.1 CH2 112.64
A HIS S 68 -135.4 172.4 N 113.88 CA 118.49 C 117.28 O 119.94 CB 119.66 CG 126.59 ND1 128.28 CD2 131.26 CE1 132.96 NE2 134.97
A ARG - 134 -85.4 15.7 N 116.01 CA 110.84 C 106.36 O 105.53 CB 111.44 CG 110.58 CD 105.55 NE 108.59 CZ 108.49 NH1 106.06 NH2 111.42
A VAL T 1 -42.7 -31.8 N 103.37 CA 100.28 C 96.88 O 93.1 CB 80.77 CG1 78.69 CG2 85.88
A TRP T 14 -64.9 -16.7 N 93.87 CA 90.84 C 95.67 O 93.89 CB 82.64 CG 80.3 CD1 80.09 CD2 85.63 NE1 87.06 CE2 90.79 CE3 87.23 CZ2 99.13 CZ3 93.88 CH2 101.77
A GLN S 124 -136.2 148.9 N 106.43 CA 114.02 C 113.22 O 112.9 CB 126.75 CG 132.54 CD 129.21 OE1 131.03 NE2 122.96
A GLY S 27 101.8 4.1 N 113.45 CA 112.92 C 110.77 O 114.57
A ARG H 16 -69.9 -30.9 N 104.85 CA 103.56 C 106.31 O 105.76 CB 92.6 CG 85.07 CD 78.42 NE 76.86 CZ 72.18 NH1 68.13 NH2 74.7
A ARG H 172 -64.3 -53.5 N 114.12 CA 132.09 C 140.37 O 145.59 CB 145.22 CG 151.71 CD 164.54 NE 176.72 CZ 179.66 NH1 177.93 NH2 182.19
A ARG H 216 -59.9 -38.1 N 139.05 CA 140.81 C 135.12 O 139.7 CB 145.6 CG 148.07 CD 151.67 NE 153.51 CZ 155.98 NH1 156.86 NH2 158.58
A ALA H 6 -67.3 -45.7 N 125.17 CA 114.41 C 107.63 O 110.29 CB 102.27
A ARG H 87 -67.6 -37.5 N 102.73 CA 105.61 C 113.48 O 115.47 CB 102.17 CG 102.68 CD 103.77 NE 104.2 CZ 98.14 NH1 95.32 NH2 96.04
A ARG H 150 -58.5 -48.6 N 121.12 CA 128.04 C 142.37 O 149.9 CB 122.09 CG 116.45 CD 118.53 NE 118.2 CZ 114.15 NH1 111.34 NH2 111.83
A ARG H 105 -63.6 -38.6 N 150.41 CA 163.47 C 167.52 O 174.45 CB 167.87 CG 180.02 CD 183.62 NE 179.4 CZ 180.89 NH1 185.76 NH2 177.59
A LEU H 22 -70.2 -41.4 N 156.28 CA 147.3 C 145.02 O 146.5 CB 135.29 CG 131.35 CD1 132.61 CD2 125.83
A GLN H 96 -68.7 -25.1 N 144.16 CA 148.77 C 155.87 O 161.33 CB 144.83 CG 138.36 CD 136.27 OE1 142.17 NE2 129.82
A GLN H 111 -73.4 -37.4 N 156.48 CA 163.05 C 162.81 O 170.37 CB 160.53 CG 160.53 CD 157.17 OE1 161.81 NE2 151.03
A GLN H 80 -67.7 -26.6 N 157.26 CA 153.49 C 153.07 O 139.87 CB 142.11 CG 137.1 CD 132.07 OE1 127.89 NE2 127.93
A THR H 94 -77.6 -27.7 N 146.41 CA 147.7 C 155.96 O 161.44 CB 139.81 OG1 133.62 CG2 142.08
A LYS H 147 -70.9 -51.7 N 158.89 CA 164.9 C 171.54 O 177.72 CB 165.88 CG 162.9 CD 163.44 CE 155.66 NZ 152.65
A GLU H 158 -78.2 -18.2 N 176.02 CA 183.95 C 182.01 O 166.21 CB 160.14 CG 157.69 CD 159.27 OE1 153.84 OE2 165.26
A GLY - 86 -106.2 360.0 N 171.48 CA 171.83 C 168.31 O 160.54
A GLY - 92 360.0 116.3 N 181.12 CA 182.25 C 177.29 O 181.75
A TRP - 20 -156.0 -165.7 N 168.78 CA 149.44 C 138.17 O 138.39 CB 139.87 CG 132.47 CD1 132.28 CD2 128.86 NE1 131.83 CE2 128.65 CE3 127.23 CZ2 128.41 CZ3 127.08 CH2 128.39
A LEU T 18 59.1 -110.8 N 128.6 CA 125.85 C 132.37 O 136.02 CB 118.59 CG 107.9 CD1 107.19 CD2 104.26
A ALA H 55 -45.2 -38.5 N 137.18 CA 140.68 C 136.69 O 145.76 CB 142.9
A THR H 59 -58.1 -52.9 N 124.99 CA 109.91 C 93.78 O 82.02 CB 81.51 OG1 92.62 CG2 79.89
A GLU H 20 -57.4 -31.0 N 86.66 CA 87.11 C 90.04 O 94.55 CB 82.06 CG 80.36 CD 79.84 OE1 77.71 OE2 78.97
A ALA H 13 -61.7 -33.6 N 90.46 CA 92.21 C 95.97 O 94.61 CB 90.66
A GLN H 123 -54.8 -50.3 N 100.79 CA 109.91 C 114.01 O 120.87 CB 114.72 CG 117.27 CD 123.13 OE1 125.4 NE2 127.39
A VAL H 7 -55.6 -34.1 N 109.97 CA 112.48 C 115.09 O 120.83 CB 108.94 CG1 108.08 CG2 110.93
A THR H 4 -69.6 -48.9 N 108.93 CA 105.39 C 101.46 O 97.51 CB 94.43 OG1 73.16 CG2 93.87
A GLN H 148 -62.4 -28.6 N 108.0 CA 115.2 C 119.13 O 126.19 CB 121.35 CG 122.77 CD 131.43 OE1 138.01 NE2 130.38
A GLU T 73 -90.9 7.2 N 117.66 CA 123.06 C 121.14 O 123.87 CB 125.69 CG 130.86 CD 138.77 OE1 141.43 OE2 144.71
A LEU T 43 -82.6 3.0 N 116.22 CA 114.39 C 119.68 O 115.92 CB 109.78 CG 107.54 CD1 102.01 CD2 110.51
A LYS - 125 -132.5 360.0 N 126.88 CA 130.49 C 131.76 O 130.72 CB 132.39 CG 127.96 CD 118.93 CE 113.11 NZ 108.42
A THR - 150 360.0 84.0 N 146.24 CA 138.6 C 135.35 O 134.88 CB 135.66 OG1 135.62 CG2 141.42
A GLU - 162 -92.4 120.1 N 134.19 CA 130.0 C 125.51 O 124.39 CB 127.46 CG 132.3 CD 136.27 OE1 135.03 OE2 139.96
A PRO - 36 -54.5 130.3 N 124.72 CA 119.94 C 116.32 O 121.37 CB 115.84 CG 120.97 CD 125.56
A LEU S 33 -65.8 -47.8 N 114.43 CA 113.9 C 106.99 O 112.51 CB 109.64 CG 90.81 CD1 91.08 CD2 89.08
A LEU E 0 -143.1 131.2 N 100.08 CA 94.92 C 91.42 O 89.57 CB 89.0 CG 80.75 CD1 82.19 CD2 74.74
A SER E 1 -129.1 132.4 N 89.42 CA 84.5 C 83.03 O 83.38 CB 83.71 OG 84.4
A PHE E 0 -144.4 167.4 N 81.48 CA 63.79 C 67.17 O 64.11 CB 60.43 CG 61.51 CD1 57.47 CD2 62.06 CE1 57.01 CE2 60.43 CZ 61.08
A VAL E 32 -111.9 145.6 N 68.02 CA 68.08 C 66.98 O 70.02 CB 69.25 CG1 68.21 CG2 74.26
A ALA E 0 -123.5 125.5 N 64.84 CA 63.44 C 66.3 O 73.97 CB 64.86
A SER E 36 -123.0 141.7 N 64.75 CA 61.83 C 59.72 O 56.19 CB 57.81 OG 62.42
A VAL E 1 -126.6 121.8 N 63.65 CA 65.99 C 70.3 O 67.1 CB 66.74 CG1 63.79 CG2 64.08
A SER - 48 -87.6 144.0 N 80.55 CA 89.94 C 93.16 O 90.45 CB 94.76 OG 98.44
A PRO S 75 -57.0 -47.3 N 103.59 CA 107.94 C 107.62 O 105.7 CB 114.13 CG 113.58 CD 109.2
A ALA S 51 -144.5 130.3 N 113.24 CA 117.7 C 122.95 O 130.27 CB 119.42
A ASP S 56 -82.5 156.7 N 124.85 CA 121.97 C 107.04 O 102.14 CB 130.15 CG 132.48 OD1 135.51 OD2 130.62
A ARG - 51 -72.0 117.6 N 101.54 CA 90.68 C 78.44 O 77.94 CB 92.07 CG 97.59 CD 98.47 NE 98.31 CZ 97.99 NH1 96.89 NH2 97.27
A MET E 11 -150.5 147.2 N 68.62 CA 60.08 C 58.59 O 58.65 CB 53.79 CG 54.16 SD 73.61 CE 56.72
A LEU E 0 -99.9 127.0 N 56.31 CA 55.72 C 51.25 O 40.37 CB 52.06 CG 51.61 CD1 45.1 CD2 56.53
A THR E 21 -107.3 110.2 N 54.59 CA 54.74 C 55.69 O 58.96 CB 58.16 OG1 57.21 CG2 58.31
A VAL E 1 -104.5 119.5 N 56.1 CA 59.35 C 63.0 O 60.38 CB 56.97 CG1 61.64 CG2 54.78
A THR E 46 -125.4 143.8 N 66.32 CA 73.69 C 77.07 O 77.25 CB 72.94 OG1 75.05 CG2 67.76
A PRO E 44 -76.0 145.6 N 85.51 CA 87.02 C 88.58 O 90.18 CB 91.82 CG 92.95 CD 90.68
A LEU E 92 -116.8 -71.7 N 89.07 CA 92.15 C 94.48 O 99.06 CB 87.98 CG 80.68 CD1 75.78 CD2 79.65
A GLN E 108 -110.3 111.5 N 96.93 CA 104.36 C 102.36 O 101.24 CB 111.34 CG 116.82 CD 122.98 OE1 123.07 NE2 128.66
A ASP - 42 -136.4 82.1 N 103.89 CA 101.6 C 102.69 O 101.96 CB 98.11 CG 101.12 OD1 103.33 OD2 103.05
A PRO S 101 -63.2 -42.8 N 102.91 CA 107.82 C 113.77 O 114.84 CB 107.06 CG 105.46 CD 102.7
A GLN S 125 -98.3 0.0 N 117.7 CA 117.61 C 111.13 O 108.2 CB 117.28 CG 124.29 CD 124.28 OE1 121.88 NE2 127.12
A GLY S 44 69.6 28.2 N 108.9 CA 110.3 C 107.48 O 103.64
A LEU - 10 -92.6 6.1 N 110.97 CA 107.0 C 97.51 O 92.37 CB 107.18 CG 111.2 CD1 109.43 CD2 114.34
A PHE H 0 -53.2 -48.7 N 94.17 CA 87.64 C 83.41 O 77.52 CB 82.96 CG 74.78 CD1 72.59 CD2 69.1 CE1 69.36 CE2 65.69 CZ 65.84
A PRO H 32 -57.7 -36.9 N 86.29 CA 85.06 C 84.59 O 83.21 CB 84.81 CG 90.67 CD 88.39
A ASP H 91 -59.2 -47.2 N 86.03 CA 87.87 C 87.62 O 93.21 CB 89.86 CG 94.17 OD1 93.37 OD2 98.29
A LEU H 3 -59.7 -35.9 N 80.99 CA 72.36 C 67.69 O 65.14 CB 70.5 CG 65.31 CD1 67.55 CD2 65.49
A HIS H 1 -70.9 -44.3 N 65.29 CA 58.74 C 57.2 O 57.12 CB 56.11 CG 54.78 ND1 48.97 CD2 55.77 CE1 49.14 NE2 51.54
A HIS H 96 -61.4 -43.9 N 55.44 CA 58.21 C 53.07 O 54.72 CB 62.53 CG 68.31 ND1 75.81 CD2 67.03 CE1 74.66 NE2 71.79
A PHE H 34 -56.7 -46.5 N 51.38 CA 54.44 C 52.65 O 55.84 CB 59.76 CG 57.9 CD1 55.8 CD2 56.46 CE1 57.13 CE2 58.07 CZ 58.15
A LEU H 0 -65.6 -34.1 N 51.74 CA 47.72 C 50.36 O 53.09 CB 46.14 CG 48.65 CD1 48.93 CD2 49.66
A GLN H 77 -58.6 -40.7 N 50.52 CA 50.82 C 52.98 O 57.25 CB 53.0 CG 58.04 CD 62.01 OE1 59.42 NE2 64.74
A VAL H 106 -80.1 -42.2 N 55.81 CA 57.46 C 58.26 O 57.71 CB 56.64 CG1 55.69 CG2 56.04
A PHE H 6 -80.1 -42.4 N 53.61 CA 52.23 C 49.78 O 52.08 CB 60.09 CG 68.3 CD1 73.46 CD2 71.19 CE1 78.67 CE2 75.82 CZ 77.82
A LEU H 0 -66.6 -44.7 N 51.82 CA 49.99 C 48.33 O 50.85 CB 43.75 CG 48.01 CD1 50.5 CD2 47.19
A PRO H 16 -61.3 -31.3 N 51.83 CA 54.03 C 49.55 O 45.68 CB 56.2 CG 53.11 CD 50.75
A GLN H 63 -63.7 -49.1 N 52.5 CA 57.22 C 63.28 O 69.19 CB 65.35 CG 75.87 CD 87.48 OE1 86.34 NE2 97.69
A ALA H 0 -61.6 -50.6 N 59.44 CA 57.65 C 56.8 O 53.27 CB 57.22
A ILE H 3 -55.4 -46.8 N 53.86 CA 55.3 C 57.5 O 64.0 CB 51.91 CG1 52.32 CG2 46.68 CD1 56.68
A ARG H 129 -56.2 -47.1 N 55.39 CA 57.78 C 60.78 O 65.86 CB 58.33 CG 61.59 CD 63.69 NE 60.91 CZ 58.87 NH1 61.15 NH2 52.13
A HIS H 71 -71.3 -24.7 N 60.08 CA 65.05 C 65.58 O 69.93 CB 69.25 CG 73.93 ND1 76.53 CD2 78.77 CE1 79.42 NE2 81.23
A LEU H 14 -76.2 -18.2 N 68.77 CA 77.51 C 83.35 O 93.74 CB 77.6 CG 78.94 CD1 80.42 CD2 82.35
A LYS H 87 -75.2 -33.8 N 75.92 CA 73.26 C 75.5 O 73.8 CB 69.12 CG 70.25 CD 70.28 CE 71.05 NZ 72.38
A LEU T 143 -92.8 3.4 N 76.38 CA 79.74 C 86.67 O 87.4 CB 74.92 CG 72.41 CD1 73.62 CD2 67.84
A GLU T 103 -89.3 -6.6 N 94.44 CA 103.04 C 108.78 O 112.87 CB 103.33 CG 107.14 CD 113.87 OE1 116.57 OE2 115.97
A HIS - 172 -92.2 360.0 N 108.16 CA 113.74 C 110.59 O 106.28 CB 117.12 CG 120.63 ND1 119.89 CD2 123.96 CE1 120.68 NE2 123.1
B ASP - 137 360.0 143.9 N 131.9 CA 129.19 C 130.35 O 134.37 CB 126.49 CG 126.33 OD1 129.0 OD2 123.84
B SER - 109 67.7 -10.8 N 126.91 CA 128.28 C 131.21 O 130.7 CB 127.06 OG 129.16
B HIS S 156 -118.4 -63.5 N 135.47 CA 142.63 C 141.48 O 146.56 CB 148.94 CG 156.98 ND1 158.2 CD2 161.64 CE1 161.94 NE2 164.43
B GLN H 122 -56.2 -35.6 N 130.74 CA 115.31 C 96.12 O 89.33 CB 117.99 CG 125.58 CD 128.84 OE1 127.09 NE2 132.41
B LEU H 46 -62.5 -44.3 N 82.52 CA 71.04 C 64.83 O 58.33 CB 64.15 CG 61.5 CD1 59.32 CD2 62.04
B ALA H 43 -58.3 -49.6 N 68.63 CA 72.93 C 79.1 O 80.14 CB 77.71
B LYS H 128 -73.5 -26.6 N 77.76 CA 83.04 C 72.61 O 76.2 CB 90.46 CG 95.1 CD 103.04 CE 104.26 NZ 107.53
B ALA H 18 -68.9 -37.8 N 66.68 CA 59.63 C 69.04 O 70.19 CB 57.04
B LEU H 2 -77.3 -32.5 N 64.01 CA 66.29 C 64.51 O 57.81 CB 69.08 CG 72.22 CD1 69.58 CD2 73.46
B ALA H 28 -68.9 -36.1 N 69.19 CA 63.5 C 89.0 O 89.34 CB 65.97
B GLU H 136 -71.0 -26.5 N 86.38 CA 95.36 C 93.9 O 101.4 CB 97.58 CG 105.18 CD 109.0 OE1 102.68 OE2 116.04
B ALA S 25 -101.7 107.1 N 92.01 CA 89.21 C 90.52 O 88.22 CB 86.61
B ALA S 57 45.0 -121.3 N 91.21 CA 86.26 C 89.55 O 96.77 CB 79.89
B ASP S 92 -106.0 -175.0 N 84.52 CA 83.04 C 79.71 O 79.46 CB 87.9 CG 89.77 OD1 91.29 OD2 91.03
B VAL H 2 -59.0 -42.5 N 74.3 CA 67.1 C 65.83 O 66.87 CB 56.13 CG1 55.46 CG2 60.23
B GLY H 12 -58.8 -42.0 N 59.52 CA 59.31 C 58.29 O 61.54
B ALA H 28 -63.5 -33.4 N 57.05 CA 57.9 C 57.63 O 62.13 CB 58.76
B GLN H 0 -68.1 -41.9 N 54.87 CA 52.9 C 49.11 O 44.57 CB 49.05 CG 57.96 CD 61.65 OE1 51.51 NE2 68.63
B MET H 0 -66.0 -49.0 N 47.77 CA 48.75 C 51.99 O 53.65 CB 49.75 CG 51.95 SD 46.06 CE 94.86
B ILE H 99 -58.7 -47.2 N 52.55 CA 53.49 C 51.61 O 47.54 CB 55.16 CG1 58.8 CG2 52.39 CD1 61.95
B LYS H 102 -59.4 -38.5 N 53.43 CA 58.09 C 54.62 O 50.96 CB 66.88 CG 74.16 CD 82.26 CE 84.97 NZ 87.89
B LEU H 1 -61.7 -42.8 N 51.62 CA 48.42 C 53.63 O 53.53 CB 48.13 CG 48.91 CD1 50.46 CD2 49.95
B VAL H 12 -58.0 -46.3 N 51.32 CA 47.97 C 51.35 O 51.23 CB 44.87 CG1 38.03 CG2 40.63
B GLY H 42 -59.5 -39.0 N 54.53 CA 41.78 C 49.3 O 43.84
B LEU H 72 -81.1 -35.5 N 50.51 CA 47.2 C 46.19 O 50.26 CB 50.73 CG 53.98 CD1 62.25 CD2 49.05
B ARG H 46 -82.0 -29.4 N 38.37 CA 41.12 C 40.14 O 38.93 CB 35.1 CG 46.4 CD 51.1 NE 51.59 CZ 53.83 NH1 48.89 NH2 56.81
B GLU S 66 -67.5 154.8 N 44.63 CA 44.98 C 43.47 O 53.84 CB 48.8 CG 57.45 CD 64.25 OE1 65.14 OE2 70.02
B LEU - 10 -61.2 139.8 N 35.7 CA 37.02 C 41.72 O 41.27 CB 34.18 CG 31.21 CD1 30.03 CD2 31.92
B SER - 55 -76.5 178.0 N 46.08 CA 39.87 C 41.23 O 38.69 CB 42.01 OG 41.49
B GLU H 154 -70.6 -32.3 N 41.33 CA 52.98 C 49.82 O 49.8 CB 61.2 CG 68.51 CD 82.86 OE1 84.79 OE2 92.46
B ALA H 67 -69.6 -39.7 N 45.32 CA 42.47 C 43.71 O 39.57 CB 44.67
B GLU H 42 -63.7 -41.7 N 38.88 CA 43.0 C 38.43 O 45.68 CB 45.21 CG 52.03 CD 57.91 OE1 56.02 OE2 60.08
B ARG H 96 -67.3 -37.7 N 35.27 CA 35.62 C 36.01 O 33.99 CB 34.52 CG 33.53 CD 53.32 NE 54.99 CZ 49.08 NH1 39.23 NH2 56.81
B GLN H 126 -58.4 -50.8 N 36.88 CA 37.95 C 37.16 O 36.73 CB 72.41 CG 79.28 CD 87.69 OE1 98.38 NE2 86.46
B LEU H 74 -54.5 -48.8 N 37.21 CA 36.77 C 42.78 O 34.65 CB 37.5 CG 40.44 CD1 39.95 CD2 39.21
B ARG H 14 -60.9 -47.5 N 38.26 CA 35.87 C 39.73 O 40.31 CB 32.49 CG 35.05 CD 44.65 NE 53.4 CZ 53.47 NH1 62.87 NH2 49.21
B SER H 78 -58.6 -41.2 N 42.05 CA 41.58 C 38.54 O 36.7 CB 53.56 OG 66.47
B LEU H 106 -61.5 -47.5 N 36.53 CA 41.25 C 44.19 O 45.33 CB 54.45 CG 67.99 CD1 71.57 CD2 70.45
B VAL H 4 -62.7 -46.0 N 42.99 CA 42.11 C 44.72 O 44.81 CB 39.1 CG1 33.2 CG2 44.21
B VAL H 19 -54.8 -36.9 N 46.43 CA 37.89 C 42.91 O 46.25 CB 33.86 CG1 29.88 CG2 32.28
B ALA H 50 -66.5 -42.9 N 43.64 CA 34.25 C 47.14 O 47.17 CB 35.62
B LEU H 48 -58.5 -51.2 N 47.24 CA 51.68 C 53.97 O 52.82 CB 60.83 CG 78.4 CD1 81.67 CD2 82.68
B MET H 4 -51.4 -49.9 N 53.26 CA 49.9 C 50.08 O 60.21 CB 46.82 CG 50.15 SD 52.04 CE 117.26
B GLN H 47 -58.6 -41.2 N 45.23 CA 48.66 C 44.86 O 47.32 CB 47.84 CG 51.02 CD 57.6 OE1 56.52 NE2 62.81
B GLU H 137 -66.8 -49.7 N 40.85 CA 47.83 C 47.52 O 44.65 CB 58.64 CG 69.43 CD 80.54 OE1 85.14 OE2 86.05
B VAL H 14 -67.1 -39.5 N 47.57 CA 43.48 C 42.84 O 42.61 CB 45.53 CG1 46.02 CG2 45.52
B PHE H 2 -69.0 -32.9 N 42.08 CA 36.13 C 44.0 O 45.28 CB 34.51 CG 45.15 CD1 43.69 CD2 46.24 CE1 46.58 CE2 49.86 CZ 50.56
B THR H 48 -68.9 -37.3 N 49.2 CA 52.13 C 61.74 O 69.58 CB 51.78 OG1 56.76 CG2 52.66
B GLU H 144 -56.5 -44.3 N 63.72 CA 64.82 C 61.68 O 60.73 CB 69.85 CG 76.21 CD 82.32 OE1 87.48 OE2 80.16
B PHE H 93 -80.9 -39.2 N 61.26 CA 59.73 C 57.39 O 58.14 CB 65.18 CG 71.64 CD1 79.06 CD2 71.73 CE1 82.48 CE2 73.81 CZ 80.7
B PHE S 39 -119.8 90.7 N 52.55 CA 48.87 C 47.93 O 49.0 CB 43.52 CG 43.67 CD1 44.3 CD2 41.98 CE1 41.49 CE2 43.65 CZ 44.96
B PRO T 117 -57.9 130.1 N 53.42 CA 56.31 C 62.95 O 63.69 CB 55.97 CG 57.36 CD 54.18
B GLY T 71 75.1 35.2 N 67.53 CA 68.66 C 63.81 O 68.61
B CYS - 5 -107.6 150.9 N 53.27 CA 42.63 C 42.39 O 48.45 CB 42.73 SG 39.58
B VAL E 63 -118.3 132.4 N 39.64 CA 36.66 C 39.34 O 34.91 CB 41.72 CG1 39.62 CG2 39.42
B VAL E 9 -96.8 112.9 N 41.92 CA 47.67 C 43.68 O 39.36 CB 51.27 CG1 51.38 CG2 48.13
B HIS E 49 -101.6 117.8 N 43.59 CA 43.03 C 36.42 O 33.98 CB 47.01 CG 53.98 ND1 58.18 CD2 57.16 CE1 62.67 NE2 58.16
B PRO E 43 -68.8 142.3 N 36.61 CA 38.16 C 37.96 O 37.66 CB 36.0 CG 34.09 CD 30.33
B PHE E 22 -145.2 177.9 N 41.22 CA 43.53 C 41.59 O 48.67 CB 39.13 CG 34.65 CD1 31.62 CD2 29.78 CE1 24.32 CE2 35.71 CZ 29.84
B GLY G 11 81.5 -146.7 N 36.62 CA 34.21 C 31.2 O 34.67
B SER G 24 -49.1 -36.2 N 37.91 CA 42.36 C 41.06 O 43.52 CB 51.47 OG 62.32
B SER G 8 -66.5 -44.4 N 45.4 CA 48.93 C 53.64 O 64.14 CB 52.64 OG 52.93
B ILE T 62 -101.0 -5.3 N 52.69 CA 49.98 C 52.9 O 69.62 CB 46.95 CG1 46.35 CG2 49.26 CD1 44.79
B ASN S 13 -95.4 5.4 N 44.19 CA 41.67 C 42.96 O 45.99 CB 37.84 CG 40.95 OD1 44.61 ND2 44.88
B SER S 18 77.4 -2.4 N 44.19 CA 39.77 C 35.81 O 45.02 CB 42.85 OG 46.03
B PHE - 11 -99.1 10.6 N 36.65 CA 40.21 C 45.33 O 55.53 CB 34.91 CG 39.82 CD1 39.17 CD2 47.82 CE1 39.67 CE2 49.35 CZ 44.74
B ASP - 1 -49.6 136.6 N 38.88 CA 39.97 C 43.15 O 44.39 CB 44.21 CG 46.44 OD1 41.61 OD2 49.92
B VAL - 4 -132.4 168.1 N 44.98 CA 45.66 C 44.22 O 41.15 CB 41.38 CG1 40.34 CG2 37.83
B HIS T 70 -56.7 132.8 N 47.37 CA 45.13 C 45.66 O 48.44 CB 39.95 CG 40.11 ND1 41.1 CD2 39.18 CE1 45.28 NE2 42.46
B GLY T 52 80.4 5.0 N 43.57 CA 40.84 C 39.59 O 46.16
B CYS - 8 -69.7 160.5 N 36.78 CA 39.76 C 46.03 O 52.26 CB 40.03 SG 42.84
B ASP - 65 -68.2 154.6 N 50.92 CA 57.99 C 49.77 O 52.0 CB 70.39 CG 88.2 OD1 100.88 OD2 90.06
B LEU E 1 -107.2 107.1 N 40.54 CA 35.72 C 35.38 O 41.59 CB 33.99 CG 37.4 CD1 27.02 CD2 38.67
B ASP E 24 -99.0 128.0 N 31.67 CA 37.68 C 37.17 O 36.65 CB 50.8 CG 62.92 OD1 69.33 OD2 60.44
B LEU E 2 -124.2 126.6 N 37.59 CA 28.17 C 31.84 O 38.91 CB 31.15 CG 31.44 CD1 28.02 CD2 30.35
B PHE E 4 -97.8 133.0 N 35.12 CA 31.29 C 35.68 O 37.34 CB 29.15 CG 35.4 CD1 36.03 CD2 41.69 CE1 38.74 CE2 43.63 CZ 40.76
B LEU E 2 -107.4 111.1 N 39.85 CA 47.83 C 47.26 O 44.93 CB 51.5 CG 50.69 CD1 48.4 CD2 52.83
B ASP E 45 -101.8 124.6 N 51.84 CA 56.8 C 56.05 O 56.67 CB 61.37 CG 66.31 OD1 71.93 OD2 69.18
B LEU - 94 -104.1 360.0 N 55.99 CA 54.53 C 58.69 O 61.01 CB 54.1 CG 49.96 CD1 50.47 CD2 50.66
B GLU - 223 360.0 90.8 N 130.8 CA 134.34 C 138.59 O 137.62 CB 132.34 CG 132.5 CD 132.79 OE1 136.93 OE2 129.02
B THR - 110 -125.8 82.6 N 144.55 CA 141.68 C 138.43 O 136.18 CB 142.41 OG1 145.51 CG2 145.33
B PRO - 63 -78.7 -166.7 N 129.14 CA 120.94 C 112.76 O 109.75 CB 120.54 CG 121.9 CD 125.49
B LYS T 168 -58.5 -12.4 N 111.69 CA 108.4 C 105.75 O 102.52 CB 110.92 CG 115.87 CD 115.34 CE 117.01 NZ 118.76
B GLU H 116 -52.2 -32.6 N 108.4 CA 101.63 C 102.7 O 104.12 CB 95.68 CG 94.55 CD 94.2 OE1 94.57 OE2 91.59
B GLU H 103 -58.3 -16.4 N 99.7 CA 102.26 C 95.46 O 86.72 CB 104.86 CG 109.75 CD 116.72 OE1 121.27 OE2 119.3
B LYS H 107 -72.9 -61.8 N 96.67 CA 92.32 C 88.29 O 87.92 CB 92.85 CG 94.15 CD 96.03 CE 95.95 NZ 95.62
B ALA H 61 -51.6 -45.4 N 88.83 CA 82.88 C 76.96 O 80.35 CB 78.83
B GLU H 103 -52.1 -53.0 N 69.06 CA 66.41 C 54.48 O 48.39 CB 70.64 CG 74.08 CD 80.55 OE1 82.58 OE2 85.01
B GLY H 34 -52.6 -51.1 N 49.62 CA 47.05 C 54.13 O 59.62
B ALA H 19 -54.9 -43.7 N 56.43 CA 54.15 C 52.02 O 53.06 CB 56.21
B ALA H 54 -56.6 -49.6 N 50.7 CA 52.23 C 47.48 O 50.27 CB 55.12
B MET H 52 -57.3 -41.3 N 46.33 CA 46.16 C 48.8 O 51.57 CB 44.1 CG 46.62 SD 73.91 CE 71.04
B LEU H 3 -57.6 -49.7 N 44.42 CA 46.34 C 52.36 O 56.59 CB 44.71 CG 35.38 CD1 33.83 CD2 35.4
B GLU H 68 -55.8 -41.7 N 53.64 CA 54.15 C 53.16 O 52.24 CB 58.49 CG 63.8 CD 69.29 OE1 68.57 OE2 70.77
B LEU H 89 -56.5 -52.1 N 49.48 CA 47.1 C 44.93 O 44.55 CB 46.42 CG 53.19 CD1 63.55 CD2 51.01
B VAL H 0 -54.7 -44.9 N 38.4 CA 44.04 C 41.62 O 36.65 CB 41.94 CG1 40.4 CG2 41.79
B GLY H 0 -55.6 -48.7 N 38.23 CA 43.55 C 43.52 O 40.81
B SER H 62 -62.4 -28.6 N 40.97 CA 50.76 C 42.05 O 43.14 CB 53.33 OG 59.88
B ILE H 5 -76.1 -38.3 N 40.45 CA 52.72 C 51.55 O 51.5 CB 50.49 CG1 51.45 CG2 46.13 CD1 50.12
B LEU H 0 -69.2 -37.7 N 50.17 CA 47.55 C 48.21 O 47.2 CB 47.67 CG 44.42 CD1 47.06 CD2 39.5
B ARG H 124 -66.1 -54.6 N 49.75 CA 57.27 C 65.85 O 74.95 CB 61.65 CG 62.28 CD 59.51 NE 61.09 CZ 60.45 NH1 63.44 NH2 58.76
B GLY H 67 -109.6 1.5 N 61.31 CA 60.33 C 58.42 O 61.08
B CYS T 55 -118.8 -64.7 N 61.95 CA 69.88 C 72.89 O 77.28 CB 70.67 SG 49.91
B VAL S 4 -65.4 117.7 N 75.61 CA 79.96 C 80.22 O 83.39 CB 84.69 CG1 83.08 CG2 90.28
B PRO T 91 -73.3 141.6 N 79.48 CA 79.57 C 75.93 O 73.55 CB 80.48 CG 79.62 CD 78.12
B GLY T 28 102.9 -19.9 N 70.12 CA 67.41 C 64.28 O 68.65
B VAL E 10 -94.7 126.0 N 62.03 CA 57.62 C 63.6 O 60.64 CB 49.73 CG1 47.83 CG2 52.07
B TYR E 84 -115.6 -61.8 N 68.44 CA 75.54 C 85.7 O 102.28 CB 66.07 CG 61.8 CD1 61.69 CD2 60.02 CE1 60.91 CE2 58.3 CZ 57.44 OH 54.88
B ARG E 165 -67.6 118.6 N 76.23 CA 74.46 C 71.63 O 76.72 CB 78.17 CG 83.8 CD 90.37 NE 105.64 CZ 108.68 NH1 104.22 NH2 111.81
B VAL E 25 -139.0 117.4 N 60.17 CA 47.58 C 41.65 O 45.68 CB 48.04 CG1 49.66 CG2 50.29
B GLN E 135 -135.5 119.6 N 37.76 CA 43.24 C 39.48 O 40.7 CB 54.24 CG 65.4 CD 84.63 OE1 93.09 NE2 88.12
B THR E 34 -72.8 138.8 N 39.9 CA 40.85 C 43.7 O 38.5 CB 38.61 OG1 41.36 CG2 41.27
B VAL E 34 -132.1 79.9 N 47.89 CA 54.32 C 64.79 O 76.94 CB 46.29 CG1 34.44 CG2 34.09
B PRO S 42 -73.3 -22.7 N 63.29 CA 65.51 C 75.68 O 84.27 CB 58.97 CG 54.14 CD 55.9
B SER S 112 -79.2 -8.4 N 80.06 CA 81.15 C 80.42 O 80.22 CB 84.49 OG 83.51
B ALA S 39 -73.5 160.5 N 78.85 CA 77.73 C 80.49 O 79.17 CB 72.78
B ARG S 115 -59.7 -43.6 N 85.78 CA 85.96 C 78.39 O 79.6 CB 84.71 CG 86.66 CD 84.25 NE 86.29 CZ 87.19 NH1 89.58 NH2 84.34
B ARG S 109 -115.4 100.9 N 77.58 CA 76.99 C 71.35 O 66.54 CB 83.59 CG 90.45 CD 93.47 NE 94.64 CZ 95.11 NH1 94.83 NH2 94.7
B PRO - 43 -53.8 136.6 N 63.14 CA 55.7 C 48.76 O 50.65 CB 55.79 CG 57.24 CD 57.48
B VAL E 15 -152.3 154.9 N 36.95 CA 36.57 C 30.98 O 32.11 CB 32.64 CG1 29.04 CG2 28.68
B VAL E 0 -110.2 112.2 N 30.96 CA 39.83 C 39.86 O 40.79 CB 42.59 CG1 41.14 CG2 43.26
B LYS E 104 -74.7 140.7 N 39.04 CA 41.92 C 32.01 O 36.04 CB 42.56 CG 51.3 CD 60.06 CE 66.39 NZ 63.46
B PHE E 7 -145.7 160.3 N 31.45 CA 32.4 C 35.71 O 37.44 CB 42.23 CG 44.34 CD1 39.65 CD2 43.27 CE1 41.81 CE2 43.53 CZ 43.07
B ALA E 5 -140.4 130.2 N 42.54 CA 40.95 C 43.74 O 55.26 CB 35.67
B HIS E 15 -96.7 118.8 N 39.38 CA 42.31 C 47.26 O 50.84 CB 39.3 CG 41.58 ND1 40.82 CD2 43.97 CE1 47.68 NE2 50.46
B ARG T 152 -67.2 -52.7 N 57.36 CA 69.56 C 75.92 O 82.77 CB 73.4 CG 80.6 CD 84.25 NE 81.72 CZ 78.08 NH1 75.65 NH2 78.31
B PRO T 103 -64.4 -34.7 N 74.23 CA 73.79 C 75.14 O 80.56 CB 72.44 CG 72.35 CD 72.57
B SER T 19 -87.4 -11.7 N 67.54 CA 58.03 C 55.99 O 57.84 CB 55.9 OG 54.05
B GLY T 56 68.7 12.7 N 48.51 CA 38.88 C 43.11 O 51.04
B LEU E 13 -82.1 158.6 N 41.66 CA 40.47 C 38.99 O 39.66 CB 39.45 CG 35.88 CD1 33.04 CD2 31.59
B HIS E 79 -149.7 150.9 N 38.78 CA 43.47 C 44.51 O 49.84 CB 42.66 CG 51.46 ND1 60.43 CD2 53.74 CE1 62.51 NE2 61.8
B GLY E 4 -178.2 -161.3 N 39.96 CA 40.18 C 50.73 O 46.63
B ASP E 27 -118.4 135.9 N 61.24 CA 55.19 C 43.62 O 41.48 CB 61.47 CG 70.32 OD1 69.22 OD2 80.89
B VAL E 2 -109.6 113.6 N 37.55 CA 35.26 C 45.28 O 47.79 CB 35.91 CG1 35.83 CG2 29.09
B SER E 4 -107.5 121.2 N 51.22 CA 49.64 C 46.05 O 43.56 CB 54.98 OG 71.69
B LEU S 27 -66.3 -58.4 N 49.37 CA 52.4 C 61.75 O 70.8 CB 50.22 CG 48.07 CD1 54.74 CD2 41.89
B SER S 95 -132.6 103.5 N 63.6 CA 71.89 C 62.81 O 54.39 CB 86.21 OG 98.29
B ASN - 24 -132.9 100.6 N 65.95 CA 74.35 C 68.98 O 76.75 CB 81.02 CG 88.98 OD1 99.58 ND2 86.55
B ARG - 85 -87.0 -23.1 N 62.54 CA 49.93 C 47.83 O 48.36 CB 48.28 CG 50.42 CD 58.28 NE 62.85 CZ 63.2 NH1 61.78 NH2 62.67
B LEU H 10 -61.5 -33.3 N 49.66 CA 45.3 C 40.41 O 49.17 CB 44.45 CG 45.76 CD1 44.51 CD2 47.53
B ALA H 3 -55.4 -42.8 N 37.67 CA 40.07 C 40.71 O 42.14 CB 37.93
B LEU H 5 -54.5 -51.8 N 41.83 CA 44.56 C 48.76 O 70.84 CB 41.06 CG 39.46 CD1 42.19 CD2 36.12
B HIS H 20 -70.7 -35.3 N 43.95 CA 43.24 C 45.25 O 47.41 CB 40.84 CG 44.98 ND1 47.08 CD2 50.4 CE1 52.46 NE2 56.32
B ASN H 17 -77.3 -27.1 N 44.81 CA 41.34 C 40.53 O 37.64 CB 44.36 CG 41.77 OD1 39.7 ND2 25.71
B SER H 2 -62.5 -53.6 N 38.8 CA 43.36 C 43.46 O 50.69 CB 45.92 OG 43.37
B ARG H 83 -56.8 -33.6 N 39.66 CA 48.92 C 45.59 O 45.95 CB 61.68 CG 75.9 CD 81.45 NE 78.28 CZ 79.62 NH1 79.43 NH2 79.39
B PHE H 5 -68.5 -41.5 N 38.31 CA 36.43 C 34.2 O 36.21 CB 35.7 CG 32.79 CD1 31.01 CD2 34.05 CE1 31.36 CE2 32.03 CZ 30.26
B LEU H 1 -63.8 -42.2 N 31.19 CA 34.44 C 40.63 O 44.65 CB 26.01 CG 37.41 CD1 24.65 CD2 25.95
B SER H 28 -60.5 -43.8 N 41.4 CA 44.77 C 36.71 O 33.57 CB 50.42 OG 62.8
B LEU H 4 -61.5 -40.5 N 35.86 CA 36.34 C 46.59 O 48.46 CB 36.92 CG 44.34 CD1 47.34 CD2 42.59
B ALA H 2 -59.2 -45.3 N 46.61 CA 47.04 C 49.01 O 33.55 CB 30.42
B SER H 17 -59.4 -36.5 N 48.78 CA 51.01 C 53.1 O 48.01 CB 55.0 OG 62.57
B GLU H 114 -70.6 -29.6 N 58.08 CA 59.15 C 59.83 O 56.05 CB 66.96 CG 75.88 CD 85.26 OE1 90.21 OE2 90.16
B LEU H 40 -67.4 -39.1 N 61.53 CA 57.08 C 47.76 O 54.79 CB 54.11 CG 54.34 CD1 53.2 CD2 54.76
B ASP - 22 -143.1 139.3 N 53.01 CA 60.23 C 58.04 O 59.05 CB 71.67 CG 76.65 OD1 74.52 OD2 89.55
B GLY T 67 -75.6 -11.2 N 52.32 CA 40.44 C 46.9 O 48.03
B ARG T 35 -87.2 -14.7 N 46.77 CA 40.94 C 41.87 O 47.29 CB 41.54 CG 44.39 CD 43.18 NE 47.66 CZ 51.08 NH1 56.76 NH2 52.7
B VAL H 0 -63.4 -53.7 N 38.89 CA 34.96 C 38.67 O 34.36 CB 38.54 CG1 38.26 CG2 45.3
B ARG H 51 -63.3 -45.1 N 44.05 CA 47.3 C 55.98 O 54.5 CB 35.6 CG 35.98 CD 40.65 NE 53.06 CZ 49.66 NH1 54.3 NH2 46.86
B PRO H 8 -57.8 -43.2 N 50.67 CA 53.24 C 47.76 O 43.94 CB 49.59 CG 44.21 CD 36.11
B LEU H 0 -59.1 -50.5 N 45.85 CA 38.08 C 34.82 O 34.1 CB 37.31 CG 45.7 CD1 53.01 CD2 45.97
B VAL H 4 -64.6 -41.8 N 30.52 CA 31.03 C 32.0 O 28.94 CB 32.99 CG1 27.18 CG2 33.25
B TYR H 5 -65.2 -48.5 N 30.46 CA 31.95 C 36.58 O 46.1 CB 32.09 CG 35.71 CD1 38.47 CD2 35.77 CE1 36.18 CE2 33.82 CZ 33.35 OH 32.72
B THR H 1 -58.9 -48.4 N 32.94 CA 37.88 C 36.17 O 33.77 CB 35.4 OG1 44.82 CG2 37.86
B LEU H 0 -69.6 -27.8 N 37.77 CA 41.2 C 44.46 O 42.35 CB 35.42 CG 34.96 CD1 38.21 CD2 36.47
B ARG H 28 -70.6 -50.7 N 40.51 CA 43.48 C 45.12 O 48.58 CB 50.65 CG 57.88 CD 68.67 NE 74.76 CZ 73.59 NH1 76.54 NH2 71.58
B ALA H 17 -58.6 -42.5 N 39.68 CA 43.36 C 38.28 O 39.06 CB 34.69
B TRP H 1 -59.8 -47.9 N 39.45 CA 41.79 C 44.85 O 49.95 CB 36.92 CG 35.76 CD1 37.69 CD2 37.2 NE1 38.01 CE2 36.85 CE3 33.27 CZ2 36.34 CZ3 33.18 CH2 34.66
B ALA H 2 -63.3 -35.6 N 39.99 CA 37.21 C 40.41 O 37.85 CB 32.25
B GLN H 91 -64.9 -39.2 N 47.33 CA 48.84 C 46.42 O 42.77 CB 56.73 CG 67.57 CD 79.27 OE1 82.29 NE2 81.38
B GLY H 25 -72.1 -27.8 N 47.82 CA 52.57 C 54.21 O 59.86
B ARG H 34 -93.2 -4.1 N 51.2 CA 53.34 C 52.4 O 60.12 CB 53.15 CG 48.49 CD 46.17 NE 53.38 CZ 54.4 NH1 56.09 NH2 50.84
B GLY T 24 75.8 26.6 N 43.08 CA 40.37 C 40.83 O 36.67
B LEU - 3 -94.4 -10.9 N 39.23 CA 43.13 C 47.8 O 41.47 CB 41.12 CG 42.2 CD1 38.28 CD2 34.61
B SER B 14 -134.1 149.2 N 52.53 CA 54.08 C 53.74 O 60.26 CB 63.08 OG 75.67
B GLY S 34 158.8 -162.8 N 50.1 CA 57.33 C 62.51 O 62.98
B SER S 134 -97.1 3.1 N 77.55 CA 85.2 C 79.34 O 88.11 CB 96.57 OG 105.7
B GLY S 33 -94.9 -144.3 N 73.44 CA 70.43 C 64.37 O 65.67
B PRO S 59 -61.5 -11.7 N 57.71 CA 51.88 C 42.8 O 50.34 CB 54.47 CG 49.99 CD 53.17
B LEU S 36 -67.2 160.9 N 38.2 CA 48.04 C 48.71 O 54.22 CB 43.62 CG 42.56 CD1 45.49 CD2 35.61
B LEU B 3 -66.4 133.5 N 42.9 CA 46.17 C 46.09 O 54.11 CB 46.46 CG 44.99 CD1 43.42 CD2 40.05
B SER - 44 -67.5 156.7 N 39.72 CA 36.53 C 39.86 O 36.65 CB 33.03 OG 43.31
B ASN H 53 -62.4 -32.7 N 41.87 CA 49.1 C 44.36 O 43.98 CB 58.81 CG 71.69 OD1 72.1 ND2 82.12
B TYR H 51 -60.9 -45.1 N 43.31 CA 39.02 C 34.39 O 43.14 CB 37.8 CG 36.98 CD1 32.74 CD2 42.47 CE1 38.29 CE2 42.1 CZ 42.81 OH 44.95
B ALA H 0 -64.9 -37.5 N 32.75 CA 33.09 C 30.91 O 35.04 CB 25.7
B LEU H 5 -66.3 -42.9 N 26.47 CA 33.3 C 38.72 O 49.56 CB 39.17 CG 39.47 CD1 37.55 CD2 39.42
B THR H 7 -60.4 -45.3 N 31.51 CA 29.61 C 27.78 O 28.04 CB 33.25 OG1 33.31 CG2 41.68
B LEU H 0 -58.9 -36.5 N 26.9 CA 35.74 C 44.96 O 44.34 CB 32.28 CG 34.37 CD1 40.3 CD2 32.58
B LEU H 3 -68.3 -42.8 N 39.18 CA 33.34 C 35.34 O 36.94 CB 29.1 CG 30.26 CD1 29.52 CD2 28.98
B VAL H 0 -62.8 -47.6 N 30.99 CA 35.84 C 35.25 O 39.16 CB 37.18 CG1 38.34 CG2 34.57
B ILE H 1 -60.3 -41.7 N 33.82 CA 37.89 C 36.11 O 37.23 CB 35.99 CG1 39.13 CG2 29.89 CD1 39.9
B TYR H 9 -59.5 -43.6 N 31.19 CA 31.06 C 41.65 O 33.49 CB 30.64 CG 36.57 CD1 37.63 CD2 40.54 CE1 42.8 CE2 43.1 CZ 51.82 OH 64.59
B PHE H 0 -58.8 -43.4 N 39.38 CA 35.84 C 39.6 O 40.94 CB 36.41 CG 38.21 CD1 37.79 CD2 37.31 CE1 39.02 CE2 41.26 CZ 40.0
B LEU H 0 -70.2 -22.4 N 34.81 CA 37.82 C 43.11 O 45.3 CB 36.34 CG 36.91 CD1 32.87 CD2 40.81
B GLN H 9 -77.2 -28.4 N 42.38 CA 51.96 C 50.12 O 49.24 CB 59.14 CG 53.72 CD 46.17 OE1 45.0 NE2 38.27
B THR S 40 -96.8 4.5 N 46.56 CA 49.66 C 55.62 O 61.64 CB 48.5 OG1 47.07 CG2 37.09
B ARG S 41 -70.0 155.7 N 57.63 CA 60.61 C 67.95 O 70.22 CB 53.53 CG 55.65 CD 58.06 NE 59.67 CZ 64.22 NH1 59.61 NH2 74.38
B ASP S 159 -58.0 -62.2 N 78.86 CA 89.02 C 87.73 O 107.15 CB 103.25 CG 117.06 OD1 115.02 OD2 127.58
B PRO S 45 -78.1 137.6 N 73.15 CA 69.94 C 68.7 O 73.11 CB 64.29 CG 67.72 CD 70.17
B PRO - 66 -72.9 138.4 N 68.19 CA 65.52 C 63.43 O 70.83 CB 65.39 CG 70.09 CD 75.8
B VAL S 6 -80.7 -42.2 N 54.95 CA 48.69 C 45.89 O 48.09 CB 43.22 CG1 38.54 CG2 40.48
B LEU S 5 -121.2 148.4 N 38.56 CA 37.8 C 40.24 O 39.15 CB 43.64 CG 43.49 CD1 47.36 CD2 40.26
B PRO - 38 -74.9 163.5 N 40.95 CA 42.18 C 45.24 O 36.95 CB 41.67 CG 43.52 CD 42.3
B THR - 21 -78.2 156.1 N 47.78 CA 44.55 C 50.9 O 57.68 CB 44.46 OG1 46.55 CG2 43.94
B VAL H 0 -67.7 -27.4 N 46.42 CA 47.86 C 48.65 O 40.46 CB 36.93 CG1 35.53 CG2 33.95
B SER H 41 -60.0 -46.3 N 50.26 CA 50.73 C 49.62 O 47.15 CB 48.32 OG 48.01
B GLN H 102 -59.8 -45.6 N 46.38 CA 48.96 C 49.34 O 48.66 CB 48.38 CG 48.12 CD 54.39 OE1 56.08 NE2 54.76
B LEU H 4 -59.6 -45.3 N 46.18 CA 50.02 C 57.83 O 71.13 CB 49.43 CG 50.31 CD1 48.35 CD2 40.36
B THR H 15 -60.5 -36.7 N 53.45 CA 55.19 C 59.01 O 50.17 CB 56.22 OG1 55.81 CG2 46.85
B GLN H 158 -74.3 -35.6 N 49.94 CA 68.39 C 64.19 O 66.11 CB 70.8 CG 77.59 CD 92.49 OE1 91.44 NE2 105.75
B LYS H 136 -67.3 -57.8 N 61.04 CA 65.06 C 67.69 O 80.62 CB 67.3 CG 76.72 CD 79.65 CE 82.98 NZ 90.12
B ALA - 12 44.2 -127.0 N 70.75 CA 73.6 C 85.83 O 92.99 CB 78.66
B GLY - 28 155.6 172.9 N 84.84 CA 86.24 C 81.08 O 75.22
B GLU T 197 -78.2 137.4 N 87.15 CA 91.33 C 87.1 O 89.12 CB 96.15 CG 101.48 CD 109.73 OE1 110.9 OE2 112.17
B GLY T 83 79.9 -10.7 N 86.99 CA 82.85 C 69.86 O 65.46
B GLU - 44 -93.5 4.6 N 67.96 CA 64.99 C 68.22 O 70.08 CB 61.97 CG 64.99 CD 63.19 OE1 65.81 OE2 64.26
B GLN - 121 -76.6 121.9 N 69.94 CA 68.8 C 67.38 O 70.21 CB 70.73 CG 72.43 CD 71.94 OE1 73.74 NE2 69.13
B VAL - 48 -147.0 140.8 N 64.2 CA 63.34 C 60.98 O 57.5 CB 45.54 CG1 48.9 CG2 40.09
B GLU E 137 -130.4 132.2 N 63.96 CA 65.75 C 68.26 O 73.64 CB 72.21 CG 75.15 CD 84.96 OE1 89.54 OE2 89.68
B VAL E 9 -129.8 122.4 N 60.24 CA 51.32 C 55.59 O 60.45 CB 44.28 CG1 45.16 CG2 38.57
B ASP T 123 59.7 25.9 N 56.35 CA 58.19 C 51.82 O 53.51 CB 69.4 CG 79.08 OD1 87.71 OD2 79.53
B GLY T 50 88.9 11.7 N 50.83 CA 48.62 C 50.73 O 57.79
B TRP E 55 -117.1 146.6 N 45.44 CA 44.2 C 50.59 O 52.13 CB 38.42 CG 52.03 CD1 37.79 CD2 55.26 NE1 39.76 CE2 51.19 CE3 49.74 CZ2 49.76 CZ3 48.48 CH2 49.3
B ASP E 50 -90.0 112.9 N 56.18 CA 58.01 C 57.79 O 51.8 CB 57.33 CG 60.03 OD1 65.44 OD2 62.64
B CYS - 0 -98.0 4.9 N 65.57 CA 54.22 C 47.76 O 47.57 CB 48.14 SG 98.59
B SER - 0 -68.9 122.9 N 42.9 CA 46.15 C 48.02 O 45.0 CB 53.18 OG 45.24
B PHE - 7 -149.1 157.2 N 47.14 CA 50.34 C 50.03 O 49.2 CB 48.57 CG 38.79 CD1 41.46 CD2 34.99 CE1 46.41 CE2 40.45 CZ 44.65
B PRO - 3 -57.5 141.6 N 52.57 CA 52.53 C 54.1 O 53.86 CB 51.03 CG 45.92 CD 51.33
B ARG S 125 -78.8 -34.5 N 63.36 CA 64.45 C 58.34 O 55.65 CB 76.1 CG 88.59 CD 96.89 NE 102.17 CZ 101.89 NH1 103.62 NH2 99.44
B ASP - 63 -117.1 142.5 N 62.88 CA 74.27 C 79.83 O 88.3 CB 76.47 CG 84.9 OD1 91.96 OD2 84.25
B ALA G 22 -74.7 -7.4 N 85.15 CA 89.44 C 93.38 O 88.74 CB 79.92
B SER G 103 -63.5 -35.9 N 104.89 CA 116.95 C 120.55 O 126.77 CB 122.32 OG 123.19
B ARG G 201 -70.7 -23.8 N 113.83 CA 106.14 C 93.07 O 96.14 CB 106.55 CG 108.07 CD 113.18 NE 118.92 CZ 122.4 NH1 122.09 NH2 124.75
B LEU S 24 -93.7 139.8 N 82.13 CA 71.96 C 64.57 O 60.14 CB 66.5 CG 63.15 CD1 53.74 CD2 68.25
B GLU - 140 -73.1 146.2 N 69.18 CA 80.74 C 80.86 O 80.6 CB 90.14 CG 96.89 CD 103.41 OE1 103.27 OE2 107.19
B PRO - 115 -65.0 178.9 N 81.7 CA 75.61 C 73.62 O 78.06 CB 78.44 CG 85.86 CD 86.55
B SER - 34 -92.4 140.0 N 68.39 CA 61.34 C 63.13 O 66.18 CB 56.19 OG 51.36
B ILE - 146 -93.6 4.9 N 59.04 CA 63.84 C 68.05 O 72.86 CB 68.26 CG1 71.09 CG2 59.36 CD1 59.13
B ASN - 8 -75.7 120.1 N 67.95 CA 67.94 C 69.79 O 66.77 CB 62.95 CG 58.19 OD1 54.83 ND2 56.46
B VAL - 128 -100.1 -2.4 N 72.14 CA 72.35 C 71.69 O 72.43 CB 80.38 CG1 84.82 CG2 85.85
B GLU - 71 -57.7 133.9 N 70.29 CA 68.29 C 64.26 O 67.41 CB 73.28 CG 81.75 CD 92.12 OE1 95.47 OE2 99.08
B PRO - 66 -75.4 164.7 N 55.22 CA 51.47 C 51.42 O 50.35 CB 51.08 CG 51.82 CD 52.88
B LEU H 20 -56.4 -45.5 N 54.98 CA 43.16 C 46.18 O 46.69 CB 48.06 CG 42.19 CD1 42.92 CD2 39.63
B SER H 37 -60.5 -44.1 N 50.91 CA 53.85 C 54.27 O 64.06 CB 56.17 OG 62.2
B SER H 37 -57.2 -53.2 N 54.22 CA 58.75 C 59.64 O 56.48 CB 65.35 OG 69.02
B LEU H 0 -60.7 -33.5 N 55.46 CA 52.46 C 51.99 O 52.88 CB 51.2 CG 46.61 CD1 48.02 CD2 44.04
B LEU H 0 -64.9 -52.9 N 47.64 CA 44.74 C 43.05 O 49.6 CB 42.06 CG 43.44 CD1 40.52 CD2 39.74
B ALA H 25 -55.5 -42.3 N 40.72 CA 41.66 C 41.02 O 40.56 CB 44.02
B GLN H 55 -63.9 -36.7 N 46.03 CA 53.28 C 53.22 O 55.89 CB 63.58 CG 73.3 CD 81.05 OE1 80.15 NE2 88.71
B PHE H 0 -61.0 -55.9 N 51.02 CA 40.94 C 40.91 O 41.85 CB 35.7 CG 35.98 CD1 33.89 CD2 32.64 CE1 30.62 CE2 31.59 CZ 30.56
B PHE H 0 -51.8 -54.9 N 37.5 CA 37.32 C 44.82 O 45.7 CB 40.58 CG 45.31 CD1 47.81 CD2 44.45 CE1 42.74 CE2 38.54 CZ 41.47
B SER H 65 -56.0 -55.5 N 48.66 CA 51.21 C 51.04 O 48.75 CB 48.32 OG 49.19
B ALA H 11 -57.6 -55.2 N 55.42 CA 54.78 C 61.96 O 66.5 CB 49.4
B VAL H 3 -69.3 -21.7 N 63.92 CA 57.76 C 52.54 O 44.39 CB 52.2 CG1 52.75 CG2 59.19
B SER H 16 -71.0 -28.1 N 56.38 CA 59.59 C 60.9 O 63.48 CB 65.92 OG 74.4
B SER H 90 -96.5 -3.4 N 56.95 CA 49.56 C 48.56 O 53.96 CB 52.25 OG 58.16
B TRP - 49 -74.3 151.4 N 45.16 CA 47.43 C 51.47 O 52.23 CB 43.78 CG 44.66 CD1 37.73 CD2 45.37 NE1 45.52 CE2 46.4 CE3 41.14 CZ2 47.33 CZ3 42.44 CH2 45.72
B ASP - 81 -93.2 107.8 N 55.59 CA 61.94 C 56.89 O 56.27 CB 75.47 CG 80.72 OD1 78.67 OD2 88.36
B LEU S 9 -82.7 -39.9 N 52.09 CA 51.27 C 48.18 O 47.63 CB 45.0 CG 39.96 CD1 39.38 CD2 34.49
B ARG T 85 -72.7 -33.2 N 48.66 CA 49.9 C 46.0 O 47.11 CB 54.65 CG 63.04 CD 68.67 NE 73.7 CZ 81.09 NH1 80.46 NH2 89.18
B GLY T 20 -86.0 -0.4 N 44.75 CA 44.38 C 49.71 O 53.84
B SER E 20 -129.9 131.0 N 52.56 CA 51.09 C 52.32 O 47.7 CB 52.67 OG 59.17
B LEU E 0 -97.6 111.6 N 52.22 CA 37.34 C 38.1 O 37.71 CB 38.41 CG 37.25 CD1 35.49 CD2 38.81
B LEU E 3 -80.7 117.4 N 38.12 CA 40.97 C 42.27 O 41.83 CB 37.34 CG 33.42 CD1 32.36 CD2 35.0
B SER E 1 -107.1 117.4 N 41.62 CA 40.19 C 41.67 O 46.42 CB 46.94 OG 49.98
B LEU T 0 -76.8 -24.1 N 40.62 CA 42.1 C 44.91 O 50.91 CB 36.92 CG 35.17 CD1 30.93 CD2 37.48
B ARG T 31 -67.1 -52.4 N 50.8 CA 57.88 C 59.03 O 48.59 CB 61.19 CG 64.96 CD 73.26 NE 70.71 CZ 62.04 NH1 65.06 NH2 46.77
B GLU T 98 -86.7 -11.4 N 59.75 CA 64.18 C 52.21 O 46.99 CB 75.47 CG 85.93 CD 99.32 OE1 104.79 OE2 104.44
B GLY T 14 58.1 46.5 N 49.7 CA 50.92 C 52.32 O 52.77
B GLN E 109 -157.4 158.5 N 51.54 CA 48.31 C 44.59 O 39.7 CB 53.69 CG 61.73 CD 72.8 OE1 70.98 NE2 86.87
B ALA E 45 -96.2 114.4 N 47.04 CA 49.03 C 49.56 O 51.55 CB 40.05
B LEU E 35 -92.9 120.4 N 50.76 CA 54.56 C 54.11 O 52.47 CB 52.07 CG 49.35 CD1 45.18 CD2 44.89
B PRO E 73 -60.4 128.1 N 63.62 CA 47.42 C 47.73 O 49.04 CB 50.16 CG 51.11 CD 48.67
B VAL - 20 -78.6 -35.9 N 51.05 CA 54.22 C 60.62 O 69.94 CB 55.94 CG1 59.93 CG2 48.39
B ALA S 83 -97.5 129.5 N 64.58 CA 74.26 C 78.7 O 77.2 CB 72.7
B GLY S 64 -100.8 148.9 N 89.67 CA 107.3 C 120.08 O 118.16
B GLY S 39 67.3 -9.5 N 137.12 CA 142.0 C 137.54 O 149.46
B LEU H 114 -66.8 -50.6 N 131.68 CA 113.04 C 99.68 O 93.01 CB 97.66 CG 100.9 CD1 96.62 CD2 101.93
B PRO H 3 -72.5 -18.3 N 94.78 CA 96.69 C 99.29 O 97.62 CB 92.45 CG 90.77 CD 92.25
B SER H 54 -81.5 -20.6 N 110.75 CA 116.97 C 124.38 O 130.98 CB 124.21 OG 125.32
B ASN H 140 -73.0 -64.4 N 124.34 CA 127.42 C 117.83 O 133.21 CB 130.3 CG 133.38 OD1 136.03 ND2 133.38
B LEU S 83 -69.4 158.8 N 110.47 CA 97.96 C 92.85 O 98.58 CB 90.56 CG 78.29 CD1 66.47 CD2 57.1
B TRP S 65 55.8 53.1 N 81.83 CA 71.89 C 73.35 O 68.2 CB 56.71 CG 52.58 CD1 57.11 CD2 49.41 NE1 59.51 CE2 53.99 CE3 43.39 CZ2 52.42 CZ3 47.36 CH2 47.31
B GLU T 174 -57.4 145.0 N 76.29 CA 77.66 C 71.23 O 68.39 CB 88.46 CG 94.0 CD 102.48 OE1 109.01 OE2 105.93
B GLY T 62 106.1 -5.3 N 64.17 CA 56.64 C 53.02 O 51.84
B LEU - 20 -78.3 122.0 N 52.84 CA 53.61 C 59.85 O 74.65 CB 51.74 CG 48.38 CD1 48.14 CD2 51.89
B ARG - 166 -89.6 130.6 N 55.26 CA 55.82 C 53.65 O 52.92 CB 58.85 CG 68.26 CD 82.74 NE 94.74 CZ 99.4 NH1 100.52 NH2 101.98
B LEU - 63 -111.7 148.5 N 52.08 CA 54.09 C 57.46 O 60.69 CB 57.13 CG 54.66 CD1 52.88 CD2 52.71
B GLY S 11 -176.1 -157.9 N 60.15 CA 63.51 C 59.56 O 62.37
B PRO S 21 -48.7 -42.1 N 52.22 CA 51.04 C 52.22 O 61.59 CB 48.41 CG 51.91 CD 53.36
B LEU S 1 -135.7 122.8 N 42.77 CA 39.98 C 43.89 O 40.76 CB 38.44 CG 39.98 CD1 38.75 CD2 38.78
B ASN E 1 -117.6 111.0 N 48.57 CA 44.87 C 41.71 O 45.58 CB 42.85 CG 43.49 OD1 43.9 ND2 37.69
B LEU E 0 -131.2 115.3 N 38.86 CA 37.41 C 33.24 O 33.18 CB 33.66 CG 31.83 CD1 29.56 CD2 28.56
B GLN E 0 -87.8 133.0 N 31.05 CA 31.46 C 30.4 O 30.09 CB 43.14 CG 41.92 CD 48.01 OE1 54.81 NE2 46.12
B ASP - 6 -60.5 143.3 N 30.03 CA 29.33 C 39.61 O 43.36 CB 36.45 CG 44.8 OD1 54.91 OD2 29.33
B PRO S 0 -60.1 -21.7 N 37.43 CA 38.9 C 37.85 O 36.72 CB 30.49 CG 28.88 CD 36.13
B PHE S 0 -122.3 -60.5 N 31.98 CA 34.13 C 43.63 O 49.89 CB 32.28 CG 38.32 CD1 34.12 CD2 37.24 CE1 33.67 CE2 35.83 CZ 35.33
B ASP - 17 -76.2 117.0 N 39.84 CA 40.33 C 37.64 O 40.32 CB 40.08 CG 42.5 OD1 47.12 OD2 40.51
B LEU T 14 -95.2 -4.2 N 36.14 CA 36.82 C 41.08 O 38.03 CB 38.94 CG 51.52 CD1 41.2 CD2 36.8
B SER T 23 -91.4 3.7 N 39.24 CA 38.77 C 36.15 O 43.36 CB 39.54 OG 38.17
B HIS - 31 -108.9 112.2 N 34.31 CA 38.24 C 38.68 O 31.31 CB 35.19 CG 37.87 ND1 38.71 CD2 41.95 CE1 37.87 NE2 42.29
B ASN B 5 -92.0 110.4 N 42.4 CA 39.46 C 37.28 O 35.82 CB 36.09 CG 41.66 OD1 36.12 ND2 43.28
B VAL T 10 -73.5 -15.7 N 36.28 CA 38.58 C 40.38 O 42.84 CB 38.84 CG1 32.99 CG2 33.13
B ALA T 0 -98.9 5.4 N 39.07 CA 42.55 C 36.66 O 41.01 CB 38.51
B ALA T 39 -58.5 -20.6 N 30.98 CA 42.71 C 43.35 O 34.72 CB 33.2
B ASN T 72 -79.1 -16.0 N 39.35 CA 32.6 C 42.74 O 45.22 CB 43.25 CG 48.17 OD1 49.42 ND2 51.46
B VAL - 3 -74.7 120.4 N 45.09 CA 33.01 C 34.89 O 43.73 CB 36.33 CG1 39.18 CG2 30.45
B THR - 64 -76.6 160.8 N 49.35 CA 52.38 C 50.5 O 45.25 CB 52.25 OG1 58.87 CG2 45.25
B SER H 35 -54.9 -37.0 N 53.57 CA 57.57 C 59.71 O 64.12 CB 61.72 OG 67.66
B ARG H 128 -60.6 -45.0 N 60.6 CA 59.67 C 53.04 O 50.56 CB 60.75 CG 65.86 CD 66.41 NE 68.9 CZ 75.67 NH1 78.09 NH2 80.21
B VAL H 4 -69.3 -37.1 N 49.03 CA 44.31 C 46.51 O 46.03 CB 44.61 CG1 35.46 CG2 44.37
B ALA H 6 -65.4 -47.4 N 46.6 CA 43.76 C 41.92 O 39.27 CB 40.58
B GLY H 15 -58.7 -44.3 N 39.71 CA 39.98 C 39.76 O 40.84
B ARG H 45 -61.4 -38.1 N 42.7 CA 45.84 C 38.04 O 38.25 CB 47.16 CG 48.04 CD 49.34 NE 51.17 CZ 54.42 NH1 47.25 NH2 62.96
B LEU H 7 -59.5 -55.4 N 43.18 CA 43.41 C 48.73 O 51.02 CB 40.63 CG 32.52 CD1 31.94 CD2 31.56
B GLN H 39 -65.4 -33.6 N 52.52 CA 50.57 C 55.98 O 55.59 CB 44.58 CG 40.62 CD 43.17 OE1 49.21 NE2 37.9
B ASN H 23 -65.6 -49.0 N 56.01 CA 51.0 C 48.91 O 46.23 CB 48.22 CG 46.25 OD1 47.03 ND2 49.18
B CYS H 10 -60.5 -35.2 N 46.1 CA 45.7 C 42.11 O 41.03 CB 44.46 SG 46.2
B CYS H 0 -70.2 -36.5 N 43.02 CA 44.11 C 49.97 O 52.57 CB 36.49 SG 59.33
B ARG H 104 -66.1 -42.9 N 53.5 CA 56.72 C 58.48 O 57.48 CB 58.51 CG 63.64 CD 69.15 NE 71.0 CZ 70.07 NH1 71.54 NH2 70.46
B ALA H 60 -63.2 -44.7 N 56.8 CA 51.06 C 51.97 O 50.65 CB 45.98
B ALA H 4 -69.1 -27.8 N 48.73 CA 47.29 C 51.01 O 52.69 CB 40.56
B ALA H 10 -74.6 -39.2 N 51.64 CA 51.42 C 57.66 O 60.9 CB 45.39
B ASN H 86 -63.0 -40.4 N 61.65 CA 67.93 C 65.47 O 65.42 CB 78.5 CG 88.37 OD1 97.23 ND2 87.25
B TYR H 35 -68.3 -33.9 N 61.93 CA 62.08 C 58.41 O 58.37 CB 65.43 CG 67.64 CD1 70.88 CD2 68.65 CE1 76.03 CE2 72.03 CZ 75.89 OH 81.37
B ALA H 4 -69.5 -14.6 N 59.27 CA 60.23 C 70.61 O 75.31 CB 58.0
B ARG T 172 -92.0 -7.7 N 73.93 CA 79.36 C 77.2 O 74.7 CB 89.02 CG 93.81 CD 102.39 NE 108.2 CZ 114.42 NH1 118.94 NH2 116.27
B SER S 36 -77.7 158.6 N 73.84 CA 73.82 C 82.29 O 81.71 CB 63.18 OG 58.02
B LEU H 108 -72.1 -25.3 N 88.83 CA 88.16 C 82.77 O 85.81 CB 97.42 CG 103.71 CD1 102.78 CD2 110.27
B GLN H 84 -66.4 -31.2 N 75.51 CA 71.71 C 67.9 O 64.79 CB 63.82 CG 70.7 CD 72.78 OE1 73.1 NE2 71.29
B TYR H 5 -75.5 -63.9 N 70.81 CA 74.07 C 82.03 O 79.92 CB 71.67 CG 69.94 CD1 72.87 CD2 69.34 CE1 64.75 CE2 64.15 CZ 63.49 OH 45.13
B GLN H 105 -57.1 -68.0 N 89.55 CA 95.99 C 100.73 O 103.08 CB 100.69 CG 106.94 CD 115.37 OE1 122.93 NE2 115.41
B ARG S 170 -73.3 156.6 N 101.67 CA 99.97 C 95.61 O 95.84 CB 99.11 CG 101.48 CD 108.6 NE 111.64 CZ 116.0 NH1 119.39 NH2 119.2
B ARG - 134 -74.6 178.5 N 94.65 CA 95.1 C 100.69 O 103.95 CB 93.92 CG 92.13 CD 93.65 NE 98.66 CZ 105.64 NH1 111.28 NH2 106.72
B SER - 9 -105.8 144.8 N 106.21 CA 116.79 C 132.72 O 133.03 CB 111.66 OG 113.05
B SER S 90 -58.1 -73.8 N 145.54 CA 151.37 C 159.01 O 165.5 CB 149.58 OG 148.49
B ARG S 225 -140.4 118.5 N 152.97 CA 145.68 C 142.92 O 142.94 CB 145.29 CG 140.89 CD 140.61 NE 137.97 CZ 141.08 NH1 144.26 NH2 142.18
B GLY S 79 90.0 -23.7 N 139.57 CA 136.98 C 133.24 O 133.43
B ARG - 137 -73.8 151.0 N 128.44 CA 120.69 C 110.5 O 105.77 CB 124.96 CG 131.35 CD 132.21 NE 133.87 CZ 132.57 NH1 130.53 NH2 135.28
B ASP - 71 -79.5 125.7 N 102.86 CA 93.47 C 85.62 O 84.67 CB 91.94 CG 94.29 OD1 94.97 OD2 96.6
B TRP - 4 -141.6 162.9 N 78.61 CA 74.88 C 66.53 O 56.4 CB 63.85 CG 63.95 CD1 65.86 CD2 69.15 NE1 65.43 CE2 70.93 CE3 60.26 CZ2 68.39 CZ3 59.35 CH2 60.32
B GLY T 0 62.4 -122.3 N 63.43 CA 56.91 C 55.01 O 56.08
B LEU H 0 -66.1 -22.3 N 56.69 CA 57.14 C 55.44 O 54.07 CB 58.9 CG 58.59 CD1 63.77 CD2 60.18
B LEU H 10 -60.5 -49.6 N 54.42 CA 57.88 C 55.62 O 55.63 CB 66.98 CG 68.28 CD1 69.73 CD2 68.6
B PRO H 28 -66.7 -26.5 N 52.47 CA 55.67 C 53.72 O 54.75 CB 53.39 CG 55.37 CD 55.19
B LEU H 4 -69.0 -33.6 N 48.93 CA 47.49 C 49.95 O 47.27 CB 48.31 CG 53.42 CD1 53.36 CD2 52.33
B LEU H 38 -91.8 -3.1 N 52.32 CA 50.49 C 58.97 O 63.39 CB 51.89 CG 50.73 CD1 47.4 CD2 48.05
B GLN S 81 -81.9 154.4 N 68.79 CA 77.37 C 81.25 O 74.02 CB 80.16 CG 83.43 CD 94.51 OE1 99.13 NE2 98.4
B PRO - 112 -62.6 159.1 N 94.21 CA 101.82 C 107.49 O 103.21 CB 102.39 CG 101.21 CD 98.29
B SER - 33 -78.5 136.0 N 117.32 CA 115.54 C 114.51 O 114.54 CB 109.58 OG 105.81
B SER - 56 -60.3 144.2 N 122.2 CA 114.49 C 114.47 O 107.47 CB 102.74 OG 96.76
B PRO H 105 -54.7 -43.7 N 119.64 CA 112.52 C 106.4 O 103.47 CB 116.43 CG 120.93 CD 123.79
B SER H 34 -66.5 -38.5 N 103.45 CA 96.44 C 90.28 O 87.5 CB 97.03 OG 100.25
B SER H 65 -71.6 -43.6 N 89.22 CA 84.48 C 77.17 O 71.17 CB 89.36 OG 95.13
B LEU H 72 -63.5 -36.8 N 76.61 CA 73.62 C 67.36 O 62.52 CB 86.6 CG 95.22 CD1 101.47 CD2 93.07
B LEU H 23 -75.4 -43.1 N 64.42 CA 61.49 C 56.3 O 51.57 CB 65.52 CG 64.23 CD1 65.28 CD2 63.89
B SER H 11 -80.1 -20.2 N 57.63 CA 56.91 C 56.63 O 59.65 CB 65.37 OG 72.9
B ALA H 15 -68.6 -43.4 N 55.49 CA 55.97 C 54.38 O 50.59 CB 58.21
B THR S 19 -78.1 120.1 N 53.04 CA 48.83 C 45.78 O 45.55 CB 47.08 OG1 46.36 CG2 46.8
B PRO - 6 -75.4 177.3 N 44.7 CA 41.19 C 43.72 O 41.69 CB 43.79 CG 41.69 CD 46.74
B ILE E 4 -110.1 119.4 N 46.03 CA 44.87 C 42.13 O 38.58 CB 38.38 CG1 38.72 CG2 38.64 CD1 39.74
B PRO E 25 -63.6 128.9 N 42.94 CA 43.81 C 49.37 O 47.34 CB 38.93 CG 38.35 CD 41.21
B LEU - 11 -116.6 151.1 N 50.78 CA 48.3 C 48.05 O 45.15 CB 52.6 CG 61.76 CD1 65.72 CD2 65.74
B PRO - 0 -52.4 143.3 N 46.68 CA 51.28 C 53.3 O 53.52 CB 55.1 CG 53.06 CD 49.03
B LEU - 77 -61.4 143.5 N 54.68 CA 62.91 C 68.25 O 66.7 CB 77.46 CG 92.89 CD1 103.3 CD2 94.56
B ALA - 7 -176.4 152.6 N 71.23 CA 71.57 C 75.24 O 72.03 CB 68.01
B PRO - 76 -54.1 143.0 N 83.51 CA 85.61 C 85.15 O 89.75 CB 89.92 CG 91.53 CD 87.74
B PHE H 68 -54.6 -46.2 N 83.01 CA 82.41 C 91.81 O 93.28 CB 77.42 CG 76.42 CD1 78.74 CD2 74.19 CE1 76.38 CE2 71.63 CZ 72.01
B THR H 104 -61.1 -52.5 N 96.68 CA 100.98 C 98.22 O 95.44 CB 100.75 OG1 100.36 CG2 98.06
B GLN H 65 -60.3 -38.0 N 103.01 CA 109.8 C 101.43 O 100.85 CB 120.85 CG 122.9 CD 125.01 OE1 126.62 NE2 124.97
B LEU H 1 -65.3 -45.6 N 95.18 CA 83.23 C 75.16 O 75.96 CB 75.93 CG 65.47 CD1 57.97 CD2 61.0
B THR H 26 -62.4 -46.6 N 70.52 CA 69.06 C 71.3 O 72.18 CB 64.79 OG1 71.13 CG2 55.58
B ALA H 49 -61.2 -40.2 N 72.49 CA 70.39 C 67.08 O 62.67 CB 71.1
B ALA H 10 -61.9 -47.4 N 59.52 CA 61.61 C 59.55 O 56.94 CB 61.33
B LEU H 0 -60.3 -45.2 N 54.1 CA 61.61 C 62.81 O 65.66 CB 60.42 CG 58.44 CD1 55.27 CD2 58.53
B VAL H 36 -66.4 -28.9 N 63.44 CA 74.49 C 77.01 O 63.43 CB 96.72 CG1 95.05 CG2 99.44
B GLN H 80 -65.9 -47.7 N 80.14 CA 86.49 C 79.85 O 79.74 CB 102.86 CG 113.37 CD 120.07 OE1 119.91 NE2 124.68
B VAL H 0 -64.3 -32.3 N 73.67 CA 70.94 C 68.13 O 71.67 CB 54.22 CG1 53.12 CG2 54.55
B PHE H 1 -78.9 -46.1 N 66.01 CA 65.58 C 71.45 O 72.17 CB 61.83 CG 57.16 CD1 53.87 CD2 51.93 CE1 54.65 CE2 49.32 CZ 53.64
B ARG H 156 -60.8 -54.9 N 81.41 CA 86.43 C 81.62 O 84.47 CB 93.6 CG 100.82 CD 103.97 NE 102.98 CZ 107.67 NH1 114.96 NH2 104.82
B GLU S 79 -116.0 158.4 N 87.26 CA 89.23 C 88.85 O 80.79 CB 91.56 CG 91.57 CD 102.15 OE1 105.14 OE2 106.3
B ALA S 1 77.3 -15.3 N 91.73 CA 85.81 C 80.07 O 79.76 CB 80.84
B LEU S 5 -141.1 148.3 N 81.49 CA 82.43 C 84.95 O 89.52 CB 60.6 CG 64.58 CD1 54.5 CD2 64.69
B GLY - 30 -77.2 11.1 N 81.31 CA 84.57 C 83.62 O 88.18
B CYS - 5 -62.7 128.8 N 82.08 CA 78.83 C 85.46 O 88.75 CB 76.66 SG 113.54
B HIS E 101 -90.0 115.3 N 89.45 CA 97.99 C 97.9 O 98.87 CB 107.71 CG 108.59 ND1 109.52 CD2 107.12 CE1 110.23 NE2 108.17
B ILE E 11 -119.9 154.8 N 98.18 CA 92.57 C 92.73 O 90.28 CB 93.08 CG1 97.94 CG2 93.92 CD1 95.89
B GLU E 88 -154.3 159.7 N 93.58 CA 97.38 C 90.45 O 67.37 CB 77.15 CG 76.65 CD 82.81 OE1 81.93 OE2 85.22
B GLN - 166 -67.7 360.0 N 89.41 CA 90.54 C 88.46 O 84.95 CB 98.73 CG 100.75 CD 102.08 OE1 104.57 NE2 98.65
B SER - 114 360.0 178.0 N 90.87 CA 90.09 C 86.73 O 94.9 CB 86.35 OG 87.52
B ALA E 14 -124.7 147.1 N 78.56 CA 74.06 C 66.76 O 66.44 CB 55.86
B SER E 51 -149.0 148.7 N 67.07 CA 55.25 C 61.59 O 65.7 CB 59.01 OG 66.13
B TRP E 8 -137.8 145.7 N 64.86 CA 69.18 C 70.98 O 71.38 CB 73.13 CG 80.32 CD1 83.36 CD2 82.31 NE1 87.58 CE2 87.02 CE3 81.12 CZ2 86.22 CZ3 79.67 CH2 80.43
B ARG E 121 -100.3 128.8 N 73.3 CA 70.55 C 73.46 O 81.79 CB 72.54 CG 70.54 CD 75.64 NE 80.2 CZ 81.53 NH1 77.57 NH2 82.23
B CYS E 2 -123.2 143.3 N 73.49 CA 78.25 C 64.88 O 64.36 CB 59.33 SG 109.6
B ALA E 10 -132.5 132.9 N 72.28 CA 75.08 C 79.06 O 85.62 CB 79.56
B LEU E 1 -126.1 132.3 N 77.6 CA 73.8 C 78.73 O 80.27 CB 68.31 CG 68.29 CD1 61.93 CD2 67.64
B TRP - 84 -99.6 2.4 N 80.77 CA 83.91 C 112.84 O 111.09 CB 100.65 CG 96.93 CD1 101.72 CD2 99.3 NE1 105.03 CE2 101.48 CE3 98.13 CZ2 100.89 CZ3 97.71 CH2 98.89
B HIS S 65 -135.0 171.3 N 112.05 CA 120.66 C 121.45 O 121.81 CB 119.52 CG 125.39 ND1 129.41 CD2 128.16 CE1 134.96 NE2 134.13
B ARG - 132 -85.8 15.8 N 115.84 CA 106.74 C 99.31 O 97.96 CB 109.85 CG 112.64 CD 108.41 NE 108.97 CZ 107.04 NH1 103.87 NH2 109.63
B VAL T 1 -42.3 -31.7 N 93.08 CA 88.09 C 85.18 O 84.9 CB 89.24 CG1 89.99 CG2 94.24
B TRP T 14 -64.4 -16.3 N 81.15 CA 80.0 C 85.46 O 83.93 CB 75.84 CG 72.91 CD1 72.73 CD2 75.61 NE1 78.65 CE2 80.58 CE3 74.47 CZ2 82.77 CZ3 76.82 CH2 82.59
B GLN S 122 -137.0 149.7 N 96.36 CA 105.53 C 107.85 O 109.62 CB 114.71 CG 117.36 CD 110.42 OE1 111.08 NE2 103.19
B GLY S 23 102.5 4.5 N 109.96 CA 112.89 C 109.79 O 114.07
B ARG H 14 -70.9 -31.9 N 103.36 CA 95.62 C 92.5 O 89.06 CB 82.46 CG 74.01 CD 62.86 NE 65.82 CZ 65.08 NH1 65.32 NH2 67.97
B ARG H 136 -64.2 -52.8 N 99.42 CA 111.87 C 121.93 O 128.91 CB 119.36 CG 121.89 CD 128.08 NE 132.99 CZ 133.55 NH1 132.5 NH2 135.52
B ARG H 207 -59.0 -40.9 N 120.78 CA 120.96 C 113.18 O 114.83 CB 130.65 CG 133.04 CD 138.65 NE 141.7 CZ 144.42 NH1 145.2 NH2 146.64
B ALA H 1 -67.8 -44.3 N 103.01 CA 97.81 C 97.8 O 99.88 CB 87.19
B ARG H 88 -67.4 -38.6 N 97.1 CA 96.52 C 100.42 O 103.47 CB 82.24 CG 85.15 CD 84.1 NE 85.63 CZ 80.01 NH1 78.29 NH2 75.55
B ARG H 90 -58.0 -49.2 N 99.27 CA 100.88 C 110.84 O 116.98 CB 100.83 CG 97.31 CD 100.44 NE 100.46 CZ 98.79 NH1 98.39 NH2 98.41
B ARG H 104 -62.1 -36.8 N 110.14 CA 113.77 C 112.72 O 121.09 CB 113.75 CG 122.68 CD 124.28 NE 117.55 CZ 117.22 NH1 123.28 NH2 113.26
B LEU H 20 -72.3 -41.2 N 108.0 CA 113.62 C 115.48 O 111.47 CB 108.7 CG 109.44 CD1 111.08 CD2 105.32
B GLN H 95 -68.6 -30.4 N 115.67 CA 124.37 C 134.49 O 138.63 CB 121.61 CG 116.63 CD 113.07 OE1 117.12 NE2 106.62
B GLN H 105 -73.5 -35.9 N 141.85 CA 150.0 C 148.2 O 155.83 CB 155.33 CG 158.94 CD 158.54 OE1 165.79 NE2 153.33
B GLN H 84 -69.2 -26.4 N 142.73 CA 138.29 C 134.31 O 136.98 CB 129.82 CG 128.63 CD 125.86 OE1 121.69 NE2 121.61
B THR H 111 -76.3 -29.2 N 132.38 CA 140.98 C 155.13 O 135.21 CB 129.21 OG1 114.59 CG2 121.36
B LYS H 147 -72.0 -46.7 N 154.42 CA 160.94 C 166.63 O 171.25 CB 159.67 CG 156.59 CD 160.03 CE 153.84 NZ 147.1
B GLU H 164 -73.3 -15.5 N 166.95 CA 170.59 C 170.96 O 178.4 CB 166.57 CG 172.07 CD 169.78 OE1 163.89 OE2 173.6
B GLY - 96 -105.0 360.0 N 162.34 CA 163.42 C 165.51 O 161.51
B GLY - 94 360.0 116.4 N 157.69 CA 157.03 C 151.67 O 149.48
B TRP - 23 -156.1 -165.0 N 148.74 CA 144.25 C 143.27 O 145.69 CB 139.08 CG 134.74 CD1 135.97 CD2 131.49 NE1 133.14 CE2 131.83 CE3 127.46 CZ2 130.86 CZ3 126.17 CH2 128.22
B LEU T 20 60.0 -111.4 N 139.18 CA 138.47 C 140.79 O 142.86 CB 141.12 CG 137.03 CD1 139.65 CD2 133.41
B ALA H 54 -45.2 -38.8 N 139.77 CA 134.03 C 122.72 O 126.87 CB 139.93
B THR H 66 -58.4 -53.1 N 118.36 CA 109.79 C 94.56 O 93.64 CB 81.96 OG1 81.55 CG2 78.93
B GLU H 22 -57.9 -32.4 N 89.77 CA 91.29 C 90.83 O 91.32 CB 78.45 CG 72.85 CD 72.48 OE1 72.82 OE2 65.02
B ALA H 15 -62.8 -33.8 N 95.04 CA 99.82 C 104.61 O 109.53 CB 101.13
B GLN H 121 -54.9 -50.1 N 108.69 CA 111.92 C 110.82 O 115.53 CB 113.71 CG 115.01 CD 123.01 OE1 126.23 NE2 125.27
B VAL H 6 -55.3 -33.1 N 102.98 CA 103.1 C 107.09 O 115.15 CB 94.26 CG1 93.04 CG2 91.67
B THR H 6 -68.7 -49.5 N 104.48 CA 98.07 C 98.53 O 96.38 CB 88.18 OG1 76.76 CG2 86.89
B GLN H 148 -63.5 -28.1 N 108.42 CA 116.91 C 122.6 O 127.26 CB 120.5 CG 122.21 CD 129.65 OE1 136.96 NE2 128.7
B GLU T 75 -90.6 6.1 N 125.02 CA 128.34 C 123.25 O 123.97 CB 136.54 CG 148.02 CD 157.79 OE1 161.23 OE2 162.03
B LEU T 43 -83.7 1.7 N 118.21 CA 114.23 C 120.57 O 116.08 CB 103.44 CG 95.55 CD1 89.23 CD2 93.72
B LYS - 124 -130.5 360.0 N 128.13 CA 126.51 C 127.62 O 126.51 CB 122.9 CG 117.72 CD 111.04 CE 105.99 NZ 100.64
B THR - 150 360.0 84.0 N 133.03 CA 130.78 C 136.11 O 133.51 CB 121.07 OG1 119.0 CG2 123.38
B GLU - 159 -92.6 119.9 N 145.13 CA 144.18 C 138.16 O 138.61 CB 145.51 CG 153.28 CD 157.16 OE1 153.12 OE2 163.37
B PRO - 40 -54.7 129.4 N 124.85 CA 111.81 C 101.17 O 97.45 CB 107.99 CG 113.43 CD 122.67
B LEU S 35 -67.1 -47.8 N 94.36 CA 93.78 C 88.54 O 84.76 CB 93.18 CG 93.08 CD1 83.69 CD2 79.36
B LEU E 0 -142.7 131.4 N 90.12 CA 86.7 C 81.37 O 78.1 CB 88.56 CG 89.27 CD1 92.11 CD2 88.58
B SER E 2 -128.6 132.3 N 81.64 CA 77.02 C 67.81 O 65.29 CB 80.68 OG 82.63
B PHE E 1 -144.7 167.2 N 65.19 CA 57.35 C 63.84 O 57.93 CB 58.2 CG 59.6 CD1 55.1 CD2 64.02 CE1 57.36 CE2 63.63 CZ 61.97
B VAL E 32 -111.8 145.5 N 63.62 CA 60.85 C 62.44 O 63.08 CB 59.37 CG1 54.12 CG2 65.34
B ALA E 0 -124.2 124.2 N 62.24 CA 65.15 C 68.06 O 75.63 CB 64.33
B SER E 37 -124.6 142.0 N 62.16 CA 60.92 C 57.53 O 52.5 CB 62.58 OG 68.11
B VAL E 0 -125.8 123.2 N 64.5 CA 67.47 C 78.65 O 75.98 CB 61.1 CG1 55.86 CG2 59.41
B SER E 50 -86.8 143.3 N 91.46 CA 97.14 C 92.43 O 87.79 CB 104.33 OG 108.93
B PRO T 73 -57.3 -47.0 N 96.65 CA 101.67 C 108.31 O 109.19 CB 100.95 CG 97.7 CD 96.94
B ALA T 57 -144.3 131.0 N 114.51 CA 121.95 C 126.44 O 131.94 CB 127.7
B ASP T 58 -82.3 156.9 N 122.28 CA 115.2 C 102.02 O 97.94 CB 115.47 CG 113.66 OD1 114.7 OD2 109.76
B ARG T 50 -69.5 118.8 N 95.55 CA 86.78 C 75.73 O 75.44 CB 90.4 CG 95.21 CD 96.55 NE 97.78 CZ 97.84 NH1 96.32 NH2 99.4
B MET E 13 -150.5 146.2 N 66.21 CA 58.93 C 59.04 O 62.9 CB 56.45 CG 63.12 SD 57.36 CE 59.0
B LEU E 0 -101.5 126.1 N 51.71 CA 49.79 C 47.44 O 40.1 CB 40.99 CG 42.13 CD1 43.67 CD2 44.91
B THR E 20 -106.9 110.1 N 49.69 CA 48.08 C 51.18 O 58.44 CB 52.78 OG1 53.52 CG2 52.45
B VAL E 1 -105.4 118.9 N 47.55 CA 44.16 C 53.75 O 44.69 CB 43.88 CG1 47.77 CG2 43.47
B THR E 45 -126.6 144.3 N 56.21 CA 62.62 C 60.64 O 57.68 CB 65.82 OG1 69.9 CG2 66.69
B PRO E 40 -75.3 146.4 N 62.65 CA 69.41 C 73.04 O 74.61 CB 67.15 CG 63.14 CD 60.51
B LEU E 93 -115.7 -71.9 N 77.67 CA 82.13 C 86.38 O 89.32 CB 81.29 CG 78.8 CD1 82.72 CD2 78.18
B GLN E 110 -111.3 113.0 N 91.78 CA 102.93 C 101.87 O 102.88 CB 113.12 CG 121.16 CD 128.1 OE1 126.06 NE2 135.0
B ASP - 43 -135.5 83.2 N 101.15 CA 98.04 C 97.2 O 98.45 CB 92.78 CG 92.67 OD1 96.92 OD2 92.25
B PRO S 102 -63.3 -42.9 N 99.3 CA 105.85 C 110.64 O 114.43 CB 107.85 CG 105.12 CD 98.21
B GLN S 131 -98.6 -0.4 N 113.33 CA 109.97 C 105.77 O 109.23 CB 109.33 CG 114.43 CD 114.3 OE1 111.72 NE2 118.37
B GLY - 43 69.9 28.9 N 98.49 CA 95.21 C 83.9 O 78.21
B LEU - 11 -92.3 5.9 N 85.07 CA 85.92 C 82.9 O 79.77 CB 95.16 CG 103.89 CD1 103.58 CD2 106.8
B PHE H 0 -52.2 -47.2 N 82.65 CA 78.68 C 81.63 O 80.35 CB 73.38 CG 63.98 CD1 63.25 CD2 59.7 CE1 61.59 CE2 55.37 CZ 55.17
B PRO H 35 -57.2 -36.4 N 85.66 CA 83.82 C 80.98 O 75.75 CB 90.65 CG 94.69 CD 89.91
B ASP H 90 -58.9 -48.0 N 82.53 CA 82.32 C 81.73 O 83.19 CB 83.75 CG 88.6 OD1 92.6 OD2 88.1
B LEU H 3 -60.4 -36.7 N 79.0 CA 72.75 C 67.82 O 70.94 CB 72.31 CG 65.93 CD1 63.74 CD2 69.95
B HIS H 0 -71.3 -44.4 N 61.12 CA 55.18 C 52.97 O 50.56 CB 54.61 CG 52.56 ND1 49.41 CD2 52.65 CE1 49.41 NE2 51.43
B HIS H 97 -61.8 -43.8 N 52.63 CA 56.06 C 52.54 O 53.67 CB 60.32 CG 64.38 ND1 68.48 CD2 65.5 CE1 68.92 NE2 69.25
B PHE H 31 -56.5 -46.5 N 54.59 CA 57.58 C 59.91 O 62.91 CB 60.99 CG 57.22 CD1 52.91 CD2 55.38 CE1 54.28 CE2 55.23 CZ 54.4
B LEU H 0 -66.4 -33.9 N 55.01 CA 51.01 C 42.7 O 42.39 CB 44.31 CG 46.44 CD1 46.56 CD2 50.53
B GLN H 78 -58.6 -39.5 N 42.02 CA 40.89 C 45.42 O 44.79 CB 40.77 CG 43.86 CD 47.23 OE1 40.52 NE2 49.95
B VAL H 103 -80.7 -43.4 N 48.79 CA 52.0 C 51.23 O 47.79 CB 55.77 CG1 52.63 CG2 61.9
B PHE H 6 -80.7 -42.1 N 52.92 CA 47.15 C 46.5 O 47.76 CB 48.65 CG 50.89 CD1 55.87 CD2 61.24 CE1 59.74 CE2 53.57 CZ 61.42
B LEU H 0 -66.2 -44.7 N 45.45 CA 45.97 C 46.77 O 52.5 CB 43.59 CG 46.3 CD1 48.41 CD2 48.2
B PRO H 11 -61.3 -32.2 N 49.87 CA 54.01 C 54.86 O 46.98 CB 47.51 CG 47.67 CD 45.97
B GLN H 53 -64.7 -46.5 N 56.18 CA 61.43 C 66.51 O 74.33 CB 66.08 CG 77.03 CD 90.41 OE1 88.75 NE2 101.14
B ALA H 0 -61.5 -52.4 N 60.26 CA 58.67 C 57.52 O 54.94 CB 51.82
B ILE H 3 -55.2 -46.7 N 52.98 CA 53.42 C 56.86 O 64.9 CB 48.39 CG1 47.38 CG2 49.31 CD1 49.34
B ARG H 33 -51.4 -63.4 N 56.73 CA 60.28 C 64.96 O 68.38 CB 58.88 CG 59.1 CD 57.16 NE 57.43 CZ 56.21 NH1 58.88 NH2 48.01
B HIS H 44 -59.4 -24.3 N 67.29 CA 60.45 C 62.22 O 66.74 CB 69.31 CG 73.03 ND1 79.81 CD2 72.49 CE1 80.59 NE2 75.09
B LEU H 10 -76.5 -17.3 N 72.12 CA 74.56 C 77.93 O 82.07 CB 60.29 CG 63.23 CD1 65.62 CD2 64.5
B LYS H 28 -75.4 -34.9 N 72.33 CA 75.53 C 82.9 O 89.82 CB 72.43 CG 72.04 CD 72.06 CE 74.15 NZ 76.55
B LEU T 42 -92.6 3.0 N 84.69 CA 90.85 C 100.51 O 104.3 CB 86.95 CG 80.47 CD1 79.96 CD2 70.59
B GLU T 101 -90.0 -6.4 N 104.8 CA 111.7 C 117.52 O 121.61 CB 105.78 CG 103.34 CD 106.8 OE1 105.12 OE2 111.54
B HIS - 172 -91.9 360.0 N 119.54 CA 123.13 C 121.28 O 117.22 CB 121.94 CG 122.58 ND1 119.62 CD2 125.53 CE1 119.53 NE2 122.94
