A HIS - 237 360.0 129.1 N 78.28 CA 79.57 C 76.33 O 66.15 CB 72.04 CG 67.83 ND1 67.79 CD2 62.04 CE1 61.67 NE2 58.33
A LYS - 159 -64.5 152.8 N 82.32 CA 87.56 C 89.07 O 82.89 CB 94.47 CG 99.21 CD 100.84 CE 99.72 NZ 98.01
A VAL - 124 -88.7 133.6 N 89.09 CA 82.28 C 77.19 O 74.62 CB 81.02 CG1 78.71 CG2 77.11
A HIS - 102 -127.5 111.6 N 72.11 CA 67.84 C 61.13 O 52.85 CB 63.79 CG 66.97 ND1 67.27 CD2 62.96 CE1 66.92 NE2 62.73
A MET E 86 -88.8 135.7 N 58.91 CA 64.1 C 61.02 O 54.14 CB 67.92 CG 71.52 SD 83.86 CE 81.53
A GLN E 116 -109.2 121.9 N 55.26 CA 50.66 C 48.06 O 52.7 CB 46.88 CG 46.61 CD 43.76 OE1 46.2 NE2 42.02
A TYR E 21 -84.6 138.7 N 44.27 CA 46.76 C 47.09 O 44.33 CB 44.06 CG 44.65 CD1 48.0 CD2 44.72 CE1 42.33 CE2 45.31 CZ 43.05 OH 45.14
A ASP - 137 -74.4 135.2 N 52.23 CA 50.83 C 46.99 O 43.76 CB 58.57 CG 63.19 OD1 60.5 OD2 68.65
A ILE - 31 -94.4 118.7 N 45.35 CA 45.89 C 41.22 O 37.82 CB 47.17 CG1 48.72 CG2 45.87 CD1 50.27
A VAL - 97 -94.9 -22.9 N 40.49 CA 44.78 C 44.62 O 42.47 CB 46.92 CG1 44.11 CG2 50.67
A ALA E 45 -159.0 164.9 N 43.86 CA 41.05 C 40.94 O 36.78 CB 41.22
A VAL E 5 -151.4 140.5 N 38.18 CA 37.4 C 36.86 O 33.75 CB 37.19 CG1 41.28 CG2 37.54
A THR E 86 -133.5 179.9 N 35.05 CA 33.94 C 34.57 O 32.85 CB 35.52 OG1 37.16 CG2 37.24
A ALA E 31 -165.8 155.9 N 34.61 CA 36.09 C 36.83 O 38.05 CB 35.67
A SER S 49 -63.0 -22.5 N 34.94 CA 33.62 C 31.4 O 32.98 CB 34.64 OG 34.63
A ALA - 30 -172.4 154.3 N 31.13 CA 30.94 C 31.4 O 30.91 CB 29.06
A HIS - 98 -155.5 166.6 N 30.18 CA 29.99 C 31.21 O 31.69 CB 30.42 CG 31.86 ND1 32.75 CD2 30.78 CE1 33.55 NE2 32.59
A ASP S 76 -111.8 24.1 N 31.39 CA 33.67 C 33.63 O 34.65 CB 32.35 CG 36.01 OD1 31.05 OD2 36.36
A GLY S 52 100.4 -9.7 N 35.59 CA 35.88 C 33.79 O 40.52
A ASN S 37 -90.4 98.5 N 33.08 CA 32.47 C 33.17 O 32.74 CB 30.39 CG 31.75 OD1 36.5 ND2 30.66
A LEU - 73 -75.5 154.6 N 34.24 CA 35.05 C 30.83 O 30.47 CB 38.57 CG 43.5 CD1 45.48 CD2 43.05
A PRO G 8 -57.1 -27.4 N 33.31 CA 35.16 C 36.08 O 36.07 CB 34.23 CG 35.58 CD 36.74
A GLU G 96 -70.1 -20.4 N 40.36 CA 42.6 C 37.15 O 36.55 CB 50.68 CG 62.87 CD 70.79 OE1 77.07 OE2 70.06
A ASN G 32 -62.4 -15.0 N 34.16 CA 33.44 C 34.87 O 39.4 CB 34.08 CG 35.56 OD1 35.21 ND2 31.03
A THR G 0 -84.6 -6.9 N 33.31 CA 37.43 C 39.15 O 40.1 CB 36.85 OG1 32.86 CG2 34.4
A ILE G 62 -130.4 25.2 N 42.58 CA 42.34 C 43.87 O 42.17 CB 43.12 CG1 44.88 CG2 45.32 CD1 45.69
A ASP S 74 -100.6 -1.0 N 42.35 CA 43.24 C 41.63 O 41.49 CB 41.79 CG 43.05 OD1 38.72 OD2 42.33
A GLY S 59 75.3 13.7 N 38.66 CA 39.14 C 40.14 O 42.11
A ASN - 68 -115.9 120.9 N 41.8 CA 40.74 C 41.5 O 42.63 CB 44.21 CG 44.73 OD1 46.21 ND2 44.14
A LEU T 90 -77.5 -12.7 N 42.62 CA 43.19 C 44.8 O 41.87 CB 44.85 CG 46.74 CD1 44.14 CD2 49.0
A SER T 104 -100.7 -3.7 N 42.91 CA 41.87 C 39.26 O 38.64 CB 45.97 OG 49.33
A THR - 38 -104.2 151.6 N 37.76 CA 38.44 C 40.18 O 39.52 CB 37.78 OG1 38.71 CG2 36.79
A ARG - 63 -148.7 160.0 N 38.51 CA 34.99 C 34.19 O 32.87 CB 35.04 CG 36.83 CD 34.8 NE 35.33 CZ 37.16 NH1 33.5 NH2 36.25
A TRP E 2 -91.4 138.6 N 33.4 CA 31.47 C 30.36 O 34.22 CB 32.5 CG 32.86 CD1 31.91 CD2 34.65 NE1 36.33 CE2 34.3 CE3 35.15 CZ2 33.24 CZ3 34.25 CH2 34.74
A SER E 1 -136.9 138.8 N 29.67 CA 28.21 C 28.59 O 27.6 CB 28.61 OG 27.64
A ALA E 1 -149.4 134.3 N 31.93 CA 31.2 C 34.87 O 36.53 CB 30.83
A ASN E 79 -90.9 125.9 N 34.98 CA 35.83 C 37.25 O 36.86 CB 35.67 CG 34.35 OD1 36.77 ND2 32.05
A GLY S 19 126.3 140.4 N 37.61 CA 36.17 C 37.96 O 41.77
A SER T 84 -67.8 129.2 N 35.77 CA 35.77 C 35.02 O 34.17 CB 37.28 OG 41.74
A GLY T 36 114.2 -14.8 N 36.1 CA 35.47 C 34.0 O 35.21
A GLN - 60 -77.4 153.4 N 33.24 CA 34.29 C 33.07 O 33.0 CB 35.61 CG 37.57 CD 39.82 OE1 38.25 NE2 42.78
A TYR E 74 -148.1 158.4 N 32.76 CA 30.59 C 33.72 O 28.03 CB 33.7 CG 33.47 CD1 32.49 CD2 35.82 CE1 34.16 CE2 33.74 CZ 35.75 OH 29.09
A ILE E 0 -122.1 141.3 N 35.0 CA 33.59 C 33.2 O 30.1 CB 33.54 CG1 32.79 CG2 35.94 CD1 29.56
A THR E 5 -126.9 120.0 N 31.96 CA 33.11 C 33.35 O 34.51 CB 31.92 OG1 29.64 CG2 32.48
A PHE E 0 -105.1 137.0 N 34.33 CA 31.4 C 30.04 O 31.21 CB 31.09 CG 32.47 CD1 35.43 CD2 32.57 CE1 35.53 CE2 35.71 CZ 34.57
A ASP E 19 -115.2 127.1 N 34.88 CA 39.62 C 37.96 O 39.29 CB 40.11 CG 40.78 OD1 37.66 OD2 37.89
A LEU E 10 -96.2 0.4 N 39.27 CA 41.07 C 42.21 O 41.48 CB 36.54 CG 37.58 CD1 39.31 CD2 37.53
A GLY E 40 92.1 -38.0 N 43.06 CA 49.59 C 53.53 O 54.95
A SER E 60 -152.1 -178.7 N 52.51 CA 54.57 C 53.49 O 55.67 CB 54.48 OG 47.72
A ALA E 51 -86.9 138.8 N 51.88 CA 52.22 C 47.08 O 48.54 CB 57.56
A LYS E 82 -142.2 157.3 N 49.15 CA 51.23 C 50.39 O 49.95 CB 54.48 CG 57.91 CD 62.7 CE 65.55 NZ 66.14
A THR E 60 -79.4 118.1 N 48.13 CA 50.25 C 50.08 O 51.03 CB 53.12 OG1 58.37 CG2 50.18
A VAL E 0 -119.4 137.0 N 47.37 CA 44.75 C 45.54 O 43.13 CB 43.29 CG1 43.7 CG2 42.01
A ASN E 29 -142.7 11.1 N 46.77 CA 48.49 C 45.21 O 42.4 CB 51.41 CG 52.57 OD1 50.57 ND2 55.58
A GLN E 22 -157.4 132.8 N 41.87 CA 39.74 C 40.25 O 39.42 CB 39.64 CG 40.44 CD 43.84 OE1 44.61 NE2 42.85
A VAL E 0 -121.8 136.0 N 35.91 CA 34.87 C 34.66 O 34.84 CB 34.73 CG1 34.52 CG2 33.44
A LYS E 39 -115.5 141.3 N 34.0 CA 33.27 C 33.82 O 31.57 CB 34.29 CG 36.36 CD 36.89 CE 39.45 NZ 42.22
A ALA E 0 -140.1 143.0 N 33.43 CA 34.98 C 36.22 O 37.72 CB 33.61
A ALA E 1 -116.5 140.0 N 35.55 CA 32.68 C 33.47 O 36.23 CB 34.58
A TRP E 4 -109.5 144.2 N 34.68 CA 33.8 C 32.79 O 31.37 CB 34.03 CG 31.69 CD1 30.58 CD2 30.5 NE1 30.68 CE2 30.75 CE3 30.87 CZ2 29.19 CZ3 31.49 CH2 29.81
A TYR T 88 -60.1 132.7 N 34.41 CA 35.22 C 34.87 O 39.09 CB 38.37 CG 42.45 CD1 47.73 CD2 44.6 CE1 48.16 CE2 47.08 CZ 46.53 OH 47.56
A ASN T 61 51.7 41.3 N 33.16 CA 36.11 C 33.73 O 34.47 CB 40.93 CG 48.27 OD1 48.2 ND2 46.58
A GLY T 0 -65.9 -19.1 N 32.79 CA 34.61 C 32.7 O 34.4
A ASP T 87 -105.7 3.4 N 34.0 CA 38.64 C 41.11 O 43.02 CB 40.39 CG 43.58 OD1 44.63 OD2 46.41
A SER T 81 -129.6 5.1 N 42.34 CA 41.83 C 39.2 O 43.74 CB 44.02 OG 46.9
A ARG - 21 -162.6 162.5 N 36.4 CA 33.63 C 33.42 O 34.46 CB 33.74 CG 36.14 CD 33.47 NE 35.54 CZ 38.89 NH1 36.14 NH2 38.21
A THR - 56 -110.3 150.2 N 32.24 CA 32.03 C 31.7 O 27.51 CB 34.02 OG1 37.0 CG2 33.54
A SER E 2 -128.9 135.6 N 32.76 CA 35.67 C 34.89 O 35.17 CB 39.73 OG 48.65
A GLY E 14 -96.1 143.0 N 34.42 CA 34.26 C 32.61 O 32.36
A PHE E 1 -160.6 172.0 N 32.69 CA 34.39 C 33.54 O 35.59 CB 33.2 CG 31.7 CD1 31.85 CD2 31.47 CE1 32.72 CE2 31.94 CZ 33.35
A SER E 8 -144.6 148.3 N 31.95 CA 37.23 C 36.33 O 40.64 CB 38.14 OG 41.85
A ILE E 0 -112.3 138.2 N 36.89 CA 34.81 C 34.99 O 33.0 CB 35.53 CG1 36.19 CG2 37.29 CD1 37.93
A SER E 16 -138.3 148.7 N 35.77 CA 39.24 C 39.16 O 33.58 CB 41.97 OG 44.82
A LEU E 1 -135.8 154.6 N 39.38 CA 39.94 C 37.42 O 42.2 CB 45.65 CG 48.31 CD1 53.14 CD2 46.88
A GLY E 9 160.4 -171.2 N 39.51 CA 39.24 C 43.01 O 48.24
A SER S 80 -94.3 -26.6 N 46.69 CA 51.1 C 53.0 O 52.48 CB 54.22 OG 55.14
A ASP S 75 -121.4 144.8 N 57.72 CA 56.74 C 54.34 O 47.68 CB 58.72 CG 68.91 OD1 76.69 OD2 78.71
A PRO T 46 -68.1 -9.0 N 50.86 CA 52.45 C 55.74 O 54.57 CB 50.29 CG 48.4 CD 52.36
A ALA T 95 -105.2 -0.9 N 57.15 CA 64.13 C 63.92 O 64.44 CB 65.17
A SER S 65 -102.7 29.4 N 64.0 CA 62.2 C 54.82 O 59.12 CB 59.98 OG 64.96
A LEU - 31 -89.4 138.7 N 48.65 CA 46.56 C 44.51 O 40.16 CB 47.17 CG 45.52 CD1 45.4 CD2 43.86
A THR E 88 -118.2 139.5 N 43.48 CA 46.81 C 44.71 O 43.21 CB 50.37 OG1 57.26 CG2 53.8
A GLU E 126 -68.2 133.8 N 43.39 CA 42.28 C 43.25 O 40.99 CB 42.76 CG 50.49 CD 50.86 OE1 50.08 OE2 55.77
A VAL E 44 -127.1 -13.2 N 40.49 CA 38.56 C 38.09 O 41.2 CB 40.9 CG1 39.96 CG2 41.35
A TYR E 71 -156.1 146.2 N 37.49 CA 34.99 C 38.35 O 42.47 CB 33.81 CG 36.29 CD1 34.71 CD2 37.37 CE1 37.34 CE2 37.98 CZ 36.91 OH 41.05
A SER E 71 -155.2 141.4 N 38.79 CA 36.95 C 36.11 O 36.35 CB 36.28 OG 40.41
A GLY E 25 170.0 -151.2 N 37.86 CA 38.74 C 39.12 O 34.15
A THR E 98 -134.6 147.5 N 35.83 CA 37.97 C 36.95 O 36.01 CB 41.68 OG1 43.76 CG2 38.7
A SER - 4 -71.0 165.4 N 36.54 CA 38.5 C 39.16 O 37.87 CB 36.47 OG 35.6
A SER - 45 -84.1 -29.6 N 40.56 CA 42.41 C 41.65 O 38.46 CB 43.13 OG 44.32
A GLY S 14 78.5 13.4 N 41.97 CA 41.54 C 43.44 O 44.47
A GLN S 160 -125.4 -5.8 N 47.41 CA 54.39 C 49.6 O 49.53 CB 58.67 CG 61.0 CD 65.46 OE1 64.81 NE2 63.5
A THR - 52 -147.4 148.9 N 45.05 CA 41.69 C 41.2 O 48.58 CB 40.93 OG1 40.41 CG2 39.69
A ASN S 58 -92.8 -4.4 N 38.9 CA 37.96 C 35.94 O 35.6 CB 37.33 CG 39.07 OD1 36.45 ND2 39.59
A ALA S 51 -87.0 -171.8 N 37.44 CA 36.03 C 34.31 O 35.0 CB 32.67
A LEU - 65 -71.8 135.7 N 31.53 CA 33.14 C 35.28 O 33.24 CB 33.36 CG 32.64 CD1 32.03 CD2 33.17
A GLU E 22 -106.7 145.1 N 36.59 CA 37.07 C 38.09 O 37.52 CB 40.08 CG 40.8 CD 44.93 OE1 43.26 OE2 36.9
A SER E 65 -98.7 126.1 N 41.01 CA 44.96 C 42.87 O 45.52 CB 47.68 OG 52.73
A TYR E 8 -119.5 117.6 N 40.41 CA 40.86 C 42.99 O 42.09 CB 36.13 CG 35.27 CD1 33.82 CD2 34.47 CE1 33.63 CE2 31.16 CZ 31.77 OH 34.87
A SER E 67 -122.3 148.6 N 42.2 CA 46.99 C 44.71 O 41.51 CB 50.09 OG 53.2
A PHE E 23 -154.8 176.0 N 44.66 CA 43.2 C 41.07 O 35.35 CB 42.03 CG 37.28 CD1 34.21 CD2 33.63 CE1 32.79 CE2 34.49 CZ 34.0
A THR E 123 -56.5 133.4 N 44.47 CA 52.21 C 48.89 O 50.73 CB 60.59 OG1 60.95 CG2 65.32
A ALA E 53 -57.1 128.6 N 46.01 CA 47.46 C 45.97 O 48.5 CB 50.85
A THR E 44 -136.8 143.0 N 50.09 CA 56.6 C 57.21 O 55.58 CB 59.48 OG1 55.74 CG2 59.07
A THR E 93 -72.7 130.7 N 55.48 CA 56.81 C 57.59 O 61.5 CB 57.83 OG1 62.39 CG2 53.87
A ALA E 0 -159.7 146.8 N 53.42 CA 47.46 C 45.8 O 46.7 CB 49.65
A ARG E 82 -100.7 -38.7 N 42.74 CA 42.12 C 41.37 O 39.24 CB 41.79 CG 43.33 CD 44.04 NE 43.12 CZ 44.73 NH1 42.8 NH2 47.09
A TYR E 46 -108.5 138.3 N 40.02 CA 39.37 C 37.08 O 38.2 CB 40.36 CG 37.78 CD1 40.3 CD2 39.44 CE1 40.35 CE2 39.13 CZ 39.26 OH 36.38
A ILE E 0 -126.0 129.6 N 37.04 CA 33.37 C 33.32 O 29.7 CB 34.45 CG1 36.02 CG2 35.39 CD1 35.86
A ARG E 38 -123.7 123.2 N 33.64 CA 35.21 C 31.48 O 32.2 CB 39.57 CG 41.02 CD 41.28 NE 39.01 CZ 37.33 NH1 38.58 NH2 38.73
A ILE E 2 -97.9 122.8 N 33.87 CA 33.53 C 34.48 O 33.7 CB 32.09 CG1 36.09 CG2 31.27 CD1 35.16
A THR E 22 -102.7 132.2 N 34.34 CA 34.0 C 31.78 O 31.8 CB 34.71 OG1 34.24 CG2 36.22
A GLY E 3 -104.1 142.4 N 29.41 CA 30.39 C 31.42 O 32.21
A PHE E 97 -119.4 32.4 N 31.75 CA 34.64 C 33.96 O 35.64 CB 35.04 CG 37.53 CD1 38.47 CD2 36.82 CE1 39.53 CE2 39.29 CZ 40.65
A GLY E 7 75.5 -172.3 N 34.9 CA 34.72 C 36.28 O 38.01
A ASN E 23 -135.9 -179.6 N 36.09 CA 37.14 C 39.13 O 38.02 CB 36.0 CG 35.88 OD1 34.89 ND2 32.74
A SER S 73 -49.6 -46.2 N 41.88 CA 43.62 C 42.98 O 42.58 CB 44.57 OG 51.41
A SER S 92 -89.0 -46.9 N 41.31 CA 41.55 C 43.71 O 46.41 CB 43.09 OG 43.17
A ASN S 65 -155.2 -175.0 N 40.08 CA 38.8 C 40.8 O 40.24 CB 37.74 CG 37.96 OD1 40.93 ND2 33.33
A THR S 76 -91.4 9.7 N 37.9 CA 37.76 C 36.65 O 29.11 CB 39.79 OG1 36.04 CG2 39.96
A TRP E 80 -75.3 141.4 N 35.13 CA 38.26 C 36.08 O 34.86 CB 38.9 CG 40.26 CD1 43.05 CD2 39.2 NE1 43.36 CE2 41.14 CE3 41.2 CZ2 41.73 CZ3 38.88 CH2 41.08
A ASN E 1 -110.8 112.7 N 33.4 CA 32.59 C 33.61 O 32.5 CB 32.72 CG 30.73 OD1 37.29 ND2 28.86
A SER E 3 -136.0 123.9 N 33.04 CA 30.98 C 29.72 O 29.3 CB 29.88 OG 31.95
A ILE E 1 -124.7 132.9 N 30.05 CA 30.11 C 29.49 O 29.34 CB 30.53 CG1 32.41 CG2 31.03 CD1 31.04
A THR E 6 -100.6 -32.7 N 32.12 CA 34.04 C 33.65 O 37.66 CB 35.44 OG1 34.11 CG2 36.83
A GLU E 49 -152.7 145.9 N 36.44 CA 36.61 C 36.5 O 36.14 CB 37.9 CG 43.91 CD 47.72 OE1 43.01 OE2 48.99
A VAL E 9 -142.3 139.6 N 34.76 CA 34.06 C 33.93 O 34.37 CB 31.78 CG1 33.42 CG2 32.44
A ALA E 7 -137.3 154.4 N 33.88 CA 34.29 C 35.48 O 34.28 CB 34.87
A ILE E 0 -127.2 130.8 N 36.36 CA 37.96 C 40.34 O 43.67 CB 35.9 CG1 37.04 CG2 36.69 CD1 37.77
A PHE E 20 -139.3 155.1 N 40.2 CA 44.75 C 50.5 O 47.17 CB 43.92 CG 44.26 CD1 44.64 CD2 43.76 CE1 46.48 CE2 45.8 CZ 47.74
A HIS E 61 -105.1 114.5 N 54.88 CA 54.12 C 51.37 O 53.87 CB 61.25 CG 65.73 ND1 69.27 CD2 73.14 CE1 73.38 NE2 73.94
A ALA - 17 -94.4 153.7 N 45.59 CA 52.79 C 56.99 O 56.65 CB 54.49
A GLY - 65 -93.1 360.0 N 59.94 CA 62.98 C 66.18 O 70.19
A GLU - 207 360.0 50.5 N 79.64 CA 84.67 C 79.78 O 59.1 CB 92.48 CG 101.31 CD 103.52 OE1 102.19 OE2 91.14
A GLU - 52 -109.4 141.6 N 74.55 CA 66.19 C 60.56 O 49.75 CB 63.13 CG 59.25 CD 56.16 OE1 56.17 OE2 48.96
A ALA - 86 -56.1 136.3 N 56.2 CA 56.86 C 58.23 O 56.56 CB 59.55
A PRO - 100 -58.5 158.3 N 57.89 CA 53.88 C 50.86 O 50.61 CB 54.92 CG 58.89 CD 59.77
A GLY - 33 -131.5 -164.5 N 47.6 CA 42.58 C 39.8 O 37.6
A THR - 131 -126.1 11.7 N 39.03 CA 37.92 C 36.9 O 36.23 CB 40.76 OG1 35.42 CG2 42.02
A ALA - 8 -56.8 138.4 N 35.95 CA 41.27 C 41.96 O 44.73 CB 41.27
A GLN - 118 -113.3 -43.9 N 42.47 CA 45.71 C 37.84 O 35.16 CB 54.24 CG 63.11 CD 75.37 OE1 67.97 NE2 77.02
A ILE S 42 -123.6 156.1 N 35.27 CA 36.58 C 36.21 O 35.09 CB 35.9 CG1 36.74 CG2 36.95 CD1 37.65
A PRO G 0 -57.0 -36.4 N 34.99 CA 34.77 C 36.31 O 35.21 CB 34.1 CG 34.68 CD 34.08
A SER G 13 -58.6 -18.1 N 34.35 CA 34.45 C 34.87 O 37.93 CB 34.31 OG 33.95
A ASP G 89 -69.7 -28.8 N 37.18 CA 38.57 C 38.4 O 39.11 CB 39.39 CG 39.23 OD1 45.33 OD2 38.75
A LEU G 31 -84.6 -2.4 N 37.6 CA 37.23 C 36.95 O 35.29 CB 39.65 CG 42.98 CD1 41.6 CD2 43.3
A MET - 14 -103.9 133.3 N 36.92 CA 36.4 C 35.2 O 35.7 CB 34.95 CG 35.37 SD 34.19 CE 36.67
A SER S 109 -76.6 -37.3 N 32.42 CA 34.54 C 35.01 O 35.53 CB 32.93 OG 31.72
A ASN - 35 -130.3 101.9 N 34.29 CA 32.46 C 31.22 O 33.7 CB 34.13 CG 34.34 OD1 30.93 ND2 29.51
A CYS G 29 -72.8 -15.4 N 29.71 CA 31.69 C 31.51 O 31.16 CB 32.8 SG 34.78
A ASN G 76 -74.4 -27.2 N 28.86 CA 29.95 C 30.76 O 27.8 CB 31.16 CG 33.32 OD1 33.93 ND2 32.92
A GLN G 19 -82.1 2.2 N 30.73 CA 31.47 C 32.49 O 34.03 CB 31.51 CG 31.68 CD 34.1 OE1 40.9 NE2 31.58
A TRP E 2 -139.4 158.3 N 34.01 CA 33.43 C 34.2 O 34.28 CB 31.67 CG 32.07 CD1 35.87 CD2 30.74 NE1 32.7 CE2 31.84 CE3 29.34 CZ2 29.96 CZ3 29.06 CH2 30.99
A LYS E 17 -124.2 155.7 N 35.66 CA 36.06 C 33.61 O 31.15 CB 37.27 CG 42.04 CD 43.86 CE 46.98 NZ 47.9
A ILE E 0 -112.4 147.7 N 34.96 CA 33.1 C 35.53 O 31.8 CB 33.03 CG1 32.88 CG2 35.43 CD1 32.07
A THR E 25 -118.2 128.2 N 35.98 CA 34.8 C 33.7 O 35.1 CB 37.08 OG1 43.63 CG2 36.43
A TYR - 16 -99.9 166.1 N 33.4 CA 31.95 C 30.5 O 29.87 CB 34.62 CG 33.57 CD1 33.65 CD2 32.67 CE1 32.6 CE2 32.76 CZ 34.62 OH 33.03
A PRO T 1 -64.0 -23.0 N 30.51 CA 33.27 C 34.21 O 40.65 CB 33.96 CG 33.89 CD 33.1
A ASP T 49 -84.1 3.2 N 36.84 CA 39.54 C 40.82 O 40.82 CB 42.73 CG 42.87 OD1 38.82 OD2 41.18
A GLY S 29 92.3 -12.4 N 42.51 CA 42.36 C 43.13 O 45.68
A SER - 50 -77.1 169.4 N 45.1 CA 41.69 C 39.35 O 38.35 CB 40.13 OG 35.33
A GLU E 100 -138.0 155.0 N 43.12 CA 45.14 C 43.36 O 38.57 CB 51.7 CG 56.39 CD 57.46 OE1 55.51 OE2 68.52
A ASP E 26 -140.0 119.1 N 42.94 CA 42.57 C 38.35 O 40.99 CB 39.82 CG 39.85 OD1 39.51 OD2 42.31
A LYS S 95 -97.2 -1.8 N 35.94 CA 40.21 C 38.26 O 37.85 CB 45.88 CG 53.2 CD 61.51 CE 69.09 NZ 71.51
A THR - 101 -132.4 79.6 N 33.63 CA 36.34 C 36.9 O 41.77 CB 36.36 OG1 29.15 CG2 33.05
A LEU - 1 -85.2 -22.3 N 37.53 CA 35.19 C 36.55 O 37.55 CB 35.61 CG 36.64 CD1 34.24 CD2 36.66
A CYS T 55 -50.0 127.1 N 38.45 CA 37.26 C 36.74 O 38.76 CB 35.21 SG 37.75
A GLY T 55 80.7 1.8 N 35.81 CA 40.93 C 39.05 O 38.27
A GLU - 70 -72.4 148.2 N 39.04 CA 37.38 C 38.18 O 40.69 CB 36.51 CG 36.62 CD 37.83 OE1 42.36 OE2 41.59
A ALA - 65 -75.5 157.0 N 37.7 CA 37.92 C 37.17 O 32.89 CB 40.17
A ASN - 67 -59.5 137.4 N 35.85 CA 33.73 C 35.65 O 33.5 CB 32.41 CG 32.13 OD1 35.63 ND2 27.62
A ASN - 51 -131.3 -178.2 N 36.02 CA 37.6 C 37.55 O 32.37 CB 36.06 CG 36.5 OD1 34.57 ND2 32.11
A GLU S 99 -74.6 -14.7 N 35.85 CA 36.39 C 33.45 O 36.86 CB 41.61 CG 44.0 CD 43.46 OE1 40.41 OE2 47.09
A TYR S 9 -102.0 -27.5 N 33.23 CA 34.1 C 33.65 O 34.4 CB 32.69 CG 31.15 CD1 31.73 CD2 31.54 CE1 33.84 CE2 33.16 CZ 35.4 OH 38.16
A TRP E 0 -144.2 106.0 N 32.4 CA 30.43 C 29.87 O 26.15 CB 31.31 CG 30.82 CD1 33.44 CD2 30.48 NE1 32.08 CE2 32.01 CE3 32.21 CZ2 31.11 CZ3 32.67 CH2 31.19
A PHE E 48 -150.6 163.3 N 28.78 CA 31.12 C 29.2 O 31.84 CB 34.7 CG 31.82 CD1 31.32 CD2 35.69 CE1 31.36 CE2 37.64 CZ 35.18
A VAL E 19 -80.1 137.0 N 32.78 CA 33.41 C 31.64 O 34.5 CB 32.75 CG1 33.33 CG2 35.08
A ASN - 31 -70.3 -178.4 N 33.44 CA 37.02 C 40.16 O 37.91 CB 35.81 CG 34.05 OD1 35.87 ND2 27.02
A GLU T 182 -60.2 -47.5 N 47.68 CA 53.14 C 48.61 O 48.28 CB 61.88 CG 71.14 CD 75.21 OE1 66.55 OE2 76.57
A ASP T 78 -81.1 0.3 N 41.96 CA 40.18 C 38.85 O 37.54 CB 43.01 CG 43.77 OD1 49.38 OD2 46.44
A LYS S 89 64.0 32.7 N 38.36 CA 43.17 C 43.86 O 35.52 CB 47.13 CG 49.3 CD 54.27 CE 59.1 NZ 59.93
A ASN S 18 -128.0 3.7 N 43.53 CA 39.87 C 41.53 O 39.4 CB 36.5 CG 35.89 OD1 35.03 ND2 32.6
A ALA - 0 -154.8 161.2 N 36.01 CA 34.97 C 32.79 O 33.02 CB 36.33
A MET E 1 -108.3 145.7 N 32.88 CA 33.85 C 35.51 O 37.43 CB 34.79 CG 37.43 SD 34.27 CE 37.25
A VAL E 4 -118.1 124.7 N 34.52 CA 33.42 C 32.49 O 32.05 CB 31.92 CG1 31.36 CG2 33.47
A PHE E 0 -105.1 105.0 N 31.75 CA 29.95 C 32.03 O 33.33 CB 31.11 CG 28.88 CD1 29.32 CD2 30.0 CE1 29.78 CE2 30.65 CZ 29.22
A ARG E 76 -108.8 127.2 N 33.37 CA 32.36 C 32.54 O 32.68 CB 34.76 CG 37.42 CD 40.15 NE 41.19 CZ 44.64 NH1 49.77 NH2 40.65
A ALA E 0 -125.1 88.0 N 31.63 CA 33.32 C 33.34 O 34.8 CB 29.58
A PRO E 13 -77.0 156.5 N 35.64 CA 36.05 C 37.51 O 35.96 CB 36.51 CG 38.36 CD 37.62
A ILE - 1 -102.0 116.5 N 40.36 CA 42.46 C 42.63 O 40.98 CB 43.55 CG1 45.6 CG2 43.76 CD1 41.8
A ARG - 98 -142.3 157.1 N 42.92 CA 47.26 C 48.24 O 41.38 CB 46.97 CG 47.16 CD 47.81 NE 47.73 CZ 44.75 NH1 41.38 NH2 38.47
A SER S 67 -80.0 147.8 N 54.67 CA 55.79 C 48.37 O 42.08 CB 58.62 OG 62.57
A ASN S 121 40.5 72.0 N 49.88 CA 54.57 C 54.43 O 52.46 CB 58.35 CG 56.02 OD1 52.75 ND2 51.39
A ASN B 22 -101.5 99.5 N 52.26 CA 49.36 C 46.02 O 45.2 CB 47.06 CG 46.47 OD1 48.9 ND2 41.05
A GLY T 60 51.7 -134.0 N 41.78 CA 41.65 C 46.57 O 47.24
A THR T 118 -92.6 -0.2 N 49.81 CA 49.45 C 50.84 O 49.58 CB 48.6 OG1 46.11 CG2 45.48
A THR B 23 -71.2 118.7 N 55.72 CA 54.1 C 54.83 O 48.25 CB 56.38 OG1 58.01 CG2 57.59
A PRO - 71 -60.2 149.4 N 51.68 CA 54.32 C 52.14 O 57.25 CB 56.0 CG 53.77 CD 54.3
A ASN S 45 -64.3 -25.9 N 48.9 CA 53.18 C 50.6 O 52.39 CB 56.46 CG 55.74 OD1 55.51 ND2 54.89
A SER S 73 -93.3 -19.9 N 51.21 CA 52.43 C 54.88 O 52.95 CB 48.94 OG 47.9
A SER S 48 -65.6 147.3 N 52.48 CA 49.06 C 47.27 O 50.31 CB 47.18 OG 50.25
A TYR - 63 -79.8 171.0 N 45.67 CA 44.37 C 42.04 O 40.7 CB 42.75 CG 43.94 CD1 45.0 CD2 47.54 CE1 51.1 CE2 49.04 CZ 51.01 OH 52.34
A VAL E 12 -122.8 126.7 N 40.48 CA 38.98 C 37.84 O 35.92 CB 40.18 CG1 40.59 CG2 42.16
A ARG E 56 -126.1 143.0 N 37.51 CA 38.23 C 37.35 O 35.57 CB 42.54 CG 44.19 CD 50.37 NE 49.24 CZ 48.89 NH1 48.9 NH2 50.06
A SER E 0 -120.6 99.1 N 35.33 CA 35.53 C 33.89 O 31.87 CB 34.22 OG 34.18
A GLU E 0 -157.0 154.3 N 37.56 CA 40.64 C 36.58 O 40.2 CB 44.15 CG 44.36 CD 43.13 OE1 43.96 OE2 40.33
A LEU E 0 -89.7 138.6 N 35.34 CA 37.18 C 33.9 O 30.48 CB 38.73 CG 43.98 CD1 43.16 CD2 45.87
A ARG E 15 -111.9 130.9 N 32.26 CA 33.94 C 35.43 O 36.01 CB 33.7 CG 36.52 CD 38.26 NE 36.34 CZ 34.82 NH1 31.85 NH2 35.0
A GLU E 0 -54.3 142.9 N 34.73 CA 37.08 C 35.31 O 35.55 CB 35.94 CG 37.87 CD 34.95 OE1 28.11 OE2 34.56
A ARG B 16 -131.6 171.5 N 35.09 CA 38.4 C 37.36 O 35.24 CB 40.34 CG 42.37 CD 46.55 NE 46.15 CZ 39.99 NH1 44.86 NH2 35.12
A LYS - 98 -61.1 158.0 N 34.77 CA 35.71 C 34.55 O 36.06 CB 41.4 CG 46.51 CD 48.08 CE 50.51 NZ 55.86
A GLU T 136 -71.5 -15.6 N 35.07 CA 36.02 C 34.24 O 32.75 CB 37.35 CG 40.0 CD 42.08 OE1 41.39 OE2 42.77
A ASP T 108 -101.1 -4.5 N 36.66 CA 37.16 C 37.59 O 40.94 CB 36.92 CG 41.02 OD1 38.09 OD2 42.83
A GLY S 17 81.7 5.3 N 38.21 CA 36.64 C 38.59 O 37.9
A SER S 77 -63.0 -27.6 N 41.45 CA 39.85 C 41.32 O 41.92 CB 40.47 OG 37.82
A ALA S 32 -173.7 166.7 N 45.41 CA 46.69 C 42.78 O 42.71 CB 45.17
A ASP B 44 -60.1 136.5 N 42.66 CA 40.79 C 41.59 O 41.06 CB 38.05 CG 37.83 OD1 39.79 OD2 35.12
A ILE - 35 -100.7 145.8 N 41.44 CA 38.44 C 36.97 O 37.75 CB 39.42 CG1 38.2 CG2 38.78 CD1 39.68
A TYR - 104 -130.2 134.7 N 35.81 CA 36.5 C 36.72 O 38.72 CB 35.31 CG 33.82 CD1 33.06 CD2 34.27 CE1 35.69 CE2 33.64 CZ 38.24 OH 40.33
A TRP B 18 -129.2 -178.6 N 37.74 CA 36.43 C 35.33 O 32.16 CB 36.52 CG 36.69 CD1 36.98 CD2 36.01 NE1 37.01 CE2 37.49 CE3 36.41 CZ2 37.97 CZ3 35.88 CH2 37.46
A THR - 57 -124.1 167.0 N 35.74 CA 38.58 C 36.97 O 33.67 CB 39.47 OG1 37.99 CG2 42.76
A THR S 1 -70.2 -2.9 N 35.97 CA 35.49 C 33.24 O 32.05 CB 36.79 OG1 34.79 CG2 37.67
A THR S 83 -85.8 129.2 N 35.39 CA 37.21 C 35.28 O 33.79 CB 41.5 OG1 39.58 CG2 40.73
A GLY S 8 101.6 -165.1 N 34.24 CA 34.27 C 36.99 O 39.92
A THR E 38 -114.0 126.8 N 35.9 CA 35.81 C 37.27 O 37.28 CB 36.22 OG1 41.86 CG2 34.83
A HIS E 7 -137.9 128.5 N 36.19 CA 35.36 C 34.06 O 37.13 CB 35.9 CG 36.92 ND1 39.48 CD2 38.54 CE1 38.49 NE2 36.03
A VAL E 0 -134.9 139.0 N 29.86 CA 31.05 C 31.53 O 33.62 CB 31.83 CG1 30.39 CG2 34.12
A VAL E 0 -125.9 130.0 N 31.92 CA 31.48 C 30.76 O 33.16 CB 30.03 CG1 30.24 CG2 29.89
A TYR E 3 -116.8 136.9 N 28.72 CA 28.93 C 29.64 O 27.79 CB 30.39 CG 27.42 CD1 28.29 CD2 30.02 CE1 32.07 CE2 30.93 CZ 31.69 OH 28.56
A VAL E 0 -138.3 132.3 N 29.96 CA 29.6 C 28.14 O 29.01 CB 31.36 CG1 33.08 CG2 32.19
A LYS E 37 -106.5 119.0 N 30.55 CA 31.9 C 30.28 O 31.4 CB 35.74 CG 38.7 CD 40.05 CE 45.63 NZ 50.01
A GLN E 0 -157.2 166.7 N 30.74 CA 28.45 C 29.92 O 29.72 CB 29.12 CG 29.47 CD 29.71 OE1 30.1 NE2 32.72
A ALA E 0 -131.9 139.4 N 30.19 CA 30.08 C 30.84 O 30.82 CB 33.2
A ILE E 1 -90.4 119.8 N 32.38 CA 33.16 C 32.89 O 36.15 CB 33.01 CG1 32.09 CG2 31.33 CD1 33.83
A THR E 34 -108.5 -18.6 N 32.73 CA 32.85 C 31.81 O 32.29 CB 32.35 OG1 31.36 CG2 31.36
A GLN E 47 -154.0 147.4 N 32.87 CA 34.54 C 31.78 O 29.58 CB 37.97 CG 45.51 CD 48.76 OE1 60.94 NE2 49.89
A LEU - 15 -126.6 155.0 N 34.02 CA 34.39 C 35.93 O 37.36 CB 34.45 CG 34.91 CD1 34.51 CD2 33.04
A PRO - 5 -55.3 174.8 N 35.03 CA 34.67 C 35.96 O 34.47 CB 35.38 CG 34.82 CD 36.38
A ILE S 72 -90.8 -47.6 N 40.27 CA 42.58 C 39.73 O 35.74 CB 46.9 CG1 47.85 CG2 46.64 CD1 49.38
A VAL S 73 -84.1 -58.6 N 37.89 CA 43.47 C 44.93 O 49.9 CB 45.71 CG1 46.73 CG2 44.81
A LYS S 35 -110.5 81.2 N 43.85 CA 43.03 C 41.5 O 41.0 CB 41.41 CG 45.57 CD 45.15 CE 44.12 NZ 44.55
A ASP - 56 -78.4 66.7 N 36.33 CA 35.12 C 36.29 O 32.73 CB 36.19 CG 33.97 OD1 34.11 OD2 34.91
A HIS E 38 -133.6 138.3 N 37.15 CA 37.57 C 38.17 O 40.03 CB 40.81 CG 41.87 ND1 39.2 CD2 43.09 CE1 40.14 NE2 42.98
A LEU E 0 -157.6 140.6 N 33.58 CA 34.82 C 32.24 O 31.65 CB 34.7 CG 35.33 CD1 34.55 CD2 39.28
A VAL E 4 -111.9 132.0 N 29.89 CA 29.33 C 31.79 O 34.57 CB 27.74 CG1 28.94 CG2 26.79
A ALA E 0 -105.5 -102.5 N 33.47 CA 37.01 C 33.92 O 38.16 CB 38.12
A THR E 1 -71.0 144.2 N 33.69 CA 31.23 C 30.87 O 28.98 CB 31.25 OG1 29.02 CG2 32.76
A GLN E 2 -147.3 147.1 N 32.05 CA 34.53 C 33.46 O 34.72 CB 36.22 CG 39.57 CD 45.74 OE1 48.62 NE2 49.43
A ILE E 0 -106.8 131.5 N 32.91 CA 34.83 C 39.69 O 38.09 CB 33.88 CG1 33.96 CG2 34.55 CD1 33.88
A HIS E 22 -123.4 139.9 N 38.57 CA 42.75 C 41.15 O 42.32 CB 47.48 CG 55.65 ND1 55.8 CD2 57.58 CE1 63.19 NE2 64.75
A GLY - 3 -124.0 -167.3 N 42.85 CA 42.8 C 46.18 O 46.76
A ASP - 56 -75.2 133.7 N 52.17 CA 52.31 C 52.5 O 49.42 CB 56.59 CG 60.22 OD1 66.88 OD2 49.82
A LYS G 160 -47.5 -49.2 N 54.72 CA 56.22 C 53.28 O 45.8 CB 60.81 CG 71.12 CD 76.89 CE 75.83 NZ 74.14
A SER G 116 -55.6 -25.1 N 56.09 CA 58.31 C 54.99 O 50.08 CB 54.35 OG 55.26
A ALA G 62 -100.5 13.4 N 49.24 CA 45.26 C 42.49 O 44.57 CB 45.79
A GLY T 41 67.7 17.5 N 42.71 CA 40.22 C 43.57 O 41.34
A ILE - 13 -99.1 -64.4 N 39.0 CA 37.18 C 37.97 O 37.06 CB 40.2 CG1 38.23 CG2 41.34 CD1 36.56
A ASP S 28 53.9 -128.7 N 39.24 CA 40.41 C 40.28 O 39.09 CB 41.56 CG 45.09 OD1 42.12 OD2 45.92
A ASP S 33 -81.1 78.2 N 37.88 CA 36.87 C 33.38 O 35.75 CB 36.89 CG 35.67 OD1 36.22 OD2 32.78
A ALA - 0 -57.4 -39.4 N 32.42 CA 31.74 C 31.39 O 28.06 CB 32.35
A MET E 1 -154.9 115.0 N 32.02 CA 33.6 C 34.54 O 33.3 CB 33.17 CG 32.1 SD 31.62 CE 30.91
A VAL E 1 -136.4 154.3 N 33.62 CA 33.5 C 32.05 O 34.98 CB 35.16 CG1 35.73 CG2 35.31
A MET E 0 -95.5 130.5 N 33.75 CA 33.9 C 32.68 O 32.85 CB 35.98 CG 40.52 SD 42.88 CE 38.45
A ARG E 41 -130.6 143.0 N 32.01 CA 32.18 C 33.0 O 34.86 CB 33.72 CG 34.34 CD 32.43 NE 32.15 CZ 33.09 NH1 30.98 NH2 28.39
A LEU E 0 -121.6 123.8 N 35.47 CA 34.01 C 34.23 O 34.55 CB 35.56 CG 35.84 CD1 36.96 CD2 33.79
A GLU E 58 -123.8 108.7 N 34.71 CA 33.54 C 34.1 O 34.33 CB 33.89 CG 35.85 CD 34.67 OE1 32.89 OE2 40.82
A GLY T 18 63.7 -115.7 N 34.54 CA 32.49 C 33.23 O 31.96
A ASN T 94 -99.2 -2.1 N 34.56 CA 32.78 C 32.86 O 35.4 CB 36.78 CG 36.47 OD1 37.81 ND2 37.58
A HIS E 53 -86.5 110.7 N 31.75 CA 31.12 C 31.74 O 31.32 CB 28.14 CG 27.62 ND1 29.36 CD2 25.1 CE1 26.76 NE2 25.66
A LEU E 0 -109.6 120.0 N 30.44 CA 31.95 C 34.04 O 33.63 CB 31.68 CG 31.5 CD1 31.18 CD2 30.43
A PHE E 1 -144.8 168.9 N 35.36 CA 35.85 C 37.78 O 36.99 CB 34.44 CG 33.07 CD1 32.69 CD2 31.85 CE1 33.23 CE2 31.57 CZ 33.45
A ALA E 0 -102.0 136.7 N 37.7 CA 36.84 C 35.88 O 35.63 CB 37.34
A SER E 4 -128.8 139.8 N 37.29 CA 36.38 C 32.23 O 33.26 CB 35.87 OG 32.4
A PHE S 0 -120.8 93.9 N 31.41 CA 32.28 C 35.2 O 38.63 CB 32.25 CG 31.95 CD1 33.6 CD2 32.93 CE1 35.88 CE2 33.5 CZ 34.41
A ASN T 16 52.8 46.4 N 37.09 CA 36.75 C 41.03 O 46.4 CB 38.15 CG 38.04 OD1 39.84 ND2 33.94
A GLY T 52 53.0 42.5 N 43.74 CA 42.92 C 43.28 O 39.3
A GLY T 39 92.2 -1.9 N 39.64 CA 41.98 C 42.5 O 43.15
A LYS T 173 -86.9 -22.9 N 41.85 CA 44.68 C 43.24 O 42.12 CB 50.32 CG 57.15 CD 63.27 CE 67.45 NZ 67.87
A LEU S 56 -88.3 -45.2 N 42.07 CA 40.95 C 42.07 O 41.82 CB 42.6 CG 40.73 CD1 39.31 CD2 40.62
A ARG S 50 -163.0 172.3 N 41.44 CA 39.49 C 39.33 O 43.27 CB 35.18 CG 36.49 CD 35.24 NE 38.32 CZ 35.19 NH1 36.01 NH2 34.75
A SER - 81 -73.0 150.5 N 36.11 CA 39.64 C 38.07 O 37.98 CB 37.19 OG 39.12
A ASP - 71 -49.7 144.7 N 35.2 CA 34.56 C 31.5 O 31.28 CB 33.65 CG 34.75 OD1 34.37 OD2 38.47
A LEU E 21 -121.2 121.8 N 32.61 CA 33.81 C 31.97 O 32.66 CB 36.95 CG 39.26 CD1 39.91 CD2 43.86
A THR E 65 -77.2 135.9 N 30.09 CA 31.12 C 29.84 O 29.48 CB 33.14 OG1 27.92 CG2 30.66
A ILE E 23 -95.3 -53.0 N 30.45 CA 32.06 C 31.97 O 33.87 CB 31.63 CG1 32.37 CG2 32.1 CD1 33.07
A LYS E 72 -146.1 145.7 N 35.24 CA 38.36 C 36.43 O 33.56 CB 42.94 CG 51.26 CD 58.6 CE 59.08 NZ 58.37
A THR S 109 -99.3 -10.4 N 33.93 CA 33.51 C 32.42 O 30.98 CB 34.64 OG1 32.34 CG2 34.66
A ASN - 97 -126.4 50.4 N 32.83 CA 35.29 C 36.5 O 43.32 CB 33.52 CG 32.92 OD1 33.45 ND2 33.73
A TYR - 1 -77.7 124.3 N 36.98 CA 36.17 C 36.76 O 35.04 CB 35.67 CG 35.56 CD1 35.25 CD2 33.43 CE1 36.05 CE2 34.64 CZ 34.32 OH 34.38
A ASN - 95 -95.4 131.6 N 38.29 CA 40.99 C 41.57 O 43.97 CB 41.58 CG 46.45 OD1 52.76 ND2 36.69
A LEU T 77 -57.1 131.0 N 39.52 CA 37.15 C 35.35 O 33.97 CB 38.7 CG 40.04 CD1 41.7 CD2 39.99
A GLY T 39 96.0 3.9 N 36.04 CA 37.67 C 40.64 O 43.01
A THR - 40 -80.2 121.0 N 40.48 CA 39.64 C 34.38 O 30.48 CB 44.57 OG1 43.77 CG2 42.24
A VAL E 30 -75.8 126.0 N 30.72 CA 31.82 C 32.62 O 31.23 CB 28.85 CG1 29.22 CG2 30.84
A HIS E 1 -127.0 173.1 N 29.63 CA 30.28 C 30.1 O 29.74 CB 30.79 CG 32.77 ND1 34.71 CD2 36.48 CE1 34.58 NE2 35.33
A GLU E 3 -126.1 141.8 N 29.81 CA 30.16 C 31.86 O 37.7 CB 30.82 CG 28.86 CD 29.6 OE1 25.76 OE2 33.32
A VAL E 0 -140.2 142.1 N 31.28 CA 28.93 C 28.61 O 31.15 CB 25.94 CG1 25.91 CG2 27.0
A ILE E 0 -127.2 128.0 N 30.54 CA 30.29 C 29.9 O 32.17 CB 29.22 CG1 29.55 CG2 29.36 CD1 29.94
A PHE E 0 -99.2 133.0 N 28.3 CA 27.69 C 29.38 O 28.89 CB 27.62 CG 28.07 CD1 28.01 CD2 30.97 CE1 29.29 CE2 31.42 CZ 31.26
A GLU E 18 -132.8 117.8 N 33.02 CA 33.0 C 37.17 O 38.71 CB 33.06 CG 32.99 CD 34.28 OE1 35.26 OE2 34.1
A VAL E 0 -112.6 125.9 N 37.46 CA 39.26 C 39.27 O 43.49 CB 43.31 CG1 43.73 CG2 44.47
A ILE E 51 -128.9 95.5 N 36.09 CA 37.62 C 36.25 O 37.57 CB 38.06 CG1 36.23 CG2 35.38 CD1 39.76
A ASN T 92 55.4 45.1 N 36.69 CA 36.27 C 34.73 O 37.39 CB 39.07 CG 35.42 OD1 39.72 ND2 29.89
A GLY T 0 99.4 -24.5 N 33.75 CA 33.37 C 33.78 O 35.28
A LYS E 67 -81.3 123.4 N 35.16 CA 33.94 C 33.67 O 32.31 CB 37.04 CG 42.38 CD 47.04 CE 50.08 NZ 51.96
A HIS E 0 -102.2 118.6 N 31.71 CA 31.25 C 31.8 O 31.92 CB 30.33 CG 29.99 ND1 31.91 CD2 30.0 CE1 35.78 NE2 31.59
A TYR E 47 -109.5 144.0 N 30.53 CA 33.91 C 32.74 O 32.64 CB 33.86 CG 35.6 CD1 34.14 CD2 36.38 CE1 36.36 CE2 37.34 CZ 38.15 OH 43.89
A LEU E 0 -119.1 119.0 N 31.25 CA 30.26 C 30.54 O 30.65 CB 30.52 CG 31.24 CD1 28.43 CD2 29.93
A TYR E 22 -112.7 140.1 N 32.24 CA 31.97 C 30.58 O 33.02 CB 33.94 CG 35.87 CD1 35.49 CD2 37.82 CE1 38.81 CE2 37.56 CZ 38.35 OH 33.4
A TYR E 15 -144.7 139.9 N 33.0 CA 34.66 C 35.59 O 34.1 CB 32.76 CG 35.6 CD1 35.67 CD2 34.69 CE1 33.66 CE2 34.88 CZ 33.16 OH 33.45
A SER E 7 -154.6 146.9 N 37.85 CA 37.1 C 34.62 O 33.54 CB 36.19 OG 40.71
A GLU S 75 -115.2 12.6 N 37.36 CA 39.0 C 38.75 O 40.05 CB 36.61 CG 37.16 CD 36.87 OE1 34.71 OE2 33.0
A ASP S 79 -100.7 -8.2 N 40.38 CA 39.58 C 38.34 O 42.03 CB 40.06 CG 42.33 OD1 41.83 OD2 39.15
A GLY S 32 91.2 3.0 N 40.28 CA 39.35 C 36.57 O 37.64
A LYS - 111 -116.8 7.2 N 34.89 CA 38.86 C 36.4 O 36.48 CB 44.19 CG 50.3 CD 57.43 CE 54.94 NZ 54.29
A LEU H 0 -66.2 -44.1 N 34.97 CA 32.14 C 32.87 O 31.62 CB 32.35 CG 35.38 CD1 36.11 CD2 37.28
A ALA H 29 -62.1 -43.6 N 32.99 CA 33.34 C 36.99 O 37.71 CB 30.04
A GLU H 115 -63.8 -41.5 N 43.19 CA 51.33 C 49.2 O 48.62 CB 57.8 CG 65.98 CD 69.95 OE1 74.54 OE2 61.77
A ALA H 8 -68.4 -42.5 N 43.68 CA 40.26 C 38.57 O 41.12 CB 40.26
A TYR H 61 -67.9 -36.9 N 38.57 CA 39.44 C 40.06 O 40.72 CB 39.86 CG 41.33 CD1 44.38 CD2 44.6 CE1 47.98 CE2 44.38 CZ 48.97 OH 46.61
A ALA H 82 -70.1 -31.0 N 38.79 CA 42.46 C 46.42 O 41.0 CB 42.27
A ASN H 135 -87.8 -10.7 N 47.13 CA 49.57 C 49.13 O 49.13 CB 49.53 CG 53.82 OD1 56.37 ND2 47.81
A GLY T 70 88.8 10.7 N 50.53 CA 53.97 C 57.07 O 54.15
A SER - 78 -119.1 49.4 N 57.91 CA 55.58 C 51.81 O 47.21 CB 55.64 OG 54.77
A ALA - 7 -106.5 -10.9 N 49.99 CA 49.42 C 45.2 O 38.74 CB 52.28
A ALA G 67 -44.0 -37.9 N 45.91 CA 45.21 C 41.02 O 42.12 CB 45.12
A ALA G 92 -49.6 -31.3 N 38.37 CA 41.91 C 39.03 O 40.97 CB 40.53
A TYR G 42 -97.8 8.2 N 37.88 CA 34.37 C 33.88 O 32.95 CB 34.61 CG 31.79 CD1 34.12 CD2 31.94 CE1 33.09 CE2 31.66 CZ 32.33 OH 32.84
A LEU B 19 -67.5 138.6 N 36.44 CA 36.89 C 37.08 O 34.34 CB 36.93 CG 40.15 CD1 40.71 CD2 39.74
A ILE - 27 -92.0 105.0 N 37.62 CA 39.34 C 42.27 O 38.8 CB 39.95 CG1 39.98 CG2 41.47 CD1 41.38
A LYS - 121 -82.9 156.3 N 43.57 CA 46.57 C 42.67 O 45.41 CB 53.56 CG 61.19 CD 72.36 CE 81.43 NZ 83.43
A ASP B 46 -124.9 108.2 N 43.98 CA 48.72 C 50.69 O 47.01 CB 45.42 CG 46.88 OD1 47.96 OD2 42.32
A GLY T 74 49.9 -121.9 N 61.88 CA 66.44 C 66.97 O 56.11
A GLY T 84 -104.1 24.7 N 63.51 CA 60.61 C 58.59 O 60.76
A ASN B 66 -112.9 135.6 N 57.34 CA 49.76 C 46.99 O 45.72 CB 48.73 CG 45.38 OD1 46.78 ND2 36.91
A ASP S 89 -68.5 -20.7 N 43.9 CA 44.08 C 40.07 O 38.31 CB 44.59 CG 49.84 OD1 49.9 OD2 47.83
A TYR S 53 -114.3 147.9 N 36.56 CA 34.12 C 33.38 O 35.51 CB 37.06 CG 40.88 CD1 44.07 CD2 46.82 CE1 46.55 CE2 49.28 CZ 49.16 OH 48.67
A VAL S 2 -93.6 -18.5 N 31.93 CA 31.6 C 32.82 O 32.64 CB 30.73 CG1 32.12 CG2 30.72
A MET E 17 -162.2 143.0 N 29.05 CA 31.43 C 30.56 O 31.29 CB 30.46 CG 31.07 SD 33.19 CE 34.33
A ASP E 82 -122.8 115.6 N 31.47 CA 32.57 C 33.62 O 34.22 CB 32.62 CG 33.49 OD1 34.06 OD2 31.68
A LEU - 53 -160.7 144.6 N 33.46 CA 35.26 C 35.72 O 36.66 CB 36.58 CG 39.78 CD1 40.6 CD2 43.67
A ASN - 101 -113.9 137.8 N 33.51 CA 37.15 C 37.81 O 36.71 CB 36.51 CG 37.32 OD1 39.43 ND2 36.23
A TYR - 22 -162.2 166.2 N 34.76 CA 35.86 C 36.81 O 34.29 CB 32.6 CG 30.78 CD1 32.2 CD2 32.51 CE1 30.96 CE2 30.41 CZ 31.44 OH 32.23
A ASP S 93 -119.3 -170.9 N 39.32 CA 43.28 C 42.03 O 41.75 CB 44.67 CG 48.92 OD1 46.56 OD2 52.69
A GLN S 76 56.9 42.8 N 40.67 CA 41.38 C 38.92 O 37.09 CB 40.34 CG 44.9 CD 49.53 OE1 50.05 NE2 48.59
A SER B 0 -105.4 147.1 N 37.53 CA 38.97 C 39.17 O 36.56 CB 41.66 OG 47.79
A TYR E 30 -153.5 162.2 N 37.23 CA 36.07 C 33.34 O 33.55 CB 34.04 CG 36.24 CD1 37.51 CD2 35.41 CE1 40.22 CE2 34.9 CZ 36.86 OH 38.13
A PHE E 0 -97.1 154.3 N 30.09 CA 29.86 C 31.88 O 35.16 CB 30.99 CG 31.49 CD1 30.83 CD2 35.25 CE1 33.02 CE2 38.72 CZ 37.36
A LYS E 19 -132.9 141.5 N 32.56 CA 34.0 C 35.15 O 30.55 CB 35.01 CG 41.39 CD 44.15 CE 48.33 NZ 53.64
A ILE E 0 -130.9 140.4 N 35.13 CA 35.86 C 32.39 O 33.09 CB 37.7 CG1 38.5 CG2 37.5 CD1 40.56
A GLY E 0 131.1 -132.9 N 31.2 CA 28.89 C 29.15 O 33.23
A ASN E 0 -133.4 110.5 N 29.4 CA 30.51 C 31.28 O 32.66 CB 29.42 CG 30.4 OD1 27.57 ND2 27.61
A TYR E 46 -114.8 97.8 N 32.39 CA 34.44 C 33.31 O 33.97 CB 36.38 CG 38.37 CD1 38.78 CD2 39.69 CE1 42.97 CE2 40.78 CZ 39.68 OH 35.64
A THR E 0 -82.1 125.6 N 31.73 CA 31.01 C 34.4 O 33.17 CB 31.18 OG1 31.41 CG2 31.05
A GLN - 15 -87.7 54.1 N 33.26 CA 35.02 C 38.01 O 39.09 CB 36.71 CG 35.88 CD 33.26 OE1 32.26 NE2 32.21
A SER - 0 -144.9 176.2 N 40.48 CA 42.85 C 43.11 O 47.4 CB 41.13 OG 39.23
A ASN - 6 -164.9 -175.8 N 43.93 CA 44.65 C 43.59 O 47.78 CB 45.42 CG 47.17 OD1 45.59 ND2 44.27
A SER H 17 -68.0 -27.5 N 46.79 CA 51.21 C 50.47 O 52.34 CB 48.07 OG 49.7
A GLU H 130 -73.6 -35.0 N 53.71 CA 54.48 C 52.88 O 52.14 CB 53.54 CG 55.37 CD 55.1 OE1 55.2 OE2 53.76
A LYS H 104 -86.0 -34.7 N 51.91 CA 56.36 C 54.67 O 57.45 CB 58.78 CG 60.42 CD 63.77 CE 64.53 NZ 67.06
A GLU H 5 -80.4 -28.2 N 50.25 CA 50.71 C 51.67 O 46.44 CB 47.69 CG 47.44 CD 47.59 OE1 47.76 OE2 45.36
A GLY G 36 51.9 -117.8 N 54.48 CA 53.88 C 53.33 O 54.8
A SER G 114 -65.7 -24.0 N 53.43 CA 53.87 C 54.93 O 48.71 CB 55.22 OG 54.38
A TYR G 115 -81.7 -2.0 N 56.35 CA 57.5 C 48.18 O 45.08 CB 57.61 CG 59.19 CD1 59.81 CD2 60.02 CE1 60.54 CE2 60.84 CZ 61.57 OH 61.21
A THR T 33 -56.2 132.6 N 43.48 CA 45.23 C 50.42 O 59.5 CB 42.92 OG1 37.66 CG2 43.83
A GLY T 52 90.4 -12.6 N 53.89 CA 52.44 C 52.14 O 54.09
A ASP - 69 -53.7 135.7 N 51.72 CA 55.57 C 57.69 O 48.7 CB 57.58 CG 62.49 OD1 59.79 OD2 65.11
A PRO T 107 -46.0 -44.9 N 64.87 CA 68.18 C 60.94 O 59.39 CB 70.27 CG 69.37 CD 70.23
A ASN T 97 -95.8 8.0 N 59.84 CA 59.33 C 53.65 O 58.41 CB 58.13 CG 66.4 OD1 70.15 ND2 71.79
A ASN - 0 -92.0 78.4 N 46.68 CA 46.58 C 45.77 O 41.82 CB 45.34 CG 47.93 OD1 48.35 ND2 52.45
A TYR E 25 -150.5 154.8 N 40.35 CA 38.54 C 38.59 O 41.97 CB 38.77 CG 35.31 CD1 35.97 CD2 37.26 CE1 36.49 CE2 37.48 CZ 37.87 OH 36.77
A GLY E 0 -95.2 148.6 N 38.38 CA 37.85 C 36.19 O 34.36
A GLU E 20 -150.1 143.6 N 36.97 CA 35.44 C 33.54 O 30.22 CB 35.51 CG 33.83 CD 33.06 OE1 33.86 OE2 32.18
A VAL E 0 -139.7 128.4 N 34.08 CA 33.84 C 31.49 O 31.77 CB 30.81 CG1 29.03 CG2 30.94
A VAL E 10 -111.8 120.9 N 32.98 CA 35.24 C 35.69 O 36.92 CB 36.04 CG1 37.37 CG2 36.49
A VAL E 0 -112.1 115.2 N 34.25 CA 32.69 C 31.22 O 30.27 CB 30.25 CG1 31.32 CG2 30.93
A TYR E 45 -85.9 -38.4 N 29.86 CA 28.31 C 29.93 O 34.77 CB 27.52 CG 28.45 CD1 28.39 CD2 30.64 CE1 27.71 CE2 28.45 CZ 27.83 OH 30.35
A ASP E 79 -159.2 158.4 N 30.53 CA 29.28 C 28.47 O 27.37 CB 33.14 CG 33.68 OD1 38.58 OD2 32.98
A TYR E 7 -166.0 159.5 N 29.49 CA 30.58 C 30.24 O 28.82 CB 31.38 CG 33.84 CD1 35.21 CD2 35.24 CE1 39.92 CE2 35.34 CZ 36.83 OH 39.11
A PHE E 69 -157.9 164.4 N 29.0 CA 30.21 C 29.35 O 31.06 CB 29.55 CG 30.8 CD1 31.3 CD2 29.44 CE1 32.0 CE2 29.71 CZ 30.45
A VAL E 24 -136.3 151.2 N 29.15 CA 29.88 C 30.54 O 27.19 CB 29.03 CG1 27.48 CG2 28.74
A SER E 44 -138.9 149.4 N 31.26 CA 34.26 C 36.28 O 35.34 CB 34.17 OG 34.74
A HIS E 65 -134.7 140.5 N 37.29 CA 39.33 C 38.93 O 34.97 CB 38.19 CG 37.4 ND1 40.2 CD2 37.61 CE1 38.06 NE2 37.39
A GLN E 135 -153.2 142.3 N 46.43 CA 56.78 C 62.04 O 59.11 CB 61.3 CG 65.37 CD 70.8 OE1 65.25 NE2 64.31
A HIS - 217 -156.6 360.0 N 76.34 CA 83.75 C 79.1 O 76.44 CB 89.68 CG 104.07 ND1 108.14 CD2 113.67 CE1 108.23 NE2 113.47
