A MET - 193 360.0 22.5 N 98.97 CA 101.44 C 101.62 O 92.73 CB 106.25 CG 107.64 SD 105.79 CE 94.29
A VAL - 33 -151.7 137.5 N 99.29 CA 97.43 C 94.91 O 87.22 CB 94.08 CG1 89.23 CG2 95.01
A ALA - 64 -54.4 128.7 N 93.75 CA 87.4 C 94.26 O 95.91 CB 83.33
A PRO G 82 -67.4 -25.3 N 98.31 CA 101.25 C 102.87 O 101.19 CB 96.93 CG 96.62 CD 92.07
A GLU G 164 -91.6 5.1 N 98.75 CA 90.69 C 79.5 O 70.74 CB 95.23 CG 100.0 CD 102.64 OE1 99.36 OE2 102.04
A SER G 16 -79.6 -7.4 N 71.34 CA 64.43 C 52.76 O 46.4 CB 68.98 OG 75.36
A ILE E 8 -90.2 123.1 N 47.66 CA 47.18 C 38.18 O 38.2 CB 48.88 CG1 52.5 CG2 46.1 CD1 53.7
A VAL E 51 -117.8 131.7 N 33.2 CA 34.65 C 28.29 O 28.41 CB 34.49 CG1 32.74 CG2 39.13
A LEU E 32 -107.5 131.6 N 26.89 CA 29.65 C 27.7 O 27.35 CB 32.67 CG 33.82 CD1 34.89 CD2 36.06
A ARG E 50 -162.8 165.1 N 23.27 CA 23.73 C 23.41 O 25.37 CB 23.38 CG 24.12 CD 25.32 NE 23.81 CZ 26.74 NH1 27.31 NH2 30.41
A VAL E 50 -70.8 134.9 N 23.43 CA 23.54 C 24.93 O 27.23 CB 26.95 CG1 29.82 CG2 28.04
A ALA - 2 -70.7 136.1 N 26.86 CA 26.91 C 30.42 O 27.89 CB 27.0
A ARG - 123 -84.6 152.9 N 27.7 CA 31.62 C 29.63 O 30.48 CB 31.8 CG 29.41 CD 29.65 NE 26.59 CZ 29.08 NH1 29.35 NH2 35.48
A LEU G 101 -50.5 -46.1 N 33.53 CA 35.48 C 36.83 O 39.22 CB 41.24 CG 42.78 CD1 43.78 CD2 45.56
A ASP G 107 -60.9 -11.6 N 37.87 CA 35.46 C 37.44 O 35.96 CB 34.77 CG 30.45 OD1 37.02 OD2 30.44
A GLU G 13 -96.2 11.1 N 33.17 CA 30.23 C 34.15 O 30.94 CB 31.91 CG 28.94 CD 31.78 OE1 27.2 OE2 32.39
A LEU H 39 -37.2 -50.6 N 40.19 CA 42.03 C 40.35 O 42.02 CB 44.28 CG 46.6 CD1 51.52 CD2 41.38
A GLU H 100 -71.0 -30.0 N 40.42 CA 38.19 C 37.5 O 31.83 CB 46.53 CG 48.16 CD 50.56 OE1 42.18 OE2 56.91
A GLN H 94 -77.9 -28.7 N 31.83 CA 34.33 C 28.2 O 25.73 CB 41.04 CG 43.12 CD 50.75 OE1 54.89 NE2 57.66
A VAL H 0 -65.1 -48.6 N 30.29 CA 28.99 C 26.96 O 25.28 CB 29.67 CG1 28.24 CG2 31.84
A ARG H 66 -52.4 -45.6 N 34.62 CA 33.33 C 34.14 O 30.09 CB 33.89 CG 37.66 CD 40.46 NE 49.64 CZ 53.94 NH1 61.52 NH2 48.7
A GLU H 89 -62.8 -44.6 N 37.08 CA 34.48 C 36.73 O 31.64 CB 41.74 CG 53.94 CD 62.73 OE1 68.28 OE2 66.04
A ILE H 0 -68.6 -35.2 N 35.58 CA 29.1 C 25.88 O 24.38 CB 32.4 CG1 35.9 CG2 29.05 CD1 41.2
A LEU I 0 -62.6 -43.8 N 27.75 CA 27.86 C 24.77 O 29.78 CB 25.08 CG 25.21 CD1 25.32 CD2 23.79
A HIS I 91 -57.9 -46.4 N 28.4 CA 32.22 C 30.99 O 34.17 CB 32.8 CG 44.44 ND1 52.43 CD2 49.75 CE1 46.2 NE2 50.3
A ARG I 81 -78.2 -48.5 N 36.23 CA 34.38 C 35.02 O 36.96 CB 41.83 CG 51.03 CD 56.09 NE 55.39 CZ 64.91 NH1 67.62 NH2 65.03
A ILE I 15 -114.2 -20.5 N 33.65 CA 33.88 C 31.39 O 35.94 CB 40.11 CG1 43.02 CG2 42.3 CD1 45.78
A TYR I 26 -88.7 -68.2 N 30.2 CA 30.67 C 31.23 O 30.55 CB 24.04 CG 26.69 CD1 30.12 CD2 28.92 CE1 27.76 CE2 27.48 CZ 29.1 OH 32.59
A TYR T 6 -55.7 -37.7 N 30.7 CA 35.55 C 38.6 O 36.79 CB 32.16 CG 30.52 CD1 30.89 CD2 30.86 CE1 32.82 CE2 33.61 CZ 33.85 OH 35.69
A PRO T 64 -62.9 -22.8 N 35.63 CA 39.57 C 37.97 O 44.36 CB 39.65 CG 39.84 CD 38.78
A GLU T 130 -114.9 -3.5 N 40.29 CA 39.97 C 38.1 O 45.89 CB 47.7 CG 51.94 CD 57.4 OE1 63.89 OE2 71.42
A GLU - 22 -73.6 120.6 N 33.1 CA 35.62 C 33.47 O 29.88 CB 37.68 CG 39.59 CD 51.61 OE1 54.28 OE2 46.16
A GLY H 1 -52.0 -41.9 N 28.81 CA 27.93 C 28.73 O 27.96
A ILE H 9 -63.7 -56.1 N 29.66 CA 30.01 C 31.29 O 29.53 CB 30.18 CG1 29.97 CG2 32.27 CD1 33.37
A THR H 4 -49.7 -53.4 N 25.71 CA 26.92 C 32.39 O 30.77 CB 28.71 OG1 31.14 CG2 31.17
A ILE H 37 -84.9 -10.1 N 34.15 CA 32.82 C 35.52 O 34.79 CB 33.33 CG1 36.71 CG2 31.52 CD1 41.5
A SER H 8 -84.9 -13.2 N 32.28 CA 33.51 C 32.39 O 32.04 CB 39.08 OG 45.12
A TYR B 10 -60.2 132.6 N 32.93 CA 32.11 C 35.49 O 33.76 CB 29.38 CG 26.52 CD1 27.72 CD2 28.44 CE1 27.69 CE2 25.29 CZ 26.28 OH 27.04
A VAL T 47 -77.3 -14.2 N 36.08 CA 33.66 C 35.69 O 43.15 CB 34.83 CG1 34.12 CG2 36.32
A HIS T 129 -115.3 49.2 N 35.2 CA 33.56 C 40.41 O 48.14 CB 37.16 CG 40.13 ND1 44.43 CD2 38.21 CE1 41.44 NE2 40.17
A GLY - 40 118.6 130.1 N 36.04 CA 35.12 C 41.54 O 32.59
A LYS S 147 -95.1 -23.1 N 41.88 CA 44.33 C 40.26 O 40.93 CB 50.93 CG 61.49 CD 66.01 CE 67.49 NZ 68.34
A SER S 91 -70.2 155.3 N 34.51 CA 37.25 C 35.13 O 30.44 CB 37.86 OG 47.64
A HIS - 30 -84.2 170.2 N 32.33 CA 29.68 C 29.38 O 29.22 CB 32.51 CG 31.37 ND1 35.24 CD2 30.37 CE1 38.23 NE2 35.37
A THR - 23 -113.0 169.6 N 29.89 CA 29.6 C 30.19 O 31.68 CB 29.69 OG1 27.91 CG2 33.31
A LEU H 120 -67.2 -34.8 N 29.33 CA 33.04 C 29.64 O 29.41 CB 38.02 CG 45.97 CD1 46.25 CD2 51.59
A ASP H 2 -74.0 -27.2 N 26.38 CA 28.38 C 30.03 O 33.84 CB 30.31 CG 33.2 OD1 28.71 OD2 29.34
A ASP H 8 -66.3 -52.7 N 26.83 CA 29.64 C 32.76 O 28.98 CB 30.56 CG 31.9 OD1 31.8 OD2 33.62
A GLU H 11 -54.2 -46.7 N 30.59 CA 31.92 C 28.31 O 26.79 CB 35.54 CG 36.17 CD 37.47 OE1 47.46 OE2 48.67
A ARG H 115 -56.8 -40.0 N 26.38 CA 27.69 C 27.84 O 25.91 CB 30.85 CG 36.3 CD 38.02 NE 39.17 CZ 37.91 NH1 37.59 NH2 36.53
A PHE H 36 -61.3 -52.8 N 26.76 CA 27.49 C 25.85 O 26.09 CB 28.05 CG 29.13 CD1 32.1 CD2 30.14 CE1 34.5 CE2 31.71 CZ 32.6
A SER H 3 -54.3 -42.4 N 27.55 CA 30.21 C 28.73 O 26.6 CB 27.69 OG 32.59
A LEU H 13 -78.0 -18.9 N 27.1 CA 26.89 C 28.32 O 32.98 CB 28.73 CG 32.84 CD1 31.77 CD2 31.74
A SER T 46 -60.0 -15.8 N 26.57 CA 25.54 C 27.87 O 24.41 CB 27.83 OG 29.49
A PHE T 13 -88.7 -14.4 N 24.58 CA 25.82 C 24.81 O 22.5 CB 25.29 CG 27.47 CD1 28.01 CD2 29.36 CE1 31.48 CE2 30.05 CZ 28.84
A VAL T 2 -59.4 -48.3 N 28.2 CA 29.72 C 29.04 O 30.21 CB 30.08 CG1 32.34 CG2 25.31
A GLU T 145 -67.5 -21.5 N 30.5 CA 33.93 C 33.28 O 30.76 CB 40.89 CG 46.51 CD 61.45 OE1 61.19 OE2 61.99
A GLN T 80 -78.9 -11.0 N 29.59 CA 30.59 C 30.81 O 30.85 CB 36.83 CG 37.52 CD 43.94 OE1 47.57 NE2 49.34
A GLY T 29 78.1 20.7 N 29.04 CA 28.72 C 30.94 O 26.39
A THR - 11 -116.3 26.4 N 27.81 CA 25.86 C 24.35 O 25.05 CB 27.46 OG1 26.45 CG2 28.62
A VAL E 0 -106.1 120.1 N 22.86 CA 22.62 C 24.4 O 28.71 CB 22.7 CG1 21.79 CG2 23.54
A VAL E 0 -107.9 133.2 N 21.02 CA 23.45 C 22.4 O 22.87 CB 25.34 CG1 26.31 CG2 28.04
A VAL E 0 -119.9 148.4 N 22.48 CA 25.92 C 29.52 O 31.07 CB 26.99 CG1 28.38 CG2 29.09
A ALA E 0 -103.8 132.2 N 28.18 CA 24.12 C 27.14 O 29.47 CB 26.19
A GLU E 36 -127.2 134.5 N 31.6 CA 35.82 C 36.5 O 34.45 CB 36.7 CG 41.78 CD 43.85 OE1 63.45 OE2 46.22
A ASP E 4 -85.1 100.7 N 38.17 CA 39.66 C 39.68 O 43.95 CB 41.11 CG 43.94 OD1 45.57 OD2 40.23
A SER T 60 -67.8 -34.0 N 40.98 CA 46.45 C 50.59 O 50.49 CB 46.0 OG 46.41
A ALA T 78 -59.0 -53.4 N 53.38 CA 53.9 C 58.07 O 61.59 CB 52.75
A ALA T 46 -78.1 -5.4 N 55.98 CA 52.2 C 51.92 O 55.51 CB 51.48
A LYS T 179 45.8 57.6 N 56.28 CA 60.7 C 55.65 O 48.59 CB 68.64 CG 80.61 CD 83.63 CE 84.33 NZ 88.11
A LYS E 79 -146.8 134.8 N 43.43 CA 42.48 C 40.01 O 33.83 CB 52.46 CG 61.38 CD 68.25 CE 71.96 NZ 74.59
A PHE E 13 -71.9 131.7 N 35.05 CA 31.98 C 32.24 O 34.97 CB 29.2 CG 29.59 CD1 29.38 CD2 27.71 CE1 34.89 CE2 27.46 CZ 29.35
A ILE E 0 -123.1 0.7 N 30.31 CA 31.36 C 27.34 O 28.61 CB 31.89 CG1 35.02 CG2 32.81 CD1 37.69
A GLY E 0 -160.8 159.1 N 27.59 CA 27.5 C 23.44 O 22.56
A VAL E 0 -154.9 143.0 N 20.18 CA 20.72 C 21.2 O 21.32 CB 22.31 CG1 23.76 CG2 22.37
A SER E 0 -137.8 131.6 N 21.17 CA 22.87 C 22.43 O 22.82 CB 24.03 OG 28.15
A ILE E 0 -120.8 126.2 N 21.27 CA 20.61 C 21.57 O 21.84 CB 23.42 CG1 24.16 CG2 22.55 CD1 26.74
A ALA E 0 -135.2 162.9 N 20.16 CA 21.34 C 22.01 O 21.31 CB 24.39
A GLY E 0 -163.3 171.2 N 25.37 CA 24.84 C 26.22 O 25.43
A PRO E 24 -75.2 152.3 N 27.86 CA 25.92 C 25.73 O 23.65 CB 27.53 CG 28.43 CD 29.54
A ILE E 7 -132.3 150.7 N 23.49 CA 26.63 C 27.32 O 25.13 CB 25.55 CG1 30.36 CG2 27.4 CD1 32.39
A GLN - 21 -159.5 162.7 N 26.54 CA 28.93 C 30.0 O 28.54 CB 33.69 CG 33.62 CD 38.36 OE1 47.13 NE2 33.33
A PRO T 57 -52.8 142.4 N 32.3 CA 32.27 C 27.48 O 28.37 CB 33.73 CG 33.03 CD 31.67
A GLY T 15 98.7 -21.3 N 26.54 CA 28.86 C 29.22 O 27.89
A ASP H 8 -62.8 -43.3 N 30.72 CA 28.39 C 24.65 O 25.68 CB 35.29 CG 40.75 OD1 45.27 OD2 48.6
A PRO H 11 -60.9 -39.9 N 25.57 CA 28.7 C 27.38 O 24.12 CB 28.62 CG 32.41 CD 28.68
A ASP H 40 -67.4 -39.5 N 30.22 CA 29.61 C 25.1 O 26.25 CB 33.53 CG 42.01 OD1 44.22 OD2 49.36
A ALA H 20 -64.3 -38.4 N 23.9 CA 22.24 C 24.15 O 22.05 CB 25.4
A MET H 11 -61.4 -44.3 N 22.0 CA 25.92 C 24.89 O 23.0 CB 23.79 CG 28.88 SD 29.8 CE 28.22
A VAL H 60 -60.7 -38.2 N 30.34 CA 33.37 C 29.41 O 27.66 CB 31.04 CG1 32.47 CG2 27.17
A GLU H 59 -67.6 -43.6 N 33.06 CA 33.82 C 35.69 O 32.55 CB 38.63 CG 47.89 CD 57.3 OE1 59.31 OE2 61.27
A GLU H 17 -59.9 -37.4 N 32.81 CA 31.01 C 30.49 O 32.26 CB 28.56 CG 33.77 CD 33.41 OE1 35.19 OE2 35.18
A ALA H 15 -58.6 -36.6 N 26.63 CA 29.63 C 31.98 O 33.09 CB 31.22
A ALA H 77 -63.1 -27.2 N 34.2 CA 37.6 C 35.5 O 37.07 CB 35.74
A THR H 104 -117.4 6.0 N 36.69 CA 40.88 C 38.96 O 34.01 CB 46.11 OG1 48.13 CG2 54.63
A THR S 21 -76.6 168.0 N 31.48 CA 31.07 C 31.84 O 30.14 CB 29.82 OG1 32.0 CG2 30.23
A GLU S 122 -64.3 -44.4 N 30.93 CA 32.74 C 32.33 O 30.38 CB 36.33 CG 34.18 CD 38.06 OE1 36.3 OE2 37.23
A THR - 44 -110.4 146.6 N 27.77 CA 23.85 C 22.98 O 24.1 CB 23.91 OG1 23.3 CG2 26.41
A LYS H 116 -62.0 -34.4 N 21.46 CA 24.64 C 27.13 O 28.49 CB 28.72 CG 29.02 CD 36.68 CE 36.87 NZ 37.87
A LYS H 13 -63.2 -49.8 N 24.77 CA 23.0 C 22.87 O 25.97 CB 25.14 CG 25.84 CD 23.21 CE 25.29 NZ 23.57
A TRP H 5 -62.6 -41.4 N 25.24 CA 24.91 C 23.62 O 23.76 CB 26.52 CG 27.53 CD1 25.82 CD2 28.16 NE1 26.09 CE2 27.72 CE3 30.59 CZ2 27.66 CZ3 32.96 CH2 27.63
A GLY H 4 -56.6 -44.1 N 27.03 CA 27.35 C 28.08 O 23.88
A ASP H 5 -62.7 -42.5 N 27.07 CA 26.56 C 28.74 O 25.31 CB 26.48 CG 30.29 OD1 28.72 OD2 29.46
A ILE H 5 -68.1 -41.0 N 27.45 CA 26.41 C 24.39 O 26.44 CB 30.78 CG1 25.79 CG2 26.78 CD1 29.02
A LEU H 1 -52.7 -43.1 N 24.0 CA 25.31 C 23.57 O 24.08 CB 27.47 CG 28.75 CD1 27.82 CD2 28.45
A LYS H 37 -69.9 -37.7 N 24.71 CA 24.81 C 23.99 O 24.93 CB 27.81 CG 33.06 CD 36.17 CE 41.93 NZ 42.07
A LEU H 0 -59.8 -46.8 N 20.35 CA 21.86 C 22.43 O 22.63 CB 23.38 CG 23.46 CD1 27.15 CD2 26.3
A LEU H 33 -65.6 -36.9 N 21.02 CA 20.69 C 22.01 O 22.8 CB 19.95 CG 23.52 CD1 27.44 CD2 24.58
A ALA H 1 -61.9 -44.2 N 23.84 CA 22.66 C 23.64 O 22.36 CB 27.54
A LEU H 65 -59.7 -45.1 N 25.69 CA 28.68 C 25.48 O 25.65 CB 27.46 CG 31.36 CD1 35.24 CD2 31.45
A LEU H 5 -59.2 -42.7 N 27.61 CA 28.76 C 27.85 O 30.96 CB 26.95 CG 29.25 CD1 29.17 CD2 31.26
A GLU H 27 -71.9 -46.7 N 26.71 CA 29.32 C 30.24 O 30.44 CB 31.3 CG 29.44 CD 28.41 OE1 27.66 OE2 33.92
A ARG H 113 -56.0 -49.3 N 28.15 CA 32.17 C 30.18 O 30.58 CB 36.52 CG 42.73 CD 45.09 NE 47.94 CZ 50.64 NH1 50.14 NH2 50.63
A THR H 80 -64.2 -44.0 N 28.76 CA 33.16 C 30.63 O 33.36 CB 32.45 OG1 34.77 CG2 36.0
A ALA H 1 -59.2 -46.8 N 29.18 CA 31.32 C 32.41 O 32.64 CB 29.76
A ASP - 82 51.8 44.3 N 32.4 CA 35.09 C 35.39 O 27.82 CB 37.74 CG 38.61 OD1 36.29 OD2 38.78
A VAL H 6 -49.8 -48.6 N 30.52 CA 31.09 C 32.62 O 29.24 CB 33.96 CG1 30.24 CG2 31.44
A CYS H 9 -65.3 -45.4 N 30.02 CA 33.86 C 36.86 O 28.19 CB 32.95 SG 30.91
A GLY H 48 -60.1 -48.1 N 31.5 CA 35.63 C 31.12 O 33.56
A ARG H 144 -57.7 -42.3 N 33.48 CA 33.81 C 38.84 O 36.62 CB 38.81 CG 48.4 CD 47.25 NE 53.05 CZ 50.75 NH1 50.9 NH2 51.53
A TYR H 66 -106.5 -5.4 N 29.38 CA 32.36 C 30.69 O 34.54 CB 32.32 CG 36.18 CD1 44.19 CD2 37.39 CE1 45.6 CE2 44.22 CZ 47.51 OH 40.6
A GLY T 70 81.2 41.5 N 29.29 CA 29.68 C 34.29 O 35.22
A LEU - 34 -107.2 146.2 N 29.84 CA 29.52 C 28.31 O 28.33 CB 34.01 CG 37.83 CD1 39.72 CD2 40.49
A GLU S 139 -76.6 -24.5 N 28.93 CA 36.07 C 31.94 O 30.27 CB 41.09 CG 53.65 CD 69.03 OE1 82.66 OE2 74.61
A LYS - 58 -165.6 168.2 N 31.96 CA 32.52 C 30.54 O 31.64 CB 36.39 CG 42.44 CD 50.84 CE 55.29 NZ 56.88
A ALA E 0 -141.8 172.4 N 28.53 CA 27.28 C 24.96 O 23.99 CB 27.62
A TYR E 0 -108.8 124.0 N 25.03 CA 27.34 C 28.88 O 30.66 CB 25.74 CG 24.55 CD1 24.25 CD2 20.88 CE1 23.93 CE2 20.88 CZ 23.97 OH 23.44
A HIS E 7 -122.1 124.0 N 27.4 CA 24.46 C 23.64 O 22.42 CB 23.86 CG 24.9 ND1 23.53 CD2 25.05 CE1 27.68 NE2 26.48
A VAL E 7 -81.1 113.0 N 21.51 CA 23.71 C 22.98 O 26.17 CB 23.49 CG1 25.24 CG2 26.16
A HIS E 54 -82.9 -41.3 N 21.8 CA 23.67 C 24.3 O 20.34 CB 22.42 CG 22.89 ND1 25.7 CD2 25.05 CE1 25.44 NE2 26.77
A ILE E 5 -132.9 138.6 N 24.29 CA 25.17 C 24.7 O 23.0 CB 27.89 CG1 29.22 CG2 25.53 CD1 34.32
A LEU E 41 -145.3 113.8 N 20.87 CA 26.1 C 27.3 O 28.38 CB 31.69 CG 40.56 CD1 39.68 CD2 46.71
A ALA E 9 -143.0 143.2 N 26.76 CA 27.92 C 31.79 O 32.3 CB 28.72
A VAL E 47 -130.4 136.9 N 29.45 CA 31.08 C 31.71 O 30.21 CB 31.11 CG1 38.09 CG2 31.14
A ASP - 9 -65.1 116.8 N 27.82 CA 35.97 C 34.32 O 39.69 CB 36.46 CG 40.69 OD1 46.53 OD2 45.63
A PRO G 76 -52.1 -32.9 N 38.48 CA 45.86 C 49.8 O 52.35 CB 45.11 CG 42.4 CD 38.18
A THR G 72 -56.6 -28.0 N 48.86 CA 51.27 C 56.4 O 61.68 CB 48.84 OG1 50.95 CG2 59.96
A TYR G 16 -106.7 36.5 N 51.27 CA 49.32 C 55.86 O 55.27 CB 50.02 CG 50.58 CD1 51.92 CD2 46.6 CE1 52.97 CE2 48.08 CZ 48.79 OH 53.35
A ARG T 180 -61.0 157.1 N 61.86 CA 68.4 C 64.24 O 58.64 CB 66.45 CG 66.46 CD 63.15 NE 62.73 CZ 58.73 NH1 52.96 NH2 53.79
A GLY T 82 84.8 5.3 N 67.56 CA 64.11 C 66.4 O 75.76
A HIS S 31 -114.4 15.5 N 60.48 CA 52.36 C 47.87 O 47.98 CB 60.45 CG 65.49 ND1 66.81 CD2 71.85 CE1 68.8 NE2 74.88
A SER - 76 54.7 34.1 N 43.71 CA 44.98 C 34.35 O 34.95 CB 43.72 OG 51.22
A LEU H 6 -67.8 -37.8 N 35.12 CA 37.9 C 35.11 O 32.56 CB 37.35 CG 40.61 CD1 45.85 CD2 44.75
A GLY H 15 -60.7 -50.7 N 32.44 CA 30.06 C 33.12 O 29.53
A GLN H 62 -57.9 -42.1 N 30.49 CA 31.71 C 28.49 O 27.36 CB 32.36 CG 36.8 CD 41.73 OE1 43.37 NE2 41.5
A ARG H 76 -68.9 -41.5 N 27.3 CA 30.55 C 27.95 O 23.65 CB 34.52 CG 39.06 CD 40.0 NE 41.31 CZ 45.95 NH1 50.74 NH2 45.62
A LEU H 0 -60.7 -48.1 N 24.4 CA 27.62 C 25.21 O 26.81 CB 29.43 CG 28.86 CD1 29.76 CD2 28.8
A LEU H 0 -65.8 -45.0 N 25.74 CA 26.59 C 26.42 O 23.41 CB 31.36 CG 33.42 CD1 32.96 CD2 32.36
A GLN H 67 -59.2 -37.9 N 25.68 CA 28.64 C 27.3 O 30.27 CB 30.69 CG 31.55 CD 34.01 OE1 36.2 NE2 34.02
A PHE H 56 -62.5 -46.9 N 26.25 CA 25.24 C 23.22 O 26.19 CB 24.79 CG 24.65 CD1 24.34 CD2 26.55 CE1 25.6 CE2 26.42 CZ 24.58
A GLN H 0 -59.4 -40.9 N 24.17 CA 21.88 C 22.4 O 24.42 CB 22.54 CG 22.44 CD 24.18 OE1 21.9 NE2 25.98
A MET H 2 -58.6 -50.8 N 22.22 CA 24.09 C 28.54 O 26.94 CB 29.63 CG 30.84 SD 33.35 CE 30.95
A ASP H 89 -63.6 -43.2 N 30.73 CA 31.21 C 33.97 O 33.45 CB 34.57 CG 34.09 OD1 32.84 OD2 35.34
A LEU H 34 -65.0 -51.5 N 31.58 CA 30.32 C 29.26 O 28.52 CB 32.61 CG 32.26 CD1 32.49 CD2 35.24
A SER H 0 -62.0 -39.6 N 30.73 CA 30.37 C 29.49 O 25.06 CB 29.85 OG 27.35
A LYS H 124 -57.6 -47.3 N 29.48 CA 35.03 C 37.94 O 40.59 CB 35.02 CG 38.13 CD 44.39 CE 50.2 NZ 53.46
A LYS H 187 -61.4 -29.9 N 36.75 CA 37.36 C 43.74 O 40.37 CB 42.83 CG 50.27 CD 52.51 CE 50.96 NZ 47.12
A LEU T 99 -81.7 -1.6 N 38.69 CA 35.98 C 30.98 O 41.54 CB 34.3 CG 40.42 CD1 37.26 CD2 42.81
A GLY T 55 91.5 12.6 N 39.27 CA 36.34 C 40.62 O 41.51
A PHE - 34 -76.0 148.2 N 36.02 CA 31.31 C 33.44 O 36.14 CB 29.65 CG 29.57 CD1 30.5 CD2 29.28 CE1 30.73 CE2 31.02 CZ 29.32
A LYS S 135 -107.6 -10.4 N 36.24 CA 38.39 C 38.31 O 35.27 CB 43.39 CG 49.14 CD 63.07 CE 71.16 NZ 76.84
A ALA E 0 -147.5 148.1 N 31.03 CA 29.66 C 27.69 O 27.68 CB 29.9
A ILE E 0 -121.5 137.9 N 27.17 CA 27.35 C 28.41 O 31.94 CB 26.84 CG1 24.52 CG2 28.73 CD1 22.6
A SER E 1 -133.0 172.9 N 26.05 CA 25.09 C 26.33 O 23.47 CB 29.59 OG 27.71
A GLY E 0 -163.8 160.5 N 24.81 CA 28.06 C 32.0 O 26.98
A ASP E 30 -103.0 109.3 N 29.73 CA 31.62 C 30.99 O 32.89 CB 30.3 CG 31.14 OD1 31.46 OD2 28.35
A PHE E 8 -100.4 112.0 N 30.01 CA 28.48 C 31.69 O 29.76 CB 29.84 CG 30.91 CD1 34.69 CD2 34.64 CE1 33.67 CE2 31.26 CZ 29.08
A THR - 12 -104.6 2.5 N 37.93 CA 44.55 C 47.66 O 61.83 CB 44.29 OG1 41.05 CG2 42.78
A SER S 25 -131.8 155.6 N 49.1 CA 50.88 C 46.48 O 51.28 CB 51.05 OG 47.92
A VAL H 76 -60.2 -32.0 N 44.92 CA 44.85 C 42.19 O 40.28 CB 51.32 CG1 54.92 CG2 52.78
A PHE H 153 -72.2 -47.8 N 41.48 CA 45.59 C 39.2 O 38.31 CB 43.71 CG 45.61 CD1 50.07 CD2 51.55 CE1 47.15 CE2 55.15 CZ 47.07
A SER H 24 -62.3 -34.6 N 43.53 CA 35.34 C 38.27 O 31.52 CB 43.46 OG 51.79
A VAL H 11 -66.0 -42.7 N 33.79 CA 34.09 C 34.7 O 34.04 CB 35.95 CG1 38.16 CG2 37.12
A LYS H 136 -62.9 -39.7 N 40.05 CA 41.32 C 40.33 O 40.32 CB 49.72 CG 53.68 CD 58.07 CE 58.75 NZ 65.18
A LEU H 31 -59.7 -48.2 N 37.82 CA 39.39 C 36.65 O 44.33 CB 40.03 CG 40.62 CD1 42.49 CD2 43.14
A ALA H 0 -56.9 -48.7 N 36.24 CA 31.4 C 31.13 O 32.32 CB 34.91
A GLU H 92 -61.1 -41.2 N 36.25 CA 39.19 C 36.08 O 40.42 CB 44.88 CG 49.91 CD 50.55 OE1 48.73 OE2 57.89
A LYS H 147 -57.3 -34.4 N 38.41 CA 40.73 C 45.84 O 43.57 CB 41.56 CG 45.75 CD 47.75 CE 55.83 NZ 55.6
A LEU T 12 -93.6 11.9 N 35.72 CA 40.45 C 34.68 O 39.71 CB 43.65 CG 46.5 CD1 54.39 CD2 45.13
A GLY T 48 95.9 12.0 N 34.11 CA 34.0 C 34.79 O 35.77
A MET - 5 -86.6 138.4 N 35.05 CA 35.79 C 39.26 O 37.82 CB 32.27 CG 33.07 SD 36.14 CE 38.33
A GLU E 109 -106.2 130.2 N 35.18 CA 42.93 C 40.82 O 36.43 CB 44.4 CG 53.21 CD 63.46 OE1 64.56 OE2 72.99
A CYS E 36 -77.1 115.3 N 36.71 CA 38.69 C 37.62 O 43.27 CB 38.39 SG 40.73
A ILE E 27 -109.9 -6.9 N 32.75 CA 32.67 C 36.92 O 37.96 CB 34.78 CG1 36.46 CG2 38.03 CD1 35.29
A SER E 19 -161.6 153.8 N 30.07 CA 33.52 C 33.13 O 33.11 CB 37.93 OG 43.77
A GLN E 108 -157.2 163.3 N 34.91 CA 34.53 C 35.03 O 33.23 CB 36.49 CG 39.16 CD 45.66 OE1 47.34 NE2 47.4
A LEU E 36 -147.9 131.8 N 34.85 CA 37.93 C 32.2 O 34.01 CB 45.42 CG 52.16 CD1 52.59 CD2 52.49
A ALA E 31 -78.5 114.5 N 32.27 CA 32.68 C 32.77 O 36.89 CB 40.82
A LEU G 1 -61.8 -43.9 N 32.55 CA 34.12 C 38.26 O 34.79 CB 33.36 CG 33.55 CD1 31.52 CD2 34.35
A GLY G 9 -54.5 -32.6 N 31.75 CA 32.13 C 37.24 O 36.95
A ASP G 118 -86.3 -4.8 N 35.88 CA 37.71 C 37.51 O 36.09 CB 41.85 CG 51.18 OD1 43.38 OD2 49.01
A TYR - 14 -70.0 129.8 N 32.63 CA 32.34 C 28.91 O 32.6 CB 30.62 CG 26.82 CD1 28.39 CD2 25.4 CE1 29.34 CE2 27.87 CZ 29.0 OH 28.33
A ARG B 108 -123.9 138.2 N 31.9 CA 32.6 C 31.85 O 35.41 CB 34.52 CG 36.25 CD 37.59 NE 42.12 CZ 47.39 NH1 46.16 NH2 41.77
A ASP - 14 -81.2 -174.7 N 28.15 CA 29.39 C 30.37 O 31.41 CB 29.77 CG 31.71 OD1 32.42 OD2 29.91
A GLU T 124 -73.0 -5.2 N 33.72 CA 36.43 C 42.45 O 41.91 CB 42.13 CG 43.89 CD 47.15 OE1 52.32 OE2 50.86
A LYS T 148 -95.6 6.2 N 38.01 CA 39.24 C 40.37 O 42.41 CB 42.05 CG 46.91 CD 53.49 CE 65.54 NZ 69.78
A GLY - 54 69.6 14.5 N 34.68 CA 29.69 C 31.23 O 32.12
A GLU - 98 -89.7 143.5 N 33.18 CA 32.98 C 34.29 O 34.77 CB 33.83 CG 38.21 CD 42.86 OE1 40.8 OE2 47.31
A LYS B 75 -92.0 109.3 N 34.94 CA 33.51 C 35.5 O 37.12 CB 36.63 CG 40.03 CD 44.15 CE 45.34 NZ 48.57
A LEU - 2 -107.0 -7.8 N 30.74 CA 31.64 C 33.21 O 30.08 CB 33.9 CG 37.05 CD1 36.86 CD2 38.68
A PHE B 0 -129.4 132.2 N 29.36 CA 35.29 C 34.03 O 35.48 CB 31.23 CG 32.94 CD1 34.34 CD2 32.54 CE1 30.8 CE2 31.26 CZ 31.91
A GLU - 127 -129.5 87.1 N 34.79 CA 39.94 C 33.69 O 35.44 CB 44.59 CG 54.93 CD 63.57 OE1 71.28 OE2 61.42
A PRO - 25 -86.9 155.1 N 35.35 CA 41.55 C 46.4 O 50.53 CB 37.69 CG 38.14 CD 42.9
A LEU - 117 -63.2 164.5 N 49.93 CA 54.39 C 59.9 O 72.98 CB 58.98 CG 57.34 CD1 56.36 CD2 59.53
A ASP G 129 -72.0 -15.0 N 58.59 CA 62.86 C 57.94 O 53.15 CB 78.48 CG 88.2 OD1 94.33 OD2 99.19
A VAL G 76 -69.0 -28.5 N 65.54 CA 66.46 C 60.31 O 56.29 CB 73.87 CG1 80.07 CG2 77.75
A HIS G 18 -113.9 26.7 N 50.89 CA 50.8 C 48.87 O 47.5 CB 53.42 CG 54.9 ND1 58.75 CD2 57.42 CE1 58.14 NE2 53.16
A GLN S 78 -68.9 -38.6 N 46.6 CA 41.06 C 38.55 O 35.01 CB 47.99 CG 60.46 CD 70.07 OE1 79.21 NE2 70.29
A VAL E 50 -117.9 139.6 N 33.3 CA 36.06 C 33.56 O 32.36 CB 43.06 CG1 42.91 CG2 48.11
A ILE E 0 -109.7 125.1 N 36.01 CA 30.7 C 31.23 O 34.42 CB 33.55 CG1 32.58 CG2 35.53 CD1 33.07
A LYS E 54 -114.8 130.1 N 29.29 CA 32.97 C 30.18 O 27.97 CB 37.3 CG 41.27 CD 41.92 CE 50.89 NZ 54.75
A THR E 1 -91.9 127.0 N 27.57 CA 26.32 C 27.56 O 30.68 CB 26.02 OG1 26.6 CG2 28.35
A CYS E 0 -131.7 147.3 N 27.41 CA 28.06 C 28.66 O 28.94 CB 28.47 SG 37.63
A VAL E 2 -138.5 148.5 N 29.1 CA 31.41 C 37.42 O 37.14 CB 33.76 CG1 39.94 CG2 35.27
A LYS E 61 -136.8 132.6 N 34.44 CA 35.49 C 38.33 O 35.01 CB 39.51 CG 43.97 CD 47.68 CE 49.96 NZ 49.01
A LEU E 105 -71.6 139.4 N 34.66 CA 34.63 C 30.89 O 40.26 CB 40.81 CG 48.33 CD1 47.0 CD2 49.94
A LEU - 51 -112.4 360.0 N 38.96 CA 36.71 C 44.84 O 52.27 CB 37.51 CG 38.58 CD1 39.13 CD2 43.94 OXT 43.72
B GLU - 132 360.0 -73.9 N 72.08 CA 82.82 C 74.71 O 66.95 CB 92.87 CG 98.37 CD 97.5 OE1 90.57 OE2 78.34
B SER - 85 -100.9 3.0 N 68.62 CA 60.88 C 55.95 O 64.98 CB 53.56 OG 62.48
B ILE E 9 -81.5 133.2 N 44.62 CA 43.27 C 35.45 O 36.29 CB 43.81 CG1 47.08 CG2 43.07 CD1 44.75
B VAL E 54 -100.6 131.8 N 31.03 CA 33.8 C 30.21 O 28.26 CB 32.85 CG1 34.45 CG2 36.53
B LEU E 29 -109.9 132.6 N 25.19 CA 28.21 C 30.41 O 27.96 CB 30.42 CG 31.28 CD1 33.88 CD2 33.46
B ARG E 52 -165.4 166.8 N 25.99 CA 25.09 C 24.89 O 22.44 CB 25.32 CG 26.4 CD 26.31 NE 27.98 CZ 28.87 NH1 29.7 NH2 32.06
B VAL E 46 -74.8 136.7 N 26.02 CA 23.7 C 23.63 O 25.54 CB 25.14 CG1 28.04 CG2 26.45
B ALA - 3 -72.1 139.0 N 25.48 CA 26.0 C 31.38 O 28.95 CB 28.03
B ARG - 124 -84.6 152.8 N 30.32 CA 29.93 C 30.42 O 29.01 CB 30.29 CG 28.76 CD 27.61 NE 28.92 CZ 30.14 NH1 29.38 NH2 29.72
B LEU G 104 -55.2 -38.0 N 34.29 CA 37.35 C 37.35 O 37.46 CB 40.12 CG 46.19 CD1 47.35 CD2 45.91
B ASP G 111 -66.9 -10.4 N 34.29 CA 34.82 C 35.73 O 34.6 CB 35.36 CG 36.52 OD1 34.47 OD2 41.33
B GLU G 13 -99.2 17.0 N 34.02 CA 31.79 C 32.5 O 29.59 CB 32.61 CG 31.33 CD 32.45 OE1 28.27 OE2 31.95
B LEU H 51 -50.5 -39.2 N 34.63 CA 34.28 C 35.64 O 30.53 CB 40.81 CG 43.6 CD1 40.58 CD2 46.29
B GLU H 100 -75.5 -31.7 N 31.91 CA 32.7 C 30.27 O 29.54 CB 39.81 CG 42.79 CD 50.07 OE1 46.75 OE2 53.01
B GLN H 95 -69.0 -35.6 N 30.26 CA 29.76 C 27.54 O 28.65 CB 35.5 CG 39.19 CD 46.79 OE1 52.95 NE2 62.98
B VAL H 0 -67.3 -43.7 N 30.15 CA 28.7 C 26.32 O 30.21 CB 27.73 CG1 27.46 CG2 26.41
B ARG H 64 -54.2 -45.8 N 29.63 CA 31.89 C 28.7 O 24.69 CB 30.13 CG 40.74 CD 43.89 NE 56.48 CZ 69.68 NH1 78.36 NH2 59.73
B GLU H 79 -62.1 -47.6 N 31.32 CA 31.97 C 32.96 O 28.65 CB 36.86 CG 39.92 CD 53.0 OE1 49.4 OE2 49.86
B ILE H 0 -64.2 -34.7 N 32.04 CA 31.49 C 26.18 O 25.94 CB 29.41 CG1 37.79 CG2 29.15 CD1 42.37
B LEU I 0 -65.5 -46.6 N 29.36 CA 24.92 C 27.05 O 26.82 CB 23.92 CG 26.9 CD1 26.32 CD2 26.12
B HIS I 87 -56.3 -45.4 N 30.03 CA 31.6 C 29.24 O 34.17 CB 36.48 CG 40.33 ND1 55.13 CD2 51.39 CE1 50.5 NE2 50.6
B ARG I 78 -78.4 -46.4 N 33.47 CA 33.76 C 33.3 O 37.86 CB 37.85 CG 45.14 CD 43.96 NE 48.95 CZ 53.06 NH1 56.2 NH2 54.52
B ILE I 14 -115.6 -15.9 N 31.39 CA 34.69 C 31.0 O 33.15 CB 39.23 CG1 43.92 CG2 35.24 CD1 47.45
B TYR I 31 -93.6 -68.3 N 30.39 CA 33.77 C 33.64 O 28.89 CB 31.95 CG 29.23 CD1 32.99 CD2 32.57 CE1 30.04 CE2 31.28 CZ 30.62 OH 34.76
B TYR T 6 -57.7 -38.7 N 31.71 CA 34.33 C 35.88 O 37.94 CB 35.99 CG 31.15 CD1 34.62 CD2 30.37 CE1 35.14 CE2 32.8 CZ 34.02 OH 41.91
B PRO T 60 -61.2 -25.1 N 44.72 CA 40.72 C 36.17 O 43.32 CB 41.78 CG 44.52 CD 40.37
B GLU T 71 -115.4 -9.8 N 38.03 CA 44.3 C 43.07 O 44.66 CB 56.62 CG 63.74 CD 76.5 OE1 83.99 OE2 90.57
B GLU - 28 -63.3 123.9 N 33.84 CA 35.33 C 32.86 O 38.86 CB 37.94 CG 43.9 CD 53.83 OE1 61.91 OE2 47.88
B GLY H 6 -54.4 -45.0 N 34.32 CA 36.43 C 38.2 O 40.58
B ILE H 12 -62.6 -54.3 N 33.44 CA 35.76 C 38.0 O 42.7 CB 36.61 CG1 37.46 CG2 36.84 CD1 39.24
B THR H 4 -50.3 -54.1 N 31.84 CA 30.3 C 33.37 O 33.75 CB 34.86 OG1 38.46 CG2 33.37
B ILE H 70 -86.5 -7.9 N 38.93 CA 42.95 C 45.56 O 47.74 CB 38.31 CG1 38.5 CG2 41.52 CD1 43.38
B SER T 8 -93.0 -0.6 N 46.79 CA 42.4 C 44.92 O 37.31 CB 42.22 OG 55.62
B TYR B 14 -71.7 131.3 N 38.59 CA 41.25 C 50.32 O 47.53 CB 39.28 CG 36.11 CD1 38.45 CD2 36.89 CE1 36.04 CE2 36.55 CZ 37.9 OH 39.49
B VAL T 51 -60.3 -40.1 N 54.77 CA 50.33 C 49.54 O 56.44 CB 54.97 CG1 52.21 CG2 55.2
B HIS T 124 -92.7 26.3 N 46.81 CA 44.63 C 52.3 O 53.13 CB 50.64 CG 56.44 ND1 53.76 CD2 60.53 CE1 63.17 NE2 64.87
B GLY - 36 132.8 134.1 N 49.9 CA 48.03 C 54.84 O 36.71
B LYS S 155 -82.7 -22.0 N 51.15 CA 52.49 C 45.5 O 42.0 CB 58.74 CG 66.75 CD 70.08 CE 78.85 NZ 82.86
B SER S 86 -71.4 148.0 N 40.15 CA 41.53 C 41.99 O 36.29 CB 41.16 OG 49.56
B HIS - 31 -78.2 162.6 N 37.53 CA 35.01 C 32.74 O 35.14 CB 33.6 CG 32.4 ND1 32.19 CD2 38.2 CE1 32.56 NE2 40.99
B THR - 25 -112.3 166.4 N 30.45 CA 28.29 C 30.84 O 33.38 CB 27.89 OG1 30.08 CG2 28.03
B LEU H 115 -66.1 -33.2 N 29.75 CA 33.41 C 29.57 O 25.08 CB 34.41 CG 43.66 CD1 45.01 CD2 49.44
B ASP H 3 -72.6 -25.6 N 30.44 CA 33.15 C 29.9 O 29.51 CB 35.62 CG 37.6 OD1 35.34 OD2 43.41
B ASP H 7 -69.0 -50.2 N 29.86 CA 32.62 C 33.46 O 28.4 CB 33.93 CG 34.89 OD1 33.42 OD2 38.91
B GLU H 9 -55.2 -49.9 N 31.68 CA 32.92 C 31.72 O 31.35 CB 35.59 CG 40.61 CD 38.17 OE1 41.95 OE2 45.1
B ARG H 116 -55.7 -41.6 N 28.66 CA 28.47 C 24.52 O 26.53 CB 32.51 CG 40.51 CD 50.33 NE 54.71 CZ 60.44 NH1 61.63 NH2 56.56
B PHE H 44 -59.7 -50.2 N 24.92 CA 25.2 C 28.71 O 27.05 CB 29.16 CG 30.45 CD1 36.14 CD2 31.98 CE1 36.25 CE2 34.74 CZ 33.58
B SER H 4 -59.3 -41.5 N 25.78 CA 28.17 C 31.5 O 31.01 CB 33.05 OG 36.78
B LEU H 13 -77.4 -20.7 N 28.32 CA 27.62 C 28.72 O 28.91 CB 28.77 CG 32.43 CD1 32.58 CD2 32.22
B SER T 38 -59.4 -18.8 N 28.49 CA 29.73 C 32.47 O 31.46 CB 30.61 OG 30.65
B PHE T 14 -83.3 -15.0 N 29.04 CA 27.65 C 26.53 O 24.35 CB 26.02 CG 28.23 CD1 31.51 CD2 31.6 CE1 31.65 CE2 34.24 CZ 32.36
B VAL T 2 -57.9 -51.3 N 30.74 CA 30.36 C 29.22 O 30.37 CB 28.61 CG1 27.51 CG2 27.03
B GLU T 134 -59.2 -29.8 N 35.94 CA 30.3 C 29.0 O 26.4 CB 38.88 CG 43.63 CD 58.6 OE1 63.9 OE2 65.04
B GLN T 96 -76.2 -5.6 N 26.56 CA 29.3 C 27.38 O 28.88 CB 33.4 CG 37.64 CD 36.54 OE1 36.81 NE2 40.14
B GLY T 27 73.8 21.2 N 29.69 CA 28.0 C 27.81 O 24.45
B THR - 10 -115.3 22.0 N 26.29 CA 26.31 C 24.14 O 23.77 CB 24.06 OG1 25.4 CG2 27.98
B VAL E 0 -103.0 116.1 N 22.66 CA 23.74 C 23.51 O 25.0 CB 24.08 CG1 24.22 CG2 27.18
B VAL E 0 -105.7 130.3 N 21.68 CA 23.51 C 23.79 O 21.87 CB 23.85 CG1 24.2 CG2 26.24
B VAL E 0 -119.0 152.6 N 23.89 CA 28.16 C 28.29 O 25.36 CB 25.26 CG1 29.4 CG2 27.24
B ALA E 0 -110.3 123.7 N 28.89 CA 29.89 C 29.91 O 29.58 CB 31.42
B GLU E 35 -120.5 133.6 N 31.29 CA 35.56 C 36.06 O 31.72 CB 38.01 CG 45.55 CD 44.5 OE1 50.48 OE2 38.6
B ASP E 23 -89.3 91.0 N 37.5 CA 44.33 C 43.62 O 47.46 CB 45.14 CG 50.83 OD1 49.67 OD2 51.5
B SER T 59 -63.1 -31.7 N 46.62 CA 50.33 C 55.99 O 59.63 CB 53.9 OG 61.39
B ALA T 94 -66.3 -35.5 N 55.56 CA 62.98 C 62.96 O 67.0 CB 59.16
B ALA T 54 -96.3 -0.0 N 58.41 CA 50.51 C 51.64 O 52.15 CB 51.24
B LYS T 184 44.3 63.7 N 50.27 CA 57.14 C 50.7 O 56.5 CB 64.54 CG 73.37 CD 77.0 CE 77.78 NZ 75.3
B LYS E 79 -153.9 136.2 N 50.8 CA 48.31 C 38.76 O 36.82 CB 54.08 CG 60.6 CD 67.95 CE 70.58 NZ 68.17
B PHE E 11 -77.4 138.1 N 33.33 CA 32.44 C 30.92 O 35.54 CB 29.17 CG 31.97 CD1 30.34 CD2 29.97 CE1 31.96 CE2 33.22 CZ 31.03
B ILE E 0 -128.2 3.9 N 28.17 CA 32.26 C 29.75 O 27.27 CB 36.32 CG1 33.31 CG2 37.34 CD1 36.6
B GLY E 0 -166.8 159.2 N 26.9 CA 28.39 C 24.31 O 24.7
B VAL E 0 -155.5 142.0 N 24.28 CA 25.1 C 27.64 O 27.1 CB 23.37 CG1 25.87 CG2 26.89
B SER E 0 -133.6 131.7 N 22.81 CA 24.27 C 23.1 O 23.83 CB 26.29 OG 28.09
B ILE E 0 -119.5 126.6 N 22.43 CA 23.94 C 23.51 O 21.45 CB 26.35 CG1 28.5 CG2 27.58 CD1 29.01
B ALA E 0 -135.4 162.0 N 22.84 CA 23.56 C 23.65 O 23.57 CB 24.0
B GLY E 0 -161.1 170.2 N 24.9 CA 25.39 C 26.02 O 25.23
B PRO E 53 -74.2 146.7 N 28.6 CA 27.65 C 25.99 O 25.52 CB 25.66 CG 30.71 CD 30.11
B ILE E 7 -123.9 149.4 N 26.59 CA 28.68 C 28.83 O 29.7 CB 28.4 CG1 27.72 CG2 27.64 CD1 28.54
B GLN - 89 -154.2 161.5 N 27.86 CA 33.17 C 31.41 O 25.95 CB 35.93 CG 37.31 CD 49.5 OE1 51.88 NE2 53.09
B PRO T 88 -50.0 136.6 N 34.16 CA 33.51 C 33.1 O 33.93 CB 35.94 CG 36.64 CD 33.22
B GLY T 43 106.3 -23.7 N 34.02 CA 37.89 C 39.42 O 35.28
B ASP H 44 -63.8 -44.8 N 38.38 CA 34.03 C 30.56 O 34.84 CB 38.34 CG 39.28 OD1 39.32 OD2 42.02
B PRO H 12 -53.6 -45.4 N 28.83 CA 30.42 C 29.68 O 32.46 CB 30.08 CG 33.6 CD 32.01
B ASP H 101 -63.1 -42.4 N 30.91 CA 30.65 C 32.23 O 30.99 CB 33.14 CG 38.92 OD1 39.51 OD2 50.6
B ALA H 56 -62.4 -37.9 N 32.77 CA 32.91 C 33.93 O 29.5 CB 33.41
B MET H 24 -64.9 -38.9 N 32.95 CA 33.82 C 36.68 O 31.51 CB 33.89 CG 34.85 SD 37.51 CE 35.83
B VAL H 59 -64.8 -41.0 N 37.9 CA 36.19 C 36.35 O 39.26 CB 35.48 CG1 37.2 CG2 34.79
B GLU H 144 -64.8 -40.1 N 36.46 CA 41.43 C 46.25 O 41.4 CB 39.54 CG 44.36 CD 51.3 OE1 57.58 OE2 51.97
B GLU H 81 -64.2 -35.6 N 46.12 CA 48.09 C 45.5 O 46.67 CB 51.09 CG 57.06 CD 60.86 OE1 66.24 OE2 63.41
B ALA H 11 -59.2 -33.4 N 39.96 CA 42.38 C 47.12 O 43.5 CB 46.01
B ALA T 86 -78.5 -13.1 N 42.37 CA 42.21 C 40.37 O 40.73 CB 42.92
B THR T 117 -118.4 0.8 N 40.72 CA 44.46 C 46.17 O 43.4 CB 46.2 OG1 54.96 CG2 55.79
B THR S 23 -77.0 159.4 N 41.74 CA 40.95 C 42.59 O 40.74 CB 41.62 OG1 38.9 CG2 40.83
B GLU S 130 -60.6 -49.6 N 42.13 CA 38.58 C 37.43 O 42.16 CB 42.45 CG 44.9 CD 48.52 OE1 46.8 OE2 53.29
B THR - 42 -105.9 146.1 N 33.82 CA 31.7 C 35.22 O 33.78 CB 35.24 OG1 31.52 CG2 36.82
B LYS H 103 -66.2 -32.1 N 34.81 CA 36.1 C 34.76 O 34.63 CB 36.11 CG 40.22 CD 43.76 CE 46.18 NZ 44.62
B LYS H 15 -60.0 -48.4 N 33.04 CA 31.66 C 27.01 O 31.36 CB 30.99 CG 30.64 CD 28.93 CE 31.38 NZ 36.31
B TRP H 5 -66.7 -41.5 N 28.31 CA 29.32 C 30.42 O 30.67 CB 30.35 CG 30.01 CD1 31.07 CD2 29.09 NE1 30.04 CE2 32.79 CE3 31.59 CZ2 30.23 CZ3 34.82 CH2 31.8
B GLY H 4 -56.6 -43.2 N 33.48 CA 29.94 C 30.88 O 32.81
B ASP H 4 -65.1 -38.0 N 28.82 CA 29.44 C 32.03 O 28.78 CB 33.39 CG 36.39 OD1 36.85 OD2 33.64
B ILE H 5 -72.3 -41.8 N 32.78 CA 31.87 C 26.41 O 29.63 CB 30.49 CG1 26.97 CG2 29.13 CD1 30.35
B LEU H 0 -52.9 -43.2 N 29.62 CA 31.14 C 30.87 O 25.43 CB 34.37 CG 35.18 CD1 41.4 CD2 34.52
B LYS H 51 -64.6 -40.6 N 30.56 CA 33.61 C 30.42 O 30.87 CB 31.7 CG 39.77 CD 45.8 CE 54.22 NZ 56.58
B LEU H 0 -61.3 -45.9 N 26.12 CA 23.43 C 22.72 O 27.24 CB 27.74 CG 29.58 CD1 32.58 CD2 37.06
B LEU H 24 -61.6 -43.6 N 21.79 CA 24.34 C 28.5 O 26.1 CB 22.96 CG 27.21 CD1 30.06 CD2 28.48
B ALA H 1 -56.8 -46.4 N 27.89 CA 30.88 C 28.05 O 29.71 CB 28.29
B LEU H 63 -59.7 -44.3 N 30.77 CA 29.6 C 33.09 O 29.98 CB 30.76 CG 32.6 CD1 38.12 CD2 34.89
B LEU H 4 -58.8 -46.0 N 30.08 CA 30.83 C 29.24 O 30.87 CB 29.44 CG 32.92 CD1 34.34 CD2 35.86
B GLU H 21 -67.3 -45.4 N 29.63 CA 31.27 C 32.83 O 33.75 CB 33.05 CG 37.59 CD 35.09 OE1 33.05 OE2 40.42
B ARG H 115 -61.8 -42.4 N 29.91 CA 32.6 C 34.21 O 36.5 CB 32.68 CG 33.59 CD 35.31 NE 37.24 CZ 40.04 NH1 36.58 NH2 40.6
B THR H 76 -68.1 -45.0 N 33.87 CA 33.28 C 36.13 O 31.5 CB 32.71 OG1 31.14 CG2 32.49
B ALA H 1 -65.0 -38.8 N 33.21 CA 31.51 C 31.92 O 33.43 CB 34.07
B ASP - 80 52.3 44.9 N 34.18 CA 40.84 C 44.12 O 32.49 CB 44.14 CG 45.79 OD1 53.04 OD2 53.94
B VAL H 7 -53.2 -46.0 N 37.23 CA 40.27 C 38.75 O 40.0 CB 41.18 CG1 35.96 CG2 38.6
B CYS H 10 -64.6 -46.9 N 33.4 CA 37.27 C 40.78 O 36.31 CB 36.04 SG 38.61
B GLY H 50 -61.5 -46.1 N 39.32 CA 34.71 C 31.73 O 38.14
B ARG H 122 -66.0 -35.9 N 35.15 CA 39.78 C 44.77 O 39.46 CB 41.93 CG 52.51 CD 62.01 NE 71.45 CZ 74.06 NH1 74.59 NH2 72.78
B TYR H 77 -104.6 -5.0 N 41.34 CA 43.16 C 36.39 O 37.93 CB 42.7 CG 45.93 CD1 49.51 CD2 47.78 CE1 51.62 CE2 52.9 CZ 56.36 OH 50.25
B GLY T 69 77.7 46.1 N 32.62 CA 32.19 C 36.02 O 33.06
B LEU - 25 -113.5 148.9 N 35.58 CA 32.51 C 37.32 O 39.34 CB 36.21 CG 41.66 CD1 39.84 CD2 48.27
B GLU S 175 -77.7 -25.0 N 33.66 CA 40.04 C 33.56 O 28.69 CB 47.65 CG 59.36 CD 61.37 OE1 68.86 OE2 68.06
B LYS - 91 -166.6 165.6 N 33.49 CA 32.52 C 33.34 O 31.49 CB 38.05 CG 40.96 CD 48.19 CE 55.38 NZ 56.72
B ALA E 0 -138.5 165.0 N 28.0 CA 27.78 C 26.16 O 26.43 CB 28.19
B TYR E 1 -101.0 124.9 N 32.1 CA 29.02 C 28.72 O 38.09 CB 30.04 CG 27.29 CD1 28.51 CD2 28.31 CE1 29.64 CE2 25.95 CZ 27.3 OH 27.58
B HIS E 4 -121.6 121.5 N 27.42 CA 25.32 C 24.36 O 22.6 CB 29.2 CG 31.75 ND1 30.07 CD2 32.78 CE1 35.61 NE2 34.94
B VAL E 3 -79.8 116.5 N 24.39 CA 23.46 C 24.81 O 25.31 CB 25.89 CG1 25.86 CG2 26.73
B HIS E 43 -91.6 -36.5 N 25.15 CA 31.21 C 30.31 O 27.66 CB 30.17 CG 33.58 ND1 40.42 CD2 37.2 CE1 33.57 NE2 34.36
B ILE E 6 -136.7 138.4 N 25.75 CA 25.56 C 28.91 O 29.04 CB 28.35 CG1 32.63 CG2 29.35 CD1 32.68
B LEU E 29 -145.0 106.4 N 24.21 CA 26.74 C 27.87 O 28.32 CB 29.74 CG 32.84 CD1 33.83 CD2 35.5
B ALA E 10 -137.7 133.8 N 24.39 CA 27.81 C 29.22 O 29.22 CB 29.59
B VAL E 34 -128.9 134.8 N 28.28 CA 29.93 C 25.12 O 22.82 CB 33.64 CG1 41.62 CG2 36.99
B ASP - 11 -58.8 115.3 N 22.89 CA 27.13 C 25.92 O 26.18 CB 27.05 CG 32.63 OD1 30.85 OD2 34.68
B PRO T 14 -69.4 -9.2 N 29.5 CA 27.87 C 34.64 O 30.97 CB 29.15 CG 30.5 CD 29.44
B THR T 75 -83.6 -6.6 N 29.25 CA 33.67 C 37.41 O 42.3 CB 33.48 OG1 37.49 CG2 31.92
B TYR - 49 -100.6 73.7 N 36.24 CA 33.35 C 36.46 O 38.48 CB 34.26 CG 34.85 CD1 35.29 CD2 38.49 CE1 36.04 CE2 43.38 CZ 40.08 OH 45.48
B ARG - 46 -92.5 159.5 N 34.27 CA 39.54 C 37.96 O 40.42 CB 34.42 CG 33.08 CD 29.22 NE 29.78 CZ 35.18 NH1 30.8 NH2 32.92
B GLY S 0 85.3 4.9 N 35.97 CA 38.64 C 40.38 O 47.12
B HIS S 32 -118.6 16.7 N 43.08 CA 46.24 C 42.74 O 44.68 CB 51.07 CG 63.85 ND1 66.28 CD2 67.14 CE1 71.25 NE2 76.52
B SER - 30 51.1 31.7 N 34.98 CA 36.51 C 35.5 O 28.14 CB 34.16 OG 34.76
B LEU H 5 -64.2 -46.7 N 35.93 CA 35.58 C 34.23 O 34.33 CB 41.78 CG 43.1 CD1 44.91 CD2 47.81
B GLY H 12 -59.3 -45.4 N 27.68 CA 31.2 C 34.97 O 27.25
B GLN H 48 -66.5 -41.4 N 30.84 CA 30.6 C 30.59 O 33.14 CB 33.03 CG 36.67 CD 43.14 OE1 38.6 NE2 37.61
B ARG H 75 -64.7 -39.8 N 28.59 CA 32.45 C 28.81 O 27.67 CB 30.45 CG 32.91 CD 34.25 NE 38.89 CZ 46.45 NH1 54.55 NH2 46.8
B LEU H 0 -60.8 -47.8 N 28.18 CA 29.94 C 31.24 O 35.34 CB 30.5 CG 29.55 CD1 31.32 CD2 31.62
B LEU H 0 -69.7 -40.9 N 29.34 CA 31.64 C 25.47 O 28.27 CB 30.23 CG 33.77 CD1 33.12 CD2 33.72
B GLN H 63 -62.2 -38.8 N 28.33 CA 29.27 C 27.97 O 28.25 CB 28.13 CG 29.25 CD 38.03 OE1 38.77 NE2 40.49
B PHE H 56 -60.4 -46.5 N 29.21 CA 29.85 C 28.23 O 25.26 CB 29.16 CG 28.84 CD1 27.02 CD2 29.12 CE1 28.95 CE2 27.91 CZ 25.15
B GLN H 0 -62.9 -39.5 N 26.89 CA 23.96 C 24.11 O 26.36 CB 23.46 CG 25.97 CD 25.21 OE1 24.34 NE2 23.88
B MET H 2 -62.3 -48.4 N 22.54 CA 29.17 C 28.83 O 30.82 CB 31.01 CG 36.31 SD 39.66 CE 43.58
B ASP H 86 -60.5 -44.8 N 30.09 CA 32.86 C 31.29 O 29.5 CB 34.27 CG 35.78 OD1 35.98 OD2 36.53
B LEU H 32 -65.9 -48.2 N 29.91 CA 28.78 C 30.41 O 28.95 CB 28.8 CG 27.82 CD1 28.55 CD2 28.55
B SER H 0 -60.3 -41.6 N 29.5 CA 30.25 C 27.91 O 30.93 CB 30.13 OG 31.88
B LYS H 111 -53.0 -52.7 N 31.39 CA 36.52 C 39.34 O 38.63 CB 40.52 CG 47.39 CD 55.83 CE 61.12 NZ 65.54
B LYS H 187 -61.3 -36.4 N 36.71 CA 40.18 C 44.62 O 46.83 CB 41.91 CG 46.61 CD 52.5 CE 57.64 NZ 55.3
B LEU H 97 -71.8 -9.7 N 37.45 CA 39.06 C 41.34 O 47.57 CB 38.19 CG 37.9 CD1 34.11 CD2 36.96
B GLY T 45 101.0 11.8 N 40.19 CA 47.01 C 48.59 O 42.47
B PHE - 29 -74.5 138.9 N 37.97 CA 35.6 C 38.89 O 40.56 CB 31.34 CG 29.16 CD1 31.49 CD2 29.74 CE1 33.6 CE2 28.36 CZ 31.36
B LYS S 128 -96.3 -4.3 N 36.68 CA 41.02 C 41.08 O 42.7 CB 44.82 CG 49.61 CD 54.14 CE 58.62 NZ 61.02
B ALA E 0 -158.5 152.2 N 41.23 CA 39.87 C 39.61 O 34.62 CB 46.83
B ILE E 0 -128.9 144.2 N 31.85 CA 34.37 C 36.79 O 36.94 CB 30.85 CG1 29.68 CG2 34.13 CD1 32.11
B SER E 0 -142.5 174.6 N 41.37 CA 34.66 C 35.0 O 30.45 CB 39.51 OG 36.61
B GLY E 0 -166.3 159.1 N 30.39 CA 31.95 C 35.53 O 36.5
B ASP E 25 -106.5 106.2 N 34.19 CA 37.83 C 40.51 O 34.74 CB 36.27 CG 43.35 OD1 37.95 OD2 36.67
B PHE E 6 -105.3 122.3 N 39.47 CA 42.29 C 45.17 O 37.31 CB 44.2 CG 47.68 CD1 51.95 CD2 46.82 CE1 48.23 CE2 47.94 CZ 46.21
B THR - 15 -99.0 -43.9 N 41.16 CA 51.21 C 56.12 O 64.84 CB 60.56 OG1 72.06 CG2 65.02
B SER S 55 -75.1 162.3 N 58.75 CA 57.34 C 57.83 O 57.2 CB 66.79 OG 64.83
B VAL H 100 -69.7 -44.3 N 59.06 CA 57.97 C 65.06 O 61.47 CB 67.57 CG1 70.94 CG2 63.29
B PHE H 43 -72.1 -38.6 N 61.78 CA 70.97 C 62.03 O 52.57 CB 69.04 CG 62.62 CD1 55.11 CD2 62.87 CE1 61.44 CE2 64.4 CZ 56.38
B SER H 18 -45.9 -55.2 N 54.68 CA 47.0 C 53.39 O 44.36 CB 52.01 OG 59.62
B VAL H 16 -54.1 -44.4 N 47.61 CA 45.35 C 44.21 O 47.08 CB 46.4 CG1 47.18 CG2 50.91
B LYS H 95 -66.3 -35.3 N 47.2 CA 55.82 C 53.51 O 52.64 CB 62.57 CG 71.77 CD 70.13 CE 74.56 NZ 78.02
B LEU H 6 -59.7 -56.1 N 53.93 CA 47.73 C 49.93 O 42.3 CB 53.19 CG 57.1 CD1 53.25 CD2 54.76
B ALA H 0 -49.3 -51.8 N 43.76 CA 44.5 C 46.04 O 44.52 CB 45.97
B GLU H 91 -58.4 -49.4 N 52.53 CA 57.74 C 52.9 O 53.46 CB 58.76 CG 63.05 CD 61.13 OE1 61.15 OE2 67.67
B LYS H 79 -50.1 -40.4 N 50.77 CA 60.87 C 58.44 O 55.92 CB 61.18 CG 69.14 CD 66.3 CE 69.79 NZ 66.12
B LEU T 16 -97.5 22.3 N 49.55 CA 44.7 C 47.2 O 50.66 CB 47.09 CG 48.91 CD1 51.55 CD2 48.52
B GLY T 51 88.5 17.8 N 46.02 CA 49.15 C 42.96 O 49.18
B MET - 4 -92.1 120.1 N 43.08 CA 50.18 C 54.48 O 52.33 CB 47.68 CG 50.77 SD 46.69 CE 43.19
B GLU E 121 -81.8 123.4 N 59.72 CA 55.57 C 57.19 O 45.72 CB 64.24 CG 67.01 CD 71.85 OE1 75.18 OE2 68.59
B CYS E 36 -81.0 123.9 N 53.8 CA 53.8 C 50.51 O 57.71 CB 53.5 SG 57.66
B ILE E 26 -112.2 -13.3 N 42.39 CA 41.88 C 45.2 O 46.41 CB 47.78 CG1 48.3 CG2 49.47 CD1 51.16
B SER E 20 -154.0 154.3 N 38.86 CA 43.02 C 44.72 O 41.82 CB 43.55 OG 52.45
B GLN E 123 -149.2 142.6 N 45.76 CA 47.59 C 53.54 O 54.74 CB 62.6 CG 69.22 CD 75.94 OE1 82.63 NE2 75.43
B LEU E 33 -148.0 114.0 N 45.83 CA 48.45 C 48.68 O 46.35 CB 55.44 CG 55.16 CD1 64.07 CD2 53.1
B ALA E 30 -66.9 121.9 N 46.52 CA 41.57 C 44.95 O 44.03 CB 46.46
B LEU S 1 -65.5 -44.7 N 43.46 CA 45.94 C 47.54 O 49.78 CB 44.71 CG 49.18 CD1 51.11 CD2 44.71
B GLY T 13 -65.5 -26.1 N 48.23 CA 46.27 C 45.91 O 48.59
B ASP T 120 -78.3 -12.7 N 45.9 CA 46.69 C 46.86 O 44.67 CB 51.56 CG 56.97 OD1 57.82 OD2 68.0
B TYR - 15 -62.3 136.9 N 40.26 CA 38.53 C 36.22 O 38.78 CB 38.53 CG 31.53 CD1 31.98 CD2 29.62 CE1 32.9 CE2 28.13 CZ 29.59 OH 34.3
B ARG - 118 -135.8 133.7 N 36.06 CA 36.08 C 34.67 O 38.21 CB 42.69 CG 40.38 CD 44.83 NE 52.44 CZ 59.48 NH1 60.2 NH2 55.3
B ASP - 12 -79.1 -173.6 N 35.0 CA 35.76 C 39.84 O 44.9 CB 39.3 CG 41.5 OD1 36.24 OD2 37.01
B GLU T 129 -67.6 -21.5 N 41.82 CA 46.94 C 53.26 O 55.31 CB 50.91 CG 56.17 CD 54.96 OE1 55.68 OE2 61.57
B LYS T 153 -83.4 -1.6 N 47.02 CA 49.34 C 43.97 O 49.2 CB 50.09 CG 51.89 CD 56.01 CE 59.98 NZ 62.83
B GLY - 49 81.4 11.1 N 43.37 CA 40.17 C 41.58 O 48.08
B GLU - 72 -83.6 133.4 N 46.47 CA 44.71 C 47.06 O 44.67 CB 50.18 CG 55.34 CD 62.56 OE1 63.82 OE2 63.59
B LYS - 75 -86.9 116.7 N 45.44 CA 43.17 C 46.75 O 41.89 CB 49.94 CG 53.11 CD 59.28 CE 60.66 NZ 69.96
B LEU - 0 -111.5 -6.7 N 41.98 CA 42.52 C 39.26 O 42.57 CB 42.49 CG 40.62 CD1 42.87 CD2 43.42
B PHE B 0 -134.1 125.3 N 41.13 CA 45.16 C 44.16 O 47.98 CB 43.95 CG 45.01 CD1 42.57 CD2 39.74 CE1 43.94 CE2 41.1 CZ 42.4
B GLU - 112 -126.4 90.5 N 50.19 CA 51.62 C 49.15 O 54.45 CB 61.6 CG 68.61 CD 65.0 OE1 71.59 OE2 69.86
B PRO - 11 -76.1 132.1 N 47.47 CA 54.7 C 72.05 O 78.99 CB 49.27 CG 46.04 CD 45.01
B LEU S 180 -50.7 -44.1 N 73.89 CA 78.25 C 75.76 O 85.05 CB 78.46 CG 78.65 CD1 71.08 CD2 78.43
B ASP S 90 -70.0 96.1 N 72.1 CA 74.63 C 74.35 O 64.11 CB 76.72 CG 86.62 OD1 83.84 OD2 86.38
B VAL T 108 -60.2 -20.1 N 72.69 CA 75.14 C 73.9 O 67.81 CB 72.65 CG1 66.06 CG2 69.17
B HIS T 157 -106.6 52.1 N 73.35 CA 74.24 C 70.54 O 80.73 CB 79.99 CG 84.52 ND1 85.78 CD2 80.55 CE1 79.89 NE2 86.2
B GLN - 39 -86.3 119.5 N 66.49 CA 62.89 C 55.12 O 50.51 CB 71.61 CG 68.18 CD 71.75 OE1 76.02 NE2 66.91
B VAL E 43 -117.2 143.8 N 42.74 CA 45.87 C 51.62 O 52.39 CB 46.87 CG1 50.35 CG2 47.06
B ILE E 0 -108.7 124.3 N 50.72 CA 40.76 C 44.28 O 50.53 CB 41.27 CG1 40.54 CG2 40.97 CD1 40.98
B LYS E 51 -111.1 124.1 N 42.93 CA 45.29 C 45.54 O 41.53 CB 53.61 CG 59.78 CD 67.07 CE 69.41 NZ 65.61
B THR E 2 -89.9 122.4 N 36.31 CA 37.72 C 38.25 O 37.66 CB 35.43 OG1 38.94 CG2 37.58
B CYS E 0 -124.5 155.7 N 39.28 CA 42.09 C 43.54 O 43.1 CB 45.0 SG 47.93
B VAL E 2 -148.3 149.4 N 36.95 CA 41.39 C 51.92 O 52.83 CB 44.26 CG1 46.18 CG2 46.85
B LYS E 54 -145.2 128.4 N 52.04 CA 51.31 C 51.59 O 45.16 CB 53.93 CG 55.04 CD 53.66 CE 51.69 NZ 54.16
B LEU E 102 -70.6 145.4 N 46.44 CA 48.13 C 44.47 O 46.94 CB 54.57 CG 63.34 CD1 59.59 CD2 64.97
B LEU - 48 -115.9 360.0 N 47.62 CA 47.09 C 49.72 O 56.65 CB 45.6 CG 47.12 CD1 48.14 CD2 50.08 OXT 56.65
