A MET - 121 360.0 137.8 N 36.75 CA 36.19 C 32.22 O 31.0 CB 38.27 CG 40.72 SD 48.76 CE 46.7
A ILE E 7 -88.9 118.2 N 29.47 CA 28.29 C 25.99 O 25.09 CB 28.34 CG1 26.91 CG2 28.57 CD1 26.91
A VAL E 4 -121.8 128.7 N 24.54 CA 24.06 C 23.3 O 24.07 CB 23.29 CG1 23.62 CG2 23.41
A ALA E 0 -99.8 136.9 N 23.27 CA 23.89 C 23.2 O 22.05 CB 24.13
A ASN E 0 -120.2 129.0 N 23.11 CA 22.9 C 22.8 O 22.81 CB 22.07 CG 21.34 OD1 20.5 ND2 21.98
A MET E 0 -140.6 155.7 N 23.81 CA 25.43 C 26.02 O 26.06 CB 25.85 CG 26.93 SD 28.44 CE 27.14
A SER E 10 -139.1 144.8 N 25.66 CA 26.1 C 26.09 O 24.17 CB 25.31 OG 25.31
A SER E 4 -140.1 -178.6 N 29.22 CA 31.59 C 29.6 O 28.66 CB 34.64 OG 34.83
A TYR - 103 -146.7 166.8 N 29.76 CA 29.97 C 28.63 O 28.95 CB 31.22 CG 32.71 CD1 34.11 CD2 34.34 CE1 35.66 CE2 35.41 CZ 35.39 OH 34.39
A PRO G 44 -51.2 -46.9 N 26.78 CA 25.63 C 24.96 O 25.04 CB 25.57 CG 26.09 CD 26.24
A PRO G 94 -64.3 -13.7 N 25.4 CA 26.97 C 28.22 O 29.34 CB 26.16 CG 25.77 CD 25.47
A ARG G 81 -89.4 12.8 N 30.83 CA 33.05 C 32.08 O 32.11 CB 37.46 CG 40.57 CD 44.01 NE 48.06 CZ 53.09 NH1 55.44 NH2 56.81
A LYS H 62 -58.5 -39.0 N 32.49 CA 32.9 C 31.53 O 27.14 CB 35.96 CG 40.16 CD 45.87 CE 50.66 NZ 52.32
A LYS H 121 -64.4 -42.2 N 32.3 CA 30.64 C 29.47 O 30.66 CB 32.38 CG 34.45 CD 35.66 CE 37.32 NZ 38.32
A GLU H 15 -66.5 -49.4 N 27.48 CA 26.64 C 25.75 O 25.6 CB 27.35 CG 27.93 CD 28.79 OE1 29.88 OE2 30.65
A LEU H 0 -45.0 -45.7 N 24.94 CA 23.94 C 23.09 O 24.58 CB 24.61 CG 26.66 CD1 26.26 CD2 27.72
A VAL H 33 -63.1 -39.4 N 22.28 CA 22.2 C 21.72 O 19.42 CB 22.43 CG1 22.69 CG2 22.58
A HIS H 79 -77.6 -37.5 N 23.66 CA 24.43 C 24.57 O 26.99 CB 25.12 CG 25.65 ND1 26.78 CD2 25.76 CE1 26.71 NE2 26.28
A SER H 0 -59.6 -48.2 N 24.68 CA 24.46 C 23.08 O 24.04 CB 25.69 OG 28.43
A ILE H 0 -59.9 -49.1 N 21.13 CA 21.58 C 22.9 O 22.1 CB 21.62 CG1 21.99 CG2 21.39 CD1 22.61
A GLN H 125 -47.7 -50.3 N 25.31 CA 27.57 C 26.25 O 27.97 CB 30.96 CG 35.0 CD 38.5 OE1 44.5 NE2 37.98
A SER H 25 -61.3 -29.2 N 24.41 CA 23.18 C 23.94 O 25.34 CB 21.81 OG 19.96
A LEU H 0 -88.6 -22.8 N 23.17 CA 23.8 C 24.23 O 24.5 CB 24.46 CG 24.46 CD1 24.93 CD2 24.28
A HIS H 26 -64.8 -46.3 N 25.02 CA 24.87 C 25.21 O 25.22 CB 24.33 CG 24.55 ND1 24.46 CD2 24.33 CE1 24.56 NE2 25.36
A ALA T 85 -57.7 -34.5 N 25.36 CA 24.68 C 25.7 O 28.47 CB 24.86
A GLN T 23 -106.4 -4.2 N 25.76 CA 26.37 C 27.68 O 28.6 CB 25.75 CG 26.03 CD 26.37 OE1 25.84 NE2 25.65
A VAL - 1 -116.2 161.1 N 27.09 CA 28.03 C 29.66 O 32.34 CB 26.8 CG1 26.06 CG2 26.21
A ASP S 38 -89.6 -8.1 N 30.25 CA 30.56 C 30.39 O 33.04 CB 30.33 CG 31.52 OD1 32.14 OD2 32.96
A LYS E 59 -179.2 143.3 N 29.36 CA 29.21 C 26.84 O 25.39 CB 30.94 CG 32.61 CD 34.93 CE 35.73 NZ 36.71
A ILE E 0 -128.2 118.9 N 24.81 CA 24.05 C 23.04 O 22.21 CB 23.8 CG1 24.09 CG2 23.06 CD1 24.19
A ASN E 4 -91.7 128.8 N 23.38 CA 22.73 C 23.24 O 23.65 CB 21.91 CG 20.83 OD1 19.74 ND2 21.07
A LEU E 0 -129.0 118.2 N 24.64 CA 24.96 C 25.29 O 25.12 CB 25.13 CG 24.91 CD1 24.47 CD2 25.51
A CYS E 0 -94.2 101.8 N 24.33 CA 24.12 C 25.07 O 25.62 CB 23.6 SG 23.45
A LEU E 0 -82.7 79.3 N 25.41 CA 26.2 C 27.9 O 29.23 CB 26.05 CG 26.77 CD1 26.58 CD2 26.73
A ASN T 3 -58.9 126.0 N 31.09 CA 34.04 C 36.06 O 36.4 CB 35.12 CG 37.87 OD1 43.45 ND2 36.41
A GLU T 122 66.5 8.7 N 39.25 CA 43.44 C 44.41 O 45.98 CB 47.12 CG 52.39 CD 59.75 OE1 66.78 OE2 57.58
A PHE - 17 -73.1 158.8 N 44.49 CA 45.69 C 51.0 O 51.01 CB 41.08 CG 38.1 CD1 37.29 CD2 37.03 CE1 36.29 CE2 35.85 CZ 35.94
A GLU S 190 -96.8 -54.7 N 54.82 CA 57.77 C 53.69 O 53.78 CB 64.78 CG 70.88 CD 74.0 OE1 76.34 OE2 71.4
A GLU S 157 -113.2 161.7 N 52.13 CA 50.82 C 46.7 O 45.99 CB 55.35 CG 58.81 CD 58.92 OE1 59.03 OE2 55.91
A ILE - 78 -69.4 115.9 N 42.73 CA 40.29 C 38.96 O 44.24 CB 39.45 CG1 40.76 CG2 38.36 CD1 42.15
A PRO - 11 -67.4 142.3 N 36.78 CA 36.4 C 36.51 O 35.57 CB 37.22 CG 36.85 CD 37.41
A GLU G 157 -75.1 -3.5 N 38.77 CA 42.51 C 40.14 O 38.44 CB 47.86 CG 52.72 CD 56.25 OE1 62.31 OE2 55.32
A GLU G 96 -62.7 -22.8 N 40.08 CA 38.68 C 36.66 O 35.31 CB 40.29 CG 41.74 CD 42.69 OE1 42.01 OE2 46.06
A LEU G 7 -90.5 -3.1 N 34.76 CA 33.77 C 34.78 O 34.51 CB 32.3 CG 29.49 CD1 28.81 CD2 29.37
A ASP T 129 -60.0 -25.7 N 36.58 CA 39.35 C 39.21 O 44.17 CB 42.11 CG 43.14 OD1 45.96 OD2 45.05
A GLY T 72 -66.3 -13.9 N 37.69 CA 36.78 C 34.96 O 34.23
A PHE - 23 -101.8 108.3 N 32.72 CA 32.9 C 30.36 O 30.13 CB 34.93 CG 36.38 CD1 35.65 CD2 37.24 CE1 35.32 CE2 35.81 CZ 35.43
A SER S 104 -68.8 -46.5 N 27.39 CA 26.57 C 26.18 O 26.86 CB 25.87 OG 25.17
A LYS S 37 -63.0 -16.1 N 26.31 CA 26.48 C 25.15 O 23.61 CB 26.9 CG 27.44 CD 27.81 CE 27.96 NZ 28.44
A LEU E 20 -73.7 138.1 N 24.89 CA 25.74 C 25.05 O 26.61 CB 25.72 CG 26.73 CD1 26.61 CD2 28.29
A ASN E 59 -129.2 93.3 N 25.08 CA 24.93 C 24.04 O 23.42 CB 24.53 CG 24.59 OD1 25.31 ND2 25.09
A PRO E 33 -93.7 140.1 N 23.57 CA 24.38 C 23.94 O 23.81 CB 24.79 CG 25.17 CD 24.4
A VAL E 53 -135.9 127.3 N 24.39 CA 25.21 C 26.17 O 25.85 CB 24.52 CG1 24.99 CG2 24.45
A ILE - 66 -89.7 104.8 N 26.82 CA 28.31 C 30.1 O 31.47 CB 27.61 CG1 26.93 CG2 27.47 CD1 26.24
A PRO - 20 -69.8 154.1 N 31.47 CA 33.94 C 37.26 O 35.69 CB 32.71 CG 31.75 CD 31.57
A ASP S 143 -64.2 -14.7 N 42.2 CA 45.91 C 42.89 O 45.53 CB 50.4 CG 54.72 OD1 56.62 OD2 55.18
A LYS S 101 -146.4 168.0 N 40.47 CA 40.4 C 39.16 O 37.22 CB 39.42 CG 40.3 CD 39.34 CE 39.64 NZ 40.85
A ASP - 54 -75.3 104.3 N 39.34 CA 40.64 C 39.07 O 39.53 CB 40.73 CG 41.76 OD1 42.29 OD2 42.91
A TYR - 27 -85.1 -15.1 N 36.49 CA 33.76 C 34.64 O 35.04 CB 31.69 CG 30.12 CD1 29.76 CD2 30.13 CE1 29.99 CE2 29.38 CZ 29.79 OH 30.89
A LYS G 99 53.9 -132.8 N 36.65 CA 39.18 C 37.72 O 36.29 CB 41.06 CG 44.28 CD 47.23 CE 49.49 NZ 49.96
A ASP G 72 -89.8 4.9 N 38.41 CA 42.21 C 38.59 O 39.83 CB 47.34 CG 51.44 OD1 56.92 OD2 52.11
A VAL G 1 -65.2 -24.4 N 35.95 CA 32.73 C 29.95 O 30.52 CB 31.96 CG1 32.43 CG2 32.66
A GLY G 0 -46.5 -34.3 N 27.86 CA 27.6 C 27.61 O 26.41
A LYS G 3 -63.5 -22.2 N 28.88 CA 28.33 C 26.65 O 25.53 CB 29.15 CG 31.04 CD 32.64 CE 33.07 NZ 33.91
A PHE G 8 -92.7 13.4 N 25.18 CA 24.59 C 24.3 O 25.6 CB 23.69 CG 22.78 CD1 22.44 CD2 22.41 CE1 22.06 CE2 21.94 CZ 22.1
A ILE - 33 -83.1 -13.2 N 24.32 CA 24.97 C 25.89 O 26.94 CB 24.25 CG1 24.3 CG2 24.34 CD1 24.58
A PHE - 21 -93.8 133.0 N 26.46 CA 27.39 C 30.11 O 34.21 CB 25.97 CG 25.44 CD1 25.6 CD2 24.75 CE1 24.7 CE2 24.69 CZ 24.42
A PRO - 119 -63.4 150.9 N 30.49 CA 30.44 C 30.82 O 27.76 CB 29.95 CG 29.78 CD 30.12
A CYS - 51 -119.6 173.2 N 32.67 CA 34.25 C 34.03 O 34.6 CB 36.23 SG 44.91
A ALA - 50 -102.0 156.1 N 33.25 CA 33.07 C 32.51 O 29.21 CB 33.49
A LYS T 172 -47.4 -38.9 N 34.76 CA 37.42 C 41.7 O 42.96 CB 36.65 CG 37.58 CD 38.37 CE 39.42 NZ 40.88
A ASN T 127 -106.7 12.6 N 42.74 CA 44.58 C 43.8 O 46.06 CB 48.25 CG 51.03 OD1 51.51 ND2 53.47
A ASP - 15 -73.1 148.2 N 41.82 CA 38.26 C 35.46 O 35.43 CB 37.35 CG 37.09 OD1 36.64 OD2 37.56
A MET E 24 -104.5 121.0 N 33.57 CA 34.79 C 30.79 O 31.65 CB 40.48 CG 46.2 SD 56.52 CE 50.98
A ILE E 0 -100.7 133.0 N 27.75 CA 26.33 C 26.78 O 26.74 CB 25.99 CG1 25.85 CG2 25.48 CD1 26.42
A VAL E 0 -110.9 114.8 N 26.63 CA 25.68 C 25.6 O 24.95 CB 26.24 CG1 26.99 CG2 26.65
A LEU E 0 -94.0 124.9 N 25.25 CA 25.29 C 25.42 O 25.58 CB 25.6 CG 26.13 CD1 25.83 CD2 26.39
A THR E 0 -125.3 167.3 N 25.54 CA 26.05 C 26.13 O 26.08 CB 25.93 OG1 25.74 CG2 25.12
A ASP - 49 -112.7 159.9 N 26.6 CA 28.12 C 27.33 O 26.16 CB 29.66 CG 31.69 OD1 31.57 OD2 34.69
A ASP T 13 -82.1 2.9 N 27.29 CA 28.52 C 27.92 O 26.58 CB 28.59 CG 27.49 OD1 28.54 OD2 25.61
A ASP T 13 -139.8 34.8 N 27.94 CA 29.14 C 27.48 O 27.43 CB 31.41 CG 34.46 OD1 38.62 OD2 36.22
A ILE E 3 -116.4 133.0 N 26.35 CA 25.31 C 25.19 O 23.5 CB 24.85 CG1 25.12 CG2 24.34 CD1 25.18
A ILE E 25 -90.3 107.6 N 25.34 CA 25.53 C 23.46 O 23.18 CB 27.1 CG1 28.92 CG2 26.94 CD1 29.81
A TYR - 4 -78.2 140.6 N 22.66 CA 22.74 C 22.43 O 22.75 CB 21.93 CG 21.41 CD1 21.11 CD2 21.25 CE1 20.88 CE2 21.08 CZ 20.73 OH 20.01
A PRO - 10 -68.1 164.0 N 22.74 CA 22.54 C 23.82 O 23.35 CB 22.0 CG 22.11 CD 22.38
A PRO T 124 -57.3 -31.0 N 25.38 CA 25.23 C 25.17 O 25.62 CB 25.44 CG 25.21 CD 25.37
A ASP T 45 -109.7 21.4 N 25.16 CA 24.72 C 25.16 O 23.43 CB 25.02 CG 24.96 OD1 24.45 OD2 24.26
A TYR H 0 -56.7 -57.6 N 25.82 CA 24.4 C 23.86 O 23.73 CB 24.53 CG 25.29 CD1 25.85 CD2 25.57 CE1 26.66 CE2 26.66 CZ 27.61 OH 29.04
A VAL H 0 -66.4 -49.8 N 25.08 CA 25.94 C 27.11 O 26.65 CB 26.63 CG1 26.76 CG2 26.63
A GLU H 95 -44.9 -56.5 N 29.51 CA 31.34 C 30.98 O 31.16 CB 33.17 CG 37.82 CD 42.16 OE1 45.92 OE2 41.47
A LYS H 84 -62.8 -49.0 N 30.49 CA 32.71 C 32.63 O 37.15 CB 35.15 CG 38.78 CD 42.86 CE 44.61 NZ 45.19
A MET H 0 -65.0 -41.6 N 30.66 CA 29.63 C 29.19 O 28.79 CB 29.51 CG 29.34 SD 28.51 CE 29.95
A LEU H 10 -59.0 -43.0 N 30.27 CA 29.37 C 29.85 O 31.5 CB 28.5 CG 28.98 CD1 28.9 CD2 30.19
A ASN H 45 -68.6 -36.1 N 29.79 CA 30.14 C 29.67 O 29.7 CB 31.29 CG 33.6 OD1 34.68 ND2 34.34
A PHE H 40 -59.6 -51.3 N 28.32 CA 27.23 C 27.51 O 29.02 CB 26.63 CG 27.31 CD1 27.04 CD2 26.7 CE1 26.8 CE2 26.81 CZ 26.48
A TYR H 14 -57.7 -44.7 N 27.34 CA 26.81 C 27.28 O 28.36 CB 25.85 CG 24.7 CD1 24.3 CD2 24.68 CE1 25.31 CE2 24.27 CZ 24.76 OH 23.9
A ASN H 63 -74.1 -42.9 N 27.8 CA 28.62 C 29.23 O 30.82 CB 29.21 CG 29.55 OD1 31.4 ND2 29.59
A SER H 74 -58.1 -46.4 N 28.95 CA 28.69 C 28.54 O 29.07 CB 29.19 OG 31.07
A PHE H 52 -82.6 -3.0 N 28.18 CA 28.44 C 27.35 O 25.07 CB 30.22 CG 32.22 CD1 33.02 CD2 33.26 CE1 32.02 CE2 33.5 CZ 31.58
A ALA T 52 -80.3 42.2 N 28.17 CA 28.28 C 29.13 O 29.38 CB 27.56
A ILE T 148 -78.1 -7.8 N 29.07 CA 29.86 C 31.72 O 31.77 CB 28.62 CG1 28.96 CG2 27.41 CD1 30.12
A PHE S 116 -152.5 12.4 N 33.78 CA 34.86 C 35.57 O 41.53 CB 34.51 CG 34.07 CD1 33.13 CD2 33.86 CE1 33.34 CE2 33.8 CZ 34.3
A ASN S 83 77.7 92.4 N 33.87 CA 32.36 C 31.8 O 30.66 CB 29.52 CG 29.11 OD1 27.35 ND2 28.63
A CYS E 3 -158.0 177.8 N 32.13 CA 32.84 C 29.77 O 29.89 CB 34.68 SG 38.43
A ILE E 0 -128.7 164.3 N 27.45 CA 27.52 C 26.77 O 29.18 CB 27.53 CG1 26.64 CG2 26.54 CD1 25.6
A VAL E 0 -121.8 151.3 N 25.22 CA 25.54 C 24.61 O 24.84 CB 26.56 CG1 27.27 CG2 25.97
A GLY E 0 -158.6 169.7 N 24.2 CA 23.9 C 24.6 O 24.22
A ILE S 0 -97.6 -59.2 N 25.81 CA 27.08 C 27.19 O 25.15 CB 28.56 CG1 28.95 CG2 29.4 CD1 30.16
A HIS S 51 -78.2 127.8 N 27.1 CA 28.39 C 28.51 O 27.6 CB 30.23 CG 32.62 ND1 34.46 CD2 33.59 CE1 35.35 NE2 33.14
A GLY E 0 -162.4 158.6 N 29.05 CA 29.68 C 29.27 O 29.0
A CYS E 13 -127.9 164.6 N 30.52 CA 32.23 C 31.12 O 29.33 CB 35.32 SG 45.16
A ILE E 51 -126.8 91.6 N 30.41 CA 30.92 C 32.68 O 33.62 CB 30.24 CG1 30.15 CG2 29.63 CD1 29.93
A TYR E 82 -74.4 128.6 N 36.16 CA 38.15 C 40.65 O 39.53 CB 39.38 CG 43.84 CD1 46.0 CD2 44.87 CE1 48.06 CE2 49.7 CZ 50.87 OH 49.03
A ILE E 78 -117.3 118.1 N 42.34 CA 42.76 C 42.43 O 38.84 CB 44.59 CG1 45.36 CG2 44.71 CD1 45.82
A ASP - 123 -52.7 147.8 N 44.77 CA 44.31 C 41.45 O 37.72 CB 48.53 CG 52.39 OD1 54.95 OD2 53.77
A ALA - 62 -70.3 142.6 N 43.06 CA 42.45 C 43.31 O 44.27 CB 40.44
A PHE B 162 -160.5 129.6 N 40.95 CA 40.78 C 42.02 O 43.75 CB 40.88 CG 40.36 CD1 42.09 CD2 40.04 CE1 41.14 CE2 39.32 CZ 39.71
A ASP T 146 60.3 44.6 N 41.02 CA 42.37 C 39.65 O 35.07 CB 44.69 CG 46.66 OD1 44.35 OD2 48.6
A GLY T 83 83.2 -21.5 N 40.68 CA 43.57 C 44.23 O 42.38
A ASP B 105 -63.7 130.0 N 48.6 CA 49.7 C 48.4 O 43.09 CB 54.93 CG 59.96 OD1 65.06 OD2 56.52
A GLN - 169 -66.3 154.2 N 51.45 CA 54.37 C 54.45 O 49.7 CB 60.23 CG 64.41 CD 66.81 OE1 64.4 NE2 68.71
A SER - 49 -53.0 134.5 N 53.93 CA 49.34 C 49.11 O 48.93 CB 47.47 OG 48.33
A LYS E 113 -125.9 152.0 N 48.07 CA 45.55 C 44.74 O 44.2 CB 46.63 CG 50.03 CD 53.15 CE 53.72 NZ 50.48
A ARG E 115 -137.8 117.2 N 45.96 CA 46.51 C 46.21 O 49.82 CB 47.84 CG 49.69 CD 50.15 NE 51.44 CZ 53.85 NH1 52.87 NH2 52.22
A LYS E 114 -90.4 133.1 N 43.49 CA 40.15 C 36.86 O 38.23 CB 42.77 CG 47.85 CD 52.74 CE 54.15 NZ 54.13
A VAL E 50 -124.9 128.2 N 34.08 CA 31.0 C 29.82 O 29.24 CB 30.33 CG1 30.46 CG2 30.08
A PHE E 17 -104.6 91.2 N 29.67 CA 30.23 C 30.31 O 29.87 CB 31.39 CG 33.13 CD1 34.45 CD2 34.44 CE1 35.65 CE2 34.97 CZ 36.6
A SER - 22 -66.5 168.6 N 32.18 CA 33.77 C 33.5 O 33.15 CB 33.35 OG 33.63
A PHE S 34 -68.3 -28.1 N 33.16 CA 32.37 C 34.79 O 38.81 CB 30.93 CG 31.67 CD1 32.27 CD2 32.18 CE1 32.48 CE2 32.22 CZ 31.47
A THR S 28 -81.7 -33.2 N 34.56 CA 31.2 C 32.01 O 31.96 CB 29.73 OG1 27.71 CG2 29.84
A GLN S 69 -63.2 143.8 N 33.12 CA 33.75 C 32.29 O 31.25 CB 35.84 CG 37.86 CD 40.3 OE1 44.49 NE2 40.76
A GLY - 30 -75.5 164.9 N 30.54 CA 29.49 C 28.94 O 30.99
A LEU B 19 -155.4 122.0 N 27.7 CA 27.39 C 27.66 O 24.89 CB 26.26 CG 25.01 CD1 24.4 CD2 24.96
A LEU S 145 -76.8 -56.2 N 31.38 CA 35.8 C 37.33 O 35.38 CB 38.43 CG 39.78 CD1 42.44 CD2 38.77
A ARG S 110 -112.2 160.6 N 40.54 CA 41.64 C 37.66 O 36.59 CB 46.36 CG 51.98 CD 58.73 NE 65.55 CZ 66.79 NH1 64.58 NH2 66.11
A PRO - 49 -65.1 157.4 N 35.18 CA 34.55 C 33.42 O 33.2 CB 33.79 CG 33.78 CD 34.5
A ARG E 92 -134.0 147.1 N 33.04 CA 33.3 C 30.68 O 31.59 CB 34.91 CG 39.16 CD 43.75 NE 45.54 CZ 47.95 NH1 50.91 NH2 48.82
A VAL E 107 -85.0 130.0 N 26.99 CA 25.35 C 24.55 O 25.83 CB 24.37 CG1 23.37 CG2 25.01
A VAL - 8 -124.6 165.5 N 23.12 CA 23.98 C 23.82 O 24.47 CB 24.7 CG1 24.47 CG2 24.81
A ASN S 52 -114.4 7.8 N 24.23 CA 26.14 C 27.67 O 26.54 CB 26.26 CG 25.53 OD1 26.22 ND2 24.93
A GLN E 28 -150.2 138.0 N 30.55 CA 32.35 C 29.68 O 27.66 CB 35.87 CG 39.94 CD 45.2 OE1 50.66 NE2 47.54
A LEU E 1 -130.2 133.1 N 28.57 CA 29.06 C 29.4 O 29.74 CB 27.79 CG 27.76 CD1 27.38 CD2 28.17
A GLY - 5 -68.5 131.3 N 29.16 CA 29.57 C 30.8 O 33.68
A THR T 6 -71.4 8.8 N 28.68 CA 27.11 C 26.43 O 25.58 CB 27.4 OG1 27.09 CG2 27.04
A GLY T 5 -98.6 4.6 N 26.38 CA 26.38 C 26.39 O 26.53
A THR E 3 -153.7 28.8 N 25.99 CA 25.73 C 24.89 O 23.07 CB 26.86 OG1 27.96 CG2 26.81
A VAL E 0 -108.4 150.0 N 25.82 CA 26.24 C 26.31 O 25.15 CB 26.04 CG1 25.86 CG2 26.95
A PHE E 0 -132.6 125.8 N 28.56 CA 31.23 C 31.31 O 29.87 CB 33.06 CG 34.83 CD1 36.23 CD2 36.6 CE1 37.66 CE2 39.11 CZ 39.89
A LEU E 0 -161.3 163.2 N 31.58 CA 32.73 C 34.14 O 36.5 CB 32.78 CG 32.6 CD1 32.33 CD2 32.87
A LYS E 95 -82.2 146.0 N 34.66 CA 34.28 C 31.28 O 31.63 CB 38.38 CG 43.01 CD 47.87 CE 50.82 NZ 50.29
A ALA G 17 -49.9 -37.8 N 29.49 CA 28.84 C 28.41 O 27.03 CB 29.37
A ASP G 127 -53.9 -38.3 N 28.15 CA 27.72 C 26.27 O 26.25 CB 29.08 CG 30.73 OD1 30.36 OD2 33.71
A GLN G 9 -86.0 -4.4 N 25.75 CA 24.89 C 25.76 O 26.4 CB 23.8 CG 22.87 CD 23.32 OE1 25.08 NE2 23.23
A LEU - 25 -84.9 130.5 N 27.43 CA 27.35 C 28.14 O 30.02 CB 27.0 CG 26.1 CD1 26.64 CD2 25.44
A PRO - 1 -74.2 140.6 N 27.91 CA 27.08 C 28.08 O 29.3 CB 26.8 CG 26.52 CD 27.49
A SER - 68 -75.5 172.4 N 29.56 CA 30.47 C 31.41 O 31.1 CB 29.57 OG 30.75
A LEU H 48 -60.1 -35.1 N 29.9 CA 28.5 C 28.88 O 26.16 CB 27.57 CG 27.12 CD1 27.86 CD2 26.96
A LYS H 191 -58.4 -38.5 N 31.12 CA 33.57 C 33.2 O 31.26 CB 35.95 CG 39.46 CD 41.08 CE 43.54 NZ 43.19
A TYR H 54 -73.9 -38.6 N 34.12 CA 32.63 C 30.84 O 30.47 CB 32.93 CG 33.47 CD1 32.48 CD2 33.49 CE1 32.82 CE2 34.58 CZ 33.63 OH 34.55
A MET H 0 -93.1 -12.6 N 30.93 CA 31.78 C 31.72 O 30.24 CB 32.16 CG 32.68 SD 31.99 CE 32.42
A ASP T 71 -66.9 137.5 N 33.08 CA 32.21 C 31.37 O 30.91 CB 31.99 CG 31.36 OD1 32.2 OD2 30.37
A GLY T 55 93.3 -11.9 N 32.37 CA 33.39 C 34.21 O 32.84
A SER - 0 -90.2 2.5 N 35.21 CA 34.55 C 33.16 O 33.8 CB 34.29 OG 35.38
A GLN T 47 -51.6 141.4 N 33.16 CA 33.56 C 36.92 O 44.46 CB 31.19 CG 28.7 CD 27.31 OE1 26.61 NE2 27.0
A ARG T 232 99.6 -31.2 N 39.17 CA 42.39 C 39.73 O 40.67 CB 44.99 CG 47.73 CD 47.09 NE 48.09 CZ 45.75 NH1 44.89 NH2 41.15
A PHE S 88 -146.7 50.5 N 37.91 CA 36.8 C 33.97 O 32.05 CB 38.12 CG 40.6 CD1 40.78 CD2 40.67 CE1 41.23 CE2 40.83 CZ 40.45
A VAL H 9 -62.7 -43.4 N 32.67 CA 31.94 C 31.54 O 28.64 CB 32.46 CG1 33.24 CG2 34.9
A ASP H 52 -61.9 -43.0 N 31.56 CA 31.87 C 32.41 O 33.32 CB 32.53 CG 34.78 OD1 35.9 OD2 36.07
A VAL H 52 -62.6 -47.2 N 32.86 CA 33.67 C 34.31 O 36.73 CB 33.74 CG1 31.85 CG2 33.85
A ARG H 58 -65.8 -43.9 N 34.16 CA 36.51 C 35.01 O 33.9 CB 39.69 CG 42.55 CD 45.98 NE 53.2 CZ 59.24 NH1 59.15 NH2 59.14
A PHE H 0 -49.4 -64.2 N 35.32 CA 36.77 C 36.94 O 36.06 CB 36.86 CG 35.44 CD1 35.24 CD2 35.02 CE1 34.84 CE2 34.62 CZ 34.06
A SER H 1 -55.7 -39.8 N 37.7 CA 38.87 C 42.61 O 46.98 CB 37.65 OG 37.23
A ARG H 136 -52.5 -40.6 N 43.96 CA 46.35 C 41.16 O 38.81 CB 54.4 CG 61.22 CD 67.0 NE 71.67 CZ 69.98 NH1 67.44 NH2 71.93
A TYR H 44 -66.4 -35.3 N 37.86 CA 36.06 C 37.56 O 43.93 CB 33.1 CG 32.95 CD1 33.35 CD2 33.02 CE1 33.19 CE2 33.68 CZ 33.12 OH 30.75
A MET H 0 -70.4 -54.6 N 35.17 CA 34.01 C 35.61 O 35.2 CB 32.92 CG 31.29 SD 29.88 CE 30.49
A LEU H 95 -49.8 -43.2 N 37.79 CA 41.01 C 44.26 O 49.41 CB 42.39 CG 41.38 CD1 42.56 CD2 40.17
A GLU H 111 -63.7 -44.0 N 46.62 CA 48.2 C 44.81 O 44.98 CB 53.38 CG 57.74 CD 62.54 OE1 60.28 OE2 67.62
A ASN T 85 -92.8 21.4 N 43.04 CA 44.04 C 43.44 O 41.47 CB 46.17 CG 48.06 OD1 49.3 ND2 48.21
A GLU T 169 35.4 66.1 N 45.58 CA 46.63 C 40.69 O 39.56 CB 53.49 CG 57.09 CD 59.93 OE1 58.56 OE2 63.62
A ILE - 14 -112.5 130.5 N 37.32 CA 34.79 C 31.69 O 32.39 CB 34.92 CG1 35.83 CG2 34.22 CD1 35.99
A GLY E 18 -71.1 162.1 N 28.94 CA 28.08 C 26.49 O 26.69
A MET E 6 -131.0 123.9 N 26.35 CA 27.21 C 26.3 O 24.89 CB 28.23 CG 30.3 SD 34.24 CE 33.58
A ILE E 16 -119.9 121.3 N 27.05 CA 27.93 C 27.8 O 27.06 CB 28.04 CG1 29.79 CG2 27.01 CD1 30.64
A CYS E 0 -82.0 128.3 N 28.5 CA 29.6 C 28.7 O 29.1 CB 30.69 SG 34.78
A VAL - 0 -97.9 151.8 N 26.86 CA 26.5 C 25.68 O 25.79 CB 27.27 CG1 27.67 CG2 27.77
A PRO - 24 -67.4 150.7 N 25.14 CA 24.08 C 23.4 O 22.99 CB 24.19 CG 24.0 CD 24.47
A ARG B 18 -166.1 148.1 N 23.48 CA 24.3 C 25.62 O 24.83 CB 23.57 CG 22.67 CD 22.1 NE 21.51 CZ 20.97 NH1 21.06 NH2 20.77
A GLU - 144 -71.7 163.1 N 28.62 CA 31.42 C 29.63 O 26.91 CB 35.46 CG 41.79 CD 46.19 OE1 47.49 OE2 45.65
A LYS T 134 -68.2 138.0 N 28.58 CA 29.37 C 28.01 O 29.67 CB 31.72 CG 34.15 CD 36.04 CE 37.38 NZ 36.87
A ASN T 46 63.6 33.2 N 24.62 CA 23.39 C 23.37 O 23.78 CB 23.0 CG 23.1 OD1 21.59 ND2 23.76
A TRP S 28 -63.6 -42.5 N 23.13 CA 22.42 C 22.66 O 23.93 CB 22.33 CG 21.67 CD1 21.21 CD2 21.19 NE1 21.53 CE2 21.44 CE3 21.04 CZ2 20.99 CZ3 21.03 CH2 21.09
A LEU S 0 -103.3 146.6 N 23.15 CA 23.74 C 23.78 O 23.25 CB 24.7 CG 24.89 CD1 25.89 CD2 24.16
A ARG E 88 -123.0 173.8 N 24.96 CA 25.96 C 27.28 O 29.44 CB 26.04 CG 26.78 CD 26.52 NE 25.14 CZ 23.71 NH1 22.96 NH2 24.26
A GLU E 46 -130.5 135.0 N 28.05 CA 30.52 C 31.44 O 31.07 CB 31.9 CG 33.48 CD 36.47 OE1 39.61 OE2 38.89
A VAL - 2 -95.9 161.1 N 31.91 CA 30.81 C 31.31 O 31.89 CB 30.68 CG1 30.75 CG2 30.15
A SER E 25 -172.7 143.3 N 32.09 CA 33.29 C 32.33 O 33.36 CB 34.01 OG 36.81
A SER E 40 -123.9 110.4 N 33.31 CA 36.77 C 40.35 O 43.9 CB 37.72 OG 37.18
A GLY - 36 -92.1 173.3 N 42.32 CA 43.68 C 44.09 O 41.25
A SER T 138 -35.4 -42.1 N 47.21 CA 50.5 C 52.12 O 56.46 CB 53.94 OG 57.67
A MET T 114 -68.3 83.5 N 53.05 CA 50.92 C 45.06 O 42.27 CB 53.72 CG 56.37 SD 57.22 CE 53.69
A GLU T 170 41.1 41.1 N 42.53 CA 45.77 C 43.65 O 40.03 CB 30.0 CG 30.0 CD 30.0 OE1 30.0 OE2 30.0
A GLY T 42 56.6 39.4 N 42.36 CA 41.64 C 37.95 O 38.69
A LEU - 116 -69.1 129.7 N 34.41 CA 31.77 C 30.61 O 28.65 CB 30.0 CG 30.0 CD1 30.0 CD2 30.0
A TRP E 91 -71.6 138.6 N 31.16 CA 32.34 C 32.56 O 34.12 CB 33.28 CG 33.46 CD1 34.14 CD2 33.46 NE1 34.67 CE2 33.66 CE3 34.38 CZ2 34.25 CZ3 34.74 CH2 34.63
A ASN E 62 -143.6 109.5 N 32.81 CA 32.33 C 33.73 O 33.24 CB 31.55 CG 30.19 OD1 29.18 ND2 30.75
A THR S 67 -91.9 27.1 N 33.84 CA 32.69 C 31.7 O 31.67 CB 33.26 OG1 33.69 CG2 32.63
A PHE S 94 -163.9 74.5 N 32.46 CA 33.22 C 34.43 O 35.01 CB 32.62 CG 32.49 CD1 31.47 CD2 32.56 CE1 30.6 CE2 30.99 CZ 30.53
A THR - 20 -102.0 147.9 N 36.53 CA 36.43 C 36.23 O 33.36 CB 37.52 OG1 37.41 CG2 37.58
A LYS - 169 -121.5 360.0 N 41.12 CA 42.64 C 38.63 O 35.84 CB 45.53 CG 48.71 CD 49.95 CE 52.47 NZ 52.82
B HIS - 201 360.0 -62.1 N 55.88 CA 56.78 C 50.84 O 50.2 CB 59.43 CG 61.64 ND1 61.07 CD2 62.53 CE1 62.6 NE2 65.36
B MET - 96 -71.6 105.6 N 45.82 CA 43.38 C 40.75 O 41.28 CB 44.71 CG 46.57 SD 50.47 CE 48.87
B MET - 59 -114.3 152.9 N 39.37 CA 38.04 C 34.94 O 34.74 CB 39.02 CG 40.53 SD 43.22 CE 41.58
B ILE E 13 -100.2 111.1 N 32.77 CA 33.65 C 34.35 O 36.44 CB 34.64 CG1 34.37 CG2 35.49 CD1 34.57
B VAL E 2 -110.1 139.7 N 34.07 CA 34.54 C 32.95 O 34.04 CB 35.41 CG1 36.22 CG2 36.0
B ALA E 0 -110.7 123.4 N 29.88 CA 30.09 C 30.03 O 31.15 CB 30.42
B ASN E 0 -103.6 128.5 N 30.16 CA 28.96 C 27.13 O 24.73 CB 29.34 CG 29.44 OD1 29.36 ND2 29.32
B MET E 0 -140.9 147.8 N 28.17 CA 29.94 C 28.81 O 29.52 CB 31.61 CG 34.08 SD 41.07 CE 41.22
B SER E 11 -123.7 150.8 N 27.27 CA 27.98 C 29.27 O 31.71 CB 27.29 OG 27.65
B SER E 3 -155.6 178.8 N 31.42 CA 33.09 C 35.17 O 36.3 CB 33.99 OG 33.68
B TYR - 95 -157.6 161.6 N 38.53 CA 39.65 C 42.42 O 43.15 CB 38.04 CG 36.9 CD1 39.64 CD2 38.58 CE1 41.13 CE2 40.46 CZ 41.54 OH 41.97
B PRO G 47 -53.0 -42.8 N 44.36 CA 44.81 C 43.16 O 42.08 CB 44.46 CG 43.31 CD 42.42
B PRO G 90 -54.7 -29.9 N 45.93 CA 50.16 C 53.3 O 58.73 CB 49.62 CG 48.67 CD 47.58
B ARG G 50 -90.9 18.5 N 53.54 CA 53.33 C 51.24 O 52.31 CB 58.27 CG 62.44 CD 67.8 NE 70.93 CZ 71.62 NH1 70.94 NH2 73.37
B LYS H 71 -60.3 -37.6 N 48.18 CA 46.95 C 46.32 O 46.02 CB 49.68 CG 50.53 CD 49.77 CE 49.24 NZ 49.33
B LYS H 93 -69.4 -44.0 N 48.28 CA 50.81 C 50.09 O 49.31 CB 56.35 CG 63.57 CD 69.56 CE 77.34 NZ 78.25
B GLU H 31 -72.0 -44.6 N 48.27 CA 48.01 C 44.73 O 43.68 CB 51.82 CG 56.09 CD 59.99 OE1 62.55 OE2 60.97
B LEU H 1 -42.5 -43.3 N 42.89 CA 41.36 C 42.37 O 43.1 CB 41.76 CG 39.58 CD1 37.83 CD2 38.46
B VAL H 38 -67.4 -39.7 N 42.63 CA 43.61 C 45.88 O 49.58 CB 43.9 CG1 44.99 CG2 44.55
B HIS H 78 -64.2 -44.8 N 47.17 CA 46.77 C 43.94 O 42.44 CB 47.14 CG 48.09 ND1 49.35 CD2 48.56 CE1 49.95 NE2 49.56
B SER H 0 -63.8 -49.5 N 41.91 CA 40.07 C 36.8 O 33.49 CB 41.47 OG 45.65
B ILE H 0 -60.2 -32.2 N 36.94 CA 37.54 C 38.25 O 40.01 CB 37.26 CG1 36.58 CG2 37.79 CD1 37.39
B GLN H 125 -63.0 -44.3 N 39.3 CA 40.48 C 36.52 O 34.67 CB 43.66 CG 46.29 CD 46.92 OE1 48.85 NE2 46.43
B SER H 23 -62.2 -21.2 N 32.64 CA 30.86 C 29.33 O 27.8 CB 31.13 OG 30.93
B LEU H 0 -102.4 -24.6 N 29.23 CA 28.09 C 26.86 O 26.83 CB 29.01 CG 30.13 CD1 30.26 CD2 30.32
B HIS H 29 -53.1 -42.9 N 27.48 CA 27.86 C 27.9 O 28.14 CB 28.94 CG 30.82 ND1 32.07 CD2 31.98 CE1 31.88 NE2 32.1
B ALA T 95 -72.6 -30.2 N 28.23 CA 27.66 C 28.1 O 29.35 CB 28.45
B GLN T 34 -96.4 -7.8 N 27.24 CA 26.19 C 26.96 O 28.66 CB 24.2 CG 23.77 CD 22.48 OE1 23.7 NE2 21.76
B VAL - 1 -116.4 165.2 N 26.97 CA 28.41 C 27.56 O 27.29 CB 28.79 CG1 28.79 CG2 27.72
B ASP S 85 -92.9 -22.7 N 27.01 CA 28.17 C 28.61 O 29.05 CB 28.57 CG 28.39 OD1 28.84 OD2 28.17
B LYS E 82 -157.3 150.2 N 29.71 CA 29.65 C 30.07 O 30.71 CB 29.87 CG 29.64 CD 29.55 CE 29.96 NZ 29.51
B ILE E 0 -134.2 110.4 N 30.48 CA 29.76 C 28.98 O 30.59 CB 29.91 CG1 31.55 CG2 29.12 CD1 33.46
B ASN E 5 -87.8 140.5 N 28.19 CA 26.82 C 26.68 O 26.92 CB 27.15 CG 28.08 OD1 27.53 ND2 27.13
B LEU E 0 -145.3 115.6 N 25.93 CA 24.68 C 23.61 O 22.67 CB 25.2 CG 25.53 CD1 25.76 CD2 25.12
B CYS E 0 -96.0 107.1 N 23.07 CA 22.78 C 23.0 O 20.9 CB 22.31 SG 22.95
B LEU E 0 -90.3 71.3 N 24.2 CA 25.49 C 27.59 O 29.29 CB 25.25 CG 25.36 CD1 24.53 CD2 25.33
B ASN T 4 -55.1 136.6 N 28.9 CA 30.75 C 32.15 O 32.45 CB 31.73 CG 31.96 OD1 34.36 ND2 30.92
B GLU T 98 62.1 14.3 N 34.05 CA 37.2 C 36.84 O 38.24 CB 41.35 CG 45.99 CD 53.13 OE1 59.11 OE2 54.18
B PHE - 25 -85.3 159.8 N 37.91 CA 37.46 C 39.68 O 42.62 CB 37.23 CG 38.63 CD1 39.6 CD2 38.91 CE1 39.22 CE2 40.08 CZ 39.87
B GLU S 188 -111.3 -33.3 N 40.92 CA 41.77 C 43.31 O 43.08 CB 42.33 CG 43.8 CD 46.2 OE1 47.03 OE2 48.12
B GLU S 155 -139.4 158.7 N 43.78 CA 43.42 C 40.02 O 38.21 CB 48.28 CG 54.02 CD 58.47 OE1 58.63 OE2 61.45
B ILE - 73 -71.8 122.1 N 37.52 CA 35.61 C 34.78 O 32.24 CB 34.17 CG1 33.29 CG2 34.65 CD1 33.97
B PRO - 9 -71.8 137.7 N 37.92 CA 40.87 C 42.39 O 40.7 CB 38.98 CG 39.26 CD 38.78
B GLU G 151 -62.0 -29.9 N 49.09 CA 52.89 C 52.38 O 51.09 CB 57.23 CG 59.12 CD 60.42 OE1 61.16 OE2 60.15
B GLU G 100 -49.8 -22.4 N 51.25 CA 49.39 C 50.35 O 56.75 CB 48.83 CG 50.0 CD 51.04 OE1 52.38 OE2 48.42
B LEU G 5 -90.9 0.4 N 49.5 CA 48.29 C 50.72 O 49.92 CB 45.52 CG 45.46 CD1 46.18 CD2 46.2
B ASP T 111 -73.3 -30.9 N 52.84 CA 53.36 C 54.37 O 53.86 CB 53.19 CG 53.26 OD1 51.31 OD2 58.43
B GLY T 76 -61.7 -23.1 N 53.56 CA 53.55 C 53.2 O 58.29
B PHE - 21 -88.1 110.8 N 49.09 CA 43.02 C 41.2 O 38.05 CB 41.73 CG 41.98 CD1 41.68 CD2 43.85 CE1 41.16 CE2 44.02 CZ 42.07
B SER T 112 -71.5 -17.6 N 39.19 CA 38.12 C 37.98 O 38.25 CB 38.71 OG 39.42
B LYS T 63 -102.1 -8.9 N 37.75 CA 37.47 C 36.16 O 32.94 CB 38.7 CG 40.47 CD 42.41 CE 43.51 NZ 44.98
B LEU E 19 -72.4 123.3 N 34.78 CA 33.28 C 31.55 O 30.48 CB 33.82 CG 35.08 CD1 35.73 CD2 35.9
B ASN E 62 -106.7 91.8 N 30.79 CA 30.2 C 28.12 O 27.56 CB 31.06 CG 33.3 OD1 34.11 ND2 34.64
B PRO E 34 -81.8 140.1 N 28.12 CA 27.96 C 26.79 O 25.84 CB 28.78 CG 28.49 CD 28.16
B VAL E 48 -141.2 127.0 N 27.27 CA 28.25 C 27.13 O 27.21 CB 29.33 CG1 29.02 CG2 30.42
B ILE - 66 -89.3 121.9 N 26.86 CA 27.57 C 27.15 O 26.63 CB 27.75 CG1 27.88 CG2 27.77 CD1 28.59
B PRO - 27 -86.3 171.2 N 28.65 CA 30.85 C 31.5 O 32.14 CB 30.67 CG 29.94 CD 29.36
B ASP S 135 -69.9 -13.2 N 33.37 CA 36.67 C 36.73 O 32.74 CB 39.45 CG 42.09 OD1 47.12 OD2 42.26
B LYS S 91 -167.7 163.0 N 37.85 CA 36.64 C 35.31 O 37.01 CB 39.69 CG 41.81 CD 44.55 CE 45.91 NZ 46.06
B ASP - 41 -78.2 105.2 N 35.14 CA 35.2 C 33.27 O 34.13 CB 36.01 CG 37.0 OD1 39.32 OD2 36.82
B TYR - 15 -89.5 -7.8 N 29.91 CA 28.21 C 28.41 O 27.27 CB 27.37 CG 25.97 CD1 26.56 CD2 25.28 CE1 25.88 CE2 25.3 CZ 24.93 OH 23.96
B LYS G 46 48.0 -132.8 N 31.39 CA 32.48 C 32.2 O 33.36 CB 32.71 CG 34.69 CD 36.25 CE 36.93 NZ 36.44
B ASP G 50 -68.2 -18.8 N 34.0 CA 33.95 C 29.59 O 28.68 CB 37.04 CG 41.23 OD1 39.38 OD2 41.66
B VAL G 0 -70.3 -25.4 N 25.43 CA 24.27 C 23.92 O 23.87 CB 24.06 CG1 23.27 CG2 24.52
B GLY G 0 -39.1 -42.0 N 22.34 CA 21.84 C 22.19 O 19.95
B LYS G 0 -63.2 -10.7 N 24.92 CA 25.69 C 25.79 O 26.51 CB 25.87 CG 27.41 CD 27.74 CE 29.15 NZ 29.86
B PHE G 8 -96.9 3.0 N 26.37 CA 26.97 C 27.95 O 29.15 CB 26.21 CG 25.6 CD1 25.79 CD2 25.47 CE1 25.99 CE2 26.36 CZ 26.31
B ILE - 33 -71.9 -28.1 N 28.78 CA 28.63 C 30.26 O 31.62 CB 27.68 CG1 26.82 CG2 27.77 CD1 26.38
B PHE S 17 -81.1 124.4 N 31.36 CA 31.58 C 34.15 O 33.17 CB 29.39 CG 27.78 CD1 25.75 CD2 27.72 CE1 25.2 CE2 25.71 CZ 25.27
B PRO - 124 -76.5 136.4 N 38.96 CA 40.56 C 42.62 O 40.64 CB 39.11 CG 39.13 CD 38.77
B CYS - 35 -119.4 157.2 N 46.41 CA 47.39 C 44.28 O 47.11 CB 52.41 SG 67.39
B ALA - 48 -71.4 122.7 N 42.68 CA 41.91 C 43.33 O 42.79 CB 41.72
B LYS T 136 -29.3 -43.6 N 45.55 CA 49.62 C 47.61 O 43.38 CB 55.95 CG 60.99 CD 66.0 CE 66.38 NZ 65.71
B ASN T 69 -82.8 -12.9 N 47.31 CA 47.98 C 42.35 O 39.42 CB 55.15 CG 64.77 OD1 74.84 ND2 69.63
B ASP - 8 -73.2 152.8 N 40.13 CA 38.26 C 33.72 O 30.76 CB 40.67 CG 42.49 OD1 39.58 OD2 44.48
B MET E 13 -98.5 136.8 N 31.08 CA 31.18 C 30.38 O 31.52 CB 30.21 CG 31.37 SD 31.48 CE 31.49
B ILE E 0 -116.9 141.4 N 28.65 CA 28.77 C 28.17 O 26.67 CB 30.7 CG1 31.0 CG2 30.87 CD1 30.64
B VAL E 0 -127.5 101.1 N 29.18 CA 29.0 C 29.12 O 30.12 CB 28.29 CG1 28.43 CG2 28.55
B LEU E 0 -83.8 134.8 N 28.45 CA 27.6 C 26.27 O 24.74 CB 28.2 CG 27.59 CD1 29.16 CD2 26.61
B THR E 0 -142.0 157.8 N 27.06 CA 30.38 C 32.85 O 34.31 CB 31.48 OG1 34.22 CG2 31.18
B ASP E 59 -115.6 145.0 N 38.04 CA 41.36 C 43.08 O 46.35 CB 42.49 CG 44.72 OD1 44.3 OD2 50.13
B ASP T 14 -62.4 -22.5 N 44.91 CA 41.75 C 40.52 O 41.02 CB 42.25 CG 42.95 OD1 43.03 OD2 43.29
B ASP T 30 -98.5 18.4 N 42.02 CA 43.94 C 40.14 O 39.29 CB 48.48 CG 50.73 OD1 50.35 OD2 51.23
B ILE E 8 -113.7 134.2 N 36.23 CA 34.32 C 33.25 O 32.79 CB 34.19 CG1 33.82 CG2 33.49 CD1 33.7
B ILE E 25 -94.1 109.8 N 33.24 CA 34.04 C 33.18 O 33.78 CB 34.79 CG1 36.26 CG2 33.28 CD1 38.03
B TYR - 3 -85.6 131.3 N 32.15 CA 31.16 C 31.83 O 32.51 CB 30.46 CG 28.72 CD1 27.81 CD2 26.83 CE1 26.7 CE2 26.87 CZ 26.26 OH 24.36
B PRO - 16 -66.3 159.1 N 34.58 CA 34.13 C 32.97 O 30.46 CB 35.37 CG 35.26 CD 35.38
B PRO T 119 -69.4 -19.1 N 34.99 CA 35.33 C 35.13 O 36.26 CB 35.38 CG 36.01 CD 35.27
B ASP T 45 -94.2 16.2 N 34.16 CA 34.48 C 34.05 O 35.8 CB 33.99 CG 34.67 OD1 34.5 OD2 34.69
B TYR H 0 -58.4 -66.7 N 32.93 CA 32.2 C 31.01 O 28.65 CB 32.31 CG 31.47 CD1 32.47 CD2 31.59 CE1 32.33 CE2 32.39 CZ 32.7 OH 33.24
B VAL H 10 -54.3 -43.4 N 31.1 CA 31.26 C 33.77 O 32.29 CB 28.83 CG1 28.17 CG2 29.0
B GLU H 126 -64.3 -43.0 N 39.66 CA 43.26 C 42.18 O 44.22 CB 48.01 CG 51.36 CD 53.33 OE1 55.53 OE2 52.14
B LYS H 67 -75.8 -37.8 N 39.17 CA 37.52 C 35.01 O 34.06 CB 35.97 CG 37.12 CD 38.7 CE 40.29 NZ 42.64
B MET H 0 -66.4 -38.7 N 32.64 CA 32.2 C 30.93 O 29.37 CB 33.24 CG 33.9 SD 37.57 CE 37.08
B LEU H 44 -59.5 -39.3 N 31.84 CA 32.36 C 32.33 O 33.13 CB 32.16 CG 32.95 CD1 33.29 CD2 33.6
B ASN H 84 -64.7 -52.4 N 31.79 CA 31.73 C 28.85 O 27.17 CB 34.36 CG 36.9 OD1 43.3 ND2 36.07
B PHE H 39 -56.9 -45.6 N 27.82 CA 27.47 C 26.77 O 25.03 CB 27.41 CG 27.81 CD1 27.86 CD2 27.41 CE1 27.01 CE2 27.87 CZ 27.81
B TYR H 18 -52.4 -51.6 N 26.9 CA 28.39 C 29.94 O 31.7 CB 28.68 CG 28.41 CD1 29.08 CD2 28.22 CE1 30.01 CE2 29.69 CZ 30.52 OH 31.82
B ASN H 91 -58.0 -46.6 N 29.82 CA 29.77 C 30.69 O 33.17 CB 28.7 CG 29.57 OD1 31.58 ND2 29.05
B SER H 79 -50.6 -44.6 N 29.5 CA 30.42 C 31.6 O 32.0 CB 29.88 OG 29.31
B PHE H 39 -98.6 3.1 N 32.01 CA 31.82 C 32.31 O 32.82 CB 31.89 CG 32.67 CD1 32.02 CD2 34.01 CE1 32.85 CE2 33.28 CZ 32.97
B ALA H 41 -63.3 -33.5 N 32.66 CA 33.33 C 32.06 O 29.1 CB 33.96
B ILE T 138 -56.7 -27.5 N 31.64 CA 31.3 C 33.64 O 40.34 CB 30.9 CG1 29.53 CG2 30.41 CD1 28.28
B PHE T 131 -96.0 11.4 N 34.41 CA 33.32 C 31.22 O 32.91 CB 35.59 CG 36.21 CD1 36.88 CD2 36.05 CE1 37.26 CE2 35.97 CZ 36.95
B ASN T 73 56.3 63.6 N 30.01 CA 28.92 C 26.6 O 26.52 CB 30.6 CG 33.2 OD1 35.72 ND2 35.84
B CYS E 7 -121.6 166.8 N 26.15 CA 25.91 C 26.23 O 28.06 CB 25.71 SG 26.99
B ILE E 0 -120.5 168.4 N 25.77 CA 25.94 C 25.39 O 23.9 CB 26.98 CG1 26.55 CG2 27.31 CD1 26.9
B VAL E 0 -132.8 143.5 N 25.58 CA 25.92 C 25.43 O 24.55 CB 26.04 CG1 26.15 CG2 25.65
B GLY E 0 -149.9 177.4 N 25.27 CA 25.75 C 26.81 O 27.78
B ILE S 0 -103.2 -55.6 N 27.07 CA 27.34 C 28.4 O 26.22 CB 27.24 CG1 27.02 CG2 27.39 CD1 26.89
B HIS S 50 -77.2 138.7 N 29.74 CA 31.65 C 32.22 O 34.07 CB 32.21 CG 34.45 ND1 35.9 CD2 36.6 CE1 36.48 NE2 36.33
B GLY E 0 -174.6 158.8 N 33.97 CA 36.98 C 39.69 O 38.51
B CYS E 6 -130.5 145.2 N 42.83 CA 45.26 C 43.51 O 41.54 CB 50.53 SG 68.54
B ILE E 35 -111.2 105.2 N 40.42 CA 37.44 C 37.29 O 36.96 CB 36.7 CG1 37.06 CG2 35.82 CD1 37.28
B TYR E 87 -95.3 124.9 N 41.24 CA 44.28 C 42.66 O 40.08 CB 47.04 CG 51.24 CD1 53.34 CD2 54.15 CE1 53.98 CE2 54.71 CZ 56.08 OH 60.62
B ILE E 86 -109.8 131.6 N 43.13 CA 44.31 C 45.51 O 48.78 CB 43.82 CG1 45.17 CG2 43.67 CD1 44.59
B ASP - 108 -62.7 155.0 N 45.55 CA 45.19 C 44.85 O 42.19 CB 48.37 CG 51.85 OD1 59.28 OD2 48.87
B ALA - 58 -68.4 132.7 N 47.36 CA 47.11 C 46.89 O 46.17 CB 46.44
B PHE - 136 -150.7 120.9 N 45.19 CA 45.32 C 48.45 O 48.93 CB 42.21 CG 41.62 CD1 40.55 CD2 42.13 CE1 39.99 CE2 43.25 CZ 40.93
B ASP S 141 50.4 46.3 N 49.34 CA 51.05 C 51.75 O 51.99 CB 50.21 CG 51.74 OD1 52.38 OD2 52.68
B GLY S 85 74.2 26.8 N 51.09 CA 49.45 C 51.5 O 50.52
B ASP - 116 -101.8 162.9 N 53.97 CA 54.35 C 54.74 O 51.36 CB 56.18 CG 55.6 OD1 53.49 OD2 53.49
B GLN - 118 -88.7 150.9 N 57.68 CA 61.56 C 62.45 O 62.63 CB 65.03 CG 64.37 CD 64.31 OE1 65.36 NE2 61.99
B SER - 50 -70.1 100.1 N 62.35 CA 62.02 C 61.37 O 63.23 CB 64.63 OG 68.35
B LYS E 117 -100.3 116.3 N 64.43 CA 66.66 C 63.89 O 62.45 CB 69.06 CG 71.67 CD 71.36 CE 68.51 NZ 67.55
B ARG E 128 -100.8 140.1 N 60.31 CA 56.82 C 52.87 O 54.31 CB 55.92 CG 59.61 CD 62.08 NE 66.95 CZ 69.91 NH1 74.84 NH2 66.26
B LYS E 108 -138.4 102.3 N 49.36 CA 47.69 C 44.9 O 46.07 CB 48.03 CG 52.27 CD 53.46 CE 53.88 NZ 53.54
B VAL E 72 -86.4 133.0 N 43.8 CA 43.19 C 41.16 O 40.24 CB 43.06 CG1 41.74 CG2 42.84
B PHE E 23 -104.9 101.0 N 41.61 CA 42.39 C 39.34 O 37.67 CB 44.69 CG 46.75 CD1 49.0 CD2 48.94 CE1 51.14 CE2 48.21 CZ 48.36
B SER - 36 -72.0 156.4 N 37.18 CA 35.26 C 35.12 O 33.06 CB 34.26 OG 34.16
B PHE T 52 -61.1 -19.8 N 37.67 CA 39.04 C 39.11 O 40.6 CB 41.63 CG 43.86 CD1 45.41 CD2 42.17 CE1 43.77 CE2 43.35 CZ 43.73
B THR T 43 -96.0 -18.6 N 37.98 CA 38.45 C 38.41 O 39.14 CB 37.92 OG1 37.53 CG2 37.13
B GLN S 74 -57.5 157.2 N 38.24 CA 39.18 C 38.15 O 37.06 CB 41.13 CG 42.47 CD 44.87 OE1 45.25 NE2 44.05
B GLY - 20 -86.8 165.0 N 37.84 CA 35.45 C 34.07 O 35.5
B LEU B 23 -155.4 130.4 N 32.54 CA 31.94 C 32.3 O 30.16 CB 31.64 CG 31.73 CD1 31.37 CD2 31.82
B LEU S 169 -86.3 -52.1 N 36.02 CA 38.72 C 39.64 O 38.7 CB 41.43 CG 42.73 CD1 42.02 CD2 40.76
B ARG S 187 -109.4 149.9 N 42.58 CA 44.96 C 41.26 O 39.98 CB 51.15 CG 58.47 CD 66.08 NE 72.51 CZ 76.15 NH1 76.43 NH2 72.27
B PRO - 48 -64.8 147.6 N 36.69 CA 35.52 C 33.61 O 33.8 CB 34.41 CG 34.86 CD 34.67
B ARG E 114 -135.9 139.1 N 33.15 CA 35.17 C 33.69 O 34.06 CB 39.03 CG 44.52 CD 51.06 NE 59.08 CZ 64.08 NH1 63.47 NH2 65.32
B VAL E 110 -80.9 127.9 N 31.71 CA 30.96 C 30.09 O 28.73 CB 31.44 CG1 31.28 CG2 32.33
B VAL E 8 -130.1 161.1 N 30.25 CA 30.59 C 29.97 O 31.08 CB 31.57 CG1 32.33 CG2 31.24
B ASN S 58 -105.5 2.6 N 29.66 CA 30.36 C 31.07 O 32.24 CB 30.87 CG 30.15 OD1 30.14 ND2 31.38
B GLN E 34 -146.5 145.8 N 31.43 CA 31.02 C 31.41 O 33.76 CB 30.93 CG 30.99 CD 30.04 OE1 28.91 NE2 29.6
B LEU E 0 -131.7 139.6 N 30.8 CA 31.51 C 32.8 O 36.12 CB 31.98 CG 31.84 CD1 31.48 CD2 31.8
B GLY - 3 -72.9 131.7 N 31.36 CA 31.07 C 30.83 O 31.8
B THR T 5 -77.8 13.3 N 28.98 CA 29.4 C 28.43 O 26.78 CB 29.37 OG1 30.59 CG2 29.51
B GLY T 8 -105.7 2.1 N 29.34 CA 29.25 C 28.44 O 28.69
B THR E 3 -149.6 42.8 N 29.19 CA 30.65 C 29.42 O 29.63 CB 32.24 OG1 34.92 CG2 31.99
B VAL E 0 -118.9 153.2 N 26.96 CA 25.7 C 26.37 O 27.82 CB 25.41 CG1 25.36 CG2 26.52
B PHE E 0 -132.1 134.9 N 26.28 CA 26.79 C 25.26 O 24.27 CB 27.76 CG 29.38 CD1 30.52 CD2 30.7 CE1 31.77 CE2 30.15 CZ 31.09
B LEU E 0 -166.8 164.0 N 26.54 CA 27.95 C 28.91 O 29.42 CB 27.63 CG 27.91 CD1 28.05 CD2 28.44
B LYS E 77 -81.3 143.6 N 30.78 CA 32.96 C 30.84 O 27.18 CB 36.37 CG 37.66 CD 39.22 CE 40.8 NZ 42.25
B ALA G 9 -47.2 -48.8 N 32.55 CA 32.92 C 34.24 O 34.34 CB 32.28
B ASP G 74 -63.5 -7.5 N 32.59 CA 31.66 C 29.99 O 29.66 CB 33.64 CG 34.97 OD1 35.43 OD2 34.52
B GLN G 9 -93.1 -20.3 N 28.61 CA 27.34 C 26.32 O 24.38 CB 26.56 CG 27.13 CD 27.28 OE1 26.32 NE2 27.63
B LEU S 26 -60.1 132.8 N 26.56 CA 26.25 C 25.78 O 25.49 CB 26.9 CG 27.42 CD1 28.51 CD2 27.12
B PRO - 4 -73.9 156.6 N 27.28 CA 28.39 C 28.87 O 29.46 CB 29.17 CG 28.19 CD 27.87
B SER - 66 -81.8 168.5 N 30.15 CA 32.0 C 30.14 O 28.23 CB 34.43 OG 34.83
B LEU H 46 -66.0 -37.8 N 30.46 CA 31.11 C 33.09 O 33.34 CB 29.23 CG 28.31 CD1 28.94 CD2 27.89
B LYS H 195 -55.8 -54.3 N 36.18 CA 38.53 C 37.33 O 40.83 CB 44.13 CG 51.71 CD 55.77 CE 58.1 NZ 57.66
B TYR H 62 -56.1 -46.5 N 34.28 CA 30.12 C 29.35 O 29.84 CB 28.08 CG 27.57 CD1 26.33 CD2 28.07 CE1 25.67 CE2 26.54 CZ 26.41 OH 27.49
B MET H 0 -80.6 -18.8 N 29.59 CA 31.17 C 32.35 O 31.75 CB 31.49 CG 31.87 SD 32.01 CE 34.26
B ASP T 54 -66.8 147.3 N 33.19 CA 33.79 C 32.96 O 32.01 CB 34.02 CG 34.86 OD1 32.33 OD2 33.74
B GLY T 47 90.8 -18.0 N 32.59 CA 32.02 C 31.54 O 34.15
B SER - 0 -85.6 19.6 N 29.52 CA 29.44 C 28.19 O 25.93 CB 30.56 OG 31.87
B GLN T 18 -69.6 137.1 N 28.39 CA 29.27 C 29.71 O 30.8 CB 28.75 CG 27.93 CD 28.43 OE1 27.06 NE2 30.08
B ARG T 40 70.3 -1.0 N 31.4 CA 34.03 C 33.45 O 32.31 CB 36.8 CG 40.96 CD 45.08 NE 48.36 CZ 51.62 NH1 51.63 NH2 53.76
B PHE - 32 -138.8 35.2 N 31.4 CA 30.35 C 29.19 O 27.78 CB 29.71 CG 28.09 CD1 27.29 CD2 27.61 CE1 26.67 CE2 28.6 CZ 27.31
B VAL H 1 -47.3 -51.6 N 30.35 CA 30.97 C 30.38 O 29.84 CB 32.77 CG1 34.57 CG2 33.11
B ASP H 41 -53.6 -31.0 N 29.52 CA 27.44 C 24.57 O 24.27 CB 27.74 CG 29.14 OD1 29.5 OD2 31.67
B VAL H 40 -75.8 -53.4 N 22.68 CA 22.38 C 22.32 O 22.3 CB 22.35 CG1 22.78 CG2 21.77
B ARG H 58 -55.4 -52.2 N 22.92 CA 23.35 C 23.33 O 24.09 CB 25.21 CG 26.59 CD 27.53 NE 27.55 CZ 28.71 NH1 29.35 NH2 29.79
B PHE H 0 -53.7 -40.4 N 22.64 CA 22.44 C 22.48 O 22.74 CB 22.49 CG 22.01 CD1 21.78 CD2 21.9 CE1 21.14 CE2 21.66 CZ 21.27
B SER H 2 -79.2 -28.9 N 22.53 CA 22.47 C 22.38 O 23.46 CB 22.54 OG 22.05
B ARG H 138 -72.9 -30.3 N 23.09 CA 24.67 C 24.11 O 23.08 CB 26.19 CG 27.57 CD 29.82 NE 31.81 CZ 35.41 NH1 37.14 NH2 36.38
B TYR H 39 -54.8 -47.5 N 23.67 CA 23.78 C 24.43 O 24.34 CB 23.99 CG 24.48 CD1 23.82 CD2 24.96 CE1 24.05 CE2 24.96 CZ 24.62 OH 26.03
B MET H 0 -63.8 -42.5 N 24.79 CA 24.08 C 24.6 O 24.79 CB 24.81 CG 25.07 SD 24.34 CE 24.94
B LEU H 91 -59.2 -55.2 N 26.68 CA 28.33 C 29.93 O 31.07 CB 28.12 CG 27.59 CD1 27.99 CD2 27.1
B GLU H 114 -53.0 -40.3 N 33.17 CA 34.3 C 33.47 O 34.63 CB 34.94 CG 35.85 CD 37.53 OE1 38.72 OE2 35.77
B ASN T 75 -96.4 6.3 N 31.29 CA 30.68 C 28.75 O 29.05 CB 31.6 CG 32.08 OD1 33.0 ND2 32.58
B GLU T 165 76.0 24.6 N 27.31 CA 25.65 C 23.2 O 23.52 CB 26.47 CG 26.33 CD 26.19 OE1 25.0 OE2 26.01
B ILE - 13 -88.4 135.8 N 21.51 CA 20.64 C 20.77 O 21.03 CB 19.84 CG1 19.44 CG2 19.88 CD1 18.87
B GLY E 25 -86.9 153.9 N 20.97 CA 19.92 C 19.53 O 20.32
B MET E 2 -122.3 116.7 N 20.47 CA 21.41 C 21.44 O 19.99 CB 22.42 CG 22.96 SD 24.29 CE 24.23
B ILE E 5 -108.4 131.2 N 22.99 CA 24.62 C 26.37 O 25.27 CB 24.25 CG1 24.57 CG2 23.71 CD1 24.48
B CYS E 0 -96.4 109.7 N 29.06 CA 30.46 C 29.28 O 31.37 CB 32.78 SG 37.28
B VAL - 0 -87.9 155.4 N 27.79 CA 27.72 C 29.17 O 28.36 CB 27.07 CG1 27.9 CG2 27.34
B PRO - 20 -72.7 154.8 N 30.59 CA 29.69 C 29.34 O 27.89 CB 29.15 CG 29.41 CD 29.61
B ARG B 17 -169.5 158.4 N 30.4 CA 31.64 C 34.54 O 32.59 CB 30.46 CG 29.23 CD 28.76 NE 27.35 CZ 28.48 NH1 29.27 NH2 28.39
B GLU - 125 -75.3 170.3 N 40.1 CA 44.05 C 43.48 O 42.68 CB 49.43 CG 54.09 CD 57.06 OE1 56.13 OE2 57.68
B LYS T 149 -63.2 139.9 N 44.87 CA 45.37 C 42.14 O 41.69 CB 50.52 CG 54.72 CD 59.54 CE 61.01 NZ 58.32
B ASN T 107 51.2 42.6 N 40.59 CA 37.82 C 37.73 O 39.57 CB 35.66 CG 36.32 OD1 39.78 ND2 35.87
B TRP S 19 -72.9 -37.2 N 39.87 CA 39.23 C 38.6 O 39.24 CB 36.8 CG 35.31 CD1 34.63 CD2 34.09 NE1 35.57 CE2 34.55 CE3 33.96 CZ2 35.46 CZ3 33.37 CH2 34.61
B LEU S 2 -109.9 159.4 N 36.81 CA 36.94 C 39.09 O 39.39 CB 35.5 CG 33.58 CD1 33.14 CD2 33.27
B ARG E 97 -148.4 158.8 N 41.53 CA 43.17 C 43.27 O 46.57 CB 44.56 CG 46.75 CD 50.1 NE 50.51 CZ 48.09 NH1 46.74 NH2 46.48
B GLU E 117 -79.7 159.5 N 41.17 CA 41.85 C 41.21 O 43.5 CB 44.78 CG 47.26 CD 49.66 OE1 49.8 OE2 51.28
B VAL - 12 -76.6 165.6 N 44.1 CA 46.41 C 48.83 O 51.9 CB 47.85 CG1 49.13 CG2 46.8
B SER - 40 -119.8 -164.4 N 52.3 CA 55.5 C 61.19 O 64.38 CB 57.85 OG 56.47
B SER S 85 -153.3 109.6 N 68.52 CA 68.46 C 65.87 O 67.82 CB 70.5 OG 69.73
B GLY S 89 86.9 43.4 N 63.74 CA 63.41 C 64.99 O 57.17
B SER - 50 -118.9 109.4 N 68.41 CA 63.8 C 65.57 O 64.06 CB 57.56 OG 49.53
B MET - 188 -97.0 107.0 N 66.08 CA 62.16 C 63.32 O 58.76 CB 30.0 CG 30.0 SD 30.0 CE 30.0
B GLU - 114 -126.8 -72.8 N 69.25 CA 71.43 C 71.29 O 67.39 CB 30.0 CG 30.0 CD 30.0 OE1 30.0 OE2 30.0
B GLY - 117 -93.7 360.0 N 77.03 CA 78.86 C 79.12 O 69.2
