A GLY - 89 360.0 -149.0 N 10.44 CA 10.32 C 11.78 O 10.8
A SER H 108 -69.6 -34.0 N 13.71 CA 13.34 C 13.14 O 12.26 CB 15.92 OG 22.41
A GLY H 37 -62.2 -50.0 N 11.91 CA 14.1 C 12.27 O 14.07
A HIS H 129 -56.6 -46.5 N 11.61 CA 12.13 C 10.85 O 10.33 CB 14.66 CG 14.45 ND1 14.29 CD2 14.22 CE1 17.57 NE2 16.34
A ALA H 56 -58.8 -52.2 N 11.15 CA 10.94 C 10.16 O 10.73 CB 11.65
A CYS H 42 -45.4 -54.9 N 10.81 CA 10.96 C 10.36 O 10.83 CB 10.58 SG 11.22
A TYR H 49 -62.2 -42.4 N 10.77 CA 11.76 C 10.03 O 8.33 CB 13.55 CG 15.18 CD1 16.07 CD2 16.88 CE1 21.67 CE2 17.84 CZ 19.37 OH 24.43
A ARG H 127 -64.0 -41.7 N 12.9 CA 14.08 C 11.96 O 11.13 CB 22.08 CG 31.08 CD 40.3 NE 51.72 CZ 47.93 NH1 44.2 NH2 28.68
A ASN H 109 -64.3 -41.8 N 11.93 CA 10.84 C 10.66 O 10.83 CB 10.06 CG 11.47 OD1 12.66 ND2 9.07
A CYS H 0 -61.1 -48.4 N 9.73 CA 10.07 C 11.2 O 9.93 CB 9.9 SG 9.75
A TRP H 110 -62.1 -45.9 N 13.45 CA 12.81 C 13.81 O 15.73 CB 17.38 CG 15.97 CD1 15.59 CD2 13.83 NE1 14.77 CE2 14.75 CE3 15.25 CZ2 16.71 CZ3 14.5 CH2 15.39
A ARG H 197 -58.6 -38.8 N 15.7 CA 17.96 C 17.61 O 17.36 CB 19.22 CG 20.81 CD 21.94 NE 22.14 CZ 25.83 NH1 35.67 NH2 29.31
A GLU T 112 -72.9 -8.0 N 17.76 CA 16.35 C 14.36 O 16.52 CB 16.77 CG 15.65 CD 19.41 OE1 23.96 OE2 21.42
A GLY T 65 115.4 -5.6 N 12.09 CA 12.93 C 14.57 O 13.6
A ASN - 54 -75.2 151.1 N 12.8 CA 14.03 C 12.63 O 10.76 CB 14.07 CG 19.68 OD1 20.33 ND2 22.1
A ASP - 92 -83.6 169.5 N 11.28 CA 12.83 C 12.35 O 10.69 CB 13.98 CG 14.23 OD1 11.72 OD2 18.15
A GLU H 96 -62.7 -42.7 N 11.24 CA 13.79 C 12.32 O 11.74 CB 17.14 CG 23.79 CD 37.58 OE1 42.51 OE2 34.75
A GLU H 162 -60.8 -43.5 N 12.4 CA 12.24 C 10.44 O 10.69 CB 13.18 CG 17.31 CD 20.17 OE1 26.93 OE2 23.1
A THR H 60 -58.8 -48.8 N 9.79 CA 9.59 C 9.05 O 10.26 CB 10.6 OG1 13.84 CG2 11.46
A CYS H 0 -74.4 -32.6 N 8.77 CA 9.9 C 10.81 O 9.7 CB 10.03 SG 11.52
A LYS H 130 -62.5 -36.7 N 12.88 CA 13.11 C 11.88 O 12.32 CB 11.76 CG 14.28 CD 19.6 CE 23.95 NZ 29.07
A GLU H 166 -70.4 -41.0 N 12.05 CA 12.7 C 11.9 O 10.22 CB 12.3 CG 12.87 CD 11.19 OE1 9.35 OE2 11.07
A ARG H 129 -64.0 -42.1 N 11.65 CA 10.99 C 10.67 O 9.52 CB 11.65 CG 11.9 CD 11.9 NE 12.97 CZ 13.11 NH1 13.67 NH2 13.39
A CYS - 59 -105.9 360.0 N 11.31 CA 10.97 C 13.42 O 11.47 CB 11.05 SG 11.29
