A GLY - 123 360.0 -157.9 N 5.68 CA 5.8 C 6.5 O 6.44
A GLY - 39 -66.6 150.4 N 6.32 CA 6.75 C 6.76 O 7.39
A VAL - 135 -120.4 11.0 N 6.33 CA 6.9 C 7.67 O 8.94 CB 6.67 CG1 6.55 CG2 6.56
A ALA - 45 -89.6 165.3 N 7.64 CA 8.28 C 8.7 O 9.45 CB 8.42
A THR - 64 -132.4 147.4 N 8.89 CA 10.01 C 10.93 O 12.27 CB 9.96 OG1 11.27 CG2 10.26
A SER - 44 -102.7 136.9 N 11.5 CA 10.92 C 11.92 O 12.16 CB 10.96 OG 10.84
A LEU S 32 -92.5 5.8 N 12.43 CA 11.83 C 11.1 O 11.61 CB 12.71 CG 13.85 CD1 14.28 CD2 15.52
A LEU - 12 -98.8 85.6 N 10.05 CA 10.97 C 9.31 O 8.45 CB 12.49 CG 13.69 CD1 13.86 CD2 16.24
A TYR S 18 -148.6 169.5 N 8.88 CA 9.02 C 8.12 O 8.43 CB 9.31 CG 9.33 CD1 9.66 CD2 10.06 CE1 10.11 CE2 10.24 CZ 10.82 OH 11.72
A SER T 27 -65.0 119.3 N 8.14 CA 8.64 C 9.07 O 10.55 CB 8.79 OG 9.39
A GLY T 9 94.3 4.4 N 7.89 CA 7.3 C 6.73 O 6.9
A SER - 0 -75.8 131.0 N 6.7 CA 6.84 C 6.69 O 6.39 CB 7.32 OG 7.2
A LYS E 38 -116.8 143.8 N 6.44 CA 6.43 C 6.15 O 6.1 CB 7.22 CG 8.35 CD 9.91 CE 10.97 NZ 10.63
A PHE E 0 -135.5 148.5 N 5.3 CA 5.63 C 5.57 O 5.99 CB 5.58 CG 5.76 CD1 6.09 CD2 6.17 CE1 6.12 CE2 6.34 CZ 6.5
A ARG E 95 -133.4 144.2 N 5.41 CA 5.81 C 5.15 O 5.89 CB 6.06 CG 6.93 CD 7.86 NE 9.38 CZ 9.36 NH1 9.83 NH2 10.5
A GLY E 15 179.2 -136.8 N 4.85 CA 4.99 C 5.29 O 5.16
A HIS E 76 -144.0 150.8 N 5.13 CA 5.47 C 5.19 O 5.38 CB 6.11 CG 7.5 ND1 8.83 CD2 9.2 CE1 9.44 NE2 9.89
A GLN E 15 -114.7 133.2 N 5.07 CA 5.21 C 5.63 O 5.59 CB 5.06 CG 5.08 CD 4.86 OE1 5.13 NE2 5.25
A LYS E 105 -123.7 136.9 N 6.11 CA 7.33 C 7.49 O 7.85 CB 8.18 CG 9.48 CD 11.44 CE 13.76 NZ 14.54
A SER E 31 -128.1 176.1 N 7.26 CA 7.59 C 7.82 O 7.37 CB 8.06 OG 8.94
A LYS T 169 -55.3 117.2 N 8.34 CA 8.92 C 9.13 O 9.44 CB 9.5 CG 10.32 CD 10.65 CE 11.82 NZ 11.79
A GLY T 83 77.0 9.0 N 8.98 CA 9.87 C 10.26 O 11.36
A ASN E 78 -142.3 146.9 N 9.19 CA 9.92 C 8.89 O 8.5 CB 11.54 CG 13.84 OD1 21.45 ND2 15.1
A SER E 60 -142.6 136.2 N 8.02 CA 7.45 C 7.34 O 7.73 CB 7.76 OG 8.31
A TYR E 58 -130.7 139.6 N 6.04 CA 5.81 C 5.9 O 5.66 CB 5.77 CG 5.6 CD1 5.71 CD2 5.44 CE1 5.62 CE2 5.64 CZ 5.74 OH 6.86
A ASP E 88 -64.3 137.6 N 6.05 CA 6.54 C 6.2 O 6.04 CB 7.69 CG 9.72 OD1 12.12 OD2 13.72
A VAL E 1 -133.1 145.5 N 5.83 CA 6.26 C 6.22 O 7.06 CB 6.7 CG1 7.78 CG2 6.67
A GLU E 29 -129.1 145.1 N 6.27 CA 6.8 C 6.64 O 6.89 CB 8.39 CG 10.12 CD 12.28 OE1 13.75 OE2 14.45
A VAL E 0 -132.3 135.6 N 5.82 CA 5.84 C 5.58 O 5.23 CB 5.95 CG1 6.28 CG2 6.43
A VAL E 36 -118.9 127.8 N 5.9 CA 6.35 C 6.44 O 6.08 CB 6.9 CG1 7.39 CG2 7.79
A LEU E 0 -89.0 144.8 N 6.27 CA 6.83 C 6.98 O 6.65 CB 7.08 CG 7.69 CD1 7.98 CD2 8.35
A GLN E 67 -139.8 162.8 N 7.65 CA 7.9 C 8.07 O 7.13 CB 8.92 CG 9.3 CD 10.12 OE1 12.4 NE2 11.91
A HIS E 134 42.2 45.9 N 9.18 CA 9.93 C 9.65 O 8.93 CB 11.46 CG 13.21 ND1 16.34 CD2 14.84 CE1 16.76 NE2 17.75
A VAL E 22 -70.5 119.6 N 8.68 CA 9.76 C 10.48 O 11.21 CB 9.53 CG1 10.28 CG2 9.35
A ASP E 66 -133.8 82.7 N 10.78 CA 12.76 C 12.95 O 13.09 CB 13.01 CG 14.48 OD1 15.89 OD2 17.03
A THR G 89 -65.7 -33.1 N 14.06 CA 16.74 C 17.05 O 17.19 CB 17.12 OG1 22.78 CG2 17.6
A GLY G 67 -46.5 -44.3 N 18.81 CA 20.44 C 21.42 O 23.0
A ASN G 113 -106.2 13.8 N 18.25 CA 16.53 C 12.43 O 11.05 CB 20.0 CG 23.14 OD1 28.75 ND2 25.24
A SER T 14 55.5 40.9 N 10.96 CA 9.58 C 8.55 O 7.05 CB 10.96 OG 12.15
A TYR E 74 -131.5 145.4 N 7.65 CA 7.44 C 7.67 O 7.49 CB 7.69 CG 8.05 CD1 8.19 CD2 8.17 CE1 8.61 CE2 8.88 CZ 8.71 OH 9.92
A LEU E 0 -155.7 175.5 N 6.83 CA 6.76 C 6.19 O 6.0 CB 7.32 CG 8.22 CD1 9.25 CD2 8.44
A CYS E 3 -143.3 -174.7 N 6.24 CA 6.46 C 6.22 O 6.2 CB 7.3 SG 8.38
A GLY E 0 167.7 -177.6 N 5.67 CA 5.92 C 5.71 O 5.12
A TYR E 102 -120.5 136.2 N 5.88 CA 6.0 C 5.99 O 6.09 CB 6.89 CG 7.63 CD1 8.09 CD2 8.76 CE1 9.24 CE2 9.41 CZ 9.4 OH 12.55
A LEU E 1 -118.1 114.4 N 5.67 CA 6.4 C 6.14 O 5.99 CB 7.29 CG 9.0 CD1 10.1 CD2 9.22
A LYS E 67 -107.2 125.6 N 5.85 CA 6.59 C 6.31 O 6.42 CB 7.3 CG 8.89 CD 10.42 CE 12.46 NZ 14.97
A ILE E 25 -112.4 132.2 N 6.13 CA 6.4 C 6.61 O 6.49 CB 7.42 CG1 7.7 CG2 7.3 CD1 8.98
A LYS E 47 -109.5 144.5 N 6.32 CA 6.93 C 6.45 O 6.7 CB 7.53 CG 8.67 CD 10.3
A GLY E 47 73.7 21.0 N 6.11 CA 6.6 C 6.61 O 7.1
A LEU E 60 -61.1 -42.8 N 6.33 CA 6.87 C 6.73 O 7.65 CB 7.11 CG 7.81 CD1 8.38 CD2 7.86
A THR E 70 -149.1 169.9 N 6.76 CA 6.89 C 7.39 O 6.61 CB 6.74 OG1 6.69 CG2 6.94
A GLU T 182 -57.7 -34.7 N 8.69 CA 9.51 C 8.88 O 8.99 CB 11.7 CG 15.22 CD 19.29 OE1 22.79 OE2 19.18
A GLU T 137 -81.2 -22.4 N 7.72 CA 8.17 C 7.64 O 8.26 CB 8.84 CG 10.59 CD 12.94 OE1 13.96 OE2 17.15
A TYR E 42 -121.5 71.1 N 7.16 CA 6.92 C 7.26 O 7.53 CB 7.25 CG 7.67 CD1 7.86 CD2 8.16 CE1 8.57 CE2 8.62 CZ 8.52 OH 9.73
A PRO E 79 -61.1 -27.7 N 7.18 CA 7.15 C 7.34 O 7.08 CB 7.45 CG 7.52 CD 7.18
A THR E 57 -142.4 126.8 N 6.87 CA 8.04 C 7.99 O 7.76 CB 9.96 OG1 12.57 CG2 10.21
A LEU E 19 -129.1 122.8 N 7.16 CA 7.1 C 7.01 O 7.48 CB 7.24 CG 7.55 CD1 7.47 CD2 7.6
A THR E 29 -120.4 129.3 N 6.01 CA 5.93 C 5.69 O 6.12 CB 6.15 OG1 6.87 CG2 6.32
A THR E 9 -112.7 147.5 N 5.14 CA 5.24 C 5.29 O 5.75 CB 5.29 OG1 5.56 CG2 5.47
A PHE E 32 -94.0 129.9 N 5.22 CA 5.21 C 5.16 O 5.6 CB 5.15 CG 5.01 CD1 5.27 CD2 5.29 CE1 5.49 CE2 5.38 CZ 5.39
A PHE E 1 -122.9 154.7 N 5.17 CA 5.19 C 5.59 O 5.28 CB 5.12 CG 4.79 CD1 4.68 CD2 4.87 CE1 4.77 CE2 4.74 CZ 5.08
A GLU E 76 -112.4 142.1 N 6.3 CA 6.71 C 6.63 O 6.5 CB 7.83 CG 9.33 CD 11.26 OE1 13.43 OE2 11.17
A GLY E 3 -117.6 150.1 N 6.48 CA 6.89 C 7.25 O 7.83
A GLU E 21 -114.1 128.2 N 6.76 CA 7.33 C 6.85 O 6.57 CB 8.33 CG 9.75 CD 10.38 OE1 11.25 OE2 12.93
A ILE E 17 -89.0 128.1 N 6.38 CA 6.81 C 6.54 O 6.61 CB 7.23 CG1 7.69 CG2 7.34 CD1 7.73
A ILE - 7 -65.6 131.5 N 6.89 CA 7.73 C 7.89 O 7.64 CB 8.24 CG1 9.06 CG2 8.75 CD1 9.39
A SER S 19 -178.9 177.4 N 9.06 CA 10.43 C 11.56 O 11.25 CB 10.97 OG 12.52
A LYS S 89 -55.1 -38.9 N 12.49 CA 14.53 C 13.59 O 14.27 CB 15.35 CG 17.41
A LYS S 86 -66.4 -34.2 N 13.46 CA 13.98 C 12.19 O 13.09 CB 14.55 CG 16.9
A HIS S 46 -133.1 83.5 N 11.22 CA 10.64 C 10.79 O 10.11 CB 10.64 CG 10.86 ND1 12.03 CD2 10.74 CE1 11.3 NE2 11.64
A PRO - 48 -63.7 163.1 N 10.23 CA 9.53 C 9.04 O 8.43 CB 10.37 CG 11.4 CD 11.0
A PHE S 0 -53.8 -37.6 N 8.41 CA 8.24 C 8.31 O 7.67 CB 8.42 CG 8.58 CD1 8.87 CD2 8.52 CE1 8.71 CE2 8.86 CZ 9.57
A LEU - 17 -72.7 119.3 N 8.0 CA 7.77 C 7.53 O 7.62 CB 8.92 CG 10.52 CD1 11.41 CD2 11.23
A THR - 10 -73.2 -43.4 N 6.61 CA 6.72 C 7.9 O 8.32 CB 6.59 OG1 6.23 CG2 6.8
A ARG - 202 53.9 30.4 N 8.8 CA 10.1 C 9.72 O 10.07 CB 12.33 CG 13.98 CD 17.0 NE 19.26 CZ 23.3 NH1 24.7 NH2 26.01
A LYS B 81 -164.9 -178.0 N 8.84 CA 8.41 C 8.09 O 7.92 CB 8.95 CG 9.35 CD 10.19 CE 10.4 NZ 12.06
A TRP T 83 60.3 30.8 N 7.62 CA 8.24 C 8.7 O 7.79 CB 8.12 CG 8.0 CD1 9.09 CD2 8.26 NE1 9.32 CE2 8.73 CE3 8.2 CZ2 8.63 CZ3 8.35 CH2 8.39
A ASP T 93 59.1 20.2 N 9.28 CA 9.73 C 9.08 O 9.6 CB 10.93 CG 12.81 OD1 13.95 OD2 13.88
A ALA B 3 -105.9 102.6 N 8.51 CA 8.43 C 9.42 O 9.42 CB 8.47
A ASP - 99 -86.0 -173.1 N 9.53 CA 10.56 C 9.45 O 8.78 CB 11.9 CG 15.29 OD1 14.38 OD2 19.0
A GLU H 79 -62.9 -37.2 N 9.09 CA 9.51 C 8.9 O 8.53 CB 10.08 CG 10.55 CD 11.56 OE1 11.78 OE2 11.58
A ASP H 80 -62.6 -43.8 N 9.16 CA 9.51 C 7.99 O 7.59 CB 11.49 CG 13.65 OD1 15.84 OD2 17.48
A VAL H 9 -61.7 -45.8 N 7.06 CA 6.71 C 6.54 O 5.99 CB 6.74 CG1 6.34 CG2 6.66
A ASP H 1 -59.4 -45.7 N 6.22 CA 6.3 C 6.91 O 7.51 CB 6.46 CG 6.4 OD1 6.12 OD2 6.28
A ARG H 100 -61.8 -39.7 N 7.13 CA 7.62 C 7.84 O 8.27 CB 8.92 CG 9.58 CD 10.77 NE 11.64 CZ 12.28 NH1 13.83 NH2 13.92
A LYS H 83 -70.3 -20.1 N 7.87 CA 8.17 C 7.51 O 7.62 CB 9.92 CG 12.63 CD 14.8 CE 17.74 NZ 20.83
A HIS H 0 -105.2 -54.9 N 6.17 CA 5.51 C 5.12 O 5.06 CB 5.19 CG 5.2 ND1 5.41 CD2 5.08 CE1 5.07 NE2 5.03
A TRP H 0 -53.8 -35.9 N 4.82 CA 4.89 C 5.09 O 5.32 CB 4.56 CG 4.3 CD1 4.13 CD2 4.06 NE1 4.12 CE2 4.07 CE3 4.06 CZ2 4.02 CZ3 3.94 CH2 4.09
A GLY T 11 -65.8 -10.0 N 5.39 CA 5.38 C 5.74 O 6.32
A LYS T 85 -81.9 -11.8 N 5.73 CA 6.3 C 6.34 O 7.0 CB 7.09 CG 8.16 CD 8.92 CE 9.64 NZ 10.25
A PHE S 1 -94.0 120.0 N 5.79 CA 5.83 C 5.99 O 5.61 CB 5.83 CG 5.68 CD1 5.91 CD2 5.88 CE1 5.72 CE2 6.05 CZ 5.88
A LEU G 151 -49.1 -39.8 N 6.56 CA 6.73 C 6.58 O 6.78 CB 7.6 CG 8.21 CD1 8.56 CD2 8.67
A ALA G 15 -58.6 -25.5 N 6.35 CA 6.82 C 6.56 O 7.05 CB 6.71
A PHE G 6 -66.4 -25.9 N 6.7 CA 7.37 C 8.45 O 8.77 CB 7.73 CG 8.06 CD1 8.72 CD2 9.49 CE1 8.95 CE2 9.26 CZ 8.85
A TYR G 138 -70.9 -9.7 N 8.98 CA 9.95 C 13.38 O 14.64 CB 9.03 CG 8.08 CD1 7.66 CD2 7.88 CE1 7.65 CE2 7.64 CZ 7.28 OH 7.62
A GLN G 104 -61.2 -30.1 N 14.25 CA 16.48 C 18.32 O 19.76 CB 18.47 CG 18.93 CD 21.15 OE1 21.8 NE2 25.22
A TYR T 1 -118.5 -10.8 N 17.2 CA 17.74 C 20.05 O 19.28 CB 15.57 CG 15.59 CD1 14.79 CD2 16.46 CE1 15.02 CE2 15.62 CZ 14.88 OH 17.21
A ALA T 24 -54.8 -32.6 N 19.11 CA 18.22 C 18.49 O 17.97 CB 18.61
A LYS T 102 -73.8 -25.5 N 20.34 CA 21.68 C 20.3 O 22.98 CB 20.9
A SER T 29 -115.7 -10.6 N 19.31 CA 20.43 C 19.59 O 20.96 CB 21.35 OG 24.93
A PHE T 4 -59.4 -25.6 N 18.3 CA 19.2 C 22.77 O 22.08 CB 18.71 CG 17.72 CD1 18.9 CD2 18.1 CE1 18.33 CE2 19.63 CZ 18.3
A ASN T 73 -101.2 9.6 N 20.46 CA 22.75 C 23.69 O 28.9 CB 22.97 CG 20.05 OD1 20.27 ND2 18.72
A SER S 49 -97.9 153.2 N 25.5 CA 24.46 C 24.67 O 25.27 CB 25.67 OG 26.04
A ASP T 116 -68.2 -27.5 N 24.75 CA 23.62 C 23.35 O 25.45 CB 25.26
A ASP T 127 -91.6 14.8 N 23.06 CA 23.59 C 20.51 O 19.57 CB 25.95 CG 29.86 OD1 30.76 OD2 34.15
A PHE - 12 -54.0 128.5 N 21.33 CA 19.62 C 20.39 O 21.59 CB 18.93 CG 16.25 CD1 16.75 CD2 16.53 CE1 15.76 CE2 15.93 CZ 14.79
A ASP - 82 -91.3 94.0 N 20.59 CA 22.03 C 18.15 O 17.03 CB 24.47 CG 28.4 OD1 30.87 OD2 32.08
A TYR H 57 -67.0 -27.6 N 18.4 CA 16.91 C 18.86 O 17.94 CB 16.55 CG 15.16 CD1 14.78 CD2 15.52 CE1 15.39 CE2 15.62 CZ 15.57 OH 15.57
A GLU H 50 -66.5 -43.4 N 21.74 CA 20.16 C 21.31 O 22.42 CB 20.74
A GLU H 86 -60.7 -44.2 N 20.99 CA 23.56 C 20.87 O 20.93 CB 26.23 CG 30.75 CD 33.88 OE1 38.3 OE2 37.88
A LEU H 9 -57.5 -47.9 N 18.1 CA 17.74 C 17.67 O 16.23 CB 16.63 CG 16.11 CD1 16.44 CD2 15.23
A LYS H 162 -57.2 -37.2 N 18.14 CA 20.02 C 20.24 O 21.04 CB 23.07 CG 27.16 CD 29.6 CE 31.34 NZ 33.45
A ASN H 134 -67.5 -28.6 N 19.3 CA 19.67 C 19.73 O 19.28 CB 18.51 CG 18.38 OD1 17.25 ND2 17.96
A GLY S 10 -68.5 -179.3 N 19.12 CA 18.18 C 15.9 O 15.65
A ASP S 108 -80.1 -10.4 N 15.26 CA 15.66 C 13.27 O 12.41 CB 18.71 CG 21.4 OD1 22.81 OD2 23.28
A TYR E 63 -132.9 148.6 N 11.11 CA 11.01 C 10.7 O 10.85 CB 12.23 CG 13.44 CD1 16.13 CD2 14.36 CE1 15.29 CE2 17.28 CZ 16.17 OH 19.25
A VAL E 22 -114.0 125.8 N 8.33 CA 7.95 C 7.19 O 8.46 CB 7.86 CG1 7.93 CG2 8.2
A PHE E 3 -100.8 141.5 N 5.99 CA 5.69 C 5.5 O 5.04 CB 5.82 CG 6.32 CD1 6.75 CD2 6.59 CE1 6.78 CE2 6.76 CZ 6.61
A ARG E 4 -115.0 134.7 N 4.67 CA 4.89 C 4.77 O 5.15 CB 5.32 CG 5.85 CD 6.35 NE 6.81 CZ 7.65 NH1 8.95 NH2 7.61
A TRP E 0 -114.8 126.5 N 4.5 CA 4.32 C 4.4 O 4.51 CB 4.25 CG 4.2 CD1 4.29 CD2 4.28 NE1 4.38 CE2 4.19 CE3 4.36 CZ2 4.39 CZ3 4.27 CH2 4.29
A LYS E 30 -118.6 116.6 N 4.49 CA 4.98 C 4.69 O 4.87 CB 5.51 CG 6.43 CD 6.96 CE 7.96 NZ 8.04
A GLU E 11 -69.2 138.2 N 4.93 CA 5.23 C 5.57 O 5.89 CB 5.36 CG 5.48 CD 5.38 OE1 5.32 OE2 6.02
A GLN E 86 -104.9 -44.3 N 6.03 CA 6.72 C 6.68 O 7.61 CB 7.81 CG 8.96 CD 9.85 OE1 11.66 NE2 10.17
A PHE E 93 -156.6 159.4 N 5.98 CA 5.97 C 5.98 O 5.68 CB 5.99 CG 6.09 CD1 6.29 CD2 6.21 CE1 6.04 CE2 6.24 CZ 6.44
A LEU E 27 -81.1 127.1 N 6.69 CA 7.08 C 7.3 O 6.99 CB 8.55 CG 10.44 CD1 11.18 CD2 11.81
A VAL - 45 -59.0 131.1 N 7.17 CA 8.5 C 8.17 O 8.52 CB 9.49 CG1 10.78 CG2 9.75
A PRO - 113 -54.4 135.0 N 7.58 CA 7.92 C 7.34 O 8.3 CB 8.25 CG 8.01 CD 8.33
A ASP - 56 -141.3 111.5 N 7.32 CA 6.91 C 6.79 O 6.84 CB 6.8 CG 7.71 OD1 7.36 OD2 9.0
A HIS T 188 -70.8 -3.6 N 6.55 CA 7.17 C 7.24 O 8.11 CB 7.97 CG 9.03 ND1 10.25 CD2 9.38 CE1 9.87 NE2 10.19
A THR T 98 -104.4 1.5 N 6.78 CA 6.89 C 7.59 O 8.26 CB 6.77 OG1 6.76 CG2 6.69
A ILE S 31 -126.4 161.3 N 7.61 CA 8.24 C 9.59 O 11.36 CB 8.39 CG1 8.86 CG2 8.6 CD1 10.18
A LYS - 94 -79.0 132.5 N 10.97 CA 11.72 C 11.88 O 10.65 CB 12.77 CG 15.57
A ASP - 118 -68.5 147.0 N 13.13 CA 14.16 C 12.79 O 13.66 CB 17.36 CG 20.79 OD1 21.82 OD2 25.04
A ILE - 39 -86.1 160.3 N 12.6 CA 10.85 C 10.08 O 11.44 CB 11.53 CG1 11.96 CG2 11.21 CD1 12.19
A SER - 81 -65.0 135.1 N 8.63 CA 8.84 C 8.39 O 8.13 CB 9.16 OG 9.92
A GLY G 41 -64.3 -19.3 N 8.53 CA 8.12 C 8.21 O 8.16
A ALA G 68 -57.2 -23.5 N 8.26 CA 7.89 C 7.52 O 7.95 CB 8.11
A SER G 73 -57.4 -28.1 N 6.78 CA 6.48 C 6.23 O 6.46 CB 6.8 OG 6.94
A PHE G 28 -130.3 24.9 N 5.9 CA 5.88 C 5.89 O 6.75 CB 6.21 CG 6.42 CD1 6.84 CD2 7.2 CE1 7.27 CE2 7.08 CZ 7.21
A ALA - 42 -70.2 -19.9 N 5.79 CA 5.94 C 5.78 O 6.08 CB 6.58
A GLY S 4 -83.0 -158.4 N 5.67 CA 5.23 C 5.02 O 4.89
A PHE E 1 -146.2 165.2 N 4.73 CA 4.35 C 4.14 O 3.96 CB 4.51 CG 4.52 CD1 4.65 CD2 4.44 CE1 4.78 CE2 4.62 CZ 4.5
A TYR E 4 -104.6 135.5 N 4.09 CA 4.2 C 4.21 O 4.36 CB 4.3 CG 4.37 CD1 4.59 CD2 4.46 CE1 4.57 CE2 4.41 CZ 4.52 OH 5.24
A TYR E 0 -83.3 131.7 N 4.11 CA 4.12 C 4.09 O 4.37 CB 4.17 CG 4.22 CD1 4.29 CD2 4.52 CE1 4.32 CE2 4.27 CZ 4.34 OH 4.63
A ILE E 0 -134.8 137.6 N 4.26 CA 4.48 C 4.65 O 4.18 CB 4.46 CG1 4.55 CG2 4.59 CD1 4.52
A CYS E 7 -133.9 116.6 N 4.97 CA 5.74 C 5.79 O 5.36 CB 6.1 SG 8.1
A PHE E 0 -105.1 126.2 N 6.42 CA 6.84 C 7.54 O 6.61 CB 7.2 CG 7.67 CD1 8.46 CD2 7.78 CE1 8.55 CE2 8.1 CZ 8.41
A GLN E 44 -90.6 124.5 N 7.47 CA 9.17 C 9.22 O 9.92 CB 10.99 CG 12.8 CD 17.42 OE1 22.23 NE2 19.7
A LYS T 54 -69.3 -36.0 N 9.8 CA 11.55 C 12.39 O 13.65 CB 12.23 CG 12.83 CD 13.77 CE 14.98 NZ 16.15
A SER T 99 -71.2 -54.3 N 14.41 CA 15.9 C 16.39 O 19.03 CB 16.72 OG 17.85
A ALA T 60 -81.3 -20.1 N 15.38 CA 15.7 C 15.07 O 16.08 CB 16.57
A ALA T 2 65.0 33.2 N 12.46 CA 11.94 C 10.4 O 11.75 CB 12.34
A SER E 38 -96.5 152.2 N 8.88 CA 8.19 C 7.29 O 7.4 CB 9.24 OG 11.37
A ILE E 4 -121.7 132.6 N 6.67 CA 6.94 C 6.75 O 7.1 CB 7.08 CG1 7.66 CG2 7.34 CD1 8.01
A GLU E 65 -116.0 146.5 N 6.2 CA 6.12 C 5.62 O 4.86 CB 6.45 CG 6.71 CD 7.18 OE1 7.53 OE2 7.94
A GLY E 0 -159.8 165.7 N 5.17 CA 4.79 C 4.49 O 4.31
A TYR E 39 -136.5 139.1 N 4.28 CA 4.52 C 4.45 O 4.26 CB 4.66 CG 5.23 CD1 5.6 CD2 5.78 CE1 6.41 CE2 6.39 CZ 6.46 OH 8.27
A TYR E 9 -83.2 140.2 N 4.47 CA 4.69 C 4.77 O 4.41 CB 5.03 CG 5.12 CD1 5.38 CD2 5.39 CE1 5.69 CE2 5.81 CZ 5.88 OH 6.55
A TYR E 9 -133.3 122.9 N 4.71 CA 4.96 C 5.23 O 5.03 CB 5.05 CG 5.2 CD1 5.48 CD2 5.51 CE1 5.63 CE2 5.81 CZ 5.81 OH 7.18
A HIS - 38 -143.6 140.7 N 5.85 CA 7.07 C 7.09 O 7.04 CB 7.81 CG 8.88 ND1 11.29 CD2 10.09 CE1 12.28 NE2 11.1
A ARG T 81 -55.8 -29.2 N 8.01 CA 9.56 C 9.07 O 10.43 CB 11.52 CG 12.81 CD 14.96
A SER T 101 -99.7 4.8 N 9.15 CA 9.55 C 9.97 O 11.9 CB 10.11 OG 11.32
A SER S 38 -90.9 172.2 N 9.49 CA 10.38 C 11.05 O 11.65 CB 10.16 OG 9.89
A GLU - 85 -74.8 120.6 N 12.28 CA 12.53 C 11.68 O 12.14 CB 12.46 CG 12.19 CD 12.44 OE1 13.65 OE2 12.35
A TRP T 91 -72.1 154.2 N 11.16 CA 11.2 C 9.66 O 10.43 CB 12.76 CG 13.5 CD1 14.72 CD2 14.15 NE1 15.88 CE2 13.81 CE3 14.73 CZ2 15.57 CZ3 16.58 CH2 14.69
A TYR T 82 66.3 31.6 N 7.8 CA 7.26 C 6.39 O 5.66 CB 7.94 CG 8.66 CD1 9.39 CD2 10.15 CE1 10.32 CE2 10.95 CZ 11.72 OH 14.25
A GLN E 35 -64.5 130.0 N 5.55 CA 5.35 C 5.16 O 5.12 CB 5.22 CG 5.35 CD 5.67 OE1 5.44 NE2 6.21
A SER E 21 -104.3 146.6 N 5.12 CA 5.29 C 5.36 O 5.74 CB 5.54 OG 6.38
A LEU E 0 -117.8 131.0 N 5.66 CA 5.99 C 6.41 O 7.54 CB 6.29 CG 6.55 CD1 7.07 CD2 6.63
A ASN E 68 -137.9 131.5 N 6.22 CA 6.93 C 6.67 O 6.63 CB 8.08 CG 9.78 OD1 12.66 ND2 10.18
A LEU E 3 -137.9 150.7 N 6.27 CA 6.38 C 6.48 O 6.15 CB 6.76 CG 7.31 CD1 7.73 CD2 8.09
A THR E 87 -120.6 146.6 N 6.4 CA 6.96 C 5.87 O 5.64 CB 8.02 OG1 10.67 CG2 8.39
A HIS E 29 -69.6 144.8 N 5.89 CA 5.76 C 5.77 O 6.19 CB 5.97 CG 6.34 ND1 7.22 CD2 6.74 CE1 6.85 NE2 6.72
A VAL - 16 -128.0 86.0 N 5.36 CA 5.7 C 5.83 O 5.77 CB 5.65 CG1 5.71 CG2 5.78
A PRO G 73 -55.5 -33.1 N 6.48 CA 7.1 C 6.66 O 7.06 CB 7.84 CG 7.88 CD 6.98
A GLU G 154 -72.6 -12.4 N 6.93 CA 8.08 C 7.7 O 9.57 CB 8.77 CG 9.78 CD 11.29 OE1 10.41 OE2 14.95
A HIS G 99 -120.3 14.1 N 6.78 CA 6.28 C 6.2 O 6.89 CB 6.04 CG 5.87 ND1 5.98 CD2 6.05 CE1 6.0 NE2 5.87
A SER S 20 -104.2 153.4 N 6.2 CA 6.26 C 6.67 O 7.07 CB 6.19 OG 5.9
A ALA - 39 -59.7 152.4 N 6.37 CA 6.58 C 6.86 O 7.04 CB 6.48
A PRO - 112 -57.7 142.9 N 7.12 CA 7.21 C 6.98 O 7.41 CB 8.07 CG 8.07 CD 7.38
A ILE - 57 -57.5 138.7 N 8.13 CA 9.24 C 8.5 O 8.13 CB 11.58 CG1 14.44 CG2 13.06 CD1 15.36
A TYR - 117 -130.7 8.3 N 7.82 CA 8.13 C 8.0 O 7.49 CB 8.48 CG 8.63 CD1 9.45 CD2 9.47 CE1 9.82 CE2 10.21 CZ 10.72 OH 12.73
A GLU - 127 -152.9 137.2 N 8.11 CA 8.07 C 8.68 O 8.53 CB 8.72 CG 9.52 CD 11.8 OE1 14.53 OE2 13.3
A PHE - 125 -120.0 162.8 N 7.14 CA 7.39 C 7.38 O 7.7 CB 7.54 CG 7.85 CD1 8.35 CD2 8.33 CE1 8.79 CE2 8.71 CZ 8.5
A ARG - 179 -146.3 360.0 N 8.09 CA 9.23 C 9.41 O 9.0 CB 10.94 CG 11.22 CD 13.63 NE 15.26 CZ 15.9 NH1 17.62 NH2 16.14 OXT 12.99
