A GLY - 98 360.0 -130.3 N 50.07 CA 58.91 C 53.68 O 59.69 H1 60.09 H2 60.09 H3 60.09 HA2 70.7 HA3 70.7
A PRO T 122 -83.9 4.5 N 47.91 CA 54.26 C 50.82 O 50.0 CB 50.56 CG 50.06 CD 50.22 HA 65.11 HB2 60.67 HB3 60.67 HG2 60.07 HG3 60.07 HD2 60.26 HD3 60.26
A HIS T 182 -119.1 11.2 N 43.46 CA 48.7 C 52.31 O 42.74 CB 42.27 CG 37.63 ND1 42.86 CD2 33.94 CE1 47.82 NE2 40.01 H 52.15 HA 58.44 HB2 50.73 HB3 50.73 HD2 40.73 HE1 57.39 HE2 48.01
A MET - 63 -90.7 105.8 N 47.65 CA 60.8 C 52.69 O 44.61 CB 55.81 H 57.18 HA 72.96
A ALA - 83 -60.5 138.1 N 55.99 CA 51.1 C 44.0 O 43.51 CB 49.68 H 67.19 HA 61.32 HB1 59.61 HB2 59.61 HB3 59.61
A THR - 55 -108.8 1.5 N 39.62 CA 34.59 C 31.17 O 26.74 CB 30.76 OG1 31.62 CG2 34.77 H 47.54 HA 41.51 HB 36.91 HG1 37.94 HG21 41.73 HG22 41.73 HG23 41.73
A GLY S 6 61.8 44.1 N 28.56 CA 24.0 C 21.77 O 24.56 H 34.27 HA2 28.8 HA3 28.8
A GLN - 36 -117.7 20.1 N 19.44 CA 17.15 C 18.5 O 19.46 CB 17.88 CG 22.86 CD 18.71 OE1 26.16 NE2 22.17 H 23.33 HA 20.57 HB2 21.45 HB3 21.45 HG2 27.43 HG3 27.43 HE21 26.6 HE22 26.6
A ASP S 98 -82.3 -21.0 N 19.3 CA 22.58 C 20.47 O 25.5 CB 22.19 CG 41.27 OD1 39.16 OD2 52.5 H 23.16 HA 27.09 HB2 26.63 HB3 26.63
A ARG - 27 -120.1 159.0 N 14.98 CA 14.99 C 15.06 O 12.29 CB 16.93 CG 19.47 CD 18.03 NE 15.03 CZ 13.1 NH1 15.75 NH2 15.91 H 17.98 HA 17.99 HB2 20.31 HB3 20.31 HG2 23.36 HG3 23.36 HD2 21.64 HD3 21.64 HE 18.03 HH11 18.89 HH12 18.89 HH21 19.09 HH22 19.09
A VAL - 1 -114.9 118.7 N 12.51 CA 10.37 C 14.99 O 12.37 CB 10.57 CG1 13.21 CG2 16.89 H 15.01 HA 12.45 HB 12.68 HG11 15.86 HG12 15.86 HG13 15.86 HG21 20.27 HG22 20.27 HG23 20.27
A VAL E 0 -126.3 137.2 N 11.71 CA 11.31 C 14.11 O 10.39 CB 9.25 CG1 15.01 CG2 13.48 H 14.05 HA 13.58 HB 11.1 HG11 18.02 HG12 18.02 HG13 18.02 HG21 16.17 HG22 16.17 HG23 16.17
A ALA E 0 -122.1 153.7 N 10.82 CA 10.66 C 15.01 O 13.97 CB 14.78 H 12.99 HA 12.79 HB1 17.73 HB2 17.73 HB3 17.73
A LEU E 1 -123.9 120.2 N 11.03 CA 9.91 C 20.48 O 14.72 CB 13.83 CG 24.07 CD1 18.59 CD2 20.83 H 13.23 HA 11.89 HB2 16.59 HB3 16.59 HG 28.89 HD11 22.31 HD12 22.31 HD13 22.31 HD21 24.99 HD22 24.99 HD23 24.99
A VAL E 1 -108.8 127.8 N 12.48 CA 13.5 C 18.33 O 19.06 CB 17.7 CG1 18.81 CG2 22.03 H 14.97 HA 16.2 HB 21.24 HG11 22.57 HG12 22.57 HG13 22.57 HG21 26.44 HG22 26.44 HG23 26.44
A ASP E 19 -127.2 118.8 N 16.77 CA 19.3 C 17.23 O 14.68 CB 20.03 CG 32.18 OD1 37.97 OD2 52.13 H 20.13 HA 23.16 HB2 24.03 HB3 24.03
A MET E 5 -68.9 127.9 N 16.17 CA 13.3 C 16.91 O 24.83 CB 18.94 CG 21.63 SD 27.4 CE 25.47 H 19.41 HA 15.96 HB2 22.73 HB3 22.73 HG2 25.96 HG3 25.96 HE1 30.56 HE2 30.56 HE3 30.56
A ASP T 4 -64.3 130.5 N 17.96 CA 18.07 C 16.99 O 16.99 CB 14.66 CG 16.74 OD1 20.81 OD2 20.04 H 21.55 HA 21.68 HB2 17.59 HB3 17.59
A CYS T 15 24.0 69.4 N 17.18 CA 15.17 C 13.16 O 12.82 CB 18.27 SG 21.01 H 20.61 HA 18.2 HB2 21.92 HB3 21.92 HG 25.21
A PHE H 8 -61.4 -50.8 N 11.27 CA 10.9 C 8.81 O 9.68 CB 11.09 CG 12.96 CD1 13.1 CD2 16.2 CE1 14.68 CE2 15.76 CZ 13.27 H 13.52 HA 13.09 HB2 13.31 HB3 13.31 HD1 15.72 HD2 19.44 HE1 17.61 HE2 18.91 HZ 15.93
A PHE H 31 -59.4 -34.9 N 8.56 CA 8.67 C 10.22 O 10.05 CB 11.0 CG 12.54 CD1 12.08 CD2 16.81 CE1 14.96 CE2 17.93 CZ 17.86 H 10.27 HA 10.4 HB2 13.2 HB3 13.2 HD1 14.5 HD2 20.17 HE1 17.95 HE2 21.52 HZ 21.43
A VAL H 1 -64.4 -46.8 N 11.53 CA 10.3 C 10.34 O 9.72 CB 9.88 CG1 13.18 CG2 13.6 H 13.84 HA 12.35 HB 11.86 HG11 15.82 HG12 15.82 HG13 15.82 HG21 16.32 HG22 16.32 HG23 16.32
A GLN H 19 -58.9 -40.0 N 8.64 CA 9.25 C 8.11 O 12.27 CB 11.05 CG 11.62 CD 15.64 OE1 13.89 NE2 18.28 H 10.37 HA 11.1 HB2 13.26 HB3 13.26 HG2 13.94 HG3 13.94 HE21 21.93 HE22 21.93
A VAL H 4 -59.0 -46.3 N 7.11 CA 9.56 C 12.92 O 9.92 CB 7.84 CG1 9.51 CG2 10.31 H 8.54 HA 11.47 HB 9.41 HG11 11.41 HG12 11.41 HG13 11.41 HG21 12.37 HG22 12.37 HG23 12.37
A GLU H 12 -69.6 -34.4 N 11.57 CA 8.38 C 9.04 O 10.72 CB 7.92 CG 8.98 CD 12.34 OE1 15.71 OE2 16.57 H 13.88 HA 10.06 HB2 9.5 HB3 9.5 HG2 10.78 HG3 10.78
A GLN H 25 -69.3 -35.2 N 7.31 CA 9.56 C 10.11 O 10.61 CB 10.84 CG 12.49 CD 13.22 OE1 16.57 NE2 17.14 H 8.78 HA 11.47 HB2 13.01 HB3 13.01 HG2 14.99 HG3 14.99 HE21 20.56 HE22 20.56
A ARG H 83 -62.0 -42.8 N 10.65 CA 11.82 C 12.49 O 10.96 CB 10.53 CG 12.4 CD 10.1 NE 12.75 CZ 12.61 NH1 9.34 NH2 11.5 H 12.78 HA 14.19 HB2 12.64 HB3 12.64 HG2 14.88 HG3 14.88 HD2 12.12 HD3 12.12 HE 15.3 HH11 11.2 HH12 11.2 HH21 13.8 HH22 13.8
A GLN H 123 -72.5 -37.5 N 10.48 CA 12.18 C 10.87 O 13.83 CB 9.99 CG 13.71 CD 19.24 OE1 18.2 NE2 25.48 H 12.58 HA 14.61 HB2 11.99 HB3 11.99 HG2 16.46 HG3 16.46 HE21 30.58 HE22 30.58
A ASN - 60 -120.5 95.1 N 9.78 CA 11.5 C 13.75 O 12.3 CB 15.74 CG 13.75 OD1 14.68 ND2 17.88 H 11.74 HA 13.79 HB2 18.89 HB3 18.89 HD21 21.46 HD22 21.46
A PRO G 78 -56.7 -24.5 N 13.27 CA 13.56 C 14.39 O 14.05 CB 14.51 CG 17.39 CD 15.26 HA 16.27 HB2 17.41 HB3 17.41 HG2 20.87 HG3 20.87 HD2 18.31 HD3 18.31
A HIS G 151 -60.9 -19.0 N 12.17 CA 18.67 C 18.84 O 16.96 CB 22.68 CG 27.25 ND1 39.76 CD2 28.48 CE1 35.78 NE2 32.74 H 14.61 HA 22.4 HB2 27.21 HB3 27.21 HD2 34.17 HE1 42.93 HE2 39.29
A LEU G 16 -90.6 -8.5 N 16.1 CA 11.48 C 16.12 O 12.56 CB 11.16 CG 16.86 CD1 16.02 CD2 20.35 H 19.32 HA 13.78 HB2 13.4 HB3 13.4 HG 20.23 HD11 19.22 HD12 19.22 HD13 19.22 HD21 24.42 HD22 24.42 HD23 24.42
A ARG T 112 -72.6 143.4 N 13.99 CA 14.13 C 16.36 O 13.87 CB 16.34 CG 15.35 CD 13.26 NE 12.42 CZ 20.42 NH1 18.95 NH2 16.27 H 16.78 HA 16.96 HB2 19.61 HB3 19.61 HG2 18.42 HG3 18.42 HD2 15.91 HD3 15.91 HE 14.91 HH11 22.74 HH12 22.74 HH21 19.52 HH22 19.52
A ASN T 136 57.1 34.3 N 15.49 CA 23.82 C 27.41 O 20.94 CB 22.21 CG 26.32 OD1 35.93 ND2 31.06 H 18.58 HA 28.58 HB2 26.66 HB3 26.66 HD21 37.28 HD22 37.28
A LYS S 96 -130.0 158.9 N 16.69 CA 17.82 C 19.14 O 15.28 CB 19.85 CG 25.83 CD 33.53 CE 39.69 NZ 40.31 H 20.03 HA 21.38 HB2 23.82 HB3 23.82 HG2 31.0 HG3 31.0 HD2 40.24 HD3 40.24 HE2 47.62 HE3 47.62 HZ1 48.37 HZ2 48.37 HZ3 48.37
A PRO - 25 -64.3 114.9 N 13.95 CA 11.11 C 12.69 O 12.61 CB 15.2 CG 22.79 CD 22.13 HA 13.33 HB2 18.25 HB3 18.25 HG2 27.35 HG3 27.35 HD2 26.56 HD3 26.56
A CYS E 3 -147.9 160.4 N 11.11 CA 11.89 C 13.48 O 14.19 CB 14.57 SG 11.73 H 13.33 HA 14.27 HB2 17.49 HB3 17.49 HG 14.08
A ALA E 2 -144.3 157.5 N 10.11 CA 9.35 C 11.57 O 13.31 CB 12.86 H 12.14 HA 11.21 HB1 15.43 HB2 15.43 HB3 15.43
A VAL E 1 -101.5 131.2 N 10.53 CA 9.76 C 14.39 O 12.81 CB 10.61 CG1 14.23 CG2 11.14 H 12.64 HA 11.71 HB 12.73 HG11 17.07 HG12 17.07 HG13 17.07 HG21 13.37 HG22 13.37 HG23 13.37
A VAL E 0 -119.9 144.6 N 11.72 CA 11.99 C 17.47 O 14.76 CB 16.79 CG1 17.98 CG2 16.92 H 14.06 HA 14.39 HB 20.14 HG11 21.58 HG12 21.58 HG13 21.58 HG21 20.3 HG22 20.3 HG23 20.3
A GLN E 54 -116.2 118.7 N 15.66 CA 13.3 C 14.83 O 15.72 CB 19.93 CG 21.67 CD 18.11 OE1 23.81 NE2 21.42 H 18.79 HA 15.96 HB2 23.92 HB3 23.92 HG2 26.0 HG3 26.0 HE21 25.7 HE22 25.7
A TYR - 72 67.3 177.8 N 15.42 CA 15.29 C 22.3 O 20.95 CB 16.21 CG 15.88 CD1 15.87 CD2 17.16 CE1 16.77 CE2 14.63 CZ 17.61 OH 17.63 H 18.5 HA 18.35 HB2 19.45 HB3 19.45 HD1 19.04 HD2 20.59 HE1 20.13 HE2 17.55 HH 21.16
A LYS S 84 -152.2 -17.7 N 19.4 CA 23.89 C 27.29 O 24.15 CB 27.38 CG 29.58 CD 28.04 CE 25.06 NZ 29.15 H 23.28 HA 28.66 HB2 32.85 HB3 32.85 HG2 35.49 HG3 35.49 HD2 33.65 HD3 33.65 HE2 30.07 HE3 30.07 HZ1 34.98 HZ2 34.98 HZ3 34.98
A SER T 128 -77.2 -43.0 N 27.34 CA 33.67 C 28.65 O 36.33 CB 29.61 OG 35.88 H 32.8 HA 40.4 HB2 35.53 HB3 35.53 HG 43.06
A TRP T 172 -88.1 106.8 N 25.3 CA 24.16 C 30.66 O 21.84 CB 31.29 CG 24.8 CD1 33.85 CD2 34.16 NE1 40.09 CE2 35.76 CE3 44.08 CZ2 46.44 CZ3 40.81 CH2 38.74 H 30.36 HA 28.99 HB2 37.55 HB3 37.55 HD1 40.62 HE1 48.11 HE3 52.89 HZ2 55.73 HZ3 48.97 HH2 46.49
A LYS T 102 58.4 29.8 N 28.16 CA 20.26 C 16.45 O 20.71 CB 24.62 CG 33.56 CD 35.79 CE 46.23 NZ 53.49 H 33.8 HA 24.31 HB2 29.54 HB3 29.54 HG2 40.27 HG3 40.27 HD2 42.95 HD3 42.95 HE2 55.47 HE3 55.47 HZ1 64.19 HZ2 64.19 HZ3 64.19
A GLY T 6 85.9 -1.7 N 19.05 CA 17.19 C 17.72 O 13.54 H 22.85 HA2 20.63 HA3 20.63
A GLY - 2 99.4 162.4 N 18.85 CA 17.57 C 15.59 O 18.31 H 22.62 HA2 21.08 HA3 21.08
A GLY E 16 -96.3 128.2 N 14.13 CA 11.67 C 14.28 O 12.73 H 16.96 HA2 14.0 HA3 14.0
A ILE E 3 -74.8 129.1 N 13.57 CA 13.74 C 15.23 O 16.32 CB 15.55 CG1 15.64 CG2 17.15 CD1 12.32 H 16.29 HA 16.49 HB 18.66 HG12 18.77 HG13 18.77 HG21 20.58 HG22 20.58 HG23 20.58 HD11 14.78 HD12 14.78 HD13 14.78
A ILE E 33 -119.7 -9.8 N 10.37 CA 12.33 C 18.9 O 14.93 CB 15.79 CG1 13.07 CG2 21.36 CD1 20.62 H 12.44 HA 14.79 HB 18.95 HG12 15.69 HG13 15.69 HG21 25.64 HG22 25.64 HG23 25.64 HD11 24.74 HD12 24.74 HD13 24.74
A ALA E 6 -157.9 146.1 N 11.5 CA 12.39 C 12.93 O 12.49 CB 11.24 H 13.8 HA 14.87 HB1 13.49 HB2 13.49 HB3 13.49
A VAL E 4 -141.2 127.7 N 11.5 CA 8.95 C 11.64 O 13.68 CB 13.5 CG1 11.29 CG2 16.74 H 13.8 HA 10.74 HB 16.2 HG11 13.54 HG12 13.54 HG13 13.54 HG21 20.09 HG22 20.09 HG23 20.09
A SER - 1 -71.0 156.4 N 8.11 CA 10.39 C 15.05 O 14.15 CB 11.83 OG 14.82 H 9.73 HA 12.47 HB2 14.19 HB3 14.19 HG 17.78
A TYR H 55 -63.0 -32.4 N 14.91 CA 14.77 C 14.7 O 16.98 CB 17.96 CG 16.46 CD1 21.16 CD2 20.78 CE1 23.8 CE2 24.36 CZ 25.11 OH 30.74 H 17.9 HA 17.72 HB2 21.55 HB3 21.55 HD1 25.39 HD2 24.94 HE1 28.56 HE2 29.23 HH 36.89
A GLU H 76 -62.3 -39.2 N 15.93 CA 17.31 C 16.91 O 19.12 CB 18.64 CG 23.11 CD 28.35 OE1 22.73 OE2 33.4 H 19.12 HA 20.77 HB2 22.37 HB3 22.37 HG2 27.73 HG3 27.73
A ALA H 0 -74.0 -34.9 N 12.64 CA 14.71 C 12.45 O 15.11 CB 15.88 H 15.17 HA 17.65 HB1 19.06 HB2 19.06 HB3 19.06
A ARG H 91 -58.2 -32.1 N 12.46 CA 14.16 C 18.01 O 19.81 CB 16.58 CG 18.75 CD 17.23 NE 19.4 CZ 31.08 NH1 29.56 NH2 24.08 H 14.95 HA 17.0 HB2 19.89 HB3 19.89 HG2 22.5 HG3 22.5 HD2 20.68 HD3 20.68 HE 23.28 HH11 35.47 HH12 35.47 HH21 28.9 HH22 28.9
A ALA T 88 -62.7 -22.1 N 14.7 CA 17.64 C 23.01 O 19.33 CB 21.73 H 17.64 HA 21.17 HB1 26.08 HB2 26.08 HB3 26.08
A PHE T 109 -87.3 -3.4 N 14.84 CA 16.64 C 22.42 O 20.54 CB 17.14 CG 17.76 CD1 15.85 CD2 22.73 CE1 21.03 CE2 24.51 CZ 28.45 H 17.81 HA 19.97 HB2 20.56 HB3 20.56 HD1 19.02 HD2 27.28 HE1 25.24 HE2 29.42 HZ 34.14
A GLY T 35 94.9 5.4 N 19.35 CA 15.99 C 20.33 O 15.6 H 23.21 HA2 19.19 HA3 19.19
A VAL - 2 -70.4 132.5 N 16.65 CA 15.34 C 17.84 O 15.61 CB 13.08 CG1 14.27 CG2 15.9 H 19.98 HA 18.4 HB 15.69 HG11 17.12 HG12 17.12 HG13 17.12 HG21 19.08 HG22 19.08 HG23 19.08
A THR - 69 -131.7 162.3 N 16.18 CA 20.95 C 17.18 O 17.7 CB 27.02 OG1 24.48 CG2 23.15 H 19.41 HA 25.14 HB 32.42 HG1 29.38 HG21 27.78 HG22 27.78 HG23 27.78
A ARG T 142 -61.6 152.9 N 19.27 CA 21.52 C 26.74 O 22.26 CB 26.65 CG 37.41 CD 42.54 NE 41.66 CZ 44.65 NH1 50.69 NH2 47.47 H 23.13 HA 25.82 HB2 31.98 HB3 31.98 HG2 44.9 HG3 44.9 HD2 51.05 HD3 51.05 HE 50.0 HH11 60.83 HH12 60.83 HH21 56.96 HH22 56.96
A SER T 103 87.2 -18.9 N 20.78 CA 32.64 C 30.74 O 51.38 CB 36.29 OG 50.66 H 24.93 HA 39.17 HB2 43.54 HB3 43.54 HG 60.79
A MET - 38 -70.9 143.1 N 22.29 CA 19.52 C 18.49 O 17.13 CB 24.42 CG 28.81 SD 24.2 CE 30.67 H 26.74 HA 23.43 HB2 29.31 HB3 29.31 HG2 34.58 HG3 34.58 HE1 36.81 HE2 36.81 HE3 36.81
A TRP B 91 -69.7 141.6 N 18.35 CA 17.48 C 15.04 O 14.18 CB 19.67 CG 22.27 CD1 31.79 CD2 24.92 NE1 32.1 CE2 32.02 CE3 24.56 CZ2 40.97 CZ3 27.38 CH2 29.45 H 22.02 HA 20.98 HB2 23.61 HB3 23.61 HD1 38.14 HE1 38.52 HE3 29.47 HZ2 49.17 HZ3 32.86 HH2 35.34
A ALA H 1 -62.6 -33.4 N 15.97 CA 17.39 C 13.92 O 15.86 CB 17.6 H 19.17 HA 20.87 HB1 21.12 HB2 21.12 HB3 21.12
A ASP H 81 -60.1 -36.9 N 16.03 CA 14.89 C 18.15 O 18.37 CB 21.59 CG 30.8 OD1 27.4 OD2 26.19 H 19.24 HA 17.87 HB2 25.91 HB3 25.91
A ASP H 58 -75.6 -40.5 N 16.83 CA 16.51 C 17.67 O 17.0 CB 18.69 CG 26.04 OD1 23.06 OD2 26.42 H 20.2 HA 19.81 HB2 22.43 HB3 22.43
A ALA H 0 -56.0 -41.0 N 16.0 CA 14.78 C 13.64 O 15.25 CB 16.82 H 19.2 HA 17.73 HB1 20.18 HB2 20.18 HB3 20.18
A LYS H 81 -65.5 -21.0 N 12.08 CA 12.4 C 17.95 O 15.39 CB 15.62 CG 23.66 CD 22.51 CE 26.16 NZ 22.2 H 14.5 HA 14.88 HB2 18.75 HB3 18.75 HG2 28.39 HG3 28.39 HD2 27.01 HD3 27.01 HE2 31.4 HE3 31.4 HZ1 26.64 HZ2 26.64 HZ3 26.64
A LYS H 151 -71.7 -37.5 N 16.41 CA 16.99 C 18.62 O 17.92 CB 19.46 CG 17.31 CD 17.49 CE 19.64 NZ 25.6 H 19.69 HA 20.38 HB2 23.36 HB3 23.36 HG2 20.77 HG3 20.77 HD2 20.99 HD3 20.99 HE2 23.57 HE3 23.57 HZ1 30.71 HZ2 30.71 HZ3 30.71
A LEU H 83 -76.8 -28.4 N 17.88 CA 14.78 C 18.13 O 17.56 CB 15.12 CG 20.68 CD1 22.69 CD2 18.97 H 21.45 HA 17.73 HB2 18.14 HB3 18.14 HG 24.81 HD11 27.23 HD12 27.23 HD13 27.23 HD21 22.77 HD22 22.77 HD23 22.77
A CYS - 1 -143.7 84.0 N 14.99 CA 15.44 C 17.46 O 17.2 CB 17.96 SG 19.67 H 17.99 HA 18.53 HB2 21.55 HB3 21.55 HG 23.61
A PRO T 87 -62.8 -27.7 N 18.99 CA 19.59 C 17.68 O 22.56 CB 26.37 CG 30.72 CD 28.58 HA 23.51 HB2 31.64 HB3 31.64 HG2 36.87 HG3 36.87 HD2 34.29 HD3 34.29
A ASP T 130 -90.5 11.1 N 22.45 CA 24.54 C 23.16 O 17.06 CB 25.23 CG 35.43 OD1 37.73 OD2 43.51 H 26.94 HA 29.45 HB2 30.28 HB3 30.28
A LEU - 1 -58.4 129.5 N 16.34 CA 11.66 C 13.83 O 14.92 CB 12.17 CG 13.18 CD1 13.33 CD2 16.12 H 19.61 HA 13.99 HB2 14.61 HB3 14.61 HG 15.82 HD11 16.0 HD12 16.0 HD13 16.0 HD21 19.34 HD22 19.34 HD23 19.34
A LEU E 62 -96.9 147.3 N 9.95 CA 9.51 C 12.41 O 12.91 CB 9.78 CG 14.59 CD1 18.31 CD2 15.7 H 11.94 HA 11.42 HB2 11.74 HB3 11.74 HG 17.51 HD11 21.97 HD12 21.97 HD13 21.97 HD21 18.84 HD22 18.84 HD23 18.84
A LEU E 49 -128.3 135.6 N 13.48 CA 12.83 C 17.99 O 19.61 CB 13.41 CG 14.63 CD1 23.71 CD2 20.67 H 16.18 HA 15.4 HB2 16.09 HB3 16.09 HG 17.55 HD11 28.46 HD12 28.46 HD13 28.46 HD21 24.8 HD22 24.8 HD23 24.8
A ALA E 11 -111.9 137.5 N 10.35 CA 12.94 C 13.23 O 12.61 CB 13.86 H 12.42 HA 15.53 HB1 16.64 HB2 16.64 HB3 16.64
A GLN E 97 -97.0 135.3 N 13.12 CA 14.93 C 12.36 O 13.31 CB 17.7 CG 29.01 CD 32.81 OE1 25.16 NE2 29.09 H 15.75 HA 17.92 HB2 21.24 HB3 21.24 HG2 34.82 HG3 34.82 HE21 34.91 HE22 34.91
A VAL - 4 -63.3 139.5 N 12.53 CA 11.31 C 15.9 O 11.99 CB 14.52 CG1 14.31 CG2 16.21 H 15.04 HA 13.58 HB 17.42 HG11 17.17 HG12 17.17 HG13 17.17 HG21 19.46 HG22 19.46 HG23 19.46
A ARG - 106 -55.7 142.0 N 14.51 CA 13.96 C 13.54 O 14.2 CB 21.13 CG 28.46 CD 31.38 NE 44.15 CZ 57.39 NH1 40.7 NH2 47.03 H 17.42 HA 16.75 HB2 25.36 HB3 25.36 HG2 34.15 HG3 34.15 HD2 37.65 HD3 37.65 HE 52.99 HH11 48.84 HH12 48.84 HH21 56.44 HH22 56.44
A GLU E 95 -119.8 127.2 N 14.33 CA 16.48 C 17.6 O 18.28 CB 20.36 CG 20.03 CD 27.49 OE1 30.7 OE2 30.91 H 17.2 HA 19.78 HB2 24.44 HB3 24.44 HG2 24.03 HG3 24.03
A SER E 22 -139.0 137.2 N 17.78 CA 19.22 C 21.02 O 19.28 CB 23.88 OG 35.37 H 21.33 HA 23.06 HB2 28.66 HB3 28.66 HG 42.45
A ARG T 80 54.4 36.4 N 23.43 CA 23.97 C 21.18 O 26.42 CB 22.92 CG 28.91 CD 29.21 NE 32.3 CZ 30.73 NH1 51.45 NH2 38.19 H 28.11 HA 28.77 HB2 27.51 HB3 27.51 HG2 34.69 HG3 34.69 HD2 35.05 HD3 35.05 HE 38.76 HH11 61.74 HH12 61.74 HH21 45.83 HH22 45.83
A GLY T 36 82.7 7.1 N 20.2 CA 20.33 C 23.3 O 20.52 H 24.24 HA2 24.4 HA3 24.4
A LYS E 12 -144.0 159.9 N 16.36 CA 15.01 C 11.18 O 14.58 CB 17.6 CG 17.81 CD 21.13 CE 19.28 NZ 18.14 H 19.63 HA 18.02 HB2 21.12 HB3 21.12 HG2 21.37 HG3 21.37 HD2 25.36 HD3 25.36 HE2 23.14 HE3 23.14 HZ1 21.77 HZ2 21.77 HZ3 21.77
A ALA E 10 -59.1 138.7 N 12.7 CA 11.96 C 18.21 O 18.76 CB 20.19 H 15.24 HA 14.35 HB1 24.23 HB2 24.23 HB3 24.23
A ASN - 2 -128.7 118.3 N 14.41 CA 14.57 C 14.2 O 13.69 CB 17.73 CG 25.76 OD1 18.2 ND2 27.43 H 17.3 HA 17.48 HB2 21.28 HB3 21.28 HD21 32.92 HD22 32.92
A LEU - 43 -98.0 17.7 N 14.03 CA 13.04 C 12.91 O 11.46 CB 16.7 CG 12.09 CD1 21.1 CD2 18.31 H 16.84 HA 15.64 HB2 20.03 HB3 20.03 HG 14.51 HD11 25.32 HD12 25.32 HD13 25.32 HD21 21.97 HD22 21.97 HD23 21.97
A THR H 20 -53.6 -43.0 N 12.23 CA 13.37 C 14.93 O 13.04 CB 20.65 OG1 19.59 CG2 19.28 H 14.67 HA 16.04 HB 24.77 HG1 23.5 HG21 23.13 HG22 23.13 HG23 23.13
A LYS H 57 -57.5 -40.3 N 12.83 CA 16.98 C 11.79 O 12.86 CB 13.96 CG 15.94 CD 18.69 CE 23.71 NZ 20.46 H 15.39 HA 20.37 HB2 16.76 HB3 16.76 HG2 19.13 HG3 19.13 HD2 22.43 HD3 22.43 HE2 28.46 HE3 28.46 HZ1 24.55 HZ2 24.55 HZ3 24.55
A TYR H 2 -76.7 -35.9 N 11.52 CA 10.95 C 10.52 O 11.63 CB 9.54 CG 7.52 CD1 14.02 CD2 15.67 CE1 11.54 CE2 15.66 CZ 15.46 OH 17.87 H 13.82 HA 13.14 HB2 11.45 HB3 11.45 HD1 16.82 HD2 18.81 HE1 13.85 HE2 18.79 HH 21.45
A ARG H 70 -61.9 -42.1 N 10.88 CA 10.27 C 12.48 O 13.18 CB 10.76 CG 12.19 CD 13.17 NE 13.16 CZ 17.14 NH1 17.89 NH2 17.55 H 13.05 HA 12.33 HB2 12.91 HB3 12.91 HG2 14.63 HG3 14.63 HD2 15.81 HD3 15.81 HE 15.8 HH11 21.47 HH12 21.47 HH21 21.06 HH22 21.06
A GLU H 106 -68.5 -37.9 N 11.35 CA 12.85 C 16.3 O 13.61 CB 14.89 CG 17.54 CD 32.8 OE1 34.55 OE2 29.93 H 13.62 HA 15.42 HB2 17.87 HB3 17.87 HG2 21.05 HG3 21.05
A ALA H 2 -65.0 -37.5 N 14.5 CA 13.48 C 11.14 O 13.26 CB 11.24 H 17.39 HA 16.18 HB1 13.48 HB2 13.48 HB3 13.48
A SER H 2 -61.8 -43.8 N 12.78 CA 11.99 C 12.72 O 10.94 CB 13.62 OG 17.07 H 15.33 HA 14.39 HB2 16.34 HB3 16.34 HG 20.48
A VAL H 73 -56.7 -40.5 N 10.29 CA 13.24 C 12.87 O 15.1 CB 16.12 CG1 20.12 CG2 13.56 H 12.34 HA 15.89 HB 19.34 HG11 24.14 HG12 24.14 HG13 24.14 HG21 16.27 HG22 16.27 HG23 16.27
A GLU H 68 -53.0 -49.5 N 13.55 CA 14.21 C 11.84 O 13.6 CB 17.02 CG 21.93 CD 20.41 OE1 17.04 OE2 21.11 H 16.26 HA 17.06 HB2 20.42 HB3 20.42 HG2 26.31 HG3 26.31
A VAL H 2 -70.6 -46.4 N 11.8 CA 12.24 C 12.96 O 15.67 CB 13.76 CG1 17.61 CG2 13.74 H 14.16 HA 14.69 HB 16.52 HG11 21.13 HG12 21.13 HG13 21.13 HG21 16.49 HG22 16.49 HG23 16.49
A MET H 5 -61.4 -33.9 N 10.54 CA 12.69 C 16.56 O 16.03 CB 19.09 CG 35.05 SD 27.5 CE 21.44 H 12.65 HA 15.23 HB2 22.91 HB3 22.91 HG2 42.06 HG3 42.06 HE1 25.73 HE2 25.73 HE3 25.73
A GLU H 119 -68.6 -34.9 N 13.36 CA 16.68 C 19.55 O 18.33 CB 16.36 CG 23.74 CD 42.41 OE1 33.58 OE2 30.12 H 16.03 HA 20.02 HB2 19.63 HB3 19.63 HG2 28.48 HG3 28.48
A ILE H 11 -65.2 -47.8 N 14.38 CA 13.2 C 11.01 O 16.09 CB 11.46 CG1 15.1 CG2 17.39 CD1 15.7 H 17.26 HA 15.84 HB 13.75 HG12 18.12 HG13 18.12 HG21 20.87 HG22 20.87 HG23 20.87 HD11 18.84 HD12 18.84 HD13 18.84
A MET H 3 -58.6 -36.1 N 14.79 CA 14.04 C 12.27 O 14.25 CB 12.33 CG 17.64 SD 18.6 CE 18.97 H 17.75 HA 16.84 HB2 14.8 HB3 14.8 HG2 21.16 HG3 21.16 HE1 22.77 HE2 22.77 HE3 22.77
A SER T 41 -64.7 -16.1 N 14.21 CA 17.9 C 19.23 O 20.19 CB 20.64 OG 33.64 H 17.05 HA 21.48 HB2 24.77 HB3 24.77 HG 40.37
A ARG T 145 -70.3 -26.3 N 17.91 CA 17.76 C 19.52 O 20.98 CB 19.24 CG 24.84 CD 26.14 NE 25.03 CZ 26.08 NH1 26.34 NH2 20.8 H 21.49 HA 21.31 HB2 23.09 HB3 23.09 HG2 29.81 HG3 29.81 HD2 31.37 HD3 31.37 HE 30.03 HH11 31.6 HH12 31.6 HH21 24.96 HH22 24.96
A PHE T 58 -93.8 -40.0 N 17.64 CA 24.08 C 27.51 O 30.44 CB 19.77 CG 24.27 CD1 15.02 CD2 18.16 CE1 15.12 CE2 20.85 CZ 17.06 H 21.16 HA 28.89 HB2 23.72 HB3 23.72 HD1 18.02 HD2 21.79 HE1 18.14 HE2 25.02 HZ 20.48
A ALA S 18 -163.0 175.1 N 25.2 CA 25.81 C 30.78 O 23.47 CB 28.92 H 30.23 HA 30.98 HB1 34.71 HB2 34.71 HB3 34.71
A VAL E 74 -67.5 129.6 N 33.27 CA 28.73 C 17.53 O 25.12 CB 30.02 CG1 26.9 CG2 50.31 H 39.92 HA 34.48 HB 36.02 HG11 32.28 HG12 32.28 HG13 32.28 HG21 60.38 HG22 60.38 HG23 60.38
A ILE E 5 -122.2 144.8 N 20.95 CA 16.83 C 12.25 O 15.63 CB 19.61 CG1 26.89 CG2 22.42 CD1 34.77 H 25.14 HA 20.19 HB 23.54 HG12 32.27 HG13 32.27 HG21 26.9 HG22 26.9 HG23 26.9 HD11 41.72 HD12 41.72 HD13 41.72
A GLU E 15 -111.0 115.0 N 12.85 CA 15.26 C 14.99 O 12.95 CB 16.2 CG 14.18 CD 22.78 OE1 26.04 OE2 19.14 H 15.42 HA 18.32 HB2 19.44 HB3 19.44 HG2 17.01 HG3 17.01
A ARG E 45 -68.4 107.6 N 13.51 CA 12.53 C 19.81 O 22.41 CB 13.99 CG 14.33 CD 18.56 NE 18.26 CZ 17.36 NH1 18.77 NH2 18.06 H 16.21 HA 15.04 HB2 16.79 HB3 16.79 HG2 17.2 HG3 17.2 HD2 22.27 HD3 22.27 HE 21.92 HH11 22.53 HH12 22.53 HH21 21.68 HH22 21.68
A ALA E 40 -88.4 -33.7 N 15.32 CA 17.67 C 23.72 O 22.1 CB 22.97 H 18.38 HA 21.21 HB1 27.57 HB2 27.57 HB3 27.57
A SER E 36 -159.4 -178.1 N 16.85 CA 19.82 C 16.21 O 14.92 CB 20.2 OG 24.94 H 20.22 HA 23.79 HB2 24.24 HB3 24.24 HG 29.93
A ILE T 41 -56.6 -21.2 N 12.7 CA 13.63 C 20.48 O 16.97 CB 17.9 CG1 16.33 CG2 20.46 CD1 22.22 H 15.24 HA 16.36 HB 21.48 HG12 19.6 HG13 19.6 HG21 24.55 HG22 24.55 HG23 24.55 HD11 26.67 HD12 26.67 HD13 26.67
A ASP T 27 -140.7 21.3 N 15.33 CA 24.17 C 26.45 O 25.72 CB 25.23 CG 40.38 OD1 44.25 OD2 42.44 H 18.39 HA 29.0 HB2 30.27 HB3 30.27
A GLU E 30 -128.6 137.4 N 21.83 CA 21.36 C 16.82 O 15.83 CB 25.48 CG 31.45 CD 40.15 OE1 49.37 OE2 43.89 H 26.19 HA 25.63 HB2 30.58 HB3 30.58 HG2 37.74 HG3 37.74
A ALA E 0 -136.7 138.1 N 16.93 CA 14.75 C 20.01 O 15.17 CB 18.28 H 20.32 HA 17.7 HB1 21.94 HB2 21.94 HB3 21.94
A TYR E 7 -83.6 148.4 N 14.09 CA 15.38 C 17.14 O 17.23 CB 14.79 CG 17.97 CD1 14.59 CD2 17.45 CE1 16.03 CE2 19.48 CZ 22.49 OH 21.24 H 16.9 HA 18.46 HB2 17.75 HB3 17.75 HD1 17.51 HD2 20.94 HE1 19.23 HE2 23.38 HH 25.49
A VAL E 0 -128.6 125.5 N 13.4 CA 15.92 C 18.1 O 13.72 CB 18.13 CG1 27.39 CG2 24.04 H 16.07 HA 19.11 HB 21.76 HG11 32.87 HG12 32.87 HG13 32.87 HG21 28.85 HG22 28.85 HG23 28.85
A ASP E 42 -95.9 106.3 N 17.25 CA 19.15 C 23.17 O 23.58 CB 20.53 CG 25.3 OD1 27.03 OD2 26.34 H 20.7 HA 22.98 HB2 24.63 HB3 24.63
A LEU - 0 -99.2 3.2 N 16.6 CA 14.66 C 12.92 O 13.44 CB 17.01 CG 20.2 CD1 24.15 CD2 22.73 H 19.92 HA 17.59 HB2 20.41 HB3 20.41 HG 24.24 HD11 28.98 HD12 28.98 HD13 28.98 HD21 27.28 HD22 27.28 HD23 27.28
A THR H 34 -56.9 -46.7 N 14.74 CA 15.31 C 20.34 O 16.54 CB 17.75 OG1 17.34 CG2 23.73 H 17.69 HA 18.38 HB 21.3 HG1 20.81 HG21 28.48 HG22 28.48 HG23 28.48
A SER H 93 -70.3 -43.9 N 19.76 CA 20.98 C 21.35 O 22.72 CB 28.41 OG 30.93 H 23.71 HA 25.18 HB2 34.09 HB3 34.09 HG 37.12
A ALA H 14 -61.1 -35.6 N 18.69 CA 19.55 C 20.37 O 17.55 CB 18.01 H 22.43 HA 23.46 HB1 21.61 HB2 21.61 HB3 21.61
A VAL H 1 -66.2 -43.6 N 20.03 CA 18.13 C 17.62 O 21.64 CB 19.36 CG1 18.03 CG2 14.3 H 24.03 HA 21.76 HB 23.24 HG11 21.63 HG12 21.63 HG13 21.63 HG21 17.15 HG22 17.15 HG23 17.15
A GLN H 83 -56.9 -48.3 N 19.97 CA 28.39 C 30.61 O 31.08 CB 31.16 CG 44.39 CD 59.22 OE1 49.44 NE2 63.05 H 23.97 HA 34.07 HB2 37.39 HB3 37.39 HG2 53.27 HG3 53.27 HE21 75.65 HE22 75.65
A GLU H 136 -54.9 -54.2 N 32.78 CA 39.3 C 39.72 O 39.67 CB 38.26 CG 53.1 CD 69.78 OE1 64.89 OE2 78.93 H 39.33 HA 47.16 HB2 45.91 HB3 45.91 HG2 63.72 HG3 63.72
A ARG H 39 -60.8 -33.8 N 25.37 CA 28.76 C 30.31 O 32.47 CB 23.18 CG 28.3 CD 26.96 NE 26.08 CZ 22.0 NH1 20.41 NH2 21.99 H 30.44 HA 34.51 HB2 27.82 HB3 27.82 HG2 33.96 HG3 33.96 HD2 32.35 HD3 32.35 HE 31.3 HH11 24.5 HH12 24.5 HH21 26.39 HH22 26.39
A LEU H 39 -64.3 -31.3 N 28.92 CA 29.63 C 42.98 O 38.65 CB 34.12 CG 29.52 CD1 23.99 CD2 32.42 H 34.7 HA 35.55 HB2 40.94 HB3 40.94 HG 35.43 HD11 28.78 HD12 28.78 HD13 28.78 HD21 38.91 HD22 38.91 HD23 38.91
A GLN H 137 -66.5 -49.2 N 42.92 CA 47.66 C 49.08 O 57.53 CB 48.47 CG 57.41 CD 63.06 OE1 62.06 NE2 61.1 H 51.5 HA 57.19 HB2 58.16 HB3 58.16 HG2 68.89 HG3 68.89 HE21 73.32 HE22 73.32
A LYS H 157 -56.2 -40.3 N 51.54 CA 50.93 C 56.1 O 67.24 CB 50.23 CG 62.91 CD 59.66 CE 49.56 NZ 51.57 H 61.85 HA 61.12 HB2 60.27 HB3 60.27 HG2 75.5 HG3 75.5 HD2 71.59 HD3 71.59 HE2 59.47 HE3 59.47 HZ1 61.89 HZ2 61.89 HZ3 61.89
A LEU H 42 -62.9 -31.2 N 55.12 CA 62.48 C 65.89 O 67.03 CB 61.01 CG 53.28 CD1 55.16 CD2 52.0 H 66.15 HA 74.98 HB2 73.22 HB3 73.22 HG 63.93 HD11 66.19 HD12 66.19 HD13 66.19 HD21 62.4 HD22 62.4 HD23 62.4
A GLN T 88 61.4 42.8 N 62.83 CA 65.36 C 62.32 O 57.54 CB 56.65 H 75.39 HA 78.44
A GLY T 81 66.3 18.0 N 65.24 CA 61.39 C 59.4 O 49.15 H 78.28 HA2 73.67 HA3 73.67
A GLN - 51 -82.3 136.4 N 63.69 CA 54.67 C 52.1 O 46.34 CB 47.56 H 76.43 HA 65.61
A PRO - 111 -63.7 155.8 N 51.21 CA 47.1 C 41.23 O 38.2 CB 51.24 CG 51.18 CD 54.15 HA 56.52 HB2 61.49 HB3 61.49 HG2 61.42 HG3 61.42 HD2 64.98 HD3 64.98
A ILE - 20 -91.9 123.9 N 44.88 CA 26.19 C 22.52 O 28.95 CB 27.83 CG1 36.63 CG2 22.31 CD1 38.3 H 53.86 HA 31.43 HB 33.4 HG12 43.95 HG13 43.95 HG21 26.77 HG22 26.77 HG23 26.77 HD11 45.95 HD12 45.95 HD13 45.95
A SER - 57 -85.1 145.3 N 25.47 CA 26.15 C 23.25 O 22.33 CB 26.94 OG 28.53 H 30.56 HA 31.38 HB2 32.33 HB3 32.33 HG 34.24
A ALA G 22 -60.0 -23.0 N 16.77 CA 19.71 C 23.9 O 17.65 CB 22.09 H 20.12 HA 23.66 HB1 26.51 HB2 26.51 HB3 26.51
A ASP G 137 -67.6 -19.2 N 21.36 CA 26.17 C 22.51 O 23.12 CB 25.97 CG 39.66 OD1 40.49 OD2 55.94 H 25.63 HA 31.4 HB2 31.16 HB3 31.16
A LEU G 76 -79.7 -7.5 N 18.32 CA 18.49 C 17.79 O 17.55 CB 20.76 CG 25.78 CD1 28.28 CD2 31.51 H 21.99 HA 22.18 HB2 24.91 HB3 24.91 HG 30.93 HD11 33.94 HD12 33.94 HD13 33.94 HD21 37.81 HD22 37.81 HD23 37.81
A LEU - 1 -131.3 55.7 N 15.72 CA 13.33 C 16.05 O 15.6 CB 16.3 CG 13.46 CD1 17.22 CD2 14.3 H 18.86 HA 16.0 HB2 19.55 HB3 19.55 HG 16.16 HD11 20.66 HD12 20.66 HD13 20.66 HD21 17.16 HD22 17.16 HD23 17.16
A PRO T 75 -72.7 -10.2 N 17.1 CA 15.92 C 15.41 O 15.94 CB 22.65 CG 19.54 CD 17.72 HA 19.1 HB2 27.18 HB3 27.18 HG2 23.44 HG3 23.44 HD2 21.26 HD3 21.26
A SER T 14 -131.5 23.3 N 14.8 CA 12.35 C 11.19 O 11.35 CB 13.33 OG 17.64 H 17.76 HA 14.82 HB2 16.0 HB3 16.0 HG 21.17
A THR E 0 -99.6 132.3 N 11.7 CA 7.87 C 9.98 O 12.98 CB 10.91 OG1 12.39 CG2 10.76 H 14.03 HA 9.44 HB 13.1 HG1 14.87 HG21 12.91 HG22 12.91 HG23 12.91
A TYR E 25 -104.2 139.0 N 9.58 CA 10.64 C 16.1 O 11.18 CB 10.69 CG 12.88 CD1 15.41 CD2 14.5 CE1 19.39 CE2 18.85 CZ 19.22 OH 25.54 H 11.49 HA 12.77 HB2 12.82 HB3 12.82 HD1 18.49 HD2 17.4 HE1 23.27 HE2 22.62 HH 30.64
A ILE E 6 -103.1 107.8 N 11.16 CA 10.13 C 12.79 O 12.36 CB 9.84 CG1 13.07 CG2 12.64 CD1 13.54 H 13.39 HA 12.16 HB 11.8 HG12 15.68 HG13 15.68 HG21 15.17 HG22 15.17 HG23 15.17 HD11 16.24 HD12 16.24 HD13 16.24
A GLU T 56 -62.0 132.8 N 9.66 CA 9.31 C 11.3 O 11.83 CB 11.26 CG 11.83 CD 19.99 OE1 19.86 OE2 25.92 H 11.59 HA 11.18 HB2 13.51 HB3 13.51 HG2 14.19 HG3 14.19
A GLY T 44 96.4 -12.3 N 12.43 CA 15.54 C 18.49 O 19.09 H 14.91 HA2 18.65 HA3 18.65
A LEU - 48 -119.7 155.1 N 15.07 CA 14.01 C 16.59 O 14.99 CB 13.08 CG 15.18 CD1 14.94 CD2 20.92 H 18.08 HA 16.81 HB2 15.7 HB3 15.7 HG 18.21 HD11 17.93 HD12 17.93 HD13 17.93 HD21 25.11 HD22 25.11 HD23 25.11
A PRO S 36 -75.3 156.8 N 17.25 CA 20.17 C 18.3 O 18.49 CB 21.82 CG 20.8 CD 18.17 HA 24.2 HB2 26.19 HB3 26.19 HG2 24.96 HG3 24.96 HD2 21.8 HD3 21.8
A GLN - 122 -131.9 172.4 N 23.1 CA 30.14 C 33.71 O 33.15 CB 34.23 CG 47.45 CD 44.0 OE1 41.16 NE2 30.47 H 27.72 HA 36.17 HB2 41.07 HB3 41.07 HG2 56.94 HG3 56.94 HE21 36.57 HE22 36.57
A GLY - 65 62.9 -166.7 N 43.03 CA 50.09 C 55.46 O 57.03 H 51.64 HA2 60.11 HA3 60.11
A PRO - 180 -97.7 360.0 N 68.83 CA 58.41 C 53.63 O 59.23 CB 62.09 CG 47.34 CD 53.62 HA 70.09 HB2 74.51 HB3 74.51 HG2 56.8 HG3 56.8 HD2 64.34 HD3 64.34
A THR - 110 360.0 128.1 N 60.33 CA 68.29 C 56.98 O 57.1 CB 61.06 OG1 70.24 CG2 49.91 HA 81.94 HB 73.27 HG1 84.29 HG21 59.89 HG22 59.89 HG23 59.89
A VAL - 155 -103.1 22.9 N 54.23 CA 57.6 C 58.8 O 50.43 CB 55.68 CG1 50.19 CG2 45.32 H 65.07 HA 69.12 HB 66.82 HG11 60.22 HG12 60.22 HG13 60.22 HG21 54.39 HG22 54.39 HG23 54.39
A GLN S 49 -115.9 149.7 N 43.64 CA 40.43 C 37.58 O 32.52 CB 44.98 H 52.37 HA 48.51
A LYS H 134 -66.0 -52.3 N 31.3 CA 28.4 C 28.69 O 22.29 CB 42.26 CG 45.83 CD 52.55 CE 43.35 NZ 46.26 H 37.56 HA 34.08 HB2 50.72 HB3 50.72 HG2 54.99 HG3 54.99 HD2 63.06 HD3 63.06 HE2 52.02 HE3 52.02 HZ1 55.51 HZ2 55.51 HZ3 55.51
A GLU H 66 -64.3 -30.7 N 24.6 CA 29.14 C 23.02 O 22.9 CB 29.93 CG 28.26 CD 32.43 OE1 31.27 OE2 29.72 H 29.53 HA 34.97 HB2 35.92 HB3 35.92 HG2 33.92 HG3 33.92
A GLY H 19 -70.2 -39.9 N 23.75 CA 29.06 C 22.78 O 23.23 H 28.5 HA2 34.87 HA3 34.87
A MET H 81 -57.8 -46.6 N 24.07 CA 20.35 C 19.28 O 19.33 CB 25.59 CG 49.33 SD 67.05 CE 32.17 H 28.88 HA 24.41 HB2 30.71 HB3 30.71 HG2 59.19 HG3 59.19 HE1 38.6 HE2 38.6 HE3 38.6
A ARG H 11 -56.0 -48.8 N 17.6 CA 15.53 C 17.69 O 14.96 CB 16.27 CG 16.01 CD 15.98 NE 15.45 CZ 18.87 NH1 14.79 NH2 21.18 H 21.11 HA 18.64 HB2 19.52 HB3 19.52 HG2 19.21 HG3 19.21 HD2 19.17 HD3 19.17 HE 18.54 HH11 17.75 HH12 17.75 HH21 25.41 HH22 25.41
A LYS H 84 -65.9 -40.2 N 18.38 CA 15.9 C 18.68 O 19.62 CB 23.39 CG 31.05 CD 38.58 CE 48.3 NZ 52.29 H 22.06 HA 19.08 HB2 28.07 HB3 28.07 HG2 37.26 HG3 37.26 HD2 46.29 HD3 46.29 HE2 57.96 HE3 57.96 HZ1 62.75 HZ2 62.75 HZ3 62.75
A GLN H 76 -58.3 -46.3 N 18.64 CA 19.32 C 14.0 O 16.65 CB 22.9 CG 39.96 CD 59.01 OE1 52.5 NE2 62.16 H 22.37 HA 23.18 HB2 27.48 HB3 27.48 HG2 47.95 HG3 47.95 HE21 74.6 HE22 74.6
A GLY H 1 -63.3 -42.7 N 18.73 CA 13.95 C 13.91 O 13.95 H 22.47 HA2 16.74 HA3 16.74
A LEU H 1 -62.4 -42.0 N 12.91 CA 12.95 C 16.05 O 15.05 CB 12.72 CG 13.49 CD1 15.34 CD2 18.51 H 15.49 HA 15.54 HB2 15.26 HB3 15.26 HG 16.19 HD11 18.41 HD12 18.41 HD13 18.41 HD21 22.21 HD22 22.21 HD23 22.21
A PHE H 96 -61.1 -45.6 N 17.96 CA 18.9 C 16.52 O 21.14 CB 20.48 CG 34.52 CD1 40.66 CD2 37.8 CE1 45.56 CE2 41.44 CZ 36.73 H 21.55 HA 22.68 HB2 24.57 HB3 24.57 HD1 48.79 HD2 45.36 HE1 54.67 HE2 49.73 HZ 44.07
A GLN H 58 -58.0 -42.8 N 16.83 CA 19.98 C 20.02 O 18.51 CB 20.7 CG 23.29 CD 29.04 OE1 24.81 NE2 34.86 H 20.2 HA 23.98 HB2 24.84 HB3 24.84 HG2 27.95 HG3 27.95 HE21 41.84 HE22 41.84
A TRP H 12 -63.7 -51.9 N 16.13 CA 13.4 C 14.89 O 16.64 CB 14.37 CG 12.73 CD1 13.42 CD2 10.67 NE1 13.83 CE2 14.45 CE3 15.25 CZ2 13.42 CZ3 14.84 CH2 15.53 H 19.36 HA 16.09 HB2 17.24 HB3 17.24 HD1 16.11 HE1 16.6 HE3 18.3 HZ2 16.11 HZ3 17.8 HH2 18.64
A LEU H 16 -69.1 -30.4 N 13.31 CA 17.44 C 21.46 O 24.45 CB 14.8 CG 18.88 CD1 21.39 CD2 22.77 H 15.97 HA 20.93 HB2 17.76 HB3 17.76 HG 22.65 HD11 25.67 HD12 25.67 HD13 25.67 HD21 27.32 HD22 27.32 HD23 27.32
A ASP H 103 -66.0 -42.7 N 20.98 CA 26.64 C 28.19 O 28.35 CB 25.27 CG 34.21 OD1 45.21 OD2 47.18 H 25.18 HA 31.96 HB2 30.32 HB3 30.32
A SER H 42 -70.9 -28.8 N 25.43 CA 25.08 C 25.79 O 29.55 CB 26.28 OG 33.64 H 30.51 HA 30.1 HB2 31.53 HB3 31.53 HG 40.37
A LEU H 22 -65.3 -46.0 N 22.33 CA 24.61 C 29.76 O 28.99 CB 27.13 CG 29.05 CD1 26.72 CD2 22.89 H 26.79 HA 29.53 HB2 32.56 HB3 32.56 HG 34.86 HD11 32.07 HD12 32.07 HD13 32.07 HD21 27.47 HD22 27.47 HD23 27.47
A GLN H 69 -73.6 -23.5 N 23.34 CA 29.38 C 32.01 O 31.48 CB 34.11 H 28.01 HA 35.26
A ILE T 109 -82.8 -1.3 N 28.7 CA 30.78 C 32.61 O 27.18 CB 35.09 CG1 44.8 CG2 37.64 CD1 42.82 H 34.44 HA 36.93 HB 42.11 HG12 53.75 HG13 53.75 HG21 45.17 HG22 45.17 HG23 45.17 HD11 51.38 HD12 51.38 HD13 51.38
A ASP T 140 66.9 31.5 N 28.5 CA 34.19 C 33.46 O 28.76 CB 39.66 CG 44.64 OD1 45.75 OD2 51.67 H 34.19 HA 41.02 HB2 47.6 HB3 47.6
A ASN - 113 -92.5 -7.8 N 28.71 CA 33.3 C 31.55 O 21.88 CB 29.94 CG 25.85 OD1 25.17 ND2 20.96 H 34.45 HA 39.95 HB2 35.93 HB3 35.93 HD21 25.15 HD22 25.15
A LEU S 50 -102.4 -161.9 N 25.57 CA 26.32 C 29.61 O 25.3 CB 22.53 CG 21.08 CD1 20.98 CD2 21.87 H 30.68 HA 31.59 HB2 27.03 HB3 27.03 HG 25.29 HD11 25.18 HD12 25.18 HD13 25.18 HD21 26.24 HD22 26.24 HD23 26.24
A THR - 70 -118.6 174.5 N 23.3 CA 21.28 C 23.05 O 18.95 CB 27.27 OG1 14.72 CG2 33.44 H 27.96 HA 25.53 HB 32.73 HG1 17.66 HG21 40.12 HG22 40.12 HG23 40.12
A SER H 86 -71.6 -35.4 N 22.63 CA 24.34 C 18.39 O 17.15 CB 28.82 OG 34.31 H 27.15 HA 29.21 HB2 34.58 HB3 34.58 HG 41.17
A PRO H 14 -60.6 -34.4 N 15.14 CA 12.95 C 15.7 O 12.83 CB 16.74 CG 21.32 CD 17.88 HA 15.54 HB2 20.09 HB3 20.09 HG2 25.59 HG3 25.59 HD2 21.46 HD3 21.46
A ASP H 13 -65.5 -41.1 N 13.7 CA 11.43 C 13.94 O 14.37 CB 14.47 CG 21.85 OD1 14.94 OD2 25.44 H 16.44 HA 13.72 HB2 17.37 HB3 17.37
A LEU H 56 -62.5 -41.1 N 11.13 CA 13.82 C 9.26 O 13.49 CB 15.69 CG 17.53 CD1 16.28 CD2 23.88 H 13.36 HA 16.58 HB2 18.83 HB3 18.83 HG 21.03 HD11 19.53 HD12 19.53 HD13 19.53 HD21 28.66 HD22 28.66 HD23 28.66
A GLN H 39 -63.2 -43.9 N 13.19 CA 13.98 C 14.33 O 12.48 CB 14.5 CG 14.99 CD 28.3 OE1 31.86 NE2 39.97 H 15.83 HA 16.77 HB2 17.4 HB3 17.4 HG2 17.98 HG3 17.98 HE21 47.96 HE22 47.96
A LEU H 0 -58.6 -40.6 N 11.85 CA 10.86 C 13.04 O 10.38 CB 11.08 CG 13.06 CD1 14.2 CD2 11.37 H 14.22 HA 13.04 HB2 13.29 HB3 13.29 HG 15.67 HD11 17.04 HD12 17.04 HD13 17.04 HD21 13.65 HD22 13.65 HD23 13.65
A THR H 0 -64.9 -46.5 N 10.07 CA 9.57 C 13.65 O 14.26 CB 10.13 OG1 14.08 CG2 15.59 H 12.08 HA 11.48 HB 12.15 HG1 16.9 HG21 18.71 HG22 18.71 HG23 18.71
A VAL H 1 -61.8 -39.5 N 13.1 CA 16.29 C 12.9 O 11.52 CB 17.33 CG1 15.91 CG2 18.28 H 15.72 HA 19.55 HB 20.8 HG11 19.1 HG12 19.1 HG13 19.1 HG21 21.93 HG22 21.93 HG23 21.93
A GLY H 0 -54.6 -42.1 N 11.39 CA 12.87 C 16.02 O 13.44 H 13.67 HA2 15.44 HA3 15.44
A ALA H 0 -67.0 -34.5 N 13.57 CA 10.2 C 10.16 O 11.23 CB 11.06 H 16.28 HA 12.24 HB1 13.27 HB2 13.27 HB3 13.27
A VAL H 6 -61.5 -45.3 N 11.43 CA 11.25 C 14.35 O 14.66 CB 12.31 CG1 15.62 CG2 14.41 H 13.72 HA 13.5 HB 14.77 HG11 18.75 HG12 18.75 HG13 18.75 HG21 17.29 HG22 17.29 HG23 17.29
A ILE H 9 -62.4 -39.9 N 10.0 CA 12.04 C 12.84 O 12.59 CB 14.0 CG1 16.69 CG2 15.41 CD1 17.19 H 12.0 HA 14.45 HB 16.8 HG12 20.03 HG13 20.03 HG21 18.49 HG22 18.49 HG23 18.49 HD11 20.63 HD12 20.63 HD13 20.63
A VAL H 0 -68.7 -34.7 N 12.42 CA 10.66 C 11.72 O 12.74 CB 12.34 CG1 12.86 CG2 12.49 H 14.91 HA 12.8 HB 14.81 HG11 15.43 HG12 15.43 HG13 15.43 HG21 14.99 HG22 14.99 HG23 14.99
A GLU H 19 -56.8 -44.5 N 12.0 CA 11.79 C 10.99 O 13.2 CB 16.52 CG 14.64 CD 21.03 OE1 17.44 OE2 12.89 H 14.4 HA 14.15 HB2 19.83 HB3 19.83 HG2 17.57 HG3 17.57
A GLU H 72 -66.7 -39.6 N 13.39 CA 12.7 C 13.91 O 11.12 CB 15.31 CG 15.64 CD 26.12 OE1 29.24 OE2 28.65 H 16.07 HA 15.24 HB2 18.37 HB3 18.37 HG2 18.77 HG3 18.77
A MET H 0 -63.6 -46.4 N 12.67 CA 12.59 C 12.98 O 11.41 CB 12.14 CG 16.07 SD 17.9 CE 17.64 H 15.21 HA 15.11 HB2 14.57 HB3 14.57 HG2 19.28 HG3 19.28 HE1 21.16 HE2 21.16 HE3 21.16
A ARG H 15 -65.1 -36.2 N 10.14 CA 10.99 C 13.92 O 10.09 CB 12.77 CG 13.92 CD 13.81 NE 14.95 CZ 16.25 NH1 15.69 NH2 15.86 H 12.16 HA 13.19 HB2 15.32 HB3 15.32 HG2 16.7 HG3 16.7 HD2 16.57 HD3 16.57 HE 17.94 HH11 18.82 HH12 18.82 HH21 19.03 HH22 19.03
A ALA H 57 -63.8 -41.8 N 12.79 CA 12.66 C 11.33 O 11.8 CB 11.08 H 15.35 HA 15.2 HB1 13.29 HB2 13.29 HB3 13.29
A ALA H 12 -65.6 -40.7 N 9.52 CA 12.49 C 11.08 O 12.62 CB 15.31 H 11.43 HA 14.99 HB1 18.38 HB2 18.38 HB3 18.38
A ILE H 0 -59.8 -46.9 N 13.07 CA 10.21 C 10.67 O 9.38 CB 9.82 CG1 9.82 CG2 11.78 CD1 14.14 H 15.69 HA 12.25 HB 11.79 HG12 11.78 HG13 11.78 HG21 14.13 HG22 14.13 HG23 14.13 HD11 16.97 HD12 16.97 HD13 16.97
A GLU H 78 -68.4 -42.5 N 9.21 CA 10.17 C 14.75 O 13.61 CB 13.64 CG 18.64 CD 23.29 OE1 27.37 OE2 24.36 H 11.05 HA 12.2 HB2 16.37 HB3 16.37 HG2 22.37 HG3 22.37
A ARG H 199 -60.2 -45.2 N 13.15 CA 12.0 C 13.48 O 15.07 CB 14.24 CG 23.95 CD 26.71 NE 27.62 CZ 25.44 NH1 22.26 NH2 21.95 H 15.78 HA 14.4 HB2 17.08 HB3 17.08 HG2 28.74 HG3 28.74 HD2 32.05 HD3 32.05 HE 33.14 HH11 26.71 HH12 26.71 HH21 26.35 HH22 26.35
A GLU H 65 -91.8 -13.6 N 11.12 CA 10.49 C 10.22 O 10.86 CB 12.4 CG 12.0 CD 23.52 OE1 22.56 OE2 24.91 H 13.34 HA 12.59 HB2 14.88 HB3 14.88 HG2 14.39 HG3 14.39
A THR H 9 -126.2 -21.3 N 10.11 CA 10.36 C 10.74 O 14.07 CB 13.56 OG1 12.98 CG2 12.25 H 12.13 HA 12.43 HB 16.27 HG1 15.57 HG21 14.7 HG22 14.7 HG23 14.7
A GLY - 44 86.9 -5.1 N 11.38 CA 14.84 C 14.9 O 16.0 H 13.66 HA2 17.81 HA3 17.81
A PHE - 2 -92.7 136.7 N 13.57 CA 9.22 C 12.19 O 13.56 CB 9.3 CG 8.89 CD1 12.33 CD2 7.74 CE1 10.67 CE2 10.81 CZ 9.68 H 16.28 HA 11.06 HB2 11.16 HB3 11.16 HD1 14.8 HD2 9.29 HE1 12.8 HE2 12.97 HZ 11.62
A GLN - 65 -94.4 153.4 N 11.59 CA 13.51 C 11.79 O 11.78 CB 13.0 CG 19.66 CD 25.88 OE1 21.55 NE2 24.24 H 13.91 HA 16.21 HB2 15.6 HB3 15.6 HG2 23.59 HG3 23.59 HE21 29.09 HE22 29.09
A CYS E 2 -147.5 164.6 N 12.58 CA 12.73 C 13.14 O 11.96 CB 15.56 SG 16.77 H 15.1 HA 15.28 HB2 18.67 HB3 18.67 HG 20.13
A SER E 0 -113.6 162.6 N 11.81 CA 12.05 C 14.28 O 13.1 CB 13.79 OG 18.43 H 14.18 HA 14.46 HB2 16.55 HB3 16.55 HG 22.11
A ALA E 0 -151.0 153.3 N 12.33 CA 6.82 C 10.14 O 9.1 CB 8.23 H 14.8 HA 8.19 HB1 9.88 HB2 9.88 HB3 9.88
A GLY E 0 -118.0 142.9 N 10.98 CA 11.81 C 11.18 O 12.22 H 13.18 HA2 14.17 HA3 14.17
A ILE E 0 -125.5 124.5 N 8.83 CA 8.29 C 10.67 O 12.45 CB 13.17 CG1 12.75 CG2 11.47 CD1 16.97 H 10.6 HA 9.95 HB 15.81 HG12 15.3 HG13 15.3 HG21 13.77 HG22 13.77 HG23 13.77 HD11 20.36 HD12 20.36 HD13 20.36
A SER E 0 -156.8 -155.1 N 9.18 CA 9.64 C 12.3 O 9.75 CB 12.2 OG 11.85 H 11.02 HA 11.57 HB2 14.63 HB3 14.63 HG 14.22
A HIS S 2 -100.4 -4.2 N 11.08 CA 10.35 C 10.05 O 11.2 CB 13.54 CG 11.81 ND1 14.09 CD2 13.55 CE1 13.64 NE2 12.59 H 13.29 HA 12.42 HB2 16.24 HB3 16.24 HD1 16.91 HD2 16.26 HE1 16.36
A ASN S 0 -159.7 172.5 N 7.67 CA 8.35 C 8.95 O 11.48 CB 9.67 CG 14.89 OD1 12.01 ND2 14.03 H 9.2 HA 10.02 HB2 11.61 HB3 11.61 HD21 16.83 HD22 16.83
A LYS H 3 -68.3 -39.7 N 13.16 CA 13.05 C 11.52 O 11.25 CB 16.14 CG 16.44 CD 18.97 CE 23.63 NZ 23.7 H 15.79 HA 15.66 HB2 19.36 HB3 19.36 HG2 19.73 HG3 19.73 HD2 22.76 HD3 22.76 HE2 28.35 HE3 28.35 HZ1 28.43 HZ2 28.43 HZ3 28.43
A VAL H 2 -66.1 -46.8 N 12.48 CA 8.76 C 10.23 O 11.61 CB 13.02 CG1 18.22 CG2 17.91 H 14.98 HA 10.51 HB 15.62 HG11 21.86 HG12 21.86 HG13 21.86 HG21 21.49 HG22 21.49 HG23 21.49
A LEU H 1 -66.6 -34.3 N 10.95 CA 9.66 C 11.39 O 11.19 CB 9.1 CG 9.16 CD1 12.36 CD2 13.38 H 13.14 HA 11.59 HB2 10.92 HB3 10.92 HG 10.99 HD11 14.84 HD12 14.84 HD13 14.84 HD21 16.06 HD22 16.06 HD23 16.06
A ALA H 0 -65.3 -41.5 N 11.27 CA 10.76 C 10.06 O 11.99 CB 11.95 H 13.52 HA 12.91 HB1 14.34 HB2 14.34 HB3 14.34
A LYS H 70 -67.4 -43.8 N 11.54 CA 10.81 C 13.14 O 11.65 CB 14.93 CG 19.29 CD 28.81 CE 27.27 NZ 41.83 H 13.85 HA 12.98 HB2 17.92 HB3 17.92 HG2 23.15 HG3 23.15 HD2 34.58 HD3 34.58 HE2 32.72 HE3 32.72 HZ1 50.2 HZ2 50.2 HZ3 50.2
A LEU H 20 -59.5 -44.6 N 11.32 CA 10.37 C 15.13 O 14.89 CB 12.59 CG 18.19 CD1 21.36 CD2 19.83 H 13.59 HA 12.45 HB2 15.11 HB3 15.11 HG 21.83 HD11 25.63 HD12 25.63 HD13 25.63 HD21 23.8 HD22 23.8 HD23 23.8
A ALA H 0 -60.0 -41.3 N 12.53 CA 12.59 C 15.72 O 13.61 CB 10.11 H 15.03 HA 15.1 HB1 12.13 HB2 12.13 HB3 12.13
A CYS H 1 -56.4 -39.1 N 10.2 CA 13.1 C 13.6 O 16.72 CB 13.89 SG 13.35 H 12.24 HA 15.72 HB2 16.67 HB3 16.67 HG 16.02
A GLY T 48 -78.7 -4.4 N 13.82 CA 15.23 C 17.38 O 13.42 H 16.58 HA2 18.27 HA3 18.27
A LEU T 54 -79.7 -24.9 N 12.67 CA 14.63 C 16.84 O 16.14 CB 12.58 CG 15.2 CD1 12.62 CD2 20.99 H 15.2 HA 17.55 HB2 15.09 HB3 15.09 HG 18.23 HD11 15.14 HD12 15.14 HD13 15.14 HD21 25.19 HD22 25.19 HD23 25.19
A ASN S 21 -144.6 98.7 N 13.24 CA 10.46 C 16.81 O 18.22 CB 12.7 CG 15.98 OD1 16.85 ND2 13.35 H 15.89 HA 12.55 HB2 15.24 HB3 15.24 HD21 16.02 HD22 16.02
A LYS - 72 -134.1 155.8 N 17.75 CA 18.09 C 20.86 O 19.97 CB 21.83 CG 23.39 CD 29.46 CE 30.28 NZ 45.85 H 21.3 HA 21.71 HB2 26.19 HB3 26.19 HG2 28.07 HG3 28.07 HD2 35.36 HD3 35.36 HE2 36.34 HE3 36.34 HZ1 55.02 HZ2 55.02 HZ3 55.02
A PRO S 48 -88.8 171.0 N 14.14 CA 14.1 C 14.12 O 15.85 CB 14.05 CG 20.3 CD 20.23 HA 16.92 HB2 16.86 HB3 16.86 HG2 24.35 HG3 24.35 HD2 24.27 HD3 24.27
A ASN S 34 57.8 38.3 N 12.35 CA 11.34 C 12.97 O 13.53 CB 15.8 CG 21.71 OD1 20.01 ND2 27.44 H 14.82 HA 13.61 HB2 18.96 HB3 18.96 HD21 32.93 HD22 32.93
A ARG - 82 -142.0 168.7 N 11.51 CA 11.8 C 10.58 O 11.88 CB 13.08 CG 14.61 CD 22.92 NE 21.33 CZ 37.51 NH1 25.76 NH2 37.36 H 13.81 HA 14.16 HB2 15.7 HB3 15.7 HG2 17.53 HG3 17.53 HD2 27.51 HD3 27.51 HE 25.59 HH11 30.91 HH12 30.91 HH21 44.83 HH22 44.83
A GLN E 0 -138.2 150.0 N 9.29 CA 7.17 C 11.05 O 10.94 CB 9.14 CG 11.16 CD 12.47 OE1 15.61 NE2 11.22 H 11.15 HA 8.6 HB2 10.96 HB3 10.96 HG2 13.39 HG3 13.39 HE21 13.46 HE22 13.46
A THR E 0 -130.6 131.9 N 10.1 CA 7.92 C 11.21 O 10.44 CB 9.96 OG1 11.36 CG2 13.21 H 12.12 HA 9.51 HB 11.95 HG1 13.63 HG21 15.85 HG22 15.85 HG23 15.85
A LEU E 2 -99.6 118.7 N 9.36 CA 7.9 C 10.8 O 11.09 CB 9.51 CG 10.84 CD1 11.13 CD2 13.03 H 11.23 HA 9.48 HB2 11.41 HB3 11.41 HG 13.01 HD11 13.36 HD12 13.36 HD13 13.36 HD21 15.63 HD22 15.63 HD23 15.63
A VAL - 0 -109.2 108.4 N 10.21 CA 11.62 C 13.0 O 10.65 CB 9.33 CG1 12.46 CG2 10.53 H 12.26 HA 13.95 HB 11.2 HG11 14.96 HG12 14.96 HG13 14.96 HG21 12.64 HG22 12.64 HG23 12.64
A SER - 10 -82.8 163.7 N 10.85 CA 8.59 C 7.88 O 11.25 CB 15.7 OG 15.17 H 13.02 HA 10.31 HB2 18.84 HB3 18.84 HG 18.2
A HIS G 44 -58.6 -40.4 N 10.93 CA 8.79 C 12.33 O 10.08 CB 12.32 CG 13.94 ND1 21.15 CD2 15.88 CE1 23.54 NE2 19.33 H 13.12 HA 10.55 HB2 14.78 HB3 14.78 HD1 25.39 HD2 19.06 HE1 28.24
A GLY G 59 -65.8 -25.5 N 12.6 CA 12.25 C 12.26 O 14.19 H 15.13 HA2 14.69 HA3 14.69
A SER G 14 -75.8 -8.9 N 9.63 CA 9.49 C 10.22 O 10.48 CB 13.99 OG 13.95 H 11.56 HA 11.38 HB2 16.79 HB3 16.79 HG 16.74
A VAL H 4 -68.7 -45.3 N 11.77 CA 7.15 C 8.88 O 11.6 CB 13.14 CG1 12.81 CG2 12.17 H 14.12 HA 8.58 HB 15.76 HG11 15.37 HG12 15.37 HG13 15.37 HG21 14.6 HG22 14.6 HG23 14.6
A PRO H 90 -55.9 -46.1 N 9.67 CA 10.54 C 10.32 O 10.06 CB 11.97 CG 12.41 CD 9.85 HA 12.65 HB2 14.36 HB3 14.36 HG2 14.89 HG3 14.89 HD2 11.82 HD3 11.82
A GLN H 141 -70.9 -41.7 N 9.78 CA 8.8 C 10.29 O 12.65 CB 12.81 CG 21.78 CD 38.56 OE1 31.38 NE2 38.14 H 11.74 HA 10.56 HB2 15.37 HB3 15.37 HG2 26.13 HG3 26.13 HE21 45.77 HE22 45.77
A LEU H 16 -60.1 -45.9 N 10.13 CA 10.03 C 7.95 O 8.94 CB 9.4 CG 14.9 CD1 16.38 CD2 13.66 H 12.16 HA 12.04 HB2 11.29 HB3 11.29 HG 17.88 HD11 19.65 HD12 19.65 HD13 19.65 HD21 16.4 HD22 16.4 HD23 16.4
A PHE H 2 -76.1 -16.1 N 8.15 CA 8.67 C 11.51 O 10.3 CB 8.25 CG 9.81 CD1 12.41 CD2 11.53 CE1 14.67 CE2 12.54 CZ 13.22 H 9.78 HA 10.4 HB2 9.9 HB3 9.9 HD1 14.89 HD2 13.83 HE1 17.61 HE2 15.05 HZ 15.86
A SER H 59 -66.2 -25.9 N 10.83 CA 10.61 C 12.92 O 10.82 CB 10.32 OG 10.8 H 13.0 HA 12.74 HB2 12.38 HB3 12.38 HG 12.96
A GLN T 150 -126.1 23.2 N 12.36 CA 9.6 C 12.06 O 13.59 CB 16.14 CG 15.82 CD 26.32 OE1 23.61 NE2 21.69 H 14.83 HA 11.52 HB2 19.37 HB3 19.37 HG2 18.98 HG3 18.98 HE21 26.03 HE22 26.03
A MET - 24 -93.5 113.9 N 10.79 CA 14.06 C 10.7 O 10.35 CB 11.18 CG 14.32 SD 18.12 CE 15.31 H 12.95 HA 16.88 HB2 13.42 HB3 13.42 HG2 17.19 HG3 17.19 HE1 18.37 HE2 18.37 HE3 18.37
A PRO B 31 -54.5 138.9 N 11.16 CA 12.07 C 12.96 O 11.82 CB 11.91 CG 14.91 CD 11.06 HA 14.48 HB2 14.3 HB3 14.3 HG2 17.9 HG3 17.9 HD2 13.27 HD3 13.27
A ILE G 0 -55.0 -35.1 N 12.31 CA 11.8 C 12.14 O 10.69 CB 14.11 CG1 17.5 CG2 17.41 CD1 21.66 H 14.77 HA 14.16 HB 16.93 HG12 21.0 HG13 21.0 HG21 20.89 HG22 20.89 HG23 20.89 HD11 26.0 HD12 26.0 HD13 26.0
A ARG G 144 -67.1 -13.7 N 10.62 CA 15.31 C 16.07 O 13.8 CB 14.34 CG 14.64 CD 20.56 NE 23.46 CZ 26.16 NH1 26.73 NH2 22.08 H 12.75 HA 18.37 HB2 17.21 HB3 17.21 HG2 17.57 HG3 17.57 HD2 24.67 HD3 24.67 HE 28.15 HH11 32.08 HH12 32.08 HH21 26.49 HH22 26.49
A LYS G 113 -78.4 -14.5 N 13.06 CA 12.29 C 15.89 O 13.78 CB 13.3 CG 19.56 CD 26.37 CE 36.14 NZ 31.87 H 15.67 HA 14.75 HB2 15.96 HB3 15.96 HG2 23.47 HG3 23.47 HD2 31.65 HD3 31.65 HE2 43.37 HE3 43.37 HZ1 38.25 HZ2 38.25 HZ3 38.25
A ILE S 2 -85.2 132.3 N 11.17 CA 8.96 C 13.53 O 13.41 CB 12.73 CG1 21.12 CG2 15.34 CD1 23.04 H 13.4 HA 10.75 HB 15.28 HG12 25.34 HG13 25.34 HG21 18.41 HG22 18.41 HG23 18.41 HD11 27.65 HD12 27.65 HD13 27.65
A ARG T 91 -57.4 128.9 N 12.92 CA 15.86 C 14.66 O 12.83 CB 16.02 CG 25.93 CD 28.57 NE 45.3 CZ 51.53 NH1 52.92 NH2 51.71 H 15.5 HA 19.04 HB2 19.22 HB3 19.22 HG2 31.12 HG3 31.12 HD2 34.29 HD3 34.29 HE 54.37 HH11 63.5 HH12 63.5 HH21 62.05 HH22 62.05
A SER T 71 93.2 -10.3 N 15.44 CA 14.29 C 19.14 O 13.51 CB 19.27 OG 19.48 H 18.53 HA 17.15 HB2 23.13 HB3 23.13 HG 23.37
A LEU - 1 -103.9 8.9 N 13.91 CA 11.94 C 12.45 O 14.13 CB 12.9 CG 14.69 CD1 13.45 CD2 18.44 H 16.69 HA 14.33 HB2 15.48 HB3 15.48 HG 17.63 HD11 16.14 HD12 16.14 HD13 16.14 HD21 22.13 HD22 22.13 HD23 22.13
A GLY S 59 -81.4 1.3 N 12.86 CA 10.33 C 17.72 O 15.7 H 15.43 HA2 12.4 HA3 12.4
A GLY S 45 -124.6 -136.4 N 16.45 CA 15.14 C 16.18 O 15.29 H 19.74 HA2 18.17 HA3 18.17
A LYS H 194 -68.5 -39.3 N 14.53 CA 14.02 C 12.88 O 14.45 CB 20.7 CG 19.83 CD 25.6 CE 38.0 NZ 47.01 H 17.44 HA 16.83 HB2 24.83 HB3 24.83 HG2 23.79 HG3 23.79 HD2 30.72 HD3 30.72 HE2 45.59 HE3 45.59 HZ1 56.41 HZ2 56.41 HZ3 56.41
A LEU H 43 -61.0 -47.3 N 13.92 CA 14.96 C 13.31 O 15.49 CB 14.21 CG 16.18 CD1 23.87 CD2 21.17 H 16.71 HA 17.96 HB2 17.05 HB3 17.05 HG 19.41 HD11 28.64 HD12 28.64 HD13 28.64 HD21 25.4 HD22 25.4 HD23 25.4
A GLY H 2 -60.3 -38.3 N 12.08 CA 12.49 C 15.44 O 13.01 H 14.5 HA2 14.98 HA3 14.98
A ALA H 56 -64.4 -36.3 N 15.32 CA 15.98 C 16.67 O 18.86 CB 20.49 H 18.39 HA 19.17 HB1 24.58 HB2 24.58 HB3 24.58
A SER H 33 -72.7 -35.3 N 14.58 CA 13.38 C 13.81 O 14.61 CB 17.55 OG 27.06 H 17.49 HA 16.05 HB2 21.06 HB3 21.06 HG 32.47
A VAL H 0 -57.5 -46.5 N 17.19 CA 15.04 C 15.68 O 16.61 CB 13.75 CG1 17.42 CG2 18.6 H 20.62 HA 18.04 HB 16.51 HG11 20.9 HG12 20.9 HG13 20.9 HG21 22.32 HG22 22.32 HG23 22.32
A ILE H 61 -62.0 -46.8 N 15.06 CA 12.34 C 18.66 O 20.74 CB 14.84 CG1 18.68 CG2 23.7 CD1 23.48 H 18.08 HA 14.81 HB 17.81 HG12 22.42 HG13 22.42 HG21 28.43 HG22 28.43 HG23 28.43 HD11 28.18 HD12 28.18 HD13 28.18
A GLU H 164 -73.4 -44.9 N 18.27 CA 19.37 C 19.13 O 23.96 CB 24.73 CG 39.74 CD 50.46 OE1 63.1 OE2 59.71 H 21.93 HA 23.24 HB2 29.68 HB3 29.68 HG2 47.69 HG3 47.69
A ILE H 85 -70.2 -40.4 N 16.93 CA 16.09 C 15.47 O 17.74 CB 18.2 CG1 23.22 CG2 22.45 CD1 28.04 H 20.32 HA 19.31 HB 21.84 HG12 27.87 HG13 27.87 HG21 26.94 HG22 26.94 HG23 26.94 HD11 33.65 HD12 33.65 HD13 33.65
A LEU H 25 -93.6 -13.1 N 14.11 CA 17.88 C 17.52 O 17.72 CB 18.06 CG 19.33 CD1 18.16 CD2 19.32 H 16.93 HA 21.45 HB2 21.67 HB3 21.67 HG 23.19 HD11 21.79 HD12 21.79 HD13 21.79 HD21 23.18 HD22 23.18 HD23 23.18
A GLY T 64 65.6 40.1 N 16.08 CA 15.97 C 22.01 O 19.06 H 19.29 HA2 19.16 HA3 19.16
A ILE - 11 -124.1 168.0 N 14.43 CA 13.38 C 16.79 O 17.3 CB 13.58 CG1 14.24 CG2 15.42 CD1 15.63 H 17.31 HA 16.05 HB 16.3 HG12 17.09 HG13 17.09 HG21 18.5 HG22 18.5 HG23 18.5 HD11 18.76 HD12 18.76 HD13 18.76
A GLU - 120 -121.2 -32.6 N 11.67 CA 11.75 C 14.36 O 14.82 CB 20.23 CG 29.96 CD 43.76 OE1 38.9 OE2 60.55 H 14.0 HA 14.1 HB2 24.28 HB3 24.28 HG2 35.95 HG3 35.95
A TYR B 77 -118.4 148.9 N 12.66 CA 10.37 C 11.01 O 14.14 CB 11.01 CG 9.24 CD1 13.58 CD2 13.48 CE1 17.39 CE2 16.82 CZ 23.15 OH 21.2 H 15.19 HA 12.45 HB2 13.21 HB3 13.21 HD1 16.29 HD2 16.17 HE1 20.87 HE2 20.18 HH 25.44
A MET G 0 -54.9 -41.8 N 10.77 CA 12.74 C 11.82 O 9.83 CB 13.78 CG 18.91 SD 18.34 CE 21.9 H 12.93 HA 15.29 HB2 16.54 HB3 16.54 HG2 22.69 HG3 22.69 HE1 26.28 HE2 26.28 HE3 26.28
A GLY G 17 -63.2 -26.8 N 11.06 CA 11.79 C 15.46 O 13.46 H 13.27 HA2 14.15 HA3 14.15
A GLU G 75 -64.0 -17.1 N 9.94 CA 11.37 C 11.98 O 14.51 CB 10.63 CG 14.39 CD 19.46 OE1 15.87 OE2 20.06 H 11.92 HA 13.65 HB2 12.75 HB3 12.75 HG2 17.27 HG3 17.27
A LEU G 0 -65.2 -20.1 N 12.37 CA 11.16 C 11.74 O 13.42 CB 11.33 CG 13.13 CD1 17.94 CD2 14.05 H 14.85 HA 13.39 HB2 13.6 HB3 13.6 HG 15.75 HD11 21.52 HD12 21.52 HD13 21.52 HD21 16.86 HD22 16.86 HD23 16.86
A THR G 45 -65.6 -16.7 N 12.79 CA 13.33 C 13.9 O 15.07 CB 14.2 OG1 15.15 CG2 12.0 H 15.35 HA 16.0 HB 17.04 HG1 18.18 HG21 14.4 HG22 14.4 HG23 14.4
A GLN G 152 -82.9 -0.9 N 13.42 CA 13.05 C 20.59 O 22.9 CB 22.06 CG 26.22 CD 36.48 OE1 34.52 NE2 27.19 H 16.11 HA 15.65 HB2 26.47 HB3 26.47 HG2 31.47 HG3 31.47 HE21 32.63 HE22 32.63
A PHE S 43 -106.9 145.1 N 13.31 CA 10.91 C 16.35 O 17.04 CB 13.63 CG 11.45 CD1 16.17 CD2 14.05 CE1 19.07 CE2 17.13 CZ 16.29 H 15.98 HA 13.09 HB2 16.36 HB3 16.36 HD1 19.41 HD2 16.86 HE1 22.88 HE2 20.55 HZ 19.55
A THR - 76 -74.7 161.5 N 14.96 CA 13.9 C 9.4 O 12.0 CB 13.02 OG1 14.39 CG2 18.46 H 17.96 HA 16.67 HB 15.63 HG1 17.27 HG21 22.15 HG22 22.15 HG23 22.15
A GLU H 75 -58.9 -42.1 N 13.62 CA 12.54 C 14.34 O 13.24 CB 15.62 CG 16.88 CD 25.32 OE1 24.42 OE2 22.78 H 16.35 HA 15.05 HB2 18.75 HB3 18.75 HG2 20.26 HG3 20.26
A SER H 85 -63.1 -39.9 N 13.61 CA 14.75 C 12.77 O 13.68 CB 19.01 OG 24.45 H 16.33 HA 17.7 HB2 22.81 HB3 22.81 HG 29.34
A GLN H 87 -58.0 -47.8 N 13.73 CA 12.76 C 13.69 O 14.04 CB 12.49 CG 20.14 CD 26.95 OE1 18.76 NE2 29.35 H 16.47 HA 15.31 HB2 14.99 HB3 14.99 HG2 24.17 HG3 24.17 HE21 35.22 HE22 35.22
A LEU H 0 -66.6 -38.7 N 12.36 CA 11.46 C 13.07 O 16.36 CB 13.04 CG 15.04 CD1 15.6 CD2 13.05 H 14.83 HA 13.75 HB2 15.64 HB3 15.64 HG 18.05 HD11 18.72 HD12 18.72 HD13 18.72 HD21 15.66 HD22 15.66 HD23 15.66
A GLN H 53 -64.0 -34.4 N 14.66 CA 14.76 C 14.1 O 16.38 CB 14.97 CG 16.39 CD 22.97 OE1 18.09 NE2 23.39 H 17.59 HA 17.71 HB2 17.97 HB3 17.97 HG2 19.67 HG3 19.67 HE21 28.06 HE22 28.06
A SER H 90 -67.6 -29.4 N 18.02 CA 12.6 C 18.92 O 20.68 CB 14.49 OG 27.33 H 21.63 HA 15.11 HB2 17.39 HB3 17.39 HG 32.79
A HIS H 89 -87.6 -39.6 N 17.23 CA 18.22 C 21.74 O 23.6 CB 22.05 CG 16.92 ND1 26.03 CD2 27.01 CE1 20.04 NE2 25.68 H 20.68 HA 21.87 HB2 26.46 HB3 26.46 HD2 32.41 HE1 24.05 HE2 30.82
A PHE H 18 -120.5 2.6 N 17.28 CA 15.37 C 19.87 O 22.93 CB 15.5 CG 16.73 CD1 16.53 CD2 13.51 CE1 20.45 CE2 13.89 CZ 19.05 H 20.74 HA 18.45 HB2 18.6 HB3 18.6 HD1 19.84 HD2 16.22 HE1 24.54 HE2 16.66 HZ 22.87
A GLY - 34 97.9 162.6 N 15.41 CA 21.16 C 19.7 O 15.22 H 18.49 HA2 25.39 HA3 25.39
A GLU H 156 -60.8 -49.0 N 15.31 CA 16.13 C 17.79 O 16.12 CB 20.84 CG 19.63 CD 41.43 OE1 41.74 OE2 30.58 H 18.38 HA 19.36 HB2 25.0 HB3 25.0 HG2 23.56 HG3 23.56
A LYS H 179 -69.7 -51.0 N 15.13 CA 17.95 C 13.85 O 13.89 CB 18.21 CG 32.79 CD 45.79 CE 44.22 NZ 50.24 H 18.16 HA 21.54 HB2 21.86 HB3 21.86 HG2 39.35 HG3 39.35 HD2 54.95 HD3 54.95 HE2 53.06 HE3 53.06 HZ1 60.28 HZ2 60.28 HZ3 60.28
A ASN H 63 -62.1 -42.2 N 17.09 CA 16.8 C 16.59 O 15.2 CB 17.89 CG 22.78 OD1 24.71 ND2 20.8 H 20.51 HA 20.16 HB2 21.47 HB3 21.47 HD21 24.96 HD22 24.96
A GLY H 0 -60.7 -47.2 N 14.53 CA 15.32 C 18.39 O 16.39 H 17.43 HA2 18.38 HA3 18.38
A SER H 39 -62.9 -40.2 N 12.54 CA 11.81 C 13.29 O 12.9 CB 19.14 OG 23.0 H 15.05 HA 14.17 HB2 22.96 HB3 22.96 HG 27.6
A TRP H 55 -63.0 -44.9 N 14.58 CA 14.06 C 12.01 O 13.83 CB 15.34 CG 17.42 CD1 24.04 CD2 17.53 NE1 21.03 CE2 18.56 CE3 18.69 CZ2 17.18 CZ3 19.6 CH2 15.85 H 17.5 HA 16.88 HB2 18.41 HB3 18.41 HD1 28.85 HE1 25.23 HE3 22.42 HZ2 20.61 HZ3 23.53 HH2 19.03
A LEU H 0 -65.6 -41.2 N 11.52 CA 15.32 C 11.78 O 11.57 CB 12.44 CG 14.89 CD1 13.57 CD2 16.47 H 13.83 HA 18.39 HB2 14.93 HB3 14.93 HG 17.87 HD11 16.28 HD12 16.28 HD13 16.28 HD21 19.76 HD22 19.76 HD23 19.76
A TYR H 75 -56.6 -47.1 N 10.09 CA 9.04 C 13.73 O 11.72 CB 10.91 CG 11.72 CD1 13.18 CD2 14.78 CE1 11.6 CE2 18.92 CZ 17.3 OH 22.5 H 12.11 HA 10.85 HB2 13.1 HB3 13.1 HD1 15.82 HD2 17.74 HE1 13.92 HE2 22.7 HH 27.0
A ALA H 23 -75.2 -38.5 N 11.89 CA 11.29 C 11.21 O 11.08 CB 14.0 H 14.26 HA 13.54 HB1 16.8 HB2 16.8 HB3 16.8
A MET H 0 -67.2 -37.3 N 12.88 CA 10.3 C 10.67 O 12.25 CB 12.21 CG 13.81 SD 15.48 CE 18.14 H 15.46 HA 12.36 HB2 14.65 HB3 14.65 HG2 16.58 HG3 16.58 HE1 21.77 HE2 21.77 HE3 21.77
A CYS T 4 -70.4 -11.3 N 11.62 CA 10.45 C 11.99 O 10.32 CB 13.35 SG 12.52 H 13.95 HA 12.54 HB2 16.02 HB3 16.02 HG 15.03
A ARG T 79 -99.3 7.8 N 10.8 CA 12.44 C 14.13 O 13.8 CB 11.94 CG 14.03 CD 15.16 NE 16.87 CZ 14.0 NH1 15.25 NH2 14.54 H 12.96 HA 14.93 HB2 14.33 HB3 14.33 HG2 16.84 HG3 16.84 HD2 18.19 HD3 18.19 HE 20.24 HH11 18.31 HH12 18.31 HH21 17.45 HH22 17.45
A GLY T 0 87.4 15.8 N 12.59 CA 13.3 C 11.7 O 13.38 H 15.11 HA2 15.96 HA3 15.96
A ILE - 23 -116.6 130.6 N 10.42 CA 10.89 C 13.2 O 13.55 CB 16.48 CG1 18.37 CG2 15.38 CD1 23.1 H 12.5 HA 13.07 HB 19.77 HG12 22.04 HG13 22.04 HG21 18.46 HG22 18.46 HG23 18.46 HD11 27.72 HD12 27.72 HD13 27.72
A GLU - 10 -155.3 142.5 N 13.76 CA 11.95 C 20.71 O 17.43 CB 19.19 CG 25.53 CD 26.31 OE1 28.33 OE2 37.59 H 16.52 HA 14.34 HB2 23.03 HB3 23.03 HG2 30.64 HG3 30.64
A HIS - 124 -113.3 -1.7 N 17.08 CA 19.92 C 28.35 O 27.47 CB 34.16 CG 35.23 ND1 38.57 CD2 44.21 CE1 36.64 NE2 43.67 H 20.49 HA 23.9 HB2 41.0 HB3 41.0 HD2 53.05 HE1 43.96 HE2 52.4
A ASP - 52 -53.4 119.8 N 19.41 CA 18.6 C 18.61 O 15.04 CB 19.18 CG 30.37 OD1 37.21 OD2 30.78 H 23.29 HA 22.33 HB2 23.02 HB3 23.02
A PRO - 73 -77.9 154.0 N 17.37 CA 13.18 C 12.57 O 14.89 CB 17.94 CG 23.04 CD 22.99 HA 15.81 HB2 21.53 HB3 21.53 HG2 27.64 HG3 27.64 HD2 27.59 HD3 27.59
A VAL - 8 -72.3 110.8 N 14.13 CA 14.02 C 15.39 O 15.23 CB 15.44 CG1 15.93 CG2 13.27 H 16.96 HA 16.82 HB 18.53 HG11 19.12 HG12 19.12 HG13 19.12 HG21 15.92 HG22 15.92 HG23 15.92
A LYS - 93 -79.0 132.9 N 14.24 CA 13.4 C 13.84 O 17.2 CB 20.32 CG 24.37 CD 38.83 CE 45.14 NZ 45.57 H 17.08 HA 16.09 HB2 24.39 HB3 24.39 HG2 29.24 HG3 29.24 HD2 46.6 HD3 46.6 HE2 54.17 HE3 54.17 HZ1 54.68 HZ2 54.68 HZ3 54.68
A PRO - 115 -70.1 93.7 N 13.63 CA 14.08 C 19.14 O 19.14 CB 21.32 CG 26.84 CD 20.49 HA 16.89 HB2 25.58 HB3 25.58 HG2 32.21 HG3 32.21 HD2 24.58 HD3 24.58
A ARG B 62 -149.2 99.0 N 13.98 CA 15.44 C 16.43 O 21.16 CB 21.27 CG 27.19 CD 30.65 NE 34.73 CZ 43.22 NH1 22.46 NH2 31.53 H 16.77 HA 18.52 HB2 25.52 HB3 25.52 HG2 32.63 HG3 32.63 HD2 36.78 HD3 36.78 HE 41.68 HH11 26.95 HH12 26.95 HH21 37.84 HH22 37.84
A GLN - 63 -81.0 -28.7 N 15.0 CA 24.66 C 22.34 O 20.75 CB 28.12 CG 36.02 CD 40.05 OE1 37.34 NE2 29.86 H 18.0 HA 29.59 HB2 33.75 HB3 33.75 HG2 43.23 HG3 43.23 HE21 35.84 HE22 35.84
A LEU S 52 -112.5 151.5 N 16.56 CA 18.4 C 17.09 O 15.58 CB 17.3 CG 16.4 CD1 20.61 CD2 19.76 H 19.87 HA 22.08 HB2 20.76 HB3 20.76 HG 19.68 HD11 24.74 HD12 24.74 HD13 24.74 HD21 23.72 HD22 23.72 HD23 23.72
A PRO - 40 -63.3 147.5 N 13.35 CA 14.82 C 16.73 O 15.75 CB 15.88 CG 18.53 CD 14.91 HA 17.79 HB2 19.06 HB3 19.06 HG2 22.24 HG3 22.24 HD2 17.89 HD3 17.89
A LYS S 129 -84.8 -13.0 N 15.11 CA 16.71 C 20.15 O 18.4 CB 22.07 CG 24.14 CD 30.1 CE 37.37 NZ 42.35 H 18.13 HA 20.05 HB2 26.49 HB3 26.49 HG2 28.97 HG3 28.97 HD2 36.12 HD3 36.12 HE2 44.84 HE3 44.84 HZ1 50.82 HZ2 50.82 HZ3 50.82
A THR - 73 -139.2 153.7 N 15.46 CA 14.98 C 19.32 O 18.54 CB 21.29 OG1 22.43 CG2 23.9 H 18.55 HA 17.97 HB 25.55 HG1 26.92 HG21 28.68 HG22 28.68 HG23 28.68
A ILE E 11 -130.5 109.9 N 14.65 CA 14.49 C 16.23 O 14.05 CB 16.92 CG1 21.02 CG2 16.41 CD1 21.23 H 17.58 HA 17.39 HB 20.3 HG12 25.23 HG13 25.23 HG21 19.7 HG22 19.7 HG23 19.7 HD11 25.48 HD12 25.48 HD13 25.48
A GLY E 21 -128.0 158.0 N 12.72 CA 13.66 C 18.39 O 17.27 H 15.26 HA2 16.39 HA3 16.39
A CYS E 3 -141.1 129.9 N 14.28 CA 20.83 C 21.42 O 21.49 CB 21.34 SG 26.87 H 17.14 HA 24.99 HB2 25.61 HB3 25.61 HG 32.24
A SER E 60 -148.4 156.7 N 16.74 CA 16.77 C 18.41 O 15.57 CB 20.17 OG 18.47 H 20.09 HA 20.13 HB2 24.2 HB3 24.2 HG 22.16
A LYS E 26 -151.1 131.5 N 18.74 CA 20.18 C 24.9 O 16.91 CB 20.59 CG 22.04 CD 24.63 CE 29.45 NZ 31.73 H 22.49 HA 24.21 HB2 24.7 HB3 24.7 HG2 26.45 HG3 26.45 HD2 29.56 HD3 29.56 HE2 35.34 HE3 35.34 HZ1 38.08 HZ2 38.08 HZ3 38.08
A ASN E 97 -88.7 153.4 N 18.35 CA 16.97 C 27.39 O 19.4 CB 19.9 CG 29.08 OD1 32.23 ND2 30.61 H 22.02 HA 20.36 HB2 23.88 HB3 23.88 HD21 36.73 HD22 36.73
A PHE - 7 -133.7 75.5 N 28.82 CA 28.47 C 35.95 O 32.18 CB 30.05 CG 25.69 CD1 21.68 CD2 26.43 CE1 26.54 CE2 20.39 CZ 23.42 H 34.58 HA 34.16 HB2 36.07 HB3 36.07 HD1 26.01 HD2 31.71 HE1 31.84 HE2 24.47 HZ 28.11
A PRO - 85 -80.2 161.8 N 31.27 CA 33.96 C 37.62 O 34.04 CB 37.53 CG 44.27 CD 39.68 HA 40.75 HB2 45.04 HB3 45.04 HG2 53.13 HG3 53.13 HD2 47.61 HD3 47.61
A GLY G 51 47.5 -114.4 N 48.27 CA 47.88 C 45.45 O 44.65 H 57.92 HA2 57.46 HA3 57.46
A LYS G 204 -78.9 -18.2 N 48.64 CA 43.57 C 41.7 O 47.79 CB 53.1 CG 59.34 CD 66.97 CE 51.16 NZ 54.64 H 58.37 HA 52.29 HB2 63.71 HB3 63.71 HG2 71.21 HG3 71.21 HD2 80.37 HD3 80.37 HE2 61.39 HE3 61.39 HZ1 65.56 HZ2 65.56 HZ3 65.56
A THR G 79 -84.2 2.8 N 41.17 CA 40.3 C 33.05 O 32.76 CB 42.29 OG1 37.02 CG2 44.33 H 49.4 HA 48.36 HB 50.75 HG1 44.43 HG21 53.2 HG22 53.2 HG23 53.2
A ALA - 10 -54.6 140.5 N 34.99 CA 34.4 C 41.97 O 40.51 CB 38.57 H 41.98 HA 41.28 HB1 46.29 HB2 46.29 HB3 46.29
A LEU E 1 -73.7 119.2 N 37.1 CA 32.89 C 42.12 O 42.42 CB 31.94 CG 32.75 CD1 30.92 CD2 31.72 H 44.52 HA 39.47 HB2 38.32 HB3 38.32 HG 39.3 HD11 37.1 HD12 37.1 HD13 37.1 HD21 38.07 HD22 38.07 HD23 38.07
A ALA E 36 -118.0 2.3 N 48.8 CA 41.77 C 46.77 O 57.5 CB 46.32 H 58.56 HA 50.12 HB1 55.59 HB2 55.59 HB3 55.59
A THR E 41 -135.2 161.6 N 40.49 CA 46.83 C 57.15 O 48.3 CB 47.03 OG1 43.17 CG2 50.07 H 48.59 HA 56.2 HB 56.43 HG1 51.8 HG21 60.09 HG22 60.09 HG23 60.09
A ARG H 16 -71.2 -40.8 N 51.99 CA 41.97 C 47.35 O 47.78 CB 48.83 H 62.38 HA 50.36
A GLU H 72 -62.6 -34.9 N 47.73 CA 47.79 C 41.67 O 35.82 CB 46.3 H 57.28 HA 57.35
A GLN H 69 -61.6 -54.1 N 45.64 CA 45.69 C 45.02 O 33.81 CB 46.94 CG 41.05 CD 41.45 OE1 45.45 NE2 38.49 H 54.76 HA 54.83 HB2 56.33 HB3 56.33 HG2 49.26 HG3 49.26 HE21 46.19 HE22 46.19
A VAL H 0 -54.0 -43.7 N 36.93 CA 35.41 C 33.35 O 36.65 CB 41.25 CG1 29.91 CG2 35.84 H 44.32 HA 42.49 HB 49.5 HG11 35.9 HG12 35.9 HG13 35.9 HG21 43.01 HG22 43.01 HG23 43.01
A GLN H 94 -73.1 -34.9 N 31.5 CA 37.43 C 38.04 O 34.57 CB 35.59 CG 41.08 CD 57.85 OE1 48.43 NE2 53.48 H 37.8 HA 44.91 HB2 42.7 HB3 42.7 HG2 49.29 HG3 49.29 HE21 64.17 HE22 64.17
A TRP H 130 -66.0 -43.1 N 30.95 CA 31.82 C 19.96 O 26.08 CB 27.54 CG 27.22 CD1 27.32 CD2 25.32 NE1 29.9 CE2 32.07 CE3 23.92 CZ2 34.1 CZ3 30.97 CH2 28.66 H 37.14 HA 38.18 HB2 33.05 HB3 33.05 HD1 32.79 HE1 35.88 HE3 28.71 HZ2 40.92 HZ3 37.17 HH2 34.39
A TRP H 39 -72.6 -40.3 N 20.88 CA 24.49 C 27.48 O 21.63 CB 19.83 CG 32.24 CD1 33.05 CD2 21.41 NE1 28.12 CE2 29.97 CE3 21.69 CZ2 29.1 CZ3 22.76 CH2 27.28 H 25.06 HA 29.39 HB2 23.79 HB3 23.79 HD1 39.66 HE1 33.75 HE3 26.03 HZ2 34.92 HZ3 27.31 HH2 32.73
A LEU H 2 -54.7 -38.6 N 23.73 CA 28.05 C 24.74 O 22.5 CB 26.06 CG 32.22 CD1 33.49 CD2 23.67 H 28.48 HA 33.66 HB2 31.27 HB3 31.27 HG 38.67 HD11 40.19 HD12 40.19 HD13 40.19 HD21 28.41 HD22 28.41 HD23 28.41
A LEU H 28 -67.3 -40.1 N 21.58 CA 21.12 C 20.11 O 19.46 CB 24.95 CG 30.53 CD1 28.46 CD2 34.56 H 25.9 HA 25.35 HB2 29.95 HB3 29.95 HG 36.64 HD11 34.15 HD12 34.15 HD13 34.15 HD21 41.47 HD22 41.47 HD23 41.47
A GLN H 16 -59.1 -49.8 N 21.0 CA 20.34 C 11.89 O 18.27 CB 25.83 CG 24.44 CD 22.4 OE1 28.11 NE2 28.83 H 25.19 HA 24.41 HB2 31.0 HB3 31.0 HG2 29.33 HG3 29.33 HE21 34.6 HE22 34.6
A LEU H 0 -61.7 -45.5 N 17.1 CA 21.58 C 25.35 O 17.24 CB 20.91 CG 24.23 CD1 27.51 CD2 28.74 H 20.52 HA 25.9 HB2 25.09 HB3 25.09 HG 29.07 HD11 33.02 HD12 33.02 HD13 33.02 HD21 34.49 HD22 34.49 HD23 34.49
A ALA H 0 -63.2 -31.0 N 19.66 CA 18.45 C 16.41 O 18.87 CB 22.89 H 23.59 HA 22.14 HB1 27.47 HB2 27.47 HB3 27.47
A GLN H 51 -72.7 -40.4 N 17.8 CA 17.53 C 18.76 O 18.12 CB 26.47 CG 29.6 CD 36.13 OE1 36.32 NE2 37.62 H 21.36 HA 21.03 HB2 31.76 HB3 31.76 HG2 35.53 HG3 35.53 HE21 45.14 HE22 45.14
A GLU H 4 -63.9 -42.0 N 18.73 CA 18.36 C 14.48 O 17.61 CB 19.73 CG 22.72 CD 29.81 OE1 23.27 OE2 22.09 H 22.48 HA 22.03 HB2 23.68 HB3 23.68 HG2 27.26 HG3 27.26
A LEU H 0 -61.4 -45.7 N 15.57 CA 15.51 C 20.05 O 17.27 CB 17.02 CG 23.05 CD1 23.42 CD2 24.83 H 18.69 HA 18.61 HB2 20.42 HB3 20.42 HG 27.66 HD11 28.11 HD12 28.11 HD13 28.11 HD21 29.8 HD22 29.8 HD23 29.8
A GLU H 62 -56.6 -43.4 N 20.14 CA 18.31 C 15.9 O 19.94 CB 19.67 CG 29.93 CD 43.54 OE1 47.89 OE2 47.95 H 24.16 HA 21.98 HB2 23.61 HB3 23.61 HG2 35.91 HG3 35.91
A GLU H 92 -64.3 -44.4 N 19.25 CA 16.93 C 16.75 O 18.61 CB 27.44 CG 43.9 CD 59.24 OE1 46.33 OE2 72.53 H 23.1 HA 20.32 HB2 32.93 HB3 32.93 HG2 52.67 HG3 52.67
A ARG H 32 -69.1 -37.2 N 16.32 CA 15.62 C 16.27 O 17.75 CB 13.97 CG 18.06 CD 21.32 NE 17.53 CZ 17.87 NH1 19.99 NH2 17.99 H 19.58 HA 18.74 HB2 16.76 HB3 16.76 HG2 21.67 HG3 21.67 HD2 25.59 HD3 25.59 HE 21.04 HH11 23.99 HH12 23.99 HH21 21.59 HH22 21.59
A LEU H 0 -67.3 -42.9 N 16.77 CA 16.57 C 16.83 O 18.35 CB 14.66 CG 14.7 CD1 16.81 CD2 21.6 H 20.12 HA 19.89 HB2 17.59 HB3 17.59 HG 17.64 HD11 20.17 HD12 20.17 HD13 20.17 HD21 25.91 HD22 25.91 HD23 25.91
A THR H 39 -62.1 -42.8 N 21.5 CA 21.11 C 23.09 O 20.06 CB 23.54 OG1 24.14 CG2 28.04 H 25.81 HA 25.33 HB 28.25 HG1 28.96 HG21 33.65 HG22 33.65 HG23 33.65
A LYS H 96 -61.7 -42.9 N 20.43 CA 19.42 C 17.12 O 16.26 CB 24.44 CG 30.37 CD 35.47 CE 43.8 NZ 47.45 H 24.51 HA 23.31 HB2 29.33 HB3 29.33 HG2 36.45 HG3 36.45 HD2 42.56 HD3 42.56 HE2 52.55 HE3 52.55 HZ1 56.94 HZ2 56.94 HZ3 56.94
A ASP H 12 -60.3 -42.3 N 15.32 CA 14.89 C 20.64 O 20.75 CB 18.41 CG 22.75 OD1 19.82 OD2 19.44 H 18.38 HA 17.86 HB2 22.1 HB3 22.1
A ARG H 92 -62.8 -41.5 N 16.92 CA 20.58 C 20.68 O 20.59 CB 25.86 CG 28.35 CD 36.2 NE 37.4 CZ 42.27 NH1 39.36 NH2 37.08 H 20.3 HA 24.7 HB2 31.03 HB3 31.03 HG2 34.02 HG3 34.02 HD2 43.44 HD3 43.44 HE 44.88 HH11 47.24 HH12 47.24 HH21 44.5 HH22 44.5
A ASN H 114 -67.0 -43.7 N 18.81 CA 19.58 C 26.81 O 25.79 CB 26.99 CG 26.92 OD1 26.0 ND2 32.19 H 22.57 HA 23.49 HB2 32.39 HB3 32.39 HD21 38.63 HD22 38.63
A ASP H 84 -76.8 -36.1 N 18.87 CA 21.25 C 18.21 O 19.8 CB 23.82 CG 33.34 OD1 37.48 OD2 40.14 H 22.65 HA 25.5 HB2 28.59 HB3 28.59
A ASN H 56 -123.1 5.7 N 20.98 CA 19.02 C 24.45 O 19.1 CB 19.13 CG 16.46 OD1 20.75 ND2 20.29 H 25.18 HA 22.83 HB2 22.96 HB3 22.96 HD21 24.35 HD22 24.35
A ASP S 109 53.7 53.7 N 19.4 CA 20.62 C 26.5 O 25.49 CB 28.3 CG 32.61 OD1 29.19 OD2 36.41 H 23.28 HA 24.75 HB2 33.96 HB3 33.96
A ARG E 30 -152.8 158.4 N 23.65 CA 21.36 C 14.04 O 21.86 CB 23.49 CG 21.16 CD 21.14 NE 21.98 CZ 20.12 NH1 19.1 NH2 17.71 H 28.38 HA 25.64 HB2 28.18 HB3 28.18 HG2 25.39 HG3 25.39 HD2 25.37 HD3 25.37 HE 26.38 HH11 22.92 HH12 22.92 HH21 21.25 HH22 21.25
A VAL E 40 -134.6 136.6 N 19.62 CA 24.84 C 26.98 O 22.87 CB 27.33 CG1 37.5 CG2 28.87 H 23.55 HA 29.81 HB 32.8 HG11 45.0 HG12 45.0 HG13 45.0 HG21 34.64 HG22 34.64 HG23 34.64
A ALA E 4 -77.2 145.7 N 21.28 CA 20.41 C 19.84 O 24.42 CB 18.39 H 25.54 HA 24.49 HB1 22.07 HB2 22.07 HB3 22.07
A THR E 61 -120.2 -6.5 N 20.79 CA 27.15 C 26.08 O 22.89 CB 23.07 OG1 24.56 CG2 23.71 H 24.95 HA 32.58 HB 27.68 HG1 29.47 HG21 28.45 HG22 28.45 HG23 28.45
A GLN E 37 -129.7 139.3 N 18.64 CA 24.32 C 22.01 O 20.05 CB 22.69 CG 28.14 CD 40.46 OE1 46.42 NE2 38.66 H 22.36 HA 29.19 HB2 27.22 HB3 27.22 HG2 33.76 HG3 33.76 HE21 46.4 HE22 46.4
A LEU E 1 -114.3 119.9 N 16.95 CA 21.94 C 23.54 O 27.1 CB 24.68 CG 25.58 CD1 22.29 CD2 28.49 H 20.34 HA 26.33 HB2 29.62 HB3 29.62 HG 30.7 HD11 26.75 HD12 26.75 HD13 26.75 HD21 34.18 HD22 34.18 HD23 34.18
A VAL E 4 -97.8 133.8 N 17.93 CA 18.46 C 22.55 O 20.05 CB 22.68 CG1 19.66 CG2 30.7 H 21.52 HA 22.15 HB 27.22 HG11 23.6 HG12 23.6 HG13 23.6 HG21 36.84 HG22 36.84 HG23 36.84
A VAL E 1 -123.7 123.3 N 21.27 CA 22.87 C 26.38 O 28.87 CB 24.57 CG1 30.12 CG2 25.44 H 25.52 HA 27.45 HB 29.49 HG11 36.15 HG12 36.15 HG13 36.15 HG21 30.52 HG22 30.52 HG23 30.52
A SER E 5 -131.2 144.8 N 21.53 CA 20.99 C 24.08 O 20.98 CB 24.57 OG 31.3 H 25.84 HA 25.19 HB2 29.48 HB3 29.48 HG 37.56
A ILE E 0 -134.3 162.2 N 25.46 CA 23.23 C 25.45 O 27.08 CB 28.34 CG1 34.31 CG2 23.51 CD1 40.23 H 30.56 HA 27.88 HB 34.01 HG12 41.17 HG13 41.17 HG21 28.21 HG22 28.21 HG23 28.21 HD11 48.27 HD12 48.27 HD13 48.27
A ARG E 70 -127.6 138.7 N 28.52 CA 33.39 C 35.08 O 29.52 CB 35.3 CG 39.68 CD 49.26 NE 60.83 CZ 65.48 NH1 55.41 NH2 60.13 H 34.22 HA 40.06 HB2 42.36 HB3 42.36 HG2 47.62 HG3 47.62 HD2 59.12 HD3 59.12 HE 73.0 HH11 66.5 HH12 66.5 HH21 72.16 HH22 72.16
A VAL E 19 -108.4 146.9 N 38.58 CA 41.64 C 34.98 O 34.02 CB 51.7 CG1 43.91 CG2 51.76 H 46.29 HA 49.97 HB 62.04 HG11 52.7 HG12 52.7 HG13 52.7 HG21 62.11 HG22 62.11 HG23 62.11
A GLN T 91 -58.4 120.7 N 40.62 CA 43.41 C 43.94 O 49.51 CB 46.96 CG 50.95 CD 65.23 OE1 64.19 NE2 63.61 H 48.74 HA 52.09 HB2 56.36 HB3 56.36 HG2 61.14 HG3 61.14 HE21 76.33 HE22 76.33
A GLY T 78 122.0 -35.9 N 44.9 CA 51.68 C 58.85 O 50.42 H 53.89 HA2 62.02 HA3 62.02
A ASP - 36 -68.3 125.1 N 50.83 CA 46.72 C 56.24 O 62.53 CB 56.42 CG 57.63 OD1 51.06 OD2 54.66 H 61.0 HA 56.07 HB2 67.7 HB3 67.7
A LYS S 91 -71.9 -24.7 N 60.48 CA 71.81 C 72.61 O 69.86 CB 72.43 H 72.57 HA 86.17
A ARG S 150 -73.1 152.1 N 61.79 CA 70.59 C 65.26 O 61.32 CB 64.34 CG 65.07 CD 55.84 NE 50.81 CZ 50.08 NH1 45.31 NH2 46.52 H 74.14 HA 84.71 HB2 77.21 HB3 77.21 HG2 78.08 HG3 78.08 HD2 67.01 HD3 67.01 HE 60.97 HH11 54.37 HH12 54.37 HH21 55.82 HH22 55.82
A LEU S 148 -68.0 -31.2 N 62.59 CA 61.65 C 56.09 O 54.88 CB 56.2 CG 64.53 CD1 75.96 CD2 55.76 H 75.11 HA 73.98 HB2 67.44 HB3 67.44 HG 77.44 HD11 91.15 HD12 91.15 HD13 91.15 HD21 66.91 HD22 66.91 HD23 66.91
A SER - 46 -124.3 137.3 N 57.52 CA 48.07 C 47.54 O 51.44 CB 51.85 OG 42.87 H 69.02 HA 57.68 HB2 62.22 HB3 62.22 HG 51.45
A SER S 26 -97.8 -32.5 N 40.64 CA 45.08 C 52.18 O 54.5 CB 46.21 OG 40.59 H 48.76 HA 54.09 HB2 55.45 HB3 55.45 HG 48.7
A LEU E 14 -154.5 136.0 N 48.3 CA 42.88 C 40.88 O 30.52 CB 40.49 CG 45.44 CD1 48.22 CD2 53.85 H 57.96 HA 51.45 HB2 48.59 HB3 48.59 HG 54.53 HD11 57.86 HD12 57.86 HD13 57.86 HD21 64.63 HD22 64.63 HD23 64.63
A ARG E 142 -132.6 127.8 N 32.21 CA 29.3 C 36.0 O 35.6 CB 34.05 CG 41.87 CD 45.57 NE 52.22 CZ 43.87 NH1 50.17 NH2 50.6 H 38.66 HA 35.16 HB2 40.87 HB3 40.87 HG2 50.24 HG3 50.24 HD2 54.69 HD3 54.69 HE 62.66 HH11 60.21 HH12 60.21 HH21 60.72 HH22 60.72
A ARG E 139 -140.0 142.4 N 24.24 CA 30.35 C 31.46 O 29.05 CB 29.4 CG 31.78 CD 30.01 NE 30.18 CZ 37.26 NH1 39.11 NH2 44.31 H 29.09 HA 36.41 HB2 35.28 HB3 35.28 HG2 38.14 HG3 38.14 HD2 36.02 HD3 36.02 HE 36.22 HH11 46.93 HH12 46.93 HH21 53.18 HH22 53.18
A CYS E 66 -113.1 152.7 N 31.2 CA 30.81 C 37.92 O 31.18 CB 36.43 SG 45.43 H 37.44 HA 36.97 HB2 43.71 HB3 43.71 HG 54.51
A CYS E 28 -147.0 166.9 N 37.95 CA 34.71 C 34.83 O 37.02 CB 37.59 SG 37.45 H 45.54 HA 41.65 HB2 45.11 HB3 45.11 HG 44.94
A ALA E 65 -69.2 140.6 N 32.69 CA 32.08 C 27.4 O 32.81 CB 31.33 H 39.23 HA 38.49 HB1 37.6 HB2 37.6 HB3 37.6
A LEU - 9 -111.2 94.5 N 27.15 CA 24.64 C 30.37 O 30.8 CB 28.2 CG 26.87 CD1 22.0 CD2 32.83 H 32.58 HA 29.57 HB2 33.84 HB3 33.84 HG 32.24 HD11 26.4 HD12 26.4 HD13 26.4 HD21 39.4 HD22 39.4 HD23 39.4
A THR - 108 -103.9 -17.7 N 30.62 CA 34.1 C 32.87 O 31.42 CB 42.19 OG1 38.75 CG2 29.92 H 36.74 HA 40.92 HB 50.63 HG1 46.5 HG21 35.9 HG22 35.9 HG23 35.9
A ARG S 40 -145.4 138.3 N 29.65 CA 28.14 C 23.45 O 28.66 CB 35.53 H 35.59 HA 33.76
A TYR - 28 -81.9 75.5 N 25.46 CA 23.15 C 28.4 O 25.91 CB 30.67 CG 18.68 CD1 26.47 CD2 19.89 CE1 24.81 CE2 19.81 CZ 24.3 OH 21.86 H 30.55 HA 27.78 HB2 36.81 HB3 36.81 HD1 31.77 HD2 23.87 HE1 29.77 HE2 23.77 HH 26.23
A ASP - 73 -136.2 119.1 N 28.21 CA 31.41 C 19.25 O 23.39 CB 29.73 CG 36.37 OD1 36.6 OD2 52.66 H 33.85 HA 37.69 HB2 35.68 HB3 35.68
A ALA H 2 -64.0 -39.2 N 22.29 CA 22.46 C 20.97 O 24.72 CB 26.21 H 26.75 HA 26.95 HB1 31.45 HB2 31.45 HB3 31.45
A HIS H 120 -67.2 -33.2 N 26.89 CA 32.59 C 24.98 O 30.14 CB 35.31 CG 38.22 ND1 44.83 CD2 45.23 CE1 37.46 NE2 49.7 H 32.27 HA 39.11 HB2 42.37 HB3 42.37 HD2 54.27 HE1 44.95 HE2 59.64
A LYS H 80 -73.1 -43.6 N 28.03 CA 25.78 C 25.43 O 30.43 CB 31.67 CG 35.4 CD 36.84 CE 43.65 NZ 46.65 H 33.63 HA 30.94 HB2 38.0 HB3 38.0 HG2 42.48 HG3 42.48 HD2 44.21 HD3 44.21 HE2 52.38 HE3 52.38 HZ1 55.97 HZ2 55.97 HZ3 55.97
A MET H 3 -61.7 -41.5 N 23.95 CA 24.18 C 21.49 O 24.22 CB 22.69 CG 30.1 SD 33.72 CE 25.02 H 28.74 HA 29.02 HB2 27.23 HB3 27.23 HG2 36.12 HG3 36.12 HE1 30.02 HE2 30.02 HE3 30.02
A SER H 14 -66.2 -37.7 N 27.38 CA 25.32 C 24.0 O 27.93 CB 28.98 OG 34.89 H 32.85 HA 30.38 HB2 34.78 HB3 34.78 HG 41.87
A HIS H 120 -68.0 -44.8 N 31.8 CA 34.44 C 31.7 O 31.18 CB 40.3 CG 54.39 ND1 56.2 CD2 50.0 CE1 52.62 NE2 47.92 H 38.16 HA 41.33 HB2 48.36 HB3 48.36 HD2 60.0 HE1 63.14 HE2 57.5
A ASP H 31 -59.8 -41.7 N 33.04 CA 25.46 C 30.07 O 28.27 CB 31.61 CG 43.61 OD1 40.24 OD2 35.69 H 39.65 HA 30.55 HB2 37.93 HB3 37.93
A ALA H 0 -61.1 -45.2 N 30.02 CA 27.41 C 25.17 O 29.38 CB 29.23 H 36.03 HA 32.9 HB1 35.07 HB2 35.07 HB3 35.07
A PHE H 38 -59.1 -45.2 N 31.43 CA 32.36 C 37.29 O 36.77 CB 41.26 CG 51.88 CD1 47.6 CD2 51.01 CE1 52.58 CE2 54.24 CZ 53.58 H 37.71 HA 38.83 HB2 49.51 HB3 49.51 HD1 57.13 HD2 61.22 HE1 63.1 HE2 65.09 HZ 64.29
A THR H 53 -56.1 -41.1 N 38.05 CA 38.04 C 35.01 O 37.06 CB 33.3 OG1 40.54 CG2 41.45 H 45.66 HA 45.64 HB 39.97 HG1 48.64 HG21 49.74 HG22 49.74 HG23 49.74
A VAL H 42 -81.3 -16.4 N 33.71 CA 28.46 C 32.11 O 34.13 CB 44.4 CG1 46.7 CG2 38.41 H 40.45 HA 34.15 HB 53.28 HG11 56.04 HG12 56.04 HG13 56.04 HG21 46.09 HG22 46.09 HG23 46.09
A ILE H 0 -106.2 -17.3 N 36.95 CA 39.58 C 36.58 O 41.8 CB 40.71 CG1 31.93 CG2 40.53 CD1 46.1 H 44.34 HA 47.49 HB 48.86 HG12 38.31 HG13 38.31 HG21 48.63 HG22 48.63 HG23 48.63 HD11 55.33 HD12 55.33 HD13 55.33
A LYS G 105 -54.4 -25.2 N 38.71 CA 45.48 C 50.44 O 65.4 CB 46.47 CG 46.41 CD 47.16 CE 50.45 NZ 61.75 H 46.46 HA 54.58 HB2 55.77 HB3 55.77 HG2 55.7 HG3 55.7 HD2 56.59 HD3 56.59 HE2 60.54 HE3 60.54 HZ1 74.1 HZ2 74.1 HZ3 74.1
A ASN G 89 -72.6 -13.9 N 51.28 CA 55.08 C 56.72 O 56.42 CB 51.57 H 61.54 HA 66.09
A MET G 55 -74.8 -17.2 N 51.68 CA 53.21 C 49.73 O 54.78 CB 52.4 CG 40.74 SD 79.96 CE 43.03 H 62.01 HA 63.86 HB2 62.88 HB3 62.88 HG2 48.89 HG3 48.89 HE1 51.64 HE2 51.64 HE3 51.64
A ASN - 29 -72.2 95.7 N 49.91 CA 52.86 C 59.19 O 57.4 CB 46.05 CG 50.04 OD1 52.88 ND2 46.88 H 59.89 HA 63.43 HB2 55.26 HB3 55.26 HD21 56.25 HD22 56.25
A THR - 112 -85.4 19.8 N 54.14 CA 59.04 C 62.92 O 72.23 CB 59.29 OG1 56.21 CG2 61.23 H 64.97 HA 70.84 HB 71.15 HG1 67.45 HG21 73.47 HG22 73.47 HG23 73.47
A SER - 29 -81.7 152.9 N 62.49 CA 67.83 C 75.6 O 71.51 CB 67.66 OG 67.15 H 74.99 HA 81.4 HB2 81.19 HB3 81.19 HG 80.58
A GLY S 84 -58.3 -50.3 N 79.83 CA 82.27 C 81.1 O 87.07 H 95.8 HA2 98.73 HA3 98.73
A ILE S 99 -89.4 153.5 N 73.05 CA 80.31 C 84.49 O 74.18 CB 75.3 CG1 78.25 CG2 78.58 CD1 69.67 H 87.66 HA 96.37 HB 90.36 HG12 93.9 HG13 93.9 HG21 94.29 HG22 94.29 HG23 94.29 HD11 83.6 HD12 83.6 HD13 83.6
A GLN S 85 -75.9 -17.4 N 89.04 CA 84.99 C 91.45 O 88.92 CB 74.02 H 106.85 HA 101.99
A THR S 91 -85.0 -27.9 N 90.17 CA 78.93 C 76.34 O 63.68 CB 73.14 OG1 72.85 CG2 73.57 H 108.2 HA 94.71 HB 87.76 HG1 87.42 HG21 88.28 HG22 88.28 HG23 88.28
A GLU E 78 -91.6 160.3 N 76.77 CA 66.12 C 65.67 O 67.77 CB 63.44 CG 68.61 CD 63.2 OE1 60.93 OE2 68.81 H 92.12 HA 79.35 HB2 76.13 HB3 76.13 HG2 82.33 HG3 82.33
A TRP E 6 -126.4 117.5 N 49.19 CA 48.13 C 50.3 O 48.51 CB 46.52 CG 33.3 CD1 37.38 CD2 34.53 NE1 44.69 CE2 38.1 CE3 41.13 CZ2 40.49 CZ3 41.62 CH2 41.79 H 59.03 HA 57.76 HB2 55.83 HB3 55.83 HD1 44.86 HE1 53.63 HE3 49.36 HZ2 48.59 HZ3 49.95 HH2 50.14
A SER E 42 -142.2 146.3 N 49.07 CA 45.31 C 54.52 O 52.21 CB 53.26 OG 61.07 H 58.89 HA 54.37 HB2 63.91 HB3 63.91 HG 73.29
A PRO E 46 -69.9 139.2 N 52.67 CA 51.61 C 46.87 O 48.79 CB 57.2 CG 54.25 CD 51.56 HA 61.93 HB2 68.64 HB3 68.64 HG2 65.1 HG3 65.1 HD2 61.87 HD3 61.87
A PRO E 30 -47.3 155.5 N 53.2 CA 55.17 C 31.82 O 29.24 CB 51.33 CG 51.7 CD 51.92 HA 66.2 HB2 61.6 HB3 61.6 HG2 62.04 HG3 62.04 HD2 62.31 HD3 62.31
A LEU E 0 -98.8 128.9 N 35.01 CA 30.19 C 23.67 O 32.37 CB 32.48 CG 36.72 CD1 34.75 CD2 32.6 H 42.02 HA 36.22 HB2 38.98 HB3 38.98 HG 44.07 HD11 41.7 HD12 41.7 HD13 41.7 HD21 39.12 HD22 39.12 HD23 39.12
A THR E 16 -105.4 5.9 N 29.64 CA 33.89 C 29.77 O 26.3 CB 32.56 OG1 38.17 CG2 35.88 H 35.57 HA 40.67 HB 39.07 HG1 45.81 HG21 43.06 HG22 43.06 HG23 43.06
A MET E 16 -167.3 137.3 N 25.99 CA 24.6 C 28.93 O 22.54 CB 25.0 CG 23.99 SD 19.38 CE 29.43 H 31.19 HA 29.52 HB2 30.0 HB3 30.0 HG2 28.79 HG3 28.79 HE1 35.31 HE2 35.31 HE3 35.31
A LEU E 0 -122.9 141.7 N 19.29 CA 18.54 C 23.95 O 19.9 CB 21.51 CG 27.11 CD1 27.45 CD2 26.3 H 23.14 HA 22.25 HB2 25.81 HB3 25.81 HG 32.53 HD11 32.94 HD12 32.94 HD13 32.94 HD21 31.56 HD22 31.56 HD23 31.56
A PHE E 66 -149.3 123.1 N 19.47 CA 17.86 C 21.45 O 23.84 CB 19.58 CG 21.6 CD1 24.08 CD2 30.8 CE1 23.27 CE2 30.34 CZ 28.01 H 23.37 HA 21.59 HB2 23.49 HB3 23.49 HD1 28.9 HD2 36.96 HE1 27.92 HE2 36.41 HZ 33.61
A LEU E 0 -119.0 134.2 N 13.51 CA 16.07 C 20.08 O 19.72 CB 17.28 CG 21.66 CD1 23.59 CD2 20.12 H 16.21 HA 19.28 HB2 20.74 HB3 20.74 HG 25.99 HD11 28.31 HD12 28.31 HD13 28.31 HD21 24.14 HD22 24.14 HD23 24.14
A CYS E 10 -140.6 124.1 N 19.15 CA 14.13 C 18.4 O 19.62 CB 18.64 SG 24.76 H 22.98 HA 16.95 HB2 22.37 HB3 22.37 HG 29.72
A ALA E 0 -89.5 131.5 N 16.77 CA 16.7 C 19.27 O 18.27 CB 17.17 H 20.12 HA 20.03 HB1 20.6 HB2 20.6 HB3 20.6
A THR E 16 -142.9 176.2 N 21.62 CA 22.92 C 23.86 O 18.98 CB 28.83 OG1 35.02 CG2 38.13 H 25.94 HA 27.51 HB 34.6 HG1 42.03 HG21 45.76 HG22 45.76 HG23 45.76
A LYS E 127 60.1 66.6 N 20.39 CA 29.7 C 20.23 O 25.87 CB 22.88 CG 40.31 CD 52.89 CE 46.31 NZ 49.39 H 24.47 HA 35.64 HB2 27.46 HB3 27.46 HG2 48.37 HG3 48.37 HD2 63.47 HD3 63.47 HE2 55.58 HE3 55.58 HZ1 59.27 HZ2 59.27 HZ3 59.27
A PHE E 44 -77.9 144.8 N 20.72 CA 21.95 C 33.35 O 25.53 CB 20.76 CG 21.49 CD1 17.17 CD2 26.21 CE1 19.41 CE2 26.52 CZ 21.57 H 24.87 HA 26.34 HB2 24.91 HB3 24.91 HD1 20.6 HD2 31.45 HE1 23.3 HE2 31.82 HZ 25.88
A SER E 60 -129.7 149.6 N 29.6 CA 37.04 C 30.62 O 22.57 CB 34.97 OG 47.52 H 35.52 HA 44.45 HB2 41.96 HB3 41.96 HG 57.02
A ALA E 97 -59.9 146.4 N 31.55 CA 35.55 C 39.29 O 43.98 CB 45.81 H 37.87 HA 42.66 HB1 54.97 HB2 54.97 HB3 54.97
A SER - 86 -138.5 360.0 N 38.14 CA 44.97 C 47.86 O 45.74 CB 37.5 OG 53.19 H 45.76 HA 53.97 HB2 45.0 HB3 45.0 HG 63.83
