A GLU - 179 360.0 -95.9 N 73.81 CA 80.95 C 74.05 O 76.67 CB 83.55 CG 85.89 CD 90.05 OE1 88.65 OE2 95.5 HA 97.13
A GLU - 153 -103.6 142.2 N 55.04 CA 48.13 C 35.11 O 39.28 CB 49.23 CG 74.59 CD 91.46 OE1 96.51 OE2 94.83 H 66.05 HA 57.75
A ILE - 31 -67.4 138.1 N 34.14 CA 25.63 C 27.38 O 30.46 CB 25.92 CG1 31.26 CG2 23.67 CD1 31.84 H 40.96 HA 30.76 HB 31.11 HG12 37.51 HG13 37.51 HG21 28.4 HG22 28.4 HG23 28.4 HD11 38.2 HD12 38.2 HD13 38.2
A ILE - 78 -92.9 99.9 N 24.38 CA 24.65 C 21.83 O 22.48 CB 25.63 CG1 34.68 CG2 27.24 CD1 44.97 H 29.26 HA 29.58 HB 30.76 HG12 41.62 HG13 41.62 HG21 32.69 HG22 32.69 HG23 32.69 HD11 53.96 HD12 53.96 HD13 53.96
A TRP S 113 -69.6 -28.2 N 25.8 CA 22.79 C 24.98 O 26.15 CB 25.51 CG 28.27 CD1 30.28 CD2 28.57 NE1 31.16 CE2 26.96 CE3 32.41 CZ2 32.14 CZ3 30.73 CH2 29.52 H 30.95 HA 27.35 HB2 30.61 HB3 30.61 HD1 36.33 HE1 37.39 HE3 38.89 HZ2 38.56 HZ3 36.87 HH2 35.43
A GLU S 131 -82.6 80.0 N 26.48 CA 23.55 C 20.39 O 23.93 CB 27.28 CG 32.57 CD 51.43 OE1 41.04 OE2 54.98 H 31.77 HA 28.27 HB2 32.74 HB3 32.74 HG2 39.08 HG3 39.08
A SER S 0 -157.9 168.8 N 19.76 CA 18.01 C 17.48 O 18.59 CB 20.89 OG 22.16 H 23.71 HA 21.62 HB2 25.06 HB3 25.06 HG 26.59
A LEU E 2 -109.4 130.6 N 17.56 CA 15.57 C 17.79 O 23.19 CB 17.87 CG 23.73 CD1 28.22 CD2 24.22 H 21.07 HA 18.69 HB2 21.44 HB3 21.44 HG 28.48 HD11 33.86 HD12 33.86 HD13 33.86 HD21 29.06 HD22 29.06 HD23 29.06
A SER E 0 -111.2 138.1 N 15.56 CA 15.02 C 14.64 O 16.02 CB 15.1 OG 18.05 H 18.67 HA 18.02 HB2 18.12 HB3 18.12 HG 21.67
A VAL E 0 -126.1 155.5 N 17.2 CA 16.03 C 14.84 O 17.12 CB 14.68 CG1 16.73 CG2 17.35 H 20.64 HA 19.23 HB 17.61 HG11 20.08 HG12 20.08 HG13 20.08 HG21 20.82 HG22 20.82 HG23 20.82
A ASP E 4 -160.5 152.6 N 16.16 CA 14.11 C 16.38 O 15.54 CB 17.25 CG 20.32 OD1 21.29 OD2 21.58 H 19.39 HA 16.93 HB2 20.7 HB3 20.7
A VAL E 16 -90.0 156.2 N 18.39 CA 18.56 C 20.59 O 21.3 CB 17.45 CG1 19.93 CG2 20.28 H 22.07 HA 22.28 HB 20.94 HG11 23.91 HG12 23.91 HG13 23.91 HG21 24.34 HG22 24.34 HG23 24.34
A GLY E 5 -137.5 148.8 N 18.79 CA 21.37 C 22.37 O 22.68 H 22.55 HA2 25.64 HA3 25.64
A SER E 39 -143.9 161.4 N 21.58 CA 23.63 C 24.71 O 27.07 CB 25.28 OG 26.32 H 25.9 HA 28.35 HB2 30.34 HB3 30.34 HG 31.58
A GLN E 147 -121.6 95.9 N 24.27 CA 25.53 C 25.66 O 28.5 CB 30.89 CG 34.24 CD 43.06 OE1 47.94 NE2 46.56 HA 30.63 HB2 37.07 HB3 37.07 HG2 41.09 HG3 41.09 HE21 55.87 HE22 55.87
A GLY E 44 85.0 154.4 N 29.3 CA 26.87 C 22.08 O 21.98 H 35.16 HA2 32.24 HA3 32.24
A ASN T 90 -144.1 101.2 N 24.71 CA 20.46 C 21.42 O 25.89 CB 20.22 CG 20.48 OD1 21.11 ND2 20.82 H 29.65 HA 24.55 HB2 24.26 HB3 24.26 HD21 24.98 HD22 24.98
A PRO T 80 -65.9 151.2 N 20.84 CA 18.95 C 20.68 O 26.26 CB 26.01 CG 25.73 CD 24.44 HA 22.74 HB2 31.22 HB3 31.22 HG2 30.87 HG3 30.87 HD2 29.33 HD3 29.33
A GLY E 11 -178.0 -156.6 N 21.88 CA 23.78 C 19.19 O 19.6 H 26.26 HA2 28.54 HA3 28.54
A ILE E 65 -71.2 127.8 N 20.98 CA 20.95 C 21.31 O 24.36 CB 21.39 CG1 28.03 CG2 27.88 CD1 30.59 H 25.17 HA 25.14 HB 25.67 HG12 33.63 HG13 33.63 HG21 33.45 HG22 33.45 HG23 33.45 HD11 36.71 HD12 36.71 HD13 36.71
A VAL E 0 -119.2 137.0 N 19.53 CA 18.76 C 19.64 O 19.87 CB 23.68 CG1 30.21 CG2 29.46 H 23.43 HA 22.51 HB 28.41 HG11 36.25 HG12 36.25 HG13 36.25 HG21 35.35 HG22 35.35 HG23 35.35
A GLU E 31 -140.3 172.1 N 17.9 CA 18.95 C 18.46 O 18.69 CB 22.9 CG 23.5 CD 44.62 OE1 52.35 OE2 43.01 H 21.48 HA 22.74 HB2 27.47 HB3 27.47 HG2 28.2 HG3 28.2
A TYR E 18 -154.8 162.5 N 16.33 CA 15.73 C 19.19 O 17.35 CB 17.2 CG 16.9 CD1 17.53 CD2 18.31 CE1 18.68 CE2 16.8 CZ 19.44 OH 19.81 H 19.59 HA 18.88 HB2 20.64 HB3 20.64 HD1 21.04 HD2 21.98 HE1 22.41 HE2 20.16 HH 23.77
A LYS E 26 -149.8 160.1 N 16.12 CA 15.71 C 16.08 O 17.35 CB 22.54 CG 23.58 CD 29.16 CE 41.28 NZ 38.98 H 19.34 HA 18.85 HB2 27.04 HB3 27.04 HG2 28.3 HG3 28.3 HD2 34.99 HD3 34.99 HE2 49.54 HE3 49.54 HZ1 46.77 HZ2 46.77 HZ3 46.77
A GLY E 0 -126.6 141.6 N 18.29 CA 17.66 C 16.97 O 19.01 H 21.95 HA2 21.19 HA3 21.19
A VAL E 1 -135.4 152.5 N 17.46 CA 19.96 C 19.43 O 18.38 CB 23.23 CG1 24.27 CG2 24.63 H 20.95 HA 23.95 HB 27.88 HG11 29.12 HG12 29.12 HG13 29.12 HG21 29.55 HG22 29.55 HG23 29.55
A ASP E 21 -65.7 119.5 N 19.74 CA 21.74 C 23.19 O 25.23 CB 23.73 CG 36.79 OD1 40.88 OD2 51.12 H 23.69 HA 26.09 HB2 28.48 HB3 28.48
A THR T 0 -60.1 -34.9 N 20.63 CA 21.07 C 27.92 O 34.3 CB 22.15 OG1 20.93 CG2 22.84 H 24.75 HA 25.28 HB 26.58 HG1 25.11 HG21 27.41 HG22 27.41 HG23 27.41
A LYS T 113 -71.9 -41.7 N 24.38 CA 33.59 C 39.42 O 43.19 CB 30.24 CG 51.56 CD 63.49 CE 69.09 NZ 70.73
A THR T 87 -113.9 -16.7 N 36.39 CA 38.22 C 46.59 O 47.74 CB 40.41 OG1 36.85 CG2 46.64 H 43.67 HA 45.87 HB 48.5 HG1 44.22 HG21 55.96 HG22 55.96 HG23 55.96
A GLY - 29 80.3 0.2 N 30.91 CA 36.47 C 34.74 O 36.15 H 37.09 HA2 43.76 HA3 43.76
A GLU - 117 -58.9 130.5 N 31.74 CA 29.93 C 27.61 O 23.0 CB 30.56 CG 48.3 CD 70.21 OE1 79.61 OE2 70.74 H 38.09 HA 35.92 HB2 36.67 HB3 36.67 HG2 57.96 HG3 57.96
A VAL E 67 -76.5 122.4 N 28.99 CA 24.38 C 22.03 O 27.26 CB 29.2 CG1 25.85 CG2 28.35 H 34.79 HA 29.26 HB 35.04 HG11 31.02 HG12 31.02 HG13 31.02 HG21 34.02 HG22 34.02 HG23 34.02
A LEU E 43 -100.9 -29.7 N 21.3 CA 21.4 C 22.11 O 23.75 CB 20.63 CG 24.44 CD1 23.28 CD2 26.14 H 25.56 HA 25.68 HB2 24.75 HB3 24.75 HG 29.32 HD11 27.93 HD12 27.93 HD13 27.93 HD21 31.37 HD22 31.37 HD23 31.37
A PHE E 19 -156.7 153.3 N 20.7 CA 19.28 C 20.02 O 19.63 CB 19.8 CG 16.71 CD1 19.9 CD2 16.78 CE1 17.03 CE2 16.96 CZ 18.52 H 24.84 HA 23.14 HB2 23.76 HB3 23.76 HD1 23.88 HD2 20.14 HE1 20.44 HE2 20.36 HZ 22.22
A GLU E 127 -144.8 132.4 N 19.82 CA 19.93 C 23.91 O 25.13 CB 32.92 CG 44.72 CD 67.56 OE1 76.58 OE2 62.49 H 23.79 HA 23.91 HB2 39.5 HB3 39.5 HG2 53.67 HG3 53.67
A ARG E 71 -91.9 133.7 N 19.18 CA 18.32 C 21.46 O 22.21 CB 16.32 CG 18.4 CD 23.95 NE 23.39 CZ 27.26 NH1 29.14 NH2 36.86 H 23.02 HA 21.99 HB2 19.59 HB3 19.59 HG2 22.09 HG3 22.09 HD2 28.74 HD3 28.74 HE 28.07 HH11 34.96 HH12 34.96 HH21 44.23 HH22 44.23
A GLU E 144 -58.2 140.5 N 20.21 CA 21.78 C 20.44 O 19.98 CB 23.04 CG 27.38 CD 28.49 OE1 32.46 OE2 43.35 H 24.25 HA 26.13 HB2 27.65 HB3 27.65 HG2 32.86 HG3 32.86
A PRO E 64 -56.7 142.4 N 20.26 CA 20.01 C 20.89 O 25.49 CB 23.99 CG 30.58 CD 25.3 HA 24.02 HB2 28.79 HB3 28.79 HG2 36.7 HG3 36.7 HD2 30.36 HD3 30.36
A ILE E 0 -108.4 126.2 N 20.89 CA 23.9 C 21.33 O 24.21 CB 22.33 CG1 22.71 CG2 27.82 CD1 24.7 H 25.07 HA 28.68 HB 26.79 HG12 27.25 HG13 27.25 HG21 33.39 HG22 33.39 HG23 33.39 HD11 29.64 HD12 29.64 HD13 29.64
A PRO E 83 -58.4 -39.3 N 25.01 CA 28.06 C 26.98 O 27.05 CB 27.92 CG 40.26 CD 30.38
A ILE E 35 -140.0 124.3 N 24.53 CA 23.82 C 23.96 O 26.25 CB 28.51 CG1 36.11 CG2 27.47 CD1 49.54
A GLY E 0 -162.7 -179.7 N 20.14 CA 20.95 C 19.64 O 21.54 H 24.17 HA2 25.14 HA3 25.14
A THR - 14 -107.9 161.0 N 17.43 CA 18.31 C 16.07 O 16.4 CB 18.58 OG1 18.43 CG2 18.21 H 20.92 HA 21.98 HB 22.3 HG1 22.12 HG21 21.86 HG22 21.86 HG23 21.86
A ASN H 58 -51.8 -44.5 N 16.34 CA 16.79 C 15.13 O 17.66 CB 16.66 CG 18.82 OD1 19.13 ND2 21.94 H 19.61 HA 20.15 HB2 19.99 HB3 19.99 HD21 26.33 HD22 26.33
A ASN H 41 -74.5 -36.8 N 15.2 CA 15.79 C 15.15 O 16.48 CB 16.97 CG 19.01 OD1 20.15 ND2 20.91 H 18.24 HA 18.94 HB2 20.37 HB3 20.37 HD21 25.09 HD22 25.09
A MET H 0 -59.5 -43.8 N 15.8 CA 15.93 C 16.91 O 16.21 CB 17.53 CG 19.26 SD 22.8 CE 20.26 H 18.97 HA 18.83 HB2 21.04 HB3 21.04 HG2 23.12 HG3 23.12 HE1 24.31 HE2 24.31 HE3 24.31
A GLY H 0 -64.6 -39.4 N 16.71 CA 17.48 C 16.84 O 16.7 H 20.05 HA2 20.97 HA3 20.97
A GLU H 14 -64.8 -39.6 N 14.59 CA 15.14 C 17.11 O 17.1 CB 18.99 CG 21.08 CD 22.85 OE1 24.44 OE2 22.87 H 17.51 HA 18.17 HB2 22.78 HB3 22.78 HG2 25.3 HG3 25.3
A PHE H 0 -62.4 -49.3 N 14.32 CA 14.64 C 15.2 O 16.8 CB 16.16 CG 17.26 CD1 18.35 CD2 17.34 CE1 18.78 CE2 17.07 CZ 20.31 H 17.18 HA 17.57 HB2 19.39 HB3 19.39 HD1 22.02 HD2 20.81 HE1 22.53 HE2 20.49 HZ 24.38
A LEU H 11 -60.4 -37.0 N 15.32 CA 15.36 C 14.44 O 14.68 CB 15.95 CG 15.65 CD1 17.57 CD2 15.09 H 18.39 HA 18.43 HB2 19.14 HB3 19.14 HG 18.78 HD11 21.08 HD12 21.08 HD13 21.08 HD21 18.11 HD22 18.11 HD23 18.11
A ALA H 0 -63.1 -44.6 N 13.98 CA 13.9 C 14.45 O 14.91 CB 14.3 H 16.78 HA 16.68 HB1 17.16 HB2 17.16 HB3 17.16
A ILE H 0 -64.3 -48.2 N 13.74 CA 13.22 C 14.32 O 14.6 CB 13.87 CG1 15.4 CG2 15.26 CD1 17.19 H 16.48 HA 15.86 HB 16.65 HG12 18.48 HG13 18.48 HG21 18.31 HG22 18.31 HG23 18.31 HD11 20.63 HD12 20.63 HD13 20.63
A VAL H 3 -60.8 -42.2 N 15.09 CA 13.62 C 14.34 O 15.65 CB 14.87 CG1 17.7 CG2 15.71 H 18.1 HA 16.34 HB 17.84 HG11 21.24 HG12 21.24 HG13 21.24 HG21 18.86 HG22 18.86 HG23 18.86
A HIS H 67 -58.3 -43.8 N 13.93 CA 15.26 C 14.2 O 16.17 CB 16.3 CG 17.96 ND1 25.81 CD2 19.31 CE1 25.34 NE2 22.26 H 16.72 HA 18.32 HB2 19.56 HB3 19.56 HD2 23.17 HE1 30.41 HE2 26.71
A GLY H 0 -56.2 -41.7 N 13.91 CA 15.24 C 15.02 O 15.6 H 16.69 HA2 18.29 HA3 18.29
A LEU H 0 -62.3 -43.3 N 14.05 CA 15.41 C 15.33 O 16.42 CB 16.17 CG 16.25 CD1 17.93 CD2 17.58 H 16.86 HA 18.49 HB2 19.4 HB3 19.4 HG 19.49 HD11 21.52 HD12 21.52 HD13 21.52 HD21 21.09 HD22 21.09 HD23 21.09
A ARG H 108 -66.8 -40.0 N 16.28 CA 16.6 C 15.64 O 17.81 CB 16.62 CG 18.88 CD 20.05 NE 20.49 CZ 23.17 NH1 24.73 NH2 24.51 H 19.53 HA 19.92 HB2 19.94 HB3 19.94 HG2 22.66 HG3 22.66 HD2 24.06 HD3 24.06 HE 24.59 HH11 29.68 HH12 29.68 HH21 29.42 HH22 29.42
A TYR H 40 -62.5 -45.8 N 15.64 CA 17.1 C 17.2 O 17.62 CB 14.89 CG 15.07 CD1 18.97 CD2 18.96 CE1 20.69 CE2 21.26 CZ 20.1 OH 26.31 H 18.77 HA 20.52 HB2 17.87 HB3 17.87 HD1 22.76 HD2 22.75 HE1 24.83 HE2 25.51 HH 31.57
A LEU H 6 -70.8 -38.9 N 15.24 CA 16.51 C 17.68 O 18.76 CB 15.42 CG 14.28 CD1 17.7 CD2 18.49 H 18.28 HA 19.81 HB2 18.5 HB3 18.5 HG 17.14 HD11 21.24 HD12 21.24 HD13 21.24 HD21 22.19 HD22 22.19 HD23 22.19
A LYS H 86 -63.6 -42.1 N 17.59 CA 18.8 C 20.19 O 21.93 CB 19.19 CG 21.6 CD 25.76 CE 31.54 NZ 30.94 H 21.11 HA 22.56 HB2 23.03 HB3 23.03 HG2 25.93 HG3 25.93 HD2 30.91 HD3 30.91 HE2 37.85 HE3 37.85 HZ1 37.12 HZ2 37.12 HZ3 37.12
A GLU H 157 -62.3 -31.1 N 19.45 CA 22.62 C 22.31 O 24.83 CB 25.81 CG 34.9 CD 55.08 OE1 56.48 OE2 64.66
A ARG T 140 -94.6 7.8 N 20.42 CA 23.95 C 24.61 O 25.98 CB 24.73 CG 26.39 CD 24.32 NE 25.98 CZ 30.19 NH1 26.67 NH2 34.33 H 24.5 HA 28.74 HB2 29.68 HB3 29.68 HG2 31.67 HG3 31.67 HD2 29.18 HD3 29.18 HE 31.18 HH11 32.01 HH12 32.01 HH21 41.2 HH22 41.2
A ASN T 156 54.8 42.6 N 19.11 CA 21.94 C 21.7 O 26.59 CB 26.31 CG 33.56 OD1 38.08 ND2 41.8 H 22.93 HA 26.33 HB2 31.57 HB3 31.57 HD21 50.16 HD22 50.16
A SER - 31 -106.9 133.5 N 18.51 CA 17.57 C 18.91 O 19.07 CB 20.24 OG 21.87 H 22.22 HA 21.08 HB2 24.29 HB3 24.29 HG 26.24
A ARG - 194 -96.8 8.8 N 18.61 CA 16.86 C 18.2 O 19.23 CB 19.54 CG 20.65 CD 20.76 NE 21.41 CZ 25.01 NH1 24.68 NH2 24.08 H 22.33 HA 20.23 HB2 23.45 HB3 23.45 HG2 24.79 HG3 24.79 HD2 24.91 HD3 24.91 HE 25.69 HH11 29.61 HH12 29.61 HH21 28.89 HH22 28.89
A LYS - 60 -59.3 146.1 N 17.1 CA 18.77 C 18.07 O 18.22 CB 24.71 CG 25.46 CD 28.28 CE 40.4 NZ 42.84
A PRO - 16 -75.4 165.3 N 17.24 CA 17.6 C 17.09 O 16.27 CB 19.22 CG 21.9 CD 17.62 HA 21.11 HB2 23.06 HB3 23.06 HG2 26.28 HG3 26.28 HD2 21.14 HD3 21.14
A ILE E 0 -112.6 130.8 N 15.76 CA 15.26 C 16.2 O 18.84 CB 15.27 CG1 16.21 CG2 19.07 CD1 20.68 H 18.91 HA 18.31 HB 18.33 HG12 19.45 HG13 19.45 HG21 22.88 HG22 22.88 HG23 22.88 HD11 24.82 HD12 24.82 HD13 24.82
A TYR E 6 -97.4 137.6 N 15.69 CA 15.86 C 16.41 O 15.8 CB 15.44 CG 18.56 CD1 17.74 CD2 18.36 CE1 20.08 CE2 20.86 CZ 19.17 OH 26.35 H 18.82 HA 19.03 HB2 18.53 HB3 18.53 HD1 21.29 HD2 22.03 HE1 24.1 HE2 25.03 HH 31.62
A SER E 0 -138.4 147.4 N 15.93 CA 14.99 C 16.99 O 17.13 CB 16.89 OG 17.98 H 19.12 HA 17.99 HB2 20.26 HB3 20.26 HG 21.57
A ASP S 34 -91.3 2.7 N 17.82 CA 19.55 C 17.59 O 19.27 CB 20.61 CG 28.77 OD1 24.51 OD2 33.95 H 21.38 HA 23.45 HB2 24.73 HB3 24.73
A SER - 8 -101.0 105.0 N 16.45 CA 16.48 C 15.89 O 17.6 CB 18.63 OG 18.66 H 19.74 HA 19.77 HB2 22.35 HB3 22.35 HG 22.39
A GLN H 160 -53.9 -41.2 N 18.6 CA 20.21 C 20.14 O 20.97 CB 24.82 CG 30.88 CD 50.87 OE1 72.95 NE2 43.55 H 22.31 HA 24.26 HB2 29.79 HB3 29.79 HG2 37.06 HG3 37.06 HE21 52.26 HE22 52.26
A THR H 50 -63.0 -51.7 N 18.2 CA 17.27 C 18.25 O 19.22 CB 17.3 OG1 21.87 CG2 18.5 H 21.84 HA 20.72 HB 20.76 HG1 26.24 HG21 22.2 HG22 22.2 HG23 22.2
A ALA H 0 -67.6 -36.3 N 17.16 CA 15.85 C 18.12 O 17.89 CB 18.69 H 20.59 HA 19.02 HB1 22.43 HB2 22.43 HB3 22.43
A ILE H 37 -59.8 -44.3 N 17.56 CA 16.49 C 19.08 O 20.48 CB 17.85 CG1 16.91 CG2 21.87 CD1 20.64 H 21.07 HA 19.79 HB 21.42 HG12 20.29 HG13 20.29 HG21 26.25 HG22 26.25 HG23 26.25 HD11 24.76 HD12 24.76 HD13 24.76
A LYS H 111 -64.4 -44.8 N 17.12 CA 19.69 C 21.66 O 21.9 CB 19.77 CG 26.95 CD 33.32 CE 39.18 NZ 44.32
A TRP H 22 -58.3 -41.8 N 17.79 CA 18.27 C 18.21 O 20.08 CB 18.12 CG 18.67 CD1 18.85 CD2 19.03 NE1 21.32 CE2 18.15 CE3 19.79 CZ2 20.37 CZ3 21.02 CH2 19.32 H 21.35 HA 21.92 HB2 21.74 HB3 21.74 HD1 22.62 HE1 25.59 HE3 23.75 HZ2 24.45 HZ3 25.22 HH2 23.19
A VAL H 0 -65.3 -43.7 N 17.99 CA 16.78 C 19.24 O 22.12 CB 16.94 CG1 19.55 CG2 18.42 H 21.59 HA 20.14 HB 20.32 HG11 23.46 HG12 23.46 HG13 23.46 HG21 22.1 HG22 22.1 HG23 22.1
A LYS H 172 -59.1 -40.2 N 20.09 CA 20.66 C 23.51 O 28.45 CB 25.01 CG 31.92 CD 56.03 CE 69.16 NZ 76.62 H 24.1 HA 24.79 HB2 30.01 HB3 30.01 HG2 38.31 HG3 38.31 HD2 67.24 HD3 67.24 HE2 83.0 HE3 83.0 HZ1 91.95 HZ2 91.95 HZ3 91.95
A ASP H 76 -78.8 -13.1 N 23.46 CA 25.3 C 27.67 O 26.09 CB 28.55 CG 37.72 OD1 34.02 OD2 36.66 H 28.15 HA 30.36 HB2 34.25 HB3 34.25
A LYS T 64 57.8 34.2 N 23.93 CA 24.52 C 25.12 O 30.19 CB 25.17 CG 22.7 CD 28.06 CE 27.22 NZ 51.12
A LYS - 110 -153.4 117.6 N 22.63 CA 25.28 C 22.99 O 25.53 CB 28.62 CG 45.12 CD 68.03 CE 83.11 NZ 86.93 H 27.16 HA 30.34 HB2 34.34 HB3 34.34 HG2 54.14 HG3 54.14 HD2 81.64 HD3 81.64 HE2 99.73 HE3 99.73 HZ1 104.32 HZ2 104.32 HZ3 104.32
A ALA - 2 -90.3 102.6 N 22.17 CA 22.63 C 26.2 O 30.03 CB 28.86 H 26.61 HA 27.16 HB1 34.64 HB2 34.64 HB3 34.64
A LYS - 155 -87.5 59.0 N 24.15 CA 27.04 C 25.2 O 25.64 CB 28.29 CG 44.13 CD 55.03 CE 67.8 NZ 70.62 H 28.98 HA 32.45 HB2 33.95 HB3 33.95 HG2 52.96 HG3 52.96 HD2 66.04 HD3 66.04 HE2 81.36 HE3 81.36 HZ1 84.75 HZ2 84.75 HZ3 84.75
A SER - 23 -79.1 143.6 N 23.56 CA 19.91 C 24.69 O 27.32 CB 20.14 OG 22.65 H 28.27 HA 23.89 HB2 24.16 HB3 24.16 HG 27.18
A THR - 143 -86.6 -4.0 N 22.56 CA 24.58 C 24.13 O 25.94 CB 26.47 OG1 27.8 CG2 34.09 H 27.08 HA 29.5 HB 31.76 HG1 33.36 HG21 40.91 HG22 40.91 HG23 40.91
A LEU - 20 -64.0 130.8 N 24.23 CA 22.16 C 23.88 O 24.14 CB 23.15 CG 23.48 CD1 23.96 CD2 23.44 H 29.07 HA 26.6 HB2 27.78 HB3 27.78 HG 28.18 HD11 28.75 HD12 28.75 HD13 28.75 HD21 28.13 HD22 28.13 HD23 28.13
A VAL - 86 -54.6 142.8 N 24.85 CA 25.69 C 24.98 O 24.8 CB 27.64 CG1 30.56 CG2 32.2 H 29.82 HA 30.83 HB 33.17 HG11 36.67 HG12 36.67 HG13 36.67 HG21 38.64 HG22 38.64 HG23 38.64
A ARG - 144 -96.6 108.4 N 25.68 CA 27.7 C 27.18 O 28.22 CB 26.94 CG 31.39 CD 34.04 NE 33.6 CZ 30.41 NH1 28.25 NH2 29.07 H 30.81 HA 33.24 HB2 32.33 HB3 32.33 HG2 37.66 HG3 37.66 HD2 40.85 HD3 40.85 HE 40.32 HH11 33.9 HH12 33.9 HH21 34.88 HH22 34.88
A ASN S 55 -145.2 -169.9 N 26.77 CA 30.23 C 28.62 O 27.45 CB 29.41 CG 29.67 OD1 31.17 ND2 36.15
A GLU G 175 -61.4 -36.3 N 32.35 CA 32.48 C 32.54 O 33.86 CB 38.76 CG 53.37 CD 60.21 OE1 36.97 OE2 57.18
A GLU G 134 -70.0 -31.5 N 30.83 CA 31.18 C 29.44 O 30.68 CB 31.76 CG 62.55 CD 90.34 OE1 92.26 OE2 107.79
A THR G 2 -102.8 10.3 N 24.68 CA 23.12 C 22.61 O 23.49 CB 22.25 OG1 23.81 CG2 26.15 H 29.62 HA 27.74 HB 26.7 HG1 28.57 HG21 31.38 HG22 31.38 HG23 31.38
A ALA H 55 -61.1 -39.6 N 23.49 CA 27.25 C 25.88 O 23.94 CB 28.11 H 28.19 HA 32.7 HB1 33.73 HB2 33.73 HB3 33.73
A LEU H 71 -64.8 -52.2 N 24.05 CA 22.13 C 21.44 O 21.52 CB 27.17 CG 34.79 CD1 30.9 CD2 39.82 H 28.86 HA 26.55 HB2 32.61 HB3 32.61 HG 41.75 HD11 37.08 HD12 37.08 HD13 37.08 HD21 47.78 HD22 47.78 HD23 47.78
A ILE H 1 -60.4 -41.4 N 20.63 CA 18.12 C 19.39 O 18.32 CB 20.25 CG1 22.59 CG2 21.13 CD1 29.9 H 24.75 HA 21.75 HB 24.3 HG12 27.11 HG13 27.11 HG21 25.35 HG22 25.35 HG23 25.35 HD11 35.88 HD12 35.88 HD13 35.88
A TRP H 18 -67.8 -32.3 N 18.5 CA 18.63 C 19.16 O 19.34 CB 22.19 CG 20.57 CD1 23.3 CD2 22.42 NE1 24.36 CE2 22.14 CE3 21.51 CZ2 23.68 CZ3 23.98 CH2 25.05 H 22.2 HA 22.36 HB2 26.63 HB3 26.63 HD1 27.96 HE1 29.24 HE3 25.81 HZ2 28.41 HZ3 28.77 HH2 30.06
A LYS H 110 -62.1 -44.1 N 17.71 CA 20.43 C 17.62 O 20.36 CB 21.25 CG 36.24 CD 53.38 CE 67.41 NZ 77.48 H 21.25 HA 24.51 HB2 25.5 HB3 25.5 HG2 43.49 HG3 43.49 HD2 64.06 HD3 64.06 HE2 80.89 HE3 80.89 HZ1 92.98 HZ2 92.98 HZ3 92.98
A LEU H 27 -67.4 -39.0 N 16.18 CA 15.92 C 16.74 O 17.51 CB 17.49 CG 19.08 CD1 24.32 CD2 22.92 H 19.42 HA 19.11 HB2 20.98 HB3 20.98 HG 22.89 HD11 29.18 HD12 29.18 HD13 29.18 HD21 27.5 HD22 27.5 HD23 27.5
A VAL H 0 -65.0 -45.0 N 17.02 CA 16.36 C 16.55 O 17.85 CB 17.33 CG1 21.11 CG2 19.34 H 20.42 HA 19.63 HB 20.79 HG11 25.33 HG12 25.33 HG13 25.33 HG21 23.21 HG22 23.21 HG23 23.21
A ASP H 58 -60.6 -40.7 N 16.93 CA 18.38 C 18.13 O 19.22 CB 21.47 CG 28.47 OD1 26.5 OD2 31.72 H 20.32 HA 22.06 HB2 25.77 HB3 25.77
A GLU H 86 -67.7 -36.6 N 17.35 CA 16.16 C 16.65 O 17.25 CB 17.44 CG 21.21 CD 36.17 OE1 34.88 OE2 31.44 H 20.83 HA 19.39 HB2 20.93 HB3 20.93 HG2 25.46 HG3 25.46
A ALA H 6 -66.4 -43.4 N 15.66 CA 15.7 C 16.88 O 17.74 CB 18.61 H 18.79 HA 18.84 HB1 22.33 HB2 22.33 HB3 22.33
A GLU H 27 -60.3 -42.7 N 17.62 CA 18.07 C 19.16 O 19.29 CB 20.65 CG 22.11 CD 36.15 OE1 43.96 OE2 30.89 H 21.15 HA 21.68 HB2 24.78 HB3 24.78 HG2 26.53 HG3 26.53
A GLU H 113 -60.7 -41.9 N 17.56 CA 18.61 C 16.88 O 19.97 CB 18.4 CG 21.94 CD 33.09 OE1 33.49 OE2 38.22 H 21.07 HA 22.33 HB2 22.08 HB3 22.08 HG2 26.33 HG3 26.33
A TRP H 23 -60.6 -46.0 N 15.91 CA 17.26 C 15.85 O 17.22 CB 16.78 CG 20.02 CD1 20.01 CD2 18.68 NE1 23.91 CE2 23.18 CE3 17.81 CZ2 25.53 CZ3 20.57 CH2 24.75 H 19.09 HA 20.71 HB2 20.13 HB3 20.13 HD1 24.01 HE1 28.69 HE3 21.38 HZ2 30.64 HZ3 24.69 HH2 29.7
A LEU H 1 -60.7 -30.6 N 15.42 CA 16.99 C 19.02 O 22.27 CB 17.36 CG 17.44 CD1 17.88 CD2 19.63 H 18.51 HA 20.39 HB2 20.83 HB3 20.83 HG 20.93 HD11 21.46 HD12 21.46 HD13 21.46 HD21 23.55 HD22 23.55 HD23 23.55
A ASN T 102 -83.4 -7.4 N 18.57 CA 20.47 C 22.56 O 28.96 CB 23.04 CG 34.31 OD1 39.69 ND2 43.91 H 22.28 HA 24.57 HB2 27.65 HB3 27.65 HD21 52.69 HD22 52.69
A THR T 81 -123.1 2.6 N 19.41 CA 21.44 C 19.15 O 20.03 CB 21.44 OG1 22.51 CG2 25.58 H 23.29 HA 25.72 HB 25.73 HG1 27.02 HG21 30.69 HG22 30.69 HG23 30.69
A HIS - 77 -136.9 159.3 N 17.66 CA 16.68 C 19.22 O 25.41 CB 17.3 CG 16.78 ND1 19.95 CD2 20.5 CE1 22.79 NE2 22.85 H 21.19 HA 20.01 HB2 20.76 HB3 20.76 HD1 23.94 HD2 24.6 HE1 27.35
A THR - 111 -115.3 157.3 N 20.5 CA 21.29 C 23.75 O 24.16 CB 26.65 OG1 30.19 CG2 30.9 H 24.61 HA 25.55 HB 31.98 HG1 36.23 HG21 37.08 HG22 37.08 HG23 37.08
A TYR - 65 -162.9 152.6 N 21.09 CA 23.57 C 20.22 O 25.42 CB 20.89 CG 18.13 CD1 18.43 CD2 20.04 CE1 19.08 CE2 21.28 CZ 19.77 OH 25.59
A GLU - 158 -113.1 1.6 N 23.69 CA 23.83 C 21.81 O 24.09 CB 29.84 CG 37.58 CD 69.84 OE1 72.35 OE2 84.46 H 28.43 HA 28.6 HB2 35.81 HB3 35.81 HG2 45.1 HG3 45.1
A THR - 16 -52.5 120.0 N 20.38 CA 20.74 C 21.47 O 21.07 CB 20.68 OG1 20.46 CG2 20.23 H 24.46 HA 24.89 HB 24.81 HG1 24.56 HG21 24.27 HG22 24.27 HG23 24.27
A PRO - 62 -67.2 133.6 N 20.15 CA 20.44 C 20.58 O 18.96 CB 20.23 CG 21.42 CD 21.0 HA 24.53 HB2 24.27 HB3 24.27 HG2 25.7 HG3 25.7 HD2 25.2 HD3 25.2
A ILE E 36 -110.6 111.3 N 18.12 CA 18.23 C 16.11 O 19.69 CB 18.35 CG1 22.7 CG2 21.26 CD1 28.86 H 21.74 HA 21.87 HB 22.02 HG12 27.23 HG13 27.23 HG21 25.51 HG22 25.51 HG23 25.51 HD11 34.64 HD12 34.64 HD13 34.64
A LEU E 47 -112.9 145.3 N 16.6 CA 16.81 C 16.58 O 17.43 CB 19.31 CG 20.1 CD1 21.18 CD2 23.93 H 19.92 HA 20.18 HB2 23.17 HB3 23.17 HG 24.12 HD11 25.42 HD12 25.42 HD13 25.42 HD21 28.71 HD22 28.71 HD23 28.71
A LYS E 87 -79.9 121.2 N 18.44 CA 18.04 C 18.32 O 21.79 CB 21.2 CG 24.18 CD 24.18 CE 23.72 NZ 27.11 H 22.13 HA 21.65 HB2 25.44 HB3 25.44 HG2 29.02 HG3 29.02 HD2 29.02 HD3 29.02 HE2 28.47 HE3 28.47 HZ1 32.53 HZ2 32.53 HZ3 32.53
A TRP - 5 -73.6 123.0 N 17.62 CA 20.15 C 20.56 O 22.25 CB 20.25 CG 20.26 CD1 20.43 CD2 19.02 NE1 20.81 CE2 20.02 CE3 19.63 CZ2 23.91 CZ3 20.59 CH2 25.56 H 21.15 HA 24.18 HB2 24.3 HB3 24.3 HD1 24.51 HE1 24.97 HE3 23.55 HZ2 28.69 HZ3 24.71 HH2 30.67
A GLN - 50 -90.0 81.1 N 21.05 CA 23.45 C 23.96 O 29.64 CB 28.04 CG 34.75 CD 56.69 OE1 58.62 NE2 63.4 H 25.26 HA 28.15 HB2 33.64 HB3 33.64 HG2 41.7 HG3 41.7 HE21 76.08 HE22 76.08
A THR H 43 -56.5 -37.7 N 24.72 CA 23.95 C 26.42 O 30.62 CB 30.33 OG1 24.32 CG2 28.85 H 29.66 HA 28.74 HB 36.4 HG1 29.18 HG21 34.61 HG22 34.61 HG23 34.61
A ASP H 140 -65.5 -25.6 N 29.24 CA 30.32 C 30.44 O 35.44 CB 38.44 CG 44.17 OD1 41.86 OD2 52.78 H 35.09 HA 36.38 HB2 46.13 HB3 46.13
A LYS H 134 -97.4 -36.3 N 33.07 CA 34.36 C 32.88 O 34.99 CB 37.39 CG 48.7 CD 59.09 CE 72.92 NZ 76.82
A TRP H 54 -112.9 -4.2 N 29.56 CA 31.88 C 31.5 O 35.51 CB 26.94 CG 26.22 CD1 32.87 CD2 25.32 NE1 33.49 CE2 29.14 CE3 24.45 CZ2 29.0 CZ3 26.82 CH2 30.37 H 35.47 HA 38.26 HB2 32.33 HB3 32.33 HD1 39.44 HE1 40.18 HE3 29.35 HZ2 34.8 HZ3 32.19 HH2 36.44
A GLY - 36 84.4 -172.9 N 28.36 CA 31.08 C 26.45 O 27.84 H 34.04 HA2 37.3 HA3 37.3
A GLU S 91 -66.0 144.8 N 30.02 CA 25.03 C 24.28 O 26.19 CB 30.53 CG 42.7 CD 61.74 OE1 74.72 OE2 52.96 H 36.03 HA 30.04 HB2 36.64 HB3 36.64 HG2 51.24 HG3 51.24
A ILE - 3 -59.2 150.8 N 22.04 CA 20.18 C 20.98 O 23.21 CB 20.95 CG1 20.88 CG2 21.93 CD1 20.74 H 26.45 HA 24.22 HB 25.14 HG12 25.06 HG13 25.06 HG21 26.32 HG22 26.32 HG23 26.32 HD11 24.89 HD12 24.89 HD13 24.89
A LYS T 83 -73.0 -16.9 N 21.48 CA 22.4 C 20.88 O 26.01 CB 30.19 CG 49.18 CD 58.32 CE 53.3 NZ 44.06
A ALA T 0 -86.7 5.4 N 20.41 CA 21.33 C 22.95 O 23.45 CB 17.34 H 24.49 HA 25.59 HB1 20.81 HB2 20.81 HB3 20.81
A ASP - 37 -63.4 152.5 N 22.79 CA 22.95 C 25.74 O 26.87 CB 26.03 CG 27.11 OD1 26.79 OD2 28.31 H 27.35 HA 27.55 HB2 31.24 HB3 31.24
A TYR - 39 -88.8 -5.5 N 23.39 CA 27.11 C 37.01 O 36.49 CB 31.85 CG 25.53 CD1 23.0 CD2 27.74 CE1 21.21 CE2 24.29 CZ 23.13 OH 23.35 H 28.07 HA 32.53 HB2 38.22 HB3 38.22 HD1 27.6 HD2 33.28 HE1 25.45 HE2 29.15 HH 28.03
A GLY S 61 67.1 27.6 N 29.62 CA 33.47 C 45.11 O 46.99 H 35.54 HA2 40.17 HA3 40.17
A ARG - 130 -99.6 -2.7 N 40.54 CA 43.89 C 57.66 O 67.92 CB 43.24 CG 39.44 CD 46.42 NE 46.61 CZ 51.0 NH1 46.28 NH2 52.14 H 48.65 HA 52.67 HB2 51.89 HB3 51.89 HG2 47.32 HG3 47.32 HD2 55.7 HD3 55.7 HE 55.94 HH11 55.54 HH12 55.54 HH21 62.57 HH22 62.57
A LYS - 201 -101.9 360.0 N 47.3 CA 50.35 C 58.51 O 61.72 CB 41.59 CG 38.19 CD 36.01 CE 35.16 NZ 35.35 OXT 63.58
