B GLY - 53 360.0 69.9 N 56.22 CA 51.67 C 47.73 O 43.18
B GLN E 57 -90.2 132.7 N 42.73 CA 40.41 C 36.65 O 38.6 CB 39.01 CG 46.59 CD 51.47 OE1 50.29 NE2 50.82
B GLN E 1 -113.0 142.0 N 28.88 CA 26.99 C 29.23 O 29.95 CB 27.15 CG 30.04 CD 32.28 OE1 29.04 NE2 27.25
B HIS E 5 -123.5 130.3 N 26.46 CA 26.31 C 24.48 O 28.17 CB 27.94 CG 33.72 ND1 37.56 CD2 38.4 CE1 39.2 NE2 45.63
B LEU E 0 -122.8 115.5 N 24.39 CA 22.42 C 23.57 O 24.75 CB 23.88 CG 24.24 CD1 26.01 CD2 29.84
B LEU E 10 -89.8 116.2 N 24.07 CA 24.57 C 25.34 O 25.82 CB 24.78 CG 25.01 CD1 30.3 CD2 25.03
B ARG E 64 -122.3 122.2 N 24.37 CA 26.98 C 25.99 O 28.52 CB 29.69 CG 39.62 CD 45.32 NE 50.72 CZ 54.39 NH1 53.03 NH2 47.06
B PHE E 4 -109.1 119.8 N 23.74 CA 25.76 C 31.41 O 29.13 CB 23.09 CG 26.18 CD1 29.37 CD2 25.41 CE1 32.28 CE2 24.3 CZ 30.39
B ALA E 49 -81.5 121.9 N 24.47 CA 34.06 C 40.64 O 35.8 CB 35.18
B LEU - 22 -84.3 147.6 N 29.0 CA 33.16 C 37.64 O 35.38 CB 39.12 CG 37.56 CD1 40.18 CD2 39.45
B PRO - 22 -67.8 153.1 N 38.56 CA 42.26 C 42.27 O 44.94 CB 34.62 CG 42.45 CD 40.3
B ALA T 105 -47.2 127.6 N 48.88 CA 48.99 C 50.23 O 51.39 CB 52.09
B GLY T 84 78.9 10.2 N 52.11 CA 55.42 C 60.29 O 59.39
B LYS - 99 -107.4 133.7 N 50.36 CA 50.47 C 47.16 O 53.38 CB 42.85 CG 44.42 CD 45.54 CE 47.99 NZ 52.91
B LYS - 120 -112.5 132.5 N 47.87 CA 46.39 C 36.79 O 44.82 CB 48.29 CG 57.56 CD 58.0 CE 61.55 NZ 67.61
B LEU - 0 -150.5 99.5 N 41.85 CA 35.32 C 35.51 O 32.95 CB 35.79 CG 38.63 CD1 46.78 CD2 40.75
B TRP - 100 -69.5 154.4 N 36.66 CA 41.58 C 37.59 O 33.14 CB 36.51 CG 36.3 CD1 40.63 CD2 38.39 NE1 37.37 CE2 35.07 CE3 37.61 CZ2 41.32 CZ3 42.82 CH2 42.24
B PRO H 8 -48.6 -44.7 N 40.07 CA 36.6 C 34.92 O 35.35 CB 36.24 CG 38.26 CD 38.42
B ASN H 33 -65.4 -28.8 N 33.1 CA 36.42 C 34.06 O 39.54 CB 46.65 CG 52.66 OD1 53.73 ND2 56.33
B ASP H 44 -64.4 -46.0 N 39.18 CA 40.1 C 31.37 O 31.63 CB 42.81 CG 52.43 OD1 52.93 OD2 51.61
B LEU H 0 -63.5 -41.6 N 31.71 CA 32.01 C 28.19 O 29.4 CB 26.33 CG 25.64 CD1 26.06 CD2 26.51
B ARG H 25 -58.4 -48.7 N 30.59 CA 30.07 C 34.22 O 31.34 CB 33.26 CG 38.73 CD 38.36 NE 43.77 CZ 46.97 NH1 36.98 NH2 41.89
B GLU H 136 -61.6 -43.7 N 33.91 CA 35.46 C 34.72 O 37.53 CB 42.89 CG 54.09 CD 62.04 OE1 64.63 OE2 65.84
B ALA H 16 -65.3 -36.0 N 34.32 CA 34.11 C 31.83 O 35.96 CB 31.4
B LEU H 0 -65.9 -24.3 N 30.77 CA 30.12 C 36.4 O 34.73 CB 27.96 CG 26.19 CD1 27.82 CD2 29.37
B ALA T 60 -67.8 -13.6 N 38.32 CA 44.31 C 47.25 O 49.3 CB 45.54
B LYS T 178 -91.0 9.0 N 43.64 CA 45.4 C 51.21 O 51.93 CB 47.24 CG 53.48 CD 59.63 CE 63.26 NZ 66.2
B HIS S 58 -113.9 16.2 N 44.76 CA 42.93 C 42.51 O 48.05 CB 37.22 CG 40.57 ND1 38.82 CD2 33.17 CE1 36.1 NE2 45.56
B ASP - 156 58.9 53.0 N 44.04 CA 44.65 C 45.63 O 50.6 CB 50.22 CG 55.1 OD1 60.36 OD2 57.61
B LEU - 21 -99.3 161.4 N 35.36 CA 29.55 C 31.71 O 39.38 CB 29.38 CG 33.84 CD1 32.21 CD2 30.93
B PRO - 55 -66.7 145.7 N 35.7 CA 36.89 C 38.92 O 34.75 CB 37.59 CG 40.73 CD 39.87
B PRO G 52 -55.6 -32.6 N 32.17 CA 30.61 C 29.09 O 30.81 CB 39.3 CG 36.9 CD 39.48
B LEU G 20 -66.4 -21.8 N 30.02 CA 30.12 C 28.23 O 27.39 CB 32.97 CG 37.05 CD1 32.57 CD2 36.07
B PHE G 0 -57.9 -36.8 N 27.52 CA 31.28 C 31.22 O 25.9 CB 25.62 CG 23.56 CD1 23.88 CD2 32.78 CE1 25.18 CE2 27.72 CZ 24.75
B PHE G 13 -92.4 15.9 N 25.05 CA 31.78 C 32.33 O 30.65 CB 29.84 CG 29.45 CD1 34.12 CD2 31.34 CE1 36.9 CE2 37.4 CZ 33.83
B SER T 9 60.3 35.2 N 28.33 CA 26.08 C 27.04 O 30.87 CB 31.39 OG 30.02
B ARG B 72 -105.5 138.3 N 29.18 CA 37.97 C 34.3 O 34.18 CB 34.64 CG 42.06 CD 50.37 NE 52.11 CZ 55.71 NH1 60.56 NH2 59.52
B ASP - 1 -77.2 119.8 N 34.61 CA 29.55 C 32.37 O 43.41 CB 33.66 CG 33.66 OD1 39.78 OD2 33.65
B PRO T 79 -66.1 -12.5 N 32.33 CA 40.13 C 34.59 O 43.6 CB 41.97 CG 41.27 CD 33.23
B GLN T 126 -101.7 -1.1 N 38.82 CA 39.21 C 44.55 O 43.74 CB 36.28 CG 36.12 CD 43.71 OE1 41.25 NE2 45.0
B THR T 58 -121.5 -22.0 N 42.16 CA 36.24 C 41.56 O 47.36 CB 40.44 OG1 40.72 CG2 37.85
B GLY S 56 71.6 4.1 N 36.02 CA 38.75 C 33.48 O 43.6
B HIS S 138 -112.9 170.7 N 36.93 CA 35.67 C 34.05 O 35.51 CB 32.52 CG 41.09 ND1 43.16 CD2 45.0 CE1 48.4 NE2 51.27
B ALA B 65 -54.3 143.2 N 37.49 CA 36.38 C 34.87 O 32.9 CB 36.43
B ILE - 23 -53.2 140.5 N 30.05 CA 30.57 C 37.33 O 36.39 CB 32.25 CG1 33.49 CG2 29.86 CD1 31.57
B THR - 83 -153.9 175.8 N 38.08 CA 31.87 C 39.11 O 41.31 CB 37.18 OG1 49.85 CG2 33.01
B ARG - 126 -88.0 155.1 N 40.4 CA 51.16 C 55.66 O 57.8 CB 49.79 CG 53.82 CD 59.47 NE 50.26 CZ 57.71 NH1 65.72 NH2 48.08
B ALA - 43 -97.4 166.8 N 54.05 CA 58.58 C 62.52 O 60.78 CB 55.37
B MET - 70 -60.3 146.4 N 58.34 CA 70.14 C 79.2 O 90.64 CB 69.46 CG 73.04 SD 77.15 CE 67.56
B ARG - 238 -125.6 -38.2 N 86.33 CA 87.94 C 84.73 O 93.89 CB 92.2 CG 93.0 CD 96.79 NE 97.43 CZ 95.83 NH1 94.37 NH2 96.41
B ASN - 77 -83.0 114.4 N 82.97 CA 75.13 C 76.23 O 77.75 CB 72.32 CG 72.55 OD1 71.97 ND2 72.08
B GLU T 165 -72.9 -20.4 N 75.59 CA 76.25 C 71.01 O 65.8 CB 81.51 CG 83.14 CD 85.87 OE1 85.07 OE2 88.66
B LYS T 151 -67.7 -20.9 N 68.54 CA 65.35 C 65.9 O 62.52 CB 69.9 CG 71.1 CD 71.51 CE 70.93 NZ 71.59
B ARG H 165 -73.0 -4.7 N 61.8 CA 58.12 C 55.48 O 54.69 CB 56.92 CG 58.77 CD 56.58 NE 65.83 CZ 61.41 NH1 62.26 NH2 63.45
B VAL H 27 -64.3 -44.4 N 57.22 CA 52.65 C 52.12 O 56.41 CB 52.93 CG1 51.74 CG2 54.0
B ARG H 160 -61.1 -44.9 N 54.82 CA 50.45 C 49.27 O 56.7 CB 57.11 CG 58.98 CD 63.02 NE 65.54 CZ 69.32 NH1 71.63 NH2 71.13
B GLY H 35 -56.9 -39.7 N 52.24 CA 52.36 C 48.38 O 51.67
B TYR H 58 -65.2 -40.1 N 50.84 CA 47.64 C 45.96 O 49.05 CB 45.53 CG 45.85 CD1 41.32 CD2 39.45 CE1 43.64 CE2 42.99 CZ 44.13 OH 54.17
B ILE H 61 -61.1 -39.9 N 45.94 CA 48.23 C 42.96 O 49.26 CB 46.25 CG1 49.37 CG2 44.89 CD1 47.61
B GLU T 124 -69.6 134.3 N 50.15 CA 49.33 C 46.16 O 52.98 CB 48.68 CG 51.96 CD 54.86 OE1 59.68 OE2 60.56
B GLN T 182 73.3 -4.8 N 48.3 CA 42.88 C 52.32 O 54.95 CB 47.96 CG 49.14 CD 51.01 OE1 59.03 NE2 51.81
B HIS T 99 -116.9 -28.8 N 47.1 CA 41.61 C 42.48 O 51.94 CB 45.81 CG 42.57 ND1 52.54 CD2 50.38 CE1 43.43 NE2 48.53
B GLY S 63 81.2 8.9 N 49.74 CA 45.42 C 51.2 O 56.11
B HIS S 105 -164.9 171.2 N 45.28 CA 40.83 C 41.85 O 49.54 CB 39.63 CG 41.94 ND1 45.26 CD2 40.09 CE1 46.26 NE2 46.18
B GLU - 127 -80.2 162.1 N 46.01 CA 39.06 C 36.49 O 41.51 CB 42.28 CG 47.29 CD 46.43 OE1 57.35 OE2 59.78
B PRO - 38 -62.9 143.5 N 44.22 CA 45.77 C 42.77 O 52.39 CB 42.36 CG 44.76 CD 36.02
B PRO - 89 -64.5 164.9 N 45.48 CA 49.87 C 47.52 O 49.97 CB 44.28 CG 43.12 CD 38.94
B PRO - 104 -65.2 157.2 N 42.15 CA 38.27 C 41.45 O 41.62 CB 38.52 CG 39.22 CD 46.75
B PRO - 48 -63.7 142.9 N 44.41 CA 41.06 C 40.78 O 39.19 CB 36.64 CG 47.75 CD 37.52
B THR - 19 -65.2 168.7 N 40.4 CA 34.56 C 30.35 O 37.97 CB 41.02 OG1 39.83 CG2 34.79
B GLU H 124 -56.2 -46.0 N 35.7 CA 37.68 C 38.49 O 33.49 CB 37.82 CG 36.09 CD 50.38 OE1 51.13 OE2 53.26
B GLU H 4 -65.6 -39.2 N 37.4 CA 38.02 C 37.78 O 34.92 CB 33.32 CG 27.78 CD 30.95 OE1 39.38 OE2 31.5
B GLN H 26 -64.1 -34.8 N 34.08 CA 33.8 C 31.86 O 36.64 CB 31.93 CG 32.82 CD 44.75 OE1 42.31 NE2 46.44
B ARG H 177 -67.7 -44.7 N 37.0 CA 35.56 C 39.02 O 40.1 CB 42.58 CG 45.02 CD 47.28 NE 52.56 CZ 53.75 NH1 56.91 NH2 51.14
B ALA H 56 -71.9 -27.7 N 36.31 CA 40.95 C 39.52 O 42.21 CB 37.16
B ASN - 14 -136.8 68.3 N 32.99 CA 36.82 C 34.42 O 31.95 CB 33.57 CG 28.37 OD1 30.64 ND2 31.66
B PRO T 84 -70.9 -18.0 N 32.28 CA 35.2 C 36.92 O 38.41 CB 36.73 CG 36.56 CD 28.37
B LEU T 42 -92.0 -5.6 N 28.42 CA 32.47 C 33.13 O 30.16 CB 29.72 CG 38.12 CD1 40.86 CD2 39.36
B ALA - 22 64.2 43.1 N 28.7 CA 26.33 C 33.82 O 35.95 CB 32.1
B ILE - 12 -81.0 130.2 N 26.46 CA 26.85 C 26.95 O 32.93 CB 29.03 CG1 34.84 CG2 31.41 CD1 42.8
B PRO - 20 -64.9 119.2 N 27.63 CA 25.29 C 27.07 O 29.25 CB 27.69 CG 28.64 CD 27.27
B GLY S 2 -73.9 -25.1 N 24.53 CA 25.66 C 28.22 O 27.76
B ILE E 1 -117.4 131.1 N 24.88 CA 25.14 C 27.54 O 25.46 CB 24.76 CG1 24.46 CG2 25.95 CD1 25.41
B ARG E 6 -128.9 141.3 N 24.16 CA 24.45 C 24.63 O 25.45 CB 25.08 CG 24.5 CD 26.23 NE 26.35 CZ 26.65 NH1 24.66 NH2 30.64
B ILE E 0 -97.4 119.2 N 24.07 CA 25.5 C 26.0 O 28.0 CB 27.25 CG1 28.36 CG2 27.53 CD1 30.2
B VAL E 1 -127.8 170.8 N 25.25 CA 24.89 C 29.7 O 26.24 CB 25.22 CG1 26.11 CG2 25.52
B GLY E 1 152.9 -159.1 N 29.81 CA 26.94 C 33.37 O 28.26
B SER - 19 -155.5 -161.8 N 29.92 CA 27.66 C 33.13 O 28.65 CB 28.35 OG 37.04
B SER S 55 -72.1 -10.1 N 31.13 CA 34.73 C 33.74 O 43.1 CB 40.49 OG 39.51
B THR S 93 -109.5 -18.5 N 32.87 CA 39.4 C 37.84 O 34.76 CB 39.28 OG1 37.04 CG2 48.21
B TRP E 10 -163.9 157.3 N 28.41 CA 25.05 C 30.57 O 29.81 CB 24.71 CG 28.79 CD1 32.57 CD2 26.17 NE1 29.67 CE2 33.03 CE3 30.6 CZ2 32.86 CZ3 26.43 CH2 28.99
B VAL E 0 -136.5 155.4 N 26.9 CA 26.31 C 29.25 O 25.7 CB 26.28 CG1 25.4 CG2 33.94
B GLY E 0 -162.7 175.2 N 26.14 CA 26.02 C 26.56 O 25.99
B ILE E 0 -120.9 121.7 N 22.7 CA 23.45 C 23.2 O 23.72 CB 24.09 CG1 25.88 CG2 24.87 CD1 26.33
B LEU E 1 -111.1 123.6 N 22.52 CA 23.36 C 25.35 O 24.96 CB 23.95 CG 25.03 CD1 24.38 CD2 25.98
B ALA E 0 -108.0 123.9 N 24.28 CA 24.89 C 26.95 O 28.03 CB 26.56
B THR E 2 -111.3 103.2 N 26.96 CA 29.32 C 34.25 O 31.43 CB 27.62 OG1 28.4 CG2 30.46
B GLY S 15 108.2 138.8 N 32.04 CA 35.61 C 35.29 O 29.77
B GLU G 100 -58.0 -29.7 N 37.46 CA 37.9 C 36.22 O 37.81 CB 42.53 CG 46.0 CD 50.82 OE1 52.97 OE2 50.78
B ARG G 98 -48.3 -38.3 N 33.88 CA 38.24 C 36.39 O 34.0 CB 31.85 CG 37.63 CD 40.09 NE 37.75 CZ 41.96 NH1 42.75 NH2 43.18
B TYR G 17 -94.7 -9.5 N 30.16 CA 28.08 C 33.26 O 27.64 CB 29.66 CG 28.75 CD1 30.36 CD2 27.23 CE1 31.15 CE2 35.14 CZ 29.04 OH 29.65
B LYS H 81 -57.1 -36.2 N 28.99 CA 31.66 C 37.18 O 31.51 CB 32.78 CG 36.84 CD 41.89 CE 46.31 NZ 53.39
B PRO H 83 -62.8 -27.2 N 30.84 CA 35.97 C 28.08 O 34.09 CB 33.35 CG 34.82 CD 31.97
B LEU H 21 -68.7 -45.3 N 23.73 CA 26.07 C 26.55 O 27.64 CB 25.65 CG 26.11 CD1 28.5 CD2 30.53
B LEU H 7 -55.3 -46.1 N 25.41 CA 26.66 C 28.36 O 29.02 CB 28.4 CG 31.4 CD1 36.43 CD2 38.11
B GLU H 141 -61.0 -40.9 N 28.21 CA 29.06 C 34.16 O 32.44 CB 36.24 CG 44.01 CD 55.24 OE1 61.66 OE2 56.09
B ALA H 51 -64.4 -32.5 N 32.56 CA 31.36 C 33.52 O 30.16 CB 35.74
B ALA H 0 -87.4 -1.8 N 30.23 CA 31.25 C 24.17 O 28.44 CB 26.62
B THR H 39 -70.4 -52.7 N 25.05 CA 23.46 C 23.82 O 24.57 CB 26.79 OG1 25.83 CG2 23.1
B LEU H 124 -67.2 -39.3 N 26.56 CA 24.05 C 23.16 O 28.9 CB 26.8 CG 36.65 CD1 31.45 CD2 38.37
B PRO H 21 -54.3 -43.6 N 27.27 CA 26.59 C 25.41 O 26.11 CB 31.07 CG 31.88 CD 29.49
B ALA H 0 -63.0 -42.3 N 25.11 CA 24.09 C 27.08 O 27.73 CB 22.61
B ILE H 61 -58.9 -45.9 N 25.59 CA 28.3 C 25.62 O 29.37 CB 33.29 CG1 27.98 CG2 31.02 CD1 31.1
B GLN H 85 -58.8 -41.6 N 25.09 CA 29.98 C 39.08 O 31.87 CB 32.73 CG 36.48 CD 51.18 OE1 49.49 NE2 57.75
B ILE H 9 -68.8 -51.8 N 27.51 CA 27.1 C 30.28 O 35.24 CB 23.32 CG1 28.83 CG2 26.25 CD1 27.16
B VAL H 0 -64.5 -39.9 N 23.06 CA 27.39 C 36.27 O 37.56 CB 27.42 CG1 34.91 CG2 31.87
B THR H 61 -73.5 -34.8 N 30.14 CA 33.21 C 34.35 O 38.87 CB 29.92 OG1 30.92 CG2 33.91
B GLN H 134 -69.9 -38.2 N 36.38 CA 38.47 C 42.16 O 41.86 CB 34.73 CG 45.22 CD 48.69 OE1 56.84 NE2 51.11
B ARG H 137 -76.7 -34.5 N 39.58 CA 39.1 C 39.44 O 46.44 CB 39.05 CG 48.52 CD 55.78 NE 63.2 CZ 63.27 NH1 63.32 NH2 63.39
B CYS H 2 -106.8 -7.5 N 41.03 CA 43.51 C 46.49 O 49.04 CB 49.52 SG 58.56
B GLY - 36 74.8 -163.3 N 45.21 CA 45.75 C 48.1 O 46.72
B ARG S 244 -73.7 154.3 N 48.22 CA 48.17 C 47.95 O 48.77 CB 55.49 CG 56.64 CD 62.6 NE 67.58 CZ 71.23 NH1 74.44 NH2 71.36
B GLY - 63 104.8 13.0 N 39.78 CA 45.66 C 47.68 O 40.39
B VAL - 40 -73.8 132.7 N 43.21 CA 35.23 C 35.98 O 40.12 CB 37.66 CG1 31.55 CG2 37.25
B GLY E 30 -99.1 153.2 N 32.86 CA 31.24 C 34.53 O 32.63
B VAL E 94 -132.3 136.8 N 31.87 CA 32.71 C 30.95 O 30.23 CB 34.73 CG1 31.51 CG2 32.33
B GLU E 117 -137.5 153.7 N 29.52 CA 30.98 C 27.35 O 24.75 CB 36.71 CG 41.6 CD 49.28 OE1 52.01 OE2 52.33
B LEU E 106 -131.3 106.0 N 29.87 CA 34.86 C 29.7 O 29.82 CB 28.28 CG 31.12 CD1 31.0 CD2 33.02
B GLU E 41 -95.7 145.5 N 27.79 CA 31.6 C 26.46 O 24.73 CB 30.28 CG 36.49 CD 36.11 OE1 35.86 OE2 38.83
B GLN E 117 -128.2 134.0 N 26.28 CA 32.15 C 35.1 O 31.74 CB 32.22 CG 44.68 CD 46.19 OE1 50.13 NE2 45.89
B HIS E 61 -138.1 152.3 N 28.11 CA 31.73 C 34.41 O 32.71 CB 34.01 CG 38.73 ND1 41.85 CD2 35.37 CE1 45.09 NE2 39.96
B THR E 84 -101.2 124.0 N 34.92 CA 37.64 C 35.19 O 33.39 CB 39.69 OG1 45.11 CG2 38.68
B LEU - 6 -67.2 131.9 N 32.73 CA 31.65 C 31.02 O 33.48 CB 37.43 CG 33.4 CD1 43.34 CD2 31.61
B SER E 28 -156.1 158.5 N 32.43 CA 38.6 C 34.77 O 34.35 CB 43.02 OG 35.41
B ILE E 10 -144.2 131.2 N 32.87 CA 40.89 C 49.62 O 53.89 CB 38.93 CG1 46.1 CG2 45.48 CD1 50.46
B LYS E 131 -134.0 139.0 N 43.54 CA 46.36 C 41.58 O 43.88 CB 49.55 CG 54.95 CD 58.19 CE 62.85 NZ 64.52
B GLY E 32 -66.8 154.1 N 40.81 CA 37.56 C 41.19 O 48.86
B LEU E 51 -127.1 164.6 N 40.23 CA 40.89 C 43.87 O 47.17 CB 41.7 CG 39.39 CD1 43.71 CD2 40.55
B ASP E 145 -89.2 -22.7 N 47.13 CA 48.35 C 44.31 O 52.17 CB 44.95 CG 47.12 OD1 54.44 OD2 57.14
B ASP E 121 -129.5 154.6 N 40.41 CA 44.09 C 45.75 O 43.13 CB 43.97 CG 50.59 OD1 53.1 OD2 57.91
B PRO E 82 -71.4 144.3 N 46.56 CA 36.99 C 42.05 O 44.9 CB 43.28 CG 41.95 CD 43.48
B LYS E 59 -115.9 140.6 N 38.42 CA 38.77 C 36.94 O 37.82 CB 38.62 CG 37.88 CD 44.27 CE 39.16 NZ 41.03
B ARG E 81 -93.0 135.5 N 34.15 CA 32.34 C 38.91 O 39.45 CB 40.89 CG 44.8 CD 47.35 NE 53.35 CZ 53.33 NH1 55.46 NH2 54.95
B TYR E 3 -135.0 157.6 N 37.27 CA 34.51 C 33.65 O 36.7 CB 28.52 CG 29.49 CD1 34.23 CD2 27.39 CE1 32.26 CE2 33.51 CZ 37.03 OH 35.44
B PHE E 61 -119.0 163.4 N 28.4 CA 25.01 C 27.31 O 29.13 CB 31.61 CG 36.06 CD1 35.17 CD2 37.71 CE1 40.71 CE2 36.76 CZ 42.02
B VAL E 2 -123.4 120.1 N 29.37 CA 27.29 C 29.42 O 28.79 CB 32.27 CG1 27.04 CG2 27.31
B ARG E 58 -84.6 119.5 N 28.19 CA 26.98 C 24.88 O 27.82 CB 26.98 CG 28.33 CD 27.54 NE 29.74 CZ 38.03 NH1 34.42 NH2 46.5
B ASN E 27 58.7 53.6 N 26.11 CA 25.55 C 24.36 O 25.31 CB 27.73 CG 34.03 OD1 43.89 ND2 36.33
B LEU E 1 -61.4 132.1 N 25.73 CA 26.73 C 25.27 O 30.13 CB 23.95 CG 26.82 CD1 27.16 CD2 33.3
B VAL E 0 -111.0 129.1 N 24.89 CA 29.59 C 34.22 O 30.28 CB 30.22 CG1 33.54 CG2 30.1
B MET E 2 -121.2 113.0 N 31.77 CA 27.89 C 23.7 O 34.93 CB 34.73 CG 34.43 SD 44.16 CE 33.01
B LYS S 85 -59.0 -34.3 N 28.83 CA 27.87 C 41.89 O 40.72 CB 26.99 CG 34.38 CD 33.81 CE 27.57 NZ 28.57
B ARG S 204 -139.4 151.5 N 32.41 CA 40.57 C 31.89 O 33.5 CB 37.41 CG 37.91 CD 41.81 NE 41.55 CZ 43.27 NH1 46.38 NH2 50.12
B GLY - 42 100.6 -1.4 N 43.72 CA 33.56 C 38.0 O 42.78
B LEU - 33 -90.7 116.5 N 31.28 CA 35.21 C 36.23 O 39.84 CB 32.33 CG 30.46 CD1 32.62 CD2 31.17
B THR - 50 -107.2 171.6 N 44.77 CA 40.63 C 41.01 O 46.94 CB 36.72 OG1 44.05 CG2 42.81
B LYS S 158 -92.8 -4.6 N 43.27 CA 41.52 C 41.75 O 46.4 CB 41.84 CG 42.78 CD 41.08 CE 43.53 NZ 49.23
B THR S 81 -93.6 176.9 N 41.81 CA 44.41 C 46.5 O 54.21 CB 43.54 OG1 47.27 CG2 47.08
B ALA T 87 -68.0 -21.2 N 47.93 CA 39.86 C 38.25 O 49.73 CB 46.09
B GLU T 83 -78.9 -1.8 N 44.57 CA 40.49 C 37.74 O 41.15 CB 40.26 CG 41.04 CD 43.11 OE1 49.74 OE2 50.3
B ASN H 11 -67.2 -19.0 N 45.2 CA 39.74 C 40.84 O 44.57 CB 39.06 CG 36.78 OD1 42.96 ND2 41.16
B THR H 43 -66.1 -37.9 N 41.8 CA 36.15 C 42.57 O 36.72 CB 40.01 OG1 49.33 CG2 44.3
B THR H 27 -72.0 -41.6 N 40.24 CA 34.88 C 32.21 O 40.52 CB 35.63 OG1 45.93 CG2 39.41
B GLN H 71 -61.0 -43.4 N 28.85 CA 34.86 C 32.49 O 33.67 CB 37.1 CG 49.07 CD 48.89 OE1 51.92 NE2 52.63
B VAL H 0 -66.7 -40.1 N 33.22 CA 35.37 C 37.45 O 32.21 CB 30.34 CG1 31.91 CG2 36.29
B ALA H 3 -58.1 -43.2 N 35.48 CA 31.77 C 35.82 O 34.48 CB 37.12
B SER H 28 -65.1 -39.4 N 30.11 CA 29.74 C 34.6 O 33.92 CB 35.27 OG 41.56
B ARG H 73 -63.6 -40.9 N 31.58 CA 31.11 C 26.85 O 33.4 CB 35.22 CG 40.18 CD 41.52 NE 51.57 CZ 53.82 NH1 42.27 NH2 38.27
B ILE H 0 -63.6 -42.4 N 25.52 CA 33.13 C 31.39 O 27.78 CB 26.67 CG1 29.7 CG2 38.46 CD1 34.0
B LEU H 36 -62.0 -40.8 N 31.41 CA 31.52 C 26.84 O 33.94 CB 33.96 CG 36.04 CD1 38.56 CD2 40.18
B SER H 50 -62.0 -40.0 N 27.34 CA 34.45 C 37.99 O 31.08 CB 34.82 OG 48.69
B ALA H 2 -68.6 -40.6 N 39.05 CA 27.08 C 27.37 O 34.98 CB 28.58
B LEU H 2 -63.9 -38.2 N 25.22 CA 33.7 C 37.76 O 31.62 CB 31.55 CG 30.13 CD1 36.0 CD2 30.46
B GLU H 111 -62.8 -46.5 N 34.54 CA 35.42 C 37.3 O 41.58 CB 34.0 CG 46.27 CD 53.97 OE1 58.23 OE2 57.33
B ARG H 85 -55.5 -47.2 N 35.07 CA 32.33 C 32.51 O 29.5 CB 29.94 CG 37.3 CD 44.69 NE 51.08 CZ 60.85 NH1 62.36 NH2 45.97
B GLN H 11 -68.4 -39.5 N 30.62 CA 25.41 C 27.5 O 30.59 CB 28.77 CG 32.95 CD 33.88 OE1 30.42 NE2 26.68
B ALA H 4 -62.8 -38.9 N 34.17 CA 34.75 C 37.89 O 39.18 CB 35.3
B VAL H 94 -66.8 -47.5 N 37.01 CA 39.26 C 36.03 O 38.02 CB 33.99 CG1 40.13 CG2 37.07
B ALA H 42 -63.1 -35.6 N 34.7 CA 38.39 C 34.66 O 42.26 CB 37.29
B TYR T 49 -107.5 14.8 N 33.33 CA 37.56 C 39.44 O 36.93 CB 36.37 CG 31.0 CD1 39.23 CD2 39.48 CE1 39.1 CE2 38.31 CZ 36.96 OH 35.64
B SER T 109 57.5 48.6 N 41.24 CA 36.64 C 36.2 O 47.7 CB 42.03 OG 45.67
B LEU - 44 -109.9 159.7 N 33.09 CA 32.79 C 33.48 O 41.48 CB 38.87 CG 37.71 CD1 37.92 CD2 38.86
B ASP - 144 -103.1 123.4 N 43.52 CA 45.68 C 40.11 O 47.2 CB 52.43 CG 49.76 OD1 58.92 OD2 63.26
B LEU - 75 -83.2 135.1 N 46.46 CA 42.41 C 39.94 O 42.7 CB 50.16 CG 52.27 CD1 56.07 CD2 55.32
B PRO - 23 -65.7 166.3 N 41.11 CA 36.61 C 38.44 O 42.77 CB 42.06 CG 39.36 CD 43.0
B PRO - 59 -58.5 146.1 N 42.46 CA 38.6 C 31.62 O 43.51 CB 37.94 CG 44.72 CD 44.63
B THR H 69 -56.0 -38.2 N 39.85 CA 39.36 C 34.05 O 34.55 CB 43.58 OG1 45.82 CG2 44.07
B ALA H 15 -69.0 -26.1 N 40.18 CA 35.06 C 42.26 O 39.52 CB 40.9
B GLN H 47 -75.8 -47.2 N 44.99 CA 38.79 C 38.84 O 41.18 CB 37.54 CG 41.13 CD 39.98 OE1 53.34 NE2 48.29
B VAL H 7 -54.6 -48.8 N 37.1 CA 34.72 C 38.63 O 36.59 CB 32.66 CG1 39.15 CG2 36.57
B ASP - 31 49.4 54.8 N 33.2 CA 35.22 C 37.61 O 30.92 CB 35.81 CG 35.16 OD1 47.84 OD2 36.34
B ILE - 9 -62.9 138.3 N 36.35 CA 29.36 C 37.77 O 36.21 CB 30.6 CG1 33.07 CG2 35.11 CD1 32.88
B HIS E 73 -131.9 115.5 N 26.84 CA 29.45 C 35.03 O 43.83 CB 38.08 CG 36.69 ND1 42.81 CD2 38.99 CE1 44.94 NE2 41.75
B VAL E 18 -84.9 111.9 N 33.2 CA 38.64 C 42.35 O 49.63 CB 35.49 CG1 37.56 CG2 36.19
B GLU E 120 -83.2 -33.5 N 43.21 CA 41.16 C 43.78 O 49.0 CB 41.06 CG 50.39 CD 53.56 OE1 55.31 OE2 63.54
B SER E 39 -148.6 137.8 N 37.87 CA 34.54 C 37.84 O 37.85 CB 41.76 OG 57.27
B VAL E 19 -114.7 104.7 N 36.55 CA 40.94 C 44.62 O 47.52 CB 38.49 CG1 34.84 CG2 35.08
B VAL E 63 -93.4 125.0 N 38.78 CA 40.01 C 40.94 O 40.88 CB 39.47 CG1 42.73 CG2 45.49
B ARG E 155 45.3 58.9 N 36.64 CA 35.23 C 38.03 O 40.12 CB 36.62 CG 37.81 CD 43.64 NE 44.05 CZ 39.9 NH1 40.24 NH2 43.84
B PRO E 24 -54.3 127.1 N 42.75 CA 35.83 C 42.13 O 44.43 CB 39.57 CG 41.36 CD 40.2
B ARG E 53 -152.1 -178.7 N 36.59 CA 36.27 C 37.53 O 42.15 CB 40.63 CG 33.57 CD 37.09 NE 46.89 CZ 41.45 NH1 36.43 NH2 40.39
B GLY E 49 -104.9 156.6 N 36.05 CA 37.52 C 42.22 O 42.74
B MET E 37 -145.2 128.4 N 37.04 CA 36.63 C 32.38 O 41.88 CB 26.71 CG 33.06 SD 36.13 CE 32.51
B ARG E 98 -68.1 130.5 N 33.7 CA 36.57 C 39.25 O 43.13 CB 37.29 CG 41.89 CD 41.97 NE 48.65 CZ 46.04 NH1 45.58 NH2 52.63
B LEU E 15 -73.7 119.8 N 38.31 CA 34.19 C 43.51 O 46.9 CB 37.48 CG 42.95 CD1 44.09 CD2 48.69
B VAL E 58 -116.9 132.3 N 41.26 CA 42.56 C 44.88 O 48.03 CB 49.94 CG1 45.38 CG2 42.43
B THR E 48 -115.4 180.0 N 51.89 CA 52.57 C 61.46 O 56.8 CB 57.6 OG1 64.48 CG2 54.94
B SER T 90 -67.0 -22.6 N 66.99 CA 73.91 C 76.91 O 80.29 CB 74.54 OG 74.25
B THR T 134 -88.4 -0.7 N 78.05 CA 74.31 C 71.49 O 75.89 CB 77.62 OG1 81.27 CG2 78.04
B GLY E 30 127.7 -179.7 N 64.48 CA 60.74 C 52.35 O 61.76
B ALA E 73 -74.8 136.9 N 52.32 CA 49.63 C 45.11 O 57.97 CB 48.87
B THR E 40 -103.6 175.2 N 46.62 CA 39.94 C 38.84 O 47.06 CB 41.06 OG1 48.26 CG2 41.33
B GLU E 162 -90.1 -5.1 N 44.14 CA 39.89 C 47.59 O 48.76 CB 47.28 CG 49.85 CD 45.3 OE1 57.58 OE2 54.11
B GLN E 82 -78.8 133.9 N 45.46 CA 37.62 C 38.88 O 47.17 CB 38.0 CG 32.37 CD 37.26 OE1 40.98 NE2 43.1
B PHE E 107 -102.7 150.6 N 43.67 CA 39.75 C 41.37 O 45.71 CB 37.19 CG 38.95 CD1 45.11 CD2 44.19 CE1 41.25 CE2 43.88 CZ 41.5
B VAL E 4 -119.5 159.5 N 41.48 CA 37.91 C 34.37 O 36.44 CB 33.95 CG1 35.28 CG2 34.06
B GLY E 13 -74.8 140.5 N 29.76 CA 34.05 C 35.14 O 32.67
B LEU E 12 -137.6 134.1 N 28.84 CA 33.99 C 34.99 O 42.05 CB 30.21 CG 33.33 CD1 37.06 CD2 35.94
B ALA E 0 -160.3 155.9 N 28.92 CA 31.68 C 33.44 O 35.75 CB 29.48
B ASP E 33 -105.2 145.3 N 28.64 CA 31.43 C 35.88 O 39.47 CB 36.13 CG 37.38 OD1 43.07 OD2 43.2
B VAL E 5 -128.9 142.4 N 32.32 CA 28.84 C 37.74 O 34.47 CB 30.39 CG1 29.55 CG2 33.9
B GLU E 30 -120.9 130.8 N 28.42 CA 30.76 C 34.55 O 38.75 CB 36.07 CG 40.08 CD 49.03 OE1 51.55 OE2 55.19
B PHE E 1 -147.5 160.5 N 32.76 CA 33.65 C 36.95 O 35.23 CB 34.73 CG 28.37 CD1 28.89 CD2 35.59 CE1 33.68 CE2 30.38 CZ 28.31
B TYR E 76 -121.1 144.9 N 31.24 CA 31.6 C 31.2 O 41.47 CB 38.16 CG 38.65 CD1 41.05 CD2 39.36 CE1 47.73 CE2 42.18 CZ 42.06 OH 54.65
B ALA E 1 -157.3 150.8 N 34.37 CA 32.73 C 41.52 O 39.0 CB 30.35
B CYS E 10 -87.0 67.2 N 32.42 CA 35.11 C 39.84 O 37.78 CB 42.9 SG 47.3
B LEU E 1 -147.1 141.1 N 41.47 CA 39.53 C 29.82 O 41.23 CB 38.16 CG 46.16 CD1 42.14 CD2 44.17
B ASP E 39 -114.2 104.2 N 33.56 CA 35.82 C 42.27 O 40.55 CB 39.48 CG 47.16 OD1 44.2 OD2 54.83
B LEU E 14 -98.8 116.2 N 37.14 CA 31.2 C 30.28 O 34.99 CB 31.14 CG 32.78 CD1 34.03 CD2 35.7
B LYS E 104 -108.0 149.2 N 31.59 CA 28.63 C 28.58 O 26.73 CB 36.08 CG 40.13 CD 46.74 CE 53.9 NZ 57.89
B GLY S 22 81.7 -172.7 N 25.93 CA 26.36 C 26.99 O 30.68
B TYR - 31 -101.9 114.7 N 25.24 CA 24.52 C 25.63 O 25.21 CB 26.82 CG 27.28 CD1 29.62 CD2 29.23 CE1 36.54 CE2 33.09 CZ 39.84 OH 32.07
B TRP - 2 -110.8 152.4 N 24.63 CA 24.21 C 24.21 O 24.29 CB 25.77 CG 26.86 CD1 25.87 CD2 28.05 NE1 29.37 CE2 30.87 CE3 31.49 CZ2 34.82 CZ3 34.48 CH2 34.84
B PHE B 4 -134.4 158.2 N 24.47 CA 24.24 C 25.18 O 29.96 CB 25.19 CG 24.52 CD1 24.91 CD2 27.57 CE1 25.83 CE2 25.06 CZ 26.17
B ALA - 1 -134.7 166.3 N 24.76 CA 23.98 C 28.72 O 24.91 CB 24.76
B GLY S 14 75.2 -158.5 N 26.55 CA 27.07 C 24.52 O 29.11
B ASN S 49 -111.9 171.2 N 23.72 CA 24.38 C 24.94 O 26.6 CB 25.04 CG 26.05 OD1 32.29 ND2 29.53
B LEU - 31 57.1 33.8 N 29.16 CA 27.12 C 26.75 O 27.01 CB 28.1 CG 38.05 CD1 34.16 CD2 34.33
B THR G 16 -72.9 -17.3 N 26.07 CA 26.42 C 28.5 O 28.99 CB 26.45 OG1 25.99 CG2 27.67
B SER G 18 -63.5 -19.6 N 27.58 CA 26.9 C 30.8 O 25.77 CB 28.66 OG 38.46
B ARG G 44 -100.3 16.3 N 26.48 CA 28.29 C 27.63 O 30.1 CB 35.74 CG 35.85 CD 39.73 NE 41.47 CZ 47.71 NH1 46.07 NH2 46.84
B GLY T 5 90.7 -9.5 N 28.35 CA 29.58 C 28.84 O 28.37
B TYR T 22 -67.5 151.0 N 27.08 CA 26.52 C 27.89 O 26.69 CB 27.92 CG 24.53 CD1 25.4 CD2 26.39 CE1 26.37 CE2 33.65 CZ 34.87 OH 34.69
B GLY T 0 74.5 20.7 N 25.66 CA 27.36 C 25.6 O 23.34
B ARG E 17 -74.0 128.6 N 24.35 CA 23.99 C 23.96 O 24.05 CB 24.3 CG 23.53 CD 23.72 NE 23.78 CZ 23.69 NH1 25.4 NH2 26.25
B ILE E 12 -87.5 135.4 N 24.9 CA 24.58 C 26.37 O 25.22 CB 24.06 CG1 24.81 CG2 25.99 CD1 24.54
B ILE E 42 -131.6 120.3 N 24.28 CA 25.96 C 28.83 O 32.92 CB 30.32 CG1 26.13 CG2 31.96 CD1 32.67
B ALA E 33 -74.0 131.5 N 30.1 CA 35.41 C 44.46 O 38.17 CB 39.62
B ASP - 60 -63.9 140.2 N 41.81 CA 42.23 C 44.27 O 47.51 CB 42.58 CG 46.07 OD1 48.87 OD2 53.83
B HIS - 213 -88.9 360.0 N 50.26 CA 58.53 C 62.39 O 64.97 CB 65.17 CG 69.47 ND1 75.86 CD2 75.22 CE1 77.64 NE2 78.66
A GLY - 53 360.0 -29.2 N 56.76 CA 59.27 C 52.48 O 44.47
A GLN E 52 -98.3 133.1 N 44.54 CA 42.23 C 42.64 O 44.24 CB 44.77 CG 51.92 CD 53.34 OE1 51.46 NE2 52.54
A GLN E 1 -115.4 139.4 N 32.7 CA 28.54 C 27.79 O 34.23 CB 28.68 CG 33.78 CD 35.03 OE1 33.13 NE2 27.6
A HIS E 4 -122.3 127.4 N 27.82 CA 27.22 C 27.76 O 30.36 CB 30.07 CG 33.76 ND1 43.95 CD2 35.67 CE1 44.46 NE2 47.78
A LEU E 1 -122.1 117.3 N 24.62 CA 24.49 C 24.18 O 29.11 CB 25.84 CG 26.37 CD1 28.35 CD2 31.5
A LEU E 10 -90.7 116.0 N 26.71 CA 25.63 C 23.63 O 25.0 CB 24.42 CG 28.75 CD1 28.32 CD2 26.69
A ARG E 54 -120.9 129.6 N 25.09 CA 25.95 C 25.02 O 31.05 CB 29.51 CG 44.76 CD 42.31 NE 50.48 CZ 52.4 NH1 48.57 NH2 56.91
A PHE E 4 -111.4 123.0 N 24.12 CA 25.31 C 34.23 O 29.39 CB 26.09 CG 26.7 CD1 35.31 CD2 29.85 CE1 28.84 CE2 29.22 CZ 27.89
A ALA E 49 -82.8 125.2 N 25.79 CA 28.81 C 38.47 O 36.02 CB 32.26
A LEU - 19 -89.2 142.2 N 27.45 CA 31.3 C 32.64 O 39.38 CB 39.68 CG 38.31 CD1 44.11 CD2 36.54
A PRO - 31 -64.0 158.8 N 39.12 CA 39.87 C 45.12 O 37.46 CB 38.76 CG 43.59 CD 34.33
A ALA T 114 -52.5 -41.0 N 49.74 CA 49.45 C 45.41 O 52.62 CB 54.35
A GLY T 76 -81.1 4.1 N 50.59 CA 54.67 C 60.51 O 58.93
A LYS - 91 -123.3 139.4 N 58.17 CA 57.24 C 53.83 O 52.06 CB 55.42 CG 51.88 CD 57.93 CE 56.96 NZ 61.2
A LYS - 119 -112.4 138.4 N 53.33 CA 58.5 C 44.1 O 54.05 CB 62.25 CG 63.4 CD 66.26 CE 68.54 NZ 67.34
A LEU - 1 -148.0 94.3 N 46.6 CA 45.61 C 36.97 O 38.49 CB 42.2 CG 38.78 CD1 40.79 CD2 44.86
A TRP - 99 -71.3 151.9 N 32.07 CA 33.41 C 38.12 O 32.95 CB 33.87 CG 31.52 CD1 41.49 CD2 35.41 NE1 30.52 CE2 35.13 CE3 31.24 CZ2 36.58 CZ3 35.1 CH2 33.55
A PRO H 6 -52.0 -36.6 N 34.65 CA 36.06 C 36.42 O 34.33 CB 36.22 CG 36.47 CD 38.05
A ASN H 38 -65.1 -33.9 N 32.65 CA 35.65 C 30.66 O 30.85 CB 42.2 CG 47.79 OD1 51.81 ND2 56.72
A ASP H 44 -66.0 -45.7 N 30.69 CA 34.33 C 27.66 O 29.99 CB 39.25 CG 45.95 OD1 38.41 OD2 41.22
A LEU H 0 -61.2 -43.9 N 26.9 CA 27.1 C 29.67 O 27.99 CB 26.14 CG 29.4 CD1 26.65 CD2 25.75
A ARG H 32 -60.5 -48.0 N 26.33 CA 28.29 C 30.63 O 31.5 CB 28.98 CG 31.7 CD 36.36 NE 38.12 CZ 44.52 NH1 36.36 NH2 39.02
A GLU H 115 -60.1 -40.1 N 29.0 CA 29.35 C 34.36 O 30.45 CB 33.17 CG 43.58 CD 56.77 OE1 54.36 OE2 60.5
A ALA H 20 -70.2 -36.4 N 29.95 CA 30.21 C 32.16 O 33.08 CB 31.43
A LEU H 0 -64.7 -25.1 N 26.64 CA 28.85 C 36.37 O 27.3 CB 25.85 CG 27.0 CD1 30.92 CD2 26.05
A ALA T 62 -66.9 -12.5 N 35.33 CA 41.48 C 46.46 O 44.92 CB 40.59
A LYS T 185 -95.4 14.8 N 38.52 CA 45.91 C 47.68 O 51.74 CB 47.53 CG 49.53 CD 57.42 CE 59.81 NZ 68.35
A HIS S 61 -119.0 18.0 N 41.96 CA 37.02 C 43.12 O 46.27 CB 37.22 CG 35.86 ND1 41.18 CD2 33.69 CE1 32.06 NE2 46.58
A ASP - 161 59.1 50.9 N 46.27 CA 42.09 C 43.11 O 48.63 CB 47.92 CG 55.65 OD1 58.33 OD2 62.42
A LEU - 22 -97.1 160.4 N 40.66 CA 35.89 C 33.24 O 40.07 CB 31.24 CG 34.16 CD1 31.03 CD2 29.98
A PRO - 54 -62.9 145.3 N 36.09 CA 32.0 C 38.42 O 31.5 CB 37.05 CG 37.28 CD 36.46
A PRO G 50 -52.0 -33.2 N 35.75 CA 30.77 C 28.26 O 29.18 CB 39.93 CG 40.22 CD 39.64
A LEU G 19 -68.6 -20.7 N 31.77 CA 31.15 C 25.3 O 29.69 CB 32.28 CG 31.06 CD1 32.69 CD2 34.07
A PHE G 0 -56.4 -37.3 N 27.59 CA 30.37 C 27.21 O 26.71 CB 24.93 CG 24.64 CD1 26.74 CD2 28.48 CE1 25.27 CE2 27.67 CZ 25.49
A PHE G 35 -95.1 17.9 N 25.27 CA 25.6 C 33.46 O 35.97 CB 28.77 CG 29.69 CD1 31.57 CD2 31.47 CE1 30.45 CE2 33.18 CZ 34.0
A SER T 10 62.3 33.5 N 25.83 CA 33.69 C 27.72 O 29.82 CB 31.44 OG 28.86
A ARG B 98 -104.4 129.2 N 28.81 CA 33.54 C 31.99 O 28.19 CB 40.54 CG 46.67 CD 49.18 NE 52.14 CZ 56.26 NH1 55.27 NH2 57.12
A ASP - 1 -71.3 119.4 N 34.9 CA 33.37 C 29.96 O 41.41 CB 26.96 CG 28.18 OD1 35.84 OD2 37.57
A PRO T 77 -67.6 -14.9 N 29.22 CA 35.33 C 36.61 O 37.22 CB 36.24 CG 41.22 CD 32.29
A GLN T 123 -97.8 -1.3 N 40.12 CA 38.79 C 38.83 O 42.9 CB 41.63 CG 35.16 CD 43.8 OE1 41.02 NE2 43.1
A THR T 59 -117.4 -23.1 N 36.75 CA 36.57 C 39.56 O 44.3 CB 43.35 OG1 39.86 CG2 37.39
A GLY S 31 72.1 7.9 N 39.06 CA 40.36 C 34.9 O 43.99
A HIS S 138 -124.7 172.0 N 34.27 CA 36.56 C 35.77 O 39.77 CB 39.6 CG 40.73 ND1 46.08 CD2 40.95 CE1 45.5 NE2 51.01
A ALA B 71 -61.4 143.9 N 34.91 CA 34.64 C 41.37 O 36.79 CB 35.64
A ILE - 25 -52.1 146.0 N 37.14 CA 30.97 C 35.18 O 33.72 CB 35.4 CG1 34.54 CG2 28.47 CD1 33.93
A THR - 85 -143.6 161.4 N 31.82 CA 31.25 C 34.45 O 35.33 CB 33.17 OG1 36.79 CG2 36.88
A ARG - 143 -64.8 158.6 N 30.64 CA 32.51 C 43.43 O 38.52 CB 33.71 CG 32.42 CD 44.85 NE 34.96 CZ 38.6 NH1 37.85 NH2 39.17
A ALA - 39 -96.6 153.4 N 47.12 CA 39.63 C 39.54 O 44.02 CB 39.28
A MET - 69 -81.6 173.0 N 36.02 CA 43.05 C 39.72 O 48.17 CB 44.39 CG 48.95 SD 63.53 CE 42.57
A ARG - 234 -158.3 -2.9 N 45.72 CA 52.6 C 49.89 O 53.74 CB 48.61 CG 51.02 CD 50.42 NE 49.74 CZ 54.16 NH1 55.29 NH2 54.62
A ASN - 54 -97.9 148.9 N 46.48 CA 50.06 C 55.69 O 49.32 CB 48.17 CG 52.57 OD1 52.53 ND2 50.87
A GLU H 152 -74.5 -27.6 N 53.64 CA 54.71 C 47.64 O 50.42 CB 55.13 CG 59.56 CD 63.8 OE1 65.8 OE2 69.13
A LYS H 130 -76.6 -33.5 N 48.68 CA 50.23 C 50.23 O 55.39 CB 57.63 CG 60.36 CD 62.04 CE 62.03 NZ 64.59
A ARG H 148 -67.3 -37.1 N 47.17 CA 46.03 C 45.53 O 45.69 CB 43.11 CG 45.41 CD 44.73 NE 48.09 CZ 44.26 NH1 46.39 NH2 46.63
A VAL H 43 -60.1 -48.6 N 46.53 CA 43.23 C 46.89 O 51.68 CB 46.07 CG1 45.11 CG2 45.53
A ARG H 138 -56.1 -48.5 N 46.84 CA 45.84 C 45.95 O 54.66 CB 55.15 CG 55.65 CD 63.08 NE 68.4 CZ 69.81 NH1 70.83 NH2 70.2
A GLY H 28 -61.2 -38.2 N 49.45 CA 44.64 C 47.81 O 52.98
A TYR H 61 -65.4 -40.7 N 47.82 CA 42.9 C 43.83 O 48.65 CB 41.73 CG 40.74 CD1 38.02 CD2 37.49 CE1 42.13 CE2 40.71 CZ 43.83 OH 48.57
A ILE H 64 -64.2 -42.0 N 49.74 CA 47.66 C 49.71 O 54.58 CB 50.23 CG1 49.62 CG2 50.11 CD1 45.59
A GLU H 144 -61.8 -34.6 N 52.91 CA 54.12 C 55.4 O 57.35 CB 56.0 CG 55.46 CD 59.79 OE1 66.11 OE2 63.01
A GLN H 150 -79.7 -46.5 N 57.62 CA 57.81 C 51.84 O 58.88 CB 64.83 CG 65.43 CD 64.98 OE1 66.92 NE2 65.47
A HIS H 108 -105.1 -16.9 N 53.54 CA 45.02 C 40.47 O 52.34 CB 48.22 CG 45.93 ND1 53.07 CD2 50.95 CE1 50.08 NE2 50.51
A GLY S 64 79.1 15.9 N 51.39 CA 43.43 C 47.41 O 54.19
A HIS S 104 -159.0 171.9 N 50.18 CA 39.65 C 46.66 O 47.43 CB 39.85 CG 41.4 ND1 49.97 CD2 45.4 CE1 43.67 NE2 51.44
A GLU - 136 -83.1 157.6 N 41.79 CA 42.07 C 34.7 O 40.65 CB 43.13 CG 42.28 CD 42.07 OE1 58.21 OE2 59.82
A PRO - 30 -59.4 137.1 N 42.48 CA 40.83 C 36.44 O 45.55 CB 39.01 CG 33.08 CD 40.0
A PRO - 71 -65.0 170.4 N 42.87 CA 40.99 C 35.3 O 43.51 CB 45.09 CG 39.67 CD 46.09
A PRO - 106 -65.3 154.9 N 39.14 CA 39.52 C 35.51 O 43.34 CB 40.08 CG 43.39 CD 38.26
A PRO - 42 -60.3 145.9 N 42.37 CA 40.02 C 40.37 O 38.45 CB 35.73 CG 45.96 CD 37.32
A THR - 22 -60.9 169.3 N 38.82 CA 33.74 C 33.13 O 41.58 CB 39.67 OG1 33.43 CG2 37.18
A GLU H 123 -58.5 -42.7 N 31.02 CA 39.34 C 40.48 O 33.55 CB 38.7 CG 43.68 CD 52.56 OE1 60.61 OE2 53.7
A GLU H 3 -71.7 -37.1 N 40.6 CA 34.03 C 33.13 O 37.16 CB 40.95 CG 35.76 CD 34.78 OE1 33.89 OE2 35.84
A GLN H 35 -62.6 -35.7 N 34.99 CA 37.87 C 37.67 O 33.41 CB 33.93 CG 38.19 CD 46.19 OE1 38.08 NE2 44.92
A ARG H 174 -72.5 -40.9 N 39.55 CA 37.38 C 37.14 O 40.42 CB 39.23 CG 52.37 CD 51.71 NE 57.15 CZ 62.54 NH1 62.32 NH2 59.35
A ALA H 56 -75.1 -25.7 N 40.17 CA 40.19 C 34.95 O 36.84 CB 38.7
A ASN - 14 -136.7 65.7 N 31.83 CA 31.96 C 33.31 O 31.49 CB 30.47 CG 26.5 OD1 33.73 ND2 28.43
A PRO T 69 -70.0 -21.4 N 34.68 CA 32.91 C 37.91 O 41.2 CB 35.52 CG 37.32 CD 29.46
A LEU T 39 -92.7 3.2 N 34.48 CA 32.74 C 32.88 O 30.47 CB 31.44 CG 33.31 CD1 38.23 CD2 38.96
A ALA - 12 59.6 48.6 N 28.97 CA 30.2 C 32.53 O 30.32 CB 33.68
A ILE - 8 -94.2 129.8 N 26.77 CA 26.95 C 28.09 O 29.94 CB 31.47 CG1 37.01 CG2 33.15 CD1 36.92
A PRO - 19 -65.2 118.6 N 28.07 CA 27.72 C 34.31 O 31.77 CB 29.04 CG 30.41 CD 29.02
A GLY S 2 -69.5 -26.9 N 26.82 CA 26.27 C 25.14 O 30.0
A ILE E 0 -116.9 127.9 N 24.57 CA 25.22 C 29.09 O 25.71 CB 25.14 CG1 26.51 CG2 25.96 CD1 26.91
A ARG E 5 -127.0 143.1 N 25.1 CA 25.9 C 25.97 O 25.96 CB 25.4 CG 25.89 CD 26.42 NE 25.88 CZ 26.9 NH1 27.07 NH2 27.26
A ILE E 0 -96.9 121.2 N 25.47 CA 27.21 C 29.09 O 29.81 CB 30.31 CG1 32.23 CG2 28.42 CD1 36.09
A VAL E 1 -129.8 169.3 N 27.42 CA 26.89 C 29.69 O 26.67 CB 29.94 CG1 28.53 CG2 28.15
A GLY E 1 158.1 -167.8 N 27.91 CA 28.66 C 30.39 O 28.59
A SER E 22 -152.8 -165.2 N 29.53 CA 30.91 C 38.8 O 32.89 CB 34.74 OG 38.39
A SER T 54 -66.9 -22.3 N 30.71 CA 39.07 C 31.74 O 40.63 CB 36.6 OG 41.0
A THR T 87 -106.1 -1.2 N 33.86 CA 35.79 C 46.69 O 35.46 CB 41.39 OG1 59.55 CG2 47.27
A TRP E 13 -162.1 162.9 N 30.6 CA 26.68 C 35.06 O 28.12 CB 25.74 CG 28.83 CD1 36.28 CD2 26.71 NE1 30.63 CE2 32.04 CE3 30.12 CZ2 33.26 CZ3 30.26 CH2 29.19
A VAL E 0 -146.4 153.0 N 25.28 CA 26.41 C 26.23 O 24.76 CB 29.7 CG1 39.51 CG2 28.02
A GLY E 0 -167.5 176.9 N 26.94 CA 27.49 C 27.99 O 26.75
A ILE E 0 -123.3 123.6 N 25.12 CA 25.51 C 24.55 O 24.8 CB 25.37 CG1 28.02 CG2 26.5 CD1 29.67
A LEU E 1 -111.2 120.2 N 24.35 CA 24.46 C 25.61 O 25.55 CB 24.86 CG 26.06 CD1 26.61 CD2 26.81
A ALA E 0 -106.8 124.4 N 24.48 CA 26.6 C 27.3 O 28.78 CB 25.86
A THR E 2 -110.3 106.5 N 27.54 CA 30.77 C 35.38 O 29.09 CB 30.21 OG1 28.05 CG2 31.11
A GLY S 13 103.5 136.4 N 30.65 CA 37.35 C 40.26 O 32.02
A GLU G 101 -56.1 -30.5 N 40.24 CA 40.05 C 36.79 O 37.32 CB 43.86 CG 49.48 CD 53.86 OE1 56.1 OE2 54.73
A ARG G 89 -47.5 -39.0 N 35.27 CA 37.59 C 38.92 O 34.41 CB 39.12 CG 36.92 CD 38.06 NE 33.78 CZ 40.21 NH1 37.08 NH2 31.17
A TYR G 16 -96.7 -7.0 N 39.48 CA 31.03 C 34.34 O 29.67 CB 31.75 CG 34.05 CD1 33.81 CD2 28.95 CE1 27.48 CE2 35.42 CZ 36.01 OH 29.99
A LYS H 63 -58.2 -37.4 N 29.81 CA 38.11 C 32.16 O 29.15 CB 39.36 CG 45.47 CD 47.06 CE 50.61 NZ 52.34
A PRO H 84 -62.7 -26.9 N 32.9 CA 34.33 C 28.91 O 31.26 CB 38.68 CG 36.58 CD 36.26
A LEU H 20 -69.3 -43.5 N 29.61 CA 29.36 C 30.07 O 27.02 CB 27.88 CG 34.45 CD1 28.98 CD2 38.22
A LEU H 6 -56.1 -47.8 N 29.23 CA 34.05 C 30.25 O 28.06 CB 29.68 CG 34.93 CD1 36.85 CD2 40.93
A GLU H 128 -56.6 -44.3 N 28.57 CA 28.86 C 28.47 O 28.59 CB 32.02 CG 40.02 CD 52.1 OE1 54.32 OE2 52.69
A ALA H 49 -63.8 -32.3 N 34.34 CA 35.67 C 29.18 O 29.33 CB 32.97
A ALA H 0 -85.4 -1.5 N 27.29 CA 25.42 C 24.23 O 28.45 CB 26.74
A THR H 40 -71.0 -55.7 N 24.19 CA 26.15 C 26.38 O 25.41 CB 23.33 OG1 27.32 CG2 27.43
A LEU H 129 -62.5 -42.1 N 33.67 CA 27.24 C 22.81 O 26.4 CB 25.07 CG 27.93 CD1 35.6 CD2 40.6
A PRO H 21 -50.6 -47.1 N 25.17 CA 24.36 C 23.63 O 26.47 CB 32.62 CG 34.98 CD 28.3
A ALA H 0 -60.8 -42.0 N 27.57 CA 28.28 C 23.87 O 27.91 CB 26.17
A ILE H 64 -60.6 -43.9 N 23.29 CA 25.65 C 28.04 O 26.95 CB 22.9 CG1 24.53 CG2 26.24 CD1 29.56
A GLN H 86 -58.5 -48.1 N 25.05 CA 26.67 C 29.56 O 29.02 CB 28.61 CG 35.1 CD 42.42 OE1 43.48 NE2 47.96
A ILE H 11 -63.2 -48.5 N 26.78 CA 25.89 C 23.04 O 27.88 CB 25.93 CG1 27.26 CG2 25.72 CD1 32.39
A VAL H 0 -69.5 -40.3 N 27.01 CA 26.28 C 33.25 O 34.59 CB 31.07 CG1 33.62 CG2 27.84
A THR H 58 -70.6 -35.6 N 31.56 CA 29.49 C 29.97 O 34.8 CB 31.95 OG1 33.59 CG2 31.87
A GLN H 140 -70.0 -39.9 N 30.28 CA 30.28 C 37.07 O 38.99 CB 33.83 CG 39.16 CD 46.51 OE1 57.59 NE2 51.59
A ARG H 125 -71.8 -38.7 N 34.82 CA 34.46 C 35.08 O 46.9 CB 37.57 CG 45.55 CD 48.69 NE 54.66 CZ 56.99 NH1 50.09 NH2 54.59
A CYS H 5 -97.8 -15.0 N 33.63 CA 41.17 C 46.42 O 44.68 CB 36.29 SG 44.25
A GLY - 34 70.1 -160.0 N 45.14 CA 48.55 C 43.87 O 46.8
A ARG S 245 -76.3 155.8 N 45.26 CA 40.53 C 42.6 O 45.31 CB 50.72 CG 54.87 CD 61.47 NE 65.94 CZ 72.56 NH1 73.07 NH2 75.62
A GLY - 63 105.1 12.5 N 36.44 CA 42.45 C 43.62 O 41.47
A VAL - 38 -80.5 127.3 N 38.28 CA 27.29 C 32.07 O 38.45 CB 31.58 CG1 27.81 CG2 29.85
A GLY E 30 -93.8 154.6 N 26.88 CA 26.9 C 35.25 O 36.25
A VAL E 86 -132.4 139.8 N 28.66 CA 35.01 C 35.7 O 35.28 CB 39.53 CG1 33.63 CG2 31.68
A GLU E 128 -137.1 154.8 N 28.96 CA 30.67 C 28.09 O 28.93 CB 35.79 CG 51.12 CD 50.75 OE1 61.87 OE2 36.87
A LEU E 120 -130.9 111.1 N 30.14 CA 30.67 C 36.59 O 35.15 CB 30.54 CG 31.55 CD1 31.83 CD2 34.26
A GLU E 43 -101.5 148.7 N 33.63 CA 34.3 C 32.02 O 31.01 CB 29.44 CG 38.0 CD 38.5 OE1 34.45 OE2 33.42
A GLN E 117 -128.2 136.5 N 28.91 CA 32.94 C 38.13 O 36.24 CB 36.4 CG 44.18 CD 50.22 OE1 54.4 NE2 51.87
A HIS E 62 -138.2 151.6 N 33.09 CA 29.93 C 38.55 O 37.79 CB 33.99 CG 36.25 ND1 42.86 CD2 34.78 CE1 38.97 NE2 37.69
A THR E 82 -101.2 120.6 N 37.84 CA 39.21 C 36.41 O 36.08 CB 41.57 OG1 45.01 CG2 40.62
A LEU - 8 -62.4 128.7 N 29.81 CA 32.98 C 35.88 O 39.81 CB 35.65 CG 46.2 CD1 37.14 CD2 51.91
A SER E 46 -150.3 154.9 N 31.92 CA 40.16 C 36.73 O 30.66 CB 39.76 OG 39.58
A ILE E 16 -141.5 126.9 N 37.77 CA 34.42 C 45.25 O 42.46 CB 40.55 CG1 43.47 CG2 37.85 CD1 39.8
A LYS E 133 -142.3 146.5 N 43.71 CA 45.57 C 39.88 O 37.9 CB 42.34 CG 58.02 CD 59.89 CE 60.14 NZ 59.55
A GLY E 23 -73.8 156.7 N 37.36 CA 39.17 C 37.45 O 45.23
A LEU E 47 -126.7 164.7 N 38.05 CA 39.82 C 41.98 O 51.49 CB 33.74 CG 35.6 CD1 34.06 CD2 39.79
A ASP E 147 -89.1 -22.2 N 45.19 CA 47.68 C 46.72 O 48.49 CB 44.35 CG 49.59 OD1 54.94 OD2 57.04
A ASP E 122 -128.2 154.9 N 45.73 CA 41.15 C 39.66 O 48.99 CB 42.96 CG 45.76 OD1 52.53 OD2 56.98
A PRO E 85 -69.0 143.1 N 41.22 CA 34.65 C 41.09 O 42.81 CB 38.91 CG 42.89 CD 38.78
A LYS E 57 -118.2 138.2 N 35.78 CA 35.17 C 37.01 O 33.24 CB 36.2 CG 34.74 CD 34.36 CE 37.41 NZ 39.92
A ARG E 77 -91.5 133.0 N 30.91 CA 27.83 C 40.4 O 34.85 CB 29.97 CG 37.57 CD 39.9 NE 44.55 CZ 45.71 NH1 41.49 NH2 39.14
A TYR E 2 -133.9 158.2 N 26.32 CA 29.98 C 28.59 O 30.71 CB 26.17 CG 29.29 CD1 33.03 CD2 27.72 CE1 29.93 CE2 32.87 CZ 33.05 OH 30.17
A PHE E 61 -118.2 161.6 N 24.58 CA 25.14 C 24.53 O 30.41 CB 30.81 CG 33.73 CD1 32.28 CD2 32.57 CE1 31.93 CE2 38.34 CZ 37.29
A VAL E 1 -121.7 125.1 N 25.89 CA 27.92 C 26.25 O 26.11 CB 27.64 CG1 26.46 CG2 27.02
A ARG E 46 -89.3 122.5 N 26.6 CA 28.09 C 24.91 O 26.31 CB 26.29 CG 26.97 CD 28.36 NE 28.13 CZ 27.69 NH1 27.15 NH2 29.03
A ASN E 29 52.6 55.5 N 25.86 CA 25.99 C 25.41 O 25.61 CB 26.84 CG 34.43 OD1 31.56 ND2 32.24
A LEU E 2 -60.3 132.1 N 25.75 CA 28.92 C 26.7 O 29.15 CB 25.19 CG 27.75 CD1 28.1 CD2 29.49
A VAL E 0 -111.9 127.7 N 24.95 CA 29.2 C 27.84 O 25.85 CB 26.58 CG1 30.01 CG2 26.8
A MET E 4 -123.7 111.7 N 29.69 CA 28.98 C 24.93 O 31.09 CB 29.62 CG 30.58 SD 31.5 CE 34.92
A LYS S 85 -60.7 -35.7 N 26.13 CA 32.33 C 36.84 O 39.04 CB 31.85 CG 34.78 CD 37.48 CE 28.84 NZ 25.93
A ARG S 208 -136.2 151.4 N 34.19 CA 40.26 C 37.02 O 32.67 CB 40.46 CG 44.1 CD 56.1 NE 64.3 CZ 66.39 NH1 66.82 NH2 68.39
A GLY - 48 101.1 0.4 N 34.05 CA 36.16 C 33.64 O 38.81
A LEU - 31 -90.3 117.3 N 37.82 CA 31.92 C 38.7 O 38.38 CB 36.88 CG 30.97 CD1 31.16 CD2 33.86
A THR - 50 -105.6 171.2 N 41.12 CA 39.03 C 37.01 O 45.32 CB 30.63 OG1 42.67 CG2 38.08
A LYS S 154 -93.6 -4.9 N 39.01 CA 36.57 C 42.6 O 44.16 CB 42.38 CG 44.64 CD 44.28 CE 40.75 NZ 38.63
A THR S 84 -92.5 176.0 N 41.9 CA 44.92 C 44.3 O 45.52 CB 36.72 OG1 47.31 CG2 43.62
A ALA T 89 -66.4 -25.0 N 42.06 CA 39.43 C 36.53 O 44.04 CB 46.06
A GLU T 79 -75.4 -1.8 N 41.18 CA 38.04 C 40.08 O 39.08 CB 38.13 CG 42.67 CD 43.73 OE1 51.82 OE2 52.46
A ASN H 10 -67.8 -21.7 N 35.22 CA 37.73 C 35.62 O 33.74 CB 30.99 CG 29.11 OD1 37.82 ND2 43.18
A THR H 44 -63.9 -40.3 N 31.04 CA 29.17 C 38.21 O 29.23 CB 34.19 OG1 39.0 CG2 39.1
A THR H 36 -69.1 -40.5 N 35.66 CA 32.72 C 27.85 O 28.97 CB 32.52 OG1 42.62 CG2 43.59
A GLN H 82 -62.1 -43.8 N 27.99 CA 29.31 C 37.71 O 30.85 CB 39.27 CG 46.55 CD 46.64 OE1 51.62 NE2 46.43
A VAL H 0 -66.6 -39.9 N 34.57 CA 29.61 C 29.92 O 29.14 CB 30.69 CG1 32.52 CG2 30.85
A ALA H 4 -57.1 -44.8 N 28.92 CA 26.6 C 28.87 O 28.61 CB 33.3
A SER H 33 -62.9 -39.2 N 33.94 CA 30.55 C 32.58 O 30.97 CB 36.19 OG 33.33
A ARG H 65 -64.2 -38.1 N 33.54 CA 31.62 C 28.12 O 27.31 CB 28.56 CG 42.32 CD 41.21 NE 45.13 CZ 43.47 NH1 36.19 NH2 42.3
A ILE H 0 -66.7 -42.8 N 27.93 CA 31.81 C 29.37 O 27.04 CB 26.35 CG1 28.21 CG2 27.1 CD1 26.65
A LEU H 18 -61.6 -44.1 N 33.19 CA 29.27 C 25.21 O 27.18 CB 26.49 CG 34.91 CD1 28.13 CD2 33.86
A SER H 67 -59.0 -41.8 N 25.68 CA 30.22 C 35.22 O 28.01 CB 36.27 OG 34.01
A ALA H 14 -69.7 -42.4 N 27.99 CA 26.93 C 25.35 O 28.27 CB 26.03
A LEU H 1 -64.5 -34.6 N 26.22 CA 26.87 C 31.84 O 29.54 CB 29.83 CG 35.45 CD1 29.68 CD2 34.05
A GLU H 87 -67.9 -38.9 N 35.18 CA 31.07 C 36.8 O 33.0 CB 36.54 CG 46.52 CD 53.22 OE1 51.91 OE2 60.96
A ARG H 84 -64.9 -44.3 N 30.28 CA 35.4 C 36.02 O 29.82 CB 35.41 CG 43.36 CD 38.07 NE 37.11 CZ 39.81 NH1 42.57 NH2 36.04
A GLN H 11 -68.1 -38.2 N 29.05 CA 28.16 C 28.62 O 31.13 CB 33.05 CG 28.8 CD 36.28 OE1 30.42 NE2 28.91
A ALA H 3 -62.2 -43.7 N 26.53 CA 31.75 C 38.68 O 36.11 CB 36.03
A VAL H 105 -61.5 -45.3 N 32.35 CA 40.93 C 38.78 O 35.06 CB 38.28 CG1 43.2 CG2 37.91
A ALA H 39 -63.8 -38.3 N 31.74 CA 31.35 C 37.61 O 36.42 CB 37.51
A TYR T 49 -100.2 11.6 N 30.58 CA 38.22 C 34.76 O 39.85 CB 39.3 CG 32.65 CD1 36.64 CD2 33.59 CE1 39.89 CE2 34.21 CZ 34.64 OH 34.61
A SER T 109 56.7 49.5 N 37.86 CA 34.9 C 35.59 O 44.0 CB 39.4 OG 49.49
A LEU - 44 -113.1 155.2 N 37.36 CA 38.17 C 35.92 O 36.4 CB 34.99 CG 37.75 CD1 41.38 CD2 38.1
A ASP - 146 -97.1 121.0 N 42.23 CA 45.03 C 41.16 O 40.67 CB 45.54 CG 49.5 OD1 52.47 OD2 62.92
A LEU - 54 -86.9 136.1 N 44.58 CA 44.46 C 43.39 O 39.42 CB 48.3 CG 56.83 CD1 59.4 CD2 56.54
A PRO - 22 -66.6 165.5 N 41.65 CA 37.87 C 40.55 O 39.69 CB 41.46 CG 40.88 CD 42.3
A PRO - 51 -54.8 145.9 N 39.21 CA 41.89 C 37.92 O 36.84 CB 42.73 CG 40.11 CD 45.84
A THR H 47 -62.9 -32.8 N 38.33 CA 35.14 C 38.96 O 32.87 CB 48.03 OG1 46.31 CG2 47.69
A ALA H 15 -66.9 -27.3 N 32.25 CA 35.8 C 35.58 O 43.34 CB 35.15
A GLN H 48 -75.4 -49.2 N 36.0 CA 39.82 C 38.22 O 33.64 CB 43.12 CG 43.18 CD 44.77 OE1 55.11 NE2 45.53
A VAL H 2 -55.0 -46.8 N 32.14 CA 32.9 C 37.73 O 36.36 CB 30.21 CG1 35.31 CG2 35.27
A ASP - 30 46.6 57.8 N 29.03 CA 32.54 C 32.44 O 29.95 CB 38.62 CG 35.15 OD1 42.63 OD2 39.72
A ILE - 12 -64.3 135.1 N 32.2 CA 32.18 C 39.86 O 30.91 CB 31.11 CG1 26.66 CG2 35.3 CD1 33.84
A HIS E 72 -130.5 116.7 N 27.51 CA 28.38 C 33.58 O 35.3 CB 32.49 CG 35.11 ND1 42.37 CD2 42.62 CE1 41.44 NE2 34.09
A VAL E 17 -83.6 112.6 N 30.41 CA 33.66 C 37.75 O 37.34 CB 29.79 CG1 38.3 CG2 32.99
A GLU E 127 -82.5 -35.4 N 40.01 CA 35.01 C 41.37 O 42.45 CB 42.74 CG 46.19 CD 53.24 OE1 56.4 OE2 55.5
A SER E 43 -148.9 133.7 N 30.91 CA 38.32 C 34.58 O 33.26 CB 38.75 OG 50.93
A VAL E 18 -109.0 103.6 N 31.17 CA 35.1 C 42.74 O 35.56 CB 31.67 CG1 30.97 CG2 36.69
A VAL E 57 -91.0 127.2 N 33.7 CA 35.24 C 35.93 O 32.5 CB 29.07 CG1 35.68 CG2 36.76
A ARG E 158 43.8 61.5 N 33.86 CA 35.41 C 38.69 O 36.01 CB 34.44 CG 35.83 CD 40.49 NE 38.61 CZ 34.44 NH1 32.42 NH2 37.76
A PRO E 26 -58.4 130.6 N 31.47 CA 30.36 C 40.74 O 41.88 CB 36.25 CG 37.23 CD 34.72
A ARG E 56 -152.9 178.7 N 33.17 CA 30.31 C 35.86 O 34.81 CB 38.98 CG 33.76 CD 30.82 NE 36.6 CZ 34.98 NH1 30.46 NH2 30.22
A GLY E 48 -107.2 157.4 N 32.64 CA 32.11 C 39.68 O 36.26
A MET E 33 -142.7 125.0 N 35.97 CA 34.86 C 34.45 O 41.15 CB 33.35 CG 33.84 SD 32.56 CE 33.18
A ARG E 97 -64.6 131.3 N 33.9 CA 37.11 C 40.86 O 36.46 CB 37.59 CG 40.42 CD 41.65 NE 39.01 CZ 46.15 NH1 47.22 NH2 46.55
A LEU E 19 -79.8 121.6 N 36.06 CA 34.12 C 40.81 O 42.3 CB 42.18 CG 40.31 CD1 40.45 CD2 41.05
A VAL E 52 -115.6 134.1 N 39.95 CA 38.29 C 39.88 O 44.99 CB 43.08 CG1 44.85 CG2 44.68
A THR E 43 -112.4 178.4 N 42.89 CA 44.62 C 49.62 O 48.84 CB 48.26 OG1 57.5 CG2 47.58
A SER T 127 -61.8 -28.5 N 52.71 CA 57.97 C 58.01 O 57.09 CB 53.8 OG 55.66
A THR T 131 -86.0 0.7 N 59.07 CA 57.06 C 56.57 O 61.4 CB 58.16 OG1 59.05 CG2 61.05
A GLY E 31 126.5 -179.3 N 51.57 CA 47.59 C 46.22 O 43.45
A ALA E 70 -75.6 136.0 N 48.73 CA 47.92 C 47.32 O 47.67 CB 47.42
A THR E 41 -101.4 178.0 N 48.05 CA 43.61 C 38.93 O 43.88 CB 39.6 OG1 45.8 CG2 43.94
A GLU E 160 -93.0 -4.2 N 45.06 CA 41.22 C 40.27 O 44.3 CB 43.77 CG 47.41 CD 50.41 OE1 55.06 OE2 53.17
A GLN E 81 -78.5 136.4 N 38.54 CA 37.93 C 41.92 O 43.48 CB 41.33 CG 35.68 CD 30.13 OE1 41.63 NE2 33.12
A PHE E 104 -104.7 147.1 N 37.1 CA 36.48 C 37.39 O 42.86 CB 40.1 CG 35.18 CD1 43.93 CD2 38.74 CE1 40.92 CE2 41.97 CZ 44.61
A VAL E 3 -113.6 160.5 N 34.44 CA 37.86 C 34.76 O 35.12 CB 32.54 CG1 29.78 CG2 32.95
A GLY E 13 -79.9 142.1 N 31.57 CA 27.21 C 39.05 O 33.35
A LEU E 13 -138.8 132.5 N 28.26 CA 26.71 C 32.56 O 31.66 CB 29.92 CG 33.99 CD1 28.38 CD2 28.75
A ALA E 1 -154.5 161.8 N 29.41 CA 32.06 C 29.45 O 35.52 CB 29.01
A ASP E 36 -102.4 148.5 N 26.78 CA 26.01 C 32.33 O 40.3 CB 27.71 CG 27.96 OD1 30.71 OD2 34.8
A VAL E 4 -132.4 141.1 N 30.02 CA 29.92 C 34.65 O 30.12 CB 25.74 CG1 29.62 CG2 28.5
A GLU E 31 -118.8 129.0 N 24.22 CA 25.81 C 32.69 O 36.57 CB 30.96 CG 34.45 CD 47.15 OE1 57.07 OE2 43.44
A PHE E 1 -144.2 160.7 N 33.22 CA 32.21 C 34.06 O 33.16 CB 25.7 CG 24.91 CD1 27.29 CD2 25.28 CE1 26.52 CE2 35.7 CZ 25.0
A TYR E 75 -119.8 142.5 N 26.71 CA 26.57 C 38.44 O 32.65 CB 38.69 CG 35.41 CD1 37.59 CD2 37.7 CE1 41.4 CE2 41.05 CZ 38.94 OH 48.69
A ALA E 2 -154.6 153.3 N 30.6 CA 32.13 C 39.66 O 34.4 CB 30.5
A CYS E 12 -88.9 64.4 N 30.1 CA 30.61 C 39.27 O 38.6 CB 38.94 SG 43.63
A LEU E 1 -146.2 138.9 N 36.19 CA 36.87 C 32.29 O 33.94 CB 43.18 CG 42.85 CD1 39.85 CD2 43.34
A ASP E 33 -110.1 104.9 N 33.01 CA 37.95 C 33.88 O 38.92 CB 33.22 CG 47.25 OD1 45.09 OD2 49.06
A LEU E 16 -95.7 118.2 N 33.56 CA 27.26 C 29.21 O 35.86 CB 29.65 CG 32.28 CD1 34.79 CD2 36.92
A LYS E 100 -109.9 143.4 N 34.12 CA 33.85 C 32.02 O 29.44 CB 39.02 CG 44.78 CD 54.37 CE 58.69 NZ 62.95
A GLY S 22 90.4 -168.1 N 35.05 CA 29.39 C 32.72 O 33.12
A TYR - 28 -109.3 115.8 N 26.26 CA 27.15 C 26.25 O 28.79 CB 27.37 CG 28.07 CD1 33.93 CD2 31.34 CE1 30.71 CE2 32.69 CZ 36.35 OH 34.55
A TRP - 2 -111.6 153.0 N 26.96 CA 27.16 C 25.13 O 25.75 CB 27.7 CG 32.52 CD1 29.75 CD2 28.26 NE1 33.48 CE2 30.37 CE3 28.12 CZ2 35.5 CZ3 30.92 CH2 31.63
A PHE B 3 -134.6 159.7 N 24.63 CA 26.45 C 26.83 O 31.14 CB 25.9 CG 24.62 CD1 25.61 CD2 26.47 CE1 25.47 CE2 26.27 CZ 25.26
A ALA - 1 -141.2 163.4 N 26.37 CA 27.52 C 32.12 O 28.65 CB 28.36
A GLY S 18 78.7 -163.9 N 26.5 CA 30.83 C 27.06 O 28.84
A ASN S 44 -103.8 167.0 N 26.51 CA 27.15 C 27.64 O 29.28 CB 30.93 CG 34.93 OD1 34.02 ND2 36.82
A LEU - 31 63.1 30.7 N 27.53 CA 29.55 C 26.88 O 26.72 CB 31.15 CG 40.65 CD1 32.73 CD2 39.55
A THR G 15 -72.2 -18.4 N 25.86 CA 25.82 C 27.58 O 27.86 CB 29.53 OG1 27.53 CG2 27.13
A SER G 18 -63.4 -19.0 N 26.05 CA 30.74 C 29.28 O 27.55 CB 30.71 OG 32.61
A ARG G 45 -94.0 8.1 N 28.28 CA 30.43 C 29.86 O 29.5 CB 35.66 CG 48.12 CD 51.28 NE 54.22 CZ 67.93 NH1 67.38 NH2 75.01
A GLY T 2 93.4 -4.9 N 27.55 CA 29.11 C 29.04 O 29.28
A TYR T 18 -65.3 152.4 N 27.26 CA 27.17 C 27.79 O 28.18 CB 26.99 CG 26.24 CD1 27.29 CD2 34.18 CE1 29.16 CE2 32.25 CZ 37.4 OH 31.03
A GLY T 0 74.3 23.3 N 26.82 CA 29.44 C 26.93 O 25.49
A ARG E 16 -75.0 131.4 N 26.42 CA 24.75 C 25.3 O 27.19 CB 26.1 CG 28.56 CD 27.37 NE 25.8 CZ 25.64 NH1 26.79 NH2 28.77
A ILE E 13 -89.1 134.2 N 26.7 CA 27.56 C 30.29 O 26.68 CB 32.53 CG1 27.87 CG2 29.22 CD1 27.91
A ILE E 45 -132.4 119.8 N 26.87 CA 32.5 C 32.03 O 33.11 CB 35.54 CG1 29.44 CG2 34.57 CD1 34.7
A ALA E 22 -73.0 132.3 N 27.45 CA 33.0 C 41.37 O 37.1 CB 29.69
A ASP - 60 -65.3 140.9 N 32.1 CA 41.49 C 46.55 O 41.1 CB 38.36 CG 42.91 OD1 43.9 OD2 51.58
A HIS - 206 -111.0 360.0 N 51.3 CA 58.87 C 67.64 O 62.56 CB 70.98 CG 79.97 ND1 87.18 CD2 89.03 CE1 92.62 NE2 94.6
